GAME_ID_x,TEAM_ID_x,TEAM_ABBREVIATION_x,TEAM_CITY_x,PLAYER_ID,PLAYER_NAME_x,START_POSITION_x,COMMENT_x,MIN_x,OFF_RATING,DEF_RATING,NET_RATING,AST_PCT,AST_TOV,AST_RATIO,OREB_PCT,DREB_PCT,REB_PCT,TM_TOV_PCT,EFG_PCT,TS_PCT,USG_PCT,PACE,PIE,GAME_DATE_EST,GAME_SEQUENCE,TEAM_ID_y,TEAM_ABBREVIATION_y,TEAM_CITY_NAME,TEAM_WINS_LOSSES,PTS_QTR1,PTS_QTR2,PTS_QTR3,PTS_QTR4,PTS_OT1,PTS_OT2,PTS_OT3,PTS_OT4,PTS_OT5,PTS_OT6,PTS_OT7,PTS_OT8,PTS_OT9,PTS_OT10,PTS,FG_PCT,FT_PCT,FG3_PCT,AST,REB,TOV,GAME_ID_y,TEAM_ID,TEAM_ABBREVIATION,TEAM_CITY_y,PLAYER_NAME_y,START_POSITION_y,COMMENT_y,MIN_y,PTS_OFF_TOV,PTS_2ND_CHANCE,PTS_FB,PTS_PAINT,OPP_PTS_OFF_TOV,OPP_PTS_2ND_CHANCE,OPP_PTS_FB,OPP_PTS_PAINT,BLK,BLKA,PF,PFD
0021300468,1610612742,DAL,Dallas,1890,Shawn Marion,F,,30:09,95.1,78.2,16.9,0.286,1.0,25.2,0.133,0.156,0.145,25.2,0.571,0.571,0.175,99.61,0.171,2014-01-01T00:00:00,1,1610612742,DAL,Dallas,19-13,25,14,20,28,0,0,0,0,0,0,0,0,0,0,87,0.385,0.913,0.25,18,44,15,0021300468,1610612742,DAL,Dallas,Shawn Marion,F,,30:09,4.0,6.0,2.0,8.0,10.0,4.0,5.0,28.0,1.0,0.0,0.0,1.0
0021300468,1610612742,DAL,Dallas,1890,Shawn Marion,F,,30:09,95.1,78.2,16.9,0.286,1.0,25.2,0.133,0.156,0.145,25.2,0.571,0.571,0.175,99.61,0.171,2014-01-01T00:00:00,1,1610612764,WAS,Washington,14-15,20,22,19,17,0,0,0,0,0,0,0,0,0,0,78,0.375,0.7,0.208,17,46,18,0021300468,1610612742,DAL,Dallas,Shawn Marion,F,,30:09,4.0,6.0,2.0,8.0,10.0,4.0,5.0,28.0,1.0,0.0,0.0,1.0
0021300468,1610612742,DAL,Dallas,1717,Dirk Nowitzki,F,,31:39,94.8,81.4,13.4,0.222,2.0,18.8,0.038,0.129,0.088,9.4,0.214,0.294,0.267,86.07,0.043,2014-01-01T00:00:00,1,1610612742,DAL,Dallas,19-13,25,14,20,28,0,0,0,0,0,0,0,0,0,0,87,0.385,0.913,0.25,18,44,15,0021300468,1610612742,DAL,Dallas,Dirk Nowitzki,F,,31:39,0.0,2.0,0.0,2.0,7.0,4.0,6.0,26.0,0.0,0.0,2.0,2.0
0021300468,1610612742,DAL,Dallas,1717,Dirk Nowitzki,F,,31:39,94.8,81.4,13.4,0.222,2.0,18.8,0.038,0.129,0.088,9.4,0.214,0.294,0.267,86.07,0.043,2014-01-01T00:00:00,1,1610612764,WAS,Washington,14-15,20,22,19,17,0,0,0,0,0,0,0,0,0,0,78,0.375,0.7,0.208,17,46,18,0021300468,1610612742,DAL,Dallas,Dirk Nowitzki,F,,31:39,0.0,2.0,0.0,2.0,7.0,4.0,6.0,26.0,0.0,0.0,2.0,2.0
0021300468,1610612742,DAL,Dallas,2223,Samuel Dalembert,C,,18:03,79.0,90.9,-11.8,0.0,0.0,0.0,0.15,0.222,0.184,25.0,0.333,0.333,0.101,90.36,0.085,2014-01-01T00:00:00,1,1610612742,DAL,Dallas,19-13,25,14,20,28,0,0,0,0,0,0,0,0,0,0,87,0.385,0.913,0.25,18,44,15,0021300468,1610612742,DAL,Dallas,Samuel Dalembert,C,,18:03,0.0,0.0,0.0,2.0,7.0,4.0,4.0,18.0,0.0,1.0,2.0,1.0
0021300468,1610612742,DAL,Dallas,2223,Samuel Dalembert,C,,18:03,79.0,90.9,-11.8,0.0,0.0,0.0,0.15,0.222,0.184,25.0,0.333,0.333,0.101,90.36,0.085,2014-01-01T00:00:00,1,1610612764,WAS,Washington,14-15,20,22,19,17,0,0,0,0,0,0,0,0,0,0,78,0.375,0.7,0.208,17,46,18,0021300468,1610612742,DAL,Dallas,Samuel Dalembert,C,,18:03,0.0,0.0,0.0,2.0,7.0,4.0,4.0,18.0,0.0,1.0,2.0,1.0
0021300468,1610612742,DAL,Dallas,101145,Monta Ellis,G,,37:27,94.9,83.3,11.6,0.067,1.0,4.1,0.054,0.077,0.066,4.1,0.389,0.513,0.28,95.06,0.144,2014-01-01T00:00:00,1,1610612742,DAL,Dallas,19-13,25,14,20,28,0,0,0,0,0,0,0,0,0,0,87,0.385,0.913,0.25,18,44,15,0021300468,1610612742,DAL,Dallas,Monta Ellis,G,,37:27,8.0,2.0,2.0,10.0,7.0,6.0,6.0,34.0,2.0,3.0,2.0,6.0
0021300468,1610612742,DAL,Dallas,101145,Monta Ellis,G,,37:27,94.9,83.3,11.6,0.067,1.0,4.1,0.054,0.077,0.066,4.1,0.389,0.513,0.28,95.06,0.144,2014-01-01T00:00:00,1,1610612764,WAS,Washington,14-15,20,22,19,17,0,0,0,0,0,0,0,0,0,0,78,0.375,0.7,0.208,17,46,18,0021300468,1610612742,DAL,Dallas,Monta Ellis,G,,37:27,8.0,2.0,2.0,10.0,7.0,6.0,6.0,34.0,2.0,3.0,2.0,6.0
0021300468,1610612742,DAL,Dallas,101181,Jose Calderon,G,,32:40,93.2,83.8,9.4,0.176,0.0,16.8,0.0,0.171,0.088,0.0,0.321,0.37,0.206,93.15,0.112,2014-01-01T00:00:00,1,1610612742,DAL,Dallas,19-13,25,14,20,28,0,0,0,0,0,0,0,0,0,0,87,0.385,0.913,0.25,18,44,15,0021300468,1610612742,DAL,Dallas,Jose Calderon,G,,32:40,2.0,0.0,0.0,0.0,7.0,6.0,6.0,32.0,0.0,1.0,1.0,1.0
0021300468,1610612742,DAL,Dallas,101181,Jose Calderon,G,,32:40,93.2,83.8,9.4,0.176,0.0,16.8,0.0,0.171,0.088,0.0,0.321,0.37,0.206,93.15,0.112,2014-01-01T00:00:00,1,1610612764,WAS,Washington,14-15,20,22,19,17,0,0,0,0,0,0,0,0,0,0,78,0.375,0.7,0.208,17,46,18,0021300468,1610612742,DAL,Dallas,Jose Calderon,G,,32:40,2.0,0.0,0.0,0.0,7.0,6.0,6.0,32.0,0.0,1.0,1.0,1.0
0021300468,1610612742,DAL,Dallas,1713,Vince Carter,,,28:05,90.1,68.7,21.4,0.25,0.0,21.6,0.0,0.0,0.0,0.0,0.55,0.597,0.171,98.36,0.182,2014-01-01T00:00:00,1,1610612742,DAL,Dallas,19-13,25,14,20,28,0,0,0,0,0,0,0,0,0,0,87,0.385,0.913,0.25,18,44,15,0021300468,1610612742,DAL,Dallas,Vince Carter,,,28:05,0.0,0.0,0.0,0.0,11.0,2.0,9.0,24.0,0.0,1.0,0.0,5.0
0021300468,1610612742,DAL,Dallas,1713,Vince Carter,,,28:05,90.1,68.7,21.4,0.25,0.0,21.6,0.0,0.0,0.0,0.0,0.55,0.597,0.171,98.36,0.182,2014-01-01T00:00:00,1,1610612764,WAS,Washington,14-15,20,22,19,17,0,0,0,0,0,0,0,0,0,0,78,0.375,0.7,0.208,17,46,18,0021300468,1610612742,DAL,Dallas,Vince Carter,,,28:05,0.0,0.0,0.0,0.0,11.0,2.0,9.0,24.0,0.0,1.0,0.0,5.0
0021300468,1610612742,DAL,Dallas,201148,Brandan Wright,,,18:11,106.2,82.4,23.8,0.143,0.33,9.1,0.071,0.125,0.1,27.3,0.714,0.714,0.271,95.7,0.155,2014-01-01T00:00:00,1,1610612742,DAL,Dallas,19-13,25,14,20,28,0,0,0,0,0,0,0,0,0,0,87,0.385,0.913,0.25,18,44,15,0021300468,1610612742,DAL,Dallas,Brandan Wright,,,18:11,2.0,2.0,0.0,8.0,5.0,0.0,7.0,20.0,0.0,0.0,2.0,0.0
0021300468,1610612742,DAL,Dallas,201148,Brandan Wright,,,18:11,106.2,82.4,23.8,0.143,0.33,9.1,0.071,0.125,0.1,27.3,0.714,0.714,0.271,95.7,0.155,2014-01-01T00:00:00,1,1610612764,WAS,Washington,14-15,20,22,19,17,0,0,0,0,0,0,0,0,0,0,78,0.375,0.7,0.208,17,46,18,0021300468,1610612742,DAL,Dallas,Brandan Wright,,,18:11,2.0,2.0,0.0,8.0,5.0,0.0,7.0,20.0,0.0,0.0,2.0,0.0
0021300468,1610612742,DAL,Dallas,203109,Jae Crowder,,,17:56,106.0,83.4,22.6,0.0,0.0,0.0,0.0,0.214,0.12,25.8,0.5,0.694,0.111,91.98,0.096,2014-01-01T00:00:00,1,1610612742,DAL,Dallas,19-13,25,14,20,28,0,0,0,0,0,0,0,0,0,0,87,0.385,0.913,0.25,18,44,15,0021300468,1610612742,DAL,Dallas,Jae Crowder,,,17:56,0.0,0.0,0.0,0.0,8.0,2.0,5.0,16.0,0.0,0.0,0.0,1.0
0021300468,1610612742,DAL,Dallas,203109,Jae Crowder,,,17:56,106.0,83.4,22.6,0.0,0.0,0.0,0.0,0.214,0.12,25.8,0.5,0.694,0.111,91.98,0.096,2014-01-01T00:00:00,1,1610612764,WAS,Washington,14-15,20,22,19,17,0,0,0,0,0,0,0,0,0,0,78,0.375,0.7,0.208,17,46,18,0021300468,1610612742,DAL,Dallas,Jae Crowder,,,17:56,0.0,0.0,0.0,0.0,8.0,2.0,5.0,16.0,0.0,0.0,0.0,1.0
0021300468,1610612742,DAL,Dallas,203499,Shane Larkin,,,11:49,98.4,87.9,10.6,0.143,0.5,20.0,0.0,0.125,0.067,40.0,0.5,0.5,0.188,87.51,0.065,2014-01-01T00:00:00,1,1610612742,DAL,Dallas,19-13,25,14,20,28,0,0,0,0,0,0,0,0,0,0,87,0.385,0.913,0.25,18,44,15,0021300468,1610612742,DAL,Dallas,Shane Larkin,,,11:49,0.0,0.0,0.0,2.0,8.0,0.0,5.0,12.0,0.0,0.0,0.0,3.0
0021300468,1610612742,DAL,Dallas,203499,Shane Larkin,,,11:49,98.4,87.9,10.6,0.143,0.5,20.0,0.0,0.125,0.067,40.0,0.5,0.5,0.188,87.51,0.065,2014-01-01T00:00:00,1,1610612764,WAS,Washington,14-15,20,22,19,17,0,0,0,0,0,0,0,0,0,0,78,0.375,0.7,0.208,17,46,18,0021300468,1610612742,DAL,Dallas,Shane Larkin,,,11:49,0.0,0.0,0.0,2.0,8.0,0.0,5.0,12.0,0.0,0.0,0.0,3.0
0021300468,1610612742,DAL,Dallas,201971,DeJuan Blair,,,14:02,104.7,75.3,29.4,0.1,1.0,25.8,0.1,0.308,0.217,25.8,1.0,1.064,0.094,96.66,0.183,2014-01-01T00:00:00,1,1610612742,DAL,Dallas,19-13,25,14,20,28,0,0,0,0,0,0,0,0,0,0,87,0.385,0.913,0.25,18,44,15,0021300468,1610612742,DAL,Dallas,DeJuan Blair,,,14:02,0.0,2.0,0.0,2.0,5.0,2.0,2.0,10.0,0.0,0.0,3.0,1.0
0021300468,1610612742,DAL,Dallas,201971,DeJuan Blair,,,14:02,104.7,75.3,29.4,0.1,1.0,25.8,0.1,0.308,0.217,25.8,1.0,1.064,0.094,96.66,0.183,2014-01-01T00:00:00,1,1610612764,WAS,Washington,14-15,20,22,19,17,0,0,0,0,0,0,0,0,0,0,78,0.375,0.7,0.208,17,46,18,0021300468,1610612742,DAL,Dallas,DeJuan Blair,,,14:02,0.0,2.0,0.0,2.0,5.0,2.0,2.0,10.0,0.0,0.0,3.0,1.0
0021300468,1610612742,DAL,Dallas,201961,Wayne Ellington,,DNP - Coach's Decision,,,,,,,0.0,,,,,,,0.0,,,2014-01-01T00:00:00,1,1610612742,DAL,Dallas,19-13,25,14,20,28,0,0,0,0,0,0,0,0,0,0,87,0.385,0.913,0.25,18,44,15,0021300468,1610612742,DAL,Dallas,Wayne Ellington,,DNP - Coach's Decision,,,,,,,,,,,,,
0021300468,1610612742,DAL,Dallas,201961,Wayne Ellington,,DNP - Coach's Decision,,,,,,,0.0,,,,,,,0.0,,,2014-01-01T00:00:00,1,1610612764,WAS,Washington,14-15,20,22,19,17,0,0,0,0,0,0,0,0,0,0,78,0.375,0.7,0.208,17,46,18,0021300468,1610612742,DAL,Dallas,Wayne Ellington,,DNP - Coach's Decision,,,,,,,,,,,,,
0021300468,1610612742,DAL,Dallas,203108,Bernard James,,DNP - Coach's Decision,,,,,,,0.0,,,,,,,0.0,,,2014-01-01T00:00:00,1,1610612742,DAL,Dallas,19-13,25,14,20,28,0,0,0,0,0,0,0,0,0,0,87,0.385,0.913,0.25,18,44,15,0021300468,1610612742,DAL,Dallas,Bernard James,,DNP - Coach's Decision,,,,,,,,,,,,,
0021300468,1610612742,DAL,Dallas,203108,Bernard James,,DNP - Coach's Decision,,,,,,,0.0,,,,,,,0.0,,,2014-01-01T00:00:00,1,1610612764,WAS,Washington,14-15,20,22,19,17,0,0,0,0,0,0,0,0,0,0,78,0.375,0.7,0.208,17,46,18,0021300468,1610612742,DAL,Dallas,Bernard James,,DNP - Coach's Decision,,,,,,,,,,,,,
0021300468,1610612742,DAL,Dallas,203539,Gal Mekel,,DNP - Coach's Decision,,,,,,,0.0,,,,,,,0.0,,,2014-01-01T00:00:00,1,1610612742,DAL,Dallas,19-13,25,14,20,28,0,0,0,0,0,0,0,0,0,0,87,0.385,0.913,0.25,18,44,15,0021300468,1610612742,DAL,Dallas,Gal Mekel,,DNP - Coach's Decision,,,,,,,,,,,,,
0021300468,1610612742,DAL,Dallas,203539,Gal Mekel,,DNP - Coach's Decision,,,,,,,0.0,,,,,,,0.0,,,2014-01-01T00:00:00,1,1610612764,WAS,Washington,14-15,20,22,19,17,0,0,0,0,0,0,0,0,0,0,78,0.375,0.7,0.208,17,46,18,0021300468,1610612742,DAL,Dallas,Gal Mekel,,DNP - Coach's Decision,,,,,,,,,,,,,
0021300468,1610612764,WAS,Washington,2772,Trevor Ariza,F,,33:55,75.8,103.3,-27.6,0.105,0.0,12.2,0.026,0.091,0.056,0.0,0.25,0.277,0.174,96.07,0.022,2014-01-01T00:00:00,1,1610612742,DAL,Dallas,19-13,25,14,20,28,0,0,0,0,0,0,0,0,0,0,87,0.385,0.913,0.25,18,44,15,0021300468,1610612764,WAS,Washington,Trevor Ariza,F,,33:55,3.0,0.0,3.0,4.0,14.0,14.0,4.0,28.0,1.0,1.0,3.0,1.0
0021300468,1610612764,WAS,Washington,2772,Trevor Ariza,F,,33:55,75.8,103.3,-27.6,0.105,0.0,12.2,0.026,0.091,0.056,0.0,0.25,0.277,0.174,96.07,0.022,2014-01-01T00:00:00,1,1610612764,WAS,Washington,14-15,20,22,19,17,0,0,0,0,0,0,0,0,0,0,78,0.375,0.7,0.208,17,46,18,0021300468,1610612764,WAS,Washington,Trevor Ariza,F,,33:55,3.0,0.0,3.0,4.0,14.0,14.0,4.0,28.0,1.0,1.0,3.0,1.0
0021300468,1610612764,WAS,Washington,202344,Trevor Booker,F,,30:02,88.9,94.4,-5.5,0.053,1.0,9.1,0.259,0.4,0.333,9.1,0.556,0.556,0.137,93.45,0.267,2014-01-01T00:00:00,1,1610612742,DAL,Dallas,19-13,25,14,20,28,0,0,0,0,0,0,0,0,0,0,87,0.385,0.913,0.25,18,44,15,0021300468,1610612764,WAS,Washington,Trevor Booker,F,,30:02,0.0,2.0,0.0,8.0,14.0,6.0,4.0,20.0,1.0,0.0,0.0,0.0
0021300468,1610612764,WAS,Washington,202344,Trevor Booker,F,,30:02,88.9,94.4,-5.5,0.053,1.0,9.1,0.259,0.4,0.333,9.1,0.556,0.556,0.137,93.45,0.267,2014-01-01T00:00:00,1,1610612764,WAS,Washington,14-15,20,22,19,17,0,0,0,0,0,0,0,0,0,0,78,0.375,0.7,0.208,17,46,18,0021300468,1610612764,WAS,Washington,Trevor Booker,F,,30:02,0.0,2.0,0.0,8.0,14.0,6.0,4.0,20.0,1.0,0.0,0.0,0.0
0021300468,1610612764,WAS,Washington,101162,Marcin Gortat,C,,26:44,91.8,83.8,8.0,0.143,2.0,14.3,0.0,0.208,0.096,7.1,0.545,0.545,0.196,87.75,0.159,2014-01-01T00:00:00,1,1610612742,DAL,Dallas,19-13,25,14,20,28,0,0,0,0,0,0,0,0,0,0,87,0.385,0.913,0.25,18,44,15,0021300468,1610612764,WAS,Washington,Marcin Gortat,C,,26:44,0.0,0.0,0.0,10.0,4.0,2.0,2.0,16.0,2.0,0.0,2.0,2.0
0021300468,1610612764,WAS,Washington,101162,Marcin Gortat,C,,26:44,91.8,83.8,8.0,0.143,2.0,14.3,0.0,0.208,0.096,7.1,0.545,0.545,0.196,87.75,0.159,2014-01-01T00:00:00,1,1610612764,WAS,Washington,14-15,20,22,19,17,0,0,0,0,0,0,0,0,0,0,78,0.375,0.7,0.208,17,46,18,0021300468,1610612764,WAS,Washington,Marcin Gortat,C,,26:44,0.0,0.0,0.0,10.0,4.0,2.0,2.0,16.0,2.0,0.0,2.0,2.0
0021300468,1610612764,WAS,Washington,203078,Bradley Beal,G,,29:40,95.6,93.0,2.7,0.143,1.5,16.3,0.037,0.033,0.035,10.8,0.385,0.372,0.222,94.3,0.038,2014-01-01T00:00:00,1,1610612742,DAL,Dallas,19-13,25,14,20,28,0,0,0,0,0,0,0,0,0,0,87,0.385,0.913,0.25,18,44,15,0021300468,1610612764,WAS,Washington,Bradley Beal,G,,29:40,5.0,0.0,2.0,4.0,10.0,6.0,2.0,18.0,0.0,2.0,2.0,1.0
0021300468,1610612764,WAS,Washington,203078,Bradley Beal,G,,29:40,95.6,93.0,2.7,0.143,1.5,16.3,0.037,0.033,0.035,10.8,0.385,0.372,0.222,94.3,0.038,2014-01-01T00:00:00,1,1610612764,WAS,Washington,14-15,20,22,19,17,0,0,0,0,0,0,0,0,0,0,78,0.375,0.7,0.208,17,46,18,0021300468,1610612764,WAS,Washington,Bradley Beal,G,,29:40,5.0,0.0,2.0,4.0,10.0,6.0,2.0,18.0,0.0,2.0,2.0,1.0
0021300468,1610612764,WAS,Washington,202322,John Wall,G,,41:49,85.7,94.6,-8.9,0.227,0.71,15.5,0.073,0.105,0.089,21.7,0.472,0.545,0.281,92.33,0.117,2014-01-01T00:00:00,1,1610612742,DAL,Dallas,19-13,25,14,20,28,0,0,0,0,0,0,0,0,0,0,87,0.385,0.913,0.25,18,44,15,0021300468,1610612764,WAS,Washington,John Wall,G,,41:49,3.0,4.0,4.0,10.0,16.0,12.0,4.0,26.0,0.0,0.0,3.0,5.0
0021300468,1610612764,WAS,Washington,202322,John Wall,G,,41:49,85.7,94.6,-8.9,0.227,0.71,15.5,0.073,0.105,0.089,21.7,0.472,0.545,0.281,92.33,0.117,2014-01-01T00:00:00,1,1610612764,WAS,Washington,14-15,20,22,19,17,0,0,0,0,0,0,0,0,0,0,78,0.375,0.7,0.208,17,46,18,0021300468,1610612764,WAS,Washington,John Wall,G,,41:49,3.0,4.0,4.0,10.0,16.0,12.0,4.0,26.0,0.0,0.0,3.0,5.0
0021300468,1610612764,WAS,Washington,202338,Kevin Seraphin,,,14:36,62.9,98.9,-36.0,0.0,0.0,0.0,0.059,0.182,0.107,28.6,0.2,0.2,0.199,99.48,-0.091,2014-01-01T00:00:00,1,1610612742,DAL,Dallas,19-13,25,14,20,28,0,0,0,0,0,0,0,0,0,0,87,0.385,0.913,0.25,18,44,15,0021300468,1610612764,WAS,Washington,Kevin Seraphin,,,14:36,2.0,0.0,0.0,0.0,6.0,8.0,2.0,16.0,1.0,0.0,2.0,0.0
0021300468,1610612764,WAS,Washington,202338,Kevin Seraphin,,,14:36,62.9,98.9,-36.0,0.0,0.0,0.0,0.059,0.182,0.107,28.6,0.2,0.2,0.199,99.48,-0.091,2014-01-01T00:00:00,1,1610612764,WAS,Washington,14-15,20,22,19,17,0,0,0,0,0,0,0,0,0,0,78,0.375,0.7,0.208,17,46,18,0021300468,1610612764,WAS,Washington,Kevin Seraphin,,,14:36,2.0,0.0,0.0,0.0,6.0,8.0,2.0,16.0,1.0,0.0,2.0,0.0
0021300468,1610612764,WAS,Washington,101110,Martell Webster,,,22:06,70.8,117.0,-46.1,0.2,2.0,16.1,0.0,0.067,0.028,8.0,0.389,0.424,0.21,94.85,0.033,2014-01-01T00:00:00,1,1610612742,DAL,Dallas,19-13,25,14,20,28,0,0,0,0,0,0,0,0,0,0,87,0.385,0.913,0.25,18,44,15,0021300468,1610612764,WAS,Washington,Martell Webster,,,22:06,2.0,0.0,2.0,4.0,10.0,10.0,2.0,18.0,0.0,0.0,2.0,0.0
0021300468,1610612764,WAS,Washington,101110,Martell Webster,,,22:06,70.8,117.0,-46.1,0.2,2.0,16.1,0.0,0.067,0.028,8.0,0.389,0.424,0.21,94.85,0.033,2014-01-01T00:00:00,1,1610612764,WAS,Washington,14-15,20,22,19,17,0,0,0,0,0,0,0,0,0,0,78,0.375,0.7,0.208,17,46,18,0021300468,1610612764,WAS,Washington,Martell Webster,,,22:06,2.0,0.0,2.0,4.0,10.0,10.0,2.0,18.0,0.0,0.0,2.0,0.0
0021300468,1610612764,WAS,Washington,202066,Garrett Temple,,,6:11,54.2,101.0,-46.8,0.0,0.0,0.0,0.0,0.2,0.091,100.0,0.0,0.0,0.068,103.4,-0.083,2014-01-01T00:00:00,1,1610612742,DAL,Dallas,19-13,25,14,20,28,0,0,0,0,0,0,0,0,0,0,87,0.385,0.913,0.25,18,44,15,0021300468,1610612764,WAS,Washington,Garrett Temple,,,6:11,0.0,0.0,0.0,0.0,0.0,2.0,0.0,8.0,0.0,0.0,1.0,0.0
0021300468,1610612764,WAS,Washington,202066,Garrett Temple,,,6:11,54.2,101.0,-46.8,0.0,0.0,0.0,0.0,0.2,0.091,100.0,0.0,0.0,0.068,103.4,-0.083,2014-01-01T00:00:00,1,1610612764,WAS,Washington,14-15,20,22,19,17,0,0,0,0,0,0,0,0,0,0,78,0.375,0.7,0.208,17,46,18,0021300468,1610612764,WAS,Washington,Garrett Temple,,,6:11,0.0,0.0,0.0,0.0,0.0,2.0,0.0,8.0,0.0,0.0,1.0,0.0
0021300468,1610612764,WAS,Washington,2403,Nene,,,23:52,71.4,96.2,-24.9,0.083,0.5,9.2,0.095,0.05,0.073,18.4,0.286,0.254,0.195,93.86,-0.102,2014-01-01T00:00:00,1,1610612742,DAL,Dallas,19-13,25,14,20,28,0,0,0,0,0,0,0,0,0,0,87,0.385,0.913,0.25,18,44,15,0021300468,1610612764,WAS,Washington,Nene,,,23:52,0.0,0.0,0.0,4.0,6.0,10.0,0.0,16.0,1.0,0.0,6.0,3.0
0021300468,1610612764,WAS,Washington,2403,Nene,,,23:52,71.4,96.2,-24.9,0.083,0.5,9.2,0.095,0.05,0.073,18.4,0.286,0.254,0.195,93.86,-0.102,2014-01-01T00:00:00,1,1610612764,WAS,Washington,14-15,20,22,19,17,0,0,0,0,0,0,0,0,0,0,78,0.375,0.7,0.208,17,46,18,0021300468,1610612764,WAS,Washington,Nene,,,23:52,0.0,0.0,0.0,4.0,6.0,10.0,0.0,16.0,1.0,0.0,6.0,3.0
0021300468,1610612764,WAS,Washington,203490,Otto Porter Jr.,,,11:05,74.6,53.8,20.8,0.167,1.0,25.0,0.0,0.111,0.059,25.0,0.5,0.5,0.128,90.67,0.114,2014-01-01T00:00:00,1,1610612742,DAL,Dallas,19-13,25,14,20,28,0,0,0,0,0,0,0,0,0,0,87,0.385,0.913,0.25,18,44,15,0021300468,1610612764,WAS,Washington,Otto Porter Jr.,,,11:05,0.0,0.0,0.0,0.0,0.0,0.0,0.0,4.0,0.0,0.0,0.0,0.0
0021300468,1610612764,WAS,Washington,203490,Otto Porter Jr.,,,11:05,74.6,53.8,20.8,0.167,1.0,25.0,0.0,0.111,0.059,25.0,0.5,0.5,0.128,90.67,0.114,2014-01-01T00:00:00,1,1610612764,WAS,Washington,14-15,20,22,19,17,0,0,0,0,0,0,0,0,0,0,78,0.375,0.7,0.208,17,46,18,0021300468,1610612764,WAS,Washington,Otto Porter Jr.,,,11:05,0.0,0.0,0.0,0.0,0.0,0.0,0.0,4.0,0.0,0.0,0.0,0.0
0021300468,1610612764,WAS,Washington,201953,Eric Maynor,,DNP - Coach's Decision,,,,,,,0.0,,,,,,,0.0,,,2014-01-01T00:00:00,1,1610612742,DAL,Dallas,19-13,25,14,20,28,0,0,0,0,0,0,0,0,0,0,87,0.385,0.913,0.25,18,44,15,0021300468,1610612764,WAS,Washington,Eric Maynor,,DNP - Coach's Decision,,,,,,,,,,,,,
0021300468,1610612764,WAS,Washington,201953,Eric Maynor,,DNP - Coach's Decision,,,,,,,0.0,,,,,,,0.0,,,2014-01-01T00:00:00,1,1610612764,WAS,Washington,14-15,20,22,19,17,0,0,0,0,0,0,0,0,0,0,78,0.375,0.7,0.208,17,46,18,0021300468,1610612764,WAS,Washington,Eric Maynor,,DNP - Coach's Decision,,,,,,,,,,,,,
0021300468,1610612764,WAS,Washington,202698,Chris Singleton,,DNP - Coach's Decision,,,,,,,0.0,,,,,,,0.0,,,2014-01-01T00:00:00,1,1610612742,DAL,Dallas,19-13,25,14,20,28,0,0,0,0,0,0,0,0,0,0,87,0.385,0.913,0.25,18,44,15,0021300468,1610612764,WAS,Washington,Chris Singleton,,DNP - Coach's Decision,,,,,,,,,,,,,
0021300468,1610612764,WAS,Washington,202698,Chris Singleton,,DNP - Coach's Decision,,,,,,,0.0,,,,,,,0.0,,,2014-01-01T00:00:00,1,1610612764,WAS,Washington,14-15,20,22,19,17,0,0,0,0,0,0,0,0,0,0,78,0.375,0.7,0.208,17,46,18,0021300468,1610612764,WAS,Washington,Chris Singleton,,DNP - Coach's Decision,,,,,,,,,,,,,
0021300468,1610612764,WAS,Washington,202686,Jan Vesely,,DNP - Coach's Decision,,,,,,,0.0,,,,,,,0.0,,,2014-01-01T00:00:00,1,1610612742,DAL,Dallas,19-13,25,14,20,28,0,0,0,0,0,0,0,0,0,0,87,0.385,0.913,0.25,18,44,15,0021300468,1610612764,WAS,Washington,Jan Vesely,,DNP - Coach's Decision,,,,,,,,,,,,,
0021300468,1610612764,WAS,Washington,202686,Jan Vesely,,DNP - Coach's Decision,,,,,,,0.0,,,,,,,0.0,,,2014-01-01T00:00:00,1,1610612764,WAS,Washington,14-15,20,22,19,17,0,0,0,0,0,0,0,0,0,0,78,0.375,0.7,0.208,17,46,18,0021300468,1610612764,WAS,Washington,Jan Vesely,,DNP - Coach's Decision,,,,,,,,,,,,,
