GAME_ID_x,TEAM_ID_x,TEAM_ABBREVIATION_x,TEAM_CITY_x,PLAYER_ID,PLAYER_NAME_x,START_POSITION_x,COMMENT_x,MIN_x,OFF_RATING,DEF_RATING,NET_RATING,AST_PCT,AST_TOV,AST_RATIO,OREB_PCT,DREB_PCT,REB_PCT,TM_TOV_PCT,EFG_PCT,TS_PCT,USG_PCT,PACE,PIE,GAME_DATE_EST,GAME_SEQUENCE,TEAM_ID_y,TEAM_ABBREVIATION_y,TEAM_CITY_NAME,TEAM_WINS_LOSSES,PTS_QTR1,PTS_QTR2,PTS_QTR3,PTS_QTR4,PTS_OT1,PTS_OT2,PTS_OT3,PTS_OT4,PTS_OT5,PTS_OT6,PTS_OT7,PTS_OT8,PTS_OT9,PTS_OT10,PTS,FG_PCT,FT_PCT,FG3_PCT,AST,REB,TOV,GAME_ID_y,TEAM_ID,TEAM_ABBREVIATION,TEAM_CITY_y,PLAYER_NAME_y,START_POSITION_y,COMMENT_y,MIN_y,PTS_OFF_TOV,PTS_2ND_CHANCE,PTS_FB,PTS_PAINT,OPP_PTS_OFF_TOV,OPP_PTS_2ND_CHANCE,OPP_PTS_FB,OPP_PTS_PAINT,BLK,BLKA,PF,PFD
0021300470,1610612740,NOP,New Orleans,202329,Al-Farouq Aminu,F,,13:40,92.9,116.2,-23.3,0.2,2.0,22.2,0.071,0.077,0.074,11.1,0.333,0.333,0.205,110.7,0.043,2014-01-01T00:00:00,3,1610612740,NOP,New Orleans,14-16,28,19,26,39,0,0,0,0,0,0,0,0,0,0,112,0.517,0.727,0.3,20,37,17,0021300470,1610612740,NOP,New Orleans,Al-Farouq Aminu,F,,13:40,2,0,4,4,3,2,13,22,0,0,1,0
0021300470,1610612740,NOP,New Orleans,202329,Al-Farouq Aminu,F,,13:40,92.9,116.2,-23.3,0.2,2.0,22.2,0.071,0.077,0.074,11.1,0.333,0.333,0.205,110.7,0.043,2014-01-01T00:00:00,3,1610612750,MIN,Minnesota,16-16,33,28,36,27,0,0,0,0,0,0,0,0,0,0,124,0.557,0.8,0.364,26,37,15,0021300470,1610612740,NOP,New Orleans,Al-Farouq Aminu,F,,13:40,2,0,4,4,3,2,13,22,0,0,1,0
0021300470,1610612740,NOP,New Orleans,201583,Ryan Anderson,F,,40:29,114.2,127.6,-13.3,0.067,0.0,9.8,0.111,0.036,0.078,0.0,0.647,0.682,0.189,99.15,0.112,2014-01-01T00:00:00,3,1610612740,NOP,New Orleans,14-16,28,19,26,39,0,0,0,0,0,0,0,0,0,0,112,0.517,0.727,0.3,20,37,17,0021300470,1610612740,NOP,New Orleans,Ryan Anderson,F,,40:29,4,6,0,10,11,9,17,44,0,0,3,2
0021300470,1610612740,NOP,New Orleans,201583,Ryan Anderson,F,,40:29,114.2,127.6,-13.3,0.067,0.0,9.8,0.111,0.036,0.078,0.0,0.647,0.682,0.189,99.15,0.112,2014-01-01T00:00:00,3,1610612750,MIN,Minnesota,16-16,33,28,36,27,0,0,0,0,0,0,0,0,0,0,124,0.557,0.8,0.364,26,37,15,0021300470,1610612740,NOP,New Orleans,Ryan Anderson,F,,40:29,4,6,0,10,11,9,17,44,0,0,3,2
0021300470,1610612740,NOP,New Orleans,203076,Anthony Davis,C,,33:22,110.3,121.6,-11.3,0.0,0.0,0.0,0.097,0.12,0.107,7.9,0.556,0.558,0.158,98.74,0.063,2014-01-01T00:00:00,3,1610612740,NOP,New Orleans,14-16,28,19,26,39,0,0,0,0,0,0,0,0,0,0,112,0.517,0.727,0.3,20,37,17,0021300470,1610612740,NOP,New Orleans,Anthony Davis,C,,33:22,2,1,4,10,7,7,17,38,4,1,4,4
0021300470,1610612740,NOP,New Orleans,203076,Anthony Davis,C,,33:22,110.3,121.6,-11.3,0.0,0.0,0.0,0.097,0.12,0.107,7.9,0.556,0.558,0.158,98.74,0.063,2014-01-01T00:00:00,3,1610612750,MIN,Minnesota,16-16,33,28,36,27,0,0,0,0,0,0,0,0,0,0,124,0.557,0.8,0.364,26,37,15,0021300470,1610612740,NOP,New Orleans,Anthony Davis,C,,33:22,2,1,4,10,7,7,17,38,4,1,4,4
0021300470,1610612740,NOP,New Orleans,201569,Eric Gordon,G,,29:11,89.9,132.3,-42.4,0.158,0.75,15.1,0.034,0.2,0.102,20.1,0.417,0.466,0.247,102.5,0.069,2014-01-01T00:00:00,3,1610612740,NOP,New Orleans,14-16,28,19,26,39,0,0,0,0,0,0,0,0,0,0,112,0.517,0.727,0.3,20,37,17,0021300470,1610612740,NOP,New Orleans,Eric Gordon,G,,29:11,2,0,10,10,7,5,17,38,0,1,2,2
0021300470,1610612740,NOP,New Orleans,201569,Eric Gordon,G,,29:11,89.9,132.3,-42.4,0.158,0.75,15.1,0.034,0.2,0.102,20.1,0.417,0.466,0.247,102.5,0.069,2014-01-01T00:00:00,3,1610612750,MIN,Minnesota,16-16,33,28,36,27,0,0,0,0,0,0,0,0,0,0,124,0.557,0.8,0.364,26,37,15,0021300470,1610612740,NOP,New Orleans,Eric Gordon,G,,29:11,2,0,10,10,7,5,17,38,0,1,2,2
0021300470,1610612740,NOP,New Orleans,201950,Jrue Holiday,G,,22:14,118.1,123.7,-5.7,0.333,1.25,20.2,0.05,0.154,0.091,16.2,0.607,0.603,0.351,103.59,0.133,2014-01-01T00:00:00,3,1610612740,NOP,New Orleans,14-16,28,19,26,39,0,0,0,0,0,0,0,0,0,0,112,0.517,0.727,0.3,20,37,17,0021300470,1610612740,NOP,New Orleans,Jrue Holiday,G,,22:14,3,2,0,10,5,3,9,26,0,2,4,2
0021300470,1610612740,NOP,New Orleans,201950,Jrue Holiday,G,,22:14,118.1,123.7,-5.7,0.333,1.25,20.2,0.05,0.154,0.091,16.2,0.607,0.603,0.351,103.59,0.133,2014-01-01T00:00:00,3,1610612750,MIN,Minnesota,16-16,33,28,36,27,0,0,0,0,0,0,0,0,0,0,124,0.557,0.8,0.364,26,37,15,0021300470,1610612740,NOP,New Orleans,Jrue Holiday,G,,22:14,3,2,0,10,5,3,9,26,0,2,4,2
0021300470,1610612740,NOP,New Orleans,201936,Tyreke Evans,,,27:53,98.8,132.0,-33.3,0.176,3.0,15.2,0.0,0.318,0.149,5.1,0.464,0.508,0.244,98.57,0.126,2014-01-01T00:00:00,3,1610612740,NOP,New Orleans,14-16,28,19,26,39,0,0,0,0,0,0,0,0,0,0,112,0.517,0.727,0.3,20,37,17,0021300470,1610612740,NOP,New Orleans,Tyreke Evans,,,27:53,0,0,2,8,14,9,18,36,0,2,3,4
0021300470,1610612740,NOP,New Orleans,201936,Tyreke Evans,,,27:53,98.8,132.0,-33.3,0.176,3.0,15.2,0.0,0.318,0.149,5.1,0.464,0.508,0.244,98.57,0.126,2014-01-01T00:00:00,3,1610612750,MIN,Minnesota,16-16,33,28,36,27,0,0,0,0,0,0,0,0,0,0,124,0.557,0.8,0.364,26,37,15,0021300470,1610612740,NOP,New Orleans,Tyreke Evans,,,27:53,0,0,2,8,14,9,18,36,0,2,3,4
0021300470,1610612740,NOP,New Orleans,201880,Greg Stiemsma,,,6:25,53.3,136.8,-83.5,0.0,0.0,0.0,0.0,0.2,0.111,100.0,0.0,0.0,0.168,123.38,-0.186,2014-01-01T00:00:00,3,1610612740,NOP,New Orleans,14-16,28,19,26,39,0,0,0,0,0,0,0,0,0,0,112,0.517,0.727,0.3,20,37,17,0021300470,1610612740,NOP,New Orleans,Greg Stiemsma,,,6:25,0,0,0,0,7,0,2,8,0,0,2,0
0021300470,1610612740,NOP,New Orleans,201880,Greg Stiemsma,,,6:25,53.3,136.8,-83.5,0.0,0.0,0.0,0.0,0.2,0.111,100.0,0.0,0.0,0.168,123.38,-0.186,2014-01-01T00:00:00,3,1610612750,MIN,Minnesota,16-16,33,28,36,27,0,0,0,0,0,0,0,0,0,0,124,0.557,0.8,0.364,26,37,15,0021300470,1610612740,NOP,New Orleans,Greg Stiemsma,,,6:25,0,0,0,0,7,0,2,8,0,0,2,0
0021300470,1610612740,NOP,New Orleans,203148,Brian Roberts,,,14:43,131.1,109.8,21.2,0.286,0.0,57.1,0.25,0.231,0.238,0.0,0.5,0.5,0.087,100.26,0.127,2014-01-01T00:00:00,3,1610612740,NOP,New Orleans,14-16,28,19,26,39,0,0,0,0,0,0,0,0,0,0,112,0.517,0.727,0.3,20,37,17,0021300470,1610612740,NOP,New Orleans,Brian Roberts,,,14:43,0,0,0,0,7,2,4,12,0,0,1,1
0021300470,1610612740,NOP,New Orleans,203148,Brian Roberts,,,14:43,131.1,109.8,21.2,0.286,0.0,57.1,0.25,0.231,0.238,0.0,0.5,0.5,0.087,100.26,0.127,2014-01-01T00:00:00,3,1610612750,MIN,Minnesota,16-16,33,28,36,27,0,0,0,0,0,0,0,0,0,0,124,0.557,0.8,0.364,26,37,15,0021300470,1610612740,NOP,New Orleans,Brian Roberts,,,14:43,0,0,0,0,7,2,4,12,0,0,1,1
0021300470,1610612740,NOP,New Orleans,201627,Anthony Morrow,,,14:43,134.9,150.3,-15.4,0.0,0.0,0.0,0.0,0.2,0.056,0.0,0.875,0.875,0.107,94.06,0.132,2014-01-01T00:00:00,3,1610612740,NOP,New Orleans,14-16,28,19,26,39,0,0,0,0,0,0,0,0,0,0,112,0.517,0.727,0.3,20,37,17,0021300470,1610612740,NOP,New Orleans,Anthony Morrow,,,14:43,2,0,2,4,9,2,4,16,0,0,0,1
0021300470,1610612740,NOP,New Orleans,201627,Anthony Morrow,,,14:43,134.9,150.3,-15.4,0.0,0.0,0.0,0.0,0.2,0.056,0.0,0.875,0.875,0.107,94.06,0.132,2014-01-01T00:00:00,3,1610612750,MIN,Minnesota,16-16,33,28,36,27,0,0,0,0,0,0,0,0,0,0,124,0.557,0.8,0.364,26,37,15,0021300470,1610612740,NOP,New Orleans,Anthony Morrow,,,14:43,2,0,2,4,9,2,4,16,0,0,0,1
0021300470,1610612740,NOP,New Orleans,201582,Alexis Ajinca,,,11:41,125.2,116.2,9.0,0.0,0.0,0.0,0.143,0.125,0.133,40.0,0.333,0.333,0.185,100.45,-0.043,2014-01-01T00:00:00,3,1610612740,NOP,New Orleans,14-16,28,19,26,39,0,0,0,0,0,0,0,0,0,0,112,0.517,0.727,0.3,20,37,17,0021300470,1610612740,NOP,New Orleans,Alexis Ajinca,,,11:41,0,2,0,2,5,2,6,12,1,0,3,1
0021300470,1610612740,NOP,New Orleans,201582,Alexis Ajinca,,,11:41,125.2,116.2,9.0,0.0,0.0,0.0,0.143,0.125,0.133,40.0,0.333,0.333,0.185,100.45,-0.043,2014-01-01T00:00:00,3,1610612750,MIN,Minnesota,16-16,33,28,36,27,0,0,0,0,0,0,0,0,0,0,124,0.557,0.8,0.364,26,37,15,0021300470,1610612740,NOP,New Orleans,Alexis Ajinca,,,11:41,0,2,0,2,5,2,6,12,1,0,3,1
0021300470,1610612740,NOP,New Orleans,203085,Austin Rivers,,,15:50,122.3,119.0,3.2,0.0,0.0,0.0,0.0,0.0,0.0,25.0,0.667,0.667,0.125,94.22,0.014,2014-01-01T00:00:00,3,1610612740,NOP,New Orleans,14-16,28,19,26,39,0,0,0,0,0,0,0,0,0,0,112,0.517,0.727,0.3,20,37,17,0021300470,1610612740,NOP,New Orleans,Austin Rivers,,,15:50,2,0,2,4,4,4,8,14,0,0,2,1
0021300470,1610612740,NOP,New Orleans,203085,Austin Rivers,,,15:50,122.3,119.0,3.2,0.0,0.0,0.0,0.0,0.0,0.0,25.0,0.667,0.667,0.125,94.22,0.014,2014-01-01T00:00:00,3,1610612750,MIN,Minnesota,16-16,33,28,36,27,0,0,0,0,0,0,0,0,0,0,124,0.557,0.8,0.364,26,37,15,0021300470,1610612740,NOP,New Orleans,Austin Rivers,,,15:50,2,0,2,4,4,4,8,14,0,0,2,1
0021300470,1610612740,NOP,New Orleans,203121,Darius Miller,,,7:31,128.7,104.4,24.2,0.143,0.0,41.0,0.0,0.0,0.0,0.0,1.0,1.042,0.088,101.02,0.11,2014-01-01T00:00:00,3,1610612740,NOP,New Orleans,14-16,28,19,26,39,0,0,0,0,0,0,0,0,0,0,112,0.517,0.727,0.3,20,37,17,0021300470,1610612740,NOP,New Orleans,Darius Miller,,,7:31,0,0,3,0,1,0,0,4,0,0,0,1
0021300470,1610612740,NOP,New Orleans,203121,Darius Miller,,,7:31,128.7,104.4,24.2,0.143,0.0,41.0,0.0,0.0,0.0,0.0,1.0,1.042,0.088,101.02,0.11,2014-01-01T00:00:00,3,1610612750,MIN,Minnesota,16-16,33,28,36,27,0,0,0,0,0,0,0,0,0,0,124,0.557,0.8,0.364,26,37,15,0021300470,1610612740,NOP,New Orleans,Darius Miller,,,7:31,0,0,3,0,1,0,0,4,0,0,0,1
0021300470,1610612740,NOP,New Orleans,203481,Jeff Withey,,,2:18,180.4,50.0,130.4,0.0,0.0,0.0,0.0,0.0,0.0,0.0,1.0,1.064,0.485,82.23,0.421,2014-01-01T00:00:00,3,1610612740,NOP,New Orleans,14-16,28,19,26,39,0,0,0,0,0,0,0,0,0,0,112,0.517,0.727,0.3,20,37,17,0021300470,1610612740,NOP,New Orleans,Jeff Withey,,,2:18,2,0,0,0,0,0,0,0,0,0,0,1
0021300470,1610612740,NOP,New Orleans,203481,Jeff Withey,,,2:18,180.4,50.0,130.4,0.0,0.0,0.0,0.0,0.0,0.0,0.0,1.0,1.064,0.485,82.23,0.421,2014-01-01T00:00:00,3,1610612750,MIN,Minnesota,16-16,33,28,36,27,0,0,0,0,0,0,0,0,0,0,124,0.557,0.8,0.364,26,37,15,0021300470,1610612740,NOP,New Orleans,Jeff Withey,,,2:18,2,0,0,0,0,0,0,0,0,0,0,1
0021300470,1610612750,MIN,Minnesota,201147,Corey Brewer,F,,23:11,135.8,100.3,35.5,0.174,4.0,44.4,0.111,0.15,0.132,11.1,0.625,0.625,0.085,106.29,0.1,2014-01-01T00:00:00,3,1610612740,NOP,New Orleans,14-16,28,19,26,39,0,0,0,0,0,0,0,0,0,0,112,0.517,0.727,0.3,20,37,17,0021300470,1610612750,MIN,Minnesota,Corey Brewer,F,,23:11,0,0,2,2,8,6,15,34,1,0,4,1
0021300470,1610612750,MIN,Minnesota,201147,Corey Brewer,F,,23:11,135.8,100.3,35.5,0.174,4.0,44.4,0.111,0.15,0.132,11.1,0.625,0.625,0.085,106.29,0.1,2014-01-01T00:00:00,3,1610612750,MIN,Minnesota,16-16,33,28,36,27,0,0,0,0,0,0,0,0,0,0,124,0.557,0.8,0.364,26,37,15,0021300470,1610612750,MIN,Minnesota,Corey Brewer,F,,23:11,0,0,2,2,8,6,15,34,1,0,4,1
0021300470,1610612750,MIN,Minnesota,201567,Kevin Love,F,,34:50,132.0,102.7,29.3,0.107,1.5,10.9,0.08,0.138,0.111,7.3,0.395,0.466,0.289,105.2,0.085,2014-01-01T00:00:00,3,1610612740,NOP,New Orleans,14-16,28,19,26,39,0,0,0,0,0,0,0,0,0,0,112,0.517,0.727,0.3,20,37,17,0021300470,1610612750,MIN,Minnesota,Kevin Love,F,,34:50,4,2,3,12,15,11,19,50,1,3,2,4
0021300470,1610612750,MIN,Minnesota,201567,Kevin Love,F,,34:50,132.0,102.7,29.3,0.107,1.5,10.9,0.08,0.138,0.111,7.3,0.395,0.466,0.289,105.2,0.085,2014-01-01T00:00:00,3,1610612750,MIN,Minnesota,16-16,33,28,36,27,0,0,0,0,0,0,0,0,0,0,124,0.557,0.8,0.364,26,37,15,0021300470,1610612750,MIN,Minnesota,Kevin Love,F,,34:50,4,2,3,12,15,11,19,50,1,3,2,4
0021300470,1610612750,MIN,Minnesota,201593,Nikola Pekovic,C,,33:51,123.3,108.4,14.9,0.0,0.0,0.0,0.125,0.133,0.13,5.6,0.583,0.653,0.224,101.05,0.11,2014-01-01T00:00:00,3,1610612740,NOP,New Orleans,14-16,28,19,26,39,0,0,0,0,0,0,0,0,0,0,112,0.517,0.727,0.3,20,37,17,0021300470,1610612750,MIN,Minnesota,Nikola Pekovic,C,,33:51,1,5,0,8,12,6,25,48,0,1,3,6
0021300470,1610612750,MIN,Minnesota,201593,Nikola Pekovic,C,,33:51,123.3,108.4,14.9,0.0,0.0,0.0,0.125,0.133,0.13,5.6,0.583,0.653,0.224,101.05,0.11,2014-01-01T00:00:00,3,1610612750,MIN,Minnesota,16-16,33,28,36,27,0,0,0,0,0,0,0,0,0,0,124,0.557,0.8,0.364,26,37,15,0021300470,1610612750,MIN,Minnesota,Nikola Pekovic,C,,33:51,1,5,0,8,12,6,25,48,0,1,3,6
0021300470,1610612750,MIN,Minnesota,2755,Kevin Martin,G,,31:28,130.7,100.7,30.0,0.13,3.0,14.9,0.048,0.077,0.064,5.0,0.571,0.617,0.225,102.84,0.115,2014-01-01T00:00:00,3,1610612740,NOP,New Orleans,14-16,28,19,26,39,0,0,0,0,0,0,0,0,0,0,112,0.517,0.727,0.3,20,37,17,0021300470,1610612750,MIN,Minnesota,Kevin Martin,G,,31:28,4,0,14,10,12,6,20,42,0,0,2,4
0021300470,1610612750,MIN,Minnesota,2755,Kevin Martin,G,,31:28,130.7,100.7,30.0,0.13,3.0,14.9,0.048,0.077,0.064,5.0,0.571,0.617,0.225,102.84,0.115,2014-01-01T00:00:00,3,1610612750,MIN,Minnesota,16-16,33,28,36,27,0,0,0,0,0,0,0,0,0,0,124,0.557,0.8,0.364,26,37,15,0021300470,1610612750,MIN,Minnesota,Kevin Martin,G,,31:28,4,0,14,10,12,6,20,42,0,0,2,4
0021300470,1610612750,MIN,Minnesota,201937,Ricky Rubio,G,,32:56,128.6,103.0,25.6,0.321,3.0,43.6,0.043,0.269,0.163,14.5,0.75,0.81,0.146,103.19,0.194,2014-01-01T00:00:00,3,1610612740,NOP,New Orleans,14-16,28,19,26,39,0,0,0,0,0,0,0,0,0,0,112,0.517,0.727,0.3,20,37,17,0021300470,1610612750,MIN,Minnesota,Ricky Rubio,G,,32:56,1,0,2,6,12,6,20,42,2,0,1,6
0021300470,1610612750,MIN,Minnesota,201937,Ricky Rubio,G,,32:56,128.6,103.0,25.6,0.321,3.0,43.6,0.043,0.269,0.163,14.5,0.75,0.81,0.146,103.19,0.194,2014-01-01T00:00:00,3,1610612750,MIN,Minnesota,16-16,33,28,36,27,0,0,0,0,0,0,0,0,0,0,124,0.557,0.8,0.364,26,37,15,0021300470,1610612750,MIN,Minnesota,Ricky Rubio,G,,32:56,1,0,2,6,12,6,20,42,2,0,1,6
0021300470,1610612750,MIN,Minnesota,201967,Dante Cunningham,,,22:43,128.1,113.4,14.7,0.0,0.0,0.0,0.067,0.158,0.118,14.3,0.833,0.833,0.151,96.35,0.091,2014-01-01T00:00:00,3,1610612740,NOP,New Orleans,14-16,28,19,26,39,0,0,0,0,0,0,0,0,0,0,112,0.517,0.727,0.3,20,37,17,0021300470,1610612750,MIN,Minnesota,Dante Cunningham,,,22:43,2,0,0,6,7,5,10,26,1,0,4,1
0021300470,1610612750,MIN,Minnesota,201967,Dante Cunningham,,,22:43,128.1,113.4,14.7,0.0,0.0,0.0,0.067,0.158,0.118,14.3,0.833,0.833,0.151,96.35,0.091,2014-01-01T00:00:00,3,1610612750,MIN,Minnesota,16-16,33,28,36,27,0,0,0,0,0,0,0,0,0,0,124,0.557,0.8,0.364,26,37,15,0021300470,1610612750,MIN,Minnesota,Dante Cunningham,,,22:43,2,0,0,6,7,5,10,26,1,0,4,1
0021300470,1610612750,MIN,Minnesota,200826,J.J. Barea,,,18:02,134.2,126.4,7.9,0.556,2.5,31.3,0.0,0.0,0.0,12.5,0.944,0.944,0.319,93.05,0.222,2014-01-01T00:00:00,3,1610612740,NOP,New Orleans,14-16,28,19,26,39,0,0,0,0,0,0,0,0,0,0,112,0.517,0.727,0.3,20,37,17,0021300470,1610612750,MIN,Minnesota,J.J. Barea,,,18:02,2,0,0,8,7,5,10,24,0,0,0,0
0021300470,1610612750,MIN,Minnesota,200826,J.J. Barea,,,18:02,134.2,126.4,7.9,0.556,2.5,31.3,0.0,0.0,0.0,12.5,0.944,0.944,0.319,93.05,0.222,2014-01-01T00:00:00,3,1610612750,MIN,Minnesota,16-16,33,28,36,27,0,0,0,0,0,0,0,0,0,0,124,0.557,0.8,0.364,26,37,15,0021300470,1610612750,MIN,Minnesota,J.J. Barea,,,18:02,2,0,0,8,7,5,10,24,0,0,0,0
0021300470,1610612750,MIN,Minnesota,203144,Alexey Shved,,,16:32,112.2,128.8,-16.6,0.182,2.0,22.8,0.0,0.214,0.111,11.4,0.75,0.868,0.204,96.15,0.156,2014-01-01T00:00:00,3,1610612740,NOP,New Orleans,14-16,28,19,26,39,0,0,0,0,0,0,0,0,0,0,112,0.517,0.727,0.3,20,37,17,0021300470,1610612750,MIN,Minnesota,Alexey Shved,,,16:32,2,2,2,0,7,5,7,20,1,0,3,2
0021300470,1610612750,MIN,Minnesota,203144,Alexey Shved,,,16:32,112.2,128.8,-16.6,0.182,2.0,22.8,0.0,0.214,0.111,11.4,0.75,0.868,0.204,96.15,0.156,2014-01-01T00:00:00,3,1610612750,MIN,Minnesota,16-16,33,28,36,27,0,0,0,0,0,0,0,0,0,0,124,0.557,0.8,0.364,26,37,15,0021300470,1610612750,MIN,Minnesota,Alexey Shved,,,16:32,2,2,2,0,7,5,7,20,1,0,3,2
0021300470,1610612750,MIN,Minnesota,201601,Luc Mbah a Moute,,,15:10,110.3,92.6,17.7,0.0,0.0,0.0,0.0,0.083,0.042,58.1,1.0,1.042,0.102,99.81,0.041,2014-01-01T00:00:00,3,1610612740,NOP,New Orleans,14-16,28,19,26,39,0,0,0,0,0,0,0,0,0,0,112,0.517,0.727,0.3,20,37,17,0021300470,1610612750,MIN,Minnesota,Luc Mbah a Moute,,,15:10,0,0,0,2,4,4,4,20,0,0,0,1
0021300470,1610612750,MIN,Minnesota,201601,Luc Mbah a Moute,,,15:10,110.3,92.6,17.7,0.0,0.0,0.0,0.0,0.083,0.042,58.1,1.0,1.042,0.102,99.81,0.041,2014-01-01T00:00:00,3,1610612750,MIN,Minnesota,16-16,33,28,36,27,0,0,0,0,0,0,0,0,0,0,124,0.557,0.8,0.364,26,37,15,0021300470,1610612750,MIN,Minnesota,Luc Mbah a Moute,,,15:10,0,0,0,2,4,4,4,20,0,0,0,1
0021300470,1610612750,MIN,Minnesota,203133,Robbie Hummel,,,4:24,75.0,187.2,-112.2,0.0,0.0,0.0,0.0,0.0,0.0,0.0,0.0,0.0,0.25,93.16,-0.108,2014-01-01T00:00:00,3,1610612740,NOP,New Orleans,14-16,28,19,26,39,0,0,0,0,0,0,0,0,0,0,112,0.517,0.727,0.3,20,37,17,0021300470,1610612750,MIN,Minnesota,Robbie Hummel,,,4:24,0,0,0,0,5,1,5,4,0,0,0,0
0021300470,1610612750,MIN,Minnesota,203133,Robbie Hummel,,,4:24,75.0,187.2,-112.2,0.0,0.0,0.0,0.0,0.0,0.0,0.0,0.0,0.0,0.25,93.16,-0.108,2014-01-01T00:00:00,3,1610612750,MIN,Minnesota,16-16,33,28,36,27,0,0,0,0,0,0,0,0,0,0,124,0.557,0.8,0.364,26,37,15,0021300470,1610612750,MIN,Minnesota,Robbie Hummel,,,4:24,0,0,0,0,5,1,5,4,0,0,0,0
0021300470,1610612750,MIN,Minnesota,203476,Gorgui Dieng,,,2:18,50.0,180.4,-130.4,0.0,0.0,0.0,0.0,0.0,0.0,0.0,0.0,0.0,0.25,82.23,-0.211,2014-01-01T00:00:00,3,1610612740,NOP,New Orleans,14-16,28,19,26,39,0,0,0,0,0,0,0,0,0,0,112,0.517,0.727,0.3,20,37,17,0021300470,1610612750,MIN,Minnesota,Gorgui Dieng,,,2:18,0,0,0,0,2,0,0,0,0,1,1,0
0021300470,1610612750,MIN,Minnesota,203476,Gorgui Dieng,,,2:18,50.0,180.4,-130.4,0.0,0.0,0.0,0.0,0.0,0.0,0.0,0.0,0.0,0.25,82.23,-0.211,2014-01-01T00:00:00,3,1610612750,MIN,Minnesota,16-16,33,28,36,27,0,0,0,0,0,0,0,0,0,0,124,0.557,0.8,0.364,26,37,15,0021300470,1610612750,MIN,Minnesota,Gorgui Dieng,,,2:18,0,0,0,0,2,0,0,0,0,1,1,0
0021300470,1610612750,MIN,Minnesota,203498,Shabazz Muhammad,,,2:18,50.0,180.4,-130.4,0.0,0.0,0.0,0.0,0.0,0.0,50.0,1.0,1.0,0.5,82.23,0.105,2014-01-01T00:00:00,3,1610612740,NOP,New Orleans,14-16,28,19,26,39,0,0,0,0,0,0,0,0,0,0,112,0.517,0.727,0.3,20,37,17,0021300470,1610612750,MIN,Minnesota,Shabazz Muhammad,,,2:18,0,0,0,0,2,0,0,0,0,0,0,0
0021300470,1610612750,MIN,Minnesota,203498,Shabazz Muhammad,,,2:18,50.0,180.4,-130.4,0.0,0.0,0.0,0.0,0.0,0.0,50.0,1.0,1.0,0.5,82.23,0.105,2014-01-01T00:00:00,3,1610612750,MIN,Minnesota,16-16,33,28,36,27,0,0,0,0,0,0,0,0,0,0,124,0.557,0.8,0.364,26,37,15,0021300470,1610612750,MIN,Minnesota,Shabazz Muhammad,,,2:18,0,0,0,0,2,0,0,0,0,0,0,0
0021300470,1610612750,MIN,Minnesota,201985,AJ Price,,,2:18,50.0,180.4,-130.4,0.0,0.0,0.0,0.0,0.0,0.0,0.0,0.0,0.0,0.0,82.23,0.0,2014-01-01T00:00:00,3,1610612740,NOP,New Orleans,14-16,28,19,26,39,0,0,0,0,0,0,0,0,0,0,112,0.517,0.727,0.3,20,37,17,0021300470,1610612750,MIN,Minnesota,AJ Price,,,2:18,0,0,0,0,2,0,0,0,0,0,0,0
0021300470,1610612750,MIN,Minnesota,201985,AJ Price,,,2:18,50.0,180.4,-130.4,0.0,0.0,0.0,0.0,0.0,0.0,0.0,0.0,0.0,0.0,82.23,0.0,2014-01-01T00:00:00,3,1610612750,MIN,Minnesota,16-16,33,28,36,27,0,0,0,0,0,0,0,0,0,0,124,0.557,0.8,0.364,26,37,15,0021300470,1610612750,MIN,Minnesota,AJ Price,,,2:18,0,0,0,0,2,0,0,0,0,0,0,0
