GAME_ID_x,TEAM_ID_x,TEAM_ABBREVIATION_x,TEAM_CITY_x,PLAYER_ID,PLAYER_NAME_x,START_POSITION_x,COMMENT_x,MIN_x,OFF_RATING,DEF_RATING,NET_RATING,AST_PCT,AST_TOV,AST_RATIO,OREB_PCT,DREB_PCT,REB_PCT,TM_TOV_PCT,EFG_PCT,TS_PCT,USG_PCT,PACE,PIE,GAME_DATE_EST,GAME_SEQUENCE,TEAM_ABBREVIATION_y,TEAM_CITY_NAME,TEAM_WINS_LOSSES,PTS_QTR1,PTS_QTR2,PTS_QTR3,PTS_QTR4,PTS_OT1,PTS_OT2,PTS_OT3,PTS_OT4,PTS_OT5,PTS_OT6,PTS_OT7,PTS_OT8,PTS_OT9,PTS_OT10,PTS,FG_PCT,FT_PCT,FG3_PCT,AST,REB,TOV,GAME_ID_y,TEAM_ID_y,TEAM_ABBREVIATION,TEAM_CITY_y,PLAYER_NAME_y,START_POSITION_y,COMMENT_y,MIN_y,PTS_OFF_TOV,PTS_2ND_CHANCE,PTS_FB,PTS_PAINT,OPP_PTS_OFF_TOV,OPP_PTS_2ND_CHANCE,OPP_PTS_FB,OPP_PTS_PAINT,BLK,BLKA,PF,PFD
0011600003,12329,SDS,Shanghai,1962937426,Guerschon Yabusele,F,,44:20,87.7,127.7,-40.0,0.038,0.33,3.9,0.125,0.149,0.138,11.6,0.5,0.546,0.235,104.37,0.102,2016-10-02T00:00:00,1,SDS,Shanghai,0-1,21,24,25,24,0,0,0,0,0,0,0,0,0,0,94,0.424,0.75,0.174,18,41,20,0011600003,12329,SDS,Shanghai,Guerschon Yabusele,F,,44:20,3.0,2.0,5.0,12.0,28.0,15.0,18.0,58.0,0.0,2.0,1.0,7.0
0011600003,12329,SDS,Shanghai,1962937428,Zhai Yi,F,,26:27,82.6,112.4,-29.8,0.0,0.0,0.0,0.0,0.033,0.018,11.1,0.375,0.375,0.141,106.89,-0.009,2016-10-02T00:00:00,1,SDS,Shanghai,0-1,21,24,25,24,0,0,0,0,0,0,0,0,0,0,94,0.424,0.75,0.174,18,41,20,0011600003,12329,SDS,Shanghai,Zhai Yi,F,,26:27,4.0,0.0,4.0,6.0,13.0,5.0,12.0,32.0,0.0,2.0,2.0,0.0
0011600003,12329,SDS,Shanghai,1962937429,Zhang Zhaoxu,C,,23:08,78.3,119.6,-41.3,0.0,0.0,0.0,0.0,0.346,0.209,14.3,0.5,0.5,0.128,107.69,0.077,2016-10-02T00:00:00,1,SDS,Shanghai,0-1,21,24,25,24,0,0,0,0,0,0,0,0,0,0,94,0.424,0.75,0.174,18,41,20,0011600003,12329,SDS,Shanghai,Zhang Zhaoxu,C,,23:08,0.0,2.0,0.0,6.0,19.0,2.0,8.0,30.0,2.0,1.0,5.0,3.0
0011600003,12329,SDS,Shanghai,1962937431,Jimmer  Fredette,G,,42:11,84.3,130.2,-45.9,0.421,2.67,19.7,0.0,0.174,0.095,7.4,0.481,0.559,0.322,104.94,0.184,2016-10-02T00:00:00,1,SDS,Shanghai,0-1,21,24,25,24,0,0,0,0,0,0,0,0,0,0,94,0.424,0.75,0.174,18,41,20,0011600003,12329,SDS,Shanghai,Jimmer  Fredette,G,,42:11,0.0,0.0,5.0,16.0,30.0,15.0,20.0,52.0,0.0,1.0,0.0,4.0
0011600003,12329,SDS,Shanghai,1962937423,Liu  Xiaoyu,G,,38:08,94.9,125.0,-30.1,0.269,1.0,24.2,0.0,0.128,0.072,24.2,0.464,0.47,0.242,104.58,0.054,2016-10-02T00:00:00,1,SDS,Shanghai,0-1,21,24,25,24,0,0,0,0,0,0,0,0,0,0,94,0.424,0.75,0.174,18,41,20,0011600003,12329,SDS,Shanghai,Liu  Xiaoyu,G,,38:08,0.0,0.0,2.0,6.0,26.0,10.0,16.0,50.0,0.0,0.0,3.0,1.0
0011600003,12329,SDS,Shanghai,1962937419,Cai Lang,,,24:22,97.8,143.8,-46.0,0.111,2.0,33.3,0.0,0.111,0.05,16.7,0.333,0.333,0.066,105.78,0.0,2016-10-02T00:00:00,1,SDS,Shanghai,0-1,21,24,25,24,0,0,0,0,0,0,0,0,0,0,94,0.424,0.75,0.174,18,41,20,0011600003,12329,SDS,Shanghai,Cai Lang,,,24:22,2.0,0.0,0.0,0.0,20.0,8.0,12.0,36.0,0.0,0.0,3.0,2.0
0011600003,12329,SDS,Shanghai,1962937424,Wu Guanxi,,,12:47,81.6,124.4,-42.8,0.0,0.0,0.0,0.0,0.182,0.077,16.7,0.4,0.4,0.204,104.99,0.018,2016-10-02T00:00:00,1,SDS,Shanghai,0-1,21,24,25,24,0,0,0,0,0,0,0,0,0,0,94,0.424,0.75,0.174,18,41,20,0011600003,12329,SDS,Shanghai,Wu Guanxi,,,12:47,0.0,0.0,0.0,4.0,4.0,5.0,12.0,18.0,0.0,1.0,1.0,0.0
0011600003,12329,SDS,Shanghai,1962937420,Ren PengPeng,,,5:17,56.3,180.4,-124.1,0.0,0.0,0.0,0.0,0.0,0.0,34.7,0.0,0.266,0.189,117.38,-0.217,2016-10-02T00:00:00,1,SDS,Shanghai,0-1,21,24,25,24,0,0,0,0,0,0,0,0,0,0,94,0.424,0.75,0.174,18,41,20,0011600003,12329,SDS,Shanghai,Ren PengPeng,,,5:17,0.0,0.0,0.0,0.0,8.0,2.0,4.0,10.0,0.0,0.0,3.0,1.0
0011600003,12329,SDS,Shanghai,1962937433,Tseng  Wenting,,,11:52,78.7,142.6,-64.0,0.0,0.0,0.0,0.0,0.111,0.048,37.6,0.0,0.301,0.172,110.43,-0.047,2016-10-02T00:00:00,1,SDS,Shanghai,0-1,21,24,25,24,0,0,0,0,0,0,0,0,0,0,94,0.424,0.75,0.174,18,41,20,0011600003,12329,SDS,Shanghai,Tseng  Wenting,,,11:52,0.0,0.0,1.0,0.0,16.0,6.0,6.0,18.0,0.0,0.0,0.0,2.0
0011600003,12329,SDS,Shanghai,1962937430,Ge Yang,,,6:15,33.3,88.1,-54.7,0.0,0.0,0.0,0.0,0.0,0.0,0.0,0.0,0.0,0.0,114.28,-0.1,2016-10-02T00:00:00,1,SDS,Shanghai,0-1,21,24,25,24,0,0,0,0,0,0,0,0,0,0,94,0.424,0.75,0.174,18,41,20,0011600003,12329,SDS,Shanghai,Ge Yang,,,6:15,0.0,0.0,0.0,0.0,4.0,3.0,2.0,8.0,0.0,0.0,1.0,0.0
0011600003,12329,SDS,Shanghai,1962937422,Ju Peng,,,3:53,123.0,150.5,-27.5,0.0,0.0,0.0,0.25,0.0,0.111,0.0,0.5,0.5,0.17,113.72,0.026,2016-10-02T00:00:00,1,SDS,Shanghai,0-1,21,24,25,24,0,0,0,0,0,0,0,0,0,0,94,0.424,0.75,0.174,18,41,20,0011600003,12329,SDS,Shanghai,Ju Peng,,,3:53,0.0,0.0,2.0,2.0,1.0,2.0,0.0,4.0,0.0,0.0,1.0,0.0
0011600003,12329,SDS,Shanghai,1962937421,Tang Zihao,,,1:20,50.0,173.6,-123.6,0.0,0.0,0.0,0.0,0.0,0.0,0.0,0.0,0.0,0.0,123.84,0.0,2016-10-02T00:00:00,1,SDS,Shanghai,0-1,21,24,25,24,0,0,0,0,0,0,0,0,0,0,94,0.424,0.75,0.174,18,41,20,0011600003,12329,SDS,Shanghai,Tang Zihao,,,1:20,0.0,0.0,0.0,0.0,1.0,2.0,0.0,4.0,0.0,0.0,0.0,0.0
0011600003,12329,SDS,Shanghai,1962937427,Huang Shiqian,,DNP - Coach's Decision                  ,,,,,,,0.0,,,,,,,0.0,,,2016-10-02T00:00:00,1,SDS,Shanghai,0-1,21,24,25,24,0,0,0,0,0,0,0,0,0,0,94,0.424,0.75,0.174,18,41,20,0011600003,12329,SDS,Shanghai,Huang Shiqian,,DNP - Coach's Decision                  ,,,,,,,,,,,,,
0011600003,12329,SDS,Shanghai,1962937432,Shi Yuchen,,DNP - Coach's Decision                  ,,,,,,,0.0,,,,,,,0.0,,,2016-10-02T00:00:00,1,SDS,Shanghai,0-1,21,24,25,24,0,0,0,0,0,0,0,0,0,0,94,0.424,0.75,0.174,18,41,20,0011600003,12329,SDS,Shanghai,Shi Yuchen,,DNP - Coach's Decision                  ,,,,,,,,,,,,,
0011600003,12329,SDS,Shanghai,1962937425,Wang Zezhong,,DNP - Coach's Decision                  ,,,,,,,0.0,,,,,,,0.0,,,2016-10-02T00:00:00,1,SDS,Shanghai,0-1,21,24,25,24,0,0,0,0,0,0,0,0,0,0,94,0.424,0.75,0.174,18,41,20,0011600003,12329,SDS,Shanghai,Wang Zezhong,,DNP - Coach's Decision                  ,,,,,,,,,,,,,
0011600003,1610612745,HOU,Houston,2772,Trevor Ariza,F,,19:43,120.8,90.1,30.7,0.188,0.0,27.3,0.037,0.0,0.023,0.0,0.5,0.5,0.162,104.44,0.053,2016-10-02T00:00:00,1,HOU,Houston,1-0,34,38,29,30,0,0,0,0,0,0,0,0,0,0,131,0.521,0.633,0.333,34,52,9,0011600003,1610612745,HOU,Houston,Trevor Ariza,F,,19:43,5.0,0.0,2.0,2.0,2.0,4.0,8.0,20.0,0.0,0.0,3.0,1.0
0011600003,1610612745,HOU,Houston,201583,Ryan Anderson,F,,21:58,121.5,77.2,44.3,0.125,2.0,10.6,0.115,0.118,0.116,5.3,0.367,0.378,0.329,104.67,0.051,2016-10-02T00:00:00,1,HOU,Houston,1-0,34,38,29,30,0,0,0,0,0,0,0,0,0,0,131,0.521,0.633,0.333,34,52,9,0011600003,1610612745,HOU,Houston,Ryan Anderson,F,,21:58,1.0,2.0,0.0,4.0,5.0,4.0,7.0,20.0,0.0,2.0,2.0,1.0
0011600003,1610612745,HOU,Houston,203991,Clint Capela,C,,19:58,102.5,70.8,31.7,0.077,0.0,8.6,0.143,0.421,0.275,0.0,0.625,0.47,0.232,101.83,0.178,2016-10-02T00:00:00,1,HOU,Houston,1-0,34,38,29,30,0,0,0,0,0,0,0,0,0,0,131,0.521,0.633,0.333,34,52,9,0011600003,1610612745,HOU,Houston,Clint Capela,C,,19:58,4.0,2.0,4.0,10.0,7.0,2.0,7.0,18.0,2.0,0.0,1.0,3.0
0011600003,1610612745,HOU,Houston,201935,James Harden,G,,28:37,131.8,88.2,43.7,0.385,10.0,42.1,0.0,0.136,0.058,4.2,0.545,0.627,0.199,102.89,0.187,2016-10-02T00:00:00,1,HOU,Houston,1-0,34,38,29,30,0,0,0,0,0,0,0,0,0,0,131,0.521,0.633,0.333,34,52,9,0011600003,1610612745,HOU,Houston,James Harden,G,,28:37,6.0,2.0,0.0,4.0,7.0,4.0,11.0,38.0,1.0,0.0,1.0,4.0
0011600003,1610612745,HOU,Houston,201976,Patrick Beverley,G,,18:34,127.6,75.8,51.8,0.294,0.0,50.6,0.0,0.375,0.146,0.0,0.375,0.512,0.11,105.89,0.196,2016-10-02T00:00:00,1,HOU,Houston,1-0,34,38,29,30,0,0,0,0,0,0,0,0,0,0,131,0.521,0.633,0.333,34,52,9,0011600003,1610612745,HOU,Houston,Patrick Beverley,G,,18:34,0.0,0.0,0.0,0.0,0.0,4.0,6.0,14.0,1.0,0.0,0.0,1.0
0011600003,1610612745,HOU,Houston,2403,Nene,,,13:39,152.6,87.1,65.4,0.2,0.0,22.8,0.067,0.25,0.148,0.0,0.8,0.888,0.206,109.22,0.25,2016-10-02T00:00:00,1,HOU,Houston,1-0,34,38,29,30,0,0,0,0,0,0,0,0,0,0,131,0.521,0.633,0.333,34,52,9,0011600003,1610612745,HOU,Houston,Nene,,,13:39,2.0,0.0,2.0,8.0,0.0,2.0,6.0,10.0,0.0,0.0,1.0,2.0
0011600003,1610612745,HOU,Houston,201569,Eric Gordon,,,12:21,137.1,59.2,77.9,0.222,0.0,33.3,0.0,0.063,0.04,0.0,1.0,1.0,0.139,112.95,0.213,2016-10-02T00:00:00,1,HOU,Houston,1-0,34,38,29,30,0,0,0,0,0,0,0,0,0,0,131,0.521,0.633,0.333,34,52,9,0011600003,1610612745,HOU,Houston,Eric Gordon,,,12:21,0.0,0.0,0.0,2.0,0.0,0.0,4.0,4.0,1.0,0.0,1.0,0.0
0011600003,1610612745,HOU,Houston,201147,Corey Brewer,,,13:18,142.8,63.9,78.8,0.0,0.0,0.0,0.0,0.176,0.111,0.0,1.0,1.0,0.168,108.27,0.2,2016-10-02T00:00:00,1,HOU,Houston,1-0,34,38,29,30,0,0,0,0,0,0,0,0,0,0,131,0.521,0.633,0.333,34,52,9,0011600003,1610612745,HOU,Houston,Corey Brewer,,,13:18,5.0,3.0,4.0,4.0,0.0,0.0,4.0,4.0,0.0,0.0,2.0,0.0
0011600003,1610612745,HOU,Houston,203909,KJ McDaniels,,,16:44,132.6,90.6,42.0,0.0,0.0,0.0,0.0,0.333,0.174,22.5,0.833,0.872,0.227,105.73,0.158,2016-10-02T00:00:00,1,HOU,Houston,1-0,34,38,29,30,0,0,0,0,0,0,0,0,0,0,131,0.521,0.633,0.333,34,52,9,0011600003,1610612745,HOU,Houston,KJ McDaniels,,,16:44,4.0,0.0,2.0,10.0,7.0,0.0,9.0,24.0,1.0,0.0,3.0,2.0
0011600003,1610612745,HOU,Houston,203143,Pablo Prigioni,,,10:03,152.6,110.3,42.3,0.167,2.0,33.3,0.2,0.0,0.111,16.7,0.5,0.5,0.179,100.49,0.045,2016-10-02T00:00:00,1,HOU,Houston,1-0,34,38,29,30,0,0,0,0,0,0,0,0,0,0,131,0.521,0.633,0.333,34,52,9,0011600003,1610612745,HOU,Houston,Pablo Prigioni,,,10:03,0.0,0.0,0.0,0.0,5.0,0.0,7.0,18.0,0.0,0.0,0.0,0.0
0011600003,1610612745,HOU,Houston,1626149,Montrezl Harrell,,,5:46,185.2,100.0,85.2,0.125,0.0,25.8,0.333,0.5,0.429,0.0,0.5,0.521,0.207,99.38,0.147,2016-10-02T00:00:00,1,HOU,Houston,1-0,34,38,29,30,0,0,0,0,0,0,0,0,0,0,131,0.521,0.633,0.333,34,52,9,0011600003,1610612745,HOU,Houston,Montrezl Harrell,,,5:46,0.0,0.0,0.0,2.0,0.0,0.0,2.0,12.0,1.0,0.0,0.0,2.0
0011600003,1610612745,HOU,Houston,1626155,Sam Dekker,,,14:00,136.2,76.7,59.5,0.154,2.0,20.2,0.091,0.133,0.115,10.1,0.583,0.654,0.234,100.53,0.135,2016-10-02T00:00:00,1,HOU,Houston,1-0,34,38,29,30,0,0,0,0,0,0,0,0,0,0,131,0.521,0.633,0.333,34,52,9,0011600003,1610612745,HOU,Houston,Sam Dekker,,,14:00,0.0,2.0,4.0,4.0,2.0,0.0,4.0,18.0,0.0,0.0,1.0,1.0
0011600003,1610612745,HOU,Houston,203898,Tyler Ennis,,,11:00,88.4,67.1,21.2,0.333,1.0,22.2,0.0,0.077,0.042,22.2,0.6,0.6,0.262,107.08,0.161,2016-10-02T00:00:00,1,HOU,Houston,1-0,34,38,29,30,0,0,0,0,0,0,0,0,0,0,131,0.521,0.633,0.333,34,52,9,0011600003,1610612745,HOU,Houston,Tyler Ennis,,,11:00,4.0,0.0,2.0,6.0,4.0,0.0,2.0,8.0,0.0,0.0,0.0,0.0
0011600003,1610612745,HOU,Houston,1627778,Chinanu Onuaku,,,8:37,112.1,102.2,9.9,0.0,0.0,0.0,0.1,0.111,0.105,0.0,0.0,0.0,0.0,117.09,-0.055,2016-10-02T00:00:00,1,HOU,Houston,1-0,34,38,29,30,0,0,0,0,0,0,0,0,0,0,131,0.521,0.633,0.333,34,52,9,0011600003,1610612745,HOU,Houston,Chinanu Onuaku,,,8:37,0.0,0.0,0.0,0.0,2.0,0.0,4.0,12.0,0.0,0.0,3.0,0.0
0011600003,1610612745,HOU,Houston,1627787,Kyle Wiltjer,,,8:37,112.1,102.2,9.9,0.0,0.0,0.0,0.2,0.111,0.158,0.0,0.714,0.714,0.298,117.09,0.327,2016-10-02T00:00:00,1,HOU,Houston,1-0,34,38,29,30,0,0,0,0,0,0,0,0,0,0,131,0.521,0.633,0.333,34,52,9,0011600003,1610612745,HOU,Houston,Kyle Wiltjer,,,8:37,0.0,4.0,0.0,4.0,2.0,0.0,4.0,12.0,0.0,0.0,0.0,0.0
0011600003,1610612745,HOU,Houston,201628,Bobby Brown,,,7:21,115.0,118.8,-3.8,0.167,0.0,20.5,0.0,0.0,0.0,0.0,0.0,0.129,0.199,114.42,-0.078,2016-10-02T00:00:00,1,HOU,Houston,1-0,34,38,29,30,0,0,0,0,0,0,0,0,0,0,131,0.521,0.633,0.333,34,52,9,0011600003,1610612745,HOU,Houston,Bobby Brown,,,7:21,0.0,0.0,0.0,0.0,2.0,0.0,4.0,12.0,0.0,0.0,0.0,1.0
0011600003,1610612745,HOU,Houston,1627780,Gary Payton II,,,5:51,140.5,112.7,27.9,0.0,0.0,0.0,0.0,0.143,0.071,34.7,1.0,0.798,0.174,113.72,0.118,2016-10-02T00:00:00,1,HOU,Houston,1-0,34,38,29,30,0,0,0,0,0,0,0,0,0,0,131,0.521,0.633,0.333,34,52,9,0011600003,1610612745,HOU,Houston,Gary Payton II,,,5:51,3.0,0.0,2.0,2.0,0.0,0.0,4.0,10.0,0.0,0.0,1.0,1.0
0011600003,1610612745,HOU,Houston,1627819,Isaiah Taylor,,,3:53,150.5,123.0,27.5,0.333,0.0,34.7,0.0,0.0,0.0,0.0,1.0,0.798,0.177,113.72,0.105,2016-10-02T00:00:00,1,HOU,Houston,1-0,34,38,29,30,0,0,0,0,0,0,0,0,0,0,131,0.521,0.633,0.333,34,52,9,0011600003,1610612745,HOU,Houston,Isaiah Taylor,,,3:53,0.0,0.0,0.0,2.0,0.0,0.0,2.0,6.0,0.0,0.0,1.0,1.0
0011600003,1610612745,HOU,Houston,203798,PJ Hairston,,DNP - Coach's Decision                  ,,,,,,,0.0,,,,,,,0.0,,,2016-10-02T00:00:00,1,HOU,Houston,1-0,34,38,29,30,0,0,0,0,0,0,0,0,0,0,131,0.521,0.633,0.333,34,52,9,0011600003,1610612745,HOU,Houston,PJ Hairston,,DNP - Coach's Decision                  ,,,,,,,,,,,,,
