GAME_ID_x,TEAM_ID_x,TEAM_ABBREVIATION_x,TEAM_CITY_x,PLAYER_ID,PLAYER_NAME_x,START_POSITION_x,COMMENT_x,MIN_x,OFF_RATING,DEF_RATING,NET_RATING,AST_PCT,AST_TOV,AST_RATIO,OREB_PCT,DREB_PCT,REB_PCT,TM_TOV_PCT,EFG_PCT,TS_PCT,USG_PCT,PACE,PIE,GAME_DATE_EST,GAME_SEQUENCE,TEAM_ABBREVIATION_y,TEAM_CITY_NAME,TEAM_WINS_LOSSES,PTS_QTR1,PTS_QTR2,PTS_QTR3,PTS_QTR4,PTS_OT1,PTS_OT2,PTS_OT3,PTS_OT4,PTS_OT5,PTS_OT6,PTS_OT7,PTS_OT8,PTS_OT9,PTS_OT10,PTS,FG_PCT,FT_PCT,FG3_PCT,AST,REB,TOV,GAME_ID_y,TEAM_ID_y,TEAM_ABBREVIATION,TEAM_CITY_y,PLAYER_NAME_y,START_POSITION_y,COMMENT_y,MIN_y,PTS_OFF_TOV,PTS_2ND_CHANCE,PTS_FB,PTS_PAINT,OPP_PTS_OFF_TOV,OPP_PTS_2ND_CHANCE,OPP_PTS_FB,OPP_PTS_PAINT,BLK,BLKA,PF,PFD
0011600005,1610612749,MIL,Milwaukee,203507,Giannis Antetokounmpo,F,,23:55,83.6,105.5,-21.9,0.182,1.0,13.7,0.038,0.0,0.023,13.7,0.5,0.564,0.235,95.57,0.051,2016-10-03T00:00:00,2,MIL,Milwaukee,1-0,25,30,19,19,0,0,0,0,0,0,0,0,0,0,93,0.375,0.697,0.4,20,45,16,0011600005,1610612749,MIL,Milwaukee,Giannis Antetokounmpo,F,,23:55,4.0,2.0,3.0,6.0,8.0,7.0,11.0,20.0,0.0,0.0,4.0,6.0
0011600005,1610612749,MIL,Milwaukee,203953,Jabari Parker,F,,24:37,84.5,101.5,-17.0,0.111,1.0,5.9,0.148,0.263,0.196,5.9,0.433,0.433,0.287,96.52,0.148,2016-10-03T00:00:00,2,MIL,Milwaukee,1-0,25,30,19,19,0,0,0,0,0,0,0,0,0,0,93,0.375,0.697,0.4,20,45,16,0011600005,1610612749,MIL,Milwaukee,Jabari Parker,F,,24:37,2.0,4.0,2.0,10.0,8.0,7.0,11.0,20.0,0.0,4.0,2.0,2.0
0011600005,1610612749,MIL,Milwaukee,203101,Miles Plumlee,C,,17:11,84.8,111.9,-27.1,0.1,1.0,20.0,0.048,0.167,0.091,20.0,0.333,0.333,0.1,93.97,0.009,2016-10-03T00:00:00,2,MIL,Milwaukee,1-0,25,30,19,19,0,0,0,0,0,0,0,0,0,0,93,0.375,0.697,0.4,20,45,16,0011600005,1610612749,MIL,Milwaukee,Miles Plumlee,C,,17:11,0.0,0.0,0.0,2.0,6.0,7.0,11.0,14.0,0.0,1.0,3.0,1.0
0011600005,1610612749,MIL,Milwaukee,1626173,Rashad Vaughn,G,,21:40,85.6,100.4,-14.8,0.083,1.0,10.6,0.0,0.0,0.0,10.6,0.214,0.269,0.172,91.85,-0.035,2016-10-03T00:00:00,2,MIL,Milwaukee,1-0,25,30,19,19,0,0,0,0,0,0,0,0,0,0,93,0.375,0.697,0.4,20,45,16,0011600005,1610612749,MIL,Milwaukee,Rashad Vaughn,G,,21:40,3.0,3.0,0.0,0.0,8.0,7.0,11.0,14.0,0.0,0.0,1.0,0.0
0011600005,1610612749,MIL,Milwaukee,1627763,Malcolm Brogdon,G,,23:39,66.0,97.5,-31.5,0.1,1.0,11.3,0.0,0.188,0.067,11.3,0.25,0.363,0.143,95.51,0.063,2016-10-03T00:00:00,2,MIL,Milwaukee,1-0,25,30,19,19,0,0,0,0,0,0,0,0,0,0,93,0.375,0.697,0.4,20,45,16,0011600005,1610612749,MIL,Milwaukee,Malcolm Brogdon,G,,23:39,0.0,0.0,0.0,0.0,12.0,7.0,9.0,16.0,0.0,0.0,1.0,1.0
0011600005,1610612749,MIL,Milwaukee,203487,Michael Carter-Williams,,,28:48,106.3,84.0,22.3,0.353,1.5,28.2,0.1,0.296,0.193,18.8,0.167,0.443,0.227,100.2,0.126,2016-10-03T00:00:00,2,MIL,Milwaukee,1-0,25,30,19,19,0,0,0,0,0,0,0,0,0,0,93,0.375,0.697,0.4,20,45,16,0011600005,1610612749,MIL,Milwaukee,Michael Carter-Williams,,,28:48,2.0,2.0,1.0,2.0,10.0,5.0,2.0,24.0,1.0,1.0,3.0,7.0
0011600005,1610612749,MIL,Milwaukee,202328,Greg Monroe,,,17:26,122.7,84.7,37.9,0.2,1.0,6.1,0.235,0.278,0.257,6.1,0.538,0.524,0.381,99.12,0.312,2016-10-03T00:00:00,2,MIL,Milwaukee,1-0,25,30,19,19,0,0,0,0,0,0,0,0,0,0,93,0.375,0.697,0.4,20,45,16,0011600005,1610612749,MIL,Milwaukee,Greg Monroe,,,17:26,6.0,2.0,4.0,12.0,4.0,4.0,0.0,16.0,3.0,1.0,0.0,4.0
0011600005,1610612749,MIL,Milwaukee,203521,Matthew Dellavedova,,,24:21,125.1,88.5,36.6,0.375,3.0,40.3,0.0,0.08,0.042,13.4,0.75,0.799,0.157,98.96,0.149,2016-10-03T00:00:00,2,MIL,Milwaukee,1-0,25,30,19,19,0,0,0,0,0,0,0,0,0,0,93,0.375,0.697,0.4,20,45,16,0011600005,1610612749,MIL,Milwaukee,Matthew Dellavedova,,,24:21,0.0,0.0,0.0,0.0,6.0,5.0,4.0,22.0,0.0,0.0,2.0,1.0
0011600005,1610612749,MIL,Milwaukee,201563,Michael Beasley,,,18:16,123.9,76.2,47.8,0.0,0.0,0.0,0.0,0.143,0.073,17.2,0.429,0.571,0.253,99.85,0.113,2016-10-03T00:00:00,2,MIL,Milwaukee,1-0,25,30,19,19,0,0,0,0,0,0,0,0,0,0,93,0.375,0.697,0.4,20,45,16,0011600005,1610612749,MIL,Milwaukee,Michael Beasley,,,18:16,1.0,0.0,0.0,0.0,6.0,4.0,0.0,12.0,0.0,0.0,1.0,3.0
0011600005,1610612749,MIL,Milwaukee,203141,Mirza Teletovic,,,20:10,109.6,86.1,23.5,0.1,0.0,11.8,0.091,0.053,0.073,0.0,0.714,0.672,0.152,99.97,0.1,2016-10-03T00:00:00,2,MIL,Milwaukee,1-0,25,30,19,19,0,0,0,0,0,0,0,0,0,0,93,0.375,0.697,0.4,20,45,16,0011600005,1610612749,MIL,Milwaukee,Mirza Teletovic,,,20:10,3.0,5.0,0.0,4.0,10.0,5.0,2.0,16.0,1.0,0.0,4.0,1.0
0011600005,1610612749,MIL,Milwaukee,203089,John Henson,,,13:23,78.3,81.0,-2.7,0.0,0.0,0.0,0.0,0.091,0.04,50.0,0.0,0.0,0.064,99.06,-0.02,2016-10-03T00:00:00,2,MIL,Milwaukee,1-0,25,30,19,19,0,0,0,0,0,0,0,0,0,0,93,0.375,0.697,0.4,20,45,16,0011600005,1610612749,MIL,Milwaukee,John Henson,,,13:23,0.0,0.0,0.0,0.0,8.0,1.0,2.0,8.0,1.0,0.0,1.0,0.0
0011600005,1610612749,MIL,Milwaukee,1626266,JJ O'Brien,,,3:21,14.5,128.9,-114.3,0.0,0.0,0.0,0.0,0.0,0.0,0.0,0.0,0.0,0.145,104.88,-0.444,2016-10-03T00:00:00,2,MIL,Milwaukee,1-0,25,30,19,19,0,0,0,0,0,0,0,0,0,0,93,0.375,0.697,0.4,20,45,16,0011600005,1610612749,MIL,Milwaukee,JJ O'Brien,,,3:21,0.0,0.0,0.0,0.0,4.0,1.0,2.0,6.0,0.0,0.0,1.0,0.0
0011600005,1610612749,MIL,Milwaukee,200779,Steve Novak,,,3:13,104.2,69.4,34.7,0.0,0.0,0.0,0.0,0.0,0.0,0.0,0.0,0.0,0.0,85.95,0.0,2016-10-03T00:00:00,2,MIL,Milwaukee,1-0,25,30,19,19,0,0,0,0,0,0,0,0,0,0,93,0.375,0.697,0.4,20,45,16,0011600005,1610612749,MIL,Milwaukee,Steve Novak,,,3:13,0.0,0.0,0.0,0.0,0.0,0.0,0.0,2.0,0.0,0.0,0.0,0.0
0011600005,1610612749,MIL,Milwaukee,1626294,Jaleel Roberts,,DNP - Coach's Decision                  ,,,,,,,0.0,,,,,,,0.0,,,2016-10-03T00:00:00,2,MIL,Milwaukee,1-0,25,30,19,19,0,0,0,0,0,0,0,0,0,0,93,0.375,0.697,0.4,20,45,16,0011600005,1610612749,MIL,Milwaukee,Jaleel Roberts,,DNP - Coach's Decision                  ,,,,,,,,,,,,,
0011600005,1610612741,CHI,Chicago,202710,Jimmy Butler,F,,15:03,96.0,93.5,2.5,0.125,0.0,10.0,0.077,0.143,0.111,0.0,0.5,0.725,0.24,102.63,0.27,2016-10-03T00:00:00,2,CHI,Chicago,0-1,21,21,25,24,0,0,0,0,0,0,0,0,0,0,91,0.461,0.64,0.263,22,48,22,0011600005,1610612741,CHI,Chicago,Jimmy Butler,F,,15:03,4.0,2.0,5.0,2.0,5.0,2.0,3.0,12.0,1.0,1.0,2.0,6.0
0011600005,1610612741,CHI,Chicago,201959,Taj Gibson,F,,21:48,103.6,89.4,14.2,0.071,0.25,6.5,0.313,0.28,0.293,26.1,0.556,0.533,0.279,98.11,0.152,2016-10-03T00:00:00,2,CHI,Chicago,0-1,21,21,25,24,0,0,0,0,0,0,0,0,0,0,91,0.461,0.64,0.263,22,48,22,0011600005,1610612741,CHI,Chicago,Taj Gibson,F,,21:48,0.0,5.0,0.0,8.0,9.0,6.0,5.0,18.0,1.0,1.0,2.0,4.0
0011600005,1610612741,CHI,Chicago,201577,Robin Lopez,C,,19:56,106.4,92.6,13.8,0.077,0.0,11.1,0.063,0.095,0.081,0.0,0.5,0.5,0.176,94.49,0.116,2016-10-03T00:00:00,2,CHI,Chicago,0-1,21,21,25,24,0,0,0,0,0,0,0,0,0,0,91,0.461,0.64,0.263,22,48,22,0011600005,1610612741,CHI,Chicago,Robin Lopez,C,,19:56,0.0,0.0,2.0,0.0,8.0,6.0,5.0,18.0,3.0,0.0,3.0,0.0
0011600005,1610612741,CHI,Chicago,2548,Dwyane Wade,G,,11:41,84.4,92.6,-8.2,0.143,0.5,14.5,0.0,0.143,0.08,29.1,1.0,0.773,0.227,102.14,0.088,2016-10-03T00:00:00,2,CHI,Chicago,0-1,21,21,25,24,0,0,0,0,0,0,0,0,0,0,91,0.461,0.64,0.263,22,48,22,0011600005,1610612741,CHI,Chicago,Dwyane Wade,G,,11:41,0.0,0.0,0.0,0.0,5.0,5.0,0.0,6.0,0.0,0.0,3.0,1.0
0011600005,1610612741,CHI,Chicago,200765,Rajon Rondo,G,,23:40,101.8,93.8,8.0,0.438,1.4,50.0,0.053,0.2,0.136,35.7,0.5,0.5,0.129,95.45,0.09,2016-10-03T00:00:00,2,CHI,Chicago,0-1,21,21,25,24,0,0,0,0,0,0,0,0,0,0,91,0.461,0.64,0.263,22,48,22,0011600005,1610612741,CHI,Chicago,Rajon Rondo,G,,23:40,0.0,0.0,0.0,0.0,8.0,8.0,5.0,20.0,0.0,0.0,2.0,0.0
0011600005,1610612741,CHI,Chicago,203926,Doug McDermott,,,25:44,83.2,103.2,-20.0,0.071,0.5,6.8,0.042,0.148,0.098,13.6,0.5,0.553,0.236,100.35,0.112,2016-10-03T00:00:00,2,CHI,Chicago,0-1,21,21,25,24,0,0,0,0,0,0,0,0,0,0,91,0.461,0.64,0.263,22,48,22,0011600005,1610612741,CHI,Chicago,Doug McDermott,,,25:44,6.0,2.0,0.0,10.0,15.0,10.0,6.0,18.0,0.0,1.0,4.0,2.0
0011600005,1610612741,CHI,Chicago,1626170,Jerian Grant,,,15:06,69.0,119.7,-50.7,0.286,1.0,25.0,0.0,0.0,0.0,25.0,0.875,0.875,0.182,99.81,0.092,2016-10-03T00:00:00,2,CHI,Chicago,0-1,21,21,25,24,0,0,0,0,0,0,0,0,0,0,91,0.461,0.64,0.263,22,48,22,0011600005,1610612741,CHI,Chicago,Jerian Grant,,,15:06,0.0,0.0,0.0,2.0,9.0,7.0,4.0,12.0,0.0,1.0,2.0,0.0
0011600005,1610612741,CHI,Chicago,202703,Nikola Mirotic,,,18:50,70.9,115.6,-44.8,0.111,0.5,10.0,0.053,0.091,0.073,20.0,0.143,0.143,0.217,99.96,-0.036,2016-10-03T00:00:00,2,CHI,Chicago,0-1,21,21,25,24,0,0,0,0,0,0,0,0,0,0,91,0.461,0.64,0.263,22,48,22,0011600005,1610612741,CHI,Chicago,Nikola Mirotic,,,18:50,0.0,2.0,0.0,2.0,9.0,9.0,4.0,14.0,1.0,1.0,1.0,3.0
0011600005,1610612741,CHI,Chicago,1626171,Bobby Portis,,,26:12,84.0,102.3,-18.4,0.214,3.0,23.3,0.0,0.333,0.173,7.8,0.313,0.338,0.172,96.55,0.129,2016-10-03T00:00:00,2,CHI,Chicago,0-1,21,21,25,24,0,0,0,0,0,0,0,0,0,0,91,0.461,0.64,0.263,22,48,22,0011600005,1610612741,CHI,Chicago,Bobby Portis,,,26:12,0.0,1.0,0.0,0.0,12.0,12.0,5.0,18.0,0.0,1.0,2.0,1.0
0011600005,1610612741,CHI,Chicago,1627756,Denzel Valentine,,,11:04,91.7,127.4,-35.7,1.0,2.0,25.0,0.0,0.125,0.053,12.5,0.4,0.4,0.233,94.29,0.049,2016-10-03T00:00:00,2,CHI,Chicago,0-1,21,21,25,24,0,0,0,0,0,0,0,0,0,0,91,0.461,0.64,0.263,22,48,22,0011600005,1610612741,CHI,Chicago,Denzel Valentine,,,11:04,4.0,0.0,2.0,2.0,2.0,2.0,2.0,10.0,0.0,0.0,1.0,0.0
0011600005,1610612741,CHI,Chicago,203503,Tony Snell,,,16:57,108.0,76.1,31.9,0.0,0.0,0.0,0.111,0.15,0.138,0.0,0.571,0.635,0.216,90.51,0.244,2016-10-03T00:00:00,2,CHI,Chicago,0-1,21,21,25,24,0,0,0,0,0,0,0,0,0,0,91,0.461,0.64,0.263,22,48,22,0011600005,1610612741,CHI,Chicago,Tony Snell,,,16:57,2.0,0.0,2.0,6.0,7.0,9.0,2.0,10.0,1.0,0.0,1.0,2.0
0011600005,1610612741,CHI,Chicago,203477,Isaiah Canaan,,,15:31,98.6,88.1,10.5,0.077,0.0,16.7,0.0,0.0,0.0,0.0,0.2,0.2,0.145,92.74,-0.046,2016-10-03T00:00:00,2,CHI,Chicago,0-1,21,21,25,24,0,0,0,0,0,0,0,0,0,0,91,0.461,0.64,0.263,22,48,22,0011600005,1610612741,CHI,Chicago,Isaiah Canaan,,,15:31,0.0,0.0,0.0,2.0,8.0,8.0,7.0,16.0,0.0,0.0,1.0,1.0
0011600005,1610612741,CHI,Chicago,1626245,Cristiano Felicio,,,9:14,110.2,62.4,47.9,0.0,0.0,0.0,0.0,0.0,0.0,25.8,1.0,0.694,0.177,97.73,0.0,2016-10-03T00:00:00,2,CHI,Chicago,0-1,21,21,25,24,0,0,0,0,0,0,0,0,0,0,91,0.461,0.64,0.263,22,48,22,0011600005,1610612741,CHI,Chicago,Cristiano Felicio,,,9:14,2.0,0.0,2.0,4.0,4.0,3.0,1.0,4.0,0.0,0.0,2.0,2.0
0011600005,1610612741,CHI,Chicago,203915,Spencer Dinwiddie,,,9:14,110.2,62.4,47.9,0.143,0.5,22.5,0.0,0.0,0.0,45.0,1.0,1.042,0.157,97.73,0.15,2016-10-03T00:00:00,2,CHI,Chicago,0-1,21,21,25,24,0,0,0,0,0,0,0,0,0,0,91,0.461,0.64,0.263,22,48,22,0011600005,1610612741,CHI,Chicago,Spencer Dinwiddie,,,9:14,0.0,0.0,0.0,0.0,4.0,3.0,1.0,4.0,0.0,0.0,0.0,1.0
0011600005,1610612741,CHI,Chicago,1627835,Paul Zipser,,DNP - Coach's Decision                  ,,,,,,,0.0,,,,,,,0.0,,,2016-10-03T00:00:00,2,CHI,Chicago,0-1,21,21,25,24,0,0,0,0,0,0,0,0,0,0,91,0.461,0.64,0.263,22,48,22,0011600005,1610612741,CHI,Chicago,Paul Zipser,,DNP - Coach's Decision                  ,,,,,,,,,,,,,
