GAME_ID_x,TEAM_ID_x,TEAM_ABBREVIATION_x,TEAM_CITY_x,PLAYER_ID,PLAYER_NAME_x,START_POSITION_x,COMMENT_x,MIN_x,OFF_RATING,DEF_RATING,NET_RATING,AST_PCT,AST_TOV,AST_RATIO,OREB_PCT,DREB_PCT,REB_PCT,TM_TOV_PCT,EFG_PCT,TS_PCT,USG_PCT,PACE,PIE,GAME_DATE_EST,GAME_SEQUENCE,TEAM_ABBREVIATION_y,TEAM_CITY_NAME,TEAM_WINS_LOSSES,PTS_QTR1,PTS_QTR2,PTS_QTR3,PTS_QTR4,PTS_OT1,PTS_OT2,PTS_OT3,PTS_OT4,PTS_OT5,PTS_OT6,PTS_OT7,PTS_OT8,PTS_OT9,PTS_OT10,PTS,FG_PCT,FT_PCT,FG3_PCT,AST,REB,TOV,GAME_ID_y,TEAM_ID_y,TEAM_ABBREVIATION,TEAM_CITY_y,PLAYER_NAME_y,START_POSITION_y,COMMENT_y,MIN_y,PTS_OFF_TOV,PTS_2ND_CHANCE,PTS_FB,PTS_PAINT,OPP_PTS_OFF_TOV,OPP_PTS_2ND_CHANCE,OPP_PTS_FB,OPP_PTS_PAINT,BLK,BLKA,PF,PFD
0011600036,1610612743,DEN,Denver,201568,Danilo Gallinari,F,,27:38,117.1,109.9,7.2,0.143,3.0,21.0,0.0,0.125,0.065,7.0,0.8,0.924,0.16,106.27,0.179,2016-10-09T00:00:00,2,DEN,Denver,2-1,23,30,32,30,0,0,0,0,0,0,0,0,0,0,115,0.476,0.689,0.273,21,54,20,0011600036,1610612743,DEN,Denver,Danilo Gallinari,F,,27:38,6.0,2.0,2.0,2.0,10.0,2.0,9.0,18.0,0.0,1.0,0.0,8.0
0011600036,1610612743,DEN,Denver,202702,Kenneth Faried,F,,25:03,114.5,102.9,11.6,0.111,2.0,17.4,0.125,0.231,0.19,8.7,0.6,0.587,0.157,107.46,0.121,2016-10-09T00:00:00,2,DEN,Denver,2-1,23,30,32,30,0,0,0,0,0,0,0,0,0,0,115,0.476,0.689,0.273,21,54,20,0011600036,1610612743,DEN,Denver,Kenneth Faried,F,,25:03,0.0,2.0,3.0,6.0,10.0,2.0,6.0,20.0,1.0,0.0,1.0,4.0
0011600036,1610612743,DEN,Denver,203994,Jusuf Nurkic,C,,31:13,116.8,120.4,-3.6,0.15,1.0,14.1,0.174,0.429,0.314,14.1,0.6,0.687,0.234,107.6,0.185,2016-10-09T00:00:00,2,DEN,Denver,2-1,23,30,32,30,0,0,0,0,0,0,0,0,0,0,115,0.476,0.689,0.273,21,54,20,0011600036,1610612743,DEN,Denver,Jusuf Nurkic,C,,31:13,0.0,4.0,0.0,12.0,13.0,2.0,10.0,24.0,0.0,0.0,3.0,6.0
0011600036,1610612743,DEN,Denver,203115,Will Barton,G,,29:21,110.1,112.7,-2.6,0.0,0.0,0.0,0.042,0.04,0.041,22.9,0.538,0.558,0.235,107.22,0.049,2016-10-09T00:00:00,2,DEN,Denver,2-1,23,30,32,30,0,0,0,0,0,0,0,0,0,0,115,0.476,0.689,0.273,21,54,20,0011600036,1610612743,DEN,Denver,Will Barton,G,,29:21,2.0,4.0,5.0,12.0,12.0,2.0,9.0,18.0,3.0,0.0,3.0,1.0
0011600036,1610612743,DEN,Denver,1626144,Emmanuel Mudiay,G,,26:47,110.1,102.7,7.4,0.412,2.33,27.3,0.0,0.143,0.089,11.7,0.385,0.448,0.287,107.78,0.092,2016-10-09T00:00:00,2,DEN,Denver,2-1,23,30,32,30,0,0,0,0,0,0,0,0,0,0,115,0.476,0.689,0.273,21,54,20,0011600036,1610612743,DEN,Denver,Emmanuel Mudiay,G,,26:47,3.0,0.0,8.0,10.0,14.0,2.0,8.0,24.0,0.0,0.0,4.0,5.0
0011600036,1610612743,DEN,Denver,1627750,Jamal Murray,,,21:13,104.5,144.6,-40.1,0.286,1.0,23.7,0.08,0.077,0.079,23.7,0.375,0.338,0.226,101.22,0.0,2016-10-09T00:00:00,2,DEN,Denver,2-1,23,30,32,30,0,0,0,0,0,0,0,0,0,0,115,0.476,0.689,0.273,21,54,20,0011600036,1610612743,DEN,Denver,Jamal Murray,,,21:13,4.0,0.0,0.0,6.0,6.0,1.0,9.0,12.0,0.0,0.0,1.0,2.0
0011600036,1610612743,DEN,Denver,203950,Jarnell Stokes,,,16:47,89.5,120.4,-31.0,0.091,0.0,16.7,0.211,0.154,0.188,0.0,0.4,0.4,0.114,99.81,0.0,2016-10-09T00:00:00,2,DEN,Denver,2-1,23,30,32,30,0,0,0,0,0,0,0,0,0,0,115,0.476,0.689,0.273,21,54,20,0011600036,1610612743,DEN,Denver,Jarnell Stokes,,,16:47,0.0,0.0,2.0,4.0,7.0,1.0,7.0,12.0,0.0,1.0,6.0,1.0
0011600036,1610612743,DEN,Denver,1627823,Juan Hernangomez,,,24:57,106.8,131.3,-24.5,0.0,0.0,0.0,0.077,0.368,0.2,15.5,0.65,0.597,0.194,103.7,0.12,2016-10-09T00:00:00,2,DEN,Denver,2-1,23,30,32,30,0,0,0,0,0,0,0,0,0,0,115,0.476,0.689,0.273,21,54,20,0011600036,1610612743,DEN,Denver,Juan Hernangomez,,,24:57,0.0,2.0,2.0,8.0,10.0,1.0,11.0,18.0,0.0,2.0,3.0,1.0
0011600036,1610612743,DEN,Denver,203133,Robbie Hummel,,,16:39,93.5,147.8,-54.2,0.111,0.0,12.7,0.0,0.167,0.067,0.0,0.667,0.727,0.163,98.65,0.154,2016-10-09T00:00:00,2,DEN,Denver,2-1,23,30,32,30,0,0,0,0,0,0,0,0,0,0,115,0.476,0.689,0.273,21,54,20,0011600036,1610612743,DEN,Denver,Robbie Hummel,,,16:39,0.0,2.0,0.0,0.0,8.0,1.0,8.0,16.0,0.0,0.0,1.0,1.0
0011600036,1610612743,DEN,Denver,1627736,Malik Beasley,,,20:22,94.4,135.1,-40.7,0.0,0.0,0.0,0.0,0.059,0.027,22.2,0.214,0.214,0.175,102.99,-0.086,2016-10-09T00:00:00,2,DEN,Denver,2-1,23,30,32,30,0,0,0,0,0,0,0,0,0,0,115,0.476,0.689,0.273,21,54,20,0011600036,1610612743,DEN,Denver,Malik Beasley,,,20:22,0.0,0.0,0.0,0.0,10.0,1.0,8.0,18.0,0.0,0.0,2.0,0.0
0011600036,1610612743,DEN,Denver,201589,Darrell Arthur,,DND - Left knee surgery.                ,,,,,,,0.0,,,,,,,0.0,,,2016-10-09T00:00:00,2,DEN,Denver,2-1,23,30,32,30,0,0,0,0,0,0,0,0,0,0,115,0.476,0.689,0.273,21,54,20,0011600036,1610612743,DEN,Denver,Darrell Arthur,,DND - Left knee surgery.                ,,,,,,,,,,,,,
0011600036,1610612743,DEN,Denver,201163,Wilson Chandler,,DNP - Coach's Decision                  ,,,,,,,0.0,,,,,,,0.0,,,2016-10-09T00:00:00,2,DEN,Denver,2-1,23,30,32,30,0,0,0,0,0,0,0,0,0,0,115,0.476,0.689,0.273,21,54,20,0011600036,1610612743,DEN,Denver,Wilson Chandler,,DNP - Coach's Decision                  ,,,,,,,,,,,,,
0011600036,1610612743,DEN,Denver,203914,Gary Harris,,DND - Right groin strain.               ,,,,,,,0.0,,,,,,,0.0,,,2016-10-09T00:00:00,2,DEN,Denver,2-1,23,30,32,30,0,0,0,0,0,0,0,0,0,0,115,0.476,0.689,0.273,21,54,20,0011600036,1610612743,DEN,Denver,Gary Harris,,DND - Right groin strain.               ,,,,,,,,,,,,,
0011600036,1610612743,DEN,Denver,203999,Nikola Jokic,,DNP - Coach's Decision                  ,,,,,,,0.0,,,,,,,0.0,,,2016-10-09T00:00:00,2,DEN,Denver,2-1,23,30,32,30,0,0,0,0,0,0,0,0,0,0,115,0.476,0.689,0.273,21,54,20,0011600036,1610612743,DEN,Denver,Nikola Jokic,,DNP - Coach's Decision                  ,,,,,,,,,,,,,
0011600036,1610612743,DEN,Denver,202810,D.J. Kennedy,,DNP - Coach's Decision                  ,,,,,,,0.0,,,,,,,0.0,,,2016-10-09T00:00:00,2,DEN,Denver,2-1,23,30,32,30,0,0,0,0,0,0,0,0,0,0,115,0.476,0.689,0.273,21,54,20,0011600036,1610612743,DEN,Denver,D.J. Kennedy,,DNP - Coach's Decision                  ,,,,,,,,,,,,,
0011600036,1610612743,DEN,Denver,2034,Mike Miller,,DNP - Coach's Decision                  ,,,,,,,0.0,,,,,,,0.0,,,2016-10-09T00:00:00,2,DEN,Denver,2-1,23,30,32,30,0,0,0,0,0,0,0,0,0,0,115,0.476,0.689,0.273,21,54,20,0011600036,1610612743,DEN,Denver,Mike Miller,,DNP - Coach's Decision                  ,,,,,,,,,,,,,
0011600036,1610612743,DEN,Denver,2749,Jameer Nelson,,DNP - Coach's Decision                  ,,,,,,,0.0,,,,,,,0.0,,,2016-10-09T00:00:00,2,DEN,Denver,2-1,23,30,32,30,0,0,0,0,0,0,0,0,0,0,115,0.476,0.689,0.273,21,54,20,0011600036,1610612743,DEN,Denver,Jameer Nelson,,DNP - Coach's Decision                  ,,,,,,,,,,,,,
0011600036,1610612743,DEN,Denver,203960,JaKarr Sampson,,DNP - Coach's Decision                  ,,,,,,,0.0,,,,,,,0.0,,,2016-10-09T00:00:00,2,DEN,Denver,2-1,23,30,32,30,0,0,0,0,0,0,0,0,0,0,115,0.476,0.689,0.273,21,54,20,0011600036,1610612743,DEN,Denver,JaKarr Sampson,,DNP - Coach's Decision                  ,,,,,,,,,,,,,
0011600036,1610612743,DEN,Denver,1626253,Axel Toupane,,DNP - Coach's Decision                  ,,,,,,,0.0,,,,,,,0.0,,,2016-10-09T00:00:00,2,DEN,Denver,2-1,23,30,32,30,0,0,0,0,0,0,0,0,0,0,115,0.476,0.689,0.273,21,54,20,0011600036,1610612743,DEN,Denver,Axel Toupane,,DNP - Coach's Decision                  ,,,,,,,,,,,,,
0011600036,1610612743,DEN,Denver,203489,Nate Wolters,,DNP - Coach's Decision                  ,,,,,,,0.0,,,,,,,0.0,,,2016-10-09T00:00:00,2,DEN,Denver,2-1,23,30,32,30,0,0,0,0,0,0,0,0,0,0,115,0.476,0.689,0.273,21,54,20,0011600036,1610612743,DEN,Denver,Nate Wolters,,DNP - Coach's Decision                  ,,,,,,,,,,,,,
0011600036,1610612747,LAL,Los Angeles,201156,Nick Young,F,,31:40,120.0,112.7,7.3,0.04,0.0,10.1,0.0,0.154,0.074,0.0,0.75,0.788,0.13,101.56,0.12,2016-10-09T00:00:00,2,LAL,Los Angeles,2-1,32,21,32,39,0,0,0,0,0,0,0,0,0,0,124,0.531,0.706,0.5,18,29,9,0011600036,1610612747,LAL,Los Angeles,Nick Young,F,,31:40,0.0,0.0,0.0,2.0,9.0,8.0,15.0,42.0,0.0,0.0,3.0,2.0
0011600036,1610612747,LAL,Los Angeles,203944,Julius Randle,F,,28:25,126.6,111.7,14.9,0.227,5.0,24.1,0.04,0.13,0.083,4.8,0.538,0.542,0.252,101.92,0.097,2016-10-09T00:00:00,2,LAL,Los Angeles,2-1,32,21,32,39,0,0,0,0,0,0,0,0,0,0,124,0.531,0.706,0.5,18,29,9,0011600036,1610612747,LAL,Los Angeles,Julius Randle,F,,28:25,2.0,0.0,2.0,12.0,7.0,6.0,15.0,36.0,0.0,2.0,4.0,3.0
0011600036,1610612747,LAL,Los Angeles,202389,Timofey Mozgov,C,,13:47,89.7,100.3,-10.5,0.0,0.0,0.0,0.0,0.25,0.083,25.0,0.333,0.333,0.128,108.17,0.022,2016-10-09T00:00:00,2,LAL,Los Angeles,2-1,32,21,32,39,0,0,0,0,0,0,0,0,0,0,124,0.531,0.706,0.5,18,29,9,0011600036,1610612747,LAL,Los Angeles,Timofey Mozgov,C,,13:47,0.0,0.0,0.0,2.0,5.0,2.0,11.0,18.0,0.0,0.0,1.0,1.0
0011600036,1610612747,LAL,Los Angeles,101150,Lou Williams,G,,29:00,124.6,114.4,10.2,0.095,0.0,10.4,0.0,0.13,0.061,0.0,0.667,0.727,0.27,102.46,0.175,2016-10-09T00:00:00,2,LAL,Los Angeles,2-1,32,21,32,39,0,0,0,0,0,0,0,0,0,0,124,0.531,0.706,0.5,18,29,9,0011600036,1610612747,LAL,Los Angeles,Lou Williams,G,,29:00,6.0,0.0,7.0,4.0,7.0,6.0,17.0,38.0,0.0,0.0,1.0,3.0
0011600036,1610612747,LAL,Los Angeles,1626156,D'Angelo Russell,G,,31:38,129.2,114.5,14.6,0.158,1.5,11.6,0.0,0.038,0.019,7.8,0.789,0.795,0.322,105.85,0.181,2016-10-09T00:00:00,2,LAL,Los Angeles,2-1,32,21,32,39,0,0,0,0,0,0,0,0,0,0,124,0.531,0.706,0.5,18,29,9,0011600036,1610612747,LAL,Los Angeles,D'Angelo Russell,G,,31:38,2.0,2.0,6.0,6.0,9.0,10.0,17.0,42.0,0.0,0.0,5.0,3.0
0011600036,1610612747,LAL,Los Angeles,203903,Jordan Clarkson,,,19:00,114.0,98.7,15.3,0.273,1.5,21.1,0.0,0.105,0.059,14.1,0.571,0.652,0.271,108.58,0.13,2016-10-09T00:00:00,2,LAL,Los Angeles,2-1,32,21,32,39,0,0,0,0,0,0,0,0,0,0,124,0.531,0.706,0.5,18,29,9,0011600036,1610612747,LAL,Los Angeles,Jordan Clarkson,,,19:00,4.0,0.0,0.0,2.0,8.0,10.0,5.0,22.0,0.0,1.0,2.0,2.0
0011600036,1610612747,LAL,Los Angeles,1626204,Larry Nance Jr.,,,16:51,117.9,103.1,14.8,0.077,1.0,14.5,0.0,0.063,0.033,14.5,0.0,0.205,0.157,111.38,-0.031,2016-10-09T00:00:00,2,LAL,Los Angeles,2-1,32,21,32,39,0,0,0,0,0,0,0,0,0,0,124,0.531,0.706,0.5,18,29,9,0011600036,1610612747,LAL,Los Angeles,Larry Nance Jr.,,,16:51,0.0,0.0,0.0,0.0,6.0,8.0,7.0,20.0,0.0,0.0,2.0,3.0
0011600036,1610612747,LAL,Los Angeles,1627742,Brandon Ingram,,,19:04,114.0,99.4,14.6,0.0,0.0,0.0,0.0,0.105,0.059,0.0,0.5,0.431,0.112,109.06,0.038,2016-10-09T00:00:00,2,LAL,Los Angeles,2-1,32,21,32,39,0,0,0,0,0,0,0,0,0,0,124,0.531,0.706,0.5,18,29,9,0011600036,1610612747,LAL,Los Angeles,Brandon Ingram,,,19:04,2.0,0.0,2.0,2.0,8.0,10.0,7.0,22.0,3.0,0.0,1.0,3.0
0011600036,1610612747,LAL,Los Angeles,204028,Tarik Black,,,16:08,108.4,98.3,10.2,0.0,0.0,0.0,0.067,0.222,0.152,25.8,0.25,0.434,0.215,106.63,0.053,2016-10-09T00:00:00,2,LAL,Los Angeles,2-1,32,21,32,39,0,0,0,0,0,0,0,0,0,0,124,0.531,0.706,0.5,18,29,9,0011600036,1610612747,LAL,Los Angeles,Tarik Black,,,16:08,1.0,1.0,0.0,2.0,6.0,6.0,2.0,20.0,1.0,1.0,3.0,2.0
0011600036,1610612747,LAL,Los Angeles,101181,Jose Calderon,,,16:22,102.2,94.7,7.5,0.125,0.0,20.0,0.0,0.125,0.065,0.0,1.0,1.0,0.117,103.0,0.25,2016-10-09T00:00:00,2,LAL,Los Angeles,2-1,32,21,32,39,0,0,0,0,0,0,0,0,0,0,124,0.531,0.706,0.5,18,29,9,0011600036,1610612747,LAL,Los Angeles,Jose Calderon,,,16:22,0.0,0.0,0.0,2.0,6.0,6.0,5.0,18.0,0.0,0.0,0.0,1.0
0011600036,1610612747,LAL,Los Angeles,1627826,Ivica Zubac,,,9:19,119.8,124.0,-4.3,0.222,0.0,50.0,0.0,0.167,0.077,0.0,0.5,0.5,0.099,103.45,0.048,2016-10-09T00:00:00,2,LAL,Los Angeles,2-1,32,21,32,39,0,0,0,0,0,0,0,0,0,0,124,0.531,0.706,0.5,18,29,9,0011600036,1610612747,LAL,Los Angeles,Ivica Zubac,,,9:19,2.0,0.0,0.0,2.0,2.0,6.0,7.0,14.0,0.0,0.0,2.0,0.0
0011600036,1610612747,LAL,Los Angeles,203080,Thomas Robinson,,,8:46,199.8,120.4,79.4,0.0,0.0,0.0,0.0,0.2,0.154,0.0,0.0,0.568,0.05,98.01,-0.023,2016-10-09T00:00:00,2,LAL,Los Angeles,2-1,32,21,32,39,0,0,0,0,0,0,0,0,0,0,124,0.531,0.706,0.5,18,29,9,0011600036,1610612747,LAL,Los Angeles,Thomas Robinson,,,8:46,1.0,0.0,0.0,0.0,2.0,2.0,2.0,8.0,0.0,0.0,5.0,1.0
0011600036,1610612747,LAL,Los Angeles,1627811,Zach Auguste,,DNP - Coach's Decision                  ,,,,,,,0.0,,,,,,,0.0,,,2016-10-09T00:00:00,2,LAL,Los Angeles,2-1,32,21,32,39,0,0,0,0,0,0,0,0,0,0,124,0.531,0.706,0.5,18,29,9,0011600036,1610612747,LAL,Los Angeles,Zach Auguste,,DNP - Coach's Decision                  ,,,,,,,,,,,,,
0011600036,1610612747,LAL,Los Angeles,1626148,Anthony Brown,,DNP - Coach's Decision                  ,,,,,,,0.0,,,,,,,0.0,,,2016-10-09T00:00:00,2,LAL,Los Angeles,2-1,32,21,32,39,0,0,0,0,0,0,0,0,0,0,124,0.531,0.706,0.5,18,29,9,0011600036,1610612747,LAL,Los Angeles,Anthony Brown,,DNP - Coach's Decision                  ,,,,,,,,,,,,,
0011600036,1610612747,LAL,Los Angeles,2736,Luol Deng,,DND - Bruised left knee                 ,,,,,,,0.0,,,,,,,0.0,,,2016-10-09T00:00:00,2,LAL,Los Angeles,2-1,32,21,32,39,0,0,0,0,0,0,0,0,0,0,124,0.531,0.706,0.5,18,29,9,0011600036,1610612747,LAL,Los Angeles,Luol Deng,,DND - Bruised left knee                 ,,,,,,,,,,,,,
0011600036,1610612747,LAL,Los Angeles,1626273,Marcelo Huertas,,DNP - Coach's Decision                  ,,,,,,,0.0,,,,,,,0.0,,,2016-10-09T00:00:00,2,LAL,Los Angeles,2-1,32,21,32,39,0,0,0,0,0,0,0,0,0,0,124,0.531,0.706,0.5,18,29,9,0011600036,1610612747,LAL,Los Angeles,Marcelo Huertas,,DNP - Coach's Decision                  ,,,,,,,,,,,,,
0011600036,1610612747,LAL,Los Angeles,1627829,Julian Jacobs,,DNP - Coach's Decision                  ,,,,,,,0.0,,,,,,,0.0,,,2016-10-09T00:00:00,2,LAL,Los Angeles,2-1,32,21,32,39,0,0,0,0,0,0,0,0,0,0,124,0.531,0.706,0.5,18,29,9,0011600036,1610612747,LAL,Los Angeles,Julian Jacobs,,DNP - Coach's Decision                  ,,,,,,,,,,,,,
0011600036,1610612747,LAL,Los Angeles,204037,Travis Wear,,DNP - Coach's Decision                  ,,,,,,,0.0,,,,,,,0.0,,,2016-10-09T00:00:00,2,LAL,Los Angeles,2-1,32,21,32,39,0,0,0,0,0,0,0,0,0,0,124,0.531,0.706,0.5,18,29,9,0011600036,1610612747,LAL,Los Angeles,Travis Wear,,DNP - Coach's Decision                  ,,,,,,,,,,,,,
0011600036,1610612747,LAL,Los Angeles,1897,Metta World Peace,,DNP - Coach's Decision                  ,,,,,,,0.0,,,,,,,0.0,,,2016-10-09T00:00:00,2,LAL,Los Angeles,2-1,32,21,32,39,0,0,0,0,0,0,0,0,0,0,124,0.531,0.706,0.5,18,29,9,0011600036,1610612747,LAL,Los Angeles,Metta World Peace,,DNP - Coach's Decision                  ,,,,,,,,,,,,,
0011600036,1610612747,LAL,Los Angeles,201146,Yi Jianlian,,DNP - Coach's Decision                  ,,,,,,,0.0,,,,,,,0.0,,,2016-10-09T00:00:00,2,LAL,Los Angeles,2-1,32,21,32,39,0,0,0,0,0,0,0,0,0,0,124,0.531,0.706,0.5,18,29,9,0011600036,1610612747,LAL,Los Angeles,Yi Jianlian,,DNP - Coach's Decision                  ,,,,,,,,,,,,,
