GAME_ID_x,TEAM_ID_x,TEAM_ABBREVIATION_x,TEAM_CITY_x,PLAYER_ID,PLAYER_NAME_x,START_POSITION_x,COMMENT_x,MIN_x,OFF_RATING,DEF_RATING,NET_RATING,AST_PCT,AST_TOV,AST_RATIO,OREB_PCT,DREB_PCT,REB_PCT,TM_TOV_PCT,EFG_PCT,TS_PCT,USG_PCT,PACE,PIE,GAME_DATE_EST,GAME_SEQUENCE,TEAM_ABBREVIATION_y,TEAM_CITY_NAME,TEAM_WINS_LOSSES,PTS_QTR1,PTS_QTR2,PTS_QTR3,PTS_QTR4,PTS_OT1,PTS_OT2,PTS_OT3,PTS_OT4,PTS_OT5,PTS_OT6,PTS_OT7,PTS_OT8,PTS_OT9,PTS_OT10,PTS,FG_PCT,FT_PCT,FG3_PCT,AST,REB,TOV,GAME_ID_y,TEAM_ID_y,TEAM_ABBREVIATION,TEAM_CITY_y,PLAYER_NAME_y,START_POSITION_y,COMMENT_y,MIN_y,PTS_OFF_TOV,PTS_2ND_CHANCE,PTS_FB,PTS_PAINT,OPP_PTS_OFF_TOV,OPP_PTS_2ND_CHANCE,OPP_PTS_FB,OPP_PTS_PAINT,BLK,BLKA,PF,PFD
0011600045,1610612751,BKN,Brooklyn,1626178,Rondae Hollis-Jefferson,F,,22:31,104.8,122.9,-18.1,0.067,0.0,12.7,0.05,0.056,0.053,0.0,0.333,0.363,0.147,98.1,0.006,2016-10-11T00:00:00,1,BKN,Brooklyn,1-2,26,33,17,24,0,0,0,0,0,0,0,0,0,0,100,0.39,0.815,0.424,20,37,12,0011600045,1610612751,BKN,Brooklyn,Rondae Hollis-Jefferson,F,,22:31,0.0,0.0,0.0,4.0,4.0,4.0,0.0,26.0,0.0,1.0,2.0,3.0
0011600045,1610612751,BKN,Brooklyn,202344,Trevor Booker,F,,23:17,98.5,126.6,-28.1,0.071,0.0,12.5,0.048,0.35,0.195,0.0,0.286,0.286,0.141,99.66,0.06,2016-10-11T00:00:00,1,BKN,Brooklyn,1-2,26,33,17,24,0,0,0,0,0,0,0,0,0,0,100,0.39,0.815,0.424,20,37,12,0011600045,1610612751,BKN,Brooklyn,Trevor Booker,F,,23:17,0.0,0.0,0.0,4.0,7.0,4.0,2.0,30.0,0.0,1.0,2.0,0.0
0011600045,1610612751,BKN,Brooklyn,203120,Justin Hamilton,C,,20:50,101.9,121.0,-19.0,0.091,1.0,8.3,0.0,0.176,0.083,8.3,0.6,0.6,0.255,98.89,0.08,2016-10-11T00:00:00,1,BKN,Brooklyn,1-2,26,33,17,24,0,0,0,0,0,0,0,0,0,0,100,0.39,0.815,0.424,20,37,12,0011600045,1610612751,BKN,Brooklyn,Justin Hamilton,C,,20:50,2.0,0.0,0.0,4.0,5.0,4.0,0.0,26.0,0.0,1.0,3.0,3.0
0011600045,1610612751,BKN,Brooklyn,203925,Joe Harris,G,,22:07,111.3,113.4,-2.0,0.071,1.0,12.7,0.0,0.087,0.049,12.7,0.8,0.85,0.139,105.26,0.102,2016-10-11T00:00:00,1,BKN,Brooklyn,1-2,26,33,17,24,0,0,0,0,0,0,0,0,0,0,100,0.39,0.815,0.424,20,37,12,0011600045,1610612751,BKN,Brooklyn,Joe Harris,G,,22:07,2.0,0.0,0.0,2.0,9.0,6.0,2.0,28.0,0.0,1.0,2.0,2.0
0011600045,1610612751,BKN,Brooklyn,202391,Jeremy Lin,G,,24:02,100.6,123.5,-22.9,0.417,2.5,29.1,0.0,0.158,0.073,11.6,0.75,0.784,0.241,98.78,0.194,2016-10-11T00:00:00,1,BKN,Brooklyn,1-2,26,33,17,24,0,0,0,0,0,0,0,0,0,0,100,0.39,0.815,0.424,20,37,12,0011600045,1610612751,BKN,Brooklyn,Jeremy Lin,G,,24:02,0.0,0.0,0.0,4.0,4.0,4.0,2.0,30.0,0.0,0.0,1.0,5.0
0011600045,1610612751,BKN,Brooklyn,2449,Luis Scola,,,22:37,85.7,109.7,-24.0,0.333,0.0,19.2,0.037,0.278,0.133,0.0,0.3,0.475,0.247,107.39,0.161,2016-10-11T00:00:00,1,BKN,Brooklyn,1-2,26,33,17,24,0,0,0,0,0,0,0,0,0,0,100,0.39,0.815,0.424,20,37,12,0011600045,1610612751,BKN,Brooklyn,Luis Scola,,,22:37,4.0,0.0,2.0,6.0,10.0,11.0,7.0,26.0,0.0,1.0,3.0,4.0
0011600045,1610612751,BKN,Brooklyn,203930,Sean Kilpatrick,,,19:41,85.6,111.0,-25.4,0.125,0.5,11.3,0.0,0.176,0.071,22.5,0.8,0.85,0.174,109.05,0.126,2016-10-11T00:00:00,1,BKN,Brooklyn,1-2,26,33,17,24,0,0,0,0,0,0,0,0,0,0,100,0.39,0.815,0.424,20,37,12,0011600045,1610612751,BKN,Brooklyn,Sean Kilpatrick,,,19:41,0.0,0.0,0.0,2.0,10.0,11.0,7.0,26.0,0.0,0.0,1.0,1.0
0011600045,1610612751,BKN,Brooklyn,202711,Bojan Bogdanovic,,,19:41,85.6,111.0,-25.4,0.143,1.0,9.2,0.0,0.059,0.024,9.2,0.688,0.732,0.218,109.05,0.154,2016-10-11T00:00:00,1,BKN,Brooklyn,1-2,26,33,17,24,0,0,0,0,0,0,0,0,0,0,100,0.39,0.815,0.424,20,37,12,0011600045,1610612751,BKN,Brooklyn,Bojan Bogdanovic,,,19:41,0.0,0.0,0.0,2.0,10.0,11.0,7.0,26.0,0.0,0.0,0.0,1.0
0011600045,1610612751,BKN,Brooklyn,202349,Greivis Vasquez,,,16:57,98.6,98.3,0.3,0.5,3.0,46.2,0.0,0.133,0.059,15.4,0.0,0.0,0.187,103.59,-0.05,2016-10-11T00:00:00,1,BKN,Brooklyn,1-2,26,33,17,24,0,0,0,0,0,0,0,0,0,0,100,0.39,0.815,0.424,20,37,12,0011600045,1610612751,BKN,Brooklyn,Greivis Vasquez,,,16:57,0.0,0.0,0.0,0.0,6.0,8.0,5.0,20.0,0.0,0.0,4.0,1.0
0011600045,1610612751,BKN,Brooklyn,203461,Anthony Bennett,,,21:11,95.7,99.9,-4.2,0.0,0.0,0.0,0.0,0.13,0.062,0.0,0.563,0.564,0.191,113.52,0.055,2016-10-11T00:00:00,1,BKN,Brooklyn,1-2,26,33,17,24,0,0,0,0,0,0,0,0,0,0,100,0.39,0.815,0.424,20,37,12,0011600045,1610612751,BKN,Brooklyn,Anthony Bennett,,,21:11,0.0,0.0,0.0,0.0,11.0,15.0,7.0,26.0,0.0,1.0,3.0,2.0
0011600045,1610612751,BKN,Brooklyn,1627785,Isaiah Whitehead,,,13:13,78.6,120.3,-41.6,0.0,0.0,0.0,0.0,0.071,0.038,19.2,0.125,0.178,0.342,112.8,-0.238,2016-10-11T00:00:00,1,BKN,Brooklyn,1-2,26,33,17,24,0,0,0,0,0,0,0,0,0,0,100,0.39,0.815,0.424,20,37,12,0011600045,1610612751,BKN,Brooklyn,Isaiah Whitehead,,,13:13,0.0,3.0,0.0,2.0,13.0,9.0,2.0,12.0,1.0,0.0,5.0,1.0
0011600045,1610612751,BKN,Brooklyn,1626191,Chris McCullough,,,8:05,108.0,109.9,-1.9,0.0,0.0,0.0,0.0,0.3,0.214,0.0,0.5,0.602,0.179,109.02,0.2,2016-10-11T00:00:00,1,BKN,Brooklyn,1-2,26,33,17,24,0,0,0,0,0,0,0,0,0,0,100,0.39,0.815,0.424,20,37,12,0011600045,1610612751,BKN,Brooklyn,Chris McCullough,,,8:05,0.0,0.0,0.0,2.0,9.0,4.0,2.0,8.0,0.0,1.0,0.0,3.0
0011600045,1610612751,BKN,Brooklyn,201978,Chase Budinger,,,5:48,102.5,91.5,10.9,0.0,0.0,0.0,0.0,0.0,0.0,100.0,0.0,0.0,0.068,119.34,-0.125,2016-10-11T00:00:00,1,BKN,Brooklyn,1-2,26,33,17,24,0,0,0,0,0,0,0,0,0,0,100,0.39,0.815,0.424,20,37,12,0011600045,1610612751,BKN,Brooklyn,Chase Budinger,,,5:48,0.0,0.0,0.0,0.0,7.0,4.0,2.0,6.0,0.0,0.0,1.0,0.0
0011600045,1610612751,BKN,Brooklyn,1627862,Beau Beech,,DNP - Coach's Decision                  ,,,,,,,0.0,,,,,,,0.0,,,2016-10-11T00:00:00,1,BKN,Brooklyn,1-2,26,33,17,24,0,0,0,0,0,0,0,0,0,0,100,0.39,0.815,0.424,20,37,12,0011600045,1610612751,BKN,Brooklyn,Beau Beech,,DNP - Coach's Decision                  ,,,,,,,,,,,,,
0011600045,1610612751,BKN,Brooklyn,1627812,Yogi Ferrell,,NWT -                                   ,,,,,,,0.0,,,,,,,0.0,,,2016-10-11T00:00:00,1,BKN,Brooklyn,1-2,26,33,17,24,0,0,0,0,0,0,0,0,0,0,100,0.39,0.815,0.424,20,37,12,0011600045,1610612751,BKN,Brooklyn,Yogi Ferrell,,NWT -                                   ,,,,,,,,,,,,,
0011600045,1610612751,BKN,Brooklyn,200751,Randy Foye,,DNP - Coach's Decision                  ,,,,,,,0.0,,,,,,,0.0,,,2016-10-11T00:00:00,1,BKN,Brooklyn,1-2,26,33,17,24,0,0,0,0,0,0,0,0,0,0,100,0.39,0.815,0.424,20,37,12,0011600045,1610612751,BKN,Brooklyn,Randy Foye,,DNP - Coach's Decision                  ,,,,,,,,,,,,,
0011600045,1610612751,BKN,Brooklyn,203268,Jorge Gutierrez,,DNP - Coach's Decision                  ,,,,,,,0.0,,,,,,,0.0,,,2016-10-11T00:00:00,1,BKN,Brooklyn,1-2,26,33,17,24,0,0,0,0,0,0,0,0,0,0,100,0.39,0.815,0.424,20,37,12,0011600045,1610612751,BKN,Brooklyn,Jorge Gutierrez,,DNP - Coach's Decision                  ,,,,,,,,,,,,,
0011600045,1610612751,BKN,Brooklyn,1627747,Caris LeVert,,DNP - Coach's Decision                  ,,,,,,,0.0,,,,,,,0.0,,,2016-10-11T00:00:00,1,BKN,Brooklyn,1-2,26,33,17,24,0,0,0,0,0,0,0,0,0,0,100,0.39,0.815,0.424,20,37,12,0011600045,1610612751,BKN,Brooklyn,Caris LeVert,,DNP - Coach's Decision                  ,,,,,,,,,,,,,
0011600045,1610612751,BKN,Brooklyn,201572,Brook Lopez,,NWT -                                   ,,,,,,,0.0,,,,,,,0.0,,,2016-10-11T00:00:00,1,BKN,Brooklyn,1-2,26,33,17,24,0,0,0,0,0,0,0,0,0,0,100,0.39,0.815,0.424,20,37,12,0011600045,1610612751,BKN,Brooklyn,Brook Lopez,,NWT -                                   ,,,,,,,,,,,,,
0011600045,1610612751,BKN,Brooklyn,1627865,Egidijus Mockevicius,,DNP - Coach's Decision                  ,,,,,,,0.0,,,,,,,0.0,,,2016-10-11T00:00:00,1,BKN,Brooklyn,1-2,26,33,17,24,0,0,0,0,0,0,0,0,0,0,100,0.39,0.815,0.424,20,37,12,0011600045,1610612751,BKN,Brooklyn,Egidijus Mockevicius,,DNP - Coach's Decision                  ,,,,,,,,,,,,,
0011600045,1610612748,MIA,Miami,1626159,Justise Winslow,F,,21:05,124.9,85.3,39.6,0.19,1.33,28.8,0.0,0.292,0.159,21.6,0.333,0.363,0.191,101.36,0.024,2016-10-11T00:00:00,1,MIA,Miami,2-1,27,28,38,28,0,0,0,0,0,0,0,0,0,0,121,0.5,0.654,0.387,24,55,12,0011600045,1610612748,MIA,Miami,Justise Winslow,F,,21:05,0.0,0.0,0.0,4.0,4.0,0.0,2.0,12.0,0.0,0.0,6.0,2.0
0011600045,1610612748,MIA,Miami,202682,Derrick Williams,F,,24:11,132.0,72.2,59.9,0.043,0.0,11.1,0.0,0.194,0.122,0.0,0.625,0.625,0.129,106.51,0.157,2016-10-11T00:00:00,1,MIA,Miami,2-1,27,28,38,28,0,0,0,0,0,0,0,0,0,0,121,0.5,0.654,0.387,24,55,12,0011600045,1610612748,MIA,Miami,Derrick Williams,F,,24:11,0.0,2.0,0.0,2.0,4.0,0.0,2.0,10.0,2.0,0.0,0.0,2.0
0011600045,1610612748,MIA,Miami,202355,Hassan Whiteside,C,,22:48,129.2,88.8,40.4,0.056,1.0,6.0,0.278,0.333,0.311,6.0,0.692,0.711,0.281,103.54,0.278,2016-10-11T00:00:00,1,MIA,Miami,2-1,27,28,38,28,0,0,0,0,0,0,0,0,0,0,121,0.5,0.654,0.387,24,55,12,0011600045,1610612748,MIA,Miami,Hassan Whiteside,C,,22:48,4.0,6.0,0.0,18.0,4.0,0.0,2.0,12.0,4.0,0.0,3.0,5.0
0011600045,1610612748,MIA,Miami,201961,Wayne Ellington,G,,28:39,118.3,80.3,38.0,0.042,1.0,8.3,0.0,0.083,0.051,8.3,0.7,0.7,0.153,107.39,0.105,2016-10-11T00:00:00,1,MIA,Miami,2-1,27,28,38,28,0,0,0,0,0,0,0,0,0,0,121,0.5,0.654,0.387,24,55,12,0011600045,1610612748,MIA,Miami,Wayne Ellington,G,,28:39,5.0,0.0,3.0,2.0,6.0,0.0,2.0,14.0,0.0,0.0,1.0,0.0
0011600045,1610612748,MIA,Miami,201609,Goran Dragic,G,,29:00,128.4,86.2,42.2,0.423,5.5,43.2,0.0,0.125,0.074,7.9,0.667,0.683,0.209,101.16,0.208,2016-10-11T00:00:00,1,MIA,Miami,2-1,27,28,38,28,0,0,0,0,0,0,0,0,0,0,121,0.5,0.654,0.387,24,55,12,0011600045,1610612748,MIA,Miami,Goran Dragic,G,,29:00,0.0,0.0,4.0,10.0,4.0,0.0,2.0,18.0,0.0,0.0,2.0,2.0
0011600045,1610612748,MIA,Miami,202337,Luke Babbitt,,,17:16,91.2,119.6,-28.4,0.0,0.0,0.0,0.0,0.385,0.167,14.3,0.667,0.667,0.194,98.74,0.146,2016-10-11T00:00:00,1,MIA,Miami,2-1,27,28,38,28,0,0,0,0,0,0,0,0,0,0,121,0.5,0.654,0.387,24,55,12,0011600045,1610612748,MIA,Miami,Luke Babbitt,,,17:16,2.0,0.0,0.0,2.0,2.0,0.0,0.0,16.0,0.0,0.0,1.0,1.0
0011600045,1610612748,MIA,Miami,204020,Tyler Johnson,,,20:44,107.5,104.5,2.9,0.231,0.0,22.2,0.0,0.05,0.029,0.0,0.571,0.665,0.226,104.83,0.143,2016-10-11T00:00:00,1,MIA,Miami,2-1,27,28,38,28,0,0,0,0,0,0,0,0,0,0,121,0.5,0.654,0.387,24,55,12,0011600045,1610612748,MIA,Miami,Tyler Johnson,,,20:44,3.0,0.0,0.0,6.0,2.0,0.0,0.0,16.0,0.0,0.0,2.0,6.0
0011600045,1610612748,MIA,Miami,203186,Willie Reed,,,17:11,105.2,84.2,21.0,0.0,0.0,0.0,0.143,0.235,0.194,15.1,0.667,0.532,0.166,107.88,0.063,2016-10-11T00:00:00,1,MIA,Miami,2-1,27,28,38,28,0,0,0,0,0,0,0,0,0,0,121,0.5,0.654,0.387,24,55,12,0011600045,1610612748,MIA,Miami,Willie Reed,,,17:11,1.0,4.0,0.0,4.0,2.0,0.0,0.0,16.0,0.0,0.0,4.0,3.0
0011600045,1610612748,MIA,Miami,203079,Dion Waiters,,,24:53,99.3,104.3,-5.0,0.0,0.0,0.0,0.0,0.095,0.043,14.4,0.455,0.505,0.23,107.02,0.038,2016-10-11T00:00:00,1,MIA,Miami,2-1,27,28,38,28,0,0,0,0,0,0,0,0,0,0,121,0.5,0.654,0.387,24,55,12,0011600045,1610612748,MIA,Miami,Dion Waiters,,,24:53,2.0,3.0,2.0,2.0,4.0,3.0,0.0,20.0,0.0,1.0,2.0,4.0
0011600045,1610612748,MIA,Miami,203585,Rodney McGruder,,,13:51,101.6,132.9,-31.3,0.333,0.0,30.0,0.0,0.125,0.04,0.0,0.429,0.429,0.215,105.91,0.091,2016-10-11T00:00:00,1,MIA,Miami,2-1,27,28,38,28,0,0,0,0,0,0,0,0,0,0,121,0.5,0.654,0.387,24,55,12,0011600045,1610612748,MIA,Miami,Rodney McGruder,,,13:51,2.0,0.0,0.0,4.0,2.0,3.0,0.0,12.0,0.0,0.0,1.0,0.0
0011600045,1610612748,MIA,Miami,201949,James Johnson,,,5:30,101.1,178.6,-77.5,0.0,0.0,0.0,0.0,0.0,0.0,0.0,0.0,1.136,0.081,93.91,0.033,2016-10-11T00:00:00,1,MIA,Miami,2-1,27,28,38,28,0,0,0,0,0,0,0,0,0,0,121,0.5,0.654,0.387,24,55,12,0011600045,1610612748,MIA,Miami,James Johnson,,,5:30,0.0,0.0,0.0,0.0,0.0,0.0,0.0,2.0,0.0,0.0,1.0,1.0
0011600045,1610612748,MIA,Miami,1627362,Briante Weber,,,5:48,91.5,102.5,-10.9,0.0,0.0,0.0,0.0,0.0,0.0,0.0,0.0,0.0,0.116,119.34,-0.125,2016-10-11T00:00:00,1,MIA,Miami,2-1,27,28,38,28,0,0,0,0,0,0,0,0,0,0,121,0.5,0.654,0.387,24,55,12,0011600045,1610612748,MIA,Miami,Briante Weber,,,5:48,0.0,0.0,0.0,0.0,2.0,3.0,0.0,4.0,0.0,0.0,1.0,0.0
0011600045,1610612748,MIA,Miami,1627855,Okaro White,,,5:04,89.3,110.0,-20.7,0.0,0.0,0.0,0.125,1.0,0.364,25.0,0.333,0.333,0.261,122.97,0.167,2016-10-11T00:00:00,1,MIA,Miami,2-1,27,28,38,28,0,0,0,0,0,0,0,0,0,0,121,0.5,0.654,0.387,24,55,12,0011600045,1610612748,MIA,Miami,Okaro White,,,5:04,0.0,2.0,0.0,0.0,2.0,3.0,0.0,4.0,0.0,0.0,0.0,0.0
0011600045,1610612748,MIA,Miami,202728,Keith Benson,,,4:00,84.7,112.7,-28.0,0.0,0.0,0.0,0.286,0.0,0.222,0.0,0.5,0.45,0.357,115.2,0.045,2016-10-11T00:00:00,1,MIA,Miami,2-1,27,28,38,28,0,0,0,0,0,0,0,0,0,0,121,0.5,0.654,0.387,24,55,12,0011600045,1610612748,MIA,Miami,Keith Benson,,,4:00,2.0,2.0,0.0,4.0,2.0,3.0,0.0,4.0,1.0,0.0,2.0,1.0
0011600045,1610612748,MIA,Miami,2547,Chris Bosh,,NWT -                                   ,,,,,,,0.0,,,,,,,0.0,,,2016-10-11T00:00:00,1,MIA,Miami,2-1,27,28,38,28,0,0,0,0,0,0,0,0,0,0,121,0.5,0.654,0.387,24,55,12,0011600045,1610612748,MIA,Miami,Chris Bosh,,NWT -                                   ,,,,,,,,,,,,,
0011600045,1610612748,MIA,Miami,2617,Udonis Haslem,,DNP - Coach's Decision                  ,,,,,,,0.0,,,,,,,0.0,,,2016-10-11T00:00:00,1,MIA,Miami,2-1,27,28,38,28,0,0,0,0,0,0,0,0,0,0,121,0.5,0.654,0.387,24,55,12,0011600045,1610612748,MIA,Miami,Udonis Haslem,,DNP - Coach's Decision                  ,,,,,,,,,,,,,
0011600045,1610612748,MIA,Miami,1627841,Stefan Jankovic,,DNP - Coach's Decision                  ,,,,,,,0.0,,,,,,,0.0,,,2016-10-11T00:00:00,1,MIA,Miami,2-1,27,28,38,28,0,0,0,0,0,0,0,0,0,0,121,0.5,0.654,0.387,24,55,12,0011600045,1610612748,MIA,Miami,Stefan Jankovic,,DNP - Coach's Decision                  ,,,,,,,,,,,,,
0011600045,1610612748,MIA,Miami,201177,Josh McRoberts,,DNP - Coach's Decision                  ,,,,,,,0.0,,,,,,,0.0,,,2016-10-11T00:00:00,1,MIA,Miami,2-1,27,28,38,28,0,0,0,0,0,0,0,0,0,0,121,0.5,0.654,0.387,24,55,12,0011600045,1610612748,MIA,Miami,Josh McRoberts,,DNP - Coach's Decision                  ,,,,,,,,,,,,,
0011600045,1610612748,MIA,Miami,1626196,Josh Richardson,,DNP - Coach's Decision                  ,,,,,,,0.0,,,,,,,0.0,,,2016-10-11T00:00:00,1,MIA,Miami,2-1,27,28,38,28,0,0,0,0,0,0,0,0,0,0,121,0.5,0.654,0.387,24,55,12,0011600045,1610612748,MIA,Miami,Josh Richardson,,DNP - Coach's Decision                  ,,,,,,,,,,,,,
0011600045,1610612748,MIA,Miami,2757,Beno Udrih,,DNP - Coach's Decision                  ,,,,,,,0.0,,,,,,,0.0,,,2016-10-11T00:00:00,1,MIA,Miami,2-1,27,28,38,28,0,0,0,0,0,0,0,0,0,0,121,0.5,0.654,0.387,24,55,12,0011600045,1610612748,MIA,Miami,Beno Udrih,,DNP - Coach's Decision                  ,,,,,,,,,,,,,
