GAME_ID_x,TEAM_ID_x,TEAM_ABBREVIATION_x,TEAM_CITY_x,PLAYER_ID,PLAYER_NAME_x,START_POSITION_x,COMMENT_x,MIN_x,OFF_RATING,DEF_RATING,NET_RATING,AST_PCT,AST_TOV,AST_RATIO,OREB_PCT,DREB_PCT,REB_PCT,TM_TOV_PCT,EFG_PCT,TS_PCT,USG_PCT,PACE,PIE,GAME_DATE_EST,GAME_SEQUENCE,TEAM_ID_y,TEAM_ABBREVIATION_y,TEAM_CITY_NAME,TEAM_WINS_LOSSES,PTS_QTR1,PTS_QTR2,PTS_QTR3,PTS_QTR4,PTS_OT1,PTS_OT2,PTS_OT3,PTS_OT4,PTS_OT5,PTS_OT6,PTS_OT7,PTS_OT8,PTS_OT9,PTS_OT10,PTS,FG_PCT,FT_PCT,FG3_PCT,AST,REB,TOV,GAME_ID_y,TEAM_ID,TEAM_ABBREVIATION,TEAM_CITY_y,PLAYER_NAME_y,START_POSITION_y,COMMENT_y,MIN_y,PTS_OFF_TOV,PTS_2ND_CHANCE,PTS_FB,PTS_PAINT,OPP_PTS_OFF_TOV,OPP_PTS_2ND_CHANCE,OPP_PTS_FB,OPP_PTS_PAINT,BLK,BLKA,PF,PFD
0021301191,1610612749,MIL,Milwaukee,203114,Khris Middleton,F,,41:54,105.0,117.6,-12.6,0.043,1.0,5.3,0.027,0.071,0.046,5.3,0.533,0.597,0.195,92.54,0.07,2014-04-12T00:00:00,3,1610612749,MIL,Milwaukee,15-65,26,26,22,17,0,0,0,0,0,0,0,0,0,0,91,0.471,0.647,0.625,20,42,20,0021301191,1610612749,MIL,Milwaukee,Khris Middleton,F,,41:54,0.0,0.0,3.0,0.0,16.0,8.0,16.0,38.0,0.0,1.0,3.0,3.0
0021301191,1610612749,MIL,Milwaukee,203114,Khris Middleton,F,,41:54,105.0,117.6,-12.6,0.043,1.0,5.3,0.027,0.071,0.046,5.3,0.533,0.597,0.195,92.54,0.07,2014-04-12T00:00:00,3,1610612764,WAS,Washington,42-38,27,28,32,17,0,0,0,0,0,0,0,0,0,0,104,0.476,0.842,0.364,25,36,9,0021301191,1610612749,MIL,Milwaukee,Khris Middleton,F,,41:54,0.0,0.0,3.0,0.0,16.0,8.0,16.0,38.0,0.0,1.0,3.0,3.0
0021301191,1610612749,MIL,Milwaukee,202399,Jeff Adrien,F,,30:32,104.2,106.7,-2.6,0.0,0.0,0.0,0.115,0.35,0.217,34.4,0.667,0.578,0.215,94.64,0.059,2014-04-12T00:00:00,3,1610612749,MIL,Milwaukee,15-65,26,26,22,17,0,0,0,0,0,0,0,0,0,0,91,0.471,0.647,0.625,20,42,20,0021301191,1610612749,MIL,Milwaukee,Jeff Adrien,F,,30:32,0.0,6.0,0.0,8.0,12.0,4.0,13.0,28.0,1.0,2.0,2.0,4.0
0021301191,1610612749,MIL,Milwaukee,202399,Jeff Adrien,F,,30:32,104.2,106.7,-2.6,0.0,0.0,0.0,0.115,0.35,0.217,34.4,0.667,0.578,0.215,94.64,0.059,2014-04-12T00:00:00,3,1610612764,WAS,Washington,42-38,27,28,32,17,0,0,0,0,0,0,0,0,0,0,104,0.476,0.842,0.364,25,36,9,0021301191,1610612749,MIL,Milwaukee,Jeff Adrien,F,,30:32,0.0,6.0,0.0,8.0,12.0,4.0,13.0,28.0,1.0,2.0,2.0,4.0
0021301191,1610612749,MIL,Milwaukee,2585,Zaza Pachulia,C,,24:21,97.5,115.0,-17.5,0.385,1.25,26.5,0.136,0.188,0.158,21.2,0.444,0.455,0.252,92.75,0.081,2014-04-12T00:00:00,3,1610612749,MIL,Milwaukee,15-65,26,26,22,17,0,0,0,0,0,0,0,0,0,0,91,0.471,0.647,0.625,20,42,20,0021301191,1610612749,MIL,Milwaukee,Zaza Pachulia,C,,24:21,0.0,5.0,0.0,8.0,10.0,2.0,13.0,18.0,0.0,0.0,1.0,1.0
0021301191,1610612749,MIL,Milwaukee,2585,Zaza Pachulia,C,,24:21,97.5,115.0,-17.5,0.385,1.25,26.5,0.136,0.188,0.158,21.2,0.444,0.455,0.252,92.75,0.081,2014-04-12T00:00:00,3,1610612764,WAS,Washington,42-38,27,28,32,17,0,0,0,0,0,0,0,0,0,0,104,0.476,0.842,0.364,25,36,9,0021301191,1610612749,MIL,Milwaukee,Zaza Pachulia,C,,24:21,0.0,5.0,0.0,8.0,10.0,2.0,13.0,18.0,0.0,0.0,1.0,1.0
0021301191,1610612749,MIL,Milwaukee,201196,Ramon Sessions,G,,41:35,102.4,105.3,-2.8,0.364,4.0,26.3,0.029,0.0,0.014,6.6,0.375,0.49,0.251,93.9,0.105,2014-04-12T00:00:00,3,1610612749,MIL,Milwaukee,15-65,26,26,22,17,0,0,0,0,0,0,0,0,0,0,91,0.471,0.647,0.625,20,42,20,0021301191,1610612749,MIL,Milwaukee,Ramon Sessions,G,,41:35,6.0,0.0,2.0,10.0,14.0,8.0,15.0,36.0,0.0,2.0,1.0,6.0
0021301191,1610612749,MIL,Milwaukee,201196,Ramon Sessions,G,,41:35,102.4,105.3,-2.8,0.364,4.0,26.3,0.029,0.0,0.014,6.6,0.375,0.49,0.251,93.9,0.105,2014-04-12T00:00:00,3,1610612764,WAS,Washington,42-38,27,28,32,17,0,0,0,0,0,0,0,0,0,0,104,0.476,0.842,0.364,25,36,9,0021301191,1610612749,MIL,Milwaukee,Ramon Sessions,G,,41:35,6.0,0.0,2.0,10.0,14.0,8.0,15.0,36.0,0.0,2.0,1.0,6.0
0021301191,1610612749,MIL,Milwaukee,203507,Giannis Antetokounmpo,G,,43:07,100.8,110.1,-9.2,0.074,0.5,15.7,0.054,0.194,0.118,31.3,0.7,0.592,0.115,91.72,0.073,2014-04-12T00:00:00,3,1610612749,MIL,Milwaukee,15-65,26,26,22,17,0,0,0,0,0,0,0,0,0,0,91,0.471,0.647,0.625,20,42,20,0021301191,1610612749,MIL,Milwaukee,Giannis Antetokounmpo,G,,43:07,0.0,2.0,2.0,2.0,14.0,8.0,18.0,36.0,1.0,0.0,1.0,4.0
0021301191,1610612749,MIL,Milwaukee,203507,Giannis Antetokounmpo,G,,43:07,100.8,110.1,-9.2,0.074,0.5,15.7,0.054,0.194,0.118,31.3,0.7,0.592,0.115,91.72,0.073,2014-04-12T00:00:00,3,1610612764,WAS,Washington,42-38,27,28,32,17,0,0,0,0,0,0,0,0,0,0,104,0.476,0.842,0.364,25,36,9,0021301191,1610612749,MIL,Milwaukee,Giannis Antetokounmpo,G,,43:07,0.0,2.0,2.0,2.0,14.0,8.0,18.0,36.0,1.0,0.0,1.0,4.0
0021301191,1610612749,MIL,Milwaukee,203089,John Henson,,,23:57,102.2,97.2,5.0,0.2,0.67,12.6,0.05,0.261,0.163,18.9,0.6,0.597,0.277,93.64,0.169,2014-04-12T00:00:00,3,1610612749,MIL,Milwaukee,15-65,26,26,22,17,0,0,0,0,0,0,0,0,0,0,91,0.471,0.647,0.625,20,42,20,0021301191,1610612749,MIL,Milwaukee,John Henson,,,23:57,0.0,0.0,2.0,12.0,4.0,6.0,5.0,20.0,0.0,0.0,3.0,2.0
0021301191,1610612749,MIL,Milwaukee,203089,John Henson,,,23:57,102.2,97.2,5.0,0.2,0.67,12.6,0.05,0.261,0.163,18.9,0.6,0.597,0.277,93.64,0.169,2014-04-12T00:00:00,3,1610612764,WAS,Washington,42-38,27,28,32,17,0,0,0,0,0,0,0,0,0,0,104,0.476,0.842,0.364,25,36,9,0021301191,1610612749,MIL,Milwaukee,John Henson,,,23:57,0.0,0.0,2.0,12.0,4.0,6.0,5.0,20.0,0.0,0.0,3.0,2.0
0021301191,1610612749,MIL,Milwaukee,202874,Chris Wright,,,17:29,89.2,93.1,-3.9,0.125,1.0,17.0,0.071,0.0,0.031,17.0,0.333,0.515,0.138,93.25,-0.011,2014-04-12T00:00:00,3,1610612749,MIL,Milwaukee,15-65,26,26,22,17,0,0,0,0,0,0,0,0,0,0,91,0.471,0.647,0.625,20,42,20,0021301191,1610612749,MIL,Milwaukee,Chris Wright,,,17:29,0.0,2.0,0.0,2.0,4.0,6.0,5.0,10.0,0.0,0.0,3.0,1.0
0021301191,1610612749,MIL,Milwaukee,202874,Chris Wright,,,17:29,89.2,93.1,-3.9,0.125,1.0,17.0,0.071,0.0,0.031,17.0,0.333,0.515,0.138,93.25,-0.011,2014-04-12T00:00:00,3,1610612764,WAS,Washington,42-38,27,28,32,17,0,0,0,0,0,0,0,0,0,0,104,0.476,0.842,0.364,25,36,9,0021301191,1610612749,MIL,Milwaukee,Chris Wright,,,17:29,0.0,2.0,0.0,2.0,4.0,6.0,5.0,10.0,0.0,0.0,3.0,1.0
0021301191,1610612749,MIL,Milwaukee,203545,Miroslav Raduljica,,,17:05,99.5,126.9,-27.4,0.143,0.0,17.0,0.071,0.333,0.207,0.0,0.5,0.615,0.147,86.65,0.161,2014-04-12T00:00:00,3,1610612749,MIL,Milwaukee,15-65,26,26,22,17,0,0,0,0,0,0,0,0,0,0,91,0.471,0.647,0.625,20,42,20,0021301191,1610612749,MIL,Milwaukee,Miroslav Raduljica,,,17:05,0.0,0.0,0.0,4.0,6.0,8.0,5.0,14.0,1.0,0.0,2.0,2.0
0021301191,1610612749,MIL,Milwaukee,203545,Miroslav Raduljica,,,17:05,99.5,126.9,-27.4,0.143,0.0,17.0,0.071,0.333,0.207,0.0,0.5,0.615,0.147,86.65,0.161,2014-04-12T00:00:00,3,1610612764,WAS,Washington,42-38,27,28,32,17,0,0,0,0,0,0,0,0,0,0,104,0.476,0.842,0.364,25,36,9,0021301191,1610612749,MIL,Milwaukee,Miroslav Raduljica,,,17:05,0.0,0.0,0.0,4.0,6.0,8.0,5.0,14.0,1.0,0.0,2.0,2.0
0021301191,1610612749,MIL,Milwaukee,202688,Brandon Knight,,DNP - Coach's Decision,,,,,,,0.0,,,,,,,0.0,,,2014-04-12T00:00:00,3,1610612749,MIL,Milwaukee,15-65,26,26,22,17,0,0,0,0,0,0,0,0,0,0,91,0.471,0.647,0.625,20,42,20,0021301191,1610612749,MIL,Milwaukee,Brandon Knight,,DNP - Coach's Decision,,,,,,,,,,,,,
0021301191,1610612749,MIL,Milwaukee,202688,Brandon Knight,,DNP - Coach's Decision,,,,,,,0.0,,,,,,,0.0,,,2014-04-12T00:00:00,3,1610612764,WAS,Washington,42-38,27,28,32,17,0,0,0,0,0,0,0,0,0,0,104,0.476,0.842,0.364,25,36,9,0021301191,1610612749,MIL,Milwaukee,Brandon Knight,,DNP - Coach's Decision,,,,,,,,,,,,,
0021301191,1610612749,MIL,Milwaukee,201564,O.J. Mayo,,DND - Sprained Right Ankle,,,,,,,0.0,,,,,,,0.0,,,2014-04-12T00:00:00,3,1610612749,MIL,Milwaukee,15-65,26,26,22,17,0,0,0,0,0,0,0,0,0,0,91,0.471,0.647,0.625,20,42,20,0021301191,1610612749,MIL,Milwaukee,O.J. Mayo,,DND - Sprained Right Ankle,,,,,,,,,,,,,
0021301191,1610612749,MIL,Milwaukee,201564,O.J. Mayo,,DND - Sprained Right Ankle,,,,,,,0.0,,,,,,,0.0,,,2014-04-12T00:00:00,3,1610612764,WAS,Washington,42-38,27,28,32,17,0,0,0,0,0,0,0,0,0,0,104,0.476,0.842,0.364,25,36,9,0021301191,1610612749,MIL,Milwaukee,O.J. Mayo,,DND - Sprained Right Ankle,,,,,,,,,,,,,
0021301191,1610612749,MIL,Milwaukee,202336,Larry Sanders,,NWT - NBA Suspension,,,,,,,0.0,,,,,,,0.0,,,2014-04-12T00:00:00,3,1610612749,MIL,Milwaukee,15-65,26,26,22,17,0,0,0,0,0,0,0,0,0,0,91,0.471,0.647,0.625,20,42,20,0021301191,1610612749,MIL,Milwaukee,Larry Sanders,,NWT - NBA Suspension,,,,,,,,,,,,,
0021301191,1610612749,MIL,Milwaukee,202336,Larry Sanders,,NWT - NBA Suspension,,,,,,,0.0,,,,,,,0.0,,,2014-04-12T00:00:00,3,1610612764,WAS,Washington,42-38,27,28,32,17,0,0,0,0,0,0,0,0,0,0,104,0.476,0.842,0.364,25,36,9,0021301191,1610612749,MIL,Milwaukee,Larry Sanders,,NWT - NBA Suspension,,,,,,,,,,,,,
0021301191,1610612749,MIL,Milwaukee,202327,Ekpe Udoh,,DNP - Coach's Decision,,,,,,,0.0,,,,,,,0.0,,,2014-04-12T00:00:00,3,1610612749,MIL,Milwaukee,15-65,26,26,22,17,0,0,0,0,0,0,0,0,0,0,91,0.471,0.647,0.625,20,42,20,0021301191,1610612749,MIL,Milwaukee,Ekpe Udoh,,DNP - Coach's Decision,,,,,,,,,,,,,
0021301191,1610612749,MIL,Milwaukee,202327,Ekpe Udoh,,DNP - Coach's Decision,,,,,,,0.0,,,,,,,0.0,,,2014-04-12T00:00:00,3,1610612764,WAS,Washington,42-38,27,28,32,17,0,0,0,0,0,0,0,0,0,0,104,0.476,0.842,0.364,25,36,9,0021301191,1610612749,MIL,Milwaukee,Ekpe Udoh,,DNP - Coach's Decision,,,,,,,,,,,,,
0021301191,1610612764,WAS,Washington,2772,Trevor Ariza,F,,29:23,122.6,109.0,13.6,0.174,2.0,28.8,0.0,0.2,0.114,14.4,0.857,0.825,0.158,95.17,0.121,2014-04-12T00:00:00,3,1610612749,MIL,Milwaukee,15-65,26,26,22,17,0,0,0,0,0,0,0,0,0,0,91,0.471,0.647,0.625,20,42,20,0021301191,1610612764,WAS,Washington,Trevor Ariza,F,,29:23,1.0,0.0,4.0,2.0,4.0,10.0,3.0,28.0,0.0,0.0,2.0,1.0
0021301191,1610612764,WAS,Washington,2772,Trevor Ariza,F,,29:23,122.6,109.0,13.6,0.174,2.0,28.8,0.0,0.2,0.114,14.4,0.857,0.825,0.158,95.17,0.121,2014-04-12T00:00:00,3,1610612764,WAS,Washington,42-38,27,28,32,17,0,0,0,0,0,0,0,0,0,0,104,0.476,0.842,0.364,25,36,9,0021301191,1610612764,WAS,Washington,Trevor Ariza,F,,29:23,1.0,0.0,4.0,2.0,4.0,10.0,3.0,28.0,0.0,0.0,2.0,1.0
0021301191,1610612764,WAS,Washington,202344,Trevor Booker,F,,24:49,139.4,106.2,33.2,0.043,0.5,9.6,0.083,0.0,0.029,19.2,0.714,0.739,0.185,92.94,0.065,2014-04-12T00:00:00,3,1610612749,MIL,Milwaukee,15-65,26,26,22,17,0,0,0,0,0,0,0,0,0,0,91,0.471,0.647,0.625,20,42,20,0021301191,1610612764,WAS,Washington,Trevor Booker,F,,24:49,2.0,2.0,0.0,6.0,4.0,10.0,3.0,24.0,0.0,1.0,3.0,1.0
0021301191,1610612764,WAS,Washington,202344,Trevor Booker,F,,24:49,139.4,106.2,33.2,0.043,0.5,9.6,0.083,0.0,0.029,19.2,0.714,0.739,0.185,92.94,0.065,2014-04-12T00:00:00,3,1610612764,WAS,Washington,42-38,27,28,32,17,0,0,0,0,0,0,0,0,0,0,104,0.476,0.842,0.364,25,36,9,0021301191,1610612764,WAS,Washington,Trevor Booker,F,,24:49,2.0,2.0,0.0,6.0,4.0,10.0,3.0,24.0,0.0,1.0,3.0,1.0
0021301191,1610612764,WAS,Washington,101162,Marcin Gortat,C,,33:16,110.9,100.5,10.4,0.08,2.0,11.9,0.16,0.3,0.236,6.0,0.417,0.472,0.203,93.45,0.164,2014-04-12T00:00:00,3,1610612749,MIL,Milwaukee,15-65,26,26,22,17,0,0,0,0,0,0,0,0,0,0,91,0.471,0.647,0.625,20,42,20,0021301191,1610612764,WAS,Washington,Marcin Gortat,C,,33:16,4.0,2.0,4.0,10.0,6.0,10.0,7.0,32.0,2.0,1.0,2.0,4.0
0021301191,1610612764,WAS,Washington,101162,Marcin Gortat,C,,33:16,110.9,100.5,10.4,0.08,2.0,11.9,0.16,0.3,0.236,6.0,0.417,0.472,0.203,93.45,0.164,2014-04-12T00:00:00,3,1610612764,WAS,Washington,42-38,27,28,32,17,0,0,0,0,0,0,0,0,0,0,104,0.476,0.842,0.364,25,36,9,0021301191,1610612764,WAS,Washington,Marcin Gortat,C,,33:16,4.0,2.0,4.0,10.0,6.0,10.0,7.0,32.0,2.0,1.0,2.0,4.0
0021301191,1610612764,WAS,Washington,203078,Bradley Beal,G,,36:54,115.1,98.8,16.3,0.227,2.5,17.2,0.0,0.091,0.053,6.9,0.591,0.591,0.326,88.02,0.161,2014-04-12T00:00:00,3,1610612749,MIL,Milwaukee,15-65,26,26,22,17,0,0,0,0,0,0,0,0,0,0,91,0.471,0.647,0.625,20,42,20,0021301191,1610612764,WAS,Washington,Bradley Beal,G,,36:54,7.0,4.0,3.0,10.0,6.0,14.0,7.0,36.0,1.0,1.0,2.0,0.0
0021301191,1610612764,WAS,Washington,203078,Bradley Beal,G,,36:54,115.1,98.8,16.3,0.227,2.5,17.2,0.0,0.091,0.053,6.9,0.591,0.591,0.326,88.02,0.161,2014-04-12T00:00:00,3,1610612764,WAS,Washington,42-38,27,28,32,17,0,0,0,0,0,0,0,0,0,0,104,0.476,0.842,0.364,25,36,9,0021301191,1610612764,WAS,Washington,Bradley Beal,G,,36:54,7.0,4.0,3.0,10.0,6.0,14.0,7.0,36.0,1.0,1.0,2.0,0.0
0021301191,1610612764,WAS,Washington,202322,John Wall,G,,33:28,115.4,108.5,6.9,0.32,4.0,33.1,0.042,0.069,0.057,8.3,0.417,0.528,0.218,96.05,0.127,2014-04-12T00:00:00,3,1610612749,MIL,Milwaukee,15-65,26,26,22,17,0,0,0,0,0,0,0,0,0,0,91,0.471,0.647,0.625,20,42,20,0021301191,1610612764,WAS,Washington,John Wall,G,,33:28,0.0,0.0,2.0,8.0,6.0,11.0,7.0,34.0,1.0,0.0,2.0,5.0
0021301191,1610612764,WAS,Washington,202322,John Wall,G,,33:28,115.4,108.5,6.9,0.32,4.0,33.1,0.042,0.069,0.057,8.3,0.417,0.528,0.218,96.05,0.127,2014-04-12T00:00:00,3,1610612764,WAS,Washington,42-38,27,28,32,17,0,0,0,0,0,0,0,0,0,0,104,0.476,0.842,0.364,25,36,9,0021301191,1610612764,WAS,Washington,John Wall,G,,33:28,0.0,0.0,2.0,8.0,6.0,11.0,7.0,34.0,1.0,0.0,2.0,5.0
0021301191,1610612764,WAS,Washington,101110,Martell Webster,,,22:42,86.7,93.0,-6.3,0.273,0.0,29.1,0.042,0.095,0.067,0.0,0.5,0.546,0.14,94.31,0.09,2014-04-12T00:00:00,3,1610612749,MIL,Milwaukee,15-65,26,26,22,17,0,0,0,0,0,0,0,0,0,0,91,0.471,0.647,0.625,20,42,20,0021301191,1610612764,WAS,Washington,Martell Webster,,,22:42,0.0,0.0,3.0,0.0,2.0,5.0,6.0,20.0,0.0,0.0,4.0,2.0
0021301191,1610612764,WAS,Washington,101110,Martell Webster,,,22:42,86.7,93.0,-6.3,0.273,0.0,29.1,0.042,0.095,0.067,0.0,0.5,0.546,0.14,94.31,0.09,2014-04-12T00:00:00,3,1610612764,WAS,Washington,42-38,27,28,32,17,0,0,0,0,0,0,0,0,0,0,104,0.476,0.842,0.364,25,36,9,0021301191,1610612764,WAS,Washington,Martell Webster,,,22:42,0.0,0.0,3.0,0.0,2.0,5.0,6.0,20.0,0.0,0.0,4.0,2.0
0021301191,1610612764,WAS,Washington,2400,Drew Gooden,,,16:50,102.2,101.6,0.5,0.0,0.0,0.0,0.063,0.167,0.107,0.0,0.25,0.41,0.138,89.54,0.02,2014-04-12T00:00:00,3,1610612749,MIL,Milwaukee,15-65,26,26,22,17,0,0,0,0,0,0,0,0,0,0,91,0.471,0.647,0.625,20,42,20,0021301191,1610612764,WAS,Washington,Drew Gooden,,,16:50,0.0,2.0,0.0,2.0,0.0,5.0,2.0,16.0,1.0,0.0,3.0,1.0
0021301191,1610612764,WAS,Washington,2400,Drew Gooden,,,16:50,102.2,101.6,0.5,0.0,0.0,0.0,0.063,0.167,0.107,0.0,0.25,0.41,0.138,89.54,0.02,2014-04-12T00:00:00,3,1610612764,WAS,Washington,42-38,27,28,32,17,0,0,0,0,0,0,0,0,0,0,104,0.476,0.842,0.364,25,36,9,0021301191,1610612764,WAS,Washington,Drew Gooden,,,16:50,0.0,2.0,0.0,2.0,0.0,5.0,2.0,16.0,1.0,0.0,3.0,1.0
0021301191,1610612764,WAS,Washington,1733,Al Harrington,,,18:54,90.6,83.6,7.0,0.0,0.0,0.0,0.0,0.188,0.086,0.0,0.455,0.505,0.286,88.6,0.162,2014-04-12T00:00:00,3,1610612749,MIL,Milwaukee,15-65,26,26,22,17,0,0,0,0,0,0,0,0,0,0,91,0.471,0.647,0.625,20,42,20,0021301191,1610612764,WAS,Washington,Al Harrington,,,18:54,2.0,0.0,2.0,2.0,2.0,5.0,6.0,16.0,0.0,0.0,2.0,2.0
0021301191,1610612764,WAS,Washington,1733,Al Harrington,,,18:54,90.6,83.6,7.0,0.0,0.0,0.0,0.0,0.188,0.086,0.0,0.455,0.505,0.286,88.6,0.162,2014-04-12T00:00:00,3,1610612764,WAS,Washington,42-38,27,28,32,17,0,0,0,0,0,0,0,0,0,0,104,0.476,0.842,0.364,25,36,9,0021301191,1610612764,WAS,Washington,Al Harrington,,,18:54,2.0,0.0,2.0,2.0,2.0,5.0,6.0,16.0,0.0,0.0,2.0,2.0
0021301191,1610612764,WAS,Washington,1889,Andre Miller,,,13:37,100.5,75.1,25.4,0.2,0.0,100.0,0.0,0.091,0.043,0.0,0.0,0.0,0.0,83.74,0.127,2014-04-12T00:00:00,3,1610612749,MIL,Milwaukee,15-65,26,26,22,17,0,0,0,0,0,0,0,0,0,0,91,0.471,0.647,0.625,20,42,20,0021301191,1610612764,WAS,Washington,Andre Miller,,,13:37,0.0,0.0,0.0,0.0,0.0,4.0,2.0,10.0,0.0,0.0,0.0,0.0
0021301191,1610612764,WAS,Washington,1889,Andre Miller,,,13:37,100.5,75.1,25.4,0.2,0.0,100.0,0.0,0.091,0.043,0.0,0.0,0.0,0.0,83.74,0.127,2014-04-12T00:00:00,3,1610612764,WAS,Washington,42-38,27,28,32,17,0,0,0,0,0,0,0,0,0,0,104,0.476,0.842,0.364,25,36,9,0021301191,1610612764,WAS,Washington,Andre Miller,,,13:37,0.0,0.0,0.0,0.0,0.0,4.0,2.0,10.0,0.0,0.0,0.0,0.0
0021301191,1610612764,WAS,Washington,203490,Otto Porter Jr.,,,7:06,92.6,104.2,-11.6,0.0,0.0,0.0,0.0,0.0,0.0,0.0,0.5,0.5,0.104,103.44,0.0,2014-04-12T00:00:00,3,1610612749,MIL,Milwaukee,15-65,26,26,22,17,0,0,0,0,0,0,0,0,0,0,91,0.471,0.647,0.625,20,42,20,0021301191,1610612764,WAS,Washington,Otto Porter Jr.,,,7:06,0.0,0.0,0.0,0.0,0.0,1.0,2.0,8.0,0.0,0.0,1.0,0.0
0021301191,1610612764,WAS,Washington,203490,Otto Porter Jr.,,,7:06,92.6,104.2,-11.6,0.0,0.0,0.0,0.0,0.0,0.0,0.0,0.5,0.5,0.104,103.44,0.0,2014-04-12T00:00:00,3,1610612764,WAS,Washington,42-38,27,28,32,17,0,0,0,0,0,0,0,0,0,0,104,0.476,0.842,0.364,25,36,9,0021301191,1610612764,WAS,Washington,Otto Porter Jr.,,,7:06,0.0,0.0,0.0,0.0,0.0,1.0,2.0,8.0,0.0,0.0,1.0,0.0
0021301191,1610612764,WAS,Washington,202338,Kevin Seraphin,,,1:10,0.0,164.8,-164.8,0.0,0.0,0.0,0.0,0.0,0.0,0.0,0.0,0.0,0.333,136.79,0.0,2014-04-12T00:00:00,3,1610612749,MIL,Milwaukee,15-65,26,26,22,17,0,0,0,0,0,0,0,0,0,0,91,0.471,0.647,0.625,20,42,20,0021301191,1610612764,WAS,Washington,Kevin Seraphin,,,1:10,0.0,0.0,0.0,0.0,0.0,0.0,0.0,2.0,0.0,0.0,2.0,0.0
0021301191,1610612764,WAS,Washington,202338,Kevin Seraphin,,,1:10,0.0,164.8,-164.8,0.0,0.0,0.0,0.0,0.0,0.0,0.0,0.0,0.0,0.333,136.79,0.0,2014-04-12T00:00:00,3,1610612764,WAS,Washington,42-38,27,28,32,17,0,0,0,0,0,0,0,0,0,0,104,0.476,0.842,0.364,25,36,9,0021301191,1610612764,WAS,Washington,Kevin Seraphin,,,1:10,0.0,0.0,0.0,0.0,0.0,0.0,0.0,2.0,0.0,0.0,2.0,0.0
0021301191,1610612764,WAS,Washington,202698,Chris Singleton,,,0:56,0.0,144.9,-144.9,0.0,0.0,0.0,0.0,1.0,0.5,0.0,0.0,0.0,0.0,122.62,0.0,2014-04-12T00:00:00,3,1610612749,MIL,Milwaukee,15-65,26,26,22,17,0,0,0,0,0,0,0,0,0,0,91,0.471,0.647,0.625,20,42,20,0021301191,1610612764,WAS,Washington,Chris Singleton,,,0:56,0.0,0.0,0.0,0.0,0.0,0.0,0.0,2.0,0.0,0.0,0.0,0.0
0021301191,1610612764,WAS,Washington,202698,Chris Singleton,,,0:56,0.0,144.9,-144.9,0.0,0.0,0.0,0.0,1.0,0.5,0.0,0.0,0.0,0.0,122.62,0.0,2014-04-12T00:00:00,3,1610612764,WAS,Washington,42-38,27,28,32,17,0,0,0,0,0,0,0,0,0,0,104,0.476,0.842,0.364,25,36,9,0021301191,1610612764,WAS,Washington,Chris Singleton,,,0:56,0.0,0.0,0.0,0.0,0.0,0.0,0.0,2.0,0.0,0.0,0.0,0.0
0021301191,1610612764,WAS,Washington,202066,Garrett Temple,,,0:55,0.0,159.6,-159.6,0.0,0.0,0.0,0.0,0.0,0.0,0.0,0.0,0.0,0.0,101.4,0.0,2014-04-12T00:00:00,3,1610612749,MIL,Milwaukee,15-65,26,26,22,17,0,0,0,0,0,0,0,0,0,0,91,0.471,0.647,0.625,20,42,20,0021301191,1610612764,WAS,Washington,Garrett Temple,,,0:55,0.0,0.0,0.0,0.0,0.0,0.0,0.0,2.0,0.0,0.0,0.0,0.0
0021301191,1610612764,WAS,Washington,202066,Garrett Temple,,,0:55,0.0,159.6,-159.6,0.0,0.0,0.0,0.0,0.0,0.0,0.0,0.0,0.0,0.0,101.4,0.0,2014-04-12T00:00:00,3,1610612764,WAS,Washington,42-38,27,28,32,17,0,0,0,0,0,0,0,0,0,0,104,0.476,0.842,0.364,25,36,9,0021301191,1610612764,WAS,Washington,Garrett Temple,,,0:55,0.0,0.0,0.0,0.0,0.0,0.0,0.0,2.0,0.0,0.0,0.0,0.0
