GAME_ID_x,TEAM_ID_x,TEAM_ABBREVIATION_x,TEAM_CITY_x,PLAYER_ID,PLAYER_NAME_x,START_POSITION_x,COMMENT_x,MIN_x,OFF_RATING,DEF_RATING,NET_RATING,AST_PCT,AST_TOV,AST_RATIO,OREB_PCT,DREB_PCT,REB_PCT,TM_TOV_PCT,EFG_PCT,TS_PCT,USG_PCT,PACE,PIE,GAME_DATE_EST,GAME_SEQUENCE,TEAM_ID_y,TEAM_ABBREVIATION_y,TEAM_CITY_NAME,TEAM_WINS_LOSSES,PTS_QTR1,PTS_QTR2,PTS_QTR3,PTS_QTR4,PTS_OT1,PTS_OT2,PTS_OT3,PTS_OT4,PTS_OT5,PTS_OT6,PTS_OT7,PTS_OT8,PTS_OT9,PTS_OT10,PTS,FG_PCT,FT_PCT,FG3_PCT,AST,REB,TOV,GAME_ID_y,TEAM_ID,TEAM_ABBREVIATION,TEAM_CITY_y,PLAYER_NAME_y,START_POSITION_y,COMMENT_y,MIN_y,PTS_OFF_TOV,PTS_2ND_CHANCE,PTS_FB,PTS_PAINT,OPP_PTS_OFF_TOV,OPP_PTS_2ND_CHANCE,OPP_PTS_FB,OPP_PTS_PAINT,BLK,BLKA,PF,PFD
0021301204,1610612738,BOS,Boston,201145,Jeff Green,F,,37:38,105.6,106.1,-0.4,0.042,1.0,4.8,0.0,0.1,0.044,4.8,0.688,0.724,0.215,104.25,0.143,2014-04-14T00:00:00,1,1610612738,BOS,Boston,25-56,33,17,34,24,0,0,0,0,0,0,0,0,0,0,108,0.465,0.731,0.375,26,40,17,0021301204,1610612738,BOS,Boston,Jeff Green,F,,37:38,6.0,3.0,3.0,10.0,18.0,5.0,21.0,48.0,2.0,0.0,6.0,4.0
0021301204,1610612738,BOS,Boston,201145,Jeff Green,F,,37:38,105.6,106.1,-0.4,0.042,1.0,4.8,0.0,0.1,0.044,4.8,0.688,0.724,0.215,104.25,0.143,2014-04-14T00:00:00,1,1610612755,PHI,Philadelphia,18-63,33,34,19,27,0,0,0,0,0,0,0,0,0,0,113,0.544,0.632,0.25,25,42,14,0021301204,1610612738,BOS,Boston,Jeff Green,F,,37:38,6.0,3.0,3.0,10.0,18.0,5.0,21.0,48.0,2.0,0.0,6.0,4.0
0021301204,1610612738,BOS,Boston,101138,Brandon Bass,F,,38:02,112.1,102.3,9.8,0.067,2.0,12.7,0.105,0.133,0.118,6.3,0.273,0.353,0.157,98.89,0.02,2014-04-14T00:00:00,1,1610612738,BOS,Boston,25-56,33,17,34,24,0,0,0,0,0,0,0,0,0,0,108,0.465,0.731,0.375,26,40,17,0021301204,1610612738,BOS,Boston,Brandon Bass,F,,38:02,0.0,0.0,0.0,2.0,12.0,7.0,20.0,48.0,2.0,1.0,5.0,3.0
0021301204,1610612738,BOS,Boston,101138,Brandon Bass,F,,38:02,112.1,102.3,9.8,0.067,2.0,12.7,0.105,0.133,0.118,6.3,0.273,0.353,0.157,98.89,0.02,2014-04-14T00:00:00,1,1610612755,PHI,Philadelphia,18-63,33,34,19,27,0,0,0,0,0,0,0,0,0,0,113,0.544,0.632,0.25,25,42,14,0021301204,1610612738,BOS,Boston,Brandon Bass,F,,38:02,0.0,0.0,0.0,2.0,12.0,7.0,20.0,48.0,2.0,1.0,5.0,3.0
0021301204,1610612738,BOS,Boston,203482,Kelly Olynyk,C,,35:17,100.4,119.5,-19.1,0.176,1.5,11.1,0.086,0.214,0.143,7.4,0.579,0.634,0.278,104.07,0.149,2014-04-14T00:00:00,1,1610612738,BOS,Boston,25-56,33,17,34,24,0,0,0,0,0,0,0,0,0,0,108,0.465,0.731,0.375,26,40,17,0021301204,1610612738,BOS,Boston,Kelly Olynyk,C,,35:17,2.0,4.0,0.0,12.0,18.0,9.0,19.0,50.0,0.0,2.0,4.0,6.0
0021301204,1610612738,BOS,Boston,203482,Kelly Olynyk,C,,35:17,100.4,119.5,-19.1,0.176,1.5,11.1,0.086,0.214,0.143,7.4,0.579,0.634,0.278,104.07,0.149,2014-04-14T00:00:00,1,1610612755,PHI,Philadelphia,18-63,33,34,19,27,0,0,0,0,0,0,0,0,0,0,113,0.544,0.632,0.25,25,42,14,0021301204,1610612738,BOS,Boston,Kelly Olynyk,C,,35:17,2.0,4.0,0.0,12.0,18.0,9.0,19.0,50.0,0.0,2.0,4.0,6.0
0021301204,1610612738,BOS,Boston,202340,Avery Bradley,G,,42:25,114.5,111.0,3.5,0.1,1.0,10.1,0.0,0.061,0.029,10.1,0.455,0.484,0.261,103.32,0.055,2014-04-14T00:00:00,1,1610612738,BOS,Boston,25-56,33,17,34,24,0,0,0,0,0,0,0,0,0,0,108,0.465,0.731,0.375,26,40,17,0021301204,1610612738,BOS,Boston,Avery Bradley,G,,42:25,5.0,0.0,5.0,6.0,17.0,8.0,17.0,54.0,0.0,1.0,2.0,2.0
0021301204,1610612738,BOS,Boston,202340,Avery Bradley,G,,42:25,114.5,111.0,3.5,0.1,1.0,10.1,0.0,0.061,0.029,10.1,0.455,0.484,0.261,103.32,0.055,2014-04-14T00:00:00,1,1610612755,PHI,Philadelphia,18-63,33,34,19,27,0,0,0,0,0,0,0,0,0,0,113,0.544,0.632,0.25,25,42,14,0021301204,1610612738,BOS,Boston,Avery Bradley,G,,42:25,5.0,0.0,5.0,6.0,17.0,8.0,17.0,54.0,0.0,1.0,2.0,2.0
0021301204,1610612738,BOS,Boston,200765,Rajon Rondo,G,,34:58,113.3,99.1,14.2,0.483,3.5,53.0,0.097,0.296,0.19,15.1,0.5,0.474,0.15,99.29,0.187,2014-04-14T00:00:00,1,1610612738,BOS,Boston,25-56,33,17,34,24,0,0,0,0,0,0,0,0,0,0,108,0.465,0.731,0.375,26,40,17,0021301204,1610612738,BOS,Boston,Rajon Rondo,G,,34:58,2.0,4.0,0.0,6.0,11.0,3.0,10.0,30.0,0.0,2.0,1.0,3.0
0021301204,1610612738,BOS,Boston,200765,Rajon Rondo,G,,34:58,113.3,99.1,14.2,0.483,3.5,53.0,0.097,0.296,0.19,15.1,0.5,0.474,0.15,99.29,0.187,2014-04-14T00:00:00,1,1610612755,PHI,Philadelphia,18-63,33,34,19,27,0,0,0,0,0,0,0,0,0,0,113,0.544,0.632,0.25,25,42,14,0021301204,1610612738,BOS,Boston,Rajon Rondo,G,,34:58,2.0,4.0,0.0,6.0,11.0,3.0,10.0,30.0,0.0,2.0,1.0,3.0
0021301204,1610612738,BOS,Boston,203515,Phil Pressey,,,14:48,69.1,138.4,-69.3,0.429,0.75,33.8,0.0,0.091,0.036,45.0,0.0,0.532,0.154,108.99,0.0,2014-04-14T00:00:00,1,1610612738,BOS,Boston,25-56,33,17,34,24,0,0,0,0,0,0,0,0,0,0,108,0.465,0.731,0.375,26,40,17,0021301204,1610612738,BOS,Boston,Phil Pressey,,,14:48,0.0,0.0,0.0,0.0,11.0,6.0,14.0,36.0,0.0,1.0,1.0,1.0
0021301204,1610612738,BOS,Boston,203515,Phil Pressey,,,14:48,69.1,138.4,-69.3,0.429,0.75,33.8,0.0,0.091,0.036,45.0,0.0,0.532,0.154,108.99,0.0,2014-04-14T00:00:00,1,1610612755,PHI,Philadelphia,18-63,33,34,19,27,0,0,0,0,0,0,0,0,0,0,113,0.544,0.632,0.25,25,42,14,0021301204,1610612738,BOS,Boston,Phil Pressey,,,14:48,0.0,0.0,0.0,0.0,11.0,6.0,14.0,36.0,0.0,1.0,1.0,1.0
0021301204,1610612738,BOS,Boston,201202,Joel Anthony,,,13:52,97.8,126.8,-28.9,0.0,0.0,0.0,0.222,0.0,0.125,0.0,0.0,0.0,0.056,100.45,-0.082,2014-04-14T00:00:00,1,1610612738,BOS,Boston,25-56,33,17,34,24,0,0,0,0,0,0,0,0,0,0,108,0.465,0.731,0.375,26,40,17,0021301204,1610612738,BOS,Boston,Joel Anthony,,,13:52,0.0,0.0,0.0,0.0,8.0,2.0,6.0,22.0,0.0,0.0,2.0,2.0
0021301204,1610612738,BOS,Boston,201202,Joel Anthony,,,13:52,97.8,126.8,-28.9,0.0,0.0,0.0,0.222,0.0,0.125,0.0,0.0,0.0,0.056,100.45,-0.082,2014-04-14T00:00:00,1,1610612755,PHI,Philadelphia,18-63,33,34,19,27,0,0,0,0,0,0,0,0,0,0,113,0.544,0.632,0.25,25,42,14,0021301204,1610612738,BOS,Boston,Joel Anthony,,,13:52,0.0,0.0,0.0,0.0,8.0,2.0,6.0,22.0,0.0,0.0,2.0,2.0
0021301204,1610612738,BOS,Boston,203187,Chris Johnson,,,16:50,84.4,108.3,-23.9,0.0,0.0,0.0,0.0,0.2,0.1,25.0,0.667,0.667,0.181,104.44,0.144,2014-04-14T00:00:00,1,1610612738,BOS,Boston,25-56,33,17,34,24,0,0,0,0,0,0,0,0,0,0,108,0.465,0.731,0.375,26,40,17,0021301204,1610612738,BOS,Boston,Chris Johnson,,,16:50,0.0,0.0,0.0,0.0,11.0,1.0,6.0,20.0,0.0,1.0,1.0,0.0
0021301204,1610612738,BOS,Boston,203187,Chris Johnson,,,16:50,84.4,108.3,-23.9,0.0,0.0,0.0,0.0,0.2,0.1,25.0,0.667,0.667,0.181,104.44,0.144,2014-04-14T00:00:00,1,1610612755,PHI,Philadelphia,18-63,33,34,19,27,0,0,0,0,0,0,0,0,0,0,113,0.544,0.632,0.25,25,42,14,0021301204,1610612738,BOS,Boston,Chris Johnson,,,16:50,0.0,0.0,0.0,0.0,11.0,1.0,6.0,20.0,0.0,1.0,1.0,0.0
0021301204,1610612738,BOS,Boston,203569,Chris Babb,,,6:10,78.1,156.7,-78.6,0.0,0.0,0.0,0.0,0.25,0.111,0.0,0.75,0.75,0.133,104.46,0.08,2014-04-14T00:00:00,1,1610612738,BOS,Boston,25-56,33,17,34,24,0,0,0,0,0,0,0,0,0,0,108,0.465,0.731,0.375,26,40,17,0021301204,1610612738,BOS,Boston,Chris Babb,,,6:10,0.0,3.0,0.0,0.0,4.0,4.0,2.0,12.0,0.0,0.0,1.0,0.0
0021301204,1610612738,BOS,Boston,203569,Chris Babb,,,6:10,78.1,156.7,-78.6,0.0,0.0,0.0,0.0,0.25,0.111,0.0,0.75,0.75,0.133,104.46,0.08,2014-04-14T00:00:00,1,1610612755,PHI,Philadelphia,18-63,33,34,19,27,0,0,0,0,0,0,0,0,0,0,113,0.544,0.632,0.25,25,42,14,0021301204,1610612738,BOS,Boston,Chris Babb,,,6:10,0.0,3.0,0.0,0.0,4.0,4.0,2.0,12.0,0.0,0.0,1.0,0.0
0021301204,1610612738,BOS,Boston,201573,Jerryd Bayless,,NWT - Hyperextended Right Knee,,,,,,,0.0,,,,,,,0.0,,,2014-04-14T00:00:00,1,1610612738,BOS,Boston,25-56,33,17,34,24,0,0,0,0,0,0,0,0,0,0,108,0.465,0.731,0.375,26,40,17,0021301204,1610612738,BOS,Boston,Jerryd Bayless,,NWT - Hyperextended Right Knee,,,,,,,,,,,,,
0021301204,1610612738,BOS,Boston,201573,Jerryd Bayless,,NWT - Hyperextended Right Knee,,,,,,,0.0,,,,,,,0.0,,,2014-04-14T00:00:00,1,1610612755,PHI,Philadelphia,18-63,33,34,19,27,0,0,0,0,0,0,0,0,0,0,113,0.544,0.632,0.25,25,42,14,0021301204,1610612738,BOS,Boston,Jerryd Bayless,,NWT - Hyperextended Right Knee,,,,,,,,,,,,,
0021301204,1610612738,BOS,Boston,2743,Kris Humphries,,DND - Sore Right Knee,,,,,,,0.0,,,,,,,0.0,,,2014-04-14T00:00:00,1,1610612738,BOS,Boston,25-56,33,17,34,24,0,0,0,0,0,0,0,0,0,0,108,0.465,0.731,0.375,26,40,17,0021301204,1610612738,BOS,Boston,Kris Humphries,,DND - Sore Right Knee,,,,,,,,,,,,,
0021301204,1610612738,BOS,Boston,2743,Kris Humphries,,DND - Sore Right Knee,,,,,,,0.0,,,,,,,0.0,,,2014-04-14T00:00:00,1,1610612755,PHI,Philadelphia,18-63,33,34,19,27,0,0,0,0,0,0,0,0,0,0,113,0.544,0.632,0.25,25,42,14,0021301204,1610612738,BOS,Boston,Kris Humphries,,DND - Sore Right Knee,,,,,,,,,,,,,
0021301204,1610612738,BOS,Boston,203096,Jared Sullinger,,DNP - Coach's Decision,,,,,,,0.0,,,,,,,0.0,,,2014-04-14T00:00:00,1,1610612738,BOS,Boston,25-56,33,17,34,24,0,0,0,0,0,0,0,0,0,0,108,0.465,0.731,0.375,26,40,17,0021301204,1610612738,BOS,Boston,Jared Sullinger,,DNP - Coach's Decision,,,,,,,,,,,,,
0021301204,1610612738,BOS,Boston,203096,Jared Sullinger,,DNP - Coach's Decision,,,,,,,0.0,,,,,,,0.0,,,2014-04-14T00:00:00,1,1610612755,PHI,Philadelphia,18-63,33,34,19,27,0,0,0,0,0,0,0,0,0,0,113,0.544,0.632,0.25,25,42,14,0021301204,1610612738,BOS,Boston,Jared Sullinger,,DNP - Coach's Decision,,,,,,,,,,,,,
0021301204,1610612755,PHI,Philadelphia,203138,Hollis Thompson,F,,15:22,120.9,110.8,10.1,0.0,0.0,0.0,0.0,0.143,0.083,0.0,0.5,0.602,0.102,100.0,0.016,2014-04-14T00:00:00,1,1610612738,BOS,Boston,25-56,33,17,34,24,0,0,0,0,0,0,0,0,0,0,108,0.465,0.731,0.375,26,40,17,0021301204,1610612755,PHI,Philadelphia,Hollis Thompson,F,,15:22,0.0,0.0,0.0,0.0,5.0,5.0,4.0,10.0,0.0,0.0,3.0,1.0
0021301204,1610612755,PHI,Philadelphia,203138,Hollis Thompson,F,,15:22,120.9,110.8,10.1,0.0,0.0,0.0,0.0,0.143,0.083,0.0,0.5,0.602,0.102,100.0,0.016,2014-04-14T00:00:00,1,1610612755,PHI,Philadelphia,18-63,33,34,19,27,0,0,0,0,0,0,0,0,0,0,113,0.544,0.632,0.25,25,42,14,0021301204,1610612755,PHI,Philadelphia,Hollis Thompson,F,,15:22,0.0,0.0,0.0,0.0,5.0,5.0,4.0,10.0,0.0,0.0,3.0,1.0
0021301204,1610612755,PHI,Philadelphia,201152,Thaddeus Young,F,,35:19,105.1,101.5,3.5,0.292,0.0,27.3,0.1,0.105,0.103,0.0,0.344,0.402,0.232,103.97,0.108,2014-04-14T00:00:00,1,1610612738,BOS,Boston,25-56,33,17,34,24,0,0,0,0,0,0,0,0,0,0,108,0.465,0.731,0.375,26,40,17,0021301204,1610612755,PHI,Philadelphia,Thaddeus Young,F,,35:19,1.0,5.0,5.0,8.0,9.0,12.0,6.0,22.0,3.0,1.0,3.0,3.0
0021301204,1610612755,PHI,Philadelphia,201152,Thaddeus Young,F,,35:19,105.1,101.5,3.5,0.292,0.0,27.3,0.1,0.105,0.103,0.0,0.344,0.402,0.232,103.97,0.108,2014-04-14T00:00:00,1,1610612755,PHI,Philadelphia,18-63,33,34,19,27,0,0,0,0,0,0,0,0,0,0,113,0.544,0.632,0.25,25,42,14,0021301204,1610612755,PHI,Philadelphia,Thaddeus Young,F,,35:19,1.0,5.0,5.0,8.0,9.0,12.0,6.0,22.0,3.0,1.0,3.0,3.0
0021301204,1610612755,PHI,Philadelphia,203156,Henry Sims,C,,31:51,109.3,102.7,6.5,0.13,1.5,18.9,0.037,0.121,0.083,12.6,0.6,0.597,0.173,103.0,0.098,2014-04-14T00:00:00,1,1610612738,BOS,Boston,25-56,33,17,34,24,0,0,0,0,0,0,0,0,0,0,108,0.465,0.731,0.375,26,40,17,0021301204,1610612755,PHI,Philadelphia,Henry Sims,C,,31:51,4.0,2.0,2.0,8.0,9.0,9.0,6.0,18.0,0.0,1.0,1.0,1.0
0021301204,1610612755,PHI,Philadelphia,203156,Henry Sims,C,,31:51,109.3,102.7,6.5,0.13,1.5,18.9,0.037,0.121,0.083,12.6,0.6,0.597,0.173,103.0,0.098,2014-04-14T00:00:00,1,1610612755,PHI,Philadelphia,18-63,33,34,19,27,0,0,0,0,0,0,0,0,0,0,113,0.544,0.632,0.25,25,42,14,0021301204,1610612755,PHI,Philadelphia,Henry Sims,C,,31:51,4.0,2.0,2.0,8.0,9.0,9.0,6.0,18.0,0.0,1.0,1.0,1.0
0021301204,1610612755,PHI,Philadelphia,202341,James Anderson,G,,27:59,99.6,108.1,-8.5,0.095,2.0,15.7,0.0,0.231,0.12,7.8,0.188,0.307,0.176,103.16,0.04,2014-04-14T00:00:00,1,1610612738,BOS,Boston,25-56,33,17,34,24,0,0,0,0,0,0,0,0,0,0,108,0.465,0.731,0.375,26,40,17,0021301204,1610612755,PHI,Philadelphia,James Anderson,G,,27:59,2.0,0.0,0.0,0.0,7.0,12.0,4.0,14.0,1.0,1.0,1.0,2.0
0021301204,1610612755,PHI,Philadelphia,202341,James Anderson,G,,27:59,99.6,108.1,-8.5,0.095,2.0,15.7,0.0,0.231,0.12,7.8,0.188,0.307,0.176,103.16,0.04,2014-04-14T00:00:00,1,1610612755,PHI,Philadelphia,18-63,33,34,19,27,0,0,0,0,0,0,0,0,0,0,113,0.544,0.632,0.25,25,42,14,0021301204,1610612755,PHI,Philadelphia,James Anderson,G,,27:59,2.0,0.0,0.0,0.0,7.0,12.0,4.0,14.0,1.0,1.0,1.0,2.0
0021301204,1610612755,PHI,Philadelphia,203487,Michael Carter-Williams,G,,34:19,103.7,112.0,-8.2,0.3,2.0,25.3,0.036,0.382,0.226,12.6,0.692,0.711,0.221,105.69,0.237,2014-04-14T00:00:00,1,1610612738,BOS,Boston,25-56,33,17,34,24,0,0,0,0,0,0,0,0,0,0,108,0.465,0.731,0.375,26,40,17,0021301204,1610612755,PHI,Philadelphia,Michael Carter-Williams,G,,34:19,0.0,0.0,4.0,14.0,13.0,12.0,8.0,26.0,2.0,0.0,3.0,4.0
0021301204,1610612755,PHI,Philadelphia,203487,Michael Carter-Williams,G,,34:19,103.7,112.0,-8.2,0.3,2.0,25.3,0.036,0.382,0.226,12.6,0.692,0.711,0.221,105.69,0.237,2014-04-14T00:00:00,1,1610612755,PHI,Philadelphia,18-63,33,34,19,27,0,0,0,0,0,0,0,0,0,0,113,0.544,0.632,0.25,25,42,14,0021301204,1610612755,PHI,Philadelphia,Michael Carter-Williams,G,,34:19,0.0,0.0,4.0,14.0,13.0,12.0,8.0,26.0,2.0,0.0,3.0,4.0
0021301204,1610612755,PHI,Philadelphia,202343,Elliot Williams,,,24:38,114.1,100.1,14.0,0.048,0.0,12.9,0.0,0.04,0.023,0.0,0.8,0.74,0.115,102.85,0.09,2014-04-14T00:00:00,1,1610612738,BOS,Boston,25-56,33,17,34,24,0,0,0,0,0,0,0,0,0,0,108,0.465,0.731,0.375,26,40,17,0021301204,1610612755,PHI,Philadelphia,Elliot Williams,,,24:38,3.0,0.0,4.0,8.0,8.0,4.0,4.0,24.0,0.0,0.0,0.0,3.0
0021301204,1610612755,PHI,Philadelphia,202343,Elliot Williams,,,24:38,114.1,100.1,14.0,0.048,0.0,12.9,0.0,0.04,0.023,0.0,0.8,0.74,0.115,102.85,0.09,2014-04-14T00:00:00,1,1610612755,PHI,Philadelphia,18-63,33,34,19,27,0,0,0,0,0,0,0,0,0,0,113,0.544,0.632,0.25,25,42,14,0021301204,1610612755,PHI,Philadelphia,Elliot Williams,,,24:38,3.0,0.0,4.0,8.0,8.0,4.0,4.0,24.0,0.0,0.0,0.0,3.0
0021301204,1610612755,PHI,Philadelphia,203100,Tony Wroten,,,28:18,120.2,97.2,23.0,0.2,0.57,15.3,0.045,0.04,0.043,26.8,0.583,0.663,0.325,105.73,0.105,2014-04-14T00:00:00,1,1610612738,BOS,Boston,25-56,33,17,34,24,0,0,0,0,0,0,0,0,0,0,108,0.465,0.731,0.375,26,40,17,0021301204,1610612755,PHI,Philadelphia,Tony Wroten,,,28:18,9.0,0.0,8.0,14.0,10.0,10.0,4.0,24.0,0.0,1.0,4.0,4.0
0021301204,1610612755,PHI,Philadelphia,203100,Tony Wroten,,,28:18,120.2,97.2,23.0,0.2,0.57,15.3,0.045,0.04,0.043,26.8,0.583,0.663,0.325,105.73,0.105,2014-04-14T00:00:00,1,1610612755,PHI,Philadelphia,18-63,33,34,19,27,0,0,0,0,0,0,0,0,0,0,113,0.544,0.632,0.25,25,42,14,0021301204,1610612755,PHI,Philadelphia,Tony Wroten,,,28:18,9.0,0.0,8.0,14.0,10.0,10.0,4.0,24.0,0.0,1.0,4.0,4.0
0021301204,1610612755,PHI,Philadelphia,202363,Jarvis Varnado,,,15:52,115.6,106.0,9.6,0.077,0.0,21.6,0.0,0.083,0.045,0.0,1.0,0.549,0.106,97.17,0.02,2014-04-14T00:00:00,1,1610612738,BOS,Boston,25-56,33,17,34,24,0,0,0,0,0,0,0,0,0,0,108,0.465,0.731,0.375,26,40,17,0021301204,1610612755,PHI,Philadelphia,Jarvis Varnado,,,15:52,0.0,0.0,0.0,2.0,6.0,2.0,2.0,18.0,2.0,0.0,2.0,3.0
0021301204,1610612755,PHI,Philadelphia,202363,Jarvis Varnado,,,15:52,115.6,106.0,9.6,0.077,0.0,21.6,0.0,0.083,0.045,0.0,1.0,0.549,0.106,97.17,0.02,2014-04-14T00:00:00,1,1610612755,PHI,Philadelphia,18-63,33,34,19,27,0,0,0,0,0,0,0,0,0,0,113,0.544,0.632,0.25,25,42,14,0021301204,1610612755,PHI,Philadelphia,Jarvis Varnado,,,15:52,0.0,0.0,0.0,2.0,6.0,2.0,2.0,18.0,2.0,0.0,2.0,3.0
0021301204,1610612755,PHI,Philadelphia,203810,Casper Ware,,,13:41,137.1,80.6,56.5,0.1,0.0,14.3,0.0,0.091,0.05,0.0,0.75,0.75,0.203,94.78,0.19,2014-04-14T00:00:00,1,1610612738,BOS,Boston,25-56,33,17,34,24,0,0,0,0,0,0,0,0,0,0,108,0.465,0.731,0.375,26,40,17,0021301204,1610612755,PHI,Philadelphia,Casper Ware,,,13:41,3.0,0.0,0.0,4.0,2.0,2.0,0.0,10.0,0.0,0.0,1.0,1.0
0021301204,1610612755,PHI,Philadelphia,203810,Casper Ware,,,13:41,137.1,80.6,56.5,0.1,0.0,14.3,0.0,0.091,0.05,0.0,0.75,0.75,0.203,94.78,0.19,2014-04-14T00:00:00,1,1610612755,PHI,Philadelphia,18-63,33,34,19,27,0,0,0,0,0,0,0,0,0,0,113,0.544,0.632,0.25,25,42,14,0021301204,1610612755,PHI,Philadelphia,Casper Ware,,,13:41,3.0,0.0,0.0,4.0,2.0,2.0,0.0,10.0,0.0,0.0,1.0,1.0
0021301204,1610612755,PHI,Philadelphia,203561,Brandon Davies,,,12:41,133.2,108.9,24.4,0.0,0.0,0.0,0.429,0.0,0.214,12.7,0.833,0.799,0.267,98.7,0.155,2014-04-14T00:00:00,1,1610612738,BOS,Boston,25-56,33,17,34,24,0,0,0,0,0,0,0,0,0,0,108,0.465,0.731,0.375,26,40,17,0021301204,1610612755,PHI,Philadelphia,Brandon Davies,,,12:41,0.0,2.0,0.0,6.0,6.0,2.0,2.0,14.0,0.0,0.0,3.0,1.0
0021301204,1610612755,PHI,Philadelphia,203561,Brandon Davies,,,12:41,133.2,108.9,24.4,0.0,0.0,0.0,0.429,0.0,0.214,12.7,0.833,0.799,0.267,98.7,0.155,2014-04-14T00:00:00,1,1610612755,PHI,Philadelphia,18-63,33,34,19,27,0,0,0,0,0,0,0,0,0,0,113,0.544,0.632,0.25,25,42,14,0021301204,1610612755,PHI,Philadelphia,Brandon Davies,,,12:41,0.0,2.0,0.0,6.0,6.0,2.0,2.0,14.0,0.0,0.0,3.0,1.0
0021301204,1610612755,PHI,Philadelphia,203102,Arnett Moultrie,,DNP - Coach's Decision,,,,,,,0.0,,,,,,,0.0,,,2014-04-14T00:00:00,1,1610612738,BOS,Boston,25-56,33,17,34,24,0,0,0,0,0,0,0,0,0,0,108,0.465,0.731,0.375,26,40,17,0021301204,1610612755,PHI,Philadelphia,Arnett Moultrie,,DNP - Coach's Decision,,,,,,,,,,,,,
0021301204,1610612755,PHI,Philadelphia,203102,Arnett Moultrie,,DNP - Coach's Decision,,,,,,,0.0,,,,,,,0.0,,,2014-04-14T00:00:00,1,1610612755,PHI,Philadelphia,18-63,33,34,19,27,0,0,0,0,0,0,0,0,0,0,113,0.544,0.632,0.25,25,42,14,0021301204,1610612755,PHI,Philadelphia,Arnett Moultrie,,DNP - Coach's Decision,,,,,,,,,,,,,
0021301204,1610612755,PHI,Philadelphia,201957,Byron Mullens,,DNP - Coach's Decision,,,,,,,0.0,,,,,,,0.0,,,2014-04-14T00:00:00,1,1610612738,BOS,Boston,25-56,33,17,34,24,0,0,0,0,0,0,0,0,0,0,108,0.465,0.731,0.375,26,40,17,0021301204,1610612755,PHI,Philadelphia,Byron Mullens,,DNP - Coach's Decision,,,,,,,,,,,,,
0021301204,1610612755,PHI,Philadelphia,201957,Byron Mullens,,DNP - Coach's Decision,,,,,,,0.0,,,,,,,0.0,,,2014-04-14T00:00:00,1,1610612755,PHI,Philadelphia,18-63,33,34,19,27,0,0,0,0,0,0,0,0,0,0,113,0.544,0.632,0.25,25,42,14,0021301204,1610612755,PHI,Philadelphia,Byron Mullens,,DNP - Coach's Decision,,,,,,,,,,,,,
0021301204,1610612755,PHI,Philadelphia,203519,Adonis Thomas,,DNP - Coach's Decision,,,,,,,0.0,,,,,,,0.0,,,2014-04-14T00:00:00,1,1610612738,BOS,Boston,25-56,33,17,34,24,0,0,0,0,0,0,0,0,0,0,108,0.465,0.731,0.375,26,40,17,0021301204,1610612755,PHI,Philadelphia,Adonis Thomas,,DNP - Coach's Decision,,,,,,,,,,,,,
0021301204,1610612755,PHI,Philadelphia,203519,Adonis Thomas,,DNP - Coach's Decision,,,,,,,0.0,,,,,,,0.0,,,2014-04-14T00:00:00,1,1610612755,PHI,Philadelphia,18-63,33,34,19,27,0,0,0,0,0,0,0,0,0,0,113,0.544,0.632,0.25,25,42,14,0021301204,1610612755,PHI,Philadelphia,Adonis Thomas,,DNP - Coach's Decision,,,,,,,,,,,,,
