GAME_ID_x,TEAM_ID_x,TEAM_ABBREVIATION_x,TEAM_CITY_x,PLAYER_ID,PLAYER_NAME_x,START_POSITION_x,COMMENT_x,MIN_x,OFF_RATING,DEF_RATING,NET_RATING,AST_PCT,AST_TOV,AST_RATIO,OREB_PCT,DREB_PCT,REB_PCT,TM_TOV_PCT,EFG_PCT,TS_PCT,USG_PCT,PACE,PIE,GAME_DATE_EST,GAME_SEQUENCE,TEAM_ID_y,TEAM_ABBREVIATION_y,TEAM_CITY_NAME,TEAM_WINS_LOSSES,PTS_QTR1,PTS_QTR2,PTS_QTR3,PTS_QTR4,PTS_OT1,PTS_OT2,PTS_OT3,PTS_OT4,PTS_OT5,PTS_OT6,PTS_OT7,PTS_OT8,PTS_OT9,PTS_OT10,PTS,FG_PCT,FT_PCT,FG3_PCT,AST,REB,TOV,GAME_ID_y,TEAM_ID,TEAM_ABBREVIATION,TEAM_CITY_y,PLAYER_NAME_y,START_POSITION_y,COMMENT_y,MIN_y,PTS_OFF_TOV,PTS_2ND_CHANCE,PTS_FB,PTS_PAINT,OPP_PTS_OFF_TOV,OPP_PTS_2ND_CHANCE,OPP_PTS_FB,OPP_PTS_PAINT,BLK,BLKA,PF,PFD
0041300171,1610612757,POR,Portland,201587,Nicolas Batum,F,,45:03,111.3,108.5,2.8,0.103,3.0,21.4,0.021,0.163,0.094,7.1,0.7,0.7,0.099,101.36,0.141,2014-04-20T00:00:00,4,1610612757,POR,Portland,1-0,27,21,25,33,16,0,0,0,0,0,0,0,0,0,122,0.433,0.744,0.333,14,54,12,0041300171,1610612757,POR,Portland,Nicolas Batum,F,,45:03,2.0,0.0,4.0,6.0,18.0,16.0,13.0,50.0,1.0,0.0,4.0,1.0
0041300171,1610612757,POR,Portland,201587,Nicolas Batum,F,,45:03,111.3,108.5,2.8,0.103,3.0,21.4,0.021,0.163,0.094,7.1,0.7,0.7,0.099,101.36,0.141,2014-04-20T00:00:00,4,1610612745,HOU,Houston,0-1,20,29,30,27,14,0,0,0,0,0,0,0,0,0,120,0.41,0.65,0.229,16,59,12,0041300171,1610612757,POR,Portland,Nicolas Batum,F,,45:03,2.0,0.0,4.0,6.0,18.0,16.0,13.0,50.0,1.0,0.0,4.0,1.0
0041300171,1610612757,POR,Portland,200746,LaMarcus Aldridge,F,,44:55,120.8,99.1,21.7,0.095,0.67,4.8,0.152,0.22,0.187,7.2,0.581,0.626,0.368,98.81,0.302,2014-04-20T00:00:00,4,1610612757,POR,Portland,1-0,27,21,25,33,16,0,0,0,0,0,0,0,0,0,122,0.433,0.744,0.333,14,54,12,0041300171,1610612757,POR,Portland,LaMarcus Aldridge,F,,44:55,5.0,17.0,2.0,24.0,8.0,23.0,8.0,42.0,2.0,3.0,6.0,8.0
0041300171,1610612757,POR,Portland,200746,LaMarcus Aldridge,F,,44:55,120.8,99.1,21.7,0.095,0.67,4.8,0.152,0.22,0.187,7.2,0.581,0.626,0.368,98.81,0.302,2014-04-20T00:00:00,4,1610612745,HOU,Houston,0-1,20,29,30,27,14,0,0,0,0,0,0,0,0,0,120,0.41,0.65,0.229,16,59,12,0041300171,1610612757,POR,Portland,LaMarcus Aldridge,F,,44:55,5.0,17.0,2.0,24.0,8.0,23.0,8.0,42.0,2.0,3.0,6.0,8.0
0041300171,1610612757,POR,Portland,201577,Robin Lopez,C,,31:34,100.5,124.3,-23.8,0.053,1.0,9.3,0.094,0.152,0.123,9.3,0.286,0.342,0.136,98.13,0.0,2014-04-20T00:00:00,4,1610612757,POR,Portland,1-0,27,21,25,33,16,0,0,0,0,0,0,0,0,0,122,0.433,0.744,0.333,14,54,12,0041300171,1610612757,POR,Portland,Robin Lopez,C,,31:34,0.0,4.0,0.0,2.0,14.0,11.0,13.0,38.0,1.0,0.0,6.0,4.0
0041300171,1610612757,POR,Portland,201577,Robin Lopez,C,,31:34,100.5,124.3,-23.8,0.053,1.0,9.3,0.094,0.152,0.123,9.3,0.286,0.342,0.136,98.13,0.0,2014-04-20T00:00:00,4,1610612745,HOU,Houston,0-1,20,29,30,27,14,0,0,0,0,0,0,0,0,0,120,0.41,0.65,0.229,16,59,12,0041300171,1610612757,POR,Portland,Robin Lopez,C,,31:34,0.0,4.0,0.0,2.0,14.0,11.0,13.0,38.0,1.0,0.0,6.0,4.0
0041300171,1610612757,POR,Portland,202083,Wesley Matthews,G,,42:23,115.1,101.4,13.7,0.034,0.25,4.2,0.024,0.0,0.011,16.9,0.406,0.483,0.219,103.22,0.022,2014-04-20T00:00:00,4,1610612757,POR,Portland,1-0,27,21,25,33,16,0,0,0,0,0,0,0,0,0,122,0.433,0.744,0.333,14,54,12,0041300171,1610612757,POR,Portland,Wesley Matthews,G,,42:23,3.0,0.0,3.0,8.0,13.0,23.0,9.0,42.0,0.0,0.0,5.0,9.0
0041300171,1610612757,POR,Portland,202083,Wesley Matthews,G,,42:23,115.1,101.4,13.7,0.034,0.25,4.2,0.024,0.0,0.011,16.9,0.406,0.483,0.219,103.22,0.022,2014-04-20T00:00:00,4,1610612745,HOU,Houston,0-1,20,29,30,27,14,0,0,0,0,0,0,0,0,0,120,0.41,0.65,0.229,16,59,12,0041300171,1610612757,POR,Portland,Wesley Matthews,G,,42:23,3.0,0.0,3.0,8.0,13.0,23.0,9.0,42.0,0.0,0.0,5.0,9.0
0041300171,1610612757,POR,Portland,203081,Damian Lillard,G,,45:50,113.4,106.3,7.1,0.185,5.0,16.5,0.042,0.137,0.091,3.3,0.553,0.638,0.225,100.6,0.211,2014-04-20T00:00:00,4,1610612757,POR,Portland,1-0,27,21,25,33,16,0,0,0,0,0,0,0,0,0,122,0.433,0.744,0.333,14,54,12,0041300171,1610612757,POR,Portland,Damian Lillard,G,,45:50,4.0,4.0,9.0,10.0,15.0,18.0,11.0,52.0,0.0,2.0,3.0,9.0
0041300171,1610612757,POR,Portland,203081,Damian Lillard,G,,45:50,113.4,106.3,7.1,0.185,5.0,16.5,0.042,0.137,0.091,3.3,0.553,0.638,0.225,100.6,0.211,2014-04-20T00:00:00,4,1610612745,HOU,Houston,0-1,20,29,30,27,14,0,0,0,0,0,0,0,0,0,120,0.41,0.65,0.229,16,59,12,0041300171,1610612757,POR,Portland,Damian Lillard,G,,45:50,4.0,4.0,9.0,10.0,15.0,18.0,11.0,52.0,0.0,2.0,3.0,9.0
0041300171,1610612757,POR,Portland,203080,Thomas Robinson,,,14:29,132.0,73.2,58.7,0.0,0.0,0.0,0.2,0.231,0.214,0.0,0.25,0.307,0.149,94.7,0.034,2014-04-20T00:00:00,4,1610612757,POR,Portland,1-0,27,21,25,33,16,0,0,0,0,0,0,0,0,0,122,0.433,0.744,0.333,14,54,12,0041300171,1610612757,POR,Portland,Thomas Robinson,,,14:29,0.0,0.0,0.0,2.0,0.0,8.0,0.0,10.0,1.0,1.0,3.0,1.0
0041300171,1610612757,POR,Portland,203080,Thomas Robinson,,,14:29,132.0,73.2,58.7,0.0,0.0,0.0,0.2,0.231,0.214,0.0,0.25,0.307,0.149,94.7,0.034,2014-04-20T00:00:00,4,1610612745,HOU,Houston,0-1,20,29,30,27,14,0,0,0,0,0,0,0,0,0,120,0.41,0.65,0.229,16,59,12,0041300171,1610612757,POR,Portland,Thomas Robinson,,,14:29,0.0,0.0,0.0,2.0,0.0,8.0,0.0,10.0,1.0,1.0,3.0,1.0
0041300171,1610612757,POR,Portland,2590,Mo Williams,,,26:50,104.6,107.7,-3.1,0.1,1.0,20.0,0.0,0.029,0.016,20.0,0.25,0.25,0.13,101.06,-0.039,2014-04-20T00:00:00,4,1610612757,POR,Portland,1-0,27,21,25,33,16,0,0,0,0,0,0,0,0,0,122,0.433,0.744,0.333,14,54,12,0041300171,1610612757,POR,Portland,Mo Williams,,,26:50,0.0,0.0,0.0,0.0,12.0,22.0,6.0,38.0,0.0,1.0,4.0,0.0
0041300171,1610612757,POR,Portland,2590,Mo Williams,,,26:50,104.6,107.7,-3.1,0.1,1.0,20.0,0.0,0.029,0.016,20.0,0.25,0.25,0.13,101.06,-0.039,2014-04-20T00:00:00,4,1610612745,HOU,Houston,0-1,20,29,30,27,14,0,0,0,0,0,0,0,0,0,120,0.41,0.65,0.229,16,59,12,0041300171,1610612757,POR,Portland,Mo Williams,,,26:50,0.0,0.0,0.0,0.0,12.0,22.0,6.0,38.0,0.0,1.0,4.0,0.0
0041300171,1610612757,POR,Portland,2748,Dorell Wright,,,12:47,92.7,114.7,-21.9,0.0,0.0,0.0,0.0,0.143,0.08,0.0,0.0,0.0,0.107,107.86,-0.041,2014-04-20T00:00:00,4,1610612757,POR,Portland,1-0,27,21,25,33,16,0,0,0,0,0,0,0,0,0,122,0.433,0.744,0.333,14,54,12,0041300171,1610612757,POR,Portland,Dorell Wright,,,12:47,0.0,0.0,0.0,0.0,8.0,12.0,5.0,16.0,1.0,0.0,1.0,0.0
0041300171,1610612757,POR,Portland,2748,Dorell Wright,,,12:47,92.7,114.7,-21.9,0.0,0.0,0.0,0.0,0.143,0.08,0.0,0.0,0.0,0.107,107.86,-0.041,2014-04-20T00:00:00,4,1610612745,HOU,Houston,0-1,20,29,30,27,14,0,0,0,0,0,0,0,0,0,120,0.41,0.65,0.229,16,59,12,0041300171,1610612757,POR,Portland,Dorell Wright,,,12:47,0.0,0.0,0.0,0.0,8.0,12.0,5.0,16.0,1.0,0.0,1.0,0.0
0041300171,1610612757,POR,Portland,203115,Will Barton,,,0:23,0.0,300.0,-300.0,0.0,0.0,0.0,0.0,0.0,0.0,0.0,0.0,0.0,1.0,126.87,-0.5,2014-04-20T00:00:00,4,1610612757,POR,Portland,1-0,27,21,25,33,16,0,0,0,0,0,0,0,0,0,122,0.433,0.744,0.333,14,54,12,0041300171,1610612757,POR,Portland,Will Barton,,,0:23,0.0,0.0,0.0,0.0,0.0,0.0,0.0,0.0,0.0,0.0,0.0,0.0
0041300171,1610612757,POR,Portland,203115,Will Barton,,,0:23,0.0,300.0,-300.0,0.0,0.0,0.0,0.0,0.0,0.0,0.0,0.0,0.0,1.0,126.87,-0.5,2014-04-20T00:00:00,4,1610612745,HOU,Houston,0-1,20,29,30,27,14,0,0,0,0,0,0,0,0,0,120,0.41,0.65,0.229,16,59,12,0041300171,1610612757,POR,Portland,Will Barton,,,0:23,0.0,0.0,0.0,0.0,0.0,0.0,0.0,0.0,0.0,0.0,0.0,0.0
0041300171,1610612757,POR,Portland,200777,Joel Freeland,,,0:47,113.6,84.0,29.6,0.0,0.0,0.0,0.0,0.0,0.0,0.0,0.0,0.568,1.0,171.34,0.0,2014-04-20T00:00:00,4,1610612757,POR,Portland,1-0,27,21,25,33,16,0,0,0,0,0,0,0,0,0,122,0.433,0.744,0.333,14,54,12,0041300171,1610612757,POR,Portland,Joel Freeland,,,0:47,0.0,0.0,0.0,0.0,2.0,2.0,0.0,2.0,0.0,0.0,0.0,1.0
0041300171,1610612757,POR,Portland,200777,Joel Freeland,,,0:47,113.6,84.0,29.6,0.0,0.0,0.0,0.0,0.0,0.0,0.0,0.0,0.568,1.0,171.34,0.0,2014-04-20T00:00:00,4,1610612745,HOU,Houston,0-1,20,29,30,27,14,0,0,0,0,0,0,0,0,0,120,0.41,0.65,0.229,16,59,12,0041300171,1610612757,POR,Portland,Joel Freeland,,,0:47,0.0,0.0,0.0,0.0,2.0,2.0,0.0,2.0,0.0,0.0,0.0,1.0
0041300171,1610612757,POR,Portland,203086,Meyers Leonard,,DNP - Coach's Decision,,,,,,,0.0,,,,,,,0.0,,,2014-04-20T00:00:00,4,1610612757,POR,Portland,1-0,27,21,25,33,16,0,0,0,0,0,0,0,0,0,122,0.433,0.744,0.333,14,54,12,0041300171,1610612757,POR,Portland,Meyers Leonard,,DNP - Coach's Decision,,,,,,,,,,,,,
0041300171,1610612757,POR,Portland,203086,Meyers Leonard,,DNP - Coach's Decision,,,,,,,0.0,,,,,,,0.0,,,2014-04-20T00:00:00,4,1610612745,HOU,Houston,0-1,20,29,30,27,14,0,0,0,0,0,0,0,0,0,120,0.41,0.65,0.229,16,59,12,0041300171,1610612757,POR,Portland,Meyers Leonard,,DNP - Coach's Decision,,,,,,,,,,,,,
0041300171,1610612757,POR,Portland,203468,CJ McCollum,,DNP - Coach's Decision,,,,,,,0.0,,,,,,,0.0,,,2014-04-20T00:00:00,4,1610612757,POR,Portland,1-0,27,21,25,33,16,0,0,0,0,0,0,0,0,0,122,0.433,0.744,0.333,14,54,12,0041300171,1610612757,POR,Portland,CJ McCollum,,DNP - Coach's Decision,,,,,,,,,,,,,
0041300171,1610612757,POR,Portland,203468,CJ McCollum,,DNP - Coach's Decision,,,,,,,0.0,,,,,,,0.0,,,2014-04-20T00:00:00,4,1610612745,HOU,Houston,0-1,20,29,30,27,14,0,0,0,0,0,0,0,0,0,120,0.41,0.65,0.229,16,59,12,0041300171,1610612757,POR,Portland,CJ McCollum,,DNP - Coach's Decision,,,,,,,,,,,,,
0041300171,1610612757,POR,Portland,2248,Earl Watson,,DNP - Coach's Decision,,,,,,,0.0,,,,,,,0.0,,,2014-04-20T00:00:00,4,1610612757,POR,Portland,1-0,27,21,25,33,16,0,0,0,0,0,0,0,0,0,122,0.433,0.744,0.333,14,54,12,0041300171,1610612757,POR,Portland,Earl Watson,,DNP - Coach's Decision,,,,,,,,,,,,,
0041300171,1610612757,POR,Portland,2248,Earl Watson,,DNP - Coach's Decision,,,,,,,0.0,,,,,,,0.0,,,2014-04-20T00:00:00,4,1610612745,HOU,Houston,0-1,20,29,30,27,14,0,0,0,0,0,0,0,0,0,120,0.41,0.65,0.229,16,59,12,0041300171,1610612757,POR,Portland,Earl Watson,,DNP - Coach's Decision,,,,,,,,,,,,,
0041300171,1610612745,HOU,Houston,202718,Chandler Parsons,F,,46:53,109.2,113.1,-3.9,0.034,1.0,4.2,0.0,0.128,0.06,4.2,0.548,0.548,0.194,101.36,0.111,2014-04-20T00:00:00,4,1610612757,POR,Portland,1-0,27,21,25,33,16,0,0,0,0,0,0,0,0,0,122,0.433,0.744,0.333,14,54,12,0041300171,1610612745,HOU,Houston,Chandler Parsons,F,,46:53,7.0,4.0,7.0,10.0,8.0,25.0,16.0,44.0,0.0,0.0,3.0,1.0
0041300171,1610612745,HOU,Houston,202718,Chandler Parsons,F,,46:53,109.2,113.1,-3.9,0.034,1.0,4.2,0.0,0.128,0.06,4.2,0.548,0.548,0.194,101.36,0.111,2014-04-20T00:00:00,4,1610612745,HOU,Houston,0-1,20,29,30,27,14,0,0,0,0,0,0,0,0,0,120,0.41,0.65,0.229,16,59,12,0041300171,1610612745,HOU,Houston,Chandler Parsons,F,,46:53,7.0,4.0,7.0,10.0,8.0,25.0,16.0,44.0,0.0,0.0,3.0,1.0
0041300171,1610612745,HOU,Houston,203093,Terrence Jones,F,,36:08,105.1,111.1,-6.0,0.087,0.0,16.7,0.091,0.278,0.188,0.0,0.6,0.6,0.117,100.15,0.166,2014-04-20T00:00:00,4,1610612757,POR,Portland,1-0,27,21,25,33,16,0,0,0,0,0,0,0,0,0,122,0.433,0.744,0.333,14,54,12,0041300171,1610612745,HOU,Houston,Terrence Jones,F,,36:08,2.0,4.0,0.0,12.0,14.0,11.0,14.0,40.0,2.0,1.0,4.0,1.0
0041300171,1610612745,HOU,Houston,203093,Terrence Jones,F,,36:08,105.1,111.1,-6.0,0.087,0.0,16.7,0.091,0.278,0.188,0.0,0.6,0.6,0.117,100.15,0.166,2014-04-20T00:00:00,4,1610612745,HOU,Houston,0-1,20,29,30,27,14,0,0,0,0,0,0,0,0,0,120,0.41,0.65,0.229,16,59,12,0041300171,1610612745,HOU,Houston,Terrence Jones,F,,36:08,2.0,4.0,0.0,12.0,14.0,11.0,14.0,40.0,2.0,1.0,4.0,1.0
0041300171,1610612745,HOU,Houston,2730,Dwight Howard,C,,34:16,105.8,112.9,-7.0,0.056,0.5,3.2,0.15,0.22,0.185,6.4,0.429,0.474,0.351,101.21,0.161,2014-04-20T00:00:00,4,1610612757,POR,Portland,1-0,27,21,25,33,16,0,0,0,0,0,0,0,0,0,122,0.433,0.744,0.333,14,54,12,0041300171,1610612745,HOU,Houston,Dwight Howard,C,,34:16,2.0,9.0,0.0,18.0,5.0,22.0,10.0,32.0,4.0,3.0,6.0,11.0
0041300171,1610612745,HOU,Houston,2730,Dwight Howard,C,,34:16,105.8,112.9,-7.0,0.056,0.5,3.2,0.15,0.22,0.185,6.4,0.429,0.474,0.351,101.21,0.161,2014-04-20T00:00:00,4,1610612745,HOU,Houston,0-1,20,29,30,27,14,0,0,0,0,0,0,0,0,0,120,0.41,0.65,0.229,16,59,12,0041300171,1610612745,HOU,Houston,Dwight Howard,C,,34:16,2.0,9.0,0.0,18.0,5.0,22.0,10.0,32.0,4.0,3.0,6.0,11.0
0041300171,1610612745,HOU,Houston,201935,James Harden,G,,44:59,106.4,117.4,-11.0,0.214,1.5,14.2,0.041,0.068,0.054,9.4,0.339,0.417,0.317,102.57,0.065,2014-04-20T00:00:00,4,1610612757,POR,Portland,1-0,27,21,25,33,16,0,0,0,0,0,0,0,0,0,122,0.433,0.744,0.333,14,54,12,0041300171,1610612745,HOU,Houston,James Harden,G,,44:59,2.0,2.0,3.0,4.0,14.0,25.0,18.0,50.0,0.0,1.0,3.0,7.0
0041300171,1610612745,HOU,Houston,201935,James Harden,G,,44:59,106.4,117.4,-11.0,0.214,1.5,14.2,0.041,0.068,0.054,9.4,0.339,0.417,0.317,102.57,0.065,2014-04-20T00:00:00,4,1610612745,HOU,Houston,0-1,20,29,30,27,14,0,0,0,0,0,0,0,0,0,120,0.41,0.65,0.229,16,59,12,0041300171,1610612745,HOU,Houston,James Harden,G,,44:59,2.0,2.0,3.0,4.0,14.0,25.0,18.0,50.0,0.0,1.0,3.0,7.0
0041300171,1610612745,HOU,Houston,201976,Patrick Beverley,G,,38:15,105.5,106.0,-0.5,0.071,2.0,15.7,0.098,0.05,0.074,7.8,0.438,0.461,0.117,99.71,0.024,2014-04-20T00:00:00,4,1610612757,POR,Portland,1-0,27,21,25,33,16,0,0,0,0,0,0,0,0,0,122,0.433,0.744,0.333,14,54,12,0041300171,1610612745,HOU,Houston,Patrick Beverley,G,,38:15,3.0,0.0,3.0,4.0,10.0,20.0,11.0,34.0,1.0,1.0,6.0,6.0
0041300171,1610612745,HOU,Houston,201976,Patrick Beverley,G,,38:15,105.5,106.0,-0.5,0.071,2.0,15.7,0.098,0.05,0.074,7.8,0.438,0.461,0.117,99.71,0.024,2014-04-20T00:00:00,4,1610612745,HOU,Houston,0-1,20,29,30,27,14,0,0,0,0,0,0,0,0,0,120,0.41,0.65,0.229,16,59,12,0041300171,1610612745,HOU,Houston,Patrick Beverley,G,,38:15,3.0,0.0,3.0,4.0,10.0,20.0,11.0,34.0,1.0,1.0,6.0,6.0
0041300171,1610612745,HOU,Houston,201600,Omer Asik,,,12:20,90.9,114.2,-23.3,0.0,0.0,0.0,0.231,0.273,0.25,50.0,0.5,0.5,0.12,97.38,-0.064,2014-04-20T00:00:00,4,1610612757,POR,Portland,1-0,27,21,25,33,16,0,0,0,0,0,0,0,0,0,122,0.433,0.744,0.333,14,54,12,0041300171,1610612745,HOU,Houston,Omer Asik,,,12:20,0.0,2.0,0.0,2.0,4.0,4.0,4.0,14.0,0.0,0.0,5.0,0.0
0041300171,1610612745,HOU,Houston,201600,Omer Asik,,,12:20,90.9,114.2,-23.3,0.0,0.0,0.0,0.231,0.273,0.25,50.0,0.5,0.5,0.12,97.38,-0.064,2014-04-20T00:00:00,4,1610612745,HOU,Houston,0-1,20,29,30,27,14,0,0,0,0,0,0,0,0,0,120,0.41,0.65,0.229,16,59,12,0041300171,1610612745,HOU,Houston,Omer Asik,,,12:20,0.0,2.0,0.0,2.0,4.0,4.0,4.0,14.0,0.0,0.0,5.0,0.0
0041300171,1610612745,HOU,Houston,202391,Jeremy Lin,,,34:02,105.0,111.9,-7.0,0.167,2.0,21.8,0.075,0.086,0.08,10.9,0.5,0.568,0.152,101.01,0.117,2014-04-20T00:00:00,4,1610612757,POR,Portland,1-0,27,21,25,33,16,0,0,0,0,0,0,0,0,0,122,0.433,0.744,0.333,14,54,12,0041300171,1610612745,HOU,Houston,Jeremy Lin,,,34:02,2.0,3.0,0.0,6.0,11.0,15.0,11.0,32.0,0.0,0.0,4.0,4.0
0041300171,1610612745,HOU,Houston,202391,Jeremy Lin,,,34:02,105.0,111.9,-7.0,0.167,2.0,21.8,0.075,0.086,0.08,10.9,0.5,0.568,0.152,101.01,0.117,2014-04-20T00:00:00,4,1610612745,HOU,Houston,0-1,20,29,30,27,14,0,0,0,0,0,0,0,0,0,120,0.41,0.65,0.229,16,59,12,0041300171,1610612745,HOU,Houston,Jeremy Lin,,,34:02,2.0,3.0,0.0,6.0,11.0,15.0,11.0,32.0,0.0,0.0,4.0,4.0
0041300171,1610612745,HOU,Houston,101128,Francisco Garcia,,,18:07,106.8,103.2,3.5,0.0,0.0,0.0,0.038,0.063,0.048,0.0,0.25,0.434,0.106,100.8,0.01,2014-04-20T00:00:00,4,1610612757,POR,Portland,1-0,27,21,25,33,16,0,0,0,0,0,0,0,0,0,122,0.433,0.744,0.333,14,54,12,0041300171,1610612745,HOU,Houston,Francisco Garcia,,,18:07,0.0,3.0,0.0,2.0,4.0,3.0,6.0,14.0,0.0,0.0,2.0,2.0
0041300171,1610612745,HOU,Houston,101128,Francisco Garcia,,,18:07,106.8,103.2,3.5,0.0,0.0,0.0,0.038,0.063,0.048,0.0,0.25,0.434,0.106,100.8,0.01,2014-04-20T00:00:00,4,1610612745,HOU,Houston,0-1,20,29,30,27,14,0,0,0,0,0,0,0,0,0,120,0.41,0.65,0.229,16,59,12,0041300171,1610612745,HOU,Houston,Francisco Garcia,,,18:07,0.0,3.0,0.0,2.0,4.0,3.0,6.0,14.0,0.0,0.0,2.0,2.0
0041300171,1610612745,HOU,Houston,201956,Omri Casspi,,DNP - Coach's Decision,,,,,,,0.0,,,,,,,0.0,,,2014-04-20T00:00:00,4,1610612757,POR,Portland,1-0,27,21,25,33,16,0,0,0,0,0,0,0,0,0,122,0.433,0.744,0.333,14,54,12,0041300171,1610612745,HOU,Houston,Omri Casspi,,DNP - Coach's Decision,,,,,,,,,,,,,
0041300171,1610612745,HOU,Houston,201956,Omri Casspi,,DNP - Coach's Decision,,,,,,,0.0,,,,,,,0.0,,,2014-04-20T00:00:00,4,1610612745,HOU,Houston,0-1,20,29,30,27,14,0,0,0,0,0,0,0,0,0,120,0.41,0.65,0.229,16,59,12,0041300171,1610612745,HOU,Houston,Omri Casspi,,DNP - Coach's Decision,,,,,,,,,,,,,
0041300171,1610612745,HOU,Houston,203584,Troy Daniels,,DNP - Coach's Decision,,,,,,,0.0,,,,,,,0.0,,,2014-04-20T00:00:00,4,1610612757,POR,Portland,1-0,27,21,25,33,16,0,0,0,0,0,0,0,0,0,122,0.433,0.744,0.333,14,54,12,0041300171,1610612745,HOU,Houston,Troy Daniels,,DNP - Coach's Decision,,,,,,,,,,,,,
0041300171,1610612745,HOU,Houston,203584,Troy Daniels,,DNP - Coach's Decision,,,,,,,0.0,,,,,,,0.0,,,2014-04-20T00:00:00,4,1610612745,HOU,Houston,0-1,20,29,30,27,14,0,0,0,0,0,0,0,0,0,120,0.41,0.65,0.229,16,59,12,0041300171,1610612745,HOU,Houston,Troy Daniels,,DNP - Coach's Decision,,,,,,,,,,,,,
0041300171,1610612745,HOU,Houston,202706,Jordan Hamilton,,DNP - Coach's Decision,,,,,,,0.0,,,,,,,0.0,,,2014-04-20T00:00:00,4,1610612757,POR,Portland,1-0,27,21,25,33,16,0,0,0,0,0,0,0,0,0,122,0.433,0.744,0.333,14,54,12,0041300171,1610612745,HOU,Houston,Jordan Hamilton,,DNP - Coach's Decision,,,,,,,,,,,,,
0041300171,1610612745,HOU,Houston,202706,Jordan Hamilton,,DNP - Coach's Decision,,,,,,,0.0,,,,,,,0.0,,,2014-04-20T00:00:00,4,1610612745,HOU,Houston,0-1,20,29,30,27,14,0,0,0,0,0,0,0,0,0,120,0.41,0.65,0.229,16,59,12,0041300171,1610612745,HOU,Houston,Jordan Hamilton,,DNP - Coach's Decision,,,,,,,,,,,,,
0041300171,1610612745,HOU,Houston,202700,Donatas Motiejunas,,DNP - Coach's Decision,,,,,,,0.0,,,,,,,0.0,,,2014-04-20T00:00:00,4,1610612757,POR,Portland,1-0,27,21,25,33,16,0,0,0,0,0,0,0,0,0,122,0.433,0.744,0.333,14,54,12,0041300171,1610612745,HOU,Houston,Donatas Motiejunas,,DNP - Coach's Decision,,,,,,,,,,,,,
0041300171,1610612745,HOU,Houston,202700,Donatas Motiejunas,,DNP - Coach's Decision,,,,,,,0.0,,,,,,,0.0,,,2014-04-20T00:00:00,4,1610612745,HOU,Houston,0-1,20,29,30,27,14,0,0,0,0,0,0,0,0,0,120,0.41,0.65,0.229,16,59,12,0041300171,1610612745,HOU,Houston,Donatas Motiejunas,,DNP - Coach's Decision,,,,,,,,,,,,,
0041300171,1610612745,HOU,Houston,2694,Josh Powell,,DNP - Coach's Decision,,,,,,,0.0,,,,,,,0.0,,,2014-04-20T00:00:00,4,1610612757,POR,Portland,1-0,27,21,25,33,16,0,0,0,0,0,0,0,0,0,122,0.433,0.744,0.333,14,54,12,0041300171,1610612745,HOU,Houston,Josh Powell,,DNP - Coach's Decision,,,,,,,,,,,,,
0041300171,1610612745,HOU,Houston,2694,Josh Powell,,DNP - Coach's Decision,,,,,,,0.0,,,,,,,0.0,,,2014-04-20T00:00:00,4,1610612745,HOU,Houston,0-1,20,29,30,27,14,0,0,0,0,0,0,0,0,0,120,0.41,0.65,0.229,16,59,12,0041300171,1610612745,HOU,Houston,Josh Powell,,DNP - Coach's Decision,,,,,,,,,,,,,
