GAME_ID_x,TEAM_ID_x,TEAM_ABBREVIATION_x,TEAM_CITY_x,PLAYER_ID,PLAYER_NAME_x,START_POSITION_x,COMMENT_x,MIN_x,OFF_RATING,DEF_RATING,NET_RATING,AST_PCT,AST_TOV,AST_RATIO,OREB_PCT,DREB_PCT,REB_PCT,TM_TOV_PCT,EFG_PCT,TS_PCT,USG_PCT,PACE,PIE,GAME_DATE_EST,GAME_SEQUENCE,TEAM_ID_y,TEAM_ABBREVIATION_y,TEAM_CITY_NAME,TEAM_WINS_LOSSES,PTS_QTR1,PTS_QTR2,PTS_QTR3,PTS_QTR4,PTS_OT1,PTS_OT2,PTS_OT3,PTS_OT4,PTS_OT5,PTS_OT6,PTS_OT7,PTS_OT8,PTS_OT9,PTS_OT10,PTS,FG_PCT,FT_PCT,FG3_PCT,AST,REB,TOV,GAME_ID_y,TEAM_ID,TEAM_ABBREVIATION,TEAM_CITY_y,PLAYER_NAME_y,START_POSITION_y,COMMENT_y,MIN_y,PTS_OFF_TOV,PTS_2ND_CHANCE,PTS_FB,PTS_PAINT,OPP_PTS_OFF_TOV,OPP_PTS_2ND_CHANCE,OPP_PTS_FB,OPP_PTS_PAINT,BLK,BLKA,PF,PFD
0021300548,1610612749,MIL,Milwaukee,203114,Khris Middleton,F,,35:51,93.7,108.0,-14.3,0.143,3.0,15.5,0.103,0.111,0.107,5.2,0.25,0.261,0.203,92.81,0.009,2014-01-11T00:00:00,6,1610612749,MIL,Milwaukee,7-29,10,25,27,23,0,0,0,0,0,0,0,0,0,0,85,0.395,0.643,0.387,22,40,15,0021300548,1610612749,MIL,Milwaukee,Khris Middleton,F,,35:51,0.0,1.0,0.0,0.0,14.0,23.0,8.0,32.0,0.0,0.0,3.0,2.0
0021300548,1610612749,MIL,Milwaukee,203114,Khris Middleton,F,,35:51,93.7,108.0,-14.3,0.143,3.0,15.5,0.103,0.111,0.107,5.2,0.25,0.261,0.203,92.81,0.009,2014-01-11T00:00:00,6,1610612760,OKC,Oklahoma City,28-9,14,24,39,24,0,0,0,0,0,0,0,0,0,0,101,0.407,0.778,0.4,24,58,17,0021300548,1610612749,MIL,Milwaukee,Khris Middleton,F,,35:51,0.0,1.0,0.0,0.0,14.0,23.0,8.0,32.0,0.0,0.0,3.0,2.0
0021300548,1610612749,MIL,Milwaukee,101141,Ersan Ilyasova,F,,25:53,88.7,102.6,-13.9,0.154,1.0,15.4,0.033,0.069,0.051,15.4,0.444,0.444,0.19,97.77,0.007,2014-01-11T00:00:00,6,1610612749,MIL,Milwaukee,7-29,10,25,27,23,0,0,0,0,0,0,0,0,0,0,85,0.395,0.643,0.387,22,40,15,0021300548,1610612749,MIL,Milwaukee,Ersan Ilyasova,F,,25:53,3.0,0.0,0.0,0.0,7.0,13.0,7.0,22.0,0.0,2.0,4.0,0.0
0021300548,1610612749,MIL,Milwaukee,101141,Ersan Ilyasova,F,,25:53,88.7,102.6,-13.9,0.154,1.0,15.4,0.033,0.069,0.051,15.4,0.444,0.444,0.19,97.77,0.007,2014-01-11T00:00:00,6,1610612760,OKC,Oklahoma City,28-9,14,24,39,24,0,0,0,0,0,0,0,0,0,0,101,0.407,0.778,0.4,24,58,17,0021300548,1610612749,MIL,Milwaukee,Ersan Ilyasova,F,,25:53,3.0,0.0,0.0,0.0,7.0,13.0,7.0,22.0,0.0,2.0,4.0,0.0
0021300548,1610612749,MIL,Milwaukee,202336,Larry Sanders,C,,6:30,15.4,62.1,-46.7,0.0,0.0,0.0,0.0,0.444,0.211,50.0,0.0,0.0,0.143,95.56,-0.083,2014-01-11T00:00:00,6,1610612749,MIL,Milwaukee,7-29,10,25,27,23,0,0,0,0,0,0,0,0,0,0,85,0.395,0.643,0.387,22,40,15,0021300548,1610612749,MIL,Milwaukee,Larry Sanders,C,,6:30,0.0,0.0,0.0,0.0,2.0,6.0,0.0,6.0,1.0,0.0,3.0,0.0
0021300548,1610612749,MIL,Milwaukee,202336,Larry Sanders,C,,6:30,15.4,62.1,-46.7,0.0,0.0,0.0,0.0,0.444,0.211,50.0,0.0,0.0,0.143,95.56,-0.083,2014-01-11T00:00:00,6,1610612760,OKC,Oklahoma City,28-9,14,24,39,24,0,0,0,0,0,0,0,0,0,0,101,0.407,0.778,0.4,24,58,17,0021300548,1610612749,MIL,Milwaukee,Larry Sanders,C,,6:30,0.0,0.0,0.0,0.0,2.0,6.0,0.0,6.0,1.0,0.0,3.0,0.0
0021300548,1610612749,MIL,Milwaukee,203507,Giannis Antetokounmpo,G,,38:09,99.6,109.3,-9.7,0.238,1.25,22.0,0.098,0.179,0.138,17.6,0.417,0.472,0.216,91.47,0.136,2014-01-11T00:00:00,6,1610612749,MIL,Milwaukee,7-29,10,25,27,23,0,0,0,0,0,0,0,0,0,0,85,0.395,0.643,0.387,22,40,15,0021300548,1610612749,MIL,Milwaukee,Giannis Antetokounmpo,G,,38:09,6.0,4.0,3.0,10.0,12.0,22.0,7.0,34.0,2.0,2.0,2.0,4.0
0021300548,1610612749,MIL,Milwaukee,203507,Giannis Antetokounmpo,G,,38:09,99.6,109.3,-9.7,0.238,1.25,22.0,0.098,0.179,0.138,17.6,0.417,0.472,0.216,91.47,0.136,2014-01-11T00:00:00,6,1610612760,OKC,Oklahoma City,28-9,14,24,39,24,0,0,0,0,0,0,0,0,0,0,101,0.407,0.778,0.4,24,58,17,0021300548,1610612749,MIL,Milwaukee,Giannis Antetokounmpo,G,,38:09,6.0,4.0,3.0,10.0,12.0,22.0,7.0,34.0,2.0,2.0,2.0,4.0
0021300548,1610612749,MIL,Milwaukee,202688,Brandon Knight,G,,34:40,95.3,114.4,-19.1,0.235,1.33,18.2,0.029,0.027,0.028,13.6,0.433,0.433,0.25,90.77,0.056,2014-01-11T00:00:00,6,1610612749,MIL,Milwaukee,7-29,10,25,27,23,0,0,0,0,0,0,0,0,0,0,85,0.395,0.643,0.387,22,40,15,0021300548,1610612749,MIL,Milwaukee,Brandon Knight,G,,34:40,0.0,2.0,0.0,8.0,9.0,19.0,4.0,36.0,0.0,1.0,1.0,3.0
0021300548,1610612749,MIL,Milwaukee,202688,Brandon Knight,G,,34:40,95.3,114.4,-19.1,0.235,1.33,18.2,0.029,0.027,0.028,13.6,0.433,0.433,0.25,90.77,0.056,2014-01-11T00:00:00,6,1610612760,OKC,Oklahoma City,28-9,14,24,39,24,0,0,0,0,0,0,0,0,0,0,101,0.407,0.778,0.4,24,58,17,0021300548,1610612749,MIL,Milwaukee,Brandon Knight,G,,34:40,0.0,2.0,0.0,8.0,9.0,19.0,4.0,36.0,0.0,1.0,1.0,3.0
0021300548,1610612749,MIL,Milwaukee,203545,Miroslav Raduljica,,,16:43,88.1,107.1,-19.0,0.0,0.0,0.0,0.071,0.2,0.125,0.0,0.5,0.615,0.218,92.24,0.107,2014-01-11T00:00:00,6,1610612749,MIL,Milwaukee,7-29,10,25,27,23,0,0,0,0,0,0,0,0,0,0,85,0.395,0.643,0.387,22,40,15,0021300548,1610612749,MIL,Milwaukee,Miroslav Raduljica,,,16:43,2.0,2.0,0.0,6.0,7.0,10.0,6.0,12.0,0.0,1.0,5.0,2.0
0021300548,1610612749,MIL,Milwaukee,203545,Miroslav Raduljica,,,16:43,88.1,107.1,-19.0,0.0,0.0,0.0,0.071,0.2,0.125,0.0,0.5,0.615,0.218,92.24,0.107,2014-01-11T00:00:00,6,1610612760,OKC,Oklahoma City,28-9,14,24,39,24,0,0,0,0,0,0,0,0,0,0,101,0.407,0.778,0.4,24,58,17,0021300548,1610612749,MIL,Milwaukee,Miroslav Raduljica,,,16:43,2.0,2.0,0.0,6.0,7.0,10.0,6.0,12.0,0.0,1.0,5.0,2.0
0021300548,1610612749,MIL,Milwaukee,201564,O.J. Mayo,,,30:06,98.1,105.1,-7.1,0.188,1.5,16.9,0.0,0.069,0.034,11.3,0.636,0.627,0.23,92.49,0.102,2014-01-11T00:00:00,6,1610612749,MIL,Milwaukee,7-29,10,25,27,23,0,0,0,0,0,0,0,0,0,0,85,0.395,0.643,0.387,22,40,15,0021300548,1610612749,MIL,Milwaukee,O.J. Mayo,,,30:06,3.0,0.0,4.0,0.0,11.0,14.0,9.0,24.0,0.0,0.0,2.0,2.0
0021300548,1610612749,MIL,Milwaukee,201564,O.J. Mayo,,,30:06,98.1,105.1,-7.1,0.188,1.5,16.9,0.0,0.069,0.034,11.3,0.636,0.627,0.23,92.49,0.102,2014-01-11T00:00:00,6,1610612760,OKC,Oklahoma City,28-9,14,24,39,24,0,0,0,0,0,0,0,0,0,0,101,0.407,0.778,0.4,24,58,17,0021300548,1610612749,MIL,Milwaukee,O.J. Mayo,,,30:06,3.0,0.0,4.0,0.0,11.0,14.0,9.0,24.0,0.0,0.0,2.0,2.0
0021300548,1610612749,MIL,Milwaukee,2557,Luke Ridnour,,,28:08,98.2,106.3,-8.2,0.385,2.5,27.8,0.0,0.042,0.019,11.1,0.727,0.727,0.217,92.51,0.151,2014-01-11T00:00:00,6,1610612749,MIL,Milwaukee,7-29,10,25,27,23,0,0,0,0,0,0,0,0,0,0,85,0.395,0.643,0.387,22,40,15,0021300548,1610612749,MIL,Milwaukee,Luke Ridnour,,,28:08,3.0,6.0,0.0,2.0,11.0,14.0,7.0,24.0,0.0,0.0,1.0,0.0
0021300548,1610612749,MIL,Milwaukee,2557,Luke Ridnour,,,28:08,98.2,106.3,-8.2,0.385,2.5,27.8,0.0,0.042,0.019,11.1,0.727,0.727,0.217,92.51,0.151,2014-01-11T00:00:00,6,1610612760,OKC,Oklahoma City,28-9,14,24,39,24,0,0,0,0,0,0,0,0,0,0,101,0.407,0.778,0.4,24,58,17,0021300548,1610612749,MIL,Milwaukee,Luke Ridnour,,,28:08,3.0,6.0,0.0,2.0,11.0,14.0,7.0,24.0,0.0,0.0,1.0,0.0
0021300548,1610612749,MIL,Milwaukee,202327,Ekpe Udoh,,,24:00,109.7,105.9,3.8,0.0,0.0,0.0,0.091,0.148,0.122,0.0,0.5,0.5,0.039,90.04,0.071,2014-01-11T00:00:00,6,1610612749,MIL,Milwaukee,7-29,10,25,27,23,0,0,0,0,0,0,0,0,0,0,85,0.395,0.643,0.387,22,40,15,0021300548,1610612749,MIL,Milwaukee,Ekpe Udoh,,,24:00,0.0,0.0,0.0,0.0,7.0,14.0,7.0,20.0,1.0,1.0,2.0,3.0
0021300548,1610612749,MIL,Milwaukee,202327,Ekpe Udoh,,,24:00,109.7,105.9,3.8,0.0,0.0,0.0,0.091,0.148,0.122,0.0,0.5,0.5,0.039,90.04,0.071,2014-01-11T00:00:00,6,1610612760,OKC,Oklahoma City,28-9,14,24,39,24,0,0,0,0,0,0,0,0,0,0,101,0.407,0.778,0.4,24,58,17,0021300548,1610612749,MIL,Milwaukee,Ekpe Udoh,,,24:00,0.0,0.0,0.0,0.0,7.0,14.0,7.0,20.0,1.0,1.0,2.0,3.0
0021300548,1610612749,MIL,Milwaukee,2406,Caron Butler,,DNP - Coach's Decision,,,,,,,0.0,,,,,,,0.0,,,2014-01-11T00:00:00,6,1610612749,MIL,Milwaukee,7-29,10,25,27,23,0,0,0,0,0,0,0,0,0,0,85,0.395,0.643,0.387,22,40,15,0021300548,1610612749,MIL,Milwaukee,Caron Butler,,DNP - Coach's Decision,,,,,,,,,,,,,
0021300548,1610612749,MIL,Milwaukee,2406,Caron Butler,,DNP - Coach's Decision,,,,,,,0.0,,,,,,,0.0,,,2014-01-11T00:00:00,6,1610612760,OKC,Oklahoma City,28-9,14,24,39,24,0,0,0,0,0,0,0,0,0,0,101,0.407,0.778,0.4,24,58,17,0021300548,1610612749,MIL,Milwaukee,Caron Butler,,DNP - Coach's Decision,,,,,,,,,,,,,
0021300548,1610612749,MIL,Milwaukee,203089,John Henson,,DNP - Coach's Decision,,,,,,,0.0,,,,,,,0.0,,,2014-01-11T00:00:00,6,1610612749,MIL,Milwaukee,7-29,10,25,27,23,0,0,0,0,0,0,0,0,0,0,85,0.395,0.643,0.387,22,40,15,0021300548,1610612749,MIL,Milwaukee,John Henson,,DNP - Coach's Decision,,,,,,,,,,,,,
0021300548,1610612749,MIL,Milwaukee,203089,John Henson,,DNP - Coach's Decision,,,,,,,0.0,,,,,,,0.0,,,2014-01-11T00:00:00,6,1610612760,OKC,Oklahoma City,28-9,14,24,39,24,0,0,0,0,0,0,0,0,0,0,101,0.407,0.778,0.4,24,58,17,0021300548,1610612749,MIL,Milwaukee,John Henson,,DNP - Coach's Decision,,,,,,,,,,,,,
0021300548,1610612749,MIL,Milwaukee,202390,Gary Neal,,DNP - Coach's Decision,,,,,,,0.0,,,,,,,0.0,,,2014-01-11T00:00:00,6,1610612749,MIL,Milwaukee,7-29,10,25,27,23,0,0,0,0,0,0,0,0,0,0,85,0.395,0.643,0.387,22,40,15,0021300548,1610612749,MIL,Milwaukee,Gary Neal,,DNP - Coach's Decision,,,,,,,,,,,,,
0021300548,1610612749,MIL,Milwaukee,202390,Gary Neal,,DNP - Coach's Decision,,,,,,,0.0,,,,,,,0.0,,,2014-01-11T00:00:00,6,1610612760,OKC,Oklahoma City,28-9,14,24,39,24,0,0,0,0,0,0,0,0,0,0,101,0.407,0.778,0.4,24,58,17,0021300548,1610612749,MIL,Milwaukee,Gary Neal,,DNP - Coach's Decision,,,,,,,,,,,,,
0021300548,1610612749,MIL,Milwaukee,203489,Nate Wolters,,DNP - Coach's Decision,,,,,,,0.0,,,,,,,0.0,,,2014-01-11T00:00:00,6,1610612749,MIL,Milwaukee,7-29,10,25,27,23,0,0,0,0,0,0,0,0,0,0,85,0.395,0.643,0.387,22,40,15,0021300548,1610612749,MIL,Milwaukee,Nate Wolters,,DNP - Coach's Decision,,,,,,,,,,,,,
0021300548,1610612749,MIL,Milwaukee,203489,Nate Wolters,,DNP - Coach's Decision,,,,,,,0.0,,,,,,,0.0,,,2014-01-11T00:00:00,6,1610612760,OKC,Oklahoma City,28-9,14,24,39,24,0,0,0,0,0,0,0,0,0,0,101,0.407,0.778,0.4,24,58,17,0021300548,1610612749,MIL,Milwaukee,Nate Wolters,,DNP - Coach's Decision,,,,,,,,,,,,,
0021300548,1610612760,OKC,Oklahoma City,201142,Kevin Durant,F,,39:57,113.4,92.0,21.4,0.304,3.5,20.3,0.027,0.196,0.12,5.8,0.5,0.648,0.278,95.61,0.268,2014-01-11T00:00:00,6,1610612749,MIL,Milwaukee,7-29,10,25,27,23,0,0,0,0,0,0,0,0,0,0,85,0.395,0.643,0.387,22,40,15,0021300548,1610612760,OKC,Oklahoma City,Kevin Durant,F,,39:57,4.0,8.0,5.0,12.0,17.0,15.0,4.0,26.0,1.0,2.0,1.0,10.0
0021300548,1610612760,OKC,Oklahoma City,201142,Kevin Durant,F,,39:57,113.4,92.0,21.4,0.304,3.5,20.3,0.027,0.196,0.12,5.8,0.5,0.648,0.278,95.61,0.268,2014-01-11T00:00:00,6,1610612760,OKC,Oklahoma City,28-9,14,24,39,24,0,0,0,0,0,0,0,0,0,0,101,0.407,0.778,0.4,24,58,17,0021300548,1610612760,OKC,Oklahoma City,Kevin Durant,F,,39:57,4.0,8.0,5.0,12.0,17.0,15.0,4.0,26.0,1.0,2.0,1.0,10.0
0021300548,1610612760,OKC,Oklahoma City,201586,Serge Ibaka,F,,32:37,104.9,88.3,16.6,0.063,0.33,5.3,0.194,0.262,0.233,15.9,0.536,0.571,0.23,94.33,0.237,2014-01-11T00:00:00,6,1610612749,MIL,Milwaukee,7-29,10,25,27,23,0,0,0,0,0,0,0,0,0,0,85,0.395,0.643,0.387,22,40,15,0021300548,1610612760,OKC,Oklahoma City,Serge Ibaka,F,,32:37,0.0,4.0,0.0,10.0,11.0,14.0,4.0,26.0,3.0,0.0,0.0,3.0
0021300548,1610612760,OKC,Oklahoma City,201586,Serge Ibaka,F,,32:37,104.9,88.3,16.6,0.063,0.33,5.3,0.194,0.262,0.233,15.9,0.536,0.571,0.23,94.33,0.237,2014-01-11T00:00:00,6,1610612760,OKC,Oklahoma City,28-9,14,24,39,24,0,0,0,0,0,0,0,0,0,0,101,0.407,0.778,0.4,24,58,17,0021300548,1610612760,OKC,Oklahoma City,Serge Ibaka,F,,32:37,0.0,4.0,0.0,10.0,11.0,14.0,4.0,26.0,3.0,0.0,0.0,3.0
0021300548,1610612760,OKC,Oklahoma City,2570,Kendrick Perkins,C,,20:39,88.1,91.8,-3.7,0.0,0.0,0.0,0.13,0.192,0.163,40.5,0.2,0.255,0.199,91.72,-0.053,2014-01-11T00:00:00,6,1610612749,MIL,Milwaukee,7-29,10,25,27,23,0,0,0,0,0,0,0,0,0,0,85,0.395,0.643,0.387,22,40,15,0021300548,1610612760,OKC,Oklahoma City,Kendrick Perkins,C,,20:39,0.0,3.0,0.0,2.0,9.0,7.0,3.0,16.0,0.0,1.0,3.0,3.0
0021300548,1610612760,OKC,Oklahoma City,2570,Kendrick Perkins,C,,20:39,88.1,91.8,-3.7,0.0,0.0,0.0,0.13,0.192,0.163,40.5,0.2,0.255,0.199,91.72,-0.053,2014-01-11T00:00:00,6,1610612760,OKC,Oklahoma City,28-9,14,24,39,24,0,0,0,0,0,0,0,0,0,0,101,0.407,0.778,0.4,24,58,17,0021300548,1610612760,OKC,Oklahoma City,Kendrick Perkins,C,,20:39,0.0,3.0,0.0,2.0,9.0,7.0,3.0,16.0,0.0,1.0,3.0,3.0
0021300548,1610612760,OKC,Oklahoma City,200757,Thabo Sefolosha,G,,38:49,99.8,87.9,12.0,0.211,4.0,19.0,0.07,0.068,0.069,4.8,0.438,0.438,0.185,90.86,0.121,2014-01-11T00:00:00,6,1610612749,MIL,Milwaukee,7-29,10,25,27,23,0,0,0,0,0,0,0,0,0,0,85,0.395,0.643,0.387,22,40,15,0021300548,1610612760,OKC,Oklahoma City,Thabo Sefolosha,G,,38:49,5.0,5.0,2.0,6.0,7.0,13.0,5.0,22.0,2.0,0.0,2.0,0.0
0021300548,1610612760,OKC,Oklahoma City,200757,Thabo Sefolosha,G,,38:49,99.8,87.9,12.0,0.211,4.0,19.0,0.07,0.068,0.069,4.8,0.438,0.438,0.185,90.86,0.121,2014-01-11T00:00:00,6,1610612760,OKC,Oklahoma City,28-9,14,24,39,24,0,0,0,0,0,0,0,0,0,0,101,0.407,0.778,0.4,24,58,17,0021300548,1610612760,OKC,Oklahoma City,Thabo Sefolosha,G,,38:49,5.0,5.0,2.0,6.0,7.0,13.0,5.0,22.0,2.0,0.0,2.0,0.0
0021300548,1610612760,OKC,Oklahoma City,202704,Reggie Jackson,G,,24:10,103.7,95.4,8.4,0.176,1.5,23.1,0.0,0.069,0.036,15.4,0.125,0.125,0.161,93.59,-0.028,2014-01-11T00:00:00,6,1610612749,MIL,Milwaukee,7-29,10,25,27,23,0,0,0,0,0,0,0,0,0,0,85,0.395,0.643,0.387,22,40,15,0021300548,1610612760,OKC,Oklahoma City,Reggie Jackson,G,,24:10,0.0,0.0,0.0,2.0,9.0,9.0,3.0,18.0,0.0,1.0,2.0,0.0
0021300548,1610612760,OKC,Oklahoma City,202704,Reggie Jackson,G,,24:10,103.7,95.4,8.4,0.176,1.5,23.1,0.0,0.069,0.036,15.4,0.125,0.125,0.161,93.59,-0.028,2014-01-11T00:00:00,6,1610612760,OKC,Oklahoma City,28-9,14,24,39,24,0,0,0,0,0,0,0,0,0,0,101,0.407,0.778,0.4,24,58,17,0021300548,1610612760,OKC,Oklahoma City,Reggie Jackson,G,,24:10,0.0,0.0,0.0,2.0,9.0,9.0,3.0,18.0,0.0,1.0,2.0,0.0
0021300548,1610612760,OKC,Oklahoma City,965,Derek Fisher,,,23:50,109.4,93.2,16.2,0.385,5.0,33.3,0.091,0.095,0.093,6.7,0.556,0.556,0.186,91.43,0.147,2014-01-11T00:00:00,6,1610612749,MIL,Milwaukee,7-29,10,25,27,23,0,0,0,0,0,0,0,0,0,0,85,0.395,0.643,0.387,22,40,15,0021300548,1610612760,OKC,Oklahoma City,Derek Fisher,,,23:50,5.0,2.0,0.0,0.0,8.0,6.0,4.0,8.0,0.0,0.0,2.0,1.0
0021300548,1610612760,OKC,Oklahoma City,965,Derek Fisher,,,23:50,109.4,93.2,16.2,0.385,5.0,33.3,0.091,0.095,0.093,6.7,0.556,0.556,0.186,91.43,0.147,2014-01-11T00:00:00,6,1610612760,OKC,Oklahoma City,28-9,14,24,39,24,0,0,0,0,0,0,0,0,0,0,101,0.407,0.778,0.4,24,58,17,0021300548,1610612760,OKC,Oklahoma City,Derek Fisher,,,23:50,5.0,2.0,0.0,0.0,8.0,6.0,4.0,8.0,0.0,0.0,2.0,1.0
0021300548,1610612760,OKC,Oklahoma City,203500,Steven Adams,,,11:08,87.8,75.5,12.3,0.143,0.0,21.0,0.182,0.375,0.263,0.0,0.0,0.133,0.147,89.52,0.0,2014-01-11T00:00:00,6,1610612749,MIL,Milwaukee,7-29,10,25,27,23,0,0,0,0,0,0,0,0,0,0,85,0.395,0.643,0.387,22,40,15,0021300548,1610612760,OKC,Oklahoma City,Steven Adams,,,11:08,0.0,0.0,0.0,0.0,2.0,2.0,0.0,2.0,0.0,0.0,1.0,2.0
0021300548,1610612760,OKC,Oklahoma City,203500,Steven Adams,,,11:08,87.8,75.5,12.3,0.143,0.0,21.0,0.182,0.375,0.263,0.0,0.0,0.133,0.147,89.52,0.0,2014-01-11T00:00:00,6,1610612760,OKC,Oklahoma City,28-9,14,24,39,24,0,0,0,0,0,0,0,0,0,0,101,0.407,0.778,0.4,24,58,17,0021300548,1610612760,OKC,Oklahoma City,Steven Adams,,,11:08,0.0,0.0,0.0,0.0,2.0,2.0,0.0,2.0,0.0,0.0,1.0,2.0
0021300548,1610612760,OKC,Oklahoma City,203087,Jeremy Lamb,,,28:28,122.1,99.3,22.8,0.1,0.67,12.6,0.08,0.04,0.06,18.9,0.75,0.781,0.201,94.06,0.122,2014-01-11T00:00:00,6,1610612749,MIL,Milwaukee,7-29,10,25,27,23,0,0,0,0,0,0,0,0,0,0,85,0.395,0.643,0.387,22,40,15,0021300548,1610612760,OKC,Oklahoma City,Jeremy Lamb,,,28:28,2.0,3.0,2.0,6.0,10.0,8.0,6.0,12.0,1.0,0.0,2.0,1.0
0021300548,1610612760,OKC,Oklahoma City,203087,Jeremy Lamb,,,28:28,122.1,99.3,22.8,0.1,0.67,12.6,0.08,0.04,0.06,18.9,0.75,0.781,0.201,94.06,0.122,2014-01-11T00:00:00,6,1610612760,OKC,Oklahoma City,28-9,14,24,39,24,0,0,0,0,0,0,0,0,0,0,101,0.407,0.778,0.4,24,58,17,0021300548,1610612760,OKC,Oklahoma City,Jeremy Lamb,,,28:28,2.0,3.0,2.0,6.0,10.0,8.0,6.0,12.0,1.0,0.0,2.0,1.0
0021300548,1610612760,OKC,Oklahoma City,2555,Nick Collison,,,13:38,114.0,117.1,-3.2,0.111,0.0,25.0,0.133,0.143,0.136,0.0,0.667,0.667,0.088,91.47,0.06,2014-01-11T00:00:00,6,1610612749,MIL,Milwaukee,7-29,10,25,27,23,0,0,0,0,0,0,0,0,0,0,85,0.395,0.643,0.387,22,40,15,0021300548,1610612760,OKC,Oklahoma City,Nick Collison,,,13:38,0.0,2.0,2.0,4.0,6.0,1.0,3.0,0.0,0.0,0.0,3.0,2.0
0021300548,1610612760,OKC,Oklahoma City,2555,Nick Collison,,,13:38,114.0,117.1,-3.2,0.111,0.0,25.0,0.133,0.143,0.136,0.0,0.667,0.667,0.088,91.47,0.06,2014-01-11T00:00:00,6,1610612760,OKC,Oklahoma City,28-9,14,24,39,24,0,0,0,0,0,0,0,0,0,0,101,0.407,0.778,0.4,24,58,17,0021300548,1610612760,OKC,Oklahoma City,Nick Collison,,,13:38,0.0,2.0,2.0,4.0,6.0,1.0,3.0,0.0,0.0,0.0,3.0,2.0
0021300548,1610612760,OKC,Oklahoma City,203103,Perry Jones III,,,6:44,109.4,160.0,-50.6,0.0,0.0,0.0,0.0,0.0,0.0,50.0,0.0,0.0,0.126,77.99,-0.069,2014-01-11T00:00:00,6,1610612749,MIL,Milwaukee,7-29,10,25,27,23,0,0,0,0,0,0,0,0,0,0,85,0.395,0.643,0.387,22,40,15,0021300548,1610612760,OKC,Oklahoma City,Perry Jones III,,,6:44,0.0,0.0,0.0,0.0,6.0,0.0,3.0,0.0,0.0,0.0,0.0,1.0
0021300548,1610612760,OKC,Oklahoma City,203103,Perry Jones III,,,6:44,109.4,160.0,-50.6,0.0,0.0,0.0,0.0,0.0,0.0,50.0,0.0,0.0,0.126,77.99,-0.069,2014-01-11T00:00:00,6,1610612760,OKC,Oklahoma City,28-9,14,24,39,24,0,0,0,0,0,0,0,0,0,0,101,0.407,0.778,0.4,24,58,17,0021300548,1610612760,OKC,Oklahoma City,Perry Jones III,,,6:44,0.0,0.0,0.0,0.0,6.0,0.0,3.0,0.0,0.0,0.0,0.0,1.0
0021300548,1610612760,OKC,Oklahoma City,201934,Hasheem Thabeet,,DNP - Coach's Decision,,,,,,,0.0,,,,,,,0.0,,,2014-01-11T00:00:00,6,1610612749,MIL,Milwaukee,7-29,10,25,27,23,0,0,0,0,0,0,0,0,0,0,85,0.395,0.643,0.387,22,40,15,0021300548,1610612760,OKC,Oklahoma City,Hasheem Thabeet,,DNP - Coach's Decision,,,,,,,,,,,,,
0021300548,1610612760,OKC,Oklahoma City,201934,Hasheem Thabeet,,DNP - Coach's Decision,,,,,,,0.0,,,,,,,0.0,,,2014-01-11T00:00:00,6,1610612760,OKC,Oklahoma City,28-9,14,24,39,24,0,0,0,0,0,0,0,0,0,0,101,0.407,0.778,0.4,24,58,17,0021300548,1610612760,OKC,Oklahoma City,Hasheem Thabeet,,DNP - Coach's Decision,,,,,,,,,,,,,
