GAME_ID_x,TEAM_ID_x,TEAM_ABBREVIATION_x,TEAM_CITY_x,PLAYER_ID,PLAYER_NAME_x,START_POSITION_x,COMMENT_x,MIN_x,OFF_RATING,DEF_RATING,NET_RATING,AST_PCT,AST_TOV,AST_RATIO,OREB_PCT,DREB_PCT,REB_PCT,TM_TOV_PCT,EFG_PCT,TS_PCT,USG_PCT,PACE,PIE,GAME_DATE_EST,GAME_SEQUENCE,TEAM_ID_y,TEAM_ABBREVIATION_y,TEAM_CITY_NAME,TEAM_WINS_LOSSES,PTS_QTR1,PTS_QTR2,PTS_QTR3,PTS_QTR4,PTS_OT1,PTS_OT2,PTS_OT3,PTS_OT4,PTS_OT5,PTS_OT6,PTS_OT7,PTS_OT8,PTS_OT9,PTS_OT10,PTS,FG_PCT,FT_PCT,FG3_PCT,AST,REB,TOV,GAME_ID_y,TEAM_ID,TEAM_ABBREVIATION,TEAM_CITY_y,PLAYER_NAME_y,START_POSITION_y,COMMENT_y,MIN_y,PTS_OFF_TOV,PTS_2ND_CHANCE,PTS_FB,PTS_PAINT,OPP_PTS_OFF_TOV,OPP_PTS_2ND_CHANCE,OPP_PTS_FB,OPP_PTS_PAINT,BLK,BLKA,PF,PFD
0021300544,1610612745,HOU,Houston,200758,Ronnie Brewer,F,,17:09,137.8,112.6,25.2,0.0,0.0,0.0,0.071,0.0,0.033,0.0,0.5,0.5,0.05,98.51,0.019,2014-01-11T00:00:00,2,1610612745,HOU,Houston,24-14,29,34,31,20,0,0,0,0,0,0,0,0,0,0,114,0.521,0.714,0.444,22,43,19,0021300544,1610612745,HOU,Houston,Ronnie Brewer,F,,17:09,0.0,2.0,0.0,2.0,4.0,10.0,6.0,18.0,0.0,0.0,1.0,0.0
0021300544,1610612745,HOU,Houston,200758,Ronnie Brewer,F,,17:09,137.8,112.6,25.2,0.0,0.0,0.0,0.071,0.0,0.033,0.0,0.5,0.5,0.05,98.51,0.019,2014-01-11T00:00:00,2,1610612764,WAS,Washington,16-19,29,17,33,28,0,0,0,0,0,0,0,0,0,0,107,0.421,0.71,0.263,24,47,11,0021300544,1610612745,HOU,Houston,Ronnie Brewer,F,,17:09,0.0,2.0,0.0,2.0,4.0,10.0,6.0,18.0,0.0,0.0,1.0,0.0
0021300544,1610612745,HOU,Houston,203093,Terrence Jones,F,,30:24,115.5,107.0,8.5,0.056,0.33,5.0,0.115,0.412,0.283,14.9,0.5,0.586,0.277,100.11,0.227,2014-01-11T00:00:00,2,1610612745,HOU,Houston,24-14,29,34,31,20,0,0,0,0,0,0,0,0,0,0,114,0.521,0.714,0.444,22,43,19,0021300544,1610612745,HOU,Houston,Terrence Jones,F,,30:24,0.0,2.0,3.0,14.0,8.0,14.0,11.0,34.0,3.0,1.0,3.0,3.0
0021300544,1610612745,HOU,Houston,203093,Terrence Jones,F,,30:24,115.5,107.0,8.5,0.056,0.33,5.0,0.115,0.412,0.283,14.9,0.5,0.586,0.277,100.11,0.227,2014-01-11T00:00:00,2,1610612764,WAS,Washington,16-19,29,17,33,28,0,0,0,0,0,0,0,0,0,0,107,0.421,0.71,0.263,24,47,11,0021300544,1610612745,HOU,Houston,Terrence Jones,F,,30:24,0.0,2.0,3.0,14.0,8.0,14.0,11.0,34.0,3.0,1.0,3.0,3.0
0021300544,1610612745,HOU,Houston,2730,Dwight Howard,C,,34:18,118.2,99.3,18.9,0.1,0.4,7.0,0.071,0.143,0.111,17.6,0.588,0.537,0.342,99.16,0.07,2014-01-11T00:00:00,2,1610612745,HOU,Houston,24-14,29,34,31,20,0,0,0,0,0,0,0,0,0,0,114,0.521,0.714,0.444,22,43,19,0021300544,1610612745,HOU,Houston,Dwight Howard,C,,34:18,5.0,0.0,0.0,20.0,8.0,13.0,11.0,34.0,0.0,0.0,5.0,10.0
0021300544,1610612745,HOU,Houston,2730,Dwight Howard,C,,34:18,118.2,99.3,18.9,0.1,0.4,7.0,0.071,0.143,0.111,17.6,0.588,0.537,0.342,99.16,0.07,2014-01-11T00:00:00,2,1610612764,WAS,Washington,16-19,29,17,33,28,0,0,0,0,0,0,0,0,0,0,107,0.421,0.71,0.263,24,47,11,0021300544,1610612745,HOU,Houston,Dwight Howard,C,,34:18,5.0,0.0,0.0,20.0,8.0,13.0,11.0,34.0,0.0,0.0,5.0,10.0
0021300544,1610612745,HOU,Houston,201935,James Harden,G,,38:05,112.6,103.1,9.5,0.208,1.0,17.9,0.0,0.19,0.111,17.9,0.607,0.696,0.264,102.97,0.191,2014-01-11T00:00:00,2,1610612745,HOU,Houston,24-14,29,34,31,20,0,0,0,0,0,0,0,0,0,0,114,0.521,0.714,0.444,22,43,19,0021300544,1610612745,HOU,Houston,James Harden,G,,38:05,2.0,3.0,7.0,6.0,13.0,21.0,11.0,40.0,0.0,0.0,2.0,5.0
0021300544,1610612745,HOU,Houston,201935,James Harden,G,,38:05,112.6,103.1,9.5,0.208,1.0,17.9,0.0,0.19,0.111,17.9,0.607,0.696,0.264,102.97,0.191,2014-01-11T00:00:00,2,1610612764,WAS,Washington,16-19,29,17,33,28,0,0,0,0,0,0,0,0,0,0,107,0.421,0.71,0.263,24,47,11,0021300544,1610612745,HOU,Houston,James Harden,G,,38:05,2.0,3.0,7.0,6.0,13.0,21.0,11.0,40.0,0.0,0.0,2.0,5.0
0021300544,1610612745,HOU,Houston,202391,Jeremy Lin,G,,43:04,117.0,95.5,21.6,0.267,2.67,30.3,0.057,0.0,0.024,11.4,0.455,0.584,0.186,100.78,0.088,2014-01-11T00:00:00,2,1610612745,HOU,Houston,24-14,29,34,31,20,0,0,0,0,0,0,0,0,0,0,114,0.521,0.714,0.444,22,43,19,0021300544,1610612745,HOU,Houston,Jeremy Lin,G,,43:04,6.0,4.0,3.0,8.0,11.0,19.0,13.0,40.0,0.0,1.0,5.0,9.0
0021300544,1610612745,HOU,Houston,202391,Jeremy Lin,G,,43:04,117.0,95.5,21.6,0.267,2.67,30.3,0.057,0.0,0.024,11.4,0.455,0.584,0.186,100.78,0.088,2014-01-11T00:00:00,2,1610612764,WAS,Washington,16-19,29,17,33,28,0,0,0,0,0,0,0,0,0,0,107,0.421,0.71,0.263,24,47,11,0021300544,1610612745,HOU,Houston,Jeremy Lin,G,,43:04,6.0,4.0,3.0,8.0,11.0,19.0,13.0,40.0,0.0,1.0,5.0,9.0
0021300544,1610612745,HOU,Houston,101128,Francisco Garcia,,,31:10,100.7,97.1,3.6,0.167,0.0,50.0,0.04,0.081,0.065,0.0,1.0,1.0,0.042,105.9,0.112,2014-01-11T00:00:00,2,1610612745,HOU,Houston,24-14,29,34,31,20,0,0,0,0,0,0,0,0,0,0,114,0.521,0.714,0.444,22,43,19,0021300544,1610612745,HOU,Houston,Francisco Garcia,,,31:10,0.0,0.0,0.0,0.0,9.0,14.0,9.0,32.0,1.0,0.0,3.0,0.0
0021300544,1610612745,HOU,Houston,101128,Francisco Garcia,,,31:10,100.7,97.1,3.6,0.167,0.0,50.0,0.04,0.081,0.065,0.0,1.0,1.0,0.042,105.9,0.112,2014-01-11T00:00:00,2,1610612764,WAS,Washington,16-19,29,17,33,28,0,0,0,0,0,0,0,0,0,0,107,0.421,0.71,0.263,24,47,11,0021300544,1610612745,HOU,Houston,Francisco Garcia,,,31:10,0.0,0.0,0.0,0.0,9.0,14.0,9.0,32.0,1.0,0.0,3.0,0.0
0021300544,1610612745,HOU,Houston,201956,Omri Casspi,,,17:36,107.3,97.0,10.2,0.222,2.0,20.5,0.0,0.118,0.067,10.2,1.0,1.036,0.189,106.8,0.228,2014-01-11T00:00:00,2,1610612745,HOU,Houston,24-14,29,34,31,20,0,0,0,0,0,0,0,0,0,0,114,0.521,0.714,0.444,22,43,19,0021300544,1610612745,HOU,Houston,Omri Casspi,,,17:36,2.0,5.0,4.0,4.0,5.0,9.0,4.0,16.0,0.0,0.0,3.0,3.0
0021300544,1610612745,HOU,Houston,201956,Omri Casspi,,,17:36,107.3,97.0,10.2,0.222,2.0,20.5,0.0,0.118,0.067,10.2,1.0,1.036,0.189,106.8,0.228,2014-01-11T00:00:00,2,1610612764,WAS,Washington,16-19,29,17,33,28,0,0,0,0,0,0,0,0,0,0,107,0.421,0.71,0.263,24,47,11,0021300544,1610612745,HOU,Houston,Omri Casspi,,,17:36,2.0,5.0,4.0,4.0,5.0,9.0,4.0,16.0,0.0,0.0,3.0,3.0
0021300544,1610612745,HOU,Houston,201166,Aaron Brooks,,,14:51,99.2,125.3,-26.1,0.111,1.0,14.3,0.0,0.083,0.04,14.3,0.3,0.3,0.17,106.67,0.0,2014-01-11T00:00:00,2,1610612745,HOU,Houston,24-14,29,34,31,20,0,0,0,0,0,0,0,0,0,0,114,0.521,0.714,0.444,22,43,19,0021300544,1610612745,HOU,Houston,Aaron Brooks,,,14:51,0.0,0.0,0.0,0.0,2.0,6.0,6.0,20.0,0.0,0.0,0.0,0.0
0021300544,1610612745,HOU,Houston,201166,Aaron Brooks,,,14:51,99.2,125.3,-26.1,0.111,1.0,14.3,0.0,0.083,0.04,14.3,0.3,0.3,0.17,106.67,0.0,2014-01-11T00:00:00,2,1610612764,WAS,Washington,16-19,29,17,33,28,0,0,0,0,0,0,0,0,0,0,107,0.421,0.71,0.263,24,47,11,0021300544,1610612745,HOU,Houston,Aaron Brooks,,,14:51,0.0,0.0,0.0,0.0,2.0,6.0,6.0,20.0,0.0,0.0,0.0,0.0
0021300544,1610612745,HOU,Houston,202962,Greg Smith,,,13:24,95.4,115.6,-20.2,0.0,0.0,0.0,0.0,0.071,0.04,21.0,0.5,0.532,0.147,108.68,-0.029,2014-01-11T00:00:00,2,1610612745,HOU,Houston,24-14,29,34,31,20,0,0,0,0,0,0,0,0,0,0,114,0.521,0.714,0.444,22,43,19,0021300544,1610612745,HOU,Houston,Greg Smith,,,13:24,0.0,0.0,4.0,2.0,5.0,9.0,4.0,16.0,1.0,1.0,3.0,2.0
0021300544,1610612745,HOU,Houston,202962,Greg Smith,,,13:24,95.4,115.6,-20.2,0.0,0.0,0.0,0.0,0.071,0.04,21.0,0.5,0.532,0.147,108.68,-0.029,2014-01-11T00:00:00,2,1610612764,WAS,Washington,16-19,29,17,33,28,0,0,0,0,0,0,0,0,0,0,107,0.421,0.71,0.263,24,47,11,0021300544,1610612745,HOU,Houston,Greg Smith,,,13:24,0.0,0.0,4.0,2.0,5.0,9.0,4.0,16.0,1.0,1.0,3.0,2.0
0021300544,1610612745,HOU,Houston,201600,Omer Asik,,DNP - Coach's Decision,,,,,,,0.0,,,,,,,0.0,,,2014-01-11T00:00:00,2,1610612745,HOU,Houston,24-14,29,34,31,20,0,0,0,0,0,0,0,0,0,0,114,0.521,0.714,0.444,22,43,19,0021300544,1610612745,HOU,Houston,Omer Asik,,DNP - Coach's Decision,,,,,,,,,,,,,
0021300544,1610612745,HOU,Houston,201600,Omer Asik,,DNP - Coach's Decision,,,,,,,0.0,,,,,,,0.0,,,2014-01-11T00:00:00,2,1610612764,WAS,Washington,16-19,29,17,33,28,0,0,0,0,0,0,0,0,0,0,107,0.421,0.71,0.263,24,47,11,0021300544,1610612745,HOU,Houston,Omer Asik,,DNP - Coach's Decision,,,,,,,,,,,,,
0021300544,1610612745,HOU,Houston,203477,Isaiah Canaan,,DNP - Coach's Decision,,,,,,,0.0,,,,,,,0.0,,,2014-01-11T00:00:00,2,1610612745,HOU,Houston,24-14,29,34,31,20,0,0,0,0,0,0,0,0,0,0,114,0.521,0.714,0.444,22,43,19,0021300544,1610612745,HOU,Houston,Isaiah Canaan,,DNP - Coach's Decision,,,,,,,,,,,,,
0021300544,1610612745,HOU,Houston,203477,Isaiah Canaan,,DNP - Coach's Decision,,,,,,,0.0,,,,,,,0.0,,,2014-01-11T00:00:00,2,1610612764,WAS,Washington,16-19,29,17,33,28,0,0,0,0,0,0,0,0,0,0,107,0.421,0.71,0.263,24,47,11,0021300544,1610612745,HOU,Houston,Isaiah Canaan,,DNP - Coach's Decision,,,,,,,,,,,,,
0021300544,1610612745,HOU,Houston,202700,Donatas Motiejunas,,DNP - Coach's Decision,,,,,,,0.0,,,,,,,0.0,,,2014-01-11T00:00:00,2,1610612745,HOU,Houston,24-14,29,34,31,20,0,0,0,0,0,0,0,0,0,0,114,0.521,0.714,0.444,22,43,19,0021300544,1610612745,HOU,Houston,Donatas Motiejunas,,DNP - Coach's Decision,,,,,,,,,,,,,
0021300544,1610612745,HOU,Houston,202700,Donatas Motiejunas,,DNP - Coach's Decision,,,,,,,0.0,,,,,,,0.0,,,2014-01-11T00:00:00,2,1610612764,WAS,Washington,16-19,29,17,33,28,0,0,0,0,0,0,0,0,0,0,107,0.421,0.71,0.263,24,47,11,0021300544,1610612745,HOU,Houston,Donatas Motiejunas,,DNP - Coach's Decision,,,,,,,,,,,,,
0021300544,1610612745,HOU,Houston,202718,Chandler Parsons,,DND - Sore Right Knee,,,,,,,0.0,,,,,,,0.0,,,2014-01-11T00:00:00,2,1610612745,HOU,Houston,24-14,29,34,31,20,0,0,0,0,0,0,0,0,0,0,114,0.521,0.714,0.444,22,43,19,0021300544,1610612745,HOU,Houston,Chandler Parsons,,DND - Sore Right Knee,,,,,,,,,,,,,
0021300544,1610612745,HOU,Houston,202718,Chandler Parsons,,DND - Sore Right Knee,,,,,,,0.0,,,,,,,0.0,,,2014-01-11T00:00:00,2,1610612764,WAS,Washington,16-19,29,17,33,28,0,0,0,0,0,0,0,0,0,0,107,0.421,0.71,0.263,24,47,11,0021300544,1610612745,HOU,Houston,Chandler Parsons,,DND - Sore Right Knee,,,,,,,,,,,,,
0021300544,1610612764,WAS,Washington,2772,Trevor Ariza,F,,44:59,105.5,116.5,-11.0,0.065,1.0,8.7,0.041,0.343,0.167,8.7,0.531,0.603,0.185,102.02,0.167,2014-01-11T00:00:00,2,1610612745,HOU,Houston,24-14,29,34,31,20,0,0,0,0,0,0,0,0,0,0,114,0.521,0.714,0.444,22,43,19,0021300544,1610612764,WAS,Washington,Trevor Ariza,F,,44:59,4.0,6.0,2.0,8.0,13.0,16.0,19.0,56.0,0.0,1.0,4.0,5.0
0021300544,1610612764,WAS,Washington,2772,Trevor Ariza,F,,44:59,105.5,116.5,-11.0,0.065,1.0,8.7,0.041,0.343,0.167,8.7,0.531,0.603,0.185,102.02,0.167,2014-01-11T00:00:00,2,1610612764,WAS,Washington,16-19,29,17,33,28,0,0,0,0,0,0,0,0,0,0,107,0.421,0.71,0.263,24,47,11,0021300544,1610612764,WAS,Washington,Trevor Ariza,F,,44:59,4.0,6.0,2.0,8.0,13.0,16.0,19.0,56.0,0.0,1.0,4.0,5.0
0021300544,1610612764,WAS,Washington,202344,Trevor Booker,F,,17:59,110.5,145.8,-35.3,0.0,0.0,0.0,0.231,0.077,0.154,0.0,0.8,0.8,0.121,98.65,0.081,2014-01-11T00:00:00,2,1610612745,HOU,Houston,24-14,29,34,31,20,0,0,0,0,0,0,0,0,0,0,114,0.521,0.714,0.444,22,43,19,0021300544,1610612764,WAS,Washington,Trevor Booker,F,,17:59,0.0,6.0,0.0,8.0,9.0,14.0,9.0,28.0,1.0,0.0,3.0,1.0
0021300544,1610612764,WAS,Washington,202344,Trevor Booker,F,,17:59,110.5,145.8,-35.3,0.0,0.0,0.0,0.231,0.077,0.154,0.0,0.8,0.8,0.121,98.65,0.081,2014-01-11T00:00:00,2,1610612764,WAS,Washington,16-19,29,17,33,28,0,0,0,0,0,0,0,0,0,0,107,0.421,0.71,0.263,24,47,11,0021300544,1610612764,WAS,Washington,Trevor Booker,F,,17:59,0.0,6.0,0.0,8.0,9.0,14.0,9.0,28.0,1.0,0.0,3.0,1.0
0021300544,1610612764,WAS,Washington,101162,Marcin Gortat,C,,19:42,92.3,143.6,-51.2,0.231,3.0,33.8,0.105,0.091,0.1,11.3,0.5,0.512,0.13,98.05,0.034,2014-01-11T00:00:00,2,1610612745,HOU,Houston,24-14,29,34,31,20,0,0,0,0,0,0,0,0,0,0,114,0.521,0.714,0.444,22,43,19,0021300544,1610612764,WAS,Washington,Marcin Gortat,C,,19:42,0.0,0.0,0.0,2.0,11.0,9.0,8.0,34.0,0.0,0.0,4.0,2.0
0021300544,1610612764,WAS,Washington,101162,Marcin Gortat,C,,19:42,92.3,143.6,-51.2,0.231,3.0,33.8,0.105,0.091,0.1,11.3,0.5,0.512,0.13,98.05,0.034,2014-01-11T00:00:00,2,1610612764,WAS,Washington,16-19,29,17,33,28,0,0,0,0,0,0,0,0,0,0,107,0.421,0.71,0.263,24,47,11,0021300544,1610612764,WAS,Washington,Marcin Gortat,C,,19:42,0.0,0.0,0.0,2.0,11.0,9.0,8.0,34.0,0.0,0.0,4.0,2.0
0021300544,1610612764,WAS,Washington,203078,Bradley Beal,G,,26:50,94.6,141.3,-46.7,0.125,0.0,9.9,0.031,0.056,0.04,0.0,0.25,0.357,0.263,103.29,0.023,2014-01-11T00:00:00,2,1610612745,HOU,Houston,24-14,29,34,31,20,0,0,0,0,0,0,0,0,0,0,114,0.521,0.714,0.444,22,43,19,0021300544,1610612764,WAS,Washington,Bradley Beal,G,,26:50,0.0,0.0,0.0,0.0,11.0,14.0,14.0,40.0,0.0,1.0,3.0,2.0
0021300544,1610612764,WAS,Washington,203078,Bradley Beal,G,,26:50,94.6,141.3,-46.7,0.125,0.0,9.9,0.031,0.056,0.04,0.0,0.25,0.357,0.263,103.29,0.023,2014-01-11T00:00:00,2,1610612764,WAS,Washington,16-19,29,17,33,28,0,0,0,0,0,0,0,0,0,0,107,0.421,0.71,0.263,24,47,11,0021300544,1610612764,WAS,Washington,Bradley Beal,G,,26:50,0.0,0.0,0.0,0.0,11.0,14.0,14.0,40.0,0.0,1.0,3.0,2.0
0021300544,1610612764,WAS,Washington,202322,John Wall,G,,42:41,109.0,112.7,-3.7,0.345,3.33,26.0,0.0,0.057,0.025,7.8,0.386,0.451,0.265,101.98,0.095,2014-01-11T00:00:00,2,1610612745,HOU,Houston,24-14,29,34,31,20,0,0,0,0,0,0,0,0,0,0,114,0.521,0.714,0.444,22,43,19,0021300544,1610612764,WAS,Washington,John Wall,G,,42:41,4.0,0.0,10.0,14.0,11.0,16.0,13.0,50.0,0.0,0.0,4.0,5.0
0021300544,1610612764,WAS,Washington,202322,John Wall,G,,42:41,109.0,112.7,-3.7,0.345,3.33,26.0,0.0,0.057,0.025,7.8,0.386,0.451,0.265,101.98,0.095,2014-01-11T00:00:00,2,1610612764,WAS,Washington,16-19,29,17,33,28,0,0,0,0,0,0,0,0,0,0,107,0.421,0.71,0.263,24,47,11,0021300544,1610612764,WAS,Washington,John Wall,G,,42:41,4.0,0.0,10.0,14.0,11.0,16.0,13.0,50.0,0.0,0.0,4.0,5.0
0021300544,1610612764,WAS,Washington,2403,Nene,,,26:30,100.7,88.1,12.6,0.316,0.0,32.2,0.125,0.25,0.179,0.0,0.3,0.316,0.179,106.25,0.117,2014-01-11T00:00:00,2,1610612745,HOU,Houston,24-14,29,34,31,20,0,0,0,0,0,0,0,0,0,0,114,0.521,0.714,0.444,22,43,19,0021300544,1610612764,WAS,Washington,Nene,,,26:30,0.0,0.0,3.0,4.0,4.0,2.0,10.0,22.0,1.0,1.0,5.0,7.0
0021300544,1610612764,WAS,Washington,2403,Nene,,,26:30,100.7,88.1,12.6,0.316,0.0,32.2,0.125,0.25,0.179,0.0,0.3,0.316,0.179,106.25,0.117,2014-01-11T00:00:00,2,1610612764,WAS,Washington,16-19,29,17,33,28,0,0,0,0,0,0,0,0,0,0,107,0.421,0.71,0.263,24,47,11,0021300544,1610612764,WAS,Washington,Nene,,,26:30,0.0,0.0,3.0,4.0,4.0,2.0,10.0,22.0,1.0,1.0,5.0,7.0
0021300544,1610612764,WAS,Washington,101110,Martell Webster,,,23:16,113.5,76.8,36.6,0.0,0.0,0.0,0.0,0.136,0.068,40.0,0.5,0.5,0.089,100.59,-0.016,2014-01-11T00:00:00,2,1610612745,HOU,Houston,24-14,29,34,31,20,0,0,0,0,0,0,0,0,0,0,114,0.521,0.714,0.444,22,43,19,0021300544,1610612764,WAS,Washington,Martell Webster,,,23:16,3.0,3.0,0.0,0.0,6.0,2.0,7.0,20.0,0.0,0.0,3.0,0.0
0021300544,1610612764,WAS,Washington,101110,Martell Webster,,,23:16,113.5,76.8,36.6,0.0,0.0,0.0,0.0,0.136,0.068,40.0,0.5,0.5,0.089,100.59,-0.016,2014-01-11T00:00:00,2,1610612764,WAS,Washington,16-19,29,17,33,28,0,0,0,0,0,0,0,0,0,0,107,0.421,0.71,0.263,24,47,11,0021300544,1610612764,WAS,Washington,Martell Webster,,,23:16,3.0,3.0,0.0,0.0,6.0,2.0,7.0,20.0,0.0,0.0,3.0,0.0
0021300544,1610612764,WAS,Washington,202686,Jan Vesely,,,6:45,93.7,95.9,-2.2,0.0,0.0,0.0,0.286,0.167,0.231,0.0,0.5,0.5,0.118,104.96,0.098,2014-01-11T00:00:00,2,1610612745,HOU,Houston,24-14,29,34,31,20,0,0,0,0,0,0,0,0,0,0,114,0.521,0.714,0.444,22,43,19,0021300544,1610612764,WAS,Washington,Jan Vesely,,,6:45,0.0,2.0,0.0,2.0,2.0,0.0,6.0,4.0,0.0,0.0,1.0,0.0
0021300544,1610612764,WAS,Washington,202686,Jan Vesely,,,6:45,93.7,95.9,-2.2,0.0,0.0,0.0,0.286,0.167,0.231,0.0,0.5,0.5,0.118,104.96,0.098,2014-01-11T00:00:00,2,1610612764,WAS,Washington,16-19,29,17,33,28,0,0,0,0,0,0,0,0,0,0,107,0.421,0.71,0.263,24,47,11,0021300544,1610612764,WAS,Washington,Jan Vesely,,,6:45,0.0,2.0,0.0,2.0,2.0,0.0,6.0,4.0,0.0,0.0,1.0,0.0
0021300544,1610612764,WAS,Washington,203490,Otto Porter Jr.,,,3:01,66.7,63.5,3.2,0.0,0.0,0.0,0.0,0.0,0.0,0.0,0.0,0.0,0.143,110.55,0.0,2014-01-11T00:00:00,2,1610612745,HOU,Houston,24-14,29,34,31,20,0,0,0,0,0,0,0,0,0,0,114,0.521,0.714,0.444,22,43,19,0021300544,1610612764,WAS,Washington,Otto Porter Jr.,,,3:01,0.0,0.0,0.0,0.0,2.0,0.0,2.0,0.0,0.0,1.0,0.0,0.0
0021300544,1610612764,WAS,Washington,203490,Otto Porter Jr.,,,3:01,66.7,63.5,3.2,0.0,0.0,0.0,0.0,0.0,0.0,0.0,0.0,0.0,0.143,110.55,0.0,2014-01-11T00:00:00,2,1610612764,WAS,Washington,16-19,29,17,33,28,0,0,0,0,0,0,0,0,0,0,107,0.421,0.71,0.263,24,47,11,0021300544,1610612764,WAS,Washington,Otto Porter Jr.,,,3:01,0.0,0.0,0.0,0.0,2.0,0.0,2.0,0.0,0.0,1.0,0.0,0.0
0021300544,1610612764,WAS,Washington,202066,Garrett Temple,,,5:38,54.3,117.3,-63.0,0.0,0.0,0.0,0.0,0.25,0.083,25.0,0.667,0.667,0.252,113.15,0.108,2014-01-11T00:00:00,2,1610612745,HOU,Houston,24-14,29,34,31,20,0,0,0,0,0,0,0,0,0,0,114,0.521,0.714,0.444,22,43,19,0021300544,1610612764,WAS,Washington,Garrett Temple,,,5:38,0.0,0.0,0.0,0.0,4.0,0.0,8.0,6.0,0.0,0.0,1.0,0.0
0021300544,1610612764,WAS,Washington,202066,Garrett Temple,,,5:38,54.3,117.3,-63.0,0.0,0.0,0.0,0.0,0.25,0.083,25.0,0.667,0.667,0.252,113.15,0.108,2014-01-11T00:00:00,2,1610612764,WAS,Washington,16-19,29,17,33,28,0,0,0,0,0,0,0,0,0,0,107,0.421,0.71,0.263,24,47,11,0021300544,1610612764,WAS,Washington,Garrett Temple,,,5:38,0.0,0.0,0.0,0.0,4.0,0.0,8.0,6.0,0.0,0.0,1.0,0.0
0021300544,1610612764,WAS,Washington,202338,Kevin Seraphin,,,22:40,114.2,92.5,21.7,0.083,0.5,5.8,0.115,0.087,0.102,11.5,0.615,0.628,0.273,104.18,0.163,2014-01-11T00:00:00,2,1610612745,HOU,Houston,24-14,29,34,31,20,0,0,0,0,0,0,0,0,0,0,114,0.521,0.714,0.444,22,43,19,0021300544,1610612764,WAS,Washington,Kevin Seraphin,,,22:40,2.0,6.0,0.0,12.0,2.0,7.0,9.0,20.0,1.0,1.0,4.0,3.0
0021300544,1610612764,WAS,Washington,202338,Kevin Seraphin,,,22:40,114.2,92.5,21.7,0.083,0.5,5.8,0.115,0.087,0.102,11.5,0.615,0.628,0.273,104.18,0.163,2014-01-11T00:00:00,2,1610612764,WAS,Washington,16-19,29,17,33,28,0,0,0,0,0,0,0,0,0,0,107,0.421,0.71,0.263,24,47,11,0021300544,1610612764,WAS,Washington,Kevin Seraphin,,,22:40,2.0,6.0,0.0,12.0,2.0,7.0,9.0,20.0,1.0,1.0,4.0,3.0
0021300544,1610612764,WAS,Washington,201953,Eric Maynor,,DNP - Coach's Decision,,,,,,,0.0,,,,,,,0.0,,,2014-01-11T00:00:00,2,1610612745,HOU,Houston,24-14,29,34,31,20,0,0,0,0,0,0,0,0,0,0,114,0.521,0.714,0.444,22,43,19,0021300544,1610612764,WAS,Washington,Eric Maynor,,DNP - Coach's Decision,,,,,,,,,,,,,
0021300544,1610612764,WAS,Washington,201953,Eric Maynor,,DNP - Coach's Decision,,,,,,,0.0,,,,,,,0.0,,,2014-01-11T00:00:00,2,1610612764,WAS,Washington,16-19,29,17,33,28,0,0,0,0,0,0,0,0,0,0,107,0.421,0.71,0.263,24,47,11,0021300544,1610612764,WAS,Washington,Eric Maynor,,DNP - Coach's Decision,,,,,,,,,,,,,
0021300544,1610612764,WAS,Washington,202698,Chris Singleton,,DNP - Coach's Decision,,,,,,,0.0,,,,,,,0.0,,,2014-01-11T00:00:00,2,1610612745,HOU,Houston,24-14,29,34,31,20,0,0,0,0,0,0,0,0,0,0,114,0.521,0.714,0.444,22,43,19,0021300544,1610612764,WAS,Washington,Chris Singleton,,DNP - Coach's Decision,,,,,,,,,,,,,
0021300544,1610612764,WAS,Washington,202698,Chris Singleton,,DNP - Coach's Decision,,,,,,,0.0,,,,,,,0.0,,,2014-01-11T00:00:00,2,1610612764,WAS,Washington,16-19,29,17,33,28,0,0,0,0,0,0,0,0,0,0,107,0.421,0.71,0.263,24,47,11,0021300544,1610612764,WAS,Washington,Chris Singleton,,DNP - Coach's Decision,,,,,,,,,,,,,
