GAME_ID_x,TEAM_ID_x,TEAM_ABBREVIATION_x,TEAM_CITY_x,PLAYER_ID,PLAYER_NAME_x,START_POSITION_x,COMMENT_x,MIN_x,OFF_RATING,DEF_RATING,NET_RATING,AST_PCT,AST_TOV,AST_RATIO,OREB_PCT,DREB_PCT,REB_PCT,TM_TOV_PCT,EFG_PCT,TS_PCT,USG_PCT,PACE,PIE,GAME_DATE_EST,GAME_SEQUENCE,TEAM_ID_y,TEAM_ABBREVIATION_y,TEAM_CITY_NAME,TEAM_WINS_LOSSES,PTS_QTR1,PTS_QTR2,PTS_QTR3,PTS_QTR4,PTS_OT1,PTS_OT2,PTS_OT3,PTS_OT4,PTS_OT5,PTS_OT6,PTS_OT7,PTS_OT8,PTS_OT9,PTS_OT10,PTS,FG_PCT,FT_PCT,FG3_PCT,AST,REB,TOV,GAME_ID_y,TEAM_ID,TEAM_ABBREVIATION,TEAM_CITY_y,PLAYER_NAME_y,START_POSITION_y,COMMENT_y,MIN_y,PTS_OFF_TOV,PTS_2ND_CHANCE,PTS_FB,PTS_PAINT,OPP_PTS_OFF_TOV,OPP_PTS_2ND_CHANCE,OPP_PTS_FB,OPP_PTS_PAINT,BLK,BLKA,PF,PFD
0021300545,1610612756,PHX,Phoenix,200782,PJ Tucker,F,,41:54,106.5,111.9,-5.5,0.0,0.0,0.0,0.083,0.159,0.12,6.7,0.577,0.612,0.146,101.77,0.084,2014-01-11T00:00:00,3,1610612756,PHX,Phoenix,21-15,21,30,28,29,0,0,0,0,0,0,0,0,0,0,108,0.394,0.84,0.371,24,45,12,0021300545,1610612756,PHX,Phoenix,PJ Tucker,F,,41:54,7.0,2.0,4.0,6.0,16.0,17.0,28.0,60.0,0.0,4.0,3.0,3.0
0021300545,1610612756,PHX,Phoenix,200782,PJ Tucker,F,,41:54,106.5,111.9,-5.5,0.0,0.0,0.0,0.083,0.159,0.12,6.7,0.577,0.612,0.146,101.77,0.084,2014-01-11T00:00:00,3,1610612765,DET,Detroit,16-22,35,29,25,21,0,0,0,0,0,0,0,0,0,0,110,0.468,0.704,0.176,32,59,15,0021300545,1610612756,PHX,Phoenix,PJ Tucker,F,,41:54,7.0,2.0,4.0,6.0,16.0,17.0,28.0,60.0,0.0,4.0,3.0,3.0
0021300545,1610612756,PHX,Phoenix,101112,Channing Frye,F,,34:05,106.5,98.7,7.8,0.056,0.0,6.0,0.025,0.061,0.041,0.0,0.679,0.666,0.187,100.19,0.131,2014-01-11T00:00:00,3,1610612756,PHX,Phoenix,21-15,21,30,28,29,0,0,0,0,0,0,0,0,0,0,108,0.394,0.84,0.371,24,45,12,0021300545,1610612756,PHX,Phoenix,Channing Frye,F,,34:05,3.0,0.0,3.0,4.0,14.0,9.0,14.0,38.0,0.0,0.0,2.0,4.0
0021300545,1610612756,PHX,Phoenix,101112,Channing Frye,F,,34:05,106.5,98.7,7.8,0.056,0.0,6.0,0.025,0.061,0.041,0.0,0.679,0.666,0.187,100.19,0.131,2014-01-11T00:00:00,3,1610612765,DET,Detroit,16-22,35,29,25,21,0,0,0,0,0,0,0,0,0,0,110,0.468,0.704,0.176,32,59,15,0021300545,1610612756,PHX,Phoenix,Channing Frye,F,,34:05,3.0,0.0,3.0,4.0,14.0,9.0,14.0,38.0,0.0,0.0,2.0,4.0
0021300545,1610612756,PHX,Phoenix,203101,Miles Plumlee,C,,22:19,99.2,132.9,-33.7,0.182,2.0,15.4,0.087,0.083,0.085,7.7,0.6,0.6,0.21,103.01,0.095,2014-01-11T00:00:00,3,1610612756,PHX,Phoenix,21-15,21,30,28,29,0,0,0,0,0,0,0,0,0,0,108,0.394,0.84,0.371,24,45,12,0021300545,1610612756,PHX,Phoenix,Miles Plumlee,C,,22:19,0.0,2.0,0.0,10.0,13.0,12.0,22.0,50.0,0.0,1.0,1.0,0.0
0021300545,1610612756,PHX,Phoenix,203101,Miles Plumlee,C,,22:19,99.2,132.9,-33.7,0.182,2.0,15.4,0.087,0.083,0.085,7.7,0.6,0.6,0.21,103.01,0.095,2014-01-11T00:00:00,3,1610612765,DET,Detroit,16-22,35,29,25,21,0,0,0,0,0,0,0,0,0,0,110,0.468,0.704,0.176,32,59,15,0021300545,1610612756,PHX,Phoenix,Miles Plumlee,C,,22:19,0.0,2.0,0.0,10.0,13.0,12.0,22.0,50.0,0.0,1.0,1.0,0.0
0021300545,1610612756,PHX,Phoenix,101123,Gerald Green,G,,33:18,111.2,119.4,-8.2,0.05,0.0,5.0,0.0,0.194,0.096,0.0,0.324,0.391,0.24,100.04,0.054,2014-01-11T00:00:00,3,1610612756,PHX,Phoenix,21-15,21,30,28,29,0,0,0,0,0,0,0,0,0,0,108,0.394,0.84,0.371,24,45,12,0021300545,1610612756,PHX,Phoenix,Gerald Green,G,,33:18,0.0,3.0,3.0,6.0,16.0,14.0,21.0,52.0,2.0,0.0,3.0,2.0
0021300545,1610612756,PHX,Phoenix,101123,Gerald Green,G,,33:18,111.2,119.4,-8.2,0.05,0.0,5.0,0.0,0.194,0.096,0.0,0.324,0.391,0.24,100.04,0.054,2014-01-11T00:00:00,3,1610612765,DET,Detroit,16-22,35,29,25,21,0,0,0,0,0,0,0,0,0,0,110,0.468,0.704,0.176,32,59,15,0021300545,1610612756,PHX,Phoenix,Gerald Green,G,,33:18,0.0,3.0,3.0,6.0,16.0,14.0,21.0,52.0,2.0,0.0,3.0,2.0
0021300545,1610612756,PHX,Phoenix,201609,Goran Dragic,G,,34:40,109.2,122.5,-13.3,0.348,1.33,31.2,0.027,0.057,0.042,23.4,0.556,0.644,0.222,100.41,0.064,2014-01-11T00:00:00,3,1610612756,PHX,Phoenix,21-15,21,30,28,29,0,0,0,0,0,0,0,0,0,0,108,0.394,0.84,0.371,24,45,12,0021300545,1610612756,PHX,Phoenix,Goran Dragic,G,,34:40,0.0,0.0,7.0,2.0,14.0,17.0,27.0,56.0,0.0,1.0,3.0,4.0
0021300545,1610612756,PHX,Phoenix,201609,Goran Dragic,G,,34:40,109.2,122.5,-13.3,0.348,1.33,31.2,0.027,0.057,0.042,23.4,0.556,0.644,0.222,100.41,0.064,2014-01-11T00:00:00,3,1610612765,DET,Detroit,16-22,35,29,25,21,0,0,0,0,0,0,0,0,0,0,110,0.468,0.704,0.176,32,59,15,0021300545,1610612756,PHX,Phoenix,Goran Dragic,G,,34:40,0.0,0.0,7.0,2.0,14.0,17.0,27.0,56.0,0.0,1.0,3.0,4.0
0021300545,1610612756,PHX,Phoenix,202693,Markieff Morris,,,8:11,78.3,105.3,-27.0,0.333,1.0,25.0,0.0,0.25,0.071,25.0,0.0,0.0,0.318,108.16,-0.076,2014-01-11T00:00:00,3,1610612756,PHX,Phoenix,21-15,21,30,28,29,0,0,0,0,0,0,0,0,0,0,108,0.394,0.84,0.371,24,45,12,0021300545,1610612756,PHX,Phoenix,Markieff Morris,,,8:11,0.0,0.0,0.0,0.0,2.0,0.0,6.0,18.0,0.0,1.0,0.0,0.0
0021300545,1610612756,PHX,Phoenix,202693,Markieff Morris,,,8:11,78.3,105.3,-27.0,0.333,1.0,25.0,0.0,0.25,0.071,25.0,0.0,0.0,0.318,108.16,-0.076,2014-01-11T00:00:00,3,1610612765,DET,Detroit,16-22,35,29,25,21,0,0,0,0,0,0,0,0,0,0,110,0.468,0.704,0.176,32,59,15,0021300545,1610612756,PHX,Phoenix,Markieff Morris,,,8:11,0.0,0.0,0.0,0.0,2.0,0.0,6.0,18.0,0.0,1.0,0.0,0.0
0021300545,1610612756,PHX,Phoenix,2571,Leandro Barbosa,,,20:29,107.4,95.4,11.9,0.308,0.0,28.8,0.0,0.111,0.049,0.0,0.389,0.455,0.194,100.55,0.164,2014-01-11T00:00:00,3,1610612756,PHX,Phoenix,21-15,21,30,28,29,0,0,0,0,0,0,0,0,0,0,108,0.394,0.84,0.371,24,45,12,0021300545,1610612756,PHX,Phoenix,Leandro Barbosa,,,20:29,4.0,0.0,2.0,4.0,4.0,5.0,9.0,20.0,1.0,0.0,1.0,1.0
0021300545,1610612756,PHX,Phoenix,2571,Leandro Barbosa,,,20:29,107.4,95.4,11.9,0.308,0.0,28.8,0.0,0.111,0.049,0.0,0.389,0.455,0.194,100.55,0.164,2014-01-11T00:00:00,3,1610612765,DET,Detroit,16-22,35,29,25,21,0,0,0,0,0,0,0,0,0,0,110,0.468,0.704,0.176,32,59,15,0021300545,1610612756,PHX,Phoenix,Leandro Barbosa,,,20:29,4.0,0.0,2.0,4.0,4.0,5.0,9.0,20.0,1.0,0.0,1.0,1.0
0021300545,1610612756,PHX,Phoenix,202397,Ish Smith,,,17:19,106.4,67.6,38.9,0.462,0.0,46.2,0.0,0.211,0.093,0.0,0.143,0.143,0.147,106.16,0.165,2014-01-11T00:00:00,3,1610612756,PHX,Phoenix,21-15,21,30,28,29,0,0,0,0,0,0,0,0,0,0,108,0.394,0.84,0.371,24,45,12,0021300545,1610612756,PHX,Phoenix,Ish Smith,,,17:19,2.0,0.0,2.0,2.0,4.0,0.0,2.0,12.0,0.0,0.0,1.0,1.0
0021300545,1610612756,PHX,Phoenix,202397,Ish Smith,,,17:19,106.4,67.6,38.9,0.462,0.0,46.2,0.0,0.211,0.093,0.0,0.143,0.143,0.147,106.16,0.165,2014-01-11T00:00:00,3,1610612765,DET,Detroit,16-22,35,29,25,21,0,0,0,0,0,0,0,0,0,0,110,0.468,0.704,0.176,32,59,15,0021300545,1610612756,PHX,Phoenix,Ish Smith,,,17:19,2.0,0.0,2.0,2.0,4.0,0.0,2.0,12.0,0.0,0.0,1.0,1.0
0021300545,1610612756,PHX,Phoenix,202694,Marcus Morris,,,20:41,113.2,99.4,13.8,0.0,0.0,0.0,0.217,0.043,0.13,13.7,0.55,0.672,0.28,101.6,0.17,2014-01-11T00:00:00,3,1610612756,PHX,Phoenix,21-15,21,30,28,29,0,0,0,0,0,0,0,0,0,0,108,0.394,0.84,0.371,24,45,12,0021300545,1610612756,PHX,Phoenix,Marcus Morris,,,20:41,2.0,8.0,4.0,6.0,6.0,9.0,9.0,26.0,0.0,0.0,4.0,4.0
0021300545,1610612756,PHX,Phoenix,202694,Marcus Morris,,,20:41,113.2,99.4,13.8,0.0,0.0,0.0,0.217,0.043,0.13,13.7,0.55,0.672,0.28,101.6,0.17,2014-01-11T00:00:00,3,1610612765,DET,Detroit,16-22,35,29,25,21,0,0,0,0,0,0,0,0,0,0,110,0.468,0.704,0.176,32,59,15,0021300545,1610612756,PHX,Phoenix,Marcus Morris,,,20:41,2.0,8.0,4.0,6.0,6.0,9.0,9.0,26.0,0.0,0.0,4.0,4.0
0021300545,1610612756,PHX,Phoenix,203458,Alex Len,,,7:04,124.2,99.5,24.8,0.0,0.0,0.0,0.3,0.111,0.211,0.0,0.0,0.0,0.059,94.96,-0.179,2014-01-11T00:00:00,3,1610612756,PHX,Phoenix,21-15,21,30,28,29,0,0,0,0,0,0,0,0,0,0,108,0.394,0.84,0.371,24,45,12,0021300545,1610612756,PHX,Phoenix,Alex Len,,,7:04,0.0,0.0,0.0,0.0,1.0,2.0,2.0,8.0,0.0,0.0,5.0,0.0
0021300545,1610612756,PHX,Phoenix,203458,Alex Len,,,7:04,124.2,99.5,24.8,0.0,0.0,0.0,0.3,0.111,0.211,0.0,0.0,0.0,0.059,94.96,-0.179,2014-01-11T00:00:00,3,1610612765,DET,Detroit,16-22,35,29,25,21,0,0,0,0,0,0,0,0,0,0,110,0.468,0.704,0.176,32,59,15,0021300545,1610612756,PHX,Phoenix,Alex Len,,,7:04,0.0,0.0,0.0,0.0,1.0,2.0,2.0,8.0,0.0,0.0,5.0,0.0
0021300545,1610612756,PHX,Phoenix,202091,Dionte Christmas,,DNP - Coach's Decision,,,,,,,0.0,,,,,,,0.0,,,2014-01-11T00:00:00,3,1610612756,PHX,Phoenix,21-15,21,30,28,29,0,0,0,0,0,0,0,0,0,0,108,0.394,0.84,0.371,24,45,12,0021300545,1610612756,PHX,Phoenix,Dionte Christmas,,DNP - Coach's Decision,,,,,,,,,,,,,
0021300545,1610612756,PHX,Phoenix,202091,Dionte Christmas,,DNP - Coach's Decision,,,,,,,0.0,,,,,,,0.0,,,2014-01-11T00:00:00,3,1610612765,DET,Detroit,16-22,35,29,25,21,0,0,0,0,0,0,0,0,0,0,110,0.468,0.704,0.176,32,59,15,0021300545,1610612756,PHX,Phoenix,Dionte Christmas,,DNP - Coach's Decision,,,,,,,,,,,,,
0021300545,1610612756,PHX,Phoenix,203462,Archie Goodwin,,DNP - Coach's Decision,,,,,,,0.0,,,,,,,0.0,,,2014-01-11T00:00:00,3,1610612756,PHX,Phoenix,21-15,21,30,28,29,0,0,0,0,0,0,0,0,0,0,108,0.394,0.84,0.371,24,45,12,0021300545,1610612756,PHX,Phoenix,Archie Goodwin,,DNP - Coach's Decision,,,,,,,,,,,,,
0021300545,1610612756,PHX,Phoenix,203462,Archie Goodwin,,DNP - Coach's Decision,,,,,,,0.0,,,,,,,0.0,,,2014-01-11T00:00:00,3,1610612765,DET,Detroit,16-22,35,29,25,21,0,0,0,0,0,0,0,0,0,0,110,0.468,0.704,0.176,32,59,15,0021300545,1610612756,PHX,Phoenix,Archie Goodwin,,DNP - Coach's Decision,,,,,,,,,,,,,
0021300545,1610612756,PHX,Phoenix,203139,Viacheslav Kravtsov,,DNP - Coach's Decision,,,,,,,0.0,,,,,,,0.0,,,2014-01-11T00:00:00,3,1610612756,PHX,Phoenix,21-15,21,30,28,29,0,0,0,0,0,0,0,0,0,0,108,0.394,0.84,0.371,24,45,12,0021300545,1610612756,PHX,Phoenix,Viacheslav Kravtsov,,DNP - Coach's Decision,,,,,,,,,,,,,
0021300545,1610612756,PHX,Phoenix,203139,Viacheslav Kravtsov,,DNP - Coach's Decision,,,,,,,0.0,,,,,,,0.0,,,2014-01-11T00:00:00,3,1610612765,DET,Detroit,16-22,35,29,25,21,0,0,0,0,0,0,0,0,0,0,110,0.468,0.704,0.176,32,59,15,0021300545,1610612756,PHX,Phoenix,Viacheslav Kravtsov,,DNP - Coach's Decision,,,,,,,,,,,,,
0021300545,1610612765,DET,Detroit,2746,Josh Smith,F,,37:35,118.6,107.4,11.2,0.2,2.5,20.6,0.026,0.25,0.141,8.2,0.719,0.722,0.202,98.29,0.178,2014-01-11T00:00:00,3,1610612756,PHX,Phoenix,21-15,21,30,28,29,0,0,0,0,0,0,0,0,0,0,108,0.394,0.84,0.371,24,45,12,0021300545,1610612765,DET,Detroit,Josh Smith,F,,37:35,5.0,0.0,5.0,14.0,10.0,9.0,16.0,28.0,1.0,0.0,4.0,3.0
0021300545,1610612765,DET,Detroit,2746,Josh Smith,F,,37:35,118.6,107.4,11.2,0.2,2.5,20.6,0.026,0.25,0.141,8.2,0.719,0.722,0.202,98.29,0.178,2014-01-11T00:00:00,3,1610612765,DET,Detroit,16-22,35,29,25,21,0,0,0,0,0,0,0,0,0,0,110,0.468,0.704,0.176,32,59,15,0021300545,1610612765,DET,Detroit,Josh Smith,F,,37:35,5.0,0.0,5.0,14.0,10.0,9.0,16.0,28.0,1.0,0.0,4.0,3.0
0021300545,1610612765,DET,Detroit,202328,Greg Monroe,F,,27:38,116.9,100.8,16.0,0.182,4.0,16.8,0.241,0.172,0.207,4.2,0.429,0.531,0.279,100.4,0.16,2014-01-11T00:00:00,3,1610612756,PHX,Phoenix,21-15,21,30,28,29,0,0,0,0,0,0,0,0,0,0,108,0.394,0.84,0.371,24,45,12,0021300545,1610612765,DET,Detroit,Greg Monroe,F,,27:38,2.0,6.0,2.0,12.0,10.0,4.0,14.0,18.0,0.0,0.0,1.0,6.0
0021300545,1610612765,DET,Detroit,202328,Greg Monroe,F,,27:38,116.9,100.8,16.0,0.182,4.0,16.8,0.241,0.172,0.207,4.2,0.429,0.531,0.279,100.4,0.16,2014-01-11T00:00:00,3,1610612765,DET,Detroit,16-22,35,29,25,21,0,0,0,0,0,0,0,0,0,0,110,0.468,0.704,0.176,32,59,15,0021300545,1610612765,DET,Detroit,Greg Monroe,F,,27:38,2.0,6.0,2.0,12.0,10.0,4.0,14.0,18.0,0.0,0.0,1.0,6.0
0021300545,1610612765,DET,Detroit,203083,Andre Drummond,C,,27:08,108.5,103.0,5.5,0.0,0.0,0.0,0.138,0.265,0.206,7.6,0.556,0.538,0.186,102.1,0.194,2014-01-11T00:00:00,3,1610612756,PHX,Phoenix,21-15,21,30,28,29,0,0,0,0,0,0,0,0,0,0,108,0.394,0.84,0.371,24,45,12,0021300545,1610612765,DET,Detroit,Andre Drummond,C,,27:08,3.0,2.0,5.0,10.0,6.0,8.0,12.0,24.0,5.0,0.0,0.0,7.0
0021300545,1610612765,DET,Detroit,203083,Andre Drummond,C,,27:08,108.5,103.0,5.5,0.0,0.0,0.0,0.138,0.265,0.206,7.6,0.556,0.538,0.186,102.1,0.194,2014-01-11T00:00:00,3,1610612765,DET,Detroit,16-22,35,29,25,21,0,0,0,0,0,0,0,0,0,0,110,0.468,0.704,0.176,32,59,15,0021300545,1610612765,DET,Detroit,Andre Drummond,C,,27:08,3.0,2.0,5.0,10.0,6.0,8.0,12.0,24.0,5.0,0.0,0.0,7.0
0021300545,1610612765,DET,Detroit,203484,Kentavious Caldwell-Pope,G,,27:03,110.3,115.4,-5.1,0.053,0.0,11.1,0.0,0.04,0.018,0.0,0.563,0.563,0.124,95.92,0.046,2014-01-11T00:00:00,3,1610612756,PHX,Phoenix,21-15,21,30,28,29,0,0,0,0,0,0,0,0,0,0,108,0.394,0.84,0.371,24,45,12,0021300545,1610612765,DET,Detroit,Kentavious Caldwell-Pope,G,,27:03,0.0,3.0,6.0,6.0,10.0,9.0,9.0,20.0,0.0,0.0,2.0,0.0
0021300545,1610612765,DET,Detroit,203484,Kentavious Caldwell-Pope,G,,27:03,110.3,115.4,-5.1,0.053,0.0,11.1,0.0,0.04,0.018,0.0,0.563,0.563,0.124,95.92,0.046,2014-01-11T00:00:00,3,1610612765,DET,Detroit,16-22,35,29,25,21,0,0,0,0,0,0,0,0,0,0,110,0.468,0.704,0.176,32,59,15,0021300545,1610612765,DET,Detroit,Kentavious Caldwell-Pope,G,,27:03,0.0,3.0,6.0,6.0,10.0,9.0,9.0,20.0,0.0,0.0,2.0,0.0
0021300545,1610612765,DET,Detroit,201943,Brandon Jennings,G,,42:25,118.8,104.3,14.6,0.462,6.0,51.4,0.044,0.12,0.084,8.6,0.286,0.286,0.155,102.98,0.101,2014-01-11T00:00:00,3,1610612756,PHX,Phoenix,21-15,21,30,28,29,0,0,0,0,0,0,0,0,0,0,108,0.394,0.84,0.371,24,45,12,0021300545,1610612765,DET,Detroit,Brandon Jennings,G,,42:25,4.0,0.0,2.0,6.0,10.0,15.0,20.0,38.0,0.0,0.0,2.0,0.0
0021300545,1610612765,DET,Detroit,201943,Brandon Jennings,G,,42:25,118.8,104.3,14.6,0.462,6.0,51.4,0.044,0.12,0.084,8.6,0.286,0.286,0.155,102.98,0.101,2014-01-11T00:00:00,3,1610612765,DET,Detroit,16-22,35,29,25,21,0,0,0,0,0,0,0,0,0,0,110,0.468,0.704,0.176,32,59,15,0021300545,1610612765,DET,Detroit,Brandon Jennings,G,,42:25,4.0,0.0,2.0,6.0,10.0,15.0,20.0,38.0,0.0,0.0,2.0,0.0
0021300545,1610612765,DET,Detroit,202713,Kyle Singler,,,26:23,98.0,102.6,-4.5,0.05,0.17,6.3,0.208,0.088,0.138,37.5,0.333,0.333,0.227,107.93,-0.031,2014-01-11T00:00:00,3,1610612756,PHX,Phoenix,21-15,21,30,28,29,0,0,0,0,0,0,0,0,0,0,108,0.394,0.84,0.371,24,45,12,0021300545,1610612765,DET,Detroit,Kyle Singler,,,26:23,0.0,0.0,2.0,6.0,12.0,11.0,18.0,28.0,1.0,1.0,4.0,1.0
0021300545,1610612765,DET,Detroit,202713,Kyle Singler,,,26:23,98.0,102.6,-4.5,0.05,0.17,6.3,0.208,0.088,0.138,37.5,0.333,0.333,0.227,107.93,-0.031,2014-01-11T00:00:00,3,1610612765,DET,Detroit,16-22,35,29,25,21,0,0,0,0,0,0,0,0,0,0,110,0.468,0.704,0.176,32,59,15,0021300545,1610612765,DET,Detroit,Kyle Singler,,,26:23,0.0,0.0,2.0,6.0,12.0,11.0,18.0,28.0,1.0,1.0,4.0,1.0
0021300545,1610612765,DET,Detroit,201155,Rodney Stuckey,,,20:44,93.7,105.3,-11.6,0.063,1.0,9.2,0.0,0.069,0.043,9.2,0.375,0.45,0.183,106.03,0.039,2014-01-11T00:00:00,3,1610612756,PHX,Phoenix,21-15,21,30,28,29,0,0,0,0,0,0,0,0,0,0,108,0.394,0.84,0.371,24,45,12,0021300545,1610612765,DET,Detroit,Rodney Stuckey,,,20:44,0.0,2.0,2.0,6.0,14.0,6.0,14.0,18.0,0.0,1.0,2.0,3.0
0021300545,1610612765,DET,Detroit,201155,Rodney Stuckey,,,20:44,93.7,105.3,-11.6,0.063,1.0,9.2,0.0,0.069,0.043,9.2,0.375,0.45,0.183,106.03,0.039,2014-01-11T00:00:00,3,1610612765,DET,Detroit,16-22,35,29,25,21,0,0,0,0,0,0,0,0,0,0,110,0.468,0.704,0.176,32,59,15,0021300545,1610612765,DET,Detroit,Rodney Stuckey,,,20:44,0.0,2.0,2.0,6.0,14.0,6.0,14.0,18.0,0.0,1.0,2.0,3.0
0021300545,1610612765,DET,Detroit,101198,Will Bynum,,,23:06,90.5,118.3,-27.8,0.111,1.0,6.8,0.042,0.038,0.04,6.8,0.545,0.627,0.239,98.8,0.184,2014-01-11T00:00:00,3,1610612756,PHX,Phoenix,21-15,21,30,28,29,0,0,0,0,0,0,0,0,0,0,108,0.394,0.84,0.371,24,45,12,0021300545,1610612765,DET,Detroit,Will Bynum,,,23:06,4.0,2.0,4.0,6.0,16.0,9.0,15.0,20.0,0.0,1.0,3.0,3.0
0021300545,1610612765,DET,Detroit,101198,Will Bynum,,,23:06,90.5,118.3,-27.8,0.111,1.0,6.8,0.042,0.038,0.04,6.8,0.545,0.627,0.239,98.8,0.184,2014-01-11T00:00:00,3,1610612765,DET,Detroit,16-22,35,29,25,21,0,0,0,0,0,0,0,0,0,0,110,0.468,0.704,0.176,32,59,15,0021300545,1610612765,DET,Detroit,Will Bynum,,,23:06,4.0,2.0,4.0,6.0,16.0,9.0,15.0,20.0,0.0,1.0,3.0,3.0
0021300545,1610612765,DET,Detroit,101111,Charlie Villanueva,,,7:59,86.0,114.2,-28.2,0.2,0.0,16.7,0.0,0.25,0.125,0.0,0.5,0.5,0.245,102.45,0.163,2014-01-11T00:00:00,3,1610612756,PHX,Phoenix,21-15,21,30,28,29,0,0,0,0,0,0,0,0,0,0,108,0.394,0.84,0.371,24,45,12,0021300545,1610612765,DET,Detroit,Charlie Villanueva,,,7:59,0.0,2.0,0.0,2.0,2.0,4.0,7.0,6.0,0.0,0.0,1.0,0.0
0021300545,1610612765,DET,Detroit,101111,Charlie Villanueva,,,7:59,86.0,114.2,-28.2,0.2,0.0,16.7,0.0,0.25,0.125,0.0,0.5,0.5,0.245,102.45,0.163,2014-01-11T00:00:00,3,1610612765,DET,Detroit,16-22,35,29,25,21,0,0,0,0,0,0,0,0,0,0,110,0.468,0.704,0.176,32,59,15,0021300545,1610612765,DET,Detroit,Charlie Villanueva,,,7:59,0.0,2.0,0.0,2.0,2.0,4.0,7.0,6.0,0.0,0.0,1.0,0.0
0021300545,1610612765,DET,Detroit,1497,Chauncey Billups,,DNP - Coach's Decision,,,,,,,0.0,,,,,,,0.0,,,2014-01-11T00:00:00,3,1610612756,PHX,Phoenix,21-15,21,30,28,29,0,0,0,0,0,0,0,0,0,0,108,0.394,0.84,0.371,24,45,12,0021300545,1610612765,DET,Detroit,Chauncey Billups,,DNP - Coach's Decision,,,,,,,,,,,,,
0021300545,1610612765,DET,Detroit,1497,Chauncey Billups,,DNP - Coach's Decision,,,,,,,0.0,,,,,,,0.0,,,2014-01-11T00:00:00,3,1610612765,DET,Detroit,16-22,35,29,25,21,0,0,0,0,0,0,0,0,0,0,110,0.468,0.704,0.176,32,59,15,0021300545,1610612765,DET,Detroit,Chauncey Billups,,DNP - Coach's Decision,,,,,,,,,,,,,
0021300545,1610612765,DET,Detroit,203540,Gigi Datome,,DNP - Coach's Decision,,,,,,,0.0,,,,,,,0.0,,,2014-01-11T00:00:00,3,1610612756,PHX,Phoenix,21-15,21,30,28,29,0,0,0,0,0,0,0,0,0,0,108,0.394,0.84,0.371,24,45,12,0021300545,1610612765,DET,Detroit,Gigi Datome,,DNP - Coach's Decision,,,,,,,,,,,,,
0021300545,1610612765,DET,Detroit,203540,Gigi Datome,,DNP - Coach's Decision,,,,,,,0.0,,,,,,,0.0,,,2014-01-11T00:00:00,3,1610612765,DET,Detroit,16-22,35,29,25,21,0,0,0,0,0,0,0,0,0,0,110,0.468,0.704,0.176,32,59,15,0021300545,1610612765,DET,Detroit,Gigi Datome,,DNP - Coach's Decision,,,,,,,,,,,,,
0021300545,1610612765,DET,Detroit,202725,Josh Harrellson,,DNP - Coach's Decision,,,,,,,0.0,,,,,,,0.0,,,2014-01-11T00:00:00,3,1610612756,PHX,Phoenix,21-15,21,30,28,29,0,0,0,0,0,0,0,0,0,0,108,0.394,0.84,0.371,24,45,12,0021300545,1610612765,DET,Detroit,Josh Harrellson,,DNP - Coach's Decision,,,,,,,,,,,,,
0021300545,1610612765,DET,Detroit,202725,Josh Harrellson,,DNP - Coach's Decision,,,,,,,0.0,,,,,,,0.0,,,2014-01-11T00:00:00,3,1610612765,DET,Detroit,16-22,35,29,25,21,0,0,0,0,0,0,0,0,0,0,110,0.468,0.704,0.176,32,59,15,0021300545,1610612765,DET,Detroit,Josh Harrellson,,DNP - Coach's Decision,,,,,,,,,,,,,
0021300545,1610612765,DET,Detroit,201973,Jonas Jerebko,,DNP - Coach's Decision,,,,,,,0.0,,,,,,,0.0,,,2014-01-11T00:00:00,3,1610612756,PHX,Phoenix,21-15,21,30,28,29,0,0,0,0,0,0,0,0,0,0,108,0.394,0.84,0.371,24,45,12,0021300545,1610612765,DET,Detroit,Jonas Jerebko,,DNP - Coach's Decision,,,,,,,,,,,,,
0021300545,1610612765,DET,Detroit,201973,Jonas Jerebko,,DNP - Coach's Decision,,,,,,,0.0,,,,,,,0.0,,,2014-01-11T00:00:00,3,1610612765,DET,Detroit,16-22,35,29,25,21,0,0,0,0,0,0,0,0,0,0,110,0.468,0.704,0.176,32,59,15,0021300545,1610612765,DET,Detroit,Jonas Jerebko,,DNP - Coach's Decision,,,,,,,,,,,,,
