GAME_ID_x,TEAM_ID_x,TEAM_ABBREVIATION_x,TEAM_CITY_x,PLAYER_ID,PLAYER_NAME_x,START_POSITION_x,COMMENT_x,MIN_x,OFF_RATING,DEF_RATING,NET_RATING,AST_PCT,AST_TOV,AST_RATIO,OREB_PCT,DREB_PCT,REB_PCT,TM_TOV_PCT,EFG_PCT,TS_PCT,USG_PCT,PACE,PIE,GAME_DATE_EST,GAME_SEQUENCE,TEAM_ID_y,TEAM_ABBREVIATION_y,TEAM_CITY_NAME,TEAM_WINS_LOSSES,PTS_QTR1,PTS_QTR2,PTS_QTR3,PTS_QTR4,PTS_OT1,PTS_OT2,PTS_OT3,PTS_OT4,PTS_OT5,PTS_OT6,PTS_OT7,PTS_OT8,PTS_OT9,PTS_OT10,PTS,FG_PCT,FT_PCT,FG3_PCT,AST,REB,TOV,GAME_ID_y,TEAM_ID,TEAM_ABBREVIATION,TEAM_CITY_y,PLAYER_NAME_y,START_POSITION_y,COMMENT_y,MIN_y,PTS_OFF_TOV,PTS_2ND_CHANCE,PTS_FB,PTS_PAINT,OPP_PTS_OFF_TOV,OPP_PTS_2ND_CHANCE,OPP_PTS_FB,OPP_PTS_PAINT,BLK,BLKA,PF,PFD
0041300172,1610612757,POR,Portland,201587,Nicolas Batum,F,,40:24,111.9,99.6,12.3,0.2,6.0,33.3,0.03,0.081,0.057,5.6,0.273,0.273,0.129,101.25,0.06,2014-04-23T00:00:00,3,1610612757,POR,Portland,2-0,23,30,30,29,0,0,0,0,0,0,0,0,0,0,112,0.476,0.889,0.348,23,43,14,0041300172,1610612757,POR,Portland,Nicolas Batum,F,,40:24,0.0,0.0,0.0,2.0,10.0,19.0,14.0,52.0,0.0,0.0,0.0,3.0
0041300172,1610612757,POR,Portland,201587,Nicolas Batum,F,,40:24,111.9,99.6,12.3,0.2,6.0,33.3,0.03,0.081,0.057,5.6,0.273,0.273,0.129,101.25,0.06,2014-04-23T00:00:00,3,1610612745,HOU,Houston,0-2,31,22,24,28,0,0,0,0,0,0,0,0,0,0,105,0.433,0.8,0.188,16,42,14,0041300172,1610612757,POR,Portland,Nicolas Batum,F,,40:24,0.0,0.0,0.0,2.0,10.0,19.0,14.0,52.0,0.0,0.0,0.0,3.0
0041300172,1610612757,POR,Portland,200746,LaMarcus Aldridge,F,,36:13,119.6,107.0,12.6,0.067,1.0,3.0,0.107,0.167,0.138,3.0,0.643,0.682,0.386,103.75,0.291,2014-04-23T00:00:00,3,1610612757,POR,Portland,2-0,23,30,30,29,0,0,0,0,0,0,0,0,0,0,112,0.476,0.889,0.348,23,43,14,0041300172,1610612757,POR,Portland,LaMarcus Aldridge,F,,36:13,4.0,8.0,0.0,10.0,10.0,17.0,18.0,52.0,3.0,0.0,2.0,7.0
0041300172,1610612757,POR,Portland,200746,LaMarcus Aldridge,F,,36:13,119.6,107.0,12.6,0.067,1.0,3.0,0.107,0.167,0.138,3.0,0.643,0.682,0.386,103.75,0.291,2014-04-23T00:00:00,3,1610612745,HOU,Houston,0-2,31,22,24,28,0,0,0,0,0,0,0,0,0,0,105,0.433,0.8,0.188,16,42,14,0041300172,1610612757,POR,Portland,LaMarcus Aldridge,F,,36:13,4.0,8.0,0.0,10.0,10.0,17.0,18.0,52.0,3.0,0.0,2.0,7.0
0041300172,1610612757,POR,Portland,201577,Robin Lopez,C,,30:58,135.4,107.2,28.1,0.071,2.0,25.0,0.19,0.2,0.196,12.5,0.6,0.6,0.085,97.08,0.079,2014-04-23T00:00:00,3,1610612757,POR,Portland,2-0,23,30,30,29,0,0,0,0,0,0,0,0,0,0,112,0.476,0.889,0.348,23,43,14,0041300172,1610612757,POR,Portland,Robin Lopez,C,,30:58,0.0,2.0,0.0,4.0,4.0,6.0,9.0,46.0,3.0,0.0,5.0,1.0
0041300172,1610612757,POR,Portland,201577,Robin Lopez,C,,30:58,135.4,107.2,28.1,0.071,2.0,25.0,0.19,0.2,0.196,12.5,0.6,0.6,0.085,97.08,0.079,2014-04-23T00:00:00,3,1610612745,HOU,Houston,0-2,31,22,24,28,0,0,0,0,0,0,0,0,0,0,105,0.433,0.8,0.188,16,42,14,0041300172,1610612757,POR,Portland,Robin Lopez,C,,30:58,0.0,2.0,0.0,4.0,4.0,6.0,9.0,46.0,3.0,0.0,5.0,1.0
0041300172,1610612757,POR,Portland,202083,Wesley Matthews,G,,39:31,119.8,109.1,10.7,0.032,0.5,7.1,0.0,0.105,0.058,14.3,0.409,0.409,0.146,99.87,0.022,2014-04-23T00:00:00,3,1610612757,POR,Portland,2-0,23,30,30,29,0,0,0,0,0,0,0,0,0,0,112,0.476,0.889,0.348,23,43,14,0041300172,1610612757,POR,Portland,Wesley Matthews,G,,39:31,3.0,0.0,2.0,4.0,8.0,16.0,16.0,60.0,0.0,1.0,3.0,3.0
0041300172,1610612757,POR,Portland,202083,Wesley Matthews,G,,39:31,119.8,109.1,10.7,0.032,0.5,7.1,0.0,0.105,0.058,14.3,0.409,0.409,0.146,99.87,0.022,2014-04-23T00:00:00,3,1610612745,HOU,Houston,0-2,31,22,24,28,0,0,0,0,0,0,0,0,0,0,105,0.433,0.8,0.188,16,42,14,0041300172,1610612757,POR,Portland,Wesley Matthews,G,,39:31,3.0,0.0,2.0,4.0,8.0,16.0,16.0,60.0,0.0,1.0,3.0,3.0
0041300172,1610612757,POR,Portland,203081,Damian Lillard,G,,41:33,122.9,101.7,21.2,0.324,3.67,33.1,0.065,0.162,0.118,9.0,0.286,0.467,0.233,102.17,0.1,2014-04-23T00:00:00,3,1610612757,POR,Portland,2-0,23,30,30,29,0,0,0,0,0,0,0,0,0,0,112,0.476,0.889,0.348,23,43,14,0041300172,1610612757,POR,Portland,Damian Lillard,G,,41:33,6.0,4.0,0.0,2.0,10.0,13.0,18.0,60.0,0.0,3.0,5.0,10.0
0041300172,1610612757,POR,Portland,203081,Damian Lillard,G,,41:33,122.9,101.7,21.2,0.324,3.67,33.1,0.065,0.162,0.118,9.0,0.286,0.467,0.233,102.17,0.1,2014-04-23T00:00:00,3,1610612745,HOU,Houston,0-2,31,22,24,28,0,0,0,0,0,0,0,0,0,0,105,0.433,0.8,0.188,16,42,14,0041300172,1610612757,POR,Portland,Damian Lillard,G,,41:33,6.0,4.0,0.0,2.0,10.0,13.0,18.0,60.0,0.0,3.0,5.0,10.0
0041300172,1610612757,POR,Portland,203080,Thomas Robinson,,,7:28,34.6,109.6,-74.9,0.0,0.0,0.0,0.0,0.333,0.118,50.0,0.5,0.5,0.207,120.11,-0.063,2014-04-23T00:00:00,3,1610612757,POR,Portland,2-0,23,30,30,29,0,0,0,0,0,0,0,0,0,0,112,0.476,0.889,0.348,23,43,14,0041300172,1610612757,POR,Portland,Thomas Robinson,,,7:28,2.0,0.0,2.0,2.0,4.0,9.0,9.0,14.0,2.0,0.0,4.0,0.0
0041300172,1610612757,POR,Portland,203080,Thomas Robinson,,,7:28,34.6,109.6,-74.9,0.0,0.0,0.0,0.0,0.333,0.118,50.0,0.5,0.5,0.207,120.11,-0.063,2014-04-23T00:00:00,3,1610612745,HOU,Houston,0-2,31,22,24,28,0,0,0,0,0,0,0,0,0,0,105,0.433,0.8,0.188,16,42,14,0041300172,1610612757,POR,Portland,Thomas Robinson,,,7:28,2.0,0.0,2.0,2.0,4.0,9.0,9.0,14.0,2.0,0.0,4.0,0.0
0041300172,1610612757,POR,Portland,2590,Mo Williams,,,23:18,94.3,88.0,6.3,0.0,0.0,0.0,0.0,0.037,0.02,17.7,0.625,0.697,0.21,106.31,0.055,2014-04-23T00:00:00,3,1610612757,POR,Portland,2-0,23,30,30,29,0,0,0,0,0,0,0,0,0,0,112,0.476,0.889,0.348,23,43,14,0041300172,1610612757,POR,Portland,Mo Williams,,,23:18,4.0,0.0,2.0,4.0,8.0,11.0,12.0,32.0,0.0,0.0,4.0,1.0
0041300172,1610612757,POR,Portland,2590,Mo Williams,,,23:18,94.3,88.0,6.3,0.0,0.0,0.0,0.0,0.037,0.02,17.7,0.625,0.697,0.21,106.31,0.055,2014-04-23T00:00:00,3,1610612745,HOU,Houston,0-2,31,22,24,28,0,0,0,0,0,0,0,0,0,0,105,0.433,0.8,0.188,16,42,14,0041300172,1610612757,POR,Portland,Mo Williams,,,23:18,4.0,0.0,2.0,4.0,8.0,11.0,12.0,32.0,0.0,0.0,4.0,1.0
0041300172,1610612757,POR,Portland,2748,Dorell Wright,,,18:07,104.1,76.2,27.9,0.222,2.0,20.5,0.067,0.143,0.111,10.2,1.1,1.109,0.196,97.08,0.42,2014-04-23T00:00:00,3,1610612757,POR,Portland,2-0,23,30,30,29,0,0,0,0,0,0,0,0,0,0,112,0.476,0.889,0.348,23,43,14,0041300172,1610612757,POR,Portland,Dorell Wright,,,18:07,0.0,2.0,0.0,2.0,6.0,2.0,4.0,24.0,3.0,0.0,1.0,2.0
0041300172,1610612757,POR,Portland,2748,Dorell Wright,,,18:07,104.1,76.2,27.9,0.222,2.0,20.5,0.067,0.143,0.111,10.2,1.1,1.109,0.196,97.08,0.42,2014-04-23T00:00:00,3,1610612745,HOU,Houston,0-2,31,22,24,28,0,0,0,0,0,0,0,0,0,0,105,0.433,0.8,0.188,16,42,14,0041300172,1610612757,POR,Portland,Dorell Wright,,,18:07,0.0,2.0,0.0,2.0,6.0,2.0,4.0,24.0,3.0,0.0,1.0,2.0
0041300172,1610612757,POR,Portland,200777,Joel Freeland,,,2:27,0.0,51.5,-51.5,0.0,0.0,0.0,0.0,0.5,0.286,100.0,0.0,0.0,0.25,77.19,0.75,2014-04-23T00:00:00,3,1610612757,POR,Portland,2-0,23,30,30,29,0,0,0,0,0,0,0,0,0,0,112,0.476,0.889,0.348,23,43,14,0041300172,1610612757,POR,Portland,Joel Freeland,,,2:27,0.0,0.0,0.0,0.0,0.0,2.0,0.0,0.0,0.0,0.0,4.0,0.0
0041300172,1610612757,POR,Portland,200777,Joel Freeland,,,2:27,0.0,51.5,-51.5,0.0,0.0,0.0,0.0,0.5,0.286,100.0,0.0,0.0,0.25,77.19,0.75,2014-04-23T00:00:00,3,1610612745,HOU,Houston,0-2,31,22,24,28,0,0,0,0,0,0,0,0,0,0,105,0.433,0.8,0.188,16,42,14,0041300172,1610612757,POR,Portland,Joel Freeland,,,2:27,0.0,0.0,0.0,0.0,0.0,2.0,0.0,0.0,0.0,0.0,4.0,0.0
0041300172,1610612757,POR,Portland,203115,Will Barton,,DNP - Coach's Decision,,,,,,,0.0,,,,,,,0.0,,,2014-04-23T00:00:00,3,1610612757,POR,Portland,2-0,23,30,30,29,0,0,0,0,0,0,0,0,0,0,112,0.476,0.889,0.348,23,43,14,0041300172,1610612757,POR,Portland,Will Barton,,DNP - Coach's Decision,,,,,,,,,,,,,
0041300172,1610612757,POR,Portland,203115,Will Barton,,DNP - Coach's Decision,,,,,,,0.0,,,,,,,0.0,,,2014-04-23T00:00:00,3,1610612745,HOU,Houston,0-2,31,22,24,28,0,0,0,0,0,0,0,0,0,0,105,0.433,0.8,0.188,16,42,14,0041300172,1610612757,POR,Portland,Will Barton,,DNP - Coach's Decision,,,,,,,,,,,,,
0041300172,1610612757,POR,Portland,203086,Meyers Leonard,,DNP - Coach's Decision,,,,,,,0.0,,,,,,,0.0,,,2014-04-23T00:00:00,3,1610612757,POR,Portland,2-0,23,30,30,29,0,0,0,0,0,0,0,0,0,0,112,0.476,0.889,0.348,23,43,14,0041300172,1610612757,POR,Portland,Meyers Leonard,,DNP - Coach's Decision,,,,,,,,,,,,,
0041300172,1610612757,POR,Portland,203086,Meyers Leonard,,DNP - Coach's Decision,,,,,,,0.0,,,,,,,0.0,,,2014-04-23T00:00:00,3,1610612745,HOU,Houston,0-2,31,22,24,28,0,0,0,0,0,0,0,0,0,0,105,0.433,0.8,0.188,16,42,14,0041300172,1610612757,POR,Portland,Meyers Leonard,,DNP - Coach's Decision,,,,,,,,,,,,,
0041300172,1610612757,POR,Portland,203468,CJ McCollum,,DNP - Coach's Decision,,,,,,,0.0,,,,,,,0.0,,,2014-04-23T00:00:00,3,1610612757,POR,Portland,2-0,23,30,30,29,0,0,0,0,0,0,0,0,0,0,112,0.476,0.889,0.348,23,43,14,0041300172,1610612757,POR,Portland,CJ McCollum,,DNP - Coach's Decision,,,,,,,,,,,,,
0041300172,1610612757,POR,Portland,203468,CJ McCollum,,DNP - Coach's Decision,,,,,,,0.0,,,,,,,0.0,,,2014-04-23T00:00:00,3,1610612745,HOU,Houston,0-2,31,22,24,28,0,0,0,0,0,0,0,0,0,0,105,0.433,0.8,0.188,16,42,14,0041300172,1610612757,POR,Portland,CJ McCollum,,DNP - Coach's Decision,,,,,,,,,,,,,
0041300172,1610612757,POR,Portland,2248,Earl Watson,,DNP - Coach's Decision,,,,,,,0.0,,,,,,,0.0,,,2014-04-23T00:00:00,3,1610612757,POR,Portland,2-0,23,30,30,29,0,0,0,0,0,0,0,0,0,0,112,0.476,0.889,0.348,23,43,14,0041300172,1610612757,POR,Portland,Earl Watson,,DNP - Coach's Decision,,,,,,,,,,,,,
0041300172,1610612757,POR,Portland,2248,Earl Watson,,DNP - Coach's Decision,,,,,,,0.0,,,,,,,0.0,,,2014-04-23T00:00:00,3,1610612745,HOU,Houston,0-2,31,22,24,28,0,0,0,0,0,0,0,0,0,0,105,0.433,0.8,0.188,16,42,14,0041300172,1610612757,POR,Portland,Earl Watson,,DNP - Coach's Decision,,,,,,,,,,,,,
0041300172,1610612745,HOU,Houston,202718,Chandler Parsons,F,,40:14,105.4,117.7,-12.3,0.071,0.0,10.4,0.026,0.188,0.099,0.0,0.333,0.436,0.175,100.16,0.09,2014-04-23T00:00:00,3,1610612757,POR,Portland,2-0,23,30,30,29,0,0,0,0,0,0,0,0,0,0,112,0.476,0.889,0.348,23,43,14,0041300172,1610612745,HOU,Houston,Chandler Parsons,F,,40:14,4.0,2.0,7.0,10.0,17.0,14.0,2.0,24.0,0.0,1.0,2.0,4.0
0041300172,1610612745,HOU,Houston,202718,Chandler Parsons,F,,40:14,105.4,117.7,-12.3,0.071,0.0,10.4,0.026,0.188,0.099,0.0,0.333,0.436,0.175,100.16,0.09,2014-04-23T00:00:00,3,1610612745,HOU,Houston,0-2,31,22,24,28,0,0,0,0,0,0,0,0,0,0,105,0.433,0.8,0.188,16,42,14,0041300172,1610612745,HOU,Houston,Chandler Parsons,F,,40:14,4.0,2.0,7.0,10.0,17.0,14.0,2.0,24.0,0.0,1.0,2.0,4.0
0041300172,1610612745,HOU,Houston,203093,Terrence Jones,F,,26:15,103.3,118.0,-14.6,0.056,0.0,6.8,0.16,0.2,0.178,0.0,0.455,0.477,0.216,99.25,0.126,2014-04-23T00:00:00,3,1610612757,POR,Portland,2-0,23,30,30,29,0,0,0,0,0,0,0,0,0,0,112,0.476,0.889,0.348,23,43,14,0041300172,1610612745,HOU,Houston,Terrence Jones,F,,26:15,2.0,2.0,2.0,8.0,10.0,10.0,2.0,16.0,0.0,3.0,1.0,3.0
0041300172,1610612745,HOU,Houston,203093,Terrence Jones,F,,26:15,103.3,118.0,-14.6,0.056,0.0,6.8,0.16,0.2,0.178,0.0,0.455,0.477,0.216,99.25,0.126,2014-04-23T00:00:00,3,1610612745,HOU,Houston,0-2,31,22,24,28,0,0,0,0,0,0,0,0,0,0,105,0.433,0.8,0.188,16,42,14,0041300172,1610612745,HOU,Houston,Terrence Jones,F,,26:15,2.0,2.0,2.0,8.0,10.0,10.0,2.0,16.0,0.0,3.0,1.0,3.0
0041300172,1610612745,HOU,Houston,2730,Dwight Howard,C,,35:13,103.0,110.7,-7.8,0.059,0.17,3.1,0.171,0.276,0.219,18.7,0.591,0.638,0.343,102.17,0.227,2014-04-23T00:00:00,3,1610612757,POR,Portland,2-0,23,30,30,29,0,0,0,0,0,0,0,0,0,0,112,0.476,0.889,0.348,23,43,14,0041300172,1610612745,HOU,Houston,Dwight Howard,C,,35:13,0.0,4.0,2.0,26.0,12.0,14.0,4.0,22.0,4.0,1.0,5.0,8.0
0041300172,1610612745,HOU,Houston,2730,Dwight Howard,C,,35:13,103.0,110.7,-7.8,0.059,0.17,3.1,0.171,0.276,0.219,18.7,0.591,0.638,0.343,102.17,0.227,2014-04-23T00:00:00,3,1610612745,HOU,Houston,0-2,31,22,24,28,0,0,0,0,0,0,0,0,0,0,105,0.433,0.8,0.188,16,42,14,0041300172,1610612745,HOU,Houston,Dwight Howard,C,,35:13,0.0,4.0,2.0,26.0,12.0,14.0,4.0,22.0,4.0,1.0,5.0,8.0
0041300172,1610612745,HOU,Houston,201935,James Harden,G,,43:41,107.2,111.1,-3.8,0.129,0.8,13.4,0.0,0.083,0.04,16.8,0.368,0.434,0.245,99.21,0.014,2014-04-23T00:00:00,3,1610612757,POR,Portland,2-0,23,30,30,29,0,0,0,0,0,0,0,0,0,0,112,0.476,0.889,0.348,23,43,14,0041300172,1610612745,HOU,Houston,James Harden,G,,43:41,2.0,4.0,2.0,8.0,12.0,16.0,4.0,28.0,0.0,3.0,6.0,7.0
0041300172,1610612745,HOU,Houston,201935,James Harden,G,,43:41,107.2,111.1,-3.8,0.129,0.8,13.4,0.0,0.083,0.04,16.8,0.368,0.434,0.245,99.21,0.014,2014-04-23T00:00:00,3,1610612745,HOU,Houston,0-2,31,22,24,28,0,0,0,0,0,0,0,0,0,0,105,0.433,0.8,0.188,16,42,14,0041300172,1610612745,HOU,Houston,James Harden,G,,43:41,2.0,4.0,2.0,8.0,12.0,16.0,4.0,28.0,0.0,3.0,6.0,7.0
0041300172,1610612745,HOU,Houston,201976,Patrick Beverley,G,,41:21,102.0,117.7,-15.7,0.071,0.0,13.6,0.027,0.031,0.029,0.0,0.5,0.549,0.125,101.74,0.047,2014-04-23T00:00:00,3,1610612757,POR,Portland,2-0,23,30,30,29,0,0,0,0,0,0,0,0,0,0,112,0.476,0.889,0.348,23,43,14,0041300172,1610612745,HOU,Houston,Patrick Beverley,G,,41:21,4.0,3.0,5.0,6.0,17.0,16.0,4.0,26.0,0.0,1.0,5.0,2.0
0041300172,1610612745,HOU,Houston,201976,Patrick Beverley,G,,41:21,102.0,117.7,-15.7,0.071,0.0,13.6,0.027,0.031,0.029,0.0,0.5,0.549,0.125,101.74,0.047,2014-04-23T00:00:00,3,1610612745,HOU,Houston,0-2,31,22,24,28,0,0,0,0,0,0,0,0,0,0,105,0.433,0.8,0.188,16,42,14,0041300172,1610612745,HOU,Houston,Patrick Beverley,G,,41:21,4.0,3.0,5.0,6.0,17.0,16.0,4.0,26.0,0.0,1.0,5.0,2.0
0041300172,1610612745,HOU,Houston,201600,Omer Asik,,,24:14,89.3,104.5,-15.2,0.067,1.0,14.3,0.095,0.136,0.116,14.3,0.6,0.6,0.108,100.12,0.078,2014-04-23T00:00:00,3,1610612757,POR,Portland,2-0,23,30,30,29,0,0,0,0,0,0,0,0,0,0,112,0.476,0.889,0.348,23,43,14,0041300172,1610612745,HOU,Houston,Omer Asik,,,24:14,0.0,4.0,0.0,6.0,11.0,4.0,6.0,16.0,0.0,1.0,3.0,0.0
0041300172,1610612745,HOU,Houston,201600,Omer Asik,,,24:14,89.3,104.5,-15.2,0.067,1.0,14.3,0.095,0.136,0.116,14.3,0.6,0.6,0.108,100.12,0.078,2014-04-23T00:00:00,3,1610612745,HOU,Houston,0-2,31,22,24,28,0,0,0,0,0,0,0,0,0,0,105,0.433,0.8,0.188,16,42,14,0041300172,1610612745,HOU,Houston,Omer Asik,,,24:14,0.0,4.0,0.0,6.0,11.0,4.0,6.0,16.0,0.0,1.0,3.0,0.0
0041300172,1610612745,HOU,Houston,202391,Jeremy Lin,,,24:43,96.4,106.6,-10.2,0.278,2.5,36.3,0.0,0.143,0.062,14.5,0.2,0.37,0.139,106.38,0.037,2014-04-23T00:00:00,3,1610612757,POR,Portland,2-0,23,30,30,29,0,0,0,0,0,0,0,0,0,0,112,0.476,0.889,0.348,23,43,14,0041300172,1610612745,HOU,Houston,Jeremy Lin,,,24:43,0.0,0.0,2.0,2.0,9.0,6.0,6.0,16.0,0.0,1.0,4.0,4.0
0041300172,1610612745,HOU,Houston,202391,Jeremy Lin,,,24:43,96.4,106.6,-10.2,0.278,2.5,36.3,0.0,0.143,0.062,14.5,0.2,0.37,0.139,106.38,0.037,2014-04-23T00:00:00,3,1610612745,HOU,Houston,0-2,31,22,24,28,0,0,0,0,0,0,0,0,0,0,105,0.433,0.8,0.188,16,42,14,0041300172,1610612745,HOU,Houston,Jeremy Lin,,,24:43,0.0,0.0,2.0,2.0,9.0,6.0,6.0,16.0,0.0,1.0,4.0,4.0
0041300172,1610612745,HOU,Houston,101128,Francisco Garcia,,,4:19,50.5,131.6,-81.1,0.0,0.0,0.0,0.0,0.0,0.0,0.0,0.5,0.5,0.155,125.11,0.0,2014-04-23T00:00:00,3,1610612757,POR,Portland,2-0,23,30,30,29,0,0,0,0,0,0,0,0,0,0,112,0.476,0.889,0.348,23,43,14,0041300172,1610612745,HOU,Houston,Francisco Garcia,,,4:19,0.0,0.0,0.0,2.0,7.0,0.0,2.0,2.0,0.0,0.0,1.0,0.0
0041300172,1610612745,HOU,Houston,101128,Francisco Garcia,,,4:19,50.5,131.6,-81.1,0.0,0.0,0.0,0.0,0.0,0.0,0.0,0.5,0.5,0.155,125.11,0.0,2014-04-23T00:00:00,3,1610612745,HOU,Houston,0-2,31,22,24,28,0,0,0,0,0,0,0,0,0,0,105,0.433,0.8,0.188,16,42,14,0041300172,1610612745,HOU,Houston,Francisco Garcia,,,4:19,0.0,0.0,0.0,2.0,7.0,0.0,2.0,2.0,0.0,0.0,1.0,0.0
0041300172,1610612745,HOU,Houston,201956,Omri Casspi,,DNP - Coach's Decision,,,,,,,0.0,,,,,,,0.0,,,2014-04-23T00:00:00,3,1610612757,POR,Portland,2-0,23,30,30,29,0,0,0,0,0,0,0,0,0,0,112,0.476,0.889,0.348,23,43,14,0041300172,1610612745,HOU,Houston,Omri Casspi,,DNP - Coach's Decision,,,,,,,,,,,,,
0041300172,1610612745,HOU,Houston,201956,Omri Casspi,,DNP - Coach's Decision,,,,,,,0.0,,,,,,,0.0,,,2014-04-23T00:00:00,3,1610612745,HOU,Houston,0-2,31,22,24,28,0,0,0,0,0,0,0,0,0,0,105,0.433,0.8,0.188,16,42,14,0041300172,1610612745,HOU,Houston,Omri Casspi,,DNP - Coach's Decision,,,,,,,,,,,,,
0041300172,1610612745,HOU,Houston,203584,Troy Daniels,,DNP - Coach's Decision,,,,,,,0.0,,,,,,,0.0,,,2014-04-23T00:00:00,3,1610612757,POR,Portland,2-0,23,30,30,29,0,0,0,0,0,0,0,0,0,0,112,0.476,0.889,0.348,23,43,14,0041300172,1610612745,HOU,Houston,Troy Daniels,,DNP - Coach's Decision,,,,,,,,,,,,,
0041300172,1610612745,HOU,Houston,203584,Troy Daniels,,DNP - Coach's Decision,,,,,,,0.0,,,,,,,0.0,,,2014-04-23T00:00:00,3,1610612745,HOU,Houston,0-2,31,22,24,28,0,0,0,0,0,0,0,0,0,0,105,0.433,0.8,0.188,16,42,14,0041300172,1610612745,HOU,Houston,Troy Daniels,,DNP - Coach's Decision,,,,,,,,,,,,,
0041300172,1610612745,HOU,Houston,202706,Jordan Hamilton,,DNP - Coach's Decision,,,,,,,0.0,,,,,,,0.0,,,2014-04-23T00:00:00,3,1610612757,POR,Portland,2-0,23,30,30,29,0,0,0,0,0,0,0,0,0,0,112,0.476,0.889,0.348,23,43,14,0041300172,1610612745,HOU,Houston,Jordan Hamilton,,DNP - Coach's Decision,,,,,,,,,,,,,
0041300172,1610612745,HOU,Houston,202706,Jordan Hamilton,,DNP - Coach's Decision,,,,,,,0.0,,,,,,,0.0,,,2014-04-23T00:00:00,3,1610612745,HOU,Houston,0-2,31,22,24,28,0,0,0,0,0,0,0,0,0,0,105,0.433,0.8,0.188,16,42,14,0041300172,1610612745,HOU,Houston,Jordan Hamilton,,DNP - Coach's Decision,,,,,,,,,,,,,
0041300172,1610612745,HOU,Houston,202700,Donatas Motiejunas,,DNP - Coach's Decision,,,,,,,0.0,,,,,,,0.0,,,2014-04-23T00:00:00,3,1610612757,POR,Portland,2-0,23,30,30,29,0,0,0,0,0,0,0,0,0,0,112,0.476,0.889,0.348,23,43,14,0041300172,1610612745,HOU,Houston,Donatas Motiejunas,,DNP - Coach's Decision,,,,,,,,,,,,,
0041300172,1610612745,HOU,Houston,202700,Donatas Motiejunas,,DNP - Coach's Decision,,,,,,,0.0,,,,,,,0.0,,,2014-04-23T00:00:00,3,1610612745,HOU,Houston,0-2,31,22,24,28,0,0,0,0,0,0,0,0,0,0,105,0.433,0.8,0.188,16,42,14,0041300172,1610612745,HOU,Houston,Donatas Motiejunas,,DNP - Coach's Decision,,,,,,,,,,,,,
0041300172,1610612745,HOU,Houston,2694,Josh Powell,,DNP - Coach's Decision,,,,,,,0.0,,,,,,,0.0,,,2014-04-23T00:00:00,3,1610612757,POR,Portland,2-0,23,30,30,29,0,0,0,0,0,0,0,0,0,0,112,0.476,0.889,0.348,23,43,14,0041300172,1610612745,HOU,Houston,Josh Powell,,DNP - Coach's Decision,,,,,,,,,,,,,
0041300172,1610612745,HOU,Houston,2694,Josh Powell,,DNP - Coach's Decision,,,,,,,0.0,,,,,,,0.0,,,2014-04-23T00:00:00,3,1610612745,HOU,Houston,0-2,31,22,24,28,0,0,0,0,0,0,0,0,0,0,105,0.433,0.8,0.188,16,42,14,0041300172,1610612745,HOU,Houston,Josh Powell,,DNP - Coach's Decision,,,,,,,,,,,,,
