GAME_ID_x,TEAM_ID_x,TEAM_ABBREVIATION_x,TEAM_CITY_x,PLAYER_ID,PLAYER_NAME_x,START_POSITION_x,COMMENT_x,MIN_x,OFF_RATING,DEF_RATING,NET_RATING,AST_PCT,AST_TOV,AST_RATIO,OREB_PCT,DREB_PCT,REB_PCT,TM_TOV_PCT,EFG_PCT,TS_PCT,USG_PCT,PACE,PIE,GAME_DATE_EST,GAME_SEQUENCE,TEAM_ID_y,TEAM_ABBREVIATION_y,TEAM_CITY_NAME,TEAM_WINS_LOSSES,PTS_QTR1,PTS_QTR2,PTS_QTR3,PTS_QTR4,PTS_OT1,PTS_OT2,PTS_OT3,PTS_OT4,PTS_OT5,PTS_OT6,PTS_OT7,PTS_OT8,PTS_OT9,PTS_OT10,PTS,FG_PCT,FT_PCT,FG3_PCT,AST,REB,TOV,GAME_ID_y,TEAM_ID,TEAM_ABBREVIATION,TEAM_CITY_y,PLAYER_NAME_y,START_POSITION_y,COMMENT_y,MIN_y,PTS_OFF_TOV,PTS_2ND_CHANCE,PTS_FB,PTS_PAINT,OPP_PTS_OFF_TOV,OPP_PTS_2ND_CHANCE,OPP_PTS_FB,OPP_PTS_PAINT,BLK,BLKA,PF,PFD
0041300142,1610612742,DAL,Dallas,1890,Shawn Marion,F,,34:49,119.3,104.0,15.3,0.083,0.0,15.5,0.103,0.105,0.104,0.0,0.9,0.919,0.136,94.41,0.21,2014-04-23T00:00:00,2,1610612742,DAL,Dallas,1-1,24,32,32,25,0,0,0,0,0,0,0,0,0,0,113,0.489,0.938,0.381,19,35,7,0041300142,1610612742,DAL,Dallas,Shawn Marion,F,,34:49,9,4,6,12,6,6,11,20,0,0,2,2
0041300142,1610612742,DAL,Dallas,1890,Shawn Marion,F,,34:49,119.3,104.0,15.3,0.083,0.0,15.5,0.103,0.105,0.104,0.0,0.9,0.919,0.136,94.41,0.21,2014-04-23T00:00:00,2,1610612759,SAS,San Antonio,1-1,23,28,24,17,0,0,0,0,0,0,0,0,0,0,92,0.5,0.621,0.5,17,32,22,0041300142,1610612742,DAL,Dallas,Shawn Marion,F,,34:49,9,4,6,12,6,6,11,20,0,0,2,2
0041300142,1610612742,DAL,Dallas,1717,Dirk Nowitzki,F,,34:38,120.0,101.5,18.5,0.042,1.0,4.7,0.0,0.185,0.088,4.7,0.395,0.412,0.266,91.37,0.085,2014-04-23T00:00:00,2,1610612742,DAL,Dallas,1-1,24,32,32,25,0,0,0,0,0,0,0,0,0,0,113,0.489,0.938,0.381,19,35,7,0041300142,1610612742,DAL,Dallas,Dirk Nowitzki,F,,34:38,2,2,3,2,8,9,12,20,1,0,2,4
0041300142,1610612742,DAL,Dallas,1717,Dirk Nowitzki,F,,34:38,120.0,101.5,18.5,0.042,1.0,4.7,0.0,0.185,0.088,4.7,0.395,0.412,0.266,91.37,0.085,2014-04-23T00:00:00,2,1610612759,SAS,San Antonio,1-1,23,28,24,17,0,0,0,0,0,0,0,0,0,0,92,0.5,0.621,0.5,17,32,22,0041300142,1610612742,DAL,Dallas,Dirk Nowitzki,F,,34:38,2,2,3,2,8,9,12,20,1,0,2,4
0041300142,1610612742,DAL,Dallas,2223,Samuel Dalembert,C,,16:03,112.2,109.9,2.3,0.0,0.0,0.0,0.308,0.333,0.318,25.8,0.5,0.694,0.104,88.82,0.134,2014-04-23T00:00:00,2,1610612742,DAL,Dallas,1-1,24,32,32,25,0,0,0,0,0,0,0,0,0,0,113,0.489,0.938,0.381,19,35,7,0041300142,1610612742,DAL,Dallas,Samuel Dalembert,C,,16:03,0,2,0,2,5,5,0,8,1,1,0,2
0041300142,1610612742,DAL,Dallas,2223,Samuel Dalembert,C,,16:03,112.2,109.9,2.3,0.0,0.0,0.0,0.308,0.333,0.318,25.8,0.5,0.694,0.104,88.82,0.134,2014-04-23T00:00:00,2,1610612759,SAS,San Antonio,1-1,23,28,24,17,0,0,0,0,0,0,0,0,0,0,92,0.5,0.621,0.5,17,32,22,0041300142,1610612742,DAL,Dallas,Samuel Dalembert,C,,16:03,0,2,0,2,5,5,0,8,1,1,0,2
0041300142,1610612742,DAL,Dallas,101145,Monta Ellis,G,,33:46,118.5,103.5,15.0,0.13,3.0,11.6,0.036,0.105,0.064,3.9,0.425,0.483,0.3,94.21,0.137,2014-04-23T00:00:00,2,1610612742,DAL,Dallas,1-1,24,32,32,25,0,0,0,0,0,0,0,0,0,0,113,0.489,0.938,0.381,19,35,7,0041300142,1610612742,DAL,Dallas,Monta Ellis,G,,33:46,10,4,4,8,9,9,11,20,0,1,1,5
0041300142,1610612742,DAL,Dallas,101145,Monta Ellis,G,,33:46,118.5,103.5,15.0,0.13,3.0,11.6,0.036,0.105,0.064,3.9,0.425,0.483,0.3,94.21,0.137,2014-04-23T00:00:00,2,1610612759,SAS,San Antonio,1-1,23,28,24,17,0,0,0,0,0,0,0,0,0,0,92,0.5,0.621,0.5,17,32,22,0041300142,1610612742,DAL,Dallas,Monta Ellis,G,,33:46,10,4,4,8,9,9,11,20,0,1,1,5
0041300142,1610612742,DAL,Dallas,101181,Jose Calderon,G,,28:05,127.6,107.2,20.4,0.238,5.0,30.4,0.0,0.0,0.0,6.1,0.55,0.575,0.174,91.53,0.087,2014-04-23T00:00:00,2,1610612742,DAL,Dallas,1-1,24,32,32,25,0,0,0,0,0,0,0,0,0,0,113,0.489,0.938,0.381,19,35,7,0041300142,1610612742,DAL,Dallas,Jose Calderon,G,,28:05,4,0,0,0,7,7,6,14,0,0,2,2
0041300142,1610612742,DAL,Dallas,101181,Jose Calderon,G,,28:05,127.6,107.2,20.4,0.238,5.0,30.4,0.0,0.0,0.0,6.1,0.55,0.575,0.174,91.53,0.087,2014-04-23T00:00:00,2,1610612759,SAS,San Antonio,1-1,23,28,24,17,0,0,0,0,0,0,0,0,0,0,92,0.5,0.621,0.5,17,32,22,0041300142,1610612742,DAL,Dallas,Jose Calderon,G,,28:05,4,0,0,0,7,7,6,14,0,0,2,2
0041300142,1610612742,DAL,Dallas,2734,Devin Harris,,,24:09,115.0,95.1,19.9,0.333,2.5,29.6,0.0,0.235,0.121,11.8,0.889,0.911,0.233,91.79,0.323,2014-04-23T00:00:00,2,1610612742,DAL,Dallas,1-1,24,32,32,25,0,0,0,0,0,0,0,0,0,0,113,0.489,0.938,0.381,19,35,7,0041300142,1610612742,DAL,Dallas,Devin Harris,,,24:09,2,2,2,6,3,2,6,16,1,0,4,1
0041300142,1610612742,DAL,Dallas,2734,Devin Harris,,,24:09,115.0,95.1,19.9,0.333,2.5,29.6,0.0,0.235,0.121,11.8,0.889,0.911,0.233,91.79,0.323,2014-04-23T00:00:00,2,1610612759,SAS,San Antonio,1-1,23,28,24,17,0,0,0,0,0,0,0,0,0,0,92,0.5,0.621,0.5,17,32,22,0041300142,1610612742,DAL,Dallas,Devin Harris,,,24:09,2,2,2,6,3,2,6,16,1,0,4,1
0041300142,1610612742,DAL,Dallas,1713,Vince Carter,,,22:00,141.1,98.7,42.4,0.087,2.0,20.2,0.1,0.0,0.043,10.1,0.583,0.581,0.166,91.68,0.061,2014-04-23T00:00:00,2,1610612742,DAL,Dallas,1-1,24,32,32,25,0,0,0,0,0,0,0,0,0,0,113,0.489,0.938,0.381,19,35,7,0041300142,1610612742,DAL,Dallas,Vince Carter,,,22:00,2,0,0,4,6,3,1,12,0,0,1,2
0041300142,1610612742,DAL,Dallas,1713,Vince Carter,,,22:00,141.1,98.7,42.4,0.087,2.0,20.2,0.1,0.0,0.043,10.1,0.583,0.581,0.166,91.68,0.061,2014-04-23T00:00:00,2,1610612759,SAS,San Antonio,1-1,23,28,24,17,0,0,0,0,0,0,0,0,0,0,92,0.5,0.621,0.5,17,32,22,0041300142,1610612742,DAL,Dallas,Vince Carter,,,22:00,2,0,0,4,6,3,1,12,0,0,1,2
0041300142,1610612742,DAL,Dallas,201148,Brandan Wright,,,8:32,117.4,82.8,34.6,0.167,0.0,33.3,0.0,0.143,0.077,0.0,1.0,1.0,0.112,108.0,0.148,2014-04-23T00:00:00,2,1610612742,DAL,Dallas,1-1,24,32,32,25,0,0,0,0,0,0,0,0,0,0,113,0.489,0.938,0.381,19,35,7,0041300142,1610612742,DAL,Dallas,Brandan Wright,,,8:32,0,0,0,4,4,4,8,8,0,0,2,0
0041300142,1610612742,DAL,Dallas,201148,Brandan Wright,,,8:32,117.4,82.8,34.6,0.167,0.0,33.3,0.0,0.143,0.077,0.0,1.0,1.0,0.112,108.0,0.148,2014-04-23T00:00:00,2,1610612759,SAS,San Antonio,1-1,23,28,24,17,0,0,0,0,0,0,0,0,0,0,92,0.5,0.621,0.5,17,32,22,0041300142,1610612742,DAL,Dallas,Brandan Wright,,,8:32,0,0,0,4,4,4,8,8,0,0,2,0
0041300142,1610612742,DAL,Dallas,201971,DeJuan Blair,,,14:12,151.4,95.6,55.8,0.0,0.0,0.0,0.375,0.5,0.438,0.0,0.5,0.581,0.221,95.28,0.24,2014-04-23T00:00:00,2,1610612742,DAL,Dallas,1-1,24,32,32,25,0,0,0,0,0,0,0,0,0,0,113,0.489,0.938,0.381,19,35,7,0041300142,1610612742,DAL,Dallas,DeJuan Blair,,,14:12,4,0,2,4,1,0,1,6,0,0,3,1
0041300142,1610612742,DAL,Dallas,201971,DeJuan Blair,,,14:12,151.4,95.6,55.8,0.0,0.0,0.0,0.375,0.5,0.438,0.0,0.5,0.581,0.221,95.28,0.24,2014-04-23T00:00:00,2,1610612759,SAS,San Antonio,1-1,23,28,24,17,0,0,0,0,0,0,0,0,0,0,92,0.5,0.621,0.5,17,32,22,0041300142,1610612742,DAL,Dallas,DeJuan Blair,,,14:12,4,0,2,4,1,0,1,6,0,0,3,1
0041300142,1610612742,DAL,Dallas,203109,Jae Crowder,,,16:20,118.6,96.7,21.9,0.0,0.0,0.0,0.083,0.0,0.04,0.0,0.25,0.25,0.114,88.41,-0.057,2014-04-23T00:00:00,2,1610612742,DAL,Dallas,1-1,24,32,32,25,0,0,0,0,0,0,0,0,0,0,113,0.489,0.938,0.381,19,35,7,0041300142,1610612742,DAL,Dallas,Jae Crowder,,,16:20,0,0,0,2,1,0,4,10,0,0,2,0
0041300142,1610612742,DAL,Dallas,203109,Jae Crowder,,,16:20,118.6,96.7,21.9,0.0,0.0,0.0,0.083,0.0,0.04,0.0,0.25,0.25,0.114,88.41,-0.057,2014-04-23T00:00:00,2,1610612759,SAS,San Antonio,1-1,23,28,24,17,0,0,0,0,0,0,0,0,0,0,92,0.5,0.621,0.5,17,32,22,0041300142,1610612742,DAL,Dallas,Jae Crowder,,,16:20,0,0,0,2,1,0,4,10,0,0,2,0
0041300142,1610612742,DAL,Dallas,201961,Wayne Ellington,,,3:09,50.0,82.0,-32.0,0.0,0.0,0.0,0.0,0.0,0.0,0.0,0.0,0.0,0.286,82.9,-1.0,2014-04-23T00:00:00,2,1610612742,DAL,Dallas,1-1,24,32,32,25,0,0,0,0,0,0,0,0,0,0,113,0.489,0.938,0.381,19,35,7,0041300142,1610612742,DAL,Dallas,Wayne Ellington,,,3:09,0,0,0,0,0,0,0,2,0,0,0,0
0041300142,1610612742,DAL,Dallas,201961,Wayne Ellington,,,3:09,50.0,82.0,-32.0,0.0,0.0,0.0,0.0,0.0,0.0,0.0,0.0,0.0,0.286,82.9,-1.0,2014-04-23T00:00:00,2,1610612759,SAS,San Antonio,1-1,23,28,24,17,0,0,0,0,0,0,0,0,0,0,92,0.5,0.621,0.5,17,32,22,0041300142,1610612742,DAL,Dallas,Wayne Ellington,,,3:09,0,0,0,0,0,0,0,2,0,0,0,0
0041300142,1610612742,DAL,Dallas,203499,Shane Larkin,,,2:09,75.0,66.7,8.3,0.0,0.0,0.0,0.0,0.0,0.0,0.0,0.0,0.0,0.4,78.14,-1.0,2014-04-23T00:00:00,2,1610612742,DAL,Dallas,1-1,24,32,32,25,0,0,0,0,0,0,0,0,0,0,113,0.489,0.938,0.381,19,35,7,0041300142,1610612742,DAL,Dallas,Shane Larkin,,,2:09,0,0,0,0,0,0,0,2,0,1,0,0
0041300142,1610612742,DAL,Dallas,203499,Shane Larkin,,,2:09,75.0,66.7,8.3,0.0,0.0,0.0,0.0,0.0,0.0,0.0,0.0,0.0,0.4,78.14,-1.0,2014-04-23T00:00:00,2,1610612759,SAS,San Antonio,1-1,23,28,24,17,0,0,0,0,0,0,0,0,0,0,92,0.5,0.621,0.5,17,32,22,0041300142,1610612742,DAL,Dallas,Shane Larkin,,,2:09,0,0,0,0,0,0,0,2,0,1,0,0
0041300142,1610612742,DAL,Dallas,203108,Bernard James,,,2:09,75.0,66.7,8.3,0.0,0.0,0.0,0.5,0.0,0.333,0.0,0.0,0.0,0.0,78.14,0.25,2014-04-23T00:00:00,2,1610612742,DAL,Dallas,1-1,24,32,32,25,0,0,0,0,0,0,0,0,0,0,113,0.489,0.938,0.381,19,35,7,0041300142,1610612742,DAL,Dallas,Bernard James,,,2:09,0,0,0,0,0,0,0,2,0,0,0,0
0041300142,1610612742,DAL,Dallas,203108,Bernard James,,,2:09,75.0,66.7,8.3,0.0,0.0,0.0,0.5,0.0,0.333,0.0,0.0,0.0,0.0,78.14,0.25,2014-04-23T00:00:00,2,1610612759,SAS,San Antonio,1-1,23,28,24,17,0,0,0,0,0,0,0,0,0,0,92,0.5,0.621,0.5,17,32,22,0041300142,1610612742,DAL,Dallas,Bernard James,,,2:09,0,0,0,0,0,0,0,2,0,0,0,0
0041300142,1610612759,SAS,San Antonio,202695,Kawhi Leonard,F,,22:25,91.1,97.5,-6.4,0.0,0.0,0.0,0.235,0.048,0.132,21.7,0.3,0.417,0.202,88.42,-0.04,2014-04-23T00:00:00,2,1610612742,DAL,Dallas,1-1,24,32,32,25,0,0,0,0,0,0,0,0,0,0,113,0.489,0.938,0.381,19,35,7,0041300142,1610612759,SAS,San Antonio,Kawhi Leonard,F,,22:25,1,0,1,0,12,8,6,20,0,0,3,3
0041300142,1610612759,SAS,San Antonio,202695,Kawhi Leonard,F,,22:25,91.1,97.5,-6.4,0.0,0.0,0.0,0.235,0.048,0.132,21.7,0.3,0.417,0.202,88.42,-0.04,2014-04-23T00:00:00,2,1610612759,SAS,San Antonio,1-1,23,28,24,17,0,0,0,0,0,0,0,0,0,0,92,0.5,0.621,0.5,17,32,22,0041300142,1610612759,SAS,San Antonio,Kawhi Leonard,F,,22:25,1,0,1,0,12,8,6,20,0,0,3,3
0041300142,1610612759,SAS,San Antonio,1495,Tim Duncan,F,,29:54,86.5,112.6,-26.0,0.071,1.0,11.4,0.045,0.231,0.146,11.4,0.8,0.814,0.115,97.64,0.187,2014-04-23T00:00:00,2,1610612742,DAL,Dallas,1-1,24,32,32,25,0,0,0,0,0,0,0,0,0,0,113,0.489,0.938,0.381,19,35,7,0041300142,1610612759,SAS,San Antonio,Tim Duncan,F,,29:54,2,4,0,6,19,8,13,20,2,0,1,3
0041300142,1610612759,SAS,San Antonio,1495,Tim Duncan,F,,29:54,86.5,112.6,-26.0,0.071,1.0,11.4,0.045,0.231,0.146,11.4,0.8,0.814,0.115,97.64,0.187,2014-04-23T00:00:00,2,1610612759,SAS,San Antonio,1-1,23,28,24,17,0,0,0,0,0,0,0,0,0,0,92,0.5,0.621,0.5,17,32,22,0041300142,1610612759,SAS,San Antonio,Tim Duncan,F,,29:54,2,4,0,6,19,8,13,20,2,0,1,3
0041300142,1610612759,SAS,San Antonio,201168,Tiago Splitter,C,,27:32,108.9,116.8,-7.9,0.167,1.5,27.6,0.1,0.12,0.111,18.4,0.4,0.51,0.131,89.68,0.076,2014-04-23T00:00:00,2,1610612742,DAL,Dallas,1-1,24,32,32,25,0,0,0,0,0,0,0,0,0,0,113,0.489,0.938,0.381,19,35,7,0041300142,1610612759,SAS,San Antonio,Tiago Splitter,C,,27:32,0,0,0,4,21,10,15,26,0,1,1,1
0041300142,1610612759,SAS,San Antonio,201168,Tiago Splitter,C,,27:32,108.9,116.8,-7.9,0.167,1.5,27.6,0.1,0.12,0.111,18.4,0.4,0.51,0.131,89.68,0.076,2014-04-23T00:00:00,2,1610612759,SAS,San Antonio,1-1,23,28,24,17,0,0,0,0,0,0,0,0,0,0,92,0.5,0.621,0.5,17,32,22,0041300142,1610612759,SAS,San Antonio,Tiago Splitter,C,,27:32,0,0,0,4,21,10,15,26,0,1,1,1
0041300142,1610612759,SAS,San Antonio,201980,Danny Green,G,,22:08,94.5,105.5,-11.1,0.167,1.0,22.2,0.0,0.08,0.059,22.2,0.6,0.6,0.17,88.7,0.073,2014-04-23T00:00:00,2,1610612742,DAL,Dallas,1-1,24,32,32,25,0,0,0,0,0,0,0,0,0,0,113,0.489,0.938,0.381,19,35,7,0041300142,1610612759,SAS,San Antonio,Danny Green,G,,22:08,0,0,3,0,15,10,8,16,1,0,1,0
0041300142,1610612759,SAS,San Antonio,201980,Danny Green,G,,22:08,94.5,105.5,-11.1,0.167,1.0,22.2,0.0,0.08,0.059,22.2,0.6,0.6,0.17,88.7,0.073,2014-04-23T00:00:00,2,1610612759,SAS,San Antonio,1-1,23,28,24,17,0,0,0,0,0,0,0,0,0,0,92,0.5,0.621,0.5,17,32,22,0041300142,1610612759,SAS,San Antonio,Danny Green,G,,22:08,0,0,3,0,15,10,8,16,1,0,1,0
0041300142,1610612759,SAS,San Antonio,2225,Tony Parker,G,,25:43,90.3,109.2,-18.9,0.3,1.0,16.5,0.0,0.087,0.053,16.5,0.5,0.492,0.289,89.7,0.047,2014-04-23T00:00:00,2,1610612742,DAL,Dallas,1-1,24,32,32,25,0,0,0,0,0,0,0,0,0,0,113,0.489,0.938,0.381,19,35,7,0041300142,1610612759,SAS,San Antonio,Tony Parker,G,,25:43,2,0,0,0,19,10,10,20,0,0,3,2
0041300142,1610612759,SAS,San Antonio,2225,Tony Parker,G,,25:43,90.3,109.2,-18.9,0.3,1.0,16.5,0.0,0.087,0.053,16.5,0.5,0.492,0.289,89.7,0.047,2014-04-23T00:00:00,2,1610612759,SAS,San Antonio,1-1,23,28,24,17,0,0,0,0,0,0,0,0,0,0,92,0.5,0.621,0.5,17,32,22,0041300142,1610612759,SAS,San Antonio,Tony Parker,G,,25:43,2,0,0,0,19,10,10,20,0,0,3,2
0041300142,1610612759,SAS,San Antonio,1938,Manu Ginobili,,,22:46,118.1,137.3,-19.2,0.444,0.67,15.9,0.125,0.0,0.077,23.9,0.958,0.895,0.408,93.48,0.207,2014-04-23T00:00:00,2,1610612742,DAL,Dallas,1-1,24,32,32,25,0,0,0,0,0,0,0,0,0,0,113,0.489,0.938,0.381,19,35,7,0041300142,1610612759,SAS,San Antonio,Manu Ginobili,,,22:46,3,5,8,6,18,4,9,24,0,0,2,6
0041300142,1610612759,SAS,San Antonio,1938,Manu Ginobili,,,22:46,118.1,137.3,-19.2,0.444,0.67,15.9,0.125,0.0,0.077,23.9,0.958,0.895,0.408,93.48,0.207,2014-04-23T00:00:00,2,1610612759,SAS,San Antonio,1-1,23,28,24,17,0,0,0,0,0,0,0,0,0,0,92,0.5,0.621,0.5,17,32,22,0041300142,1610612759,SAS,San Antonio,Manu Ginobili,,,22:46,3,5,8,6,18,4,9,24,0,0,2,6
0041300142,1610612759,SAS,San Antonio,2564,Boris Diaw,,,17:13,89.5,142.4,-52.9,0.0,0.0,0.0,0.0,0.0,0.0,50.0,1.0,1.0,0.109,99.2,0.017,2014-04-23T00:00:00,2,1610612742,DAL,Dallas,1-1,24,32,32,25,0,0,0,0,0,0,0,0,0,0,113,0.489,0.938,0.381,19,35,7,0041300142,1610612759,SAS,San Antonio,Boris Diaw,,,17:13,2,0,0,4,14,0,4,20,0,0,1,1
0041300142,1610612759,SAS,San Antonio,2564,Boris Diaw,,,17:13,89.5,142.4,-52.9,0.0,0.0,0.0,0.0,0.0,0.0,50.0,1.0,1.0,0.109,99.2,0.017,2014-04-23T00:00:00,2,1610612759,SAS,San Antonio,1-1,23,28,24,17,0,0,0,0,0,0,0,0,0,0,92,0.5,0.621,0.5,17,32,22,0041300142,1610612759,SAS,San Antonio,Boris Diaw,,,17:13,2,0,0,4,14,0,4,20,0,0,1,1
0041300142,1610612759,SAS,San Antonio,201158,Marco Belinelli,,,29:06,90.3,141.1,-50.8,0.077,0.5,10.0,0.0,0.278,0.143,20.0,0.5,0.5,0.152,93.0,0.041,2014-04-23T00:00:00,2,1610612742,DAL,Dallas,1-1,24,32,32,25,0,0,0,0,0,0,0,0,0,0,113,0.489,0.938,0.381,19,35,7,0041300142,1610612759,SAS,San Antonio,Marco Belinelli,,,29:06,0,0,0,4,23,8,8,32,0,2,3,0
0041300142,1610612759,SAS,San Antonio,201158,Marco Belinelli,,,29:06,90.3,141.1,-50.8,0.077,0.5,10.0,0.0,0.278,0.143,20.0,0.5,0.5,0.152,93.0,0.041,2014-04-23T00:00:00,2,1610612759,SAS,San Antonio,1-1,23,28,24,17,0,0,0,0,0,0,0,0,0,0,92,0.5,0.621,0.5,17,32,22,0041300142,1610612759,SAS,San Antonio,Marco Belinelli,,,29:06,0,0,0,4,23,8,8,32,0,2,3,0
0041300142,1610612759,SAS,San Antonio,201988,Patty Mills,,,16:25,110.5,142.7,-32.2,0.0,0.0,0.0,0.0,0.125,0.05,11.3,0.214,0.317,0.231,99.47,-0.042,2014-04-23T00:00:00,2,1610612742,DAL,Dallas,1-1,24,32,32,25,0,0,0,0,0,0,0,0,0,0,113,0.489,0.938,0.381,19,35,7,0041300142,1610612759,SAS,San Antonio,Patty Mills,,,16:25,0,0,0,0,12,0,7,20,0,0,3,1
0041300142,1610612759,SAS,San Antonio,201988,Patty Mills,,,16:25,110.5,142.7,-32.2,0.0,0.0,0.0,0.0,0.125,0.05,11.3,0.214,0.317,0.231,99.47,-0.042,2014-04-23T00:00:00,2,1610612759,SAS,San Antonio,1-1,23,28,24,17,0,0,0,0,0,0,0,0,0,0,92,0.5,0.621,0.5,17,32,22,0041300142,1610612759,SAS,San Antonio,Patty Mills,,,16:25,0,0,0,0,12,0,7,20,0,0,3,1
0041300142,1610612759,SAS,San Antonio,201965,Jeff Ayres,,,6:16,136.1,174.6,-38.6,0.4,2.0,66.7,0.0,0.0,0.0,33.3,0.0,0.0,0.085,86.75,0.0,2014-04-23T00:00:00,2,1610612742,DAL,Dallas,1-1,24,32,32,25,0,0,0,0,0,0,0,0,0,0,113,0.489,0.938,0.381,19,35,7,0041300142,1610612759,SAS,San Antonio,Jeff Ayres,,,6:16,0,0,0,0,6,0,2,10,0,0,1,0
0041300142,1610612759,SAS,San Antonio,201965,Jeff Ayres,,,6:16,136.1,174.6,-38.6,0.4,2.0,66.7,0.0,0.0,0.0,33.3,0.0,0.0,0.085,86.75,0.0,2014-04-23T00:00:00,2,1610612759,SAS,San Antonio,1-1,23,28,24,17,0,0,0,0,0,0,0,0,0,0,92,0.5,0.621,0.5,17,32,22,0041300142,1610612759,SAS,San Antonio,Jeff Ayres,,,6:16,0,0,0,0,6,0,2,10,0,0,1,0
0041300142,1610612759,SAS,San Antonio,202709,Cory Joseph,,,8:48,131.3,88.9,42.4,0.143,0.0,21.0,0.0,0.2,0.118,0.0,0.5,0.532,0.193,93.82,0.136,2014-04-23T00:00:00,2,1610612742,DAL,Dallas,1-1,24,32,32,25,0,0,0,0,0,0,0,0,0,0,113,0.489,0.938,0.381,19,35,7,0041300142,1610612759,SAS,San Antonio,Cory Joseph,,,8:48,0,0,0,2,2,4,3,4,0,0,0,2
0041300142,1610612759,SAS,San Antonio,202709,Cory Joseph,,,8:48,131.3,88.9,42.4,0.143,0.0,21.0,0.0,0.2,0.118,0.0,0.5,0.532,0.193,93.82,0.136,2014-04-23T00:00:00,2,1610612759,SAS,San Antonio,1-1,23,28,24,17,0,0,0,0,0,0,0,0,0,0,92,0.5,0.621,0.5,17,32,22,0041300142,1610612759,SAS,San Antonio,Cory Joseph,,,8:48,0,0,0,2,2,4,3,4,0,0,0,2
0041300142,1610612759,SAS,San Antonio,2588,Matt Bonner,,,5:52,112.7,110.3,2.4,0.0,0.0,0.0,0.0,0.0,0.0,0.0,1.0,1.0,0.205,84.44,0.229,2014-04-23T00:00:00,2,1610612742,DAL,Dallas,1-1,24,32,32,25,0,0,0,0,0,0,0,0,0,0,113,0.489,0.938,0.381,19,35,7,0041300142,1610612759,SAS,San Antonio,Matt Bonner,,,5:52,0,0,0,2,2,4,0,4,0,0,0,0
0041300142,1610612759,SAS,San Antonio,2588,Matt Bonner,,,5:52,112.7,110.3,2.4,0.0,0.0,0.0,0.0,0.0,0.0,0.0,1.0,1.0,0.205,84.44,0.229,2014-04-23T00:00:00,2,1610612759,SAS,San Antonio,1-1,23,28,24,17,0,0,0,0,0,0,0,0,0,0,92,0.5,0.621,0.5,17,32,22,0041300142,1610612759,SAS,San Antonio,Matt Bonner,,,5:52,0,0,0,2,2,4,0,4,0,0,0,0
0041300142,1610612759,SAS,San Antonio,201948,Austin Daye,,,5:52,112.7,110.3,2.4,0.0,0.0,0.0,0.0,0.167,0.111,0.0,0.0,0.0,0.205,84.44,-0.057,2014-04-23T00:00:00,2,1610612742,DAL,Dallas,1-1,24,32,32,25,0,0,0,0,0,0,0,0,0,0,113,0.489,0.938,0.381,19,35,7,0041300142,1610612759,SAS,San Antonio,Austin Daye,,,5:52,0,0,0,0,2,4,0,4,0,0,0,0
0041300142,1610612759,SAS,San Antonio,201948,Austin Daye,,,5:52,112.7,110.3,2.4,0.0,0.0,0.0,0.0,0.167,0.111,0.0,0.0,0.0,0.205,84.44,-0.057,2014-04-23T00:00:00,2,1610612759,SAS,San Antonio,1-1,23,28,24,17,0,0,0,0,0,0,0,0,0,0,92,0.5,0.621,0.5,17,32,22,0041300142,1610612759,SAS,San Antonio,Austin Daye,,,5:52,0,0,0,0,2,4,0,4,0,0,0,0
