GAME_ID_x,TEAM_ID_x,TEAM_ABBREVIATION_x,TEAM_CITY_x,PLAYER_ID,PLAYER_NAME_x,START_POSITION_x,COMMENT_x,MIN_x,OFF_RATING,DEF_RATING,NET_RATING,AST_PCT,AST_TOV,AST_RATIO,OREB_PCT,DREB_PCT,REB_PCT,TM_TOV_PCT,EFG_PCT,TS_PCT,USG_PCT,PACE,PIE,GAME_DATE_EST,GAME_SEQUENCE,TEAM_ID_y,TEAM_ABBREVIATION_y,TEAM_CITY_NAME,TEAM_WINS_LOSSES,PTS_QTR1,PTS_QTR2,PTS_QTR3,PTS_QTR4,PTS_OT1,PTS_OT2,PTS_OT3,PTS_OT4,PTS_OT5,PTS_OT6,PTS_OT7,PTS_OT8,PTS_OT9,PTS_OT10,PTS,FG_PCT,FT_PCT,FG3_PCT,AST,REB,TOV,GAME_ID_y,TEAM_ID,TEAM_ABBREVIATION,TEAM_CITY_y,PLAYER_NAME_y,START_POSITION_y,COMMENT_y,MIN_y,PTS_OFF_TOV,PTS_2ND_CHANCE,PTS_FB,PTS_PAINT,OPP_PTS_OFF_TOV,OPP_PTS_2ND_CHANCE,OPP_PTS_FB,OPP_PTS_PAINT,BLK,BLKA,PF,PFD
0041300104,1610612754,IND,Indiana,202331,Paul George,F,,43:39,107.2,90.3,16.9,0.2,2.5,19.3,0.028,0.225,0.132,7.7,0.667,0.636,0.239,91.69,0.175,2014-04-26T00:00:00,1,1610612754,IND,Indiana,2-2,29,13,24,25,0,0,0,0,0,0,0,0,0,0,91,0.481,0.571,0.391,22,43,10,0041300104,1610612754,IND,Indiana,Paul George,F,,43:39,10.0,2.0,10.0,10.0,10.0,9.0,4.0,26.0,2.0,1.0,3.0,2.0
0041300104,1610612754,IND,Indiana,202331,Paul George,F,,43:39,107.2,90.3,16.9,0.2,2.5,19.3,0.028,0.225,0.132,7.7,0.667,0.636,0.239,91.69,0.175,2014-04-26T00:00:00,1,1610612737,ATL,Atlanta,2-2,22,26,17,23,0,0,0,0,0,0,0,0,0,0,88,0.357,1.0,0.355,22,41,12,0041300104,1610612754,IND,Indiana,Paul George,F,,43:39,10.0,2.0,10.0,10.0,10.0,9.0,4.0,26.0,2.0,1.0,3.0,2.0
0041300104,1610612754,IND,Indiana,2561,David West,F,,35:24,110.1,85.0,25.2,0.091,2.0,10.7,0.0,0.143,0.081,5.4,0.577,0.575,0.237,92.8,0.161,2014-04-26T00:00:00,1,1610612754,IND,Indiana,2-2,29,13,24,25,0,0,0,0,0,0,0,0,0,0,91,0.481,0.571,0.391,22,43,10,0041300104,1610612754,IND,Indiana,David West,F,,35:24,5.0,0.0,0.0,6.0,10.0,7.0,2.0,18.0,2.0,0.0,1.0,9.0
0041300104,1610612754,IND,Indiana,2561,David West,F,,35:24,110.1,85.0,25.2,0.091,2.0,10.7,0.0,0.143,0.081,5.4,0.577,0.575,0.237,92.8,0.161,2014-04-26T00:00:00,1,1610612737,ATL,Atlanta,2-2,22,26,17,23,0,0,0,0,0,0,0,0,0,0,88,0.357,1.0,0.355,22,41,12,0041300104,1610612754,IND,Indiana,David West,F,,35:24,5.0,0.0,0.0,6.0,10.0,7.0,2.0,18.0,2.0,0.0,1.0,9.0
0041300104,1610612754,IND,Indiana,201579,Roy Hibbert,C,,24:34,87.6,84.2,3.4,0.0,0.0,0.0,0.1,0.033,0.06,0.0,0.6,0.6,0.103,93.32,0.071,2014-04-26T00:00:00,1,1610612754,IND,Indiana,2-2,29,13,24,25,0,0,0,0,0,0,0,0,0,0,91,0.481,0.571,0.391,22,43,10,0041300104,1610612754,IND,Indiana,Roy Hibbert,C,,24:34,0.0,2.0,0.0,6.0,10.0,7.0,6.0,18.0,2.0,2.0,2.0,1.0
0041300104,1610612754,IND,Indiana,201579,Roy Hibbert,C,,24:34,87.6,84.2,3.4,0.0,0.0,0.0,0.1,0.033,0.06,0.0,0.6,0.6,0.103,93.32,0.071,2014-04-26T00:00:00,1,1610612737,ATL,Atlanta,2-2,22,26,17,23,0,0,0,0,0,0,0,0,0,0,88,0.357,1.0,0.355,22,41,12,0041300104,1610612754,IND,Indiana,Roy Hibbert,C,,24:34,0.0,2.0,0.0,6.0,10.0,7.0,6.0,18.0,2.0,2.0,2.0,1.0
0041300104,1610612754,IND,Indiana,202362,Lance Stephenson,G,,26:19,93.0,80.3,12.6,0.071,0.25,7.1,0.0,0.31,0.17,28.6,0.278,0.278,0.258,92.92,0.028,2014-04-26T00:00:00,1,1610612754,IND,Indiana,2-2,29,13,24,25,0,0,0,0,0,0,0,0,0,0,91,0.481,0.571,0.391,22,43,10,0041300104,1610612754,IND,Indiana,Lance Stephenson,G,,26:19,0.0,0.0,2.0,2.0,8.0,4.0,2.0,16.0,2.0,0.0,3.0,0.0
0041300104,1610612754,IND,Indiana,202362,Lance Stephenson,G,,26:19,93.0,80.3,12.6,0.071,0.25,7.1,0.0,0.31,0.17,28.6,0.278,0.278,0.258,92.92,0.028,2014-04-26T00:00:00,1,1610612737,ATL,Atlanta,2-2,22,26,17,23,0,0,0,0,0,0,0,0,0,0,88,0.357,1.0,0.355,22,41,12,0041300104,1610612754,IND,Indiana,Lance Stephenson,G,,26:19,0.0,0.0,2.0,2.0,8.0,4.0,2.0,16.0,2.0,0.0,3.0,0.0
0041300104,1610612754,IND,Indiana,201588,George Hill,G,,35:37,108.8,87.7,21.1,0.217,5.0,31.7,0.037,0.056,0.048,6.3,0.75,0.768,0.153,91.64,0.155,2014-04-26T00:00:00,1,1610612754,IND,Indiana,2-2,29,13,24,25,0,0,0,0,0,0,0,0,0,0,91,0.481,0.571,0.391,22,43,10,0041300104,1610612754,IND,Indiana,George Hill,G,,35:37,2.0,4.0,4.0,6.0,10.0,7.0,2.0,18.0,1.0,1.0,3.0,3.0
0041300104,1610612754,IND,Indiana,201588,George Hill,G,,35:37,108.8,87.7,21.1,0.217,5.0,31.7,0.037,0.056,0.048,6.3,0.75,0.768,0.153,91.64,0.155,2014-04-26T00:00:00,1,1610612737,ATL,Atlanta,2-2,22,26,17,23,0,0,0,0,0,0,0,0,0,0,88,0.357,1.0,0.355,22,41,12,0041300104,1610612754,IND,Indiana,George Hill,G,,35:37,2.0,4.0,4.0,6.0,10.0,7.0,2.0,18.0,1.0,1.0,3.0,3.0
0041300104,1610612754,IND,Indiana,202323,Evan Turner,,,20:34,103.1,99.8,3.3,0.286,2.0,26.9,0.0,0.133,0.065,13.4,0.563,0.619,0.254,96.67,0.104,2014-04-26T00:00:00,1,1610612754,IND,Indiana,2-2,29,13,24,25,0,0,0,0,0,0,0,0,0,0,91,0.481,0.571,0.391,22,43,10,0041300104,1610612754,IND,Indiana,Evan Turner,,,20:34,5.0,0.0,3.0,0.0,2.0,5.0,6.0,14.0,0.0,0.0,2.0,1.0
0041300104,1610612754,IND,Indiana,202323,Evan Turner,,,20:34,103.1,99.8,3.3,0.286,2.0,26.9,0.0,0.133,0.065,13.4,0.563,0.619,0.254,96.67,0.104,2014-04-26T00:00:00,1,1610612737,ATL,Atlanta,2-2,22,26,17,23,0,0,0,0,0,0,0,0,0,0,88,0.357,1.0,0.355,22,41,12,0041300104,1610612754,IND,Indiana,Evan Turner,,,20:34,5.0,0.0,3.0,0.0,2.0,5.0,6.0,14.0,0.0,0.0,2.0,1.0
0041300104,1610612754,IND,Indiana,101133,Ian Mahinmi,,,14:47,115.3,118.4,-3.1,0.0,0.0,0.0,0.182,0.167,0.176,0.0,1.0,1.0,0.035,92.99,0.015,2014-04-26T00:00:00,1,1610612754,IND,Indiana,2-2,29,13,24,25,0,0,0,0,0,0,0,0,0,0,91,0.481,0.571,0.391,22,43,10,0041300104,1610612754,IND,Indiana,Ian Mahinmi,,,14:47,0.0,0.0,0.0,2.0,0.0,2.0,0.0,8.0,2.0,0.0,4.0,1.0
0041300104,1610612754,IND,Indiana,101133,Ian Mahinmi,,,14:47,115.3,118.4,-3.1,0.0,0.0,0.0,0.182,0.167,0.176,0.0,1.0,1.0,0.035,92.99,0.015,2014-04-26T00:00:00,1,1610612737,ATL,Atlanta,2-2,22,26,17,23,0,0,0,0,0,0,0,0,0,0,88,0.357,1.0,0.355,22,41,12,0041300104,1610612754,IND,Indiana,Ian Mahinmi,,,14:47,0.0,0.0,0.0,2.0,0.0,2.0,0.0,8.0,2.0,0.0,4.0,1.0
0041300104,1610612754,IND,Indiana,2449,Luis Scola,,,21:15,101.3,90.3,11.0,0.143,0.0,22.2,0.045,0.235,0.128,0.0,0.286,0.286,0.157,89.9,0.085,2014-04-26T00:00:00,1,1610612754,IND,Indiana,2-2,29,13,24,25,0,0,0,0,0,0,0,0,0,0,91,0.481,0.571,0.391,22,43,10,0041300104,1610612754,IND,Indiana,Luis Scola,,,21:15,0.0,0.0,0.0,0.0,0.0,2.0,4.0,12.0,0.0,0.0,0.0,0.0
0041300104,1610612754,IND,Indiana,2449,Luis Scola,,,21:15,101.3,90.3,11.0,0.143,0.0,22.2,0.045,0.235,0.128,0.0,0.286,0.286,0.157,89.9,0.085,2014-04-26T00:00:00,1,1610612737,ATL,Atlanta,2-2,22,26,17,23,0,0,0,0,0,0,0,0,0,0,88,0.357,1.0,0.355,22,41,12,0041300104,1610612754,IND,Indiana,Luis Scola,,,21:15,0.0,0.0,0.0,0.0,0.0,2.0,4.0,12.0,0.0,0.0,0.0,0.0
0041300104,1610612754,IND,Indiana,201228,C.J. Watson,,,17:51,97.6,106.8,-9.2,0.273,0.0,27.3,0.059,0.167,0.103,0.0,0.375,0.375,0.212,89.31,0.119,2014-04-26T00:00:00,1,1610612754,IND,Indiana,2-2,29,13,24,25,0,0,0,0,0,0,0,0,0,0,91,0.481,0.571,0.391,22,43,10,0041300104,1610612754,IND,Indiana,C.J. Watson,,,17:51,0.0,0.0,0.0,2.0,0.0,2.0,4.0,10.0,0.0,0.0,1.0,1.0
0041300104,1610612754,IND,Indiana,201228,C.J. Watson,,,17:51,97.6,106.8,-9.2,0.273,0.0,27.3,0.059,0.167,0.103,0.0,0.375,0.375,0.212,89.31,0.119,2014-04-26T00:00:00,1,1610612737,ATL,Atlanta,2-2,22,26,17,23,0,0,0,0,0,0,0,0,0,0,88,0.357,1.0,0.355,22,41,12,0041300104,1610612754,IND,Indiana,C.J. Watson,,,17:51,0.0,0.0,0.0,2.0,0.0,2.0,4.0,10.0,0.0,0.0,1.0,1.0
0041300104,1610612754,IND,Indiana,202730,Lavoy Allen,,DNP - Coach's Decision,,,,,,,0.0,,,,,,,0.0,,,2014-04-26T00:00:00,1,1610612754,IND,Indiana,2-2,29,13,24,25,0,0,0,0,0,0,0,0,0,0,91,0.481,0.571,0.391,22,43,10,0041300104,1610612754,IND,Indiana,Lavoy Allen,,DNP - Coach's Decision,,,,,,,,,,,,,
0041300104,1610612754,IND,Indiana,202730,Lavoy Allen,,DNP - Coach's Decision,,,,,,,0.0,,,,,,,0.0,,,2014-04-26T00:00:00,1,1610612737,ATL,Atlanta,2-2,22,26,17,23,0,0,0,0,0,0,0,0,0,0,88,0.357,1.0,0.355,22,41,12,0041300104,1610612754,IND,Indiana,Lavoy Allen,,DNP - Coach's Decision,,,,,,,,,,,,,
0041300104,1610612754,IND,Indiana,2446,Rasual Butler,,DNP - Coach's Decision,,,,,,,0.0,,,,,,,0.0,,,2014-04-26T00:00:00,1,1610612754,IND,Indiana,2-2,29,13,24,25,0,0,0,0,0,0,0,0,0,0,91,0.481,0.571,0.391,22,43,10,0041300104,1610612754,IND,Indiana,Rasual Butler,,DNP - Coach's Decision,,,,,,,,,,,,,
0041300104,1610612754,IND,Indiana,2446,Rasual Butler,,DNP - Coach's Decision,,,,,,,0.0,,,,,,,0.0,,,2014-04-26T00:00:00,1,1610612737,ATL,Atlanta,2-2,22,26,17,23,0,0,0,0,0,0,0,0,0,0,88,0.357,1.0,0.355,22,41,12,0041300104,1610612754,IND,Indiana,Rasual Butler,,DNP - Coach's Decision,,,,,,,,,,,,,
0041300104,1610612754,IND,Indiana,203142,Chris Copeland,,DNP - Coach's Decision,,,,,,,0.0,,,,,,,0.0,,,2014-04-26T00:00:00,1,1610612754,IND,Indiana,2-2,29,13,24,25,0,0,0,0,0,0,0,0,0,0,91,0.481,0.571,0.391,22,43,10,0041300104,1610612754,IND,Indiana,Chris Copeland,,DNP - Coach's Decision,,,,,,,,,,,,,
0041300104,1610612754,IND,Indiana,203142,Chris Copeland,,DNP - Coach's Decision,,,,,,,0.0,,,,,,,0.0,,,2014-04-26T00:00:00,1,1610612737,ATL,Atlanta,2-2,22,26,17,23,0,0,0,0,0,0,0,0,0,0,88,0.357,1.0,0.355,22,41,12,0041300104,1610612754,IND,Indiana,Chris Copeland,,DNP - Coach's Decision,,,,,,,,,,,,,
0041300104,1610612754,IND,Indiana,202388,Donald Sloan,,DNP - Coach's Decision,,,,,,,0.0,,,,,,,0.0,,,2014-04-26T00:00:00,1,1610612754,IND,Indiana,2-2,29,13,24,25,0,0,0,0,0,0,0,0,0,0,91,0.481,0.571,0.391,22,43,10,0041300104,1610612754,IND,Indiana,Donald Sloan,,DNP - Coach's Decision,,,,,,,,,,,,,
0041300104,1610612754,IND,Indiana,202388,Donald Sloan,,DNP - Coach's Decision,,,,,,,0.0,,,,,,,0.0,,,2014-04-26T00:00:00,1,1610612737,ATL,Atlanta,2-2,22,26,17,23,0,0,0,0,0,0,0,0,0,0,88,0.357,1.0,0.355,22,41,12,0041300104,1610612754,IND,Indiana,Donald Sloan,,DNP - Coach's Decision,,,,,,,,,,,,,
0041300104,1610612737,ATL,Atlanta,201960,DeMarre Carroll,F,,40:18,91.8,110.5,-18.7,0.182,0.0,40.0,0.029,0.194,0.106,0.0,0.25,0.25,0.069,90.98,0.034,2014-04-26T00:00:00,1,1610612754,IND,Indiana,2-2,29,13,24,25,0,0,0,0,0,0,0,0,0,0,91,0.481,0.571,0.391,22,43,10,0041300104,1610612737,ATL,Atlanta,DeMarre Carroll,F,,40:18,0.0,0.0,0.0,0.0,22.0,8.0,19.0,30.0,0.0,1.0,5.0,2.0
0041300104,1610612737,ATL,Atlanta,201960,DeMarre Carroll,F,,40:18,91.8,110.5,-18.7,0.182,0.0,40.0,0.029,0.194,0.106,0.0,0.25,0.25,0.069,90.98,0.034,2014-04-26T00:00:00,1,1610612737,ATL,Atlanta,2-2,22,26,17,23,0,0,0,0,0,0,0,0,0,0,88,0.357,1.0,0.355,22,41,12,0041300104,1610612737,ATL,Atlanta,DeMarre Carroll,F,,40:18,0.0,0.0,0.0,0.0,22.0,8.0,19.0,30.0,0.0,1.0,5.0,2.0
0041300104,1610612737,ATL,Atlanta,200794,Paul Millsap,F,,37:24,98.6,106.9,-8.4,0.154,0.67,7.8,0.061,0.161,0.109,11.7,0.639,0.703,0.295,88.84,0.202,2014-04-26T00:00:00,1,1610612754,IND,Indiana,2-2,29,13,24,25,0,0,0,0,0,0,0,0,0,0,91,0.481,0.571,0.391,22,43,10,0041300104,1610612737,ATL,Atlanta,Paul Millsap,F,,37:24,4.0,2.0,2.0,10.0,17.0,8.0,12.0,28.0,3.0,1.0,4.0,6.0
0041300104,1610612737,ATL,Atlanta,200794,Paul Millsap,F,,37:24,98.6,106.9,-8.4,0.154,0.67,7.8,0.061,0.161,0.109,11.7,0.639,0.703,0.295,88.84,0.202,2014-04-26T00:00:00,1,1610612737,ATL,Atlanta,2-2,22,26,17,23,0,0,0,0,0,0,0,0,0,0,88,0.357,1.0,0.355,22,41,12,0041300104,1610612737,ATL,Atlanta,Paul Millsap,F,,37:24,4.0,2.0,2.0,10.0,17.0,8.0,12.0,28.0,3.0,1.0,4.0,6.0
0041300104,1610612737,ATL,Atlanta,203544,Pero Antic,C,,25:06,84.3,86.3,-2.0,0.133,1.0,20.0,0.077,0.0,0.043,20.0,0.167,0.167,0.137,95.35,-0.065,2014-04-26T00:00:00,1,1610612754,IND,Indiana,2-2,29,13,24,25,0,0,0,0,0,0,0,0,0,0,91,0.481,0.571,0.391,22,43,10,0041300104,1610612737,ATL,Atlanta,Pero Antic,C,,25:06,0.0,0.0,0.0,2.0,9.0,2.0,9.0,20.0,1.0,1.0,4.0,1.0
0041300104,1610612737,ATL,Atlanta,203544,Pero Antic,C,,25:06,84.3,86.3,-2.0,0.133,1.0,20.0,0.077,0.0,0.043,20.0,0.167,0.167,0.137,95.35,-0.065,2014-04-26T00:00:00,1,1610612737,ATL,Atlanta,2-2,22,26,17,23,0,0,0,0,0,0,0,0,0,0,88,0.357,1.0,0.355,22,41,12,0041300104,1610612737,ATL,Atlanta,Pero Antic,C,,25:06,0.0,0.0,0.0,2.0,9.0,2.0,9.0,20.0,1.0,1.0,4.0,1.0
0041300104,1610612737,ATL,Atlanta,2594,Kyle Korver,G,,36:42,91.8,93.8,-2.0,0.0,0.0,0.0,0.0,0.273,0.129,8.5,0.611,0.697,0.143,91.63,0.181,2014-04-26T00:00:00,1,1610612754,IND,Indiana,2-2,29,13,24,25,0,0,0,0,0,0,0,0,0,0,91,0.481,0.571,0.391,22,43,10,0041300104,1610612737,ATL,Atlanta,Kyle Korver,G,,36:42,3.0,3.0,0.0,0.0,17.0,4.0,13.0,22.0,0.0,0.0,0.0,4.0
0041300104,1610612737,ATL,Atlanta,2594,Kyle Korver,G,,36:42,91.8,93.8,-2.0,0.0,0.0,0.0,0.0,0.273,0.129,8.5,0.611,0.697,0.143,91.63,0.181,2014-04-26T00:00:00,1,1610612737,ATL,Atlanta,2-2,22,26,17,23,0,0,0,0,0,0,0,0,0,0,88,0.357,1.0,0.355,22,41,12,0041300104,1610612737,ATL,Atlanta,Kyle Korver,G,,36:42,3.0,3.0,0.0,0.0,17.0,4.0,13.0,22.0,0.0,0.0,0.0,4.0
0041300104,1610612737,ATL,Atlanta,201952,Jeff Teague,G,,35:10,88.9,107.3,-18.4,0.467,1.75,26.0,0.057,0.148,0.097,14.9,0.4,0.441,0.256,91.46,0.094,2014-04-26T00:00:00,1,1610612754,IND,Indiana,2-2,29,13,24,25,0,0,0,0,0,0,0,0,0,0,91,0.481,0.571,0.391,22,43,10,0041300104,1610612737,ATL,Atlanta,Jeff Teague,G,,35:10,0.0,0.0,0.0,6.0,20.0,6.0,19.0,24.0,0.0,2.0,2.0,3.0
0041300104,1610612737,ATL,Atlanta,201952,Jeff Teague,G,,35:10,88.9,107.3,-18.4,0.467,1.75,26.0,0.057,0.148,0.097,14.9,0.4,0.441,0.256,91.46,0.094,2014-04-26T00:00:00,1,1610612737,ATL,Atlanta,2-2,22,26,17,23,0,0,0,0,0,0,0,0,0,0,88,0.357,1.0,0.355,22,41,12,0041300104,1610612737,ATL,Atlanta,Jeff Teague,G,,35:10,0.0,0.0,0.0,6.0,20.0,6.0,19.0,24.0,0.0,2.0,2.0,3.0
0041300104,1610612737,ATL,Atlanta,1882,Elton Brand,,,7:32,76.1,160.0,-83.9,0.25,0.0,50.0,0.0,0.333,0.125,0.0,0.0,0.0,0.063,98.0,0.024,2014-04-26T00:00:00,1,1610612754,IND,Indiana,2-2,29,13,24,25,0,0,0,0,0,0,0,0,0,0,91,0.481,0.571,0.391,22,43,10,0041300104,1610612737,ATL,Atlanta,Elton Brand,,,7:32,0.0,0.0,0.0,0.0,7.0,2.0,6.0,6.0,0.0,0.0,0.0,0.0
0041300104,1610612737,ATL,Atlanta,1882,Elton Brand,,,7:32,76.1,160.0,-83.9,0.25,0.0,50.0,0.0,0.333,0.125,0.0,0.0,0.0,0.063,98.0,0.024,2014-04-26T00:00:00,1,1610612737,ATL,Atlanta,2-2,22,26,17,23,0,0,0,0,0,0,0,0,0,0,88,0.357,1.0,0.355,22,41,12,0041300104,1610612737,ATL,Atlanta,Elton Brand,,,7:32,0.0,0.0,0.0,0.0,7.0,2.0,6.0,6.0,0.0,0.0,0.0,0.0
0041300104,1610612737,ATL,Atlanta,101150,Lou Williams,,,17:21,98.6,103.4,-4.8,0.091,0.5,9.2,0.0,0.2,0.107,18.4,0.286,0.381,0.263,96.0,0.09,2014-04-26T00:00:00,1,1610612754,IND,Indiana,2-2,29,13,24,25,0,0,0,0,0,0,0,0,0,0,91,0.481,0.571,0.391,22,43,10,0041300104,1610612737,ATL,Atlanta,Lou Williams,,,17:21,0.0,0.0,2.0,2.0,5.0,2.0,6.0,14.0,0.0,2.0,0.0,1.0
0041300104,1610612737,ATL,Atlanta,101150,Lou Williams,,,17:21,98.6,103.4,-4.8,0.091,0.5,9.2,0.0,0.2,0.107,18.4,0.286,0.381,0.263,96.0,0.09,2014-04-26T00:00:00,1,1610612737,ATL,Atlanta,2-2,22,26,17,23,0,0,0,0,0,0,0,0,0,0,88,0.357,1.0,0.355,22,41,12,0041300104,1610612737,ATL,Atlanta,Lou Williams,,,17:21,0.0,0.0,2.0,2.0,5.0,2.0,6.0,14.0,0.0,2.0,0.0,1.0
0041300104,1610612737,ATL,Atlanta,202714,Shelvin Mack,,,13:57,90.4,92.7,-2.3,0.571,0.0,40.0,0.1,0.143,0.125,0.0,0.583,0.583,0.202,93.98,0.192,2014-04-26T00:00:00,1,1610612754,IND,Indiana,2-2,29,13,24,25,0,0,0,0,0,0,0,0,0,0,91,0.481,0.571,0.391,22,43,10,0041300104,1610612737,ATL,Atlanta,Shelvin Mack,,,13:57,0.0,2.0,0.0,2.0,2.0,4.0,0.0,12.0,0.0,1.0,1.0,0.0
0041300104,1610612737,ATL,Atlanta,202714,Shelvin Mack,,,13:57,90.4,92.7,-2.3,0.571,0.0,40.0,0.1,0.143,0.125,0.0,0.583,0.583,0.202,93.98,0.192,2014-04-26T00:00:00,1,1610612737,ATL,Atlanta,2-2,22,26,17,23,0,0,0,0,0,0,0,0,0,0,88,0.357,1.0,0.355,22,41,12,0041300104,1610612737,ATL,Atlanta,Shelvin Mack,,,13:57,0.0,2.0,0.0,2.0,2.0,4.0,0.0,12.0,0.0,1.0,1.0,0.0
0041300104,1610612737,ATL,Atlanta,201858,Cartier Martin,,,0:27,0.0,200.0,-200.0,0.0,0.0,0.0,0.0,0.0,0.0,0.0,0.0,0.0,1.0,105.88,-0.333,2014-04-26T00:00:00,1,1610612754,IND,Indiana,2-2,29,13,24,25,0,0,0,0,0,0,0,0,0,0,91,0.481,0.571,0.391,22,43,10,0041300104,1610612737,ATL,Atlanta,Cartier Martin,,,0:27,0.0,0.0,0.0,0.0,0.0,0.0,0.0,0.0,0.0,0.0,0.0,0.0
0041300104,1610612737,ATL,Atlanta,201858,Cartier Martin,,,0:27,0.0,200.0,-200.0,0.0,0.0,0.0,0.0,0.0,0.0,0.0,0.0,0.0,1.0,105.88,-0.333,2014-04-26T00:00:00,1,1610612737,ATL,Atlanta,2-2,22,26,17,23,0,0,0,0,0,0,0,0,0,0,88,0.357,1.0,0.355,22,41,12,0041300104,1610612737,ATL,Atlanta,Cartier Martin,,,0:27,0.0,0.0,0.0,0.0,0.0,0.0,0.0,0.0,0.0,0.0,0.0,0.0
0041300104,1610612737,ATL,Atlanta,203118,Mike Scott,,,26:03,90.8,97.0,-6.2,0.077,0.0,5.8,0.04,0.077,0.059,0.0,0.3,0.368,0.282,93.38,0.031,2014-04-26T00:00:00,1,1610612754,IND,Indiana,2-2,29,13,24,25,0,0,0,0,0,0,0,0,0,0,91,0.481,0.571,0.391,22,43,10,0041300104,1610612737,ATL,Atlanta,Mike Scott,,,26:03,3.0,2.0,2.0,6.0,11.0,4.0,11.0,14.0,0.0,3.0,2.0,2.0
0041300104,1610612737,ATL,Atlanta,203118,Mike Scott,,,26:03,90.8,97.0,-6.2,0.077,0.0,5.8,0.04,0.077,0.059,0.0,0.3,0.368,0.282,93.38,0.031,2014-04-26T00:00:00,1,1610612737,ATL,Atlanta,2-2,22,26,17,23,0,0,0,0,0,0,0,0,0,0,88,0.357,1.0,0.355,22,41,12,0041300104,1610612737,ATL,Atlanta,Mike Scott,,,26:03,3.0,2.0,2.0,6.0,11.0,4.0,11.0,14.0,0.0,3.0,2.0,2.0
0041300104,1610612737,ATL,Atlanta,203488,Mike Muscala,,DNP - Coach's Decision,,,,,,,0.0,,,,,,,0.0,,,2014-04-26T00:00:00,1,1610612754,IND,Indiana,2-2,29,13,24,25,0,0,0,0,0,0,0,0,0,0,91,0.481,0.571,0.391,22,43,10,0041300104,1610612737,ATL,Atlanta,Mike Muscala,,DNP - Coach's Decision,,,,,,,,,,,,,
0041300104,1610612737,ATL,Atlanta,203488,Mike Muscala,,DNP - Coach's Decision,,,,,,,0.0,,,,,,,0.0,,,2014-04-26T00:00:00,1,1610612737,ATL,Atlanta,2-2,22,26,17,23,0,0,0,0,0,0,0,0,0,0,88,0.357,1.0,0.355,22,41,12,0041300104,1610612737,ATL,Atlanta,Mike Muscala,,DNP - Coach's Decision,,,,,,,,,,,,,
0041300104,1610612737,ATL,Atlanta,203471,Dennis Schroder,,DNP - Coach's Decision,,,,,,,0.0,,,,,,,0.0,,,2014-04-26T00:00:00,1,1610612754,IND,Indiana,2-2,29,13,24,25,0,0,0,0,0,0,0,0,0,0,91,0.481,0.571,0.391,22,43,10,0041300104,1610612737,ATL,Atlanta,Dennis Schroder,,DNP - Coach's Decision,,,,,,,,,,,,,
0041300104,1610612737,ATL,Atlanta,203471,Dennis Schroder,,DNP - Coach's Decision,,,,,,,0.0,,,,,,,0.0,,,2014-04-26T00:00:00,1,1610612737,ATL,Atlanta,2-2,22,26,17,23,0,0,0,0,0,0,0,0,0,0,88,0.357,1.0,0.355,22,41,12,0041300104,1610612737,ATL,Atlanta,Dennis Schroder,,DNP - Coach's Decision,,,,,,,,,,,,,
