GAME_ID_x,TEAM_ID_x,TEAM_ABBREVIATION_x,TEAM_CITY_x,PLAYER_ID,PLAYER_NAME_x,START_POSITION_x,COMMENT_x,MIN_x,OFF_RATING,DEF_RATING,NET_RATING,AST_PCT,AST_TOV,AST_RATIO,OREB_PCT,DREB_PCT,REB_PCT,TM_TOV_PCT,EFG_PCT,TS_PCT,USG_PCT,PACE,PIE,GAME_DATE_EST,GAME_SEQUENCE,TEAM_ID_y,TEAM_ABBREVIATION_y,TEAM_CITY_NAME,TEAM_WINS_LOSSES,PTS_QTR1,PTS_QTR2,PTS_QTR3,PTS_QTR4,PTS_OT1,PTS_OT2,PTS_OT3,PTS_OT4,PTS_OT5,PTS_OT6,PTS_OT7,PTS_OT8,PTS_OT9,PTS_OT10,PTS,FG_PCT,FT_PCT,FG3_PCT,AST,REB,TOV,GAME_ID_y,TEAM_ID,TEAM_ABBREVIATION,TEAM_CITY_y,PLAYER_NAME_y,START_POSITION_y,COMMENT_y,MIN_y,PTS_OFF_TOV,PTS_2ND_CHANCE,PTS_FB,PTS_PAINT,OPP_PTS_OFF_TOV,OPP_PTS_2ND_CHANCE,OPP_PTS_FB,OPP_PTS_PAINT,BLK,BLKA,PF,PFD
0041300106,1610612754,IND,Indiana,202331,Paul George,F,,38:29,106.6,80.1,26.5,0.143,0.75,10.2,0.0,0.195,0.111,13.6,0.417,0.536,0.321,92.94,0.169,2014-05-01T00:00:00,2,1610612754,IND,Indiana,3-3,20,24,20,31,0,0,0,0,0,0,0,0,0,0,95,0.429,0.852,0.3,15,47,13,0041300106,1610612754,IND,Indiana,Paul George,F,,38:29,11.0,0.0,0.0,8.0,11.0,11.0,9.0,16.0,0.0,1.0,4.0,7.0
0041300106,1610612754,IND,Indiana,202331,Paul George,F,,38:29,106.6,80.1,26.5,0.143,0.75,10.2,0.0,0.195,0.111,13.6,0.417,0.536,0.321,92.94,0.169,2014-05-01T00:00:00,2,1610612737,ATL,Atlanta,3-3,22,17,28,21,0,0,0,0,0,0,0,0,0,0,88,0.358,0.875,0.257,14,44,13,0041300106,1610612754,IND,Indiana,Paul George,F,,38:29,11.0,0.0,0.0,8.0,11.0,11.0,9.0,16.0,0.0,1.0,4.0,7.0
0041300106,1610612754,IND,Indiana,2561,David West,F,,39:57,102.7,97.6,5.1,0.316,6.0,20.9,0.083,0.216,0.151,3.5,0.5,0.551,0.271,91.13,0.226,2014-05-01T00:00:00,2,1610612754,IND,Indiana,3-3,20,24,20,31,0,0,0,0,0,0,0,0,0,0,95,0.429,0.852,0.3,15,47,13,0041300106,1610612754,IND,Indiana,David West,F,,39:57,4.0,8.0,0.0,12.0,11.0,9.0,9.0,26.0,0.0,2.0,4.0,4.0
0041300106,1610612754,IND,Indiana,2561,David West,F,,39:57,102.7,97.6,5.1,0.316,6.0,20.9,0.083,0.216,0.151,3.5,0.5,0.551,0.271,91.13,0.226,2014-05-01T00:00:00,2,1610612737,ATL,Atlanta,3-3,22,17,28,21,0,0,0,0,0,0,0,0,0,0,88,0.358,0.875,0.257,14,44,13,0041300106,1610612754,IND,Indiana,David West,F,,39:57,4.0,8.0,0.0,12.0,11.0,9.0,9.0,26.0,0.0,2.0,4.0,4.0
0041300106,1610612754,IND,Indiana,201579,Roy Hibbert,C,,12:25,61.8,115.5,-53.6,0.0,0.0,0.0,0.067,0.077,0.071,0.0,0.0,0.0,0.041,87.29,-0.109,2014-05-01T00:00:00,2,1610612754,IND,Indiana,3-3,20,24,20,31,0,0,0,0,0,0,0,0,0,0,95,0.429,0.852,0.3,15,47,13,0041300106,1610612754,IND,Indiana,Roy Hibbert,C,,12:25,0.0,0.0,0.0,0.0,7.0,5.0,6.0,8.0,1.0,0.0,4.0,1.0
0041300106,1610612754,IND,Indiana,201579,Roy Hibbert,C,,12:25,61.8,115.5,-53.6,0.0,0.0,0.0,0.067,0.077,0.071,0.0,0.0,0.0,0.041,87.29,-0.109,2014-05-01T00:00:00,2,1610612737,ATL,Atlanta,3-3,22,17,28,21,0,0,0,0,0,0,0,0,0,0,88,0.358,0.875,0.257,14,44,13,0041300106,1610612754,IND,Indiana,Roy Hibbert,C,,12:25,0.0,0.0,0.0,0.0,7.0,5.0,6.0,8.0,1.0,0.0,4.0,1.0
0041300106,1610612754,IND,Indiana,202362,Lance Stephenson,G,,40:60,102.5,97.2,5.3,0.048,0.5,5.2,0.028,0.195,0.117,10.5,0.577,0.653,0.205,93.81,0.139,2014-05-01T00:00:00,2,1610612754,IND,Indiana,3-3,20,24,20,31,0,0,0,0,0,0,0,0,0,0,95,0.429,0.852,0.3,15,47,13,0041300106,1610612754,IND,Indiana,Lance Stephenson,G,,40:60,5.0,3.0,0.0,12.0,14.0,9.0,11.0,24.0,0.0,0.0,5.0,4.0
0041300106,1610612754,IND,Indiana,202362,Lance Stephenson,G,,40:60,102.5,97.2,5.3,0.048,0.5,5.2,0.028,0.195,0.117,10.5,0.577,0.653,0.205,93.81,0.139,2014-05-01T00:00:00,2,1610612737,ATL,Atlanta,3-3,22,17,28,21,0,0,0,0,0,0,0,0,0,0,88,0.358,0.875,0.257,14,44,13,0041300106,1610612754,IND,Indiana,Lance Stephenson,G,,40:60,5.0,3.0,0.0,12.0,14.0,9.0,11.0,24.0,0.0,0.0,5.0,4.0
0041300106,1610612754,IND,Indiana,201588,George Hill,G,,37:26,98.9,107.3,-8.5,0.211,2.0,20.2,0.029,0.083,0.057,10.1,0.5,0.509,0.205,90.16,0.094,2014-05-01T00:00:00,2,1610612754,IND,Indiana,3-3,20,24,20,31,0,0,0,0,0,0,0,0,0,0,95,0.429,0.852,0.3,15,47,13,0041300106,1610612754,IND,Indiana,George Hill,G,,37:26,0.0,2.0,0.0,6.0,11.0,13.0,9.0,32.0,0.0,0.0,1.0,3.0
0041300106,1610612754,IND,Indiana,201588,George Hill,G,,37:26,98.9,107.3,-8.5,0.211,2.0,20.2,0.029,0.083,0.057,10.1,0.5,0.509,0.205,90.16,0.094,2014-05-01T00:00:00,2,1610612737,ATL,Atlanta,3-3,22,17,28,21,0,0,0,0,0,0,0,0,0,0,88,0.358,0.875,0.257,14,44,13,0041300106,1610612754,IND,Indiana,George Hill,G,,37:26,0.0,2.0,0.0,6.0,11.0,13.0,9.0,32.0,0.0,0.0,1.0,3.0
0041300106,1610612754,IND,Indiana,203142,Chris Copeland,,,18:28,114.4,88.5,25.9,0.0,0.0,0.0,0.083,0.105,0.097,51.0,0.75,0.868,0.155,96.51,0.028,2014-05-01T00:00:00,2,1610612754,IND,Indiana,3-3,20,24,20,31,0,0,0,0,0,0,0,0,0,0,95,0.429,0.852,0.3,15,47,13,0041300106,1610612754,IND,Indiana,Chris Copeland,,,18:28,0.0,2.0,0.0,0.0,7.0,6.0,4.0,12.0,0.0,1.0,3.0,1.0
0041300106,1610612754,IND,Indiana,203142,Chris Copeland,,,18:28,114.4,88.5,25.9,0.0,0.0,0.0,0.083,0.105,0.097,51.0,0.75,0.868,0.155,96.51,0.028,2014-05-01T00:00:00,2,1610612737,ATL,Atlanta,3-3,22,17,28,21,0,0,0,0,0,0,0,0,0,0,88,0.358,0.875,0.257,14,44,13,0041300106,1610612754,IND,Indiana,Chris Copeland,,,18:28,0.0,2.0,0.0,0.0,7.0,6.0,4.0,12.0,0.0,1.0,3.0,1.0
0041300106,1610612754,IND,Indiana,201228,C.J. Watson,,,26:50,100.5,84.4,16.1,0.0,0.0,0.0,0.0,0.103,0.056,0.0,0.389,0.389,0.153,99.76,0.052,2014-05-01T00:00:00,2,1610612754,IND,Indiana,3-3,20,24,20,31,0,0,0,0,0,0,0,0,0,0,95,0.429,0.852,0.3,15,47,13,0041300106,1610612754,IND,Indiana,C.J. Watson,,,26:50,2.0,0.0,0.0,2.0,10.0,6.0,4.0,24.0,0.0,1.0,2.0,1.0
0041300106,1610612754,IND,Indiana,201228,C.J. Watson,,,26:50,100.5,84.4,16.1,0.0,0.0,0.0,0.0,0.103,0.056,0.0,0.389,0.389,0.153,99.76,0.052,2014-05-01T00:00:00,2,1610612737,ATL,Atlanta,3-3,22,17,28,21,0,0,0,0,0,0,0,0,0,0,88,0.358,0.875,0.257,14,44,13,0041300106,1610612754,IND,Indiana,C.J. Watson,,,26:50,2.0,0.0,0.0,2.0,10.0,6.0,4.0,24.0,0.0,1.0,2.0,1.0
0041300106,1610612754,IND,Indiana,2446,Rasual Butler,,,1:54,150.6,92.6,58.0,0.0,0.0,0.0,0.0,1.0,0.5,0.0,0.0,0.0,0.231,96.51,0.0,2014-05-01T00:00:00,2,1610612754,IND,Indiana,3-3,20,24,20,31,0,0,0,0,0,0,0,0,0,0,95,0.429,0.852,0.3,15,47,13,0041300106,1610612754,IND,Indiana,Rasual Butler,,,1:54,0.0,0.0,0.0,0.0,2.0,0.0,0.0,2.0,0.0,0.0,0.0,0.0
0041300106,1610612754,IND,Indiana,2446,Rasual Butler,,,1:54,150.6,92.6,58.0,0.0,0.0,0.0,0.0,1.0,0.5,0.0,0.0,0.0,0.231,96.51,0.0,2014-05-01T00:00:00,2,1610612737,ATL,Atlanta,3-3,22,17,28,21,0,0,0,0,0,0,0,0,0,0,88,0.358,0.875,0.257,14,44,13,0041300106,1610612754,IND,Indiana,Rasual Butler,,,1:54,0.0,0.0,0.0,0.0,2.0,0.0,0.0,2.0,0.0,0.0,0.0,0.0
0041300106,1610612754,IND,Indiana,101133,Ian Mahinmi,,,23:19,106.4,83.7,22.7,0.0,0.0,0.0,0.1,0.148,0.128,50.0,0.0,0.0,0.038,97.81,0.017,2014-05-01T00:00:00,2,1610612754,IND,Indiana,3-3,20,24,20,31,0,0,0,0,0,0,0,0,0,0,95,0.429,0.852,0.3,15,47,13,0041300106,1610612754,IND,Indiana,Ian Mahinmi,,,23:19,0.0,0.0,0.0,0.0,7.0,6.0,3.0,16.0,2.0,0.0,4.0,2.0
0041300106,1610612754,IND,Indiana,101133,Ian Mahinmi,,,23:19,106.4,83.7,22.7,0.0,0.0,0.0,0.1,0.148,0.128,50.0,0.0,0.0,0.038,97.81,0.017,2014-05-01T00:00:00,2,1610612737,ATL,Atlanta,3-3,22,17,28,21,0,0,0,0,0,0,0,0,0,0,88,0.358,0.875,0.257,14,44,13,0041300106,1610612754,IND,Indiana,Ian Mahinmi,,,23:19,0.0,0.0,0.0,0.0,7.0,6.0,3.0,16.0,2.0,0.0,4.0,2.0
0041300106,1610612754,IND,Indiana,2449,Luis Scola,,,0:12,200.0,0.0,200.0,1.0,0.0,100.0,0.0,0.0,0.0,0.0,0.0,0.0,0.0,232.26,0.333,2014-05-01T00:00:00,2,1610612754,IND,Indiana,3-3,20,24,20,31,0,0,0,0,0,0,0,0,0,0,95,0.429,0.852,0.3,15,47,13,0041300106,1610612754,IND,Indiana,Luis Scola,,,0:12,0.0,0.0,0.0,0.0,0.0,0.0,0.0,0.0,0.0,0.0,0.0,0.0
0041300106,1610612754,IND,Indiana,2449,Luis Scola,,,0:12,200.0,0.0,200.0,1.0,0.0,100.0,0.0,0.0,0.0,0.0,0.0,0.0,0.0,232.26,0.333,2014-05-01T00:00:00,2,1610612737,ATL,Atlanta,3-3,22,17,28,21,0,0,0,0,0,0,0,0,0,0,88,0.358,0.875,0.257,14,44,13,0041300106,1610612754,IND,Indiana,Luis Scola,,,0:12,0.0,0.0,0.0,0.0,0.0,0.0,0.0,0.0,0.0,0.0,0.0,0.0
0041300106,1610612754,IND,Indiana,202730,Lavoy Allen,,DNP - Coach's Decision,,,,,,,0.0,,,,,,,0.0,,,2014-05-01T00:00:00,2,1610612754,IND,Indiana,3-3,20,24,20,31,0,0,0,0,0,0,0,0,0,0,95,0.429,0.852,0.3,15,47,13,0041300106,1610612754,IND,Indiana,Lavoy Allen,,DNP - Coach's Decision,,,,,,,,,,,,,
0041300106,1610612754,IND,Indiana,202730,Lavoy Allen,,DNP - Coach's Decision,,,,,,,0.0,,,,,,,0.0,,,2014-05-01T00:00:00,2,1610612737,ATL,Atlanta,3-3,22,17,28,21,0,0,0,0,0,0,0,0,0,0,88,0.358,0.875,0.257,14,44,13,0041300106,1610612754,IND,Indiana,Lavoy Allen,,DNP - Coach's Decision,,,,,,,,,,,,,
0041300106,1610612754,IND,Indiana,202388,Donald Sloan,,DNP - Coach's Decision,,,,,,,0.0,,,,,,,0.0,,,2014-05-01T00:00:00,2,1610612754,IND,Indiana,3-3,20,24,20,31,0,0,0,0,0,0,0,0,0,0,95,0.429,0.852,0.3,15,47,13,0041300106,1610612754,IND,Indiana,Donald Sloan,,DNP - Coach's Decision,,,,,,,,,,,,,
0041300106,1610612754,IND,Indiana,202388,Donald Sloan,,DNP - Coach's Decision,,,,,,,0.0,,,,,,,0.0,,,2014-05-01T00:00:00,2,1610612737,ATL,Atlanta,3-3,22,17,28,21,0,0,0,0,0,0,0,0,0,0,88,0.358,0.875,0.257,14,44,13,0041300106,1610612754,IND,Indiana,Donald Sloan,,DNP - Coach's Decision,,,,,,,,,,,,,
0041300106,1610612754,IND,Indiana,202323,Evan Turner,,DNP - Coach's Decision,,,,,,,0.0,,,,,,,0.0,,,2014-05-01T00:00:00,2,1610612754,IND,Indiana,3-3,20,24,20,31,0,0,0,0,0,0,0,0,0,0,95,0.429,0.852,0.3,15,47,13,0041300106,1610612754,IND,Indiana,Evan Turner,,DNP - Coach's Decision,,,,,,,,,,,,,
0041300106,1610612754,IND,Indiana,202323,Evan Turner,,DNP - Coach's Decision,,,,,,,0.0,,,,,,,0.0,,,2014-05-01T00:00:00,2,1610612737,ATL,Atlanta,3-3,22,17,28,21,0,0,0,0,0,0,0,0,0,0,88,0.358,0.875,0.257,14,44,13,0041300106,1610612754,IND,Indiana,Evan Turner,,DNP - Coach's Decision,,,,,,,,,,,,,
0041300106,1610612737,ATL,Atlanta,201960,DeMarre Carroll,F,,39:09,85.2,96.8,-11.7,0.118,1.0,18.2,0.073,0.032,0.056,18.2,0.5,0.5,0.11,88.21,0.047,2014-05-01T00:00:00,2,1610612754,IND,Indiana,3-3,20,24,20,31,0,0,0,0,0,0,0,0,0,0,95,0.429,0.852,0.3,15,47,13,0041300106,1610612737,ATL,Atlanta,DeMarre Carroll,F,,39:09,2.0,2.0,0.0,4.0,15.0,8.0,0.0,36.0,0.0,0.0,2.0,1.0
0041300106,1610612737,ATL,Atlanta,201960,DeMarre Carroll,F,,39:09,85.2,96.8,-11.7,0.118,1.0,18.2,0.073,0.032,0.056,18.2,0.5,0.5,0.11,88.21,0.047,2014-05-01T00:00:00,2,1610612737,ATL,Atlanta,3-3,22,17,28,21,0,0,0,0,0,0,0,0,0,0,88,0.358,0.875,0.257,14,44,13,0041300106,1610612737,ATL,Atlanta,DeMarre Carroll,F,,39:09,2.0,2.0,0.0,4.0,15.0,8.0,0.0,36.0,0.0,0.0,2.0,1.0
0041300106,1610612737,ATL,Atlanta,200794,Paul Millsap,F,,42:02,95.9,92.9,3.0,0.238,2.5,21.3,0.111,0.351,0.22,8.5,0.346,0.484,0.205,90.11,0.225,2014-05-01T00:00:00,2,1610612754,IND,Indiana,3-3,20,24,20,31,0,0,0,0,0,0,0,0,0,0,95,0.429,0.852,0.3,15,47,13,0041300106,1610612737,ATL,Atlanta,Paul Millsap,F,,42:02,2.0,6.0,2.0,6.0,13.0,10.0,0.0,30.0,2.0,1.0,6.0,11.0
0041300106,1610612737,ATL,Atlanta,200794,Paul Millsap,F,,42:02,95.9,92.9,3.0,0.238,2.5,21.3,0.111,0.351,0.22,8.5,0.346,0.484,0.205,90.11,0.225,2014-05-01T00:00:00,2,1610612737,ATL,Atlanta,3-3,22,17,28,21,0,0,0,0,0,0,0,0,0,0,88,0.358,0.875,0.257,14,44,13,0041300106,1610612737,ATL,Atlanta,Paul Millsap,F,,42:02,2.0,6.0,2.0,6.0,13.0,10.0,0.0,30.0,2.0,1.0,6.0,11.0
0041300106,1610612737,ATL,Atlanta,203544,Pero Antic,C,,27:17,112.6,93.6,19.1,0.059,0.33,7.8,0.037,0.217,0.12,23.5,0.143,0.285,0.201,87.73,-0.007,2014-05-01T00:00:00,2,1610612754,IND,Indiana,3-3,20,24,20,31,0,0,0,0,0,0,0,0,0,0,95,0.429,0.852,0.3,15,47,13,0041300106,1610612737,ATL,Atlanta,Pero Antic,C,,27:17,2.0,0.0,2.0,0.0,7.0,6.0,0.0,16.0,2.0,0.0,4.0,3.0
0041300106,1610612737,ATL,Atlanta,203544,Pero Antic,C,,27:17,112.6,93.6,19.1,0.059,0.33,7.8,0.037,0.217,0.12,23.5,0.143,0.285,0.201,87.73,-0.007,2014-05-01T00:00:00,2,1610612737,ATL,Atlanta,3-3,22,17,28,21,0,0,0,0,0,0,0,0,0,0,88,0.358,0.875,0.257,14,44,13,0041300106,1610612737,ATL,Atlanta,Pero Antic,C,,27:17,2.0,0.0,2.0,0.0,7.0,6.0,0.0,16.0,2.0,0.0,4.0,3.0
0041300106,1610612737,ATL,Atlanta,2594,Kyle Korver,G,,30:01,101.2,105.0,-3.7,0.125,2.0,18.2,0.0,0.143,0.068,9.1,0.563,0.563,0.128,95.42,0.062,2014-05-01T00:00:00,2,1610612754,IND,Indiana,3-3,20,24,20,31,0,0,0,0,0,0,0,0,0,0,95,0.429,0.852,0.3,15,47,13,0041300106,1610612737,ATL,Atlanta,Kyle Korver,G,,30:01,0.0,3.0,0.0,0.0,13.0,13.0,0.0,28.0,0.0,0.0,4.0,0.0
0041300106,1610612737,ATL,Atlanta,2594,Kyle Korver,G,,30:01,101.2,105.0,-3.7,0.125,2.0,18.2,0.0,0.143,0.068,9.1,0.563,0.563,0.128,95.42,0.062,2014-05-01T00:00:00,2,1610612737,ATL,Atlanta,3-3,22,17,28,21,0,0,0,0,0,0,0,0,0,0,88,0.358,0.875,0.257,14,44,13,0041300106,1610612737,ATL,Atlanta,Kyle Korver,G,,30:01,0.0,3.0,0.0,0.0,13.0,13.0,0.0,28.0,0.0,0.0,4.0,0.0
0041300106,1610612737,ATL,Atlanta,201952,Jeff Teague,G,,40:28,99.8,98.0,1.8,0.133,2.0,7.2,0.048,0.028,0.038,3.6,0.476,0.581,0.298,92.92,0.187,2014-05-01T00:00:00,2,1610612754,IND,Indiana,3-3,20,24,20,31,0,0,0,0,0,0,0,0,0,0,95,0.429,0.852,0.3,15,47,13,0041300106,1610612737,ATL,Atlanta,Jeff Teague,G,,40:28,7.0,2.0,4.0,12.0,13.0,12.0,0.0,30.0,1.0,2.0,0.0,6.0
0041300106,1610612737,ATL,Atlanta,201952,Jeff Teague,G,,40:28,99.8,98.0,1.8,0.133,2.0,7.2,0.048,0.028,0.038,3.6,0.476,0.581,0.298,92.92,0.187,2014-05-01T00:00:00,2,1610612737,ATL,Atlanta,3-3,22,17,28,21,0,0,0,0,0,0,0,0,0,0,88,0.358,0.875,0.257,14,44,13,0041300106,1610612737,ATL,Atlanta,Jeff Teague,G,,40:28,7.0,2.0,4.0,12.0,13.0,12.0,0.0,30.0,1.0,2.0,0.0,6.0
0041300106,1610612737,ATL,Atlanta,1882,Elton Brand,,,6:00,58.3,133.9,-75.6,0.333,0.0,50.0,0.0,0.6,0.333,0.0,0.0,0.0,0.083,101.76,0.08,2014-05-01T00:00:00,2,1610612754,IND,Indiana,3-3,20,24,20,31,0,0,0,0,0,0,0,0,0,0,95,0.429,0.852,0.3,15,47,13,0041300106,1610612737,ATL,Atlanta,Elton Brand,,,6:00,0.0,0.0,0.0,0.0,7.0,5.0,0.0,8.0,0.0,0.0,1.0,0.0
0041300106,1610612737,ATL,Atlanta,1882,Elton Brand,,,6:00,58.3,133.9,-75.6,0.333,0.0,50.0,0.0,0.6,0.333,0.0,0.0,0.0,0.083,101.76,0.08,2014-05-01T00:00:00,2,1610612737,ATL,Atlanta,3-3,22,17,28,21,0,0,0,0,0,0,0,0,0,0,88,0.358,0.875,0.257,14,44,13,0041300106,1610612737,ATL,Atlanta,Elton Brand,,,6:00,0.0,0.0,0.0,0.0,7.0,5.0,0.0,8.0,0.0,0.0,1.0,0.0
0041300106,1610612737,ATL,Atlanta,101150,Lou Williams,,,24:32,88.2,112.9,-24.7,0.0,0.0,0.0,0.0,0.048,0.021,18.9,0.583,0.621,0.282,102.34,0.076,2014-05-01T00:00:00,2,1610612754,IND,Indiana,3-3,20,24,20,31,0,0,0,0,0,0,0,0,0,0,95,0.429,0.852,0.3,15,47,13,0041300106,1610612737,ATL,Atlanta,Lou Williams,,,24:32,3.0,0.0,3.0,6.0,16.0,9.0,0.0,18.0,0.0,0.0,3.0,3.0
0041300106,1610612737,ATL,Atlanta,101150,Lou Williams,,,24:32,88.2,112.9,-24.7,0.0,0.0,0.0,0.0,0.048,0.021,18.9,0.583,0.621,0.282,102.34,0.076,2014-05-01T00:00:00,2,1610612737,ATL,Atlanta,3-3,22,17,28,21,0,0,0,0,0,0,0,0,0,0,88,0.358,0.875,0.257,14,44,13,0041300106,1610612737,ATL,Atlanta,Lou Williams,,,24:32,3.0,0.0,3.0,6.0,16.0,9.0,0.0,18.0,0.0,0.0,3.0,3.0
0041300106,1610612737,ATL,Atlanta,203118,Mike Scott,,,20:29,77.8,117.0,-39.2,0.0,0.0,0.0,0.0,0.158,0.075,0.0,0.222,0.212,0.192,105.35,-0.047,2014-05-01T00:00:00,2,1610612754,IND,Indiana,3-3,20,24,20,31,0,0,0,0,0,0,0,0,0,0,95,0.429,0.852,0.3,15,47,13,0041300106,1610612737,ATL,Atlanta,Mike Scott,,,20:29,0.0,0.0,0.0,4.0,17.0,9.0,0.0,24.0,0.0,0.0,2.0,3.0
0041300106,1610612737,ATL,Atlanta,203118,Mike Scott,,,20:29,77.8,117.0,-39.2,0.0,0.0,0.0,0.0,0.158,0.075,0.0,0.222,0.212,0.192,105.35,-0.047,2014-05-01T00:00:00,2,1610612737,ATL,Atlanta,3-3,22,17,28,21,0,0,0,0,0,0,0,0,0,0,88,0.358,0.875,0.257,14,44,13,0041300106,1610612737,ATL,Atlanta,Mike Scott,,,20:29,0.0,0.0,0.0,4.0,17.0,9.0,0.0,24.0,0.0,0.0,2.0,3.0
0041300106,1610612737,ATL,Atlanta,202714,Shelvin Mack,,,10:02,78.3,108.7,-30.4,0.143,1.0,20.0,0.0,0.2,0.111,20.0,0.333,0.333,0.178,95.11,0.038,2014-05-01T00:00:00,2,1610612754,IND,Indiana,3-3,20,24,20,31,0,0,0,0,0,0,0,0,0,0,95,0.429,0.852,0.3,15,47,13,0041300106,1610612737,ATL,Atlanta,Shelvin Mack,,,10:02,0.0,0.0,0.0,0.0,9.0,3.0,0.0,10.0,0.0,0.0,1.0,0.0
0041300106,1610612737,ATL,Atlanta,202714,Shelvin Mack,,,10:02,78.3,108.7,-30.4,0.143,1.0,20.0,0.0,0.2,0.111,20.0,0.333,0.333,0.178,95.11,0.038,2014-05-01T00:00:00,2,1610612737,ATL,Atlanta,3-3,22,17,28,21,0,0,0,0,0,0,0,0,0,0,88,0.358,0.875,0.257,14,44,13,0041300106,1610612737,ATL,Atlanta,Shelvin Mack,,,10:02,0.0,0.0,0.0,0.0,9.0,3.0,0.0,10.0,0.0,0.0,1.0,0.0
0041300106,1610612737,ATL,Atlanta,201858,Cartier Martin,,DNP - Coach's Decision,,,,,,,0.0,,,,,,,0.0,,,2014-05-01T00:00:00,2,1610612754,IND,Indiana,3-3,20,24,20,31,0,0,0,0,0,0,0,0,0,0,95,0.429,0.852,0.3,15,47,13,0041300106,1610612737,ATL,Atlanta,Cartier Martin,,DNP - Coach's Decision,,,,,,,,,,,,,
0041300106,1610612737,ATL,Atlanta,201858,Cartier Martin,,DNP - Coach's Decision,,,,,,,0.0,,,,,,,0.0,,,2014-05-01T00:00:00,2,1610612737,ATL,Atlanta,3-3,22,17,28,21,0,0,0,0,0,0,0,0,0,0,88,0.358,0.875,0.257,14,44,13,0041300106,1610612737,ATL,Atlanta,Cartier Martin,,DNP - Coach's Decision,,,,,,,,,,,,,
0041300106,1610612737,ATL,Atlanta,203488,Mike Muscala,,DNP - Coach's Decision,,,,,,,0.0,,,,,,,0.0,,,2014-05-01T00:00:00,2,1610612754,IND,Indiana,3-3,20,24,20,31,0,0,0,0,0,0,0,0,0,0,95,0.429,0.852,0.3,15,47,13,0041300106,1610612737,ATL,Atlanta,Mike Muscala,,DNP - Coach's Decision,,,,,,,,,,,,,
0041300106,1610612737,ATL,Atlanta,203488,Mike Muscala,,DNP - Coach's Decision,,,,,,,0.0,,,,,,,0.0,,,2014-05-01T00:00:00,2,1610612737,ATL,Atlanta,3-3,22,17,28,21,0,0,0,0,0,0,0,0,0,0,88,0.358,0.875,0.257,14,44,13,0041300106,1610612737,ATL,Atlanta,Mike Muscala,,DNP - Coach's Decision,,,,,,,,,,,,,
0041300106,1610612737,ATL,Atlanta,203471,Dennis Schroder,,DNP - Coach's Decision,,,,,,,0.0,,,,,,,0.0,,,2014-05-01T00:00:00,2,1610612754,IND,Indiana,3-3,20,24,20,31,0,0,0,0,0,0,0,0,0,0,95,0.429,0.852,0.3,15,47,13,0041300106,1610612737,ATL,Atlanta,Dennis Schroder,,DNP - Coach's Decision,,,,,,,,,,,,,
0041300106,1610612737,ATL,Atlanta,203471,Dennis Schroder,,DNP - Coach's Decision,,,,,,,0.0,,,,,,,0.0,,,2014-05-01T00:00:00,2,1610612737,ATL,Atlanta,3-3,22,17,28,21,0,0,0,0,0,0,0,0,0,0,88,0.358,0.875,0.257,14,44,13,0041300106,1610612737,ATL,Atlanta,Dennis Schroder,,DNP - Coach's Decision,,,,,,,,,,,,,
