GAME_ID_x,TEAM_ID_x,TEAM_ABBREVIATION_x,TEAM_CITY_x,PLAYER_ID,PLAYER_NAME_x,START_POSITION_x,COMMENT_x,MIN_x,OFF_RATING,DEF_RATING,NET_RATING,AST_PCT,AST_TOV,AST_RATIO,OREB_PCT,DREB_PCT,REB_PCT,TM_TOV_PCT,EFG_PCT,TS_PCT,USG_PCT,PACE,PIE,GAME_DATE_EST,GAME_SEQUENCE,TEAM_ID_y,TEAM_ABBREVIATION_y,TEAM_CITY_NAME,TEAM_WINS_LOSSES,PTS_QTR1,PTS_QTR2,PTS_QTR3,PTS_QTR4,PTS_OT1,PTS_OT2,PTS_OT3,PTS_OT4,PTS_OT5,PTS_OT6,PTS_OT7,PTS_OT8,PTS_OT9,PTS_OT10,PTS,FG_PCT,FT_PCT,FG3_PCT,AST,REB,TOV,GAME_ID_y,TEAM_ID,TEAM_ABBREVIATION,TEAM_CITY_y,PLAYER_NAME_y,START_POSITION_y,COMMENT_y,MIN_y,PTS_OFF_TOV,PTS_2ND_CHANCE,PTS_FB,PTS_PAINT,OPP_PTS_OFF_TOV,OPP_PTS_2ND_CHANCE,OPP_PTS_FB,OPP_PTS_PAINT,BLK,BLKA,PF,PFD
0021300556,1610612745,HOU,Houston,202718,Chandler Parsons,F,,39:07,112.2,87.9,24.3,0.143,4.0,21.2,0.0,0.156,0.089,5.3,0.462,0.504,0.168,100.99,0.109,2014-01-13T00:00:00,2,1610612745,HOU,Houston,25-14,19,33,32,20,0,0,0,0,0,0,0,0,0,0,104,0.468,0.647,0.421,24,46,11,0021300556,1610612745,HOU,Houston,Chandler Parsons,F,,39:07,2.0,0.0,0.0,6.0,6.0,20.0,6.0,32.0,0.0,3.0,3.0,1.0
0021300556,1610612745,HOU,Houston,202718,Chandler Parsons,F,,39:07,112.2,87.9,24.3,0.143,4.0,21.2,0.0,0.156,0.089,5.3,0.462,0.504,0.168,100.99,0.109,2014-01-13T00:00:00,2,1610612738,BOS,Boston,13-26,27,16,22,27,0,0,0,0,0,0,0,0,0,0,92,0.376,0.929,0.176,17,50,13,0021300556,1610612745,HOU,Houston,Chandler Parsons,F,,39:07,2.0,0.0,0.0,6.0,6.0,20.0,6.0,32.0,0.0,3.0,3.0,1.0
0021300556,1610612745,HOU,Houston,203093,Terrence Jones,F,,36:39,107.2,76.2,31.0,0.0,0.0,0.0,0.139,0.171,0.156,7.8,0.545,0.505,0.152,103.6,0.126,2014-01-13T00:00:00,2,1610612745,HOU,Houston,25-14,19,33,32,20,0,0,0,0,0,0,0,0,0,0,104,0.468,0.647,0.421,24,46,11,0021300556,1610612745,HOU,Houston,Terrence Jones,F,,36:39,6.0,2.0,8.0,12.0,6.0,16.0,13.0,30.0,3.0,1.0,2.0,1.0
0021300556,1610612745,HOU,Houston,203093,Terrence Jones,F,,36:39,107.2,76.2,31.0,0.0,0.0,0.0,0.139,0.171,0.156,7.8,0.545,0.505,0.152,103.6,0.126,2014-01-13T00:00:00,2,1610612738,BOS,Boston,13-26,27,16,22,27,0,0,0,0,0,0,0,0,0,0,92,0.376,0.929,0.176,17,50,13,0021300556,1610612745,HOU,Houston,Terrence Jones,F,,36:39,6.0,2.0,8.0,12.0,6.0,16.0,13.0,30.0,3.0,1.0,2.0,1.0
0021300556,1610612745,HOU,Houston,2730,Dwight Howard,C,,36:50,110.1,89.7,20.4,0.105,1.0,6.9,0.079,0.235,0.153,6.9,0.647,0.642,0.319,104.93,0.202,2014-01-13T00:00:00,2,1610612745,HOU,Houston,25-14,19,33,32,20,0,0,0,0,0,0,0,0,0,0,104,0.468,0.647,0.421,24,46,11,0021300556,1610612745,HOU,Houston,Dwight Howard,C,,36:50,5.0,6.0,0.0,22.0,8.0,10.0,11.0,22.0,1.0,1.0,2.0,12.0
0021300556,1610612745,HOU,Houston,2730,Dwight Howard,C,,36:50,110.1,89.7,20.4,0.105,1.0,6.9,0.079,0.235,0.153,6.9,0.647,0.642,0.319,104.93,0.202,2014-01-13T00:00:00,2,1610612738,BOS,Boston,13-26,27,16,22,27,0,0,0,0,0,0,0,0,0,0,92,0.376,0.929,0.176,17,50,13,0021300556,1610612745,HOU,Houston,Dwight Howard,C,,36:50,5.0,6.0,0.0,22.0,8.0,10.0,11.0,22.0,1.0,1.0,2.0,12.0
0021300556,1610612745,HOU,Houston,201935,James Harden,G,,38:23,109.6,87.5,22.0,0.115,1.0,12.1,0.026,0.167,0.093,12.1,0.389,0.424,0.248,104.52,0.075,2014-01-13T00:00:00,2,1610612745,HOU,Houston,25-14,19,33,32,20,0,0,0,0,0,0,0,0,0,0,104,0.468,0.647,0.421,24,46,11,0021300556,1610612745,HOU,Houston,James Harden,G,,38:23,2.0,2.0,4.0,8.0,8.0,10.0,11.0,22.0,3.0,1.0,2.0,3.0
0021300556,1610612745,HOU,Houston,201935,James Harden,G,,38:23,109.6,87.5,22.0,0.115,1.0,12.1,0.026,0.167,0.093,12.1,0.389,0.424,0.248,104.52,0.075,2014-01-13T00:00:00,2,1610612738,BOS,Boston,13-26,27,16,22,27,0,0,0,0,0,0,0,0,0,0,92,0.376,0.929,0.176,17,50,13,0021300556,1610612745,HOU,Houston,James Harden,G,,38:23,2.0,2.0,4.0,8.0,8.0,10.0,11.0,22.0,3.0,1.0,2.0,3.0
0021300556,1610612745,HOU,Houston,202391,Jeremy Lin,G,,35:24,103.7,88.5,15.2,0.409,9.0,45.8,0.0,0.029,0.014,5.1,0.786,0.83,0.132,104.89,0.189,2014-01-13T00:00:00,2,1610612745,HOU,Houston,25-14,19,33,32,20,0,0,0,0,0,0,0,0,0,0,104,0.468,0.647,0.421,24,46,11,0021300556,1610612745,HOU,Houston,Jeremy Lin,G,,35:24,0.0,0.0,2.0,8.0,6.0,12.0,13.0,28.0,0.0,1.0,3.0,5.0
0021300556,1610612745,HOU,Houston,202391,Jeremy Lin,G,,35:24,103.7,88.5,15.2,0.409,9.0,45.8,0.0,0.029,0.014,5.1,0.786,0.83,0.132,104.89,0.189,2014-01-13T00:00:00,2,1610612738,BOS,Boston,13-26,27,16,22,27,0,0,0,0,0,0,0,0,0,0,92,0.376,0.929,0.176,17,50,13,0021300556,1610612745,HOU,Houston,Jeremy Lin,G,,35:24,0.0,0.0,2.0,8.0,6.0,12.0,13.0,28.0,0.0,1.0,3.0,5.0
0021300556,1610612745,HOU,Houston,200758,Ronnie Brewer,,,4:44,82.7,100.9,-18.2,0.0,0.0,0.0,0.0,0.0,0.0,0.0,0.0,0.0,0.0,120.43,0.03,2014-01-13T00:00:00,2,1610612745,HOU,Houston,25-14,19,33,32,20,0,0,0,0,0,0,0,0,0,0,104,0.468,0.647,0.421,24,46,11,0021300556,1610612745,HOU,Houston,Ronnie Brewer,,,4:44,0.0,0.0,0.0,0.0,4.0,0.0,5.0,2.0,1.0,0.0,0.0,1.0
0021300556,1610612745,HOU,Houston,200758,Ronnie Brewer,,,4:44,82.7,100.9,-18.2,0.0,0.0,0.0,0.0,0.0,0.0,0.0,0.0,0.0,0.0,120.43,0.03,2014-01-13T00:00:00,2,1610612738,BOS,Boston,13-26,27,16,22,27,0,0,0,0,0,0,0,0,0,0,92,0.376,0.929,0.176,17,50,13,0021300556,1610612745,HOU,Houston,Ronnie Brewer,,,4:44,0.0,0.0,0.0,0.0,4.0,0.0,5.0,2.0,1.0,0.0,0.0,1.0
0021300556,1610612745,HOU,Houston,201956,Omri Casspi,,,22:31,93.4,95.8,-2.4,0.273,1.0,18.9,0.0,0.222,0.14,18.9,0.611,0.607,0.263,99.13,0.158,2014-01-13T00:00:00,2,1610612745,HOU,Houston,25-14,19,33,32,20,0,0,0,0,0,0,0,0,0,0,104,0.468,0.647,0.421,24,46,11,0021300556,1610612745,HOU,Houston,Omri Casspi,,,22:31,0.0,0.0,3.0,2.0,6.0,14.0,2.0,20.0,0.0,0.0,3.0,2.0
0021300556,1610612745,HOU,Houston,201956,Omri Casspi,,,22:31,93.4,95.8,-2.4,0.273,1.0,18.9,0.0,0.222,0.14,18.9,0.611,0.607,0.263,99.13,0.158,2014-01-13T00:00:00,2,1610612738,BOS,Boston,13-26,27,16,22,27,0,0,0,0,0,0,0,0,0,0,92,0.376,0.929,0.176,17,50,13,0021300556,1610612745,HOU,Houston,Omri Casspi,,,22:31,0.0,0.0,3.0,2.0,6.0,14.0,2.0,20.0,0.0,0.0,3.0,2.0
0021300556,1610612745,HOU,Houston,201166,Aaron Brooks,,,15:07,88.5,80.7,7.8,0.3,0.0,51.0,0.0,0.0,0.0,0.0,0.0,0.347,0.083,101.36,0.051,2014-01-13T00:00:00,2,1610612745,HOU,Houston,25-14,19,33,32,20,0,0,0,0,0,0,0,0,0,0,104,0.468,0.647,0.421,24,46,11,0021300556,1610612745,HOU,Houston,Aaron Brooks,,,15:07,2.0,0.0,0.0,0.0,6.0,10.0,2.0,14.0,0.0,0.0,1.0,1.0
0021300556,1610612745,HOU,Houston,201166,Aaron Brooks,,,15:07,88.5,80.7,7.8,0.3,0.0,51.0,0.0,0.0,0.0,0.0,0.0,0.347,0.083,101.36,0.051,2014-01-13T00:00:00,2,1610612738,BOS,Boston,13-26,27,16,22,27,0,0,0,0,0,0,0,0,0,0,92,0.376,0.929,0.176,17,50,13,0021300556,1610612745,HOU,Houston,Aaron Brooks,,,15:07,2.0,0.0,0.0,0.0,6.0,10.0,2.0,14.0,0.0,0.0,1.0,1.0
0021300556,1610612745,HOU,Houston,101128,Francisco Garcia,,,11:15,102.8,61.2,41.6,0.0,0.0,0.0,0.1,0.067,0.08,0.0,0.0,0.0,0.085,94.45,0.0,2014-01-13T00:00:00,2,1610612745,HOU,Houston,25-14,19,33,32,20,0,0,0,0,0,0,0,0,0,0,104,0.468,0.647,0.421,24,46,11,0021300556,1610612745,HOU,Houston,Francisco Garcia,,,11:15,0.0,0.0,0.0,0.0,0.0,8.0,2.0,10.0,1.0,0.0,0.0,0.0
0021300556,1610612745,HOU,Houston,101128,Francisco Garcia,,,11:15,102.8,61.2,41.6,0.0,0.0,0.0,0.1,0.067,0.08,0.0,0.0,0.0,0.085,94.45,0.0,2014-01-13T00:00:00,2,1610612738,BOS,Boston,13-26,27,16,22,27,0,0,0,0,0,0,0,0,0,0,92,0.376,0.929,0.176,17,50,13,0021300556,1610612745,HOU,Houston,Francisco Garcia,,,11:15,0.0,0.0,0.0,0.0,0.0,8.0,2.0,10.0,1.0,0.0,0.0,0.0
0021300556,1610612745,HOU,Houston,201600,Omer Asik,,NWT - Right Thigh / Knee,,,,,,,0.0,,,,,,,0.0,,,2014-01-13T00:00:00,2,1610612745,HOU,Houston,25-14,19,33,32,20,0,0,0,0,0,0,0,0,0,0,104,0.468,0.647,0.421,24,46,11,0021300556,1610612745,HOU,Houston,Omer Asik,,NWT - Right Thigh / Knee,,,,,,,,,,,,,
0021300556,1610612745,HOU,Houston,201600,Omer Asik,,NWT - Right Thigh / Knee,,,,,,,0.0,,,,,,,0.0,,,2014-01-13T00:00:00,2,1610612738,BOS,Boston,13-26,27,16,22,27,0,0,0,0,0,0,0,0,0,0,92,0.376,0.929,0.176,17,50,13,0021300556,1610612745,HOU,Houston,Omer Asik,,NWT - Right Thigh / Knee,,,,,,,,,,,,,
0021300556,1610612745,HOU,Houston,203477,Isaiah Canaan,,DNP - Coach's Decision,,,,,,,0.0,,,,,,,0.0,,,2014-01-13T00:00:00,2,1610612745,HOU,Houston,25-14,19,33,32,20,0,0,0,0,0,0,0,0,0,0,104,0.468,0.647,0.421,24,46,11,0021300556,1610612745,HOU,Houston,Isaiah Canaan,,DNP - Coach's Decision,,,,,,,,,,,,,
0021300556,1610612745,HOU,Houston,203477,Isaiah Canaan,,DNP - Coach's Decision,,,,,,,0.0,,,,,,,0.0,,,2014-01-13T00:00:00,2,1610612738,BOS,Boston,13-26,27,16,22,27,0,0,0,0,0,0,0,0,0,0,92,0.376,0.929,0.176,17,50,13,0021300556,1610612745,HOU,Houston,Isaiah Canaan,,DNP - Coach's Decision,,,,,,,,,,,,,
0021300556,1610612745,HOU,Houston,202700,Donatas Motiejunas,,DNP - Coach's Decision,,,,,,,0.0,,,,,,,0.0,,,2014-01-13T00:00:00,2,1610612745,HOU,Houston,25-14,19,33,32,20,0,0,0,0,0,0,0,0,0,0,104,0.468,0.647,0.421,24,46,11,0021300556,1610612745,HOU,Houston,Donatas Motiejunas,,DNP - Coach's Decision,,,,,,,,,,,,,
0021300556,1610612745,HOU,Houston,202700,Donatas Motiejunas,,DNP - Coach's Decision,,,,,,,0.0,,,,,,,0.0,,,2014-01-13T00:00:00,2,1610612738,BOS,Boston,13-26,27,16,22,27,0,0,0,0,0,0,0,0,0,0,92,0.376,0.929,0.176,17,50,13,0021300556,1610612745,HOU,Houston,Donatas Motiejunas,,DNP - Coach's Decision,,,,,,,,,,,,,
0021300556,1610612745,HOU,Houston,202962,Greg Smith,,DNP - Coach's Decision,,,,,,,0.0,,,,,,,0.0,,,2014-01-13T00:00:00,2,1610612745,HOU,Houston,25-14,19,33,32,20,0,0,0,0,0,0,0,0,0,0,104,0.468,0.647,0.421,24,46,11,0021300556,1610612745,HOU,Houston,Greg Smith,,DNP - Coach's Decision,,,,,,,,,,,,,
0021300556,1610612745,HOU,Houston,202962,Greg Smith,,DNP - Coach's Decision,,,,,,,0.0,,,,,,,0.0,,,2014-01-13T00:00:00,2,1610612738,BOS,Boston,13-26,27,16,22,27,0,0,0,0,0,0,0,0,0,0,92,0.376,0.929,0.176,17,50,13,0021300556,1610612745,HOU,Houston,Greg Smith,,DNP - Coach's Decision,,,,,,,,,,,,,
0021300556,1610612738,BOS,Boston,201145,Jeff Green,F,,27:43,83.5,114.2,-30.7,0.0,0.0,0.0,0.0,0.207,0.109,28.6,0.2,0.2,0.206,100.65,-0.029,2014-01-13T00:00:00,2,1610612745,HOU,Houston,25-14,19,33,32,20,0,0,0,0,0,0,0,0,0,0,104,0.468,0.647,0.421,24,46,11,0021300556,1610612738,BOS,Boston,Jeff Green,F,,27:43,0.0,0.0,2.0,4.0,12.0,10.0,8.0,40.0,0.0,2.0,1.0,1.0
0021300556,1610612738,BOS,Boston,201145,Jeff Green,F,,27:43,83.5,114.2,-30.7,0.0,0.0,0.0,0.0,0.207,0.109,28.6,0.2,0.2,0.206,100.65,-0.029,2014-01-13T00:00:00,2,1610612738,BOS,Boston,13-26,27,16,22,27,0,0,0,0,0,0,0,0,0,0,92,0.376,0.929,0.176,17,50,13,0021300556,1610612738,BOS,Boston,Jeff Green,F,,27:43,0.0,0.0,2.0,4.0,12.0,10.0,8.0,40.0,0.0,2.0,1.0,1.0
0021300556,1610612738,BOS,Boston,203096,Jared Sullinger,F,,22:35,80.5,114.5,-34.0,0.067,1.0,7.2,0.207,0.19,0.2,7.2,0.273,0.337,0.201,102.83,0.039,2014-01-13T00:00:00,2,1610612745,HOU,Houston,25-14,19,33,32,20,0,0,0,0,0,0,0,0,0,0,104,0.468,0.647,0.421,24,46,11,0021300556,1610612738,BOS,Boston,Jared Sullinger,F,,22:35,0.0,8.0,0.0,6.0,11.0,2.0,8.0,22.0,1.0,2.0,5.0,3.0
0021300556,1610612738,BOS,Boston,203096,Jared Sullinger,F,,22:35,80.5,114.5,-34.0,0.067,1.0,7.2,0.207,0.19,0.2,7.2,0.273,0.337,0.201,102.83,0.039,2014-01-13T00:00:00,2,1610612738,BOS,Boston,13-26,27,16,22,27,0,0,0,0,0,0,0,0,0,0,92,0.376,0.929,0.176,17,50,13,0021300556,1610612738,BOS,Boston,Jared Sullinger,F,,22:35,0.0,8.0,0.0,6.0,11.0,2.0,8.0,22.0,1.0,2.0,5.0,3.0
0021300556,1610612738,BOS,Boston,2743,Kris Humphries,C,,20:50,72.3,120.4,-48.2,0.143,2.0,20.0,0.1,0.261,0.186,10.0,0.286,0.286,0.153,103.63,0.094,2014-01-13T00:00:00,2,1610612745,HOU,Houston,25-14,19,33,32,20,0,0,0,0,0,0,0,0,0,0,104,0.468,0.647,0.421,24,46,11,0021300556,1610612738,BOS,Boston,Kris Humphries,C,,20:50,2.0,0.0,4.0,4.0,8.0,8.0,13.0,34.0,3.0,1.0,1.0,0.0
0021300556,1610612738,BOS,Boston,2743,Kris Humphries,C,,20:50,72.3,120.4,-48.2,0.143,2.0,20.0,0.1,0.261,0.186,10.0,0.286,0.286,0.153,103.63,0.094,2014-01-13T00:00:00,2,1610612738,BOS,Boston,13-26,27,16,22,27,0,0,0,0,0,0,0,0,0,0,92,0.376,0.929,0.176,17,50,13,0021300556,1610612738,BOS,Boston,Kris Humphries,C,,20:50,2.0,0.0,4.0,4.0,8.0,8.0,13.0,34.0,3.0,1.0,1.0,0.0
0021300556,1610612738,BOS,Boston,202340,Avery Bradley,G,,33:54,86.6,109.1,-22.5,0.188,3.0,12.0,0.0,0.135,0.072,4.0,0.571,0.571,0.257,107.72,0.185,2014-01-13T00:00:00,2,1610612745,HOU,Houston,25-14,19,33,32,20,0,0,0,0,0,0,0,0,0,0,104,0.468,0.647,0.421,24,46,11,0021300556,1610612738,BOS,Boston,Avery Bradley,G,,33:54,2.0,0.0,5.0,2.0,13.0,10.0,15.0,46.0,1.0,2.0,2.0,2.0
0021300556,1610612738,BOS,Boston,202340,Avery Bradley,G,,33:54,86.6,109.1,-22.5,0.188,3.0,12.0,0.0,0.135,0.072,4.0,0.571,0.571,0.257,107.72,0.185,2014-01-13T00:00:00,2,1610612738,BOS,Boston,13-26,27,16,22,27,0,0,0,0,0,0,0,0,0,0,92,0.376,0.929,0.176,17,50,13,0021300556,1610612738,BOS,Boston,Avery Bradley,G,,33:54,2.0,0.0,5.0,2.0,13.0,10.0,15.0,46.0,1.0,2.0,2.0,2.0
0021300556,1610612738,BOS,Boston,202348,Jordan Crawford,G,,24:37,85.3,120.1,-34.8,0.313,5.0,24.9,0.0,0.0,0.0,5.0,0.273,0.462,0.255,100.77,0.052,2014-01-13T00:00:00,2,1610612745,HOU,Houston,25-14,19,33,32,20,0,0,0,0,0,0,0,0,0,0,104,0.468,0.647,0.421,24,46,11,0021300556,1610612738,BOS,Boston,Jordan Crawford,G,,24:37,2.0,0.0,0.0,4.0,10.0,10.0,8.0,38.0,0.0,0.0,4.0,3.0
0021300556,1610612738,BOS,Boston,202348,Jordan Crawford,G,,24:37,85.3,120.1,-34.8,0.313,5.0,24.9,0.0,0.0,0.0,5.0,0.273,0.462,0.255,100.77,0.052,2014-01-13T00:00:00,2,1610612738,BOS,Boston,13-26,27,16,22,27,0,0,0,0,0,0,0,0,0,0,92,0.376,0.929,0.176,17,50,13,0021300556,1610612738,BOS,Boston,Jordan Crawford,G,,24:37,2.0,0.0,0.0,4.0,10.0,10.0,8.0,38.0,0.0,0.0,4.0,3.0
0021300556,1610612738,BOS,Boston,101138,Brandon Bass,,,25:14,95.1,87.4,7.7,0.0,0.0,0.0,0.12,0.154,0.137,5.8,0.4,0.429,0.271,106.18,0.063,2014-01-13T00:00:00,2,1610612745,HOU,Houston,25-14,19,33,32,20,0,0,0,0,0,0,0,0,0,0,104,0.468,0.647,0.421,24,46,11,0021300556,1610612738,BOS,Boston,Brandon Bass,,,25:14,2.0,6.0,2.0,8.0,5.0,6.0,11.0,28.0,0.0,2.0,4.0,3.0
0021300556,1610612738,BOS,Boston,101138,Brandon Bass,,,25:14,95.1,87.4,7.7,0.0,0.0,0.0,0.12,0.154,0.137,5.8,0.4,0.429,0.271,106.18,0.063,2014-01-13T00:00:00,2,1610612738,BOS,Boston,13-26,27,16,22,27,0,0,0,0,0,0,0,0,0,0,92,0.376,0.929,0.176,17,50,13,0021300556,1610612738,BOS,Boston,Brandon Bass,,,25:14,2.0,6.0,2.0,8.0,5.0,6.0,11.0,28.0,0.0,2.0,4.0,3.0
0021300556,1610612738,BOS,Boston,2222,Gerald Wallace,,,19:56,83.9,88.6,-4.6,0.071,1.0,25.0,0.0,0.083,0.028,25.0,0.5,0.5,0.062,94.92,0.031,2014-01-13T00:00:00,2,1610612745,HOU,Houston,25-14,19,33,32,20,0,0,0,0,0,0,0,0,0,0,104,0.468,0.647,0.421,24,46,11,0021300556,1610612738,BOS,Boston,Gerald Wallace,,,19:56,0.0,2.0,0.0,2.0,4.0,0.0,7.0,16.0,1.0,0.0,1.0,0.0
0021300556,1610612738,BOS,Boston,2222,Gerald Wallace,,,19:56,83.9,88.6,-4.6,0.071,1.0,25.0,0.0,0.083,0.028,25.0,0.5,0.5,0.062,94.92,0.031,2014-01-13T00:00:00,2,1610612738,BOS,Boston,13-26,27,16,22,27,0,0,0,0,0,0,0,0,0,0,92,0.376,0.929,0.176,17,50,13,0021300556,1610612738,BOS,Boston,Gerald Wallace,,,19:56,0.0,2.0,0.0,2.0,4.0,0.0,7.0,16.0,1.0,0.0,1.0,0.0
0021300556,1610612738,BOS,Boston,201573,Jerryd Bayless,,,23:31,88.7,90.8,-2.0,0.333,2.0,20.1,0.0,0.056,0.021,10.1,0.577,0.612,0.248,105.78,0.292,2014-01-13T00:00:00,2,1610612745,HOU,Houston,25-14,19,33,32,20,0,0,0,0,0,0,0,0,0,0,104,0.468,0.647,0.421,24,46,11,0021300556,1610612738,BOS,Boston,Jerryd Bayless,,,23:31,2.0,0.0,0.0,4.0,7.0,0.0,9.0,20.0,1.0,0.0,0.0,2.0
0021300556,1610612738,BOS,Boston,201573,Jerryd Bayless,,,23:31,88.7,90.8,-2.0,0.333,2.0,20.1,0.0,0.056,0.021,10.1,0.577,0.612,0.248,105.78,0.292,2014-01-13T00:00:00,2,1610612738,BOS,Boston,13-26,27,16,22,27,0,0,0,0,0,0,0,0,0,0,92,0.376,0.929,0.176,17,50,13,0021300556,1610612738,BOS,Boston,Jerryd Bayless,,,23:31,2.0,0.0,0.0,4.0,7.0,0.0,9.0,20.0,1.0,0.0,0.0,2.0
0021300556,1610612738,BOS,Boston,203482,Kelly Olynyk,,,21:46,84.3,99.7,-15.4,0.0,0.0,0.0,0.167,0.176,0.171,0.0,0.4,0.4,0.096,101.7,0.062,2014-01-13T00:00:00,2,1610612745,HOU,Houston,25-14,19,33,32,20,0,0,0,0,0,0,0,0,0,0,104,0.468,0.647,0.421,24,46,11,0021300556,1610612738,BOS,Boston,Kelly Olynyk,,,21:46,0.0,2.0,0.0,2.0,8.0,4.0,2.0,24.0,0.0,0.0,4.0,1.0
0021300556,1610612738,BOS,Boston,203482,Kelly Olynyk,,,21:46,84.3,99.7,-15.4,0.0,0.0,0.0,0.167,0.176,0.171,0.0,0.4,0.4,0.096,101.7,0.062,2014-01-13T00:00:00,2,1610612738,BOS,Boston,13-26,27,16,22,27,0,0,0,0,0,0,0,0,0,0,92,0.376,0.929,0.176,17,50,13,0021300556,1610612738,BOS,Boston,Kelly Olynyk,,,21:46,0.0,2.0,0.0,2.0,8.0,4.0,2.0,24.0,0.0,0.0,4.0,1.0
0021300556,1610612738,BOS,Boston,203515,Phil Pressey,,,3:29,57.1,191.0,-133.8,0.0,0.0,0.0,0.0,0.0,0.0,33.3,0.0,0.0,0.3,87.92,-0.4,2014-01-13T00:00:00,2,1610612745,HOU,Houston,25-14,19,33,32,20,0,0,0,0,0,0,0,0,0,0,104,0.468,0.647,0.421,24,46,11,0021300556,1610612738,BOS,Boston,Phil Pressey,,,3:29,0.0,0.0,0.0,0.0,2.0,0.0,2.0,4.0,0.0,0.0,1.0,0.0
0021300556,1610612738,BOS,Boston,203515,Phil Pressey,,,3:29,57.1,191.0,-133.8,0.0,0.0,0.0,0.0,0.0,0.0,33.3,0.0,0.0,0.3,87.92,-0.4,2014-01-13T00:00:00,2,1610612738,BOS,Boston,13-26,27,16,22,27,0,0,0,0,0,0,0,0,0,0,92,0.376,0.929,0.176,17,50,13,0021300556,1610612738,BOS,Boston,Phil Pressey,,,3:29,0.0,0.0,0.0,0.0,2.0,0.0,2.0,4.0,0.0,0.0,1.0,0.0
0021300556,1610612738,BOS,Boston,203543,Vitor Faverani,,,4:25,135.1,146.4,-11.3,0.0,0.0,0.0,0.0,0.0,0.0,0.0,0.0,0.0,0.0,96.51,0.0,2014-01-13T00:00:00,2,1610612745,HOU,Houston,25-14,19,33,32,20,0,0,0,0,0,0,0,0,0,0,104,0.468,0.647,0.421,24,46,11,0021300556,1610612738,BOS,Boston,Vitor Faverani,,,4:25,0.0,0.0,0.0,0.0,2.0,0.0,0.0,8.0,0.0,0.0,1.0,0.0
0021300556,1610612738,BOS,Boston,203543,Vitor Faverani,,,4:25,135.1,146.4,-11.3,0.0,0.0,0.0,0.0,0.0,0.0,0.0,0.0,0.0,0.0,96.51,0.0,2014-01-13T00:00:00,2,1610612738,BOS,Boston,13-26,27,16,22,27,0,0,0,0,0,0,0,0,0,0,92,0.376,0.929,0.176,17,50,13,0021300556,1610612738,BOS,Boston,Vitor Faverani,,,4:25,0.0,0.0,0.0,0.0,2.0,0.0,0.0,8.0,0.0,0.0,1.0,0.0
0021300556,1610612738,BOS,Boston,202705,MarShon Brooks,,,12:00,95.7,74.0,21.8,0.1,0.0,20.0,0.0,0.455,0.2,0.0,0.25,0.25,0.12,110.48,0.136,2014-01-13T00:00:00,2,1610612745,HOU,Houston,25-14,19,33,32,20,0,0,0,0,0,0,0,0,0,0,104,0.468,0.647,0.421,24,46,11,0021300556,1610612738,BOS,Boston,MarShon Brooks,,,12:00,0.0,2.0,0.0,0.0,3.0,0.0,2.0,10.0,0.0,0.0,2.0,1.0
0021300556,1610612738,BOS,Boston,202705,MarShon Brooks,,,12:00,95.7,74.0,21.8,0.1,0.0,20.0,0.0,0.455,0.2,0.0,0.25,0.25,0.12,110.48,0.136,2014-01-13T00:00:00,2,1610612738,BOS,Boston,13-26,27,16,22,27,0,0,0,0,0,0,0,0,0,0,92,0.376,0.929,0.176,17,50,13,0021300556,1610612738,BOS,Boston,MarShon Brooks,,,12:00,0.0,2.0,0.0,0.0,3.0,0.0,2.0,10.0,0.0,0.0,2.0,1.0
0021300556,1610612738,BOS,Boston,2586,Keith Bogans,,DNP - Coach's Decision,,,,,,,0.0,,,,,,,0.0,,,2014-01-13T00:00:00,2,1610612745,HOU,Houston,25-14,19,33,32,20,0,0,0,0,0,0,0,0,0,0,104,0.468,0.647,0.421,24,46,11,0021300556,1610612738,BOS,Boston,Keith Bogans,,DNP - Coach's Decision,,,,,,,,,,,,,
0021300556,1610612738,BOS,Boston,2586,Keith Bogans,,DNP - Coach's Decision,,,,,,,0.0,,,,,,,0.0,,,2014-01-13T00:00:00,2,1610612738,BOS,Boston,13-26,27,16,22,27,0,0,0,0,0,0,0,0,0,0,92,0.376,0.929,0.176,17,50,13,0021300556,1610612738,BOS,Boston,Keith Bogans,,DNP - Coach's Decision,,,,,,,,,,,,,
