GAME_ID_x,TEAM_ID_x,TEAM_ABBREVIATION_x,TEAM_CITY_x,PLAYER_ID,PLAYER_NAME_x,START_POSITION_x,COMMENT_x,MIN_x,OFF_RATING,DEF_RATING,NET_RATING,AST_PCT,AST_TOV,AST_RATIO,OREB_PCT,DREB_PCT,REB_PCT,TM_TOV_PCT,EFG_PCT,TS_PCT,USG_PCT,PACE,PIE,GAME_DATE_EST,GAME_SEQUENCE,TEAM_ID_y,TEAM_ABBREVIATION_y,TEAM_CITY_NAME,TEAM_WINS_LOSSES,PTS_QTR1,PTS_QTR2,PTS_QTR3,PTS_QTR4,PTS_OT1,PTS_OT2,PTS_OT3,PTS_OT4,PTS_OT5,PTS_OT6,PTS_OT7,PTS_OT8,PTS_OT9,PTS_OT10,PTS,FG_PCT,FT_PCT,FG3_PCT,AST,REB,TOV,GAME_ID_y,TEAM_ID,TEAM_ABBREVIATION,TEAM_CITY_y,PLAYER_NAME_y,START_POSITION_y,COMMENT_y,MIN_y,PTS_OFF_TOV,PTS_2ND_CHANCE,PTS_FB,PTS_PAINT,OPP_PTS_OFF_TOV,OPP_PTS_2ND_CHANCE,OPP_PTS_FB,OPP_PTS_PAINT,BLK,BLKA,PF,PFD
0021300558,1610612764,WAS,Washington,2772,Trevor Ariza,F,,39:20,112.5,101.2,11.3,0.154,4.0,23.9,0.069,0.167,0.127,6.0,0.65,0.68,0.155,90.13,0.127,2014-01-13T00:00:00,4,1610612764,WAS,Washington,17-19,26,30,22,24,0,0,0,0,0,0,0,0,0,0,102,0.52,0.607,0.389,25,40,12,0021300558,1610612764,WAS,Washington,Trevor Ariza,F,,39:20,3.0,2.0,3.0,0.0,8.0,16.0,9.0,26.0,0.0,2.0,4.0,2.0
0021300558,1610612764,WAS,Washington,2772,Trevor Ariza,F,,39:20,112.5,101.2,11.3,0.154,4.0,23.9,0.069,0.167,0.127,6.0,0.65,0.68,0.155,90.13,0.127,2014-01-13T00:00:00,4,1610612741,CHI,Chicago,17-19,19,24,25,20,0,0,0,0,0,0,0,0,0,0,88,0.43,0.579,0.429,25,42,17,0021300558,1610612764,WAS,Washington,Trevor Ariza,F,,39:20,3.0,2.0,3.0,0.0,8.0,16.0,9.0,26.0,0.0,2.0,4.0,2.0
0021300558,1610612764,WAS,Washington,2403,Nene,F,,35:48,109.8,103.8,6.0,0.263,1.67,20.3,0.036,0.118,0.081,12.2,0.643,0.571,0.27,87.94,0.121,2014-01-13T00:00:00,4,1610612764,WAS,Washington,17-19,26,30,22,24,0,0,0,0,0,0,0,0,0,0,102,0.52,0.607,0.389,25,40,12,0021300558,1610612764,WAS,Washington,Nene,F,,35:48,4.0,0.0,3.0,8.0,11.0,12.0,9.0,22.0,2.0,0.0,4.0,6.0
0021300558,1610612764,WAS,Washington,2403,Nene,F,,35:48,109.8,103.8,6.0,0.263,1.67,20.3,0.036,0.118,0.081,12.2,0.643,0.571,0.27,87.94,0.121,2014-01-13T00:00:00,4,1610612741,CHI,Chicago,17-19,19,24,25,20,0,0,0,0,0,0,0,0,0,0,88,0.43,0.579,0.429,25,42,17,0021300558,1610612764,WAS,Washington,Nene,F,,35:48,4.0,0.0,3.0,8.0,11.0,12.0,9.0,22.0,2.0,0.0,4.0,6.0
0021300558,1610612764,WAS,Washington,101162,Marcin Gortat,C,,35:33,110.8,95.5,15.3,0.074,0.0,22.5,0.115,0.211,0.172,0.0,0.5,0.509,0.092,91.55,0.098,2014-01-13T00:00:00,4,1610612764,WAS,Washington,17-19,26,30,22,24,0,0,0,0,0,0,0,0,0,0,102,0.52,0.607,0.389,25,40,12,0021300558,1610612764,WAS,Washington,Marcin Gortat,C,,35:33,0.0,2.0,0.0,6.0,6.0,14.0,6.0,22.0,2.0,0.0,3.0,1.0
0021300558,1610612764,WAS,Washington,101162,Marcin Gortat,C,,35:33,110.8,95.5,15.3,0.074,0.0,22.5,0.115,0.211,0.172,0.0,0.5,0.509,0.092,91.55,0.098,2014-01-13T00:00:00,4,1610612741,CHI,Chicago,17-19,19,24,25,20,0,0,0,0,0,0,0,0,0,0,88,0.43,0.579,0.429,25,42,17,0021300558,1610612764,WAS,Washington,Marcin Gortat,C,,35:33,0.0,2.0,0.0,6.0,6.0,14.0,6.0,22.0,2.0,0.0,3.0,1.0
0021300558,1610612764,WAS,Washington,203078,Bradley Beal,G,,29:57,114.0,87.9,26.0,0.19,4.0,23.5,0.053,0.111,0.087,5.9,0.542,0.542,0.21,90.36,0.136,2014-01-13T00:00:00,4,1610612764,WAS,Washington,17-19,26,30,22,24,0,0,0,0,0,0,0,0,0,0,102,0.52,0.607,0.389,25,40,12,0021300558,1610612764,WAS,Washington,Bradley Beal,G,,29:57,4.0,0.0,0.0,4.0,7.0,7.0,2.0,18.0,0.0,1.0,1.0,0.0
0021300558,1610612764,WAS,Washington,203078,Bradley Beal,G,,29:57,114.0,87.9,26.0,0.19,4.0,23.5,0.053,0.111,0.087,5.9,0.542,0.542,0.21,90.36,0.136,2014-01-13T00:00:00,4,1610612741,CHI,Chicago,17-19,19,24,25,20,0,0,0,0,0,0,0,0,0,0,88,0.43,0.579,0.429,25,42,17,0021300558,1610612764,WAS,Washington,Bradley Beal,G,,29:57,4.0,0.0,0.0,4.0,7.0,7.0,2.0,18.0,0.0,1.0,1.0,0.0
0021300558,1610612764,WAS,Washington,202322,John Wall,G,,36:21,108.1,97.0,11.0,0.304,1.4,23.7,0.0,0.128,0.077,16.9,0.429,0.542,0.292,92.61,0.159,2014-01-13T00:00:00,4,1610612764,WAS,Washington,17-19,26,30,22,24,0,0,0,0,0,0,0,0,0,0,102,0.52,0.607,0.389,25,40,12,0021300558,1610612764,WAS,Washington,John Wall,G,,36:21,8.0,2.0,2.0,2.0,9.0,12.0,6.0,22.0,1.0,0.0,1.0,5.0
0021300558,1610612764,WAS,Washington,202322,John Wall,G,,36:21,108.1,97.0,11.0,0.304,1.4,23.7,0.0,0.128,0.077,16.9,0.429,0.542,0.292,92.61,0.159,2014-01-13T00:00:00,4,1610612741,CHI,Chicago,17-19,19,24,25,20,0,0,0,0,0,0,0,0,0,0,88,0.43,0.579,0.429,25,42,17,0021300558,1610612764,WAS,Washington,John Wall,G,,36:21,8.0,2.0,2.0,2.0,9.0,12.0,6.0,22.0,1.0,0.0,1.0,5.0
0021300558,1610612764,WAS,Washington,202344,Trevor Booker,,,23:31,106.6,93.1,13.5,0.0,0.0,0.0,0.0,0.125,0.059,23.7,0.5,0.466,0.169,95.99,0.0,2014-01-13T00:00:00,4,1610612764,WAS,Washington,17-19,26,30,22,24,0,0,0,0,0,0,0,0,0,0,102,0.52,0.607,0.389,25,40,12,0021300558,1610612764,WAS,Washington,Trevor Booker,,,23:31,0.0,0.0,2.0,4.0,5.0,6.0,3.0,20.0,0.0,0.0,2.0,2.0
0021300558,1610612764,WAS,Washington,202344,Trevor Booker,,,23:31,106.6,93.1,13.5,0.0,0.0,0.0,0.0,0.125,0.059,23.7,0.5,0.466,0.169,95.99,0.0,2014-01-13T00:00:00,4,1610612741,CHI,Chicago,17-19,19,24,25,20,0,0,0,0,0,0,0,0,0,0,88,0.43,0.579,0.429,25,42,17,0021300558,1610612764,WAS,Washington,Trevor Booker,,,23:31,0.0,0.0,2.0,4.0,5.0,6.0,3.0,20.0,0.0,0.0,2.0,2.0
0021300558,1610612764,WAS,Washington,101110,Martell Webster,,,26:55,105.8,98.5,7.4,0.133,0.0,18.2,0.042,0.042,0.042,0.0,0.667,0.667,0.158,96.1,0.121,2014-01-13T00:00:00,4,1610612764,WAS,Washington,17-19,26,30,22,24,0,0,0,0,0,0,0,0,0,0,102,0.52,0.607,0.389,25,40,12,0021300558,1610612764,WAS,Washington,Martell Webster,,,26:55,0.0,2.0,0.0,2.0,7.0,9.0,7.0,20.0,0.0,0.0,1.0,0.0
0021300558,1610612764,WAS,Washington,101110,Martell Webster,,,26:55,105.8,98.5,7.4,0.133,0.0,18.2,0.042,0.042,0.042,0.0,0.667,0.667,0.158,96.1,0.121,2014-01-13T00:00:00,4,1610612741,CHI,Chicago,17-19,19,24,25,20,0,0,0,0,0,0,0,0,0,0,88,0.43,0.579,0.429,25,42,17,0021300558,1610612764,WAS,Washington,Martell Webster,,,26:55,0.0,2.0,0.0,2.0,7.0,9.0,7.0,20.0,0.0,0.0,1.0,0.0
0021300558,1610612764,WAS,Washington,202066,Garrett Temple,,,12:35,122.3,82.9,39.3,0.125,0.0,12.4,0.0,0.2,0.1,0.0,0.625,0.706,0.275,93.55,0.286,2014-01-13T00:00:00,4,1610612764,WAS,Washington,17-19,26,30,22,24,0,0,0,0,0,0,0,0,0,0,102,0.52,0.607,0.389,25,40,12,0021300558,1610612764,WAS,Washington,Garrett Temple,,,12:35,3.0,0.0,3.0,2.0,2.0,4.0,3.0,10.0,0.0,0.0,1.0,5.0
0021300558,1610612764,WAS,Washington,202066,Garrett Temple,,,12:35,122.3,82.9,39.3,0.125,0.0,12.4,0.0,0.2,0.1,0.0,0.625,0.706,0.275,93.55,0.286,2014-01-13T00:00:00,4,1610612741,CHI,Chicago,17-19,19,24,25,20,0,0,0,0,0,0,0,0,0,0,88,0.43,0.579,0.429,25,42,17,0021300558,1610612764,WAS,Washington,Garrett Temple,,,12:35,3.0,0.0,3.0,2.0,2.0,4.0,3.0,10.0,0.0,0.0,1.0,5.0
0021300558,1610612764,WAS,Washington,201953,Eric Maynor,,DNP - Coach's Decision,,,,,,,0.0,,,,,,,0.0,,,2014-01-13T00:00:00,4,1610612764,WAS,Washington,17-19,26,30,22,24,0,0,0,0,0,0,0,0,0,0,102,0.52,0.607,0.389,25,40,12,0021300558,1610612764,WAS,Washington,Eric Maynor,,DNP - Coach's Decision,,,,,,,,,,,,,
0021300558,1610612764,WAS,Washington,201953,Eric Maynor,,DNP - Coach's Decision,,,,,,,0.0,,,,,,,0.0,,,2014-01-13T00:00:00,4,1610612741,CHI,Chicago,17-19,19,24,25,20,0,0,0,0,0,0,0,0,0,0,88,0.43,0.579,0.429,25,42,17,0021300558,1610612764,WAS,Washington,Eric Maynor,,DNP - Coach's Decision,,,,,,,,,,,,,
0021300558,1610612764,WAS,Washington,203490,Otto Porter Jr.,,DNP - Coach's Decision,,,,,,,0.0,,,,,,,0.0,,,2014-01-13T00:00:00,4,1610612764,WAS,Washington,17-19,26,30,22,24,0,0,0,0,0,0,0,0,0,0,102,0.52,0.607,0.389,25,40,12,0021300558,1610612764,WAS,Washington,Otto Porter Jr.,,DNP - Coach's Decision,,,,,,,,,,,,,
0021300558,1610612764,WAS,Washington,203490,Otto Porter Jr.,,DNP - Coach's Decision,,,,,,,0.0,,,,,,,0.0,,,2014-01-13T00:00:00,4,1610612741,CHI,Chicago,17-19,19,24,25,20,0,0,0,0,0,0,0,0,0,0,88,0.43,0.579,0.429,25,42,17,0021300558,1610612764,WAS,Washington,Otto Porter Jr.,,DNP - Coach's Decision,,,,,,,,,,,,,
0021300558,1610612764,WAS,Washington,202338,Kevin Seraphin,,DNP - Coach's Decision,,,,,,,0.0,,,,,,,0.0,,,2014-01-13T00:00:00,4,1610612764,WAS,Washington,17-19,26,30,22,24,0,0,0,0,0,0,0,0,0,0,102,0.52,0.607,0.389,25,40,12,0021300558,1610612764,WAS,Washington,Kevin Seraphin,,DNP - Coach's Decision,,,,,,,,,,,,,
0021300558,1610612764,WAS,Washington,202338,Kevin Seraphin,,DNP - Coach's Decision,,,,,,,0.0,,,,,,,0.0,,,2014-01-13T00:00:00,4,1610612741,CHI,Chicago,17-19,19,24,25,20,0,0,0,0,0,0,0,0,0,0,88,0.43,0.579,0.429,25,42,17,0021300558,1610612764,WAS,Washington,Kevin Seraphin,,DNP - Coach's Decision,,,,,,,,,,,,,
0021300558,1610612764,WAS,Washington,202698,Chris Singleton,,DNP - Coach's Decision,,,,,,,0.0,,,,,,,0.0,,,2014-01-13T00:00:00,4,1610612764,WAS,Washington,17-19,26,30,22,24,0,0,0,0,0,0,0,0,0,0,102,0.52,0.607,0.389,25,40,12,0021300558,1610612764,WAS,Washington,Chris Singleton,,DNP - Coach's Decision,,,,,,,,,,,,,
0021300558,1610612764,WAS,Washington,202698,Chris Singleton,,DNP - Coach's Decision,,,,,,,0.0,,,,,,,0.0,,,2014-01-13T00:00:00,4,1610612741,CHI,Chicago,17-19,19,24,25,20,0,0,0,0,0,0,0,0,0,0,88,0.43,0.579,0.429,25,42,17,0021300558,1610612764,WAS,Washington,Chris Singleton,,DNP - Coach's Decision,,,,,,,,,,,,,
0021300558,1610612764,WAS,Washington,202686,Jan Vesely,,DNP - Coach's Decision,,,,,,,0.0,,,,,,,0.0,,,2014-01-13T00:00:00,4,1610612764,WAS,Washington,17-19,26,30,22,24,0,0,0,0,0,0,0,0,0,0,102,0.52,0.607,0.389,25,40,12,0021300558,1610612764,WAS,Washington,Jan Vesely,,DNP - Coach's Decision,,,,,,,,,,,,,
0021300558,1610612764,WAS,Washington,202686,Jan Vesely,,DNP - Coach's Decision,,,,,,,0.0,,,,,,,0.0,,,2014-01-13T00:00:00,4,1610612741,CHI,Chicago,17-19,19,24,25,20,0,0,0,0,0,0,0,0,0,0,88,0.43,0.579,0.429,25,42,17,0021300558,1610612764,WAS,Washington,Jan Vesely,,DNP - Coach's Decision,,,,,,,,,,,,,
0021300558,1610612741,CHI,Chicago,2399,Mike Dunleavy,F,,28:50,110.5,104.8,5.7,0.0,0.0,0.0,0.0,0.043,0.02,16.8,0.5,0.506,0.188,88.87,0.019,2014-01-13T00:00:00,4,1610612764,WAS,Washington,17-19,26,30,22,24,0,0,0,0,0,0,0,0,0,0,102,0.52,0.607,0.389,25,40,12,0021300558,1610612741,CHI,Chicago,Mike Dunleavy,F,,28:50,0.0,4.0,3.0,0.0,9.0,4.0,5.0,8.0,2.0,0.0,1.0,1.0
0021300558,1610612741,CHI,Chicago,2399,Mike Dunleavy,F,,28:50,110.5,104.8,5.7,0.0,0.0,0.0,0.0,0.043,0.02,16.8,0.5,0.506,0.188,88.87,0.019,2014-01-13T00:00:00,4,1610612741,CHI,Chicago,17-19,19,24,25,20,0,0,0,0,0,0,0,0,0,0,88,0.43,0.579,0.429,25,42,17,0021300558,1610612741,CHI,Chicago,Mike Dunleavy,F,,28:50,0.0,4.0,3.0,0.0,9.0,4.0,5.0,8.0,2.0,0.0,1.0,1.0
0021300558,1610612741,CHI,Chicago,2430,Carlos Boozer,F,,32:29,97.9,106.6,-8.7,0.125,1.0,10.1,0.0,0.292,0.121,10.1,0.6,0.598,0.247,91.7,0.133,2014-01-13T00:00:00,4,1610612764,WAS,Washington,17-19,26,30,22,24,0,0,0,0,0,0,0,0,0,0,102,0.52,0.607,0.389,25,40,12,0021300558,1610612741,CHI,Chicago,Carlos Boozer,F,,32:29,0.0,4.0,0.0,8.0,11.0,4.0,8.0,16.0,0.0,0.0,3.0,2.0
0021300558,1610612741,CHI,Chicago,2430,Carlos Boozer,F,,32:29,97.9,106.6,-8.7,0.125,1.0,10.1,0.0,0.292,0.121,10.1,0.6,0.598,0.247,91.7,0.133,2014-01-13T00:00:00,4,1610612741,CHI,Chicago,17-19,19,24,25,20,0,0,0,0,0,0,0,0,0,0,88,0.43,0.579,0.429,25,42,17,0021300558,1610612741,CHI,Chicago,Carlos Boozer,F,,32:29,0.0,4.0,0.0,8.0,11.0,4.0,8.0,16.0,0.0,0.0,3.0,2.0
0021300558,1610612741,CHI,Chicago,201149,Joakim Noah,C,,37:20,98.1,110.3,-12.2,0.125,1.0,22.0,0.132,0.407,0.246,22.0,0.4,0.524,0.126,90.15,0.126,2014-01-13T00:00:00,4,1610612764,WAS,Washington,17-19,26,30,22,24,0,0,0,0,0,0,0,0,0,0,102,0.52,0.607,0.389,25,40,12,0021300558,1610612741,CHI,Chicago,Joakim Noah,C,,37:20,0.0,1.0,0.0,2.0,18.0,6.0,11.0,18.0,1.0,0.0,4.0,4.0
0021300558,1610612741,CHI,Chicago,201149,Joakim Noah,C,,37:20,98.1,110.3,-12.2,0.125,1.0,22.0,0.132,0.407,0.246,22.0,0.4,0.524,0.126,90.15,0.126,2014-01-13T00:00:00,4,1610612741,CHI,Chicago,17-19,19,24,25,20,0,0,0,0,0,0,0,0,0,0,88,0.43,0.579,0.429,25,42,17,0021300558,1610612741,CHI,Chicago,Joakim Noah,C,,37:20,0.0,1.0,0.0,2.0,18.0,6.0,11.0,18.0,1.0,0.0,4.0,4.0
0021300558,1610612741,CHI,Chicago,202710,Jimmy Butler,G,,37:28,92.1,108.8,-16.6,0.045,0.0,8.4,0.053,0.077,0.063,0.0,0.6,0.551,0.13,93.7,0.081,2014-01-13T00:00:00,4,1610612764,WAS,Washington,17-19,26,30,22,24,0,0,0,0,0,0,0,0,0,0,102,0.52,0.607,0.389,25,40,12,0021300558,1610612741,CHI,Chicago,Jimmy Butler,G,,37:28,2.0,2.0,0.0,4.0,17.0,6.0,9.0,26.0,0.0,2.0,0.0,1.0
0021300558,1610612741,CHI,Chicago,202710,Jimmy Butler,G,,37:28,92.1,108.8,-16.6,0.045,0.0,8.4,0.053,0.077,0.063,0.0,0.6,0.551,0.13,93.7,0.081,2014-01-13T00:00:00,4,1610612741,CHI,Chicago,17-19,19,24,25,20,0,0,0,0,0,0,0,0,0,0,88,0.43,0.579,0.429,25,42,17,0021300558,1610612741,CHI,Chicago,Jimmy Butler,G,,37:28,2.0,2.0,0.0,4.0,17.0,6.0,9.0,26.0,0.0,2.0,0.0,1.0
0021300558,1610612741,CHI,Chicago,2550,Kirk Hinrich,G,,27:39,93.8,118.4,-24.6,0.533,2.0,35.0,0.065,0.056,0.061,17.5,0.3,0.368,0.239,89.86,0.021,2014-01-13T00:00:00,4,1610612764,WAS,Washington,17-19,26,30,22,24,0,0,0,0,0,0,0,0,0,0,102,0.52,0.607,0.389,25,40,12,0021300558,1610612741,CHI,Chicago,Kirk Hinrich,G,,27:39,2.0,0.0,2.0,2.0,11.0,6.0,3.0,14.0,0.0,0.0,5.0,2.0
0021300558,1610612741,CHI,Chicago,2550,Kirk Hinrich,G,,27:39,93.8,118.4,-24.6,0.533,2.0,35.0,0.065,0.056,0.061,17.5,0.3,0.368,0.239,89.86,0.021,2014-01-13T00:00:00,4,1610612741,CHI,Chicago,17-19,19,24,25,20,0,0,0,0,0,0,0,0,0,0,88,0.43,0.579,0.429,25,42,17,0021300558,1610612741,CHI,Chicago,Kirk Hinrich,G,,27:39,2.0,0.0,2.0,2.0,11.0,6.0,3.0,14.0,0.0,0.0,5.0,2.0
0021300558,1610612741,CHI,Chicago,201959,Taj Gibson,,,25:12,89.6,112.9,-23.3,0.167,2.0,20.0,0.15,0.2,0.175,10.0,0.571,0.571,0.151,94.82,0.117,2014-01-13T00:00:00,4,1610612764,WAS,Washington,17-19,26,30,22,24,0,0,0,0,0,0,0,0,0,0,102,0.52,0.607,0.389,25,40,12,0021300558,1610612741,CHI,Chicago,Taj Gibson,,,25:12,0.0,4.0,0.0,8.0,15.0,4.0,7.0,18.0,0.0,1.0,2.0,3.0
0021300558,1610612741,CHI,Chicago,201959,Taj Gibson,,,25:12,89.6,112.9,-23.3,0.167,2.0,20.0,0.15,0.2,0.175,10.0,0.571,0.571,0.151,94.82,0.117,2014-01-13T00:00:00,4,1610612741,CHI,Chicago,17-19,19,24,25,20,0,0,0,0,0,0,0,0,0,0,88,0.43,0.579,0.429,25,42,17,0021300558,1610612741,CHI,Chicago,Taj Gibson,,,25:12,0.0,4.0,0.0,8.0,15.0,4.0,7.0,18.0,0.0,1.0,2.0,3.0
0021300558,1610612741,CHI,Chicago,203503,Tony Snell,,,15:49,82.5,111.8,-29.3,0.2,1.0,8.7,0.0,0.154,0.077,8.7,0.667,0.636,0.323,94.86,0.182,2014-01-13T00:00:00,4,1610612764,WAS,Washington,17-19,26,30,22,24,0,0,0,0,0,0,0,0,0,0,102,0.52,0.607,0.389,25,40,12,0021300558,1610612741,CHI,Chicago,Tony Snell,,,15:49,0.0,0.0,0.0,6.0,10.0,4.0,6.0,16.0,0.0,0.0,1.0,1.0
0021300558,1610612741,CHI,Chicago,203503,Tony Snell,,,15:49,82.5,111.8,-29.3,0.2,1.0,8.7,0.0,0.154,0.077,8.7,0.667,0.636,0.323,94.86,0.182,2014-01-13T00:00:00,4,1610612741,CHI,Chicago,17-19,19,24,25,20,0,0,0,0,0,0,0,0,0,0,88,0.43,0.579,0.429,25,42,17,0021300558,1610612741,CHI,Chicago,Tony Snell,,,15:49,0.0,0.0,0.0,6.0,10.0,4.0,6.0,16.0,0.0,0.0,1.0,1.0
0021300558,1610612741,CHI,Chicago,201571,D.J. Augustin,,,25:47,92.1,110.4,-18.3,0.467,2.33,32.0,0.045,0.0,0.024,13.7,0.227,0.295,0.266,92.68,0.006,2014-01-13T00:00:00,4,1610612764,WAS,Washington,17-19,26,30,22,24,0,0,0,0,0,0,0,0,0,0,102,0.52,0.607,0.389,25,40,12,0021300558,1610612741,CHI,Chicago,D.J. Augustin,,,25:47,7.0,0.0,4.0,2.0,16.0,4.0,12.0,18.0,0.0,2.0,4.0,2.0
0021300558,1610612741,CHI,Chicago,201571,D.J. Augustin,,,25:47,92.1,110.4,-18.3,0.467,2.33,32.0,0.045,0.0,0.024,13.7,0.227,0.295,0.266,92.68,0.006,2014-01-13T00:00:00,4,1610612741,CHI,Chicago,17-19,19,24,25,20,0,0,0,0,0,0,0,0,0,0,88,0.43,0.579,0.429,25,42,17,0021300558,1610612741,CHI,Chicago,D.J. Augustin,,,25:47,7.0,0.0,4.0,2.0,16.0,4.0,12.0,18.0,0.0,2.0,4.0,2.0
0021300558,1610612741,CHI,Chicago,1737,Nazr Mohammed,,,0:59,200.0,163.9,36.1,0.0,0.0,0.0,0.0,0.0,0.0,0.0,0.0,0.0,0.0,83.96,0.0,2014-01-13T00:00:00,4,1610612764,WAS,Washington,17-19,26,30,22,24,0,0,0,0,0,0,0,0,0,0,102,0.52,0.607,0.389,25,40,12,0021300558,1610612741,CHI,Chicago,Nazr Mohammed,,,0:59,0.0,0.0,0.0,0.0,0.0,2.0,0.0,4.0,0.0,0.0,0.0,0.0
0021300558,1610612741,CHI,Chicago,1737,Nazr Mohammed,,,0:59,200.0,163.9,36.1,0.0,0.0,0.0,0.0,0.0,0.0,0.0,0.0,0.0,0.0,83.96,0.0,2014-01-13T00:00:00,4,1610612741,CHI,Chicago,17-19,19,24,25,20,0,0,0,0,0,0,0,0,0,0,88,0.43,0.579,0.429,25,42,17,0021300558,1610612741,CHI,Chicago,Nazr Mohammed,,,0:59,0.0,0.0,0.0,0.0,0.0,2.0,0.0,4.0,0.0,0.0,0.0,0.0
0021300558,1610612741,CHI,Chicago,201858,Cartier Martin,,,8:27,113.4,108.7,4.7,0.167,1.0,17.0,0.143,0.0,0.067,17.0,0.5,0.515,0.26,91.99,0.048,2014-01-13T00:00:00,4,1610612764,WAS,Washington,17-19,26,30,22,24,0,0,0,0,0,0,0,0,0,0,102,0.52,0.607,0.389,25,40,12,0021300558,1610612741,CHI,Chicago,Cartier Martin,,,8:27,0.0,1.0,0.0,0.0,3.0,0.0,4.0,2.0,0.0,0.0,1.0,1.0
0021300558,1610612741,CHI,Chicago,201858,Cartier Martin,,,8:27,113.4,108.7,4.7,0.167,1.0,17.0,0.143,0.0,0.067,17.0,0.5,0.515,0.26,91.99,0.048,2014-01-13T00:00:00,4,1610612741,CHI,Chicago,17-19,19,24,25,20,0,0,0,0,0,0,0,0,0,0,88,0.43,0.579,0.429,25,42,17,0021300558,1610612741,CHI,Chicago,Cartier Martin,,,8:27,0.0,1.0,0.0,0.0,3.0,0.0,4.0,2.0,0.0,0.0,1.0,1.0
0021300558,1610612741,CHI,Chicago,203513,Erik Murphy,,DNP - Coach's Decision,,,,,,,0.0,,,,,,,0.0,,,2014-01-13T00:00:00,4,1610612764,WAS,Washington,17-19,26,30,22,24,0,0,0,0,0,0,0,0,0,0,102,0.52,0.607,0.389,25,40,12,0021300558,1610612741,CHI,Chicago,Erik Murphy,,DNP - Coach's Decision,,,,,,,,,,,,,
0021300558,1610612741,CHI,Chicago,203513,Erik Murphy,,DNP - Coach's Decision,,,,,,,0.0,,,,,,,0.0,,,2014-01-13T00:00:00,4,1610612741,CHI,Chicago,17-19,19,24,25,20,0,0,0,0,0,0,0,0,0,0,88,0.43,0.579,0.429,25,42,17,0021300558,1610612741,CHI,Chicago,Erik Murphy,,DNP - Coach's Decision,,,,,,,,,,,,,
