GAME_ID_x,TEAM_ID_x,TEAM_ABBREVIATION_x,TEAM_CITY_x,PLAYER_ID,PLAYER_NAME_x,START_POSITION_x,COMMENT_x,MIN_x,OFF_RATING,DEF_RATING,NET_RATING,AST_PCT,AST_TOV,AST_RATIO,OREB_PCT,DREB_PCT,REB_PCT,TM_TOV_PCT,EFG_PCT,TS_PCT,USG_PCT,PACE,PIE,GAME_DATE_EST,GAME_SEQUENCE,TEAM_ID_y,TEAM_ABBREVIATION_y,TEAM_CITY_NAME,TEAM_WINS_LOSSES,PTS_QTR1,PTS_QTR2,PTS_QTR3,PTS_QTR4,PTS_OT1,PTS_OT2,PTS_OT3,PTS_OT4,PTS_OT5,PTS_OT6,PTS_OT7,PTS_OT8,PTS_OT9,PTS_OT10,PTS,FG_PCT,FT_PCT,FG3_PCT,AST,REB,TOV,GAME_ID_y,TEAM_ID,TEAM_ABBREVIATION,TEAM_CITY_y,PLAYER_NAME_y,START_POSITION_y,COMMENT_y,MIN_y,PTS_OFF_TOV,PTS_2ND_CHANCE,PTS_FB,PTS_PAINT,OPP_PTS_OFF_TOV,OPP_PTS_2ND_CHANCE,OPP_PTS_FB,OPP_PTS_PAINT,BLK,BLKA,PF,PFD
0021300560,1610612753,ORL,Orlando,203090,Maurice Harkless,F,,40:40,99.2,124.5,-25.3,0.13,3.0,17.9,0.088,0.125,0.106,6.0,0.5,0.509,0.167,88.12,0.085,2014-01-13T00:00:00,6,1610612753,ORL,Orlando,10-28,20,21,25,22,0,0,0,0,0,0,0,0,0,0,88,0.447,0.813,0.292,18,37,15,0021300560,1610612753,ORL,Orlando,Maurice Harkless,F,,40:40,3.0,5.0,3.0,6.0,13.0,13.0,11.0,28.0,0.0,1.0,2.0,2.0
0021300560,1610612753,ORL,Orlando,203090,Maurice Harkless,F,,40:40,99.2,124.5,-25.3,0.13,3.0,17.9,0.088,0.125,0.106,6.0,0.5,0.509,0.167,88.12,0.085,2014-01-13T00:00:00,6,1610612742,DAL,Dallas,23-16,28,31,25,23,0,0,0,0,0,0,0,0,0,0,107,0.506,0.933,0.481,21,40,12,0021300560,1610612753,ORL,Orlando,Maurice Harkless,F,,40:40,3.0,5.0,3.0,6.0,13.0,13.0,11.0,28.0,0.0,1.0,2.0,2.0
0021300560,1610612753,ORL,Orlando,202699,Tobias Harris,F,,35:12,98.9,118.0,-19.1,0.0,0.0,0.0,0.032,0.207,0.117,16.8,0.444,0.506,0.168,87.35,0.053,2014-01-13T00:00:00,6,1610612753,ORL,Orlando,10-28,20,21,25,22,0,0,0,0,0,0,0,0,0,0,88,0.447,0.813,0.292,18,37,15,0021300560,1610612753,ORL,Orlando,Tobias Harris,F,,35:12,2.0,2.0,6.0,4.0,8.0,10.0,6.0,26.0,0.0,0.0,3.0,2.0
0021300560,1610612753,ORL,Orlando,202699,Tobias Harris,F,,35:12,98.9,118.0,-19.1,0.0,0.0,0.0,0.032,0.207,0.117,16.8,0.444,0.506,0.168,87.35,0.053,2014-01-13T00:00:00,6,1610612742,DAL,Dallas,23-16,28,31,25,23,0,0,0,0,0,0,0,0,0,0,107,0.506,0.933,0.481,21,40,12,0021300560,1610612753,ORL,Orlando,Tobias Harris,F,,35:12,2.0,2.0,6.0,4.0,8.0,10.0,6.0,26.0,0.0,0.0,3.0,2.0
0021300560,1610612753,ORL,Orlando,201175,Glen Davis,C,,31:43,102.2,115.5,-13.3,0.0,0.0,0.0,0.042,0.25,0.154,0.0,0.571,0.62,0.248,86.26,0.19,2014-01-13T00:00:00,6,1610612753,ORL,Orlando,10-28,20,21,25,22,0,0,0,0,0,0,0,0,0,0,88,0.447,0.813,0.292,18,37,15,0021300560,1610612753,ORL,Orlando,Glen Davis,C,,31:43,2.0,0.0,0.0,4.0,9.0,13.0,6.0,20.0,0.0,1.0,1.0,3.0
0021300560,1610612753,ORL,Orlando,201175,Glen Davis,C,,31:43,102.2,115.5,-13.3,0.0,0.0,0.0,0.042,0.25,0.154,0.0,0.571,0.62,0.248,86.26,0.19,2014-01-13T00:00:00,6,1610612742,DAL,Dallas,23-16,28,31,25,23,0,0,0,0,0,0,0,0,0,0,107,0.506,0.933,0.481,21,40,12,0021300560,1610612753,ORL,Orlando,Glen Davis,C,,31:43,2.0,0.0,0.0,4.0,9.0,13.0,6.0,20.0,0.0,1.0,1.0,3.0
0021300560,1610612753,ORL,Orlando,203506,Victor Oladipo,G,,30:15,92.7,106.7,-14.1,0.125,0.5,11.2,0.038,0.083,0.06,22.4,0.409,0.463,0.255,92.32,0.015,2014-01-13T00:00:00,6,1610612753,ORL,Orlando,10-28,20,21,25,22,0,0,0,0,0,0,0,0,0,0,88,0.447,0.813,0.292,18,37,15,0021300560,1610612753,ORL,Orlando,Victor Oladipo,G,,30:15,0.0,2.0,2.0,2.0,10.0,5.0,14.0,20.0,0.0,1.0,4.0,4.0
0021300560,1610612753,ORL,Orlando,203506,Victor Oladipo,G,,30:15,92.7,106.7,-14.1,0.125,0.5,11.2,0.038,0.083,0.06,22.4,0.409,0.463,0.255,92.32,0.015,2014-01-13T00:00:00,6,1610612742,DAL,Dallas,23-16,28,31,25,23,0,0,0,0,0,0,0,0,0,0,107,0.506,0.933,0.481,21,40,12,0021300560,1610612753,ORL,Orlando,Victor Oladipo,G,,30:15,0.0,2.0,2.0,2.0,10.0,5.0,14.0,20.0,0.0,1.0,4.0,4.0
0021300560,1610612753,ORL,Orlando,2749,Jameer Nelson,G,,38:59,104.6,122.4,-17.7,0.318,2.33,27.2,0.032,0.031,0.032,11.6,0.643,0.666,0.241,86.81,0.128,2014-01-13T00:00:00,6,1610612753,ORL,Orlando,10-28,20,21,25,22,0,0,0,0,0,0,0,0,0,0,88,0.447,0.813,0.292,18,37,15,0021300560,1610612753,ORL,Orlando,Jameer Nelson,G,,38:59,0.0,0.0,2.0,6.0,11.0,13.0,6.0,26.0,0.0,1.0,1.0,4.0
0021300560,1610612753,ORL,Orlando,2749,Jameer Nelson,G,,38:59,104.6,122.4,-17.7,0.318,2.33,27.2,0.032,0.031,0.032,11.6,0.643,0.666,0.241,86.81,0.128,2014-01-13T00:00:00,6,1610612742,DAL,Dallas,23-16,28,31,25,23,0,0,0,0,0,0,0,0,0,0,107,0.506,0.933,0.481,21,40,12,0021300560,1610612753,ORL,Orlando,Jameer Nelson,G,,38:59,0.0,0.0,2.0,6.0,11.0,13.0,6.0,26.0,0.0,1.0,1.0,4.0
0021300560,1610612753,ORL,Orlando,202734,E'Twaun Moore,,,20:10,86.7,131.3,-44.6,0.25,0.0,30.0,0.0,0.0,0.0,0.0,0.286,0.286,0.162,91.07,0.019,2014-01-13T00:00:00,6,1610612753,ORL,Orlando,10-28,20,21,25,22,0,0,0,0,0,0,0,0,0,0,88,0.447,0.813,0.292,18,37,15,0021300560,1610612753,ORL,Orlando,E'Twaun Moore,,,20:10,0.0,0.0,0.0,4.0,10.0,2.0,10.0,18.0,1.0,1.0,2.0,0.0
0021300560,1610612753,ORL,Orlando,202734,E'Twaun Moore,,,20:10,86.7,131.3,-44.6,0.25,0.0,30.0,0.0,0.0,0.0,0.0,0.286,0.286,0.162,91.07,0.019,2014-01-13T00:00:00,6,1610612742,DAL,Dallas,23-16,28,31,25,23,0,0,0,0,0,0,0,0,0,0,107,0.506,0.933,0.481,21,40,12,0021300560,1610612753,ORL,Orlando,E'Twaun Moore,,,20:10,0.0,0.0,0.0,4.0,10.0,2.0,10.0,18.0,1.0,1.0,2.0,0.0
0021300560,1610612753,ORL,Orlando,101131,Jason Maxiell,,,14:48,95.3,125.7,-30.3,0.091,1.0,25.0,0.077,0.556,0.273,25.0,0.0,0.0,0.093,93.66,0.043,2014-01-13T00:00:00,6,1610612753,ORL,Orlando,10-28,20,21,25,22,0,0,0,0,0,0,0,0,0,0,88,0.447,0.813,0.292,18,37,15,0021300560,1610612753,ORL,Orlando,Jason Maxiell,,,14:48,0.0,0.0,0.0,0.0,8.0,0.0,5.0,14.0,0.0,0.0,1.0,1.0
0021300560,1610612753,ORL,Orlando,101131,Jason Maxiell,,,14:48,95.3,125.7,-30.3,0.091,1.0,25.0,0.077,0.556,0.273,25.0,0.0,0.0,0.093,93.66,0.043,2014-01-13T00:00:00,6,1610612742,DAL,Dallas,23-16,28,31,25,23,0,0,0,0,0,0,0,0,0,0,107,0.506,0.933,0.481,21,40,12,0021300560,1610612753,ORL,Orlando,Jason Maxiell,,,14:48,0.0,0.0,0.0,0.0,8.0,0.0,5.0,14.0,0.0,0.0,1.0,1.0
0021300560,1610612753,ORL,Orlando,203117,Doron Lamb,,,17:32,90.9,124.1,-33.2,0.091,0.5,13.4,0.0,0.0,0.0,26.9,0.375,0.45,0.173,94.5,-0.016,2014-01-13T00:00:00,6,1610612753,ORL,Orlando,10-28,20,21,25,22,0,0,0,0,0,0,0,0,0,0,88,0.447,0.813,0.292,18,37,15,0021300560,1610612753,ORL,Orlando,Doron Lamb,,,17:32,0.0,3.0,0.0,0.0,17.0,6.0,12.0,16.0,0.0,0.0,2.0,0.0
0021300560,1610612753,ORL,Orlando,203117,Doron Lamb,,,17:32,90.9,124.1,-33.2,0.091,0.5,13.4,0.0,0.0,0.0,26.9,0.375,0.45,0.173,94.5,-0.016,2014-01-13T00:00:00,6,1610612742,DAL,Dallas,23-16,28,31,25,23,0,0,0,0,0,0,0,0,0,0,107,0.506,0.933,0.481,21,40,12,0021300560,1610612753,ORL,Orlando,Doron Lamb,,,17:32,0.0,3.0,0.0,0.0,17.0,6.0,12.0,16.0,0.0,0.0,2.0,0.0
0021300560,1610612753,ORL,Orlando,203124,Kyle O'Quinn,,,3:31,87.5,156.3,-68.8,0.333,1.0,33.3,0.0,0.667,0.4,33.3,0.0,0.0,0.25,93.91,0.0,2014-01-13T00:00:00,6,1610612753,ORL,Orlando,10-28,20,21,25,22,0,0,0,0,0,0,0,0,0,0,88,0.447,0.813,0.292,18,37,15,0021300560,1610612753,ORL,Orlando,Kyle O'Quinn,,,3:31,0.0,0.0,0.0,0.0,5.0,3.0,5.0,0.0,0.0,1.0,1.0,0.0
0021300560,1610612753,ORL,Orlando,203124,Kyle O'Quinn,,,3:31,87.5,156.3,-68.8,0.333,1.0,33.3,0.0,0.667,0.4,33.3,0.0,0.0,0.25,93.91,0.0,2014-01-13T00:00:00,6,1610612742,DAL,Dallas,23-16,28,31,25,23,0,0,0,0,0,0,0,0,0,0,107,0.506,0.933,0.481,21,40,12,0021300560,1610612753,ORL,Orlando,Kyle O'Quinn,,,3:31,0.0,0.0,0.0,0.0,5.0,3.0,5.0,0.0,0.0,1.0,1.0,0.0
0021300560,1610612753,ORL,Orlando,203094,Andrew Nicholson,,,7:10,110.8,124.2,-13.4,0.0,0.0,0.0,0.0,0.4,0.222,25.0,1.0,1.0,0.277,91.49,0.197,2014-01-13T00:00:00,6,1610612753,ORL,Orlando,10-28,20,21,25,22,0,0,0,0,0,0,0,0,0,0,88,0.447,0.813,0.292,18,37,15,0021300560,1610612753,ORL,Orlando,Andrew Nicholson,,,7:10,2.0,0.0,0.0,0.0,4.0,0.0,5.0,2.0,0.0,0.0,1.0,0.0
0021300560,1610612753,ORL,Orlando,203094,Andrew Nicholson,,,7:10,110.8,124.2,-13.4,0.0,0.0,0.0,0.0,0.4,0.222,25.0,1.0,1.0,0.277,91.49,0.197,2014-01-13T00:00:00,6,1610612742,DAL,Dallas,23-16,28,31,25,23,0,0,0,0,0,0,0,0,0,0,107,0.506,0.933,0.481,21,40,12,0021300560,1610612753,ORL,Orlando,Andrew Nicholson,,,7:10,2.0,0.0,0.0,0.0,4.0,0.0,5.0,2.0,0.0,0.0,1.0,0.0
0021300560,1610612753,ORL,Orlando,201167,Arron Afflalo,,DND - Strained Right Foot,,,,,,,0.0,,,,,,,0.0,,,2014-01-13T00:00:00,6,1610612753,ORL,Orlando,10-28,20,21,25,22,0,0,0,0,0,0,0,0,0,0,88,0.447,0.813,0.292,18,37,15,0021300560,1610612753,ORL,Orlando,Arron Afflalo,,DND - Strained Right Foot,,,,,,,,,,,,,
0021300560,1610612753,ORL,Orlando,201167,Arron Afflalo,,DND - Strained Right Foot,,,,,,,0.0,,,,,,,0.0,,,2014-01-13T00:00:00,6,1610612742,DAL,Dallas,23-16,28,31,25,23,0,0,0,0,0,0,0,0,0,0,107,0.506,0.933,0.481,21,40,12,0021300560,1610612753,ORL,Orlando,Arron Afflalo,,DND - Strained Right Foot,,,,,,,,,,,,,
0021300560,1610612753,ORL,Orlando,101179,Ronnie Price,,NWT - Sinus Condition,,,,,,,0.0,,,,,,,0.0,,,2014-01-13T00:00:00,6,1610612753,ORL,Orlando,10-28,20,21,25,22,0,0,0,0,0,0,0,0,0,0,88,0.447,0.813,0.292,18,37,15,0021300560,1610612753,ORL,Orlando,Ronnie Price,,NWT - Sinus Condition,,,,,,,,,,,,,
0021300560,1610612753,ORL,Orlando,101179,Ronnie Price,,NWT - Sinus Condition,,,,,,,0.0,,,,,,,0.0,,,2014-01-13T00:00:00,6,1610612742,DAL,Dallas,23-16,28,31,25,23,0,0,0,0,0,0,0,0,0,0,107,0.506,0.933,0.481,21,40,12,0021300560,1610612753,ORL,Orlando,Ronnie Price,,NWT - Sinus Condition,,,,,,,,,,,,,
0021300560,1610612753,ORL,Orlando,202696,Nikola Vucevic,,NWT - Concussion,,,,,,,0.0,,,,,,,0.0,,,2014-01-13T00:00:00,6,1610612753,ORL,Orlando,10-28,20,21,25,22,0,0,0,0,0,0,0,0,0,0,88,0.447,0.813,0.292,18,37,15,0021300560,1610612753,ORL,Orlando,Nikola Vucevic,,NWT - Concussion,,,,,,,,,,,,,
0021300560,1610612753,ORL,Orlando,202696,Nikola Vucevic,,NWT - Concussion,,,,,,,0.0,,,,,,,0.0,,,2014-01-13T00:00:00,6,1610612742,DAL,Dallas,23-16,28,31,25,23,0,0,0,0,0,0,0,0,0,0,107,0.506,0.933,0.481,21,40,12,0021300560,1610612753,ORL,Orlando,Nikola Vucevic,,NWT - Concussion,,,,,,,,,,,,,
0021300560,1610612742,DAL,Dallas,203109,Jae Crowder,F,,24:40,122.4,99.1,23.3,0.059,0.0,11.1,0.0,0.222,0.105,0.0,0.875,0.875,0.146,93.64,0.194,2014-01-13T00:00:00,6,1610612753,ORL,Orlando,10-28,20,21,25,22,0,0,0,0,0,0,0,0,0,0,88,0.447,0.813,0.292,18,37,15,0021300560,1610612742,DAL,Dallas,Jae Crowder,F,,24:40,2.0,0.0,2.0,4.0,4.0,4.0,8.0,14.0,1.0,0.0,2.0,1.0
0021300560,1610612742,DAL,Dallas,203109,Jae Crowder,F,,24:40,122.4,99.1,23.3,0.059,0.0,11.1,0.0,0.222,0.105,0.0,0.875,0.875,0.146,93.64,0.194,2014-01-13T00:00:00,6,1610612742,DAL,Dallas,23-16,28,31,25,23,0,0,0,0,0,0,0,0,0,0,107,0.506,0.933,0.481,21,40,12,0021300560,1610612742,DAL,Dallas,Jae Crowder,F,,24:40,2.0,0.0,2.0,4.0,4.0,4.0,8.0,14.0,1.0,0.0,2.0,1.0
0021300560,1610612742,DAL,Dallas,1717,Dirk Nowitzki,F,,28:11,99.0,112.4,-13.3,0.125,0.67,11.3,0.0,0.294,0.125,17.0,0.45,0.593,0.282,90.2,0.117,2014-01-13T00:00:00,6,1610612753,ORL,Orlando,10-28,20,21,25,22,0,0,0,0,0,0,0,0,0,0,88,0.447,0.813,0.292,18,37,15,0021300560,1610612742,DAL,Dallas,Dirk Nowitzki,F,,28:11,6.0,0.0,0.0,2.0,7.0,5.0,9.0,18.0,1.0,0.0,2.0,8.0
0021300560,1610612742,DAL,Dallas,1717,Dirk Nowitzki,F,,28:11,99.0,112.4,-13.3,0.125,0.67,11.3,0.0,0.294,0.125,17.0,0.45,0.593,0.282,90.2,0.117,2014-01-13T00:00:00,6,1610612742,DAL,Dallas,23-16,28,31,25,23,0,0,0,0,0,0,0,0,0,0,107,0.506,0.933,0.481,21,40,12,0021300560,1610612742,DAL,Dallas,Dirk Nowitzki,F,,28:11,6.0,0.0,0.0,2.0,7.0,5.0,9.0,18.0,1.0,0.0,2.0,8.0
0021300560,1610612742,DAL,Dallas,2223,Samuel Dalembert,C,,19:00,105.0,109.4,-4.5,0.0,0.0,0.0,0.077,0.417,0.24,60.0,0.5,0.5,0.128,90.75,0.0,2014-01-13T00:00:00,6,1610612753,ORL,Orlando,10-28,20,21,25,22,0,0,0,0,0,0,0,0,0,0,88,0.447,0.813,0.292,18,37,15,0021300560,1610612742,DAL,Dallas,Samuel Dalembert,C,,19:00,0.0,2.0,0.0,2.0,4.0,2.0,6.0,10.0,1.0,0.0,4.0,0.0
0021300560,1610612742,DAL,Dallas,2223,Samuel Dalembert,C,,19:00,105.0,109.4,-4.5,0.0,0.0,0.0,0.077,0.417,0.24,60.0,0.5,0.5,0.128,90.75,0.0,2014-01-13T00:00:00,6,1610612742,DAL,Dallas,23-16,28,31,25,23,0,0,0,0,0,0,0,0,0,0,107,0.506,0.933,0.481,21,40,12,0021300560,1610612742,DAL,Dallas,Samuel Dalembert,C,,19:00,0.0,2.0,0.0,2.0,4.0,2.0,6.0,10.0,1.0,0.0,4.0,0.0
0021300560,1610612742,DAL,Dallas,101145,Monta Ellis,G,,36:29,121.5,94.2,27.3,0.13,3.0,12.4,0.0,0.094,0.051,4.1,0.472,0.52,0.291,86.62,0.119,2014-01-13T00:00:00,6,1610612753,ORL,Orlando,10-28,20,21,25,22,0,0,0,0,0,0,0,0,0,0,88,0.447,0.813,0.292,18,37,15,0021300560,1610612742,DAL,Dallas,Monta Ellis,G,,36:29,2.0,0.0,7.0,10.0,6.0,9.0,10.0,16.0,0.0,0.0,1.0,4.0
0021300560,1610612742,DAL,Dallas,101145,Monta Ellis,G,,36:29,121.5,94.2,27.3,0.13,3.0,12.4,0.0,0.094,0.051,4.1,0.472,0.52,0.291,86.62,0.119,2014-01-13T00:00:00,6,1610612742,DAL,Dallas,23-16,28,31,25,23,0,0,0,0,0,0,0,0,0,0,107,0.506,0.933,0.481,21,40,12,0021300560,1610612742,DAL,Dallas,Monta Ellis,G,,36:29,2.0,0.0,7.0,10.0,6.0,9.0,10.0,16.0,0.0,0.0,1.0,4.0
0021300560,1610612742,DAL,Dallas,101181,Jose Calderon,G,,32:15,119.2,98.8,20.4,0.19,4.0,28.6,0.0,0.04,0.019,7.1,0.722,0.722,0.15,88.13,0.123,2014-01-13T00:00:00,6,1610612753,ORL,Orlando,10-28,20,21,25,22,0,0,0,0,0,0,0,0,0,0,88,0.447,0.813,0.292,18,37,15,0021300560,1610612742,DAL,Dallas,Jose Calderon,G,,32:15,3.0,6.0,0.0,0.0,4.0,4.0,8.0,14.0,0.0,0.0,1.0,0.0
0021300560,1610612742,DAL,Dallas,101181,Jose Calderon,G,,32:15,119.2,98.8,20.4,0.19,4.0,28.6,0.0,0.04,0.019,7.1,0.722,0.722,0.15,88.13,0.123,2014-01-13T00:00:00,6,1610612742,DAL,Dallas,23-16,28,31,25,23,0,0,0,0,0,0,0,0,0,0,107,0.506,0.933,0.481,21,40,12,0021300560,1610612742,DAL,Dallas,Jose Calderon,G,,32:15,3.0,6.0,0.0,0.0,4.0,4.0,8.0,14.0,0.0,0.0,1.0,0.0
0021300560,1610612742,DAL,Dallas,1713,Vince Carter,,,22:52,145.9,90.3,55.6,0.125,0.0,15.5,0.0,0.043,0.026,0.0,0.75,0.781,0.238,85.9,0.176,2014-01-13T00:00:00,6,1610612753,ORL,Orlando,10-28,20,21,25,22,0,0,0,0,0,0,0,0,0,0,88,0.447,0.813,0.292,18,37,15,0021300560,1610612742,DAL,Dallas,Vince Carter,,,22:52,2.0,3.0,0.0,4.0,5.0,8.0,7.0,12.0,0.0,0.0,1.0,3.0
0021300560,1610612742,DAL,Dallas,1713,Vince Carter,,,22:52,145.9,90.3,55.6,0.125,0.0,15.5,0.0,0.043,0.026,0.0,0.75,0.781,0.238,85.9,0.176,2014-01-13T00:00:00,6,1610612742,DAL,Dallas,23-16,28,31,25,23,0,0,0,0,0,0,0,0,0,0,107,0.506,0.933,0.481,21,40,12,0021300560,1610612742,DAL,Dallas,Vince Carter,,,22:52,2.0,3.0,0.0,4.0,5.0,8.0,7.0,12.0,0.0,0.0,1.0,3.0
0021300560,1610612742,DAL,Dallas,201148,Brandan Wright,,,22:41,129.6,92.5,37.1,0.0,0.0,0.0,0.167,0.136,0.15,16.7,0.2,0.2,0.131,86.73,0.006,2014-01-13T00:00:00,6,1610612753,ORL,Orlando,10-28,20,21,25,22,0,0,0,0,0,0,0,0,0,0,88,0.447,0.813,0.292,18,37,15,0021300560,1610612742,DAL,Dallas,Brandan Wright,,,22:41,0.0,0.0,2.0,2.0,5.0,10.0,7.0,14.0,2.0,0.0,2.0,0.0
0021300560,1610612742,DAL,Dallas,201148,Brandan Wright,,,22:41,129.6,92.5,37.1,0.0,0.0,0.0,0.167,0.136,0.15,16.7,0.2,0.2,0.131,86.73,0.006,2014-01-13T00:00:00,6,1610612742,DAL,Dallas,23-16,28,31,25,23,0,0,0,0,0,0,0,0,0,0,107,0.506,0.933,0.481,21,40,12,0021300560,1610612742,DAL,Dallas,Brandan Wright,,,22:41,0.0,0.0,2.0,2.0,5.0,10.0,7.0,14.0,2.0,0.0,2.0,0.0
0021300560,1610612742,DAL,Dallas,201971,DeJuan Blair,,,15:31,148.9,84.6,64.3,0.111,1.0,16.7,0.214,0.267,0.241,16.7,0.75,0.75,0.159,81.53,0.174,2014-01-13T00:00:00,6,1610612753,ORL,Orlando,10-28,20,21,25,22,0,0,0,0,0,0,0,0,0,0,88,0.447,0.813,0.292,18,37,15,0021300560,1610612742,DAL,Dallas,DeJuan Blair,,,15:31,2.0,2.0,0.0,6.0,2.0,5.0,2.0,4.0,0.0,0.0,1.0,1.0
0021300560,1610612742,DAL,Dallas,201971,DeJuan Blair,,,15:31,148.9,84.6,64.3,0.111,1.0,16.7,0.214,0.267,0.241,16.7,0.75,0.75,0.159,81.53,0.174,2014-01-13T00:00:00,6,1610612742,DAL,Dallas,23-16,28,31,25,23,0,0,0,0,0,0,0,0,0,0,107,0.506,0.933,0.481,21,40,12,0021300560,1610612742,DAL,Dallas,DeJuan Blair,,,15:31,2.0,2.0,0.0,6.0,2.0,5.0,2.0,4.0,0.0,0.0,1.0,1.0
0021300560,1610612742,DAL,Dallas,201961,Wayne Ellington,,,20:52,103.4,108.3,-4.8,0.111,1.0,10.0,0.053,0.313,0.171,10.0,0.75,0.75,0.221,92.33,0.174,2014-01-13T00:00:00,6,1610612753,ORL,Orlando,10-28,20,21,25,22,0,0,0,0,0,0,0,0,0,0,88,0.447,0.813,0.292,18,37,15,0021300560,1610612742,DAL,Dallas,Wayne Ellington,,,20:52,0.0,0.0,0.0,4.0,5.0,10.0,5.0,14.0,0.0,0.0,1.0,0.0
0021300560,1610612742,DAL,Dallas,201961,Wayne Ellington,,,20:52,103.4,108.3,-4.8,0.111,1.0,10.0,0.053,0.313,0.171,10.0,0.75,0.75,0.221,92.33,0.174,2014-01-13T00:00:00,6,1610612742,DAL,Dallas,23-16,28,31,25,23,0,0,0,0,0,0,0,0,0,0,107,0.506,0.933,0.481,21,40,12,0021300560,1610612742,DAL,Dallas,Wayne Ellington,,,20:52,0.0,0.0,0.0,4.0,5.0,10.0,5.0,14.0,0.0,0.0,1.0,0.0
0021300560,1610612742,DAL,Dallas,203539,Gal Mekel,,,14:31,120.1,89.4,30.7,0.538,7.0,63.6,0.1,0.0,0.048,9.1,0.0,0.0,0.136,96.77,0.044,2014-01-13T00:00:00,6,1610612753,ORL,Orlando,10-28,20,21,25,22,0,0,0,0,0,0,0,0,0,0,88,0.447,0.813,0.292,18,37,15,0021300560,1610612742,DAL,Dallas,Gal Mekel,,,14:31,0.0,0.0,0.0,0.0,3.0,3.0,3.0,10.0,0.0,1.0,1.0,0.0
0021300560,1610612742,DAL,Dallas,203539,Gal Mekel,,,14:31,120.1,89.4,30.7,0.538,7.0,63.6,0.1,0.0,0.048,9.1,0.0,0.0,0.136,96.77,0.044,2014-01-13T00:00:00,6,1610612742,DAL,Dallas,23-16,28,31,25,23,0,0,0,0,0,0,0,0,0,0,107,0.506,0.933,0.481,21,40,12,0021300560,1610612742,DAL,Dallas,Gal Mekel,,,14:31,0.0,0.0,0.0,0.0,3.0,3.0,3.0,10.0,0.0,1.0,1.0,0.0
0021300560,1610612742,DAL,Dallas,203495,Ricky Ledo,,,1:29,173.6,50.0,123.6,0.0,0.0,0.0,0.0,0.0,0.0,0.0,0.75,0.868,1.0,111.32,0.471,2014-01-13T00:00:00,6,1610612753,ORL,Orlando,10-28,20,21,25,22,0,0,0,0,0,0,0,0,0,0,88,0.447,0.813,0.292,18,37,15,0021300560,1610612742,DAL,Dallas,Ricky Ledo,,,1:29,2.0,0.0,5.0,0.0,0.0,0.0,0.0,2.0,0.0,0.0,0.0,1.0
0021300560,1610612742,DAL,Dallas,203495,Ricky Ledo,,,1:29,173.6,50.0,123.6,0.0,0.0,0.0,0.0,0.0,0.0,0.0,0.75,0.868,1.0,111.32,0.471,2014-01-13T00:00:00,6,1610612742,DAL,Dallas,23-16,28,31,25,23,0,0,0,0,0,0,0,0,0,0,107,0.506,0.933,0.481,21,40,12,0021300560,1610612742,DAL,Dallas,Ricky Ledo,,,1:29,2.0,0.0,5.0,0.0,0.0,0.0,0.0,2.0,0.0,0.0,0.0,1.0
0021300560,1610612742,DAL,Dallas,203108,Bernard James,,,1:29,173.6,50.0,123.6,0.0,0.0,0.0,0.0,0.0,0.0,0.0,0.0,0.0,0.0,111.32,0.059,2014-01-13T00:00:00,6,1610612753,ORL,Orlando,10-28,20,21,25,22,0,0,0,0,0,0,0,0,0,0,88,0.447,0.813,0.292,18,37,15,0021300560,1610612742,DAL,Dallas,Bernard James,,,1:29,0.0,0.0,0.0,0.0,0.0,0.0,0.0,2.0,1.0,0.0,0.0,0.0
0021300560,1610612742,DAL,Dallas,203108,Bernard James,,,1:29,173.6,50.0,123.6,0.0,0.0,0.0,0.0,0.0,0.0,0.0,0.0,0.0,0.0,111.32,0.059,2014-01-13T00:00:00,6,1610612742,DAL,Dallas,23-16,28,31,25,23,0,0,0,0,0,0,0,0,0,0,107,0.506,0.933,0.481,21,40,12,0021300560,1610612742,DAL,Dallas,Bernard James,,,1:29,0.0,0.0,0.0,0.0,0.0,0.0,0.0,2.0,1.0,0.0,0.0,0.0
0021300560,1610612742,DAL,Dallas,1890,Shawn Marion,,DND - Right Shoulder Contusion,,,,,,,0.0,,,,,,,0.0,,,2014-01-13T00:00:00,6,1610612753,ORL,Orlando,10-28,20,21,25,22,0,0,0,0,0,0,0,0,0,0,88,0.447,0.813,0.292,18,37,15,0021300560,1610612742,DAL,Dallas,Shawn Marion,,DND - Right Shoulder Contusion,,,,,,,,,,,,,
0021300560,1610612742,DAL,Dallas,1890,Shawn Marion,,DND - Right Shoulder Contusion,,,,,,,0.0,,,,,,,0.0,,,2014-01-13T00:00:00,6,1610612742,DAL,Dallas,23-16,28,31,25,23,0,0,0,0,0,0,0,0,0,0,107,0.506,0.933,0.481,21,40,12,0021300560,1610612742,DAL,Dallas,Shawn Marion,,DND - Right Shoulder Contusion,,,,,,,,,,,,,
