GAME_ID_x,TEAM_ID_x,TEAM_ABBREVIATION_x,TEAM_CITY_x,PLAYER_ID,PLAYER_NAME_x,START_POSITION_x,COMMENT_x,MIN_x,OFF_RATING,DEF_RATING,NET_RATING,AST_PCT,AST_TOV,AST_RATIO,OREB_PCT,DREB_PCT,REB_PCT,TM_TOV_PCT,EFG_PCT,TS_PCT,USG_PCT,PACE,PIE,GAME_DATE_EST,GAME_SEQUENCE,TEAM_ID_y,TEAM_ABBREVIATION_y,TEAM_CITY_NAME,TEAM_WINS_LOSSES,PTS_QTR1,PTS_QTR2,PTS_QTR3,PTS_QTR4,PTS_OT1,PTS_OT2,PTS_OT3,PTS_OT4,PTS_OT5,PTS_OT6,PTS_OT7,PTS_OT8,PTS_OT9,PTS_OT10,PTS,FG_PCT,FT_PCT,FG3_PCT,AST,REB,TOV,GAME_ID_y,TEAM_ID,TEAM_ABBREVIATION,TEAM_CITY_y,PLAYER_NAME_y,START_POSITION_y,COMMENT_y,MIN_y,PTS_OFF_TOV,PTS_2ND_CHANCE,PTS_FB,PTS_PAINT,OPP_PTS_OFF_TOV,OPP_PTS_2ND_CHANCE,OPP_PTS_FB,OPP_PTS_PAINT,BLK,BLKA,PF,PFD
0041300312,1610612760,OKC,Oklahoma City,201142,Kevin Durant,F,,28:31,78.7,126.3,-47.5,0.133,1.0,9.0,0.0,0.158,0.056,9.0,0.375,0.412,0.285,100.62,0.05,2014-05-21T00:00:00,1,1610612760,OKC,Oklahoma City,0-2,26,18,18,15,0,0,0,0,0,0,0,0,0,0,77,0.393,0.5,0.1,18,38,14,0041300312,1610612760,OKC,Oklahoma City,Kevin Durant,F,,28:31,2.0,0.0,0.0,4.0,14.0,3.0,8.0,34.0,0.0,1.0,2.0,7.0
0041300312,1610612760,OKC,Oklahoma City,201142,Kevin Durant,F,,28:31,78.7,126.3,-47.5,0.133,1.0,9.0,0.0,0.158,0.056,9.0,0.375,0.412,0.285,100.62,0.05,2014-05-21T00:00:00,1,1610612759,SAS,San Antonio,2-0,24,34,33,21,0,0,0,0,0,0,0,0,0,0,112,0.5,0.913,0.391,27,53,12,0041300312,1610612760,OKC,Oklahoma City,Kevin Durant,F,,28:31,2.0,0.0,0.0,4.0,14.0,3.0,8.0,34.0,0.0,1.0,2.0,7.0
0041300312,1610612760,OKC,Oklahoma City,2555,Nick Collison,F,,12:58,63.2,114.0,-50.7,0.0,0.0,0.0,0.0,0.154,0.067,0.0,0.5,0.5,0.069,101.73,0.026,2014-05-21T00:00:00,1,1610612760,OKC,Oklahoma City,0-2,26,18,18,15,0,0,0,0,0,0,0,0,0,0,77,0.393,0.5,0.1,18,38,14,0041300312,1610612760,OKC,Oklahoma City,Nick Collison,F,,12:58,0.0,2.0,0.0,0.0,4.0,2.0,4.0,20.0,0.0,1.0,2.0,0.0
0041300312,1610612760,OKC,Oklahoma City,2555,Nick Collison,F,,12:58,63.2,114.0,-50.7,0.0,0.0,0.0,0.0,0.154,0.067,0.0,0.5,0.5,0.069,101.73,0.026,2014-05-21T00:00:00,1,1610612759,SAS,San Antonio,2-0,24,34,33,21,0,0,0,0,0,0,0,0,0,0,112,0.5,0.913,0.391,27,53,12,0041300312,1610612760,OKC,Oklahoma City,Nick Collison,F,,12:58,0.0,2.0,0.0,0.0,4.0,2.0,4.0,20.0,0.0,1.0,2.0,0.0
0041300312,1610612760,OKC,Oklahoma City,2570,Kendrick Perkins,C,,14:33,63.3,114.5,-51.2,0.0,0.0,0.0,0.048,0.375,0.138,0.0,0.5,0.5,0.052,109.53,0.02,2014-05-21T00:00:00,1,1610612760,OKC,Oklahoma City,0-2,26,18,18,15,0,0,0,0,0,0,0,0,0,0,77,0.393,0.5,0.1,18,38,14,0041300312,1610612760,OKC,Oklahoma City,Kendrick Perkins,C,,14:33,0.0,0.0,0.0,2.0,4.0,0.0,2.0,22.0,1.0,0.0,4.0,1.0
0041300312,1610612760,OKC,Oklahoma City,2570,Kendrick Perkins,C,,14:33,63.3,114.5,-51.2,0.0,0.0,0.0,0.048,0.375,0.138,0.0,0.5,0.5,0.052,109.53,0.02,2014-05-21T00:00:00,1,1610612759,SAS,San Antonio,2-0,24,34,33,21,0,0,0,0,0,0,0,0,0,0,112,0.5,0.913,0.391,27,53,12,0041300312,1610612760,OKC,Oklahoma City,Kendrick Perkins,C,,14:33,0.0,0.0,0.0,2.0,4.0,0.0,2.0,22.0,1.0,0.0,4.0,1.0
0041300312,1610612760,OKC,Oklahoma City,200757,Thabo Sefolosha,G,,10:19,65.6,111.4,-45.8,0.0,0.0,0.0,0.067,0.0,0.048,16.7,0.0,0.0,0.232,105.43,-0.123,2014-05-21T00:00:00,1,1610612760,OKC,Oklahoma City,0-2,26,18,18,15,0,0,0,0,0,0,0,0,0,0,77,0.393,0.5,0.1,18,38,14,0041300312,1610612760,OKC,Oklahoma City,Thabo Sefolosha,G,,10:19,0.0,0.0,0.0,0.0,2.0,0.0,2.0,16.0,0.0,1.0,0.0,0.0
0041300312,1610612760,OKC,Oklahoma City,200757,Thabo Sefolosha,G,,10:19,65.6,111.4,-45.8,0.0,0.0,0.0,0.067,0.0,0.048,16.7,0.0,0.0,0.232,105.43,-0.123,2014-05-21T00:00:00,1,1610612759,SAS,San Antonio,2-0,24,34,33,21,0,0,0,0,0,0,0,0,0,0,112,0.5,0.913,0.391,27,53,12,0041300312,1610612760,OKC,Oklahoma City,Thabo Sefolosha,G,,10:19,0.0,0.0,0.0,0.0,2.0,0.0,2.0,16.0,0.0,1.0,0.0,0.0
0041300312,1610612760,OKC,Oklahoma City,201566,Russell Westbrook,G,,29:05,76.9,130.4,-53.4,0.357,1.67,15.6,0.086,0.095,0.089,9.4,0.313,0.313,0.385,100.41,0.033,2014-05-21T00:00:00,1,1610612760,OKC,Oklahoma City,0-2,26,18,18,15,0,0,0,0,0,0,0,0,0,0,77,0.393,0.5,0.1,18,38,14,0041300312,1610612760,OKC,Oklahoma City,Russell Westbrook,G,,29:05,2.0,0.0,2.0,8.0,14.0,5.0,6.0,38.0,0.0,1.0,2.0,2.0
0041300312,1610612760,OKC,Oklahoma City,201566,Russell Westbrook,G,,29:05,76.9,130.4,-53.4,0.357,1.67,15.6,0.086,0.095,0.089,9.4,0.313,0.313,0.385,100.41,0.033,2014-05-21T00:00:00,1,1610612759,SAS,San Antonio,2-0,24,34,33,21,0,0,0,0,0,0,0,0,0,0,112,0.5,0.913,0.391,27,53,12,0041300312,1610612760,OKC,Oklahoma City,Russell Westbrook,G,,29:05,2.0,0.0,2.0,8.0,14.0,5.0,6.0,38.0,0.0,1.0,2.0,2.0
0041300312,1610612760,OKC,Oklahoma City,203500,Steven Adams,,,33:06,87.0,126.8,-39.8,0.048,0.5,10.2,0.147,0.125,0.138,20.5,0.8,0.666,0.121,89.59,0.066,2014-05-21T00:00:00,1,1610612760,OKC,Oklahoma City,0-2,26,18,18,15,0,0,0,0,0,0,0,0,0,0,77,0.393,0.5,0.1,18,38,14,0041300312,1610612760,OKC,Oklahoma City,Steven Adams,,,33:06,0.0,5.0,2.0,6.0,17.0,5.0,9.0,34.0,1.0,0.0,2.0,3.0
0041300312,1610612760,OKC,Oklahoma City,203500,Steven Adams,,,33:06,87.0,126.8,-39.8,0.048,0.5,10.2,0.147,0.125,0.138,20.5,0.8,0.666,0.121,89.59,0.066,2014-05-21T00:00:00,1,1610612759,SAS,San Antonio,2-0,24,34,33,21,0,0,0,0,0,0,0,0,0,0,112,0.5,0.913,0.391,27,53,12,0041300312,1610612760,OKC,Oklahoma City,Steven Adams,,,33:06,0.0,5.0,2.0,6.0,17.0,5.0,9.0,34.0,1.0,0.0,2.0,3.0
0041300312,1610612760,OKC,Oklahoma City,202704,Reggie Jackson,,,26:14,92.1,121.9,-29.8,0.211,2.0,30.8,0.0,0.158,0.067,15.4,0.571,0.571,0.147,94.45,0.094,2014-05-21T00:00:00,1,1610612760,OKC,Oklahoma City,0-2,26,18,18,15,0,0,0,0,0,0,0,0,0,0,77,0.393,0.5,0.1,18,38,14,0041300312,1610612760,OKC,Oklahoma City,Reggie Jackson,,,26:14,2.0,0.0,4.0,6.0,15.0,3.0,7.0,22.0,0.0,1.0,1.0,0.0
0041300312,1610612760,OKC,Oklahoma City,202704,Reggie Jackson,,,26:14,92.1,121.9,-29.8,0.211,2.0,30.8,0.0,0.158,0.067,15.4,0.571,0.571,0.147,94.45,0.094,2014-05-21T00:00:00,1,1610612759,SAS,San Antonio,2-0,24,34,33,21,0,0,0,0,0,0,0,0,0,0,112,0.5,0.913,0.391,27,53,12,0041300312,1610612760,OKC,Oklahoma City,Reggie Jackson,,,26:14,2.0,0.0,4.0,6.0,15.0,3.0,7.0,22.0,0.0,1.0,1.0,0.0
0041300312,1610612760,OKC,Oklahoma City,2406,Caron Butler,,,19:01,95.2,113.4,-18.2,0.071,0.33,8.3,0.048,0.176,0.105,25.0,0.563,0.563,0.245,96.93,0.098,2014-05-21T00:00:00,1,1610612760,OKC,Oklahoma City,0-2,26,18,18,15,0,0,0,0,0,0,0,0,0,0,77,0.393,0.5,0.1,18,38,14,0041300312,1610612760,OKC,Oklahoma City,Caron Butler,,,19:01,0.0,4.0,0.0,4.0,7.0,2.0,7.0,16.0,0.0,0.0,0.0,0.0
0041300312,1610612760,OKC,Oklahoma City,2406,Caron Butler,,,19:01,95.2,113.4,-18.2,0.071,0.33,8.3,0.048,0.176,0.105,25.0,0.563,0.563,0.245,96.93,0.098,2014-05-21T00:00:00,1,1610612759,SAS,San Antonio,2-0,24,34,33,21,0,0,0,0,0,0,0,0,0,0,112,0.5,0.913,0.391,27,53,12,0041300312,1610612760,OKC,Oklahoma City,Caron Butler,,,19:01,0.0,4.0,0.0,4.0,7.0,2.0,7.0,16.0,0.0,0.0,0.0,0.0
0041300312,1610612760,OKC,Oklahoma City,965,Derek Fisher,,,21:50,87.1,104.4,-17.3,0.25,0.0,44.4,0.0,0.043,0.023,0.0,0.2,0.2,0.115,88.6,-0.013,2014-05-21T00:00:00,1,1610612760,OKC,Oklahoma City,0-2,26,18,18,15,0,0,0,0,0,0,0,0,0,0,77,0.393,0.5,0.1,18,38,14,0041300312,1610612760,OKC,Oklahoma City,Derek Fisher,,,21:50,0.0,0.0,0.0,0.0,7.0,4.0,5.0,20.0,0.0,0.0,4.0,1.0
0041300312,1610612760,OKC,Oklahoma City,965,Derek Fisher,,,21:50,87.1,104.4,-17.3,0.25,0.0,44.4,0.0,0.043,0.023,0.0,0.2,0.2,0.115,88.6,-0.013,2014-05-21T00:00:00,1,1610612759,SAS,San Antonio,2-0,24,34,33,21,0,0,0,0,0,0,0,0,0,0,112,0.5,0.913,0.391,27,53,12,0041300312,1610612760,OKC,Oklahoma City,Derek Fisher,,,21:50,0.0,0.0,0.0,0.0,7.0,4.0,5.0,20.0,0.0,0.0,4.0,1.0
0041300312,1610612760,OKC,Oklahoma City,203103,Perry Jones III,,,24:00,72.8,126.7,-53.9,0.0,0.0,0.0,0.0,0.167,0.089,0.0,0.25,0.25,0.086,88.72,0.006,2014-05-21T00:00:00,1,1610612760,OKC,Oklahoma City,0-2,26,18,18,15,0,0,0,0,0,0,0,0,0,0,77,0.393,0.5,0.1,18,38,14,0041300312,1610612760,OKC,Oklahoma City,Perry Jones III,,,24:00,0.0,0.0,0.0,0.0,15.0,7.0,5.0,24.0,1.0,1.0,3.0,0.0
0041300312,1610612760,OKC,Oklahoma City,203103,Perry Jones III,,,24:00,72.8,126.7,-53.9,0.0,0.0,0.0,0.0,0.167,0.089,0.0,0.25,0.25,0.086,88.72,0.006,2014-05-21T00:00:00,1,1610612759,SAS,San Antonio,2-0,24,34,33,21,0,0,0,0,0,0,0,0,0,0,112,0.5,0.913,0.391,27,53,12,0041300312,1610612760,OKC,Oklahoma City,Perry Jones III,,,24:00,0.0,0.0,0.0,0.0,15.0,7.0,5.0,24.0,1.0,1.0,3.0,0.0
0041300312,1610612760,OKC,Oklahoma City,203087,Jeremy Lamb,,,13:47,81.1,109.3,-28.2,0.333,1.0,9.6,0.0,0.1,0.043,9.6,0.75,0.77,0.386,80.65,0.263,2014-05-21T00:00:00,1,1610612760,OKC,Oklahoma City,0-2,26,18,18,15,0,0,0,0,0,0,0,0,0,0,77,0.393,0.5,0.1,18,38,14,0041300312,1610612760,OKC,Oklahoma City,Jeremy Lamb,,,13:47,2.0,0.0,5.0,12.0,4.0,2.0,0.0,16.0,0.0,0.0,1.0,1.0
0041300312,1610612760,OKC,Oklahoma City,203087,Jeremy Lamb,,,13:47,81.1,109.3,-28.2,0.333,1.0,9.6,0.0,0.1,0.043,9.6,0.75,0.77,0.386,80.65,0.263,2014-05-21T00:00:00,1,1610612759,SAS,San Antonio,2-0,24,34,33,21,0,0,0,0,0,0,0,0,0,0,112,0.5,0.913,0.391,27,53,12,0041300312,1610612760,OKC,Oklahoma City,Jeremy Lamb,,,13:47,2.0,0.0,5.0,12.0,4.0,2.0,0.0,16.0,0.0,0.0,1.0,1.0
0041300312,1610612760,OKC,Oklahoma City,203460,Andre Roberson,,,6:36,67.0,120.0,-53.0,0.0,0.0,0.0,0.0,0.333,0.167,0.0,0.0,0.0,0.287,74.33,-0.043,2014-05-21T00:00:00,1,1610612760,OKC,Oklahoma City,0-2,26,18,18,15,0,0,0,0,0,0,0,0,0,0,77,0.393,0.5,0.1,18,38,14,0041300312,1610612760,OKC,Oklahoma City,Andre Roberson,,,6:36,0.0,0.0,0.0,0.0,2.0,2.0,0.0,8.0,0.0,1.0,0.0,0.0
0041300312,1610612760,OKC,Oklahoma City,203460,Andre Roberson,,,6:36,67.0,120.0,-53.0,0.0,0.0,0.0,0.0,0.333,0.167,0.0,0.0,0.0,0.287,74.33,-0.043,2014-05-21T00:00:00,1,1610612759,SAS,San Antonio,2-0,24,34,33,21,0,0,0,0,0,0,0,0,0,0,112,0.5,0.913,0.391,27,53,12,0041300312,1610612760,OKC,Oklahoma City,Andre Roberson,,,6:36,0.0,0.0,0.0,0.0,2.0,2.0,0.0,8.0,0.0,1.0,0.0,0.0
0041300312,1610612760,OKC,Oklahoma City,201934,Hasheem Thabeet,,DNP - Coach's Decision,,,,,,,0.0,,,,,,,0.0,,,2014-05-21T00:00:00,1,1610612760,OKC,Oklahoma City,0-2,26,18,18,15,0,0,0,0,0,0,0,0,0,0,77,0.393,0.5,0.1,18,38,14,0041300312,1610612760,OKC,Oklahoma City,Hasheem Thabeet,,DNP - Coach's Decision,,,,,,,,,,,,,
0041300312,1610612760,OKC,Oklahoma City,201934,Hasheem Thabeet,,DNP - Coach's Decision,,,,,,,0.0,,,,,,,0.0,,,2014-05-21T00:00:00,1,1610612759,SAS,San Antonio,2-0,24,34,33,21,0,0,0,0,0,0,0,0,0,0,112,0.5,0.913,0.391,27,53,12,0041300312,1610612760,OKC,Oklahoma City,Hasheem Thabeet,,DNP - Coach's Decision,,,,,,,,,,,,,
0041300312,1610612759,SAS,San Antonio,202695,Kawhi Leonard,F,,15:45,130.9,59.6,71.3,0.267,4.0,44.4,0.0,0.045,0.033,11.1,0.5,0.5,0.147,97.45,0.09,2014-05-21T00:00:00,1,1610612760,OKC,Oklahoma City,0-2,26,18,18,15,0,0,0,0,0,0,0,0,0,0,77,0.393,0.5,0.1,18,38,14,0041300312,1610612759,SAS,San Antonio,Kawhi Leonard,F,,15:45,0.0,0.0,2.0,4.0,2.0,0.0,0.0,6.0,1.0,0.0,3.0,0.0
0041300312,1610612759,SAS,San Antonio,202695,Kawhi Leonard,F,,15:45,130.9,59.6,71.3,0.267,4.0,44.4,0.0,0.045,0.033,11.1,0.5,0.5,0.147,97.45,0.09,2014-05-21T00:00:00,1,1610612759,SAS,San Antonio,2-0,24,34,33,21,0,0,0,0,0,0,0,0,0,0,112,0.5,0.913,0.391,27,53,12,0041300312,1610612759,SAS,San Antonio,Kawhi Leonard,F,,15:45,0.0,0.0,2.0,4.0,2.0,0.0,0.0,6.0,1.0,0.0,3.0,0.0
0041300312,1610612759,SAS,San Antonio,1495,Tim Duncan,F,,28:51,129.2,78.2,51.0,0.043,0.5,6.0,0.19,0.235,0.218,11.9,0.417,0.509,0.233,99.56,0.147,2014-05-21T00:00:00,1,1610612760,OKC,Oklahoma City,0-2,26,18,18,15,0,0,0,0,0,0,0,0,0,0,77,0.393,0.5,0.1,18,38,14,0041300312,1610612759,SAS,San Antonio,Tim Duncan,F,,28:51,2.0,2.0,0.0,8.0,6.0,9.0,8.0,22.0,2.0,0.0,2.0,4.0
0041300312,1610612759,SAS,San Antonio,1495,Tim Duncan,F,,28:51,129.2,78.2,51.0,0.043,0.5,6.0,0.19,0.235,0.218,11.9,0.417,0.509,0.233,99.56,0.147,2014-05-21T00:00:00,1,1610612759,SAS,San Antonio,2-0,24,34,33,21,0,0,0,0,0,0,0,0,0,0,112,0.5,0.913,0.391,27,53,12,0041300312,1610612759,SAS,San Antonio,Tim Duncan,F,,28:51,2.0,2.0,0.0,8.0,6.0,9.0,8.0,22.0,2.0,0.0,2.0,4.0
0041300312,1610612759,SAS,San Antonio,201168,Tiago Splitter,C,,23:35,110.7,72.0,38.6,0.235,4.0,35.7,0.05,0.29,0.196,8.9,0.5,0.726,0.127,105.19,0.264,2014-05-21T00:00:00,1,1610612760,OKC,Oklahoma City,0-2,26,18,18,15,0,0,0,0,0,0,0,0,0,0,77,0.393,0.5,0.1,18,38,14,0041300312,1610612759,SAS,San Antonio,Tiago Splitter,C,,23:35,0.0,0.0,0.0,4.0,2.0,4.0,2.0,12.0,3.0,1.0,0.0,5.0
0041300312,1610612759,SAS,San Antonio,201168,Tiago Splitter,C,,23:35,110.7,72.0,38.6,0.235,4.0,35.7,0.05,0.29,0.196,8.9,0.5,0.726,0.127,105.19,0.264,2014-05-21T00:00:00,1,1610612759,SAS,San Antonio,2-0,24,34,33,21,0,0,0,0,0,0,0,0,0,0,112,0.5,0.913,0.391,27,53,12,0041300312,1610612759,SAS,San Antonio,Tiago Splitter,C,,23:35,0.0,0.0,0.0,4.0,2.0,4.0,2.0,12.0,3.0,1.0,0.0,5.0
0041300312,1610612759,SAS,San Antonio,201980,Danny Green,G,,28:25,123.2,76.4,46.7,0.056,0.0,8.3,0.045,0.069,0.059,0.0,0.955,0.955,0.17,97.74,0.216,2014-05-21T00:00:00,1,1610612760,OKC,Oklahoma City,0-2,26,18,18,15,0,0,0,0,0,0,0,0,0,0,77,0.393,0.5,0.1,18,38,14,0041300312,1610612759,SAS,San Antonio,Danny Green,G,,28:25,6.0,0.0,3.0,0.0,4.0,6.0,2.0,20.0,0.0,1.0,1.0,1.0
0041300312,1610612759,SAS,San Antonio,201980,Danny Green,G,,28:25,123.2,76.4,46.7,0.056,0.0,8.3,0.045,0.069,0.059,0.0,0.955,0.955,0.17,97.74,0.216,2014-05-21T00:00:00,1,1610612759,SAS,San Antonio,2-0,24,34,33,21,0,0,0,0,0,0,0,0,0,0,112,0.5,0.913,0.391,27,53,12,0041300312,1610612759,SAS,San Antonio,Danny Green,G,,28:25,6.0,0.0,3.0,0.0,4.0,6.0,2.0,20.0,0.0,1.0,1.0,1.0
0041300312,1610612759,SAS,San Antonio,2225,Tony Parker,G,,28:22,131.4,79.6,51.8,0.278,1.25,18.6,0.0,0.059,0.037,14.9,0.588,0.615,0.329,99.59,0.183,2014-05-21T00:00:00,1,1610612760,OKC,Oklahoma City,0-2,26,18,18,15,0,0,0,0,0,0,0,0,0,0,77,0.393,0.5,0.1,18,38,14,0041300312,1610612759,SAS,San Antonio,Tony Parker,G,,28:22,4.0,0.0,2.0,16.0,6.0,9.0,8.0,22.0,0.0,0.0,1.0,2.0
0041300312,1610612759,SAS,San Antonio,2225,Tony Parker,G,,28:22,131.4,79.6,51.8,0.278,1.25,18.6,0.0,0.059,0.037,14.9,0.588,0.615,0.329,99.59,0.183,2014-05-21T00:00:00,1,1610612759,SAS,San Antonio,2-0,24,34,33,21,0,0,0,0,0,0,0,0,0,0,112,0.5,0.913,0.391,27,53,12,0041300312,1610612759,SAS,San Antonio,Tony Parker,G,,28:22,4.0,0.0,2.0,16.0,6.0,9.0,8.0,22.0,0.0,0.0,1.0,2.0
0041300312,1610612759,SAS,San Antonio,201158,Marco Belinelli,,,19:23,92.8,93.5,-0.7,0.182,0.5,12.6,0.059,0.3,0.189,25.2,0.333,0.405,0.35,93.04,0.068,2014-05-21T00:00:00,1,1610612760,OKC,Oklahoma City,0-2,26,18,18,15,0,0,0,0,0,0,0,0,0,0,77,0.393,0.5,0.1,18,38,14,0041300312,1610612759,SAS,San Antonio,Marco Belinelli,,,19:23,2.0,0.0,2.0,4.0,4.0,5.0,11.0,24.0,0.0,0.0,2.0,1.0
0041300312,1610612759,SAS,San Antonio,201158,Marco Belinelli,,,19:23,92.8,93.5,-0.7,0.182,0.5,12.6,0.059,0.3,0.189,25.2,0.333,0.405,0.35,93.04,0.068,2014-05-21T00:00:00,1,1610612759,SAS,San Antonio,2-0,24,34,33,21,0,0,0,0,0,0,0,0,0,0,112,0.5,0.913,0.391,27,53,12,0041300312,1610612759,SAS,San Antonio,Marco Belinelli,,,19:23,2.0,0.0,2.0,4.0,4.0,5.0,11.0,24.0,0.0,0.0,2.0,1.0
0041300312,1610612759,SAS,San Antonio,1938,Manu Ginobili,,,20:56,135.3,90.5,44.7,0.286,0.0,37.6,0.063,0.087,0.077,0.0,0.625,0.828,0.158,95.15,0.168,2014-05-21T00:00:00,1,1610612760,OKC,Oklahoma City,0-2,26,18,18,15,0,0,0,0,0,0,0,0,0,0,77,0.393,0.5,0.1,18,38,14,0041300312,1610612759,SAS,San Antonio,Manu Ginobili,,,20:56,5.0,3.0,2.0,2.0,4.0,9.0,6.0,26.0,0.0,0.0,4.0,5.0
0041300312,1610612759,SAS,San Antonio,1938,Manu Ginobili,,,20:56,135.3,90.5,44.7,0.286,0.0,37.6,0.063,0.087,0.077,0.0,0.625,0.828,0.158,95.15,0.168,2014-05-21T00:00:00,1,1610612759,SAS,San Antonio,2-0,24,34,33,21,0,0,0,0,0,0,0,0,0,0,112,0.5,0.913,0.391,27,53,12,0041300312,1610612759,SAS,San Antonio,Manu Ginobili,,,20:56,5.0,3.0,2.0,2.0,4.0,9.0,6.0,26.0,0.0,0.0,4.0,5.0
0041300312,1610612759,SAS,San Antonio,2564,Boris Diaw,,,24:29,128.8,97.8,31.0,0.067,0.0,11.4,0.056,0.083,0.071,0.0,0.75,0.709,0.162,91.31,0.103,2014-05-21T00:00:00,1,1610612760,OKC,Oklahoma City,0-2,26,18,18,15,0,0,0,0,0,0,0,0,0,0,77,0.393,0.5,0.1,18,38,14,0041300312,1610612759,SAS,San Antonio,Boris Diaw,,,24:29,2.0,0.0,0.0,6.0,6.0,9.0,8.0,32.0,0.0,0.0,1.0,2.0
0041300312,1610612759,SAS,San Antonio,2564,Boris Diaw,,,24:29,128.8,97.8,31.0,0.067,0.0,11.4,0.056,0.083,0.071,0.0,0.75,0.709,0.162,91.31,0.103,2014-05-21T00:00:00,1,1610612759,SAS,San Antonio,2-0,24,34,33,21,0,0,0,0,0,0,0,0,0,0,112,0.5,0.913,0.391,27,53,12,0041300312,1610612759,SAS,San Antonio,Boris Diaw,,,24:29,2.0,0.0,0.0,6.0,6.0,9.0,8.0,32.0,0.0,0.0,1.0,2.0
0041300312,1610612759,SAS,San Antonio,201988,Patty Mills,,,15:57,99.1,88.2,10.9,0.333,0.0,37.5,0.0,0.313,0.147,0.0,0.0,0.0,0.138,96.5,0.057,2014-05-21T00:00:00,1,1610612760,OKC,Oklahoma City,0-2,26,18,18,15,0,0,0,0,0,0,0,0,0,0,77,0.393,0.5,0.1,18,38,14,0041300312,1610612759,SAS,San Antonio,Patty Mills,,,15:57,0.0,0.0,0.0,0.0,2.0,4.0,4.0,14.0,0.0,1.0,0.0,0.0
0041300312,1610612759,SAS,San Antonio,201988,Patty Mills,,,15:57,99.1,88.2,10.9,0.333,0.0,37.5,0.0,0.313,0.147,0.0,0.0,0.0,0.138,96.5,0.057,2014-05-21T00:00:00,1,1610612759,SAS,San Antonio,2-0,24,34,33,21,0,0,0,0,0,0,0,0,0,0,112,0.5,0.913,0.391,27,53,12,0041300312,1610612759,SAS,San Antonio,Patty Mills,,,15:57,0.0,0.0,0.0,0.0,2.0,4.0,4.0,14.0,0.0,1.0,0.0,0.0
0041300312,1610612759,SAS,San Antonio,203382,Aron Baynes,,,12:00,105.0,73.4,31.6,0.0,0.0,0.0,0.0,0.182,0.095,0.0,0.5,0.5,0.174,80.88,0.116,2014-05-21T00:00:00,1,1610612760,OKC,Oklahoma City,0-2,26,18,18,15,0,0,0,0,0,0,0,0,0,0,77,0.393,0.5,0.1,18,38,14,0041300312,1610612759,SAS,San Antonio,Aron Baynes,,,12:00,0.0,0.0,0.0,4.0,2.0,0.0,5.0,12.0,0.0,0.0,0.0,1.0
0041300312,1610612759,SAS,San Antonio,203382,Aron Baynes,,,12:00,105.0,73.4,31.6,0.0,0.0,0.0,0.0,0.182,0.095,0.0,0.5,0.5,0.174,80.88,0.116,2014-05-21T00:00:00,1,1610612759,SAS,San Antonio,2-0,24,34,33,21,0,0,0,0,0,0,0,0,0,0,112,0.5,0.913,0.391,27,53,12,0041300312,1610612759,SAS,San Antonio,Aron Baynes,,,12:00,0.0,0.0,0.0,4.0,2.0,0.0,5.0,12.0,0.0,0.0,0.0,1.0
0041300312,1610612759,SAS,San Antonio,202709,Cory Joseph,,,9:05,106.7,58.3,48.4,0.0,0.0,0.0,0.0,0.0,0.0,0.0,0.75,0.75,0.222,80.43,0.133,2014-05-21T00:00:00,1,1610612760,OKC,Oklahoma City,0-2,26,18,18,15,0,0,0,0,0,0,0,0,0,0,77,0.393,0.5,0.1,18,38,14,0041300312,1610612759,SAS,San Antonio,Cory Joseph,,,9:05,0.0,2.0,0.0,4.0,2.0,0.0,5.0,8.0,0.0,0.0,1.0,0.0
0041300312,1610612759,SAS,San Antonio,202709,Cory Joseph,,,9:05,106.7,58.3,48.4,0.0,0.0,0.0,0.0,0.0,0.0,0.0,0.75,0.75,0.222,80.43,0.133,2014-05-21T00:00:00,1,1610612759,SAS,San Antonio,2-0,24,34,33,21,0,0,0,0,0,0,0,0,0,0,112,0.5,0.913,0.391,27,53,12,0041300312,1610612759,SAS,San Antonio,Cory Joseph,,,9:05,0.0,2.0,0.0,4.0,2.0,0.0,5.0,8.0,0.0,0.0,1.0,0.0
0041300312,1610612759,SAS,San Antonio,201965,Jeff Ayres,,,6:36,120.0,67.0,53.0,0.0,0.0,0.0,0.167,0.167,0.167,0.0,1.0,1.0,0.083,74.33,0.149,2014-05-21T00:00:00,1,1610612760,OKC,Oklahoma City,0-2,26,18,18,15,0,0,0,0,0,0,0,0,0,0,77,0.393,0.5,0.1,18,38,14,0041300312,1610612759,SAS,San Antonio,Jeff Ayres,,,6:36,0.0,0.0,0.0,2.0,0.0,0.0,3.0,6.0,0.0,0.0,0.0,0.0
0041300312,1610612759,SAS,San Antonio,201965,Jeff Ayres,,,6:36,120.0,67.0,53.0,0.0,0.0,0.0,0.167,0.167,0.167,0.0,1.0,1.0,0.083,74.33,0.149,2014-05-21T00:00:00,1,1610612759,SAS,San Antonio,2-0,24,34,33,21,0,0,0,0,0,0,0,0,0,0,112,0.5,0.913,0.391,27,53,12,0041300312,1610612759,SAS,San Antonio,Jeff Ayres,,,6:36,0.0,0.0,0.0,2.0,0.0,0.0,3.0,6.0,0.0,0.0,0.0,0.0
0041300312,1610612759,SAS,San Antonio,2588,Matt Bonner,,,6:36,120.0,67.0,53.0,0.333,0.0,66.7,0.167,0.333,0.25,0.0,0.0,0.0,0.083,74.33,0.17,2014-05-21T00:00:00,1,1610612760,OKC,Oklahoma City,0-2,26,18,18,15,0,0,0,0,0,0,0,0,0,0,77,0.393,0.5,0.1,18,38,14,0041300312,1610612759,SAS,San Antonio,Matt Bonner,,,6:36,0.0,0.0,0.0,0.0,0.0,0.0,3.0,6.0,1.0,0.0,0.0,0.0
0041300312,1610612759,SAS,San Antonio,2588,Matt Bonner,,,6:36,120.0,67.0,53.0,0.333,0.0,66.7,0.167,0.333,0.25,0.0,0.0,0.0,0.083,74.33,0.17,2014-05-21T00:00:00,1,1610612759,SAS,San Antonio,2-0,24,34,33,21,0,0,0,0,0,0,0,0,0,0,112,0.5,0.913,0.391,27,53,12,0041300312,1610612759,SAS,San Antonio,Matt Bonner,,,6:36,0.0,0.0,0.0,0.0,0.0,0.0,3.0,6.0,1.0,0.0,0.0,0.0
