GAME_ID_x,TEAM_ID_x,TEAM_ABBREVIATION_x,TEAM_CITY_x,PLAYER_ID,PLAYER_NAME_x,START_POSITION_x,COMMENT_x,MIN_x,OFF_RATING,DEF_RATING,NET_RATING,AST_PCT,AST_TOV,AST_RATIO,OREB_PCT,DREB_PCT,REB_PCT,TM_TOV_PCT,EFG_PCT,TS_PCT,USG_PCT,PACE,PIE,GAME_DATE_EST,GAME_SEQUENCE,TEAM_ID_y,TEAM_ABBREVIATION_y,TEAM_CITY_NAME,TEAM_WINS_LOSSES,PTS_QTR1,PTS_QTR2,PTS_QTR3,PTS_QTR4,PTS_OT1,PTS_OT2,PTS_OT3,PTS_OT4,PTS_OT5,PTS_OT6,PTS_OT7,PTS_OT8,PTS_OT9,PTS_OT10,PTS,FG_PCT,FT_PCT,FG3_PCT,AST,REB,TOV,GAME_ID_y,TEAM_ID,TEAM_ABBREVIATION,TEAM_CITY_y,PLAYER_NAME_y,START_POSITION_y,COMMENT_y,MIN_y,PTS_OFF_TOV,PTS_2ND_CHANCE,PTS_FB,PTS_PAINT,OPP_PTS_OFF_TOV,OPP_PTS_2ND_CHANCE,OPP_PTS_FB,OPP_PTS_PAINT,BLK,BLKA,PF,PFD
0021300578,1610612752,NYK,New York,2546,Carmelo Anthony,F,,31:22,103.2,131.1,-27.8,0.067,0.5,4.2,0.115,0.16,0.137,8.3,0.559,0.668,0.333,92.83,0.183,2014-01-16T00:00:00,2,1610612752,NYK,New York,15-24,31,17,21,20,0,0,0,0,0,0,0,0,0,0,89,0.4,0.773,0.211,16,46,12,0021300578,1610612752,NYK,New York,Carmelo Anthony,F,,31:22,0,9,0,4,15,8,2,32,1,2,1,5
0021300578,1610612752,NYK,New York,2546,Carmelo Anthony,F,,31:22,103.2,131.1,-27.8,0.067,0.5,4.2,0.115,0.16,0.137,8.3,0.559,0.668,0.333,92.83,0.183,2014-01-16T00:00:00,2,1610612754,IND,Indiana,31-7,30,33,24,30,0,0,0,0,0,0,0,0,0,0,117,0.5,0.913,0.435,26,43,5,0021300578,1610612752,NYK,New York,Carmelo Anthony,F,,31:22,0,9,0,4,15,8,2,32,1,2,1,5
0021300578,1610612752,NYK,New York,200745,Andrea Bargnani,F,,31:48,92.3,125.4,-33.1,0.0,0.0,0.0,0.071,0.185,0.127,18.2,0.333,0.333,0.158,96.18,0.023,2014-01-16T00:00:00,2,1610612752,NYK,New York,15-24,31,17,21,20,0,0,0,0,0,0,0,0,0,0,89,0.4,0.773,0.211,16,46,12,0021300578,1610612752,NYK,New York,Andrea Bargnani,F,,31:48,0,0,2,0,20,10,7,30,2,1,2,0
0021300578,1610612752,NYK,New York,200745,Andrea Bargnani,F,,31:48,92.3,125.4,-33.1,0.0,0.0,0.0,0.071,0.185,0.127,18.2,0.333,0.333,0.158,96.18,0.023,2014-01-16T00:00:00,2,1610612754,IND,Indiana,31-7,30,33,24,30,0,0,0,0,0,0,0,0,0,0,117,0.5,0.913,0.435,26,43,5,0021300578,1610612752,NYK,New York,Andrea Bargnani,F,,31:48,0,0,2,0,20,10,7,30,2,1,2,0
0021300578,1610612752,NYK,New York,2199,Tyson Chandler,C,,26:00,97.0,129.3,-32.3,0.231,3.0,19.3,0.077,0.389,0.205,6.4,0.5,0.564,0.218,90.65,0.15,2014-01-16T00:00:00,2,1610612752,NYK,New York,15-24,31,17,21,20,0,0,0,0,0,0,0,0,0,0,89,0.4,0.773,0.211,16,46,12,0021300578,1610612752,NYK,New York,Tyson Chandler,C,,26:00,0,2,0,4,12,4,4,18,1,1,3,5
0021300578,1610612752,NYK,New York,2199,Tyson Chandler,C,,26:00,97.0,129.3,-32.3,0.231,3.0,19.3,0.077,0.389,0.205,6.4,0.5,0.564,0.218,90.65,0.15,2014-01-16T00:00:00,2,1610612754,IND,Indiana,31-7,30,33,24,30,0,0,0,0,0,0,0,0,0,0,117,0.5,0.913,0.435,26,43,5,0021300578,1610612752,NYK,New York,Tyson Chandler,C,,26:00,0,2,0,4,12,4,4,18,1,1,3,5
0021300578,1610612752,NYK,New York,202697,Iman Shumpert,G,,20:10,97.8,124.6,-26.8,0.154,0.0,33.3,0.059,0.267,0.156,0.0,0.25,0.25,0.089,92.06,0.035,2014-01-16T00:00:00,2,1610612752,NYK,New York,15-24,31,17,21,20,0,0,0,0,0,0,0,0,0,0,89,0.4,0.773,0.211,16,46,12,0021300578,1610612752,NYK,New York,Iman Shumpert,G,,20:10,2,0,0,0,12,4,2,20,0,0,3,2
0021300578,1610612752,NYK,New York,202697,Iman Shumpert,G,,20:10,97.8,124.6,-26.8,0.154,0.0,33.3,0.059,0.267,0.156,0.0,0.25,0.25,0.089,92.06,0.035,2014-01-16T00:00:00,2,1610612754,IND,Indiana,31-7,30,33,24,30,0,0,0,0,0,0,0,0,0,0,117,0.5,0.913,0.435,26,43,5,0021300578,1610612752,NYK,New York,Iman Shumpert,G,,20:10,2,0,0,0,12,4,2,20,0,0,3,2
0021300578,1610612752,NYK,New York,101109,Raymond Felton,G,,29:08,98.1,131.5,-33.3,0.333,1.25,25.7,0.0,0.167,0.083,20.6,0.55,0.575,0.229,92.54,0.097,2014-01-16T00:00:00,2,1610612752,NYK,New York,15-24,31,17,21,20,0,0,0,0,0,0,0,0,0,0,89,0.4,0.773,0.211,16,46,12,0021300578,1610612752,NYK,New York,Raymond Felton,G,,29:08,0,0,0,6,15,8,2,30,0,0,3,1
0021300578,1610612752,NYK,New York,101109,Raymond Felton,G,,29:08,98.1,131.5,-33.3,0.333,1.25,25.7,0.0,0.167,0.083,20.6,0.55,0.575,0.229,92.54,0.097,2014-01-16T00:00:00,2,1610612754,IND,Indiana,31-7,30,33,24,30,0,0,0,0,0,0,0,0,0,0,117,0.5,0.913,0.435,26,43,5,0021300578,1610612752,NYK,New York,Raymond Felton,G,,29:08,0,0,0,6,15,8,2,30,0,0,3,1
0021300578,1610612752,NYK,New York,2030,Kenyon Martin,,,7:10,81.9,117.3,-35.4,0.0,0.0,0.0,0.0,0.0,0.0,0.0,0.0,0.0,0.059,107.43,-0.07,2014-01-16T00:00:00,2,1610612752,NYK,New York,15-24,31,17,21,20,0,0,0,0,0,0,0,0,0,0,89,0.4,0.773,0.211,16,46,12,0021300578,1610612752,NYK,New York,Kenyon Martin,,,7:10,0,0,0,0,0,0,0,8,0,0,1,0
0021300578,1610612752,NYK,New York,2030,Kenyon Martin,,,7:10,81.9,117.3,-35.4,0.0,0.0,0.0,0.0,0.0,0.0,0.0,0.0,0.0,0.059,107.43,-0.07,2014-01-16T00:00:00,2,1610612754,IND,Indiana,31-7,30,33,24,30,0,0,0,0,0,0,0,0,0,0,117,0.5,0.913,0.435,26,43,5,0021300578,1610612752,NYK,New York,Kenyon Martin,,,7:10,0,0,0,0,0,0,0,8,0,0,1,0
0021300578,1610612752,NYK,New York,2405,Amar'e Stoudemire,,,14:00,97.0,147.1,-50.1,0.0,0.0,0.0,0.077,0.167,0.12,0.0,0.5,0.515,0.26,93.19,0.064,2014-01-16T00:00:00,2,1610612752,NYK,New York,15-24,31,17,21,20,0,0,0,0,0,0,0,0,0,0,89,0.4,0.773,0.211,16,46,12,0021300578,1610612752,NYK,New York,Amar'e Stoudemire,,,14:00,1,2,0,2,5,6,0,12,0,0,2,3
0021300578,1610612752,NYK,New York,2405,Amar'e Stoudemire,,,14:00,97.0,147.1,-50.1,0.0,0.0,0.0,0.077,0.167,0.12,0.0,0.5,0.515,0.26,93.19,0.064,2014-01-16T00:00:00,2,1610612754,IND,Indiana,31-7,30,33,24,30,0,0,0,0,0,0,0,0,0,0,117,0.5,0.913,0.435,26,43,5,0021300578,1610612752,NYK,New York,Amar'e Stoudemire,,,14:00,1,2,0,2,5,6,0,12,0,0,2,3
0021300578,1610612752,NYK,New York,2747,JR Smith,,,27:50,91.3,121.9,-30.6,0.071,1.0,7.1,0.0,0.154,0.07,7.1,0.5,0.5,0.21,96.95,0.065,2014-01-16T00:00:00,2,1610612752,NYK,New York,15-24,31,17,21,20,0,0,0,0,0,0,0,0,0,0,89,0.4,0.773,0.211,16,46,12,0021300578,1610612752,NYK,New York,JR Smith,,,27:50,0,2,0,0,8,9,5,20,0,0,3,1
0021300578,1610612752,NYK,New York,2747,JR Smith,,,27:50,91.3,121.9,-30.6,0.071,1.0,7.1,0.0,0.154,0.07,7.1,0.5,0.5,0.21,96.95,0.065,2014-01-16T00:00:00,2,1610612754,IND,Indiana,31-7,30,33,24,30,0,0,0,0,0,0,0,0,0,0,117,0.5,0.913,0.435,26,43,5,0021300578,1610612752,NYK,New York,JR Smith,,,27:50,0,2,0,0,8,9,5,20,0,0,3,1
0021300578,1610612752,NYK,New York,2757,Beno Udrih,,,16:14,83.2,111.9,-28.7,0.364,4.0,50.0,0.0,0.0,0.0,12.5,0.0,0.0,0.112,99.91,0.009,2014-01-16T00:00:00,2,1610612752,NYK,New York,15-24,31,17,21,20,0,0,0,0,0,0,0,0,0,0,89,0.4,0.773,0.211,16,46,12,0021300578,1610612752,NYK,New York,Beno Udrih,,,16:14,0,0,0,0,5,5,5,8,1,0,0,1
0021300578,1610612752,NYK,New York,2757,Beno Udrih,,,16:14,83.2,111.9,-28.7,0.364,4.0,50.0,0.0,0.0,0.0,12.5,0.0,0.0,0.112,99.91,0.009,2014-01-16T00:00:00,2,1610612754,IND,Indiana,31-7,30,33,24,30,0,0,0,0,0,0,0,0,0,0,117,0.5,0.913,0.435,26,43,5,0021300578,1610612752,NYK,New York,Beno Udrih,,,16:14,0,0,0,0,5,5,5,8,1,0,0,1
0021300578,1610612752,NYK,New York,203501,Tim Hardaway Jr.,,,21:15,83.8,98.0,-14.2,0.0,0.0,0.0,0.0,0.0,0.0,9.1,0.2,0.2,0.234,96.9,-0.128,2014-01-16T00:00:00,2,1610612752,NYK,New York,15-24,31,17,21,20,0,0,0,0,0,0,0,0,0,0,89,0.4,0.773,0.211,16,46,12,0021300578,1610612752,NYK,New York,Tim Hardaway Jr.,,,21:15,0,0,2,2,5,5,5,10,0,1,3,0
0021300578,1610612752,NYK,New York,203501,Tim Hardaway Jr.,,,21:15,83.8,98.0,-14.2,0.0,0.0,0.0,0.0,0.0,0.0,9.1,0.2,0.2,0.234,96.9,-0.128,2014-01-16T00:00:00,2,1610612754,IND,Indiana,31-7,30,33,24,30,0,0,0,0,0,0,0,0,0,0,117,0.5,0.913,0.435,26,43,5,0021300578,1610612752,NYK,New York,Tim Hardaway Jr.,,,21:15,0,0,2,2,5,5,5,10,0,1,3,0
0021300578,1610612752,NYK,New York,202719,Jeremy Tyler,,,6:56,85.7,117.5,-31.8,0.0,0.0,0.0,0.2,0.286,0.235,0.0,0.667,0.667,0.176,101.49,0.175,2014-01-16T00:00:00,2,1610612752,NYK,New York,15-24,31,17,21,20,0,0,0,0,0,0,0,0,0,0,89,0.4,0.773,0.211,16,46,12,0021300578,1610612752,NYK,New York,Jeremy Tyler,,,6:56,0,4,0,4,3,3,3,6,0,0,1,1
0021300578,1610612752,NYK,New York,202719,Jeremy Tyler,,,6:56,85.7,117.5,-31.8,0.0,0.0,0.0,0.2,0.286,0.235,0.0,0.667,0.667,0.176,101.49,0.175,2014-01-16T00:00:00,2,1610612754,IND,Indiana,31-7,30,33,24,30,0,0,0,0,0,0,0,0,0,0,117,0.5,0.913,0.435,26,43,5,0021300578,1610612752,NYK,New York,Jeremy Tyler,,,6:56,0,4,0,4,3,3,3,6,0,0,1,1
0021300578,1610612752,NYK,New York,202332,Cole Aldrich,,,5:29,100.0,91.9,8.1,0.0,0.0,0.0,0.125,0.333,0.214,0.0,0.0,0.0,0.0,91.39,0.171,2014-01-16T00:00:00,2,1610612752,NYK,New York,15-24,31,17,21,20,0,0,0,0,0,0,0,0,0,0,89,0.4,0.773,0.211,16,46,12,0021300578,1610612752,NYK,New York,Cole Aldrich,,,5:29,0,0,0,0,0,3,0,4,1,0,0,0
0021300578,1610612752,NYK,New York,202332,Cole Aldrich,,,5:29,100.0,91.9,8.1,0.0,0.0,0.0,0.125,0.333,0.214,0.0,0.0,0.0,0.0,91.39,0.171,2014-01-16T00:00:00,2,1610612754,IND,Indiana,31-7,30,33,24,30,0,0,0,0,0,0,0,0,0,0,117,0.5,0.913,0.435,26,43,5,0021300578,1610612752,NYK,New York,Cole Aldrich,,,5:29,0,0,0,0,0,3,0,4,1,0,0,0
0021300578,1610612752,NYK,New York,203315,Toure' Murry,,,2:38,120.0,102.5,17.5,0.0,0.0,0.0,0.0,0.0,0.0,0.0,0.0,0.0,0.25,90.05,-0.182,2014-01-16T00:00:00,2,1610612752,NYK,New York,15-24,31,17,21,20,0,0,0,0,0,0,0,0,0,0,89,0.4,0.773,0.211,16,46,12,0021300578,1610612752,NYK,New York,Toure' Murry,,,2:38,0,0,0,0,0,0,0,2,0,1,0,0
0021300578,1610612752,NYK,New York,203315,Toure' Murry,,,2:38,120.0,102.5,17.5,0.0,0.0,0.0,0.0,0.0,0.0,0.0,0.0,0.0,0.25,90.05,-0.182,2014-01-16T00:00:00,2,1610612754,IND,Indiana,31-7,30,33,24,30,0,0,0,0,0,0,0,0,0,0,117,0.5,0.913,0.435,26,43,5,0021300578,1610612752,NYK,New York,Toure' Murry,,,2:38,0,0,0,0,0,0,0,2,0,1,0,0
0021300578,1610612754,IND,Indiana,202331,Paul George,F,,33:08,128.0,103.2,24.8,0.13,1.5,12.4,0.037,0.214,0.127,8.3,0.588,0.651,0.31,92.86,0.167,2014-01-16T00:00:00,2,1610612752,NYK,New York,15-24,31,17,21,20,0,0,0,0,0,0,0,0,0,0,89,0.4,0.773,0.211,16,46,12,0021300578,1610612754,IND,Indiana,Paul George,F,,33:08,3,0,0,8,2,13,4,18,1,0,2,5
0021300578,1610612754,IND,Indiana,202331,Paul George,F,,33:08,128.0,103.2,24.8,0.13,1.5,12.4,0.037,0.214,0.127,8.3,0.588,0.651,0.31,92.86,0.167,2014-01-16T00:00:00,2,1610612754,IND,Indiana,31-7,30,33,24,30,0,0,0,0,0,0,0,0,0,0,117,0.5,0.913,0.435,26,43,5,0021300578,1610612754,IND,Indiana,Paul George,F,,33:08,3,0,0,8,2,13,4,18,1,0,2,5
0021300578,1610612754,IND,Indiana,2561,David West,F,,27:01,119.3,97.8,21.5,0.222,2.0,23.5,0.042,0.091,0.065,11.8,0.545,0.545,0.228,93.38,0.12,2014-01-16T00:00:00,2,1610612752,NYK,New York,15-24,31,17,21,20,0,0,0,0,0,0,0,0,0,0,89,0.4,0.773,0.211,16,46,12,0021300578,1610612754,IND,Indiana,David West,F,,27:01,2,2,0,4,2,11,4,14,2,1,1,1
0021300578,1610612754,IND,Indiana,2561,David West,F,,27:01,119.3,97.8,21.5,0.222,2.0,23.5,0.042,0.091,0.065,11.8,0.545,0.545,0.228,93.38,0.12,2014-01-16T00:00:00,2,1610612754,IND,Indiana,31-7,30,33,24,30,0,0,0,0,0,0,0,0,0,0,117,0.5,0.913,0.435,26,43,5,0021300578,1610612754,IND,Indiana,David West,F,,27:01,2,2,0,4,2,11,4,14,2,1,1,1
0021300578,1610612754,IND,Indiana,201579,Roy Hibbert,C,,26:55,143.5,102.7,40.8,0.125,0.0,21.8,0.1,0.167,0.136,0.0,0.444,0.511,0.188,93.52,0.091,2014-01-16T00:00:00,2,1610612752,NYK,New York,15-24,31,17,21,20,0,0,0,0,0,0,0,0,0,0,89,0.4,0.773,0.211,16,46,12,0021300578,1610612754,IND,Indiana,Roy Hibbert,C,,26:55,2,0,0,6,2,13,2,14,1,1,4,2
0021300578,1610612754,IND,Indiana,201579,Roy Hibbert,C,,26:55,143.5,102.7,40.8,0.125,0.0,21.8,0.1,0.167,0.136,0.0,0.444,0.511,0.188,93.52,0.091,2014-01-16T00:00:00,2,1610612754,IND,Indiana,31-7,30,33,24,30,0,0,0,0,0,0,0,0,0,0,117,0.5,0.913,0.435,26,43,5,0021300578,1610612754,IND,Indiana,Roy Hibbert,C,,26:55,2,0,0,6,2,13,2,14,1,1,4,2
0021300578,1610612754,IND,Indiana,202362,Lance Stephenson,G,,35:14,125.9,83.0,42.9,0.182,0.0,17.2,0.033,0.086,0.062,0.0,0.676,0.729,0.253,95.26,0.214,2014-01-16T00:00:00,2,1610612752,NYK,New York,15-24,31,17,21,20,0,0,0,0,0,0,0,0,0,0,89,0.4,0.773,0.211,16,46,12,0021300578,1610612754,IND,Indiana,Lance Stephenson,G,,35:14,11,6,5,14,3,13,4,14,0,0,4,5
0021300578,1610612754,IND,Indiana,202362,Lance Stephenson,G,,35:14,125.9,83.0,42.9,0.182,0.0,17.2,0.033,0.086,0.062,0.0,0.676,0.729,0.253,95.26,0.214,2014-01-16T00:00:00,2,1610612754,IND,Indiana,31-7,30,33,24,30,0,0,0,0,0,0,0,0,0,0,117,0.5,0.913,0.435,26,43,5,0021300578,1610612754,IND,Indiana,Lance Stephenson,G,,35:14,11,6,5,14,3,13,4,14,0,0,4,5
0021300578,1610612754,IND,Indiana,201588,George Hill,G,,22:05,143.3,94.6,48.7,0.227,0.0,67.2,0.0,0.188,0.097,0.0,0.5,0.615,0.057,86.12,0.113,2014-01-16T00:00:00,2,1610612752,NYK,New York,15-24,31,17,21,20,0,0,0,0,0,0,0,0,0,0,89,0.4,0.773,0.211,16,46,12,0021300578,1610612754,IND,Indiana,George Hill,G,,22:05,0,0,0,0,0,6,4,12,0,0,2,2
0021300578,1610612754,IND,Indiana,201588,George Hill,G,,22:05,143.3,94.6,48.7,0.227,0.0,67.2,0.0,0.188,0.097,0.0,0.5,0.615,0.057,86.12,0.113,2014-01-16T00:00:00,2,1610612754,IND,Indiana,31-7,30,33,24,30,0,0,0,0,0,0,0,0,0,0,117,0.5,0.913,0.435,26,43,5,0021300578,1610612754,IND,Indiana,George Hill,G,,22:05,0,0,0,0,0,6,4,12,0,0,2,2
0021300578,1610612754,IND,Indiana,201228,C.J. Watson,,,22:10,107.8,94.7,13.1,0.0,0.0,0.0,0.048,0.08,0.065,16.7,0.5,0.5,0.117,104.68,0.041,2014-01-16T00:00:00,2,1610612752,NYK,New York,15-24,31,17,21,20,0,0,0,0,0,0,0,0,0,0,89,0.4,0.773,0.211,16,46,12,0021300578,1610612754,IND,Indiana,C.J. Watson,,,22:10,0,0,0,0,3,9,0,6,0,1,0,0
0021300578,1610612754,IND,Indiana,201228,C.J. Watson,,,22:10,107.8,94.7,13.1,0.0,0.0,0.0,0.048,0.08,0.065,16.7,0.5,0.5,0.117,104.68,0.041,2014-01-16T00:00:00,2,1610612754,IND,Indiana,31-7,30,33,24,30,0,0,0,0,0,0,0,0,0,0,117,0.5,0.913,0.435,26,43,5,0021300578,1610612754,IND,Indiana,C.J. Watson,,,22:10,0,0,0,0,3,9,0,6,0,1,0,0
0021300578,1610612754,IND,Indiana,101122,Danny Granger,,,19:33,121.1,93.6,27.5,0.308,0.0,33.7,0.0,0.1,0.056,0.0,0.643,0.698,0.182,99.19,0.17,2014-01-16T00:00:00,2,1610612752,NYK,New York,15-24,31,17,21,20,0,0,0,0,0,0,0,0,0,0,89,0.4,0.773,0.211,16,46,12,0021300578,1610612754,IND,Indiana,Danny Granger,,,19:33,0,0,2,4,1,4,0,4,0,1,1,1
0021300578,1610612754,IND,Indiana,101122,Danny Granger,,,19:33,121.1,93.6,27.5,0.308,0.0,33.7,0.0,0.1,0.056,0.0,0.643,0.698,0.182,99.19,0.17,2014-01-16T00:00:00,2,1610612754,IND,Indiana,31-7,30,33,24,30,0,0,0,0,0,0,0,0,0,0,117,0.5,0.913,0.435,26,43,5,0021300578,1610612754,IND,Indiana,Danny Granger,,,19:33,0,0,2,4,1,4,0,4,0,1,1,1
0021300578,1610612754,IND,Indiana,2449,Luis Scola,,,15:30,139.4,85.7,53.7,0.091,0.0,10.1,0.0,0.389,0.241,0.0,0.5,0.563,0.267,98.79,0.185,2014-01-16T00:00:00,2,1610612752,NYK,New York,15-24,31,17,21,20,0,0,0,0,0,0,0,0,0,0,89,0.4,0.773,0.211,16,46,12,0021300578,1610612754,IND,Indiana,Luis Scola,,,15:30,2,0,0,0,1,4,0,4,0,1,2,3
0021300578,1610612754,IND,Indiana,2449,Luis Scola,,,15:30,139.4,85.7,53.7,0.091,0.0,10.1,0.0,0.389,0.241,0.0,0.5,0.563,0.267,98.79,0.185,2014-01-16T00:00:00,2,1610612754,IND,Indiana,31-7,30,33,24,30,0,0,0,0,0,0,0,0,0,0,117,0.5,0.913,0.435,26,43,5,0021300578,1610612754,IND,Indiana,Luis Scola,,,15:30,2,0,0,0,1,4,0,4,0,1,2,3
0021300578,1610612754,IND,Indiana,101133,Ian Mahinmi,,,21:05,98.0,83.2,14.9,0.0,0.0,0.0,0.0,0.125,0.067,0.0,0.25,0.41,0.109,96.67,0.047,2014-01-16T00:00:00,2,1610612752,NYK,New York,15-24,31,17,21,20,0,0,0,0,0,0,0,0,0,0,89,0.4,0.773,0.211,16,46,12,0021300578,1610612754,IND,Indiana,Ian Mahinmi,,,21:05,0,2,0,2,1,6,2,8,2,1,2,2
0021300578,1610612754,IND,Indiana,101133,Ian Mahinmi,,,21:05,98.0,83.2,14.9,0.0,0.0,0.0,0.0,0.125,0.067,0.0,0.25,0.41,0.109,96.67,0.047,2014-01-16T00:00:00,2,1610612754,IND,Indiana,31-7,30,33,24,30,0,0,0,0,0,0,0,0,0,0,117,0.5,0.913,0.435,26,43,5,0021300578,1610612754,IND,Indiana,Ian Mahinmi,,,21:05,0,2,0,2,1,6,2,8,2,1,2,2
0021300578,1610612754,IND,Indiana,203142,Chris Copeland,,,5:29,91.9,100.0,-8.1,0.0,0.0,0.0,0.167,0.375,0.286,0.0,1.5,1.064,0.158,91.39,0.314,2014-01-16T00:00:00,2,1610612752,NYK,New York,15-24,31,17,21,20,0,0,0,0,0,0,0,0,0,0,89,0.4,0.773,0.211,16,46,12,0021300578,1610612754,IND,Indiana,Chris Copeland,,,5:29,0,3,0,0,0,4,0,4,0,0,1,1
0021300578,1610612754,IND,Indiana,203142,Chris Copeland,,,5:29,91.9,100.0,-8.1,0.0,0.0,0.0,0.167,0.375,0.286,0.0,1.5,1.064,0.158,91.39,0.314,2014-01-16T00:00:00,2,1610612754,IND,Indiana,31-7,30,33,24,30,0,0,0,0,0,0,0,0,0,0,117,0.5,0.913,0.435,26,43,5,0021300578,1610612754,IND,Indiana,Chris Copeland,,,5:29,0,3,0,0,0,4,0,4,0,0,1,1
0021300578,1610612754,IND,Indiana,2446,Rasual Butler,,,5:27,91.9,100.0,-8.1,0.0,0.0,0.0,0.0,0.0,0.0,0.0,0.0,0.0,0.253,91.95,-0.162,2014-01-16T00:00:00,2,1610612752,NYK,New York,15-24,31,17,21,20,0,0,0,0,0,0,0,0,0,0,89,0.4,0.773,0.211,16,46,12,0021300578,1610612754,IND,Indiana,Rasual Butler,,,5:27,0,0,0,0,0,4,0,4,0,0,0,0
0021300578,1610612754,IND,Indiana,2446,Rasual Butler,,,5:27,91.9,100.0,-8.1,0.0,0.0,0.0,0.0,0.0,0.0,0.0,0.0,0.0,0.253,91.95,-0.162,2014-01-16T00:00:00,2,1610612754,IND,Indiana,31-7,30,33,24,30,0,0,0,0,0,0,0,0,0,0,117,0.5,0.913,0.435,26,43,5,0021300578,1610612754,IND,Indiana,Rasual Butler,,,5:27,0,0,0,0,0,4,0,4,0,0,0,0
0021300578,1610612754,IND,Indiana,202388,Donald Sloan,,,3:45,116.3,85.7,30.6,1.0,0.0,66.7,0.0,0.143,0.083,0.0,1.0,1.0,0.127,88.83,0.37,2014-01-16T00:00:00,2,1610612752,NYK,New York,15-24,31,17,21,20,0,0,0,0,0,0,0,0,0,0,89,0.4,0.773,0.211,16,46,12,0021300578,1610612754,IND,Indiana,Donald Sloan,,,3:45,0,0,0,2,0,4,0,4,0,0,0,0
0021300578,1610612754,IND,Indiana,202388,Donald Sloan,,,3:45,116.3,85.7,30.6,1.0,0.0,66.7,0.0,0.143,0.083,0.0,1.0,1.0,0.127,88.83,0.37,2014-01-16T00:00:00,2,1610612754,IND,Indiana,31-7,30,33,24,30,0,0,0,0,0,0,0,0,0,0,117,0.5,0.913,0.435,26,43,5,0021300578,1610612754,IND,Indiana,Donald Sloan,,,3:45,0,0,0,2,0,4,0,4,0,0,0,0
0021300578,1610612754,IND,Indiana,203111,Orlando Johnson,,,2:38,102.5,120.0,-17.5,0.0,0.0,0.0,0.0,0.0,0.0,0.0,1.0,1.0,0.205,90.05,0.182,2014-01-16T00:00:00,2,1610612752,NYK,New York,15-24,31,17,21,20,0,0,0,0,0,0,0,0,0,0,89,0.4,0.773,0.211,16,46,12,0021300578,1610612754,IND,Indiana,Orlando Johnson,,,2:38,0,0,0,0,0,4,0,4,0,0,0,0
0021300578,1610612754,IND,Indiana,203111,Orlando Johnson,,,2:38,102.5,120.0,-17.5,0.0,0.0,0.0,0.0,0.0,0.0,0.0,1.0,1.0,0.205,90.05,0.182,2014-01-16T00:00:00,2,1610612754,IND,Indiana,31-7,30,33,24,30,0,0,0,0,0,0,0,0,0,0,117,0.5,0.913,0.435,26,43,5,0021300578,1610612754,IND,Indiana,Orlando Johnson,,,2:38,0,0,0,0,0,4,0,4,0,0,0,0
