GAME_ID_x,TEAM_ID_x,TEAM_ABBREVIATION_x,TEAM_CITY_x,PLAYER_ID,PLAYER_NAME_x,START_POSITION_x,COMMENT_x,MIN_x,OFF_RATING,DEF_RATING,NET_RATING,AST_PCT,AST_TOV,AST_RATIO,OREB_PCT,DREB_PCT,REB_PCT,TM_TOV_PCT,EFG_PCT,TS_PCT,USG_PCT,PACE,PIE,GAME_DATE_EST,GAME_SEQUENCE,TEAM_ID_y,TEAM_ABBREVIATION_y,TEAM_CITY_NAME,TEAM_WINS_LOSSES,PTS_QTR1,PTS_QTR2,PTS_QTR3,PTS_QTR4,PTS_OT1,PTS_OT2,PTS_OT3,PTS_OT4,PTS_OT5,PTS_OT6,PTS_OT7,PTS_OT8,PTS_OT9,PTS_OT10,PTS,FG_PCT,FT_PCT,FG3_PCT,AST,REB,TOV,GAME_ID_y,TEAM_ID,TEAM_ABBREVIATION,TEAM_CITY_y,PLAYER_NAME_y,START_POSITION_y,COMMENT_y,MIN_y,PTS_OFF_TOV,PTS_2ND_CHANCE,PTS_FB,PTS_PAINT,OPP_PTS_OFF_TOV,OPP_PTS_2ND_CHANCE,OPP_PTS_FB,OPP_PTS_PAINT,BLK,BLKA,PF,PFD
0021300580,1610612760,OKC,Oklahoma City,201142,Kevin Durant,F,,42:50,108.9,87.2,21.7,0.259,1.0,16.0,0.029,0.098,0.066,16.0,0.429,0.604,0.386,97.09,0.177,2014-01-16T00:00:00,3,1610612760,OKC,Oklahoma City,29-10,36,23,24,21,0,0,0,0,0,0,0,0,0,0,104,0.463,0.88,0.24,18,47,15,0021300580,1610612760,OKC,Oklahoma City,Kevin Durant,F,,42:50,5.0,3.0,2.0,10.0,10.0,13.0,8.0,36.0,0.0,3.0,2.0,10.0
0021300580,1610612760,OKC,Oklahoma City,201142,Kevin Durant,F,,42:50,108.9,87.2,21.7,0.259,1.0,16.0,0.029,0.098,0.066,16.0,0.429,0.604,0.386,97.09,0.177,2014-01-16T00:00:00,3,1610612745,HOU,Houston,26-15,32,41,10,9,0,0,0,0,0,0,0,0,0,0,92,0.402,0.667,0.353,20,42,17,0021300580,1610612760,OKC,Oklahoma City,Kevin Durant,F,,42:50,5.0,3.0,2.0,10.0,10.0,13.0,8.0,36.0,0.0,3.0,2.0,10.0
0021300580,1610612760,OKC,Oklahoma City,201586,Serge Ibaka,F,,37:24,101.2,81.4,19.8,0.0,0.0,0.0,0.118,0.297,0.211,18.8,0.808,0.808,0.188,98.95,0.227,2014-01-16T00:00:00,3,1610612760,OKC,Oklahoma City,29-10,36,23,24,21,0,0,0,0,0,0,0,0,0,0,104,0.463,0.88,0.24,18,47,15,0021300580,1610612760,OKC,Oklahoma City,Serge Ibaka,F,,37:24,7.0,0.0,2.0,12.0,10.0,13.0,8.0,30.0,5.0,0.0,5.0,0.0
0021300580,1610612760,OKC,Oklahoma City,201586,Serge Ibaka,F,,37:24,101.2,81.4,19.8,0.0,0.0,0.0,0.118,0.297,0.211,18.8,0.808,0.808,0.188,98.95,0.227,2014-01-16T00:00:00,3,1610612745,HOU,Houston,26-15,32,41,10,9,0,0,0,0,0,0,0,0,0,0,92,0.402,0.667,0.353,20,42,17,0021300580,1610612760,OKC,Oklahoma City,Serge Ibaka,F,,37:24,7.0,0.0,2.0,12.0,10.0,13.0,8.0,30.0,5.0,0.0,5.0,0.0
0021300580,1610612760,OKC,Oklahoma City,2570,Kendrick Perkins,C,,26:09,105.3,77.7,27.6,0.1,2.0,28.6,0.048,0.25,0.163,14.3,0.5,0.5,0.085,103.42,0.092,2014-01-16T00:00:00,3,1610612760,OKC,Oklahoma City,29-10,36,23,24,21,0,0,0,0,0,0,0,0,0,0,104,0.463,0.88,0.24,18,47,15,0021300580,1610612760,OKC,Oklahoma City,Kendrick Perkins,C,,26:09,2.0,2.0,0.0,2.0,4.0,10.0,4.0,26.0,1.0,1.0,5.0,1.0
0021300580,1610612760,OKC,Oklahoma City,2570,Kendrick Perkins,C,,26:09,105.3,77.7,27.6,0.1,2.0,28.6,0.048,0.25,0.163,14.3,0.5,0.5,0.085,103.42,0.092,2014-01-16T00:00:00,3,1610612745,HOU,Houston,26-15,32,41,10,9,0,0,0,0,0,0,0,0,0,0,92,0.402,0.667,0.353,20,42,17,0021300580,1610612760,OKC,Oklahoma City,Kendrick Perkins,C,,26:09,2.0,2.0,0.0,2.0,4.0,10.0,4.0,26.0,1.0,1.0,5.0,1.0
0021300580,1610612760,OKC,Oklahoma City,200757,Thabo Sefolosha,G,,24:33,93.8,100.7,-6.9,0.059,0.0,13.4,0.038,0.217,0.122,0.0,0.333,0.388,0.109,102.57,0.092,2014-01-16T00:00:00,3,1610612760,OKC,Oklahoma City,29-10,36,23,24,21,0,0,0,0,0,0,0,0,0,0,104,0.463,0.88,0.24,18,47,15,0021300580,1610612760,OKC,Oklahoma City,Thabo Sefolosha,G,,24:33,0.0,0.0,0.0,4.0,8.0,10.0,6.0,26.0,0.0,0.0,1.0,2.0
0021300580,1610612760,OKC,Oklahoma City,200757,Thabo Sefolosha,G,,24:33,93.8,100.7,-6.9,0.059,0.0,13.4,0.038,0.217,0.122,0.0,0.333,0.388,0.109,102.57,0.092,2014-01-16T00:00:00,3,1610612745,HOU,Houston,26-15,32,41,10,9,0,0,0,0,0,0,0,0,0,0,92,0.402,0.667,0.353,20,42,17,0021300580,1610612760,OKC,Oklahoma City,Thabo Sefolosha,G,,24:33,0.0,0.0,0.0,4.0,8.0,10.0,6.0,26.0,0.0,0.0,1.0,2.0
0021300580,1610612760,OKC,Oklahoma City,202704,Reggie Jackson,G,,34:30,95.7,88.6,7.1,0.235,4.0,16.7,0.0,0.059,0.03,4.2,0.605,0.605,0.256,101.95,0.203,2014-01-16T00:00:00,3,1610612760,OKC,Oklahoma City,29-10,36,23,24,21,0,0,0,0,0,0,0,0,0,0,104,0.463,0.88,0.24,18,47,15,0021300580,1610612760,OKC,Oklahoma City,Reggie Jackson,G,,34:30,6.0,0.0,6.0,16.0,11.0,13.0,8.0,32.0,0.0,1.0,2.0,1.0
0021300580,1610612760,OKC,Oklahoma City,202704,Reggie Jackson,G,,34:30,95.7,88.6,7.1,0.235,4.0,16.7,0.0,0.059,0.03,4.2,0.605,0.605,0.256,101.95,0.203,2014-01-16T00:00:00,3,1610612745,HOU,Houston,26-15,32,41,10,9,0,0,0,0,0,0,0,0,0,0,92,0.402,0.667,0.353,20,42,17,0021300580,1610612760,OKC,Oklahoma City,Reggie Jackson,G,,34:30,6.0,0.0,6.0,16.0,11.0,13.0,8.0,32.0,0.0,1.0,2.0,1.0
0021300580,1610612760,OKC,Oklahoma City,203500,Steven Adams,,,10:18,105.2,134.5,-29.3,0.2,0.5,14.8,0.222,0.222,0.222,29.6,0.5,0.665,0.231,93.3,-0.032,2014-01-16T00:00:00,3,1610612760,OKC,Oklahoma City,29-10,36,23,24,21,0,0,0,0,0,0,0,0,0,0,104,0.463,0.88,0.24,18,47,15,0021300580,1610612760,OKC,Oklahoma City,Steven Adams,,,10:18,0.0,2.0,0.0,2.0,2.0,0.0,4.0,10.0,0.0,0.0,6.0,3.0
0021300580,1610612760,OKC,Oklahoma City,203500,Steven Adams,,,10:18,105.2,134.5,-29.3,0.2,0.5,14.8,0.222,0.222,0.222,29.6,0.5,0.665,0.231,93.3,-0.032,2014-01-16T00:00:00,3,1610612745,HOU,Houston,26-15,32,41,10,9,0,0,0,0,0,0,0,0,0,0,92,0.402,0.667,0.353,20,42,17,0021300580,1610612760,OKC,Oklahoma City,Steven Adams,,,10:18,0.0,2.0,0.0,2.0,2.0,0.0,4.0,10.0,0.0,0.0,6.0,3.0
0021300580,1610612760,OKC,Oklahoma City,965,Derek Fisher,,,17:50,114.4,97.9,16.5,0.077,0.0,16.7,0.0,0.0,0.0,0.0,0.3,0.3,0.122,94.96,-0.049,2014-01-16T00:00:00,3,1610612760,OKC,Oklahoma City,29-10,36,23,24,21,0,0,0,0,0,0,0,0,0,0,104,0.463,0.88,0.24,18,47,15,0021300580,1610612760,OKC,Oklahoma City,Derek Fisher,,,17:50,0.0,3.0,0.0,0.0,4.0,1.0,2.0,10.0,0.0,0.0,3.0,0.0
0021300580,1610612760,OKC,Oklahoma City,965,Derek Fisher,,,17:50,114.4,97.9,16.5,0.077,0.0,16.7,0.0,0.0,0.0,0.0,0.3,0.3,0.122,94.96,-0.049,2014-01-16T00:00:00,3,1610612745,HOU,Houston,26-15,32,41,10,9,0,0,0,0,0,0,0,0,0,0,92,0.402,0.667,0.353,20,42,17,0021300580,1610612760,OKC,Oklahoma City,Derek Fisher,,,17:50,0.0,3.0,0.0,0.0,4.0,1.0,2.0,10.0,0.0,0.0,3.0,0.0
0021300580,1610612760,OKC,Oklahoma City,2555,Nick Collison,,,19:09,127.6,100.8,26.8,0.133,0.0,50.0,0.0,0.158,0.088,0.0,0.5,0.5,0.049,92.19,0.096,2014-01-16T00:00:00,3,1610612760,OKC,Oklahoma City,29-10,36,23,24,21,0,0,0,0,0,0,0,0,0,0,104,0.463,0.88,0.24,18,47,15,0021300580,1610612760,OKC,Oklahoma City,Nick Collison,,,19:09,0.0,2.0,0.0,2.0,3.0,0.0,4.0,12.0,1.0,0.0,1.0,1.0
0021300580,1610612760,OKC,Oklahoma City,2555,Nick Collison,,,19:09,127.6,100.8,26.8,0.133,0.0,50.0,0.0,0.158,0.088,0.0,0.5,0.5,0.049,92.19,0.096,2014-01-16T00:00:00,3,1610612745,HOU,Houston,26-15,32,41,10,9,0,0,0,0,0,0,0,0,0,0,92,0.402,0.667,0.353,20,42,17,0021300580,1610612760,OKC,Oklahoma City,Nick Collison,,,19:09,0.0,2.0,0.0,2.0,3.0,0.0,4.0,12.0,1.0,0.0,1.0,1.0
0021300580,1610612760,OKC,Oklahoma City,203087,Jeremy Lamb,,,22:07,114.4,107.8,6.6,0.0,0.0,0.0,0.0,0.05,0.026,10.0,0.278,0.278,0.209,93.8,-0.043,2014-01-16T00:00:00,3,1610612760,OKC,Oklahoma City,29-10,36,23,24,21,0,0,0,0,0,0,0,0,0,0,104,0.463,0.88,0.24,18,47,15,0021300580,1610612760,OKC,Oklahoma City,Jeremy Lamb,,,22:07,0.0,0.0,0.0,0.0,6.0,5.0,4.0,14.0,0.0,0.0,1.0,2.0
0021300580,1610612760,OKC,Oklahoma City,203087,Jeremy Lamb,,,22:07,114.4,107.8,6.6,0.0,0.0,0.0,0.0,0.05,0.026,10.0,0.278,0.278,0.209,93.8,-0.043,2014-01-16T00:00:00,3,1610612745,HOU,Houston,26-15,32,41,10,9,0,0,0,0,0,0,0,0,0,0,92,0.402,0.667,0.353,20,42,17,0021300580,1610612760,OKC,Oklahoma City,Jeremy Lamb,,,22:07,0.0,0.0,0.0,0.0,6.0,5.0,4.0,14.0,0.0,0.0,1.0,2.0
0021300580,1610612760,OKC,Oklahoma City,203103,Perry Jones III,,,5:10,76.5,139.3,-62.8,0.0,0.0,0.0,0.143,0.333,0.231,0.0,0.0,0.0,0.073,111.3,0.103,2014-01-16T00:00:00,3,1610612760,OKC,Oklahoma City,29-10,36,23,24,21,0,0,0,0,0,0,0,0,0,0,104,0.463,0.88,0.24,18,47,15,0021300580,1610612760,OKC,Oklahoma City,Perry Jones III,,,5:10,0.0,0.0,0.0,0.0,2.0,0.0,2.0,4.0,1.0,0.0,0.0,0.0
0021300580,1610612760,OKC,Oklahoma City,203103,Perry Jones III,,,5:10,76.5,139.3,-62.8,0.0,0.0,0.0,0.143,0.333,0.231,0.0,0.0,0.0,0.073,111.3,0.103,2014-01-16T00:00:00,3,1610612745,HOU,Houston,26-15,32,41,10,9,0,0,0,0,0,0,0,0,0,0,92,0.402,0.667,0.353,20,42,17,0021300580,1610612760,OKC,Oklahoma City,Perry Jones III,,,5:10,0.0,0.0,0.0,0.0,2.0,0.0,2.0,4.0,1.0,0.0,0.0,0.0
0021300580,1610612760,OKC,Oklahoma City,2767,Royal Ivey,,DNP - Coach's Decision,,,,,,,0.0,,,,,,,0.0,,,2014-01-16T00:00:00,3,1610612760,OKC,Oklahoma City,29-10,36,23,24,21,0,0,0,0,0,0,0,0,0,0,104,0.463,0.88,0.24,18,47,15,0021300580,1610612760,OKC,Oklahoma City,Royal Ivey,,DNP - Coach's Decision,,,,,,,,,,,,,
0021300580,1610612760,OKC,Oklahoma City,2767,Royal Ivey,,DNP - Coach's Decision,,,,,,,0.0,,,,,,,0.0,,,2014-01-16T00:00:00,3,1610612745,HOU,Houston,26-15,32,41,10,9,0,0,0,0,0,0,0,0,0,0,92,0.402,0.667,0.353,20,42,17,0021300580,1610612760,OKC,Oklahoma City,Royal Ivey,,DNP - Coach's Decision,,,,,,,,,,,,,
0021300580,1610612760,OKC,Oklahoma City,203460,Andre Roberson,,DNP - Coach's Decision,,,,,,,0.0,,,,,,,0.0,,,2014-01-16T00:00:00,3,1610612760,OKC,Oklahoma City,29-10,36,23,24,21,0,0,0,0,0,0,0,0,0,0,104,0.463,0.88,0.24,18,47,15,0021300580,1610612760,OKC,Oklahoma City,Andre Roberson,,DNP - Coach's Decision,,,,,,,,,,,,,
0021300580,1610612760,OKC,Oklahoma City,203460,Andre Roberson,,DNP - Coach's Decision,,,,,,,0.0,,,,,,,0.0,,,2014-01-16T00:00:00,3,1610612745,HOU,Houston,26-15,32,41,10,9,0,0,0,0,0,0,0,0,0,0,92,0.402,0.667,0.353,20,42,17,0021300580,1610612760,OKC,Oklahoma City,Andre Roberson,,DNP - Coach's Decision,,,,,,,,,,,,,
0021300580,1610612760,OKC,Oklahoma City,201934,Hasheem Thabeet,,DNP - Coach's Decision,,,,,,,0.0,,,,,,,0.0,,,2014-01-16T00:00:00,3,1610612760,OKC,Oklahoma City,29-10,36,23,24,21,0,0,0,0,0,0,0,0,0,0,104,0.463,0.88,0.24,18,47,15,0021300580,1610612760,OKC,Oklahoma City,Hasheem Thabeet,,DNP - Coach's Decision,,,,,,,,,,,,,
0021300580,1610612760,OKC,Oklahoma City,201934,Hasheem Thabeet,,DNP - Coach's Decision,,,,,,,0.0,,,,,,,0.0,,,2014-01-16T00:00:00,3,1610612745,HOU,Houston,26-15,32,41,10,9,0,0,0,0,0,0,0,0,0,0,92,0.402,0.667,0.353,20,42,17,0021300580,1610612760,OKC,Oklahoma City,Hasheem Thabeet,,DNP - Coach's Decision,,,,,,,,,,,,,
0021300580,1610612745,HOU,Houston,202718,Chandler Parsons,F,,42:45,87.2,108.1,-21.0,0.083,0.5,9.2,0.0,0.121,0.053,18.5,0.423,0.448,0.204,97.09,0.0,2014-01-16T00:00:00,3,1610612760,OKC,Oklahoma City,29-10,36,23,24,21,0,0,0,0,0,0,0,0,0,0,104,0.463,0.88,0.24,18,47,15,0021300580,1610612745,HOU,Houston,Chandler Parsons,F,,42:45,3.0,3.0,2.0,2.0,20.0,7.0,10.0,46.0,0.0,1.0,5.0,4.0
0021300580,1610612745,HOU,Houston,202718,Chandler Parsons,F,,42:45,87.2,108.1,-21.0,0.083,0.5,9.2,0.0,0.121,0.053,18.5,0.423,0.448,0.204,97.09,0.0,2014-01-16T00:00:00,3,1610612745,HOU,Houston,26-15,32,41,10,9,0,0,0,0,0,0,0,0,0,0,92,0.402,0.667,0.353,20,42,17,0021300580,1610612745,HOU,Houston,Chandler Parsons,F,,42:45,3.0,3.0,2.0,2.0,20.0,7.0,10.0,46.0,0.0,1.0,5.0,4.0
0021300580,1610612745,HOU,Houston,203093,Terrence Jones,F,,40:32,86.7,102.6,-15.9,0.15,1.0,14.5,0.071,0.263,0.163,14.5,0.5,0.546,0.189,101.34,0.164,2014-01-16T00:00:00,3,1610612760,OKC,Oklahoma City,29-10,36,23,24,21,0,0,0,0,0,0,0,0,0,0,104,0.463,0.88,0.24,18,47,15,0021300580,1610612745,HOU,Houston,Terrence Jones,F,,40:32,3.0,2.0,0.0,12.0,18.0,7.0,8.0,40.0,1.0,1.0,1.0,4.0
0021300580,1610612745,HOU,Houston,203093,Terrence Jones,F,,40:32,86.7,102.6,-15.9,0.15,1.0,14.5,0.071,0.263,0.163,14.5,0.5,0.546,0.189,101.34,0.164,2014-01-16T00:00:00,3,1610612745,HOU,Houston,26-15,32,41,10,9,0,0,0,0,0,0,0,0,0,0,92,0.402,0.667,0.353,20,42,17,0021300580,1610612745,HOU,Houston,Terrence Jones,F,,40:32,3.0,2.0,0.0,12.0,18.0,7.0,8.0,40.0,1.0,1.0,1.0,4.0
0021300580,1610612745,HOU,Houston,2730,Dwight Howard,C,,29:50,87.6,104.1,-16.5,0.125,0.67,10.6,0.1,0.208,0.148,15.9,0.385,0.396,0.246,98.15,0.044,2014-01-16T00:00:00,3,1610612760,OKC,Oklahoma City,29-10,36,23,24,21,0,0,0,0,0,0,0,0,0,0,104,0.463,0.88,0.24,18,47,15,0021300580,1610612745,HOU,Houston,Dwight Howard,C,,29:50,1.0,3.0,0.0,10.0,13.0,7.0,8.0,32.0,3.0,4.0,5.0,8.0
0021300580,1610612745,HOU,Houston,2730,Dwight Howard,C,,29:50,87.6,104.1,-16.5,0.125,0.67,10.6,0.1,0.208,0.148,15.9,0.385,0.396,0.246,98.15,0.044,2014-01-16T00:00:00,3,1610612745,HOU,Houston,26-15,32,41,10,9,0,0,0,0,0,0,0,0,0,0,92,0.402,0.667,0.353,20,42,17,0021300580,1610612745,HOU,Houston,Dwight Howard,C,,29:50,1.0,3.0,0.0,10.0,13.0,7.0,8.0,32.0,3.0,4.0,5.0,8.0
0021300580,1610612745,HOU,Houston,201935,James Harden,G,,39:54,90.8,94.1,-3.3,0.364,2.67,28.2,0.0,0.189,0.091,10.6,0.438,0.462,0.224,99.56,0.121,2014-01-16T00:00:00,3,1610612760,OKC,Oklahoma City,29-10,36,23,24,21,0,0,0,0,0,0,0,0,0,0,104,0.463,0.88,0.24,18,47,15,0021300580,1610612745,HOU,Houston,James Harden,G,,39:54,3.0,3.0,6.0,8.0,15.0,7.0,8.0,40.0,0.0,1.0,2.0,6.0
0021300580,1610612745,HOU,Houston,201935,James Harden,G,,39:54,90.8,94.1,-3.3,0.364,2.67,28.2,0.0,0.189,0.091,10.6,0.438,0.462,0.224,99.56,0.121,2014-01-16T00:00:00,3,1610612745,HOU,Houston,26-15,32,41,10,9,0,0,0,0,0,0,0,0,0,0,92,0.402,0.667,0.353,20,42,17,0021300580,1610612745,HOU,Houston,James Harden,G,,39:54,3.0,3.0,6.0,8.0,15.0,7.0,8.0,40.0,0.0,1.0,2.0,6.0
0021300580,1610612745,HOU,Houston,202391,Jeremy Lin,G,,24:08,78.1,94.4,-16.3,0.143,2.0,16.8,0.0,0.0,0.0,8.4,0.25,0.338,0.169,102.79,0.02,2014-01-16T00:00:00,3,1610612760,OKC,Oklahoma City,29-10,36,23,24,21,0,0,0,0,0,0,0,0,0,0,104,0.463,0.88,0.24,18,47,15,0021300580,1610612745,HOU,Houston,Jeremy Lin,G,,24:08,0.0,0.0,0.0,2.0,11.0,2.0,8.0,26.0,1.0,1.0,0.0,2.0
0021300580,1610612745,HOU,Houston,202391,Jeremy Lin,G,,24:08,78.1,94.4,-16.3,0.143,2.0,16.8,0.0,0.0,0.0,8.4,0.25,0.338,0.169,102.79,0.02,2014-01-16T00:00:00,3,1610612745,HOU,Houston,26-15,32,41,10,9,0,0,0,0,0,0,0,0,0,0,92,0.402,0.667,0.353,20,42,17,0021300580,1610612745,HOU,Houston,Jeremy Lin,G,,24:08,0.0,0.0,0.0,2.0,11.0,2.0,8.0,26.0,1.0,1.0,0.0,2.0
0021300580,1610612745,HOU,Houston,202700,Donatas Motiejunas,,,23:57,105.2,109.0,-3.8,0.0,0.0,0.0,0.095,0.238,0.167,10.0,0.833,0.833,0.198,94.52,0.205,2014-01-16T00:00:00,3,1610612760,OKC,Oklahoma City,29-10,36,23,24,21,0,0,0,0,0,0,0,0,0,0,104,0.463,0.88,0.24,18,47,15,0021300580,1610612745,HOU,Houston,Donatas Motiejunas,,,23:57,2.0,2.0,2.0,6.0,9.0,10.0,4.0,22.0,0.0,0.0,2.0,1.0
0021300580,1610612745,HOU,Houston,202700,Donatas Motiejunas,,,23:57,105.2,109.0,-3.8,0.0,0.0,0.0,0.095,0.238,0.167,10.0,0.833,0.833,0.198,94.52,0.205,2014-01-16T00:00:00,3,1610612745,HOU,Houston,26-15,32,41,10,9,0,0,0,0,0,0,0,0,0,0,92,0.402,0.667,0.353,20,42,17,0021300580,1610612745,HOU,Houston,Donatas Motiejunas,,,23:57,2.0,2.0,2.0,6.0,9.0,10.0,4.0,22.0,0.0,0.0,2.0,1.0
0021300580,1610612745,HOU,Houston,201166,Aaron Brooks,,,23:52,111.5,116.3,-4.7,0.214,1.5,21.6,0.095,0.0,0.05,14.4,0.563,0.619,0.219,94.4,0.076,2014-01-16T00:00:00,3,1610612760,OKC,Oklahoma City,29-10,36,23,24,21,0,0,0,0,0,0,0,0,0,0,104,0.463,0.88,0.24,18,47,15,0021300580,1610612745,HOU,Houston,Aaron Brooks,,,23:52,0.0,0.0,0.0,0.0,9.0,10.0,2.0,22.0,0.0,0.0,3.0,1.0
0021300580,1610612745,HOU,Houston,201166,Aaron Brooks,,,23:52,111.5,116.3,-4.7,0.214,1.5,21.6,0.095,0.0,0.05,14.4,0.563,0.619,0.219,94.4,0.076,2014-01-16T00:00:00,3,1610612745,HOU,Houston,26-15,32,41,10,9,0,0,0,0,0,0,0,0,0,0,92,0.402,0.667,0.353,20,42,17,0021300580,1610612745,HOU,Houston,Aaron Brooks,,,23:52,0.0,0.0,0.0,0.0,9.0,10.0,2.0,22.0,0.0,0.0,3.0,1.0
0021300580,1610612745,HOU,Houston,101128,Francisco Garcia,,,8:41,102.2,152.2,-50.1,0.0,0.0,0.0,0.0,0.0,0.0,0.0,0.5,0.5,0.161,93.27,-0.037,2014-01-16T00:00:00,3,1610612760,OKC,Oklahoma City,29-10,36,23,24,21,0,0,0,0,0,0,0,0,0,0,104,0.463,0.88,0.24,18,47,15,0021300580,1610612745,HOU,Houston,Francisco Garcia,,,8:41,0.0,0.0,0.0,0.0,5.0,5.0,2.0,8.0,0.0,0.0,2.0,0.0
0021300580,1610612745,HOU,Houston,101128,Francisco Garcia,,,8:41,102.2,152.2,-50.1,0.0,0.0,0.0,0.0,0.0,0.0,0.0,0.5,0.5,0.161,93.27,-0.037,2014-01-16T00:00:00,3,1610612745,HOU,Houston,26-15,32,41,10,9,0,0,0,0,0,0,0,0,0,0,92,0.402,0.667,0.353,20,42,17,0021300580,1610612745,HOU,Houston,Francisco Garcia,,,8:41,0.0,0.0,0.0,0.0,5.0,5.0,2.0,8.0,0.0,0.0,2.0,0.0
0021300580,1610612745,HOU,Houston,201956,Omri Casspi,,,6:21,164.5,99.4,65.0,0.0,0.0,0.0,0.0,0.125,0.071,0.0,0.0,0.0,0.0,110.66,0.029,2014-01-16T00:00:00,3,1610612760,OKC,Oklahoma City,29-10,36,23,24,21,0,0,0,0,0,0,0,0,0,0,104,0.463,0.88,0.24,18,47,15,0021300580,1610612745,HOU,Houston,Omri Casspi,,,6:21,0.0,0.0,0.0,0.0,0.0,5.0,0.0,4.0,0.0,0.0,0.0,0.0
0021300580,1610612745,HOU,Houston,201956,Omri Casspi,,,6:21,164.5,99.4,65.0,0.0,0.0,0.0,0.0,0.125,0.071,0.0,0.0,0.0,0.0,110.66,0.029,2014-01-16T00:00:00,3,1610612745,HOU,Houston,26-15,32,41,10,9,0,0,0,0,0,0,0,0,0,0,92,0.402,0.667,0.353,20,42,17,0021300580,1610612745,HOU,Houston,Omri Casspi,,,6:21,0.0,0.0,0.0,0.0,0.0,5.0,0.0,4.0,0.0,0.0,0.0,0.0
0021300580,1610612745,HOU,Houston,201600,Omer Asik,,DND - Right Thigh/Knee,,,,,,,0.0,,,,,,,0.0,,,2014-01-16T00:00:00,3,1610612760,OKC,Oklahoma City,29-10,36,23,24,21,0,0,0,0,0,0,0,0,0,0,104,0.463,0.88,0.24,18,47,15,0021300580,1610612745,HOU,Houston,Omer Asik,,DND - Right Thigh/Knee,,,,,,,,,,,,,
0021300580,1610612745,HOU,Houston,201600,Omer Asik,,DND - Right Thigh/Knee,,,,,,,0.0,,,,,,,0.0,,,2014-01-16T00:00:00,3,1610612745,HOU,Houston,26-15,32,41,10,9,0,0,0,0,0,0,0,0,0,0,92,0.402,0.667,0.353,20,42,17,0021300580,1610612745,HOU,Houston,Omer Asik,,DND - Right Thigh/Knee,,,,,,,,,,,,,
0021300580,1610612745,HOU,Houston,200758,Ronnie Brewer,,DNP - Coach's Decision,,,,,,,0.0,,,,,,,0.0,,,2014-01-16T00:00:00,3,1610612760,OKC,Oklahoma City,29-10,36,23,24,21,0,0,0,0,0,0,0,0,0,0,104,0.463,0.88,0.24,18,47,15,0021300580,1610612745,HOU,Houston,Ronnie Brewer,,DNP - Coach's Decision,,,,,,,,,,,,,
0021300580,1610612745,HOU,Houston,200758,Ronnie Brewer,,DNP - Coach's Decision,,,,,,,0.0,,,,,,,0.0,,,2014-01-16T00:00:00,3,1610612745,HOU,Houston,26-15,32,41,10,9,0,0,0,0,0,0,0,0,0,0,92,0.402,0.667,0.353,20,42,17,0021300580,1610612745,HOU,Houston,Ronnie Brewer,,DNP - Coach's Decision,,,,,,,,,,,,,
0021300580,1610612745,HOU,Houston,203477,Isaiah Canaan,,DNP - Coach's Decision,,,,,,,0.0,,,,,,,0.0,,,2014-01-16T00:00:00,3,1610612760,OKC,Oklahoma City,29-10,36,23,24,21,0,0,0,0,0,0,0,0,0,0,104,0.463,0.88,0.24,18,47,15,0021300580,1610612745,HOU,Houston,Isaiah Canaan,,DNP - Coach's Decision,,,,,,,,,,,,,
0021300580,1610612745,HOU,Houston,203477,Isaiah Canaan,,DNP - Coach's Decision,,,,,,,0.0,,,,,,,0.0,,,2014-01-16T00:00:00,3,1610612745,HOU,Houston,26-15,32,41,10,9,0,0,0,0,0,0,0,0,0,0,92,0.402,0.667,0.353,20,42,17,0021300580,1610612745,HOU,Houston,Isaiah Canaan,,DNP - Coach's Decision,,,,,,,,,,,,,
0021300580,1610612745,HOU,Houston,202962,Greg Smith,,DND - Sore Right Knee,,,,,,,0.0,,,,,,,0.0,,,2014-01-16T00:00:00,3,1610612760,OKC,Oklahoma City,29-10,36,23,24,21,0,0,0,0,0,0,0,0,0,0,104,0.463,0.88,0.24,18,47,15,0021300580,1610612745,HOU,Houston,Greg Smith,,DND - Sore Right Knee,,,,,,,,,,,,,
0021300580,1610612745,HOU,Houston,202962,Greg Smith,,DND - Sore Right Knee,,,,,,,0.0,,,,,,,0.0,,,2014-01-16T00:00:00,3,1610612745,HOU,Houston,26-15,32,41,10,9,0,0,0,0,0,0,0,0,0,0,92,0.402,0.667,0.353,20,42,17,0021300580,1610612745,HOU,Houston,Greg Smith,,DND - Sore Right Knee,,,,,,,,,,,,,
