GAME_ID_x,TEAM_ID_x,TEAM_ABBREVIATION_x,TEAM_CITY_x,PLAYER_ID,PLAYER_NAME_x,START_POSITION_x,COMMENT_x,MIN_x,OFF_RATING,DEF_RATING,NET_RATING,AST_PCT,AST_TOV,AST_RATIO,OREB_PCT,DREB_PCT,REB_PCT,TM_TOV_PCT,EFG_PCT,TS_PCT,USG_PCT,PACE,PIE,GAME_DATE_EST,GAME_SEQUENCE,TEAM_ID_y,TEAM_ABBREVIATION_y,TEAM_CITY_NAME,TEAM_WINS_LOSSES,PTS_QTR1,PTS_QTR2,PTS_QTR3,PTS_QTR4,PTS_OT1,PTS_OT2,PTS_OT3,PTS_OT4,PTS_OT5,PTS_OT6,PTS_OT7,PTS_OT8,PTS_OT9,PTS_OT10,PTS,FG_PCT,FT_PCT,FG3_PCT,AST,REB,TOV,GAME_ID_y,TEAM_ID,TEAM_ABBREVIATION,TEAM_CITY_y,PLAYER_NAME_y,START_POSITION_y,COMMENT_y,MIN_y,PTS_OFF_TOV,PTS_2ND_CHANCE,PTS_FB,PTS_PAINT,OPP_PTS_OFF_TOV,OPP_PTS_2ND_CHANCE,OPP_PTS_FB,OPP_PTS_PAINT,BLK,BLKA,PF,PFD
0021300600,1610612757,POR,Portland,201587,Nicolas Batum,F,,33:14,134.8,87.6,47.2,0.038,1.0,7.0,0.0,0.194,0.108,7.0,0.864,0.852,0.164,105.77,0.164,2014-01-18T00:00:00,8,1610612757,POR,Portland,31-9,35,36,33,23,0,0,0,0,0,0,0,0,0,0,127,0.511,0.929,0.346,26,55,15,0021300600,1610612757,POR,Portland,Nicolas Batum,F,,33:14,0.0,3.0,5.0,10.0,4.0,5.0,0.0,18.0,0.0,0.0,0.0,2.0
0021300600,1610612757,POR,Portland,201587,Nicolas Batum,F,,33:14,134.8,87.6,47.2,0.038,1.0,7.0,0.0,0.194,0.108,7.0,0.864,0.852,0.164,105.77,0.164,2014-01-18T00:00:00,8,1610612742,DAL,Dallas,24-18,23,29,18,41,0,0,0,0,0,0,0,0,0,0,111,0.467,0.8,0.389,15,30,8,0021300600,1610612757,POR,Portland,Nicolas Batum,F,,33:14,0.0,3.0,5.0,10.0,4.0,5.0,0.0,18.0,0.0,0.0,0.0,2.0
0021300600,1610612757,POR,Portland,200746,LaMarcus Aldridge,F,,31:30,137.7,85.1,52.6,0.091,0.5,7.2,0.107,0.257,0.19,14.3,0.611,0.683,0.331,105.61,0.228,2014-01-18T00:00:00,8,1610612757,POR,Portland,31-9,35,36,33,23,0,0,0,0,0,0,0,0,0,0,127,0.511,0.929,0.346,26,55,15,0021300600,1610612757,POR,Portland,LaMarcus Aldridge,F,,31:30,2.0,6.0,4.0,14.0,2.0,5.0,0.0,16.0,1.0,0.0,2.0,6.0
0021300600,1610612757,POR,Portland,200746,LaMarcus Aldridge,F,,31:30,137.7,85.1,52.6,0.091,0.5,7.2,0.107,0.257,0.19,14.3,0.611,0.683,0.331,105.61,0.228,2014-01-18T00:00:00,8,1610612742,DAL,Dallas,24-18,23,29,18,41,0,0,0,0,0,0,0,0,0,0,111,0.467,0.8,0.389,15,30,8,0021300600,1610612757,POR,Portland,LaMarcus Aldridge,F,,31:30,2.0,6.0,4.0,14.0,2.0,5.0,0.0,16.0,1.0,0.0,2.0,6.0
0021300600,1610612757,POR,Portland,201577,Robin Lopez,C,,26:01,132.2,90.3,42.0,0.105,0.0,12.6,0.167,0.286,0.231,0.0,0.538,0.576,0.216,107.88,0.181,2014-01-18T00:00:00,8,1610612757,POR,Portland,31-9,35,36,33,23,0,0,0,0,0,0,0,0,0,0,127,0.511,0.929,0.346,26,55,15,0021300600,1610612757,POR,Portland,Robin Lopez,C,,26:01,2.0,2.0,2.0,12.0,2.0,5.0,0.0,14.0,3.0,1.0,2.0,2.0
0021300600,1610612757,POR,Portland,201577,Robin Lopez,C,,26:01,132.2,90.3,42.0,0.105,0.0,12.6,0.167,0.286,0.231,0.0,0.538,0.576,0.216,107.88,0.181,2014-01-18T00:00:00,8,1610612742,DAL,Dallas,24-18,23,29,18,41,0,0,0,0,0,0,0,0,0,0,111,0.467,0.8,0.389,15,30,8,0021300600,1610612757,POR,Portland,Robin Lopez,C,,26:01,2.0,2.0,2.0,12.0,2.0,5.0,0.0,14.0,3.0,1.0,2.0,2.0
0021300600,1610612757,POR,Portland,202083,Wesley Matthews,G,,27:37,129.2,94.7,34.5,0.115,1.5,18.9,0.0,0.071,0.041,12.6,0.4,0.46,0.192,107.92,0.038,2014-01-18T00:00:00,8,1610612757,POR,Portland,31-9,35,36,33,23,0,0,0,0,0,0,0,0,0,0,127,0.511,0.929,0.346,26,55,15,0021300600,1610612757,POR,Portland,Wesley Matthews,G,,27:37,0.0,0.0,3.0,2.0,7.0,5.0,5.0,18.0,0.0,1.0,2.0,2.0
0021300600,1610612757,POR,Portland,202083,Wesley Matthews,G,,27:37,129.2,94.7,34.5,0.115,1.5,18.9,0.0,0.071,0.041,12.6,0.4,0.46,0.192,107.92,0.038,2014-01-18T00:00:00,8,1610612742,DAL,Dallas,24-18,23,29,18,41,0,0,0,0,0,0,0,0,0,0,111,0.467,0.8,0.389,15,30,8,0021300600,1610612757,POR,Portland,Wesley Matthews,G,,27:37,0.0,0.0,3.0,2.0,7.0,5.0,5.0,18.0,0.0,1.0,2.0,2.0
0021300600,1610612757,POR,Portland,203081,Damian Lillard,G,,30:56,120.9,82.5,38.4,0.37,10.0,46.2,0.0,0.143,0.079,4.6,0.5,0.658,0.149,109.71,0.157,2014-01-18T00:00:00,8,1610612757,POR,Portland,31-9,35,36,33,23,0,0,0,0,0,0,0,0,0,0,127,0.511,0.929,0.346,26,55,15,0021300600,1610612757,POR,Portland,Damian Lillard,G,,30:56,2.0,0.0,9.0,2.0,7.0,5.0,5.0,20.0,0.0,0.0,3.0,2.0
0021300600,1610612757,POR,Portland,203081,Damian Lillard,G,,30:56,120.9,82.5,38.4,0.37,10.0,46.2,0.0,0.143,0.079,4.6,0.5,0.658,0.149,109.71,0.157,2014-01-18T00:00:00,8,1610612742,DAL,Dallas,24-18,23,29,18,41,0,0,0,0,0,0,0,0,0,0,111,0.467,0.8,0.389,15,30,8,0021300600,1610612757,POR,Portland,Damian Lillard,G,,30:56,2.0,0.0,9.0,2.0,7.0,5.0,5.0,20.0,0.0,0.0,3.0,2.0
0021300600,1610612757,POR,Portland,2590,Mo Williams,,,19:11,127.4,99.3,28.0,0.167,0.0,30.4,0.0,0.211,0.114,0.0,0.5,0.581,0.145,104.71,0.149,2014-01-18T00:00:00,8,1610612757,POR,Portland,31-9,35,36,33,23,0,0,0,0,0,0,0,0,0,0,127,0.511,0.929,0.346,26,55,15,0021300600,1610612757,POR,Portland,Mo Williams,,,19:11,2.0,0.0,2.0,6.0,7.0,0.0,5.0,12.0,0.0,0.0,2.0,3.0
0021300600,1610612757,POR,Portland,2590,Mo Williams,,,19:11,127.4,99.3,28.0,0.167,0.0,30.4,0.0,0.211,0.114,0.0,0.5,0.581,0.145,104.71,0.149,2014-01-18T00:00:00,8,1610612742,DAL,Dallas,24-18,23,29,18,41,0,0,0,0,0,0,0,0,0,0,111,0.467,0.8,0.389,15,30,8,0021300600,1610612757,POR,Portland,Mo Williams,,,19:11,2.0,0.0,2.0,6.0,7.0,0.0,5.0,12.0,0.0,0.0,2.0,3.0
0021300600,1610612757,POR,Portland,200777,Joel Freeland,,,12:57,139.1,101.3,37.8,0.077,0.0,25.0,0.286,0.25,0.263,0.0,1.0,1.0,0.099,101.86,0.145,2014-01-18T00:00:00,8,1610612757,POR,Portland,31-9,35,36,33,23,0,0,0,0,0,0,0,0,0,0,127,0.511,0.929,0.346,26,55,15,0021300600,1610612757,POR,Portland,Joel Freeland,,,12:57,0.0,2.0,2.0,4.0,7.0,0.0,5.0,10.0,0.0,0.0,2.0,0.0
0021300600,1610612757,POR,Portland,200777,Joel Freeland,,,12:57,139.1,101.3,37.8,0.077,0.0,25.0,0.286,0.25,0.263,0.0,1.0,1.0,0.099,101.86,0.145,2014-01-18T00:00:00,8,1610612742,DAL,Dallas,24-18,23,29,18,41,0,0,0,0,0,0,0,0,0,0,111,0.467,0.8,0.389,15,30,8,0021300600,1610612757,POR,Portland,Joel Freeland,,,12:57,0.0,2.0,2.0,4.0,7.0,0.0,5.0,10.0,0.0,0.0,2.0,0.0
0021300600,1610612757,POR,Portland,203468,CJ McCollum,,,16:49,131.4,150.7,-19.3,0.077,0.0,11.3,0.0,0.1,0.048,0.0,0.5,0.571,0.206,92.8,0.066,2014-01-18T00:00:00,8,1610612757,POR,Portland,31-9,35,36,33,23,0,0,0,0,0,0,0,0,0,0,127,0.511,0.929,0.346,26,55,15,0021300600,1610612757,POR,Portland,CJ McCollum,,,16:49,2.0,3.0,0.0,4.0,11.0,8.0,7.0,18.0,0.0,1.0,2.0,2.0
0021300600,1610612757,POR,Portland,203468,CJ McCollum,,,16:49,131.4,150.7,-19.3,0.077,0.0,11.3,0.0,0.1,0.048,0.0,0.5,0.571,0.206,92.8,0.066,2014-01-18T00:00:00,8,1610612742,DAL,Dallas,24-18,23,29,18,41,0,0,0,0,0,0,0,0,0,0,111,0.467,0.8,0.389,15,30,8,0021300600,1610612757,POR,Portland,CJ McCollum,,,16:49,2.0,3.0,0.0,4.0,11.0,8.0,7.0,18.0,0.0,1.0,2.0,2.0
0021300600,1610612757,POR,Portland,203080,Thomas Robinson,,,16:30,91.2,143.9,-52.6,0.111,0.25,10.0,0.167,0.1,0.136,40.0,0.8,0.8,0.231,101.39,0.063,2014-01-18T00:00:00,8,1610612757,POR,Portland,31-9,35,36,33,23,0,0,0,0,0,0,0,0,0,0,127,0.511,0.929,0.346,26,55,15,0021300600,1610612757,POR,Portland,Thomas Robinson,,,16:30,2.0,4.0,4.0,6.0,16.0,8.0,12.0,22.0,0.0,0.0,2.0,1.0
0021300600,1610612757,POR,Portland,203080,Thomas Robinson,,,16:30,91.2,143.9,-52.6,0.111,0.25,10.0,0.167,0.1,0.136,40.0,0.8,0.8,0.231,101.39,0.063,2014-01-18T00:00:00,8,1610612742,DAL,Dallas,24-18,23,29,18,41,0,0,0,0,0,0,0,0,0,0,111,0.467,0.8,0.389,15,30,8,0021300600,1610612757,POR,Portland,Thomas Robinson,,,16:30,2.0,4.0,4.0,6.0,16.0,8.0,12.0,22.0,0.0,0.0,2.0,1.0
0021300600,1610612757,POR,Portland,203086,Meyers Leonard,,,8:25,69.3,170.1,-100.8,0.5,0.0,40.0,0.125,0.25,0.167,0.0,0.0,0.0,0.144,95.62,-0.1,2014-01-18T00:00:00,8,1610612757,POR,Portland,31-9,35,36,33,23,0,0,0,0,0,0,0,0,0,0,127,0.511,0.929,0.346,26,55,15,0021300600,1610612757,POR,Portland,Meyers Leonard,,,8:25,0.0,0.0,0.0,0.0,9.0,8.0,7.0,14.0,0.0,0.0,3.0,1.0
0021300600,1610612757,POR,Portland,203086,Meyers Leonard,,,8:25,69.3,170.1,-100.8,0.5,0.0,40.0,0.125,0.25,0.167,0.0,0.0,0.0,0.144,95.62,-0.1,2014-01-18T00:00:00,8,1610612742,DAL,Dallas,24-18,23,29,18,41,0,0,0,0,0,0,0,0,0,0,111,0.467,0.8,0.389,15,30,8,0021300600,1610612757,POR,Portland,Meyers Leonard,,,8:25,0.0,0.0,0.0,0.0,9.0,8.0,7.0,14.0,0.0,0.0,3.0,1.0
0021300600,1610612757,POR,Portland,203115,Will Barton,,,8:25,69.3,170.1,-100.8,0.0,0.0,0.0,0.125,0.0,0.083,20.5,0.5,0.644,0.234,95.62,0.1,2014-01-18T00:00:00,8,1610612757,POR,Portland,31-9,35,36,33,23,0,0,0,0,0,0,0,0,0,0,127,0.511,0.929,0.346,26,55,15,0021300600,1610612757,POR,Portland,Will Barton,,,8:25,0.0,2.0,0.0,0.0,9.0,8.0,7.0,14.0,0.0,0.0,0.0,2.0
0021300600,1610612757,POR,Portland,203115,Will Barton,,,8:25,69.3,170.1,-100.8,0.0,0.0,0.0,0.125,0.0,0.083,20.5,0.5,0.644,0.234,95.62,0.1,2014-01-18T00:00:00,8,1610612742,DAL,Dallas,24-18,23,29,18,41,0,0,0,0,0,0,0,0,0,0,111,0.467,0.8,0.389,15,30,8,0021300600,1610612757,POR,Portland,Will Barton,,,8:25,0.0,2.0,0.0,0.0,9.0,8.0,7.0,14.0,0.0,0.0,0.0,2.0
0021300600,1610612757,POR,Portland,2748,Dorell Wright,,,8:25,69.3,170.1,-100.8,0.0,0.0,0.0,0.125,0.0,0.083,40.0,0.0,0.0,0.239,95.62,-0.18,2014-01-18T00:00:00,8,1610612757,POR,Portland,31-9,35,36,33,23,0,0,0,0,0,0,0,0,0,0,127,0.511,0.929,0.346,26,55,15,0021300600,1610612757,POR,Portland,Dorell Wright,,,8:25,0.0,0.0,0.0,0.0,9.0,8.0,7.0,14.0,0.0,0.0,0.0,0.0
0021300600,1610612757,POR,Portland,2748,Dorell Wright,,,8:25,69.3,170.1,-100.8,0.0,0.0,0.0,0.125,0.0,0.083,40.0,0.0,0.0,0.239,95.62,-0.18,2014-01-18T00:00:00,8,1610612742,DAL,Dallas,24-18,23,29,18,41,0,0,0,0,0,0,0,0,0,0,111,0.467,0.8,0.389,15,30,8,0021300600,1610612757,POR,Portland,Dorell Wright,,,8:25,0.0,0.0,0.0,0.0,9.0,8.0,7.0,14.0,0.0,0.0,0.0,0.0
0021300600,1610612757,POR,Portland,2248,Earl Watson,,DNP - Coach's Decision,,,,,,,0.0,,,,,,,0.0,,,2014-01-18T00:00:00,8,1610612757,POR,Portland,31-9,35,36,33,23,0,0,0,0,0,0,0,0,0,0,127,0.511,0.929,0.346,26,55,15,0021300600,1610612757,POR,Portland,Earl Watson,,DNP - Coach's Decision,,,,,,,,,,,,,
0021300600,1610612757,POR,Portland,2248,Earl Watson,,DNP - Coach's Decision,,,,,,,0.0,,,,,,,0.0,,,2014-01-18T00:00:00,8,1610612742,DAL,Dallas,24-18,23,29,18,41,0,0,0,0,0,0,0,0,0,0,111,0.467,0.8,0.389,15,30,8,0021300600,1610612757,POR,Portland,Earl Watson,,DNP - Coach's Decision,,,,,,,,,,,,,
0021300600,1610612742,DAL,Dallas,1890,Shawn Marion,F,,24:01,84.7,126.8,-42.2,0.067,1.0,12.5,0.0,0.136,0.06,12.5,0.25,0.25,0.127,107.49,-0.009,2014-01-18T00:00:00,8,1610612757,POR,Portland,31-9,35,36,33,23,0,0,0,0,0,0,0,0,0,0,127,0.511,0.929,0.346,26,55,15,0021300600,1610612742,DAL,Dallas,Shawn Marion,F,,24:01,0.0,0.0,0.0,0.0,6.0,8.0,22.0,38.0,0.0,0.0,2.0,0.0
0021300600,1610612742,DAL,Dallas,1890,Shawn Marion,F,,24:01,84.7,126.8,-42.2,0.067,1.0,12.5,0.0,0.136,0.06,12.5,0.25,0.25,0.127,107.49,-0.009,2014-01-18T00:00:00,8,1610612742,DAL,Dallas,24-18,23,29,18,41,0,0,0,0,0,0,0,0,0,0,111,0.467,0.8,0.389,15,30,8,0021300600,1610612742,DAL,Dallas,Shawn Marion,F,,24:01,0.0,0.0,0.0,0.0,6.0,8.0,22.0,38.0,0.0,0.0,2.0,0.0
0021300600,1610612742,DAL,Dallas,1717,Dirk Nowitzki,F,,21:39,88.6,137.2,-48.6,0.0,0.0,0.0,0.0,0.176,0.079,0.0,0.382,0.469,0.397,105.01,0.079,2014-01-18T00:00:00,8,1610612757,POR,Portland,31-9,35,36,33,23,0,0,0,0,0,0,0,0,0,0,127,0.511,0.929,0.346,26,55,15,0021300600,1610612742,DAL,Dallas,Dirk Nowitzki,F,,21:39,0.0,3.0,0.0,4.0,6.0,10.0,20.0,28.0,1.0,0.0,3.0,4.0
0021300600,1610612742,DAL,Dallas,1717,Dirk Nowitzki,F,,21:39,88.6,137.2,-48.6,0.0,0.0,0.0,0.0,0.176,0.079,0.0,0.382,0.469,0.397,105.01,0.079,2014-01-18T00:00:00,8,1610612742,DAL,Dallas,24-18,23,29,18,41,0,0,0,0,0,0,0,0,0,0,111,0.467,0.8,0.389,15,30,8,0021300600,1610612742,DAL,Dallas,Dirk Nowitzki,F,,21:39,0.0,3.0,0.0,4.0,6.0,10.0,20.0,28.0,1.0,0.0,3.0,4.0
0021300600,1610612742,DAL,Dallas,2223,Samuel Dalembert,C,,13:21,71.6,131.2,-59.6,0.0,0.0,0.0,0.063,0.5,0.231,33.3,0.5,0.5,0.099,104.75,0.046,2014-01-18T00:00:00,8,1610612757,POR,Portland,31-9,35,36,33,23,0,0,0,0,0,0,0,0,0,0,127,0.511,0.929,0.346,26,55,15,0021300600,1610612742,DAL,Dallas,Samuel Dalembert,C,,13:21,0.0,2.0,0.0,2.0,2.0,2.0,10.0,16.0,0.0,0.0,3.0,0.0
0021300600,1610612742,DAL,Dallas,2223,Samuel Dalembert,C,,13:21,71.6,131.2,-59.6,0.0,0.0,0.0,0.063,0.5,0.231,33.3,0.5,0.5,0.099,104.75,0.046,2014-01-18T00:00:00,8,1610612742,DAL,Dallas,24-18,23,29,18,41,0,0,0,0,0,0,0,0,0,0,111,0.467,0.8,0.389,15,30,8,0021300600,1610612742,DAL,Dallas,Samuel Dalembert,C,,13:21,0.0,2.0,0.0,2.0,2.0,2.0,10.0,16.0,0.0,0.0,3.0,0.0
0021300600,1610612742,DAL,Dallas,101145,Monta Ellis,G,,23:15,88.0,134.6,-46.6,0.182,2.0,11.6,0.0,0.105,0.044,5.8,0.5,0.528,0.28,106.92,0.096,2014-01-18T00:00:00,8,1610612757,POR,Portland,31-9,35,36,33,23,0,0,0,0,0,0,0,0,0,0,127,0.511,0.929,0.346,26,55,15,0021300600,1610612742,DAL,Dallas,Monta Ellis,G,,23:15,7.0,0.0,5.0,4.0,6.0,8.0,18.0,36.0,0.0,1.0,1.0,5.0
0021300600,1610612742,DAL,Dallas,101145,Monta Ellis,G,,23:15,88.0,134.6,-46.6,0.182,2.0,11.6,0.0,0.105,0.044,5.8,0.5,0.528,0.28,106.92,0.096,2014-01-18T00:00:00,8,1610612742,DAL,Dallas,24-18,23,29,18,41,0,0,0,0,0,0,0,0,0,0,111,0.467,0.8,0.389,15,30,8,0021300600,1610612742,DAL,Dallas,Monta Ellis,G,,23:15,7.0,0.0,5.0,4.0,6.0,8.0,18.0,36.0,0.0,1.0,1.0,5.0
0021300600,1610612742,DAL,Dallas,101181,Jose Calderon,G,,20:08,88.4,124.3,-36.0,0.231,3.0,28.7,0.0,0.111,0.05,9.6,0.333,0.388,0.157,109.97,0.045,2014-01-18T00:00:00,8,1610612757,POR,Portland,31-9,35,36,33,23,0,0,0,0,0,0,0,0,0,0,127,0.511,0.929,0.346,26,55,15,0021300600,1610612742,DAL,Dallas,Jose Calderon,G,,20:08,0.0,0.0,0.0,0.0,4.0,6.0,16.0,30.0,0.0,1.0,1.0,1.0
0021300600,1610612742,DAL,Dallas,101181,Jose Calderon,G,,20:08,88.4,124.3,-36.0,0.231,3.0,28.7,0.0,0.111,0.05,9.6,0.333,0.388,0.157,109.97,0.045,2014-01-18T00:00:00,8,1610612742,DAL,Dallas,24-18,23,29,18,41,0,0,0,0,0,0,0,0,0,0,111,0.467,0.8,0.389,15,30,8,0021300600,1610612742,DAL,Dallas,Jose Calderon,G,,20:08,0.0,0.0,0.0,0.0,4.0,6.0,16.0,30.0,0.0,1.0,1.0,1.0
0021300600,1610612742,DAL,Dallas,1713,Vince Carter,,,18:21,87.9,139.4,-51.6,0.0,0.0,0.0,0.0,0.133,0.054,10.1,0.563,0.619,0.242,106.52,0.088,2014-01-18T00:00:00,8,1610612757,POR,Portland,31-9,35,36,33,23,0,0,0,0,0,0,0,0,0,0,127,0.511,0.929,0.346,26,55,15,0021300600,1610612742,DAL,Dallas,Vince Carter,,,18:21,0.0,0.0,0.0,6.0,6.0,12.0,14.0,30.0,0.0,0.0,1.0,2.0
0021300600,1610612742,DAL,Dallas,1713,Vince Carter,,,18:21,87.9,139.4,-51.6,0.0,0.0,0.0,0.0,0.133,0.054,10.1,0.563,0.619,0.242,106.52,0.088,2014-01-18T00:00:00,8,1610612742,DAL,Dallas,24-18,23,29,18,41,0,0,0,0,0,0,0,0,0,0,111,0.467,0.8,0.389,15,30,8,0021300600,1610612742,DAL,Dallas,Vince Carter,,,18:21,0.0,0.0,0.0,6.0,6.0,12.0,14.0,30.0,0.0,0.0,1.0,2.0
0021300600,1610612742,DAL,Dallas,201971,DeJuan Blair,,,26:34,109.4,125.5,-16.1,0.053,1.0,8.8,0.08,0.0,0.041,8.8,0.625,0.697,0.168,104.67,0.068,2014-01-18T00:00:00,8,1610612757,POR,Portland,31-9,35,36,33,23,0,0,0,0,0,0,0,0,0,0,127,0.511,0.929,0.346,26,55,15,0021300600,1610612742,DAL,Dallas,DeJuan Blair,,,26:34,2.0,2.0,2.0,8.0,8.0,15.0,15.0,30.0,1.0,1.0,5.0,2.0
0021300600,1610612742,DAL,Dallas,201971,DeJuan Blair,,,26:34,109.4,125.5,-16.1,0.053,1.0,8.8,0.08,0.0,0.041,8.8,0.625,0.697,0.168,104.67,0.068,2014-01-18T00:00:00,8,1610612742,DAL,Dallas,24-18,23,29,18,41,0,0,0,0,0,0,0,0,0,0,111,0.467,0.8,0.389,15,30,8,0021300600,1610612742,DAL,Dallas,DeJuan Blair,,,26:34,2.0,2.0,2.0,8.0,8.0,15.0,15.0,30.0,1.0,1.0,5.0,2.0
0021300600,1610612742,DAL,Dallas,2734,Devin Harris,,,17:24,104.5,113.6,-9.1,0.167,0.0,25.8,0.0,0.0,0.0,0.0,0.5,0.521,0.154,101.02,0.049,2014-01-18T00:00:00,8,1610612757,POR,Portland,31-9,35,36,33,23,0,0,0,0,0,0,0,0,0,0,127,0.511,0.929,0.346,26,55,15,0021300600,1610612742,DAL,Dallas,Devin Harris,,,17:24,4.0,0.0,0.0,0.0,6.0,12.0,12.0,22.0,0.0,1.0,1.0,2.0
0021300600,1610612742,DAL,Dallas,2734,Devin Harris,,,17:24,104.5,113.6,-9.1,0.167,0.0,25.8,0.0,0.0,0.0,0.0,0.5,0.521,0.154,101.02,0.049,2014-01-18T00:00:00,8,1610612742,DAL,Dallas,24-18,23,29,18,41,0,0,0,0,0,0,0,0,0,0,111,0.467,0.8,0.389,15,30,8,0021300600,1610612742,DAL,Dallas,Devin Harris,,,17:24,4.0,0.0,0.0,0.0,6.0,12.0,12.0,22.0,0.0,1.0,1.0,2.0
0021300600,1610612742,DAL,Dallas,203499,Shane Larkin,,,23:17,123.3,120.7,2.6,0.19,4.0,31.3,0.0,0.111,0.057,7.8,0.5,0.58,0.171,101.33,0.08,2014-01-18T00:00:00,8,1610612757,POR,Portland,31-9,35,36,33,23,0,0,0,0,0,0,0,0,0,0,127,0.511,0.929,0.346,26,55,15,0021300600,1610612742,DAL,Dallas,Shane Larkin,,,23:17,0.0,1.0,0.0,0.0,6.0,12.0,15.0,24.0,0.0,0.0,3.0,2.0
0021300600,1610612742,DAL,Dallas,203499,Shane Larkin,,,23:17,123.3,120.7,2.6,0.19,4.0,31.3,0.0,0.111,0.057,7.8,0.5,0.58,0.171,101.33,0.08,2014-01-18T00:00:00,8,1610612742,DAL,Dallas,24-18,23,29,18,41,0,0,0,0,0,0,0,0,0,0,111,0.467,0.8,0.389,15,30,8,0021300600,1610612742,DAL,Dallas,Shane Larkin,,,23:17,0.0,1.0,0.0,0.0,6.0,12.0,15.0,24.0,0.0,0.0,3.0,2.0
0021300600,1610612742,DAL,Dallas,201148,Brandan Wright,,,19:58,144.7,108.3,36.5,0.105,0.0,20.0,0.083,0.125,0.107,0.0,0.5,0.5,0.178,100.36,0.108,2014-01-18T00:00:00,8,1610612757,POR,Portland,31-9,35,36,33,23,0,0,0,0,0,0,0,0,0,0,127,0.511,0.929,0.346,26,55,15,0021300600,1610612742,DAL,Dallas,Brandan Wright,,,19:58,0.0,2.0,0.0,8.0,4.0,11.0,7.0,22.0,1.0,0.0,0.0,0.0
0021300600,1610612742,DAL,Dallas,201148,Brandan Wright,,,19:58,144.7,108.3,36.5,0.105,0.0,20.0,0.083,0.125,0.107,0.0,0.5,0.5,0.178,100.36,0.108,2014-01-18T00:00:00,8,1610612742,DAL,Dallas,24-18,23,29,18,41,0,0,0,0,0,0,0,0,0,0,111,0.467,0.8,0.389,15,30,8,0021300600,1610612742,DAL,Dallas,Brandan Wright,,,19:58,0.0,2.0,0.0,8.0,4.0,11.0,7.0,22.0,1.0,0.0,0.0,0.0
0021300600,1610612742,DAL,Dallas,203109,Jae Crowder,,,17:32,141.2,98.2,43.0,0.0,0.0,0.0,0.0,0.067,0.04,11.1,0.813,0.813,0.22,102.09,0.14,2014-01-18T00:00:00,8,1610612757,POR,Portland,31-9,35,36,33,23,0,0,0,0,0,0,0,0,0,0,127,0.511,0.929,0.346,26,55,15,0021300600,1610612742,DAL,Dallas,Jae Crowder,,,17:32,5.0,3.0,0.0,2.0,4.0,8.0,5.0,16.0,0.0,0.0,1.0,1.0
0021300600,1610612742,DAL,Dallas,203109,Jae Crowder,,,17:32,141.2,98.2,43.0,0.0,0.0,0.0,0.0,0.067,0.04,11.1,0.813,0.813,0.22,102.09,0.14,2014-01-18T00:00:00,8,1610612742,DAL,Dallas,24-18,23,29,18,41,0,0,0,0,0,0,0,0,0,0,111,0.467,0.8,0.389,15,30,8,0021300600,1610612742,DAL,Dallas,Jae Crowder,,,17:32,5.0,3.0,0.0,2.0,4.0,8.0,5.0,16.0,0.0,0.0,1.0,1.0
0021300600,1610612742,DAL,Dallas,201961,Wayne Ellington,,,14:30,146.9,97.7,49.2,0.0,0.0,0.0,0.0,0.333,0.2,0.0,0.7,0.735,0.167,96.46,0.142,2014-01-18T00:00:00,8,1610612757,POR,Portland,31-9,35,36,33,23,0,0,0,0,0,0,0,0,0,0,127,0.511,0.929,0.346,26,55,15,0021300600,1610612742,DAL,Dallas,Wayne Ellington,,,14:30,0.0,0.0,5.0,4.0,2.0,6.0,1.0,8.0,0.0,0.0,2.0,1.0
0021300600,1610612742,DAL,Dallas,201961,Wayne Ellington,,,14:30,146.9,97.7,49.2,0.0,0.0,0.0,0.0,0.333,0.2,0.0,0.7,0.735,0.167,96.46,0.142,2014-01-18T00:00:00,8,1610612742,DAL,Dallas,24-18,23,29,18,41,0,0,0,0,0,0,0,0,0,0,111,0.467,0.8,0.389,15,30,8,0021300600,1610612742,DAL,Dallas,Wayne Ellington,,,14:30,0.0,0.0,5.0,4.0,2.0,6.0,1.0,8.0,0.0,0.0,2.0,1.0
0021300600,1610612742,DAL,Dallas,203108,Bernard James,,DNP - Coach's Decision,,,,,,,0.0,,,,,,,0.0,,,2014-01-18T00:00:00,8,1610612757,POR,Portland,31-9,35,36,33,23,0,0,0,0,0,0,0,0,0,0,127,0.511,0.929,0.346,26,55,15,0021300600,1610612742,DAL,Dallas,Bernard James,,DNP - Coach's Decision,,,,,,,,,,,,,
0021300600,1610612742,DAL,Dallas,203108,Bernard James,,DNP - Coach's Decision,,,,,,,0.0,,,,,,,0.0,,,2014-01-18T00:00:00,8,1610612742,DAL,Dallas,24-18,23,29,18,41,0,0,0,0,0,0,0,0,0,0,111,0.467,0.8,0.389,15,30,8,0021300600,1610612742,DAL,Dallas,Bernard James,,DNP - Coach's Decision,,,,,,,,,,,,,
