GAME_ID_x,TEAM_ID_x,TEAM_ABBREVIATION_x,TEAM_CITY_x,PLAYER_ID,PLAYER_NAME_x,START_POSITION_x,COMMENT_x,MIN_x,OFF_RATING,DEF_RATING,NET_RATING,AST_PCT,AST_TOV,AST_RATIO,OREB_PCT,DREB_PCT,REB_PCT,TM_TOV_PCT,EFG_PCT,TS_PCT,USG_PCT,PACE,PIE,GAME_DATE_EST,GAME_SEQUENCE,TEAM_ID_y,TEAM_ABBREVIATION_y,TEAM_CITY_NAME,TEAM_WINS_LOSSES,PTS_QTR1,PTS_QTR2,PTS_QTR3,PTS_QTR4,PTS_OT1,PTS_OT2,PTS_OT3,PTS_OT4,PTS_OT5,PTS_OT6,PTS_OT7,PTS_OT8,PTS_OT9,PTS_OT10,PTS,FG_PCT,FT_PCT,FG3_PCT,AST,REB,TOV,GAME_ID_y,TEAM_ID,TEAM_ABBREVIATION,TEAM_CITY_y,PLAYER_NAME_y,START_POSITION_y,COMMENT_y,MIN_y,PTS_OFF_TOV,PTS_2ND_CHANCE,PTS_FB,PTS_PAINT,OPP_PTS_OFF_TOV,OPP_PTS_2ND_CHANCE,OPP_PTS_FB,OPP_PTS_PAINT,BLK,BLKA,PF,PFD
0021300593,1610612748,MIA,Miami,2544,LeBron James,F,,44:52,110.3,90.7,19.6,0.3,3.0,16.0,0.067,0.176,0.125,5.3,0.52,0.578,0.362,86.81,0.209,2014-01-18T00:00:00,3,1610612748,MIA,Miami,29-11,27,26,22,15,14,0,0,0,0,0,0,0,0,0,104,0.494,0.655,0.333,16,43,12,0021300593,1610612748,MIA,Miami,LeBron James,F,,44:52,11.0,2.0,4.0,20.0,12.0,4.0,6.0,40.0,0.0,2.0,4.0,6.0
0021300593,1610612748,MIA,Miami,2544,LeBron James,F,,44:52,110.3,90.7,19.6,0.3,3.0,16.0,0.067,0.176,0.125,5.3,0.52,0.578,0.362,86.81,0.209,2014-01-18T00:00:00,3,1610612766,CHA,Charlotte,17-25,29,31,16,14,6,0,0,0,0,0,0,0,0,0,96,0.48,0.739,0.412,31,34,13,0021300593,1610612748,MIA,Miami,LeBron James,F,,44:52,11.0,2.0,4.0,20.0,12.0,4.0,6.0,40.0,0.0,2.0,4.0,6.0
0021300593,1610612748,MIA,Miami,2203,Shane Battier,F,,19:22,107.9,96.4,11.5,0.059,0.0,100.0,0.067,0.118,0.094,0.0,0.0,0.0,0.0,90.96,0.029,2014-01-18T00:00:00,3,1610612748,MIA,Miami,29-11,27,26,22,15,14,0,0,0,0,0,0,0,0,0,104,0.494,0.655,0.333,16,43,12,0021300593,1610612748,MIA,Miami,Shane Battier,F,,19:22,0.0,0.0,0.0,0.0,6.0,2.0,4.0,20.0,1.0,0.0,2.0,0.0
0021300593,1610612748,MIA,Miami,2203,Shane Battier,F,,19:22,107.9,96.4,11.5,0.059,0.0,100.0,0.067,0.118,0.094,0.0,0.0,0.0,0.0,90.96,0.029,2014-01-18T00:00:00,3,1610612766,CHA,Charlotte,17-25,29,31,16,14,6,0,0,0,0,0,0,0,0,0,96,0.48,0.739,0.412,31,34,13,0021300593,1610612748,MIA,Miami,Shane Battier,F,,19:22,0.0,0.0,0.0,0.0,6.0,2.0,4.0,20.0,1.0,0.0,2.0,0.0
0021300593,1610612748,MIA,Miami,2547,Chris Bosh,C,,37:13,96.8,85.6,11.2,0.0,0.0,0.0,0.069,0.167,0.119,14.8,0.719,0.722,0.27,88.24,0.185,2014-01-18T00:00:00,3,1610612748,MIA,Miami,29-11,27,26,22,15,14,0,0,0,0,0,0,0,0,0,104,0.494,0.655,0.333,16,43,12,0021300593,1610612748,MIA,Miami,Chris Bosh,C,,37:13,2.0,2.0,0.0,8.0,8.0,0.0,6.0,28.0,0.0,0.0,3.0,2.0
0021300593,1610612748,MIA,Miami,2547,Chris Bosh,C,,37:13,96.8,85.6,11.2,0.0,0.0,0.0,0.069,0.167,0.119,14.8,0.719,0.722,0.27,88.24,0.185,2014-01-18T00:00:00,3,1610612766,CHA,Charlotte,17-25,29,31,16,14,6,0,0,0,0,0,0,0,0,0,96,0.48,0.739,0.412,31,34,13,0021300593,1610612748,MIA,Miami,Chris Bosh,C,,37:13,2.0,2.0,0.0,8.0,8.0,0.0,6.0,28.0,0.0,0.0,3.0,2.0
0021300593,1610612748,MIA,Miami,951,Ray Allen,G,,40:16,108.2,88.3,19.9,0.04,1.0,7.4,0.0,0.273,0.145,7.4,0.5,0.524,0.156,87.93,0.117,2014-01-18T00:00:00,3,1610612748,MIA,Miami,29-11,27,26,22,15,14,0,0,0,0,0,0,0,0,0,104,0.494,0.655,0.333,16,43,12,0021300593,1610612748,MIA,Miami,Ray Allen,G,,40:16,0.0,0.0,0.0,4.0,12.0,2.0,6.0,34.0,0.0,0.0,1.0,3.0
0021300593,1610612748,MIA,Miami,951,Ray Allen,G,,40:16,108.2,88.3,19.9,0.04,1.0,7.4,0.0,0.273,0.145,7.4,0.5,0.524,0.156,87.93,0.117,2014-01-18T00:00:00,3,1610612766,CHA,Charlotte,17-25,29,31,16,14,6,0,0,0,0,0,0,0,0,0,96,0.48,0.739,0.412,31,34,13,0021300593,1610612748,MIA,Miami,Ray Allen,G,,40:16,0.0,0.0,0.0,4.0,12.0,2.0,6.0,34.0,0.0,0.0,1.0,3.0
0021300593,1610612748,MIA,Miami,201596,Mario Chalmers,G,,38:11,112.3,100.4,11.9,0.185,1.0,25.3,0.0,0.077,0.037,25.3,0.375,0.461,0.203,83.92,0.043,2014-01-18T00:00:00,3,1610612748,MIA,Miami,29-11,27,26,22,15,14,0,0,0,0,0,0,0,0,0,104,0.494,0.655,0.333,16,43,12,0021300593,1610612748,MIA,Miami,Mario Chalmers,G,,38:11,0.0,2.0,3.0,6.0,4.0,2.0,4.0,30.0,1.0,2.0,3.0,4.0
0021300593,1610612748,MIA,Miami,201596,Mario Chalmers,G,,38:11,112.3,100.4,11.9,0.185,1.0,25.3,0.0,0.077,0.037,25.3,0.375,0.461,0.203,83.92,0.043,2014-01-18T00:00:00,3,1610612766,CHA,Charlotte,17-25,29,31,16,14,6,0,0,0,0,0,0,0,0,0,96,0.48,0.739,0.412,31,34,13,0021300593,1610612748,MIA,Miami,Mario Chalmers,G,,38:11,0.0,2.0,3.0,6.0,4.0,2.0,4.0,30.0,1.0,2.0,3.0,4.0
0021300593,1610612748,MIA,Miami,202708,Norris Cole,,,20:38,85.7,107.3,-21.6,0.091,0.0,14.3,0.0,0.143,0.069,0.0,0.25,0.25,0.137,93.05,-0.02,2014-01-18T00:00:00,3,1610612748,MIA,Miami,29-11,27,26,22,15,14,0,0,0,0,0,0,0,0,0,104,0.494,0.655,0.333,16,43,12,0021300593,1610612748,MIA,Miami,Norris Cole,,,20:38,0.0,0.0,0.0,0.0,12.0,4.0,6.0,24.0,0.0,1.0,3.0,0.0
0021300593,1610612748,MIA,Miami,202708,Norris Cole,,,20:38,85.7,107.3,-21.6,0.091,0.0,14.3,0.0,0.143,0.069,0.0,0.25,0.25,0.137,93.05,-0.02,2014-01-18T00:00:00,3,1610612766,CHA,Charlotte,17-25,29,31,16,14,6,0,0,0,0,0,0,0,0,0,96,0.48,0.739,0.412,31,34,13,0021300593,1610612748,MIA,Miami,Norris Cole,,,20:38,0.0,0.0,0.0,0.0,12.0,4.0,6.0,24.0,0.0,1.0,3.0,0.0
0021300593,1610612748,MIA,Miami,2617,Udonis Haslem,,,30:48,113.4,102.7,10.7,0.05,0.0,10.9,0.143,0.35,0.244,0.0,0.333,0.366,0.144,81.54,0.1,2014-01-18T00:00:00,3,1610612748,MIA,Miami,29-11,27,26,22,15,14,0,0,0,0,0,0,0,0,0,104,0.494,0.655,0.333,16,43,12,0021300593,1610612748,MIA,Miami,Udonis Haslem,,,30:48,0.0,0.0,0.0,4.0,8.0,4.0,4.0,24.0,3.0,1.0,1.0,5.0
0021300593,1610612748,MIA,Miami,2617,Udonis Haslem,,,30:48,113.4,102.7,10.7,0.05,0.0,10.9,0.143,0.35,0.244,0.0,0.333,0.366,0.144,81.54,0.1,2014-01-18T00:00:00,3,1610612766,CHA,Charlotte,17-25,29,31,16,14,6,0,0,0,0,0,0,0,0,0,96,0.48,0.739,0.412,31,34,13,0021300593,1610612748,MIA,Miami,Udonis Haslem,,,30:48,0.0,0.0,0.0,4.0,8.0,4.0,4.0,24.0,3.0,1.0,1.0,5.0
0021300593,1610612748,MIA,Miami,1740,Rashard Lewis,,,15:27,109.2,137.2,-28.1,0.0,0.0,0.0,0.0,0.0,0.0,0.0,0.7,0.7,0.164,86.0,0.085,2014-01-18T00:00:00,3,1610612748,MIA,Miami,29-11,27,26,22,15,14,0,0,0,0,0,0,0,0,0,104,0.494,0.655,0.333,16,43,12,0021300593,1610612748,MIA,Miami,Rashard Lewis,,,15:27,2.0,0.0,0.0,2.0,4.0,2.0,2.0,16.0,0.0,0.0,0.0,0.0
0021300593,1610612748,MIA,Miami,1740,Rashard Lewis,,,15:27,109.2,137.2,-28.1,0.0,0.0,0.0,0.0,0.0,0.0,0.0,0.7,0.7,0.164,86.0,0.085,2014-01-18T00:00:00,3,1610612766,CHA,Charlotte,17-25,29,31,16,14,6,0,0,0,0,0,0,0,0,0,96,0.48,0.739,0.412,31,34,13,0021300593,1610612748,MIA,Miami,Rashard Lewis,,,15:27,2.0,0.0,0.0,2.0,4.0,2.0,2.0,16.0,0.0,0.0,0.0,0.0
0021300593,1610612748,MIA,Miami,201563,Michael Beasley,,,6:27,144.4,158.2,-13.8,0.2,0.0,26.6,0.0,0.5,0.25,0.0,1.5,0.906,0.228,88.26,0.147,2014-01-18T00:00:00,3,1610612748,MIA,Miami,29-11,27,26,22,15,14,0,0,0,0,0,0,0,0,0,104,0.494,0.655,0.333,16,43,12,0021300593,1610612748,MIA,Miami,Michael Beasley,,,6:27,0.0,3.0,0.0,0.0,0.0,0.0,0.0,8.0,0.0,0.0,1.0,2.0
0021300593,1610612748,MIA,Miami,201563,Michael Beasley,,,6:27,144.4,158.2,-13.8,0.2,0.0,26.6,0.0,0.5,0.25,0.0,1.5,0.906,0.228,88.26,0.147,2014-01-18T00:00:00,3,1610612766,CHA,Charlotte,17-25,29,31,16,14,6,0,0,0,0,0,0,0,0,0,96,0.48,0.739,0.412,31,34,13,0021300593,1610612748,MIA,Miami,Michael Beasley,,,6:27,0.0,3.0,0.0,0.0,0.0,0.0,0.0,8.0,0.0,0.0,1.0,2.0
0021300593,1610612748,MIA,Miami,2427,Roger Mason Jr.,,,6:55,150.5,141.1,9.4,0.0,0.0,0.0,0.0,0.0,0.0,0.0,1.0,1.0,0.077,85.78,0.0,2014-01-18T00:00:00,3,1610612748,MIA,Miami,29-11,27,26,22,15,14,0,0,0,0,0,0,0,0,0,104,0.494,0.655,0.333,16,43,12,0021300593,1610612748,MIA,Miami,Roger Mason Jr.,,,6:55,0.0,0.0,0.0,0.0,0.0,0.0,0.0,8.0,0.0,0.0,2.0,0.0
0021300593,1610612748,MIA,Miami,2427,Roger Mason Jr.,,,6:55,150.5,141.1,9.4,0.0,0.0,0.0,0.0,0.0,0.0,0.0,1.0,1.0,0.077,85.78,0.0,2014-01-18T00:00:00,3,1610612766,CHA,Charlotte,17-25,29,31,16,14,6,0,0,0,0,0,0,0,0,0,96,0.48,0.739,0.412,31,34,13,0021300593,1610612748,MIA,Miami,Roger Mason Jr.,,,6:55,0.0,0.0,0.0,0.0,0.0,0.0,0.0,8.0,0.0,0.0,2.0,0.0
0021300593,1610612748,MIA,Miami,201141,Greg Oden,,,4:51,83.6,94.5,-10.9,0.0,0.0,0.0,0.0,0.0,0.0,53.2,0.0,0.568,0.175,110.85,-0.308,2014-01-18T00:00:00,3,1610612748,MIA,Miami,29-11,27,26,22,15,14,0,0,0,0,0,0,0,0,0,104,0.494,0.655,0.333,16,43,12,0021300593,1610612748,MIA,Miami,Greg Oden,,,4:51,0.0,0.0,0.0,0.0,4.0,0.0,2.0,8.0,0.0,0.0,3.0,1.0
0021300593,1610612748,MIA,Miami,201141,Greg Oden,,,4:51,83.6,94.5,-10.9,0.0,0.0,0.0,0.0,0.0,0.0,53.2,0.0,0.568,0.175,110.85,-0.308,2014-01-18T00:00:00,3,1610612766,CHA,Charlotte,17-25,29,31,16,14,6,0,0,0,0,0,0,0,0,0,96,0.48,0.739,0.412,31,34,13,0021300593,1610612748,MIA,Miami,Greg Oden,,,4:51,0.0,0.0,0.0,0.0,4.0,0.0,2.0,8.0,0.0,0.0,3.0,1.0
0021300593,1610612748,MIA,Miami,2592,James Jones,,DNP - Coach's Decision,,,,,,,0.0,,,,,,,0.0,,,2014-01-18T00:00:00,3,1610612748,MIA,Miami,29-11,27,26,22,15,14,0,0,0,0,0,0,0,0,0,104,0.494,0.655,0.333,16,43,12,0021300593,1610612748,MIA,Miami,James Jones,,DNP - Coach's Decision,,,,,,,,,,,,,
0021300593,1610612748,MIA,Miami,2592,James Jones,,DNP - Coach's Decision,,,,,,,0.0,,,,,,,0.0,,,2014-01-18T00:00:00,3,1610612766,CHA,Charlotte,17-25,29,31,16,14,6,0,0,0,0,0,0,0,0,0,96,0.48,0.739,0.412,31,34,13,0021300593,1610612748,MIA,Miami,James Jones,,DNP - Coach's Decision,,,,,,,,,,,,,
0021300593,1610612748,MIA,Miami,2548,Dwyane Wade,,DND - Rest,,,,,,,0.0,,,,,,,0.0,,,2014-01-18T00:00:00,3,1610612748,MIA,Miami,29-11,27,26,22,15,14,0,0,0,0,0,0,0,0,0,104,0.494,0.655,0.333,16,43,12,0021300593,1610612748,MIA,Miami,Dwyane Wade,,DND - Rest,,,,,,,,,,,,,
0021300593,1610612748,MIA,Miami,2548,Dwyane Wade,,DND - Rest,,,,,,,0.0,,,,,,,0.0,,,2014-01-18T00:00:00,3,1610612766,CHA,Charlotte,17-25,29,31,16,14,6,0,0,0,0,0,0,0,0,0,96,0.48,0.739,0.412,31,34,13,0021300593,1610612748,MIA,Miami,Dwyane Wade,,DND - Rest,,,,,,,,,,,,,
0021300593,1610612766,CHA,Charlotte,203077,Michael Kidd-Gilchrist,F,,16:27,97.2,119.3,-22.2,0.091,1.0,20.0,0.214,0.182,0.2,20.0,0.833,0.833,0.118,91.51,0.065,2014-01-18T00:00:00,3,1610612748,MIA,Miami,29-11,27,26,22,15,14,0,0,0,0,0,0,0,0,0,104,0.494,0.655,0.333,16,43,12,0021300593,1610612766,CHA,Charlotte,Michael Kidd-Gilchrist,F,,16:27,2.0,2.0,0.0,2.0,6.0,2.0,4.0,22.0,1.0,0.0,4.0,1.0
0021300593,1610612766,CHA,Charlotte,203077,Michael Kidd-Gilchrist,F,,16:27,97.2,119.3,-22.2,0.091,1.0,20.0,0.214,0.182,0.2,20.0,0.833,0.833,0.118,91.51,0.065,2014-01-18T00:00:00,3,1610612766,CHA,Charlotte,17-25,29,31,16,14,6,0,0,0,0,0,0,0,0,0,96,0.48,0.739,0.412,31,34,13,0021300593,1610612766,CHA,Charlotte,Michael Kidd-Gilchrist,F,,16:27,2.0,2.0,0.0,2.0,6.0,2.0,4.0,22.0,1.0,0.0,4.0,1.0
0021300593,1610612766,CHA,Charlotte,201177,Josh McRoberts,F,,38:13,102.5,107.7,-5.2,0.261,6.0,43.2,0.0,0.067,0.035,7.2,0.667,0.727,0.109,88.41,0.087,2014-01-18T00:00:00,3,1610612748,MIA,Miami,29-11,27,26,22,15,14,0,0,0,0,0,0,0,0,0,104,0.494,0.655,0.333,16,43,12,0021300593,1610612766,CHA,Charlotte,Josh McRoberts,F,,38:13,2.0,0.0,2.0,2.0,9.0,7.0,5.0,36.0,0.0,0.0,4.0,2.0
0021300593,1610612766,CHA,Charlotte,201177,Josh McRoberts,F,,38:13,102.5,107.7,-5.2,0.261,6.0,43.2,0.0,0.067,0.035,7.2,0.667,0.727,0.109,88.41,0.087,2014-01-18T00:00:00,3,1610612766,CHA,Charlotte,17-25,29,31,16,14,6,0,0,0,0,0,0,0,0,0,96,0.48,0.739,0.412,31,34,13,0021300593,1610612766,CHA,Charlotte,Josh McRoberts,F,,38:13,2.0,0.0,2.0,2.0,9.0,7.0,5.0,36.0,0.0,0.0,4.0,2.0
0021300593,1610612766,CHA,Charlotte,2744,Al Jefferson,C,,43:16,89.8,103.1,-13.3,0.188,3.0,10.1,0.0,0.467,0.219,3.4,0.435,0.429,0.329,86.8,0.154,2014-01-18T00:00:00,3,1610612748,MIA,Miami,29-11,27,26,22,15,14,0,0,0,0,0,0,0,0,0,104,0.494,0.655,0.333,16,43,12,0021300593,1610612766,CHA,Charlotte,Al Jefferson,C,,43:16,4.0,0.0,2.0,20.0,13.0,4.0,5.0,34.0,1.0,3.0,4.0,5.0
0021300593,1610612766,CHA,Charlotte,2744,Al Jefferson,C,,43:16,89.8,103.1,-13.3,0.188,3.0,10.1,0.0,0.467,0.219,3.4,0.435,0.429,0.329,86.8,0.154,2014-01-18T00:00:00,3,1610612766,CHA,Charlotte,17-25,29,31,16,14,6,0,0,0,0,0,0,0,0,0,96,0.48,0.739,0.412,31,34,13,0021300593,1610612766,CHA,Charlotte,Al Jefferson,C,,43:16,4.0,0.0,2.0,20.0,13.0,4.0,5.0,34.0,1.0,3.0,4.0,5.0
0021300593,1610612766,CHA,Charlotte,201945,Gerald Henderson,G,,40:11,94.5,118.3,-23.8,0.217,2.5,25.9,0.0,0.1,0.049,10.4,0.364,0.446,0.183,88.82,0.047,2014-01-18T00:00:00,3,1610612748,MIA,Miami,29-11,27,26,22,15,14,0,0,0,0,0,0,0,0,0,104,0.494,0.655,0.333,16,43,12,0021300593,1610612766,CHA,Charlotte,Gerald Henderson,G,,40:11,0.0,0.0,0.0,2.0,10.0,7.0,6.0,38.0,1.0,1.0,5.0,4.0
0021300593,1610612766,CHA,Charlotte,201945,Gerald Henderson,G,,40:11,94.5,118.3,-23.8,0.217,2.5,25.9,0.0,0.1,0.049,10.4,0.364,0.446,0.183,88.82,0.047,2014-01-18T00:00:00,3,1610612766,CHA,Charlotte,17-25,29,31,16,14,6,0,0,0,0,0,0,0,0,0,96,0.48,0.739,0.412,31,34,13,0021300593,1610612766,CHA,Charlotte,Gerald Henderson,G,,40:11,0.0,0.0,0.0,2.0,10.0,7.0,6.0,38.0,1.0,1.0,5.0,4.0
0021300593,1610612766,CHA,Charlotte,202689,Kemba Walker,G,,22:10,102.6,95.4,7.2,0.471,8.0,44.0,0.0,0.067,0.029,5.5,0.143,0.326,0.218,93.98,0.117,2014-01-18T00:00:00,3,1610612748,MIA,Miami,29-11,27,26,22,15,14,0,0,0,0,0,0,0,0,0,104,0.494,0.655,0.333,16,43,12,0021300593,1610612766,CHA,Charlotte,Kemba Walker,G,,22:10,0.0,0.0,0.0,2.0,5.0,2.0,4.0,16.0,1.0,0.0,1.0,4.0
0021300593,1610612766,CHA,Charlotte,202689,Kemba Walker,G,,22:10,102.6,95.4,7.2,0.471,8.0,44.0,0.0,0.067,0.029,5.5,0.143,0.326,0.218,93.98,0.117,2014-01-18T00:00:00,3,1610612766,CHA,Charlotte,17-25,29,31,16,14,6,0,0,0,0,0,0,0,0,0,96,0.48,0.739,0.412,31,34,13,0021300593,1610612766,CHA,Charlotte,Kemba Walker,G,,22:10,0.0,0.0,0.0,2.0,5.0,2.0,4.0,16.0,1.0,0.0,1.0,4.0
0021300593,1610612766,CHA,Charlotte,203469,Cody Zeller,,,14:47,92.7,106.9,-14.1,0.25,2.0,26.9,0.0,0.125,0.05,13.4,0.5,0.563,0.195,84.59,0.078,2014-01-18T00:00:00,3,1610612748,MIA,Miami,29-11,27,26,22,15,14,0,0,0,0,0,0,0,0,0,104,0.494,0.655,0.333,16,43,12,0021300593,1610612766,CHA,Charlotte,Cody Zeller,,,14:47,0.0,2.0,0.0,2.0,6.0,2.0,2.0,8.0,0.0,0.0,2.0,2.0
0021300593,1610612766,CHA,Charlotte,203469,Cody Zeller,,,14:47,92.7,106.9,-14.1,0.25,2.0,26.9,0.0,0.125,0.05,13.4,0.5,0.563,0.195,84.59,0.078,2014-01-18T00:00:00,3,1610612766,CHA,Charlotte,17-25,29,31,16,14,6,0,0,0,0,0,0,0,0,0,96,0.48,0.739,0.412,31,34,13,0021300593,1610612766,CHA,Charlotte,Cody Zeller,,,14:47,0.0,2.0,0.0,2.0,6.0,2.0,2.0,8.0,0.0,0.0,2.0,2.0
0021300593,1610612766,CHA,Charlotte,201196,Ramon Sessions,,,37:34,102.4,108.9,-6.5,0.278,1.0,23.0,0.0,0.115,0.06,23.0,0.6,0.68,0.252,83.44,0.131,2014-01-18T00:00:00,3,1610612748,MIA,Miami,29-11,27,26,22,15,14,0,0,0,0,0,0,0,0,0,104,0.494,0.655,0.333,16,43,12,0021300593,1610612766,CHA,Charlotte,Ramon Sessions,,,37:34,6.0,0.0,4.0,12.0,13.0,7.0,4.0,28.0,0.0,1.0,1.0,3.0
0021300593,1610612766,CHA,Charlotte,201196,Ramon Sessions,,,37:34,102.4,108.9,-6.5,0.278,1.0,23.0,0.0,0.115,0.06,23.0,0.6,0.68,0.252,83.44,0.131,2014-01-18T00:00:00,3,1610612766,CHA,Charlotte,17-25,29,31,16,14,6,0,0,0,0,0,0,0,0,0,96,0.48,0.739,0.412,31,34,13,0021300593,1610612766,CHA,Charlotte,Ramon Sessions,,,37:34,6.0,0.0,4.0,12.0,13.0,7.0,4.0,28.0,0.0,1.0,1.0,3.0
0021300593,1610612766,CHA,Charlotte,201229,Anthony Tolliver,,,36:33,101.2,101.7,-0.5,0.053,1.0,11.1,0.0,0.074,0.038,11.1,0.786,0.786,0.121,85.47,0.111,2014-01-18T00:00:00,3,1610612748,MIA,Miami,29-11,27,26,22,15,14,0,0,0,0,0,0,0,0,0,104,0.494,0.655,0.333,16,43,12,0021300593,1610612766,CHA,Charlotte,Anthony Tolliver,,,36:33,0.0,0.0,0.0,0.0,9.0,7.0,3.0,22.0,1.0,0.0,0.0,0.0
0021300593,1610612766,CHA,Charlotte,201229,Anthony Tolliver,,,36:33,101.2,101.7,-0.5,0.053,1.0,11.1,0.0,0.074,0.038,11.1,0.786,0.786,0.121,85.47,0.111,2014-01-18T00:00:00,3,1610612766,CHA,Charlotte,17-25,29,31,16,14,6,0,0,0,0,0,0,0,0,0,96,0.48,0.739,0.412,31,34,13,0021300593,1610612766,CHA,Charlotte,Anthony Tolliver,,,36:33,0.0,0.0,0.0,0.0,9.0,7.0,3.0,22.0,1.0,0.0,0.0,0.0
0021300593,1610612766,CHA,Charlotte,202687,Bismack Biyombo,,,9:44,142.9,126.4,16.5,0.0,0.0,0.0,0.2,0.25,0.231,0.0,1.0,0.902,0.202,89.75,0.176,2014-01-18T00:00:00,3,1610612748,MIA,Miami,29-11,27,26,22,15,14,0,0,0,0,0,0,0,0,0,104,0.494,0.655,0.333,16,43,12,0021300593,1610612766,CHA,Charlotte,Bismack Biyombo,,,9:44,0.0,0.0,0.0,6.0,2.0,5.0,2.0,10.0,1.0,0.0,1.0,2.0
0021300593,1610612766,CHA,Charlotte,202687,Bismack Biyombo,,,9:44,142.9,126.4,16.5,0.0,0.0,0.0,0.2,0.25,0.231,0.0,1.0,0.902,0.202,89.75,0.176,2014-01-18T00:00:00,3,1610612766,CHA,Charlotte,17-25,29,31,16,14,6,0,0,0,0,0,0,0,0,0,96,0.48,0.739,0.412,31,34,13,0021300593,1610612766,CHA,Charlotte,Bismack Biyombo,,,9:44,0.0,0.0,0.0,6.0,2.0,5.0,2.0,10.0,1.0,0.0,1.0,2.0
0021300593,1610612766,CHA,Charlotte,201604,Chris Douglas-Roberts,,,6:05,114.2,73.5,40.6,0.0,0.0,0.0,0.0,0.0,0.0,0.0,1.5,1.5,0.114,77.48,0.16,2014-01-18T00:00:00,3,1610612748,MIA,Miami,29-11,27,26,22,15,14,0,0,0,0,0,0,0,0,0,104,0.494,0.655,0.333,16,43,12,0021300593,1610612766,CHA,Charlotte,Chris Douglas-Roberts,,,6:05,0.0,0.0,0.0,0.0,2.0,2.0,0.0,6.0,0.0,0.0,1.0,0.0
0021300593,1610612766,CHA,Charlotte,201604,Chris Douglas-Roberts,,,6:05,114.2,73.5,40.6,0.0,0.0,0.0,0.0,0.0,0.0,0.0,1.5,1.5,0.114,77.48,0.16,2014-01-18T00:00:00,3,1610612766,CHA,Charlotte,17-25,29,31,16,14,6,0,0,0,0,0,0,0,0,0,96,0.48,0.739,0.412,31,34,13,0021300593,1610612766,CHA,Charlotte,Chris Douglas-Roberts,,,6:05,0.0,0.0,0.0,0.0,2.0,2.0,0.0,6.0,0.0,0.0,1.0,0.0
0021300593,1610612766,CHA,Charlotte,202399,Jeff Adrien,,DNP - Coach's Decision,,,,,,,0.0,,,,,,,0.0,,,2014-01-18T00:00:00,3,1610612748,MIA,Miami,29-11,27,26,22,15,14,0,0,0,0,0,0,0,0,0,104,0.494,0.655,0.333,16,43,12,0021300593,1610612766,CHA,Charlotte,Jeff Adrien,,DNP - Coach's Decision,,,,,,,,,,,,,
0021300593,1610612766,CHA,Charlotte,202399,Jeff Adrien,,DNP - Coach's Decision,,,,,,,0.0,,,,,,,0.0,,,2014-01-18T00:00:00,3,1610612766,CHA,Charlotte,17-25,29,31,16,14,6,0,0,0,0,0,0,0,0,0,96,0.48,0.739,0.412,31,34,13,0021300593,1610612766,CHA,Charlotte,Jeff Adrien,,DNP - Coach's Decision,,,,,,,,,,,,,
0021300593,1610612766,CHA,Charlotte,2732,Ben Gordon,,DNP - Coach's Decision,,,,,,,0.0,,,,,,,0.0,,,2014-01-18T00:00:00,3,1610612748,MIA,Miami,29-11,27,26,22,15,14,0,0,0,0,0,0,0,0,0,104,0.494,0.655,0.333,16,43,12,0021300593,1610612766,CHA,Charlotte,Ben Gordon,,DNP - Coach's Decision,,,,,,,,,,,,,
0021300593,1610612766,CHA,Charlotte,2732,Ben Gordon,,DNP - Coach's Decision,,,,,,,0.0,,,,,,,0.0,,,2014-01-18T00:00:00,3,1610612766,CHA,Charlotte,17-25,29,31,16,14,6,0,0,0,0,0,0,0,0,0,96,0.48,0.739,0.412,31,34,13,0021300593,1610612766,CHA,Charlotte,Ben Gordon,,DNP - Coach's Decision,,,,,,,,,,,,,
0021300593,1610612766,CHA,Charlotte,2457,Jannero Pargo,,DNP - Coach's Decision,,,,,,,0.0,,,,,,,0.0,,,2014-01-18T00:00:00,3,1610612748,MIA,Miami,29-11,27,26,22,15,14,0,0,0,0,0,0,0,0,0,104,0.494,0.655,0.333,16,43,12,0021300593,1610612766,CHA,Charlotte,Jannero Pargo,,DNP - Coach's Decision,,,,,,,,,,,,,
0021300593,1610612766,CHA,Charlotte,2457,Jannero Pargo,,DNP - Coach's Decision,,,,,,,0.0,,,,,,,0.0,,,2014-01-18T00:00:00,3,1610612766,CHA,Charlotte,17-25,29,31,16,14,6,0,0,0,0,0,0,0,0,0,96,0.48,0.739,0.412,31,34,13,0021300593,1610612766,CHA,Charlotte,Jannero Pargo,,DNP - Coach's Decision,,,,,,,,,,,,,
