GAME_ID_x,TEAM_ID_x,TEAM_ABBREVIATION_x,TEAM_CITY_x,PLAYER_ID,PLAYER_NAME_x,START_POSITION_x,COMMENT_x,MIN_x,OFF_RATING,DEF_RATING,NET_RATING,AST_PCT,AST_TOV,AST_RATIO,OREB_PCT,DREB_PCT,REB_PCT,TM_TOV_PCT,EFG_PCT,TS_PCT,USG_PCT,PACE,PIE,GAME_DATE_EST,GAME_SEQUENCE,TEAM_ID_y,TEAM_ABBREVIATION_y,TEAM_CITY_NAME,TEAM_WINS_LOSSES,PTS_QTR1,PTS_QTR2,PTS_QTR3,PTS_QTR4,PTS_OT1,PTS_OT2,PTS_OT3,PTS_OT4,PTS_OT5,PTS_OT6,PTS_OT7,PTS_OT8,PTS_OT9,PTS_OT10,PTS,FG_PCT,FT_PCT,FG3_PCT,AST,REB,TOV,GAME_ID_y,TEAM_ID,TEAM_ABBREVIATION,TEAM_CITY_y,PLAYER_NAME_y,START_POSITION_y,COMMENT_y,MIN_y,PTS_OFF_TOV,PTS_2ND_CHANCE,PTS_FB,PTS_PAINT,OPP_PTS_OFF_TOV,OPP_PTS_2ND_CHANCE,OPP_PTS_FB,OPP_PTS_PAINT,BLK,BLKA,PF,PFD
0021300602,1610612738,BOS,Boston,201145,Jeff Green,F,,34:44,98.7,93.8,4.9,0.143,0.0,14.6,0.0,0.069,0.029,0.0,0.409,0.625,0.22,95.52,0.144,2014-01-19T00:00:00,2,1610612738,BOS,Boston,14-28,26,20,18,27,0,0,0,0,0,0,0,0,0,0,91,0.367,0.917,0.231,16,46,10,0021300602,1610612738,BOS,Boston,Jeff Green,F,,34:44,4.0,0.0,0.0,6.0,3.0,8.0,3.0,22.0,1.0,0.0,4.0,7.0
0021300602,1610612738,BOS,Boston,201145,Jeff Green,F,,34:44,98.7,93.8,4.9,0.143,0.0,14.6,0.0,0.069,0.029,0.0,0.409,0.625,0.22,95.52,0.144,2014-01-19T00:00:00,2,1610612753,ORL,Orlando,11-30,18,35,13,27,0,0,0,0,0,0,0,0,0,0,93,0.423,0.806,0.267,20,49,17,0021300602,1610612738,BOS,Boston,Jeff Green,F,,34:44,4.0,0.0,0.0,6.0,3.0,8.0,3.0,22.0,1.0,0.0,4.0,7.0
0021300602,1610612738,BOS,Boston,203096,Jared Sullinger,F,,31:18,103.1,92.3,10.8,0.0,0.0,0.0,0.086,0.179,0.127,0.0,0.438,0.474,0.116,94.02,0.085,2014-01-19T00:00:00,2,1610612738,BOS,Boston,14-28,26,20,18,27,0,0,0,0,0,0,0,0,0,0,91,0.367,0.917,0.231,16,46,10,0021300602,1610612738,BOS,Boston,Jared Sullinger,F,,31:18,2.0,5.0,0.0,4.0,3.0,6.0,3.0,22.0,1.0,0.0,3.0,1.0
0021300602,1610612738,BOS,Boston,203096,Jared Sullinger,F,,31:18,103.1,92.3,10.8,0.0,0.0,0.0,0.086,0.179,0.127,0.0,0.438,0.474,0.116,94.02,0.085,2014-01-19T00:00:00,2,1610612753,ORL,Orlando,11-30,18,35,13,27,0,0,0,0,0,0,0,0,0,0,93,0.423,0.806,0.267,20,49,17,0021300602,1610612738,BOS,Boston,Jared Sullinger,F,,31:18,2.0,5.0,0.0,4.0,3.0,6.0,3.0,22.0,1.0,0.0,3.0,1.0
0021300602,1610612738,BOS,Boston,2743,Kris Humphries,C,,28:35,101.6,77.1,24.5,0.0,0.0,0.0,0.143,0.259,0.194,5.9,0.533,0.567,0.272,91.49,0.236,2014-01-19T00:00:00,2,1610612738,BOS,Boston,14-28,26,20,18,27,0,0,0,0,0,0,0,0,0,0,91,0.367,0.917,0.231,16,46,10,0021300602,1610612738,BOS,Boston,Kris Humphries,C,,28:35,4.0,4.0,0.0,8.0,0.0,5.0,2.0,14.0,2.0,0.0,3.0,5.0
0021300602,1610612738,BOS,Boston,2743,Kris Humphries,C,,28:35,101.6,77.1,24.5,0.0,0.0,0.0,0.143,0.259,0.194,5.9,0.533,0.567,0.272,91.49,0.236,2014-01-19T00:00:00,2,1610612753,ORL,Orlando,11-30,18,35,13,27,0,0,0,0,0,0,0,0,0,0,93,0.423,0.806,0.267,20,49,17,0021300602,1610612738,BOS,Boston,Kris Humphries,C,,28:35,4.0,4.0,0.0,8.0,0.0,5.0,2.0,14.0,2.0,0.0,3.0,5.0
0021300602,1610612738,BOS,Boston,202340,Avery Bradley,G,,37:45,92.8,105.4,-12.5,0.0,0.0,0.0,0.024,0.029,0.026,4.2,0.333,0.395,0.269,95.08,0.013,2014-01-19T00:00:00,2,1610612738,BOS,Boston,14-28,26,20,18,27,0,0,0,0,0,0,0,0,0,0,91,0.367,0.917,0.231,16,46,10,0021300602,1610612738,BOS,Boston,Avery Bradley,G,,37:45,4.0,4.0,4.0,4.0,7.0,13.0,3.0,30.0,0.0,2.0,4.0,2.0
0021300602,1610612738,BOS,Boston,202340,Avery Bradley,G,,37:45,92.8,105.4,-12.5,0.0,0.0,0.0,0.024,0.029,0.026,4.2,0.333,0.395,0.269,95.08,0.013,2014-01-19T00:00:00,2,1610612753,ORL,Orlando,11-30,18,35,13,27,0,0,0,0,0,0,0,0,0,0,93,0.423,0.806,0.267,20,49,17,0021300602,1610612738,BOS,Boston,Avery Bradley,G,,37:45,4.0,4.0,4.0,4.0,7.0,13.0,3.0,30.0,0.0,2.0,4.0,2.0
0021300602,1610612738,BOS,Boston,200765,Rajon Rondo,G,,21:20,101.7,94.3,7.4,0.333,1.33,23.5,0.037,0.278,0.133,17.6,0.3,0.3,0.259,94.1,0.1,2014-01-19T00:00:00,2,1610612738,BOS,Boston,14-28,26,20,18,27,0,0,0,0,0,0,0,0,0,0,91,0.367,0.917,0.231,16,46,10,0021300602,1610612738,BOS,Boston,Rajon Rondo,G,,21:20,2.0,0.0,0.0,0.0,3.0,2.0,3.0,16.0,0.0,0.0,0.0,0.0
0021300602,1610612738,BOS,Boston,200765,Rajon Rondo,G,,21:20,101.7,94.3,7.4,0.333,1.33,23.5,0.037,0.278,0.133,17.6,0.3,0.3,0.259,94.1,0.1,2014-01-19T00:00:00,2,1610612753,ORL,Orlando,11-30,18,35,13,27,0,0,0,0,0,0,0,0,0,0,93,0.423,0.806,0.267,20,49,17,0021300602,1610612738,BOS,Boston,Rajon Rondo,G,,21:20,2.0,0.0,0.0,0.0,3.0,2.0,3.0,16.0,0.0,0.0,0.0,0.0
0021300602,1610612738,BOS,Boston,201573,Jerryd Bayless,,,8:26,104.2,97.8,6.4,0.0,0.0,0.0,0.0,0.25,0.133,0.0,0.5,0.5,0.231,87.2,0.107,2014-01-19T00:00:00,2,1610612738,BOS,Boston,14-28,26,20,18,27,0,0,0,0,0,0,0,0,0,0,91,0.367,0.917,0.231,16,46,10,0021300602,1610612738,BOS,Boston,Jerryd Bayless,,,8:26,0.0,2.0,2.0,0.0,0.0,2.0,0.0,6.0,0.0,1.0,1.0,1.0
0021300602,1610612738,BOS,Boston,201573,Jerryd Bayless,,,8:26,104.2,97.8,6.4,0.0,0.0,0.0,0.0,0.25,0.133,0.0,0.5,0.5,0.231,87.2,0.107,2014-01-19T00:00:00,2,1610612753,ORL,Orlando,11-30,18,35,13,27,0,0,0,0,0,0,0,0,0,0,93,0.423,0.806,0.267,20,49,17,0021300602,1610612738,BOS,Boston,Jerryd Bayless,,,8:26,0.0,2.0,2.0,0.0,0.0,2.0,0.0,6.0,0.0,1.0,1.0,1.0
0021300602,1610612738,BOS,Boston,101138,Brandon Bass,,,19:09,81.7,119.5,-37.9,0.111,0.0,12.5,0.15,0.133,0.143,0.0,0.286,0.286,0.159,95.78,0.018,2014-01-19T00:00:00,2,1610612738,BOS,Boston,14-28,26,20,18,27,0,0,0,0,0,0,0,0,0,0,91,0.367,0.917,0.231,16,46,10,0021300602,1610612738,BOS,Boston,Brandon Bass,,,19:09,0.0,2.0,0.0,2.0,7.0,9.0,1.0,20.0,1.0,1.0,3.0,0.0
0021300602,1610612738,BOS,Boston,101138,Brandon Bass,,,19:09,81.7,119.5,-37.9,0.111,0.0,12.5,0.15,0.133,0.143,0.0,0.286,0.286,0.159,95.78,0.018,2014-01-19T00:00:00,2,1610612753,ORL,Orlando,11-30,18,35,13,27,0,0,0,0,0,0,0,0,0,0,93,0.423,0.806,0.267,20,49,17,0021300602,1610612738,BOS,Boston,Brandon Bass,,,19:09,0.0,2.0,0.0,2.0,7.0,9.0,1.0,20.0,1.0,1.0,3.0,0.0
0021300602,1610612738,BOS,Boston,2222,Gerald Wallace,,,19:10,92.7,103.2,-10.5,0.077,1.0,33.3,0.0,0.176,0.083,33.3,0.0,0.0,0.045,93.51,0.035,2014-01-19T00:00:00,2,1610612738,BOS,Boston,14-28,26,20,18,27,0,0,0,0,0,0,0,0,0,0,91,0.367,0.917,0.231,16,46,10,0021300602,1610612738,BOS,Boston,Gerald Wallace,,,19:10,0.0,0.0,0.0,0.0,4.0,7.0,0.0,18.0,0.0,0.0,0.0,1.0
0021300602,1610612738,BOS,Boston,2222,Gerald Wallace,,,19:10,92.7,103.2,-10.5,0.077,1.0,33.3,0.0,0.176,0.083,33.3,0.0,0.0,0.045,93.51,0.035,2014-01-19T00:00:00,2,1610612753,ORL,Orlando,11-30,18,35,13,27,0,0,0,0,0,0,0,0,0,0,93,0.423,0.806,0.267,20,49,17,0021300602,1610612738,BOS,Boston,Gerald Wallace,,,19:10,0.0,0.0,0.0,0.0,4.0,7.0,0.0,18.0,0.0,0.0,0.0,1.0
0021300602,1610612738,BOS,Boston,203515,Phil Pressey,,,22:37,88.3,105.4,-17.0,0.385,1.67,33.3,0.0,0.05,0.023,20.0,0.143,0.143,0.191,95.38,0.0,2014-01-19T00:00:00,2,1610612738,BOS,Boston,14-28,26,20,18,27,0,0,0,0,0,0,0,0,0,0,91,0.367,0.917,0.231,16,46,10,0021300602,1610612738,BOS,Boston,Phil Pressey,,,22:37,0.0,0.0,0.0,0.0,4.0,13.0,0.0,22.0,0.0,0.0,2.0,0.0
0021300602,1610612738,BOS,Boston,203515,Phil Pressey,,,22:37,88.3,105.4,-17.0,0.385,1.67,33.3,0.0,0.05,0.023,20.0,0.143,0.143,0.191,95.38,0.0,2014-01-19T00:00:00,2,1610612753,ORL,Orlando,11-30,18,35,13,27,0,0,0,0,0,0,0,0,0,0,93,0.423,0.806,0.267,20,49,17,0021300602,1610612738,BOS,Boston,Phil Pressey,,,22:37,0.0,0.0,0.0,0.0,4.0,13.0,0.0,22.0,0.0,0.0,2.0,0.0
0021300602,1610612738,BOS,Boston,203482,Kelly Olynyk,,,16:56,84.5,131.9,-47.5,0.25,2.0,20.2,0.125,0.214,0.167,10.1,0.583,0.654,0.194,95.46,0.118,2014-01-19T00:00:00,2,1610612738,BOS,Boston,14-28,26,20,18,27,0,0,0,0,0,0,0,0,0,0,91,0.367,0.917,0.231,16,46,10,0021300602,1610612738,BOS,Boston,Kelly Olynyk,,,16:56,4.0,2.0,2.0,4.0,4.0,10.0,0.0,20.0,0.0,1.0,5.0,1.0
0021300602,1610612738,BOS,Boston,203482,Kelly Olynyk,,,16:56,84.5,131.9,-47.5,0.25,2.0,20.2,0.125,0.214,0.167,10.1,0.583,0.654,0.194,95.46,0.118,2014-01-19T00:00:00,2,1610612753,ORL,Orlando,11-30,18,35,13,27,0,0,0,0,0,0,0,0,0,0,93,0.423,0.806,0.267,20,49,17,0021300602,1610612738,BOS,Boston,Kelly Olynyk,,,16:56,4.0,2.0,2.0,4.0,4.0,10.0,0.0,20.0,0.0,1.0,5.0,1.0
0021300602,1610612738,BOS,Boston,201202,Joel Anthony,,DNP - Coach's Decision,,,,,,,0.0,,,,,,,0.0,,,2014-01-19T00:00:00,2,1610612738,BOS,Boston,14-28,26,20,18,27,0,0,0,0,0,0,0,0,0,0,91,0.367,0.917,0.231,16,46,10,0021300602,1610612738,BOS,Boston,Joel Anthony,,DNP - Coach's Decision,,,,,,,,,,,,,
0021300602,1610612738,BOS,Boston,201202,Joel Anthony,,DNP - Coach's Decision,,,,,,,0.0,,,,,,,0.0,,,2014-01-19T00:00:00,2,1610612753,ORL,Orlando,11-30,18,35,13,27,0,0,0,0,0,0,0,0,0,0,93,0.423,0.806,0.267,20,49,17,0021300602,1610612738,BOS,Boston,Joel Anthony,,DNP - Coach's Decision,,,,,,,,,,,,,
0021300602,1610612738,BOS,Boston,203543,Vitor Faverani,,DNP - Coach's Decision,,,,,,,0.0,,,,,,,0.0,,,2014-01-19T00:00:00,2,1610612738,BOS,Boston,14-28,26,20,18,27,0,0,0,0,0,0,0,0,0,0,91,0.367,0.917,0.231,16,46,10,0021300602,1610612738,BOS,Boston,Vitor Faverani,,DNP - Coach's Decision,,,,,,,,,,,,,
0021300602,1610612738,BOS,Boston,203543,Vitor Faverani,,DNP - Coach's Decision,,,,,,,0.0,,,,,,,0.0,,,2014-01-19T00:00:00,2,1610612753,ORL,Orlando,11-30,18,35,13,27,0,0,0,0,0,0,0,0,0,0,93,0.423,0.806,0.267,20,49,17,0021300602,1610612738,BOS,Boston,Vitor Faverani,,DNP - Coach's Decision,,,,,,,,,,,,,
0021300602,1610612738,BOS,Boston,203187,Chris Johnson,,DNP - Coach's Decision,,,,,,,0.0,,,,,,,0.0,,,2014-01-19T00:00:00,2,1610612738,BOS,Boston,14-28,26,20,18,27,0,0,0,0,0,0,0,0,0,0,91,0.367,0.917,0.231,16,46,10,0021300602,1610612738,BOS,Boston,Chris Johnson,,DNP - Coach's Decision,,,,,,,,,,,,,
0021300602,1610612738,BOS,Boston,203187,Chris Johnson,,DNP - Coach's Decision,,,,,,,0.0,,,,,,,0.0,,,2014-01-19T00:00:00,2,1610612753,ORL,Orlando,11-30,18,35,13,27,0,0,0,0,0,0,0,0,0,0,93,0.423,0.806,0.267,20,49,17,0021300602,1610612738,BOS,Boston,Chris Johnson,,DNP - Coach's Decision,,,,,,,,,,,,,
0021300602,1610612753,ORL,Orlando,201167,Arron Afflalo,F,,43:30,97.0,96.9,0.1,0.316,2.0,22.1,0.051,0.234,0.151,11.0,0.5,0.549,0.224,94.46,0.178,2014-01-19T00:00:00,2,1610612738,BOS,Boston,14-28,26,20,18,27,0,0,0,0,0,0,0,0,0,0,91,0.367,0.917,0.231,16,46,10,0021300602,1610612753,ORL,Orlando,Arron Afflalo,F,,43:30,1.0,3.0,1.0,4.0,18.0,17.0,8.0,24.0,0.0,2.0,2.0,4.0
0021300602,1610612753,ORL,Orlando,201167,Arron Afflalo,F,,43:30,97.0,96.9,0.1,0.316,2.0,22.1,0.051,0.234,0.151,11.0,0.5,0.549,0.224,94.46,0.178,2014-01-19T00:00:00,2,1610612753,ORL,Orlando,11-30,18,35,13,27,0,0,0,0,0,0,0,0,0,0,93,0.423,0.806,0.267,20,49,17,0021300602,1610612753,ORL,Orlando,Arron Afflalo,F,,43:30,1.0,3.0,1.0,4.0,18.0,17.0,8.0,24.0,0.0,2.0,2.0,4.0
0021300602,1610612753,ORL,Orlando,202699,Tobias Harris,F,,36:16,92.3,101.2,-8.9,0.067,0.5,5.5,0.063,0.132,0.1,10.9,0.5,0.589,0.226,92.3,0.11,2014-01-19T00:00:00,2,1610612738,BOS,Boston,14-28,26,20,18,27,0,0,0,0,0,0,0,0,0,0,91,0.367,0.917,0.231,16,46,10,0021300602,1610612753,ORL,Orlando,Tobias Harris,F,,36:16,2.0,4.0,2.0,8.0,14.0,15.0,4.0,22.0,1.0,1.0,3.0,7.0
0021300602,1610612753,ORL,Orlando,202699,Tobias Harris,F,,36:16,92.3,101.2,-8.9,0.067,0.5,5.5,0.063,0.132,0.1,10.9,0.5,0.589,0.226,92.3,0.11,2014-01-19T00:00:00,2,1610612753,ORL,Orlando,11-30,18,35,13,27,0,0,0,0,0,0,0,0,0,0,93,0.423,0.806,0.267,20,49,17,0021300602,1610612753,ORL,Orlando,Tobias Harris,F,,36:16,2.0,4.0,2.0,8.0,14.0,15.0,4.0,22.0,1.0,1.0,3.0,7.0
0021300602,1610612753,ORL,Orlando,201175,Glen Davis,C,,35:50,107.4,93.2,14.2,0.0,0.0,0.0,0.094,0.103,0.099,0.0,0.5,0.517,0.204,95.56,0.141,2014-01-19T00:00:00,2,1610612738,BOS,Boston,14-28,26,20,18,27,0,0,0,0,0,0,0,0,0,0,91,0.367,0.917,0.231,16,46,10,0021300602,1610612753,ORL,Orlando,Glen Davis,C,,35:50,4.0,2.0,0.0,14.0,14.0,11.0,6.0,20.0,0.0,1.0,0.0,1.0
0021300602,1610612753,ORL,Orlando,201175,Glen Davis,C,,35:50,107.4,93.2,14.2,0.0,0.0,0.0,0.094,0.103,0.099,0.0,0.5,0.517,0.204,95.56,0.141,2014-01-19T00:00:00,2,1610612753,ORL,Orlando,11-30,18,35,13,27,0,0,0,0,0,0,0,0,0,0,93,0.423,0.806,0.267,20,49,17,0021300602,1610612753,ORL,Orlando,Glen Davis,C,,35:50,4.0,2.0,0.0,14.0,14.0,11.0,6.0,20.0,0.0,1.0,0.0,1.0
0021300602,1610612753,ORL,Orlando,203506,Victor Oladipo,G,,39:01,108.1,96.4,11.7,0.087,0.67,13.2,0.029,0.116,0.078,19.7,0.25,0.441,0.159,92.81,0.064,2014-01-19T00:00:00,2,1610612738,BOS,Boston,14-28,26,20,18,27,0,0,0,0,0,0,0,0,0,0,91,0.367,0.917,0.231,16,46,10,0021300602,1610612753,ORL,Orlando,Victor Oladipo,G,,39:01,0.0,3.0,0.0,2.0,12.0,15.0,4.0,24.0,2.0,0.0,3.0,4.0
0021300602,1610612753,ORL,Orlando,203506,Victor Oladipo,G,,39:01,108.1,96.4,11.7,0.087,0.67,13.2,0.029,0.116,0.078,19.7,0.25,0.441,0.159,92.81,0.064,2014-01-19T00:00:00,2,1610612753,ORL,Orlando,11-30,18,35,13,27,0,0,0,0,0,0,0,0,0,0,93,0.423,0.806,0.267,20,49,17,0021300602,1610612753,ORL,Orlando,Victor Oladipo,G,,39:01,0.0,3.0,0.0,2.0,12.0,15.0,4.0,24.0,2.0,0.0,3.0,4.0
0021300602,1610612753,ORL,Orlando,2749,Jameer Nelson,G,,39:43,97.9,100.1,-2.2,0.476,1.43,31.8,0.0,0.109,0.064,22.3,0.35,0.556,0.25,94.61,0.12,2014-01-19T00:00:00,2,1610612738,BOS,Boston,14-28,26,20,18,27,0,0,0,0,0,0,0,0,0,0,91,0.367,0.917,0.231,16,46,10,0021300602,1610612753,ORL,Orlando,Jameer Nelson,G,,39:43,0.0,0.0,0.0,2.0,18.0,17.0,6.0,28.0,0.0,1.0,1.0,7.0
0021300602,1610612753,ORL,Orlando,2749,Jameer Nelson,G,,39:43,97.9,100.1,-2.2,0.476,1.43,31.8,0.0,0.109,0.064,22.3,0.35,0.556,0.25,94.61,0.12,2014-01-19T00:00:00,2,1610612753,ORL,Orlando,11-30,18,35,13,27,0,0,0,0,0,0,0,0,0,0,93,0.423,0.806,0.267,20,49,17,0021300602,1610612753,ORL,Orlando,Jameer Nelson,G,,39:43,0.0,0.0,0.0,2.0,18.0,17.0,6.0,28.0,0.0,1.0,1.0,7.0
0021300602,1610612753,ORL,Orlando,203124,Kyle O'Quinn,,,23:54,100.9,89.7,11.2,0.091,0.5,9.7,0.15,0.207,0.184,19.4,0.667,0.683,0.184,95.04,0.14,2014-01-19T00:00:00,2,1610612738,BOS,Boston,14-28,26,20,18,27,0,0,0,0,0,0,0,0,0,0,91,0.367,0.917,0.231,16,46,10,0021300602,1610612753,ORL,Orlando,Kyle O'Quinn,,,23:54,0.0,3.0,0.0,8.0,12.0,12.0,6.0,14.0,1.0,0.0,5.0,2.0
0021300602,1610612753,ORL,Orlando,203124,Kyle O'Quinn,,,23:54,100.9,89.7,11.2,0.091,0.5,9.7,0.15,0.207,0.184,19.4,0.667,0.683,0.184,95.04,0.14,2014-01-19T00:00:00,2,1610612753,ORL,Orlando,11-30,18,35,13,27,0,0,0,0,0,0,0,0,0,0,93,0.423,0.806,0.267,20,49,17,0021300602,1610612753,ORL,Orlando,Kyle O'Quinn,,,23:54,0.0,3.0,0.0,8.0,12.0,12.0,6.0,14.0,1.0,0.0,5.0,2.0
0021300602,1610612753,ORL,Orlando,202734,E'Twaun Moore,,,21:46,97.0,81.3,15.7,0.0,0.0,0.0,0.0,0.087,0.045,0.0,0.3,0.3,0.104,95.44,-0.009,2014-01-19T00:00:00,2,1610612738,BOS,Boston,14-28,26,20,18,27,0,0,0,0,0,0,0,0,0,0,91,0.367,0.917,0.231,16,46,10,0021300602,1610612753,ORL,Orlando,E'Twaun Moore,,,21:46,0.0,0.0,0.0,0.0,12.0,8.0,6.0,8.0,1.0,0.0,4.0,0.0
0021300602,1610612753,ORL,Orlando,202734,E'Twaun Moore,,,21:46,97.0,81.3,15.7,0.0,0.0,0.0,0.0,0.087,0.045,0.0,0.3,0.3,0.104,95.44,-0.009,2014-01-19T00:00:00,2,1610612753,ORL,Orlando,11-30,18,35,13,27,0,0,0,0,0,0,0,0,0,0,93,0.423,0.806,0.267,20,49,17,0021300602,1610612753,ORL,Orlando,E'Twaun Moore,,,21:46,0.0,0.0,0.0,0.0,12.0,8.0,6.0,8.0,1.0,0.0,4.0,0.0
0021300602,1610612753,ORL,Orlando,203090,Maurice Harkless,,DNP - Coach's Decision,,,,,,,0.0,,,,,,,0.0,,,2014-01-19T00:00:00,2,1610612738,BOS,Boston,14-28,26,20,18,27,0,0,0,0,0,0,0,0,0,0,91,0.367,0.917,0.231,16,46,10,0021300602,1610612753,ORL,Orlando,Maurice Harkless,,DNP - Coach's Decision,,,,,,,,,,,,,
0021300602,1610612753,ORL,Orlando,203090,Maurice Harkless,,DNP - Coach's Decision,,,,,,,0.0,,,,,,,0.0,,,2014-01-19T00:00:00,2,1610612753,ORL,Orlando,11-30,18,35,13,27,0,0,0,0,0,0,0,0,0,0,93,0.423,0.806,0.267,20,49,17,0021300602,1610612753,ORL,Orlando,Maurice Harkless,,DNP - Coach's Decision,,,,,,,,,,,,,
0021300602,1610612753,ORL,Orlando,203117,Doron Lamb,,DNP - Coach's Decision,,,,,,,0.0,,,,,,,0.0,,,2014-01-19T00:00:00,2,1610612738,BOS,Boston,14-28,26,20,18,27,0,0,0,0,0,0,0,0,0,0,91,0.367,0.917,0.231,16,46,10,0021300602,1610612753,ORL,Orlando,Doron Lamb,,DNP - Coach's Decision,,,,,,,,,,,,,
0021300602,1610612753,ORL,Orlando,203117,Doron Lamb,,DNP - Coach's Decision,,,,,,,0.0,,,,,,,0.0,,,2014-01-19T00:00:00,2,1610612753,ORL,Orlando,11-30,18,35,13,27,0,0,0,0,0,0,0,0,0,0,93,0.423,0.806,0.267,20,49,17,0021300602,1610612753,ORL,Orlando,Doron Lamb,,DNP - Coach's Decision,,,,,,,,,,,,,
0021300602,1610612753,ORL,Orlando,101131,Jason Maxiell,,DNP - Coach's Decision,,,,,,,0.0,,,,,,,0.0,,,2014-01-19T00:00:00,2,1610612738,BOS,Boston,14-28,26,20,18,27,0,0,0,0,0,0,0,0,0,0,91,0.367,0.917,0.231,16,46,10,0021300602,1610612753,ORL,Orlando,Jason Maxiell,,DNP - Coach's Decision,,,,,,,,,,,,,
0021300602,1610612753,ORL,Orlando,101131,Jason Maxiell,,DNP - Coach's Decision,,,,,,,0.0,,,,,,,0.0,,,2014-01-19T00:00:00,2,1610612753,ORL,Orlando,11-30,18,35,13,27,0,0,0,0,0,0,0,0,0,0,93,0.423,0.806,0.267,20,49,17,0021300602,1610612753,ORL,Orlando,Jason Maxiell,,DNP - Coach's Decision,,,,,,,,,,,,,
0021300602,1610612753,ORL,Orlando,203094,Andrew Nicholson,,DNP - Coach's Decision,,,,,,,0.0,,,,,,,0.0,,,2014-01-19T00:00:00,2,1610612738,BOS,Boston,14-28,26,20,18,27,0,0,0,0,0,0,0,0,0,0,91,0.367,0.917,0.231,16,46,10,0021300602,1610612753,ORL,Orlando,Andrew Nicholson,,DNP - Coach's Decision,,,,,,,,,,,,,
0021300602,1610612753,ORL,Orlando,203094,Andrew Nicholson,,DNP - Coach's Decision,,,,,,,0.0,,,,,,,0.0,,,2014-01-19T00:00:00,2,1610612753,ORL,Orlando,11-30,18,35,13,27,0,0,0,0,0,0,0,0,0,0,93,0.423,0.806,0.267,20,49,17,0021300602,1610612753,ORL,Orlando,Andrew Nicholson,,DNP - Coach's Decision,,,,,,,,,,,,,
0021300602,1610612753,ORL,Orlando,101179,Ronnie Price,,DND - Sprained Right Foot,,,,,,,0.0,,,,,,,0.0,,,2014-01-19T00:00:00,2,1610612738,BOS,Boston,14-28,26,20,18,27,0,0,0,0,0,0,0,0,0,0,91,0.367,0.917,0.231,16,46,10,0021300602,1610612753,ORL,Orlando,Ronnie Price,,DND - Sprained Right Foot,,,,,,,,,,,,,
0021300602,1610612753,ORL,Orlando,101179,Ronnie Price,,DND - Sprained Right Foot,,,,,,,0.0,,,,,,,0.0,,,2014-01-19T00:00:00,2,1610612753,ORL,Orlando,11-30,18,35,13,27,0,0,0,0,0,0,0,0,0,0,93,0.423,0.806,0.267,20,49,17,0021300602,1610612753,ORL,Orlando,Ronnie Price,,DND - Sprained Right Foot,,,,,,,,,,,,,
0021300602,1610612753,ORL,Orlando,202696,Nikola Vucevic,,DND - Concussion,,,,,,,0.0,,,,,,,0.0,,,2014-01-19T00:00:00,2,1610612738,BOS,Boston,14-28,26,20,18,27,0,0,0,0,0,0,0,0,0,0,91,0.367,0.917,0.231,16,46,10,0021300602,1610612753,ORL,Orlando,Nikola Vucevic,,DND - Concussion,,,,,,,,,,,,,
0021300602,1610612753,ORL,Orlando,202696,Nikola Vucevic,,DND - Concussion,,,,,,,0.0,,,,,,,0.0,,,2014-01-19T00:00:00,2,1610612753,ORL,Orlando,11-30,18,35,13,27,0,0,0,0,0,0,0,0,0,0,93,0.423,0.806,0.267,20,49,17,0021300602,1610612753,ORL,Orlando,Nikola Vucevic,,DND - Concussion,,,,,,,,,,,,,
