GAME_ID_x,TEAM_ID_x,TEAM_ABBREVIATION_x,TEAM_CITY_x,PLAYER_ID,PLAYER_NAME_x,START_POSITION_x,COMMENT_x,MIN_x,OFF_RATING,DEF_RATING,NET_RATING,AST_PCT,AST_TOV,AST_RATIO,OREB_PCT,DREB_PCT,REB_PCT,TM_TOV_PCT,EFG_PCT,TS_PCT,USG_PCT,PACE,PIE,GAME_DATE_EST,GAME_SEQUENCE,TEAM_ID_y,TEAM_ABBREVIATION_y,TEAM_CITY_NAME,TEAM_WINS_LOSSES,PTS_QTR1,PTS_QTR2,PTS_QTR3,PTS_QTR4,PTS_OT1,PTS_OT2,PTS_OT3,PTS_OT4,PTS_OT5,PTS_OT6,PTS_OT7,PTS_OT8,PTS_OT9,PTS_OT10,PTS,FG_PCT,FT_PCT,FG3_PCT,AST,REB,TOV,GAME_ID_y,TEAM_ID,TEAM_ABBREVIATION,TEAM_CITY_y,PLAYER_NAME_y,START_POSITION_y,COMMENT_y,MIN_y,PTS_OFF_TOV,PTS_2ND_CHANCE,PTS_FB,PTS_PAINT,OPP_PTS_OFF_TOV,OPP_PTS_2ND_CHANCE,OPP_PTS_FB,OPP_PTS_PAINT,BLK,BLKA,PF,PFD
0021300616,1610612753,ORL,Orlando,201167,Arron Afflalo,F,,30:55,74.5,108.1,-33.6,0.0,0.0,0.0,0.0,0.1,0.042,21.8,0.5,0.511,0.216,90.76,0.021,2014-01-21T00:00:00,1,1610612753,ORL,Orlando,11-31,21,21,14,34,0,0,0,0,0,0,0,0,0,0,90,0.458,0.739,0.368,23,37,13,0021300616,1610612753,ORL,Orlando,Arron Afflalo,F,,30:55,4.0,4.0,2.0,4.0,14.0,7.0,7.0,32.0,0.0,0.0,2.0,3.0
0021300616,1610612753,ORL,Orlando,201167,Arron Afflalo,F,,30:55,74.5,108.1,-33.6,0.0,0.0,0.0,0.0,0.1,0.042,21.8,0.5,0.511,0.216,90.76,0.021,2014-01-21T00:00:00,1,1610612751,BKN,Brooklyn,18-22,27,19,27,28,0,0,0,0,0,0,0,0,0,0,101,0.494,0.846,0.357,29,36,8,0021300616,1610612753,ORL,Orlando,Arron Afflalo,F,,30:55,4.0,4.0,2.0,4.0,14.0,7.0,7.0,32.0,0.0,0.0,2.0,3.0
0021300616,1610612753,ORL,Orlando,202699,Tobias Harris,F,,33:01,90.4,123.7,-33.3,0.053,0.33,8.3,0.0,0.167,0.087,25.0,0.438,0.438,0.175,90.63,0.007,2014-01-21T00:00:00,1,1610612753,ORL,Orlando,11-31,21,21,14,34,0,0,0,0,0,0,0,0,0,0,90,0.458,0.739,0.368,23,37,13,0021300616,1610612753,ORL,Orlando,Tobias Harris,F,,33:01,0.0,0.0,0.0,0.0,16.0,10.0,7.0,30.0,0.0,0.0,3.0,0.0
0021300616,1610612753,ORL,Orlando,202699,Tobias Harris,F,,33:01,90.4,123.7,-33.3,0.053,0.33,8.3,0.0,0.167,0.087,25.0,0.438,0.438,0.175,90.63,0.007,2014-01-21T00:00:00,1,1610612751,BKN,Brooklyn,18-22,27,19,27,28,0,0,0,0,0,0,0,0,0,0,101,0.494,0.846,0.357,29,36,8,0021300616,1610612753,ORL,Orlando,Tobias Harris,F,,33:01,0.0,0.0,0.0,0.0,16.0,10.0,7.0,30.0,0.0,0.0,3.0,0.0
0021300616,1610612753,ORL,Orlando,201175,Glen Davis,C,,24:03,85.6,117.6,-32.1,0.0,0.0,0.0,0.059,0.4,0.219,8.3,0.455,0.455,0.259,88.42,0.099,2014-01-21T00:00:00,1,1610612753,ORL,Orlando,11-31,21,21,14,34,0,0,0,0,0,0,0,0,0,0,90,0.458,0.739,0.368,23,37,13,0021300616,1610612753,ORL,Orlando,Glen Davis,C,,24:03,0.0,0.0,0.0,10.0,12.0,7.0,5.0,24.0,0.0,1.0,1.0,0.0
0021300616,1610612753,ORL,Orlando,201175,Glen Davis,C,,24:03,85.6,117.6,-32.1,0.0,0.0,0.0,0.059,0.4,0.219,8.3,0.455,0.455,0.259,88.42,0.099,2014-01-21T00:00:00,1,1610612751,BKN,Brooklyn,18-22,27,19,27,28,0,0,0,0,0,0,0,0,0,0,101,0.494,0.846,0.357,29,36,8,0021300616,1610612753,ORL,Orlando,Glen Davis,C,,24:03,0.0,0.0,0.0,10.0,12.0,7.0,5.0,24.0,0.0,1.0,1.0,0.0
0021300616,1610612753,ORL,Orlando,203506,Victor Oladipo,G,,30:51,91.4,126.6,-35.1,0.263,5.0,29.8,0.0,0.273,0.133,6.0,0.389,0.465,0.193,92.42,0.104,2014-01-21T00:00:00,1,1610612753,ORL,Orlando,11-31,21,21,14,34,0,0,0,0,0,0,0,0,0,0,90,0.458,0.739,0.368,23,37,13,0021300616,1610612753,ORL,Orlando,Victor Oladipo,G,,30:51,0.0,0.0,0.0,2.0,16.0,10.0,7.0,30.0,0.0,1.0,1.0,3.0
0021300616,1610612753,ORL,Orlando,203506,Victor Oladipo,G,,30:51,91.4,126.6,-35.1,0.263,5.0,29.8,0.0,0.273,0.133,6.0,0.389,0.465,0.193,92.42,0.104,2014-01-21T00:00:00,1,1610612751,BKN,Brooklyn,18-22,27,19,27,28,0,0,0,0,0,0,0,0,0,0,101,0.494,0.846,0.357,29,36,8,0021300616,1610612753,ORL,Orlando,Victor Oladipo,G,,30:51,0.0,0.0,0.0,2.0,16.0,10.0,7.0,30.0,0.0,1.0,1.0,3.0
0021300616,1610612753,ORL,Orlando,2749,Jameer Nelson,G,,28:17,89.1,104.3,-15.2,0.769,5.0,50.6,0.037,0.05,0.043,10.1,0.417,0.58,0.169,87.71,0.14,2014-01-21T00:00:00,1,1610612753,ORL,Orlando,11-31,21,21,14,34,0,0,0,0,0,0,0,0,0,0,90,0.458,0.739,0.368,23,37,13,0021300616,1610612753,ORL,Orlando,Jameer Nelson,G,,28:17,0.0,0.0,0.0,0.0,6.0,5.0,7.0,24.0,0.0,1.0,2.0,2.0
0021300616,1610612753,ORL,Orlando,2749,Jameer Nelson,G,,28:17,89.1,104.3,-15.2,0.769,5.0,50.6,0.037,0.05,0.043,10.1,0.417,0.58,0.169,87.71,0.14,2014-01-21T00:00:00,1,1610612751,BKN,Brooklyn,18-22,27,19,27,28,0,0,0,0,0,0,0,0,0,0,101,0.494,0.846,0.357,29,36,8,0021300616,1610612753,ORL,Orlando,Jameer Nelson,G,,28:17,0.0,0.0,0.0,0.0,6.0,5.0,7.0,24.0,0.0,1.0,2.0,2.0
0021300616,1610612753,ORL,Orlando,202734,E'Twaun Moore,,,24:33,119.4,115.3,4.2,0.118,0.0,18.4,0.0,0.091,0.053,0.0,0.688,0.732,0.179,92.44,0.108,2014-01-21T00:00:00,1,1610612753,ORL,Orlando,11-31,21,21,14,34,0,0,0,0,0,0,0,0,0,0,90,0.458,0.739,0.368,23,37,13,0021300616,1610612753,ORL,Orlando,E'Twaun Moore,,,24:33,0.0,0.0,4.0,4.0,10.0,3.0,4.0,18.0,0.0,1.0,2.0,1.0
0021300616,1610612753,ORL,Orlando,202734,E'Twaun Moore,,,24:33,119.4,115.3,4.2,0.118,0.0,18.4,0.0,0.091,0.053,0.0,0.688,0.732,0.179,92.44,0.108,2014-01-21T00:00:00,1,1610612751,BKN,Brooklyn,18-22,27,19,27,28,0,0,0,0,0,0,0,0,0,0,101,0.494,0.846,0.357,29,36,8,0021300616,1610612753,ORL,Orlando,E'Twaun Moore,,,24:33,0.0,0.0,4.0,4.0,10.0,3.0,4.0,18.0,0.0,1.0,2.0,1.0
0021300616,1610612753,ORL,Orlando,203124,Kyle O'Quinn,,,23:57,113.7,105.3,8.4,0.071,1.0,6.8,0.211,0.182,0.195,6.8,0.6,0.593,0.274,92.43,0.14,2014-01-21T00:00:00,1,1610612753,ORL,Orlando,11-31,21,21,14,34,0,0,0,0,0,0,0,0,0,0,90,0.458,0.739,0.368,23,37,13,0021300616,1610612753,ORL,Orlando,Kyle O'Quinn,,,23:57,2.0,0.0,3.0,8.0,6.0,3.0,4.0,16.0,2.0,0.0,1.0,5.0
0021300616,1610612753,ORL,Orlando,203124,Kyle O'Quinn,,,23:57,113.7,105.3,8.4,0.071,1.0,6.8,0.211,0.182,0.195,6.8,0.6,0.593,0.274,92.43,0.14,2014-01-21T00:00:00,1,1610612751,BKN,Brooklyn,18-22,27,19,27,28,0,0,0,0,0,0,0,0,0,0,101,0.494,0.846,0.357,29,36,8,0021300616,1610612753,ORL,Orlando,Kyle O'Quinn,,,23:57,2.0,0.0,3.0,8.0,6.0,3.0,4.0,16.0,2.0,0.0,1.0,5.0
0021300616,1610612753,ORL,Orlando,203094,Andrew Nicholson,,,14:59,119.5,81.8,37.7,0.1,1.0,12.5,0.0,0.154,0.074,12.5,0.167,0.167,0.21,89.96,-0.02,2014-01-21T00:00:00,1,1610612753,ORL,Orlando,11-31,21,21,14,34,0,0,0,0,0,0,0,0,0,0,90,0.458,0.739,0.368,23,37,13,0021300616,1610612753,ORL,Orlando,Andrew Nicholson,,,14:59,0.0,0.0,0.0,2.0,2.0,0.0,2.0,10.0,0.0,1.0,0.0,1.0
0021300616,1610612753,ORL,Orlando,203094,Andrew Nicholson,,,14:59,119.5,81.8,37.7,0.1,1.0,12.5,0.0,0.154,0.074,12.5,0.167,0.167,0.21,89.96,-0.02,2014-01-21T00:00:00,1,1610612751,BKN,Brooklyn,18-22,27,19,27,28,0,0,0,0,0,0,0,0,0,0,101,0.494,0.846,0.357,29,36,8,0021300616,1610612753,ORL,Orlando,Andrew Nicholson,,,14:59,0.0,0.0,0.0,2.0,2.0,0.0,2.0,10.0,0.0,1.0,0.0,1.0
0021300616,1610612753,ORL,Orlando,203090,Maurice Harkless,,,24:00,121.5,105.6,15.9,0.111,2.0,28.6,0.0,0.174,0.114,14.3,0.875,0.875,0.108,89.8,0.106,2014-01-21T00:00:00,1,1610612753,ORL,Orlando,11-31,21,21,14,34,0,0,0,0,0,0,0,0,0,0,90,0.458,0.739,0.368,23,37,13,0021300616,1610612753,ORL,Orlando,Maurice Harkless,,,24:00,2.0,0.0,2.0,4.0,8.0,5.0,2.0,14.0,0.0,0.0,2.0,0.0
0021300616,1610612753,ORL,Orlando,203090,Maurice Harkless,,,24:00,121.5,105.6,15.9,0.111,2.0,28.6,0.0,0.174,0.114,14.3,0.875,0.875,0.108,89.8,0.106,2014-01-21T00:00:00,1,1610612751,BKN,Brooklyn,18-22,27,19,27,28,0,0,0,0,0,0,0,0,0,0,101,0.494,0.846,0.357,29,36,8,0021300616,1610612753,ORL,Orlando,Maurice Harkless,,,24:00,2.0,0.0,2.0,4.0,8.0,5.0,2.0,14.0,0.0,0.0,2.0,0.0
0021300616,1610612753,ORL,Orlando,203117,Doron Lamb,,,5:24,158.7,77.8,81.0,0.333,0.0,30.1,0.0,0.0,0.0,0.0,1.5,1.293,0.23,84.8,0.304,2014-01-21T00:00:00,1,1610612753,ORL,Orlando,11-31,21,21,14,34,0,0,0,0,0,0,0,0,0,0,90,0.458,0.739,0.368,23,37,13,0021300616,1610612753,ORL,Orlando,Doron Lamb,,,5:24,0.0,0.0,3.0,0.0,0.0,0.0,0.0,2.0,0.0,0.0,0.0,1.0
0021300616,1610612753,ORL,Orlando,203117,Doron Lamb,,,5:24,158.7,77.8,81.0,0.333,0.0,30.1,0.0,0.0,0.0,0.0,1.5,1.293,0.23,84.8,0.304,2014-01-21T00:00:00,1,1610612751,BKN,Brooklyn,18-22,27,19,27,28,0,0,0,0,0,0,0,0,0,0,101,0.494,0.846,0.357,29,36,8,0021300616,1610612753,ORL,Orlando,Doron Lamb,,,5:24,0.0,0.0,3.0,0.0,0.0,0.0,0.0,2.0,0.0,0.0,0.0,1.0
0021300616,1610612753,ORL,Orlando,101131,Jason Maxiell,,DNP - Coach's Decision,,,,,,,0.0,,,,,,,0.0,,,2014-01-21T00:00:00,1,1610612753,ORL,Orlando,11-31,21,21,14,34,0,0,0,0,0,0,0,0,0,0,90,0.458,0.739,0.368,23,37,13,0021300616,1610612753,ORL,Orlando,Jason Maxiell,,DNP - Coach's Decision,,,,,,,,,,,,,
0021300616,1610612753,ORL,Orlando,101131,Jason Maxiell,,DNP - Coach's Decision,,,,,,,0.0,,,,,,,0.0,,,2014-01-21T00:00:00,1,1610612751,BKN,Brooklyn,18-22,27,19,27,28,0,0,0,0,0,0,0,0,0,0,101,0.494,0.846,0.357,29,36,8,0021300616,1610612753,ORL,Orlando,Jason Maxiell,,DNP - Coach's Decision,,,,,,,,,,,,,
0021300616,1610612753,ORL,Orlando,101179,Ronnie Price,,NWT - Sprained Right Foot,,,,,,,0.0,,,,,,,0.0,,,2014-01-21T00:00:00,1,1610612753,ORL,Orlando,11-31,21,21,14,34,0,0,0,0,0,0,0,0,0,0,90,0.458,0.739,0.368,23,37,13,0021300616,1610612753,ORL,Orlando,Ronnie Price,,NWT - Sprained Right Foot,,,,,,,,,,,,,
0021300616,1610612753,ORL,Orlando,101179,Ronnie Price,,NWT - Sprained Right Foot,,,,,,,0.0,,,,,,,0.0,,,2014-01-21T00:00:00,1,1610612751,BKN,Brooklyn,18-22,27,19,27,28,0,0,0,0,0,0,0,0,0,0,101,0.494,0.846,0.357,29,36,8,0021300616,1610612753,ORL,Orlando,Ronnie Price,,NWT - Sprained Right Foot,,,,,,,,,,,,,
0021300616,1610612753,ORL,Orlando,202696,Nikola Vucevic,,NWT - Concussion,,,,,,,0.0,,,,,,,0.0,,,2014-01-21T00:00:00,1,1610612753,ORL,Orlando,11-31,21,21,14,34,0,0,0,0,0,0,0,0,0,0,90,0.458,0.739,0.368,23,37,13,0021300616,1610612753,ORL,Orlando,Nikola Vucevic,,NWT - Concussion,,,,,,,,,,,,,
0021300616,1610612753,ORL,Orlando,202696,Nikola Vucevic,,NWT - Concussion,,,,,,,0.0,,,,,,,0.0,,,2014-01-21T00:00:00,1,1610612751,BKN,Brooklyn,18-22,27,19,27,28,0,0,0,0,0,0,0,0,0,0,101,0.494,0.846,0.357,29,36,8,0021300616,1610612753,ORL,Orlando,Nikola Vucevic,,NWT - Concussion,,,,,,,,,,,,,
0021300616,1610612751,BKN,Brooklyn,2207,Joe Johnson,F,,29:51,111.9,75.2,36.7,0.136,0.0,21.4,0.053,0.148,0.109,0.0,0.591,0.591,0.183,90.89,0.136,2014-01-21T00:00:00,1,1610612753,ORL,Orlando,11-31,21,21,14,34,0,0,0,0,0,0,0,0,0,0,90,0.458,0.739,0.368,23,37,13,0021300616,1610612751,BKN,Brooklyn,Joe Johnson,F,,29:51,2.0,5.0,0.0,6.0,4.0,3.0,2.0,14.0,0.0,0.0,2.0,1.0
0021300616,1610612751,BKN,Brooklyn,2207,Joe Johnson,F,,29:51,111.9,75.2,36.7,0.136,0.0,21.4,0.053,0.148,0.109,0.0,0.591,0.591,0.183,90.89,0.136,2014-01-21T00:00:00,1,1610612751,BKN,Brooklyn,18-22,27,19,27,28,0,0,0,0,0,0,0,0,0,0,101,0.494,0.846,0.357,29,36,8,0021300616,1610612751,BKN,Brooklyn,Joe Johnson,F,,29:51,2.0,5.0,0.0,6.0,4.0,3.0,2.0,14.0,0.0,0.0,2.0,1.0
0021300616,1610612751,BKN,Brooklyn,1718,Paul Pierce,F,,23:47,121.2,75.1,46.1,0.211,0.0,28.8,0.0,0.3,0.171,0.0,0.611,0.658,0.201,90.98,0.229,2014-01-21T00:00:00,1,1610612753,ORL,Orlando,11-31,21,21,14,34,0,0,0,0,0,0,0,0,0,0,90,0.458,0.739,0.368,23,37,13,0021300616,1610612751,BKN,Brooklyn,Paul Pierce,F,,23:47,6.0,0.0,0.0,6.0,2.0,0.0,0.0,12.0,2.0,1.0,1.0,2.0
0021300616,1610612751,BKN,Brooklyn,1718,Paul Pierce,F,,23:47,121.2,75.1,46.1,0.211,0.0,28.8,0.0,0.3,0.171,0.0,0.611,0.658,0.201,90.98,0.229,2014-01-21T00:00:00,1,1610612751,BKN,Brooklyn,18-22,27,19,27,28,0,0,0,0,0,0,0,0,0,0,101,0.494,0.846,0.357,29,36,8,0021300616,1610612751,BKN,Brooklyn,Paul Pierce,F,,23:47,6.0,0.0,0.0,6.0,2.0,0.0,0.0,12.0,2.0,1.0,1.0,2.0
0021300616,1610612751,BKN,Brooklyn,708,Kevin Garnett,C,,18:09,106.3,73.0,33.3,0.083,0.33,11.1,0.083,0.286,0.192,33.3,0.8,0.8,0.223,86.48,0.174,2014-01-21T00:00:00,1,1610612753,ORL,Orlando,11-31,21,21,14,34,0,0,0,0,0,0,0,0,0,0,90,0.458,0.739,0.368,23,37,13,0021300616,1610612751,BKN,Brooklyn,Kevin Garnett,C,,18:09,2.0,0.0,0.0,4.0,0.0,1.0,0.0,4.0,0.0,0.0,1.0,2.0
0021300616,1610612751,BKN,Brooklyn,708,Kevin Garnett,C,,18:09,106.3,73.0,33.3,0.083,0.33,11.1,0.083,0.286,0.192,33.3,0.8,0.8,0.223,86.48,0.174,2014-01-21T00:00:00,1,1610612751,BKN,Brooklyn,18-22,27,19,27,28,0,0,0,0,0,0,0,0,0,0,101,0.494,0.846,0.357,29,36,8,0021300616,1610612751,BKN,Brooklyn,Kevin Garnett,C,,18:09,2.0,0.0,0.0,4.0,0.0,1.0,0.0,4.0,0.0,0.0,1.0,2.0
0021300616,1610612751,BKN,Brooklyn,101187,Alan Anderson,G,,22:07,115.7,108.6,7.2,0.059,1.0,12.5,0.0,0.071,0.036,12.5,0.583,0.583,0.171,85.16,0.046,2014-01-21T00:00:00,1,1610612753,ORL,Orlando,11-31,21,21,14,34,0,0,0,0,0,0,0,0,0,0,90,0.458,0.739,0.368,23,37,13,0021300616,1610612751,BKN,Brooklyn,Alan Anderson,G,,22:07,0.0,2.0,3.0,2.0,4.0,0.0,7.0,14.0,0.0,0.0,2.0,0.0
0021300616,1610612751,BKN,Brooklyn,101187,Alan Anderson,G,,22:07,115.7,108.6,7.2,0.059,1.0,12.5,0.0,0.071,0.036,12.5,0.583,0.583,0.171,85.16,0.046,2014-01-21T00:00:00,1,1610612751,BKN,Brooklyn,18-22,27,19,27,28,0,0,0,0,0,0,0,0,0,0,101,0.494,0.846,0.357,29,36,8,0021300616,1610612751,BKN,Brooklyn,Alan Anderson,G,,22:07,0.0,2.0,3.0,2.0,4.0,0.0,7.0,14.0,0.0,0.0,2.0,0.0
0021300616,1610612751,BKN,Brooklyn,2733,Shaun Livingston,G,,24:14,121.7,81.9,39.8,0.286,0.0,37.8,0.067,0.176,0.125,0.0,0.333,0.405,0.205,88.3,0.116,2014-01-21T00:00:00,1,1610612753,ORL,Orlando,11-31,21,21,14,34,0,0,0,0,0,0,0,0,0,0,90,0.458,0.739,0.368,23,37,13,0021300616,1610612751,BKN,Brooklyn,Shaun Livingston,G,,24:14,2.0,0.0,2.0,4.0,2.0,0.0,0.0,12.0,0.0,1.0,2.0,1.0
0021300616,1610612751,BKN,Brooklyn,2733,Shaun Livingston,G,,24:14,121.7,81.9,39.8,0.286,0.0,37.8,0.067,0.176,0.125,0.0,0.333,0.405,0.205,88.3,0.116,2014-01-21T00:00:00,1,1610612751,BKN,Brooklyn,18-22,27,19,27,28,0,0,0,0,0,0,0,0,0,0,101,0.494,0.846,0.357,29,36,8,0021300616,1610612751,BKN,Brooklyn,Shaun Livingston,G,,24:14,2.0,0.0,2.0,4.0,2.0,0.0,0.0,12.0,0.0,1.0,2.0,1.0
0021300616,1610612751,BKN,Brooklyn,101154,Andray Blatche,,,24:27,121.2,105.1,16.1,0.2,0.0,17.6,0.0,0.25,0.122,0.0,0.591,0.639,0.272,94.59,0.162,2014-01-21T00:00:00,1,1610612753,ORL,Orlando,11-31,21,21,14,34,0,0,0,0,0,0,0,0,0,0,90,0.458,0.739,0.368,23,37,13,0021300616,1610612751,BKN,Brooklyn,Andray Blatche,,,24:27,2.0,3.0,2.0,6.0,6.0,3.0,7.0,24.0,1.0,0.0,2.0,5.0
0021300616,1610612751,BKN,Brooklyn,101154,Andray Blatche,,,24:27,121.2,105.1,16.1,0.2,0.0,17.6,0.0,0.25,0.122,0.0,0.591,0.639,0.272,94.59,0.162,2014-01-21T00:00:00,1,1610612751,BKN,Brooklyn,18-22,27,19,27,28,0,0,0,0,0,0,0,0,0,0,101,0.494,0.846,0.357,29,36,8,0021300616,1610612751,BKN,Brooklyn,Andray Blatche,,,24:27,2.0,3.0,2.0,6.0,6.0,3.0,7.0,24.0,1.0,0.0,2.0,5.0
0021300616,1610612751,BKN,Brooklyn,101114,Deron Williams,,,28:08,107.6,109.9,-2.3,0.529,9.0,45.0,0.0,0.045,0.021,5.0,0.45,0.45,0.187,93.36,0.106,2014-01-21T00:00:00,1,1610612753,ORL,Orlando,11-31,21,21,14,34,0,0,0,0,0,0,0,0,0,0,90,0.458,0.739,0.368,23,37,13,0021300616,1610612751,BKN,Brooklyn,Deron Williams,,,28:08,0.0,0.0,0.0,4.0,6.0,4.0,14.0,26.0,0.0,0.0,2.0,1.0
0021300616,1610612751,BKN,Brooklyn,101114,Deron Williams,,,28:08,107.6,109.9,-2.3,0.529,9.0,45.0,0.0,0.045,0.021,5.0,0.45,0.45,0.187,93.36,0.106,2014-01-21T00:00:00,1,1610612751,BKN,Brooklyn,18-22,27,19,27,28,0,0,0,0,0,0,0,0,0,0,101,0.494,0.846,0.357,29,36,8,0021300616,1610612751,BKN,Brooklyn,Deron Williams,,,28:08,0.0,0.0,0.0,4.0,6.0,4.0,14.0,26.0,0.0,0.0,2.0,1.0
0021300616,1610612751,BKN,Brooklyn,1905,Andrei Kirilenko,,,21:31,101.1,97.4,3.7,0.0,0.0,0.0,0.0,0.158,0.077,25.0,0.333,0.333,0.176,94.36,0.013,2014-01-21T00:00:00,1,1610612753,ORL,Orlando,11-31,21,21,14,34,0,0,0,0,0,0,0,0,0,0,90,0.458,0.739,0.368,23,37,13,0021300616,1610612751,BKN,Brooklyn,Andrei Kirilenko,,,21:31,0.0,0.0,0.0,4.0,4.0,4.0,7.0,16.0,2.0,0.0,1.0,0.0
0021300616,1610612751,BKN,Brooklyn,1905,Andrei Kirilenko,,,21:31,101.1,97.4,3.7,0.0,0.0,0.0,0.0,0.158,0.077,25.0,0.333,0.333,0.176,94.36,0.013,2014-01-21T00:00:00,1,1610612751,BKN,Brooklyn,18-22,27,19,27,28,0,0,0,0,0,0,0,0,0,0,101,0.494,0.846,0.357,29,36,8,0021300616,1610612751,BKN,Brooklyn,Andrei Kirilenko,,,21:31,0.0,0.0,0.0,4.0,4.0,4.0,7.0,16.0,2.0,0.0,1.0,0.0
0021300616,1610612751,BKN,Brooklyn,1891,Jason Terry,,,21:43,101.2,128.1,-26.9,0.0,0.0,0.0,0.05,0.067,0.057,0.0,0.75,0.868,0.066,91.37,0.062,2014-01-21T00:00:00,1,1610612753,ORL,Orlando,11-31,21,21,14,34,0,0,0,0,0,0,0,0,0,0,90,0.458,0.739,0.368,23,37,13,0021300616,1610612751,BKN,Brooklyn,Jason Terry,,,21:43,2.0,0.0,2.0,0.0,6.0,4.0,14.0,22.0,0.0,0.0,1.0,1.0
0021300616,1610612751,BKN,Brooklyn,1891,Jason Terry,,,21:43,101.2,128.1,-26.9,0.0,0.0,0.0,0.05,0.067,0.057,0.0,0.75,0.868,0.066,91.37,0.062,2014-01-21T00:00:00,1,1610612751,BKN,Brooklyn,18-22,27,19,27,28,0,0,0,0,0,0,0,0,0,0,101,0.494,0.846,0.357,29,36,8,0021300616,1610612751,BKN,Brooklyn,Jason Terry,,,21:43,2.0,0.0,2.0,0.0,6.0,4.0,14.0,22.0,0.0,0.0,1.0,1.0
0021300616,1610612751,BKN,Brooklyn,203141,Mirza Teletovic,,,20:39,109.3,133.2,-24.0,0.222,2.0,15.4,0.1,0.1,0.1,7.7,0.7,0.7,0.271,88.1,0.136,2014-01-21T00:00:00,1,1610612753,ORL,Orlando,11-31,21,21,14,34,0,0,0,0,0,0,0,0,0,0,90,0.458,0.739,0.368,23,37,13,0021300616,1610612751,BKN,Brooklyn,Mirza Teletovic,,,20:39,2.0,0.0,0.0,2.0,4.0,1.0,12.0,20.0,0.0,0.0,1.0,1.0
0021300616,1610612751,BKN,Brooklyn,203141,Mirza Teletovic,,,20:39,109.3,133.2,-24.0,0.222,2.0,15.4,0.1,0.1,0.1,7.7,0.7,0.7,0.271,88.1,0.136,2014-01-21T00:00:00,1,1610612751,BKN,Brooklyn,18-22,27,19,27,28,0,0,0,0,0,0,0,0,0,0,101,0.494,0.846,0.357,29,36,8,0021300616,1610612751,BKN,Brooklyn,Mirza Teletovic,,,20:39,2.0,0.0,0.0,2.0,4.0,1.0,12.0,20.0,0.0,0.0,1.0,1.0
0021300616,1610612751,BKN,Brooklyn,203486,Mason Plumlee,,,5:24,77.8,158.7,-81.0,0.0,0.0,0.0,0.0,0.5,0.167,0.0,0.5,0.5,0.222,84.8,0.043,2014-01-21T00:00:00,1,1610612753,ORL,Orlando,11-31,21,21,14,34,0,0,0,0,0,0,0,0,0,0,90,0.458,0.739,0.368,23,37,13,0021300616,1610612751,BKN,Brooklyn,Mason Plumlee,,,5:24,0.0,0.0,0.0,2.0,2.0,0.0,7.0,6.0,0.0,0.0,1.0,0.0
0021300616,1610612751,BKN,Brooklyn,203486,Mason Plumlee,,,5:24,77.8,158.7,-81.0,0.0,0.0,0.0,0.0,0.5,0.167,0.0,0.5,0.5,0.222,84.8,0.043,2014-01-21T00:00:00,1,1610612751,BKN,Brooklyn,18-22,27,19,27,28,0,0,0,0,0,0,0,0,0,0,101,0.494,0.846,0.357,29,36,8,0021300616,1610612751,BKN,Brooklyn,Mason Plumlee,,,5:24,0.0,0.0,0.0,2.0,2.0,0.0,7.0,6.0,0.0,0.0,1.0,0.0
0021300616,1610612751,BKN,Brooklyn,2501,Reggie Evans,,DNP - Coach's Decision,,,,,,,0.0,,,,,,,0.0,,,2014-01-21T00:00:00,1,1610612753,ORL,Orlando,11-31,21,21,14,34,0,0,0,0,0,0,0,0,0,0,90,0.458,0.739,0.368,23,37,13,0021300616,1610612751,BKN,Brooklyn,Reggie Evans,,DNP - Coach's Decision,,,,,,,,,,,,,
0021300616,1610612751,BKN,Brooklyn,2501,Reggie Evans,,DNP - Coach's Decision,,,,,,,0.0,,,,,,,0.0,,,2014-01-21T00:00:00,1,1610612751,BKN,Brooklyn,18-22,27,19,27,28,0,0,0,0,0,0,0,0,0,0,101,0.494,0.846,0.357,29,36,8,0021300616,1610612751,BKN,Brooklyn,Reggie Evans,,DNP - Coach's Decision,,,,,,,,,,,,,
