GAME_ID_x,TEAM_ID_x,TEAM_ABBREVIATION_x,TEAM_CITY_x,PLAYER_ID,PLAYER_NAME_x,START_POSITION_x,COMMENT_x,MIN_x,OFF_RATING,DEF_RATING,NET_RATING,AST_PCT,AST_TOV,AST_RATIO,OREB_PCT,DREB_PCT,REB_PCT,TM_TOV_PCT,EFG_PCT,TS_PCT,USG_PCT,PACE,PIE,GAME_DATE_EST,GAME_SEQUENCE,TEAM_ID_y,TEAM_ABBREVIATION_y,TEAM_CITY_NAME,TEAM_WINS_LOSSES,PTS_QTR1,PTS_QTR2,PTS_QTR3,PTS_QTR4,PTS_OT1,PTS_OT2,PTS_OT3,PTS_OT4,PTS_OT5,PTS_OT6,PTS_OT7,PTS_OT8,PTS_OT9,PTS_OT10,PTS,FG_PCT,FT_PCT,FG3_PCT,AST,REB,TOV,GAME_ID_y,TEAM_ID,TEAM_ABBREVIATION,TEAM_CITY_y,PLAYER_NAME_y,START_POSITION_y,COMMENT_y,MIN_y,PTS_OFF_TOV,PTS_2ND_CHANCE,PTS_FB,PTS_PAINT,OPP_PTS_OFF_TOV,OPP_PTS_2ND_CHANCE,OPP_PTS_FB,OPP_PTS_PAINT,BLK,BLKA,PF,PFD
0021300627,1610612758,SAC,Sacramento,200752,Rudy Gay,F,,5:59,101.0,70.5,30.5,0.0,0.0,0.0,0.0,0.0,0.0,0.0,0.4,0.4,0.421,98.83,0.059,2014-01-22T00:00:00,7,1610612758,SAC,Sacramento,15-26,22,22,29,25,0,0,0,0,0,0,0,0,0,0,98,0.395,0.6,0.4,19,42,13,0021300627,1610612758,SAC,Sacramento,Rudy Gay,F,,5:59,0.0,0.0,0.0,0.0,0.0,2.0,2.0,8.0,0.0,0.0,0.0,0.0
0021300627,1610612758,SAC,Sacramento,200752,Rudy Gay,F,,5:59,101.0,70.5,30.5,0.0,0.0,0.0,0.0,0.0,0.0,0.0,0.4,0.4,0.421,98.83,0.059,2014-01-22T00:00:00,7,1610612745,HOU,Houston,29-15,29,26,33,31,0,0,0,0,0,0,0,0,0,0,119,0.478,0.625,0.258,29,55,10,0021300627,1610612758,SAC,Sacramento,Rudy Gay,F,,5:59,0.0,0.0,0.0,0.0,0.0,2.0,2.0,8.0,0.0,0.0,0.0,0.0
0021300627,1610612758,SAC,Sacramento,201574,Jason Thompson,F,,22:25,93.3,120.6,-27.3,0.091,1.0,10.0,0.136,0.263,0.195,10.0,0.75,0.75,0.179,102.85,0.156,2014-01-22T00:00:00,7,1610612758,SAC,Sacramento,15-26,22,22,29,25,0,0,0,0,0,0,0,0,0,0,98,0.395,0.6,0.4,19,42,13,0021300627,1610612758,SAC,Sacramento,Jason Thompson,F,,22:25,4.0,8.0,0.0,10.0,7.0,12.0,16.0,36.0,0.0,1.0,4.0,0.0
0021300627,1610612758,SAC,Sacramento,201574,Jason Thompson,F,,22:25,93.3,120.6,-27.3,0.091,1.0,10.0,0.136,0.263,0.195,10.0,0.75,0.75,0.179,102.85,0.156,2014-01-22T00:00:00,7,1610612745,HOU,Houston,29-15,29,26,33,31,0,0,0,0,0,0,0,0,0,0,119,0.478,0.625,0.258,29,55,10,0021300627,1610612758,SAC,Sacramento,Jason Thompson,F,,22:25,4.0,8.0,0.0,10.0,7.0,12.0,16.0,36.0,0.0,1.0,4.0,0.0
0021300627,1610612758,SAC,Sacramento,202326,DeMarcus Cousins,C,,9:28,98.4,91.5,6.9,0.375,0.0,51.0,0.0,0.364,0.222,0.0,0.5,0.347,0.142,104.15,0.169,2014-01-22T00:00:00,7,1610612758,SAC,Sacramento,15-26,22,22,29,25,0,0,0,0,0,0,0,0,0,0,98,0.395,0.6,0.4,19,42,13,0021300627,1610612758,SAC,Sacramento,DeMarcus Cousins,C,,9:28,0.0,0.0,0.0,2.0,2.0,2.0,8.0,18.0,2.0,1.0,2.0,3.0
0021300627,1610612758,SAC,Sacramento,202326,DeMarcus Cousins,C,,9:28,98.4,91.5,6.9,0.375,0.0,51.0,0.0,0.364,0.222,0.0,0.5,0.347,0.142,104.15,0.169,2014-01-22T00:00:00,7,1610612745,HOU,Houston,29-15,29,26,33,31,0,0,0,0,0,0,0,0,0,0,119,0.478,0.625,0.258,29,55,10,0021300627,1610612758,SAC,Sacramento,DeMarcus Cousins,C,,9:28,0.0,0.0,0.0,2.0,2.0,2.0,8.0,18.0,2.0,1.0,2.0,3.0
0021300627,1610612758,SAC,Sacramento,201977,Marcus Thornton,G,,22:09,84.3,117.2,-32.9,0.143,2.0,18.2,0.0,0.0,0.0,9.1,0.25,0.25,0.183,101.96,-0.049,2014-01-22T00:00:00,7,1610612758,SAC,Sacramento,15-26,22,22,29,25,0,0,0,0,0,0,0,0,0,0,98,0.395,0.6,0.4,19,42,13,0021300627,1610612758,SAC,Sacramento,Marcus Thornton,G,,22:09,0.0,0.0,0.0,4.0,9.0,10.0,18.0,34.0,1.0,1.0,3.0,0.0
0021300627,1610612758,SAC,Sacramento,201977,Marcus Thornton,G,,22:09,84.3,117.2,-32.9,0.143,2.0,18.2,0.0,0.0,0.0,9.1,0.25,0.25,0.183,101.96,-0.049,2014-01-22T00:00:00,7,1610612745,HOU,Houston,29-15,29,26,33,31,0,0,0,0,0,0,0,0,0,0,119,0.478,0.625,0.258,29,55,10,0021300627,1610612758,SAC,Sacramento,Marcus Thornton,G,,22:09,0.0,0.0,0.0,4.0,9.0,10.0,18.0,34.0,1.0,1.0,3.0,0.0
0021300627,1610612758,SAC,Sacramento,202738,Isaiah Thomas,G,,39:06,90.0,114.0,-24.0,0.286,1.5,19.7,0.0,0.083,0.038,13.2,0.438,0.49,0.261,105.13,0.066,2014-01-22T00:00:00,7,1610612758,SAC,Sacramento,15-26,22,22,29,25,0,0,0,0,0,0,0,0,0,0,98,0.395,0.6,0.4,19,42,13,0021300627,1610612758,SAC,Sacramento,Isaiah Thomas,G,,39:06,2.0,0.0,2.0,8.0,14.0,21.0,24.0,60.0,1.0,0.0,5.0,7.0
0021300627,1610612758,SAC,Sacramento,202738,Isaiah Thomas,G,,39:06,90.0,114.0,-24.0,0.286,1.5,19.7,0.0,0.083,0.038,13.2,0.438,0.49,0.261,105.13,0.066,2014-01-22T00:00:00,7,1610612745,HOU,Houston,29-15,29,26,33,31,0,0,0,0,0,0,0,0,0,0,119,0.478,0.625,0.258,29,55,10,0021300627,1610612758,SAC,Sacramento,Isaiah Thomas,G,,39:06,2.0,0.0,2.0,8.0,14.0,21.0,24.0,60.0,1.0,0.0,5.0,7.0
0021300627,1610612758,SAC,Sacramento,202682,Derrick Williams,,,39:37,98.8,122.1,-23.3,0.05,1.0,4.9,0.089,0.206,0.139,4.9,0.567,0.594,0.205,103.5,0.126,2014-01-22T00:00:00,7,1610612758,SAC,Sacramento,15-26,22,22,29,25,0,0,0,0,0,0,0,0,0,0,98,0.395,0.6,0.4,19,42,13,0021300627,1610612758,SAC,Sacramento,Derrick Williams,,,39:37,1.0,6.0,1.0,6.0,12.0,23.0,25.0,54.0,0.0,0.0,1.0,4.0
0021300627,1610612758,SAC,Sacramento,202682,Derrick Williams,,,39:37,98.8,122.1,-23.3,0.05,1.0,4.9,0.089,0.206,0.139,4.9,0.567,0.594,0.205,103.5,0.126,2014-01-22T00:00:00,7,1610612745,HOU,Houston,29-15,29,26,33,31,0,0,0,0,0,0,0,0,0,0,119,0.478,0.625,0.258,29,55,10,0021300627,1610612758,SAC,Sacramento,Derrick Williams,,,39:37,1.0,6.0,1.0,6.0,12.0,23.0,25.0,54.0,0.0,0.0,1.0,4.0
0021300627,1610612758,SAC,Sacramento,201189,Aaron Gray,,,11:47,66.8,137.1,-70.4,0.167,0.0,20.5,0.0,0.2,0.08,0.0,0.0,0.0,0.139,106.84,-0.048,2014-01-22T00:00:00,7,1610612758,SAC,Sacramento,15-26,22,22,29,25,0,0,0,0,0,0,0,0,0,0,98,0.395,0.6,0.4,19,42,13,0021300627,1610612758,SAC,Sacramento,Aaron Gray,,,11:47,0.0,0.0,0.0,0.0,3.0,13.0,10.0,20.0,0.0,1.0,1.0,1.0
0021300627,1610612758,SAC,Sacramento,201189,Aaron Gray,,,11:47,66.8,137.1,-70.4,0.167,0.0,20.5,0.0,0.2,0.08,0.0,0.0,0.0,0.139,106.84,-0.048,2014-01-22T00:00:00,7,1610612745,HOU,Houston,29-15,29,26,33,31,0,0,0,0,0,0,0,0,0,0,119,0.478,0.625,0.258,29,55,10,0021300627,1610612758,SAC,Sacramento,Aaron Gray,,,11:47,0.0,0.0,0.0,0.0,3.0,13.0,10.0,20.0,0.0,1.0,1.0,1.0
0021300627,1610612758,SAC,Sacramento,203463,Ben McLemore,,,35:08,103.2,109.8,-6.6,0.0,0.0,0.0,0.0,0.029,0.013,15.5,0.45,0.506,0.147,105.8,-0.015,2014-01-22T00:00:00,7,1610612758,SAC,Sacramento,15-26,22,22,29,25,0,0,0,0,0,0,0,0,0,0,98,0.395,0.6,0.4,19,42,13,0021300627,1610612758,SAC,Sacramento,Ben McLemore,,,35:08,3.0,0.0,0.0,0.0,11.0,18.0,19.0,46.0,0.0,1.0,5.0,2.0
0021300627,1610612758,SAC,Sacramento,203463,Ben McLemore,,,35:08,103.2,109.8,-6.6,0.0,0.0,0.0,0.0,0.029,0.013,15.5,0.45,0.506,0.147,105.8,-0.015,2014-01-22T00:00:00,7,1610612745,HOU,Houston,29-15,29,26,33,31,0,0,0,0,0,0,0,0,0,0,119,0.478,0.625,0.258,29,55,10,0021300627,1610612758,SAC,Sacramento,Ben McLemore,,,35:08,3.0,0.0,0.0,0.0,11.0,18.0,19.0,46.0,0.0,1.0,5.0,2.0
0021300627,1610612758,SAC,Sacramento,203112,Quincy Acy,,,11:05,93.3,99.3,-6.0,0.0,0.0,0.0,0.0,0.231,0.125,0.0,0.0,0.0,0.0,103.54,0.119,2014-01-22T00:00:00,7,1610612758,SAC,Sacramento,15-26,22,22,29,25,0,0,0,0,0,0,0,0,0,0,98,0.395,0.6,0.4,19,42,13,0021300627,1610612758,SAC,Sacramento,Quincy Acy,,,11:05,0.0,0.0,0.0,0.0,3.0,11.0,2.0,12.0,1.0,0.0,1.0,0.0
0021300627,1610612758,SAC,Sacramento,203112,Quincy Acy,,,11:05,93.3,99.3,-6.0,0.0,0.0,0.0,0.0,0.231,0.125,0.0,0.0,0.0,0.0,103.54,0.119,2014-01-22T00:00:00,7,1610612745,HOU,Houston,29-15,29,26,33,31,0,0,0,0,0,0,0,0,0,0,119,0.478,0.625,0.258,29,55,10,0021300627,1610612758,SAC,Sacramento,Quincy Acy,,,11:05,0.0,0.0,0.0,0.0,3.0,11.0,2.0,12.0,1.0,0.0,1.0,0.0
0021300627,1610612758,SAC,Sacramento,202690,Jimmer Fredette,,,17:48,81.4,111.9,-30.5,0.2,0.5,10.1,0.0,0.125,0.056,20.2,1.0,1.017,0.212,100.26,0.215,2014-01-22T00:00:00,7,1610612758,SAC,Sacramento,15-26,22,22,29,25,0,0,0,0,0,0,0,0,0,0,98,0.395,0.6,0.4,19,42,13,0021300627,1610612758,SAC,Sacramento,Jimmer Fredette,,,17:48,0.0,0.0,0.0,0.0,7.0,7.0,9.0,20.0,0.0,0.0,0.0,1.0
0021300627,1610612758,SAC,Sacramento,202690,Jimmer Fredette,,,17:48,81.4,111.9,-30.5,0.2,0.5,10.1,0.0,0.125,0.056,20.2,1.0,1.017,0.212,100.26,0.215,2014-01-22T00:00:00,7,1610612745,HOU,Houston,29-15,29,26,33,31,0,0,0,0,0,0,0,0,0,0,119,0.478,0.625,0.258,29,55,10,0021300627,1610612758,SAC,Sacramento,Jimmer Fredette,,,17:48,0.0,0.0,0.0,0.0,7.0,7.0,9.0,20.0,0.0,0.0,0.0,1.0
0021300627,1610612758,SAC,Sacramento,2566,Travis Outlaw,,,5:31,150.3,98.7,51.6,0.0,0.0,0.0,0.143,0.0,0.071,0.0,0.0,0.174,0.197,107.89,-0.212,2014-01-22T00:00:00,7,1610612758,SAC,Sacramento,15-26,22,22,29,25,0,0,0,0,0,0,0,0,0,0,98,0.395,0.6,0.4,19,42,13,0021300627,1610612758,SAC,Sacramento,Travis Outlaw,,,5:31,0.0,0.0,0.0,0.0,0.0,2.0,0.0,4.0,0.0,2.0,2.0,1.0
0021300627,1610612758,SAC,Sacramento,2566,Travis Outlaw,,,5:31,150.3,98.7,51.6,0.0,0.0,0.0,0.143,0.0,0.071,0.0,0.0,0.174,0.197,107.89,-0.212,2014-01-22T00:00:00,7,1610612745,HOU,Houston,29-15,29,26,33,31,0,0,0,0,0,0,0,0,0,0,119,0.478,0.625,0.258,29,55,10,0021300627,1610612758,SAC,Sacramento,Travis Outlaw,,,5:31,0.0,0.0,0.0,0.0,0.0,2.0,0.0,4.0,0.0,2.0,2.0,1.0
0021300627,1610612758,SAC,Sacramento,201171,Carl Landry,,,12:00,106.3,120.9,-14.6,0.0,0.0,0.0,0.188,0.3,0.231,18.4,0.25,0.338,0.381,98.32,0.009,2014-01-22T00:00:00,7,1610612758,SAC,Sacramento,15-26,22,22,29,25,0,0,0,0,0,0,0,0,0,0,98,0.395,0.6,0.4,19,42,13,0021300627,1610612758,SAC,Sacramento,Carl Landry,,,12:00,0.0,2.0,2.0,2.0,2.0,2.0,7.0,14.0,0.0,2.0,2.0,2.0
0021300627,1610612758,SAC,Sacramento,201171,Carl Landry,,,12:00,106.3,120.9,-14.6,0.0,0.0,0.0,0.188,0.3,0.231,18.4,0.25,0.338,0.381,98.32,0.009,2014-01-22T00:00:00,7,1610612745,HOU,Houston,29-15,29,26,33,31,0,0,0,0,0,0,0,0,0,0,119,0.478,0.625,0.258,29,55,10,0021300627,1610612758,SAC,Sacramento,Carl Landry,,,12:00,0.0,2.0,2.0,2.0,2.0,2.0,7.0,14.0,0.0,2.0,2.0,2.0
0021300627,1610612758,SAC,Sacramento,203492,Ray McCallum,,,7:57,139.6,107.4,32.2,0.667,0.0,57.1,0.0,0.125,0.063,0.0,0.333,0.333,0.169,98.17,0.129,2014-01-22T00:00:00,7,1610612758,SAC,Sacramento,15-26,22,22,29,25,0,0,0,0,0,0,0,0,0,0,98,0.395,0.6,0.4,19,42,13,0021300627,1610612758,SAC,Sacramento,Ray McCallum,,,7:57,0.0,0.0,0.0,0.0,0.0,2.0,5.0,4.0,1.0,0.0,0.0,0.0
0021300627,1610612758,SAC,Sacramento,203492,Ray McCallum,,,7:57,139.6,107.4,32.2,0.667,0.0,57.1,0.0,0.125,0.063,0.0,0.333,0.333,0.169,98.17,0.129,2014-01-22T00:00:00,7,1610612745,HOU,Houston,29-15,29,26,33,31,0,0,0,0,0,0,0,0,0,0,119,0.478,0.625,0.258,29,55,10,0021300627,1610612758,SAC,Sacramento,Ray McCallum,,,7:57,0.0,0.0,0.0,0.0,0.0,2.0,5.0,4.0,1.0,0.0,0.0,0.0
0021300627,1610612745,HOU,Houston,202718,Chandler Parsons,F,,34:53,115.3,96.2,19.1,0.16,2.0,18.3,0.133,0.167,0.152,9.1,0.567,0.598,0.21,103.29,0.169,2014-01-22T00:00:00,7,1610612758,SAC,Sacramento,15-26,22,22,29,25,0,0,0,0,0,0,0,0,0,0,98,0.395,0.6,0.4,19,42,13,0021300627,1610612745,HOU,Houston,Chandler Parsons,F,,34:53,2.0,5.0,2.0,8.0,10.0,12.0,3.0,28.0,0.0,1.0,0.0,2.0
0021300627,1610612745,HOU,Houston,202718,Chandler Parsons,F,,34:53,115.3,96.2,19.1,0.16,2.0,18.3,0.133,0.167,0.152,9.1,0.567,0.598,0.21,103.29,0.169,2014-01-22T00:00:00,7,1610612745,HOU,Houston,29-15,29,26,33,31,0,0,0,0,0,0,0,0,0,0,119,0.478,0.625,0.258,29,55,10,0021300627,1610612745,HOU,Houston,Chandler Parsons,F,,34:53,2.0,5.0,2.0,8.0,10.0,12.0,3.0,28.0,0.0,1.0,0.0,2.0
0021300627,1610612745,HOU,Houston,202700,Donatas Motiejunas,F,,29:01,114.9,83.7,31.1,0.083,2.0,19.4,0.036,0.267,0.155,9.7,0.333,0.41,0.119,104.44,0.048,2014-01-22T00:00:00,7,1610612758,SAC,Sacramento,15-26,22,22,29,25,0,0,0,0,0,0,0,0,0,0,98,0.395,0.6,0.4,19,42,13,0021300627,1610612745,HOU,Houston,Donatas Motiejunas,F,,29:01,2.0,0.0,4.0,4.0,5.0,7.0,4.0,20.0,1.0,1.0,6.0,3.0
0021300627,1610612745,HOU,Houston,202700,Donatas Motiejunas,F,,29:01,114.9,83.7,31.1,0.083,2.0,19.4,0.036,0.267,0.155,9.7,0.333,0.41,0.119,104.44,0.048,2014-01-22T00:00:00,7,1610612745,HOU,Houston,29-15,29,26,33,31,0,0,0,0,0,0,0,0,0,0,119,0.478,0.625,0.258,29,55,10,0021300627,1610612745,HOU,Houston,Donatas Motiejunas,F,,29:01,2.0,0.0,4.0,4.0,5.0,7.0,4.0,20.0,1.0,1.0,6.0,3.0
0021300627,1610612745,HOU,Houston,2730,Dwight Howard,C,,32:28,112.6,101.9,10.7,0.056,0.5,4.3,0.125,0.265,0.197,8.5,0.769,0.635,0.271,104.71,0.208,2014-01-22T00:00:00,7,1610612758,SAC,Sacramento,15-26,22,22,29,25,0,0,0,0,0,0,0,0,0,0,98,0.395,0.6,0.4,19,42,13,0021300627,1610612745,HOU,Houston,Dwight Howard,C,,32:28,0.0,8.0,0.0,20.0,10.0,11.0,3.0,28.0,4.0,1.0,1.0,9.0
0021300627,1610612745,HOU,Houston,2730,Dwight Howard,C,,32:28,112.6,101.9,10.7,0.056,0.5,4.3,0.125,0.265,0.197,8.5,0.769,0.635,0.271,104.71,0.208,2014-01-22T00:00:00,7,1610612745,HOU,Houston,29-15,29,26,33,31,0,0,0,0,0,0,0,0,0,0,119,0.478,0.625,0.258,29,55,10,0021300627,1610612745,HOU,Houston,Dwight Howard,C,,32:28,0.0,8.0,0.0,20.0,10.0,11.0,3.0,28.0,4.0,1.0,1.0,9.0
0021300627,1610612745,HOU,Houston,201935,James Harden,G,,33:03,113.8,98.1,15.7,0.409,3.0,27.8,0.0,0.061,0.031,9.3,0.438,0.588,0.275,104.16,0.208,2014-01-22T00:00:00,7,1610612758,SAC,Sacramento,15-26,22,22,29,25,0,0,0,0,0,0,0,0,0,0,98,0.395,0.6,0.4,19,42,13,0021300627,1610612745,HOU,Houston,James Harden,G,,33:03,4.0,0.0,18.0,14.0,10.0,13.0,3.0,30.0,2.0,0.0,2.0,6.0
0021300627,1610612745,HOU,Houston,201935,James Harden,G,,33:03,113.8,98.1,15.7,0.409,3.0,27.8,0.0,0.061,0.031,9.3,0.438,0.588,0.275,104.16,0.208,2014-01-22T00:00:00,7,1610612745,HOU,Houston,29-15,29,26,33,31,0,0,0,0,0,0,0,0,0,0,119,0.478,0.625,0.258,29,55,10,0021300627,1610612745,HOU,Houston,James Harden,G,,33:03,4.0,0.0,18.0,14.0,10.0,13.0,3.0,30.0,2.0,0.0,2.0,6.0
0021300627,1610612745,HOU,Houston,201976,Patrick Beverley,G,,33:11,117.9,76.4,41.5,0.276,0.0,44.7,0.034,0.132,0.09,0.0,0.278,0.304,0.12,103.23,0.099,2014-01-22T00:00:00,7,1610612758,SAC,Sacramento,15-26,22,22,29,25,0,0,0,0,0,0,0,0,0,0,98,0.395,0.6,0.4,19,42,13,0021300627,1610612745,HOU,Houston,Patrick Beverley,G,,33:11,3.0,1.0,2.0,2.0,3.0,10.0,3.0,22.0,1.0,3.0,4.0,2.0
0021300627,1610612745,HOU,Houston,201976,Patrick Beverley,G,,33:11,117.9,76.4,41.5,0.276,0.0,44.7,0.034,0.132,0.09,0.0,0.278,0.304,0.12,103.23,0.099,2014-01-22T00:00:00,7,1610612745,HOU,Houston,29-15,29,26,33,31,0,0,0,0,0,0,0,0,0,0,119,0.478,0.625,0.258,29,55,10,0021300627,1610612745,HOU,Houston,Patrick Beverley,G,,33:11,3.0,1.0,2.0,2.0,3.0,10.0,3.0,22.0,1.0,3.0,4.0,2.0
0021300627,1610612745,HOU,Houston,201956,Omri Casspi,,,33:03,116.0,96.7,19.2,0.045,1.0,5.9,0.103,0.225,0.174,5.9,0.667,0.667,0.196,102.16,0.182,2014-01-22T00:00:00,7,1610612758,SAC,Sacramento,15-26,22,22,29,25,0,0,0,0,0,0,0,0,0,0,98,0.395,0.6,0.4,19,42,13,0021300627,1610612745,HOU,Houston,Omri Casspi,,,33:03,3.0,5.0,0.0,12.0,5.0,14.0,3.0,16.0,0.0,0.0,4.0,0.0
0021300627,1610612745,HOU,Houston,201956,Omri Casspi,,,33:03,116.0,96.7,19.2,0.045,1.0,5.9,0.103,0.225,0.174,5.9,0.667,0.667,0.196,102.16,0.182,2014-01-22T00:00:00,7,1610612745,HOU,Houston,29-15,29,26,33,31,0,0,0,0,0,0,0,0,0,0,119,0.478,0.625,0.258,29,55,10,0021300627,1610612745,HOU,Houston,Omri Casspi,,,33:03,3.0,5.0,0.0,12.0,5.0,14.0,3.0,16.0,0.0,0.0,4.0,0.0
0021300627,1610612745,HOU,Houston,202391,Jeremy Lin,,,29:36,111.5,99.2,12.3,0.182,4.0,22.7,0.033,0.0,0.016,5.7,0.45,0.514,0.188,102.31,0.068,2014-01-22T00:00:00,7,1610612758,SAC,Sacramento,15-26,22,22,29,25,0,0,0,0,0,0,0,0,0,0,98,0.395,0.6,0.4,19,42,13,0021300627,1610612745,HOU,Houston,Jeremy Lin,,,29:36,0.0,6.0,0.0,6.0,7.0,11.0,2.0,12.0,1.0,0.0,3.0,4.0
0021300627,1610612745,HOU,Houston,202391,Jeremy Lin,,,29:36,111.5,99.2,12.3,0.182,4.0,22.7,0.033,0.0,0.016,5.7,0.45,0.514,0.188,102.31,0.068,2014-01-22T00:00:00,7,1610612745,HOU,Houston,29-15,29,26,33,31,0,0,0,0,0,0,0,0,0,0,119,0.478,0.625,0.258,29,55,10,0021300627,1610612745,HOU,Houston,Jeremy Lin,,,29:36,0.0,6.0,0.0,6.0,7.0,11.0,2.0,12.0,1.0,0.0,3.0,4.0
0021300627,1610612745,HOU,Houston,203496,Robert Covington,,,10:02,110.3,132.4,-22.1,0.0,0.0,0.0,0.0,0.0,0.0,0.0,0.5,0.5,0.22,100.85,0.038,2014-01-22T00:00:00,7,1610612758,SAC,Sacramento,15-26,22,22,29,25,0,0,0,0,0,0,0,0,0,0,98,0.395,0.6,0.4,19,42,13,0021300627,1610612745,HOU,Houston,Robert Covington,,,10:02,0.0,0.0,3.0,0.0,0.0,2.0,2.0,2.0,0.0,0.0,1.0,0.0
0021300627,1610612745,HOU,Houston,203496,Robert Covington,,,10:02,110.3,132.4,-22.1,0.0,0.0,0.0,0.0,0.0,0.0,0.0,0.5,0.5,0.22,100.85,0.038,2014-01-22T00:00:00,7,1610612745,HOU,Houston,29-15,29,26,33,31,0,0,0,0,0,0,0,0,0,0,119,0.478,0.625,0.258,29,55,10,0021300627,1610612745,HOU,Houston,Robert Covington,,,10:02,0.0,0.0,3.0,0.0,0.0,2.0,2.0,2.0,0.0,0.0,1.0,0.0
0021300627,1610612745,HOU,Houston,201166,Aaron Brooks,,,4:43,82.7,151.8,-69.1,0.0,0.0,0.0,0.0,0.5,0.2,0.0,0.0,0.0,0.092,105.63,0.038,2014-01-22T00:00:00,7,1610612758,SAC,Sacramento,15-26,22,22,29,25,0,0,0,0,0,0,0,0,0,0,98,0.395,0.6,0.4,19,42,13,0021300627,1610612745,HOU,Houston,Aaron Brooks,,,4:43,0.0,0.0,0.0,0.0,0.0,0.0,2.0,2.0,0.0,0.0,0.0,0.0
0021300627,1610612745,HOU,Houston,201166,Aaron Brooks,,,4:43,82.7,151.8,-69.1,0.0,0.0,0.0,0.0,0.5,0.2,0.0,0.0,0.0,0.092,105.63,0.038,2014-01-22T00:00:00,7,1610612745,HOU,Houston,29-15,29,26,33,31,0,0,0,0,0,0,0,0,0,0,119,0.478,0.625,0.258,29,55,10,0021300627,1610612745,HOU,Houston,Aaron Brooks,,,4:43,0.0,0.0,0.0,0.0,0.0,0.0,2.0,2.0,0.0,0.0,0.0,0.0
0021300627,1610612745,HOU,Houston,200758,Ronnie Brewer,,DND - Sore Calf,,,,,,,0.0,,,,,,,0.0,,,2014-01-22T00:00:00,7,1610612758,SAC,Sacramento,15-26,22,22,29,25,0,0,0,0,0,0,0,0,0,0,98,0.395,0.6,0.4,19,42,13,0021300627,1610612745,HOU,Houston,Ronnie Brewer,,DND - Sore Calf,,,,,,,,,,,,,
0021300627,1610612745,HOU,Houston,200758,Ronnie Brewer,,DND - Sore Calf,,,,,,,0.0,,,,,,,0.0,,,2014-01-22T00:00:00,7,1610612745,HOU,Houston,29-15,29,26,33,31,0,0,0,0,0,0,0,0,0,0,119,0.478,0.625,0.258,29,55,10,0021300627,1610612745,HOU,Houston,Ronnie Brewer,,DND - Sore Calf,,,,,,,,,,,,,
0021300627,1610612745,HOU,Houston,101128,Francisco Garcia,,DND - Sore Left Knee,,,,,,,0.0,,,,,,,0.0,,,2014-01-22T00:00:00,7,1610612758,SAC,Sacramento,15-26,22,22,29,25,0,0,0,0,0,0,0,0,0,0,98,0.395,0.6,0.4,19,42,13,0021300627,1610612745,HOU,Houston,Francisco Garcia,,DND - Sore Left Knee,,,,,,,,,,,,,
0021300627,1610612745,HOU,Houston,101128,Francisco Garcia,,DND - Sore Left Knee,,,,,,,0.0,,,,,,,0.0,,,2014-01-22T00:00:00,7,1610612745,HOU,Houston,29-15,29,26,33,31,0,0,0,0,0,0,0,0,0,0,119,0.478,0.625,0.258,29,55,10,0021300627,1610612745,HOU,Houston,Francisco Garcia,,DND - Sore Left Knee,,,,,,,,,,,,,
0021300627,1610612745,HOU,Houston,203093,Terrence Jones,,DND - Deep Left Thigh Bruise,,,,,,,0.0,,,,,,,0.0,,,2014-01-22T00:00:00,7,1610612758,SAC,Sacramento,15-26,22,22,29,25,0,0,0,0,0,0,0,0,0,0,98,0.395,0.6,0.4,19,42,13,0021300627,1610612745,HOU,Houston,Terrence Jones,,DND - Deep Left Thigh Bruise,,,,,,,,,,,,,
0021300627,1610612745,HOU,Houston,203093,Terrence Jones,,DND - Deep Left Thigh Bruise,,,,,,,0.0,,,,,,,0.0,,,2014-01-22T00:00:00,7,1610612745,HOU,Houston,29-15,29,26,33,31,0,0,0,0,0,0,0,0,0,0,119,0.478,0.625,0.258,29,55,10,0021300627,1610612745,HOU,Houston,Terrence Jones,,DND - Deep Left Thigh Bruise,,,,,,,,,,,,,
0021300627,1610612745,HOU,Houston,202962,Greg Smith,,DND - Sore Right Knee,,,,,,,0.0,,,,,,,0.0,,,2014-01-22T00:00:00,7,1610612758,SAC,Sacramento,15-26,22,22,29,25,0,0,0,0,0,0,0,0,0,0,98,0.395,0.6,0.4,19,42,13,0021300627,1610612745,HOU,Houston,Greg Smith,,DND - Sore Right Knee,,,,,,,,,,,,,
0021300627,1610612745,HOU,Houston,202962,Greg Smith,,DND - Sore Right Knee,,,,,,,0.0,,,,,,,0.0,,,2014-01-22T00:00:00,7,1610612745,HOU,Houston,29-15,29,26,33,31,0,0,0,0,0,0,0,0,0,0,119,0.478,0.625,0.258,29,55,10,0021300627,1610612745,HOU,Houston,Greg Smith,,DND - Sore Right Knee,,,,,,,,,,,,,
