GAME_ID_x,TEAM_ID_x,TEAM_ABBREVIATION_x,TEAM_CITY_x,PLAYER_ID,PLAYER_NAME_x,START_POSITION_x,COMMENT_x,MIN_x,OFF_RATING,DEF_RATING,NET_RATING,AST_PCT,AST_TOV,AST_RATIO,OREB_PCT,DREB_PCT,REB_PCT,TM_TOV_PCT,EFG_PCT,TS_PCT,USG_PCT,PACE,PIE,GAME_DATE_EST,GAME_SEQUENCE,TEAM_ID_y,TEAM_ABBREVIATION_y,TEAM_CITY_NAME,TEAM_WINS_LOSSES,PTS_QTR1,PTS_QTR2,PTS_QTR3,PTS_QTR4,PTS_OT1,PTS_OT2,PTS_OT3,PTS_OT4,PTS_OT5,PTS_OT6,PTS_OT7,PTS_OT8,PTS_OT9,PTS_OT10,PTS,FG_PCT,FT_PCT,FG3_PCT,AST,REB,TOV,GAME_ID_y,TEAM_ID,TEAM_ABBREVIATION,TEAM_CITY_y,PLAYER_NAME_y,START_POSITION_y,COMMENT_y,MIN_y,PTS_OFF_TOV,PTS_2ND_CHANCE,PTS_FB,PTS_PAINT,OPP_PTS_OFF_TOV,OPP_PTS_2ND_CHANCE,OPP_PTS_FB,OPP_PTS_PAINT,BLK,BLKA,PF,PFD
0021300629,1610612754,IND,Indiana,202331,Paul George,F,,34:06,105.4,125.6,-20.2,0.053,0.25,3.7,0.038,0.231,0.135,14.8,0.553,0.589,0.338,97.48,0.145,2014-01-22T00:00:00,10,1610612754,IND,Indiana,33-8,29,20,30,21,0,0,0,0,0,0,0,0,0,0,100,0.507,0.679,0.333,14,39,20,0021300629,1610612754,IND,Indiana,Paul George,F,,34:06,1,0,1,10,18,10,14,32,0,0,3,4
0021300629,1610612754,IND,Indiana,202331,Paul George,F,,34:06,105.4,125.6,-20.2,0.053,0.25,3.7,0.038,0.231,0.135,14.8,0.553,0.589,0.338,97.48,0.145,2014-01-22T00:00:00,10,1610612756,PHX,Phoenix,24-17,30,32,34,28,0,0,0,0,0,0,0,0,0,0,124,0.542,0.719,0.688,15,35,9,0021300629,1610612754,IND,Indiana,Paul George,F,,34:06,1,0,1,10,18,10,14,32,0,0,3,4
0021300629,1610612754,IND,Indiana,2561,David West,F,,27:17,116.2,131.9,-15.7,0.167,1.5,17.3,0.143,0.118,0.132,11.5,0.545,0.528,0.238,95.74,0.109,2014-01-22T00:00:00,10,1610612754,IND,Indiana,33-8,29,20,30,21,0,0,0,0,0,0,0,0,0,0,100,0.507,0.679,0.333,14,39,20,0021300629,1610612754,IND,Indiana,David West,F,,27:17,0,0,0,8,11,8,15,28,0,0,1,5
0021300629,1610612754,IND,Indiana,2561,David West,F,,27:17,116.2,131.9,-15.7,0.167,1.5,17.3,0.143,0.118,0.132,11.5,0.545,0.528,0.238,95.74,0.109,2014-01-22T00:00:00,10,1610612756,PHX,Phoenix,24-17,30,32,34,28,0,0,0,0,0,0,0,0,0,0,124,0.542,0.719,0.688,15,35,9,0021300629,1610612754,IND,Indiana,David West,F,,27:17,0,0,0,8,11,8,15,28,0,0,1,5
0021300629,1610612754,IND,Indiana,201579,Roy Hibbert,C,,28:14,92.6,125.3,-32.7,0.0,0.0,0.0,0.077,0.095,0.085,25.3,0.375,0.338,0.176,99.35,-0.063,2014-01-22T00:00:00,10,1610612754,IND,Indiana,33-8,29,20,30,21,0,0,0,0,0,0,0,0,0,0,100,0.507,0.679,0.333,14,39,20,0021300629,1610612754,IND,Indiana,Roy Hibbert,C,,28:14,2,4,0,4,16,6,12,26,2,0,6,2
0021300629,1610612754,IND,Indiana,201579,Roy Hibbert,C,,28:14,92.6,125.3,-32.7,0.0,0.0,0.0,0.077,0.095,0.085,25.3,0.375,0.338,0.176,99.35,-0.063,2014-01-22T00:00:00,10,1610612756,PHX,Phoenix,24-17,30,32,34,28,0,0,0,0,0,0,0,0,0,0,124,0.542,0.719,0.688,15,35,9,0021300629,1610612754,IND,Indiana,Roy Hibbert,C,,28:14,2,4,0,4,16,6,12,26,2,0,6,2
0021300629,1610612754,IND,Indiana,202362,Lance Stephenson,G,,28:52,99.6,132.7,-33.1,0.222,2.0,25.9,0.04,0.286,0.128,13.0,0.333,0.318,0.173,97.29,0.049,2014-01-22T00:00:00,10,1610612754,IND,Indiana,33-8,29,20,30,21,0,0,0,0,0,0,0,0,0,0,100,0.507,0.679,0.333,14,39,20,0021300629,1610612754,IND,Indiana,Lance Stephenson,G,,28:52,0,4,0,6,14,6,18,22,0,0,2,2
0021300629,1610612754,IND,Indiana,202362,Lance Stephenson,G,,28:52,99.6,132.7,-33.1,0.222,2.0,25.9,0.04,0.286,0.128,13.0,0.333,0.318,0.173,97.29,0.049,2014-01-22T00:00:00,10,1610612756,PHX,Phoenix,24-17,30,32,34,28,0,0,0,0,0,0,0,0,0,0,124,0.542,0.719,0.688,15,35,9,0021300629,1610612754,IND,Indiana,Lance Stephenson,G,,28:52,0,4,0,6,14,6,18,22,0,0,2,2
0021300629,1610612754,IND,Indiana,201588,George Hill,G,,30:19,106.1,127.1,-21.0,0.048,0.5,9.5,0.042,0.158,0.093,19.0,1.125,1.064,0.14,97.04,0.161,2014-01-22T00:00:00,10,1610612754,IND,Indiana,33-8,29,20,30,21,0,0,0,0,0,0,0,0,0,0,100,0.507,0.679,0.333,14,39,20,0021300629,1610612754,IND,Indiana,George Hill,G,,30:19,2,2,2,4,13,8,16,30,0,0,4,5
0021300629,1610612754,IND,Indiana,201588,George Hill,G,,30:19,106.1,127.1,-21.0,0.048,0.5,9.5,0.042,0.158,0.093,19.0,1.125,1.064,0.14,97.04,0.161,2014-01-22T00:00:00,10,1610612756,PHX,Phoenix,24-17,30,32,34,28,0,0,0,0,0,0,0,0,0,0,124,0.542,0.719,0.688,15,35,9,0021300629,1610612754,IND,Indiana,George Hill,G,,30:19,2,2,2,4,13,8,16,30,0,0,4,5
0021300629,1610612754,IND,Indiana,2449,Luis Scola,,,14:37,65.0,113.1,-48.1,0.0,0.0,0.0,0.077,0.308,0.192,25.4,0.4,0.425,0.227,104.23,0.014,2014-01-22T00:00:00,10,1610612754,IND,Indiana,33-8,29,20,30,21,0,0,0,0,0,0,0,0,0,0,100,0.507,0.679,0.333,14,39,20,0021300629,1610612754,IND,Indiana,Luis Scola,,,14:37,0,1,0,0,12,4,8,8,0,0,3,1
0021300629,1610612754,IND,Indiana,2449,Luis Scola,,,14:37,65.0,113.1,-48.1,0.0,0.0,0.0,0.077,0.308,0.192,25.4,0.4,0.425,0.227,104.23,0.014,2014-01-22T00:00:00,10,1610612756,PHX,Phoenix,24-17,30,32,34,28,0,0,0,0,0,0,0,0,0,0,124,0.542,0.719,0.688,15,35,9,0021300629,1610612754,IND,Indiana,Luis Scola,,,14:37,0,1,0,0,12,4,8,8,0,0,3,1
0021300629,1610612754,IND,Indiana,101122,Danny Granger,,,21:18,80.4,113.7,-33.3,0.0,0.0,0.0,0.0,0.1,0.054,37.5,0.7,0.7,0.168,101.54,0.056,2014-01-22T00:00:00,10,1610612754,IND,Indiana,33-8,29,20,30,21,0,0,0,0,0,0,0,0,0,0,100,0.507,0.679,0.333,14,39,20,0021300629,1610612754,IND,Indiana,Danny Granger,,,21:18,0,0,0,2,14,8,14,18,0,0,1,0
0021300629,1610612754,IND,Indiana,101122,Danny Granger,,,21:18,80.4,113.7,-33.3,0.0,0.0,0.0,0.0,0.1,0.054,37.5,0.7,0.7,0.168,101.54,0.056,2014-01-22T00:00:00,10,1610612756,PHX,Phoenix,24-17,30,32,34,28,0,0,0,0,0,0,0,0,0,0,124,0.542,0.719,0.688,15,35,9,0021300629,1610612754,IND,Indiana,Danny Granger,,,21:18,0,0,0,2,14,8,14,18,0,0,1,0
0021300629,1610612754,IND,Indiana,201228,C.J. Watson,,,11:35,75.8,119.4,-43.7,0.5,0.0,43.6,0.1,0.0,0.048,0.0,0.333,0.515,0.145,103.05,0.159,2014-01-22T00:00:00,10,1610612754,IND,Indiana,33-8,29,20,30,21,0,0,0,0,0,0,0,0,0,0,100,0.507,0.679,0.333,14,39,20,0021300629,1610612754,IND,Indiana,C.J. Watson,,,11:35,2,0,2,2,10,4,7,6,0,0,1,1
0021300629,1610612754,IND,Indiana,201228,C.J. Watson,,,11:35,75.8,119.4,-43.7,0.5,0.0,43.6,0.1,0.0,0.048,0.0,0.333,0.515,0.145,103.05,0.159,2014-01-22T00:00:00,10,1610612756,PHX,Phoenix,24-17,30,32,34,28,0,0,0,0,0,0,0,0,0,0,124,0.542,0.719,0.688,15,35,9,0021300629,1610612754,IND,Indiana,C.J. Watson,,,11:35,2,0,2,2,10,4,7,6,0,0,1,1
0021300629,1610612754,IND,Indiana,101133,Ian Mahinmi,,,19:18,118.7,122.1,-3.4,0.0,0.0,0.0,0.0,0.133,0.074,0.0,0.0,0.532,0.047,100.13,-0.015,2014-01-22T00:00:00,10,1610612754,IND,Indiana,33-8,29,20,30,21,0,0,0,0,0,0,0,0,0,0,100,0.507,0.679,0.333,14,39,20,0021300629,1610612754,IND,Indiana,Ian Mahinmi,,,19:18,0,0,0,0,11,8,16,18,2,0,5,1
0021300629,1610612754,IND,Indiana,101133,Ian Mahinmi,,,19:18,118.7,122.1,-3.4,0.0,0.0,0.0,0.0,0.133,0.074,0.0,0.0,0.532,0.047,100.13,-0.015,2014-01-22T00:00:00,10,1610612756,PHX,Phoenix,24-17,30,32,34,28,0,0,0,0,0,0,0,0,0,0,124,0.542,0.719,0.688,15,35,9,0021300629,1610612754,IND,Indiana,Ian Mahinmi,,,19:18,0,0,0,0,11,8,16,18,2,0,5,1
0021300629,1610612754,IND,Indiana,2446,Rasual Butler,,,6:06,127.6,117.6,10.1,0.2,0.0,25.0,0.0,0.333,0.2,0.0,0.333,0.333,0.225,102.61,0.102,2014-01-22T00:00:00,10,1610612754,IND,Indiana,33-8,29,20,30,21,0,0,0,0,0,0,0,0,0,0,100,0.507,0.679,0.333,14,39,20,0021300629,1610612754,IND,Indiana,Rasual Butler,,,6:06,0,0,0,0,4,2,5,8,0,0,0,0
0021300629,1610612754,IND,Indiana,2446,Rasual Butler,,,6:06,127.6,117.6,10.1,0.2,0.0,25.0,0.0,0.333,0.2,0.0,0.333,0.333,0.225,102.61,0.102,2014-01-22T00:00:00,10,1610612756,PHX,Phoenix,24-17,30,32,34,28,0,0,0,0,0,0,0,0,0,0,124,0.542,0.719,0.688,15,35,9,0021300629,1610612754,IND,Indiana,Rasual Butler,,,6:06,0,0,0,0,4,2,5,8,0,0,0,0
0021300629,1610612754,IND,Indiana,203524,Solomon Hill,,,6:06,127.6,117.6,10.1,0.0,0.0,0.0,0.0,0.0,0.0,50.0,1.0,1.0,0.15,102.61,0.034,2014-01-22T00:00:00,10,1610612754,IND,Indiana,33-8,29,20,30,21,0,0,0,0,0,0,0,0,0,0,100,0.507,0.679,0.333,14,39,20,0021300629,1610612754,IND,Indiana,Solomon Hill,,,6:06,0,0,0,0,4,2,5,8,0,0,0,1
0021300629,1610612754,IND,Indiana,203524,Solomon Hill,,,6:06,127.6,117.6,10.1,0.0,0.0,0.0,0.0,0.0,0.0,50.0,1.0,1.0,0.15,102.61,0.034,2014-01-22T00:00:00,10,1610612756,PHX,Phoenix,24-17,30,32,34,28,0,0,0,0,0,0,0,0,0,0,124,0.542,0.719,0.688,15,35,9,0021300629,1610612754,IND,Indiana,Solomon Hill,,,6:06,0,0,0,0,4,2,5,8,0,0,0,1
0021300629,1610612754,IND,Indiana,202388,Donald Sloan,,,6:06,127.6,117.6,10.1,0.0,0.0,0.0,0.0,0.167,0.1,25.0,0.833,0.833,0.3,102.61,0.136,2014-01-22T00:00:00,10,1610612754,IND,Indiana,33-8,29,20,30,21,0,0,0,0,0,0,0,0,0,0,100,0.507,0.679,0.333,14,39,20,0021300629,1610612754,IND,Indiana,Donald Sloan,,,6:06,0,0,0,2,4,2,5,8,0,0,0,0
0021300629,1610612754,IND,Indiana,202388,Donald Sloan,,,6:06,127.6,117.6,10.1,0.0,0.0,0.0,0.0,0.167,0.1,25.0,0.833,0.833,0.3,102.61,0.136,2014-01-22T00:00:00,10,1610612756,PHX,Phoenix,24-17,30,32,34,28,0,0,0,0,0,0,0,0,0,0,124,0.542,0.719,0.688,15,35,9,0021300629,1610612754,IND,Indiana,Donald Sloan,,,6:06,0,0,0,2,4,2,5,8,0,0,0,0
0021300629,1610612754,IND,Indiana,203142,Chris Copeland,,,6:06,127.6,117.6,10.1,0.25,0.0,22.5,0.0,0.167,0.1,0.0,0.833,0.872,0.258,102.61,0.169,2014-01-22T00:00:00,10,1610612754,IND,Indiana,33-8,29,20,30,21,0,0,0,0,0,0,0,0,0,0,100,0.507,0.679,0.333,14,39,20,0021300629,1610612754,IND,Indiana,Chris Copeland,,,6:06,3,0,0,2,4,2,5,8,0,0,2,1
0021300629,1610612754,IND,Indiana,203142,Chris Copeland,,,6:06,127.6,117.6,10.1,0.25,0.0,22.5,0.0,0.167,0.1,0.0,0.833,0.872,0.258,102.61,0.169,2014-01-22T00:00:00,10,1610612756,PHX,Phoenix,24-17,30,32,34,28,0,0,0,0,0,0,0,0,0,0,124,0.542,0.719,0.688,15,35,9,0021300629,1610612754,IND,Indiana,Chris Copeland,,,6:06,3,0,0,2,4,2,5,8,0,0,2,1
0021300629,1610612756,PHX,Phoenix,200782,PJ Tucker,F,,27:37,124.1,117.4,6.6,0.043,1.0,11.3,0.0,0.25,0.132,11.3,0.917,0.945,0.127,98.55,0.152,2014-01-22T00:00:00,10,1610612754,IND,Indiana,33-8,29,20,30,21,0,0,0,0,0,0,0,0,0,0,100,0.507,0.679,0.333,14,39,20,0021300629,1610612756,PHX,Phoenix,PJ Tucker,F,,27:37,2,2,2,8,5,10,3,28,0,0,2,3
0021300629,1610612756,PHX,Phoenix,200782,PJ Tucker,F,,27:37,124.1,117.4,6.6,0.043,1.0,11.3,0.0,0.25,0.132,11.3,0.917,0.945,0.127,98.55,0.152,2014-01-22T00:00:00,10,1610612756,PHX,Phoenix,24-17,30,32,34,28,0,0,0,0,0,0,0,0,0,0,124,0.542,0.719,0.688,15,35,9,0021300629,1610612756,PHX,Phoenix,PJ Tucker,F,,27:37,2,2,2,8,5,10,3,28,0,0,2,3
0021300629,1610612756,PHX,Phoenix,101112,Channing Frye,F,,30:50,142.8,97.3,45.5,0.0,0.0,0.0,0.056,0.071,0.065,20.2,0.571,0.635,0.15,93.79,0.042,2014-01-22T00:00:00,10,1610612754,IND,Indiana,33-8,29,20,30,21,0,0,0,0,0,0,0,0,0,0,100,0.507,0.679,0.333,14,39,20,0021300629,1610612756,PHX,Phoenix,Channing Frye,F,,30:50,3,0,0,0,5,11,3,30,0,0,4,3
0021300629,1610612756,PHX,Phoenix,101112,Channing Frye,F,,30:50,142.8,97.3,45.5,0.0,0.0,0.0,0.056,0.071,0.065,20.2,0.571,0.635,0.15,93.79,0.042,2014-01-22T00:00:00,10,1610612756,PHX,Phoenix,24-17,30,32,34,28,0,0,0,0,0,0,0,0,0,0,124,0.542,0.719,0.688,15,35,9,0021300629,1610612756,PHX,Phoenix,Channing Frye,F,,30:50,3,0,0,0,5,11,3,30,0,0,4,3
0021300629,1610612756,PHX,Phoenix,203101,Miles Plumlee,C,,29:44,127.1,115.7,11.4,0.04,0.0,10.1,0.15,0.182,0.167,0.0,0.625,0.619,0.136,99.07,0.125,2014-01-22T00:00:00,10,1610612754,IND,Indiana,33-8,29,20,30,21,0,0,0,0,0,0,0,0,0,0,100,0.507,0.679,0.333,14,39,20,0021300629,1610612756,PHX,Phoenix,Miles Plumlee,C,,29:44,4,6,2,10,5,10,3,32,0,0,1,1
0021300629,1610612756,PHX,Phoenix,203101,Miles Plumlee,C,,29:44,127.1,115.7,11.4,0.04,0.0,10.1,0.15,0.182,0.167,0.0,0.625,0.619,0.136,99.07,0.125,2014-01-22T00:00:00,10,1610612756,PHX,Phoenix,24-17,30,32,34,28,0,0,0,0,0,0,0,0,0,0,124,0.542,0.719,0.688,15,35,9,0021300629,1610612756,PHX,Phoenix,Miles Plumlee,C,,29:44,4,6,2,10,5,10,3,32,0,0,1,1
0021300629,1610612756,PHX,Phoenix,101123,Gerald Green,G,,29:49,125.0,102.9,22.1,0.095,0.0,10.3,0.0,0.231,0.14,0.0,0.577,0.661,0.277,98.23,0.218,2014-01-22T00:00:00,10,1610612754,IND,Indiana,33-8,29,20,30,21,0,0,0,0,0,0,0,0,0,0,100,0.507,0.679,0.333,14,39,20,0021300629,1610612756,PHX,Phoenix,Gerald Green,G,,29:49,3,0,12,4,7,9,5,26,0,1,2,6
0021300629,1610612756,PHX,Phoenix,101123,Gerald Green,G,,29:49,125.0,102.9,22.1,0.095,0.0,10.3,0.0,0.231,0.14,0.0,0.577,0.661,0.277,98.23,0.218,2014-01-22T00:00:00,10,1610612756,PHX,Phoenix,24-17,30,32,34,28,0,0,0,0,0,0,0,0,0,0,124,0.542,0.719,0.688,15,35,9,0021300629,1610612756,PHX,Phoenix,Gerald Green,G,,29:49,3,0,12,4,7,9,5,26,0,1,2,6
0021300629,1610612756,PHX,Phoenix,201609,Goran Dragic,G,,22:18,139.9,113.7,26.2,0.2,1.0,15.7,0.077,0.05,0.061,15.7,0.9,0.803,0.345,96.13,0.165,2014-01-22T00:00:00,10,1610612754,IND,Indiana,33-8,29,20,30,21,0,0,0,0,0,0,0,0,0,0,100,0.507,0.679,0.333,14,39,20,0021300629,1610612756,PHX,Phoenix,Goran Dragic,G,,22:18,0,0,1,2,3,10,1,28,0,0,4,6
0021300629,1610612756,PHX,Phoenix,201609,Goran Dragic,G,,22:18,139.9,113.7,26.2,0.2,1.0,15.7,0.077,0.05,0.061,15.7,0.9,0.803,0.345,96.13,0.165,2014-01-22T00:00:00,10,1610612756,PHX,Phoenix,24-17,30,32,34,28,0,0,0,0,0,0,0,0,0,0,124,0.542,0.719,0.688,15,35,9,0021300629,1610612756,PHX,Phoenix,Goran Dragic,G,,22:18,0,0,1,2,3,10,1,28,0,0,4,6
0021300629,1610612756,PHX,Phoenix,202693,Markieff Morris,,,27:01,99.4,79.7,19.7,0.077,0.0,6.3,0.04,0.095,0.065,0.0,0.643,0.672,0.239,102.91,0.267,2014-01-22T00:00:00,10,1610612754,IND,Indiana,33-8,29,20,30,21,0,0,0,0,0,0,0,0,0,0,100,0.507,0.679,0.333,14,39,20,0021300629,1610612756,PHX,Phoenix,Markieff Morris,,,27:01,7,0,4,6,7,1,4,14,0,0,4,3
0021300629,1610612756,PHX,Phoenix,202693,Markieff Morris,,,27:01,99.4,79.7,19.7,0.077,0.0,6.3,0.04,0.095,0.065,0.0,0.643,0.672,0.239,102.91,0.267,2014-01-22T00:00:00,10,1610612756,PHX,Phoenix,24-17,30,32,34,28,0,0,0,0,0,0,0,0,0,0,124,0.542,0.719,0.688,15,35,9,0021300629,1610612756,PHX,Phoenix,Markieff Morris,,,27:01,7,0,4,6,7,1,4,14,0,0,4,3
0021300629,1610612756,PHX,Phoenix,2571,Leandro Barbosa,,,22:35,115.9,84.1,31.8,0.105,2.0,18.2,0.0,0.118,0.054,9.1,0.25,0.25,0.167,101.17,-0.033,2014-01-22T00:00:00,10,1610612754,IND,Indiana,33-8,29,20,30,21,0,0,0,0,0,0,0,0,0,0,100,0.507,0.679,0.333,14,39,20,0021300629,1610612756,PHX,Phoenix,Leandro Barbosa,,,22:35,0,2,0,4,4,3,4,12,0,1,3,0
0021300629,1610612756,PHX,Phoenix,2571,Leandro Barbosa,,,22:35,115.9,84.1,31.8,0.105,2.0,18.2,0.0,0.118,0.054,9.1,0.25,0.25,0.167,101.17,-0.033,2014-01-22T00:00:00,10,1610612756,PHX,Phoenix,24-17,30,32,34,28,0,0,0,0,0,0,0,0,0,0,124,0.542,0.719,0.688,15,35,9,0021300629,1610612756,PHX,Phoenix,Leandro Barbosa,,,22:35,0,2,0,4,4,3,4,12,0,1,3,0
0021300629,1610612756,PHX,Phoenix,202694,Marcus Morris,,,19:19,111.7,80.1,31.6,0.143,2.0,20.2,0.0,0.188,0.091,10.1,0.333,0.363,0.186,99.69,0.1,2014-01-22T00:00:00,10,1610612754,IND,Indiana,33-8,29,20,30,21,0,0,0,0,0,0,0,0,0,0,100,0.507,0.679,0.333,14,39,20,0021300629,1610612756,PHX,Phoenix,Marcus Morris,,,19:19,4,2,2,2,5,1,2,14,0,0,1,2
0021300629,1610612756,PHX,Phoenix,202694,Marcus Morris,,,19:19,111.7,80.1,31.6,0.143,2.0,20.2,0.0,0.188,0.091,10.1,0.333,0.363,0.186,99.69,0.1,2014-01-22T00:00:00,10,1610612756,PHX,Phoenix,24-17,30,32,34,28,0,0,0,0,0,0,0,0,0,0,124,0.542,0.719,0.688,15,35,9,0021300629,1610612756,PHX,Phoenix,Marcus Morris,,,19:19,4,2,2,2,5,1,2,14,0,0,1,2
0021300629,1610612756,PHX,Phoenix,202397,Ish Smith,,,14:29,120.2,89.0,31.1,0.222,0.0,23.7,0.0,0.1,0.04,0.0,0.667,0.621,0.19,98.03,0.17,2014-01-22T00:00:00,10,1610612754,IND,Indiana,33-8,29,20,30,21,0,0,0,0,0,0,0,0,0,0,100,0.507,0.679,0.333,14,39,20,0021300629,1610612756,PHX,Phoenix,Ish Smith,,,14:29,2,0,2,6,3,0,0,8,0,0,0,2
0021300629,1610612756,PHX,Phoenix,202397,Ish Smith,,,14:29,120.2,89.0,31.1,0.222,0.0,23.7,0.0,0.1,0.04,0.0,0.667,0.621,0.19,98.03,0.17,2014-01-22T00:00:00,10,1610612756,PHX,Phoenix,24-17,30,32,34,28,0,0,0,0,0,0,0,0,0,0,124,0.542,0.719,0.688,15,35,9,0021300629,1610612756,PHX,Phoenix,Ish Smith,,,14:29,2,0,2,6,3,0,0,8,0,0,0,2
0021300629,1610612756,PHX,Phoenix,203458,Alex Len,,,5:27,127.6,138.0,-10.4,0.0,0.0,0.0,0.0,0.333,0.125,50.0,0.0,0.0,0.157,106.04,-0.066,2014-01-22T00:00:00,10,1610612754,IND,Indiana,33-8,29,20,30,21,0,0,0,0,0,0,0,0,0,0,100,0.507,0.679,0.333,14,39,20,0021300629,1610612756,PHX,Phoenix,Alex Len,,,5:27,0,0,0,0,3,0,0,4,0,0,1,0
0021300629,1610612756,PHX,Phoenix,203458,Alex Len,,,5:27,127.6,138.0,-10.4,0.0,0.0,0.0,0.0,0.333,0.125,50.0,0.0,0.0,0.157,106.04,-0.066,2014-01-22T00:00:00,10,1610612756,PHX,Phoenix,24-17,30,32,34,28,0,0,0,0,0,0,0,0,0,0,124,0.542,0.719,0.688,15,35,9,0021300629,1610612756,PHX,Phoenix,Alex Len,,,5:27,0,0,0,0,3,0,0,4,0,0,1,0
0021300629,1610612756,PHX,Phoenix,202091,Dionte Christmas,,,5:27,127.6,138.0,-10.4,0.25,0.0,34.7,0.2,0.333,0.25,0.0,1.5,1.33,0.147,106.04,0.213,2014-01-22T00:00:00,10,1610612754,IND,Indiana,33-8,29,20,30,21,0,0,0,0,0,0,0,0,0,0,100,0.507,0.679,0.333,14,39,20,0021300629,1610612756,PHX,Phoenix,Dionte Christmas,,,5:27,0,2,3,0,3,0,0,4,0,0,1,1
0021300629,1610612756,PHX,Phoenix,202091,Dionte Christmas,,,5:27,127.6,138.0,-10.4,0.25,0.0,34.7,0.2,0.333,0.25,0.0,1.5,1.33,0.147,106.04,0.213,2014-01-22T00:00:00,10,1610612756,PHX,Phoenix,24-17,30,32,34,28,0,0,0,0,0,0,0,0,0,0,124,0.542,0.719,0.688,15,35,9,0021300629,1610612756,PHX,Phoenix,Dionte Christmas,,,5:27,0,2,3,0,3,0,0,4,0,0,1,1
0021300629,1610612756,PHX,Phoenix,203462,Archie Goodwin,,,2:58,133.1,130.8,2.3,0.0,0.0,0.0,0.0,0.0,0.0,0.0,0.0,0.532,0.242,110.35,0.057,2014-01-22T00:00:00,10,1610612754,IND,Indiana,33-8,29,20,30,21,0,0,0,0,0,0,0,0,0,0,100,0.507,0.679,0.333,14,39,20,0021300629,1610612756,PHX,Phoenix,Archie Goodwin,,,2:58,2,0,0,0,0,0,0,0,0,1,0,1
0021300629,1610612756,PHX,Phoenix,203462,Archie Goodwin,,,2:58,133.1,130.8,2.3,0.0,0.0,0.0,0.0,0.0,0.0,0.0,0.0,0.532,0.242,110.35,0.057,2014-01-22T00:00:00,10,1610612756,PHX,Phoenix,24-17,30,32,34,28,0,0,0,0,0,0,0,0,0,0,124,0.542,0.719,0.688,15,35,9,0021300629,1610612756,PHX,Phoenix,Archie Goodwin,,,2:58,2,0,0,0,0,0,0,0,0,1,0,1
0021300629,1610612756,PHX,Phoenix,203139,Viacheslav Kravtsov,,,2:26,156.3,116.7,39.6,0.0,0.0,0.0,0.0,0.0,0.0,0.0,0.5,0.5,0.296,115.99,0.061,2014-01-22T00:00:00,10,1610612754,IND,Indiana,33-8,29,20,30,21,0,0,0,0,0,0,0,0,0,0,100,0.507,0.679,0.333,14,39,20,0021300629,1610612756,PHX,Phoenix,Viacheslav Kravtsov,,,2:26,0,0,0,2,0,0,0,0,0,1,0,0
0021300629,1610612756,PHX,Phoenix,203139,Viacheslav Kravtsov,,,2:26,156.3,116.7,39.6,0.0,0.0,0.0,0.0,0.0,0.0,0.0,0.5,0.5,0.296,115.99,0.061,2014-01-22T00:00:00,10,1610612756,PHX,Phoenix,24-17,30,32,34,28,0,0,0,0,0,0,0,0,0,0,124,0.542,0.719,0.688,15,35,9,0021300629,1610612756,PHX,Phoenix,Viacheslav Kravtsov,,,2:26,0,0,0,2,0,0,0,0,0,1,0,0
