GAME_ID_x,TEAM_ID_x,TEAM_ABBREVIATION_x,TEAM_CITY_x,PLAYER_ID,PLAYER_NAME_x,START_POSITION_x,COMMENT_x,MIN_x,OFF_RATING,DEF_RATING,NET_RATING,AST_PCT,AST_TOV,AST_RATIO,OREB_PCT,DREB_PCT,REB_PCT,TM_TOV_PCT,EFG_PCT,TS_PCT,USG_PCT,PACE,PIE,GAME_DATE_EST,GAME_SEQUENCE,TEAM_ID_y,TEAM_ABBREVIATION_y,TEAM_CITY_NAME,TEAM_WINS_LOSSES,PTS_QTR1,PTS_QTR2,PTS_QTR3,PTS_QTR4,PTS_OT1,PTS_OT2,PTS_OT3,PTS_OT4,PTS_OT5,PTS_OT6,PTS_OT7,PTS_OT8,PTS_OT9,PTS_OT10,PTS,FG_PCT,FT_PCT,FG3_PCT,AST,REB,TOV,GAME_ID_y,TEAM_ID,TEAM_ABBREVIATION,TEAM_CITY_y,PLAYER_NAME_y,START_POSITION_y,COMMENT_y,MIN_y,PTS_OFF_TOV,PTS_2ND_CHANCE,PTS_FB,PTS_PAINT,OPP_PTS_OFF_TOV,OPP_PTS_2ND_CHANCE,OPP_PTS_FB,OPP_PTS_PAINT,BLK,BLKA,PF,PFD
0021300665,1610612746,LAC,Los Angeles,2440,Matt Barnes,F,,26:48,120.0,89.3,30.7,0.091,0.0,18.2,0.0,0.133,0.085,0.0,0.167,0.167,0.152,95.67,-0.005,2014-01-27T00:00:00,4,1610612746,LAC,Los Angeles,32-15,32,32,20,30,0,0,0,0,0,0,0,0,0,0,114,0.544,0.737,0.5,29,47,17,0021300665,1610612746,LAC,Los Angeles,Matt Barnes,F,,26:48,0.0,3.0,0.0,0.0,7.0,8.0,3.0,24.0,1.0,1.0,3.0,0.0
0021300665,1610612746,LAC,Los Angeles,2440,Matt Barnes,F,,26:48,120.0,89.3,30.7,0.091,0.0,18.2,0.0,0.133,0.085,0.0,0.167,0.167,0.152,95.67,-0.005,2014-01-27T00:00:00,4,1610612749,MIL,Milwaukee,8-36,25,16,20,25,0,0,0,0,0,0,0,0,0,0,86,0.382,0.636,0.182,24,41,11,0021300665,1610612746,LAC,Los Angeles,Matt Barnes,F,,26:48,0.0,3.0,0.0,0.0,7.0,8.0,3.0,24.0,1.0,1.0,3.0,0.0
0021300665,1610612746,LAC,Los Angeles,201933,Blake Griffin,F,,28:26,122.9,90.1,32.8,0.125,0.67,9.9,0.105,0.094,0.098,14.9,0.615,0.658,0.293,94.28,0.162,2014-01-27T00:00:00,4,1610612746,LAC,Los Angeles,32-15,32,32,20,30,0,0,0,0,0,0,0,0,0,0,114,0.544,0.737,0.5,29,47,17,0021300665,1610612746,LAC,Los Angeles,Blake Griffin,F,,28:26,7.0,2.0,10.0,14.0,7.0,8.0,3.0,26.0,1.0,0.0,3.0,4.0
0021300665,1610612746,LAC,Los Angeles,201933,Blake Griffin,F,,28:26,122.9,90.1,32.8,0.125,0.67,9.9,0.105,0.094,0.098,14.9,0.615,0.658,0.293,94.28,0.162,2014-01-27T00:00:00,4,1610612749,MIL,Milwaukee,8-36,25,16,20,25,0,0,0,0,0,0,0,0,0,0,86,0.382,0.636,0.182,24,41,11,0021300665,1610612746,LAC,Los Angeles,Blake Griffin,F,,28:26,7.0,2.0,10.0,14.0,7.0,8.0,3.0,26.0,1.0,0.0,3.0,4.0
0021300665,1610612746,LAC,Los Angeles,201599,DeAndre Jordan,C,,33:21,117.5,82.0,35.5,0.083,0.67,19.2,0.167,0.368,0.29,28.7,0.8,0.735,0.115,94.27,0.187,2014-01-27T00:00:00,4,1610612746,LAC,Los Angeles,32-15,32,32,20,30,0,0,0,0,0,0,0,0,0,0,114,0.544,0.737,0.5,29,47,17,0021300665,1610612746,LAC,Los Angeles,DeAndre Jordan,C,,33:21,0.0,4.0,2.0,8.0,7.0,8.0,3.0,28.0,1.0,0.0,2.0,2.0
0021300665,1610612746,LAC,Los Angeles,201599,DeAndre Jordan,C,,33:21,117.5,82.0,35.5,0.083,0.67,19.2,0.167,0.368,0.29,28.7,0.8,0.735,0.115,94.27,0.187,2014-01-27T00:00:00,4,1610612749,MIL,Milwaukee,8-36,25,16,20,25,0,0,0,0,0,0,0,0,0,0,86,0.382,0.636,0.182,24,41,11,0021300665,1610612746,LAC,Los Angeles,DeAndre Jordan,C,,33:21,0.0,4.0,2.0,8.0,7.0,8.0,3.0,28.0,1.0,0.0,2.0,2.0
0021300665,1610612746,LAC,Los Angeles,200755,JJ Redick,G,,24:07,130.7,77.5,53.3,0.1,2.0,16.2,0.0,0.077,0.048,8.1,0.688,0.751,0.189,97.01,0.156,2014-01-27T00:00:00,4,1610612746,LAC,Los Angeles,32-15,32,32,20,30,0,0,0,0,0,0,0,0,0,0,114,0.544,0.737,0.5,29,47,17,0021300665,1610612746,LAC,Los Angeles,JJ Redick,G,,24:07,0.0,0.0,5.0,0.0,4.0,6.0,0.0,20.0,0.0,0.0,0.0,2.0
0021300665,1610612746,LAC,Los Angeles,200755,JJ Redick,G,,24:07,130.7,77.5,53.3,0.1,2.0,16.2,0.0,0.077,0.048,8.1,0.688,0.751,0.189,97.01,0.156,2014-01-27T00:00:00,4,1610612749,MIL,Milwaukee,8-36,25,16,20,25,0,0,0,0,0,0,0,0,0,0,86,0.382,0.636,0.182,24,41,11,0021300665,1610612746,LAC,Los Angeles,JJ Redick,G,,24:07,0.0,0.0,5.0,0.0,4.0,6.0,0.0,20.0,0.0,0.0,0.0,2.0
0021300665,1610612746,LAC,Los Angeles,201954,Darren Collison,G,,24:31,125.3,84.6,40.7,0.389,1.75,37.3,0.077,0.069,0.071,21.3,1.0,0.966,0.217,97.85,0.194,2014-01-27T00:00:00,4,1610612746,LAC,Los Angeles,32-15,32,32,20,30,0,0,0,0,0,0,0,0,0,0,114,0.544,0.737,0.5,29,47,17,0021300665,1610612746,LAC,Los Angeles,Darren Collison,G,,24:31,2.0,0.0,2.0,4.0,7.0,8.0,3.0,24.0,0.0,0.0,2.0,3.0
0021300665,1610612746,LAC,Los Angeles,201954,Darren Collison,G,,24:31,125.3,84.6,40.7,0.389,1.75,37.3,0.077,0.069,0.071,21.3,1.0,0.966,0.217,97.85,0.194,2014-01-27T00:00:00,4,1610612749,MIL,Milwaukee,8-36,25,16,20,25,0,0,0,0,0,0,0,0,0,0,86,0.382,0.636,0.182,24,41,11,0021300665,1610612746,LAC,Los Angeles,Darren Collison,G,,24:31,2.0,0.0,2.0,4.0,7.0,8.0,3.0,24.0,0.0,0.0,2.0,3.0
0021300665,1610612746,LAC,Los Angeles,2037,Jamal Crawford,,,23:35,108.7,79.7,29.0,0.273,3.0,14.4,0.0,0.0,0.0,4.8,0.719,0.741,0.343,91.84,0.259,2014-01-27T00:00:00,4,1610612746,LAC,Los Angeles,32-15,32,32,20,30,0,0,0,0,0,0,0,0,0,0,114,0.544,0.737,0.5,29,47,17,0021300665,1610612746,LAC,Los Angeles,Jamal Crawford,,,23:35,5.0,3.0,2.0,4.0,5.0,6.0,6.0,12.0,0.0,1.0,3.0,1.0
0021300665,1610612746,LAC,Los Angeles,2037,Jamal Crawford,,,23:35,108.7,79.7,29.0,0.273,3.0,14.4,0.0,0.0,0.0,4.8,0.719,0.741,0.343,91.84,0.259,2014-01-27T00:00:00,4,1610612749,MIL,Milwaukee,8-36,25,16,20,25,0,0,0,0,0,0,0,0,0,0,86,0.382,0.636,0.182,24,41,11,0021300665,1610612746,LAC,Los Angeles,Jamal Crawford,,,23:35,5.0,3.0,2.0,4.0,5.0,6.0,6.0,12.0,0.0,1.0,3.0,1.0
0021300665,1610612746,LAC,Los Angeles,2584,Willie Green,,,18:45,109.2,108.0,1.2,0.5,0.0,42.1,0.063,0.053,0.057,0.0,0.917,0.945,0.165,94.35,0.238,2014-01-27T00:00:00,4,1610612746,LAC,Los Angeles,32-15,32,32,20,30,0,0,0,0,0,0,0,0,0,0,114,0.544,0.737,0.5,29,47,17,0021300665,1610612746,LAC,Los Angeles,Willie Green,,,18:45,2.0,2.0,2.0,4.0,8.0,8.0,11.0,16.0,0.0,0.0,5.0,2.0
0021300665,1610612746,LAC,Los Angeles,2584,Willie Green,,,18:45,109.2,108.0,1.2,0.5,0.0,42.1,0.063,0.053,0.057,0.0,0.917,0.945,0.165,94.35,0.238,2014-01-27T00:00:00,4,1610612749,MIL,Milwaukee,8-36,25,16,20,25,0,0,0,0,0,0,0,0,0,0,86,0.382,0.636,0.182,24,41,11,0021300665,1610612746,LAC,Los Angeles,Willie Green,,,18:45,2.0,2.0,2.0,4.0,8.0,8.0,11.0,16.0,0.0,0.0,5.0,2.0
0021300665,1610612746,LAC,Los Angeles,200797,Ryan Hollins,,,14:14,117.2,113.6,3.6,0.077,0.0,33.3,0.0,0.2,0.115,0.0,0.5,0.5,0.061,97.87,0.071,2014-01-27T00:00:00,4,1610612746,LAC,Los Angeles,32-15,32,32,20,30,0,0,0,0,0,0,0,0,0,0,114,0.544,0.737,0.5,29,47,17,0021300665,1610612746,LAC,Los Angeles,Ryan Hollins,,,14:14,0.0,0.0,0.0,2.0,8.0,8.0,11.0,14.0,0.0,1.0,1.0,0.0
0021300665,1610612746,LAC,Los Angeles,200797,Ryan Hollins,,,14:14,117.2,113.6,3.6,0.077,0.0,33.3,0.0,0.2,0.115,0.0,0.5,0.5,0.061,97.87,0.071,2014-01-27T00:00:00,4,1610612749,MIL,Milwaukee,8-36,25,16,20,25,0,0,0,0,0,0,0,0,0,0,86,0.382,0.636,0.182,24,41,11,0021300665,1610612746,LAC,Los Angeles,Ryan Hollins,,,14:14,0.0,0.0,0.0,2.0,8.0,8.0,11.0,14.0,0.0,1.0,1.0,0.0
0021300665,1610612746,LAC,Los Angeles,201162,Jared Dudley,,,13:47,127.0,62.1,64.9,0.182,0.0,28.6,0.0,0.077,0.038,0.0,0.4,0.4,0.171,88.75,0.104,2014-01-27T00:00:00,4,1610612746,LAC,Los Angeles,32-15,32,32,20,30,0,0,0,0,0,0,0,0,0,0,114,0.544,0.737,0.5,29,47,17,0021300665,1610612746,LAC,Los Angeles,Jared Dudley,,,13:47,2.0,0.0,0.0,0.0,0.0,4.0,0.0,6.0,0.0,0.0,0.0,0.0
0021300665,1610612746,LAC,Los Angeles,201162,Jared Dudley,,,13:47,127.0,62.1,64.9,0.182,0.0,28.6,0.0,0.077,0.038,0.0,0.4,0.4,0.171,88.75,0.104,2014-01-27T00:00:00,4,1610612749,MIL,Milwaukee,8-36,25,16,20,25,0,0,0,0,0,0,0,0,0,0,86,0.382,0.636,0.182,24,41,11,0021300665,1610612746,LAC,Los Angeles,Jared Dudley,,,13:47,2.0,0.0,0.0,0.0,0.0,4.0,0.0,6.0,0.0,0.0,0.0,0.0
0021300665,1610612746,LAC,Los Angeles,2045,Hedo Turkoglu,,,19:06,109.7,94.3,15.4,0.188,1.5,30.4,0.125,0.238,0.189,20.2,0.75,0.615,0.156,97.21,0.125,2014-01-27T00:00:00,4,1610612746,LAC,Los Angeles,32-15,32,32,20,30,0,0,0,0,0,0,0,0,0,0,114,0.544,0.737,0.5,29,47,17,0021300665,1610612746,LAC,Los Angeles,Hedo Turkoglu,,,19:06,0.0,0.0,3.0,0.0,8.0,8.0,11.0,16.0,0.0,0.0,2.0,1.0
0021300665,1610612746,LAC,Los Angeles,2045,Hedo Turkoglu,,,19:06,109.7,94.3,15.4,0.188,1.5,30.4,0.125,0.238,0.189,20.2,0.75,0.615,0.156,97.21,0.125,2014-01-27T00:00:00,4,1610612749,MIL,Milwaukee,8-36,25,16,20,25,0,0,0,0,0,0,0,0,0,0,86,0.382,0.636,0.182,24,41,11,0021300665,1610612746,LAC,Los Angeles,Hedo Turkoglu,,,19:06,0.0,0.0,3.0,0.0,8.0,8.0,11.0,16.0,0.0,0.0,2.0,1.0
0021300665,1610612746,LAC,Los Angeles,203493,Reggie Bullock,,,7:54,105.6,133.1,-27.5,0.0,0.0,0.0,0.2,0.0,0.067,25.0,0.333,0.333,0.2,107.18,-0.042,2014-01-27T00:00:00,4,1610612746,LAC,Los Angeles,32-15,32,32,20,30,0,0,0,0,0,0,0,0,0,0,114,0.544,0.737,0.5,29,47,17,0021300665,1610612746,LAC,Los Angeles,Reggie Bullock,,,7:54,0.0,0.0,0.0,0.0,8.0,4.0,11.0,12.0,0.0,0.0,1.0,0.0
0021300665,1610612746,LAC,Los Angeles,203493,Reggie Bullock,,,7:54,105.6,133.1,-27.5,0.0,0.0,0.0,0.2,0.0,0.067,25.0,0.333,0.333,0.2,107.18,-0.042,2014-01-27T00:00:00,4,1610612749,MIL,Milwaukee,8-36,25,16,20,25,0,0,0,0,0,0,0,0,0,0,86,0.382,0.636,0.182,24,41,11,0021300665,1610612746,LAC,Los Angeles,Reggie Bullock,,,7:54,0.0,0.0,0.0,0.0,8.0,4.0,11.0,12.0,0.0,0.0,1.0,0.0
0021300665,1610612746,LAC,Los Angeles,201957,Byron Mullens,,,5:28,108.3,158.0,-49.7,0.0,0.0,0.0,0.0,0.143,0.1,50.0,0.5,0.5,0.308,99.92,-0.1,2014-01-27T00:00:00,4,1610612746,LAC,Los Angeles,32-15,32,32,20,30,0,0,0,0,0,0,0,0,0,0,114,0.544,0.737,0.5,29,47,17,0021300665,1610612746,LAC,Los Angeles,Byron Mullens,,,5:28,0.0,0.0,0.0,0.0,6.0,4.0,8.0,12.0,0.0,0.0,3.0,0.0
0021300665,1610612746,LAC,Los Angeles,201957,Byron Mullens,,,5:28,108.3,158.0,-49.7,0.0,0.0,0.0,0.0,0.143,0.1,50.0,0.5,0.5,0.308,99.92,-0.1,2014-01-27T00:00:00,4,1610612749,MIL,Milwaukee,8-36,25,16,20,25,0,0,0,0,0,0,0,0,0,0,86,0.382,0.636,0.182,24,41,11,0021300665,1610612746,LAC,Los Angeles,Byron Mullens,,,5:28,0.0,0.0,0.0,0.0,6.0,4.0,8.0,12.0,0.0,0.0,3.0,0.0
0021300665,1610612746,LAC,Los Angeles,1712,Antawn Jamison,,DNP - Coach's Decision,,,,,,,0.0,,,,,,,0.0,,,2014-01-27T00:00:00,4,1610612746,LAC,Los Angeles,32-15,32,32,20,30,0,0,0,0,0,0,0,0,0,0,114,0.544,0.737,0.5,29,47,17,0021300665,1610612746,LAC,Los Angeles,Antawn Jamison,,DNP - Coach's Decision,,,,,,,,,,,,,
0021300665,1610612746,LAC,Los Angeles,1712,Antawn Jamison,,DNP - Coach's Decision,,,,,,,0.0,,,,,,,0.0,,,2014-01-27T00:00:00,4,1610612749,MIL,Milwaukee,8-36,25,16,20,25,0,0,0,0,0,0,0,0,0,0,86,0.382,0.636,0.182,24,41,11,0021300665,1610612746,LAC,Los Angeles,Antawn Jamison,,DNP - Coach's Decision,,,,,,,,,,,,,
0021300665,1610612749,MIL,Milwaukee,203114,Khris Middleton,F,,37:39,99.3,118.3,-19.1,0.125,1.5,15.0,0.0,0.154,0.061,10.0,0.467,0.467,0.199,92.35,0.089,2014-01-27T00:00:00,4,1610612746,LAC,Los Angeles,32-15,32,32,20,30,0,0,0,0,0,0,0,0,0,0,114,0.544,0.737,0.5,29,47,17,0021300665,1610612749,MIL,Milwaukee,Khris Middleton,F,,37:39,6.0,4.0,6.0,6.0,14.0,11.0,21.0,28.0,0.0,0.0,1.0,1.0
0021300665,1610612749,MIL,Milwaukee,203114,Khris Middleton,F,,37:39,99.3,118.3,-19.1,0.125,1.5,15.0,0.0,0.154,0.061,10.0,0.467,0.467,0.199,92.35,0.089,2014-01-27T00:00:00,4,1610612749,MIL,Milwaukee,8-36,25,16,20,25,0,0,0,0,0,0,0,0,0,0,86,0.382,0.636,0.182,24,41,11,0021300665,1610612749,MIL,Milwaukee,Khris Middleton,F,,37:39,6.0,4.0,6.0,6.0,14.0,11.0,21.0,28.0,0.0,0.0,1.0,1.0
0021300665,1610612749,MIL,Milwaukee,101141,Ersan Ilyasova,F,,30:52,93.8,116.4,-22.7,0.059,0.0,4.0,0.108,0.19,0.138,0.0,0.295,0.337,0.317,99.67,0.046,2014-01-27T00:00:00,4,1610612746,LAC,Los Angeles,32-15,32,32,20,30,0,0,0,0,0,0,0,0,0,0,114,0.544,0.737,0.5,29,47,17,0021300665,1610612749,MIL,Milwaukee,Ersan Ilyasova,F,,30:52,2.0,2.0,0.0,6.0,12.0,7.0,20.0,24.0,0.0,2.0,2.0,5.0
0021300665,1610612749,MIL,Milwaukee,101141,Ersan Ilyasova,F,,30:52,93.8,116.4,-22.7,0.059,0.0,4.0,0.108,0.19,0.138,0.0,0.295,0.337,0.317,99.67,0.046,2014-01-27T00:00:00,4,1610612749,MIL,Milwaukee,8-36,25,16,20,25,0,0,0,0,0,0,0,0,0,0,86,0.382,0.636,0.182,24,41,11,0021300665,1610612749,MIL,Milwaukee,Ersan Ilyasova,F,,30:52,2.0,2.0,0.0,6.0,12.0,7.0,20.0,24.0,0.0,2.0,2.0,5.0
0021300665,1610612749,MIL,Milwaukee,203089,John Henson,C,,26:34,83.2,127.7,-44.4,0.133,2.0,14.4,0.154,0.235,0.186,7.2,0.5,0.506,0.189,93.77,0.095,2014-01-27T00:00:00,4,1610612746,LAC,Los Angeles,32-15,32,32,20,30,0,0,0,0,0,0,0,0,0,0,114,0.544,0.737,0.5,29,47,17,0021300665,1610612749,MIL,Milwaukee,John Henson,C,,26:34,0.0,4.0,0.0,10.0,13.0,10.0,11.0,20.0,1.0,1.0,4.0,3.0
0021300665,1610612749,MIL,Milwaukee,203089,John Henson,C,,26:34,83.2,127.7,-44.4,0.133,2.0,14.4,0.154,0.235,0.186,7.2,0.5,0.506,0.189,93.77,0.095,2014-01-27T00:00:00,4,1610612749,MIL,Milwaukee,8-36,25,16,20,25,0,0,0,0,0,0,0,0,0,0,86,0.382,0.636,0.182,24,41,11,0021300665,1610612749,MIL,Milwaukee,John Henson,C,,26:34,0.0,4.0,0.0,10.0,13.0,10.0,11.0,20.0,1.0,1.0,4.0,3.0
0021300665,1610612749,MIL,Milwaukee,203507,Giannis Antetokounmpo,G,,37:06,92.1,127.1,-35.0,0.13,3.0,23.5,0.024,0.231,0.104,7.8,0.429,0.457,0.111,96.07,0.053,2014-01-27T00:00:00,4,1610612746,LAC,Los Angeles,32-15,32,32,20,30,0,0,0,0,0,0,0,0,0,0,114,0.544,0.737,0.5,29,47,17,0021300665,1610612749,MIL,Milwaukee,Giannis Antetokounmpo,G,,37:06,0.0,2.0,0.0,6.0,14.0,14.0,20.0,30.0,1.0,0.0,4.0,4.0
0021300665,1610612749,MIL,Milwaukee,203507,Giannis Antetokounmpo,G,,37:06,92.1,127.1,-35.0,0.13,3.0,23.5,0.024,0.231,0.104,7.8,0.429,0.457,0.111,96.07,0.053,2014-01-27T00:00:00,4,1610612749,MIL,Milwaukee,8-36,25,16,20,25,0,0,0,0,0,0,0,0,0,0,86,0.382,0.636,0.182,24,41,11,0021300665,1610612749,MIL,Milwaukee,Giannis Antetokounmpo,G,,37:06,0.0,2.0,0.0,6.0,14.0,14.0,20.0,30.0,1.0,0.0,4.0,4.0
0021300665,1610612749,MIL,Milwaukee,202688,Brandon Knight,G,,28:13,72.2,122.5,-50.3,0.538,3.5,30.8,0.0,0.105,0.038,8.8,0.25,0.327,0.231,98.8,0.044,2014-01-27T00:00:00,4,1610612746,LAC,Los Angeles,32-15,32,32,20,30,0,0,0,0,0,0,0,0,0,0,114,0.544,0.737,0.5,29,47,17,0021300665,1610612749,MIL,Milwaukee,Brandon Knight,G,,28:13,4.0,0.0,3.0,4.0,13.0,7.0,18.0,26.0,0.0,0.0,2.0,4.0
0021300665,1610612749,MIL,Milwaukee,202688,Brandon Knight,G,,28:13,72.2,122.5,-50.3,0.538,3.5,30.8,0.0,0.105,0.038,8.8,0.25,0.327,0.231,98.8,0.044,2014-01-27T00:00:00,4,1610612749,MIL,Milwaukee,8-36,25,16,20,25,0,0,0,0,0,0,0,0,0,0,86,0.382,0.636,0.182,24,41,11,0021300665,1610612749,MIL,Milwaukee,Brandon Knight,G,,28:13,4.0,0.0,3.0,4.0,13.0,7.0,18.0,26.0,0.0,0.0,2.0,4.0
0021300665,1610612749,MIL,Milwaukee,2557,Luke Ridnour,,,15:24,101.3,123.2,-21.9,0.3,1.5,37.5,0.071,0.0,0.037,25.0,0.333,0.333,0.158,87.38,0.009,2014-01-27T00:00:00,4,1610612746,LAC,Los Angeles,32-15,32,32,20,30,0,0,0,0,0,0,0,0,0,0,114,0.544,0.737,0.5,29,47,17,0021300665,1610612749,MIL,Milwaukee,Luke Ridnour,,,15:24,0.0,0.0,0.0,0.0,5.0,7.0,8.0,10.0,0.0,0.0,1.0,2.0
0021300665,1610612749,MIL,Milwaukee,2557,Luke Ridnour,,,15:24,101.3,123.2,-21.9,0.3,1.5,37.5,0.071,0.0,0.037,25.0,0.333,0.333,0.158,87.38,0.009,2014-01-27T00:00:00,4,1610612749,MIL,Milwaukee,8-36,25,16,20,25,0,0,0,0,0,0,0,0,0,0,86,0.382,0.636,0.182,24,41,11,0021300665,1610612749,MIL,Milwaukee,Luke Ridnour,,,15:24,0.0,0.0,0.0,0.0,5.0,7.0,8.0,10.0,0.0,0.0,1.0,2.0
0021300665,1610612749,MIL,Milwaukee,2406,Caron Butler,,,23:10,84.5,99.8,-15.3,0.111,0.33,8.3,0.12,0.095,0.109,25.0,0.688,0.688,0.207,95.56,0.136,2014-01-27T00:00:00,4,1610612746,LAC,Los Angeles,32-15,32,32,20,30,0,0,0,0,0,0,0,0,0,0,114,0.544,0.737,0.5,29,47,17,0021300665,1610612749,MIL,Milwaukee,Caron Butler,,,23:10,0.0,0.0,0.0,0.0,8.0,7.0,8.0,18.0,0.0,0.0,0.0,0.0
0021300665,1610612749,MIL,Milwaukee,2406,Caron Butler,,,23:10,84.5,99.8,-15.3,0.111,0.33,8.3,0.12,0.095,0.109,25.0,0.688,0.688,0.207,95.56,0.136,2014-01-27T00:00:00,4,1610612749,MIL,Milwaukee,8-36,25,16,20,25,0,0,0,0,0,0,0,0,0,0,86,0.382,0.636,0.182,24,41,11,0021300665,1610612749,MIL,Milwaukee,Caron Butler,,,23:10,0.0,0.0,0.0,0.0,8.0,7.0,8.0,18.0,0.0,0.0,0.0,0.0
0021300665,1610612749,MIL,Milwaukee,203545,Miroslav Raduljica,,,23:07,111.2,116.9,-5.7,0.067,0.0,11.4,0.154,0.118,0.14,0.0,0.667,0.709,0.152,91.86,0.13,2014-01-27T00:00:00,4,1610612746,LAC,Los Angeles,32-15,32,32,20,30,0,0,0,0,0,0,0,0,0,0,114,0.544,0.737,0.5,29,47,17,0021300665,1610612749,MIL,Milwaukee,Miroslav Raduljica,,,23:07,0.0,4.0,2.0,8.0,5.0,4.0,15.0,12.0,1.0,0.0,1.0,3.0
0021300665,1610612749,MIL,Milwaukee,203545,Miroslav Raduljica,,,23:07,111.2,116.9,-5.7,0.067,0.0,11.4,0.154,0.118,0.14,0.0,0.667,0.709,0.152,91.86,0.13,2014-01-27T00:00:00,4,1610612749,MIL,Milwaukee,8-36,25,16,20,25,0,0,0,0,0,0,0,0,0,0,86,0.382,0.636,0.182,24,41,11,0021300665,1610612749,MIL,Milwaukee,Miroslav Raduljica,,,23:07,0.0,4.0,2.0,8.0,5.0,4.0,15.0,12.0,1.0,0.0,1.0,3.0
0021300665,1610612749,MIL,Milwaukee,203489,Nate Wolters,,,17:56,83.9,105.8,-21.9,0.3,0.0,27.9,0.0,0.0,0.0,0.0,0.167,0.258,0.18,102.95,0.031,2014-01-27T00:00:00,4,1610612746,LAC,Los Angeles,32-15,32,32,20,30,0,0,0,0,0,0,0,0,0,0,114,0.544,0.737,0.5,29,47,17,0021300665,1610612749,MIL,Milwaukee,Nate Wolters,,,17:56,3.0,0.0,3.0,2.0,6.0,3.0,9.0,12.0,0.0,0.0,0.0,3.0
0021300665,1610612749,MIL,Milwaukee,203489,Nate Wolters,,,17:56,83.9,105.8,-21.9,0.3,0.0,27.9,0.0,0.0,0.0,0.0,0.167,0.258,0.18,102.95,0.031,2014-01-27T00:00:00,4,1610612749,MIL,Milwaukee,8-36,25,16,20,25,0,0,0,0,0,0,0,0,0,0,86,0.382,0.636,0.182,24,41,11,0021300665,1610612749,MIL,Milwaukee,Nate Wolters,,,17:56,3.0,0.0,3.0,2.0,6.0,3.0,9.0,12.0,0.0,0.0,0.0,3.0
0021300665,1610612749,MIL,Milwaukee,201564,O.J. Mayo,,NWT - Illness,,,,,,,0.0,,,,,,,0.0,,,2014-01-27T00:00:00,4,1610612746,LAC,Los Angeles,32-15,32,32,20,30,0,0,0,0,0,0,0,0,0,0,114,0.544,0.737,0.5,29,47,17,0021300665,1610612749,MIL,Milwaukee,O.J. Mayo,,NWT - Illness,,,,,,,,,,,,,
0021300665,1610612749,MIL,Milwaukee,201564,O.J. Mayo,,NWT - Illness,,,,,,,0.0,,,,,,,0.0,,,2014-01-27T00:00:00,4,1610612749,MIL,Milwaukee,8-36,25,16,20,25,0,0,0,0,0,0,0,0,0,0,86,0.382,0.636,0.182,24,41,11,0021300665,1610612749,MIL,Milwaukee,O.J. Mayo,,NWT - Illness,,,,,,,,,,,,,
0021300665,1610612749,MIL,Milwaukee,202390,Gary Neal,,DNP - Coach's Decision,,,,,,,0.0,,,,,,,0.0,,,2014-01-27T00:00:00,4,1610612746,LAC,Los Angeles,32-15,32,32,20,30,0,0,0,0,0,0,0,0,0,0,114,0.544,0.737,0.5,29,47,17,0021300665,1610612749,MIL,Milwaukee,Gary Neal,,DNP - Coach's Decision,,,,,,,,,,,,,
0021300665,1610612749,MIL,Milwaukee,202390,Gary Neal,,DNP - Coach's Decision,,,,,,,0.0,,,,,,,0.0,,,2014-01-27T00:00:00,4,1610612749,MIL,Milwaukee,8-36,25,16,20,25,0,0,0,0,0,0,0,0,0,0,86,0.382,0.636,0.182,24,41,11,0021300665,1610612749,MIL,Milwaukee,Gary Neal,,DNP - Coach's Decision,,,,,,,,,,,,,
0021300665,1610612749,MIL,Milwaukee,202336,Larry Sanders,,NWT - Illness,,,,,,,0.0,,,,,,,0.0,,,2014-01-27T00:00:00,4,1610612746,LAC,Los Angeles,32-15,32,32,20,30,0,0,0,0,0,0,0,0,0,0,114,0.544,0.737,0.5,29,47,17,0021300665,1610612749,MIL,Milwaukee,Larry Sanders,,NWT - Illness,,,,,,,,,,,,,
0021300665,1610612749,MIL,Milwaukee,202336,Larry Sanders,,NWT - Illness,,,,,,,0.0,,,,,,,0.0,,,2014-01-27T00:00:00,4,1610612749,MIL,Milwaukee,8-36,25,16,20,25,0,0,0,0,0,0,0,0,0,0,86,0.382,0.636,0.182,24,41,11,0021300665,1610612749,MIL,Milwaukee,Larry Sanders,,NWT - Illness,,,,,,,,,,,,,
0021300665,1610612749,MIL,Milwaukee,202327,Ekpe Udoh,,DND - Left ankle sprain,,,,,,,0.0,,,,,,,0.0,,,2014-01-27T00:00:00,4,1610612746,LAC,Los Angeles,32-15,32,32,20,30,0,0,0,0,0,0,0,0,0,0,114,0.544,0.737,0.5,29,47,17,0021300665,1610612749,MIL,Milwaukee,Ekpe Udoh,,DND - Left ankle sprain,,,,,,,,,,,,,
0021300665,1610612749,MIL,Milwaukee,202327,Ekpe Udoh,,DND - Left ankle sprain,,,,,,,0.0,,,,,,,0.0,,,2014-01-27T00:00:00,4,1610612749,MIL,Milwaukee,8-36,25,16,20,25,0,0,0,0,0,0,0,0,0,0,86,0.382,0.636,0.182,24,41,11,0021300665,1610612749,MIL,Milwaukee,Ekpe Udoh,,DND - Left ankle sprain,,,,,,,,,,,,,
