GAME_ID_x,TEAM_ID_x,TEAM_ABBREVIATION_x,TEAM_CITY_x,PLAYER_ID,PLAYER_NAME_x,START_POSITION_x,COMMENT_x,MIN_x,OFF_RATING,DEF_RATING,NET_RATING,AST_PCT,AST_TOV,AST_RATIO,OREB_PCT,DREB_PCT,REB_PCT,TM_TOV_PCT,EFG_PCT,TS_PCT,USG_PCT,PACE,PIE,GAME_DATE_EST,GAME_SEQUENCE,TEAM_ID_y,TEAM_ABBREVIATION_y,TEAM_CITY_NAME,TEAM_WINS_LOSSES,PTS_QTR1,PTS_QTR2,PTS_QTR3,PTS_QTR4,PTS_OT1,PTS_OT2,PTS_OT3,PTS_OT4,PTS_OT5,PTS_OT6,PTS_OT7,PTS_OT8,PTS_OT9,PTS_OT10,PTS,FG_PCT,FT_PCT,FG3_PCT,AST,REB,TOV,GAME_ID_y,TEAM_ID,TEAM_ABBREVIATION,TEAM_CITY_y,PLAYER_NAME_y,START_POSITION_y,COMMENT_y,MIN_y,PTS_OFF_TOV,PTS_2ND_CHANCE,PTS_FB,PTS_PAINT,OPP_PTS_OFF_TOV,OPP_PTS_2ND_CHANCE,OPP_PTS_FB,OPP_PTS_PAINT,BLK,BLKA,PF,PFD
0011400004,1610612764,WAS,Washington,1718,Paul Pierce,F,,19:34,80.3,82.6,-2.3,0.0,0.0,0.0,0.0,0.241,0.152,43.6,0.0,0.258,0.157,97.88,-0.049,2014-10-06T00:00:00,3,1610612764,WAS,Washington,1-0,25,20,19,21,0,0,0,0,0,0,0,0,0,0,85,0.411,0.636,0.267,17,47,19,0011400004,1610612764,WAS,Washington,Paul Pierce,F,,19:34,0.0,0.0,2.0,0.0,5.0,5.0,5.0,12.0,0.0,0.0,5.0,2.0
0011400004,1610612764,WAS,Washington,1718,Paul Pierce,F,,19:34,80.3,82.6,-2.3,0.0,0.0,0.0,0.0,0.241,0.152,43.6,0.0,0.258,0.157,97.88,-0.049,2014-10-06T00:00:00,3,1610612741,CHI,Chicago,0-1,21,23,19,18,0,0,0,0,0,0,0,0,0,0,81,0.338,0.719,0.381,18,40,19,0011400004,1610612764,WAS,Washington,Paul Pierce,F,,19:34,0.0,0.0,2.0,0.0,5.0,5.0,5.0,12.0,0.0,0.0,5.0,2.0
0011400004,1610612764,WAS,Washington,2743,Kris Humphries,F,,9:55,82.3,92.1,-9.8,0.0,0.0,0.0,0.091,0.091,0.091,16.7,0.6,0.6,0.262,102.91,0.117,2014-10-06T00:00:00,3,1610612764,WAS,Washington,1-0,25,20,19,21,0,0,0,0,0,0,0,0,0,0,85,0.411,0.636,0.267,17,47,19,0011400004,1610612764,WAS,Washington,Kris Humphries,F,,9:55,2.0,2.0,0.0,2.0,2.0,3.0,4.0,8.0,0.0,1.0,1.0,0.0
0011400004,1610612764,WAS,Washington,2743,Kris Humphries,F,,9:55,82.3,92.1,-9.8,0.0,0.0,0.0,0.091,0.091,0.091,16.7,0.6,0.6,0.262,102.91,0.117,2014-10-06T00:00:00,3,1610612741,CHI,Chicago,0-1,21,23,19,18,0,0,0,0,0,0,0,0,0,0,81,0.338,0.719,0.381,18,40,19,0011400004,1610612764,WAS,Washington,Kris Humphries,F,,9:55,2.0,2.0,0.0,2.0,2.0,3.0,4.0,8.0,0.0,1.0,1.0,0.0
0011400004,1610612764,WAS,Washington,101162,Marcin Gortat,C,,25:48,75.9,76.4,-0.5,0.111,0.25,6.2,0.087,0.229,0.172,24.7,0.556,0.58,0.252,100.2,0.279,2014-10-06T00:00:00,3,1610612764,WAS,Washington,1-0,25,20,19,21,0,0,0,0,0,0,0,0,0,0,85,0.411,0.636,0.267,17,47,19,0011400004,1610612764,WAS,Washington,Marcin Gortat,C,,25:48,2.0,4.0,0.0,8.0,6.0,7.0,5.0,12.0,1.0,0.0,4.0,4.0
0011400004,1610612764,WAS,Washington,101162,Marcin Gortat,C,,25:48,75.9,76.4,-0.5,0.111,0.25,6.2,0.087,0.229,0.172,24.7,0.556,0.58,0.252,100.2,0.279,2014-10-06T00:00:00,3,1610612741,CHI,Chicago,0-1,21,23,19,18,0,0,0,0,0,0,0,0,0,0,81,0.338,0.719,0.381,18,40,19,0011400004,1610612764,WAS,Washington,Marcin Gortat,C,,25:48,2.0,4.0,0.0,8.0,6.0,7.0,5.0,12.0,1.0,0.0,4.0,4.0
0011400004,1610612764,WAS,Washington,203078,Bradley Beal,G,,27:24,79.3,80.5,-1.2,0.167,0.67,11.2,0.042,0.028,0.033,16.8,0.375,0.427,0.247,101.93,-0.011,2014-10-06T00:00:00,3,1610612764,WAS,Washington,1-0,25,20,19,21,0,0,0,0,0,0,0,0,0,0,85,0.411,0.636,0.267,17,47,19,0011400004,1610612764,WAS,Washington,Bradley Beal,G,,27:24,5.0,3.0,2.0,6.0,8.0,7.0,7.0,12.0,0.0,2.0,5.0,2.0
0011400004,1610612764,WAS,Washington,203078,Bradley Beal,G,,27:24,79.3,80.5,-1.2,0.167,0.67,11.2,0.042,0.028,0.033,16.8,0.375,0.427,0.247,101.93,-0.011,2014-10-06T00:00:00,3,1610612741,CHI,Chicago,0-1,21,23,19,18,0,0,0,0,0,0,0,0,0,0,81,0.338,0.719,0.381,18,40,19,0011400004,1610612764,WAS,Washington,Bradley Beal,G,,27:24,5.0,3.0,2.0,6.0,8.0,7.0,7.0,12.0,0.0,2.0,5.0,2.0
0011400004,1610612764,WAS,Washington,202322,John Wall,G,,27:29,78.0,80.5,-2.5,0.2,3.0,20.7,0.0,0.083,0.05,6.9,0.143,0.38,0.177,102.49,0.143,2014-10-06T00:00:00,3,1610612764,WAS,Washington,1-0,25,20,19,21,0,0,0,0,0,0,0,0,0,0,85,0.411,0.636,0.267,17,47,19,0011400004,1610612764,WAS,Washington,John Wall,G,,27:29,0.0,0.0,2.0,0.0,8.0,7.0,7.0,12.0,0.0,0.0,0.0,5.0
0011400004,1610612764,WAS,Washington,202322,John Wall,G,,27:29,78.0,80.5,-2.5,0.2,3.0,20.7,0.0,0.083,0.05,6.9,0.143,0.38,0.177,102.49,0.143,2014-10-06T00:00:00,3,1610612741,CHI,Chicago,0-1,21,23,19,18,0,0,0,0,0,0,0,0,0,0,81,0.338,0.719,0.381,18,40,19,0011400004,1610612764,WAS,Washington,John Wall,G,,27:29,0.0,0.0,2.0,0.0,8.0,7.0,7.0,12.0,0.0,0.0,0.0,5.0
0011400004,1610612764,WAS,Washington,203490,Otto Porter Jr.,,,28:07,87.3,83.3,4.1,0.111,0.0,15.0,0.0,0.182,0.098,0.0,0.1,0.177,0.175,98.95,-0.044,2014-10-06T00:00:00,3,1610612764,WAS,Washington,1-0,25,20,19,21,0,0,0,0,0,0,0,0,0,0,85,0.411,0.636,0.267,17,47,19,0011400004,1610612764,WAS,Washington,Otto Porter Jr.,,,28:07,0.0,0.0,1.0,0.0,16.0,4.0,7.0,2.0,0.0,1.0,2.0,1.0
0011400004,1610612764,WAS,Washington,203490,Otto Porter Jr.,,,28:07,87.3,83.3,4.1,0.111,0.0,15.0,0.0,0.182,0.098,0.0,0.1,0.177,0.175,98.95,-0.044,2014-10-06T00:00:00,3,1610612741,CHI,Chicago,0-1,21,23,19,18,0,0,0,0,0,0,0,0,0,0,81,0.338,0.719,0.381,18,40,19,0011400004,1610612764,WAS,Washington,Otto Porter Jr.,,,28:07,0.0,0.0,1.0,0.0,16.0,4.0,7.0,2.0,0.0,1.0,2.0,1.0
0011400004,1610612764,WAS,Washington,201971,DeJuan Blair,,,27:26,74.8,87.0,-12.2,0.091,0.33,7.5,0.056,0.281,0.2,22.5,0.5,0.429,0.197,97.56,0.089,2014-10-06T00:00:00,3,1610612764,WAS,Washington,1-0,25,20,19,21,0,0,0,0,0,0,0,0,0,0,85,0.411,0.636,0.267,17,47,19,0011400004,1610612764,WAS,Washington,DeJuan Blair,,,27:26,4.0,0.0,4.0,8.0,15.0,2.0,5.0,4.0,1.0,2.0,6.0,2.0
0011400004,1610612764,WAS,Washington,201971,DeJuan Blair,,,27:26,74.8,87.0,-12.2,0.091,0.33,7.5,0.056,0.281,0.2,22.5,0.5,0.429,0.197,97.56,0.089,2014-10-06T00:00:00,3,1610612741,CHI,Chicago,0-1,21,23,19,18,0,0,0,0,0,0,0,0,0,0,81,0.338,0.719,0.381,18,40,19,0011400004,1610612764,WAS,Washington,DeJuan Blair,,,27:26,4.0,0.0,4.0,8.0,15.0,2.0,5.0,4.0,1.0,2.0,6.0,2.0
0011400004,1610612764,WAS,Washington,202338,Kevin Seraphin,,,25:06,91.1,93.2,-2.1,0.067,0.5,11.4,0.063,0.111,0.088,22.8,0.5,0.608,0.134,98.63,0.051,2014-10-06T00:00:00,3,1610612764,WAS,Washington,1-0,25,20,19,21,0,0,0,0,0,0,0,0,0,0,85,0.411,0.636,0.267,17,47,19,0011400004,1610612764,WAS,Washington,Kevin Seraphin,,,25:06,2.0,3.0,0.0,4.0,18.0,4.0,9.0,2.0,0.0,0.0,3.0,2.0
0011400004,1610612764,WAS,Washington,202338,Kevin Seraphin,,,25:06,91.1,93.2,-2.1,0.067,0.5,11.4,0.063,0.111,0.088,22.8,0.5,0.608,0.134,98.63,0.051,2014-10-06T00:00:00,3,1610612741,CHI,Chicago,0-1,21,23,19,18,0,0,0,0,0,0,0,0,0,0,81,0.338,0.719,0.381,18,40,19,0011400004,1610612764,WAS,Washington,Kevin Seraphin,,,25:06,2.0,3.0,0.0,4.0,18.0,4.0,9.0,2.0,0.0,0.0,3.0,2.0
0011400004,1610612764,WAS,Washington,1889,Andre Miller,,,14:32,84.7,99.7,-15.0,0.286,0.0,33.3,0.125,0.0,0.059,0.0,0.5,0.5,0.127,93.47,0.125,2014-10-06T00:00:00,3,1610612764,WAS,Washington,1-0,25,20,19,21,0,0,0,0,0,0,0,0,0,0,85,0.411,0.636,0.267,17,47,19,0011400004,1610612764,WAS,Washington,Andre Miller,,,14:32,0.0,2.0,0.0,2.0,10.0,0.0,2.0,0.0,0.0,1.0,2.0,2.0
0011400004,1610612764,WAS,Washington,1889,Andre Miller,,,14:32,84.7,99.7,-15.0,0.286,0.0,33.3,0.125,0.0,0.059,0.0,0.5,0.5,0.127,93.47,0.125,2014-10-06T00:00:00,3,1610612741,CHI,Chicago,0-1,21,23,19,18,0,0,0,0,0,0,0,0,0,0,81,0.338,0.719,0.381,18,40,19,0011400004,1610612764,WAS,Washington,Andre Miller,,,14:32,0.0,2.0,0.0,2.0,10.0,0.0,2.0,0.0,0.0,1.0,2.0,2.0
0011400004,1610612764,WAS,Washington,203318,Glen Rice,,,20:55,87.8,92.9,-5.1,0.375,3.0,21.8,0.0,0.0,0.0,7.3,0.938,0.922,0.232,95.36,0.375,2014-10-06T00:00:00,3,1610612764,WAS,Washington,1-0,25,20,19,21,0,0,0,0,0,0,0,0,0,0,85,0.411,0.636,0.267,17,47,19,0011400004,1610612764,WAS,Washington,Glen Rice,,,20:55,7.0,0.0,0.0,6.0,17.0,2.0,9.0,2.0,1.0,0.0,3.0,3.0
0011400004,1610612764,WAS,Washington,203318,Glen Rice,,,20:55,87.8,92.9,-5.1,0.375,3.0,21.8,0.0,0.0,0.0,7.3,0.938,0.922,0.232,95.36,0.375,2014-10-06T00:00:00,3,1610612741,CHI,Chicago,0-1,21,23,19,18,0,0,0,0,0,0,0,0,0,0,81,0.338,0.719,0.381,18,40,19,0011400004,1610612764,WAS,Washington,Glen Rice,,,20:55,7.0,0.0,0.0,6.0,17.0,2.0,9.0,2.0,1.0,0.0,3.0,3.0
0011400004,1610612764,WAS,Washington,202066,Garrett Temple,,,6:01,110.5,67.3,43.2,0.2,1.0,50.0,0.0,0.333,0.2,50.0,0.0,0.0,0.078,94.35,0.176,2014-10-06T00:00:00,3,1610612764,WAS,Washington,1-0,25,20,19,21,0,0,0,0,0,0,0,0,0,0,85,0.411,0.636,0.267,17,47,19,0011400004,1610612764,WAS,Washington,Garrett Temple,,,6:01,0.0,0.0,0.0,0.0,5.0,2.0,5.0,2.0,0.0,0.0,0.0,0.0
0011400004,1610612764,WAS,Washington,202066,Garrett Temple,,,6:01,110.5,67.3,43.2,0.2,1.0,50.0,0.0,0.333,0.2,50.0,0.0,0.0,0.078,94.35,0.176,2014-10-06T00:00:00,3,1610612741,CHI,Chicago,0-1,21,23,19,18,0,0,0,0,0,0,0,0,0,0,81,0.338,0.719,0.381,18,40,19,0011400004,1610612764,WAS,Washington,Garrett Temple,,,6:01,0.0,0.0,0.0,0.0,5.0,2.0,5.0,2.0,0.0,0.0,0.0,0.0
0011400004,1610612764,WAS,Washington,202345,Damion James,,,7:43,124.0,63.5,60.5,0.25,0.0,20.5,0.25,0.333,0.3,0.0,0.667,0.515,0.25,94.18,0.219,2014-10-06T00:00:00,3,1610612764,WAS,Washington,1-0,25,20,19,21,0,0,0,0,0,0,0,0,0,0,85,0.411,0.636,0.267,17,47,19,0011400004,1610612764,WAS,Washington,Damion James,,,7:43,2.0,0.0,2.0,2.0,5.0,2.0,5.0,2.0,0.0,0.0,2.0,1.0
0011400004,1610612764,WAS,Washington,202345,Damion James,,,7:43,124.0,63.5,60.5,0.25,0.0,20.5,0.25,0.333,0.3,0.0,0.667,0.515,0.25,94.18,0.219,2014-10-06T00:00:00,3,1610612741,CHI,Chicago,0-1,21,23,19,18,0,0,0,0,0,0,0,0,0,0,81,0.338,0.719,0.381,18,40,19,0011400004,1610612764,WAS,Washington,Damion James,,,7:43,2.0,0.0,2.0,2.0,5.0,2.0,5.0,2.0,0.0,0.0,2.0,1.0
0011400004,1610612764,WAS,Washington,2446,Rasual Butler,,DNP - Coach's Decision                  ,,,,,,,0.0,,,,,,,0.0,,,2014-10-06T00:00:00,3,1610612764,WAS,Washington,1-0,25,20,19,21,0,0,0,0,0,0,0,0,0,0,85,0.411,0.636,0.267,17,47,19,0011400004,1610612764,WAS,Washington,Rasual Butler,,DNP - Coach's Decision                  ,,,,,,,,,,,,,
0011400004,1610612764,WAS,Washington,2446,Rasual Butler,,DNP - Coach's Decision                  ,,,,,,,0.0,,,,,,,0.0,,,2014-10-06T00:00:00,3,1610612741,CHI,Chicago,0-1,21,23,19,18,0,0,0,0,0,0,0,0,0,0,81,0.338,0.719,0.381,18,40,19,0011400004,1610612764,WAS,Washington,Rasual Butler,,DNP - Coach's Decision                  ,,,,,,,,,,,,,
0011400004,1610612764,WAS,Washington,2400,Drew Gooden,,DNP - Coach's Decision                  ,,,,,,,0.0,,,,,,,0.0,,,2014-10-06T00:00:00,3,1610612764,WAS,Washington,1-0,25,20,19,21,0,0,0,0,0,0,0,0,0,0,85,0.411,0.636,0.267,17,47,19,0011400004,1610612764,WAS,Washington,Drew Gooden,,DNP - Coach's Decision                  ,,,,,,,,,,,,,
0011400004,1610612764,WAS,Washington,2400,Drew Gooden,,DNP - Coach's Decision                  ,,,,,,,0.0,,,,,,,0.0,,,2014-10-06T00:00:00,3,1610612741,CHI,Chicago,0-1,21,23,19,18,0,0,0,0,0,0,0,0,0,0,81,0.338,0.719,0.381,18,40,19,0011400004,1610612764,WAS,Washington,Drew Gooden,,DNP - Coach's Decision                  ,,,,,,,,,,,,,
0011400004,1610612764,WAS,Washington,202350,Daniel Orton,,DNP - Coach's Decision                  ,,,,,,,0.0,,,,,,,0.0,,,2014-10-06T00:00:00,3,1610612764,WAS,Washington,1-0,25,20,19,21,0,0,0,0,0,0,0,0,0,0,85,0.411,0.636,0.267,17,47,19,0011400004,1610612764,WAS,Washington,Daniel Orton,,DNP - Coach's Decision                  ,,,,,,,,,,,,,
0011400004,1610612764,WAS,Washington,202350,Daniel Orton,,DNP - Coach's Decision                  ,,,,,,,0.0,,,,,,,0.0,,,2014-10-06T00:00:00,3,1610612741,CHI,Chicago,0-1,21,23,19,18,0,0,0,0,0,0,0,0,0,0,81,0.338,0.719,0.381,18,40,19,0011400004,1610612764,WAS,Washington,Daniel Orton,,DNP - Coach's Decision                  ,,,,,,,,,,,,,
0011400004,1610612764,WAS,Washington,202918,Xavier Silas,,DNP - Coach's Decision                  ,,,,,,,0.0,,,,,,,0.0,,,2014-10-06T00:00:00,3,1610612764,WAS,Washington,1-0,25,20,19,21,0,0,0,0,0,0,0,0,0,0,85,0.411,0.636,0.267,17,47,19,0011400004,1610612764,WAS,Washington,Xavier Silas,,DNP - Coach's Decision                  ,,,,,,,,,,,,,
0011400004,1610612764,WAS,Washington,202918,Xavier Silas,,DNP - Coach's Decision                  ,,,,,,,0.0,,,,,,,0.0,,,2014-10-06T00:00:00,3,1610612741,CHI,Chicago,0-1,21,23,19,18,0,0,0,0,0,0,0,0,0,0,81,0.338,0.719,0.381,18,40,19,0011400004,1610612764,WAS,Washington,Xavier Silas,,DNP - Coach's Decision                  ,,,,,,,,,,,,,
0011400004,1610612741,CHI,Chicago,2399,Mike Dunleavy,F,,21:40,84.4,70.0,14.4,0.0,0.0,0.0,0.0,0.211,0.082,10.2,0.5,0.571,0.185,99.2,0.148,2014-10-06T00:00:00,3,1610612764,WAS,Washington,1-0,25,20,19,21,0,0,0,0,0,0,0,0,0,0,85,0.411,0.636,0.267,17,47,19,0011400004,1610612741,CHI,Chicago,Mike Dunleavy,F,,21:40,2.0,1.0,0.0,0.0,7.0,9.0,6.0,14.0,0.0,0.0,3.0,2.0
0011400004,1610612741,CHI,Chicago,2399,Mike Dunleavy,F,,21:40,84.4,70.0,14.4,0.0,0.0,0.0,0.0,0.211,0.082,10.2,0.5,0.571,0.185,99.2,0.148,2014-10-06T00:00:00,3,1610612741,CHI,Chicago,0-1,21,23,19,18,0,0,0,0,0,0,0,0,0,0,81,0.338,0.719,0.381,18,40,19,0011400004,1610612741,CHI,Chicago,Mike Dunleavy,F,,21:40,2.0,1.0,0.0,0.0,7.0,9.0,6.0,14.0,0.0,0.0,3.0,2.0
0011400004,1610612741,CHI,Chicago,2200,Pau Gasol,F,,24:48,81.8,65.3,16.5,0.091,0.0,11.3,0.091,0.227,0.145,0.0,0.429,0.508,0.128,101.57,0.366,2014-10-06T00:00:00,3,1610612764,WAS,Washington,1-0,25,20,19,21,0,0,0,0,0,0,0,0,0,0,85,0.411,0.636,0.267,17,47,19,0011400004,1610612741,CHI,Chicago,Pau Gasol,F,,24:48,2.0,0.0,2.0,2.0,9.0,9.0,6.0,16.0,3.0,0.0,2.0,3.0
0011400004,1610612741,CHI,Chicago,2200,Pau Gasol,F,,24:48,81.8,65.3,16.5,0.091,0.0,11.3,0.091,0.227,0.145,0.0,0.429,0.508,0.128,101.57,0.366,2014-10-06T00:00:00,3,1610612741,CHI,Chicago,0-1,21,23,19,18,0,0,0,0,0,0,0,0,0,0,81,0.338,0.719,0.381,18,40,19,0011400004,1610612741,CHI,Chicago,Pau Gasol,F,,24:48,2.0,0.0,2.0,2.0,9.0,9.0,6.0,16.0,3.0,0.0,2.0,3.0
0011400004,1610612741,CHI,Chicago,201149,Joakim Noah,C,,13:51,87.7,65.0,22.6,0.0,0.0,0.0,0.105,0.133,0.118,25.0,0.167,0.167,0.219,102.72,-0.1,2014-10-06T00:00:00,3,1610612764,WAS,Washington,1-0,25,20,19,21,0,0,0,0,0,0,0,0,0,0,85,0.411,0.636,0.267,17,47,19,0011400004,1610612741,CHI,Chicago,Joakim Noah,C,,13:51,0.0,0.0,0.0,0.0,7.0,4.0,2.0,10.0,0.0,1.0,2.0,1.0
0011400004,1610612741,CHI,Chicago,201149,Joakim Noah,C,,13:51,87.7,65.0,22.6,0.0,0.0,0.0,0.105,0.133,0.118,25.0,0.167,0.167,0.219,102.72,-0.1,2014-10-06T00:00:00,3,1610612741,CHI,Chicago,0-1,21,23,19,18,0,0,0,0,0,0,0,0,0,0,81,0.338,0.719,0.381,18,40,19,0011400004,1610612741,CHI,Chicago,Joakim Noah,C,,13:51,0.0,0.0,0.0,0.0,7.0,4.0,2.0,10.0,0.0,1.0,2.0,1.0
0011400004,1610612741,CHI,Chicago,202710,Jimmy Butler,G,,26:48,82.0,68.5,13.4,0.385,5.0,30.3,0.086,0.16,0.117,6.1,0.143,0.333,0.174,102.52,0.267,2014-10-06T00:00:00,3,1610612764,WAS,Washington,1-0,25,20,19,21,0,0,0,0,0,0,0,0,0,0,85,0.411,0.636,0.267,17,47,19,0011400004,1610612741,CHI,Chicago,Jimmy Butler,G,,26:48,4.0,4.0,3.0,2.0,9.0,12.0,6.0,18.0,3.0,0.0,0.0,9.0
0011400004,1610612741,CHI,Chicago,202710,Jimmy Butler,G,,26:48,82.0,68.5,13.4,0.385,5.0,30.3,0.086,0.16,0.117,6.1,0.143,0.333,0.174,102.52,0.267,2014-10-06T00:00:00,3,1610612741,CHI,Chicago,0-1,21,23,19,18,0,0,0,0,0,0,0,0,0,0,81,0.338,0.719,0.381,18,40,19,0011400004,1610612741,CHI,Chicago,Jimmy Butler,G,,26:48,4.0,4.0,3.0,2.0,9.0,12.0,6.0,18.0,3.0,0.0,0.0,9.0
0011400004,1610612741,CHI,Chicago,201565,Derrick Rose,G,,13:51,87.7,65.0,22.6,0.2,1.0,10.1,0.053,0.2,0.118,10.1,0.643,0.698,0.243,102.72,0.417,2014-10-06T00:00:00,3,1610612764,WAS,Washington,1-0,25,20,19,21,0,0,0,0,0,0,0,0,0,0,85,0.411,0.636,0.267,17,47,19,0011400004,1610612741,CHI,Chicago,Derrick Rose,G,,13:51,2.0,0.0,4.0,6.0,7.0,4.0,2.0,10.0,0.0,0.0,0.0,1.0
0011400004,1610612741,CHI,Chicago,201565,Derrick Rose,G,,13:51,87.7,65.0,22.6,0.2,1.0,10.1,0.053,0.2,0.118,10.1,0.643,0.698,0.243,102.72,0.417,2014-10-06T00:00:00,3,1610612741,CHI,Chicago,0-1,21,23,19,18,0,0,0,0,0,0,0,0,0,0,81,0.338,0.719,0.381,18,40,19,0011400004,1610612741,CHI,Chicago,Derrick Rose,G,,13:51,2.0,0.0,4.0,6.0,7.0,4.0,2.0,10.0,0.0,0.0,0.0,1.0
0011400004,1610612741,CHI,Chicago,201959,Taj Gibson,,,23:26,87.3,96.1,-8.7,0.125,0.33,5.2,0.08,0.133,0.1,15.7,0.25,0.332,0.363,97.01,-0.062,2014-10-06T00:00:00,3,1610612764,WAS,Washington,1-0,25,20,19,21,0,0,0,0,0,0,0,0,0,0,85,0.411,0.636,0.267,17,47,19,0011400004,1610612741,CHI,Chicago,Taj Gibson,,,23:26,0.0,2.0,0.0,2.0,12.0,10.0,6.0,18.0,0.0,1.0,2.0,6.0
0011400004,1610612741,CHI,Chicago,201959,Taj Gibson,,,23:26,87.3,96.1,-8.7,0.125,0.33,5.2,0.08,0.133,0.1,15.7,0.25,0.332,0.363,97.01,-0.062,2014-10-06T00:00:00,3,1610612741,CHI,Chicago,0-1,21,23,19,18,0,0,0,0,0,0,0,0,0,0,81,0.338,0.719,0.381,18,40,19,0011400004,1610612741,CHI,Chicago,Taj Gibson,,,23:26,0.0,2.0,0.0,2.0,12.0,10.0,6.0,18.0,0.0,1.0,2.0,6.0
0011400004,1610612741,CHI,Chicago,2550,Kirk Hinrich,,,21:26,87.7,94.7,-7.0,0.545,0.0,54.5,0.0,0.083,0.029,0.0,0.0,0.0,0.111,94.42,-0.021,2014-10-06T00:00:00,3,1610612764,WAS,Washington,1-0,25,20,19,21,0,0,0,0,0,0,0,0,0,0,85,0.411,0.636,0.267,17,47,19,0011400004,1610612741,CHI,Chicago,Kirk Hinrich,,,21:26,0.0,0.0,0.0,0.0,12.0,7.0,6.0,16.0,0.0,0.0,3.0,2.0
0011400004,1610612741,CHI,Chicago,2550,Kirk Hinrich,,,21:26,87.7,94.7,-7.0,0.545,0.0,54.5,0.0,0.083,0.029,0.0,0.0,0.0,0.111,94.42,-0.021,2014-10-06T00:00:00,3,1610612741,CHI,Chicago,0-1,21,23,19,18,0,0,0,0,0,0,0,0,0,0,81,0.338,0.719,0.381,18,40,19,0011400004,1610612741,CHI,Chicago,Kirk Hinrich,,,21:26,0.0,0.0,0.0,0.0,12.0,7.0,6.0,16.0,0.0,0.0,3.0,2.0
0011400004,1610612741,CHI,Chicago,203926,Doug McDermott,,,26:20,84.2,95.0,-10.8,0.0,0.0,0.0,0.0,0.059,0.026,24.4,0.625,0.645,0.148,98.47,0.065,2014-10-06T00:00:00,3,1610612764,WAS,Washington,1-0,25,20,19,21,0,0,0,0,0,0,0,0,0,0,85,0.411,0.636,0.267,17,47,19,0011400004,1610612741,CHI,Chicago,Doug McDermott,,,26:20,2.0,0.0,0.0,0.0,17.0,5.0,7.0,24.0,0.0,0.0,0.0,3.0
0011400004,1610612741,CHI,Chicago,203926,Doug McDermott,,,26:20,84.2,95.0,-10.8,0.0,0.0,0.0,0.0,0.059,0.026,24.4,0.625,0.645,0.148,98.47,0.065,2014-10-06T00:00:00,3,1610612741,CHI,Chicago,0-1,21,23,19,18,0,0,0,0,0,0,0,0,0,0,81,0.338,0.719,0.381,18,40,19,0011400004,1610612741,CHI,Chicago,Doug McDermott,,,26:20,2.0,0.0,0.0,0.0,17.0,5.0,7.0,24.0,0.0,0.0,0.0,3.0
0011400004,1610612741,CHI,Chicago,202703,Nikola Mirotic,,,21:55,86.6,102.4,-15.7,0.0,0.0,0.0,0.059,0.308,0.167,21.8,0.722,0.79,0.315,97.07,0.261,2014-10-06T00:00:00,3,1610612764,WAS,Washington,1-0,25,20,19,21,0,0,0,0,0,0,0,0,0,0,85,0.411,0.636,0.267,17,47,19,0011400004,1610612741,CHI,Chicago,Nikola Mirotic,,,21:55,11.0,2.0,5.0,2.0,12.0,5.0,7.0,22.0,1.0,0.0,5.0,4.0
0011400004,1610612741,CHI,Chicago,202703,Nikola Mirotic,,,21:55,86.6,102.4,-15.7,0.0,0.0,0.0,0.059,0.308,0.167,21.8,0.722,0.79,0.315,97.07,0.261,2014-10-06T00:00:00,3,1610612741,CHI,Chicago,0-1,21,23,19,18,0,0,0,0,0,0,0,0,0,0,81,0.338,0.719,0.381,18,40,19,0011400004,1610612741,CHI,Chicago,Nikola Mirotic,,,21:55,11.0,2.0,5.0,2.0,12.0,5.0,7.0,22.0,1.0,0.0,5.0,4.0
0011400004,1610612741,CHI,Chicago,201166,Aaron Brooks,,,21:55,86.6,102.6,-16.0,0.375,1.0,23.1,0.0,0.0,0.0,23.1,0.429,0.429,0.229,98.03,-0.022,2014-10-06T00:00:00,3,1610612764,WAS,Washington,1-0,25,20,19,21,0,0,0,0,0,0,0,0,0,0,85,0.411,0.636,0.267,17,47,19,0011400004,1610612741,CHI,Chicago,Aaron Brooks,,,21:55,0.0,0.0,0.0,0.0,12.0,5.0,7.0,22.0,0.0,1.0,2.0,2.0
0011400004,1610612741,CHI,Chicago,201166,Aaron Brooks,,,21:55,86.6,102.6,-16.0,0.375,1.0,23.1,0.0,0.0,0.0,23.1,0.429,0.429,0.229,98.03,-0.022,2014-10-06T00:00:00,3,1610612741,CHI,Chicago,0-1,21,23,19,18,0,0,0,0,0,0,0,0,0,0,81,0.338,0.719,0.381,18,40,19,0011400004,1610612741,CHI,Chicago,Aaron Brooks,,,21:55,0.0,0.0,0.0,0.0,12.0,5.0,7.0,22.0,0.0,1.0,2.0,2.0
0011400004,1610612741,CHI,Chicago,200780,Solomon Jones,,,12:00,75.8,88.1,-12.3,0.167,1.0,33.3,0.0,0.143,0.067,33.3,0.0,0.0,0.081,95.2,-0.143,2014-10-06T00:00:00,3,1610612764,WAS,Washington,1-0,25,20,19,21,0,0,0,0,0,0,0,0,0,0,85,0.411,0.636,0.267,17,47,19,0011400004,1610612741,CHI,Chicago,Solomon Jones,,,12:00,0.0,0.0,0.0,0.0,8.0,0.0,5.0,10.0,0.0,0.0,2.0,0.0
0011400004,1610612741,CHI,Chicago,200780,Solomon Jones,,,12:00,75.8,88.1,-12.3,0.167,1.0,33.3,0.0,0.143,0.067,33.3,0.0,0.0,0.081,95.2,-0.143,2014-10-06T00:00:00,3,1610612741,CHI,Chicago,0-1,21,23,19,18,0,0,0,0,0,0,0,0,0,0,81,0.338,0.719,0.381,18,40,19,0011400004,1610612741,CHI,Chicago,Solomon Jones,,,12:00,0.0,0.0,0.0,0.0,8.0,0.0,5.0,10.0,0.0,0.0,2.0,0.0
0011400004,1610612741,CHI,Chicago,203503,Tony Snell,,,12:00,75.8,88.1,-12.3,0.0,0.0,0.0,0.0,0.143,0.067,50.0,0.5,0.5,0.162,95.2,-0.214,2014-10-06T00:00:00,3,1610612764,WAS,Washington,1-0,25,20,19,21,0,0,0,0,0,0,0,0,0,0,85,0.411,0.636,0.267,17,47,19,0011400004,1610612741,CHI,Chicago,Tony Snell,,,12:00,0.0,0.0,0.0,0.0,8.0,0.0,5.0,10.0,0.0,0.0,3.0,0.0
0011400004,1610612741,CHI,Chicago,203503,Tony Snell,,,12:00,75.8,88.1,-12.3,0.0,0.0,0.0,0.0,0.143,0.067,50.0,0.5,0.5,0.162,95.2,-0.214,2014-10-06T00:00:00,3,1610612741,CHI,Chicago,0-1,21,23,19,18,0,0,0,0,0,0,0,0,0,0,81,0.338,0.719,0.381,18,40,19,0011400004,1610612741,CHI,Chicago,Tony Snell,,,12:00,0.0,0.0,0.0,0.0,8.0,0.0,5.0,10.0,0.0,0.0,3.0,0.0
0011400004,1610612741,CHI,Chicago,203946,Cameron Bairstow,,DNP - Coach's Decision                  ,,,,,,,0.0,,,,,,,0.0,,,2014-10-06T00:00:00,3,1610612764,WAS,Washington,1-0,25,20,19,21,0,0,0,0,0,0,0,0,0,0,85,0.411,0.636,0.267,17,47,19,0011400004,1610612741,CHI,Chicago,Cameron Bairstow,,DNP - Coach's Decision                  ,,,,,,,,,,,,,
0011400004,1610612741,CHI,Chicago,203946,Cameron Bairstow,,DNP - Coach's Decision                  ,,,,,,,0.0,,,,,,,0.0,,,2014-10-06T00:00:00,3,1610612741,CHI,Chicago,0-1,21,23,19,18,0,0,0,0,0,0,0,0,0,0,81,0.338,0.719,0.381,18,40,19,0011400004,1610612741,CHI,Chicago,Cameron Bairstow,,DNP - Coach's Decision                  ,,,,,,,,,,,,,
0011400004,1610612741,CHI,Chicago,203162,Ben Hansbrough,,DNP - Coach's Decision                  ,,,,,,,0.0,,,,,,,0.0,,,2014-10-06T00:00:00,3,1610612764,WAS,Washington,1-0,25,20,19,21,0,0,0,0,0,0,0,0,0,0,85,0.411,0.636,0.267,17,47,19,0011400004,1610612741,CHI,Chicago,Ben Hansbrough,,DNP - Coach's Decision                  ,,,,,,,,,,,,,
0011400004,1610612741,CHI,Chicago,203162,Ben Hansbrough,,DNP - Coach's Decision                  ,,,,,,,0.0,,,,,,,0.0,,,2014-10-06T00:00:00,3,1610612741,CHI,Chicago,0-1,21,23,19,18,0,0,0,0,0,0,0,0,0,0,81,0.338,0.719,0.381,18,40,19,0011400004,1610612741,CHI,Chicago,Ben Hansbrough,,DNP - Coach's Decision                  ,,,,,,,,,,,,,
0011400004,1610612741,CHI,Chicago,202734,E'Twaun Moore,,DNP - Coach's Decision                  ,,,,,,,0.0,,,,,,,0.0,,,2014-10-06T00:00:00,3,1610612764,WAS,Washington,1-0,25,20,19,21,0,0,0,0,0,0,0,0,0,0,85,0.411,0.636,0.267,17,47,19,0011400004,1610612741,CHI,Chicago,E'Twaun Moore,,DNP - Coach's Decision                  ,,,,,,,,,,,,,
0011400004,1610612741,CHI,Chicago,202734,E'Twaun Moore,,DNP - Coach's Decision                  ,,,,,,,0.0,,,,,,,0.0,,,2014-10-06T00:00:00,3,1610612741,CHI,Chicago,0-1,21,23,19,18,0,0,0,0,0,0,0,0,0,0,81,0.338,0.719,0.381,18,40,19,0011400004,1610612741,CHI,Chicago,E'Twaun Moore,,DNP - Coach's Decision                  ,,,,,,,,,,,,,
