GAME_ID_x,TEAM_ID_x,TEAM_ABBREVIATION_x,TEAM_CITY_x,PLAYER_ID,PLAYER_NAME_x,START_POSITION_x,COMMENT_x,MIN_x,OFF_RATING,DEF_RATING,NET_RATING,AST_PCT,AST_TOV,AST_RATIO,OREB_PCT,DREB_PCT,REB_PCT,TM_TOV_PCT,EFG_PCT,TS_PCT,USG_PCT,PACE,PIE,GAME_DATE_EST,GAME_SEQUENCE,TEAM_ID_y,TEAM_ABBREVIATION_y,TEAM_CITY_NAME,TEAM_WINS_LOSSES,PTS_QTR1,PTS_QTR2,PTS_QTR3,PTS_QTR4,PTS_OT1,PTS_OT2,PTS_OT3,PTS_OT4,PTS_OT5,PTS_OT6,PTS_OT7,PTS_OT8,PTS_OT9,PTS_OT10,PTS,FG_PCT,FT_PCT,FG3_PCT,AST,REB,TOV,GAME_ID_y,TEAM_ID,TEAM_ABBREVIATION,TEAM_CITY_y,PLAYER_NAME_y,START_POSITION_y,COMMENT_y,MIN_y,PTS_OFF_TOV,PTS_2ND_CHANCE,PTS_FB,PTS_PAINT,OPP_PTS_OFF_TOV,OPP_PTS_2ND_CHANCE,OPP_PTS_FB,OPP_PTS_PAINT,BLK,BLKA,PF,PFD
0011400008,1610612750,MIN,Minnesota,203952,Andrew Wiggins,F,,32:20,99.3,107.3,-8.0,0.136,0.0,16.3,0.088,0.037,0.066,0.0,0.455,0.584,0.201,102.67,0.117,2014-10-07T00:00:00,1,1610612750,MIN,Minnesota,0-1,20,22,20,28,0,0,0,0,0,0,0,0,0,0,90,0.372,0.667,0.308,20,50,11,0011400008,1610612750,MIN,Minnesota,Andrew Wiggins,F,,32:20,1.0,7.0,2.0,2.0,12.0,7.0,10.0,32.0,3.0,1.0,2.0,6.0
0011400008,1610612750,MIN,Minnesota,203952,Andrew Wiggins,F,,32:20,99.3,107.3,-8.0,0.136,0.0,16.3,0.088,0.037,0.066,0.0,0.455,0.584,0.201,102.67,0.117,2014-10-07T00:00:00,1,1610612754,IND,Indiana,1-0,30,16,36,21,0,0,0,0,0,0,0,0,0,0,103,0.482,0.85,0.25,19,46,13,0011400008,1610612750,MIN,Minnesota,Andrew Wiggins,F,,32:20,1.0,7.0,2.0,2.0,12.0,7.0,10.0,32.0,3.0,1.0,2.0,6.0
0011400008,1610612750,MIN,Minnesota,201152,Thaddeus Young,F,,18:11,96.7,123.6,-26.9,0.222,0.0,15.5,0.0,0.308,0.105,0.0,0.5,0.551,0.235,101.79,0.156,2014-10-07T00:00:00,1,1610612750,MIN,Minnesota,0-1,20,22,20,28,0,0,0,0,0,0,0,0,0,0,90,0.372,0.667,0.308,20,50,11,0011400008,1610612750,MIN,Minnesota,Thaddeus Young,F,,18:11,0.0,2.0,4.0,4.0,4.0,0.0,6.0,18.0,0.0,1.0,1.0,2.0
0011400008,1610612750,MIN,Minnesota,201152,Thaddeus Young,F,,18:11,96.7,123.6,-26.9,0.222,0.0,15.5,0.0,0.308,0.105,0.0,0.5,0.551,0.235,101.79,0.156,2014-10-07T00:00:00,1,1610612754,IND,Indiana,1-0,30,16,36,21,0,0,0,0,0,0,0,0,0,0,103,0.482,0.85,0.25,19,46,13,0011400008,1610612750,MIN,Minnesota,Thaddeus Young,F,,18:11,0.0,2.0,4.0,4.0,4.0,0.0,6.0,18.0,0.0,1.0,1.0,2.0
0011400008,1610612750,MIN,Minnesota,203476,Gorgui Dieng,C,,29:26,93.9,96.0,-2.2,0.0,0.0,0.0,0.143,0.2,0.167,0.0,0.538,0.526,0.203,98.83,0.126,2014-10-07T00:00:00,1,1610612750,MIN,Minnesota,0-1,20,22,20,28,0,0,0,0,0,0,0,0,0,0,90,0.372,0.667,0.308,20,50,11,0011400008,1610612750,MIN,Minnesota,Gorgui Dieng,C,,29:26,4.0,5.0,0.0,12.0,8.0,7.0,8.0,28.0,2.0,2.0,5.0,4.0
0011400008,1610612750,MIN,Minnesota,203476,Gorgui Dieng,C,,29:26,93.9,96.0,-2.2,0.0,0.0,0.0,0.143,0.2,0.167,0.0,0.538,0.526,0.203,98.83,0.126,2014-10-07T00:00:00,1,1610612754,IND,Indiana,1-0,30,16,36,21,0,0,0,0,0,0,0,0,0,0,103,0.482,0.85,0.25,19,46,13,0011400008,1610612750,MIN,Minnesota,Gorgui Dieng,C,,29:26,4.0,5.0,0.0,12.0,8.0,7.0,8.0,28.0,2.0,2.0,5.0,4.0
0011400008,1610612750,MIN,Minnesota,201147,Corey Brewer,G,,16:10,101.4,132.8,-31.4,0.0,0.0,0.0,0.0,0.3,0.115,0.0,0.556,0.556,0.246,101.19,0.115,2014-10-07T00:00:00,1,1610612750,MIN,Minnesota,0-1,20,22,20,28,0,0,0,0,0,0,0,0,0,0,90,0.372,0.667,0.308,20,50,11,0011400008,1610612750,MIN,Minnesota,Corey Brewer,G,,16:10,2.0,0.0,6.0,10.0,2.0,2.0,4.0,16.0,0.0,0.0,1.0,0.0
0011400008,1610612750,MIN,Minnesota,201147,Corey Brewer,G,,16:10,101.4,132.8,-31.4,0.0,0.0,0.0,0.0,0.3,0.115,0.0,0.556,0.556,0.246,101.19,0.115,2014-10-07T00:00:00,1,1610612754,IND,Indiana,1-0,30,16,36,21,0,0,0,0,0,0,0,0,0,0,103,0.482,0.85,0.25,19,46,13,0011400008,1610612750,MIN,Minnesota,Corey Brewer,G,,16:10,2.0,0.0,6.0,10.0,2.0,2.0,4.0,16.0,0.0,0.0,1.0,0.0
0011400008,1610612750,MIN,Minnesota,201937,Ricky Rubio,G,,17:44,95.6,96.7,-1.1,0.333,1.33,30.8,0.0,0.118,0.049,23.1,0.167,0.167,0.197,104.21,-0.024,2014-10-07T00:00:00,1,1610612750,MIN,Minnesota,0-1,20,22,20,28,0,0,0,0,0,0,0,0,0,0,90,0.372,0.667,0.308,20,50,11,0011400008,1610612750,MIN,Minnesota,Ricky Rubio,G,,17:44,0.0,0.0,0.0,2.0,4.0,3.0,6.0,18.0,1.0,1.0,2.0,1.0
0011400008,1610612750,MIN,Minnesota,201937,Ricky Rubio,G,,17:44,95.6,96.7,-1.1,0.333,1.33,30.8,0.0,0.118,0.049,23.1,0.167,0.167,0.197,104.21,-0.024,2014-10-07T00:00:00,1,1610612754,IND,Indiana,1-0,30,16,36,21,0,0,0,0,0,0,0,0,0,0,103,0.482,0.85,0.25,19,46,13,0011400008,1610612750,MIN,Minnesota,Ricky Rubio,G,,17:44,0.0,0.0,0.0,2.0,4.0,3.0,6.0,18.0,1.0,1.0,2.0,1.0
0011400008,1610612750,MIN,Minnesota,203498,Shabazz Muhammad,,,24:39,68.0,99.4,-31.5,0.0,0.0,0.0,0.1,0.045,0.077,0.0,0.273,0.341,0.213,99.54,0.008,2014-10-07T00:00:00,1,1610612750,MIN,Minnesota,0-1,20,22,20,28,0,0,0,0,0,0,0,0,0,0,90,0.372,0.667,0.308,20,50,11,0011400008,1610612750,MIN,Minnesota,Shabazz Muhammad,,,24:39,0.0,1.0,1.0,6.0,10.0,4.0,2.0,22.0,0.0,3.0,1.0,4.0
0011400008,1610612750,MIN,Minnesota,203498,Shabazz Muhammad,,,24:39,68.0,99.4,-31.5,0.0,0.0,0.0,0.1,0.045,0.077,0.0,0.273,0.341,0.213,99.54,0.008,2014-10-07T00:00:00,1,1610612754,IND,Indiana,1-0,30,16,36,21,0,0,0,0,0,0,0,0,0,0,103,0.482,0.85,0.25,19,46,13,0011400008,1610612750,MIN,Minnesota,Shabazz Muhammad,,,24:39,0.0,1.0,1.0,6.0,10.0,4.0,2.0,22.0,0.0,3.0,1.0,4.0
0011400008,1610612750,MIN,Minnesota,203897,Zach LaVine,,,25:20,75.7,91.4,-15.7,0.308,0.8,22.2,0.0,0.217,0.094,27.8,0.278,0.278,0.23,98.75,0.033,2014-10-07T00:00:00,1,1610612750,MIN,Minnesota,0-1,20,22,20,28,0,0,0,0,0,0,0,0,0,0,90,0.372,0.667,0.308,20,50,11,0011400008,1610612750,MIN,Minnesota,Zach LaVine,,,25:20,0.0,0.0,0.0,2.0,10.0,4.0,2.0,20.0,0.0,0.0,0.0,1.0
0011400008,1610612750,MIN,Minnesota,203897,Zach LaVine,,,25:20,75.7,91.4,-15.7,0.308,0.8,22.2,0.0,0.217,0.094,27.8,0.278,0.278,0.23,98.75,0.033,2014-10-07T00:00:00,1,1610612754,IND,Indiana,1-0,30,16,36,21,0,0,0,0,0,0,0,0,0,0,103,0.482,0.85,0.25,19,46,13,0011400008,1610612750,MIN,Minnesota,Zach LaVine,,,25:20,0.0,0.0,0.0,2.0,10.0,4.0,2.0,20.0,0.0,0.0,0.0,1.0
0011400008,1610612750,MIN,Minnesota,101142,Ronny Turiaf,,,15:15,97.8,111.9,-14.1,0.091,1.0,20.5,0.063,0.357,0.2,20.5,0.0,0.174,0.119,97.13,0.025,2014-10-07T00:00:00,1,1610612750,MIN,Minnesota,0-1,20,22,20,28,0,0,0,0,0,0,0,0,0,0,90,0.372,0.667,0.308,20,50,11,0011400008,1610612750,MIN,Minnesota,Ronny Turiaf,,,15:15,0.0,0.0,0.0,0.0,2.0,0.0,2.0,6.0,0.0,0.0,2.0,1.0
0011400008,1610612750,MIN,Minnesota,101142,Ronny Turiaf,,,15:15,97.8,111.9,-14.1,0.091,1.0,20.5,0.063,0.357,0.2,20.5,0.0,0.174,0.119,97.13,0.025,2014-10-07T00:00:00,1,1610612754,IND,Indiana,1-0,30,16,36,21,0,0,0,0,0,0,0,0,0,0,103,0.482,0.85,0.25,19,46,13,0011400008,1610612750,MIN,Minnesota,Ronny Turiaf,,,15:15,0.0,0.0,0.0,0.0,2.0,0.0,2.0,6.0,0.0,0.0,2.0,1.0
0011400008,1610612750,MIN,Minnesota,200826,J.J. Barea,,,14:23,85.6,124.5,-38.8,0.2,0.0,25.0,0.0,0.083,0.037,0.0,0.167,0.167,0.181,94.31,-0.019,2014-10-07T00:00:00,1,1610612750,MIN,Minnesota,0-1,20,22,20,28,0,0,0,0,0,0,0,0,0,0,90,0.372,0.667,0.308,20,50,11,0011400008,1610612750,MIN,Minnesota,J.J. Barea,,,14:23,0.0,0.0,0.0,0.0,2.0,2.0,2.0,10.0,0.0,1.0,1.0,1.0
0011400008,1610612750,MIN,Minnesota,200826,J.J. Barea,,,14:23,85.6,124.5,-38.8,0.2,0.0,25.0,0.0,0.083,0.037,0.0,0.167,0.167,0.181,94.31,-0.019,2014-10-07T00:00:00,1,1610612754,IND,Indiana,1-0,30,16,36,21,0,0,0,0,0,0,0,0,0,0,103,0.482,0.85,0.25,19,46,13,0011400008,1610612750,MIN,Minnesota,J.J. Barea,,,14:23,0.0,0.0,0.0,0.0,2.0,2.0,2.0,10.0,0.0,1.0,1.0,1.0
0011400008,1610612750,MIN,Minnesota,203133,Robbie Hummel,,,22:53,72.4,91.5,-19.1,0.077,1.0,12.5,0.045,0.167,0.109,12.5,0.167,0.167,0.137,99.68,-0.042,2014-10-07T00:00:00,1,1610612750,MIN,Minnesota,0-1,20,22,20,28,0,0,0,0,0,0,0,0,0,0,90,0.372,0.667,0.308,20,50,11,0011400008,1610612750,MIN,Minnesota,Robbie Hummel,,,22:53,0.0,0.0,0.0,0.0,6.0,9.0,2.0,20.0,1.0,0.0,4.0,0.0
0011400008,1610612750,MIN,Minnesota,203133,Robbie Hummel,,,22:53,72.4,91.5,-19.1,0.077,1.0,12.5,0.045,0.167,0.109,12.5,0.167,0.167,0.137,99.68,-0.042,2014-10-07T00:00:00,1,1610612754,IND,Indiana,1-0,30,16,36,21,0,0,0,0,0,0,0,0,0,0,103,0.482,0.85,0.25,19,46,13,0011400008,1610612750,MIN,Minnesota,Robbie Hummel,,,22:53,0.0,0.0,0.0,0.0,6.0,9.0,2.0,20.0,1.0,0.0,4.0,0.0
0011400008,1610612750,MIN,Minnesota,201978,Chase Budinger,,,6:58,102.6,59.7,43.0,0.0,0.0,0.0,0.111,0.2,0.158,0.0,0.4,0.4,0.3,104.73,0.281,2014-10-07T00:00:00,1,1610612750,MIN,Minnesota,0-1,20,22,20,28,0,0,0,0,0,0,0,0,0,0,90,0.372,0.667,0.308,20,50,11,0011400008,1610612750,MIN,Minnesota,Chase Budinger,,,6:58,2.0,2.0,2.0,4.0,2.0,3.0,4.0,4.0,0.0,0.0,1.0,1.0
0011400008,1610612750,MIN,Minnesota,201978,Chase Budinger,,,6:58,102.6,59.7,43.0,0.0,0.0,0.0,0.111,0.2,0.158,0.0,0.4,0.4,0.3,104.73,0.281,2014-10-07T00:00:00,1,1610612754,IND,Indiana,1-0,30,16,36,21,0,0,0,0,0,0,0,0,0,0,103,0.482,0.85,0.25,19,46,13,0011400008,1610612750,MIN,Minnesota,Chase Budinger,,,6:58,2.0,2.0,2.0,4.0,2.0,3.0,4.0,4.0,0.0,0.0,1.0,1.0
0011400008,1610612750,MIN,Minnesota,201178,Kyrylo Fesenko,,,3:19,25.0,116.5,-91.5,0.0,0.0,0.0,0.0,0.333,0.167,50.0,0.0,0.0,0.25,126.2,0.0,2014-10-07T00:00:00,1,1610612750,MIN,Minnesota,0-1,20,22,20,28,0,0,0,0,0,0,0,0,0,0,90,0.372,0.667,0.308,20,50,11,0011400008,1610612750,MIN,Minnesota,Kyrylo Fesenko,,,3:19,0.0,0.0,0.0,0.0,4.0,2.0,0.0,8.0,0.0,0.0,0.0,0.0
0011400008,1610612750,MIN,Minnesota,201178,Kyrylo Fesenko,,,3:19,25.0,116.5,-91.5,0.0,0.0,0.0,0.0,0.333,0.167,50.0,0.0,0.0,0.25,126.2,0.0,2014-10-07T00:00:00,1,1610612754,IND,Indiana,1-0,30,16,36,21,0,0,0,0,0,0,0,0,0,0,103,0.482,0.85,0.25,19,46,13,0011400008,1610612750,MIN,Minnesota,Kyrylo Fesenko,,,3:19,0.0,0.0,0.0,0.0,4.0,2.0,0.0,8.0,0.0,0.0,0.0,0.0
0011400008,1610612750,MIN,Minnesota,203922,Glenn Robinson III,,,12:00,111.1,96.5,14.6,0.375,0.0,42.9,0.091,0.111,0.1,0.0,0.75,0.75,0.132,93.92,0.273,2014-10-07T00:00:00,1,1610612750,MIN,Minnesota,0-1,20,22,20,28,0,0,0,0,0,0,0,0,0,0,90,0.372,0.667,0.308,20,50,11,0011400008,1610612750,MIN,Minnesota,Glenn Robinson III,,,12:00,4.0,0.0,4.0,4.0,4.0,2.0,2.0,8.0,0.0,0.0,0.0,0.0
0011400008,1610612750,MIN,Minnesota,203922,Glenn Robinson III,,,12:00,111.1,96.5,14.6,0.375,0.0,42.9,0.091,0.111,0.1,0.0,0.75,0.75,0.132,93.92,0.273,2014-10-07T00:00:00,1,1610612754,IND,Indiana,1-0,30,16,36,21,0,0,0,0,0,0,0,0,0,0,103,0.482,0.85,0.25,19,46,13,0011400008,1610612750,MIN,Minnesota,Glenn Robinson III,,,12:00,4.0,0.0,4.0,4.0,4.0,2.0,2.0,8.0,0.0,0.0,0.0,0.0
0011400008,1610612750,MIN,Minnesota,204029,Brady Heslip,,,1:22,232.6,0.0,232.6,0.0,0.0,0.0,0.0,0.0,0.0,0.0,1.5,1.5,0.291,95.53,0.375,2014-10-07T00:00:00,1,1610612750,MIN,Minnesota,0-1,20,22,20,28,0,0,0,0,0,0,0,0,0,0,90,0.372,0.667,0.308,20,50,11,0011400008,1610612750,MIN,Minnesota,Brady Heslip,,,1:22,0.0,0.0,0.0,0.0,0.0,0.0,0.0,0.0,0.0,0.0,0.0,0.0
0011400008,1610612750,MIN,Minnesota,204029,Brady Heslip,,,1:22,232.6,0.0,232.6,0.0,0.0,0.0,0.0,0.0,0.0,0.0,1.5,1.5,0.291,95.53,0.375,2014-10-07T00:00:00,1,1610612754,IND,Indiana,1-0,30,16,36,21,0,0,0,0,0,0,0,0,0,0,103,0.482,0.85,0.25,19,46,13,0011400008,1610612750,MIN,Minnesota,Brady Heslip,,,1:22,0.0,0.0,0.0,0.0,0.0,0.0,0.0,0.0,0.0,0.0,0.0,0.0
0011400008,1610612750,MIN,Minnesota,203461,Anthony Bennett,,DNP - Coach's Decision                  ,,,,,,,0.0,,,,,,,0.0,,,2014-10-07T00:00:00,1,1610612750,MIN,Minnesota,0-1,20,22,20,28,0,0,0,0,0,0,0,0,0,0,90,0.372,0.667,0.308,20,50,11,0011400008,1610612750,MIN,Minnesota,Anthony Bennett,,DNP - Coach's Decision                  ,,,,,,,,,,,,,
0011400008,1610612750,MIN,Minnesota,203461,Anthony Bennett,,DNP - Coach's Decision                  ,,,,,,,0.0,,,,,,,0.0,,,2014-10-07T00:00:00,1,1610612754,IND,Indiana,1-0,30,16,36,21,0,0,0,0,0,0,0,0,0,0,103,0.482,0.85,0.25,19,46,13,0011400008,1610612750,MIN,Minnesota,Anthony Bennett,,DNP - Coach's Decision                  ,,,,,,,,,,,,,
0011400008,1610612750,MIN,Minnesota,2755,Kevin Martin,,DNP - Coach's Decision                  ,,,,,,,0.0,,,,,,,0.0,,,2014-10-07T00:00:00,1,1610612750,MIN,Minnesota,0-1,20,22,20,28,0,0,0,0,0,0,0,0,0,0,90,0.372,0.667,0.308,20,50,11,0011400008,1610612750,MIN,Minnesota,Kevin Martin,,DNP - Coach's Decision                  ,,,,,,,,,,,,,
0011400008,1610612750,MIN,Minnesota,2755,Kevin Martin,,DNP - Coach's Decision                  ,,,,,,,0.0,,,,,,,0.0,,,2014-10-07T00:00:00,1,1610612754,IND,Indiana,1-0,30,16,36,21,0,0,0,0,0,0,0,0,0,0,103,0.482,0.85,0.25,19,46,13,0011400008,1610612750,MIN,Minnesota,Kevin Martin,,DNP - Coach's Decision                  ,,,,,,,,,,,,,
0011400008,1610612750,MIN,Minnesota,201593,Nikola Pekovic,,DNP - Coach's Decision                  ,,,,,,,0.0,,,,,,,0.0,,,2014-10-07T00:00:00,1,1610612750,MIN,Minnesota,0-1,20,22,20,28,0,0,0,0,0,0,0,0,0,0,90,0.372,0.667,0.308,20,50,11,0011400008,1610612750,MIN,Minnesota,Nikola Pekovic,,DNP - Coach's Decision                  ,,,,,,,,,,,,,
0011400008,1610612750,MIN,Minnesota,201593,Nikola Pekovic,,DNP - Coach's Decision                  ,,,,,,,0.0,,,,,,,0.0,,,2014-10-07T00:00:00,1,1610612754,IND,Indiana,1-0,30,16,36,21,0,0,0,0,0,0,0,0,0,0,103,0.482,0.85,0.25,19,46,13,0011400008,1610612750,MIN,Minnesota,Nikola Pekovic,,DNP - Coach's Decision                  ,,,,,,,,,,,,,
0011400008,1610612750,MIN,Minnesota,2590,Mo Williams,,DNP - Coach's Decision                  ,,,,,,,0.0,,,,,,,0.0,,,2014-10-07T00:00:00,1,1610612750,MIN,Minnesota,0-1,20,22,20,28,0,0,0,0,0,0,0,0,0,0,90,0.372,0.667,0.308,20,50,11,0011400008,1610612750,MIN,Minnesota,Mo Williams,,DNP - Coach's Decision                  ,,,,,,,,,,,,,
0011400008,1610612750,MIN,Minnesota,2590,Mo Williams,,DNP - Coach's Decision                  ,,,,,,,0.0,,,,,,,0.0,,,2014-10-07T00:00:00,1,1610612754,IND,Indiana,1-0,30,16,36,21,0,0,0,0,0,0,0,0,0,0,103,0.482,0.85,0.25,19,46,13,0011400008,1610612750,MIN,Minnesota,Mo Williams,,DNP - Coach's Decision                  ,,,,,,,,,,,,,
0011400008,1610612754,IND,Indiana,101139,CJ Miles,F,,12:52,112.7,98.6,14.1,0.0,0.0,0.0,0.0,0.176,0.111,0.0,0.417,0.509,0.242,105.95,0.084,2014-10-07T00:00:00,1,1610612750,MIN,Minnesota,0-1,20,22,20,28,0,0,0,0,0,0,0,0,0,0,90,0.372,0.667,0.308,20,50,11,0011400008,1610612754,IND,Indiana,CJ Miles,F,,12:52,2.0,0.0,2.0,2.0,4.0,7.0,13.0,14.0,1.0,0.0,3.0,1.0
0011400008,1610612754,IND,Indiana,101139,CJ Miles,F,,12:52,112.7,98.6,14.1,0.0,0.0,0.0,0.0,0.176,0.111,0.0,0.417,0.509,0.242,105.95,0.084,2014-10-07T00:00:00,1,1610612754,IND,Indiana,1-0,30,16,36,21,0,0,0,0,0,0,0,0,0,0,103,0.482,0.85,0.25,19,46,13,0011400008,1610612754,IND,Indiana,CJ Miles,F,,12:52,2.0,0.0,2.0,2.0,4.0,7.0,13.0,14.0,1.0,0.0,3.0,1.0
0011400008,1610612754,IND,Indiana,2561,David West,F,,12:00,120.2,78.0,42.2,0.333,0.0,42.9,0.111,0.167,0.148,0.0,0.25,0.25,0.154,101.2,0.121,2014-10-07T00:00:00,1,1610612750,MIN,Minnesota,0-1,20,22,20,28,0,0,0,0,0,0,0,0,0,0,90,0.372,0.667,0.308,20,50,11,0011400008,1610612754,IND,Indiana,David West,F,,12:00,0.0,0.0,0.0,2.0,2.0,5.0,9.0,10.0,0.0,0.0,0.0,1.0
0011400008,1610612754,IND,Indiana,2561,David West,F,,12:00,120.2,78.0,42.2,0.333,0.0,42.9,0.111,0.167,0.148,0.0,0.25,0.25,0.154,101.2,0.121,2014-10-07T00:00:00,1,1610612754,IND,Indiana,1-0,30,16,36,21,0,0,0,0,0,0,0,0,0,0,103,0.482,0.85,0.25,19,46,13,0011400008,1610612754,IND,Indiana,David West,F,,12:00,0.0,0.0,0.0,2.0,2.0,5.0,9.0,10.0,0.0,0.0,0.0,1.0
0011400008,1610612754,IND,Indiana,201579,Roy Hibbert,C,,15:35,101.8,90.1,11.7,0.222,2.0,20.5,0.067,0.182,0.135,10.2,0.4,0.592,0.219,102.69,0.162,2014-10-07T00:00:00,1,1610612750,MIN,Minnesota,0-1,20,22,20,28,0,0,0,0,0,0,0,0,0,0,90,0.372,0.667,0.308,20,50,11,0011400008,1610612754,IND,Indiana,Roy Hibbert,C,,15:35,0.0,0.0,0.0,2.0,4.0,9.0,13.0,14.0,1.0,1.0,2.0,4.0
0011400008,1610612754,IND,Indiana,201579,Roy Hibbert,C,,15:35,101.8,90.1,11.7,0.222,2.0,20.5,0.067,0.182,0.135,10.2,0.4,0.592,0.219,102.69,0.162,2014-10-07T00:00:00,1,1610612754,IND,Indiana,1-0,30,16,36,21,0,0,0,0,0,0,0,0,0,0,103,0.482,0.85,0.25,19,46,13,0011400008,1610612754,IND,Indiana,Roy Hibbert,C,,15:35,0.0,0.0,0.0,2.0,4.0,9.0,13.0,14.0,1.0,1.0,2.0,4.0
0011400008,1610612754,IND,Indiana,201155,Rodney Stuckey,G,,15:22,87.0,87.0,0.1,0.125,0.33,8.4,0.0,0.176,0.094,25.3,0.571,0.571,0.341,96.96,0.099,2014-10-07T00:00:00,1,1610612750,MIN,Minnesota,0-1,20,22,20,28,0,0,0,0,0,0,0,0,0,0,90,0.372,0.667,0.308,20,50,11,0011400008,1610612754,IND,Indiana,Rodney Stuckey,G,,15:22,2.0,1.0,0.0,6.0,2.0,8.0,8.0,16.0,0.0,0.0,1.0,3.0
0011400008,1610612754,IND,Indiana,201155,Rodney Stuckey,G,,15:22,87.0,87.0,0.1,0.125,0.33,8.4,0.0,0.176,0.094,25.3,0.571,0.571,0.341,96.96,0.099,2014-10-07T00:00:00,1,1610612754,IND,Indiana,1-0,30,16,36,21,0,0,0,0,0,0,0,0,0,0,103,0.482,0.85,0.25,19,46,13,0011400008,1610612754,IND,Indiana,Rodney Stuckey,G,,15:22,2.0,1.0,0.0,6.0,2.0,8.0,8.0,16.0,0.0,0.0,1.0,3.0
0011400008,1610612754,IND,Indiana,201588,George Hill,G,,20:25,133.4,96.7,36.7,0.438,3.5,34.7,0.071,0.185,0.146,9.9,0.722,0.759,0.302,100.06,0.25,2014-10-07T00:00:00,1,1610612750,MIN,Minnesota,0-1,20,22,20,28,0,0,0,0,0,0,0,0,0,0,90,0.372,0.667,0.308,20,50,11,0011400008,1610612754,IND,Indiana,George Hill,G,,20:25,0.0,2.0,4.0,4.0,4.0,9.0,15.0,22.0,1.0,1.0,2.0,4.0
0011400008,1610612754,IND,Indiana,201588,George Hill,G,,20:25,133.4,96.7,36.7,0.438,3.5,34.7,0.071,0.185,0.146,9.9,0.722,0.759,0.302,100.06,0.25,2014-10-07T00:00:00,1,1610612754,IND,Indiana,1-0,30,16,36,21,0,0,0,0,0,0,0,0,0,0,103,0.482,0.85,0.25,19,46,13,0011400008,1610612754,IND,Indiana,George Hill,G,,20:25,0.0,2.0,4.0,4.0,4.0,9.0,15.0,22.0,1.0,1.0,2.0,4.0
0011400008,1610612754,IND,Indiana,203524,Solomon Hill,,,20:38,116.3,78.8,37.5,0.1,2.0,21.2,0.0,0.115,0.068,10.6,0.167,0.233,0.145,106.22,0.0,2014-10-07T00:00:00,1,1610612750,MIN,Minnesota,0-1,20,22,20,28,0,0,0,0,0,0,0,0,0,0,90,0.372,0.667,0.308,20,50,11,0011400008,1610612754,IND,Indiana,Solomon Hill,,,20:38,0.0,0.0,0.0,2.0,3.0,5.0,7.0,14.0,0.0,3.0,2.0,2.0
0011400008,1610612754,IND,Indiana,203524,Solomon Hill,,,20:38,116.3,78.8,37.5,0.1,2.0,21.2,0.0,0.115,0.068,10.6,0.167,0.233,0.145,106.22,0.0,2014-10-07T00:00:00,1,1610612754,IND,Indiana,1-0,30,16,36,21,0,0,0,0,0,0,0,0,0,0,103,0.482,0.85,0.25,19,46,13,0011400008,1610612754,IND,Indiana,Solomon Hill,,,20:38,0.0,0.0,0.0,2.0,3.0,5.0,7.0,14.0,0.0,3.0,2.0,2.0
0011400008,1610612754,IND,Indiana,202730,Lavoy Allen,,,18:09,108.7,88.7,20.0,0.0,0.0,0.0,0.0,0.368,0.206,0.0,0.556,0.53,0.232,98.8,0.216,2014-10-07T00:00:00,1,1610612750,MIN,Minnesota,0-1,20,22,20,28,0,0,0,0,0,0,0,0,0,0,90,0.372,0.667,0.308,20,50,11,0011400008,1610612754,IND,Indiana,Lavoy Allen,,,18:09,0.0,0.0,0.0,2.0,1.0,4.0,2.0,16.0,3.0,0.0,0.0,2.0
0011400008,1610612754,IND,Indiana,202730,Lavoy Allen,,,18:09,108.7,88.7,20.0,0.0,0.0,0.0,0.0,0.368,0.206,0.0,0.556,0.53,0.232,98.8,0.216,2014-10-07T00:00:00,1,1610612754,IND,Indiana,1-0,30,16,36,21,0,0,0,0,0,0,0,0,0,0,103,0.482,0.85,0.25,19,46,13,0011400008,1610612754,IND,Indiana,Lavoy Allen,,,18:09,0.0,0.0,0.0,2.0,1.0,4.0,2.0,16.0,3.0,0.0,0.0,2.0
0011400008,1610612754,IND,Indiana,204014,Damjan Rudez,,,20:52,100.8,83.0,17.8,0.0,0.0,0.0,0.05,0.0,0.023,0.0,0.5,0.5,0.168,97.3,0.039,2014-10-07T00:00:00,1,1610612750,MIN,Minnesota,0-1,20,22,20,28,0,0,0,0,0,0,0,0,0,0,90,0.372,0.667,0.308,20,50,11,0011400008,1610612754,IND,Indiana,Damjan Rudez,,,20:52,0.0,2.0,0.0,4.0,1.0,6.0,2.0,16.0,0.0,0.0,2.0,0.0
0011400008,1610612754,IND,Indiana,204014,Damjan Rudez,,,20:52,100.8,83.0,17.8,0.0,0.0,0.0,0.05,0.0,0.023,0.0,0.5,0.5,0.168,97.3,0.039,2014-10-07T00:00:00,1,1610612754,IND,Indiana,1-0,30,16,36,21,0,0,0,0,0,0,0,0,0,0,103,0.482,0.85,0.25,19,46,13,0011400008,1610612754,IND,Indiana,Damjan Rudez,,,20:52,0.0,2.0,0.0,4.0,1.0,6.0,2.0,16.0,0.0,0.0,2.0,0.0
0011400008,1610612754,IND,Indiana,202388,Donald Sloan,,,25:12,77.1,72.1,5.0,0.133,2.0,16.7,0.037,0.111,0.074,8.3,0.389,0.389,0.169,100.88,0.128,2014-10-07T00:00:00,1,1610612750,MIN,Minnesota,0-1,20,22,20,28,0,0,0,0,0,0,0,0,0,0,90,0.372,0.667,0.308,20,50,11,0011400008,1610612754,IND,Indiana,Donald Sloan,,,25:12,2.0,2.0,0.0,2.0,7.0,5.0,2.0,20.0,1.0,1.0,0.0,0.0
0011400008,1610612754,IND,Indiana,202388,Donald Sloan,,,25:12,77.1,72.1,5.0,0.133,2.0,16.7,0.037,0.111,0.074,8.3,0.389,0.389,0.169,100.88,0.128,2014-10-07T00:00:00,1,1610612754,IND,Indiana,1-0,30,16,36,21,0,0,0,0,0,0,0,0,0,0,103,0.482,0.85,0.25,19,46,13,0011400008,1610612754,IND,Indiana,Donald Sloan,,,25:12,2.0,2.0,0.0,2.0,7.0,5.0,2.0,20.0,1.0,1.0,0.0,0.0
0011400008,1610612754,IND,Indiana,2449,Luis Scola,,,12:00,64.6,87.7,-23.1,0.0,0.0,0.0,0.0,0.0,0.0,0.0,0.4,0.4,0.187,99.68,-0.019,2014-10-07T00:00:00,1,1610612750,MIN,Minnesota,0-1,20,22,20,28,0,0,0,0,0,0,0,0,0,0,90,0.372,0.667,0.308,20,50,11,0011400008,1610612754,IND,Indiana,Luis Scola,,,12:00,2.0,0.0,2.0,4.0,2.0,6.0,4.0,10.0,1.0,1.0,2.0,0.0
0011400008,1610612754,IND,Indiana,2449,Luis Scola,,,12:00,64.6,87.7,-23.1,0.0,0.0,0.0,0.0,0.0,0.0,0.0,0.4,0.4,0.187,99.68,-0.019,2014-10-07T00:00:00,1,1610612754,IND,Indiana,1-0,30,16,36,21,0,0,0,0,0,0,0,0,0,0,103,0.482,0.85,0.25,19,46,13,0011400008,1610612754,IND,Indiana,Luis Scola,,,12:00,2.0,0.0,2.0,4.0,2.0,6.0,4.0,10.0,1.0,1.0,2.0,0.0
0011400008,1610612754,IND,Indiana,203963,Shayne Whittington,,,20:41,120.2,100.1,20.1,0.056,1.0,13.4,0.0,0.053,0.029,13.4,1.0,1.011,0.137,101.0,0.129,2014-10-07T00:00:00,1,1610612750,MIN,Minnesota,0-1,20,22,20,28,0,0,0,0,0,0,0,0,0,0,90,0.372,0.667,0.308,20,50,11,0011400008,1610612754,IND,Indiana,Shayne Whittington,,,20:41,0.0,0.0,0.0,4.0,5.0,5.0,6.0,24.0,0.0,0.0,1.0,1.0
0011400008,1610612754,IND,Indiana,203963,Shayne Whittington,,,20:41,120.2,100.1,20.1,0.056,1.0,13.4,0.0,0.053,0.029,13.4,1.0,1.011,0.137,101.0,0.129,2014-10-07T00:00:00,1,1610612754,IND,Indiana,1-0,30,16,36,21,0,0,0,0,0,0,0,0,0,0,103,0.482,0.85,0.25,19,46,13,0011400008,1610612754,IND,Indiana,Shayne Whittington,,,20:41,0.0,0.0,0.0,4.0,5.0,5.0,6.0,24.0,0.0,0.0,1.0,1.0
0011400008,1610612754,IND,Indiana,202620,Arinze Onuaku,,,11:37,91.8,87.3,4.5,0.0,0.0,0.0,0.111,0.3,0.211,20.0,0.75,0.75,0.201,99.33,0.228,2014-10-07T00:00:00,1,1610612750,MIN,Minnesota,0-1,20,22,20,28,0,0,0,0,0,0,0,0,0,0,90,0.372,0.667,0.308,20,50,11,0011400008,1610612754,IND,Indiana,Arinze Onuaku,,,11:37,2.0,2.0,0.0,6.0,8.0,4.0,2.0,10.0,0.0,0.0,1.0,0.0
0011400008,1610612754,IND,Indiana,202620,Arinze Onuaku,,,11:37,91.8,87.3,4.5,0.0,0.0,0.0,0.111,0.3,0.211,20.0,0.75,0.75,0.201,99.33,0.228,2014-10-07T00:00:00,1,1610612754,IND,Indiana,1-0,30,16,36,21,0,0,0,0,0,0,0,0,0,0,103,0.482,0.85,0.25,19,46,13,0011400008,1610612754,IND,Indiana,Arinze Onuaku,,,11:37,2.0,2.0,0.0,6.0,8.0,4.0,2.0,10.0,0.0,0.0,1.0,0.0
0011400008,1610612754,IND,Indiana,203519,Adonis Thomas,,,14:16,97.3,89.7,7.5,0.0,0.0,0.0,0.0,0.077,0.04,0.0,0.25,0.25,0.13,99.19,0.024,2014-10-07T00:00:00,1,1610612750,MIN,Minnesota,0-1,20,22,20,28,0,0,0,0,0,0,0,0,0,0,90,0.372,0.667,0.308,20,50,11,0011400008,1610612754,IND,Indiana,Adonis Thomas,,,14:16,2.0,0.0,0.0,2.0,8.0,4.0,4.0,16.0,0.0,0.0,0.0,0.0
0011400008,1610612754,IND,Indiana,203519,Adonis Thomas,,,14:16,97.3,89.7,7.5,0.0,0.0,0.0,0.0,0.077,0.04,0.0,0.25,0.25,0.13,99.19,0.024,2014-10-07T00:00:00,1,1610612754,IND,Indiana,1-0,30,16,36,21,0,0,0,0,0,0,0,0,0,0,103,0.482,0.85,0.25,19,46,13,0011400008,1610612754,IND,Indiana,Adonis Thomas,,,14:16,2.0,0.0,0.0,2.0,8.0,4.0,4.0,16.0,0.0,0.0,0.0,0.0
0011400008,1610612754,IND,Indiana,203927,CJ Fair,,,8:21,101.6,120.1,-18.5,0.0,0.0,0.0,0.143,0.0,0.077,33.3,1.25,1.25,0.179,95.08,0.1,2014-10-07T00:00:00,1,1610612750,MIN,Minnesota,0-1,20,22,20,28,0,0,0,0,0,0,0,0,0,0,90,0.372,0.667,0.308,20,50,11,0011400008,1610612754,IND,Indiana,CJ Fair,,,8:21,0.0,0.0,0.0,0.0,6.0,4.0,4.0,12.0,1.0,0.0,2.0,0.0
0011400008,1610612754,IND,Indiana,203927,CJ Fair,,,8:21,101.6,120.1,-18.5,0.0,0.0,0.0,0.143,0.0,0.077,33.3,1.25,1.25,0.179,95.08,0.1,2014-10-07T00:00:00,1,1610612754,IND,Indiana,1-0,30,16,36,21,0,0,0,0,0,0,0,0,0,0,103,0.482,0.85,0.25,19,46,13,0011400008,1610612754,IND,Indiana,CJ Fair,,,8:21,0.0,0.0,0.0,0.0,6.0,4.0,4.0,12.0,1.0,0.0,2.0,0.0
0011400008,1610612754,IND,Indiana,202698,Chris Singleton,,,12:00,96.5,111.1,-14.6,0.125,0.5,14.8,0.0,0.273,0.15,29.6,0.0,0.532,0.242,93.92,0.052,2014-10-07T00:00:00,1,1610612750,MIN,Minnesota,0-1,20,22,20,28,0,0,0,0,0,0,0,0,0,0,90,0.372,0.667,0.308,20,50,11,0011400008,1610612754,IND,Indiana,Chris Singleton,,,12:00,2.0,0.0,2.0,0.0,8.0,4.0,4.0,16.0,0.0,0.0,3.0,2.0
0011400008,1610612754,IND,Indiana,202698,Chris Singleton,,,12:00,96.5,111.1,-14.6,0.125,0.5,14.8,0.0,0.273,0.15,29.6,0.0,0.532,0.242,93.92,0.052,2014-10-07T00:00:00,1,1610612754,IND,Indiana,1-0,30,16,36,21,0,0,0,0,0,0,0,0,0,0,103,0.482,0.85,0.25,19,46,13,0011400008,1610612754,IND,Indiana,Chris Singleton,,,12:00,2.0,0.0,2.0,0.0,8.0,4.0,4.0,16.0,0.0,0.0,3.0,2.0
0011400008,1610612754,IND,Indiana,203142,Chris Copeland,,DND - Sore Right Knee                   ,,,,,,,0.0,,,,,,,0.0,,,2014-10-07T00:00:00,1,1610612750,MIN,Minnesota,0-1,20,22,20,28,0,0,0,0,0,0,0,0,0,0,90,0.372,0.667,0.308,20,50,11,0011400008,1610612754,IND,Indiana,Chris Copeland,,DND - Sore Right Knee                   ,,,,,,,,,,,,,
0011400008,1610612754,IND,Indiana,203142,Chris Copeland,,DND - Sore Right Knee                   ,,,,,,,0.0,,,,,,,0.0,,,2014-10-07T00:00:00,1,1610612754,IND,Indiana,1-0,30,16,36,21,0,0,0,0,0,0,0,0,0,0,103,0.482,0.85,0.25,19,46,13,0011400008,1610612754,IND,Indiana,Chris Copeland,,DND - Sore Right Knee                   ,,,,,,,,,,,,,
0011400008,1610612754,IND,Indiana,202331,Paul George,,DND - Fractured Right Tibia/Fibula      ,,,,,,,0.0,,,,,,,0.0,,,2014-10-07T00:00:00,1,1610612750,MIN,Minnesota,0-1,20,22,20,28,0,0,0,0,0,0,0,0,0,0,90,0.372,0.667,0.308,20,50,11,0011400008,1610612754,IND,Indiana,Paul George,,DND - Fractured Right Tibia/Fibula      ,,,,,,,,,,,,,
0011400008,1610612754,IND,Indiana,202331,Paul George,,DND - Fractured Right Tibia/Fibula      ,,,,,,,0.0,,,,,,,0.0,,,2014-10-07T00:00:00,1,1610612754,IND,Indiana,1-0,30,16,36,21,0,0,0,0,0,0,0,0,0,0,103,0.482,0.85,0.25,19,46,13,0011400008,1610612754,IND,Indiana,Paul George,,DND - Fractured Right Tibia/Fibula      ,,,,,,,,,,,,,
0011400008,1610612754,IND,Indiana,101133,Ian Mahinmi,,DND - Sore Left Shoulder                ,,,,,,,0.0,,,,,,,0.0,,,2014-10-07T00:00:00,1,1610612750,MIN,Minnesota,0-1,20,22,20,28,0,0,0,0,0,0,0,0,0,0,90,0.372,0.667,0.308,20,50,11,0011400008,1610612754,IND,Indiana,Ian Mahinmi,,DND - Sore Left Shoulder                ,,,,,,,,,,,,,
0011400008,1610612754,IND,Indiana,101133,Ian Mahinmi,,DND - Sore Left Shoulder                ,,,,,,,0.0,,,,,,,0.0,,,2014-10-07T00:00:00,1,1610612754,IND,Indiana,1-0,30,16,36,21,0,0,0,0,0,0,0,0,0,0,103,0.482,0.85,0.25,19,46,13,0011400008,1610612754,IND,Indiana,Ian Mahinmi,,DND - Sore Left Shoulder                ,,,,,,,,,,,,,
0011400008,1610612754,IND,Indiana,201228,C.J. Watson,,DND - Sore Right Foot                   ,,,,,,,0.0,,,,,,,0.0,,,2014-10-07T00:00:00,1,1610612750,MIN,Minnesota,0-1,20,22,20,28,0,0,0,0,0,0,0,0,0,0,90,0.372,0.667,0.308,20,50,11,0011400008,1610612754,IND,Indiana,C.J. Watson,,DND - Sore Right Foot                   ,,,,,,,,,,,,,
0011400008,1610612754,IND,Indiana,201228,C.J. Watson,,DND - Sore Right Foot                   ,,,,,,,0.0,,,,,,,0.0,,,2014-10-07T00:00:00,1,1610612754,IND,Indiana,1-0,30,16,36,21,0,0,0,0,0,0,0,0,0,0,103,0.482,0.85,0.25,19,46,13,0011400008,1610612754,IND,Indiana,C.J. Watson,,DND - Sore Right Foot                   ,,,,,,,,,,,,,
