GAME_ID_x,TEAM_ID_x,TEAM_ABBREVIATION_x,TEAM_CITY_x,PLAYER_ID,PLAYER_NAME_x,START_POSITION_x,COMMENT_x,MIN_x,OFF_RATING,DEF_RATING,NET_RATING,AST_PCT,AST_TOV,AST_RATIO,OREB_PCT,DREB_PCT,REB_PCT,TM_TOV_PCT,EFG_PCT,TS_PCT,USG_PCT,PACE,PIE,GAME_DATE_EST,GAME_SEQUENCE,TEAM_ID_y,TEAM_ABBREVIATION_y,TEAM_CITY_NAME,TEAM_WINS_LOSSES,PTS_QTR1,PTS_QTR2,PTS_QTR3,PTS_QTR4,PTS_OT1,PTS_OT2,PTS_OT3,PTS_OT4,PTS_OT5,PTS_OT6,PTS_OT7,PTS_OT8,PTS_OT9,PTS_OT10,PTS,FG_PCT,FT_PCT,FG3_PCT,AST,REB,TOV,GAME_ID_y,TEAM_ID,TEAM_ABBREVIATION,TEAM_CITY_y,PLAYER_NAME_y,START_POSITION_y,COMMENT_y,MIN_y,PTS_OFF_TOV,PTS_2ND_CHANCE,PTS_FB,PTS_PAINT,OPP_PTS_OFF_TOV,OPP_PTS_2ND_CHANCE,OPP_PTS_FB,OPP_PTS_PAINT,BLK,BLKA,PF,PFD
0011400015,1610612744,GSW,Golden State,2738,Andre Iguodala,F,,18:22,95.7,98.7,-3.0,0.071,0.5,20.0,0.0,0.0,0.0,40.0,0.75,0.75,0.089,110.23,0.029,2014-10-07T00:00:00,8,1610612744,GSW,Golden State,1-0,24,32,28,28,0,0,0,0,0,0,0,0,0,0,112,0.486,0.766,0.316,25,44,23,0011400015,1610612744,GSW,Golden State,Andre Iguodala,F,,18:22,0.0,0.0,0.0,0.0,10.0,4.0,8.0,18.0,0.0,0.0,0.0,0.0
0011400015,1610612744,GSW,Golden State,2738,Andre Iguodala,F,,18:22,95.7,98.7,-3.0,0.071,0.5,20.0,0.0,0.0,0.0,40.0,0.75,0.75,0.089,110.23,0.029,2014-10-07T00:00:00,8,1610612746,LAC,Los Angeles,0-1,28,24,26,16,0,0,0,0,0,0,0,0,0,0,94,0.407,0.71,0.261,22,37,23,0011400015,1610612744,GSW,Golden State,Andre Iguodala,F,,18:22,0.0,0.0,0.0,0.0,10.0,4.0,8.0,18.0,0.0,0.0,0.0,0.0
0011400015,1610612744,GSW,Golden State,101135,David Lee,F,,21:50,85.5,92.3,-6.8,0.3,1.0,17.3,0.182,0.25,0.214,17.3,0.6,0.574,0.239,118.67,0.187,2014-10-07T00:00:00,8,1610612744,GSW,Golden State,1-0,24,32,28,28,0,0,0,0,0,0,0,0,0,0,112,0.486,0.766,0.316,25,44,23,0011400015,1610612744,GSW,Golden State,David Lee,F,,21:50,0.0,2.0,0.0,12.0,14.0,6.0,10.0,22.0,1.0,2.0,2.0,6.0
0011400015,1610612744,GSW,Golden State,101135,David Lee,F,,21:50,85.5,92.3,-6.8,0.3,1.0,17.3,0.182,0.25,0.214,17.3,0.6,0.574,0.239,118.67,0.187,2014-10-07T00:00:00,8,1610612746,LAC,Los Angeles,0-1,28,24,26,16,0,0,0,0,0,0,0,0,0,0,94,0.407,0.71,0.261,22,37,23,0011400015,1610612744,GSW,Golden State,David Lee,F,,21:50,0.0,2.0,0.0,12.0,14.0,6.0,10.0,22.0,1.0,2.0,2.0,6.0
0011400015,1610612744,GSW,Golden State,101106,Andrew Bogut,C,,16:56,95.0,88.9,6.1,0.222,0.0,28.6,0.0,0.438,0.219,0.0,1.0,1.0,0.114,117.13,0.375,2014-10-07T00:00:00,8,1610612744,GSW,Golden State,1-0,24,32,28,28,0,0,0,0,0,0,0,0,0,0,112,0.486,0.766,0.316,25,44,23,0011400015,1610612744,GSW,Golden State,Andrew Bogut,C,,16:56,4.0,0.0,0.0,8.0,8.0,4.0,4.0,12.0,0.0,0.0,2.0,1.0
0011400015,1610612744,GSW,Golden State,101106,Andrew Bogut,C,,16:56,95.0,88.9,6.1,0.222,0.0,28.6,0.0,0.438,0.219,0.0,1.0,1.0,0.114,117.13,0.375,2014-10-07T00:00:00,8,1610612746,LAC,Los Angeles,0-1,28,24,26,16,0,0,0,0,0,0,0,0,0,0,94,0.407,0.71,0.261,22,37,23,0011400015,1610612744,GSW,Golden State,Andrew Bogut,C,,16:56,4.0,0.0,0.0,8.0,8.0,4.0,4.0,12.0,0.0,0.0,2.0,1.0
0011400015,1610612744,GSW,Golden State,202691,Klay Thompson,G,,26:13,95.8,84.7,11.1,0.133,0.4,8.1,0.0,0.125,0.06,20.3,0.5,0.567,0.32,117.73,0.161,2014-10-07T00:00:00,8,1610612744,GSW,Golden State,1-0,24,32,28,28,0,0,0,0,0,0,0,0,0,0,112,0.486,0.766,0.316,25,44,23,0011400015,1610612744,GSW,Golden State,Klay Thompson,G,,26:13,3.0,1.0,3.0,2.0,14.0,6.0,10.0,22.0,0.0,1.0,2.0,6.0
0011400015,1610612744,GSW,Golden State,202691,Klay Thompson,G,,26:13,95.8,84.7,11.1,0.133,0.4,8.1,0.0,0.125,0.06,20.3,0.5,0.567,0.32,117.73,0.161,2014-10-07T00:00:00,8,1610612746,LAC,Los Angeles,0-1,28,24,26,16,0,0,0,0,0,0,0,0,0,0,94,0.407,0.71,0.261,22,37,23,0011400015,1610612744,GSW,Golden State,Klay Thompson,G,,26:13,3.0,1.0,3.0,2.0,14.0,6.0,10.0,22.0,0.0,1.0,2.0,6.0
0011400015,1610612744,GSW,Golden State,201939,Stephen Curry,G,,18:18,102.5,92.5,10.0,0.25,1.0,16.8,0.0,0.059,0.028,16.8,0.286,0.507,0.31,115.83,-0.015,2014-10-07T00:00:00,8,1610612744,GSW,Golden State,1-0,24,32,28,28,0,0,0,0,0,0,0,0,0,0,112,0.486,0.766,0.316,25,44,23,0011400015,1610612744,GSW,Golden State,Stephen Curry,G,,18:18,4.0,0.0,4.0,2.0,8.0,4.0,8.0,18.0,0.0,0.0,6.0,5.0
0011400015,1610612744,GSW,Golden State,201939,Stephen Curry,G,,18:18,102.5,92.5,10.0,0.25,1.0,16.8,0.0,0.059,0.028,16.8,0.286,0.507,0.31,115.83,-0.015,2014-10-07T00:00:00,8,1610612746,LAC,Los Angeles,0-1,28,24,26,16,0,0,0,0,0,0,0,0,0,0,94,0.407,0.71,0.261,22,37,23,0011400015,1610612744,GSW,Golden State,Stephen Curry,G,,18:18,4.0,0.0,4.0,2.0,8.0,4.0,8.0,18.0,0.0,0.0,6.0,5.0
0011400015,1610612744,GSW,Golden State,203084,Harrison Barnes,,,29:13,115.7,83.1,32.6,0.059,1.0,7.6,0.048,0.107,0.082,7.6,0.313,0.451,0.179,102.12,0.034,2014-10-07T00:00:00,8,1610612744,GSW,Golden State,1-0,24,32,28,28,0,0,0,0,0,0,0,0,0,0,112,0.486,0.766,0.316,25,44,23,0011400015,1610612744,GSW,Golden State,Harrison Barnes,,,29:13,0.0,2.0,0.0,2.0,6.0,7.0,6.0,14.0,0.0,0.0,3.0,5.0
0011400015,1610612744,GSW,Golden State,203084,Harrison Barnes,,,29:13,115.7,83.1,32.6,0.059,1.0,7.6,0.048,0.107,0.082,7.6,0.313,0.451,0.179,102.12,0.034,2014-10-07T00:00:00,8,1610612746,LAC,Los Angeles,0-1,28,24,26,16,0,0,0,0,0,0,0,0,0,0,94,0.407,0.71,0.261,22,37,23,0011400015,1610612744,GSW,Golden State,Harrison Barnes,,,29:13,0.0,2.0,0.0,2.0,6.0,7.0,6.0,14.0,0.0,0.0,3.0,5.0
0011400015,1610612744,GSW,Golden State,203110,Draymond Green,,,26:10,124.8,79.3,45.5,0.2,1.5,21.6,0.067,0.292,0.205,14.4,0.625,0.676,0.195,99.39,0.239,2014-10-07T00:00:00,8,1610612744,GSW,Golden State,1-0,24,32,28,28,0,0,0,0,0,0,0,0,0,0,112,0.486,0.766,0.316,25,44,23,0011400015,1610612744,GSW,Golden State,Draymond Green,,,26:10,0.0,0.0,2.0,0.0,4.0,5.0,4.0,12.0,2.0,0.0,2.0,2.0
0011400015,1610612744,GSW,Golden State,203110,Draymond Green,,,26:10,124.8,79.3,45.5,0.2,1.5,21.6,0.067,0.292,0.205,14.4,0.625,0.676,0.195,99.39,0.239,2014-10-07T00:00:00,8,1610612746,LAC,Los Angeles,0-1,28,24,26,16,0,0,0,0,0,0,0,0,0,0,94,0.407,0.71,0.261,22,37,23,0011400015,1610612744,GSW,Golden State,Draymond Green,,,26:10,0.0,0.0,2.0,0.0,4.0,5.0,4.0,12.0,2.0,0.0,2.0,2.0
0011400015,1610612744,GSW,Golden State,2571,Leandro Barbosa,,,18:18,104.5,90.9,13.6,0.182,1.0,20.0,0.0,0.0,0.0,20.0,0.667,0.667,0.185,107.34,0.052,2014-10-07T00:00:00,8,1610612744,GSW,Golden State,1-0,24,32,28,28,0,0,0,0,0,0,0,0,0,0,112,0.486,0.766,0.316,25,44,23,0011400015,1610612744,GSW,Golden State,Leandro Barbosa,,,18:18,4.0,2.0,2.0,4.0,10.0,7.0,4.0,14.0,0.0,0.0,3.0,1.0
0011400015,1610612744,GSW,Golden State,2571,Leandro Barbosa,,,18:18,104.5,90.9,13.6,0.182,1.0,20.0,0.0,0.0,0.0,20.0,0.667,0.667,0.185,107.34,0.052,2014-10-07T00:00:00,8,1610612746,LAC,Los Angeles,0-1,28,24,26,16,0,0,0,0,0,0,0,0,0,0,94,0.407,0.71,0.261,22,37,23,0011400015,1610612744,GSW,Golden State,Leandro Barbosa,,,18:18,4.0,2.0,2.0,4.0,10.0,7.0,4.0,14.0,0.0,0.0,3.0,1.0
0011400015,1610612744,GSW,Golden State,203136,Ognjen Kuzmic,,,16:45,104.6,85.4,19.2,0.231,0.0,44.4,0.067,0.357,0.207,0.0,0.0,0.399,0.091,108.78,0.142,2014-10-07T00:00:00,8,1610612744,GSW,Golden State,1-0,24,32,28,28,0,0,0,0,0,0,0,0,0,0,112,0.486,0.766,0.316,25,44,23,0011400015,1610612744,GSW,Golden State,Ognjen Kuzmic,,,16:45,0.0,1.0,0.0,0.0,8.0,4.0,6.0,16.0,0.0,0.0,1.0,2.0
0011400015,1610612744,GSW,Golden State,203136,Ognjen Kuzmic,,,16:45,104.6,85.4,19.2,0.231,0.0,44.4,0.067,0.357,0.207,0.0,0.0,0.399,0.091,108.78,0.142,2014-10-07T00:00:00,8,1610612746,LAC,Los Angeles,0-1,28,24,26,16,0,0,0,0,0,0,0,0,0,0,94,0.407,0.71,0.261,22,37,23,0011400015,1610612744,GSW,Golden State,Ognjen Kuzmic,,,16:45,0.0,1.0,0.0,0.0,8.0,4.0,6.0,16.0,0.0,0.0,1.0,2.0
0011400015,1610612744,GSW,Golden State,201575,Brandon Rush,,,5:51,92.3,88.8,3.5,0.2,1.0,25.8,0.0,0.167,0.091,25.8,0.0,0.532,0.205,117.83,0.121,2014-10-07T00:00:00,8,1610612744,GSW,Golden State,1-0,24,32,28,28,0,0,0,0,0,0,0,0,0,0,112,0.486,0.766,0.316,25,44,23,0011400015,1610612744,GSW,Golden State,Brandon Rush,,,5:51,0.0,0.0,0.0,0.0,4.0,2.0,0.0,6.0,0.0,0.0,0.0,1.0
0011400015,1610612744,GSW,Golden State,201575,Brandon Rush,,,5:51,92.3,88.8,3.5,0.2,1.0,25.8,0.0,0.167,0.091,25.8,0.0,0.532,0.205,117.83,0.121,2014-10-07T00:00:00,8,1610612746,LAC,Los Angeles,0-1,28,24,26,16,0,0,0,0,0,0,0,0,0,0,94,0.407,0.71,0.261,22,37,23,0011400015,1610612744,GSW,Golden State,Brandon Rush,,,5:51,0.0,0.0,0.0,0.0,4.0,2.0,0.0,6.0,0.0,0.0,0.0,1.0
0011400015,1610612744,GSW,Golden State,203517,Nemanja Nedovic,,,15:00,115.8,76.4,39.4,0.6,3.0,23.7,0.0,0.0,0.0,7.9,0.583,0.694,0.307,97.22,0.365,2014-10-07T00:00:00,8,1610612744,GSW,Golden State,1-0,24,32,28,28,0,0,0,0,0,0,0,0,0,0,112,0.486,0.766,0.316,25,44,23,0011400015,1610612744,GSW,Golden State,Nemanja Nedovic,,,15:00,3.0,0.0,0.0,4.0,2.0,3.0,4.0,6.0,1.0,0.0,2.0,4.0
0011400015,1610612744,GSW,Golden State,203517,Nemanja Nedovic,,,15:00,115.8,76.4,39.4,0.6,3.0,23.7,0.0,0.0,0.0,7.9,0.583,0.694,0.307,97.22,0.365,2014-10-07T00:00:00,8,1610612746,LAC,Los Angeles,0-1,28,24,26,16,0,0,0,0,0,0,0,0,0,0,94,0.407,0.71,0.261,22,37,23,0011400015,1610612744,GSW,Golden State,Nemanja Nedovic,,,15:00,3.0,0.0,0.0,4.0,2.0,3.0,4.0,6.0,1.0,0.0,2.0,4.0
0011400015,1610612744,GSW,Golden State,201578,Marreese Speights,,,4:39,103.7,126.1,-22.3,0.0,0.0,0.0,0.0,0.25,0.167,0.0,0.0,0.0,0.0,98.89,-0.111,2014-10-07T00:00:00,8,1610612744,GSW,Golden State,1-0,24,32,28,28,0,0,0,0,0,0,0,0,0,0,112,0.486,0.766,0.316,25,44,23,0011400015,1610612744,GSW,Golden State,Marreese Speights,,,4:39,0.0,0.0,0.0,0.0,2.0,3.0,4.0,2.0,0.0,0.0,2.0,0.0
0011400015,1610612744,GSW,Golden State,201578,Marreese Speights,,,4:39,103.7,126.1,-22.3,0.0,0.0,0.0,0.0,0.25,0.167,0.0,0.0,0.0,0.0,98.89,-0.111,2014-10-07T00:00:00,8,1610612746,LAC,Los Angeles,0-1,28,24,26,16,0,0,0,0,0,0,0,0,0,0,94,0.407,0.71,0.261,22,37,23,0011400015,1610612744,GSW,Golden State,Marreese Speights,,,4:39,0.0,0.0,0.0,0.0,2.0,3.0,4.0,2.0,0.0,0.0,2.0,0.0
0011400015,1610612744,GSW,Golden State,203200,Justin Holiday,,,12:45,117.7,64.1,53.6,0.0,0.0,0.0,0.0,0.0,0.0,25.8,0.5,0.694,0.141,97.93,0.081,2014-10-07T00:00:00,8,1610612744,GSW,Golden State,1-0,24,32,28,28,0,0,0,0,0,0,0,0,0,0,112,0.486,0.766,0.316,25,44,23,0011400015,1610612744,GSW,Golden State,Justin Holiday,,,12:45,0.0,0.0,0.0,0.0,0.0,0.0,2.0,4.0,1.0,0.0,1.0,2.0
0011400015,1610612744,GSW,Golden State,203200,Justin Holiday,,,12:45,117.7,64.1,53.6,0.0,0.0,0.0,0.0,0.0,0.0,25.8,0.5,0.694,0.141,97.93,0.081,2014-10-07T00:00:00,8,1610612746,LAC,Los Angeles,0-1,28,24,26,16,0,0,0,0,0,0,0,0,0,0,94,0.407,0.71,0.261,22,37,23,0011400015,1610612744,GSW,Golden State,Justin Holiday,,,12:45,0.0,0.0,0.0,0.0,0.0,0.0,2.0,4.0,1.0,0.0,1.0,2.0
0011400015,1610612744,GSW,Golden State,203949,James Michael McAdoo,,,9:40,128.2,60.4,67.8,0.167,0.5,21.0,0.5,0.2,0.286,42.0,0.0,0.852,0.181,95.83,0.211,2014-10-07T00:00:00,8,1610612744,GSW,Golden State,1-0,24,32,28,28,0,0,0,0,0,0,0,0,0,0,112,0.486,0.766,0.316,25,44,23,0011400015,1610612744,GSW,Golden State,James Michael McAdoo,,,9:40,2.0,0.0,1.0,0.0,0.0,0.0,0.0,4.0,0.0,0.0,3.0,2.0
0011400015,1610612744,GSW,Golden State,203949,James Michael McAdoo,,,9:40,128.2,60.4,67.8,0.167,0.5,21.0,0.5,0.2,0.286,42.0,0.0,0.852,0.181,95.83,0.211,2014-10-07T00:00:00,8,1610612746,LAC,Los Angeles,0-1,28,24,26,16,0,0,0,0,0,0,0,0,0,0,94,0.407,0.71,0.261,22,37,23,0011400015,1610612744,GSW,Golden State,James Michael McAdoo,,,9:40,2.0,0.0,1.0,0.0,0.0,0.0,0.0,4.0,0.0,0.0,3.0,2.0
0011400015,1610612744,GSW,Golden State,203905,Aaron Craft,,DNP - Coach's Decision                  ,,,,,,,0.0,,,,,,,0.0,,,2014-10-07T00:00:00,8,1610612744,GSW,Golden State,1-0,24,32,28,28,0,0,0,0,0,0,0,0,0,0,112,0.486,0.766,0.316,25,44,23,0011400015,1610612744,GSW,Golden State,Aaron Craft,,DNP - Coach's Decision                  ,,,,,,,,,,,,,
0011400015,1610612744,GSW,Golden State,203905,Aaron Craft,,DNP - Coach's Decision                  ,,,,,,,0.0,,,,,,,0.0,,,2014-10-07T00:00:00,8,1610612746,LAC,Los Angeles,0-1,28,24,26,16,0,0,0,0,0,0,0,0,0,0,94,0.407,0.71,0.261,22,37,23,0011400015,1610612744,GSW,Golden State,Aaron Craft,,DNP - Coach's Decision                  ,,,,,,,,,,,,,
0011400015,1610612744,GSW,Golden State,203105,Festus Ezeli,,DND - Right shin inflammation/discomfort,,,,,,,0.0,,,,,,,0.0,,,2014-10-07T00:00:00,8,1610612744,GSW,Golden State,1-0,24,32,28,28,0,0,0,0,0,0,0,0,0,0,112,0.486,0.766,0.316,25,44,23,0011400015,1610612744,GSW,Golden State,Festus Ezeli,,DND - Right shin inflammation/discomfort,,,,,,,,,,,,,
0011400015,1610612744,GSW,Golden State,203105,Festus Ezeli,,DND - Right shin inflammation/discomfort,,,,,,,0.0,,,,,,,0.0,,,2014-10-07T00:00:00,8,1610612746,LAC,Los Angeles,0-1,28,24,26,16,0,0,0,0,0,0,0,0,0,0,94,0.407,0.71,0.261,22,37,23,0011400015,1610612744,GSW,Golden State,Festus Ezeli,,DND - Right shin inflammation/discomfort,,,,,,,,,,,,,
0011400015,1610612744,GSW,Golden State,2574,Jason Kapono,,DNP - Coach's Decision                  ,,,,,,,0.0,,,,,,,0.0,,,2014-10-07T00:00:00,8,1610612744,GSW,Golden State,1-0,24,32,28,28,0,0,0,0,0,0,0,0,0,0,112,0.486,0.766,0.316,25,44,23,0011400015,1610612744,GSW,Golden State,Jason Kapono,,DNP - Coach's Decision                  ,,,,,,,,,,,,,
0011400015,1610612744,GSW,Golden State,2574,Jason Kapono,,DNP - Coach's Decision                  ,,,,,,,0.0,,,,,,,0.0,,,2014-10-07T00:00:00,8,1610612746,LAC,Los Angeles,0-1,28,24,26,16,0,0,0,0,0,0,0,0,0,0,94,0.407,0.71,0.261,22,37,23,0011400015,1610612744,GSW,Golden State,Jason Kapono,,DNP - Coach's Decision                  ,,,,,,,,,,,,,
0011400015,1610612744,GSW,Golden State,2733,Shaun Livingston,,NWT - Recovery from right toe surgery.  ,,,,,,,0.0,,,,,,,0.0,,,2014-10-07T00:00:00,8,1610612744,GSW,Golden State,1-0,24,32,28,28,0,0,0,0,0,0,0,0,0,0,112,0.486,0.766,0.316,25,44,23,0011400015,1610612744,GSW,Golden State,Shaun Livingston,,NWT - Recovery from right toe surgery.  ,,,,,,,,,,,,,
0011400015,1610612744,GSW,Golden State,2733,Shaun Livingston,,NWT - Recovery from right toe surgery.  ,,,,,,,0.0,,,,,,,0.0,,,2014-10-07T00:00:00,8,1610612746,LAC,Los Angeles,0-1,28,24,26,16,0,0,0,0,0,0,0,0,0,0,94,0.407,0.71,0.261,22,37,23,0011400015,1610612744,GSW,Golden State,Shaun Livingston,,NWT - Recovery from right toe surgery.  ,,,,,,,,,,,,,
0011400015,1610612744,GSW,Golden State,204030,Mitchell Watt,,DNP - Coach's Decision                  ,,,,,,,0.0,,,,,,,0.0,,,2014-10-07T00:00:00,8,1610612744,GSW,Golden State,1-0,24,32,28,28,0,0,0,0,0,0,0,0,0,0,112,0.486,0.766,0.316,25,44,23,0011400015,1610612744,GSW,Golden State,Mitchell Watt,,DNP - Coach's Decision                  ,,,,,,,,,,,,,
0011400015,1610612744,GSW,Golden State,204030,Mitchell Watt,,DNP - Coach's Decision                  ,,,,,,,0.0,,,,,,,0.0,,,2014-10-07T00:00:00,8,1610612746,LAC,Los Angeles,0-1,28,24,26,16,0,0,0,0,0,0,0,0,0,0,94,0.407,0.71,0.261,22,37,23,0011400015,1610612744,GSW,Golden State,Mitchell Watt,,DNP - Coach's Decision                  ,,,,,,,,,,,,,
0011400015,1610612746,LAC,Los Angeles,2440,Matt Barnes,F,,20:54,88.5,96.5,-8.1,0.0,0.0,0.0,0.0,0.1,0.049,15.8,0.25,0.376,0.116,110.4,-0.063,2014-10-07T00:00:00,8,1610612744,GSW,Golden State,1-0,24,32,28,28,0,0,0,0,0,0,0,0,0,0,112,0.486,0.766,0.316,25,44,23,0011400015,1610612746,LAC,Los Angeles,Matt Barnes,F,,20:54,0.0,2.0,2.0,2.0,13.0,5.0,1.0,18.0,0.0,0.0,5.0,3.0
0011400015,1610612746,LAC,Los Angeles,2440,Matt Barnes,F,,20:54,88.5,96.5,-8.1,0.0,0.0,0.0,0.0,0.1,0.049,15.8,0.25,0.376,0.116,110.4,-0.063,2014-10-07T00:00:00,8,1610612746,LAC,Los Angeles,0-1,28,24,26,16,0,0,0,0,0,0,0,0,0,0,94,0.407,0.71,0.261,22,37,23,0011400015,1610612746,LAC,Los Angeles,Matt Barnes,F,,20:54,0.0,2.0,2.0,2.0,13.0,5.0,1.0,18.0,0.0,0.0,5.0,3.0
0011400015,1610612746,LAC,Los Angeles,201933,Blake Griffin,F,,26:01,95.5,96.0,-0.6,0.25,0.75,11.3,0.043,0.423,0.245,15.0,0.559,0.611,0.365,113.69,0.297,2014-10-07T00:00:00,8,1610612744,GSW,Golden State,1-0,24,32,28,28,0,0,0,0,0,0,0,0,0,0,112,0.486,0.766,0.316,25,44,23,0011400015,1610612746,LAC,Los Angeles,Blake Griffin,F,,26:01,6.0,0.0,4.0,6.0,6.0,4.0,8.0,22.0,0.0,0.0,4.0,4.0
0011400015,1610612746,LAC,Los Angeles,201933,Blake Griffin,F,,26:01,95.5,96.0,-0.6,0.25,0.75,11.3,0.043,0.423,0.245,15.0,0.559,0.611,0.365,113.69,0.297,2014-10-07T00:00:00,8,1610612746,LAC,Los Angeles,0-1,28,24,26,16,0,0,0,0,0,0,0,0,0,0,94,0.407,0.71,0.261,22,37,23,0011400015,1610612746,LAC,Los Angeles,Blake Griffin,F,,26:01,6.0,0.0,4.0,6.0,6.0,4.0,8.0,22.0,0.0,0.0,4.0,4.0
0011400015,1610612746,LAC,Los Angeles,201599,DeAndre Jordan,C,,24:06,84.3,90.5,-6.2,0.0,0.0,0.0,0.087,0.154,0.122,56.3,1.0,0.773,0.145,117.33,0.022,2014-10-07T00:00:00,8,1610612744,GSW,Golden State,1-0,24,32,28,28,0,0,0,0,0,0,0,0,0,0,112,0.486,0.766,0.316,25,44,23,0011400015,1610612746,LAC,Los Angeles,DeAndre Jordan,C,,24:06,0.0,2.0,0.0,6.0,11.0,6.0,4.0,20.0,3.0,0.0,5.0,2.0
0011400015,1610612746,LAC,Los Angeles,201599,DeAndre Jordan,C,,24:06,84.3,90.5,-6.2,0.0,0.0,0.0,0.087,0.154,0.122,56.3,1.0,0.773,0.145,117.33,0.022,2014-10-07T00:00:00,8,1610612746,LAC,Los Angeles,0-1,28,24,26,16,0,0,0,0,0,0,0,0,0,0,94,0.407,0.71,0.261,22,37,23,0011400015,1610612746,LAC,Los Angeles,DeAndre Jordan,C,,24:06,0.0,2.0,0.0,6.0,11.0,6.0,4.0,20.0,3.0,0.0,5.0,2.0
0011400015,1610612746,LAC,Los Angeles,200755,JJ Redick,G,,22:57,92.9,93.1,-0.1,0.059,0.0,8.3,0.0,0.0,0.0,0.0,0.318,0.318,0.186,116.94,0.013,2014-10-07T00:00:00,8,1610612744,GSW,Golden State,1-0,24,32,28,28,0,0,0,0,0,0,0,0,0,0,112,0.486,0.766,0.316,25,44,23,0011400015,1610612746,LAC,Los Angeles,JJ Redick,G,,22:57,2.0,2.0,2.0,4.0,6.0,4.0,7.0,20.0,0.0,1.0,1.0,0.0
0011400015,1610612746,LAC,Los Angeles,200755,JJ Redick,G,,22:57,92.9,93.1,-0.1,0.059,0.0,8.3,0.0,0.0,0.0,0.0,0.318,0.318,0.186,116.94,0.013,2014-10-07T00:00:00,8,1610612746,LAC,Los Angeles,0-1,28,24,26,16,0,0,0,0,0,0,0,0,0,0,94,0.407,0.71,0.261,22,37,23,0011400015,1610612746,LAC,Los Angeles,JJ Redick,G,,22:57,2.0,2.0,2.0,4.0,6.0,4.0,7.0,20.0,0.0,1.0,1.0,0.0
0011400015,1610612746,LAC,Los Angeles,101108,Chris Paul,G,,24:53,88.3,97.2,-9.0,0.6,9.0,40.5,0.0,0.08,0.041,4.5,0.5,0.574,0.209,116.42,0.218,2014-10-07T00:00:00,8,1610612744,GSW,Golden State,1-0,24,32,28,28,0,0,0,0,0,0,0,0,0,0,112,0.486,0.766,0.316,25,44,23,0011400015,1610612746,LAC,Los Angeles,Chris Paul,G,,24:53,4.0,0.0,2.0,6.0,9.0,6.0,7.0,22.0,0.0,0.0,3.0,8.0
0011400015,1610612746,LAC,Los Angeles,101108,Chris Paul,G,,24:53,88.3,97.2,-9.0,0.6,9.0,40.5,0.0,0.08,0.041,4.5,0.5,0.574,0.209,116.42,0.218,2014-10-07T00:00:00,8,1610612746,LAC,Los Angeles,0-1,28,24,26,16,0,0,0,0,0,0,0,0,0,0,94,0.407,0.71,0.261,22,37,23,0011400015,1610612746,LAC,Los Angeles,Chris Paul,G,,24:53,4.0,0.0,2.0,6.0,9.0,6.0,7.0,22.0,0.0,0.0,3.0,8.0
0011400015,1610612746,LAC,Los Angeles,2037,Jamal Crawford,,,24:04,99.0,130.6,-31.6,0.182,2.0,14.4,0.0,0.0,0.0,7.2,0.6,0.643,0.214,98.21,0.071,2014-10-07T00:00:00,8,1610612744,GSW,Golden State,1-0,24,32,28,28,0,0,0,0,0,0,0,0,0,0,112,0.486,0.766,0.316,25,44,23,0011400015,1610612746,LAC,Los Angeles,Jamal Crawford,,,24:04,2.0,2.0,0.0,0.0,14.0,2.0,8.0,18.0,0.0,0.0,5.0,1.0
0011400015,1610612746,LAC,Los Angeles,2037,Jamal Crawford,,,24:04,99.0,130.6,-31.6,0.182,2.0,14.4,0.0,0.0,0.0,7.2,0.6,0.643,0.214,98.21,0.071,2014-10-07T00:00:00,8,1610612746,LAC,Los Angeles,0-1,28,24,26,16,0,0,0,0,0,0,0,0,0,0,94,0.407,0.71,0.261,22,37,23,0011400015,1610612746,LAC,Los Angeles,Jamal Crawford,,,24:04,2.0,2.0,0.0,0.0,14.0,2.0,8.0,18.0,0.0,0.0,5.0,1.0
0011400015,1610612746,LAC,Los Angeles,201150,Spencer Hawes,,,24:07,93.1,130.3,-37.2,0.083,0.2,7.8,0.095,0.462,0.235,39.2,0.6,0.666,0.208,99.13,0.074,2014-10-07T00:00:00,8,1610612744,GSW,Golden State,1-0,24,32,28,28,0,0,0,0,0,0,0,0,0,0,112,0.486,0.766,0.316,25,44,23,0011400015,1610612746,LAC,Los Angeles,Spencer Hawes,,,24:07,0.0,0.0,0.0,6.0,14.0,2.0,8.0,18.0,0.0,1.0,3.0,3.0
0011400015,1610612746,LAC,Los Angeles,201150,Spencer Hawes,,,24:07,93.1,130.3,-37.2,0.083,0.2,7.8,0.095,0.462,0.235,39.2,0.6,0.666,0.208,99.13,0.074,2014-10-07T00:00:00,8,1610612746,LAC,Los Angeles,0-1,28,24,26,16,0,0,0,0,0,0,0,0,0,0,94,0.407,0.71,0.261,22,37,23,0011400015,1610612746,LAC,Los Angeles,Spencer Hawes,,,24:07,0.0,0.0,0.0,6.0,14.0,2.0,8.0,18.0,0.0,1.0,3.0,3.0
0011400015,1610612746,LAC,Los Angeles,203493,Reggie Bullock,,,7:20,98.8,108.7,-9.9,0.167,0.0,100.0,0.0,0.5,0.2,0.0,0.0,0.0,0.0,104.16,0.082,2014-10-07T00:00:00,8,1610612744,GSW,Golden State,1-0,24,32,28,28,0,0,0,0,0,0,0,0,0,0,112,0.486,0.766,0.316,25,44,23,0011400015,1610612746,LAC,Los Angeles,Reggie Bullock,,,7:20,0.0,0.0,0.0,0.0,2.0,0.0,4.0,2.0,0.0,0.0,1.0,0.0
0011400015,1610612746,LAC,Los Angeles,203493,Reggie Bullock,,,7:20,98.8,108.7,-9.9,0.167,0.0,100.0,0.0,0.5,0.2,0.0,0.0,0.0,0.0,104.16,0.082,2014-10-07T00:00:00,8,1610612746,LAC,Los Angeles,0-1,28,24,26,16,0,0,0,0,0,0,0,0,0,0,94,0.407,0.71,0.261,22,37,23,0011400015,1610612746,LAC,Los Angeles,Reggie Bullock,,,7:20,0.0,0.0,0.0,0.0,2.0,0.0,4.0,2.0,0.0,0.0,1.0,0.0
0011400015,1610612746,LAC,Los Angeles,200770,Jordan Farmar,,,20:28,96.0,119.2,-23.2,0.182,2.0,16.8,0.059,0.0,0.036,8.4,0.375,0.45,0.203,98.33,0.043,2014-10-07T00:00:00,8,1610612744,GSW,Golden State,1-0,24,32,28,28,0,0,0,0,0,0,0,0,0,0,112,0.486,0.766,0.316,25,44,23,0011400015,1610612746,LAC,Los Angeles,Jordan Farmar,,,20:28,2.0,3.0,2.0,0.0,11.0,0.0,5.0,12.0,0.0,1.0,1.0,2.0
0011400015,1610612746,LAC,Los Angeles,200770,Jordan Farmar,,,20:28,96.0,119.2,-23.2,0.182,2.0,16.8,0.059,0.0,0.036,8.4,0.375,0.45,0.203,98.33,0.043,2014-10-07T00:00:00,8,1610612746,LAC,Los Angeles,0-1,28,24,26,16,0,0,0,0,0,0,0,0,0,0,94,0.407,0.71,0.261,22,37,23,0011400015,1610612746,LAC,Los Angeles,Jordan Farmar,,,20:28,2.0,3.0,2.0,0.0,11.0,0.0,5.0,12.0,0.0,1.0,1.0,2.0
0011400015,1610612746,LAC,Los Angeles,201175,Glen Davis,,,15:19,102.6,125.5,-22.9,0.1,0.5,8.8,0.154,0.0,0.1,17.7,0.286,0.361,0.285,95.12,-0.053,2014-10-07T00:00:00,8,1610612744,GSW,Golden State,1-0,24,32,28,28,0,0,0,0,0,0,0,0,0,0,112,0.486,0.766,0.316,25,44,23,0011400015,1610612746,LAC,Los Angeles,Glen Davis,,,15:19,0.0,0.0,0.0,4.0,9.0,0.0,4.0,8.0,0.0,1.0,3.0,3.0
0011400015,1610612746,LAC,Los Angeles,201175,Glen Davis,,,15:19,102.6,125.5,-22.9,0.1,0.5,8.8,0.154,0.0,0.1,17.7,0.286,0.361,0.285,95.12,-0.053,2014-10-07T00:00:00,8,1610612746,LAC,Los Angeles,0-1,28,24,26,16,0,0,0,0,0,0,0,0,0,0,94,0.407,0.71,0.261,22,37,23,0011400015,1610612746,LAC,Los Angeles,Glen Davis,,,15:19,0.0,0.0,0.0,4.0,9.0,0.0,4.0,8.0,0.0,1.0,3.0,3.0
0011400015,1610612746,LAC,Los Angeles,201604,Chris Douglas-Roberts,,,17:26,70.6,98.8,-28.2,0.182,2.0,29.1,0.0,0.083,0.037,14.5,0.0,0.258,0.116,110.93,-0.023,2014-10-07T00:00:00,8,1610612744,GSW,Golden State,1-0,24,32,28,28,0,0,0,0,0,0,0,0,0,0,112,0.486,0.766,0.316,25,44,23,0011400015,1610612746,LAC,Los Angeles,Chris Douglas-Roberts,,,17:26,2.0,0.0,2.0,0.0,5.0,3.0,4.0,10.0,0.0,0.0,3.0,1.0
0011400015,1610612746,LAC,Los Angeles,201604,Chris Douglas-Roberts,,,17:26,70.6,98.8,-28.2,0.182,2.0,29.1,0.0,0.083,0.037,14.5,0.0,0.258,0.116,110.93,-0.023,2014-10-07T00:00:00,8,1610612746,LAC,Los Angeles,0-1,28,24,26,16,0,0,0,0,0,0,0,0,0,0,94,0.407,0.71,0.261,22,37,23,0011400015,1610612746,LAC,Los Angeles,Chris Douglas-Roberts,,,17:26,2.0,0.0,2.0,0.0,5.0,3.0,4.0,10.0,0.0,0.0,3.0,1.0
0011400015,1610612746,LAC,Los Angeles,203099,Jared Cunningham,,,2:42,0.0,68.0,-68.0,0.0,0.0,0.0,0.0,0.0,0.0,53.2,0.0,0.0,0.239,122.46,0.167,2014-10-07T00:00:00,8,1610612744,GSW,Golden State,1-0,24,32,28,28,0,0,0,0,0,0,0,0,0,0,112,0.486,0.766,0.316,25,44,23,0011400015,1610612746,LAC,Los Angeles,Jared Cunningham,,,2:42,0.0,0.0,0.0,0.0,0.0,2.0,0.0,0.0,0.0,0.0,0.0,2.0
0011400015,1610612746,LAC,Los Angeles,203099,Jared Cunningham,,,2:42,0.0,68.0,-68.0,0.0,0.0,0.0,0.0,0.0,0.0,53.2,0.0,0.0,0.239,122.46,0.167,2014-10-07T00:00:00,8,1610612746,LAC,Los Angeles,0-1,28,24,26,16,0,0,0,0,0,0,0,0,0,0,94,0.407,0.71,0.261,22,37,23,0011400015,1610612746,LAC,Los Angeles,Jared Cunningham,,,2:42,0.0,0.0,0.0,0.0,0.0,2.0,0.0,0.0,0.0,0.0,0.0,2.0
0011400015,1610612746,LAC,Los Angeles,203912,CJ Wilcox,,,3:32,0.0,88.8,-88.8,0.0,0.0,0.0,0.0,0.0,0.0,0.0,0.0,0.0,0.202,106.23,0.545,2014-10-07T00:00:00,8,1610612744,GSW,Golden State,1-0,24,32,28,28,0,0,0,0,0,0,0,0,0,0,112,0.486,0.766,0.316,25,44,23,0011400015,1610612746,LAC,Los Angeles,CJ Wilcox,,,3:32,0.0,0.0,0.0,0.0,0.0,2.0,0.0,0.0,0.0,1.0,1.0,0.0
0011400015,1610612746,LAC,Los Angeles,203912,CJ Wilcox,,,3:32,0.0,88.8,-88.8,0.0,0.0,0.0,0.0,0.0,0.0,0.0,0.0,0.0,0.202,106.23,0.545,2014-10-07T00:00:00,8,1610612746,LAC,Los Angeles,0-1,28,24,26,16,0,0,0,0,0,0,0,0,0,0,94,0.407,0.71,0.261,22,37,23,0011400015,1610612746,LAC,Los Angeles,CJ Wilcox,,,3:32,0.0,0.0,0.0,0.0,0.0,2.0,0.0,0.0,0.0,1.0,1.0,0.0
0011400015,1610612746,LAC,Los Angeles,202327,Ekpe Udoh,,,3:32,0.0,88.8,-88.8,0.0,0.0,0.0,0.2,0.0,0.167,50.0,0.0,0.0,0.202,106.23,0.636,2014-10-07T00:00:00,8,1610612744,GSW,Golden State,1-0,24,32,28,28,0,0,0,0,0,0,0,0,0,0,112,0.486,0.766,0.316,25,44,23,0011400015,1610612746,LAC,Los Angeles,Ekpe Udoh,,,3:32,0.0,0.0,0.0,0.0,0.0,2.0,0.0,0.0,0.0,0.0,2.0,0.0
0011400015,1610612746,LAC,Los Angeles,202327,Ekpe Udoh,,,3:32,0.0,88.8,-88.8,0.0,0.0,0.0,0.2,0.0,0.167,50.0,0.0,0.0,0.202,106.23,0.636,2014-10-07T00:00:00,8,1610612746,LAC,Los Angeles,0-1,28,24,26,16,0,0,0,0,0,0,0,0,0,0,94,0.407,0.71,0.261,22,37,23,0011400015,1610612746,LAC,Los Angeles,Ekpe Udoh,,,3:32,0.0,0.0,0.0,0.0,0.0,2.0,0.0,0.0,0.0,0.0,2.0,0.0
0011400015,1610612746,LAC,Los Angeles,204060,Joe Ingles,,,2:39,0.0,82.0,-82.0,0.0,0.0,0.0,0.0,0.0,0.0,0.0,0.0,0.0,0.0,106.51,0.0,2014-10-07T00:00:00,8,1610612744,GSW,Golden State,1-0,24,32,28,28,0,0,0,0,0,0,0,0,0,0,112,0.486,0.766,0.316,25,44,23,0011400015,1610612746,LAC,Los Angeles,Joe Ingles,,,2:39,0.0,0.0,0.0,0.0,0.0,2.0,0.0,0.0,0.0,0.0,0.0,0.0
0011400015,1610612746,LAC,Los Angeles,204060,Joe Ingles,,,2:39,0.0,82.0,-82.0,0.0,0.0,0.0,0.0,0.0,0.0,0.0,0.0,0.0,0.0,106.51,0.0,2014-10-07T00:00:00,8,1610612746,LAC,Los Angeles,0-1,28,24,26,16,0,0,0,0,0,0,0,0,0,0,94,0.407,0.71,0.261,22,37,23,0011400015,1610612746,LAC,Los Angeles,Joe Ingles,,,2:39,0.0,0.0,0.0,0.0,0.0,2.0,0.0,0.0,0.0,0.0,0.0,0.0
0011400015,1610612746,LAC,Los Angeles,2045,Hedo Turkoglu,,DNP - Coach's Decision                  ,,,,,,,0.0,,,,,,,0.0,,,2014-10-07T00:00:00,8,1610612744,GSW,Golden State,1-0,24,32,28,28,0,0,0,0,0,0,0,0,0,0,112,0.486,0.766,0.316,25,44,23,0011400015,1610612746,LAC,Los Angeles,Hedo Turkoglu,,DNP - Coach's Decision                  ,,,,,,,,,,,,,
0011400015,1610612746,LAC,Los Angeles,2045,Hedo Turkoglu,,DNP - Coach's Decision                  ,,,,,,,0.0,,,,,,,0.0,,,2014-10-07T00:00:00,8,1610612746,LAC,Los Angeles,0-1,28,24,26,16,0,0,0,0,0,0,0,0,0,0,94,0.407,0.71,0.261,22,37,23,0011400015,1610612746,LAC,Los Angeles,Hedo Turkoglu,,DNP - Coach's Decision                  ,,,,,,,,,,,,,
