GAME_ID_x,TEAM_ID_x,TEAM_ABBREVIATION_x,TEAM_CITY_x,PLAYER_ID,PLAYER_NAME_x,START_POSITION_x,COMMENT_x,MIN_x,OFF_RATING,DEF_RATING,NET_RATING,AST_PCT,AST_TOV,AST_RATIO,OREB_PCT,DREB_PCT,REB_PCT,TM_TOV_PCT,EFG_PCT,TS_PCT,USG_PCT,PACE,PIE,GAME_DATE_EST,GAME_SEQUENCE,TEAM_ID_y,TEAM_ABBREVIATION_y,TEAM_CITY_NAME,TEAM_WINS_LOSSES,PTS_QTR1,PTS_QTR2,PTS_QTR3,PTS_QTR4,PTS_OT1,PTS_OT2,PTS_OT3,PTS_OT4,PTS_OT5,PTS_OT6,PTS_OT7,PTS_OT8,PTS_OT9,PTS_OT10,PTS,FG_PCT,FT_PCT,FG3_PCT,AST,REB,TOV,GAME_ID_y,TEAM_ID,TEAM_ABBREVIATION,TEAM_CITY_y,PLAYER_NAME_y,START_POSITION_y,COMMENT_y,MIN_y,PTS_OFF_TOV,PTS_2ND_CHANCE,PTS_FB,PTS_PAINT,OPP_PTS_OFF_TOV,OPP_PTS_2ND_CHANCE,OPP_PTS_FB,OPP_PTS_PAINT,BLK,BLKA,PF,PFD
0021300670,1610612738,BOS,Boston,101138,Brandon Bass,F,,17:29,61.4,127.7,-66.3,0.333,0.0,28.6,0.105,0.222,0.143,0.0,0.4,0.4,0.131,92.12,0.097,2014-01-28T00:00:00,3,1610612738,BOS,Boston,15-32,15,22,22,29,0,0,0,0,0,0,0,0,0,0,88,0.39,0.75,0.273,21,40,17,0021300670,1610612738,BOS,Boston,Brandon Bass,F,,17:29,0.0,0.0,0.0,4.0,8.0,11.0,4.0,16.0,0.0,0.0,1.0,2.0
0021300670,1610612738,BOS,Boston,101138,Brandon Bass,F,,17:29,61.4,127.7,-66.3,0.333,0.0,28.6,0.105,0.222,0.143,0.0,0.4,0.4,0.131,92.12,0.097,2014-01-28T00:00:00,3,1610612752,NYK,New York,18-27,31,32,23,28,0,0,0,0,0,0,0,0,0,0,114,0.537,0.696,0.5,25,46,15,0021300670,1610612738,BOS,Boston,Brandon Bass,F,,17:29,0.0,0.0,0.0,4.0,8.0,11.0,4.0,16.0,0.0,0.0,1.0,2.0
0021300670,1610612738,BOS,Boston,201145,Jeff Green,F,,26:37,75.7,120.3,-44.6,0.1,0.33,5.3,0.097,0.182,0.132,16.0,0.385,0.474,0.271,98.75,0.135,2014-01-28T00:00:00,3,1610612738,BOS,Boston,15-32,15,22,22,29,0,0,0,0,0,0,0,0,0,0,88,0.39,0.75,0.273,21,40,17,0021300670,1610612738,BOS,Boston,Jeff Green,F,,26:37,0.0,0.0,0.0,0.0,15.0,11.0,4.0,30.0,0.0,2.0,1.0,2.0
0021300670,1610612738,BOS,Boston,201145,Jeff Green,F,,26:37,75.7,120.3,-44.6,0.1,0.33,5.3,0.097,0.182,0.132,16.0,0.385,0.474,0.271,98.75,0.135,2014-01-28T00:00:00,3,1610612752,NYK,New York,18-27,31,32,23,28,0,0,0,0,0,0,0,0,0,0,114,0.537,0.696,0.5,25,46,15,0021300670,1610612738,BOS,Boston,Jeff Green,F,,26:37,0.0,0.0,0.0,0.0,15.0,11.0,4.0,30.0,0.0,2.0,1.0,2.0
0021300670,1610612738,BOS,Boston,203096,Jared Sullinger,C,,19:08,68.4,123.6,-55.2,0.286,0.0,22.8,0.115,0.0,0.075,0.0,0.6,0.592,0.135,100.06,0.061,2014-01-28T00:00:00,3,1610612738,BOS,Boston,15-32,15,22,22,29,0,0,0,0,0,0,0,0,0,0,88,0.39,0.75,0.273,21,40,17,0021300670,1610612738,BOS,Boston,Jared Sullinger,C,,19:08,0.0,4.0,0.0,6.0,9.0,9.0,4.0,22.0,0.0,0.0,4.0,2.0
0021300670,1610612738,BOS,Boston,203096,Jared Sullinger,C,,19:08,68.4,123.6,-55.2,0.286,0.0,22.8,0.115,0.0,0.075,0.0,0.6,0.592,0.135,100.06,0.061,2014-01-28T00:00:00,3,1610612752,NYK,New York,18-27,31,32,23,28,0,0,0,0,0,0,0,0,0,0,114,0.537,0.696,0.5,25,46,15,0021300670,1610612738,BOS,Boston,Jared Sullinger,C,,19:08,0.0,4.0,0.0,6.0,9.0,9.0,4.0,22.0,0.0,0.0,4.0,2.0
0021300670,1610612738,BOS,Boston,200765,Rajon Rondo,G,,27:26,74.4,123.1,-48.8,0.455,1.25,22.3,0.0,0.1,0.038,17.8,0.231,0.26,0.262,96.3,0.0,2014-01-28T00:00:00,3,1610612738,BOS,Boston,15-32,15,22,22,29,0,0,0,0,0,0,0,0,0,0,88,0.39,0.75,0.273,21,40,17,0021300670,1610612738,BOS,Boston,Rajon Rondo,G,,27:26,2.0,2.0,2.0,4.0,13.0,14.0,4.0,28.0,0.0,2.0,1.0,1.0
0021300670,1610612738,BOS,Boston,200765,Rajon Rondo,G,,27:26,74.4,123.1,-48.8,0.455,1.25,22.3,0.0,0.1,0.038,17.8,0.231,0.26,0.262,96.3,0.0,2014-01-28T00:00:00,3,1610612752,NYK,New York,18-27,31,32,23,28,0,0,0,0,0,0,0,0,0,0,114,0.537,0.696,0.5,25,46,15,0021300670,1610612738,BOS,Boston,Rajon Rondo,G,,27:26,2.0,2.0,2.0,4.0,13.0,14.0,4.0,28.0,0.0,2.0,1.0,1.0
0021300670,1610612738,BOS,Boston,2222,Gerald Wallace,G,,23:24,72.4,130.2,-57.8,0.182,0.67,15.5,0.036,0.133,0.07,23.3,0.286,0.317,0.194,96.18,0.0,2014-01-28T00:00:00,3,1610612738,BOS,Boston,15-32,15,22,22,29,0,0,0,0,0,0,0,0,0,0,88,0.39,0.75,0.273,21,40,17,0021300670,1610612738,BOS,Boston,Gerald Wallace,G,,23:24,1.0,1.0,0.0,4.0,12.0,12.0,4.0,24.0,1.0,1.0,1.0,3.0
0021300670,1610612738,BOS,Boston,2222,Gerald Wallace,G,,23:24,72.4,130.2,-57.8,0.182,0.67,15.5,0.036,0.133,0.07,23.3,0.286,0.317,0.194,96.18,0.0,2014-01-28T00:00:00,3,1610612752,NYK,New York,18-27,31,32,23,28,0,0,0,0,0,0,0,0,0,0,114,0.537,0.696,0.5,25,46,15,0021300670,1610612738,BOS,Boston,Gerald Wallace,G,,23:24,1.0,1.0,0.0,4.0,12.0,12.0,4.0,24.0,1.0,1.0,1.0,3.0
0021300670,1610612738,BOS,Boston,2743,Kris Humphries,,,21:47,106.8,117.5,-10.8,0.0,0.0,0.0,0.143,0.158,0.152,16.0,0.429,0.57,0.289,92.2,0.063,2014-01-28T00:00:00,3,1610612738,BOS,Boston,15-32,15,22,22,29,0,0,0,0,0,0,0,0,0,0,88,0.39,0.75,0.273,21,40,17,0021300670,1610612738,BOS,Boston,Kris Humphries,,,21:47,0.0,2.0,2.0,6.0,11.0,8.0,0.0,16.0,0.0,0.0,4.0,6.0
0021300670,1610612738,BOS,Boston,2743,Kris Humphries,,,21:47,106.8,117.5,-10.8,0.0,0.0,0.0,0.143,0.158,0.152,16.0,0.429,0.57,0.289,92.2,0.063,2014-01-28T00:00:00,3,1610612752,NYK,New York,18-27,31,32,23,28,0,0,0,0,0,0,0,0,0,0,114,0.537,0.696,0.5,25,46,15,0021300670,1610612738,BOS,Boston,Kris Humphries,,,21:47,0.0,2.0,2.0,6.0,11.0,8.0,0.0,16.0,0.0,0.0,4.0,6.0
0021300670,1610612738,BOS,Boston,201573,Jerryd Bayless,,,26:46,112.4,114.5,-2.1,0.235,4.0,26.9,0.0,0.083,0.047,6.7,0.444,0.506,0.199,93.27,0.066,2014-01-28T00:00:00,3,1610612738,BOS,Boston,15-32,15,22,22,29,0,0,0,0,0,0,0,0,0,0,88,0.39,0.75,0.273,21,40,17,0021300670,1610612738,BOS,Boston,Jerryd Bayless,,,26:46,6.0,2.0,2.0,4.0,7.0,11.0,4.0,20.0,0.0,1.0,4.0,1.0
0021300670,1610612738,BOS,Boston,201573,Jerryd Bayless,,,26:46,112.4,114.5,-2.1,0.235,4.0,26.9,0.0,0.083,0.047,6.7,0.444,0.506,0.199,93.27,0.066,2014-01-28T00:00:00,3,1610612752,NYK,New York,18-27,31,32,23,28,0,0,0,0,0,0,0,0,0,0,114,0.537,0.696,0.5,25,46,15,0021300670,1610612738,BOS,Boston,Jerryd Bayless,,,26:46,6.0,2.0,2.0,4.0,7.0,11.0,4.0,20.0,0.0,1.0,4.0,1.0
0021300670,1610612738,BOS,Boston,203515,Phil Pressey,,,16:07,130.5,115.4,15.2,0.214,0.0,50.0,0.0,0.077,0.042,0.0,0.333,0.333,0.089,92.09,0.04,2014-01-28T00:00:00,3,1610612738,BOS,Boston,15-32,15,22,22,29,0,0,0,0,0,0,0,0,0,0,88,0.39,0.75,0.273,21,40,17,0021300670,1610612738,BOS,Boston,Phil Pressey,,,16:07,0.0,0.0,0.0,0.0,3.0,4.0,2.0,12.0,0.0,0.0,1.0,1.0
0021300670,1610612738,BOS,Boston,203515,Phil Pressey,,,16:07,130.5,115.4,15.2,0.214,0.0,50.0,0.0,0.077,0.042,0.0,0.333,0.333,0.089,92.09,0.04,2014-01-28T00:00:00,3,1610612752,NYK,New York,18-27,31,32,23,28,0,0,0,0,0,0,0,0,0,0,114,0.537,0.696,0.5,25,46,15,0021300670,1610612738,BOS,Boston,Phil Pressey,,,16:07,0.0,0.0,0.0,0.0,3.0,4.0,2.0,12.0,0.0,0.0,1.0,1.0
0021300670,1610612738,BOS,Boston,203187,Chris Johnson,,,22:18,99.8,114.0,-14.2,0.071,0.5,10.0,0.0,0.048,0.023,20.0,0.857,0.857,0.173,98.67,0.102,2014-01-28T00:00:00,3,1610612738,BOS,Boston,15-32,15,22,22,29,0,0,0,0,0,0,0,0,0,0,88,0.39,0.75,0.273,21,40,17,0021300670,1610612738,BOS,Boston,Chris Johnson,,,22:18,6.0,0.0,6.0,0.0,10.0,6.0,4.0,18.0,0.0,0.0,0.0,0.0
0021300670,1610612738,BOS,Boston,203187,Chris Johnson,,,22:18,99.8,114.0,-14.2,0.071,0.5,10.0,0.0,0.048,0.023,20.0,0.857,0.857,0.173,98.67,0.102,2014-01-28T00:00:00,3,1610612752,NYK,New York,18-27,31,32,23,28,0,0,0,0,0,0,0,0,0,0,114,0.537,0.696,0.5,25,46,15,0021300670,1610612738,BOS,Boston,Chris Johnson,,,22:18,6.0,0.0,6.0,0.0,10.0,6.0,4.0,18.0,0.0,0.0,0.0,0.0
0021300670,1610612738,BOS,Boston,203482,Kelly Olynyk,,,19:22,114.9,103.8,11.1,0.083,1.0,11.3,0.154,0.25,0.212,11.3,0.5,0.581,0.191,95.17,0.105,2014-01-28T00:00:00,3,1610612738,BOS,Boston,15-32,15,22,22,29,0,0,0,0,0,0,0,0,0,0,88,0.39,0.75,0.273,21,40,17,0021300670,1610612738,BOS,Boston,Kelly Olynyk,,,19:22,2.0,2.0,0.0,4.0,6.0,5.0,2.0,16.0,1.0,1.0,4.0,1.0
0021300670,1610612738,BOS,Boston,203482,Kelly Olynyk,,,19:22,114.9,103.8,11.1,0.083,1.0,11.3,0.154,0.25,0.212,11.3,0.5,0.581,0.191,95.17,0.105,2014-01-28T00:00:00,3,1610612752,NYK,New York,18-27,31,32,23,28,0,0,0,0,0,0,0,0,0,0,114,0.537,0.696,0.5,25,46,15,0021300670,1610612738,BOS,Boston,Kelly Olynyk,,,19:22,2.0,2.0,0.0,4.0,6.0,5.0,2.0,16.0,1.0,1.0,4.0,1.0
0021300670,1610612738,BOS,Boston,203543,Vitor Faverani,,,13:24,103.6,124.4,-20.8,0.0,0.0,0.0,0.0,0.25,0.107,16.7,0.4,0.4,0.177,99.37,0.091,2014-01-28T00:00:00,3,1610612738,BOS,Boston,15-32,15,22,22,29,0,0,0,0,0,0,0,0,0,0,88,0.39,0.75,0.273,21,40,17,0021300670,1610612738,BOS,Boston,Vitor Faverani,,,13:24,0.0,0.0,0.0,2.0,2.0,5.0,4.0,14.0,0.0,0.0,0.0,0.0
0021300670,1610612738,BOS,Boston,203543,Vitor Faverani,,,13:24,103.6,124.4,-20.8,0.0,0.0,0.0,0.0,0.25,0.107,16.7,0.4,0.4,0.177,99.37,0.091,2014-01-28T00:00:00,3,1610612752,NYK,New York,18-27,31,32,23,28,0,0,0,0,0,0,0,0,0,0,114,0.537,0.696,0.5,25,46,15,0021300670,1610612738,BOS,Boston,Vitor Faverani,,,13:24,0.0,0.0,0.0,2.0,2.0,5.0,4.0,14.0,0.0,0.0,0.0,0.0
0021300670,1610612738,BOS,Boston,203505,Vander Blue,,,3:06,93.2,136.1,-42.9,0.0,0.0,0.0,0.0,0.333,0.2,0.0,0.5,0.41,0.379,95.38,0.0,2014-01-28T00:00:00,3,1610612738,BOS,Boston,15-32,15,22,22,29,0,0,0,0,0,0,0,0,0,0,88,0.39,0.75,0.273,21,40,17,0021300670,1610612738,BOS,Boston,Vander Blue,,,3:06,0.0,0.0,2.0,2.0,2.0,2.0,2.0,2.0,0.0,0.0,1.0,1.0
0021300670,1610612738,BOS,Boston,203505,Vander Blue,,,3:06,93.2,136.1,-42.9,0.0,0.0,0.0,0.0,0.333,0.2,0.0,0.5,0.41,0.379,95.38,0.0,2014-01-28T00:00:00,3,1610612752,NYK,New York,18-27,31,32,23,28,0,0,0,0,0,0,0,0,0,0,114,0.537,0.696,0.5,25,46,15,0021300670,1610612738,BOS,Boston,Vander Blue,,,3:06,0.0,0.0,2.0,2.0,2.0,2.0,2.0,2.0,0.0,0.0,1.0,1.0
0021300670,1610612738,BOS,Boston,201202,Joel Anthony,,,3:06,93.2,136.1,-42.9,0.0,0.0,0.0,0.0,0.333,0.2,0.0,0.0,0.0,0.0,95.38,0.08,2014-01-28T00:00:00,3,1610612738,BOS,Boston,15-32,15,22,22,29,0,0,0,0,0,0,0,0,0,0,88,0.39,0.75,0.273,21,40,17,0021300670,1610612738,BOS,Boston,Joel Anthony,,,3:06,0.0,0.0,0.0,0.0,2.0,2.0,2.0,2.0,0.0,0.0,0.0,0.0
0021300670,1610612738,BOS,Boston,201202,Joel Anthony,,,3:06,93.2,136.1,-42.9,0.0,0.0,0.0,0.0,0.333,0.2,0.0,0.0,0.0,0.0,95.38,0.08,2014-01-28T00:00:00,3,1610612752,NYK,New York,18-27,31,32,23,28,0,0,0,0,0,0,0,0,0,0,114,0.537,0.696,0.5,25,46,15,0021300670,1610612738,BOS,Boston,Joel Anthony,,,3:06,0.0,0.0,0.0,0.0,2.0,2.0,2.0,2.0,0.0,0.0,0.0,0.0
0021300670,1610612752,NYK,New York,2546,Carmelo Anthony,F,,28:18,121.9,81.6,40.3,0.167,1.0,12.5,0.1,0.226,0.176,12.5,0.633,0.664,0.326,96.85,0.271,2014-01-28T00:00:00,3,1610612738,BOS,Boston,15-32,15,22,22,29,0,0,0,0,0,0,0,0,0,0,88,0.39,0.75,0.273,21,40,17,0021300670,1610612752,NYK,New York,Carmelo Anthony,F,,28:18,7.0,7.0,0.0,2.0,7.0,9.0,2.0,24.0,0.0,1.0,3.0,4.0
0021300670,1610612752,NYK,New York,2546,Carmelo Anthony,F,,28:18,121.9,81.6,40.3,0.167,1.0,12.5,0.1,0.226,0.176,12.5,0.633,0.664,0.326,96.85,0.271,2014-01-28T00:00:00,3,1610612752,NYK,New York,18-27,31,32,23,28,0,0,0,0,0,0,0,0,0,0,114,0.537,0.696,0.5,25,46,15,0021300670,1610612752,NYK,New York,Carmelo Anthony,F,,28:18,7.0,7.0,0.0,2.0,7.0,9.0,2.0,24.0,0.0,1.0,3.0,4.0
0021300670,1610612752,NYK,New York,202697,Iman Shumpert,F,,8:23,140.0,50.9,89.1,0.0,0.0,0.0,0.0,0.1,0.067,28.6,0.4,0.4,0.412,82.33,-0.04,2014-01-28T00:00:00,3,1610612738,BOS,Boston,15-32,15,22,22,29,0,0,0,0,0,0,0,0,0,0,88,0.39,0.75,0.273,21,40,17,0021300670,1610612752,NYK,New York,Iman Shumpert,F,,8:23,0.0,0.0,0.0,4.0,1.0,3.0,2.0,4.0,0.0,1.0,1.0,0.0
0021300670,1610612752,NYK,New York,202697,Iman Shumpert,F,,8:23,140.0,50.9,89.1,0.0,0.0,0.0,0.0,0.1,0.067,28.6,0.4,0.4,0.412,82.33,-0.04,2014-01-28T00:00:00,3,1610612752,NYK,New York,18-27,31,32,23,28,0,0,0,0,0,0,0,0,0,0,114,0.537,0.696,0.5,25,46,15,0021300670,1610612752,NYK,New York,Iman Shumpert,F,,8:23,0.0,0.0,0.0,4.0,1.0,3.0,2.0,4.0,0.0,1.0,1.0,0.0
0021300670,1610612752,NYK,New York,2199,Tyson Chandler,C,,22:32,129.7,65.4,64.3,0.0,0.0,0.0,0.125,0.355,0.277,0.0,0.833,0.872,0.138,96.45,0.343,2014-01-28T00:00:00,3,1610612738,BOS,Boston,15-32,15,22,22,29,0,0,0,0,0,0,0,0,0,0,88,0.39,0.75,0.273,21,40,17,0021300670,1610612752,NYK,New York,Tyson Chandler,C,,22:32,0.0,4.0,2.0,10.0,3.0,9.0,2.0,12.0,0.0,0.0,0.0,2.0
0021300670,1610612752,NYK,New York,2199,Tyson Chandler,C,,22:32,129.7,65.4,64.3,0.0,0.0,0.0,0.125,0.355,0.277,0.0,0.833,0.872,0.138,96.45,0.343,2014-01-28T00:00:00,3,1610612752,NYK,New York,18-27,31,32,23,28,0,0,0,0,0,0,0,0,0,0,114,0.537,0.696,0.5,25,46,15,0021300670,1610612752,NYK,New York,Tyson Chandler,C,,22:32,0.0,4.0,2.0,10.0,3.0,9.0,2.0,12.0,0.0,0.0,0.0,2.0
0021300670,1610612752,NYK,New York,101109,Raymond Felton,G,,25:10,128.7,80.5,48.3,0.364,2.0,44.4,0.133,0.069,0.091,22.2,0.333,0.333,0.183,94.83,0.089,2014-01-28T00:00:00,3,1610612738,BOS,Boston,15-32,15,22,22,29,0,0,0,0,0,0,0,0,0,0,88,0.39,0.75,0.273,21,40,17,0021300670,1610612752,NYK,New York,Raymond Felton,G,,25:10,2.0,2.0,0.0,4.0,7.0,9.0,2.0,20.0,1.0,0.0,1.0,1.0
0021300670,1610612752,NYK,New York,101109,Raymond Felton,G,,25:10,128.7,80.5,48.3,0.364,2.0,44.4,0.133,0.069,0.091,22.2,0.333,0.333,0.183,94.83,0.089,2014-01-28T00:00:00,3,1610612752,NYK,New York,18-27,31,32,23,28,0,0,0,0,0,0,0,0,0,0,114,0.537,0.696,0.5,25,46,15,0021300670,1610612752,NYK,New York,Raymond Felton,G,,25:10,2.0,2.0,0.0,4.0,7.0,9.0,2.0,20.0,1.0,0.0,1.0,1.0
0021300670,1610612752,NYK,New York,203143,Pablo Prigioni,G,,27:17,109.8,83.9,25.9,0.095,2.0,22.2,0.0,0.074,0.039,11.1,0.583,0.583,0.117,94.72,0.072,2014-01-28T00:00:00,3,1610612738,BOS,Boston,15-32,15,22,22,29,0,0,0,0,0,0,0,0,0,0,88,0.39,0.75,0.273,21,40,17,0021300670,1610612752,NYK,New York,Pablo Prigioni,G,,27:17,0.0,0.0,2.0,2.0,4.0,5.0,10.0,18.0,0.0,0.0,3.0,1.0
0021300670,1610612752,NYK,New York,203143,Pablo Prigioni,G,,27:17,109.8,83.9,25.9,0.095,2.0,22.2,0.0,0.074,0.039,11.1,0.583,0.583,0.117,94.72,0.072,2014-01-28T00:00:00,3,1610612752,NYK,New York,18-27,31,32,23,28,0,0,0,0,0,0,0,0,0,0,114,0.537,0.696,0.5,25,46,15,0021300670,1610612752,NYK,New York,Pablo Prigioni,G,,27:17,0.0,0.0,2.0,2.0,4.0,5.0,10.0,18.0,0.0,0.0,3.0,1.0
0021300670,1610612752,NYK,New York,2747,JR Smith,,,34:06,115.6,96.5,19.0,0.208,0.0,23.6,0.0,0.031,0.017,0.0,0.536,0.525,0.215,96.23,0.095,2014-01-28T00:00:00,3,1610612738,BOS,Boston,15-32,15,22,22,29,0,0,0,0,0,0,0,0,0,0,88,0.39,0.75,0.273,21,40,17,0021300670,1610612752,NYK,New York,JR Smith,,,34:06,5.0,0.0,0.0,2.0,9.0,10.0,8.0,26.0,2.0,0.0,2.0,7.0
0021300670,1610612752,NYK,New York,2747,JR Smith,,,34:06,115.6,96.5,19.0,0.208,0.0,23.6,0.0,0.031,0.017,0.0,0.536,0.525,0.215,96.23,0.095,2014-01-28T00:00:00,3,1610612752,NYK,New York,18-27,31,32,23,28,0,0,0,0,0,0,0,0,0,0,114,0.537,0.696,0.5,25,46,15,0021300670,1610612752,NYK,New York,JR Smith,,,34:06,5.0,0.0,0.0,2.0,9.0,10.0,8.0,26.0,2.0,0.0,2.0,7.0
0021300670,1610612752,NYK,New York,2030,Kenyon Martin,,,8:50,137.4,72.2,65.1,0.143,1.0,20.0,0.0,0.111,0.077,20.0,1.0,1.0,0.208,98.35,0.188,2014-01-28T00:00:00,3,1610612738,BOS,Boston,15-32,15,22,22,29,0,0,0,0,0,0,0,0,0,0,88,0.39,0.75,0.273,21,40,17,0021300670,1610612752,NYK,New York,Kenyon Martin,,,8:50,2.0,0.0,0.0,4.0,3.0,2.0,3.0,10.0,1.0,0.0,1.0,0.0
0021300670,1610612752,NYK,New York,2030,Kenyon Martin,,,8:50,137.4,72.2,65.1,0.143,1.0,20.0,0.0,0.111,0.077,20.0,1.0,1.0,0.208,98.35,0.188,2014-01-28T00:00:00,3,1610612752,NYK,New York,18-27,31,32,23,28,0,0,0,0,0,0,0,0,0,0,114,0.537,0.696,0.5,25,46,15,0021300670,1610612752,NYK,New York,Kenyon Martin,,,8:50,2.0,0.0,0.0,4.0,3.0,2.0,3.0,10.0,1.0,0.0,1.0,0.0
0021300670,1610612752,NYK,New York,203501,Tim Hardaway Jr.,,,33:10,119.5,107.0,12.5,0.08,2.0,13.6,0.0,0.074,0.034,6.8,0.6,0.68,0.166,97.08,0.093,2014-01-28T00:00:00,3,1610612738,BOS,Boston,15-32,15,22,22,29,0,0,0,0,0,0,0,0,0,0,88,0.39,0.75,0.273,21,40,17,0021300670,1610612752,NYK,New York,Tim Hardaway Jr.,,,33:10,4.0,0.0,4.0,4.0,16.0,8.0,12.0,28.0,0.0,0.0,3.0,3.0
0021300670,1610612752,NYK,New York,203501,Tim Hardaway Jr.,,,33:10,119.5,107.0,12.5,0.08,2.0,13.6,0.0,0.074,0.034,6.8,0.6,0.68,0.166,97.08,0.093,2014-01-28T00:00:00,3,1610612752,NYK,New York,18-27,31,32,23,28,0,0,0,0,0,0,0,0,0,0,114,0.537,0.696,0.5,25,46,15,0021300670,1610612752,NYK,New York,Tim Hardaway Jr.,,,33:10,4.0,0.0,4.0,4.0,16.0,8.0,12.0,28.0,0.0,0.0,3.0,3.0
0021300670,1610612752,NYK,New York,202719,Jeremy Tyler,,,23:10,110.1,111.6,-1.5,0.0,0.0,0.0,0.13,0.118,0.125,15.2,0.778,0.759,0.257,95.31,0.153,2014-01-28T00:00:00,3,1610612738,BOS,Boston,15-32,15,22,22,29,0,0,0,0,0,0,0,0,0,0,88,0.39,0.75,0.273,21,40,17,0021300670,1610612752,NYK,New York,Jeremy Tyler,,,23:10,0.0,4.0,0.0,8.0,14.0,4.0,12.0,16.0,2.0,0.0,2.0,4.0
0021300670,1610612752,NYK,New York,202719,Jeremy Tyler,,,23:10,110.1,111.6,-1.5,0.0,0.0,0.0,0.13,0.118,0.125,15.2,0.778,0.759,0.257,95.31,0.153,2014-01-28T00:00:00,3,1610612752,NYK,New York,18-27,31,32,23,28,0,0,0,0,0,0,0,0,0,0,114,0.537,0.696,0.5,25,46,15,0021300670,1610612752,NYK,New York,Jeremy Tyler,,,23:10,0.0,4.0,0.0,8.0,14.0,4.0,12.0,16.0,2.0,0.0,2.0,4.0
0021300670,1610612752,NYK,New York,202332,Cole Aldrich,,,13:56,114.0,125.6,-11.6,0.091,0.0,50.0,0.133,0.5,0.261,0.0,1.0,1.0,0.032,93.5,0.105,2014-01-28T00:00:00,3,1610612738,BOS,Boston,15-32,15,22,22,29,0,0,0,0,0,0,0,0,0,0,88,0.39,0.75,0.273,21,40,17,0021300670,1610612752,NYK,New York,Cole Aldrich,,,13:56,0.0,0.0,0.0,2.0,7.0,2.0,9.0,10.0,1.0,0.0,2.0,0.0
0021300670,1610612752,NYK,New York,202332,Cole Aldrich,,,13:56,114.0,125.6,-11.6,0.091,0.0,50.0,0.133,0.5,0.261,0.0,1.0,1.0,0.032,93.5,0.105,2014-01-28T00:00:00,3,1610612752,NYK,New York,18-27,31,32,23,28,0,0,0,0,0,0,0,0,0,0,114,0.537,0.696,0.5,25,46,15,0021300670,1610612752,NYK,New York,Cole Aldrich,,,13:56,0.0,0.0,0.0,2.0,7.0,2.0,9.0,10.0,1.0,0.0,2.0,0.0
0021300670,1610612752,NYK,New York,1897,Metta World Peace,,,7:34,114.2,98.2,16.1,0.0,0.0,0.0,0.0,0.143,0.071,0.0,0.375,0.375,0.224,102.13,0.032,2014-01-28T00:00:00,3,1610612738,BOS,Boston,15-32,15,22,22,29,0,0,0,0,0,0,0,0,0,0,88,0.39,0.75,0.273,21,40,17,0021300670,1610612752,NYK,New York,Metta World Peace,,,7:34,0.0,3.0,0.0,0.0,7.0,2.0,4.0,6.0,0.0,0.0,0.0,0.0
0021300670,1610612752,NYK,New York,1897,Metta World Peace,,,7:34,114.2,98.2,16.1,0.0,0.0,0.0,0.0,0.143,0.071,0.0,0.375,0.375,0.224,102.13,0.032,2014-01-28T00:00:00,3,1610612752,NYK,New York,18-27,31,32,23,28,0,0,0,0,0,0,0,0,0,0,114,0.537,0.696,0.5,25,46,15,0021300670,1610612752,NYK,New York,Metta World Peace,,,7:34,0.0,3.0,0.0,0.0,7.0,2.0,4.0,6.0,0.0,0.0,0.0,0.0
0021300670,1610612752,NYK,New York,203315,Toure' Murry,,,7:34,114.2,98.2,16.1,0.5,3.0,42.9,0.143,0.0,0.071,14.3,0.333,0.333,0.224,102.13,0.048,2014-01-28T00:00:00,3,1610612738,BOS,Boston,15-32,15,22,22,29,0,0,0,0,0,0,0,0,0,0,88,0.39,0.75,0.273,21,40,17,0021300670,1610612752,NYK,New York,Toure' Murry,,,7:34,0.0,0.0,0.0,2.0,7.0,2.0,4.0,6.0,0.0,0.0,2.0,0.0
0021300670,1610612752,NYK,New York,203315,Toure' Murry,,,7:34,114.2,98.2,16.1,0.5,3.0,42.9,0.143,0.0,0.071,14.3,0.333,0.333,0.224,102.13,0.048,2014-01-28T00:00:00,3,1610612752,NYK,New York,18-27,31,32,23,28,0,0,0,0,0,0,0,0,0,0,114,0.537,0.696,0.5,25,46,15,0021300670,1610612752,NYK,New York,Toure' Murry,,,7:34,0.0,0.0,0.0,2.0,7.0,2.0,4.0,6.0,0.0,0.0,2.0,0.0
0021300670,1610612752,NYK,New York,2757,Beno Udrih,,DNP - Coach's Decision,,,,,,,0.0,,,,,,,0.0,,,2014-01-28T00:00:00,3,1610612738,BOS,Boston,15-32,15,22,22,29,0,0,0,0,0,0,0,0,0,0,88,0.39,0.75,0.273,21,40,17,0021300670,1610612752,NYK,New York,Beno Udrih,,DNP - Coach's Decision,,,,,,,,,,,,,
0021300670,1610612752,NYK,New York,2757,Beno Udrih,,DNP - Coach's Decision,,,,,,,0.0,,,,,,,0.0,,,2014-01-28T00:00:00,3,1610612752,NYK,New York,18-27,31,32,23,28,0,0,0,0,0,0,0,0,0,0,114,0.537,0.696,0.5,25,46,15,0021300670,1610612752,NYK,New York,Beno Udrih,,DNP - Coach's Decision,,,,,,,,,,,,,
