GAME_ID_x,TEAM_ID_x,TEAM_ABBREVIATION_x,TEAM_CITY_x,PLAYER_ID,PLAYER_NAME_x,START_POSITION_x,COMMENT_x,MIN_x,OFF_RATING,DEF_RATING,NET_RATING,AST_PCT,AST_TOV,AST_RATIO,OREB_PCT,DREB_PCT,REB_PCT,TM_TOV_PCT,EFG_PCT,TS_PCT,USG_PCT,PACE,PIE,GAME_DATE_EST,GAME_SEQUENCE,TEAM_ID_y,TEAM_ABBREVIATION_y,TEAM_CITY_NAME,TEAM_WINS_LOSSES,PTS_QTR1,PTS_QTR2,PTS_QTR3,PTS_QTR4,PTS_OT1,PTS_OT2,PTS_OT3,PTS_OT4,PTS_OT5,PTS_OT6,PTS_OT7,PTS_OT8,PTS_OT9,PTS_OT10,PTS,FG_PCT,FT_PCT,FG3_PCT,AST,REB,TOV,GAME_ID_y,TEAM_ID,TEAM_ABBREVIATION,TEAM_CITY_y,PLAYER_NAME_y,START_POSITION_y,COMMENT_y,MIN_y,PTS_OFF_TOV,PTS_2ND_CHANCE,PTS_FB,PTS_PAINT,OPP_PTS_OFF_TOV,OPP_PTS_2ND_CHANCE,OPP_PTS_FB,OPP_PTS_PAINT,BLK,BLKA,PF,PFD
0011400032,1610612760,OKC,Oklahoma City,201142,Kevin Durant,F,,17:56,100.7,79.3,21.4,0.4,2.0,25.4,0.0,0.15,0.086,12.7,0.5,0.615,0.275,111.56,0.239,2014-10-10T00:00:00,5,1610612760,OKC,Oklahoma City,1-1,28,26,29,35,0,0,0,0,0,0,0,0,0,0,118,0.481,0.75,0.462,22,46,20,0011400032,1610612760,OKC,Oklahoma City,Kevin Durant,F,,17:56,2.0,0.0,2.0,6.0,6.0,7.0,8.0,14.0,0.0,0.0,1.0,4.0
0011400032,1610612760,OKC,Oklahoma City,201142,Kevin Durant,F,,17:56,100.7,79.3,21.4,0.4,2.0,25.4,0.0,0.15,0.086,12.7,0.5,0.615,0.275,111.56,0.239,2014-10-10T00:00:00,5,1610612742,DAL,Dallas,0-2,28,23,33,25,0,0,0,0,0,0,0,0,0,0,109,0.413,0.711,0.306,24,45,20,0011400032,1610612760,OKC,Oklahoma City,Kevin Durant,F,,17:56,2.0,0.0,2.0,6.0,6.0,7.0,8.0,14.0,0.0,0.0,1.0,4.0
0011400032,1610612760,OKC,Oklahoma City,203103,Perry Jones III,F,,14:38,96.5,109.8,-13.4,0.0,0.0,0.0,0.0,0.118,0.074,16.7,0.2,0.2,0.165,116.25,-0.102,2014-10-10T00:00:00,5,1610612760,OKC,Oklahoma City,1-1,28,26,29,35,0,0,0,0,0,0,0,0,0,0,118,0.481,0.75,0.462,22,46,20,0011400032,1610612760,OKC,Oklahoma City,Perry Jones III,F,,14:38,0.0,2.0,0.0,0.0,13.0,4.0,8.0,16.0,0.0,0.0,4.0,0.0
0011400032,1610612760,OKC,Oklahoma City,203103,Perry Jones III,F,,14:38,96.5,109.8,-13.4,0.0,0.0,0.0,0.0,0.118,0.074,16.7,0.2,0.2,0.165,116.25,-0.102,2014-10-10T00:00:00,5,1610612742,DAL,Dallas,0-2,28,23,33,25,0,0,0,0,0,0,0,0,0,0,109,0.413,0.711,0.306,24,45,20,0011400032,1610612760,OKC,Oklahoma City,Perry Jones III,F,,14:38,0.0,2.0,0.0,0.0,13.0,4.0,8.0,16.0,0.0,0.0,4.0,0.0
0011400032,1610612760,OKC,Oklahoma City,203500,Steven Adams,C,,28:46,104.8,88.4,16.4,0.0,0.0,0.0,0.0,0.152,0.098,16.2,0.889,0.921,0.182,110.46,0.211,2014-10-10T00:00:00,5,1610612760,OKC,Oklahoma City,1-1,28,26,29,35,0,0,0,0,0,0,0,0,0,0,118,0.481,0.75,0.462,22,46,20,0011400032,1610612760,OKC,Oklahoma City,Steven Adams,C,,28:46,4.0,0.0,4.0,14.0,16.0,7.0,18.0,28.0,3.0,0.0,5.0,4.0
0011400032,1610612760,OKC,Oklahoma City,203500,Steven Adams,C,,28:46,104.8,88.4,16.4,0.0,0.0,0.0,0.0,0.152,0.098,16.2,0.889,0.921,0.182,110.46,0.211,2014-10-10T00:00:00,5,1610612742,DAL,Dallas,0-2,28,23,33,25,0,0,0,0,0,0,0,0,0,0,109,0.413,0.711,0.306,24,45,20,0011400032,1610612760,OKC,Oklahoma City,Steven Adams,C,,28:46,4.0,0.0,4.0,14.0,16.0,7.0,18.0,28.0,3.0,0.0,5.0,4.0
0011400032,1610612760,OKC,Oklahoma City,203460,Andre Roberson,G,,25:51,109.7,103.6,6.1,0.2,0.0,58.1,0.067,0.233,0.178,0.0,0.75,0.521,0.048,108.78,0.108,2014-10-10T00:00:00,5,1610612760,OKC,Oklahoma City,1-1,28,26,29,35,0,0,0,0,0,0,0,0,0,0,118,0.481,0.75,0.462,22,46,20,0011400032,1610612760,OKC,Oklahoma City,Andre Roberson,G,,25:51,0.0,0.0,0.0,0.0,18.0,11.0,11.0,26.0,0.0,0.0,3.0,1.0
0011400032,1610612760,OKC,Oklahoma City,203460,Andre Roberson,G,,25:51,109.7,103.6,6.1,0.2,0.0,58.1,0.067,0.233,0.178,0.0,0.75,0.521,0.048,108.78,0.108,2014-10-10T00:00:00,5,1610612742,DAL,Dallas,0-2,28,23,33,25,0,0,0,0,0,0,0,0,0,0,109,0.413,0.711,0.306,24,45,20,0011400032,1610612760,OKC,Oklahoma City,Andre Roberson,G,,25:51,0.0,0.0,0.0,0.0,18.0,11.0,11.0,26.0,0.0,0.0,3.0,1.0
0011400032,1610612760,OKC,Oklahoma City,201566,Russell Westbrook,G,,17:56,100.7,79.3,21.4,0.091,0.25,6.4,0.067,0.05,0.057,25.8,0.5,0.618,0.34,111.56,0.026,2014-10-10T00:00:00,5,1610612760,OKC,Oklahoma City,1-1,28,26,29,35,0,0,0,0,0,0,0,0,0,0,118,0.481,0.75,0.462,22,46,20,0011400032,1610612760,OKC,Oklahoma City,Russell Westbrook,G,,17:56,3.0,0.0,5.0,2.0,6.0,7.0,8.0,14.0,0.0,1.0,4.0,5.0
0011400032,1610612760,OKC,Oklahoma City,201566,Russell Westbrook,G,,17:56,100.7,79.3,21.4,0.091,0.25,6.4,0.067,0.05,0.057,25.8,0.5,0.618,0.34,111.56,0.026,2014-10-10T00:00:00,5,1610612742,DAL,Dallas,0-2,28,23,33,25,0,0,0,0,0,0,0,0,0,0,109,0.413,0.711,0.306,24,45,20,0011400032,1610612760,OKC,Oklahoma City,Russell Westbrook,G,,17:56,3.0,0.0,5.0,2.0,6.0,7.0,8.0,14.0,0.0,1.0,4.0,5.0
0011400032,1610612760,OKC,Oklahoma City,201627,Anthony Morrow,,,29:03,104.7,101.2,3.5,0.0,0.0,0.0,0.0,0.0,0.0,5.8,0.571,0.648,0.239,108.29,0.12,2014-10-10T00:00:00,5,1610612760,OKC,Oklahoma City,1-1,28,26,29,35,0,0,0,0,0,0,0,0,0,0,118,0.481,0.75,0.462,22,46,20,0011400032,1610612760,OKC,Oklahoma City,Anthony Morrow,,,29:03,4.0,3.0,2.0,0.0,15.0,12.0,9.0,22.0,1.0,0.0,1.0,5.0
0011400032,1610612760,OKC,Oklahoma City,201627,Anthony Morrow,,,29:03,104.7,101.2,3.5,0.0,0.0,0.0,0.0,0.0,0.0,5.8,0.571,0.648,0.239,108.29,0.12,2014-10-10T00:00:00,5,1610612742,DAL,Dallas,0-2,28,23,33,25,0,0,0,0,0,0,0,0,0,0,109,0.413,0.711,0.306,24,45,20,0011400032,1610612760,OKC,Oklahoma City,Anthony Morrow,,,29:03,4.0,3.0,2.0,0.0,15.0,12.0,9.0,22.0,1.0,0.0,1.0,5.0
0011400032,1610612760,OKC,Oklahoma City,203087,Jeremy Lamb,,,30:04,110.3,113.2,-2.8,0.222,2.0,16.0,0.04,0.323,0.196,8.0,0.467,0.501,0.284,108.59,0.179,2014-10-10T00:00:00,5,1610612760,OKC,Oklahoma City,1-1,28,26,29,35,0,0,0,0,0,0,0,0,0,0,118,0.481,0.75,0.462,22,46,20,0011400032,1610612760,OKC,Oklahoma City,Jeremy Lamb,,,30:04,0.0,0.0,0.0,4.0,22.0,9.0,12.0,26.0,1.0,0.0,4.0,5.0
0011400032,1610612760,OKC,Oklahoma City,203087,Jeremy Lamb,,,30:04,110.3,113.2,-2.8,0.222,2.0,16.0,0.04,0.323,0.196,8.0,0.467,0.501,0.284,108.59,0.179,2014-10-10T00:00:00,5,1610612742,DAL,Dallas,0-2,28,23,33,25,0,0,0,0,0,0,0,0,0,0,109,0.413,0.711,0.306,24,45,20,0011400032,1610612760,OKC,Oklahoma City,Jeremy Lamb,,,30:04,0.0,0.0,0.0,4.0,22.0,9.0,12.0,26.0,1.0,0.0,4.0,5.0
0011400032,1610612760,OKC,Oklahoma City,202498,Lance Thomas,,,21:42,108.4,115.9,-7.4,0.063,1.0,20.0,0.042,0.1,0.068,20.0,0.0,0.0,0.073,109.49,-0.075,2014-10-10T00:00:00,5,1610612760,OKC,Oklahoma City,1-1,28,26,29,35,0,0,0,0,0,0,0,0,0,0,118,0.481,0.75,0.462,22,46,20,0011400032,1610612760,OKC,Oklahoma City,Lance Thomas,,,21:42,0.0,0.0,0.0,0.0,12.0,9.0,4.0,18.0,0.0,0.0,5.0,0.0
0011400032,1610612760,OKC,Oklahoma City,202498,Lance Thomas,,,21:42,108.4,115.9,-7.4,0.063,1.0,20.0,0.042,0.1,0.068,20.0,0.0,0.0,0.073,109.49,-0.075,2014-10-10T00:00:00,5,1610612742,DAL,Dallas,0-2,28,23,33,25,0,0,0,0,0,0,0,0,0,0,109,0.413,0.711,0.306,24,45,20,0011400032,1610612760,OKC,Oklahoma City,Lance Thomas,,,21:42,0.0,0.0,0.0,0.0,12.0,9.0,4.0,18.0,0.0,0.0,5.0,0.0
0011400032,1610612760,OKC,Oklahoma City,202704,Reggie Jackson,,,17:12,92.3,97.1,-4.8,0.333,1.5,19.4,0.0,0.214,0.1,13.0,0.6,0.623,0.296,107.67,0.194,2014-10-10T00:00:00,5,1610612760,OKC,Oklahoma City,1-1,28,26,29,35,0,0,0,0,0,0,0,0,0,0,118,0.481,0.75,0.462,22,46,20,0011400032,1610612760,OKC,Oklahoma City,Reggie Jackson,,,17:12,5.0,0.0,2.0,6.0,8.0,0.0,13.0,16.0,0.0,2.0,1.0,2.0
0011400032,1610612760,OKC,Oklahoma City,202704,Reggie Jackson,,,17:12,92.3,97.1,-4.8,0.333,1.5,19.4,0.0,0.214,0.1,13.0,0.6,0.623,0.296,107.67,0.194,2014-10-10T00:00:00,5,1610612742,DAL,Dallas,0-2,28,23,33,25,0,0,0,0,0,0,0,0,0,0,109,0.413,0.711,0.306,24,45,20,0011400032,1610612760,OKC,Oklahoma City,Reggie Jackson,,,17:12,5.0,0.0,2.0,6.0,8.0,0.0,13.0,16.0,0.0,2.0,1.0,2.0
0011400032,1610612760,OKC,Oklahoma City,204075,Talib Zanna,,,15:36,117.0,102.8,14.2,0.0,0.0,0.0,0.118,0.25,0.182,17.7,1.0,0.97,0.144,109.29,0.163,2014-10-10T00:00:00,5,1610612760,OKC,Oklahoma City,1-1,28,26,29,35,0,0,0,0,0,0,0,0,0,0,118,0.481,0.75,0.462,22,46,20,0011400032,1610612760,OKC,Oklahoma City,Talib Zanna,,,15:36,4.0,3.0,0.0,4.0,7.0,5.0,4.0,6.0,1.0,0.0,5.0,4.0
0011400032,1610612760,OKC,Oklahoma City,204075,Talib Zanna,,,15:36,117.0,102.8,14.2,0.0,0.0,0.0,0.118,0.25,0.182,17.7,1.0,0.97,0.144,109.29,0.163,2014-10-10T00:00:00,5,1610612742,DAL,Dallas,0-2,28,23,33,25,0,0,0,0,0,0,0,0,0,0,109,0.413,0.711,0.306,24,45,20,0011400032,1610612760,OKC,Oklahoma City,Talib Zanna,,,15:36,4.0,3.0,0.0,4.0,7.0,5.0,4.0,6.0,1.0,0.0,5.0,4.0
0011400032,1610612760,OKC,Oklahoma City,204077,Michael Jenkins,,,21:16,124.1,106.3,17.7,0.333,1.25,36.0,0.0,0.125,0.075,28.8,0.75,0.717,0.172,107.8,0.098,2014-10-10T00:00:00,5,1610612760,OKC,Oklahoma City,1-1,28,26,29,35,0,0,0,0,0,0,0,0,0,0,118,0.481,0.75,0.462,22,46,20,0011400032,1610612760,OKC,Oklahoma City,Michael Jenkins,,,21:16,1.0,0.0,0.0,0.0,17.0,9.0,5.0,14.0,0.0,0.0,3.0,2.0
0011400032,1610612760,OKC,Oklahoma City,204077,Michael Jenkins,,,21:16,124.1,106.3,17.7,0.333,1.25,36.0,0.0,0.125,0.075,28.8,0.75,0.717,0.172,107.8,0.098,2014-10-10T00:00:00,5,1610612742,DAL,Dallas,0-2,28,23,33,25,0,0,0,0,0,0,0,0,0,0,109,0.413,0.711,0.306,24,45,20,0011400032,1610612760,OKC,Oklahoma City,Michael Jenkins,,,21:16,1.0,0.0,0.0,0.0,17.0,9.0,5.0,14.0,0.0,0.0,3.0,2.0
0011400032,1610612760,OKC,Oklahoma City,2555,Nick Collison,,DNP - Coach's Decision                  ,,,,,,,0.0,,,,,,,0.0,,,2014-10-10T00:00:00,5,1610612760,OKC,Oklahoma City,1-1,28,26,29,35,0,0,0,0,0,0,0,0,0,0,118,0.481,0.75,0.462,22,46,20,0011400032,1610612760,OKC,Oklahoma City,Nick Collison,,DNP - Coach's Decision                  ,,,,,,,,,,,,,
0011400032,1610612760,OKC,Oklahoma City,2555,Nick Collison,,DNP - Coach's Decision                  ,,,,,,,0.0,,,,,,,0.0,,,2014-10-10T00:00:00,5,1610612742,DAL,Dallas,0-2,28,23,33,25,0,0,0,0,0,0,0,0,0,0,109,0.413,0.711,0.306,24,45,20,0011400032,1610612760,OKC,Oklahoma City,Nick Collison,,DNP - Coach's Decision                  ,,,,,,,,,,,,,
0011400032,1610612760,OKC,Oklahoma City,201586,Serge Ibaka,,DNP - Coach's Decision                  ,,,,,,,0.0,,,,,,,0.0,,,2014-10-10T00:00:00,5,1610612760,OKC,Oklahoma City,1-1,28,26,29,35,0,0,0,0,0,0,0,0,0,0,118,0.481,0.75,0.462,22,46,20,0011400032,1610612760,OKC,Oklahoma City,Serge Ibaka,,DNP - Coach's Decision                  ,,,,,,,,,,,,,
0011400032,1610612760,OKC,Oklahoma City,201586,Serge Ibaka,,DNP - Coach's Decision                  ,,,,,,,0.0,,,,,,,0.0,,,2014-10-10T00:00:00,5,1610612742,DAL,Dallas,0-2,28,23,33,25,0,0,0,0,0,0,0,0,0,0,109,0.413,0.711,0.306,24,45,20,0011400032,1610612760,OKC,Oklahoma City,Serge Ibaka,,DNP - Coach's Decision                  ,,,,,,,,,,,,,
0011400032,1610612760,OKC,Oklahoma City,203511,Grant Jerrett,,NWT - Ankle Surgery                     ,,,,,,,0.0,,,,,,,0.0,,,2014-10-10T00:00:00,5,1610612760,OKC,Oklahoma City,1-1,28,26,29,35,0,0,0,0,0,0,0,0,0,0,118,0.481,0.75,0.462,22,46,20,0011400032,1610612760,OKC,Oklahoma City,Grant Jerrett,,NWT - Ankle Surgery                     ,,,,,,,,,,,,,
0011400032,1610612760,OKC,Oklahoma City,203511,Grant Jerrett,,NWT - Ankle Surgery                     ,,,,,,,0.0,,,,,,,0.0,,,2014-10-10T00:00:00,5,1610612742,DAL,Dallas,0-2,28,23,33,25,0,0,0,0,0,0,0,0,0,0,109,0.413,0.711,0.306,24,45,20,0011400032,1610612760,OKC,Oklahoma City,Grant Jerrett,,NWT - Ankle Surgery                     ,,,,,,,,,,,,,
0011400032,1610612760,OKC,Oklahoma City,203956,Mitch McGary,,DNP - Coach's Decision                  ,,,,,,,0.0,,,,,,,0.0,,,2014-10-10T00:00:00,5,1610612760,OKC,Oklahoma City,1-1,28,26,29,35,0,0,0,0,0,0,0,0,0,0,118,0.481,0.75,0.462,22,46,20,0011400032,1610612760,OKC,Oklahoma City,Mitch McGary,,DNP - Coach's Decision                  ,,,,,,,,,,,,,
0011400032,1610612760,OKC,Oklahoma City,203956,Mitch McGary,,DNP - Coach's Decision                  ,,,,,,,0.0,,,,,,,0.0,,,2014-10-10T00:00:00,5,1610612742,DAL,Dallas,0-2,28,23,33,25,0,0,0,0,0,0,0,0,0,0,109,0.413,0.711,0.306,24,45,20,0011400032,1610612760,OKC,Oklahoma City,Mitch McGary,,DNP - Coach's Decision                  ,,,,,,,,,,,,,
0011400032,1610612760,OKC,Oklahoma City,2570,Kendrick Perkins,,NWT - Quad Strain                       ,,,,,,,0.0,,,,,,,0.0,,,2014-10-10T00:00:00,5,1610612760,OKC,Oklahoma City,1-1,28,26,29,35,0,0,0,0,0,0,0,0,0,0,118,0.481,0.75,0.462,22,46,20,0011400032,1610612760,OKC,Oklahoma City,Kendrick Perkins,,NWT - Quad Strain                       ,,,,,,,,,,,,,
0011400032,1610612760,OKC,Oklahoma City,2570,Kendrick Perkins,,NWT - Quad Strain                       ,,,,,,,0.0,,,,,,,0.0,,,2014-10-10T00:00:00,5,1610612742,DAL,Dallas,0-2,28,23,33,25,0,0,0,0,0,0,0,0,0,0,109,0.413,0.711,0.306,24,45,20,0011400032,1610612760,OKC,Oklahoma City,Kendrick Perkins,,NWT - Quad Strain                       ,,,,,,,,,,,,,
0011400032,1610612760,OKC,Oklahoma City,204076,Richard Solomon,,NWT - Lower Back Spasms                 ,,,,,,,0.0,,,,,,,0.0,,,2014-10-10T00:00:00,5,1610612760,OKC,Oklahoma City,1-1,28,26,29,35,0,0,0,0,0,0,0,0,0,0,118,0.481,0.75,0.462,22,46,20,0011400032,1610612760,OKC,Oklahoma City,Richard Solomon,,NWT - Lower Back Spasms                 ,,,,,,,,,,,,,
0011400032,1610612760,OKC,Oklahoma City,204076,Richard Solomon,,NWT - Lower Back Spasms                 ,,,,,,,0.0,,,,,,,0.0,,,2014-10-10T00:00:00,5,1610612742,DAL,Dallas,0-2,28,23,33,25,0,0,0,0,0,0,0,0,0,0,109,0.413,0.711,0.306,24,45,20,0011400032,1610612760,OKC,Oklahoma City,Richard Solomon,,NWT - Lower Back Spasms                 ,,,,,,,,,,,,,
0011400032,1610612760,OKC,Oklahoma City,2742,Sebastian Telfair,,DNP - Coach's Decision                  ,,,,,,,0.0,,,,,,,0.0,,,2014-10-10T00:00:00,5,1610612760,OKC,Oklahoma City,1-1,28,26,29,35,0,0,0,0,0,0,0,0,0,0,118,0.481,0.75,0.462,22,46,20,0011400032,1610612760,OKC,Oklahoma City,Sebastian Telfair,,DNP - Coach's Decision                  ,,,,,,,,,,,,,
0011400032,1610612760,OKC,Oklahoma City,2742,Sebastian Telfair,,DNP - Coach's Decision                  ,,,,,,,0.0,,,,,,,0.0,,,2014-10-10T00:00:00,5,1610612742,DAL,Dallas,0-2,28,23,33,25,0,0,0,0,0,0,0,0,0,0,109,0.413,0.711,0.306,24,45,20,0011400032,1610612760,OKC,Oklahoma City,Sebastian Telfair,,DNP - Coach's Decision                  ,,,,,,,,,,,,,
0011400032,1610612742,DAL,Dallas,202718,Chandler Parsons,F,,20:01,100.1,112.9,-12.8,0.545,6.0,31.6,0.083,0.308,0.162,5.3,0.375,0.375,0.26,106.85,0.118,2014-10-10T00:00:00,5,1610612760,OKC,Oklahoma City,1-1,28,26,29,35,0,0,0,0,0,0,0,0,0,0,118,0.481,0.75,0.462,22,46,20,0011400032,1610612742,DAL,Dallas,Chandler Parsons,F,,20:01,0.0,0.0,2.0,6.0,7.0,2.0,8.0,18.0,0.0,2.0,3.0,1.0
0011400032,1610612742,DAL,Dallas,202718,Chandler Parsons,F,,20:01,100.1,112.9,-12.8,0.545,6.0,31.6,0.083,0.308,0.162,5.3,0.375,0.375,0.26,106.85,0.118,2014-10-10T00:00:00,5,1610612742,DAL,Dallas,0-2,28,23,33,25,0,0,0,0,0,0,0,0,0,0,109,0.413,0.711,0.306,24,45,20,0011400032,1610612742,DAL,Dallas,Chandler Parsons,F,,20:01,0.0,0.0,2.0,6.0,7.0,2.0,8.0,18.0,0.0,2.0,3.0,1.0
0011400032,1610612742,DAL,Dallas,202329,Al-Farouq Aminu,F,,19:48,110.5,113.7,-3.3,0.182,1.0,14.2,0.0,0.125,0.056,14.2,0.5,0.694,0.24,111.32,0.096,2014-10-10T00:00:00,5,1610612760,OKC,Oklahoma City,1-1,28,26,29,35,0,0,0,0,0,0,0,0,0,0,118,0.481,0.75,0.462,22,46,20,0011400032,1610612742,DAL,Dallas,Al-Farouq Aminu,F,,19:48,7.0,2.0,5.0,4.0,9.0,3.0,6.0,24.0,0.0,1.0,6.0,5.0
0011400032,1610612742,DAL,Dallas,202329,Al-Farouq Aminu,F,,19:48,110.5,113.7,-3.3,0.182,1.0,14.2,0.0,0.125,0.056,14.2,0.5,0.694,0.24,111.32,0.096,2014-10-10T00:00:00,5,1610612742,DAL,Dallas,0-2,28,23,33,25,0,0,0,0,0,0,0,0,0,0,109,0.413,0.711,0.306,24,45,20,0011400032,1610612742,DAL,Dallas,Al-Farouq Aminu,F,,19:48,7.0,2.0,5.0,4.0,9.0,3.0,6.0,24.0,0.0,1.0,6.0,5.0
0011400032,1610612742,DAL,Dallas,2199,Tyson Chandler,C,,20:34,98.7,110.0,-11.3,0.0,0.0,0.0,0.091,0.308,0.171,0.0,0.667,0.798,0.109,109.55,0.162,2014-10-10T00:00:00,5,1610612760,OKC,Oklahoma City,1-1,28,26,29,35,0,0,0,0,0,0,0,0,0,0,118,0.481,0.75,0.462,22,46,20,0011400032,1610612742,DAL,Dallas,Tyson Chandler,C,,20:34,2.0,2.0,0.0,4.0,7.0,2.0,6.0,18.0,0.0,0.0,0.0,4.0
0011400032,1610612742,DAL,Dallas,2199,Tyson Chandler,C,,20:34,98.7,110.0,-11.3,0.0,0.0,0.0,0.091,0.308,0.171,0.0,0.667,0.798,0.109,109.55,0.162,2014-10-10T00:00:00,5,1610612742,DAL,Dallas,0-2,28,23,33,25,0,0,0,0,0,0,0,0,0,0,109,0.413,0.711,0.306,24,45,20,0011400032,1610612742,DAL,Dallas,Tyson Chandler,C,,20:34,2.0,2.0,0.0,4.0,7.0,2.0,6.0,18.0,0.0,0.0,0.0,4.0
0011400032,1610612742,DAL,Dallas,203495,Ricky Ledo,G,,19:27,90.3,117.3,-27.0,0.083,0.33,9.1,0.042,0.071,0.053,27.3,0.571,0.571,0.187,115.55,0.018,2014-10-10T00:00:00,5,1610612760,OKC,Oklahoma City,1-1,28,26,29,35,0,0,0,0,0,0,0,0,0,0,118,0.481,0.75,0.462,22,46,20,0011400032,1610612742,DAL,Dallas,Ricky Ledo,G,,19:27,3.0,3.0,0.0,2.0,12.0,0.0,9.0,22.0,0.0,0.0,2.0,1.0
0011400032,1610612742,DAL,Dallas,203495,Ricky Ledo,G,,19:27,90.3,117.3,-27.0,0.083,0.33,9.1,0.042,0.071,0.053,27.3,0.571,0.571,0.187,115.55,0.018,2014-10-10T00:00:00,5,1610612742,DAL,Dallas,0-2,28,23,33,25,0,0,0,0,0,0,0,0,0,0,109,0.413,0.711,0.306,24,45,20,0011400032,1610612742,DAL,Dallas,Ricky Ledo,G,,19:27,3.0,3.0,0.0,2.0,12.0,0.0,9.0,22.0,0.0,0.0,2.0,1.0
0011400032,1610612742,DAL,Dallas,2749,Jameer Nelson,G,,24:22,107.5,110.9,-3.4,0.133,0.67,18.2,0.0,0.313,0.122,27.3,0.583,0.583,0.15,107.32,0.067,2014-10-10T00:00:00,5,1610612760,OKC,Oklahoma City,1-1,28,26,29,35,0,0,0,0,0,0,0,0,0,0,118,0.481,0.75,0.462,22,46,20,0011400032,1610612742,DAL,Dallas,Jameer Nelson,G,,24:22,5.0,0.0,5.0,4.0,8.0,5.0,6.0,18.0,0.0,0.0,2.0,2.0
0011400032,1610612742,DAL,Dallas,2749,Jameer Nelson,G,,24:22,107.5,110.9,-3.4,0.133,0.67,18.2,0.0,0.313,0.122,27.3,0.583,0.583,0.15,107.32,0.067,2014-10-10T00:00:00,5,1610612742,DAL,Dallas,0-2,28,23,33,25,0,0,0,0,0,0,0,0,0,0,109,0.413,0.711,0.306,24,45,20,0011400032,1610612742,DAL,Dallas,Jameer Nelson,G,,24:22,5.0,0.0,5.0,4.0,8.0,5.0,6.0,18.0,0.0,0.0,2.0,2.0
0011400032,1610612742,DAL,Dallas,2734,Devin Harris,,,23:10,112.7,91.8,20.8,0.471,4.0,44.7,0.0,0.1,0.048,11.2,0.357,0.444,0.178,108.61,0.116,2014-10-10T00:00:00,5,1610612760,OKC,Oklahoma City,1-1,28,26,29,35,0,0,0,0,0,0,0,0,0,0,118,0.481,0.75,0.462,22,46,20,0011400032,1610612742,DAL,Dallas,Devin Harris,,,23:10,0.0,0.0,5.0,0.0,6.0,5.0,5.0,10.0,0.0,0.0,2.0,2.0
0011400032,1610612742,DAL,Dallas,2734,Devin Harris,,,23:10,112.7,91.8,20.8,0.471,4.0,44.7,0.0,0.1,0.048,11.2,0.357,0.444,0.178,108.61,0.116,2014-10-10T00:00:00,5,1610612742,DAL,Dallas,0-2,28,23,33,25,0,0,0,0,0,0,0,0,0,0,109,0.413,0.711,0.306,24,45,20,0011400032,1610612742,DAL,Dallas,Devin Harris,,,23:10,0.0,0.0,5.0,0.0,6.0,5.0,5.0,10.0,0.0,0.0,2.0,2.0
0011400032,1610612742,DAL,Dallas,203109,Jae Crowder,,,22:22,95.9,91.3,4.6,0.083,1.0,7.6,0.0,0.105,0.048,7.6,0.5,0.632,0.228,106.57,0.122,2014-10-10T00:00:00,5,1610612760,OKC,Oklahoma City,1-1,28,26,29,35,0,0,0,0,0,0,0,0,0,0,118,0.481,0.75,0.462,22,46,20,0011400032,1610612742,DAL,Dallas,Jae Crowder,,,22:22,0.0,2.0,0.0,8.0,8.0,3.0,7.0,10.0,1.0,0.0,3.0,6.0
0011400032,1610612742,DAL,Dallas,203109,Jae Crowder,,,22:22,95.9,91.3,4.6,0.083,1.0,7.6,0.0,0.105,0.048,7.6,0.5,0.632,0.228,106.57,0.122,2014-10-10T00:00:00,5,1610612742,DAL,Dallas,0-2,28,23,33,25,0,0,0,0,0,0,0,0,0,0,109,0.413,0.711,0.306,24,45,20,0011400032,1610612742,DAL,Dallas,Jae Crowder,,,22:22,0.0,2.0,0.0,8.0,8.0,3.0,7.0,10.0,1.0,0.0,3.0,6.0
0011400032,1610612742,DAL,Dallas,201148,Brandan Wright,,,12:57,105.9,85.9,20.1,0.111,0.0,25.0,0.071,0.154,0.111,0.0,1.0,1.0,0.096,108.6,0.165,2014-10-10T00:00:00,5,1610612760,OKC,Oklahoma City,1-1,28,26,29,35,0,0,0,0,0,0,0,0,0,0,118,0.481,0.75,0.462,22,46,20,0011400032,1610612742,DAL,Dallas,Brandan Wright,,,12:57,0.0,0.0,0.0,6.0,6.0,3.0,5.0,8.0,1.0,0.0,2.0,0.0
0011400032,1610612742,DAL,Dallas,201148,Brandan Wright,,,12:57,105.9,85.9,20.1,0.111,0.0,25.0,0.071,0.154,0.111,0.0,1.0,1.0,0.096,108.6,0.165,2014-10-10T00:00:00,5,1610612742,DAL,Dallas,0-2,28,23,33,25,0,0,0,0,0,0,0,0,0,0,109,0.413,0.711,0.306,24,45,20,0011400032,1610612742,DAL,Dallas,Brandan Wright,,,12:57,0.0,0.0,0.0,6.0,6.0,3.0,5.0,8.0,1.0,0.0,2.0,0.0
0011400032,1610612742,DAL,Dallas,2210,Richard Jefferson,,,18:30,113.0,82.6,30.4,0.091,0.0,7.8,0.125,0.056,0.088,0.0,0.5,0.553,0.264,110.53,0.156,2014-10-10T00:00:00,5,1610612760,OKC,Oklahoma City,1-1,28,26,29,35,0,0,0,0,0,0,0,0,0,0,118,0.481,0.75,0.462,22,46,20,0011400032,1610612742,DAL,Dallas,Richard Jefferson,,,18:30,6.0,2.0,3.0,4.0,6.0,5.0,3.0,8.0,1.0,0.0,1.0,4.0
0011400032,1610612742,DAL,Dallas,2210,Richard Jefferson,,,18:30,113.0,82.6,30.4,0.091,0.0,7.8,0.125,0.056,0.088,0.0,0.5,0.553,0.264,110.53,0.156,2014-10-10T00:00:00,5,1610612742,DAL,Dallas,0-2,28,23,33,25,0,0,0,0,0,0,0,0,0,0,109,0.413,0.711,0.306,24,45,20,0011400032,1610612742,DAL,Dallas,Richard Jefferson,,,18:30,6.0,2.0,3.0,4.0,6.0,5.0,3.0,8.0,1.0,0.0,1.0,4.0
0011400032,1610612742,DAL,Dallas,101109,Raymond Felton,,,1:28,0.0,50.0,-50.0,0.0,0.0,0.0,0.0,0.0,0.0,0.0,0.0,0.0,0.25,130.91,0.0,2014-10-10T00:00:00,5,1610612760,OKC,Oklahoma City,1-1,28,26,29,35,0,0,0,0,0,0,0,0,0,0,118,0.481,0.75,0.462,22,46,20,0011400032,1610612742,DAL,Dallas,Raymond Felton,,,1:28,0.0,0.0,0.0,0.0,2.0,0.0,2.0,2.0,0.0,1.0,0.0,0.0
0011400032,1610612742,DAL,Dallas,101109,Raymond Felton,,,1:28,0.0,50.0,-50.0,0.0,0.0,0.0,0.0,0.0,0.0,0.0,0.0,0.0,0.25,130.91,0.0,2014-10-10T00:00:00,5,1610612742,DAL,Dallas,0-2,28,23,33,25,0,0,0,0,0,0,0,0,0,0,109,0.413,0.711,0.306,24,45,20,0011400032,1610612742,DAL,Dallas,Raymond Felton,,,1:28,0.0,0.0,0.0,0.0,2.0,0.0,2.0,2.0,0.0,1.0,0.0,0.0
0011400032,1610612742,DAL,Dallas,101111,Charlie Villanueva,,,10:04,89.6,95.1,-5.5,0.0,0.0,0.0,0.0,0.333,0.19,16.7,0.3,0.3,0.283,103.18,0.032,2014-10-10T00:00:00,5,1610612760,OKC,Oklahoma City,1-1,28,26,29,35,0,0,0,0,0,0,0,0,0,0,118,0.481,0.75,0.462,22,46,20,0011400032,1610612742,DAL,Dallas,Charlie Villanueva,,,10:04,0.0,0.0,0.0,0.0,6.0,0.0,4.0,4.0,0.0,0.0,2.0,0.0
0011400032,1610612742,DAL,Dallas,101111,Charlie Villanueva,,,10:04,89.6,95.1,-5.5,0.0,0.0,0.0,0.0,0.333,0.19,16.7,0.3,0.3,0.283,103.18,0.032,2014-10-10T00:00:00,5,1610612742,DAL,Dallas,0-2,28,23,33,25,0,0,0,0,0,0,0,0,0,0,109,0.413,0.711,0.306,24,45,20,0011400032,1610612742,DAL,Dallas,Charlie Villanueva,,,10:04,0.0,0.0,0.0,0.0,6.0,0.0,4.0,4.0,0.0,0.0,2.0,0.0
0011400032,1610612742,DAL,Dallas,202962,Greg Smith,,,5:41,98.4,101.0,-2.6,0.0,0.0,0.0,0.0,0.2,0.1,41.0,1.0,0.694,0.2,101.69,0.0,2014-10-10T00:00:00,5,1610612760,OKC,Oklahoma City,1-1,28,26,29,35,0,0,0,0,0,0,0,0,0,0,118,0.481,0.75,0.462,22,46,20,0011400032,1610612742,DAL,Dallas,Greg Smith,,,5:41,0.0,0.0,0.0,2.0,2.0,0.0,2.0,2.0,0.0,0.0,1.0,2.0
0011400032,1610612742,DAL,Dallas,202962,Greg Smith,,,5:41,98.4,101.0,-2.6,0.0,0.0,0.0,0.0,0.2,0.1,41.0,1.0,0.694,0.2,101.69,0.0,2014-10-10T00:00:00,5,1610612742,DAL,Dallas,0-2,28,23,33,25,0,0,0,0,0,0,0,0,0,0,109,0.413,0.711,0.306,24,45,20,0011400032,1610612742,DAL,Dallas,Greg Smith,,,5:41,0.0,0.0,0.0,2.0,2.0,0.0,2.0,2.0,0.0,0.0,1.0,2.0
0011400032,1610612742,DAL,Dallas,203117,Doron Lamb,,,12:00,88.9,128.9,-40.0,0.0,0.0,0.0,0.0,0.182,0.08,25.0,1.333,1.333,0.129,110.56,0.25,2014-10-10T00:00:00,5,1610612760,OKC,Oklahoma City,1-1,28,26,29,35,0,0,0,0,0,0,0,0,0,0,118,0.481,0.75,0.462,22,46,20,0011400032,1610612742,DAL,Dallas,Doron Lamb,,,12:00,3.0,0.0,0.0,0.0,10.0,3.0,4.0,10.0,0.0,0.0,2.0,0.0
0011400032,1610612742,DAL,Dallas,203117,Doron Lamb,,,12:00,88.9,128.9,-40.0,0.0,0.0,0.0,0.0,0.182,0.08,25.0,1.333,1.333,0.129,110.56,0.25,2014-10-10T00:00:00,5,1610612742,DAL,Dallas,0-2,28,23,33,25,0,0,0,0,0,0,0,0,0,0,109,0.413,0.711,0.306,24,45,20,0011400032,1610612742,DAL,Dallas,Doron Lamb,,,12:00,3.0,0.0,0.0,0.0,10.0,3.0,4.0,10.0,0.0,0.0,2.0,0.0
0011400032,1610612742,DAL,Dallas,203539,Gal Mekel,,,12:00,88.9,128.9,-40.0,0.4,0.67,28.6,0.071,0.0,0.04,42.9,0.0,0.0,0.161,110.56,-0.089,2014-10-10T00:00:00,5,1610612760,OKC,Oklahoma City,1-1,28,26,29,35,0,0,0,0,0,0,0,0,0,0,118,0.481,0.75,0.462,22,46,20,0011400032,1610612742,DAL,Dallas,Gal Mekel,,,12:00,0.0,0.0,0.0,0.0,10.0,3.0,4.0,10.0,0.0,1.0,1.0,0.0
0011400032,1610612742,DAL,Dallas,203539,Gal Mekel,,,12:00,88.9,128.9,-40.0,0.4,0.67,28.6,0.071,0.0,0.04,42.9,0.0,0.0,0.161,110.56,-0.089,2014-10-10T00:00:00,5,1610612742,DAL,Dallas,0-2,28,23,33,25,0,0,0,0,0,0,0,0,0,0,109,0.413,0.711,0.306,24,45,20,0011400032,1610612742,DAL,Dallas,Gal Mekel,,,12:00,0.0,0.0,0.0,0.0,10.0,3.0,4.0,10.0,0.0,1.0,1.0,0.0
0011400032,1610612742,DAL,Dallas,203547,Eric Griffin,,,8:48,96.9,132.3,-35.5,0.0,0.0,0.0,0.0,0.222,0.105,0.0,0.0,0.089,0.229,116.84,-0.368,2014-10-10T00:00:00,5,1610612760,OKC,Oklahoma City,1-1,28,26,29,35,0,0,0,0,0,0,0,0,0,0,118,0.481,0.75,0.462,22,46,20,0011400032,1610612742,DAL,Dallas,Eric Griffin,,,8:48,0.0,0.0,0.0,0.0,8.0,3.0,2.0,8.0,0.0,1.0,2.0,3.0
0011400032,1610612742,DAL,Dallas,203547,Eric Griffin,,,8:48,96.9,132.3,-35.5,0.0,0.0,0.0,0.0,0.222,0.105,0.0,0.0,0.089,0.229,116.84,-0.368,2014-10-10T00:00:00,5,1610612742,DAL,Dallas,0-2,28,23,33,25,0,0,0,0,0,0,0,0,0,0,109,0.413,0.711,0.306,24,45,20,0011400032,1610612742,DAL,Dallas,Eric Griffin,,,8:48,0.0,0.0,0.0,0.0,8.0,3.0,2.0,8.0,0.0,1.0,2.0,3.0
0011400032,1610612742,DAL,Dallas,201274,Ivan Johnson,,,8:48,96.9,132.3,-35.5,0.0,0.0,0.0,0.2,0.222,0.211,21.6,0.0,0.549,0.376,116.84,0.0,2014-10-10T00:00:00,5,1610612760,OKC,Oklahoma City,1-1,28,26,29,35,0,0,0,0,0,0,0,0,0,0,118,0.481,0.75,0.462,22,46,20,0011400032,1610612742,DAL,Dallas,Ivan Johnson,,,8:48,2.0,5.0,0.0,0.0,8.0,3.0,2.0,8.0,0.0,0.0,3.0,6.0
0011400032,1610612742,DAL,Dallas,201274,Ivan Johnson,,,8:48,96.9,132.3,-35.5,0.0,0.0,0.0,0.2,0.222,0.211,21.6,0.0,0.549,0.376,116.84,0.0,2014-10-10T00:00:00,5,1610612742,DAL,Dallas,0-2,28,23,33,25,0,0,0,0,0,0,0,0,0,0,109,0.413,0.711,0.306,24,45,20,0011400032,1610612742,DAL,Dallas,Ivan Johnson,,,8:48,2.0,5.0,0.0,0.0,8.0,3.0,2.0,8.0,0.0,0.0,3.0,6.0
0011400032,1610612742,DAL,Dallas,101145,Monta Ellis,,DNP - Coach's Decision                  ,,,,,,,0.0,,,,,,,0.0,,,2014-10-10T00:00:00,5,1610612760,OKC,Oklahoma City,1-1,28,26,29,35,0,0,0,0,0,0,0,0,0,0,118,0.481,0.75,0.462,22,46,20,0011400032,1610612742,DAL,Dallas,Monta Ellis,,DNP - Coach's Decision                  ,,,,,,,,,,,,,
0011400032,1610612742,DAL,Dallas,101145,Monta Ellis,,DNP - Coach's Decision                  ,,,,,,,0.0,,,,,,,0.0,,,2014-10-10T00:00:00,5,1610612742,DAL,Dallas,0-2,28,23,33,25,0,0,0,0,0,0,0,0,0,0,109,0.413,0.711,0.306,24,45,20,0011400032,1610612742,DAL,Dallas,Monta Ellis,,DNP - Coach's Decision                  ,,,,,,,,,,,,,
0011400032,1610612742,DAL,Dallas,203108,Bernard James,,DNP - Coach's Decision                  ,,,,,,,0.0,,,,,,,0.0,,,2014-10-10T00:00:00,5,1610612760,OKC,Oklahoma City,1-1,28,26,29,35,0,0,0,0,0,0,0,0,0,0,118,0.481,0.75,0.462,22,46,20,0011400032,1610612742,DAL,Dallas,Bernard James,,DNP - Coach's Decision                  ,,,,,,,,,,,,,
0011400032,1610612742,DAL,Dallas,203108,Bernard James,,DNP - Coach's Decision                  ,,,,,,,0.0,,,,,,,0.0,,,2014-10-10T00:00:00,5,1610612742,DAL,Dallas,0-2,28,23,33,25,0,0,0,0,0,0,0,0,0,0,109,0.413,0.711,0.306,24,45,20,0011400032,1610612742,DAL,Dallas,Bernard James,,DNP - Coach's Decision                  ,,,,,,,,,,,,,
0011400032,1610612742,DAL,Dallas,1717,Dirk Nowitzki,,DNP - Coach's Decision                  ,,,,,,,0.0,,,,,,,0.0,,,2014-10-10T00:00:00,5,1610612760,OKC,Oklahoma City,1-1,28,26,29,35,0,0,0,0,0,0,0,0,0,0,118,0.481,0.75,0.462,22,46,20,0011400032,1610612742,DAL,Dallas,Dirk Nowitzki,,DNP - Coach's Decision                  ,,,,,,,,,,,,,
0011400032,1610612742,DAL,Dallas,1717,Dirk Nowitzki,,DNP - Coach's Decision                  ,,,,,,,0.0,,,,,,,0.0,,,2014-10-10T00:00:00,5,1610612742,DAL,Dallas,0-2,28,23,33,25,0,0,0,0,0,0,0,0,0,0,109,0.413,0.711,0.306,24,45,20,0011400032,1610612742,DAL,Dallas,Dirk Nowitzki,,DNP - Coach's Decision                  ,,,,,,,,,,,,,
