GAME_ID_x,TEAM_ID_x,TEAM_ABBREVIATION_x,TEAM_CITY_x,PLAYER_ID,PLAYER_NAME_x,START_POSITION_x,COMMENT_x,MIN_x,OFF_RATING,DEF_RATING,NET_RATING,AST_PCT,AST_TOV,AST_RATIO,OREB_PCT,DREB_PCT,REB_PCT,TM_TOV_PCT,EFG_PCT,TS_PCT,USG_PCT,PACE,PIE,GAME_DATE_EST,GAME_SEQUENCE,TEAM_ID_y,TEAM_ABBREVIATION_y,TEAM_CITY_NAME,TEAM_WINS_LOSSES,PTS_QTR1,PTS_QTR2,PTS_QTR3,PTS_QTR4,PTS_OT1,PTS_OT2,PTS_OT3,PTS_OT4,PTS_OT5,PTS_OT6,PTS_OT7,PTS_OT8,PTS_OT9,PTS_OT10,PTS,FG_PCT,FT_PCT,FG3_PCT,AST,REB,TOV,GAME_ID_y,TEAM_ID,TEAM_ABBREVIATION,TEAM_CITY_y,PLAYER_NAME_y,START_POSITION_y,COMMENT_y,MIN_y,PTS_OFF_TOV,PTS_2ND_CHANCE,PTS_FB,PTS_PAINT,OPP_PTS_OFF_TOV,OPP_PTS_2ND_CHANCE,OPP_PTS_FB,OPP_PTS_PAINT,BLK,BLKA,PF,PFD
0011400049,1610612749,MIL,Milwaukee,203953,Jabari Parker,F,,28:04,85.6,121.0,-35.4,0.182,1.0,11.0,0.0,0.13,0.062,11.0,0.583,0.634,0.251,99.74,0.115,2014-10-14T00:00:00,2,1610612749,MIL,Milwaukee,1-3,27,26,26,21,0,0,0,0,0,0,0,0,0,0,100,0.468,0.826,0.412,28,37,13,0011400049,1610612749,MIL,Milwaukee,Jabari Parker,F,,28:04,5.0,0.0,3.0,10.0,16.0,2.0,14.0,20.0,0.0,0.0,5.0,4.0
0011400049,1610612749,MIL,Milwaukee,203953,Jabari Parker,F,,28:04,85.6,121.0,-35.4,0.182,1.0,11.0,0.0,0.13,0.062,11.0,0.583,0.634,0.251,99.74,0.115,2014-10-14T00:00:00,2,1610612739,CLE,Cleveland,3-0,31,20,30,25,0,0,0,0,0,0,0,0,0,0,106,0.453,0.893,0.382,26,37,16,0011400049,1610612749,MIL,Milwaukee,Jabari Parker,F,,28:04,5.0,0.0,3.0,10.0,16.0,2.0,14.0,20.0,0.0,0.0,5.0,4.0
0011400049,1610612749,MIL,Milwaukee,101141,Ersan Ilyasova,F,,26:54,90.6,86.1,4.6,0.071,0.0,8.4,0.091,0.259,0.184,0.0,0.45,0.46,0.178,97.93,0.141,2014-10-14T00:00:00,2,1610612749,MIL,Milwaukee,1-3,27,26,26,21,0,0,0,0,0,0,0,0,0,0,100,0.468,0.826,0.412,28,37,13,0011400049,1610612749,MIL,Milwaukee,Ersan Ilyasova,F,,26:54,0.0,0.0,0.0,4.0,4.0,5.0,4.0,12.0,0.0,1.0,3.0,2.0
0011400049,1610612749,MIL,Milwaukee,101141,Ersan Ilyasova,F,,26:54,90.6,86.1,4.6,0.071,0.0,8.4,0.091,0.259,0.184,0.0,0.45,0.46,0.178,97.93,0.141,2014-10-14T00:00:00,2,1610612739,CLE,Cleveland,3-0,31,20,30,25,0,0,0,0,0,0,0,0,0,0,106,0.453,0.893,0.382,26,37,16,0011400049,1610612749,MIL,Milwaukee,Ersan Ilyasova,F,,26:54,0.0,0.0,0.0,4.0,4.0,5.0,4.0,12.0,0.0,1.0,3.0,2.0
0011400049,1610612749,MIL,Milwaukee,2585,Zaza Pachulia,C,,23:31,97.5,90.5,7.0,0.25,1.5,19.0,0.15,0.091,0.119,12.7,0.444,0.558,0.245,97.73,0.167,2014-10-14T00:00:00,2,1610612749,MIL,Milwaukee,1-3,27,26,26,21,0,0,0,0,0,0,0,0,0,0,100,0.468,0.826,0.412,28,37,13,0011400049,1610612749,MIL,Milwaukee,Zaza Pachulia,C,,23:31,2.0,4.0,0.0,6.0,1.0,5.0,4.0,12.0,1.0,1.0,4.0,2.0
0011400049,1610612749,MIL,Milwaukee,2585,Zaza Pachulia,C,,23:31,97.5,90.5,7.0,0.25,1.5,19.0,0.15,0.091,0.119,12.7,0.444,0.558,0.245,97.73,0.167,2014-10-14T00:00:00,2,1610612739,CLE,Cleveland,3-0,31,20,30,25,0,0,0,0,0,0,0,0,0,0,106,0.453,0.893,0.382,26,37,16,0011400049,1610612749,MIL,Milwaukee,Zaza Pachulia,C,,23:31,2.0,4.0,0.0,6.0,1.0,5.0,4.0,12.0,1.0,1.0,4.0,2.0
0011400049,1610612749,MIL,Milwaukee,203114,Khris Middleton,G,,26:19,95.4,127.4,-32.0,0.231,0.0,20.2,0.0,0.105,0.047,0.0,0.364,0.421,0.207,96.74,0.075,2014-10-14T00:00:00,2,1610612749,MIL,Milwaukee,1-3,27,26,26,21,0,0,0,0,0,0,0,0,0,0,100,0.468,0.826,0.412,28,37,13,0011400049,1610612749,MIL,Milwaukee,Khris Middleton,G,,26:19,2.0,0.0,6.0,6.0,9.0,2.0,14.0,20.0,1.0,1.0,2.0,1.0
0011400049,1610612749,MIL,Milwaukee,203114,Khris Middleton,G,,26:19,95.4,127.4,-32.0,0.231,0.0,20.2,0.0,0.105,0.047,0.0,0.364,0.421,0.207,96.74,0.075,2014-10-14T00:00:00,2,1610612739,CLE,Cleveland,3-0,31,20,30,25,0,0,0,0,0,0,0,0,0,0,106,0.453,0.893,0.382,26,37,16,0011400049,1610612749,MIL,Milwaukee,Khris Middleton,G,,26:19,2.0,0.0,6.0,6.0,9.0,2.0,14.0,20.0,1.0,1.0,2.0,1.0
0011400049,1610612749,MIL,Milwaukee,203507,Giannis Antetokounmpo,G,,22:36,81.3,96.8,-15.5,0.0,0.0,0.0,0.0,0.222,0.098,12.9,0.0,0.296,0.15,96.76,-0.043,2014-10-14T00:00:00,2,1610612749,MIL,Milwaukee,1-3,27,26,26,21,0,0,0,0,0,0,0,0,0,0,100,0.468,0.826,0.412,28,37,13,0011400049,1610612749,MIL,Milwaukee,Giannis Antetokounmpo,G,,22:36,0.0,0.0,0.0,0.0,6.0,0.0,9.0,12.0,1.0,0.0,5.0,5.0
0011400049,1610612749,MIL,Milwaukee,203507,Giannis Antetokounmpo,G,,22:36,81.3,96.8,-15.5,0.0,0.0,0.0,0.0,0.222,0.098,12.9,0.0,0.296,0.15,96.76,-0.043,2014-10-14T00:00:00,2,1610612739,CLE,Cleveland,3-0,31,20,30,25,0,0,0,0,0,0,0,0,0,0,106,0.453,0.893,0.382,26,37,16,0011400049,1610612749,MIL,Milwaukee,Giannis Antetokounmpo,G,,22:36,0.0,0.0,0.0,0.0,6.0,0.0,9.0,12.0,1.0,0.0,5.0,5.0
0011400049,1610612749,MIL,Milwaukee,203489,Nate Wolters,,,19:44,128.7,147.1,-18.3,0.188,0.0,30.0,0.0,0.067,0.038,0.0,0.286,0.286,0.176,91.9,0.02,2014-10-14T00:00:00,2,1610612749,MIL,Milwaukee,1-3,27,26,26,21,0,0,0,0,0,0,0,0,0,0,100,0.468,0.826,0.412,28,37,13,0011400049,1610612749,MIL,Milwaukee,Nate Wolters,,,19:44,0.0,0.0,0.0,4.0,10.0,4.0,5.0,18.0,0.0,0.0,1.0,0.0
0011400049,1610612749,MIL,Milwaukee,203489,Nate Wolters,,,19:44,128.7,147.1,-18.3,0.188,0.0,30.0,0.0,0.067,0.038,0.0,0.286,0.286,0.176,91.9,0.02,2014-10-14T00:00:00,2,1610612739,CLE,Cleveland,3-0,31,20,30,25,0,0,0,0,0,0,0,0,0,0,106,0.453,0.893,0.382,26,37,16,0011400049,1610612749,MIL,Milwaukee,Nate Wolters,,,19:44,0.0,0.0,0.0,4.0,10.0,4.0,5.0,18.0,0.0,0.0,1.0,0.0
0011400049,1610612749,MIL,Milwaukee,201573,Jerryd Bayless,,,25:03,106.8,98.6,8.2,0.409,2.25,53.3,0.0,0.1,0.057,23.7,0.0,0.129,0.15,95.2,0.053,2014-10-14T00:00:00,2,1610612749,MIL,Milwaukee,1-3,27,26,26,21,0,0,0,0,0,0,0,0,0,0,100,0.468,0.826,0.412,28,37,13,0011400049,1610612749,MIL,Milwaukee,Jerryd Bayless,,,25:03,0.0,0.0,0.0,0.0,12.0,7.0,5.0,12.0,0.0,1.0,1.0,1.0
0011400049,1610612749,MIL,Milwaukee,201573,Jerryd Bayless,,,25:03,106.8,98.6,8.2,0.409,2.25,53.3,0.0,0.1,0.057,23.7,0.0,0.129,0.15,95.2,0.053,2014-10-14T00:00:00,2,1610612739,CLE,Cleveland,3-0,31,20,30,25,0,0,0,0,0,0,0,0,0,0,106,0.453,0.893,0.382,26,37,16,0011400049,1610612749,MIL,Milwaukee,Jerryd Bayless,,,25:03,0.0,0.0,0.0,0.0,12.0,7.0,5.0,12.0,0.0,1.0,1.0,1.0
0011400049,1610612749,MIL,Milwaukee,203089,John Henson,,,24:29,110.3,132.7,-22.4,0.067,0.25,7.2,0.063,0.313,0.188,28.8,0.75,0.732,0.253,93.79,0.089,2014-10-14T00:00:00,2,1610612749,MIL,Milwaukee,1-3,27,26,26,21,0,0,0,0,0,0,0,0,0,0,100,0.468,0.826,0.412,28,37,13,0011400049,1610612749,MIL,Milwaukee,John Henson,,,24:29,0.0,2.0,0.0,10.0,15.0,4.0,10.0,18.0,2.0,0.0,3.0,2.0
0011400049,1610612749,MIL,Milwaukee,203089,John Henson,,,24:29,110.3,132.7,-22.4,0.067,0.25,7.2,0.063,0.313,0.188,28.8,0.75,0.732,0.253,93.79,0.089,2014-10-14T00:00:00,2,1610612739,CLE,Cleveland,3-0,31,20,30,25,0,0,0,0,0,0,0,0,0,0,106,0.453,0.893,0.382,26,37,16,0011400049,1610612749,MIL,Milwaukee,John Henson,,,24:29,0.0,2.0,0.0,10.0,15.0,4.0,10.0,18.0,2.0,0.0,3.0,2.0
0011400049,1610612749,MIL,Milwaukee,201162,Jared Dudley,,,23:24,130.3,121.0,9.2,0.056,0.0,14.3,0.0,0.133,0.071,0.0,1.25,1.25,0.129,94.81,0.141,2014-10-14T00:00:00,2,1610612749,MIL,Milwaukee,1-3,27,26,26,21,0,0,0,0,0,0,0,0,0,0,100,0.468,0.826,0.412,28,37,13,0011400049,1610612749,MIL,Milwaukee,Jared Dudley,,,23:24,0.0,0.0,0.0,0.0,7.0,9.0,5.0,16.0,0.0,0.0,2.0,0.0
0011400049,1610612749,MIL,Milwaukee,201162,Jared Dudley,,,23:24,130.3,121.0,9.2,0.056,0.0,14.3,0.0,0.133,0.071,0.0,1.25,1.25,0.129,94.81,0.141,2014-10-14T00:00:00,2,1610612739,CLE,Cleveland,3-0,31,20,30,25,0,0,0,0,0,0,0,0,0,0,106,0.453,0.893,0.382,26,37,16,0011400049,1610612749,MIL,Milwaukee,Jared Dudley,,,23:24,0.0,0.0,0.0,0.0,7.0,9.0,5.0,16.0,0.0,0.0,2.0,0.0
0011400049,1610612749,MIL,Milwaukee,201564,O.J. Mayo,,,19:56,134.2,96.7,37.5,0.357,0.0,36.0,0.091,0.133,0.115,0.0,0.688,0.732,0.231,90.06,0.202,2014-10-14T00:00:00,2,1610612749,MIL,Milwaukee,1-3,27,26,26,21,0,0,0,0,0,0,0,0,0,0,100,0.468,0.826,0.412,28,37,13,0011400049,1610612749,MIL,Milwaukee,O.J. Mayo,,,19:56,2.0,0.0,2.0,2.0,0.0,7.0,0.0,10.0,0.0,1.0,1.0,2.0
0011400049,1610612749,MIL,Milwaukee,201564,O.J. Mayo,,,19:56,134.2,96.7,37.5,0.357,0.0,36.0,0.091,0.133,0.115,0.0,0.688,0.732,0.231,90.06,0.202,2014-10-14T00:00:00,2,1610612739,CLE,Cleveland,3-0,31,20,30,25,0,0,0,0,0,0,0,0,0,0,106,0.453,0.893,0.382,26,37,16,0011400049,1610612749,MIL,Milwaukee,O.J. Mayo,,,19:56,2.0,0.0,2.0,2.0,0.0,7.0,0.0,10.0,0.0,1.0,1.0,2.0
0011400049,1610612749,MIL,Milwaukee,203149,Micheal Eric,,DNP - Coach's Decision                  ,,,,,,,0.0,,,,,,,0.0,,,2014-10-14T00:00:00,2,1610612749,MIL,Milwaukee,1-3,27,26,26,21,0,0,0,0,0,0,0,0,0,0,100,0.468,0.826,0.412,28,37,13,0011400049,1610612749,MIL,Milwaukee,Micheal Eric,,DNP - Coach's Decision                  ,,,,,,,,,,,,,
0011400049,1610612749,MIL,Milwaukee,203149,Micheal Eric,,DNP - Coach's Decision                  ,,,,,,,0.0,,,,,,,0.0,,,2014-10-14T00:00:00,2,1610612739,CLE,Cleveland,3-0,31,20,30,25,0,0,0,0,0,0,0,0,0,0,106,0.453,0.893,0.382,26,37,16,0011400049,1610612749,MIL,Milwaukee,Micheal Eric,,DNP - Coach's Decision                  ,,,,,,,,,,,,,
0011400049,1610612749,MIL,Milwaukee,203996,Damien Inglis,,DNP - Coach's Decision                  ,,,,,,,0.0,,,,,,,0.0,,,2014-10-14T00:00:00,2,1610612749,MIL,Milwaukee,1-3,27,26,26,21,0,0,0,0,0,0,0,0,0,0,100,0.468,0.826,0.412,28,37,13,0011400049,1610612749,MIL,Milwaukee,Damien Inglis,,DNP - Coach's Decision                  ,,,,,,,,,,,,,
0011400049,1610612749,MIL,Milwaukee,203996,Damien Inglis,,DNP - Coach's Decision                  ,,,,,,,0.0,,,,,,,0.0,,,2014-10-14T00:00:00,2,1610612739,CLE,Cleveland,3-0,31,20,30,25,0,0,0,0,0,0,0,0,0,0,106,0.453,0.893,0.382,26,37,16,0011400049,1610612749,MIL,Milwaukee,Damien Inglis,,DNP - Coach's Decision                  ,,,,,,,,,,,,,
0011400049,1610612749,MIL,Milwaukee,202688,Brandon Knight,,DNP - Coach's Decision                  ,,,,,,,0.0,,,,,,,0.0,,,2014-10-14T00:00:00,2,1610612749,MIL,Milwaukee,1-3,27,26,26,21,0,0,0,0,0,0,0,0,0,0,100,0.468,0.826,0.412,28,37,13,0011400049,1610612749,MIL,Milwaukee,Brandon Knight,,DNP - Coach's Decision                  ,,,,,,,,,,,,,
0011400049,1610612749,MIL,Milwaukee,202688,Brandon Knight,,DNP - Coach's Decision                  ,,,,,,,0.0,,,,,,,0.0,,,2014-10-14T00:00:00,2,1610612739,CLE,Cleveland,3-0,31,20,30,25,0,0,0,0,0,0,0,0,0,0,106,0.453,0.893,0.382,26,37,16,0011400049,1610612749,MIL,Milwaukee,Brandon Knight,,DNP - Coach's Decision                  ,,,,,,,,,,,,,
0011400049,1610612749,MIL,Milwaukee,203088,Kendall Marshall,,DNP - Coach's Decision                  ,,,,,,,0.0,,,,,,,0.0,,,2014-10-14T00:00:00,2,1610612749,MIL,Milwaukee,1-3,27,26,26,21,0,0,0,0,0,0,0,0,0,0,100,0.468,0.826,0.412,28,37,13,0011400049,1610612749,MIL,Milwaukee,Kendall Marshall,,DNP - Coach's Decision                  ,,,,,,,,,,,,,
0011400049,1610612749,MIL,Milwaukee,203088,Kendall Marshall,,DNP - Coach's Decision                  ,,,,,,,0.0,,,,,,,0.0,,,2014-10-14T00:00:00,2,1610612739,CLE,Cleveland,3-0,31,20,30,25,0,0,0,0,0,0,0,0,0,0,106,0.453,0.893,0.382,26,37,16,0011400049,1610612749,MIL,Milwaukee,Kendall Marshall,,DNP - Coach's Decision                  ,,,,,,,,,,,,,
0011400049,1610612749,MIL,Milwaukee,202407,Elijah Millsap,,DNP - Coach's Decision                  ,,,,,,,0.0,,,,,,,0.0,,,2014-10-14T00:00:00,2,1610612749,MIL,Milwaukee,1-3,27,26,26,21,0,0,0,0,0,0,0,0,0,0,100,0.468,0.826,0.412,28,37,13,0011400049,1610612749,MIL,Milwaukee,Elijah Millsap,,DNP - Coach's Decision                  ,,,,,,,,,,,,,
0011400049,1610612749,MIL,Milwaukee,202407,Elijah Millsap,,DNP - Coach's Decision                  ,,,,,,,0.0,,,,,,,0.0,,,2014-10-14T00:00:00,2,1610612739,CLE,Cleveland,3-0,31,20,30,25,0,0,0,0,0,0,0,0,0,0,106,0.453,0.893,0.382,26,37,16,0011400049,1610612749,MIL,Milwaukee,Elijah Millsap,,DNP - Coach's Decision                  ,,,,,,,,,,,,,
0011400049,1610612749,MIL,Milwaukee,203948,Johnny O'Bryant III,,DNP - Coach's Decision                  ,,,,,,,0.0,,,,,,,0.0,,,2014-10-14T00:00:00,2,1610612749,MIL,Milwaukee,1-3,27,26,26,21,0,0,0,0,0,0,0,0,0,0,100,0.468,0.826,0.412,28,37,13,0011400049,1610612749,MIL,Milwaukee,Johnny O'Bryant III,,DNP - Coach's Decision                  ,,,,,,,,,,,,,
0011400049,1610612749,MIL,Milwaukee,203948,Johnny O'Bryant III,,DNP - Coach's Decision                  ,,,,,,,0.0,,,,,,,0.0,,,2014-10-14T00:00:00,2,1610612739,CLE,Cleveland,3-0,31,20,30,25,0,0,0,0,0,0,0,0,0,0,106,0.453,0.893,0.382,26,37,16,0011400049,1610612749,MIL,Milwaukee,Johnny O'Bryant III,,DNP - Coach's Decision                  ,,,,,,,,,,,,,
0011400049,1610612749,MIL,Milwaukee,202336,Larry Sanders,,DNP - Coach's Decision                  ,,,,,,,0.0,,,,,,,0.0,,,2014-10-14T00:00:00,2,1610612749,MIL,Milwaukee,1-3,27,26,26,21,0,0,0,0,0,0,0,0,0,0,100,0.468,0.826,0.412,28,37,13,0011400049,1610612749,MIL,Milwaukee,Larry Sanders,,DNP - Coach's Decision                  ,,,,,,,,,,,,,
0011400049,1610612749,MIL,Milwaukee,202336,Larry Sanders,,DNP - Coach's Decision                  ,,,,,,,0.0,,,,,,,0.0,,,2014-10-14T00:00:00,2,1610612739,CLE,Cleveland,3-0,31,20,30,25,0,0,0,0,0,0,0,0,0,0,106,0.453,0.893,0.382,26,37,16,0011400049,1610612749,MIL,Milwaukee,Larry Sanders,,DNP - Coach's Decision                  ,,,,,,,,,,,,,
0011400049,1610612749,MIL,Milwaukee,202874,Chris Wright,,DNP - Coach's Decision                  ,,,,,,,0.0,,,,,,,0.0,,,2014-10-14T00:00:00,2,1610612749,MIL,Milwaukee,1-3,27,26,26,21,0,0,0,0,0,0,0,0,0,0,100,0.468,0.826,0.412,28,37,13,0011400049,1610612749,MIL,Milwaukee,Chris Wright,,DNP - Coach's Decision                  ,,,,,,,,,,,,,
0011400049,1610612749,MIL,Milwaukee,202874,Chris Wright,,DNP - Coach's Decision                  ,,,,,,,0.0,,,,,,,0.0,,,2014-10-14T00:00:00,2,1610612739,CLE,Cleveland,3-0,31,20,30,25,0,0,0,0,0,0,0,0,0,0,106,0.453,0.893,0.382,26,37,16,0011400049,1610612749,MIL,Milwaukee,Chris Wright,,DNP - Coach's Decision                  ,,,,,,,,,,,,,
0011400049,1610612739,CLE,Cleveland,1890,Shawn Marion,F,,26:59,119.8,114.5,5.3,0.063,0.5,9.4,0.158,0.211,0.184,18.8,0.6,0.72,0.169,93.46,0.121,2014-10-14T00:00:00,2,1610612749,MIL,Milwaukee,1-3,27,26,26,21,0,0,0,0,0,0,0,0,0,0,100,0.468,0.826,0.412,28,37,13,0011400049,1610612739,CLE,Cleveland,Shawn Marion,F,,26:59,1.0,4.0,2.0,6.0,9.0,6.0,7.0,26.0,1.0,0.0,1.0,4.0
0011400049,1610612739,CLE,Cleveland,1890,Shawn Marion,F,,26:59,119.8,114.5,5.3,0.063,0.5,9.4,0.158,0.211,0.184,18.8,0.6,0.72,0.169,93.46,0.121,2014-10-14T00:00:00,2,1610612739,CLE,Cleveland,3-0,31,20,30,25,0,0,0,0,0,0,0,0,0,0,106,0.453,0.893,0.382,26,37,16,0011400049,1610612739,CLE,Cleveland,Shawn Marion,F,,26:59,1.0,4.0,2.0,6.0,9.0,6.0,7.0,26.0,1.0,0.0,1.0,4.0
0011400049,1610612739,CLE,Cleveland,201567,Kevin Love,F,,20:44,135.2,84.9,50.3,0.182,1.0,11.9,0.0,0.235,0.125,11.9,0.955,0.98,0.32,97.88,0.333,2014-10-14T00:00:00,2,1610612749,MIL,Milwaukee,1-3,27,26,26,21,0,0,0,0,0,0,0,0,0,0,100,0.468,0.826,0.412,28,37,13,0011400049,1610612739,CLE,Cleveland,Kevin Love,F,,20:44,7.0,2.0,0.0,4.0,3.0,2.0,7.0,16.0,0.0,0.0,1.0,6.0
0011400049,1610612739,CLE,Cleveland,201567,Kevin Love,F,,20:44,135.2,84.9,50.3,0.182,1.0,11.9,0.0,0.235,0.125,11.9,0.955,0.98,0.32,97.88,0.333,2014-10-14T00:00:00,2,1610612739,CLE,Cleveland,3-0,31,20,30,25,0,0,0,0,0,0,0,0,0,0,106,0.453,0.893,0.382,26,37,16,0011400049,1610612739,CLE,Cleveland,Kevin Love,F,,20:44,7.0,2.0,0.0,4.0,3.0,2.0,7.0,16.0,0.0,0.0,1.0,6.0
0011400049,1610612739,CLE,Cleveland,2760,Anderson Varejao,C,,23:16,123.8,99.4,24.4,0.063,1.0,10.1,0.111,0.125,0.118,10.1,0.286,0.381,0.171,97.29,0.034,2014-10-14T00:00:00,2,1610612749,MIL,Milwaukee,1-3,27,26,26,21,0,0,0,0,0,0,0,0,0,0,100,0.468,0.826,0.412,28,37,13,0011400049,1610612739,CLE,Cleveland,Anderson Varejao,C,,23:16,0.0,0.0,0.0,4.0,5.0,4.0,7.0,20.0,0.0,1.0,2.0,3.0
0011400049,1610612739,CLE,Cleveland,2760,Anderson Varejao,C,,23:16,123.8,99.4,24.4,0.063,1.0,10.1,0.111,0.125,0.118,10.1,0.286,0.381,0.171,97.29,0.034,2014-10-14T00:00:00,2,1610612739,CLE,Cleveland,3-0,31,20,30,25,0,0,0,0,0,0,0,0,0,0,106,0.453,0.893,0.382,26,37,16,0011400049,1610612739,CLE,Cleveland,Anderson Varejao,C,,23:16,0.0,0.0,0.0,4.0,5.0,4.0,7.0,20.0,0.0,1.0,2.0,3.0
0011400049,1610612739,CLE,Cleveland,203079,Dion Waiters,G,,25:06,114.3,91.9,22.5,0.167,0.4,8.8,0.045,0.045,0.045,22.1,0.731,0.735,0.347,99.1,0.128,2014-10-14T00:00:00,2,1610612749,MIL,Milwaukee,1-3,27,26,26,21,0,0,0,0,0,0,0,0,0,0,100,0.468,0.826,0.412,28,37,13,0011400049,1610612739,CLE,Cleveland,Dion Waiters,G,,25:06,3.0,0.0,7.0,6.0,3.0,4.0,7.0,22.0,1.0,1.0,4.0,4.0
0011400049,1610612739,CLE,Cleveland,203079,Dion Waiters,G,,25:06,114.3,91.9,22.5,0.167,0.4,8.8,0.045,0.045,0.045,22.1,0.731,0.735,0.347,99.1,0.128,2014-10-14T00:00:00,2,1610612739,CLE,Cleveland,3-0,31,20,30,25,0,0,0,0,0,0,0,0,0,0,106,0.453,0.893,0.382,26,37,16,0011400049,1610612739,CLE,Cleveland,Dion Waiters,G,,25:06,3.0,0.0,7.0,6.0,3.0,4.0,7.0,22.0,1.0,1.0,4.0,4.0
0011400049,1610612739,CLE,Cleveland,203521,Matthew Dellavedova,G,,31:04,120.9,95.0,25.9,0.391,3.0,60.0,0.0,0.208,0.1,20.0,0.333,0.333,0.09,95.42,0.081,2014-10-14T00:00:00,2,1610612749,MIL,Milwaukee,1-3,27,26,26,21,0,0,0,0,0,0,0,0,0,0,100,0.468,0.826,0.412,28,37,13,0011400049,1610612739,CLE,Cleveland,Matthew Dellavedova,G,,31:04,0.0,0.0,0.0,2.0,7.0,6.0,7.0,26.0,0.0,0.0,2.0,2.0
0011400049,1610612739,CLE,Cleveland,203521,Matthew Dellavedova,G,,31:04,120.9,95.0,25.9,0.391,3.0,60.0,0.0,0.208,0.1,20.0,0.333,0.333,0.09,95.42,0.081,2014-10-14T00:00:00,2,1610612739,CLE,Cleveland,3-0,31,20,30,25,0,0,0,0,0,0,0,0,0,0,106,0.453,0.893,0.382,26,37,16,0011400049,1610612739,CLE,Cleveland,Matthew Dellavedova,G,,31:04,0.0,0.0,0.0,2.0,7.0,6.0,7.0,26.0,0.0,0.0,2.0,2.0
0011400049,1610612739,CLE,Cleveland,203925,Joe Harris,,,24:52,107.0,112.4,-5.4,0.154,2.0,22.2,0.056,0.063,0.059,11.1,0.5,0.5,0.136,95.01,0.059,2014-10-14T00:00:00,2,1610612749,MIL,Milwaukee,1-3,27,26,26,21,0,0,0,0,0,0,0,0,0,0,100,0.468,0.826,0.412,28,37,13,0011400049,1610612739,CLE,Cleveland,Joe Harris,,,24:52,0.0,0.0,0.0,0.0,8.0,2.0,4.0,24.0,0.0,1.0,1.0,2.0
0011400049,1610612739,CLE,Cleveland,203925,Joe Harris,,,24:52,107.0,112.4,-5.4,0.154,2.0,22.2,0.056,0.063,0.059,11.1,0.5,0.5,0.136,95.01,0.059,2014-10-14T00:00:00,2,1610612739,CLE,Cleveland,3-0,31,20,30,25,0,0,0,0,0,0,0,0,0,0,106,0.453,0.893,0.382,26,37,16,0011400049,1610612739,CLE,Cleveland,Joe Harris,,,24:52,0.0,0.0,0.0,0.0,8.0,2.0,4.0,24.0,0.0,1.0,1.0,2.0
0011400049,1610612739,CLE,Cleveland,2034,Mike Miller,,,16:21,93.9,145.1,-51.2,0.375,0.0,32.2,0.0,0.444,0.174,0.0,0.3,0.475,0.181,90.42,0.111,2014-10-14T00:00:00,2,1610612749,MIL,Milwaukee,1-3,27,26,26,21,0,0,0,0,0,0,0,0,0,0,100,0.468,0.826,0.412,28,37,13,0011400049,1610612739,CLE,Cleveland,Mike Miller,,,16:21,0.0,3.0,0.0,0.0,2.0,2.0,2.0,12.0,0.0,0.0,1.0,1.0
0011400049,1610612739,CLE,Cleveland,2034,Mike Miller,,,16:21,93.9,145.1,-51.2,0.375,0.0,32.2,0.0,0.444,0.174,0.0,0.3,0.475,0.181,90.42,0.111,2014-10-14T00:00:00,2,1610612739,CLE,Cleveland,3-0,31,20,30,25,0,0,0,0,0,0,0,0,0,0,106,0.453,0.893,0.382,26,37,16,0011400049,1610612739,CLE,Cleveland,Mike Miller,,,16:21,0.0,3.0,0.0,0.0,2.0,2.0,2.0,12.0,0.0,0.0,1.0,1.0
0011400049,1610612739,CLE,Cleveland,2217,Brendan Haywood,,,3:25,150.4,187.1,-36.7,0.0,0.0,0.0,0.0,1.0,0.333,0.0,0.5,0.5,0.376,78.67,0.0,2014-10-14T00:00:00,2,1610612749,MIL,Milwaukee,1-3,27,26,26,21,0,0,0,0,0,0,0,0,0,0,100,0.468,0.826,0.412,28,37,13,0011400049,1610612739,CLE,Cleveland,Brendan Haywood,,,3:25,0.0,0.0,0.0,2.0,0.0,0.0,0.0,4.0,0.0,1.0,2.0,0.0
0011400049,1610612739,CLE,Cleveland,2217,Brendan Haywood,,,3:25,150.4,187.1,-36.7,0.0,0.0,0.0,0.0,1.0,0.333,0.0,0.5,0.5,0.376,78.67,0.0,2014-10-14T00:00:00,2,1610612739,CLE,Cleveland,3-0,31,20,30,25,0,0,0,0,0,0,0,0,0,0,106,0.453,0.893,0.382,26,37,16,0011400049,1610612739,CLE,Cleveland,Brendan Haywood,,,3:25,0.0,0.0,0.0,2.0,0.0,0.0,0.0,4.0,0.0,1.0,2.0,0.0
0011400049,1610612739,CLE,Cleveland,201985,AJ Price,,,14:18,103.3,129.2,-26.0,0.333,0.0,20.2,0.0,0.111,0.056,0.0,0.5,0.571,0.271,92.58,0.129,2014-10-14T00:00:00,2,1610612749,MIL,Milwaukee,1-3,27,26,26,21,0,0,0,0,0,0,0,0,0,0,100,0.468,0.826,0.412,28,37,13,0011400049,1610612739,CLE,Cleveland,AJ Price,,,14:18,5.0,0.0,3.0,2.0,4.0,0.0,4.0,12.0,0.0,0.0,0.0,1.0
0011400049,1610612739,CLE,Cleveland,201985,AJ Price,,,14:18,103.3,129.2,-26.0,0.333,0.0,20.2,0.0,0.111,0.056,0.0,0.5,0.571,0.271,92.58,0.129,2014-10-14T00:00:00,2,1610612739,CLE,Cleveland,3-0,31,20,30,25,0,0,0,0,0,0,0,0,0,0,106,0.453,0.893,0.382,26,37,16,0011400049,1610612739,CLE,Cleveland,AJ Price,,,14:18,5.0,0.0,3.0,2.0,4.0,0.0,4.0,12.0,0.0,0.0,0.0,1.0
0011400049,1610612739,CLE,Cleveland,2592,James Jones,,,8:03,88.8,96.2,-7.3,0.2,0.0,33.3,0.0,0.143,0.083,0.0,0.0,0.0,0.127,96.6,-0.053,2014-10-14T00:00:00,2,1610612749,MIL,Milwaukee,1-3,27,26,26,21,0,0,0,0,0,0,0,0,0,0,100,0.468,0.826,0.412,28,37,13,0011400049,1610612739,CLE,Cleveland,James Jones,,,8:03,0.0,0.0,0.0,0.0,4.0,2.0,0.0,8.0,0.0,0.0,1.0,0.0
0011400049,1610612739,CLE,Cleveland,2592,James Jones,,,8:03,88.8,96.2,-7.3,0.2,0.0,33.3,0.0,0.143,0.083,0.0,0.0,0.0,0.127,96.6,-0.053,2014-10-14T00:00:00,2,1610612739,CLE,Cleveland,3-0,31,20,30,25,0,0,0,0,0,0,0,0,0,0,106,0.453,0.893,0.382,26,37,16,0011400049,1610612739,CLE,Cleveland,James Jones,,,8:03,0.0,0.0,0.0,0.0,4.0,2.0,0.0,8.0,0.0,0.0,1.0,0.0
0011400049,1610612739,CLE,Cleveland,203945,Alex Kirk,,,21:19,93.3,97.7,-4.4,0.0,0.0,0.0,0.056,0.105,0.081,11.4,0.333,0.515,0.191,96.74,0.051,2014-10-14T00:00:00,2,1610612749,MIL,Milwaukee,1-3,27,26,26,21,0,0,0,0,0,0,0,0,0,0,100,0.468,0.826,0.412,28,37,13,0011400049,1610612739,CLE,Cleveland,Alex Kirk,,,21:19,0.0,0.0,0.0,2.0,6.0,2.0,4.0,18.0,2.0,0.0,3.0,2.0
0011400049,1610612739,CLE,Cleveland,203945,Alex Kirk,,,21:19,93.3,97.7,-4.4,0.0,0.0,0.0,0.056,0.105,0.081,11.4,0.333,0.515,0.191,96.74,0.051,2014-10-14T00:00:00,2,1610612739,CLE,Cleveland,3-0,31,20,30,25,0,0,0,0,0,0,0,0,0,0,106,0.453,0.893,0.382,26,37,16,0011400049,1610612739,CLE,Cleveland,Alex Kirk,,,21:19,0.0,0.0,0.0,2.0,6.0,2.0,4.0,18.0,2.0,0.0,3.0,2.0
0011400049,1610612739,CLE,Cleveland,204039,Chris Crawford,,,16:01,91.0,99.8,-8.8,0.375,3.0,35.5,0.0,0.077,0.034,11.8,0.625,0.676,0.151,99.14,0.133,2014-10-14T00:00:00,2,1610612749,MIL,Milwaukee,1-3,27,26,26,21,0,0,0,0,0,0,0,0,0,0,100,0.468,0.826,0.412,28,37,13,0011400049,1610612739,CLE,Cleveland,Chris Crawford,,,16:01,0.0,0.0,0.0,0.0,2.0,0.0,4.0,14.0,1.0,0.0,1.0,1.0
0011400049,1610612739,CLE,Cleveland,204039,Chris Crawford,,,16:01,91.0,99.8,-8.8,0.375,3.0,35.5,0.0,0.077,0.034,11.8,0.625,0.676,0.151,99.14,0.133,2014-10-14T00:00:00,2,1610612739,CLE,Cleveland,3-0,31,20,30,25,0,0,0,0,0,0,0,0,0,0,106,0.453,0.893,0.382,26,37,16,0011400049,1610612739,CLE,Cleveland,Chris Crawford,,,16:01,0.0,0.0,0.0,0.0,2.0,0.0,4.0,14.0,1.0,0.0,1.0,1.0
0011400049,1610612739,CLE,Cleveland,202197,Shane Edwards,,,8:32,100.7,71.0,29.8,0.0,0.0,0.0,0.0,0.25,0.125,0.0,0.25,0.25,0.237,99.0,0.035,2014-10-14T00:00:00,2,1610612749,MIL,Milwaukee,1-3,27,26,26,21,0,0,0,0,0,0,0,0,0,0,100,0.468,0.826,0.412,28,37,13,0011400049,1610612739,CLE,Cleveland,Shane Edwards,,,8:32,0.0,0.0,2.0,2.0,2.0,0.0,2.0,8.0,0.0,1.0,0.0,1.0
0011400049,1610612739,CLE,Cleveland,202197,Shane Edwards,,,8:32,100.7,71.0,29.8,0.0,0.0,0.0,0.0,0.25,0.125,0.0,0.25,0.25,0.237,99.0,0.035,2014-10-14T00:00:00,2,1610612739,CLE,Cleveland,3-0,31,20,30,25,0,0,0,0,0,0,0,0,0,0,106,0.453,0.893,0.382,26,37,16,0011400049,1610612739,CLE,Cleveland,Shane Edwards,,,8:32,0.0,0.0,2.0,2.0,2.0,0.0,2.0,8.0,0.0,1.0,0.0,1.0
0011400049,1610612739,CLE,Cleveland,200811,Lou Amundson,,DNP - Coach's Decision                  ,,,,,,,0.0,,,,,,,0.0,,,2014-10-14T00:00:00,2,1610612749,MIL,Milwaukee,1-3,27,26,26,21,0,0,0,0,0,0,0,0,0,0,100,0.468,0.826,0.412,28,37,13,0011400049,1610612739,CLE,Cleveland,Lou Amundson,,DNP - Coach's Decision                  ,,,,,,,,,,,,,
0011400049,1610612739,CLE,Cleveland,200811,Lou Amundson,,DNP - Coach's Decision                  ,,,,,,,0.0,,,,,,,0.0,,,2014-10-14T00:00:00,2,1610612739,CLE,Cleveland,3-0,31,20,30,25,0,0,0,0,0,0,0,0,0,0,106,0.453,0.893,0.382,26,37,16,0011400049,1610612739,CLE,Cleveland,Lou Amundson,,DNP - Coach's Decision                  ,,,,,,,,,,,,,
0011400049,1610612739,CLE,Cleveland,204071,Stephen Holt,,DNP - Coach's Decision                  ,,,,,,,0.0,,,,,,,0.0,,,2014-10-14T00:00:00,2,1610612749,MIL,Milwaukee,1-3,27,26,26,21,0,0,0,0,0,0,0,0,0,0,100,0.468,0.826,0.412,28,37,13,0011400049,1610612739,CLE,Cleveland,Stephen Holt,,DNP - Coach's Decision                  ,,,,,,,,,,,,,
0011400049,1610612739,CLE,Cleveland,204071,Stephen Holt,,DNP - Coach's Decision                  ,,,,,,,0.0,,,,,,,0.0,,,2014-10-14T00:00:00,2,1610612739,CLE,Cleveland,3-0,31,20,30,25,0,0,0,0,0,0,0,0,0,0,106,0.453,0.893,0.382,26,37,16,0011400049,1610612739,CLE,Cleveland,Stephen Holt,,DNP - Coach's Decision                  ,,,,,,,,,,,,,
0011400049,1610612739,CLE,Cleveland,202681,Kyrie Irving,,DNP - Coach's Decision                  ,,,,,,,0.0,,,,,,,0.0,,,2014-10-14T00:00:00,2,1610612749,MIL,Milwaukee,1-3,27,26,26,21,0,0,0,0,0,0,0,0,0,0,100,0.468,0.826,0.412,28,37,13,0011400049,1610612739,CLE,Cleveland,Kyrie Irving,,DNP - Coach's Decision                  ,,,,,,,,,,,,,
0011400049,1610612739,CLE,Cleveland,202681,Kyrie Irving,,DNP - Coach's Decision                  ,,,,,,,0.0,,,,,,,0.0,,,2014-10-14T00:00:00,2,1610612739,CLE,Cleveland,3-0,31,20,30,25,0,0,0,0,0,0,0,0,0,0,106,0.453,0.893,0.382,26,37,16,0011400049,1610612739,CLE,Cleveland,Kyrie Irving,,DNP - Coach's Decision                  ,,,,,,,,,,,,,
0011400049,1610612739,CLE,Cleveland,2544,LeBron James,,DNP - Coach's Decision                  ,,,,,,,0.0,,,,,,,0.0,,,2014-10-14T00:00:00,2,1610612749,MIL,Milwaukee,1-3,27,26,26,21,0,0,0,0,0,0,0,0,0,0,100,0.468,0.826,0.412,28,37,13,0011400049,1610612739,CLE,Cleveland,LeBron James,,DNP - Coach's Decision                  ,,,,,,,,,,,,,
0011400049,1610612739,CLE,Cleveland,2544,LeBron James,,DNP - Coach's Decision                  ,,,,,,,0.0,,,,,,,0.0,,,2014-10-14T00:00:00,2,1610612739,CLE,Cleveland,3-0,31,20,30,25,0,0,0,0,0,0,0,0,0,0,106,0.453,0.893,0.382,26,37,16,0011400049,1610612739,CLE,Cleveland,LeBron James,,DNP - Coach's Decision                  ,,,,,,,,,,,,,
0011400049,1610612739,CLE,Cleveland,202684,Tristan Thompson,,DNP - Coach's Decision                  ,,,,,,,0.0,,,,,,,0.0,,,2014-10-14T00:00:00,2,1610612749,MIL,Milwaukee,1-3,27,26,26,21,0,0,0,0,0,0,0,0,0,0,100,0.468,0.826,0.412,28,37,13,0011400049,1610612739,CLE,Cleveland,Tristan Thompson,,DNP - Coach's Decision                  ,,,,,,,,,,,,,
0011400049,1610612739,CLE,Cleveland,202684,Tristan Thompson,,DNP - Coach's Decision                  ,,,,,,,0.0,,,,,,,0.0,,,2014-10-14T00:00:00,2,1610612739,CLE,Cleveland,3-0,31,20,30,25,0,0,0,0,0,0,0,0,0,0,106,0.453,0.893,0.382,26,37,16,0011400049,1610612739,CLE,Cleveland,Tristan Thompson,,DNP - Coach's Decision                  ,,,,,,,,,,,,,
