GAME_ID_x,TEAM_ID_x,TEAM_ABBREVIATION_x,TEAM_CITY_x,PLAYER_ID,PLAYER_NAME_x,START_POSITION_x,COMMENT_x,MIN_x,OFF_RATING,DEF_RATING,NET_RATING,AST_PCT,AST_TOV,AST_RATIO,OREB_PCT,DREB_PCT,REB_PCT,TM_TOV_PCT,EFG_PCT,TS_PCT,USG_PCT,PACE,PIE,GAME_DATE_EST,GAME_SEQUENCE,TEAM_ID_y,TEAM_ABBREVIATION_y,TEAM_CITY_NAME,TEAM_WINS_LOSSES,PTS_QTR1,PTS_QTR2,PTS_QTR3,PTS_QTR4,PTS_OT1,PTS_OT2,PTS_OT3,PTS_OT4,PTS_OT5,PTS_OT6,PTS_OT7,PTS_OT8,PTS_OT9,PTS_OT10,PTS,FG_PCT,FT_PCT,FG3_PCT,AST,REB,TOV,GAME_ID_y,TEAM_ID,TEAM_ABBREVIATION,TEAM_CITY_y,PLAYER_NAME_y,START_POSITION_y,COMMENT_y,MIN_y,PTS_OFF_TOV,PTS_2ND_CHANCE,PTS_FB,PTS_PAINT,OPP_PTS_OFF_TOV,OPP_PTS_2ND_CHANCE,OPP_PTS_FB,OPP_PTS_PAINT,BLK,BLKA,PF,PFD
0011400048,1610612752,NYK,New York,2546,Carmelo Anthony,F,,27:00,98.2,79.9,18.3,0.231,1.5,14.6,0.048,0.261,0.159,9.7,0.458,0.548,0.302,92.87,0.216,2014-10-14T00:00:00,1,1610612752,NYK,New York,2-2,23,22,22,17,0,0,0,0,0,0,0,0,0,0,84,0.441,0.741,0.286,22,43,21,0011400048,1610612752,NYK,New York,Carmelo Anthony,F,,27:00,7.0,0.0,0.0,0.0,13.0,7.0,14.0,14.0,0.0,0.0,2.0,4.0
0011400048,1610612752,NYK,New York,2546,Carmelo Anthony,F,,27:00,98.2,79.9,18.3,0.231,1.5,14.6,0.048,0.261,0.159,9.7,0.458,0.548,0.302,92.87,0.216,2014-10-14T00:00:00,1,1610612755,PHI,Philadelphia,1-3,11,18,27,21,0,0,0,0,0,0,0,0,0,0,77,0.381,0.75,0.111,15,36,21,0011400048,1610612752,NYK,New York,Carmelo Anthony,F,,27:00,7.0,0.0,0.0,0.0,13.0,7.0,14.0,14.0,0.0,0.0,2.0,4.0
0011400048,1610612752,NYK,New York,203112,Quincy Acy,F,,26:46,88.7,92.2,-3.4,0.133,0.5,18.6,0.174,0.1,0.14,37.2,0.667,0.63,0.149,91.21,0.03,2014-10-14T00:00:00,1,1610612752,NYK,New York,2-2,23,22,22,17,0,0,0,0,0,0,0,0,0,0,84,0.441,0.741,0.286,22,43,21,0011400048,1610612752,NYK,New York,Quincy Acy,F,,26:46,2.0,4.0,0.0,2.0,16.0,8.0,18.0,20.0,0.0,0.0,4.0,3.0
0011400048,1610612752,NYK,New York,203112,Quincy Acy,F,,26:46,88.7,92.2,-3.4,0.133,0.5,18.6,0.174,0.1,0.14,37.2,0.667,0.63,0.149,91.21,0.03,2014-10-14T00:00:00,1,1610612755,PHI,Philadelphia,1-3,11,18,27,21,0,0,0,0,0,0,0,0,0,0,77,0.381,0.75,0.111,15,36,21,0011400048,1610612752,NYK,New York,Quincy Acy,F,,26:46,2.0,4.0,0.0,2.0,16.0,8.0,18.0,20.0,0.0,0.0,4.0,3.0
0011400048,1610612752,NYK,New York,2223,Samuel Dalembert,C,,21:17,113.0,86.7,26.2,0.071,1.0,16.7,0.063,0.167,0.118,16.7,0.75,0.75,0.109,90.44,0.127,2014-10-14T00:00:00,1,1610612752,NYK,New York,2-2,23,22,22,17,0,0,0,0,0,0,0,0,0,0,84,0.441,0.741,0.286,22,43,21,0011400048,1610612752,NYK,New York,Samuel Dalembert,C,,21:17,0.0,0.0,0.0,0.0,10.0,9.0,8.0,14.0,3.0,0.0,3.0,0.0
0011400048,1610612752,NYK,New York,2223,Samuel Dalembert,C,,21:17,113.0,86.7,26.2,0.071,1.0,16.7,0.063,0.167,0.118,16.7,0.75,0.75,0.109,90.44,0.127,2014-10-14T00:00:00,1,1610612755,PHI,Philadelphia,1-3,11,18,27,21,0,0,0,0,0,0,0,0,0,0,77,0.381,0.75,0.111,15,36,21,0011400048,1610612752,NYK,New York,Samuel Dalembert,C,,21:17,0.0,0.0,0.0,0.0,10.0,9.0,8.0,14.0,3.0,0.0,3.0,0.0
0011400048,1610612752,NYK,New York,202697,Iman Shumpert,G,,21:21,92.4,91.7,0.7,0.444,1.33,22.4,0.0,0.25,0.125,16.8,0.55,0.551,0.309,89.17,0.192,2014-10-14T00:00:00,1,1610612752,NYK,New York,2-2,23,22,22,17,0,0,0,0,0,0,0,0,0,0,84,0.441,0.741,0.286,22,43,21,0011400048,1610612752,NYK,New York,Iman Shumpert,G,,21:21,5.0,0.0,2.0,6.0,14.0,9.0,12.0,16.0,0.0,0.0,1.0,2.0
0011400048,1610612752,NYK,New York,202697,Iman Shumpert,G,,21:21,92.4,91.7,0.7,0.444,1.33,22.4,0.0,0.25,0.125,16.8,0.55,0.551,0.309,89.17,0.192,2014-10-14T00:00:00,1,1610612755,PHI,Philadelphia,1-3,11,18,27,21,0,0,0,0,0,0,0,0,0,0,77,0.381,0.75,0.111,15,36,21,0011400048,1610612752,NYK,New York,Iman Shumpert,G,,21:21,5.0,0.0,2.0,6.0,14.0,9.0,12.0,16.0,0.0,0.0,1.0,2.0
0011400048,1610612752,NYK,New York,101181,Jose Calderon,G,,25:36,98.8,90.8,8.0,0.176,0.0,60.0,0.0,0.091,0.048,0.0,0.0,0.0,0.037,92.03,0.044,2014-10-14T00:00:00,1,1610612752,NYK,New York,2-2,23,22,22,17,0,0,0,0,0,0,0,0,0,0,84,0.441,0.741,0.286,22,43,21,0011400048,1610612752,NYK,New York,Jose Calderon,G,,25:36,0.0,0.0,0.0,0.0,14.0,9.0,15.0,16.0,0.0,0.0,3.0,1.0
0011400048,1610612752,NYK,New York,101181,Jose Calderon,G,,25:36,98.8,90.8,8.0,0.176,0.0,60.0,0.0,0.091,0.048,0.0,0.0,0.0,0.037,92.03,0.044,2014-10-14T00:00:00,1,1610612755,PHI,Philadelphia,1-3,11,18,27,21,0,0,0,0,0,0,0,0,0,0,77,0.381,0.75,0.111,15,36,21,0011400048,1610612752,NYK,New York,Jose Calderon,G,,25:36,0.0,0.0,0.0,0.0,14.0,9.0,15.0,16.0,0.0,0.0,3.0,1.0
0011400048,1610612752,NYK,New York,201160,Jason Smith,,,24:19,96.0,73.5,22.5,0.1,0.33,6.3,0.0,0.208,0.116,19.0,0.5,0.595,0.284,94.28,0.214,2014-10-14T00:00:00,1,1610612752,NYK,New York,2-2,23,22,22,17,0,0,0,0,0,0,0,0,0,0,84,0.441,0.741,0.286,22,43,21,0011400048,1610612752,NYK,New York,Jason Smith,,,24:19,0.0,2.0,0.0,0.0,13.0,3.0,12.0,20.0,0.0,1.0,1.0,4.0
0011400048,1610612752,NYK,New York,201160,Jason Smith,,,24:19,96.0,73.5,22.5,0.1,0.33,6.3,0.0,0.208,0.116,19.0,0.5,0.595,0.284,94.28,0.214,2014-10-14T00:00:00,1,1610612755,PHI,Philadelphia,1-3,11,18,27,21,0,0,0,0,0,0,0,0,0,0,77,0.381,0.75,0.111,15,36,21,0011400048,1610612752,NYK,New York,Jason Smith,,,24:19,0.0,2.0,0.0,0.0,13.0,3.0,12.0,20.0,0.0,1.0,1.0,4.0
0011400048,1610612752,NYK,New York,2747,JR Smith,,,22:52,97.7,70.7,27.0,0.286,1.33,26.9,0.053,0.0,0.024,20.2,0.143,0.254,0.222,93.29,0.029,2014-10-14T00:00:00,1,1610612752,NYK,New York,2-2,23,22,22,17,0,0,0,0,0,0,0,0,0,0,84,0.441,0.741,0.286,22,43,21,0011400048,1610612752,NYK,New York,JR Smith,,,22:52,2.0,0.0,0.0,0.0,9.0,2.0,12.0,14.0,0.0,0.0,0.0,1.0
0011400048,1610612752,NYK,New York,2747,JR Smith,,,22:52,97.7,70.7,27.0,0.286,1.33,26.9,0.053,0.0,0.024,20.2,0.143,0.254,0.222,93.29,0.029,2014-10-14T00:00:00,1,1610612755,PHI,Philadelphia,1-3,11,18,27,21,0,0,0,0,0,0,0,0,0,0,77,0.381,0.75,0.111,15,36,21,0011400048,1610612752,NYK,New York,JR Smith,,,22:52,2.0,0.0,0.0,0.0,9.0,2.0,12.0,14.0,0.0,0.0,0.0,1.0
0011400048,1610612752,NYK,New York,2405,Amar'e Stoudemire,,,20:31,73.8,77.6,-3.7,0.0,0.0,0.0,0.059,0.222,0.143,9.1,0.4,0.4,0.266,92.69,0.082,2014-10-14T00:00:00,1,1610612752,NYK,New York,2-2,23,22,22,17,0,0,0,0,0,0,0,0,0,0,84,0.441,0.741,0.286,22,43,21,0011400048,1610612752,NYK,New York,Amar'e Stoudemire,,,20:31,0.0,0.0,0.0,4.0,11.0,2.0,14.0,16.0,1.0,1.0,3.0,2.0
0011400048,1610612752,NYK,New York,2405,Amar'e Stoudemire,,,20:31,73.8,77.6,-3.7,0.0,0.0,0.0,0.059,0.222,0.143,9.1,0.4,0.4,0.266,92.69,0.082,2014-10-14T00:00:00,1,1610612755,PHI,Philadelphia,1-3,11,18,27,21,0,0,0,0,0,0,0,0,0,0,77,0.381,0.75,0.111,15,36,21,0011400048,1610612752,NYK,New York,Amar'e Stoudemire,,,20:31,0.0,0.0,0.0,4.0,11.0,2.0,14.0,16.0,1.0,1.0,3.0,2.0
0011400048,1610612752,NYK,New York,203499,Shane Larkin,,,22:24,85.1,75.7,9.5,0.083,1.0,14.8,0.111,0.211,0.162,14.8,0.333,0.42,0.124,90.6,0.047,2014-10-14T00:00:00,1,1610612752,NYK,New York,2-2,23,22,22,17,0,0,0,0,0,0,0,0,0,0,84,0.441,0.741,0.286,22,43,21,0011400048,1610612752,NYK,New York,Shane Larkin,,,22:24,0.0,2.0,0.0,2.0,13.0,3.0,12.0,20.0,0.0,0.0,4.0,2.0
0011400048,1610612752,NYK,New York,203499,Shane Larkin,,,22:24,85.1,75.7,9.5,0.083,1.0,14.8,0.111,0.211,0.162,14.8,0.333,0.42,0.124,90.6,0.047,2014-10-14T00:00:00,1,1610612755,PHI,Philadelphia,1-3,11,18,27,21,0,0,0,0,0,0,0,0,0,0,77,0.381,0.75,0.111,15,36,21,0011400048,1610612752,NYK,New York,Shane Larkin,,,22:24,0.0,2.0,0.0,2.0,13.0,3.0,12.0,20.0,0.0,0.0,4.0,2.0
0011400048,1610612752,NYK,New York,203501,Tim Hardaway Jr.,,,20:11,86.9,85.6,1.4,0.375,3.0,29.1,0.0,0.118,0.061,9.7,1.0,1.028,0.174,89.58,0.344,2014-10-14T00:00:00,1,1610612752,NYK,New York,2-2,23,22,22,17,0,0,0,0,0,0,0,0,0,0,84,0.441,0.741,0.286,22,43,21,0011400048,1610612752,NYK,New York,Tim Hardaway Jr.,,,20:11,0.0,3.0,0.0,2.0,14.0,5.0,11.0,20.0,1.0,0.0,1.0,3.0
0011400048,1610612752,NYK,New York,203501,Tim Hardaway Jr.,,,20:11,86.9,85.6,1.4,0.375,3.0,29.1,0.0,0.118,0.061,9.7,1.0,1.028,0.174,89.58,0.344,2014-10-14T00:00:00,1,1610612755,PHI,Philadelphia,1-3,11,18,27,21,0,0,0,0,0,0,0,0,0,0,77,0.381,0.75,0.111,15,36,21,0011400048,1610612752,NYK,New York,Tim Hardaway Jr.,,,20:11,0.0,3.0,0.0,2.0,14.0,5.0,11.0,20.0,1.0,0.0,1.0,3.0
0011400048,1610612752,NYK,New York,204037,Travis Wear,,,3:07,75.0,126.1,-51.1,0.0,0.0,0.0,0.0,0.5,0.333,0.0,0.0,0.0,0.25,67.46,-0.4,2014-10-14T00:00:00,1,1610612752,NYK,New York,2-2,23,22,22,17,0,0,0,0,0,0,0,0,0,0,84,0.441,0.741,0.286,22,43,21,0011400048,1610612752,NYK,New York,Travis Wear,,,3:07,0.0,0.0,0.0,0.0,4.0,2.0,2.0,2.0,0.0,0.0,2.0,0.0
0011400048,1610612752,NYK,New York,204037,Travis Wear,,,3:07,75.0,126.1,-51.1,0.0,0.0,0.0,0.0,0.5,0.333,0.0,0.0,0.0,0.25,67.46,-0.4,2014-10-14T00:00:00,1,1610612755,PHI,Philadelphia,1-3,11,18,27,21,0,0,0,0,0,0,0,0,0,0,77,0.381,0.75,0.111,15,36,21,0011400048,1610612752,NYK,New York,Travis Wear,,,3:07,0.0,0.0,0.0,0.0,4.0,2.0,2.0,2.0,0.0,0.0,2.0,0.0
0011400048,1610612752,NYK,New York,203921,Cleanthony Early,,,3:47,58.1,117.8,-59.7,0.0,0.0,0.0,0.0,0.0,0.0,66.7,0.0,0.0,0.436,92.11,-0.667,2014-10-14T00:00:00,1,1610612752,NYK,New York,2-2,23,22,22,17,0,0,0,0,0,0,0,0,0,0,84,0.441,0.741,0.286,22,43,21,0011400048,1610612752,NYK,New York,Cleanthony Early,,,3:47,0.0,0.0,0.0,0.0,4.0,1.0,3.0,6.0,0.0,0.0,1.0,0.0
0011400048,1610612752,NYK,New York,203921,Cleanthony Early,,,3:47,58.1,117.8,-59.7,0.0,0.0,0.0,0.0,0.0,0.0,66.7,0.0,0.0,0.436,92.11,-0.667,2014-10-14T00:00:00,1,1610612755,PHI,Philadelphia,1-3,11,18,27,21,0,0,0,0,0,0,0,0,0,0,77,0.381,0.75,0.111,15,36,21,0011400048,1610612752,NYK,New York,Cleanthony Early,,,3:47,0.0,0.0,0.0,0.0,4.0,1.0,3.0,6.0,0.0,0.0,1.0,0.0
0011400048,1610612752,NYK,New York,204044,Orlando Sanchez,,,0:49,0.0,159.6,-159.6,0.0,0.0,0.0,0.0,0.0,0.0,0.0,0.0,0.0,0.0,85.33,0.0,2014-10-14T00:00:00,1,1610612752,NYK,New York,2-2,23,22,22,17,0,0,0,0,0,0,0,0,0,0,84,0.441,0.741,0.286,22,43,21,0011400048,1610612752,NYK,New York,Orlando Sanchez,,,0:49,0.0,0.0,0.0,0.0,0.0,0.0,2.0,2.0,0.0,0.0,0.0,0.0
0011400048,1610612752,NYK,New York,204044,Orlando Sanchez,,,0:49,0.0,159.6,-159.6,0.0,0.0,0.0,0.0,0.0,0.0,0.0,0.0,0.0,0.0,85.33,0.0,2014-10-14T00:00:00,1,1610612755,PHI,Philadelphia,1-3,11,18,27,21,0,0,0,0,0,0,0,0,0,0,77,0.381,0.75,0.111,15,36,21,0011400048,1610612752,NYK,New York,Orlando Sanchez,,,0:49,0.0,0.0,0.0,0.0,0.0,0.0,2.0,2.0,0.0,0.0,0.0,0.0
0011400048,1610612752,NYK,New York,202332,Cole Aldrich,,DNP - Coach's Decision                  ,,,,,,,0.0,,,,,,,0.0,,,2014-10-14T00:00:00,1,1610612752,NYK,New York,2-2,23,22,22,17,0,0,0,0,0,0,0,0,0,0,84,0.441,0.741,0.286,22,43,21,0011400048,1610612752,NYK,New York,Cole Aldrich,,DNP - Coach's Decision                  ,,,,,,,,,,,,,
0011400048,1610612752,NYK,New York,202332,Cole Aldrich,,DNP - Coach's Decision                  ,,,,,,,0.0,,,,,,,0.0,,,2014-10-14T00:00:00,1,1610612755,PHI,Philadelphia,1-3,11,18,27,21,0,0,0,0,0,0,0,0,0,0,77,0.381,0.75,0.111,15,36,21,0011400048,1610612752,NYK,New York,Cole Aldrich,,DNP - Coach's Decision                  ,,,,,,,,,,,,,
0011400048,1610612752,NYK,New York,204038,Langston Galloway,,DNP - Coach's Decision                  ,,,,,,,0.0,,,,,,,0.0,,,2014-10-14T00:00:00,1,1610612752,NYK,New York,2-2,23,22,22,17,0,0,0,0,0,0,0,0,0,0,84,0.441,0.741,0.286,22,43,21,0011400048,1610612752,NYK,New York,Langston Galloway,,DNP - Coach's Decision                  ,,,,,,,,,,,,,
0011400048,1610612752,NYK,New York,204038,Langston Galloway,,DNP - Coach's Decision                  ,,,,,,,0.0,,,,,,,0.0,,,2014-10-14T00:00:00,1,1610612755,PHI,Philadelphia,1-3,11,18,27,21,0,0,0,0,0,0,0,0,0,0,77,0.381,0.75,0.111,15,36,21,0011400048,1610612752,NYK,New York,Langston Galloway,,DNP - Coach's Decision                  ,,,,,,,,,,,,,
0011400048,1610612752,NYK,New York,2788,DJ Mbenga,,DNP - Coach's Decision                  ,,,,,,,0.0,,,,,,,0.0,,,2014-10-14T00:00:00,1,1610612752,NYK,New York,2-2,23,22,22,17,0,0,0,0,0,0,0,0,0,0,84,0.441,0.741,0.286,22,43,21,0011400048,1610612752,NYK,New York,DJ Mbenga,,DNP - Coach's Decision                  ,,,,,,,,,,,,,
0011400048,1610612752,NYK,New York,2788,DJ Mbenga,,DNP - Coach's Decision                  ,,,,,,,0.0,,,,,,,0.0,,,2014-10-14T00:00:00,1,1610612755,PHI,Philadelphia,1-3,11,18,27,21,0,0,0,0,0,0,0,0,0,0,77,0.381,0.75,0.111,15,36,21,0011400048,1610612752,NYK,New York,DJ Mbenga,,DNP - Coach's Decision                  ,,,,,,,,,,,,,
0011400048,1610612752,NYK,New York,2566,Travis Outlaw,,DNP - Coach's Decision                  ,,,,,,,0.0,,,,,,,0.0,,,2014-10-14T00:00:00,1,1610612752,NYK,New York,2-2,23,22,22,17,0,0,0,0,0,0,0,0,0,0,84,0.441,0.741,0.286,22,43,21,0011400048,1610612752,NYK,New York,Travis Outlaw,,DNP - Coach's Decision                  ,,,,,,,,,,,,,
0011400048,1610612752,NYK,New York,2566,Travis Outlaw,,DNP - Coach's Decision                  ,,,,,,,0.0,,,,,,,0.0,,,2014-10-14T00:00:00,1,1610612755,PHI,Philadelphia,1-3,11,18,27,21,0,0,0,0,0,0,0,0,0,0,77,0.381,0.75,0.111,15,36,21,0011400048,1610612752,NYK,New York,Travis Outlaw,,DNP - Coach's Decision                  ,,,,,,,,,,,,,
0011400048,1610612752,NYK,New York,203143,Pablo Prigioni,,DNP - Coach's Decision                  ,,,,,,,0.0,,,,,,,0.0,,,2014-10-14T00:00:00,1,1610612752,NYK,New York,2-2,23,22,22,17,0,0,0,0,0,0,0,0,0,0,84,0.441,0.741,0.286,22,43,21,0011400048,1610612752,NYK,New York,Pablo Prigioni,,DNP - Coach's Decision                  ,,,,,,,,,,,,,
0011400048,1610612752,NYK,New York,203143,Pablo Prigioni,,DNP - Coach's Decision                  ,,,,,,,0.0,,,,,,,0.0,,,2014-10-14T00:00:00,1,1610612755,PHI,Philadelphia,1-3,11,18,27,21,0,0,0,0,0,0,0,0,0,0,77,0.381,0.75,0.111,15,36,21,0011400048,1610612752,NYK,New York,Pablo Prigioni,,DNP - Coach's Decision                  ,,,,,,,,,,,,,
0011400048,1610612755,PHI,Philadelphia,201601,Luc Mbah a Moute,F,,26:16,96.5,91.9,4.6,0.111,0.5,8.4,0.045,0.053,0.049,16.8,0.563,0.619,0.203,89.21,0.125,2014-10-14T00:00:00,1,1610612752,NYK,New York,2-2,23,22,22,17,0,0,0,0,0,0,0,0,0,0,84,0.441,0.741,0.286,22,43,21,0011400048,1610612755,PHI,Philadelphia,Luc Mbah a Moute,F,,26:16,6.0,2.0,5.0,4.0,9.0,4.0,2.0,10.0,1.0,1.0,0.0,1.0
0011400048,1610612755,PHI,Philadelphia,201601,Luc Mbah a Moute,F,,26:16,96.5,91.9,4.6,0.111,0.5,8.4,0.045,0.053,0.049,16.8,0.563,0.619,0.203,89.21,0.125,2014-10-14T00:00:00,1,1610612755,PHI,Philadelphia,1-3,11,18,27,21,0,0,0,0,0,0,0,0,0,0,77,0.381,0.75,0.111,15,36,21,0011400048,1610612755,PHI,Philadelphia,Luc Mbah a Moute,F,,26:16,6.0,2.0,5.0,4.0,9.0,4.0,2.0,10.0,1.0,1.0,0.0,1.0
0011400048,1610612755,PHI,Philadelphia,203156,Henry Sims,F,,33:44,100.1,84.7,15.4,0.118,0.5,9.7,0.04,0.214,0.132,19.5,0.091,0.344,0.265,90.04,0.042,2014-10-14T00:00:00,1,1610612752,NYK,New York,2-2,23,22,22,17,0,0,0,0,0,0,0,0,0,0,84,0.441,0.741,0.286,22,43,21,0011400048,1610612755,PHI,Philadelphia,Henry Sims,F,,33:44,0.0,0.0,2.0,2.0,15.0,8.0,2.0,12.0,0.0,2.0,2.0,4.0
0011400048,1610612755,PHI,Philadelphia,203156,Henry Sims,F,,33:44,100.1,84.7,15.4,0.118,0.5,9.7,0.04,0.214,0.132,19.5,0.091,0.344,0.265,90.04,0.042,2014-10-14T00:00:00,1,1610612755,PHI,Philadelphia,1-3,11,18,27,21,0,0,0,0,0,0,0,0,0,0,77,0.381,0.75,0.111,15,36,21,0011400048,1610612755,PHI,Philadelphia,Henry Sims,F,,33:44,0.0,0.0,2.0,2.0,15.0,8.0,2.0,12.0,0.0,2.0,2.0,4.0
0011400048,1610612755,PHI,Philadelphia,203457,Nerlens Noel,C,,33:34,91.0,89.3,1.7,0.231,0.75,19.3,0.12,0.296,0.212,25.8,0.6,0.704,0.185,88.83,0.26,2014-10-14T00:00:00,1,1610612752,NYK,New York,2-2,23,22,22,17,0,0,0,0,0,0,0,0,0,0,84,0.441,0.741,0.286,22,43,21,0011400048,1610612755,PHI,Philadelphia,Nerlens Noel,C,,33:34,4.0,3.0,2.0,6.0,15.0,8.0,2.0,10.0,1.0,1.0,1.0,6.0
0011400048,1610612755,PHI,Philadelphia,203457,Nerlens Noel,C,,33:34,91.0,89.3,1.7,0.231,0.75,19.3,0.12,0.296,0.212,25.8,0.6,0.704,0.185,88.83,0.26,2014-10-14T00:00:00,1,1610612755,PHI,Philadelphia,1-3,11,18,27,21,0,0,0,0,0,0,0,0,0,0,77,0.381,0.75,0.111,15,36,21,0011400048,1610612755,PHI,Philadelphia,Nerlens Noel,C,,33:34,4.0,3.0,2.0,6.0,15.0,8.0,2.0,10.0,1.0,1.0,1.0,6.0
0011400048,1610612755,PHI,Philadelphia,203960,JaKarr Sampson,G,,26:09,85.5,89.9,-4.4,0.111,0.33,10.7,0.0,0.2,0.098,32.2,0.875,0.846,0.154,87.96,0.167,2014-10-14T00:00:00,1,1610612752,NYK,New York,2-2,23,22,22,17,0,0,0,0,0,0,0,0,0,0,84,0.441,0.741,0.286,22,43,21,0011400048,1610612755,PHI,Philadelphia,JaKarr Sampson,G,,26:09,4.0,5.0,2.0,4.0,13.0,6.0,2.0,8.0,0.0,0.0,1.0,2.0
0011400048,1610612755,PHI,Philadelphia,203960,JaKarr Sampson,G,,26:09,85.5,89.9,-4.4,0.111,0.33,10.7,0.0,0.2,0.098,32.2,0.875,0.846,0.154,87.96,0.167,2014-10-14T00:00:00,1,1610612755,PHI,Philadelphia,1-3,11,18,27,21,0,0,0,0,0,0,0,0,0,0,77,0.381,0.75,0.111,15,36,21,0011400048,1610612755,PHI,Philadelphia,JaKarr Sampson,G,,26:09,4.0,5.0,2.0,4.0,13.0,6.0,2.0,8.0,0.0,0.0,1.0,2.0
0011400048,1610612755,PHI,Philadelphia,203100,Tony Wroten,G,,26:28,95.5,86.2,9.3,0.3,1.0,15.8,0.0,0.0,0.0,15.8,0.444,0.463,0.294,90.72,-0.016,2014-10-14T00:00:00,1,1610612752,NYK,New York,2-2,23,22,22,17,0,0,0,0,0,0,0,0,0,0,84,0.441,0.741,0.286,22,43,21,0011400048,1610612755,PHI,Philadelphia,Tony Wroten,G,,26:28,2.0,0.0,5.0,8.0,12.0,7.0,2.0,12.0,0.0,1.0,4.0,5.0
0011400048,1610612755,PHI,Philadelphia,203100,Tony Wroten,G,,26:28,95.5,86.2,9.3,0.3,1.0,15.8,0.0,0.0,0.0,15.8,0.444,0.463,0.294,90.72,-0.016,2014-10-14T00:00:00,1,1610612755,PHI,Philadelphia,1-3,11,18,27,21,0,0,0,0,0,0,0,0,0,0,77,0.381,0.75,0.111,15,36,21,0011400048,1610612755,PHI,Philadelphia,Tony Wroten,G,,26:28,2.0,0.0,5.0,8.0,12.0,7.0,2.0,12.0,0.0,1.0,4.0,5.0
0011400048,1610612755,PHI,Philadelphia,202723,Malcolm Lee,,,7:13,54.2,126.0,-71.8,0.0,0.0,0.0,0.0,0.333,0.077,17.4,0.333,0.525,0.324,99.24,0.048,2014-10-14T00:00:00,1,1610612752,NYK,New York,2-2,23,22,22,17,0,0,0,0,0,0,0,0,0,0,84,0.441,0.741,0.286,22,43,21,0011400048,1610612755,PHI,Philadelphia,Malcolm Lee,,,7:13,3.0,0.0,3.0,2.0,1.0,0.0,0.0,0.0,0.0,0.0,1.0,2.0
0011400048,1610612755,PHI,Philadelphia,202723,Malcolm Lee,,,7:13,54.2,126.0,-71.8,0.0,0.0,0.0,0.0,0.333,0.077,17.4,0.333,0.525,0.324,99.24,0.048,2014-10-14T00:00:00,1,1610612755,PHI,Philadelphia,1-3,11,18,27,21,0,0,0,0,0,0,0,0,0,0,77,0.381,0.75,0.111,15,36,21,0011400048,1610612755,PHI,Philadelphia,Malcolm Lee,,,7:13,3.0,0.0,3.0,2.0,1.0,0.0,0.0,0.0,0.0,0.0,1.0,2.0
0011400048,1610612755,PHI,Philadelphia,204079,Drew Gordon,,,12:41,44.2,118.0,-73.7,0.0,0.0,0.0,0.0,0.125,0.043,50.0,1.0,1.0,0.074,96.81,-0.037,2014-10-14T00:00:00,1,1610612752,NYK,New York,2-2,23,22,22,17,0,0,0,0,0,0,0,0,0,0,84,0.441,0.741,0.286,22,43,21,0011400048,1610612755,PHI,Philadelphia,Drew Gordon,,,12:41,0.0,0.0,0.0,0.0,1.0,3.0,0.0,4.0,0.0,0.0,3.0,0.0
0011400048,1610612755,PHI,Philadelphia,204079,Drew Gordon,,,12:41,44.2,118.0,-73.7,0.0,0.0,0.0,0.0,0.125,0.043,50.0,1.0,1.0,0.074,96.81,-0.037,2014-10-14T00:00:00,1,1610612755,PHI,Philadelphia,1-3,11,18,27,21,0,0,0,0,0,0,0,0,0,0,77,0.381,0.75,0.111,15,36,21,0011400048,1610612755,PHI,Philadelphia,Drew Gordon,,,12:41,0.0,0.0,0.0,0.0,1.0,3.0,0.0,4.0,0.0,0.0,3.0,0.0
0011400048,1610612755,PHI,Philadelphia,203909,KJ McDaniels,,,28:17,85.5,96.8,-11.3,0.0,0.0,0.0,0.083,0.04,0.061,0.0,0.429,0.508,0.131,95.82,0.041,2014-10-14T00:00:00,1,1610612752,NYK,New York,2-2,23,22,22,17,0,0,0,0,0,0,0,0,0,0,84,0.441,0.741,0.286,22,43,21,0011400048,1610612755,PHI,Philadelphia,KJ McDaniels,,,28:17,4.0,0.0,4.0,4.0,9.0,7.0,0.0,10.0,0.0,0.0,4.0,1.0
0011400048,1610612755,PHI,Philadelphia,203909,KJ McDaniels,,,28:17,85.5,96.8,-11.3,0.0,0.0,0.0,0.083,0.04,0.061,0.0,0.429,0.508,0.131,95.82,0.041,2014-10-14T00:00:00,1,1610612755,PHI,Philadelphia,1-3,11,18,27,21,0,0,0,0,0,0,0,0,0,0,77,0.381,0.75,0.111,15,36,21,0011400048,1610612755,PHI,Philadelphia,KJ McDaniels,,,28:17,4.0,0.0,4.0,4.0,9.0,7.0,0.0,10.0,0.0,0.0,4.0,1.0
0011400048,1610612755,PHI,Philadelphia,203187,Chris Johnson,,,13:33,48.4,90.9,-42.5,0.0,0.0,0.0,0.0,0.2,0.083,40.0,0.0,0.0,0.173,94.36,-0.368,2014-10-14T00:00:00,1,1610612752,NYK,New York,2-2,23,22,22,17,0,0,0,0,0,0,0,0,0,0,84,0.441,0.741,0.286,22,43,21,0011400048,1610612755,PHI,Philadelphia,Chris Johnson,,,13:33,0.0,0.0,0.0,0.0,1.0,3.0,0.0,4.0,0.0,0.0,4.0,0.0
0011400048,1610612755,PHI,Philadelphia,203187,Chris Johnson,,,13:33,48.4,90.9,-42.5,0.0,0.0,0.0,0.0,0.2,0.083,40.0,0.0,0.0,0.173,94.36,-0.368,2014-10-14T00:00:00,1,1610612755,PHI,Philadelphia,1-3,11,18,27,21,0,0,0,0,0,0,0,0,0,0,77,0.381,0.75,0.111,15,36,21,0011400048,1610612755,PHI,Philadelphia,Chris Johnson,,,13:33,0.0,0.0,0.0,0.0,1.0,3.0,0.0,4.0,0.0,0.0,4.0,0.0
0011400048,1610612755,PHI,Philadelphia,203561,Brandon Davies,,,16:01,68.3,92.7,-24.4,0.0,0.0,0.0,0.059,0.231,0.133,11.1,0.375,0.375,0.256,95.12,0.101,2014-10-14T00:00:00,1,1610612752,NYK,New York,2-2,23,22,22,17,0,0,0,0,0,0,0,0,0,0,84,0.441,0.741,0.286,22,43,21,0011400048,1610612755,PHI,Philadelphia,Brandon Davies,,,16:01,2.0,2.0,2.0,4.0,1.0,3.0,0.0,6.0,0.0,0.0,1.0,1.0
0011400048,1610612755,PHI,Philadelphia,203561,Brandon Davies,,,16:01,68.3,92.7,-24.4,0.0,0.0,0.0,0.059,0.231,0.133,11.1,0.375,0.375,0.256,95.12,0.101,2014-10-14T00:00:00,1,1610612755,PHI,Philadelphia,1-3,11,18,27,21,0,0,0,0,0,0,0,0,0,0,77,0.381,0.75,0.111,15,36,21,0011400048,1610612755,PHI,Philadelphia,Brandon Davies,,,16:01,2.0,2.0,2.0,4.0,1.0,3.0,0.0,6.0,0.0,0.0,1.0,1.0
0011400048,1610612755,PHI,Philadelphia,203810,Casper Ware,,,16:04,83.8,83.4,0.4,0.556,0.0,55.6,0.0,0.071,0.037,0.0,0.25,0.25,0.131,87.54,0.203,2014-10-14T00:00:00,1,1610612752,NYK,New York,2-2,23,22,22,17,0,0,0,0,0,0,0,0,0,0,84,0.441,0.741,0.286,22,43,21,0011400048,1610612755,PHI,Philadelphia,Casper Ware,,,16:04,2.0,0.0,2.0,2.0,3.0,6.0,0.0,4.0,0.0,0.0,1.0,3.0
0011400048,1610612755,PHI,Philadelphia,203810,Casper Ware,,,16:04,83.8,83.4,0.4,0.556,0.0,55.6,0.0,0.071,0.037,0.0,0.25,0.25,0.131,87.54,0.203,2014-10-14T00:00:00,1,1610612755,PHI,Philadelphia,1-3,11,18,27,21,0,0,0,0,0,0,0,0,0,0,77,0.381,0.75,0.111,15,36,21,0011400048,1610612755,PHI,Philadelphia,Casper Ware,,,16:04,2.0,0.0,2.0,2.0,3.0,6.0,0.0,4.0,0.0,0.0,1.0,3.0
0011400048,1610612755,PHI,Philadelphia,203487,Michael Carter-Williams,,DND - Right Shoulder Injury             ,,,,,,,0.0,,,,,,,0.0,,,2014-10-14T00:00:00,1,1610612752,NYK,New York,2-2,23,22,22,17,0,0,0,0,0,0,0,0,0,0,84,0.441,0.741,0.286,22,43,21,0011400048,1610612755,PHI,Philadelphia,Michael Carter-Williams,,DND - Right Shoulder Injury             ,,,,,,,,,,,,,
0011400048,1610612755,PHI,Philadelphia,203487,Michael Carter-Williams,,DND - Right Shoulder Injury             ,,,,,,,0.0,,,,,,,0.0,,,2014-10-14T00:00:00,1,1610612755,PHI,Philadelphia,1-3,11,18,27,21,0,0,0,0,0,0,0,0,0,0,77,0.381,0.75,0.111,15,36,21,0011400048,1610612755,PHI,Philadelphia,Michael Carter-Williams,,DND - Right Shoulder Injury             ,,,,,,,,,,,,,
0011400048,1610612755,PHI,Philadelphia,203954,Joel Embiid,,DND - Right Foot Injury                 ,,,,,,,0.0,,,,,,,0.0,,,2014-10-14T00:00:00,1,1610612752,NYK,New York,2-2,23,22,22,17,0,0,0,0,0,0,0,0,0,0,84,0.441,0.741,0.286,22,43,21,0011400048,1610612755,PHI,Philadelphia,Joel Embiid,,DND - Right Foot Injury                 ,,,,,,,,,,,,,
0011400048,1610612755,PHI,Philadelphia,203954,Joel Embiid,,DND - Right Foot Injury                 ,,,,,,,0.0,,,,,,,0.0,,,2014-10-14T00:00:00,1,1610612755,PHI,Philadelphia,1-3,11,18,27,21,0,0,0,0,0,0,0,0,0,0,77,0.381,0.75,0.111,15,36,21,0011400048,1610612755,PHI,Philadelphia,Joel Embiid,,DND - Right Foot Injury                 ,,,,,,,,,,,,,
0011400048,1610612755,PHI,Philadelphia,203924,Jerami Grant,,DND - Right Ankle Sprain                ,,,,,,,0.0,,,,,,,0.0,,,2014-10-14T00:00:00,1,1610612752,NYK,New York,2-2,23,22,22,17,0,0,0,0,0,0,0,0,0,0,84,0.441,0.741,0.286,22,43,21,0011400048,1610612755,PHI,Philadelphia,Jerami Grant,,DND - Right Ankle Sprain                ,,,,,,,,,,,,,
0011400048,1610612755,PHI,Philadelphia,203924,Jerami Grant,,DND - Right Ankle Sprain                ,,,,,,,0.0,,,,,,,0.0,,,2014-10-14T00:00:00,1,1610612755,PHI,Philadelphia,1-3,11,18,27,21,0,0,0,0,0,0,0,0,0,0,77,0.381,0.75,0.111,15,36,21,0011400048,1610612755,PHI,Philadelphia,Jerami Grant,,DND - Right Ankle Sprain                ,,,,,,,,,,,,,
0011400048,1610612755,PHI,Philadelphia,203102,Arnett Moultrie,,DNP - Coach's Decision                  ,,,,,,,0.0,,,,,,,0.0,,,2014-10-14T00:00:00,1,1610612752,NYK,New York,2-2,23,22,22,17,0,0,0,0,0,0,0,0,0,0,84,0.441,0.741,0.286,22,43,21,0011400048,1610612755,PHI,Philadelphia,Arnett Moultrie,,DNP - Coach's Decision                  ,,,,,,,,,,,,,
0011400048,1610612755,PHI,Philadelphia,203102,Arnett Moultrie,,DNP - Coach's Decision                  ,,,,,,,0.0,,,,,,,0.0,,,2014-10-14T00:00:00,1,1610612755,PHI,Philadelphia,1-3,11,18,27,21,0,0,0,0,0,0,0,0,0,0,77,0.381,0.75,0.111,15,36,21,0011400048,1610612755,PHI,Philadelphia,Arnett Moultrie,,DNP - Coach's Decision                  ,,,,,,,,,,,,,
0011400048,1610612755,PHI,Philadelphia,204040,Ronald Roberts Jr.,,DND - Left Quad Strain                  ,,,,,,,0.0,,,,,,,0.0,,,2014-10-14T00:00:00,1,1610612752,NYK,New York,2-2,23,22,22,17,0,0,0,0,0,0,0,0,0,0,84,0.441,0.741,0.286,22,43,21,0011400048,1610612755,PHI,Philadelphia,Ronald Roberts Jr.,,DND - Left Quad Strain                  ,,,,,,,,,,,,,
0011400048,1610612755,PHI,Philadelphia,204040,Ronald Roberts Jr.,,DND - Left Quad Strain                  ,,,,,,,0.0,,,,,,,0.0,,,2014-10-14T00:00:00,1,1610612755,PHI,Philadelphia,1-3,11,18,27,21,0,0,0,0,0,0,0,0,0,0,77,0.381,0.75,0.111,15,36,21,0011400048,1610612755,PHI,Philadelphia,Ronald Roberts Jr.,,DND - Left Quad Strain                  ,,,,,,,,,,,,,
0011400048,1610612755,PHI,Philadelphia,203144,Alexey Shved,,DNP - Coach's Decision                  ,,,,,,,0.0,,,,,,,0.0,,,2014-10-14T00:00:00,1,1610612752,NYK,New York,2-2,23,22,22,17,0,0,0,0,0,0,0,0,0,0,84,0.441,0.741,0.286,22,43,21,0011400048,1610612755,PHI,Philadelphia,Alexey Shved,,DNP - Coach's Decision                  ,,,,,,,,,,,,,
0011400048,1610612755,PHI,Philadelphia,203144,Alexey Shved,,DNP - Coach's Decision                  ,,,,,,,0.0,,,,,,,0.0,,,2014-10-14T00:00:00,1,1610612755,PHI,Philadelphia,1-3,11,18,27,21,0,0,0,0,0,0,0,0,0,0,77,0.381,0.75,0.111,15,36,21,0011400048,1610612755,PHI,Philadelphia,Alexey Shved,,DNP - Coach's Decision                  ,,,,,,,,,,,,,
0011400048,1610612755,PHI,Philadelphia,202343,Elliot Williams,,DNP - Coach's Decision                  ,,,,,,,0.0,,,,,,,0.0,,,2014-10-14T00:00:00,1,1610612752,NYK,New York,2-2,23,22,22,17,0,0,0,0,0,0,0,0,0,0,84,0.441,0.741,0.286,22,43,21,0011400048,1610612755,PHI,Philadelphia,Elliot Williams,,DNP - Coach's Decision                  ,,,,,,,,,,,,,
0011400048,1610612755,PHI,Philadelphia,202343,Elliot Williams,,DNP - Coach's Decision                  ,,,,,,,0.0,,,,,,,0.0,,,2014-10-14T00:00:00,1,1610612755,PHI,Philadelphia,1-3,11,18,27,21,0,0,0,0,0,0,0,0,0,0,77,0.381,0.75,0.111,15,36,21,0011400048,1610612755,PHI,Philadelphia,Elliot Williams,,DNP - Coach's Decision                  ,,,,,,,,,,,,,
