GAME_ID_x,TEAM_ID_x,TEAM_ABBREVIATION_x,TEAM_CITY_x,PLAYER_ID,PLAYER_NAME_x,START_POSITION_x,COMMENT_x,MIN_x,OFF_RATING,DEF_RATING,NET_RATING,AST_PCT,AST_TOV,AST_RATIO,OREB_PCT,DREB_PCT,REB_PCT,TM_TOV_PCT,EFG_PCT,TS_PCT,USG_PCT,PACE,PIE,GAME_DATE_EST,GAME_SEQUENCE,TEAM_ID_y,TEAM_ABBREVIATION_y,TEAM_CITY_NAME,TEAM_WINS_LOSSES,PTS_QTR1,PTS_QTR2,PTS_QTR3,PTS_QTR4,PTS_OT1,PTS_OT2,PTS_OT3,PTS_OT4,PTS_OT5,PTS_OT6,PTS_OT7,PTS_OT8,PTS_OT9,PTS_OT10,PTS,FG_PCT,FT_PCT,FG3_PCT,AST,REB,TOV,GAME_ID_y,TEAM_ID,TEAM_ABBREVIATION,TEAM_CITY_y,PLAYER_NAME_y,START_POSITION_y,COMMENT_y,MIN_y,PTS_OFF_TOV,PTS_2ND_CHANCE,PTS_FB,PTS_PAINT,OPP_PTS_OFF_TOV,OPP_PTS_2ND_CHANCE,OPP_PTS_FB,OPP_PTS_PAINT,BLK,BLKA,PF,PFD
0011400053,1610612765,DET,Detroit,2746,Josh Smith,F,,34:25,117.5,82.7,34.8,0.192,1.0,20.7,0.063,0.205,0.141,20.7,0.542,0.493,0.243,94.42,0.088,2014-10-15T00:00:00,2,1610612765,DET,Detroit,3-1,26,30,28,20,0,0,0,0,0,0,0,0,0,0,104,0.476,0.643,0.4,28,58,14,0011400053,1610612765,DET,Detroit,Josh Smith,F,,34:25,2.0,3.0,0.0,8.0,11.0,8.0,3.0,18.0,1.0,0.0,3.0,3.0
0011400053,1610612765,DET,Detroit,2746,Josh Smith,F,,34:25,117.5,82.7,34.8,0.192,1.0,20.7,0.063,0.205,0.141,20.7,0.542,0.493,0.243,94.42,0.088,2014-10-15T00:00:00,2,1610612766,CHA,Charlotte,2-2,13,30,18,23,0,0,0,0,0,0,0,0,0,0,84,0.341,0.862,0.136,15,36,6,0011400053,1610612765,DET,Detroit,Josh Smith,F,,34:25,2.0,3.0,0.0,8.0,11.0,8.0,3.0,18.0,1.0,0.0,3.0,3.0
0011400053,1610612765,DET,Detroit,202328,Greg Monroe,F,,28:02,117.3,77.2,40.1,0.158,0.0,21.6,0.091,0.138,0.118,0.0,0.6,0.597,0.182,90.37,0.193,2014-10-15T00:00:00,2,1610612765,DET,Detroit,3-1,26,30,28,20,0,0,0,0,0,0,0,0,0,0,104,0.476,0.643,0.4,28,58,14,0011400053,1610612765,DET,Detroit,Greg Monroe,F,,28:02,2.0,4.0,0.0,10.0,6.0,4.0,4.0,12.0,1.0,2.0,1.0,3.0
0011400053,1610612765,DET,Detroit,202328,Greg Monroe,F,,28:02,117.3,77.2,40.1,0.158,0.0,21.6,0.091,0.138,0.118,0.0,0.6,0.597,0.182,90.37,0.193,2014-10-15T00:00:00,2,1610612766,CHA,Charlotte,2-2,13,30,18,23,0,0,0,0,0,0,0,0,0,0,84,0.341,0.862,0.136,15,36,6,0011400053,1610612765,DET,Detroit,Greg Monroe,F,,28:02,2.0,4.0,0.0,10.0,6.0,4.0,4.0,12.0,1.0,2.0,1.0,3.0
0011400053,1610612765,DET,Detroit,203083,Andre Drummond,C,,31:04,108.4,95.7,12.7,0.105,2.0,9.9,0.125,0.286,0.209,5.0,0.4,0.436,0.247,96.16,0.147,2014-10-15T00:00:00,2,1610612765,DET,Detroit,3-1,26,30,28,20,0,0,0,0,0,0,0,0,0,0,104,0.476,0.643,0.4,28,58,14,0011400053,1610612765,DET,Detroit,Andre Drummond,C,,31:04,0.0,4.0,4.0,12.0,11.0,8.0,7.0,16.0,2.0,4.0,3.0,3.0
0011400053,1610612765,DET,Detroit,203083,Andre Drummond,C,,31:04,108.4,95.7,12.7,0.105,2.0,9.9,0.125,0.286,0.209,5.0,0.4,0.436,0.247,96.16,0.147,2014-10-15T00:00:00,2,1610612766,CHA,Charlotte,2-2,13,30,18,23,0,0,0,0,0,0,0,0,0,0,84,0.341,0.862,0.136,15,36,6,0011400053,1610612765,DET,Detroit,Andre Drummond,C,,31:04,0.0,4.0,4.0,12.0,11.0,8.0,7.0,16.0,2.0,4.0,3.0,3.0
0011400053,1610612765,DET,Detroit,201858,Cartier Martin,G,,30:15,110.6,93.8,16.8,0.042,1.0,8.5,0.069,0.057,0.063,8.5,0.5,0.564,0.157,96.32,0.055,2014-10-15T00:00:00,2,1610612765,DET,Detroit,3-1,26,30,28,20,0,0,0,0,0,0,0,0,0,0,104,0.476,0.643,0.4,28,58,14,0011400053,1610612765,DET,Detroit,Cartier Martin,G,,30:15,0.0,1.0,3.0,2.0,11.0,8.0,5.0,16.0,0.0,0.0,3.0,2.0
0011400053,1610612765,DET,Detroit,201858,Cartier Martin,G,,30:15,110.6,93.8,16.8,0.042,1.0,8.5,0.069,0.057,0.063,8.5,0.5,0.564,0.157,96.32,0.055,2014-10-15T00:00:00,2,1610612766,CHA,Charlotte,2-2,13,30,18,23,0,0,0,0,0,0,0,0,0,0,84,0.341,0.862,0.136,15,36,6,0011400053,1610612765,DET,Detroit,Cartier Martin,G,,30:15,0.0,1.0,3.0,2.0,11.0,8.0,5.0,16.0,0.0,0.0,3.0,2.0
0011400053,1610612765,DET,Detroit,201943,Brandon Jennings,G,,23:19,116.4,72.8,43.6,0.474,9.0,52.9,0.0,0.071,0.045,5.9,0.143,0.143,0.163,88.07,0.085,2014-10-15T00:00:00,2,1610612765,DET,Detroit,3-1,26,30,28,20,0,0,0,0,0,0,0,0,0,0,104,0.476,0.643,0.4,28,58,14,0011400053,1610612765,DET,Detroit,Brandon Jennings,G,,23:19,0.0,0.0,0.0,0.0,4.0,2.0,2.0,6.0,0.0,0.0,0.0,0.0
0011400053,1610612765,DET,Detroit,201943,Brandon Jennings,G,,23:19,116.4,72.8,43.6,0.474,9.0,52.9,0.0,0.071,0.045,5.9,0.143,0.143,0.163,88.07,0.085,2014-10-15T00:00:00,2,1610612766,CHA,Charlotte,2-2,13,30,18,23,0,0,0,0,0,0,0,0,0,0,84,0.341,0.862,0.136,15,36,6,0011400053,1610612765,DET,Detroit,Brandon Jennings,G,,23:19,0.0,0.0,0.0,0.0,4.0,2.0,2.0,6.0,0.0,0.0,0.0,0.0
0011400053,1610612765,DET,Detroit,202713,Kyle Singler,,,18:36,125.6,92.0,33.6,0.0,0.0,0.0,0.053,0.118,0.083,17.0,0.625,0.615,0.131,92.89,0.026,2014-10-15T00:00:00,2,1610612765,DET,Detroit,3-1,26,30,28,20,0,0,0,0,0,0,0,0,0,0,104,0.476,0.643,0.4,28,58,14,0011400053,1610612765,DET,Detroit,Kyle Singler,,,18:36,0.0,0.0,2.0,0.0,7.0,5.0,4.0,8.0,0.0,1.0,3.0,2.0
0011400053,1610612765,DET,Detroit,202713,Kyle Singler,,,18:36,125.6,92.0,33.6,0.0,0.0,0.0,0.053,0.118,0.083,17.0,0.625,0.615,0.131,92.89,0.026,2014-10-15T00:00:00,2,1610612766,CHA,Charlotte,2-2,13,30,18,23,0,0,0,0,0,0,0,0,0,0,84,0.341,0.862,0.136,15,36,6,0011400053,1610612765,DET,Detroit,Kyle Singler,,,18:36,0.0,0.0,2.0,0.0,7.0,5.0,4.0,8.0,0.0,1.0,3.0,2.0
0011400053,1610612765,DET,Detroit,201973,Jonas Jerebko,,,13:15,140.1,74.8,65.4,0.125,0.5,11.4,0.222,0.308,0.273,22.8,0.75,0.868,0.279,84.99,0.324,2014-10-15T00:00:00,2,1610612765,DET,Detroit,3-1,26,30,28,20,0,0,0,0,0,0,0,0,0,0,104,0.476,0.643,0.4,28,58,14,0011400053,1610612765,DET,Detroit,Jonas Jerebko,,,13:15,0.0,2.0,2.0,0.0,2.0,2.0,2.0,4.0,1.0,0.0,1.0,2.0
0011400053,1610612765,DET,Detroit,201973,Jonas Jerebko,,,13:15,140.1,74.8,65.4,0.125,0.5,11.4,0.222,0.308,0.273,22.8,0.75,0.868,0.279,84.99,0.324,2014-10-15T00:00:00,2,1610612766,CHA,Charlotte,2-2,13,30,18,23,0,0,0,0,0,0,0,0,0,0,84,0.341,0.862,0.136,15,36,6,0011400053,1610612765,DET,Detroit,Jonas Jerebko,,,13:15,0.0,2.0,2.0,0.0,2.0,2.0,2.0,4.0,1.0,0.0,1.0,2.0
0011400053,1610612765,DET,Detroit,2406,Caron Butler,,,10:39,151.0,89.1,61.9,0.111,0.0,25.0,0.0,0.4,0.222,0.0,1.0,1.0,0.142,91.33,0.18,2014-10-15T00:00:00,2,1610612765,DET,Detroit,3-1,26,30,28,20,0,0,0,0,0,0,0,0,0,0,104,0.476,0.643,0.4,28,58,14,0011400053,1610612765,DET,Detroit,Caron Butler,,,10:39,0.0,0.0,0.0,0.0,2.0,2.0,4.0,6.0,0.0,0.0,1.0,0.0
0011400053,1610612765,DET,Detroit,2406,Caron Butler,,,10:39,151.0,89.1,61.9,0.111,0.0,25.0,0.0,0.4,0.222,0.0,1.0,1.0,0.142,91.33,0.18,2014-10-15T00:00:00,2,1610612766,CHA,Charlotte,2-2,13,30,18,23,0,0,0,0,0,0,0,0,0,0,84,0.341,0.862,0.136,15,36,6,0011400053,1610612765,DET,Detroit,Caron Butler,,,10:39,0.0,0.0,0.0,0.0,2.0,2.0,4.0,6.0,0.0,0.0,1.0,0.0
0011400053,1610612765,DET,Detroit,201571,D.J. Augustin,,,21:43,117.2,103.5,13.7,0.5,6.0,32.0,0.04,0.15,0.089,5.3,0.6,0.68,0.244,99.2,0.226,2014-10-15T00:00:00,2,1610612765,DET,Detroit,3-1,26,30,28,20,0,0,0,0,0,0,0,0,0,0,104,0.476,0.643,0.4,28,58,14,0011400053,1610612765,DET,Detroit,D.J. Augustin,,,21:43,0.0,0.0,2.0,4.0,9.0,8.0,7.0,16.0,0.0,0.0,2.0,4.0
0011400053,1610612765,DET,Detroit,201571,D.J. Augustin,,,21:43,117.2,103.5,13.7,0.5,6.0,32.0,0.04,0.15,0.089,5.3,0.6,0.68,0.244,99.2,0.226,2014-10-15T00:00:00,2,1610612766,CHA,Charlotte,2-2,13,30,18,23,0,0,0,0,0,0,0,0,0,0,84,0.341,0.862,0.136,15,36,6,0011400053,1610612765,DET,Detroit,D.J. Augustin,,,21:43,0.0,0.0,2.0,4.0,9.0,8.0,7.0,16.0,0.0,0.0,2.0,4.0
0011400053,1610612765,DET,Detroit,203540,Gigi Datome,,,14:33,84.9,99.0,-14.2,0.0,0.0,0.0,0.0,0.0,0.0,0.0,0.667,0.654,0.213,94.94,0.176,2014-10-15T00:00:00,2,1610612765,DET,Detroit,3-1,26,30,28,20,0,0,0,0,0,0,0,0,0,0,104,0.476,0.643,0.4,28,58,14,0011400053,1610612765,DET,Detroit,Gigi Datome,,,14:33,0.0,0.0,0.0,0.0,4.0,3.0,5.0,10.0,0.0,0.0,0.0,1.0
0011400053,1610612765,DET,Detroit,203540,Gigi Datome,,,14:33,84.9,99.0,-14.2,0.0,0.0,0.0,0.0,0.0,0.0,0.0,0.667,0.654,0.213,94.94,0.176,2014-10-15T00:00:00,2,1610612766,CHA,Charlotte,2-2,13,30,18,23,0,0,0,0,0,0,0,0,0,0,84,0.341,0.862,0.136,15,36,6,0011400053,1610612765,DET,Detroit,Gigi Datome,,,14:33,0.0,0.0,0.0,0.0,4.0,3.0,5.0,10.0,0.0,0.0,0.0,1.0
0011400053,1610612765,DET,Detroit,203502,Tony Mitchell,,,5:00,50.6,119.0,-68.4,0.0,0.0,0.0,0.0,0.4,0.25,100.0,0.0,0.0,0.092,95.81,-0.2,2014-10-15T00:00:00,2,1610612765,DET,Detroit,3-1,26,30,28,20,0,0,0,0,0,0,0,0,0,0,104,0.476,0.643,0.4,28,58,14,0011400053,1610612765,DET,Detroit,Tony Mitchell,,,5:00,0.0,0.0,0.0,0.0,2.0,0.0,2.0,2.0,1.0,0.0,3.0,0.0
0011400053,1610612765,DET,Detroit,203502,Tony Mitchell,,,5:00,50.6,119.0,-68.4,0.0,0.0,0.0,0.0,0.4,0.25,100.0,0.0,0.0,0.092,95.81,-0.2,2014-10-15T00:00:00,2,1610612766,CHA,Charlotte,2-2,13,30,18,23,0,0,0,0,0,0,0,0,0,0,84,0.341,0.862,0.136,15,36,6,0011400053,1610612765,DET,Detroit,Tony Mitchell,,,5:00,0.0,0.0,0.0,0.0,2.0,0.0,2.0,2.0,1.0,0.0,3.0,0.0
0011400053,1610612765,DET,Detroit,202550,Josh Bostic,,,3:13,28.6,104.2,-75.6,0.0,0.0,0.0,0.0,0.333,0.2,33.3,0.0,0.0,0.375,95.2,-2.0,2014-10-15T00:00:00,2,1610612765,DET,Detroit,3-1,26,30,28,20,0,0,0,0,0,0,0,0,0,0,104,0.476,0.643,0.4,28,58,14,0011400053,1610612765,DET,Detroit,Josh Bostic,,,3:13,0.0,0.0,0.0,0.0,2.0,0.0,0.0,2.0,0.0,1.0,1.0,0.0
0011400053,1610612765,DET,Detroit,202550,Josh Bostic,,,3:13,28.6,104.2,-75.6,0.0,0.0,0.0,0.0,0.333,0.2,33.3,0.0,0.0,0.375,95.2,-2.0,2014-10-15T00:00:00,2,1610612766,CHA,Charlotte,2-2,13,30,18,23,0,0,0,0,0,0,0,0,0,0,84,0.341,0.862,0.136,15,36,6,0011400053,1610612765,DET,Detroit,Josh Bostic,,,3:13,0.0,0.0,0.0,0.0,2.0,0.0,0.0,2.0,0.0,1.0,1.0,0.0
0011400053,1610612765,DET,Detroit,2567,Brian Cook,,,2:58,33.3,104.2,-70.8,0.0,0.0,0.0,0.5,0.0,0.2,0.0,1.0,1.0,0.143,95.14,0.6,2014-10-15T00:00:00,2,1610612765,DET,Detroit,3-1,26,30,28,20,0,0,0,0,0,0,0,0,0,0,104,0.476,0.643,0.4,28,58,14,0011400053,1610612765,DET,Detroit,Brian Cook,,,2:58,0.0,2.0,0.0,2.0,2.0,0.0,0.0,2.0,0.0,0.0,1.0,0.0
0011400053,1610612765,DET,Detroit,2567,Brian Cook,,,2:58,33.3,104.2,-70.8,0.0,0.0,0.0,0.5,0.0,0.2,0.0,1.0,1.0,0.143,95.14,0.6,2014-10-15T00:00:00,2,1610612766,CHA,Charlotte,2-2,13,30,18,23,0,0,0,0,0,0,0,0,0,0,84,0.341,0.862,0.136,15,36,6,0011400053,1610612765,DET,Detroit,Brian Cook,,,2:58,0.0,2.0,0.0,2.0,2.0,0.0,0.0,2.0,0.0,0.0,1.0,0.0
0011400053,1610612765,DET,Detroit,203485,Lorenzo Brown,,,2:58,33.3,104.2,-70.8,0.0,0.0,0.0,0.0,0.333,0.2,0.0,0.0,0.0,0.0,95.14,0.4,2014-10-15T00:00:00,2,1610612765,DET,Detroit,3-1,26,30,28,20,0,0,0,0,0,0,0,0,0,0,104,0.476,0.643,0.4,28,58,14,0011400053,1610612765,DET,Detroit,Lorenzo Brown,,,2:58,0.0,0.0,0.0,0.0,2.0,0.0,0.0,2.0,0.0,0.0,0.0,0.0
0011400053,1610612765,DET,Detroit,203485,Lorenzo Brown,,,2:58,33.3,104.2,-70.8,0.0,0.0,0.0,0.0,0.333,0.2,0.0,0.0,0.0,0.0,95.14,0.4,2014-10-15T00:00:00,2,1610612766,CHA,Charlotte,2-2,13,30,18,23,0,0,0,0,0,0,0,0,0,0,84,0.341,0.862,0.136,15,36,6,0011400053,1610612765,DET,Detroit,Lorenzo Brown,,,2:58,0.0,0.0,0.0,0.0,2.0,0.0,0.0,2.0,0.0,0.0,0.0,0.0
0011400053,1610612765,DET,Detroit,101198,Will Bynum,,DNP - Coach's Decision                  ,,,,,,,0.0,,,,,,,0.0,,,2014-10-15T00:00:00,2,1610612765,DET,Detroit,3-1,26,30,28,20,0,0,0,0,0,0,0,0,0,0,104,0.476,0.643,0.4,28,58,14,0011400053,1610612765,DET,Detroit,Will Bynum,,DNP - Coach's Decision                  ,,,,,,,,,,,,,
0011400053,1610612765,DET,Detroit,101198,Will Bynum,,DNP - Coach's Decision                  ,,,,,,,0.0,,,,,,,0.0,,,2014-10-15T00:00:00,2,1610612766,CHA,Charlotte,2-2,13,30,18,23,0,0,0,0,0,0,0,0,0,0,84,0.341,0.862,0.136,15,36,6,0011400053,1610612765,DET,Detroit,Will Bynum,,DNP - Coach's Decision                  ,,,,,,,,,,,,,
0011400053,1610612765,DET,Detroit,203484,Kentavious Caldwell-Pope,,DND - Left Knee Strain                  ,,,,,,,0.0,,,,,,,0.0,,,2014-10-15T00:00:00,2,1610612765,DET,Detroit,3-1,26,30,28,20,0,0,0,0,0,0,0,0,0,0,104,0.476,0.643,0.4,28,58,14,0011400053,1610612765,DET,Detroit,Kentavious Caldwell-Pope,,DND - Left Knee Strain                  ,,,,,,,,,,,,,
0011400053,1610612765,DET,Detroit,203484,Kentavious Caldwell-Pope,,DND - Left Knee Strain                  ,,,,,,,0.0,,,,,,,0.0,,,2014-10-15T00:00:00,2,1610612766,CHA,Charlotte,2-2,13,30,18,23,0,0,0,0,0,0,0,0,0,0,84,0.341,0.862,0.136,15,36,6,0011400053,1610612765,DET,Detroit,Kentavious Caldwell-Pope,,DND - Left Knee Strain                  ,,,,,,,,,,,,,
0011400053,1610612765,DET,Detroit,203915,Spencer Dinwiddie,,DNP - Coach's Decision                  ,,,,,,,0.0,,,,,,,0.0,,,2014-10-15T00:00:00,2,1610612765,DET,Detroit,3-1,26,30,28,20,0,0,0,0,0,0,0,0,0,0,104,0.476,0.643,0.4,28,58,14,0011400053,1610612765,DET,Detroit,Spencer Dinwiddie,,DNP - Coach's Decision                  ,,,,,,,,,,,,,
0011400053,1610612765,DET,Detroit,203915,Spencer Dinwiddie,,DNP - Coach's Decision                  ,,,,,,,0.0,,,,,,,0.0,,,2014-10-15T00:00:00,2,1610612766,CHA,Charlotte,2-2,13,30,18,23,0,0,0,0,0,0,0,0,0,0,84,0.341,0.862,0.136,15,36,6,0011400053,1610612765,DET,Detroit,Spencer Dinwiddie,,DNP - Coach's Decision                  ,,,,,,,,,,,,,
0011400053,1610612765,DET,Detroit,201189,Aaron Gray,,NWT - Cardiac Episode                   ,,,,,,,0.0,,,,,,,0.0,,,2014-10-15T00:00:00,2,1610612765,DET,Detroit,3-1,26,30,28,20,0,0,0,0,0,0,0,0,0,0,104,0.476,0.643,0.4,28,58,14,0011400053,1610612765,DET,Detroit,Aaron Gray,,NWT - Cardiac Episode                   ,,,,,,,,,,,,,
0011400053,1610612765,DET,Detroit,201189,Aaron Gray,,NWT - Cardiac Episode                   ,,,,,,,0.0,,,,,,,0.0,,,2014-10-15T00:00:00,2,1610612766,CHA,Charlotte,2-2,13,30,18,23,0,0,0,0,0,0,0,0,0,0,84,0.341,0.862,0.136,15,36,6,0011400053,1610612765,DET,Detroit,Aaron Gray,,NWT - Cardiac Episode                   ,,,,,,,,,,,,,
0011400053,1610612765,DET,Detroit,201975,Jodie Meeks,,"NWT - Stress Reaction, Lower Back       ",,,,,,,0.0,,,,,,,0.0,,,2014-10-15T00:00:00,2,1610612765,DET,Detroit,3-1,26,30,28,20,0,0,0,0,0,0,0,0,0,0,104,0.476,0.643,0.4,28,58,14,0011400053,1610612765,DET,Detroit,Jodie Meeks,,"NWT - Stress Reaction, Lower Back       ",,,,,,,,,,,,,
0011400053,1610612765,DET,Detroit,201975,Jodie Meeks,,"NWT - Stress Reaction, Lower Back       ",,,,,,,0.0,,,,,,,0.0,,,2014-10-15T00:00:00,2,1610612766,CHA,Charlotte,2-2,13,30,18,23,0,0,0,0,0,0,0,0,0,0,84,0.341,0.862,0.136,15,36,6,0011400053,1610612765,DET,Detroit,Jodie Meeks,,"NWT - Stress Reaction, Lower Back       ",,,,,,,,,,,,,
0011400053,1610612765,DET,Detroit,201934,Hasheem Thabeet,,DNP - Coach's Decision                  ,,,,,,,0.0,,,,,,,0.0,,,2014-10-15T00:00:00,2,1610612765,DET,Detroit,3-1,26,30,28,20,0,0,0,0,0,0,0,0,0,0,104,0.476,0.643,0.4,28,58,14,0011400053,1610612765,DET,Detroit,Hasheem Thabeet,,DNP - Coach's Decision                  ,,,,,,,,,,,,,
0011400053,1610612765,DET,Detroit,201934,Hasheem Thabeet,,DNP - Coach's Decision                  ,,,,,,,0.0,,,,,,,0.0,,,2014-10-15T00:00:00,2,1610612766,CHA,Charlotte,2-2,13,30,18,23,0,0,0,0,0,0,0,0,0,0,84,0.341,0.862,0.136,15,36,6,0011400053,1610612765,DET,Detroit,Hasheem Thabeet,,DNP - Coach's Decision                  ,,,,,,,,,,,,,
0011400053,1610612766,CHA,Charlotte,203077,Michael Kidd-Gilchrist,F,,23:50,74.1,111.2,-37.0,0.143,0.0,10.1,0.069,0.278,0.149,0.0,0.25,0.338,0.184,87.85,0.106,2014-10-15T00:00:00,2,1610612765,DET,Detroit,3-1,26,30,28,20,0,0,0,0,0,0,0,0,0,0,104,0.476,0.643,0.4,28,58,14,0011400053,1610612766,CHA,Charlotte,Michael Kidd-Gilchrist,F,,23:50,0.0,0.0,0.0,2.0,2.0,9.0,10.0,22.0,1.0,0.0,1.0,1.0
0011400053,1610612766,CHA,Charlotte,203077,Michael Kidd-Gilchrist,F,,23:50,74.1,111.2,-37.0,0.143,0.0,10.1,0.069,0.278,0.149,0.0,0.25,0.338,0.184,87.85,0.106,2014-10-15T00:00:00,2,1610612766,CHA,Charlotte,2-2,13,30,18,23,0,0,0,0,0,0,0,0,0,0,84,0.341,0.862,0.136,15,36,6,0011400053,1610612766,CHA,Charlotte,Michael Kidd-Gilchrist,F,,23:50,0.0,0.0,0.0,2.0,2.0,9.0,10.0,22.0,1.0,0.0,1.0,1.0
0011400053,1610612766,CHA,Charlotte,101107,Marvin Williams,F,,27:50,84.4,116.4,-31.9,0.154,0.0,18.6,0.03,0.08,0.052,0.0,0.357,0.4,0.147,92.92,0.027,2014-10-15T00:00:00,2,1610612765,DET,Detroit,3-1,26,30,28,20,0,0,0,0,0,0,0,0,0,0,104,0.476,0.643,0.4,28,58,14,0011400053,1610612766,CHA,Charlotte,Marvin Williams,F,,27:50,0.0,2.0,0.0,2.0,2.0,8.0,5.0,26.0,0.0,1.0,3.0,5.0
0011400053,1610612766,CHA,Charlotte,101107,Marvin Williams,F,,27:50,84.4,116.4,-31.9,0.154,0.0,18.6,0.03,0.08,0.052,0.0,0.357,0.4,0.147,92.92,0.027,2014-10-15T00:00:00,2,1610612766,CHA,Charlotte,2-2,13,30,18,23,0,0,0,0,0,0,0,0,0,0,84,0.341,0.862,0.136,15,36,6,0011400053,1610612766,CHA,Charlotte,Marvin Williams,F,,27:50,0.0,2.0,0.0,2.0,2.0,8.0,5.0,26.0,0.0,1.0,3.0,5.0
0011400053,1610612766,CHA,Charlotte,2744,Al Jefferson,C,,25:11,90.8,105.6,-14.9,0.2,0.67,15.0,0.034,0.261,0.135,22.5,0.571,0.601,0.212,92.21,0.123,2014-10-15T00:00:00,2,1610612765,DET,Detroit,3-1,26,30,28,20,0,0,0,0,0,0,0,0,0,0,104,0.476,0.643,0.4,28,58,14,0011400053,1610612766,CHA,Charlotte,Al Jefferson,C,,25:11,2.0,0.0,0.0,2.0,2.0,10.0,9.0,22.0,2.0,0.0,4.0,2.0
0011400053,1610612766,CHA,Charlotte,2744,Al Jefferson,C,,25:11,90.8,105.6,-14.9,0.2,0.67,15.0,0.034,0.261,0.135,22.5,0.571,0.601,0.212,92.21,0.123,2014-10-15T00:00:00,2,1610612766,CHA,Charlotte,2-2,13,30,18,23,0,0,0,0,0,0,0,0,0,0,84,0.341,0.862,0.136,15,36,6,0011400053,1610612766,CHA,Charlotte,Al Jefferson,C,,25:11,2.0,0.0,0.0,2.0,2.0,10.0,9.0,22.0,2.0,0.0,4.0,2.0
0011400053,1610612766,CHA,Charlotte,202362,Lance Stephenson,G,,33:17,84.7,121.4,-36.7,0.167,1.5,17.9,0.0,0.103,0.046,11.9,0.2,0.34,0.203,93.13,0.008,2014-10-15T00:00:00,2,1610612765,DET,Detroit,3-1,26,30,28,20,0,0,0,0,0,0,0,0,0,0,104,0.476,0.643,0.4,28,58,14,0011400053,1610612766,CHA,Charlotte,Lance Stephenson,G,,33:17,2.0,2.0,0.0,2.0,4.0,12.0,9.0,34.0,0.0,1.0,3.0,4.0
0011400053,1610612766,CHA,Charlotte,202362,Lance Stephenson,G,,33:17,84.7,121.4,-36.7,0.167,1.5,17.9,0.0,0.103,0.046,11.9,0.2,0.34,0.203,93.13,0.008,2014-10-15T00:00:00,2,1610612766,CHA,Charlotte,2-2,13,30,18,23,0,0,0,0,0,0,0,0,0,0,84,0.341,0.862,0.136,15,36,6,0011400053,1610612766,CHA,Charlotte,Lance Stephenson,G,,33:17,2.0,2.0,0.0,2.0,4.0,12.0,9.0,34.0,0.0,1.0,3.0,4.0
0011400053,1610612766,CHA,Charlotte,203148,Brian Roberts,G,,27:09,89.4,104.4,-15.1,0.0,0.0,0.0,0.0,0.0,0.0,0.0,0.308,0.36,0.241,91.23,0.0,2014-10-15T00:00:00,2,1610612765,DET,Detroit,3-1,26,30,28,20,0,0,0,0,0,0,0,0,0,0,104,0.476,0.643,0.4,28,58,14,0011400053,1610612766,CHA,Charlotte,Brian Roberts,G,,27:09,7.0,0.0,0.0,4.0,2.0,10.0,9.0,22.0,0.0,0.0,1.0,1.0
0011400053,1610612766,CHA,Charlotte,203148,Brian Roberts,G,,27:09,89.4,104.4,-15.1,0.0,0.0,0.0,0.0,0.0,0.0,0.0,0.308,0.36,0.241,91.23,0.0,2014-10-15T00:00:00,2,1610612766,CHA,Charlotte,2-2,13,30,18,23,0,0,0,0,0,0,0,0,0,0,84,0.341,0.862,0.136,15,36,6,0011400053,1610612766,CHA,Charlotte,Brian Roberts,G,,27:09,7.0,0.0,0.0,4.0,2.0,10.0,9.0,22.0,0.0,0.0,1.0,1.0
0011400053,1610612766,CHA,Charlotte,203469,Cody Zeller,,,16:57,95.5,121.1,-25.6,0.167,0.0,41.0,0.0,0.25,0.129,0.0,0.0,0.347,0.079,94.24,0.033,2014-10-15T00:00:00,2,1610612765,DET,Detroit,3-1,26,30,28,20,0,0,0,0,0,0,0,0,0,0,104,0.476,0.643,0.4,28,58,14,0011400053,1610612766,CHA,Charlotte,Cody Zeller,,,16:57,0.0,0.0,0.0,0.0,2.0,6.0,8.0,10.0,2.0,2.0,5.0,1.0
0011400053,1610612766,CHA,Charlotte,203469,Cody Zeller,,,16:57,95.5,121.1,-25.6,0.167,0.0,41.0,0.0,0.25,0.129,0.0,0.0,0.347,0.079,94.24,0.033,2014-10-15T00:00:00,2,1610612766,CHA,Charlotte,2-2,13,30,18,23,0,0,0,0,0,0,0,0,0,0,84,0.341,0.862,0.136,15,36,6,0011400053,1610612766,CHA,Charlotte,Cody Zeller,,,16:57,0.0,0.0,0.0,0.0,2.0,6.0,8.0,10.0,2.0,2.0,5.0,1.0
0011400053,1610612766,CHA,Charlotte,101131,Jason Maxiell,,,19:36,86.0,134.1,-48.0,0.0,0.0,0.0,0.105,0.056,0.081,0.0,0.5,0.512,0.115,94.97,0.052,2014-10-15T00:00:00,2,1610612765,DET,Detroit,3-1,26,30,28,20,0,0,0,0,0,0,0,0,0,0,104,0.476,0.643,0.4,28,58,14,0011400053,1610612766,CHA,Charlotte,Jason Maxiell,,,19:36,0.0,1.0,0.0,2.0,2.0,4.0,4.0,14.0,2.0,0.0,1.0,1.0
0011400053,1610612766,CHA,Charlotte,101131,Jason Maxiell,,,19:36,86.0,134.1,-48.0,0.0,0.0,0.0,0.105,0.056,0.081,0.0,0.5,0.512,0.115,94.97,0.052,2014-10-15T00:00:00,2,1610612766,CHA,Charlotte,2-2,13,30,18,23,0,0,0,0,0,0,0,0,0,0,84,0.341,0.862,0.136,15,36,6,0011400053,1610612766,CHA,Charlotte,Jason Maxiell,,,19:36,0.0,1.0,0.0,2.0,2.0,4.0,4.0,14.0,2.0,0.0,1.0,1.0
0011400053,1610612766,CHA,Charlotte,202390,Gary Neal,,,24:36,92.7,116.9,-24.1,0.182,2.0,12.2,0.042,0.095,0.067,6.1,0.556,0.746,0.274,95.14,0.243,2014-10-15T00:00:00,2,1610612765,DET,Detroit,3-1,26,30,28,20,0,0,0,0,0,0,0,0,0,0,104,0.476,0.643,0.4,28,58,14,0011400053,1610612766,CHA,Charlotte,Gary Neal,,,24:36,4.0,0.0,2.0,6.0,2.0,6.0,4.0,16.0,0.0,0.0,0.0,6.0
0011400053,1610612766,CHA,Charlotte,202390,Gary Neal,,,24:36,92.7,116.9,-24.1,0.182,2.0,12.2,0.042,0.095,0.067,6.1,0.556,0.746,0.274,95.14,0.243,2014-10-15T00:00:00,2,1610612766,CHA,Charlotte,2-2,13,30,18,23,0,0,0,0,0,0,0,0,0,0,84,0.341,0.862,0.136,15,36,6,0011400053,1610612766,CHA,Charlotte,Gary Neal,,,24:36,4.0,0.0,2.0,6.0,2.0,6.0,4.0,16.0,0.0,0.0,0.0,6.0
0011400053,1610612766,CHA,Charlotte,2457,Jannero Pargo,,,17:38,87.6,138.7,-51.1,0.333,0.0,21.4,0.0,0.167,0.086,0.0,0.273,0.273,0.286,96.8,0.04,2014-10-15T00:00:00,2,1610612765,DET,Detroit,3-1,26,30,28,20,0,0,0,0,0,0,0,0,0,0,104,0.476,0.643,0.4,28,58,14,0011400053,1610612766,CHA,Charlotte,Jannero Pargo,,,17:38,0.0,0.0,4.0,0.0,2.0,4.0,4.0,14.0,0.0,0.0,1.0,1.0
0011400053,1610612766,CHA,Charlotte,2457,Jannero Pargo,,,17:38,87.6,138.7,-51.1,0.333,0.0,21.4,0.0,0.167,0.086,0.0,0.273,0.273,0.286,96.8,0.04,2014-10-15T00:00:00,2,1610612766,CHA,Charlotte,2-2,13,30,18,23,0,0,0,0,0,0,0,0,0,0,84,0.341,0.862,0.136,15,36,6,0011400053,1610612766,CHA,Charlotte,Jannero Pargo,,,17:38,0.0,0.0,4.0,0.0,2.0,4.0,4.0,14.0,0.0,0.0,1.0,1.0
0011400053,1610612766,CHA,Charlotte,203798,PJ Hairston,,,14:17,117.3,82.2,35.1,0.0,0.0,0.0,0.077,0.056,0.065,0.0,0.556,0.556,0.258,101.22,0.145,2014-10-15T00:00:00,2,1610612765,DET,Detroit,3-1,26,30,28,20,0,0,0,0,0,0,0,0,0,0,104,0.476,0.643,0.4,28,58,14,0011400053,1610612766,CHA,Charlotte,PJ Hairston,,,14:17,0.0,5.0,3.0,4.0,0.0,5.0,3.0,4.0,0.0,1.0,1.0,0.0
0011400053,1610612766,CHA,Charlotte,203798,PJ Hairston,,,14:17,117.3,82.2,35.1,0.0,0.0,0.0,0.077,0.056,0.065,0.0,0.556,0.556,0.258,101.22,0.145,2014-10-15T00:00:00,2,1610612766,CHA,Charlotte,2-2,13,30,18,23,0,0,0,0,0,0,0,0,0,0,84,0.341,0.862,0.136,15,36,6,0011400053,1610612766,CHA,Charlotte,PJ Hairston,,,14:17,0.0,5.0,3.0,4.0,0.0,5.0,3.0,4.0,0.0,1.0,1.0,0.0
0011400053,1610612766,CHA,Charlotte,203965,Justin Cobbs,,,3:13,104.2,28.6,75.6,0.0,0.0,0.0,0.0,0.5,0.2,0.0,0.0,0.0,0.174,95.2,0.0,2014-10-15T00:00:00,2,1610612765,DET,Detroit,3-1,26,30,28,20,0,0,0,0,0,0,0,0,0,0,104,0.476,0.643,0.4,28,58,14,0011400053,1610612766,CHA,Charlotte,Justin Cobbs,,,3:13,0.0,0.0,0.0,0.0,0.0,2.0,0.0,2.0,0.0,1.0,0.0,0.0
0011400053,1610612766,CHA,Charlotte,203965,Justin Cobbs,,,3:13,104.2,28.6,75.6,0.0,0.0,0.0,0.0,0.5,0.2,0.0,0.0,0.0,0.174,95.2,0.0,2014-10-15T00:00:00,2,1610612766,CHA,Charlotte,2-2,13,30,18,23,0,0,0,0,0,0,0,0,0,0,84,0.341,0.862,0.136,15,36,6,0011400053,1610612766,CHA,Charlotte,Justin Cobbs,,,3:13,0.0,0.0,0.0,0.0,0.0,2.0,0.0,2.0,0.0,1.0,0.0,0.0
0011400053,1610612766,CHA,Charlotte,204041,Brian Qvale,,,3:13,104.2,28.6,75.6,0.0,0.0,0.0,0.0,0.0,0.0,0.0,0.0,0.0,0.174,95.2,-0.667,2014-10-15T00:00:00,2,1610612765,DET,Detroit,3-1,26,30,28,20,0,0,0,0,0,0,0,0,0,0,104,0.476,0.643,0.4,28,58,14,0011400053,1610612766,CHA,Charlotte,Brian Qvale,,,3:13,0.0,0.0,0.0,0.0,0.0,2.0,0.0,2.0,0.0,0.0,0.0,0.0
0011400053,1610612766,CHA,Charlotte,204041,Brian Qvale,,,3:13,104.2,28.6,75.6,0.0,0.0,0.0,0.0,0.0,0.0,0.0,0.0,0.0,0.174,95.2,-0.667,2014-10-15T00:00:00,2,1610612766,CHA,Charlotte,2-2,13,30,18,23,0,0,0,0,0,0,0,0,0,0,84,0.341,0.862,0.136,15,36,6,0011400053,1610612766,CHA,Charlotte,Brian Qvale,,,3:13,0.0,0.0,0.0,0.0,0.0,2.0,0.0,2.0,0.0,0.0,0.0,0.0
0011400053,1610612766,CHA,Charlotte,203193,Dallas Lauderdale,,,3:13,104.2,28.6,75.6,0.0,0.0,0.0,0.0,0.0,0.0,0.0,0.0,0.0,0.0,95.2,0.333,2014-10-15T00:00:00,2,1610612765,DET,Detroit,3-1,26,30,28,20,0,0,0,0,0,0,0,0,0,0,104,0.476,0.643,0.4,28,58,14,0011400053,1610612766,CHA,Charlotte,Dallas Lauderdale,,,3:13,0.0,0.0,0.0,0.0,0.0,2.0,0.0,2.0,1.0,0.0,0.0,0.0
0011400053,1610612766,CHA,Charlotte,203193,Dallas Lauderdale,,,3:13,104.2,28.6,75.6,0.0,0.0,0.0,0.0,0.0,0.0,0.0,0.0,0.0,0.0,95.2,0.333,2014-10-15T00:00:00,2,1610612766,CHA,Charlotte,2-2,13,30,18,23,0,0,0,0,0,0,0,0,0,0,84,0.341,0.862,0.136,15,36,6,0011400053,1610612766,CHA,Charlotte,Dallas Lauderdale,,,3:13,0.0,0.0,0.0,0.0,0.0,2.0,0.0,2.0,1.0,0.0,0.0,0.0
0011400053,1610612766,CHA,Charlotte,202687,Bismack Biyombo,,DNP - Coach's Decision                  ,,,,,,,0.0,,,,,,,0.0,,,2014-10-15T00:00:00,2,1610612765,DET,Detroit,3-1,26,30,28,20,0,0,0,0,0,0,0,0,0,0,104,0.476,0.643,0.4,28,58,14,0011400053,1610612766,CHA,Charlotte,Bismack Biyombo,,DNP - Coach's Decision                  ,,,,,,,,,,,,,
0011400053,1610612766,CHA,Charlotte,202687,Bismack Biyombo,,DNP - Coach's Decision                  ,,,,,,,0.0,,,,,,,0.0,,,2014-10-15T00:00:00,2,1610612766,CHA,Charlotte,2-2,13,30,18,23,0,0,0,0,0,0,0,0,0,0,84,0.341,0.862,0.136,15,36,6,0011400053,1610612766,CHA,Charlotte,Bismack Biyombo,,DNP - Coach's Decision                  ,,,,,,,,,,,,,
0011400053,1610612766,CHA,Charlotte,201945,Gerald Henderson,,DND - Right Hamstring Strain            ,,,,,,,0.0,,,,,,,0.0,,,2014-10-15T00:00:00,2,1610612765,DET,Detroit,3-1,26,30,28,20,0,0,0,0,0,0,0,0,0,0,104,0.476,0.643,0.4,28,58,14,0011400053,1610612766,CHA,Charlotte,Gerald Henderson,,DND - Right Hamstring Strain            ,,,,,,,,,,,,,
0011400053,1610612766,CHA,Charlotte,201945,Gerald Henderson,,DND - Right Hamstring Strain            ,,,,,,,0.0,,,,,,,0.0,,,2014-10-15T00:00:00,2,1610612766,CHA,Charlotte,2-2,13,30,18,23,0,0,0,0,0,0,0,0,0,0,84,0.341,0.862,0.136,15,36,6,0011400053,1610612766,CHA,Charlotte,Gerald Henderson,,DND - Right Hamstring Strain            ,,,,,,,,,,,,,
0011400053,1610612766,CHA,Charlotte,203943,Noah Vonleh,,DND - Sports Hernia Surgery             ,,,,,,,0.0,,,,,,,0.0,,,2014-10-15T00:00:00,2,1610612765,DET,Detroit,3-1,26,30,28,20,0,0,0,0,0,0,0,0,0,0,104,0.476,0.643,0.4,28,58,14,0011400053,1610612766,CHA,Charlotte,Noah Vonleh,,DND - Sports Hernia Surgery             ,,,,,,,,,,,,,
0011400053,1610612766,CHA,Charlotte,203943,Noah Vonleh,,DND - Sports Hernia Surgery             ,,,,,,,0.0,,,,,,,0.0,,,2014-10-15T00:00:00,2,1610612766,CHA,Charlotte,2-2,13,30,18,23,0,0,0,0,0,0,0,0,0,0,84,0.341,0.862,0.136,15,36,6,0011400053,1610612766,CHA,Charlotte,Noah Vonleh,,DND - Sports Hernia Surgery             ,,,,,,,,,,,,,
0011400053,1610612766,CHA,Charlotte,202689,Kemba Walker,,DND - Left Knee Contusion               ,,,,,,,0.0,,,,,,,0.0,,,2014-10-15T00:00:00,2,1610612765,DET,Detroit,3-1,26,30,28,20,0,0,0,0,0,0,0,0,0,0,104,0.476,0.643,0.4,28,58,14,0011400053,1610612766,CHA,Charlotte,Kemba Walker,,DND - Left Knee Contusion               ,,,,,,,,,,,,,
0011400053,1610612766,CHA,Charlotte,202689,Kemba Walker,,DND - Left Knee Contusion               ,,,,,,,0.0,,,,,,,0.0,,,2014-10-15T00:00:00,2,1610612766,CHA,Charlotte,2-2,13,30,18,23,0,0,0,0,0,0,0,0,0,0,84,0.341,0.862,0.136,15,36,6,0011400053,1610612766,CHA,Charlotte,Kemba Walker,,DND - Left Knee Contusion               ,,,,,,,,,,,,,
