GAME_ID_x,TEAM_ID_x,TEAM_ABBREVIATION_x,TEAM_CITY_x,PLAYER_ID,PLAYER_NAME_x,START_POSITION_x,COMMENT_x,MIN_x,OFF_RATING,DEF_RATING,NET_RATING,AST_PCT,AST_TOV,AST_RATIO,OREB_PCT,DREB_PCT,REB_PCT,TM_TOV_PCT,EFG_PCT,TS_PCT,USG_PCT,PACE,PIE,GAME_DATE_EST,GAME_SEQUENCE,TEAM_ID_y,TEAM_ABBREVIATION_y,TEAM_CITY_NAME,TEAM_WINS_LOSSES,PTS_QTR1,PTS_QTR2,PTS_QTR3,PTS_QTR4,PTS_OT1,PTS_OT2,PTS_OT3,PTS_OT4,PTS_OT5,PTS_OT6,PTS_OT7,PTS_OT8,PTS_OT9,PTS_OT10,PTS,FG_PCT,FT_PCT,FG3_PCT,AST,REB,TOV,GAME_ID_y,TEAM_ID,TEAM_ABBREVIATION,TEAM_CITY_y,PLAYER_NAME_y,START_POSITION_y,COMMENT_y,MIN_y,PTS_OFF_TOV,PTS_2ND_CHANCE,PTS_FB,PTS_PAINT,OPP_PTS_OFF_TOV,OPP_PTS_2ND_CHANCE,OPP_PTS_FB,OPP_PTS_PAINT,BLK,BLKA,PF,PFD
0021300675,1610612760,OKC,Oklahoma City,201142,Kevin Durant,F,,40:20,118.0,98.8,19.2,0.217,1.25,14.6,0.0,0.269,0.121,11.7,0.609,0.655,0.326,94.24,0.196,2014-01-29T00:00:00,1,1610612760,OKC,Oklahoma City,37-10,21,34,36,21,0,0,0,0,0,0,0,0,0,0,112,0.513,0.737,0.593,23,34,12,0021300675,1610612760,OKC,Oklahoma City,Kevin Durant,F,,40:20,9.0,0.0,10.0,8.0,10.0,11.0,8.0,36.0,0.0,0.0,3.0,3.0
0021300675,1610612760,OKC,Oklahoma City,201142,Kevin Durant,F,,40:20,118.0,98.8,19.2,0.217,1.25,14.6,0.0,0.269,0.121,11.7,0.609,0.655,0.326,94.24,0.196,2014-01-29T00:00:00,1,1610612748,MIA,Miami,32-13,30,20,25,20,0,0,0,0,0,0,0,0,0,0,95,0.514,0.818,0.158,20,37,20,0021300675,1610612760,OKC,Oklahoma City,Kevin Durant,F,,40:20,9.0,0.0,10.0,8.0,10.0,11.0,8.0,36.0,0.0,0.0,3.0,3.0
0021300675,1610612760,OKC,Oklahoma City,201586,Serge Ibaka,F,,33:19,115.1,113.8,1.3,0.056,0.5,4.2,0.214,0.105,0.17,8.4,0.5,0.527,0.313,91.9,0.125,2014-01-29T00:00:00,1,1610612760,OKC,Oklahoma City,37-10,21,34,36,21,0,0,0,0,0,0,0,0,0,0,112,0.513,0.737,0.593,23,34,12,0021300675,1610612760,OKC,Oklahoma City,Serge Ibaka,F,,33:19,4.0,8.0,2.0,14.0,9.0,8.0,8.0,36.0,1.0,0.0,1.0,1.0
0021300675,1610612760,OKC,Oklahoma City,201586,Serge Ibaka,F,,33:19,115.1,113.8,1.3,0.056,0.5,4.2,0.214,0.105,0.17,8.4,0.5,0.527,0.313,91.9,0.125,2014-01-29T00:00:00,1,1610612748,MIA,Miami,32-13,30,20,25,20,0,0,0,0,0,0,0,0,0,0,95,0.514,0.818,0.158,20,37,20,0021300675,1610612760,OKC,Oklahoma City,Serge Ibaka,F,,33:19,4.0,8.0,2.0,14.0,9.0,8.0,8.0,36.0,1.0,0.0,1.0,1.0
0021300675,1610612760,OKC,Oklahoma City,2570,Kendrick Perkins,C,,4:36,22.2,187.5,-165.3,0.0,0.0,0.0,0.0,0.0,0.0,0.0,0.0,0.0,0.0,88.7,0.0,2014-01-29T00:00:00,1,1610612760,OKC,Oklahoma City,37-10,21,34,36,21,0,0,0,0,0,0,0,0,0,0,112,0.513,0.737,0.593,23,34,12,0021300675,1610612760,OKC,Oklahoma City,Kendrick Perkins,C,,4:36,0.0,0.0,0.0,0.0,7.0,2.0,2.0,6.0,0.0,0.0,0.0,1.0
0021300675,1610612760,OKC,Oklahoma City,2570,Kendrick Perkins,C,,4:36,22.2,187.5,-165.3,0.0,0.0,0.0,0.0,0.0,0.0,0.0,0.0,0.0,0.0,88.7,0.0,2014-01-29T00:00:00,1,1610612748,MIA,Miami,32-13,30,20,25,20,0,0,0,0,0,0,0,0,0,0,95,0.514,0.818,0.158,20,37,20,0021300675,1610612760,OKC,Oklahoma City,Kendrick Perkins,C,,4:36,0.0,0.0,0.0,0.0,7.0,2.0,2.0,6.0,0.0,0.0,0.0,1.0
0021300675,1610612760,OKC,Oklahoma City,200757,Thabo Sefolosha,G,,33:42,115.4,96.7,18.7,0.16,4.0,29.1,0.036,0.167,0.096,7.3,0.5,0.514,0.131,96.77,0.122,2014-01-29T00:00:00,1,1610612760,OKC,Oklahoma City,37-10,21,34,36,21,0,0,0,0,0,0,0,0,0,0,112,0.513,0.737,0.593,23,34,12,0021300675,1610612760,OKC,Oklahoma City,Thabo Sefolosha,G,,33:42,2.0,0.0,1.0,2.0,13.0,6.0,8.0,38.0,0.0,1.0,1.0,2.0
0021300675,1610612760,OKC,Oklahoma City,200757,Thabo Sefolosha,G,,33:42,115.4,96.7,18.7,0.16,4.0,29.1,0.036,0.167,0.096,7.3,0.5,0.514,0.131,96.77,0.122,2014-01-29T00:00:00,1,1610612748,MIA,Miami,32-13,30,20,25,20,0,0,0,0,0,0,0,0,0,0,95,0.514,0.818,0.158,20,37,20,0021300675,1610612760,OKC,Oklahoma City,Thabo Sefolosha,G,,33:42,2.0,0.0,1.0,2.0,13.0,6.0,8.0,38.0,0.0,1.0,1.0,2.0
0021300675,1610612760,OKC,Oklahoma City,202704,Reggie Jackson,G,,29:57,112.2,123.8,-11.7,0.19,1.33,24.0,0.0,0.231,0.083,18.0,0.357,0.467,0.2,90.27,0.041,2014-01-29T00:00:00,1,1610612760,OKC,Oklahoma City,37-10,21,34,36,21,0,0,0,0,0,0,0,0,0,0,112,0.513,0.737,0.593,23,34,12,0021300675,1610612760,OKC,Oklahoma City,Reggie Jackson,G,,29:57,0.0,0.0,2.0,2.0,13.0,8.0,8.0,40.0,0.0,0.0,3.0,6.0
0021300675,1610612760,OKC,Oklahoma City,202704,Reggie Jackson,G,,29:57,112.2,123.8,-11.7,0.19,1.33,24.0,0.0,0.231,0.083,18.0,0.357,0.467,0.2,90.27,0.041,2014-01-29T00:00:00,1,1610612748,MIA,Miami,32-13,30,20,25,20,0,0,0,0,0,0,0,0,0,0,95,0.514,0.818,0.158,20,37,20,0021300675,1610612760,OKC,Oklahoma City,Reggie Jackson,G,,29:57,0.0,0.0,2.0,2.0,13.0,8.0,8.0,40.0,0.0,0.0,3.0,6.0
0021300675,1610612760,OKC,Oklahoma City,203087,Jeremy Lamb,,,34:56,128.0,98.8,29.2,0.148,2.0,25.0,0.063,0.038,0.052,12.5,0.9,0.9,0.154,92.58,0.134,2014-01-29T00:00:00,1,1610612760,OKC,Oklahoma City,37-10,21,34,36,21,0,0,0,0,0,0,0,0,0,0,112,0.513,0.737,0.593,23,34,12,0021300675,1610612760,OKC,Oklahoma City,Jeremy Lamb,,,34:56,8.0,4.0,5.0,6.0,5.0,9.0,4.0,34.0,0.0,0.0,1.0,0.0
0021300675,1610612760,OKC,Oklahoma City,203087,Jeremy Lamb,,,34:56,128.0,98.8,29.2,0.148,2.0,25.0,0.063,0.038,0.052,12.5,0.9,0.9,0.154,92.58,0.134,2014-01-29T00:00:00,1,1610612748,MIA,Miami,32-13,30,20,25,20,0,0,0,0,0,0,0,0,0,0,95,0.514,0.818,0.158,20,37,20,0021300675,1610612760,OKC,Oklahoma City,Jeremy Lamb,,,34:56,8.0,4.0,5.0,6.0,5.0,9.0,4.0,34.0,0.0,0.0,1.0,0.0
0021300675,1610612760,OKC,Oklahoma City,965,Derek Fisher,,,18:03,131.7,69.1,62.6,0.077,0.0,12.5,0.0,0.15,0.086,0.0,1.071,1.071,0.17,97.58,0.293,2014-01-29T00:00:00,1,1610612760,OKC,Oklahoma City,37-10,21,34,36,21,0,0,0,0,0,0,0,0,0,0,112,0.513,0.737,0.593,23,34,12,0021300675,1610612760,OKC,Oklahoma City,Derek Fisher,,,18:03,0.0,3.0,0.0,0.0,1.0,5.0,0.0,8.0,0.0,0.0,1.0,0.0
0021300675,1610612760,OKC,Oklahoma City,965,Derek Fisher,,,18:03,131.7,69.1,62.6,0.077,0.0,12.5,0.0,0.15,0.086,0.0,1.071,1.071,0.17,97.58,0.293,2014-01-29T00:00:00,1,1610612748,MIA,Miami,32-13,30,20,25,20,0,0,0,0,0,0,0,0,0,0,95,0.514,0.818,0.158,20,37,20,0021300675,1610612760,OKC,Oklahoma City,Derek Fisher,,,18:03,0.0,3.0,0.0,0.0,1.0,5.0,0.0,8.0,0.0,0.0,1.0,0.0
0021300675,1610612760,OKC,Oklahoma City,2555,Nick Collison,,,12:55,141.2,73.3,67.9,0.167,0.0,41.0,0.2,0.071,0.125,0.0,0.5,0.521,0.099,99.34,0.112,2014-01-29T00:00:00,1,1610612760,OKC,Oklahoma City,37-10,21,34,36,21,0,0,0,0,0,0,0,0,0,0,112,0.513,0.737,0.593,23,34,12,0021300675,1610612760,OKC,Oklahoma City,Nick Collison,,,12:55,2.0,2.0,0.0,2.0,1.0,5.0,0.0,8.0,0.0,1.0,1.0,2.0
0021300675,1610612760,OKC,Oklahoma City,2555,Nick Collison,,,12:55,141.2,73.3,67.9,0.167,0.0,41.0,0.2,0.071,0.125,0.0,0.5,0.521,0.099,99.34,0.112,2014-01-29T00:00:00,1,1610612748,MIA,Miami,32-13,30,20,25,20,0,0,0,0,0,0,0,0,0,0,95,0.514,0.818,0.158,20,37,20,0021300675,1610612760,OKC,Oklahoma City,Nick Collison,,,12:55,2.0,2.0,0.0,2.0,1.0,5.0,0.0,8.0,0.0,1.0,1.0,2.0
0021300675,1610612760,OKC,Oklahoma City,203103,Perry Jones III,,,30:26,134.4,106.9,27.5,0.083,0.0,33.3,0.0,0.095,0.053,0.0,0.375,0.375,0.066,88.41,-0.005,2014-01-29T00:00:00,1,1610612760,OKC,Oklahoma City,37-10,21,34,36,21,0,0,0,0,0,0,0,0,0,0,112,0.513,0.737,0.593,23,34,12,0021300675,1610612760,OKC,Oklahoma City,Perry Jones III,,,30:26,0.0,0.0,0.0,0.0,7.0,11.0,2.0,30.0,1.0,0.0,5.0,0.0
0021300675,1610612760,OKC,Oklahoma City,203103,Perry Jones III,,,30:26,134.4,106.9,27.5,0.083,0.0,33.3,0.0,0.095,0.053,0.0,0.375,0.375,0.066,88.41,-0.005,2014-01-29T00:00:00,1,1610612748,MIA,Miami,32-13,30,20,25,20,0,0,0,0,0,0,0,0,0,0,95,0.514,0.818,0.158,20,37,20,0021300675,1610612760,OKC,Oklahoma City,Perry Jones III,,,30:26,0.0,0.0,0.0,0.0,7.0,11.0,2.0,30.0,1.0,0.0,5.0,0.0
0021300675,1610612760,OKC,Oklahoma City,203500,Steven Adams,,,1:46,0.0,133.3,-133.3,0.0,0.0,0.0,0.0,0.0,0.0,0.0,0.0,0.0,0.0,67.92,0.0,2014-01-29T00:00:00,1,1610612760,OKC,Oklahoma City,37-10,21,34,36,21,0,0,0,0,0,0,0,0,0,0,112,0.513,0.737,0.593,23,34,12,0021300675,1610612760,OKC,Oklahoma City,Steven Adams,,,1:46,0.0,0.0,0.0,0.0,4.0,0.0,0.0,4.0,0.0,0.0,0.0,0.0
0021300675,1610612760,OKC,Oklahoma City,203500,Steven Adams,,,1:46,0.0,133.3,-133.3,0.0,0.0,0.0,0.0,0.0,0.0,0.0,0.0,0.0,0.0,67.92,0.0,2014-01-29T00:00:00,1,1610612748,MIA,Miami,32-13,30,20,25,20,0,0,0,0,0,0,0,0,0,0,95,0.514,0.818,0.158,20,37,20,0021300675,1610612760,OKC,Oklahoma City,Steven Adams,,,1:46,0.0,0.0,0.0,0.0,4.0,0.0,0.0,4.0,0.0,0.0,0.0,0.0
0021300675,1610612760,OKC,Oklahoma City,201934,Hasheem Thabeet,,DNP - Coach's Decision,,,,,,,0.0,,,,,,,0.0,,,2014-01-29T00:00:00,1,1610612760,OKC,Oklahoma City,37-10,21,34,36,21,0,0,0,0,0,0,0,0,0,0,112,0.513,0.737,0.593,23,34,12,0021300675,1610612760,OKC,Oklahoma City,Hasheem Thabeet,,DNP - Coach's Decision,,,,,,,,,,,,,
0021300675,1610612760,OKC,Oklahoma City,201934,Hasheem Thabeet,,DNP - Coach's Decision,,,,,,,0.0,,,,,,,0.0,,,2014-01-29T00:00:00,1,1610612748,MIA,Miami,32-13,30,20,25,20,0,0,0,0,0,0,0,0,0,0,95,0.514,0.818,0.158,20,37,20,0021300675,1610612760,OKC,Oklahoma City,Hasheem Thabeet,,DNP - Coach's Decision,,,,,,,,,,,,,
0021300675,1610612748,MIA,Miami,2544,LeBron James,F,,42:10,101.5,118.4,-16.9,0.15,1.0,10.0,0.036,0.061,0.049,10.0,0.625,0.71,0.3,94.64,0.175,2014-01-29T00:00:00,1,1610612760,OKC,Oklahoma City,37-10,21,34,36,21,0,0,0,0,0,0,0,0,0,0,112,0.513,0.737,0.593,23,34,12,0021300675,1610612748,MIA,Miami,LeBron James,F,,42:10,4.0,2.0,0.0,14.0,22.0,12.0,15.0,32.0,0.0,0.0,1.0,6.0
0021300675,1610612748,MIA,Miami,2544,LeBron James,F,,42:10,101.5,118.4,-16.9,0.15,1.0,10.0,0.036,0.061,0.049,10.0,0.625,0.71,0.3,94.64,0.175,2014-01-29T00:00:00,1,1610612748,MIA,Miami,32-13,30,20,25,20,0,0,0,0,0,0,0,0,0,0,95,0.514,0.818,0.158,20,37,20,0021300675,1610612748,MIA,Miami,LeBron James,F,,42:10,4.0,2.0,0.0,14.0,22.0,12.0,15.0,32.0,0.0,0.0,1.0,6.0
0021300675,1610612748,MIA,Miami,2203,Shane Battier,F,,19:00,100.9,109.8,-8.8,0.133,0.0,28.6,0.0,0.188,0.107,0.0,0.3,0.3,0.123,99.44,0.0,2014-01-29T00:00:00,1,1610612760,OKC,Oklahoma City,37-10,21,34,36,21,0,0,0,0,0,0,0,0,0,0,112,0.513,0.737,0.593,23,34,12,0021300675,1610612748,MIA,Miami,Shane Battier,F,,19:00,3.0,0.0,0.0,0.0,16.0,2.0,10.0,12.0,0.0,0.0,4.0,1.0
0021300675,1610612748,MIA,Miami,2203,Shane Battier,F,,19:00,100.9,109.8,-8.8,0.133,0.0,28.6,0.0,0.188,0.107,0.0,0.3,0.3,0.123,99.44,0.0,2014-01-29T00:00:00,1,1610612748,MIA,Miami,32-13,30,20,25,20,0,0,0,0,0,0,0,0,0,0,95,0.514,0.818,0.158,20,37,20,0021300675,1610612748,MIA,Miami,Shane Battier,F,,19:00,3.0,0.0,0.0,0.0,16.0,2.0,10.0,12.0,0.0,0.0,4.0,1.0
0021300675,1610612748,MIA,Miami,2547,Chris Bosh,C,,36:12,95.4,111.0,-15.5,0.053,0.5,5.3,0.04,0.286,0.17,10.7,0.536,0.571,0.233,91.86,0.129,2014-01-29T00:00:00,1,1610612760,OKC,Oklahoma City,37-10,21,34,36,21,0,0,0,0,0,0,0,0,0,0,112,0.513,0.737,0.593,23,34,12,0021300675,1610612748,MIA,Miami,Chris Bosh,C,,36:12,0.0,2.0,4.0,10.0,19.0,10.0,13.0,28.0,0.0,1.0,1.0,2.0
0021300675,1610612748,MIA,Miami,2547,Chris Bosh,C,,36:12,95.4,111.0,-15.5,0.053,0.5,5.3,0.04,0.286,0.17,10.7,0.536,0.571,0.233,91.86,0.129,2014-01-29T00:00:00,1,1610612748,MIA,Miami,32-13,30,20,25,20,0,0,0,0,0,0,0,0,0,0,95,0.514,0.818,0.158,20,37,20,0021300675,1610612748,MIA,Miami,Chris Bosh,C,,36:12,0.0,2.0,4.0,10.0,19.0,10.0,13.0,28.0,0.0,1.0,1.0,2.0
0021300675,1610612748,MIA,Miami,2548,Dwyane Wade,G,,31:31,92.7,107.6,-14.9,0.133,0.5,10.6,0.04,0.0,0.019,21.2,0.583,0.582,0.239,95.1,0.051,2014-01-29T00:00:00,1,1610612760,OKC,Oklahoma City,37-10,21,34,36,21,0,0,0,0,0,0,0,0,0,0,112,0.513,0.737,0.593,23,34,12,0021300675,1610612748,MIA,Miami,Dwyane Wade,G,,31:31,2.0,1.0,4.0,6.0,15.0,13.0,16.0,18.0,2.0,0.0,3.0,1.0
0021300675,1610612748,MIA,Miami,2548,Dwyane Wade,G,,31:31,92.7,107.6,-14.9,0.133,0.5,10.6,0.04,0.0,0.019,21.2,0.583,0.582,0.239,95.1,0.051,2014-01-29T00:00:00,1,1610612748,MIA,Miami,32-13,30,20,25,20,0,0,0,0,0,0,0,0,0,0,95,0.514,0.818,0.158,20,37,20,0021300675,1610612748,MIA,Miami,Dwyane Wade,G,,31:31,2.0,1.0,4.0,6.0,15.0,13.0,16.0,18.0,2.0,0.0,3.0,1.0
0021300675,1610612748,MIA,Miami,201596,Mario Chalmers,G,,25:56,110.8,120.0,-9.2,0.364,1.6,45.9,0.125,0.182,0.158,28.7,0.5,0.45,0.17,96.88,0.083,2014-01-29T00:00:00,1,1610612760,OKC,Oklahoma City,37-10,21,34,36,21,0,0,0,0,0,0,0,0,0,0,112,0.513,0.737,0.593,23,34,12,0021300675,1610612748,MIA,Miami,Mario Chalmers,G,,25:56,0.0,2.0,0.0,4.0,17.0,8.0,11.0,16.0,0.0,0.0,1.0,1.0
0021300675,1610612748,MIA,Miami,201596,Mario Chalmers,G,,25:56,110.8,120.0,-9.2,0.364,1.6,45.9,0.125,0.182,0.158,28.7,0.5,0.45,0.17,96.88,0.083,2014-01-29T00:00:00,1,1610612748,MIA,Miami,32-13,30,20,25,20,0,0,0,0,0,0,0,0,0,0,95,0.514,0.818,0.158,20,37,20,0021300675,1610612748,MIA,Miami,Mario Chalmers,G,,25:56,0.0,2.0,0.0,4.0,17.0,8.0,11.0,16.0,0.0,0.0,1.0,1.0
0021300675,1610612748,MIA,Miami,951,Ray Allen,,,30:38,98.9,138.6,-39.7,0.0,0.0,0.0,0.0,0.174,0.087,25.8,0.25,0.434,0.12,89.57,0.026,2014-01-29T00:00:00,1,1610612760,OKC,Oklahoma City,37-10,21,34,36,21,0,0,0,0,0,0,0,0,0,0,112,0.513,0.737,0.593,23,34,12,0021300675,1610612748,MIA,Miami,Ray Allen,,,30:38,1.0,0.0,0.0,0.0,19.0,15.0,10.0,26.0,0.0,0.0,1.0,3.0
0021300675,1610612748,MIA,Miami,951,Ray Allen,,,30:38,98.9,138.6,-39.7,0.0,0.0,0.0,0.0,0.174,0.087,25.8,0.25,0.434,0.12,89.57,0.026,2014-01-29T00:00:00,1,1610612748,MIA,Miami,32-13,30,20,25,20,0,0,0,0,0,0,0,0,0,0,95,0.514,0.818,0.158,20,37,20,0021300675,1610612748,MIA,Miami,Ray Allen,,,30:38,1.0,0.0,0.0,0.0,19.0,15.0,10.0,26.0,0.0,0.0,1.0,3.0
0021300675,1610612748,MIA,Miami,2365,Chris Andersen,,,19:02,118.9,138.0,-19.1,0.0,0.0,0.0,0.308,0.167,0.226,0.0,0.8,0.8,0.125,92.2,0.127,2014-01-29T00:00:00,1,1610612760,OKC,Oklahoma City,37-10,21,34,36,21,0,0,0,0,0,0,0,0,0,0,112,0.513,0.737,0.593,23,34,12,0021300675,1610612748,MIA,Miami,Chris Andersen,,,19:02,0.0,6.0,0.0,8.0,6.0,9.0,9.0,16.0,0.0,0.0,2.0,1.0
0021300675,1610612748,MIA,Miami,2365,Chris Andersen,,,19:02,118.9,138.0,-19.1,0.0,0.0,0.0,0.308,0.167,0.226,0.0,0.8,0.8,0.125,92.2,0.127,2014-01-29T00:00:00,1,1610612748,MIA,Miami,32-13,30,20,25,20,0,0,0,0,0,0,0,0,0,0,95,0.514,0.818,0.158,20,37,20,0021300675,1610612748,MIA,Miami,Chris Andersen,,,19:02,0.0,6.0,0.0,8.0,6.0,9.0,9.0,16.0,0.0,0.0,2.0,1.0
0021300675,1610612748,MIA,Miami,202708,Norris Cole,,,22:44,99.4,132.7,-33.3,0.176,1.0,37.5,0.059,0.059,0.059,37.5,0.0,0.0,0.101,92.1,0.006,2014-01-29T00:00:00,1,1610612760,OKC,Oklahoma City,37-10,21,34,36,21,0,0,0,0,0,0,0,0,0,0,112,0.513,0.737,0.593,23,34,12,0021300675,1610612748,MIA,Miami,Norris Cole,,,22:44,0.0,0.0,0.0,0.0,8.0,11.0,9.0,18.0,0.0,0.0,0.0,0.0
0021300675,1610612748,MIA,Miami,202708,Norris Cole,,,22:44,99.4,132.7,-33.3,0.176,1.0,37.5,0.059,0.059,0.059,37.5,0.0,0.0,0.101,92.1,0.006,2014-01-29T00:00:00,1,1610612748,MIA,Miami,32-13,30,20,25,20,0,0,0,0,0,0,0,0,0,0,95,0.514,0.818,0.158,20,37,20,0021300675,1610612748,MIA,Miami,Norris Cole,,,22:44,0.0,0.0,0.0,0.0,8.0,11.0,9.0,18.0,0.0,0.0,0.0,0.0
0021300675,1610612748,MIA,Miami,201563,Michael Beasley,,,7:29,123.0,148.9,-26.0,0.0,0.0,0.0,0.0,0.4,0.182,14.5,0.4,0.51,0.39,87.88,0.097,2014-01-29T00:00:00,1,1610612760,OKC,Oklahoma City,37-10,21,34,36,21,0,0,0,0,0,0,0,0,0,0,112,0.513,0.737,0.593,23,34,12,0021300675,1610612748,MIA,Miami,Michael Beasley,,,7:29,2.0,0.0,0.0,4.0,3.0,5.0,7.0,4.0,0.0,1.0,1.0,1.0
0021300675,1610612748,MIA,Miami,201563,Michael Beasley,,,7:29,123.0,148.9,-26.0,0.0,0.0,0.0,0.0,0.4,0.182,14.5,0.4,0.51,0.39,87.88,0.097,2014-01-29T00:00:00,1,1610612748,MIA,Miami,32-13,30,20,25,20,0,0,0,0,0,0,0,0,0,0,95,0.514,0.818,0.158,20,37,20,0021300675,1610612748,MIA,Miami,Michael Beasley,,,7:29,2.0,0.0,0.0,4.0,3.0,5.0,7.0,4.0,0.0,1.0,1.0,1.0
0021300675,1610612748,MIA,Miami,2617,Udonis Haslem,,,1:46,133.3,0.0,133.3,0.0,0.0,0.0,0.0,0.0,0.0,0.0,0.0,0.0,0.0,67.92,0.0,2014-01-29T00:00:00,1,1610612760,OKC,Oklahoma City,37-10,21,34,36,21,0,0,0,0,0,0,0,0,0,0,112,0.513,0.737,0.593,23,34,12,0021300675,1610612748,MIA,Miami,Udonis Haslem,,,1:46,0.0,0.0,0.0,0.0,0.0,0.0,0.0,0.0,0.0,0.0,0.0,0.0
0021300675,1610612748,MIA,Miami,2617,Udonis Haslem,,,1:46,133.3,0.0,133.3,0.0,0.0,0.0,0.0,0.0,0.0,0.0,0.0,0.0,0.0,67.92,0.0,2014-01-29T00:00:00,1,1610612748,MIA,Miami,32-13,30,20,25,20,0,0,0,0,0,0,0,0,0,0,95,0.514,0.818,0.158,20,37,20,0021300675,1610612748,MIA,Miami,Udonis Haslem,,,1:46,0.0,0.0,0.0,0.0,0.0,0.0,0.0,0.0,0.0,0.0,0.0,0.0
0021300675,1610612748,MIA,Miami,201962,Toney Douglas,,,1:46,133.3,0.0,133.3,0.0,0.0,0.0,0.0,0.0,0.0,0.0,1.0,1.0,0.333,67.92,0.5,2014-01-29T00:00:00,1,1610612760,OKC,Oklahoma City,37-10,21,34,36,21,0,0,0,0,0,0,0,0,0,0,112,0.513,0.737,0.593,23,34,12,0021300675,1610612748,MIA,Miami,Toney Douglas,,,1:46,2.0,0.0,0.0,2.0,0.0,0.0,0.0,0.0,0.0,0.0,1.0,0.0
0021300675,1610612748,MIA,Miami,201962,Toney Douglas,,,1:46,133.3,0.0,133.3,0.0,0.0,0.0,0.0,0.0,0.0,0.0,1.0,1.0,0.333,67.92,0.5,2014-01-29T00:00:00,1,1610612748,MIA,Miami,32-13,30,20,25,20,0,0,0,0,0,0,0,0,0,0,95,0.514,0.818,0.158,20,37,20,0021300675,1610612748,MIA,Miami,Toney Douglas,,,1:46,2.0,0.0,0.0,2.0,0.0,0.0,0.0,0.0,0.0,0.0,1.0,0.0
0021300675,1610612748,MIA,Miami,1740,Rashard Lewis,,,1:46,133.3,0.0,133.3,0.5,0.0,100.0,0.0,0.0,0.0,0.0,0.0,0.0,0.0,67.92,1.0,2014-01-29T00:00:00,1,1610612760,OKC,Oklahoma City,37-10,21,34,36,21,0,0,0,0,0,0,0,0,0,0,112,0.513,0.737,0.593,23,34,12,0021300675,1610612748,MIA,Miami,Rashard Lewis,,,1:46,0.0,0.0,0.0,0.0,0.0,0.0,0.0,0.0,0.0,0.0,0.0,0.0
0021300675,1610612748,MIA,Miami,1740,Rashard Lewis,,,1:46,133.3,0.0,133.3,0.5,0.0,100.0,0.0,0.0,0.0,0.0,0.0,0.0,0.0,67.92,1.0,2014-01-29T00:00:00,1,1610612748,MIA,Miami,32-13,30,20,25,20,0,0,0,0,0,0,0,0,0,0,95,0.514,0.818,0.158,20,37,20,0021300675,1610612748,MIA,Miami,Rashard Lewis,,,1:46,0.0,0.0,0.0,0.0,0.0,0.0,0.0,0.0,0.0,0.0,0.0,0.0
0021300675,1610612748,MIA,Miami,201141,Greg Oden,,DNP - Coach's Decision,,,,,,,0.0,,,,,,,0.0,,,2014-01-29T00:00:00,1,1610612760,OKC,Oklahoma City,37-10,21,34,36,21,0,0,0,0,0,0,0,0,0,0,112,0.513,0.737,0.593,23,34,12,0021300675,1610612748,MIA,Miami,Greg Oden,,DNP - Coach's Decision,,,,,,,,,,,,,
0021300675,1610612748,MIA,Miami,201141,Greg Oden,,DNP - Coach's Decision,,,,,,,0.0,,,,,,,0.0,,,2014-01-29T00:00:00,1,1610612748,MIA,Miami,32-13,30,20,25,20,0,0,0,0,0,0,0,0,0,0,95,0.514,0.818,0.158,20,37,20,0021300675,1610612748,MIA,Miami,Greg Oden,,DNP - Coach's Decision,,,,,,,,,,,,,
