GAME_ID_x,TEAM_ID_x,TEAM_ABBREVIATION_x,TEAM_CITY_x,PLAYER_ID,PLAYER_NAME_x,START_POSITION_x,COMMENT_x,MIN_x,OFF_RATING,DEF_RATING,NET_RATING,AST_PCT,AST_TOV,AST_RATIO,OREB_PCT,DREB_PCT,REB_PCT,TM_TOV_PCT,EFG_PCT,TS_PCT,USG_PCT,PACE,PIE,GAME_DATE_EST,GAME_SEQUENCE,TEAM_ID_y,TEAM_ABBREVIATION_y,TEAM_CITY_NAME,TEAM_WINS_LOSSES,PTS_QTR1,PTS_QTR2,PTS_QTR3,PTS_QTR4,PTS_OT1,PTS_OT2,PTS_OT3,PTS_OT4,PTS_OT5,PTS_OT6,PTS_OT7,PTS_OT8,PTS_OT9,PTS_OT10,PTS,FG_PCT,FT_PCT,FG3_PCT,AST,REB,TOV,GAME_ID_y,TEAM_ID,TEAM_ABBREVIATION,TEAM_CITY_y,PLAYER_NAME_y,START_POSITION_y,COMMENT_y,MIN_y,PTS_OFF_TOV,PTS_2ND_CHANCE,PTS_FB,PTS_PAINT,OPP_PTS_OFF_TOV,OPP_PTS_2ND_CHANCE,OPP_PTS_FB,OPP_PTS_PAINT,BLK,BLKA,PF,PFD
0021300685,1610612764,WAS,Washington,2772,Trevor Ariza,F,,37:19,96.9,102.8,-5.9,0.207,2.0,23.6,0.061,0.032,0.047,11.8,0.375,0.395,0.217,105.06,0.043,2014-01-29T00:00:00,10,1610612764,WAS,Washington,22-23,31,20,23,29,0,0,0,0,0,0,0,0,0,0,103,0.511,0.588,0.136,31,36,16,0021300685,1610612764,WAS,Washington,Trevor Ariza,F,,37:19,4.0,5.0,0.0,10.0,17.0,8.0,16.0,38.0,0.0,0.0,3.0,3.0
0021300685,1610612764,WAS,Washington,2772,Trevor Ariza,F,,37:19,96.9,102.8,-5.9,0.207,2.0,23.6,0.061,0.032,0.047,11.8,0.375,0.395,0.217,105.06,0.043,2014-01-29T00:00:00,10,1610612746,LAC,Los Angeles,33-15,30,32,19,29,0,0,0,0,0,0,0,0,0,0,110,0.493,0.762,0.4,21,43,19,0021300685,1610612764,WAS,Washington,Trevor Ariza,F,,37:19,4.0,5.0,0.0,10.0,17.0,8.0,16.0,38.0,0.0,0.0,3.0,3.0
0021300685,1610612764,WAS,Washington,2403,Nene,F,,25:39,86.9,115.4,-28.5,0.375,1.5,23.6,0.083,0.375,0.2,15.7,0.467,0.453,0.311,102.47,0.146,2014-01-29T00:00:00,10,1610612764,WAS,Washington,22-23,31,20,23,29,0,0,0,0,0,0,0,0,0,0,103,0.511,0.588,0.136,31,36,16,0021300685,1610612764,WAS,Washington,Nene,F,,25:39,6.0,2.0,4.0,10.0,9.0,8.0,4.0,22.0,0.0,1.0,4.0,3.0
0021300685,1610612764,WAS,Washington,2403,Nene,F,,25:39,86.9,115.4,-28.5,0.375,1.5,23.6,0.083,0.375,0.2,15.7,0.467,0.453,0.311,102.47,0.146,2014-01-29T00:00:00,10,1610612746,LAC,Los Angeles,33-15,30,32,19,29,0,0,0,0,0,0,0,0,0,0,110,0.493,0.762,0.4,21,43,19,0021300685,1610612764,WAS,Washington,Nene,F,,25:39,6.0,2.0,4.0,10.0,9.0,8.0,4.0,22.0,0.0,1.0,4.0,3.0
0021300685,1610612764,WAS,Washington,101162,Marcin Gortat,C,,23:49,97.0,100.3,-3.3,0.056,1.0,16.7,0.05,0.2,0.125,16.7,1.0,1.0,0.093,102.14,0.128,2014-01-29T00:00:00,10,1610612764,WAS,Washington,22-23,31,20,23,29,0,0,0,0,0,0,0,0,0,0,103,0.511,0.588,0.136,31,36,16,0021300685,1610612764,WAS,Washington,Marcin Gortat,C,,23:49,2.0,2.0,0.0,6.0,11.0,8.0,10.0,28.0,3.0,0.0,3.0,0.0
0021300685,1610612764,WAS,Washington,101162,Marcin Gortat,C,,23:49,97.0,100.3,-3.3,0.056,1.0,16.7,0.05,0.2,0.125,16.7,1.0,1.0,0.093,102.14,0.128,2014-01-29T00:00:00,10,1610612746,LAC,Los Angeles,33-15,30,32,19,29,0,0,0,0,0,0,0,0,0,0,110,0.493,0.762,0.4,21,43,19,0021300685,1610612764,WAS,Washington,Marcin Gortat,C,,23:49,2.0,2.0,0.0,6.0,11.0,8.0,10.0,28.0,3.0,0.0,3.0,0.0
0021300685,1610612764,WAS,Washington,203078,Bradley Beal,G,,30:44,85.8,109.7,-23.9,0.15,0.0,14.5,0.0,0.0,0.0,0.0,0.533,0.567,0.231,107.7,0.14,2014-01-29T00:00:00,10,1610612764,WAS,Washington,22-23,31,20,23,29,0,0,0,0,0,0,0,0,0,0,103,0.511,0.588,0.136,31,36,16,0021300685,1610612764,WAS,Washington,Bradley Beal,G,,30:44,4.0,0.0,4.0,10.0,13.0,11.0,4.0,26.0,0.0,1.0,2.0,3.0
0021300685,1610612764,WAS,Washington,203078,Bradley Beal,G,,30:44,85.8,109.7,-23.9,0.15,0.0,14.5,0.0,0.0,0.0,0.0,0.533,0.567,0.231,107.7,0.14,2014-01-29T00:00:00,10,1610612746,LAC,Los Angeles,33-15,30,32,19,29,0,0,0,0,0,0,0,0,0,0,110,0.493,0.762,0.4,21,43,19,0021300685,1610612764,WAS,Washington,Bradley Beal,G,,30:44,4.0,0.0,4.0,10.0,13.0,11.0,4.0,26.0,0.0,1.0,2.0,3.0
0021300685,1610612764,WAS,Washington,202322,John Wall,G,,34:51,96.0,105.6,-9.6,0.44,3.67,38.4,0.0,0.138,0.067,10.5,0.583,0.649,0.21,104.7,0.192,2014-01-29T00:00:00,10,1610612764,WAS,Washington,22-23,31,20,23,29,0,0,0,0,0,0,0,0,0,0,103,0.511,0.588,0.136,31,36,16,0021300685,1610612764,WAS,Washington,John Wall,G,,34:51,4.0,0.0,9.0,10.0,15.0,10.0,10.0,38.0,0.0,0.0,2.0,4.0
0021300685,1610612764,WAS,Washington,202322,John Wall,G,,34:51,96.0,105.6,-9.6,0.44,3.67,38.4,0.0,0.138,0.067,10.5,0.583,0.649,0.21,104.7,0.192,2014-01-29T00:00:00,10,1610612746,LAC,Los Angeles,33-15,30,32,19,29,0,0,0,0,0,0,0,0,0,0,110,0.493,0.762,0.4,21,43,19,0021300685,1610612764,WAS,Washington,John Wall,G,,34:51,4.0,0.0,9.0,10.0,15.0,10.0,10.0,38.0,0.0,0.0,2.0,4.0
0021300685,1610612764,WAS,Washington,101110,Martell Webster,,,27:23,109.6,112.7,-3.1,0.043,1.0,10.0,0.0,0.1,0.048,10.0,0.563,0.563,0.156,100.09,0.041,2014-01-29T00:00:00,10,1610612764,WAS,Washington,22-23,31,20,23,29,0,0,0,0,0,0,0,0,0,0,103,0.511,0.588,0.136,31,36,16,0021300685,1610612764,WAS,Washington,Martell Webster,,,27:23,0.0,0.0,0.0,0.0,10.0,7.0,12.0,20.0,0.0,0.0,1.0,0.0
0021300685,1610612764,WAS,Washington,101110,Martell Webster,,,27:23,109.6,112.7,-3.1,0.043,1.0,10.0,0.0,0.1,0.048,10.0,0.563,0.563,0.156,100.09,0.041,2014-01-29T00:00:00,10,1610612746,LAC,Los Angeles,33-15,30,32,19,29,0,0,0,0,0,0,0,0,0,0,110,0.493,0.762,0.4,21,43,19,0021300685,1610612764,WAS,Washington,Martell Webster,,,27:23,0.0,0.0,0.0,0.0,10.0,7.0,12.0,20.0,0.0,0.0,1.0,0.0
0021300685,1610612764,WAS,Washington,202344,Trevor Booker,,,17:46,110.4,93.2,17.2,0.0,0.0,0.0,0.0,0.263,0.161,22.5,0.5,0.436,0.228,106.29,0.028,2014-01-29T00:00:00,10,1610612764,WAS,Washington,22-23,31,20,23,29,0,0,0,0,0,0,0,0,0,0,103,0.511,0.588,0.136,31,36,16,0021300685,1610612764,WAS,Washington,Trevor Booker,,,17:46,0.0,0.0,2.0,4.0,11.0,3.0,6.0,14.0,0.0,0.0,2.0,1.0
0021300685,1610612764,WAS,Washington,202344,Trevor Booker,,,17:46,110.4,93.2,17.2,0.0,0.0,0.0,0.0,0.263,0.161,22.5,0.5,0.436,0.228,106.29,0.028,2014-01-29T00:00:00,10,1610612746,LAC,Los Angeles,33-15,30,32,19,29,0,0,0,0,0,0,0,0,0,0,110,0.493,0.762,0.4,21,43,19,0021300685,1610612764,WAS,Washington,Trevor Booker,,,17:46,0.0,0.0,2.0,4.0,11.0,3.0,6.0,14.0,0.0,0.0,2.0,1.0
0021300685,1610612764,WAS,Washington,202338,Kevin Seraphin,,,28:46,97.0,115.4,-18.4,0.043,0.5,9.1,0.038,0.286,0.149,18.2,0.625,0.625,0.143,107.09,0.079,2014-01-29T00:00:00,10,1610612764,WAS,Washington,22-23,31,20,23,29,0,0,0,0,0,0,0,0,0,0,103,0.511,0.588,0.136,31,36,16,0021300685,1610612764,WAS,Washington,Kevin Seraphin,,,28:46,0.0,0.0,0.0,8.0,9.0,7.0,12.0,20.0,1.0,1.0,4.0,1.0
0021300685,1610612764,WAS,Washington,202338,Kevin Seraphin,,,28:46,97.0,115.4,-18.4,0.043,0.5,9.1,0.038,0.286,0.149,18.2,0.625,0.625,0.143,107.09,0.079,2014-01-29T00:00:00,10,1610612746,LAC,Los Angeles,33-15,30,32,19,29,0,0,0,0,0,0,0,0,0,0,110,0.493,0.762,0.4,21,43,19,0021300685,1610612764,WAS,Washington,Kevin Seraphin,,,28:46,0.0,0.0,0.0,8.0,9.0,7.0,12.0,20.0,1.0,1.0,4.0,1.0
0021300685,1610612764,WAS,Washington,202066,Garrett Temple,,,13:09,98.9,111.9,-13.0,0.182,0.0,31.1,0.0,0.222,0.105,0.0,0.5,0.45,0.157,103.9,0.04,2014-01-29T00:00:00,10,1610612764,WAS,Washington,22-23,31,20,23,29,0,0,0,0,0,0,0,0,0,0,103,0.511,0.588,0.136,31,36,16,0021300685,1610612764,WAS,Washington,Garrett Temple,,,13:09,2.0,0.0,2.0,4.0,5.0,3.0,6.0,4.0,0.0,0.0,5.0,1.0
0021300685,1610612764,WAS,Washington,202066,Garrett Temple,,,13:09,98.9,111.9,-13.0,0.182,0.0,31.1,0.0,0.222,0.105,0.0,0.5,0.45,0.157,103.9,0.04,2014-01-29T00:00:00,10,1610612746,LAC,Los Angeles,33-15,30,32,19,29,0,0,0,0,0,0,0,0,0,0,110,0.493,0.762,0.4,21,43,19,0021300685,1610612764,WAS,Washington,Garrett Temple,,,13:09,2.0,0.0,2.0,4.0,5.0,3.0,6.0,4.0,0.0,0.0,5.0,1.0
0021300685,1610612764,WAS,Washington,203490,Otto Porter Jr.,,,0:34,138.9,0.0,138.9,0.0,0.0,0.0,0.0,0.0,0.0,0.0,0.0,0.0,0.0,103.65,0.0,2014-01-29T00:00:00,10,1610612764,WAS,Washington,22-23,31,20,23,29,0,0,0,0,0,0,0,0,0,0,103,0.511,0.588,0.136,31,36,16,0021300685,1610612764,WAS,Washington,Otto Porter Jr.,,,0:34,0.0,0.0,0.0,0.0,0.0,0.0,0.0,0.0,0.0,0.0,0.0,0.0
0021300685,1610612764,WAS,Washington,203490,Otto Porter Jr.,,,0:34,138.9,0.0,138.9,0.0,0.0,0.0,0.0,0.0,0.0,0.0,0.0,0.0,0.0,103.65,0.0,2014-01-29T00:00:00,10,1610612746,LAC,Los Angeles,33-15,30,32,19,29,0,0,0,0,0,0,0,0,0,0,110,0.493,0.762,0.4,21,43,19,0021300685,1610612764,WAS,Washington,Otto Porter Jr.,,,0:34,0.0,0.0,0.0,0.0,0.0,0.0,0.0,0.0,0.0,0.0,0.0,0.0
0021300685,1610612764,WAS,Washington,201953,Eric Maynor,,DNP - Coach's Decision,,,,,,,0.0,,,,,,,0.0,,,2014-01-29T00:00:00,10,1610612764,WAS,Washington,22-23,31,20,23,29,0,0,0,0,0,0,0,0,0,0,103,0.511,0.588,0.136,31,36,16,0021300685,1610612764,WAS,Washington,Eric Maynor,,DNP - Coach's Decision,,,,,,,,,,,,,
0021300685,1610612764,WAS,Washington,201953,Eric Maynor,,DNP - Coach's Decision,,,,,,,0.0,,,,,,,0.0,,,2014-01-29T00:00:00,10,1610612746,LAC,Los Angeles,33-15,30,32,19,29,0,0,0,0,0,0,0,0,0,0,110,0.493,0.762,0.4,21,43,19,0021300685,1610612764,WAS,Washington,Eric Maynor,,DNP - Coach's Decision,,,,,,,,,,,,,
0021300685,1610612764,WAS,Washington,202698,Chris Singleton,,DNP - Coach's Decision,,,,,,,0.0,,,,,,,0.0,,,2014-01-29T00:00:00,10,1610612764,WAS,Washington,22-23,31,20,23,29,0,0,0,0,0,0,0,0,0,0,103,0.511,0.588,0.136,31,36,16,0021300685,1610612764,WAS,Washington,Chris Singleton,,DNP - Coach's Decision,,,,,,,,,,,,,
0021300685,1610612764,WAS,Washington,202698,Chris Singleton,,DNP - Coach's Decision,,,,,,,0.0,,,,,,,0.0,,,2014-01-29T00:00:00,10,1610612746,LAC,Los Angeles,33-15,30,32,19,29,0,0,0,0,0,0,0,0,0,0,110,0.493,0.762,0.4,21,43,19,0021300685,1610612764,WAS,Washington,Chris Singleton,,DNP - Coach's Decision,,,,,,,,,,,,,
0021300685,1610612764,WAS,Washington,202686,Jan Vesely,,DNP - Coach's Decision,,,,,,,0.0,,,,,,,0.0,,,2014-01-29T00:00:00,10,1610612764,WAS,Washington,22-23,31,20,23,29,0,0,0,0,0,0,0,0,0,0,103,0.511,0.588,0.136,31,36,16,0021300685,1610612764,WAS,Washington,Jan Vesely,,DNP - Coach's Decision,,,,,,,,,,,,,
0021300685,1610612764,WAS,Washington,202686,Jan Vesely,,DNP - Coach's Decision,,,,,,,0.0,,,,,,,0.0,,,2014-01-29T00:00:00,10,1610612746,LAC,Los Angeles,33-15,30,32,19,29,0,0,0,0,0,0,0,0,0,0,110,0.493,0.762,0.4,21,43,19,0021300685,1610612764,WAS,Washington,Jan Vesely,,DNP - Coach's Decision,,,,,,,,,,,,,
0021300685,1610612746,LAC,Los Angeles,2440,Matt Barnes,F,,26:56,99.7,96.6,3.1,0.045,1.0,11.1,0.0,0.174,0.089,11.1,0.286,0.286,0.125,107.18,0.018,2014-01-29T00:00:00,10,1610612764,WAS,Washington,22-23,31,20,23,29,0,0,0,0,0,0,0,0,0,0,103,0.511,0.588,0.136,31,36,16,0021300685,1610612746,LAC,Los Angeles,Matt Barnes,F,,26:56,2.0,0.0,2.0,2.0,18.0,7.0,17.0,42.0,0.0,1.0,2.0,0.0
0021300685,1610612746,LAC,Los Angeles,2440,Matt Barnes,F,,26:56,99.7,96.6,3.1,0.045,1.0,11.1,0.0,0.174,0.089,11.1,0.286,0.286,0.125,107.18,0.018,2014-01-29T00:00:00,10,1610612746,LAC,Los Angeles,33-15,30,32,19,29,0,0,0,0,0,0,0,0,0,0,110,0.493,0.762,0.4,21,43,19,0021300685,1610612746,LAC,Los Angeles,Matt Barnes,F,,26:56,2.0,0.0,2.0,2.0,18.0,7.0,17.0,42.0,0.0,1.0,2.0,0.0
0021300685,1610612746,LAC,Los Angeles,201933,Blake Griffin,F,,37:23,101.6,92.1,9.4,0.235,0.67,11.9,0.031,0.229,0.134,17.9,0.6,0.616,0.34,104.88,0.168,2014-01-29T00:00:00,10,1610612764,WAS,Washington,22-23,31,20,23,29,0,0,0,0,0,0,0,0,0,0,103,0.511,0.588,0.136,31,36,16,0021300685,1610612746,LAC,Los Angeles,Blake Griffin,F,,37:23,4.0,2.0,4.0,20.0,16.0,9.0,17.0,46.0,1.0,1.0,4.0,7.0
0021300685,1610612746,LAC,Los Angeles,201933,Blake Griffin,F,,37:23,101.6,92.1,9.4,0.235,0.67,11.9,0.031,0.229,0.134,17.9,0.6,0.616,0.34,104.88,0.168,2014-01-29T00:00:00,10,1610612746,LAC,Los Angeles,33-15,30,32,19,29,0,0,0,0,0,0,0,0,0,0,110,0.493,0.762,0.4,21,43,19,0021300685,1610612746,LAC,Los Angeles,Blake Griffin,F,,37:23,4.0,2.0,4.0,20.0,16.0,9.0,17.0,46.0,1.0,1.0,4.0,7.0
0021300685,1610612746,LAC,Los Angeles,201599,DeAndre Jordan,C,,42:16,105.1,96.2,9.0,0.0,0.0,0.0,0.161,0.333,0.254,17.5,0.8,0.745,0.118,103.92,0.139,2014-01-29T00:00:00,10,1610612764,WAS,Washington,22-23,31,20,23,29,0,0,0,0,0,0,0,0,0,0,103,0.511,0.588,0.136,31,36,16,0021300685,1610612746,LAC,Los Angeles,DeAndre Jordan,C,,42:16,4.0,4.0,2.0,8.0,22.0,9.0,19.0,58.0,2.0,0.0,2.0,6.0
0021300685,1610612746,LAC,Los Angeles,201599,DeAndre Jordan,C,,42:16,105.1,96.2,9.0,0.0,0.0,0.0,0.161,0.333,0.254,17.5,0.8,0.745,0.118,103.92,0.139,2014-01-29T00:00:00,10,1610612746,LAC,Los Angeles,33-15,30,32,19,29,0,0,0,0,0,0,0,0,0,0,110,0.493,0.762,0.4,21,43,19,0021300685,1610612746,LAC,Los Angeles,DeAndre Jordan,C,,42:16,4.0,4.0,2.0,8.0,22.0,9.0,19.0,58.0,2.0,0.0,2.0,6.0
0021300685,1610612746,LAC,Los Angeles,200755,JJ Redick,G,,36:10,108.5,92.3,16.1,0.048,0.25,5.6,0.0,0.063,0.035,22.5,0.773,0.784,0.206,106.12,0.097,2014-01-29T00:00:00,10,1610612764,WAS,Washington,22-23,31,20,23,29,0,0,0,0,0,0,0,0,0,0,103,0.511,0.588,0.136,31,36,16,0021300685,1610612746,LAC,Los Angeles,JJ Redick,G,,36:10,2.0,2.0,0.0,2.0,22.0,9.0,17.0,56.0,0.0,0.0,2.0,2.0
0021300685,1610612746,LAC,Los Angeles,200755,JJ Redick,G,,36:10,108.5,92.3,16.1,0.048,0.25,5.6,0.0,0.063,0.035,22.5,0.773,0.784,0.206,106.12,0.097,2014-01-29T00:00:00,10,1610612746,LAC,Los Angeles,33-15,30,32,19,29,0,0,0,0,0,0,0,0,0,0,110,0.493,0.762,0.4,21,43,19,0021300685,1610612746,LAC,Los Angeles,JJ Redick,G,,36:10,2.0,2.0,0.0,2.0,22.0,9.0,17.0,56.0,0.0,0.0,2.0,2.0
0021300685,1610612746,LAC,Los Angeles,201954,Darren Collison,G,,27:40,105.0,87.5,17.5,0.529,2.25,36.5,0.0,0.036,0.02,16.2,0.556,0.687,0.241,108.61,0.165,2014-01-29T00:00:00,10,1610612764,WAS,Washington,22-23,31,20,23,29,0,0,0,0,0,0,0,0,0,0,103,0.511,0.588,0.136,31,36,16,0021300685,1610612746,LAC,Los Angeles,Darren Collison,G,,27:40,2.0,2.0,4.0,10.0,16.0,9.0,14.0,42.0,0.0,2.0,2.0,3.0
0021300685,1610612746,LAC,Los Angeles,201954,Darren Collison,G,,27:40,105.0,87.5,17.5,0.529,2.25,36.5,0.0,0.036,0.02,16.2,0.556,0.687,0.241,108.61,0.165,2014-01-29T00:00:00,10,1610612746,LAC,Los Angeles,33-15,30,32,19,29,0,0,0,0,0,0,0,0,0,0,110,0.493,0.762,0.4,21,43,19,0021300685,1610612746,LAC,Los Angeles,Darren Collison,G,,27:40,2.0,2.0,4.0,10.0,16.0,9.0,14.0,42.0,0.0,2.0,2.0,3.0
0021300685,1610612746,LAC,Los Angeles,2037,Jamal Crawford,,,28:52,110.5,97.1,13.5,0.214,1.5,13.5,0.0,0.208,0.106,9.0,0.417,0.608,0.294,103.39,0.172,2014-01-29T00:00:00,10,1610612764,WAS,Washington,22-23,31,20,23,29,0,0,0,0,0,0,0,0,0,0,103,0.511,0.588,0.136,31,36,16,0021300685,1610612746,LAC,Los Angeles,Jamal Crawford,,,28:52,6.0,0.0,3.0,0.0,6.0,2.0,9.0,30.0,0.0,0.0,1.0,6.0
0021300685,1610612746,LAC,Los Angeles,2037,Jamal Crawford,,,28:52,110.5,97.1,13.5,0.214,1.5,13.5,0.0,0.208,0.106,9.0,0.417,0.608,0.294,103.39,0.172,2014-01-29T00:00:00,10,1610612746,LAC,Los Angeles,33-15,30,32,19,29,0,0,0,0,0,0,0,0,0,0,110,0.493,0.762,0.4,21,43,19,0021300685,1610612746,LAC,Los Angeles,Jamal Crawford,,,28:52,6.0,0.0,3.0,0.0,6.0,2.0,9.0,30.0,0.0,0.0,1.0,6.0
0021300685,1610612746,LAC,Los Angeles,201162,Jared Dudley,,,16:25,108.7,112.2,-3.5,0.125,0.0,33.3,0.0,0.0,0.0,0.0,1.25,1.25,0.054,96.66,0.087,2014-01-29T00:00:00,10,1610612764,WAS,Washington,22-23,31,20,23,29,0,0,0,0,0,0,0,0,0,0,103,0.511,0.588,0.136,31,36,16,0021300685,1610612746,LAC,Los Angeles,Jared Dudley,,,16:25,0.0,3.0,0.0,0.0,6.0,0.0,4.0,14.0,0.0,0.0,1.0,1.0
0021300685,1610612746,LAC,Los Angeles,201162,Jared Dudley,,,16:25,108.7,112.2,-3.5,0.125,0.0,33.3,0.0,0.0,0.0,0.0,1.25,1.25,0.054,96.66,0.087,2014-01-29T00:00:00,10,1610612746,LAC,Los Angeles,33-15,30,32,19,29,0,0,0,0,0,0,0,0,0,0,110,0.493,0.762,0.4,21,43,19,0021300685,1610612746,LAC,Los Angeles,Jared Dudley,,,16:25,0.0,3.0,0.0,0.0,6.0,0.0,4.0,14.0,0.0,0.0,1.0,1.0
0021300685,1610612746,LAC,Los Angeles,2584,Willie Green,,,10:38,116.1,110.2,5.9,0.143,0.0,14.3,0.091,0.0,0.056,0.0,0.0,0.0,0.246,97.69,-0.128,2014-01-29T00:00:00,10,1610612764,WAS,Washington,22-23,31,20,23,29,0,0,0,0,0,0,0,0,0,0,103,0.511,0.588,0.136,31,36,16,0021300685,1610612746,LAC,Los Angeles,Willie Green,,,10:38,0.0,0.0,0.0,0.0,0.0,0.0,2.0,6.0,0.0,0.0,1.0,0.0
0021300685,1610612746,LAC,Los Angeles,2584,Willie Green,,,10:38,116.1,110.2,5.9,0.143,0.0,14.3,0.091,0.0,0.056,0.0,0.0,0.0,0.246,97.69,-0.128,2014-01-29T00:00:00,10,1610612746,LAC,Los Angeles,33-15,30,32,19,29,0,0,0,0,0,0,0,0,0,0,110,0.493,0.762,0.4,21,43,19,0021300685,1610612746,LAC,Los Angeles,Willie Green,,,10:38,0.0,0.0,0.0,0.0,0.0,0.0,2.0,6.0,0.0,0.0,1.0,0.0
0021300685,1610612746,LAC,Los Angeles,2045,Hedo Turkoglu,,,10:07,131.6,123.4,8.2,0.143,0.0,34.7,0.167,0.429,0.308,0.0,0.0,0.266,0.084,102.37,0.064,2014-01-29T00:00:00,10,1610612764,WAS,Washington,22-23,31,20,23,29,0,0,0,0,0,0,0,0,0,0,103,0.511,0.588,0.136,31,36,16,0021300685,1610612746,LAC,Los Angeles,Hedo Turkoglu,,,10:07,0.0,0.0,1.0,0.0,4.0,0.0,4.0,12.0,0.0,0.0,1.0,1.0
0021300685,1610612746,LAC,Los Angeles,2045,Hedo Turkoglu,,,10:07,131.6,123.4,8.2,0.143,0.0,34.7,0.167,0.429,0.308,0.0,0.0,0.266,0.084,102.37,0.064,2014-01-29T00:00:00,10,1610612746,LAC,Los Angeles,33-15,30,32,19,29,0,0,0,0,0,0,0,0,0,0,110,0.493,0.762,0.4,21,43,19,0021300685,1610612746,LAC,Los Angeles,Hedo Turkoglu,,,10:07,0.0,0.0,1.0,0.0,4.0,0.0,4.0,12.0,0.0,0.0,1.0,1.0
0021300685,1610612746,LAC,Los Angeles,200797,Ryan Hollins,,,3:34,132.2,101.5,30.7,0.0,0.0,0.0,0.0,0.0,0.0,0.0,0.0,0.0,0.0,108.96,0.0,2014-01-29T00:00:00,10,1610612764,WAS,Washington,22-23,31,20,23,29,0,0,0,0,0,0,0,0,0,0,103,0.511,0.588,0.136,31,36,16,0021300685,1610612746,LAC,Los Angeles,Ryan Hollins,,,3:34,0.0,0.0,0.0,0.0,0.0,0.0,2.0,4.0,0.0,0.0,0.0,0.0
0021300685,1610612746,LAC,Los Angeles,200797,Ryan Hollins,,,3:34,132.2,101.5,30.7,0.0,0.0,0.0,0.0,0.0,0.0,0.0,0.0,0.0,0.0,108.96,0.0,2014-01-29T00:00:00,10,1610612746,LAC,Los Angeles,33-15,30,32,19,29,0,0,0,0,0,0,0,0,0,0,110,0.493,0.762,0.4,21,43,19,0021300685,1610612746,LAC,Los Angeles,Ryan Hollins,,,3:34,0.0,0.0,0.0,0.0,0.0,0.0,2.0,4.0,0.0,0.0,0.0,0.0
0021300685,1610612746,LAC,Los Angeles,203493,Reggie Bullock,,DNP - Coach's Decision,,,,,,,0.0,,,,,,,0.0,,,2014-01-29T00:00:00,10,1610612764,WAS,Washington,22-23,31,20,23,29,0,0,0,0,0,0,0,0,0,0,103,0.511,0.588,0.136,31,36,16,0021300685,1610612746,LAC,Los Angeles,Reggie Bullock,,DNP - Coach's Decision,,,,,,,,,,,,,
0021300685,1610612746,LAC,Los Angeles,203493,Reggie Bullock,,DNP - Coach's Decision,,,,,,,0.0,,,,,,,0.0,,,2014-01-29T00:00:00,10,1610612746,LAC,Los Angeles,33-15,30,32,19,29,0,0,0,0,0,0,0,0,0,0,110,0.493,0.762,0.4,21,43,19,0021300685,1610612746,LAC,Los Angeles,Reggie Bullock,,DNP - Coach's Decision,,,,,,,,,,,,,
0021300685,1610612746,LAC,Los Angeles,1712,Antawn Jamison,,DND - Viral illness.,,,,,,,0.0,,,,,,,0.0,,,2014-01-29T00:00:00,10,1610612764,WAS,Washington,22-23,31,20,23,29,0,0,0,0,0,0,0,0,0,0,103,0.511,0.588,0.136,31,36,16,0021300685,1610612746,LAC,Los Angeles,Antawn Jamison,,DND - Viral illness.,,,,,,,,,,,,,
0021300685,1610612746,LAC,Los Angeles,1712,Antawn Jamison,,DND - Viral illness.,,,,,,,0.0,,,,,,,0.0,,,2014-01-29T00:00:00,10,1610612746,LAC,Los Angeles,33-15,30,32,19,29,0,0,0,0,0,0,0,0,0,0,110,0.493,0.762,0.4,21,43,19,0021300685,1610612746,LAC,Los Angeles,Antawn Jamison,,DND - Viral illness.,,,,,,,,,,,,,
0021300685,1610612746,LAC,Los Angeles,201957,Byron Mullens,,DNP - Coach's Decision,,,,,,,0.0,,,,,,,0.0,,,2014-01-29T00:00:00,10,1610612764,WAS,Washington,22-23,31,20,23,29,0,0,0,0,0,0,0,0,0,0,103,0.511,0.588,0.136,31,36,16,0021300685,1610612746,LAC,Los Angeles,Byron Mullens,,DNP - Coach's Decision,,,,,,,,,,,,,
0021300685,1610612746,LAC,Los Angeles,201957,Byron Mullens,,DNP - Coach's Decision,,,,,,,0.0,,,,,,,0.0,,,2014-01-29T00:00:00,10,1610612746,LAC,Los Angeles,33-15,30,32,19,29,0,0,0,0,0,0,0,0,0,0,110,0.493,0.762,0.4,21,43,19,0021300685,1610612746,LAC,Los Angeles,Byron Mullens,,DNP - Coach's Decision,,,,,,,,,,,,,
