GAME_ID_x,TEAM_ID_x,TEAM_ABBREVIATION_x,TEAM_CITY_x,PLAYER_ID,PLAYER_NAME_x,START_POSITION_x,COMMENT_x,MIN_x,OFF_RATING,DEF_RATING,NET_RATING,AST_PCT,AST_TOV,AST_RATIO,OREB_PCT,DREB_PCT,REB_PCT,TM_TOV_PCT,EFG_PCT,TS_PCT,USG_PCT,PACE,PIE,GAME_DATE_EST,GAME_SEQUENCE,TEAM_ID_y,TEAM_ABBREVIATION_y,TEAM_CITY_NAME,TEAM_WINS_LOSSES,PTS_QTR1,PTS_QTR2,PTS_QTR3,PTS_QTR4,PTS_OT1,PTS_OT2,PTS_OT3,PTS_OT4,PTS_OT5,PTS_OT6,PTS_OT7,PTS_OT8,PTS_OT9,PTS_OT10,PTS,FG_PCT,FT_PCT,FG3_PCT,AST,REB,TOV,GAME_ID_y,TEAM_ID,TEAM_ABBREVIATION,TEAM_CITY_y,PLAYER_NAME_y,START_POSITION_y,COMMENT_y,MIN_y,PTS_OFF_TOV,PTS_2ND_CHANCE,PTS_FB,PTS_PAINT,OPP_PTS_OFF_TOV,OPP_PTS_2ND_CHANCE,OPP_PTS_FB,OPP_PTS_PAINT,BLK,BLKA,PF,PFD
0011400074,1610612742,DAL,Dallas,203109,Jae Crowder,F,,34:45,91.9,88.0,3.9,0.083,2.0,17.5,0.0,0.0,0.0,8.7,0.5,0.533,0.123,103.64,0.02,2014-10-18T00:00:00,1,1610612742,DAL,Dallas,2-3,29,23,22,19,0,0,0,0,0,0,0,0,0,0,93,0.435,0.632,0.35,20,41,16,0011400074,1610612742,DAL,Dallas,Jae Crowder,F,,34:45,2.0,0.0,0.0,2.0,9.0,4.0,11.0,20.0,0.0,0.0,5.0,3.0
0011400074,1610612742,DAL,Dallas,203109,Jae Crowder,F,,34:45,91.9,88.0,3.9,0.083,2.0,17.5,0.0,0.0,0.0,8.7,0.5,0.533,0.123,103.64,0.02,2014-10-18T00:00:00,1,1610612754,IND,Indiana,2-3,25,17,19,37,0,0,0,0,0,0,0,0,0,0,98,0.425,0.784,0.259,19,44,17,0011400074,1610612742,DAL,Dallas,Jae Crowder,F,,34:45,2.0,0.0,0.0,2.0,9.0,4.0,11.0,20.0,0.0,0.0,5.0,3.0
0011400074,1610612742,DAL,Dallas,201274,Ivan Johnson,F,,6:13,71.2,80.4,-9.1,0.0,0.0,0.0,0.167,0.25,0.2,25.0,0.0,0.0,0.243,107.63,-0.542,2014-10-18T00:00:00,1,1610612742,DAL,Dallas,2-3,29,23,22,19,0,0,0,0,0,0,0,0,0,0,93,0.435,0.632,0.35,20,41,16,0011400074,1610612742,DAL,Dallas,Ivan Johnson,F,,6:13,0.0,0.0,0.0,0.0,0.0,0.0,0.0,2.0,0.0,2.0,5.0,2.0
0011400074,1610612742,DAL,Dallas,201274,Ivan Johnson,F,,6:13,71.2,80.4,-9.1,0.0,0.0,0.0,0.167,0.25,0.2,25.0,0.0,0.0,0.243,107.63,-0.542,2014-10-18T00:00:00,1,1610612754,IND,Indiana,2-3,25,17,19,37,0,0,0,0,0,0,0,0,0,0,98,0.425,0.784,0.259,19,44,17,0011400074,1610612742,DAL,Dallas,Ivan Johnson,F,,6:13,0.0,0.0,0.0,0.0,0.0,0.0,0.0,2.0,0.0,2.0,5.0,2.0
0011400074,1610612742,DAL,Dallas,202962,Greg Smith,C,,15:16,93.0,82.7,10.3,0.0,0.0,0.0,0.0,0.273,0.115,0.0,0.4,0.425,0.166,103.69,-0.048,2014-10-18T00:00:00,1,1610612742,DAL,Dallas,2-3,29,23,22,19,0,0,0,0,0,0,0,0,0,0,93,0.435,0.632,0.35,20,41,16,0011400074,1610612742,DAL,Dallas,Greg Smith,C,,15:16,2.0,0.0,0.0,4.0,5.0,3.0,7.0,8.0,0.0,0.0,6.0,1.0
0011400074,1610612742,DAL,Dallas,202962,Greg Smith,C,,15:16,93.0,82.7,10.3,0.0,0.0,0.0,0.0,0.273,0.115,0.0,0.4,0.425,0.166,103.69,-0.048,2014-10-18T00:00:00,1,1610612754,IND,Indiana,2-3,25,17,19,37,0,0,0,0,0,0,0,0,0,0,98,0.425,0.784,0.259,19,44,17,0011400074,1610612742,DAL,Dallas,Greg Smith,C,,15:16,2.0,0.0,0.0,4.0,5.0,3.0,7.0,8.0,0.0,0.0,6.0,1.0
0011400074,1610612742,DAL,Dallas,2210,Richard Jefferson,G,,25:59,95.2,77.1,18.1,0.133,2.0,12.0,0.043,0.16,0.104,6.0,0.727,0.696,0.249,106.3,0.23,2014-10-18T00:00:00,1,1610612742,DAL,Dallas,2-3,29,23,22,19,0,0,0,0,0,0,0,0,0,0,93,0.435,0.632,0.35,20,41,16,0011400074,1610612742,DAL,Dallas,Richard Jefferson,G,,25:59,4.0,4.0,2.0,8.0,8.0,6.0,4.0,12.0,0.0,0.0,4.0,5.0
0011400074,1610612742,DAL,Dallas,2210,Richard Jefferson,G,,25:59,95.2,77.1,18.1,0.133,2.0,12.0,0.043,0.16,0.104,6.0,0.727,0.696,0.249,106.3,0.23,2014-10-18T00:00:00,1,1610612754,IND,Indiana,2-3,25,17,19,37,0,0,0,0,0,0,0,0,0,0,98,0.425,0.784,0.259,19,44,17,0011400074,1610612742,DAL,Dallas,Richard Jefferson,G,,25:59,4.0,4.0,2.0,8.0,8.0,6.0,4.0,12.0,0.0,0.0,4.0,5.0
0011400074,1610612742,DAL,Dallas,203539,Gal Mekel,G,,42:33,96.2,94.6,1.6,0.31,1.8,30.2,0.0,0.054,0.025,16.8,0.536,0.603,0.211,103.46,0.107,2014-10-18T00:00:00,1,1610612742,DAL,Dallas,2-3,29,23,22,19,0,0,0,0,0,0,0,0,0,0,93,0.435,0.632,0.35,20,41,16,0011400074,1610612742,DAL,Dallas,Gal Mekel,G,,42:33,4.0,0.0,4.0,8.0,12.0,8.0,12.0,28.0,0.0,1.0,4.0,2.0
0011400074,1610612742,DAL,Dallas,203539,Gal Mekel,G,,42:33,96.2,94.6,1.6,0.31,1.8,30.2,0.0,0.054,0.025,16.8,0.536,0.603,0.211,103.46,0.107,2014-10-18T00:00:00,1,1610612754,IND,Indiana,2-3,25,17,19,37,0,0,0,0,0,0,0,0,0,0,98,0.425,0.784,0.259,19,44,17,0011400074,1610612742,DAL,Dallas,Gal Mekel,G,,42:33,4.0,0.0,4.0,8.0,12.0,8.0,12.0,28.0,0.0,1.0,4.0,2.0
0011400074,1610612742,DAL,Dallas,101111,Charlie Villanueva,,,18:45,85.4,113.6,-28.2,0.1,0.0,6.7,0.045,0.273,0.121,0.0,0.385,0.396,0.309,105.37,0.107,2014-10-18T00:00:00,1,1610612742,DAL,Dallas,2-3,29,23,22,19,0,0,0,0,0,0,0,0,0,0,93,0.435,0.632,0.35,20,41,16,0011400074,1610612742,DAL,Dallas,Charlie Villanueva,,,18:45,5.0,5.0,0.0,2.0,6.0,4.0,7.0,20.0,0.0,0.0,1.0,1.0
0011400074,1610612742,DAL,Dallas,101111,Charlie Villanueva,,,18:45,85.4,113.6,-28.2,0.1,0.0,6.7,0.045,0.273,0.121,0.0,0.385,0.396,0.309,105.37,0.107,2014-10-18T00:00:00,1,1610612754,IND,Indiana,2-3,25,17,19,37,0,0,0,0,0,0,0,0,0,0,98,0.425,0.784,0.259,19,44,17,0011400074,1610612742,DAL,Dallas,Charlie Villanueva,,,18:45,5.0,5.0,0.0,2.0,6.0,4.0,7.0,20.0,0.0,0.0,1.0,1.0
0011400074,1610612742,DAL,Dallas,201148,Brandan Wright,,,14:03,90.8,89.5,1.3,0.0,0.0,0.0,0.0,0.273,0.13,22.5,0.667,0.727,0.279,104.2,0.227,2014-10-18T00:00:00,1,1610612742,DAL,Dallas,2-3,29,23,22,19,0,0,0,0,0,0,0,0,0,0,93,0.435,0.632,0.35,20,41,16,0011400074,1610612742,DAL,Dallas,Brandan Wright,,,14:03,2.0,0.0,2.0,8.0,7.0,1.0,4.0,14.0,1.0,0.0,1.0,2.0
0011400074,1610612742,DAL,Dallas,201148,Brandan Wright,,,14:03,90.8,89.5,1.3,0.0,0.0,0.0,0.0,0.273,0.13,22.5,0.667,0.727,0.279,104.2,0.227,2014-10-18T00:00:00,1,1610612754,IND,Indiana,2-3,25,17,19,37,0,0,0,0,0,0,0,0,0,0,98,0.425,0.784,0.259,19,44,17,0011400074,1610612742,DAL,Dallas,Brandan Wright,,,14:03,2.0,0.0,2.0,8.0,7.0,1.0,4.0,14.0,1.0,0.0,1.0,2.0
0011400074,1610612742,DAL,Dallas,203495,Ricky Ledo,,,20:25,82.9,117.0,-34.0,0.273,3.0,21.6,0.048,0.188,0.108,7.2,0.222,0.202,0.23,99.28,0.008,2014-10-18T00:00:00,1,1610612742,DAL,Dallas,2-3,29,23,22,19,0,0,0,0,0,0,0,0,0,0,93,0.435,0.632,0.35,20,41,16,0011400074,1610612742,DAL,Dallas,Ricky Ledo,,,20:25,0.0,0.0,0.0,0.0,9.0,4.0,10.0,26.0,0.0,0.0,1.0,2.0
0011400074,1610612742,DAL,Dallas,203495,Ricky Ledo,,,20:25,82.9,117.0,-34.0,0.273,3.0,21.6,0.048,0.188,0.108,7.2,0.222,0.202,0.23,99.28,0.008,2014-10-18T00:00:00,1,1610612754,IND,Indiana,2-3,25,17,19,37,0,0,0,0,0,0,0,0,0,0,98,0.425,0.784,0.259,19,44,17,0011400074,1610612742,DAL,Dallas,Ricky Ledo,,,20:25,0.0,0.0,0.0,0.0,9.0,4.0,10.0,26.0,0.0,0.0,1.0,2.0
0011400074,1610612742,DAL,Dallas,202329,Al-Farouq Aminu,,,34:26,99.8,93.2,6.6,0.091,1.0,16.7,0.071,0.323,0.203,16.7,0.688,0.688,0.135,98.99,0.177,2014-10-18T00:00:00,1,1610612742,DAL,Dallas,2-3,29,23,22,19,0,0,0,0,0,0,0,0,0,0,93,0.435,0.632,0.35,20,41,16,0011400074,1610612742,DAL,Dallas,Al-Farouq Aminu,,,34:26,5.0,0.0,0.0,8.0,12.0,4.0,9.0,26.0,2.0,0.0,2.0,4.0
0011400074,1610612742,DAL,Dallas,202329,Al-Farouq Aminu,,,34:26,99.8,93.2,6.6,0.091,1.0,16.7,0.071,0.323,0.203,16.7,0.688,0.688,0.135,98.99,0.177,2014-10-18T00:00:00,1,1610612754,IND,Indiana,2-3,25,17,19,37,0,0,0,0,0,0,0,0,0,0,98,0.425,0.784,0.259,19,44,17,0011400074,1610612742,DAL,Dallas,Al-Farouq Aminu,,,34:26,5.0,0.0,0.0,8.0,12.0,4.0,9.0,26.0,2.0,0.0,2.0,4.0
0011400074,1610612742,DAL,Dallas,203117,Doron Lamb,,,9:06,54.6,123.8,-69.2,0.0,0.0,0.0,0.0,0.0,0.0,25.0,0.5,0.5,0.188,92.98,-0.138,2014-10-18T00:00:00,1,1610612742,DAL,Dallas,2-3,29,23,22,19,0,0,0,0,0,0,0,0,0,0,93,0.435,0.632,0.35,20,41,16,0011400074,1610612742,DAL,Dallas,Doron Lamb,,,9:06,0.0,3.0,0.0,0.0,4.0,2.0,3.0,10.0,0.0,1.0,2.0,1.0
0011400074,1610612742,DAL,Dallas,203117,Doron Lamb,,,9:06,54.6,123.8,-69.2,0.0,0.0,0.0,0.0,0.0,0.0,25.0,0.5,0.5,0.188,92.98,-0.138,2014-10-18T00:00:00,1,1610612754,IND,Indiana,2-3,25,17,19,37,0,0,0,0,0,0,0,0,0,0,98,0.425,0.784,0.259,19,44,17,0011400074,1610612742,DAL,Dallas,Doron Lamb,,,9:06,0.0,3.0,0.0,0.0,4.0,2.0,3.0,10.0,0.0,1.0,2.0,1.0
0011400074,1610612742,DAL,Dallas,203108,Bernard James,,,18:28,91.4,114.3,-22.9,0.077,0.5,12.5,0.053,0.313,0.171,25.0,0.2,0.2,0.17,98.36,0.043,2014-10-18T00:00:00,1,1610612742,DAL,Dallas,2-3,29,23,22,19,0,0,0,0,0,0,0,0,0,0,93,0.435,0.632,0.35,20,41,16,0011400074,1610612742,DAL,Dallas,Bernard James,,,18:28,0.0,0.0,0.0,2.0,3.0,4.0,3.0,14.0,2.0,3.0,1.0,1.0
0011400074,1610612742,DAL,Dallas,203108,Bernard James,,,18:28,91.4,114.3,-22.9,0.077,0.5,12.5,0.053,0.313,0.171,25.0,0.2,0.2,0.17,98.36,0.043,2014-10-18T00:00:00,1,1610612754,IND,Indiana,2-3,25,17,19,37,0,0,0,0,0,0,0,0,0,0,98,0.425,0.784,0.259,19,44,17,0011400074,1610612742,DAL,Dallas,Bernard James,,,18:28,0.0,0.0,0.0,2.0,3.0,4.0,3.0,14.0,2.0,3.0,1.0,1.0
0011400074,1610612742,DAL,Dallas,2199,Tyson Chandler,,DNP - Coach's Decision                  ,,,,,,,0.0,,,,,,,0.0,,,2014-10-18T00:00:00,1,1610612742,DAL,Dallas,2-3,29,23,22,19,0,0,0,0,0,0,0,0,0,0,93,0.435,0.632,0.35,20,41,16,0011400074,1610612742,DAL,Dallas,Tyson Chandler,,DNP - Coach's Decision                  ,,,,,,,,,,,,,
0011400074,1610612742,DAL,Dallas,2199,Tyson Chandler,,DNP - Coach's Decision                  ,,,,,,,0.0,,,,,,,0.0,,,2014-10-18T00:00:00,1,1610612754,IND,Indiana,2-3,25,17,19,37,0,0,0,0,0,0,0,0,0,0,98,0.425,0.784,0.259,19,44,17,0011400074,1610612742,DAL,Dallas,Tyson Chandler,,DNP - Coach's Decision                  ,,,,,,,,,,,,,
0011400074,1610612742,DAL,Dallas,101145,Monta Ellis,,DNP - Coach's Decision                  ,,,,,,,0.0,,,,,,,0.0,,,2014-10-18T00:00:00,1,1610612742,DAL,Dallas,2-3,29,23,22,19,0,0,0,0,0,0,0,0,0,0,93,0.435,0.632,0.35,20,41,16,0011400074,1610612742,DAL,Dallas,Monta Ellis,,DNP - Coach's Decision                  ,,,,,,,,,,,,,
0011400074,1610612742,DAL,Dallas,101145,Monta Ellis,,DNP - Coach's Decision                  ,,,,,,,0.0,,,,,,,0.0,,,2014-10-18T00:00:00,1,1610612754,IND,Indiana,2-3,25,17,19,37,0,0,0,0,0,0,0,0,0,0,98,0.425,0.784,0.259,19,44,17,0011400074,1610612742,DAL,Dallas,Monta Ellis,,DNP - Coach's Decision                  ,,,,,,,,,,,,,
0011400074,1610612742,DAL,Dallas,101109,Raymond Felton,,NWT - Sprained Rt. Ankle                ,,,,,,,0.0,,,,,,,0.0,,,2014-10-18T00:00:00,1,1610612742,DAL,Dallas,2-3,29,23,22,19,0,0,0,0,0,0,0,0,0,0,93,0.435,0.632,0.35,20,41,16,0011400074,1610612742,DAL,Dallas,Raymond Felton,,NWT - Sprained Rt. Ankle                ,,,,,,,,,,,,,
0011400074,1610612742,DAL,Dallas,101109,Raymond Felton,,NWT - Sprained Rt. Ankle                ,,,,,,,0.0,,,,,,,0.0,,,2014-10-18T00:00:00,1,1610612754,IND,Indiana,2-3,25,17,19,37,0,0,0,0,0,0,0,0,0,0,98,0.425,0.784,0.259,19,44,17,0011400074,1610612742,DAL,Dallas,Raymond Felton,,NWT - Sprained Rt. Ankle                ,,,,,,,,,,,,,
0011400074,1610612742,DAL,Dallas,203547,Eric Griffin,,DNP - Coach's Decision                  ,,,,,,,0.0,,,,,,,0.0,,,2014-10-18T00:00:00,1,1610612742,DAL,Dallas,2-3,29,23,22,19,0,0,0,0,0,0,0,0,0,0,93,0.435,0.632,0.35,20,41,16,0011400074,1610612742,DAL,Dallas,Eric Griffin,,DNP - Coach's Decision                  ,,,,,,,,,,,,,
0011400074,1610612742,DAL,Dallas,203547,Eric Griffin,,DNP - Coach's Decision                  ,,,,,,,0.0,,,,,,,0.0,,,2014-10-18T00:00:00,1,1610612754,IND,Indiana,2-3,25,17,19,37,0,0,0,0,0,0,0,0,0,0,98,0.425,0.784,0.259,19,44,17,0011400074,1610612742,DAL,Dallas,Eric Griffin,,DNP - Coach's Decision                  ,,,,,,,,,,,,,
0011400074,1610612742,DAL,Dallas,2734,Devin Harris,,DNP - Coach's Decision                  ,,,,,,,0.0,,,,,,,0.0,,,2014-10-18T00:00:00,1,1610612742,DAL,Dallas,2-3,29,23,22,19,0,0,0,0,0,0,0,0,0,0,93,0.435,0.632,0.35,20,41,16,0011400074,1610612742,DAL,Dallas,Devin Harris,,DNP - Coach's Decision                  ,,,,,,,,,,,,,
0011400074,1610612742,DAL,Dallas,2734,Devin Harris,,DNP - Coach's Decision                  ,,,,,,,0.0,,,,,,,0.0,,,2014-10-18T00:00:00,1,1610612754,IND,Indiana,2-3,25,17,19,37,0,0,0,0,0,0,0,0,0,0,98,0.425,0.784,0.259,19,44,17,0011400074,1610612742,DAL,Dallas,Devin Harris,,DNP - Coach's Decision                  ,,,,,,,,,,,,,
0011400074,1610612742,DAL,Dallas,2749,Jameer Nelson,,DNP - Coach's Decision                  ,,,,,,,0.0,,,,,,,0.0,,,2014-10-18T00:00:00,1,1610612742,DAL,Dallas,2-3,29,23,22,19,0,0,0,0,0,0,0,0,0,0,93,0.435,0.632,0.35,20,41,16,0011400074,1610612742,DAL,Dallas,Jameer Nelson,,DNP - Coach's Decision                  ,,,,,,,,,,,,,
0011400074,1610612742,DAL,Dallas,2749,Jameer Nelson,,DNP - Coach's Decision                  ,,,,,,,0.0,,,,,,,0.0,,,2014-10-18T00:00:00,1,1610612754,IND,Indiana,2-3,25,17,19,37,0,0,0,0,0,0,0,0,0,0,98,0.425,0.784,0.259,19,44,17,0011400074,1610612742,DAL,Dallas,Jameer Nelson,,DNP - Coach's Decision                  ,,,,,,,,,,,,,
0011400074,1610612742,DAL,Dallas,1717,Dirk Nowitzki,,DNP - Coach's Decision                  ,,,,,,,0.0,,,,,,,0.0,,,2014-10-18T00:00:00,1,1610612742,DAL,Dallas,2-3,29,23,22,19,0,0,0,0,0,0,0,0,0,0,93,0.435,0.632,0.35,20,41,16,0011400074,1610612742,DAL,Dallas,Dirk Nowitzki,,DNP - Coach's Decision                  ,,,,,,,,,,,,,
0011400074,1610612742,DAL,Dallas,1717,Dirk Nowitzki,,DNP - Coach's Decision                  ,,,,,,,0.0,,,,,,,0.0,,,2014-10-18T00:00:00,1,1610612754,IND,Indiana,2-3,25,17,19,37,0,0,0,0,0,0,0,0,0,0,98,0.425,0.784,0.259,19,44,17,0011400074,1610612742,DAL,Dallas,Dirk Nowitzki,,DNP - Coach's Decision                  ,,,,,,,,,,,,,
0011400074,1610612742,DAL,Dallas,202718,Chandler Parsons,,DNP - Coach's Decision                  ,,,,,,,0.0,,,,,,,0.0,,,2014-10-18T00:00:00,1,1610612742,DAL,Dallas,2-3,29,23,22,19,0,0,0,0,0,0,0,0,0,0,93,0.435,0.632,0.35,20,41,16,0011400074,1610612742,DAL,Dallas,Chandler Parsons,,DNP - Coach's Decision                  ,,,,,,,,,,,,,
0011400074,1610612742,DAL,Dallas,202718,Chandler Parsons,,DNP - Coach's Decision                  ,,,,,,,0.0,,,,,,,0.0,,,2014-10-18T00:00:00,1,1610612754,IND,Indiana,2-3,25,17,19,37,0,0,0,0,0,0,0,0,0,0,98,0.425,0.784,0.259,19,44,17,0011400074,1610612742,DAL,Dallas,Chandler Parsons,,DNP - Coach's Decision                  ,,,,,,,,,,,,,
0011400074,1610612742,DAL,Dallas,204078,Yuki Togashi,,NWT - Coach's Decision                  ,,,,,,,0.0,,,,,,,0.0,,,2014-10-18T00:00:00,1,1610612742,DAL,Dallas,2-3,29,23,22,19,0,0,0,0,0,0,0,0,0,0,93,0.435,0.632,0.35,20,41,16,0011400074,1610612742,DAL,Dallas,Yuki Togashi,,NWT - Coach's Decision                  ,,,,,,,,,,,,,
0011400074,1610612742,DAL,Dallas,204078,Yuki Togashi,,NWT - Coach's Decision                  ,,,,,,,0.0,,,,,,,0.0,,,2014-10-18T00:00:00,1,1610612754,IND,Indiana,2-3,25,17,19,37,0,0,0,0,0,0,0,0,0,0,98,0.425,0.784,0.259,19,44,17,0011400074,1610612742,DAL,Dallas,Yuki Togashi,,NWT - Coach's Decision                  ,,,,,,,,,,,,,
0011400074,1610612754,IND,Indiana,203142,Chris Copeland,F,,30:29,96.3,91.5,4.7,0.071,0.0,5.6,0.0,0.156,0.089,0.0,0.6,0.656,0.238,108.18,0.202,2014-10-18T00:00:00,1,1610612742,DAL,Dallas,2-3,29,23,22,19,0,0,0,0,0,0,0,0,0,0,93,0.435,0.632,0.35,20,41,16,0011400074,1610612754,IND,Indiana,Chris Copeland,F,,30:29,5.0,3.0,5.0,0.0,19.0,6.0,6.0,30.0,1.0,0.0,2.0,3.0
0011400074,1610612754,IND,Indiana,203142,Chris Copeland,F,,30:29,96.3,91.5,4.7,0.071,0.0,5.6,0.0,0.156,0.089,0.0,0.6,0.656,0.238,108.18,0.202,2014-10-18T00:00:00,1,1610612754,IND,Indiana,2-3,25,17,19,37,0,0,0,0,0,0,0,0,0,0,98,0.425,0.784,0.259,19,44,17,0011400074,1610612754,IND,Indiana,Chris Copeland,F,,30:29,5.0,3.0,5.0,0.0,19.0,6.0,6.0,30.0,1.0,0.0,2.0,3.0
0011400074,1610612754,IND,Indiana,2561,David West,F,,23:48,83.1,99.7,-16.6,0.111,0.33,5.7,0.056,0.136,0.1,17.0,0.455,0.587,0.309,106.97,0.171,2014-10-18T00:00:00,1,1610612742,DAL,Dallas,2-3,29,23,22,19,0,0,0,0,0,0,0,0,0,0,93,0.435,0.632,0.35,20,41,16,0011400074,1610612754,IND,Indiana,David West,F,,23:48,2.0,0.0,0.0,6.0,24.0,7.0,8.0,24.0,1.0,1.0,2.0,4.0
0011400074,1610612754,IND,Indiana,2561,David West,F,,23:48,83.1,99.7,-16.6,0.111,0.33,5.7,0.056,0.136,0.1,17.0,0.455,0.587,0.309,106.97,0.171,2014-10-18T00:00:00,1,1610612754,IND,Indiana,2-3,25,17,19,37,0,0,0,0,0,0,0,0,0,0,98,0.425,0.784,0.259,19,44,17,0011400074,1610612754,IND,Indiana,David West,F,,23:48,2.0,0.0,0.0,6.0,24.0,7.0,8.0,24.0,1.0,1.0,2.0,4.0
0011400074,1610612754,IND,Indiana,201579,Roy Hibbert,C,,25:32,79.6,93.5,-13.9,0.0,0.0,0.0,0.0,0.3,0.154,50.6,0.75,0.82,0.185,99.63,0.08,2014-10-18T00:00:00,1,1610612742,DAL,Dallas,2-3,29,23,22,19,0,0,0,0,0,0,0,0,0,0,93,0.435,0.632,0.35,20,41,16,0011400074,1610612754,IND,Indiana,Roy Hibbert,C,,25:32,0.0,0.0,0.0,6.0,19.0,7.0,6.0,20.0,1.0,0.0,5.0,9.0
0011400074,1610612754,IND,Indiana,201579,Roy Hibbert,C,,25:32,79.6,93.5,-13.9,0.0,0.0,0.0,0.0,0.3,0.154,50.6,0.75,0.82,0.185,99.63,0.08,2014-10-18T00:00:00,1,1610612754,IND,Indiana,2-3,25,17,19,37,0,0,0,0,0,0,0,0,0,0,98,0.425,0.784,0.259,19,44,17,0011400074,1610612754,IND,Indiana,Roy Hibbert,C,,25:32,0.0,0.0,0.0,6.0,19.0,7.0,6.0,20.0,1.0,0.0,5.0,9.0
0011400074,1610612754,IND,Indiana,101139,CJ Miles,G,,26:09,78.1,92.0,-13.9,0.231,0.0,24.4,0.0,0.042,0.02,0.0,0.125,0.215,0.148,107.97,-0.043,2014-10-18T00:00:00,1,1610612742,DAL,Dallas,2-3,29,23,22,19,0,0,0,0,0,0,0,0,0,0,93,0.435,0.632,0.35,20,41,16,0011400074,1610612754,IND,Indiana,CJ Miles,G,,26:09,2.0,0.0,2.0,2.0,19.0,4.0,6.0,24.0,0.0,1.0,3.0,2.0
0011400074,1610612754,IND,Indiana,101139,CJ Miles,G,,26:09,78.1,92.0,-13.9,0.231,0.0,24.4,0.0,0.042,0.02,0.0,0.125,0.215,0.148,107.97,-0.043,2014-10-18T00:00:00,1,1610612754,IND,Indiana,2-3,25,17,19,37,0,0,0,0,0,0,0,0,0,0,98,0.425,0.784,0.259,19,44,17,0011400074,1610612754,IND,Indiana,CJ Miles,G,,26:09,2.0,0.0,2.0,2.0,19.0,4.0,6.0,24.0,0.0,1.0,3.0,2.0
0011400074,1610612754,IND,Indiana,201588,George Hill,G,,28:29,83.9,98.1,-14.2,0.4,2.0,26.5,0.037,0.286,0.164,13.3,0.273,0.367,0.243,106.61,0.14,2014-10-18T00:00:00,1,1610612742,DAL,Dallas,2-3,29,23,22,19,0,0,0,0,0,0,0,0,0,0,93,0.435,0.632,0.35,20,41,16,0011400074,1610612754,IND,Indiana,George Hill,G,,28:29,2.0,1.0,2.0,4.0,21.0,7.0,8.0,30.0,1.0,2.0,1.0,4.0
0011400074,1610612754,IND,Indiana,201588,George Hill,G,,28:29,83.9,98.1,-14.2,0.4,2.0,26.5,0.037,0.286,0.164,13.3,0.273,0.367,0.243,106.61,0.14,2014-10-18T00:00:00,1,1610612754,IND,Indiana,2-3,25,17,19,37,0,0,0,0,0,0,0,0,0,0,98,0.425,0.784,0.259,19,44,17,0011400074,1610612754,IND,Indiana,George Hill,G,,28:29,2.0,1.0,2.0,4.0,21.0,7.0,8.0,30.0,1.0,2.0,1.0,4.0
0011400074,1610612754,IND,Indiana,203524,Solomon Hill,,,22:14,117.2,87.6,29.6,0.0,0.0,0.0,0.077,0.182,0.143,26.6,1.0,0.725,0.083,95.94,0.102,2014-10-18T00:00:00,1,1610612742,DAL,Dallas,2-3,29,23,22,19,0,0,0,0,0,0,0,0,0,0,93,0.435,0.632,0.35,20,41,16,0011400074,1610612754,IND,Indiana,Solomon Hill,,,22:14,0.0,2.0,0.0,0.0,5.0,8.0,2.0,18.0,0.0,0.0,0.0,3.0
0011400074,1610612754,IND,Indiana,203524,Solomon Hill,,,22:14,117.2,87.6,29.6,0.0,0.0,0.0,0.077,0.182,0.143,26.6,1.0,0.725,0.083,95.94,0.102,2014-10-18T00:00:00,1,1610612754,IND,Indiana,2-3,25,17,19,37,0,0,0,0,0,0,0,0,0,0,98,0.425,0.784,0.259,19,44,17,0011400074,1610612754,IND,Indiana,Solomon Hill,,,22:14,0.0,2.0,0.0,0.0,5.0,8.0,2.0,18.0,0.0,0.0,0.0,3.0
0011400074,1610612754,IND,Indiana,101133,Ian Mahinmi,,,16:08,89.3,94.4,-5.1,0.0,0.0,0.0,0.111,0.25,0.176,0.0,0.8,0.68,0.151,102.17,0.19,2014-10-18T00:00:00,1,1610612742,DAL,Dallas,2-3,29,23,22,19,0,0,0,0,0,0,0,0,0,0,93,0.435,0.632,0.35,20,41,16,0011400074,1610612754,IND,Indiana,Ian Mahinmi,,,16:08,0.0,2.0,0.0,8.0,5.0,3.0,2.0,14.0,3.0,0.0,2.0,1.0
0011400074,1610612754,IND,Indiana,101133,Ian Mahinmi,,,16:08,89.3,94.4,-5.1,0.0,0.0,0.0,0.111,0.25,0.176,0.0,0.8,0.68,0.151,102.17,0.19,2014-10-18T00:00:00,1,1610612754,IND,Indiana,2-3,25,17,19,37,0,0,0,0,0,0,0,0,0,0,98,0.425,0.784,0.259,19,44,17,0011400074,1610612754,IND,Indiana,Ian Mahinmi,,,16:08,0.0,2.0,0.0,8.0,5.0,3.0,2.0,14.0,3.0,0.0,2.0,1.0
0011400074,1610612754,IND,Indiana,204014,Damjan Rudez,,,27:01,114.9,86.5,28.5,0.15,1.5,27.3,0.0,0.103,0.059,18.2,0.25,0.25,0.134,98.78,-0.022,2014-10-18T00:00:00,1,1610612742,DAL,Dallas,2-3,29,23,22,19,0,0,0,0,0,0,0,0,0,0,93,0.435,0.632,0.35,20,41,16,0011400074,1610612754,IND,Indiana,Damjan Rudez,,,27:01,0.0,0.0,0.0,0.0,5.0,8.0,2.0,24.0,0.0,0.0,4.0,1.0
0011400074,1610612754,IND,Indiana,204014,Damjan Rudez,,,27:01,114.9,86.5,28.5,0.15,1.5,27.3,0.0,0.103,0.059,18.2,0.25,0.25,0.134,98.78,-0.022,2014-10-18T00:00:00,1,1610612754,IND,Indiana,2-3,25,17,19,37,0,0,0,0,0,0,0,0,0,0,98,0.425,0.784,0.259,19,44,17,0011400074,1610612754,IND,Indiana,Damjan Rudez,,,27:01,0.0,0.0,0.0,0.0,5.0,8.0,2.0,24.0,0.0,0.0,4.0,1.0
0011400074,1610612754,IND,Indiana,202730,Lavoy Allen,,,20:39,113.6,79.9,33.8,0.2,0.67,20.0,0.0,0.053,0.029,30.0,0.8,0.8,0.18,96.09,0.091,2014-10-18T00:00:00,1,1610612742,DAL,Dallas,2-3,29,23,22,19,0,0,0,0,0,0,0,0,0,0,93,0.435,0.632,0.35,20,41,16,0011400074,1610612754,IND,Indiana,Lavoy Allen,,,20:39,0.0,0.0,2.0,4.0,0.0,5.0,0.0,14.0,0.0,0.0,4.0,0.0
0011400074,1610612754,IND,Indiana,202730,Lavoy Allen,,,20:39,113.6,79.9,33.8,0.2,0.67,20.0,0.0,0.053,0.029,30.0,0.8,0.8,0.18,96.09,0.091,2014-10-18T00:00:00,1,1610612754,IND,Indiana,2-3,25,17,19,37,0,0,0,0,0,0,0,0,0,0,98,0.425,0.784,0.259,19,44,17,0011400074,1610612754,IND,Indiana,Lavoy Allen,,,20:39,0.0,0.0,2.0,4.0,0.0,5.0,0.0,14.0,0.0,0.0,4.0,0.0
0011400074,1610612754,IND,Indiana,202388,Donald Sloan,,,19:31,116.0,79.6,36.4,0.3,0.0,20.8,0.0,0.222,0.133,0.0,0.429,0.658,0.293,96.07,0.35,2014-10-18T00:00:00,1,1610612742,DAL,Dallas,2-3,29,23,22,19,0,0,0,0,0,0,0,0,0,0,93,0.435,0.632,0.35,20,41,16,0011400074,1610612754,IND,Indiana,Donald Sloan,,,19:31,4.0,0.0,3.0,6.0,3.0,5.0,0.0,12.0,0.0,1.0,1.0,5.0
0011400074,1610612754,IND,Indiana,202388,Donald Sloan,,,19:31,116.0,79.6,36.4,0.3,0.0,20.8,0.0,0.222,0.133,0.0,0.429,0.658,0.293,96.07,0.35,2014-10-18T00:00:00,1,1610612754,IND,Indiana,2-3,25,17,19,37,0,0,0,0,0,0,0,0,0,0,98,0.425,0.784,0.259,19,44,17,0011400074,1610612754,IND,Indiana,Donald Sloan,,,19:31,4.0,0.0,3.0,6.0,3.0,5.0,0.0,12.0,0.0,1.0,1.0,5.0
0011400074,1610612754,IND,Indiana,203927,CJ Fair,,DNP - Coach's Decision                  ,,,,,,,0.0,,,,,,,0.0,,,2014-10-18T00:00:00,1,1610612742,DAL,Dallas,2-3,29,23,22,19,0,0,0,0,0,0,0,0,0,0,93,0.435,0.632,0.35,20,41,16,0011400074,1610612754,IND,Indiana,CJ Fair,,DNP - Coach's Decision                  ,,,,,,,,,,,,,
0011400074,1610612754,IND,Indiana,203927,CJ Fair,,DNP - Coach's Decision                  ,,,,,,,0.0,,,,,,,0.0,,,2014-10-18T00:00:00,1,1610612754,IND,Indiana,2-3,25,17,19,37,0,0,0,0,0,0,0,0,0,0,98,0.425,0.784,0.259,19,44,17,0011400074,1610612754,IND,Indiana,CJ Fair,,DNP - Coach's Decision                  ,,,,,,,,,,,,,
0011400074,1610612754,IND,Indiana,202331,Paul George,,DND - Fractured Rt. Tibia/Fibula        ,,,,,,,0.0,,,,,,,0.0,,,2014-10-18T00:00:00,1,1610612742,DAL,Dallas,2-3,29,23,22,19,0,0,0,0,0,0,0,0,0,0,93,0.435,0.632,0.35,20,41,16,0011400074,1610612754,IND,Indiana,Paul George,,DND - Fractured Rt. Tibia/Fibula        ,,,,,,,,,,,,,
0011400074,1610612754,IND,Indiana,202331,Paul George,,DND - Fractured Rt. Tibia/Fibula        ,,,,,,,0.0,,,,,,,0.0,,,2014-10-18T00:00:00,1,1610612754,IND,Indiana,2-3,25,17,19,37,0,0,0,0,0,0,0,0,0,0,98,0.425,0.784,0.259,19,44,17,0011400074,1610612754,IND,Indiana,Paul George,,DND - Fractured Rt. Tibia/Fibula        ,,,,,,,,,,,,,
0011400074,1610612754,IND,Indiana,202620,Arinze Onuaku,,DNP - Coach's Decision                  ,,,,,,,0.0,,,,,,,0.0,,,2014-10-18T00:00:00,1,1610612742,DAL,Dallas,2-3,29,23,22,19,0,0,0,0,0,0,0,0,0,0,93,0.435,0.632,0.35,20,41,16,0011400074,1610612754,IND,Indiana,Arinze Onuaku,,DNP - Coach's Decision                  ,,,,,,,,,,,,,
0011400074,1610612754,IND,Indiana,202620,Arinze Onuaku,,DNP - Coach's Decision                  ,,,,,,,0.0,,,,,,,0.0,,,2014-10-18T00:00:00,1,1610612754,IND,Indiana,2-3,25,17,19,37,0,0,0,0,0,0,0,0,0,0,98,0.425,0.784,0.259,19,44,17,0011400074,1610612754,IND,Indiana,Arinze Onuaku,,DNP - Coach's Decision                  ,,,,,,,,,,,,,
0011400074,1610612754,IND,Indiana,2449,Luis Scola,,DND - Rest                              ,,,,,,,0.0,,,,,,,0.0,,,2014-10-18T00:00:00,1,1610612742,DAL,Dallas,2-3,29,23,22,19,0,0,0,0,0,0,0,0,0,0,93,0.435,0.632,0.35,20,41,16,0011400074,1610612754,IND,Indiana,Luis Scola,,DND - Rest                              ,,,,,,,,,,,,,
0011400074,1610612754,IND,Indiana,2449,Luis Scola,,DND - Rest                              ,,,,,,,0.0,,,,,,,0.0,,,2014-10-18T00:00:00,1,1610612754,IND,Indiana,2-3,25,17,19,37,0,0,0,0,0,0,0,0,0,0,98,0.425,0.784,0.259,19,44,17,0011400074,1610612754,IND,Indiana,Luis Scola,,DND - Rest                              ,,,,,,,,,,,,,
0011400074,1610612754,IND,Indiana,202698,Chris Singleton,,DNP - Coach's Decision                  ,,,,,,,0.0,,,,,,,0.0,,,2014-10-18T00:00:00,1,1610612742,DAL,Dallas,2-3,29,23,22,19,0,0,0,0,0,0,0,0,0,0,93,0.435,0.632,0.35,20,41,16,0011400074,1610612754,IND,Indiana,Chris Singleton,,DNP - Coach's Decision                  ,,,,,,,,,,,,,
0011400074,1610612754,IND,Indiana,202698,Chris Singleton,,DNP - Coach's Decision                  ,,,,,,,0.0,,,,,,,0.0,,,2014-10-18T00:00:00,1,1610612754,IND,Indiana,2-3,25,17,19,37,0,0,0,0,0,0,0,0,0,0,98,0.425,0.784,0.259,19,44,17,0011400074,1610612754,IND,Indiana,Chris Singleton,,DNP - Coach's Decision                  ,,,,,,,,,,,,,
0011400074,1610612754,IND,Indiana,201155,Rodney Stuckey,,DNP - Coach's Decision                  ,,,,,,,0.0,,,,,,,0.0,,,2014-10-18T00:00:00,1,1610612742,DAL,Dallas,2-3,29,23,22,19,0,0,0,0,0,0,0,0,0,0,93,0.435,0.632,0.35,20,41,16,0011400074,1610612754,IND,Indiana,Rodney Stuckey,,DNP - Coach's Decision                  ,,,,,,,,,,,,,
0011400074,1610612754,IND,Indiana,201155,Rodney Stuckey,,DNP - Coach's Decision                  ,,,,,,,0.0,,,,,,,0.0,,,2014-10-18T00:00:00,1,1610612754,IND,Indiana,2-3,25,17,19,37,0,0,0,0,0,0,0,0,0,0,98,0.425,0.784,0.259,19,44,17,0011400074,1610612754,IND,Indiana,Rodney Stuckey,,DNP - Coach's Decision                  ,,,,,,,,,,,,,
0011400074,1610612754,IND,Indiana,203519,Adonis Thomas,,DNP - Coach's Decision                  ,,,,,,,0.0,,,,,,,0.0,,,2014-10-18T00:00:00,1,1610612742,DAL,Dallas,2-3,29,23,22,19,0,0,0,0,0,0,0,0,0,0,93,0.435,0.632,0.35,20,41,16,0011400074,1610612754,IND,Indiana,Adonis Thomas,,DNP - Coach's Decision                  ,,,,,,,,,,,,,
0011400074,1610612754,IND,Indiana,203519,Adonis Thomas,,DNP - Coach's Decision                  ,,,,,,,0.0,,,,,,,0.0,,,2014-10-18T00:00:00,1,1610612754,IND,Indiana,2-3,25,17,19,37,0,0,0,0,0,0,0,0,0,0,98,0.425,0.784,0.259,19,44,17,0011400074,1610612754,IND,Indiana,Adonis Thomas,,DNP - Coach's Decision                  ,,,,,,,,,,,,,
0011400074,1610612754,IND,Indiana,201228,C.J. Watson,,DNP - Coach's Decision                  ,,,,,,,0.0,,,,,,,0.0,,,2014-10-18T00:00:00,1,1610612742,DAL,Dallas,2-3,29,23,22,19,0,0,0,0,0,0,0,0,0,0,93,0.435,0.632,0.35,20,41,16,0011400074,1610612754,IND,Indiana,C.J. Watson,,DNP - Coach's Decision                  ,,,,,,,,,,,,,
0011400074,1610612754,IND,Indiana,201228,C.J. Watson,,DNP - Coach's Decision                  ,,,,,,,0.0,,,,,,,0.0,,,2014-10-18T00:00:00,1,1610612754,IND,Indiana,2-3,25,17,19,37,0,0,0,0,0,0,0,0,0,0,98,0.425,0.784,0.259,19,44,17,0011400074,1610612754,IND,Indiana,C.J. Watson,,DNP - Coach's Decision                  ,,,,,,,,,,,,,
0011400074,1610612754,IND,Indiana,203963,Shayne Whittington,,DNP - Coach's Decision                  ,,,,,,,0.0,,,,,,,0.0,,,2014-10-18T00:00:00,1,1610612742,DAL,Dallas,2-3,29,23,22,19,0,0,0,0,0,0,0,0,0,0,93,0.435,0.632,0.35,20,41,16,0011400074,1610612754,IND,Indiana,Shayne Whittington,,DNP - Coach's Decision                  ,,,,,,,,,,,,,
0011400074,1610612754,IND,Indiana,203963,Shayne Whittington,,DNP - Coach's Decision                  ,,,,,,,0.0,,,,,,,0.0,,,2014-10-18T00:00:00,1,1610612754,IND,Indiana,2-3,25,17,19,37,0,0,0,0,0,0,0,0,0,0,98,0.425,0.784,0.259,19,44,17,0011400074,1610612754,IND,Indiana,Shayne Whittington,,DNP - Coach's Decision                  ,,,,,,,,,,,,,
