GAME_ID_x,TEAM_ID_x,TEAM_ABBREVIATION_x,TEAM_CITY_x,PLAYER_ID,PLAYER_NAME_x,START_POSITION_x,COMMENT_x,MIN_x,OFF_RATING,DEF_RATING,NET_RATING,AST_PCT,AST_TOV,AST_RATIO,OREB_PCT,DREB_PCT,REB_PCT,TM_TOV_PCT,EFG_PCT,TS_PCT,USG_PCT,PACE,PIE,GAME_DATE_EST,GAME_SEQUENCE,TEAM_ID_y,TEAM_ABBREVIATION_y,TEAM_CITY_NAME,TEAM_WINS_LOSSES,PTS_QTR1,PTS_QTR2,PTS_QTR3,PTS_QTR4,PTS_OT1,PTS_OT2,PTS_OT3,PTS_OT4,PTS_OT5,PTS_OT6,PTS_OT7,PTS_OT8,PTS_OT9,PTS_OT10,PTS,FG_PCT,FT_PCT,FG3_PCT,AST,REB,TOV,GAME_ID_y,TEAM_ID,TEAM_ABBREVIATION,TEAM_CITY_y,PLAYER_NAME_y,START_POSITION_y,COMMENT_y,MIN_y,PTS_OFF_TOV,PTS_2ND_CHANCE,PTS_FB,PTS_PAINT,OPP_PTS_OFF_TOV,OPP_PTS_2ND_CHANCE,OPP_PTS_FB,OPP_PTS_PAINT,BLK,BLKA,PF,PFD
0011400090,1610612763,MEM,Memphis,2754,Tony Allen,F,,17:15,114.6,129.5,-14.9,0.0,0.0,0.0,0.0,0.133,0.074,27.9,0.5,0.515,0.298,92.36,0.02,2014-10-20T00:00:00,6,1610612763,MEM,Memphis,2-4,27,17,31,28,0,0,0,0,0,0,0,0,0,0,103,0.432,0.7,0.238,14,43,12,0011400090,1610612763,MEM,Memphis,Tony Allen,F,,17:15,3.0,0.0,4.0,6.0,7.0,8.0,8.0,20.0,1.0,1.0,1.0,2.0
0011400090,1610612763,MEM,Memphis,2754,Tony Allen,F,,17:15,114.6,129.5,-14.9,0.0,0.0,0.0,0.0,0.133,0.074,27.9,0.5,0.515,0.298,92.36,0.02,2014-10-20T00:00:00,6,1610612742,DAL,Dallas,3-3,27,30,34,17,0,0,0,0,0,0,0,0,0,0,108,0.483,0.778,0.357,29,49,12,0011400090,1610612763,MEM,Memphis,Tony Allen,F,,17:15,3.0,0.0,4.0,6.0,7.0,8.0,8.0,20.0,1.0,1.0,1.0,2.0
0011400090,1610612763,MEM,Memphis,2216,Zach Randolph,F,,21:59,108.6,131.5,-22.9,0.067,0.33,8.4,0.048,0.188,0.108,25.3,0.286,0.381,0.221,92.1,0.005,2014-10-20T00:00:00,6,1610612763,MEM,Memphis,2-4,27,17,31,28,0,0,0,0,0,0,0,0,0,0,103,0.432,0.7,0.238,14,43,12,0011400090,1610612763,MEM,Memphis,Zach Randolph,F,,21:59,0.0,0.0,0.0,2.0,5.0,8.0,4.0,24.0,0.0,1.0,3.0,1.0
0011400090,1610612763,MEM,Memphis,2216,Zach Randolph,F,,21:59,108.6,131.5,-22.9,0.067,0.33,8.4,0.048,0.188,0.108,25.3,0.286,0.381,0.221,92.1,0.005,2014-10-20T00:00:00,6,1610612742,DAL,Dallas,3-3,27,30,34,17,0,0,0,0,0,0,0,0,0,0,108,0.483,0.778,0.357,29,49,12,0011400090,1610612763,MEM,Memphis,Zach Randolph,F,,21:59,0.0,0.0,0.0,2.0,5.0,8.0,4.0,24.0,0.0,1.0,3.0,1.0
0011400090,1610612763,MEM,Memphis,201188,Marc Gasol,C,,23:06,119.0,127.4,-8.3,0.214,0.0,18.5,0.13,0.235,0.175,0.0,0.545,0.644,0.244,94.53,0.2,2014-10-20T00:00:00,6,1610612763,MEM,Memphis,2-4,27,17,31,28,0,0,0,0,0,0,0,0,0,0,103,0.432,0.7,0.238,14,43,12,0011400090,1610612763,MEM,Memphis,Marc Gasol,C,,23:06,4.0,0.0,2.0,4.0,2.0,5.0,4.0,24.0,0.0,0.0,2.0,3.0
0011400090,1610612763,MEM,Memphis,201188,Marc Gasol,C,,23:06,119.0,127.4,-8.3,0.214,0.0,18.5,0.13,0.235,0.175,0.0,0.545,0.644,0.244,94.53,0.2,2014-10-20T00:00:00,6,1610612742,DAL,Dallas,3-3,27,30,34,17,0,0,0,0,0,0,0,0,0,0,108,0.483,0.778,0.357,29,49,12,0011400090,1610612763,MEM,Memphis,Marc Gasol,C,,23:06,4.0,0.0,2.0,4.0,2.0,5.0,4.0,24.0,0.0,0.0,2.0,3.0
0011400090,1610612763,MEM,Memphis,201584,Courtney Lee,G,,16:10,87.7,125.2,-37.5,0.0,0.0,0.0,0.0,0.0,0.0,0.0,0.0,0.113,0.121,86.7,-0.049,2014-10-20T00:00:00,6,1610612763,MEM,Memphis,2-4,27,17,31,28,0,0,0,0,0,0,0,0,0,0,103,0.432,0.7,0.238,14,43,12,0011400090,1610612763,MEM,Memphis,Courtney Lee,G,,16:10,0.0,0.0,0.0,0.0,4.0,3.0,6.0,16.0,0.0,0.0,0.0,0.0
0011400090,1610612763,MEM,Memphis,201584,Courtney Lee,G,,16:10,87.7,125.2,-37.5,0.0,0.0,0.0,0.0,0.0,0.0,0.0,0.0,0.113,0.121,86.7,-0.049,2014-10-20T00:00:00,6,1610612742,DAL,Dallas,3-3,27,30,34,17,0,0,0,0,0,0,0,0,0,0,108,0.483,0.778,0.357,29,49,12,0011400090,1610612763,MEM,Memphis,Courtney Lee,G,,16:10,0.0,0.0,0.0,0.0,4.0,3.0,6.0,16.0,0.0,0.0,0.0,0.0
0011400090,1610612763,MEM,Memphis,201144,Mike Conley,G,,24:58,99.4,138.8,-39.3,0.286,4.0,23.9,0.04,0.158,0.091,6.0,0.45,0.468,0.231,90.06,0.092,2014-10-20T00:00:00,6,1610612763,MEM,Memphis,2-4,27,17,31,28,0,0,0,0,0,0,0,0,0,0,103,0.432,0.7,0.238,14,43,12,0011400090,1610612763,MEM,Memphis,Mike Conley,G,,24:58,0.0,2.0,2.0,6.0,7.0,11.0,4.0,28.0,0.0,0.0,0.0,4.0
0011400090,1610612763,MEM,Memphis,201144,Mike Conley,G,,24:58,99.4,138.8,-39.3,0.286,4.0,23.9,0.04,0.158,0.091,6.0,0.45,0.468,0.231,90.06,0.092,2014-10-20T00:00:00,6,1610612742,DAL,Dallas,3-3,27,30,34,17,0,0,0,0,0,0,0,0,0,0,108,0.483,0.778,0.357,29,49,12,0011400090,1610612763,MEM,Memphis,Mike Conley,G,,24:58,0.0,2.0,2.0,6.0,7.0,11.0,4.0,28.0,0.0,0.0,0.0,4.0
0011400090,1610612763,MEM,Memphis,202347,Quincy Pondexter,,,26:30,105.9,127.4,-21.5,0.143,0.0,14.0,0.071,0.1,0.083,0.0,0.682,0.731,0.199,97.78,0.177,2014-10-20T00:00:00,6,1610612763,MEM,Memphis,2-4,27,17,31,28,0,0,0,0,0,0,0,0,0,0,103,0.432,0.7,0.238,14,43,12,0011400090,1610612763,MEM,Memphis,Quincy Pondexter,,,26:30,6.0,0.0,0.0,6.0,9.0,8.0,16.0,36.0,0.0,0.0,1.0,2.0
0011400090,1610612763,MEM,Memphis,202347,Quincy Pondexter,,,26:30,105.9,127.4,-21.5,0.143,0.0,14.0,0.071,0.1,0.083,0.0,0.682,0.731,0.199,97.78,0.177,2014-10-20T00:00:00,6,1610612742,DAL,Dallas,3-3,27,30,34,17,0,0,0,0,0,0,0,0,0,0,108,0.483,0.778,0.357,29,49,12,0011400090,1610612763,MEM,Memphis,Quincy Pondexter,,,26:30,6.0,0.0,0.0,6.0,9.0,8.0,16.0,36.0,0.0,0.0,1.0,2.0
0011400090,1610612763,MEM,Memphis,2757,Beno Udrih,,,11:02,113.8,108.7,5.1,0.0,0.0,0.0,0.083,0.2,0.136,17.0,0.625,0.717,0.22,107.6,0.113,2014-10-20T00:00:00,6,1610612763,MEM,Memphis,2-4,27,17,31,28,0,0,0,0,0,0,0,0,0,0,103,0.432,0.7,0.238,14,43,12,0011400090,1610612763,MEM,Memphis,Beno Udrih,,,11:02,0.0,0.0,0.0,2.0,4.0,0.0,14.0,18.0,0.0,0.0,1.0,1.0
0011400090,1610612763,MEM,Memphis,2757,Beno Udrih,,,11:02,113.8,108.7,5.1,0.0,0.0,0.0,0.083,0.2,0.136,17.0,0.625,0.717,0.22,107.6,0.113,2014-10-20T00:00:00,6,1610612742,DAL,Dallas,3-3,27,30,34,17,0,0,0,0,0,0,0,0,0,0,108,0.483,0.778,0.357,29,49,12,0011400090,1610612763,MEM,Memphis,Beno Udrih,,,11:02,0.0,0.0,0.0,2.0,4.0,0.0,14.0,18.0,0.0,0.0,1.0,1.0
0011400090,1610612763,MEM,Memphis,201585,Kosta Koufos,,,17:51,94.3,122.0,-27.6,0.0,0.0,0.0,0.1,0.125,0.111,17.0,0.5,0.41,0.143,96.97,0.008,2014-10-20T00:00:00,6,1610612763,MEM,Memphis,2-4,27,17,31,28,0,0,0,0,0,0,0,0,0,0,103,0.432,0.7,0.238,14,43,12,0011400090,1610612763,MEM,Memphis,Kosta Koufos,,,17:51,0.0,2.0,0.0,4.0,9.0,6.0,14.0,26.0,1.0,1.0,2.0,1.0
0011400090,1610612763,MEM,Memphis,201585,Kosta Koufos,,,17:51,94.3,122.0,-27.6,0.0,0.0,0.0,0.1,0.125,0.111,17.0,0.5,0.41,0.143,96.97,0.008,2014-10-20T00:00:00,6,1610612742,DAL,Dallas,3-3,27,30,34,17,0,0,0,0,0,0,0,0,0,0,108,0.483,0.778,0.357,29,49,12,0011400090,1610612763,MEM,Memphis,Kosta Koufos,,,17:51,0.0,2.0,0.0,4.0,9.0,6.0,14.0,26.0,1.0,1.0,2.0,1.0
0011400090,1610612763,MEM,Memphis,1713,Vince Carter,,,7:50,105.4,122.1,-16.7,0.0,0.0,0.0,0.0,0.2,0.118,0.0,0.5,0.521,0.159,105.03,0.119,2014-10-20T00:00:00,6,1610612763,MEM,Memphis,2-4,27,17,31,28,0,0,0,0,0,0,0,0,0,0,103,0.432,0.7,0.238,14,43,12,0011400090,1610612763,MEM,Memphis,Vince Carter,,,7:50,0.0,0.0,0.0,0.0,0.0,3.0,2.0,10.0,1.0,0.0,0.0,1.0
0011400090,1610612763,MEM,Memphis,1713,Vince Carter,,,7:50,105.4,122.1,-16.7,0.0,0.0,0.0,0.0,0.2,0.118,0.0,0.5,0.521,0.159,105.03,0.119,2014-10-20T00:00:00,6,1610612742,DAL,Dallas,3-3,27,30,34,17,0,0,0,0,0,0,0,0,0,0,108,0.483,0.778,0.357,29,49,12,0011400090,1610612763,MEM,Memphis,Vince Carter,,,7:50,0.0,0.0,0.0,0.0,0.0,3.0,2.0,10.0,1.0,0.0,0.0,1.0
0011400090,1610612763,MEM,Memphis,2419,Tayshaun Prince,,,9:55,80.0,129.4,-49.4,0.0,0.0,0.0,0.0,0.111,0.048,0.0,0.0,0.0,0.145,92.16,-0.065,2014-10-20T00:00:00,6,1610612763,MEM,Memphis,2-4,27,17,31,28,0,0,0,0,0,0,0,0,0,0,103,0.432,0.7,0.238,14,43,12,0011400090,1610612763,MEM,Memphis,Tayshaun Prince,,,9:55,0.0,0.0,0.0,0.0,2.0,3.0,4.0,14.0,1.0,0.0,1.0,1.0
0011400090,1610612763,MEM,Memphis,2419,Tayshaun Prince,,,9:55,80.0,129.4,-49.4,0.0,0.0,0.0,0.0,0.111,0.048,0.0,0.0,0.0,0.145,92.16,-0.065,2014-10-20T00:00:00,6,1610612742,DAL,Dallas,3-3,27,30,34,17,0,0,0,0,0,0,0,0,0,0,108,0.483,0.778,0.357,29,49,12,0011400090,1610612763,MEM,Memphis,Tayshaun Prince,,,9:55,0.0,0.0,0.0,0.0,2.0,3.0,4.0,14.0,1.0,0.0,1.0,1.0
0011400090,1610612763,MEM,Memphis,202720,Jon Leuer,,,11:02,111.8,89.7,22.1,0.0,0.0,0.0,0.0,0.333,0.111,0.0,0.5,0.615,0.087,108.29,0.099,2014-10-20T00:00:00,6,1610612763,MEM,Memphis,2-4,27,17,31,28,0,0,0,0,0,0,0,0,0,0,103,0.432,0.7,0.238,14,43,12,0011400090,1610612763,MEM,Memphis,Jon Leuer,,,11:02,0.0,0.0,0.0,2.0,8.0,0.0,13.0,12.0,1.0,1.0,1.0,1.0
0011400090,1610612763,MEM,Memphis,202720,Jon Leuer,,,11:02,111.8,89.7,22.1,0.0,0.0,0.0,0.0,0.333,0.111,0.0,0.5,0.615,0.087,108.29,0.099,2014-10-20T00:00:00,6,1610612742,DAL,Dallas,3-3,27,30,34,17,0,0,0,0,0,0,0,0,0,0,108,0.483,0.778,0.357,29,49,12,0011400090,1610612763,MEM,Memphis,Jon Leuer,,,11:02,0.0,0.0,0.0,2.0,8.0,0.0,13.0,12.0,1.0,1.0,1.0,1.0
0011400090,1610612763,MEM,Memphis,203919,Jordan Adams,,,13:32,111.9,82.9,29.1,0.222,2.0,22.5,0.067,0.0,0.036,11.3,0.2,0.255,0.205,101.51,-0.012,2014-10-20T00:00:00,6,1610612763,MEM,Memphis,2-4,27,17,31,28,0,0,0,0,0,0,0,0,0,0,103,0.432,0.7,0.238,14,43,12,0011400090,1610612763,MEM,Memphis,Jordan Adams,,,13:32,0.0,1.0,0.0,2.0,8.0,2.0,9.0,12.0,0.0,1.0,0.0,1.0
0011400090,1610612763,MEM,Memphis,203919,Jordan Adams,,,13:32,111.9,82.9,29.1,0.222,2.0,22.5,0.067,0.0,0.036,11.3,0.2,0.255,0.205,101.51,-0.012,2014-10-20T00:00:00,6,1610612742,DAL,Dallas,3-3,27,30,34,17,0,0,0,0,0,0,0,0,0,0,108,0.483,0.778,0.357,29,49,12,0011400090,1610612763,MEM,Memphis,Jordan Adams,,,13:32,0.0,1.0,0.0,2.0,8.0,2.0,9.0,12.0,0.0,1.0,0.0,1.0
0011400090,1610612763,MEM,Memphis,201979,Nick Calathes,,,6:43,117.1,74.5,42.6,0.25,0.0,50.0,0.0,0.0,0.0,0.0,1.0,1.0,0.061,104.62,0.25,2014-10-20T00:00:00,6,1610612763,MEM,Memphis,2-4,27,17,31,28,0,0,0,0,0,0,0,0,0,0,103,0.432,0.7,0.238,14,43,12,0011400090,1610612763,MEM,Memphis,Nick Calathes,,,6:43,2.0,0.0,0.0,2.0,4.0,0.0,3.0,2.0,0.0,0.0,0.0,0.0
0011400090,1610612763,MEM,Memphis,201979,Nick Calathes,,,6:43,117.1,74.5,42.6,0.25,0.0,50.0,0.0,0.0,0.0,0.0,1.0,1.0,0.061,104.62,0.25,2014-10-20T00:00:00,6,1610612742,DAL,Dallas,3-3,27,30,34,17,0,0,0,0,0,0,0,0,0,0,108,0.483,0.778,0.357,29,49,12,0011400090,1610612763,MEM,Memphis,Nick Calathes,,,6:43,2.0,0.0,0.0,2.0,4.0,0.0,3.0,2.0,0.0,0.0,0.0,0.0
0011400090,1610612763,MEM,Memphis,203565,Patrick Christopher,,,12:00,113.8,71.5,42.3,0.143,0.0,13.4,0.0,0.0,0.0,0.0,0.333,0.388,0.225,96.72,0.067,2014-10-20T00:00:00,6,1610612763,MEM,Memphis,2-4,27,17,31,28,0,0,0,0,0,0,0,0,0,0,103,0.432,0.7,0.238,14,43,12,0011400090,1610612763,MEM,Memphis,Patrick Christopher,,,12:00,2.0,0.0,0.0,2.0,6.0,2.0,5.0,6.0,0.0,0.0,0.0,2.0
0011400090,1610612763,MEM,Memphis,203565,Patrick Christopher,,,12:00,113.8,71.5,42.3,0.143,0.0,13.4,0.0,0.0,0.0,0.0,0.333,0.388,0.225,96.72,0.067,2014-10-20T00:00:00,6,1610612742,DAL,Dallas,3-3,27,30,34,17,0,0,0,0,0,0,0,0,0,0,108,0.483,0.778,0.357,29,49,12,0011400090,1610612763,MEM,Memphis,Patrick Christopher,,,12:00,2.0,0.0,0.0,2.0,6.0,2.0,5.0,6.0,0.0,0.0,0.0,2.0
0011400090,1610612763,MEM,Memphis,202355,Hassan Whiteside,,,9:33,114.1,75.9,38.2,0.0,0.0,0.0,0.333,0.364,0.35,15.1,0.667,0.798,0.298,98.11,0.423,2014-10-20T00:00:00,6,1610612763,MEM,Memphis,2-4,27,17,31,28,0,0,0,0,0,0,0,0,0,0,103,0.432,0.7,0.238,14,43,12,0011400090,1610612763,MEM,Memphis,Hassan Whiteside,,,9:33,2.0,3.0,1.0,4.0,6.0,2.0,5.0,4.0,3.0,1.0,2.0,3.0
0011400090,1610612763,MEM,Memphis,202355,Hassan Whiteside,,,9:33,114.1,75.9,38.2,0.0,0.0,0.0,0.333,0.364,0.35,15.1,0.667,0.798,0.298,98.11,0.423,2014-10-20T00:00:00,6,1610612742,DAL,Dallas,3-3,27,30,34,17,0,0,0,0,0,0,0,0,0,0,108,0.483,0.778,0.357,29,49,12,0011400090,1610612763,MEM,Memphis,Hassan Whiteside,,,9:33,2.0,3.0,1.0,4.0,6.0,2.0,5.0,4.0,3.0,1.0,2.0,3.0
0011400090,1610612763,MEM,Memphis,203950,Jarnell Stokes,,,5:17,109.1,66.7,42.5,0.0,0.0,0.0,0.0,0.111,0.063,0.0,1.0,0.82,0.202,86.67,0.286,2014-10-20T00:00:00,6,1610612763,MEM,Memphis,2-4,27,17,31,28,0,0,0,0,0,0,0,0,0,0,103,0.432,0.7,0.238,14,43,12,0011400090,1610612763,MEM,Memphis,Jarnell Stokes,,,5:17,0.0,0.0,0.0,2.0,2.0,2.0,2.0,4.0,0.0,0.0,0.0,1.0
0011400090,1610612763,MEM,Memphis,203950,Jarnell Stokes,,,5:17,109.1,66.7,42.5,0.0,0.0,0.0,0.0,0.111,0.063,0.0,1.0,0.82,0.202,86.67,0.286,2014-10-20T00:00:00,6,1610612742,DAL,Dallas,3-3,27,30,34,17,0,0,0,0,0,0,0,0,0,0,108,0.483,0.778,0.357,29,49,12,0011400090,1610612763,MEM,Memphis,Jarnell Stokes,,,5:17,0.0,0.0,0.0,2.0,2.0,2.0,2.0,4.0,0.0,0.0,0.0,1.0
0011400090,1610612763,MEM,Memphis,203564,Kalin Lucas,,,5:17,109.1,66.7,42.5,0.0,0.0,0.0,0.0,0.111,0.063,36.2,0.0,0.568,0.228,86.67,0.071,2014-10-20T00:00:00,6,1610612763,MEM,Memphis,2-4,27,17,31,28,0,0,0,0,0,0,0,0,0,0,103,0.432,0.7,0.238,14,43,12,0011400090,1610612763,MEM,Memphis,Kalin Lucas,,,5:17,0.0,0.0,0.0,0.0,2.0,2.0,2.0,4.0,0.0,0.0,0.0,2.0
0011400090,1610612763,MEM,Memphis,203564,Kalin Lucas,,,5:17,109.1,66.7,42.5,0.0,0.0,0.0,0.0,0.111,0.063,36.2,0.0,0.568,0.228,86.67,0.071,2014-10-20T00:00:00,6,1610612742,DAL,Dallas,3-3,27,30,34,17,0,0,0,0,0,0,0,0,0,0,108,0.483,0.778,0.357,29,49,12,0011400090,1610612763,MEM,Memphis,Kalin Lucas,,,5:17,0.0,0.0,0.0,0.0,2.0,2.0,2.0,4.0,0.0,0.0,0.0,2.0
0011400090,1610612763,MEM,Memphis,201947,Earl Clark,,DNP - Coach's Decision                  ,,,,,,,0.0,,,,,,,0.0,,,2014-10-20T00:00:00,6,1610612763,MEM,Memphis,2-4,27,17,31,28,0,0,0,0,0,0,0,0,0,0,103,0.432,0.7,0.238,14,43,12,0011400090,1610612763,MEM,Memphis,Earl Clark,,DNP - Coach's Decision                  ,,,,,,,,,,,,,
0011400090,1610612763,MEM,Memphis,201947,Earl Clark,,DNP - Coach's Decision                  ,,,,,,,0.0,,,,,,,0.0,,,2014-10-20T00:00:00,6,1610612742,DAL,Dallas,3-3,27,30,34,17,0,0,0,0,0,0,0,0,0,0,108,0.483,0.778,0.357,29,49,12,0011400090,1610612763,MEM,Memphis,Earl Clark,,DNP - Coach's Decision                  ,,,,,,,,,,,,,
0011400090,1610612742,DAL,Dallas,202718,Chandler Parsons,F,,27:45,127.3,104.0,23.3,0.227,2.5,33.6,0.05,0.103,0.082,13.4,0.714,0.698,0.174,89.74,0.121,2014-10-20T00:00:00,6,1610612763,MEM,Memphis,2-4,27,17,31,28,0,0,0,0,0,0,0,0,0,0,103,0.432,0.7,0.238,14,43,12,0011400090,1610612742,DAL,Dallas,Chandler Parsons,F,,27:45,2.0,3.0,2.0,2.0,8.0,2.0,6.0,20.0,0.0,0.0,0.0,2.0
0011400090,1610612742,DAL,Dallas,202718,Chandler Parsons,F,,27:45,127.3,104.0,23.3,0.227,2.5,33.6,0.05,0.103,0.082,13.4,0.714,0.698,0.174,89.74,0.121,2014-10-20T00:00:00,6,1610612742,DAL,Dallas,3-3,27,30,34,17,0,0,0,0,0,0,0,0,0,0,108,0.483,0.778,0.357,29,49,12,0011400090,1610612742,DAL,Dallas,Chandler Parsons,F,,27:45,2.0,3.0,2.0,2.0,8.0,2.0,6.0,20.0,0.0,0.0,0.0,2.0
0011400090,1610612742,DAL,Dallas,1717,Dirk Nowitzki,F,,22:36,135.1,114.8,20.3,0.091,0.0,17.7,0.053,0.222,0.135,0.0,0.438,0.536,0.174,98.55,0.117,2014-10-20T00:00:00,6,1610612763,MEM,Memphis,2-4,27,17,31,28,0,0,0,0,0,0,0,0,0,0,103,0.432,0.7,0.238,14,43,12,0011400090,1610612742,DAL,Dallas,Dirk Nowitzki,F,,22:36,0.0,0.0,0.0,2.0,11.0,2.0,7.0,26.0,1.0,2.0,0.0,2.0
0011400090,1610612742,DAL,Dallas,1717,Dirk Nowitzki,F,,22:36,135.1,114.8,20.3,0.091,0.0,17.7,0.053,0.222,0.135,0.0,0.438,0.536,0.174,98.55,0.117,2014-10-20T00:00:00,6,1610612742,DAL,Dallas,3-3,27,30,34,17,0,0,0,0,0,0,0,0,0,0,108,0.483,0.778,0.357,29,49,12,0011400090,1610612742,DAL,Dallas,Dirk Nowitzki,F,,22:36,0.0,0.0,0.0,2.0,11.0,2.0,7.0,26.0,1.0,2.0,0.0,2.0
0011400090,1610612742,DAL,Dallas,2199,Tyson Chandler,C,,22:40,136.3,101.7,34.7,0.0,0.0,0.0,0.25,0.174,0.205,0.0,0.75,0.788,0.193,89.34,0.173,2014-10-20T00:00:00,6,1610612763,MEM,Memphis,2-4,27,17,31,28,0,0,0,0,0,0,0,0,0,0,103,0.432,0.7,0.238,14,43,12,0011400090,1610612742,DAL,Dallas,Tyson Chandler,C,,22:40,2.0,2.0,0.0,8.0,6.0,2.0,5.0,18.0,1.0,0.0,2.0,1.0
0011400090,1610612742,DAL,Dallas,2199,Tyson Chandler,C,,22:40,136.3,101.7,34.7,0.0,0.0,0.0,0.25,0.174,0.205,0.0,0.75,0.788,0.193,89.34,0.173,2014-10-20T00:00:00,6,1610612742,DAL,Dallas,3-3,27,30,34,17,0,0,0,0,0,0,0,0,0,0,108,0.483,0.778,0.357,29,49,12,0011400090,1610612742,DAL,Dallas,Tyson Chandler,C,,22:40,2.0,2.0,0.0,8.0,6.0,2.0,5.0,18.0,1.0,0.0,2.0,1.0
0011400090,1610612742,DAL,Dallas,101145,Monta Ellis,G,,27:28,127.3,101.9,25.4,0.143,0.0,18.9,0.0,0.138,0.083,0.0,0.5,0.543,0.227,89.9,0.119,2014-10-20T00:00:00,6,1610612763,MEM,Memphis,2-4,27,17,31,28,0,0,0,0,0,0,0,0,0,0,103,0.432,0.7,0.238,14,43,12,0011400090,1610612742,DAL,Dallas,Monta Ellis,G,,27:28,3.0,3.0,2.0,4.0,8.0,2.0,6.0,20.0,0.0,0.0,2.0,2.0
0011400090,1610612742,DAL,Dallas,101145,Monta Ellis,G,,27:28,127.3,101.9,25.4,0.143,0.0,18.9,0.0,0.138,0.083,0.0,0.5,0.543,0.227,89.9,0.119,2014-10-20T00:00:00,6,1610612742,DAL,Dallas,3-3,27,30,34,17,0,0,0,0,0,0,0,0,0,0,108,0.483,0.778,0.357,29,49,12,0011400090,1610612742,DAL,Dallas,Monta Ellis,G,,27:28,3.0,3.0,2.0,4.0,8.0,2.0,6.0,20.0,0.0,0.0,2.0,2.0
0011400090,1610612742,DAL,Dallas,2749,Jameer Nelson,G,,19:03,127.4,111.2,16.2,0.429,2.0,35.3,0.0,0.188,0.1,17.6,0.688,0.688,0.28,89.8,0.128,2014-10-20T00:00:00,6,1610612763,MEM,Memphis,2-4,27,17,31,28,0,0,0,0,0,0,0,0,0,0,103,0.432,0.7,0.238,14,43,12,0011400090,1610612742,DAL,Dallas,Jameer Nelson,G,,19:03,0.0,0.0,0.0,8.0,5.0,2.0,4.0,18.0,0.0,0.0,3.0,0.0
0011400090,1610612742,DAL,Dallas,2749,Jameer Nelson,G,,19:03,127.4,111.2,16.2,0.429,2.0,35.3,0.0,0.188,0.1,17.6,0.688,0.688,0.28,89.8,0.128,2014-10-20T00:00:00,6,1610612742,DAL,Dallas,3-3,27,30,34,17,0,0,0,0,0,0,0,0,0,0,108,0.483,0.778,0.357,29,49,12,0011400090,1610612742,DAL,Dallas,Jameer Nelson,G,,19:03,0.0,0.0,0.0,8.0,5.0,2.0,4.0,18.0,0.0,0.0,3.0,0.0
0011400090,1610612742,DAL,Dallas,2734,Devin Harris,,,17:08,128.3,100.2,28.1,0.267,0.0,36.4,0.0,0.048,0.028,0.0,0.286,0.286,0.171,101.92,0.053,2014-10-20T00:00:00,6,1610612763,MEM,Memphis,2-4,27,17,31,28,0,0,0,0,0,0,0,0,0,0,103,0.432,0.7,0.238,14,43,12,0011400090,1610612742,DAL,Dallas,Devin Harris,,,17:08,2.0,0.0,2.0,4.0,8.0,2.0,4.0,12.0,1.0,0.0,1.0,1.0
0011400090,1610612742,DAL,Dallas,2734,Devin Harris,,,17:08,128.3,100.2,28.1,0.267,0.0,36.4,0.0,0.048,0.028,0.0,0.286,0.286,0.171,101.92,0.053,2014-10-20T00:00:00,6,1610612742,DAL,Dallas,3-3,27,30,34,17,0,0,0,0,0,0,0,0,0,0,108,0.483,0.778,0.357,29,49,12,0011400090,1610612742,DAL,Dallas,Devin Harris,,,17:08,2.0,0.0,2.0,4.0,8.0,2.0,4.0,12.0,1.0,0.0,1.0,1.0
0011400090,1610612742,DAL,Dallas,2210,Richard Jefferson,,,13:50,105.4,97.5,7.9,0.5,3.0,23.5,0.0,0.053,0.031,7.8,0.786,0.742,0.31,97.57,0.282,2014-10-20T00:00:00,6,1610612763,MEM,Memphis,2-4,27,17,31,28,0,0,0,0,0,0,0,0,0,0,103,0.432,0.7,0.238,14,43,12,0011400090,1610612742,DAL,Dallas,Richard Jefferson,,,13:50,2.0,0.0,8.0,8.0,4.0,5.0,3.0,8.0,0.0,1.0,2.0,2.0
0011400090,1610612742,DAL,Dallas,2210,Richard Jefferson,,,13:50,105.4,97.5,7.9,0.5,3.0,23.5,0.0,0.053,0.031,7.8,0.786,0.742,0.31,97.57,0.282,2014-10-20T00:00:00,6,1610612742,DAL,Dallas,3-3,27,30,34,17,0,0,0,0,0,0,0,0,0,0,108,0.483,0.778,0.357,29,49,12,0011400090,1610612742,DAL,Dallas,Richard Jefferson,,,13:50,2.0,0.0,8.0,8.0,4.0,5.0,3.0,8.0,0.0,1.0,2.0,2.0
0011400090,1610612742,DAL,Dallas,202962,Greg Smith,,,11:15,110.4,111.3,-0.9,0.0,0.0,0.0,0.0,0.25,0.15,0.0,1.0,0.798,0.083,101.91,0.091,2014-10-20T00:00:00,6,1610612763,MEM,Memphis,2-4,27,17,31,28,0,0,0,0,0,0,0,0,0,0,103,0.432,0.7,0.238,14,43,12,0011400090,1610612742,DAL,Dallas,Greg Smith,,,11:15,1.0,0.0,0.0,2.0,6.0,4.0,4.0,8.0,2.0,0.0,2.0,2.0
0011400090,1610612742,DAL,Dallas,202962,Greg Smith,,,11:15,110.4,111.3,-0.9,0.0,0.0,0.0,0.0,0.25,0.15,0.0,1.0,0.798,0.083,101.91,0.091,2014-10-20T00:00:00,6,1610612742,DAL,Dallas,3-3,27,30,34,17,0,0,0,0,0,0,0,0,0,0,108,0.483,0.778,0.357,29,49,12,0011400090,1610612742,DAL,Dallas,Greg Smith,,,11:15,1.0,0.0,0.0,2.0,6.0,4.0,4.0,8.0,2.0,0.0,2.0,2.0
0011400090,1610612742,DAL,Dallas,203539,Gal Mekel,,,20:32,97.5,111.9,-14.4,0.2,1.5,27.3,0.087,0.143,0.114,18.2,0.167,0.167,0.157,103.61,0.0,2014-10-20T00:00:00,6,1610612763,MEM,Memphis,2-4,27,17,31,28,0,0,0,0,0,0,0,0,0,0,103,0.432,0.7,0.238,14,43,12,0011400090,1610612742,DAL,Dallas,Gal Mekel,,,20:32,0.0,0.0,0.0,2.0,11.0,6.0,3.0,24.0,0.0,3.0,2.0,0.0
0011400090,1610612742,DAL,Dallas,203539,Gal Mekel,,,20:32,97.5,111.9,-14.4,0.2,1.5,27.3,0.087,0.143,0.114,18.2,0.167,0.167,0.157,103.61,0.0,2014-10-20T00:00:00,6,1610612742,DAL,Dallas,3-3,27,30,34,17,0,0,0,0,0,0,0,0,0,0,108,0.483,0.778,0.357,29,49,12,0011400090,1610612742,DAL,Dallas,Gal Mekel,,,20:32,0.0,0.0,0.0,2.0,11.0,6.0,3.0,24.0,0.0,3.0,2.0,0.0
0011400090,1610612742,DAL,Dallas,201148,Brandan Wright,,,9:52,90.5,109.7,-19.2,0.0,0.0,0.0,0.182,0.4,0.286,20.0,0.25,0.25,0.184,107.49,0.067,2014-10-20T00:00:00,6,1610612763,MEM,Memphis,2-4,27,17,31,28,0,0,0,0,0,0,0,0,0,0,103,0.432,0.7,0.238,14,43,12,0011400090,1610612742,DAL,Dallas,Brandan Wright,,,9:52,0.0,0.0,2.0,2.0,7.0,2.0,0.0,14.0,0.0,1.0,1.0,0.0
0011400090,1610612742,DAL,Dallas,201148,Brandan Wright,,,9:52,90.5,109.7,-19.2,0.0,0.0,0.0,0.182,0.4,0.286,20.0,0.25,0.25,0.184,107.49,0.067,2014-10-20T00:00:00,6,1610612742,DAL,Dallas,3-3,27,30,34,17,0,0,0,0,0,0,0,0,0,0,108,0.483,0.778,0.357,29,49,12,0011400090,1610612742,DAL,Dallas,Brandan Wright,,,9:52,0.0,0.0,2.0,2.0,7.0,2.0,0.0,14.0,0.0,1.0,1.0,0.0
0011400090,1610612742,DAL,Dallas,202329,Al-Farouq Aminu,,,13:54,102.6,107.9,-5.3,0.125,0.0,12.0,0.1,0.063,0.077,0.0,0.75,0.82,0.227,101.73,0.15,2014-10-20T00:00:00,6,1610612763,MEM,Memphis,2-4,27,17,31,28,0,0,0,0,0,0,0,0,0,0,103,0.432,0.7,0.238,14,43,12,0011400090,1610612742,DAL,Dallas,Al-Farouq Aminu,,,13:54,0.0,3.0,2.0,6.0,7.0,3.0,0.0,16.0,0.0,1.0,5.0,2.0
0011400090,1610612742,DAL,Dallas,202329,Al-Farouq Aminu,,,13:54,102.6,107.9,-5.3,0.125,0.0,12.0,0.1,0.063,0.077,0.0,0.75,0.82,0.227,101.73,0.15,2014-10-20T00:00:00,6,1610612742,DAL,Dallas,3-3,27,30,34,17,0,0,0,0,0,0,0,0,0,0,108,0.483,0.778,0.357,29,49,12,0011400090,1610612742,DAL,Dallas,Al-Farouq Aminu,,,13:54,0.0,3.0,2.0,6.0,7.0,3.0,0.0,16.0,0.0,1.0,5.0,2.0
0011400090,1610612742,DAL,Dallas,101111,Charlie Villanueva,,,6:22,84.2,84.1,0.1,0.0,0.0,0.0,0.0,0.143,0.063,20.0,0.25,0.25,0.315,94.04,-0.148,2014-10-20T00:00:00,6,1610612763,MEM,Memphis,2-4,27,17,31,28,0,0,0,0,0,0,0,0,0,0,103,0.432,0.7,0.238,14,43,12,0011400090,1610612742,DAL,Dallas,Charlie Villanueva,,,6:22,0.0,2.0,0.0,0.0,2.0,1.0,1.0,4.0,0.0,0.0,1.0,0.0
0011400090,1610612742,DAL,Dallas,101111,Charlie Villanueva,,,6:22,84.2,84.1,0.1,0.0,0.0,0.0,0.0,0.143,0.063,20.0,0.25,0.25,0.315,94.04,-0.148,2014-10-20T00:00:00,6,1610612742,DAL,Dallas,3-3,27,30,34,17,0,0,0,0,0,0,0,0,0,0,108,0.483,0.778,0.357,29,49,12,0011400090,1610612742,DAL,Dallas,Charlie Villanueva,,,6:22,0.0,2.0,0.0,0.0,2.0,1.0,1.0,4.0,0.0,0.0,1.0,0.0
0011400090,1610612742,DAL,Dallas,203109,Jae Crowder,,,12:00,71.5,113.8,-42.3,0.0,0.0,0.0,0.0,0.154,0.077,20.0,1.0,1.0,0.18,96.72,0.233,2014-10-20T00:00:00,6,1610612763,MEM,Memphis,2-4,27,17,31,28,0,0,0,0,0,0,0,0,0,0,103,0.432,0.7,0.238,14,43,12,0011400090,1610612742,DAL,Dallas,Jae Crowder,,,12:00,5.0,0.0,5.0,2.0,6.0,4.0,1.0,14.0,0.0,0.0,3.0,0.0
0011400090,1610612742,DAL,Dallas,203109,Jae Crowder,,,12:00,71.5,113.8,-42.3,0.0,0.0,0.0,0.0,0.154,0.077,20.0,1.0,1.0,0.18,96.72,0.233,2014-10-20T00:00:00,6,1610612742,DAL,Dallas,3-3,27,30,34,17,0,0,0,0,0,0,0,0,0,0,108,0.483,0.778,0.357,29,49,12,0011400090,1610612742,DAL,Dallas,Jae Crowder,,,12:00,5.0,0.0,5.0,2.0,6.0,4.0,1.0,14.0,0.0,0.0,3.0,0.0
0011400090,1610612742,DAL,Dallas,203495,Ricky Ledo,,,11:26,74.7,113.8,-39.1,0.4,2.0,25.0,0.077,0.091,0.083,12.5,0.2,0.2,0.224,97.57,-0.015,2014-10-20T00:00:00,6,1610612763,MEM,Memphis,2-4,27,17,31,28,0,0,0,0,0,0,0,0,0,0,103,0.432,0.7,0.238,14,43,12,0011400090,1610612742,DAL,Dallas,Ricky Ledo,,,11:26,0.0,0.0,0.0,2.0,6.0,3.0,1.0,14.0,0.0,0.0,1.0,0.0
0011400090,1610612742,DAL,Dallas,203495,Ricky Ledo,,,11:26,74.7,113.8,-39.1,0.4,2.0,25.0,0.077,0.091,0.083,12.5,0.2,0.2,0.224,97.57,-0.015,2014-10-20T00:00:00,6,1610612742,DAL,Dallas,3-3,27,30,34,17,0,0,0,0,0,0,0,0,0,0,108,0.483,0.778,0.357,29,49,12,0011400090,1610612742,DAL,Dallas,Ricky Ledo,,,11:26,0.0,0.0,0.0,2.0,6.0,3.0,1.0,14.0,0.0,0.0,1.0,0.0
0011400090,1610612742,DAL,Dallas,203108,Bernard James,,,4:09,85.7,111.1,-25.4,0.0,0.0,0.0,0.143,0.2,0.167,0.0,0.0,0.0,0.0,82.12,0.077,2014-10-20T00:00:00,6,1610612763,MEM,Memphis,2-4,27,17,31,28,0,0,0,0,0,0,0,0,0,0,103,0.432,0.7,0.238,14,43,12,0011400090,1610612742,DAL,Dallas,Bernard James,,,4:09,0.0,0.0,0.0,0.0,0.0,0.0,0.0,4.0,1.0,0.0,1.0,0.0
0011400090,1610612742,DAL,Dallas,203108,Bernard James,,,4:09,85.7,111.1,-25.4,0.0,0.0,0.0,0.143,0.2,0.167,0.0,0.0,0.0,0.0,82.12,0.077,2014-10-20T00:00:00,6,1610612742,DAL,Dallas,3-3,27,30,34,17,0,0,0,0,0,0,0,0,0,0,108,0.483,0.778,0.357,29,49,12,0011400090,1610612742,DAL,Dallas,Bernard James,,,4:09,0.0,0.0,0.0,0.0,0.0,0.0,0.0,4.0,1.0,0.0,1.0,0.0
0011400090,1610612742,DAL,Dallas,101109,Raymond Felton,,DND - Sprained Right Ankle              ,,,,,,,0.0,,,,,,,0.0,,,2014-10-20T00:00:00,6,1610612763,MEM,Memphis,2-4,27,17,31,28,0,0,0,0,0,0,0,0,0,0,103,0.432,0.7,0.238,14,43,12,0011400090,1610612742,DAL,Dallas,Raymond Felton,,DND - Sprained Right Ankle              ,,,,,,,,,,,,,
0011400090,1610612742,DAL,Dallas,101109,Raymond Felton,,DND - Sprained Right Ankle              ,,,,,,,0.0,,,,,,,0.0,,,2014-10-20T00:00:00,6,1610612742,DAL,Dallas,3-3,27,30,34,17,0,0,0,0,0,0,0,0,0,0,108,0.483,0.778,0.357,29,49,12,0011400090,1610612742,DAL,Dallas,Raymond Felton,,DND - Sprained Right Ankle              ,,,,,,,,,,,,,
0011400090,1610612742,DAL,Dallas,203547,Eric Griffin,,DNP - Coach's Decision                  ,,,,,,,0.0,,,,,,,0.0,,,2014-10-20T00:00:00,6,1610612763,MEM,Memphis,2-4,27,17,31,28,0,0,0,0,0,0,0,0,0,0,103,0.432,0.7,0.238,14,43,12,0011400090,1610612742,DAL,Dallas,Eric Griffin,,DNP - Coach's Decision                  ,,,,,,,,,,,,,
0011400090,1610612742,DAL,Dallas,203547,Eric Griffin,,DNP - Coach's Decision                  ,,,,,,,0.0,,,,,,,0.0,,,2014-10-20T00:00:00,6,1610612742,DAL,Dallas,3-3,27,30,34,17,0,0,0,0,0,0,0,0,0,0,108,0.483,0.778,0.357,29,49,12,0011400090,1610612742,DAL,Dallas,Eric Griffin,,DNP - Coach's Decision                  ,,,,,,,,,,,,,
0011400090,1610612742,DAL,Dallas,201274,Ivan Johnson,,DNP - Coach's Decision                  ,,,,,,,0.0,,,,,,,0.0,,,2014-10-20T00:00:00,6,1610612763,MEM,Memphis,2-4,27,17,31,28,0,0,0,0,0,0,0,0,0,0,103,0.432,0.7,0.238,14,43,12,0011400090,1610612742,DAL,Dallas,Ivan Johnson,,DNP - Coach's Decision                  ,,,,,,,,,,,,,
0011400090,1610612742,DAL,Dallas,201274,Ivan Johnson,,DNP - Coach's Decision                  ,,,,,,,0.0,,,,,,,0.0,,,2014-10-20T00:00:00,6,1610612742,DAL,Dallas,3-3,27,30,34,17,0,0,0,0,0,0,0,0,0,0,108,0.483,0.778,0.357,29,49,12,0011400090,1610612742,DAL,Dallas,Ivan Johnson,,DNP - Coach's Decision                  ,,,,,,,,,,,,,
0011400090,1610612742,DAL,Dallas,203117,Doron Lamb,,DNP - Coach's Decision                  ,,,,,,,0.0,,,,,,,0.0,,,2014-10-20T00:00:00,6,1610612763,MEM,Memphis,2-4,27,17,31,28,0,0,0,0,0,0,0,0,0,0,103,0.432,0.7,0.238,14,43,12,0011400090,1610612742,DAL,Dallas,Doron Lamb,,DNP - Coach's Decision                  ,,,,,,,,,,,,,
0011400090,1610612742,DAL,Dallas,203117,Doron Lamb,,DNP - Coach's Decision                  ,,,,,,,0.0,,,,,,,0.0,,,2014-10-20T00:00:00,6,1610612742,DAL,Dallas,3-3,27,30,34,17,0,0,0,0,0,0,0,0,0,0,108,0.483,0.778,0.357,29,49,12,0011400090,1610612742,DAL,Dallas,Doron Lamb,,DNP - Coach's Decision                  ,,,,,,,,,,,,,
0011400090,1610612742,DAL,Dallas,204078,Yuki Togashi,,DNP - Coach's Decision                  ,,,,,,,0.0,,,,,,,0.0,,,2014-10-20T00:00:00,6,1610612763,MEM,Memphis,2-4,27,17,31,28,0,0,0,0,0,0,0,0,0,0,103,0.432,0.7,0.238,14,43,12,0011400090,1610612742,DAL,Dallas,Yuki Togashi,,DNP - Coach's Decision                  ,,,,,,,,,,,,,
0011400090,1610612742,DAL,Dallas,204078,Yuki Togashi,,DNP - Coach's Decision                  ,,,,,,,0.0,,,,,,,0.0,,,2014-10-20T00:00:00,6,1610612742,DAL,Dallas,3-3,27,30,34,17,0,0,0,0,0,0,0,0,0,0,108,0.483,0.778,0.357,29,49,12,0011400090,1610612742,DAL,Dallas,Yuki Togashi,,DNP - Coach's Decision                  ,,,,,,,,,,,,,
