GAME_ID_x,TEAM_ID_x,TEAM_ABBREVIATION_x,TEAM_CITY_x,PLAYER_ID,PLAYER_NAME_x,START_POSITION_x,COMMENT_x,MIN_x,OFF_RATING,DEF_RATING,NET_RATING,AST_PCT,AST_TOV,AST_RATIO,OREB_PCT,DREB_PCT,REB_PCT,TM_TOV_PCT,EFG_PCT,TS_PCT,USG_PCT,PACE,PIE,GAME_DATE_EST,GAME_SEQUENCE,TEAM_ID_y,TEAM_ABBREVIATION_y,TEAM_CITY_NAME,TEAM_WINS_LOSSES,PTS_QTR1,PTS_QTR2,PTS_QTR3,PTS_QTR4,PTS_OT1,PTS_OT2,PTS_OT3,PTS_OT4,PTS_OT5,PTS_OT6,PTS_OT7,PTS_OT8,PTS_OT9,PTS_OT10,PTS,FG_PCT,FT_PCT,FG3_PCT,AST,REB,TOV,GAME_ID_y,TEAM_ID,TEAM_ABBREVIATION,TEAM_CITY_y,PLAYER_NAME_y,START_POSITION_y,COMMENT_y,MIN_y,PTS_OFF_TOV,PTS_2ND_CHANCE,PTS_FB,PTS_PAINT,OPP_PTS_OFF_TOV,OPP_PTS_2ND_CHANCE,OPP_PTS_FB,OPP_PTS_PAINT,BLK,BLKA,PF,PFD
0011400107,1610612754,IND,Indiana,203524,Solomon Hill,F,,30:22,97.4,77.2,20.2,0.0,0.0,0.0,0.0,0.071,0.038,14.1,0.333,0.658,0.113,90.7,0.063,2014-10-23T00:00:00,1,1610612754,IND,Indiana,3-4,28,26,16,18,0,0,0,0,0,0,0,0,0,0,88,0.451,0.704,0.417,21,46,18,0011400107,1610612754,IND,Indiana,Solomon Hill,F,,30:22,0.0,2.0,2.0,0.0,5.0,2.0,7.0,12.0,0.0,1.0,1.0,4.0
0011400107,1610612754,IND,Indiana,203524,Solomon Hill,F,,30:22,97.4,77.2,20.2,0.0,0.0,0.0,0.0,0.071,0.038,14.1,0.333,0.658,0.113,90.7,0.063,2014-10-23T00:00:00,1,1610612766,CHA,Charlotte,3-5,18,17,21,23,0,0,0,0,0,0,0,0,0,0,79,0.37,0.808,0.222,18,34,10,0011400107,1610612754,IND,Indiana,Solomon Hill,F,,30:22,0.0,2.0,2.0,0.0,5.0,2.0,7.0,12.0,0.0,1.0,1.0,4.0
0011400107,1610612754,IND,Indiana,2449,Luis Scola,F,,26:34,96.8,79.0,17.9,0.167,1.0,11.9,0.13,0.391,0.261,11.9,0.636,0.588,0.265,92.62,0.267,2014-10-23T00:00:00,1,1610612754,IND,Indiana,3-4,28,26,16,18,0,0,0,0,0,0,0,0,0,0,88,0.451,0.704,0.417,21,46,18,0011400107,1610612754,IND,Indiana,Luis Scola,F,,26:34,2.0,1.0,0.0,4.0,0.0,0.0,7.0,8.0,1.0,0.0,2.0,3.0
0011400107,1610612754,IND,Indiana,2449,Luis Scola,F,,26:34,96.8,79.0,17.9,0.167,1.0,11.9,0.13,0.391,0.261,11.9,0.636,0.588,0.265,92.62,0.267,2014-10-23T00:00:00,1,1610612766,CHA,Charlotte,3-5,18,17,21,23,0,0,0,0,0,0,0,0,0,0,79,0.37,0.808,0.222,18,34,10,0011400107,1610612754,IND,Indiana,Luis Scola,F,,26:34,2.0,1.0,0.0,4.0,0.0,0.0,7.0,8.0,1.0,0.0,2.0,3.0
0011400107,1610612754,IND,Indiana,201579,Roy Hibbert,C,,30:19,86.8,92.1,-5.3,0.071,0.25,5.3,0.077,0.28,0.176,21.1,0.357,0.357,0.283,91.13,0.029,2014-10-23T00:00:00,1,1610612754,IND,Indiana,3-4,28,26,16,18,0,0,0,0,0,0,0,0,0,0,88,0.451,0.704,0.417,21,46,18,0011400107,1610612754,IND,Indiana,Roy Hibbert,C,,30:19,0.0,4.0,0.0,4.0,9.0,2.0,11.0,20.0,1.0,4.0,4.0,1.0
0011400107,1610612754,IND,Indiana,201579,Roy Hibbert,C,,30:19,86.8,92.1,-5.3,0.071,0.25,5.3,0.077,0.28,0.176,21.1,0.357,0.357,0.283,91.13,0.029,2014-10-23T00:00:00,1,1610612766,CHA,Charlotte,3-5,18,17,21,23,0,0,0,0,0,0,0,0,0,0,79,0.37,0.808,0.222,18,34,10,0011400107,1610612754,IND,Indiana,Roy Hibbert,C,,30:19,0.0,4.0,0.0,4.0,9.0,2.0,11.0,20.0,1.0,4.0,4.0,1.0
0011400107,1610612754,IND,Indiana,101139,CJ Miles,G,,31:26,92.8,93.2,-0.4,0.273,3.0,14.5,0.0,0.2,0.1,4.8,0.633,0.686,0.272,91.15,0.23,2014-10-23T00:00:00,1,1610612754,IND,Indiana,3-4,28,26,16,18,0,0,0,0,0,0,0,0,0,0,88,0.451,0.704,0.417,21,46,18,0011400107,1610612754,IND,Indiana,CJ Miles,G,,31:26,4.0,0.0,0.0,6.0,11.0,2.0,9.0,18.0,0.0,1.0,4.0,3.0
0011400107,1610612754,IND,Indiana,101139,CJ Miles,G,,31:26,92.8,93.2,-0.4,0.273,3.0,14.5,0.0,0.2,0.1,4.8,0.633,0.686,0.272,91.15,0.23,2014-10-23T00:00:00,1,1610612766,CHA,Charlotte,3-5,18,17,21,23,0,0,0,0,0,0,0,0,0,0,79,0.37,0.808,0.222,18,34,10,0011400107,1610612754,IND,Indiana,CJ Miles,G,,31:26,4.0,0.0,0.0,6.0,11.0,2.0,9.0,18.0,0.0,1.0,4.0,3.0
0011400107,1610612754,IND,Indiana,202388,Donald Sloan,G,,35:21,87.6,95.2,-7.6,0.444,2.0,30.9,0.033,0.172,0.102,15.5,0.385,0.396,0.24,94.26,0.09,2014-10-23T00:00:00,1,1610612754,IND,Indiana,3-4,28,26,16,18,0,0,0,0,0,0,0,0,0,0,88,0.451,0.704,0.417,21,46,18,0011400107,1610612754,IND,Indiana,Donald Sloan,G,,35:21,2.0,0.0,2.0,10.0,11.0,4.0,13.0,22.0,0.0,2.0,2.0,1.0
0011400107,1610612754,IND,Indiana,202388,Donald Sloan,G,,35:21,87.6,95.2,-7.6,0.444,2.0,30.9,0.033,0.172,0.102,15.5,0.385,0.396,0.24,94.26,0.09,2014-10-23T00:00:00,1,1610612766,CHA,Charlotte,3-5,18,17,21,23,0,0,0,0,0,0,0,0,0,0,79,0.37,0.808,0.222,18,34,10,0011400107,1610612754,IND,Indiana,Donald Sloan,G,,35:21,2.0,0.0,2.0,10.0,11.0,4.0,13.0,22.0,0.0,2.0,2.0,1.0
0011400107,1610612754,IND,Indiana,203142,Chris Copeland,,,20:12,91.8,78.7,13.1,0.083,1.0,11.4,0.0,0.111,0.051,11.4,0.7,0.814,0.171,98.99,0.217,2014-10-23T00:00:00,1,1610612754,IND,Indiana,3-4,28,26,16,18,0,0,0,0,0,0,0,0,0,0,88,0.451,0.704,0.417,21,46,18,0011400107,1610612754,IND,Indiana,Chris Copeland,,,20:12,0.0,0.0,0.0,4.0,2.0,2.0,6.0,6.0,1.0,1.0,1.0,4.0
0011400107,1610612754,IND,Indiana,203142,Chris Copeland,,,20:12,91.8,78.7,13.1,0.083,1.0,11.4,0.0,0.111,0.051,11.4,0.7,0.814,0.171,98.99,0.217,2014-10-23T00:00:00,1,1610612766,CHA,Charlotte,3-5,18,17,21,23,0,0,0,0,0,0,0,0,0,0,79,0.37,0.808,0.222,18,34,10,0011400107,1610612754,IND,Indiana,Chris Copeland,,,20:12,0.0,0.0,0.0,4.0,2.0,2.0,6.0,6.0,1.0,1.0,1.0,4.0
0011400107,1610612754,IND,Indiana,101133,Ian Mahinmi,,,17:41,107.7,72.4,35.3,0.077,1.0,17.7,0.077,0.063,0.069,17.7,0.0,0.412,0.124,96.63,-0.099,2014-10-23T00:00:00,1,1610612754,IND,Indiana,3-4,28,26,16,18,0,0,0,0,0,0,0,0,0,0,88,0.451,0.704,0.417,21,46,18,0011400107,1610612754,IND,Indiana,Ian Mahinmi,,,17:41,0.0,0.0,0.0,0.0,4.0,2.0,2.0,4.0,1.0,0.0,5.0,5.0
0011400107,1610612754,IND,Indiana,101133,Ian Mahinmi,,,17:41,107.7,72.4,35.3,0.077,1.0,17.7,0.077,0.063,0.069,17.7,0.0,0.412,0.124,96.63,-0.099,2014-10-23T00:00:00,1,1610612766,CHA,Charlotte,3-5,18,17,21,23,0,0,0,0,0,0,0,0,0,0,79,0.37,0.808,0.222,18,34,10,0011400107,1610612754,IND,Indiana,Ian Mahinmi,,,17:41,0.0,0.0,0.0,0.0,4.0,2.0,2.0,4.0,1.0,0.0,5.0,5.0
0011400107,1610612754,IND,Indiana,203519,Adonis Thomas,,,12:39,114.8,52.0,62.8,0.222,0.0,40.0,0.0,0.167,0.095,0.0,0.0,0.0,0.114,90.08,0.0,2014-10-23T00:00:00,1,1610612754,IND,Indiana,3-4,28,26,16,18,0,0,0,0,0,0,0,0,0,0,88,0.451,0.704,0.417,21,46,18,0011400107,1610612754,IND,Indiana,Adonis Thomas,,,12:39,0.0,0.0,0.0,0.0,2.0,0.0,0.0,2.0,0.0,0.0,1.0,0.0
0011400107,1610612754,IND,Indiana,203519,Adonis Thomas,,,12:39,114.8,52.0,62.8,0.222,0.0,40.0,0.0,0.167,0.095,0.0,0.0,0.0,0.114,90.08,0.0,2014-10-23T00:00:00,1,1610612766,CHA,Charlotte,3-5,18,17,21,23,0,0,0,0,0,0,0,0,0,0,79,0.37,0.808,0.222,18,34,10,0011400107,1610612754,IND,Indiana,Adonis Thomas,,,12:39,0.0,0.0,0.0,0.0,2.0,0.0,0.0,2.0,0.0,0.0,1.0,0.0
0011400107,1610612754,IND,Indiana,204014,Damjan Rudez,,,14:12,94.7,87.3,7.4,0.25,1.0,40.0,0.0,0.091,0.053,40.0,1.5,1.5,0.102,96.61,0.141,2014-10-23T00:00:00,1,1610612754,IND,Indiana,3-4,28,26,16,18,0,0,0,0,0,0,0,0,0,0,88,0.451,0.704,0.417,21,46,18,0011400107,1610612754,IND,Indiana,Damjan Rudez,,,14:12,3.0,0.0,0.0,0.0,8.0,2.0,4.0,12.0,0.0,0.0,0.0,0.0
0011400107,1610612754,IND,Indiana,204014,Damjan Rudez,,,14:12,94.7,87.3,7.4,0.25,1.0,40.0,0.0,0.091,0.053,40.0,1.5,1.5,0.102,96.61,0.141,2014-10-23T00:00:00,1,1610612766,CHA,Charlotte,3-5,18,17,21,23,0,0,0,0,0,0,0,0,0,0,79,0.37,0.808,0.222,18,34,10,0011400107,1610612754,IND,Indiana,Damjan Rudez,,,14:12,3.0,0.0,0.0,0.0,8.0,2.0,4.0,12.0,0.0,0.0,0.0,0.0
0011400107,1610612754,IND,Indiana,202730,Lavoy Allen,,,21:14,94.5,93.8,0.7,0.091,0.5,12.5,0.067,0.222,0.152,25.0,0.4,0.4,0.158,92.48,0.042,2014-10-23T00:00:00,1,1610612754,IND,Indiana,3-4,28,26,16,18,0,0,0,0,0,0,0,0,0,0,88,0.451,0.704,0.417,21,46,18,0011400107,1610612754,IND,Indiana,Lavoy Allen,,,21:14,0.0,2.0,2.0,4.0,13.0,4.0,6.0,16.0,2.0,0.0,3.0,1.0
0011400107,1610612754,IND,Indiana,202730,Lavoy Allen,,,21:14,94.5,93.8,0.7,0.091,0.5,12.5,0.067,0.222,0.152,25.0,0.4,0.4,0.158,92.48,0.042,2014-10-23T00:00:00,1,1610612766,CHA,Charlotte,3-5,18,17,21,23,0,0,0,0,0,0,0,0,0,0,79,0.37,0.808,0.222,18,34,10,0011400107,1610612754,IND,Indiana,Lavoy Allen,,,21:14,0.0,2.0,2.0,4.0,13.0,4.0,6.0,16.0,2.0,0.0,3.0,1.0
0011400107,1610612754,IND,Indiana,203927,CJ Fair,,DNP - Coach's Decision                  ,,,,,,,0.0,,,,,,,0.0,,,2014-10-23T00:00:00,1,1610612754,IND,Indiana,3-4,28,26,16,18,0,0,0,0,0,0,0,0,0,0,88,0.451,0.704,0.417,21,46,18,0011400107,1610612754,IND,Indiana,CJ Fair,,DNP - Coach's Decision                  ,,,,,,,,,,,,,
0011400107,1610612754,IND,Indiana,203927,CJ Fair,,DNP - Coach's Decision                  ,,,,,,,0.0,,,,,,,0.0,,,2014-10-23T00:00:00,1,1610612766,CHA,Charlotte,3-5,18,17,21,23,0,0,0,0,0,0,0,0,0,0,79,0.37,0.808,0.222,18,34,10,0011400107,1610612754,IND,Indiana,CJ Fair,,DNP - Coach's Decision                  ,,,,,,,,,,,,,
0011400107,1610612754,IND,Indiana,202331,Paul George,,"DND - Rehabilitation, Fractured Right Ti",,,,,,,0.0,,,,,,,0.0,,,2014-10-23T00:00:00,1,1610612754,IND,Indiana,3-4,28,26,16,18,0,0,0,0,0,0,0,0,0,0,88,0.451,0.704,0.417,21,46,18,0011400107,1610612754,IND,Indiana,Paul George,,"DND - Rehabilitation, Fractured Right Ti",,,,,,,,,,,,,
0011400107,1610612754,IND,Indiana,202331,Paul George,,"DND - Rehabilitation, Fractured Right Ti",,,,,,,0.0,,,,,,,0.0,,,2014-10-23T00:00:00,1,1610612766,CHA,Charlotte,3-5,18,17,21,23,0,0,0,0,0,0,0,0,0,0,79,0.37,0.808,0.222,18,34,10,0011400107,1610612754,IND,Indiana,Paul George,,"DND - Rehabilitation, Fractured Right Ti",,,,,,,,,,,,,
0011400107,1610612754,IND,Indiana,201588,George Hill,,DND - Left Knee Contusion               ,,,,,,,0.0,,,,,,,0.0,,,2014-10-23T00:00:00,1,1610612754,IND,Indiana,3-4,28,26,16,18,0,0,0,0,0,0,0,0,0,0,88,0.451,0.704,0.417,21,46,18,0011400107,1610612754,IND,Indiana,George Hill,,DND - Left Knee Contusion               ,,,,,,,,,,,,,
0011400107,1610612754,IND,Indiana,201588,George Hill,,DND - Left Knee Contusion               ,,,,,,,0.0,,,,,,,0.0,,,2014-10-23T00:00:00,1,1610612766,CHA,Charlotte,3-5,18,17,21,23,0,0,0,0,0,0,0,0,0,0,79,0.37,0.808,0.222,18,34,10,0011400107,1610612754,IND,Indiana,George Hill,,DND - Left Knee Contusion               ,,,,,,,,,,,,,
0011400107,1610612754,IND,Indiana,202620,Arinze Onuaku,,DNP - Coach's Decision                  ,,,,,,,0.0,,,,,,,0.0,,,2014-10-23T00:00:00,1,1610612754,IND,Indiana,3-4,28,26,16,18,0,0,0,0,0,0,0,0,0,0,88,0.451,0.704,0.417,21,46,18,0011400107,1610612754,IND,Indiana,Arinze Onuaku,,DNP - Coach's Decision                  ,,,,,,,,,,,,,
0011400107,1610612754,IND,Indiana,202620,Arinze Onuaku,,DNP - Coach's Decision                  ,,,,,,,0.0,,,,,,,0.0,,,2014-10-23T00:00:00,1,1610612766,CHA,Charlotte,3-5,18,17,21,23,0,0,0,0,0,0,0,0,0,0,79,0.37,0.808,0.222,18,34,10,0011400107,1610612754,IND,Indiana,Arinze Onuaku,,DNP - Coach's Decision                  ,,,,,,,,,,,,,
0011400107,1610612754,IND,Indiana,202698,Chris Singleton,,DNP - Coach's Decision                  ,,,,,,,0.0,,,,,,,0.0,,,2014-10-23T00:00:00,1,1610612754,IND,Indiana,3-4,28,26,16,18,0,0,0,0,0,0,0,0,0,0,88,0.451,0.704,0.417,21,46,18,0011400107,1610612754,IND,Indiana,Chris Singleton,,DNP - Coach's Decision                  ,,,,,,,,,,,,,
0011400107,1610612754,IND,Indiana,202698,Chris Singleton,,DNP - Coach's Decision                  ,,,,,,,0.0,,,,,,,0.0,,,2014-10-23T00:00:00,1,1610612766,CHA,Charlotte,3-5,18,17,21,23,0,0,0,0,0,0,0,0,0,0,79,0.37,0.808,0.222,18,34,10,0011400107,1610612754,IND,Indiana,Chris Singleton,,DNP - Coach's Decision                  ,,,,,,,,,,,,,
0011400107,1610612754,IND,Indiana,201155,Rodney Stuckey,,DND - Sprained Right Foot               ,,,,,,,0.0,,,,,,,0.0,,,2014-10-23T00:00:00,1,1610612754,IND,Indiana,3-4,28,26,16,18,0,0,0,0,0,0,0,0,0,0,88,0.451,0.704,0.417,21,46,18,0011400107,1610612754,IND,Indiana,Rodney Stuckey,,DND - Sprained Right Foot               ,,,,,,,,,,,,,
0011400107,1610612754,IND,Indiana,201155,Rodney Stuckey,,DND - Sprained Right Foot               ,,,,,,,0.0,,,,,,,0.0,,,2014-10-23T00:00:00,1,1610612766,CHA,Charlotte,3-5,18,17,21,23,0,0,0,0,0,0,0,0,0,0,79,0.37,0.808,0.222,18,34,10,0011400107,1610612754,IND,Indiana,Rodney Stuckey,,DND - Sprained Right Foot               ,,,,,,,,,,,,,
0011400107,1610612754,IND,Indiana,201228,C.J. Watson,,DNP - Coach's Decision                  ,,,,,,,0.0,,,,,,,0.0,,,2014-10-23T00:00:00,1,1610612754,IND,Indiana,3-4,28,26,16,18,0,0,0,0,0,0,0,0,0,0,88,0.451,0.704,0.417,21,46,18,0011400107,1610612754,IND,Indiana,C.J. Watson,,DNP - Coach's Decision                  ,,,,,,,,,,,,,
0011400107,1610612754,IND,Indiana,201228,C.J. Watson,,DNP - Coach's Decision                  ,,,,,,,0.0,,,,,,,0.0,,,2014-10-23T00:00:00,1,1610612766,CHA,Charlotte,3-5,18,17,21,23,0,0,0,0,0,0,0,0,0,0,79,0.37,0.808,0.222,18,34,10,0011400107,1610612754,IND,Indiana,C.J. Watson,,DNP - Coach's Decision                  ,,,,,,,,,,,,,
0011400107,1610612754,IND,Indiana,2561,David West,,DND - Sprained Right Ankle              ,,,,,,,0.0,,,,,,,0.0,,,2014-10-23T00:00:00,1,1610612754,IND,Indiana,3-4,28,26,16,18,0,0,0,0,0,0,0,0,0,0,88,0.451,0.704,0.417,21,46,18,0011400107,1610612754,IND,Indiana,David West,,DND - Sprained Right Ankle              ,,,,,,,,,,,,,
0011400107,1610612754,IND,Indiana,2561,David West,,DND - Sprained Right Ankle              ,,,,,,,0.0,,,,,,,0.0,,,2014-10-23T00:00:00,1,1610612766,CHA,Charlotte,3-5,18,17,21,23,0,0,0,0,0,0,0,0,0,0,79,0.37,0.808,0.222,18,34,10,0011400107,1610612754,IND,Indiana,David West,,DND - Sprained Right Ankle              ,,,,,,,,,,,,,
0011400107,1610612754,IND,Indiana,203963,Shayne Whittington,,DNP - Coach's Decision                  ,,,,,,,0.0,,,,,,,0.0,,,2014-10-23T00:00:00,1,1610612754,IND,Indiana,3-4,28,26,16,18,0,0,0,0,0,0,0,0,0,0,88,0.451,0.704,0.417,21,46,18,0011400107,1610612754,IND,Indiana,Shayne Whittington,,DNP - Coach's Decision                  ,,,,,,,,,,,,,
0011400107,1610612754,IND,Indiana,203963,Shayne Whittington,,DNP - Coach's Decision                  ,,,,,,,0.0,,,,,,,0.0,,,2014-10-23T00:00:00,1,1610612766,CHA,Charlotte,3-5,18,17,21,23,0,0,0,0,0,0,0,0,0,0,79,0.37,0.808,0.222,18,34,10,0011400107,1610612754,IND,Indiana,Shayne Whittington,,DNP - Coach's Decision                  ,,,,,,,,,,,,,
0011400107,1610612766,CHA,Charlotte,203077,Michael Kidd-Gilchrist,F,,35:36,88.5,96.2,-7.7,0.063,1.0,7.9,0.0,0.233,0.121,7.9,0.625,0.611,0.172,91.28,0.126,2014-10-23T00:00:00,1,1610612754,IND,Indiana,3-4,28,26,16,18,0,0,0,0,0,0,0,0,0,0,88,0.451,0.704,0.417,21,46,18,0011400107,1610612766,CHA,Charlotte,Michael Kidd-Gilchrist,F,,35:36,0.0,0.0,4.0,8.0,6.0,7.0,4.0,22.0,0.0,1.0,2.0,4.0
0011400107,1610612766,CHA,Charlotte,203077,Michael Kidd-Gilchrist,F,,35:36,88.5,96.2,-7.7,0.063,1.0,7.9,0.0,0.233,0.121,7.9,0.625,0.611,0.172,91.28,0.126,2014-10-23T00:00:00,1,1610612766,CHA,Charlotte,3-5,18,17,21,23,0,0,0,0,0,0,0,0,0,0,79,0.37,0.808,0.222,18,34,10,0011400107,1610612766,CHA,Charlotte,Michael Kidd-Gilchrist,F,,35:36,0.0,0.0,4.0,8.0,6.0,7.0,4.0,22.0,0.0,1.0,2.0,4.0
0011400107,1610612766,CHA,Charlotte,101107,Marvin Williams,F,,26:30,87.1,96.5,-9.4,0.118,2.0,28.6,0.0,0.182,0.093,14.3,0.25,0.25,0.099,90.78,0.033,2014-10-23T00:00:00,1,1610612754,IND,Indiana,3-4,28,26,16,18,0,0,0,0,0,0,0,0,0,0,88,0.451,0.704,0.417,21,46,18,0011400107,1610612766,CHA,Charlotte,Marvin Williams,F,,26:30,0.0,0.0,0.0,0.0,4.0,7.0,2.0,16.0,1.0,0.0,4.0,1.0
0011400107,1610612766,CHA,Charlotte,101107,Marvin Williams,F,,26:30,87.1,96.5,-9.4,0.118,2.0,28.6,0.0,0.182,0.093,14.3,0.25,0.25,0.099,90.78,0.033,2014-10-23T00:00:00,1,1610612766,CHA,Charlotte,3-5,18,17,21,23,0,0,0,0,0,0,0,0,0,0,79,0.37,0.808,0.222,18,34,10,0011400107,1610612766,CHA,Charlotte,Marvin Williams,F,,26:30,0.0,0.0,0.0,0.0,4.0,7.0,2.0,16.0,1.0,0.0,4.0,1.0
0011400107,1610612766,CHA,Charlotte,2744,Al Jefferson,C,,35:18,91.1,97.8,-6.7,0.0,0.0,0.0,0.0,0.25,0.123,0.0,0.375,0.422,0.257,91.46,0.12,2014-10-23T00:00:00,1,1610612754,IND,Indiana,3-4,28,26,16,18,0,0,0,0,0,0,0,0,0,0,88,0.451,0.704,0.417,21,46,18,0011400107,1610612766,CHA,Charlotte,Al Jefferson,C,,35:18,2.0,0.0,0.0,6.0,6.0,7.0,4.0,22.0,6.0,0.0,2.0,3.0
0011400107,1610612766,CHA,Charlotte,2744,Al Jefferson,C,,35:18,91.1,97.8,-6.7,0.0,0.0,0.0,0.0,0.25,0.123,0.0,0.375,0.422,0.257,91.46,0.12,2014-10-23T00:00:00,1,1610612766,CHA,Charlotte,3-5,18,17,21,23,0,0,0,0,0,0,0,0,0,0,79,0.37,0.808,0.222,18,34,10,0011400107,1610612766,CHA,Charlotte,Al Jefferson,C,,35:18,2.0,0.0,0.0,6.0,6.0,7.0,4.0,22.0,6.0,0.0,2.0,3.0
0011400107,1610612766,CHA,Charlotte,202390,Gary Neal,G,,28:26,94.4,96.9,-2.6,0.353,3.0,28.9,0.0,0.15,0.075,9.6,0.091,0.235,0.273,90.89,0.0,2014-10-23T00:00:00,1,1610612754,IND,Indiana,3-4,28,26,16,18,0,0,0,0,0,0,0,0,0,0,88,0.451,0.704,0.417,21,46,18,0011400107,1610612766,CHA,Charlotte,Gary Neal,G,,28:26,0.0,0.0,0.0,0.0,4.0,5.0,2.0,18.0,0.0,2.0,3.0,3.0
0011400107,1610612766,CHA,Charlotte,202390,Gary Neal,G,,28:26,94.4,96.9,-2.6,0.353,3.0,28.9,0.0,0.15,0.075,9.6,0.091,0.235,0.273,90.89,0.0,2014-10-23T00:00:00,1,1610612766,CHA,Charlotte,3-5,18,17,21,23,0,0,0,0,0,0,0,0,0,0,79,0.37,0.808,0.222,18,34,10,0011400107,1610612766,CHA,Charlotte,Gary Neal,G,,28:26,0.0,0.0,0.0,0.0,4.0,5.0,2.0,18.0,0.0,2.0,3.0,3.0
0011400107,1610612766,CHA,Charlotte,203148,Brian Roberts,G,,41:14,86.6,94.5,-7.9,0.294,2.5,22.9,0.0,0.0,0.0,9.1,0.607,0.638,0.209,92.57,0.143,2014-10-23T00:00:00,1,1610612754,IND,Indiana,3-4,28,26,16,18,0,0,0,0,0,0,0,0,0,0,88,0.451,0.704,0.417,21,46,18,0011400107,1610612766,CHA,Charlotte,Brian Roberts,G,,41:14,4.0,0.0,5.0,6.0,6.0,7.0,4.0,28.0,0.0,0.0,0.0,4.0
0011400107,1610612766,CHA,Charlotte,203148,Brian Roberts,G,,41:14,86.6,94.5,-7.9,0.294,2.5,22.9,0.0,0.0,0.0,9.1,0.607,0.638,0.209,92.57,0.143,2014-10-23T00:00:00,1,1610612766,CHA,Charlotte,3-5,18,17,21,23,0,0,0,0,0,0,0,0,0,0,79,0.37,0.808,0.222,18,34,10,0011400107,1610612766,CHA,Charlotte,Brian Roberts,G,,41:14,4.0,0.0,5.0,6.0,6.0,7.0,4.0,28.0,0.0,0.0,0.0,4.0
0011400107,1610612766,CHA,Charlotte,203469,Cody Zeller,,,21:30,81.5,92.7,-11.1,0.0,0.0,0.0,0.0,0.176,0.081,20.5,0.333,0.515,0.106,96.09,0.04,2014-10-23T00:00:00,1,1610612754,IND,Indiana,3-4,28,26,16,18,0,0,0,0,0,0,0,0,0,0,88,0.451,0.704,0.417,21,46,18,0011400107,1610612766,CHA,Charlotte,Cody Zeller,,,21:30,0.0,0.0,0.0,0.0,7.0,2.0,4.0,16.0,0.0,1.0,2.0,1.0
0011400107,1610612766,CHA,Charlotte,203469,Cody Zeller,,,21:30,81.5,92.7,-11.1,0.0,0.0,0.0,0.0,0.176,0.081,20.5,0.333,0.515,0.106,96.09,0.04,2014-10-23T00:00:00,1,1610612766,CHA,Charlotte,3-5,18,17,21,23,0,0,0,0,0,0,0,0,0,0,79,0.37,0.808,0.222,18,34,10,0011400107,1610612766,CHA,Charlotte,Cody Zeller,,,21:30,0.0,0.0,0.0,0.0,7.0,2.0,4.0,16.0,0.0,1.0,2.0,1.0
0011400107,1610612766,CHA,Charlotte,203798,PJ Hairston,,,21:24,71.0,92.8,-21.8,0.167,0.0,10.2,0.0,0.105,0.049,0.0,0.5,0.628,0.193,95.78,0.225,2014-10-23T00:00:00,1,1610612754,IND,Indiana,3-4,28,26,16,18,0,0,0,0,0,0,0,0,0,0,88,0.451,0.704,0.417,21,46,18,0011400107,1610612766,CHA,Charlotte,PJ Hairston,,,21:24,5.0,0.0,2.0,4.0,7.0,4.0,4.0,16.0,2.0,0.0,5.0,2.0
0011400107,1610612766,CHA,Charlotte,203798,PJ Hairston,,,21:24,71.0,92.8,-21.8,0.167,0.0,10.2,0.0,0.105,0.049,0.0,0.5,0.628,0.193,95.78,0.225,2014-10-23T00:00:00,1,1610612766,CHA,Charlotte,3-5,18,17,21,23,0,0,0,0,0,0,0,0,0,0,79,0.37,0.808,0.222,18,34,10,0011400107,1610612766,CHA,Charlotte,PJ Hairston,,,21:24,5.0,0.0,2.0,4.0,7.0,4.0,4.0,16.0,2.0,0.0,5.0,2.0
0011400107,1610612766,CHA,Charlotte,202687,Bismack Biyombo,,,4:40,0.0,137.0,-137.0,0.0,0.0,0.0,0.0,0.333,0.111,0.0,0.0,0.0,0.0,96.48,0.0,2014-10-23T00:00:00,1,1610612754,IND,Indiana,3-4,28,26,16,18,0,0,0,0,0,0,0,0,0,0,88,0.451,0.704,0.417,21,46,18,0011400107,1610612766,CHA,Charlotte,Bismack Biyombo,,,4:40,0.0,0.0,0.0,0.0,5.0,2.0,2.0,6.0,0.0,0.0,1.0,1.0
0011400107,1610612766,CHA,Charlotte,202687,Bismack Biyombo,,,4:40,0.0,137.0,-137.0,0.0,0.0,0.0,0.0,0.333,0.111,0.0,0.0,0.0,0.0,96.48,0.0,2014-10-23T00:00:00,1,1610612766,CHA,Charlotte,3-5,18,17,21,23,0,0,0,0,0,0,0,0,0,0,79,0.37,0.808,0.222,18,34,10,0011400107,1610612766,CHA,Charlotte,Bismack Biyombo,,,4:40,0.0,0.0,0.0,0.0,5.0,2.0,2.0,6.0,0.0,0.0,1.0,1.0
0011400107,1610612766,CHA,Charlotte,2457,Jannero Pargo,,,11:27,71.5,81.2,-9.6,0.75,3.0,25.0,0.083,0.222,0.143,8.3,0.25,0.25,0.336,98.85,0.083,2014-10-23T00:00:00,1,1610612754,IND,Indiana,3-4,28,26,16,18,0,0,0,0,0,0,0,0,0,0,88,0.451,0.704,0.417,21,46,18,0011400107,1610612766,CHA,Charlotte,Jannero Pargo,,,11:27,2.0,4.0,0.0,0.0,5.0,2.0,2.0,8.0,0.0,2.0,1.0,2.0
0011400107,1610612766,CHA,Charlotte,2457,Jannero Pargo,,,11:27,71.5,81.2,-9.6,0.75,3.0,25.0,0.083,0.222,0.143,8.3,0.25,0.25,0.336,98.85,0.083,2014-10-23T00:00:00,1,1610612766,CHA,Charlotte,3-5,18,17,21,23,0,0,0,0,0,0,0,0,0,0,79,0.37,0.808,0.222,18,34,10,0011400107,1610612766,CHA,Charlotte,Jannero Pargo,,,11:27,2.0,4.0,0.0,0.0,5.0,2.0,2.0,8.0,0.0,2.0,1.0,2.0
0011400107,1610612766,CHA,Charlotte,203965,Justin Cobbs,,,5:53,78.4,112.8,-34.5,0.0,0.0,0.0,0.143,0.0,0.091,33.3,0.5,0.5,0.203,99.05,0.037,2014-10-23T00:00:00,1,1610612754,IND,Indiana,3-4,28,26,16,18,0,0,0,0,0,0,0,0,0,0,88,0.451,0.704,0.417,21,46,18,0011400107,1610612766,CHA,Charlotte,Justin Cobbs,,,5:53,0.0,0.0,2.0,0.0,5.0,2.0,2.0,4.0,0.0,0.0,0.0,0.0
0011400107,1610612766,CHA,Charlotte,203965,Justin Cobbs,,,5:53,78.4,112.8,-34.5,0.0,0.0,0.0,0.143,0.0,0.091,33.3,0.5,0.5,0.203,99.05,0.037,2014-10-23T00:00:00,1,1610612766,CHA,Charlotte,3-5,18,17,21,23,0,0,0,0,0,0,0,0,0,0,79,0.37,0.808,0.222,18,34,10,0011400107,1610612766,CHA,Charlotte,Justin Cobbs,,,5:53,0.0,0.0,2.0,0.0,5.0,2.0,2.0,4.0,0.0,0.0,0.0,0.0
0011400107,1610612766,CHA,Charlotte,101131,Jason Maxiell,,,8:02,110.4,62.4,48.0,0.0,0.0,0.0,0.167,0.25,0.214,36.2,0.0,0.852,0.168,98.71,0.12,2014-10-23T00:00:00,1,1610612754,IND,Indiana,3-4,28,26,16,18,0,0,0,0,0,0,0,0,0,0,88,0.451,0.704,0.417,21,46,18,0011400107,1610612766,CHA,Charlotte,Jason Maxiell,,,8:02,0.0,0.0,0.0,0.0,0.0,0.0,0.0,4.0,0.0,0.0,2.0,2.0
0011400107,1610612766,CHA,Charlotte,101131,Jason Maxiell,,,8:02,110.4,62.4,48.0,0.0,0.0,0.0,0.167,0.25,0.214,36.2,0.0,0.852,0.168,98.71,0.12,2014-10-23T00:00:00,1,1610612766,CHA,Charlotte,3-5,18,17,21,23,0,0,0,0,0,0,0,0,0,0,79,0.37,0.808,0.222,18,34,10,0011400107,1610612766,CHA,Charlotte,Jason Maxiell,,,8:02,0.0,0.0,0.0,0.0,0.0,0.0,0.0,4.0,0.0,0.0,2.0,2.0
0011400107,1610612766,CHA,Charlotte,201945,Gerald Henderson,,DND - Right Hamstring Strain            ,,,,,,,0.0,,,,,,,0.0,,,2014-10-23T00:00:00,1,1610612754,IND,Indiana,3-4,28,26,16,18,0,0,0,0,0,0,0,0,0,0,88,0.451,0.704,0.417,21,46,18,0011400107,1610612766,CHA,Charlotte,Gerald Henderson,,DND - Right Hamstring Strain            ,,,,,,,,,,,,,
0011400107,1610612766,CHA,Charlotte,201945,Gerald Henderson,,DND - Right Hamstring Strain            ,,,,,,,0.0,,,,,,,0.0,,,2014-10-23T00:00:00,1,1610612766,CHA,Charlotte,3-5,18,17,21,23,0,0,0,0,0,0,0,0,0,0,79,0.37,0.808,0.222,18,34,10,0011400107,1610612766,CHA,Charlotte,Gerald Henderson,,DND - Right Hamstring Strain            ,,,,,,,,,,,,,
0011400107,1610612766,CHA,Charlotte,203193,Dallas Lauderdale,,DND - Right Ankle Tendinitis            ,,,,,,,0.0,,,,,,,0.0,,,2014-10-23T00:00:00,1,1610612754,IND,Indiana,3-4,28,26,16,18,0,0,0,0,0,0,0,0,0,0,88,0.451,0.704,0.417,21,46,18,0011400107,1610612766,CHA,Charlotte,Dallas Lauderdale,,DND - Right Ankle Tendinitis            ,,,,,,,,,,,,,
0011400107,1610612766,CHA,Charlotte,203193,Dallas Lauderdale,,DND - Right Ankle Tendinitis            ,,,,,,,0.0,,,,,,,0.0,,,2014-10-23T00:00:00,1,1610612766,CHA,Charlotte,3-5,18,17,21,23,0,0,0,0,0,0,0,0,0,0,79,0.37,0.808,0.222,18,34,10,0011400107,1610612766,CHA,Charlotte,Dallas Lauderdale,,DND - Right Ankle Tendinitis            ,,,,,,,,,,,,,
0011400107,1610612766,CHA,Charlotte,204041,Brian Qvale,,DNP - Coach's Decision                  ,,,,,,,0.0,,,,,,,0.0,,,2014-10-23T00:00:00,1,1610612754,IND,Indiana,3-4,28,26,16,18,0,0,0,0,0,0,0,0,0,0,88,0.451,0.704,0.417,21,46,18,0011400107,1610612766,CHA,Charlotte,Brian Qvale,,DNP - Coach's Decision                  ,,,,,,,,,,,,,
0011400107,1610612766,CHA,Charlotte,204041,Brian Qvale,,DNP - Coach's Decision                  ,,,,,,,0.0,,,,,,,0.0,,,2014-10-23T00:00:00,1,1610612766,CHA,Charlotte,3-5,18,17,21,23,0,0,0,0,0,0,0,0,0,0,79,0.37,0.808,0.222,18,34,10,0011400107,1610612766,CHA,Charlotte,Brian Qvale,,DNP - Coach's Decision                  ,,,,,,,,,,,,,
0011400107,1610612766,CHA,Charlotte,202362,Lance Stephenson,,DND - Right Groin Strain                ,,,,,,,0.0,,,,,,,0.0,,,2014-10-23T00:00:00,1,1610612754,IND,Indiana,3-4,28,26,16,18,0,0,0,0,0,0,0,0,0,0,88,0.451,0.704,0.417,21,46,18,0011400107,1610612766,CHA,Charlotte,Lance Stephenson,,DND - Right Groin Strain                ,,,,,,,,,,,,,
0011400107,1610612766,CHA,Charlotte,202362,Lance Stephenson,,DND - Right Groin Strain                ,,,,,,,0.0,,,,,,,0.0,,,2014-10-23T00:00:00,1,1610612766,CHA,Charlotte,3-5,18,17,21,23,0,0,0,0,0,0,0,0,0,0,79,0.37,0.808,0.222,18,34,10,0011400107,1610612766,CHA,Charlotte,Lance Stephenson,,DND - Right Groin Strain                ,,,,,,,,,,,,,
0011400107,1610612766,CHA,Charlotte,203943,Noah Vonleh,,DND - Right Ankle Sprain                ,,,,,,,0.0,,,,,,,0.0,,,2014-10-23T00:00:00,1,1610612754,IND,Indiana,3-4,28,26,16,18,0,0,0,0,0,0,0,0,0,0,88,0.451,0.704,0.417,21,46,18,0011400107,1610612766,CHA,Charlotte,Noah Vonleh,,DND - Right Ankle Sprain                ,,,,,,,,,,,,,
0011400107,1610612766,CHA,Charlotte,203943,Noah Vonleh,,DND - Right Ankle Sprain                ,,,,,,,0.0,,,,,,,0.0,,,2014-10-23T00:00:00,1,1610612766,CHA,Charlotte,3-5,18,17,21,23,0,0,0,0,0,0,0,0,0,0,79,0.37,0.808,0.222,18,34,10,0011400107,1610612766,CHA,Charlotte,Noah Vonleh,,DND - Right Ankle Sprain                ,,,,,,,,,,,,,
0011400107,1610612766,CHA,Charlotte,202689,Kemba Walker,,DND - Left Foot Soreness                ,,,,,,,0.0,,,,,,,0.0,,,2014-10-23T00:00:00,1,1610612754,IND,Indiana,3-4,28,26,16,18,0,0,0,0,0,0,0,0,0,0,88,0.451,0.704,0.417,21,46,18,0011400107,1610612766,CHA,Charlotte,Kemba Walker,,DND - Left Foot Soreness                ,,,,,,,,,,,,,
0011400107,1610612766,CHA,Charlotte,202689,Kemba Walker,,DND - Left Foot Soreness                ,,,,,,,0.0,,,,,,,0.0,,,2014-10-23T00:00:00,1,1610612766,CHA,Charlotte,3-5,18,17,21,23,0,0,0,0,0,0,0,0,0,0,79,0.37,0.808,0.222,18,34,10,0011400107,1610612766,CHA,Charlotte,Kemba Walker,,DND - Left Foot Soreness                ,,,,,,,,,,,,,
