GAME_ID_x,TEAM_ID_x,TEAM_ABBREVIATION_x,TEAM_CITY_x,PLAYER_ID,PLAYER_NAME_x,START_POSITION_x,COMMENT_x,MIN_x,OFF_RATING,DEF_RATING,NET_RATING,AST_PCT,AST_TOV,AST_RATIO,OREB_PCT,DREB_PCT,REB_PCT,TM_TOV_PCT,EFG_PCT,TS_PCT,USG_PCT,PACE,PIE,GAME_DATE_EST,GAME_SEQUENCE,TEAM_ID_y,TEAM_ABBREVIATION_y,TEAM_CITY_NAME,TEAM_WINS_LOSSES,PTS_QTR1,PTS_QTR2,PTS_QTR3,PTS_QTR4,PTS_OT1,PTS_OT2,PTS_OT3,PTS_OT4,PTS_OT5,PTS_OT6,PTS_OT7,PTS_OT8,PTS_OT9,PTS_OT10,PTS,FG_PCT,FT_PCT,FG3_PCT,AST,REB,TOV,GAME_ID_y,TEAM_ID,TEAM_ABBREVIATION,TEAM_CITY_y,PLAYER_NAME_y,START_POSITION_y,COMMENT_y,MIN_y,PTS_OFF_TOV,PTS_2ND_CHANCE,PTS_FB,PTS_PAINT,OPP_PTS_OFF_TOV,OPP_PTS_2ND_CHANCE,OPP_PTS_FB,OPP_PTS_PAINT,BLK,BLKA,PF,PFD
0011400109,1610612755,PHI,Philadelphia,203138,Hollis Thompson,F,,32:18,110.2,112.9,-2.7,0.167,3.0,23.3,0.0,0.043,0.021,7.8,0.75,0.788,0.132,98.65,0.11,2014-10-23T00:00:00,2,1610612755,PHI,Philadelphia,2-6,28,29,19,27,0,0,0,0,0,0,0,0,0,0,103,0.473,0.706,0.409,21,35,17,0011400109,1610612755,PHI,Philadelphia,Hollis Thompson,F,,32:18,2.0,0.0,0.0,2.0,13.0,6.0,5.0,22.0,0.0,1.0,2.0,1.0
0011400109,1610612755,PHI,Philadelphia,203138,Hollis Thompson,F,,32:18,110.2,112.9,-2.7,0.167,3.0,23.3,0.0,0.043,0.021,7.8,0.75,0.788,0.132,98.65,0.11,2014-10-23T00:00:00,2,1610612765,DET,Detroit,5-2,34,24,26,25,0,0,0,0,0,0,0,0,0,0,109,0.486,0.774,0.536,28,38,17,0011400109,1610612755,PHI,Philadelphia,Hollis Thompson,F,,32:18,2.0,0.0,0.0,2.0,13.0,6.0,5.0,22.0,0.0,1.0,2.0,1.0
0011400109,1610612755,PHI,Philadelphia,203457,Nerlens Noel,F,,29:44,104.4,104.3,0.1,0.063,1.0,7.3,0.143,0.208,0.178,7.3,0.3,0.34,0.19,98.2,0.071,2014-10-23T00:00:00,2,1610612755,PHI,Philadelphia,2-6,28,29,19,27,0,0,0,0,0,0,0,0,0,0,103,0.473,0.706,0.409,21,35,17,0011400109,1610612755,PHI,Philadelphia,Nerlens Noel,F,,29:44,5.0,4.0,0.0,6.0,10.0,4.0,5.0,16.0,5.0,0.0,6.0,5.0
0011400109,1610612755,PHI,Philadelphia,203457,Nerlens Noel,F,,29:44,104.4,104.3,0.1,0.063,1.0,7.3,0.143,0.208,0.178,7.3,0.3,0.34,0.19,98.2,0.071,2014-10-23T00:00:00,2,1610612765,DET,Detroit,5-2,34,24,26,25,0,0,0,0,0,0,0,0,0,0,109,0.486,0.774,0.536,28,38,17,0011400109,1610612755,PHI,Philadelphia,Nerlens Noel,F,,29:44,5.0,4.0,0.0,6.0,10.0,4.0,5.0,16.0,5.0,0.0,6.0,5.0
0011400109,1610612755,PHI,Philadelphia,203156,Henry Sims,C,,32:52,108.6,111.1,-2.6,0.059,0.25,6.0,0.04,0.0,0.02,24.0,0.667,0.73,0.206,98.4,0.074,2014-10-23T00:00:00,2,1610612755,PHI,Philadelphia,2-6,28,29,19,27,0,0,0,0,0,0,0,0,0,0,103,0.473,0.706,0.409,21,35,17,0011400109,1610612755,PHI,Philadelphia,Henry Sims,C,,32:52,0.0,2.0,2.0,10.0,13.0,6.0,5.0,22.0,0.0,0.0,3.0,4.0
0011400109,1610612755,PHI,Philadelphia,203156,Henry Sims,C,,32:52,108.6,111.1,-2.6,0.059,0.25,6.0,0.04,0.0,0.02,24.0,0.667,0.73,0.206,98.4,0.074,2014-10-23T00:00:00,2,1610612765,DET,Detroit,5-2,34,24,26,25,0,0,0,0,0,0,0,0,0,0,109,0.486,0.774,0.536,28,38,17,0011400109,1610612755,PHI,Philadelphia,Henry Sims,C,,32:52,0.0,2.0,2.0,10.0,13.0,6.0,5.0,22.0,0.0,0.0,3.0,4.0
0011400109,1610612755,PHI,Philadelphia,203187,Chris Johnson,G,,31:13,107.6,121.1,-13.6,0.1,1.0,10.7,0.0,0.167,0.08,10.7,0.462,0.508,0.233,99.61,0.078,2014-10-23T00:00:00,2,1610612755,PHI,Philadelphia,2-6,28,29,19,27,0,0,0,0,0,0,0,0,0,0,103,0.473,0.706,0.409,21,35,17,0011400109,1610612755,PHI,Philadelphia,Chris Johnson,G,,31:13,2.0,3.0,7.0,6.0,12.0,4.0,11.0,22.0,0.0,0.0,0.0,3.0
0011400109,1610612755,PHI,Philadelphia,203187,Chris Johnson,G,,31:13,107.6,121.1,-13.6,0.1,1.0,10.7,0.0,0.167,0.08,10.7,0.462,0.508,0.233,99.61,0.078,2014-10-23T00:00:00,2,1610612765,DET,Detroit,5-2,34,24,26,25,0,0,0,0,0,0,0,0,0,0,109,0.486,0.774,0.536,28,38,17,0011400109,1610612755,PHI,Philadelphia,Chris Johnson,G,,31:13,2.0,3.0,7.0,6.0,12.0,4.0,11.0,22.0,0.0,0.0,0.0,3.0
0011400109,1610612755,PHI,Philadelphia,203100,Tony Wroten,G,,25:25,104.5,125.4,-20.9,0.313,2.5,31.6,0.05,0.389,0.211,12.6,0.75,0.622,0.198,97.75,0.119,2014-10-23T00:00:00,2,1610612755,PHI,Philadelphia,2-6,28,29,19,27,0,0,0,0,0,0,0,0,0,0,103,0.473,0.706,0.409,21,35,17,0011400109,1610612755,PHI,Philadelphia,Tony Wroten,G,,25:25,3.0,0.0,1.0,0.0,12.0,4.0,9.0,22.0,0.0,0.0,2.0,7.0
0011400109,1610612755,PHI,Philadelphia,203100,Tony Wroten,G,,25:25,104.5,125.4,-20.9,0.313,2.5,31.6,0.05,0.389,0.211,12.6,0.75,0.622,0.198,97.75,0.119,2014-10-23T00:00:00,2,1610612765,DET,Detroit,5-2,34,24,26,25,0,0,0,0,0,0,0,0,0,0,109,0.486,0.774,0.536,28,38,17,0011400109,1610612755,PHI,Philadelphia,Tony Wroten,G,,25:25,3.0,0.0,1.0,0.0,12.0,4.0,9.0,22.0,0.0,0.0,2.0,7.0
0011400109,1610612755,PHI,Philadelphia,203561,Brandon Davies,,,19:49,106.1,133.2,-27.1,0.133,1.0,20.0,0.167,0.083,0.133,20.0,0.333,0.333,0.192,91.82,0.018,2014-10-23T00:00:00,2,1610612755,PHI,Philadelphia,2-6,28,29,19,27,0,0,0,0,0,0,0,0,0,0,103,0.473,0.706,0.409,21,35,17,0011400109,1610612755,PHI,Philadelphia,Brandon Davies,,,19:49,0.0,2.0,0.0,4.0,6.0,4.0,6.0,16.0,0.0,0.0,1.0,1.0
0011400109,1610612755,PHI,Philadelphia,203561,Brandon Davies,,,19:49,106.1,133.2,-27.1,0.133,1.0,20.0,0.167,0.083,0.133,20.0,0.333,0.333,0.192,91.82,0.018,2014-10-23T00:00:00,2,1610612765,DET,Detroit,5-2,34,24,26,25,0,0,0,0,0,0,0,0,0,0,109,0.486,0.774,0.536,28,38,17,0011400109,1610612755,PHI,Philadelphia,Brandon Davies,,,19:49,0.0,2.0,0.0,4.0,6.0,4.0,6.0,16.0,0.0,0.0,1.0,1.0
0011400109,1610612755,PHI,Philadelphia,203960,JaKarr Sampson,,,15:42,97.0,120.2,-23.2,0.1,0.5,12.5,0.0,0.083,0.04,25.0,0.4,0.4,0.227,89.95,0.0,2014-10-23T00:00:00,2,1610612755,PHI,Philadelphia,2-6,28,29,19,27,0,0,0,0,0,0,0,0,0,0,103,0.473,0.706,0.409,21,35,17,0011400109,1610612755,PHI,Philadelphia,JaKarr Sampson,,,15:42,2.0,2.0,0.0,4.0,3.0,2.0,6.0,8.0,0.0,0.0,3.0,1.0
0011400109,1610612755,PHI,Philadelphia,203960,JaKarr Sampson,,,15:42,97.0,120.2,-23.2,0.1,0.5,12.5,0.0,0.083,0.04,25.0,0.4,0.4,0.227,89.95,0.0,2014-10-23T00:00:00,2,1610612765,DET,Detroit,5-2,34,24,26,25,0,0,0,0,0,0,0,0,0,0,109,0.486,0.774,0.536,28,38,17,0011400109,1610612755,PHI,Philadelphia,JaKarr Sampson,,,15:42,2.0,2.0,0.0,4.0,3.0,2.0,6.0,8.0,0.0,0.0,3.0,1.0
0011400109,1610612755,PHI,Philadelphia,204079,Drew Gordon,,,4:52,135.1,148.3,-13.2,0.0,0.0,0.0,0.0,0.25,0.143,0.0,0.667,0.667,0.304,90.35,0.151,2014-10-23T00:00:00,2,1610612755,PHI,Philadelphia,2-6,28,29,19,27,0,0,0,0,0,0,0,0,0,0,103,0.473,0.706,0.409,21,35,17,0011400109,1610612755,PHI,Philadelphia,Drew Gordon,,,4:52,0.0,0.0,0.0,4.0,0.0,2.0,2.0,4.0,0.0,0.0,0.0,0.0
0011400109,1610612755,PHI,Philadelphia,204079,Drew Gordon,,,4:52,135.1,148.3,-13.2,0.0,0.0,0.0,0.0,0.25,0.143,0.0,0.667,0.667,0.304,90.35,0.151,2014-10-23T00:00:00,2,1610612765,DET,Detroit,5-2,34,24,26,25,0,0,0,0,0,0,0,0,0,0,109,0.486,0.774,0.536,28,38,17,0011400109,1610612755,PHI,Philadelphia,Drew Gordon,,,4:52,0.0,0.0,0.0,4.0,0.0,2.0,2.0,4.0,0.0,0.0,0.0,0.0
0011400109,1610612755,PHI,Philadelphia,203144,Alexey Shved,,,22:35,108.2,102.8,5.4,0.231,1.5,17.9,0.056,0.118,0.086,11.9,0.5,0.595,0.268,93.61,0.172,2014-10-23T00:00:00,2,1610612755,PHI,Philadelphia,2-6,28,29,19,27,0,0,0,0,0,0,0,0,0,0,103,0.473,0.706,0.409,21,35,17,0011400109,1610612755,PHI,Philadelphia,Alexey Shved,,,22:35,0.0,0.0,0.0,0.0,4.0,4.0,2.0,8.0,1.0,1.0,2.0,3.0
0011400109,1610612755,PHI,Philadelphia,203144,Alexey Shved,,,22:35,108.2,102.8,5.4,0.231,1.5,17.9,0.056,0.118,0.086,11.9,0.5,0.595,0.268,93.61,0.172,2014-10-23T00:00:00,2,1610612765,DET,Detroit,5-2,34,24,26,25,0,0,0,0,0,0,0,0,0,0,109,0.486,0.774,0.536,28,38,17,0011400109,1610612755,PHI,Philadelphia,Alexey Shved,,,22:35,0.0,0.0,0.0,0.0,4.0,4.0,2.0,8.0,1.0,1.0,2.0,3.0
0011400109,1610612755,PHI,Philadelphia,202343,Elliot Williams,,,16:47,103.4,103.0,0.4,0.429,3.0,32.2,0.0,0.182,0.087,10.7,0.875,0.94,0.186,88.72,0.224,2014-10-23T00:00:00,2,1610612755,PHI,Philadelphia,2-6,28,29,19,27,0,0,0,0,0,0,0,0,0,0,103,0.473,0.706,0.409,21,35,17,0011400109,1610612755,PHI,Philadelphia,Elliot Williams,,,16:47,6.0,2.0,3.0,4.0,4.0,4.0,0.0,8.0,0.0,0.0,2.0,1.0
0011400109,1610612755,PHI,Philadelphia,202343,Elliot Williams,,,16:47,103.4,103.0,0.4,0.429,3.0,32.2,0.0,0.182,0.087,10.7,0.875,0.94,0.186,88.72,0.224,2014-10-23T00:00:00,2,1610612765,DET,Detroit,5-2,34,24,26,25,0,0,0,0,0,0,0,0,0,0,109,0.486,0.774,0.536,28,38,17,0011400109,1610612755,PHI,Philadelphia,Elliot Williams,,,16:47,6.0,2.0,3.0,4.0,4.0,4.0,0.0,8.0,0.0,0.0,2.0,1.0
0011400109,1610612755,PHI,Philadelphia,204040,Ronald Roberts Jr.,,,8:43,87.5,108.2,-20.7,0.0,0.0,0.0,0.0,0.4,0.143,0.0,0.5,0.5,0.118,89.87,0.095,2014-10-23T00:00:00,2,1610612755,PHI,Philadelphia,2-6,28,29,19,27,0,0,0,0,0,0,0,0,0,0,103,0.473,0.706,0.409,21,35,17,0011400109,1610612755,PHI,Philadelphia,Ronald Roberts Jr.,,,8:43,0.0,0.0,2.0,2.0,3.0,0.0,4.0,2.0,0.0,1.0,0.0,0.0
0011400109,1610612755,PHI,Philadelphia,204040,Ronald Roberts Jr.,,,8:43,87.5,108.2,-20.7,0.0,0.0,0.0,0.0,0.4,0.143,0.0,0.5,0.5,0.118,89.87,0.095,2014-10-23T00:00:00,2,1610612765,DET,Detroit,5-2,34,24,26,25,0,0,0,0,0,0,0,0,0,0,109,0.486,0.774,0.536,28,38,17,0011400109,1610612755,PHI,Philadelphia,Ronald Roberts Jr.,,,8:43,0.0,0.0,2.0,2.0,3.0,0.0,4.0,2.0,0.0,1.0,0.0,0.0
0011400109,1610612755,PHI,Philadelphia,203487,Michael Carter-Williams,,DND - RIGHT SHOULDER INJURY             ,,,,,,,0.0,,,,,,,0.0,,,2014-10-23T00:00:00,2,1610612755,PHI,Philadelphia,2-6,28,29,19,27,0,0,0,0,0,0,0,0,0,0,103,0.473,0.706,0.409,21,35,17,0011400109,1610612755,PHI,Philadelphia,Michael Carter-Williams,,DND - RIGHT SHOULDER INJURY             ,,,,,,,,,,,,,
0011400109,1610612755,PHI,Philadelphia,203487,Michael Carter-Williams,,DND - RIGHT SHOULDER INJURY             ,,,,,,,0.0,,,,,,,0.0,,,2014-10-23T00:00:00,2,1610612765,DET,Detroit,5-2,34,24,26,25,0,0,0,0,0,0,0,0,0,0,109,0.486,0.774,0.536,28,38,17,0011400109,1610612755,PHI,Philadelphia,Michael Carter-Williams,,DND - RIGHT SHOULDER INJURY             ,,,,,,,,,,,,,
0011400109,1610612755,PHI,Philadelphia,203954,Joel Embiid,,NWT - RIGHT FOOT INJUJRY / PERSONAL REAS,,,,,,,0.0,,,,,,,0.0,,,2014-10-23T00:00:00,2,1610612755,PHI,Philadelphia,2-6,28,29,19,27,0,0,0,0,0,0,0,0,0,0,103,0.473,0.706,0.409,21,35,17,0011400109,1610612755,PHI,Philadelphia,Joel Embiid,,NWT - RIGHT FOOT INJUJRY / PERSONAL REAS,,,,,,,,,,,,,
0011400109,1610612755,PHI,Philadelphia,203954,Joel Embiid,,NWT - RIGHT FOOT INJUJRY / PERSONAL REAS,,,,,,,0.0,,,,,,,0.0,,,2014-10-23T00:00:00,2,1610612765,DET,Detroit,5-2,34,24,26,25,0,0,0,0,0,0,0,0,0,0,109,0.486,0.774,0.536,28,38,17,0011400109,1610612755,PHI,Philadelphia,Joel Embiid,,NWT - RIGHT FOOT INJUJRY / PERSONAL REAS,,,,,,,,,,,,,
0011400109,1610612755,PHI,Philadelphia,203924,Jerami Grant,,DND - RIGHT ANKLE SPRAIN                ,,,,,,,0.0,,,,,,,0.0,,,2014-10-23T00:00:00,2,1610612755,PHI,Philadelphia,2-6,28,29,19,27,0,0,0,0,0,0,0,0,0,0,103,0.473,0.706,0.409,21,35,17,0011400109,1610612755,PHI,Philadelphia,Jerami Grant,,DND - RIGHT ANKLE SPRAIN                ,,,,,,,,,,,,,
0011400109,1610612755,PHI,Philadelphia,203924,Jerami Grant,,DND - RIGHT ANKLE SPRAIN                ,,,,,,,0.0,,,,,,,0.0,,,2014-10-23T00:00:00,2,1610612765,DET,Detroit,5-2,34,24,26,25,0,0,0,0,0,0,0,0,0,0,109,0.486,0.774,0.536,28,38,17,0011400109,1610612755,PHI,Philadelphia,Jerami Grant,,DND - RIGHT ANKLE SPRAIN                ,,,,,,,,,,,,,
0011400109,1610612755,PHI,Philadelphia,202723,Malcolm Lee,,DNP - Coach's Decision                  ,,,,,,,0.0,,,,,,,0.0,,,2014-10-23T00:00:00,2,1610612755,PHI,Philadelphia,2-6,28,29,19,27,0,0,0,0,0,0,0,0,0,0,103,0.473,0.706,0.409,21,35,17,0011400109,1610612755,PHI,Philadelphia,Malcolm Lee,,DNP - Coach's Decision                  ,,,,,,,,,,,,,
0011400109,1610612755,PHI,Philadelphia,202723,Malcolm Lee,,DNP - Coach's Decision                  ,,,,,,,0.0,,,,,,,0.0,,,2014-10-23T00:00:00,2,1610612765,DET,Detroit,5-2,34,24,26,25,0,0,0,0,0,0,0,0,0,0,109,0.486,0.774,0.536,28,38,17,0011400109,1610612755,PHI,Philadelphia,Malcolm Lee,,DNP - Coach's Decision                  ,,,,,,,,,,,,,
0011400109,1610612755,PHI,Philadelphia,201601,Luc Mbah a Moute,,NWT - LOW BACK STRAIN / PERSONAL REASONS,,,,,,,0.0,,,,,,,0.0,,,2014-10-23T00:00:00,2,1610612755,PHI,Philadelphia,2-6,28,29,19,27,0,0,0,0,0,0,0,0,0,0,103,0.473,0.706,0.409,21,35,17,0011400109,1610612755,PHI,Philadelphia,Luc Mbah a Moute,,NWT - LOW BACK STRAIN / PERSONAL REASONS,,,,,,,,,,,,,
0011400109,1610612755,PHI,Philadelphia,201601,Luc Mbah a Moute,,NWT - LOW BACK STRAIN / PERSONAL REASONS,,,,,,,0.0,,,,,,,0.0,,,2014-10-23T00:00:00,2,1610612765,DET,Detroit,5-2,34,24,26,25,0,0,0,0,0,0,0,0,0,0,109,0.486,0.774,0.536,28,38,17,0011400109,1610612755,PHI,Philadelphia,Luc Mbah a Moute,,NWT - LOW BACK STRAIN / PERSONAL REASONS,,,,,,,,,,,,,
0011400109,1610612755,PHI,Philadelphia,203909,KJ McDaniels,,DNP - Coach's Decision                  ,,,,,,,0.0,,,,,,,0.0,,,2014-10-23T00:00:00,2,1610612755,PHI,Philadelphia,2-6,28,29,19,27,0,0,0,0,0,0,0,0,0,0,103,0.473,0.706,0.409,21,35,17,0011400109,1610612755,PHI,Philadelphia,KJ McDaniels,,DNP - Coach's Decision                  ,,,,,,,,,,,,,
0011400109,1610612755,PHI,Philadelphia,203909,KJ McDaniels,,DNP - Coach's Decision                  ,,,,,,,0.0,,,,,,,0.0,,,2014-10-23T00:00:00,2,1610612765,DET,Detroit,5-2,34,24,26,25,0,0,0,0,0,0,0,0,0,0,109,0.486,0.774,0.536,28,38,17,0011400109,1610612755,PHI,Philadelphia,KJ McDaniels,,DNP - Coach's Decision                  ,,,,,,,,,,,,,
0011400109,1610612755,PHI,Philadelphia,203102,Arnett Moultrie,,DNP - Coach's Decision                  ,,,,,,,0.0,,,,,,,0.0,,,2014-10-23T00:00:00,2,1610612755,PHI,Philadelphia,2-6,28,29,19,27,0,0,0,0,0,0,0,0,0,0,103,0.473,0.706,0.409,21,35,17,0011400109,1610612755,PHI,Philadelphia,Arnett Moultrie,,DNP - Coach's Decision                  ,,,,,,,,,,,,,
0011400109,1610612755,PHI,Philadelphia,203102,Arnett Moultrie,,DNP - Coach's Decision                  ,,,,,,,0.0,,,,,,,0.0,,,2014-10-23T00:00:00,2,1610612765,DET,Detroit,5-2,34,24,26,25,0,0,0,0,0,0,0,0,0,0,109,0.486,0.774,0.536,28,38,17,0011400109,1610612755,PHI,Philadelphia,Arnett Moultrie,,DNP - Coach's Decision                  ,,,,,,,,,,,,,
0011400109,1610612755,PHI,Philadelphia,2202,Jason Richardson,,NWT - LEFT KNEE INJURY                  ,,,,,,,0.0,,,,,,,0.0,,,2014-10-23T00:00:00,2,1610612755,PHI,Philadelphia,2-6,28,29,19,27,0,0,0,0,0,0,0,0,0,0,103,0.473,0.706,0.409,21,35,17,0011400109,1610612755,PHI,Philadelphia,Jason Richardson,,NWT - LEFT KNEE INJURY                  ,,,,,,,,,,,,,
0011400109,1610612755,PHI,Philadelphia,2202,Jason Richardson,,NWT - LEFT KNEE INJURY                  ,,,,,,,0.0,,,,,,,0.0,,,2014-10-23T00:00:00,2,1610612765,DET,Detroit,5-2,34,24,26,25,0,0,0,0,0,0,0,0,0,0,109,0.486,0.774,0.536,28,38,17,0011400109,1610612755,PHI,Philadelphia,Jason Richardson,,NWT - LEFT KNEE INJURY                  ,,,,,,,,,,,,,
0011400109,1610612755,PHI,Philadelphia,203810,Casper Ware,,DNP - Coach's Decision                  ,,,,,,,0.0,,,,,,,0.0,,,2014-10-23T00:00:00,2,1610612755,PHI,Philadelphia,2-6,28,29,19,27,0,0,0,0,0,0,0,0,0,0,103,0.473,0.706,0.409,21,35,17,0011400109,1610612755,PHI,Philadelphia,Casper Ware,,DNP - Coach's Decision                  ,,,,,,,,,,,,,
0011400109,1610612755,PHI,Philadelphia,203810,Casper Ware,,DNP - Coach's Decision                  ,,,,,,,0.0,,,,,,,0.0,,,2014-10-23T00:00:00,2,1610612765,DET,Detroit,5-2,34,24,26,25,0,0,0,0,0,0,0,0,0,0,109,0.486,0.774,0.536,28,38,17,0011400109,1610612755,PHI,Philadelphia,Casper Ware,,DNP - Coach's Decision                  ,,,,,,,,,,,,,
0011400109,1610612765,DET,Detroit,201858,Cartier Martin,F,,32:00,126.6,93.7,32.9,0.0,0.0,0.0,0.04,0.037,0.038,7.8,0.65,0.723,0.177,96.84,0.145,2014-10-23T00:00:00,2,1610612755,PHI,Philadelphia,2-6,28,29,19,27,0,0,0,0,0,0,0,0,0,0,103,0.473,0.706,0.409,21,35,17,0011400109,1610612765,DET,Detroit,Cartier Martin,F,,32:00,2.0,0.0,2.0,2.0,7.0,11.0,11.0,22.0,0.0,2.0,2.0,3.0
0011400109,1610612765,DET,Detroit,201858,Cartier Martin,F,,32:00,126.6,93.7,32.9,0.0,0.0,0.0,0.04,0.037,0.038,7.8,0.65,0.723,0.177,96.84,0.145,2014-10-23T00:00:00,2,1610612765,DET,Detroit,5-2,34,24,26,25,0,0,0,0,0,0,0,0,0,0,109,0.486,0.774,0.536,28,38,17,0011400109,1610612765,DET,Detroit,Cartier Martin,F,,32:00,2.0,0.0,2.0,2.0,7.0,11.0,11.0,22.0,0.0,2.0,2.0,3.0
0011400109,1610612765,DET,Detroit,2746,Josh Smith,F,,32:59,121.7,108.8,12.9,0.35,2.33,26.3,0.125,0.25,0.192,11.3,0.464,0.511,0.271,97.89,0.126,2014-10-23T00:00:00,2,1610612755,PHI,Philadelphia,2-6,28,29,19,27,0,0,0,0,0,0,0,0,0,0,103,0.473,0.706,0.409,21,35,17,0011400109,1610612765,DET,Detroit,Josh Smith,F,,32:59,2.0,2.0,0.0,8.0,13.0,9.0,10.0,34.0,1.0,0.0,3.0,5.0
0011400109,1610612765,DET,Detroit,2746,Josh Smith,F,,32:59,121.7,108.8,12.9,0.35,2.33,26.3,0.125,0.25,0.192,11.3,0.464,0.511,0.271,97.89,0.126,2014-10-23T00:00:00,2,1610612765,DET,Detroit,5-2,34,24,26,25,0,0,0,0,0,0,0,0,0,0,109,0.486,0.774,0.536,28,38,17,0011400109,1610612765,DET,Detroit,Josh Smith,F,,32:59,2.0,2.0,0.0,8.0,13.0,9.0,10.0,34.0,1.0,0.0,3.0,5.0
0011400109,1610612765,DET,Detroit,203083,Andre Drummond,C,,29:54,110.7,101.7,9.1,0.0,0.0,0.0,0.148,0.28,0.212,30.4,0.455,0.437,0.247,96.0,0.028,2014-10-23T00:00:00,2,1610612755,PHI,Philadelphia,2-6,28,29,19,27,0,0,0,0,0,0,0,0,0,0,103,0.473,0.706,0.409,21,35,17,0011400109,1610612765,DET,Detroit,Andre Drummond,C,,29:54,2.0,4.0,4.0,10.0,11.0,11.0,13.0,28.0,0.0,4.0,4.0,2.0
0011400109,1610612765,DET,Detroit,203083,Andre Drummond,C,,29:54,110.7,101.7,9.1,0.0,0.0,0.0,0.148,0.28,0.212,30.4,0.455,0.437,0.247,96.0,0.028,2014-10-23T00:00:00,2,1610612765,DET,Detroit,5-2,34,24,26,25,0,0,0,0,0,0,0,0,0,0,109,0.486,0.774,0.536,28,38,17,0011400109,1610612765,DET,Detroit,Andre Drummond,C,,29:54,2.0,4.0,4.0,10.0,11.0,11.0,13.0,28.0,0.0,4.0,4.0,2.0
0011400109,1610612765,DET,Detroit,202713,Kyle Singler,G,,39:21,109.0,108.4,0.6,0.0,0.0,0.0,0.036,0.063,0.05,13.9,0.75,0.764,0.172,97.1,0.101,2014-10-23T00:00:00,2,1610612755,PHI,Philadelphia,2-6,28,29,19,27,0,0,0,0,0,0,0,0,0,0,103,0.473,0.706,0.409,21,35,17,0011400109,1610612765,DET,Detroit,Kyle Singler,G,,39:21,3.0,2.0,3.0,6.0,20.0,13.0,15.0,34.0,0.0,0.0,3.0,1.0
0011400109,1610612765,DET,Detroit,202713,Kyle Singler,G,,39:21,109.0,108.4,0.6,0.0,0.0,0.0,0.036,0.063,0.05,13.9,0.75,0.764,0.172,97.1,0.101,2014-10-23T00:00:00,2,1610612765,DET,Detroit,5-2,34,24,26,25,0,0,0,0,0,0,0,0,0,0,109,0.486,0.774,0.536,28,38,17,0011400109,1610612765,DET,Detroit,Kyle Singler,G,,39:21,3.0,2.0,3.0,6.0,20.0,13.0,15.0,34.0,0.0,0.0,3.0,1.0
0011400109,1610612765,DET,Detroit,201571,D.J. Augustin,G,,32:31,119.5,101.5,18.0,0.524,11.0,51.1,0.0,0.038,0.02,4.6,0.5,0.578,0.147,97.01,0.096,2014-10-23T00:00:00,2,1610612755,PHI,Philadelphia,2-6,28,29,19,27,0,0,0,0,0,0,0,0,0,0,103,0.473,0.706,0.409,21,35,17,0011400109,1610612765,DET,Detroit,D.J. Augustin,G,,32:31,2.0,0.0,0.0,0.0,11.0,11.0,15.0,26.0,0.0,0.0,5.0,5.0
0011400109,1610612765,DET,Detroit,201571,D.J. Augustin,G,,32:31,119.5,101.5,18.0,0.524,11.0,51.1,0.0,0.038,0.02,4.6,0.5,0.578,0.147,97.01,0.096,2014-10-23T00:00:00,2,1610612765,DET,Detroit,5-2,34,24,26,25,0,0,0,0,0,0,0,0,0,0,109,0.486,0.774,0.536,28,38,17,0011400109,1610612765,DET,Detroit,D.J. Augustin,G,,32:31,2.0,0.0,0.0,0.0,11.0,11.0,15.0,26.0,0.0,0.0,5.0,5.0
0011400109,1610612765,DET,Detroit,2406,Caron Butler,,,24:39,110.0,119.7,-9.8,0.154,0.0,14.2,0.0,0.471,0.235,0.0,0.667,0.745,0.236,92.38,0.234,2014-10-23T00:00:00,2,1610612755,PHI,Philadelphia,2-6,28,29,19,27,0,0,0,0,0,0,0,0,0,0,103,0.473,0.706,0.409,21,35,17,0011400109,1610612765,DET,Detroit,Caron Butler,,,24:39,3.0,0.0,0.0,0.0,13.0,6.0,4.0,28.0,0.0,0.0,1.0,3.0
0011400109,1610612765,DET,Detroit,2406,Caron Butler,,,24:39,110.0,119.7,-9.8,0.154,0.0,14.2,0.0,0.471,0.235,0.0,0.667,0.745,0.236,92.38,0.234,2014-10-23T00:00:00,2,1610612765,DET,Detroit,5-2,34,24,26,25,0,0,0,0,0,0,0,0,0,0,109,0.486,0.774,0.536,28,38,17,0011400109,1610612765,DET,Detroit,Caron Butler,,,24:39,3.0,0.0,0.0,0.0,13.0,6.0,4.0,28.0,0.0,0.0,1.0,3.0
0011400109,1610612765,DET,Detroit,203915,Spencer Dinwiddie,,,15:29,106.0,116.8,-10.9,0.6,3.0,46.6,0.0,0.0,0.0,15.5,0.75,0.82,0.214,93.25,0.128,2014-10-23T00:00:00,2,1610612755,PHI,Philadelphia,2-6,28,29,19,27,0,0,0,0,0,0,0,0,0,0,103,0.473,0.706,0.409,21,35,17,0011400109,1610612765,DET,Detroit,Spencer Dinwiddie,,,15:29,2.0,0.0,2.0,0.0,9.0,4.0,0.0,16.0,0.0,0.0,2.0,1.0
0011400109,1610612765,DET,Detroit,203915,Spencer Dinwiddie,,,15:29,106.0,116.8,-10.9,0.6,3.0,46.6,0.0,0.0,0.0,15.5,0.75,0.82,0.214,93.25,0.128,2014-10-23T00:00:00,2,1610612765,DET,Detroit,5-2,34,24,26,25,0,0,0,0,0,0,0,0,0,0,109,0.486,0.774,0.536,28,38,17,0011400109,1610612765,DET,Detroit,Spencer Dinwiddie,,,15:29,2.0,0.0,2.0,0.0,9.0,4.0,0.0,16.0,0.0,0.0,2.0,1.0
0011400109,1610612765,DET,Detroit,201202,Joel Anthony,,,18:06,122.7,113.6,9.1,0.0,0.0,0.0,0.0,0.154,0.095,34.7,1.0,1.064,0.078,95.47,0.073,2014-10-23T00:00:00,2,1610612755,PHI,Philadelphia,2-6,28,29,19,27,0,0,0,0,0,0,0,0,0,0,103,0.473,0.706,0.409,21,35,17,0011400109,1610612765,DET,Detroit,Joel Anthony,,,18:06,0.0,0.0,0.0,2.0,9.0,4.0,2.0,14.0,2.0,0.0,1.0,1.0
0011400109,1610612765,DET,Detroit,201202,Joel Anthony,,,18:06,122.7,113.6,9.1,0.0,0.0,0.0,0.0,0.154,0.095,34.7,1.0,1.064,0.078,95.47,0.073,2014-10-23T00:00:00,2,1610612765,DET,Detroit,5-2,34,24,26,25,0,0,0,0,0,0,0,0,0,0,109,0.486,0.774,0.536,28,38,17,0011400109,1610612765,DET,Detroit,Joel Anthony,,,18:06,0.0,0.0,0.0,2.0,9.0,4.0,2.0,14.0,2.0,0.0,1.0,1.0
0011400109,1610612765,DET,Detroit,201973,Jonas Jerebko,,,12:56,95.5,92.1,3.4,0.2,0.5,12.5,0.0,0.111,0.056,25.0,0.5,0.5,0.258,91.05,-0.105,2014-10-23T00:00:00,2,1610612755,PHI,Philadelphia,2-6,28,29,19,27,0,0,0,0,0,0,0,0,0,0,103,0.473,0.706,0.409,21,35,17,0011400109,1610612765,DET,Detroit,Jonas Jerebko,,,12:56,0.0,0.0,0.0,2.0,7.0,6.0,5.0,8.0,0.0,0.0,5.0,0.0
0011400109,1610612765,DET,Detroit,201973,Jonas Jerebko,,,12:56,95.5,92.1,3.4,0.2,0.5,12.5,0.0,0.111,0.056,25.0,0.5,0.5,0.258,91.05,-0.105,2014-10-23T00:00:00,2,1610612765,DET,Detroit,5-2,34,24,26,25,0,0,0,0,0,0,0,0,0,0,109,0.486,0.774,0.536,28,38,17,0011400109,1610612765,DET,Detroit,Jonas Jerebko,,,12:56,0.0,0.0,0.0,2.0,7.0,6.0,5.0,8.0,0.0,0.0,5.0,0.0
0011400109,1610612765,DET,Detroit,203502,Tony Mitchell,,,2:05,125.0,150.0,-25.0,0.5,0.0,100.0,0.0,0.0,0.0,0.0,0.0,0.0,0.0,92.16,0.071,2014-10-23T00:00:00,2,1610612755,PHI,Philadelphia,2-6,28,29,19,27,0,0,0,0,0,0,0,0,0,0,103,0.473,0.706,0.409,21,35,17,0011400109,1610612765,DET,Detroit,Tony Mitchell,,,2:05,0.0,0.0,0.0,0.0,0.0,0.0,0.0,0.0,0.0,0.0,0.0,0.0
0011400109,1610612765,DET,Detroit,203502,Tony Mitchell,,,2:05,125.0,150.0,-25.0,0.5,0.0,100.0,0.0,0.0,0.0,0.0,0.0,0.0,0.0,92.16,0.071,2014-10-23T00:00:00,2,1610612765,DET,Detroit,5-2,34,24,26,25,0,0,0,0,0,0,0,0,0,0,109,0.486,0.774,0.536,28,38,17,0011400109,1610612765,DET,Detroit,Tony Mitchell,,,2:05,0.0,0.0,0.0,0.0,0.0,0.0,0.0,0.0,0.0,0.0,0.0,0.0
0011400109,1610612765,DET,Detroit,203484,Kentavious Caldwell-Pope,,DNP - Coach's Decision                  ,,,,,,,0.0,,,,,,,0.0,,,2014-10-23T00:00:00,2,1610612755,PHI,Philadelphia,2-6,28,29,19,27,0,0,0,0,0,0,0,0,0,0,103,0.473,0.706,0.409,21,35,17,0011400109,1610612765,DET,Detroit,Kentavious Caldwell-Pope,,DNP - Coach's Decision                  ,,,,,,,,,,,,,
0011400109,1610612765,DET,Detroit,203484,Kentavious Caldwell-Pope,,DNP - Coach's Decision                  ,,,,,,,0.0,,,,,,,0.0,,,2014-10-23T00:00:00,2,1610612765,DET,Detroit,5-2,34,24,26,25,0,0,0,0,0,0,0,0,0,0,109,0.486,0.774,0.536,28,38,17,0011400109,1610612765,DET,Detroit,Kentavious Caldwell-Pope,,DNP - Coach's Decision                  ,,,,,,,,,,,,,
0011400109,1610612765,DET,Detroit,203540,Gigi Datome,,DNP - Coach's Decision                  ,,,,,,,0.0,,,,,,,0.0,,,2014-10-23T00:00:00,2,1610612755,PHI,Philadelphia,2-6,28,29,19,27,0,0,0,0,0,0,0,0,0,0,103,0.473,0.706,0.409,21,35,17,0011400109,1610612765,DET,Detroit,Gigi Datome,,DNP - Coach's Decision                  ,,,,,,,,,,,,,
0011400109,1610612765,DET,Detroit,203540,Gigi Datome,,DNP - Coach's Decision                  ,,,,,,,0.0,,,,,,,0.0,,,2014-10-23T00:00:00,2,1610612765,DET,Detroit,5-2,34,24,26,25,0,0,0,0,0,0,0,0,0,0,109,0.486,0.774,0.536,28,38,17,0011400109,1610612765,DET,Detroit,Gigi Datome,,DNP - Coach's Decision                  ,,,,,,,,,,,,,
0011400109,1610612765,DET,Detroit,201189,Aaron Gray,,DND - CARDIAC EPISODE                   ,,,,,,,0.0,,,,,,,0.0,,,2014-10-23T00:00:00,2,1610612755,PHI,Philadelphia,2-6,28,29,19,27,0,0,0,0,0,0,0,0,0,0,103,0.473,0.706,0.409,21,35,17,0011400109,1610612765,DET,Detroit,Aaron Gray,,DND - CARDIAC EPISODE                   ,,,,,,,,,,,,,
0011400109,1610612765,DET,Detroit,201189,Aaron Gray,,DND - CARDIAC EPISODE                   ,,,,,,,0.0,,,,,,,0.0,,,2014-10-23T00:00:00,2,1610612765,DET,Detroit,5-2,34,24,26,25,0,0,0,0,0,0,0,0,0,0,109,0.486,0.774,0.536,28,38,17,0011400109,1610612765,DET,Detroit,Aaron Gray,,DND - CARDIAC EPISODE                   ,,,,,,,,,,,,,
0011400109,1610612765,DET,Detroit,201943,Brandon Jennings,,DND - SORE LEFT ACHILLES                ,,,,,,,0.0,,,,,,,0.0,,,2014-10-23T00:00:00,2,1610612755,PHI,Philadelphia,2-6,28,29,19,27,0,0,0,0,0,0,0,0,0,0,103,0.473,0.706,0.409,21,35,17,0011400109,1610612765,DET,Detroit,Brandon Jennings,,DND - SORE LEFT ACHILLES                ,,,,,,,,,,,,,
0011400109,1610612765,DET,Detroit,201943,Brandon Jennings,,DND - SORE LEFT ACHILLES                ,,,,,,,0.0,,,,,,,0.0,,,2014-10-23T00:00:00,2,1610612765,DET,Detroit,5-2,34,24,26,25,0,0,0,0,0,0,0,0,0,0,109,0.486,0.774,0.536,28,38,17,0011400109,1610612765,DET,Detroit,Brandon Jennings,,DND - SORE LEFT ACHILLES                ,,,,,,,,,,,,,
0011400109,1610612765,DET,Detroit,201975,Jodie Meeks,,"DND - STRESS REACTION, LOWER BACK       ",,,,,,,0.0,,,,,,,0.0,,,2014-10-23T00:00:00,2,1610612755,PHI,Philadelphia,2-6,28,29,19,27,0,0,0,0,0,0,0,0,0,0,103,0.473,0.706,0.409,21,35,17,0011400109,1610612765,DET,Detroit,Jodie Meeks,,"DND - STRESS REACTION, LOWER BACK       ",,,,,,,,,,,,,
0011400109,1610612765,DET,Detroit,201975,Jodie Meeks,,"DND - STRESS REACTION, LOWER BACK       ",,,,,,,0.0,,,,,,,0.0,,,2014-10-23T00:00:00,2,1610612765,DET,Detroit,5-2,34,24,26,25,0,0,0,0,0,0,0,0,0,0,109,0.486,0.774,0.536,28,38,17,0011400109,1610612765,DET,Detroit,Jodie Meeks,,"DND - STRESS REACTION, LOWER BACK       ",,,,,,,,,,,,,
0011400109,1610612765,DET,Detroit,202328,Greg Monroe,,DNP - Coach's Decision                  ,,,,,,,0.0,,,,,,,0.0,,,2014-10-23T00:00:00,2,1610612755,PHI,Philadelphia,2-6,28,29,19,27,0,0,0,0,0,0,0,0,0,0,103,0.473,0.706,0.409,21,35,17,0011400109,1610612765,DET,Detroit,Greg Monroe,,DNP - Coach's Decision                  ,,,,,,,,,,,,,
0011400109,1610612765,DET,Detroit,202328,Greg Monroe,,DNP - Coach's Decision                  ,,,,,,,0.0,,,,,,,0.0,,,2014-10-23T00:00:00,2,1610612765,DET,Detroit,5-2,34,24,26,25,0,0,0,0,0,0,0,0,0,0,109,0.486,0.774,0.536,28,38,17,0011400109,1610612765,DET,Detroit,Greg Monroe,,DNP - Coach's Decision                  ,,,,,,,,,,,,,
