GAME_ID_x,TEAM_ID_x,TEAM_ABBREVIATION_x,TEAM_CITY_x,PLAYER_ID,PLAYER_NAME_x,START_POSITION_x,COMMENT_x,MIN_x,OFF_RATING,DEF_RATING,NET_RATING,AST_PCT,AST_TOV,AST_RATIO,OREB_PCT,DREB_PCT,REB_PCT,TM_TOV_PCT,EFG_PCT,TS_PCT,USG_PCT,PACE,PIE,GAME_DATE_EST,GAME_SEQUENCE,TEAM_ID_y,TEAM_ABBREVIATION_y,TEAM_CITY_NAME,TEAM_WINS_LOSSES,PTS_QTR1,PTS_QTR2,PTS_QTR3,PTS_QTR4,PTS_OT1,PTS_OT2,PTS_OT3,PTS_OT4,PTS_OT5,PTS_OT6,PTS_OT7,PTS_OT8,PTS_OT9,PTS_OT10,PTS,FG_PCT,FT_PCT,FG3_PCT,AST,REB,TOV,GAME_ID_y,TEAM_ID,TEAM_ABBREVIATION,TEAM_CITY_y,PLAYER_NAME_y,START_POSITION_y,COMMENT_y,MIN_y,PTS_OFF_TOV,PTS_2ND_CHANCE,PTS_FB,PTS_PAINT,OPP_PTS_OFF_TOV,OPP_PTS_2ND_CHANCE,OPP_PTS_FB,OPP_PTS_PAINT,BLK,BLKA,PF,PFD
0011400116,1610612752,NYK,New York,2546,Carmelo Anthony,F,,28:17,80.9,90.5,-9.6,0.0,0.0,0.0,0.0,0.056,0.021,13.5,0.559,0.625,0.349,94.05,0.206,2014-10-24T00:00:00,2,1610612752,NYK,New York,3-4,24,22,11,23,0,0,0,0,0,0,0,0,0,0,80,0.326,0.76,0.238,17,42,11,0011400116,1610612752,NYK,New York,Carmelo Anthony,F,,28:17,4.0,10.0,0.0,2.0,6.0,6.0,12.0,22.0,0.0,0.0,3.0,5.0
0011400116,1610612752,NYK,New York,2546,Carmelo Anthony,F,,28:17,80.9,90.5,-9.6,0.0,0.0,0.0,0.0,0.056,0.021,13.5,0.559,0.625,0.349,94.05,0.206,2014-10-24T00:00:00,2,1610612761,TOR,Toronto,7-1,24,14,25,20,0,0,0,0,0,0,0,0,0,0,83,0.418,0.735,0.154,16,43,19,0011400116,1610612752,NYK,New York,Carmelo Anthony,F,,28:17,4.0,10.0,0.0,2.0,6.0,6.0,12.0,22.0,0.0,0.0,3.0,5.0
0011400116,1610612752,NYK,New York,201160,Jason Smith,F,,16:38,86.9,124.7,-37.8,0.0,0.0,0.0,0.053,0.222,0.107,33.3,0.0,0.0,0.079,89.98,-0.052,2014-10-24T00:00:00,2,1610612752,NYK,New York,3-4,24,22,11,23,0,0,0,0,0,0,0,0,0,0,80,0.326,0.76,0.238,17,42,11,0011400116,1610612752,NYK,New York,Jason Smith,F,,16:38,0.0,0.0,0.0,0.0,5.0,4.0,11.0,20.0,0.0,1.0,2.0,2.0
0011400116,1610612752,NYK,New York,201160,Jason Smith,F,,16:38,86.9,124.7,-37.8,0.0,0.0,0.0,0.053,0.222,0.107,33.3,0.0,0.0,0.079,89.98,-0.052,2014-10-24T00:00:00,2,1610612761,TOR,Toronto,7-1,24,14,25,20,0,0,0,0,0,0,0,0,0,0,83,0.418,0.735,0.154,16,43,19,0011400116,1610612752,NYK,New York,Jason Smith,F,,16:38,0.0,0.0,0.0,0.0,5.0,4.0,11.0,20.0,0.0,1.0,2.0,2.0
0011400116,1610612752,NYK,New York,2223,Samuel Dalembert,C,,18:13,96.6,104.0,-7.4,0.3,1.5,30.0,0.316,0.4,0.345,20.0,0.2,0.2,0.179,87.85,0.085,2014-10-24T00:00:00,2,1610612752,NYK,New York,3-4,24,22,11,23,0,0,0,0,0,0,0,0,0,0,80,0.326,0.76,0.238,17,42,11,0011400116,1610612752,NYK,New York,Samuel Dalembert,C,,18:13,2.0,2.0,0.0,2.0,3.0,2.0,9.0,16.0,0.0,0.0,4.0,2.0
0011400116,1610612752,NYK,New York,2223,Samuel Dalembert,C,,18:13,96.6,104.0,-7.4,0.3,1.5,30.0,0.316,0.4,0.345,20.0,0.2,0.2,0.179,87.85,0.085,2014-10-24T00:00:00,2,1610612761,TOR,Toronto,7-1,24,14,25,20,0,0,0,0,0,0,0,0,0,0,83,0.418,0.735,0.154,16,43,19,0011400116,1610612752,NYK,New York,Samuel Dalembert,C,,18:13,2.0,2.0,0.0,2.0,3.0,2.0,9.0,16.0,0.0,0.0,4.0,2.0
0011400116,1610612752,NYK,New York,202697,Iman Shumpert,G,,15:09,103.3,117.3,-14.0,0.2,2.0,20.2,0.0,0.0,0.0,10.1,0.0,0.0,0.225,87.7,-0.12,2014-10-24T00:00:00,2,1610612752,NYK,New York,3-4,24,22,11,23,0,0,0,0,0,0,0,0,0,0,80,0.326,0.76,0.238,17,42,11,0011400116,1610612752,NYK,New York,Iman Shumpert,G,,15:09,0.0,0.0,0.0,0.0,0.0,2.0,9.0,14.0,0.0,0.0,1.0,2.0
0011400116,1610612752,NYK,New York,202697,Iman Shumpert,G,,15:09,103.3,117.3,-14.0,0.2,2.0,20.2,0.0,0.0,0.0,10.1,0.0,0.0,0.225,87.7,-0.12,2014-10-24T00:00:00,2,1610612761,TOR,Toronto,7-1,24,14,25,20,0,0,0,0,0,0,0,0,0,0,83,0.418,0.735,0.154,16,43,19,0011400116,1610612752,NYK,New York,Iman Shumpert,G,,15:09,0.0,0.0,0.0,0.0,0.0,2.0,9.0,14.0,0.0,0.0,1.0,2.0
0011400116,1610612752,NYK,New York,203499,Shane Larkin,G,,20:42,69.6,107.6,-37.9,0.143,1.0,13.4,0.042,0.167,0.083,13.4,0.9,0.919,0.127,93.54,0.244,2014-10-24T00:00:00,2,1610612752,NYK,New York,3-4,24,22,11,23,0,0,0,0,0,0,0,0,0,0,80,0.326,0.76,0.238,17,42,11,0011400116,1610612752,NYK,New York,Shane Larkin,G,,20:42,3.0,0.0,3.0,6.0,7.0,4.0,12.0,28.0,0.0,0.0,3.0,2.0
0011400116,1610612752,NYK,New York,203499,Shane Larkin,G,,20:42,69.6,107.6,-37.9,0.143,1.0,13.4,0.042,0.167,0.083,13.4,0.9,0.919,0.127,93.54,0.244,2014-10-24T00:00:00,2,1610612761,TOR,Toronto,7-1,24,14,25,20,0,0,0,0,0,0,0,0,0,0,83,0.418,0.735,0.154,16,43,19,0011400116,1610612752,NYK,New York,Shane Larkin,G,,20:42,3.0,0.0,3.0,6.0,7.0,4.0,12.0,28.0,0.0,0.0,3.0,2.0
0011400116,1610612752,NYK,New York,203143,Pablo Prigioni,,,25:48,94.7,76.4,18.2,0.538,7.0,53.8,0.0,0.0,0.0,7.7,0.6,0.6,0.11,92.69,0.185,2014-10-24T00:00:00,2,1610612752,NYK,New York,3-4,24,22,11,23,0,0,0,0,0,0,0,0,0,0,80,0.326,0.76,0.238,17,42,11,0011400116,1610612752,NYK,New York,Pablo Prigioni,,,25:48,2.0,0.0,2.0,6.0,1.0,7.0,6.0,8.0,0.0,0.0,2.0,2.0
0011400116,1610612752,NYK,New York,203143,Pablo Prigioni,,,25:48,94.7,76.4,18.2,0.538,7.0,53.8,0.0,0.0,0.0,7.7,0.6,0.6,0.11,92.69,0.185,2014-10-24T00:00:00,2,1610612761,TOR,Toronto,7-1,24,14,25,20,0,0,0,0,0,0,0,0,0,0,83,0.418,0.735,0.154,16,43,19,0011400116,1610612752,NYK,New York,Pablo Prigioni,,,25:48,2.0,0.0,2.0,6.0,1.0,7.0,6.0,8.0,0.0,0.0,2.0,2.0
0011400116,1610612752,NYK,New York,203112,Quincy Acy,,,27:08,88.8,68.1,20.8,0.0,0.0,0.0,0.083,0.348,0.213,0.0,0.4,0.4,0.169,95.88,0.167,2014-10-24T00:00:00,2,1610612752,NYK,New York,3-4,24,22,11,23,0,0,0,0,0,0,0,0,0,0,80,0.326,0.76,0.238,17,42,11,0011400116,1610612752,NYK,New York,Quincy Acy,,,27:08,0.0,0.0,0.0,0.0,3.0,7.0,5.0,10.0,0.0,0.0,4.0,2.0
0011400116,1610612752,NYK,New York,203112,Quincy Acy,,,27:08,88.8,68.1,20.8,0.0,0.0,0.0,0.083,0.348,0.213,0.0,0.4,0.4,0.169,95.88,0.167,2014-10-24T00:00:00,2,1610612761,TOR,Toronto,7-1,24,14,25,20,0,0,0,0,0,0,0,0,0,0,83,0.418,0.735,0.154,16,43,19,0011400116,1610612752,NYK,New York,Quincy Acy,,,27:08,0.0,0.0,0.0,0.0,3.0,7.0,5.0,10.0,0.0,0.0,4.0,2.0
0011400116,1610612752,NYK,New York,2747,JR Smith,,,29:26,80.6,81.3,-0.7,0.067,0.0,8.3,0.036,0.12,0.075,0.0,0.091,0.091,0.172,93.64,-0.153,2014-10-24T00:00:00,2,1610612752,NYK,New York,3-4,24,22,11,23,0,0,0,0,0,0,0,0,0,0,80,0.326,0.76,0.238,17,42,11,0011400116,1610612752,NYK,New York,JR Smith,,,29:26,0.0,2.0,0.0,2.0,8.0,7.0,7.0,22.0,0.0,1.0,3.0,0.0
0011400116,1610612752,NYK,New York,2747,JR Smith,,,29:26,80.6,81.3,-0.7,0.067,0.0,8.3,0.036,0.12,0.075,0.0,0.091,0.091,0.172,93.64,-0.153,2014-10-24T00:00:00,2,1610612761,TOR,Toronto,7-1,24,14,25,20,0,0,0,0,0,0,0,0,0,0,83,0.418,0.735,0.154,16,43,19,0011400116,1610612752,NYK,New York,JR Smith,,,29:26,0.0,2.0,0.0,2.0,8.0,7.0,7.0,22.0,0.0,1.0,3.0,0.0
0011400116,1610612752,NYK,New York,2405,Amar'e Stoudemire,,,22:01,70.0,79.8,-9.8,0.0,0.0,0.0,0.043,0.278,0.146,8.7,0.429,0.523,0.229,94.71,0.289,2014-10-24T00:00:00,2,1610612752,NYK,New York,3-4,24,22,11,23,0,0,0,0,0,0,0,0,0,0,80,0.326,0.76,0.238,17,42,11,0011400116,1610612752,NYK,New York,Amar'e Stoudemire,,,22:01,8.0,3.0,0.0,6.0,3.0,9.0,5.0,18.0,0.0,0.0,2.0,4.0
0011400116,1610612752,NYK,New York,2405,Amar'e Stoudemire,,,22:01,70.0,79.8,-9.8,0.0,0.0,0.0,0.043,0.278,0.146,8.7,0.429,0.523,0.229,94.71,0.289,2014-10-24T00:00:00,2,1610612761,TOR,Toronto,7-1,24,14,25,20,0,0,0,0,0,0,0,0,0,0,83,0.418,0.735,0.154,16,43,19,0011400116,1610612752,NYK,New York,Amar'e Stoudemire,,,22:01,8.0,3.0,0.0,6.0,3.0,9.0,5.0,18.0,0.0,0.0,2.0,4.0
0011400116,1610612752,NYK,New York,203501,Tim Hardaway Jr.,,,21:46,85.8,80.3,5.5,0.182,2.0,13.1,0.087,0.0,0.049,6.5,0.273,0.365,0.255,96.9,0.127,2014-10-24T00:00:00,2,1610612752,NYK,New York,3-4,24,22,11,23,0,0,0,0,0,0,0,0,0,0,80,0.326,0.76,0.238,17,42,11,0011400116,1610612752,NYK,New York,Tim Hardaway Jr.,,,21:46,4.0,4.0,2.0,4.0,2.0,7.0,6.0,14.0,2.0,2.0,1.0,2.0
0011400116,1610612752,NYK,New York,203501,Tim Hardaway Jr.,,,21:46,85.8,80.3,5.5,0.182,2.0,13.1,0.087,0.0,0.049,6.5,0.273,0.365,0.255,96.9,0.127,2014-10-24T00:00:00,2,1610612761,TOR,Toronto,7-1,24,14,25,20,0,0,0,0,0,0,0,0,0,0,83,0.418,0.735,0.154,16,43,19,0011400116,1610612752,NYK,New York,Tim Hardaway Jr.,,,21:46,4.0,4.0,2.0,4.0,2.0,7.0,6.0,14.0,2.0,2.0,1.0,2.0
0011400116,1610612752,NYK,New York,204038,Langston Galloway,,,1:30,133.0,69.4,63.5,0.0,0.0,0.0,0.0,0.0,0.0,0.0,1.5,1.33,0.5,106.24,2.0,2014-10-24T00:00:00,2,1610612752,NYK,New York,3-4,24,22,11,23,0,0,0,0,0,0,0,0,0,0,80,0.326,0.76,0.238,17,42,11,0011400116,1610612752,NYK,New York,Langston Galloway,,,1:30,5.0,0.0,0.0,0.0,0.0,0.0,0.0,0.0,0.0,0.0,0.0,1.0
0011400116,1610612752,NYK,New York,204038,Langston Galloway,,,1:30,133.0,69.4,63.5,0.0,0.0,0.0,0.0,0.0,0.0,0.0,1.5,1.33,0.5,106.24,2.0,2014-10-24T00:00:00,2,1610612761,TOR,Toronto,7-1,24,14,25,20,0,0,0,0,0,0,0,0,0,0,83,0.418,0.735,0.154,16,43,19,0011400116,1610612752,NYK,New York,Langston Galloway,,,1:30,5.0,0.0,0.0,0.0,0.0,0.0,0.0,0.0,0.0,0.0,0.0,1.0
0011400116,1610612752,NYK,New York,203921,Cleanthony Early,,,1:22,66.7,100.0,-33.3,0.0,0.0,0.0,0.0,0.0,0.0,0.0,0.0,0.0,0.333,87.8,-0.364,2014-10-24T00:00:00,2,1610612752,NYK,New York,3-4,24,22,11,23,0,0,0,0,0,0,0,0,0,0,80,0.326,0.76,0.238,17,42,11,0011400116,1610612752,NYK,New York,Cleanthony Early,,,1:22,0.0,0.0,0.0,0.0,0.0,0.0,2.0,0.0,0.0,1.0,1.0,0.0
0011400116,1610612752,NYK,New York,203921,Cleanthony Early,,,1:22,66.7,100.0,-33.3,0.0,0.0,0.0,0.0,0.0,0.0,0.0,0.0,0.0,0.333,87.8,-0.364,2014-10-24T00:00:00,2,1610612761,TOR,Toronto,7-1,24,14,25,20,0,0,0,0,0,0,0,0,0,0,83,0.418,0.735,0.154,16,43,19,0011400116,1610612752,NYK,New York,Cleanthony Early,,,1:22,0.0,0.0,0.0,0.0,0.0,0.0,2.0,0.0,0.0,1.0,1.0,0.0
0011400116,1610612752,NYK,New York,202332,Cole Aldrich,,,12:00,86.7,86.7,0.1,0.125,0.0,12.9,0.067,0.2,0.12,0.0,0.0,0.222,0.214,99.2,0.081,2014-10-24T00:00:00,2,1610612752,NYK,New York,3-4,24,22,11,23,0,0,0,0,0,0,0,0,0,0,80,0.326,0.76,0.238,17,42,11,0011400116,1610612752,NYK,New York,Cole Aldrich,,,12:00,0.0,0.0,0.0,0.0,2.0,0.0,6.0,8.0,0.0,1.0,1.0,3.0
0011400116,1610612752,NYK,New York,202332,Cole Aldrich,,,12:00,86.7,86.7,0.1,0.125,0.0,12.9,0.067,0.2,0.12,0.0,0.0,0.222,0.214,99.2,0.081,2014-10-24T00:00:00,2,1610612761,TOR,Toronto,7-1,24,14,25,20,0,0,0,0,0,0,0,0,0,0,83,0.418,0.735,0.154,16,43,19,0011400116,1610612752,NYK,New York,Cole Aldrich,,,12:00,0.0,0.0,0.0,0.0,2.0,0.0,6.0,8.0,0.0,1.0,1.0,3.0
0011400116,1610612752,NYK,New York,2566,Travis Outlaw,,DNP - Coach's Decision                  ,,,,,,,0.0,,,,,,,0.0,,,2014-10-24T00:00:00,2,1610612752,NYK,New York,3-4,24,22,11,23,0,0,0,0,0,0,0,0,0,0,80,0.326,0.76,0.238,17,42,11,0011400116,1610612752,NYK,New York,Travis Outlaw,,DNP - Coach's Decision                  ,,,,,,,,,,,,,
0011400116,1610612752,NYK,New York,2566,Travis Outlaw,,DNP - Coach's Decision                  ,,,,,,,0.0,,,,,,,0.0,,,2014-10-24T00:00:00,2,1610612761,TOR,Toronto,7-1,24,14,25,20,0,0,0,0,0,0,0,0,0,0,83,0.418,0.735,0.154,16,43,19,0011400116,1610612752,NYK,New York,Travis Outlaw,,DNP - Coach's Decision                  ,,,,,,,,,,,,,
0011400116,1610612752,NYK,New York,204037,Travis Wear,,DNP - Coach's Decision                  ,,,,,,,0.0,,,,,,,0.0,,,2014-10-24T00:00:00,2,1610612752,NYK,New York,3-4,24,22,11,23,0,0,0,0,0,0,0,0,0,0,80,0.326,0.76,0.238,17,42,11,0011400116,1610612752,NYK,New York,Travis Wear,,DNP - Coach's Decision                  ,,,,,,,,,,,,,
0011400116,1610612752,NYK,New York,204037,Travis Wear,,DNP - Coach's Decision                  ,,,,,,,0.0,,,,,,,0.0,,,2014-10-24T00:00:00,2,1610612761,TOR,Toronto,7-1,24,14,25,20,0,0,0,0,0,0,0,0,0,0,83,0.418,0.735,0.154,16,43,19,0011400116,1610612752,NYK,New York,Travis Wear,,DNP - Coach's Decision                  ,,,,,,,,,,,,,
0011400116,1610612761,TOR,Toronto,203082,Terrence Ross,F,,30:58,103.3,84.3,18.9,0.1,2.0,21.2,0.0,0.063,0.039,10.6,0.417,0.466,0.126,89.48,0.027,2014-10-24T00:00:00,2,1610612752,NYK,New York,3-4,24,22,11,23,0,0,0,0,0,0,0,0,0,0,80,0.326,0.76,0.238,17,42,11,0011400116,1610612761,TOR,Toronto,Terrence Ross,F,,30:58,0.0,0.0,3.0,2.0,15.0,14.0,5.0,18.0,0.0,0.0,3.0,1.0
0011400116,1610612761,TOR,Toronto,203082,Terrence Ross,F,,30:58,103.3,84.3,18.9,0.1,2.0,21.2,0.0,0.063,0.039,10.6,0.417,0.466,0.126,89.48,0.027,2014-10-24T00:00:00,2,1610612761,TOR,Toronto,7-1,24,14,25,20,0,0,0,0,0,0,0,0,0,0,83,0.418,0.735,0.154,16,43,19,0011400116,1610612761,TOR,Toronto,Terrence Ross,F,,30:58,0.0,0.0,3.0,2.0,15.0,14.0,5.0,18.0,0.0,0.0,3.0,1.0
0011400116,1610612761,TOR,Toronto,101161,Amir Johnson,F,,25:59,111.3,73.3,38.0,0.0,0.0,0.0,0.067,0.125,0.106,22.5,0.667,0.581,0.182,87.27,0.065,2014-10-24T00:00:00,2,1610612752,NYK,New York,3-4,24,22,11,23,0,0,0,0,0,0,0,0,0,0,80,0.326,0.76,0.238,17,42,11,0011400116,1610612761,TOR,Toronto,Amir Johnson,F,,25:59,0.0,2.0,4.0,8.0,8.0,14.0,0.0,10.0,1.0,0.0,4.0,5.0
0011400116,1610612761,TOR,Toronto,101161,Amir Johnson,F,,25:59,111.3,73.3,38.0,0.0,0.0,0.0,0.067,0.125,0.106,22.5,0.667,0.581,0.182,87.27,0.065,2014-10-24T00:00:00,2,1610612761,TOR,Toronto,7-1,24,14,25,20,0,0,0,0,0,0,0,0,0,0,83,0.418,0.735,0.154,16,43,19,0011400116,1610612761,TOR,Toronto,Amir Johnson,F,,25:59,0.0,2.0,4.0,8.0,8.0,14.0,0.0,10.0,1.0,0.0,4.0,5.0
0011400116,1610612761,TOR,Toronto,202685,Jonas Valanciunas,C,,21:00,111.7,68.9,42.8,0.0,0.0,0.0,0.077,0.143,0.122,17.7,0.625,0.697,0.292,88.39,0.247,2014-10-24T00:00:00,2,1610612752,NYK,New York,3-4,24,22,11,23,0,0,0,0,0,0,0,0,0,0,80,0.326,0.76,0.238,17,42,11,0011400116,1610612761,TOR,Toronto,Jonas Valanciunas,C,,21:00,3.0,2.0,0.0,10.0,7.0,14.0,0.0,6.0,2.0,0.0,3.0,2.0
0011400116,1610612761,TOR,Toronto,202685,Jonas Valanciunas,C,,21:00,111.7,68.9,42.8,0.0,0.0,0.0,0.077,0.143,0.122,17.7,0.625,0.697,0.292,88.39,0.247,2014-10-24T00:00:00,2,1610612761,TOR,Toronto,7-1,24,14,25,20,0,0,0,0,0,0,0,0,0,0,83,0.418,0.735,0.154,16,43,19,0011400116,1610612761,TOR,Toronto,Jonas Valanciunas,C,,21:00,3.0,2.0,0.0,10.0,7.0,14.0,0.0,6.0,2.0,0.0,3.0,2.0
0011400116,1610612761,TOR,Toronto,201942,DeMar DeRozan,G,,28:09,99.3,77.6,21.7,0.077,0.25,5.0,0.0,0.125,0.082,19.8,0.462,0.493,0.353,88.84,0.142,2014-10-24T00:00:00,2,1610612752,NYK,New York,3-4,24,22,11,23,0,0,0,0,0,0,0,0,0,0,80,0.326,0.76,0.238,17,42,11,0011400116,1610612761,TOR,Toronto,DeMar DeRozan,G,,28:09,2.0,0.0,4.0,6.0,14.0,16.0,0.0,10.0,0.0,1.0,1.0,5.0
0011400116,1610612761,TOR,Toronto,201942,DeMar DeRozan,G,,28:09,99.3,77.6,21.7,0.077,0.25,5.0,0.0,0.125,0.082,19.8,0.462,0.493,0.353,88.84,0.142,2014-10-24T00:00:00,2,1610612761,TOR,Toronto,7-1,24,14,25,20,0,0,0,0,0,0,0,0,0,0,83,0.418,0.735,0.154,16,43,19,0011400116,1610612761,TOR,Toronto,DeMar DeRozan,G,,28:09,2.0,0.0,4.0,6.0,14.0,16.0,0.0,10.0,0.0,1.0,1.0,5.0
0011400116,1610612761,TOR,Toronto,200768,Kyle Lowry,G,,27:59,102.2,82.1,20.1,0.5,4.0,42.2,0.0,0.233,0.149,10.5,0.6,0.67,0.207,87.76,0.309,2014-10-24T00:00:00,2,1610612752,NYK,New York,3-4,24,22,11,23,0,0,0,0,0,0,0,0,0,0,80,0.326,0.76,0.238,17,42,11,0011400116,1610612761,TOR,Toronto,Kyle Lowry,G,,27:59,0.0,0.0,2.0,4.0,13.0,16.0,0.0,10.0,0.0,0.0,2.0,5.0
0011400116,1610612761,TOR,Toronto,200768,Kyle Lowry,G,,27:59,102.2,82.1,20.1,0.5,4.0,42.2,0.0,0.233,0.149,10.5,0.6,0.67,0.207,87.76,0.309,2014-10-24T00:00:00,2,1610612761,TOR,Toronto,7-1,24,14,25,20,0,0,0,0,0,0,0,0,0,0,83,0.418,0.735,0.154,16,43,19,0011400116,1610612761,TOR,Toronto,Kyle Lowry,G,,27:59,0.0,0.0,2.0,4.0,13.0,16.0,0.0,10.0,0.0,0.0,2.0,5.0
0011400116,1610612761,TOR,Toronto,201946,Tyler Hansbrough,,,17:53,92.7,99.6,-6.9,0.0,0.0,0.0,0.188,0.143,0.167,20.5,0.333,0.515,0.109,102.1,0.043,2014-10-24T00:00:00,2,1610612752,NYK,New York,3-4,24,22,11,23,0,0,0,0,0,0,0,0,0,0,80,0.326,0.76,0.238,17,42,11,0011400116,1610612761,TOR,Toronto,Tyler Hansbrough,,,17:53,0.0,0.0,2.0,0.0,10.0,3.0,7.0,14.0,1.0,0.0,3.0,1.0
0011400116,1610612761,TOR,Toronto,201946,Tyler Hansbrough,,,17:53,92.7,99.6,-6.9,0.0,0.0,0.0,0.188,0.143,0.167,20.5,0.333,0.515,0.109,102.1,0.043,2014-10-24T00:00:00,2,1610612761,TOR,Toronto,7-1,24,14,25,20,0,0,0,0,0,0,0,0,0,0,83,0.418,0.735,0.154,16,43,19,0011400116,1610612761,TOR,Toronto,Tyler Hansbrough,,,17:53,0.0,0.0,2.0,0.0,10.0,3.0,7.0,14.0,1.0,0.0,3.0,1.0
0011400116,1610612761,TOR,Toronto,201949,James Johnson,,,17:01,64.0,86.4,-22.4,0.167,0.0,33.3,0.125,0.167,0.147,0.0,0.0,0.0,0.049,99.63,-0.024,2014-10-24T00:00:00,2,1610612752,NYK,New York,3-4,24,22,11,23,0,0,0,0,0,0,0,0,0,0,80,0.326,0.76,0.238,17,42,11,0011400116,1610612761,TOR,Toronto,James Johnson,,,17:01,0.0,0.0,0.0,0.0,13.0,7.0,2.0,10.0,1.0,0.0,4.0,0.0
0011400116,1610612761,TOR,Toronto,201949,James Johnson,,,17:01,64.0,86.4,-22.4,0.167,0.0,33.3,0.125,0.167,0.147,0.0,0.0,0.0,0.049,99.63,-0.024,2014-10-24T00:00:00,2,1610612761,TOR,Toronto,7-1,24,14,25,20,0,0,0,0,0,0,0,0,0,0,83,0.418,0.735,0.154,16,43,19,0011400116,1610612761,TOR,Toronto,James Johnson,,,17:01,0.0,0.0,0.0,0.0,13.0,7.0,2.0,10.0,1.0,0.0,4.0,0.0
0011400116,1610612761,TOR,Toronto,202335,Patrick Patterson,,,24:58,65.8,95.6,-29.8,0.125,0.5,9.7,0.045,0.286,0.163,19.4,0.167,0.342,0.162,98.94,0.095,2014-10-24T00:00:00,2,1610612752,NYK,New York,3-4,24,22,11,23,0,0,0,0,0,0,0,0,0,0,80,0.326,0.76,0.238,17,42,11,0011400116,1610612761,TOR,Toronto,Patrick Patterson,,,24:58,0.0,5.0,0.0,2.0,22.0,7.0,7.0,20.0,0.0,0.0,2.0,3.0
0011400116,1610612761,TOR,Toronto,202335,Patrick Patterson,,,24:58,65.8,95.6,-29.8,0.125,0.5,9.7,0.045,0.286,0.163,19.4,0.167,0.342,0.162,98.94,0.095,2014-10-24T00:00:00,2,1610612761,TOR,Toronto,7-1,24,14,25,20,0,0,0,0,0,0,0,0,0,0,83,0.418,0.735,0.154,16,43,19,0011400116,1610612761,TOR,Toronto,Patrick Patterson,,,24:58,0.0,5.0,0.0,2.0,22.0,7.0,7.0,20.0,0.0,0.0,2.0,3.0
0011400116,1610612761,TOR,Toronto,202349,Greivis Vasquez,,,20:01,74.3,88.9,-14.6,0.125,0.33,7.0,0.0,0.1,0.053,21.1,0.188,0.392,0.275,101.48,0.015,2014-10-24T00:00:00,2,1610612752,NYK,New York,3-4,24,22,11,23,0,0,0,0,0,0,0,0,0,0,80,0.326,0.76,0.238,17,42,11,0011400116,1610612761,TOR,Toronto,Greivis Vasquez,,,20:01,2.0,0.0,2.0,0.0,15.0,5.0,7.0,18.0,1.0,1.0,2.0,3.0
0011400116,1610612761,TOR,Toronto,202349,Greivis Vasquez,,,20:01,74.3,88.9,-14.6,0.125,0.33,7.0,0.0,0.1,0.053,21.1,0.188,0.392,0.275,101.48,0.015,2014-10-24T00:00:00,2,1610612761,TOR,Toronto,7-1,24,14,25,20,0,0,0,0,0,0,0,0,0,0,83,0.418,0.735,0.154,16,43,19,0011400116,1610612761,TOR,Toronto,Greivis Vasquez,,,20:01,2.0,0.0,2.0,0.0,15.0,5.0,7.0,18.0,1.0,1.0,2.0,3.0
0011400116,1610612761,TOR,Toronto,101150,Lou Williams,,,19:51,76.9,94.8,-17.8,0.5,1.0,12.7,0.0,0.056,0.028,12.7,0.5,0.51,0.295,100.06,0.154,2014-10-24T00:00:00,2,1610612752,NYK,New York,3-4,24,22,11,23,0,0,0,0,0,0,0,0,0,0,80,0.326,0.76,0.238,17,42,11,0011400116,1610612761,TOR,Toronto,Lou Williams,,,19:51,1.0,2.0,1.0,4.0,14.0,5.0,7.0,18.0,0.0,0.0,1.0,2.0
0011400116,1610612761,TOR,Toronto,101150,Lou Williams,,,19:51,76.9,94.8,-17.8,0.5,1.0,12.7,0.0,0.056,0.028,12.7,0.5,0.51,0.295,100.06,0.154,2014-10-24T00:00:00,2,1610612761,TOR,Toronto,7-1,24,14,25,20,0,0,0,0,0,0,0,0,0,0,83,0.418,0.735,0.154,16,43,19,0011400116,1610612761,TOR,Toronto,Lou Williams,,,19:51,1.0,2.0,1.0,4.0,14.0,5.0,7.0,18.0,0.0,0.0,1.0,2.0
0011400116,1610612761,TOR,Toronto,203512,Lucas Nogueira,,,6:11,34.0,98.4,-64.3,0.0,0.0,0.0,0.0,0.0,0.0,0.0,0.0,0.0,0.0,93.0,-0.5,2014-10-24T00:00:00,2,1610612752,NYK,New York,3-4,24,22,11,23,0,0,0,0,0,0,0,0,0,0,80,0.326,0.76,0.238,17,42,11,0011400116,1610612761,TOR,Toronto,Lucas Nogueira,,,6:11,0.0,0.0,0.0,0.0,9.0,4.0,0.0,6.0,0.0,0.0,2.0,0.0
0011400116,1610612761,TOR,Toronto,203512,Lucas Nogueira,,,6:11,34.0,98.4,-64.3,0.0,0.0,0.0,0.0,0.0,0.0,0.0,0.0,0.0,0.0,93.0,-0.5,2014-10-24T00:00:00,2,1610612761,TOR,Toronto,7-1,24,14,25,20,0,0,0,0,0,0,0,0,0,0,83,0.418,0.735,0.154,16,43,19,0011400116,1610612761,TOR,Toronto,Lucas Nogueira,,,6:11,0.0,0.0,0.0,0.0,9.0,4.0,0.0,6.0,0.0,0.0,2.0,0.0
0011400116,1610612761,TOR,Toronto,203998,Bruno Caboclo,,DNP - Coach's Decision                  ,,,,,,,0.0,,,,,,,0.0,,,2014-10-24T00:00:00,2,1610612752,NYK,New York,3-4,24,22,11,23,0,0,0,0,0,0,0,0,0,0,80,0.326,0.76,0.238,17,42,11,0011400116,1610612761,TOR,Toronto,Bruno Caboclo,,DNP - Coach's Decision                  ,,,,,,,,,,,,,
0011400116,1610612761,TOR,Toronto,203998,Bruno Caboclo,,DNP - Coach's Decision                  ,,,,,,,0.0,,,,,,,0.0,,,2014-10-24T00:00:00,2,1610612761,TOR,Toronto,7-1,24,14,25,20,0,0,0,0,0,0,0,0,0,0,83,0.418,0.735,0.154,16,43,19,0011400116,1610612761,TOR,Toronto,Bruno Caboclo,,DNP - Coach's Decision                  ,,,,,,,,,,,,,
0011400116,1610612761,TOR,Toronto,203805,Will Cherry,,DNP - Coach's Decision                  ,,,,,,,0.0,,,,,,,0.0,,,2014-10-24T00:00:00,2,1610612752,NYK,New York,3-4,24,22,11,23,0,0,0,0,0,0,0,0,0,0,80,0.326,0.76,0.238,17,42,11,0011400116,1610612761,TOR,Toronto,Will Cherry,,DNP - Coach's Decision                  ,,,,,,,,,,,,,
0011400116,1610612761,TOR,Toronto,203805,Will Cherry,,DNP - Coach's Decision                  ,,,,,,,0.0,,,,,,,0.0,,,2014-10-24T00:00:00,2,1610612761,TOR,Toronto,7-1,24,14,25,20,0,0,0,0,0,0,0,0,0,0,83,0.418,0.735,0.154,16,43,19,0011400116,1610612761,TOR,Toronto,Will Cherry,,DNP - Coach's Decision                  ,,,,,,,,,,,,,
0011400116,1610612761,TOR,Toronto,202361,Landry Fields,,DNP - Coach's Decision                  ,,,,,,,0.0,,,,,,,0.0,,,2014-10-24T00:00:00,2,1610612752,NYK,New York,3-4,24,22,11,23,0,0,0,0,0,0,0,0,0,0,80,0.326,0.76,0.238,17,42,11,0011400116,1610612761,TOR,Toronto,Landry Fields,,DNP - Coach's Decision                  ,,,,,,,,,,,,,
0011400116,1610612761,TOR,Toronto,202361,Landry Fields,,DNP - Coach's Decision                  ,,,,,,,0.0,,,,,,,0.0,,,2014-10-24T00:00:00,2,1610612761,TOR,Toronto,7-1,24,14,25,20,0,0,0,0,0,0,0,0,0,0,83,0.418,0.735,0.154,16,43,19,0011400116,1610612761,TOR,Toronto,Landry Fields,,DNP - Coach's Decision                  ,,,,,,,,,,,,,
0011400116,1610612761,TOR,Toronto,202706,Jordan Hamilton,,DNP - Coach's Decision                  ,,,,,,,0.0,,,,,,,0.0,,,2014-10-24T00:00:00,2,1610612752,NYK,New York,3-4,24,22,11,23,0,0,0,0,0,0,0,0,0,0,80,0.326,0.76,0.238,17,42,11,0011400116,1610612761,TOR,Toronto,Jordan Hamilton,,DNP - Coach's Decision                  ,,,,,,,,,,,,,
0011400116,1610612761,TOR,Toronto,202706,Jordan Hamilton,,DNP - Coach's Decision                  ,,,,,,,0.0,,,,,,,0.0,,,2014-10-24T00:00:00,2,1610612761,TOR,Toronto,7-1,24,14,25,20,0,0,0,0,0,0,0,0,0,0,83,0.418,0.735,0.154,16,43,19,0011400116,1610612761,TOR,Toronto,Jordan Hamilton,,DNP - Coach's Decision                  ,,,,,,,,,,,,,
0011400116,1610612761,TOR,Toronto,101236,Chuck Hayes,,DNP - Coach's Decision                  ,,,,,,,0.0,,,,,,,0.0,,,2014-10-24T00:00:00,2,1610612752,NYK,New York,3-4,24,22,11,23,0,0,0,0,0,0,0,0,0,0,80,0.326,0.76,0.238,17,42,11,0011400116,1610612761,TOR,Toronto,Chuck Hayes,,DNP - Coach's Decision                  ,,,,,,,,,,,,,
0011400116,1610612761,TOR,Toronto,101236,Chuck Hayes,,DNP - Coach's Decision                  ,,,,,,,0.0,,,,,,,0.0,,,2014-10-24T00:00:00,2,1610612761,TOR,Toronto,7-1,24,14,25,20,0,0,0,0,0,0,0,0,0,0,83,0.418,0.735,0.154,16,43,19,0011400116,1610612761,TOR,Toronto,Chuck Hayes,,DNP - Coach's Decision                  ,,,,,,,,,,,,,
0011400116,1610612761,TOR,Toronto,201880,Greg Stiemsma,,DNP - Coach's Decision                  ,,,,,,,0.0,,,,,,,0.0,,,2014-10-24T00:00:00,2,1610612752,NYK,New York,3-4,24,22,11,23,0,0,0,0,0,0,0,0,0,0,80,0.326,0.76,0.238,17,42,11,0011400116,1610612761,TOR,Toronto,Greg Stiemsma,,DNP - Coach's Decision                  ,,,,,,,,,,,,,
0011400116,1610612761,TOR,Toronto,201880,Greg Stiemsma,,DNP - Coach's Decision                  ,,,,,,,0.0,,,,,,,0.0,,,2014-10-24T00:00:00,2,1610612761,TOR,Toronto,7-1,24,14,25,20,0,0,0,0,0,0,0,0,0,0,83,0.418,0.735,0.154,16,43,19,0011400116,1610612761,TOR,Toronto,Greg Stiemsma,,DNP - Coach's Decision                  ,,,,,,,,,,,,,
