GAME_ID_x,TEAM_ID_x,TEAM_ABBREVIATION_x,TEAM_CITY_x,PLAYER_ID,PLAYER_NAME_x,START_POSITION_x,COMMENT_x,MIN_x,OFF_RATING,DEF_RATING,NET_RATING,AST_PCT,AST_TOV,AST_RATIO,OREB_PCT,DREB_PCT,REB_PCT,TM_TOV_PCT,EFG_PCT,TS_PCT,USG_PCT,PACE,PIE,GAME_DATE_EST,GAME_SEQUENCE,TEAM_ID_y,TEAM_ABBREVIATION_y,TEAM_CITY_NAME,TEAM_WINS_LOSSES,PTS_QTR1,PTS_QTR2,PTS_QTR3,PTS_QTR4,PTS_OT1,PTS_OT2,PTS_OT3,PTS_OT4,PTS_OT5,PTS_OT6,PTS_OT7,PTS_OT8,PTS_OT9,PTS_OT10,PTS,FG_PCT,FT_PCT,FG3_PCT,AST,REB,TOV,GAME_ID_y,TEAM_ID,TEAM_ABBREVIATION,TEAM_CITY_y,PLAYER_NAME_y,START_POSITION_y,COMMENT_y,MIN_y,PTS_OFF_TOV,PTS_2ND_CHANCE,PTS_FB,PTS_PAINT,OPP_PTS_OFF_TOV,OPP_PTS_2ND_CHANCE,OPP_PTS_FB,OPP_PTS_PAINT,BLK,BLKA,PF,PFD
0011400118,1610612757,POR,Portland,201587,Nicolas Batum,F,,29:17,101.4,88.4,13.1,0.3,6.0,38.9,0.032,0.143,0.085,6.5,0.125,0.178,0.141,94.97,0.032,2014-10-24T00:00:00,9,1610612757,POR,Portland,4-3,27,27,22,23,0,0,0,0,0,0,0,0,0,0,99,0.432,0.875,0.276,24,49,16,0011400118,1610612757,POR,Portland,Nicolas Batum,F,,29:17,0.0,0.0,0.0,2.0,6.0,2.0,3.0,8.0,0.0,0.0,4.0,1.0
0011400118,1610612757,POR,Portland,201587,Nicolas Batum,F,,29:17,101.4,88.4,13.1,0.3,6.0,38.9,0.032,0.143,0.085,6.5,0.125,0.178,0.141,94.97,0.032,2014-10-24T00:00:00,9,1610612746,LAC,Los Angeles,2-6,21,25,18,25,0,0,0,0,0,0,0,0,0,0,89,0.455,0.5,0.345,24,39,16,0011400118,1610612757,POR,Portland,Nicolas Batum,F,,29:17,0.0,0.0,0.0,2.0,6.0,2.0,3.0,8.0,0.0,0.0,4.0,1.0
0011400118,1610612757,POR,Portland,2549,Chris Kaman,F,,21:16,118.7,95.8,22.9,0.167,0.0,15.0,0.095,0.389,0.231,0.0,0.5,0.574,0.23,93.71,0.23,2014-10-24T00:00:00,9,1610612757,POR,Portland,4-3,27,27,22,23,0,0,0,0,0,0,0,0,0,0,99,0.432,0.875,0.276,24,49,16,0011400118,1610612757,POR,Portland,Chris Kaman,F,,21:16,7.0,4.0,0.0,6.0,6.0,2.0,5.0,12.0,3.0,1.0,2.0,3.0
0011400118,1610612757,POR,Portland,2549,Chris Kaman,F,,21:16,118.7,95.8,22.9,0.167,0.0,15.0,0.095,0.389,0.231,0.0,0.5,0.574,0.23,93.71,0.23,2014-10-24T00:00:00,9,1610612746,LAC,Los Angeles,2-6,21,25,18,25,0,0,0,0,0,0,0,0,0,0,89,0.455,0.5,0.345,24,39,16,0011400118,1610612757,POR,Portland,Chris Kaman,F,,21:16,7.0,4.0,0.0,6.0,6.0,2.0,5.0,12.0,3.0,1.0,2.0,3.0
0011400118,1610612757,POR,Portland,201577,Robin Lopez,C,,22:32,116.3,99.8,16.4,0.133,0.0,25.8,0.13,0.263,0.19,0.0,0.75,0.694,0.109,97.78,0.17,2014-10-24T00:00:00,9,1610612757,POR,Portland,4-3,27,27,22,23,0,0,0,0,0,0,0,0,0,0,99,0.432,0.875,0.276,24,49,16,0011400118,1610612757,POR,Portland,Robin Lopez,C,,22:32,0.0,2.0,0.0,6.0,8.0,2.0,5.0,12.0,0.0,0.0,1.0,2.0
0011400118,1610612757,POR,Portland,201577,Robin Lopez,C,,22:32,116.3,99.8,16.4,0.133,0.0,25.8,0.13,0.263,0.19,0.0,0.75,0.694,0.109,97.78,0.17,2014-10-24T00:00:00,9,1610612746,LAC,Los Angeles,2-6,21,25,18,25,0,0,0,0,0,0,0,0,0,0,89,0.455,0.5,0.345,24,39,16,0011400118,1610612757,POR,Portland,Robin Lopez,C,,22:32,0.0,2.0,0.0,6.0,8.0,2.0,5.0,12.0,0.0,0.0,1.0,2.0
0011400118,1610612757,POR,Portland,202083,Wesley Matthews,G,,25:01,109.1,101.8,7.2,0.071,0.33,8.3,0.037,0.095,0.062,25.0,0.625,0.625,0.191,94.67,0.056,2014-10-24T00:00:00,9,1610612757,POR,Portland,4-3,27,27,22,23,0,0,0,0,0,0,0,0,0,0,99,0.432,0.875,0.276,24,49,16,0011400118,1610612757,POR,Portland,Wesley Matthews,G,,25:01,5.0,3.0,0.0,4.0,8.0,2.0,5.0,14.0,0.0,0.0,2.0,1.0
0011400118,1610612757,POR,Portland,202083,Wesley Matthews,G,,25:01,109.1,101.8,7.2,0.071,0.33,8.3,0.037,0.095,0.062,25.0,0.625,0.625,0.191,94.67,0.056,2014-10-24T00:00:00,9,1610612746,LAC,Los Angeles,2-6,21,25,18,25,0,0,0,0,0,0,0,0,0,0,89,0.455,0.5,0.345,24,39,16,0011400118,1610612757,POR,Portland,Wesley Matthews,G,,25:01,5.0,3.0,0.0,4.0,8.0,2.0,5.0,14.0,0.0,0.0,2.0,1.0
0011400118,1610612757,POR,Portland,203081,Damian Lillard,G,,23:35,115.3,97.8,17.5,0.308,1.33,18.5,0.0,0.095,0.043,13.9,0.667,0.717,0.317,97.49,0.14,2014-10-24T00:00:00,9,1610612757,POR,Portland,4-3,27,27,22,23,0,0,0,0,0,0,0,0,0,0,99,0.432,0.875,0.276,24,49,16,0011400118,1610612757,POR,Portland,Damian Lillard,G,,23:35,8.0,3.0,2.0,4.0,8.0,2.0,5.0,12.0,0.0,0.0,5.0,6.0
0011400118,1610612757,POR,Portland,203081,Damian Lillard,G,,23:35,115.3,97.8,17.5,0.308,1.33,18.5,0.0,0.095,0.043,13.9,0.667,0.717,0.317,97.49,0.14,2014-10-24T00:00:00,9,1610612746,LAC,Los Angeles,2-6,21,25,18,25,0,0,0,0,0,0,0,0,0,0,89,0.455,0.5,0.345,24,39,16,0011400118,1610612757,POR,Portland,Damian Lillard,G,,23:35,8.0,3.0,2.0,4.0,8.0,2.0,5.0,12.0,0.0,0.0,5.0,6.0
0011400118,1610612757,POR,Portland,200777,Joel Freeland,,,18:35,95.8,77.9,17.9,0.091,0.0,10.2,0.111,0.263,0.189,0.0,0.429,0.571,0.21,96.34,0.218,2014-10-24T00:00:00,9,1610612757,POR,Portland,4-3,27,27,22,23,0,0,0,0,0,0,0,0,0,0,99,0.432,0.875,0.276,24,49,16,0011400118,1610612757,POR,Portland,Joel Freeland,,,18:35,2.0,4.0,2.0,6.0,5.0,2.0,3.0,4.0,0.0,0.0,2.0,6.0
0011400118,1610612757,POR,Portland,200777,Joel Freeland,,,18:35,95.8,77.9,17.9,0.091,0.0,10.2,0.111,0.263,0.189,0.0,0.429,0.571,0.21,96.34,0.218,2014-10-24T00:00:00,9,1610612746,LAC,Los Angeles,2-6,21,25,18,25,0,0,0,0,0,0,0,0,0,0,89,0.455,0.5,0.345,24,39,16,0011400118,1610612757,POR,Portland,Joel Freeland,,,18:35,2.0,4.0,2.0,6.0,5.0,2.0,3.0,4.0,0.0,0.0,2.0,6.0
0011400118,1610612757,POR,Portland,203468,CJ McCollum,,,22:59,98.0,82.9,15.1,0.071,1.0,9.2,0.0,0.19,0.1,9.2,0.375,0.45,0.198,96.91,0.119,2014-10-24T00:00:00,9,1610612757,POR,Portland,4-3,27,27,22,23,0,0,0,0,0,0,0,0,0,0,99,0.432,0.875,0.276,24,49,16,0011400118,1610612757,POR,Portland,CJ McCollum,,,22:59,2.0,0.0,2.0,4.0,8.0,4.0,3.0,8.0,0.0,0.0,2.0,2.0
0011400118,1610612757,POR,Portland,203468,CJ McCollum,,,22:59,98.0,82.9,15.1,0.071,1.0,9.2,0.0,0.19,0.1,9.2,0.375,0.45,0.198,96.91,0.119,2014-10-24T00:00:00,9,1610612746,LAC,Los Angeles,2-6,21,25,18,25,0,0,0,0,0,0,0,0,0,0,89,0.455,0.5,0.345,24,39,16,0011400118,1610612757,POR,Portland,CJ McCollum,,,22:59,2.0,0.0,2.0,4.0,8.0,4.0,3.0,8.0,0.0,0.0,2.0,2.0
0011400118,1610612757,POR,Portland,203086,Meyers Leonard,,,24:24,81.7,91.1,-9.4,0.1,0.33,5.9,0.04,0.3,0.156,17.8,0.5,0.543,0.3,95.65,0.123,2014-10-24T00:00:00,9,1610612757,POR,Portland,4-3,27,27,22,23,0,0,0,0,0,0,0,0,0,0,99,0.432,0.875,0.276,24,49,16,0011400118,1610612757,POR,Portland,Meyers Leonard,,,24:24,4.0,0.0,4.0,4.0,10.0,4.0,3.0,10.0,0.0,0.0,4.0,2.0
0011400118,1610612757,POR,Portland,203086,Meyers Leonard,,,24:24,81.7,91.1,-9.4,0.1,0.33,5.9,0.04,0.3,0.156,17.8,0.5,0.543,0.3,95.65,0.123,2014-10-24T00:00:00,9,1610612746,LAC,Los Angeles,2-6,21,25,18,25,0,0,0,0,0,0,0,0,0,0,89,0.455,0.5,0.345,24,39,16,0011400118,1610612757,POR,Portland,Meyers Leonard,,,24:24,4.0,0.0,4.0,4.0,10.0,4.0,3.0,10.0,0.0,0.0,4.0,2.0
0011400118,1610612757,POR,Portland,2581,Steve Blake,,,18:39,89.3,79.4,9.9,0.455,1.67,38.5,0.056,0.0,0.029,23.1,0.4,0.4,0.195,96.0,0.053,2014-10-24T00:00:00,9,1610612757,POR,Portland,4-3,27,27,22,23,0,0,0,0,0,0,0,0,0,0,99,0.432,0.875,0.276,24,49,16,0011400118,1610612757,POR,Portland,Steve Blake,,,18:39,0.0,0.0,0.0,0.0,3.0,2.0,3.0,6.0,0.0,0.0,2.0,2.0
0011400118,1610612757,POR,Portland,2581,Steve Blake,,,18:39,89.3,79.4,9.9,0.455,1.67,38.5,0.056,0.0,0.029,23.1,0.4,0.4,0.195,96.0,0.053,2014-10-24T00:00:00,9,1610612746,LAC,Los Angeles,2-6,21,25,18,25,0,0,0,0,0,0,0,0,0,0,89,0.455,0.5,0.345,24,39,16,0011400118,1610612757,POR,Portland,Steve Blake,,,18:39,0.0,0.0,0.0,0.0,3.0,2.0,3.0,6.0,0.0,0.0,2.0,2.0
0011400118,1610612757,POR,Portland,2748,Dorell Wright,,,12:57,108.5,93.0,15.5,0.0,0.0,0.0,0.083,0.0,0.048,0.0,0.333,0.333,0.101,101.04,0.046,2014-10-24T00:00:00,9,1610612757,POR,Portland,4-3,27,27,22,23,0,0,0,0,0,0,0,0,0,0,99,0.432,0.875,0.276,24,49,16,0011400118,1610612757,POR,Portland,Dorell Wright,,,12:57,2.0,0.0,2.0,2.0,5.0,2.0,5.0,10.0,0.0,0.0,0.0,0.0
0011400118,1610612757,POR,Portland,2748,Dorell Wright,,,12:57,108.5,93.0,15.5,0.0,0.0,0.0,0.083,0.0,0.048,0.0,0.333,0.333,0.101,101.04,0.046,2014-10-24T00:00:00,9,1610612746,LAC,Los Angeles,2-6,21,25,18,25,0,0,0,0,0,0,0,0,0,0,89,0.455,0.5,0.345,24,39,16,0011400118,1610612757,POR,Portland,Dorell Wright,,,12:57,2.0,0.0,2.0,2.0,5.0,2.0,5.0,10.0,0.0,0.0,0.0,0.0
0011400118,1610612757,POR,Portland,203459,Allen Crabbe,,,5:46,102.5,114.8,-12.4,0.0,0.0,0.0,0.0,0.0,0.0,0.0,0.0,0.0,0.0,87.73,0.0,2014-10-24T00:00:00,9,1610612757,POR,Portland,4-3,27,27,22,23,0,0,0,0,0,0,0,0,0,0,99,0.432,0.875,0.276,24,49,16,0011400118,1610612757,POR,Portland,Allen Crabbe,,,5:46,0.0,0.0,0.0,0.0,5.0,2.0,0.0,4.0,0.0,0.0,0.0,0.0
0011400118,1610612757,POR,Portland,203459,Allen Crabbe,,,5:46,102.5,114.8,-12.4,0.0,0.0,0.0,0.0,0.0,0.0,0.0,0.0,0.0,0.0,87.73,0.0,2014-10-24T00:00:00,9,1610612746,LAC,Los Angeles,2-6,21,25,18,25,0,0,0,0,0,0,0,0,0,0,89,0.455,0.5,0.345,24,39,16,0011400118,1610612757,POR,Portland,Allen Crabbe,,,5:46,0.0,0.0,0.0,0.0,5.0,2.0,0.0,4.0,0.0,0.0,0.0,0.0
0011400118,1610612757,POR,Portland,203115,Will Barton,,,5:46,102.5,114.8,-12.4,0.5,0.5,20.0,0.0,0.2,0.125,40.0,0.5,0.5,0.372,87.73,0.063,2014-10-24T00:00:00,9,1610612757,POR,Portland,4-3,27,27,22,23,0,0,0,0,0,0,0,0,0,0,99,0.432,0.875,0.276,24,49,16,0011400118,1610612757,POR,Portland,Will Barton,,,5:46,2.0,0.0,0.0,2.0,5.0,2.0,0.0,4.0,0.0,0.0,0.0,0.0
0011400118,1610612757,POR,Portland,203115,Will Barton,,,5:46,102.5,114.8,-12.4,0.5,0.5,20.0,0.0,0.2,0.125,40.0,0.5,0.5,0.372,87.73,0.063,2014-10-24T00:00:00,9,1610612746,LAC,Los Angeles,2-6,21,25,18,25,0,0,0,0,0,0,0,0,0,0,89,0.455,0.5,0.345,24,39,16,0011400118,1610612757,POR,Portland,Will Barton,,,5:46,2.0,0.0,0.0,2.0,5.0,2.0,0.0,4.0,0.0,0.0,0.0,0.0
0011400118,1610612757,POR,Portland,203080,Thomas Robinson,,,5:15,102.5,106.6,-4.1,0.0,0.0,0.0,0.0,0.2,0.125,0.0,0.0,0.0,0.093,91.79,-0.067,2014-10-24T00:00:00,9,1610612757,POR,Portland,4-3,27,27,22,23,0,0,0,0,0,0,0,0,0,0,99,0.432,0.875,0.276,24,49,16,0011400118,1610612757,POR,Portland,Thomas Robinson,,,5:15,0.0,0.0,0.0,0.0,3.0,2.0,0.0,4.0,0.0,0.0,1.0,0.0
0011400118,1610612757,POR,Portland,203080,Thomas Robinson,,,5:15,102.5,106.6,-4.1,0.0,0.0,0.0,0.0,0.2,0.125,0.0,0.0,0.0,0.093,91.79,-0.067,2014-10-24T00:00:00,9,1610612746,LAC,Los Angeles,2-6,21,25,18,25,0,0,0,0,0,0,0,0,0,0,89,0.455,0.5,0.345,24,39,16,0011400118,1610612757,POR,Portland,Thomas Robinson,,,5:15,0.0,0.0,0.0,0.0,3.0,2.0,0.0,4.0,0.0,0.0,1.0,0.0
0011400118,1610612757,POR,Portland,201964,Victor Claver,,,3:58,128.9,94.8,34.1,0.0,0.0,0.0,0.0,0.0,0.0,0.0,1.0,1.064,0.242,98.02,0.267,2014-10-24T00:00:00,9,1610612757,POR,Portland,4-3,27,27,22,23,0,0,0,0,0,0,0,0,0,0,99,0.432,0.875,0.276,24,49,16,0011400118,1610612757,POR,Portland,Victor Claver,,,3:58,0.0,0.0,0.0,0.0,0.0,0.0,0.0,2.0,0.0,0.0,0.0,1.0
0011400118,1610612757,POR,Portland,201964,Victor Claver,,,3:58,128.9,94.8,34.1,0.0,0.0,0.0,0.0,0.0,0.0,0.0,1.0,1.064,0.242,98.02,0.267,2014-10-24T00:00:00,9,1610612746,LAC,Los Angeles,2-6,21,25,18,25,0,0,0,0,0,0,0,0,0,0,89,0.455,0.5,0.345,24,39,16,0011400118,1610612757,POR,Portland,Victor Claver,,,3:58,0.0,0.0,0.0,0.0,0.0,0.0,0.0,2.0,0.0,0.0,0.0,1.0
0011400118,1610612757,POR,Portland,200746,LaMarcus Aldridge,,DND - Groin injury                      ,,,,,,,0.0,,,,,,,0.0,,,2014-10-24T00:00:00,9,1610612757,POR,Portland,4-3,27,27,22,23,0,0,0,0,0,0,0,0,0,0,99,0.432,0.875,0.276,24,49,16,0011400118,1610612757,POR,Portland,LaMarcus Aldridge,,DND - Groin injury                      ,,,,,,,,,,,,,
0011400118,1610612757,POR,Portland,200746,LaMarcus Aldridge,,DND - Groin injury                      ,,,,,,,0.0,,,,,,,0.0,,,2014-10-24T00:00:00,9,1610612746,LAC,Los Angeles,2-6,21,25,18,25,0,0,0,0,0,0,0,0,0,0,89,0.455,0.5,0.345,24,39,16,0011400118,1610612757,POR,Portland,LaMarcus Aldridge,,DND - Groin injury                      ,,,,,,,,,,,,,
0011400118,1610612757,POR,Portland,203197,Diante Garrett,,DNP - Coach's Decision                  ,,,,,,,0.0,,,,,,,0.0,,,2014-10-24T00:00:00,9,1610612757,POR,Portland,4-3,27,27,22,23,0,0,0,0,0,0,0,0,0,0,99,0.432,0.875,0.276,24,49,16,0011400118,1610612757,POR,Portland,Diante Garrett,,DNP - Coach's Decision                  ,,,,,,,,,,,,,
0011400118,1610612757,POR,Portland,203197,Diante Garrett,,DNP - Coach's Decision                  ,,,,,,,0.0,,,,,,,0.0,,,2014-10-24T00:00:00,9,1610612746,LAC,Los Angeles,2-6,21,25,18,25,0,0,0,0,0,0,0,0,0,0,89,0.455,0.5,0.345,24,39,16,0011400118,1610612757,POR,Portland,Diante Garrett,,DNP - Coach's Decision                  ,,,,,,,,,,,,,
0011400118,1610612757,POR,Portland,202721,Darius Morris,,DNP - Coach's Decision                  ,,,,,,,0.0,,,,,,,0.0,,,2014-10-24T00:00:00,9,1610612757,POR,Portland,4-3,27,27,22,23,0,0,0,0,0,0,0,0,0,0,99,0.432,0.875,0.276,24,49,16,0011400118,1610612757,POR,Portland,Darius Morris,,DNP - Coach's Decision                  ,,,,,,,,,,,,,
0011400118,1610612757,POR,Portland,202721,Darius Morris,,DNP - Coach's Decision                  ,,,,,,,0.0,,,,,,,0.0,,,2014-10-24T00:00:00,9,1610612746,LAC,Los Angeles,2-6,21,25,18,25,0,0,0,0,0,0,0,0,0,0,89,0.455,0.5,0.345,24,39,16,0011400118,1610612757,POR,Portland,Darius Morris,,DNP - Coach's Decision                  ,,,,,,,,,,,,,
0011400118,1610612746,LAC,Los Angeles,2440,Matt Barnes,F,,27:08,96.4,104.2,-7.9,0.053,1.0,9.2,0.083,0.069,0.075,9.2,0.375,0.338,0.177,95.25,-0.006,2014-10-24T00:00:00,9,1610612757,POR,Portland,4-3,27,27,22,23,0,0,0,0,0,0,0,0,0,0,99,0.432,0.875,0.276,24,49,16,0011400118,1610612746,LAC,Los Angeles,Matt Barnes,F,,27:08,0.0,2.0,0.0,4.0,18.0,14.0,2.0,24.0,1.0,1.0,3.0,2.0
0011400118,1610612746,LAC,Los Angeles,2440,Matt Barnes,F,,27:08,96.4,104.2,-7.9,0.053,1.0,9.2,0.083,0.069,0.075,9.2,0.375,0.338,0.177,95.25,-0.006,2014-10-24T00:00:00,9,1610612746,LAC,Los Angeles,2-6,21,25,18,25,0,0,0,0,0,0,0,0,0,0,89,0.455,0.5,0.345,24,39,16,0011400118,1610612746,LAC,Los Angeles,Matt Barnes,F,,27:08,0.0,2.0,0.0,4.0,18.0,14.0,2.0,24.0,1.0,1.0,3.0,2.0
0011400118,1610612746,LAC,Los Angeles,201933,Blake Griffin,F,,25:07,98.1,108.9,-10.8,0.0,0.0,0.0,0.0,0.115,0.064,5.2,0.588,0.573,0.365,96.09,0.147,2014-10-24T00:00:00,9,1610612757,POR,Portland,4-3,27,27,22,23,0,0,0,0,0,0,0,0,0,0,99,0.432,0.875,0.276,24,49,16,0011400118,1610612746,LAC,Los Angeles,Blake Griffin,F,,25:07,4.0,0.0,0.0,2.0,16.0,14.0,2.0,22.0,0.0,1.0,3.0,4.0
0011400118,1610612746,LAC,Los Angeles,201933,Blake Griffin,F,,25:07,98.1,108.9,-10.8,0.0,0.0,0.0,0.0,0.115,0.064,5.2,0.588,0.573,0.365,96.09,0.147,2014-10-24T00:00:00,9,1610612746,LAC,Los Angeles,2-6,21,25,18,25,0,0,0,0,0,0,0,0,0,0,89,0.455,0.5,0.345,24,39,16,0011400118,1610612746,LAC,Los Angeles,Blake Griffin,F,,25:07,4.0,0.0,0.0,2.0,16.0,14.0,2.0,22.0,0.0,1.0,3.0,4.0
0011400118,1610612746,LAC,Los Angeles,201599,DeAndre Jordan,C,,24:21,85.7,112.9,-27.2,0.118,1.0,40.0,0.0,0.333,0.18,40.0,1.0,1.0,0.057,95.76,0.098,2014-10-24T00:00:00,9,1610612757,POR,Portland,4-3,27,27,22,23,0,0,0,0,0,0,0,0,0,0,99,0.432,0.875,0.276,24,49,16,0011400118,1610612746,LAC,Los Angeles,DeAndre Jordan,C,,24:21,0.0,0.0,0.0,2.0,16.0,14.0,4.0,22.0,0.0,0.0,3.0,0.0
0011400118,1610612746,LAC,Los Angeles,201599,DeAndre Jordan,C,,24:21,85.7,112.9,-27.2,0.118,1.0,40.0,0.0,0.333,0.18,40.0,1.0,1.0,0.057,95.76,0.098,2014-10-24T00:00:00,9,1610612746,LAC,Los Angeles,2-6,21,25,18,25,0,0,0,0,0,0,0,0,0,0,89,0.455,0.5,0.345,24,39,16,0011400118,1610612746,LAC,Los Angeles,DeAndre Jordan,C,,24:21,0.0,0.0,0.0,2.0,16.0,14.0,4.0,22.0,0.0,0.0,3.0,0.0
0011400118,1610612746,LAC,Los Angeles,200755,JJ Redick,G,,24:53,97.9,110.8,-13.0,0.0,0.0,0.0,0.0,0.111,0.062,9.2,0.556,0.607,0.205,96.26,0.083,2014-10-24T00:00:00,9,1610612757,POR,Portland,4-3,27,27,22,23,0,0,0,0,0,0,0,0,0,0,99,0.432,0.875,0.276,24,49,16,0011400118,1610612746,LAC,Los Angeles,JJ Redick,G,,24:53,2.0,0.0,0.0,0.0,18.0,14.0,2.0,24.0,0.0,0.0,2.0,3.0
0011400118,1610612746,LAC,Los Angeles,200755,JJ Redick,G,,24:53,97.9,110.8,-13.0,0.0,0.0,0.0,0.0,0.111,0.062,9.2,0.556,0.607,0.205,96.26,0.083,2014-10-24T00:00:00,9,1610612746,LAC,Los Angeles,2-6,21,25,18,25,0,0,0,0,0,0,0,0,0,0,89,0.455,0.5,0.345,24,39,16,0011400118,1610612746,LAC,Los Angeles,JJ Redick,G,,24:53,2.0,0.0,0.0,0.0,18.0,14.0,2.0,24.0,0.0,0.0,2.0,3.0
0011400118,1610612746,LAC,Los Angeles,101108,Chris Paul,G,,21:49,99.8,121.7,-21.9,0.647,5.5,50.6,0.0,0.095,0.05,9.2,0.429,0.457,0.229,96.6,0.115,2014-10-24T00:00:00,9,1610612757,POR,Portland,4-3,27,27,22,23,0,0,0,0,0,0,0,0,0,0,99,0.432,0.875,0.276,24,49,16,0011400118,1610612746,LAC,Los Angeles,Chris Paul,G,,21:49,0.0,0.0,3.0,0.0,16.0,14.0,2.0,22.0,0.0,0.0,4.0,6.0
0011400118,1610612746,LAC,Los Angeles,101108,Chris Paul,G,,21:49,99.8,121.7,-21.9,0.647,5.5,50.6,0.0,0.095,0.05,9.2,0.429,0.457,0.229,96.6,0.115,2014-10-24T00:00:00,9,1610612746,LAC,Los Angeles,2-6,21,25,18,25,0,0,0,0,0,0,0,0,0,0,89,0.455,0.5,0.345,24,39,16,0011400118,1610612746,LAC,Los Angeles,Chris Paul,G,,21:49,0.0,0.0,3.0,0.0,16.0,14.0,2.0,22.0,0.0,0.0,4.0,6.0
0011400118,1610612746,LAC,Los Angeles,200770,Jordan Farmar,,,22:52,86.0,82.1,4.0,0.091,0.5,9.1,0.05,0.174,0.116,18.2,0.25,0.25,0.223,91.23,0.027,2014-10-24T00:00:00,9,1610612757,POR,Portland,4-3,27,27,22,23,0,0,0,0,0,0,0,0,0,0,99,0.432,0.875,0.276,24,49,16,0011400118,1610612746,LAC,Los Angeles,Jordan Farmar,,,22:52,2.0,2.0,0.0,2.0,12.0,2.0,8.0,14.0,0.0,0.0,0.0,2.0
0011400118,1610612746,LAC,Los Angeles,200770,Jordan Farmar,,,22:52,86.0,82.1,4.0,0.091,0.5,9.1,0.05,0.174,0.116,18.2,0.25,0.25,0.223,91.23,0.027,2014-10-24T00:00:00,9,1610612746,LAC,Los Angeles,2-6,21,25,18,25,0,0,0,0,0,0,0,0,0,0,89,0.455,0.5,0.345,24,39,16,0011400118,1610612746,LAC,Los Angeles,Jordan Farmar,,,22:52,2.0,2.0,0.0,2.0,12.0,2.0,8.0,14.0,0.0,0.0,0.0,2.0
0011400118,1610612746,LAC,Los Angeles,201150,Spencer Hawes,,,26:00,87.5,93.4,-5.9,0.231,3.0,25.0,0.05,0.231,0.152,8.3,0.563,0.563,0.169,97.85,0.141,2014-10-24T00:00:00,9,1610612757,POR,Portland,4-3,27,27,22,23,0,0,0,0,0,0,0,0,0,0,99,0.432,0.875,0.276,24,49,16,0011400118,1610612746,LAC,Los Angeles,Spencer Hawes,,,26:00,5.0,2.0,5.0,6.0,20.0,2.0,10.0,20.0,0.0,0.0,3.0,2.0
0011400118,1610612746,LAC,Los Angeles,201150,Spencer Hawes,,,26:00,87.5,93.4,-5.9,0.231,3.0,25.0,0.05,0.231,0.152,8.3,0.563,0.563,0.169,97.85,0.141,2014-10-24T00:00:00,9,1610612746,LAC,Los Angeles,2-6,21,25,18,25,0,0,0,0,0,0,0,0,0,0,89,0.455,0.5,0.345,24,39,16,0011400118,1610612746,LAC,Los Angeles,Spencer Hawes,,,26:00,5.0,2.0,5.0,6.0,20.0,2.0,10.0,20.0,0.0,0.0,3.0,2.0
0011400118,1610612746,LAC,Los Angeles,203099,Jared Cunningham,,,17:56,89.0,90.4,-1.4,0.111,0.5,7.3,0.0,0.118,0.063,14.5,0.556,0.558,0.327,96.98,0.058,2014-10-24T00:00:00,9,1610612757,POR,Portland,4-3,27,27,22,23,0,0,0,0,0,0,0,0,0,0,99,0.432,0.875,0.276,24,49,16,0011400118,1610612746,LAC,Los Angeles,Jared Cunningham,,,17:56,1.0,0.0,0.0,4.0,12.0,0.0,8.0,10.0,0.0,1.0,4.0,5.0
0011400118,1610612746,LAC,Los Angeles,203099,Jared Cunningham,,,17:56,89.0,90.4,-1.4,0.111,0.5,7.3,0.0,0.118,0.063,14.5,0.556,0.558,0.327,96.98,0.058,2014-10-24T00:00:00,9,1610612746,LAC,Los Angeles,2-6,21,25,18,25,0,0,0,0,0,0,0,0,0,0,89,0.455,0.5,0.345,24,39,16,0011400118,1610612746,LAC,Los Angeles,Jared Cunningham,,,17:56,1.0,0.0,0.0,4.0,12.0,0.0,8.0,10.0,0.0,1.0,4.0,5.0
0011400118,1610612746,LAC,Los Angeles,201604,Chris Douglas-Roberts,,,15:06,78.3,102.9,-24.5,0.143,0.5,20.0,0.0,0.0,0.0,40.0,0.5,0.5,0.123,99.69,-0.022,2014-10-24T00:00:00,9,1610612757,POR,Portland,4-3,27,27,22,23,0,0,0,0,0,0,0,0,0,0,99,0.432,0.875,0.276,24,49,16,0011400118,1610612746,LAC,Los Angeles,Chris Douglas-Roberts,,,15:06,0.0,0.0,0.0,2.0,10.0,2.0,8.0,12.0,0.0,0.0,1.0,0.0
0011400118,1610612746,LAC,Los Angeles,201604,Chris Douglas-Roberts,,,15:06,78.3,102.9,-24.5,0.143,0.5,20.0,0.0,0.0,0.0,40.0,0.5,0.5,0.123,99.69,-0.022,2014-10-24T00:00:00,9,1610612746,LAC,Los Angeles,2-6,21,25,18,25,0,0,0,0,0,0,0,0,0,0,89,0.455,0.5,0.345,24,39,16,0011400118,1610612746,LAC,Los Angeles,Chris Douglas-Roberts,,,15:06,0.0,0.0,0.0,2.0,10.0,2.0,8.0,12.0,0.0,0.0,1.0,0.0
0011400118,1610612746,LAC,Los Angeles,203912,CJ Wilcox,,,8:30,83.5,119.8,-36.3,0.333,1.0,25.8,0.111,0.0,0.077,25.8,1.5,1.33,0.162,101.53,0.241,2014-10-24T00:00:00,9,1610612757,POR,Portland,4-3,27,27,22,23,0,0,0,0,0,0,0,0,0,0,99,0.432,0.875,0.276,24,49,16,0011400118,1610612746,LAC,Los Angeles,CJ Wilcox,,,8:30,0.0,0.0,0.0,0.0,6.0,2.0,4.0,10.0,0.0,0.0,0.0,1.0
0011400118,1610612746,LAC,Los Angeles,203912,CJ Wilcox,,,8:30,83.5,119.8,-36.3,0.333,1.0,25.8,0.111,0.0,0.077,25.8,1.5,1.33,0.162,101.53,0.241,2014-10-24T00:00:00,9,1610612746,LAC,Los Angeles,2-6,21,25,18,25,0,0,0,0,0,0,0,0,0,0,89,0.455,0.5,0.345,24,39,16,0011400118,1610612746,LAC,Los Angeles,CJ Wilcox,,,8:30,0.0,0.0,0.0,0.0,6.0,2.0,4.0,10.0,0.0,0.0,0.0,1.0
0011400118,1610612746,LAC,Los Angeles,2045,Hedo Turkoglu,,,14:47,96.6,99.3,-2.8,0.0,0.0,0.0,0.0,0.3,0.12,14.3,0.667,0.667,0.226,94.42,0.184,2014-10-24T00:00:00,9,1610612757,POR,Portland,4-3,27,27,22,23,0,0,0,0,0,0,0,0,0,0,99,0.432,0.875,0.276,24,49,16,0011400118,1610612746,LAC,Los Angeles,Hedo Turkoglu,,,14:47,2.0,0.0,0.0,0.0,8.0,2.0,6.0,12.0,0.0,0.0,1.0,0.0
0011400118,1610612746,LAC,Los Angeles,2045,Hedo Turkoglu,,,14:47,96.6,99.3,-2.8,0.0,0.0,0.0,0.0,0.3,0.12,14.3,0.667,0.667,0.226,94.42,0.184,2014-10-24T00:00:00,9,1610612746,LAC,Los Angeles,2-6,21,25,18,25,0,0,0,0,0,0,0,0,0,0,89,0.455,0.5,0.345,24,39,16,0011400118,1610612746,LAC,Los Angeles,Hedo Turkoglu,,,14:47,2.0,0.0,0.0,0.0,8.0,2.0,6.0,12.0,0.0,0.0,1.0,0.0
0011400118,1610612746,LAC,Los Angeles,203493,Reggie Bullock,,,5:46,114.8,102.5,12.4,0.2,0.0,69.4,0.0,0.0,0.0,0.0,0.0,0.0,0.036,87.73,-0.063,2014-10-24T00:00:00,9,1610612757,POR,Portland,4-3,27,27,22,23,0,0,0,0,0,0,0,0,0,0,99,0.432,0.875,0.276,24,49,16,0011400118,1610612746,LAC,Los Angeles,Reggie Bullock,,,5:46,0.0,0.0,0.0,0.0,4.0,0.0,2.0,4.0,0.0,0.0,1.0,0.0
0011400118,1610612746,LAC,Los Angeles,203493,Reggie Bullock,,,5:46,114.8,102.5,12.4,0.2,0.0,69.4,0.0,0.0,0.0,0.0,0.0,0.0,0.036,87.73,-0.063,2014-10-24T00:00:00,9,1610612746,LAC,Los Angeles,2-6,21,25,18,25,0,0,0,0,0,0,0,0,0,0,89,0.455,0.5,0.345,24,39,16,0011400118,1610612746,LAC,Los Angeles,Reggie Bullock,,,5:46,0.0,0.0,0.0,0.0,4.0,0.0,2.0,4.0,0.0,0.0,1.0,0.0
0011400118,1610612746,LAC,Los Angeles,204060,Joe Ingles,,,5:45,114.8,102.5,12.4,0.4,0.0,66.7,0.0,0.0,0.0,0.0,0.0,0.0,0.081,87.99,0.0,2014-10-24T00:00:00,9,1610612757,POR,Portland,4-3,27,27,22,23,0,0,0,0,0,0,0,0,0,0,99,0.432,0.875,0.276,24,49,16,0011400118,1610612746,LAC,Los Angeles,Joe Ingles,,,5:45,0.0,0.0,0.0,0.0,4.0,0.0,2.0,4.0,0.0,0.0,1.0,0.0
0011400118,1610612746,LAC,Los Angeles,204060,Joe Ingles,,,5:45,114.8,102.5,12.4,0.4,0.0,66.7,0.0,0.0,0.0,0.0,0.0,0.0,0.081,87.99,0.0,2014-10-24T00:00:00,9,1610612746,LAC,Los Angeles,2-6,21,25,18,25,0,0,0,0,0,0,0,0,0,0,89,0.455,0.5,0.345,24,39,16,0011400118,1610612746,LAC,Los Angeles,Joe Ingles,,,5:45,0.0,0.0,0.0,0.0,4.0,0.0,2.0,4.0,0.0,0.0,1.0,0.0
0011400118,1610612746,LAC,Los Angeles,2037,Jamal Crawford,,DNP - Coach's Decision                  ,,,,,,,0.0,,,,,,,0.0,,,2014-10-24T00:00:00,9,1610612757,POR,Portland,4-3,27,27,22,23,0,0,0,0,0,0,0,0,0,0,99,0.432,0.875,0.276,24,49,16,0011400118,1610612746,LAC,Los Angeles,Jamal Crawford,,DNP - Coach's Decision                  ,,,,,,,,,,,,,
0011400118,1610612746,LAC,Los Angeles,2037,Jamal Crawford,,DNP - Coach's Decision                  ,,,,,,,0.0,,,,,,,0.0,,,2014-10-24T00:00:00,9,1610612746,LAC,Los Angeles,2-6,21,25,18,25,0,0,0,0,0,0,0,0,0,0,89,0.455,0.5,0.345,24,39,16,0011400118,1610612746,LAC,Los Angeles,Jamal Crawford,,DNP - Coach's Decision                  ,,,,,,,,,,,,,
0011400118,1610612746,LAC,Los Angeles,201175,Glen Davis,,DND - Strained right groin              ,,,,,,,0.0,,,,,,,0.0,,,2014-10-24T00:00:00,9,1610612757,POR,Portland,4-3,27,27,22,23,0,0,0,0,0,0,0,0,0,0,99,0.432,0.875,0.276,24,49,16,0011400118,1610612746,LAC,Los Angeles,Glen Davis,,DND - Strained right groin              ,,,,,,,,,,,,,
0011400118,1610612746,LAC,Los Angeles,201175,Glen Davis,,DND - Strained right groin              ,,,,,,,0.0,,,,,,,0.0,,,2014-10-24T00:00:00,9,1610612746,LAC,Los Angeles,2-6,21,25,18,25,0,0,0,0,0,0,0,0,0,0,89,0.455,0.5,0.345,24,39,16,0011400118,1610612746,LAC,Los Angeles,Glen Davis,,DND - Strained right groin              ,,,,,,,,,,,,,
0011400118,1610612746,LAC,Los Angeles,202327,Ekpe Udoh,,DNP - Coach's Decision                  ,,,,,,,0.0,,,,,,,0.0,,,2014-10-24T00:00:00,9,1610612757,POR,Portland,4-3,27,27,22,23,0,0,0,0,0,0,0,0,0,0,99,0.432,0.875,0.276,24,49,16,0011400118,1610612746,LAC,Los Angeles,Ekpe Udoh,,DNP - Coach's Decision                  ,,,,,,,,,,,,,
0011400118,1610612746,LAC,Los Angeles,202327,Ekpe Udoh,,DNP - Coach's Decision                  ,,,,,,,0.0,,,,,,,0.0,,,2014-10-24T00:00:00,9,1610612746,LAC,Los Angeles,2-6,21,25,18,25,0,0,0,0,0,0,0,0,0,0,89,0.455,0.5,0.345,24,39,16,0011400118,1610612746,LAC,Los Angeles,Ekpe Udoh,,DNP - Coach's Decision                  ,,,,,,,,,,,,,
