GAME_ID_x,TEAM_ID_x,TEAM_ABBREVIATION_x,TEAM_CITY_x,PLAYER_ID,PLAYER_NAME_x,START_POSITION_x,COMMENT_x,MIN_x,OFF_RATING,DEF_RATING,NET_RATING,AST_PCT,AST_TOV,AST_RATIO,OREB_PCT,DREB_PCT,REB_PCT,TM_TOV_PCT,EFG_PCT,TS_PCT,USG_PCT,PACE,PIE,GAME_DATE_EST,GAME_SEQUENCE,TEAM_ID_y,TEAM_ABBREVIATION_y,TEAM_CITY_NAME,TEAM_WINS_LOSSES,PTS_QTR1,PTS_QTR2,PTS_QTR3,PTS_QTR4,PTS_OT1,PTS_OT2,PTS_OT3,PTS_OT4,PTS_OT5,PTS_OT6,PTS_OT7,PTS_OT8,PTS_OT9,PTS_OT10,PTS,FG_PCT,FT_PCT,FG3_PCT,AST,REB,TOV,GAME_ID_y,TEAM_ID,TEAM_ABBREVIATION,TEAM_CITY_y,PLAYER_NAME_y,START_POSITION_y,COMMENT_y,MIN_y,PTS_OFF_TOV,PTS_2ND_CHANCE,PTS_FB,PTS_PAINT,OPP_PTS_OFF_TOV,OPP_PTS_2ND_CHANCE,OPP_PTS_FB,OPP_PTS_PAINT,BLK,BLKA,PF,PFD
0011400117,1610612743,DEN,Denver,201568,Danilo Gallinari,F,,16:26,98.8,117.5,-18.7,0.0,0.0,0.0,0.0,0.25,0.13,0.0,0.5,0.753,0.193,102.23,0.167,2014-10-24T00:00:00,8,1610612743,DEN,Denver,2-6,21,32,27,32,0,0,0,0,0,0,0,0,0,0,112,0.5,0.793,0.313,21,46,12,0011400117,1610612743,DEN,Denver,Danilo Gallinari,F,,16:26,4.0,0.0,2.0,0.0,7.0,3.0,4.0,16.0,0.0,0.0,1.0,4.0
0011400117,1610612743,DEN,Denver,201568,Danilo Gallinari,F,,16:26,98.8,117.5,-18.7,0.0,0.0,0.0,0.0,0.25,0.13,0.0,0.5,0.753,0.193,102.23,0.167,2014-10-24T00:00:00,8,1610612744,GSW,Golden State,6-2,29,36,28,26,0,0,0,0,0,0,0,0,0,0,119,0.512,0.655,0.429,35,37,12,0011400117,1610612743,DEN,Denver,Danilo Gallinari,F,,16:26,4.0,0.0,2.0,0.0,7.0,3.0,4.0,16.0,0.0,0.0,1.0,4.0
0011400117,1610612743,DEN,Denver,201581,JJ Hickson,F,,15:35,120.8,108.2,12.6,0.0,0.0,0.0,0.1,0.167,0.136,11.4,0.5,0.515,0.268,99.86,0.063,2014-10-24T00:00:00,8,1610612743,DEN,Denver,2-6,21,32,27,32,0,0,0,0,0,0,0,0,0,0,112,0.5,0.793,0.313,21,46,12,0011400117,1610612743,DEN,Denver,JJ Hickson,F,,15:35,0.0,4.0,0.0,6.0,4.0,0.0,8.0,18.0,0.0,0.0,0.0,3.0
0011400117,1610612743,DEN,Denver,201581,JJ Hickson,F,,15:35,120.8,108.2,12.6,0.0,0.0,0.0,0.1,0.167,0.136,11.4,0.5,0.515,0.268,99.86,0.063,2014-10-24T00:00:00,8,1610612744,GSW,Golden State,6-2,29,36,28,26,0,0,0,0,0,0,0,0,0,0,119,0.512,0.655,0.429,35,37,12,0011400117,1610612743,DEN,Denver,JJ Hickson,F,,15:35,0.0,4.0,0.0,6.0,4.0,0.0,8.0,18.0,0.0,0.0,0.0,3.0
0011400117,1610612743,DEN,Denver,202389,Timofey Mozgov,C,,20:58,105.5,110.6,-5.1,0.188,1.0,30.0,0.059,0.529,0.294,30.0,0.75,0.75,0.153,100.55,0.139,2014-10-24T00:00:00,8,1610612743,DEN,Denver,2-6,21,32,27,32,0,0,0,0,0,0,0,0,0,0,112,0.5,0.793,0.313,21,46,12,0011400117,1610612743,DEN,Denver,Timofey Mozgov,C,,20:58,0.0,2.0,0.0,4.0,6.0,2.0,13.0,24.0,1.0,0.0,3.0,0.0
0011400117,1610612743,DEN,Denver,202389,Timofey Mozgov,C,,20:58,105.5,110.6,-5.1,0.188,1.0,30.0,0.059,0.529,0.294,30.0,0.75,0.75,0.153,100.55,0.139,2014-10-24T00:00:00,8,1610612744,GSW,Golden State,6-2,29,36,28,26,0,0,0,0,0,0,0,0,0,0,119,0.512,0.655,0.429,35,37,12,0011400117,1610612743,DEN,Denver,Timofey Mozgov,C,,20:58,0.0,2.0,0.0,4.0,6.0,2.0,13.0,24.0,1.0,0.0,3.0,0.0
0011400117,1610612743,DEN,Denver,201167,Arron Afflalo,G,,20:14,104.2,104.4,-0.2,0.143,2.0,28.6,0.0,0.188,0.097,14.3,0.375,0.375,0.116,101.25,0.026,2014-10-24T00:00:00,8,1610612743,DEN,Denver,2-6,21,32,27,32,0,0,0,0,0,0,0,0,0,0,112,0.5,0.793,0.313,21,46,12,0011400117,1610612743,DEN,Denver,Arron Afflalo,G,,20:14,0.0,0.0,0.0,0.0,8.0,4.0,8.0,26.0,0.0,0.0,2.0,3.0
0011400117,1610612743,DEN,Denver,201167,Arron Afflalo,G,,20:14,104.2,104.4,-0.2,0.143,2.0,28.6,0.0,0.188,0.097,14.3,0.375,0.375,0.116,101.25,0.026,2014-10-24T00:00:00,8,1610612744,GSW,Golden State,6-2,29,36,28,26,0,0,0,0,0,0,0,0,0,0,119,0.512,0.655,0.429,35,37,12,0011400117,1610612743,DEN,Denver,Arron Afflalo,G,,20:14,0.0,0.0,0.0,0.0,8.0,4.0,8.0,26.0,0.0,0.0,2.0,3.0
0011400117,1610612743,DEN,Denver,203475,Erick Green,G,,16:52,95.3,101.0,-5.7,0.375,0.0,27.3,0.0,0.0,0.0,0.0,0.75,0.75,0.218,102.84,0.173,2014-10-24T00:00:00,8,1610612743,DEN,Denver,2-6,21,32,27,32,0,0,0,0,0,0,0,0,0,0,112,0.5,0.793,0.313,21,46,12,0011400117,1610612743,DEN,Denver,Erick Green,G,,16:52,2.0,0.0,2.0,2.0,6.0,2.0,9.0,22.0,0.0,0.0,2.0,0.0
0011400117,1610612743,DEN,Denver,203475,Erick Green,G,,16:52,95.3,101.0,-5.7,0.375,0.0,27.3,0.0,0.0,0.0,0.0,0.75,0.75,0.218,102.84,0.173,2014-10-24T00:00:00,8,1610612744,GSW,Golden State,6-2,29,36,28,26,0,0,0,0,0,0,0,0,0,0,119,0.512,0.655,0.429,35,37,12,0011400117,1610612743,DEN,Denver,Erick Green,G,,16:52,2.0,0.0,2.0,2.0,6.0,2.0,9.0,22.0,0.0,0.0,2.0,0.0
0011400117,1610612743,DEN,Denver,201163,Wilson Chandler,,,21:05,124.4,127.0,-2.6,0.111,2.0,34.0,0.053,0.053,0.053,17.0,0.5,0.521,0.078,96.9,-0.027,2014-10-24T00:00:00,8,1610612743,DEN,Denver,2-6,21,32,27,32,0,0,0,0,0,0,0,0,0,0,112,0.5,0.793,0.313,21,46,12,0011400117,1610612743,DEN,Denver,Wilson Chandler,,,21:05,0.0,0.0,0.0,2.0,10.0,9.0,12.0,26.0,0.0,0.0,6.0,1.0
0011400117,1610612743,DEN,Denver,201163,Wilson Chandler,,,21:05,124.4,127.0,-2.6,0.111,2.0,34.0,0.053,0.053,0.053,17.0,0.5,0.521,0.078,96.9,-0.027,2014-10-24T00:00:00,8,1610612744,GSW,Golden State,6-2,29,36,28,26,0,0,0,0,0,0,0,0,0,0,119,0.512,0.655,0.429,35,37,12,0011400117,1610612743,DEN,Denver,Wilson Chandler,,,21:05,0.0,0.0,0.0,2.0,10.0,9.0,12.0,26.0,0.0,0.0,6.0,1.0
0011400117,1610612743,DEN,Denver,201589,Darrell Arthur,,,13:15,79.1,123.6,-44.6,0.0,0.0,0.0,0.0,0.083,0.037,0.0,0.5,0.5,0.187,99.55,0.065,2014-10-24T00:00:00,8,1610612743,DEN,Denver,2-6,21,32,27,32,0,0,0,0,0,0,0,0,0,0,112,0.5,0.793,0.313,21,46,12,0011400117,1610612743,DEN,Denver,Darrell Arthur,,,13:15,0.0,0.0,2.0,4.0,4.0,6.0,7.0,14.0,0.0,0.0,1.0,0.0
0011400117,1610612743,DEN,Denver,201589,Darrell Arthur,,,13:15,79.1,123.6,-44.6,0.0,0.0,0.0,0.0,0.083,0.037,0.0,0.5,0.5,0.187,99.55,0.065,2014-10-24T00:00:00,8,1610612744,GSW,Golden State,6-2,29,36,28,26,0,0,0,0,0,0,0,0,0,0,119,0.512,0.655,0.429,35,37,12,0011400117,1610612743,DEN,Denver,Darrell Arthur,,,13:15,0.0,0.0,2.0,4.0,4.0,6.0,7.0,14.0,0.0,0.0,1.0,0.0
0011400117,1610612743,DEN,Denver,200751,Randy Foye,,,25:02,131.1,132.2,-1.2,0.2,2.0,18.4,0.0,0.091,0.048,9.2,0.321,0.412,0.304,96.14,0.054,2014-10-24T00:00:00,8,1610612743,DEN,Denver,2-6,21,32,27,32,0,0,0,0,0,0,0,0,0,0,112,0.5,0.793,0.313,21,46,12,0011400117,1610612743,DEN,Denver,Randy Foye,,,25:02,2.0,0.0,3.0,6.0,11.0,10.0,10.0,24.0,0.0,2.0,1.0,2.0
0011400117,1610612743,DEN,Denver,200751,Randy Foye,,,25:02,131.1,132.2,-1.2,0.2,2.0,18.4,0.0,0.091,0.048,9.2,0.321,0.412,0.304,96.14,0.054,2014-10-24T00:00:00,8,1610612744,GSW,Golden State,6-2,29,36,28,26,0,0,0,0,0,0,0,0,0,0,119,0.512,0.655,0.429,35,37,12,0011400117,1610612743,DEN,Denver,Randy Foye,,,25:02,2.0,0.0,3.0,6.0,11.0,10.0,10.0,24.0,0.0,2.0,1.0,2.0
0011400117,1610612743,DEN,Denver,101126,Nate Robinson,,,14:30,109.7,115.2,-5.5,0.3,3.0,20.8,0.0,0.0,0.0,6.9,0.4,0.431,0.317,98.65,0.07,2014-10-24T00:00:00,8,1610612743,DEN,Denver,2-6,21,32,27,32,0,0,0,0,0,0,0,0,0,0,112,0.5,0.793,0.313,21,46,12,0011400117,1610612743,DEN,Denver,Nate Robinson,,,14:30,0.0,2.0,0.0,4.0,0.0,2.0,9.0,8.0,0.0,0.0,1.0,2.0
0011400117,1610612743,DEN,Denver,101126,Nate Robinson,,,14:30,109.7,115.2,-5.5,0.3,3.0,20.8,0.0,0.0,0.0,6.9,0.4,0.431,0.317,98.65,0.07,2014-10-24T00:00:00,8,1610612744,GSW,Golden State,6-2,29,36,28,26,0,0,0,0,0,0,0,0,0,0,119,0.512,0.655,0.429,35,37,12,0011400117,1610612743,DEN,Denver,Nate Robinson,,,14:30,0.0,2.0,0.0,4.0,0.0,2.0,9.0,8.0,0.0,0.0,1.0,2.0
0011400117,1610612743,DEN,Denver,203994,Jusuf Nurkic,,,14:54,147.9,131.8,16.1,0.0,0.0,0.0,0.308,0.308,0.308,0.0,0.625,0.752,0.306,91.1,0.266,2014-10-24T00:00:00,8,1610612743,DEN,Denver,2-6,21,32,27,32,0,0,0,0,0,0,0,0,0,0,112,0.5,0.793,0.313,21,46,12,0011400117,1610612743,DEN,Denver,Jusuf Nurkic,,,14:54,0.0,4.0,0.0,8.0,6.0,5.0,5.0,16.0,1.0,0.0,3.0,4.0
0011400117,1610612743,DEN,Denver,203994,Jusuf Nurkic,,,14:54,147.9,131.8,16.1,0.0,0.0,0.0,0.308,0.308,0.308,0.0,0.625,0.752,0.306,91.1,0.266,2014-10-24T00:00:00,8,1610612744,GSW,Golden State,6-2,29,36,28,26,0,0,0,0,0,0,0,0,0,0,119,0.512,0.655,0.429,35,37,12,0011400117,1610612743,DEN,Denver,Jusuf Nurkic,,,14:54,0.0,4.0,0.0,8.0,6.0,5.0,5.0,16.0,1.0,0.0,3.0,4.0
0011400117,1610612743,DEN,Denver,202087,Alonzo Gee,,,24:25,122.8,115.1,7.7,0.15,3.0,23.5,0.143,0.115,0.128,7.8,0.571,0.571,0.163,108.36,0.08,2014-10-24T00:00:00,8,1610612743,DEN,Denver,2-6,21,32,27,32,0,0,0,0,0,0,0,0,0,0,112,0.5,0.793,0.313,21,46,12,0011400117,1610612743,DEN,Denver,Alonzo Gee,,,24:25,5.0,2.0,4.0,8.0,9.0,10.0,13.0,22.0,0.0,2.0,4.0,2.0
0011400117,1610612743,DEN,Denver,202087,Alonzo Gee,,,24:25,122.8,115.1,7.7,0.15,3.0,23.5,0.143,0.115,0.128,7.8,0.571,0.571,0.163,108.36,0.08,2014-10-24T00:00:00,8,1610612744,GSW,Golden State,6-2,29,36,28,26,0,0,0,0,0,0,0,0,0,0,119,0.512,0.655,0.429,35,37,12,0011400117,1610612743,DEN,Denver,Alonzo Gee,,,24:25,5.0,2.0,4.0,8.0,9.0,10.0,13.0,22.0,0.0,2.0,4.0,2.0
0011400117,1610612743,DEN,Denver,203914,Gary Harris,,,13:59,139.3,125.3,13.9,0.0,0.0,0.0,0.0,0.143,0.087,25.0,0.5,0.5,0.128,96.11,0.017,2014-10-24T00:00:00,8,1610612743,DEN,Denver,2-6,21,32,27,32,0,0,0,0,0,0,0,0,0,0,112,0.5,0.793,0.313,21,46,12,0011400117,1610612743,DEN,Denver,Gary Harris,,,13:59,0.0,0.0,3.0,0.0,9.0,8.0,2.0,14.0,0.0,0.0,1.0,0.0
0011400117,1610612743,DEN,Denver,203914,Gary Harris,,,13:59,139.3,125.3,13.9,0.0,0.0,0.0,0.0,0.143,0.087,25.0,0.5,0.5,0.128,96.11,0.017,2014-10-24T00:00:00,8,1610612744,GSW,Golden State,6-2,29,36,28,26,0,0,0,0,0,0,0,0,0,0,119,0.512,0.655,0.429,35,37,12,0011400117,1610612743,DEN,Denver,Gary Harris,,,13:59,0.0,0.0,3.0,0.0,9.0,8.0,2.0,14.0,0.0,0.0,1.0,0.0
0011400117,1610612743,DEN,Denver,201580,JaVale McGee,,,12:08,91.5,107.9,-16.4,0.25,1.0,11.3,0.1,0.308,0.217,11.3,0.833,0.799,0.268,112.98,0.321,2014-10-24T00:00:00,8,1610612743,DEN,Denver,2-6,21,32,27,32,0,0,0,0,0,0,0,0,0,0,112,0.5,0.793,0.313,21,46,12,0011400117,1610612743,DEN,Denver,JaVale McGee,,,12:08,2.0,2.0,2.0,10.0,5.0,7.0,4.0,10.0,0.0,0.0,1.0,1.0
0011400117,1610612743,DEN,Denver,201580,JaVale McGee,,,12:08,91.5,107.9,-16.4,0.25,1.0,11.3,0.1,0.308,0.217,11.3,0.833,0.799,0.268,112.98,0.321,2014-10-24T00:00:00,8,1610612744,GSW,Golden State,6-2,29,36,28,26,0,0,0,0,0,0,0,0,0,0,119,0.512,0.655,0.429,35,37,12,0011400117,1610612743,DEN,Denver,JaVale McGee,,,12:08,2.0,2.0,2.0,10.0,5.0,7.0,4.0,10.0,0.0,0.0,1.0,1.0
0011400117,1610612743,DEN,Denver,203113,Quincy Miller,,,10:37,105.4,97.4,8.0,0.0,0.0,0.0,0.0,0.083,0.045,0.0,0.5,0.5,0.081,107.15,0.022,2014-10-24T00:00:00,8,1610612743,DEN,Denver,2-6,21,32,27,32,0,0,0,0,0,0,0,0,0,0,112,0.5,0.793,0.313,21,46,12,0011400117,1610612743,DEN,Denver,Quincy Miller,,,10:37,0.0,0.0,0.0,2.0,0.0,2.0,6.0,10.0,0.0,0.0,1.0,0.0
0011400117,1610612743,DEN,Denver,203113,Quincy Miller,,,10:37,105.4,97.4,8.0,0.0,0.0,0.0,0.0,0.083,0.045,0.0,0.5,0.5,0.081,107.15,0.022,2014-10-24T00:00:00,8,1610612744,GSW,Golden State,6-2,29,36,28,26,0,0,0,0,0,0,0,0,0,0,119,0.512,0.655,0.429,35,37,12,0011400117,1610612743,DEN,Denver,Quincy Miller,,,10:37,0.0,0.0,0.0,2.0,0.0,2.0,6.0,10.0,0.0,0.0,1.0,0.0
0011400117,1610612743,DEN,Denver,202702,Kenneth Faried,,DNP - Coach's Decision                  ,,,,,,,0.0,,,,,,,0.0,,,2014-10-24T00:00:00,8,1610612743,DEN,Denver,2-6,21,32,27,32,0,0,0,0,0,0,0,0,0,0,112,0.5,0.793,0.313,21,46,12,0011400117,1610612743,DEN,Denver,Kenneth Faried,,DNP - Coach's Decision                  ,,,,,,,,,,,,,
0011400117,1610612743,DEN,Denver,202702,Kenneth Faried,,DNP - Coach's Decision                  ,,,,,,,0.0,,,,,,,0.0,,,2014-10-24T00:00:00,8,1610612744,GSW,Golden State,6-2,29,36,28,26,0,0,0,0,0,0,0,0,0,0,119,0.512,0.655,0.429,35,37,12,0011400117,1610612743,DEN,Denver,Kenneth Faried,,DNP - Coach's Decision                  ,,,,,,,,,,,,,
0011400117,1610612743,DEN,Denver,201951,Ty Lawson,,DNP - Coach's Decision                  ,,,,,,,0.0,,,,,,,0.0,,,2014-10-24T00:00:00,8,1610612743,DEN,Denver,2-6,21,32,27,32,0,0,0,0,0,0,0,0,0,0,112,0.5,0.793,0.313,21,46,12,0011400117,1610612743,DEN,Denver,Ty Lawson,,DNP - Coach's Decision                  ,,,,,,,,,,,,,
0011400117,1610612743,DEN,Denver,201951,Ty Lawson,,DNP - Coach's Decision                  ,,,,,,,0.0,,,,,,,0.0,,,2014-10-24T00:00:00,8,1610612744,GSW,Golden State,6-2,29,36,28,26,0,0,0,0,0,0,0,0,0,0,119,0.512,0.655,0.429,35,37,12,0011400117,1610612743,DEN,Denver,Ty Lawson,,DNP - Coach's Decision                  ,,,,,,,,,,,,,
0011400117,1610612744,GSW,Golden State,203084,Harrison Barnes,F,,23:41,118.0,120.6,-2.5,0.0,0.0,0.0,0.0,0.118,0.051,0.0,0.5,0.45,0.081,99.43,0.0,2014-10-24T00:00:00,8,1610612743,DEN,Denver,2-6,21,32,27,32,0,0,0,0,0,0,0,0,0,0,112,0.5,0.793,0.313,21,46,12,0011400117,1610612744,GSW,Golden State,Harrison Barnes,F,,23:41,0.0,0.0,0.0,4.0,8.0,6.0,10.0,28.0,0.0,0.0,3.0,1.0
0011400117,1610612744,GSW,Golden State,203084,Harrison Barnes,F,,23:41,118.0,120.6,-2.5,0.0,0.0,0.0,0.0,0.118,0.051,0.0,0.5,0.45,0.081,99.43,0.0,2014-10-24T00:00:00,8,1610612744,GSW,Golden State,6-2,29,36,28,26,0,0,0,0,0,0,0,0,0,0,119,0.512,0.655,0.429,35,37,12,0011400117,1610612744,GSW,Golden State,Harrison Barnes,F,,23:41,0.0,0.0,0.0,4.0,8.0,6.0,10.0,28.0,0.0,0.0,3.0,1.0
0011400117,1610612744,GSW,Golden State,101135,David Lee,F,,27:07,107.1,104.8,2.3,0.143,0.6,16.0,0.04,0.273,0.149,26.7,0.444,0.511,0.237,104.33,0.061,2014-10-24T00:00:00,8,1610612743,DEN,Denver,2-6,21,32,27,32,0,0,0,0,0,0,0,0,0,0,112,0.5,0.793,0.313,21,46,12,0011400117,1610612744,GSW,Golden State,David Lee,F,,27:07,0.0,0.0,2.0,6.0,12.0,6.0,10.0,30.0,1.0,0.0,3.0,2.0
0011400117,1610612744,GSW,Golden State,101135,David Lee,F,,27:07,107.1,104.8,2.3,0.143,0.6,16.0,0.04,0.273,0.149,26.7,0.444,0.511,0.237,104.33,0.061,2014-10-24T00:00:00,8,1610612744,GSW,Golden State,6-2,29,36,28,26,0,0,0,0,0,0,0,0,0,0,119,0.512,0.655,0.429,35,37,12,0011400117,1610612744,GSW,Golden State,David Lee,F,,27:07,0.0,0.0,2.0,6.0,12.0,6.0,10.0,30.0,1.0,0.0,3.0,2.0
0011400117,1610612744,GSW,Golden State,101106,Andrew Bogut,C,,32:18,105.0,111.9,-6.9,0.348,8.0,50.4,0.103,0.208,0.151,6.3,1.0,0.872,0.103,104.23,0.171,2014-10-24T00:00:00,8,1610612743,DEN,Denver,2-6,21,32,27,32,0,0,0,0,0,0,0,0,0,0,112,0.5,0.793,0.313,21,46,12,0011400117,1610612744,GSW,Golden State,Andrew Bogut,C,,32:18,2.0,6.0,0.0,12.0,12.0,8.0,14.0,36.0,1.0,0.0,3.0,1.0
0011400117,1610612744,GSW,Golden State,101106,Andrew Bogut,C,,32:18,105.0,111.9,-6.9,0.348,8.0,50.4,0.103,0.208,0.151,6.3,1.0,0.872,0.103,104.23,0.171,2014-10-24T00:00:00,8,1610612744,GSW,Golden State,6-2,29,36,28,26,0,0,0,0,0,0,0,0,0,0,119,0.512,0.655,0.429,35,37,12,0011400117,1610612744,GSW,Golden State,Andrew Bogut,C,,32:18,2.0,6.0,0.0,12.0,12.0,8.0,14.0,36.0,1.0,0.0,3.0,1.0
0011400117,1610612744,GSW,Golden State,202691,Klay Thompson,G,,35:46,106.1,101.1,5.0,0.111,2.0,6.3,0.0,0.091,0.046,3.2,0.577,0.611,0.356,102.92,0.168,2014-10-24T00:00:00,8,1610612743,DEN,Denver,2-6,21,32,27,32,0,0,0,0,0,0,0,0,0,0,112,0.5,0.793,0.313,21,46,12,0011400117,1610612744,GSW,Golden State,Klay Thompson,G,,35:46,8.0,3.0,9.0,8.0,13.0,10.0,12.0,40.0,2.0,1.0,2.0,6.0
0011400117,1610612744,GSW,Golden State,202691,Klay Thompson,G,,35:46,106.1,101.1,5.0,0.111,2.0,6.3,0.0,0.091,0.046,3.2,0.577,0.611,0.356,102.92,0.168,2014-10-24T00:00:00,8,1610612744,GSW,Golden State,6-2,29,36,28,26,0,0,0,0,0,0,0,0,0,0,119,0.512,0.655,0.429,35,37,12,0011400117,1610612744,GSW,Golden State,Klay Thompson,G,,35:46,8.0,3.0,9.0,8.0,13.0,10.0,12.0,40.0,2.0,1.0,2.0,6.0
0011400117,1610612744,GSW,Golden State,201939,Stephen Curry,G,,34:22,110.9,111.0,-0.2,0.407,3.67,35.8,0.0,0.074,0.034,9.8,0.433,0.507,0.236,104.47,0.124,2014-10-24T00:00:00,8,1610612743,DEN,Denver,2-6,21,32,27,32,0,0,0,0,0,0,0,0,0,0,112,0.5,0.793,0.313,21,46,12,0011400117,1610612744,GSW,Golden State,Stephen Curry,G,,34:22,0.0,3.0,2.0,4.0,12.0,8.0,16.0,38.0,0.0,0.0,1.0,5.0
0011400117,1610612744,GSW,Golden State,201939,Stephen Curry,G,,34:22,110.9,111.0,-0.2,0.407,3.67,35.8,0.0,0.074,0.034,9.8,0.433,0.507,0.236,104.47,0.124,2014-10-24T00:00:00,8,1610612744,GSW,Golden State,6-2,29,36,28,26,0,0,0,0,0,0,0,0,0,0,119,0.512,0.655,0.429,35,37,12,0011400117,1610612744,GSW,Golden State,Stephen Curry,G,,34:22,0.0,3.0,2.0,4.0,12.0,8.0,16.0,38.0,0.0,0.0,1.0,5.0
0011400117,1610612744,GSW,Golden State,2738,Andre Iguodala,,,22:22,115.6,103.2,12.4,0.412,0.0,58.9,0.0,0.13,0.07,0.0,0.5,0.615,0.096,101.08,0.096,2014-10-24T00:00:00,8,1610612743,DEN,Denver,2-6,21,32,27,32,0,0,0,0,0,0,0,0,0,0,112,0.5,0.793,0.313,21,46,12,0011400117,1610612744,GSW,Golden State,Andre Iguodala,,,22:22,2.0,0.0,4.0,2.0,5.0,10.0,6.0,24.0,0.0,0.0,6.0,1.0
0011400117,1610612744,GSW,Golden State,2738,Andre Iguodala,,,22:22,115.6,103.2,12.4,0.412,0.0,58.9,0.0,0.13,0.07,0.0,0.5,0.615,0.096,101.08,0.096,2014-10-24T00:00:00,8,1610612744,GSW,Golden State,6-2,29,36,28,26,0,0,0,0,0,0,0,0,0,0,119,0.512,0.655,0.429,35,37,12,0011400117,1610612744,GSW,Golden State,Andre Iguodala,,,22:22,2.0,0.0,4.0,2.0,5.0,10.0,6.0,24.0,0.0,0.0,6.0,1.0
0011400117,1610612744,GSW,Golden State,203136,Ognjen Kuzmic,,,11:50,109.8,103.2,6.7,0.111,1.0,25.8,0.25,0.214,0.231,25.8,0.0,0.0,0.112,97.27,-0.011,2014-10-24T00:00:00,8,1610612743,DEN,Denver,2-6,21,32,27,32,0,0,0,0,0,0,0,0,0,0,112,0.5,0.793,0.313,21,46,12,0011400117,1610612744,GSW,Golden State,Ognjen Kuzmic,,,11:50,0.0,0.0,0.0,0.0,3.0,6.0,4.0,14.0,0.0,0.0,2.0,3.0
0011400117,1610612744,GSW,Golden State,203136,Ognjen Kuzmic,,,11:50,109.8,103.2,6.7,0.111,1.0,25.8,0.25,0.214,0.231,25.8,0.0,0.0,0.112,97.27,-0.011,2014-10-24T00:00:00,8,1610612744,GSW,Golden State,6-2,29,36,28,26,0,0,0,0,0,0,0,0,0,0,119,0.512,0.655,0.429,35,37,12,0011400117,1610612744,GSW,Golden State,Ognjen Kuzmic,,,11:50,0.0,0.0,0.0,0.0,3.0,6.0,4.0,14.0,0.0,0.0,2.0,3.0
0011400117,1610612744,GSW,Golden State,203110,Draymond Green,,,20:53,128.8,124.8,4.0,0.188,0.0,37.5,0.056,0.222,0.139,0.0,0.8,0.8,0.113,96.12,0.162,2014-10-24T00:00:00,8,1610612743,DEN,Denver,2-6,21,32,27,32,0,0,0,0,0,0,0,0,0,0,112,0.5,0.793,0.313,21,46,12,0011400117,1610612744,GSW,Golden State,Draymond Green,,,20:53,5.0,0.0,2.0,2.0,3.0,10.0,8.0,26.0,0.0,0.0,0.0,0.0
0011400117,1610612744,GSW,Golden State,203110,Draymond Green,,,20:53,128.8,124.8,4.0,0.188,0.0,37.5,0.056,0.222,0.139,0.0,0.8,0.8,0.113,96.12,0.162,2014-10-24T00:00:00,8,1610612744,GSW,Golden State,6-2,29,36,28,26,0,0,0,0,0,0,0,0,0,0,119,0.512,0.655,0.429,35,37,12,0011400117,1610612744,GSW,Golden State,Draymond Green,,,20:53,5.0,0.0,2.0,2.0,3.0,10.0,8.0,26.0,0.0,0.0,0.0,0.0
0011400117,1610612744,GSW,Golden State,2571,Leandro Barbosa,,,13:38,131.0,119.8,11.2,0.0,0.0,0.0,0.0,0.0,0.0,0.0,0.75,0.805,0.343,91.4,0.212,2014-10-24T00:00:00,8,1610612743,DEN,Denver,2-6,21,32,27,32,0,0,0,0,0,0,0,0,0,0,112,0.5,0.793,0.313,21,46,12,0011400117,1610612744,GSW,Golden State,Leandro Barbosa,,,13:38,0.0,2.0,3.0,6.0,3.0,8.0,2.0,18.0,0.0,0.0,1.0,4.0
0011400117,1610612744,GSW,Golden State,2571,Leandro Barbosa,,,13:38,131.0,119.8,11.2,0.0,0.0,0.0,0.0,0.0,0.0,0.0,0.75,0.805,0.343,91.4,0.212,2014-10-24T00:00:00,8,1610612744,GSW,Golden State,6-2,29,36,28,26,0,0,0,0,0,0,0,0,0,0,119,0.512,0.655,0.429,35,37,12,0011400117,1610612744,GSW,Golden State,Leandro Barbosa,,,13:38,0.0,2.0,3.0,6.0,3.0,8.0,2.0,18.0,0.0,0.0,1.0,4.0
0011400117,1610612744,GSW,Golden State,203200,Justin Holiday,,,14:11,138.0,152.2,-14.2,0.0,0.0,0.0,0.0,0.143,0.053,11.3,0.5,0.508,0.271,97.02,0.063,2014-10-24T00:00:00,8,1610612743,DEN,Denver,2-6,21,32,27,32,0,0,0,0,0,0,0,0,0,0,112,0.5,0.793,0.313,21,46,12,0011400117,1610612744,GSW,Golden State,Justin Holiday,,,14:11,0.0,0.0,0.0,4.0,4.0,6.0,8.0,20.0,0.0,1.0,0.0,2.0
0011400117,1610612744,GSW,Golden State,203200,Justin Holiday,,,14:11,138.0,152.2,-14.2,0.0,0.0,0.0,0.0,0.143,0.053,11.3,0.5,0.508,0.271,97.02,0.063,2014-10-24T00:00:00,8,1610612744,GSW,Golden State,6-2,29,36,28,26,0,0,0,0,0,0,0,0,0,0,119,0.512,0.655,0.429,35,37,12,0011400117,1610612744,GSW,Golden State,Justin Holiday,,,14:11,0.0,0.0,0.0,4.0,4.0,6.0,8.0,20.0,0.0,1.0,0.0,2.0
0011400117,1610612744,GSW,Golden State,203105,Festus Ezeli,,,3:52,235.6,177.3,58.3,0.0,0.0,0.0,0.0,0.0,0.0,0.0,1.0,0.647,0.269,82.43,0.0,2014-10-24T00:00:00,8,1610612743,DEN,Denver,2-6,21,32,27,32,0,0,0,0,0,0,0,0,0,0,112,0.5,0.793,0.313,21,46,12,0011400117,1610612744,GSW,Golden State,Festus Ezeli,,,3:52,0.0,0.0,0.0,2.0,0.0,2.0,0.0,6.0,0.0,0.0,1.0,2.0
0011400117,1610612744,GSW,Golden State,203105,Festus Ezeli,,,3:52,235.6,177.3,58.3,0.0,0.0,0.0,0.0,0.0,0.0,0.0,1.0,0.647,0.269,82.43,0.0,2014-10-24T00:00:00,8,1610612744,GSW,Golden State,6-2,29,36,28,26,0,0,0,0,0,0,0,0,0,0,119,0.512,0.655,0.429,35,37,12,0011400117,1610612744,GSW,Golden State,Festus Ezeli,,,3:52,0.0,0.0,0.0,2.0,0.0,2.0,0.0,6.0,0.0,0.0,1.0,2.0
0011400117,1610612744,GSW,Golden State,203905,Aaron Craft,,DNP - Coach's Decision                  ,,,,,,,0.0,,,,,,,0.0,,,2014-10-24T00:00:00,8,1610612743,DEN,Denver,2-6,21,32,27,32,0,0,0,0,0,0,0,0,0,0,112,0.5,0.793,0.313,21,46,12,0011400117,1610612744,GSW,Golden State,Aaron Craft,,DNP - Coach's Decision                  ,,,,,,,,,,,,,
0011400117,1610612744,GSW,Golden State,203905,Aaron Craft,,DNP - Coach's Decision                  ,,,,,,,0.0,,,,,,,0.0,,,2014-10-24T00:00:00,8,1610612744,GSW,Golden State,6-2,29,36,28,26,0,0,0,0,0,0,0,0,0,0,119,0.512,0.655,0.429,35,37,12,0011400117,1610612744,GSW,Golden State,Aaron Craft,,DNP - Coach's Decision                  ,,,,,,,,,,,,,
0011400117,1610612744,GSW,Golden State,2574,Jason Kapono,,DNP - Coach's Decision                  ,,,,,,,0.0,,,,,,,0.0,,,2014-10-24T00:00:00,8,1610612743,DEN,Denver,2-6,21,32,27,32,0,0,0,0,0,0,0,0,0,0,112,0.5,0.793,0.313,21,46,12,0011400117,1610612744,GSW,Golden State,Jason Kapono,,DNP - Coach's Decision                  ,,,,,,,,,,,,,
0011400117,1610612744,GSW,Golden State,2574,Jason Kapono,,DNP - Coach's Decision                  ,,,,,,,0.0,,,,,,,0.0,,,2014-10-24T00:00:00,8,1610612744,GSW,Golden State,6-2,29,36,28,26,0,0,0,0,0,0,0,0,0,0,119,0.512,0.655,0.429,35,37,12,0011400117,1610612744,GSW,Golden State,Jason Kapono,,DNP - Coach's Decision                  ,,,,,,,,,,,,,
0011400117,1610612744,GSW,Golden State,203930,Sean Kilpatrick,,DNP - Coach's Decision                  ,,,,,,,0.0,,,,,,,0.0,,,2014-10-24T00:00:00,8,1610612743,DEN,Denver,2-6,21,32,27,32,0,0,0,0,0,0,0,0,0,0,112,0.5,0.793,0.313,21,46,12,0011400117,1610612744,GSW,Golden State,Sean Kilpatrick,,DNP - Coach's Decision                  ,,,,,,,,,,,,,
0011400117,1610612744,GSW,Golden State,203930,Sean Kilpatrick,,DNP - Coach's Decision                  ,,,,,,,0.0,,,,,,,0.0,,,2014-10-24T00:00:00,8,1610612744,GSW,Golden State,6-2,29,36,28,26,0,0,0,0,0,0,0,0,0,0,119,0.512,0.655,0.429,35,37,12,0011400117,1610612744,GSW,Golden State,Sean Kilpatrick,,DNP - Coach's Decision                  ,,,,,,,,,,,,,
0011400117,1610612744,GSW,Golden State,2733,Shaun Livingston,,NWT - Recovery from Right Toe Surgery   ,,,,,,,0.0,,,,,,,0.0,,,2014-10-24T00:00:00,8,1610612743,DEN,Denver,2-6,21,32,27,32,0,0,0,0,0,0,0,0,0,0,112,0.5,0.793,0.313,21,46,12,0011400117,1610612744,GSW,Golden State,Shaun Livingston,,NWT - Recovery from Right Toe Surgery   ,,,,,,,,,,,,,
0011400117,1610612744,GSW,Golden State,2733,Shaun Livingston,,NWT - Recovery from Right Toe Surgery   ,,,,,,,0.0,,,,,,,0.0,,,2014-10-24T00:00:00,8,1610612744,GSW,Golden State,6-2,29,36,28,26,0,0,0,0,0,0,0,0,0,0,119,0.512,0.655,0.429,35,37,12,0011400117,1610612744,GSW,Golden State,Shaun Livingston,,NWT - Recovery from Right Toe Surgery   ,,,,,,,,,,,,,
0011400117,1610612744,GSW,Golden State,203949,James Michael McAdoo,,DNP - Coach's Decision                  ,,,,,,,0.0,,,,,,,0.0,,,2014-10-24T00:00:00,8,1610612743,DEN,Denver,2-6,21,32,27,32,0,0,0,0,0,0,0,0,0,0,112,0.5,0.793,0.313,21,46,12,0011400117,1610612744,GSW,Golden State,James Michael McAdoo,,DNP - Coach's Decision                  ,,,,,,,,,,,,,
0011400117,1610612744,GSW,Golden State,203949,James Michael McAdoo,,DNP - Coach's Decision                  ,,,,,,,0.0,,,,,,,0.0,,,2014-10-24T00:00:00,8,1610612744,GSW,Golden State,6-2,29,36,28,26,0,0,0,0,0,0,0,0,0,0,119,0.512,0.655,0.429,35,37,12,0011400117,1610612744,GSW,Golden State,James Michael McAdoo,,DNP - Coach's Decision                  ,,,,,,,,,,,,,
0011400117,1610612744,GSW,Golden State,203517,Nemanja Nedovic,,DNP - Coach's Decision                  ,,,,,,,0.0,,,,,,,0.0,,,2014-10-24T00:00:00,8,1610612743,DEN,Denver,2-6,21,32,27,32,0,0,0,0,0,0,0,0,0,0,112,0.5,0.793,0.313,21,46,12,0011400117,1610612744,GSW,Golden State,Nemanja Nedovic,,DNP - Coach's Decision                  ,,,,,,,,,,,,,
0011400117,1610612744,GSW,Golden State,203517,Nemanja Nedovic,,DNP - Coach's Decision                  ,,,,,,,0.0,,,,,,,0.0,,,2014-10-24T00:00:00,8,1610612744,GSW,Golden State,6-2,29,36,28,26,0,0,0,0,0,0,0,0,0,0,119,0.512,0.655,0.429,35,37,12,0011400117,1610612744,GSW,Golden State,Nemanja Nedovic,,DNP - Coach's Decision                  ,,,,,,,,,,,,,
0011400117,1610612744,GSW,Golden State,201575,Brandon Rush,,DND - Sarcal Stress Reaction            ,,,,,,,0.0,,,,,,,0.0,,,2014-10-24T00:00:00,8,1610612743,DEN,Denver,2-6,21,32,27,32,0,0,0,0,0,0,0,0,0,0,112,0.5,0.793,0.313,21,46,12,0011400117,1610612744,GSW,Golden State,Brandon Rush,,DND - Sarcal Stress Reaction            ,,,,,,,,,,,,,
0011400117,1610612744,GSW,Golden State,201575,Brandon Rush,,DND - Sarcal Stress Reaction            ,,,,,,,0.0,,,,,,,0.0,,,2014-10-24T00:00:00,8,1610612744,GSW,Golden State,6-2,29,36,28,26,0,0,0,0,0,0,0,0,0,0,119,0.512,0.655,0.429,35,37,12,0011400117,1610612744,GSW,Golden State,Brandon Rush,,DND - Sarcal Stress Reaction            ,,,,,,,,,,,,,
0011400117,1610612744,GSW,Golden State,201578,Marreese Speights,,DNP - Coach's Decision                  ,,,,,,,0.0,,,,,,,0.0,,,2014-10-24T00:00:00,8,1610612743,DEN,Denver,2-6,21,32,27,32,0,0,0,0,0,0,0,0,0,0,112,0.5,0.793,0.313,21,46,12,0011400117,1610612744,GSW,Golden State,Marreese Speights,,DNP - Coach's Decision                  ,,,,,,,,,,,,,
0011400117,1610612744,GSW,Golden State,201578,Marreese Speights,,DNP - Coach's Decision                  ,,,,,,,0.0,,,,,,,0.0,,,2014-10-24T00:00:00,8,1610612744,GSW,Golden State,6-2,29,36,28,26,0,0,0,0,0,0,0,0,0,0,119,0.512,0.655,0.429,35,37,12,0011400117,1610612744,GSW,Golden State,Marreese Speights,,DNP - Coach's Decision                  ,,,,,,,,,,,,,
0011400117,1610612744,GSW,Golden State,204030,Mitchell Watt,,DNP - Coach's Decision                  ,,,,,,,0.0,,,,,,,0.0,,,2014-10-24T00:00:00,8,1610612743,DEN,Denver,2-6,21,32,27,32,0,0,0,0,0,0,0,0,0,0,112,0.5,0.793,0.313,21,46,12,0011400117,1610612744,GSW,Golden State,Mitchell Watt,,DNP - Coach's Decision                  ,,,,,,,,,,,,,
0011400117,1610612744,GSW,Golden State,204030,Mitchell Watt,,DNP - Coach's Decision                  ,,,,,,,0.0,,,,,,,0.0,,,2014-10-24T00:00:00,8,1610612744,GSW,Golden State,6-2,29,36,28,26,0,0,0,0,0,0,0,0,0,0,119,0.512,0.655,0.429,35,37,12,0011400117,1610612744,GSW,Golden State,Mitchell Watt,,DNP - Coach's Decision                  ,,,,,,,,,,,,,
