GAME_ID_x,TEAM_ID_x,TEAM_ABBREVIATION_x,TEAM_CITY_x,PLAYER_ID,PLAYER_NAME_x,START_POSITION_x,COMMENT_x,MIN_x,OFF_RATING,DEF_RATING,NET_RATING,AST_PCT,AST_TOV,AST_RATIO,OREB_PCT,DREB_PCT,REB_PCT,TM_TOV_PCT,EFG_PCT,TS_PCT,USG_PCT,PACE,PIE,GAME_DATE_EST,GAME_SEQUENCE,TEAM_ID_y,TEAM_ABBREVIATION_y,TEAM_CITY_NAME,TEAM_WINS_LOSSES,PTS_QTR1,PTS_QTR2,PTS_QTR3,PTS_QTR4,PTS_OT1,PTS_OT2,PTS_OT3,PTS_OT4,PTS_OT5,PTS_OT6,PTS_OT7,PTS_OT8,PTS_OT9,PTS_OT10,PTS,FG_PCT,FT_PCT,FG3_PCT,AST,REB,TOV,GAME_ID_y,TEAM_ID,TEAM_ABBREVIATION,TEAM_CITY_y,PLAYER_NAME_y,START_POSITION_y,COMMENT_y,MIN_y,PTS_OFF_TOV,PTS_2ND_CHANCE,PTS_FB,PTS_PAINT,OPP_PTS_OFF_TOV,OPP_PTS_2ND_CHANCE,OPP_PTS_FB,OPP_PTS_PAINT,BLK,BLKA,PF,PFD
0011400115,1610612758,SAC,Sacramento,200752,Rudy Gay,F,,15:11,103.1,106.9,-3.8,0.0,0.0,0.0,0.0,0.143,0.08,12.7,0.5,0.581,0.246,97.88,0.077,2014-10-24T00:00:00,7,1610612758,SAC,Sacramento,3-4,22,27,15,29,0,0,0,0,0,0,0,0,0,0,93,0.41,0.742,0.5,20,44,10,0011400115,1610612758,SAC,Sacramento,Rudy Gay,F,,15:11,0.0,0.0,0.0,4.0,8.0,4.0,3.0,8.0,0.0,0.0,2.0,2.0
0011400115,1610612758,SAC,Sacramento,200752,Rudy Gay,F,,15:11,103.1,106.9,-3.8,0.0,0.0,0.0,0.0,0.143,0.08,12.7,0.5,0.581,0.246,97.88,0.077,2014-10-24T00:00:00,7,1610612747,LAL,Los Angeles,3-5,26,22,28,16,0,0,0,0,0,0,0,0,0,0,92,0.463,0.688,0.467,23,39,10,0011400115,1610612758,SAC,Sacramento,Rudy Gay,F,,15:11,0.0,0.0,0.0,4.0,8.0,4.0,3.0,8.0,0.0,0.0,2.0,2.0
0011400115,1610612758,SAC,Sacramento,201574,Jason Thompson,F,,18:11,89.0,129.9,-40.9,0.0,0.0,0.0,0.0,0.3,0.136,45.0,0.5,0.41,0.124,90.7,-0.031,2014-10-24T00:00:00,7,1610612758,SAC,Sacramento,3-4,22,27,15,29,0,0,0,0,0,0,0,0,0,0,93,0.41,0.742,0.5,20,44,10,0011400115,1610612758,SAC,Sacramento,Jason Thompson,F,,18:11,0.0,0.0,0.0,2.0,8.0,4.0,5.0,16.0,0.0,0.0,3.0,2.0
0011400115,1610612758,SAC,Sacramento,201574,Jason Thompson,F,,18:11,89.0,129.9,-40.9,0.0,0.0,0.0,0.0,0.3,0.136,45.0,0.5,0.41,0.124,90.7,-0.031,2014-10-24T00:00:00,7,1610612747,LAL,Los Angeles,3-5,26,22,28,16,0,0,0,0,0,0,0,0,0,0,92,0.463,0.688,0.467,23,39,10,0011400115,1610612758,SAC,Sacramento,Jason Thompson,F,,18:11,0.0,0.0,0.0,2.0,8.0,4.0,5.0,16.0,0.0,0.0,3.0,2.0
0011400115,1610612758,SAC,Sacramento,202326,DeMarcus Cousins,C,,26:11,85.6,114.5,-28.9,0.571,2.0,17.6,0.048,0.474,0.25,8.8,0.636,0.628,0.365,92.47,0.267,2014-10-24T00:00:00,7,1610612758,SAC,Sacramento,3-4,22,27,15,29,0,0,0,0,0,0,0,0,0,0,93,0.41,0.742,0.5,20,44,10,0011400115,1610612758,SAC,Sacramento,DeMarcus Cousins,C,,26:11,0.0,3.0,0.0,12.0,10.0,4.0,5.0,16.0,2.0,0.0,2.0,8.0
0011400115,1610612758,SAC,Sacramento,202326,DeMarcus Cousins,C,,26:11,85.6,114.5,-28.9,0.571,2.0,17.6,0.048,0.474,0.25,8.8,0.636,0.628,0.365,92.47,0.267,2014-10-24T00:00:00,7,1610612747,LAL,Los Angeles,3-5,26,22,28,16,0,0,0,0,0,0,0,0,0,0,92,0.463,0.688,0.467,23,39,10,0011400115,1610612758,SAC,Sacramento,DeMarcus Cousins,C,,26:11,0.0,3.0,0.0,12.0,10.0,4.0,5.0,16.0,2.0,0.0,2.0,8.0
0011400115,1610612758,SAC,Sacramento,203463,Ben McLemore,G,,23:43,87.3,116.7,-29.4,0.071,1.0,11.1,0.0,0.0,0.0,11.1,0.214,0.214,0.165,86.54,-0.027,2014-10-24T00:00:00,7,1610612758,SAC,Sacramento,3-4,22,27,15,29,0,0,0,0,0,0,0,0,0,0,93,0.41,0.742,0.5,20,44,10,0011400115,1610612758,SAC,Sacramento,Ben McLemore,G,,23:43,0.0,0.0,0.0,0.0,6.0,4.0,9.0,22.0,0.0,0.0,1.0,1.0
0011400115,1610612758,SAC,Sacramento,203463,Ben McLemore,G,,23:43,87.3,116.7,-29.4,0.071,1.0,11.1,0.0,0.0,0.0,11.1,0.214,0.214,0.165,86.54,-0.027,2014-10-24T00:00:00,7,1610612747,LAL,Los Angeles,3-5,26,22,28,16,0,0,0,0,0,0,0,0,0,0,92,0.463,0.688,0.467,23,39,10,0011400115,1610612758,SAC,Sacramento,Ben McLemore,G,,23:43,0.0,0.0,0.0,0.0,6.0,4.0,9.0,22.0,0.0,0.0,1.0,1.0
0011400115,1610612758,SAC,Sacramento,201954,Darren Collison,G,,22:04,85.1,123.6,-38.5,0.167,2.0,27.3,0.0,0.077,0.034,13.7,0.0,0.347,0.12,93.93,-0.014,2014-10-24T00:00:00,7,1610612758,SAC,Sacramento,3-4,22,27,15,29,0,0,0,0,0,0,0,0,0,0,93,0.41,0.742,0.5,20,44,10,0011400115,1610612758,SAC,Sacramento,Darren Collison,G,,22:04,0.0,0.0,0.0,0.0,10.0,4.0,5.0,16.0,0.0,0.0,3.0,2.0
0011400115,1610612758,SAC,Sacramento,201954,Darren Collison,G,,22:04,85.1,123.6,-38.5,0.167,2.0,27.3,0.0,0.077,0.034,13.7,0.0,0.347,0.12,93.93,-0.014,2014-10-24T00:00:00,7,1610612747,LAL,Los Angeles,3-5,26,22,28,16,0,0,0,0,0,0,0,0,0,0,92,0.463,0.688,0.467,23,39,10,0011400115,1610612758,SAC,Sacramento,Darren Collison,G,,22:04,0.0,0.0,0.0,0.0,10.0,4.0,5.0,16.0,0.0,0.0,3.0,2.0
0011400115,1610612758,SAC,Sacramento,203917,Nik Stauskas,,,27:36,113.1,77.1,36.0,0.0,0.0,0.0,0.0,0.138,0.069,0.0,0.5,0.563,0.141,93.11,0.112,2014-10-24T00:00:00,7,1610612758,SAC,Sacramento,3-4,22,27,15,29,0,0,0,0,0,0,0,0,0,0,93,0.41,0.742,0.5,20,44,10,0011400115,1610612758,SAC,Sacramento,Nik Stauskas,,,27:36,0.0,0.0,3.0,2.0,2.0,4.0,4.0,22.0,0.0,0.0,1.0,1.0
0011400115,1610612758,SAC,Sacramento,203917,Nik Stauskas,,,27:36,113.1,77.1,36.0,0.0,0.0,0.0,0.0,0.138,0.069,0.0,0.5,0.563,0.141,93.11,0.112,2014-10-24T00:00:00,7,1610612747,LAL,Los Angeles,3-5,26,22,28,16,0,0,0,0,0,0,0,0,0,0,92,0.463,0.688,0.467,23,39,10,0011400115,1610612758,SAC,Sacramento,Nik Stauskas,,,27:36,0.0,0.0,3.0,2.0,2.0,4.0,4.0,22.0,0.0,0.0,1.0,1.0
0011400115,1610612758,SAC,Sacramento,201171,Carl Landry,,,23:16,110.2,81.7,28.5,0.143,2.0,14.3,0.0,0.182,0.083,7.1,0.364,0.364,0.217,94.45,0.05,2014-10-24T00:00:00,7,1610612758,SAC,Sacramento,3-4,22,27,15,29,0,0,0,0,0,0,0,0,0,0,93,0.41,0.742,0.5,20,44,10,0011400115,1610612758,SAC,Sacramento,Carl Landry,,,23:16,0.0,0.0,2.0,4.0,2.0,4.0,4.0,22.0,0.0,0.0,3.0,0.0
0011400115,1610612758,SAC,Sacramento,201171,Carl Landry,,,23:16,110.2,81.7,28.5,0.143,2.0,14.3,0.0,0.182,0.083,7.1,0.364,0.364,0.217,94.45,0.05,2014-10-24T00:00:00,7,1610612747,LAL,Los Angeles,3-5,26,22,28,16,0,0,0,0,0,0,0,0,0,0,92,0.463,0.688,0.467,23,39,10,0011400115,1610612758,SAC,Sacramento,Carl Landry,,,23:16,0.0,0.0,2.0,4.0,2.0,4.0,4.0,22.0,0.0,0.0,3.0,0.0
0011400115,1610612758,SAC,Sacramento,201196,Ramon Sessions,,,27:08,95.1,97.6,-2.5,0.667,0.0,40.7,0.0,0.045,0.019,0.0,0.444,0.558,0.203,90.89,0.199,2014-10-24T00:00:00,7,1610612758,SAC,Sacramento,3-4,22,27,15,29,0,0,0,0,0,0,0,0,0,0,93,0.41,0.742,0.5,20,44,10,0011400115,1610612758,SAC,Sacramento,Ramon Sessions,,,27:08,2.0,0.0,4.0,8.0,6.0,2.0,4.0,24.0,0.0,0.0,1.0,5.0
0011400115,1610612758,SAC,Sacramento,201196,Ramon Sessions,,,27:08,95.1,97.6,-2.5,0.667,0.0,40.7,0.0,0.045,0.019,0.0,0.444,0.558,0.203,90.89,0.199,2014-10-24T00:00:00,7,1610612747,LAL,Los Angeles,3-5,26,22,28,16,0,0,0,0,0,0,0,0,0,0,92,0.463,0.688,0.467,23,39,10,0011400115,1610612758,SAC,Sacramento,Ramon Sessions,,,27:08,2.0,0.0,4.0,8.0,6.0,2.0,4.0,24.0,0.0,0.0,1.0,5.0
0011400115,1610612758,SAC,Sacramento,2501,Reggie Evans,,,23:11,112.9,81.3,31.6,0.167,3.0,30.0,0.28,0.429,0.348,10.0,0.0,0.0,0.131,91.68,0.112,2014-10-24T00:00:00,7,1610612758,SAC,Sacramento,3-4,22,27,15,29,0,0,0,0,0,0,0,0,0,0,93,0.41,0.742,0.5,20,44,10,0011400115,1610612758,SAC,Sacramento,Reggie Evans,,,23:11,0.0,0.0,0.0,0.0,2.0,4.0,4.0,22.0,0.0,0.0,2.0,4.0
0011400115,1610612758,SAC,Sacramento,2501,Reggie Evans,,,23:11,112.9,81.3,31.6,0.167,3.0,30.0,0.28,0.429,0.348,10.0,0.0,0.0,0.131,91.68,0.112,2014-10-24T00:00:00,7,1610612747,LAL,Los Angeles,3-5,26,22,28,16,0,0,0,0,0,0,0,0,0,0,92,0.463,0.688,0.467,23,39,10,0011400115,1610612758,SAC,Sacramento,Reggie Evans,,,23:11,0.0,0.0,0.0,0.0,2.0,4.0,4.0,22.0,0.0,0.0,2.0,4.0
0011400115,1610612758,SAC,Sacramento,202682,Derrick Williams,,,25:25,94.5,107.4,-12.9,0.0,0.0,0.0,0.05,0.0,0.026,8.4,0.6,0.643,0.245,88.65,0.113,2014-10-24T00:00:00,7,1610612758,SAC,Sacramento,3-4,22,27,15,29,0,0,0,0,0,0,0,0,0,0,93,0.41,0.742,0.5,20,44,10,0011400115,1610612758,SAC,Sacramento,Derrick Williams,,,25:25,0.0,2.0,2.0,6.0,6.0,2.0,2.0,18.0,0.0,0.0,1.0,2.0
0011400115,1610612758,SAC,Sacramento,202682,Derrick Williams,,,25:25,94.5,107.4,-12.9,0.0,0.0,0.0,0.05,0.0,0.026,8.4,0.6,0.643,0.245,88.65,0.113,2014-10-24T00:00:00,7,1610612747,LAL,Los Angeles,3-5,26,22,28,16,0,0,0,0,0,0,0,0,0,0,92,0.463,0.688,0.467,23,39,10,0011400115,1610612758,SAC,Sacramento,Derrick Williams,,,25:25,0.0,2.0,2.0,6.0,6.0,2.0,2.0,18.0,0.0,0.0,1.0,2.0
0011400115,1610612758,SAC,Sacramento,203492,Ray McCallum,,,4:12,164.7,34.2,130.5,0.0,0.0,0.0,0.25,0.0,0.091,0.0,0.875,0.875,0.325,109.03,0.591,2014-10-24T00:00:00,7,1610612758,SAC,Sacramento,3-4,22,27,15,29,0,0,0,0,0,0,0,0,0,0,93,0.41,0.742,0.5,20,44,10,0011400115,1610612758,SAC,Sacramento,Ray McCallum,,,4:12,0.0,2.0,0.0,2.0,0.0,2.0,0.0,2.0,0.0,0.0,0.0,0.0
0011400115,1610612758,SAC,Sacramento,203492,Ray McCallum,,,4:12,164.7,34.2,130.5,0.0,0.0,0.0,0.25,0.0,0.091,0.0,0.875,0.875,0.325,109.03,0.591,2014-10-24T00:00:00,7,1610612747,LAL,Los Angeles,3-5,26,22,28,16,0,0,0,0,0,0,0,0,0,0,92,0.463,0.688,0.467,23,39,10,0011400115,1610612758,SAC,Sacramento,Ray McCallum,,,4:12,0.0,2.0,0.0,2.0,0.0,2.0,0.0,2.0,0.0,0.0,0.0,0.0
0011400115,1610612758,SAC,Sacramento,201234,Trey Johnson,,,3:52,150.2,38.7,111.6,0.0,0.0,0.0,0.0,0.143,0.091,0.0,1.0,1.064,0.166,106.01,0.5,2014-10-24T00:00:00,7,1610612758,SAC,Sacramento,3-4,22,27,15,29,0,0,0,0,0,0,0,0,0,0,93,0.41,0.742,0.5,20,44,10,0011400115,1610612758,SAC,Sacramento,Trey Johnson,,,3:52,2.0,0.0,2.0,0.0,0.0,2.0,0.0,2.0,0.0,0.0,1.0,1.0
0011400115,1610612758,SAC,Sacramento,201234,Trey Johnson,,,3:52,150.2,38.7,111.6,0.0,0.0,0.0,0.0,0.143,0.091,0.0,1.0,1.064,0.166,106.01,0.5,2014-10-24T00:00:00,7,1610612747,LAL,Los Angeles,3-5,26,22,28,16,0,0,0,0,0,0,0,0,0,0,92,0.463,0.688,0.467,23,39,10,0011400115,1610612758,SAC,Sacramento,Trey Johnson,,,3:52,2.0,0.0,2.0,0.0,0.0,2.0,0.0,2.0,0.0,0.0,1.0,1.0
0011400115,1610612758,SAC,Sacramento,201956,Omri Casspi,,DNP - Coach's Decision                  ,,,,,,,0.0,,,,,,,0.0,,,2014-10-24T00:00:00,7,1610612758,SAC,Sacramento,3-4,22,27,15,29,0,0,0,0,0,0,0,0,0,0,93,0.41,0.742,0.5,20,44,10,0011400115,1610612758,SAC,Sacramento,Omri Casspi,,DNP - Coach's Decision                  ,,,,,,,,,,,,,
0011400115,1610612758,SAC,Sacramento,201956,Omri Casspi,,DNP - Coach's Decision                  ,,,,,,,0.0,,,,,,,0.0,,,2014-10-24T00:00:00,7,1610612747,LAL,Los Angeles,3-5,26,22,28,16,0,0,0,0,0,0,0,0,0,0,92,0.463,0.688,0.467,23,39,10,0011400115,1610612758,SAC,Sacramento,Omri Casspi,,DNP - Coach's Decision                  ,,,,,,,,,,,,,
0011400115,1610612758,SAC,Sacramento,200797,Ryan Hollins,,DNP - Coach's Decision                  ,,,,,,,0.0,,,,,,,0.0,,,2014-10-24T00:00:00,7,1610612758,SAC,Sacramento,3-4,22,27,15,29,0,0,0,0,0,0,0,0,0,0,93,0.41,0.742,0.5,20,44,10,0011400115,1610612758,SAC,Sacramento,Ryan Hollins,,DNP - Coach's Decision                  ,,,,,,,,,,,,,
0011400115,1610612758,SAC,Sacramento,200797,Ryan Hollins,,DNP - Coach's Decision                  ,,,,,,,0.0,,,,,,,0.0,,,2014-10-24T00:00:00,7,1610612747,LAL,Los Angeles,3-5,26,22,28,16,0,0,0,0,0,0,0,0,0,0,92,0.463,0.688,0.467,23,39,10,0011400115,1610612758,SAC,Sacramento,Ryan Hollins,,DNP - Coach's Decision                  ,,,,,,,,,,,,,
0011400115,1610612758,SAC,Sacramento,203961,Eric Moreland,,DNP - Coach's Decision                  ,,,,,,,0.0,,,,,,,0.0,,,2014-10-24T00:00:00,7,1610612758,SAC,Sacramento,3-4,22,27,15,29,0,0,0,0,0,0,0,0,0,0,93,0.41,0.742,0.5,20,44,10,0011400115,1610612758,SAC,Sacramento,Eric Moreland,,DNP - Coach's Decision                  ,,,,,,,,,,,,,
0011400115,1610612758,SAC,Sacramento,203961,Eric Moreland,,DNP - Coach's Decision                  ,,,,,,,0.0,,,,,,,0.0,,,2014-10-24T00:00:00,7,1610612747,LAL,Los Angeles,3-5,26,22,28,16,0,0,0,0,0,0,0,0,0,0,92,0.463,0.688,0.467,23,39,10,0011400115,1610612758,SAC,Sacramento,Eric Moreland,,DNP - Coach's Decision                  ,,,,,,,,,,,,,
0011400115,1610612747,LAL,Los Angeles,202325,Wesley Johnson,F,,26:29,120.5,82.2,38.3,0.045,1.0,12.5,0.0,0.136,0.077,12.5,0.667,0.667,0.136,92.2,0.101,2014-10-24T00:00:00,7,1610612758,SAC,Sacramento,3-4,22,27,15,29,0,0,0,0,0,0,0,0,0,0,93,0.41,0.742,0.5,20,44,10,0011400115,1610612747,LAL,Los Angeles,Wesley Johnson,F,,26:29,0.0,0.0,3.0,0.0,0.0,3.0,0.0,18.0,0.0,1.0,0.0,1.0
0011400115,1610612747,LAL,Los Angeles,202325,Wesley Johnson,F,,26:29,120.5,82.2,38.3,0.045,1.0,12.5,0.0,0.136,0.077,12.5,0.667,0.667,0.136,92.2,0.101,2014-10-24T00:00:00,7,1610612747,LAL,Los Angeles,3-5,26,22,28,16,0,0,0,0,0,0,0,0,0,0,92,0.463,0.688,0.467,23,39,10,0011400115,1610612747,LAL,Los Angeles,Wesley Johnson,F,,26:29,0.0,0.0,3.0,0.0,0.0,3.0,0.0,18.0,0.0,1.0,0.0,1.0
0011400115,1610612747,LAL,Los Angeles,202334,Ed Davis,F,,30:11,111.3,90.5,20.9,0.2,0.0,27.1,0.091,0.458,0.283,0.0,0.667,0.697,0.173,94.61,0.279,2014-10-24T00:00:00,7,1610612758,SAC,Sacramento,3-4,22,27,15,29,0,0,0,0,0,0,0,0,0,0,93,0.41,0.742,0.5,20,44,10,0011400115,1610612747,LAL,Los Angeles,Ed Davis,F,,30:11,4.0,8.0,0.0,12.0,2.0,3.0,5.0,20.0,0.0,0.0,3.0,5.0
0011400115,1610612747,LAL,Los Angeles,202334,Ed Davis,F,,30:11,111.3,90.5,20.9,0.2,0.0,27.1,0.091,0.458,0.283,0.0,0.667,0.697,0.173,94.61,0.279,2014-10-24T00:00:00,7,1610612747,LAL,Los Angeles,3-5,26,22,28,16,0,0,0,0,0,0,0,0,0,0,92,0.463,0.688,0.467,23,39,10,0011400115,1610612747,LAL,Los Angeles,Ed Davis,F,,30:11,4.0,8.0,0.0,12.0,2.0,3.0,5.0,20.0,0.0,0.0,3.0,5.0
0011400115,1610612747,LAL,Los Angeles,203135,Robert Sacre,C,,26:07,102.7,107.1,-4.5,0.0,0.0,0.0,0.048,0.16,0.109,6.7,0.429,0.429,0.296,89.29,0.03,2014-10-24T00:00:00,7,1610612758,SAC,Sacramento,3-4,22,27,15,29,0,0,0,0,0,0,0,0,0,0,93,0.41,0.742,0.5,20,44,10,0011400115,1610612747,LAL,Los Angeles,Robert Sacre,C,,26:07,2.0,0.0,2.0,2.0,2.0,4.0,7.0,26.0,0.0,1.0,5.0,2.0
0011400115,1610612747,LAL,Los Angeles,203135,Robert Sacre,C,,26:07,102.7,107.1,-4.5,0.0,0.0,0.0,0.048,0.16,0.109,6.7,0.429,0.429,0.296,89.29,0.03,2014-10-24T00:00:00,7,1610612747,LAL,Los Angeles,3-5,26,22,28,16,0,0,0,0,0,0,0,0,0,0,92,0.463,0.688,0.467,23,39,10,0011400115,1610612747,LAL,Los Angeles,Robert Sacre,C,,26:07,2.0,0.0,2.0,2.0,2.0,4.0,7.0,26.0,0.0,1.0,5.0,2.0
0011400115,1610612747,LAL,Los Angeles,201961,Wayne Ellington,G,,26:20,108.5,113.4,-4.9,0.238,0.0,37.2,0.0,0.0,0.0,0.0,0.313,0.355,0.163,87.93,0.022,2014-10-24T00:00:00,7,1610612758,SAC,Sacramento,3-4,22,27,15,29,0,0,0,0,0,0,0,0,0,0,93,0.41,0.742,0.5,20,44,10,0011400115,1610612747,LAL,Los Angeles,Wayne Ellington,G,,26:20,0.0,0.0,0.0,0.0,2.0,4.0,6.0,26.0,0.0,0.0,4.0,0.0
0011400115,1610612747,LAL,Los Angeles,201961,Wayne Ellington,G,,26:20,108.5,113.4,-4.9,0.238,0.0,37.2,0.0,0.0,0.0,0.0,0.313,0.355,0.163,87.93,0.022,2014-10-24T00:00:00,7,1610612747,LAL,Los Angeles,3-5,26,22,28,16,0,0,0,0,0,0,0,0,0,0,92,0.463,0.688,0.467,23,39,10,0011400115,1610612747,LAL,Los Angeles,Wayne Ellington,G,,26:20,0.0,0.0,0.0,0.0,2.0,4.0,6.0,26.0,0.0,0.0,4.0,0.0
0011400115,1610612747,LAL,Los Angeles,101179,Ronnie Price,G,,2:47,116.7,93.2,23.5,0.333,0.0,50.0,0.0,0.0,0.0,0.0,0.0,0.0,0.143,107.27,-0.105,2014-10-24T00:00:00,7,1610612758,SAC,Sacramento,3-4,22,27,15,29,0,0,0,0,0,0,0,0,0,0,93,0.41,0.742,0.5,20,44,10,0011400115,1610612747,LAL,Los Angeles,Ronnie Price,G,,2:47,0.0,0.0,0.0,0.0,0.0,0.0,0.0,4.0,0.0,0.0,1.0,1.0
0011400115,1610612747,LAL,Los Angeles,101179,Ronnie Price,G,,2:47,116.7,93.2,23.5,0.333,0.0,50.0,0.0,0.0,0.0,0.0,0.0,0.0,0.143,107.27,-0.105,2014-10-24T00:00:00,7,1610612747,LAL,Los Angeles,3-5,26,22,28,16,0,0,0,0,0,0,0,0,0,0,92,0.463,0.688,0.467,23,39,10,0011400115,1610612747,LAL,Los Angeles,Ronnie Price,G,,2:47,0.0,0.0,0.0,0.0,0.0,0.0,0.0,4.0,0.0,0.0,1.0,1.0
0011400115,1610612747,LAL,Los Angeles,202391,Jeremy Lin,,,31:59,99.7,102.9,-3.1,0.368,2.33,28.4,0.0,0.04,0.021,12.2,0.583,0.649,0.271,93.35,0.145,2014-10-24T00:00:00,7,1610612758,SAC,Sacramento,3-4,22,27,15,29,0,0,0,0,0,0,0,0,0,0,93,0.41,0.742,0.5,20,44,10,0011400115,1610612747,LAL,Los Angeles,Jeremy Lin,,,31:59,4.0,0.0,0.0,8.0,4.0,7.0,9.0,24.0,0.0,0.0,5.0,5.0
0011400115,1610612747,LAL,Los Angeles,202391,Jeremy Lin,,,31:59,99.7,102.9,-3.1,0.368,2.33,28.4,0.0,0.04,0.021,12.2,0.583,0.649,0.271,93.35,0.145,2014-10-24T00:00:00,7,1610612747,LAL,Los Angeles,3-5,26,22,28,16,0,0,0,0,0,0,0,0,0,0,92,0.463,0.688,0.467,23,39,10,0011400115,1610612747,LAL,Los Angeles,Jeremy Lin,,,31:59,4.0,0.0,0.0,8.0,4.0,7.0,9.0,24.0,0.0,0.0,5.0,5.0
0011400115,1610612747,LAL,Los Angeles,203944,Julius Randle,,,29:46,97.8,93.8,4.0,0.125,0.67,11.5,0.0,0.281,0.158,17.2,0.5,0.482,0.256,93.38,0.117,2014-10-24T00:00:00,7,1610612758,SAC,Sacramento,3-4,22,27,15,29,0,0,0,0,0,0,0,0,0,0,93,0.41,0.742,0.5,20,44,10,0011400115,1610612747,LAL,Los Angeles,Julius Randle,,,29:46,0.0,0.0,0.0,8.0,2.0,5.0,8.0,22.0,0.0,0.0,4.0,1.0
0011400115,1610612747,LAL,Los Angeles,203944,Julius Randle,,,29:46,97.8,93.8,4.0,0.125,0.67,11.5,0.0,0.281,0.158,17.2,0.5,0.482,0.256,93.38,0.117,2014-10-24T00:00:00,7,1610612747,LAL,Los Angeles,3-5,26,22,28,16,0,0,0,0,0,0,0,0,0,0,92,0.463,0.688,0.467,23,39,10,0011400115,1610612747,LAL,Los Angeles,Julius Randle,,,29:46,0.0,0.0,0.0,8.0,2.0,5.0,8.0,22.0,0.0,0.0,4.0,1.0
0011400115,1610612747,LAL,Los Angeles,203903,Jordan Clarkson,,,31:01,83.6,102.3,-18.8,0.2,1.5,18.9,0.0,0.0,0.0,12.6,0.45,0.506,0.198,95.64,0.025,2014-10-24T00:00:00,7,1610612758,SAC,Sacramento,3-4,22,27,15,29,0,0,0,0,0,0,0,0,0,0,93,0.41,0.742,0.5,20,44,10,0011400115,1610612747,LAL,Los Angeles,Jordan Clarkson,,,31:01,2.0,0.0,2.0,2.0,4.0,5.0,13.0,26.0,0.0,0.0,5.0,2.0
0011400115,1610612747,LAL,Los Angeles,203903,Jordan Clarkson,,,31:01,83.6,102.3,-18.8,0.2,1.5,18.9,0.0,0.0,0.0,12.6,0.45,0.506,0.198,95.64,0.025,2014-10-24T00:00:00,7,1610612747,LAL,Los Angeles,3-5,26,22,28,16,0,0,0,0,0,0,0,0,0,0,92,0.463,0.688,0.467,23,39,10,0011400115,1610612747,LAL,Los Angeles,Jordan Clarkson,,,31:01,2.0,0.0,2.0,2.0,4.0,5.0,13.0,26.0,0.0,0.0,5.0,2.0
0011400115,1610612747,LAL,Los Angeles,203964,Roscoe Smith,,,22:06,73.1,119.9,-46.8,0.0,0.0,0.0,0.091,0.174,0.133,0.0,0.5,0.41,0.105,92.24,0.068,2014-10-24T00:00:00,7,1610612758,SAC,Sacramento,3-4,22,27,15,29,0,0,0,0,0,0,0,0,0,0,93,0.41,0.742,0.5,20,44,10,0011400115,1610612747,LAL,Los Angeles,Roscoe Smith,,,22:06,0.0,0.0,2.0,4.0,4.0,4.0,13.0,22.0,0.0,0.0,1.0,3.0
0011400115,1610612747,LAL,Los Angeles,203964,Roscoe Smith,,,22:06,73.1,119.9,-46.8,0.0,0.0,0.0,0.091,0.174,0.133,0.0,0.5,0.41,0.105,92.24,0.068,2014-10-24T00:00:00,7,1610612747,LAL,Los Angeles,3-5,26,22,28,16,0,0,0,0,0,0,0,0,0,0,92,0.463,0.688,0.467,23,39,10,0011400115,1610612747,LAL,Los Angeles,Roscoe Smith,,,22:06,0.0,0.0,2.0,4.0,4.0,4.0,13.0,22.0,0.0,0.0,1.0,3.0
0011400115,1610612747,LAL,Los Angeles,203913,Jabari Brown,,,13:14,96.2,96.2,0.0,0.0,0.0,0.0,0.0,0.118,0.067,0.0,0.625,0.625,0.161,86.76,0.12,2014-10-24T00:00:00,7,1610612758,SAC,Sacramento,3-4,22,27,15,29,0,0,0,0,0,0,0,0,0,0,93,0.41,0.742,0.5,20,44,10,0011400115,1610612747,LAL,Los Angeles,Jabari Brown,,,13:14,0.0,0.0,0.0,2.0,0.0,0.0,4.0,12.0,0.0,0.0,0.0,0.0
0011400115,1610612747,LAL,Los Angeles,203913,Jabari Brown,,,13:14,96.2,96.2,0.0,0.0,0.0,0.0,0.0,0.118,0.067,0.0,0.625,0.625,0.161,86.76,0.12,2014-10-24T00:00:00,7,1610612747,LAL,Los Angeles,3-5,26,22,28,16,0,0,0,0,0,0,0,0,0,0,92,0.463,0.688,0.467,23,39,10,0011400115,1610612747,LAL,Los Angeles,Jabari Brown,,,13:14,0.0,0.0,0.0,2.0,0.0,0.0,4.0,12.0,0.0,0.0,0.0,0.0
0011400115,1610612747,LAL,Los Angeles,2430,Carlos Boozer,,DND - Rest.                             ,,,,,,,0.0,,,,,,,0.0,,,2014-10-24T00:00:00,7,1610612758,SAC,Sacramento,3-4,22,27,15,29,0,0,0,0,0,0,0,0,0,0,93,0.41,0.742,0.5,20,44,10,0011400115,1610612747,LAL,Los Angeles,Carlos Boozer,,DND - Rest.                             ,,,,,,,,,,,,,
0011400115,1610612747,LAL,Los Angeles,2430,Carlos Boozer,,DND - Rest.                             ,,,,,,,0.0,,,,,,,0.0,,,2014-10-24T00:00:00,7,1610612747,LAL,Los Angeles,3-5,26,22,28,16,0,0,0,0,0,0,0,0,0,0,92,0.463,0.688,0.467,23,39,10,0011400115,1610612747,LAL,Los Angeles,Carlos Boozer,,DND - Rest.                             ,,,,,,,,,,,,,
0011400115,1610612747,LAL,Los Angeles,977,Kobe Bryant,,DND - Rest.                             ,,,,,,,0.0,,,,,,,0.0,,,2014-10-24T00:00:00,7,1610612758,SAC,Sacramento,3-4,22,27,15,29,0,0,0,0,0,0,0,0,0,0,93,0.41,0.742,0.5,20,44,10,0011400115,1610612747,LAL,Los Angeles,Kobe Bryant,,DND - Rest.                             ,,,,,,,,,,,,,
0011400115,1610612747,LAL,Los Angeles,977,Kobe Bryant,,DND - Rest.                             ,,,,,,,0.0,,,,,,,0.0,,,2014-10-24T00:00:00,7,1610612747,LAL,Los Angeles,3-5,26,22,28,16,0,0,0,0,0,0,0,0,0,0,92,0.463,0.688,0.467,23,39,10,0011400115,1610612747,LAL,Los Angeles,Kobe Bryant,,DND - Rest.                             ,,,,,,,,,,,,,
0011400115,1610612747,LAL,Los Angeles,202333,Xavier Henry,,NWT - Sore right knee.                  ,,,,,,,0.0,,,,,,,0.0,,,2014-10-24T00:00:00,7,1610612758,SAC,Sacramento,3-4,22,27,15,29,0,0,0,0,0,0,0,0,0,0,93,0.41,0.742,0.5,20,44,10,0011400115,1610612747,LAL,Los Angeles,Xavier Henry,,NWT - Sore right knee.                  ,,,,,,,,,,,,,
0011400115,1610612747,LAL,Los Angeles,202333,Xavier Henry,,NWT - Sore right knee.                  ,,,,,,,0.0,,,,,,,0.0,,,2014-10-24T00:00:00,7,1610612747,LAL,Los Angeles,3-5,26,22,28,16,0,0,0,0,0,0,0,0,0,0,92,0.463,0.688,0.467,23,39,10,0011400115,1610612747,LAL,Los Angeles,Xavier Henry,,NWT - Sore right knee.                  ,,,,,,,,,,,,,
0011400115,1610612747,LAL,Los Angeles,201941,Jordan Hill,,DND - Cervical strain.                  ,,,,,,,0.0,,,,,,,0.0,,,2014-10-24T00:00:00,7,1610612758,SAC,Sacramento,3-4,22,27,15,29,0,0,0,0,0,0,0,0,0,0,93,0.41,0.742,0.5,20,44,10,0011400115,1610612747,LAL,Los Angeles,Jordan Hill,,DND - Cervical strain.                  ,,,,,,,,,,,,,
0011400115,1610612747,LAL,Los Angeles,201941,Jordan Hill,,DND - Cervical strain.                  ,,,,,,,0.0,,,,,,,0.0,,,2014-10-24T00:00:00,7,1610612747,LAL,Los Angeles,3-5,26,22,28,16,0,0,0,0,0,0,0,0,0,0,92,0.463,0.688,0.467,23,39,10,0011400115,1610612747,LAL,Los Angeles,Jordan Hill,,DND - Cervical strain.                  ,,,,,,,,,,,,,
0011400115,1610612747,LAL,Los Angeles,203527,Ryan Kelly,,DND - Sore right hamstring.             ,,,,,,,0.0,,,,,,,0.0,,,2014-10-24T00:00:00,7,1610612758,SAC,Sacramento,3-4,22,27,15,29,0,0,0,0,0,0,0,0,0,0,93,0.41,0.742,0.5,20,44,10,0011400115,1610612747,LAL,Los Angeles,Ryan Kelly,,DND - Sore right hamstring.             ,,,,,,,,,,,,,
0011400115,1610612747,LAL,Los Angeles,203527,Ryan Kelly,,DND - Sore right hamstring.             ,,,,,,,0.0,,,,,,,0.0,,,2014-10-24T00:00:00,7,1610612747,LAL,Los Angeles,3-5,26,22,28,16,0,0,0,0,0,0,0,0,0,0,92,0.463,0.688,0.467,23,39,10,0011400115,1610612747,LAL,Los Angeles,Ryan Kelly,,DND - Sore right hamstring.             ,,,,,,,,,,,,,
0011400115,1610612747,LAL,Los Angeles,959,Steve Nash,,NWT - Sore back.                        ,,,,,,,0.0,,,,,,,0.0,,,2014-10-24T00:00:00,7,1610612758,SAC,Sacramento,3-4,22,27,15,29,0,0,0,0,0,0,0,0,0,0,93,0.41,0.742,0.5,20,44,10,0011400115,1610612747,LAL,Los Angeles,Steve Nash,,NWT - Sore back.                        ,,,,,,,,,,,,,
0011400115,1610612747,LAL,Los Angeles,959,Steve Nash,,NWT - Sore back.                        ,,,,,,,0.0,,,,,,,0.0,,,2014-10-24T00:00:00,7,1610612747,LAL,Los Angeles,3-5,26,22,28,16,0,0,0,0,0,0,0,0,0,0,92,0.463,0.688,0.467,23,39,10,0011400115,1610612747,LAL,Los Angeles,Steve Nash,,NWT - Sore back.                        ,,,,,,,,,,,,,
0011400115,1610612747,LAL,Los Angeles,201156,Nick Young,,DND - Right thumb.                      ,,,,,,,0.0,,,,,,,0.0,,,2014-10-24T00:00:00,7,1610612758,SAC,Sacramento,3-4,22,27,15,29,0,0,0,0,0,0,0,0,0,0,93,0.41,0.742,0.5,20,44,10,0011400115,1610612747,LAL,Los Angeles,Nick Young,,DND - Right thumb.                      ,,,,,,,,,,,,,
0011400115,1610612747,LAL,Los Angeles,201156,Nick Young,,DND - Right thumb.                      ,,,,,,,0.0,,,,,,,0.0,,,2014-10-24T00:00:00,7,1610612747,LAL,Los Angeles,3-5,26,22,28,16,0,0,0,0,0,0,0,0,0,0,92,0.463,0.688,0.467,23,39,10,0011400115,1610612747,LAL,Los Angeles,Nick Young,,DND - Right thumb.                      ,,,,,,,,,,,,,
