GAME_ID_x,TEAM_ID_x,TEAM_ABBREVIATION_x,TEAM_CITY_x,PLAYER_ID,PLAYER_NAME_x,START_POSITION_x,COMMENT_x,MIN_x,OFF_RATING,DEF_RATING,NET_RATING,AST_PCT,AST_TOV,AST_RATIO,OREB_PCT,DREB_PCT,REB_PCT,TM_TOV_PCT,EFG_PCT,TS_PCT,USG_PCT,PACE,PIE,GAME_DATE_EST,GAME_SEQUENCE,TEAM_ID_y,TEAM_ABBREVIATION_y,TEAM_CITY_NAME,TEAM_WINS_LOSSES,PTS_QTR1,PTS_QTR2,PTS_QTR3,PTS_QTR4,PTS_OT1,PTS_OT2,PTS_OT3,PTS_OT4,PTS_OT5,PTS_OT6,PTS_OT7,PTS_OT8,PTS_OT9,PTS_OT10,PTS,FG_PCT,FT_PCT,FG3_PCT,AST,REB,TOV,GAME_ID_y,TEAM_ID,TEAM_ABBREVIATION,TEAM_CITY_y,PLAYER_NAME_y,START_POSITION_y,COMMENT_y,MIN_y,PTS_OFF_TOV,PTS_2ND_CHANCE,PTS_FB,PTS_PAINT,OPP_PTS_OFF_TOV,OPP_PTS_2ND_CHANCE,OPP_PTS_FB,OPP_PTS_PAINT,BLK,BLKA,PF,PFD
0011400112,1610612748,MIA,Miami,203516,James Ennis III,F,,30:16,106.5,104.7,1.8,0.0,0.0,0.0,0.0,0.094,0.061,27.7,0.45,0.479,0.244,94.61,0.0,2014-10-24T00:00:00,4,1610612748,MIA,Miami,4-4,23,31,30,20,0,0,0,0,0,0,0,0,0,0,104,0.543,0.952,0.444,17,37,17,0011400112,1610612748,MIA,Miami,James Ennis III,F,,30:16,3.0,0.0,2.0,4.0,17.0,11.0,7.0,28.0,0.0,0.0,4.0,2.0
0011400112,1610612748,MIA,Miami,203516,James Ennis III,F,,30:16,106.5,104.7,1.8,0.0,0.0,0.0,0.0,0.094,0.061,27.7,0.45,0.479,0.244,94.61,0.0,2014-10-24T00:00:00,4,1610612763,MEM,Memphis,3-5,27,21,23,27,0,0,0,0,0,0,0,0,0,0,98,0.434,0.72,0.421,22,38,15,0011400112,1610612748,MIA,Miami,James Ennis III,F,,30:16,3.0,0.0,2.0,4.0,17.0,11.0,7.0,28.0,0.0,0.0,4.0,2.0
0011400112,1610612748,MIA,Miami,200761,Shawne Williams,F,,26:20,122.3,98.8,23.5,0.048,0.5,9.7,0.0,0.192,0.125,19.4,0.583,0.683,0.175,97.32,0.097,2014-10-24T00:00:00,4,1610612748,MIA,Miami,4-4,23,31,30,20,0,0,0,0,0,0,0,0,0,0,104,0.543,0.952,0.444,17,37,17,0011400112,1610612748,MIA,Miami,Shawne Williams,F,,26:20,0.0,0.0,3.0,2.0,11.0,9.0,3.0,28.0,2.0,0.0,2.0,3.0
0011400112,1610612748,MIA,Miami,200761,Shawne Williams,F,,26:20,122.3,98.8,23.5,0.048,0.5,9.7,0.0,0.192,0.125,19.4,0.583,0.683,0.175,97.32,0.097,2014-10-24T00:00:00,4,1610612763,MEM,Memphis,3-5,27,21,23,27,0,0,0,0,0,0,0,0,0,0,98,0.434,0.72,0.421,22,38,15,0011400112,1610612748,MIA,Miami,Shawne Williams,F,,26:20,0.0,0.0,3.0,2.0,11.0,9.0,3.0,28.0,2.0,0.0,2.0,3.0
0011400112,1610612748,MIA,Miami,2547,Chris Bosh,C,,25:39,117.2,92.7,24.5,0.0,0.0,0.0,0.0,0.25,0.154,5.8,0.571,0.648,0.334,95.74,0.277,2014-10-24T00:00:00,4,1610612748,MIA,Miami,4-4,23,31,30,20,0,0,0,0,0,0,0,0,0,0,104,0.543,0.952,0.444,17,37,17,0011400112,1610612748,MIA,Miami,Chris Bosh,C,,25:39,2.0,0.0,0.0,10.0,11.0,11.0,5.0,22.0,2.0,0.0,0.0,4.0
0011400112,1610612748,MIA,Miami,2547,Chris Bosh,C,,25:39,117.2,92.7,24.5,0.0,0.0,0.0,0.0,0.25,0.154,5.8,0.571,0.648,0.334,95.74,0.277,2014-10-24T00:00:00,4,1610612763,MEM,Memphis,3-5,27,21,23,27,0,0,0,0,0,0,0,0,0,0,98,0.434,0.72,0.421,22,38,15,0011400112,1610612748,MIA,Miami,Chris Bosh,C,,25:39,2.0,0.0,0.0,10.0,11.0,11.0,5.0,22.0,2.0,0.0,0.0,4.0
0011400112,1610612748,MIA,Miami,2548,Dwyane Wade,G,,23:23,127.6,95.5,32.0,0.143,0.67,13.9,0.0,0.125,0.083,20.8,0.833,0.847,0.259,98.79,0.157,2014-10-24T00:00:00,4,1610612748,MIA,Miami,4-4,23,31,30,20,0,0,0,0,0,0,0,0,0,0,104,0.543,0.952,0.444,17,37,17,0011400112,1610612748,MIA,Miami,Dwyane Wade,G,,23:23,2.0,0.0,7.0,10.0,9.0,11.0,3.0,24.0,1.0,0.0,2.0,2.0
0011400112,1610612748,MIA,Miami,2548,Dwyane Wade,G,,23:23,127.6,95.5,32.0,0.143,0.67,13.9,0.0,0.125,0.083,20.8,0.833,0.847,0.259,98.79,0.157,2014-10-24T00:00:00,4,1610612763,MEM,Memphis,3-5,27,21,23,27,0,0,0,0,0,0,0,0,0,0,98,0.434,0.72,0.421,22,38,15,0011400112,1610612748,MIA,Miami,Dwyane Wade,G,,23:23,2.0,0.0,7.0,10.0,9.0,11.0,3.0,24.0,1.0,0.0,2.0,2.0
0011400112,1610612748,MIA,Miami,202708,Norris Cole,G,,27:10,123.3,100.8,22.4,0.35,0.0,47.4,0.0,0.071,0.047,0.0,0.917,0.902,0.141,98.66,0.19,2014-10-24T00:00:00,4,1610612748,MIA,Miami,4-4,23,31,30,20,0,0,0,0,0,0,0,0,0,0,104,0.543,0.952,0.444,17,37,17,0011400112,1610612748,MIA,Miami,Norris Cole,G,,27:10,3.0,0.0,3.0,8.0,11.0,11.0,5.0,30.0,0.0,0.0,1.0,3.0
0011400112,1610612748,MIA,Miami,202708,Norris Cole,G,,27:10,123.3,100.8,22.4,0.35,0.0,47.4,0.0,0.071,0.047,0.0,0.917,0.902,0.141,98.66,0.19,2014-10-24T00:00:00,4,1610612763,MEM,Memphis,3-5,27,21,23,27,0,0,0,0,0,0,0,0,0,0,98,0.434,0.72,0.421,22,38,15,0011400112,1610612748,MIA,Miami,Norris Cole,G,,27:10,3.0,0.0,3.0,8.0,11.0,11.0,5.0,30.0,0.0,0.0,1.0,3.0
0011400112,1610612748,MIA,Miami,203120,Justin Hamilton,,,25:50,95.0,112.2,-17.2,0.063,0.33,10.0,0.056,0.167,0.119,30.0,0.583,0.583,0.168,96.1,0.042,2014-10-24T00:00:00,4,1610612748,MIA,Miami,4-4,23,31,30,20,0,0,0,0,0,0,0,0,0,0,104,0.543,0.952,0.444,17,37,17,0011400112,1610612748,MIA,Miami,Justin Hamilton,,,25:50,0.0,0.0,0.0,0.0,12.0,4.0,6.0,26.0,1.0,3.0,3.0,1.0
0011400112,1610612748,MIA,Miami,203120,Justin Hamilton,,,25:50,95.0,112.2,-17.2,0.063,0.33,10.0,0.056,0.167,0.119,30.0,0.583,0.583,0.168,96.1,0.042,2014-10-24T00:00:00,4,1610612763,MEM,Memphis,3-5,27,21,23,27,0,0,0,0,0,0,0,0,0,0,98,0.434,0.72,0.421,22,38,15,0011400112,1610612748,MIA,Miami,Justin Hamilton,,,25:50,0.0,0.0,0.0,0.0,12.0,4.0,6.0,26.0,1.0,3.0,3.0,1.0
0011400112,1610612748,MIA,Miami,201596,Mario Chalmers,,,22:07,106.6,100.9,5.8,0.214,3.0,30.4,0.0,0.111,0.057,10.1,0.9,0.935,0.149,98.4,0.155,2014-10-24T00:00:00,4,1610612748,MIA,Miami,4-4,23,31,30,20,0,0,0,0,0,0,0,0,0,0,104,0.543,0.952,0.444,17,37,17,0011400112,1610612748,MIA,Miami,Mario Chalmers,,,22:07,2.0,2.0,0.0,6.0,6.0,4.0,4.0,22.0,0.0,0.0,3.0,3.0
0011400112,1610612748,MIA,Miami,201596,Mario Chalmers,,,22:07,106.6,100.9,5.8,0.214,3.0,30.4,0.0,0.111,0.057,10.1,0.9,0.935,0.149,98.4,0.155,2014-10-24T00:00:00,4,1610612763,MEM,Memphis,3-5,27,21,23,27,0,0,0,0,0,0,0,0,0,0,98,0.434,0.72,0.421,22,38,15,0011400112,1610612748,MIA,Miami,Mario Chalmers,,,22:07,2.0,2.0,0.0,6.0,6.0,4.0,4.0,22.0,0.0,0.0,3.0,3.0
0011400112,1610612748,MIA,Miami,203894,Shabazz Napier,,,24:08,102.0,101.1,1.0,0.133,0.67,16.8,0.0,0.238,0.135,25.3,0.333,0.436,0.21,93.04,0.076,2014-10-24T00:00:00,4,1610612748,MIA,Miami,4-4,23,31,30,20,0,0,0,0,0,0,0,0,0,0,104,0.543,0.952,0.444,17,37,17,0011400112,1610612748,MIA,Miami,Shabazz Napier,,,24:08,4.0,0.0,0.0,0.0,10.0,6.0,4.0,24.0,0.0,0.0,2.0,2.0
0011400112,1610612748,MIA,Miami,203894,Shabazz Napier,,,24:08,102.0,101.1,1.0,0.133,0.67,16.8,0.0,0.238,0.135,25.3,0.333,0.436,0.21,93.04,0.076,2014-10-24T00:00:00,4,1610612763,MEM,Memphis,3-5,27,21,23,27,0,0,0,0,0,0,0,0,0,0,98,0.434,0.72,0.421,22,38,15,0011400112,1610612748,MIA,Miami,Shabazz Napier,,,24:08,4.0,0.0,0.0,0.0,10.0,6.0,4.0,24.0,0.0,0.0,2.0,2.0
0011400112,1610612748,MIA,Miami,200769,Shannon Brown,,,4:56,90.1,45.7,44.4,0.0,0.0,0.0,0.0,0.0,0.0,0.0,0.0,0.0,0.202,85.79,0.0,2014-10-24T00:00:00,4,1610612748,MIA,Miami,4-4,23,31,30,20,0,0,0,0,0,0,0,0,0,0,104,0.543,0.952,0.444,17,37,17,0011400112,1610612748,MIA,Miami,Shannon Brown,,,4:56,0.0,0.0,0.0,0.0,2.0,0.0,0.0,0.0,1.0,0.0,0.0,0.0
0011400112,1610612748,MIA,Miami,200769,Shannon Brown,,,4:56,90.1,45.7,44.4,0.0,0.0,0.0,0.0,0.0,0.0,0.0,0.0,0.0,0.202,85.79,0.0,2014-10-24T00:00:00,4,1610612763,MEM,Memphis,3-5,27,21,23,27,0,0,0,0,0,0,0,0,0,0,98,0.434,0.72,0.421,22,38,15,0011400112,1610612748,MIA,Miami,Shannon Brown,,,4:56,0.0,0.0,0.0,0.0,2.0,0.0,0.0,0.0,1.0,0.0,0.0,0.0
0011400112,1610612748,MIA,Miami,203920,Khem Birch,,,18:11,105.4,95.6,9.9,0.0,0.0,0.0,0.091,0.278,0.207,0.0,0.0,0.0,0.029,94.94,0.031,2014-10-24T00:00:00,4,1610612748,MIA,Miami,4-4,23,31,30,20,0,0,0,0,0,0,0,0,0,0,104,0.543,0.952,0.444,17,37,17,0011400112,1610612748,MIA,Miami,Khem Birch,,,18:11,0.0,0.0,0.0,0.0,8.0,6.0,4.0,16.0,3.0,1.0,5.0,1.0
0011400112,1610612748,MIA,Miami,203920,Khem Birch,,,18:11,105.4,95.6,9.9,0.0,0.0,0.0,0.091,0.278,0.207,0.0,0.0,0.0,0.029,94.94,0.031,2014-10-24T00:00:00,4,1610612763,MEM,Memphis,3-5,27,21,23,27,0,0,0,0,0,0,0,0,0,0,98,0.434,0.72,0.421,22,38,15,0011400112,1610612748,MIA,Miami,Khem Birch,,,18:11,0.0,0.0,0.0,0.0,8.0,6.0,4.0,16.0,3.0,1.0,5.0,1.0
0011400112,1610612748,MIA,Miami,203958,Andre Dawkins,,,12:00,85.8,111.2,-25.4,0.2,0.0,13.7,0.0,0.0,0.0,0.0,0.6,0.712,0.271,95.2,0.135,2014-10-24T00:00:00,4,1610612748,MIA,Miami,4-4,23,31,30,20,0,0,0,0,0,0,0,0,0,0,104,0.543,0.952,0.444,17,37,17,0011400112,1610612748,MIA,Miami,Andre Dawkins,,,12:00,3.0,0.0,6.0,0.0,8.0,2.0,4.0,10.0,0.0,0.0,1.0,1.0
0011400112,1610612748,MIA,Miami,203958,Andre Dawkins,,,12:00,85.8,111.2,-25.4,0.2,0.0,13.7,0.0,0.0,0.0,0.0,0.6,0.712,0.271,95.2,0.135,2014-10-24T00:00:00,4,1610612763,MEM,Memphis,3-5,27,21,23,27,0,0,0,0,0,0,0,0,0,0,98,0.434,0.72,0.421,22,38,15,0011400112,1610612748,MIA,Miami,Andre Dawkins,,,12:00,3.0,0.0,6.0,0.0,8.0,2.0,4.0,10.0,0.0,0.0,1.0,1.0
0011400112,1610612748,MIA,Miami,2365,Chris Andersen,,DNP - Coach's Decision                  ,,,,,,,0.0,,,,,,,0.0,,,2014-10-24T00:00:00,4,1610612748,MIA,Miami,4-4,23,31,30,20,0,0,0,0,0,0,0,0,0,0,104,0.543,0.952,0.444,17,37,17,0011400112,1610612748,MIA,Miami,Chris Andersen,,DNP - Coach's Decision                  ,,,,,,,,,,,,,
0011400112,1610612748,MIA,Miami,2365,Chris Andersen,,DNP - Coach's Decision                  ,,,,,,,0.0,,,,,,,0.0,,,2014-10-24T00:00:00,4,1610612763,MEM,Memphis,3-5,27,21,23,27,0,0,0,0,0,0,0,0,0,0,98,0.434,0.72,0.421,22,38,15,0011400112,1610612748,MIA,Miami,Chris Andersen,,DNP - Coach's Decision                  ,,,,,,,,,,,,,
0011400112,1610612748,MIA,Miami,2736,Luol Deng,,DNP - Coach's Decision                  ,,,,,,,0.0,,,,,,,0.0,,,2014-10-24T00:00:00,4,1610612748,MIA,Miami,4-4,23,31,30,20,0,0,0,0,0,0,0,0,0,0,104,0.543,0.952,0.444,17,37,17,0011400112,1610612748,MIA,Miami,Luol Deng,,DNP - Coach's Decision                  ,,,,,,,,,,,,,
0011400112,1610612748,MIA,Miami,2736,Luol Deng,,DNP - Coach's Decision                  ,,,,,,,0.0,,,,,,,0.0,,,2014-10-24T00:00:00,4,1610612763,MEM,Memphis,3-5,27,21,23,27,0,0,0,0,0,0,0,0,0,0,98,0.434,0.72,0.421,22,38,15,0011400112,1610612748,MIA,Miami,Luol Deng,,DNP - Coach's Decision                  ,,,,,,,,,,,,,
0011400112,1610612748,MIA,Miami,101122,Danny Granger,,DNP - Coach's Decision                  ,,,,,,,0.0,,,,,,,0.0,,,2014-10-24T00:00:00,4,1610612748,MIA,Miami,4-4,23,31,30,20,0,0,0,0,0,0,0,0,0,0,104,0.543,0.952,0.444,17,37,17,0011400112,1610612748,MIA,Miami,Danny Granger,,DNP - Coach's Decision                  ,,,,,,,,,,,,,
0011400112,1610612748,MIA,Miami,101122,Danny Granger,,DNP - Coach's Decision                  ,,,,,,,0.0,,,,,,,0.0,,,2014-10-24T00:00:00,4,1610612763,MEM,Memphis,3-5,27,21,23,27,0,0,0,0,0,0,0,0,0,0,98,0.434,0.72,0.421,22,38,15,0011400112,1610612748,MIA,Miami,Danny Granger,,DNP - Coach's Decision                  ,,,,,,,,,,,,,
0011400112,1610612748,MIA,Miami,2617,Udonis Haslem,,DNP - Coach's Decision                  ,,,,,,,0.0,,,,,,,0.0,,,2014-10-24T00:00:00,4,1610612748,MIA,Miami,4-4,23,31,30,20,0,0,0,0,0,0,0,0,0,0,104,0.543,0.952,0.444,17,37,17,0011400112,1610612748,MIA,Miami,Udonis Haslem,,DNP - Coach's Decision                  ,,,,,,,,,,,,,
0011400112,1610612748,MIA,Miami,2617,Udonis Haslem,,DNP - Coach's Decision                  ,,,,,,,0.0,,,,,,,0.0,,,2014-10-24T00:00:00,4,1610612763,MEM,Memphis,3-5,27,21,23,27,0,0,0,0,0,0,0,0,0,0,98,0.434,0.72,0.421,22,38,15,0011400112,1610612748,MIA,Miami,Udonis Haslem,,DNP - Coach's Decision                  ,,,,,,,,,,,,,
0011400112,1610612748,MIA,Miami,201177,Josh McRoberts,,DNP - Coach's Decision                  ,,,,,,,0.0,,,,,,,0.0,,,2014-10-24T00:00:00,4,1610612748,MIA,Miami,4-4,23,31,30,20,0,0,0,0,0,0,0,0,0,0,104,0.543,0.952,0.444,17,37,17,0011400112,1610612748,MIA,Miami,Josh McRoberts,,DNP - Coach's Decision                  ,,,,,,,,,,,,,
0011400112,1610612748,MIA,Miami,201177,Josh McRoberts,,DNP - Coach's Decision                  ,,,,,,,0.0,,,,,,,0.0,,,2014-10-24T00:00:00,4,1610612763,MEM,Memphis,3-5,27,21,23,27,0,0,0,0,0,0,0,0,0,0,98,0.434,0.72,0.421,22,38,15,0011400112,1610612748,MIA,Miami,Josh McRoberts,,DNP - Coach's Decision                  ,,,,,,,,,,,,,
0011400112,1610612763,MEM,Memphis,201584,Courtney Lee,F,,19:38,80.8,131.7,-50.9,0.182,1.0,20.0,0.0,0.0,0.0,20.0,0.417,0.417,0.17,97.86,0.0,2014-10-24T00:00:00,4,1610612748,MIA,Miami,4-4,23,31,30,20,0,0,0,0,0,0,0,0,0,0,104,0.543,0.952,0.444,17,37,17,0011400112,1610612763,MEM,Memphis,Courtney Lee,F,,19:38,2.0,0.0,0.0,2.0,12.0,0.0,10.0,28.0,0.0,1.0,1.0,0.0
0011400112,1610612763,MEM,Memphis,201584,Courtney Lee,F,,19:38,80.8,131.7,-50.9,0.182,1.0,20.0,0.0,0.0,0.0,20.0,0.417,0.417,0.17,97.86,0.0,2014-10-24T00:00:00,4,1610612763,MEM,Memphis,3-5,27,21,23,27,0,0,0,0,0,0,0,0,0,0,98,0.434,0.72,0.421,22,38,15,0011400112,1610612763,MEM,Memphis,Courtney Lee,F,,19:38,2.0,0.0,0.0,2.0,12.0,0.0,10.0,28.0,0.0,1.0,1.0,0.0
0011400112,1610612763,MEM,Memphis,2216,Zach Randolph,F,,24:19,104.0,115.7,-11.7,0.214,3.0,20.0,0.042,0.286,0.132,6.7,0.545,0.545,0.207,98.93,0.165,2014-10-24T00:00:00,4,1610612748,MIA,Miami,4-4,23,31,30,20,0,0,0,0,0,0,0,0,0,0,104,0.543,0.952,0.444,17,37,17,0011400112,1610612763,MEM,Memphis,Zach Randolph,F,,24:19,0.0,2.0,0.0,10.0,12.0,0.0,13.0,30.0,0.0,0.0,1.0,3.0
0011400112,1610612763,MEM,Memphis,2216,Zach Randolph,F,,24:19,104.0,115.7,-11.7,0.214,3.0,20.0,0.042,0.286,0.132,6.7,0.545,0.545,0.207,98.93,0.165,2014-10-24T00:00:00,4,1610612763,MEM,Memphis,3-5,27,21,23,27,0,0,0,0,0,0,0,0,0,0,98,0.434,0.72,0.421,22,38,15,0011400112,1610612763,MEM,Memphis,Zach Randolph,F,,24:19,0.0,2.0,0.0,10.0,12.0,0.0,13.0,30.0,0.0,0.0,1.0,3.0
0011400112,1610612763,MEM,Memphis,201188,Marc Gasol,C,,12:02,97.8,112.0,-14.2,0.0,0.0,0.0,0.1,0.2,0.133,0.0,0.25,0.307,0.191,91.43,-0.075,2014-10-24T00:00:00,4,1610612748,MIA,Miami,4-4,23,31,30,20,0,0,0,0,0,0,0,0,0,0,104,0.543,0.952,0.444,17,37,17,0011400112,1610612763,MEM,Memphis,Marc Gasol,C,,12:02,0.0,2.0,0.0,2.0,4.0,2.0,2.0,16.0,0.0,0.0,3.0,2.0
0011400112,1610612763,MEM,Memphis,201188,Marc Gasol,C,,12:02,97.8,112.0,-14.2,0.0,0.0,0.0,0.1,0.2,0.133,0.0,0.25,0.307,0.191,91.43,-0.075,2014-10-24T00:00:00,4,1610612763,MEM,Memphis,3-5,27,21,23,27,0,0,0,0,0,0,0,0,0,0,98,0.434,0.72,0.421,22,38,15,0011400112,1610612763,MEM,Memphis,Marc Gasol,C,,12:02,0.0,2.0,0.0,2.0,4.0,2.0,2.0,16.0,0.0,0.0,3.0,2.0
0011400112,1610612763,MEM,Memphis,2754,Tony Allen,G,,16:28,108.3,129.1,-20.8,0.0,0.0,0.0,0.0,0.125,0.045,12.7,0.583,0.581,0.207,100.81,0.067,2014-10-24T00:00:00,4,1610612748,MIA,Miami,4-4,23,31,30,20,0,0,0,0,0,0,0,0,0,0,104,0.543,0.952,0.444,17,37,17,0011400112,1610612763,MEM,Memphis,Tony Allen,G,,16:28,0.0,0.0,0.0,4.0,8.0,0.0,12.0,24.0,0.0,0.0,1.0,2.0
0011400112,1610612763,MEM,Memphis,2754,Tony Allen,G,,16:28,108.3,129.1,-20.8,0.0,0.0,0.0,0.0,0.125,0.045,12.7,0.583,0.581,0.207,100.81,0.067,2014-10-24T00:00:00,4,1610612763,MEM,Memphis,3-5,27,21,23,27,0,0,0,0,0,0,0,0,0,0,98,0.434,0.72,0.421,22,38,15,0011400112,1610612763,MEM,Memphis,Tony Allen,G,,16:28,0.0,0.0,0.0,4.0,8.0,0.0,12.0,24.0,0.0,0.0,1.0,2.0
0011400112,1610612763,MEM,Memphis,201144,Mike Conley,G,,14:53,86.1,108.0,-21.9,0.444,0.0,34.4,0.0,0.143,0.053,0.0,0.2,0.524,0.215,100.24,0.22,2014-10-24T00:00:00,4,1610612748,MIA,Miami,4-4,23,31,30,20,0,0,0,0,0,0,0,0,0,0,104,0.543,0.952,0.444,17,37,17,0011400112,1610612763,MEM,Memphis,Mike Conley,G,,14:53,4.0,0.0,0.0,2.0,6.0,2.0,5.0,20.0,0.0,1.0,0.0,3.0
0011400112,1610612763,MEM,Memphis,201144,Mike Conley,G,,14:53,86.1,108.0,-21.9,0.444,0.0,34.4,0.0,0.143,0.053,0.0,0.2,0.524,0.215,100.24,0.22,2014-10-24T00:00:00,4,1610612763,MEM,Memphis,3-5,27,21,23,27,0,0,0,0,0,0,0,0,0,0,98,0.434,0.72,0.421,22,38,15,0011400112,1610612763,MEM,Memphis,Mike Conley,G,,14:53,4.0,0.0,0.0,2.0,6.0,2.0,5.0,20.0,0.0,1.0,0.0,3.0
0011400112,1610612763,MEM,Memphis,201979,Nick Calathes,,,20:01,100.1,106.8,-6.6,0.2,2.0,21.2,0.0,0.154,0.065,10.6,0.417,0.466,0.173,92.61,0.041,2014-10-24T00:00:00,4,1610612748,MIA,Miami,4-4,23,31,30,20,0,0,0,0,0,0,0,0,0,0,104,0.543,0.952,0.444,17,37,17,0011400112,1610612763,MEM,Memphis,Nick Calathes,,,20:01,0.0,3.0,0.0,2.0,10.0,2.0,8.0,18.0,1.0,1.0,4.0,2.0
0011400112,1610612763,MEM,Memphis,201979,Nick Calathes,,,20:01,100.1,106.8,-6.6,0.2,2.0,21.2,0.0,0.154,0.065,10.6,0.417,0.466,0.173,92.61,0.041,2014-10-24T00:00:00,4,1610612763,MEM,Memphis,3-5,27,21,23,27,0,0,0,0,0,0,0,0,0,0,98,0.434,0.72,0.421,22,38,15,0011400112,1610612763,MEM,Memphis,Nick Calathes,,,20:01,0.0,3.0,0.0,2.0,10.0,2.0,8.0,18.0,1.0,1.0,4.0,2.0
0011400112,1610612763,MEM,Memphis,202720,Jon Leuer,,,24:46,96.2,98.0,-1.8,0.222,2.0,9.9,0.083,0.278,0.167,5.0,0.533,0.61,0.331,95.8,0.261,2014-10-24T00:00:00,4,1610612748,MIA,Miami,4-4,23,31,30,20,0,0,0,0,0,0,0,0,0,0,104,0.543,0.952,0.444,17,37,17,0011400112,1610612763,MEM,Memphis,Jon Leuer,,,24:46,2.0,4.0,4.0,10.0,7.0,2.0,8.0,10.0,2.0,1.0,2.0,5.0
0011400112,1610612763,MEM,Memphis,202720,Jon Leuer,,,24:46,96.2,98.0,-1.8,0.222,2.0,9.9,0.083,0.278,0.167,5.0,0.533,0.61,0.331,95.8,0.261,2014-10-24T00:00:00,4,1610612763,MEM,Memphis,3-5,27,21,23,27,0,0,0,0,0,0,0,0,0,0,98,0.434,0.72,0.421,22,38,15,0011400112,1610612763,MEM,Memphis,Jon Leuer,,,24:46,2.0,4.0,4.0,10.0,7.0,2.0,8.0,10.0,2.0,1.0,2.0,5.0
0011400112,1610612763,MEM,Memphis,1713,Vince Carter,,,22:26,94.3,99.6,-5.3,0.2,0.4,13.3,0.143,0.125,0.135,33.3,0.813,0.813,0.252,94.91,0.103,2014-10-24T00:00:00,4,1610612748,MIA,Miami,4-4,23,31,30,20,0,0,0,0,0,0,0,0,0,0,104,0.543,0.952,0.444,17,37,17,0011400112,1610612763,MEM,Memphis,Vince Carter,,,22:26,5.0,2.0,3.0,2.0,8.0,2.0,4.0,16.0,0.0,1.0,4.0,1.0
0011400112,1610612763,MEM,Memphis,1713,Vince Carter,,,22:26,94.3,99.6,-5.3,0.2,0.4,13.3,0.143,0.125,0.135,33.3,0.813,0.813,0.252,94.91,0.103,2014-10-24T00:00:00,4,1610612763,MEM,Memphis,3-5,27,21,23,27,0,0,0,0,0,0,0,0,0,0,98,0.434,0.72,0.421,22,38,15,0011400112,1610612763,MEM,Memphis,Vince Carter,,,22:26,5.0,2.0,3.0,2.0,8.0,2.0,4.0,16.0,0.0,1.0,4.0,1.0
0011400112,1610612763,MEM,Memphis,203919,Jordan Adams,,,21:03,113.9,102.3,11.6,0.214,0.0,24.6,0.0,0.154,0.059,0.0,0.643,0.652,0.203,92.78,0.13,2014-10-24T00:00:00,4,1610612748,MIA,Miami,4-4,23,31,30,20,0,0,0,0,0,0,0,0,0,0,104,0.543,0.952,0.444,17,37,17,0011400112,1610612763,MEM,Memphis,Jordan Adams,,,21:03,6.0,0.0,2.0,6.0,5.0,0.0,8.0,8.0,0.0,1.0,2.0,3.0
0011400112,1610612763,MEM,Memphis,203919,Jordan Adams,,,21:03,113.9,102.3,11.6,0.214,0.0,24.6,0.0,0.154,0.059,0.0,0.643,0.652,0.203,92.78,0.13,2014-10-24T00:00:00,4,1610612763,MEM,Memphis,3-5,27,21,23,27,0,0,0,0,0,0,0,0,0,0,98,0.434,0.72,0.421,22,38,15,0011400112,1610612763,MEM,Memphis,Jordan Adams,,,21:03,6.0,0.0,2.0,6.0,5.0,0.0,8.0,8.0,0.0,1.0,2.0,3.0
0011400112,1610612763,MEM,Memphis,201585,Kosta Koufos,,,15:55,92.2,127.9,-35.6,0.0,0.0,0.0,0.25,0.4,0.308,20.0,0.25,0.25,0.134,94.55,0.017,2014-10-24T00:00:00,4,1610612748,MIA,Miami,4-4,23,31,30,20,0,0,0,0,0,0,0,0,0,0,104,0.543,0.952,0.444,17,37,17,0011400112,1610612763,MEM,Memphis,Kosta Koufos,,,15:55,2.0,2.0,0.0,2.0,8.0,0.0,4.0,14.0,0.0,2.0,3.0,0.0
0011400112,1610612763,MEM,Memphis,201585,Kosta Koufos,,,15:55,92.2,127.9,-35.6,0.0,0.0,0.0,0.25,0.4,0.308,20.0,0.25,0.25,0.134,94.55,0.017,2014-10-24T00:00:00,4,1610612763,MEM,Memphis,3-5,27,21,23,27,0,0,0,0,0,0,0,0,0,0,98,0.434,0.72,0.421,22,38,15,0011400112,1610612763,MEM,Memphis,Kosta Koufos,,,15:55,2.0,2.0,0.0,2.0,8.0,0.0,4.0,14.0,0.0,2.0,3.0,0.0
0011400112,1610612763,MEM,Memphis,2419,Tayshaun Prince,,,5:57,100.9,129.9,-28.9,0.2,1.0,33.3,0.0,0.0,0.0,33.3,0.0,0.0,0.144,101.65,-0.037,2014-10-24T00:00:00,4,1610612748,MIA,Miami,4-4,23,31,30,20,0,0,0,0,0,0,0,0,0,0,104,0.543,0.952,0.444,17,37,17,0011400112,1610612763,MEM,Memphis,Tayshaun Prince,,,5:57,0.0,0.0,0.0,0.0,4.0,0.0,7.0,8.0,0.0,0.0,0.0,0.0
0011400112,1610612763,MEM,Memphis,2419,Tayshaun Prince,,,5:57,100.9,129.9,-28.9,0.2,1.0,33.3,0.0,0.0,0.0,33.3,0.0,0.0,0.144,101.65,-0.037,2014-10-24T00:00:00,4,1610612763,MEM,Memphis,3-5,27,21,23,27,0,0,0,0,0,0,0,0,0,0,98,0.434,0.72,0.421,22,38,15,0011400112,1610612763,MEM,Memphis,Tayshaun Prince,,,5:57,0.0,0.0,0.0,0.0,4.0,0.0,7.0,8.0,0.0,0.0,0.0,0.0
0011400112,1610612763,MEM,Memphis,203564,Kalin Lucas,,,17:25,110.5,105.4,5.1,0.143,1.0,20.0,0.0,0.0,0.0,20.0,0.167,0.167,0.209,94.36,-0.014,2014-10-24T00:00:00,4,1610612748,MIA,Miami,4-4,23,31,30,20,0,0,0,0,0,0,0,0,0,0,104,0.543,0.952,0.444,17,37,17,0011400112,1610612763,MEM,Memphis,Kalin Lucas,,,17:25,0.0,0.0,0.0,2.0,5.0,0.0,8.0,4.0,0.0,2.0,0.0,0.0
0011400112,1610612763,MEM,Memphis,203564,Kalin Lucas,,,17:25,110.5,105.4,5.1,0.143,1.0,20.0,0.0,0.0,0.0,20.0,0.167,0.167,0.209,94.36,-0.014,2014-10-24T00:00:00,4,1610612763,MEM,Memphis,3-5,27,21,23,27,0,0,0,0,0,0,0,0,0,0,98,0.434,0.72,0.421,22,38,15,0011400112,1610612763,MEM,Memphis,Kalin Lucas,,,17:25,0.0,0.0,0.0,2.0,5.0,0.0,8.0,4.0,0.0,2.0,0.0,0.0
0011400112,1610612763,MEM,Memphis,203950,Jarnell Stokes,,,12:34,110.4,94.6,15.8,0.1,0.0,26.6,0.0,0.5,0.182,0.0,0.0,0.181,0.098,96.66,0.07,2014-10-24T00:00:00,4,1610612748,MIA,Miami,4-4,23,31,30,20,0,0,0,0,0,0,0,0,0,0,104,0.543,0.952,0.444,17,37,17,0011400112,1610612763,MEM,Memphis,Jarnell Stokes,,,12:34,0.0,0.0,0.0,0.0,3.0,0.0,8.0,2.0,1.0,0.0,0.0,2.0
0011400112,1610612763,MEM,Memphis,203950,Jarnell Stokes,,,12:34,110.4,94.6,15.8,0.1,0.0,26.6,0.0,0.5,0.182,0.0,0.0,0.181,0.098,96.66,0.07,2014-10-24T00:00:00,4,1610612763,MEM,Memphis,3-5,27,21,23,27,0,0,0,0,0,0,0,0,0,0,98,0.434,0.72,0.421,22,38,15,0011400112,1610612763,MEM,Memphis,Jarnell Stokes,,,12:34,0.0,0.0,0.0,0.0,3.0,0.0,8.0,2.0,1.0,0.0,0.0,2.0
0011400112,1610612763,MEM,Memphis,203565,Patrick Christopher,,,12:34,110.4,94.6,15.8,0.0,0.0,0.0,0.0,0.125,0.045,0.0,0.833,0.833,0.106,96.66,0.1,2014-10-24T00:00:00,4,1610612748,MIA,Miami,4-4,23,31,30,20,0,0,0,0,0,0,0,0,0,0,104,0.543,0.952,0.444,17,37,17,0011400112,1610612763,MEM,Memphis,Patrick Christopher,,,12:34,0.0,0.0,0.0,2.0,3.0,0.0,8.0,2.0,0.0,0.0,1.0,0.0
0011400112,1610612763,MEM,Memphis,203565,Patrick Christopher,,,12:34,110.4,94.6,15.8,0.0,0.0,0.0,0.0,0.125,0.045,0.0,0.833,0.833,0.106,96.66,0.1,2014-10-24T00:00:00,4,1610612763,MEM,Memphis,3-5,27,21,23,27,0,0,0,0,0,0,0,0,0,0,98,0.434,0.72,0.421,22,38,15,0011400112,1610612763,MEM,Memphis,Patrick Christopher,,,12:34,0.0,0.0,0.0,2.0,3.0,0.0,8.0,2.0,0.0,0.0,1.0,0.0
0011400112,1610612763,MEM,Memphis,202347,Quincy Pondexter,,DNP - Coach's Decision                  ,,,,,,,0.0,,,,,,,0.0,,,2014-10-24T00:00:00,4,1610612748,MIA,Miami,4-4,23,31,30,20,0,0,0,0,0,0,0,0,0,0,104,0.543,0.952,0.444,17,37,17,0011400112,1610612763,MEM,Memphis,Quincy Pondexter,,DNP - Coach's Decision                  ,,,,,,,,,,,,,
0011400112,1610612763,MEM,Memphis,202347,Quincy Pondexter,,DNP - Coach's Decision                  ,,,,,,,0.0,,,,,,,0.0,,,2014-10-24T00:00:00,4,1610612763,MEM,Memphis,3-5,27,21,23,27,0,0,0,0,0,0,0,0,0,0,98,0.434,0.72,0.421,22,38,15,0011400112,1610612763,MEM,Memphis,Quincy Pondexter,,DNP - Coach's Decision                  ,,,,,,,,,,,,,
0011400112,1610612763,MEM,Memphis,2757,Beno Udrih,,DNP - Coach's Decision                  ,,,,,,,0.0,,,,,,,0.0,,,2014-10-24T00:00:00,4,1610612748,MIA,Miami,4-4,23,31,30,20,0,0,0,0,0,0,0,0,0,0,104,0.543,0.952,0.444,17,37,17,0011400112,1610612763,MEM,Memphis,Beno Udrih,,DNP - Coach's Decision                  ,,,,,,,,,,,,,
0011400112,1610612763,MEM,Memphis,2757,Beno Udrih,,DNP - Coach's Decision                  ,,,,,,,0.0,,,,,,,0.0,,,2014-10-24T00:00:00,4,1610612763,MEM,Memphis,3-5,27,21,23,27,0,0,0,0,0,0,0,0,0,0,98,0.434,0.72,0.421,22,38,15,0011400112,1610612763,MEM,Memphis,Beno Udrih,,DNP - Coach's Decision                  ,,,,,,,,,,,,,
