GAME_ID_x,TEAM_ID_x,TEAM_ABBREVIATION_x,TEAM_CITY_x,PLAYER_ID,PLAYER_NAME_x,START_POSITION_x,COMMENT_x,MIN_x,OFF_RATING,DEF_RATING,NET_RATING,AST_PCT,AST_TOV,AST_RATIO,OREB_PCT,DREB_PCT,REB_PCT,TM_TOV_PCT,EFG_PCT,TS_PCT,USG_PCT,PACE,PIE,GAME_DATE_EST,GAME_SEQUENCE,TEAM_ID_y,TEAM_ABBREVIATION_y,TEAM_CITY_NAME,TEAM_WINS_LOSSES,PTS_QTR1,PTS_QTR2,PTS_QTR3,PTS_QTR4,PTS_OT1,PTS_OT2,PTS_OT3,PTS_OT4,PTS_OT5,PTS_OT6,PTS_OT7,PTS_OT8,PTS_OT9,PTS_OT10,PTS,FG_PCT,FT_PCT,FG3_PCT,AST,REB,TOV,GAME_ID_y,TEAM_ID,TEAM_ABBREVIATION,TEAM_CITY_y,PLAYER_NAME_y,START_POSITION_y,COMMENT_y,MIN_y,PTS_OFF_TOV,PTS_2ND_CHANCE,PTS_FB,PTS_PAINT,OPP_PTS_OFF_TOV,OPP_PTS_2ND_CHANCE,OPP_PTS_FB,OPP_PTS_PAINT,BLK,BLKA,PF,PFD
0021300686,1610612756,PHX,Phoenix,200782,PJ Tucker,F,,36:06,104.5,96.3,8.3,0.074,0.5,13.4,0.067,0.125,0.1,26.9,0.375,0.394,0.164,98.07,0.037,2014-01-30T00:00:00,1,1610612756,PHX,Phoenix,28-18,36,30,11,25,0,0,0,0,0,0,0,0,0,0,102,0.429,0.8,0.471,18,46,12,0021300686,1610612756,PHX,Phoenix,PJ Tucker,F,,36:06,0.0,0.0,4.0,6.0,10.0,10.0,0.0,44.0,0.0,2.0,2.0,3.0
0021300686,1610612756,PHX,Phoenix,200782,PJ Tucker,F,,36:06,104.5,96.3,8.3,0.074,0.5,13.4,0.067,0.125,0.1,26.9,0.375,0.394,0.164,98.07,0.037,2014-01-30T00:00:00,1,1610612754,IND,Indiana,35-10,19,30,25,20,0,0,0,0,0,0,0,0,0,0,94,0.437,0.708,0.067,15,47,15,0021300686,1610612756,PHX,Phoenix,PJ Tucker,F,,36:06,0.0,0.0,4.0,6.0,10.0,10.0,0.0,44.0,0.0,2.0,2.0,3.0
0021300686,1610612756,PHX,Phoenix,101112,Channing Frye,F,,37:57,105.5,99.2,6.2,0.067,0.0,20.0,0.0,0.211,0.114,0.0,0.438,0.438,0.089,101.31,0.089,2014-01-30T00:00:00,1,1610612756,PHX,Phoenix,28-18,36,30,11,25,0,0,0,0,0,0,0,0,0,0,102,0.429,0.8,0.471,18,46,12,0021300686,1610612756,PHX,Phoenix,Channing Frye,F,,37:57,0.0,0.0,0.0,0.0,10.0,10.0,0.0,48.0,2.0,0.0,2.0,2.0
0021300686,1610612756,PHX,Phoenix,101112,Channing Frye,F,,37:57,105.5,99.2,6.2,0.067,0.0,20.0,0.0,0.211,0.114,0.0,0.438,0.438,0.089,101.31,0.089,2014-01-30T00:00:00,1,1610612754,IND,Indiana,35-10,19,30,25,20,0,0,0,0,0,0,0,0,0,0,94,0.437,0.708,0.067,15,47,15,0021300686,1610612756,PHX,Phoenix,Channing Frye,F,,37:57,0.0,0.0,0.0,0.0,10.0,10.0,0.0,48.0,2.0,0.0,2.0,2.0
0021300686,1610612756,PHX,Phoenix,203101,Miles Plumlee,C,,19:06,88.9,85.8,3.1,0.0,0.0,0.0,0.105,0.2,0.154,20.0,0.25,0.25,0.224,102.13,0.011,2014-01-30T00:00:00,1,1610612756,PHX,Phoenix,28-18,36,30,11,25,0,0,0,0,0,0,0,0,0,0,102,0.429,0.8,0.471,18,46,12,0021300686,1610612756,PHX,Phoenix,Miles Plumlee,C,,19:06,2.0,0.0,0.0,2.0,2.0,4.0,0.0,22.0,1.0,0.0,3.0,0.0
0021300686,1610612756,PHX,Phoenix,203101,Miles Plumlee,C,,19:06,88.9,85.8,3.1,0.0,0.0,0.0,0.105,0.2,0.154,20.0,0.25,0.25,0.224,102.13,0.011,2014-01-30T00:00:00,1,1610612754,IND,Indiana,35-10,19,30,25,20,0,0,0,0,0,0,0,0,0,0,94,0.437,0.708,0.067,15,47,15,0021300686,1610612756,PHX,Phoenix,Miles Plumlee,C,,19:06,2.0,0.0,0.0,2.0,2.0,4.0,0.0,22.0,1.0,0.0,3.0,0.0
0021300686,1610612756,PHX,Phoenix,101123,Gerald Green,G,,30:26,91.0,90.9,0.1,0.111,0.67,9.6,0.0,0.118,0.065,14.4,0.467,0.504,0.259,98.87,0.124,2014-01-30T00:00:00,1,1610612756,PHX,Phoenix,28-18,36,30,11,25,0,0,0,0,0,0,0,0,0,0,102,0.429,0.8,0.471,18,46,12,0021300686,1610612756,PHX,Phoenix,Gerald Green,G,,30:26,0.0,7.0,2.0,6.0,8.0,6.0,0.0,38.0,1.0,0.0,1.0,1.0
0021300686,1610612756,PHX,Phoenix,101123,Gerald Green,G,,30:26,91.0,90.9,0.1,0.111,0.67,9.6,0.0,0.118,0.065,14.4,0.467,0.504,0.259,98.87,0.124,2014-01-30T00:00:00,1,1610612754,IND,Indiana,35-10,19,30,25,20,0,0,0,0,0,0,0,0,0,0,94,0.437,0.708,0.067,15,47,15,0021300686,1610612756,PHX,Phoenix,Gerald Green,G,,30:26,0.0,7.0,2.0,6.0,8.0,6.0,0.0,38.0,1.0,0.0,1.0,1.0
0021300686,1610612756,PHX,Phoenix,201609,Goran Dragic,G,,33:48,99.0,100.6,-1.6,0.438,3.5,21.2,0.067,0.03,0.048,6.0,0.548,0.581,0.336,97.51,0.213,2014-01-30T00:00:00,1,1610612756,PHX,Phoenix,28-18,36,30,11,25,0,0,0,0,0,0,0,0,0,0,102,0.429,0.8,0.471,18,46,12,0021300686,1610612756,PHX,Phoenix,Goran Dragic,G,,33:48,3.0,2.0,6.0,18.0,8.0,8.0,0.0,42.0,0.0,3.0,3.0,9.0
0021300686,1610612756,PHX,Phoenix,201609,Goran Dragic,G,,33:48,99.0,100.6,-1.6,0.438,3.5,21.2,0.067,0.03,0.048,6.0,0.548,0.581,0.336,97.51,0.213,2014-01-30T00:00:00,1,1610612754,IND,Indiana,35-10,19,30,25,20,0,0,0,0,0,0,0,0,0,0,94,0.437,0.708,0.067,15,47,15,0021300686,1610612756,PHX,Phoenix,Goran Dragic,G,,33:48,3.0,2.0,6.0,18.0,8.0,8.0,0.0,42.0,0.0,3.0,3.0,9.0
0021300686,1610612756,PHX,Phoenix,202693,Markieff Morris,,,24:07,106.7,89.3,17.4,0.143,0.0,13.7,0.05,0.071,0.062,0.0,0.5,0.593,0.24,95.3,0.138,2014-01-30T00:00:00,1,1610612756,PHX,Phoenix,28-18,36,30,11,25,0,0,0,0,0,0,0,0,0,0,102,0.429,0.8,0.471,18,46,12,0021300686,1610612756,PHX,Phoenix,Markieff Morris,,,24:07,3.0,0.0,0.0,2.0,8.0,4.0,0.0,30.0,0.0,0.0,5.0,3.0
0021300686,1610612756,PHX,Phoenix,202693,Markieff Morris,,,24:07,106.7,89.3,17.4,0.143,0.0,13.7,0.05,0.071,0.062,0.0,0.5,0.593,0.24,95.3,0.138,2014-01-30T00:00:00,1,1610612754,IND,Indiana,35-10,19,30,25,20,0,0,0,0,0,0,0,0,0,0,94,0.437,0.708,0.067,15,47,15,0021300686,1610612756,PHX,Phoenix,Markieff Morris,,,24:07,3.0,0.0,0.0,2.0,8.0,4.0,0.0,30.0,0.0,0.0,5.0,3.0
0021300686,1610612756,PHX,Phoenix,2571,Leandro Barbosa,,,15:16,99.8,86.7,13.0,0.111,1.0,14.5,0.067,0.176,0.125,14.5,0.875,0.922,0.163,104.32,0.295,2014-01-30T00:00:00,1,1610612756,PHX,Phoenix,28-18,36,30,11,25,0,0,0,0,0,0,0,0,0,0,102,0.429,0.8,0.471,18,46,12,0021300686,1610612756,PHX,Phoenix,Leandro Barbosa,,,15:16,2.0,0.0,2.0,4.0,4.0,2.0,0.0,16.0,0.0,0.0,0.0,1.0
0021300686,1610612756,PHX,Phoenix,2571,Leandro Barbosa,,,15:16,99.8,86.7,13.0,0.111,1.0,14.5,0.067,0.176,0.125,14.5,0.875,0.922,0.163,104.32,0.295,2014-01-30T00:00:00,1,1610612754,IND,Indiana,35-10,19,30,25,20,0,0,0,0,0,0,0,0,0,0,94,0.437,0.708,0.067,15,47,15,0021300686,1610612756,PHX,Phoenix,Leandro Barbosa,,,15:16,2.0,0.0,2.0,4.0,4.0,2.0,0.0,16.0,0.0,0.0,0.0,1.0
0021300686,1610612756,PHX,Phoenix,202694,Marcus Morris,,,20:59,121.2,102.6,18.7,0.143,0.0,13.9,0.105,0.235,0.167,0.0,0.625,0.643,0.231,106.0,0.204,2014-01-30T00:00:00,1,1610612756,PHX,Phoenix,28-18,36,30,11,25,0,0,0,0,0,0,0,0,0,0,102,0.429,0.8,0.471,18,46,12,0021300686,1610612756,PHX,Phoenix,Marcus Morris,,,20:59,7.0,0.0,7.0,6.0,6.0,4.0,0.0,22.0,0.0,0.0,1.0,4.0
0021300686,1610612756,PHX,Phoenix,202694,Marcus Morris,,,20:59,121.2,102.6,18.7,0.143,0.0,13.9,0.105,0.235,0.167,0.0,0.625,0.643,0.231,106.0,0.204,2014-01-30T00:00:00,1,1610612754,IND,Indiana,35-10,19,30,25,20,0,0,0,0,0,0,0,0,0,0,94,0.437,0.708,0.067,15,47,15,0021300686,1610612756,PHX,Phoenix,Marcus Morris,,,20:59,7.0,0.0,7.0,6.0,6.0,4.0,0.0,22.0,0.0,0.0,1.0,4.0
0021300686,1610612756,PHX,Phoenix,203458,Alex Len,,,14:22,94.5,107.0,-12.5,0.0,0.0,0.0,0.059,0.333,0.172,0.0,0.0,0.0,0.112,101.02,-0.054,2014-01-30T00:00:00,1,1610612756,PHX,Phoenix,28-18,36,30,11,25,0,0,0,0,0,0,0,0,0,0,102,0.429,0.8,0.471,18,46,12,0021300686,1610612756,PHX,Phoenix,Alex Len,,,14:22,0.0,0.0,0.0,0.0,4.0,2.0,0.0,12.0,0.0,1.0,4.0,0.0
0021300686,1610612756,PHX,Phoenix,203458,Alex Len,,,14:22,94.5,107.0,-12.5,0.0,0.0,0.0,0.059,0.333,0.172,0.0,0.0,0.0,0.112,101.02,-0.054,2014-01-30T00:00:00,1,1610612754,IND,Indiana,35-10,19,30,25,20,0,0,0,0,0,0,0,0,0,0,94,0.437,0.708,0.067,15,47,15,0021300686,1610612756,PHX,Phoenix,Alex Len,,,14:22,0.0,0.0,0.0,0.0,4.0,2.0,0.0,12.0,0.0,1.0,4.0,0.0
0021300686,1610612756,PHX,Phoenix,202397,Ish Smith,,,7:53,85.5,82.0,3.6,0.0,0.0,0.0,0.0,0.0,0.0,0.0,0.0,0.0,0.058,90.84,-0.067,2014-01-30T00:00:00,1,1610612756,PHX,Phoenix,28-18,36,30,11,25,0,0,0,0,0,0,0,0,0,0,102,0.429,0.8,0.471,18,46,12,0021300686,1610612756,PHX,Phoenix,Ish Smith,,,7:53,0.0,0.0,0.0,0.0,0.0,0.0,0.0,6.0,0.0,0.0,0.0,0.0
0021300686,1610612756,PHX,Phoenix,202397,Ish Smith,,,7:53,85.5,82.0,3.6,0.0,0.0,0.0,0.0,0.0,0.0,0.0,0.0,0.0,0.058,90.84,-0.067,2014-01-30T00:00:00,1,1610612754,IND,Indiana,35-10,19,30,25,20,0,0,0,0,0,0,0,0,0,0,94,0.437,0.708,0.067,15,47,15,0021300686,1610612756,PHX,Phoenix,Ish Smith,,,7:53,0.0,0.0,0.0,0.0,0.0,0.0,0.0,6.0,0.0,0.0,0.0,0.0
0021300686,1610612756,PHX,Phoenix,202091,Dionte Christmas,,DNP - Coach's Decision,,,,,,,0.0,,,,,,,0.0,,,2014-01-30T00:00:00,1,1610612756,PHX,Phoenix,28-18,36,30,11,25,0,0,0,0,0,0,0,0,0,0,102,0.429,0.8,0.471,18,46,12,0021300686,1610612756,PHX,Phoenix,Dionte Christmas,,DNP - Coach's Decision,,,,,,,,,,,,,
0021300686,1610612756,PHX,Phoenix,202091,Dionte Christmas,,DNP - Coach's Decision,,,,,,,0.0,,,,,,,0.0,,,2014-01-30T00:00:00,1,1610612754,IND,Indiana,35-10,19,30,25,20,0,0,0,0,0,0,0,0,0,0,94,0.437,0.708,0.067,15,47,15,0021300686,1610612756,PHX,Phoenix,Dionte Christmas,,DNP - Coach's Decision,,,,,,,,,,,,,
0021300686,1610612756,PHX,Phoenix,203462,Archie Goodwin,,DNP - Coach's Decision,,,,,,,0.0,,,,,,,0.0,,,2014-01-30T00:00:00,1,1610612756,PHX,Phoenix,28-18,36,30,11,25,0,0,0,0,0,0,0,0,0,0,102,0.429,0.8,0.471,18,46,12,0021300686,1610612756,PHX,Phoenix,Archie Goodwin,,DNP - Coach's Decision,,,,,,,,,,,,,
0021300686,1610612756,PHX,Phoenix,203462,Archie Goodwin,,DNP - Coach's Decision,,,,,,,0.0,,,,,,,0.0,,,2014-01-30T00:00:00,1,1610612754,IND,Indiana,35-10,19,30,25,20,0,0,0,0,0,0,0,0,0,0,94,0.437,0.708,0.067,15,47,15,0021300686,1610612756,PHX,Phoenix,Archie Goodwin,,DNP - Coach's Decision,,,,,,,,,,,,,
0021300686,1610612756,PHX,Phoenix,203139,Viacheslav Kravtsov,,DNP - Coach's Decision,,,,,,,0.0,,,,,,,0.0,,,2014-01-30T00:00:00,1,1610612756,PHX,Phoenix,28-18,36,30,11,25,0,0,0,0,0,0,0,0,0,0,102,0.429,0.8,0.471,18,46,12,0021300686,1610612756,PHX,Phoenix,Viacheslav Kravtsov,,DNP - Coach's Decision,,,,,,,,,,,,,
0021300686,1610612756,PHX,Phoenix,203139,Viacheslav Kravtsov,,DNP - Coach's Decision,,,,,,,0.0,,,,,,,0.0,,,2014-01-30T00:00:00,1,1610612754,IND,Indiana,35-10,19,30,25,20,0,0,0,0,0,0,0,0,0,0,94,0.437,0.708,0.067,15,47,15,0021300686,1610612756,PHX,Phoenix,Viacheslav Kravtsov,,DNP - Coach's Decision,,,,,,,,,,,,,
0021300686,1610612754,IND,Indiana,202331,Paul George,F,,38:17,98.3,96.6,1.6,0.154,1.0,14.9,0.05,0.286,0.16,14.9,0.294,0.32,0.255,97.77,0.056,2014-01-30T00:00:00,1,1610612756,PHX,Phoenix,28-18,36,30,11,25,0,0,0,0,0,0,0,0,0,0,102,0.429,0.8,0.471,18,46,12,0021300686,1610612754,IND,Indiana,Paul George,F,,38:17,0.0,0.0,0.0,2.0,10.0,4.0,8.0,30.0,0.0,1.0,3.0,4.0
0021300686,1610612754,IND,Indiana,202331,Paul George,F,,38:17,98.3,96.6,1.6,0.154,1.0,14.9,0.05,0.286,0.16,14.9,0.294,0.32,0.255,97.77,0.056,2014-01-30T00:00:00,1,1610612754,IND,Indiana,35-10,19,30,25,20,0,0,0,0,0,0,0,0,0,0,94,0.437,0.708,0.067,15,47,15,0021300686,1610612754,IND,Indiana,Paul George,F,,38:17,0.0,0.0,0.0,2.0,10.0,4.0,8.0,30.0,0.0,1.0,3.0,4.0
0021300686,1610612754,IND,Indiana,2561,David West,F,,32:18,107.5,82.3,25.2,0.048,0.5,4.6,0.0,0.091,0.049,9.1,0.444,0.477,0.29,97.81,0.077,2014-01-30T00:00:00,1,1610612756,PHX,Phoenix,28-18,36,30,11,25,0,0,0,0,0,0,0,0,0,0,102,0.429,0.8,0.471,18,46,12,0021300686,1610612754,IND,Indiana,David West,F,,32:18,0.0,0.0,0.0,12.0,9.0,7.0,14.0,26.0,1.0,1.0,4.0,2.0
0021300686,1610612754,IND,Indiana,2561,David West,F,,32:18,107.5,82.3,25.2,0.048,0.5,4.6,0.0,0.091,0.049,9.1,0.444,0.477,0.29,97.81,0.077,2014-01-30T00:00:00,1,1610612754,IND,Indiana,35-10,19,30,25,20,0,0,0,0,0,0,0,0,0,0,94,0.437,0.708,0.067,15,47,15,0021300686,1610612754,IND,Indiana,David West,F,,32:18,0.0,0.0,0.0,12.0,9.0,7.0,14.0,26.0,1.0,1.0,4.0,2.0
0021300686,1610612754,IND,Indiana,201579,Roy Hibbert,C,,37:45,99.7,102.5,-2.8,0.0,0.0,0.0,0.105,0.063,0.086,8.4,0.529,0.595,0.267,99.36,0.143,2014-01-30T00:00:00,1,1610612756,PHX,Phoenix,28-18,36,30,11,25,0,0,0,0,0,0,0,0,0,0,102,0.429,0.8,0.471,18,46,12,0021300686,1610612754,IND,Indiana,Roy Hibbert,C,,37:45,6.0,10.0,0.0,18.0,13.0,4.0,11.0,32.0,2.0,0.0,2.0,8.0
0021300686,1610612754,IND,Indiana,201579,Roy Hibbert,C,,37:45,99.7,102.5,-2.8,0.0,0.0,0.0,0.105,0.063,0.086,8.4,0.529,0.595,0.267,99.36,0.143,2014-01-30T00:00:00,1,1610612754,IND,Indiana,35-10,19,30,25,20,0,0,0,0,0,0,0,0,0,0,94,0.437,0.708,0.067,15,47,15,0021300686,1610612754,IND,Indiana,Roy Hibbert,C,,37:45,6.0,10.0,0.0,18.0,13.0,4.0,11.0,32.0,2.0,0.0,2.0,8.0
0021300686,1610612754,IND,Indiana,202362,Lance Stephenson,G,,36:53,93.6,100.9,-7.3,0.417,2.0,36.4,0.057,0.229,0.143,18.2,0.542,0.563,0.205,100.99,0.154,2014-01-30T00:00:00,1,1610612756,PHX,Phoenix,28-18,36,30,11,25,0,0,0,0,0,0,0,0,0,0,102,0.429,0.8,0.471,18,46,12,0021300686,1610612754,IND,Indiana,Lance Stephenson,G,,36:53,2.0,0.0,0.0,8.0,13.0,7.0,19.0,40.0,0.0,1.0,5.0,2.0
0021300686,1610612754,IND,Indiana,202362,Lance Stephenson,G,,36:53,93.6,100.9,-7.3,0.417,2.0,36.4,0.057,0.229,0.143,18.2,0.542,0.563,0.205,100.99,0.154,2014-01-30T00:00:00,1,1610612754,IND,Indiana,35-10,19,30,25,20,0,0,0,0,0,0,0,0,0,0,94,0.437,0.708,0.067,15,47,15,0021300686,1610612754,IND,Indiana,Lance Stephenson,G,,36:53,2.0,0.0,0.0,8.0,13.0,7.0,19.0,40.0,0.0,1.0,5.0,2.0
0021300686,1610612754,IND,Indiana,201588,George Hill,G,,33:57,105.2,86.9,18.3,0.0,0.0,0.0,0.029,0.032,0.031,9.3,0.875,0.871,0.137,96.19,0.156,2014-01-30T00:00:00,1,1610612756,PHX,Phoenix,28-18,36,30,11,25,0,0,0,0,0,0,0,0,0,0,102,0.429,0.8,0.471,18,46,12,0021300686,1610612754,IND,Indiana,George Hill,G,,33:57,4.0,0.0,0.0,12.0,7.0,4.0,6.0,28.0,1.0,0.0,3.0,3.0
0021300686,1610612754,IND,Indiana,201588,George Hill,G,,33:57,105.2,86.9,18.3,0.0,0.0,0.0,0.029,0.032,0.031,9.3,0.875,0.871,0.137,96.19,0.156,2014-01-30T00:00:00,1,1610612754,IND,Indiana,35-10,19,30,25,20,0,0,0,0,0,0,0,0,0,0,94,0.437,0.708,0.067,15,47,15,0021300686,1610612754,IND,Indiana,George Hill,G,,33:57,4.0,0.0,0.0,12.0,7.0,4.0,6.0,28.0,1.0,0.0,3.0,3.0
0021300686,1610612754,IND,Indiana,2449,Luis Scola,,,15:14,70.7,134.5,-63.8,0.0,0.0,0.0,0.143,0.364,0.219,0.0,0.2,0.255,0.145,105.12,-0.009,2014-01-30T00:00:00,1,1610612756,PHX,Phoenix,28-18,36,30,11,25,0,0,0,0,0,0,0,0,0,0,102,0.429,0.8,0.471,18,46,12,0021300686,1610612754,IND,Indiana,Luis Scola,,,15:14,0.0,0.0,0.0,2.0,8.0,2.0,7.0,18.0,0.0,0.0,4.0,2.0
0021300686,1610612754,IND,Indiana,2449,Luis Scola,,,15:14,70.7,134.5,-63.8,0.0,0.0,0.0,0.143,0.364,0.219,0.0,0.2,0.255,0.145,105.12,-0.009,2014-01-30T00:00:00,1,1610612754,IND,Indiana,35-10,19,30,25,20,0,0,0,0,0,0,0,0,0,0,94,0.437,0.708,0.067,15,47,15,0021300686,1610612754,IND,Indiana,Luis Scola,,,15:14,0.0,0.0,0.0,2.0,8.0,2.0,7.0,18.0,0.0,0.0,4.0,2.0
0021300686,1610612754,IND,Indiana,101122,Danny Granger,,,21:18,93.2,111.3,-18.1,0.0,0.0,0.0,0.043,0.167,0.098,0.0,0.0,0.0,0.059,99.79,0.024,2014-01-30T00:00:00,1,1610612756,PHX,Phoenix,28-18,36,30,11,25,0,0,0,0,0,0,0,0,0,0,102,0.429,0.8,0.471,18,46,12,0021300686,1610612754,IND,Indiana,Danny Granger,,,21:18,0.0,0.0,0.0,0.0,11.0,7.0,15.0,18.0,2.0,0.0,0.0,0.0
0021300686,1610612754,IND,Indiana,101122,Danny Granger,,,21:18,93.2,111.3,-18.1,0.0,0.0,0.0,0.043,0.167,0.098,0.0,0.0,0.0,0.059,99.79,0.024,2014-01-30T00:00:00,1,1610612754,IND,Indiana,35-10,19,30,25,20,0,0,0,0,0,0,0,0,0,0,94,0.437,0.708,0.067,15,47,15,0021300686,1610612754,IND,Indiana,Danny Granger,,,21:18,0.0,0.0,0.0,0.0,11.0,7.0,15.0,18.0,2.0,0.0,0.0,0.0
0021300686,1610612754,IND,Indiana,201228,C.J. Watson,,,14:03,71.9,129.1,-57.2,0.0,0.0,0.0,0.0,0.154,0.071,0.0,0.333,0.333,0.175,108.11,0.02,2014-01-30T00:00:00,1,1610612756,PHX,Phoenix,28-18,36,30,11,25,0,0,0,0,0,0,0,0,0,0,102,0.429,0.8,0.471,18,46,12,0021300686,1610612754,IND,Indiana,C.J. Watson,,,14:03,0.0,0.0,0.0,2.0,10.0,5.0,15.0,16.0,0.0,1.0,2.0,0.0
0021300686,1610612754,IND,Indiana,201228,C.J. Watson,,,14:03,71.9,129.1,-57.2,0.0,0.0,0.0,0.0,0.154,0.071,0.0,0.333,0.333,0.175,108.11,0.02,2014-01-30T00:00:00,1,1610612754,IND,Indiana,35-10,19,30,25,20,0,0,0,0,0,0,0,0,0,0,94,0.437,0.708,0.067,15,47,15,0021300686,1610612754,IND,Indiana,C.J. Watson,,,14:03,0.0,0.0,0.0,2.0,10.0,5.0,15.0,16.0,0.0,1.0,2.0,0.0
0021300686,1610612754,IND,Indiana,101133,Ian Mahinmi,,,10:15,78.7,96.7,-17.9,0.0,0.0,0.0,0.091,0.0,0.043,50.0,0.0,0.0,0.086,100.87,-0.055,2014-01-30T00:00:00,1,1610612756,PHX,Phoenix,28-18,36,30,11,25,0,0,0,0,0,0,0,0,0,0,102,0.429,0.8,0.471,18,46,12,0021300686,1610612754,IND,Indiana,Ian Mahinmi,,,10:15,0.0,0.0,0.0,0.0,4.0,5.0,10.0,12.0,0.0,0.0,0.0,0.0
0021300686,1610612754,IND,Indiana,101133,Ian Mahinmi,,,10:15,78.7,96.7,-17.9,0.0,0.0,0.0,0.091,0.0,0.043,50.0,0.0,0.0,0.086,100.87,-0.055,2014-01-30T00:00:00,1,1610612754,IND,Indiana,35-10,19,30,25,20,0,0,0,0,0,0,0,0,0,0,94,0.437,0.708,0.067,15,47,15,0021300686,1610612754,IND,Indiana,Ian Mahinmi,,,10:15,0.0,0.0,0.0,0.0,4.0,5.0,10.0,12.0,0.0,0.0,0.0,0.0
0021300686,1610612754,IND,Indiana,2446,Rasual Butler,,DNP - Coach's Decision,,,,,,,0.0,,,,,,,0.0,,,2014-01-30T00:00:00,1,1610612756,PHX,Phoenix,28-18,36,30,11,25,0,0,0,0,0,0,0,0,0,0,102,0.429,0.8,0.471,18,46,12,0021300686,1610612754,IND,Indiana,Rasual Butler,,DNP - Coach's Decision,,,,,,,,,,,,,
0021300686,1610612754,IND,Indiana,2446,Rasual Butler,,DNP - Coach's Decision,,,,,,,0.0,,,,,,,0.0,,,2014-01-30T00:00:00,1,1610612754,IND,Indiana,35-10,19,30,25,20,0,0,0,0,0,0,0,0,0,0,94,0.437,0.708,0.067,15,47,15,0021300686,1610612754,IND,Indiana,Rasual Butler,,DNP - Coach's Decision,,,,,,,,,,,,,
0021300686,1610612754,IND,Indiana,203142,Chris Copeland,,DNP - Coach's Decision,,,,,,,0.0,,,,,,,0.0,,,2014-01-30T00:00:00,1,1610612756,PHX,Phoenix,28-18,36,30,11,25,0,0,0,0,0,0,0,0,0,0,102,0.429,0.8,0.471,18,46,12,0021300686,1610612754,IND,Indiana,Chris Copeland,,DNP - Coach's Decision,,,,,,,,,,,,,
0021300686,1610612754,IND,Indiana,203142,Chris Copeland,,DNP - Coach's Decision,,,,,,,0.0,,,,,,,0.0,,,2014-01-30T00:00:00,1,1610612754,IND,Indiana,35-10,19,30,25,20,0,0,0,0,0,0,0,0,0,0,94,0.437,0.708,0.067,15,47,15,0021300686,1610612754,IND,Indiana,Chris Copeland,,DNP - Coach's Decision,,,,,,,,,,,,,
0021300686,1610612754,IND,Indiana,203111,Orlando Johnson,,DNP - Coach's Decision,,,,,,,0.0,,,,,,,0.0,,,2014-01-30T00:00:00,1,1610612756,PHX,Phoenix,28-18,36,30,11,25,0,0,0,0,0,0,0,0,0,0,102,0.429,0.8,0.471,18,46,12,0021300686,1610612754,IND,Indiana,Orlando Johnson,,DNP - Coach's Decision,,,,,,,,,,,,,
0021300686,1610612754,IND,Indiana,203111,Orlando Johnson,,DNP - Coach's Decision,,,,,,,0.0,,,,,,,0.0,,,2014-01-30T00:00:00,1,1610612754,IND,Indiana,35-10,19,30,25,20,0,0,0,0,0,0,0,0,0,0,94,0.437,0.708,0.067,15,47,15,0021300686,1610612754,IND,Indiana,Orlando Johnson,,DNP - Coach's Decision,,,,,,,,,,,,,
0021300686,1610612754,IND,Indiana,202388,Donald Sloan,,DNP - Coach's Decision,,,,,,,0.0,,,,,,,0.0,,,2014-01-30T00:00:00,1,1610612756,PHX,Phoenix,28-18,36,30,11,25,0,0,0,0,0,0,0,0,0,0,102,0.429,0.8,0.471,18,46,12,0021300686,1610612754,IND,Indiana,Donald Sloan,,DNP - Coach's Decision,,,,,,,,,,,,,
0021300686,1610612754,IND,Indiana,202388,Donald Sloan,,DNP - Coach's Decision,,,,,,,0.0,,,,,,,0.0,,,2014-01-30T00:00:00,1,1610612754,IND,Indiana,35-10,19,30,25,20,0,0,0,0,0,0,0,0,0,0,94,0.437,0.708,0.067,15,47,15,0021300686,1610612754,IND,Indiana,Donald Sloan,,DNP - Coach's Decision,,,,,,,,,,,,,
