GAME_ID_x,TEAM_ID_x,TEAM_ABBREVIATION_x,TEAM_CITY_x,PLAYER_ID,PLAYER_NAME_x,START_POSITION_x,COMMENT_x,MIN_x,OFF_RATING,DEF_RATING,NET_RATING,AST_PCT,AST_TOV,AST_RATIO,OREB_PCT,DREB_PCT,REB_PCT,TM_TOV_PCT,EFG_PCT,TS_PCT,USG_PCT,PACE,PIE,GAME_DATE_EST,GAME_SEQUENCE,TEAM_ID_y,TEAM_ABBREVIATION_y,TEAM_CITY_NAME,TEAM_WINS_LOSSES,PTS_QTR1,PTS_QTR2,PTS_QTR3,PTS_QTR4,PTS_OT1,PTS_OT2,PTS_OT3,PTS_OT4,PTS_OT5,PTS_OT6,PTS_OT7,PTS_OT8,PTS_OT9,PTS_OT10,PTS,FG_PCT,FT_PCT,FG3_PCT,AST,REB,TOV,GAME_ID_y,TEAM_ID,TEAM_ABBREVIATION,TEAM_CITY_y,PLAYER_NAME_y,START_POSITION_y,COMMENT_y,MIN_y,PTS_OFF_TOV,PTS_2ND_CHANCE,PTS_FB,PTS_PAINT,OPP_PTS_OFF_TOV,OPP_PTS_2ND_CHANCE,OPP_PTS_FB,OPP_PTS_PAINT,BLK,BLKA,PF,PFD
0021300487,1610612763,MEM,Memphis,2419,Tayshaun Prince,F,,28:60,115.8,101.3,14.6,0.158,3.0,21.6,0.04,0.125,0.082,7.2,0.611,0.658,0.163,95.89,0.134,2014-01-03T00:00:00,6,1610612763,MEM,Memphis,14-18,23,25,27,33,0,0,0,0,0,0,0,0,0,0,108,0.487,0.763,0.417,23,35,13,0021300487,1610612763,MEM,Memphis,Tayshaun Prince,F,,28:60,2.0,2.0,0.0,4.0,10.0,8.0,7.0,22.0,0.0,0.0,1.0,3.0
0021300487,1610612763,MEM,Memphis,2419,Tayshaun Prince,F,,28:60,115.8,101.3,14.6,0.158,3.0,21.6,0.04,0.125,0.082,7.2,0.611,0.658,0.163,95.89,0.134,2014-01-03T00:00:00,6,1610612743,DEN,Denver,15-17,28,30,19,34,0,0,0,0,0,0,0,0,0,0,111,0.538,0.762,0.409,27,41,16,0021300487,1610612763,MEM,Memphis,Tayshaun Prince,F,,28:60,2.0,2.0,0.0,4.0,10.0,8.0,7.0,22.0,0.0,0.0,1.0,3.0
0021300487,1610612763,MEM,Memphis,2216,Zach Randolph,F,,38:04,114.2,114.4,-0.2,0.1,2.0,8.3,0.147,0.286,0.21,4.2,0.556,0.593,0.254,96.54,0.172,2014-01-03T00:00:00,6,1610612763,MEM,Memphis,14-18,23,25,27,33,0,0,0,0,0,0,0,0,0,0,108,0.487,0.763,0.417,23,35,13,0021300487,1610612763,MEM,Memphis,Zach Randolph,F,,38:04,4.0,5.0,0.0,18.0,12.0,12.0,11.0,36.0,0.0,3.0,1.0,6.0
0021300487,1610612763,MEM,Memphis,2216,Zach Randolph,F,,38:04,114.2,114.4,-0.2,0.1,2.0,8.3,0.147,0.286,0.21,4.2,0.556,0.593,0.254,96.54,0.172,2014-01-03T00:00:00,6,1610612743,DEN,Denver,15-17,28,30,19,34,0,0,0,0,0,0,0,0,0,0,111,0.538,0.762,0.409,27,41,16,0021300487,1610612763,MEM,Memphis,Zach Randolph,F,,38:04,4.0,5.0,0.0,18.0,12.0,12.0,11.0,36.0,0.0,3.0,1.0,6.0
0021300487,1610612763,MEM,Memphis,201585,Kosta Koufos,C,,22:14,105.3,133.9,-28.5,0.083,0.0,11.4,0.053,0.211,0.132,0.0,0.667,0.709,0.166,90.48,0.111,2014-01-03T00:00:00,6,1610612763,MEM,Memphis,14-18,23,25,27,33,0,0,0,0,0,0,0,0,0,0,108,0.487,0.763,0.417,23,35,13,0021300487,1610612763,MEM,Memphis,Kosta Koufos,C,,22:14,1.0,0.0,0.0,8.0,10.0,6.0,9.0,22.0,2.0,0.0,5.0,2.0
0021300487,1610612763,MEM,Memphis,201585,Kosta Koufos,C,,22:14,105.3,133.9,-28.5,0.083,0.0,11.4,0.053,0.211,0.132,0.0,0.667,0.709,0.166,90.48,0.111,2014-01-03T00:00:00,6,1610612743,DEN,Denver,15-17,28,30,19,34,0,0,0,0,0,0,0,0,0,0,111,0.538,0.762,0.409,27,41,16,0021300487,1610612763,MEM,Memphis,Kosta Koufos,C,,22:14,1.0,0.0,0.0,8.0,10.0,6.0,9.0,22.0,2.0,0.0,5.0,2.0
0021300487,1610612763,MEM,Memphis,2754,Tony Allen,G,,36:48,112.2,111.0,1.1,0.083,0.5,13.7,0.032,0.103,0.067,27.3,0.5,0.579,0.16,94.07,0.047,2014-01-03T00:00:00,6,1610612763,MEM,Memphis,14-18,23,25,27,33,0,0,0,0,0,0,0,0,0,0,108,0.487,0.763,0.417,23,35,13,0021300487,1610612763,MEM,Memphis,Tony Allen,G,,36:48,2.0,2.0,0.0,6.0,11.0,12.0,5.0,30.0,0.0,1.0,3.0,5.0
0021300487,1610612763,MEM,Memphis,2754,Tony Allen,G,,36:48,112.2,111.0,1.1,0.083,0.5,13.7,0.032,0.103,0.067,27.3,0.5,0.579,0.16,94.07,0.047,2014-01-03T00:00:00,6,1610612743,DEN,Denver,15-17,28,30,19,34,0,0,0,0,0,0,0,0,0,0,111,0.538,0.762,0.409,27,41,16,0021300487,1610612763,MEM,Memphis,Tony Allen,G,,36:48,2.0,2.0,0.0,6.0,11.0,12.0,5.0,30.0,0.0,1.0,3.0,5.0
0021300487,1610612763,MEM,Memphis,201144,Mike Conley,G,,35:40,114.8,109.9,4.9,0.381,4.0,29.4,0.0,0.0,0.0,7.4,0.633,0.669,0.231,95.79,0.178,2014-01-03T00:00:00,6,1610612763,MEM,Memphis,14-18,23,25,27,33,0,0,0,0,0,0,0,0,0,0,108,0.487,0.763,0.417,23,35,13,0021300487,1610612763,MEM,Memphis,Mike Conley,G,,35:40,3.0,0.0,2.0,10.0,10.0,10.0,7.0,28.0,0.0,0.0,1.0,4.0
0021300487,1610612763,MEM,Memphis,201144,Mike Conley,G,,35:40,114.8,109.9,4.9,0.381,4.0,29.4,0.0,0.0,0.0,7.4,0.633,0.669,0.231,95.79,0.178,2014-01-03T00:00:00,6,1610612743,DEN,Denver,15-17,28,30,19,34,0,0,0,0,0,0,0,0,0,0,111,0.538,0.762,0.409,27,41,16,0021300487,1610612763,MEM,Memphis,Mike Conley,G,,35:40,3.0,0.0,2.0,10.0,10.0,10.0,7.0,28.0,0.0,0.0,1.0,4.0
0021300487,1610612763,MEM,Memphis,201573,Jerryd Bayless,,,10:34,116.3,106.0,10.3,0.222,0.0,28.6,0.0,0.125,0.063,0.0,0.0,0.0,0.221,98.24,-0.077,2014-01-03T00:00:00,6,1610612763,MEM,Memphis,14-18,23,25,27,33,0,0,0,0,0,0,0,0,0,0,108,0.487,0.763,0.417,23,35,13,0021300487,1610612763,MEM,Memphis,Jerryd Bayless,,,10:34,0.0,0.0,0.0,0.0,6.0,4.0,4.0,10.0,0.0,0.0,1.0,0.0
0021300487,1610612763,MEM,Memphis,201573,Jerryd Bayless,,,10:34,116.3,106.0,10.3,0.222,0.0,28.6,0.0,0.125,0.063,0.0,0.0,0.0,0.221,98.24,-0.077,2014-01-03T00:00:00,6,1610612743,DEN,Denver,15-17,28,30,19,34,0,0,0,0,0,0,0,0,0,0,111,0.538,0.762,0.409,27,41,16,0021300487,1610612763,MEM,Memphis,Jerryd Bayless,,,10:34,0.0,0.0,0.0,0.0,6.0,4.0,4.0,10.0,0.0,0.0,1.0,0.0
0021300487,1610612763,MEM,Memphis,201949,James Johnson,,,12:36,95.4,122.7,-27.3,0.333,1.0,25.4,0.143,0.125,0.136,25.4,0.333,0.515,0.202,97.57,0.136,2014-01-03T00:00:00,6,1610612763,MEM,Memphis,14-18,23,25,27,33,0,0,0,0,0,0,0,0,0,0,108,0.487,0.763,0.417,23,35,13,0021300487,1610612763,MEM,Memphis,James Johnson,,,12:36,2.0,0.0,2.0,2.0,6.0,2.0,4.0,14.0,0.0,0.0,0.0,1.0
0021300487,1610612763,MEM,Memphis,201949,James Johnson,,,12:36,95.4,122.7,-27.3,0.333,1.0,25.4,0.143,0.125,0.136,25.4,0.333,0.515,0.202,97.57,0.136,2014-01-03T00:00:00,6,1610612743,DEN,Denver,15-17,28,30,19,34,0,0,0,0,0,0,0,0,0,0,111,0.538,0.762,0.409,27,41,16,0021300487,1610612763,MEM,Memphis,James Johnson,,,12:36,2.0,0.0,2.0,2.0,6.0,2.0,4.0,14.0,0.0,0.0,0.0,1.0
0021300487,1610612763,MEM,Memphis,2034,Mike Miller,,,16:07,116.9,150.6,-33.7,0.071,0.0,20.5,0.0,0.0,0.0,0.0,0.333,0.515,0.115,93.6,0.012,2014-01-03T00:00:00,6,1610612763,MEM,Memphis,14-18,23,25,27,33,0,0,0,0,0,0,0,0,0,0,108,0.487,0.763,0.417,23,35,13,0021300487,1610612763,MEM,Memphis,Mike Miller,,,16:07,0.0,0.0,0.0,0.0,7.0,6.0,4.0,16.0,0.0,0.0,2.0,2.0
0021300487,1610612763,MEM,Memphis,2034,Mike Miller,,,16:07,116.9,150.6,-33.7,0.071,0.0,20.5,0.0,0.0,0.0,0.0,0.333,0.515,0.115,93.6,0.012,2014-01-03T00:00:00,6,1610612743,DEN,Denver,15-17,28,30,19,34,0,0,0,0,0,0,0,0,0,0,111,0.538,0.762,0.409,27,41,16,0021300487,1610612763,MEM,Memphis,Mike Miller,,,16:07,0.0,0.0,0.0,0.0,7.0,6.0,4.0,16.0,0.0,0.0,2.0,2.0
0021300487,1610612763,MEM,Memphis,202334,Ed Davis,,,19:00,111.7,116.7,-5.0,0.091,1.0,10.4,0.0,0.143,0.069,10.4,0.2,0.327,0.223,91.76,-0.03,2014-01-03T00:00:00,6,1610612763,MEM,Memphis,14-18,23,25,27,33,0,0,0,0,0,0,0,0,0,0,108,0.487,0.763,0.417,23,35,13,0021300487,1610612763,MEM,Memphis,Ed Davis,,,19:00,2.0,0.0,0.0,2.0,8.0,4.0,2.0,16.0,0.0,0.0,3.0,3.0
0021300487,1610612763,MEM,Memphis,202334,Ed Davis,,,19:00,111.7,116.7,-5.0,0.091,1.0,10.4,0.0,0.143,0.069,10.4,0.2,0.327,0.223,91.76,-0.03,2014-01-03T00:00:00,6,1610612743,DEN,Denver,15-17,28,30,19,34,0,0,0,0,0,0,0,0,0,0,111,0.538,0.762,0.409,27,41,16,0021300487,1610612763,MEM,Memphis,Ed Davis,,,19:00,2.0,0.0,0.0,2.0,8.0,4.0,2.0,16.0,0.0,0.0,3.0,3.0
0021300487,1610612763,MEM,Memphis,202720,Jon Leuer,,,15:07,125.2,117.5,7.7,0.0,0.0,0.0,0.0,0.3,0.167,22.5,0.75,0.799,0.269,99.44,0.109,2014-01-03T00:00:00,6,1610612763,MEM,Memphis,14-18,23,25,27,33,0,0,0,0,0,0,0,0,0,0,108,0.487,0.763,0.417,23,35,13,0021300487,1610612763,MEM,Memphis,Jon Leuer,,,15:07,0.0,0.0,0.0,2.0,6.0,6.0,0.0,10.0,1.0,1.0,3.0,1.0
0021300487,1610612763,MEM,Memphis,202720,Jon Leuer,,,15:07,125.2,117.5,7.7,0.0,0.0,0.0,0.0,0.3,0.167,22.5,0.75,0.799,0.269,99.44,0.109,2014-01-03T00:00:00,6,1610612743,DEN,Denver,15-17,28,30,19,34,0,0,0,0,0,0,0,0,0,0,111,0.538,0.762,0.409,27,41,16,0021300487,1610612763,MEM,Memphis,Jon Leuer,,,15:07,0.0,0.0,0.0,2.0,6.0,6.0,0.0,10.0,1.0,1.0,3.0,1.0
0021300487,1610612763,MEM,Memphis,201979,Nick Calathes,,,4:51,92.6,195.7,-103.1,1.0,0.0,53.2,0.0,0.0,0.0,0.0,0.0,1.136,0.102,88.28,0.098,2014-01-03T00:00:00,6,1610612763,MEM,Memphis,14-18,23,25,27,33,0,0,0,0,0,0,0,0,0,0,108,0.487,0.763,0.417,23,35,13,0021300487,1610612763,MEM,Memphis,Nick Calathes,,,4:51,0.0,0.0,0.0,0.0,4.0,0.0,2.0,6.0,0.0,0.0,1.0,1.0
0021300487,1610612763,MEM,Memphis,201979,Nick Calathes,,,4:51,92.6,195.7,-103.1,1.0,0.0,53.2,0.0,0.0,0.0,0.0,0.0,1.136,0.102,88.28,0.098,2014-01-03T00:00:00,6,1610612743,DEN,Denver,15-17,28,30,19,34,0,0,0,0,0,0,0,0,0,0,111,0.538,0.762,0.409,27,41,16,0021300487,1610612763,MEM,Memphis,Nick Calathes,,,4:51,0.0,0.0,0.0,0.0,4.0,0.0,2.0,6.0,0.0,0.0,1.0,1.0
0021300487,1610612763,MEM,Memphis,203552,Seth Curry,,DNP - Coach's Decision,,,,,,,0.0,,,,,,,0.0,,,2014-01-03T00:00:00,6,1610612763,MEM,Memphis,14-18,23,25,27,33,0,0,0,0,0,0,0,0,0,0,108,0.487,0.763,0.417,23,35,13,0021300487,1610612763,MEM,Memphis,Seth Curry,,DNP - Coach's Decision,,,,,,,,,,,,,
0021300487,1610612763,MEM,Memphis,203552,Seth Curry,,DNP - Coach's Decision,,,,,,,0.0,,,,,,,0.0,,,2014-01-03T00:00:00,6,1610612743,DEN,Denver,15-17,28,30,19,34,0,0,0,0,0,0,0,0,0,0,111,0.538,0.762,0.409,27,41,16,0021300487,1610612763,MEM,Memphis,Seth Curry,,DNP - Coach's Decision,,,,,,,,,,,,,
0021300487,1610612763,MEM,Memphis,203479,Jamaal Franklin,,DNP - Coach's Decision,,,,,,,0.0,,,,,,,0.0,,,2014-01-03T00:00:00,6,1610612763,MEM,Memphis,14-18,23,25,27,33,0,0,0,0,0,0,0,0,0,0,108,0.487,0.763,0.417,23,35,13,0021300487,1610612763,MEM,Memphis,Jamaal Franklin,,DNP - Coach's Decision,,,,,,,,,,,,,
0021300487,1610612763,MEM,Memphis,203479,Jamaal Franklin,,DNP - Coach's Decision,,,,,,,0.0,,,,,,,0.0,,,2014-01-03T00:00:00,6,1610612743,DEN,Denver,15-17,28,30,19,34,0,0,0,0,0,0,0,0,0,0,111,0.538,0.762,0.409,27,41,16,0021300487,1610612763,MEM,Memphis,Jamaal Franklin,,DNP - Coach's Decision,,,,,,,,,,,,,
0021300487,1610612743,DEN,Denver,201163,Wilson Chandler,F,,30:52,111.0,113.3,-2.3,0.042,0.5,7.7,0.0,0.154,0.082,15.4,0.4,0.4,0.179,97.04,0.0,2014-01-03T00:00:00,6,1610612763,MEM,Memphis,14-18,23,25,27,33,0,0,0,0,0,0,0,0,0,0,108,0.487,0.763,0.417,23,35,13,0021300487,1610612743,DEN,Denver,Wilson Chandler,F,,30:52,0.0,0.0,3.0,2.0,14.0,7.0,4.0,34.0,0.0,0.0,5.0,1.0
0021300487,1610612743,DEN,Denver,201163,Wilson Chandler,F,,30:52,111.0,113.3,-2.3,0.042,0.5,7.7,0.0,0.154,0.082,15.4,0.4,0.4,0.179,97.04,0.0,2014-01-03T00:00:00,6,1610612743,DEN,Denver,15-17,28,30,19,34,0,0,0,0,0,0,0,0,0,0,111,0.538,0.762,0.409,27,41,16,0021300487,1610612743,DEN,Denver,Wilson Chandler,F,,30:52,0.0,0.0,3.0,2.0,14.0,7.0,4.0,34.0,0.0,0.0,5.0,1.0
0021300487,1610612743,DEN,Denver,202702,Kenneth Faried,F,,28:41,136.9,126.3,10.6,0.05,0.5,8.4,0.118,0.222,0.171,16.8,0.875,0.901,0.183,92.37,0.135,2014-01-03T00:00:00,6,1610612763,MEM,Memphis,14-18,23,25,27,33,0,0,0,0,0,0,0,0,0,0,108,0.487,0.763,0.417,23,35,13,0021300487,1610612743,DEN,Denver,Kenneth Faried,F,,28:41,0.0,4.0,4.0,10.0,10.0,6.0,2.0,36.0,0.0,0.0,2.0,2.0
0021300487,1610612743,DEN,Denver,202702,Kenneth Faried,F,,28:41,136.9,126.3,10.6,0.05,0.5,8.4,0.118,0.222,0.171,16.8,0.875,0.901,0.183,92.37,0.135,2014-01-03T00:00:00,6,1610612743,DEN,Denver,15-17,28,30,19,34,0,0,0,0,0,0,0,0,0,0,111,0.538,0.762,0.409,27,41,16,0021300487,1610612743,DEN,Denver,Kenneth Faried,F,,28:41,0.0,4.0,4.0,10.0,10.0,6.0,2.0,36.0,0.0,0.0,2.0,2.0
0021300487,1610612743,DEN,Denver,201581,JJ Hickson,C,,22:42,103.5,105.7,-2.2,0.067,1.0,8.4,0.059,0.125,0.098,8.4,0.333,0.354,0.225,97.01,0.024,2014-01-03T00:00:00,6,1610612763,MEM,Memphis,14-18,23,25,27,33,0,0,0,0,0,0,0,0,0,0,108,0.487,0.763,0.417,23,35,13,0021300487,1610612743,DEN,Denver,JJ Hickson,C,,22:42,0.0,2.0,0.0,4.0,9.0,6.0,2.0,26.0,1.0,2.0,2.0,2.0
0021300487,1610612743,DEN,Denver,201581,JJ Hickson,C,,22:42,103.5,105.7,-2.2,0.067,1.0,8.4,0.059,0.125,0.098,8.4,0.333,0.354,0.225,97.01,0.024,2014-01-03T00:00:00,6,1610612743,DEN,Denver,15-17,28,30,19,34,0,0,0,0,0,0,0,0,0,0,111,0.538,0.762,0.409,27,41,16,0021300487,1610612743,DEN,Denver,JJ Hickson,C,,22:42,0.0,2.0,0.0,4.0,9.0,6.0,2.0,26.0,1.0,2.0,2.0,2.0
0021300487,1610612743,DEN,Denver,200751,Randy Foye,G,,33:30,112.8,108.8,4.0,0.167,4.0,28.8,0.067,0.172,0.119,7.2,0.75,0.732,0.136,92.47,0.118,2014-01-03T00:00:00,6,1610612763,MEM,Memphis,14-18,23,25,27,33,0,0,0,0,0,0,0,0,0,0,108,0.487,0.763,0.417,23,35,13,0021300487,1610612743,DEN,Denver,Randy Foye,G,,33:30,4.0,0.0,2.0,2.0,9.0,6.0,4.0,42.0,0.0,0.0,3.0,1.0
0021300487,1610612743,DEN,Denver,200751,Randy Foye,G,,33:30,112.8,108.8,4.0,0.167,4.0,28.8,0.067,0.172,0.119,7.2,0.75,0.732,0.136,92.47,0.118,2014-01-03T00:00:00,6,1610612743,DEN,Denver,15-17,28,30,19,34,0,0,0,0,0,0,0,0,0,0,111,0.538,0.762,0.409,27,41,16,0021300487,1610612743,DEN,Denver,Randy Foye,G,,33:30,4.0,0.0,2.0,2.0,9.0,6.0,4.0,42.0,0.0,0.0,3.0,1.0
0021300487,1610612743,DEN,Denver,201951,Ty Lawson,G,,36:40,106.6,115.5,-8.9,0.48,2.4,37.9,0.037,0.091,0.067,15.8,0.542,0.615,0.242,99.57,0.163,2014-01-03T00:00:00,6,1610612763,MEM,Memphis,14-18,23,25,27,33,0,0,0,0,0,0,0,0,0,0,108,0.487,0.763,0.417,23,35,13,0021300487,1610612743,DEN,Denver,Ty Lawson,G,,36:40,4.0,2.0,2.0,6.0,16.0,9.0,4.0,44.0,1.0,0.0,2.0,3.0
0021300487,1610612743,DEN,Denver,201951,Ty Lawson,G,,36:40,106.6,115.5,-8.9,0.48,2.4,37.9,0.037,0.091,0.067,15.8,0.542,0.615,0.242,99.57,0.163,2014-01-03T00:00:00,6,1610612743,DEN,Denver,15-17,28,30,19,34,0,0,0,0,0,0,0,0,0,0,111,0.538,0.762,0.409,27,41,16,0021300487,1610612743,DEN,Denver,Ty Lawson,G,,36:40,4.0,2.0,2.0,6.0,16.0,9.0,4.0,44.0,1.0,0.0,2.0,3.0
0021300487,1610612743,DEN,Denver,202389,Timofey Mozgov,,,24:01,132.4,109.5,22.9,0.056,1.0,8.4,0.158,0.211,0.184,8.4,0.778,0.81,0.205,88.94,0.17,2014-01-03T00:00:00,6,1610612763,MEM,Memphis,14-18,23,25,27,33,0,0,0,0,0,0,0,0,0,0,108,0.487,0.763,0.417,23,35,13,0021300487,1610612743,DEN,Denver,Timofey Mozgov,,,24:01,2.0,4.0,0.0,10.0,4.0,1.0,2.0,22.0,2.0,0.0,3.0,3.0
0021300487,1610612743,DEN,Denver,202389,Timofey Mozgov,,,24:01,132.4,109.5,22.9,0.056,1.0,8.4,0.158,0.211,0.184,8.4,0.778,0.81,0.205,88.94,0.17,2014-01-03T00:00:00,6,1610612743,DEN,Denver,15-17,28,30,19,34,0,0,0,0,0,0,0,0,0,0,111,0.538,0.762,0.409,27,41,16,0021300487,1610612743,DEN,Denver,Timofey Mozgov,,,24:01,2.0,4.0,0.0,10.0,4.0,1.0,2.0,22.0,2.0,0.0,3.0,3.0
0021300487,1610612743,DEN,Denver,201589,Darrell Arthur,,,19:44,96.1,108.8,-12.7,0.0,0.0,0.0,0.0,0.211,0.114,14.3,0.5,0.5,0.15,100.96,0.023,2014-01-03T00:00:00,6,1610612763,MEM,Memphis,14-18,23,25,27,33,0,0,0,0,0,0,0,0,0,0,108,0.487,0.763,0.417,23,35,13,0021300487,1610612743,DEN,Denver,Darrell Arthur,,,19:44,0.0,0.0,0.0,0.0,9.0,5.0,2.0,18.0,1.0,0.0,6.0,1.0
0021300487,1610612743,DEN,Denver,201589,Darrell Arthur,,,19:44,96.1,108.8,-12.7,0.0,0.0,0.0,0.0,0.211,0.114,14.3,0.5,0.5,0.15,100.96,0.023,2014-01-03T00:00:00,6,1610612743,DEN,Denver,15-17,28,30,19,34,0,0,0,0,0,0,0,0,0,0,111,0.538,0.762,0.409,27,41,16,0021300487,1610612743,DEN,Denver,Darrell Arthur,,,19:44,0.0,0.0,0.0,0.0,9.0,5.0,2.0,18.0,1.0,0.0,6.0,1.0
0021300487,1610612743,DEN,Denver,203095,Evan Fournier,,,21:07,122.8,106.1,16.7,0.0,0.0,0.0,0.063,0.1,0.083,17.7,0.563,0.644,0.242,93.42,0.082,2014-01-03T00:00:00,6,1610612763,MEM,Memphis,14-18,23,25,27,33,0,0,0,0,0,0,0,0,0,0,108,0.487,0.763,0.417,23,35,13,0021300487,1610612743,DEN,Denver,Evan Fournier,,,21:07,0.0,2.0,0.0,4.0,4.0,3.0,0.0,18.0,0.0,0.0,3.0,4.0
0021300487,1610612743,DEN,Denver,203095,Evan Fournier,,,21:07,122.8,106.1,16.7,0.0,0.0,0.0,0.063,0.1,0.083,17.7,0.563,0.644,0.242,93.42,0.082,2014-01-03T00:00:00,6,1610612743,DEN,Denver,15-17,28,30,19,34,0,0,0,0,0,0,0,0,0,0,111,0.538,0.762,0.409,27,41,16,0021300487,1610612743,DEN,Denver,Evan Fournier,,,21:07,0.0,2.0,0.0,4.0,4.0,3.0,0.0,18.0,0.0,0.0,3.0,4.0
0021300487,1610612743,DEN,Denver,101126,Nate Robinson,,,22:43,146.4,116.7,29.7,0.368,7.0,35.4,0.067,0.083,0.074,5.1,0.65,0.638,0.252,92.38,0.138,2014-01-03T00:00:00,6,1610612763,MEM,Memphis,14-18,23,25,27,33,0,0,0,0,0,0,0,0,0,0,108,0.487,0.763,0.417,23,35,13,0021300487,1610612743,DEN,Denver,Nate Robinson,,,22:43,8.0,0.0,0.0,4.0,5.0,2.0,0.0,20.0,0.0,1.0,2.0,4.0
0021300487,1610612743,DEN,Denver,101126,Nate Robinson,,,22:43,146.4,116.7,29.7,0.368,7.0,35.4,0.067,0.083,0.074,5.1,0.65,0.638,0.252,92.38,0.138,2014-01-03T00:00:00,6,1610612743,DEN,Denver,15-17,28,30,19,34,0,0,0,0,0,0,0,0,0,0,111,0.538,0.762,0.409,27,41,16,0021300487,1610612743,DEN,Denver,Nate Robinson,,,22:43,8.0,0.0,0.0,4.0,5.0,2.0,0.0,20.0,0.0,1.0,2.0,4.0
0021300487,1610612743,DEN,Denver,202706,Jordan Hamilton,,DNP - Coach's Decision,,,,,,,0.0,,,,,,,0.0,,,2014-01-03T00:00:00,6,1610612763,MEM,Memphis,14-18,23,25,27,33,0,0,0,0,0,0,0,0,0,0,108,0.487,0.763,0.417,23,35,13,0021300487,1610612743,DEN,Denver,Jordan Hamilton,,DNP - Coach's Decision,,,,,,,,,,,,,
0021300487,1610612743,DEN,Denver,202706,Jordan Hamilton,,DNP - Coach's Decision,,,,,,,0.0,,,,,,,0.0,,,2014-01-03T00:00:00,6,1610612743,DEN,Denver,15-17,28,30,19,34,0,0,0,0,0,0,0,0,0,0,111,0.538,0.762,0.409,27,41,16,0021300487,1610612743,DEN,Denver,Jordan Hamilton,,DNP - Coach's Decision,,,,,,,,,,,,,
0021300487,1610612743,DEN,Denver,1889,Andre Miller,,NWT - Personal Reasons,,,,,,,0.0,,,,,,,0.0,,,2014-01-03T00:00:00,6,1610612763,MEM,Memphis,14-18,23,25,27,33,0,0,0,0,0,0,0,0,0,0,108,0.487,0.763,0.417,23,35,13,0021300487,1610612743,DEN,Denver,Andre Miller,,NWT - Personal Reasons,,,,,,,,,,,,,
0021300487,1610612743,DEN,Denver,1889,Andre Miller,,NWT - Personal Reasons,,,,,,,0.0,,,,,,,0.0,,,2014-01-03T00:00:00,6,1610612743,DEN,Denver,15-17,28,30,19,34,0,0,0,0,0,0,0,0,0,0,111,0.538,0.762,0.409,27,41,16,0021300487,1610612743,DEN,Denver,Andre Miller,,NWT - Personal Reasons,,,,,,,,,,,,,
0021300487,1610612743,DEN,Denver,203113,Quincy Miller,,DNP - Coach's Decision,,,,,,,0.0,,,,,,,0.0,,,2014-01-03T00:00:00,6,1610612763,MEM,Memphis,14-18,23,25,27,33,0,0,0,0,0,0,0,0,0,0,108,0.487,0.763,0.417,23,35,13,0021300487,1610612743,DEN,Denver,Quincy Miller,,DNP - Coach's Decision,,,,,,,,,,,,,
0021300487,1610612743,DEN,Denver,203113,Quincy Miller,,DNP - Coach's Decision,,,,,,,0.0,,,,,,,0.0,,,2014-01-03T00:00:00,6,1610612743,DEN,Denver,15-17,28,30,19,34,0,0,0,0,0,0,0,0,0,0,111,0.538,0.762,0.409,27,41,16,0021300487,1610612743,DEN,Denver,Quincy Miller,,DNP - Coach's Decision,,,,,,,,,,,,,
0021300487,1610612743,DEN,Denver,201576,Anthony Randolph,,DNP - Coach's Decision,,,,,,,0.0,,,,,,,0.0,,,2014-01-03T00:00:00,6,1610612763,MEM,Memphis,14-18,23,25,27,33,0,0,0,0,0,0,0,0,0,0,108,0.487,0.763,0.417,23,35,13,0021300487,1610612743,DEN,Denver,Anthony Randolph,,DNP - Coach's Decision,,,,,,,,,,,,,
0021300487,1610612743,DEN,Denver,201576,Anthony Randolph,,DNP - Coach's Decision,,,,,,,0.0,,,,,,,0.0,,,2014-01-03T00:00:00,6,1610612743,DEN,Denver,15-17,28,30,19,34,0,0,0,0,0,0,0,0,0,0,111,0.538,0.762,0.409,27,41,16,0021300487,1610612743,DEN,Denver,Anthony Randolph,,DNP - Coach's Decision,,,,,,,,,,,,,
