GAME_ID_x,TEAM_ID_x,TEAM_ABBREVIATION_x,TEAM_CITY_x,PLAYER_ID,PLAYER_NAME_x,START_POSITION_x,COMMENT_x,MIN_x,OFF_RATING,DEF_RATING,NET_RATING,AST_PCT,AST_TOV,AST_RATIO,OREB_PCT,DREB_PCT,REB_PCT,TM_TOV_PCT,EFG_PCT,TS_PCT,USG_PCT,PACE,PIE,GAME_DATE_EST,GAME_SEQUENCE,TEAM_ID_y,TEAM_ABBREVIATION_y,TEAM_CITY_NAME,TEAM_WINS_LOSSES,PTS_QTR1,PTS_QTR2,PTS_QTR3,PTS_QTR4,PTS_OT1,PTS_OT2,PTS_OT3,PTS_OT4,PTS_OT5,PTS_OT6,PTS_OT7,PTS_OT8,PTS_OT9,PTS_OT10,PTS,FG_PCT,FT_PCT,FG3_PCT,AST,REB,TOV,GAME_ID_y,TEAM_ID,TEAM_ABBREVIATION,TEAM_CITY_y,PLAYER_NAME_y,START_POSITION_y,COMMENT_y,MIN_y,PTS_OFF_TOV,PTS_2ND_CHANCE,PTS_FB,PTS_PAINT,OPP_PTS_OFF_TOV,OPP_PTS_2ND_CHANCE,OPP_PTS_FB,OPP_PTS_PAINT,BLK,BLKA,PF,PFD
0021400008,1610612737,ATL,Atlanta,201960,DeMarre Carroll,F,,31:52,114.3,119.0,-4.6,0.0,0.0,0.0,0.033,0.059,0.047,0.0,0.714,0.714,0.096,98.1,0.04,2014-10-29T00:00:00,5,1610612737,ATL,Atlanta,0-1,22,30,19,31,0,0,0,0,0,0,0,0,0,0,102,0.5,0.529,0.591,26,42,17,0021400008,1610612737,ATL,Atlanta,DeMarre Carroll,F,,31:52,0.0,0.0,3.0,4.0,13.0,23.0,13.0,36.0,0.0,2.0,4.0,2.0
0021400008,1610612737,ATL,Atlanta,201960,DeMarre Carroll,F,,31:52,114.3,119.0,-4.6,0.0,0.0,0.0,0.033,0.059,0.047,0.0,0.714,0.714,0.096,98.1,0.04,2014-10-29T00:00:00,5,1610612761,TOR,Toronto,1-0,24,36,26,23,0,0,0,0,0,0,0,0,0,0,109,0.411,0.818,0.308,26,48,9,0021400008,1610612737,ATL,Atlanta,DeMarre Carroll,F,,31:52,0.0,0.0,3.0,4.0,13.0,23.0,13.0,36.0,0.0,2.0,4.0,2.0
0021400008,1610612737,ATL,Atlanta,200794,Paul Millsap,F,,32:08,97.0,116.6,-19.6,0.238,1.25,19.3,0.147,0.152,0.149,15.4,0.308,0.383,0.287,97.86,0.048,2014-10-29T00:00:00,5,1610612737,ATL,Atlanta,0-1,22,30,19,31,0,0,0,0,0,0,0,0,0,0,102,0.5,0.529,0.591,26,42,17,0021400008,1610612737,ATL,Atlanta,Paul Millsap,F,,32:08,4.0,4.0,2.0,8.0,13.0,20.0,13.0,38.0,0.0,2.0,3.0,7.0
0021400008,1610612737,ATL,Atlanta,200794,Paul Millsap,F,,32:08,97.0,116.6,-19.6,0.238,1.25,19.3,0.147,0.152,0.149,15.4,0.308,0.383,0.287,97.86,0.048,2014-10-29T00:00:00,5,1610612761,TOR,Toronto,1-0,24,36,26,23,0,0,0,0,0,0,0,0,0,0,109,0.411,0.818,0.308,26,48,9,0021400008,1610612737,ATL,Atlanta,Paul Millsap,F,,32:08,4.0,4.0,2.0,8.0,13.0,20.0,13.0,38.0,0.0,2.0,3.0,7.0
0021400008,1610612737,ATL,Atlanta,201143,Al Horford,C,,31:06,112.4,120.4,-8.0,0.15,3.0,15.8,0.154,0.333,0.245,5.3,0.4,0.4,0.231,96.11,0.125,2014-10-29T00:00:00,5,1610612737,ATL,Atlanta,0-1,22,30,19,31,0,0,0,0,0,0,0,0,0,0,102,0.5,0.529,0.591,26,42,17,0021400008,1610612737,ATL,Atlanta,Al Horford,C,,31:06,2.0,4.0,0.0,4.0,18.0,17.0,12.0,28.0,3.0,1.0,2.0,0.0
0021400008,1610612737,ATL,Atlanta,201143,Al Horford,C,,31:06,112.4,120.4,-8.0,0.15,3.0,15.8,0.154,0.333,0.245,5.3,0.4,0.4,0.231,96.11,0.125,2014-10-29T00:00:00,5,1610612761,TOR,Toronto,1-0,24,36,26,23,0,0,0,0,0,0,0,0,0,0,109,0.411,0.818,0.308,26,48,9,0021400008,1610612737,ATL,Atlanta,Al Horford,C,,31:06,2.0,4.0,0.0,4.0,18.0,17.0,12.0,28.0,3.0,1.0,2.0,0.0
0021400008,1610612737,ATL,Atlanta,2594,Kyle Korver,G,,33:29,117.9,108.0,9.9,0.083,1.0,14.3,0.0,0.056,0.029,14.3,1.0,1.0,0.156,99.01,0.141,2014-10-29T00:00:00,5,1610612737,ATL,Atlanta,0-1,22,30,19,31,0,0,0,0,0,0,0,0,0,0,102,0.5,0.529,0.591,26,42,17,0021400008,1610612737,ATL,Atlanta,Kyle Korver,G,,33:29,0.0,0.0,0.0,0.0,12.0,22.0,11.0,32.0,3.0,0.0,1.0,4.0
0021400008,1610612737,ATL,Atlanta,2594,Kyle Korver,G,,33:29,117.9,108.0,9.9,0.083,1.0,14.3,0.0,0.056,0.029,14.3,1.0,1.0,0.156,99.01,0.141,2014-10-29T00:00:00,5,1610612761,TOR,Toronto,1-0,24,36,26,23,0,0,0,0,0,0,0,0,0,0,109,0.411,0.818,0.308,26,48,9,0021400008,1610612737,ATL,Atlanta,Kyle Korver,G,,33:29,0.0,0.0,0.0,0.0,12.0,22.0,11.0,32.0,3.0,0.0,1.0,4.0
0021400008,1610612737,ATL,Atlanta,201952,Jeff Teague,G,,32:26,112.2,114.2,-2.0,0.381,1.33,28.8,0.0,0.081,0.043,21.6,0.708,0.727,0.261,99.36,0.154,2014-10-29T00:00:00,5,1610612737,ATL,Atlanta,0-1,22,30,19,31,0,0,0,0,0,0,0,0,0,0,102,0.5,0.529,0.591,26,42,17,0021400008,1610612737,ATL,Atlanta,Jeff Teague,G,,32:26,6.0,1.0,2.0,14.0,13.0,21.0,13.0,34.0,0.0,2.0,2.0,5.0
0021400008,1610612737,ATL,Atlanta,201952,Jeff Teague,G,,32:26,112.2,114.2,-2.0,0.381,1.33,28.8,0.0,0.081,0.043,21.6,0.708,0.727,0.261,99.36,0.154,2014-10-29T00:00:00,5,1610612761,TOR,Toronto,1-0,24,36,26,23,0,0,0,0,0,0,0,0,0,0,109,0.411,0.818,0.308,26,48,9,0021400008,1610612737,ATL,Atlanta,Jeff Teague,G,,32:26,6.0,1.0,2.0,14.0,13.0,21.0,13.0,34.0,0.0,2.0,2.0,5.0
0021400008,1610612737,ATL,Atlanta,1882,Elton Brand,,,12:12,90.9,88.9,2.1,0.0,0.0,0.0,0.0,0.077,0.042,34.7,1.0,0.532,0.11,96.31,-0.027,2014-10-29T00:00:00,5,1610612737,ATL,Atlanta,0-1,22,30,19,31,0,0,0,0,0,0,0,0,0,0,102,0.5,0.529,0.591,26,42,17,0021400008,1610612737,ATL,Atlanta,Elton Brand,,,12:12,0.0,2.0,0.0,0.0,4.0,6.0,6.0,12.0,0.0,0.0,1.0,2.0
0021400008,1610612737,ATL,Atlanta,1882,Elton Brand,,,12:12,90.9,88.9,2.1,0.0,0.0,0.0,0.0,0.077,0.042,34.7,1.0,0.532,0.11,96.31,-0.027,2014-10-29T00:00:00,5,1610612761,TOR,Toronto,1-0,24,36,26,23,0,0,0,0,0,0,0,0,0,0,109,0.411,0.818,0.308,26,48,9,0021400008,1610612737,ATL,Atlanta,Elton Brand,,,12:12,0.0,2.0,0.0,0.0,4.0,6.0,6.0,12.0,0.0,0.0,1.0,2.0
0021400008,1610612737,ATL,Atlanta,203145,Kent Bazemore,,,11:04,71.8,101.2,-29.3,0.0,0.0,0.0,0.0,0.111,0.059,0.0,0.5,0.5,0.087,90.3,0.093,2014-10-29T00:00:00,5,1610612737,ATL,Atlanta,0-1,22,30,19,31,0,0,0,0,0,0,0,0,0,0,102,0.5,0.529,0.591,26,42,17,0021400008,1610612737,ATL,Atlanta,Kent Bazemore,,,11:04,2.0,0.0,2.0,2.0,6.0,4.0,4.0,6.0,1.0,0.0,1.0,1.0
0021400008,1610612737,ATL,Atlanta,203145,Kent Bazemore,,,11:04,71.8,101.2,-29.3,0.0,0.0,0.0,0.0,0.111,0.059,0.0,0.5,0.5,0.087,90.3,0.093,2014-10-29T00:00:00,5,1610612761,TOR,Toronto,1-0,24,36,26,23,0,0,0,0,0,0,0,0,0,0,109,0.411,0.818,0.308,26,48,9,0021400008,1610612737,ATL,Atlanta,Kent Bazemore,,,11:04,2.0,0.0,2.0,2.0,6.0,4.0,4.0,6.0,1.0,0.0,1.0,1.0
0021400008,1610612737,ATL,Atlanta,202714,Shelvin Mack,,,14:59,93.7,106.4,-12.7,0.5,5.0,41.7,0.0,0.182,0.095,8.3,0.167,0.167,0.235,92.65,0.038,2014-10-29T00:00:00,5,1610612737,ATL,Atlanta,0-1,22,30,19,31,0,0,0,0,0,0,0,0,0,0,102,0.5,0.529,0.591,26,42,17,0021400008,1610612737,ATL,Atlanta,Shelvin Mack,,,14:59,0.0,0.0,0.0,2.0,9.0,4.0,5.0,6.0,0.0,1.0,1.0,0.0
0021400008,1610612737,ATL,Atlanta,202714,Shelvin Mack,,,14:59,93.7,106.4,-12.7,0.5,5.0,41.7,0.0,0.182,0.095,8.3,0.167,0.167,0.235,92.65,0.038,2014-10-29T00:00:00,5,1610612761,TOR,Toronto,1-0,24,36,26,23,0,0,0,0,0,0,0,0,0,0,109,0.411,0.818,0.308,26,48,9,0021400008,1610612737,ATL,Atlanta,Shelvin Mack,,,14:59,0.0,0.0,0.0,2.0,9.0,4.0,5.0,6.0,0.0,1.0,1.0,0.0
0021400008,1610612737,ATL,Atlanta,203118,Mike Scott,,,20:35,117.9,99.7,18.2,0.091,1.0,7.7,0.0,0.174,0.111,7.7,0.909,0.909,0.27,99.74,0.239,2014-10-29T00:00:00,5,1610612737,ATL,Atlanta,0-1,22,30,19,31,0,0,0,0,0,0,0,0,0,0,102,0.5,0.529,0.591,26,42,17,0021400008,1610612737,ATL,Atlanta,Mike Scott,,,20:35,0.0,0.0,0.0,2.0,11.0,9.0,5.0,2.0,0.0,0.0,5.0,0.0
0021400008,1610612737,ATL,Atlanta,203118,Mike Scott,,,20:35,117.9,99.7,18.2,0.091,1.0,7.7,0.0,0.174,0.111,7.7,0.909,0.909,0.27,99.74,0.239,2014-10-29T00:00:00,5,1610612761,TOR,Toronto,1-0,24,36,26,23,0,0,0,0,0,0,0,0,0,0,109,0.411,0.818,0.308,26,48,9,0021400008,1610612737,ATL,Atlanta,Mike Scott,,,20:35,0.0,0.0,0.0,2.0,11.0,9.0,5.0,2.0,0.0,0.0,5.0,0.0
0021400008,1610612737,ATL,Atlanta,200757,Thabo Sefolosha,,,16:32,85.5,97.2,-11.7,0.167,2.0,33.3,0.0,0.143,0.077,16.7,0.0,0.0,0.115,96.82,-0.01,2014-10-29T00:00:00,5,1610612737,ATL,Atlanta,0-1,22,30,19,31,0,0,0,0,0,0,0,0,0,0,102,0.5,0.529,0.591,26,42,17,0021400008,1610612737,ATL,Atlanta,Thabo Sefolosha,,,16:32,0.0,0.0,0.0,0.0,10.0,3.0,5.0,6.0,1.0,1.0,1.0,0.0
0021400008,1610612737,ATL,Atlanta,200757,Thabo Sefolosha,,,16:32,85.5,97.2,-11.7,0.167,2.0,33.3,0.0,0.143,0.077,16.7,0.0,0.0,0.115,96.82,-0.01,2014-10-29T00:00:00,5,1610612761,TOR,Toronto,1-0,24,36,26,23,0,0,0,0,0,0,0,0,0,0,109,0.411,0.818,0.308,26,48,9,0021400008,1610612737,ATL,Atlanta,Thabo Sefolosha,,,16:32,0.0,0.0,0.0,0.0,10.0,3.0,5.0,6.0,1.0,1.0,1.0,0.0
0021400008,1610612737,ATL,Atlanta,203471,Dennis Schroder,,,3:37,87.2,130.4,-43.2,0.0,0.0,0.0,0.0,0.333,0.2,0.0,0.0,0.568,0.128,106.71,-0.138,2014-10-29T00:00:00,5,1610612737,ATL,Atlanta,0-1,22,30,19,31,0,0,0,0,0,0,0,0,0,0,102,0.5,0.529,0.591,26,42,17,0021400008,1610612737,ATL,Atlanta,Dennis Schroder,,,3:37,0.0,0.0,1.0,0.0,6.0,1.0,3.0,0.0,0.0,0.0,3.0,1.0
0021400008,1610612737,ATL,Atlanta,203471,Dennis Schroder,,,3:37,87.2,130.4,-43.2,0.0,0.0,0.0,0.0,0.333,0.2,0.0,0.0,0.568,0.128,106.71,-0.138,2014-10-29T00:00:00,5,1610612761,TOR,Toronto,1-0,24,36,26,23,0,0,0,0,0,0,0,0,0,0,109,0.411,0.818,0.308,26,48,9,0021400008,1610612737,ATL,Atlanta,Dennis Schroder,,,3:37,0.0,0.0,1.0,0.0,6.0,1.0,3.0,0.0,0.0,0.0,3.0,1.0
0021400008,1610612737,ATL,Atlanta,203544,Pero Antic,,DNP - Coach's Decision                  ,,,,,,,0.0,,,,,,,0.0,,,2014-10-29T00:00:00,5,1610612737,ATL,Atlanta,0-1,22,30,19,31,0,0,0,0,0,0,0,0,0,0,102,0.5,0.529,0.591,26,42,17,0021400008,1610612737,ATL,Atlanta,Pero Antic,,DNP - Coach's Decision                  ,,,,,,,,,,,,,
0021400008,1610612737,ATL,Atlanta,203544,Pero Antic,,DNP - Coach's Decision                  ,,,,,,,0.0,,,,,,,0.0,,,2014-10-29T00:00:00,5,1610612761,TOR,Toronto,1-0,24,36,26,23,0,0,0,0,0,0,0,0,0,0,109,0.411,0.818,0.308,26,48,9,0021400008,1610612737,ATL,Atlanta,Pero Antic,,DNP - Coach's Decision                  ,,,,,,,,,,,,,
0021400008,1610612737,ATL,Atlanta,203488,Mike Muscala,,DNP - Coach's Decision                  ,,,,,,,0.0,,,,,,,0.0,,,2014-10-29T00:00:00,5,1610612737,ATL,Atlanta,0-1,22,30,19,31,0,0,0,0,0,0,0,0,0,0,102,0.5,0.529,0.591,26,42,17,0021400008,1610612737,ATL,Atlanta,Mike Muscala,,DNP - Coach's Decision                  ,,,,,,,,,,,,,
0021400008,1610612737,ATL,Atlanta,203488,Mike Muscala,,DNP - Coach's Decision                  ,,,,,,,0.0,,,,,,,0.0,,,2014-10-29T00:00:00,5,1610612761,TOR,Toronto,1-0,24,36,26,23,0,0,0,0,0,0,0,0,0,0,109,0.411,0.818,0.308,26,48,9,0021400008,1610612737,ATL,Atlanta,Mike Muscala,,DNP - Coach's Decision                  ,,,,,,,,,,,,,
0021400008,1610612761,TOR,Toronto,203082,Terrence Ross,F,,28:17,119.4,117.2,2.2,0.15,0.0,21.4,0.0,0.107,0.053,0.0,0.591,0.591,0.16,99.72,0.099,2014-10-29T00:00:00,5,1610612737,ATL,Atlanta,0-1,22,30,19,31,0,0,0,0,0,0,0,0,0,0,102,0.5,0.529,0.591,26,42,17,0021400008,1610612761,TOR,Toronto,Terrence Ross,F,,28:17,5.0,0.0,5.0,2.0,10.0,9.0,7.0,26.0,1.0,2.0,2.0,0.0
0021400008,1610612761,TOR,Toronto,203082,Terrence Ross,F,,28:17,119.4,117.2,2.2,0.15,0.0,21.4,0.0,0.107,0.053,0.0,0.591,0.591,0.16,99.72,0.099,2014-10-29T00:00:00,5,1610612761,TOR,Toronto,1-0,24,36,26,23,0,0,0,0,0,0,0,0,0,0,109,0.411,0.818,0.308,26,48,9,0021400008,1610612761,TOR,Toronto,Terrence Ross,F,,28:17,5.0,0.0,5.0,2.0,10.0,9.0,7.0,26.0,1.0,2.0,2.0,0.0
0021400008,1610612761,TOR,Toronto,101161,Amir Johnson,F,,31:21,111.1,109.6,1.6,0.105,0.0,11.2,0.139,0.156,0.147,0.0,0.467,0.504,0.202,100.59,0.135,2014-10-29T00:00:00,5,1610612737,ATL,Atlanta,0-1,22,30,19,31,0,0,0,0,0,0,0,0,0,0,102,0.5,0.529,0.591,26,42,17,0021400008,1610612761,TOR,Toronto,Amir Johnson,F,,31:21,0.0,6.0,0.0,12.0,10.0,9.0,7.0,26.0,4.0,3.0,2.0,2.0
0021400008,1610612761,TOR,Toronto,101161,Amir Johnson,F,,31:21,111.1,109.6,1.6,0.105,0.0,11.2,0.139,0.156,0.147,0.0,0.467,0.504,0.202,100.59,0.135,2014-10-29T00:00:00,5,1610612761,TOR,Toronto,1-0,24,36,26,23,0,0,0,0,0,0,0,0,0,0,109,0.411,0.818,0.308,26,48,9,0021400008,1610612761,TOR,Toronto,Amir Johnson,F,,31:21,0.0,6.0,0.0,12.0,10.0,9.0,7.0,26.0,4.0,3.0,2.0,2.0
0021400008,1610612761,TOR,Toronto,202685,Jonas Valanciunas,C,,20:40,111.5,101.8,9.7,0.0,0.0,0.0,0.158,0.263,0.211,9.6,0.8,0.904,0.212,101.31,0.218,2014-10-29T00:00:00,5,1610612737,ATL,Atlanta,0-1,22,30,19,31,0,0,0,0,0,0,0,0,0,0,102,0.5,0.529,0.591,26,42,17,0021400008,1610612761,TOR,Toronto,Jonas Valanciunas,C,,20:40,7.0,7.0,0.0,6.0,8.0,6.0,5.0,12.0,1.0,0.0,3.0,5.0
0021400008,1610612761,TOR,Toronto,202685,Jonas Valanciunas,C,,20:40,111.5,101.8,9.7,0.0,0.0,0.0,0.158,0.263,0.211,9.6,0.8,0.904,0.212,101.31,0.218,2014-10-29T00:00:00,5,1610612761,TOR,Toronto,1-0,24,36,26,23,0,0,0,0,0,0,0,0,0,0,109,0.411,0.818,0.308,26,48,9,0021400008,1610612761,TOR,Toronto,Jonas Valanciunas,C,,20:40,7.0,7.0,0.0,6.0,8.0,6.0,5.0,12.0,1.0,0.0,3.0,5.0
0021400008,1610612761,TOR,Toronto,201942,DeMar DeRozan,G,,34:58,114.3,104.4,9.8,0.13,0.6,10.6,0.081,0.229,0.153,17.6,0.25,0.368,0.3,99.85,0.077,2014-10-29T00:00:00,5,1610612737,ATL,Atlanta,0-1,22,30,19,31,0,0,0,0,0,0,0,0,0,0,102,0.5,0.529,0.591,26,42,17,0021400008,1610612761,TOR,Toronto,DeMar DeRozan,G,,34:58,5.0,4.0,4.0,6.0,10.0,9.0,7.0,28.0,0.0,2.0,3.0,5.0
0021400008,1610612761,TOR,Toronto,201942,DeMar DeRozan,G,,34:58,114.3,104.4,9.8,0.13,0.6,10.6,0.081,0.229,0.153,17.6,0.25,0.368,0.3,99.85,0.077,2014-10-29T00:00:00,5,1610612761,TOR,Toronto,1-0,24,36,26,23,0,0,0,0,0,0,0,0,0,0,109,0.411,0.818,0.308,26,48,9,0021400008,1610612761,TOR,Toronto,DeMar DeRozan,G,,34:58,5.0,4.0,4.0,6.0,10.0,9.0,7.0,28.0,0.0,2.0,3.0,5.0
0021400008,1610612761,TOR,Toronto,200768,Kyle Lowry,G,,34:18,112.9,112.9,-0.1,0.417,0.0,41.5,0.086,0.091,0.088,0.0,0.273,0.391,0.17,99.16,0.113,2014-10-29T00:00:00,5,1610612737,ATL,Atlanta,0-1,22,30,19,31,0,0,0,0,0,0,0,0,0,0,102,0.5,0.529,0.591,26,42,17,0021400008,1610612761,TOR,Toronto,Kyle Lowry,G,,34:18,0.0,2.0,4.0,4.0,12.0,9.0,9.0,32.0,1.0,0.0,3.0,5.0
0021400008,1610612761,TOR,Toronto,200768,Kyle Lowry,G,,34:18,112.9,112.9,-0.1,0.417,0.0,41.5,0.086,0.091,0.088,0.0,0.273,0.391,0.17,99.16,0.113,2014-10-29T00:00:00,5,1610612761,TOR,Toronto,1-0,24,36,26,23,0,0,0,0,0,0,0,0,0,0,109,0.411,0.818,0.308,26,48,9,0021400008,1610612761,TOR,Toronto,Kyle Lowry,G,,34:18,0.0,2.0,4.0,4.0,12.0,9.0,9.0,32.0,1.0,0.0,3.0,5.0
0021400008,1610612761,TOR,Toronto,201946,Tyler Hansbrough,,,20:12,106.0,114.6,-8.7,0.0,0.0,0.0,0.05,0.067,0.057,0.0,1.0,1.025,0.053,91.68,0.048,2014-10-29T00:00:00,5,1610612737,ATL,Atlanta,0-1,22,30,19,31,0,0,0,0,0,0,0,0,0,0,102,0.5,0.529,0.591,26,42,17,0021400008,1610612761,TOR,Toronto,Tyler Hansbrough,,,20:12,0.0,3.0,0.0,4.0,4.0,4.0,5.0,18.0,1.0,0.0,3.0,3.0
0021400008,1610612761,TOR,Toronto,201946,Tyler Hansbrough,,,20:12,106.0,114.6,-8.7,0.0,0.0,0.0,0.05,0.067,0.057,0.0,1.0,1.025,0.053,91.68,0.048,2014-10-29T00:00:00,5,1610612761,TOR,Toronto,1-0,24,36,26,23,0,0,0,0,0,0,0,0,0,0,109,0.411,0.818,0.308,26,48,9,0021400008,1610612761,TOR,Toronto,Tyler Hansbrough,,,20:12,0.0,3.0,0.0,4.0,4.0,4.0,5.0,18.0,1.0,0.0,3.0,3.0
0021400008,1610612761,TOR,Toronto,201949,James Johnson,,,13:51,104.9,113.1,-8.2,0.2,1.0,29.1,0.0,0.0,0.0,29.1,0.0,0.347,0.159,90.8,0.048,2014-10-29T00:00:00,5,1610612737,ATL,Atlanta,0-1,22,30,19,31,0,0,0,0,0,0,0,0,0,0,102,0.5,0.529,0.591,26,42,17,0021400008,1610612761,TOR,Toronto,James Johnson,,,13:51,0.0,2.0,0.0,0.0,4.0,2.0,3.0,8.0,1.0,0.0,0.0,1.0
0021400008,1610612761,TOR,Toronto,201949,James Johnson,,,13:51,104.9,113.1,-8.2,0.2,1.0,29.1,0.0,0.0,0.0,29.1,0.0,0.347,0.159,90.8,0.048,2014-10-29T00:00:00,5,1610612761,TOR,Toronto,1-0,24,36,26,23,0,0,0,0,0,0,0,0,0,0,109,0.411,0.818,0.308,26,48,9,0021400008,1610612761,TOR,Toronto,James Johnson,,,13:51,0.0,2.0,0.0,0.0,4.0,2.0,3.0,8.0,1.0,0.0,0.0,1.0
0021400008,1610612761,TOR,Toronto,202335,Patrick Patterson,,,23:47,113.0,96.7,16.3,0.167,0.0,18.2,0.0,0.278,0.128,0.0,0.556,0.556,0.162,95.06,0.16,2014-10-29T00:00:00,5,1610612737,ATL,Atlanta,0-1,22,30,19,31,0,0,0,0,0,0,0,0,0,0,102,0.5,0.529,0.591,26,42,17,0021400008,1610612761,TOR,Toronto,Patrick Patterson,,,23:47,3.0,0.0,0.0,2.0,6.0,3.0,3.0,16.0,0.0,0.0,1.0,1.0
0021400008,1610612761,TOR,Toronto,202335,Patrick Patterson,,,23:47,113.0,96.7,16.3,0.167,0.0,18.2,0.0,0.278,0.128,0.0,0.556,0.556,0.162,95.06,0.16,2014-10-29T00:00:00,5,1610612761,TOR,Toronto,1-0,24,36,26,23,0,0,0,0,0,0,0,0,0,0,109,0.411,0.818,0.308,26,48,9,0021400008,1610612761,TOR,Toronto,Patrick Patterson,,,23:47,3.0,0.0,0.0,2.0,6.0,3.0,3.0,16.0,0.0,0.0,1.0,1.0
0021400008,1610612761,TOR,Toronto,101150,Lou Williams,,,15:17,92.3,90.1,2.2,0.143,1.0,9.6,0.063,0.0,0.038,9.6,0.438,0.474,0.258,94.66,0.052,2014-10-29T00:00:00,5,1610612737,ATL,Atlanta,0-1,22,30,19,31,0,0,0,0,0,0,0,0,0,0,102,0.5,0.529,0.591,26,42,17,0021400008,1610612761,TOR,Toronto,Lou Williams,,,15:17,0.0,0.0,2.0,0.0,4.0,2.0,3.0,8.0,0.0,0.0,1.0,1.0
0021400008,1610612761,TOR,Toronto,101150,Lou Williams,,,15:17,92.3,90.1,2.2,0.143,1.0,9.6,0.063,0.0,0.038,9.6,0.438,0.474,0.258,94.66,0.052,2014-10-29T00:00:00,5,1610612761,TOR,Toronto,1-0,24,36,26,23,0,0,0,0,0,0,0,0,0,0,109,0.411,0.818,0.308,26,48,9,0021400008,1610612761,TOR,Toronto,Lou Williams,,,15:17,0.0,0.0,2.0,0.0,4.0,2.0,3.0,8.0,0.0,0.0,1.0,1.0
0021400008,1610612761,TOR,Toronto,202349,Greivis Vasquez,,,17:19,106.0,78.7,27.3,0.429,0.0,21.4,0.0,0.154,0.069,0.0,0.545,0.545,0.276,93.69,0.132,2014-10-29T00:00:00,5,1610612737,ATL,Atlanta,0-1,22,30,19,31,0,0,0,0,0,0,0,0,0,0,102,0.5,0.529,0.591,26,42,17,0021400008,1610612761,TOR,Toronto,Greivis Vasquez,,,17:19,3.0,2.0,3.0,4.0,2.0,2.0,1.0,6.0,0.0,1.0,4.0,1.0
0021400008,1610612761,TOR,Toronto,202349,Greivis Vasquez,,,17:19,106.0,78.7,27.3,0.429,0.0,21.4,0.0,0.154,0.069,0.0,0.545,0.545,0.276,93.69,0.132,2014-10-29T00:00:00,5,1610612761,TOR,Toronto,1-0,24,36,26,23,0,0,0,0,0,0,0,0,0,0,109,0.411,0.818,0.308,26,48,9,0021400008,1610612761,TOR,Toronto,Greivis Vasquez,,,17:19,3.0,2.0,3.0,4.0,2.0,2.0,1.0,6.0,0.0,1.0,4.0,1.0
0021400008,1610612761,TOR,Toronto,202361,Landry Fields,,DNP - Coach's Decision                  ,,,,,,,0.0,,,,,,,0.0,,,2014-10-29T00:00:00,5,1610612737,ATL,Atlanta,0-1,22,30,19,31,0,0,0,0,0,0,0,0,0,0,102,0.5,0.529,0.591,26,42,17,0021400008,1610612761,TOR,Toronto,Landry Fields,,DNP - Coach's Decision                  ,,,,,,,,,,,,,
0021400008,1610612761,TOR,Toronto,202361,Landry Fields,,DNP - Coach's Decision                  ,,,,,,,0.0,,,,,,,0.0,,,2014-10-29T00:00:00,5,1610612761,TOR,Toronto,1-0,24,36,26,23,0,0,0,0,0,0,0,0,0,0,109,0.411,0.818,0.308,26,48,9,0021400008,1610612761,TOR,Toronto,Landry Fields,,DNP - Coach's Decision                  ,,,,,,,,,,,,,
0021400008,1610612761,TOR,Toronto,101236,Chuck Hayes,,DNP - Coach's Decision                  ,,,,,,,0.0,,,,,,,0.0,,,2014-10-29T00:00:00,5,1610612737,ATL,Atlanta,0-1,22,30,19,31,0,0,0,0,0,0,0,0,0,0,102,0.5,0.529,0.591,26,42,17,0021400008,1610612761,TOR,Toronto,Chuck Hayes,,DNP - Coach's Decision                  ,,,,,,,,,,,,,
0021400008,1610612761,TOR,Toronto,101236,Chuck Hayes,,DNP - Coach's Decision                  ,,,,,,,0.0,,,,,,,0.0,,,2014-10-29T00:00:00,5,1610612761,TOR,Toronto,1-0,24,36,26,23,0,0,0,0,0,0,0,0,0,0,109,0.411,0.818,0.308,26,48,9,0021400008,1610612761,TOR,Toronto,Chuck Hayes,,DNP - Coach's Decision                  ,,,,,,,,,,,,,
0021400008,1610612761,TOR,Toronto,203512,Lucas Nogueira,,DNP - Coach's Decision                  ,,,,,,,0.0,,,,,,,0.0,,,2014-10-29T00:00:00,5,1610612737,ATL,Atlanta,0-1,22,30,19,31,0,0,0,0,0,0,0,0,0,0,102,0.5,0.529,0.591,26,42,17,0021400008,1610612761,TOR,Toronto,Lucas Nogueira,,DNP - Coach's Decision                  ,,,,,,,,,,,,,
0021400008,1610612761,TOR,Toronto,203512,Lucas Nogueira,,DNP - Coach's Decision                  ,,,,,,,0.0,,,,,,,0.0,,,2014-10-29T00:00:00,5,1610612761,TOR,Toronto,1-0,24,36,26,23,0,0,0,0,0,0,0,0,0,0,109,0.411,0.818,0.308,26,48,9,0021400008,1610612761,TOR,Toronto,Lucas Nogueira,,DNP - Coach's Decision                  ,,,,,,,,,,,,,
