GAME_ID_x,TEAM_ID_x,TEAM_ABBREVIATION_x,TEAM_CITY_x,PLAYER_ID,PLAYER_NAME_x,START_POSITION_x,COMMENT_x,MIN_x,OFF_RATING,DEF_RATING,NET_RATING,AST_PCT,AST_TOV,AST_RATIO,OREB_PCT,DREB_PCT,REB_PCT,TM_TOV_PCT,EFG_PCT,TS_PCT,USG_PCT,PACE,PIE,GAME_DATE_EST,GAME_SEQUENCE,TEAM_ID_y,TEAM_ABBREVIATION_y,TEAM_CITY_NAME,TEAM_WINS_LOSSES,PTS_QTR1,PTS_QTR2,PTS_QTR3,PTS_QTR4,PTS_OT1,PTS_OT2,PTS_OT3,PTS_OT4,PTS_OT5,PTS_OT6,PTS_OT7,PTS_OT8,PTS_OT9,PTS_OT10,PTS,FG_PCT,FT_PCT,FG3_PCT,AST,REB,TOV,GAME_ID_y,TEAM_ID,TEAM_ABBREVIATION,TEAM_CITY_y,PLAYER_NAME_y,START_POSITION_y,COMMENT_y,MIN_y,PTS_OFF_TOV,PTS_2ND_CHANCE,PTS_FB,PTS_PAINT,OPP_PTS_OFF_TOV,OPP_PTS_2ND_CHANCE,OPP_PTS_FB,OPP_PTS_PAINT,BLK,BLKA,PF,PFD
0021400004,1610612749,MIL,Milwaukee,203114,Khris Middleton,F,,35:56,99.3,99.0,0.4,0.111,0.5,8.6,0.034,0.139,0.092,17.2,0.467,0.494,0.292,98.35,0.067,2014-10-29T00:00:00,1,1610612749,MIL,Milwaukee,0-1,24,33,26,17,6,0,0,0,0,0,0,0,0,0,106,0.488,0.875,0.5,25,35,14,0021400004,1610612749,MIL,Milwaukee,Khris Middleton,F,,35:56,2.0,0.0,0.0,2.0,5.0,6.0,17.0,24.0,1.0,1.0,2.0,3.0
0021400004,1610612749,MIL,Milwaukee,203114,Khris Middleton,F,,35:56,99.3,99.0,0.4,0.111,0.5,8.6,0.034,0.139,0.092,17.2,0.467,0.494,0.292,98.35,0.067,2014-10-29T00:00:00,1,1610612766,CHA,Charlotte,1-0,25,21,22,32,8,0,0,0,0,0,0,0,0,0,108,0.406,0.69,0.286,27,50,10,0021400004,1610612749,MIL,Milwaukee,Khris Middleton,F,,35:56,2.0,0.0,0.0,2.0,5.0,6.0,17.0,24.0,1.0,1.0,2.0,3.0
0021400004,1610612749,MIL,Milwaukee,203953,Jabari Parker,F,,36:53,89.2,99.1,-9.9,0.048,0.0,9.2,0.0,0.125,0.062,0.0,0.333,0.405,0.134,97.2,0.054,2014-10-29T00:00:00,1,1610612749,MIL,Milwaukee,0-1,24,33,26,17,6,0,0,0,0,0,0,0,0,0,106,0.488,0.875,0.5,25,35,14,0021400004,1610612749,MIL,Milwaukee,Jabari Parker,F,,36:53,0.0,0.0,4.0,4.0,3.0,10.0,12.0,26.0,0.0,2.0,1.0,1.0
0021400004,1610612749,MIL,Milwaukee,203953,Jabari Parker,F,,36:53,89.2,99.1,-9.9,0.048,0.0,9.2,0.0,0.125,0.062,0.0,0.333,0.405,0.134,97.2,0.054,2014-10-29T00:00:00,1,1610612766,CHA,Charlotte,1-0,25,21,22,32,8,0,0,0,0,0,0,0,0,0,108,0.406,0.69,0.286,27,50,10,0021400004,1610612749,MIL,Milwaukee,Jabari Parker,F,,36:53,0.0,0.0,4.0,4.0,3.0,10.0,12.0,26.0,0.0,2.0,1.0,1.0
0021400004,1610612749,MIL,Milwaukee,202336,Larry Sanders,C,,26:09,101.2,100.7,0.5,0.077,0.0,11.1,0.045,0.167,0.109,0.0,0.625,0.625,0.159,95.45,0.104,2014-10-29T00:00:00,1,1610612749,MIL,Milwaukee,0-1,24,33,26,17,6,0,0,0,0,0,0,0,0,0,106,0.488,0.875,0.5,25,35,14,0021400004,1610612749,MIL,Milwaukee,Larry Sanders,C,,26:09,2.0,0.0,2.0,10.0,3.0,6.0,9.0,20.0,1.0,3.0,5.0,0.0
0021400004,1610612749,MIL,Milwaukee,202336,Larry Sanders,C,,26:09,101.2,100.7,0.5,0.077,0.0,11.1,0.045,0.167,0.109,0.0,0.625,0.625,0.159,95.45,0.104,2014-10-29T00:00:00,1,1610612766,CHA,Charlotte,1-0,25,21,22,32,8,0,0,0,0,0,0,0,0,0,108,0.406,0.69,0.286,27,50,10,0021400004,1610612749,MIL,Milwaukee,Larry Sanders,C,,26:09,2.0,0.0,2.0,10.0,3.0,6.0,9.0,20.0,1.0,3.0,5.0,0.0
0021400004,1610612749,MIL,Milwaukee,201162,Jared Dudley,G,,26:10,106.3,101.5,4.8,0.105,2.0,50.0,0.0,0.08,0.044,25.0,1.5,1.5,0.038,98.95,0.072,2014-10-29T00:00:00,1,1610612749,MIL,Milwaukee,0-1,24,33,26,17,6,0,0,0,0,0,0,0,0,0,106,0.488,0.875,0.5,25,35,14,0021400004,1610612749,MIL,Milwaukee,Jared Dudley,G,,26:10,0.0,0.0,0.0,0.0,3.0,4.0,10.0,16.0,1.0,0.0,1.0,2.0
0021400004,1610612749,MIL,Milwaukee,201162,Jared Dudley,G,,26:10,106.3,101.5,4.8,0.105,2.0,50.0,0.0,0.08,0.044,25.0,1.5,1.5,0.038,98.95,0.072,2014-10-29T00:00:00,1,1610612766,CHA,Charlotte,1-0,25,21,22,32,8,0,0,0,0,0,0,0,0,0,108,0.406,0.69,0.286,27,50,10,0021400004,1610612749,MIL,Milwaukee,Jared Dudley,G,,26:10,0.0,0.0,0.0,0.0,3.0,4.0,10.0,16.0,1.0,0.0,1.0,2.0
0021400004,1610612749,MIL,Milwaukee,202688,Brandon Knight,G,,38:47,92.8,100.1,-7.4,0.591,3.25,33.9,0.0,0.222,0.116,10.4,0.353,0.514,0.319,99.93,0.176,2014-10-29T00:00:00,1,1610612749,MIL,Milwaukee,0-1,24,33,26,17,6,0,0,0,0,0,0,0,0,0,106,0.488,0.875,0.5,25,35,14,0021400004,1610612749,MIL,Milwaukee,Brandon Knight,G,,38:47,8.0,0.0,2.0,4.0,5.0,8.0,15.0,26.0,1.0,2.0,3.0,5.0
0021400004,1610612749,MIL,Milwaukee,202688,Brandon Knight,G,,38:47,92.8,100.1,-7.4,0.591,3.25,33.9,0.0,0.222,0.116,10.4,0.353,0.514,0.319,99.93,0.176,2014-10-29T00:00:00,1,1610612766,CHA,Charlotte,1-0,25,21,22,32,8,0,0,0,0,0,0,0,0,0,108,0.406,0.69,0.286,27,50,10,0021400004,1610612749,MIL,Milwaukee,Brandon Knight,G,,38:47,8.0,0.0,2.0,4.0,5.0,8.0,15.0,26.0,1.0,2.0,3.0,5.0
0021400004,1610612749,MIL,Milwaukee,2585,Zaza Pachulia,,,14:28,84.2,98.5,-14.4,0.0,0.0,0.0,0.0,0.077,0.042,37.5,0.4,0.4,0.249,112.16,0.011,2014-10-29T00:00:00,1,1610612749,MIL,Milwaukee,0-1,24,33,26,17,6,0,0,0,0,0,0,0,0,0,106,0.488,0.875,0.5,25,35,14,0021400004,1610612749,MIL,Milwaukee,Zaza Pachulia,,,14:28,0.0,0.0,0.0,2.0,4.0,6.0,9.0,14.0,1.0,0.0,1.0,1.0
0021400004,1610612749,MIL,Milwaukee,2585,Zaza Pachulia,,,14:28,84.2,98.5,-14.4,0.0,0.0,0.0,0.0,0.077,0.042,37.5,0.4,0.4,0.249,112.16,0.011,2014-10-29T00:00:00,1,1610612766,CHA,Charlotte,1-0,25,21,22,32,8,0,0,0,0,0,0,0,0,0,108,0.406,0.69,0.286,27,50,10,0021400004,1610612749,MIL,Milwaukee,Zaza Pachulia,,,14:28,0.0,0.0,0.0,2.0,4.0,6.0,9.0,14.0,1.0,0.0,1.0,1.0
0021400004,1610612749,MIL,Milwaukee,203507,Giannis Antetokounmpo,,,24:00,109.3,90.3,19.0,0.067,0.0,12.0,0.0,0.263,0.143,0.0,0.583,0.683,0.156,94.68,0.167,2014-10-29T00:00:00,1,1610612749,MIL,Milwaukee,0-1,24,33,26,17,6,0,0,0,0,0,0,0,0,0,106,0.488,0.875,0.5,25,35,14,0021400004,1610612749,MIL,Milwaukee,Giannis Antetokounmpo,,,24:00,2.0,0.0,2.0,4.0,6.0,12.0,7.0,24.0,1.0,1.0,1.0,4.0
0021400004,1610612749,MIL,Milwaukee,203507,Giannis Antetokounmpo,,,24:00,109.3,90.3,19.0,0.067,0.0,12.0,0.0,0.263,0.143,0.0,0.583,0.683,0.156,94.68,0.167,2014-10-29T00:00:00,1,1610612766,CHA,Charlotte,1-0,25,21,22,32,8,0,0,0,0,0,0,0,0,0,108,0.406,0.69,0.286,27,50,10,0021400004,1610612749,MIL,Milwaukee,Giannis Antetokounmpo,,,24:00,2.0,0.0,2.0,4.0,6.0,12.0,7.0,24.0,1.0,1.0,1.0,4.0
0021400004,1610612749,MIL,Milwaukee,201564,O.J. Mayo,,,24:14,102.3,84.5,17.8,0.25,3.0,20.2,0.077,0.1,0.091,6.7,0.75,0.781,0.253,94.78,0.222,2014-10-29T00:00:00,1,1610612749,MIL,Milwaukee,0-1,24,33,26,17,6,0,0,0,0,0,0,0,0,0,106,0.488,0.875,0.5,25,35,14,0021400004,1610612749,MIL,Milwaukee,O.J. Mayo,,,24:14,0.0,2.0,3.0,4.0,6.0,10.0,2.0,18.0,1.0,0.0,4.0,2.0
0021400004,1610612749,MIL,Milwaukee,201564,O.J. Mayo,,,24:14,102.3,84.5,17.8,0.25,3.0,20.2,0.077,0.1,0.091,6.7,0.75,0.781,0.253,94.78,0.222,2014-10-29T00:00:00,1,1610612766,CHA,Charlotte,1-0,25,21,22,32,8,0,0,0,0,0,0,0,0,0,108,0.406,0.69,0.286,27,50,10,0021400004,1610612749,MIL,Milwaukee,O.J. Mayo,,,24:14,0.0,2.0,3.0,4.0,6.0,10.0,2.0,18.0,1.0,0.0,4.0,2.0
0021400004,1610612749,MIL,Milwaukee,101141,Ersan Ilyasova,,,11:46,144.9,95.3,49.6,0.0,0.0,0.0,0.0,0.111,0.083,0.0,1.0,1.0,0.13,92.14,0.118,2014-10-29T00:00:00,1,1610612749,MIL,Milwaukee,0-1,24,33,26,17,6,0,0,0,0,0,0,0,0,0,106,0.488,0.875,0.5,25,35,14,0021400004,1610612749,MIL,Milwaukee,Ersan Ilyasova,,,11:46,0.0,0.0,0.0,2.0,4.0,6.0,0.0,10.0,1.0,0.0,5.0,0.0
0021400004,1610612749,MIL,Milwaukee,101141,Ersan Ilyasova,,,11:46,144.9,95.3,49.6,0.0,0.0,0.0,0.0,0.111,0.083,0.0,1.0,1.0,0.13,92.14,0.118,2014-10-29T00:00:00,1,1610612766,CHA,Charlotte,1-0,25,21,22,32,8,0,0,0,0,0,0,0,0,0,108,0.406,0.69,0.286,27,50,10,0021400004,1610612749,MIL,Milwaukee,Ersan Ilyasova,,,11:46,0.0,0.0,0.0,2.0,4.0,6.0,0.0,10.0,1.0,0.0,5.0,0.0
0021400004,1610612749,MIL,Milwaukee,203089,John Henson,,,12:24,135.0,97.2,37.8,0.0,0.0,0.0,0.0,0.0,0.0,0.0,0.667,0.644,0.162,88.27,0.091,2014-10-29T00:00:00,1,1610612749,MIL,Milwaukee,0-1,24,33,26,17,6,0,0,0,0,0,0,0,0,0,106,0.488,0.875,0.5,25,35,14,0021400004,1610612749,MIL,Milwaukee,John Henson,,,12:24,1.0,0.0,1.0,4.0,2.0,4.0,2.0,8.0,2.0,0.0,0.0,1.0
0021400004,1610612749,MIL,Milwaukee,203089,John Henson,,,12:24,135.0,97.2,37.8,0.0,0.0,0.0,0.0,0.0,0.0,0.0,0.667,0.644,0.162,88.27,0.091,2014-10-29T00:00:00,1,1610612766,CHA,Charlotte,1-0,25,21,22,32,8,0,0,0,0,0,0,0,0,0,108,0.406,0.69,0.286,27,50,10,0021400004,1610612749,MIL,Milwaukee,John Henson,,,12:24,1.0,0.0,1.0,4.0,2.0,4.0,2.0,8.0,2.0,0.0,0.0,1.0
0021400004,1610612749,MIL,Milwaukee,201573,Jerryd Bayless,,,14:13,136.2,86.1,50.1,0.2,2.0,33.3,0.0,0.0,0.0,16.7,0.667,0.667,0.154,89.2,0.046,2014-10-29T00:00:00,1,1610612749,MIL,Milwaukee,0-1,24,33,26,17,6,0,0,0,0,0,0,0,0,0,106,0.488,0.875,0.5,25,35,14,0021400004,1610612749,MIL,Milwaukee,Jerryd Bayless,,,14:13,2.0,0.0,2.0,2.0,4.0,8.0,2.0,14.0,0.0,0.0,2.0,1.0
0021400004,1610612749,MIL,Milwaukee,201573,Jerryd Bayless,,,14:13,136.2,86.1,50.1,0.2,2.0,33.3,0.0,0.0,0.0,16.7,0.667,0.667,0.154,89.2,0.046,2014-10-29T00:00:00,1,1610612766,CHA,Charlotte,1-0,25,21,22,32,8,0,0,0,0,0,0,0,0,0,108,0.406,0.69,0.286,27,50,10,0021400004,1610612749,MIL,Milwaukee,Jerryd Bayless,,,14:13,2.0,0.0,2.0,2.0,4.0,8.0,2.0,14.0,0.0,0.0,2.0,1.0
0021400004,1610612749,MIL,Milwaukee,203088,Kendall Marshall,,DNP - Coach's Decision                  ,,,,,,,0.0,,,,,,,0.0,,,2014-10-29T00:00:00,1,1610612749,MIL,Milwaukee,0-1,24,33,26,17,6,0,0,0,0,0,0,0,0,0,106,0.488,0.875,0.5,25,35,14,0021400004,1610612749,MIL,Milwaukee,Kendall Marshall,,DNP - Coach's Decision                  ,,,,,,,,,,,,,
0021400004,1610612749,MIL,Milwaukee,203088,Kendall Marshall,,DNP - Coach's Decision                  ,,,,,,,0.0,,,,,,,0.0,,,2014-10-29T00:00:00,1,1610612766,CHA,Charlotte,1-0,25,21,22,32,8,0,0,0,0,0,0,0,0,0,108,0.406,0.69,0.286,27,50,10,0021400004,1610612749,MIL,Milwaukee,Kendall Marshall,,DNP - Coach's Decision                  ,,,,,,,,,,,,,
0021400004,1610612749,MIL,Milwaukee,203489,Nate Wolters,,DNP - Coach's Decision                  ,,,,,,,0.0,,,,,,,0.0,,,2014-10-29T00:00:00,1,1610612749,MIL,Milwaukee,0-1,24,33,26,17,6,0,0,0,0,0,0,0,0,0,106,0.488,0.875,0.5,25,35,14,0021400004,1610612749,MIL,Milwaukee,Nate Wolters,,DNP - Coach's Decision                  ,,,,,,,,,,,,,
0021400004,1610612749,MIL,Milwaukee,203489,Nate Wolters,,DNP - Coach's Decision                  ,,,,,,,0.0,,,,,,,0.0,,,2014-10-29T00:00:00,1,1610612766,CHA,Charlotte,1-0,25,21,22,32,8,0,0,0,0,0,0,0,0,0,108,0.406,0.69,0.286,27,50,10,0021400004,1610612749,MIL,Milwaukee,Nate Wolters,,DNP - Coach's Decision                  ,,,,,,,,,,,,,
0021400004,1610612766,CHA,Charlotte,203077,Michael Kidd-Gilchrist,F,,33:42,96.3,100.4,-4.2,0.143,3.0,20.5,0.103,0.2,0.148,6.8,0.75,0.799,0.146,96.38,0.165,2014-10-29T00:00:00,1,1610612749,MIL,Milwaukee,0-1,24,33,26,17,6,0,0,0,0,0,0,0,0,0,106,0.488,0.875,0.5,25,35,14,0021400004,1610612766,CHA,Charlotte,Michael Kidd-Gilchrist,F,,33:42,2.0,2.0,4.0,8.0,14.0,0.0,10.0,26.0,3.0,1.0,4.0,4.0
0021400004,1610612766,CHA,Charlotte,203077,Michael Kidd-Gilchrist,F,,33:42,96.3,100.4,-4.2,0.143,3.0,20.5,0.103,0.2,0.148,6.8,0.75,0.799,0.146,96.38,0.165,2014-10-29T00:00:00,1,1610612766,CHA,Charlotte,1-0,25,21,22,32,8,0,0,0,0,0,0,0,0,0,108,0.406,0.69,0.286,27,50,10,0021400004,1610612766,CHA,Charlotte,Michael Kidd-Gilchrist,F,,33:42,2.0,2.0,4.0,8.0,14.0,0.0,10.0,26.0,3.0,1.0,4.0,4.0
0021400004,1610612766,CHA,Charlotte,101107,Marvin Williams,F,,33:11,98.7,100.6,-1.9,0.167,1.5,17.6,0.061,0.083,0.07,11.8,0.792,0.792,0.175,98.02,0.163,2014-10-29T00:00:00,1,1610612749,MIL,Milwaukee,0-1,24,33,26,17,6,0,0,0,0,0,0,0,0,0,106,0.488,0.875,0.5,25,35,14,0021400004,1610612766,CHA,Charlotte,Marvin Williams,F,,33:11,2.0,3.0,3.0,2.0,10.0,0.0,9.0,24.0,0.0,1.0,0.0,0.0
0021400004,1610612766,CHA,Charlotte,101107,Marvin Williams,F,,33:11,98.7,100.6,-1.9,0.167,1.5,17.6,0.061,0.083,0.07,11.8,0.792,0.792,0.175,98.02,0.163,2014-10-29T00:00:00,1,1610612766,CHA,Charlotte,1-0,25,21,22,32,8,0,0,0,0,0,0,0,0,0,108,0.406,0.69,0.286,27,50,10,0021400004,1610612766,CHA,Charlotte,Marvin Williams,F,,33:11,2.0,3.0,3.0,2.0,10.0,0.0,9.0,24.0,0.0,1.0,0.0,0.0
0021400004,1610612766,CHA,Charlotte,2744,Al Jefferson,C,,40:29,96.9,98.3,-1.4,0.077,1.0,9.8,0.051,0.25,0.141,9.8,0.4,0.429,0.186,99.03,0.088,2014-10-29T00:00:00,1,1610612749,MIL,Milwaukee,0-1,24,33,26,17,6,0,0,0,0,0,0,0,0,0,106,0.488,0.875,0.5,25,35,14,0021400004,1610612766,CHA,Charlotte,Al Jefferson,C,,40:29,2.0,0.0,2.0,8.0,14.0,0.0,13.0,28.0,4.0,1.0,4.0,2.0
0021400004,1610612766,CHA,Charlotte,2744,Al Jefferson,C,,40:29,96.9,98.3,-1.4,0.077,1.0,9.8,0.051,0.25,0.141,9.8,0.4,0.429,0.186,99.03,0.088,2014-10-29T00:00:00,1,1610612766,CHA,Charlotte,1-0,25,21,22,32,8,0,0,0,0,0,0,0,0,0,108,0.406,0.69,0.286,27,50,10,0021400004,1610612766,CHA,Charlotte,Al Jefferson,C,,40:29,2.0,0.0,2.0,8.0,14.0,0.0,13.0,28.0,4.0,1.0,4.0,2.0
0021400004,1610612766,CHA,Charlotte,202362,Lance Stephenson,G,,39:55,98.6,101.9,-3.3,0.267,4.0,35.0,0.081,0.357,0.2,8.7,0.25,0.272,0.151,97.91,0.074,2014-10-29T00:00:00,1,1610612749,MIL,Milwaukee,0-1,24,33,26,17,6,0,0,0,0,0,0,0,0,0,106,0.488,0.875,0.5,25,35,14,0021400004,1610612766,CHA,Charlotte,Lance Stephenson,G,,39:55,3.0,5.0,0.0,6.0,14.0,0.0,13.0,28.0,0.0,1.0,4.0,3.0
0021400004,1610612766,CHA,Charlotte,202362,Lance Stephenson,G,,39:55,98.6,101.9,-3.3,0.267,4.0,35.0,0.081,0.357,0.2,8.7,0.25,0.272,0.151,97.91,0.074,2014-10-29T00:00:00,1,1610612766,CHA,Charlotte,1-0,25,21,22,32,8,0,0,0,0,0,0,0,0,0,108,0.406,0.69,0.286,27,50,10,0021400004,1610612766,CHA,Charlotte,Lance Stephenson,G,,39:55,3.0,5.0,0.0,6.0,14.0,0.0,13.0,28.0,0.0,1.0,4.0,3.0
0021400004,1610612766,CHA,Charlotte,202689,Kemba Walker,G,,38:59,100.1,91.6,8.5,0.238,0.0,14.0,0.056,0.121,0.087,0.0,0.404,0.422,0.325,100.03,0.099,2014-10-29T00:00:00,1,1610612749,MIL,Milwaukee,0-1,24,33,26,17,6,0,0,0,0,0,0,0,0,0,106,0.488,0.875,0.5,25,35,14,0021400004,1610612766,CHA,Charlotte,Kemba Walker,G,,38:59,0.0,0.0,5.0,6.0,14.0,0.0,10.0,24.0,1.0,4.0,1.0,6.0
0021400004,1610612766,CHA,Charlotte,202689,Kemba Walker,G,,38:59,100.1,91.6,8.5,0.238,0.0,14.0,0.056,0.121,0.087,0.0,0.404,0.422,0.325,100.03,0.099,2014-10-29T00:00:00,1,1610612766,CHA,Charlotte,1-0,25,21,22,32,8,0,0,0,0,0,0,0,0,0,108,0.406,0.69,0.286,27,50,10,0021400004,1610612766,CHA,Charlotte,Kemba Walker,G,,38:59,0.0,0.0,5.0,6.0,14.0,0.0,10.0,24.0,1.0,4.0,1.0,6.0
0021400004,1610612766,CHA,Charlotte,203469,Cody Zeller,,,19:49,93.2,108.2,-15.0,0.0,0.0,0.0,0.071,0.071,0.071,19.6,0.5,0.671,0.218,95.43,0.092,2014-10-29T00:00:00,1,1610612749,MIL,Milwaukee,0-1,24,33,26,17,6,0,0,0,0,0,0,0,0,0,106,0.488,0.875,0.5,25,35,14,0021400004,1610612766,CHA,Charlotte,Cody Zeller,,,19:49,0.0,2.0,3.0,4.0,7.0,2.0,7.0,14.0,0.0,0.0,3.0,4.0
0021400004,1610612766,CHA,Charlotte,203469,Cody Zeller,,,19:49,93.2,108.2,-15.0,0.0,0.0,0.0,0.071,0.071,0.071,19.6,0.5,0.671,0.218,95.43,0.092,2014-10-29T00:00:00,1,1610612766,CHA,Charlotte,1-0,25,21,22,32,8,0,0,0,0,0,0,0,0,0,108,0.406,0.69,0.286,27,50,10,0021400004,1610612766,CHA,Charlotte,Cody Zeller,,,19:49,0.0,2.0,3.0,4.0,7.0,2.0,7.0,14.0,0.0,0.0,3.0,4.0
0021400004,1610612766,CHA,Charlotte,201945,Gerald Henderson,,,8:49,77.4,114.5,-37.1,0.25,1.0,25.0,0.125,0.0,0.063,25.0,0.0,0.0,0.149,103.88,-0.046,2014-10-29T00:00:00,1,1610612749,MIL,Milwaukee,0-1,24,33,26,17,6,0,0,0,0,0,0,0,0,0,106,0.488,0.875,0.5,25,35,14,0021400004,1610612766,CHA,Charlotte,Gerald Henderson,,,8:49,0.0,0.0,0.0,0.0,3.0,2.0,3.0,8.0,0.0,0.0,1.0,1.0
0021400004,1610612766,CHA,Charlotte,201945,Gerald Henderson,,,8:49,77.4,114.5,-37.1,0.25,1.0,25.0,0.125,0.0,0.063,25.0,0.0,0.0,0.149,103.88,-0.046,2014-10-29T00:00:00,1,1610612766,CHA,Charlotte,1-0,25,21,22,32,8,0,0,0,0,0,0,0,0,0,108,0.406,0.69,0.286,27,50,10,0021400004,1610612766,CHA,Charlotte,Gerald Henderson,,,8:49,0.0,0.0,0.0,0.0,3.0,2.0,3.0,8.0,0.0,0.0,1.0,1.0
0021400004,1610612766,CHA,Charlotte,202390,Gary Neal,,,23:34,100.8,105.2,-4.4,0.125,0.0,14.4,0.0,0.267,0.114,0.0,0.182,0.253,0.214,94.01,0.058,2014-10-29T00:00:00,1,1610612749,MIL,Milwaukee,0-1,24,33,26,17,6,0,0,0,0,0,0,0,0,0,106,0.488,0.875,0.5,25,35,14,0021400004,1610612766,CHA,Charlotte,Gary Neal,,,23:34,0.0,0.0,0.0,4.0,3.0,2.0,6.0,14.0,0.0,1.0,0.0,1.0
0021400004,1610612766,CHA,Charlotte,202390,Gary Neal,,,23:34,100.8,105.2,-4.4,0.125,0.0,14.4,0.0,0.267,0.114,0.0,0.182,0.253,0.214,94.01,0.058,2014-10-29T00:00:00,1,1610612766,CHA,Charlotte,1-0,25,21,22,32,8,0,0,0,0,0,0,0,0,0,108,0.406,0.69,0.286,27,50,10,0021400004,1610612766,CHA,Charlotte,Gary Neal,,,23:34,0.0,0.0,0.0,4.0,3.0,2.0,6.0,14.0,0.0,1.0,0.0,1.0
0021400004,1610612766,CHA,Charlotte,101131,Jason Maxiell,,,12:31,95.7,121.6,-25.9,0.0,0.0,0.0,0.125,0.167,0.143,0.0,0.4,0.4,0.178,90.66,0.029,2014-10-29T00:00:00,1,1610612749,MIL,Milwaukee,0-1,24,33,26,17,6,0,0,0,0,0,0,0,0,0,106,0.488,0.875,0.5,25,35,14,0021400004,1610612766,CHA,Charlotte,Jason Maxiell,,,12:31,0.0,2.0,0.0,2.0,3.0,2.0,3.0,10.0,1.0,1.0,2.0,2.0
0021400004,1610612766,CHA,Charlotte,101131,Jason Maxiell,,,12:31,95.7,121.6,-25.9,0.0,0.0,0.0,0.125,0.167,0.143,0.0,0.4,0.4,0.178,90.66,0.029,2014-10-29T00:00:00,1,1610612766,CHA,Charlotte,1-0,25,21,22,32,8,0,0,0,0,0,0,0,0,0,108,0.406,0.69,0.286,27,50,10,0021400004,1610612766,CHA,Charlotte,Jason Maxiell,,,12:31,0.0,2.0,0.0,2.0,3.0,2.0,3.0,10.0,1.0,1.0,2.0,2.0
0021400004,1610612766,CHA,Charlotte,203148,Brian Roberts,,,14:01,86.1,141.9,-55.8,0.333,0.0,42.9,0.0,0.0,0.0,0.0,0.5,0.5,0.125,88.76,0.11,2014-10-29T00:00:00,1,1610612749,MIL,Milwaukee,0-1,24,33,26,17,6,0,0,0,0,0,0,0,0,0,106,0.488,0.875,0.5,25,35,14,0021400004,1610612766,CHA,Charlotte,Brian Roberts,,,14:01,0.0,2.0,0.0,0.0,3.0,2.0,6.0,14.0,0.0,0.0,1.0,2.0
0021400004,1610612766,CHA,Charlotte,203148,Brian Roberts,,,14:01,86.1,141.9,-55.8,0.333,0.0,42.9,0.0,0.0,0.0,0.0,0.5,0.5,0.125,88.76,0.11,2014-10-29T00:00:00,1,1610612766,CHA,Charlotte,1-0,25,21,22,32,8,0,0,0,0,0,0,0,0,0,108,0.406,0.69,0.286,27,50,10,0021400004,1610612766,CHA,Charlotte,Brian Roberts,,,14:01,0.0,2.0,0.0,0.0,3.0,2.0,6.0,14.0,0.0,0.0,1.0,2.0
0021400004,1610612766,CHA,Charlotte,202687,Bismack Biyombo,,DNP - Coach's Decision                  ,,,,,,,0.0,,,,,,,0.0,,,2014-10-29T00:00:00,1,1610612749,MIL,Milwaukee,0-1,24,33,26,17,6,0,0,0,0,0,0,0,0,0,106,0.488,0.875,0.5,25,35,14,0021400004,1610612766,CHA,Charlotte,Bismack Biyombo,,DNP - Coach's Decision                  ,,,,,,,,,,,,,
0021400004,1610612766,CHA,Charlotte,202687,Bismack Biyombo,,DNP - Coach's Decision                  ,,,,,,,0.0,,,,,,,0.0,,,2014-10-29T00:00:00,1,1610612766,CHA,Charlotte,1-0,25,21,22,32,8,0,0,0,0,0,0,0,0,0,108,0.406,0.69,0.286,27,50,10,0021400004,1610612766,CHA,Charlotte,Bismack Biyombo,,DNP - Coach's Decision                  ,,,,,,,,,,,,,
0021400004,1610612766,CHA,Charlotte,203798,PJ Hairston,,DNP - Coach's Decision                  ,,,,,,,0.0,,,,,,,0.0,,,2014-10-29T00:00:00,1,1610612749,MIL,Milwaukee,0-1,24,33,26,17,6,0,0,0,0,0,0,0,0,0,106,0.488,0.875,0.5,25,35,14,0021400004,1610612766,CHA,Charlotte,PJ Hairston,,DNP - Coach's Decision                  ,,,,,,,,,,,,,
0021400004,1610612766,CHA,Charlotte,203798,PJ Hairston,,DNP - Coach's Decision                  ,,,,,,,0.0,,,,,,,0.0,,,2014-10-29T00:00:00,1,1610612766,CHA,Charlotte,1-0,25,21,22,32,8,0,0,0,0,0,0,0,0,0,108,0.406,0.69,0.286,27,50,10,0021400004,1610612766,CHA,Charlotte,PJ Hairston,,DNP - Coach's Decision                  ,,,,,,,,,,,,,
0021400004,1610612766,CHA,Charlotte,2457,Jannero Pargo,,DNP - Coach's Decision                  ,,,,,,,0.0,,,,,,,0.0,,,2014-10-29T00:00:00,1,1610612749,MIL,Milwaukee,0-1,24,33,26,17,6,0,0,0,0,0,0,0,0,0,106,0.488,0.875,0.5,25,35,14,0021400004,1610612766,CHA,Charlotte,Jannero Pargo,,DNP - Coach's Decision                  ,,,,,,,,,,,,,
0021400004,1610612766,CHA,Charlotte,2457,Jannero Pargo,,DNP - Coach's Decision                  ,,,,,,,0.0,,,,,,,0.0,,,2014-10-29T00:00:00,1,1610612766,CHA,Charlotte,1-0,25,21,22,32,8,0,0,0,0,0,0,0,0,0,108,0.406,0.69,0.286,27,50,10,0021400004,1610612766,CHA,Charlotte,Jannero Pargo,,DNP - Coach's Decision                  ,,,,,,,,,,,,,
