GAME_ID_x,TEAM_ID_x,TEAM_ABBREVIATION_x,TEAM_CITY_x,PLAYER_ID,PLAYER_NAME_x,START_POSITION_x,COMMENT_x,MIN_x,OFF_RATING,DEF_RATING,NET_RATING,AST_PCT,AST_TOV,AST_RATIO,OREB_PCT,DREB_PCT,REB_PCT,TM_TOV_PCT,EFG_PCT,TS_PCT,USG_PCT,PACE,PIE,GAME_DATE_EST,GAME_SEQUENCE,TEAM_ID_y,TEAM_ABBREVIATION_y,TEAM_CITY_NAME,TEAM_WINS_LOSSES,PTS_QTR1,PTS_QTR2,PTS_QTR3,PTS_QTR4,PTS_OT1,PTS_OT2,PTS_OT3,PTS_OT4,PTS_OT5,PTS_OT6,PTS_OT7,PTS_OT8,PTS_OT9,PTS_OT10,PTS,FG_PCT,FT_PCT,FG3_PCT,AST,REB,TOV,GAME_ID_y,TEAM_ID,TEAM_ABBREVIATION,TEAM_CITY_y,PLAYER_NAME_y,START_POSITION_y,COMMENT_y,MIN_y,PTS_OFF_TOV,PTS_2ND_CHANCE,PTS_FB,PTS_PAINT,OPP_PTS_OFF_TOV,OPP_PTS_2ND_CHANCE,OPP_PTS_FB,OPP_PTS_PAINT,BLK,BLKA,PF,PFD
0021400023,1610612755,PHI,Philadelphia,203457,Nerlens Noel,F,,35:07,77.7,80.4,-2.7,0.143,0.0,15.4,0.024,0.257,0.132,0.0,0.636,0.636,0.14,96.8,0.266,2014-10-31T00:00:00,3,1610612755,PHI,Philadelphia,0-2,24,23,27,7,0,0,0,0,0,0,0,0,0,0,81,0.372,0.545,0.217,20,42,16,0021400023,1610612755,PHI,Philadelphia,Nerlens Noel,F,,35:07,4.0,4.0,0.0,14.0,15.0,11.0,12.0,28.0,3.0,1.0,3.0,0.0
0021400023,1610612755,PHI,Philadelphia,203457,Nerlens Noel,F,,35:07,77.7,80.4,-2.7,0.143,0.0,15.4,0.024,0.257,0.132,0.0,0.636,0.636,0.14,96.8,0.266,2014-10-31T00:00:00,3,1610612749,MIL,Milwaukee,1-1,24,22,27,20,0,0,0,0,0,0,0,0,0,0,93,0.409,0.571,0.375,25,55,18,0021400023,1610612755,PHI,Philadelphia,Nerlens Noel,F,,35:07,4.0,4.0,0.0,14.0,15.0,11.0,12.0,28.0,3.0,1.0,3.0,0.0
0021400023,1610612755,PHI,Philadelphia,203138,Hollis Thompson,F,,35:01,76.1,78.7,-2.6,0.125,2.0,8.9,0.0,0.091,0.04,4.5,0.368,0.386,0.244,104.47,0.043,2014-10-31T00:00:00,3,1610612755,PHI,Philadelphia,0-2,24,23,27,7,0,0,0,0,0,0,0,0,0,0,81,0.372,0.545,0.217,20,42,16,0021400023,1610612755,PHI,Philadelphia,Hollis Thompson,F,,35:01,2.0,0.0,0.0,6.0,12.0,9.0,10.0,28.0,0.0,1.0,4.0,1.0
0021400023,1610612755,PHI,Philadelphia,203138,Hollis Thompson,F,,35:01,76.1,78.7,-2.6,0.125,2.0,8.9,0.0,0.091,0.04,4.5,0.368,0.386,0.244,104.47,0.043,2014-10-31T00:00:00,3,1610612749,MIL,Milwaukee,1-1,24,22,27,20,0,0,0,0,0,0,0,0,0,0,93,0.409,0.571,0.375,25,55,18,0021400023,1610612755,PHI,Philadelphia,Hollis Thompson,F,,35:01,2.0,0.0,0.0,6.0,12.0,9.0,10.0,28.0,0.0,1.0,4.0,1.0
0021400023,1610612755,PHI,Philadelphia,203156,Henry Sims,C,,25:30,86.5,69.9,16.6,0.071,1.0,9.2,0.097,0.185,0.138,9.2,0.375,0.394,0.17,100.18,0.101,2014-10-31T00:00:00,3,1610612755,PHI,Philadelphia,0-2,24,23,27,7,0,0,0,0,0,0,0,0,0,0,81,0.372,0.545,0.217,20,42,16,0021400023,1610612755,PHI,Philadelphia,Henry Sims,C,,25:30,0.0,0.0,0.0,0.0,5.0,7.0,8.0,20.0,0.0,1.0,2.0,1.0
0021400023,1610612755,PHI,Philadelphia,203156,Henry Sims,C,,25:30,86.5,69.9,16.6,0.071,1.0,9.2,0.097,0.185,0.138,9.2,0.375,0.394,0.17,100.18,0.101,2014-10-31T00:00:00,3,1610612749,MIL,Milwaukee,1-1,24,22,27,20,0,0,0,0,0,0,0,0,0,0,93,0.409,0.571,0.375,25,55,18,0021400023,1610612755,PHI,Philadelphia,Henry Sims,C,,25:30,0.0,0.0,0.0,0.0,5.0,7.0,8.0,20.0,0.0,1.0,2.0,1.0
0021400023,1610612755,PHI,Philadelphia,203100,Tony Wroten,G,,34:59,77.7,85.0,-7.3,0.316,0.75,20.1,0.048,0.03,0.04,26.8,0.364,0.442,0.277,104.55,0.012,2014-10-31T00:00:00,3,1610612755,PHI,Philadelphia,0-2,24,23,27,7,0,0,0,0,0,0,0,0,0,0,81,0.372,0.545,0.217,20,42,16,0021400023,1610612755,PHI,Philadelphia,Tony Wroten,G,,34:59,8.0,0.0,5.0,8.0,13.0,11.0,12.0,34.0,0.0,3.0,4.0,7.0
0021400023,1610612755,PHI,Philadelphia,203100,Tony Wroten,G,,34:59,77.7,85.0,-7.3,0.316,0.75,20.1,0.048,0.03,0.04,26.8,0.364,0.442,0.277,104.55,0.012,2014-10-31T00:00:00,3,1610612749,MIL,Milwaukee,1-1,24,22,27,20,0,0,0,0,0,0,0,0,0,0,93,0.409,0.571,0.375,25,55,18,0021400023,1610612755,PHI,Philadelphia,Tony Wroten,G,,34:59,8.0,0.0,5.0,8.0,13.0,11.0,12.0,34.0,0.0,3.0,4.0,7.0
0021400023,1610612755,PHI,Philadelphia,203187,Chris Johnson,G,,29:18,84.3,79.4,4.9,0.0,0.0,0.0,0.059,0.207,0.127,7.8,0.136,0.168,0.194,103.18,-0.022,2014-10-31T00:00:00,3,1610612755,PHI,Philadelphia,0-2,24,23,27,7,0,0,0,0,0,0,0,0,0,0,81,0.372,0.545,0.217,20,42,16,0021400023,1610612755,PHI,Philadelphia,Chris Johnson,G,,29:18,1.0,0.0,1.0,0.0,7.0,9.0,10.0,24.0,1.0,2.0,1.0,4.0
0021400023,1610612755,PHI,Philadelphia,203187,Chris Johnson,G,,29:18,84.3,79.4,4.9,0.0,0.0,0.0,0.059,0.207,0.127,7.8,0.136,0.168,0.194,103.18,-0.022,2014-10-31T00:00:00,3,1610612749,MIL,Milwaukee,1-1,24,22,27,20,0,0,0,0,0,0,0,0,0,0,93,0.409,0.571,0.375,25,55,18,0021400023,1610612755,PHI,Philadelphia,Chris Johnson,G,,29:18,1.0,0.0,1.0,0.0,7.0,9.0,10.0,24.0,1.0,2.0,1.0,4.0
0021400023,1610612755,PHI,Philadelphia,202952,Malcolm Thomas,,,14:48,88.1,111.9,-23.8,0.3,0.0,37.5,0.167,0.273,0.217,0.0,0.6,0.6,0.128,110.72,0.195,2014-10-31T00:00:00,3,1610612755,PHI,Philadelphia,0-2,24,23,27,7,0,0,0,0,0,0,0,0,0,0,81,0.372,0.545,0.217,20,42,16,0021400023,1610612755,PHI,Philadelphia,Malcolm Thomas,,,14:48,0.0,4.0,0.0,6.0,8.0,4.0,4.0,18.0,0.0,1.0,1.0,1.0
0021400023,1610612755,PHI,Philadelphia,202952,Malcolm Thomas,,,14:48,88.1,111.9,-23.8,0.3,0.0,37.5,0.167,0.273,0.217,0.0,0.6,0.6,0.128,110.72,0.195,2014-10-31T00:00:00,3,1610612749,MIL,Milwaukee,1-1,24,22,27,20,0,0,0,0,0,0,0,0,0,0,93,0.409,0.571,0.375,25,55,18,0021400023,1610612755,PHI,Philadelphia,Malcolm Thomas,,,14:48,0.0,4.0,0.0,6.0,8.0,4.0,4.0,18.0,0.0,1.0,1.0,1.0
0021400023,1610612755,PHI,Philadelphia,203909,KJ McDaniels,,,13:39,83.4,122.5,-39.0,0.0,0.0,0.0,0.091,0.0,0.043,12.5,0.857,0.857,0.252,99.34,0.128,2014-10-31T00:00:00,3,1610612755,PHI,Philadelphia,0-2,24,23,27,7,0,0,0,0,0,0,0,0,0,0,81,0.372,0.545,0.217,20,42,16,0021400023,1610612755,PHI,Philadelphia,KJ McDaniels,,,13:39,2.0,4.0,3.0,6.0,13.0,6.0,6.0,20.0,0.0,1.0,2.0,0.0
0021400023,1610612755,PHI,Philadelphia,203909,KJ McDaniels,,,13:39,83.4,122.5,-39.0,0.0,0.0,0.0,0.091,0.0,0.043,12.5,0.857,0.857,0.252,99.34,0.128,2014-10-31T00:00:00,3,1610612749,MIL,Milwaukee,1-1,24,22,27,20,0,0,0,0,0,0,0,0,0,0,93,0.409,0.571,0.375,25,55,18,0021400023,1610612755,PHI,Philadelphia,KJ McDaniels,,,13:39,2.0,4.0,3.0,6.0,13.0,6.0,6.0,20.0,0.0,1.0,2.0,0.0
0021400023,1610612755,PHI,Philadelphia,203561,Brandon Davies,,,5:09,78.6,130.8,-52.2,0.0,0.0,0.0,0.0,0.333,0.143,33.3,0.0,0.0,0.188,125.83,-0.033,2014-10-31T00:00:00,3,1610612755,PHI,Philadelphia,0-2,24,23,27,7,0,0,0,0,0,0,0,0,0,0,81,0.372,0.545,0.217,20,42,16,0021400023,1610612755,PHI,Philadelphia,Brandon Davies,,,5:09,0.0,0.0,0.0,0.0,6.0,2.0,2.0,12.0,0.0,0.0,0.0,0.0
0021400023,1610612755,PHI,Philadelphia,203561,Brandon Davies,,,5:09,78.6,130.8,-52.2,0.0,0.0,0.0,0.0,0.333,0.143,33.3,0.0,0.0,0.188,125.83,-0.033,2014-10-31T00:00:00,3,1610612749,MIL,Milwaukee,1-1,24,22,27,20,0,0,0,0,0,0,0,0,0,0,93,0.409,0.571,0.375,25,55,18,0021400023,1610612755,PHI,Philadelphia,Brandon Davies,,,5:09,0.0,0.0,0.0,0.0,6.0,2.0,2.0,12.0,0.0,0.0,0.0,0.0
0021400023,1610612755,PHI,Philadelphia,203144,Alexey Shved,,,16:18,82.9,115.5,-32.6,0.364,2.0,31.1,0.0,0.0,0.0,15.5,0.167,0.218,0.235,99.42,0.0,2014-10-31T00:00:00,3,1610612755,PHI,Philadelphia,0-2,24,23,27,7,0,0,0,0,0,0,0,0,0,0,81,0.372,0.545,0.217,20,42,16,0021400023,1610612755,PHI,Philadelphia,Alexey Shved,,,16:18,1.0,0.0,1.0,2.0,14.0,6.0,6.0,20.0,0.0,1.0,0.0,2.0
0021400023,1610612755,PHI,Philadelphia,203144,Alexey Shved,,,16:18,82.9,115.5,-32.6,0.364,2.0,31.1,0.0,0.0,0.0,15.5,0.167,0.218,0.235,99.42,0.0,2014-10-31T00:00:00,3,1610612749,MIL,Milwaukee,1-1,24,22,27,20,0,0,0,0,0,0,0,0,0,0,93,0.409,0.571,0.375,25,55,18,0021400023,1610612755,PHI,Philadelphia,Alexey Shved,,,16:18,1.0,0.0,1.0,2.0,14.0,6.0,6.0,20.0,0.0,1.0,0.0,2.0
0021400023,1610612755,PHI,Philadelphia,201601,Luc Mbah a Moute,,,25:05,69.9,96.7,-26.8,0.154,0.0,22.8,0.037,0.087,0.06,0.0,0.4,0.444,0.113,100.16,0.09,2014-10-31T00:00:00,3,1610612755,PHI,Philadelphia,0-2,24,23,27,7,0,0,0,0,0,0,0,0,0,0,81,0.372,0.545,0.217,20,42,16,0021400023,1610612755,PHI,Philadelphia,Luc Mbah a Moute,,,25:05,2.0,0.0,0.0,4.0,15.0,6.0,6.0,18.0,0.0,0.0,1.0,3.0
0021400023,1610612755,PHI,Philadelphia,201601,Luc Mbah a Moute,,,25:05,69.9,96.7,-26.8,0.154,0.0,22.8,0.037,0.087,0.06,0.0,0.4,0.444,0.113,100.16,0.09,2014-10-31T00:00:00,3,1610612749,MIL,Milwaukee,1-1,24,22,27,20,0,0,0,0,0,0,0,0,0,0,93,0.409,0.571,0.375,25,55,18,0021400023,1610612755,PHI,Philadelphia,Luc Mbah a Moute,,,25:05,2.0,0.0,0.0,4.0,15.0,6.0,6.0,18.0,0.0,0.0,1.0,3.0
0021400023,1610612755,PHI,Philadelphia,203960,JaKarr Sampson,,,5:06,73.5,128.7,-55.1,0.0,0.0,0.0,0.0,0.0,0.0,50.0,0.0,0.0,0.184,102.4,-0.086,2014-10-31T00:00:00,3,1610612755,PHI,Philadelphia,0-2,24,23,27,7,0,0,0,0,0,0,0,0,0,0,81,0.372,0.545,0.217,20,42,16,0021400023,1610612755,PHI,Philadelphia,JaKarr Sampson,,,5:06,0.0,0.0,0.0,0.0,7.0,4.0,4.0,8.0,1.0,0.0,0.0,0.0
0021400023,1610612755,PHI,Philadelphia,203960,JaKarr Sampson,,,5:06,73.5,128.7,-55.1,0.0,0.0,0.0,0.0,0.0,0.0,50.0,0.0,0.0,0.184,102.4,-0.086,2014-10-31T00:00:00,3,1610612749,MIL,Milwaukee,1-1,24,22,27,20,0,0,0,0,0,0,0,0,0,0,93,0.409,0.571,0.375,25,55,18,0021400023,1610612755,PHI,Philadelphia,JaKarr Sampson,,,5:06,0.0,0.0,0.0,0.0,7.0,4.0,4.0,8.0,1.0,0.0,0.0,0.0
0021400023,1610612755,PHI,Philadelphia,203487,Michael Carter-Williams,,DND - Right shoulder                    ,,,,,,,0.0,,,,,,,0.0,,,2014-10-31T00:00:00,3,1610612755,PHI,Philadelphia,0-2,24,23,27,7,0,0,0,0,0,0,0,0,0,0,81,0.372,0.545,0.217,20,42,16,0021400023,1610612755,PHI,Philadelphia,Michael Carter-Williams,,DND - Right shoulder                    ,,,,,,,,,,,,,
0021400023,1610612755,PHI,Philadelphia,203487,Michael Carter-Williams,,DND - Right shoulder                    ,,,,,,,0.0,,,,,,,0.0,,,2014-10-31T00:00:00,3,1610612749,MIL,Milwaukee,1-1,24,22,27,20,0,0,0,0,0,0,0,0,0,0,93,0.409,0.571,0.375,25,55,18,0021400023,1610612755,PHI,Philadelphia,Michael Carter-Williams,,DND - Right shoulder                    ,,,,,,,,,,,,,
0021400023,1610612749,MIL,Milwaukee,203114,Khris Middleton,F,,27:55,76.9,64.4,12.5,0.077,0.5,5.3,0.0,0.1,0.06,10.5,0.375,0.375,0.248,105.54,0.041,2014-10-31T00:00:00,3,1610612755,PHI,Philadelphia,0-2,24,23,27,7,0,0,0,0,0,0,0,0,0,0,81,0.372,0.545,0.217,20,42,16,0021400023,1610612749,MIL,Milwaukee,Khris Middleton,F,,27:55,2.0,0.0,4.0,6.0,13.0,2.0,6.0,20.0,0.0,1.0,2.0,0.0
0021400023,1610612749,MIL,Milwaukee,203114,Khris Middleton,F,,27:55,76.9,64.4,12.5,0.077,0.5,5.3,0.0,0.1,0.06,10.5,0.375,0.375,0.248,105.54,0.041,2014-10-31T00:00:00,3,1610612749,MIL,Milwaukee,1-1,24,22,27,20,0,0,0,0,0,0,0,0,0,0,93,0.409,0.571,0.375,25,55,18,0021400023,1610612749,MIL,Milwaukee,Khris Middleton,F,,27:55,2.0,0.0,4.0,6.0,13.0,2.0,6.0,20.0,0.0,1.0,2.0,0.0
0021400023,1610612749,MIL,Milwaukee,203953,Jabari Parker,F,,31:20,83.7,65.5,18.2,0.0,0.0,0.0,0.069,0.2,0.145,20.2,0.5,0.463,0.182,107.57,0.129,2014-10-31T00:00:00,3,1610612755,PHI,Philadelphia,0-2,24,23,27,7,0,0,0,0,0,0,0,0,0,0,81,0.372,0.545,0.217,20,42,16,0021400023,1610612749,MIL,Milwaukee,Jabari Parker,F,,31:20,4.0,3.0,4.0,6.0,15.0,8.0,7.0,26.0,0.0,0.0,1.0,4.0
0021400023,1610612749,MIL,Milwaukee,203953,Jabari Parker,F,,31:20,83.7,65.5,18.2,0.0,0.0,0.0,0.069,0.2,0.145,20.2,0.5,0.463,0.182,107.57,0.129,2014-10-31T00:00:00,3,1610612749,MIL,Milwaukee,1-1,24,22,27,20,0,0,0,0,0,0,0,0,0,0,93,0.409,0.571,0.375,25,55,18,0021400023,1610612749,MIL,Milwaukee,Jabari Parker,F,,31:20,4.0,3.0,4.0,6.0,15.0,8.0,7.0,26.0,0.0,0.0,1.0,4.0
0021400023,1610612749,MIL,Milwaukee,202336,Larry Sanders,C,,26:44,77.4,59.6,17.8,0.077,0.5,6.5,0.269,0.205,0.231,13.0,0.333,0.322,0.207,105.72,0.224,2014-10-31T00:00:00,3,1610612755,PHI,Philadelphia,0-2,24,23,27,7,0,0,0,0,0,0,0,0,0,0,81,0.372,0.545,0.217,20,42,16,0021400023,1610612749,MIL,Milwaukee,Larry Sanders,C,,26:44,0.0,4.0,0.0,6.0,11.0,2.0,4.0,16.0,4.0,2.0,4.0,3.0
0021400023,1610612749,MIL,Milwaukee,202336,Larry Sanders,C,,26:44,77.4,59.6,17.8,0.077,0.5,6.5,0.269,0.205,0.231,13.0,0.333,0.322,0.207,105.72,0.224,2014-10-31T00:00:00,3,1610612749,MIL,Milwaukee,1-1,24,22,27,20,0,0,0,0,0,0,0,0,0,0,93,0.409,0.571,0.375,25,55,18,0021400023,1610612749,MIL,Milwaukee,Larry Sanders,C,,26:44,0.0,4.0,0.0,6.0,11.0,2.0,4.0,16.0,4.0,2.0,4.0,3.0
0021400023,1610612749,MIL,Milwaukee,201162,Jared Dudley,G,,15:40,90.7,78.0,12.6,0.2,0.0,33.3,0.0,0.095,0.054,0.0,0.5,0.5,0.094,108.77,0.16,2014-10-31T00:00:00,3,1610612755,PHI,Philadelphia,0-2,24,23,27,7,0,0,0,0,0,0,0,0,0,0,81,0.372,0.545,0.217,20,42,16,0021400023,1610612749,MIL,Milwaukee,Jared Dudley,G,,15:40,0.0,0.0,2.0,4.0,11.0,2.0,4.0,14.0,0.0,0.0,1.0,2.0
0021400023,1610612749,MIL,Milwaukee,201162,Jared Dudley,G,,15:40,90.7,78.0,12.6,0.2,0.0,33.3,0.0,0.095,0.054,0.0,0.5,0.5,0.094,108.77,0.16,2014-10-31T00:00:00,3,1610612749,MIL,Milwaukee,1-1,24,22,27,20,0,0,0,0,0,0,0,0,0,0,93,0.409,0.571,0.375,25,55,18,0021400023,1610612749,MIL,Milwaukee,Jared Dudley,G,,15:40,0.0,0.0,2.0,4.0,11.0,2.0,4.0,14.0,0.0,0.0,1.0,2.0
0021400023,1610612749,MIL,Milwaukee,202688,Brandon Knight,G,,29:11,74.6,69.4,5.1,0.5,2.67,34.2,0.0,0.175,0.104,12.8,0.313,0.524,0.206,104.97,0.337,2014-10-31T00:00:00,3,1610612755,PHI,Philadelphia,0-2,24,23,27,7,0,0,0,0,0,0,0,0,0,0,81,0.372,0.545,0.217,20,42,16,0021400023,1610612749,MIL,Milwaukee,Brandon Knight,G,,29:11,3.0,0.0,2.0,2.0,15.0,2.0,6.0,24.0,0.0,0.0,2.0,4.0
0021400023,1610612749,MIL,Milwaukee,202688,Brandon Knight,G,,29:11,74.6,69.4,5.1,0.5,2.67,34.2,0.0,0.175,0.104,12.8,0.313,0.524,0.206,104.97,0.337,2014-10-31T00:00:00,3,1610612749,MIL,Milwaukee,1-1,24,22,27,20,0,0,0,0,0,0,0,0,0,0,93,0.409,0.571,0.375,25,55,18,0021400023,1610612749,MIL,Milwaukee,Brandon Knight,G,,29:11,3.0,0.0,2.0,2.0,15.0,2.0,6.0,24.0,0.0,0.0,2.0,4.0
0021400023,1610612749,MIL,Milwaukee,201564,O.J. Mayo,,,28:05,96.6,78.1,18.5,0.357,5.0,23.1,0.042,0.083,0.062,4.6,0.808,0.799,0.256,97.94,0.287,2014-10-31T00:00:00,3,1610612755,PHI,Philadelphia,0-2,24,23,27,7,0,0,0,0,0,0,0,0,0,0,81,0.372,0.545,0.217,20,42,16,0021400023,1610612749,MIL,Milwaukee,O.J. Mayo,,,28:05,10.0,2.0,0.0,2.0,7.0,10.0,6.0,28.0,0.0,0.0,3.0,3.0
0021400023,1610612749,MIL,Milwaukee,201564,O.J. Mayo,,,28:05,96.6,78.1,18.5,0.357,5.0,23.1,0.042,0.083,0.062,4.6,0.808,0.799,0.256,97.94,0.287,2014-10-31T00:00:00,3,1610612749,MIL,Milwaukee,1-1,24,22,27,20,0,0,0,0,0,0,0,0,0,0,93,0.409,0.571,0.375,25,55,18,0021400023,1610612749,MIL,Milwaukee,O.J. Mayo,,,28:05,10.0,2.0,0.0,2.0,7.0,10.0,6.0,28.0,0.0,0.0,3.0,3.0
0021400023,1610612749,MIL,Milwaukee,203507,Giannis Antetokounmpo,,,25:53,97.3,106.4,-9.1,0.118,0.5,14.3,0.042,0.25,0.136,28.6,0.5,0.5,0.202,100.88,0.05,2014-10-31T00:00:00,3,1610612755,PHI,Philadelphia,0-2,24,23,27,7,0,0,0,0,0,0,0,0,0,0,81,0.372,0.545,0.217,20,42,16,0021400023,1610612749,MIL,Milwaukee,Giannis Antetokounmpo,,,25:53,0.0,0.0,2.0,8.0,11.0,10.0,6.0,36.0,1.0,1.0,3.0,1.0
0021400023,1610612749,MIL,Milwaukee,203507,Giannis Antetokounmpo,,,25:53,97.3,106.4,-9.1,0.118,0.5,14.3,0.042,0.25,0.136,28.6,0.5,0.5,0.202,100.88,0.05,2014-10-31T00:00:00,3,1610612749,MIL,Milwaukee,1-1,24,22,27,20,0,0,0,0,0,0,0,0,0,0,93,0.409,0.571,0.375,25,55,18,0021400023,1610612749,MIL,Milwaukee,Giannis Antetokounmpo,,,25:53,0.0,0.0,2.0,8.0,11.0,10.0,6.0,36.0,1.0,1.0,3.0,1.0
0021400023,1610612749,MIL,Milwaukee,203089,John Henson,,,21:16,108.2,105.3,2.9,0.063,0.0,11.3,0.211,0.231,0.219,0.0,0.429,0.381,0.162,98.36,0.116,2014-10-31T00:00:00,3,1610612755,PHI,Philadelphia,0-2,24,23,27,7,0,0,0,0,0,0,0,0,0,0,81,0.372,0.545,0.217,20,42,16,0021400023,1610612749,MIL,Milwaukee,John Henson,,,21:16,2.0,4.0,0.0,6.0,9.0,10.0,6.0,30.0,6.0,1.0,1.0,1.0
0021400023,1610612749,MIL,Milwaukee,203089,John Henson,,,21:16,108.2,105.3,2.9,0.063,0.0,11.3,0.211,0.231,0.219,0.0,0.429,0.381,0.162,98.36,0.116,2014-10-31T00:00:00,3,1610612749,MIL,Milwaukee,1-1,24,22,27,20,0,0,0,0,0,0,0,0,0,0,93,0.409,0.571,0.375,25,55,18,0021400023,1610612749,MIL,Milwaukee,John Henson,,,21:16,2.0,4.0,0.0,6.0,9.0,10.0,6.0,30.0,6.0,1.0,1.0,1.0
0021400023,1610612749,MIL,Milwaukee,203088,Kendall Marshall,,,4:59,125.0,78.6,46.4,0.0,0.0,0.0,0.0,0.0,0.0,100.0,0.0,0.0,0.077,125.22,-0.036,2014-10-31T00:00:00,3,1610612755,PHI,Philadelphia,0-2,24,23,27,7,0,0,0,0,0,0,0,0,0,0,81,0.372,0.545,0.217,20,42,16,0021400023,1610612749,MIL,Milwaukee,Kendall Marshall,,,4:59,0.0,0.0,0.0,0.0,2.0,6.0,3.0,8.0,0.0,0.0,0.0,0.0
0021400023,1610612749,MIL,Milwaukee,203088,Kendall Marshall,,,4:59,125.0,78.6,46.4,0.0,0.0,0.0,0.0,0.0,0.0,100.0,0.0,0.0,0.077,125.22,-0.036,2014-10-31T00:00:00,3,1610612749,MIL,Milwaukee,1-1,24,22,27,20,0,0,0,0,0,0,0,0,0,0,93,0.409,0.571,0.375,25,55,18,0021400023,1610612749,MIL,Milwaukee,Kendall Marshall,,,4:59,0.0,0.0,0.0,0.0,2.0,6.0,3.0,8.0,0.0,0.0,0.0,0.0
0021400023,1610612749,MIL,Milwaukee,101141,Ersan Ilyasova,,,4:51,78.8,101.4,-22.5,0.0,0.0,0.0,0.0,0.0,0.0,50.0,0.0,0.0,0.202,87.88,-0.25,2014-10-31T00:00:00,3,1610612755,PHI,Philadelphia,0-2,24,23,27,7,0,0,0,0,0,0,0,0,0,0,81,0.372,0.545,0.217,20,42,16,0021400023,1610612749,MIL,Milwaukee,Ersan Ilyasova,,,4:51,0.0,0.0,0.0,0.0,2.0,4.0,0.0,8.0,0.0,0.0,1.0,0.0
0021400023,1610612749,MIL,Milwaukee,101141,Ersan Ilyasova,,,4:51,78.8,101.4,-22.5,0.0,0.0,0.0,0.0,0.0,0.0,50.0,0.0,0.0,0.202,87.88,-0.25,2014-10-31T00:00:00,3,1610612749,MIL,Milwaukee,1-1,24,22,27,20,0,0,0,0,0,0,0,0,0,0,93,0.409,0.571,0.375,25,55,18,0021400023,1610612749,MIL,Milwaukee,Ersan Ilyasova,,,4:51,0.0,0.0,0.0,0.0,2.0,4.0,0.0,8.0,0.0,0.0,1.0,0.0
0021400023,1610612749,MIL,Milwaukee,201573,Jerryd Bayless,,,13:50,113.6,104.8,8.8,0.5,4.0,33.3,0.0,0.0,0.0,8.3,0.429,0.429,0.262,88.97,0.1,2014-10-31T00:00:00,3,1610612755,PHI,Philadelphia,0-2,24,23,27,7,0,0,0,0,0,0,0,0,0,0,81,0.372,0.545,0.217,20,42,16,0021400023,1610612749,MIL,Milwaukee,Jerryd Bayless,,,13:50,2.0,2.0,2.0,6.0,3.0,4.0,1.0,14.0,0.0,0.0,1.0,0.0
0021400023,1610612749,MIL,Milwaukee,201573,Jerryd Bayless,,,13:50,113.6,104.8,8.8,0.5,4.0,33.3,0.0,0.0,0.0,8.3,0.429,0.429,0.262,88.97,0.1,2014-10-31T00:00:00,3,1610612749,MIL,Milwaukee,1-1,24,22,27,20,0,0,0,0,0,0,0,0,0,0,93,0.409,0.571,0.375,25,55,18,0021400023,1610612749,MIL,Milwaukee,Jerryd Bayless,,,13:50,2.0,2.0,2.0,6.0,3.0,4.0,1.0,14.0,0.0,0.0,1.0,0.0
0021400023,1610612749,MIL,Milwaukee,203489,Nate Wolters,,,10:16,122.2,96.2,26.0,0.111,0.0,50.0,0.0,0.167,0.059,0.0,0.0,0.0,0.042,92.1,0.026,2014-10-31T00:00:00,3,1610612755,PHI,Philadelphia,0-2,24,23,27,7,0,0,0,0,0,0,0,0,0,0,81,0.372,0.545,0.217,20,42,16,0021400023,1610612749,MIL,Milwaukee,Nate Wolters,,,10:16,0.0,0.0,0.0,0.0,1.0,0.0,1.0,6.0,0.0,0.0,0.0,0.0
0021400023,1610612749,MIL,Milwaukee,203489,Nate Wolters,,,10:16,122.2,96.2,26.0,0.111,0.0,50.0,0.0,0.167,0.059,0.0,0.0,0.0,0.042,92.1,0.026,2014-10-31T00:00:00,3,1610612749,MIL,Milwaukee,1-1,24,22,27,20,0,0,0,0,0,0,0,0,0,0,93,0.409,0.571,0.375,25,55,18,0021400023,1610612749,MIL,Milwaukee,Nate Wolters,,,10:16,0.0,0.0,0.0,0.0,1.0,0.0,1.0,6.0,0.0,0.0,0.0,0.0
0021400023,1610612749,MIL,Milwaukee,2585,Zaza Pachulia,,DNP - Coach's Decision                  ,,,,,,,0.0,,,,,,,0.0,,,2014-10-31T00:00:00,3,1610612755,PHI,Philadelphia,0-2,24,23,27,7,0,0,0,0,0,0,0,0,0,0,81,0.372,0.545,0.217,20,42,16,0021400023,1610612749,MIL,Milwaukee,Zaza Pachulia,,DNP - Coach's Decision                  ,,,,,,,,,,,,,
0021400023,1610612749,MIL,Milwaukee,2585,Zaza Pachulia,,DNP - Coach's Decision                  ,,,,,,,0.0,,,,,,,0.0,,,2014-10-31T00:00:00,3,1610612749,MIL,Milwaukee,1-1,24,22,27,20,0,0,0,0,0,0,0,0,0,0,93,0.409,0.571,0.375,25,55,18,0021400023,1610612749,MIL,Milwaukee,Zaza Pachulia,,DNP - Coach's Decision                  ,,,,,,,,,,,,,
