GAME_ID_x,TEAM_ID_x,TEAM_ABBREVIATION_x,TEAM_CITY_x,PLAYER_ID,PLAYER_NAME_x,START_POSITION_x,COMMENT_x,MIN_x,OFF_RATING,DEF_RATING,NET_RATING,AST_PCT,AST_TOV,AST_RATIO,OREB_PCT,DREB_PCT,REB_PCT,TM_TOV_PCT,EFG_PCT,TS_PCT,USG_PCT,PACE,PIE,GAME_DATE_EST,GAME_SEQUENCE,TEAM_ID_y,TEAM_ABBREVIATION_y,TEAM_CITY_NAME,TEAM_WINS_LOSSES,PTS_QTR1,PTS_QTR2,PTS_QTR3,PTS_QTR4,PTS_OT1,PTS_OT2,PTS_OT3,PTS_OT4,PTS_OT5,PTS_OT6,PTS_OT7,PTS_OT8,PTS_OT9,PTS_OT10,PTS,FG_PCT,FT_PCT,FG3_PCT,AST,REB,TOV,GAME_ID_y,TEAM_ID,TEAM_ABBREVIATION,TEAM_CITY_y,PLAYER_NAME_y,START_POSITION_y,COMMENT_y,MIN_y,PTS_OFF_TOV,PTS_2ND_CHANCE,PTS_FB,PTS_PAINT,OPP_PTS_OFF_TOV,OPP_PTS_2ND_CHANCE,OPP_PTS_FB,OPP_PTS_PAINT,BLK,BLKA,PF,PFD
0021400033,1610612751,BKN,Brooklyn,2207,Joe Johnson,F,,38:57,118.1,98.1,19.9,0.286,0.0,19.8,0.029,0.184,0.11,0.0,0.674,0.699,0.294,88.21,0.286,2014-11-01T00:00:00,7,1610612751,BKN,Brooklyn,1-1,33,26,22,21,0,0,0,0,0,0,0,0,0,0,102,0.483,0.846,0.269,18,48,8,0021400033,1610612751,BKN,Brooklyn,Joe Johnson,F,,38:57,2.0,2.0,3.0,14.0,8.0,12.0,10.0,40.0,0.0,0.0,1.0,3.0
0021400033,1610612751,BKN,Brooklyn,2207,Joe Johnson,F,,38:57,118.1,98.1,19.9,0.286,0.0,19.8,0.029,0.184,0.11,0.0,0.674,0.699,0.294,88.21,0.286,2014-11-01T00:00:00,7,1610612765,DET,Detroit,0-3,25,22,28,15,0,0,0,0,0,0,0,0,0,0,90,0.421,0.714,0.059,21,41,7,0021400033,1610612751,BKN,Brooklyn,Joe Johnson,F,,38:57,2.0,2.0,3.0,14.0,8.0,12.0,10.0,40.0,0.0,0.0,1.0,3.0
0021400033,1610612751,BKN,Brooklyn,708,Kevin Garnett,F,,35:02,114.9,92.7,22.3,0.0,0.0,0.0,0.032,0.371,0.212,15.2,0.467,0.537,0.273,87.74,0.183,2014-11-01T00:00:00,7,1610612751,BKN,Brooklyn,1-1,33,26,22,21,0,0,0,0,0,0,0,0,0,0,102,0.483,0.846,0.269,18,48,8,0021400033,1610612751,BKN,Brooklyn,Kevin Garnett,F,,35:02,0.0,4.0,0.0,6.0,3.0,7.0,4.0,30.0,1.0,1.0,3.0,3.0
0021400033,1610612751,BKN,Brooklyn,708,Kevin Garnett,F,,35:02,114.9,92.7,22.3,0.0,0.0,0.0,0.032,0.371,0.212,15.2,0.467,0.537,0.273,87.74,0.183,2014-11-01T00:00:00,7,1610612765,DET,Detroit,0-3,25,22,28,15,0,0,0,0,0,0,0,0,0,0,90,0.421,0.714,0.059,21,41,7,0021400033,1610612751,BKN,Brooklyn,Kevin Garnett,F,,35:02,0.0,4.0,0.0,6.0,3.0,7.0,4.0,30.0,1.0,1.0,3.0,3.0
0021400033,1610612751,BKN,Brooklyn,203486,Mason Plumlee,C,,20:50,98.4,129.5,-31.1,0.0,0.0,0.0,0.174,0.059,0.125,11.4,0.667,0.644,0.192,92.83,0.072,2014-11-01T00:00:00,7,1610612751,BKN,Brooklyn,1-1,33,26,22,21,0,0,0,0,0,0,0,0,0,0,102,0.483,0.846,0.269,18,48,8,0021400033,1610612751,BKN,Brooklyn,Mason Plumlee,C,,20:50,4.0,2.0,2.0,8.0,6.0,7.0,4.0,26.0,0.0,1.0,3.0,3.0
0021400033,1610612751,BKN,Brooklyn,203486,Mason Plumlee,C,,20:50,98.4,129.5,-31.1,0.0,0.0,0.0,0.174,0.059,0.125,11.4,0.667,0.644,0.192,92.83,0.072,2014-11-01T00:00:00,7,1610612765,DET,Detroit,0-3,25,22,28,15,0,0,0,0,0,0,0,0,0,0,90,0.421,0.714,0.059,21,41,7,0021400033,1610612751,BKN,Brooklyn,Mason Plumlee,C,,20:50,4.0,2.0,2.0,8.0,6.0,7.0,4.0,26.0,0.0,1.0,3.0,3.0
0021400033,1610612751,BKN,Brooklyn,202711,Bojan Bogdanovic,G,,24:47,113.7,126.6,-12.8,0.056,1.0,11.1,0.0,0.105,0.045,11.1,0.143,0.143,0.148,86.16,-0.042,2014-11-01T00:00:00,7,1610612751,BKN,Brooklyn,1-1,33,26,22,21,0,0,0,0,0,0,0,0,0,0,102,0.483,0.846,0.269,18,48,8,0021400033,1610612751,BKN,Brooklyn,Bojan Bogdanovic,G,,24:47,0.0,2.0,0.0,0.0,5.0,10.0,8.0,36.0,0.0,0.0,2.0,0.0
0021400033,1610612751,BKN,Brooklyn,202711,Bojan Bogdanovic,G,,24:47,113.7,126.6,-12.8,0.056,1.0,11.1,0.0,0.105,0.045,11.1,0.143,0.143,0.148,86.16,-0.042,2014-11-01T00:00:00,7,1610612765,DET,Detroit,0-3,25,22,28,15,0,0,0,0,0,0,0,0,0,0,90,0.421,0.714,0.059,21,41,7,0021400033,1610612751,BKN,Brooklyn,Bojan Bogdanovic,G,,24:47,0.0,2.0,0.0,0.0,5.0,10.0,8.0,36.0,0.0,0.0,2.0,0.0
0021400033,1610612751,BKN,Brooklyn,101114,Deron Williams,G,,40:45,119.4,103.1,16.3,0.194,0.0,24.0,0.027,0.023,0.025,0.0,0.395,0.395,0.225,89.55,0.046,2014-11-01T00:00:00,7,1610612751,BKN,Brooklyn,1-1,33,26,22,21,0,0,0,0,0,0,0,0,0,0,102,0.483,0.846,0.269,18,48,8,0021400033,1610612751,BKN,Brooklyn,Deron Williams,G,,40:45,0.0,0.0,0.0,6.0,8.0,14.0,10.0,44.0,1.0,1.0,4.0,2.0
0021400033,1610612751,BKN,Brooklyn,101114,Deron Williams,G,,40:45,119.4,103.1,16.3,0.194,0.0,24.0,0.027,0.023,0.025,0.0,0.395,0.395,0.225,89.55,0.046,2014-11-01T00:00:00,7,1610612765,DET,Detroit,0-3,25,22,28,15,0,0,0,0,0,0,0,0,0,0,90,0.421,0.714,0.059,21,41,7,0021400033,1610612751,BKN,Brooklyn,Deron Williams,G,,40:45,0.0,0.0,0.0,6.0,8.0,14.0,10.0,44.0,1.0,1.0,4.0,2.0
0021400033,1610612751,BKN,Brooklyn,101187,Alan Anderson,,,10:04,106.3,80.2,26.1,0.143,0.0,33.3,0.0,0.2,0.111,0.0,0.75,0.75,0.096,94.76,0.074,2014-11-01T00:00:00,7,1610612751,BKN,Brooklyn,1-1,33,26,22,21,0,0,0,0,0,0,0,0,0,0,102,0.483,0.846,0.269,18,48,8,0021400033,1610612751,BKN,Brooklyn,Alan Anderson,,,10:04,0.0,0.0,3.0,0.0,3.0,0.0,2.0,4.0,0.0,0.0,3.0,0.0
0021400033,1610612751,BKN,Brooklyn,101187,Alan Anderson,,,10:04,106.3,80.2,26.1,0.143,0.0,33.3,0.0,0.2,0.111,0.0,0.75,0.75,0.096,94.76,0.074,2014-11-01T00:00:00,7,1610612765,DET,Detroit,0-3,25,22,28,15,0,0,0,0,0,0,0,0,0,0,90,0.421,0.714,0.059,21,41,7,0021400033,1610612751,BKN,Brooklyn,Alan Anderson,,,10:04,0.0,0.0,3.0,0.0,3.0,0.0,2.0,4.0,0.0,0.0,3.0,0.0
0021400033,1610612751,BKN,Brooklyn,203141,Mirza Teletovic,,,28:15,114.7,95.9,18.8,0.045,1.0,10.1,0.04,0.214,0.132,10.1,0.714,0.761,0.15,88.6,0.133,2014-11-01T00:00:00,7,1610612751,BKN,Brooklyn,1-1,33,26,22,21,0,0,0,0,0,0,0,0,0,0,102,0.483,0.846,0.269,18,48,8,0021400033,1610612751,BKN,Brooklyn,Mirza Teletovic,,,28:15,0.0,2.0,0.0,4.0,8.0,9.0,10.0,24.0,0.0,0.0,3.0,2.0
0021400033,1610612751,BKN,Brooklyn,203141,Mirza Teletovic,,,28:15,114.7,95.9,18.8,0.045,1.0,10.1,0.04,0.214,0.132,10.1,0.714,0.761,0.15,88.6,0.133,2014-11-01T00:00:00,7,1610612765,DET,Detroit,0-3,25,22,28,15,0,0,0,0,0,0,0,0,0,0,90,0.421,0.714,0.059,21,41,7,0021400033,1610612751,BKN,Brooklyn,Mirza Teletovic,,,28:15,0.0,2.0,0.0,4.0,8.0,9.0,10.0,24.0,0.0,0.0,3.0,2.0
0021400033,1610612751,BKN,Brooklyn,101127,Jarrett Jack,,,22:10,111.9,83.2,28.8,0.167,3.0,37.5,0.0,0.1,0.054,12.5,0.25,0.25,0.111,85.19,0.0,2014-11-01T00:00:00,7,1610612751,BKN,Brooklyn,1-1,33,26,22,21,0,0,0,0,0,0,0,0,0,0,102,0.483,0.846,0.269,18,48,8,0021400033,1610612751,BKN,Brooklyn,Jarrett Jack,,,22:10,0.0,0.0,0.0,2.0,6.0,2.0,4.0,10.0,0.0,0.0,3.0,1.0
0021400033,1610612751,BKN,Brooklyn,101127,Jarrett Jack,,,22:10,111.9,83.2,28.8,0.167,3.0,37.5,0.0,0.1,0.054,12.5,0.25,0.25,0.111,85.19,0.0,2014-11-01T00:00:00,7,1610612765,DET,Detroit,0-3,25,22,28,15,0,0,0,0,0,0,0,0,0,0,90,0.421,0.714,0.059,21,41,7,0021400033,1610612751,BKN,Brooklyn,Jarrett Jack,,,22:10,0.0,0.0,0.0,2.0,6.0,2.0,4.0,10.0,0.0,0.0,3.0,1.0
0021400033,1610612751,BKN,Brooklyn,202366,Jerome Jordan,,,11:53,148.5,90.1,58.4,0.0,0.0,0.0,0.571,0.083,0.263,25.0,1.0,1.0,0.165,83.37,0.181,2014-11-01T00:00:00,7,1610612751,BKN,Brooklyn,1-1,33,26,22,21,0,0,0,0,0,0,0,0,0,0,102,0.483,0.846,0.269,18,48,8,0021400033,1610612751,BKN,Brooklyn,Jerome Jordan,,,11:53,0.0,2.0,0.0,6.0,5.0,5.0,6.0,16.0,1.0,0.0,1.0,1.0
0021400033,1610612751,BKN,Brooklyn,202366,Jerome Jordan,,,11:53,148.5,90.1,58.4,0.0,0.0,0.0,0.571,0.083,0.263,25.0,1.0,1.0,0.165,83.37,0.181,2014-11-01T00:00:00,7,1610612765,DET,Detroit,0-3,25,22,28,15,0,0,0,0,0,0,0,0,0,0,90,0.421,0.714,0.059,21,41,7,0021400033,1610612751,BKN,Brooklyn,Jerome Jordan,,,11:53,0.0,2.0,0.0,6.0,5.0,5.0,6.0,16.0,1.0,0.0,1.0,1.0
0021400033,1610612751,BKN,Brooklyn,203508,Sergey Karasev,,,0:01,0.0,0.0,0.0,0.0,0.0,0.0,0.0,0.0,0.0,0.0,0.0,0.0,0.0,1600.0,0.0,2014-11-01T00:00:00,7,1610612751,BKN,Brooklyn,1-1,33,26,22,21,0,0,0,0,0,0,0,0,0,0,102,0.483,0.846,0.269,18,48,8,0021400033,1610612751,BKN,Brooklyn,Sergey Karasev,,,0:01,0.0,0.0,0.0,0.0,0.0,0.0,0.0,0.0,0.0,0.0,0.0,0.0
0021400033,1610612751,BKN,Brooklyn,203508,Sergey Karasev,,,0:01,0.0,0.0,0.0,0.0,0.0,0.0,0.0,0.0,0.0,0.0,0.0,0.0,0.0,1600.0,0.0,2014-11-01T00:00:00,7,1610612765,DET,Detroit,0-3,25,22,28,15,0,0,0,0,0,0,0,0,0,0,90,0.421,0.714,0.059,21,41,7,0021400033,1610612751,BKN,Brooklyn,Sergey Karasev,,,0:01,0.0,0.0,0.0,0.0,0.0,0.0,0.0,0.0,0.0,0.0,0.0,0.0
0021400033,1610612751,BKN,Brooklyn,1905,Andrei Kirilenko,,,7:16,100.0,123.5,-23.5,0.0,0.0,0.0,0.0,0.125,0.067,0.0,0.0,0.0,0.067,91.68,0.0,2014-11-01T00:00:00,7,1610612751,BKN,Brooklyn,1-1,33,26,22,21,0,0,0,0,0,0,0,0,0,0,102,0.483,0.846,0.269,18,48,8,0021400033,1610612751,BKN,Brooklyn,Andrei Kirilenko,,,7:16,0.0,0.0,0.0,0.0,3.0,4.0,2.0,10.0,0.0,0.0,0.0,0.0
0021400033,1610612751,BKN,Brooklyn,1905,Andrei Kirilenko,,,7:16,100.0,123.5,-23.5,0.0,0.0,0.0,0.0,0.125,0.067,0.0,0.0,0.0,0.067,91.68,0.0,2014-11-01T00:00:00,7,1610612765,DET,Detroit,0-3,25,22,28,15,0,0,0,0,0,0,0,0,0,0,90,0.421,0.714,0.059,21,41,7,0021400033,1610612751,BKN,Brooklyn,Andrei Kirilenko,,,7:16,0.0,0.0,0.0,0.0,3.0,4.0,2.0,10.0,0.0,0.0,0.0,0.0
0021400033,1610612751,BKN,Brooklyn,203268,Jorge Gutierrez,,DNP - Coach's Decision                  ,,,,,,,0.0,,,,,,,0.0,,,2014-11-01T00:00:00,7,1610612751,BKN,Brooklyn,1-1,33,26,22,21,0,0,0,0,0,0,0,0,0,0,102,0.483,0.846,0.269,18,48,8,0021400033,1610612751,BKN,Brooklyn,Jorge Gutierrez,,DNP - Coach's Decision                  ,,,,,,,,,,,,,
0021400033,1610612751,BKN,Brooklyn,203268,Jorge Gutierrez,,DNP - Coach's Decision                  ,,,,,,,0.0,,,,,,,0.0,,,2014-11-01T00:00:00,7,1610612765,DET,Detroit,0-3,25,22,28,15,0,0,0,0,0,0,0,0,0,0,90,0.421,0.714,0.059,21,41,7,0021400033,1610612751,BKN,Brooklyn,Jorge Gutierrez,,DNP - Coach's Decision                  ,,,,,,,,,,,,,
0021400033,1610612751,BKN,Brooklyn,203928,Cory Jefferson,,DNP - Coach's Decision                  ,,,,,,,0.0,,,,,,,0.0,,,2014-11-01T00:00:00,7,1610612751,BKN,Brooklyn,1-1,33,26,22,21,0,0,0,0,0,0,0,0,0,0,102,0.483,0.846,0.269,18,48,8,0021400033,1610612751,BKN,Brooklyn,Cory Jefferson,,DNP - Coach's Decision                  ,,,,,,,,,,,,,
0021400033,1610612751,BKN,Brooklyn,203928,Cory Jefferson,,DNP - Coach's Decision                  ,,,,,,,0.0,,,,,,,0.0,,,2014-11-01T00:00:00,7,1610612765,DET,Detroit,0-3,25,22,28,15,0,0,0,0,0,0,0,0,0,0,90,0.421,0.714,0.059,21,41,7,0021400033,1610612751,BKN,Brooklyn,Cory Jefferson,,DNP - Coach's Decision                  ,,,,,,,,,,,,,
0021400033,1610612765,DET,Detroit,202713,Kyle Singler,F,,32:36,113.9,112.4,1.6,0.0,0.0,0.0,0.0,0.094,0.048,0.0,0.357,0.357,0.101,89.79,0.0,2014-11-01T00:00:00,7,1610612751,BKN,Brooklyn,1-1,33,26,22,21,0,0,0,0,0,0,0,0,0,0,102,0.483,0.846,0.269,18,48,8,0021400033,1610612765,DET,Detroit,Kyle Singler,F,,32:36,3.0,0.0,2.0,2.0,4.0,12.0,8.0,32.0,0.0,0.0,3.0,0.0
0021400033,1610612765,DET,Detroit,202713,Kyle Singler,F,,32:36,113.9,112.4,1.6,0.0,0.0,0.0,0.0,0.094,0.048,0.0,0.357,0.357,0.101,89.79,0.0,2014-11-01T00:00:00,7,1610612765,DET,Detroit,0-3,25,22,28,15,0,0,0,0,0,0,0,0,0,0,90,0.421,0.714,0.059,21,41,7,0021400033,1610612765,DET,Detroit,Kyle Singler,F,,32:36,3.0,0.0,2.0,2.0,4.0,12.0,8.0,32.0,0.0,0.0,3.0,0.0
0021400033,1610612765,DET,Detroit,2746,Josh Smith,F,,43:59,103.6,112.4,-8.8,0.208,5.0,20.4,0.071,0.154,0.111,4.1,0.4,0.378,0.214,88.42,0.067,2014-11-01T00:00:00,7,1610612751,BKN,Brooklyn,1-1,33,26,22,21,0,0,0,0,0,0,0,0,0,0,102,0.483,0.846,0.269,18,48,8,0021400033,1610612765,DET,Detroit,Josh Smith,F,,43:59,0.0,0.0,0.0,8.0,6.0,14.0,8.0,42.0,1.0,1.0,1.0,5.0
0021400033,1610612765,DET,Detroit,2746,Josh Smith,F,,43:59,103.6,112.4,-8.8,0.208,5.0,20.4,0.071,0.154,0.111,4.1,0.4,0.378,0.214,88.42,0.067,2014-11-01T00:00:00,7,1610612765,DET,Detroit,0-3,25,22,28,15,0,0,0,0,0,0,0,0,0,0,90,0.421,0.714,0.059,21,41,7,0021400033,1610612765,DET,Detroit,Josh Smith,F,,43:59,0.0,0.0,0.0,8.0,6.0,14.0,8.0,42.0,1.0,1.0,1.0,5.0
0021400033,1610612765,DET,Detroit,203083,Andre Drummond,C,,21:33,106.8,122.8,-16.1,0.0,0.0,0.0,0.158,0.227,0.195,0.0,0.667,0.651,0.249,91.1,0.132,2014-11-01T00:00:00,7,1610612751,BKN,Brooklyn,1-1,33,26,22,21,0,0,0,0,0,0,0,0,0,0,102,0.483,0.846,0.269,18,48,8,0021400033,1610612765,DET,Detroit,Andre Drummond,C,,21:33,0.0,5.0,0.0,12.0,4.0,8.0,2.0,24.0,2.0,1.0,5.0,3.0
0021400033,1610612765,DET,Detroit,203083,Andre Drummond,C,,21:33,106.8,122.8,-16.1,0.0,0.0,0.0,0.158,0.227,0.195,0.0,0.667,0.651,0.249,91.1,0.132,2014-11-01T00:00:00,7,1610612765,DET,Detroit,0-3,25,22,28,15,0,0,0,0,0,0,0,0,0,0,90,0.421,0.714,0.059,21,41,7,0021400033,1610612765,DET,Detroit,Andre Drummond,C,,21:33,0.0,5.0,0.0,12.0,4.0,8.0,2.0,24.0,2.0,1.0,5.0,3.0
0021400033,1610612765,DET,Detroit,203484,Kentavious Caldwell-Pope,G,,40:54,103.0,116.0,-13.1,0.0,0.0,0.0,0.0,0.167,0.08,20.3,0.3,0.425,0.174,88.96,0.035,2014-11-01T00:00:00,7,1610612751,BKN,Brooklyn,1-1,33,26,22,21,0,0,0,0,0,0,0,0,0,0,102,0.483,0.846,0.269,18,48,8,0021400033,1610612765,DET,Detroit,Kentavious Caldwell-Pope,G,,40:54,2.0,0.0,4.0,4.0,6.0,14.0,8.0,38.0,0.0,0.0,2.0,3.0
0021400033,1610612765,DET,Detroit,203484,Kentavious Caldwell-Pope,G,,40:54,103.0,116.0,-13.1,0.0,0.0,0.0,0.0,0.167,0.08,20.3,0.3,0.425,0.174,88.96,0.035,2014-11-01T00:00:00,7,1610612765,DET,Detroit,0-3,25,22,28,15,0,0,0,0,0,0,0,0,0,0,90,0.421,0.714,0.059,21,41,7,0021400033,1610612765,DET,Detroit,Kentavious Caldwell-Pope,G,,40:54,2.0,0.0,4.0,4.0,6.0,14.0,8.0,38.0,0.0,0.0,2.0,3.0
0021400033,1610612765,DET,Detroit,201943,Brandon Jennings,G,,36:20,109.8,118.8,-9.0,0.429,3.0,30.9,0.0,0.065,0.03,10.3,0.429,0.527,0.26,89.07,0.114,2014-11-01T00:00:00,7,1610612751,BKN,Brooklyn,1-1,33,26,22,21,0,0,0,0,0,0,0,0,0,0,102,0.483,0.846,0.269,18,48,8,0021400033,1610612765,DET,Detroit,Brandon Jennings,G,,36:20,2.0,0.0,2.0,8.0,4.0,12.0,8.0,38.0,0.0,1.0,2.0,3.0
0021400033,1610612765,DET,Detroit,201943,Brandon Jennings,G,,36:20,109.8,118.8,-9.0,0.429,3.0,30.9,0.0,0.065,0.03,10.3,0.429,0.527,0.26,89.07,0.114,2014-11-01T00:00:00,7,1610612765,DET,Detroit,0-3,25,22,28,15,0,0,0,0,0,0,0,0,0,0,90,0.421,0.714,0.059,21,41,7,0021400033,1610612765,DET,Detroit,Brandon Jennings,G,,36:20,2.0,0.0,2.0,8.0,4.0,12.0,8.0,38.0,0.0,1.0,2.0,3.0
0021400033,1610612765,DET,Detroit,202328,Greg Monroe,,,30:28,95.6,112.8,-17.2,0.3,0.0,17.4,0.129,0.28,0.196,0.0,0.583,0.634,0.227,86.97,0.273,2014-11-01T00:00:00,7,1610612751,BKN,Brooklyn,1-1,33,26,22,21,0,0,0,0,0,0,0,0,0,0,102,0.483,0.846,0.269,18,48,8,0021400033,1610612765,DET,Detroit,Greg Monroe,,,30:28,1.0,9.0,2.0,14.0,2.0,6.0,6.0,26.0,0.0,0.0,0.0,3.0
0021400033,1610612765,DET,Detroit,202328,Greg Monroe,,,30:28,95.6,112.8,-17.2,0.3,0.0,17.4,0.129,0.28,0.196,0.0,0.583,0.634,0.227,86.97,0.273,2014-11-01T00:00:00,7,1610612765,DET,Detroit,0-3,25,22,28,15,0,0,0,0,0,0,0,0,0,0,90,0.421,0.714,0.059,21,41,7,0021400033,1610612765,DET,Detroit,Greg Monroe,,,30:28,1.0,9.0,2.0,14.0,2.0,6.0,6.0,26.0,0.0,0.0,0.0,3.0
0021400033,1610612765,DET,Detroit,2406,Caron Butler,,,15:40,82.3,109.9,-27.7,0.286,0.0,27.3,0.0,0.067,0.034,0.0,0.25,0.47,0.184,86.03,0.096,2014-11-01T00:00:00,7,1610612751,BKN,Brooklyn,1-1,33,26,22,21,0,0,0,0,0,0,0,0,0,0,102,0.483,0.846,0.269,18,48,8,0021400033,1610612765,DET,Detroit,Caron Butler,,,15:40,3.0,0.0,0.0,0.0,2.0,2.0,0.0,12.0,0.0,0.0,1.0,1.0
0021400033,1610612765,DET,Detroit,2406,Caron Butler,,,15:40,82.3,109.9,-27.7,0.286,0.0,27.3,0.0,0.067,0.034,0.0,0.25,0.47,0.184,86.03,0.096,2014-11-01T00:00:00,7,1610612765,DET,Detroit,0-3,25,22,28,15,0,0,0,0,0,0,0,0,0,0,90,0.421,0.714,0.059,21,41,7,0021400033,1610612765,DET,Detroit,Caron Butler,,,15:40,3.0,0.0,0.0,0.0,2.0,2.0,0.0,12.0,0.0,0.0,1.0,1.0
0021400033,1610612765,DET,Detroit,201571,D.J. Augustin,,,18:30,76.7,114.0,-37.3,0.333,0.0,22.8,0.0,0.067,0.029,0.0,0.2,0.444,0.195,86.66,0.091,2014-11-01T00:00:00,7,1610612751,BKN,Brooklyn,1-1,33,26,22,21,0,0,0,0,0,0,0,0,0,0,102,0.483,0.846,0.269,18,48,8,0021400033,1610612765,DET,Detroit,D.J. Augustin,,,18:30,0.0,0.0,2.0,0.0,2.0,2.0,0.0,18.0,0.0,0.0,1.0,5.0
0021400033,1610612765,DET,Detroit,201571,D.J. Augustin,,,18:30,76.7,114.0,-37.3,0.333,0.0,22.8,0.0,0.067,0.029,0.0,0.2,0.444,0.195,86.66,0.091,2014-11-01T00:00:00,7,1610612765,DET,Detroit,0-3,25,22,28,15,0,0,0,0,0,0,0,0,0,0,90,0.421,0.714,0.059,21,41,7,0021400033,1610612765,DET,Detroit,D.J. Augustin,,,18:30,0.0,0.0,2.0,0.0,2.0,2.0,0.0,18.0,0.0,0.0,1.0,5.0
0021400033,1610612765,DET,Detroit,201202,Joel Anthony,,DNP - Coach's Decision                  ,,,,,,,0.0,,,,,,,0.0,,,2014-11-01T00:00:00,7,1610612751,BKN,Brooklyn,1-1,33,26,22,21,0,0,0,0,0,0,0,0,0,0,102,0.483,0.846,0.269,18,48,8,0021400033,1610612765,DET,Detroit,Joel Anthony,,DNP - Coach's Decision                  ,,,,,,,,,,,,,
0021400033,1610612765,DET,Detroit,201202,Joel Anthony,,DNP - Coach's Decision                  ,,,,,,,0.0,,,,,,,0.0,,,2014-11-01T00:00:00,7,1610612765,DET,Detroit,0-3,25,22,28,15,0,0,0,0,0,0,0,0,0,0,90,0.421,0.714,0.059,21,41,7,0021400033,1610612765,DET,Detroit,Joel Anthony,,DNP - Coach's Decision                  ,,,,,,,,,,,,,
0021400033,1610612765,DET,Detroit,203540,Gigi Datome,,DNP - Coach's Decision                  ,,,,,,,0.0,,,,,,,0.0,,,2014-11-01T00:00:00,7,1610612751,BKN,Brooklyn,1-1,33,26,22,21,0,0,0,0,0,0,0,0,0,0,102,0.483,0.846,0.269,18,48,8,0021400033,1610612765,DET,Detroit,Gigi Datome,,DNP - Coach's Decision                  ,,,,,,,,,,,,,
0021400033,1610612765,DET,Detroit,203540,Gigi Datome,,DNP - Coach's Decision                  ,,,,,,,0.0,,,,,,,0.0,,,2014-11-01T00:00:00,7,1610612765,DET,Detroit,0-3,25,22,28,15,0,0,0,0,0,0,0,0,0,0,90,0.421,0.714,0.059,21,41,7,0021400033,1610612765,DET,Detroit,Gigi Datome,,DNP - Coach's Decision                  ,,,,,,,,,,,,,
0021400033,1610612765,DET,Detroit,203915,Spencer Dinwiddie,,DNP - Coach's Decision                  ,,,,,,,0.0,,,,,,,0.0,,,2014-11-01T00:00:00,7,1610612751,BKN,Brooklyn,1-1,33,26,22,21,0,0,0,0,0,0,0,0,0,0,102,0.483,0.846,0.269,18,48,8,0021400033,1610612765,DET,Detroit,Spencer Dinwiddie,,DNP - Coach's Decision                  ,,,,,,,,,,,,,
0021400033,1610612765,DET,Detroit,203915,Spencer Dinwiddie,,DNP - Coach's Decision                  ,,,,,,,0.0,,,,,,,0.0,,,2014-11-01T00:00:00,7,1610612765,DET,Detroit,0-3,25,22,28,15,0,0,0,0,0,0,0,0,0,0,90,0.421,0.714,0.059,21,41,7,0021400033,1610612765,DET,Detroit,Spencer Dinwiddie,,DNP - Coach's Decision                  ,,,,,,,,,,,,,
0021400033,1610612765,DET,Detroit,201973,Jonas Jerebko,,DNP - Coach's Decision                  ,,,,,,,0.0,,,,,,,0.0,,,2014-11-01T00:00:00,7,1610612751,BKN,Brooklyn,1-1,33,26,22,21,0,0,0,0,0,0,0,0,0,0,102,0.483,0.846,0.269,18,48,8,0021400033,1610612765,DET,Detroit,Jonas Jerebko,,DNP - Coach's Decision                  ,,,,,,,,,,,,,
0021400033,1610612765,DET,Detroit,201973,Jonas Jerebko,,DNP - Coach's Decision                  ,,,,,,,0.0,,,,,,,0.0,,,2014-11-01T00:00:00,7,1610612765,DET,Detroit,0-3,25,22,28,15,0,0,0,0,0,0,0,0,0,0,90,0.421,0.714,0.059,21,41,7,0021400033,1610612765,DET,Detroit,Jonas Jerebko,,DNP - Coach's Decision                  ,,,,,,,,,,,,,
0021400033,1610612765,DET,Detroit,203502,Tony Mitchell,,DNP - Coach's Decision                  ,,,,,,,0.0,,,,,,,0.0,,,2014-11-01T00:00:00,7,1610612751,BKN,Brooklyn,1-1,33,26,22,21,0,0,0,0,0,0,0,0,0,0,102,0.483,0.846,0.269,18,48,8,0021400033,1610612765,DET,Detroit,Tony Mitchell,,DNP - Coach's Decision                  ,,,,,,,,,,,,,
0021400033,1610612765,DET,Detroit,203502,Tony Mitchell,,DNP - Coach's Decision                  ,,,,,,,0.0,,,,,,,0.0,,,2014-11-01T00:00:00,7,1610612765,DET,Detroit,0-3,25,22,28,15,0,0,0,0,0,0,0,0,0,0,90,0.421,0.714,0.059,21,41,7,0021400033,1610612765,DET,Detroit,Tony Mitchell,,DNP - Coach's Decision                  ,,,,,,,,,,,,,
