GAME_ID_x,TEAM_ID_x,TEAM_ABBREVIATION_x,TEAM_CITY_x,PLAYER_ID,PLAYER_NAME_x,START_POSITION_x,COMMENT_x,MIN_x,OFF_RATING,DEF_RATING,NET_RATING,AST_PCT,AST_TOV,AST_RATIO,OREB_PCT,DREB_PCT,REB_PCT,TM_TOV_PCT,EFG_PCT,TS_PCT,USG_PCT,PACE,PIE,GAME_DATE_EST,GAME_SEQUENCE,TEAM_ID_y,TEAM_ABBREVIATION_y,TEAM_CITY_NAME,TEAM_WINS_LOSSES,PTS_QTR1,PTS_QTR2,PTS_QTR3,PTS_QTR4,PTS_OT1,PTS_OT2,PTS_OT3,PTS_OT4,PTS_OT5,PTS_OT6,PTS_OT7,PTS_OT8,PTS_OT9,PTS_OT10,PTS,FG_PCT,FT_PCT,FG3_PCT,AST,REB,TOV,GAME_ID_y,TEAM_ID,TEAM_ABBREVIATION,TEAM_CITY_y,PLAYER_NAME_y,START_POSITION_y,COMMENT_y,MIN_y,PTS_OFF_TOV,PTS_2ND_CHANCE,PTS_FB,PTS_PAINT,OPP_PTS_OFF_TOV,OPP_PTS_2ND_CHANCE,OPP_PTS_FB,OPP_PTS_PAINT,BLK,BLKA,PF,PFD
0021400041,1610612766,CHA,Charlotte,203077,Michael Kidd-Gilchrist,F,,9:34,84.7,120.4,-35.7,0.0,0.0,0.0,0.0,0.5,0.25,0.0,0.75,0.615,0.245,99.45,0.2,2014-11-02T00:00:00,3,1610612766,CHA,Charlotte,1-2,21,29,30,13,0,0,0,0,0,0,0,0,0,0,93,0.471,0.724,0.4,20,38,12,0021400041,1610612766,CHA,Charlotte,Michael Kidd-Gilchrist,F,,9:34,4.0,0.0,2.0,4.0,2.0,2.0,3.0,0.0,1.0,0.0,0.0,1.0
0021400041,1610612766,CHA,Charlotte,203077,Michael Kidd-Gilchrist,F,,9:34,84.7,120.4,-35.7,0.0,0.0,0.0,0.0,0.5,0.25,0.0,0.75,0.615,0.245,99.45,0.2,2014-11-02T00:00:00,3,1610612752,NYK,New York,2-1,29,23,27,17,0,0,0,0,0,0,0,0,0,0,96,0.5,0.588,0.5,23,35,12,0021400041,1610612766,CHA,Charlotte,Michael Kidd-Gilchrist,F,,9:34,4.0,0.0,2.0,4.0,2.0,2.0,3.0,0.0,1.0,0.0,0.0,1.0
0021400041,1610612766,CHA,Charlotte,101107,Marvin Williams,F,,27:14,79.6,110.6,-31.0,0.0,0.0,0.0,0.053,0.174,0.119,28.6,0.5,0.5,0.134,88.94,0.072,2014-11-02T00:00:00,3,1610612766,CHA,Charlotte,1-2,21,29,30,13,0,0,0,0,0,0,0,0,0,0,93,0.471,0.724,0.4,20,38,12,0021400041,1610612766,CHA,Charlotte,Marvin Williams,F,,27:14,0.0,0.0,0.0,0.0,11.0,0.0,6.0,20.0,0.0,0.0,0.0,1.0
0021400041,1610612766,CHA,Charlotte,101107,Marvin Williams,F,,27:14,79.6,110.6,-31.0,0.0,0.0,0.0,0.053,0.174,0.119,28.6,0.5,0.5,0.134,88.94,0.072,2014-11-02T00:00:00,3,1610612752,NYK,New York,2-1,29,23,27,17,0,0,0,0,0,0,0,0,0,0,96,0.5,0.588,0.5,23,35,12,0021400041,1610612766,CHA,Charlotte,Marvin Williams,F,,27:14,0.0,0.0,0.0,0.0,11.0,0.0,6.0,20.0,0.0,0.0,0.0,1.0
0021400041,1610612766,CHA,Charlotte,2744,Al Jefferson,C,,33:29,98.5,106.3,-7.8,0.077,0.33,4.1,0.042,0.107,0.077,12.2,0.529,0.512,0.362,89.51,0.081,2014-11-02T00:00:00,3,1610612766,CHA,Charlotte,1-2,21,29,30,13,0,0,0,0,0,0,0,0,0,0,93,0.471,0.724,0.4,20,38,12,0021400041,1610612766,CHA,Charlotte,Al Jefferson,C,,33:29,0.0,6.0,0.0,16.0,11.0,0.0,6.0,22.0,0.0,0.0,1.0,6.0
0021400041,1610612766,CHA,Charlotte,2744,Al Jefferson,C,,33:29,98.5,106.3,-7.8,0.077,0.33,4.1,0.042,0.107,0.077,12.2,0.529,0.512,0.362,89.51,0.081,2014-11-02T00:00:00,3,1610612752,NYK,New York,2-1,29,23,27,17,0,0,0,0,0,0,0,0,0,0,96,0.5,0.588,0.5,23,35,12,0021400041,1610612766,CHA,Charlotte,Al Jefferson,C,,33:29,0.0,6.0,0.0,16.0,11.0,0.0,6.0,22.0,0.0,0.0,1.0,6.0
0021400041,1610612766,CHA,Charlotte,202362,Lance Stephenson,G,,37:40,105.6,110.1,-4.5,0.364,2.0,33.2,0.074,0.241,0.161,16.6,0.444,0.579,0.211,89.18,0.165,2014-11-02T00:00:00,3,1610612766,CHA,Charlotte,1-2,21,29,30,13,0,0,0,0,0,0,0,0,0,0,93,0.471,0.724,0.4,20,38,12,0021400041,1610612766,CHA,Charlotte,Lance Stephenson,G,,37:40,2.0,3.0,0.0,8.0,13.0,0.0,6.0,24.0,0.0,0.0,3.0,7.0
0021400041,1610612766,CHA,Charlotte,202362,Lance Stephenson,G,,37:40,105.6,110.1,-4.5,0.364,2.0,33.2,0.074,0.241,0.161,16.6,0.444,0.579,0.211,89.18,0.165,2014-11-02T00:00:00,3,1610612752,NYK,New York,2-1,29,23,27,17,0,0,0,0,0,0,0,0,0,0,96,0.5,0.588,0.5,23,35,12,0021400041,1610612766,CHA,Charlotte,Lance Stephenson,G,,37:40,2.0,3.0,0.0,8.0,13.0,0.0,6.0,24.0,0.0,0.0,3.0,7.0
0021400041,1610612766,CHA,Charlotte,202689,Kemba Walker,G,,30:18,117.7,107.9,9.8,0.053,1.0,7.8,0.0,0.136,0.071,7.8,0.667,0.743,0.199,90.01,0.12,2014-11-02T00:00:00,3,1610612766,CHA,Charlotte,1-2,21,29,30,13,0,0,0,0,0,0,0,0,0,0,93,0.471,0.724,0.4,20,38,12,0021400041,1610612766,CHA,Charlotte,Kemba Walker,G,,30:18,2.0,0.0,2.0,4.0,5.0,4.0,5.0,20.0,0.0,0.0,2.0,3.0
0021400041,1610612766,CHA,Charlotte,202689,Kemba Walker,G,,30:18,117.7,107.9,9.8,0.053,1.0,7.8,0.0,0.136,0.071,7.8,0.667,0.743,0.199,90.01,0.12,2014-11-02T00:00:00,3,1610612752,NYK,New York,2-1,29,23,27,17,0,0,0,0,0,0,0,0,0,0,96,0.5,0.588,0.5,23,35,12,0021400041,1610612766,CHA,Charlotte,Kemba Walker,G,,30:18,2.0,0.0,2.0,4.0,5.0,4.0,5.0,20.0,0.0,0.0,2.0,3.0
0021400041,1610612766,CHA,Charlotte,203469,Cody Zeller,,,20:46,141.4,97.9,43.5,0.2,3.0,30.0,0.063,0.267,0.161,10.0,0.5,0.5,0.161,90.51,0.122,2014-11-02T00:00:00,3,1610612766,CHA,Charlotte,1-2,21,29,30,13,0,0,0,0,0,0,0,0,0,0,93,0.471,0.724,0.4,20,38,12,0021400041,1610612766,CHA,Charlotte,Cody Zeller,,,20:46,0.0,2.0,0.0,2.0,2.0,4.0,0.0,10.0,1.0,0.0,1.0,0.0
0021400041,1610612766,CHA,Charlotte,203469,Cody Zeller,,,20:46,141.4,97.9,43.5,0.2,3.0,30.0,0.063,0.267,0.161,10.0,0.5,0.5,0.161,90.51,0.122,2014-11-02T00:00:00,3,1610612752,NYK,New York,2-1,29,23,27,17,0,0,0,0,0,0,0,0,0,0,96,0.5,0.588,0.5,23,35,12,0021400041,1610612766,CHA,Charlotte,Cody Zeller,,,20:46,0.0,2.0,0.0,2.0,2.0,4.0,0.0,10.0,1.0,0.0,1.0,0.0
0021400041,1610612766,CHA,Charlotte,202390,Gary Neal,,,31:06,118.2,93.6,24.7,0.158,0.0,20.3,0.048,0.071,0.061,0.0,0.65,0.723,0.194,88.28,0.162,2014-11-02T00:00:00,3,1610612766,CHA,Charlotte,1-2,21,29,30,13,0,0,0,0,0,0,0,0,0,0,93,0.471,0.724,0.4,20,38,12,0021400041,1610612766,CHA,Charlotte,Gary Neal,,,31:06,3.0,0.0,3.0,4.0,9.0,4.0,3.0,24.0,0.0,0.0,2.0,3.0
0021400041,1610612766,CHA,Charlotte,202390,Gary Neal,,,31:06,118.2,93.6,24.7,0.158,0.0,20.3,0.048,0.071,0.061,0.0,0.65,0.723,0.194,88.28,0.162,2014-11-02T00:00:00,3,1610612752,NYK,New York,2-1,29,23,27,17,0,0,0,0,0,0,0,0,0,0,96,0.5,0.588,0.5,23,35,12,0021400041,1610612766,CHA,Charlotte,Gary Neal,,,31:06,3.0,0.0,3.0,4.0,9.0,4.0,3.0,24.0,0.0,0.0,2.0,3.0
0021400041,1610612766,CHA,Charlotte,101131,Jason Maxiell,,,14:31,123.0,101.7,21.2,0.0,0.0,0.0,0.091,0.1,0.095,0.0,1.0,1.0,0.032,89.87,-0.011,2014-11-02T00:00:00,3,1610612766,CHA,Charlotte,1-2,21,29,30,13,0,0,0,0,0,0,0,0,0,0,93,0.471,0.724,0.4,20,38,12,0021400041,1610612766,CHA,Charlotte,Jason Maxiell,,,14:31,0.0,0.0,0.0,2.0,2.0,4.0,0.0,8.0,0.0,0.0,4.0,1.0
0021400041,1610612766,CHA,Charlotte,101131,Jason Maxiell,,,14:31,123.0,101.7,21.2,0.0,0.0,0.0,0.091,0.1,0.095,0.0,1.0,1.0,0.032,89.87,-0.011,2014-11-02T00:00:00,3,1610612752,NYK,New York,2-1,29,23,27,17,0,0,0,0,0,0,0,0,0,0,96,0.5,0.588,0.5,23,35,12,0021400041,1610612766,CHA,Charlotte,Jason Maxiell,,,14:31,0.0,0.0,0.0,2.0,2.0,4.0,0.0,8.0,0.0,0.0,4.0,1.0
0021400041,1610612766,CHA,Charlotte,201945,Gerald Henderson,,,17:40,97.3,104.0,-6.8,0.0,0.0,0.0,0.063,0.077,0.069,0.0,0.0,0.296,0.194,87.6,-0.033,2014-11-02T00:00:00,3,1610612766,CHA,Charlotte,1-2,21,29,30,13,0,0,0,0,0,0,0,0,0,0,93,0.471,0.724,0.4,20,38,12,0021400041,1610612766,CHA,Charlotte,Gerald Henderson,,,17:40,2.0,0.0,0.0,0.0,2.0,2.0,0.0,12.0,0.0,0.0,2.0,3.0
0021400041,1610612766,CHA,Charlotte,201945,Gerald Henderson,,,17:40,97.3,104.0,-6.8,0.0,0.0,0.0,0.063,0.077,0.069,0.0,0.0,0.296,0.194,87.6,-0.033,2014-11-02T00:00:00,3,1610612752,NYK,New York,2-1,29,23,27,17,0,0,0,0,0,0,0,0,0,0,96,0.5,0.588,0.5,23,35,12,0021400041,1610612766,CHA,Charlotte,Gerald Henderson,,,17:40,2.0,0.0,0.0,0.0,2.0,2.0,0.0,12.0,0.0,0.0,2.0,3.0
0021400041,1610612766,CHA,Charlotte,203148,Brian Roberts,,,17:42,86.1,99.8,-13.7,0.5,4.0,44.4,0.0,0.125,0.065,11.1,0.25,0.25,0.137,88.95,0.12,2014-11-02T00:00:00,3,1610612766,CHA,Charlotte,1-2,21,29,30,13,0,0,0,0,0,0,0,0,0,0,93,0.471,0.724,0.4,20,38,12,0021400041,1610612766,CHA,Charlotte,Brian Roberts,,,17:42,0.0,0.0,0.0,0.0,8.0,0.0,1.0,10.0,0.0,0.0,1.0,1.0
0021400041,1610612766,CHA,Charlotte,203148,Brian Roberts,,,17:42,86.1,99.8,-13.7,0.5,4.0,44.4,0.0,0.125,0.065,11.1,0.25,0.25,0.137,88.95,0.12,2014-11-02T00:00:00,3,1610612752,NYK,New York,2-1,29,23,27,17,0,0,0,0,0,0,0,0,0,0,96,0.5,0.588,0.5,23,35,12,0021400041,1610612766,CHA,Charlotte,Brian Roberts,,,17:42,0.0,0.0,0.0,0.0,8.0,0.0,1.0,10.0,0.0,0.0,1.0,1.0
0021400041,1610612766,CHA,Charlotte,202687,Bismack Biyombo,,DNP - Coach's Decision                  ,,,,,,,0.0,,,,,,,0.0,,,2014-11-02T00:00:00,3,1610612766,CHA,Charlotte,1-2,21,29,30,13,0,0,0,0,0,0,0,0,0,0,93,0.471,0.724,0.4,20,38,12,0021400041,1610612766,CHA,Charlotte,Bismack Biyombo,,DNP - Coach's Decision                  ,,,,,,,,,,,,,
0021400041,1610612766,CHA,Charlotte,202687,Bismack Biyombo,,DNP - Coach's Decision                  ,,,,,,,0.0,,,,,,,0.0,,,2014-11-02T00:00:00,3,1610612752,NYK,New York,2-1,29,23,27,17,0,0,0,0,0,0,0,0,0,0,96,0.5,0.588,0.5,23,35,12,0021400041,1610612766,CHA,Charlotte,Bismack Biyombo,,DNP - Coach's Decision                  ,,,,,,,,,,,,,
0021400041,1610612766,CHA,Charlotte,203798,PJ Hairston,,DNP - Coach's Decision                  ,,,,,,,0.0,,,,,,,0.0,,,2014-11-02T00:00:00,3,1610612766,CHA,Charlotte,1-2,21,29,30,13,0,0,0,0,0,0,0,0,0,0,93,0.471,0.724,0.4,20,38,12,0021400041,1610612766,CHA,Charlotte,PJ Hairston,,DNP - Coach's Decision                  ,,,,,,,,,,,,,
0021400041,1610612766,CHA,Charlotte,203798,PJ Hairston,,DNP - Coach's Decision                  ,,,,,,,0.0,,,,,,,0.0,,,2014-11-02T00:00:00,3,1610612752,NYK,New York,2-1,29,23,27,17,0,0,0,0,0,0,0,0,0,0,96,0.5,0.588,0.5,23,35,12,0021400041,1610612766,CHA,Charlotte,PJ Hairston,,DNP - Coach's Decision                  ,,,,,,,,,,,,,
0021400041,1610612766,CHA,Charlotte,2457,Jannero Pargo,,DNP - Coach's Decision                  ,,,,,,,0.0,,,,,,,0.0,,,2014-11-02T00:00:00,3,1610612766,CHA,Charlotte,1-2,21,29,30,13,0,0,0,0,0,0,0,0,0,0,93,0.471,0.724,0.4,20,38,12,0021400041,1610612766,CHA,Charlotte,Jannero Pargo,,DNP - Coach's Decision                  ,,,,,,,,,,,,,
0021400041,1610612766,CHA,Charlotte,2457,Jannero Pargo,,DNP - Coach's Decision                  ,,,,,,,0.0,,,,,,,0.0,,,2014-11-02T00:00:00,3,1610612752,NYK,New York,2-1,29,23,27,17,0,0,0,0,0,0,0,0,0,0,96,0.5,0.588,0.5,23,35,12,0021400041,1610612766,CHA,Charlotte,Jannero Pargo,,DNP - Coach's Decision                  ,,,,,,,,,,,,,
0021400041,1610612752,NYK,New York,203112,Quincy Acy,F,,20:20,125.1,90.9,34.3,0.111,0.0,33.3,0.0,0.188,0.097,0.0,0.25,0.25,0.098,88.86,0.027,2014-11-02T00:00:00,3,1610612766,CHA,Charlotte,1-2,21,29,30,13,0,0,0,0,0,0,0,0,0,0,93,0.471,0.724,0.4,20,38,12,0021400041,1610612752,NYK,New York,Quincy Acy,F,,20:20,0.0,0.0,0.0,2.0,2.0,2.0,4.0,14.0,0.0,0.0,2.0,0.0
0021400041,1610612752,NYK,New York,203112,Quincy Acy,F,,20:20,125.1,90.9,34.3,0.111,0.0,33.3,0.0,0.188,0.097,0.0,0.25,0.25,0.098,88.86,0.027,2014-11-02T00:00:00,3,1610612752,NYK,New York,2-1,29,23,27,17,0,0,0,0,0,0,0,0,0,0,96,0.5,0.588,0.5,23,35,12,0021400041,1610612752,NYK,New York,Quincy Acy,F,,20:20,0.0,0.0,0.0,2.0,2.0,2.0,4.0,14.0,0.0,0.0,2.0,0.0
0021400041,1610612752,NYK,New York,2546,Carmelo Anthony,F,,34:43,106.2,113.8,-7.6,0.125,1.0,7.3,0.0,0.083,0.039,7.3,0.591,0.6,0.362,89.23,0.143,2014-11-02T00:00:00,3,1610612766,CHA,Charlotte,1-2,21,29,30,13,0,0,0,0,0,0,0,0,0,0,93,0.471,0.724,0.4,20,38,12,0021400041,1610612752,NYK,New York,Carmelo Anthony,F,,34:43,6.0,0.0,5.0,12.0,10.0,9.0,4.0,34.0,0.0,1.0,3.0,1.0
0021400041,1610612752,NYK,New York,2546,Carmelo Anthony,F,,34:43,106.2,113.8,-7.6,0.125,1.0,7.3,0.0,0.083,0.039,7.3,0.591,0.6,0.362,89.23,0.143,2014-11-02T00:00:00,3,1610612752,NYK,New York,2-1,29,23,27,17,0,0,0,0,0,0,0,0,0,0,96,0.5,0.588,0.5,23,35,12,0021400041,1610612752,NYK,New York,Carmelo Anthony,F,,34:43,6.0,0.0,5.0,12.0,10.0,9.0,4.0,34.0,0.0,1.0,3.0,1.0
0021400041,1610612752,NYK,New York,2223,Samuel Dalembert,C,,22:21,105.7,75.6,30.0,0.059,0.33,16.7,0.167,0.333,0.242,50.0,0.0,0.0,0.11,91.58,-0.025,2014-11-02T00:00:00,3,1610612766,CHA,Charlotte,1-2,21,29,30,13,0,0,0,0,0,0,0,0,0,0,93,0.471,0.724,0.4,20,38,12,0021400041,1610612752,NYK,New York,Samuel Dalembert,C,,22:21,0.0,0.0,0.0,0.0,2.0,4.0,4.0,16.0,0.0,0.0,4.0,1.0
0021400041,1610612752,NYK,New York,2223,Samuel Dalembert,C,,22:21,105.7,75.6,30.0,0.059,0.33,16.7,0.167,0.333,0.242,50.0,0.0,0.0,0.11,91.58,-0.025,2014-11-02T00:00:00,3,1610612752,NYK,New York,2-1,29,23,27,17,0,0,0,0,0,0,0,0,0,0,96,0.5,0.588,0.5,23,35,12,0021400041,1610612752,NYK,New York,Samuel Dalembert,C,,22:21,0.0,0.0,0.0,0.0,2.0,4.0,4.0,16.0,0.0,0.0,4.0,1.0
0021400041,1610612752,NYK,New York,203499,Shane Larkin,G,,26:32,113.5,115.8,-2.3,0.25,5.0,36.0,0.0,0.118,0.054,7.2,0.5,0.571,0.164,88.35,0.119,2014-11-02T00:00:00,3,1610612766,CHA,Charlotte,1-2,21,29,30,13,0,0,0,0,0,0,0,0,0,0,93,0.471,0.724,0.4,20,38,12,0021400041,1610612752,NYK,New York,Shane Larkin,G,,26:32,0.0,0.0,0.0,0.0,4.0,6.0,4.0,24.0,0.0,0.0,1.0,2.0
0021400041,1610612752,NYK,New York,203499,Shane Larkin,G,,26:32,113.5,115.8,-2.3,0.25,5.0,36.0,0.0,0.118,0.054,7.2,0.5,0.571,0.164,88.35,0.119,2014-11-02T00:00:00,3,1610612752,NYK,New York,2-1,29,23,27,17,0,0,0,0,0,0,0,0,0,0,96,0.5,0.588,0.5,23,35,12,0021400041,1610612752,NYK,New York,Shane Larkin,G,,26:32,0.0,0.0,0.0,0.0,4.0,6.0,4.0,24.0,0.0,0.0,1.0,2.0
0021400041,1610612752,NYK,New York,202697,Iman Shumpert,G,,25:40,120.1,99.6,20.5,0.25,0.0,23.9,0.0,0.0,0.0,0.0,0.545,0.588,0.255,83.33,0.109,2014-11-02T00:00:00,3,1610612766,CHA,Charlotte,1-2,21,29,30,13,0,0,0,0,0,0,0,0,0,0,93,0.471,0.724,0.4,20,38,12,0021400041,1610612752,NYK,New York,Iman Shumpert,G,,25:40,5.0,0.0,1.0,2.0,2.0,4.0,2.0,26.0,0.0,0.0,4.0,2.0
0021400041,1610612752,NYK,New York,202697,Iman Shumpert,G,,25:40,120.1,99.6,20.5,0.25,0.0,23.9,0.0,0.0,0.0,0.0,0.545,0.588,0.255,83.33,0.109,2014-11-02T00:00:00,3,1610612752,NYK,New York,2-1,29,23,27,17,0,0,0,0,0,0,0,0,0,0,96,0.5,0.588,0.5,23,35,12,0021400041,1610612752,NYK,New York,Iman Shumpert,G,,25:40,5.0,0.0,1.0,2.0,2.0,4.0,2.0,26.0,0.0,0.0,4.0,2.0
0021400041,1610612752,NYK,New York,2747,JR Smith,,,26:47,90.3,102.7,-12.5,0.111,0.5,14.0,0.0,0.143,0.07,27.9,0.5,0.421,0.211,95.88,-0.04,2014-11-02T00:00:00,3,1610612766,CHA,Charlotte,1-2,21,29,30,13,0,0,0,0,0,0,0,0,0,0,93,0.471,0.724,0.4,20,38,12,0021400041,1610612752,NYK,New York,JR Smith,,,26:47,0.0,2.0,0.0,2.0,11.0,7.0,5.0,18.0,0.0,0.0,4.0,3.0
0021400041,1610612752,NYK,New York,2747,JR Smith,,,26:47,90.3,102.7,-12.5,0.111,0.5,14.0,0.0,0.143,0.07,27.9,0.5,0.421,0.211,95.88,-0.04,2014-11-02T00:00:00,3,1610612752,NYK,New York,2-1,29,23,27,17,0,0,0,0,0,0,0,0,0,0,96,0.5,0.588,0.5,23,35,12,0021400041,1610612752,NYK,New York,JR Smith,,,26:47,0.0,2.0,0.0,2.0,11.0,7.0,5.0,18.0,0.0,0.0,4.0,3.0
0021400041,1610612752,NYK,New York,2405,Amar'e Stoudemire,,,23:03,101.1,114.3,-13.3,0.0,0.0,0.0,0.167,0.368,0.27,0.0,0.538,0.559,0.307,87.34,0.231,2014-11-02T00:00:00,3,1610612766,CHA,Charlotte,1-2,21,29,30,13,0,0,0,0,0,0,0,0,0,0,93,0.471,0.724,0.4,20,38,12,0021400041,1610612752,NYK,New York,Amar'e Stoudemire,,,23:03,2.0,2.0,0.0,10.0,9.0,5.0,3.0,20.0,0.0,1.0,2.0,5.0
0021400041,1610612752,NYK,New York,2405,Amar'e Stoudemire,,,23:03,101.1,114.3,-13.3,0.0,0.0,0.0,0.167,0.368,0.27,0.0,0.538,0.559,0.307,87.34,0.231,2014-11-02T00:00:00,3,1610612752,NYK,New York,2-1,29,23,27,17,0,0,0,0,0,0,0,0,0,0,96,0.5,0.588,0.5,23,35,12,0021400041,1610612752,NYK,New York,Amar'e Stoudemire,,,23:03,2.0,2.0,0.0,10.0,9.0,5.0,3.0,20.0,0.0,1.0,2.0,5.0
0021400041,1610612752,NYK,New York,201160,Jason Smith,,,19:19,95.3,140.4,-45.2,0.167,1.0,22.2,0.071,0.071,0.071,22.2,0.6,0.6,0.171,92.49,0.051,2014-11-02T00:00:00,3,1610612766,CHA,Charlotte,1-2,21,29,30,13,0,0,0,0,0,0,0,0,0,0,93,0.471,0.724,0.4,20,38,12,0021400041,1610612752,NYK,New York,Jason Smith,,,19:19,0.0,0.0,0.0,0.0,11.0,9.0,3.0,20.0,0.0,0.0,2.0,1.0
0021400041,1610612752,NYK,New York,201160,Jason Smith,,,19:19,95.3,140.4,-45.2,0.167,1.0,22.2,0.071,0.071,0.071,22.2,0.6,0.6,0.171,92.49,0.051,2014-11-02T00:00:00,3,1610612752,NYK,New York,2-1,29,23,27,17,0,0,0,0,0,0,0,0,0,0,96,0.5,0.588,0.5,23,35,12,0021400041,1610612752,NYK,New York,Jason Smith,,,19:19,0.0,0.0,0.0,0.0,11.0,9.0,3.0,20.0,0.0,0.0,2.0,1.0
0021400041,1610612752,NYK,New York,203143,Pablo Prigioni,,,24:17,93.1,83.9,9.1,0.294,0.0,71.4,0.0,0.095,0.048,0.0,0.75,0.75,0.038,91.48,0.163,2014-11-02T00:00:00,3,1610612766,CHA,Charlotte,1-2,21,29,30,13,0,0,0,0,0,0,0,0,0,0,93,0.471,0.724,0.4,20,38,12,0021400041,1610612752,NYK,New York,Pablo Prigioni,,,24:17,0.0,0.0,0.0,0.0,9.0,5.0,3.0,16.0,0.0,0.0,2.0,1.0
0021400041,1610612752,NYK,New York,203143,Pablo Prigioni,,,24:17,93.1,83.9,9.1,0.294,0.0,71.4,0.0,0.095,0.048,0.0,0.75,0.75,0.038,91.48,0.163,2014-11-02T00:00:00,3,1610612752,NYK,New York,2-1,29,23,27,17,0,0,0,0,0,0,0,0,0,0,96,0.5,0.588,0.5,23,35,12,0021400041,1610612752,NYK,New York,Pablo Prigioni,,,24:17,0.0,0.0,0.0,0.0,9.0,5.0,3.0,16.0,0.0,0.0,2.0,1.0
0021400041,1610612752,NYK,New York,203501,Tim Hardaway Jr.,,,10:28,107.2,107.3,-0.1,0.0,0.0,0.0,0.0,0.125,0.063,0.0,0.9,0.9,0.222,89.79,0.281,2014-11-02T00:00:00,3,1610612766,CHA,Charlotte,1-2,21,29,30,13,0,0,0,0,0,0,0,0,0,0,93,0.471,0.724,0.4,20,38,12,0021400041,1610612752,NYK,New York,Tim Hardaway Jr.,,,10:28,0.0,0.0,0.0,2.0,3.0,2.0,3.0,6.0,0.0,0.0,0.0,0.0
0021400041,1610612752,NYK,New York,203501,Tim Hardaway Jr.,,,10:28,107.2,107.3,-0.1,0.0,0.0,0.0,0.0,0.125,0.063,0.0,0.9,0.9,0.222,89.79,0.281,2014-11-02T00:00:00,3,1610612752,NYK,New York,2-1,29,23,27,17,0,0,0,0,0,0,0,0,0,0,96,0.5,0.588,0.5,23,35,12,0021400041,1610612752,NYK,New York,Tim Hardaway Jr.,,,10:28,0.0,0.0,0.0,2.0,3.0,2.0,3.0,6.0,0.0,0.0,0.0,0.0
0021400041,1610612752,NYK,New York,202332,Cole Aldrich,,,6:30,97.4,182.7,-85.3,0.0,0.0,0.0,0.143,0.25,0.182,0.0,0.0,0.0,0.0,83.89,-0.02,2014-11-02T00:00:00,3,1610612766,CHA,Charlotte,1-2,21,29,30,13,0,0,0,0,0,0,0,0,0,0,93,0.471,0.724,0.4,20,38,12,0021400041,1610612752,NYK,New York,Cole Aldrich,,,6:30,0.0,0.0,0.0,0.0,2.0,2.0,0.0,6.0,0.0,0.0,2.0,0.0
0021400041,1610612752,NYK,New York,202332,Cole Aldrich,,,6:30,97.4,182.7,-85.3,0.0,0.0,0.0,0.143,0.25,0.182,0.0,0.0,0.0,0.0,83.89,-0.02,2014-11-02T00:00:00,3,1610612752,NYK,New York,2-1,29,23,27,17,0,0,0,0,0,0,0,0,0,0,96,0.5,0.588,0.5,23,35,12,0021400041,1610612752,NYK,New York,Cole Aldrich,,,6:30,0.0,0.0,0.0,0.0,2.0,2.0,0.0,6.0,0.0,0.0,2.0,0.0
0021400041,1610612752,NYK,New York,203921,Cleanthony Early,,DNP - Coach's Decision                  ,,,,,,,0.0,,,,,,,0.0,,,2014-11-02T00:00:00,3,1610612766,CHA,Charlotte,1-2,21,29,30,13,0,0,0,0,0,0,0,0,0,0,93,0.471,0.724,0.4,20,38,12,0021400041,1610612752,NYK,New York,Cleanthony Early,,DNP - Coach's Decision                  ,,,,,,,,,,,,,
0021400041,1610612752,NYK,New York,203921,Cleanthony Early,,DNP - Coach's Decision                  ,,,,,,,0.0,,,,,,,0.0,,,2014-11-02T00:00:00,3,1610612752,NYK,New York,2-1,29,23,27,17,0,0,0,0,0,0,0,0,0,0,96,0.5,0.588,0.5,23,35,12,0021400041,1610612752,NYK,New York,Cleanthony Early,,DNP - Coach's Decision                  ,,,,,,,,,,,,,
0021400041,1610612752,NYK,New York,204037,Travis Wear,,DNP - Coach's Decision                  ,,,,,,,0.0,,,,,,,0.0,,,2014-11-02T00:00:00,3,1610612766,CHA,Charlotte,1-2,21,29,30,13,0,0,0,0,0,0,0,0,0,0,93,0.471,0.724,0.4,20,38,12,0021400041,1610612752,NYK,New York,Travis Wear,,DNP - Coach's Decision                  ,,,,,,,,,,,,,
0021400041,1610612752,NYK,New York,204037,Travis Wear,,DNP - Coach's Decision                  ,,,,,,,0.0,,,,,,,0.0,,,2014-11-02T00:00:00,3,1610612752,NYK,New York,2-1,29,23,27,17,0,0,0,0,0,0,0,0,0,0,96,0.5,0.588,0.5,23,35,12,0021400041,1610612752,NYK,New York,Travis Wear,,DNP - Coach's Decision                  ,,,,,,,,,,,,,
