GAME_ID_x,TEAM_ID_x,TEAM_ABBREVIATION_x,TEAM_CITY_x,PLAYER_ID,PLAYER_NAME_x,START_POSITION_x,COMMENT_x,MIN_x,OFF_RATING,DEF_RATING,NET_RATING,AST_PCT,AST_TOV,AST_RATIO,OREB_PCT,DREB_PCT,REB_PCT,TM_TOV_PCT,EFG_PCT,TS_PCT,USG_PCT,PACE,PIE,GAME_DATE_EST,GAME_SEQUENCE,TEAM_ID_y,TEAM_ABBREVIATION_y,TEAM_CITY_NAME,TEAM_WINS_LOSSES,PTS_QTR1,PTS_QTR2,PTS_QTR3,PTS_QTR4,PTS_OT1,PTS_OT2,PTS_OT3,PTS_OT4,PTS_OT5,PTS_OT6,PTS_OT7,PTS_OT8,PTS_OT9,PTS_OT10,PTS,FG_PCT,FT_PCT,FG3_PCT,AST,REB,TOV,GAME_ID_y,TEAM_ID,TEAM_ABBREVIATION,TEAM_CITY_y,PLAYER_NAME_y,START_POSITION_y,COMMENT_y,MIN_y,PTS_OFF_TOV,PTS_2ND_CHANCE,PTS_FB,PTS_PAINT,OPP_PTS_OFF_TOV,OPP_PTS_2ND_CHANCE,OPP_PTS_FB,OPP_PTS_PAINT,BLK,BLKA,PF,PFD
0021400047,1610612758,SAC,Sacramento,200752,Rudy Gay,F,,23:02,106.7,98.3,8.4,0.214,1.0,13.6,0.105,0.065,0.08,13.6,0.308,0.435,0.326,105.69,0.103,2014-11-03T00:00:00,5,1610612758,SAC,Sacramento,3-1,19,32,28,31,0,0,0,0,0,0,0,0,0,0,110,0.42,0.851,0.222,21,50,15,0021400047,1610612758,SAC,Sacramento,Rudy Gay,F,,23:02,2.0,0.0,1.0,6.0,2.0,13.0,6.0,32.0,1.0,2.0,1.0,5.0
0021400047,1610612758,SAC,Sacramento,200752,Rudy Gay,F,,23:02,106.7,98.3,8.4,0.214,1.0,13.6,0.105,0.065,0.08,13.6,0.308,0.435,0.326,105.69,0.103,2014-11-03T00:00:00,5,1610612743,DEN,Denver,1-2,22,24,31,28,0,0,0,0,0,0,0,0,0,0,105,0.387,0.848,0.208,22,42,15,0021400047,1610612758,SAC,Sacramento,Rudy Gay,F,,23:02,2.0,0.0,1.0,6.0,2.0,13.0,6.0,32.0,1.0,2.0,1.0,5.0
0021400047,1610612758,SAC,Sacramento,201574,Jason Thompson,F,,23:12,102.3,94.4,7.9,0.063,1.0,14.3,0.235,0.214,0.222,14.3,0.4,0.4,0.102,107.3,0.083,2014-11-03T00:00:00,5,1610612758,SAC,Sacramento,3-1,19,32,28,31,0,0,0,0,0,0,0,0,0,0,110,0.42,0.851,0.222,21,50,15,0021400047,1610612758,SAC,Sacramento,Jason Thompson,F,,23:12,2.0,4.0,0.0,4.0,4.0,11.0,6.0,26.0,0.0,1.0,4.0,1.0
0021400047,1610612758,SAC,Sacramento,201574,Jason Thompson,F,,23:12,102.3,94.4,7.9,0.063,1.0,14.3,0.235,0.214,0.222,14.3,0.4,0.4,0.102,107.3,0.083,2014-11-03T00:00:00,5,1610612743,DEN,Denver,1-2,22,24,31,28,0,0,0,0,0,0,0,0,0,0,105,0.387,0.848,0.208,22,42,15,0021400047,1610612758,SAC,Sacramento,Jason Thompson,F,,23:12,2.0,4.0,0.0,4.0,4.0,11.0,6.0,26.0,0.0,1.0,4.0,1.0
0021400047,1610612758,SAC,Sacramento,202326,DeMarcus Cousins,C,,25:29,105.4,95.0,10.4,0.077,1.0,5.3,0.05,0.125,0.096,5.3,0.462,0.56,0.277,109.05,0.194,2014-11-03T00:00:00,5,1610612758,SAC,Sacramento,3-1,19,32,28,31,0,0,0,0,0,0,0,0,0,0,110,0.42,0.851,0.222,21,50,15,0021400047,1610612758,SAC,Sacramento,DeMarcus Cousins,C,,25:29,4.0,0.0,3.0,8.0,4.0,15.0,8.0,32.0,1.0,2.0,3.0,9.0
0021400047,1610612758,SAC,Sacramento,202326,DeMarcus Cousins,C,,25:29,105.4,95.0,10.4,0.077,1.0,5.3,0.05,0.125,0.096,5.3,0.462,0.56,0.277,109.05,0.194,2014-11-03T00:00:00,5,1610612743,DEN,Denver,1-2,22,24,31,28,0,0,0,0,0,0,0,0,0,0,105,0.387,0.848,0.208,22,42,15,0021400047,1610612758,SAC,Sacramento,DeMarcus Cousins,C,,25:29,4.0,0.0,3.0,8.0,4.0,15.0,8.0,32.0,1.0,2.0,3.0,9.0
0021400047,1610612758,SAC,Sacramento,203463,Ben McLemore,G,,19:29,88.5,96.7,-8.3,0.0,0.0,0.0,0.0,0.217,0.139,28.6,0.5,0.5,0.136,114.56,0.049,2014-11-03T00:00:00,5,1610612758,SAC,Sacramento,3-1,19,32,28,31,0,0,0,0,0,0,0,0,0,0,110,0.42,0.851,0.222,21,50,15,0021400047,1610612758,SAC,Sacramento,Ben McLemore,G,,19:29,0.0,0.0,2.0,2.0,4.0,9.0,4.0,22.0,1.0,0.0,3.0,0.0
0021400047,1610612758,SAC,Sacramento,203463,Ben McLemore,G,,19:29,88.5,96.7,-8.3,0.0,0.0,0.0,0.0,0.217,0.139,28.6,0.5,0.5,0.136,114.56,0.049,2014-11-03T00:00:00,5,1610612743,DEN,Denver,1-2,22,24,31,28,0,0,0,0,0,0,0,0,0,0,105,0.387,0.848,0.208,22,42,15,0021400047,1610612758,SAC,Sacramento,Ben McLemore,G,,19:29,0.0,0.0,2.0,2.0,4.0,9.0,4.0,22.0,1.0,0.0,3.0,0.0
0021400047,1610612758,SAC,Sacramento,201954,Darren Collison,G,,29:43,106.2,99.2,7.0,0.316,6.0,27.6,0.048,0.083,0.07,4.6,0.556,0.713,0.207,111.71,0.25,2014-11-03T00:00:00,5,1610612758,SAC,Sacramento,3-1,19,32,28,31,0,0,0,0,0,0,0,0,0,0,110,0.42,0.851,0.222,21,50,15,0021400047,1610612758,SAC,Sacramento,Darren Collison,G,,29:43,6.0,4.0,2.0,4.0,4.0,17.0,10.0,38.0,0.0,1.0,1.0,7.0
0021400047,1610612758,SAC,Sacramento,201954,Darren Collison,G,,29:43,106.2,99.2,7.0,0.316,6.0,27.6,0.048,0.083,0.07,4.6,0.556,0.713,0.207,111.71,0.25,2014-11-03T00:00:00,5,1610612743,DEN,Denver,1-2,22,24,31,28,0,0,0,0,0,0,0,0,0,0,105,0.387,0.848,0.208,22,42,15,0021400047,1610612758,SAC,Sacramento,Darren Collison,G,,29:43,6.0,4.0,2.0,4.0,4.0,17.0,10.0,38.0,0.0,1.0,1.0,7.0
0021400047,1610612758,SAC,Sacramento,203917,Nik Stauskas,,,1:33,150.6,106.4,44.2,0.0,0.0,0.0,0.0,0.0,0.0,0.0,0.0,0.0,0.0,109.63,-1.2,2014-11-03T00:00:00,5,1610612758,SAC,Sacramento,3-1,19,32,28,31,0,0,0,0,0,0,0,0,0,0,110,0.42,0.851,0.222,21,50,15,0021400047,1610612758,SAC,Sacramento,Nik Stauskas,,,1:33,0.0,0.0,0.0,0.0,2.0,0.0,0.0,0.0,0.0,0.0,3.0,0.0
0021400047,1610612758,SAC,Sacramento,203917,Nik Stauskas,,,1:33,150.6,106.4,44.2,0.0,0.0,0.0,0.0,0.0,0.0,0.0,0.0,0.0,0.0,109.63,-1.2,2014-11-03T00:00:00,5,1610612743,DEN,Denver,1-2,22,24,31,28,0,0,0,0,0,0,0,0,0,0,105,0.387,0.848,0.208,22,42,15,0021400047,1610612758,SAC,Sacramento,Nik Stauskas,,,1:33,0.0,0.0,0.0,0.0,2.0,0.0,0.0,0.0,0.0,0.0,3.0,0.0
0021400047,1610612758,SAC,Sacramento,201956,Omri Casspi,,,27:13,109.7,96.9,12.8,0.267,4.0,29.1,0.04,0.0,0.02,7.3,0.429,0.514,0.141,111.18,0.073,2014-11-03T00:00:00,5,1610612758,SAC,Sacramento,3-1,19,32,28,31,0,0,0,0,0,0,0,0,0,0,110,0.42,0.851,0.222,21,50,15,0021400047,1610612758,SAC,Sacramento,Omri Casspi,,,27:13,5.0,3.0,4.0,6.0,9.0,8.0,10.0,26.0,1.0,0.0,2.0,2.0
0021400047,1610612758,SAC,Sacramento,201956,Omri Casspi,,,27:13,109.7,96.9,12.8,0.267,4.0,29.1,0.04,0.0,0.02,7.3,0.429,0.514,0.141,111.18,0.073,2014-11-03T00:00:00,5,1610612743,DEN,Denver,1-2,22,24,31,28,0,0,0,0,0,0,0,0,0,0,105,0.387,0.848,0.208,22,42,15,0021400047,1610612758,SAC,Sacramento,Omri Casspi,,,27:13,5.0,3.0,4.0,6.0,9.0,8.0,10.0,26.0,1.0,0.0,2.0,2.0
0021400047,1610612758,SAC,Sacramento,202682,Derrick Williams,,,10:24,98.7,99.1,-0.3,0.2,1.0,12.9,0.067,0.3,0.16,12.9,0.25,0.434,0.239,100.34,0.153,2014-11-03T00:00:00,5,1610612758,SAC,Sacramento,3-1,19,32,28,31,0,0,0,0,0,0,0,0,0,0,110,0.42,0.851,0.222,21,50,15,0021400047,1610612758,SAC,Sacramento,Derrick Williams,,,10:24,0.0,2.0,0.0,2.0,2.0,2.0,5.0,12.0,0.0,0.0,1.0,2.0
0021400047,1610612758,SAC,Sacramento,202682,Derrick Williams,,,10:24,98.7,99.1,-0.3,0.2,1.0,12.9,0.067,0.3,0.16,12.9,0.25,0.434,0.239,100.34,0.153,2014-11-03T00:00:00,5,1610612743,DEN,Denver,1-2,22,24,31,28,0,0,0,0,0,0,0,0,0,0,105,0.387,0.848,0.208,22,42,15,0021400047,1610612758,SAC,Sacramento,Derrick Williams,,,10:24,0.0,2.0,0.0,2.0,2.0,2.0,5.0,12.0,0.0,0.0,1.0,2.0
0021400047,1610612758,SAC,Sacramento,201196,Ramon Sessions,,,20:44,100.2,97.8,2.4,0.273,1.0,18.3,0.0,0.105,0.049,18.3,0.25,0.625,0.28,97.1,0.154,2014-11-03T00:00:00,5,1610612758,SAC,Sacramento,3-1,19,32,28,31,0,0,0,0,0,0,0,0,0,0,110,0.42,0.851,0.222,21,50,15,0021400047,1610612758,SAC,Sacramento,Ramon Sessions,,,20:44,0.0,4.0,2.0,0.0,7.0,4.0,6.0,20.0,0.0,0.0,1.0,6.0
0021400047,1610612758,SAC,Sacramento,201196,Ramon Sessions,,,20:44,100.2,97.8,2.4,0.273,1.0,18.3,0.0,0.105,0.049,18.3,0.25,0.625,0.28,97.1,0.154,2014-11-03T00:00:00,5,1610612743,DEN,Denver,1-2,22,24,31,28,0,0,0,0,0,0,0,0,0,0,105,0.387,0.848,0.208,22,42,15,0021400047,1610612758,SAC,Sacramento,Ramon Sessions,,,20:44,0.0,4.0,2.0,0.0,7.0,4.0,6.0,20.0,0.0,0.0,1.0,6.0
0021400047,1610612758,SAC,Sacramento,2501,Reggie Evans,,,22:31,102.5,100.8,1.7,0.0,0.0,0.0,0.143,0.579,0.35,0.0,0.5,0.5,0.036,103.82,0.173,2014-11-03T00:00:00,5,1610612758,SAC,Sacramento,3-1,19,32,28,31,0,0,0,0,0,0,0,0,0,0,110,0.42,0.851,0.222,21,50,15,0021400047,1610612758,SAC,Sacramento,Reggie Evans,,,22:31,2.0,2.0,0.0,2.0,7.0,4.0,6.0,22.0,1.0,0.0,4.0,0.0
0021400047,1610612758,SAC,Sacramento,2501,Reggie Evans,,,22:31,102.5,100.8,1.7,0.0,0.0,0.0,0.143,0.579,0.35,0.0,0.5,0.5,0.036,103.82,0.173,2014-11-03T00:00:00,5,1610612743,DEN,Denver,1-2,22,24,31,28,0,0,0,0,0,0,0,0,0,0,105,0.387,0.848,0.208,22,42,15,0021400047,1610612758,SAC,Sacramento,Reggie Evans,,,22:31,2.0,2.0,0.0,2.0,7.0,4.0,6.0,22.0,1.0,0.0,4.0,0.0
0021400047,1610612758,SAC,Sacramento,201171,Carl Landry,,,23:07,98.1,99.4,-1.4,0.125,0.5,6.7,0.045,0.0,0.024,13.3,0.583,0.583,0.255,100.91,0.078,2014-11-03T00:00:00,5,1610612758,SAC,Sacramento,3-1,19,32,28,31,0,0,0,0,0,0,0,0,0,0,110,0.42,0.851,0.222,21,50,15,0021400047,1610612758,SAC,Sacramento,Carl Landry,,,23:07,0.0,0.0,0.0,8.0,7.0,6.0,6.0,24.0,0.0,1.0,4.0,2.0
0021400047,1610612758,SAC,Sacramento,201171,Carl Landry,,,23:07,98.1,99.4,-1.4,0.125,0.5,6.7,0.045,0.0,0.024,13.3,0.583,0.583,0.255,100.91,0.078,2014-11-03T00:00:00,5,1610612743,DEN,Denver,1-2,22,24,31,28,0,0,0,0,0,0,0,0,0,0,105,0.387,0.848,0.208,22,42,15,0021400047,1610612758,SAC,Sacramento,Carl Landry,,,23:07,0.0,0.0,0.0,8.0,7.0,6.0,6.0,24.0,0.0,1.0,4.0,2.0
0021400047,1610612758,SAC,Sacramento,203492,Ray McCallum,,,13:34,126.8,96.5,30.3,0.125,0.0,16.7,0.0,0.0,0.0,0.0,0.4,0.4,0.163,103.81,0.022,2014-11-03T00:00:00,5,1610612758,SAC,Sacramento,3-1,19,32,28,31,0,0,0,0,0,0,0,0,0,0,110,0.42,0.851,0.222,21,50,15,0021400047,1610612758,SAC,Sacramento,Ray McCallum,,,13:34,0.0,0.0,0.0,4.0,3.0,6.0,3.0,16.0,0.0,0.0,1.0,1.0
0021400047,1610612758,SAC,Sacramento,203492,Ray McCallum,,,13:34,126.8,96.5,30.3,0.125,0.0,16.7,0.0,0.0,0.0,0.0,0.4,0.4,0.163,103.81,0.022,2014-11-03T00:00:00,5,1610612743,DEN,Denver,1-2,22,24,31,28,0,0,0,0,0,0,0,0,0,0,105,0.387,0.848,0.208,22,42,15,0021400047,1610612758,SAC,Sacramento,Ray McCallum,,,13:34,0.0,0.0,0.0,4.0,3.0,6.0,3.0,16.0,0.0,0.0,1.0,1.0
0021400047,1610612758,SAC,Sacramento,200797,Ryan Hollins,,DNP - Coach's Decision                  ,,,,,,,0.0,,,,,,,0.0,,,2014-11-03T00:00:00,5,1610612758,SAC,Sacramento,3-1,19,32,28,31,0,0,0,0,0,0,0,0,0,0,110,0.42,0.851,0.222,21,50,15,0021400047,1610612758,SAC,Sacramento,Ryan Hollins,,DNP - Coach's Decision                  ,,,,,,,,,,,,,
0021400047,1610612758,SAC,Sacramento,200797,Ryan Hollins,,DNP - Coach's Decision                  ,,,,,,,0.0,,,,,,,0.0,,,2014-11-03T00:00:00,5,1610612743,DEN,Denver,1-2,22,24,31,28,0,0,0,0,0,0,0,0,0,0,105,0.387,0.848,0.208,22,42,15,0021400047,1610612758,SAC,Sacramento,Ryan Hollins,,DNP - Coach's Decision                  ,,,,,,,,,,,,,
0021400047,1610612743,DEN,Denver,201163,Wilson Chandler,F,,30:46,102.2,103.8,-1.6,0.0,0.0,0.0,0.029,0.12,0.068,10.9,0.367,0.429,0.233,106.03,0.02,2014-11-03T00:00:00,5,1610612758,SAC,Sacramento,3-1,19,32,28,31,0,0,0,0,0,0,0,0,0,0,110,0.42,0.851,0.222,21,50,15,0021400047,1610612743,DEN,Denver,Wilson Chandler,F,,30:46,0.0,2.0,0.0,8.0,6.0,8.0,6.0,28.0,1.0,1.0,4.0,2.0
0021400047,1610612743,DEN,Denver,201163,Wilson Chandler,F,,30:46,102.2,103.8,-1.6,0.0,0.0,0.0,0.029,0.12,0.068,10.9,0.367,0.429,0.233,106.03,0.02,2014-11-03T00:00:00,5,1610612743,DEN,Denver,1-2,22,24,31,28,0,0,0,0,0,0,0,0,0,0,105,0.387,0.848,0.208,22,42,15,0021400047,1610612743,DEN,Denver,Wilson Chandler,F,,30:46,0.0,2.0,0.0,8.0,6.0,8.0,6.0,28.0,1.0,1.0,4.0,2.0
0021400047,1610612743,DEN,Denver,202702,Kenneth Faried,F,,38:05,93.4,105.4,-12.0,0.167,2.0,21.1,0.1,0.194,0.141,10.5,0.385,0.385,0.152,106.65,0.091,2014-11-03T00:00:00,5,1610612758,SAC,Sacramento,3-1,19,32,28,31,0,0,0,0,0,0,0,0,0,0,110,0.42,0.851,0.222,21,50,15,0021400047,1610612743,DEN,Denver,Kenneth Faried,F,,38:05,0.0,2.0,4.0,10.0,20.0,16.0,12.0,42.0,0.0,0.0,3.0,4.0
0021400047,1610612743,DEN,Denver,202702,Kenneth Faried,F,,38:05,93.4,105.4,-12.0,0.167,2.0,21.1,0.1,0.194,0.141,10.5,0.385,0.385,0.152,106.65,0.091,2014-11-03T00:00:00,5,1610612743,DEN,Denver,1-2,22,24,31,28,0,0,0,0,0,0,0,0,0,0,105,0.387,0.848,0.208,22,42,15,0021400047,1610612743,DEN,Denver,Kenneth Faried,F,,38:05,0.0,2.0,4.0,10.0,20.0,16.0,12.0,42.0,0.0,0.0,3.0,4.0
0021400047,1610612743,DEN,Denver,202389,Timofey Mozgov,C,,15:47,88.0,100.9,-12.9,0.0,0.0,0.0,0.063,0.278,0.176,30.0,0.714,0.714,0.263,100.05,0.145,2014-11-03T00:00:00,5,1610612758,SAC,Sacramento,3-1,19,32,28,31,0,0,0,0,0,0,0,0,0,0,110,0.42,0.851,0.222,21,50,15,0021400047,1610612743,DEN,Denver,Timofey Mozgov,C,,15:47,0.0,0.0,2.0,8.0,5.0,5.0,7.0,16.0,1.0,0.0,5.0,0.0
0021400047,1610612743,DEN,Denver,202389,Timofey Mozgov,C,,15:47,88.0,100.9,-12.9,0.0,0.0,0.0,0.063,0.278,0.176,30.0,0.714,0.714,0.263,100.05,0.145,2014-11-03T00:00:00,5,1610612743,DEN,Denver,1-2,22,24,31,28,0,0,0,0,0,0,0,0,0,0,105,0.387,0.848,0.208,22,42,15,0021400047,1610612743,DEN,Denver,Timofey Mozgov,C,,15:47,0.0,0.0,2.0,8.0,5.0,5.0,7.0,16.0,1.0,0.0,5.0,0.0
0021400047,1610612743,DEN,Denver,201167,Arron Afflalo,G,,30:48,100.0,101.8,-1.8,0.1,0.0,11.1,0.0,0.077,0.033,0.0,0.346,0.498,0.187,111.24,0.098,2014-11-03T00:00:00,5,1610612758,SAC,Sacramento,3-1,19,32,28,31,0,0,0,0,0,0,0,0,0,0,110,0.42,0.851,0.222,21,50,15,0021400047,1610612743,DEN,Denver,Arron Afflalo,G,,30:48,2.0,4.0,0.0,4.0,16.0,10.0,10.0,34.0,0.0,1.0,2.0,6.0
0021400047,1610612743,DEN,Denver,201167,Arron Afflalo,G,,30:48,100.0,101.8,-1.8,0.1,0.0,11.1,0.0,0.077,0.033,0.0,0.346,0.498,0.187,111.24,0.098,2014-11-03T00:00:00,5,1610612743,DEN,Denver,1-2,22,24,31,28,0,0,0,0,0,0,0,0,0,0,105,0.387,0.848,0.208,22,42,15,0021400047,1610612743,DEN,Denver,Arron Afflalo,G,,30:48,2.0,4.0,0.0,4.0,16.0,10.0,10.0,34.0,0.0,1.0,2.0,6.0
0021400047,1610612743,DEN,Denver,201951,Ty Lawson,G,,35:24,99.1,100.7,-1.6,0.462,12.0,48.9,0.047,0.0,0.029,4.1,0.125,0.391,0.128,111.97,0.124,2014-11-03T00:00:00,5,1610612758,SAC,Sacramento,3-1,19,32,28,31,0,0,0,0,0,0,0,0,0,0,110,0.42,0.851,0.222,21,50,15,0021400047,1610612743,DEN,Denver,Ty Lawson,G,,35:24,0.0,1.0,0.0,2.0,18.0,12.0,12.0,36.0,0.0,0.0,1.0,5.0
0021400047,1610612743,DEN,Denver,201951,Ty Lawson,G,,35:24,99.1,100.7,-1.6,0.462,12.0,48.9,0.047,0.0,0.029,4.1,0.125,0.391,0.128,111.97,0.124,2014-11-03T00:00:00,5,1610612743,DEN,Denver,1-2,22,24,31,28,0,0,0,0,0,0,0,0,0,0,105,0.387,0.848,0.208,22,42,15,0021400047,1610612743,DEN,Denver,Ty Lawson,G,,35:24,0.0,1.0,0.0,2.0,18.0,12.0,12.0,36.0,0.0,0.0,1.0,5.0
0021400047,1610612743,DEN,Denver,201580,JaVale McGee,,,13:56,115.2,96.9,18.3,0.0,0.0,0.0,0.133,0.222,0.167,8.5,0.667,0.743,0.296,118.49,0.26,2014-11-03T00:00:00,5,1610612758,SAC,Sacramento,3-1,19,32,28,31,0,0,0,0,0,0,0,0,0,0,110,0.42,0.851,0.222,21,50,15,0021400047,1610612743,DEN,Denver,JaVale McGee,,,13:56,2.0,6.0,4.0,12.0,4.0,4.0,3.0,8.0,4.0,1.0,4.0,3.0
0021400047,1610612743,DEN,Denver,201580,JaVale McGee,,,13:56,115.2,96.9,18.3,0.0,0.0,0.0,0.133,0.222,0.167,8.5,0.667,0.743,0.296,118.49,0.26,2014-11-03T00:00:00,5,1610612743,DEN,Denver,1-2,22,24,31,28,0,0,0,0,0,0,0,0,0,0,105,0.387,0.848,0.208,22,42,15,0021400047,1610612743,DEN,Denver,JaVale McGee,,,13:56,2.0,6.0,4.0,12.0,4.0,4.0,3.0,8.0,4.0,1.0,4.0,3.0
0021400047,1610612743,DEN,Denver,201568,Danilo Gallinari,,,14:01,90.5,98.4,-7.9,0.0,0.0,0.0,0.0,0.143,0.071,14.3,0.0,0.0,0.207,103.28,-0.207,2014-11-03T00:00:00,5,1610612758,SAC,Sacramento,3-1,19,32,28,31,0,0,0,0,0,0,0,0,0,0,110,0.42,0.851,0.222,21,50,15,0021400047,1610612743,DEN,Denver,Danilo Gallinari,,,14:01,0.0,0.0,0.0,0.0,9.0,7.0,6.0,12.0,0.0,0.0,1.0,1.0
0021400047,1610612743,DEN,Denver,201568,Danilo Gallinari,,,14:01,90.5,98.4,-7.9,0.0,0.0,0.0,0.0,0.143,0.071,14.3,0.0,0.0,0.207,103.28,-0.207,2014-11-03T00:00:00,5,1610612743,DEN,Denver,1-2,22,24,31,28,0,0,0,0,0,0,0,0,0,0,105,0.387,0.848,0.208,22,42,15,0021400047,1610612743,DEN,Denver,Danilo Gallinari,,,14:01,0.0,0.0,0.0,0.0,9.0,7.0,6.0,12.0,0.0,0.0,1.0,1.0
0021400047,1610612743,DEN,Denver,203994,Jusuf Nurkic,,,7:45,89.1,89.1,0.0,0.0,0.0,0.0,0.375,0.25,0.313,33.8,0.2,0.255,0.424,114.8,-0.267,2014-11-03T00:00:00,5,1610612758,SAC,Sacramento,3-1,19,32,28,31,0,0,0,0,0,0,0,0,0,0,110,0.42,0.851,0.222,21,50,15,0021400047,1610612743,DEN,Denver,Jusuf Nurkic,,,7:45,0.0,2.0,0.0,2.0,6.0,6.0,2.0,8.0,1.0,1.0,3.0,2.0
0021400047,1610612743,DEN,Denver,203994,Jusuf Nurkic,,,7:45,89.1,89.1,0.0,0.0,0.0,0.0,0.375,0.25,0.313,33.8,0.2,0.255,0.424,114.8,-0.267,2014-11-03T00:00:00,5,1610612743,DEN,Denver,1-2,22,24,31,28,0,0,0,0,0,0,0,0,0,0,105,0.387,0.848,0.208,22,42,15,0021400047,1610612743,DEN,Denver,Jusuf Nurkic,,,7:45,0.0,2.0,0.0,2.0,6.0,6.0,2.0,8.0,1.0,1.0,3.0,2.0
0021400047,1610612743,DEN,Denver,201589,Darrell Arthur,,,16:01,96.3,96.9,-0.6,0.125,0.0,13.1,0.059,0.333,0.188,0.0,0.625,0.753,0.183,100.83,0.247,2014-11-03T00:00:00,5,1610612758,SAC,Sacramento,3-1,19,32,28,31,0,0,0,0,0,0,0,0,0,0,110,0.42,0.851,0.222,21,50,15,0021400047,1610612743,DEN,Denver,Darrell Arthur,,,16:01,4.0,0.0,0.0,2.0,5.0,7.0,4.0,10.0,0.0,0.0,4.0,3.0
0021400047,1610612743,DEN,Denver,201589,Darrell Arthur,,,16:01,96.3,96.9,-0.6,0.125,0.0,13.1,0.059,0.333,0.188,0.0,0.625,0.753,0.183,100.83,0.247,2014-11-03T00:00:00,5,1610612743,DEN,Denver,1-2,22,24,31,28,0,0,0,0,0,0,0,0,0,0,105,0.387,0.848,0.208,22,42,15,0021400047,1610612743,DEN,Denver,Darrell Arthur,,,16:01,4.0,0.0,0.0,2.0,5.0,7.0,4.0,10.0,0.0,0.0,4.0,3.0
0021400047,1610612743,DEN,Denver,200751,Randy Foye,,,18:29,95.4,111.5,-16.1,0.182,0.0,25.0,0.0,0.0,0.0,0.0,0.417,0.417,0.143,101.82,0.018,2014-11-03T00:00:00,5,1610612758,SAC,Sacramento,3-1,19,32,28,31,0,0,0,0,0,0,0,0,0,0,110,0.42,0.851,0.222,21,50,15,0021400047,1610612743,DEN,Denver,Randy Foye,,,18:29,2.0,0.0,0.0,0.0,5.0,9.0,4.0,12.0,0.0,0.0,2.0,0.0
0021400047,1610612743,DEN,Denver,200751,Randy Foye,,,18:29,95.4,111.5,-16.1,0.182,0.0,25.0,0.0,0.0,0.0,0.0,0.417,0.417,0.143,101.82,0.018,2014-11-03T00:00:00,5,1610612743,DEN,Denver,1-2,22,24,31,28,0,0,0,0,0,0,0,0,0,0,105,0.387,0.848,0.208,22,42,15,0021400047,1610612743,DEN,Denver,Randy Foye,,,18:29,2.0,0.0,0.0,0.0,5.0,9.0,4.0,12.0,0.0,0.0,2.0,0.0
0021400047,1610612743,DEN,Denver,101126,Nate Robinson,,,12:36,92.9,116.0,-23.1,0.2,1.0,12.7,0.0,0.0,0.0,12.7,0.9,0.85,0.278,91.5,0.164,2014-11-03T00:00:00,5,1610612758,SAC,Sacramento,3-1,19,32,28,31,0,0,0,0,0,0,0,0,0,0,110,0.42,0.851,0.222,21,50,15,0021400047,1610612743,DEN,Denver,Nate Robinson,,,12:36,1.0,0.0,4.0,4.0,3.0,7.0,2.0,10.0,0.0,0.0,3.0,1.0
0021400047,1610612743,DEN,Denver,101126,Nate Robinson,,,12:36,92.9,116.0,-23.1,0.2,1.0,12.7,0.0,0.0,0.0,12.7,0.9,0.85,0.278,91.5,0.164,2014-11-03T00:00:00,5,1610612743,DEN,Denver,1-2,22,24,31,28,0,0,0,0,0,0,0,0,0,0,105,0.387,0.848,0.208,22,42,15,0021400047,1610612743,DEN,Denver,Nate Robinson,,,12:36,1.0,0.0,4.0,4.0,3.0,7.0,2.0,10.0,0.0,0.0,3.0,1.0
0021400047,1610612743,DEN,Denver,202087,Alonzo Gee,,,6:23,106.1,163.4,-57.3,0.0,0.0,0.0,0.167,0.0,0.125,29.1,0.5,0.41,0.212,102.54,-0.119,2014-11-03T00:00:00,5,1610612758,SAC,Sacramento,3-1,19,32,28,31,0,0,0,0,0,0,0,0,0,0,110,0.42,0.851,0.222,21,50,15,0021400047,1610612743,DEN,Denver,Alonzo Gee,,,6:23,0.0,2.0,0.0,2.0,8.0,4.0,2.0,14.0,0.0,1.0,3.0,1.0
0021400047,1610612743,DEN,Denver,202087,Alonzo Gee,,,6:23,106.1,163.4,-57.3,0.0,0.0,0.0,0.167,0.0,0.125,29.1,0.5,0.41,0.212,102.54,-0.119,2014-11-03T00:00:00,5,1610612743,DEN,Denver,1-2,22,24,31,28,0,0,0,0,0,0,0,0,0,0,105,0.387,0.848,0.208,22,42,15,0021400047,1610612743,DEN,Denver,Alonzo Gee,,,6:23,0.0,2.0,0.0,2.0,8.0,4.0,2.0,14.0,0.0,1.0,3.0,1.0
0021400047,1610612743,DEN,Denver,201581,JJ Hickson,,DND - NBA Suspension                    ,,,,,,,0.0,,,,,,,0.0,,,2014-11-03T00:00:00,5,1610612758,SAC,Sacramento,3-1,19,32,28,31,0,0,0,0,0,0,0,0,0,0,110,0.42,0.851,0.222,21,50,15,0021400047,1610612743,DEN,Denver,JJ Hickson,,DND - NBA Suspension                    ,,,,,,,,,,,,,
0021400047,1610612743,DEN,Denver,201581,JJ Hickson,,DND - NBA Suspension                    ,,,,,,,0.0,,,,,,,0.0,,,2014-11-03T00:00:00,5,1610612743,DEN,Denver,1-2,22,24,31,28,0,0,0,0,0,0,0,0,0,0,105,0.387,0.848,0.208,22,42,15,0021400047,1610612743,DEN,Denver,JJ Hickson,,DND - NBA Suspension                    ,,,,,,,,,,,,,
