GAME_ID_x,TEAM_ID_x,TEAM_ABBREVIATION_x,TEAM_CITY_x,PLAYER_ID,PLAYER_NAME_x,START_POSITION_x,COMMENT_x,MIN_x,OFF_RATING,DEF_RATING,NET_RATING,AST_PCT,AST_TOV,AST_RATIO,OREB_PCT,DREB_PCT,REB_PCT,TM_TOV_PCT,EFG_PCT,TS_PCT,USG_PCT,PACE,PIE,GAME_DATE_EST,GAME_SEQUENCE,TEAM_ID_y,TEAM_ABBREVIATION_y,TEAM_CITY_NAME,TEAM_WINS_LOSSES,PTS_QTR1,PTS_QTR2,PTS_QTR3,PTS_QTR4,PTS_OT1,PTS_OT2,PTS_OT3,PTS_OT4,PTS_OT5,PTS_OT6,PTS_OT7,PTS_OT8,PTS_OT9,PTS_OT10,PTS,FG_PCT,FT_PCT,FG3_PCT,AST,REB,TOV,GAME_ID_y,TEAM_ID,TEAM_ABBREVIATION,TEAM_CITY_y,PLAYER_NAME_y,START_POSITION_y,COMMENT_y,MIN_y,PTS_OFF_TOV,PTS_2ND_CHANCE,PTS_FB,PTS_PAINT,OPP_PTS_OFF_TOV,OPP_PTS_2ND_CHANCE,OPP_PTS_FB,OPP_PTS_PAINT,BLK,BLKA,PF,PFD
0021400053,1610612753,ORL,Orlando,202699,Tobias Harris,F,,37:22,94.8,98.3,-3.5,0.048,1.0,5.5,0.03,0.211,0.127,5.5,0.6,0.643,0.209,93.18,0.176,2014-11-04T00:00:00,5,1610612753,ORL,Orlando,0-4,28,24,17,21,0,0,0,0,0,0,0,0,0,0,90,0.432,0.571,0.429,21,48,11,0021400053,1610612753,ORL,Orlando,Tobias Harris,F,,37:22,3.0,2.0,5.0,14.0,19.0,9.0,2.0,32.0,1.0,1.0,5.0,3.0
0021400053,1610612753,ORL,Orlando,202699,Tobias Harris,F,,37:22,94.8,98.3,-3.5,0.048,1.0,5.5,0.03,0.211,0.127,5.5,0.6,0.643,0.209,93.18,0.176,2014-11-04T00:00:00,5,1610612741,CHI,Chicago,3-1,24,30,15,29,0,0,0,0,0,0,0,0,0,0,98,0.467,0.778,0.467,23,44,12,0021400053,1610612753,ORL,Orlando,Tobias Harris,F,,37:22,3.0,2.0,5.0,14.0,19.0,9.0,2.0,32.0,1.0,1.0,5.0,3.0
0021400053,1610612753,ORL,Orlando,101112,Channing Frye,F,,35:59,88.3,105.9,-17.6,0.13,0.0,42.9,0.0,0.212,0.095,0.0,1.125,1.125,0.05,89.52,0.138,2014-11-04T00:00:00,5,1610612753,ORL,Orlando,0-4,28,24,17,21,0,0,0,0,0,0,0,0,0,0,90,0.432,0.571,0.429,21,48,11,0021400053,1610612753,ORL,Orlando,Channing Frye,F,,35:59,0.0,0.0,0.0,0.0,14.0,10.0,4.0,32.0,2.0,0.0,3.0,1.0
0021400053,1610612753,ORL,Orlando,101112,Channing Frye,F,,35:59,88.3,105.9,-17.6,0.13,0.0,42.9,0.0,0.212,0.095,0.0,1.125,1.125,0.05,89.52,0.138,2014-11-04T00:00:00,5,1610612741,CHI,Chicago,3-1,24,30,15,29,0,0,0,0,0,0,0,0,0,0,98,0.467,0.778,0.467,23,44,12,0021400053,1610612753,ORL,Orlando,Channing Frye,F,,35:59,0.0,0.0,0.0,0.0,14.0,10.0,4.0,32.0,2.0,0.0,3.0,1.0
0021400053,1610612753,ORL,Orlando,202696,Nikola Vucevic,C,,40:04,89.9,103.8,-13.9,0.1,0.33,6.7,0.054,0.324,0.183,20.0,0.432,0.432,0.326,91.05,0.109,2014-11-04T00:00:00,5,1610612753,ORL,Orlando,0-4,28,24,17,21,0,0,0,0,0,0,0,0,0,0,90,0.432,0.571,0.429,21,48,11,0021400053,1610612753,ORL,Orlando,Nikola Vucevic,C,,40:04,2.0,3.0,0.0,10.0,20.0,8.0,0.0,38.0,1.0,2.0,1.0,3.0
0021400053,1610612753,ORL,Orlando,202696,Nikola Vucevic,C,,40:04,89.9,103.8,-13.9,0.1,0.33,6.7,0.054,0.324,0.183,20.0,0.432,0.432,0.326,91.05,0.109,2014-11-04T00:00:00,5,1610612741,CHI,Chicago,3-1,24,30,15,29,0,0,0,0,0,0,0,0,0,0,98,0.467,0.778,0.467,23,44,12,0021400053,1610612753,ORL,Orlando,Nikola Vucevic,C,,40:04,2.0,3.0,0.0,10.0,20.0,8.0,0.0,38.0,1.0,2.0,1.0,3.0
0021400053,1610612753,ORL,Orlando,203095,Evan Fournier,G,,40:25,85.8,105.4,-19.6,0.087,0.0,11.8,0.025,0.057,0.04,0.0,0.429,0.437,0.169,92.15,0.05,2014-11-04T00:00:00,5,1610612753,ORL,Orlando,0-4,28,24,17,21,0,0,0,0,0,0,0,0,0,0,90,0.432,0.571,0.429,21,48,11,0021400053,1610612753,ORL,Orlando,Evan Fournier,G,,40:25,3.0,0.0,0.0,4.0,22.0,8.0,4.0,40.0,0.0,1.0,1.0,4.0
0021400053,1610612753,ORL,Orlando,203095,Evan Fournier,G,,40:25,85.8,105.4,-19.6,0.087,0.0,11.8,0.025,0.057,0.04,0.0,0.429,0.437,0.169,92.15,0.05,2014-11-04T00:00:00,5,1610612741,CHI,Chicago,3-1,24,30,15,29,0,0,0,0,0,0,0,0,0,0,98,0.467,0.778,0.467,23,44,12,0021400053,1610612753,ORL,Orlando,Evan Fournier,G,,40:25,3.0,0.0,0.0,4.0,22.0,8.0,4.0,40.0,0.0,1.0,1.0,4.0
0021400053,1610612753,ORL,Orlando,203901,Elfrid Payton,G,,31:52,91.9,94.7,-2.8,0.368,3.5,26.8,0.086,0.1,0.092,7.7,0.214,0.263,0.285,90.38,0.052,2014-11-04T00:00:00,5,1610612753,ORL,Orlando,0-4,28,24,17,21,0,0,0,0,0,0,0,0,0,0,90,0.432,0.571,0.429,21,48,11,0021400053,1610612753,ORL,Orlando,Elfrid Payton,G,,31:52,6.0,0.0,2.0,4.0,9.0,8.0,2.0,32.0,1.0,5.0,2.0,5.0
0021400053,1610612753,ORL,Orlando,203901,Elfrid Payton,G,,31:52,91.9,94.7,-2.8,0.368,3.5,26.8,0.086,0.1,0.092,7.7,0.214,0.263,0.285,90.38,0.052,2014-11-04T00:00:00,5,1610612741,CHI,Chicago,3-1,24,30,15,29,0,0,0,0,0,0,0,0,0,0,98,0.467,0.778,0.467,23,44,12,0021400053,1610612753,ORL,Orlando,Elfrid Payton,G,,31:52,6.0,0.0,2.0,4.0,9.0,8.0,2.0,32.0,1.0,5.0,2.0,5.0
0021400053,1610612753,ORL,Orlando,2557,Luke Ridnour,,,16:08,105.0,142.8,-37.7,0.214,1.5,30.0,0.077,0.143,0.111,20.0,0.4,0.4,0.174,92.29,0.052,2014-11-04T00:00:00,5,1610612753,ORL,Orlando,0-4,28,24,17,21,0,0,0,0,0,0,0,0,0,0,90,0.432,0.571,0.429,21,48,11,0021400053,1610612753,ORL,Orlando,Luke Ridnour,,,16:08,0.0,0.0,0.0,2.0,13.0,5.0,2.0,14.0,0.0,0.0,1.0,1.0
0021400053,1610612753,ORL,Orlando,2557,Luke Ridnour,,,16:08,105.0,142.8,-37.7,0.214,1.5,30.0,0.077,0.143,0.111,20.0,0.4,0.4,0.174,92.29,0.052,2014-11-04T00:00:00,5,1610612741,CHI,Chicago,3-1,24,30,15,29,0,0,0,0,0,0,0,0,0,0,98,0.467,0.778,0.467,23,44,12,0021400053,1610612753,ORL,Orlando,Luke Ridnour,,,16:08,0.0,0.0,0.0,2.0,13.0,5.0,2.0,14.0,0.0,0.0,1.0,1.0
0021400053,1610612753,ORL,Orlando,203932,Aaron Gordon,,,13:43,113.5,137.5,-24.1,0.0,0.0,0.0,0.077,0.0,0.04,0.0,0.5,0.5,0.17,92.63,0.037,2014-11-04T00:00:00,5,1610612753,ORL,Orlando,0-4,28,24,17,21,0,0,0,0,0,0,0,0,0,0,90,0.432,0.571,0.429,21,48,11,0021400053,1610612753,ORL,Orlando,Aaron Gordon,,,13:43,0.0,2.0,0.0,2.0,11.0,5.0,2.0,10.0,1.0,0.0,2.0,0.0
0021400053,1610612753,ORL,Orlando,203932,Aaron Gordon,,,13:43,113.5,137.5,-24.1,0.0,0.0,0.0,0.077,0.0,0.04,0.0,0.5,0.5,0.17,92.63,0.037,2014-11-04T00:00:00,5,1610612741,CHI,Chicago,3-1,24,30,15,29,0,0,0,0,0,0,0,0,0,0,98,0.467,0.778,0.467,23,44,12,0021400053,1610612753,ORL,Orlando,Aaron Gordon,,,13:43,0.0,2.0,0.0,2.0,11.0,5.0,2.0,10.0,1.0,0.0,2.0,0.0
0021400053,1610612753,ORL,Orlando,203473,Dewayne Dedmon,,,7:06,146.1,148.0,-1.9,0.0,0.0,0.0,0.4,0.0,0.235,0.0,0.5,0.521,0.166,85.13,-0.07,2014-11-04T00:00:00,5,1610612753,ORL,Orlando,0-4,28,24,17,21,0,0,0,0,0,0,0,0,0,0,90,0.432,0.571,0.429,21,48,11,0021400053,1610612753,ORL,Orlando,Dewayne Dedmon,,,7:06,0.0,3.0,0.0,2.0,0.0,5.0,2.0,8.0,0.0,0.0,5.0,1.0
0021400053,1610612753,ORL,Orlando,203473,Dewayne Dedmon,,,7:06,146.1,148.0,-1.9,0.0,0.0,0.0,0.4,0.0,0.235,0.0,0.5,0.521,0.166,85.13,-0.07,2014-11-04T00:00:00,5,1610612741,CHI,Chicago,3-1,24,30,15,29,0,0,0,0,0,0,0,0,0,0,98,0.467,0.778,0.467,23,44,12,0021400053,1610612753,ORL,Orlando,Dewayne Dedmon,,,7:06,0.0,3.0,0.0,2.0,0.0,5.0,2.0,8.0,0.0,0.0,5.0,1.0
0021400053,1610612753,ORL,Orlando,2732,Ben Gordon,,,17:21,127.8,136.6,-8.8,0.214,0.0,33.3,0.056,0.059,0.057,0.0,0.5,0.5,0.154,87.92,0.073,2014-11-04T00:00:00,5,1610612753,ORL,Orlando,0-4,28,24,17,21,0,0,0,0,0,0,0,0,0,0,90,0.432,0.571,0.429,21,48,11,0021400053,1610612753,ORL,Orlando,Ben Gordon,,,17:21,0.0,0.0,0.0,4.0,2.0,7.0,2.0,24.0,0.0,0.0,2.0,0.0
0021400053,1610612753,ORL,Orlando,2732,Ben Gordon,,,17:21,127.8,136.6,-8.8,0.214,0.0,33.3,0.056,0.059,0.057,0.0,0.5,0.5,0.154,87.92,0.073,2014-11-04T00:00:00,5,1610612741,CHI,Chicago,3-1,24,30,15,29,0,0,0,0,0,0,0,0,0,0,98,0.467,0.778,0.467,23,44,12,0021400053,1610612753,ORL,Orlando,Ben Gordon,,,17:21,0.0,0.0,0.0,4.0,2.0,7.0,2.0,24.0,0.0,0.0,2.0,0.0
0021400053,1610612753,ORL,Orlando,2584,Willie Green,,DNP - Coach's Decision                  ,,,,,,,0.0,,,,,,,0.0,,,2014-11-04T00:00:00,5,1610612753,ORL,Orlando,0-4,28,24,17,21,0,0,0,0,0,0,0,0,0,0,90,0.432,0.571,0.429,21,48,11,0021400053,1610612753,ORL,Orlando,Willie Green,,DNP - Coach's Decision                  ,,,,,,,,,,,,,
0021400053,1610612753,ORL,Orlando,2584,Willie Green,,DNP - Coach's Decision                  ,,,,,,,0.0,,,,,,,0.0,,,2014-11-04T00:00:00,5,1610612741,CHI,Chicago,3-1,24,30,15,29,0,0,0,0,0,0,0,0,0,0,98,0.467,0.778,0.467,23,44,12,0021400053,1610612753,ORL,Orlando,Willie Green,,DNP - Coach's Decision                  ,,,,,,,,,,,,,
0021400053,1610612753,ORL,Orlando,203090,Maurice Harkless,,DNP - Coach's Decision                  ,,,,,,,0.0,,,,,,,0.0,,,2014-11-04T00:00:00,5,1610612753,ORL,Orlando,0-4,28,24,17,21,0,0,0,0,0,0,0,0,0,0,90,0.432,0.571,0.429,21,48,11,0021400053,1610612753,ORL,Orlando,Maurice Harkless,,DNP - Coach's Decision                  ,,,,,,,,,,,,,
0021400053,1610612753,ORL,Orlando,203090,Maurice Harkless,,DNP - Coach's Decision                  ,,,,,,,0.0,,,,,,,0.0,,,2014-11-04T00:00:00,5,1610612741,CHI,Chicago,3-1,24,30,15,29,0,0,0,0,0,0,0,0,0,0,98,0.467,0.778,0.467,23,44,12,0021400053,1610612753,ORL,Orlando,Maurice Harkless,,DNP - Coach's Decision                  ,,,,,,,,,,,,,
0021400053,1610612753,ORL,Orlando,203906,Devyn Marble,,DNP - Coach's Decision                  ,,,,,,,0.0,,,,,,,0.0,,,2014-11-04T00:00:00,5,1610612753,ORL,Orlando,0-4,28,24,17,21,0,0,0,0,0,0,0,0,0,0,90,0.432,0.571,0.429,21,48,11,0021400053,1610612753,ORL,Orlando,Devyn Marble,,DNP - Coach's Decision                  ,,,,,,,,,,,,,
0021400053,1610612753,ORL,Orlando,203906,Devyn Marble,,DNP - Coach's Decision                  ,,,,,,,0.0,,,,,,,0.0,,,2014-11-04T00:00:00,5,1610612741,CHI,Chicago,3-1,24,30,15,29,0,0,0,0,0,0,0,0,0,0,98,0.467,0.778,0.467,23,44,12,0021400053,1610612753,ORL,Orlando,Devyn Marble,,DNP - Coach's Decision                  ,,,,,,,,,,,,,
0021400053,1610612753,ORL,Orlando,203094,Andrew Nicholson,,DNP - Coach's Decision                  ,,,,,,,0.0,,,,,,,0.0,,,2014-11-04T00:00:00,5,1610612753,ORL,Orlando,0-4,28,24,17,21,0,0,0,0,0,0,0,0,0,0,90,0.432,0.571,0.429,21,48,11,0021400053,1610612753,ORL,Orlando,Andrew Nicholson,,DNP - Coach's Decision                  ,,,,,,,,,,,,,
0021400053,1610612753,ORL,Orlando,203094,Andrew Nicholson,,DNP - Coach's Decision                  ,,,,,,,0.0,,,,,,,0.0,,,2014-11-04T00:00:00,5,1610612741,CHI,Chicago,3-1,24,30,15,29,0,0,0,0,0,0,0,0,0,0,98,0.467,0.778,0.467,23,44,12,0021400053,1610612753,ORL,Orlando,Andrew Nicholson,,DNP - Coach's Decision                  ,,,,,,,,,,,,,
0021400053,1610612741,CHI,Chicago,2399,Mike Dunleavy,F,,21:56,88.6,82.7,5.9,0.143,1.0,28.6,0.043,0.095,0.068,28.6,0.5,0.5,0.107,92.0,0.024,2014-11-04T00:00:00,5,1610612753,ORL,Orlando,0-4,28,24,17,21,0,0,0,0,0,0,0,0,0,0,90,0.432,0.571,0.429,21,48,11,0021400053,1610612741,CHI,Chicago,Mike Dunleavy,F,,21:56,0.0,0.0,0.0,0.0,8.0,4.0,2.0,20.0,0.0,0.0,2.0,0.0
0021400053,1610612741,CHI,Chicago,2399,Mike Dunleavy,F,,21:56,88.6,82.7,5.9,0.143,1.0,28.6,0.043,0.095,0.068,28.6,0.5,0.5,0.107,92.0,0.024,2014-11-04T00:00:00,5,1610612741,CHI,Chicago,3-1,24,30,15,29,0,0,0,0,0,0,0,0,0,0,98,0.467,0.778,0.467,23,44,12,0021400053,1610612741,CHI,Chicago,Mike Dunleavy,F,,21:56,0.0,0.0,0.0,0.0,8.0,4.0,2.0,20.0,0.0,0.0,2.0,0.0
0021400053,1610612741,CHI,Chicago,201959,Taj Gibson,F,,32:22,110.1,99.7,10.4,0.059,1.0,6.3,0.067,0.067,0.067,6.3,0.5,0.581,0.22,87.68,0.088,2014-11-04T00:00:00,5,1610612753,ORL,Orlando,0-4,28,24,17,21,0,0,0,0,0,0,0,0,0,0,90,0.432,0.571,0.429,21,48,11,0021400053,1610612741,CHI,Chicago,Taj Gibson,F,,32:22,4.0,6.0,2.0,10.0,8.0,6.0,2.0,22.0,2.0,2.0,5.0,2.0
0021400053,1610612741,CHI,Chicago,201959,Taj Gibson,F,,32:22,110.1,99.7,10.4,0.059,1.0,6.3,0.067,0.067,0.067,6.3,0.5,0.581,0.22,87.68,0.088,2014-11-04T00:00:00,5,1610612741,CHI,Chicago,3-1,24,30,15,29,0,0,0,0,0,0,0,0,0,0,98,0.467,0.778,0.467,23,44,12,0021400053,1610612741,CHI,Chicago,Taj Gibson,F,,32:22,4.0,6.0,2.0,10.0,8.0,6.0,2.0,22.0,2.0,2.0,5.0,2.0
0021400053,1610612741,CHI,Chicago,2200,Pau Gasol,C,,40:59,98.4,91.0,7.3,0.095,2.0,9.6,0.049,0.262,0.157,4.8,0.438,0.45,0.22,92.24,0.145,2014-11-04T00:00:00,5,1610612753,ORL,Orlando,0-4,28,24,17,21,0,0,0,0,0,0,0,0,0,0,90,0.432,0.571,0.429,21,48,11,0021400053,1610612741,CHI,Chicago,Pau Gasol,C,,40:59,6.0,3.0,0.0,12.0,14.0,6.0,7.0,40.0,2.0,1.0,2.0,4.0
0021400053,1610612741,CHI,Chicago,2200,Pau Gasol,C,,40:59,98.4,91.0,7.3,0.095,2.0,9.6,0.049,0.262,0.157,4.8,0.438,0.45,0.22,92.24,0.145,2014-11-04T00:00:00,5,1610612741,CHI,Chicago,3-1,24,30,15,29,0,0,0,0,0,0,0,0,0,0,98,0.467,0.778,0.467,23,44,12,0021400053,1610612741,CHI,Chicago,Pau Gasol,C,,40:59,6.0,3.0,0.0,12.0,14.0,6.0,7.0,40.0,2.0,1.0,2.0,4.0
0021400053,1610612741,CHI,Chicago,202710,Jimmy Butler,G,,35:02,97.4,94.1,3.3,0.2,1.5,12.1,0.086,0.194,0.136,8.1,0.467,0.529,0.296,92.32,0.165,2014-11-04T00:00:00,5,1610612753,ORL,Orlando,0-4,28,24,17,21,0,0,0,0,0,0,0,0,0,0,90,0.432,0.571,0.429,21,48,11,0021400053,1610612741,CHI,Chicago,Jimmy Butler,G,,35:02,6.0,0.0,0.0,10.0,14.0,6.0,7.0,36.0,2.0,1.0,2.0,9.0
0021400053,1610612741,CHI,Chicago,202710,Jimmy Butler,G,,35:02,97.4,94.1,3.3,0.2,1.5,12.1,0.086,0.194,0.136,8.1,0.467,0.529,0.296,92.32,0.165,2014-11-04T00:00:00,5,1610612741,CHI,Chicago,3-1,24,30,15,29,0,0,0,0,0,0,0,0,0,0,98,0.467,0.778,0.467,23,44,12,0021400053,1610612741,CHI,Chicago,Jimmy Butler,G,,35:02,6.0,0.0,0.0,10.0,14.0,6.0,7.0,36.0,2.0,1.0,2.0,9.0
0021400053,1610612741,CHI,Chicago,2550,Kirk Hinrich,G,,30:24,98.5,87.8,10.7,0.158,1.0,25.0,0.0,0.097,0.052,25.0,0.417,0.417,0.143,90.73,0.042,2014-11-04T00:00:00,5,1610612753,ORL,Orlando,0-4,28,24,17,21,0,0,0,0,0,0,0,0,0,0,90,0.432,0.571,0.429,21,48,11,0021400053,1610612741,CHI,Chicago,Kirk Hinrich,G,,30:24,0.0,0.0,0.0,2.0,12.0,5.0,5.0,22.0,0.0,0.0,2.0,1.0
0021400053,1610612741,CHI,Chicago,2550,Kirk Hinrich,G,,30:24,98.5,87.8,10.7,0.158,1.0,25.0,0.0,0.097,0.052,25.0,0.417,0.417,0.143,90.73,0.042,2014-11-04T00:00:00,5,1610612741,CHI,Chicago,3-1,24,30,15,29,0,0,0,0,0,0,0,0,0,0,98,0.467,0.778,0.467,23,44,12,0021400053,1610612741,CHI,Chicago,Kirk Hinrich,G,,30:24,0.0,0.0,0.0,2.0,12.0,5.0,5.0,22.0,0.0,0.0,2.0,1.0
0021400053,1610612741,CHI,Chicago,201166,Aaron Brooks,,,29:51,128.8,105.5,23.3,0.421,4.0,37.3,0.045,0.033,0.038,9.3,0.545,0.568,0.224,90.84,0.118,2014-11-04T00:00:00,5,1610612753,ORL,Orlando,0-4,28,24,17,21,0,0,0,0,0,0,0,0,0,0,90,0.432,0.571,0.429,21,48,11,0021400053,1610612741,CHI,Chicago,Aaron Brooks,,,29:51,3.0,0.0,0.0,4.0,8.0,8.0,7.0,28.0,3.0,0.0,2.0,0.0
0021400053,1610612741,CHI,Chicago,201166,Aaron Brooks,,,29:51,128.8,105.5,23.3,0.421,4.0,37.3,0.045,0.033,0.038,9.3,0.545,0.568,0.224,90.84,0.118,2014-11-04T00:00:00,5,1610612741,CHI,Chicago,3-1,24,30,15,29,0,0,0,0,0,0,0,0,0,0,98,0.467,0.778,0.467,23,44,12,0021400053,1610612741,CHI,Chicago,Aaron Brooks,,,29:51,3.0,0.0,0.0,4.0,8.0,8.0,7.0,28.0,3.0,0.0,2.0,0.0
0021400053,1610612741,CHI,Chicago,203926,Doug McDermott,,,11:39,131.6,122.3,9.3,0.0,0.0,0.0,0.0,0.071,0.04,0.0,0.75,0.82,0.29,89.38,0.244,2014-11-04T00:00:00,5,1610612753,ORL,Orlando,0-4,28,24,17,21,0,0,0,0,0,0,0,0,0,0,90,0.432,0.571,0.429,21,48,11,0021400053,1610612741,CHI,Chicago,Doug McDermott,,,11:39,0.0,2.0,2.0,6.0,0.0,3.0,0.0,10.0,0.0,1.0,0.0,4.0
0021400053,1610612741,CHI,Chicago,203926,Doug McDermott,,,11:39,131.6,122.3,9.3,0.0,0.0,0.0,0.0,0.071,0.04,0.0,0.75,0.82,0.29,89.38,0.244,2014-11-04T00:00:00,5,1610612741,CHI,Chicago,3-1,24,30,15,29,0,0,0,0,0,0,0,0,0,0,98,0.467,0.778,0.467,23,44,12,0021400053,1610612741,CHI,Chicago,Doug McDermott,,,11:39,0.0,2.0,2.0,6.0,0.0,3.0,0.0,10.0,0.0,1.0,0.0,4.0
0021400053,1610612741,CHI,Chicago,203503,Tony Snell,,,14:41,146.4,103.3,43.1,0.0,0.0,0.0,0.083,0.118,0.103,0.0,1.0,1.064,0.067,88.29,0.1,2014-11-04T00:00:00,5,1610612753,ORL,Orlando,0-4,28,24,17,21,0,0,0,0,0,0,0,0,0,0,90,0.432,0.571,0.429,21,48,11,0021400053,1610612741,CHI,Chicago,Tony Snell,,,14:41,0.0,2.0,0.0,2.0,0.0,4.0,0.0,8.0,0.0,0.0,0.0,1.0
0021400053,1610612741,CHI,Chicago,203503,Tony Snell,,,14:41,146.4,103.3,43.1,0.0,0.0,0.0,0.083,0.118,0.103,0.0,1.0,1.064,0.067,88.29,0.1,2014-11-04T00:00:00,5,1610612741,CHI,Chicago,3-1,24,30,15,29,0,0,0,0,0,0,0,0,0,0,98,0.467,0.778,0.467,23,44,12,0021400053,1610612741,CHI,Chicago,Tony Snell,,,14:41,0.0,2.0,0.0,2.0,0.0,4.0,0.0,8.0,0.0,0.0,0.0,1.0
0021400053,1610612741,CHI,Chicago,202734,E'Twaun Moore,,,0:27,0.0,100.0,-100.0,0.0,0.0,0.0,0.0,0.0,0.0,0.0,0.0,0.0,0.0,105.11,0.0,2014-11-04T00:00:00,5,1610612753,ORL,Orlando,0-4,28,24,17,21,0,0,0,0,0,0,0,0,0,0,90,0.432,0.571,0.429,21,48,11,0021400053,1610612741,CHI,Chicago,E'Twaun Moore,,,0:27,0.0,0.0,0.0,0.0,0.0,0.0,0.0,2.0,0.0,0.0,0.0,0.0
0021400053,1610612741,CHI,Chicago,202734,E'Twaun Moore,,,0:27,0.0,100.0,-100.0,0.0,0.0,0.0,0.0,0.0,0.0,0.0,0.0,0.0,0.0,105.11,0.0,2014-11-04T00:00:00,5,1610612741,CHI,Chicago,3-1,24,30,15,29,0,0,0,0,0,0,0,0,0,0,98,0.467,0.778,0.467,23,44,12,0021400053,1610612741,CHI,Chicago,E'Twaun Moore,,,0:27,0.0,0.0,0.0,0.0,0.0,0.0,0.0,2.0,0.0,0.0,0.0,0.0
0021400053,1610612741,CHI,Chicago,202703,Nikola Mirotic,,,22:39,131.8,102.5,29.3,0.235,4.0,36.8,0.0,0.25,0.146,9.2,0.6,0.68,0.151,93.58,0.131,2014-11-04T00:00:00,5,1610612753,ORL,Orlando,0-4,28,24,17,21,0,0,0,0,0,0,0,0,0,0,90,0.432,0.571,0.429,21,48,11,0021400053,1610612741,CHI,Chicago,Nikola Mirotic,,,22:39,3.0,0.0,0.0,0.0,6.0,8.0,5.0,22.0,0.0,1.0,3.0,1.0
0021400053,1610612741,CHI,Chicago,202703,Nikola Mirotic,,,22:39,131.8,102.5,29.3,0.235,4.0,36.8,0.0,0.25,0.146,9.2,0.6,0.68,0.151,93.58,0.131,2014-11-04T00:00:00,5,1610612741,CHI,Chicago,3-1,24,30,15,29,0,0,0,0,0,0,0,0,0,0,98,0.467,0.778,0.467,23,44,12,0021400053,1610612741,CHI,Chicago,Nikola Mirotic,,,22:39,3.0,0.0,0.0,0.0,6.0,8.0,5.0,22.0,0.0,1.0,3.0,1.0
0021400053,1610612741,CHI,Chicago,203946,Cameron Bairstow,,DNP - Coach's Decision                  ,,,,,,,0.0,,,,,,,0.0,,,2014-11-04T00:00:00,5,1610612753,ORL,Orlando,0-4,28,24,17,21,0,0,0,0,0,0,0,0,0,0,90,0.432,0.571,0.429,21,48,11,0021400053,1610612741,CHI,Chicago,Cameron Bairstow,,DNP - Coach's Decision                  ,,,,,,,,,,,,,
0021400053,1610612741,CHI,Chicago,203946,Cameron Bairstow,,DNP - Coach's Decision                  ,,,,,,,0.0,,,,,,,0.0,,,2014-11-04T00:00:00,5,1610612741,CHI,Chicago,3-1,24,30,15,29,0,0,0,0,0,0,0,0,0,0,98,0.467,0.778,0.467,23,44,12,0021400053,1610612741,CHI,Chicago,Cameron Bairstow,,DNP - Coach's Decision                  ,,,,,,,,,,,,,
0021400053,1610612741,CHI,Chicago,1737,Nazr Mohammed,,DNP - Coach's Decision                  ,,,,,,,0.0,,,,,,,0.0,,,2014-11-04T00:00:00,5,1610612753,ORL,Orlando,0-4,28,24,17,21,0,0,0,0,0,0,0,0,0,0,90,0.432,0.571,0.429,21,48,11,0021400053,1610612741,CHI,Chicago,Nazr Mohammed,,DNP - Coach's Decision                  ,,,,,,,,,,,,,
0021400053,1610612741,CHI,Chicago,1737,Nazr Mohammed,,DNP - Coach's Decision                  ,,,,,,,0.0,,,,,,,0.0,,,2014-11-04T00:00:00,5,1610612741,CHI,Chicago,3-1,24,30,15,29,0,0,0,0,0,0,0,0,0,0,98,0.467,0.778,0.467,23,44,12,0021400053,1610612741,CHI,Chicago,Nazr Mohammed,,DNP - Coach's Decision                  ,,,,,,,,,,,,,
0021400053,1610612741,CHI,Chicago,201565,Derrick Rose,,DNP - Coach's Decision                  ,,,,,,,0.0,,,,,,,0.0,,,2014-11-04T00:00:00,5,1610612753,ORL,Orlando,0-4,28,24,17,21,0,0,0,0,0,0,0,0,0,0,90,0.432,0.571,0.429,21,48,11,0021400053,1610612741,CHI,Chicago,Derrick Rose,,DNP - Coach's Decision                  ,,,,,,,,,,,,,
0021400053,1610612741,CHI,Chicago,201565,Derrick Rose,,DNP - Coach's Decision                  ,,,,,,,0.0,,,,,,,0.0,,,2014-11-04T00:00:00,5,1610612741,CHI,Chicago,3-1,24,30,15,29,0,0,0,0,0,0,0,0,0,0,98,0.467,0.778,0.467,23,44,12,0021400053,1610612741,CHI,Chicago,Derrick Rose,,DNP - Coach's Decision                  ,,,,,,,,,,,,,
