GAME_ID_x,TEAM_ID_x,TEAM_ABBREVIATION_x,TEAM_CITY_x,PLAYER_ID,PLAYER_NAME_x,START_POSITION_x,COMMENT_x,MIN_x,OFF_RATING,DEF_RATING,NET_RATING,AST_PCT,AST_TOV,AST_RATIO,OREB_PCT,DREB_PCT,REB_PCT,TM_TOV_PCT,EFG_PCT,TS_PCT,USG_PCT,PACE,PIE,GAME_DATE_EST,GAME_SEQUENCE,TEAM_ID_y,TEAM_ABBREVIATION_y,TEAM_CITY_NAME,TEAM_WINS_LOSSES,PTS_QTR1,PTS_QTR2,PTS_QTR3,PTS_QTR4,PTS_OT1,PTS_OT2,PTS_OT3,PTS_OT4,PTS_OT5,PTS_OT6,PTS_OT7,PTS_OT8,PTS_OT9,PTS_OT10,PTS,FG_PCT,FT_PCT,FG3_PCT,AST,REB,TOV,GAME_ID_y,TEAM_ID,TEAM_ABBREVIATION,TEAM_CITY_y,PLAYER_NAME_y,START_POSITION_y,COMMENT_y,MIN_y,PTS_OFF_TOV,PTS_2ND_CHANCE,PTS_FB,PTS_PAINT,OPP_PTS_OFF_TOV,OPP_PTS_2ND_CHANCE,OPP_PTS_FB,OPP_PTS_PAINT,BLK,BLKA,PF,PFD
0021400057,1610612748,MIA,Miami,2736,Luol Deng,F,,27:42,96.4,93.4,3.0,0.0,0.0,0.0,0.04,0.074,0.058,0.0,0.333,0.402,0.193,94.96,0.062,2014-11-05T00:00:00,1,1610612748,MIA,Miami,3-2,17,27,18,27,0,0,0,0,0,0,0,0,0,0,89,0.39,0.806,0.182,19,36,8,0021400057,1610612748,MIA,Miami,Luol Deng,F,,27:42,2.0,0.0,0.0,6.0,4.0,11.0,7.0,26.0,0.0,3.0,1.0,3.0
0021400057,1610612748,MIA,Miami,2736,Luol Deng,F,,27:42,96.4,93.4,3.0,0.0,0.0,0.0,0.04,0.074,0.058,0.0,0.333,0.402,0.193,94.96,0.062,2014-11-05T00:00:00,1,1610612766,CHA,Charlotte,2-3,24,22,26,24,0,0,0,0,0,0,0,0,0,0,96,0.427,0.724,0.278,23,49,12,0021400057,1610612748,MIA,Miami,Luol Deng,F,,27:42,2.0,0.0,0.0,6.0,4.0,11.0,7.0,26.0,0.0,3.0,1.0,3.0
0021400057,1610612748,MIA,Miami,200761,Shawne Williams,F,,29:45,100.9,100.9,0.1,0.059,0.0,16.7,0.0,0.167,0.091,0.0,0.9,0.9,0.087,94.35,0.109,2014-11-05T00:00:00,1,1610612748,MIA,Miami,3-2,17,27,18,27,0,0,0,0,0,0,0,0,0,0,89,0.39,0.806,0.182,19,36,8,0021400057,1610612748,MIA,Miami,Shawne Williams,F,,29:45,0.0,0.0,0.0,0.0,2.0,15.0,8.0,36.0,3.0,0.0,4.0,0.0
0021400057,1610612748,MIA,Miami,200761,Shawne Williams,F,,29:45,100.9,100.9,0.1,0.059,0.0,16.7,0.0,0.167,0.091,0.0,0.9,0.9,0.087,94.35,0.109,2014-11-05T00:00:00,1,1610612766,CHA,Charlotte,2-3,24,22,26,24,0,0,0,0,0,0,0,0,0,0,96,0.427,0.724,0.278,23,49,12,0021400057,1610612748,MIA,Miami,Shawne Williams,F,,29:45,0.0,0.0,0.0,0.0,2.0,15.0,8.0,36.0,3.0,0.0,4.0,0.0
0021400057,1610612748,MIA,Miami,2547,Chris Bosh,C,,37:35,92.2,96.0,-3.7,0.056,0.5,4.1,0.061,0.367,0.206,8.2,0.417,0.534,0.291,97.01,0.211,2014-11-05T00:00:00,1,1610612748,MIA,Miami,3-2,17,27,18,27,0,0,0,0,0,0,0,0,0,0,89,0.39,0.806,0.182,19,36,8,0021400057,1610612748,MIA,Miami,Chris Bosh,C,,37:35,0.0,2.0,0.0,2.0,10.0,13.0,11.0,38.0,0.0,1.0,1.0,5.0
0021400057,1610612748,MIA,Miami,2547,Chris Bosh,C,,37:35,92.2,96.0,-3.7,0.056,0.5,4.1,0.061,0.367,0.206,8.2,0.417,0.534,0.291,97.01,0.211,2014-11-05T00:00:00,1,1610612766,CHA,Charlotte,2-3,24,22,26,24,0,0,0,0,0,0,0,0,0,0,96,0.427,0.724,0.278,23,49,12,0021400057,1610612748,MIA,Miami,Chris Bosh,C,,37:35,0.0,2.0,0.0,2.0,10.0,13.0,11.0,38.0,0.0,1.0,1.0,5.0
0021400057,1610612748,MIA,Miami,2548,Dwyane Wade,G,,33:12,98.3,96.5,1.8,0.583,2.33,22.2,0.067,0.061,0.063,9.5,0.5,0.581,0.36,95.77,0.209,2014-11-05T00:00:00,1,1610612748,MIA,Miami,3-2,17,27,18,27,0,0,0,0,0,0,0,0,0,0,89,0.39,0.806,0.182,19,36,8,0021400057,1610612748,MIA,Miami,Dwyane Wade,G,,33:12,4.0,0.0,6.0,16.0,2.0,15.0,8.0,38.0,1.0,3.0,3.0,6.0
0021400057,1610612748,MIA,Miami,2548,Dwyane Wade,G,,33:12,98.3,96.5,1.8,0.583,2.33,22.2,0.067,0.061,0.063,9.5,0.5,0.581,0.36,95.77,0.209,2014-11-05T00:00:00,1,1610612766,CHA,Charlotte,2-3,24,22,26,24,0,0,0,0,0,0,0,0,0,0,96,0.427,0.724,0.278,23,49,12,0021400057,1610612748,MIA,Miami,Dwyane Wade,G,,33:12,4.0,0.0,6.0,16.0,2.0,15.0,8.0,38.0,1.0,3.0,3.0,6.0
0021400057,1610612748,MIA,Miami,202708,Norris Cole,G,,22:01,81.9,105.2,-23.3,0.1,0.0,14.3,0.0,0.167,0.087,0.0,0.167,0.167,0.142,91.57,0.0,2014-11-05T00:00:00,1,1610612748,MIA,Miami,3-2,17,27,18,27,0,0,0,0,0,0,0,0,0,0,89,0.39,0.806,0.182,19,36,8,0021400057,1610612748,MIA,Miami,Norris Cole,G,,22:01,0.0,0.0,2.0,2.0,2.0,11.0,9.0,26.0,0.0,0.0,2.0,0.0
0021400057,1610612748,MIA,Miami,202708,Norris Cole,G,,22:01,81.9,105.2,-23.3,0.1,0.0,14.3,0.0,0.167,0.087,0.0,0.167,0.167,0.142,91.57,0.0,2014-11-05T00:00:00,1,1610612766,CHA,Charlotte,2-3,24,22,26,24,0,0,0,0,0,0,0,0,0,0,96,0.427,0.724,0.278,23,49,12,0021400057,1610612748,MIA,Miami,Norris Cole,G,,22:01,0.0,0.0,2.0,2.0,2.0,11.0,9.0,26.0,0.0,0.0,2.0,0.0
0021400057,1610612748,MIA,Miami,203120,Justin Hamilton,,,18:01,89.3,129.2,-39.9,0.2,0.0,20.5,0.056,0.0,0.029,0.0,0.667,0.773,0.113,87.6,0.062,2014-11-05T00:00:00,1,1610612748,MIA,Miami,3-2,17,27,18,27,0,0,0,0,0,0,0,0,0,0,89,0.39,0.806,0.182,19,36,8,0021400057,1610612748,MIA,Miami,Justin Hamilton,,,18:01,0.0,2.0,0.0,4.0,4.0,10.0,7.0,16.0,0.0,0.0,3.0,1.0
0021400057,1610612748,MIA,Miami,203120,Justin Hamilton,,,18:01,89.3,129.2,-39.9,0.2,0.0,20.5,0.056,0.0,0.029,0.0,0.667,0.773,0.113,87.6,0.062,2014-11-05T00:00:00,1,1610612766,CHA,Charlotte,2-3,24,22,26,24,0,0,0,0,0,0,0,0,0,0,96,0.427,0.724,0.278,23,49,12,0021400057,1610612748,MIA,Miami,Justin Hamilton,,,18:01,0.0,2.0,0.0,4.0,4.0,10.0,7.0,16.0,0.0,0.0,3.0,1.0
0021400057,1610612748,MIA,Miami,201596,Mario Chalmers,,,32:00,95.5,110.3,-14.8,0.158,1.5,20.3,0.0,0.045,0.02,13.6,0.25,0.307,0.171,94.02,-0.032,2014-11-05T00:00:00,1,1610612748,MIA,Miami,3-2,17,27,18,27,0,0,0,0,0,0,0,0,0,0,89,0.39,0.806,0.182,19,36,8,0021400057,1610612748,MIA,Miami,Mario Chalmers,,,32:00,1.0,3.0,0.0,4.0,10.0,12.0,9.0,26.0,0.0,1.0,4.0,6.0
0021400057,1610612748,MIA,Miami,201596,Mario Chalmers,,,32:00,95.5,110.3,-14.8,0.158,1.5,20.3,0.0,0.045,0.02,13.6,0.25,0.307,0.171,94.02,-0.032,2014-11-05T00:00:00,1,1610612766,CHA,Charlotte,2-3,24,22,26,24,0,0,0,0,0,0,0,0,0,0,96,0.427,0.724,0.278,23,49,12,0021400057,1610612748,MIA,Miami,Mario Chalmers,,,32:00,1.0,3.0,0.0,4.0,10.0,12.0,9.0,26.0,0.0,1.0,4.0,6.0
0021400057,1610612748,MIA,Miami,203516,James Ennis III,,,6:01,100.0,82.7,17.3,0.2,0.0,33.3,0.0,0.333,0.182,0.0,0.0,0.0,0.167,83.29,0.0,2014-11-05T00:00:00,1,1610612748,MIA,Miami,3-2,17,27,18,27,0,0,0,0,0,0,0,0,0,0,89,0.39,0.806,0.182,19,36,8,0021400057,1610612748,MIA,Miami,James Ennis III,,,6:01,0.0,0.0,0.0,0.0,4.0,2.0,2.0,6.0,0.0,1.0,1.0,0.0
0021400057,1610612748,MIA,Miami,203516,James Ennis III,,,6:01,100.0,82.7,17.3,0.2,0.0,33.3,0.0,0.333,0.182,0.0,0.0,0.0,0.167,83.29,0.0,2014-11-05T00:00:00,1,1610612766,CHA,Charlotte,2-3,24,22,26,24,0,0,0,0,0,0,0,0,0,0,96,0.427,0.724,0.278,23,49,12,0021400057,1610612748,MIA,Miami,James Ennis III,,,6:01,0.0,0.0,0.0,0.0,4.0,2.0,2.0,6.0,0.0,1.0,1.0,0.0
0021400057,1610612748,MIA,Miami,201177,Josh McRoberts,,,7:44,100.9,94.0,6.8,0.2,1.0,33.3,0.0,0.143,0.083,33.3,1.0,1.0,0.134,82.68,0.098,2014-11-05T00:00:00,1,1610612748,MIA,Miami,3-2,17,27,18,27,0,0,0,0,0,0,0,0,0,0,89,0.39,0.806,0.182,19,36,8,0021400057,1610612748,MIA,Miami,Josh McRoberts,,,7:44,2.0,0.0,2.0,2.0,4.0,2.0,0.0,6.0,0.0,0.0,1.0,0.0
0021400057,1610612748,MIA,Miami,201177,Josh McRoberts,,,7:44,100.9,94.0,6.8,0.2,1.0,33.3,0.0,0.143,0.083,33.3,1.0,1.0,0.134,82.68,0.098,2014-11-05T00:00:00,1,1610612766,CHA,Charlotte,2-3,24,22,26,24,0,0,0,0,0,0,0,0,0,0,96,0.427,0.724,0.278,23,49,12,0021400057,1610612748,MIA,Miami,Josh McRoberts,,,7:44,2.0,0.0,2.0,2.0,4.0,2.0,0.0,6.0,0.0,0.0,1.0,0.0
0021400057,1610612748,MIA,Miami,203894,Shabazz Napier,,,25:59,107.0,98.0,9.0,0.176,0.0,25.5,0.0,0.105,0.051,0.0,0.286,0.4,0.155,95.51,0.027,2014-11-05T00:00:00,1,1610612748,MIA,Miami,3-2,17,27,18,27,0,0,0,0,0,0,0,0,0,0,89,0.39,0.806,0.182,19,36,8,0021400057,1610612748,MIA,Miami,Shabazz Napier,,,25:59,2.0,0.0,0.0,4.0,8.0,9.0,4.0,22.0,0.0,0.0,5.0,3.0
0021400057,1610612748,MIA,Miami,203894,Shabazz Napier,,,25:59,107.0,98.0,9.0,0.176,0.0,25.5,0.0,0.105,0.051,0.0,0.286,0.4,0.155,95.51,0.027,2014-11-05T00:00:00,1,1610612766,CHA,Charlotte,2-3,24,22,26,24,0,0,0,0,0,0,0,0,0,0,96,0.427,0.724,0.278,23,49,12,0021400057,1610612748,MIA,Miami,Shabazz Napier,,,25:59,2.0,0.0,0.0,4.0,8.0,9.0,4.0,22.0,0.0,0.0,5.0,3.0
0021400057,1610612748,MIA,Miami,200769,Shannon Brown,,DNP - Coach's Decision                  ,,,,,,,0.0,,,,,,,0.0,,,2014-11-05T00:00:00,1,1610612748,MIA,Miami,3-2,17,27,18,27,0,0,0,0,0,0,0,0,0,0,89,0.39,0.806,0.182,19,36,8,0021400057,1610612748,MIA,Miami,Shannon Brown,,DNP - Coach's Decision                  ,,,,,,,,,,,,,
0021400057,1610612748,MIA,Miami,200769,Shannon Brown,,DNP - Coach's Decision                  ,,,,,,,0.0,,,,,,,0.0,,,2014-11-05T00:00:00,1,1610612766,CHA,Charlotte,2-3,24,22,26,24,0,0,0,0,0,0,0,0,0,0,96,0.427,0.724,0.278,23,49,12,0021400057,1610612748,MIA,Miami,Shannon Brown,,DNP - Coach's Decision                  ,,,,,,,,,,,,,
0021400057,1610612748,MIA,Miami,203958,Andre Dawkins,,DNP - Coach's Decision                  ,,,,,,,0.0,,,,,,,0.0,,,2014-11-05T00:00:00,1,1610612748,MIA,Miami,3-2,17,27,18,27,0,0,0,0,0,0,0,0,0,0,89,0.39,0.806,0.182,19,36,8,0021400057,1610612748,MIA,Miami,Andre Dawkins,,DNP - Coach's Decision                  ,,,,,,,,,,,,,
0021400057,1610612748,MIA,Miami,203958,Andre Dawkins,,DNP - Coach's Decision                  ,,,,,,,0.0,,,,,,,0.0,,,2014-11-05T00:00:00,1,1610612766,CHA,Charlotte,2-3,24,22,26,24,0,0,0,0,0,0,0,0,0,0,96,0.427,0.724,0.278,23,49,12,0021400057,1610612748,MIA,Miami,Andre Dawkins,,DNP - Coach's Decision                  ,,,,,,,,,,,,,
0021400057,1610612748,MIA,Miami,2617,Udonis Haslem,,DNP - Coach's Decision                  ,,,,,,,0.0,,,,,,,0.0,,,2014-11-05T00:00:00,1,1610612748,MIA,Miami,3-2,17,27,18,27,0,0,0,0,0,0,0,0,0,0,89,0.39,0.806,0.182,19,36,8,0021400057,1610612748,MIA,Miami,Udonis Haslem,,DNP - Coach's Decision                  ,,,,,,,,,,,,,
0021400057,1610612748,MIA,Miami,2617,Udonis Haslem,,DNP - Coach's Decision                  ,,,,,,,0.0,,,,,,,0.0,,,2014-11-05T00:00:00,1,1610612766,CHA,Charlotte,2-3,24,22,26,24,0,0,0,0,0,0,0,0,0,0,96,0.427,0.724,0.278,23,49,12,0021400057,1610612748,MIA,Miami,Udonis Haslem,,DNP - Coach's Decision                  ,,,,,,,,,,,,,
0021400057,1610612766,CHA,Charlotte,202362,Lance Stephenson,F,,36:04,95.8,99.0,-3.2,0.19,1.33,19.3,0.088,0.323,0.2,14.5,0.25,0.291,0.204,92.95,0.062,2014-11-05T00:00:00,1,1610612748,MIA,Miami,3-2,17,27,18,27,0,0,0,0,0,0,0,0,0,0,89,0.39,0.806,0.182,19,36,8,0021400057,1610612766,CHA,Charlotte,Lance Stephenson,F,,36:04,0.0,5.0,0.0,6.0,9.0,5.0,10.0,30.0,1.0,3.0,4.0,2.0
0021400057,1610612766,CHA,Charlotte,202362,Lance Stephenson,F,,36:04,95.8,99.0,-3.2,0.19,1.33,19.3,0.088,0.323,0.2,14.5,0.25,0.291,0.204,92.95,0.062,2014-11-05T00:00:00,1,1610612766,CHA,Charlotte,2-3,24,22,26,24,0,0,0,0,0,0,0,0,0,0,96,0.427,0.724,0.278,23,49,12,0021400057,1610612766,CHA,Charlotte,Lance Stephenson,F,,36:04,0.0,5.0,0.0,6.0,9.0,5.0,10.0,30.0,1.0,3.0,4.0,2.0
0021400057,1610612766,CHA,Charlotte,101107,Marvin Williams,F,,29:59,91.4,108.5,-17.0,0.059,0.33,10.0,0.037,0.182,0.102,30.0,0.5,0.5,0.134,96.98,0.036,2014-11-05T00:00:00,1,1610612748,MIA,Miami,3-2,17,27,18,27,0,0,0,0,0,0,0,0,0,0,89,0.39,0.806,0.182,19,36,8,0021400057,1610612766,CHA,Charlotte,Marvin Williams,F,,29:59,2.0,0.0,4.0,6.0,9.0,2.0,10.0,30.0,0.0,0.0,2.0,0.0
0021400057,1610612766,CHA,Charlotte,101107,Marvin Williams,F,,29:59,91.4,108.5,-17.0,0.059,0.33,10.0,0.037,0.182,0.102,30.0,0.5,0.5,0.134,96.98,0.036,2014-11-05T00:00:00,1,1610612766,CHA,Charlotte,2-3,24,22,26,24,0,0,0,0,0,0,0,0,0,0,96,0.427,0.724,0.278,23,49,12,0021400057,1610612766,CHA,Charlotte,Marvin Williams,F,,29:59,2.0,0.0,4.0,6.0,9.0,2.0,10.0,30.0,0.0,0.0,2.0,0.0
0021400057,1610612766,CHA,Charlotte,2744,Al Jefferson,C,,31:37,94.3,101.3,-6.9,0.091,1.0,3.4,0.161,0.192,0.175,3.4,0.52,0.515,0.378,93.23,0.225,2014-11-05T00:00:00,1,1610612748,MIA,Miami,3-2,17,27,18,27,0,0,0,0,0,0,0,0,0,0,89,0.39,0.806,0.182,19,36,8,0021400057,1610612766,CHA,Charlotte,Al Jefferson,C,,31:37,0.0,7.0,2.0,18.0,9.0,0.0,6.0,22.0,3.0,0.0,1.0,4.0
0021400057,1610612766,CHA,Charlotte,2744,Al Jefferson,C,,31:37,94.3,101.3,-6.9,0.091,1.0,3.4,0.161,0.192,0.175,3.4,0.52,0.515,0.378,93.23,0.225,2014-11-05T00:00:00,1,1610612766,CHA,Charlotte,2-3,24,22,26,24,0,0,0,0,0,0,0,0,0,0,96,0.427,0.724,0.278,23,49,12,0021400057,1610612766,CHA,Charlotte,Al Jefferson,C,,31:37,0.0,7.0,2.0,18.0,9.0,0.0,6.0,22.0,3.0,0.0,1.0,4.0
0021400057,1610612766,CHA,Charlotte,201945,Gerald Henderson,G,,18:22,99.5,100.4,-1.0,0.2,0.0,42.9,0.0,0.2,0.097,0.0,0.5,0.5,0.097,95.43,0.119,2014-11-05T00:00:00,1,1610612748,MIA,Miami,3-2,17,27,18,27,0,0,0,0,0,0,0,0,0,0,89,0.39,0.806,0.182,19,36,8,0021400057,1610612766,CHA,Charlotte,Gerald Henderson,G,,18:22,0.0,0.0,0.0,4.0,4.0,0.0,4.0,12.0,0.0,0.0,1.0,1.0
0021400057,1610612766,CHA,Charlotte,201945,Gerald Henderson,G,,18:22,99.5,100.4,-1.0,0.2,0.0,42.9,0.0,0.2,0.097,0.0,0.5,0.5,0.097,95.43,0.119,2014-11-05T00:00:00,1,1610612766,CHA,Charlotte,2-3,24,22,26,24,0,0,0,0,0,0,0,0,0,0,96,0.427,0.724,0.278,23,49,12,0021400057,1610612766,CHA,Charlotte,Gerald Henderson,G,,18:22,0.0,0.0,0.0,4.0,4.0,0.0,4.0,12.0,0.0,0.0,1.0,1.0
0021400057,1610612766,CHA,Charlotte,202689,Kemba Walker,G,,34:14,102.5,90.4,12.1,0.318,7.0,42.1,0.0,0.125,0.062,6.0,1.0,1.042,0.117,95.77,0.244,2014-11-05T00:00:00,1,1610612748,MIA,Miami,3-2,17,27,18,27,0,0,0,0,0,0,0,0,0,0,89,0.39,0.806,0.182,19,36,8,0021400057,1610612766,CHA,Charlotte,Kemba Walker,G,,34:14,2.0,0.0,6.0,6.0,6.0,3.0,6.0,26.0,0.0,0.0,4.0,5.0
0021400057,1610612766,CHA,Charlotte,202689,Kemba Walker,G,,34:14,102.5,90.4,12.1,0.318,7.0,42.1,0.0,0.125,0.062,6.0,1.0,1.042,0.117,95.77,0.244,2014-11-05T00:00:00,1,1610612766,CHA,Charlotte,2-3,24,22,26,24,0,0,0,0,0,0,0,0,0,0,96,0.427,0.724,0.278,23,49,12,0021400057,1610612766,CHA,Charlotte,Kemba Walker,G,,34:14,2.0,0.0,6.0,6.0,6.0,3.0,6.0,26.0,0.0,0.0,4.0,5.0
0021400057,1610612766,CHA,Charlotte,203798,PJ Hairston,,,16:17,131.1,59.4,71.6,0.167,0.0,16.8,0.0,0.111,0.061,0.0,0.333,0.354,0.265,90.73,0.081,2014-11-05T00:00:00,1,1610612748,MIA,Miami,3-2,17,27,18,27,0,0,0,0,0,0,0,0,0,0,89,0.39,0.806,0.182,19,36,8,0021400057,1610612766,CHA,Charlotte,PJ Hairston,,,16:17,0.0,1.0,0.0,0.0,2.0,3.0,0.0,8.0,3.0,0.0,1.0,1.0
0021400057,1610612766,CHA,Charlotte,203798,PJ Hairston,,,16:17,131.1,59.4,71.6,0.167,0.0,16.8,0.0,0.111,0.061,0.0,0.333,0.354,0.265,90.73,0.081,2014-11-05T00:00:00,1,1610612766,CHA,Charlotte,2-3,24,22,26,24,0,0,0,0,0,0,0,0,0,0,96,0.427,0.724,0.278,23,49,12,0021400057,1610612766,CHA,Charlotte,PJ Hairston,,,16:17,0.0,1.0,0.0,0.0,2.0,3.0,0.0,8.0,3.0,0.0,1.0,1.0
0021400057,1610612766,CHA,Charlotte,203469,Cody Zeller,,,18:23,121.9,72.8,49.1,0.091,0.5,8.6,0.188,0.238,0.216,17.2,0.667,0.752,0.252,92.72,0.242,2014-11-05T00:00:00,1,1610612748,MIA,Miami,3-2,17,27,18,27,0,0,0,0,0,0,0,0,0,0,89,0.39,0.806,0.182,19,36,8,0021400057,1610612766,CHA,Charlotte,Cody Zeller,,,18:23,2.0,7.0,1.0,6.0,2.0,5.0,2.0,12.0,1.0,0.0,5.0,4.0
0021400057,1610612766,CHA,Charlotte,203469,Cody Zeller,,,18:23,121.9,72.8,49.1,0.091,0.5,8.6,0.188,0.238,0.216,17.2,0.667,0.752,0.252,92.72,0.242,2014-11-05T00:00:00,1,1610612766,CHA,Charlotte,2-3,24,22,26,24,0,0,0,0,0,0,0,0,0,0,96,0.427,0.724,0.278,23,49,12,0021400057,1610612766,CHA,Charlotte,Cody Zeller,,,18:23,2.0,7.0,1.0,6.0,2.0,5.0,2.0,12.0,1.0,0.0,5.0,4.0
0021400057,1610612766,CHA,Charlotte,202390,Gary Neal,,,25:17,91.9,110.9,-19.0,0.143,1.0,16.8,0.048,0.1,0.073,16.8,0.214,0.254,0.18,95.42,-0.047,2014-11-05T00:00:00,1,1610612748,MIA,Miami,3-2,17,27,18,27,0,0,0,0,0,0,0,0,0,0,89,0.39,0.806,0.182,19,36,8,0021400057,1610612766,CHA,Charlotte,Gary Neal,,,25:17,0.0,0.0,0.0,0.0,7.0,6.0,6.0,30.0,0.0,1.0,3.0,4.0
0021400057,1610612766,CHA,Charlotte,202390,Gary Neal,,,25:17,91.9,110.9,-19.0,0.143,1.0,16.8,0.048,0.1,0.073,16.8,0.214,0.254,0.18,95.42,-0.047,2014-11-05T00:00:00,1,1610612766,CHA,Charlotte,2-3,24,22,26,24,0,0,0,0,0,0,0,0,0,0,96,0.427,0.724,0.278,23,49,12,0021400057,1610612766,CHA,Charlotte,Gary Neal,,,25:17,0.0,0.0,0.0,0.0,7.0,6.0,6.0,30.0,0.0,1.0,3.0,4.0
0021400057,1610612766,CHA,Charlotte,101131,Jason Maxiell,,,16:01,112.2,88.8,23.4,0.0,0.0,0.0,0.0,0.067,0.037,0.0,0.4,0.4,0.159,89.61,0.032,2014-11-05T00:00:00,1,1610612748,MIA,Miami,3-2,17,27,18,27,0,0,0,0,0,0,0,0,0,0,89,0.39,0.806,0.182,19,36,8,0021400057,1610612766,CHA,Charlotte,Jason Maxiell,,,16:01,4.0,0.0,0.0,2.0,2.0,7.0,2.0,16.0,1.0,0.0,2.0,1.0
0021400057,1610612766,CHA,Charlotte,101131,Jason Maxiell,,,16:01,112.2,88.8,23.4,0.0,0.0,0.0,0.0,0.067,0.037,0.0,0.4,0.4,0.159,89.61,0.032,2014-11-05T00:00:00,1,1610612766,CHA,Charlotte,2-3,24,22,26,24,0,0,0,0,0,0,0,0,0,0,96,0.427,0.724,0.278,23,49,12,0021400057,1610612766,CHA,Charlotte,Jason Maxiell,,,16:01,4.0,0.0,0.0,2.0,2.0,7.0,2.0,16.0,1.0,0.0,2.0,1.0
0021400057,1610612766,CHA,Charlotte,203148,Brian Roberts,,,13:46,97.9,110.4,-12.5,0.25,0.0,34.7,0.0,0.0,0.0,0.0,0.0,0.532,0.147,88.56,0.078,2014-11-05T00:00:00,1,1610612748,MIA,Miami,3-2,17,27,18,27,0,0,0,0,0,0,0,0,0,0,89,0.39,0.806,0.182,19,36,8,0021400057,1610612766,CHA,Charlotte,Brian Roberts,,,13:46,0.0,0.0,0.0,0.0,5.0,4.0,4.0,14.0,0.0,0.0,1.0,3.0
0021400057,1610612766,CHA,Charlotte,203148,Brian Roberts,,,13:46,97.9,110.4,-12.5,0.25,0.0,34.7,0.0,0.0,0.0,0.0,0.0,0.532,0.147,88.56,0.078,2014-11-05T00:00:00,1,1610612766,CHA,Charlotte,2-3,24,22,26,24,0,0,0,0,0,0,0,0,0,0,96,0.427,0.724,0.278,23,49,12,0021400057,1610612766,CHA,Charlotte,Brian Roberts,,,13:46,0.0,0.0,0.0,0.0,5.0,4.0,4.0,14.0,0.0,0.0,1.0,3.0
0021400057,1610612766,CHA,Charlotte,202687,Bismack Biyombo,,DNP - Coach's Decision                  ,,,,,,,0.0,,,,,,,0.0,,,2014-11-05T00:00:00,1,1610612748,MIA,Miami,3-2,17,27,18,27,0,0,0,0,0,0,0,0,0,0,89,0.39,0.806,0.182,19,36,8,0021400057,1610612766,CHA,Charlotte,Bismack Biyombo,,DNP - Coach's Decision                  ,,,,,,,,,,,,,
0021400057,1610612766,CHA,Charlotte,202687,Bismack Biyombo,,DNP - Coach's Decision                  ,,,,,,,0.0,,,,,,,0.0,,,2014-11-05T00:00:00,1,1610612766,CHA,Charlotte,2-3,24,22,26,24,0,0,0,0,0,0,0,0,0,0,96,0.427,0.724,0.278,23,49,12,0021400057,1610612766,CHA,Charlotte,Bismack Biyombo,,DNP - Coach's Decision                  ,,,,,,,,,,,,,
0021400057,1610612766,CHA,Charlotte,2457,Jannero Pargo,,DNP - Coach's Decision                  ,,,,,,,0.0,,,,,,,0.0,,,2014-11-05T00:00:00,1,1610612748,MIA,Miami,3-2,17,27,18,27,0,0,0,0,0,0,0,0,0,0,89,0.39,0.806,0.182,19,36,8,0021400057,1610612766,CHA,Charlotte,Jannero Pargo,,DNP - Coach's Decision                  ,,,,,,,,,,,,,
0021400057,1610612766,CHA,Charlotte,2457,Jannero Pargo,,DNP - Coach's Decision                  ,,,,,,,0.0,,,,,,,0.0,,,2014-11-05T00:00:00,1,1610612766,CHA,Charlotte,2-3,24,22,26,24,0,0,0,0,0,0,0,0,0,0,96,0.427,0.724,0.278,23,49,12,0021400057,1610612766,CHA,Charlotte,Jannero Pargo,,DNP - Coach's Decision                  ,,,,,,,,,,,,,
0021400057,1610612766,CHA,Charlotte,203943,Noah Vonleh,,DNP - Coach's Decision                  ,,,,,,,0.0,,,,,,,0.0,,,2014-11-05T00:00:00,1,1610612748,MIA,Miami,3-2,17,27,18,27,0,0,0,0,0,0,0,0,0,0,89,0.39,0.806,0.182,19,36,8,0021400057,1610612766,CHA,Charlotte,Noah Vonleh,,DNP - Coach's Decision                  ,,,,,,,,,,,,,
0021400057,1610612766,CHA,Charlotte,203943,Noah Vonleh,,DNP - Coach's Decision                  ,,,,,,,0.0,,,,,,,0.0,,,2014-11-05T00:00:00,1,1610612766,CHA,Charlotte,2-3,24,22,26,24,0,0,0,0,0,0,0,0,0,0,96,0.427,0.724,0.278,23,49,12,0021400057,1610612766,CHA,Charlotte,Noah Vonleh,,DNP - Coach's Decision                  ,,,,,,,,,,,,,
