GAME_ID_x,TEAM_ID_x,TEAM_ABBREVIATION_x,TEAM_CITY_x,PLAYER_ID,PLAYER_NAME_x,START_POSITION_x,COMMENT_x,MIN_x,OFF_RATING,DEF_RATING,NET_RATING,AST_PCT,AST_TOV,AST_RATIO,OREB_PCT,DREB_PCT,REB_PCT,TM_TOV_PCT,EFG_PCT,TS_PCT,USG_PCT,PACE,PIE,GAME_DATE_EST,GAME_SEQUENCE,TEAM_ID_y,TEAM_ABBREVIATION_y,TEAM_CITY_NAME,TEAM_WINS_LOSSES,PTS_QTR1,PTS_QTR2,PTS_QTR3,PTS_QTR4,PTS_OT1,PTS_OT2,PTS_OT3,PTS_OT4,PTS_OT5,PTS_OT6,PTS_OT7,PTS_OT8,PTS_OT9,PTS_OT10,PTS,FG_PCT,FT_PCT,FG3_PCT,AST,REB,TOV,GAME_ID_y,TEAM_ID,TEAM_ABBREVIATION,TEAM_CITY_y,PLAYER_NAME_y,START_POSITION_y,COMMENT_y,MIN_y,PTS_OFF_TOV,PTS_2ND_CHANCE,PTS_FB,PTS_PAINT,OPP_PTS_OFF_TOV,OPP_PTS_2ND_CHANCE,OPP_PTS_FB,OPP_PTS_PAINT,BLK,BLKA,PF,PFD
0021400084,1610612752,NYK,New York,202697,Iman Shumpert,F,,34:34,107.8,110.8,-3.0,0.35,1.75,29.3,0.034,0.094,0.066,16.8,0.75,0.738,0.226,92.07,0.144,2014-11-08T00:00:00,3,1610612752,NYK,New York,2-5,32,29,13,22,0,0,0,0,0,0,0,0,0,0,96,0.476,0.727,0.381,26,44,15,0021400084,1610612752,NYK,New York,Iman Shumpert,F,,34:34,6.0,3.0,5.0,8.0,13.0,15.0,8.0,22.0,0.0,1.0,6.0,5.0
0021400084,1610612752,NYK,New York,202697,Iman Shumpert,F,,34:34,107.8,110.8,-3.0,0.35,1.75,29.3,0.034,0.094,0.066,16.8,0.75,0.738,0.226,92.07,0.144,2014-11-08T00:00:00,3,1610612737,ATL,Atlanta,2-3,20,28,27,28,0,0,0,0,0,0,0,0,0,0,103,0.407,0.778,0.409,18,41,8,0021400084,1610612752,NYK,New York,Iman Shumpert,F,,34:34,6.0,3.0,5.0,8.0,13.0,15.0,8.0,22.0,0.0,1.0,6.0,5.0
0021400084,1610612752,NYK,New York,2546,Carmelo Anthony,F,,37:08,116.9,110.0,6.9,0.077,2.0,8.2,0.1,0.176,0.141,4.1,0.45,0.469,0.28,95.19,0.088,2014-11-08T00:00:00,3,1610612752,NYK,New York,2-5,32,29,13,22,0,0,0,0,0,0,0,0,0,0,96,0.476,0.727,0.381,26,44,15,0021400084,1610612752,NYK,New York,Carmelo Anthony,F,,37:08,0.0,2.0,0.0,6.0,10.0,19.0,7.0,28.0,1.0,1.0,4.0,3.0
0021400084,1610612752,NYK,New York,2546,Carmelo Anthony,F,,37:08,116.9,110.0,6.9,0.077,2.0,8.2,0.1,0.176,0.141,4.1,0.45,0.469,0.28,95.19,0.088,2014-11-08T00:00:00,3,1610612737,ATL,Atlanta,2-3,20,28,27,28,0,0,0,0,0,0,0,0,0,0,103,0.407,0.778,0.409,18,41,8,0021400084,1610612752,NYK,New York,Carmelo Anthony,F,,37:08,0.0,2.0,0.0,6.0,10.0,19.0,7.0,28.0,1.0,1.0,4.0,3.0
0021400084,1610612752,NYK,New York,2223,Samuel Dalembert,C,,24:46,115.8,108.8,7.0,0.1,2.0,26.9,0.111,0.174,0.146,13.4,0.75,0.788,0.107,94.18,0.126,2014-11-08T00:00:00,3,1610612752,NYK,New York,2-5,32,29,13,22,0,0,0,0,0,0,0,0,0,0,96,0.476,0.727,0.381,26,44,15,0021400084,1610612752,NYK,New York,Samuel Dalembert,C,,24:46,0.0,0.0,0.0,6.0,10.0,11.0,7.0,16.0,3.0,0.0,2.0,1.0
0021400084,1610612752,NYK,New York,2223,Samuel Dalembert,C,,24:46,115.8,108.8,7.0,0.1,2.0,26.9,0.111,0.174,0.146,13.4,0.75,0.788,0.107,94.18,0.126,2014-11-08T00:00:00,3,1610612737,ATL,Atlanta,2-3,20,28,27,28,0,0,0,0,0,0,0,0,0,0,103,0.407,0.778,0.409,18,41,8,0021400084,1610612752,NYK,New York,Samuel Dalembert,C,,24:46,0.0,0.0,0.0,6.0,10.0,11.0,7.0,16.0,3.0,0.0,2.0,1.0
0021400084,1610612752,NYK,New York,203501,Tim Hardaway Jr.,G,,24:55,127.8,109.7,18.0,0.1,2.0,12.3,0.0,0.1,0.048,6.1,0.542,0.563,0.263,94.99,0.051,2014-11-08T00:00:00,3,1610612752,NYK,New York,2-5,32,29,13,22,0,0,0,0,0,0,0,0,0,0,96,0.476,0.727,0.381,26,44,15,0021400084,1610612752,NYK,New York,Tim Hardaway Jr.,G,,24:55,0.0,0.0,4.0,2.0,6.0,8.0,5.0,16.0,0.0,2.0,5.0,3.0
0021400084,1610612752,NYK,New York,203501,Tim Hardaway Jr.,G,,24:55,127.8,109.7,18.0,0.1,2.0,12.3,0.0,0.1,0.048,6.1,0.542,0.563,0.263,94.99,0.051,2014-11-08T00:00:00,3,1610612737,ATL,Atlanta,2-3,20,28,27,28,0,0,0,0,0,0,0,0,0,0,103,0.407,0.778,0.409,18,41,8,0021400084,1610612752,NYK,New York,Tim Hardaway Jr.,G,,24:55,0.0,0.0,4.0,2.0,6.0,8.0,5.0,16.0,0.0,2.0,5.0,3.0
0021400084,1610612752,NYK,New York,203499,Shane Larkin,G,,29:11,104.9,107.2,-2.2,0.19,4.0,30.8,0.0,0.032,0.018,7.7,0.563,0.563,0.149,91.48,0.064,2014-11-08T00:00:00,3,1610612752,NYK,New York,2-5,32,29,13,22,0,0,0,0,0,0,0,0,0,0,96,0.476,0.727,0.381,26,44,15,0021400084,1610612752,NYK,New York,Shane Larkin,G,,29:11,0.0,0.0,0.0,2.0,9.0,11.0,7.0,22.0,0.0,0.0,2.0,0.0
0021400084,1610612752,NYK,New York,203499,Shane Larkin,G,,29:11,104.9,107.2,-2.2,0.19,4.0,30.8,0.0,0.032,0.018,7.7,0.563,0.563,0.149,91.48,0.064,2014-11-08T00:00:00,3,1610612737,ATL,Atlanta,2-3,20,28,27,28,0,0,0,0,0,0,0,0,0,0,103,0.407,0.778,0.409,18,41,8,0021400084,1610612752,NYK,New York,Shane Larkin,G,,29:11,0.0,0.0,0.0,2.0,9.0,11.0,7.0,22.0,0.0,0.0,2.0,0.0
0021400084,1610612752,NYK,New York,2747,JR Smith,,,33:16,100.8,111.0,-10.3,0.217,2.5,33.3,0.0,0.2,0.089,13.3,0.5,0.5,0.132,93.27,0.108,2014-11-08T00:00:00,3,1610612752,NYK,New York,2-5,32,29,13,22,0,0,0,0,0,0,0,0,0,0,96,0.476,0.727,0.381,26,44,15,0021400084,1610612752,NYK,New York,JR Smith,,,33:16,2.0,0.0,0.0,2.0,13.0,12.0,6.0,24.0,0.0,0.0,2.0,0.0
0021400084,1610612752,NYK,New York,2747,JR Smith,,,33:16,100.8,111.0,-10.3,0.217,2.5,33.3,0.0,0.2,0.089,13.3,0.5,0.5,0.132,93.27,0.108,2014-11-08T00:00:00,3,1610612737,ATL,Atlanta,2-3,20,28,27,28,0,0,0,0,0,0,0,0,0,0,103,0.407,0.778,0.409,18,41,8,0021400084,1610612752,NYK,New York,JR Smith,,,33:16,2.0,0.0,0.0,2.0,13.0,12.0,6.0,24.0,0.0,0.0,2.0,0.0
0021400084,1610612752,NYK,New York,203921,Cleanthony Early,,,10:44,63.2,103.5,-40.4,0.167,1.0,16.7,0.0,0.2,0.1,16.7,0.0,0.0,0.227,85.72,-0.111,2014-11-08T00:00:00,3,1610612752,NYK,New York,2-5,32,29,13,22,0,0,0,0,0,0,0,0,0,0,96,0.476,0.727,0.381,26,44,15,0021400084,1610612752,NYK,New York,Cleanthony Early,,,10:44,0.0,0.0,0.0,0.0,6.0,4.0,2.0,10.0,0.0,0.0,1.0,0.0
0021400084,1610612752,NYK,New York,203921,Cleanthony Early,,,10:44,63.2,103.5,-40.4,0.167,1.0,16.7,0.0,0.2,0.1,16.7,0.0,0.0,0.227,85.72,-0.111,2014-11-08T00:00:00,3,1610612737,ATL,Atlanta,2-3,20,28,27,28,0,0,0,0,0,0,0,0,0,0,103,0.407,0.778,0.409,18,41,8,0021400084,1610612752,NYK,New York,Cleanthony Early,,,10:44,0.0,0.0,0.0,0.0,6.0,4.0,2.0,10.0,0.0,0.0,1.0,0.0
0021400084,1610612752,NYK,New York,201160,Jason Smith,,,10:56,80.2,101.7,-21.5,0.143,0.33,12.5,0.2,0.077,0.13,37.5,0.25,0.25,0.255,94.57,-0.173,2014-11-08T00:00:00,3,1610612752,NYK,New York,2-5,32,29,13,22,0,0,0,0,0,0,0,0,0,0,96,0.476,0.727,0.381,26,44,15,0021400084,1610612752,NYK,New York,Jason Smith,,,10:56,0.0,0.0,0.0,0.0,5.0,4.0,3.0,8.0,1.0,0.0,4.0,1.0
0021400084,1610612752,NYK,New York,201160,Jason Smith,,,10:56,80.2,101.7,-21.5,0.143,0.33,12.5,0.2,0.077,0.13,37.5,0.25,0.25,0.255,94.57,-0.173,2014-11-08T00:00:00,3,1610612737,ATL,Atlanta,2-3,20,28,27,28,0,0,0,0,0,0,0,0,0,0,103,0.407,0.778,0.409,18,41,8,0021400084,1610612752,NYK,New York,Jason Smith,,,10:56,0.0,0.0,0.0,0.0,5.0,4.0,3.0,8.0,1.0,0.0,4.0,1.0
0021400084,1610612752,NYK,New York,2405,Amar'e Stoudemire,,,20:56,99.5,112.0,-12.5,0.2,0.0,14.4,0.182,0.357,0.25,0.0,0.545,0.589,0.246,89.99,0.267,2014-11-08T00:00:00,3,1610612752,NYK,New York,2-5,32,29,13,22,0,0,0,0,0,0,0,0,0,0,96,0.476,0.727,0.381,26,44,15,0021400084,1610612752,NYK,New York,Amar'e Stoudemire,,,20:56,4.0,8.0,0.0,12.0,7.0,4.0,3.0,14.0,1.0,1.0,1.0,3.0
0021400084,1610612752,NYK,New York,2405,Amar'e Stoudemire,,,20:56,99.5,112.0,-12.5,0.2,0.0,14.4,0.182,0.357,0.25,0.0,0.545,0.589,0.246,89.99,0.267,2014-11-08T00:00:00,3,1610612737,ATL,Atlanta,2-3,20,28,27,28,0,0,0,0,0,0,0,0,0,0,103,0.407,0.778,0.409,18,41,8,0021400084,1610612752,NYK,New York,Amar'e Stoudemire,,,20:56,4.0,8.0,0.0,12.0,7.0,4.0,3.0,14.0,1.0,1.0,1.0,3.0
0021400084,1610612752,NYK,New York,203112,Quincy Acy,,,13:34,83.0,118.9,-35.8,0.0,0.0,0.0,0.083,0.154,0.12,50.0,1.0,1.0,0.077,83.64,0.041,2014-11-08T00:00:00,3,1610612752,NYK,New York,2-5,32,29,13,22,0,0,0,0,0,0,0,0,0,0,96,0.476,0.727,0.381,26,44,15,0021400084,1610612752,NYK,New York,Quincy Acy,,,13:34,0.0,2.0,0.0,2.0,6.0,7.0,2.0,10.0,0.0,0.0,2.0,1.0
0021400084,1610612752,NYK,New York,203112,Quincy Acy,,,13:34,83.0,118.9,-35.8,0.0,0.0,0.0,0.083,0.154,0.12,50.0,1.0,1.0,0.077,83.64,0.041,2014-11-08T00:00:00,3,1610612737,ATL,Atlanta,2-3,20,28,27,28,0,0,0,0,0,0,0,0,0,0,103,0.407,0.778,0.409,18,41,8,0021400084,1610612752,NYK,New York,Quincy Acy,,,13:34,0.0,2.0,0.0,2.0,6.0,7.0,2.0,10.0,0.0,0.0,2.0,1.0
0021400084,1610612752,NYK,New York,202332,Cole Aldrich,,DNP - Coach's Decision                  ,,,,,,,0.0,,,,,,,0.0,,,2014-11-08T00:00:00,3,1610612752,NYK,New York,2-5,32,29,13,22,0,0,0,0,0,0,0,0,0,0,96,0.476,0.727,0.381,26,44,15,0021400084,1610612752,NYK,New York,Cole Aldrich,,DNP - Coach's Decision                  ,,,,,,,,,,,,,
0021400084,1610612752,NYK,New York,202332,Cole Aldrich,,DNP - Coach's Decision                  ,,,,,,,0.0,,,,,,,0.0,,,2014-11-08T00:00:00,3,1610612737,ATL,Atlanta,2-3,20,28,27,28,0,0,0,0,0,0,0,0,0,0,103,0.407,0.778,0.409,18,41,8,0021400084,1610612752,NYK,New York,Cole Aldrich,,DNP - Coach's Decision                  ,,,,,,,,,,,,,
0021400084,1610612752,NYK,New York,203143,Pablo Prigioni,,NWT - Sprained Right Ankle              ,,,,,,,0.0,,,,,,,0.0,,,2014-11-08T00:00:00,3,1610612752,NYK,New York,2-5,32,29,13,22,0,0,0,0,0,0,0,0,0,0,96,0.476,0.727,0.381,26,44,15,0021400084,1610612752,NYK,New York,Pablo Prigioni,,NWT - Sprained Right Ankle              ,,,,,,,,,,,,,
0021400084,1610612752,NYK,New York,203143,Pablo Prigioni,,NWT - Sprained Right Ankle              ,,,,,,,0.0,,,,,,,0.0,,,2014-11-08T00:00:00,3,1610612737,ATL,Atlanta,2-3,20,28,27,28,0,0,0,0,0,0,0,0,0,0,103,0.407,0.778,0.409,18,41,8,0021400084,1610612752,NYK,New York,Pablo Prigioni,,NWT - Sprained Right Ankle              ,,,,,,,,,,,,,
0021400084,1610612752,NYK,New York,204037,Travis Wear,,DNP - Coach's Decision                  ,,,,,,,0.0,,,,,,,0.0,,,2014-11-08T00:00:00,3,1610612752,NYK,New York,2-5,32,29,13,22,0,0,0,0,0,0,0,0,0,0,96,0.476,0.727,0.381,26,44,15,0021400084,1610612752,NYK,New York,Travis Wear,,DNP - Coach's Decision                  ,,,,,,,,,,,,,
0021400084,1610612752,NYK,New York,204037,Travis Wear,,DNP - Coach's Decision                  ,,,,,,,0.0,,,,,,,0.0,,,2014-11-08T00:00:00,3,1610612737,ATL,Atlanta,2-3,20,28,27,28,0,0,0,0,0,0,0,0,0,0,103,0.407,0.778,0.409,18,41,8,0021400084,1610612752,NYK,New York,Travis Wear,,DNP - Coach's Decision                  ,,,,,,,,,,,,,
0021400084,1610612737,ATL,Atlanta,201960,DeMarre Carroll,F,,30:27,113.7,124.5,-10.8,0.111,0.0,18.4,0.077,0.192,0.135,0.0,0.625,0.676,0.13,94.11,0.117,2014-11-08T00:00:00,3,1610612752,NYK,New York,2-5,32,29,13,22,0,0,0,0,0,0,0,0,0,0,96,0.476,0.727,0.381,26,44,15,0021400084,1610612737,ATL,Atlanta,DeMarre Carroll,F,,30:27,0.0,2.0,0.0,2.0,10.0,7.0,6.0,28.0,0.0,1.0,4.0,1.0
0021400084,1610612737,ATL,Atlanta,201960,DeMarre Carroll,F,,30:27,113.7,124.5,-10.8,0.111,0.0,18.4,0.077,0.192,0.135,0.0,0.625,0.676,0.13,94.11,0.117,2014-11-08T00:00:00,3,1610612737,ATL,Atlanta,2-3,20,28,27,28,0,0,0,0,0,0,0,0,0,0,103,0.407,0.778,0.409,18,41,8,0021400084,1610612737,ATL,Atlanta,DeMarre Carroll,F,,30:27,0.0,2.0,0.0,2.0,10.0,7.0,6.0,28.0,0.0,1.0,4.0,1.0
0021400084,1610612737,ATL,Atlanta,200794,Paul Millsap,F,,36:19,116.6,103.7,12.9,0.13,1.0,14.6,0.059,0.344,0.197,14.6,0.273,0.379,0.221,92.99,0.073,2014-11-08T00:00:00,3,1610612752,NYK,New York,2-5,32,29,13,22,0,0,0,0,0,0,0,0,0,0,96,0.476,0.727,0.381,26,44,15,0021400084,1610612737,ATL,Atlanta,Paul Millsap,F,,36:19,1.0,2.0,1.0,6.0,12.0,9.0,9.0,28.0,1.0,2.0,3.0,8.0
0021400084,1610612737,ATL,Atlanta,200794,Paul Millsap,F,,36:19,116.6,103.7,12.9,0.13,1.0,14.6,0.059,0.344,0.197,14.6,0.273,0.379,0.221,92.99,0.073,2014-11-08T00:00:00,3,1610612737,ATL,Atlanta,2-3,20,28,27,28,0,0,0,0,0,0,0,0,0,0,103,0.407,0.778,0.409,18,41,8,0021400084,1610612737,ATL,Atlanta,Paul Millsap,F,,36:19,1.0,2.0,1.0,6.0,12.0,9.0,9.0,28.0,1.0,2.0,3.0,8.0
0021400084,1610612737,ATL,Atlanta,201143,Al Horford,C,,30:21,101.3,125.9,-24.6,0.188,0.0,18.8,0.037,0.185,0.111,0.0,0.231,0.231,0.212,89.12,0.028,2014-11-08T00:00:00,3,1610612752,NYK,New York,2-5,32,29,13,22,0,0,0,0,0,0,0,0,0,0,96,0.476,0.727,0.381,26,44,15,0021400084,1610612737,ATL,Atlanta,Al Horford,C,,30:21,2.0,0.0,0.0,2.0,6.0,11.0,7.0,30.0,0.0,0.0,1.0,2.0
0021400084,1610612737,ATL,Atlanta,201143,Al Horford,C,,30:21,101.3,125.9,-24.6,0.188,0.0,18.8,0.037,0.185,0.111,0.0,0.231,0.231,0.212,89.12,0.028,2014-11-08T00:00:00,3,1610612737,ATL,Atlanta,2-3,20,28,27,28,0,0,0,0,0,0,0,0,0,0,103,0.407,0.778,0.409,18,41,8,0021400084,1610612737,ATL,Atlanta,Al Horford,C,,30:21,2.0,0.0,0.0,2.0,6.0,11.0,7.0,30.0,0.0,0.0,1.0,2.0
0021400084,1610612737,ATL,Atlanta,2594,Kyle Korver,G,,37:33,116.4,110.8,5.7,0.05,1.0,5.9,0.0,0.118,0.061,5.9,0.833,0.895,0.199,91.09,0.199,2014-11-08T00:00:00,3,1610612752,NYK,New York,2-5,32,29,13,22,0,0,0,0,0,0,0,0,0,0,96,0.476,0.727,0.381,26,44,15,0021400084,1610612737,ATL,Atlanta,Kyle Korver,G,,37:33,0.0,3.0,3.0,0.0,8.0,13.0,5.0,36.0,3.0,0.0,1.0,6.0
0021400084,1610612737,ATL,Atlanta,2594,Kyle Korver,G,,37:33,116.4,110.8,5.7,0.05,1.0,5.9,0.0,0.118,0.061,5.9,0.833,0.895,0.199,91.09,0.199,2014-11-08T00:00:00,3,1610612737,ATL,Atlanta,2-3,20,28,27,28,0,0,0,0,0,0,0,0,0,0,103,0.407,0.778,0.409,18,41,8,0021400084,1610612737,ATL,Atlanta,Kyle Korver,G,,37:33,0.0,3.0,3.0,0.0,8.0,13.0,5.0,36.0,3.0,0.0,1.0,6.0
0021400084,1610612737,ATL,Atlanta,201952,Jeff Teague,G,,34:43,114.0,117.7,-3.8,0.263,0.0,22.3,0.033,0.032,0.033,0.0,0.462,0.546,0.228,92.53,0.11,2014-11-08T00:00:00,3,1610612752,NYK,New York,2-5,32,29,13,22,0,0,0,0,0,0,0,0,0,0,96,0.476,0.727,0.381,26,44,15,0021400084,1610612737,ATL,Atlanta,Jeff Teague,G,,34:43,6.0,6.0,2.0,12.0,10.0,9.0,9.0,32.0,0.0,1.0,2.0,8.0
0021400084,1610612737,ATL,Atlanta,201952,Jeff Teague,G,,34:43,114.0,117.7,-3.8,0.263,0.0,22.3,0.033,0.032,0.033,0.0,0.462,0.546,0.228,92.53,0.11,2014-11-08T00:00:00,3,1610612737,ATL,Atlanta,2-3,20,28,27,28,0,0,0,0,0,0,0,0,0,0,103,0.407,0.778,0.409,18,41,8,0021400084,1610612737,ATL,Atlanta,Jeff Teague,G,,34:43,6.0,6.0,2.0,12.0,10.0,9.0,9.0,32.0,0.0,1.0,2.0,8.0
0021400084,1610612737,ATL,Atlanta,203544,Pero Antic,,,17:39,122.5,72.6,49.9,0.0,0.0,0.0,0.063,0.067,0.065,31.6,0.0,0.231,0.142,97.87,-0.108,2014-11-08T00:00:00,3,1610612752,NYK,New York,2-5,32,29,13,22,0,0,0,0,0,0,0,0,0,0,96,0.476,0.727,0.381,26,44,15,0021400084,1610612737,ATL,Atlanta,Pero Antic,,,17:39,0.0,0.0,0.0,0.0,6.0,4.0,2.0,10.0,1.0,1.0,2.0,1.0
0021400084,1610612737,ATL,Atlanta,203544,Pero Antic,,,17:39,122.5,72.6,49.9,0.0,0.0,0.0,0.063,0.067,0.065,31.6,0.0,0.231,0.142,97.87,-0.108,2014-11-08T00:00:00,3,1610612737,ATL,Atlanta,2-3,20,28,27,28,0,0,0,0,0,0,0,0,0,0,103,0.407,0.778,0.409,18,41,8,0021400084,1610612737,ATL,Atlanta,Pero Antic,,,17:39,0.0,0.0,0.0,0.0,6.0,4.0,2.0,10.0,1.0,1.0,2.0,1.0
0021400084,1610612737,ATL,Atlanta,203118,Mike Scott,,,11:41,89.3,112.5,-23.2,0.0,0.0,0.0,0.111,0.0,0.053,0.0,0.5,0.5,0.264,90.33,0.085,2014-11-08T00:00:00,3,1610612752,NYK,New York,2-5,32,29,13,22,0,0,0,0,0,0,0,0,0,0,96,0.476,0.727,0.381,26,44,15,0021400084,1610612737,ATL,Atlanta,Mike Scott,,,11:41,0.0,0.0,0.0,0.0,0.0,6.0,0.0,12.0,0.0,0.0,1.0,0.0
0021400084,1610612737,ATL,Atlanta,203118,Mike Scott,,,11:41,89.3,112.5,-23.2,0.0,0.0,0.0,0.111,0.0,0.053,0.0,0.5,0.5,0.264,90.33,0.085,2014-11-08T00:00:00,3,1610612737,ATL,Atlanta,2-3,20,28,27,28,0,0,0,0,0,0,0,0,0,0,103,0.407,0.778,0.409,18,41,8,0021400084,1610612737,ATL,Atlanta,Mike Scott,,,11:41,0.0,0.0,0.0,0.0,0.0,6.0,0.0,12.0,0.0,0.0,1.0,0.0
0021400084,1610612737,ATL,Atlanta,203471,Dennis Schroder,,,20:22,99.1,89.0,10.1,0.25,2.0,20.5,0.0,0.056,0.029,10.2,0.8,0.814,0.179,92.72,0.319,2014-11-08T00:00:00,3,1610612752,NYK,New York,2-5,32,29,13,22,0,0,0,0,0,0,0,0,0,0,96,0.476,0.727,0.381,26,44,15,0021400084,1610612737,ATL,Atlanta,Dennis Schroder,,,20:22,2.0,2.0,0.0,6.0,6.0,10.0,4.0,16.0,0.0,1.0,1.0,2.0
0021400084,1610612737,ATL,Atlanta,203471,Dennis Schroder,,,20:22,99.1,89.0,10.1,0.25,2.0,20.5,0.0,0.056,0.029,10.2,0.8,0.814,0.179,92.72,0.319,2014-11-08T00:00:00,3,1610612737,ATL,Atlanta,2-3,20,28,27,28,0,0,0,0,0,0,0,0,0,0,103,0.407,0.778,0.409,18,41,8,0021400084,1610612737,ATL,Atlanta,Dennis Schroder,,,20:22,2.0,2.0,0.0,6.0,6.0,10.0,4.0,16.0,0.0,1.0,1.0,2.0
0021400084,1610612737,ATL,Atlanta,200757,Thabo Sefolosha,,,16:23,95.2,79.5,15.7,0.25,2.0,15.5,0.211,0.077,0.156,7.8,0.333,0.405,0.275,92.23,0.127,2014-11-08T00:00:00,3,1610612752,NYK,New York,2-5,32,29,13,22,0,0,0,0,0,0,0,0,0,0,96,0.476,0.727,0.381,26,44,15,0021400084,1610612737,ATL,Atlanta,Thabo Sefolosha,,,16:23,6.0,4.0,4.0,6.0,2.0,6.0,3.0,8.0,0.0,0.0,2.0,1.0
0021400084,1610612737,ATL,Atlanta,200757,Thabo Sefolosha,,,16:23,95.2,79.5,15.7,0.25,2.0,15.5,0.211,0.077,0.156,7.8,0.333,0.405,0.275,92.23,0.127,2014-11-08T00:00:00,3,1610612737,ATL,Atlanta,2-3,20,28,27,28,0,0,0,0,0,0,0,0,0,0,103,0.407,0.778,0.409,18,41,8,0021400084,1610612737,ATL,Atlanta,Thabo Sefolosha,,,16:23,6.0,4.0,4.0,6.0,2.0,6.0,3.0,8.0,0.0,0.0,2.0,1.0
0021400084,1610612737,ATL,Atlanta,202714,Shelvin Mack,,,4:32,91.6,22.2,69.4,0.0,0.0,0.0,0.0,0.0,0.0,0.0,0.0,0.0,0.0,88.09,0.0,2014-11-08T00:00:00,3,1610612752,NYK,New York,2-5,32,29,13,22,0,0,0,0,0,0,0,0,0,0,96,0.476,0.727,0.381,26,44,15,0021400084,1610612737,ATL,Atlanta,Shelvin Mack,,,4:32,0.0,0.0,0.0,0.0,0.0,0.0,0.0,0.0,0.0,0.0,0.0,0.0
0021400084,1610612737,ATL,Atlanta,202714,Shelvin Mack,,,4:32,91.6,22.2,69.4,0.0,0.0,0.0,0.0,0.0,0.0,0.0,0.0,0.0,0.0,88.09,0.0,2014-11-08T00:00:00,3,1610612737,ATL,Atlanta,2-3,20,28,27,28,0,0,0,0,0,0,0,0,0,0,103,0.407,0.778,0.409,18,41,8,0021400084,1610612737,ATL,Atlanta,Shelvin Mack,,,4:32,0.0,0.0,0.0,0.0,0.0,0.0,0.0,0.0,0.0,0.0,0.0,0.0
0021400084,1610612737,ATL,Atlanta,203145,Kent Bazemore,,DNP - Coach's Decision                  ,,,,,,,0.0,,,,,,,0.0,,,2014-11-08T00:00:00,3,1610612752,NYK,New York,2-5,32,29,13,22,0,0,0,0,0,0,0,0,0,0,96,0.476,0.727,0.381,26,44,15,0021400084,1610612737,ATL,Atlanta,Kent Bazemore,,DNP - Coach's Decision                  ,,,,,,,,,,,,,
0021400084,1610612737,ATL,Atlanta,203145,Kent Bazemore,,DNP - Coach's Decision                  ,,,,,,,0.0,,,,,,,0.0,,,2014-11-08T00:00:00,3,1610612737,ATL,Atlanta,2-3,20,28,27,28,0,0,0,0,0,0,0,0,0,0,103,0.407,0.778,0.409,18,41,8,0021400084,1610612737,ATL,Atlanta,Kent Bazemore,,DNP - Coach's Decision                  ,,,,,,,,,,,,,
0021400084,1610612737,ATL,Atlanta,1882,Elton Brand,,DNP - Coach's Decision                  ,,,,,,,0.0,,,,,,,0.0,,,2014-11-08T00:00:00,3,1610612752,NYK,New York,2-5,32,29,13,22,0,0,0,0,0,0,0,0,0,0,96,0.476,0.727,0.381,26,44,15,0021400084,1610612737,ATL,Atlanta,Elton Brand,,DNP - Coach's Decision                  ,,,,,,,,,,,,,
0021400084,1610612737,ATL,Atlanta,1882,Elton Brand,,DNP - Coach's Decision                  ,,,,,,,0.0,,,,,,,0.0,,,2014-11-08T00:00:00,3,1610612737,ATL,Atlanta,2-3,20,28,27,28,0,0,0,0,0,0,0,0,0,0,103,0.407,0.778,0.409,18,41,8,0021400084,1610612737,ATL,Atlanta,Elton Brand,,DNP - Coach's Decision                  ,,,,,,,,,,,,,
0021400084,1610612737,ATL,Atlanta,203488,Mike Muscala,,DNP - Coach's Decision                  ,,,,,,,0.0,,,,,,,0.0,,,2014-11-08T00:00:00,3,1610612752,NYK,New York,2-5,32,29,13,22,0,0,0,0,0,0,0,0,0,0,96,0.476,0.727,0.381,26,44,15,0021400084,1610612737,ATL,Atlanta,Mike Muscala,,DNP - Coach's Decision                  ,,,,,,,,,,,,,
0021400084,1610612737,ATL,Atlanta,203488,Mike Muscala,,DNP - Coach's Decision                  ,,,,,,,0.0,,,,,,,0.0,,,2014-11-08T00:00:00,3,1610612737,ATL,Atlanta,2-3,20,28,27,28,0,0,0,0,0,0,0,0,0,0,103,0.407,0.778,0.409,18,41,8,0021400084,1610612737,ATL,Atlanta,Mike Muscala,,DNP - Coach's Decision                  ,,,,,,,,,,,,,
