GAME_ID_x,TEAM_ID_x,TEAM_ABBREVIATION_x,TEAM_CITY_x,PLAYER_ID,PLAYER_NAME_x,START_POSITION_x,COMMENT_x,MIN_x,OFF_RATING,DEF_RATING,NET_RATING,AST_PCT,AST_TOV,AST_RATIO,OREB_PCT,DREB_PCT,REB_PCT,TM_TOV_PCT,EFG_PCT,TS_PCT,USG_PCT,PACE,PIE,GAME_DATE_EST,GAME_SEQUENCE,TEAM_ID_y,TEAM_ABBREVIATION_y,TEAM_CITY_NAME,TEAM_WINS_LOSSES,PTS_QTR1,PTS_QTR2,PTS_QTR3,PTS_QTR4,PTS_OT1,PTS_OT2,PTS_OT3,PTS_OT4,PTS_OT5,PTS_OT6,PTS_OT7,PTS_OT8,PTS_OT9,PTS_OT10,PTS,FG_PCT,FT_PCT,FG3_PCT,AST,REB,TOV,GAME_ID_y,TEAM_ID,TEAM_ABBREVIATION,TEAM_CITY_y,PLAYER_NAME_y,START_POSITION_y,COMMENT_y,MIN_y,PTS_OFF_TOV,PTS_2ND_CHANCE,PTS_FB,PTS_PAINT,OPP_PTS_OFF_TOV,OPP_PTS_2ND_CHANCE,OPP_PTS_FB,OPP_PTS_PAINT,BLK,BLKA,PF,PFD
0021400089,1610612740,NOP,New Orleans,201936,Tyreke Evans,F,,38:01,104.4,108.9,-4.5,0.185,1.67,20.1,0.0,0.103,0.051,12.1,0.5,0.533,0.247,96.44,0.093,2014-11-08T00:00:00,8,1610612740,NOP,New Orleans,3-2,30,25,26,19,0,0,0,0,0,0,0,0,0,0,100,0.471,0.857,0.381,22,30,11,0021400089,1610612740,NOP,New Orleans,Tyreke Evans,F,,38:01,4.0,0.0,6.0,8.0,12.0,13.0,4.0,36.0,0.0,2.0,2.0,3.0
0021400089,1610612740,NOP,New Orleans,201936,Tyreke Evans,F,,38:01,104.4,108.9,-4.5,0.185,1.67,20.1,0.0,0.103,0.051,12.1,0.5,0.533,0.247,96.44,0.093,2014-11-08T00:00:00,8,1610612759,SAS,San Antonio,2-3,23,30,18,28,0,0,0,0,0,0,0,0,0,0,99,0.45,0.759,0.278,15,49,18,0021400089,1610612740,NOP,New Orleans,Tyreke Evans,F,,38:01,4.0,0.0,6.0,8.0,12.0,13.0,4.0,36.0,0.0,2.0,2.0,3.0
0021400089,1610612740,NOP,New Orleans,203076,Anthony Davis,F,,36:41,104.2,102.7,1.6,0.045,0.25,3.9,0.061,0.333,0.183,15.7,0.588,0.658,0.303,98.03,0.232,2014-11-08T00:00:00,8,1610612740,NOP,New Orleans,3-2,30,25,26,19,0,0,0,0,0,0,0,0,0,0,100,0.471,0.857,0.381,22,30,11,0021400089,1610612740,NOP,New Orleans,Anthony Davis,F,,36:41,2.0,6.0,3.0,14.0,8.0,9.0,2.0,26.0,6.0,1.0,2.0,6.0
0021400089,1610612740,NOP,New Orleans,203076,Anthony Davis,F,,36:41,104.2,102.7,1.6,0.045,0.25,3.9,0.061,0.333,0.183,15.7,0.588,0.658,0.303,98.03,0.232,2014-11-08T00:00:00,8,1610612759,SAS,San Antonio,2-3,23,30,18,28,0,0,0,0,0,0,0,0,0,0,99,0.45,0.759,0.278,15,49,18,0021400089,1610612740,NOP,New Orleans,Anthony Davis,F,,36:41,2.0,6.0,3.0,14.0,8.0,9.0,2.0,26.0,6.0,1.0,2.0,6.0
0021400089,1610612740,NOP,New Orleans,201600,Omer Asik,C,,25:60,106.3,108.0,-1.7,0.048,0.0,18.4,0.125,0.182,0.152,0.0,0.75,0.676,0.078,97.38,0.069,2014-11-08T00:00:00,8,1610612740,NOP,New Orleans,3-2,30,25,26,19,0,0,0,0,0,0,0,0,0,0,100,0.471,0.857,0.381,22,30,11,0021400089,1610612740,NOP,New Orleans,Omer Asik,C,,25:60,2.0,2.0,0.0,6.0,8.0,9.0,4.0,20.0,0.0,0.0,3.0,1.0
0021400089,1610612740,NOP,New Orleans,201600,Omer Asik,C,,25:60,106.3,108.0,-1.7,0.048,0.0,18.4,0.125,0.182,0.152,0.0,0.75,0.676,0.078,97.38,0.069,2014-11-08T00:00:00,8,1610612759,SAS,San Antonio,2-3,23,30,18,28,0,0,0,0,0,0,0,0,0,0,99,0.45,0.759,0.278,15,49,18,0021400089,1610612740,NOP,New Orleans,Omer Asik,C,,25:60,2.0,2.0,0.0,6.0,8.0,9.0,4.0,20.0,0.0,0.0,3.0,1.0
0021400089,1610612740,NOP,New Orleans,201569,Eric Gordon,G,,37:36,102.8,105.0,-2.2,0.115,0.0,18.8,0.029,0.0,0.015,0.0,0.538,0.538,0.157,97.07,0.068,2014-11-08T00:00:00,8,1610612740,NOP,New Orleans,3-2,30,25,26,19,0,0,0,0,0,0,0,0,0,0,100,0.471,0.857,0.381,22,30,11,0021400089,1610612740,NOP,New Orleans,Eric Gordon,G,,37:36,4.0,2.0,2.0,4.0,10.0,11.0,4.0,28.0,0.0,0.0,3.0,1.0
0021400089,1610612740,NOP,New Orleans,201569,Eric Gordon,G,,37:36,102.8,105.0,-2.2,0.115,0.0,18.8,0.029,0.0,0.015,0.0,0.538,0.538,0.157,97.07,0.068,2014-11-08T00:00:00,8,1610612759,SAS,San Antonio,2-3,23,30,18,28,0,0,0,0,0,0,0,0,0,0,99,0.45,0.759,0.278,15,49,18,0021400089,1610612740,NOP,New Orleans,Eric Gordon,G,,37:36,4.0,2.0,2.0,4.0,10.0,11.0,4.0,28.0,0.0,0.0,3.0,1.0
0021400089,1610612740,NOP,New Orleans,201950,Jrue Holiday,G,,35:55,98.5,106.6,-8.0,0.44,5.5,38.1,0.0,0.107,0.051,6.9,0.433,0.472,0.226,97.77,0.134,2014-11-08T00:00:00,8,1610612740,NOP,New Orleans,3-2,30,25,26,19,0,0,0,0,0,0,0,0,0,0,100,0.471,0.857,0.381,22,30,11,0021400089,1610612740,NOP,New Orleans,Jrue Holiday,G,,35:55,2.0,2.0,0.0,6.0,12.0,13.0,4.0,28.0,2.0,3.0,4.0,2.0
0021400089,1610612740,NOP,New Orleans,201950,Jrue Holiday,G,,35:55,98.5,106.6,-8.0,0.44,5.5,38.1,0.0,0.107,0.051,6.9,0.433,0.472,0.226,97.77,0.134,2014-11-08T00:00:00,8,1610612759,SAS,San Antonio,2-3,23,30,18,28,0,0,0,0,0,0,0,0,0,0,99,0.45,0.759,0.278,15,49,18,0021400089,1610612740,NOP,New Orleans,Jrue Holiday,G,,35:55,2.0,2.0,0.0,6.0,12.0,13.0,4.0,28.0,2.0,3.0,4.0,2.0
0021400089,1610612740,NOP,New Orleans,203085,Austin Rivers,,,17:00,112.3,89.2,23.1,0.0,0.0,0.0,0.0,0.0,0.0,15.5,0.4,0.46,0.185,92.1,-0.013,2014-11-08T00:00:00,8,1610612740,NOP,New Orleans,3-2,30,25,26,19,0,0,0,0,0,0,0,0,0,0,100,0.471,0.857,0.381,22,30,11,0021400089,1610612740,NOP,New Orleans,Austin Rivers,,,17:00,2.0,0.0,0.0,4.0,2.0,3.0,0.0,12.0,1.0,1.0,2.0,3.0
0021400089,1610612740,NOP,New Orleans,203085,Austin Rivers,,,17:00,112.3,89.2,23.1,0.0,0.0,0.0,0.0,0.0,0.0,15.5,0.4,0.46,0.185,92.1,-0.013,2014-11-08T00:00:00,8,1610612759,SAS,San Antonio,2-3,23,30,18,28,0,0,0,0,0,0,0,0,0,0,99,0.45,0.759,0.278,15,49,18,0021400089,1610612740,NOP,New Orleans,Austin Rivers,,,17:00,2.0,0.0,0.0,4.0,2.0,3.0,0.0,12.0,1.0,1.0,2.0,3.0
0021400089,1610612740,NOP,New Orleans,201583,Ryan Anderson,,,24:32,104.4,102.1,2.3,0.0,0.0,0.0,0.0,0.087,0.053,9.1,0.45,0.45,0.221,92.8,0.048,2014-11-08T00:00:00,8,1610612740,NOP,New Orleans,3-2,30,25,26,19,0,0,0,0,0,0,0,0,0,0,100,0.471,0.857,0.381,22,30,11,0021400089,1610612740,NOP,New Orleans,Ryan Anderson,,,24:32,0.0,0.0,0.0,0.0,6.0,7.0,2.0,22.0,0.0,0.0,1.0,1.0
0021400089,1610612740,NOP,New Orleans,201583,Ryan Anderson,,,24:32,104.4,102.1,2.3,0.0,0.0,0.0,0.0,0.087,0.053,9.1,0.45,0.45,0.221,92.8,0.048,2014-11-08T00:00:00,8,1610612759,SAS,San Antonio,2-3,23,30,18,28,0,0,0,0,0,0,0,0,0,0,99,0.45,0.759,0.278,15,49,18,0021400089,1610612740,NOP,New Orleans,Ryan Anderson,,,24:32,0.0,0.0,0.0,0.0,6.0,7.0,2.0,22.0,0.0,0.0,1.0,1.0
0021400089,1610612740,NOP,New Orleans,202690,Jimmer Fredette,,,10:09,115.3,92.2,23.1,0.0,0.0,0.0,0.0,0.091,0.059,0.0,0.5,0.5,0.199,91.27,0.146,2014-11-08T00:00:00,8,1610612740,NOP,New Orleans,3-2,30,25,26,19,0,0,0,0,0,0,0,0,0,0,100,0.471,0.857,0.381,22,30,11,0021400089,1610612740,NOP,New Orleans,Jimmer Fredette,,,10:09,0.0,0.0,0.0,0.0,0.0,1.0,0.0,8.0,0.0,0.0,0.0,0.0
0021400089,1610612740,NOP,New Orleans,202690,Jimmer Fredette,,,10:09,115.3,92.2,23.1,0.0,0.0,0.0,0.0,0.091,0.059,0.0,0.5,0.5,0.199,91.27,0.146,2014-11-08T00:00:00,8,1610612759,SAS,San Antonio,2-3,23,30,18,28,0,0,0,0,0,0,0,0,0,0,99,0.45,0.759,0.278,15,49,18,0021400089,1610612740,NOP,New Orleans,Jimmer Fredette,,,10:09,0.0,0.0,0.0,0.0,0.0,1.0,0.0,8.0,0.0,0.0,0.0,0.0
0021400089,1610612740,NOP,New Orleans,2422,John Salmons,,,5:19,100.0,125.6,-25.6,0.25,0.0,100.0,0.0,0.0,0.0,0.0,0.0,0.0,0.0,80.17,0.08,2014-11-08T00:00:00,8,1610612740,NOP,New Orleans,3-2,30,25,26,19,0,0,0,0,0,0,0,0,0,0,100,0.471,0.857,0.381,22,30,11,0021400089,1610612740,NOP,New Orleans,John Salmons,,,5:19,0.0,0.0,0.0,0.0,0.0,1.0,0.0,2.0,0.0,0.0,0.0,0.0
0021400089,1610612740,NOP,New Orleans,2422,John Salmons,,,5:19,100.0,125.6,-25.6,0.25,0.0,100.0,0.0,0.0,0.0,0.0,0.0,0.0,0.0,80.17,0.08,2014-11-08T00:00:00,8,1610612759,SAS,San Antonio,2-3,23,30,18,28,0,0,0,0,0,0,0,0,0,0,99,0.45,0.759,0.278,15,49,18,0021400089,1610612740,NOP,New Orleans,John Salmons,,,5:19,0.0,0.0,0.0,0.0,0.0,1.0,0.0,2.0,0.0,0.0,0.0,0.0
0021400089,1610612740,NOP,New Orleans,201582,Alexis Ajinca,,,8:47,94.8,108.4,-13.6,0.0,0.0,0.0,0.0,0.2,0.143,0.0,1.0,1.0,0.059,86.45,0.054,2014-11-08T00:00:00,8,1610612740,NOP,New Orleans,3-2,30,25,26,19,0,0,0,0,0,0,0,0,0,0,100,0.471,0.857,0.381,22,30,11,0021400089,1610612740,NOP,New Orleans,Alexis Ajinca,,,8:47,0.0,0.0,0.0,0.0,2.0,3.0,0.0,8.0,0.0,0.0,3.0,0.0
0021400089,1610612740,NOP,New Orleans,201582,Alexis Ajinca,,,8:47,94.8,108.4,-13.6,0.0,0.0,0.0,0.0,0.2,0.143,0.0,1.0,1.0,0.059,86.45,0.054,2014-11-08T00:00:00,8,1610612759,SAS,San Antonio,2-3,23,30,18,28,0,0,0,0,0,0,0,0,0,0,99,0.45,0.759,0.278,15,49,18,0021400089,1610612740,NOP,New Orleans,Alexis Ajinca,,,8:47,0.0,0.0,0.0,0.0,2.0,3.0,0.0,8.0,0.0,0.0,3.0,0.0
0021400089,1610612740,NOP,New Orleans,203893,Russ Smith,,DNP - Coach's Decision                  ,,,,,,,0.0,,,,,,,0.0,,,2014-11-08T00:00:00,8,1610612740,NOP,New Orleans,3-2,30,25,26,19,0,0,0,0,0,0,0,0,0,0,100,0.471,0.857,0.381,22,30,11,0021400089,1610612740,NOP,New Orleans,Russ Smith,,DNP - Coach's Decision                  ,,,,,,,,,,,,,
0021400089,1610612740,NOP,New Orleans,203893,Russ Smith,,DNP - Coach's Decision                  ,,,,,,,0.0,,,,,,,0.0,,,2014-11-08T00:00:00,8,1610612759,SAS,San Antonio,2-3,23,30,18,28,0,0,0,0,0,0,0,0,0,0,99,0.45,0.759,0.278,15,49,18,0021400089,1610612740,NOP,New Orleans,Russ Smith,,DNP - Coach's Decision                  ,,,,,,,,,,,,,
0021400089,1610612740,NOP,New Orleans,203481,Jeff Withey,,DNP - Coach's Decision                  ,,,,,,,0.0,,,,,,,0.0,,,2014-11-08T00:00:00,8,1610612740,NOP,New Orleans,3-2,30,25,26,19,0,0,0,0,0,0,0,0,0,0,100,0.471,0.857,0.381,22,30,11,0021400089,1610612740,NOP,New Orleans,Jeff Withey,,DNP - Coach's Decision                  ,,,,,,,,,,,,,
0021400089,1610612740,NOP,New Orleans,203481,Jeff Withey,,DNP - Coach's Decision                  ,,,,,,,0.0,,,,,,,0.0,,,2014-11-08T00:00:00,8,1610612759,SAS,San Antonio,2-3,23,30,18,28,0,0,0,0,0,0,0,0,0,0,99,0.45,0.759,0.278,15,49,18,0021400089,1610612740,NOP,New Orleans,Jeff Withey,,DNP - Coach's Decision                  ,,,,,,,,,,,,,
0021400089,1610612740,NOP,New Orleans,203942,Patric Young,,DNP - Coach's Decision                  ,,,,,,,0.0,,,,,,,0.0,,,2014-11-08T00:00:00,8,1610612740,NOP,New Orleans,3-2,30,25,26,19,0,0,0,0,0,0,0,0,0,0,100,0.471,0.857,0.381,22,30,11,0021400089,1610612740,NOP,New Orleans,Patric Young,,DNP - Coach's Decision                  ,,,,,,,,,,,,,
0021400089,1610612740,NOP,New Orleans,203942,Patric Young,,DNP - Coach's Decision                  ,,,,,,,0.0,,,,,,,0.0,,,2014-11-08T00:00:00,8,1610612759,SAS,San Antonio,2-3,23,30,18,28,0,0,0,0,0,0,0,0,0,0,99,0.45,0.759,0.278,15,49,18,0021400089,1610612740,NOP,New Orleans,Patric Young,,DNP - Coach's Decision                  ,,,,,,,,,,,,,
0021400089,1610612759,SAS,San Antonio,202695,Kawhi Leonard,F,,36:30,117.0,108.9,8.1,0.12,0.0,16.1,0.167,0.36,0.255,0.0,0.385,0.448,0.192,92.05,0.12,2014-11-08T00:00:00,8,1610612740,NOP,New Orleans,3-2,30,25,26,19,0,0,0,0,0,0,0,0,0,0,100,0.471,0.857,0.381,22,30,11,0021400089,1610612759,SAS,San Antonio,Kawhi Leonard,F,,36:30,2.0,5.0,0.0,4.0,8.0,4.0,8.0,30.0,1.0,3.0,3.0,3.0
0021400089,1610612759,SAS,San Antonio,202695,Kawhi Leonard,F,,36:30,117.0,108.9,8.1,0.12,0.0,16.1,0.167,0.36,0.255,0.0,0.385,0.448,0.192,92.05,0.12,2014-11-08T00:00:00,8,1610612759,SAS,San Antonio,2-3,23,30,18,28,0,0,0,0,0,0,0,0,0,0,99,0.45,0.759,0.278,15,49,18,0021400089,1610612759,SAS,San Antonio,Kawhi Leonard,F,,36:30,2.0,5.0,0.0,4.0,8.0,4.0,8.0,30.0,1.0,3.0,3.0,3.0
0021400089,1610612759,SAS,San Antonio,1495,Tim Duncan,F,,32:36,101.1,102.7,-1.6,0.05,0.33,6.0,0.125,0.25,0.192,18.0,0.3,0.435,0.214,97.5,0.076,2014-11-08T00:00:00,8,1610612740,NOP,New Orleans,3-2,30,25,26,19,0,0,0,0,0,0,0,0,0,0,100,0.471,0.857,0.381,22,30,11,0021400089,1610612759,SAS,San Antonio,Tim Duncan,F,,32:36,2.0,2.0,0.0,2.0,14.0,10.0,10.0,36.0,1.0,2.0,1.0,5.0
0021400089,1610612759,SAS,San Antonio,1495,Tim Duncan,F,,32:36,101.1,102.7,-1.6,0.05,0.33,6.0,0.125,0.25,0.192,18.0,0.3,0.435,0.214,97.5,0.076,2014-11-08T00:00:00,8,1610612759,SAS,San Antonio,2-3,23,30,18,28,0,0,0,0,0,0,0,0,0,0,99,0.45,0.759,0.278,15,49,18,0021400089,1610612759,SAS,San Antonio,Tim Duncan,F,,32:36,2.0,2.0,0.0,2.0,14.0,10.0,10.0,36.0,1.0,2.0,1.0,5.0
0021400089,1610612759,SAS,San Antonio,2564,Boris Diaw,C,,31:41,102.3,99.5,2.8,0.091,0.67,18.2,0.083,0.148,0.118,27.3,0.5,0.5,0.122,96.79,0.06,2014-11-08T00:00:00,8,1610612740,NOP,New Orleans,3-2,30,25,26,19,0,0,0,0,0,0,0,0,0,0,100,0.471,0.857,0.381,22,30,11,0021400089,1610612759,SAS,San Antonio,Boris Diaw,C,,31:41,2.0,0.0,0.0,6.0,10.0,10.0,8.0,32.0,2.0,0.0,1.0,0.0
0021400089,1610612759,SAS,San Antonio,2564,Boris Diaw,C,,31:41,102.3,99.5,2.8,0.091,0.67,18.2,0.083,0.148,0.118,27.3,0.5,0.5,0.122,96.79,0.06,2014-11-08T00:00:00,8,1610612759,SAS,San Antonio,2-3,23,30,18,28,0,0,0,0,0,0,0,0,0,0,99,0.45,0.759,0.278,15,49,18,0021400089,1610612759,SAS,San Antonio,Boris Diaw,C,,31:41,2.0,0.0,0.0,6.0,10.0,10.0,8.0,32.0,2.0,0.0,1.0,0.0
0021400089,1610612759,SAS,San Antonio,201980,Danny Green,G,,32:42,107.2,104.7,2.5,0.095,0.0,17.7,0.077,0.071,0.074,0.0,0.813,0.858,0.122,97.65,0.153,2014-11-08T00:00:00,8,1610612740,NOP,New Orleans,3-2,30,25,26,19,0,0,0,0,0,0,0,0,0,0,100,0.471,0.857,0.381,22,30,11,0021400089,1610612759,SAS,San Antonio,Danny Green,G,,32:42,3.0,5.0,0.0,2.0,14.0,12.0,7.0,32.0,2.0,1.0,2.0,1.0
0021400089,1610612759,SAS,San Antonio,201980,Danny Green,G,,32:42,107.2,104.7,2.5,0.095,0.0,17.7,0.077,0.071,0.074,0.0,0.813,0.858,0.122,97.65,0.153,2014-11-08T00:00:00,8,1610612759,SAS,San Antonio,2-3,23,30,18,28,0,0,0,0,0,0,0,0,0,0,99,0.45,0.759,0.278,15,49,18,0021400089,1610612759,SAS,San Antonio,Danny Green,G,,32:42,3.0,5.0,0.0,2.0,14.0,12.0,7.0,32.0,2.0,1.0,2.0,1.0
0021400089,1610612759,SAS,San Antonio,2225,Tony Parker,G,,33:36,101.4,103.3,-1.8,0.267,0.8,13.5,0.0,0.1,0.052,16.9,0.611,0.678,0.329,97.02,0.169,2014-11-08T00:00:00,8,1610612740,NOP,New Orleans,3-2,30,25,26,19,0,0,0,0,0,0,0,0,0,0,100,0.471,0.857,0.381,22,30,11,0021400089,1610612759,SAS,San Antonio,Tony Parker,G,,33:36,0.0,0.0,2.0,10.0,12.0,10.0,10.0,34.0,0.0,0.0,2.0,3.0
0021400089,1610612759,SAS,San Antonio,2225,Tony Parker,G,,33:36,101.4,103.3,-1.8,0.267,0.8,13.5,0.0,0.1,0.052,16.9,0.611,0.678,0.329,97.02,0.169,2014-11-08T00:00:00,8,1610612759,SAS,San Antonio,2-3,23,30,18,28,0,0,0,0,0,0,0,0,0,0,99,0.45,0.759,0.278,15,49,18,0021400089,1610612759,SAS,San Antonio,Tony Parker,G,,33:36,0.0,0.0,2.0,10.0,12.0,10.0,10.0,34.0,0.0,0.0,2.0,3.0
0021400089,1610612759,SAS,San Antonio,1938,Manu Ginobili,,,26:33,92.7,93.6,-1.0,0.0,0.0,0.0,0.042,0.043,0.043,19.0,0.636,0.666,0.238,98.98,0.163,2014-11-08T00:00:00,8,1610612740,NOP,New Orleans,3-2,30,25,26,19,0,0,0,0,0,0,0,0,0,0,100,0.471,0.857,0.381,22,30,11,0021400089,1610612759,SAS,San Antonio,Manu Ginobili,,,26:33,1.0,0.0,0.0,8.0,12.0,8.0,9.0,24.0,0.0,1.0,1.0,3.0
0021400089,1610612759,SAS,San Antonio,1938,Manu Ginobili,,,26:33,92.7,93.6,-1.0,0.0,0.0,0.0,0.042,0.043,0.043,19.0,0.636,0.666,0.238,98.98,0.163,2014-11-08T00:00:00,8,1610612759,SAS,San Antonio,2-3,23,30,18,28,0,0,0,0,0,0,0,0,0,0,99,0.45,0.759,0.278,15,49,18,0021400089,1610612759,SAS,San Antonio,Manu Ginobili,,,26:33,1.0,0.0,0.0,8.0,12.0,8.0,9.0,24.0,0.0,1.0,1.0,3.0
0021400089,1610612759,SAS,San Antonio,201948,Austin Daye,,,14:07,87.6,111.0,-23.4,0.0,0.0,0.0,0.056,0.3,0.143,33.3,0.0,0.0,0.165,95.61,-0.141,2014-11-08T00:00:00,8,1610612740,NOP,New Orleans,3-2,30,25,26,19,0,0,0,0,0,0,0,0,0,0,100,0.471,0.857,0.381,22,30,11,0021400089,1610612759,SAS,San Antonio,Austin Daye,,,14:07,0.0,0.0,0.0,0.0,4.0,2.0,1.0,6.0,0.0,0.0,2.0,0.0
0021400089,1610612759,SAS,San Antonio,201948,Austin Daye,,,14:07,87.6,111.0,-23.4,0.0,0.0,0.0,0.056,0.3,0.143,33.3,0.0,0.0,0.165,95.61,-0.141,2014-11-08T00:00:00,8,1610612759,SAS,San Antonio,2-3,23,30,18,28,0,0,0,0,0,0,0,0,0,0,99,0.45,0.759,0.278,15,49,18,0021400089,1610612759,SAS,San Antonio,Austin Daye,,,14:07,0.0,0.0,0.0,0.0,4.0,2.0,1.0,6.0,0.0,0.0,2.0,0.0
0021400089,1610612759,SAS,San Antonio,202709,Cory Joseph,,,15:41,105.6,113.5,-7.9,0.3,0.0,27.6,0.0,0.111,0.042,0.0,0.143,0.19,0.223,90.69,-0.081,2014-11-08T00:00:00,8,1610612740,NOP,New Orleans,3-2,30,25,26,19,0,0,0,0,0,0,0,0,0,0,100,0.471,0.857,0.381,22,30,11,0021400089,1610612759,SAS,San Antonio,Cory Joseph,,,15:41,0.0,0.0,0.0,2.0,4.0,2.0,1.0,10.0,1.0,1.0,4.0,2.0
0021400089,1610612759,SAS,San Antonio,202709,Cory Joseph,,,15:41,105.6,113.5,-7.9,0.3,0.0,27.6,0.0,0.111,0.042,0.0,0.143,0.19,0.223,90.69,-0.081,2014-11-08T00:00:00,8,1610612759,SAS,San Antonio,2-3,23,30,18,28,0,0,0,0,0,0,0,0,0,0,99,0.45,0.759,0.278,15,49,18,0021400089,1610612759,SAS,San Antonio,Cory Joseph,,,15:41,0.0,0.0,0.0,2.0,4.0,2.0,1.0,10.0,1.0,1.0,4.0,2.0
0021400089,1610612759,SAS,San Antonio,203382,Aron Baynes,,,15:33,123.9,103.4,20.5,0.0,0.0,0.0,0.133,0.2,0.16,34.0,0.667,0.515,0.165,88.94,0.022,2014-11-08T00:00:00,8,1610612740,NOP,New Orleans,3-2,30,25,26,19,0,0,0,0,0,0,0,0,0,0,100,0.471,0.857,0.381,22,30,11,0021400089,1610612759,SAS,San Antonio,Aron Baynes,,,15:33,2.0,2.0,2.0,4.0,2.0,2.0,1.0,6.0,0.0,1.0,1.0,3.0
0021400089,1610612759,SAS,San Antonio,203382,Aron Baynes,,,15:33,123.9,103.4,20.5,0.0,0.0,0.0,0.133,0.2,0.16,34.0,0.667,0.515,0.165,88.94,0.022,2014-11-08T00:00:00,8,1610612759,SAS,San Antonio,2-3,23,30,18,28,0,0,0,0,0,0,0,0,0,0,99,0.45,0.759,0.278,15,49,18,0021400089,1610612759,SAS,San Antonio,Aron Baynes,,,15:33,2.0,2.0,2.0,4.0,2.0,2.0,1.0,6.0,0.0,1.0,1.0,3.0
0021400089,1610612759,SAS,San Antonio,201965,Jeff Ayres,,,1:01,159.6,200.0,-40.4,0.0,0.0,0.0,1.0,0.0,1.0,0.0,0.0,0.0,0.0,67.99,0.2,2014-11-08T00:00:00,8,1610612740,NOP,New Orleans,3-2,30,25,26,19,0,0,0,0,0,0,0,0,0,0,100,0.471,0.857,0.381,22,30,11,0021400089,1610612759,SAS,San Antonio,Jeff Ayres,,,1:01,0.0,0.0,0.0,0.0,0.0,0.0,0.0,0.0,0.0,0.0,0.0,0.0
0021400089,1610612759,SAS,San Antonio,201965,Jeff Ayres,,,1:01,159.6,200.0,-40.4,0.0,0.0,0.0,1.0,0.0,1.0,0.0,0.0,0.0,0.0,67.99,0.2,2014-11-08T00:00:00,8,1610612759,SAS,San Antonio,2-3,23,30,18,28,0,0,0,0,0,0,0,0,0,0,99,0.45,0.759,0.278,15,49,18,0021400089,1610612759,SAS,San Antonio,Jeff Ayres,,,1:01,0.0,0.0,0.0,0.0,0.0,0.0,0.0,0.0,0.0,0.0,0.0,0.0
0021400089,1610612759,SAS,San Antonio,203937,Kyle Anderson,,DNP - Coach's Decision                  ,,,,,,,0.0,,,,,,,0.0,,,2014-11-08T00:00:00,8,1610612740,NOP,New Orleans,3-2,30,25,26,19,0,0,0,0,0,0,0,0,0,0,100,0.471,0.857,0.381,22,30,11,0021400089,1610612759,SAS,San Antonio,Kyle Anderson,,DNP - Coach's Decision                  ,,,,,,,,,,,,,
0021400089,1610612759,SAS,San Antonio,203937,Kyle Anderson,,DNP - Coach's Decision                  ,,,,,,,0.0,,,,,,,0.0,,,2014-11-08T00:00:00,8,1610612759,SAS,San Antonio,2-3,23,30,18,28,0,0,0,0,0,0,0,0,0,0,99,0.45,0.759,0.278,15,49,18,0021400089,1610612759,SAS,San Antonio,Kyle Anderson,,DNP - Coach's Decision                  ,,,,,,,,,,,,,
0021400089,1610612759,SAS,San Antonio,2588,Matt Bonner,,DNP - Coach's Decision                  ,,,,,,,0.0,,,,,,,0.0,,,2014-11-08T00:00:00,8,1610612740,NOP,New Orleans,3-2,30,25,26,19,0,0,0,0,0,0,0,0,0,0,100,0.471,0.857,0.381,22,30,11,0021400089,1610612759,SAS,San Antonio,Matt Bonner,,DNP - Coach's Decision                  ,,,,,,,,,,,,,
0021400089,1610612759,SAS,San Antonio,2588,Matt Bonner,,DNP - Coach's Decision                  ,,,,,,,0.0,,,,,,,0.0,,,2014-11-08T00:00:00,8,1610612759,SAS,San Antonio,2-3,23,30,18,28,0,0,0,0,0,0,0,0,0,0,99,0.45,0.759,0.278,15,49,18,0021400089,1610612759,SAS,San Antonio,Matt Bonner,,DNP - Coach's Decision                  ,,,,,,,,,,,,,
