GAME_ID_x,TEAM_ID_x,TEAM_ABBREVIATION_x,TEAM_CITY_x,PLAYER_ID,PLAYER_NAME_x,START_POSITION_x,COMMENT_x,MIN_x,OFF_RATING,DEF_RATING,NET_RATING,AST_PCT,AST_TOV,AST_RATIO,OREB_PCT,DREB_PCT,REB_PCT,TM_TOV_PCT,EFG_PCT,TS_PCT,USG_PCT,PACE,PIE,GAME_DATE_EST,GAME_SEQUENCE,TEAM_ID_y,TEAM_ABBREVIATION_y,TEAM_CITY_NAME,TEAM_WINS_LOSSES,PTS_QTR1,PTS_QTR2,PTS_QTR3,PTS_QTR4,PTS_OT1,PTS_OT2,PTS_OT3,PTS_OT4,PTS_OT5,PTS_OT6,PTS_OT7,PTS_OT8,PTS_OT9,PTS_OT10,PTS,FG_PCT,FT_PCT,FG3_PCT,AST,REB,TOV,GAME_ID_y,TEAM_ID,TEAM_ABBREVIATION,TEAM_CITY_y,PLAYER_NAME_y,START_POSITION_y,COMMENT_y,MIN_y,PTS_OFF_TOV,PTS_2ND_CHANCE,PTS_FB,PTS_PAINT,OPP_PTS_OFF_TOV,OPP_PTS_2ND_CHANCE,OPP_PTS_FB,OPP_PTS_PAINT,BLK,BLKA,PF,PFD
0021400094,1610612748,MIA,Miami,2736,Luol Deng,F,,36:41,119.2,101.9,17.3,0.19,0.0,16.8,0.0,0.128,0.077,0.0,0.789,0.755,0.258,92.8,0.222,2014-11-09T00:00:00,5,1610612748,MIA,Miami,5-2,29,26,28,22,0,0,0,0,0,0,0,0,0,0,105,0.553,0.6,0.391,31,38,13,0021400094,1610612748,MIA,Miami,Luol Deng,F,,36:41,0.0,0.0,0.0,10.0,11.0,9.0,17.0,26.0,0.0,2.0,1.0,1.0
0021400094,1610612748,MIA,Miami,2736,Luol Deng,F,,36:41,119.2,101.9,17.3,0.19,0.0,16.8,0.0,0.128,0.077,0.0,0.789,0.755,0.258,92.8,0.222,2014-11-09T00:00:00,5,1610612742,DAL,Dallas,4-3,20,24,23,29,0,0,0,0,0,0,0,0,0,0,96,0.422,0.708,0.31,22,41,13,0021400094,1610612748,MIA,Miami,Luol Deng,F,,36:41,0.0,0.0,0.0,10.0,11.0,9.0,17.0,26.0,0.0,2.0,1.0,1.0
0021400094,1610612748,MIA,Miami,200761,Shawne Williams,F,,19:04,111.9,123.2,-11.4,0.077,1.0,14.3,0.0,0.143,0.071,14.3,0.7,0.7,0.159,90.98,0.036,2014-11-09T00:00:00,5,1610612748,MIA,Miami,5-2,29,26,28,22,0,0,0,0,0,0,0,0,0,0,105,0.553,0.6,0.391,31,38,13,0021400094,1610612748,MIA,Miami,Shawne Williams,F,,19:04,0.0,3.0,0.0,2.0,8.0,6.0,10.0,18.0,0.0,1.0,4.0,0.0
0021400094,1610612748,MIA,Miami,200761,Shawne Williams,F,,19:04,111.9,123.2,-11.4,0.077,1.0,14.3,0.0,0.143,0.071,14.3,0.7,0.7,0.159,90.98,0.036,2014-11-09T00:00:00,5,1610612742,DAL,Dallas,4-3,20,24,23,29,0,0,0,0,0,0,0,0,0,0,96,0.422,0.708,0.31,22,41,13,0021400094,1610612748,MIA,Miami,Shawne Williams,F,,19:04,0.0,3.0,0.0,2.0,8.0,6.0,10.0,18.0,0.0,1.0,4.0,0.0
0021400094,1610612748,MIA,Miami,2547,Chris Bosh,C,,36:50,106.1,104.6,1.5,0.2,1.67,21.9,0.077,0.2,0.152,13.1,0.7,0.674,0.222,94.01,0.185,2014-11-09T00:00:00,5,1610612748,MIA,Miami,5-2,29,26,28,22,0,0,0,0,0,0,0,0,0,0,105,0.553,0.6,0.391,31,38,13,0021400094,1610612748,MIA,Miami,Chris Bosh,C,,36:50,5.0,0.0,0.0,4.0,15.0,11.0,17.0,28.0,0.0,0.0,0.0,5.0
0021400094,1610612748,MIA,Miami,2547,Chris Bosh,C,,36:50,106.1,104.6,1.5,0.2,1.67,21.9,0.077,0.2,0.152,13.1,0.7,0.674,0.222,94.01,0.185,2014-11-09T00:00:00,5,1610612742,DAL,Dallas,4-3,20,24,23,29,0,0,0,0,0,0,0,0,0,0,96,0.422,0.708,0.31,22,41,13,0021400094,1610612748,MIA,Miami,Chris Bosh,C,,36:50,5.0,0.0,0.0,4.0,15.0,11.0,17.0,28.0,0.0,0.0,0.0,5.0
0021400094,1610612748,MIA,Miami,2548,Dwyane Wade,G,,35:36,106.0,114.6,-8.7,0.455,3.33,31.4,0.042,0.03,0.035,9.4,0.528,0.53,0.296,93.55,0.127,2014-11-09T00:00:00,5,1610612748,MIA,Miami,5-2,29,26,28,22,0,0,0,0,0,0,0,0,0,0,105,0.553,0.6,0.391,31,38,13,0021400094,1610612748,MIA,Miami,Dwyane Wade,G,,35:36,6.0,2.0,6.0,12.0,17.0,15.0,18.0,34.0,0.0,1.0,2.0,4.0
0021400094,1610612748,MIA,Miami,2548,Dwyane Wade,G,,35:36,106.0,114.6,-8.7,0.455,3.33,31.4,0.042,0.03,0.035,9.4,0.528,0.53,0.296,93.55,0.127,2014-11-09T00:00:00,5,1610612742,DAL,Dallas,4-3,20,24,23,29,0,0,0,0,0,0,0,0,0,0,96,0.422,0.708,0.31,22,41,13,0021400094,1610612748,MIA,Miami,Dwyane Wade,G,,35:36,6.0,2.0,6.0,12.0,17.0,15.0,18.0,34.0,0.0,1.0,2.0,4.0
0021400094,1610612748,MIA,Miami,202708,Norris Cole,G,,13:38,96.7,125.0,-28.3,0.273,1.0,33.3,0.0,0.167,0.083,33.3,0.0,0.0,0.208,95.2,-0.033,2014-11-09T00:00:00,5,1610612748,MIA,Miami,5-2,29,26,28,22,0,0,0,0,0,0,0,0,0,0,105,0.553,0.6,0.391,31,38,13,0021400094,1610612748,MIA,Miami,Norris Cole,G,,13:38,0.0,0.0,0.0,0.0,6.0,4.0,9.0,14.0,0.0,0.0,2.0,0.0
0021400094,1610612748,MIA,Miami,202708,Norris Cole,G,,13:38,96.7,125.0,-28.3,0.273,1.0,33.3,0.0,0.167,0.083,33.3,0.0,0.0,0.208,95.2,-0.033,2014-11-09T00:00:00,5,1610612742,DAL,Dallas,4-3,20,24,23,29,0,0,0,0,0,0,0,0,0,0,96,0.422,0.708,0.31,22,41,13,0021400094,1610612748,MIA,Miami,Norris Cole,G,,13:38,0.0,0.0,0.0,0.0,6.0,4.0,9.0,14.0,0.0,0.0,2.0,0.0
0021400094,1610612748,MIA,Miami,2617,Udonis Haslem,,,18:32,140.8,95.1,45.8,0.056,0.0,20.5,0.111,0.267,0.208,0.0,0.667,0.773,0.111,90.43,0.095,2014-11-09T00:00:00,5,1610612748,MIA,Miami,5-2,29,26,28,22,0,0,0,0,0,0,0,0,0,0,105,0.553,0.6,0.391,31,38,13,0021400094,1610612748,MIA,Miami,Udonis Haslem,,,18:32,0.0,2.0,0.0,2.0,2.0,6.0,2.0,16.0,1.0,0.0,3.0,3.0
0021400094,1610612748,MIA,Miami,2617,Udonis Haslem,,,18:32,140.8,95.1,45.8,0.056,0.0,20.5,0.111,0.267,0.208,0.0,0.667,0.773,0.111,90.43,0.095,2014-11-09T00:00:00,5,1610612742,DAL,Dallas,4-3,20,24,23,29,0,0,0,0,0,0,0,0,0,0,96,0.422,0.708,0.31,22,41,13,0021400094,1610612748,MIA,Miami,Udonis Haslem,,,18:32,0.0,2.0,0.0,2.0,2.0,6.0,2.0,16.0,1.0,0.0,3.0,3.0
0021400094,1610612748,MIA,Miami,203894,Shabazz Napier,,,25:59,103.0,100.6,2.4,0.05,1.0,16.7,0.059,0.083,0.073,16.7,0.0,0.0,0.09,94.4,-0.023,2014-11-09T00:00:00,5,1610612748,MIA,Miami,5-2,29,26,28,22,0,0,0,0,0,0,0,0,0,0,105,0.553,0.6,0.391,31,38,13,0021400094,1610612748,MIA,Miami,Shabazz Napier,,,25:59,0.0,0.0,0.0,0.0,11.0,8.0,10.0,24.0,1.0,1.0,2.0,0.0
0021400094,1610612748,MIA,Miami,203894,Shabazz Napier,,,25:59,103.0,100.6,2.4,0.05,1.0,16.7,0.059,0.083,0.073,16.7,0.0,0.0,0.09,94.4,-0.023,2014-11-09T00:00:00,5,1610612742,DAL,Dallas,4-3,20,24,23,29,0,0,0,0,0,0,0,0,0,0,96,0.422,0.708,0.31,22,41,13,0021400094,1610612748,MIA,Miami,Shabazz Napier,,,25:59,0.0,0.0,0.0,0.0,11.0,8.0,10.0,24.0,1.0,1.0,2.0,0.0
0021400094,1610612748,MIA,Miami,201596,Mario Chalmers,,,34:22,118.1,96.3,21.7,0.16,4.0,26.1,0.0,0.029,0.018,6.5,0.833,0.872,0.16,91.68,0.142,2014-11-09T00:00:00,5,1610612748,MIA,Miami,5-2,29,26,28,22,0,0,0,0,0,0,0,0,0,0,105,0.553,0.6,0.391,31,38,13,0021400094,1610612748,MIA,Miami,Mario Chalmers,,,34:22,5.0,0.0,2.0,6.0,11.0,11.0,10.0,26.0,0.0,0.0,4.0,1.0
0021400094,1610612748,MIA,Miami,201596,Mario Chalmers,,,34:22,118.1,96.3,21.7,0.16,4.0,26.1,0.0,0.029,0.018,6.5,0.833,0.872,0.16,91.68,0.142,2014-11-09T00:00:00,5,1610612742,DAL,Dallas,4-3,20,24,23,29,0,0,0,0,0,0,0,0,0,0,96,0.422,0.708,0.31,22,41,13,0021400094,1610612748,MIA,Miami,Mario Chalmers,,,34:22,5.0,0.0,2.0,6.0,11.0,11.0,10.0,26.0,0.0,0.0,4.0,1.0
0021400094,1610612748,MIA,Miami,203516,James Ennis III,,,2:30,80.0,150.0,-70.0,0.0,0.0,0.0,0.0,0.0,0.0,0.0,0.0,0.0,0.4,86.4,-0.154,2014-11-09T00:00:00,5,1610612748,MIA,Miami,5-2,29,26,28,22,0,0,0,0,0,0,0,0,0,0,105,0.553,0.6,0.391,31,38,13,0021400094,1610612748,MIA,Miami,James Ennis III,,,2:30,0.0,0.0,0.0,0.0,0.0,0.0,0.0,4.0,0.0,1.0,0.0,0.0
0021400094,1610612748,MIA,Miami,203516,James Ennis III,,,2:30,80.0,150.0,-70.0,0.0,0.0,0.0,0.0,0.0,0.0,0.0,0.0,0.0,0.4,86.4,-0.154,2014-11-09T00:00:00,5,1610612742,DAL,Dallas,4-3,20,24,23,29,0,0,0,0,0,0,0,0,0,0,96,0.422,0.708,0.31,22,41,13,0021400094,1610612748,MIA,Miami,James Ennis III,,,2:30,0.0,0.0,0.0,0.0,0.0,0.0,0.0,4.0,0.0,1.0,0.0,0.0
0021400094,1610612748,MIA,Miami,201177,Josh McRoberts,,,16:48,111.1,81.1,30.0,0.182,2.0,33.3,0.1,0.318,0.25,16.7,0.667,0.667,0.116,90.34,0.165,2014-11-09T00:00:00,5,1610612748,MIA,Miami,5-2,29,26,28,22,0,0,0,0,0,0,0,0,0,0,105,0.553,0.6,0.391,31,38,13,0021400094,1610612748,MIA,Miami,Josh McRoberts,,,16:48,0.0,2.0,2.0,4.0,4.0,5.0,2.0,10.0,1.0,1.0,5.0,1.0
0021400094,1610612748,MIA,Miami,201177,Josh McRoberts,,,16:48,111.1,81.1,30.0,0.182,2.0,33.3,0.1,0.318,0.25,16.7,0.667,0.667,0.116,90.34,0.165,2014-11-09T00:00:00,5,1610612742,DAL,Dallas,4-3,20,24,23,29,0,0,0,0,0,0,0,0,0,0,96,0.422,0.708,0.31,22,41,13,0021400094,1610612748,MIA,Miami,Josh McRoberts,,,16:48,0.0,2.0,2.0,4.0,4.0,5.0,2.0,10.0,1.0,1.0,5.0,1.0
0021400094,1610612748,MIA,Miami,200769,Shannon Brown,,DNP - Coach's Decision                  ,,,,,,,0.0,,,,,,,0.0,,,2014-11-09T00:00:00,5,1610612748,MIA,Miami,5-2,29,26,28,22,0,0,0,0,0,0,0,0,0,0,105,0.553,0.6,0.391,31,38,13,0021400094,1610612748,MIA,Miami,Shannon Brown,,DNP - Coach's Decision                  ,,,,,,,,,,,,,
0021400094,1610612748,MIA,Miami,200769,Shannon Brown,,DNP - Coach's Decision                  ,,,,,,,0.0,,,,,,,0.0,,,2014-11-09T00:00:00,5,1610612742,DAL,Dallas,4-3,20,24,23,29,0,0,0,0,0,0,0,0,0,0,96,0.422,0.708,0.31,22,41,13,0021400094,1610612748,MIA,Miami,Shannon Brown,,DNP - Coach's Decision                  ,,,,,,,,,,,,,
0021400094,1610612748,MIA,Miami,203958,Andre Dawkins,,DNP - Coach's Decision                  ,,,,,,,0.0,,,,,,,0.0,,,2014-11-09T00:00:00,5,1610612748,MIA,Miami,5-2,29,26,28,22,0,0,0,0,0,0,0,0,0,0,105,0.553,0.6,0.391,31,38,13,0021400094,1610612748,MIA,Miami,Andre Dawkins,,DNP - Coach's Decision                  ,,,,,,,,,,,,,
0021400094,1610612748,MIA,Miami,203958,Andre Dawkins,,DNP - Coach's Decision                  ,,,,,,,0.0,,,,,,,0.0,,,2014-11-09T00:00:00,5,1610612742,DAL,Dallas,4-3,20,24,23,29,0,0,0,0,0,0,0,0,0,0,96,0.422,0.708,0.31,22,41,13,0021400094,1610612748,MIA,Miami,Andre Dawkins,,DNP - Coach's Decision                  ,,,,,,,,,,,,,
0021400094,1610612748,MIA,Miami,101122,Danny Granger,,DNP - Coach's Decision                  ,,,,,,,0.0,,,,,,,0.0,,,2014-11-09T00:00:00,5,1610612748,MIA,Miami,5-2,29,26,28,22,0,0,0,0,0,0,0,0,0,0,105,0.553,0.6,0.391,31,38,13,0021400094,1610612748,MIA,Miami,Danny Granger,,DNP - Coach's Decision                  ,,,,,,,,,,,,,
0021400094,1610612748,MIA,Miami,101122,Danny Granger,,DNP - Coach's Decision                  ,,,,,,,0.0,,,,,,,0.0,,,2014-11-09T00:00:00,5,1610612742,DAL,Dallas,4-3,20,24,23,29,0,0,0,0,0,0,0,0,0,0,96,0.422,0.708,0.31,22,41,13,0021400094,1610612748,MIA,Miami,Danny Granger,,DNP - Coach's Decision                  ,,,,,,,,,,,,,
0021400094,1610612742,DAL,Dallas,202718,Chandler Parsons,F,,29:13,118.6,97.8,20.8,0.043,0.5,7.8,0.077,0.19,0.128,15.5,0.111,0.202,0.176,95.12,0.014,2014-11-09T00:00:00,5,1610612748,MIA,Miami,5-2,29,26,28,22,0,0,0,0,0,0,0,0,0,0,105,0.553,0.6,0.391,31,38,13,0021400094,1610612742,DAL,Dallas,Chandler Parsons,F,,29:13,2.0,0.0,4.0,2.0,10.0,5.0,6.0,18.0,3.0,0.0,2.0,1.0
0021400094,1610612742,DAL,Dallas,202718,Chandler Parsons,F,,29:13,118.6,97.8,20.8,0.043,0.5,7.8,0.077,0.19,0.128,15.5,0.111,0.202,0.176,95.12,0.014,2014-11-09T00:00:00,5,1610612742,DAL,Dallas,4-3,20,24,23,29,0,0,0,0,0,0,0,0,0,0,96,0.422,0.708,0.31,22,41,13,0021400094,1610612742,DAL,Dallas,Chandler Parsons,F,,29:13,2.0,0.0,4.0,2.0,10.0,5.0,6.0,18.0,3.0,0.0,2.0,1.0
0021400094,1610612742,DAL,Dallas,1717,Dirk Nowitzki,F,,29:53,106.4,131.5,-25.1,0.176,3.0,14.5,0.0,0.375,0.12,4.8,0.467,0.507,0.256,89.3,0.126,2014-11-09T00:00:00,5,1610612748,MIA,Miami,5-2,29,26,28,22,0,0,0,0,0,0,0,0,0,0,105,0.553,0.6,0.391,31,38,13,0021400094,1610612742,DAL,Dallas,Dirk Nowitzki,F,,29:53,0.0,0.0,3.0,4.0,9.0,7.0,2.0,30.0,1.0,0.0,0.0,5.0
0021400094,1610612742,DAL,Dallas,1717,Dirk Nowitzki,F,,29:53,106.4,131.5,-25.1,0.176,3.0,14.5,0.0,0.375,0.12,4.8,0.467,0.507,0.256,89.3,0.126,2014-11-09T00:00:00,5,1610612742,DAL,Dallas,4-3,20,24,23,29,0,0,0,0,0,0,0,0,0,0,96,0.422,0.708,0.31,22,41,13,0021400094,1610612742,DAL,Dallas,Dirk Nowitzki,F,,29:53,0.0,0.0,3.0,4.0,9.0,7.0,2.0,30.0,1.0,0.0,0.0,5.0
0021400094,1610612742,DAL,Dallas,2199,Tyson Chandler,C,,29:48,110.6,115.3,-4.7,0.133,0.67,12.3,0.323,0.25,0.294,18.4,0.7,0.707,0.21,89.14,0.185,2014-11-09T00:00:00,5,1610612748,MIA,Miami,5-2,29,26,28,22,0,0,0,0,0,0,0,0,0,0,105,0.553,0.6,0.391,31,38,13,0021400094,1610612742,DAL,Dallas,Tyson Chandler,C,,29:48,6.0,7.0,0.0,12.0,11.0,5.0,4.0,20.0,1.0,0.0,1.0,5.0
0021400094,1610612742,DAL,Dallas,2199,Tyson Chandler,C,,29:48,110.6,115.3,-4.7,0.133,0.67,12.3,0.323,0.25,0.294,18.4,0.7,0.707,0.21,89.14,0.185,2014-11-09T00:00:00,5,1610612742,DAL,Dallas,4-3,20,24,23,29,0,0,0,0,0,0,0,0,0,0,96,0.422,0.708,0.31,22,41,13,0021400094,1610612742,DAL,Dallas,Tyson Chandler,C,,29:48,6.0,7.0,0.0,12.0,11.0,5.0,4.0,20.0,1.0,0.0,1.0,5.0
0021400094,1610612742,DAL,Dallas,101145,Monta Ellis,G,,34:08,113.2,111.5,1.8,0.25,2.5,21.2,0.03,0.042,0.035,8.5,0.643,0.691,0.241,90.76,0.117,2014-11-09T00:00:00,5,1610612748,MIA,Miami,5-2,29,26,28,22,0,0,0,0,0,0,0,0,0,0,105,0.553,0.6,0.391,31,38,13,0021400094,1610612742,DAL,Dallas,Monta Ellis,G,,34:08,0.0,2.0,5.0,8.0,13.0,7.0,8.0,24.0,0.0,0.0,5.0,4.0
0021400094,1610612742,DAL,Dallas,101145,Monta Ellis,G,,34:08,113.2,111.5,1.8,0.25,2.5,21.2,0.03,0.042,0.035,8.5,0.643,0.691,0.241,90.76,0.117,2014-11-09T00:00:00,5,1610612742,DAL,Dallas,4-3,20,24,23,29,0,0,0,0,0,0,0,0,0,0,96,0.422,0.708,0.31,22,41,13,0021400094,1610612742,DAL,Dallas,Monta Ellis,G,,34:08,0.0,2.0,5.0,8.0,13.0,7.0,8.0,24.0,0.0,0.0,5.0,4.0
0021400094,1610612742,DAL,Dallas,2749,Jameer Nelson,G,,28:13,120.0,109.2,10.8,0.25,1.25,26.5,0.0,0.1,0.043,21.2,0.556,0.557,0.21,93.56,0.061,2014-11-09T00:00:00,5,1610612748,MIA,Miami,5-2,29,26,28,22,0,0,0,0,0,0,0,0,0,0,105,0.553,0.6,0.391,31,38,13,0021400094,1610612742,DAL,Dallas,Jameer Nelson,G,,28:13,2.0,0.0,2.0,4.0,10.0,5.0,4.0,18.0,0.0,0.0,2.0,1.0
0021400094,1610612742,DAL,Dallas,2749,Jameer Nelson,G,,28:13,120.0,109.2,10.8,0.25,1.25,26.5,0.0,0.1,0.043,21.2,0.556,0.557,0.21,93.56,0.061,2014-11-09T00:00:00,5,1610612742,DAL,Dallas,4-3,20,24,23,29,0,0,0,0,0,0,0,0,0,0,96,0.422,0.708,0.31,22,41,13,0021400094,1610612742,DAL,Dallas,Jameer Nelson,G,,28:13,2.0,0.0,2.0,4.0,10.0,5.0,4.0,18.0,0.0,0.0,2.0,1.0
0021400094,1610612742,DAL,Dallas,202329,Al-Farouq Aminu,,,18:15,77.1,118.1,-41.0,0.143,0.0,25.0,0.0,0.167,0.069,0.0,0.333,0.333,0.086,92.18,0.042,2014-11-09T00:00:00,5,1610612748,MIA,Miami,5-2,29,26,28,22,0,0,0,0,0,0,0,0,0,0,105,0.553,0.6,0.391,31,38,13,0021400094,1610612742,DAL,Dallas,Al-Farouq Aminu,,,18:15,0.0,0.0,0.0,2.0,9.0,2.0,4.0,16.0,1.0,0.0,1.0,0.0
0021400094,1610612742,DAL,Dallas,202329,Al-Farouq Aminu,,,18:15,77.1,118.1,-41.0,0.143,0.0,25.0,0.0,0.167,0.069,0.0,0.333,0.333,0.086,92.18,0.042,2014-11-09T00:00:00,5,1610612742,DAL,Dallas,4-3,20,24,23,29,0,0,0,0,0,0,0,0,0,0,96,0.422,0.708,0.31,22,41,13,0021400094,1610612742,DAL,Dallas,Al-Farouq Aminu,,,18:15,0.0,0.0,0.0,2.0,9.0,2.0,4.0,16.0,1.0,0.0,1.0,0.0
0021400094,1610612742,DAL,Dallas,201148,Brandan Wright,,,18:12,96.2,107.1,-11.0,0.0,0.0,0.0,0.0,0.167,0.071,25.8,1.0,0.694,0.101,98.48,0.015,2014-11-09T00:00:00,5,1610612748,MIA,Miami,5-2,29,26,28,22,0,0,0,0,0,0,0,0,0,0,105,0.553,0.6,0.391,31,38,13,0021400094,1610612742,DAL,Dallas,Brandan Wright,,,18:12,2.0,2.0,0.0,4.0,5.0,4.0,6.0,20.0,0.0,0.0,2.0,1.0
0021400094,1610612742,DAL,Dallas,201148,Brandan Wright,,,18:12,96.2,107.1,-11.0,0.0,0.0,0.0,0.0,0.167,0.071,25.8,1.0,0.694,0.101,98.48,0.015,2014-11-09T00:00:00,5,1610612742,DAL,Dallas,4-3,20,24,23,29,0,0,0,0,0,0,0,0,0,0,96,0.422,0.708,0.31,22,41,13,0021400094,1610612742,DAL,Dallas,Brandan Wright,,,18:12,2.0,2.0,0.0,4.0,5.0,4.0,6.0,20.0,0.0,0.0,2.0,1.0
0021400094,1610612742,DAL,Dallas,2734,Devin Harris,,,20:56,81.5,117.5,-36.1,0.182,0.0,34.0,0.0,0.077,0.029,0.0,0.0,0.129,0.092,91.86,0.023,2014-11-09T00:00:00,5,1610612748,MIA,Miami,5-2,29,26,28,22,0,0,0,0,0,0,0,0,0,0,105,0.553,0.6,0.391,31,38,13,0021400094,1610612742,DAL,Dallas,Devin Harris,,,20:56,0.0,0.0,0.0,0.0,7.0,4.0,6.0,22.0,1.0,0.0,0.0,2.0
0021400094,1610612742,DAL,Dallas,2734,Devin Harris,,,20:56,81.5,117.5,-36.1,0.182,0.0,34.0,0.0,0.077,0.029,0.0,0.0,0.129,0.092,91.86,0.023,2014-11-09T00:00:00,5,1610612742,DAL,Dallas,4-3,20,24,23,29,0,0,0,0,0,0,0,0,0,0,96,0.422,0.708,0.31,22,41,13,0021400094,1610612742,DAL,Dallas,Devin Harris,,,20:56,0.0,0.0,0.0,0.0,7.0,4.0,6.0,22.0,1.0,0.0,0.0,2.0
0021400094,1610612742,DAL,Dallas,200826,J.J. Barea,,,12:38,90.9,110.2,-19.3,0.333,0.0,18.2,0.0,0.143,0.048,0.0,0.167,0.167,0.344,95.97,0.0,2014-11-09T00:00:00,5,1610612748,MIA,Miami,5-2,29,26,28,22,0,0,0,0,0,0,0,0,0,0,105,0.553,0.6,0.391,31,38,13,0021400094,1610612742,DAL,Dallas,J.J. Barea,,,12:38,3.0,0.0,0.0,0.0,2.0,2.0,2.0,16.0,0.0,2.0,0.0,1.0
0021400094,1610612742,DAL,Dallas,200826,J.J. Barea,,,12:38,90.9,110.2,-19.3,0.333,0.0,18.2,0.0,0.143,0.048,0.0,0.167,0.167,0.344,95.97,0.0,2014-11-09T00:00:00,5,1610612742,DAL,Dallas,4-3,20,24,23,29,0,0,0,0,0,0,0,0,0,0,96,0.422,0.708,0.31,22,41,13,0021400094,1610612742,DAL,Dallas,J.J. Barea,,,12:38,3.0,0.0,0.0,0.0,2.0,2.0,2.0,16.0,0.0,2.0,0.0,1.0
0021400094,1610612742,DAL,Dallas,2210,Richard Jefferson,,,6:35,81.2,114.7,-33.5,0.0,0.0,0.0,0.125,0.333,0.214,0.0,0.0,0.0,0.15,92.71,0.03,2014-11-09T00:00:00,5,1610612748,MIA,Miami,5-2,29,26,28,22,0,0,0,0,0,0,0,0,0,0,105,0.553,0.6,0.391,31,38,13,0021400094,1610612742,DAL,Dallas,Richard Jefferson,,,6:35,0.0,0.0,0.0,0.0,0.0,2.0,2.0,4.0,0.0,1.0,1.0,0.0
0021400094,1610612742,DAL,Dallas,2210,Richard Jefferson,,,6:35,81.2,114.7,-33.5,0.0,0.0,0.0,0.125,0.333,0.214,0.0,0.0,0.0,0.15,92.71,0.03,2014-11-09T00:00:00,5,1610612742,DAL,Dallas,4-3,20,24,23,29,0,0,0,0,0,0,0,0,0,0,96,0.422,0.708,0.31,22,41,13,0021400094,1610612742,DAL,Dallas,Richard Jefferson,,,6:35,0.0,0.0,0.0,0.0,0.0,2.0,2.0,4.0,0.0,1.0,1.0,0.0
0021400094,1610612742,DAL,Dallas,203109,Jae Crowder,,,12:05,119.8,91.4,28.5,0.167,0.0,12.0,0.111,0.0,0.056,0.0,1.0,1.025,0.26,95.88,0.333,2014-11-09T00:00:00,5,1610612748,MIA,Miami,5-2,29,26,28,22,0,0,0,0,0,0,0,0,0,0,105,0.553,0.6,0.391,31,38,13,0021400094,1610612742,DAL,Dallas,Jae Crowder,,,12:05,2.0,4.0,5.0,4.0,4.0,2.0,6.0,12.0,0.0,0.0,1.0,3.0
0021400094,1610612742,DAL,Dallas,203109,Jae Crowder,,,12:05,119.8,91.4,28.5,0.167,0.0,12.0,0.111,0.0,0.056,0.0,1.0,1.025,0.26,95.88,0.333,2014-11-09T00:00:00,5,1610612742,DAL,Dallas,4-3,20,24,23,29,0,0,0,0,0,0,0,0,0,0,96,0.422,0.708,0.31,22,41,13,0021400094,1610612742,DAL,Dallas,Jae Crowder,,,12:05,2.0,4.0,5.0,4.0,4.0,2.0,6.0,12.0,0.0,0.0,1.0,3.0
0021400094,1610612742,DAL,Dallas,101111,Charlie Villanueva,,,0:05,0.0,0.0,0.0,0.0,0.0,0.0,0.0,0.0,0.0,0.0,0.0,0.0,1.0,282.35,1.0,2014-11-09T00:00:00,5,1610612748,MIA,Miami,5-2,29,26,28,22,0,0,0,0,0,0,0,0,0,0,105,0.553,0.6,0.391,31,38,13,0021400094,1610612742,DAL,Dallas,Charlie Villanueva,,,0:05,0.0,0.0,0.0,0.0,0.0,0.0,0.0,0.0,0.0,0.0,0.0,0.0
0021400094,1610612742,DAL,Dallas,101111,Charlie Villanueva,,,0:05,0.0,0.0,0.0,0.0,0.0,0.0,0.0,0.0,0.0,0.0,0.0,0.0,1.0,282.35,1.0,2014-11-09T00:00:00,5,1610612742,DAL,Dallas,4-3,20,24,23,29,0,0,0,0,0,0,0,0,0,0,96,0.422,0.708,0.31,22,41,13,0021400094,1610612742,DAL,Dallas,Charlie Villanueva,,,0:05,0.0,0.0,0.0,0.0,0.0,0.0,0.0,0.0,0.0,0.0,0.0,0.0
0021400094,1610612742,DAL,Dallas,202962,Greg Smith,,DNP - Coach's Decision                  ,,,,,,,0.0,,,,,,,0.0,,,2014-11-09T00:00:00,5,1610612748,MIA,Miami,5-2,29,26,28,22,0,0,0,0,0,0,0,0,0,0,105,0.553,0.6,0.391,31,38,13,0021400094,1610612742,DAL,Dallas,Greg Smith,,DNP - Coach's Decision                  ,,,,,,,,,,,,,
0021400094,1610612742,DAL,Dallas,202962,Greg Smith,,DNP - Coach's Decision                  ,,,,,,,0.0,,,,,,,0.0,,,2014-11-09T00:00:00,5,1610612742,DAL,Dallas,4-3,20,24,23,29,0,0,0,0,0,0,0,0,0,0,96,0.422,0.708,0.31,22,41,13,0021400094,1610612742,DAL,Dallas,Greg Smith,,DNP - Coach's Decision                  ,,,,,,,,,,,,,
