GAME_ID_x,TEAM_ID_x,TEAM_ABBREVIATION_x,TEAM_CITY_x,PLAYER_ID,PLAYER_NAME_x,START_POSITION_x,COMMENT_x,MIN_x,OFF_RATING,DEF_RATING,NET_RATING,AST_PCT,AST_TOV,AST_RATIO,OREB_PCT,DREB_PCT,REB_PCT,TM_TOV_PCT,EFG_PCT,TS_PCT,USG_PCT,PACE,PIE,GAME_DATE_EST,GAME_SEQUENCE,TEAM_ID_y,TEAM_ABBREVIATION_y,TEAM_CITY_NAME,TEAM_WINS_LOSSES,PTS_QTR1,PTS_QTR2,PTS_QTR3,PTS_QTR4,PTS_OT1,PTS_OT2,PTS_OT3,PTS_OT4,PTS_OT5,PTS_OT6,PTS_OT7,PTS_OT8,PTS_OT9,PTS_OT10,PTS,FG_PCT,FT_PCT,FG3_PCT,AST,REB,TOV,GAME_ID_y,TEAM_ID,TEAM_ABBREVIATION,TEAM_CITY_y,PLAYER_NAME_y,START_POSITION_y,COMMENT_y,MIN_y,PTS_OFF_TOV,PTS_2ND_CHANCE,PTS_FB,PTS_PAINT,OPP_PTS_OFF_TOV,OPP_PTS_2ND_CHANCE,OPP_PTS_FB,OPP_PTS_PAINT,BLK,BLKA,PF,PFD
0021400101,1610612765,DET,Detroit,202328,Greg Monroe,F,,35:44,94.0,99.4,-5.4,0.125,0.67,10.0,0.029,0.237,0.137,15.0,0.533,0.533,0.233,95.79,0.126,2014-11-10T00:00:00,4,1610612765,DET,Detroit,2-5,21,23,26,21,0,0,0,0,0,0,0,0,0,0,91,0.425,0.64,0.5,19,46,15,0021400101,1610612765,DET,Detroit,Greg Monroe,F,,35:44,0.0,0.0,0.0,12.0,10.0,12.0,10.0,38.0,0.0,2.0,3.0,3.0
0021400101,1610612765,DET,Detroit,202328,Greg Monroe,F,,35:44,94.0,99.4,-5.4,0.125,0.67,10.0,0.029,0.237,0.137,15.0,0.533,0.533,0.233,95.79,0.126,2014-11-10T00:00:00,4,1610612741,CHI,Chicago,6-2,27,33,18,24,0,0,0,0,0,0,0,0,0,0,102,0.443,0.85,0.35,22,49,10,0021400101,1610612765,DET,Detroit,Greg Monroe,F,,35:44,0.0,0.0,0.0,12.0,10.0,12.0,10.0,38.0,0.0,2.0,3.0,3.0
0021400101,1610612765,DET,Detroit,2746,Josh Smith,F,,38:35,89.2,105.0,-15.8,0.222,1.33,14.6,0.049,0.257,0.145,11.0,0.447,0.468,0.273,99.15,0.116,2014-11-10T00:00:00,4,1610612765,DET,Detroit,2-5,21,23,26,21,0,0,0,0,0,0,0,0,0,0,91,0.425,0.64,0.5,19,46,15,0021400101,1610612765,DET,Detroit,Josh Smith,F,,38:35,0.0,4.0,3.0,12.0,10.0,10.0,5.0,40.0,3.0,1.0,4.0,3.0
0021400101,1610612765,DET,Detroit,2746,Josh Smith,F,,38:35,89.2,105.0,-15.8,0.222,1.33,14.6,0.049,0.257,0.145,11.0,0.447,0.468,0.273,99.15,0.116,2014-11-10T00:00:00,4,1610612741,CHI,Chicago,6-2,27,33,18,24,0,0,0,0,0,0,0,0,0,0,102,0.443,0.85,0.35,22,49,10,0021400101,1610612765,DET,Detroit,Josh Smith,F,,38:35,0.0,4.0,3.0,12.0,10.0,10.0,5.0,40.0,3.0,1.0,4.0,3.0
0021400101,1610612765,DET,Detroit,203083,Andre Drummond,C,,36:27,98.0,104.3,-6.3,0.0,0.0,0.0,0.111,0.229,0.169,30.7,0.0,0.148,0.123,95.1,-0.02,2014-11-10T00:00:00,4,1610612765,DET,Detroit,2-5,21,23,26,21,0,0,0,0,0,0,0,0,0,0,91,0.425,0.64,0.5,19,46,15,0021400101,1610612765,DET,Detroit,Andre Drummond,C,,36:27,0.0,2.0,0.0,0.0,10.0,8.0,12.0,34.0,1.0,0.0,6.0,2.0
0021400101,1610612765,DET,Detroit,203083,Andre Drummond,C,,36:27,98.0,104.3,-6.3,0.0,0.0,0.0,0.111,0.229,0.169,30.7,0.0,0.148,0.123,95.1,-0.02,2014-11-10T00:00:00,4,1610612741,CHI,Chicago,6-2,27,33,18,24,0,0,0,0,0,0,0,0,0,0,102,0.443,0.85,0.35,22,49,10,0021400101,1610612765,DET,Detroit,Andre Drummond,C,,36:27,0.0,2.0,0.0,0.0,10.0,8.0,12.0,34.0,1.0,0.0,6.0,2.0
0021400101,1610612765,DET,Detroit,203484,Kentavious Caldwell-Pope,G,,28:37,89.7,105.2,-15.5,0.059,0.0,8.5,0.0,0.038,0.018,0.0,0.389,0.418,0.171,96.28,0.02,2014-11-10T00:00:00,4,1610612765,DET,Detroit,2-5,21,23,26,21,0,0,0,0,0,0,0,0,0,0,91,0.425,0.64,0.5,19,46,15,0021400101,1610612765,DET,Detroit,Kentavious Caldwell-Pope,G,,28:37,1.0,0.0,0.0,0.0,6.0,8.0,5.0,28.0,0.0,1.0,1.0,3.0
0021400101,1610612765,DET,Detroit,203484,Kentavious Caldwell-Pope,G,,28:37,89.7,105.2,-15.5,0.059,0.0,8.5,0.0,0.038,0.018,0.0,0.389,0.418,0.171,96.28,0.02,2014-11-10T00:00:00,4,1610612741,CHI,Chicago,6-2,27,33,18,24,0,0,0,0,0,0,0,0,0,0,102,0.443,0.85,0.35,22,49,10,0021400101,1610612765,DET,Detroit,Kentavious Caldwell-Pope,G,,28:37,1.0,0.0,0.0,0.0,6.0,8.0,5.0,28.0,0.0,1.0,1.0,3.0
0021400101,1610612765,DET,Detroit,201943,Brandon Jennings,G,,27:17,98.5,98.3,0.2,0.444,2.0,32.3,0.034,0.154,0.091,16.2,0.364,0.431,0.271,96.59,0.107,2014-11-10T00:00:00,4,1610612765,DET,Detroit,2-5,21,23,26,21,0,0,0,0,0,0,0,0,0,0,91,0.425,0.64,0.5,19,46,15,0021400101,1610612765,DET,Detroit,Brandon Jennings,G,,27:17,1.0,3.0,3.0,2.0,4.0,8.0,3.0,24.0,1.0,1.0,3.0,2.0
0021400101,1610612765,DET,Detroit,201943,Brandon Jennings,G,,27:17,98.5,98.3,0.2,0.444,2.0,32.3,0.034,0.154,0.091,16.2,0.364,0.431,0.271,96.59,0.107,2014-11-10T00:00:00,4,1610612741,CHI,Chicago,6-2,27,33,18,24,0,0,0,0,0,0,0,0,0,0,102,0.443,0.85,0.35,22,49,10,0021400101,1610612765,DET,Detroit,Brandon Jennings,G,,27:17,1.0,3.0,3.0,2.0,4.0,8.0,3.0,24.0,1.0,1.0,3.0,2.0
0021400101,1610612765,DET,Detroit,2406,Caron Butler,,,26:54,105.8,101.5,4.3,0.111,0.0,23.7,0.037,0.154,0.094,0.0,0.667,0.699,0.106,99.0,0.108,2014-11-10T00:00:00,4,1610612765,DET,Detroit,2-5,21,23,26,21,0,0,0,0,0,0,0,0,0,0,91,0.425,0.64,0.5,19,46,15,0021400101,1610612765,DET,Detroit,Caron Butler,,,26:54,3.0,0.0,0.0,0.0,10.0,6.0,7.0,28.0,0.0,1.0,2.0,1.0
0021400101,1610612765,DET,Detroit,2406,Caron Butler,,,26:54,105.8,101.5,4.3,0.111,0.0,23.7,0.037,0.154,0.094,0.0,0.667,0.699,0.106,99.0,0.108,2014-11-10T00:00:00,4,1610612741,CHI,Chicago,6-2,27,33,18,24,0,0,0,0,0,0,0,0,0,0,102,0.443,0.85,0.35,22,49,10,0021400101,1610612765,DET,Detroit,Caron Butler,,,26:54,3.0,0.0,0.0,0.0,10.0,6.0,7.0,28.0,0.0,1.0,2.0,1.0
0021400101,1610612765,DET,Detroit,202713,Kyle Singler,,,25:43,86.8,111.7,-24.9,0.0,0.0,0.0,0.0,0.042,0.02,0.0,0.643,0.643,0.12,99.86,0.094,2014-11-10T00:00:00,4,1610612765,DET,Detroit,2-5,21,23,26,21,0,0,0,0,0,0,0,0,0,0,91,0.425,0.64,0.5,19,46,15,0021400101,1610612765,DET,Detroit,Kyle Singler,,,25:43,2.0,0.0,5.0,4.0,10.0,4.0,9.0,32.0,1.0,1.0,0.0,0.0
0021400101,1610612765,DET,Detroit,202713,Kyle Singler,,,25:43,86.8,111.7,-24.9,0.0,0.0,0.0,0.0,0.042,0.02,0.0,0.643,0.643,0.12,99.86,0.094,2014-11-10T00:00:00,4,1610612741,CHI,Chicago,6-2,27,33,18,24,0,0,0,0,0,0,0,0,0,0,102,0.443,0.85,0.35,22,49,10,0021400101,1610612765,DET,Detroit,Kyle Singler,,,25:43,2.0,0.0,5.0,4.0,10.0,4.0,9.0,32.0,1.0,1.0,0.0,0.0
0021400101,1610612765,DET,Detroit,201571,D.J. Augustin,,,20:43,87.8,112.0,-24.3,0.25,1.0,12.5,0.0,0.05,0.025,12.5,0.625,0.669,0.316,98.47,0.138,2014-11-10T00:00:00,4,1610612765,DET,Detroit,2-5,21,23,26,21,0,0,0,0,0,0,0,0,0,0,91,0.425,0.64,0.5,19,46,15,0021400101,1610612765,DET,Detroit,D.J. Augustin,,,20:43,0.0,0.0,3.0,4.0,10.0,4.0,9.0,26.0,0.0,1.0,2.0,5.0
0021400101,1610612765,DET,Detroit,201571,D.J. Augustin,,,20:43,87.8,112.0,-24.3,0.25,1.0,12.5,0.0,0.05,0.025,12.5,0.625,0.669,0.316,98.47,0.138,2014-11-10T00:00:00,4,1610612741,CHI,Chicago,6-2,27,33,18,24,0,0,0,0,0,0,0,0,0,0,102,0.443,0.85,0.35,22,49,10,0021400101,1610612765,DET,Detroit,D.J. Augustin,,,20:43,0.0,0.0,3.0,4.0,10.0,4.0,9.0,26.0,0.0,1.0,2.0,5.0
0021400101,1610612765,DET,Detroit,201202,Joel Anthony,,DNP - Coach's Decision                  ,,,,,,,0.0,,,,,,,0.0,,,2014-11-10T00:00:00,4,1610612765,DET,Detroit,2-5,21,23,26,21,0,0,0,0,0,0,0,0,0,0,91,0.425,0.64,0.5,19,46,15,0021400101,1610612765,DET,Detroit,Joel Anthony,,DNP - Coach's Decision                  ,,,,,,,,,,,,,
0021400101,1610612765,DET,Detroit,201202,Joel Anthony,,DNP - Coach's Decision                  ,,,,,,,0.0,,,,,,,0.0,,,2014-11-10T00:00:00,4,1610612741,CHI,Chicago,6-2,27,33,18,24,0,0,0,0,0,0,0,0,0,0,102,0.443,0.85,0.35,22,49,10,0021400101,1610612765,DET,Detroit,Joel Anthony,,DNP - Coach's Decision                  ,,,,,,,,,,,,,
0021400101,1610612765,DET,Detroit,203540,Gigi Datome,,DNP - Coach's Decision                  ,,,,,,,0.0,,,,,,,0.0,,,2014-11-10T00:00:00,4,1610612765,DET,Detroit,2-5,21,23,26,21,0,0,0,0,0,0,0,0,0,0,91,0.425,0.64,0.5,19,46,15,0021400101,1610612765,DET,Detroit,Gigi Datome,,DNP - Coach's Decision                  ,,,,,,,,,,,,,
0021400101,1610612765,DET,Detroit,203540,Gigi Datome,,DNP - Coach's Decision                  ,,,,,,,0.0,,,,,,,0.0,,,2014-11-10T00:00:00,4,1610612741,CHI,Chicago,6-2,27,33,18,24,0,0,0,0,0,0,0,0,0,0,102,0.443,0.85,0.35,22,49,10,0021400101,1610612765,DET,Detroit,Gigi Datome,,DNP - Coach's Decision                  ,,,,,,,,,,,,,
0021400101,1610612765,DET,Detroit,203915,Spencer Dinwiddie,,DNP - Coach's Decision                  ,,,,,,,0.0,,,,,,,0.0,,,2014-11-10T00:00:00,4,1610612765,DET,Detroit,2-5,21,23,26,21,0,0,0,0,0,0,0,0,0,0,91,0.425,0.64,0.5,19,46,15,0021400101,1610612765,DET,Detroit,Spencer Dinwiddie,,DNP - Coach's Decision                  ,,,,,,,,,,,,,
0021400101,1610612765,DET,Detroit,203915,Spencer Dinwiddie,,DNP - Coach's Decision                  ,,,,,,,0.0,,,,,,,0.0,,,2014-11-10T00:00:00,4,1610612741,CHI,Chicago,6-2,27,33,18,24,0,0,0,0,0,0,0,0,0,0,102,0.443,0.85,0.35,22,49,10,0021400101,1610612765,DET,Detroit,Spencer Dinwiddie,,DNP - Coach's Decision                  ,,,,,,,,,,,,,
0021400101,1610612765,DET,Detroit,201973,Jonas Jerebko,,DNP - Coach's Decision                  ,,,,,,,0.0,,,,,,,0.0,,,2014-11-10T00:00:00,4,1610612765,DET,Detroit,2-5,21,23,26,21,0,0,0,0,0,0,0,0,0,0,91,0.425,0.64,0.5,19,46,15,0021400101,1610612765,DET,Detroit,Jonas Jerebko,,DNP - Coach's Decision                  ,,,,,,,,,,,,,
0021400101,1610612765,DET,Detroit,201973,Jonas Jerebko,,DNP - Coach's Decision                  ,,,,,,,0.0,,,,,,,0.0,,,2014-11-10T00:00:00,4,1610612741,CHI,Chicago,6-2,27,33,18,24,0,0,0,0,0,0,0,0,0,0,102,0.443,0.85,0.35,22,49,10,0021400101,1610612765,DET,Detroit,Jonas Jerebko,,DNP - Coach's Decision                  ,,,,,,,,,,,,,
0021400101,1610612765,DET,Detroit,203502,Tony Mitchell,,DNP - Coach's Decision                  ,,,,,,,0.0,,,,,,,0.0,,,2014-11-10T00:00:00,4,1610612765,DET,Detroit,2-5,21,23,26,21,0,0,0,0,0,0,0,0,0,0,91,0.425,0.64,0.5,19,46,15,0021400101,1610612765,DET,Detroit,Tony Mitchell,,DNP - Coach's Decision                  ,,,,,,,,,,,,,
0021400101,1610612765,DET,Detroit,203502,Tony Mitchell,,DNP - Coach's Decision                  ,,,,,,,0.0,,,,,,,0.0,,,2014-11-10T00:00:00,4,1610612741,CHI,Chicago,6-2,27,33,18,24,0,0,0,0,0,0,0,0,0,0,102,0.443,0.85,0.35,22,49,10,0021400101,1610612765,DET,Detroit,Tony Mitchell,,DNP - Coach's Decision                  ,,,,,,,,,,,,,
0021400101,1610612741,CHI,Chicago,2399,Mike Dunleavy,F,,35:03,110.2,83.7,26.5,0.034,1.0,9.7,0.0,0.108,0.058,9.7,0.286,0.421,0.119,98.83,0.025,2014-11-10T00:00:00,4,1610612765,DET,Detroit,2-5,21,23,26,21,0,0,0,0,0,0,0,0,0,0,91,0.425,0.64,0.5,19,46,15,0021400101,1610612741,CHI,Chicago,Mike Dunleavy,F,,35:03,0.0,0.0,0.0,4.0,3.0,5.0,9.0,20.0,2.0,0.0,4.0,1.0
0021400101,1610612741,CHI,Chicago,2399,Mike Dunleavy,F,,35:03,110.2,83.7,26.5,0.034,1.0,9.7,0.0,0.108,0.058,9.7,0.286,0.421,0.119,98.83,0.025,2014-11-10T00:00:00,4,1610612741,CHI,Chicago,6-2,27,33,18,24,0,0,0,0,0,0,0,0,0,0,102,0.443,0.85,0.35,22,49,10,0021400101,1610612741,CHI,Chicago,Mike Dunleavy,F,,35:03,0.0,0.0,0.0,4.0,3.0,5.0,9.0,20.0,2.0,0.0,4.0,1.0
0021400101,1610612741,CHI,Chicago,2200,Pau Gasol,F,,35:18,106.8,89.2,17.6,0.19,4.0,17.5,0.097,0.316,0.217,4.4,0.471,0.475,0.242,98.42,0.208,2014-11-10T00:00:00,4,1610612765,DET,Detroit,2-5,21,23,26,21,0,0,0,0,0,0,0,0,0,0,91,0.425,0.64,0.5,19,46,15,0021400101,1610612741,CHI,Chicago,Pau Gasol,F,,35:18,0.0,2.0,2.0,10.0,4.0,8.0,8.0,22.0,4.0,1.0,0.0,5.0
0021400101,1610612741,CHI,Chicago,2200,Pau Gasol,F,,35:18,106.8,89.2,17.6,0.19,4.0,17.5,0.097,0.316,0.217,4.4,0.471,0.475,0.242,98.42,0.208,2014-11-10T00:00:00,4,1610612741,CHI,Chicago,6-2,27,33,18,24,0,0,0,0,0,0,0,0,0,0,102,0.443,0.85,0.35,22,49,10,0021400101,1610612741,CHI,Chicago,Pau Gasol,F,,35:18,0.0,2.0,2.0,10.0,4.0,8.0,8.0,22.0,4.0,1.0,0.0,5.0
0021400101,1610612741,CHI,Chicago,201149,Joakim Noah,C,,31:33,101.5,78.8,22.7,0.316,0.0,28.9,0.057,0.387,0.212,0.0,0.385,0.44,0.208,97.95,0.216,2014-11-10T00:00:00,4,1610612765,DET,Detroit,2-5,21,23,26,21,0,0,0,0,0,0,0,0,0,0,91,0.425,0.64,0.5,19,46,15,0021400101,1610612741,CHI,Chicago,Joakim Noah,C,,31:33,4.0,2.0,0.0,6.0,1.0,3.0,10.0,20.0,0.0,3.0,3.0,4.0
0021400101,1610612741,CHI,Chicago,201149,Joakim Noah,C,,31:33,101.5,78.8,22.7,0.316,0.0,28.9,0.057,0.387,0.212,0.0,0.385,0.44,0.208,97.95,0.216,2014-11-10T00:00:00,4,1610612741,CHI,Chicago,6-2,27,33,18,24,0,0,0,0,0,0,0,0,0,0,102,0.443,0.85,0.35,22,49,10,0021400101,1610612741,CHI,Chicago,Joakim Noah,C,,31:33,4.0,2.0,0.0,6.0,1.0,3.0,10.0,20.0,0.0,3.0,3.0,4.0
0021400101,1610612741,CHI,Chicago,202710,Jimmy Butler,G,,42:47,101.4,90.2,11.2,0.037,1.0,6.5,0.024,0.07,0.047,6.5,0.667,0.713,0.149,97.14,0.11,2014-11-10T00:00:00,4,1610612765,DET,Detroit,2-5,21,23,26,21,0,0,0,0,0,0,0,0,0,0,91,0.425,0.64,0.5,19,46,15,0021400101,1610612741,CHI,Chicago,Jimmy Butler,G,,42:47,2.0,2.0,0.0,2.0,4.0,8.0,13.0,28.0,0.0,0.0,1.0,2.0
0021400101,1610612741,CHI,Chicago,202710,Jimmy Butler,G,,42:47,101.4,90.2,11.2,0.037,1.0,6.5,0.024,0.07,0.047,6.5,0.667,0.713,0.149,97.14,0.11,2014-11-10T00:00:00,4,1610612741,CHI,Chicago,6-2,27,33,18,24,0,0,0,0,0,0,0,0,0,0,102,0.443,0.85,0.35,22,49,10,0021400101,1610612741,CHI,Chicago,Jimmy Butler,G,,42:47,2.0,2.0,0.0,2.0,4.0,8.0,13.0,28.0,0.0,0.0,1.0,2.0
0021400101,1610612741,CHI,Chicago,201565,Derrick Rose,G,,32:06,103.6,83.5,20.1,0.412,2.33,21.7,0.0,0.063,0.031,9.3,0.5,0.541,0.347,99.02,0.158,2014-11-10T00:00:00,4,1610612765,DET,Detroit,2-5,21,23,26,21,0,0,0,0,0,0,0,0,0,0,91,0.425,0.64,0.5,19,46,15,0021400101,1610612741,CHI,Chicago,Derrick Rose,G,,32:06,6.0,2.0,3.0,14.0,3.0,3.0,9.0,22.0,0.0,0.0,2.0,7.0
0021400101,1610612741,CHI,Chicago,201565,Derrick Rose,G,,32:06,103.6,83.5,20.1,0.412,2.33,21.7,0.0,0.063,0.031,9.3,0.5,0.541,0.347,99.02,0.158,2014-11-10T00:00:00,4,1610612741,CHI,Chicago,6-2,27,33,18,24,0,0,0,0,0,0,0,0,0,0,102,0.443,0.85,0.35,22,49,10,0021400101,1610612741,CHI,Chicago,Derrick Rose,G,,32:06,6.0,2.0,3.0,14.0,3.0,3.0,9.0,22.0,0.0,0.0,2.0,7.0
0021400101,1610612741,CHI,Chicago,2550,Kirk Hinrich,,,17:37,99.4,120.6,-21.2,0.091,0.0,16.7,0.0,0.056,0.029,0.0,0.4,0.4,0.134,90.41,0.032,2014-11-10T00:00:00,4,1610612765,DET,Detroit,2-5,21,23,26,21,0,0,0,0,0,0,0,0,0,0,91,0.425,0.64,0.5,19,46,15,0021400101,1610612741,CHI,Chicago,Kirk Hinrich,,,17:37,0.0,0.0,2.0,2.0,4.0,6.0,5.0,16.0,0.0,1.0,1.0,0.0
0021400101,1610612741,CHI,Chicago,2550,Kirk Hinrich,,,17:37,99.4,120.6,-21.2,0.091,0.0,16.7,0.0,0.056,0.029,0.0,0.4,0.4,0.134,90.41,0.032,2014-11-10T00:00:00,4,1610612741,CHI,Chicago,6-2,27,33,18,24,0,0,0,0,0,0,0,0,0,0,102,0.443,0.85,0.35,22,49,10,0021400101,1610612741,CHI,Chicago,Kirk Hinrich,,,17:37,0.0,0.0,2.0,2.0,4.0,6.0,5.0,16.0,0.0,1.0,1.0,0.0
0021400101,1610612741,CHI,Chicago,201959,Taj Gibson,,,23:56,98.9,115.4,-16.5,0.067,0.5,10.0,0.136,0.174,0.156,20.0,0.571,0.571,0.168,94.7,0.104,2014-11-10T00:00:00,4,1610612765,DET,Detroit,2-5,21,23,26,21,0,0,0,0,0,0,0,0,0,0,91,0.425,0.64,0.5,19,46,15,0021400101,1610612741,CHI,Chicago,Taj Gibson,,,23:56,2.0,4.0,2.0,8.0,6.0,6.0,9.0,20.0,1.0,1.0,2.0,0.0
0021400101,1610612741,CHI,Chicago,201959,Taj Gibson,,,23:56,98.9,115.4,-16.5,0.067,0.5,10.0,0.136,0.174,0.156,20.0,0.571,0.571,0.168,94.7,0.104,2014-11-10T00:00:00,4,1610612741,CHI,Chicago,6-2,27,33,18,24,0,0,0,0,0,0,0,0,0,0,102,0.443,0.85,0.35,22,49,10,0021400101,1610612741,CHI,Chicago,Taj Gibson,,,23:56,2.0,4.0,2.0,8.0,6.0,6.0,9.0,20.0,1.0,1.0,2.0,0.0
0021400101,1610612741,CHI,Chicago,203926,Doug McDermott,,,5:22,118.2,120.3,-2.1,0.0,0.0,0.0,0.0,0.0,0.0,0.0,0.0,0.0,0.083,101.18,-0.082,2014-11-10T00:00:00,4,1610612765,DET,Detroit,2-5,21,23,26,21,0,0,0,0,0,0,0,0,0,0,91,0.425,0.64,0.5,19,46,15,0021400101,1610612741,CHI,Chicago,Doug McDermott,,,5:22,0.0,0.0,0.0,0.0,3.0,1.0,1.0,6.0,0.0,0.0,1.0,0.0
0021400101,1610612741,CHI,Chicago,203926,Doug McDermott,,,5:22,118.2,120.3,-2.1,0.0,0.0,0.0,0.0,0.0,0.0,0.0,0.0,0.0,0.083,101.18,-0.082,2014-11-10T00:00:00,4,1610612741,CHI,Chicago,6-2,27,33,18,24,0,0,0,0,0,0,0,0,0,0,102,0.443,0.85,0.35,22,49,10,0021400101,1610612741,CHI,Chicago,Doug McDermott,,,5:22,0.0,0.0,0.0,0.0,3.0,1.0,1.0,6.0,0.0,0.0,1.0,0.0
0021400101,1610612741,CHI,Chicago,202703,Nikola Mirotic,,,5:13,130.0,120.3,9.7,0.0,0.0,0.0,0.0,0.0,0.0,0.0,0.0,0.0,0.0,99.56,0.02,2014-11-10T00:00:00,4,1610612765,DET,Detroit,2-5,21,23,26,21,0,0,0,0,0,0,0,0,0,0,91,0.425,0.64,0.5,19,46,15,0021400101,1610612741,CHI,Chicago,Nikola Mirotic,,,5:13,0.0,0.0,0.0,0.0,3.0,1.0,1.0,6.0,1.0,0.0,1.0,0.0
0021400101,1610612741,CHI,Chicago,202703,Nikola Mirotic,,,5:13,130.0,120.3,9.7,0.0,0.0,0.0,0.0,0.0,0.0,0.0,0.0,0.0,0.0,99.56,0.02,2014-11-10T00:00:00,4,1610612741,CHI,Chicago,6-2,27,33,18,24,0,0,0,0,0,0,0,0,0,0,102,0.443,0.85,0.35,22,49,10,0021400101,1610612741,CHI,Chicago,Nikola Mirotic,,,5:13,0.0,0.0,0.0,0.0,3.0,1.0,1.0,6.0,1.0,0.0,1.0,0.0
0021400101,1610612741,CHI,Chicago,201166,Aaron Brooks,,,11:05,99.1,116.0,-16.9,0.2,0.5,9.7,0.0,0.182,0.091,19.4,0.583,0.683,0.385,98.48,0.145,2014-11-10T00:00:00,4,1610612765,DET,Detroit,2-5,21,23,26,21,0,0,0,0,0,0,0,0,0,0,91,0.425,0.64,0.5,19,46,15,0021400101,1610612741,CHI,Chicago,Aaron Brooks,,,11:05,0.0,0.0,3.0,4.0,4.0,4.0,5.0,10.0,0.0,0.0,4.0,2.0
0021400101,1610612741,CHI,Chicago,201166,Aaron Brooks,,,11:05,99.1,116.0,-16.9,0.2,0.5,9.7,0.0,0.182,0.091,19.4,0.583,0.683,0.385,98.48,0.145,2014-11-10T00:00:00,4,1610612741,CHI,Chicago,6-2,27,33,18,24,0,0,0,0,0,0,0,0,0,0,102,0.443,0.85,0.35,22,49,10,0021400101,1610612741,CHI,Chicago,Aaron Brooks,,,11:05,0.0,0.0,3.0,4.0,4.0,4.0,5.0,10.0,0.0,0.0,4.0,2.0
0021400101,1610612741,CHI,Chicago,1737,Nazr Mohammed,,DNP - Coach's Decision                  ,,,,,,,0.0,,,,,,,0.0,,,2014-11-10T00:00:00,4,1610612765,DET,Detroit,2-5,21,23,26,21,0,0,0,0,0,0,0,0,0,0,91,0.425,0.64,0.5,19,46,15,0021400101,1610612741,CHI,Chicago,Nazr Mohammed,,DNP - Coach's Decision                  ,,,,,,,,,,,,,
0021400101,1610612741,CHI,Chicago,1737,Nazr Mohammed,,DNP - Coach's Decision                  ,,,,,,,0.0,,,,,,,0.0,,,2014-11-10T00:00:00,4,1610612741,CHI,Chicago,6-2,27,33,18,24,0,0,0,0,0,0,0,0,0,0,102,0.443,0.85,0.35,22,49,10,0021400101,1610612741,CHI,Chicago,Nazr Mohammed,,DNP - Coach's Decision                  ,,,,,,,,,,,,,
0021400101,1610612741,CHI,Chicago,202734,E'Twaun Moore,,DNP - Coach's Decision                  ,,,,,,,0.0,,,,,,,0.0,,,2014-11-10T00:00:00,4,1610612765,DET,Detroit,2-5,21,23,26,21,0,0,0,0,0,0,0,0,0,0,91,0.425,0.64,0.5,19,46,15,0021400101,1610612741,CHI,Chicago,E'Twaun Moore,,DNP - Coach's Decision                  ,,,,,,,,,,,,,
0021400101,1610612741,CHI,Chicago,202734,E'Twaun Moore,,DNP - Coach's Decision                  ,,,,,,,0.0,,,,,,,0.0,,,2014-11-10T00:00:00,4,1610612741,CHI,Chicago,6-2,27,33,18,24,0,0,0,0,0,0,0,0,0,0,102,0.443,0.85,0.35,22,49,10,0021400101,1610612741,CHI,Chicago,E'Twaun Moore,,DNP - Coach's Decision                  ,,,,,,,,,,,,,
0021400101,1610612741,CHI,Chicago,203503,Tony Snell,,DNP - Coach's Decision                  ,,,,,,,0.0,,,,,,,0.0,,,2014-11-10T00:00:00,4,1610612765,DET,Detroit,2-5,21,23,26,21,0,0,0,0,0,0,0,0,0,0,91,0.425,0.64,0.5,19,46,15,0021400101,1610612741,CHI,Chicago,Tony Snell,,DNP - Coach's Decision                  ,,,,,,,,,,,,,
0021400101,1610612741,CHI,Chicago,203503,Tony Snell,,DNP - Coach's Decision                  ,,,,,,,0.0,,,,,,,0.0,,,2014-11-10T00:00:00,4,1610612741,CHI,Chicago,6-2,27,33,18,24,0,0,0,0,0,0,0,0,0,0,102,0.443,0.85,0.35,22,49,10,0021400101,1610612741,CHI,Chicago,Tony Snell,,DNP - Coach's Decision                  ,,,,,,,,,,,,,
