GAME_ID_x,TEAM_ID_x,TEAM_ABBREVIATION_x,TEAM_CITY_x,PLAYER_ID,PLAYER_NAME_x,START_POSITION_x,COMMENT_x,MIN_x,OFF_RATING,DEF_RATING,NET_RATING,AST_PCT,AST_TOV,AST_RATIO,OREB_PCT,DREB_PCT,REB_PCT,TM_TOV_PCT,EFG_PCT,TS_PCT,USG_PCT,PACE,PIE,GAME_DATE_EST,GAME_SEQUENCE,TEAM_ID_y,TEAM_ABBREVIATION_y,TEAM_CITY_NAME,TEAM_WINS_LOSSES,PTS_QTR1,PTS_QTR2,PTS_QTR3,PTS_QTR4,PTS_OT1,PTS_OT2,PTS_OT3,PTS_OT4,PTS_OT5,PTS_OT6,PTS_OT7,PTS_OT8,PTS_OT9,PTS_OT10,PTS,FG_PCT,FT_PCT,FG3_PCT,AST,REB,TOV,GAME_ID_y,TEAM_ID,TEAM_ABBREVIATION,TEAM_CITY_y,PLAYER_NAME_y,START_POSITION_y,COMMENT_y,MIN_y,PTS_OFF_TOV,PTS_2ND_CHANCE,PTS_FB,PTS_PAINT,OPP_PTS_OFF_TOV,OPP_PTS_2ND_CHANCE,OPP_PTS_FB,OPP_PTS_PAINT,BLK,BLKA,PF,PFD
0021400118,1610612758,SAC,Sacramento,200752,Rudy Gay,F,,40:16,125.3,113.6,11.7,0.08,0.0,8.9,0.103,0.125,0.115,0.0,0.5,0.609,0.227,92.77,0.148,2014-11-13T00:00:00,1,1610612758,SAC,Sacramento,5-4,38,24,29,19,0,0,0,0,0,0,0,0,0,0,110,0.481,0.853,0.538,12,44,14,0021400118,1610612758,SAC,Sacramento,Rudy Gay,F,,40:16,6.0,2.0,8.0,8.0,18.0,9.0,4.0,36.0,1.0,1.0,3.0,5.0
0021400118,1610612758,SAC,Sacramento,200752,Rudy Gay,F,,40:16,125.3,113.6,11.7,0.08,0.0,8.9,0.103,0.125,0.115,0.0,0.5,0.609,0.227,92.77,0.148,2014-11-13T00:00:00,1,1610612763,MEM,Memphis,8-1,16,30,30,35,0,0,0,0,0,0,0,0,0,0,111,0.506,0.794,0.667,24,30,9,0021400118,1610612758,SAC,Sacramento,Rudy Gay,F,,40:16,6.0,2.0,8.0,8.0,18.0,9.0,4.0,36.0,1.0,1.0,3.0,5.0
0021400118,1610612758,SAC,Sacramento,201574,Jason Thompson,F,,27:25,123.4,110.8,12.6,0.045,1.0,14.3,0.158,0.16,0.159,14.3,0.6,0.6,0.103,94.24,0.051,2014-11-13T00:00:00,1,1610612758,SAC,Sacramento,5-4,38,24,29,19,0,0,0,0,0,0,0,0,0,0,110,0.481,0.853,0.538,12,44,14,0021400118,1610612758,SAC,Sacramento,Jason Thompson,F,,27:25,2.0,2.0,0.0,4.0,13.0,6.0,4.0,24.0,0.0,0.0,5.0,0.0
0021400118,1610612758,SAC,Sacramento,201574,Jason Thompson,F,,27:25,123.4,110.8,12.6,0.045,1.0,14.3,0.158,0.16,0.159,14.3,0.6,0.6,0.103,94.24,0.051,2014-11-13T00:00:00,1,1610612763,MEM,Memphis,8-1,16,30,30,35,0,0,0,0,0,0,0,0,0,0,111,0.506,0.794,0.667,24,30,9,0021400118,1610612758,SAC,Sacramento,Jason Thompson,F,,27:25,2.0,2.0,0.0,4.0,13.0,6.0,4.0,24.0,0.0,0.0,5.0,0.0
0021400118,1610612758,SAC,Sacramento,202326,DeMarcus Cousins,C,,30:51,134.7,104.0,30.7,0.053,0.17,3.7,0.111,0.345,0.255,22.2,0.471,0.548,0.384,94.51,0.137,2014-11-13T00:00:00,1,1610612758,SAC,Sacramento,5-4,38,24,29,19,0,0,0,0,0,0,0,0,0,0,110,0.481,0.853,0.538,12,44,14,0021400118,1610612758,SAC,Sacramento,DeMarcus Cousins,C,,30:51,0.0,2.0,0.0,10.0,14.0,8.0,4.0,26.0,3.0,1.0,5.0,6.0
0021400118,1610612758,SAC,Sacramento,202326,DeMarcus Cousins,C,,30:51,134.7,104.0,30.7,0.053,0.17,3.7,0.111,0.345,0.255,22.2,0.471,0.548,0.384,94.51,0.137,2014-11-13T00:00:00,1,1610612763,MEM,Memphis,8-1,16,30,30,35,0,0,0,0,0,0,0,0,0,0,111,0.506,0.794,0.667,24,30,9,0021400118,1610612758,SAC,Sacramento,DeMarcus Cousins,C,,30:51,0.0,2.0,0.0,10.0,14.0,8.0,4.0,26.0,3.0,1.0,5.0,6.0
0021400118,1610612758,SAC,Sacramento,203463,Ben McLemore,G,,37:20,120.1,112.7,7.4,0.0,0.0,0.0,0.0,0.121,0.068,6.8,0.625,0.618,0.17,94.92,0.084,2014-11-13T00:00:00,1,1610612758,SAC,Sacramento,5-4,38,24,29,19,0,0,0,0,0,0,0,0,0,0,110,0.481,0.853,0.538,12,44,14,0021400118,1610612758,SAC,Sacramento,Ben McLemore,G,,37:20,4.0,0.0,6.0,4.0,21.0,7.0,6.0,30.0,0.0,0.0,1.0,3.0
0021400118,1610612758,SAC,Sacramento,203463,Ben McLemore,G,,37:20,120.1,112.7,7.4,0.0,0.0,0.0,0.0,0.121,0.068,6.8,0.625,0.618,0.17,94.92,0.084,2014-11-13T00:00:00,1,1610612763,MEM,Memphis,8-1,16,30,30,35,0,0,0,0,0,0,0,0,0,0,111,0.506,0.794,0.667,24,30,9,0021400118,1610612758,SAC,Sacramento,Ben McLemore,G,,37:20,4.0,0.0,6.0,4.0,21.0,7.0,6.0,30.0,0.0,0.0,1.0,3.0
0021400118,1610612758,SAC,Sacramento,201954,Darren Collison,G,,37:20,120.1,113.9,6.2,0.208,1.67,22.6,0.0,0.061,0.034,13.6,0.636,0.71,0.197,95.55,0.131,2014-11-13T00:00:00,1,1610612758,SAC,Sacramento,5-4,38,24,29,19,0,0,0,0,0,0,0,0,0,0,110,0.481,0.853,0.538,12,44,14,0021400118,1610612758,SAC,Sacramento,Darren Collison,G,,37:20,0.0,0.0,5.0,4.0,21.0,7.0,6.0,32.0,1.0,0.0,2.0,6.0
0021400118,1610612758,SAC,Sacramento,201954,Darren Collison,G,,37:20,120.1,113.9,6.2,0.208,1.67,22.6,0.0,0.061,0.034,13.6,0.636,0.71,0.197,95.55,0.131,2014-11-13T00:00:00,1,1610612763,MEM,Memphis,8-1,16,30,30,35,0,0,0,0,0,0,0,0,0,0,111,0.506,0.794,0.667,24,30,9,0021400118,1610612758,SAC,Sacramento,Darren Collison,G,,37:20,0.0,0.0,5.0,4.0,21.0,7.0,6.0,32.0,1.0,0.0,2.0,6.0
0021400118,1610612758,SAC,Sacramento,201956,Omri Casspi,,,7:44,76.1,148.2,-72.1,0.0,0.0,0.0,0.0,0.286,0.154,50.0,0.0,0.0,0.119,97.08,-0.038,2014-11-13T00:00:00,1,1610612758,SAC,Sacramento,5-4,38,24,29,19,0,0,0,0,0,0,0,0,0,0,110,0.481,0.853,0.538,12,44,14,0021400118,1610612758,SAC,Sacramento,Omri Casspi,,,7:44,0.0,0.0,0.0,0.0,6.0,3.0,2.0,12.0,0.0,0.0,1.0,0.0
0021400118,1610612758,SAC,Sacramento,201956,Omri Casspi,,,7:44,76.1,148.2,-72.1,0.0,0.0,0.0,0.0,0.286,0.154,50.0,0.0,0.0,0.119,97.08,-0.038,2014-11-13T00:00:00,1,1610612763,MEM,Memphis,8-1,16,30,30,35,0,0,0,0,0,0,0,0,0,0,111,0.506,0.794,0.667,24,30,9,0021400118,1610612758,SAC,Sacramento,Omri Casspi,,,7:44,0.0,0.0,0.0,0.0,6.0,3.0,2.0,12.0,0.0,0.0,1.0,0.0
0021400118,1610612758,SAC,Sacramento,201171,Carl Landry,,,25:10,96.9,142.3,-45.3,0.0,0.0,0.0,0.095,0.118,0.105,0.0,0.429,0.571,0.155,93.15,0.036,2014-11-13T00:00:00,1,1610612758,SAC,Sacramento,5-4,38,24,29,19,0,0,0,0,0,0,0,0,0,0,110,0.481,0.853,0.538,12,44,14,0021400118,1610612758,SAC,Sacramento,Carl Landry,,,25:10,0.0,2.0,0.0,6.0,15.0,8.0,2.0,28.0,0.0,1.0,6.0,2.0
0021400118,1610612758,SAC,Sacramento,201171,Carl Landry,,,25:10,96.9,142.3,-45.3,0.0,0.0,0.0,0.095,0.118,0.105,0.0,0.429,0.571,0.155,93.15,0.036,2014-11-13T00:00:00,1,1610612763,MEM,Memphis,8-1,16,30,30,35,0,0,0,0,0,0,0,0,0,0,111,0.506,0.794,0.667,24,30,9,0021400118,1610612758,SAC,Sacramento,Carl Landry,,,25:10,0.0,2.0,0.0,6.0,15.0,8.0,2.0,28.0,0.0,1.0,6.0,2.0
0021400118,1610612758,SAC,Sacramento,2501,Reggie Evans,,,12:30,95.0,132.1,-37.0,0.0,0.0,0.0,0.167,0.286,0.211,33.3,0.5,0.5,0.099,88.63,0.027,2014-11-13T00:00:00,1,1610612758,SAC,Sacramento,5-4,38,24,29,19,0,0,0,0,0,0,0,0,0,0,110,0.481,0.853,0.538,12,44,14,0021400118,1610612758,SAC,Sacramento,Reggie Evans,,,12:30,0.0,0.0,0.0,2.0,6.0,2.0,2.0,18.0,0.0,1.0,3.0,0.0
0021400118,1610612758,SAC,Sacramento,2501,Reggie Evans,,,12:30,95.0,132.1,-37.0,0.0,0.0,0.0,0.167,0.286,0.211,33.3,0.5,0.5,0.099,88.63,0.027,2014-11-13T00:00:00,1,1610612763,MEM,Memphis,8-1,16,30,30,35,0,0,0,0,0,0,0,0,0,0,111,0.506,0.794,0.667,24,30,9,0021400118,1610612758,SAC,Sacramento,Reggie Evans,,,12:30,0.0,0.0,0.0,2.0,6.0,2.0,2.0,18.0,0.0,1.0,3.0,0.0
0021400118,1610612758,SAC,Sacramento,203917,Nik Stauskas,,,10:44,110.1,139.4,-29.4,0.167,0.0,33.3,0.0,0.167,0.067,0.0,0.75,0.75,0.095,87.54,0.095,2014-11-13T00:00:00,1,1610612758,SAC,Sacramento,5-4,38,24,29,19,0,0,0,0,0,0,0,0,0,0,110,0.481,0.853,0.538,12,44,14,0021400118,1610612758,SAC,Sacramento,Nik Stauskas,,,10:44,0.0,0.0,0.0,0.0,3.0,5.0,0.0,16.0,0.0,0.0,0.0,0.0
0021400118,1610612758,SAC,Sacramento,203917,Nik Stauskas,,,10:44,110.1,139.4,-29.4,0.167,0.0,33.3,0.0,0.167,0.067,0.0,0.75,0.75,0.095,87.54,0.095,2014-11-13T00:00:00,1,1610612763,MEM,Memphis,8-1,16,30,30,35,0,0,0,0,0,0,0,0,0,0,111,0.506,0.794,0.667,24,30,9,0021400118,1610612758,SAC,Sacramento,Nik Stauskas,,,10:44,0.0,0.0,0.0,0.0,3.0,5.0,0.0,16.0,0.0,0.0,0.0,0.0
0021400118,1610612758,SAC,Sacramento,201196,Ramon Sessions,,,10:40,104.4,139.4,-35.0,0.333,2.0,25.8,0.111,0.0,0.067,12.9,0.333,0.525,0.285,86.13,0.085,2014-11-13T00:00:00,1,1610612758,SAC,Sacramento,5-4,38,24,29,19,0,0,0,0,0,0,0,0,0,0,110,0.481,0.853,0.538,12,44,14,0021400118,1610612758,SAC,Sacramento,Ramon Sessions,,,10:40,0.0,0.0,0.0,2.0,3.0,5.0,0.0,16.0,0.0,0.0,0.0,3.0
0021400118,1610612758,SAC,Sacramento,201196,Ramon Sessions,,,10:40,104.4,139.4,-35.0,0.333,2.0,25.8,0.111,0.0,0.067,12.9,0.333,0.525,0.285,86.13,0.085,2014-11-13T00:00:00,1,1610612763,MEM,Memphis,8-1,16,30,30,35,0,0,0,0,0,0,0,0,0,0,111,0.506,0.794,0.667,24,30,9,0021400118,1610612758,SAC,Sacramento,Ramon Sessions,,,10:40,0.0,0.0,0.0,2.0,3.0,5.0,0.0,16.0,0.0,0.0,0.0,3.0
0021400118,1610612758,SAC,Sacramento,200797,Ryan Hollins,,,0:00,0.0,200.0,-200.0,0.0,0.0,0.0,0.0,0.0,0.0,0.0,0.0,0.0,0.0,4800.0,0.0,2014-11-13T00:00:00,1,1610612758,SAC,Sacramento,5-4,38,24,29,19,0,0,0,0,0,0,0,0,0,0,110,0.481,0.853,0.538,12,44,14,0021400118,1610612758,SAC,Sacramento,Ryan Hollins,,,0:00,0.0,0.0,0.0,0.0,0.0,0.0,0.0,2.0,0.0,0.0,0.0,0.0
0021400118,1610612758,SAC,Sacramento,200797,Ryan Hollins,,,0:00,0.0,200.0,-200.0,0.0,0.0,0.0,0.0,0.0,0.0,0.0,0.0,0.0,0.0,4800.0,0.0,2014-11-13T00:00:00,1,1610612763,MEM,Memphis,8-1,16,30,30,35,0,0,0,0,0,0,0,0,0,0,111,0.506,0.794,0.667,24,30,9,0021400118,1610612758,SAC,Sacramento,Ryan Hollins,,,0:00,0.0,0.0,0.0,0.0,0.0,0.0,0.0,2.0,0.0,0.0,0.0,0.0
0021400118,1610612758,SAC,Sacramento,203492,Ray McCallum,,DNP - Coach's Decision                  ,,,,,,,0.0,,,,,,,0.0,,,2014-11-13T00:00:00,1,1610612758,SAC,Sacramento,5-4,38,24,29,19,0,0,0,0,0,0,0,0,0,0,110,0.481,0.853,0.538,12,44,14,0021400118,1610612758,SAC,Sacramento,Ray McCallum,,DNP - Coach's Decision                  ,,,,,,,,,,,,,
0021400118,1610612758,SAC,Sacramento,203492,Ray McCallum,,DNP - Coach's Decision                  ,,,,,,,0.0,,,,,,,0.0,,,2014-11-13T00:00:00,1,1610612763,MEM,Memphis,8-1,16,30,30,35,0,0,0,0,0,0,0,0,0,0,111,0.506,0.794,0.667,24,30,9,0021400118,1610612758,SAC,Sacramento,Ray McCallum,,DNP - Coach's Decision                  ,,,,,,,,,,,,,
0021400118,1610612758,SAC,Sacramento,202682,Derrick Williams,,DNP - Coach's Decision                  ,,,,,,,0.0,,,,,,,0.0,,,2014-11-13T00:00:00,1,1610612758,SAC,Sacramento,5-4,38,24,29,19,0,0,0,0,0,0,0,0,0,0,110,0.481,0.853,0.538,12,44,14,0021400118,1610612758,SAC,Sacramento,Derrick Williams,,DNP - Coach's Decision                  ,,,,,,,,,,,,,
0021400118,1610612758,SAC,Sacramento,202682,Derrick Williams,,DNP - Coach's Decision                  ,,,,,,,0.0,,,,,,,0.0,,,2014-11-13T00:00:00,1,1610612763,MEM,Memphis,8-1,16,30,30,35,0,0,0,0,0,0,0,0,0,0,111,0.506,0.794,0.667,24,30,9,0021400118,1610612758,SAC,Sacramento,Derrick Williams,,DNP - Coach's Decision                  ,,,,,,,,,,,,,
0021400118,1610612763,MEM,Memphis,2419,Tayshaun Prince,F,,10:48,70.9,162.8,-92.0,0.25,0.0,33.3,0.0,0.0,0.0,0.0,0.5,0.5,0.088,90.31,0.045,2014-11-13T00:00:00,1,1610612758,SAC,Sacramento,5-4,38,24,29,19,0,0,0,0,0,0,0,0,0,0,110,0.481,0.853,0.538,12,44,14,0021400118,1610612763,MEM,Memphis,Tayshaun Prince,F,,10:48,0.0,0.0,0.0,0.0,2.0,2.0,6.0,16.0,0.0,0.0,0.0,0.0
0021400118,1610612763,MEM,Memphis,2419,Tayshaun Prince,F,,10:48,70.9,162.8,-92.0,0.25,0.0,33.3,0.0,0.0,0.0,0.0,0.5,0.5,0.088,90.31,0.045,2014-11-13T00:00:00,1,1610612763,MEM,Memphis,8-1,16,30,30,35,0,0,0,0,0,0,0,0,0,0,111,0.506,0.794,0.667,24,30,9,0021400118,1610612763,MEM,Memphis,Tayshaun Prince,F,,10:48,0.0,0.0,0.0,0.0,2.0,2.0,6.0,16.0,0.0,0.0,0.0,0.0
0021400118,1610612763,MEM,Memphis,2216,Zach Randolph,F,,34:15,121.6,116.4,5.2,0.091,0.0,10.8,0.0,0.333,0.148,0.0,0.462,0.515,0.225,94.22,0.109,2014-11-13T00:00:00,1,1610612758,SAC,Sacramento,5-4,38,24,29,19,0,0,0,0,0,0,0,0,0,0,110,0.481,0.853,0.538,12,44,14,0021400118,1610612763,MEM,Memphis,Zach Randolph,F,,34:15,5.0,0.0,2.0,10.0,8.0,6.0,15.0,24.0,0.0,1.0,3.0,4.0
0021400118,1610612763,MEM,Memphis,2216,Zach Randolph,F,,34:15,121.6,116.4,5.2,0.091,0.0,10.8,0.0,0.333,0.148,0.0,0.462,0.515,0.225,94.22,0.109,2014-11-13T00:00:00,1,1610612763,MEM,Memphis,8-1,16,30,30,35,0,0,0,0,0,0,0,0,0,0,111,0.506,0.794,0.667,24,30,9,0021400118,1610612763,MEM,Memphis,Zach Randolph,F,,34:15,5.0,0.0,2.0,10.0,8.0,6.0,15.0,24.0,0.0,1.0,3.0,4.0
0021400118,1610612763,MEM,Memphis,201188,Marc Gasol,C,,37:25,118.9,122.0,-3.2,0.083,1.0,9.2,0.097,0.154,0.123,9.2,0.385,0.561,0.247,94.27,0.112,2014-11-13T00:00:00,1,1610612758,SAC,Sacramento,5-4,38,24,29,19,0,0,0,0,0,0,0,0,0,0,110,0.481,0.853,0.538,12,44,14,0021400118,1610612763,MEM,Memphis,Marc Gasol,C,,37:25,7.0,3.0,0.0,6.0,10.0,7.0,17.0,30.0,2.0,2.0,4.0,11.0
0021400118,1610612763,MEM,Memphis,201188,Marc Gasol,C,,37:25,118.9,122.0,-3.2,0.083,1.0,9.2,0.097,0.154,0.123,9.2,0.385,0.561,0.247,94.27,0.112,2014-11-13T00:00:00,1,1610612763,MEM,Memphis,8-1,16,30,30,35,0,0,0,0,0,0,0,0,0,0,111,0.506,0.794,0.667,24,30,9,0021400118,1610612763,MEM,Memphis,Marc Gasol,C,,37:25,7.0,3.0,0.0,6.0,10.0,7.0,17.0,30.0,2.0,2.0,4.0,11.0
0021400118,1610612763,MEM,Memphis,2754,Tony Allen,G,,24:20,118.4,125.9,-7.5,0.118,2.0,25.0,0.13,0.059,0.1,12.5,0.0,0.0,0.12,91.9,-0.029,2014-11-13T00:00:00,1,1610612758,SAC,Sacramento,5-4,38,24,29,19,0,0,0,0,0,0,0,0,0,0,110,0.481,0.853,0.538,12,44,14,0021400118,1610612763,MEM,Memphis,Tony Allen,G,,24:20,0.0,0.0,0.0,0.0,6.0,8.0,12.0,18.0,0.0,1.0,3.0,1.0
0021400118,1610612763,MEM,Memphis,2754,Tony Allen,G,,24:20,118.4,125.9,-7.5,0.118,2.0,25.0,0.13,0.059,0.1,12.5,0.0,0.0,0.12,91.9,-0.029,2014-11-13T00:00:00,1,1610612763,MEM,Memphis,8-1,16,30,30,35,0,0,0,0,0,0,0,0,0,0,111,0.506,0.794,0.667,24,30,9,0021400118,1610612763,MEM,Memphis,Tony Allen,G,,24:20,0.0,0.0,0.0,0.0,6.0,8.0,12.0,18.0,0.0,1.0,3.0,1.0
0021400118,1610612763,MEM,Memphis,201144,Mike Conley,G,,38:44,128.0,110.3,17.7,0.44,11.0,34.8,0.0,0.031,0.016,3.2,0.5,0.56,0.254,92.03,0.141,2014-11-13T00:00:00,1,1610612758,SAC,Sacramento,5-4,38,24,29,19,0,0,0,0,0,0,0,0,0,0,110,0.481,0.853,0.538,12,44,14,0021400118,1610612763,MEM,Memphis,Mike Conley,G,,38:44,3.0,0.0,2.0,12.0,6.0,6.0,11.0,28.0,0.0,1.0,4.0,4.0
0021400118,1610612763,MEM,Memphis,201144,Mike Conley,G,,38:44,128.0,110.3,17.7,0.44,11.0,34.8,0.0,0.031,0.016,3.2,0.5,0.56,0.254,92.03,0.141,2014-11-13T00:00:00,1,1610612763,MEM,Memphis,8-1,16,30,30,35,0,0,0,0,0,0,0,0,0,0,111,0.506,0.794,0.667,24,30,9,0021400118,1610612763,MEM,Memphis,Mike Conley,G,,38:44,3.0,0.0,2.0,12.0,6.0,6.0,11.0,28.0,0.0,1.0,4.0,4.0
0021400118,1610612763,MEM,Memphis,2757,Beno Udrih,,,9:16,85.3,142.6,-57.3,0.0,0.0,0.0,0.0,0.333,0.091,25.0,0.667,0.667,0.202,99.45,0.0,2014-11-13T00:00:00,1,1610612758,SAC,Sacramento,5-4,38,24,29,19,0,0,0,0,0,0,0,0,0,0,110,0.481,0.853,0.538,12,44,14,0021400118,1610612763,MEM,Memphis,Beno Udrih,,,9:16,0.0,0.0,0.0,2.0,6.0,2.0,8.0,12.0,0.0,0.0,3.0,0.0
0021400118,1610612763,MEM,Memphis,2757,Beno Udrih,,,9:16,85.3,142.6,-57.3,0.0,0.0,0.0,0.0,0.333,0.091,25.0,0.667,0.667,0.202,99.45,0.0,2014-11-13T00:00:00,1,1610612763,MEM,Memphis,8-1,16,30,30,35,0,0,0,0,0,0,0,0,0,0,111,0.506,0.794,0.667,24,30,9,0021400118,1610612763,MEM,Memphis,Beno Udrih,,,9:16,0.0,0.0,0.0,2.0,6.0,2.0,8.0,12.0,0.0,0.0,3.0,0.0
0021400118,1610612763,MEM,Memphis,201584,Courtney Lee,,,35:55,127.6,108.1,19.5,0.115,3.0,20.9,0.0,0.038,0.02,7.0,0.722,0.775,0.15,94.65,0.124,2014-11-13T00:00:00,1,1610612758,SAC,Sacramento,5-4,38,24,29,19,0,0,0,0,0,0,0,0,0,0,110,0.481,0.853,0.538,12,44,14,0021400118,1610612763,MEM,Memphis,Courtney Lee,,,35:55,4.0,4.0,2.0,6.0,8.0,4.0,13.0,26.0,0.0,0.0,3.0,1.0
0021400118,1610612763,MEM,Memphis,201584,Courtney Lee,,,35:55,127.6,108.1,19.5,0.115,3.0,20.9,0.0,0.038,0.02,7.0,0.722,0.775,0.15,94.65,0.124,2014-11-13T00:00:00,1,1610612763,MEM,Memphis,8-1,16,30,30,35,0,0,0,0,0,0,0,0,0,0,111,0.506,0.794,0.667,24,30,9,0021400118,1610612763,MEM,Memphis,Courtney Lee,,,35:55,4.0,4.0,2.0,6.0,8.0,4.0,13.0,26.0,0.0,0.0,3.0,1.0
0021400118,1610612763,MEM,Memphis,202347,Quincy Pondexter,,,7:59,100.8,134.3,-33.5,0.167,0.0,33.3,0.0,0.0,0.0,0.0,0.75,0.75,0.126,94.74,0.094,2014-11-13T00:00:00,1,1610612758,SAC,Sacramento,5-4,38,24,29,19,0,0,0,0,0,0,0,0,0,0,110,0.481,0.853,0.538,12,44,14,0021400118,1610612763,MEM,Memphis,Quincy Pondexter,,,7:59,0.0,0.0,0.0,0.0,4.0,0.0,4.0,10.0,0.0,0.0,0.0,0.0
0021400118,1610612763,MEM,Memphis,202347,Quincy Pondexter,,,7:59,100.8,134.3,-33.5,0.167,0.0,33.3,0.0,0.0,0.0,0.0,0.75,0.75,0.126,94.74,0.094,2014-11-13T00:00:00,1,1610612763,MEM,Memphis,8-1,16,30,30,35,0,0,0,0,0,0,0,0,0,0,111,0.506,0.794,0.667,24,30,9,0021400118,1610612763,MEM,Memphis,Quincy Pondexter,,,7:59,0.0,0.0,0.0,0.0,4.0,0.0,4.0,10.0,0.0,0.0,0.0,0.0
0021400118,1610612763,MEM,Memphis,201585,Kosta Koufos,,,10:33,121.5,99.0,22.4,0.0,0.0,0.0,0.0,0.111,0.059,17.0,0.75,0.82,0.283,90.9,0.122,2014-11-13T00:00:00,1,1610612758,SAC,Sacramento,5-4,38,24,29,19,0,0,0,0,0,0,0,0,0,0,110,0.481,0.853,0.538,12,44,14,0021400118,1610612763,MEM,Memphis,Kosta Koufos,,,10:33,2.0,0.0,0.0,6.0,2.0,1.0,2.0,10.0,1.0,0.0,3.0,2.0
0021400118,1610612763,MEM,Memphis,201585,Kosta Koufos,,,10:33,121.5,99.0,22.4,0.0,0.0,0.0,0.0,0.111,0.059,17.0,0.75,0.82,0.283,90.9,0.122,2014-11-13T00:00:00,1,1610612763,MEM,Memphis,8-1,16,30,30,35,0,0,0,0,0,0,0,0,0,0,111,0.506,0.794,0.667,24,30,9,0021400118,1610612763,MEM,Memphis,Kosta Koufos,,,10:33,2.0,0.0,0.0,6.0,2.0,1.0,2.0,10.0,1.0,0.0,3.0,2.0
0021400118,1610612763,MEM,Memphis,202720,Jon Leuer,,,13:41,113.6,115.0,-1.4,0.0,0.0,0.0,0.111,0.182,0.15,14.8,0.75,0.694,0.246,90.49,0.1,2014-11-13T00:00:00,1,1610612758,SAC,Sacramento,5-4,38,24,29,19,0,0,0,0,0,0,0,0,0,0,110,0.481,0.853,0.538,12,44,14,0021400118,1610612763,MEM,Memphis,Jon Leuer,,,13:41,0.0,3.0,0.0,4.0,4.0,2.0,4.0,16.0,0.0,0.0,2.0,2.0
0021400118,1610612763,MEM,Memphis,202720,Jon Leuer,,,13:41,113.6,115.0,-1.4,0.0,0.0,0.0,0.111,0.182,0.15,14.8,0.75,0.694,0.246,90.49,0.1,2014-11-13T00:00:00,1,1610612763,MEM,Memphis,8-1,16,30,30,35,0,0,0,0,0,0,0,0,0,0,111,0.506,0.794,0.667,24,30,9,0021400118,1610612763,MEM,Memphis,Jon Leuer,,,13:41,0.0,3.0,0.0,4.0,4.0,2.0,4.0,16.0,0.0,0.0,2.0,2.0
0021400118,1610612763,MEM,Memphis,1713,Vince Carter,,,17:05,139.8,88.6,51.2,0.154,2.0,25.0,0.1,0.158,0.138,12.5,1.1,1.1,0.158,95.24,0.276,2014-11-13T00:00:00,1,1610612758,SAC,Sacramento,5-4,38,24,29,19,0,0,0,0,0,0,0,0,0,0,110,0.481,0.853,0.538,12,44,14,0021400118,1610612763,MEM,Memphis,Vince Carter,,,17:05,3.0,2.0,0.0,2.0,4.0,2.0,3.0,10.0,1.0,0.0,0.0,1.0
0021400118,1610612763,MEM,Memphis,1713,Vince Carter,,,17:05,139.8,88.6,51.2,0.154,2.0,25.0,0.1,0.158,0.138,12.5,1.1,1.1,0.158,95.24,0.276,2014-11-13T00:00:00,1,1610612763,MEM,Memphis,8-1,16,30,30,35,0,0,0,0,0,0,0,0,0,0,111,0.506,0.794,0.667,24,30,9,0021400118,1610612763,MEM,Memphis,Vince Carter,,,17:05,3.0,2.0,0.0,2.0,4.0,2.0,3.0,10.0,1.0,0.0,0.0,1.0
0021400118,1610612763,MEM,Memphis,203919,Jordan Adams,,DNP - Coach's Decision                  ,,,,,,,0.0,,,,,,,0.0,,,2014-11-13T00:00:00,1,1610612758,SAC,Sacramento,5-4,38,24,29,19,0,0,0,0,0,0,0,0,0,0,110,0.481,0.853,0.538,12,44,14,0021400118,1610612763,MEM,Memphis,Jordan Adams,,DNP - Coach's Decision                  ,,,,,,,,,,,,,
0021400118,1610612763,MEM,Memphis,203919,Jordan Adams,,DNP - Coach's Decision                  ,,,,,,,0.0,,,,,,,0.0,,,2014-11-13T00:00:00,1,1610612763,MEM,Memphis,8-1,16,30,30,35,0,0,0,0,0,0,0,0,0,0,111,0.506,0.794,0.667,24,30,9,0021400118,1610612763,MEM,Memphis,Jordan Adams,,DNP - Coach's Decision                  ,,,,,,,,,,,,,
0021400118,1610612763,MEM,Memphis,203950,Jarnell Stokes,,DNP - Coach's Decision                  ,,,,,,,0.0,,,,,,,0.0,,,2014-11-13T00:00:00,1,1610612758,SAC,Sacramento,5-4,38,24,29,19,0,0,0,0,0,0,0,0,0,0,110,0.481,0.853,0.538,12,44,14,0021400118,1610612763,MEM,Memphis,Jarnell Stokes,,DNP - Coach's Decision                  ,,,,,,,,,,,,,
0021400118,1610612763,MEM,Memphis,203950,Jarnell Stokes,,DNP - Coach's Decision                  ,,,,,,,0.0,,,,,,,0.0,,,2014-11-13T00:00:00,1,1610612763,MEM,Memphis,8-1,16,30,30,35,0,0,0,0,0,0,0,0,0,0,111,0.506,0.794,0.667,24,30,9,0021400118,1610612763,MEM,Memphis,Jarnell Stokes,,DNP - Coach's Decision                  ,,,,,,,,,,,,,
