GAME_ID_x,TEAM_ID_x,TEAM_ABBREVIATION_x,TEAM_CITY_x,PLAYER_ID,PLAYER_NAME_x,START_POSITION_x,COMMENT_x,MIN_x,OFF_RATING,DEF_RATING,NET_RATING,AST_PCT,AST_TOV,AST_RATIO,OREB_PCT,DREB_PCT,REB_PCT,TM_TOV_PCT,EFG_PCT,TS_PCT,USG_PCT,PACE,PIE,GAME_DATE_EST,GAME_SEQUENCE,TEAM_ID_y,TEAM_ABBREVIATION_y,TEAM_CITY_NAME,TEAM_WINS_LOSSES,PTS_QTR1,PTS_QTR2,PTS_QTR3,PTS_QTR4,PTS_OT1,PTS_OT2,PTS_OT3,PTS_OT4,PTS_OT5,PTS_OT6,PTS_OT7,PTS_OT8,PTS_OT9,PTS_OT10,PTS,FG_PCT,FT_PCT,FG3_PCT,AST,REB,TOV,GAME_ID_y,TEAM_ID,TEAM_ABBREVIATION,TEAM_CITY_y,PLAYER_NAME_y,START_POSITION_y,COMMENT_y,MIN_y,PTS_OFF_TOV,PTS_2ND_CHANCE,PTS_FB,PTS_PAINT,OPP_PTS_OFF_TOV,OPP_PTS_2ND_CHANCE,OPP_PTS_FB,OPP_PTS_PAINT,BLK,BLKA,PF,PFD
0021400135,1610612754,IND,Indiana,203142,Chris Copeland,F,,38:31,99.2,89.9,9.2,0.043,0.2,5.9,0.0,0.0,0.0,29.4,0.591,0.591,0.191,93.61,0.0,2014-11-15T00:00:00,4,1610612754,IND,Indiana,4-7,23,23,23,30,0,0,0,0,0,0,0,0,0,0,99,0.481,0.72,0.389,18,46,14,0021400135,1610612754,IND,Indiana,Chris Copeland,F,,38:31,3.0,0.0,0.0,2.0,19.0,6.0,8.0,28.0,0.0,2.0,4.0,0.0
0021400135,1610612754,IND,Indiana,203142,Chris Copeland,F,,38:31,99.2,89.9,9.2,0.043,0.2,5.9,0.0,0.0,0.0,29.4,0.591,0.591,0.191,93.61,0.0,2014-11-15T00:00:00,4,1610612741,CHI,Chicago,7-3,20,22,23,25,0,0,0,0,0,0,0,0,0,0,90,0.422,0.696,0.235,18,34,13,0021400135,1610612754,IND,Indiana,Chris Copeland,F,,38:31,3.0,0.0,0.0,2.0,19.0,6.0,8.0,28.0,0.0,2.0,4.0,0.0
0021400135,1610612754,IND,Indiana,2449,Luis Scola,F,,30:05,106.5,101.6,4.9,0.0,0.0,0.0,0.111,0.3,0.229,12.7,0.833,0.763,0.242,95.1,0.23,2014-11-15T00:00:00,4,1610612754,IND,Indiana,4-7,23,23,23,30,0,0,0,0,0,0,0,0,0,0,99,0.481,0.72,0.389,18,46,14,0021400135,1610612754,IND,Indiana,Luis Scola,F,,30:05,0.0,2.0,2.0,8.0,16.0,8.0,8.0,26.0,2.0,1.0,3.0,3.0
0021400135,1610612754,IND,Indiana,2449,Luis Scola,F,,30:05,106.5,101.6,4.9,0.0,0.0,0.0,0.111,0.3,0.229,12.7,0.833,0.763,0.242,95.1,0.23,2014-11-15T00:00:00,4,1610612741,CHI,Chicago,7-3,20,22,23,25,0,0,0,0,0,0,0,0,0,0,90,0.422,0.696,0.235,18,34,13,0021400135,1610612754,IND,Indiana,Luis Scola,F,,30:05,0.0,2.0,2.0,8.0,16.0,8.0,8.0,26.0,2.0,1.0,3.0,3.0
0021400135,1610612754,IND,Indiana,201579,Roy Hibbert,C,,35:01,92.8,97.2,-4.4,0.238,1.67,26.3,0.0,0.212,0.127,15.8,0.364,0.364,0.182,97.38,0.082,2014-11-15T00:00:00,4,1610612754,IND,Indiana,4-7,23,23,23,30,0,0,0,0,0,0,0,0,0,0,99,0.481,0.72,0.389,18,46,14,0021400135,1610612754,IND,Indiana,Roy Hibbert,C,,35:01,2.0,0.0,0.0,4.0,21.0,6.0,6.0,24.0,3.0,0.0,4.0,0.0
0021400135,1610612754,IND,Indiana,201579,Roy Hibbert,C,,35:01,92.8,97.2,-4.4,0.238,1.67,26.3,0.0,0.212,0.127,15.8,0.364,0.364,0.182,97.38,0.082,2014-11-15T00:00:00,4,1610612741,CHI,Chicago,7-3,20,22,23,25,0,0,0,0,0,0,0,0,0,0,90,0.422,0.696,0.235,18,34,13,0021400135,1610612754,IND,Indiana,Roy Hibbert,C,,35:01,2.0,0.0,0.0,4.0,21.0,6.0,6.0,24.0,3.0,0.0,4.0,0.0
0021400135,1610612754,IND,Indiana,203524,Solomon Hill,G,,33:19,101.5,106.2,-4.7,0.05,1.0,5.0,0.2,0.25,0.231,5.0,0.464,0.585,0.267,94.34,0.194,2014-11-15T00:00:00,4,1610612754,IND,Indiana,4-7,23,23,23,30,0,0,0,0,0,0,0,0,0,0,99,0.481,0.72,0.389,18,46,14,0021400135,1610612754,IND,Indiana,Solomon Hill,G,,33:19,3.0,3.0,2.0,6.0,18.0,8.0,8.0,28.0,0.0,2.0,2.0,7.0
0021400135,1610612754,IND,Indiana,203524,Solomon Hill,G,,33:19,101.5,106.2,-4.7,0.05,1.0,5.0,0.2,0.25,0.231,5.0,0.464,0.585,0.267,94.34,0.194,2014-11-15T00:00:00,4,1610612741,CHI,Chicago,7-3,20,22,23,25,0,0,0,0,0,0,0,0,0,0,90,0.422,0.696,0.235,18,34,13,0021400135,1610612754,IND,Indiana,Solomon Hill,G,,33:19,3.0,3.0,2.0,6.0,18.0,8.0,8.0,28.0,0.0,2.0,2.0,7.0
0021400135,1610612754,IND,Indiana,202388,Donald Sloan,G,,24:49,109.8,97.2,12.7,0.368,7.0,48.5,0.0,0.038,0.025,6.9,0.417,0.466,0.14,95.3,0.094,2014-11-15T00:00:00,4,1610612754,IND,Indiana,4-7,23,23,23,30,0,0,0,0,0,0,0,0,0,0,99,0.481,0.72,0.389,18,46,14,0021400135,1610612754,IND,Indiana,Donald Sloan,G,,24:49,0.0,0.0,0.0,2.0,12.0,4.0,4.0,20.0,0.0,1.0,1.0,1.0
0021400135,1610612754,IND,Indiana,202388,Donald Sloan,G,,24:49,109.8,97.2,12.7,0.368,7.0,48.5,0.0,0.038,0.025,6.9,0.417,0.466,0.14,95.3,0.094,2014-11-15T00:00:00,4,1610612741,CHI,Chicago,7-3,20,22,23,25,0,0,0,0,0,0,0,0,0,0,90,0.422,0.696,0.235,18,34,13,0021400135,1610612754,IND,Indiana,Donald Sloan,G,,24:49,0.0,0.0,0.0,2.0,12.0,4.0,4.0,20.0,0.0,1.0,1.0,1.0
0021400135,1610612754,IND,Indiana,204014,Damjan Rudez,,,23:35,111.0,80.7,30.3,0.0,0.0,0.0,0.059,0.087,0.075,14.5,0.2,0.255,0.133,94.32,-0.041,2014-11-15T00:00:00,4,1610612754,IND,Indiana,4-7,23,23,23,30,0,0,0,0,0,0,0,0,0,0,99,0.481,0.72,0.389,18,46,14,0021400135,1610612754,IND,Indiana,Damjan Rudez,,,23:35,0.0,0.0,0.0,0.0,9.0,2.0,4.0,20.0,0.0,0.0,2.0,0.0
0021400135,1610612754,IND,Indiana,204014,Damjan Rudez,,,23:35,111.0,80.7,30.3,0.0,0.0,0.0,0.059,0.087,0.075,14.5,0.2,0.255,0.133,94.32,-0.041,2014-11-15T00:00:00,4,1610612741,CHI,Chicago,7-3,20,22,23,25,0,0,0,0,0,0,0,0,0,0,90,0.422,0.696,0.235,18,34,13,0021400135,1610612754,IND,Indiana,Damjan Rudez,,,23:35,0.0,0.0,0.0,0.0,9.0,2.0,4.0,20.0,0.0,0.0,2.0,0.0
0021400135,1610612754,IND,Indiana,101133,Ian Mahinmi,,,12:46,141.9,83.1,58.8,0.0,0.0,0.0,0.167,0.25,0.208,0.0,0.5,0.5,0.074,90.29,0.0,2014-11-15T00:00:00,4,1610612754,IND,Indiana,4-7,23,23,23,30,0,0,0,0,0,0,0,0,0,0,99,0.481,0.72,0.389,18,46,14,0021400135,1610612754,IND,Indiana,Ian Mahinmi,,,12:46,0.0,0.0,0.0,2.0,2.0,2.0,4.0,14.0,0.0,0.0,5.0,1.0
0021400135,1610612754,IND,Indiana,101133,Ian Mahinmi,,,12:46,141.9,83.1,58.8,0.0,0.0,0.0,0.167,0.25,0.208,0.0,0.5,0.5,0.074,90.29,0.0,2014-11-15T00:00:00,4,1610612741,CHI,Chicago,7-3,20,22,23,25,0,0,0,0,0,0,0,0,0,0,90,0.422,0.696,0.235,18,34,13,0021400135,1610612754,IND,Indiana,Ian Mahinmi,,,12:46,0.0,0.0,0.0,2.0,2.0,2.0,4.0,14.0,0.0,0.0,5.0,1.0
0021400135,1610612754,IND,Indiana,201985,AJ Price,,,23:59,101.3,91.1,10.2,0.222,2.0,11.7,0.0,0.125,0.068,5.9,0.727,0.746,0.268,102.03,0.342,2014-11-15T00:00:00,4,1610612754,IND,Indiana,4-7,23,23,23,30,0,0,0,0,0,0,0,0,0,0,99,0.481,0.72,0.389,18,46,14,0021400135,1610612754,IND,Indiana,AJ Price,,,23:59,4.0,0.0,0.0,4.0,11.0,4.0,6.0,18.0,0.0,0.0,1.0,4.0
0021400135,1610612754,IND,Indiana,201985,AJ Price,,,23:59,101.3,91.1,10.2,0.222,2.0,11.7,0.0,0.125,0.068,5.9,0.727,0.746,0.268,102.03,0.342,2014-11-15T00:00:00,4,1610612741,CHI,Chicago,7-3,20,22,23,25,0,0,0,0,0,0,0,0,0,0,90,0.422,0.696,0.235,18,34,13,0021400135,1610612754,IND,Indiana,AJ Price,,,23:59,4.0,0.0,0.0,4.0,11.0,4.0,6.0,18.0,0.0,0.0,1.0,4.0
0021400135,1610612754,IND,Indiana,202730,Lavoy Allen,,,17:55,100.4,80.4,20.1,0.182,0.0,25.4,0.063,0.188,0.125,0.0,0.2,0.34,0.148,96.34,0.152,2014-11-15T00:00:00,4,1610612754,IND,Indiana,4-7,23,23,23,30,0,0,0,0,0,0,0,0,0,0,99,0.481,0.72,0.389,18,46,14,0021400135,1610612754,IND,Indiana,Lavoy Allen,,,17:55,2.0,2.0,0.0,0.0,7.0,0.0,2.0,12.0,1.0,1.0,0.0,3.0
0021400135,1610612754,IND,Indiana,202730,Lavoy Allen,,,17:55,100.4,80.4,20.1,0.182,0.0,25.4,0.063,0.188,0.125,0.0,0.2,0.34,0.148,96.34,0.152,2014-11-15T00:00:00,4,1610612741,CHI,Chicago,7-3,20,22,23,25,0,0,0,0,0,0,0,0,0,0,90,0.422,0.696,0.235,18,34,13,0021400135,1610612754,IND,Indiana,Lavoy Allen,,,17:55,2.0,2.0,0.0,0.0,7.0,0.0,2.0,12.0,1.0,1.0,0.0,3.0
0021400135,1610612754,IND,Indiana,101139,CJ Miles,,DND - Sore Right Calf                   ,,,,,,,0.0,,,,,,,0.0,,,2014-11-15T00:00:00,4,1610612754,IND,Indiana,4-7,23,23,23,30,0,0,0,0,0,0,0,0,0,0,99,0.481,0.72,0.389,18,46,14,0021400135,1610612754,IND,Indiana,CJ Miles,,DND - Sore Right Calf                   ,,,,,,,,,,,,,
0021400135,1610612754,IND,Indiana,101139,CJ Miles,,DND - Sore Right Calf                   ,,,,,,,0.0,,,,,,,0.0,,,2014-11-15T00:00:00,4,1610612741,CHI,Chicago,7-3,20,22,23,25,0,0,0,0,0,0,0,0,0,0,90,0.422,0.696,0.235,18,34,13,0021400135,1610612754,IND,Indiana,CJ Miles,,DND - Sore Right Calf                   ,,,,,,,,,,,,,
0021400135,1610612754,IND,Indiana,201155,Rodney Stuckey,,DND - Sore Left Foot                    ,,,,,,,0.0,,,,,,,0.0,,,2014-11-15T00:00:00,4,1610612754,IND,Indiana,4-7,23,23,23,30,0,0,0,0,0,0,0,0,0,0,99,0.481,0.72,0.389,18,46,14,0021400135,1610612754,IND,Indiana,Rodney Stuckey,,DND - Sore Left Foot                    ,,,,,,,,,,,,,
0021400135,1610612754,IND,Indiana,201155,Rodney Stuckey,,DND - Sore Left Foot                    ,,,,,,,0.0,,,,,,,0.0,,,2014-11-15T00:00:00,4,1610612741,CHI,Chicago,7-3,20,22,23,25,0,0,0,0,0,0,0,0,0,0,90,0.422,0.696,0.235,18,34,13,0021400135,1610612754,IND,Indiana,Rodney Stuckey,,DND - Sore Left Foot                    ,,,,,,,,,,,,,
0021400135,1610612754,IND,Indiana,2561,David West,,DND - Sprained Right Ankle              ,,,,,,,0.0,,,,,,,0.0,,,2014-11-15T00:00:00,4,1610612754,IND,Indiana,4-7,23,23,23,30,0,0,0,0,0,0,0,0,0,0,99,0.481,0.72,0.389,18,46,14,0021400135,1610612754,IND,Indiana,David West,,DND - Sprained Right Ankle              ,,,,,,,,,,,,,
0021400135,1610612754,IND,Indiana,2561,David West,,DND - Sprained Right Ankle              ,,,,,,,0.0,,,,,,,0.0,,,2014-11-15T00:00:00,4,1610612741,CHI,Chicago,7-3,20,22,23,25,0,0,0,0,0,0,0,0,0,0,90,0.422,0.696,0.235,18,34,13,0021400135,1610612754,IND,Indiana,David West,,DND - Sprained Right Ankle              ,,,,,,,,,,,,,
0021400135,1610612754,IND,Indiana,203963,Shayne Whittington,,DNP - Coach's Decision                  ,,,,,,,0.0,,,,,,,0.0,,,2014-11-15T00:00:00,4,1610612754,IND,Indiana,4-7,23,23,23,30,0,0,0,0,0,0,0,0,0,0,99,0.481,0.72,0.389,18,46,14,0021400135,1610612754,IND,Indiana,Shayne Whittington,,DNP - Coach's Decision                  ,,,,,,,,,,,,,
0021400135,1610612754,IND,Indiana,203963,Shayne Whittington,,DNP - Coach's Decision                  ,,,,,,,0.0,,,,,,,0.0,,,2014-11-15T00:00:00,4,1610612741,CHI,Chicago,7-3,20,22,23,25,0,0,0,0,0,0,0,0,0,0,90,0.422,0.696,0.235,18,34,13,0021400135,1610612754,IND,Indiana,Shayne Whittington,,DNP - Coach's Decision                  ,,,,,,,,,,,,,
0021400135,1610612741,CHI,Chicago,2399,Mike Dunleavy,F,,27:22,99.0,101.0,-2.0,0.05,1.0,11.1,0.0,0.316,0.136,11.1,0.286,0.286,0.142,89.49,0.032,2014-11-15T00:00:00,4,1610612754,IND,Indiana,4-7,23,23,23,30,0,0,0,0,0,0,0,0,0,0,99,0.481,0.72,0.389,18,46,14,0021400135,1610612741,CHI,Chicago,Mike Dunleavy,F,,27:22,2.0,0.0,0.0,0.0,3.0,5.0,4.0,20.0,0.0,0.0,2.0,0.0
0021400135,1610612741,CHI,Chicago,2399,Mike Dunleavy,F,,27:22,99.0,101.0,-2.0,0.05,1.0,11.1,0.0,0.316,0.136,11.1,0.286,0.286,0.142,89.49,0.032,2014-11-15T00:00:00,4,1610612741,CHI,Chicago,7-3,20,22,23,25,0,0,0,0,0,0,0,0,0,0,90,0.422,0.696,0.235,18,34,13,0021400135,1610612741,CHI,Chicago,Mike Dunleavy,F,,27:22,2.0,0.0,0.0,0.0,3.0,5.0,4.0,20.0,0.0,0.0,2.0,0.0
0021400135,1610612741,CHI,Chicago,2200,Pau Gasol,F,,33:48,104.6,101.5,3.1,0.043,0.0,5.6,0.125,0.095,0.113,0.0,0.267,0.358,0.224,93.69,0.042,2014-11-15T00:00:00,4,1610612754,IND,Indiana,4-7,23,23,23,30,0,0,0,0,0,0,0,0,0,0,99,0.481,0.72,0.389,18,46,14,0021400135,1610612741,CHI,Chicago,Pau Gasol,F,,33:48,4.0,4.0,2.0,8.0,6.0,5.0,4.0,24.0,3.0,3.0,3.0,2.0
0021400135,1610612741,CHI,Chicago,2200,Pau Gasol,F,,33:48,104.6,101.5,3.1,0.043,0.0,5.6,0.125,0.095,0.113,0.0,0.267,0.358,0.224,93.69,0.042,2014-11-15T00:00:00,4,1610612741,CHI,Chicago,7-3,20,22,23,25,0,0,0,0,0,0,0,0,0,0,90,0.422,0.696,0.235,18,34,13,0021400135,1610612741,CHI,Chicago,Pau Gasol,F,,33:48,4.0,4.0,2.0,8.0,6.0,5.0,4.0,24.0,3.0,3.0,3.0,2.0
0021400135,1610612741,CHI,Chicago,201149,Joakim Noah,C,,31:57,91.0,109.3,-18.3,0.3,0.0,55.1,0.031,0.13,0.073,0.0,0.75,0.717,0.067,100.55,0.127,2014-11-15T00:00:00,4,1610612754,IND,Indiana,4-7,23,23,23,30,0,0,0,0,0,0,0,0,0,0,99,0.481,0.72,0.389,18,46,14,0021400135,1610612741,CHI,Chicago,Joakim Noah,C,,31:57,0.0,2.0,0.0,4.0,11.0,5.0,4.0,16.0,2.0,0.0,2.0,2.0
0021400135,1610612741,CHI,Chicago,201149,Joakim Noah,C,,31:57,91.0,109.3,-18.3,0.3,0.0,55.1,0.031,0.13,0.073,0.0,0.75,0.717,0.067,100.55,0.127,2014-11-15T00:00:00,4,1610612741,CHI,Chicago,7-3,20,22,23,25,0,0,0,0,0,0,0,0,0,0,90,0.422,0.696,0.235,18,34,13,0021400135,1610612741,CHI,Chicago,Joakim Noah,C,,31:57,0.0,2.0,0.0,4.0,11.0,5.0,4.0,16.0,2.0,0.0,2.0,2.0
0021400135,1610612741,CHI,Chicago,202710,Jimmy Butler,G,,40:58,102.1,100.8,1.3,0.043,1.0,4.0,0.05,0.129,0.085,4.0,0.618,0.691,0.265,95.26,0.224,2014-11-15T00:00:00,4,1610612754,IND,Indiana,4-7,23,23,23,30,0,0,0,0,0,0,0,0,0,0,99,0.481,0.72,0.389,18,46,14,0021400135,1610612741,CHI,Chicago,Jimmy Butler,G,,40:58,12.0,0.0,6.0,10.0,6.0,5.0,4.0,26.0,1.0,2.0,0.0,9.0
0021400135,1610612741,CHI,Chicago,202710,Jimmy Butler,G,,40:58,102.1,100.8,1.3,0.043,1.0,4.0,0.05,0.129,0.085,4.0,0.618,0.691,0.265,95.26,0.224,2014-11-15T00:00:00,4,1610612741,CHI,Chicago,7-3,20,22,23,25,0,0,0,0,0,0,0,0,0,0,90,0.422,0.696,0.235,18,34,13,0021400135,1610612741,CHI,Chicago,Jimmy Butler,G,,40:58,12.0,0.0,6.0,10.0,6.0,5.0,4.0,26.0,1.0,2.0,0.0,9.0
0021400135,1610612741,CHI,Chicago,2550,Kirk Hinrich,G,,31:39,98.4,99.4,-1.0,0.412,2.33,25.9,0.0,0.091,0.039,11.1,0.441,0.441,0.29,95.85,0.095,2014-11-15T00:00:00,4,1610612754,IND,Indiana,4-7,23,23,23,30,0,0,0,0,0,0,0,0,0,0,99,0.481,0.72,0.389,18,46,14,0021400135,1610612741,CHI,Chicago,Kirk Hinrich,G,,31:39,0.0,2.0,0.0,4.0,11.0,5.0,4.0,14.0,0.0,0.0,3.0,1.0
0021400135,1610612741,CHI,Chicago,2550,Kirk Hinrich,G,,31:39,98.4,99.4,-1.0,0.412,2.33,25.9,0.0,0.091,0.039,11.1,0.441,0.441,0.29,95.85,0.095,2014-11-15T00:00:00,4,1610612741,CHI,Chicago,7-3,20,22,23,25,0,0,0,0,0,0,0,0,0,0,90,0.422,0.696,0.235,18,34,13,0021400135,1610612741,CHI,Chicago,Kirk Hinrich,G,,31:39,0.0,2.0,0.0,4.0,11.0,5.0,4.0,14.0,0.0,0.0,3.0,1.0
0021400135,1610612741,CHI,Chicago,201166,Aaron Brooks,,,17:51,79.2,112.6,-33.4,0.125,0.33,9.2,0.0,0.154,0.065,27.6,0.5,0.436,0.253,93.58,-0.045,2014-11-15T00:00:00,4,1610612754,IND,Indiana,4-7,23,23,23,30,0,0,0,0,0,0,0,0,0,0,99,0.481,0.72,0.389,18,46,14,0021400135,1610612741,CHI,Chicago,Aaron Brooks,,,17:51,0.0,0.0,0.0,4.0,4.0,2.0,0.0,14.0,0.0,0.0,3.0,1.0
0021400135,1610612741,CHI,Chicago,201166,Aaron Brooks,,,17:51,79.2,112.6,-33.4,0.125,0.33,9.2,0.0,0.154,0.065,27.6,0.5,0.436,0.253,93.58,-0.045,2014-11-15T00:00:00,4,1610612741,CHI,Chicago,7-3,20,22,23,25,0,0,0,0,0,0,0,0,0,0,90,0.422,0.696,0.235,18,34,13,0021400135,1610612741,CHI,Chicago,Aaron Brooks,,,17:51,0.0,0.0,0.0,4.0,4.0,2.0,0.0,14.0,0.0,0.0,3.0,1.0
0021400135,1610612741,CHI,Chicago,201959,Taj Gibson,,,24:52,87.8,100.3,-12.5,0.0,0.0,0.0,0.083,0.19,0.133,25.0,0.167,0.167,0.151,92.35,-0.017,2014-11-15T00:00:00,4,1610612754,IND,Indiana,4-7,23,23,23,30,0,0,0,0,0,0,0,0,0,0,99,0.481,0.72,0.389,18,46,14,0021400135,1610612741,CHI,Chicago,Taj Gibson,,,24:52,0.0,0.0,0.0,2.0,9.0,4.0,0.0,14.0,0.0,1.0,3.0,3.0
0021400135,1610612741,CHI,Chicago,201959,Taj Gibson,,,24:52,87.8,100.3,-12.5,0.0,0.0,0.0,0.083,0.19,0.133,25.0,0.167,0.167,0.151,92.35,-0.017,2014-11-15T00:00:00,4,1610612741,CHI,Chicago,7-3,20,22,23,25,0,0,0,0,0,0,0,0,0,0,90,0.422,0.696,0.235,18,34,13,0021400135,1610612741,CHI,Chicago,Taj Gibson,,,24:52,0.0,0.0,0.0,2.0,9.0,4.0,0.0,14.0,0.0,1.0,3.0,3.0
0021400135,1610612741,CHI,Chicago,203926,Doug McDermott,,,13:51,69.1,127.8,-58.7,0.0,0.0,0.0,0.0,0.1,0.045,42.9,0.875,0.875,0.226,100.34,0.123,2014-11-15T00:00:00,4,1610612754,IND,Indiana,4-7,23,23,23,30,0,0,0,0,0,0,0,0,0,0,99,0.481,0.72,0.389,18,46,14,0021400135,1610612741,CHI,Chicago,Doug McDermott,,,13:51,5.0,0.0,2.0,4.0,8.0,2.0,0.0,6.0,0.0,0.0,1.0,1.0
0021400135,1610612741,CHI,Chicago,203926,Doug McDermott,,,13:51,69.1,127.8,-58.7,0.0,0.0,0.0,0.0,0.1,0.045,42.9,0.875,0.875,0.226,100.34,0.123,2014-11-15T00:00:00,4,1610612741,CHI,Chicago,7-3,20,22,23,25,0,0,0,0,0,0,0,0,0,0,90,0.422,0.696,0.235,18,34,13,0021400135,1610612741,CHI,Chicago,Doug McDermott,,,13:51,5.0,0.0,2.0,4.0,8.0,2.0,0.0,6.0,0.0,0.0,1.0,1.0
0021400135,1610612741,CHI,Chicago,202703,Nikola Mirotic,,,5:23,67.0,106.6,-39.5,0.0,0.0,0.0,0.0,0.0,0.0,0.0,0.333,0.291,0.301,92.55,-0.2,2014-11-15T00:00:00,4,1610612754,IND,Indiana,4-7,23,23,23,30,0,0,0,0,0,0,0,0,0,0,99,0.481,0.72,0.389,18,46,14,0021400135,1610612741,CHI,Chicago,Nikola Mirotic,,,5:23,0.0,0.0,0.0,2.0,2.0,0.0,0.0,2.0,1.0,0.0,1.0,2.0
0021400135,1610612741,CHI,Chicago,202703,Nikola Mirotic,,,5:23,67.0,106.6,-39.5,0.0,0.0,0.0,0.0,0.0,0.0,0.0,0.333,0.291,0.301,92.55,-0.2,2014-11-15T00:00:00,4,1610612741,CHI,Chicago,7-3,20,22,23,25,0,0,0,0,0,0,0,0,0,0,90,0.422,0.696,0.235,18,34,13,0021400135,1610612741,CHI,Chicago,Nikola Mirotic,,,5:23,0.0,0.0,0.0,2.0,2.0,0.0,0.0,2.0,1.0,0.0,1.0,2.0
0021400135,1610612741,CHI,Chicago,203503,Tony Snell,,,12:19,90.8,95.3,-4.5,0.143,0.0,20.0,0.071,0.0,0.048,0.0,0.375,0.375,0.127,106.81,0.022,2014-11-15T00:00:00,4,1610612754,IND,Indiana,4-7,23,23,23,30,0,0,0,0,0,0,0,0,0,0,99,0.481,0.72,0.389,18,46,14,0021400135,1610612741,CHI,Chicago,Tony Snell,,,12:19,0.0,0.0,0.0,0.0,10.0,2.0,0.0,4.0,0.0,0.0,1.0,1.0
0021400135,1610612741,CHI,Chicago,203503,Tony Snell,,,12:19,90.8,95.3,-4.5,0.143,0.0,20.0,0.071,0.0,0.048,0.0,0.375,0.375,0.127,106.81,0.022,2014-11-15T00:00:00,4,1610612741,CHI,Chicago,7-3,20,22,23,25,0,0,0,0,0,0,0,0,0,0,90,0.422,0.696,0.235,18,34,13,0021400135,1610612741,CHI,Chicago,Tony Snell,,,12:19,0.0,0.0,0.0,0.0,10.0,2.0,0.0,4.0,0.0,0.0,1.0,1.0
0021400135,1610612741,CHI,Chicago,203946,Cameron Bairstow,,DNP - Coach's Decision                  ,,,,,,,0.0,,,,,,,0.0,,,2014-11-15T00:00:00,4,1610612754,IND,Indiana,4-7,23,23,23,30,0,0,0,0,0,0,0,0,0,0,99,0.481,0.72,0.389,18,46,14,0021400135,1610612741,CHI,Chicago,Cameron Bairstow,,DNP - Coach's Decision                  ,,,,,,,,,,,,,
0021400135,1610612741,CHI,Chicago,203946,Cameron Bairstow,,DNP - Coach's Decision                  ,,,,,,,0.0,,,,,,,0.0,,,2014-11-15T00:00:00,4,1610612741,CHI,Chicago,7-3,20,22,23,25,0,0,0,0,0,0,0,0,0,0,90,0.422,0.696,0.235,18,34,13,0021400135,1610612741,CHI,Chicago,Cameron Bairstow,,DNP - Coach's Decision                  ,,,,,,,,,,,,,
0021400135,1610612741,CHI,Chicago,1737,Nazr Mohammed,,DNP - Coach's Decision                  ,,,,,,,0.0,,,,,,,0.0,,,2014-11-15T00:00:00,4,1610612754,IND,Indiana,4-7,23,23,23,30,0,0,0,0,0,0,0,0,0,0,99,0.481,0.72,0.389,18,46,14,0021400135,1610612741,CHI,Chicago,Nazr Mohammed,,DNP - Coach's Decision                  ,,,,,,,,,,,,,
0021400135,1610612741,CHI,Chicago,1737,Nazr Mohammed,,DNP - Coach's Decision                  ,,,,,,,0.0,,,,,,,0.0,,,2014-11-15T00:00:00,4,1610612741,CHI,Chicago,7-3,20,22,23,25,0,0,0,0,0,0,0,0,0,0,90,0.422,0.696,0.235,18,34,13,0021400135,1610612741,CHI,Chicago,Nazr Mohammed,,DNP - Coach's Decision                  ,,,,,,,,,,,,,
0021400135,1610612741,CHI,Chicago,202734,E'Twaun Moore,,DNP - Coach's Decision                  ,,,,,,,0.0,,,,,,,0.0,,,2014-11-15T00:00:00,4,1610612754,IND,Indiana,4-7,23,23,23,30,0,0,0,0,0,0,0,0,0,0,99,0.481,0.72,0.389,18,46,14,0021400135,1610612741,CHI,Chicago,E'Twaun Moore,,DNP - Coach's Decision                  ,,,,,,,,,,,,,
0021400135,1610612741,CHI,Chicago,202734,E'Twaun Moore,,DNP - Coach's Decision                  ,,,,,,,0.0,,,,,,,0.0,,,2014-11-15T00:00:00,4,1610612741,CHI,Chicago,7-3,20,22,23,25,0,0,0,0,0,0,0,0,0,0,90,0.422,0.696,0.235,18,34,13,0021400135,1610612741,CHI,Chicago,E'Twaun Moore,,DNP - Coach's Decision                  ,,,,,,,,,,,,,
