GAME_ID_x,TEAM_ID_x,TEAM_ABBREVIATION_x,TEAM_CITY_x,PLAYER_ID,PLAYER_NAME_x,START_POSITION_x,COMMENT_x,MIN_x,OFF_RATING,DEF_RATING,NET_RATING,AST_PCT,AST_TOV,AST_RATIO,OREB_PCT,DREB_PCT,REB_PCT,TM_TOV_PCT,EFG_PCT,TS_PCT,USG_PCT,PACE,PIE,GAME_DATE_EST,GAME_SEQUENCE,TEAM_ID_y,TEAM_ABBREVIATION_y,TEAM_CITY_NAME,TEAM_WINS_LOSSES,PTS_QTR1,PTS_QTR2,PTS_QTR3,PTS_QTR4,PTS_OT1,PTS_OT2,PTS_OT3,PTS_OT4,PTS_OT5,PTS_OT6,PTS_OT7,PTS_OT8,PTS_OT9,PTS_OT10,PTS,FG_PCT,FT_PCT,FG3_PCT,AST,REB,TOV,GAME_ID_y,TEAM_ID,TEAM_ABBREVIATION,TEAM_CITY_y,PLAYER_NAME_y,START_POSITION_y,COMMENT_y,MIN_y,PTS_OFF_TOV,PTS_2ND_CHANCE,PTS_FB,PTS_PAINT,OPP_PTS_OFF_TOV,OPP_PTS_2ND_CHANCE,OPP_PTS_FB,OPP_PTS_PAINT,BLK,BLKA,PF,PFD
0021400139,1610612759,SAS,San Antonio,202695,Kawhi Leonard,F,,40:09,92.3,100.4,-8.1,0.211,1.33,17.1,0.027,0.125,0.072,12.8,0.469,0.487,0.234,96.06,0.071,2014-11-15T00:00:00,8,1610612759,SAS,San Antonio,5-4,24,14,28,25,0,0,0,0,0,0,0,0,0,0,91,0.425,0.889,0.292,24,38,14,0021400139,1610612759,SAS,San Antonio,Kawhi Leonard,F,,40:09,0.0,0.0,3.0,6.0,12.0,13.0,16.0,52.0,1.0,0.0,5.0,1.0
0021400139,1610612759,SAS,San Antonio,202695,Kawhi Leonard,F,,40:09,92.3,100.4,-8.1,0.211,1.33,17.1,0.027,0.125,0.072,12.8,0.469,0.487,0.234,96.06,0.071,2014-11-15T00:00:00,8,1610612758,SAC,Sacramento,6-4,23,22,25,24,0,0,0,0,0,0,0,0,0,0,94,0.43,0.833,0.0,19,42,9,0021400139,1610612759,SAS,San Antonio,Kawhi Leonard,F,,40:09,0.0,0.0,3.0,6.0,12.0,13.0,16.0,52.0,1.0,0.0,5.0,1.0
0021400139,1610612759,SAS,San Antonio,1495,Tim Duncan,F,,34:09,95.3,99.9,-4.6,0.1,2.0,11.4,0.0,0.276,0.143,5.7,0.364,0.517,0.224,95.7,0.129,2014-11-15T00:00:00,8,1610612759,SAS,San Antonio,5-4,24,14,28,25,0,0,0,0,0,0,0,0,0,0,91,0.425,0.889,0.292,24,38,14,0021400139,1610612759,SAS,San Antonio,Tim Duncan,F,,34:09,0.0,0.0,0.0,2.0,10.0,10.0,12.0,42.0,5.0,0.0,4.0,5.0
0021400139,1610612759,SAS,San Antonio,1495,Tim Duncan,F,,34:09,95.3,99.9,-4.6,0.1,2.0,11.4,0.0,0.276,0.143,5.7,0.364,0.517,0.224,95.7,0.129,2014-11-15T00:00:00,8,1610612758,SAC,Sacramento,6-4,23,22,25,24,0,0,0,0,0,0,0,0,0,0,94,0.43,0.833,0.0,19,42,9,0021400139,1610612759,SAS,San Antonio,Tim Duncan,F,,34:09,0.0,0.0,0.0,2.0,10.0,10.0,12.0,42.0,5.0,0.0,4.0,5.0
0021400139,1610612759,SAS,San Antonio,203382,Aron Baynes,C,,17:42,78.3,106.1,-27.8,0.3,3.0,33.3,0.0,0.222,0.077,11.1,0.2,0.2,0.163,98.33,0.015,2014-11-15T00:00:00,8,1610612759,SAS,San Antonio,5-4,24,14,28,25,0,0,0,0,0,0,0,0,0,0,91,0.425,0.889,0.292,24,38,14,0021400139,1610612759,SAS,San Antonio,Aron Baynes,C,,17:42,0.0,0.0,0.0,2.0,8.0,3.0,8.0,26.0,0.0,3.0,1.0,2.0
0021400139,1610612759,SAS,San Antonio,203382,Aron Baynes,C,,17:42,78.3,106.1,-27.8,0.3,3.0,33.3,0.0,0.222,0.077,11.1,0.2,0.2,0.163,98.33,0.015,2014-11-15T00:00:00,8,1610612758,SAC,Sacramento,6-4,23,22,25,24,0,0,0,0,0,0,0,0,0,0,94,0.43,0.833,0.0,19,42,9,0021400139,1610612759,SAS,San Antonio,Aron Baynes,C,,17:42,0.0,0.0,0.0,2.0,8.0,3.0,8.0,26.0,0.0,3.0,1.0,2.0
0021400139,1610612759,SAS,San Antonio,201980,Danny Green,G,,33:36,99.6,95.9,3.7,0.0,0.0,0.0,0.0,0.065,0.035,0.0,0.778,0.81,0.137,96.51,0.134,2014-11-15T00:00:00,8,1610612759,SAS,San Antonio,5-4,24,14,28,25,0,0,0,0,0,0,0,0,0,0,91,0.425,0.889,0.292,24,38,14,0021400139,1610612759,SAS,San Antonio,Danny Green,G,,33:36,0.0,0.0,2.0,6.0,10.0,10.0,8.0,38.0,1.0,0.0,3.0,2.0
0021400139,1610612759,SAS,San Antonio,201980,Danny Green,G,,33:36,99.6,95.9,3.7,0.0,0.0,0.0,0.0,0.065,0.035,0.0,0.778,0.81,0.137,96.51,0.134,2014-11-15T00:00:00,8,1610612758,SAC,Sacramento,6-4,23,22,25,24,0,0,0,0,0,0,0,0,0,0,94,0.43,0.833,0.0,19,42,9,0021400139,1610612759,SAS,San Antonio,Danny Green,G,,33:36,0.0,0.0,2.0,6.0,10.0,10.0,8.0,38.0,1.0,0.0,3.0,2.0
0021400139,1610612759,SAS,San Antonio,2225,Tony Parker,G,,35:32,98.3,98.7,-0.4,0.3,3.0,30.0,0.0,0.067,0.033,10.0,0.458,0.458,0.191,95.96,0.081,2014-11-15T00:00:00,8,1610612759,SAS,San Antonio,5-4,24,14,28,25,0,0,0,0,0,0,0,0,0,0,91,0.425,0.889,0.292,24,38,14,0021400139,1610612759,SAS,San Antonio,Tony Parker,G,,35:32,3.0,0.0,0.0,4.0,12.0,10.0,12.0,44.0,0.0,0.0,1.0,2.0
0021400139,1610612759,SAS,San Antonio,2225,Tony Parker,G,,35:32,98.3,98.7,-0.4,0.3,3.0,30.0,0.0,0.067,0.033,10.0,0.458,0.458,0.191,95.96,0.081,2014-11-15T00:00:00,8,1610612758,SAC,Sacramento,6-4,23,22,25,24,0,0,0,0,0,0,0,0,0,0,94,0.43,0.833,0.0,19,42,9,0021400139,1610612759,SAS,San Antonio,Tony Parker,G,,35:32,3.0,0.0,0.0,4.0,12.0,10.0,12.0,44.0,0.0,0.0,1.0,2.0
0021400139,1610612759,SAS,San Antonio,1938,Manu Ginobili,,,26:26,107.3,97.6,9.7,0.385,1.67,19.2,0.0,0.211,0.1,11.5,0.5,0.581,0.363,97.44,0.181,2014-11-15T00:00:00,8,1610612759,SAS,San Antonio,5-4,24,14,28,25,0,0,0,0,0,0,0,0,0,0,91,0.425,0.889,0.292,24,38,14,0021400139,1610612759,SAS,San Antonio,Manu Ginobili,,,26:26,0.0,3.0,5.0,10.0,10.0,5.0,8.0,34.0,0.0,1.0,2.0,4.0
0021400139,1610612759,SAS,San Antonio,1938,Manu Ginobili,,,26:26,107.3,97.6,9.7,0.385,1.67,19.2,0.0,0.211,0.1,11.5,0.5,0.581,0.363,97.44,0.181,2014-11-15T00:00:00,8,1610612758,SAC,Sacramento,6-4,23,22,25,24,0,0,0,0,0,0,0,0,0,0,94,0.43,0.833,0.0,19,42,9,0021400139,1610612759,SAS,San Antonio,Manu Ginobili,,,26:26,0.0,3.0,5.0,10.0,10.0,5.0,8.0,34.0,0.0,1.0,2.0,4.0
0021400139,1610612759,SAS,San Antonio,2564,Boris Diaw,,,23:15,107.5,78.3,29.3,0.063,0.5,11.1,0.211,0.211,0.211,22.2,0.583,0.583,0.155,94.89,0.088,2014-11-15T00:00:00,8,1610612759,SAS,San Antonio,5-4,24,14,28,25,0,0,0,0,0,0,0,0,0,0,91,0.425,0.889,0.292,24,38,14,0021400139,1610612759,SAS,San Antonio,Boris Diaw,,,23:15,4.0,0.0,2.0,4.0,8.0,7.0,4.0,24.0,0.0,2.0,4.0,1.0
0021400139,1610612759,SAS,San Antonio,2564,Boris Diaw,,,23:15,107.5,78.3,29.3,0.063,0.5,11.1,0.211,0.211,0.211,22.2,0.583,0.583,0.155,94.89,0.088,2014-11-15T00:00:00,8,1610612758,SAC,Sacramento,6-4,23,22,25,24,0,0,0,0,0,0,0,0,0,0,94,0.43,0.833,0.0,19,42,9,0021400139,1610612759,SAS,San Antonio,Boris Diaw,,,23:15,4.0,0.0,2.0,4.0,8.0,7.0,4.0,24.0,0.0,2.0,4.0,1.0
0021400139,1610612759,SAS,San Antonio,202709,Cory Joseph,,,15:36,79.0,88.8,-9.8,0.222,2.0,40.0,0.0,0.077,0.034,20.0,0.0,0.0,0.082,97.17,0.032,2014-11-15T00:00:00,8,1610612759,SAS,San Antonio,5-4,24,14,28,25,0,0,0,0,0,0,0,0,0,0,91,0.425,0.889,0.292,24,38,14,0021400139,1610612759,SAS,San Antonio,Cory Joseph,,,15:36,0.0,0.0,0.0,0.0,6.0,5.0,6.0,18.0,0.0,0.0,0.0,1.0
0021400139,1610612759,SAS,San Antonio,202709,Cory Joseph,,,15:36,79.0,88.8,-9.8,0.222,2.0,40.0,0.0,0.077,0.034,20.0,0.0,0.0,0.082,97.17,0.032,2014-11-15T00:00:00,8,1610612758,SAC,Sacramento,6-4,23,22,25,24,0,0,0,0,0,0,0,0,0,0,94,0.43,0.833,0.0,19,42,9,0021400139,1610612759,SAS,San Antonio,Cory Joseph,,,15:36,0.0,0.0,0.0,0.0,6.0,5.0,6.0,18.0,0.0,0.0,0.0,1.0
0021400139,1610612759,SAS,San Antonio,201965,Jeff Ayres,,,3:15,87.2,85.0,2.2,0.0,0.0,0.0,0.667,0.333,0.5,50.0,0.0,0.0,0.225,94.37,-0.5,2014-11-15T00:00:00,8,1610612759,SAS,San Antonio,5-4,24,14,28,25,0,0,0,0,0,0,0,0,0,0,91,0.425,0.889,0.292,24,38,14,0021400139,1610612759,SAS,San Antonio,Jeff Ayres,,,3:15,0.0,0.0,0.0,0.0,2.0,0.0,0.0,0.0,0.0,0.0,2.0,0.0
0021400139,1610612759,SAS,San Antonio,201965,Jeff Ayres,,,3:15,87.2,85.0,2.2,0.0,0.0,0.0,0.667,0.333,0.5,50.0,0.0,0.0,0.225,94.37,-0.5,2014-11-15T00:00:00,8,1610612758,SAC,Sacramento,6-4,23,22,25,24,0,0,0,0,0,0,0,0,0,0,94,0.43,0.833,0.0,19,42,9,0021400139,1610612759,SAS,San Antonio,Jeff Ayres,,,3:15,0.0,0.0,0.0,0.0,2.0,0.0,0.0,0.0,0.0,0.0,2.0,0.0
0021400139,1610612759,SAS,San Antonio,2588,Matt Bonner,,,10:20,95.0,96.9,-1.9,0.143,0.0,25.0,0.0,0.3,0.158,0.0,0.5,0.5,0.15,94.34,0.081,2014-11-15T00:00:00,8,1610612759,SAS,San Antonio,5-4,24,14,28,25,0,0,0,0,0,0,0,0,0,0,91,0.425,0.889,0.292,24,38,14,0021400139,1610612759,SAS,San Antonio,Matt Bonner,,,10:20,0.0,0.0,0.0,0.0,2.0,2.0,6.0,12.0,1.0,0.0,3.0,0.0
0021400139,1610612759,SAS,San Antonio,2588,Matt Bonner,,,10:20,95.0,96.9,-1.9,0.143,0.0,25.0,0.0,0.3,0.158,0.0,0.5,0.5,0.15,94.34,0.081,2014-11-15T00:00:00,8,1610612758,SAC,Sacramento,6-4,23,22,25,24,0,0,0,0,0,0,0,0,0,0,94,0.43,0.833,0.0,19,42,9,0021400139,1610612759,SAS,San Antonio,Matt Bonner,,,10:20,0.0,0.0,0.0,0.0,2.0,2.0,6.0,12.0,1.0,0.0,3.0,0.0
0021400139,1610612759,SAS,San Antonio,203937,Kyle Anderson,,DNP - Coach's Decision                  ,,,,,,,0.0,,,,,,,0.0,,,2014-11-15T00:00:00,8,1610612759,SAS,San Antonio,5-4,24,14,28,25,0,0,0,0,0,0,0,0,0,0,91,0.425,0.889,0.292,24,38,14,0021400139,1610612759,SAS,San Antonio,Kyle Anderson,,DNP - Coach's Decision                  ,,,,,,,,,,,,,
0021400139,1610612759,SAS,San Antonio,203937,Kyle Anderson,,DNP - Coach's Decision                  ,,,,,,,0.0,,,,,,,0.0,,,2014-11-15T00:00:00,8,1610612758,SAC,Sacramento,6-4,23,22,25,24,0,0,0,0,0,0,0,0,0,0,94,0.43,0.833,0.0,19,42,9,0021400139,1610612759,SAS,San Antonio,Kyle Anderson,,DNP - Coach's Decision                  ,,,,,,,,,,,,,
0021400139,1610612759,SAS,San Antonio,201158,Marco Belinelli,,"DND - mild strain, right groin          ",,,,,,,0.0,,,,,,,0.0,,,2014-11-15T00:00:00,8,1610612759,SAS,San Antonio,5-4,24,14,28,25,0,0,0,0,0,0,0,0,0,0,91,0.425,0.889,0.292,24,38,14,0021400139,1610612759,SAS,San Antonio,Marco Belinelli,,"DND - mild strain, right groin          ",,,,,,,,,,,,,
0021400139,1610612759,SAS,San Antonio,201158,Marco Belinelli,,"DND - mild strain, right groin          ",,,,,,,0.0,,,,,,,0.0,,,2014-11-15T00:00:00,8,1610612758,SAC,Sacramento,6-4,23,22,25,24,0,0,0,0,0,0,0,0,0,0,94,0.43,0.833,0.0,19,42,9,0021400139,1610612759,SAS,San Antonio,Marco Belinelli,,"DND - mild strain, right groin          ",,,,,,,,,,,,,
0021400139,1610612759,SAS,San Antonio,201948,Austin Daye,,DNP - Coach's Decision                  ,,,,,,,0.0,,,,,,,0.0,,,2014-11-15T00:00:00,8,1610612759,SAS,San Antonio,5-4,24,14,28,25,0,0,0,0,0,0,0,0,0,0,91,0.425,0.889,0.292,24,38,14,0021400139,1610612759,SAS,San Antonio,Austin Daye,,DNP - Coach's Decision                  ,,,,,,,,,,,,,
0021400139,1610612759,SAS,San Antonio,201948,Austin Daye,,DNP - Coach's Decision                  ,,,,,,,0.0,,,,,,,0.0,,,2014-11-15T00:00:00,8,1610612758,SAC,Sacramento,6-4,23,22,25,24,0,0,0,0,0,0,0,0,0,0,94,0.43,0.833,0.0,19,42,9,0021400139,1610612759,SAS,San Antonio,Austin Daye,,DNP - Coach's Decision                  ,,,,,,,,,,,,,
0021400139,1610612758,SAC,Sacramento,200752,Rudy Gay,F,,37:35,102.9,91.7,11.2,0.261,3.0,20.2,0.0,0.088,0.046,6.7,0.35,0.414,0.29,95.05,0.103,2014-11-15T00:00:00,8,1610612759,SAS,San Antonio,5-4,24,14,28,25,0,0,0,0,0,0,0,0,0,0,91,0.425,0.889,0.292,24,38,14,0021400139,1610612758,SAC,Sacramento,Rudy Gay,F,,37:35,2.0,0.0,2.0,10.0,5.0,0.0,9.0,22.0,1.0,1.0,1.0,3.0
0021400139,1610612758,SAC,Sacramento,200752,Rudy Gay,F,,37:35,102.9,91.7,11.2,0.261,3.0,20.2,0.0,0.088,0.046,6.7,0.35,0.414,0.29,95.05,0.103,2014-11-15T00:00:00,8,1610612758,SAC,Sacramento,6-4,23,22,25,24,0,0,0,0,0,0,0,0,0,0,94,0.43,0.833,0.0,19,42,9,0021400139,1610612758,SAC,Sacramento,Rudy Gay,F,,37:35,2.0,0.0,2.0,10.0,5.0,0.0,9.0,22.0,1.0,1.0,1.0,3.0
0021400139,1610612758,SAC,Sacramento,201574,Jason Thompson,F,,32:01,98.2,86.8,11.4,0.167,4.0,40.0,0.0,0.333,0.176,10.0,0.4,0.4,0.086,95.47,0.116,2014-11-15T00:00:00,8,1610612759,SAS,San Antonio,5-4,24,14,28,25,0,0,0,0,0,0,0,0,0,0,91,0.425,0.889,0.292,24,38,14,0021400139,1610612758,SAC,Sacramento,Jason Thompson,F,,32:01,2.0,2.0,0.0,2.0,4.0,0.0,6.0,18.0,1.0,0.0,2.0,3.0
0021400139,1610612758,SAC,Sacramento,201574,Jason Thompson,F,,32:01,98.2,86.8,11.4,0.167,4.0,40.0,0.0,0.333,0.176,10.0,0.4,0.4,0.086,95.47,0.116,2014-11-15T00:00:00,8,1610612758,SAC,Sacramento,6-4,23,22,25,24,0,0,0,0,0,0,0,0,0,0,94,0.43,0.833,0.0,19,42,9,0021400139,1610612758,SAC,Sacramento,Jason Thompson,F,,32:01,2.0,2.0,0.0,2.0,4.0,0.0,6.0,18.0,1.0,0.0,2.0,3.0
0021400139,1610612758,SAC,Sacramento,202326,DeMarcus Cousins,C,,26:52,105.6,118.6,-13.0,0.0,0.0,0.0,0.19,0.316,0.25,4.4,0.526,0.578,0.397,94.08,0.164,2014-11-15T00:00:00,8,1610612759,SAS,San Antonio,5-4,24,14,28,25,0,0,0,0,0,0,0,0,0,0,91,0.425,0.889,0.292,24,38,14,0021400139,1610612758,SAC,Sacramento,DeMarcus Cousins,C,,26:52,2.0,4.0,0.0,20.0,3.0,3.0,3.0,22.0,1.0,2.0,5.0,8.0
0021400139,1610612758,SAC,Sacramento,202326,DeMarcus Cousins,C,,26:52,105.6,118.6,-13.0,0.0,0.0,0.0,0.19,0.316,0.25,4.4,0.526,0.578,0.397,94.08,0.164,2014-11-15T00:00:00,8,1610612758,SAC,Sacramento,6-4,23,22,25,24,0,0,0,0,0,0,0,0,0,0,94,0.43,0.833,0.0,19,42,9,0021400139,1610612758,SAC,Sacramento,DeMarcus Cousins,C,,26:52,2.0,4.0,0.0,20.0,3.0,3.0,3.0,22.0,1.0,2.0,5.0,8.0
0021400139,1610612758,SAC,Sacramento,203463,Ben McLemore,G,,39:42,102.9,95.4,7.6,0.034,0.5,8.4,0.069,0.059,0.063,16.8,0.375,0.45,0.127,95.08,0.024,2014-11-15T00:00:00,8,1610612759,SAS,San Antonio,5-4,24,14,28,25,0,0,0,0,0,0,0,0,0,0,91,0.425,0.889,0.292,24,38,14,0021400139,1610612758,SAC,Sacramento,Ben McLemore,G,,39:42,4.0,0.0,4.0,4.0,3.0,3.0,5.0,24.0,0.0,1.0,2.0,2.0
0021400139,1610612758,SAC,Sacramento,203463,Ben McLemore,G,,39:42,102.9,95.4,7.6,0.034,0.5,8.4,0.069,0.059,0.063,16.8,0.375,0.45,0.127,95.08,0.024,2014-11-15T00:00:00,8,1610612758,SAC,Sacramento,6-4,23,22,25,24,0,0,0,0,0,0,0,0,0,0,94,0.43,0.833,0.0,19,42,9,0021400139,1610612758,SAC,Sacramento,Ben McLemore,G,,39:42,4.0,0.0,4.0,4.0,3.0,3.0,5.0,24.0,0.0,1.0,2.0,2.0
0021400139,1610612758,SAC,Sacramento,201954,Darren Collison,G,,39:23,102.9,95.4,7.6,0.2,1.67,21.2,0.0,0.059,0.032,12.7,0.538,0.607,0.218,95.85,0.125,2014-11-15T00:00:00,8,1610612759,SAS,San Antonio,5-4,24,14,28,25,0,0,0,0,0,0,0,0,0,0,91,0.425,0.889,0.292,24,38,14,0021400139,1610612758,SAC,Sacramento,Darren Collison,G,,39:23,4.0,2.0,6.0,10.0,3.0,3.0,5.0,24.0,0.0,0.0,2.0,5.0
0021400139,1610612758,SAC,Sacramento,201954,Darren Collison,G,,39:23,102.9,95.4,7.6,0.2,1.67,21.2,0.0,0.059,0.032,12.7,0.538,0.607,0.218,95.85,0.125,2014-11-15T00:00:00,8,1610612758,SAC,Sacramento,6-4,23,22,25,24,0,0,0,0,0,0,0,0,0,0,94,0.43,0.833,0.0,19,42,9,0021400139,1610612758,SAC,Sacramento,Darren Collison,G,,39:23,4.0,2.0,6.0,10.0,3.0,3.0,5.0,24.0,0.0,0.0,2.0,5.0
0021400139,1610612758,SAC,Sacramento,202682,Derrick Williams,,,4:56,56.3,119.5,-63.2,0.0,0.0,0.0,0.0,0.0,0.0,0.0,0.5,0.521,0.324,96.13,0.083,2014-11-15T00:00:00,8,1610612759,SAS,San Antonio,5-4,24,14,28,25,0,0,0,0,0,0,0,0,0,0,91,0.425,0.889,0.292,24,38,14,0021400139,1610612758,SAC,Sacramento,Derrick Williams,,,4:56,0.0,0.0,0.0,0.0,2.0,0.0,3.0,6.0,0.0,0.0,0.0,1.0
0021400139,1610612758,SAC,Sacramento,202682,Derrick Williams,,,4:56,56.3,119.5,-63.2,0.0,0.0,0.0,0.0,0.0,0.0,0.0,0.5,0.521,0.324,96.13,0.083,2014-11-15T00:00:00,8,1610612758,SAC,Sacramento,6-4,23,22,25,24,0,0,0,0,0,0,0,0,0,0,94,0.43,0.833,0.0,19,42,9,0021400139,1610612758,SAC,Sacramento,Derrick Williams,,,4:56,0.0,0.0,0.0,0.0,2.0,0.0,3.0,6.0,0.0,0.0,0.0,1.0
0021400139,1610612758,SAC,Sacramento,201956,Omri Casspi,,,22:25,84.8,108.5,-23.7,0.0,0.0,0.0,0.048,0.222,0.128,0.0,0.5,0.58,0.149,98.84,0.124,2014-11-15T00:00:00,8,1610612759,SAS,San Antonio,5-4,24,14,28,25,0,0,0,0,0,0,0,0,0,0,91,0.425,0.889,0.292,24,38,14,0021400139,1610612758,SAC,Sacramento,Omri Casspi,,,22:25,2.0,3.0,4.0,6.0,5.0,3.0,6.0,22.0,1.0,0.0,3.0,2.0
0021400139,1610612758,SAC,Sacramento,201956,Omri Casspi,,,22:25,84.8,108.5,-23.7,0.0,0.0,0.0,0.048,0.222,0.128,0.0,0.5,0.58,0.149,98.84,0.124,2014-11-15T00:00:00,8,1610612758,SAC,Sacramento,6-4,23,22,25,24,0,0,0,0,0,0,0,0,0,0,94,0.43,0.833,0.0,19,42,9,0021400139,1610612758,SAC,Sacramento,Omri Casspi,,,22:25,2.0,3.0,4.0,6.0,5.0,3.0,6.0,22.0,1.0,0.0,3.0,2.0
0021400139,1610612758,SAC,Sacramento,201196,Ramon Sessions,,,8:37,67.1,98.2,-31.0,0.2,0.0,33.3,0.0,0.429,0.176,0.0,0.0,0.0,0.101,98.04,0.043,2014-11-15T00:00:00,8,1610612759,SAS,San Antonio,5-4,24,14,28,25,0,0,0,0,0,0,0,0,0,0,91,0.425,0.889,0.292,24,38,14,0021400139,1610612758,SAC,Sacramento,Ramon Sessions,,,8:37,0.0,0.0,0.0,0.0,4.0,0.0,7.0,10.0,0.0,1.0,1.0,0.0
0021400139,1610612758,SAC,Sacramento,201196,Ramon Sessions,,,8:37,67.1,98.2,-31.0,0.2,0.0,33.3,0.0,0.429,0.176,0.0,0.0,0.0,0.101,98.04,0.043,2014-11-15T00:00:00,8,1610612758,SAC,Sacramento,6-4,23,22,25,24,0,0,0,0,0,0,0,0,0,0,94,0.43,0.833,0.0,19,42,9,0021400139,1610612758,SAC,Sacramento,Ramon Sessions,,,8:37,0.0,0.0,0.0,0.0,4.0,0.0,7.0,10.0,0.0,1.0,1.0,0.0
0021400139,1610612758,SAC,Sacramento,203917,Nik Stauskas,,,8:26,63.6,98.2,-34.6,0.0,0.0,0.0,0.0,0.0,0.0,0.0,0.0,0.0,0.096,103.08,-0.087,2014-11-15T00:00:00,8,1610612759,SAS,San Antonio,5-4,24,14,28,25,0,0,0,0,0,0,0,0,0,0,91,0.425,0.889,0.292,24,38,14,0021400139,1610612758,SAC,Sacramento,Nik Stauskas,,,8:26,0.0,0.0,0.0,0.0,4.0,0.0,7.0,10.0,0.0,0.0,0.0,0.0
0021400139,1610612758,SAC,Sacramento,203917,Nik Stauskas,,,8:26,63.6,98.2,-34.6,0.0,0.0,0.0,0.0,0.0,0.0,0.0,0.0,0.0,0.096,103.08,-0.087,2014-11-15T00:00:00,8,1610612758,SAC,Sacramento,6-4,23,22,25,24,0,0,0,0,0,0,0,0,0,0,94,0.43,0.833,0.0,19,42,9,0021400139,1610612758,SAC,Sacramento,Nik Stauskas,,,8:26,0.0,0.0,0.0,0.0,4.0,0.0,7.0,10.0,0.0,0.0,0.0,0.0
0021400139,1610612758,SAC,Sacramento,201171,Carl Landry,,,20:03,93.7,68.0,25.7,0.154,0.0,18.2,0.071,0.227,0.167,0.0,0.444,0.444,0.197,99.14,0.204,2014-11-15T00:00:00,8,1610612759,SAS,San Antonio,5-4,24,14,28,25,0,0,0,0,0,0,0,0,0,0,91,0.425,0.889,0.292,24,38,14,0021400139,1610612758,SAC,Sacramento,Carl Landry,,,20:03,0.0,2.0,0.0,6.0,2.0,3.0,9.0,12.0,2.0,3.0,2.0,1.0
0021400139,1610612758,SAC,Sacramento,201171,Carl Landry,,,20:03,93.7,68.0,25.7,0.154,0.0,18.2,0.071,0.227,0.167,0.0,0.444,0.444,0.197,99.14,0.204,2014-11-15T00:00:00,8,1610612758,SAC,Sacramento,6-4,23,22,25,24,0,0,0,0,0,0,0,0,0,0,94,0.43,0.833,0.0,19,42,9,0021400139,1610612758,SAC,Sacramento,Carl Landry,,,20:03,0.0,2.0,0.0,6.0,2.0,3.0,9.0,12.0,2.0,3.0,2.0,1.0
0021400139,1610612758,SAC,Sacramento,2501,Reggie Evans,,DNP - Coach's Decision                  ,,,,,,,0.0,,,,,,,0.0,,,2014-11-15T00:00:00,8,1610612759,SAS,San Antonio,5-4,24,14,28,25,0,0,0,0,0,0,0,0,0,0,91,0.425,0.889,0.292,24,38,14,0021400139,1610612758,SAC,Sacramento,Reggie Evans,,DNP - Coach's Decision                  ,,,,,,,,,,,,,
0021400139,1610612758,SAC,Sacramento,2501,Reggie Evans,,DNP - Coach's Decision                  ,,,,,,,0.0,,,,,,,0.0,,,2014-11-15T00:00:00,8,1610612758,SAC,Sacramento,6-4,23,22,25,24,0,0,0,0,0,0,0,0,0,0,94,0.43,0.833,0.0,19,42,9,0021400139,1610612758,SAC,Sacramento,Reggie Evans,,DNP - Coach's Decision                  ,,,,,,,,,,,,,
0021400139,1610612758,SAC,Sacramento,200797,Ryan Hollins,,DNP - Coach's Decision                  ,,,,,,,0.0,,,,,,,0.0,,,2014-11-15T00:00:00,8,1610612759,SAS,San Antonio,5-4,24,14,28,25,0,0,0,0,0,0,0,0,0,0,91,0.425,0.889,0.292,24,38,14,0021400139,1610612758,SAC,Sacramento,Ryan Hollins,,DNP - Coach's Decision                  ,,,,,,,,,,,,,
0021400139,1610612758,SAC,Sacramento,200797,Ryan Hollins,,DNP - Coach's Decision                  ,,,,,,,0.0,,,,,,,0.0,,,2014-11-15T00:00:00,8,1610612758,SAC,Sacramento,6-4,23,22,25,24,0,0,0,0,0,0,0,0,0,0,94,0.43,0.833,0.0,19,42,9,0021400139,1610612758,SAC,Sacramento,Ryan Hollins,,DNP - Coach's Decision                  ,,,,,,,,,,,,,
0021400139,1610612758,SAC,Sacramento,203492,Ray McCallum,,DNP - Coach's Decision                  ,,,,,,,0.0,,,,,,,0.0,,,2014-11-15T00:00:00,8,1610612759,SAS,San Antonio,5-4,24,14,28,25,0,0,0,0,0,0,0,0,0,0,91,0.425,0.889,0.292,24,38,14,0021400139,1610612758,SAC,Sacramento,Ray McCallum,,DNP - Coach's Decision                  ,,,,,,,,,,,,,
0021400139,1610612758,SAC,Sacramento,203492,Ray McCallum,,DNP - Coach's Decision                  ,,,,,,,0.0,,,,,,,0.0,,,2014-11-15T00:00:00,8,1610612758,SAC,Sacramento,6-4,23,22,25,24,0,0,0,0,0,0,0,0,0,0,94,0.43,0.833,0.0,19,42,9,0021400139,1610612758,SAC,Sacramento,Ray McCallum,,DNP - Coach's Decision                  ,,,,,,,,,,,,,
