GAME_ID_x,TEAM_ID_x,TEAM_ABBREVIATION_x,TEAM_CITY_x,PLAYER_ID,PLAYER_NAME_x,START_POSITION_x,COMMENT_x,MIN_x,OFF_RATING,DEF_RATING,NET_RATING,AST_PCT,AST_TOV,AST_RATIO,OREB_PCT,DREB_PCT,REB_PCT,TM_TOV_PCT,EFG_PCT,TS_PCT,USG_PCT,PACE,PIE,GAME_DATE_EST,GAME_SEQUENCE,TEAM_ID_y,TEAM_ABBREVIATION_y,TEAM_CITY_NAME,TEAM_WINS_LOSSES,PTS_QTR1,PTS_QTR2,PTS_QTR3,PTS_QTR4,PTS_OT1,PTS_OT2,PTS_OT3,PTS_OT4,PTS_OT5,PTS_OT6,PTS_OT7,PTS_OT8,PTS_OT9,PTS_OT10,PTS,FG_PCT,FT_PCT,FG3_PCT,AST,REB,TOV,GAME_ID_y,TEAM_ID,TEAM_ABBREVIATION,TEAM_CITY_y,PLAYER_NAME_y,START_POSITION_y,COMMENT_y,MIN_y,PTS_OFF_TOV,PTS_2ND_CHANCE,PTS_FB,PTS_PAINT,OPP_PTS_OFF_TOV,OPP_PTS_2ND_CHANCE,OPP_PTS_FB,OPP_PTS_PAINT,BLK,BLKA,PF,PFD
0021300701,1610612739,CLE,Cleveland,2736,Luol Deng,F,,36:04,99.9,108.4,-8.5,0.1,0.0,9.1,0.036,0.125,0.077,0.0,0.605,0.604,0.255,95.9,0.138,2014-02-01T00:00:00,5,1610612739,CLE,Cleveland,16-31,23,29,21,19,0,0,0,0,0,0,0,0,0,0,92,0.437,0.8,0.267,23,32,16,0021300701,1610612739,CLE,Cleveland,Luol Deng,F,,36:04,10.0,2.0,2.0,10.0,11.0,6.0,16.0,46.0,0.0,0.0,3.0,1.0
0021300701,1610612739,CLE,Cleveland,2736,Luol Deng,F,,36:04,99.9,108.4,-8.5,0.1,0.0,9.1,0.036,0.125,0.077,0.0,0.605,0.604,0.255,95.9,0.138,2014-02-01T00:00:00,5,1610612745,HOU,Houston,32-17,31,30,23,22,0,0,0,0,0,0,0,0,0,0,106,0.513,0.708,0.269,24,44,17,0021300701,1610612739,CLE,Cleveland,Luol Deng,F,,36:04,10.0,2.0,2.0,10.0,11.0,6.0,16.0,46.0,0.0,0.0,3.0,1.0
0021300701,1610612739,CLE,Cleveland,202684,Tristan Thompson,F,,35:22,98.5,112.6,-14.1,0.037,0.0,12.7,0.107,0.182,0.14,0.0,0.333,0.436,0.09,95.85,0.062,2014-02-01T00:00:00,5,1610612739,CLE,Cleveland,16-31,23,29,21,19,0,0,0,0,0,0,0,0,0,0,92,0.437,0.8,0.267,23,32,16,0021300701,1610612739,CLE,Cleveland,Tristan Thompson,F,,35:22,0.0,2.0,0.0,4.0,13.0,6.0,18.0,50.0,0.0,2.0,0.0,3.0
0021300701,1610612739,CLE,Cleveland,202684,Tristan Thompson,F,,35:22,98.5,112.6,-14.1,0.037,0.0,12.7,0.107,0.182,0.14,0.0,0.333,0.436,0.09,95.85,0.062,2014-02-01T00:00:00,5,1610612745,HOU,Houston,32-17,31,30,23,22,0,0,0,0,0,0,0,0,0,0,106,0.513,0.708,0.269,24,44,17,0021300701,1610612739,CLE,Cleveland,Tristan Thompson,F,,35:22,0.0,2.0,0.0,4.0,13.0,6.0,18.0,50.0,0.0,2.0,0.0,3.0
0021300701,1610612739,CLE,Cleveland,203092,Tyler Zeller,C,,27:21,110.7,110.5,0.2,0.087,2.0,33.3,0.0,0.188,0.091,16.7,0.667,0.667,0.07,94.42,0.042,2014-02-01T00:00:00,5,1610612739,CLE,Cleveland,16-31,23,29,21,19,0,0,0,0,0,0,0,0,0,0,92,0.437,0.8,0.267,23,32,16,0021300701,1610612739,CLE,Cleveland,Tyler Zeller,C,,27:21,0.0,0.0,0.0,4.0,9.0,6.0,4.0,34.0,1.0,0.0,5.0,1.0
0021300701,1610612739,CLE,Cleveland,203092,Tyler Zeller,C,,27:21,110.7,110.5,0.2,0.087,2.0,33.3,0.0,0.188,0.091,16.7,0.667,0.667,0.07,94.42,0.042,2014-02-01T00:00:00,5,1610612745,HOU,Houston,32-17,31,30,23,22,0,0,0,0,0,0,0,0,0,0,106,0.513,0.708,0.269,24,44,17,0021300701,1610612739,CLE,Cleveland,Tyler Zeller,C,,27:21,0.0,0.0,0.0,4.0,9.0,6.0,4.0,34.0,1.0,0.0,5.0,1.0
0021300701,1610612739,CLE,Cleveland,101127,Jarrett Jack,G,,30:59,83.4,110.2,-26.8,0.316,6.0,37.5,0.0,0.0,0.0,6.3,0.389,0.389,0.148,97.69,0.039,2014-02-01T00:00:00,5,1610612739,CLE,Cleveland,16-31,23,29,21,19,0,0,0,0,0,0,0,0,0,0,92,0.437,0.8,0.267,23,32,16,0021300701,1610612739,CLE,Cleveland,Jarrett Jack,G,,30:59,0.0,0.0,2.0,0.0,15.0,8.0,19.0,46.0,0.0,0.0,2.0,0.0
0021300701,1610612739,CLE,Cleveland,101127,Jarrett Jack,G,,30:59,83.4,110.2,-26.8,0.316,6.0,37.5,0.0,0.0,0.0,6.3,0.389,0.389,0.148,97.69,0.039,2014-02-01T00:00:00,5,1610612745,HOU,Houston,32-17,31,30,23,22,0,0,0,0,0,0,0,0,0,0,106,0.513,0.708,0.269,24,44,17,0021300701,1610612739,CLE,Cleveland,Jarrett Jack,G,,30:59,0.0,0.0,2.0,0.0,15.0,8.0,19.0,46.0,0.0,0.0,2.0,0.0
0021300701,1610612739,CLE,Cleveland,202681,Kyrie Irving,G,,38:50,98.8,111.7,-12.9,0.292,1.17,21.0,0.032,0.12,0.071,18.0,0.474,0.517,0.31,96.96,0.092,2014-02-01T00:00:00,5,1610612739,CLE,Cleveland,16-31,23,29,21,19,0,0,0,0,0,0,0,0,0,0,92,0.437,0.8,0.267,23,32,16,0021300701,1610612739,CLE,Cleveland,Kyrie Irving,G,,38:50,6.0,0.0,4.0,4.0,13.0,6.0,18.0,48.0,0.0,2.0,4.0,3.0
0021300701,1610612739,CLE,Cleveland,202681,Kyrie Irving,G,,38:50,98.8,111.7,-12.9,0.292,1.17,21.0,0.032,0.12,0.071,18.0,0.474,0.517,0.31,96.96,0.092,2014-02-01T00:00:00,5,1610612745,HOU,Houston,32-17,31,30,23,22,0,0,0,0,0,0,0,0,0,0,106,0.513,0.708,0.269,24,44,17,0021300701,1610612739,CLE,Cleveland,Kyrie Irving,G,,38:50,6.0,0.0,4.0,4.0,13.0,6.0,18.0,48.0,0.0,2.0,4.0,3.0
0021300701,1610612739,CLE,Cleveland,203079,Dion Waiters,,,26:11,90.9,102.6,-11.7,0.286,1.0,17.8,0.0,0.1,0.047,17.8,0.643,0.658,0.296,103.5,0.151,2014-02-01T00:00:00,5,1610612739,CLE,Cleveland,16-31,23,29,21,19,0,0,0,0,0,0,0,0,0,0,92,0.437,0.8,0.267,23,32,16,0021300701,1610612739,CLE,Cleveland,Dion Waiters,,,26:11,8.0,5.0,2.0,4.0,10.0,2.0,21.0,30.0,0.0,1.0,2.0,2.0
0021300701,1610612739,CLE,Cleveland,203079,Dion Waiters,,,26:11,90.9,102.6,-11.7,0.286,1.0,17.8,0.0,0.1,0.047,17.8,0.643,0.658,0.296,103.5,0.151,2014-02-01T00:00:00,5,1610612745,HOU,Houston,32-17,31,30,23,22,0,0,0,0,0,0,0,0,0,0,106,0.513,0.708,0.269,24,44,17,0021300701,1610612739,CLE,Cleveland,Dion Waiters,,,26:11,8.0,5.0,2.0,4.0,10.0,2.0,21.0,30.0,0.0,1.0,2.0,2.0
0021300701,1610612739,CLE,Cleveland,203156,Henry Sims,,,20:36,69.3,104.0,-34.7,0.0,0.0,0.0,0.042,0.263,0.14,11.3,0.429,0.444,0.177,104.25,0.108,2014-02-01T00:00:00,5,1610612739,CLE,Cleveland,16-31,23,29,21,19,0,0,0,0,0,0,0,0,0,0,92,0.437,0.8,0.267,23,32,16,0021300701,1610612739,CLE,Cleveland,Henry Sims,,,20:36,0.0,2.0,0.0,4.0,10.0,2.0,25.0,28.0,2.0,2.0,2.0,1.0
0021300701,1610612739,CLE,Cleveland,203156,Henry Sims,,,20:36,69.3,104.0,-34.7,0.0,0.0,0.0,0.042,0.263,0.14,11.3,0.429,0.444,0.177,104.25,0.108,2014-02-01T00:00:00,5,1610612745,HOU,Houston,32-17,31,30,23,22,0,0,0,0,0,0,0,0,0,0,106,0.513,0.708,0.269,24,44,17,0021300701,1610612739,CLE,Cleveland,Henry Sims,,,20:36,0.0,2.0,0.0,4.0,10.0,2.0,25.0,28.0,2.0,2.0,2.0,1.0
0021300701,1610612739,CLE,Cleveland,203461,Anthony Bennett,,,12:41,75.0,102.5,-27.5,0.0,0.0,0.0,0.0,0.308,0.154,40.0,0.333,0.333,0.16,108.99,-0.048,2014-02-01T00:00:00,5,1610612739,CLE,Cleveland,16-31,23,29,21,19,0,0,0,0,0,0,0,0,0,0,92,0.437,0.8,0.267,23,32,16,0021300701,1610612739,CLE,Cleveland,Anthony Bennett,,,12:41,0.0,2.0,0.0,2.0,6.0,2.0,11.0,12.0,1.0,0.0,4.0,0.0
0021300701,1610612739,CLE,Cleveland,203461,Anthony Bennett,,,12:41,75.0,102.5,-27.5,0.0,0.0,0.0,0.0,0.308,0.154,40.0,0.333,0.333,0.16,108.99,-0.048,2014-02-01T00:00:00,5,1610612745,HOU,Houston,32-17,31,30,23,22,0,0,0,0,0,0,0,0,0,0,106,0.513,0.708,0.269,24,44,17,0021300701,1610612739,CLE,Cleveland,Anthony Bennett,,,12:41,0.0,2.0,0.0,2.0,6.0,2.0,11.0,12.0,1.0,0.0,4.0,0.0
0021300701,1610612739,CLE,Cleveland,101139,CJ Miles,,,10:56,67.1,101.0,-33.9,0.0,0.0,0.0,0.0,0.091,0.043,14.3,0.167,0.167,0.266,107.74,-0.172,2014-02-01T00:00:00,5,1610612739,CLE,Cleveland,16-31,23,29,21,19,0,0,0,0,0,0,0,0,0,0,92,0.437,0.8,0.267,23,32,16,0021300701,1610612739,CLE,Cleveland,CJ Miles,,,10:56,0.0,0.0,0.0,0.0,5.0,2.0,11.0,14.0,0.0,0.0,2.0,1.0
0021300701,1610612739,CLE,Cleveland,101139,CJ Miles,,,10:56,67.1,101.0,-33.9,0.0,0.0,0.0,0.0,0.091,0.043,14.3,0.167,0.167,0.266,107.74,-0.172,2014-02-01T00:00:00,5,1610612745,HOU,Houston,32-17,31,30,23,22,0,0,0,0,0,0,0,0,0,0,106,0.513,0.708,0.269,24,44,17,0021300701,1610612739,CLE,Cleveland,CJ Miles,,,10:56,0.0,0.0,0.0,0.0,5.0,2.0,11.0,14.0,0.0,0.0,2.0,1.0
0021300701,1610612739,CLE,Cleveland,203521,Matthew Dellavedova,,,1:00,100.0,181.2,-81.2,1.0,0.0,50.0,1.0,0.0,1.0,0.0,0.0,0.0,0.333,114.24,0.111,2014-02-01T00:00:00,5,1610612739,CLE,Cleveland,16-31,23,29,21,19,0,0,0,0,0,0,0,0,0,0,92,0.437,0.8,0.267,23,32,16,0021300701,1610612739,CLE,Cleveland,Matthew Dellavedova,,,1:00,0.0,0.0,0.0,0.0,3.0,0.0,2.0,2.0,0.0,0.0,0.0,0.0
0021300701,1610612739,CLE,Cleveland,203521,Matthew Dellavedova,,,1:00,100.0,181.2,-81.2,1.0,0.0,50.0,1.0,0.0,1.0,0.0,0.0,0.0,0.333,114.24,0.111,2014-02-01T00:00:00,5,1610612745,HOU,Houston,32-17,31,30,23,22,0,0,0,0,0,0,0,0,0,0,106,0.513,0.708,0.269,24,44,17,0021300701,1610612739,CLE,Cleveland,Matthew Dellavedova,,,1:00,0.0,0.0,0.0,0.0,3.0,0.0,2.0,2.0,0.0,0.0,0.0,0.0
0021300701,1610612739,CLE,Cleveland,201947,Earl Clark,,DNP - Coach's Decision,,,,,,,0.0,,,,,,,0.0,,,2014-02-01T00:00:00,5,1610612739,CLE,Cleveland,16-31,23,29,21,19,0,0,0,0,0,0,0,0,0,0,92,0.437,0.8,0.267,23,32,16,0021300701,1610612739,CLE,Cleveland,Earl Clark,,DNP - Coach's Decision,,,,,,,,,,,,,
0021300701,1610612739,CLE,Cleveland,201947,Earl Clark,,DNP - Coach's Decision,,,,,,,0.0,,,,,,,0.0,,,2014-02-01T00:00:00,5,1610612745,HOU,Houston,32-17,31,30,23,22,0,0,0,0,0,0,0,0,0,0,106,0.513,0.708,0.269,24,44,17,0021300701,1610612739,CLE,Cleveland,Earl Clark,,DNP - Coach's Decision,,,,,,,,,,,,,
0021300701,1610612739,CLE,Cleveland,202087,Alonzo Gee,,DNP - Coach's Decision,,,,,,,0.0,,,,,,,0.0,,,2014-02-01T00:00:00,5,1610612739,CLE,Cleveland,16-31,23,29,21,19,0,0,0,0,0,0,0,0,0,0,92,0.437,0.8,0.267,23,32,16,0021300701,1610612739,CLE,Cleveland,Alonzo Gee,,DNP - Coach's Decision,,,,,,,,,,,,,
0021300701,1610612739,CLE,Cleveland,202087,Alonzo Gee,,DNP - Coach's Decision,,,,,,,0.0,,,,,,,0.0,,,2014-02-01T00:00:00,5,1610612745,HOU,Houston,32-17,31,30,23,22,0,0,0,0,0,0,0,0,0,0,106,0.513,0.708,0.269,24,44,17,0021300701,1610612739,CLE,Cleveland,Alonzo Gee,,DNP - Coach's Decision,,,,,,,,,,,,,
0021300701,1610612739,CLE,Cleveland,2760,Anderson Varejao,,DND - Left Knee Contusion and Hyperexten,,,,,,,0.0,,,,,,,0.0,,,2014-02-01T00:00:00,5,1610612739,CLE,Cleveland,16-31,23,29,21,19,0,0,0,0,0,0,0,0,0,0,92,0.437,0.8,0.267,23,32,16,0021300701,1610612739,CLE,Cleveland,Anderson Varejao,,DND - Left Knee Contusion and Hyperexten,,,,,,,,,,,,,
0021300701,1610612739,CLE,Cleveland,2760,Anderson Varejao,,DND - Left Knee Contusion and Hyperexten,,,,,,,0.0,,,,,,,0.0,,,2014-02-01T00:00:00,5,1610612745,HOU,Houston,32-17,31,30,23,22,0,0,0,0,0,0,0,0,0,0,106,0.513,0.708,0.269,24,44,17,0021300701,1610612739,CLE,Cleveland,Anderson Varejao,,DND - Left Knee Contusion and Hyperexten,,,,,,,,,,,,,
0021300701,1610612745,HOU,Houston,202718,Chandler Parsons,F,,19:22,110.9,120.7,-9.8,0.0,0.0,0.0,0.0,0.0,0.0,22.2,0.5,0.5,0.216,97.31,0.011,2014-02-01T00:00:00,5,1610612739,CLE,Cleveland,16-31,23,29,21,19,0,0,0,0,0,0,0,0,0,0,92,0.437,0.8,0.267,23,32,16,0021300701,1610612745,HOU,Houston,Chandler Parsons,F,,19:22,0.0,0.0,0.0,2.0,17.0,7.0,8.0,16.0,0.0,0.0,0.0,0.0
0021300701,1610612745,HOU,Houston,202718,Chandler Parsons,F,,19:22,110.9,120.7,-9.8,0.0,0.0,0.0,0.0,0.0,0.0,22.2,0.5,0.5,0.216,97.31,0.011,2014-02-01T00:00:00,5,1610612745,HOU,Houston,32-17,31,30,23,22,0,0,0,0,0,0,0,0,0,0,106,0.513,0.708,0.269,24,44,17,0021300701,1610612745,HOU,Houston,Chandler Parsons,F,,19:22,0.0,0.0,0.0,2.0,17.0,7.0,8.0,16.0,0.0,0.0,0.0,0.0
0021300701,1610612745,HOU,Houston,203093,Terrence Jones,F,,34:53,106.3,89.4,16.9,0.0,0.0,0.0,0.034,0.194,0.117,0.0,0.607,0.571,0.183,100.74,0.136,2014-02-01T00:00:00,5,1610612739,CLE,Cleveland,16-31,23,29,21,19,0,0,0,0,0,0,0,0,0,0,92,0.437,0.8,0.267,23,32,16,0021300701,1610612745,HOU,Houston,Terrence Jones,F,,34:53,0.0,4.0,2.0,12.0,14.0,10.0,8.0,24.0,1.0,2.0,0.0,1.0
0021300701,1610612745,HOU,Houston,203093,Terrence Jones,F,,34:53,106.3,89.4,16.9,0.0,0.0,0.0,0.034,0.194,0.117,0.0,0.607,0.571,0.183,100.74,0.136,2014-02-01T00:00:00,5,1610612745,HOU,Houston,32-17,31,30,23,22,0,0,0,0,0,0,0,0,0,0,106,0.513,0.708,0.269,24,44,17,0021300701,1610612745,HOU,Houston,Terrence Jones,F,,34:53,0.0,4.0,2.0,12.0,14.0,10.0,8.0,24.0,1.0,2.0,0.0,1.0
0021300701,1610612745,HOU,Houston,2730,Dwight Howard,C,,35:48,109.7,102.7,7.0,0.048,0.25,4.9,0.04,0.172,0.111,19.5,0.833,0.838,0.256,94.69,0.179,2014-02-01T00:00:00,5,1610612739,CLE,Cleveland,16-31,23,29,21,19,0,0,0,0,0,0,0,0,0,0,92,0.437,0.8,0.267,23,32,16,0021300701,1610612745,HOU,Houston,Dwight Howard,C,,35:48,4.0,2.0,4.0,20.0,21.0,9.0,8.0,24.0,3.0,0.0,2.0,7.0
0021300701,1610612745,HOU,Houston,2730,Dwight Howard,C,,35:48,109.7,102.7,7.0,0.048,0.25,4.9,0.04,0.172,0.111,19.5,0.833,0.838,0.256,94.69,0.179,2014-02-01T00:00:00,5,1610612745,HOU,Houston,32-17,31,30,23,22,0,0,0,0,0,0,0,0,0,0,106,0.513,0.708,0.269,24,44,17,0021300701,1610612745,HOU,Houston,Dwight Howard,C,,35:48,4.0,2.0,4.0,20.0,21.0,9.0,8.0,24.0,3.0,0.0,2.0,7.0
0021300701,1610612745,HOU,Houston,201935,James Harden,G,,36:38,109.5,99.9,9.6,0.182,1.33,15.0,0.036,0.067,0.052,11.3,0.676,0.713,0.282,95.15,0.152,2014-02-01T00:00:00,5,1610612739,CLE,Cleveland,16-31,23,29,21,19,0,0,0,0,0,0,0,0,0,0,92,0.437,0.8,0.267,23,32,16,0021300701,1610612745,HOU,Houston,James Harden,G,,36:38,7.0,2.0,12.0,12.0,21.0,9.0,8.0,24.0,0.0,0.0,2.0,5.0
0021300701,1610612745,HOU,Houston,201935,James Harden,G,,36:38,109.5,99.9,9.6,0.182,1.33,15.0,0.036,0.067,0.052,11.3,0.676,0.713,0.282,95.15,0.152,2014-02-01T00:00:00,5,1610612745,HOU,Houston,32-17,31,30,23,22,0,0,0,0,0,0,0,0,0,0,106,0.513,0.708,0.269,24,44,17,0021300701,1610612745,HOU,Houston,James Harden,G,,36:38,7.0,2.0,12.0,12.0,21.0,9.0,8.0,24.0,0.0,0.0,2.0,5.0
0021300701,1610612745,HOU,Houston,201976,Patrick Beverley,G,,40:54,107.6,87.7,19.9,0.229,4.0,53.3,0.111,0.2,0.161,13.3,0.0,0.0,0.076,99.29,0.095,2014-02-01T00:00:00,5,1610612739,CLE,Cleveland,16-31,23,29,21,19,0,0,0,0,0,0,0,0,0,0,92,0.437,0.8,0.267,23,32,16,0021300701,1610612745,HOU,Houston,Patrick Beverley,G,,40:54,0.0,0.0,0.0,0.0,21.0,11.0,10.0,30.0,1.0,0.0,2.0,0.0
0021300701,1610612745,HOU,Houston,201976,Patrick Beverley,G,,40:54,107.6,87.7,19.9,0.229,4.0,53.3,0.111,0.2,0.161,13.3,0.0,0.0,0.076,99.29,0.095,2014-02-01T00:00:00,5,1610612745,HOU,Houston,32-17,31,30,23,22,0,0,0,0,0,0,0,0,0,0,106,0.513,0.708,0.269,24,44,17,0021300701,1610612745,HOU,Houston,Patrick Beverley,G,,40:54,0.0,0.0,0.0,0.0,21.0,11.0,10.0,30.0,1.0,0.0,2.0,0.0
0021300701,1610612745,HOU,Houston,202391,Jeremy Lin,,,29:11,116.8,81.6,35.2,0.526,3.33,38.6,0.053,0.345,0.229,11.6,0.542,0.582,0.245,100.69,0.278,2014-02-01T00:00:00,5,1610612739,CLE,Cleveland,16-31,23,29,21,19,0,0,0,0,0,0,0,0,0,0,92,0.437,0.8,0.267,23,32,16,0021300701,1610612745,HOU,Houston,Jeremy Lin,,,29:11,4.0,0.0,6.0,10.0,8.0,8.0,2.0,18.0,1.0,1.0,3.0,3.0
0021300701,1610612745,HOU,Houston,202391,Jeremy Lin,,,29:11,116.8,81.6,35.2,0.526,3.33,38.6,0.053,0.345,0.229,11.6,0.542,0.582,0.245,100.69,0.278,2014-02-01T00:00:00,5,1610612745,HOU,Houston,32-17,31,30,23,22,0,0,0,0,0,0,0,0,0,0,106,0.513,0.708,0.269,24,44,17,0021300701,1610612745,HOU,Houston,Jeremy Lin,,,29:11,4.0,0.0,6.0,10.0,8.0,8.0,2.0,18.0,1.0,1.0,3.0,3.0
0021300701,1610612745,HOU,Houston,201956,Omri Casspi,,,17:55,94.3,71.9,22.4,0.0,0.0,0.0,0.056,0.111,0.083,18.8,0.417,0.521,0.241,105.13,0.06,2014-02-01T00:00:00,5,1610612739,CLE,Cleveland,16-31,23,29,21,19,0,0,0,0,0,0,0,0,0,0,92,0.437,0.8,0.267,23,32,16,0021300701,1610612745,HOU,Houston,Omri Casspi,,,17:55,4.0,0.0,5.0,2.0,5.0,4.0,2.0,8.0,0.0,0.0,1.0,5.0
0021300701,1610612745,HOU,Houston,201956,Omri Casspi,,,17:55,94.3,71.9,22.4,0.0,0.0,0.0,0.056,0.111,0.083,18.8,0.417,0.521,0.241,105.13,0.06,2014-02-01T00:00:00,5,1610612745,HOU,Houston,32-17,31,30,23,22,0,0,0,0,0,0,0,0,0,0,106,0.513,0.708,0.269,24,44,17,0021300701,1610612745,HOU,Houston,Omri Casspi,,,17:55,4.0,0.0,5.0,2.0,5.0,4.0,2.0,8.0,0.0,0.0,1.0,5.0
0021300701,1610612745,HOU,Houston,202700,Donatas Motiejunas,,,25:19,110.3,80.4,30.0,0.053,1.0,11.1,0.125,0.091,0.105,11.1,0.286,0.286,0.139,102.61,0.006,2014-02-01T00:00:00,5,1610612739,CLE,Cleveland,16-31,23,29,21,19,0,0,0,0,0,0,0,0,0,0,92,0.437,0.8,0.267,23,32,16,0021300701,1610612745,HOU,Houston,Donatas Motiejunas,,,25:19,0.0,0.0,0.0,4.0,13.0,7.0,4.0,16.0,1.0,1.0,2.0,3.0
0021300701,1610612745,HOU,Houston,202700,Donatas Motiejunas,,,25:19,110.3,80.4,30.0,0.053,1.0,11.1,0.125,0.091,0.105,11.1,0.286,0.286,0.139,102.61,0.006,2014-02-01T00:00:00,5,1610612745,HOU,Houston,32-17,31,30,23,22,0,0,0,0,0,0,0,0,0,0,106,0.513,0.708,0.269,24,44,17,0021300701,1610612745,HOU,Houston,Donatas Motiejunas,,,25:19,0.0,0.0,0.0,4.0,13.0,7.0,4.0,16.0,1.0,1.0,2.0,3.0
0021300701,1610612745,HOU,Houston,200758,Ronnie Brewer,,DNP - Coach's Decision,,,,,,,0.0,,,,,,,0.0,,,2014-02-01T00:00:00,5,1610612739,CLE,Cleveland,16-31,23,29,21,19,0,0,0,0,0,0,0,0,0,0,92,0.437,0.8,0.267,23,32,16,0021300701,1610612745,HOU,Houston,Ronnie Brewer,,DNP - Coach's Decision,,,,,,,,,,,,,
0021300701,1610612745,HOU,Houston,200758,Ronnie Brewer,,DNP - Coach's Decision,,,,,,,0.0,,,,,,,0.0,,,2014-02-01T00:00:00,5,1610612745,HOU,Houston,32-17,31,30,23,22,0,0,0,0,0,0,0,0,0,0,106,0.513,0.708,0.269,24,44,17,0021300701,1610612745,HOU,Houston,Ronnie Brewer,,DNP - Coach's Decision,,,,,,,,,,,,,
0021300701,1610612745,HOU,Houston,201166,Aaron Brooks,,DNP - Coach's Decision,,,,,,,0.0,,,,,,,0.0,,,2014-02-01T00:00:00,5,1610612739,CLE,Cleveland,16-31,23,29,21,19,0,0,0,0,0,0,0,0,0,0,92,0.437,0.8,0.267,23,32,16,0021300701,1610612745,HOU,Houston,Aaron Brooks,,DNP - Coach's Decision,,,,,,,,,,,,,
0021300701,1610612745,HOU,Houston,201166,Aaron Brooks,,DNP - Coach's Decision,,,,,,,0.0,,,,,,,0.0,,,2014-02-01T00:00:00,5,1610612745,HOU,Houston,32-17,31,30,23,22,0,0,0,0,0,0,0,0,0,0,106,0.513,0.708,0.269,24,44,17,0021300701,1610612745,HOU,Houston,Aaron Brooks,,DNP - Coach's Decision,,,,,,,,,,,,,
0021300701,1610612745,HOU,Houston,203496,Robert Covington,,DNP - Coach's Decision,,,,,,,0.0,,,,,,,0.0,,,2014-02-01T00:00:00,5,1610612739,CLE,Cleveland,16-31,23,29,21,19,0,0,0,0,0,0,0,0,0,0,92,0.437,0.8,0.267,23,32,16,0021300701,1610612745,HOU,Houston,Robert Covington,,DNP - Coach's Decision,,,,,,,,,,,,,
0021300701,1610612745,HOU,Houston,203496,Robert Covington,,DNP - Coach's Decision,,,,,,,0.0,,,,,,,0.0,,,2014-02-01T00:00:00,5,1610612745,HOU,Houston,32-17,31,30,23,22,0,0,0,0,0,0,0,0,0,0,106,0.513,0.708,0.269,24,44,17,0021300701,1610612745,HOU,Houston,Robert Covington,,DNP - Coach's Decision,,,,,,,,,,,,,
0021300701,1610612745,HOU,Houston,101128,Francisco Garcia,,DND - Sore Left Knee,,,,,,,0.0,,,,,,,0.0,,,2014-02-01T00:00:00,5,1610612739,CLE,Cleveland,16-31,23,29,21,19,0,0,0,0,0,0,0,0,0,0,92,0.437,0.8,0.267,23,32,16,0021300701,1610612745,HOU,Houston,Francisco Garcia,,DND - Sore Left Knee,,,,,,,,,,,,,
0021300701,1610612745,HOU,Houston,101128,Francisco Garcia,,DND - Sore Left Knee,,,,,,,0.0,,,,,,,0.0,,,2014-02-01T00:00:00,5,1610612745,HOU,Houston,32-17,31,30,23,22,0,0,0,0,0,0,0,0,0,0,106,0.513,0.708,0.269,24,44,17,0021300701,1610612745,HOU,Houston,Francisco Garcia,,DND - Sore Left Knee,,,,,,,,,,,,,
0021300701,1610612745,HOU,Houston,202962,Greg Smith,,DND - Sore Right Knee,,,,,,,0.0,,,,,,,0.0,,,2014-02-01T00:00:00,5,1610612739,CLE,Cleveland,16-31,23,29,21,19,0,0,0,0,0,0,0,0,0,0,92,0.437,0.8,0.267,23,32,16,0021300701,1610612745,HOU,Houston,Greg Smith,,DND - Sore Right Knee,,,,,,,,,,,,,
0021300701,1610612745,HOU,Houston,202962,Greg Smith,,DND - Sore Right Knee,,,,,,,0.0,,,,,,,0.0,,,2014-02-01T00:00:00,5,1610612745,HOU,Houston,32-17,31,30,23,22,0,0,0,0,0,0,0,0,0,0,106,0.513,0.708,0.269,24,44,17,0021300701,1610612745,HOU,Houston,Greg Smith,,DND - Sore Right Knee,,,,,,,,,,,,,
