GAME_ID_x,TEAM_ID_x,TEAM_ABBREVIATION_x,TEAM_CITY_x,PLAYER_ID,PLAYER_NAME_x,START_POSITION_x,COMMENT_x,MIN_x,OFF_RATING,DEF_RATING,NET_RATING,AST_PCT,AST_TOV,AST_RATIO,OREB_PCT,DREB_PCT,REB_PCT,TM_TOV_PCT,EFG_PCT,TS_PCT,USG_PCT,PACE,PIE,GAME_DATE_EST,GAME_SEQUENCE,TEAM_ID_y,TEAM_ABBREVIATION_y,TEAM_CITY_NAME,TEAM_WINS_LOSSES,PTS_QTR1,PTS_QTR2,PTS_QTR3,PTS_QTR4,PTS_OT1,PTS_OT2,PTS_OT3,PTS_OT4,PTS_OT5,PTS_OT6,PTS_OT7,PTS_OT8,PTS_OT9,PTS_OT10,PTS,FG_PCT,FT_PCT,FG3_PCT,AST,REB,TOV,GAME_ID_y,TEAM_ID,TEAM_ABBREVIATION,TEAM_CITY_y,PLAYER_NAME_y,START_POSITION_y,COMMENT_y,MIN_y,PTS_OFF_TOV,PTS_2ND_CHANCE,PTS_FB,PTS_PAINT,OPP_PTS_OFF_TOV,OPP_PTS_2ND_CHANCE,OPP_PTS_FB,OPP_PTS_PAINT,BLK,BLKA,PF,PFD
0021400151,1610612745,HOU,Houston,2772,Trevor Ariza,F,,32:21,91.6,124.2,-32.6,0.235,2.0,18.1,0.042,0.083,0.062,9.1,0.346,0.498,0.248,100.04,0.084,2014-11-17T00:00:00,6,1610612745,HOU,Houston,9-2,18,24,24,27,0,0,0,0,0,0,0,0,0,0,93,0.436,0.81,0.235,24,35,21,0021400151,1610612745,HOU,Houston,Trevor Ariza,F,,32:21,0.0,0.0,3.0,6.0,17.0,12.0,19.0,44.0,0.0,0.0,2.0,4.0
0021400151,1610612745,HOU,Houston,2772,Trevor Ariza,F,,32:21,91.6,124.2,-32.6,0.235,2.0,18.1,0.042,0.083,0.062,9.1,0.346,0.498,0.248,100.04,0.084,2014-11-17T00:00:00,6,1610612763,MEM,Memphis,10-1,34,31,32,22,0,0,0,0,0,0,0,0,0,0,119,0.535,0.909,0.412,27,38,10,0021400151,1610612745,HOU,Houston,Trevor Ariza,F,,32:21,0.0,0.0,3.0,6.0,17.0,12.0,19.0,44.0,0.0,0.0,2.0,4.0
0021400151,1610612745,HOU,Houston,202700,Donatas Motiejunas,F,,17:34,101.6,118.1,-16.5,0.0,0.0,0.0,0.083,0.067,0.074,20.0,0.375,0.375,0.242,97.38,-0.029,2014-11-17T00:00:00,6,1610612745,HOU,Houston,9-2,18,24,24,27,0,0,0,0,0,0,0,0,0,0,93,0.436,0.81,0.235,24,35,21,0021400151,1610612745,HOU,Houston,Donatas Motiejunas,F,,17:34,0.0,2.0,0.0,6.0,11.0,6.0,8.0,30.0,1.0,0.0,3.0,1.0
0021400151,1610612745,HOU,Houston,202700,Donatas Motiejunas,F,,17:34,101.6,118.1,-16.5,0.0,0.0,0.0,0.083,0.067,0.074,20.0,0.375,0.375,0.242,97.38,-0.029,2014-11-17T00:00:00,6,1610612763,MEM,Memphis,10-1,34,31,32,22,0,0,0,0,0,0,0,0,0,0,119,0.535,0.909,0.412,27,38,10,0021400151,1610612745,HOU,Houston,Donatas Motiejunas,F,,17:34,0.0,2.0,0.0,6.0,11.0,6.0,8.0,30.0,1.0,0.0,3.0,1.0
0021400151,1610612745,HOU,Houston,2730,Dwight Howard,C,,28:26,82.5,130.4,-47.9,0.182,0.5,10.7,0.04,0.381,0.196,21.3,0.545,0.588,0.255,100.99,0.128,2014-11-17T00:00:00,6,1610612745,HOU,Houston,9-2,18,24,24,27,0,0,0,0,0,0,0,0,0,0,93,0.436,0.81,0.235,24,35,21,0021400151,1610612745,HOU,Houston,Dwight Howard,C,,28:26,0.0,2.0,0.0,12.0,18.0,11.0,18.0,38.0,0.0,2.0,1.0,4.0
0021400151,1610612745,HOU,Houston,2730,Dwight Howard,C,,28:26,82.5,130.4,-47.9,0.182,0.5,10.7,0.04,0.381,0.196,21.3,0.545,0.588,0.255,100.99,0.128,2014-11-17T00:00:00,6,1610612763,MEM,Memphis,10-1,34,31,32,22,0,0,0,0,0,0,0,0,0,0,119,0.535,0.909,0.412,27,38,10,0021400151,1610612745,HOU,Houston,Dwight Howard,C,,28:26,0.0,2.0,0.0,12.0,18.0,11.0,18.0,38.0,0.0,2.0,1.0,4.0
0021400151,1610612745,HOU,Houston,201935,James Harden,G,,33:32,86.7,133.1,-46.4,0.211,1.33,23.3,0.036,0.167,0.096,17.4,0.125,0.294,0.173,98.74,0.015,2014-11-17T00:00:00,6,1610612745,HOU,Houston,9-2,18,24,24,27,0,0,0,0,0,0,0,0,0,0,93,0.436,0.81,0.235,24,35,21,0021400151,1610612745,HOU,Houston,James Harden,G,,33:32,2.0,0.0,2.0,2.0,26.0,15.0,24.0,44.0,1.0,2.0,4.0,6.0
0021400151,1610612745,HOU,Houston,201935,James Harden,G,,33:32,86.7,133.1,-46.4,0.211,1.33,23.3,0.036,0.167,0.096,17.4,0.125,0.294,0.173,98.74,0.015,2014-11-17T00:00:00,6,1610612763,MEM,Memphis,10-1,34,31,32,22,0,0,0,0,0,0,0,0,0,0,119,0.535,0.909,0.412,27,38,10,0021400151,1610612745,HOU,Houston,James Harden,G,,33:32,2.0,0.0,2.0,2.0,26.0,15.0,24.0,44.0,1.0,2.0,4.0,6.0
0021400151,1610612745,HOU,Houston,201976,Patrick Beverley,G,,22:23,89.2,110.4,-21.2,0.273,0.0,37.5,0.0,0.111,0.059,0.0,1.0,1.0,0.106,97.83,0.151,2014-11-17T00:00:00,6,1610612745,HOU,Houston,9-2,18,24,24,27,0,0,0,0,0,0,0,0,0,0,93,0.436,0.81,0.235,24,35,21,0021400151,1610612745,HOU,Houston,Patrick Beverley,G,,22:23,3.0,0.0,0.0,4.0,9.0,6.0,10.0,30.0,0.0,0.0,3.0,1.0
0021400151,1610612745,HOU,Houston,201976,Patrick Beverley,G,,22:23,89.2,110.4,-21.2,0.273,0.0,37.5,0.0,0.111,0.059,0.0,1.0,1.0,0.106,97.83,0.151,2014-11-17T00:00:00,6,1610612763,MEM,Memphis,10-1,34,31,32,22,0,0,0,0,0,0,0,0,0,0,119,0.535,0.909,0.412,27,38,10,0021400151,1610612745,HOU,Houston,Patrick Beverley,G,,22:23,3.0,0.0,0.0,4.0,9.0,6.0,10.0,30.0,0.0,0.0,3.0,1.0
0021400151,1610612745,HOU,Houston,1891,Jason Terry,,,17:35,82.6,160.5,-77.8,0.286,0.67,17.7,0.0,0.0,0.0,26.5,0.6,0.633,0.213,101.33,0.05,2014-11-17T00:00:00,6,1610612745,HOU,Houston,9-2,18,24,24,27,0,0,0,0,0,0,0,0,0,0,93,0.436,0.81,0.235,24,35,21,0021400151,1610612745,HOU,Houston,Jason Terry,,,17:35,0.0,6.0,2.0,0.0,17.0,11.0,16.0,22.0,0.0,0.0,0.0,0.0
0021400151,1610612745,HOU,Houston,1891,Jason Terry,,,17:35,82.6,160.5,-77.8,0.286,0.67,17.7,0.0,0.0,0.0,26.5,0.6,0.633,0.213,101.33,0.05,2014-11-17T00:00:00,6,1610612763,MEM,Memphis,10-1,34,31,32,22,0,0,0,0,0,0,0,0,0,0,119,0.535,0.909,0.412,27,38,10,0021400151,1610612745,HOU,Houston,Jason Terry,,,17:35,0.0,6.0,2.0,0.0,17.0,11.0,16.0,22.0,0.0,0.0,0.0,0.0
0021400151,1610612745,HOU,Houston,203123,Kostas Papanikolaou,,,23:39,89.1,123.5,-34.4,0.385,1.25,31.3,0.056,0.188,0.118,25.0,0.571,0.571,0.212,93.2,0.117,2014-11-17T00:00:00,6,1610612745,HOU,Houston,9-2,18,24,24,27,0,0,0,0,0,0,0,0,0,0,93,0.436,0.81,0.235,24,35,21,0021400151,1610612745,HOU,Houston,Kostas Papanikolaou,,,23:39,2.0,0.0,2.0,6.0,22.0,9.0,14.0,32.0,2.0,0.0,0.0,1.0
0021400151,1610612745,HOU,Houston,203123,Kostas Papanikolaou,,,23:39,89.1,123.5,-34.4,0.385,1.25,31.3,0.056,0.188,0.118,25.0,0.571,0.571,0.212,93.2,0.117,2014-11-17T00:00:00,6,1610612763,MEM,Memphis,10-1,34,31,32,22,0,0,0,0,0,0,0,0,0,0,119,0.535,0.909,0.412,27,38,10,0021400151,1610612745,HOU,Houston,Kostas Papanikolaou,,,23:39,2.0,0.0,2.0,6.0,22.0,9.0,14.0,32.0,2.0,0.0,0.0,1.0
0021400151,1610612745,HOU,Houston,204028,Tarik Black,,,20:14,106.1,135.3,-29.2,0.0,0.0,0.0,0.333,0.231,0.28,15.5,0.8,0.735,0.148,94.07,0.098,2014-11-17T00:00:00,6,1610612745,HOU,Houston,9-2,18,24,24,27,0,0,0,0,0,0,0,0,0,0,93,0.436,0.81,0.235,24,35,21,0021400151,1610612745,HOU,Houston,Tarik Black,,,20:14,2.0,2.0,0.0,8.0,22.0,11.0,14.0,28.0,0.0,0.0,1.0,1.0
0021400151,1610612745,HOU,Houston,204028,Tarik Black,,,20:14,106.1,135.3,-29.2,0.0,0.0,0.0,0.333,0.231,0.28,15.5,0.8,0.735,0.148,94.07,0.098,2014-11-17T00:00:00,6,1610612763,MEM,Memphis,10-1,34,31,32,22,0,0,0,0,0,0,0,0,0,0,119,0.535,0.909,0.412,27,38,10,0021400151,1610612745,HOU,Houston,Tarik Black,,,20:14,2.0,2.0,0.0,8.0,22.0,11.0,14.0,28.0,0.0,0.0,1.0,1.0
0021400151,1610612745,HOU,Houston,101128,Francisco Garcia,,,1:24,67.6,66.7,0.9,0.0,0.0,0.0,0.0,0.0,0.0,0.0,0.0,0.0,0.0,127.54,0.0,2014-11-17T00:00:00,6,1610612745,HOU,Houston,9-2,18,24,24,27,0,0,0,0,0,0,0,0,0,0,93,0.436,0.81,0.235,24,35,21,0021400151,1610612745,HOU,Houston,Francisco Garcia,,,1:24,0.0,0.0,0.0,0.0,0.0,0.0,0.0,2.0,0.0,0.0,0.0,0.0
0021400151,1610612745,HOU,Houston,101128,Francisco Garcia,,,1:24,67.6,66.7,0.9,0.0,0.0,0.0,0.0,0.0,0.0,0.0,0.0,0.0,0.0,127.54,0.0,2014-11-17T00:00:00,6,1610612763,MEM,Memphis,10-1,34,31,32,22,0,0,0,0,0,0,0,0,0,0,119,0.535,0.909,0.412,27,38,10,0021400151,1610612745,HOU,Houston,Francisco Garcia,,,1:24,0.0,0.0,0.0,0.0,0.0,0.0,0.0,2.0,0.0,0.0,0.0,0.0
0021400151,1610612745,HOU,Houston,203477,Isaiah Canaan,,,20:52,113.2,109.1,4.1,0.188,3.0,22.3,0.0,0.0,0.0,7.4,0.389,0.424,0.22,96.21,0.034,2014-11-17T00:00:00,6,1610612745,HOU,Houston,9-2,18,24,24,27,0,0,0,0,0,0,0,0,0,0,93,0.436,0.81,0.235,24,35,21,0021400151,1610612745,HOU,Houston,Isaiah Canaan,,,20:52,2.0,0.0,2.0,4.0,5.0,6.0,8.0,24.0,0.0,1.0,2.0,1.0
0021400151,1610612745,HOU,Houston,203477,Isaiah Canaan,,,20:52,113.2,109.1,4.1,0.188,3.0,22.3,0.0,0.0,0.0,7.4,0.389,0.424,0.22,96.21,0.034,2014-11-17T00:00:00,6,1610612763,MEM,Memphis,10-1,34,31,32,22,0,0,0,0,0,0,0,0,0,0,119,0.535,0.909,0.412,27,38,10,0021400151,1610612745,HOU,Houston,Isaiah Canaan,,,20:52,2.0,0.0,2.0,4.0,5.0,6.0,8.0,24.0,0.0,1.0,2.0,1.0
0021400151,1610612745,HOU,Houston,203584,Troy Daniels,,,12:00,120.3,93.1,27.3,0.0,0.0,0.0,0.0,0.0,0.0,0.0,0.5,0.5,0.227,92.16,0.0,2014-11-17T00:00:00,6,1610612745,HOU,Houston,9-2,18,24,24,27,0,0,0,0,0,0,0,0,0,0,93,0.436,0.81,0.235,24,35,21,0021400151,1610612745,HOU,Houston,Troy Daniels,,,12:00,0.0,0.0,0.0,0.0,5.0,4.0,3.0,16.0,0.0,0.0,2.0,0.0
0021400151,1610612745,HOU,Houston,203584,Troy Daniels,,,12:00,120.3,93.1,27.3,0.0,0.0,0.0,0.0,0.0,0.0,0.0,0.5,0.5,0.227,92.16,0.0,2014-11-17T00:00:00,6,1610612763,MEM,Memphis,10-1,34,31,32,22,0,0,0,0,0,0,0,0,0,0,119,0.535,0.909,0.412,27,38,10,0021400151,1610612745,HOU,Houston,Troy Daniels,,,12:00,0.0,0.0,0.0,0.0,5.0,4.0,3.0,16.0,0.0,0.0,2.0,0.0
0021400151,1610612745,HOU,Houston,201595,Joey Dorsey,,,10:00,126.1,81.5,44.7,0.111,1.0,33.3,0.125,0.25,0.188,33.3,1.0,1.0,0.098,88.99,0.109,2014-11-17T00:00:00,6,1610612745,HOU,Houston,9-2,18,24,24,27,0,0,0,0,0,0,0,0,0,0,93,0.436,0.81,0.235,24,35,21,0021400151,1610612745,HOU,Houston,Joey Dorsey,,,10:00,0.0,0.0,0.0,2.0,3.0,4.0,1.0,10.0,0.0,0.0,1.0,0.0
0021400151,1610612745,HOU,Houston,201595,Joey Dorsey,,,10:00,126.1,81.5,44.7,0.111,1.0,33.3,0.125,0.25,0.188,33.3,1.0,1.0,0.098,88.99,0.109,2014-11-17T00:00:00,6,1610612763,MEM,Memphis,10-1,34,31,32,22,0,0,0,0,0,0,0,0,0,0,119,0.535,0.909,0.412,27,38,10,0021400151,1610612745,HOU,Houston,Joey Dorsey,,,10:00,0.0,0.0,0.0,2.0,3.0,4.0,1.0,10.0,0.0,0.0,1.0,0.0
0021400151,1610612745,HOU,Houston,203910,Nick Johnson,,DNP - Coach's Decision                  ,,,,,,,0.0,,,,,,,0.0,,,2014-11-17T00:00:00,6,1610612745,HOU,Houston,9-2,18,24,24,27,0,0,0,0,0,0,0,0,0,0,93,0.436,0.81,0.235,24,35,21,0021400151,1610612745,HOU,Houston,Nick Johnson,,DNP - Coach's Decision                  ,,,,,,,,,,,,,
0021400151,1610612745,HOU,Houston,203910,Nick Johnson,,DNP - Coach's Decision                  ,,,,,,,0.0,,,,,,,0.0,,,2014-11-17T00:00:00,6,1610612763,MEM,Memphis,10-1,34,31,32,22,0,0,0,0,0,0,0,0,0,0,119,0.535,0.909,0.412,27,38,10,0021400151,1610612745,HOU,Houston,Nick Johnson,,DNP - Coach's Decision                  ,,,,,,,,,,,,,
0021400151,1610612763,MEM,Memphis,2754,Tony Allen,F,,18:13,123.4,88.8,34.6,0.0,0.0,0.0,0.091,0.071,0.08,0.0,0.75,0.75,0.103,97.81,0.078,2014-11-17T00:00:00,6,1610612745,HOU,Houston,9-2,18,24,24,27,0,0,0,0,0,0,0,0,0,0,93,0.436,0.81,0.235,24,35,21,0021400151,1610612763,MEM,Memphis,Tony Allen,F,,18:13,2.0,2.0,2.0,4.0,3.0,3.0,2.0,18.0,1.0,1.0,3.0,1.0
0021400151,1610612763,MEM,Memphis,2754,Tony Allen,F,,18:13,123.4,88.8,34.6,0.0,0.0,0.0,0.091,0.071,0.08,0.0,0.75,0.75,0.103,97.81,0.078,2014-11-17T00:00:00,6,1610612763,MEM,Memphis,10-1,34,31,32,22,0,0,0,0,0,0,0,0,0,0,119,0.535,0.909,0.412,27,38,10,0021400151,1610612763,MEM,Memphis,Tony Allen,F,,18:13,2.0,2.0,2.0,4.0,3.0,3.0,2.0,18.0,1.0,1.0,3.0,1.0
0021400151,1610612763,MEM,Memphis,2216,Zach Randolph,F,,25:58,130.3,84.5,45.8,0.045,1.0,6.4,0.105,0.208,0.163,6.4,0.364,0.513,0.245,98.88,0.114,2014-11-17T00:00:00,6,1610612745,HOU,Houston,9-2,18,24,24,27,0,0,0,0,0,0,0,0,0,0,93,0.436,0.81,0.235,24,35,21,0021400151,1610612763,MEM,Memphis,Zach Randolph,F,,25:58,0.0,2.0,0.0,8.0,4.0,5.0,4.0,26.0,0.0,1.0,3.0,4.0
0021400151,1610612763,MEM,Memphis,2216,Zach Randolph,F,,25:58,130.3,84.5,45.8,0.045,1.0,6.4,0.105,0.208,0.163,6.4,0.364,0.513,0.245,98.88,0.114,2014-11-17T00:00:00,6,1610612763,MEM,Memphis,10-1,34,31,32,22,0,0,0,0,0,0,0,0,0,0,119,0.535,0.909,0.412,27,38,10,0021400151,1610612763,MEM,Memphis,Zach Randolph,F,,25:58,0.0,2.0,0.0,8.0,4.0,5.0,4.0,26.0,0.0,1.0,3.0,4.0
0021400151,1610612763,MEM,Memphis,201188,Marc Gasol,C,,25:12,108.3,81.7,26.6,0.176,1.5,19.4,0.053,0.238,0.15,13.0,0.4,0.431,0.219,100.51,0.119,2014-11-17T00:00:00,6,1610612745,HOU,Houston,9-2,18,24,24,27,0,0,0,0,0,0,0,0,0,0,93,0.436,0.81,0.235,24,35,21,0021400151,1610612763,MEM,Memphis,Marc Gasol,C,,25:12,5.0,2.0,2.0,6.0,7.0,0.0,7.0,26.0,1.0,0.0,2.0,3.0
0021400151,1610612763,MEM,Memphis,201188,Marc Gasol,C,,25:12,108.3,81.7,26.6,0.176,1.5,19.4,0.053,0.238,0.15,13.0,0.4,0.431,0.219,100.51,0.119,2014-11-17T00:00:00,6,1610612763,MEM,Memphis,10-1,34,31,32,22,0,0,0,0,0,0,0,0,0,0,119,0.535,0.909,0.412,27,38,10,0021400151,1610612763,MEM,Memphis,Marc Gasol,C,,25:12,5.0,2.0,2.0,6.0,7.0,0.0,7.0,26.0,1.0,0.0,2.0,3.0
0021400151,1610612763,MEM,Memphis,201584,Courtney Lee,G,,30:07,141.6,90.0,51.7,0.074,2.0,20.0,0.0,0.12,0.065,10.0,1.071,1.071,0.116,99.77,0.142,2014-11-17T00:00:00,6,1610612745,HOU,Houston,9-2,18,24,24,27,0,0,0,0,0,0,0,0,0,0,93,0.436,0.81,0.235,24,35,21,0021400151,1610612763,MEM,Memphis,Courtney Lee,G,,30:07,4.0,3.0,2.0,4.0,4.0,12.0,6.0,32.0,0.0,0.0,0.0,1.0
0021400151,1610612763,MEM,Memphis,201584,Courtney Lee,G,,30:07,141.6,90.0,51.7,0.074,2.0,20.0,0.0,0.12,0.065,10.0,1.071,1.071,0.116,99.77,0.142,2014-11-17T00:00:00,6,1610612763,MEM,Memphis,10-1,34,31,32,22,0,0,0,0,0,0,0,0,0,0,119,0.535,0.909,0.412,27,38,10,0021400151,1610612763,MEM,Memphis,Courtney Lee,G,,30:07,4.0,3.0,2.0,4.0,4.0,12.0,6.0,32.0,0.0,0.0,0.0,1.0
0021400151,1610612763,MEM,Memphis,201144,Mike Conley,G,,23:23,127.3,87.5,39.8,0.375,6.0,30.5,0.056,0.045,0.05,5.1,0.65,0.752,0.254,100.46,0.236,2014-11-17T00:00:00,6,1610612745,HOU,Houston,9-2,18,24,24,27,0,0,0,0,0,0,0,0,0,0,93,0.436,0.81,0.235,24,35,21,0021400151,1610612763,MEM,Memphis,Mike Conley,G,,23:23,4.0,2.0,4.0,8.0,4.0,5.0,4.0,22.0,0.0,0.0,1.0,4.0
0021400151,1610612763,MEM,Memphis,201144,Mike Conley,G,,23:23,127.3,87.5,39.8,0.375,6.0,30.5,0.056,0.045,0.05,5.1,0.65,0.752,0.254,100.46,0.236,2014-11-17T00:00:00,6,1610612763,MEM,Memphis,10-1,34,31,32,22,0,0,0,0,0,0,0,0,0,0,119,0.535,0.909,0.412,27,38,10,0021400151,1610612763,MEM,Memphis,Mike Conley,G,,23:23,4.0,2.0,4.0,8.0,4.0,5.0,4.0,22.0,0.0,0.0,1.0,4.0
0021400151,1610612763,MEM,Memphis,202347,Quincy Pondexter,,,29:47,122.9,98.6,24.3,0.16,4.0,21.1,0.042,0.083,0.062,5.3,0.464,0.464,0.221,97.25,0.051,2014-11-17T00:00:00,6,1610612745,HOU,Houston,9-2,18,24,24,27,0,0,0,0,0,0,0,0,0,0,93,0.436,0.81,0.235,24,35,21,0021400151,1610612763,MEM,Memphis,Quincy Pondexter,,,29:47,5.0,0.0,8.0,4.0,8.0,9.0,9.0,32.0,0.0,1.0,3.0,0.0
0021400151,1610612763,MEM,Memphis,202347,Quincy Pondexter,,,29:47,122.9,98.6,24.3,0.16,4.0,21.1,0.042,0.083,0.062,5.3,0.464,0.464,0.221,97.25,0.051,2014-11-17T00:00:00,6,1610612763,MEM,Memphis,10-1,34,31,32,22,0,0,0,0,0,0,0,0,0,0,119,0.535,0.909,0.412,27,38,10,0021400151,1610612763,MEM,Memphis,Quincy Pondexter,,,29:47,5.0,0.0,8.0,4.0,8.0,9.0,9.0,32.0,0.0,1.0,3.0,0.0
0021400151,1610612763,MEM,Memphis,201585,Kosta Koufos,,,17:24,158.5,94.4,64.1,0.063,0.0,14.3,0.083,0.333,0.222,0.0,0.833,0.833,0.158,95.26,0.206,2014-11-17T00:00:00,6,1610612745,HOU,Houston,9-2,18,24,24,27,0,0,0,0,0,0,0,0,0,0,93,0.436,0.81,0.235,24,35,21,0021400151,1610612763,MEM,Memphis,Kosta Koufos,,,17:24,2.0,2.0,2.0,10.0,2.0,12.0,4.0,16.0,3.0,0.0,3.0,0.0
0021400151,1610612763,MEM,Memphis,201585,Kosta Koufos,,,17:24,158.5,94.4,64.1,0.063,0.0,14.3,0.083,0.333,0.222,0.0,0.833,0.833,0.158,95.26,0.206,2014-11-17T00:00:00,6,1610612763,MEM,Memphis,10-1,34,31,32,22,0,0,0,0,0,0,0,0,0,0,119,0.535,0.909,0.412,27,38,10,0021400151,1610612763,MEM,Memphis,Kosta Koufos,,,17:24,2.0,2.0,2.0,10.0,2.0,12.0,4.0,16.0,3.0,0.0,3.0,0.0
0021400151,1610612763,MEM,Memphis,2757,Beno Udrih,,,24:47,118.8,104.1,14.8,0.316,2.0,32.8,0.0,0.063,0.03,16.4,0.625,0.697,0.233,94.84,0.115,2014-11-17T00:00:00,6,1610612745,HOU,Houston,9-2,18,24,24,27,0,0,0,0,0,0,0,0,0,0,93,0.436,0.81,0.235,24,35,21,0021400151,1610612763,MEM,Memphis,Beno Udrih,,,24:47,4.0,2.0,2.0,8.0,7.0,7.0,7.0,28.0,0.0,0.0,3.0,2.0
0021400151,1610612763,MEM,Memphis,2757,Beno Udrih,,,24:47,118.8,104.1,14.8,0.316,2.0,32.8,0.0,0.063,0.03,16.4,0.625,0.697,0.233,94.84,0.115,2014-11-17T00:00:00,6,1610612763,MEM,Memphis,10-1,34,31,32,22,0,0,0,0,0,0,0,0,0,0,119,0.535,0.909,0.412,27,38,10,0021400151,1610612763,MEM,Memphis,Beno Udrih,,,24:47,4.0,2.0,2.0,8.0,7.0,7.0,7.0,28.0,0.0,0.0,3.0,2.0
0021400151,1610612763,MEM,Memphis,1713,Vince Carter,,,7:53,104.2,79.7,24.5,0.167,0.0,20.0,0.0,0.4,0.182,0.0,0.25,0.25,0.245,99.37,0.16,2014-11-17T00:00:00,6,1610612745,HOU,Houston,9-2,18,24,24,27,0,0,0,0,0,0,0,0,0,0,93,0.436,0.81,0.235,24,35,21,0021400151,1610612763,MEM,Memphis,Vince Carter,,,7:53,2.0,0.0,2.0,2.0,3.0,0.0,3.0,4.0,0.0,0.0,0.0,0.0
0021400151,1610612763,MEM,Memphis,1713,Vince Carter,,,7:53,104.2,79.7,24.5,0.167,0.0,20.0,0.0,0.4,0.182,0.0,0.25,0.25,0.245,99.37,0.16,2014-11-17T00:00:00,6,1610612763,MEM,Memphis,10-1,34,31,32,22,0,0,0,0,0,0,0,0,0,0,119,0.535,0.909,0.412,27,38,10,0021400151,1610612763,MEM,Memphis,Vince Carter,,,7:53,2.0,0.0,2.0,2.0,3.0,0.0,3.0,4.0,0.0,0.0,0.0,0.0
0021400151,1610612763,MEM,Memphis,202720,Jon Leuer,,,21:00,114.4,106.8,7.6,0.133,2.0,15.7,0.133,0.143,0.138,7.8,0.625,0.666,0.239,96.18,0.154,2014-11-17T00:00:00,6,1610612745,HOU,Houston,9-2,18,24,24,27,0,0,0,0,0,0,0,0,0,0,93,0.436,0.81,0.235,24,35,21,0021400151,1610612763,MEM,Memphis,Jon Leuer,,,21:00,2.0,4.0,2.0,6.0,7.0,7.0,7.0,24.0,0.0,0.0,0.0,2.0
0021400151,1610612763,MEM,Memphis,202720,Jon Leuer,,,21:00,114.4,106.8,7.6,0.133,2.0,15.7,0.133,0.143,0.138,7.8,0.625,0.666,0.239,96.18,0.154,2014-11-17T00:00:00,6,1610612763,MEM,Memphis,10-1,34,31,32,22,0,0,0,0,0,0,0,0,0,0,119,0.535,0.909,0.412,27,38,10,0021400151,1610612763,MEM,Memphis,Jon Leuer,,,21:00,2.0,4.0,2.0,6.0,7.0,7.0,7.0,24.0,0.0,0.0,0.0,2.0
0021400151,1610612763,MEM,Memphis,203919,Jordan Adams,,,10:00,81.5,126.1,-44.7,0.167,0.0,25.8,0.0,0.0,0.0,0.0,0.0,0.174,0.133,88.99,-0.031,2014-11-17T00:00:00,6,1610612745,HOU,Houston,9-2,18,24,24,27,0,0,0,0,0,0,0,0,0,0,93,0.436,0.81,0.235,24,35,21,0021400151,1610612763,MEM,Memphis,Jordan Adams,,,10:00,1.0,0.0,1.0,0.0,4.0,0.0,2.0,14.0,0.0,1.0,1.0,1.0
0021400151,1610612763,MEM,Memphis,203919,Jordan Adams,,,10:00,81.5,126.1,-44.7,0.167,0.0,25.8,0.0,0.0,0.0,0.0,0.0,0.174,0.133,88.99,-0.031,2014-11-17T00:00:00,6,1610612763,MEM,Memphis,10-1,34,31,32,22,0,0,0,0,0,0,0,0,0,0,119,0.535,0.909,0.412,27,38,10,0021400151,1610612763,MEM,Memphis,Jordan Adams,,,10:00,1.0,0.0,1.0,0.0,4.0,0.0,2.0,14.0,0.0,1.0,1.0,1.0
0021400151,1610612763,MEM,Memphis,203950,Jarnell Stokes,,,6:16,86.2,153.3,-67.0,0.0,0.0,0.0,0.2,0.5,0.286,0.0,1.0,1.0,0.145,88.85,0.229,2014-11-17T00:00:00,6,1610612745,HOU,Houston,9-2,18,24,24,27,0,0,0,0,0,0,0,0,0,0,93,0.436,0.81,0.235,24,35,21,0021400151,1610612763,MEM,Memphis,Jarnell Stokes,,,6:16,0.0,0.0,0.0,4.0,2.0,0.0,0.0,8.0,0.0,0.0,0.0,1.0
0021400151,1610612763,MEM,Memphis,203950,Jarnell Stokes,,,6:16,86.2,153.3,-67.0,0.0,0.0,0.0,0.2,0.5,0.286,0.0,1.0,1.0,0.145,88.85,0.229,2014-11-17T00:00:00,6,1610612763,MEM,Memphis,10-1,34,31,32,22,0,0,0,0,0,0,0,0,0,0,119,0.535,0.909,0.412,27,38,10,0021400151,1610612763,MEM,Memphis,Jarnell Stokes,,,6:16,0.0,0.0,0.0,4.0,2.0,0.0,0.0,8.0,0.0,0.0,0.0,1.0
0021400151,1610612763,MEM,Memphis,2419,Tayshaun Prince,,DNP - Coach's Decision                  ,,,,,,,0.0,,,,,,,0.0,,,2014-11-17T00:00:00,6,1610612745,HOU,Houston,9-2,18,24,24,27,0,0,0,0,0,0,0,0,0,0,93,0.436,0.81,0.235,24,35,21,0021400151,1610612763,MEM,Memphis,Tayshaun Prince,,DNP - Coach's Decision                  ,,,,,,,,,,,,,
0021400151,1610612763,MEM,Memphis,2419,Tayshaun Prince,,DNP - Coach's Decision                  ,,,,,,,0.0,,,,,,,0.0,,,2014-11-17T00:00:00,6,1610612763,MEM,Memphis,10-1,34,31,32,22,0,0,0,0,0,0,0,0,0,0,119,0.535,0.909,0.412,27,38,10,0021400151,1610612763,MEM,Memphis,Tayshaun Prince,,DNP - Coach's Decision                  ,,,,,,,,,,,,,
