GAME_ID_x,TEAM_ID_x,TEAM_ABBREVIATION_x,TEAM_CITY_x,PLAYER_ID,PLAYER_NAME_x,START_POSITION_x,COMMENT_x,MIN_x,OFF_RATING,DEF_RATING,NET_RATING,AST_PCT,AST_TOV,AST_RATIO,OREB_PCT,DREB_PCT,REB_PCT,TM_TOV_PCT,EFG_PCT,TS_PCT,USG_PCT,PACE,PIE,GAME_DATE_EST,GAME_SEQUENCE,TEAM_ID_y,TEAM_ABBREVIATION_y,TEAM_CITY_NAME,TEAM_WINS_LOSSES,PTS_QTR1,PTS_QTR2,PTS_QTR3,PTS_QTR4,PTS_OT1,PTS_OT2,PTS_OT3,PTS_OT4,PTS_OT5,PTS_OT6,PTS_OT7,PTS_OT8,PTS_OT9,PTS_OT10,PTS,FG_PCT,FT_PCT,FG3_PCT,AST,REB,TOV,GAME_ID_y,TEAM_ID,TEAM_ABBREVIATION,TEAM_CITY_y,PLAYER_NAME_y,START_POSITION_y,COMMENT_y,MIN_y,PTS_OFF_TOV,PTS_2ND_CHANCE,PTS_FB,PTS_PAINT,OPP_PTS_OFF_TOV,OPP_PTS_2ND_CHANCE,OPP_PTS_FB,OPP_PTS_PAINT,BLK,BLKA,PF,PFD
0021400175,1610612749,MIL,Milwaukee,203114,Khris Middleton,F,,15:19,47.9,129.6,-81.7,0.5,2.0,17.5,0.056,0.0,0.038,8.7,0.125,0.178,0.303,96.52,-0.084,2014-11-21T00:00:00,4,1610612749,MIL,Milwaukee,7-6,27,18,12,25,0,0,0,0,0,0,0,0,0,0,82,0.365,0.688,0.3,19,30,12,0021400175,1610612749,MIL,Milwaukee,Khris Middleton,F,,15:19,3,0,0,2,8,13,4,14,0,1,1,1
0021400175,1610612749,MIL,Milwaukee,203114,Khris Middleton,F,,15:19,47.9,129.6,-81.7,0.5,2.0,17.5,0.056,0.0,0.038,8.7,0.125,0.178,0.303,96.52,-0.084,2014-11-21T00:00:00,4,1610612761,TOR,Toronto,10-2,37,34,30,23,0,0,0,0,0,0,0,0,0,0,124,0.523,0.792,0.6,27,57,16,0021400175,1610612749,MIL,Milwaukee,Khris Middleton,F,,15:19,3,0,0,2,8,13,4,14,0,1,1,1
0021400175,1610612749,MIL,Milwaukee,203953,Jabari Parker,F,,27:09,78.3,128.0,-49.7,0.333,3.0,16.1,0.063,0.211,0.118,5.4,0.458,0.512,0.257,99.64,0.163,2014-11-21T00:00:00,4,1610612749,MIL,Milwaukee,7-6,27,18,12,25,0,0,0,0,0,0,0,0,0,0,82,0.365,0.688,0.3,19,30,12,0021400175,1610612749,MIL,Milwaukee,Jabari Parker,F,,27:09,2,2,4,8,9,17,3,20,1,1,1,3
0021400175,1610612749,MIL,Milwaukee,203953,Jabari Parker,F,,27:09,78.3,128.0,-49.7,0.333,3.0,16.1,0.063,0.211,0.118,5.4,0.458,0.512,0.257,99.64,0.163,2014-11-21T00:00:00,4,1610612761,TOR,Toronto,10-2,37,34,30,23,0,0,0,0,0,0,0,0,0,0,124,0.523,0.792,0.6,27,57,16,0021400175,1610612749,MIL,Milwaukee,Jabari Parker,F,,27:09,2,2,4,8,9,17,3,20,1,1,1,3
0021400175,1610612749,MIL,Milwaukee,202336,Larry Sanders,C,,21:00,68.8,129.0,-60.3,0.0,0.0,0.0,0.115,0.154,0.128,17.4,1.0,0.84,0.126,96.14,0.087,2014-11-21T00:00:00,4,1610612749,MIL,Milwaukee,7-6,27,18,12,25,0,0,0,0,0,0,0,0,0,0,82,0.365,0.688,0.3,19,30,12,0021400175,1610612749,MIL,Milwaukee,Larry Sanders,C,,21:00,0,4,0,6,4,13,0,14,0,0,3,2
0021400175,1610612749,MIL,Milwaukee,202336,Larry Sanders,C,,21:00,68.8,129.0,-60.3,0.0,0.0,0.0,0.115,0.154,0.128,17.4,1.0,0.84,0.126,96.14,0.087,2014-11-21T00:00:00,4,1610612761,TOR,Toronto,10-2,37,34,30,23,0,0,0,0,0,0,0,0,0,0,124,0.523,0.792,0.6,27,57,16,0021400175,1610612749,MIL,Milwaukee,Larry Sanders,C,,21:00,0,4,0,6,4,13,0,14,0,0,3,2
0021400175,1610612749,MIL,Milwaukee,201573,Jerryd Bayless,G,,9:11,53.3,134.9,-81.6,0.0,0.0,0.0,0.0,0.0,0.0,50.0,0.0,0.0,0.107,103.28,-0.063,2014-11-21T00:00:00,4,1610612749,MIL,Milwaukee,7-6,27,18,12,25,0,0,0,0,0,0,0,0,0,0,82,0.365,0.688,0.3,19,30,12,0021400175,1610612749,MIL,Milwaukee,Jerryd Bayless,G,,9:11,0,0,0,0,4,9,2,6,0,0,1,0
0021400175,1610612749,MIL,Milwaukee,201573,Jerryd Bayless,G,,9:11,53.3,134.9,-81.6,0.0,0.0,0.0,0.0,0.0,0.0,50.0,0.0,0.0,0.107,103.28,-0.063,2014-11-21T00:00:00,4,1610612761,TOR,Toronto,10-2,37,34,30,23,0,0,0,0,0,0,0,0,0,0,124,0.523,0.792,0.6,27,57,16,0021400175,1610612749,MIL,Milwaukee,Jerryd Bayless,G,,9:11,0,0,0,0,4,9,2,6,0,0,1,0
0021400175,1610612749,MIL,Milwaukee,202688,Brandon Knight,G,,25:57,88.8,127.8,-38.9,0.182,1.0,15.5,0.0,0.1,0.043,15.5,0.563,0.619,0.188,101.07,0.065,2014-11-21T00:00:00,4,1610612749,MIL,Milwaukee,7-6,27,18,12,25,0,0,0,0,0,0,0,0,0,0,82,0.365,0.688,0.3,19,30,12,0021400175,1610612749,MIL,Milwaukee,Brandon Knight,G,,25:57,5,0,2,6,13,21,7,24,0,0,3,3
0021400175,1610612749,MIL,Milwaukee,202688,Brandon Knight,G,,25:57,88.8,127.8,-38.9,0.182,1.0,15.5,0.0,0.1,0.043,15.5,0.563,0.619,0.188,101.07,0.065,2014-11-21T00:00:00,4,1610612761,TOR,Toronto,10-2,37,34,30,23,0,0,0,0,0,0,0,0,0,0,124,0.523,0.792,0.6,27,57,16,0021400175,1610612749,MIL,Milwaukee,Brandon Knight,G,,25:57,5,0,2,6,13,21,7,24,0,0,3,3
0021400175,1610612749,MIL,Milwaukee,201564,O.J. Mayo,,,9:04,115.2,122.3,-7.1,0.286,2.0,50.0,0.0,0.0,0.0,25.0,0.0,0.0,0.095,111.28,-0.022,2014-11-21T00:00:00,4,1610612749,MIL,Milwaukee,7-6,27,18,12,25,0,0,0,0,0,0,0,0,0,0,82,0.365,0.688,0.3,19,30,12,0021400175,1610612749,MIL,Milwaukee,O.J. Mayo,,,9:04,0,0,0,0,7,8,5,12,0,0,1,0
0021400175,1610612749,MIL,Milwaukee,201564,O.J. Mayo,,,9:04,115.2,122.3,-7.1,0.286,2.0,50.0,0.0,0.0,0.0,25.0,0.0,0.0,0.095,111.28,-0.022,2014-11-21T00:00:00,4,1610612761,TOR,Toronto,10-2,37,34,30,23,0,0,0,0,0,0,0,0,0,0,124,0.523,0.792,0.6,27,57,16,0021400175,1610612749,MIL,Milwaukee,O.J. Mayo,,,9:04,0,0,0,0,7,8,5,12,0,0,1,0
0021400175,1610612749,MIL,Milwaukee,203507,Giannis Antetokounmpo,,,15:02,113.9,132.5,-18.6,0.2,2.0,19.8,0.0,0.143,0.077,9.9,0.25,0.494,0.234,104.66,0.057,2014-11-21T00:00:00,4,1610612749,MIL,Milwaukee,7-6,27,18,12,25,0,0,0,0,0,0,0,0,0,0,82,0.365,0.688,0.3,19,30,12,0021400175,1610612749,MIL,Milwaukee,Giannis Antetokounmpo,,,15:02,2,0,2,2,9,12,7,16,0,0,2,5
0021400175,1610612749,MIL,Milwaukee,203507,Giannis Antetokounmpo,,,15:02,113.9,132.5,-18.6,0.2,2.0,19.8,0.0,0.143,0.077,9.9,0.25,0.494,0.234,104.66,0.057,2014-11-21T00:00:00,4,1610612761,TOR,Toronto,10-2,37,34,30,23,0,0,0,0,0,0,0,0,0,0,124,0.523,0.792,0.6,27,57,16,0021400175,1610612749,MIL,Milwaukee,Giannis Antetokounmpo,,,15:02,2,0,2,2,9,12,7,16,0,0,2,5
0021400175,1610612749,MIL,Milwaukee,2585,Zaza Pachulia,,,8:38,115.2,124.5,-9.3,0.0,0.0,0.0,0.167,0.222,0.2,17.4,0.333,0.525,0.275,111.31,0.108,2014-11-21T00:00:00,4,1610612749,MIL,Milwaukee,7-6,27,18,12,25,0,0,0,0,0,0,0,0,0,0,82,0.365,0.688,0.3,19,30,12,0021400175,1610612749,MIL,Milwaukee,Zaza Pachulia,,,8:38,0,0,0,0,7,6,5,10,0,0,1,2
0021400175,1610612749,MIL,Milwaukee,2585,Zaza Pachulia,,,8:38,115.2,124.5,-9.3,0.0,0.0,0.0,0.167,0.222,0.2,17.4,0.333,0.525,0.275,111.31,0.108,2014-11-21T00:00:00,4,1610612761,TOR,Toronto,10-2,37,34,30,23,0,0,0,0,0,0,0,0,0,0,124,0.523,0.792,0.6,27,57,16,0021400175,1610612749,MIL,Milwaukee,Zaza Pachulia,,,8:38,0,0,0,0,7,6,5,10,0,0,1,2
0021400175,1610612749,MIL,Milwaukee,101141,Ersan Ilyasova,,,20:51,99.6,125.8,-26.2,0.25,0.0,15.7,0.0,0.167,0.083,0.0,0.667,0.651,0.261,90.84,0.153,2014-11-21T00:00:00,4,1610612749,MIL,Milwaukee,7-6,27,18,12,25,0,0,0,0,0,0,0,0,0,0,82,0.365,0.688,0.3,19,30,12,0021400175,1610612749,MIL,Milwaukee,Ersan Ilyasova,,,20:51,2,0,2,4,8,13,10,18,0,0,0,4
0021400175,1610612749,MIL,Milwaukee,101141,Ersan Ilyasova,,,20:51,99.6,125.8,-26.2,0.25,0.0,15.7,0.0,0.167,0.083,0.0,0.667,0.651,0.261,90.84,0.153,2014-11-21T00:00:00,4,1610612761,TOR,Toronto,10-2,37,34,30,23,0,0,0,0,0,0,0,0,0,0,124,0.523,0.792,0.6,27,57,16,0021400175,1610612749,MIL,Milwaukee,Ersan Ilyasova,,,20:51,2,0,2,4,8,13,10,18,0,0,0,4
0021400175,1610612749,MIL,Milwaukee,203089,John Henson,,,18:22,92.8,126.2,-33.4,0.0,0.0,0.0,0.056,0.133,0.091,14.5,0.4,0.51,0.194,88.18,0.051,2014-11-21T00:00:00,4,1610612749,MIL,Milwaukee,7-6,27,18,12,25,0,0,0,0,0,0,0,0,0,0,82,0.365,0.688,0.3,19,30,12,0021400175,1610612749,MIL,Milwaukee,John Henson,,,18:22,4,2,0,4,6,11,8,14,0,0,1,1
0021400175,1610612749,MIL,Milwaukee,203089,John Henson,,,18:22,92.8,126.2,-33.4,0.0,0.0,0.0,0.056,0.133,0.091,14.5,0.4,0.51,0.194,88.18,0.051,2014-11-21T00:00:00,4,1610612761,TOR,Toronto,10-2,37,34,30,23,0,0,0,0,0,0,0,0,0,0,124,0.523,0.792,0.6,27,57,16,0021400175,1610612749,MIL,Milwaukee,John Henson,,,18:22,4,2,0,4,6,11,8,14,0,0,1,1
0021400175,1610612749,MIL,Milwaukee,203489,Nate Wolters,,,26:57,92.3,128.1,-35.8,0.067,1.0,11.1,0.0,0.13,0.057,11.1,0.143,0.143,0.141,89.84,-0.04,2014-11-21T00:00:00,4,1610612749,MIL,Milwaukee,7-6,27,18,12,25,0,0,0,0,0,0,0,0,0,0,82,0.365,0.688,0.3,19,30,12,0021400175,1610612749,MIL,Milwaukee,Nate Wolters,,,26:57,0,0,0,2,4,11,6,16,0,1,3,1
0021400175,1610612749,MIL,Milwaukee,203489,Nate Wolters,,,26:57,92.3,128.1,-35.8,0.067,1.0,11.1,0.0,0.13,0.057,11.1,0.143,0.143,0.141,89.84,-0.04,2014-11-21T00:00:00,4,1610612761,TOR,Toronto,10-2,37,34,30,23,0,0,0,0,0,0,0,0,0,0,124,0.523,0.792,0.6,27,57,16,0021400175,1610612749,MIL,Milwaukee,Nate Wolters,,,26:57,0,0,0,2,4,11,6,16,0,1,3,1
0021400175,1610612749,MIL,Milwaukee,203088,Kendall Marshall,,,24:00,83.0,120.6,-37.6,0.4,4.0,30.8,0.0,0.063,0.022,7.7,0.313,0.313,0.185,88.56,0.067,2014-11-21T00:00:00,4,1610612749,MIL,Milwaukee,7-6,27,18,12,25,0,0,0,0,0,0,0,0,0,0,82,0.365,0.688,0.3,19,30,12,0021400175,1610612749,MIL,Milwaukee,Kendall Marshall,,,24:00,0,0,2,2,4,9,4,16,0,1,1,0
0021400175,1610612749,MIL,Milwaukee,203088,Kendall Marshall,,,24:00,83.0,120.6,-37.6,0.4,4.0,30.8,0.0,0.063,0.022,7.7,0.313,0.313,0.185,88.56,0.067,2014-11-21T00:00:00,4,1610612761,TOR,Toronto,10-2,37,34,30,23,0,0,0,0,0,0,0,0,0,0,124,0.523,0.792,0.6,27,57,16,0021400175,1610612749,MIL,Milwaukee,Kendall Marshall,,,24:00,0,0,2,2,4,9,4,16,0,1,1,0
0021400175,1610612749,MIL,Milwaukee,201162,Jared Dudley,,,18:30,93.3,123.5,-30.1,0.111,0.0,14.5,0.0,0.067,0.028,0.0,0.5,0.51,0.158,87.54,0.089,2014-11-21T00:00:00,4,1610612749,MIL,Milwaukee,7-6,27,18,12,25,0,0,0,0,0,0,0,0,0,0,82,0.365,0.688,0.3,19,30,12,0021400175,1610612749,MIL,Milwaukee,Jared Dudley,,,18:30,2,0,2,2,2,7,4,10,0,0,0,2
0021400175,1610612749,MIL,Milwaukee,201162,Jared Dudley,,,18:30,93.3,123.5,-30.1,0.111,0.0,14.5,0.0,0.067,0.028,0.0,0.5,0.51,0.158,87.54,0.089,2014-11-21T00:00:00,4,1610612761,TOR,Toronto,10-2,37,34,30,23,0,0,0,0,0,0,0,0,0,0,124,0.523,0.792,0.6,27,57,16,0021400175,1610612749,MIL,Milwaukee,Jared Dudley,,,18:30,2,0,2,2,2,7,4,10,0,0,0,2
0021400175,1610612761,TOR,Toronto,203082,Terrence Ross,F,,23:45,133.1,72.0,61.1,0.1,0.0,20.0,0.0,0.071,0.049,0.0,0.813,0.813,0.141,101.5,0.154,2014-11-21T00:00:00,4,1610612749,MIL,Milwaukee,7-6,27,18,12,25,0,0,0,0,0,0,0,0,0,0,82,0.365,0.688,0.3,19,30,12,0021400175,1610612761,TOR,Toronto,Terrence Ross,F,,23:45,2,2,0,0,10,0,5,14,0,0,1,1
0021400175,1610612761,TOR,Toronto,203082,Terrence Ross,F,,23:45,133.1,72.0,61.1,0.1,0.0,20.0,0.0,0.071,0.049,0.0,0.813,0.813,0.141,101.5,0.154,2014-11-21T00:00:00,4,1610612761,TOR,Toronto,10-2,37,34,30,23,0,0,0,0,0,0,0,0,0,0,124,0.523,0.792,0.6,27,57,16,0021400175,1610612761,TOR,Toronto,Terrence Ross,F,,23:45,2,2,0,0,10,0,5,14,0,0,1,1
0021400175,1610612761,TOR,Toronto,101161,Amir Johnson,F,,19:51,131.5,61.0,70.4,0.067,0.33,10.0,0.0,0.074,0.054,30.0,0.75,0.75,0.192,100.11,0.086,2014-11-21T00:00:00,4,1610612749,MIL,Milwaukee,7-6,27,18,12,25,0,0,0,0,0,0,0,0,0,0,82,0.365,0.688,0.3,19,30,12,0021400175,1610612761,TOR,Toronto,Amir Johnson,F,,19:51,0,0,0,6,12,2,4,16,3,0,3,0
0021400175,1610612761,TOR,Toronto,101161,Amir Johnson,F,,19:51,131.5,61.0,70.4,0.067,0.33,10.0,0.0,0.074,0.054,30.0,0.75,0.75,0.192,100.11,0.086,2014-11-21T00:00:00,4,1610612761,TOR,Toronto,10-2,37,34,30,23,0,0,0,0,0,0,0,0,0,0,124,0.523,0.792,0.6,27,57,16,0021400175,1610612761,TOR,Toronto,Amir Johnson,F,,19:51,0,0,0,6,12,2,4,16,3,0,3,0
0021400175,1610612761,TOR,Toronto,202685,Jonas Valanciunas,C,,20:59,120.9,77.5,43.4,0.0,0.0,0.0,0.286,0.348,0.324,9.4,0.857,0.934,0.203,103.67,0.371,2014-11-21T00:00:00,4,1610612749,MIL,Milwaukee,7-6,27,18,12,25,0,0,0,0,0,0,0,0,0,0,82,0.365,0.688,0.3,19,30,12,0021400175,1610612761,TOR,Toronto,Jonas Valanciunas,C,,20:59,2,10,0,12,12,4,7,22,0,0,4,3
0021400175,1610612761,TOR,Toronto,202685,Jonas Valanciunas,C,,20:59,120.9,77.5,43.4,0.0,0.0,0.0,0.286,0.348,0.324,9.4,0.857,0.934,0.203,103.67,0.371,2014-11-21T00:00:00,4,1610612761,TOR,Toronto,10-2,37,34,30,23,0,0,0,0,0,0,0,0,0,0,124,0.523,0.792,0.6,27,57,16,0021400175,1610612761,TOR,Toronto,Jonas Valanciunas,C,,20:59,2,10,0,12,12,4,7,22,0,0,4,3
0021400175,1610612761,TOR,Toronto,201942,DeMar DeRozan,G,,28:36,129.9,74.2,55.7,0.2,1.67,26.8,0.0,0.147,0.089,16.1,0.125,0.329,0.201,99.63,0.052,2014-11-21T00:00:00,4,1610612749,MIL,Milwaukee,7-6,27,18,12,25,0,0,0,0,0,0,0,0,0,0,82,0.365,0.688,0.3,19,30,12,0021400175,1610612761,TOR,Toronto,DeMar DeRozan,G,,28:36,0,2,0,2,12,6,7,24,0,0,1,4
0021400175,1610612761,TOR,Toronto,201942,DeMar DeRozan,G,,28:36,129.9,74.2,55.7,0.2,1.67,26.8,0.0,0.147,0.089,16.1,0.125,0.329,0.201,99.63,0.052,2014-11-21T00:00:00,4,1610612761,TOR,Toronto,10-2,37,34,30,23,0,0,0,0,0,0,0,0,0,0,124,0.523,0.792,0.6,27,57,16,0021400175,1610612761,TOR,Toronto,DeMar DeRozan,G,,28:36,0,2,0,2,12,6,7,24,0,0,1,4
0021400175,1610612761,TOR,Toronto,200768,Kyle Lowry,G,,25:34,134.3,77.5,56.8,0.278,2.5,24.9,0.118,0.219,0.184,10.0,0.75,0.765,0.246,100.71,0.279,2014-11-21T00:00:00,4,1610612749,MIL,Milwaukee,7-6,27,18,12,25,0,0,0,0,0,0,0,0,0,0,82,0.365,0.688,0.3,19,30,12,0021400175,1610612761,TOR,Toronto,Kyle Lowry,G,,25:34,5,7,3,2,12,6,7,24,0,1,1,6
0021400175,1610612761,TOR,Toronto,200768,Kyle Lowry,G,,25:34,134.3,77.5,56.8,0.278,2.5,24.9,0.118,0.219,0.184,10.0,0.75,0.765,0.246,100.71,0.279,2014-11-21T00:00:00,4,1610612761,TOR,Toronto,10-2,37,34,30,23,0,0,0,0,0,0,0,0,0,0,124,0.523,0.792,0.6,27,57,16,0021400175,1610612761,TOR,Toronto,Kyle Lowry,G,,25:34,5,7,3,2,12,6,7,24,0,1,1,6
0021400175,1610612761,TOR,Toronto,101150,Lou Williams,,,19:24,135.5,98.4,37.2,0.167,0.0,11.5,0.0,0.063,0.028,0.0,0.679,0.718,0.342,94.56,0.218,2014-11-21T00:00:00,4,1610612749,MIL,Milwaukee,7-6,27,18,12,25,0,0,0,0,0,0,0,0,0,0,82,0.365,0.688,0.3,19,30,12,0021400175,1610612761,TOR,Toronto,Lou Williams,,,19:24,2,3,4,4,0,4,4,12,0,0,1,2
0021400175,1610612761,TOR,Toronto,101150,Lou Williams,,,19:24,135.5,98.4,37.2,0.167,0.0,11.5,0.0,0.063,0.028,0.0,0.679,0.718,0.342,94.56,0.218,2014-11-21T00:00:00,4,1610612761,TOR,Toronto,10-2,37,34,30,23,0,0,0,0,0,0,0,0,0,0,124,0.523,0.792,0.6,27,57,16,0021400175,1610612761,TOR,Toronto,Lou Williams,,,19:24,2,3,4,4,0,4,4,12,0,0,1,2
0021400175,1610612761,TOR,Toronto,202335,Patrick Patterson,,,22:04,140.5,91.3,49.2,0.143,0.0,33.3,0.091,0.261,0.178,0.0,0.167,0.167,0.12,94.01,0.063,2014-11-21T00:00:00,4,1610612749,MIL,Milwaukee,7-6,27,18,12,25,0,0,0,0,0,0,0,0,0,0,82,0.365,0.688,0.3,19,30,12,0021400175,1610612761,TOR,Toronto,Patrick Patterson,,,22:04,0,0,0,0,0,4,4,14,0,0,2,1
0021400175,1610612761,TOR,Toronto,202335,Patrick Patterson,,,22:04,140.5,91.3,49.2,0.143,0.0,33.3,0.091,0.261,0.178,0.0,0.167,0.167,0.12,94.01,0.063,2014-11-21T00:00:00,4,1610612761,TOR,Toronto,10-2,37,34,30,23,0,0,0,0,0,0,0,0,0,0,124,0.523,0.792,0.6,27,57,16,0021400175,1610612761,TOR,Toronto,Patrick Patterson,,,22:04,0,0,0,0,0,4,4,14,0,0,2,1
0021400175,1610612761,TOR,Toronto,202349,Greivis Vasquez,,,25:56,120.2,93.4,26.8,0.316,0.0,35.3,0.091,0.0,0.044,0.0,0.5,0.5,0.186,89.99,0.135,2014-11-21T00:00:00,4,1610612749,MIL,Milwaukee,7-6,27,18,12,25,0,0,0,0,0,0,0,0,0,0,82,0.365,0.688,0.3,19,30,12,0021400175,1610612761,TOR,Toronto,Greivis Vasquez,,,25:56,4,2,2,2,10,4,7,18,0,0,0,0
0021400175,1610612761,TOR,Toronto,202349,Greivis Vasquez,,,25:56,120.2,93.4,26.8,0.316,0.0,35.3,0.091,0.0,0.044,0.0,0.5,0.5,0.186,89.99,0.135,2014-11-21T00:00:00,4,1610612761,TOR,Toronto,10-2,37,34,30,23,0,0,0,0,0,0,0,0,0,0,124,0.523,0.792,0.6,27,57,16,0021400175,1610612761,TOR,Toronto,Greivis Vasquez,,,25:56,4,2,2,2,10,4,7,18,0,0,0,0
0021400175,1610612761,TOR,Toronto,101236,Chuck Hayes,,,13:05,136.0,94.0,42.0,0.077,1.0,33.3,0.083,0.3,0.182,33.3,1.0,1.0,0.068,92.82,0.078,2014-11-21T00:00:00,4,1610612749,MIL,Milwaukee,7-6,27,18,12,25,0,0,0,0,0,0,0,0,0,0,82,0.365,0.688,0.3,19,30,12,0021400175,1610612761,TOR,Toronto,Chuck Hayes,,,13:05,0,0,0,2,0,2,1,4,0,0,3,0
0021400175,1610612761,TOR,Toronto,101236,Chuck Hayes,,,13:05,136.0,94.0,42.0,0.077,1.0,33.3,0.083,0.3,0.182,33.3,1.0,1.0,0.068,92.82,0.078,2014-11-21T00:00:00,4,1610612761,TOR,Toronto,10-2,37,34,30,23,0,0,0,0,0,0,0,0,0,0,124,0.523,0.792,0.6,27,57,16,0021400175,1610612761,TOR,Toronto,Chuck Hayes,,,13:05,0,0,0,2,0,2,1,4,0,0,3,0
0021400175,1610612761,TOR,Toronto,203998,Bruno Caboclo,,,12:00,110.2,116.2,-6.0,0.0,0.0,0.0,0.0,0.1,0.05,14.3,0.667,0.667,0.26,84.8,0.105,2014-11-21T00:00:00,4,1610612749,MIL,Milwaukee,7-6,27,18,12,25,0,0,0,0,0,0,0,0,0,0,82,0.365,0.688,0.3,19,30,12,0021400175,1610612761,TOR,Toronto,Bruno Caboclo,,,12:00,0,0,2,2,8,2,6,12,1,0,1,0
0021400175,1610612761,TOR,Toronto,203998,Bruno Caboclo,,,12:00,110.2,116.2,-6.0,0.0,0.0,0.0,0.0,0.1,0.05,14.3,0.667,0.667,0.26,84.8,0.105,2014-11-21T00:00:00,4,1610612761,TOR,Toronto,10-2,37,34,30,23,0,0,0,0,0,0,0,0,0,0,124,0.523,0.792,0.6,27,57,16,0021400175,1610612761,TOR,Toronto,Bruno Caboclo,,,12:00,0,0,2,2,8,2,6,12,1,0,1,0
0021400175,1610612761,TOR,Toronto,201880,Greg Stiemsma,,,11:16,115.7,112.1,3.6,0.111,1.0,25.0,0.222,0.2,0.211,25.0,0.5,0.5,0.116,86.06,0.0,2014-11-21T00:00:00,4,1610612749,MIL,Milwaukee,7-6,27,18,12,25,0,0,0,0,0,0,0,0,0,0,82,0.365,0.688,0.3,19,30,12,0021400175,1610612761,TOR,Toronto,Greg Stiemsma,,,11:16,0,0,0,0,8,2,6,10,0,0,4,0
0021400175,1610612761,TOR,Toronto,201880,Greg Stiemsma,,,11:16,115.7,112.1,3.6,0.111,1.0,25.0,0.222,0.2,0.211,25.0,0.5,0.5,0.116,86.06,0.0,2014-11-21T00:00:00,4,1610612761,TOR,Toronto,10-2,37,34,30,23,0,0,0,0,0,0,0,0,0,0,124,0.523,0.792,0.6,27,57,16,0021400175,1610612761,TOR,Toronto,Greg Stiemsma,,,11:16,0,0,0,0,8,2,6,10,0,0,4,0
0021400175,1610612761,TOR,Toronto,202361,Landry Fields,,,8:45,94.5,127.1,-32.7,0.333,0.5,12.5,0.143,0.143,0.143,25.0,0.8,0.8,0.335,88.87,0.273,2014-11-21T00:00:00,4,1610612749,MIL,Milwaukee,7-6,27,18,12,25,0,0,0,0,0,0,0,0,0,0,82,0.365,0.688,0.3,19,30,12,0021400175,1610612761,TOR,Toronto,Landry Fields,,,8:45,0,4,0,4,8,2,6,10,0,0,0,0
0021400175,1610612761,TOR,Toronto,202361,Landry Fields,,,8:45,94.5,127.1,-32.7,0.333,0.5,12.5,0.143,0.143,0.143,25.0,0.8,0.8,0.335,88.87,0.273,2014-11-21T00:00:00,4,1610612761,TOR,Toronto,10-2,37,34,30,23,0,0,0,0,0,0,0,0,0,0,124,0.523,0.792,0.6,27,57,16,0021400175,1610612761,TOR,Toronto,Landry Fields,,,8:45,0,4,0,4,8,2,6,10,0,0,0,0
0021400175,1610612761,TOR,Toronto,203512,Lucas Nogueira,,,8:45,94.5,127.1,-32.7,0.0,0.0,0.0,0.143,0.571,0.357,41.0,0.5,0.347,0.234,88.87,-0.018,2014-11-21T00:00:00,4,1610612749,MIL,Milwaukee,7-6,27,18,12,25,0,0,0,0,0,0,0,0,0,0,82,0.365,0.688,0.3,19,30,12,0021400175,1610612761,TOR,Toronto,Lucas Nogueira,,,8:45,2,0,2,2,8,2,6,10,0,0,3,1
0021400175,1610612761,TOR,Toronto,203512,Lucas Nogueira,,,8:45,94.5,127.1,-32.7,0.0,0.0,0.0,0.143,0.571,0.357,41.0,0.5,0.347,0.234,88.87,-0.018,2014-11-21T00:00:00,4,1610612761,TOR,Toronto,10-2,37,34,30,23,0,0,0,0,0,0,0,0,0,0,124,0.523,0.792,0.6,27,57,16,0021400175,1610612761,TOR,Toronto,Lucas Nogueira,,,8:45,2,0,2,2,8,2,6,10,0,0,3,1
