GAME_ID_x,TEAM_ID_x,TEAM_ABBREVIATION_x,TEAM_CITY_x,PLAYER_ID,PLAYER_NAME_x,START_POSITION_x,COMMENT_x,MIN_x,OFF_RATING,DEF_RATING,NET_RATING,AST_PCT,AST_TOV,AST_RATIO,OREB_PCT,DREB_PCT,REB_PCT,TM_TOV_PCT,EFG_PCT,TS_PCT,USG_PCT,PACE,PIE,GAME_DATE_EST,GAME_SEQUENCE,TEAM_ID_y,TEAM_ABBREVIATION_y,TEAM_CITY_NAME,TEAM_WINS_LOSSES,PTS_QTR1,PTS_QTR2,PTS_QTR3,PTS_QTR4,PTS_OT1,PTS_OT2,PTS_OT3,PTS_OT4,PTS_OT5,PTS_OT6,PTS_OT7,PTS_OT8,PTS_OT9,PTS_OT10,PTS,FG_PCT,FT_PCT,FG3_PCT,AST,REB,TOV,GAME_ID_y,TEAM_ID,TEAM_ABBREVIATION,TEAM_CITY_y,PLAYER_NAME_y,START_POSITION_y,COMMENT_y,MIN_y,PTS_OFF_TOV,PTS_2ND_CHANCE,PTS_FB,PTS_PAINT,OPP_PTS_OFF_TOV,OPP_PTS_2ND_CHANCE,OPP_PTS_FB,OPP_PTS_PAINT,BLK,BLKA,PF,PFD
0021400182,1610612762,UTA,Utah,202330,Gordon Hayward,F,,26:08,81.9,114.6,-32.7,0.167,0.67,11.8,0.0,0.294,0.114,17.8,0.5,0.505,0.245,99.0,0.086,2014-11-21T00:00:00,11,1610612762,UTA,Utah,5-8,13,19,25,31,0,0,0,0,0,0,0,0,0,0,88,0.427,0.632,0.353,26,45,19,0021400182,1610612762,UTA,Utah,Gordon Hayward,F,,26:08,2,2,4,6,20,2,16,38,0,1,1,3
0021400182,1610612762,UTA,Utah,202330,Gordon Hayward,F,,26:08,81.9,114.6,-32.7,0.167,0.67,11.8,0.0,0.294,0.114,17.8,0.5,0.505,0.245,99.0,0.086,2014-11-21T00:00:00,11,1610612744,GSW,Golden State,9-2,28,26,31,16,0,0,0,0,0,0,0,0,0,0,101,0.5,0.684,0.261,28,40,13,0021400182,1610612762,UTA,Utah,Gordon Hayward,F,,26:08,2,2,4,6,20,2,16,38,0,1,1,3
0021400182,1610612762,UTA,Utah,202324,Derrick Favors,F,,20:57,64.4,118.7,-54.4,0.167,1.0,6.4,0.214,0.188,0.205,6.4,0.273,0.367,0.302,97.42,0.093,2014-11-21T00:00:00,11,1610612762,UTA,Utah,5-8,13,19,25,31,0,0,0,0,0,0,0,0,0,0,88,0.427,0.632,0.353,26,45,19,0021400182,1610612762,UTA,Utah,Derrick Favors,F,,20:57,2,4,0,6,13,4,15,26,2,1,1,3
0021400182,1610612762,UTA,Utah,202324,Derrick Favors,F,,20:57,64.4,118.7,-54.4,0.167,1.0,6.4,0.214,0.188,0.205,6.4,0.273,0.367,0.302,97.42,0.093,2014-11-21T00:00:00,11,1610612744,GSW,Golden State,9-2,28,26,31,16,0,0,0,0,0,0,0,0,0,0,101,0.5,0.684,0.261,28,40,13,0021400182,1610612762,UTA,Utah,Derrick Favors,F,,20:57,2,4,0,6,13,4,15,26,2,1,1,3
0021400182,1610612762,UTA,Utah,202683,Enes Kanter,C,,19:49,90.7,104.6,-13.9,0.375,0.6,15.5,0.158,0.118,0.139,25.9,0.8,0.795,0.333,106.63,0.18,2014-11-21T00:00:00,11,1610612762,UTA,Utah,5-8,13,19,25,31,0,0,0,0,0,0,0,0,0,0,88,0.427,0.632,0.353,26,45,19,0021400182,1610612762,UTA,Utah,Enes Kanter,C,,19:49,5,1,2,12,12,0,18,28,0,0,1,2
0021400182,1610612762,UTA,Utah,202683,Enes Kanter,C,,19:49,90.7,104.6,-13.9,0.375,0.6,15.5,0.158,0.118,0.139,25.9,0.8,0.795,0.333,106.63,0.18,2014-11-21T00:00:00,11,1610612744,GSW,Golden State,9-2,28,26,31,16,0,0,0,0,0,0,0,0,0,0,101,0.5,0.684,0.261,28,40,13,0021400182,1610612762,UTA,Utah,Enes Kanter,C,,19:49,5,1,2,12,12,0,18,28,0,0,1,2
0021400182,1610612762,UTA,Utah,202692,Alec Burks,G,,25:10,72.2,113.0,-40.9,0.0,0.0,0.0,0.032,0.158,0.08,15.5,0.35,0.414,0.204,98.66,0.017,2014-11-21T00:00:00,11,1610612762,UTA,Utah,5-8,13,19,25,31,0,0,0,0,0,0,0,0,0,0,88,0.427,0.632,0.353,26,45,19,0021400182,1610612762,UTA,Utah,Alec Burks,G,,25:10,0,2,0,4,19,4,18,36,0,0,2,1
0021400182,1610612762,UTA,Utah,202692,Alec Burks,G,,25:10,72.2,113.0,-40.9,0.0,0.0,0.0,0.032,0.158,0.08,15.5,0.35,0.414,0.204,98.66,0.017,2014-11-21T00:00:00,11,1610612744,GSW,Golden State,9-2,28,26,31,16,0,0,0,0,0,0,0,0,0,0,101,0.5,0.684,0.261,28,40,13,0021400182,1610612762,UTA,Utah,Alec Burks,G,,25:10,0,2,0,4,19,4,18,36,0,0,2,1
0021400182,1610612762,UTA,Utah,203504,Trey Burke,G,,25:38,70.0,116.2,-46.2,0.417,1.67,31.3,0.0,0.167,0.064,18.8,0.125,0.125,0.192,99.7,0.0,2014-11-21T00:00:00,11,1610612762,UTA,Utah,5-8,13,19,25,31,0,0,0,0,0,0,0,0,0,0,88,0.427,0.632,0.353,26,45,19,0021400182,1610612762,UTA,Utah,Trey Burke,G,,25:38,2,0,0,0,19,4,18,40,0,0,1,1
0021400182,1610612762,UTA,Utah,203504,Trey Burke,G,,25:38,70.0,116.2,-46.2,0.417,1.67,31.3,0.0,0.167,0.064,18.8,0.125,0.125,0.192,99.7,0.0,2014-11-21T00:00:00,11,1610612744,GSW,Golden State,9-2,28,26,31,16,0,0,0,0,0,0,0,0,0,0,101,0.5,0.684,0.261,28,40,13,0021400182,1610612762,UTA,Utah,Trey Burke,G,,25:38,2,0,0,0,19,4,18,40,0,0,1,1
0021400182,1610612762,UTA,Utah,204060,Joe Ingles,,,24:21,98.0,107.9,-9.9,0.294,0.0,46.0,0.0,0.118,0.048,0.0,0.2,0.255,0.109,92.91,0.069,2014-11-21T00:00:00,11,1610612762,UTA,Utah,5-8,13,19,25,31,0,0,0,0,0,0,0,0,0,0,88,0.427,0.632,0.353,26,45,19,0021400182,1610612762,UTA,Utah,Joe Ingles,,,24:21,0,0,0,0,12,2,5,14,0,0,0,3
0021400182,1610612762,UTA,Utah,204060,Joe Ingles,,,24:21,98.0,107.9,-9.9,0.294,0.0,46.0,0.0,0.118,0.048,0.0,0.2,0.255,0.109,92.91,0.069,2014-11-21T00:00:00,11,1610612744,GSW,Golden State,9-2,28,26,31,16,0,0,0,0,0,0,0,0,0,0,101,0.5,0.684,0.261,28,40,13,0021400182,1610612762,UTA,Utah,Joe Ingles,,,24:21,0,0,0,0,12,2,5,14,0,0,0,3
0021400182,1610612762,UTA,Utah,202344,Trevor Booker,,,20:36,78.1,109.9,-31.7,0.0,0.0,0.0,0.045,0.077,0.057,17.0,0.25,0.307,0.118,95.44,0.024,2014-11-21T00:00:00,11,1610612762,UTA,Utah,5-8,13,19,25,31,0,0,0,0,0,0,0,0,0,0,88,0.427,0.632,0.353,26,45,19,0021400182,1610612762,UTA,Utah,Trevor Booker,,,20:36,0,0,2,2,16,2,5,18,0,0,0,2
0021400182,1610612762,UTA,Utah,202344,Trevor Booker,,,20:36,78.1,109.9,-31.7,0.0,0.0,0.0,0.045,0.077,0.057,17.0,0.25,0.307,0.118,95.44,0.024,2014-11-21T00:00:00,11,1610612744,GSW,Golden State,9-2,28,26,31,16,0,0,0,0,0,0,0,0,0,0,101,0.5,0.684,0.261,28,40,13,0021400182,1610612762,UTA,Utah,Trevor Booker,,,20:36,0,0,2,2,16,2,5,18,0,0,0,2
0021400182,1610612762,UTA,Utah,203957,Dante Exum,,,22:22,115.7,87.5,28.1,0.238,2.5,41.7,0.0,0.211,0.105,16.7,0.2,0.2,0.132,93.61,0.051,2014-11-21T00:00:00,11,1610612762,UTA,Utah,5-8,13,19,25,31,0,0,0,0,0,0,0,0,0,0,88,0.427,0.632,0.353,26,45,19,0021400182,1610612762,UTA,Utah,Dante Exum,,,22:22,0,0,0,2,9,0,3,6,0,0,2,0
0021400182,1610612762,UTA,Utah,203957,Dante Exum,,,22:22,115.7,87.5,28.1,0.238,2.5,41.7,0.0,0.211,0.105,16.7,0.2,0.2,0.132,93.61,0.051,2014-11-21T00:00:00,11,1610612744,GSW,Golden State,9-2,28,26,31,16,0,0,0,0,0,0,0,0,0,0,101,0.5,0.684,0.261,28,40,13,0021400182,1610612762,UTA,Utah,Dante Exum,,,22:22,0,0,0,2,9,0,3,6,0,0,2,0
0021400182,1610612762,UTA,Utah,203497,Rudy Gobert,,,17:39,112.6,86.1,26.5,0.1,0.5,9.6,0.231,0.154,0.192,19.2,0.857,0.806,0.244,91.32,0.214,2014-11-21T00:00:00,11,1610612762,UTA,Utah,5-8,13,19,25,31,0,0,0,0,0,0,0,0,0,0,88,0.427,0.632,0.353,26,45,19,0021400182,1610612762,UTA,Utah,Rudy Gobert,,,17:39,0,2,0,12,11,0,2,6,2,1,3,2
0021400182,1610612762,UTA,Utah,203497,Rudy Gobert,,,17:39,112.6,86.1,26.5,0.1,0.5,9.6,0.231,0.154,0.192,19.2,0.857,0.806,0.244,91.32,0.214,2014-11-21T00:00:00,11,1610612744,GSW,Golden State,9-2,28,26,31,16,0,0,0,0,0,0,0,0,0,0,101,0.5,0.684,0.261,28,40,13,0021400182,1610612762,UTA,Utah,Rudy Gobert,,,17:39,0,2,0,12,11,0,2,6,2,1,3,2
0021400182,1610612762,UTA,Utah,203546,Ian Clark,,,15:54,119.6,83.6,36.0,0.071,0.0,15.5,0.0,0.071,0.04,0.0,0.5,0.551,0.161,96.66,0.103,2014-11-21T00:00:00,11,1610612762,UTA,Utah,5-8,13,19,25,31,0,0,0,0,0,0,0,0,0,0,88,0.427,0.632,0.353,26,45,19,0021400182,1610612762,UTA,Utah,Ian Clark,,,15:54,6,3,0,2,5,0,3,4,0,2,2,1
0021400182,1610612762,UTA,Utah,203546,Ian Clark,,,15:54,119.6,83.6,36.0,0.071,0.0,15.5,0.0,0.071,0.04,0.0,0.5,0.551,0.161,96.66,0.103,2014-11-21T00:00:00,11,1610612744,GSW,Golden State,9-2,28,26,31,16,0,0,0,0,0,0,0,0,0,0,101,0.5,0.684,0.261,28,40,13,0021400182,1610612762,UTA,Utah,Ian Clark,,,15:54,6,3,0,2,5,0,3,4,0,2,2,1
0021400182,1610612762,UTA,Utah,200779,Steve Novak,,,16:59,119.5,91.9,27.6,0.167,0.0,28.6,0.0,0.2,0.103,0.0,0.9,0.9,0.144,92.25,0.127,2014-11-21T00:00:00,11,1610612762,UTA,Utah,5-8,13,19,25,31,0,0,0,0,0,0,0,0,0,0,88,0.427,0.632,0.353,26,45,19,0021400182,1610612762,UTA,Utah,Steve Novak,,,16:59,3,0,3,0,4,2,2,14,0,0,3,0
0021400182,1610612762,UTA,Utah,200779,Steve Novak,,,16:59,119.5,91.9,27.6,0.167,0.0,28.6,0.0,0.2,0.103,0.0,0.9,0.9,0.144,92.25,0.127,2014-11-21T00:00:00,11,1610612744,GSW,Golden State,9-2,28,26,31,16,0,0,0,0,0,0,0,0,0,0,101,0.5,0.684,0.261,28,40,13,0021400182,1610612762,UTA,Utah,Steve Novak,,,16:59,3,0,3,0,4,2,2,14,0,0,3,0
0021400182,1610612762,UTA,Utah,202379,Jeremy Evans,,,4:27,122.2,33.8,88.4,0.25,0.0,50.0,0.0,0.286,0.222,0.0,1.0,1.0,0.111,96.43,0.344,2014-11-21T00:00:00,11,1610612762,UTA,Utah,5-8,13,19,25,31,0,0,0,0,0,0,0,0,0,0,88,0.427,0.632,0.353,26,45,19,0021400182,1610612762,UTA,Utah,Jeremy Evans,,,4:27,0,0,0,2,0,0,0,0,1,0,0,0
0021400182,1610612762,UTA,Utah,202379,Jeremy Evans,,,4:27,122.2,33.8,88.4,0.25,0.0,50.0,0.0,0.286,0.222,0.0,1.0,1.0,0.111,96.43,0.344,2014-11-21T00:00:00,11,1610612744,GSW,Golden State,9-2,28,26,31,16,0,0,0,0,0,0,0,0,0,0,101,0.5,0.684,0.261,28,40,13,0021400182,1610612762,UTA,Utah,Jeremy Evans,,,4:27,0,0,0,2,0,0,0,0,1,0,0,0
0021400182,1610612744,GSW,Golden State,203084,Harrison Barnes,F,,39:41,102.0,96.6,5.4,0.036,0.5,6.0,0.094,0.229,0.164,12.0,0.364,0.513,0.183,97.42,0.107,2014-11-21T00:00:00,11,1610612762,UTA,Utah,5-8,13,19,25,31,0,0,0,0,0,0,0,0,0,0,88,0.427,0.632,0.353,26,45,19,0021400182,1610612744,GSW,Golden State,Harrison Barnes,F,,39:41,2,0,2,4,17,9,9,42,2,2,1,3
0021400182,1610612744,GSW,Golden State,203084,Harrison Barnes,F,,39:41,102.0,96.6,5.4,0.036,0.5,6.0,0.094,0.229,0.164,12.0,0.364,0.513,0.183,97.42,0.107,2014-11-21T00:00:00,11,1610612744,GSW,Golden State,9-2,28,26,31,16,0,0,0,0,0,0,0,0,0,0,101,0.5,0.684,0.261,28,40,13,0021400182,1610612744,GSW,Golden State,Harrison Barnes,F,,39:41,2,0,2,4,17,9,9,42,2,2,1,3
0021400182,1610612744,GSW,Golden State,203110,Draymond Green,F,,25:00,115.2,69.6,45.6,0.227,5.0,32.6,0.0,0.3,0.187,6.5,0.563,0.59,0.187,98.27,0.231,2014-11-21T00:00:00,11,1610612762,UTA,Utah,5-8,13,19,25,31,0,0,0,0,0,0,0,0,0,0,88,0.427,0.632,0.353,26,45,19,0021400182,1610612744,GSW,Golden State,Draymond Green,F,,25:00,5,0,4,6,9,7,2,16,0,0,2,2
0021400182,1610612744,GSW,Golden State,203110,Draymond Green,F,,25:00,115.2,69.6,45.6,0.227,5.0,32.6,0.0,0.3,0.187,6.5,0.563,0.59,0.187,98.27,0.231,2014-11-21T00:00:00,11,1610612744,GSW,Golden State,9-2,28,26,31,16,0,0,0,0,0,0,0,0,0,0,101,0.5,0.684,0.261,28,40,13,0021400182,1610612744,GSW,Golden State,Draymond Green,F,,25:00,5,0,4,6,9,7,2,16,0,0,2,2
0021400182,1610612744,GSW,Golden State,101106,Andrew Bogut,C,,19:58,113.4,64.2,49.3,0.133,0.0,20.0,0.063,0.136,0.105,0.0,0.75,0.75,0.173,100.6,0.183,2014-11-21T00:00:00,11,1610612762,UTA,Utah,5-8,13,19,25,31,0,0,0,0,0,0,0,0,0,0,88,0.427,0.632,0.353,26,45,19,0021400182,1610612744,GSW,Golden State,Andrew Bogut,C,,19:58,4,2,2,12,7,3,0,10,1,0,3,0
0021400182,1610612744,GSW,Golden State,101106,Andrew Bogut,C,,19:58,113.4,64.2,49.3,0.133,0.0,20.0,0.063,0.136,0.105,0.0,0.75,0.75,0.173,100.6,0.183,2014-11-21T00:00:00,11,1610612744,GSW,Golden State,9-2,28,26,31,16,0,0,0,0,0,0,0,0,0,0,101,0.5,0.684,0.261,28,40,13,0021400182,1610612744,GSW,Golden State,Andrew Bogut,C,,19:58,4,2,2,12,7,3,0,10,1,0,3,0
0021400182,1610612744,GSW,Golden State,202691,Klay Thompson,G,,22:55,113.8,67.3,46.5,0.105,0.0,14.4,0.0,0.038,0.024,0.0,0.591,0.589,0.228,102.21,0.14,2014-11-21T00:00:00,11,1610612762,UTA,Utah,5-8,13,19,25,31,0,0,0,0,0,0,0,0,0,0,88,0.427,0.632,0.353,26,45,19,0021400182,1610612744,GSW,Golden State,Klay Thompson,G,,22:55,6,0,3,6,9,5,2,16,0,0,1,1
0021400182,1610612744,GSW,Golden State,202691,Klay Thompson,G,,22:55,113.8,67.3,46.5,0.105,0.0,14.4,0.0,0.038,0.024,0.0,0.591,0.589,0.228,102.21,0.14,2014-11-21T00:00:00,11,1610612744,GSW,Golden State,9-2,28,26,31,16,0,0,0,0,0,0,0,0,0,0,101,0.5,0.684,0.261,28,40,13,0021400182,1610612744,GSW,Golden State,Klay Thompson,G,,22:55,6,0,3,6,9,5,2,16,0,0,1,1
0021400182,1610612744,GSW,Golden State,201939,Stephen Curry,G,,24:30,109.6,65.5,44.2,0.476,2.5,43.5,0.0,0.167,0.104,17.4,0.444,0.444,0.245,99.41,0.164,2014-11-21T00:00:00,11,1610612762,UTA,Utah,5-8,13,19,25,31,0,0,0,0,0,0,0,0,0,0,88,0.427,0.632,0.353,26,45,19,0021400182,1610612744,GSW,Golden State,Stephen Curry,G,,24:30,0,0,5,2,9,7,2,16,0,0,2,2
0021400182,1610612744,GSW,Golden State,201939,Stephen Curry,G,,24:30,109.6,65.5,44.2,0.476,2.5,43.5,0.0,0.167,0.104,17.4,0.444,0.444,0.245,99.41,0.164,2014-11-21T00:00:00,11,1610612744,GSW,Golden State,9-2,28,26,31,16,0,0,0,0,0,0,0,0,0,0,101,0.5,0.684,0.261,28,40,13,0021400182,1610612744,GSW,Golden State,Stephen Curry,G,,24:30,0,0,5,2,9,7,2,16,0,0,2,2
0021400182,1610612744,GSW,Golden State,2738,Andre Iguodala,,,24:42,107.0,87.0,20.0,0.067,0.5,8.4,0.0,0.103,0.067,16.8,1.0,0.957,0.211,95.03,0.211,2014-11-21T00:00:00,11,1610612762,UTA,Utah,5-8,13,19,25,31,0,0,0,0,0,0,0,0,0,0,88,0.427,0.632,0.353,26,45,19,0021400182,1610612744,GSW,Golden State,Andre Iguodala,,,24:42,7,0,4,2,9,12,11,24,0,0,0,1
0021400182,1610612744,GSW,Golden State,2738,Andre Iguodala,,,24:42,107.0,87.0,20.0,0.067,0.5,8.4,0.0,0.103,0.067,16.8,1.0,0.957,0.211,95.03,0.211,2014-11-21T00:00:00,11,1610612744,GSW,Golden State,9-2,28,26,31,16,0,0,0,0,0,0,0,0,0,0,101,0.5,0.684,0.261,28,40,13,0021400182,1610612744,GSW,Golden State,Andre Iguodala,,,24:42,7,0,4,2,9,12,11,24,0,0,0,1
0021400182,1610612744,GSW,Golden State,2571,Leandro Barbosa,,,17:02,104.3,108.0,-3.7,0.091,1.0,14.3,0.077,0.0,0.033,14.3,0.4,0.4,0.178,90.23,0.026,2014-11-21T00:00:00,11,1610612762,UTA,Utah,5-8,13,19,25,31,0,0,0,0,0,0,0,0,0,0,88,0.427,0.632,0.353,26,45,19,0021400182,1610612744,GSW,Golden State,Leandro Barbosa,,,17:02,2,2,0,4,6,9,9,18,0,0,2,0
0021400182,1610612744,GSW,Golden State,2571,Leandro Barbosa,,,17:02,104.3,108.0,-3.7,0.091,1.0,14.3,0.077,0.0,0.033,14.3,0.4,0.4,0.178,90.23,0.026,2014-11-21T00:00:00,11,1610612744,GSW,Golden State,9-2,28,26,31,16,0,0,0,0,0,0,0,0,0,0,101,0.5,0.684,0.261,28,40,13,0021400182,1610612744,GSW,Golden State,Leandro Barbosa,,,17:02,2,2,0,4,6,9,9,18,0,0,2,0
0021400182,1610612744,GSW,Golden State,201578,Marreese Speights,,,16:02,114.2,97.0,17.2,0.111,1.0,7.8,0.0,0.0,0.0,7.8,0.667,0.651,0.373,95.06,0.099,2014-11-21T00:00:00,11,1610612762,UTA,Utah,5-8,13,19,25,31,0,0,0,0,0,0,0,0,0,0,88,0.427,0.632,0.353,26,45,19,0021400182,1610612744,GSW,Golden State,Marreese Speights,,,16:02,2,0,1,6,2,6,8,20,0,0,3,3
0021400182,1610612744,GSW,Golden State,201578,Marreese Speights,,,16:02,114.2,97.0,17.2,0.111,1.0,7.8,0.0,0.0,0.0,7.8,0.667,0.651,0.373,95.06,0.099,2014-11-21T00:00:00,11,1610612744,GSW,Golden State,9-2,28,26,31,16,0,0,0,0,0,0,0,0,0,0,101,0.5,0.684,0.261,28,40,13,0021400182,1610612744,GSW,Golden State,Marreese Speights,,,16:02,2,0,1,6,2,6,8,20,0,0,3,3
0021400182,1610612744,GSW,Golden State,2733,Shaun Livingston,,,23:30,97.2,119.7,-22.4,0.286,4.0,36.4,0.0,0.167,0.081,9.1,0.5,0.5,0.139,94.2,0.072,2014-11-21T00:00:00,11,1610612762,UTA,Utah,5-8,13,19,25,31,0,0,0,0,0,0,0,0,0,0,88,0.427,0.632,0.353,26,45,19,0021400182,1610612744,GSW,Golden State,Shaun Livingston,,,23:30,0,0,0,4,11,7,9,32,0,1,2,2
0021400182,1610612744,GSW,Golden State,2733,Shaun Livingston,,,23:30,97.2,119.7,-22.4,0.286,4.0,36.4,0.0,0.167,0.081,9.1,0.5,0.5,0.139,94.2,0.072,2014-11-21T00:00:00,11,1610612744,GSW,Golden State,9-2,28,26,31,16,0,0,0,0,0,0,0,0,0,0,101,0.5,0.684,0.261,28,40,13,0021400182,1610612744,GSW,Golden State,Shaun Livingston,,,23:30,0,0,0,4,11,7,9,32,0,1,2,2
0021400182,1610612744,GSW,Golden State,203105,Festus Ezeli,,,7:33,94.5,134.4,-39.9,0.25,0.0,50.0,0.0,0.167,0.091,0.0,0.0,0.0,0.068,91.04,0.017,2014-11-21T00:00:00,11,1610612762,UTA,Utah,5-8,13,19,25,31,0,0,0,0,0,0,0,0,0,0,88,0.427,0.632,0.353,26,45,19,0021400182,1610612744,GSW,Golden State,Festus Ezeli,,,7:33,0,0,0,0,9,5,3,10,1,0,1,1
0021400182,1610612744,GSW,Golden State,203105,Festus Ezeli,,,7:33,94.5,134.4,-39.9,0.25,0.0,50.0,0.0,0.167,0.091,0.0,0.0,0.0,0.068,91.04,0.017,2014-11-21T00:00:00,11,1610612744,GSW,Golden State,9-2,28,26,31,16,0,0,0,0,0,0,0,0,0,0,101,0.5,0.684,0.261,28,40,13,0021400182,1610612744,GSW,Golden State,Festus Ezeli,,,7:33,0,0,0,0,9,5,3,10,1,0,1,1
0021400182,1610612744,GSW,Golden State,201575,Brandon Rush,,,8:03,70.3,127.7,-57.4,0.0,0.0,0.0,0.0,0.2,0.071,0.0,0.0,0.0,0.113,95.64,-0.044,2014-11-21T00:00:00,11,1610612762,UTA,Utah,5-8,13,19,25,31,0,0,0,0,0,0,0,0,0,0,88,0.427,0.632,0.353,26,45,19,0021400182,1610612744,GSW,Golden State,Brandon Rush,,,8:03,0,0,0,0,5,0,0,14,1,1,1,0
0021400182,1610612744,GSW,Golden State,201575,Brandon Rush,,,8:03,70.3,127.7,-57.4,0.0,0.0,0.0,0.0,0.2,0.071,0.0,0.0,0.0,0.113,95.64,-0.044,2014-11-21T00:00:00,11,1610612744,GSW,Golden State,9-2,28,26,31,16,0,0,0,0,0,0,0,0,0,0,101,0.5,0.684,0.261,28,40,13,0021400182,1610612744,GSW,Golden State,Brandon Rush,,,8:03,0,0,0,0,5,0,0,14,1,1,1,0
0021400182,1610612744,GSW,Golden State,203200,Justin Holiday,,,6:37,54.9,156.3,-101.4,0.0,0.0,0.0,0.0,0.0,0.0,20.5,0.0,0.129,0.331,95.03,-0.123,2014-11-21T00:00:00,11,1610612762,UTA,Utah,5-8,13,19,25,31,0,0,0,0,0,0,0,0,0,0,88,0.427,0.632,0.353,26,45,19,0021400182,1610612744,GSW,Golden State,Justin Holiday,,,6:37,0,0,0,0,5,0,0,14,0,1,0,1
0021400182,1610612744,GSW,Golden State,203200,Justin Holiday,,,6:37,54.9,156.3,-101.4,0.0,0.0,0.0,0.0,0.0,0.0,20.5,0.0,0.129,0.331,95.03,-0.123,2014-11-21T00:00:00,11,1610612744,GSW,Golden State,9-2,28,26,31,16,0,0,0,0,0,0,0,0,0,0,101,0.5,0.684,0.261,28,40,13,0021400182,1610612744,GSW,Golden State,Justin Holiday,,,6:37,0,0,0,0,5,0,0,14,0,1,0,1
0021400182,1610612744,GSW,Golden State,203136,Ognjen Kuzmic,,,4:27,33.8,122.2,-88.4,0.0,0.0,0.0,0.143,0.0,0.111,0.0,0.0,0.0,0.092,96.43,-0.031,2014-11-21T00:00:00,11,1610612762,UTA,Utah,5-8,13,19,25,31,0,0,0,0,0,0,0,0,0,0,88,0.427,0.632,0.353,26,45,19,0021400182,1610612744,GSW,Golden State,Ognjen Kuzmic,,,4:27,0,0,0,0,2,0,0,8,0,0,0,0
0021400182,1610612744,GSW,Golden State,203136,Ognjen Kuzmic,,,4:27,33.8,122.2,-88.4,0.0,0.0,0.0,0.143,0.0,0.111,0.0,0.0,0.0,0.092,96.43,-0.031,2014-11-21T00:00:00,11,1610612744,GSW,Golden State,9-2,28,26,31,16,0,0,0,0,0,0,0,0,0,0,101,0.5,0.684,0.261,28,40,13,0021400182,1610612744,GSW,Golden State,Ognjen Kuzmic,,,4:27,0,0,0,0,2,0,0,8,0,0,0,0
