GAME_ID_x,TEAM_ID_x,TEAM_ABBREVIATION_x,TEAM_CITY_x,PLAYER_ID,PLAYER_NAME_x,START_POSITION_x,COMMENT_x,MIN_x,OFF_RATING,DEF_RATING,NET_RATING,AST_PCT,AST_TOV,AST_RATIO,OREB_PCT,DREB_PCT,REB_PCT,TM_TOV_PCT,EFG_PCT,TS_PCT,USG_PCT,PACE,PIE,GAME_DATE_EST,GAME_SEQUENCE,TEAM_ID_y,TEAM_ABBREVIATION_y,TEAM_CITY_NAME,TEAM_WINS_LOSSES,PTS_QTR1,PTS_QTR2,PTS_QTR3,PTS_QTR4,PTS_OT1,PTS_OT2,PTS_OT3,PTS_OT4,PTS_OT5,PTS_OT6,PTS_OT7,PTS_OT8,PTS_OT9,PTS_OT10,PTS,FG_PCT,FT_PCT,FG3_PCT,AST,REB,TOV,GAME_ID_y,TEAM_ID,TEAM_ABBREVIATION,TEAM_CITY_y,PLAYER_NAME_y,START_POSITION_y,COMMENT_y,MIN_y,PTS_OFF_TOV,PTS_2ND_CHANCE,PTS_FB,PTS_PAINT,OPP_PTS_OFF_TOV,OPP_PTS_2ND_CHANCE,OPP_PTS_FB,OPP_PTS_PAINT,BLK,BLKA,PF,PFD
0021400191,1610612751,BKN,Brooklyn,2207,Joe Johnson,F,,35:16,92.1,92.8,-0.7,0.25,5.0,22.7,0.05,0.077,0.061,4.5,0.375,0.375,0.223,91.98,0.052,2014-11-22T00:00:00,8,1610612751,BKN,Brooklyn,5-8,18,18,28,23,0,0,0,0,0,0,0,0,0,0,87,0.374,1.0,0.333,24,44,11,0021400191,1610612751,BKN,Brooklyn,Joe Johnson,F,,35:16,2.0,0.0,0.0,2.0,4.0,2.0,10.0,42.0,1.0,0.0,2.0,0.0
0021400191,1610612751,BKN,Brooklyn,2207,Joe Johnson,F,,35:16,92.1,92.8,-0.7,0.25,5.0,22.7,0.05,0.077,0.061,4.5,0.375,0.375,0.223,91.98,0.052,2014-11-22T00:00:00,8,1610612759,SAS,San Antonio,9-4,25,26,28,20,0,0,0,0,0,0,0,0,0,0,99,0.519,0.818,0.381,29,48,14,0021400191,1610612751,BKN,Brooklyn,Joe Johnson,F,,35:16,2.0,0.0,0.0,2.0,4.0,2.0,10.0,42.0,1.0,0.0,2.0,0.0
0021400191,1610612751,BKN,Brooklyn,203141,Mirza Teletovic,F,,34:05,90.8,103.6,-12.8,0.059,0.33,5.3,0.025,0.292,0.125,15.9,0.714,0.739,0.229,93.54,0.158,2014-11-22T00:00:00,8,1610612751,BKN,Brooklyn,5-8,18,18,28,23,0,0,0,0,0,0,0,0,0,0,87,0.374,1.0,0.333,24,44,11,0021400191,1610612751,BKN,Brooklyn,Mirza Teletovic,F,,34:05,3.0,2.0,3.0,6.0,7.0,2.0,7.0,40.0,0.0,0.0,1.0,2.0
0021400191,1610612751,BKN,Brooklyn,203141,Mirza Teletovic,F,,34:05,90.8,103.6,-12.8,0.059,0.33,5.3,0.025,0.292,0.125,15.9,0.714,0.739,0.229,93.54,0.158,2014-11-22T00:00:00,8,1610612759,SAS,San Antonio,9-4,25,26,28,20,0,0,0,0,0,0,0,0,0,0,99,0.519,0.818,0.381,29,48,14,0021400191,1610612751,BKN,Brooklyn,Mirza Teletovic,F,,34:05,3.0,2.0,3.0,6.0,7.0,2.0,7.0,40.0,0.0,0.0,1.0,2.0
0021400191,1610612751,BKN,Brooklyn,201572,Brook Lopez,C,,25:18,86.6,113.8,-27.2,0.083,0.5,9.1,0.103,0.048,0.08,18.2,0.375,0.375,0.181,90.5,0.0,2014-11-22T00:00:00,8,1610612751,BKN,Brooklyn,5-8,18,18,28,23,0,0,0,0,0,0,0,0,0,0,87,0.374,1.0,0.333,24,44,11,0021400191,1610612751,BKN,Brooklyn,Brook Lopez,C,,25:18,2.0,2.0,0.0,6.0,8.0,2.0,7.0,32.0,1.0,0.0,3.0,0.0
0021400191,1610612751,BKN,Brooklyn,201572,Brook Lopez,C,,25:18,86.6,113.8,-27.2,0.083,0.5,9.1,0.103,0.048,0.08,18.2,0.375,0.375,0.181,90.5,0.0,2014-11-22T00:00:00,8,1610612759,SAS,San Antonio,9-4,25,26,28,20,0,0,0,0,0,0,0,0,0,0,99,0.519,0.818,0.381,29,48,14,0021400191,1610612751,BKN,Brooklyn,Brook Lopez,C,,25:18,2.0,2.0,0.0,6.0,8.0,2.0,7.0,32.0,1.0,0.0,3.0,0.0
0021400191,1610612751,BKN,Brooklyn,202711,Bojan Bogdanovic,G,,24:27,88.3,131.5,-43.2,0.063,0.0,11.3,0.0,0.133,0.044,0.0,0.0,0.127,0.145,89.29,-0.019,2014-11-22T00:00:00,8,1610612751,BKN,Brooklyn,5-8,18,18,28,23,0,0,0,0,0,0,0,0,0,0,87,0.374,1.0,0.333,24,44,11,0021400191,1610612751,BKN,Brooklyn,Bojan Bogdanovic,G,,24:27,0.0,2.0,0.0,0.0,4.0,2.0,5.0,34.0,0.0,1.0,0.0,1.0
0021400191,1610612751,BKN,Brooklyn,202711,Bojan Bogdanovic,G,,24:27,88.3,131.5,-43.2,0.063,0.0,11.3,0.0,0.133,0.044,0.0,0.0,0.127,0.145,89.29,-0.019,2014-11-22T00:00:00,8,1610612759,SAS,San Antonio,9-4,25,26,28,20,0,0,0,0,0,0,0,0,0,0,99,0.519,0.818,0.381,29,48,14,0021400191,1610612751,BKN,Brooklyn,Bojan Bogdanovic,G,,24:27,0.0,2.0,0.0,0.0,4.0,2.0,5.0,34.0,0.0,1.0,0.0,1.0
0021400191,1610612751,BKN,Brooklyn,101114,Deron Williams,G,,36:47,85.1,92.3,-7.2,0.5,2.33,22.0,0.023,0.138,0.069,9.4,0.524,0.548,0.305,92.68,0.166,2014-11-22T00:00:00,8,1610612751,BKN,Brooklyn,5-8,18,18,28,23,0,0,0,0,0,0,0,0,0,0,87,0.374,1.0,0.333,24,44,11,0021400191,1610612751,BKN,Brooklyn,Deron Williams,G,,36:47,6.0,0.0,8.0,10.0,9.0,2.0,10.0,42.0,2.0,1.0,3.0,2.0
0021400191,1610612751,BKN,Brooklyn,101114,Deron Williams,G,,36:47,85.1,92.3,-7.2,0.5,2.33,22.0,0.023,0.138,0.069,9.4,0.524,0.548,0.305,92.68,0.166,2014-11-22T00:00:00,8,1610612759,SAS,San Antonio,9-4,25,26,28,20,0,0,0,0,0,0,0,0,0,0,99,0.519,0.818,0.381,29,48,14,0021400191,1610612751,BKN,Brooklyn,Deron Williams,G,,36:47,6.0,0.0,8.0,10.0,9.0,2.0,10.0,42.0,2.0,1.0,3.0,2.0
0021400191,1610612751,BKN,Brooklyn,202366,Jerome Jordan,,,13:17,91.3,89.7,1.6,0.0,0.0,0.0,0.0,0.455,0.192,0.0,0.667,0.727,0.105,107.76,0.154,2014-11-22T00:00:00,8,1610612751,BKN,Brooklyn,5-8,18,18,28,23,0,0,0,0,0,0,0,0,0,0,87,0.374,1.0,0.333,24,44,11,0021400191,1610612751,BKN,Brooklyn,Jerome Jordan,,,13:17,0.0,3.0,0.0,4.0,3.0,0.0,6.0,14.0,0.0,1.0,0.0,1.0
0021400191,1610612751,BKN,Brooklyn,202366,Jerome Jordan,,,13:17,91.3,89.7,1.6,0.0,0.0,0.0,0.0,0.455,0.192,0.0,0.667,0.727,0.105,107.76,0.154,2014-11-22T00:00:00,8,1610612759,SAS,San Antonio,9-4,25,26,28,20,0,0,0,0,0,0,0,0,0,0,99,0.519,0.818,0.381,29,48,14,0021400191,1610612751,BKN,Brooklyn,Jerome Jordan,,,13:17,0.0,3.0,0.0,4.0,3.0,0.0,6.0,14.0,0.0,1.0,0.0,1.0
0021400191,1610612751,BKN,Brooklyn,101127,Jarrett Jack,,,25:09,92.1,112.5,-20.4,0.294,2.5,33.6,0.034,0.227,0.118,13.4,0.286,0.381,0.167,98.25,0.093,2014-11-22T00:00:00,8,1610612751,BKN,Brooklyn,5-8,18,18,28,23,0,0,0,0,0,0,0,0,0,0,87,0.374,1.0,0.333,24,44,11,0021400191,1610612751,BKN,Brooklyn,Jarrett Jack,,,25:09,0.0,2.0,0.0,2.0,9.0,0.0,11.0,28.0,1.0,2.0,1.0,1.0
0021400191,1610612751,BKN,Brooklyn,101127,Jarrett Jack,,,25:09,92.1,112.5,-20.4,0.294,2.5,33.6,0.034,0.227,0.118,13.4,0.286,0.381,0.167,98.25,0.093,2014-11-22T00:00:00,8,1610612759,SAS,San Antonio,9-4,25,26,28,20,0,0,0,0,0,0,0,0,0,0,99,0.519,0.818,0.381,29,48,14,0021400191,1610612751,BKN,Brooklyn,Jarrett Jack,,,25:09,0.0,2.0,0.0,2.0,9.0,0.0,11.0,28.0,1.0,2.0,1.0,1.0
0021400191,1610612751,BKN,Brooklyn,101187,Alan Anderson,,,21:46,86.8,120.6,-33.8,0.0,0.0,0.0,0.154,0.188,0.167,0.0,0.167,0.167,0.123,91.82,0.033,2014-11-22T00:00:00,8,1610612751,BKN,Brooklyn,5-8,18,18,28,23,0,0,0,0,0,0,0,0,0,0,87,0.374,1.0,0.333,24,44,11,0021400191,1610612751,BKN,Brooklyn,Alan Anderson,,,21:46,0.0,0.0,0.0,2.0,7.0,0.0,7.0,24.0,0.0,2.0,1.0,0.0
0021400191,1610612751,BKN,Brooklyn,101187,Alan Anderson,,,21:46,86.8,120.6,-33.8,0.0,0.0,0.0,0.154,0.188,0.167,0.0,0.167,0.167,0.123,91.82,0.033,2014-11-22T00:00:00,8,1610612759,SAS,San Antonio,9-4,25,26,28,20,0,0,0,0,0,0,0,0,0,0,99,0.519,0.818,0.381,29,48,14,0021400191,1610612751,BKN,Brooklyn,Alan Anderson,,,21:46,0.0,0.0,0.0,2.0,7.0,0.0,7.0,24.0,0.0,2.0,1.0,0.0
0021400191,1610612751,BKN,Brooklyn,203486,Mason Plumlee,,,8:09,97.9,144.1,-46.2,0.0,0.0,0.0,0.111,0.0,0.063,0.0,0.25,0.338,0.256,85.99,-0.013,2014-11-22T00:00:00,8,1610612751,BKN,Brooklyn,5-8,18,18,28,23,0,0,0,0,0,0,0,0,0,0,87,0.374,1.0,0.333,24,44,11,0021400191,1610612751,BKN,Brooklyn,Mason Plumlee,,,8:09,0.0,0.0,0.0,2.0,4.0,0.0,2.0,6.0,0.0,2.0,1.0,1.0
0021400191,1610612751,BKN,Brooklyn,203486,Mason Plumlee,,,8:09,97.9,144.1,-46.2,0.0,0.0,0.0,0.111,0.0,0.063,0.0,0.25,0.338,0.256,85.99,-0.013,2014-11-22T00:00:00,8,1610612759,SAS,San Antonio,9-4,25,26,28,20,0,0,0,0,0,0,0,0,0,0,99,0.519,0.818,0.381,29,48,14,0021400191,1610612751,BKN,Brooklyn,Mason Plumlee,,,8:09,0.0,0.0,0.0,2.0,4.0,0.0,2.0,6.0,0.0,2.0,1.0,1.0
0021400191,1610612751,BKN,Brooklyn,203928,Cory Jefferson,,,8:16,109.7,90.1,19.6,0.167,0.0,33.3,0.0,0.0,0.0,0.0,0.5,0.5,0.115,101.85,0.026,2014-11-22T00:00:00,8,1610612751,BKN,Brooklyn,5-8,18,18,28,23,0,0,0,0,0,0,0,0,0,0,87,0.374,1.0,0.333,24,44,11,0021400191,1610612751,BKN,Brooklyn,Cory Jefferson,,,8:16,0.0,0.0,0.0,0.0,0.0,0.0,5.0,8.0,0.0,0.0,1.0,0.0
0021400191,1610612751,BKN,Brooklyn,203928,Cory Jefferson,,,8:16,109.7,90.1,19.6,0.167,0.0,33.3,0.0,0.0,0.0,0.0,0.5,0.5,0.115,101.85,0.026,2014-11-22T00:00:00,8,1610612759,SAS,San Antonio,9-4,25,26,28,20,0,0,0,0,0,0,0,0,0,0,99,0.519,0.818,0.381,29,48,14,0021400191,1610612751,BKN,Brooklyn,Cory Jefferson,,,8:16,0.0,0.0,0.0,0.0,0.0,0.0,5.0,8.0,0.0,0.0,1.0,0.0
0021400191,1610612751,BKN,Brooklyn,203900,Markel Brown,,,2:30,147.1,112.6,34.4,0.0,0.0,0.0,0.0,0.0,0.0,0.0,0.75,0.75,0.368,94.85,0.143,2014-11-22T00:00:00,8,1610612751,BKN,Brooklyn,5-8,18,18,28,23,0,0,0,0,0,0,0,0,0,0,87,0.374,1.0,0.333,24,44,11,0021400191,1610612751,BKN,Brooklyn,Markel Brown,,,2:30,0.0,0.0,0.0,0.0,0.0,0.0,0.0,0.0,0.0,0.0,0.0,0.0
0021400191,1610612751,BKN,Brooklyn,203900,Markel Brown,,,2:30,147.1,112.6,34.4,0.0,0.0,0.0,0.0,0.0,0.0,0.0,0.75,0.75,0.368,94.85,0.143,2014-11-22T00:00:00,8,1610612759,SAS,San Antonio,9-4,25,26,28,20,0,0,0,0,0,0,0,0,0,0,99,0.519,0.818,0.381,29,48,14,0021400191,1610612751,BKN,Brooklyn,Markel Brown,,,2:30,0.0,0.0,0.0,0.0,0.0,0.0,0.0,0.0,0.0,0.0,0.0,0.0
0021400191,1610612751,BKN,Brooklyn,203508,Sergey Karasev,,,2:30,147.1,112.6,34.4,0.667,0.0,66.7,0.0,0.0,0.0,0.0,0.0,0.0,0.184,94.85,0.0,2014-11-22T00:00:00,8,1610612751,BKN,Brooklyn,5-8,18,18,28,23,0,0,0,0,0,0,0,0,0,0,87,0.374,1.0,0.333,24,44,11,0021400191,1610612751,BKN,Brooklyn,Sergey Karasev,,,2:30,0.0,0.0,0.0,0.0,0.0,0.0,0.0,0.0,0.0,0.0,1.0,0.0
0021400191,1610612751,BKN,Brooklyn,203508,Sergey Karasev,,,2:30,147.1,112.6,34.4,0.667,0.0,66.7,0.0,0.0,0.0,0.0,0.0,0.0,0.184,94.85,0.0,2014-11-22T00:00:00,8,1610612759,SAS,San Antonio,9-4,25,26,28,20,0,0,0,0,0,0,0,0,0,0,99,0.519,0.818,0.381,29,48,14,0021400191,1610612751,BKN,Brooklyn,Sergey Karasev,,,2:30,0.0,0.0,0.0,0.0,0.0,0.0,0.0,0.0,0.0,0.0,1.0,0.0
0021400191,1610612751,BKN,Brooklyn,203268,Jorge Gutierrez,,,2:30,147.1,112.6,34.4,0.333,0.0,100.0,0.0,1.0,0.5,0.0,0.0,0.0,0.0,94.85,0.214,2014-11-22T00:00:00,8,1610612751,BKN,Brooklyn,5-8,18,18,28,23,0,0,0,0,0,0,0,0,0,0,87,0.374,1.0,0.333,24,44,11,0021400191,1610612751,BKN,Brooklyn,Jorge Gutierrez,,,2:30,0.0,0.0,0.0,0.0,0.0,0.0,0.0,0.0,0.0,0.0,0.0,1.0
0021400191,1610612751,BKN,Brooklyn,203268,Jorge Gutierrez,,,2:30,147.1,112.6,34.4,0.333,0.0,100.0,0.0,1.0,0.5,0.0,0.0,0.0,0.0,94.85,0.214,2014-11-22T00:00:00,8,1610612759,SAS,San Antonio,9-4,25,26,28,20,0,0,0,0,0,0,0,0,0,0,99,0.519,0.818,0.381,29,48,14,0021400191,1610612751,BKN,Brooklyn,Jorge Gutierrez,,,2:30,0.0,0.0,0.0,0.0,0.0,0.0,0.0,0.0,0.0,0.0,0.0,1.0
0021400191,1610612759,SAS,San Antonio,202695,Kawhi Leonard,F,,36:16,96.6,89.4,7.2,0.05,0.25,3.9,0.037,0.19,0.13,15.5,0.474,0.506,0.333,92.38,0.125,2014-11-22T00:00:00,8,1610612751,BKN,Brooklyn,5-8,18,18,28,23,0,0,0,0,0,0,0,0,0,0,87,0.374,1.0,0.333,24,44,11,0021400191,1610612759,SAS,San Antonio,Kawhi Leonard,F,,36:16,2.0,0.0,8.0,12.0,13.0,8.0,11.0,26.0,0.0,1.0,0.0,3.0
0021400191,1610612759,SAS,San Antonio,202695,Kawhi Leonard,F,,36:16,96.6,89.4,7.2,0.05,0.25,3.9,0.037,0.19,0.13,15.5,0.474,0.506,0.333,92.38,0.125,2014-11-22T00:00:00,8,1610612759,SAS,San Antonio,9-4,25,26,28,20,0,0,0,0,0,0,0,0,0,0,99,0.519,0.818,0.381,29,48,14,0021400191,1610612759,SAS,San Antonio,Kawhi Leonard,F,,36:16,2.0,0.0,8.0,12.0,13.0,8.0,11.0,26.0,0.0,1.0,0.0,3.0
0021400191,1610612759,SAS,San Antonio,1495,Tim Duncan,F,,25:19,109.8,89.2,20.5,0.35,0.0,54.3,0.143,0.241,0.2,0.0,0.6,0.595,0.111,92.33,0.221,2014-11-22T00:00:00,8,1610612751,BKN,Brooklyn,5-8,18,18,28,23,0,0,0,0,0,0,0,0,0,0,87,0.374,1.0,0.333,24,44,11,0021400191,1610612759,SAS,San Antonio,Tim Duncan,F,,25:19,0.0,2.0,0.0,4.0,5.0,6.0,7.0,12.0,4.0,0.0,1.0,2.0
0021400191,1610612759,SAS,San Antonio,1495,Tim Duncan,F,,25:19,109.8,89.2,20.5,0.35,0.0,54.3,0.143,0.241,0.2,0.0,0.6,0.595,0.111,92.33,0.221,2014-11-22T00:00:00,8,1610612759,SAS,San Antonio,9-4,25,26,28,20,0,0,0,0,0,0,0,0,0,0,99,0.519,0.818,0.381,29,48,14,0021400191,1610612759,SAS,San Antonio,Tim Duncan,F,,25:19,0.0,2.0,0.0,4.0,5.0,6.0,7.0,12.0,4.0,0.0,1.0,2.0
0021400191,1610612759,SAS,San Antonio,2564,Boris Diaw,C,,33:01,101.4,88.6,12.8,0.13,3.0,23.1,0.0,0.077,0.048,7.7,0.556,0.556,0.147,93.25,0.074,2014-11-22T00:00:00,8,1610612751,BKN,Brooklyn,5-8,18,18,28,23,0,0,0,0,0,0,0,0,0,0,87,0.374,1.0,0.333,24,44,11,0021400191,1610612759,SAS,San Antonio,Boris Diaw,C,,33:01,0.0,0.0,0.0,10.0,11.0,11.0,7.0,26.0,0.0,1.0,2.0,1.0
0021400191,1610612759,SAS,San Antonio,2564,Boris Diaw,C,,33:01,101.4,88.6,12.8,0.13,3.0,23.1,0.0,0.077,0.048,7.7,0.556,0.556,0.147,93.25,0.074,2014-11-22T00:00:00,8,1610612759,SAS,San Antonio,9-4,25,26,28,20,0,0,0,0,0,0,0,0,0,0,99,0.519,0.818,0.381,29,48,14,0021400191,1610612759,SAS,San Antonio,Boris Diaw,C,,33:01,0.0,0.0,0.0,10.0,11.0,11.0,7.0,26.0,0.0,1.0,2.0,1.0
0021400191,1610612759,SAS,San Antonio,201158,Marco Belinelli,G,,10:28,114.9,75.5,39.5,0.273,0.0,60.0,0.0,0.3,0.15,0.0,0.0,0.0,0.084,93.46,0.085,2014-11-22T00:00:00,8,1610612751,BKN,Brooklyn,5-8,18,18,28,23,0,0,0,0,0,0,0,0,0,0,87,0.374,1.0,0.333,24,44,11,0021400191,1610612759,SAS,San Antonio,Marco Belinelli,G,,10:28,0.0,0.0,0.0,0.0,0.0,2.0,2.0,6.0,0.0,0.0,1.0,1.0
0021400191,1610612759,SAS,San Antonio,201158,Marco Belinelli,G,,10:28,114.9,75.5,39.5,0.273,0.0,60.0,0.0,0.3,0.15,0.0,0.0,0.0,0.084,93.46,0.085,2014-11-22T00:00:00,8,1610612759,SAS,San Antonio,9-4,25,26,28,20,0,0,0,0,0,0,0,0,0,0,99,0.519,0.818,0.381,29,48,14,0021400191,1610612759,SAS,San Antonio,Marco Belinelli,G,,10:28,0.0,0.0,0.0,0.0,0.0,2.0,2.0,6.0,0.0,0.0,1.0,1.0
0021400191,1610612759,SAS,San Antonio,2225,Tony Parker,G,,39:12,112.2,93.4,18.8,0.28,2.33,23.9,0.0,0.045,0.027,10.2,0.528,0.569,0.279,91.18,0.121,2014-11-22T00:00:00,8,1610612751,BKN,Brooklyn,5-8,18,18,28,23,0,0,0,0,0,0,0,0,0,0,87,0.374,1.0,0.333,24,44,11,0021400191,1610612759,SAS,San Antonio,Tony Parker,G,,39:12,2.0,0.0,4.0,14.0,11.0,11.0,7.0,30.0,0.0,2.0,1.0,4.0
0021400191,1610612759,SAS,San Antonio,2225,Tony Parker,G,,39:12,112.2,93.4,18.8,0.28,2.33,23.9,0.0,0.045,0.027,10.2,0.528,0.569,0.279,91.18,0.121,2014-11-22T00:00:00,8,1610612759,SAS,San Antonio,9-4,25,26,28,20,0,0,0,0,0,0,0,0,0,0,99,0.519,0.818,0.381,29,48,14,0021400191,1610612759,SAS,San Antonio,Tony Parker,G,,39:12,2.0,0.0,4.0,14.0,11.0,11.0,7.0,30.0,0.0,2.0,1.0,4.0
0021400191,1610612759,SAS,San Antonio,201980,Danny Green,,,33:15,110.2,96.2,14.0,0.1,1.0,14.3,0.0,0.171,0.104,14.3,1.05,1.05,0.175,93.14,0.193,2014-11-22T00:00:00,8,1610612751,BKN,Brooklyn,5-8,18,18,28,23,0,0,0,0,0,0,0,0,0,0,87,0.374,1.0,0.333,24,44,11,0021400191,1610612759,SAS,San Antonio,Danny Green,,,33:15,5.0,0.0,2.0,4.0,11.0,5.0,5.0,20.0,3.0,0.0,1.0,0.0
0021400191,1610612759,SAS,San Antonio,201980,Danny Green,,,33:15,110.2,96.2,14.0,0.1,1.0,14.3,0.0,0.171,0.104,14.3,1.05,1.05,0.175,93.14,0.193,2014-11-22T00:00:00,8,1610612759,SAS,San Antonio,9-4,25,26,28,20,0,0,0,0,0,0,0,0,0,0,99,0.519,0.818,0.381,29,48,14,0021400191,1610612759,SAS,San Antonio,Danny Green,,,33:15,5.0,0.0,2.0,4.0,11.0,5.0,5.0,20.0,3.0,0.0,1.0,0.0
0021400191,1610612759,SAS,San Antonio,1938,Manu Ginobili,,,23:55,112.0,82.7,29.3,0.2,2.0,50.0,0.0,0.103,0.068,25.0,1.25,1.25,0.083,98.42,0.106,2014-11-22T00:00:00,8,1610612751,BKN,Brooklyn,5-8,18,18,28,23,0,0,0,0,0,0,0,0,0,0,87,0.374,1.0,0.333,24,44,11,0021400191,1610612759,SAS,San Antonio,Manu Ginobili,,,23:55,0.0,0.0,0.0,2.0,6.0,7.0,8.0,18.0,1.0,0.0,0.0,1.0
0021400191,1610612759,SAS,San Antonio,1938,Manu Ginobili,,,23:55,112.0,82.7,29.3,0.2,2.0,50.0,0.0,0.103,0.068,25.0,1.25,1.25,0.083,98.42,0.106,2014-11-22T00:00:00,8,1610612759,SAS,San Antonio,9-4,25,26,28,20,0,0,0,0,0,0,0,0,0,0,99,0.519,0.818,0.381,29,48,14,0021400191,1610612759,SAS,San Antonio,Manu Ginobili,,,23:55,0.0,0.0,0.0,2.0,6.0,7.0,8.0,18.0,1.0,0.0,0.0,1.0
0021400191,1610612759,SAS,San Antonio,201948,Austin Daye,,,12:56,89.3,114.0,-24.7,0.0,0.0,0.0,0.0,0.231,0.12,14.3,0.25,0.25,0.263,94.56,0.01,2014-11-22T00:00:00,8,1610612751,BKN,Brooklyn,5-8,18,18,28,23,0,0,0,0,0,0,0,0,0,0,87,0.374,1.0,0.333,24,44,11,0021400191,1610612759,SAS,San Antonio,Austin Daye,,,12:56,0.0,0.0,0.0,0.0,4.0,0.0,4.0,12.0,1.0,0.0,0.0,0.0
0021400191,1610612759,SAS,San Antonio,201948,Austin Daye,,,12:56,89.3,114.0,-24.7,0.0,0.0,0.0,0.0,0.231,0.12,14.3,0.25,0.25,0.263,94.56,0.01,2014-11-22T00:00:00,8,1610612759,SAS,San Antonio,9-4,25,26,28,20,0,0,0,0,0,0,0,0,0,0,99,0.519,0.818,0.381,29,48,14,0021400191,1610612759,SAS,San Antonio,Austin Daye,,,12:56,0.0,0.0,0.0,0.0,4.0,0.0,4.0,12.0,1.0,0.0,0.0,0.0
0021400191,1610612759,SAS,San Antonio,203382,Aron Baynes,,,20:38,111.9,88.5,23.4,0.071,1.0,9.2,0.111,0.25,0.19,9.2,0.5,0.563,0.233,97.01,0.136,2014-11-22T00:00:00,8,1610612751,BKN,Brooklyn,5-8,18,18,28,23,0,0,0,0,0,0,0,0,0,0,87,0.374,1.0,0.333,24,44,11,0021400191,1610612759,SAS,San Antonio,Aron Baynes,,,20:38,2.0,0.0,0.0,8.0,4.0,5.0,4.0,16.0,0.0,1.0,2.0,2.0
0021400191,1610612759,SAS,San Antonio,203382,Aron Baynes,,,20:38,111.9,88.5,23.4,0.071,1.0,9.2,0.111,0.25,0.19,9.2,0.5,0.563,0.233,97.01,0.136,2014-11-22T00:00:00,8,1610612759,SAS,San Antonio,9-4,25,26,28,20,0,0,0,0,0,0,0,0,0,0,99,0.519,0.818,0.381,29,48,14,0021400191,1610612759,SAS,San Antonio,Aron Baynes,,,20:38,2.0,0.0,0.0,8.0,4.0,5.0,4.0,16.0,0.0,1.0,2.0,2.0
0021400191,1610612759,SAS,San Antonio,201965,Jeff Ayres,,,2:30,112.6,147.1,-34.4,0.0,0.0,0.0,0.0,0.0,0.0,0.0,0.0,0.0,0.0,94.85,-0.071,2014-11-22T00:00:00,8,1610612751,BKN,Brooklyn,5-8,18,18,28,23,0,0,0,0,0,0,0,0,0,0,87,0.374,1.0,0.333,24,44,11,0021400191,1610612759,SAS,San Antonio,Jeff Ayres,,,2:30,0.0,0.0,0.0,0.0,0.0,0.0,0.0,2.0,0.0,0.0,1.0,0.0
0021400191,1610612759,SAS,San Antonio,201965,Jeff Ayres,,,2:30,112.6,147.1,-34.4,0.0,0.0,0.0,0.0,0.0,0.0,0.0,0.0,0.0,0.0,94.85,-0.071,2014-11-22T00:00:00,8,1610612759,SAS,San Antonio,9-4,25,26,28,20,0,0,0,0,0,0,0,0,0,0,99,0.519,0.818,0.381,29,48,14,0021400191,1610612759,SAS,San Antonio,Jeff Ayres,,,2:30,0.0,0.0,0.0,0.0,0.0,0.0,0.0,2.0,0.0,0.0,1.0,0.0
0021400191,1610612759,SAS,San Antonio,203937,Kyle Anderson,,,2:30,112.6,147.1,-34.4,0.5,0.0,100.0,0.0,0.0,0.0,0.0,0.0,0.0,0.0,94.85,0.071,2014-11-22T00:00:00,8,1610612751,BKN,Brooklyn,5-8,18,18,28,23,0,0,0,0,0,0,0,0,0,0,87,0.374,1.0,0.333,24,44,11,0021400191,1610612759,SAS,San Antonio,Kyle Anderson,,,2:30,0.0,0.0,0.0,0.0,0.0,0.0,0.0,2.0,0.0,0.0,0.0,0.0
0021400191,1610612759,SAS,San Antonio,203937,Kyle Anderson,,,2:30,112.6,147.1,-34.4,0.5,0.0,100.0,0.0,0.0,0.0,0.0,0.0,0.0,0.0,94.85,0.071,2014-11-22T00:00:00,8,1610612759,SAS,San Antonio,9-4,25,26,28,20,0,0,0,0,0,0,0,0,0,0,99,0.519,0.818,0.381,29,48,14,0021400191,1610612759,SAS,San Antonio,Kyle Anderson,,,2:30,0.0,0.0,0.0,0.0,0.0,0.0,0.0,2.0,0.0,0.0,0.0,0.0
0021400191,1610612759,SAS,San Antonio,2588,Matt Bonner,,DND - stomach virus                     ,,,,,,,0.0,,,,,,,0.0,,,2014-11-22T00:00:00,8,1610612751,BKN,Brooklyn,5-8,18,18,28,23,0,0,0,0,0,0,0,0,0,0,87,0.374,1.0,0.333,24,44,11,0021400191,1610612759,SAS,San Antonio,Matt Bonner,,DND - stomach virus                     ,,,,,,,,,,,,,
0021400191,1610612759,SAS,San Antonio,2588,Matt Bonner,,DND - stomach virus                     ,,,,,,,0.0,,,,,,,0.0,,,2014-11-22T00:00:00,8,1610612759,SAS,San Antonio,9-4,25,26,28,20,0,0,0,0,0,0,0,0,0,0,99,0.519,0.818,0.381,29,48,14,0021400191,1610612759,SAS,San Antonio,Matt Bonner,,DND - stomach virus                     ,,,,,,,,,,,,,
0021400191,1610612759,SAS,San Antonio,202709,Cory Joseph,,DND - sprained left ankle               ,,,,,,,0.0,,,,,,,0.0,,,2014-11-22T00:00:00,8,1610612751,BKN,Brooklyn,5-8,18,18,28,23,0,0,0,0,0,0,0,0,0,0,87,0.374,1.0,0.333,24,44,11,0021400191,1610612759,SAS,San Antonio,Cory Joseph,,DND - sprained left ankle               ,,,,,,,,,,,,,
0021400191,1610612759,SAS,San Antonio,202709,Cory Joseph,,DND - sprained left ankle               ,,,,,,,0.0,,,,,,,0.0,,,2014-11-22T00:00:00,8,1610612759,SAS,San Antonio,9-4,25,26,28,20,0,0,0,0,0,0,0,0,0,0,99,0.519,0.818,0.381,29,48,14,0021400191,1610612759,SAS,San Antonio,Cory Joseph,,DND - sprained left ankle               ,,,,,,,,,,,,,
