GAME_ID_x,TEAM_ID_x,TEAM_ABBREVIATION_x,TEAM_CITY_x,PLAYER_ID,PLAYER_NAME_x,START_POSITION_x,COMMENT_x,MIN_x,OFF_RATING,DEF_RATING,NET_RATING,AST_PCT,AST_TOV,AST_RATIO,OREB_PCT,DREB_PCT,REB_PCT,TM_TOV_PCT,EFG_PCT,TS_PCT,USG_PCT,PACE,PIE,GAME_DATE_EST,GAME_SEQUENCE,TEAM_ID_y,TEAM_ABBREVIATION_y,TEAM_CITY_NAME,TEAM_WINS_LOSSES,PTS_QTR1,PTS_QTR2,PTS_QTR3,PTS_QTR4,PTS_OT1,PTS_OT2,PTS_OT3,PTS_OT4,PTS_OT5,PTS_OT6,PTS_OT7,PTS_OT8,PTS_OT9,PTS_OT10,PTS,FG_PCT,FT_PCT,FG3_PCT,AST,REB,TOV,GAME_ID_y,TEAM_ID,TEAM_ABBREVIATION,TEAM_CITY_y,PLAYER_NAME_y,START_POSITION_y,COMMENT_y,MIN_y,PTS_OFF_TOV,PTS_2ND_CHANCE,PTS_FB,PTS_PAINT,OPP_PTS_OFF_TOV,OPP_PTS_2ND_CHANCE,OPP_PTS_FB,OPP_PTS_PAINT,BLK,BLKA,PF,PFD
0021400189,1610612758,SAC,Sacramento,200752,Rudy Gay,F,,35:43,120.3,104.3,16.0,0.214,1.5,25.7,0.0,0.167,0.1,17.2,0.458,0.526,0.208,95.55,0.089,2014-11-22T00:00:00,6,1610612758,SAC,Sacramento,8-5,21,27,36,29,0,0,0,0,0,0,0,0,0,0,113,0.494,0.833,0.308,24,50,18,0021400189,1610612758,SAC,Sacramento,Rudy Gay,F,,35:43,4.0,0.0,0.0,4.0,16.0,8.0,10.0,34.0,0.0,0.0,3.0,1.0
0021400189,1610612758,SAC,Sacramento,200752,Rudy Gay,F,,35:43,120.3,104.3,16.0,0.214,1.5,25.7,0.0,0.167,0.1,17.2,0.458,0.526,0.208,95.55,0.089,2014-11-22T00:00:00,6,1610612750,MIN,Minnesota,3-9,24,28,25,24,0,0,0,0,0,0,0,0,0,0,101,0.411,0.778,0.353,23,37,10,0021400189,1610612758,SAC,Sacramento,Rudy Gay,F,,35:43,4.0,0.0,0.0,4.0,16.0,8.0,10.0,34.0,0.0,0.0,3.0,1.0
0021400189,1610612758,SAC,Sacramento,201574,Jason Thompson,F,,17:45,118.7,90.4,28.3,0.056,0.0,20.5,0.154,0.05,0.091,0.0,0.333,0.515,0.087,100.27,0.063,2014-11-22T00:00:00,6,1610612758,SAC,Sacramento,8-5,21,27,36,29,0,0,0,0,0,0,0,0,0,0,113,0.494,0.833,0.308,24,50,18,0021400189,1610612758,SAC,Sacramento,Jason Thompson,F,,17:45,0.0,0.0,2.0,2.0,4.0,4.0,9.0,10.0,0.0,0.0,1.0,2.0
0021400189,1610612758,SAC,Sacramento,201574,Jason Thompson,F,,17:45,118.7,90.4,28.3,0.056,0.0,20.5,0.154,0.05,0.091,0.0,0.333,0.515,0.087,100.27,0.063,2014-11-22T00:00:00,6,1610612750,MIN,Minnesota,3-9,24,28,25,24,0,0,0,0,0,0,0,0,0,0,101,0.411,0.778,0.353,23,37,10,0021400189,1610612758,SAC,Sacramento,Jason Thompson,F,,17:45,0.0,0.0,2.0,2.0,4.0,4.0,9.0,10.0,0.0,0.0,1.0,2.0
0021400189,1610612758,SAC,Sacramento,202326,DeMarcus Cousins,C,,39:22,114.9,98.6,16.3,0.083,0.67,8.2,0.231,0.279,0.261,12.3,0.733,0.799,0.239,99.81,0.259,2014-11-22T00:00:00,6,1610612758,SAC,Sacramento,8-5,21,27,36,29,0,0,0,0,0,0,0,0,0,0,113,0.494,0.833,0.308,24,50,18,0021400189,1610612758,SAC,Sacramento,DeMarcus Cousins,C,,39:22,2.0,8.0,2.0,20.0,20.0,10.0,12.0,32.0,2.0,1.0,4.0,9.0
0021400189,1610612758,SAC,Sacramento,202326,DeMarcus Cousins,C,,39:22,114.9,98.6,16.3,0.083,0.67,8.2,0.231,0.279,0.261,12.3,0.733,0.799,0.239,99.81,0.259,2014-11-22T00:00:00,6,1610612750,MIN,Minnesota,3-9,24,28,25,24,0,0,0,0,0,0,0,0,0,0,101,0.411,0.778,0.353,23,37,10,0021400189,1610612758,SAC,Sacramento,DeMarcus Cousins,C,,39:22,2.0,8.0,2.0,20.0,20.0,10.0,12.0,32.0,2.0,1.0,4.0,9.0
0021400189,1610612758,SAC,Sacramento,203463,Ben McLemore,G,,40:57,124.3,108.6,15.7,0.103,1.0,13.0,0.074,0.167,0.13,13.0,0.647,0.647,0.211,96.0,0.107,2014-11-22T00:00:00,6,1610612758,SAC,Sacramento,8-5,21,27,36,29,0,0,0,0,0,0,0,0,0,0,113,0.494,0.833,0.308,24,50,18,0021400189,1610612758,SAC,Sacramento,Ben McLemore,G,,40:57,5.0,4.0,2.0,10.0,18.0,10.0,12.0,34.0,0.0,0.0,5.0,1.0
0021400189,1610612758,SAC,Sacramento,203463,Ben McLemore,G,,40:57,124.3,108.6,15.7,0.103,1.0,13.0,0.074,0.167,0.13,13.0,0.647,0.647,0.211,96.0,0.107,2014-11-22T00:00:00,6,1610612750,MIN,Minnesota,3-9,24,28,25,24,0,0,0,0,0,0,0,0,0,0,101,0.411,0.778,0.353,23,37,10,0021400189,1610612758,SAC,Sacramento,Ben McLemore,G,,40:57,5.0,4.0,2.0,10.0,18.0,10.0,12.0,34.0,0.0,0.0,5.0,1.0
0021400189,1610612758,SAC,Sacramento,201954,Darren Collison,G,,33:14,124.9,107.4,17.5,0.292,1.75,29.6,0.0,0.057,0.036,16.9,0.7,0.752,0.211,98.07,0.127,2014-11-22T00:00:00,6,1610612758,SAC,Sacramento,8-5,21,27,36,29,0,0,0,0,0,0,0,0,0,0,113,0.494,0.833,0.308,24,50,18,0021400189,1610612758,SAC,Sacramento,Darren Collison,G,,33:14,0.0,0.0,8.0,8.0,17.0,6.0,11.0,24.0,0.0,1.0,3.0,5.0
0021400189,1610612758,SAC,Sacramento,201954,Darren Collison,G,,33:14,124.9,107.4,17.5,0.292,1.75,29.6,0.0,0.057,0.036,16.9,0.7,0.752,0.211,98.07,0.127,2014-11-22T00:00:00,6,1610612750,MIN,Minnesota,3-9,24,28,25,24,0,0,0,0,0,0,0,0,0,0,101,0.411,0.778,0.353,23,37,10,0021400189,1610612758,SAC,Sacramento,Darren Collison,G,,33:14,0.0,0.0,8.0,8.0,17.0,6.0,11.0,24.0,0.0,1.0,3.0,5.0
0021400189,1610612758,SAC,Sacramento,202682,Derrick Williams,,,30:15,110.9,112.2,-1.4,0.0,0.0,0.0,0.043,0.161,0.111,25.5,0.643,0.685,0.172,96.73,0.086,2014-11-22T00:00:00,6,1610612758,SAC,Sacramento,8-5,21,27,36,29,0,0,0,0,0,0,0,0,0,0,113,0.494,0.833,0.308,24,50,18,0021400189,1610612758,SAC,Sacramento,Derrick Williams,,,30:15,0.0,5.0,2.0,6.0,18.0,12.0,5.0,34.0,0.0,1.0,1.0,2.0
0021400189,1610612758,SAC,Sacramento,202682,Derrick Williams,,,30:15,110.9,112.2,-1.4,0.0,0.0,0.0,0.043,0.161,0.111,25.5,0.643,0.685,0.172,96.73,0.086,2014-11-22T00:00:00,6,1610612750,MIN,Minnesota,3-9,24,28,25,24,0,0,0,0,0,0,0,0,0,0,101,0.411,0.778,0.353,23,37,10,0021400189,1610612758,SAC,Sacramento,Derrick Williams,,,30:15,0.0,5.0,2.0,6.0,18.0,12.0,5.0,34.0,0.0,1.0,1.0,2.0
0021400189,1610612758,SAC,Sacramento,201956,Omri Casspi,,,12:17,96.0,104.2,-8.2,0.333,0.0,23.7,0.083,0.067,0.074,0.0,0.167,0.233,0.214,105.27,0.017,2014-11-22T00:00:00,6,1610612758,SAC,Sacramento,8-5,21,27,36,29,0,0,0,0,0,0,0,0,0,0,113,0.494,0.833,0.308,24,50,18,0021400189,1610612758,SAC,Sacramento,Omri Casspi,,,12:17,0.0,0.0,3.0,2.0,6.0,8.0,4.0,10.0,0.0,2.0,1.0,2.0
0021400189,1610612758,SAC,Sacramento,201956,Omri Casspi,,,12:17,96.0,104.2,-8.2,0.333,0.0,23.7,0.083,0.067,0.074,0.0,0.167,0.233,0.214,105.27,0.017,2014-11-22T00:00:00,6,1610612750,MIN,Minnesota,3-9,24,28,25,24,0,0,0,0,0,0,0,0,0,0,101,0.411,0.778,0.353,23,37,10,0021400189,1610612758,SAC,Sacramento,Omri Casspi,,,12:17,0.0,0.0,3.0,2.0,6.0,8.0,4.0,10.0,0.0,2.0,1.0,2.0
0021400189,1610612758,SAC,Sacramento,203917,Nik Stauskas,,,7:03,58.0,83.5,-25.5,0.5,0.0,25.0,0.0,0.111,0.056,0.0,0.0,0.0,0.162,109.89,-0.167,2014-11-22T00:00:00,6,1610612758,SAC,Sacramento,8-5,21,27,36,29,0,0,0,0,0,0,0,0,0,0,113,0.494,0.833,0.308,24,50,18,0021400189,1610612758,SAC,Sacramento,Nik Stauskas,,,7:03,0.0,0.0,0.0,0.0,4.0,6.0,2.0,10.0,0.0,0.0,0.0,0.0
0021400189,1610612758,SAC,Sacramento,203917,Nik Stauskas,,,7:03,58.0,83.5,-25.5,0.5,0.0,25.0,0.0,0.111,0.056,0.0,0.0,0.0,0.162,109.89,-0.167,2014-11-22T00:00:00,6,1610612750,MIN,Minnesota,3-9,24,28,25,24,0,0,0,0,0,0,0,0,0,0,101,0.411,0.778,0.353,23,37,10,0021400189,1610612758,SAC,Sacramento,Nik Stauskas,,,7:03,0.0,0.0,0.0,0.0,4.0,6.0,2.0,10.0,0.0,0.0,0.0,0.0
0021400189,1610612758,SAC,Sacramento,201196,Ramon Sessions,,,14:46,88.1,97.5,-9.5,0.222,2.0,29.1,0.0,0.063,0.032,14.5,0.333,0.258,0.141,97.97,0.0,2014-11-22T00:00:00,6,1610612758,SAC,Sacramento,8-5,21,27,36,29,0,0,0,0,0,0,0,0,0,0,113,0.494,0.833,0.308,24,50,18,0021400189,1610612758,SAC,Sacramento,Ramon Sessions,,,14:46,0.0,0.0,0.0,2.0,5.0,10.0,3.0,20.0,0.0,0.0,0.0,1.0
0021400189,1610612758,SAC,Sacramento,201196,Ramon Sessions,,,14:46,88.1,97.5,-9.5,0.222,2.0,29.1,0.0,0.063,0.032,14.5,0.333,0.258,0.141,97.97,0.0,2014-11-22T00:00:00,6,1610612750,MIN,Minnesota,3-9,24,28,25,24,0,0,0,0,0,0,0,0,0,0,101,0.411,0.778,0.353,23,37,10,0021400189,1610612758,SAC,Sacramento,Ramon Sessions,,,14:46,0.0,0.0,0.0,2.0,5.0,10.0,3.0,20.0,0.0,0.0,0.0,1.0
0021400189,1610612758,SAC,Sacramento,201171,Carl Landry,,,8:39,108.7,131.3,-22.6,0.0,0.0,0.0,0.2,0.0,0.111,0.0,0.4,0.51,0.299,89.98,0.107,2014-11-22T00:00:00,6,1610612758,SAC,Sacramento,8-5,21,27,36,29,0,0,0,0,0,0,0,0,0,0,113,0.494,0.833,0.308,24,50,18,0021400189,1610612758,SAC,Sacramento,Carl Landry,,,8:39,0.0,2.0,0.0,2.0,2.0,6.0,2.0,12.0,0.0,2.0,1.0,1.0
0021400189,1610612758,SAC,Sacramento,201171,Carl Landry,,,8:39,108.7,131.3,-22.6,0.0,0.0,0.0,0.2,0.0,0.111,0.0,0.4,0.51,0.299,89.98,0.107,2014-11-22T00:00:00,6,1610612750,MIN,Minnesota,3-9,24,28,25,24,0,0,0,0,0,0,0,0,0,0,101,0.411,0.778,0.353,23,37,10,0021400189,1610612758,SAC,Sacramento,Carl Landry,,,8:39,0.0,2.0,0.0,2.0,2.0,6.0,2.0,12.0,0.0,2.0,1.0,1.0
0021400189,1610612758,SAC,Sacramento,2501,Reggie Evans,,DNP - Coach's Decision                  ,,,,,,,0.0,,,,,,,0.0,,,2014-11-22T00:00:00,6,1610612758,SAC,Sacramento,8-5,21,27,36,29,0,0,0,0,0,0,0,0,0,0,113,0.494,0.833,0.308,24,50,18,0021400189,1610612758,SAC,Sacramento,Reggie Evans,,DNP - Coach's Decision                  ,,,,,,,,,,,,,
0021400189,1610612758,SAC,Sacramento,2501,Reggie Evans,,DNP - Coach's Decision                  ,,,,,,,0.0,,,,,,,0.0,,,2014-11-22T00:00:00,6,1610612750,MIN,Minnesota,3-9,24,28,25,24,0,0,0,0,0,0,0,0,0,0,101,0.411,0.778,0.353,23,37,10,0021400189,1610612758,SAC,Sacramento,Reggie Evans,,DNP - Coach's Decision                  ,,,,,,,,,,,,,
0021400189,1610612758,SAC,Sacramento,200797,Ryan Hollins,,DNP - Coach's Decision                  ,,,,,,,0.0,,,,,,,0.0,,,2014-11-22T00:00:00,6,1610612758,SAC,Sacramento,8-5,21,27,36,29,0,0,0,0,0,0,0,0,0,0,113,0.494,0.833,0.308,24,50,18,0021400189,1610612758,SAC,Sacramento,Ryan Hollins,,DNP - Coach's Decision                  ,,,,,,,,,,,,,
0021400189,1610612758,SAC,Sacramento,200797,Ryan Hollins,,DNP - Coach's Decision                  ,,,,,,,0.0,,,,,,,0.0,,,2014-11-22T00:00:00,6,1610612750,MIN,Minnesota,3-9,24,28,25,24,0,0,0,0,0,0,0,0,0,0,101,0.411,0.778,0.353,23,37,10,0021400189,1610612758,SAC,Sacramento,Ryan Hollins,,DNP - Coach's Decision                  ,,,,,,,,,,,,,
0021400189,1610612758,SAC,Sacramento,203492,Ray McCallum,,DNP - Coach's Decision                  ,,,,,,,0.0,,,,,,,0.0,,,2014-11-22T00:00:00,6,1610612758,SAC,Sacramento,8-5,21,27,36,29,0,0,0,0,0,0,0,0,0,0,113,0.494,0.833,0.308,24,50,18,0021400189,1610612758,SAC,Sacramento,Ray McCallum,,DNP - Coach's Decision                  ,,,,,,,,,,,,,
0021400189,1610612758,SAC,Sacramento,203492,Ray McCallum,,DNP - Coach's Decision                  ,,,,,,,0.0,,,,,,,0.0,,,2014-11-22T00:00:00,6,1610612750,MIN,Minnesota,3-9,24,28,25,24,0,0,0,0,0,0,0,0,0,0,101,0.411,0.778,0.353,23,37,10,0021400189,1610612758,SAC,Sacramento,Ray McCallum,,DNP - Coach's Decision                  ,,,,,,,,,,,,,
0021400189,1610612750,MIN,Minnesota,203952,Andrew Wiggins,F,,41:11,103.4,107.2,-3.8,0.087,2.0,6.8,0.023,0.121,0.065,3.4,0.455,0.549,0.279,100.16,0.176,2014-11-22T00:00:00,6,1610612758,SAC,Sacramento,8-5,21,27,36,29,0,0,0,0,0,0,0,0,0,0,113,0.494,0.833,0.308,24,50,18,0021400189,1610612750,MIN,Minnesota,Andrew Wiggins,F,,41:11,6.0,2.0,2.0,12.0,11.0,17.0,17.0,42.0,1.0,0.0,1.0,8.0
0021400189,1610612750,MIN,Minnesota,203952,Andrew Wiggins,F,,41:11,103.4,107.2,-3.8,0.087,2.0,6.8,0.023,0.121,0.065,3.4,0.455,0.549,0.279,100.16,0.176,2014-11-22T00:00:00,6,1610612750,MIN,Minnesota,3-9,24,28,25,24,0,0,0,0,0,0,0,0,0,0,101,0.411,0.778,0.353,23,37,10,0021400189,1610612750,MIN,Minnesota,Andrew Wiggins,F,,41:11,6.0,2.0,2.0,12.0,11.0,17.0,17.0,42.0,1.0,0.0,1.0,8.0
0021400189,1610612750,MIN,Minnesota,203461,Anthony Bennett,F,,29:46,99.7,117.3,-17.6,0.111,0.0,15.4,0.176,0.0,0.107,0.0,0.455,0.455,0.155,100.06,0.068,2014-11-22T00:00:00,6,1610612758,SAC,Sacramento,8-5,21,27,36,29,0,0,0,0,0,0,0,0,0,0,113,0.494,0.833,0.308,24,50,18,0021400189,1610612750,MIN,Minnesota,Anthony Bennett,F,,29:46,0.0,4.0,0.0,2.0,11.0,10.0,14.0,36.0,2.0,0.0,3.0,0.0
0021400189,1610612750,MIN,Minnesota,203461,Anthony Bennett,F,,29:46,99.7,117.3,-17.6,0.111,0.0,15.4,0.176,0.0,0.107,0.0,0.455,0.455,0.155,100.06,0.068,2014-11-22T00:00:00,6,1610612750,MIN,Minnesota,3-9,24,28,25,24,0,0,0,0,0,0,0,0,0,0,101,0.411,0.778,0.353,23,37,10,0021400189,1610612750,MIN,Minnesota,Anthony Bennett,F,,29:46,0.0,4.0,0.0,2.0,11.0,10.0,14.0,36.0,2.0,0.0,3.0,0.0
0021400189,1610612750,MIN,Minnesota,203476,Gorgui Dieng,C,,38:39,99.8,114.6,-14.8,0.042,1.0,7.8,0.093,0.231,0.145,7.8,0.5,0.551,0.132,99.52,0.095,2014-11-22T00:00:00,6,1610612758,SAC,Sacramento,8-5,21,27,36,29,0,0,0,0,0,0,0,0,0,0,113,0.494,0.833,0.308,24,50,18,0021400189,1610612750,MIN,Minnesota,Gorgui Dieng,C,,38:39,2.0,2.0,0.0,8.0,11.0,12.0,17.0,48.0,2.0,2.0,4.0,1.0
0021400189,1610612750,MIN,Minnesota,203476,Gorgui Dieng,C,,38:39,99.8,114.6,-14.8,0.042,1.0,7.8,0.093,0.231,0.145,7.8,0.5,0.551,0.132,99.52,0.095,2014-11-22T00:00:00,6,1610612750,MIN,Minnesota,3-9,24,28,25,24,0,0,0,0,0,0,0,0,0,0,101,0.411,0.778,0.353,23,37,10,0021400189,1610612750,MIN,Minnesota,Gorgui Dieng,C,,38:39,2.0,2.0,0.0,8.0,11.0,12.0,17.0,48.0,2.0,2.0,4.0,1.0
0021400189,1610612750,MIN,Minnesota,201147,Corey Brewer,G,,30:08,104.8,123.8,-19.0,0.2,2.0,19.5,0.031,0.045,0.037,9.7,0.455,0.482,0.239,95.38,0.027,2014-11-22T00:00:00,6,1610612758,SAC,Sacramento,8-5,21,27,36,29,0,0,0,0,0,0,0,0,0,0,113,0.494,0.833,0.308,24,50,18,0021400189,1610612750,MIN,Minnesota,Corey Brewer,G,,30:08,4.0,4.0,4.0,10.0,6.0,12.0,12.0,38.0,0.0,0.0,5.0,5.0
0021400189,1610612750,MIN,Minnesota,201147,Corey Brewer,G,,30:08,104.8,123.8,-19.0,0.2,2.0,19.5,0.031,0.045,0.037,9.7,0.455,0.482,0.239,95.38,0.027,2014-11-22T00:00:00,6,1610612750,MIN,Minnesota,3-9,24,28,25,24,0,0,0,0,0,0,0,0,0,0,101,0.411,0.778,0.353,23,37,10,0021400189,1610612750,MIN,Minnesota,Corey Brewer,G,,30:08,4.0,4.0,4.0,10.0,6.0,12.0,12.0,38.0,0.0,0.0,5.0,5.0
0021400189,1610612750,MIN,Minnesota,2590,Mo Williams,G,,34:59,101.5,111.8,-10.3,0.522,3.0,37.5,0.0,0.08,0.032,12.5,0.344,0.344,0.241,99.06,0.06,2014-11-22T00:00:00,6,1610612758,SAC,Sacramento,8-5,21,27,36,29,0,0,0,0,0,0,0,0,0,0,113,0.494,0.833,0.308,24,50,18,0021400189,1610612750,MIN,Minnesota,Mo Williams,G,,34:59,2.0,0.0,3.0,2.0,11.0,12.0,14.0,42.0,0.0,0.0,2.0,1.0
0021400189,1610612750,MIN,Minnesota,2590,Mo Williams,G,,34:59,101.5,111.8,-10.3,0.522,3.0,37.5,0.0,0.08,0.032,12.5,0.344,0.344,0.241,99.06,0.06,2014-11-22T00:00:00,6,1610612750,MIN,Minnesota,3-9,24,28,25,24,0,0,0,0,0,0,0,0,0,0,101,0.411,0.778,0.353,23,37,10,0021400189,1610612750,MIN,Minnesota,Mo Williams,G,,34:59,2.0,0.0,3.0,2.0,11.0,12.0,14.0,42.0,0.0,0.0,2.0,1.0
0021400189,1610612750,MIN,Minnesota,201978,Chase Budinger,,,24:41,105.1,113.6,-8.5,0.071,1.0,10.7,0.0,0.118,0.047,10.7,0.667,0.751,0.147,97.74,0.094,2014-11-22T00:00:00,6,1610612758,SAC,Sacramento,8-5,21,27,36,29,0,0,0,0,0,0,0,0,0,0,113,0.494,0.833,0.308,24,50,18,0021400189,1610612750,MIN,Minnesota,Chase Budinger,,,24:41,5.0,0.0,2.0,2.0,5.0,9.0,9.0,32.0,0.0,0.0,2.0,1.0
0021400189,1610612750,MIN,Minnesota,201978,Chase Budinger,,,24:41,105.1,113.6,-8.5,0.071,1.0,10.7,0.0,0.118,0.047,10.7,0.667,0.751,0.147,97.74,0.094,2014-11-22T00:00:00,6,1610612750,MIN,Minnesota,3-9,24,28,25,24,0,0,0,0,0,0,0,0,0,0,101,0.411,0.778,0.353,23,37,10,0021400189,1610612750,MIN,Minnesota,Chase Budinger,,,24:41,5.0,0.0,2.0,2.0,5.0,9.0,9.0,32.0,0.0,0.0,2.0,1.0
0021400189,1610612750,MIN,Minnesota,203498,Shabazz Muhammad,,,18:14,111.7,107.7,3.9,0.1,0.0,10.1,0.176,0.286,0.226,0.0,0.5,0.507,0.218,94.75,0.167,2014-11-22T00:00:00,6,1610612758,SAC,Sacramento,8-5,21,27,36,29,0,0,0,0,0,0,0,0,0,0,113,0.494,0.833,0.308,24,50,18,0021400189,1610612750,MIN,Minnesota,Shabazz Muhammad,,,18:14,3.0,4.0,3.0,8.0,0.0,9.0,5.0,20.0,0.0,0.0,2.0,2.0
0021400189,1610612750,MIN,Minnesota,203498,Shabazz Muhammad,,,18:14,111.7,107.7,3.9,0.1,0.0,10.1,0.176,0.286,0.226,0.0,0.5,0.507,0.218,94.75,0.167,2014-11-22T00:00:00,6,1610612750,MIN,Minnesota,3-9,24,28,25,24,0,0,0,0,0,0,0,0,0,0,101,0.411,0.778,0.353,23,37,10,0021400189,1610612750,MIN,Minnesota,Shabazz Muhammad,,,18:14,3.0,4.0,3.0,8.0,0.0,9.0,5.0,20.0,0.0,0.0,2.0,2.0
0021400189,1610612750,MIN,Minnesota,203133,Robbie Hummel,,,9:22,123.9,110.6,13.3,0.0,0.0,0.0,0.0,0.1,0.056,33.3,0.0,0.0,0.138,91.91,-0.107,2014-11-22T00:00:00,6,1610612758,SAC,Sacramento,8-5,21,27,36,29,0,0,0,0,0,0,0,0,0,0,113,0.494,0.833,0.308,24,50,18,0021400189,1610612750,MIN,Minnesota,Robbie Hummel,,,9:22,0.0,0.0,0.0,0.0,0.0,7.0,2.0,8.0,2.0,0.0,2.0,0.0
0021400189,1610612750,MIN,Minnesota,203133,Robbie Hummel,,,9:22,123.9,110.6,13.3,0.0,0.0,0.0,0.0,0.1,0.056,33.3,0.0,0.0,0.138,91.91,-0.107,2014-11-22T00:00:00,6,1610612750,MIN,Minnesota,3-9,24,28,25,24,0,0,0,0,0,0,0,0,0,0,101,0.411,0.778,0.353,23,37,10,0021400189,1610612750,MIN,Minnesota,Robbie Hummel,,,9:22,0.0,0.0,0.0,0.0,0.0,7.0,2.0,8.0,2.0,0.0,2.0,0.0
0021400189,1610612750,MIN,Minnesota,203897,Zach LaVine,,,13:01,112.2,119.8,-7.6,0.0,0.0,0.0,0.0,0.182,0.083,0.0,0.375,0.512,0.169,95.29,0.048,2014-11-22T00:00:00,6,1610612758,SAC,Sacramento,8-5,21,27,36,29,0,0,0,0,0,0,0,0,0,0,113,0.494,0.833,0.308,24,50,18,0021400189,1610612750,MIN,Minnesota,Zach LaVine,,,13:01,0.0,0.0,0.0,0.0,0.0,7.0,5.0,14.0,0.0,0.0,3.0,1.0
0021400189,1610612750,MIN,Minnesota,203897,Zach LaVine,,,13:01,112.2,119.8,-7.6,0.0,0.0,0.0,0.0,0.182,0.083,0.0,0.375,0.512,0.169,95.29,0.048,2014-11-22T00:00:00,6,1610612750,MIN,Minnesota,3-9,24,28,25,24,0,0,0,0,0,0,0,0,0,0,101,0.411,0.778,0.353,23,37,10,0021400189,1610612750,MIN,Minnesota,Zach LaVine,,,13:01,0.0,0.0,0.0,0.0,0.0,7.0,5.0,14.0,0.0,0.0,3.0,1.0
0021400189,1610612750,MIN,Minnesota,2755,Kevin Martin,,DNP - Coach's Decision                  ,,,,,,,0.0,,,,,,,0.0,,,2014-11-22T00:00:00,6,1610612758,SAC,Sacramento,8-5,21,27,36,29,0,0,0,0,0,0,0,0,0,0,113,0.494,0.833,0.308,24,50,18,0021400189,1610612750,MIN,Minnesota,Kevin Martin,,DNP - Coach's Decision                  ,,,,,,,,,,,,,
0021400189,1610612750,MIN,Minnesota,2755,Kevin Martin,,DNP - Coach's Decision                  ,,,,,,,0.0,,,,,,,0.0,,,2014-11-22T00:00:00,6,1610612750,MIN,Minnesota,3-9,24,28,25,24,0,0,0,0,0,0,0,0,0,0,101,0.411,0.778,0.353,23,37,10,0021400189,1610612750,MIN,Minnesota,Kevin Martin,,DNP - Coach's Decision                  ,,,,,,,,,,,,,
0021400189,1610612750,MIN,Minnesota,201593,Nikola Pekovic,,DNP - Coach's Decision                  ,,,,,,,0.0,,,,,,,0.0,,,2014-11-22T00:00:00,6,1610612758,SAC,Sacramento,8-5,21,27,36,29,0,0,0,0,0,0,0,0,0,0,113,0.494,0.833,0.308,24,50,18,0021400189,1610612750,MIN,Minnesota,Nikola Pekovic,,DNP - Coach's Decision                  ,,,,,,,,,,,,,
0021400189,1610612750,MIN,Minnesota,201593,Nikola Pekovic,,DNP - Coach's Decision                  ,,,,,,,0.0,,,,,,,0.0,,,2014-11-22T00:00:00,6,1610612750,MIN,Minnesota,3-9,24,28,25,24,0,0,0,0,0,0,0,0,0,0,101,0.411,0.778,0.353,23,37,10,0021400189,1610612750,MIN,Minnesota,Nikola Pekovic,,DNP - Coach's Decision                  ,,,,,,,,,,,,,
0021400189,1610612750,MIN,Minnesota,203922,Glenn Robinson III,,DNP - Coach's Decision                  ,,,,,,,0.0,,,,,,,0.0,,,2014-11-22T00:00:00,6,1610612758,SAC,Sacramento,8-5,21,27,36,29,0,0,0,0,0,0,0,0,0,0,113,0.494,0.833,0.308,24,50,18,0021400189,1610612750,MIN,Minnesota,Glenn Robinson III,,DNP - Coach's Decision                  ,,,,,,,,,,,,,
0021400189,1610612750,MIN,Minnesota,203922,Glenn Robinson III,,DNP - Coach's Decision                  ,,,,,,,0.0,,,,,,,0.0,,,2014-11-22T00:00:00,6,1610612750,MIN,Minnesota,3-9,24,28,25,24,0,0,0,0,0,0,0,0,0,0,101,0.411,0.778,0.353,23,37,10,0021400189,1610612750,MIN,Minnesota,Glenn Robinson III,,DNP - Coach's Decision                  ,,,,,,,,,,,,,
