GAME_ID_x,TEAM_ID_x,TEAM_ABBREVIATION_x,TEAM_CITY_x,PLAYER_ID,PLAYER_NAME_x,START_POSITION_x,COMMENT_x,MIN_x,OFF_RATING,DEF_RATING,NET_RATING,AST_PCT,AST_TOV,AST_RATIO,OREB_PCT,DREB_PCT,REB_PCT,TM_TOV_PCT,EFG_PCT,TS_PCT,USG_PCT,PACE,PIE,GAME_DATE_EST,GAME_SEQUENCE,TEAM_ID_y,TEAM_ABBREVIATION_y,TEAM_CITY_NAME,TEAM_WINS_LOSSES,PTS_QTR1,PTS_QTR2,PTS_QTR3,PTS_QTR4,PTS_OT1,PTS_OT2,PTS_OT3,PTS_OT4,PTS_OT5,PTS_OT6,PTS_OT7,PTS_OT8,PTS_OT9,PTS_OT10,PTS,FG_PCT,FT_PCT,FG3_PCT,AST,REB,TOV,GAME_ID_y,TEAM_ID,TEAM_ABBREVIATION,TEAM_CITY_y,PLAYER_NAME_y,START_POSITION_y,COMMENT_y,MIN_y,PTS_OFF_TOV,PTS_2ND_CHANCE,PTS_FB,PTS_PAINT,OPP_PTS_OFF_TOV,OPP_PTS_2ND_CHANCE,OPP_PTS_FB,OPP_PTS_PAINT,BLK,BLKA,PF,PFD
0021400208,1610612758,SAC,Sacramento,201956,Omri Casspi,F,,36:01,105.9,96.3,9.6,0.056,0.0,6.0,0.0,0.133,0.074,0.0,0.679,0.698,0.216,88.97,0.204,2014-11-25T00:00:00,4,1610612758,SAC,Sacramento,9-5,27,22,26,24,0,0,0,0,0,0,0,0,0,0,99,0.481,0.833,0.357,16,38,9,0021400208,1610612758,SAC,Sacramento,Omri Casspi,F,,36:01,7.0,3.0,8.0,16.0,6.0,11.0,11.0,44.0,0.0,1.0,2.0,3.0
0021400208,1610612758,SAC,Sacramento,201956,Omri Casspi,F,,36:01,105.9,96.3,9.6,0.056,0.0,6.0,0.0,0.133,0.074,0.0,0.679,0.698,0.216,88.97,0.204,2014-11-25T00:00:00,4,1610612740,NOP,New Orleans,7-6,16,33,21,19,0,0,0,0,0,0,0,0,0,0,89,0.418,0.69,0.176,15,40,10,0021400208,1610612758,SAC,Sacramento,Omri Casspi,F,,36:01,7.0,3.0,8.0,16.0,6.0,11.0,11.0,44.0,0.0,1.0,2.0,3.0
0021400208,1610612758,SAC,Sacramento,201574,Jason Thompson,F,,32:32,111.0,90.1,20.8,0.038,0.0,25.0,0.045,0.214,0.14,0.0,0.0,0.0,0.045,89.41,0.032,2014-11-25T00:00:00,4,1610612758,SAC,Sacramento,9-5,27,22,26,24,0,0,0,0,0,0,0,0,0,0,99,0.481,0.833,0.357,16,38,9,0021400208,1610612758,SAC,Sacramento,Jason Thompson,F,,32:32,0.0,0.0,0.0,0.0,6.0,8.0,8.0,34.0,1.0,1.0,2.0,2.0
0021400208,1610612758,SAC,Sacramento,201574,Jason Thompson,F,,32:32,111.0,90.1,20.8,0.038,0.0,25.0,0.045,0.214,0.14,0.0,0.0,0.0,0.045,89.41,0.032,2014-11-25T00:00:00,4,1610612740,NOP,New Orleans,7-6,16,33,21,19,0,0,0,0,0,0,0,0,0,0,89,0.418,0.69,0.176,15,40,10,0021400208,1610612758,SAC,Sacramento,Jason Thompson,F,,32:32,0.0,0.0,0.0,0.0,6.0,8.0,8.0,34.0,1.0,1.0,2.0,2.0
0021400208,1610612758,SAC,Sacramento,202326,DeMarcus Cousins,C,,34:55,112.7,83.5,29.2,0.278,1.0,16.3,0.13,0.29,0.222,16.3,0.444,0.533,0.358,88.79,0.249,2014-11-25T00:00:00,4,1610612758,SAC,Sacramento,9-5,27,22,26,24,0,0,0,0,0,0,0,0,0,0,99,0.481,0.833,0.357,16,38,9,0021400208,1610612758,SAC,Sacramento,DeMarcus Cousins,C,,34:55,2.0,6.0,0.0,8.0,4.0,7.0,4.0,32.0,1.0,0.0,4.0,7.0
0021400208,1610612758,SAC,Sacramento,202326,DeMarcus Cousins,C,,34:55,112.7,83.5,29.2,0.278,1.0,16.3,0.13,0.29,0.222,16.3,0.444,0.533,0.358,88.79,0.249,2014-11-25T00:00:00,4,1610612740,NOP,New Orleans,7-6,16,33,21,19,0,0,0,0,0,0,0,0,0,0,89,0.418,0.69,0.176,15,40,10,0021400208,1610612758,SAC,Sacramento,DeMarcus Cousins,C,,34:55,2.0,6.0,0.0,8.0,4.0,7.0,4.0,32.0,1.0,0.0,4.0,7.0
0021400208,1610612758,SAC,Sacramento,203463,Ben McLemore,G,,29:16,106.9,77.3,29.6,0.056,0.0,14.3,0.0,0.067,0.039,0.0,0.833,0.833,0.097,92.35,0.126,2014-11-25T00:00:00,4,1610612758,SAC,Sacramento,9-5,27,22,26,24,0,0,0,0,0,0,0,0,0,0,99,0.481,0.833,0.357,16,38,9,0021400208,1610612758,SAC,Sacramento,Ben McLemore,G,,29:16,2.0,0.0,2.0,4.0,7.0,5.0,4.0,26.0,0.0,1.0,3.0,1.0
0021400208,1610612758,SAC,Sacramento,203463,Ben McLemore,G,,29:16,106.9,77.3,29.6,0.056,0.0,14.3,0.0,0.067,0.039,0.0,0.833,0.833,0.097,92.35,0.126,2014-11-25T00:00:00,4,1610612740,NOP,New Orleans,7-6,16,33,21,19,0,0,0,0,0,0,0,0,0,0,89,0.418,0.69,0.176,15,40,10,0021400208,1610612758,SAC,Sacramento,Ben McLemore,G,,29:16,2.0,0.0,2.0,4.0,7.0,5.0,4.0,26.0,0.0,1.0,3.0,1.0
0021400208,1610612758,SAC,Sacramento,201196,Ramon Sessions,G,,31:34,117.1,91.8,25.3,0.286,3.0,24.5,0.045,0.071,0.06,8.2,0.346,0.454,0.285,89.54,0.119,2014-11-25T00:00:00,4,1610612758,SAC,Sacramento,9-5,27,22,26,24,0,0,0,0,0,0,0,0,0,0,99,0.481,0.833,0.357,16,38,9,0021400208,1610612758,SAC,Sacramento,Ramon Sessions,G,,31:34,0.0,0.0,2.0,6.0,6.0,7.0,7.0,34.0,0.0,1.0,1.0,6.0
0021400208,1610612758,SAC,Sacramento,201196,Ramon Sessions,G,,31:34,117.1,91.8,25.3,0.286,3.0,24.5,0.045,0.071,0.06,8.2,0.346,0.454,0.285,89.54,0.119,2014-11-25T00:00:00,4,1610612740,NOP,New Orleans,7-6,16,33,21,19,0,0,0,0,0,0,0,0,0,0,89,0.418,0.69,0.176,15,40,10,0021400208,1610612758,SAC,Sacramento,Ramon Sessions,G,,31:34,0.0,0.0,2.0,6.0,6.0,7.0,7.0,34.0,0.0,1.0,1.0,6.0
0021400208,1610612758,SAC,Sacramento,202682,Derrick Williams,,,16:40,122.0,127.5,-5.5,0.0,0.0,0.0,0.0,0.105,0.067,0.0,0.0,0.0,0.164,86.57,-0.069,2014-11-25T00:00:00,4,1610612758,SAC,Sacramento,9-5,27,22,26,24,0,0,0,0,0,0,0,0,0,0,99,0.481,0.833,0.357,16,38,9,0021400208,1610612758,SAC,Sacramento,Derrick Williams,,,16:40,0.0,0.0,0.0,0.0,3.0,9.0,5.0,20.0,0.0,1.0,1.0,0.0
0021400208,1610612758,SAC,Sacramento,202682,Derrick Williams,,,16:40,122.0,127.5,-5.5,0.0,0.0,0.0,0.0,0.105,0.067,0.0,0.0,0.0,0.164,86.57,-0.069,2014-11-25T00:00:00,4,1610612740,NOP,New Orleans,7-6,16,33,21,19,0,0,0,0,0,0,0,0,0,0,89,0.418,0.69,0.176,15,40,10,0021400208,1610612758,SAC,Sacramento,Derrick Williams,,,16:40,0.0,0.0,0.0,0.0,3.0,9.0,5.0,20.0,0.0,1.0,1.0,0.0
0021400208,1610612758,SAC,Sacramento,203492,Ray McCallum,,,19:27,90.6,108.6,-18.0,0.1,0.5,8.5,0.0,0.143,0.086,17.0,0.571,0.685,0.279,90.62,0.18,2014-11-25T00:00:00,4,1610612758,SAC,Sacramento,9-5,27,22,26,24,0,0,0,0,0,0,0,0,0,0,99,0.481,0.833,0.357,16,38,9,0021400208,1610612758,SAC,Sacramento,Ray McCallum,,,19:27,4.0,4.0,2.0,2.0,3.0,8.0,6.0,24.0,0.0,0.0,4.0,2.0
0021400208,1610612758,SAC,Sacramento,203492,Ray McCallum,,,19:27,90.6,108.6,-18.0,0.1,0.5,8.5,0.0,0.143,0.086,17.0,0.571,0.685,0.279,90.62,0.18,2014-11-25T00:00:00,4,1610612740,NOP,New Orleans,7-6,16,33,21,19,0,0,0,0,0,0,0,0,0,0,89,0.418,0.69,0.176,15,40,10,0021400208,1610612758,SAC,Sacramento,Ray McCallum,,,19:27,4.0,4.0,2.0,2.0,3.0,8.0,6.0,24.0,0.0,0.0,4.0,2.0
0021400208,1610612758,SAC,Sacramento,203917,Nik Stauskas,,,23:50,103.7,134.6,-30.8,0.071,0.0,14.3,0.059,0.091,0.077,0.0,0.75,0.75,0.122,89.25,0.13,2014-11-25T00:00:00,4,1610612758,SAC,Sacramento,9-5,27,22,26,24,0,0,0,0,0,0,0,0,0,0,99,0.481,0.833,0.357,16,38,9,0021400208,1610612758,SAC,Sacramento,Nik Stauskas,,,23:50,0.0,0.0,0.0,0.0,5.0,12.0,11.0,34.0,2.0,0.0,2.0,1.0
0021400208,1610612758,SAC,Sacramento,203917,Nik Stauskas,,,23:50,103.7,134.6,-30.8,0.071,0.0,14.3,0.059,0.091,0.077,0.0,0.75,0.75,0.122,89.25,0.13,2014-11-25T00:00:00,4,1610612740,NOP,New Orleans,7-6,16,33,21,19,0,0,0,0,0,0,0,0,0,0,89,0.418,0.69,0.176,15,40,10,0021400208,1610612758,SAC,Sacramento,Nik Stauskas,,,23:50,0.0,0.0,0.0,0.0,5.0,12.0,11.0,34.0,2.0,0.0,2.0,1.0
0021400208,1610612758,SAC,Sacramento,201171,Carl Landry,,,15:45,115.2,137.3,-22.1,0.0,0.0,0.0,0.091,0.063,0.074,0.0,0.8,0.765,0.187,91.62,0.091,2014-11-25T00:00:00,4,1610612758,SAC,Sacramento,9-5,27,22,26,24,0,0,0,0,0,0,0,0,0,0,99,0.481,0.833,0.357,16,38,9,0021400208,1610612758,SAC,Sacramento,Carl Landry,,,15:45,2.0,0.0,2.0,8.0,5.0,8.0,9.0,22.0,0.0,1.0,3.0,1.0
0021400208,1610612758,SAC,Sacramento,201171,Carl Landry,,,15:45,115.2,137.3,-22.1,0.0,0.0,0.0,0.091,0.063,0.074,0.0,0.8,0.765,0.187,91.62,0.091,2014-11-25T00:00:00,4,1610612740,NOP,New Orleans,7-6,16,33,21,19,0,0,0,0,0,0,0,0,0,0,89,0.418,0.69,0.176,15,40,10,0021400208,1610612758,SAC,Sacramento,Carl Landry,,,15:45,2.0,0.0,2.0,8.0,5.0,8.0,9.0,22.0,0.0,1.0,3.0,1.0
0021400208,1610612758,SAC,Sacramento,201954,Darren Collison,,DND - Left Quadriceps Contusion         ,,,,,,,0.0,,,,,,,0.0,,,2014-11-25T00:00:00,4,1610612758,SAC,Sacramento,9-5,27,22,26,24,0,0,0,0,0,0,0,0,0,0,99,0.481,0.833,0.357,16,38,9,0021400208,1610612758,SAC,Sacramento,Darren Collison,,DND - Left Quadriceps Contusion         ,,,,,,,,,,,,,
0021400208,1610612758,SAC,Sacramento,201954,Darren Collison,,DND - Left Quadriceps Contusion         ,,,,,,,0.0,,,,,,,0.0,,,2014-11-25T00:00:00,4,1610612740,NOP,New Orleans,7-6,16,33,21,19,0,0,0,0,0,0,0,0,0,0,89,0.418,0.69,0.176,15,40,10,0021400208,1610612758,SAC,Sacramento,Darren Collison,,DND - Left Quadriceps Contusion         ,,,,,,,,,,,,,
0021400208,1610612758,SAC,Sacramento,2501,Reggie Evans,,DNP - Coach's Decision                  ,,,,,,,0.0,,,,,,,0.0,,,2014-11-25T00:00:00,4,1610612758,SAC,Sacramento,9-5,27,22,26,24,0,0,0,0,0,0,0,0,0,0,99,0.481,0.833,0.357,16,38,9,0021400208,1610612758,SAC,Sacramento,Reggie Evans,,DNP - Coach's Decision                  ,,,,,,,,,,,,,
0021400208,1610612758,SAC,Sacramento,2501,Reggie Evans,,DNP - Coach's Decision                  ,,,,,,,0.0,,,,,,,0.0,,,2014-11-25T00:00:00,4,1610612740,NOP,New Orleans,7-6,16,33,21,19,0,0,0,0,0,0,0,0,0,0,89,0.418,0.69,0.176,15,40,10,0021400208,1610612758,SAC,Sacramento,Reggie Evans,,DNP - Coach's Decision                  ,,,,,,,,,,,,,
0021400208,1610612758,SAC,Sacramento,200797,Ryan Hollins,,DNP - Coach's Decision                  ,,,,,,,0.0,,,,,,,0.0,,,2014-11-25T00:00:00,4,1610612758,SAC,Sacramento,9-5,27,22,26,24,0,0,0,0,0,0,0,0,0,0,99,0.481,0.833,0.357,16,38,9,0021400208,1610612758,SAC,Sacramento,Ryan Hollins,,DNP - Coach's Decision                  ,,,,,,,,,,,,,
0021400208,1610612758,SAC,Sacramento,200797,Ryan Hollins,,DNP - Coach's Decision                  ,,,,,,,0.0,,,,,,,0.0,,,2014-11-25T00:00:00,4,1610612740,NOP,New Orleans,7-6,16,33,21,19,0,0,0,0,0,0,0,0,0,0,89,0.418,0.69,0.176,15,40,10,0021400208,1610612758,SAC,Sacramento,Ryan Hollins,,DNP - Coach's Decision                  ,,,,,,,,,,,,,
0021400208,1610612740,NOP,New Orleans,203121,Darius Miller,F,,14:22,52.2,127.6,-75.5,0.0,0.0,0.0,0.0,0.0,0.0,0.0,0.0,0.0,0.098,92.55,-0.148,2014-11-25T00:00:00,4,1610612758,SAC,Sacramento,9-5,27,22,26,24,0,0,0,0,0,0,0,0,0,0,99,0.481,0.833,0.357,16,38,9,0021400208,1610612740,NOP,New Orleans,Darius Miller,F,,14:22,0.0,0.0,0.0,0.0,6.0,4.0,8.0,16.0,0.0,0.0,3.0,0.0
0021400208,1610612740,NOP,New Orleans,203121,Darius Miller,F,,14:22,52.2,127.6,-75.5,0.0,0.0,0.0,0.0,0.0,0.0,0.0,0.0,0.0,0.098,92.55,-0.148,2014-11-25T00:00:00,4,1610612740,NOP,New Orleans,7-6,16,33,21,19,0,0,0,0,0,0,0,0,0,0,89,0.418,0.69,0.176,15,40,10,0021400208,1610612740,NOP,New Orleans,Darius Miller,F,,14:22,0.0,0.0,0.0,0.0,6.0,4.0,8.0,16.0,0.0,0.0,3.0,0.0
0021400208,1610612740,NOP,New Orleans,203076,Anthony Davis,F,,37:49,89.5,108.8,-19.3,0.1,0.0,11.4,0.061,0.259,0.15,0.0,0.333,0.451,0.198,90.13,0.138,2014-11-25T00:00:00,4,1610612758,SAC,Sacramento,9-5,27,22,26,24,0,0,0,0,0,0,0,0,0,0,99,0.481,0.833,0.357,16,38,9,0021400208,1610612740,NOP,New Orleans,Anthony Davis,F,,37:49,2.0,0.0,3.0,6.0,15.0,11.0,14.0,40.0,2.0,0.0,2.0,6.0
0021400208,1610612740,NOP,New Orleans,203076,Anthony Davis,F,,37:49,89.5,108.8,-19.3,0.1,0.0,11.4,0.061,0.259,0.15,0.0,0.333,0.451,0.198,90.13,0.138,2014-11-25T00:00:00,4,1610612740,NOP,New Orleans,7-6,16,33,21,19,0,0,0,0,0,0,0,0,0,0,89,0.418,0.69,0.176,15,40,10,0021400208,1610612740,NOP,New Orleans,Anthony Davis,F,,37:49,2.0,0.0,3.0,6.0,15.0,11.0,14.0,40.0,2.0,0.0,2.0,6.0
0021400208,1610612740,NOP,New Orleans,201600,Omer Asik,C,,25:59,82.3,120.1,-37.8,0.0,0.0,0.0,0.208,0.118,0.171,0.0,0.2,0.255,0.108,89.49,0.007,2014-11-25T00:00:00,4,1610612758,SAC,Sacramento,9-5,27,22,26,24,0,0,0,0,0,0,0,0,0,0,99,0.481,0.833,0.357,16,38,9,0021400208,1610612740,NOP,New Orleans,Omer Asik,C,,25:59,0.0,1.0,0.0,2.0,12.0,8.0,12.0,28.0,0.0,2.0,3.0,1.0
0021400208,1610612740,NOP,New Orleans,201600,Omer Asik,C,,25:59,82.3,120.1,-37.8,0.0,0.0,0.0,0.208,0.118,0.171,0.0,0.2,0.255,0.108,89.49,0.007,2014-11-25T00:00:00,4,1610612740,NOP,New Orleans,7-6,16,33,21,19,0,0,0,0,0,0,0,0,0,0,89,0.418,0.69,0.176,15,40,10,0021400208,1610612740,NOP,New Orleans,Omer Asik,C,,25:59,0.0,1.0,0.0,2.0,12.0,8.0,12.0,28.0,0.0,2.0,3.0,1.0
0021400208,1610612740,NOP,New Orleans,201936,Tyreke Evans,G,,37:57,99.0,117.2,-18.2,0.313,1.0,17.4,0.029,0.25,0.121,17.4,0.588,0.586,0.294,88.84,0.149,2014-11-25T00:00:00,4,1610612758,SAC,Sacramento,9-5,27,22,26,24,0,0,0,0,0,0,0,0,0,0,99,0.481,0.833,0.357,16,38,9,0021400208,1610612740,NOP,New Orleans,Tyreke Evans,G,,37:57,2.0,6.0,2.0,20.0,15.0,11.0,16.0,38.0,0.0,1.0,3.0,2.0
0021400208,1610612740,NOP,New Orleans,201936,Tyreke Evans,G,,37:57,99.0,117.2,-18.2,0.313,1.0,17.4,0.029,0.25,0.121,17.4,0.588,0.586,0.294,88.84,0.149,2014-11-25T00:00:00,4,1610612740,NOP,New Orleans,7-6,16,33,21,19,0,0,0,0,0,0,0,0,0,0,89,0.418,0.69,0.176,15,40,10,0021400208,1610612740,NOP,New Orleans,Tyreke Evans,G,,37:57,2.0,6.0,2.0,20.0,15.0,11.0,16.0,38.0,0.0,1.0,3.0,2.0
0021400208,1610612740,NOP,New Orleans,201950,Jrue Holiday,G,,29:28,101.6,108.8,-7.2,0.176,1.0,16.8,0.043,0.091,0.067,16.8,0.455,0.463,0.252,88.22,0.034,2014-11-25T00:00:00,4,1610612758,SAC,Sacramento,9-5,27,22,26,24,0,0,0,0,0,0,0,0,0,0,99,0.481,0.833,0.357,16,38,9,0021400208,1610612740,NOP,New Orleans,Jrue Holiday,G,,29:28,2.0,2.0,0.0,6.0,11.0,9.0,10.0,30.0,1.0,0.0,5.0,1.0
0021400208,1610612740,NOP,New Orleans,201950,Jrue Holiday,G,,29:28,101.6,108.8,-7.2,0.176,1.0,16.8,0.043,0.091,0.067,16.8,0.455,0.463,0.252,88.22,0.034,2014-11-25T00:00:00,4,1610612740,NOP,New Orleans,7-6,16,33,21,19,0,0,0,0,0,0,0,0,0,0,89,0.418,0.69,0.176,15,40,10,0021400208,1610612740,NOP,New Orleans,Jrue Holiday,G,,29:28,2.0,2.0,0.0,6.0,11.0,9.0,10.0,30.0,1.0,0.0,5.0,1.0
0021400208,1610612740,NOP,New Orleans,202337,Luke Babbitt,,,8:55,104.7,95.5,9.2,0.143,0.0,33.3,0.0,0.286,0.118,0.0,0.0,0.0,0.099,91.41,0.0,2014-11-25T00:00:00,4,1610612758,SAC,Sacramento,9-5,27,22,26,24,0,0,0,0,0,0,0,0,0,0,99,0.481,0.833,0.357,16,38,9,0021400208,1610612740,NOP,New Orleans,Luke Babbitt,,,8:55,0.0,0.0,0.0,0.0,2.0,2.0,0.0,6.0,0.0,0.0,1.0,0.0
0021400208,1610612740,NOP,New Orleans,202337,Luke Babbitt,,,8:55,104.7,95.5,9.2,0.143,0.0,33.3,0.0,0.286,0.118,0.0,0.0,0.0,0.099,91.41,0.0,2014-11-25T00:00:00,4,1610612740,NOP,New Orleans,7-6,16,33,21,19,0,0,0,0,0,0,0,0,0,0,89,0.418,0.69,0.176,15,40,10,0021400208,1610612740,NOP,New Orleans,Luke Babbitt,,,8:55,0.0,0.0,0.0,0.0,2.0,2.0,0.0,6.0,0.0,0.0,1.0,0.0
0021400208,1610612740,NOP,New Orleans,203085,Austin Rivers,,,27:22,106.0,98.0,8.0,0.118,0.0,20.5,0.04,0.118,0.071,0.0,0.333,0.515,0.134,89.51,0.096,2014-11-25T00:00:00,4,1610612758,SAC,Sacramento,9-5,27,22,26,24,0,0,0,0,0,0,0,0,0,0,99,0.481,0.833,0.357,16,38,9,0021400208,1610612740,NOP,New Orleans,Austin Rivers,,,27:22,0.0,2.0,0.0,4.0,11.0,7.0,6.0,20.0,0.0,0.0,2.0,3.0
0021400208,1610612740,NOP,New Orleans,203085,Austin Rivers,,,27:22,106.0,98.0,8.0,0.118,0.0,20.5,0.04,0.118,0.071,0.0,0.333,0.515,0.134,89.51,0.096,2014-11-25T00:00:00,4,1610612740,NOP,New Orleans,7-6,16,33,21,19,0,0,0,0,0,0,0,0,0,0,89,0.418,0.69,0.176,15,40,10,0021400208,1610612740,NOP,New Orleans,Austin Rivers,,,27:22,0.0,2.0,0.0,4.0,11.0,7.0,6.0,20.0,0.0,0.0,2.0,3.0
0021400208,1610612740,NOP,New Orleans,201583,Ryan Anderson,,,29:35,116.1,103.3,12.8,0.0,0.0,0.0,0.069,0.158,0.104,0.0,0.607,0.653,0.232,90.29,0.161,2014-11-25T00:00:00,4,1610612758,SAC,Sacramento,9-5,27,22,26,24,0,0,0,0,0,0,0,0,0,0,99,0.481,0.833,0.357,16,38,9,0021400208,1610612740,NOP,New Orleans,Ryan Anderson,,,29:35,3.0,4.0,3.0,8.0,9.0,7.0,8.0,28.0,0.0,0.0,3.0,5.0
0021400208,1610612740,NOP,New Orleans,201583,Ryan Anderson,,,29:35,116.1,103.3,12.8,0.0,0.0,0.0,0.069,0.158,0.104,0.0,0.607,0.653,0.232,90.29,0.161,2014-11-25T00:00:00,4,1610612740,NOP,New Orleans,7-6,16,33,21,19,0,0,0,0,0,0,0,0,0,0,89,0.418,0.69,0.176,15,40,10,0021400208,1610612740,NOP,New Orleans,Ryan Anderson,,,29:35,3.0,4.0,3.0,8.0,9.0,7.0,8.0,28.0,0.0,0.0,3.0,5.0
0021400208,1610612740,NOP,New Orleans,202690,Jimmer Fredette,,,9:21,114.2,90.0,24.1,0.333,2.0,31.1,0.0,0.0,0.0,15.5,0.333,0.436,0.189,93.43,0.037,2014-11-25T00:00:00,4,1610612758,SAC,Sacramento,9-5,27,22,26,24,0,0,0,0,0,0,0,0,0,0,99,0.481,0.833,0.357,16,38,9,0021400208,1610612740,NOP,New Orleans,Jimmer Fredette,,,9:21,0.0,0.0,3.0,2.0,2.0,2.0,2.0,2.0,0.0,1.0,1.0,1.0
0021400208,1610612740,NOP,New Orleans,202690,Jimmer Fredette,,,9:21,114.2,90.0,24.1,0.333,2.0,31.1,0.0,0.0,0.0,15.5,0.333,0.436,0.189,93.43,0.037,2014-11-25T00:00:00,4,1610612740,NOP,New Orleans,7-6,16,33,21,19,0,0,0,0,0,0,0,0,0,0,89,0.418,0.69,0.176,15,40,10,0021400208,1610612740,NOP,New Orleans,Jimmer Fredette,,,9:21,0.0,0.0,3.0,2.0,2.0,2.0,2.0,2.0,0.0,1.0,1.0,1.0
0021400208,1610612740,NOP,New Orleans,203481,Jeff Withey,,,9:15,137.9,106.3,31.7,0.0,0.0,0.0,0.182,0.333,0.235,0.0,0.5,0.484,0.277,91.59,0.164,2014-11-25T00:00:00,4,1610612758,SAC,Sacramento,9-5,27,22,26,24,0,0,0,0,0,0,0,0,0,0,99,0.481,0.833,0.357,16,38,9,0021400208,1610612740,NOP,New Orleans,Jeff Withey,,,9:15,0.0,0.0,2.0,4.0,0.0,2.0,2.0,2.0,3.0,0.0,0.0,3.0
0021400208,1610612740,NOP,New Orleans,203481,Jeff Withey,,,9:15,137.9,106.3,31.7,0.0,0.0,0.0,0.182,0.333,0.235,0.0,0.5,0.484,0.277,91.59,0.164,2014-11-25T00:00:00,4,1610612740,NOP,New Orleans,7-6,16,33,21,19,0,0,0,0,0,0,0,0,0,0,89,0.418,0.69,0.176,15,40,10,0021400208,1610612740,NOP,New Orleans,Jeff Withey,,,9:15,0.0,0.0,2.0,4.0,0.0,2.0,2.0,2.0,3.0,0.0,0.0,3.0
0021400208,1610612740,NOP,New Orleans,2422,John Salmons,,,9:57,153.3,114.2,39.1,0.0,0.0,0.0,0.0,0.0,0.0,33.3,0.5,0.5,0.15,83.17,0.0,2014-11-25T00:00:00,4,1610612758,SAC,Sacramento,9-5,27,22,26,24,0,0,0,0,0,0,0,0,0,0,99,0.481,0.833,0.357,16,38,9,0021400208,1610612740,NOP,New Orleans,John Salmons,,,9:57,0.0,0.0,0.0,2.0,2.0,2.0,2.0,10.0,0.0,0.0,0.0,0.0
0021400208,1610612740,NOP,New Orleans,2422,John Salmons,,,9:57,153.3,114.2,39.1,0.0,0.0,0.0,0.0,0.0,0.0,33.3,0.5,0.5,0.15,83.17,0.0,2014-11-25T00:00:00,4,1610612740,NOP,New Orleans,7-6,16,33,21,19,0,0,0,0,0,0,0,0,0,0,89,0.418,0.69,0.176,15,40,10,0021400208,1610612740,NOP,New Orleans,John Salmons,,,9:57,0.0,0.0,0.0,2.0,2.0,2.0,2.0,10.0,0.0,0.0,0.0,0.0
0021400208,1610612740,NOP,New Orleans,201582,Alexis Ajinca,,DNP - Coach's Decision                  ,,,,,,,0.0,,,,,,,0.0,,,2014-11-25T00:00:00,4,1610612758,SAC,Sacramento,9-5,27,22,26,24,0,0,0,0,0,0,0,0,0,0,99,0.481,0.833,0.357,16,38,9,0021400208,1610612740,NOP,New Orleans,Alexis Ajinca,,DNP - Coach's Decision                  ,,,,,,,,,,,,,
0021400208,1610612740,NOP,New Orleans,201582,Alexis Ajinca,,DNP - Coach's Decision                  ,,,,,,,0.0,,,,,,,0.0,,,2014-11-25T00:00:00,4,1610612740,NOP,New Orleans,7-6,16,33,21,19,0,0,0,0,0,0,0,0,0,0,89,0.418,0.69,0.176,15,40,10,0021400208,1610612740,NOP,New Orleans,Alexis Ajinca,,DNP - Coach's Decision                  ,,,,,,,,,,,,,
0021400208,1610612740,NOP,New Orleans,203942,Patric Young,,DNP - Coach's Decision                  ,,,,,,,0.0,,,,,,,0.0,,,2014-11-25T00:00:00,4,1610612758,SAC,Sacramento,9-5,27,22,26,24,0,0,0,0,0,0,0,0,0,0,99,0.481,0.833,0.357,16,38,9,0021400208,1610612740,NOP,New Orleans,Patric Young,,DNP - Coach's Decision                  ,,,,,,,,,,,,,
0021400208,1610612740,NOP,New Orleans,203942,Patric Young,,DNP - Coach's Decision                  ,,,,,,,0.0,,,,,,,0.0,,,2014-11-25T00:00:00,4,1610612740,NOP,New Orleans,7-6,16,33,21,19,0,0,0,0,0,0,0,0,0,0,89,0.418,0.69,0.176,15,40,10,0021400208,1610612740,NOP,New Orleans,Patric Young,,DNP - Coach's Decision                  ,,,,,,,,,,,,,
