GAME_ID_x,TEAM_ID_x,TEAM_ABBREVIATION_x,TEAM_CITY_x,PLAYER_ID,PLAYER_NAME_x,START_POSITION_x,COMMENT_x,MIN_x,OFF_RATING,DEF_RATING,NET_RATING,AST_PCT,AST_TOV,AST_RATIO,OREB_PCT,DREB_PCT,REB_PCT,TM_TOV_PCT,EFG_PCT,TS_PCT,USG_PCT,PACE,PIE,GAME_DATE_EST,GAME_SEQUENCE,TEAM_ID_y,TEAM_ABBREVIATION_y,TEAM_CITY_NAME,TEAM_WINS_LOSSES,PTS_QTR1,PTS_QTR2,PTS_QTR3,PTS_QTR4,PTS_OT1,PTS_OT2,PTS_OT3,PTS_OT4,PTS_OT5,PTS_OT6,PTS_OT7,PTS_OT8,PTS_OT9,PTS_OT10,PTS,FG_PCT,FT_PCT,FG3_PCT,AST,REB,TOV,GAME_ID_y,TEAM_ID,TEAM_ABBREVIATION,TEAM_CITY_y,PLAYER_NAME_y,START_POSITION_y,COMMENT_y,MIN_y,PTS_OFF_TOV,PTS_2ND_CHANCE,PTS_FB,PTS_PAINT,OPP_PTS_OFF_TOV,OPP_PTS_2ND_CHANCE,OPP_PTS_FB,OPP_PTS_PAINT,BLK,BLKA,PF,PFD
0021400215,1610612761,TOR,Toronto,203082,Terrence Ross,F,,21:42,123.6,126.7,-3.1,0.0,0.0,0.0,0.0,0.071,0.034,0.0,0.714,0.761,0.171,92.81,0.092,2014-11-26T00:00:00,6,1610612761,TOR,Toronto,13-2,34,30,27,35,0,0,0,0,0,0,0,0,0,0,126,0.512,0.848,0.483,24,36,11,0021400215,1610612761,TOR,Toronto,Terrence Ross,F,,21:42,4.0,0.0,3.0,0.0,12.0,4.0,9.0,14.0,0.0,0.0,1.0,1.0
0021400215,1610612761,TOR,Toronto,203082,Terrence Ross,F,,21:42,123.6,126.7,-3.1,0.0,0.0,0.0,0.0,0.071,0.034,0.0,0.714,0.761,0.171,92.81,0.092,2014-11-26T00:00:00,6,1610612737,ATL,Atlanta,7-6,24,37,27,27,0,0,0,0,0,0,0,0,0,0,115,0.512,0.875,0.417,31,32,13,0021400215,1610612761,TOR,Toronto,Terrence Ross,F,,21:42,4.0,0.0,3.0,0.0,12.0,4.0,9.0,14.0,0.0,0.0,1.0,1.0
0021400215,1610612761,TOR,Toronto,101161,Amir Johnson,F,,27:34,129.8,116.5,13.2,0.095,2.0,18.2,0.1,0.091,0.095,9.1,0.625,0.625,0.146,95.45,0.074,2014-11-26T00:00:00,6,1610612761,TOR,Toronto,13-2,34,30,27,35,0,0,0,0,0,0,0,0,0,0,126,0.512,0.848,0.483,24,36,11,0021400215,1610612761,TOR,Toronto,Amir Johnson,F,,27:34,2.0,4.0,2.0,10.0,6.0,9.0,8.0,22.0,1.0,0.0,4.0,0.0
0021400215,1610612761,TOR,Toronto,101161,Amir Johnson,F,,27:34,129.8,116.5,13.2,0.095,2.0,18.2,0.1,0.091,0.095,9.1,0.625,0.625,0.146,95.45,0.074,2014-11-26T00:00:00,6,1610612737,ATL,Atlanta,7-6,24,37,27,27,0,0,0,0,0,0,0,0,0,0,115,0.512,0.875,0.417,31,32,13,0021400215,1610612761,TOR,Toronto,Amir Johnson,F,,27:34,2.0,4.0,2.0,10.0,6.0,9.0,8.0,22.0,1.0,0.0,4.0,0.0
0021400215,1610612761,TOR,Toronto,202685,Jonas Valanciunas,C,,23:36,119.6,121.7,-2.1,0.0,0.0,0.0,0.125,0.313,0.219,9.3,0.5,0.564,0.212,95.27,0.093,2014-11-26T00:00:00,6,1610612761,TOR,Toronto,13-2,34,30,27,35,0,0,0,0,0,0,0,0,0,0,126,0.512,0.848,0.483,24,36,11,0021400215,1610612761,TOR,Toronto,Jonas Valanciunas,C,,23:36,2.0,4.0,2.0,8.0,12.0,4.0,9.0,16.0,1.0,0.0,2.0,2.0
0021400215,1610612761,TOR,Toronto,202685,Jonas Valanciunas,C,,23:36,119.6,121.7,-2.1,0.0,0.0,0.0,0.125,0.313,0.219,9.3,0.5,0.564,0.212,95.27,0.093,2014-11-26T00:00:00,6,1610612737,ATL,Atlanta,7-6,24,37,27,27,0,0,0,0,0,0,0,0,0,0,115,0.512,0.875,0.417,31,32,13,0021400215,1610612761,TOR,Toronto,Jonas Valanciunas,C,,23:36,2.0,4.0,2.0,8.0,12.0,4.0,9.0,16.0,1.0,0.0,2.0,2.0
0021400215,1610612761,TOR,Toronto,201942,DeMar DeRozan,G,,32:39,126.4,117.8,8.7,0.105,0.4,7.4,0.045,0.074,0.061,18.5,0.563,0.676,0.34,97.54,0.125,2014-11-26T00:00:00,6,1610612761,TOR,Toronto,13-2,34,30,27,35,0,0,0,0,0,0,0,0,0,0,126,0.512,0.848,0.483,24,36,11,0021400215,1610612761,TOR,Toronto,DeMar DeRozan,G,,32:39,2.0,0.0,0.0,6.0,12.0,9.0,11.0,22.0,0.0,2.0,2.0,5.0
0021400215,1610612761,TOR,Toronto,201942,DeMar DeRozan,G,,32:39,126.4,117.8,8.7,0.105,0.4,7.4,0.045,0.074,0.061,18.5,0.563,0.676,0.34,97.54,0.125,2014-11-26T00:00:00,6,1610612737,ATL,Atlanta,7-6,24,37,27,27,0,0,0,0,0,0,0,0,0,0,115,0.512,0.875,0.417,31,32,13,0021400215,1610612761,TOR,Toronto,DeMar DeRozan,G,,32:39,2.0,0.0,0.0,6.0,12.0,9.0,11.0,22.0,0.0,2.0,2.0,5.0
0021400215,1610612761,TOR,Toronto,200768,Kyle Lowry,G,,32:37,138.1,115.3,22.9,0.5,13.0,44.0,0.05,0.185,0.128,3.4,0.333,0.451,0.227,97.63,0.123,2014-11-26T00:00:00,6,1610612761,TOR,Toronto,13-2,34,30,27,35,0,0,0,0,0,0,0,0,0,0,126,0.512,0.848,0.483,24,36,11,0021400215,1610612761,TOR,Toronto,Kyle Lowry,G,,32:37,0.0,0.0,1.0,2.0,9.0,9.0,9.0,26.0,0.0,0.0,4.0,7.0
0021400215,1610612761,TOR,Toronto,200768,Kyle Lowry,G,,32:37,138.1,115.3,22.9,0.5,13.0,44.0,0.05,0.185,0.128,3.4,0.333,0.451,0.227,97.63,0.123,2014-11-26T00:00:00,6,1610612737,ATL,Atlanta,7-6,24,37,27,27,0,0,0,0,0,0,0,0,0,0,115,0.512,0.875,0.417,31,32,13,0021400215,1610612761,TOR,Toronto,Kyle Lowry,G,,32:37,0.0,0.0,1.0,2.0,9.0,9.0,9.0,26.0,0.0,0.0,4.0,7.0
0021400215,1610612761,TOR,Toronto,101150,Lou Williams,,,26:18,135.9,111.3,24.7,0.125,0.0,12.8,0.0,0.0,0.0,0.0,0.727,0.806,0.222,100.53,0.192,2014-11-26T00:00:00,6,1610612761,TOR,Toronto,13-2,34,30,27,35,0,0,0,0,0,0,0,0,0,0,126,0.512,0.848,0.483,24,36,11,0021400215,1610612761,TOR,Toronto,Lou Williams,,,26:18,6.0,3.0,9.0,4.0,2.0,5.0,4.0,22.0,0.0,1.0,1.0,3.0
0021400215,1610612761,TOR,Toronto,101150,Lou Williams,,,26:18,135.9,111.3,24.7,0.125,0.0,12.8,0.0,0.0,0.0,0.0,0.727,0.806,0.222,100.53,0.192,2014-11-26T00:00:00,6,1610612737,ATL,Atlanta,7-6,24,37,27,27,0,0,0,0,0,0,0,0,0,0,115,0.512,0.875,0.417,31,32,13,0021400215,1610612761,TOR,Toronto,Lou Williams,,,26:18,6.0,3.0,9.0,4.0,2.0,5.0,4.0,22.0,0.0,1.0,1.0,3.0
0021400215,1610612761,TOR,Toronto,202335,Patrick Patterson,,,20:58,128.5,120.6,7.9,0.0,0.0,0.0,0.143,0.385,0.259,50.0,1.5,1.5,0.043,99.31,0.067,2014-11-26T00:00:00,6,1610612761,TOR,Toronto,13-2,34,30,27,35,0,0,0,0,0,0,0,0,0,0,126,0.512,0.848,0.483,24,36,11,0021400215,1610612761,TOR,Toronto,Patrick Patterson,,,20:58,0.0,0.0,0.0,0.0,8.0,1.0,5.0,14.0,2.0,0.0,4.0,0.0
0021400215,1610612761,TOR,Toronto,202335,Patrick Patterson,,,20:58,128.5,120.6,7.9,0.0,0.0,0.0,0.143,0.385,0.259,50.0,1.5,1.5,0.043,99.31,0.067,2014-11-26T00:00:00,6,1610612737,ATL,Atlanta,7-6,24,37,27,27,0,0,0,0,0,0,0,0,0,0,115,0.512,0.875,0.417,31,32,13,0021400215,1610612761,TOR,Toronto,Patrick Patterson,,,20:58,0.0,0.0,0.0,0.0,8.0,1.0,5.0,14.0,2.0,0.0,4.0,0.0
0021400215,1610612761,TOR,Toronto,101236,Chuck Hayes,,,17:25,139.4,112.2,27.1,0.067,1.0,17.0,0.154,0.3,0.217,17.0,0.333,0.258,0.125,97.56,0.013,2014-11-26T00:00:00,6,1610612761,TOR,Toronto,13-2,34,30,27,35,0,0,0,0,0,0,0,0,0,0,126,0.512,0.848,0.483,24,36,11,0021400215,1610612761,TOR,Toronto,Chuck Hayes,,,17:25,0.0,0.0,0.0,2.0,2.0,0.0,2.0,14.0,0.0,0.0,1.0,1.0
0021400215,1610612761,TOR,Toronto,101236,Chuck Hayes,,,17:25,139.4,112.2,27.1,0.067,1.0,17.0,0.154,0.3,0.217,17.0,0.333,0.258,0.125,97.56,0.013,2014-11-26T00:00:00,6,1610612737,ATL,Atlanta,7-6,24,37,27,27,0,0,0,0,0,0,0,0,0,0,115,0.512,0.875,0.417,31,32,13,0021400215,1610612761,TOR,Toronto,Chuck Hayes,,,17:25,0.0,0.0,0.0,2.0,2.0,0.0,2.0,14.0,0.0,0.0,1.0,1.0
0021400215,1610612761,TOR,Toronto,201949,James Johnson,,,20:24,147.8,120.1,27.7,0.056,0.0,20.0,0.067,0.0,0.036,0.0,0.5,0.5,0.084,96.73,0.031,2014-11-26T00:00:00,6,1610612761,TOR,Toronto,13-2,34,30,27,35,0,0,0,0,0,0,0,0,0,0,126,0.512,0.848,0.483,24,36,11,0021400215,1610612761,TOR,Toronto,James Johnson,,,20:24,0.0,0.0,2.0,4.0,2.0,4.0,4.0,18.0,3.0,1.0,3.0,2.0
0021400215,1610612761,TOR,Toronto,201949,James Johnson,,,20:24,147.8,120.1,27.7,0.056,0.0,20.0,0.067,0.0,0.036,0.0,0.5,0.5,0.084,96.73,0.031,2014-11-26T00:00:00,6,1610612737,ATL,Atlanta,7-6,24,37,27,27,0,0,0,0,0,0,0,0,0,0,115,0.512,0.875,0.417,31,32,13,0021400215,1610612761,TOR,Toronto,James Johnson,,,20:24,0.0,0.0,2.0,4.0,2.0,4.0,4.0,18.0,3.0,1.0,3.0,2.0
0021400215,1610612761,TOR,Toronto,202349,Greivis Vasquez,,,16:47,113.0,119.9,-6.9,0.5,3.0,17.8,0.0,0.25,0.083,5.9,0.792,0.815,0.369,97.01,0.262,2014-11-26T00:00:00,6,1610612761,TOR,Toronto,13-2,34,30,27,35,0,0,0,0,0,0,0,0,0,0,126,0.512,0.848,0.483,24,36,11,0021400215,1610612761,TOR,Toronto,Greivis Vasquez,,,16:47,3.0,6.0,6.0,6.0,5.0,0.0,4.0,12.0,0.0,0.0,2.0,3.0
0021400215,1610612761,TOR,Toronto,202349,Greivis Vasquez,,,16:47,113.0,119.9,-6.9,0.5,3.0,17.8,0.0,0.25,0.083,5.9,0.792,0.815,0.369,97.01,0.262,2014-11-26T00:00:00,6,1610612737,ATL,Atlanta,7-6,24,37,27,27,0,0,0,0,0,0,0,0,0,0,115,0.512,0.875,0.417,31,32,13,0021400215,1610612761,TOR,Toronto,Greivis Vasquez,,,16:47,3.0,6.0,6.0,6.0,5.0,0.0,4.0,12.0,0.0,0.0,2.0,3.0
0021400215,1610612761,TOR,Toronto,202361,Landry Fields,,DNP - Coach's Decision                  ,,,,,,,0.0,,,,,,,0.0,,,2014-11-26T00:00:00,6,1610612761,TOR,Toronto,13-2,34,30,27,35,0,0,0,0,0,0,0,0,0,0,126,0.512,0.848,0.483,24,36,11,0021400215,1610612761,TOR,Toronto,Landry Fields,,DNP - Coach's Decision                  ,,,,,,,,,,,,,
0021400215,1610612761,TOR,Toronto,202361,Landry Fields,,DNP - Coach's Decision                  ,,,,,,,0.0,,,,,,,0.0,,,2014-11-26T00:00:00,6,1610612737,ATL,Atlanta,7-6,24,37,27,27,0,0,0,0,0,0,0,0,0,0,115,0.512,0.875,0.417,31,32,13,0021400215,1610612761,TOR,Toronto,Landry Fields,,DNP - Coach's Decision                  ,,,,,,,,,,,,,
0021400215,1610612761,TOR,Toronto,203512,Lucas Nogueira,,DNP - Coach's Decision                  ,,,,,,,0.0,,,,,,,0.0,,,2014-11-26T00:00:00,6,1610612761,TOR,Toronto,13-2,34,30,27,35,0,0,0,0,0,0,0,0,0,0,126,0.512,0.848,0.483,24,36,11,0021400215,1610612761,TOR,Toronto,Lucas Nogueira,,DNP - Coach's Decision                  ,,,,,,,,,,,,,
0021400215,1610612761,TOR,Toronto,203512,Lucas Nogueira,,DNP - Coach's Decision                  ,,,,,,,0.0,,,,,,,0.0,,,2014-11-26T00:00:00,6,1610612737,ATL,Atlanta,7-6,24,37,27,27,0,0,0,0,0,0,0,0,0,0,115,0.512,0.875,0.417,31,32,13,0021400215,1610612761,TOR,Toronto,Lucas Nogueira,,DNP - Coach's Decision                  ,,,,,,,,,,,,,
0021400215,1610612761,TOR,Toronto,201880,Greg Stiemsma,,DNP - Coach's Decision                  ,,,,,,,0.0,,,,,,,0.0,,,2014-11-26T00:00:00,6,1610612761,TOR,Toronto,13-2,34,30,27,35,0,0,0,0,0,0,0,0,0,0,126,0.512,0.848,0.483,24,36,11,0021400215,1610612761,TOR,Toronto,Greg Stiemsma,,DNP - Coach's Decision                  ,,,,,,,,,,,,,
0021400215,1610612761,TOR,Toronto,201880,Greg Stiemsma,,DNP - Coach's Decision                  ,,,,,,,0.0,,,,,,,0.0,,,2014-11-26T00:00:00,6,1610612737,ATL,Atlanta,7-6,24,37,27,27,0,0,0,0,0,0,0,0,0,0,115,0.512,0.875,0.417,31,32,13,0021400215,1610612761,TOR,Toronto,Greg Stiemsma,,DNP - Coach's Decision                  ,,,,,,,,,,,,,
0021400215,1610612737,ATL,Atlanta,201960,DeMarre Carroll,F,,38:43,121.1,130.8,-9.7,0.032,0.0,7.8,0.077,0.034,0.055,0.0,0.545,0.589,0.14,95.49,0.044,2014-11-26T00:00:00,6,1610612761,TOR,Toronto,13-2,34,30,27,35,0,0,0,0,0,0,0,0,0,0,126,0.512,0.848,0.483,24,36,11,0021400215,1610612737,ATL,Atlanta,DeMarre Carroll,F,,38:43,0.0,2.0,0.0,2.0,17.0,17.0,16.0,34.0,1.0,0.0,4.0,1.0
0021400215,1610612737,ATL,Atlanta,201960,DeMarre Carroll,F,,38:43,121.1,130.8,-9.7,0.032,0.0,7.8,0.077,0.034,0.055,0.0,0.545,0.589,0.14,95.49,0.044,2014-11-26T00:00:00,6,1610612737,ATL,Atlanta,7-6,24,37,27,27,0,0,0,0,0,0,0,0,0,0,115,0.512,0.875,0.417,31,32,13,0021400215,1610612737,ATL,Atlanta,DeMarre Carroll,F,,38:43,0.0,2.0,0.0,2.0,17.0,17.0,16.0,34.0,1.0,0.0,4.0,1.0
0021400215,1610612737,ATL,Atlanta,200794,Paul Millsap,F,,35:57,123.8,141.9,-18.1,0.138,4.0,25.4,0.115,0.091,0.104,6.3,0.333,0.372,0.144,94.16,0.033,2014-11-26T00:00:00,6,1610612761,TOR,Toronto,13-2,34,30,27,35,0,0,0,0,0,0,0,0,0,0,126,0.512,0.848,0.483,24,36,11,0021400215,1610612737,ATL,Atlanta,Paul Millsap,F,,35:57,3.0,1.0,0.0,6.0,10.0,14.0,19.0,32.0,0.0,1.0,2.0,5.0
0021400215,1610612737,ATL,Atlanta,200794,Paul Millsap,F,,35:57,123.8,141.9,-18.1,0.138,4.0,25.4,0.115,0.091,0.104,6.3,0.333,0.372,0.144,94.16,0.033,2014-11-26T00:00:00,6,1610612737,ATL,Atlanta,7-6,24,37,27,27,0,0,0,0,0,0,0,0,0,0,115,0.512,0.875,0.417,31,32,13,0021400215,1610612737,ATL,Atlanta,Paul Millsap,F,,35:57,3.0,1.0,0.0,6.0,10.0,14.0,19.0,32.0,0.0,1.0,2.0,5.0
0021400215,1610612737,ATL,Atlanta,201143,Al Horford,C,,32:16,131.9,133.9,-2.0,0.19,4.0,18.3,0.091,0.28,0.191,4.6,0.688,0.681,0.255,93.44,0.173,2014-11-26T00:00:00,6,1610612761,TOR,Toronto,13-2,34,30,27,35,0,0,0,0,0,0,0,0,0,0,126,0.512,0.848,0.483,24,36,11,0021400215,1610612737,ATL,Atlanta,Al Horford,C,,32:16,0.0,6.0,2.0,10.0,10.0,11.0,14.0,32.0,2.0,0.0,1.0,1.0
0021400215,1610612737,ATL,Atlanta,201143,Al Horford,C,,32:16,131.9,133.9,-2.0,0.19,4.0,18.3,0.091,0.28,0.191,4.6,0.688,0.681,0.255,93.44,0.173,2014-11-26T00:00:00,6,1610612737,ATL,Atlanta,7-6,24,37,27,27,0,0,0,0,0,0,0,0,0,0,115,0.512,0.875,0.417,31,32,13,0021400215,1610612737,ATL,Atlanta,Al Horford,C,,32:16,0.0,6.0,2.0,10.0,10.0,11.0,14.0,32.0,2.0,0.0,1.0,1.0
0021400215,1610612737,ATL,Atlanta,2594,Kyle Korver,G,,36:32,128.6,127.7,0.8,0.111,1.0,18.4,0.038,0.125,0.08,18.4,0.889,0.921,0.164,95.86,0.113,2014-11-26T00:00:00,6,1610612761,TOR,Toronto,13-2,34,30,27,35,0,0,0,0,0,0,0,0,0,0,126,0.512,0.848,0.483,24,36,11,0021400215,1610612737,ATL,Atlanta,Kyle Korver,G,,36:32,6.0,0.0,0.0,0.0,15.0,14.0,17.0,32.0,1.0,1.0,2.0,3.0
0021400215,1610612737,ATL,Atlanta,2594,Kyle Korver,G,,36:32,128.6,127.7,0.8,0.111,1.0,18.4,0.038,0.125,0.08,18.4,0.889,0.921,0.164,95.86,0.113,2014-11-26T00:00:00,6,1610612737,ATL,Atlanta,7-6,24,37,27,27,0,0,0,0,0,0,0,0,0,0,115,0.512,0.875,0.417,31,32,13,0021400215,1610612737,ATL,Atlanta,Kyle Korver,G,,36:32,6.0,0.0,0.0,0.0,15.0,14.0,17.0,32.0,1.0,1.0,2.0,3.0
0021400215,1610612737,ATL,Atlanta,201952,Jeff Teague,G,,34:07,127.7,131.0,-3.4,0.5,2.4,34.8,0.0,0.136,0.064,14.5,0.571,0.685,0.299,95.17,0.15,2014-11-26T00:00:00,6,1610612761,TOR,Toronto,13-2,34,30,27,35,0,0,0,0,0,0,0,0,0,0,126,0.512,0.848,0.483,24,36,11,0021400215,1610612737,ATL,Atlanta,Jeff Teague,G,,34:07,5.0,0.0,11.0,10.0,13.0,14.0,17.0,30.0,0.0,2.0,5.0,10.0
0021400215,1610612737,ATL,Atlanta,201952,Jeff Teague,G,,34:07,127.7,131.0,-3.4,0.5,2.4,34.8,0.0,0.136,0.064,14.5,0.571,0.685,0.299,95.17,0.15,2014-11-26T00:00:00,6,1610612737,ATL,Atlanta,7-6,24,37,27,27,0,0,0,0,0,0,0,0,0,0,115,0.512,0.875,0.417,31,32,13,0021400215,1610612737,ATL,Atlanta,Jeff Teague,G,,34:07,5.0,0.0,11.0,10.0,13.0,14.0,17.0,30.0,0.0,2.0,5.0,10.0
0021400215,1610612737,ATL,Atlanta,203544,Pero Antic,,,17:01,99.3,110.7,-11.4,0.1,1.0,17.0,0.0,0.25,0.125,17.0,0.5,0.644,0.124,106.26,0.102,2014-11-26T00:00:00,6,1610612761,TOR,Toronto,13-2,34,30,27,35,0,0,0,0,0,0,0,0,0,0,126,0.512,0.848,0.483,24,36,11,0021400215,1610612737,ATL,Atlanta,Pero Antic,,,17:01,0.0,0.0,0.0,0.0,9.0,6.0,11.0,10.0,0.0,0.0,1.0,3.0
0021400215,1610612737,ATL,Atlanta,203544,Pero Antic,,,17:01,99.3,110.7,-11.4,0.1,1.0,17.0,0.0,0.25,0.125,17.0,0.5,0.644,0.124,106.26,0.102,2014-11-26T00:00:00,6,1610612737,ATL,Atlanta,7-6,24,37,27,27,0,0,0,0,0,0,0,0,0,0,115,0.512,0.875,0.417,31,32,13,0021400215,1610612737,ATL,Atlanta,Pero Antic,,,17:01,0.0,0.0,0.0,0.0,9.0,6.0,11.0,10.0,0.0,0.0,1.0,3.0
0021400215,1610612737,ATL,Atlanta,203118,Mike Scott,,,10:46,90.9,120.0,-29.1,0.0,0.0,0.0,0.0,0.111,0.059,16.7,0.4,0.4,0.273,102.9,0.0,2014-11-26T00:00:00,6,1610612761,TOR,Toronto,13-2,34,30,27,35,0,0,0,0,0,0,0,0,0,0,126,0.512,0.848,0.483,24,36,11,0021400215,1610612737,ATL,Atlanta,Mike Scott,,,10:46,0.0,0.0,0.0,0.0,9.0,3.0,6.0,10.0,0.0,1.0,1.0,0.0
0021400215,1610612737,ATL,Atlanta,203118,Mike Scott,,,10:46,90.9,120.0,-29.1,0.0,0.0,0.0,0.0,0.111,0.059,16.7,0.4,0.4,0.273,102.9,0.0,2014-11-26T00:00:00,6,1610612737,ATL,Atlanta,7-6,24,37,27,27,0,0,0,0,0,0,0,0,0,0,115,0.512,0.875,0.417,31,32,13,0021400215,1610612737,ATL,Atlanta,Mike Scott,,,10:46,0.0,0.0,0.0,0.0,9.0,3.0,6.0,10.0,0.0,1.0,1.0,0.0
0021400215,1610612737,ATL,Atlanta,202714,Shelvin Mack,,,15:02,90.7,127.1,-36.4,0.0,0.0,0.0,0.0,0.083,0.042,11.8,0.143,0.202,0.241,103.07,-0.093,2014-11-26T00:00:00,6,1610612761,TOR,Toronto,13-2,34,30,27,35,0,0,0,0,0,0,0,0,0,0,126,0.512,0.848,0.483,24,36,11,0021400215,1610612737,ATL,Atlanta,Shelvin Mack,,,15:02,0.0,0.0,0.0,0.0,6.0,3.0,10.0,14.0,0.0,1.0,2.0,0.0
0021400215,1610612737,ATL,Atlanta,202714,Shelvin Mack,,,15:02,90.7,127.1,-36.4,0.0,0.0,0.0,0.0,0.083,0.042,11.8,0.143,0.202,0.241,103.07,-0.093,2014-11-26T00:00:00,6,1610612737,ATL,Atlanta,7-6,24,37,27,27,0,0,0,0,0,0,0,0,0,0,115,0.512,0.875,0.417,31,32,13,0021400215,1610612737,ATL,Atlanta,Shelvin Mack,,,15:02,0.0,0.0,0.0,0.0,6.0,3.0,10.0,14.0,0.0,1.0,2.0,0.0
0021400215,1610612737,ATL,Atlanta,203471,Dennis Schroder,,,15:55,102.7,138.1,-35.4,0.75,0.0,46.6,0.0,0.083,0.045,0.0,0.917,0.945,0.196,102.71,0.197,2014-11-26T00:00:00,6,1610612761,TOR,Toronto,13-2,34,30,27,35,0,0,0,0,0,0,0,0,0,0,126,0.512,0.848,0.483,24,36,11,0021400215,1610612737,ATL,Atlanta,Dennis Schroder,,,15:55,0.0,0.0,0.0,6.0,6.0,3.0,14.0,14.0,0.0,0.0,5.0,1.0
0021400215,1610612737,ATL,Atlanta,203471,Dennis Schroder,,,15:55,102.7,138.1,-35.4,0.75,0.0,46.6,0.0,0.083,0.045,0.0,0.917,0.945,0.196,102.71,0.197,2014-11-26T00:00:00,6,1610612737,ATL,Atlanta,7-6,24,37,27,27,0,0,0,0,0,0,0,0,0,0,115,0.512,0.875,0.417,31,32,13,0021400215,1610612737,ATL,Atlanta,Dennis Schroder,,,15:55,0.0,0.0,0.0,6.0,6.0,3.0,14.0,14.0,0.0,0.0,5.0,1.0
0021400215,1610612737,ATL,Atlanta,203145,Kent Bazemore,,,3:41,80.6,130.8,-50.2,0.0,0.0,0.0,0.333,0.333,0.333,0.0,0.5,0.5,0.237,93.31,0.111,2014-11-26T00:00:00,6,1610612761,TOR,Toronto,13-2,34,30,27,35,0,0,0,0,0,0,0,0,0,0,126,0.512,0.848,0.483,24,36,11,0021400215,1610612737,ATL,Atlanta,Kent Bazemore,,,3:41,0.0,0.0,0.0,2.0,0.0,0.0,1.0,2.0,0.0,1.0,1.0,0.0
0021400215,1610612737,ATL,Atlanta,203145,Kent Bazemore,,,3:41,80.6,130.8,-50.2,0.0,0.0,0.0,0.333,0.333,0.333,0.0,0.5,0.5,0.237,93.31,0.111,2014-11-26T00:00:00,6,1610612737,ATL,Atlanta,7-6,24,37,27,27,0,0,0,0,0,0,0,0,0,0,115,0.512,0.875,0.417,31,32,13,0021400215,1610612737,ATL,Atlanta,Kent Bazemore,,,3:41,0.0,0.0,0.0,2.0,0.0,0.0,1.0,2.0,0.0,1.0,1.0,0.0
0021400215,1610612737,ATL,Atlanta,1882,Elton Brand,,DNP - Coach's Decision                  ,,,,,,,0.0,,,,,,,0.0,,,2014-11-26T00:00:00,6,1610612761,TOR,Toronto,13-2,34,30,27,35,0,0,0,0,0,0,0,0,0,0,126,0.512,0.848,0.483,24,36,11,0021400215,1610612737,ATL,Atlanta,Elton Brand,,DNP - Coach's Decision                  ,,,,,,,,,,,,,
0021400215,1610612737,ATL,Atlanta,1882,Elton Brand,,DNP - Coach's Decision                  ,,,,,,,0.0,,,,,,,0.0,,,2014-11-26T00:00:00,6,1610612737,ATL,Atlanta,7-6,24,37,27,27,0,0,0,0,0,0,0,0,0,0,115,0.512,0.875,0.417,31,32,13,0021400215,1610612737,ATL,Atlanta,Elton Brand,,DNP - Coach's Decision                  ,,,,,,,,,,,,,
0021400215,1610612737,ATL,Atlanta,203098,John Jenkins,,DNP - Coach's Decision                  ,,,,,,,0.0,,,,,,,0.0,,,2014-11-26T00:00:00,6,1610612761,TOR,Toronto,13-2,34,30,27,35,0,0,0,0,0,0,0,0,0,0,126,0.512,0.848,0.483,24,36,11,0021400215,1610612737,ATL,Atlanta,John Jenkins,,DNP - Coach's Decision                  ,,,,,,,,,,,,,
0021400215,1610612737,ATL,Atlanta,203098,John Jenkins,,DNP - Coach's Decision                  ,,,,,,,0.0,,,,,,,0.0,,,2014-11-26T00:00:00,6,1610612737,ATL,Atlanta,7-6,24,37,27,27,0,0,0,0,0,0,0,0,0,0,115,0.512,0.875,0.417,31,32,13,0021400215,1610612737,ATL,Atlanta,John Jenkins,,DNP - Coach's Decision                  ,,,,,,,,,,,,,
0021400215,1610612737,ATL,Atlanta,203488,Mike Muscala,,DNP - Coach's Decision                  ,,,,,,,0.0,,,,,,,0.0,,,2014-11-26T00:00:00,6,1610612761,TOR,Toronto,13-2,34,30,27,35,0,0,0,0,0,0,0,0,0,0,126,0.512,0.848,0.483,24,36,11,0021400215,1610612737,ATL,Atlanta,Mike Muscala,,DNP - Coach's Decision                  ,,,,,,,,,,,,,
0021400215,1610612737,ATL,Atlanta,203488,Mike Muscala,,DNP - Coach's Decision                  ,,,,,,,0.0,,,,,,,0.0,,,2014-11-26T00:00:00,6,1610612737,ATL,Atlanta,7-6,24,37,27,27,0,0,0,0,0,0,0,0,0,0,115,0.512,0.875,0.417,31,32,13,0021400215,1610612737,ATL,Atlanta,Mike Muscala,,DNP - Coach's Decision                  ,,,,,,,,,,,,,
