GAME_ID_x,TEAM_ID_x,TEAM_ABBREVIATION_x,TEAM_CITY_x,PLAYER_ID,PLAYER_NAME_x,START_POSITION_x,COMMENT_x,MIN_x,OFF_RATING,DEF_RATING,NET_RATING,AST_PCT,AST_TOV,AST_RATIO,OREB_PCT,DREB_PCT,REB_PCT,TM_TOV_PCT,EFG_PCT,TS_PCT,USG_PCT,PACE,PIE,GAME_DATE_EST,GAME_SEQUENCE,TEAM_ID_y,TEAM_ABBREVIATION_y,TEAM_CITY_NAME,TEAM_WINS_LOSSES,PTS_QTR1,PTS_QTR2,PTS_QTR3,PTS_QTR4,PTS_OT1,PTS_OT2,PTS_OT3,PTS_OT4,PTS_OT5,PTS_OT6,PTS_OT7,PTS_OT8,PTS_OT9,PTS_OT10,PTS,FG_PCT,FT_PCT,FG3_PCT,AST,REB,TOV,GAME_ID_y,TEAM_ID,TEAM_ABBREVIATION,TEAM_CITY_y,PLAYER_NAME_y,START_POSITION_y,COMMENT_y,MIN_y,PTS_OFF_TOV,PTS_2ND_CHANCE,PTS_FB,PTS_PAINT,OPP_PTS_OFF_TOV,OPP_PTS_2ND_CHANCE,OPP_PTS_FB,OPP_PTS_PAINT,BLK,BLKA,PF,PFD
0021400217,1610612758,SAC,Sacramento,201956,Omri Casspi,F,,41:08,97.7,107.8,-10.1,0.087,1.0,13.6,0.069,0.111,0.095,13.6,0.556,0.651,0.149,91.46,0.096,2014-11-26T00:00:00,8,1610612758,SAC,Sacramento,9-6,19,31,23,16,0,0,0,0,0,0,0,0,0,0,89,0.437,0.786,0.313,16,48,20,0021400217,1610612758,SAC,Sacramento,Omri Casspi,F,,41:08,0.0,0.0,2.0,10.0,26.0,6.0,15.0,42.0,0.0,0.0,3.0,5.0
0021400217,1610612758,SAC,Sacramento,201956,Omri Casspi,F,,41:08,97.7,107.8,-10.1,0.087,1.0,13.6,0.069,0.111,0.095,13.6,0.556,0.651,0.149,91.46,0.096,2014-11-26T00:00:00,8,1610612745,HOU,Houston,12-3,37,20,20,25,0,0,0,0,0,0,0,0,0,0,102,0.447,0.4,0.343,26,41,4,0021400217,1610612758,SAC,Sacramento,Omri Casspi,F,,41:08,0.0,0.0,2.0,10.0,26.0,6.0,15.0,42.0,0.0,0.0,3.0,5.0
0021400217,1610612758,SAC,Sacramento,201574,Jason Thompson,F,,35:07,86.4,109.2,-22.7,0.05,1.0,9.1,0.167,0.158,0.162,9.1,0.333,0.333,0.129,91.75,0.074,2014-11-26T00:00:00,8,1610612758,SAC,Sacramento,9-6,19,31,23,16,0,0,0,0,0,0,0,0,0,0,89,0.437,0.786,0.313,16,48,20,0021400217,1610612758,SAC,Sacramento,Jason Thompson,F,,35:07,0.0,2.0,0.0,6.0,24.0,4.0,15.0,34.0,3.0,2.0,4.0,3.0
0021400217,1610612758,SAC,Sacramento,201574,Jason Thompson,F,,35:07,86.4,109.2,-22.7,0.05,1.0,9.1,0.167,0.158,0.162,9.1,0.333,0.333,0.129,91.75,0.074,2014-11-26T00:00:00,8,1610612745,HOU,Houston,12-3,37,20,20,25,0,0,0,0,0,0,0,0,0,0,102,0.447,0.4,0.343,26,41,4,0021400217,1610612758,SAC,Sacramento,Jason Thompson,F,,35:07,0.0,2.0,0.0,6.0,24.0,4.0,15.0,34.0,3.0,2.0,4.0,3.0
0021400217,1610612758,SAC,Sacramento,202326,DeMarcus Cousins,C,,36:50,94.1,109.7,-15.6,0.353,0.86,16.3,0.103,0.359,0.25,19.1,0.5,0.611,0.364,94.15,0.26,2014-11-26T00:00:00,8,1610612758,SAC,Sacramento,9-6,19,31,23,16,0,0,0,0,0,0,0,0,0,0,89,0.437,0.786,0.313,16,48,20,0021400217,1610612758,SAC,Sacramento,DeMarcus Cousins,C,,36:50,0.0,6.0,0.0,14.0,28.0,4.0,15.0,30.0,3.0,2.0,5.0,10.0
0021400217,1610612758,SAC,Sacramento,202326,DeMarcus Cousins,C,,36:50,94.1,109.7,-15.6,0.353,0.86,16.3,0.103,0.359,0.25,19.1,0.5,0.611,0.364,94.15,0.26,2014-11-26T00:00:00,8,1610612745,HOU,Houston,12-3,37,20,20,25,0,0,0,0,0,0,0,0,0,0,102,0.447,0.4,0.343,26,41,4,0021400217,1610612758,SAC,Sacramento,DeMarcus Cousins,C,,36:50,0.0,6.0,0.0,14.0,28.0,4.0,15.0,30.0,3.0,2.0,5.0,10.0
0021400217,1610612758,SAC,Sacramento,203463,Ben McLemore,G,,37:59,94.4,111.2,-16.8,0.05,1.0,5.3,0.0,0.075,0.043,5.3,0.412,0.412,0.211,91.88,0.04,2014-11-26T00:00:00,8,1610612758,SAC,Sacramento,9-6,19,31,23,16,0,0,0,0,0,0,0,0,0,0,89,0.437,0.786,0.313,16,48,20,0021400217,1610612758,SAC,Sacramento,Ben McLemore,G,,37:59,2.0,0.0,4.0,8.0,28.0,4.0,15.0,34.0,1.0,1.0,2.0,0.0
0021400217,1610612758,SAC,Sacramento,203463,Ben McLemore,G,,37:59,94.4,111.2,-16.8,0.05,1.0,5.3,0.0,0.075,0.043,5.3,0.412,0.412,0.211,91.88,0.04,2014-11-26T00:00:00,8,1610612745,HOU,Houston,12-3,37,20,20,25,0,0,0,0,0,0,0,0,0,0,102,0.447,0.4,0.343,26,41,4,0021400217,1610612758,SAC,Sacramento,Ben McLemore,G,,37:59,2.0,0.0,4.0,8.0,28.0,4.0,15.0,34.0,1.0,1.0,2.0,0.0
0021400217,1610612758,SAC,Sacramento,201196,Ramon Sessions,G,,34:33,96.0,100.7,-4.7,0.143,0.6,17.8,0.0,0.075,0.044,29.6,0.438,0.45,0.184,90.39,0.029,2014-11-26T00:00:00,8,1610612758,SAC,Sacramento,9-6,19,31,23,16,0,0,0,0,0,0,0,0,0,0,89,0.437,0.786,0.313,16,48,20,0021400217,1610612758,SAC,Sacramento,Ramon Sessions,G,,34:33,1.0,0.0,0.0,2.0,24.0,4.0,15.0,30.0,0.0,0.0,0.0,2.0
0021400217,1610612758,SAC,Sacramento,201196,Ramon Sessions,G,,34:33,96.0,100.7,-4.7,0.143,0.6,17.8,0.0,0.075,0.044,29.6,0.438,0.45,0.184,90.39,0.029,2014-11-26T00:00:00,8,1610612745,HOU,Houston,12-3,37,20,20,25,0,0,0,0,0,0,0,0,0,0,102,0.447,0.4,0.343,26,41,4,0021400217,1610612758,SAC,Sacramento,Ramon Sessions,G,,34:33,1.0,0.0,0.0,2.0,24.0,4.0,15.0,30.0,0.0,0.0,0.0,2.0
0021400217,1610612758,SAC,Sacramento,202682,Derrick Williams,,,9:50,96.0,142.9,-46.9,0.0,0.0,0.0,0.0,0.0,0.0,32.3,1.25,0.833,0.25,102.12,0.041,2014-11-26T00:00:00,8,1610612758,SAC,Sacramento,9-6,19,31,23,16,0,0,0,0,0,0,0,0,0,0,89,0.437,0.786,0.313,16,48,20,0021400217,1610612758,SAC,Sacramento,Derrick Williams,,,9:50,0.0,0.0,1.0,2.0,10.0,2.0,8.0,20.0,0.0,0.0,0.0,3.0
0021400217,1610612758,SAC,Sacramento,202682,Derrick Williams,,,9:50,96.0,142.9,-46.9,0.0,0.0,0.0,0.0,0.0,0.0,32.3,1.25,0.833,0.25,102.12,0.041,2014-11-26T00:00:00,8,1610612745,HOU,Houston,12-3,37,20,20,25,0,0,0,0,0,0,0,0,0,0,102,0.447,0.4,0.343,26,41,4,0021400217,1610612758,SAC,Sacramento,Derrick Williams,,,9:50,0.0,0.0,1.0,2.0,10.0,2.0,8.0,20.0,0.0,0.0,0.0,3.0
0021400217,1610612758,SAC,Sacramento,203492,Ray McCallum,,,13:27,90.5,136.6,-46.1,0.286,2.0,50.0,0.0,0.091,0.048,25.0,0.0,0.0,0.07,99.57,0.0,2014-11-26T00:00:00,8,1610612758,SAC,Sacramento,9-6,19,31,23,16,0,0,0,0,0,0,0,0,0,0,89,0.437,0.786,0.313,16,48,20,0021400217,1610612758,SAC,Sacramento,Ray McCallum,,,13:27,0.0,0.0,0.0,0.0,8.0,2.0,4.0,22.0,0.0,0.0,1.0,0.0
0021400217,1610612758,SAC,Sacramento,203492,Ray McCallum,,,13:27,90.5,136.6,-46.1,0.286,2.0,50.0,0.0,0.091,0.048,25.0,0.0,0.0,0.07,99.57,0.0,2014-11-26T00:00:00,8,1610612745,HOU,Houston,12-3,37,20,20,25,0,0,0,0,0,0,0,0,0,0,102,0.447,0.4,0.343,26,41,4,0021400217,1610612758,SAC,Sacramento,Ray McCallum,,,13:27,0.0,0.0,0.0,0.0,8.0,2.0,4.0,22.0,0.0,0.0,1.0,0.0
0021400217,1610612758,SAC,Sacramento,201171,Carl Landry,,,16:20,92.1,112.2,-20.1,0.0,0.0,0.0,0.0,0.294,0.167,25.0,0.667,0.667,0.127,93.39,0.111,2014-11-26T00:00:00,8,1610612758,SAC,Sacramento,9-6,19,31,23,16,0,0,0,0,0,0,0,0,0,0,89,0.437,0.786,0.313,16,48,20,0021400217,1610612758,SAC,Sacramento,Carl Landry,,,16:20,0.0,0.0,0.0,2.0,8.0,2.0,4.0,24.0,0.0,0.0,1.0,0.0
0021400217,1610612758,SAC,Sacramento,201171,Carl Landry,,,16:20,92.1,112.2,-20.1,0.0,0.0,0.0,0.0,0.294,0.167,25.0,0.667,0.667,0.127,93.39,0.111,2014-11-26T00:00:00,8,1610612745,HOU,Houston,12-3,37,20,20,25,0,0,0,0,0,0,0,0,0,0,102,0.447,0.4,0.343,26,41,4,0021400217,1610612758,SAC,Sacramento,Carl Landry,,,16:20,0.0,0.0,0.0,2.0,8.0,2.0,4.0,24.0,0.0,0.0,1.0,0.0
0021400217,1610612758,SAC,Sacramento,203917,Nik Stauskas,,,14:12,106.3,103.2,3.1,0.125,0.0,14.8,0.0,0.063,0.036,0.0,0.375,0.608,0.204,95.23,0.07,2014-11-26T00:00:00,8,1610612758,SAC,Sacramento,9-6,19,31,23,16,0,0,0,0,0,0,0,0,0,0,89,0.437,0.786,0.313,16,48,20,0021400217,1610612758,SAC,Sacramento,Nik Stauskas,,,14:12,0.0,0.0,0.0,0.0,4.0,2.0,4.0,22.0,1.0,0.0,3.0,2.0
0021400217,1610612758,SAC,Sacramento,203917,Nik Stauskas,,,14:12,106.3,103.2,3.1,0.125,0.0,14.8,0.0,0.063,0.036,0.0,0.375,0.608,0.204,95.23,0.07,2014-11-26T00:00:00,8,1610612745,HOU,Houston,12-3,37,20,20,25,0,0,0,0,0,0,0,0,0,0,102,0.447,0.4,0.343,26,41,4,0021400217,1610612758,SAC,Sacramento,Nik Stauskas,,,14:12,0.0,0.0,0.0,0.0,4.0,2.0,4.0,22.0,1.0,0.0,3.0,2.0
0021400217,1610612758,SAC,Sacramento,203961,Eric Moreland,,,0:34,0.0,200.0,-200.0,0.0,0.0,0.0,0.0,0.0,0.0,0.0,0.0,0.0,0.0,42.48,0.0,2014-11-26T00:00:00,8,1610612758,SAC,Sacramento,9-6,19,31,23,16,0,0,0,0,0,0,0,0,0,0,89,0.437,0.786,0.313,16,48,20,0021400217,1610612758,SAC,Sacramento,Eric Moreland,,,0:34,0.0,0.0,0.0,0.0,0.0,0.0,0.0,2.0,0.0,0.0,0.0,0.0
0021400217,1610612758,SAC,Sacramento,203961,Eric Moreland,,,0:34,0.0,200.0,-200.0,0.0,0.0,0.0,0.0,0.0,0.0,0.0,0.0,0.0,0.0,42.48,0.0,2014-11-26T00:00:00,8,1610612745,HOU,Houston,12-3,37,20,20,25,0,0,0,0,0,0,0,0,0,0,102,0.447,0.4,0.343,26,41,4,0021400217,1610612758,SAC,Sacramento,Eric Moreland,,,0:34,0.0,0.0,0.0,0.0,0.0,0.0,0.0,2.0,0.0,0.0,0.0,0.0
0021400217,1610612758,SAC,Sacramento,201954,Darren Collison,,DNP - Coach's Decision                  ,,,,,,,0.0,,,,,,,0.0,,,2014-11-26T00:00:00,8,1610612758,SAC,Sacramento,9-6,19,31,23,16,0,0,0,0,0,0,0,0,0,0,89,0.437,0.786,0.313,16,48,20,0021400217,1610612758,SAC,Sacramento,Darren Collison,,DNP - Coach's Decision                  ,,,,,,,,,,,,,
0021400217,1610612758,SAC,Sacramento,201954,Darren Collison,,DNP - Coach's Decision                  ,,,,,,,0.0,,,,,,,0.0,,,2014-11-26T00:00:00,8,1610612745,HOU,Houston,12-3,37,20,20,25,0,0,0,0,0,0,0,0,0,0,102,0.447,0.4,0.343,26,41,4,0021400217,1610612758,SAC,Sacramento,Darren Collison,,DNP - Coach's Decision                  ,,,,,,,,,,,,,
0021400217,1610612758,SAC,Sacramento,2501,Reggie Evans,,DNP - Coach's Decision                  ,,,,,,,0.0,,,,,,,0.0,,,2014-11-26T00:00:00,8,1610612758,SAC,Sacramento,9-6,19,31,23,16,0,0,0,0,0,0,0,0,0,0,89,0.437,0.786,0.313,16,48,20,0021400217,1610612758,SAC,Sacramento,Reggie Evans,,DNP - Coach's Decision                  ,,,,,,,,,,,,,
0021400217,1610612758,SAC,Sacramento,2501,Reggie Evans,,DNP - Coach's Decision                  ,,,,,,,0.0,,,,,,,0.0,,,2014-11-26T00:00:00,8,1610612745,HOU,Houston,12-3,37,20,20,25,0,0,0,0,0,0,0,0,0,0,102,0.447,0.4,0.343,26,41,4,0021400217,1610612758,SAC,Sacramento,Reggie Evans,,DNP - Coach's Decision                  ,,,,,,,,,,,,,
0021400217,1610612758,SAC,Sacramento,200797,Ryan Hollins,,DNP - Coach's Decision                  ,,,,,,,0.0,,,,,,,0.0,,,2014-11-26T00:00:00,8,1610612758,SAC,Sacramento,9-6,19,31,23,16,0,0,0,0,0,0,0,0,0,0,89,0.437,0.786,0.313,16,48,20,0021400217,1610612758,SAC,Sacramento,Ryan Hollins,,DNP - Coach's Decision                  ,,,,,,,,,,,,,
0021400217,1610612758,SAC,Sacramento,200797,Ryan Hollins,,DNP - Coach's Decision                  ,,,,,,,0.0,,,,,,,0.0,,,2014-11-26T00:00:00,8,1610612745,HOU,Houston,12-3,37,20,20,25,0,0,0,0,0,0,0,0,0,0,102,0.447,0.4,0.343,26,41,4,0021400217,1610612758,SAC,Sacramento,Ryan Hollins,,DNP - Coach's Decision                  ,,,,,,,,,,,,,
0021400217,1610612745,HOU,Houston,2772,Trevor Ariza,F,,41:12,110.2,92.8,17.4,0.067,0.0,13.4,0.021,0.111,0.06,0.0,0.5,0.505,0.142,93.07,0.07,2014-11-26T00:00:00,8,1610612758,SAC,Sacramento,9-6,19,31,23,16,0,0,0,0,0,0,0,0,0,0,89,0.437,0.786,0.313,16,48,20,0021400217,1610612745,HOU,Houston,Trevor Ariza,F,,41:12,2.0,3.0,2.0,6.0,3.0,8.0,5.0,38.0,1.0,0.0,3.0,1.0
0021400217,1610612745,HOU,Houston,2772,Trevor Ariza,F,,41:12,110.2,92.8,17.4,0.067,0.0,13.4,0.021,0.111,0.06,0.0,0.5,0.505,0.142,93.07,0.07,2014-11-26T00:00:00,8,1610612745,HOU,Houston,12-3,37,20,20,25,0,0,0,0,0,0,0,0,0,0,102,0.447,0.4,0.343,26,41,4,0021400217,1610612745,HOU,Houston,Trevor Ariza,F,,41:12,2.0,3.0,2.0,6.0,3.0,8.0,5.0,38.0,1.0,0.0,3.0,1.0
0021400217,1610612745,HOU,Houston,202700,Donatas Motiejunas,F,,36:60,111.3,92.9,18.4,0.136,3.0,15.8,0.024,0.156,0.081,5.3,0.7,0.7,0.193,92.12,0.173,2014-11-26T00:00:00,8,1610612758,SAC,Sacramento,9-6,19,31,23,16,0,0,0,0,0,0,0,0,0,0,89,0.437,0.786,0.313,16,48,20,0021400217,1610612745,HOU,Houston,Donatas Motiejunas,F,,36:60,4.0,0.0,0.0,18.0,2.0,6.0,5.0,36.0,0.0,2.0,4.0,4.0
0021400217,1610612745,HOU,Houston,202700,Donatas Motiejunas,F,,36:60,111.3,92.9,18.4,0.136,3.0,15.8,0.024,0.156,0.081,5.3,0.7,0.7,0.193,92.12,0.173,2014-11-26T00:00:00,8,1610612745,HOU,Houston,12-3,37,20,20,25,0,0,0,0,0,0,0,0,0,0,102,0.447,0.4,0.343,26,41,4,0021400217,1610612745,HOU,Houston,Donatas Motiejunas,F,,36:60,4.0,0.0,0.0,18.0,2.0,6.0,5.0,36.0,0.0,2.0,4.0,4.0
0021400217,1610612745,HOU,Houston,204028,Tarik Black,C,,15:03,120.1,102.8,17.3,0.1,0.0,50.0,0.176,0.3,0.222,0.0,1.0,1.0,0.029,87.45,0.083,2014-11-26T00:00:00,8,1610612758,SAC,Sacramento,9-6,19,31,23,16,0,0,0,0,0,0,0,0,0,0,89,0.437,0.786,0.313,16,48,20,0021400217,1610612745,HOU,Houston,Tarik Black,C,,15:03,0.0,0.0,0.0,2.0,2.0,4.0,2.0,16.0,0.0,0.0,3.0,0.0
0021400217,1610612745,HOU,Houston,204028,Tarik Black,C,,15:03,120.1,102.8,17.3,0.1,0.0,50.0,0.176,0.3,0.222,0.0,1.0,1.0,0.029,87.45,0.083,2014-11-26T00:00:00,8,1610612745,HOU,Houston,12-3,37,20,20,25,0,0,0,0,0,0,0,0,0,0,102,0.447,0.4,0.343,26,41,4,0021400217,1610612745,HOU,Houston,Tarik Black,C,,15:03,0.0,0.0,0.0,2.0,2.0,4.0,2.0,16.0,0.0,0.0,3.0,0.0
0021400217,1610612745,HOU,Houston,201935,James Harden,G,,37:27,109.9,95.6,14.3,0.4,8.0,18.8,0.077,0.138,0.103,2.3,0.355,0.386,0.427,91.88,0.145,2014-11-26T00:00:00,8,1610612758,SAC,Sacramento,9-6,19,31,23,16,0,0,0,0,0,0,0,0,0,0,89,0.437,0.786,0.313,16,48,20,0021400217,1610612745,HOU,Houston,James Harden,G,,37:27,17.0,2.0,8.0,12.0,3.0,8.0,7.0,40.0,3.0,3.0,3.0,5.0
0021400217,1610612745,HOU,Houston,201935,James Harden,G,,37:27,109.9,95.6,14.3,0.4,8.0,18.8,0.077,0.138,0.103,2.3,0.355,0.386,0.427,91.88,0.145,2014-11-26T00:00:00,8,1610612745,HOU,Houston,12-3,37,20,20,25,0,0,0,0,0,0,0,0,0,0,102,0.447,0.4,0.343,26,41,4,0021400217,1610612745,HOU,Houston,James Harden,G,,37:27,17.0,2.0,8.0,12.0,3.0,8.0,7.0,40.0,3.0,3.0,3.0,5.0
0021400217,1610612745,HOU,Houston,203477,Isaiah Canaan,G,,31:59,126.3,100.8,25.5,0.19,4.0,19.0,0.094,0.12,0.105,4.8,0.75,0.75,0.239,92.03,0.242,2014-11-26T00:00:00,8,1610612758,SAC,Sacramento,9-6,19,31,23,16,0,0,0,0,0,0,0,0,0,0,89,0.437,0.786,0.313,16,48,20,0021400217,1610612745,HOU,Houston,Isaiah Canaan,G,,31:59,7.0,0.0,7.0,4.0,2.0,6.0,7.0,38.0,0.0,2.0,1.0,1.0
0021400217,1610612745,HOU,Houston,203477,Isaiah Canaan,G,,31:59,126.3,100.8,25.5,0.19,4.0,19.0,0.094,0.12,0.105,4.8,0.75,0.75,0.239,92.03,0.242,2014-11-26T00:00:00,8,1610612745,HOU,Houston,12-3,37,20,20,25,0,0,0,0,0,0,0,0,0,0,102,0.447,0.4,0.343,26,41,4,0021400217,1610612745,HOU,Houston,Isaiah Canaan,G,,31:59,7.0,0.0,7.0,4.0,2.0,6.0,7.0,38.0,0.0,2.0,1.0,1.0
0021400217,1610612745,HOU,Houston,201595,Joey Dorsey,,,15:22,104.4,99.5,4.9,0.0,0.0,0.0,0.0,0.231,0.107,0.0,0.0,0.0,0.087,98.06,-0.105,2014-11-26T00:00:00,8,1610612758,SAC,Sacramento,9-6,19,31,23,16,0,0,0,0,0,0,0,0,0,0,89,0.437,0.786,0.313,16,48,20,0021400217,1610612745,HOU,Houston,Joey Dorsey,,,15:22,0.0,0.0,0.0,0.0,1.0,4.0,5.0,16.0,1.0,0.0,4.0,3.0
0021400217,1610612745,HOU,Houston,201595,Joey Dorsey,,,15:22,104.4,99.5,4.9,0.0,0.0,0.0,0.0,0.231,0.107,0.0,0.0,0.0,0.087,98.06,-0.105,2014-11-26T00:00:00,8,1610612745,HOU,Houston,12-3,37,20,20,25,0,0,0,0,0,0,0,0,0,0,102,0.447,0.4,0.343,26,41,4,0021400217,1610612745,HOU,Houston,Joey Dorsey,,,15:22,0.0,0.0,0.0,0.0,1.0,4.0,5.0,16.0,1.0,0.0,4.0,3.0
0021400217,1610612745,HOU,Houston,1891,Jason Terry,,,16:01,82.7,81.7,1.0,0.1,1.0,14.3,0.0,0.077,0.031,14.3,0.5,0.5,0.179,94.82,0.047,2014-11-26T00:00:00,8,1610612758,SAC,Sacramento,9-6,19,31,23,16,0,0,0,0,0,0,0,0,0,0,89,0.437,0.786,0.313,16,48,20,0021400217,1610612745,HOU,Houston,Jason Terry,,,16:01,0.0,0.0,0.0,0.0,1.0,2.0,0.0,6.0,0.0,0.0,2.0,0.0
0021400217,1610612745,HOU,Houston,1891,Jason Terry,,,16:01,82.7,81.7,1.0,0.1,1.0,14.3,0.0,0.077,0.031,14.3,0.5,0.5,0.179,94.82,0.047,2014-11-26T00:00:00,8,1610612745,HOU,Houston,12-3,37,20,20,25,0,0,0,0,0,0,0,0,0,0,102,0.447,0.4,0.343,26,41,4,0021400217,1610612745,HOU,Houston,Jason Terry,,,16:01,0.0,0.0,0.0,0.0,1.0,2.0,0.0,6.0,0.0,0.0,2.0,0.0
0021400217,1610612745,HOU,Houston,203123,Kostas Papanikolaou,,,28:35,111.0,89.1,21.9,0.2,0.0,46.0,0.036,0.143,0.082,0.0,0.4,0.425,0.098,94.21,0.065,2014-11-26T00:00:00,8,1610612758,SAC,Sacramento,9-6,19,31,23,16,0,0,0,0,0,0,0,0,0,0,89,0.437,0.786,0.313,16,48,20,0021400217,1610612745,HOU,Houston,Kostas Papanikolaou,,,28:35,0.0,1.0,0.0,4.0,1.0,2.0,2.0,20.0,0.0,0.0,4.0,3.0
0021400217,1610612745,HOU,Houston,203123,Kostas Papanikolaou,,,28:35,111.0,89.1,21.9,0.2,0.0,46.0,0.036,0.143,0.082,0.0,0.4,0.425,0.098,94.21,0.065,2014-11-26T00:00:00,8,1610612745,HOU,Houston,12-3,37,20,20,25,0,0,0,0,0,0,0,0,0,0,102,0.447,0.4,0.343,26,41,4,0021400217,1610612745,HOU,Houston,Kostas Papanikolaou,,,28:35,0.0,1.0,0.0,4.0,1.0,2.0,2.0,20.0,0.0,0.0,4.0,3.0
0021400217,1610612745,HOU,Houston,101128,Francisco Garcia,,,16:13,111.9,95.2,16.6,0.133,0.0,21.2,0.063,0.182,0.111,0.0,0.286,0.269,0.212,98.68,0.045,2014-11-26T00:00:00,8,1610612758,SAC,Sacramento,9-6,19,31,23,16,0,0,0,0,0,0,0,0,0,0,89,0.437,0.786,0.313,16,48,20,0021400217,1610612745,HOU,Houston,Francisco Garcia,,,16:13,2.0,0.0,2.0,4.0,0.0,0.0,2.0,10.0,0.0,1.0,1.0,2.0
0021400217,1610612745,HOU,Houston,101128,Francisco Garcia,,,16:13,111.9,95.2,16.6,0.133,0.0,21.2,0.063,0.182,0.111,0.0,0.286,0.269,0.212,98.68,0.045,2014-11-26T00:00:00,8,1610612745,HOU,Houston,12-3,37,20,20,25,0,0,0,0,0,0,0,0,0,0,102,0.447,0.4,0.343,26,41,4,0021400217,1610612745,HOU,Houston,Francisco Garcia,,,16:13,2.0,0.0,2.0,4.0,0.0,0.0,2.0,10.0,0.0,1.0,1.0,2.0
0021400217,1610612745,HOU,Houston,203910,Nick Johnson,,,0:34,200.0,0.0,200.0,0.0,0.0,0.0,0.0,0.0,0.0,0.0,1.0,1.0,1.0,42.48,1.0,2014-11-26T00:00:00,8,1610612758,SAC,Sacramento,9-6,19,31,23,16,0,0,0,0,0,0,0,0,0,0,89,0.437,0.786,0.313,16,48,20,0021400217,1610612745,HOU,Houston,Nick Johnson,,,0:34,0.0,0.0,0.0,2.0,0.0,0.0,0.0,0.0,0.0,0.0,0.0,0.0
0021400217,1610612745,HOU,Houston,203910,Nick Johnson,,,0:34,200.0,0.0,200.0,0.0,0.0,0.0,0.0,0.0,0.0,0.0,1.0,1.0,1.0,42.48,1.0,2014-11-26T00:00:00,8,1610612745,HOU,Houston,12-3,37,20,20,25,0,0,0,0,0,0,0,0,0,0,102,0.447,0.4,0.343,26,41,4,0021400217,1610612745,HOU,Houston,Nick Johnson,,,0:34,0.0,0.0,0.0,2.0,0.0,0.0,0.0,0.0,0.0,0.0,0.0,0.0
0021400217,1610612745,HOU,Houston,203584,Troy Daniels,,,0:34,200.0,0.0,200.0,0.0,0.0,0.0,0.0,0.0,0.0,0.0,0.0,0.0,0.0,42.48,0.0,2014-11-26T00:00:00,8,1610612758,SAC,Sacramento,9-6,19,31,23,16,0,0,0,0,0,0,0,0,0,0,89,0.437,0.786,0.313,16,48,20,0021400217,1610612745,HOU,Houston,Troy Daniels,,,0:34,0.0,0.0,0.0,0.0,0.0,0.0,0.0,0.0,0.0,0.0,0.0,0.0
0021400217,1610612745,HOU,Houston,203584,Troy Daniels,,,0:34,200.0,0.0,200.0,0.0,0.0,0.0,0.0,0.0,0.0,0.0,0.0,0.0,0.0,42.48,0.0,2014-11-26T00:00:00,8,1610612745,HOU,Houston,12-3,37,20,20,25,0,0,0,0,0,0,0,0,0,0,102,0.447,0.4,0.343,26,41,4,0021400217,1610612745,HOU,Houston,Troy Daniels,,,0:34,0.0,0.0,0.0,0.0,0.0,0.0,0.0,0.0,0.0,0.0,0.0,0.0
0021400217,1610612745,HOU,Houston,2730,Dwight Howard,,DND - Strained Right Knee               ,,,,,,,0.0,,,,,,,0.0,,,2014-11-26T00:00:00,8,1610612758,SAC,Sacramento,9-6,19,31,23,16,0,0,0,0,0,0,0,0,0,0,89,0.437,0.786,0.313,16,48,20,0021400217,1610612745,HOU,Houston,Dwight Howard,,DND - Strained Right Knee               ,,,,,,,,,,,,,
0021400217,1610612745,HOU,Houston,2730,Dwight Howard,,DND - Strained Right Knee               ,,,,,,,0.0,,,,,,,0.0,,,2014-11-26T00:00:00,8,1610612745,HOU,Houston,12-3,37,20,20,25,0,0,0,0,0,0,0,0,0,0,102,0.447,0.4,0.343,26,41,4,0021400217,1610612745,HOU,Houston,Dwight Howard,,DND - Strained Right Knee               ,,,,,,,,,,,,,
