GAME_ID_x,TEAM_ID_x,TEAM_ABBREVIATION_x,TEAM_CITY_x,PLAYER_ID,PLAYER_NAME_x,START_POSITION_x,COMMENT_x,MIN_x,OFF_RATING,DEF_RATING,NET_RATING,AST_PCT,AST_TOV,AST_RATIO,OREB_PCT,DREB_PCT,REB_PCT,TM_TOV_PCT,EFG_PCT,TS_PCT,USG_PCT,PACE,PIE,GAME_DATE_EST,GAME_SEQUENCE,TEAM_ID_y,TEAM_ABBREVIATION_y,TEAM_CITY_NAME,TEAM_WINS_LOSSES,PTS_QTR1,PTS_QTR2,PTS_QTR3,PTS_QTR4,PTS_OT1,PTS_OT2,PTS_OT3,PTS_OT4,PTS_OT5,PTS_OT6,PTS_OT7,PTS_OT8,PTS_OT9,PTS_OT10,PTS,FG_PCT,FT_PCT,FG3_PCT,AST,REB,TOV,GAME_ID_y,TEAM_ID,TEAM_ABBREVIATION,TEAM_CITY_y,PLAYER_NAME_y,START_POSITION_y,COMMENT_y,MIN_y,PTS_OFF_TOV,PTS_2ND_CHANCE,PTS_FB,PTS_PAINT,OPP_PTS_OFF_TOV,OPP_PTS_2ND_CHANCE,OPP_PTS_FB,OPP_PTS_PAINT,BLK,BLKA,PF,PFD
0021400211,1610612764,WAS,Washington,1718,Paul Pierce,F,,23:56,82.1,116.8,-34.6,0.375,1.0,19.5,0.067,0.133,0.1,19.5,0.8,0.798,0.269,91.52,0.142,2014-11-26T00:00:00,2,1610612764,WAS,Washington,9-5,18,28,21,20,0,0,0,0,0,0,0,0,0,0,87,0.465,0.727,0.385,24,26,18,0021400211,1610612764,WAS,Washington,Paul Pierce,F,,23:56,1.0,0.0,0.0,4.0,12.0,6.0,10.0,22.0,0.0,0.0,4.0,6.0
0021400211,1610612764,WAS,Washington,1718,Paul Pierce,F,,23:56,82.1,116.8,-34.6,0.375,1.0,19.5,0.067,0.133,0.1,19.5,0.8,0.798,0.269,91.52,0.142,2014-11-26T00:00:00,2,1610612739,CLE,Cleveland,7-7,31,27,23,32,0,0,0,0,0,0,0,0,0,0,113,0.514,0.816,0.3,23,32,9,0021400211,1610612764,WAS,Washington,Paul Pierce,F,,23:56,1.0,0.0,0.0,4.0,12.0,6.0,10.0,22.0,0.0,0.0,4.0,6.0
0021400211,1610612764,WAS,Washington,2743,Kris Humphries,F,,22:55,74.3,122.2,-47.9,0.083,1.0,10.1,0.0,0.231,0.103,10.1,0.143,0.19,0.191,91.91,-0.054,2014-11-26T00:00:00,2,1610612764,WAS,Washington,9-5,18,28,21,20,0,0,0,0,0,0,0,0,0,0,87,0.465,0.727,0.385,24,26,18,0021400211,1610612764,WAS,Washington,Kris Humphries,F,,22:55,0.0,0.0,0.0,0.0,10.0,4.0,8.0,18.0,1.0,1.0,3.0,4.0
0021400211,1610612764,WAS,Washington,2743,Kris Humphries,F,,22:55,74.3,122.2,-47.9,0.083,1.0,10.1,0.0,0.231,0.103,10.1,0.143,0.19,0.191,91.91,-0.054,2014-11-26T00:00:00,2,1610612739,CLE,Cleveland,7-7,31,27,23,32,0,0,0,0,0,0,0,0,0,0,113,0.514,0.816,0.3,23,32,9,0021400211,1610612764,WAS,Washington,Kris Humphries,F,,22:55,0.0,0.0,0.0,0.0,10.0,4.0,8.0,18.0,1.0,1.0,3.0,4.0
0021400211,1610612764,WAS,Washington,101162,Marcin Gortat,C,,25:16,81.4,113.4,-32.1,0.111,0.33,6.7,0.059,0.067,0.063,20.2,0.5,0.551,0.271,92.75,0.069,2014-11-26T00:00:00,2,1610612764,WAS,Washington,9-5,18,28,21,20,0,0,0,0,0,0,0,0,0,0,87,0.465,0.727,0.385,24,26,18,0021400211,1610612764,WAS,Washington,Marcin Gortat,C,,25:16,2.0,0.0,0.0,8.0,12.0,6.0,12.0,24.0,1.0,0.0,3.0,2.0
0021400211,1610612764,WAS,Washington,101162,Marcin Gortat,C,,25:16,81.4,113.4,-32.1,0.111,0.33,6.7,0.059,0.067,0.063,20.2,0.5,0.551,0.271,92.75,0.069,2014-11-26T00:00:00,2,1610612739,CLE,Cleveland,7-7,31,27,23,32,0,0,0,0,0,0,0,0,0,0,113,0.514,0.816,0.3,23,32,9,0021400211,1610612764,WAS,Washington,Marcin Gortat,C,,25:16,2.0,0.0,0.0,8.0,12.0,6.0,12.0,24.0,1.0,0.0,3.0,2.0
0021400211,1610612764,WAS,Washington,203078,Bradley Beal,G,,28:08,81.4,118.9,-37.4,0.167,2.0,14.4,0.0,0.125,0.054,7.2,0.4,0.46,0.201,91.31,0.093,2014-11-26T00:00:00,2,1610612764,WAS,Washington,9-5,18,28,21,20,0,0,0,0,0,0,0,0,0,0,87,0.465,0.727,0.385,24,26,18,0021400211,1610612764,WAS,Washington,Bradley Beal,G,,28:08,4.0,2.0,0.0,6.0,12.0,6.0,10.0,24.0,0.0,0.0,3.0,1.0
0021400211,1610612764,WAS,Washington,203078,Bradley Beal,G,,28:08,81.4,118.9,-37.4,0.167,2.0,14.4,0.0,0.125,0.054,7.2,0.4,0.46,0.201,91.31,0.093,2014-11-26T00:00:00,2,1610612739,CLE,Cleveland,7-7,31,27,23,32,0,0,0,0,0,0,0,0,0,0,113,0.514,0.816,0.3,23,32,9,0021400211,1610612764,WAS,Washington,Bradley Beal,G,,28:08,4.0,2.0,0.0,6.0,12.0,6.0,10.0,24.0,0.0,0.0,3.0,1.0
0021400211,1610612764,WAS,Washington,202322,John Wall,G,,32:37,89.2,114.1,-24.9,0.389,1.4,38.9,0.0,0.222,0.1,27.8,0.5,0.5,0.16,94.13,0.063,2014-11-26T00:00:00,2,1610612764,WAS,Washington,9-5,18,28,21,20,0,0,0,0,0,0,0,0,0,0,87,0.465,0.727,0.385,24,26,18,0021400211,1610612764,WAS,Washington,John Wall,G,,32:37,0.0,0.0,0.0,0.0,17.0,9.0,14.0,30.0,0.0,1.0,2.0,0.0
0021400211,1610612764,WAS,Washington,202322,John Wall,G,,32:37,89.2,114.1,-24.9,0.389,1.4,38.9,0.0,0.222,0.1,27.8,0.5,0.5,0.16,94.13,0.063,2014-11-26T00:00:00,2,1610612739,CLE,Cleveland,7-7,31,27,23,32,0,0,0,0,0,0,0,0,0,0,113,0.514,0.816,0.3,23,32,9,0021400211,1610612764,WAS,Washington,John Wall,G,,32:37,0.0,0.0,0.0,0.0,17.0,9.0,14.0,30.0,0.0,1.0,2.0,0.0
0021400211,1610612764,WAS,Washington,203490,Otto Porter Jr.,,,19:40,100.6,132.1,-31.5,0.067,0.0,20.0,0.077,0.111,0.091,0.0,0.25,0.25,0.098,93.19,0.013,2014-11-26T00:00:00,2,1610612764,WAS,Washington,9-5,18,28,21,20,0,0,0,0,0,0,0,0,0,0,87,0.465,0.727,0.385,24,26,18,0021400211,1610612764,WAS,Washington,Otto Porter Jr.,,,19:40,0.0,2.0,0.0,2.0,12.0,8.0,7.0,14.0,1.0,0.0,1.0,0.0
0021400211,1610612764,WAS,Washington,203490,Otto Porter Jr.,,,19:40,100.6,132.1,-31.5,0.067,0.0,20.0,0.077,0.111,0.091,0.0,0.25,0.25,0.098,93.19,0.013,2014-11-26T00:00:00,2,1610612739,CLE,Cleveland,7-7,31,27,23,32,0,0,0,0,0,0,0,0,0,0,113,0.514,0.816,0.3,23,32,9,0021400211,1610612764,WAS,Washington,Otto Porter Jr.,,,19:40,0.0,2.0,0.0,2.0,12.0,8.0,7.0,14.0,1.0,0.0,1.0,0.0
0021400211,1610612764,WAS,Washington,2446,Rasual Butler,,,27:49,114.2,115.9,-1.6,0.0,0.0,0.0,0.0,0.077,0.033,11.2,0.7,0.724,0.302,94.49,0.167,2014-11-26T00:00:00,2,1610612764,WAS,Washington,9-5,18,28,21,20,0,0,0,0,0,0,0,0,0,0,87,0.465,0.727,0.385,24,26,18,0021400211,1610612764,WAS,Washington,Rasual Butler,,,27:49,0.0,4.0,2.0,8.0,14.0,8.0,9.0,22.0,1.0,0.0,0.0,1.0
0021400211,1610612764,WAS,Washington,2446,Rasual Butler,,,27:49,114.2,115.9,-1.6,0.0,0.0,0.0,0.0,0.077,0.033,11.2,0.7,0.724,0.302,94.49,0.167,2014-11-26T00:00:00,2,1610612739,CLE,Cleveland,7-7,31,27,23,32,0,0,0,0,0,0,0,0,0,0,113,0.514,0.816,0.3,23,32,9,0021400211,1610612764,WAS,Washington,Rasual Butler,,,27:49,0.0,4.0,2.0,8.0,14.0,8.0,9.0,22.0,1.0,0.0,0.0,1.0
0021400211,1610612764,WAS,Washington,2400,Drew Gooden,,,6:45,132.0,112.7,19.3,0.0,0.0,0.0,0.2,0.667,0.375,0.0,0.5,0.5,0.134,96.28,0.021,2014-11-26T00:00:00,2,1610612764,WAS,Washington,9-5,18,28,21,20,0,0,0,0,0,0,0,0,0,0,87,0.465,0.727,0.385,24,26,18,0021400211,1610612764,WAS,Washington,Drew Gooden,,,6:45,0.0,2.0,0.0,2.0,5.0,3.0,3.0,4.0,0.0,0.0,3.0,0.0
0021400211,1610612764,WAS,Washington,2400,Drew Gooden,,,6:45,132.0,112.7,19.3,0.0,0.0,0.0,0.2,0.667,0.375,0.0,0.5,0.5,0.134,96.28,0.021,2014-11-26T00:00:00,2,1610612739,CLE,Cleveland,7-7,31,27,23,32,0,0,0,0,0,0,0,0,0,0,113,0.514,0.816,0.3,23,32,9,0021400211,1610612764,WAS,Washington,Drew Gooden,,,6:45,0.0,2.0,0.0,2.0,5.0,3.0,3.0,4.0,0.0,0.0,3.0,0.0
0021400211,1610612764,WAS,Washington,202338,Kevin Seraphin,,,22:44,110.5,128.2,-17.7,0.188,1.5,21.6,0.133,0.091,0.115,14.4,0.375,0.394,0.229,92.65,0.017,2014-11-26T00:00:00,2,1610612764,WAS,Washington,9-5,18,28,21,20,0,0,0,0,0,0,0,0,0,0,87,0.465,0.727,0.385,24,26,18,0021400211,1610612764,WAS,Washington,Kevin Seraphin,,,22:44,0.0,0.0,0.0,4.0,12.0,8.0,5.0,16.0,1.0,0.0,3.0,3.0
0021400211,1610612764,WAS,Washington,202338,Kevin Seraphin,,,22:44,110.5,128.2,-17.7,0.188,1.5,21.6,0.133,0.091,0.115,14.4,0.375,0.394,0.229,92.65,0.017,2014-11-26T00:00:00,2,1610612739,CLE,Cleveland,7-7,31,27,23,32,0,0,0,0,0,0,0,0,0,0,113,0.514,0.816,0.3,23,32,9,0021400211,1610612764,WAS,Washington,Kevin Seraphin,,,22:44,0.0,0.0,0.0,4.0,12.0,8.0,5.0,16.0,1.0,0.0,3.0,3.0
0021400211,1610612764,WAS,Washington,1889,Andre Miller,,,15:23,108.1,134.6,-26.5,0.6,0.0,55.1,0.0,0.25,0.111,0.0,0.75,0.717,0.164,89.68,0.156,2014-11-26T00:00:00,2,1610612764,WAS,Washington,9-5,18,28,21,20,0,0,0,0,0,0,0,0,0,0,87,0.465,0.727,0.385,24,26,18,0021400211,1610612764,WAS,Washington,Andre Miller,,,15:23,0.0,0.0,0.0,6.0,7.0,5.0,3.0,10.0,0.0,0.0,3.0,1.0
0021400211,1610612764,WAS,Washington,1889,Andre Miller,,,15:23,108.1,134.6,-26.5,0.6,0.0,55.1,0.0,0.25,0.111,0.0,0.75,0.717,0.164,89.68,0.156,2014-11-26T00:00:00,2,1610612739,CLE,Cleveland,7-7,31,27,23,32,0,0,0,0,0,0,0,0,0,0,113,0.514,0.816,0.3,23,32,9,0021400211,1610612764,WAS,Washington,Andre Miller,,,15:23,0.0,0.0,0.0,6.0,7.0,5.0,3.0,10.0,0.0,0.0,3.0,1.0
0021400211,1610612764,WAS,Washington,201971,DeJuan Blair,,,14:21,105.3,133.2,-27.9,0.0,0.0,0.0,0.111,0.0,0.059,100.0,0.0,0.0,0.035,90.58,-0.057,2014-11-26T00:00:00,2,1610612764,WAS,Washington,9-5,18,28,21,20,0,0,0,0,0,0,0,0,0,0,87,0.465,0.727,0.385,24,26,18,0021400211,1610612764,WAS,Washington,DeJuan Blair,,,14:21,0.0,0.0,0.0,0.0,7.0,7.0,4.0,16.0,0.0,0.0,3.0,0.0
0021400211,1610612764,WAS,Washington,201971,DeJuan Blair,,,14:21,105.3,133.2,-27.9,0.0,0.0,0.0,0.111,0.0,0.059,100.0,0.0,0.0,0.035,90.58,-0.057,2014-11-26T00:00:00,2,1610612739,CLE,Cleveland,7-7,31,27,23,32,0,0,0,0,0,0,0,0,0,0,113,0.514,0.816,0.3,23,32,9,0021400211,1610612764,WAS,Washington,DeJuan Blair,,,14:21,0.0,0.0,0.0,0.0,7.0,7.0,4.0,16.0,0.0,0.0,3.0,0.0
0021400211,1610612764,WAS,Washington,202066,Garrett Temple,,,0:26,300.0,0.0,300.0,0.0,0.0,0.0,0.0,0.0,0.0,0.0,0.0,0.0,0.0,168.09,0.0,2014-11-26T00:00:00,2,1610612764,WAS,Washington,9-5,18,28,21,20,0,0,0,0,0,0,0,0,0,0,87,0.465,0.727,0.385,24,26,18,0021400211,1610612764,WAS,Washington,Garrett Temple,,,0:26,0.0,0.0,0.0,0.0,0.0,0.0,0.0,0.0,0.0,0.0,0.0,0.0
0021400211,1610612764,WAS,Washington,202066,Garrett Temple,,,0:26,300.0,0.0,300.0,0.0,0.0,0.0,0.0,0.0,0.0,0.0,0.0,0.0,0.0,168.09,0.0,2014-11-26T00:00:00,2,1610612739,CLE,Cleveland,7-7,31,27,23,32,0,0,0,0,0,0,0,0,0,0,113,0.514,0.816,0.3,23,32,9,0021400211,1610612764,WAS,Washington,Garrett Temple,,,0:26,0.0,0.0,0.0,0.0,0.0,0.0,0.0,0.0,0.0,0.0,0.0,0.0
0021400211,1610612764,WAS,Washington,2403,Nene,,DND - Right Plantar Fasciitis           ,,,,,,,0.0,,,,,,,0.0,,,2014-11-26T00:00:00,2,1610612764,WAS,Washington,9-5,18,28,21,20,0,0,0,0,0,0,0,0,0,0,87,0.465,0.727,0.385,24,26,18,0021400211,1610612764,WAS,Washington,Nene,,DND - Right Plantar Fasciitis           ,,,,,,,,,,,,,
0021400211,1610612764,WAS,Washington,2403,Nene,,DND - Right Plantar Fasciitis           ,,,,,,,0.0,,,,,,,0.0,,,2014-11-26T00:00:00,2,1610612739,CLE,Cleveland,7-7,31,27,23,32,0,0,0,0,0,0,0,0,0,0,113,0.514,0.816,0.3,23,32,9,0021400211,1610612764,WAS,Washington,Nene,,DND - Right Plantar Fasciitis           ,,,,,,,,,,,,,
0021400211,1610612739,CLE,Cleveland,2544,LeBron James,F,,36:05,119.5,87.3,32.2,0.4,2.0,23.9,0.045,0.391,0.222,11.9,0.536,0.675,0.327,95.11,0.291,2014-11-26T00:00:00,2,1610612764,WAS,Washington,9-5,18,28,21,20,0,0,0,0,0,0,0,0,0,0,87,0.465,0.727,0.385,24,26,18,0021400211,1610612739,CLE,Cleveland,LeBron James,F,,36:05,7.0,5.0,4.0,6.0,7.0,4.0,0.0,24.0,0.0,1.0,3.0,11.0
0021400211,1610612739,CLE,Cleveland,2544,LeBron James,F,,36:05,119.5,87.3,32.2,0.4,2.0,23.9,0.045,0.391,0.222,11.9,0.536,0.675,0.327,95.11,0.291,2014-11-26T00:00:00,2,1610612739,CLE,Cleveland,7-7,31,27,23,32,0,0,0,0,0,0,0,0,0,0,113,0.514,0.816,0.3,23,32,9,0021400211,1610612739,CLE,Cleveland,LeBron James,F,,36:05,7.0,5.0,4.0,6.0,7.0,4.0,0.0,24.0,0.0,1.0,3.0,11.0
0021400211,1610612739,CLE,Cleveland,201567,Kevin Love,F,,28:51,129.1,83.0,46.1,0.0,0.0,0.0,0.133,0.143,0.139,13.3,0.75,0.803,0.256,91.87,0.16,2014-11-26T00:00:00,2,1610612764,WAS,Washington,9-5,18,28,21,20,0,0,0,0,0,0,0,0,0,0,87,0.465,0.727,0.385,24,26,18,0021400211,1610612739,CLE,Cleveland,Kevin Love,F,,28:51,2.0,2.0,2.0,10.0,3.0,6.0,0.0,22.0,1.0,1.0,5.0,7.0
0021400211,1610612739,CLE,Cleveland,201567,Kevin Love,F,,28:51,129.1,83.0,46.1,0.0,0.0,0.0,0.133,0.143,0.139,13.3,0.75,0.803,0.256,91.87,0.16,2014-11-26T00:00:00,2,1610612739,CLE,Cleveland,7-7,31,27,23,32,0,0,0,0,0,0,0,0,0,0,113,0.514,0.816,0.3,23,32,9,0021400211,1610612739,CLE,Cleveland,Kevin Love,F,,28:51,2.0,2.0,2.0,10.0,3.0,6.0,0.0,22.0,1.0,1.0,5.0,7.0
0021400211,1610612739,CLE,Cleveland,2760,Anderson Varejao,C,,25:56,118.4,85.3,33.0,0.0,0.0,0.0,0.143,0.263,0.212,16.7,1.0,1.0,0.113,89.03,0.154,2014-11-26T00:00:00,2,1610612764,WAS,Washington,9-5,18,28,21,20,0,0,0,0,0,0,0,0,0,0,87,0.465,0.727,0.385,24,26,18,0021400211,1610612739,CLE,Cleveland,Anderson Varejao,C,,25:56,2.0,2.0,0.0,6.0,5.0,4.0,0.0,14.0,0.0,0.0,3.0,1.0
0021400211,1610612739,CLE,Cleveland,2760,Anderson Varejao,C,,25:56,118.4,85.3,33.0,0.0,0.0,0.0,0.143,0.263,0.212,16.7,1.0,1.0,0.113,89.03,0.154,2014-11-26T00:00:00,2,1610612739,CLE,Cleveland,7-7,31,27,23,32,0,0,0,0,0,0,0,0,0,0,113,0.514,0.816,0.3,23,32,9,0021400211,1610612739,CLE,Cleveland,Anderson Varejao,C,,25:56,2.0,2.0,0.0,6.0,5.0,4.0,0.0,14.0,0.0,0.0,3.0,1.0
0021400211,1610612739,CLE,Cleveland,1890,Shawn Marion,G,,29:58,111.8,103.7,8.1,0.1,0.0,25.8,0.071,0.136,0.111,0.0,0.25,0.521,0.094,90.63,0.114,2014-11-26T00:00:00,2,1610612764,WAS,Washington,9-5,18,28,21,20,0,0,0,0,0,0,0,0,0,0,87,0.465,0.727,0.385,24,26,18,0021400211,1610612739,CLE,Cleveland,Shawn Marion,G,,29:58,0.0,2.0,2.0,2.0,5.0,8.0,0.0,26.0,0.0,0.0,0.0,2.0
0021400211,1610612739,CLE,Cleveland,1890,Shawn Marion,G,,29:58,111.8,103.7,8.1,0.1,0.0,25.8,0.071,0.136,0.111,0.0,0.25,0.521,0.094,90.63,0.114,2014-11-26T00:00:00,2,1610612739,CLE,Cleveland,7-7,31,27,23,32,0,0,0,0,0,0,0,0,0,0,113,0.514,0.816,0.3,23,32,9,0021400211,1610612739,CLE,Cleveland,Shawn Marion,G,,29:58,0.0,2.0,2.0,2.0,5.0,8.0,0.0,26.0,0.0,0.0,0.0,2.0
0021400211,1610612739,CLE,Cleveland,202681,Kyrie Irving,G,,32:50,120.2,92.0,28.2,0.278,5.0,22.0,0.0,0.043,0.026,4.4,0.567,0.537,0.271,88.71,0.128,2014-11-26T00:00:00,2,1610612764,WAS,Washington,9-5,18,28,21,20,0,0,0,0,0,0,0,0,0,0,87,0.465,0.727,0.385,24,26,18,0021400211,1610612739,CLE,Cleveland,Kyrie Irving,G,,32:50,2.0,3.0,1.0,2.0,7.0,8.0,0.0,26.0,0.0,0.0,3.0,3.0
0021400211,1610612739,CLE,Cleveland,202681,Kyrie Irving,G,,32:50,120.2,92.0,28.2,0.278,5.0,22.0,0.0,0.043,0.026,4.4,0.567,0.537,0.271,88.71,0.128,2014-11-26T00:00:00,2,1610612739,CLE,Cleveland,7-7,31,27,23,32,0,0,0,0,0,0,0,0,0,0,113,0.514,0.816,0.3,23,32,9,0021400211,1610612739,CLE,Cleveland,Kyrie Irving,G,,32:50,2.0,3.0,1.0,2.0,7.0,8.0,0.0,26.0,0.0,0.0,3.0,3.0
0021400211,1610612739,CLE,Cleveland,203079,Dion Waiters,,,29:46,121.8,92.7,29.1,0.3,6.0,24.1,0.0,0.087,0.051,4.0,0.382,0.419,0.299,94.66,0.121,2014-11-26T00:00:00,2,1610612764,WAS,Washington,9-5,18,28,21,20,0,0,0,0,0,0,0,0,0,0,87,0.465,0.727,0.385,24,26,18,0021400211,1610612739,CLE,Cleveland,Dion Waiters,,,29:46,9.0,0.0,8.0,6.0,2.0,8.0,2.0,26.0,0.0,1.0,2.0,1.0
0021400211,1610612739,CLE,Cleveland,203079,Dion Waiters,,,29:46,121.8,92.7,29.1,0.3,6.0,24.1,0.0,0.087,0.051,4.0,0.382,0.419,0.299,94.66,0.121,2014-11-26T00:00:00,2,1610612739,CLE,Cleveland,7-7,31,27,23,32,0,0,0,0,0,0,0,0,0,0,113,0.514,0.816,0.3,23,32,9,0021400211,1610612739,CLE,Cleveland,Dion Waiters,,,29:46,9.0,0.0,8.0,6.0,2.0,8.0,2.0,26.0,0.0,1.0,2.0,1.0
0021400211,1610612739,CLE,Cleveland,202684,Tristan Thompson,,,29:50,121.2,106.7,14.5,0.048,0.0,17.0,0.0,0.0,0.0,0.0,1.0,1.025,0.078,93.08,0.092,2014-11-26T00:00:00,2,1610612764,WAS,Washington,9-5,18,28,21,20,0,0,0,0,0,0,0,0,0,0,87,0.465,0.727,0.385,24,26,18,0021400211,1610612739,CLE,Cleveland,Tristan Thompson,,,29:50,0.0,0.0,0.0,6.0,4.0,8.0,2.0,32.0,1.0,0.0,2.0,2.0
0021400211,1610612739,CLE,Cleveland,202684,Tristan Thompson,,,29:50,121.2,106.7,14.5,0.048,0.0,17.0,0.0,0.0,0.0,0.0,1.0,1.025,0.078,93.08,0.092,2014-11-26T00:00:00,2,1610612739,CLE,Cleveland,7-7,31,27,23,32,0,0,0,0,0,0,0,0,0,0,113,0.514,0.816,0.3,23,32,9,0021400211,1610612739,CLE,Cleveland,Tristan Thompson,,,29:50,0.0,0.0,0.0,6.0,4.0,8.0,2.0,32.0,1.0,0.0,2.0,2.0
0021400211,1610612739,CLE,Cleveland,203805,Will Cherry,,,11:41,136.8,100.0,36.8,0.0,0.0,0.0,0.0,0.0,0.0,0.0,0.0,0.347,0.113,95.32,0.037,2014-11-26T00:00:00,2,1610612764,WAS,Washington,9-5,18,28,21,20,0,0,0,0,0,0,0,0,0,0,87,0.465,0.727,0.385,24,26,18,0021400211,1610612739,CLE,Cleveland,Will Cherry,,,11:41,2.0,0.0,0.0,0.0,0.0,2.0,2.0,12.0,0.0,1.0,0.0,1.0
0021400211,1610612739,CLE,Cleveland,203805,Will Cherry,,,11:41,136.8,100.0,36.8,0.0,0.0,0.0,0.0,0.0,0.0,0.0,0.0,0.347,0.113,95.32,0.037,2014-11-26T00:00:00,2,1610612739,CLE,Cleveland,7-7,31,27,23,32,0,0,0,0,0,0,0,0,0,0,113,0.514,0.816,0.3,23,32,9,0021400211,1610612739,CLE,Cleveland,Will Cherry,,,11:41,2.0,0.0,0.0,0.0,0.0,2.0,2.0,12.0,0.0,1.0,0.0,1.0
0021400211,1610612739,CLE,Cleveland,200811,Lou Amundson,,,6:49,116.3,115.4,0.9,0.167,0.0,50.0,0.0,0.333,0.125,0.0,0.0,0.0,0.068,94.33,0.03,2014-11-26T00:00:00,2,1610612764,WAS,Washington,9-5,18,28,21,20,0,0,0,0,0,0,0,0,0,0,87,0.465,0.727,0.385,24,26,18,0021400211,1610612739,CLE,Cleveland,Lou Amundson,,,6:49,0.0,0.0,0.0,0.0,0.0,2.0,2.0,10.0,0.0,1.0,0.0,0.0
0021400211,1610612739,CLE,Cleveland,200811,Lou Amundson,,,6:49,116.3,115.4,0.9,0.167,0.0,50.0,0.0,0.333,0.125,0.0,0.0,0.0,0.068,94.33,0.03,2014-11-26T00:00:00,2,1610612739,CLE,Cleveland,7-7,31,27,23,32,0,0,0,0,0,0,0,0,0,0,113,0.514,0.816,0.3,23,32,9,0021400211,1610612739,CLE,Cleveland,Lou Amundson,,,6:49,0.0,0.0,0.0,0.0,0.0,2.0,2.0,10.0,0.0,1.0,0.0,0.0
0021400211,1610612739,CLE,Cleveland,203925,Joe Harris,,,8:15,110.9,119.3,-8.4,0.0,0.0,0.0,0.167,0.5,0.25,0.0,0.5,0.5,0.096,106.54,0.067,2014-11-26T00:00:00,2,1610612764,WAS,Washington,9-5,18,28,21,20,0,0,0,0,0,0,0,0,0,0,87,0.465,0.727,0.385,24,26,18,0021400211,1610612739,CLE,Cleveland,Joe Harris,,,8:15,0.0,0.0,0.0,2.0,2.0,0.0,2.0,8.0,0.0,0.0,0.0,0.0
0021400211,1610612739,CLE,Cleveland,203925,Joe Harris,,,8:15,110.9,119.3,-8.4,0.0,0.0,0.0,0.167,0.5,0.25,0.0,0.5,0.5,0.096,106.54,0.067,2014-11-26T00:00:00,2,1610612739,CLE,Cleveland,7-7,31,27,23,32,0,0,0,0,0,0,0,0,0,0,113,0.514,0.816,0.3,23,32,9,0021400211,1610612739,CLE,Cleveland,Joe Harris,,,8:15,0.0,0.0,0.0,2.0,2.0,0.0,2.0,8.0,0.0,0.0,0.0,0.0
0021400211,1610612739,CLE,Cleveland,2217,Brendan Haywood,,DNP - Coach's Decision                  ,,,,,,,0.0,,,,,,,0.0,,,2014-11-26T00:00:00,2,1610612764,WAS,Washington,9-5,18,28,21,20,0,0,0,0,0,0,0,0,0,0,87,0.465,0.727,0.385,24,26,18,0021400211,1610612739,CLE,Cleveland,Brendan Haywood,,DNP - Coach's Decision                  ,,,,,,,,,,,,,
0021400211,1610612739,CLE,Cleveland,2217,Brendan Haywood,,DNP - Coach's Decision                  ,,,,,,,0.0,,,,,,,0.0,,,2014-11-26T00:00:00,2,1610612739,CLE,Cleveland,7-7,31,27,23,32,0,0,0,0,0,0,0,0,0,0,113,0.514,0.816,0.3,23,32,9,0021400211,1610612739,CLE,Cleveland,Brendan Haywood,,DNP - Coach's Decision                  ,,,,,,,,,,,,,
0021400211,1610612739,CLE,Cleveland,2592,James Jones,,DNP - Coach's Decision                  ,,,,,,,0.0,,,,,,,0.0,,,2014-11-26T00:00:00,2,1610612764,WAS,Washington,9-5,18,28,21,20,0,0,0,0,0,0,0,0,0,0,87,0.465,0.727,0.385,24,26,18,0021400211,1610612739,CLE,Cleveland,James Jones,,DNP - Coach's Decision                  ,,,,,,,,,,,,,
0021400211,1610612739,CLE,Cleveland,2592,James Jones,,DNP - Coach's Decision                  ,,,,,,,0.0,,,,,,,0.0,,,2014-11-26T00:00:00,2,1610612739,CLE,Cleveland,7-7,31,27,23,32,0,0,0,0,0,0,0,0,0,0,113,0.514,0.816,0.3,23,32,9,0021400211,1610612739,CLE,Cleveland,James Jones,,DNP - Coach's Decision                  ,,,,,,,,,,,,,
0021400211,1610612739,CLE,Cleveland,2034,Mike Miller,,DNP - Coach's Decision                  ,,,,,,,0.0,,,,,,,0.0,,,2014-11-26T00:00:00,2,1610612764,WAS,Washington,9-5,18,28,21,20,0,0,0,0,0,0,0,0,0,0,87,0.465,0.727,0.385,24,26,18,0021400211,1610612739,CLE,Cleveland,Mike Miller,,DNP - Coach's Decision                  ,,,,,,,,,,,,,
0021400211,1610612739,CLE,Cleveland,2034,Mike Miller,,DNP - Coach's Decision                  ,,,,,,,0.0,,,,,,,0.0,,,2014-11-26T00:00:00,2,1610612739,CLE,Cleveland,7-7,31,27,23,32,0,0,0,0,0,0,0,0,0,0,113,0.514,0.816,0.3,23,32,9,0021400211,1610612739,CLE,Cleveland,Mike Miller,,DNP - Coach's Decision                  ,,,,,,,,,,,,,
