GAME_ID_x,TEAM_ID_x,TEAM_ABBREVIATION_x,TEAM_CITY_x,PLAYER_ID,PLAYER_NAME_x,START_POSITION_x,COMMENT_x,MIN_x,OFF_RATING,DEF_RATING,NET_RATING,AST_PCT,AST_TOV,AST_RATIO,OREB_PCT,DREB_PCT,REB_PCT,TM_TOV_PCT,EFG_PCT,TS_PCT,USG_PCT,PACE,PIE,GAME_DATE_EST,GAME_SEQUENCE,TEAM_ID_y,TEAM_ABBREVIATION_y,TEAM_CITY_NAME,TEAM_WINS_LOSSES,PTS_QTR1,PTS_QTR2,PTS_QTR3,PTS_QTR4,PTS_OT1,PTS_OT2,PTS_OT3,PTS_OT4,PTS_OT5,PTS_OT6,PTS_OT7,PTS_OT8,PTS_OT9,PTS_OT10,PTS,FG_PCT,FT_PCT,FG3_PCT,AST,REB,TOV,GAME_ID_y,TEAM_ID,TEAM_ABBREVIATION,TEAM_CITY_y,PLAYER_NAME_y,START_POSITION_y,COMMENT_y,MIN_y,PTS_OFF_TOV,PTS_2ND_CHANCE,PTS_FB,PTS_PAINT,OPP_PTS_OFF_TOV,OPP_PTS_2ND_CHANCE,OPP_PTS_FB,OPP_PTS_PAINT,BLK,BLKA,PF,PFD
0021400220,1610612754,IND,Indiana,203524,Solomon Hill,F,,28:55,85.4,106.5,-21.1,0.063,0.5,9.1,0.038,0.095,0.064,18.2,0.625,0.625,0.16,94.42,0.09,2014-11-26T00:00:00,11,1610612754,IND,Indiana,6-9,27,28,21,24,0,0,0,0,0,0,0,0,0,0,100,0.46,0.556,0.476,23,36,12,0021400220,1610612754,IND,Indiana,Solomon Hill,F,,28:55,3.0,0.0,0.0,4.0,6.0,4.0,10.0,26.0,0.0,1.0,1.0,0.0
0021400220,1610612754,IND,Indiana,203524,Solomon Hill,F,,28:55,85.4,106.5,-21.1,0.063,0.5,9.1,0.038,0.095,0.064,18.2,0.625,0.625,0.16,94.42,0.09,2014-11-26T00:00:00,11,1610612759,SAS,San Antonio,10-4,25,25,27,29,0,0,0,0,0,0,0,0,0,0,106,0.554,0.655,0.333,21,45,15,0021400220,1610612754,IND,Indiana,Solomon Hill,F,,28:55,3.0,0.0,0.0,4.0,6.0,4.0,10.0,26.0,0.0,1.0,1.0,0.0
0021400220,1610612754,IND,Indiana,2449,Luis Scola,F,,26:05,89.5,106.7,-17.2,0.067,0.5,5.7,0.043,0.227,0.133,11.3,0.417,0.444,0.274,99.67,0.077,2014-11-26T00:00:00,11,1610612754,IND,Indiana,6-9,27,28,21,24,0,0,0,0,0,0,0,0,0,0,100,0.46,0.556,0.476,23,36,12,0021400220,1610612754,IND,Indiana,Luis Scola,F,,26:05,0.0,1.0,0.0,2.0,6.0,4.0,12.0,28.0,0.0,0.0,2.0,4.0
0021400220,1610612754,IND,Indiana,2449,Luis Scola,F,,26:05,89.5,106.7,-17.2,0.067,0.5,5.7,0.043,0.227,0.133,11.3,0.417,0.444,0.274,99.67,0.077,2014-11-26T00:00:00,11,1610612759,SAS,San Antonio,10-4,25,25,27,29,0,0,0,0,0,0,0,0,0,0,106,0.554,0.655,0.333,21,45,15,0021400220,1610612754,IND,Indiana,Luis Scola,F,,26:05,0.0,1.0,0.0,2.0,6.0,4.0,12.0,28.0,0.0,0.0,2.0,4.0
0021400220,1610612754,IND,Indiana,101133,Ian Mahinmi,C,,23:19,87.1,106.9,-19.8,0.077,0.0,16.7,0.0,0.333,0.135,0.0,0.8,0.8,0.098,95.64,0.121,2014-11-26T00:00:00,11,1610612754,IND,Indiana,6-9,27,28,21,24,0,0,0,0,0,0,0,0,0,0,100,0.46,0.556,0.476,23,36,12,0021400220,1610612754,IND,Indiana,Ian Mahinmi,C,,23:19,0.0,2.0,0.0,8.0,4.0,2.0,8.0,22.0,1.0,0.0,5.0,1.0
0021400220,1610612754,IND,Indiana,101133,Ian Mahinmi,C,,23:19,87.1,106.9,-19.8,0.077,0.0,16.7,0.0,0.333,0.135,0.0,0.8,0.8,0.098,95.64,0.121,2014-11-26T00:00:00,11,1610612759,SAS,San Antonio,10-4,25,25,27,29,0,0,0,0,0,0,0,0,0,0,106,0.554,0.655,0.333,21,45,15,0021400220,1610612754,IND,Indiana,Ian Mahinmi,C,,23:19,0.0,2.0,0.0,8.0,4.0,2.0,8.0,22.0,1.0,0.0,5.0,1.0
0021400220,1610612754,IND,Indiana,201155,Rodney Stuckey,G,,34:59,85.9,120.2,-34.2,0.25,2.0,14.2,0.031,0.107,0.067,7.1,0.45,0.495,0.314,96.33,0.119,2014-11-26T00:00:00,11,1610612754,IND,Indiana,6-9,27,28,21,24,0,0,0,0,0,0,0,0,0,0,100,0.46,0.556,0.476,23,36,12,0021400220,1610612754,IND,Indiana,Rodney Stuckey,G,,34:59,2.0,4.0,2.0,8.0,6.0,6.0,18.0,38.0,0.0,3.0,3.0,6.0
0021400220,1610612754,IND,Indiana,201155,Rodney Stuckey,G,,34:59,85.9,120.2,-34.2,0.25,2.0,14.2,0.031,0.107,0.067,7.1,0.45,0.495,0.314,96.33,0.119,2014-11-26T00:00:00,11,1610612759,SAS,San Antonio,10-4,25,25,27,29,0,0,0,0,0,0,0,0,0,0,106,0.554,0.655,0.333,21,45,15,0021400220,1610612754,IND,Indiana,Rodney Stuckey,G,,34:59,2.0,4.0,2.0,8.0,6.0,6.0,18.0,38.0,0.0,3.0,3.0,6.0
0021400220,1610612754,IND,Indiana,202388,Donald Sloan,G,,26:46,89.4,101.0,-11.7,0.333,3.0,40.3,0.042,0.1,0.068,13.4,0.167,0.218,0.148,95.33,0.033,2014-11-26T00:00:00,11,1610612754,IND,Indiana,6-9,27,28,21,24,0,0,0,0,0,0,0,0,0,0,100,0.46,0.556,0.476,23,36,12,0021400220,1610612754,IND,Indiana,Donald Sloan,G,,26:46,3.0,2.0,0.0,2.0,6.0,4.0,10.0,22.0,0.0,1.0,1.0,2.0
0021400220,1610612754,IND,Indiana,202388,Donald Sloan,G,,26:46,89.4,101.0,-11.7,0.333,3.0,40.3,0.042,0.1,0.068,13.4,0.167,0.218,0.148,95.33,0.033,2014-11-26T00:00:00,11,1610612759,SAS,San Antonio,10-4,25,25,27,29,0,0,0,0,0,0,0,0,0,0,106,0.554,0.655,0.333,21,45,15,0021400220,1610612754,IND,Indiana,Donald Sloan,G,,26:46,3.0,2.0,0.0,2.0,6.0,4.0,10.0,22.0,0.0,1.0,1.0,2.0
0021400220,1610612754,IND,Indiana,203142,Chris Copeland,,,23:05,110.9,118.4,-7.5,0.056,1.0,7.8,0.043,0.118,0.075,7.8,0.5,0.551,0.219,100.03,0.072,2014-11-26T00:00:00,11,1610612754,IND,Indiana,6-9,27,28,21,24,0,0,0,0,0,0,0,0,0,0,100,0.46,0.556,0.476,23,36,12,0021400220,1610612754,IND,Indiana,Chris Copeland,,,23:05,0.0,0.0,0.0,4.0,5.0,4.0,6.0,26.0,0.0,0.0,3.0,2.0
0021400220,1610612754,IND,Indiana,203142,Chris Copeland,,,23:05,110.9,118.4,-7.5,0.056,1.0,7.8,0.043,0.118,0.075,7.8,0.5,0.551,0.219,100.03,0.072,2014-11-26T00:00:00,11,1610612759,SAS,San Antonio,10-4,25,25,27,29,0,0,0,0,0,0,0,0,0,0,106,0.554,0.655,0.333,21,45,15,0021400220,1610612754,IND,Indiana,Chris Copeland,,,23:05,0.0,0.0,0.0,4.0,5.0,4.0,6.0,26.0,0.0,0.0,3.0,2.0
0021400220,1610612754,IND,Indiana,101139,CJ Miles,,,14:35,122.5,109.3,13.3,0.071,1.0,11.3,0.0,0.1,0.042,11.3,0.417,0.363,0.227,101.9,0.0,2014-11-26T00:00:00,11,1610612754,IND,Indiana,6-9,27,28,21,24,0,0,0,0,0,0,0,0,0,0,100,0.46,0.556,0.476,23,36,12,0021400220,1610612754,IND,Indiana,CJ Miles,,,14:35,0.0,0.0,2.0,2.0,5.0,2.0,2.0,18.0,0.0,0.0,2.0,1.0
0021400220,1610612754,IND,Indiana,101139,CJ Miles,,,14:35,122.5,109.3,13.3,0.071,1.0,11.3,0.0,0.1,0.042,11.3,0.417,0.363,0.227,101.9,0.0,2014-11-26T00:00:00,11,1610612759,SAS,San Antonio,10-4,25,25,27,29,0,0,0,0,0,0,0,0,0,0,106,0.554,0.655,0.333,21,45,15,0021400220,1610612754,IND,Indiana,CJ Miles,,,14:35,0.0,0.0,2.0,2.0,5.0,2.0,2.0,18.0,0.0,0.0,2.0,1.0
0021400220,1610612754,IND,Indiana,202730,Lavoy Allen,,,23:49,114.4,121.3,-6.9,0.111,2.0,19.2,0.095,0.35,0.22,9.6,0.571,0.538,0.165,94.96,0.1,2014-11-26T00:00:00,11,1610612754,IND,Indiana,6-9,27,28,21,24,0,0,0,0,0,0,0,0,0,0,100,0.46,0.556,0.476,23,36,12,0021400220,1610612754,IND,Indiana,Lavoy Allen,,,23:49,2.0,2.0,0.0,8.0,7.0,6.0,10.0,32.0,0.0,0.0,3.0,3.0
0021400220,1610612754,IND,Indiana,202730,Lavoy Allen,,,23:49,114.4,121.3,-6.9,0.111,2.0,19.2,0.095,0.35,0.22,9.6,0.571,0.538,0.165,94.96,0.1,2014-11-26T00:00:00,11,1610612759,SAS,San Antonio,10-4,25,25,27,29,0,0,0,0,0,0,0,0,0,0,106,0.554,0.655,0.333,21,45,15,0021400220,1610612754,IND,Indiana,Lavoy Allen,,,23:49,2.0,2.0,0.0,8.0,7.0,6.0,10.0,32.0,0.0,0.0,3.0,3.0
0021400220,1610612754,IND,Indiana,201985,AJ Price,,,20:48,111.1,128.3,-17.2,0.313,0.0,41.7,0.0,0.125,0.059,0.0,0.786,0.786,0.155,96.6,0.163,2014-11-26T00:00:00,11,1610612754,IND,Indiana,6-9,27,28,21,24,0,0,0,0,0,0,0,0,0,0,100,0.46,0.556,0.476,23,36,12,0021400220,1610612754,IND,Indiana,AJ Price,,,20:48,3.0,0.0,0.0,2.0,5.0,4.0,8.0,32.0,0.0,0.0,0.0,1.0
0021400220,1610612754,IND,Indiana,201985,AJ Price,,,20:48,111.1,128.3,-17.2,0.313,0.0,41.7,0.0,0.125,0.059,0.0,0.786,0.786,0.155,96.6,0.163,2014-11-26T00:00:00,11,1610612759,SAS,San Antonio,10-4,25,25,27,29,0,0,0,0,0,0,0,0,0,0,106,0.554,0.655,0.333,21,45,15,0021400220,1610612754,IND,Indiana,AJ Price,,,20:48,3.0,0.0,0.0,2.0,5.0,4.0,8.0,32.0,0.0,0.0,0.0,1.0
0021400220,1610612754,IND,Indiana,204014,Damjan Rudez,,,17:39,116.8,113.0,3.9,0.063,1.0,12.5,0.0,0.0,0.0,12.5,0.667,0.667,0.162,102.78,0.025,2014-11-26T00:00:00,11,1610612754,IND,Indiana,6-9,27,28,21,24,0,0,0,0,0,0,0,0,0,0,100,0.46,0.556,0.476,23,36,12,0021400220,1610612754,IND,Indiana,Damjan Rudez,,,17:39,3.0,0.0,0.0,0.0,5.0,4.0,6.0,26.0,0.0,0.0,3.0,0.0
0021400220,1610612754,IND,Indiana,204014,Damjan Rudez,,,17:39,116.8,113.0,3.9,0.063,1.0,12.5,0.0,0.0,0.0,12.5,0.667,0.667,0.162,102.78,0.025,2014-11-26T00:00:00,11,1610612759,SAS,San Antonio,10-4,25,25,27,29,0,0,0,0,0,0,0,0,0,0,106,0.554,0.655,0.333,21,45,15,0021400220,1610612754,IND,Indiana,Damjan Rudez,,,17:39,3.0,0.0,0.0,0.0,5.0,4.0,6.0,26.0,0.0,0.0,3.0,0.0
0021400220,1610612754,IND,Indiana,201579,Roy Hibbert,,DND - Sprained left ankle               ,,,,,,,0.0,,,,,,,0.0,,,2014-11-26T00:00:00,11,1610612754,IND,Indiana,6-9,27,28,21,24,0,0,0,0,0,0,0,0,0,0,100,0.46,0.556,0.476,23,36,12,0021400220,1610612754,IND,Indiana,Roy Hibbert,,DND - Sprained left ankle               ,,,,,,,,,,,,,
0021400220,1610612754,IND,Indiana,201579,Roy Hibbert,,DND - Sprained left ankle               ,,,,,,,0.0,,,,,,,0.0,,,2014-11-26T00:00:00,11,1610612759,SAS,San Antonio,10-4,25,25,27,29,0,0,0,0,0,0,0,0,0,0,106,0.554,0.655,0.333,21,45,15,0021400220,1610612754,IND,Indiana,Roy Hibbert,,DND - Sprained left ankle               ,,,,,,,,,,,,,
0021400220,1610612754,IND,Indiana,2561,David West,,DND - Sprained right ankle              ,,,,,,,0.0,,,,,,,0.0,,,2014-11-26T00:00:00,11,1610612754,IND,Indiana,6-9,27,28,21,24,0,0,0,0,0,0,0,0,0,0,100,0.46,0.556,0.476,23,36,12,0021400220,1610612754,IND,Indiana,David West,,DND - Sprained right ankle              ,,,,,,,,,,,,,
0021400220,1610612754,IND,Indiana,2561,David West,,DND - Sprained right ankle              ,,,,,,,0.0,,,,,,,0.0,,,2014-11-26T00:00:00,11,1610612759,SAS,San Antonio,10-4,25,25,27,29,0,0,0,0,0,0,0,0,0,0,106,0.554,0.655,0.333,21,45,15,0021400220,1610612754,IND,Indiana,David West,,DND - Sprained right ankle              ,,,,,,,,,,,,,
0021400220,1610612754,IND,Indiana,203963,Shayne Whittington,,DNP - Coach's Decision                  ,,,,,,,0.0,,,,,,,0.0,,,2014-11-26T00:00:00,11,1610612754,IND,Indiana,6-9,27,28,21,24,0,0,0,0,0,0,0,0,0,0,100,0.46,0.556,0.476,23,36,12,0021400220,1610612754,IND,Indiana,Shayne Whittington,,DNP - Coach's Decision                  ,,,,,,,,,,,,,
0021400220,1610612754,IND,Indiana,203963,Shayne Whittington,,DNP - Coach's Decision                  ,,,,,,,0.0,,,,,,,0.0,,,2014-11-26T00:00:00,11,1610612759,SAS,San Antonio,10-4,25,25,27,29,0,0,0,0,0,0,0,0,0,0,106,0.554,0.655,0.333,21,45,15,0021400220,1610612754,IND,Indiana,Shayne Whittington,,DNP - Coach's Decision                  ,,,,,,,,,,,,,
0021400220,1610612759,SAS,San Antonio,202695,Kawhi Leonard,F,,36:07,109.3,92.6,16.7,0.042,0.5,5.7,0.037,0.353,0.213,11.3,0.75,0.717,0.22,97.07,0.19,2014-11-26T00:00:00,11,1610612754,IND,Indiana,6-9,27,28,21,24,0,0,0,0,0,0,0,0,0,0,100,0.46,0.556,0.476,23,36,12,0021400220,1610612759,SAS,San Antonio,Kawhi Leonard,F,,36:07,2.0,0.0,2.0,4.0,16.0,8.0,2.0,26.0,0.0,0.0,3.0,5.0
0021400220,1610612759,SAS,San Antonio,202695,Kawhi Leonard,F,,36:07,109.3,92.6,16.7,0.042,0.5,5.7,0.037,0.353,0.213,11.3,0.75,0.717,0.22,97.07,0.19,2014-11-26T00:00:00,11,1610612759,SAS,San Antonio,10-4,25,25,27,29,0,0,0,0,0,0,0,0,0,0,106,0.554,0.655,0.333,21,45,15,0021400220,1610612759,SAS,San Antonio,Kawhi Leonard,F,,36:07,2.0,0.0,2.0,4.0,16.0,8.0,2.0,26.0,0.0,0.0,3.0,5.0
0021400220,1610612759,SAS,San Antonio,1495,Tim Duncan,F,,33:04,117.8,87.5,30.2,0.136,1.5,17.0,0.12,0.094,0.105,11.3,0.7,0.672,0.206,99.49,0.129,2014-11-26T00:00:00,11,1610612754,IND,Indiana,6-9,27,28,21,24,0,0,0,0,0,0,0,0,0,0,100,0.46,0.556,0.476,23,36,12,0021400220,1610612759,SAS,San Antonio,Tim Duncan,F,,33:04,0.0,4.0,2.0,14.0,10.0,9.0,4.0,22.0,2.0,0.0,3.0,3.0
0021400220,1610612759,SAS,San Antonio,1495,Tim Duncan,F,,33:04,117.8,87.5,30.2,0.136,1.5,17.0,0.12,0.094,0.105,11.3,0.7,0.672,0.206,99.49,0.129,2014-11-26T00:00:00,11,1610612759,SAS,San Antonio,10-4,25,25,27,29,0,0,0,0,0,0,0,0,0,0,106,0.554,0.655,0.333,21,45,15,0021400220,1610612759,SAS,San Antonio,Tim Duncan,F,,33:04,0.0,4.0,2.0,14.0,10.0,9.0,4.0,22.0,2.0,0.0,3.0,3.0
0021400220,1610612759,SAS,San Antonio,2564,Boris Diaw,C,,33:03,113.2,91.4,21.8,0.107,1.0,33.3,0.0,0.138,0.075,33.3,0.333,0.333,0.089,94.8,0.026,2014-11-26T00:00:00,11,1610612754,IND,Indiana,6-9,27,28,21,24,0,0,0,0,0,0,0,0,0,0,100,0.46,0.556,0.476,23,36,12,0021400220,1610612759,SAS,San Antonio,Boris Diaw,C,,33:03,0.0,0.0,2.0,2.0,10.0,9.0,2.0,24.0,0.0,0.0,2.0,0.0
0021400220,1610612759,SAS,San Antonio,2564,Boris Diaw,C,,33:03,113.2,91.4,21.8,0.107,1.0,33.3,0.0,0.138,0.075,33.3,0.333,0.333,0.089,94.8,0.026,2014-11-26T00:00:00,11,1610612759,SAS,San Antonio,10-4,25,25,27,29,0,0,0,0,0,0,0,0,0,0,106,0.554,0.655,0.333,21,45,15,0021400220,1610612759,SAS,San Antonio,Boris Diaw,C,,33:03,0.0,0.0,2.0,2.0,10.0,9.0,2.0,24.0,0.0,0.0,2.0,0.0
0021400220,1610612759,SAS,San Antonio,201980,Danny Green,G,,29:27,119.4,93.9,25.5,0.12,3.0,37.5,0.0,0.167,0.098,12.5,0.25,0.25,0.081,100.04,0.048,2014-11-26T00:00:00,11,1610612754,IND,Indiana,6-9,27,28,21,24,0,0,0,0,0,0,0,0,0,0,100,0.46,0.556,0.476,23,36,12,0021400220,1610612759,SAS,San Antonio,Danny Green,G,,29:27,0.0,0.0,0.0,0.0,5.0,8.0,2.0,28.0,3.0,0.0,3.0,0.0
0021400220,1610612759,SAS,San Antonio,201980,Danny Green,G,,29:27,119.4,93.9,25.5,0.12,3.0,37.5,0.0,0.167,0.098,12.5,0.25,0.25,0.081,100.04,0.048,2014-11-26T00:00:00,11,1610612759,SAS,San Antonio,10-4,25,25,27,29,0,0,0,0,0,0,0,0,0,0,106,0.554,0.655,0.333,21,45,15,0021400220,1610612759,SAS,San Antonio,Danny Green,G,,29:27,0.0,0.0,0.0,0.0,5.0,8.0,2.0,28.0,3.0,0.0,3.0,0.0
0021400220,1610612759,SAS,San Antonio,2225,Tony Parker,G,,35:39,108.1,100.5,7.6,0.273,2.0,21.7,0.034,0.091,0.065,10.9,0.531,0.563,0.28,98.85,0.135,2014-11-26T00:00:00,11,1610612754,IND,Indiana,6-9,27,28,21,24,0,0,0,0,0,0,0,0,0,0,100,0.46,0.556,0.476,23,36,12,0021400220,1610612759,SAS,San Antonio,Tony Parker,G,,35:39,4.0,0.0,8.0,10.0,14.0,9.0,4.0,28.0,0.0,0.0,1.0,5.0
0021400220,1610612759,SAS,San Antonio,2225,Tony Parker,G,,35:39,108.1,100.5,7.6,0.273,2.0,21.7,0.034,0.091,0.065,10.9,0.531,0.563,0.28,98.85,0.135,2014-11-26T00:00:00,11,1610612759,SAS,San Antonio,10-4,25,25,27,29,0,0,0,0,0,0,0,0,0,0,106,0.554,0.655,0.333,21,45,15,0021400220,1610612759,SAS,San Antonio,Tony Parker,G,,35:39,4.0,0.0,8.0,10.0,14.0,9.0,4.0,28.0,0.0,0.0,1.0,5.0
0021400220,1610612759,SAS,San Antonio,1938,Manu Ginobili,,,26:19,113.5,103.1,10.3,0.4,1.33,14.2,0.0,0.13,0.068,10.7,0.611,0.664,0.437,97.03,0.264,2014-11-26T00:00:00,11,1610612754,IND,Indiana,6-9,27,28,21,24,0,0,0,0,0,0,0,0,0,0,100,0.46,0.556,0.476,23,36,12,0021400220,1610612759,SAS,San Antonio,Manu Ginobili,,,26:19,4.0,4.0,4.0,14.0,9.0,5.0,4.0,22.0,0.0,1.0,2.0,6.0
0021400220,1610612759,SAS,San Antonio,1938,Manu Ginobili,,,26:19,113.5,103.1,10.3,0.4,1.33,14.2,0.0,0.13,0.068,10.7,0.611,0.664,0.437,97.03,0.264,2014-11-26T00:00:00,11,1610612759,SAS,San Antonio,10-4,25,25,27,29,0,0,0,0,0,0,0,0,0,0,106,0.554,0.655,0.333,21,45,15,0021400220,1610612759,SAS,San Antonio,Manu Ginobili,,,26:19,4.0,4.0,4.0,14.0,9.0,5.0,4.0,22.0,0.0,1.0,2.0,6.0
0021400220,1610612759,SAS,San Antonio,201158,Marco Belinelli,,,17:02,117.3,110.8,6.5,0.0,0.0,0.0,0.067,0.231,0.143,0.0,0.4,0.51,0.157,95.26,0.098,2014-11-26T00:00:00,11,1610612754,IND,Indiana,6-9,27,28,21,24,0,0,0,0,0,0,0,0,0,0,100,0.46,0.556,0.476,23,36,12,0021400220,1610612759,SAS,San Antonio,Marco Belinelli,,,17:02,0.0,0.0,0.0,2.0,4.0,3.0,2.0,18.0,0.0,0.0,1.0,2.0
0021400220,1610612759,SAS,San Antonio,201158,Marco Belinelli,,,17:02,117.3,110.8,6.5,0.0,0.0,0.0,0.067,0.231,0.143,0.0,0.4,0.51,0.157,95.26,0.098,2014-11-26T00:00:00,11,1610612759,SAS,San Antonio,10-4,25,25,27,29,0,0,0,0,0,0,0,0,0,0,106,0.554,0.655,0.333,21,45,15,0021400220,1610612759,SAS,San Antonio,Marco Belinelli,,,17:02,0.0,0.0,0.0,2.0,4.0,3.0,2.0,18.0,0.0,0.0,1.0,2.0
0021400220,1610612759,SAS,San Antonio,2588,Matt Bonner,,,14:23,116.1,119.9,-3.7,0.0,0.0,0.0,0.091,0.143,0.12,0.0,0.0,0.0,0.062,97.59,0.008,2014-11-26T00:00:00,11,1610612754,IND,Indiana,6-9,27,28,21,24,0,0,0,0,0,0,0,0,0,0,100,0.46,0.556,0.476,23,36,12,0021400220,1610612759,SAS,San Antonio,Matt Bonner,,,14:23,0.0,0.0,0.0,0.0,6.0,2.0,0.0,14.0,0.0,0.0,0.0,0.0
0021400220,1610612759,SAS,San Antonio,2588,Matt Bonner,,,14:23,116.1,119.9,-3.7,0.0,0.0,0.0,0.091,0.143,0.12,0.0,0.0,0.0,0.062,97.59,0.008,2014-11-26T00:00:00,11,1610612759,SAS,San Antonio,10-4,25,25,27,29,0,0,0,0,0,0,0,0,0,0,106,0.554,0.655,0.333,21,45,15,0021400220,1610612759,SAS,San Antonio,Matt Bonner,,,14:23,0.0,0.0,0.0,0.0,6.0,2.0,0.0,14.0,0.0,0.0,0.0,0.0
0021400220,1610612759,SAS,San Antonio,203382,Aron Baynes,,,14:56,101.7,126.3,-24.6,0.125,1.0,14.5,0.083,0.167,0.125,14.5,1.0,0.922,0.193,92.57,0.102,2014-11-26T00:00:00,11,1610612754,IND,Indiana,6-9,27,28,21,24,0,0,0,0,0,0,0,0,0,0,100,0.46,0.556,0.476,23,36,12,0021400220,1610612759,SAS,San Antonio,Aron Baynes,,,14:56,1.0,0.0,0.0,8.0,6.0,2.0,0.0,18.0,0.0,0.0,5.0,2.0
0021400220,1610612759,SAS,San Antonio,203382,Aron Baynes,,,14:56,101.7,126.3,-24.6,0.125,1.0,14.5,0.083,0.167,0.125,14.5,1.0,0.922,0.193,92.57,0.102,2014-11-26T00:00:00,11,1610612759,SAS,San Antonio,10-4,25,25,27,29,0,0,0,0,0,0,0,0,0,0,106,0.554,0.655,0.333,21,45,15,0021400220,1610612759,SAS,San Antonio,Aron Baynes,,,14:56,1.0,0.0,0.0,8.0,6.0,2.0,0.0,18.0,0.0,0.0,5.0,2.0
0021400220,1610612759,SAS,San Antonio,203937,Kyle Anderson,,DNP - Coach's Decision                  ,,,,,,,0.0,,,,,,,0.0,,,2014-11-26T00:00:00,11,1610612754,IND,Indiana,6-9,27,28,21,24,0,0,0,0,0,0,0,0,0,0,100,0.46,0.556,0.476,23,36,12,0021400220,1610612759,SAS,San Antonio,Kyle Anderson,,DNP - Coach's Decision                  ,,,,,,,,,,,,,
0021400220,1610612759,SAS,San Antonio,203937,Kyle Anderson,,DNP - Coach's Decision                  ,,,,,,,0.0,,,,,,,0.0,,,2014-11-26T00:00:00,11,1610612759,SAS,San Antonio,10-4,25,25,27,29,0,0,0,0,0,0,0,0,0,0,106,0.554,0.655,0.333,21,45,15,0021400220,1610612759,SAS,San Antonio,Kyle Anderson,,DNP - Coach's Decision                  ,,,,,,,,,,,,,
0021400220,1610612759,SAS,San Antonio,201965,Jeff Ayres,,DNP - Coach's Decision                  ,,,,,,,0.0,,,,,,,0.0,,,2014-11-26T00:00:00,11,1610612754,IND,Indiana,6-9,27,28,21,24,0,0,0,0,0,0,0,0,0,0,100,0.46,0.556,0.476,23,36,12,0021400220,1610612759,SAS,San Antonio,Jeff Ayres,,DNP - Coach's Decision                  ,,,,,,,,,,,,,
0021400220,1610612759,SAS,San Antonio,201965,Jeff Ayres,,DNP - Coach's Decision                  ,,,,,,,0.0,,,,,,,0.0,,,2014-11-26T00:00:00,11,1610612759,SAS,San Antonio,10-4,25,25,27,29,0,0,0,0,0,0,0,0,0,0,106,0.554,0.655,0.333,21,45,15,0021400220,1610612759,SAS,San Antonio,Jeff Ayres,,DNP - Coach's Decision                  ,,,,,,,,,,,,,
0021400220,1610612759,SAS,San Antonio,201948,Austin Daye,,DNP - Coach's Decision                  ,,,,,,,0.0,,,,,,,0.0,,,2014-11-26T00:00:00,11,1610612754,IND,Indiana,6-9,27,28,21,24,0,0,0,0,0,0,0,0,0,0,100,0.46,0.556,0.476,23,36,12,0021400220,1610612759,SAS,San Antonio,Austin Daye,,DNP - Coach's Decision                  ,,,,,,,,,,,,,
0021400220,1610612759,SAS,San Antonio,201948,Austin Daye,,DNP - Coach's Decision                  ,,,,,,,0.0,,,,,,,0.0,,,2014-11-26T00:00:00,11,1610612759,SAS,San Antonio,10-4,25,25,27,29,0,0,0,0,0,0,0,0,0,0,106,0.554,0.655,0.333,21,45,15,0021400220,1610612759,SAS,San Antonio,Austin Daye,,DNP - Coach's Decision                  ,,,,,,,,,,,,,
0021400220,1610612759,SAS,San Antonio,202709,Cory Joseph,,DND - Sprained left ankle               ,,,,,,,0.0,,,,,,,0.0,,,2014-11-26T00:00:00,11,1610612754,IND,Indiana,6-9,27,28,21,24,0,0,0,0,0,0,0,0,0,0,100,0.46,0.556,0.476,23,36,12,0021400220,1610612759,SAS,San Antonio,Cory Joseph,,DND - Sprained left ankle               ,,,,,,,,,,,,,
0021400220,1610612759,SAS,San Antonio,202709,Cory Joseph,,DND - Sprained left ankle               ,,,,,,,0.0,,,,,,,0.0,,,2014-11-26T00:00:00,11,1610612759,SAS,San Antonio,10-4,25,25,27,29,0,0,0,0,0,0,0,0,0,0,106,0.554,0.655,0.333,21,45,15,0021400220,1610612759,SAS,San Antonio,Cory Joseph,,DND - Sprained left ankle               ,,,,,,,,,,,,,
