GAME_ID_x,TEAM_ID_x,TEAM_ABBREVIATION_x,TEAM_CITY_x,PLAYER_ID,PLAYER_NAME_x,START_POSITION_x,COMMENT_x,MIN_x,OFF_RATING,DEF_RATING,NET_RATING,AST_PCT,AST_TOV,AST_RATIO,OREB_PCT,DREB_PCT,REB_PCT,TM_TOV_PCT,EFG_PCT,TS_PCT,USG_PCT,PACE,PIE,GAME_DATE_EST,GAME_SEQUENCE,TEAM_ID_y,TEAM_ABBREVIATION_y,TEAM_CITY_NAME,TEAM_WINS_LOSSES,PTS_QTR1,PTS_QTR2,PTS_QTR3,PTS_QTR4,PTS_OT1,PTS_OT2,PTS_OT3,PTS_OT4,PTS_OT5,PTS_OT6,PTS_OT7,PTS_OT8,PTS_OT9,PTS_OT10,PTS,FG_PCT,FT_PCT,FG3_PCT,AST,REB,TOV,GAME_ID_y,TEAM_ID,TEAM_ABBREVIATION,TEAM_CITY_y,PLAYER_NAME_y,START_POSITION_y,COMMENT_y,MIN_y,PTS_OFF_TOV,PTS_2ND_CHANCE,PTS_FB,PTS_PAINT,OPP_PTS_OFF_TOV,OPP_PTS_2ND_CHANCE,OPP_PTS_FB,OPP_PTS_PAINT,BLK,BLKA,PF,PFD
0021400237,1610612766,CHA,Charlotte,201945,Gerald Henderson,F,,34:38,82.1,112.8,-30.6,0.25,0.8,16.8,0.029,0.045,0.036,20.9,0.429,0.47,0.257,94.8,0.036,2014-11-29T00:00:00,3,1610612766,CHA,Charlotte,4-14,17,11,23,24,0,0,0,0,0,0,0,0,0,0,75,0.33,0.75,0.217,20,38,12,0021400237,1610612766,CHA,Charlotte,Gerald Henderson,F,,34:38,6.0,0.0,2.0,2.0,12.0,0.0,9.0,30.0,0.0,1.0,2.0,1.0
0021400237,1610612766,CHA,Charlotte,201945,Gerald Henderson,F,,34:38,82.1,112.8,-30.6,0.25,0.8,16.8,0.029,0.045,0.036,20.9,0.429,0.47,0.257,94.8,0.036,2014-11-29T00:00:00,3,1610612737,ATL,Atlanta,9-6,28,36,20,21,0,0,0,0,0,0,0,0,0,0,105,0.533,0.813,0.522,31,44,12,0021400237,1610612766,CHA,Charlotte,Gerald Henderson,F,,34:38,6.0,0.0,2.0,2.0,12.0,0.0,9.0,30.0,0.0,1.0,2.0,1.0
0021400237,1610612766,CHA,Charlotte,203469,Cody Zeller,F,,24:29,66.1,136.2,-70.1,0.0,0.0,0.0,0.0,0.333,0.083,11.4,0.0,0.258,0.164,94.22,0.0,2014-11-29T00:00:00,3,1610612766,CHA,Charlotte,4-14,17,11,23,24,0,0,0,0,0,0,0,0,0,0,75,0.33,0.75,0.217,20,38,12,0021400237,1610612766,CHA,Charlotte,Cody Zeller,F,,24:29,0.0,0.0,0.0,0.0,8.0,0.0,5.0,28.0,0.0,1.0,1.0,2.0
0021400237,1610612766,CHA,Charlotte,203469,Cody Zeller,F,,24:29,66.1,136.2,-70.1,0.0,0.0,0.0,0.0,0.333,0.083,11.4,0.0,0.258,0.164,94.22,0.0,2014-11-29T00:00:00,3,1610612737,ATL,Atlanta,9-6,28,36,20,21,0,0,0,0,0,0,0,0,0,0,105,0.533,0.813,0.522,31,44,12,0021400237,1610612766,CHA,Charlotte,Cody Zeller,F,,24:29,0.0,0.0,0.0,0.0,8.0,0.0,5.0,28.0,0.0,1.0,1.0,2.0
0021400237,1610612766,CHA,Charlotte,2744,Al Jefferson,C,,20:51,75.0,147.6,-72.6,0.0,0.0,0.0,0.045,0.25,0.1,8.5,0.444,0.511,0.258,95.08,0.036,2014-11-29T00:00:00,3,1610612766,CHA,Charlotte,4-14,17,11,23,24,0,0,0,0,0,0,0,0,0,0,75,0.33,0.75,0.217,20,38,12,0021400237,1610612766,CHA,Charlotte,Al Jefferson,C,,20:51,0.0,4.0,0.0,6.0,8.0,0.0,5.0,24.0,0.0,1.0,3.0,2.0
0021400237,1610612766,CHA,Charlotte,2744,Al Jefferson,C,,20:51,75.0,147.6,-72.6,0.0,0.0,0.0,0.045,0.25,0.1,8.5,0.444,0.511,0.258,95.08,0.036,2014-11-29T00:00:00,3,1610612737,ATL,Atlanta,9-6,28,36,20,21,0,0,0,0,0,0,0,0,0,0,105,0.533,0.813,0.522,31,44,12,0021400237,1610612766,CHA,Charlotte,Al Jefferson,C,,20:51,0.0,4.0,0.0,6.0,8.0,0.0,5.0,24.0,0.0,1.0,3.0,2.0
0021400237,1610612766,CHA,Charlotte,202362,Lance Stephenson,G,,23:22,81.3,129.3,-48.1,0.25,1.5,21.4,0.08,0.071,0.077,14.3,0.333,0.333,0.209,92.81,-0.011,2014-11-29T00:00:00,3,1610612766,CHA,Charlotte,4-14,17,11,23,24,0,0,0,0,0,0,0,0,0,0,75,0.33,0.75,0.217,20,38,12,0021400237,1610612766,CHA,Charlotte,Lance Stephenson,G,,23:22,4.0,0.0,0.0,4.0,8.0,5.0,5.0,24.0,0.0,0.0,4.0,0.0
0021400237,1610612766,CHA,Charlotte,202362,Lance Stephenson,G,,23:22,81.3,129.3,-48.1,0.25,1.5,21.4,0.08,0.071,0.077,14.3,0.333,0.333,0.209,92.81,-0.011,2014-11-29T00:00:00,3,1610612737,ATL,Atlanta,9-6,28,36,20,21,0,0,0,0,0,0,0,0,0,0,105,0.533,0.813,0.522,31,44,12,0021400237,1610612766,CHA,Charlotte,Lance Stephenson,G,,23:22,4.0,0.0,0.0,4.0,8.0,5.0,5.0,24.0,0.0,0.0,4.0,0.0
0021400237,1610612766,CHA,Charlotte,202689,Kemba Walker,G,,24:51,65.8,148.3,-82.6,0.545,0.0,40.0,0.0,0.222,0.056,0.0,0.222,0.222,0.171,91.25,0.054,2014-11-29T00:00:00,3,1610612766,CHA,Charlotte,4-14,17,11,23,24,0,0,0,0,0,0,0,0,0,0,75,0.33,0.75,0.217,20,38,12,0021400237,1610612766,CHA,Charlotte,Kemba Walker,G,,24:51,0.0,2.0,0.0,2.0,11.0,0.0,2.0,28.0,1.0,2.0,1.0,1.0
0021400237,1610612766,CHA,Charlotte,202689,Kemba Walker,G,,24:51,65.8,148.3,-82.6,0.545,0.0,40.0,0.0,0.222,0.056,0.0,0.222,0.222,0.171,91.25,0.054,2014-11-29T00:00:00,3,1610612737,ATL,Atlanta,9-6,28,36,20,21,0,0,0,0,0,0,0,0,0,0,105,0.533,0.813,0.522,31,44,12,0021400237,1610612766,CHA,Charlotte,Kemba Walker,G,,24:51,0.0,2.0,0.0,2.0,11.0,0.0,2.0,28.0,1.0,2.0,1.0,1.0
0021400237,1610612766,CHA,Charlotte,203798,PJ Hairston,,,26:58,89.7,97.9,-8.2,0.077,0.0,6.7,0.034,0.143,0.08,0.0,0.5,0.54,0.23,92.1,0.161,2014-11-29T00:00:00,3,1610612766,CHA,Charlotte,4-14,17,11,23,24,0,0,0,0,0,0,0,0,0,0,75,0.33,0.75,0.217,20,38,12,0021400237,1610612766,CHA,Charlotte,PJ Hairston,,,26:58,4.0,3.0,0.0,2.0,7.0,5.0,4.0,16.0,1.0,0.0,1.0,1.0
0021400237,1610612766,CHA,Charlotte,203798,PJ Hairston,,,26:58,89.7,97.9,-8.2,0.077,0.0,6.7,0.034,0.143,0.08,0.0,0.5,0.54,0.23,92.1,0.161,2014-11-29T00:00:00,3,1610612737,ATL,Atlanta,9-6,28,36,20,21,0,0,0,0,0,0,0,0,0,0,105,0.533,0.813,0.522,31,44,12,0021400237,1610612766,CHA,Charlotte,PJ Hairston,,,26:58,4.0,3.0,0.0,2.0,7.0,5.0,4.0,16.0,1.0,0.0,1.0,1.0
0021400237,1610612766,CHA,Charlotte,101131,Jason Maxiell,,,18:01,81.1,87.0,-5.9,0.0,0.0,0.0,0.0,0.188,0.081,0.0,0.143,0.143,0.164,92.02,-0.026,2014-11-29T00:00:00,3,1610612766,CHA,Charlotte,4-14,17,11,23,24,0,0,0,0,0,0,0,0,0,0,75,0.33,0.75,0.217,20,38,12,0021400237,1610612766,CHA,Charlotte,Jason Maxiell,,,18:01,0.0,0.0,0.0,0.0,5.0,5.0,2.0,10.0,0.0,0.0,0.0,1.0
0021400237,1610612766,CHA,Charlotte,101131,Jason Maxiell,,,18:01,81.1,87.0,-5.9,0.0,0.0,0.0,0.0,0.188,0.081,0.0,0.143,0.143,0.164,92.02,-0.026,2014-11-29T00:00:00,3,1610612737,ATL,Atlanta,9-6,28,36,20,21,0,0,0,0,0,0,0,0,0,0,105,0.533,0.813,0.522,31,44,12,0021400237,1610612766,CHA,Charlotte,Jason Maxiell,,,18:01,0.0,0.0,0.0,0.0,5.0,5.0,2.0,10.0,0.0,0.0,0.0,1.0
0021400237,1610612766,CHA,Charlotte,202687,Bismack Biyombo,,,20:39,88.0,98.3,-10.3,0.1,1.0,12.9,0.25,0.313,0.275,12.9,0.75,0.608,0.149,86.19,0.19,2014-11-29T00:00:00,3,1610612766,CHA,Charlotte,4-14,17,11,23,24,0,0,0,0,0,0,0,0,0,0,75,0.33,0.75,0.217,20,38,12,0021400237,1610612766,CHA,Charlotte,Bismack Biyombo,,,20:39,2.0,4.0,0.0,6.0,5.0,5.0,2.0,12.0,2.0,0.0,1.0,2.0
0021400237,1610612766,CHA,Charlotte,202687,Bismack Biyombo,,,20:39,88.0,98.3,-10.3,0.1,1.0,12.9,0.25,0.313,0.275,12.9,0.75,0.608,0.149,86.19,0.19,2014-11-29T00:00:00,3,1610612737,ATL,Atlanta,9-6,28,36,20,21,0,0,0,0,0,0,0,0,0,0,105,0.533,0.813,0.522,31,44,12,0021400237,1610612766,CHA,Charlotte,Bismack Biyombo,,,20:39,2.0,4.0,0.0,6.0,5.0,5.0,2.0,12.0,2.0,0.0,1.0,2.0
0021400237,1610612766,CHA,Charlotte,203148,Brian Roberts,,,17:15,52.3,135.5,-83.2,0.167,0.0,14.3,0.04,0.0,0.029,0.0,0.0,0.0,0.152,86.32,-0.117,2014-11-29T00:00:00,3,1610612766,CHA,Charlotte,4-14,17,11,23,24,0,0,0,0,0,0,0,0,0,0,75,0.33,0.75,0.217,20,38,12,0021400237,1610612766,CHA,Charlotte,Brian Roberts,,,17:15,0.0,0.0,0.0,0.0,3.0,5.0,3.0,14.0,0.0,0.0,1.0,1.0
0021400237,1610612766,CHA,Charlotte,203148,Brian Roberts,,,17:15,52.3,135.5,-83.2,0.167,0.0,14.3,0.04,0.0,0.029,0.0,0.0,0.0,0.152,86.32,-0.117,2014-11-29T00:00:00,3,1610612737,ATL,Atlanta,9-6,28,36,20,21,0,0,0,0,0,0,0,0,0,0,105,0.533,0.813,0.522,31,44,12,0021400237,1610612766,CHA,Charlotte,Brian Roberts,,,17:15,0.0,0.0,0.0,0.0,3.0,5.0,3.0,14.0,0.0,0.0,1.0,1.0
0021400237,1610612766,CHA,Charlotte,2457,Jannero Pargo,,,16:56,104.0,66.8,37.3,0.444,2.0,26.7,0.0,0.0,0.0,13.3,0.556,0.556,0.285,96.49,0.12,2014-11-29T00:00:00,3,1610612766,CHA,Charlotte,4-14,17,11,23,24,0,0,0,0,0,0,0,0,0,0,75,0.33,0.75,0.217,20,38,12,0021400237,1610612766,CHA,Charlotte,Jannero Pargo,,,16:56,3.0,3.0,0.0,0.0,4.0,0.0,4.0,8.0,0.0,0.0,2.0,3.0
0021400237,1610612766,CHA,Charlotte,2457,Jannero Pargo,,,16:56,104.0,66.8,37.3,0.444,2.0,26.7,0.0,0.0,0.0,13.3,0.556,0.556,0.285,96.49,0.12,2014-11-29T00:00:00,3,1610612737,ATL,Atlanta,9-6,28,36,20,21,0,0,0,0,0,0,0,0,0,0,105,0.533,0.813,0.522,31,44,12,0021400237,1610612766,CHA,Charlotte,Jannero Pargo,,,16:56,3.0,3.0,0.0,0.0,4.0,0.0,4.0,8.0,0.0,0.0,2.0,3.0
0021400237,1610612766,CHA,Charlotte,203943,Noah Vonleh,,,12:00,101.0,85.9,15.1,0.0,0.0,0.0,0.1,0.455,0.286,0.0,0.5,0.5,0.075,96.4,0.194,2014-11-29T00:00:00,3,1610612766,CHA,Charlotte,4-14,17,11,23,24,0,0,0,0,0,0,0,0,0,0,75,0.33,0.75,0.217,20,38,12,0021400237,1610612766,CHA,Charlotte,Noah Vonleh,,,12:00,0.0,0.0,0.0,2.0,4.0,0.0,4.0,6.0,0.0,0.0,0.0,3.0
0021400237,1610612766,CHA,Charlotte,203943,Noah Vonleh,,,12:00,101.0,85.9,15.1,0.0,0.0,0.0,0.1,0.455,0.286,0.0,0.5,0.5,0.075,96.4,0.194,2014-11-29T00:00:00,3,1610612737,ATL,Atlanta,9-6,28,36,20,21,0,0,0,0,0,0,0,0,0,0,105,0.533,0.813,0.522,31,44,12,0021400237,1610612766,CHA,Charlotte,Noah Vonleh,,,12:00,0.0,0.0,0.0,2.0,4.0,0.0,4.0,6.0,0.0,0.0,0.0,3.0
0021400237,1610612766,CHA,Charlotte,101107,Marvin Williams,,DND - Left Shoulder Strain              ,,,,,,,0.0,,,,,,,0.0,,,2014-11-29T00:00:00,3,1610612766,CHA,Charlotte,4-14,17,11,23,24,0,0,0,0,0,0,0,0,0,0,75,0.33,0.75,0.217,20,38,12,0021400237,1610612766,CHA,Charlotte,Marvin Williams,,DND - Left Shoulder Strain              ,,,,,,,,,,,,,
0021400237,1610612766,CHA,Charlotte,101107,Marvin Williams,,DND - Left Shoulder Strain              ,,,,,,,0.0,,,,,,,0.0,,,2014-11-29T00:00:00,3,1610612737,ATL,Atlanta,9-6,28,36,20,21,0,0,0,0,0,0,0,0,0,0,105,0.533,0.813,0.522,31,44,12,0021400237,1610612766,CHA,Charlotte,Marvin Williams,,DND - Left Shoulder Strain              ,,,,,,,,,,,,,
0021400237,1610612737,ATL,Atlanta,201960,DeMarre Carroll,F,,23:53,132.4,73.1,59.3,0.1,0.0,22.5,0.0,0.08,0.057,0.0,0.75,0.727,0.144,93.82,0.129,2014-11-29T00:00:00,3,1610612766,CHA,Charlotte,4-14,17,11,23,24,0,0,0,0,0,0,0,0,0,0,75,0.33,0.75,0.217,20,38,12,0021400237,1610612737,ATL,Atlanta,DeMarre Carroll,F,,23:53,0.0,0.0,0.0,4.0,6.0,6.0,2.0,12.0,0.0,0.0,0.0,3.0
0021400237,1610612737,ATL,Atlanta,201960,DeMarre Carroll,F,,23:53,132.4,73.1,59.3,0.1,0.0,22.5,0.0,0.08,0.057,0.0,0.75,0.727,0.144,93.82,0.129,2014-11-29T00:00:00,3,1610612737,ATL,Atlanta,9-6,28,36,20,21,0,0,0,0,0,0,0,0,0,0,105,0.533,0.813,0.522,31,44,12,0021400237,1610612737,ATL,Atlanta,DeMarre Carroll,F,,23:53,0.0,0.0,0.0,4.0,6.0,6.0,2.0,12.0,0.0,0.0,0.0,3.0
0021400237,1610612737,ATL,Atlanta,200794,Paul Millsap,F,,23:53,132.4,73.1,59.3,0.059,1.0,7.0,0.1,0.2,0.171,7.0,0.7,0.738,0.276,93.82,0.22,2014-11-29T00:00:00,3,1610612766,CHA,Charlotte,4-14,17,11,23,24,0,0,0,0,0,0,0,0,0,0,75,0.33,0.75,0.217,20,38,12,0021400237,1610612737,ATL,Atlanta,Paul Millsap,F,,23:53,3.0,0.0,0.0,14.0,6.0,6.0,2.0,12.0,0.0,1.0,2.0,3.0
0021400237,1610612737,ATL,Atlanta,200794,Paul Millsap,F,,23:53,132.4,73.1,59.3,0.059,1.0,7.0,0.1,0.2,0.171,7.0,0.7,0.738,0.276,93.82,0.22,2014-11-29T00:00:00,3,1610612737,ATL,Atlanta,9-6,28,36,20,21,0,0,0,0,0,0,0,0,0,0,105,0.533,0.813,0.522,31,44,12,0021400237,1610612737,ATL,Atlanta,Paul Millsap,F,,23:53,3.0,0.0,0.0,14.0,6.0,6.0,2.0,12.0,0.0,1.0,2.0,3.0
0021400237,1610612737,ATL,Atlanta,201143,Al Horford,C,,18:53,151.2,57.3,93.8,0.154,0.0,25.0,0.0,0.167,0.143,0.0,0.917,0.917,0.174,90.29,0.232,2014-11-29T00:00:00,3,1610612766,CHA,Charlotte,4-14,17,11,23,24,0,0,0,0,0,0,0,0,0,0,75,0.33,0.75,0.217,20,38,12,0021400237,1610612737,ATL,Atlanta,Al Horford,C,,18:53,0.0,0.0,2.0,8.0,6.0,6.0,2.0,10.0,2.0,0.0,1.0,0.0
0021400237,1610612737,ATL,Atlanta,201143,Al Horford,C,,18:53,151.2,57.3,93.8,0.154,0.0,25.0,0.0,0.167,0.143,0.0,0.917,0.917,0.174,90.29,0.232,2014-11-29T00:00:00,3,1610612737,ATL,Atlanta,9-6,28,36,20,21,0,0,0,0,0,0,0,0,0,0,105,0.533,0.813,0.522,31,44,12,0021400237,1610612737,ATL,Atlanta,Al Horford,C,,18:53,0.0,0.0,2.0,8.0,6.0,6.0,2.0,10.0,2.0,0.0,1.0,0.0
0021400237,1610612737,ATL,Atlanta,2594,Kyle Korver,G,,21:41,137.1,80.2,56.9,0.118,0.0,25.4,0.0,0.182,0.125,0.0,1.0,1.02,0.144,93.51,0.187,2014-11-29T00:00:00,3,1610612766,CHA,Charlotte,4-14,17,11,23,24,0,0,0,0,0,0,0,0,0,0,75,0.33,0.75,0.217,20,38,12,0021400237,1610612737,ATL,Atlanta,Kyle Korver,G,,21:41,5.0,0.0,3.0,2.0,6.0,6.0,2.0,14.0,1.0,0.0,0.0,2.0
0021400237,1610612737,ATL,Atlanta,2594,Kyle Korver,G,,21:41,137.1,80.2,56.9,0.118,0.0,25.4,0.0,0.182,0.125,0.0,1.0,1.02,0.144,93.51,0.187,2014-11-29T00:00:00,3,1610612737,ATL,Atlanta,9-6,28,36,20,21,0,0,0,0,0,0,0,0,0,0,105,0.533,0.813,0.522,31,44,12,0021400237,1610612737,ATL,Atlanta,Kyle Korver,G,,21:41,5.0,0.0,3.0,2.0,6.0,6.0,2.0,14.0,1.0,0.0,0.0,2.0
0021400237,1610612737,ATL,Atlanta,201952,Jeff Teague,G,,20:59,140.6,75.3,65.3,0.526,2.5,47.6,0.0,0.091,0.065,19.0,0.429,0.429,0.276,94.2,0.087,2014-11-29T00:00:00,3,1610612766,CHA,Charlotte,4-14,17,11,23,24,0,0,0,0,0,0,0,0,0,0,75,0.33,0.75,0.217,20,38,12,0021400237,1610612737,ATL,Atlanta,Jeff Teague,G,,20:59,0.0,0.0,0.0,0.0,6.0,6.0,2.0,12.0,1.0,0.0,2.0,0.0
0021400237,1610612737,ATL,Atlanta,201952,Jeff Teague,G,,20:59,140.6,75.3,65.3,0.526,2.5,47.6,0.0,0.091,0.065,19.0,0.429,0.429,0.276,94.2,0.087,2014-11-29T00:00:00,3,1610612737,ATL,Atlanta,9-6,28,36,20,21,0,0,0,0,0,0,0,0,0,0,105,0.533,0.813,0.522,31,44,12,0021400237,1610612737,ATL,Atlanta,Jeff Teague,G,,20:59,0.0,0.0,0.0,0.0,6.0,6.0,2.0,12.0,1.0,0.0,2.0,0.0
0021400237,1610612737,ATL,Atlanta,1882,Elton Brand,,,27:44,93.3,92.1,1.3,0.176,3.0,25.3,0.115,0.222,0.17,8.4,0.571,0.571,0.149,95.23,0.144,2014-11-29T00:00:00,3,1610612766,CHA,Charlotte,4-14,17,11,23,24,0,0,0,0,0,0,0,0,0,0,75,0.33,0.75,0.217,20,38,12,0021400237,1610612737,ATL,Atlanta,Elton Brand,,,27:44,2.0,2.0,0.0,0.0,13.0,7.0,0.0,14.0,1.0,0.0,2.0,3.0
0021400237,1610612737,ATL,Atlanta,1882,Elton Brand,,,27:44,93.3,92.1,1.3,0.176,3.0,25.3,0.115,0.222,0.17,8.4,0.571,0.571,0.149,95.23,0.144,2014-11-29T00:00:00,3,1610612737,ATL,Atlanta,9-6,28,36,20,21,0,0,0,0,0,0,0,0,0,0,105,0.533,0.813,0.522,31,44,12,0021400237,1610612737,ATL,Atlanta,Elton Brand,,,27:44,2.0,2.0,0.0,0.0,13.0,7.0,0.0,14.0,1.0,0.0,2.0,3.0
0021400237,1610612737,ATL,Atlanta,202714,Shelvin Mack,,,23:56,97.4,81.5,15.9,0.429,0.0,41.6,0.0,0.08,0.045,0.0,0.5,0.533,0.165,91.84,0.168,2014-11-29T00:00:00,3,1610612766,CHA,Charlotte,4-14,17,11,23,24,0,0,0,0,0,0,0,0,0,0,75,0.33,0.75,0.217,20,38,12,0021400237,1610612737,ATL,Atlanta,Shelvin Mack,,,23:56,0.0,3.0,0.0,2.0,13.0,7.0,0.0,10.0,0.0,0.0,1.0,0.0
0021400237,1610612737,ATL,Atlanta,202714,Shelvin Mack,,,23:56,97.4,81.5,15.9,0.429,0.0,41.6,0.0,0.08,0.045,0.0,0.5,0.533,0.165,91.84,0.168,2014-11-29T00:00:00,3,1610612737,ATL,Atlanta,9-6,28,36,20,21,0,0,0,0,0,0,0,0,0,0,105,0.533,0.813,0.522,31,44,12,0021400237,1610612737,ATL,Atlanta,Shelvin Mack,,,23:56,0.0,3.0,0.0,2.0,13.0,7.0,0.0,10.0,0.0,0.0,1.0,0.0
0021400237,1610612737,ATL,Atlanta,203471,Dennis Schroder,,,17:01,104.0,69.3,34.8,0.125,0.0,10.1,0.0,0.043,0.029,0.0,0.625,0.676,0.255,88.18,0.222,2014-11-29T00:00:00,3,1610612766,CHA,Charlotte,4-14,17,11,23,24,0,0,0,0,0,0,0,0,0,0,75,0.33,0.75,0.217,20,38,12,0021400237,1610612737,ATL,Atlanta,Dennis Schroder,,,17:01,3.0,0.0,0.0,4.0,7.0,8.0,0.0,6.0,0.0,1.0,1.0,2.0
0021400237,1610612737,ATL,Atlanta,203471,Dennis Schroder,,,17:01,104.0,69.3,34.8,0.125,0.0,10.1,0.0,0.043,0.029,0.0,0.625,0.676,0.255,88.18,0.222,2014-11-29T00:00:00,3,1610612737,ATL,Atlanta,9-6,28,36,20,21,0,0,0,0,0,0,0,0,0,0,105,0.533,0.813,0.522,31,44,12,0021400237,1610612737,ATL,Atlanta,Dennis Schroder,,,17:01,3.0,0.0,0.0,4.0,7.0,8.0,0.0,6.0,0.0,1.0,1.0,2.0
0021400237,1610612737,ATL,Atlanta,203145,Kent Bazemore,,,21:59,102.0,84.7,17.3,0.133,2.0,33.3,0.0,0.308,0.186,16.7,0.0,0.0,0.09,90.31,0.103,2014-11-29T00:00:00,3,1610612766,CHA,Charlotte,4-14,17,11,23,24,0,0,0,0,0,0,0,0,0,0,75,0.33,0.75,0.217,20,38,12,0021400237,1610612737,ATL,Atlanta,Kent Bazemore,,,21:59,0.0,0.0,0.0,0.0,11.0,10.0,0.0,10.0,0.0,1.0,2.0,1.0
0021400237,1610612737,ATL,Atlanta,203145,Kent Bazemore,,,21:59,102.0,84.7,17.3,0.133,2.0,33.3,0.0,0.308,0.186,16.7,0.0,0.0,0.09,90.31,0.103,2014-11-29T00:00:00,3,1610612737,ATL,Atlanta,9-6,28,36,20,21,0,0,0,0,0,0,0,0,0,0,105,0.533,0.813,0.522,31,44,12,0021400237,1610612737,ATL,Atlanta,Kent Bazemore,,,21:59,0.0,0.0,0.0,0.0,11.0,10.0,0.0,10.0,0.0,1.0,2.0,1.0
0021400237,1610612737,ATL,Atlanta,203118,Mike Scott,,,22:08,107.3,91.5,15.9,0.1,0.33,8.4,0.0,0.125,0.071,25.3,0.857,0.888,0.258,87.66,0.126,2014-11-29T00:00:00,3,1610612766,CHA,Charlotte,4-14,17,11,23,24,0,0,0,0,0,0,0,0,0,0,75,0.33,0.75,0.217,20,38,12,0021400237,1610612737,ATL,Atlanta,Mike Scott,,,22:08,0.0,0.0,0.0,2.0,11.0,10.0,0.0,12.0,0.0,1.0,4.0,2.0
0021400237,1610612737,ATL,Atlanta,203118,Mike Scott,,,22:08,107.3,91.5,15.9,0.1,0.33,8.4,0.0,0.125,0.071,25.3,0.857,0.888,0.258,87.66,0.126,2014-11-29T00:00:00,3,1610612737,ATL,Atlanta,9-6,28,36,20,21,0,0,0,0,0,0,0,0,0,0,105,0.533,0.813,0.522,31,44,12,0021400237,1610612737,ATL,Atlanta,Mike Scott,,,22:08,0.0,0.0,0.0,2.0,11.0,10.0,0.0,12.0,0.0,1.0,4.0,2.0
0021400237,1610612737,ATL,Atlanta,200757,Thabo Sefolosha,,,5:53,50.0,77.6,-27.6,0.333,0.0,33.3,0.0,0.143,0.083,0.0,0.0,0.0,0.167,101.55,0.0,2014-11-29T00:00:00,3,1610612766,CHA,Charlotte,4-14,17,11,23,24,0,0,0,0,0,0,0,0,0,0,75,0.33,0.75,0.217,20,38,12,0021400237,1610612737,ATL,Atlanta,Thabo Sefolosha,,,5:53,0.0,0.0,0.0,0.0,4.0,3.0,0.0,2.0,0.0,0.0,0.0,0.0
0021400237,1610612737,ATL,Atlanta,200757,Thabo Sefolosha,,,5:53,50.0,77.6,-27.6,0.333,0.0,33.3,0.0,0.143,0.083,0.0,0.0,0.0,0.167,101.55,0.0,2014-11-29T00:00:00,3,1610612737,ATL,Atlanta,9-6,28,36,20,21,0,0,0,0,0,0,0,0,0,0,105,0.533,0.813,0.522,31,44,12,0021400237,1610612737,ATL,Atlanta,Thabo Sefolosha,,,5:53,0.0,0.0,0.0,0.0,4.0,3.0,0.0,2.0,0.0,0.0,0.0,0.0
0021400237,1610612737,ATL,Atlanta,203488,Mike Muscala,,,12:00,85.9,101.0,-15.1,0.0,0.0,0.0,0.091,0.1,0.095,25.0,0.333,0.333,0.314,96.4,-0.015,2014-11-29T00:00:00,3,1610612766,CHA,Charlotte,4-14,17,11,23,24,0,0,0,0,0,0,0,0,0,0,75,0.33,0.75,0.217,20,38,12,0021400237,1610612737,ATL,Atlanta,Mike Muscala,,,12:00,2.0,0.0,4.0,4.0,6.0,5.0,0.0,6.0,0.0,0.0,2.0,0.0
0021400237,1610612737,ATL,Atlanta,203488,Mike Muscala,,,12:00,85.9,101.0,-15.1,0.0,0.0,0.0,0.091,0.1,0.095,25.0,0.333,0.333,0.314,96.4,-0.015,2014-11-29T00:00:00,3,1610612737,ATL,Atlanta,9-6,28,36,20,21,0,0,0,0,0,0,0,0,0,0,105,0.533,0.813,0.522,31,44,12,0021400237,1610612737,ATL,Atlanta,Mike Muscala,,,12:00,2.0,0.0,4.0,4.0,6.0,5.0,0.0,6.0,0.0,0.0,2.0,0.0
0021400237,1610612737,ATL,Atlanta,203544,Pero Antic,,DNP - Coach's Decision                  ,,,,,,,0.0,,,,,,,0.0,,,2014-11-29T00:00:00,3,1610612766,CHA,Charlotte,4-14,17,11,23,24,0,0,0,0,0,0,0,0,0,0,75,0.33,0.75,0.217,20,38,12,0021400237,1610612737,ATL,Atlanta,Pero Antic,,DNP - Coach's Decision                  ,,,,,,,,,,,,,
0021400237,1610612737,ATL,Atlanta,203544,Pero Antic,,DNP - Coach's Decision                  ,,,,,,,0.0,,,,,,,0.0,,,2014-11-29T00:00:00,3,1610612737,ATL,Atlanta,9-6,28,36,20,21,0,0,0,0,0,0,0,0,0,0,105,0.533,0.813,0.522,31,44,12,0021400237,1610612737,ATL,Atlanta,Pero Antic,,DNP - Coach's Decision                  ,,,,,,,,,,,,,
