GAME_ID_x,TEAM_ID_x,TEAM_ABBREVIATION_x,TEAM_CITY_x,PLAYER_ID,PLAYER_NAME_x,START_POSITION_x,COMMENT_x,MIN_x,OFF_RATING,DEF_RATING,NET_RATING,AST_PCT,AST_TOV,AST_RATIO,OREB_PCT,DREB_PCT,REB_PCT,TM_TOV_PCT,EFG_PCT,TS_PCT,USG_PCT,PACE,PIE,GAME_DATE_EST,GAME_SEQUENCE,TEAM_ID_y,TEAM_ABBREVIATION_y,TEAM_CITY_NAME,TEAM_WINS_LOSSES,PTS_QTR1,PTS_QTR2,PTS_QTR3,PTS_QTR4,PTS_OT1,PTS_OT2,PTS_OT3,PTS_OT4,PTS_OT5,PTS_OT6,PTS_OT7,PTS_OT8,PTS_OT9,PTS_OT10,PTS,FG_PCT,FT_PCT,FG3_PCT,AST,REB,TOV,GAME_ID_y,TEAM_ID,TEAM_ABBREVIATION,TEAM_CITY_y,PLAYER_NAME_y,START_POSITION_y,COMMENT_y,MIN_y,PTS_OFF_TOV,PTS_2ND_CHANCE,PTS_FB,PTS_PAINT,OPP_PTS_OFF_TOV,OPP_PTS_2ND_CHANCE,OPP_PTS_FB,OPP_PTS_PAINT,BLK,BLKA,PF,PFD
0021400248,1610612761,TOR,Toronto,203082,Terrence Ross,F,,38:01,110.2,121.1,-10.9,0.034,1.0,7.1,0.026,0.103,0.065,7.1,0.833,0.833,0.142,102.23,0.1,2014-11-30T00:00:00,8,1610612761,TOR,Toronto,13-4,24,25,31,29,13,0,0,0,0,0,0,0,0,0,122,0.433,0.742,0.265,25,53,8,0021400248,1610612761,TOR,Toronto,Terrence Ross,F,,38:01,2.0,3.0,0.0,6.0,6.0,13.0,7.0,26.0,0.0,0.0,3.0,0.0
0021400248,1610612761,TOR,Toronto,203082,Terrence Ross,F,,38:01,110.2,121.1,-10.9,0.034,1.0,7.1,0.026,0.103,0.065,7.1,0.833,0.833,0.142,102.23,0.1,2014-11-30T00:00:00,8,1610612747,LAL,Los Angeles,4-13,27,31,23,28,20,0,0,0,0,0,0,0,0,0,129,0.49,0.735,0.417,24,54,10,0021400248,1610612761,TOR,Toronto,Terrence Ross,F,,38:01,2.0,3.0,0.0,6.0,6.0,13.0,7.0,26.0,0.0,0.0,3.0,0.0
0021400248,1610612761,TOR,Toronto,101161,Amir Johnson,F,,22:20,106.5,117.1,-10.6,0.211,4.0,40.0,0.045,0.115,0.083,10.0,0.6,0.6,0.125,96.16,0.075,2014-11-30T00:00:00,8,1610612761,TOR,Toronto,13-4,24,25,31,29,13,0,0,0,0,0,0,0,0,0,122,0.433,0.742,0.265,25,53,8,0021400248,1610612761,TOR,Toronto,Amir Johnson,F,,22:20,0.0,2.0,0.0,6.0,2.0,13.0,0.0,20.0,2.0,0.0,4.0,2.0
0021400248,1610612761,TOR,Toronto,101161,Amir Johnson,F,,22:20,106.5,117.1,-10.6,0.211,4.0,40.0,0.045,0.115,0.083,10.0,0.6,0.6,0.125,96.16,0.075,2014-11-30T00:00:00,8,1610612747,LAL,Los Angeles,4-13,27,31,23,28,20,0,0,0,0,0,0,0,0,0,129,0.49,0.735,0.417,24,54,10,0021400248,1610612761,TOR,Toronto,Amir Johnson,F,,22:20,0.0,2.0,0.0,6.0,2.0,13.0,0.0,20.0,2.0,0.0,4.0,2.0
0021400248,1610612761,TOR,Toronto,202685,Jonas Valanciunas,C,,33:21,103.9,115.8,-11.9,0.043,1.0,7.8,0.061,0.324,0.194,7.8,0.4,0.414,0.162,96.31,0.107,2014-11-30T00:00:00,8,1610612761,TOR,Toronto,13-4,24,25,31,29,13,0,0,0,0,0,0,0,0,0,122,0.433,0.742,0.265,25,53,8,0021400248,1610612761,TOR,Toronto,Jonas Valanciunas,C,,33:21,0.0,5.0,0.0,8.0,6.0,13.0,6.0,24.0,3.0,1.0,1.0,2.0
0021400248,1610612761,TOR,Toronto,202685,Jonas Valanciunas,C,,33:21,103.9,115.8,-11.9,0.043,1.0,7.8,0.061,0.324,0.194,7.8,0.4,0.414,0.162,96.31,0.107,2014-11-30T00:00:00,8,1610612747,LAL,Los Angeles,4-13,27,31,23,28,20,0,0,0,0,0,0,0,0,0,129,0.49,0.735,0.417,24,54,10,0021400248,1610612761,TOR,Toronto,Jonas Valanciunas,C,,33:21,0.0,5.0,0.0,8.0,6.0,13.0,6.0,24.0,3.0,1.0,1.0,2.0
0021400248,1610612761,TOR,Toronto,202349,Greivis Vasquez,G,,33:55,111.5,127.4,-15.9,0.2,0.0,22.0,0.0,0.0,0.0,0.0,0.531,0.535,0.206,103.88,0.09,2014-11-30T00:00:00,8,1610612761,TOR,Toronto,13-4,24,25,31,29,13,0,0,0,0,0,0,0,0,0,122,0.433,0.742,0.265,25,53,8,0021400248,1610612761,TOR,Toronto,Greivis Vasquez,G,,33:55,0.0,0.0,4.0,10.0,4.0,11.0,11.0,24.0,0.0,0.0,1.0,3.0
0021400248,1610612761,TOR,Toronto,202349,Greivis Vasquez,G,,33:55,111.5,127.4,-15.9,0.2,0.0,22.0,0.0,0.0,0.0,0.0,0.531,0.535,0.206,103.88,0.09,2014-11-30T00:00:00,8,1610612747,LAL,Los Angeles,4-13,27,31,23,28,20,0,0,0,0,0,0,0,0,0,129,0.49,0.735,0.417,24,54,10,0021400248,1610612761,TOR,Toronto,Greivis Vasquez,G,,33:55,0.0,0.0,4.0,10.0,4.0,11.0,11.0,24.0,0.0,0.0,1.0,3.0
0021400248,1610612761,TOR,Toronto,200768,Kyle Lowry,G,,41:23,105.0,117.0,-12.0,0.36,4.5,20.3,0.043,0.095,0.068,4.5,0.375,0.436,0.358,100.9,0.093,2014-11-30T00:00:00,8,1610612761,TOR,Toronto,13-4,24,25,31,29,13,0,0,0,0,0,0,0,0,0,122,0.433,0.742,0.265,25,53,8,0021400248,1610612761,TOR,Toronto,Kyle Lowry,G,,41:23,2.0,4.0,4.0,12.0,9.0,16.0,9.0,32.0,0.0,4.0,6.0,8.0
0021400248,1610612761,TOR,Toronto,200768,Kyle Lowry,G,,41:23,105.0,117.0,-12.0,0.36,4.5,20.3,0.043,0.095,0.068,4.5,0.375,0.436,0.358,100.9,0.093,2014-11-30T00:00:00,8,1610612747,LAL,Los Angeles,4-13,27,31,23,28,20,0,0,0,0,0,0,0,0,0,129,0.49,0.735,0.417,24,54,10,0021400248,1610612761,TOR,Toronto,Kyle Lowry,G,,41:23,2.0,4.0,4.0,12.0,9.0,16.0,9.0,32.0,0.0,4.0,6.0,8.0
0021400248,1610612761,TOR,Toronto,101150,Lou Williams,,,25:52,124.1,118.4,5.7,0.059,1.0,4.5,0.0,0.083,0.04,4.5,0.382,0.473,0.33,99.43,0.067,2014-11-30T00:00:00,8,1610612761,TOR,Toronto,13-4,24,25,31,29,13,0,0,0,0,0,0,0,0,0,122,0.433,0.742,0.265,25,53,8,0021400248,1610612761,TOR,Toronto,Lou Williams,,,25:52,3.0,2.0,0.0,2.0,5.0,5.0,5.0,12.0,0.0,1.0,2.0,3.0
0021400248,1610612761,TOR,Toronto,101150,Lou Williams,,,25:52,124.1,118.4,5.7,0.059,1.0,4.5,0.0,0.083,0.04,4.5,0.382,0.473,0.33,99.43,0.067,2014-11-30T00:00:00,8,1610612747,LAL,Los Angeles,4-13,27,31,23,28,20,0,0,0,0,0,0,0,0,0,129,0.49,0.735,0.417,24,54,10,0021400248,1610612761,TOR,Toronto,Lou Williams,,,25:52,3.0,2.0,0.0,2.0,5.0,5.0,5.0,12.0,0.0,1.0,2.0,3.0
0021400248,1610612761,TOR,Toronto,202335,Patrick Patterson,,,33:34,111.6,117.6,-6.0,0.13,0.0,23.5,0.132,0.296,0.2,0.0,0.375,0.512,0.115,102.33,0.134,2014-11-30T00:00:00,8,1610612761,TOR,Toronto,13-4,24,25,31,29,13,0,0,0,0,0,0,0,0,0,122,0.433,0.742,0.265,25,53,8,0021400248,1610612761,TOR,Toronto,Patrick Patterson,,,33:34,2.0,4.0,0.0,6.0,7.0,3.0,11.0,16.0,1.0,0.0,1.0,2.0
0021400248,1610612761,TOR,Toronto,202335,Patrick Patterson,,,33:34,111.6,117.6,-6.0,0.13,0.0,23.5,0.132,0.296,0.2,0.0,0.375,0.512,0.115,102.33,0.134,2014-11-30T00:00:00,8,1610612747,LAL,Los Angeles,4-13,27,31,23,28,20,0,0,0,0,0,0,0,0,0,129,0.49,0.735,0.417,24,54,10,0021400248,1610612761,TOR,Toronto,Patrick Patterson,,,33:34,2.0,4.0,0.0,6.0,7.0,3.0,11.0,16.0,1.0,0.0,1.0,2.0
0021400248,1610612761,TOR,Toronto,201949,James Johnson,,,21:49,99.9,107.3,-7.4,0.0,0.0,0.0,0.038,0.158,0.089,14.5,0.6,0.68,0.143,94.32,0.038,2014-11-30T00:00:00,8,1610612761,TOR,Toronto,13-4,24,25,31,29,13,0,0,0,0,0,0,0,0,0,122,0.433,0.742,0.265,25,53,8,0021400248,1610612761,TOR,Toronto,James Johnson,,,21:49,2.0,2.0,0.0,6.0,3.0,3.0,4.0,10.0,0.0,0.0,6.0,1.0
0021400248,1610612761,TOR,Toronto,201949,James Johnson,,,21:49,99.9,107.3,-7.4,0.0,0.0,0.0,0.038,0.158,0.089,14.5,0.6,0.68,0.143,94.32,0.038,2014-11-30T00:00:00,8,1610612747,LAL,Los Angeles,4-13,27,31,23,28,20,0,0,0,0,0,0,0,0,0,129,0.49,0.735,0.417,24,54,10,0021400248,1610612761,TOR,Toronto,James Johnson,,,21:49,2.0,2.0,0.0,6.0,3.0,3.0,4.0,10.0,0.0,0.0,6.0,1.0
0021400248,1610612761,TOR,Toronto,101236,Chuck Hayes,,,5:20,83.6,132.5,-48.9,0.0,0.0,0.0,0.167,1.0,0.286,0.0,0.5,0.5,0.157,99.36,0.103,2014-11-30T00:00:00,8,1610612761,TOR,Toronto,13-4,24,25,31,29,13,0,0,0,0,0,0,0,0,0,122,0.433,0.742,0.265,25,53,8,0021400248,1610612761,TOR,Toronto,Chuck Hayes,,,5:20,0.0,2.0,0.0,2.0,3.0,0.0,2.0,0.0,0.0,1.0,1.0,0.0
0021400248,1610612761,TOR,Toronto,101236,Chuck Hayes,,,5:20,83.6,132.5,-48.9,0.0,0.0,0.0,0.167,1.0,0.286,0.0,0.5,0.5,0.157,99.36,0.103,2014-11-30T00:00:00,8,1610612747,LAL,Los Angeles,4-13,27,31,23,28,20,0,0,0,0,0,0,0,0,0,129,0.49,0.735,0.417,24,54,10,0021400248,1610612761,TOR,Toronto,Chuck Hayes,,,5:20,0.0,2.0,0.0,2.0,3.0,0.0,2.0,0.0,0.0,1.0,1.0,0.0
0021400248,1610612761,TOR,Toronto,201946,Tyler Hansbrough,,,9:22,131.9,112.0,19.9,0.125,1.0,33.3,0.143,0.273,0.222,33.3,0.0,0.0,0.099,96.96,0.013,2014-11-30T00:00:00,8,1610612761,TOR,Toronto,13-4,24,25,31,29,13,0,0,0,0,0,0,0,0,0,122,0.433,0.742,0.265,25,53,8,0021400248,1610612761,TOR,Toronto,Tyler Hansbrough,,,9:22,0.0,0.0,0.0,0.0,0.0,3.0,0.0,6.0,0.0,0.0,3.0,0.0
0021400248,1610612761,TOR,Toronto,201946,Tyler Hansbrough,,,9:22,131.9,112.0,19.9,0.125,1.0,33.3,0.143,0.273,0.222,33.3,0.0,0.0,0.099,96.96,0.013,2014-11-30T00:00:00,8,1610612747,LAL,Los Angeles,4-13,27,31,23,28,20,0,0,0,0,0,0,0,0,0,129,0.49,0.735,0.417,24,54,10,0021400248,1610612761,TOR,Toronto,Tyler Hansbrough,,,9:22,0.0,0.0,0.0,0.0,0.0,3.0,0.0,6.0,0.0,0.0,3.0,0.0
0021400248,1610612761,TOR,Toronto,202361,Landry Fields,,,0:03,0.0,0.0,0.0,0.0,0.0,0.0,0.0,0.0,0.0,0.0,0.0,0.0,0.0,514.29,0.0,2014-11-30T00:00:00,8,1610612761,TOR,Toronto,13-4,24,25,31,29,13,0,0,0,0,0,0,0,0,0,122,0.433,0.742,0.265,25,53,8,0021400248,1610612761,TOR,Toronto,Landry Fields,,,0:03,0.0,0.0,0.0,0.0,0.0,0.0,0.0,0.0,0.0,0.0,0.0,0.0
0021400248,1610612761,TOR,Toronto,202361,Landry Fields,,,0:03,0.0,0.0,0.0,0.0,0.0,0.0,0.0,0.0,0.0,0.0,0.0,0.0,0.0,514.29,0.0,2014-11-30T00:00:00,8,1610612747,LAL,Los Angeles,4-13,27,31,23,28,20,0,0,0,0,0,0,0,0,0,129,0.49,0.735,0.417,24,54,10,0021400248,1610612761,TOR,Toronto,Landry Fields,,,0:03,0.0,0.0,0.0,0.0,0.0,0.0,0.0,0.0,0.0,0.0,0.0,0.0
0021400248,1610612761,TOR,Toronto,203512,Lucas Nogueira,,DNP - Coach's Decision                  ,,,,,,,0.0,,,,,,,0.0,,,2014-11-30T00:00:00,8,1610612761,TOR,Toronto,13-4,24,25,31,29,13,0,0,0,0,0,0,0,0,0,122,0.433,0.742,0.265,25,53,8,0021400248,1610612761,TOR,Toronto,Lucas Nogueira,,DNP - Coach's Decision                  ,,,,,,,,,,,,,
0021400248,1610612761,TOR,Toronto,203512,Lucas Nogueira,,DNP - Coach's Decision                  ,,,,,,,0.0,,,,,,,0.0,,,2014-11-30T00:00:00,8,1610612747,LAL,Los Angeles,4-13,27,31,23,28,20,0,0,0,0,0,0,0,0,0,129,0.49,0.735,0.417,24,54,10,0021400248,1610612761,TOR,Toronto,Lucas Nogueira,,DNP - Coach's Decision                  ,,,,,,,,,,,,,
0021400248,1610612761,TOR,Toronto,201880,Greg Stiemsma,,DNP - Coach's Decision                  ,,,,,,,0.0,,,,,,,0.0,,,2014-11-30T00:00:00,8,1610612761,TOR,Toronto,13-4,24,25,31,29,13,0,0,0,0,0,0,0,0,0,122,0.433,0.742,0.265,25,53,8,0021400248,1610612761,TOR,Toronto,Greg Stiemsma,,DNP - Coach's Decision                  ,,,,,,,,,,,,,
0021400248,1610612761,TOR,Toronto,201880,Greg Stiemsma,,DNP - Coach's Decision                  ,,,,,,,0.0,,,,,,,0.0,,,2014-11-30T00:00:00,8,1610612747,LAL,Los Angeles,4-13,27,31,23,28,20,0,0,0,0,0,0,0,0,0,129,0.49,0.735,0.417,24,54,10,0021400248,1610612761,TOR,Toronto,Greg Stiemsma,,DNP - Coach's Decision                  ,,,,,,,,,,,,,
0021400248,1610612747,LAL,Los Angeles,202325,Wesley Johnson,F,,27:24,118.9,98.3,20.6,0.048,0.0,7.8,0.0,0.061,0.031,0.0,0.5,0.547,0.183,104.31,0.071,2014-11-30T00:00:00,8,1610612761,TOR,Toronto,13-4,24,25,31,29,13,0,0,0,0,0,0,0,0,0,122,0.433,0.742,0.265,25,53,8,0021400248,1610612747,LAL,Los Angeles,Wesley Johnson,F,,27:24,2.0,0.0,2.0,4.0,2.0,9.0,6.0,30.0,1.0,0.0,3.0,1.0
0021400248,1610612747,LAL,Los Angeles,202325,Wesley Johnson,F,,27:24,118.9,98.3,20.6,0.048,0.0,7.8,0.0,0.061,0.031,0.0,0.5,0.547,0.183,104.31,0.071,2014-11-30T00:00:00,8,1610612747,LAL,Los Angeles,4-13,27,31,23,28,20,0,0,0,0,0,0,0,0,0,129,0.49,0.735,0.417,24,54,10,0021400248,1610612747,LAL,Los Angeles,Wesley Johnson,F,,27:24,2.0,0.0,2.0,4.0,2.0,9.0,6.0,30.0,1.0,0.0,3.0,1.0
0021400248,1610612747,LAL,Los Angeles,2430,Carlos Boozer,F,,29:38,112.8,95.8,17.1,0.105,1.0,10.5,0.065,0.212,0.141,10.5,0.6,0.6,0.239,100.13,0.158,2014-11-30T00:00:00,8,1610612761,TOR,Toronto,13-4,24,25,31,29,13,0,0,0,0,0,0,0,0,0,122,0.433,0.742,0.265,25,53,8,0021400248,1610612747,LAL,Los Angeles,Carlos Boozer,F,,29:38,4.0,6.0,2.0,10.0,6.0,9.0,6.0,28.0,0.0,0.0,2.0,1.0
0021400248,1610612747,LAL,Los Angeles,2430,Carlos Boozer,F,,29:38,112.8,95.8,17.1,0.105,1.0,10.5,0.065,0.212,0.141,10.5,0.6,0.6,0.239,100.13,0.158,2014-11-30T00:00:00,8,1610612747,LAL,Los Angeles,4-13,27,31,23,28,20,0,0,0,0,0,0,0,0,0,129,0.49,0.735,0.417,24,54,10,0021400248,1610612747,LAL,Los Angeles,Carlos Boozer,F,,29:38,4.0,6.0,2.0,10.0,6.0,9.0,6.0,28.0,0.0,0.0,2.0,1.0
0021400248,1610612747,LAL,Los Angeles,201941,Jordan Hill,C,,34:10,116.7,111.3,5.4,0.04,0.0,7.0,0.135,0.184,0.16,0.0,0.545,0.606,0.167,102.33,0.128,2014-11-30T00:00:00,8,1610612761,TOR,Toronto,13-4,24,25,31,29,13,0,0,0,0,0,0,0,0,0,122,0.433,0.742,0.265,25,53,8,0021400248,1610612747,LAL,Los Angeles,Jordan Hill,C,,34:10,0.0,3.0,0.0,8.0,6.0,14.0,8.0,38.0,3.0,0.0,3.0,3.0
0021400248,1610612747,LAL,Los Angeles,201941,Jordan Hill,C,,34:10,116.7,111.3,5.4,0.04,0.0,7.0,0.135,0.184,0.16,0.0,0.545,0.606,0.167,102.33,0.128,2014-11-30T00:00:00,8,1610612747,LAL,Los Angeles,4-13,27,31,23,28,20,0,0,0,0,0,0,0,0,0,129,0.49,0.735,0.417,24,54,10,0021400248,1610612747,LAL,Los Angeles,Jordan Hill,C,,34:10,0.0,3.0,0.0,8.0,6.0,14.0,8.0,38.0,3.0,0.0,3.0,3.0
0021400248,1610612747,LAL,Los Angeles,977,Kobe Bryant,G,,41:36,117.2,110.7,6.5,0.462,6.0,27.4,0.024,0.222,0.126,4.6,0.458,0.522,0.336,100.33,0.182,2014-11-30T00:00:00,8,1610612761,TOR,Toronto,13-4,24,25,31,29,13,0,0,0,0,0,0,0,0,0,122,0.433,0.742,0.265,25,53,8,0021400248,1610612747,LAL,Los Angeles,Kobe Bryant,G,,41:36,0.0,3.0,2.0,6.0,6.0,18.0,8.0,50.0,1.0,3.0,2.0,11.0
0021400248,1610612747,LAL,Los Angeles,977,Kobe Bryant,G,,41:36,117.2,110.7,6.5,0.462,6.0,27.4,0.024,0.222,0.126,4.6,0.458,0.522,0.336,100.33,0.182,2014-11-30T00:00:00,8,1610612747,LAL,Los Angeles,4-13,27,31,23,28,20,0,0,0,0,0,0,0,0,0,129,0.49,0.735,0.417,24,54,10,0021400248,1610612747,LAL,Los Angeles,Kobe Bryant,G,,41:36,0.0,3.0,2.0,6.0,6.0,18.0,8.0,50.0,1.0,3.0,2.0,11.0
0021400248,1610612747,LAL,Los Angeles,202391,Jeremy Lin,G,,34:43,112.0,108.4,3.6,0.107,0.0,19.0,0.0,0.073,0.038,0.0,0.318,0.431,0.155,104.16,0.047,2014-11-30T00:00:00,8,1610612761,TOR,Toronto,13-4,24,25,31,29,13,0,0,0,0,0,0,0,0,0,122,0.433,0.742,0.265,25,53,8,0021400248,1610612747,LAL,Los Angeles,Jeremy Lin,G,,34:43,0.0,0.0,2.0,2.0,6.0,14.0,8.0,38.0,0.0,2.0,4.0,4.0
0021400248,1610612747,LAL,Los Angeles,202391,Jeremy Lin,G,,34:43,112.0,108.4,3.6,0.107,0.0,19.0,0.0,0.073,0.038,0.0,0.318,0.431,0.155,104.16,0.047,2014-11-30T00:00:00,8,1610612747,LAL,Los Angeles,4-13,27,31,23,28,20,0,0,0,0,0,0,0,0,0,129,0.49,0.735,0.417,24,54,10,0021400248,1610612747,LAL,Los Angeles,Jeremy Lin,G,,34:43,0.0,0.0,2.0,2.0,6.0,14.0,8.0,38.0,0.0,2.0,4.0,4.0
0021400248,1610612747,LAL,Los Angeles,201156,Nick Young,,,31:16,123.5,115.3,8.3,0.0,0.0,0.0,0.0,0.118,0.067,23.3,0.773,0.758,0.247,100.98,0.088,2014-11-30T00:00:00,8,1610612761,TOR,Toronto,13-4,24,25,31,29,13,0,0,0,0,0,0,0,0,0,122,0.433,0.742,0.265,25,53,8,0021400248,1610612747,LAL,Los Angeles,Nick Young,,,31:16,0.0,0.0,3.0,0.0,9.0,18.0,4.0,34.0,0.0,0.0,2.0,2.0
0021400248,1610612747,LAL,Los Angeles,201156,Nick Young,,,31:16,123.5,115.3,8.3,0.0,0.0,0.0,0.0,0.118,0.067,23.3,0.773,0.758,0.247,100.98,0.088,2014-11-30T00:00:00,8,1610612747,LAL,Los Angeles,4-13,27,31,23,28,20,0,0,0,0,0,0,0,0,0,129,0.49,0.735,0.417,24,54,10,0021400248,1610612747,LAL,Los Angeles,Nick Young,,,31:16,0.0,0.0,3.0,0.0,9.0,18.0,4.0,34.0,0.0,0.0,2.0,2.0
0021400248,1610612747,LAL,Los Angeles,202334,Ed Davis,,,17:42,117.9,141.8,-23.9,0.0,0.0,0.0,0.071,0.417,0.231,0.0,0.0,0.568,0.024,90.74,0.058,2014-11-30T00:00:00,8,1610612761,TOR,Toronto,13-4,24,25,31,29,13,0,0,0,0,0,0,0,0,0,122,0.433,0.742,0.265,25,53,8,0021400248,1610612747,LAL,Los Angeles,Ed Davis,,,17:42,0.0,1.0,0.0,0.0,5.0,12.0,0.0,24.0,0.0,0.0,1.0,1.0
0021400248,1610612747,LAL,Los Angeles,202334,Ed Davis,,,17:42,117.9,141.8,-23.9,0.0,0.0,0.0,0.071,0.417,0.231,0.0,0.0,0.568,0.024,90.74,0.058,2014-11-30T00:00:00,8,1610612747,LAL,Los Angeles,4-13,27,31,23,28,20,0,0,0,0,0,0,0,0,0,129,0.49,0.735,0.417,24,54,10,0021400248,1610612747,LAL,Los Angeles,Ed Davis,,,17:42,0.0,1.0,0.0,0.0,5.0,12.0,0.0,24.0,0.0,0.0,1.0,1.0
0021400248,1610612747,LAL,Los Angeles,203135,Robert Sacre,,,18:50,121.6,105.2,16.4,0.0,0.0,0.0,0.214,0.167,0.188,15.8,0.5,0.564,0.151,95.47,0.107,2014-11-30T00:00:00,8,1610612761,TOR,Toronto,13-4,24,25,31,29,13,0,0,0,0,0,0,0,0,0,122,0.433,0.742,0.265,25,53,8,0021400248,1610612747,LAL,Los Angeles,Robert Sacre,,,18:50,0.0,3.0,0.0,4.0,5.0,10.0,0.0,20.0,2.0,1.0,0.0,3.0
0021400248,1610612747,LAL,Los Angeles,203135,Robert Sacre,,,18:50,121.6,105.2,16.4,0.0,0.0,0.0,0.214,0.167,0.188,15.8,0.5,0.564,0.151,95.47,0.107,2014-11-30T00:00:00,8,1610612747,LAL,Los Angeles,4-13,27,31,23,28,20,0,0,0,0,0,0,0,0,0,129,0.49,0.735,0.417,24,54,10,0021400248,1610612747,LAL,Los Angeles,Robert Sacre,,,18:50,0.0,3.0,0.0,4.0,5.0,10.0,0.0,20.0,2.0,1.0,0.0,3.0
0021400248,1610612747,LAL,Los Angeles,101179,Ronnie Price,,,18:17,132.0,111.2,20.9,0.267,4.0,57.1,0.0,0.0,0.0,14.3,0.75,0.75,0.077,91.79,0.044,2014-11-30T00:00:00,8,1610612761,TOR,Toronto,13-4,24,25,31,29,13,0,0,0,0,0,0,0,0,0,122,0.433,0.742,0.265,25,53,8,0021400248,1610612747,LAL,Los Angeles,Ronnie Price,,,18:17,0.0,0.0,0.0,0.0,5.0,10.0,0.0,20.0,0.0,0.0,3.0,2.0
0021400248,1610612747,LAL,Los Angeles,101179,Ronnie Price,,,18:17,132.0,111.2,20.9,0.267,4.0,57.1,0.0,0.0,0.0,14.3,0.75,0.75,0.077,91.79,0.044,2014-11-30T00:00:00,8,1610612747,LAL,Los Angeles,4-13,27,31,23,28,20,0,0,0,0,0,0,0,0,0,129,0.49,0.735,0.417,24,54,10,0021400248,1610612747,LAL,Los Angeles,Ronnie Price,,,18:17,0.0,0.0,0.0,0.0,5.0,10.0,0.0,20.0,0.0,0.0,3.0,2.0
0021400248,1610612747,LAL,Los Angeles,201961,Wayne Ellington,,,11:24,122.7,104.0,18.7,0.167,0.0,12.5,0.0,0.091,0.05,0.0,0.714,0.714,0.263,98.31,0.213,2014-11-30T00:00:00,8,1610612761,TOR,Toronto,13-4,24,25,31,29,13,0,0,0,0,0,0,0,0,0,122,0.433,0.742,0.265,25,53,8,0021400248,1610612747,LAL,Los Angeles,Wayne Ellington,,,11:24,3.0,0.0,0.0,0.0,5.0,6.0,0.0,8.0,0.0,0.0,1.0,0.0
0021400248,1610612747,LAL,Los Angeles,201961,Wayne Ellington,,,11:24,122.7,104.0,18.7,0.167,0.0,12.5,0.0,0.091,0.05,0.0,0.714,0.714,0.263,98.31,0.213,2014-11-30T00:00:00,8,1610612747,LAL,Los Angeles,4-13,27,31,23,28,20,0,0,0,0,0,0,0,0,0,129,0.49,0.735,0.417,24,54,10,0021400248,1610612747,LAL,Los Angeles,Wayne Ellington,,,11:24,3.0,0.0,0.0,0.0,5.0,6.0,0.0,8.0,0.0,0.0,1.0,0.0
0021400248,1610612747,LAL,Los Angeles,203903,Jordan Clarkson,,DNP - Coach's Decision                  ,,,,,,,0.0,,,,,,,0.0,,,2014-11-30T00:00:00,8,1610612761,TOR,Toronto,13-4,24,25,31,29,13,0,0,0,0,0,0,0,0,0,122,0.433,0.742,0.265,25,53,8,0021400248,1610612747,LAL,Los Angeles,Jordan Clarkson,,DNP - Coach's Decision                  ,,,,,,,,,,,,,
0021400248,1610612747,LAL,Los Angeles,203903,Jordan Clarkson,,DNP - Coach's Decision                  ,,,,,,,0.0,,,,,,,0.0,,,2014-11-30T00:00:00,8,1610612747,LAL,Los Angeles,4-13,27,31,23,28,20,0,0,0,0,0,0,0,0,0,129,0.49,0.735,0.417,24,54,10,0021400248,1610612747,LAL,Los Angeles,Jordan Clarkson,,DNP - Coach's Decision                  ,,,,,,,,,,,,,
0021400248,1610612747,LAL,Los Angeles,202333,Xavier Henry,,DND - Ruptured left Achilles tendon     ,,,,,,,0.0,,,,,,,0.0,,,2014-11-30T00:00:00,8,1610612761,TOR,Toronto,13-4,24,25,31,29,13,0,0,0,0,0,0,0,0,0,122,0.433,0.742,0.265,25,53,8,0021400248,1610612747,LAL,Los Angeles,Xavier Henry,,DND - Ruptured left Achilles tendon     ,,,,,,,,,,,,,
0021400248,1610612747,LAL,Los Angeles,202333,Xavier Henry,,DND - Ruptured left Achilles tendon     ,,,,,,,0.0,,,,,,,0.0,,,2014-11-30T00:00:00,8,1610612747,LAL,Los Angeles,4-13,27,31,23,28,20,0,0,0,0,0,0,0,0,0,129,0.49,0.735,0.417,24,54,10,0021400248,1610612747,LAL,Los Angeles,Xavier Henry,,DND - Ruptured left Achilles tendon     ,,,,,,,,,,,,,
0021400248,1610612747,LAL,Los Angeles,203527,Ryan Kelly,,DND - Torn right hamstring              ,,,,,,,0.0,,,,,,,0.0,,,2014-11-30T00:00:00,8,1610612761,TOR,Toronto,13-4,24,25,31,29,13,0,0,0,0,0,0,0,0,0,122,0.433,0.742,0.265,25,53,8,0021400248,1610612747,LAL,Los Angeles,Ryan Kelly,,DND - Torn right hamstring              ,,,,,,,,,,,,,
0021400248,1610612747,LAL,Los Angeles,203527,Ryan Kelly,,DND - Torn right hamstring              ,,,,,,,0.0,,,,,,,0.0,,,2014-11-30T00:00:00,8,1610612747,LAL,Los Angeles,4-13,27,31,23,28,20,0,0,0,0,0,0,0,0,0,129,0.49,0.735,0.417,24,54,10,0021400248,1610612747,LAL,Los Angeles,Ryan Kelly,,DND - Torn right hamstring              ,,,,,,,,,,,,,
