GAME_ID_x,TEAM_ID_x,TEAM_ABBREVIATION_x,TEAM_CITY_x,PLAYER_ID,PLAYER_NAME_x,START_POSITION_x,COMMENT_x,MIN_x,OFF_RATING,DEF_RATING,NET_RATING,AST_PCT,AST_TOV,AST_RATIO,OREB_PCT,DREB_PCT,REB_PCT,TM_TOV_PCT,EFG_PCT,TS_PCT,USG_PCT,PACE,PIE,GAME_DATE_EST,GAME_SEQUENCE,TEAM_ID_y,TEAM_ABBREVIATION_y,TEAM_CITY_NAME,TEAM_WINS_LOSSES,PTS_QTR1,PTS_QTR2,PTS_QTR3,PTS_QTR4,PTS_OT1,PTS_OT2,PTS_OT3,PTS_OT4,PTS_OT5,PTS_OT6,PTS_OT7,PTS_OT8,PTS_OT9,PTS_OT10,PTS,FG_PCT,FT_PCT,FG3_PCT,AST,REB,TOV,GAME_ID_y,TEAM_ID,TEAM_ABBREVIATION,TEAM_CITY_y,PLAYER_NAME_y,START_POSITION_y,COMMENT_y,MIN_y,PTS_OFF_TOV,PTS_2ND_CHANCE,PTS_FB,PTS_PAINT,OPP_PTS_OFF_TOV,OPP_PTS_2ND_CHANCE,OPP_PTS_FB,OPP_PTS_PAINT,BLK,BLKA,PF,PFD
0021400283,1610612745,HOU,Houston,2772,Trevor Ariza,F,,43:57,104.5,105.5,-0.9,0.04,0.33,5.3,0.033,0.182,0.122,15.8,0.567,0.567,0.188,98.28,0.093,2014-12-05T00:00:00,8,1610612745,HOU,Houston,15-4,33,22,28,22,9,0,0,0,0,0,0,0,0,0,114,0.487,0.839,0.375,19,42,22,0021400283,1610612745,HOU,Houston,Trevor Ariza,F,,43:57,5.0,0.0,5.0,2.0,21.0,16.0,17.0,56.0,0.0,0.0,3.0,3.0
0021400283,1610612745,HOU,Houston,2772,Trevor Ariza,F,,43:57,104.5,105.5,-0.9,0.04,0.33,5.3,0.033,0.182,0.122,15.8,0.567,0.567,0.188,98.28,0.093,2014-12-05T00:00:00,8,1610612750,MIN,Minnesota,4-14,24,33,17,31,7,0,0,0,0,0,0,0,0,0,112,0.464,0.704,0.3,23,43,14,0021400283,1610612745,HOU,Houston,Trevor Ariza,F,,43:57,5.0,0.0,5.0,2.0,21.0,16.0,17.0,56.0,0.0,0.0,3.0,3.0
0021400283,1610612745,HOU,Houston,202700,Donatas Motiejunas,F,,39:40,108.5,102.0,6.5,0.0,0.0,0.0,0.0,0.229,0.138,27.3,0.5,0.611,0.174,98.84,0.088,2014-12-05T00:00:00,8,1610612745,HOU,Houston,15-4,33,22,28,22,9,0,0,0,0,0,0,0,0,0,114,0.487,0.839,0.375,19,42,22,0021400283,1610612745,HOU,Houston,Donatas Motiejunas,F,,39:40,0.0,0.0,1.0,8.0,19.0,12.0,12.0,50.0,0.0,0.0,1.0,6.0
0021400283,1610612745,HOU,Houston,202700,Donatas Motiejunas,F,,39:40,108.5,102.0,6.5,0.0,0.0,0.0,0.0,0.229,0.138,27.3,0.5,0.611,0.174,98.84,0.088,2014-12-05T00:00:00,8,1610612750,MIN,Minnesota,4-14,24,33,17,31,7,0,0,0,0,0,0,0,0,0,112,0.464,0.704,0.3,23,43,14,0021400283,1610612745,HOU,Houston,Donatas Motiejunas,F,,39:40,0.0,0.0,1.0,8.0,19.0,12.0,12.0,50.0,0.0,0.0,1.0,6.0
0021400283,1610612745,HOU,Houston,204028,Tarik Black,C,,17:25,113.4,90.9,22.5,0.091,0.33,11.4,0.0,0.222,0.148,34.2,0.667,0.63,0.214,97.12,0.04,2014-12-05T00:00:00,8,1610612745,HOU,Houston,15-4,33,22,28,22,9,0,0,0,0,0,0,0,0,0,114,0.487,0.839,0.375,19,42,22,0021400283,1610612745,HOU,Houston,Tarik Black,C,,17:25,0.0,0.0,0.0,4.0,2.0,6.0,5.0,22.0,0.0,1.0,3.0,2.0
0021400283,1610612745,HOU,Houston,204028,Tarik Black,C,,17:25,113.4,90.9,22.5,0.091,0.33,11.4,0.0,0.222,0.148,34.2,0.667,0.63,0.214,97.12,0.04,2014-12-05T00:00:00,8,1610612750,MIN,Minnesota,4-14,24,33,17,31,7,0,0,0,0,0,0,0,0,0,112,0.464,0.704,0.3,23,43,14,0021400283,1610612745,HOU,Houston,Tarik Black,C,,17:25,0.0,0.0,0.0,4.0,2.0,6.0,5.0,22.0,0.0,1.0,3.0,2.0
0021400283,1610612745,HOU,Houston,201935,James Harden,G,,36:35,111.9,103.5,8.4,0.375,0.75,16.1,0.0,0.133,0.078,21.5,0.735,0.82,0.395,100.52,0.22,2014-12-05T00:00:00,8,1610612745,HOU,Houston,15-4,33,22,28,22,9,0,0,0,0,0,0,0,0,0,114,0.487,0.839,0.375,19,42,22,0021400283,1610612745,HOU,Houston,James Harden,G,,36:35,6.0,0.0,7.0,12.0,15.0,9.0,14.0,46.0,0.0,1.0,6.0,10.0
0021400283,1610612745,HOU,Houston,201935,James Harden,G,,36:35,111.9,103.5,8.4,0.375,0.75,16.1,0.0,0.133,0.078,21.5,0.735,0.82,0.395,100.52,0.22,2014-12-05T00:00:00,8,1610612750,MIN,Minnesota,4-14,24,33,17,31,7,0,0,0,0,0,0,0,0,0,112,0.464,0.704,0.3,23,43,14,0021400283,1610612745,HOU,Houston,James Harden,G,,36:35,6.0,0.0,7.0,12.0,15.0,9.0,14.0,46.0,0.0,1.0,6.0,10.0
0021400283,1610612745,HOU,Houston,1891,Jason Terry,G,,42:58,96.2,101.5,-5.2,0.25,0.0,25.7,0.0,0.089,0.052,0.0,0.531,0.548,0.182,99.44,0.142,2014-12-05T00:00:00,8,1610612745,HOU,Houston,15-4,33,22,28,22,9,0,0,0,0,0,0,0,0,0,114,0.487,0.839,0.375,19,42,22,0021400283,1610612745,HOU,Houston,Jason Terry,G,,42:58,2.0,3.0,0.0,2.0,23.0,16.0,19.0,54.0,0.0,0.0,2.0,3.0
0021400283,1610612745,HOU,Houston,1891,Jason Terry,G,,42:58,96.2,101.5,-5.2,0.25,0.0,25.7,0.0,0.089,0.052,0.0,0.531,0.548,0.182,99.44,0.142,2014-12-05T00:00:00,8,1610612750,MIN,Minnesota,4-14,24,33,17,31,7,0,0,0,0,0,0,0,0,0,112,0.464,0.704,0.3,23,43,14,0021400283,1610612745,HOU,Houston,Jason Terry,G,,42:58,2.0,3.0,0.0,2.0,23.0,16.0,19.0,54.0,0.0,0.0,2.0,3.0
0021400283,1610612745,HOU,Houston,203910,Nick Johnson,,,22:02,126.7,95.5,31.2,0.0,0.0,0.0,0.0,0.125,0.071,0.0,0.2,0.444,0.153,92.59,0.041,2014-12-05T00:00:00,8,1610612745,HOU,Houston,15-4,33,22,28,22,9,0,0,0,0,0,0,0,0,0,114,0.487,0.839,0.375,19,42,22,0021400283,1610612745,HOU,Houston,Nick Johnson,,,22:02,0.0,0.0,0.0,2.0,6.0,3.0,8.0,26.0,0.0,1.0,2.0,2.0
0021400283,1610612745,HOU,Houston,203910,Nick Johnson,,,22:02,126.7,95.5,31.2,0.0,0.0,0.0,0.0,0.125,0.071,0.0,0.2,0.444,0.153,92.59,0.041,2014-12-05T00:00:00,8,1610612750,MIN,Minnesota,4-14,24,33,17,31,7,0,0,0,0,0,0,0,0,0,112,0.464,0.704,0.3,23,43,14,0021400283,1610612745,HOU,Houston,Nick Johnson,,,22:02,0.0,0.0,0.0,2.0,6.0,3.0,8.0,26.0,0.0,1.0,2.0,2.0
0021400283,1610612745,HOU,Houston,101128,Francisco Garcia,,,21:34,99.3,108.5,-9.2,0.273,1.0,25.0,0.0,0.0,0.0,25.0,0.417,0.417,0.194,92.01,-0.033,2014-12-05T00:00:00,8,1610612745,HOU,Houston,15-4,33,22,28,22,9,0,0,0,0,0,0,0,0,0,114,0.487,0.839,0.375,19,42,22,0021400283,1610612745,HOU,Houston,Francisco Garcia,,,21:34,3.0,0.0,2.0,0.0,8.0,7.0,13.0,28.0,0.0,0.0,3.0,0.0
0021400283,1610612745,HOU,Houston,101128,Francisco Garcia,,,21:34,99.3,108.5,-9.2,0.273,1.0,25.0,0.0,0.0,0.0,25.0,0.417,0.417,0.194,92.01,-0.033,2014-12-05T00:00:00,8,1610612750,MIN,Minnesota,4-14,24,33,17,31,7,0,0,0,0,0,0,0,0,0,112,0.464,0.704,0.3,23,43,14,0021400283,1610612745,HOU,Houston,Francisco Garcia,,,21:34,3.0,0.0,2.0,0.0,8.0,7.0,13.0,28.0,0.0,0.0,3.0,0.0
0021400283,1610612745,HOU,Houston,201595,Joey Dorsey,,,14:21,108.5,93.7,14.9,0.091,1.0,25.0,0.25,0.364,0.304,25.0,0.0,0.0,0.095,98.05,0.011,2014-12-05T00:00:00,8,1610612745,HOU,Houston,15-4,33,22,28,22,9,0,0,0,0,0,0,0,0,0,114,0.487,0.839,0.375,19,42,22,0021400283,1610612745,HOU,Houston,Joey Dorsey,,,14:21,0.0,0.0,0.0,0.0,4.0,0.0,10.0,18.0,2.0,2.0,4.0,0.0
0021400283,1610612745,HOU,Houston,201595,Joey Dorsey,,,14:21,108.5,93.7,14.9,0.091,1.0,25.0,0.25,0.364,0.304,25.0,0.0,0.0,0.095,98.05,0.011,2014-12-05T00:00:00,8,1610612750,MIN,Minnesota,4-14,24,33,17,31,7,0,0,0,0,0,0,0,0,0,112,0.464,0.704,0.3,23,43,14,0021400283,1610612745,HOU,Houston,Joey Dorsey,,,14:21,0.0,0.0,0.0,0.0,4.0,0.0,10.0,18.0,2.0,2.0,4.0,0.0
0021400283,1610612745,HOU,Houston,203123,Kostas Papanikolaou,,,26:27,94.8,117.4,-22.6,0.071,0.0,14.3,0.136,0.038,0.083,0.0,0.833,0.833,0.099,99.99,0.099,2014-12-05T00:00:00,8,1610612745,HOU,Houston,15-4,33,22,28,22,9,0,0,0,0,0,0,0,0,0,114,0.487,0.839,0.375,19,42,22,0021400283,1610612745,HOU,Houston,Kostas Papanikolaou,,,26:27,0.0,4.0,0.0,10.0,17.0,11.0,17.0,30.0,1.0,0.0,4.0,0.0
0021400283,1610612745,HOU,Houston,203123,Kostas Papanikolaou,,,26:27,94.8,117.4,-22.6,0.071,0.0,14.3,0.136,0.038,0.083,0.0,0.833,0.833,0.099,99.99,0.099,2014-12-05T00:00:00,8,1610612750,MIN,Minnesota,4-14,24,33,17,31,7,0,0,0,0,0,0,0,0,0,112,0.464,0.704,0.3,23,43,14,0021400283,1610612745,HOU,Houston,Kostas Papanikolaou,,,26:27,0.0,4.0,0.0,10.0,17.0,11.0,17.0,30.0,1.0,0.0,4.0,0.0
0021400283,1610612745,HOU,Houston,203991,Clint Capela,,,0:01,0.0,0.0,0.0,0.0,0.0,0.0,0.0,0.0,0.0,0.0,0.0,0.0,0.0,1800.0,0.0,2014-12-05T00:00:00,8,1610612745,HOU,Houston,15-4,33,22,28,22,9,0,0,0,0,0,0,0,0,0,114,0.487,0.839,0.375,19,42,22,0021400283,1610612745,HOU,Houston,Clint Capela,,,0:01,0.0,0.0,0.0,0.0,0.0,0.0,0.0,0.0,0.0,0.0,0.0,0.0
0021400283,1610612745,HOU,Houston,203991,Clint Capela,,,0:01,0.0,0.0,0.0,0.0,0.0,0.0,0.0,0.0,0.0,0.0,0.0,0.0,0.0,1800.0,0.0,2014-12-05T00:00:00,8,1610612750,MIN,Minnesota,4-14,24,33,17,31,7,0,0,0,0,0,0,0,0,0,112,0.464,0.704,0.3,23,43,14,0021400283,1610612745,HOU,Houston,Clint Capela,,,0:01,0.0,0.0,0.0,0.0,0.0,0.0,0.0,0.0,0.0,0.0,0.0,0.0
0021400283,1610612745,HOU,Houston,203584,Troy Daniels,,DNP - Coach's Decision                  ,,,,,,,0.0,,,,,,,0.0,,,2014-12-05T00:00:00,8,1610612745,HOU,Houston,15-4,33,22,28,22,9,0,0,0,0,0,0,0,0,0,114,0.487,0.839,0.375,19,42,22,0021400283,1610612745,HOU,Houston,Troy Daniels,,DNP - Coach's Decision                  ,,,,,,,,,,,,,
0021400283,1610612745,HOU,Houston,203584,Troy Daniels,,DNP - Coach's Decision                  ,,,,,,,0.0,,,,,,,0.0,,,2014-12-05T00:00:00,8,1610612750,MIN,Minnesota,4-14,24,33,17,31,7,0,0,0,0,0,0,0,0,0,112,0.464,0.704,0.3,23,43,14,0021400283,1610612745,HOU,Houston,Troy Daniels,,DNP - Coach's Decision                  ,,,,,,,,,,,,,
0021400283,1610612745,HOU,Houston,2730,Dwight Howard,,DND - Right Knee Strain                 ,,,,,,,0.0,,,,,,,0.0,,,2014-12-05T00:00:00,8,1610612745,HOU,Houston,15-4,33,22,28,22,9,0,0,0,0,0,0,0,0,0,114,0.487,0.839,0.375,19,42,22,0021400283,1610612745,HOU,Houston,Dwight Howard,,DND - Right Knee Strain                 ,,,,,,,,,,,,,
0021400283,1610612745,HOU,Houston,2730,Dwight Howard,,DND - Right Knee Strain                 ,,,,,,,0.0,,,,,,,0.0,,,2014-12-05T00:00:00,8,1610612750,MIN,Minnesota,4-14,24,33,17,31,7,0,0,0,0,0,0,0,0,0,112,0.464,0.704,0.3,23,43,14,0021400283,1610612745,HOU,Houston,Dwight Howard,,DND - Right Knee Strain                 ,,,,,,,,,,,,,
0021400283,1610612750,MIN,Minnesota,203952,Andrew Wiggins,F,,29:26,101.3,107.9,-6.6,0.15,3.0,17.3,0.034,0.118,0.065,5.8,0.417,0.413,0.223,93.58,0.029,2014-12-05T00:00:00,8,1610612745,HOU,Houston,15-4,33,22,28,22,9,0,0,0,0,0,0,0,0,0,114,0.487,0.839,0.375,19,42,22,0021400283,1610612750,MIN,Minnesota,Andrew Wiggins,F,,29:26,4.0,2.0,2.0,10.0,5.0,2.0,9.0,22.0,0.0,0.0,5.0,3.0
0021400283,1610612750,MIN,Minnesota,203952,Andrew Wiggins,F,,29:26,101.3,107.9,-6.6,0.15,3.0,17.3,0.034,0.118,0.065,5.8,0.417,0.413,0.223,93.58,0.029,2014-12-05T00:00:00,8,1610612750,MIN,Minnesota,4-14,24,33,17,31,7,0,0,0,0,0,0,0,0,0,112,0.464,0.704,0.3,23,43,14,0021400283,1610612750,MIN,Minnesota,Andrew Wiggins,F,,29:26,4.0,2.0,2.0,10.0,5.0,2.0,9.0,22.0,0.0,0.0,5.0,3.0
0021400283,1610612750,MIN,Minnesota,201152,Thaddeus Young,F,,38:36,96.9,118.3,-21.4,0.042,1.0,4.2,0.059,0.143,0.091,4.2,0.45,0.437,0.26,98.39,0.065,2014-12-05T00:00:00,8,1610612745,HOU,Houston,15-4,33,22,28,22,9,0,0,0,0,0,0,0,0,0,114,0.487,0.839,0.375,19,42,22,0021400283,1610612750,MIN,Minnesota,Thaddeus Young,F,,38:36,0.0,1.0,0.0,14.0,16.0,2.0,11.0,30.0,0.0,0.0,3.0,2.0
0021400283,1610612750,MIN,Minnesota,201152,Thaddeus Young,F,,38:36,96.9,118.3,-21.4,0.042,1.0,4.2,0.059,0.143,0.091,4.2,0.45,0.437,0.26,98.39,0.065,2014-12-05T00:00:00,8,1610612750,MIN,Minnesota,4-14,24,33,17,31,7,0,0,0,0,0,0,0,0,0,112,0.464,0.704,0.3,23,43,14,0021400283,1610612750,MIN,Minnesota,Thaddeus Young,F,,38:36,0.0,1.0,0.0,14.0,16.0,2.0,11.0,30.0,0.0,0.0,3.0,2.0
0021400283,1610612750,MIN,Minnesota,203476,Gorgui Dieng,C,,31:17,96.0,120.1,-24.1,0.1,1.0,14.0,0.107,0.2,0.14,14.0,0.667,0.727,0.172,99.52,0.136,2014-12-05T00:00:00,8,1610612745,HOU,Houston,15-4,33,22,28,22,9,0,0,0,0,0,0,0,0,0,114,0.487,0.839,0.375,19,42,22,0021400283,1610612750,MIN,Minnesota,Gorgui Dieng,C,,31:17,0.0,2.0,0.0,10.0,12.0,0.0,13.0,26.0,0.0,1.0,6.0,3.0
0021400283,1610612750,MIN,Minnesota,203476,Gorgui Dieng,C,,31:17,96.0,120.1,-24.1,0.1,1.0,14.0,0.107,0.2,0.14,14.0,0.667,0.727,0.172,99.52,0.136,2014-12-05T00:00:00,8,1610612750,MIN,Minnesota,4-14,24,33,17,31,7,0,0,0,0,0,0,0,0,0,112,0.464,0.704,0.3,23,43,14,0021400283,1610612750,MIN,Minnesota,Gorgui Dieng,C,,31:17,0.0,2.0,0.0,10.0,12.0,0.0,13.0,26.0,0.0,1.0,6.0,3.0
0021400283,1610612750,MIN,Minnesota,201147,Corey Brewer,G,,40:20,103.4,104.3,-1.0,0.207,2.0,26.4,0.054,0.185,0.109,13.2,0.458,0.545,0.176,96.28,0.154,2014-12-05T00:00:00,8,1610612745,HOU,Houston,15-4,33,22,28,22,9,0,0,0,0,0,0,0,0,0,114,0.487,0.839,0.375,19,42,22,0021400283,1610612750,MIN,Minnesota,Corey Brewer,G,,40:20,8.0,5.0,6.0,4.0,16.0,2.0,6.0,26.0,3.0,1.0,3.0,7.0
0021400283,1610612750,MIN,Minnesota,201147,Corey Brewer,G,,40:20,103.4,104.3,-1.0,0.207,2.0,26.4,0.054,0.185,0.109,13.2,0.458,0.545,0.176,96.28,0.154,2014-12-05T00:00:00,8,1610612750,MIN,Minnesota,4-14,24,33,17,31,7,0,0,0,0,0,0,0,0,0,112,0.464,0.704,0.3,23,43,14,0021400283,1610612750,MIN,Minnesota,Corey Brewer,G,,40:20,8.0,5.0,6.0,4.0,16.0,2.0,6.0,26.0,3.0,1.0,3.0,7.0
0021400283,1610612750,MIN,Minnesota,203897,Zach LaVine,G,,34:55,108.4,103.1,5.3,0.154,2.0,19.8,0.0,0.286,0.113,9.9,0.542,0.599,0.208,98.18,0.121,2014-12-05T00:00:00,8,1610612745,HOU,Houston,15-4,33,22,28,22,9,0,0,0,0,0,0,0,0,0,114,0.487,0.839,0.375,19,42,22,0021400283,1610612750,MIN,Minnesota,Zach LaVine,G,,34:55,9.0,0.0,6.0,8.0,2.0,5.0,13.0,26.0,0.0,0.0,4.0,4.0
0021400283,1610612750,MIN,Minnesota,203897,Zach LaVine,G,,34:55,108.4,103.1,5.3,0.154,2.0,19.8,0.0,0.286,0.113,9.9,0.542,0.599,0.208,98.18,0.121,2014-12-05T00:00:00,8,1610612750,MIN,Minnesota,4-14,24,33,17,31,7,0,0,0,0,0,0,0,0,0,112,0.464,0.704,0.3,23,43,14,0021400283,1610612750,MIN,Minnesota,Zach LaVine,G,,34:55,9.0,0.0,6.0,8.0,2.0,5.0,13.0,26.0,0.0,0.0,4.0,4.0
0021400283,1610612750,MIN,Minnesota,201978,Chase Budinger,,,27:47,97.5,113.7,-16.2,0.167,0.75,18.2,0.077,0.1,0.087,24.3,0.5,0.53,0.202,102.28,0.095,2014-12-05T00:00:00,8,1610612745,HOU,Houston,15-4,33,22,28,22,9,0,0,0,0,0,0,0,0,0,114,0.487,0.839,0.375,19,42,22,0021400283,1610612750,MIN,Minnesota,Chase Budinger,,,27:47,0.0,2.0,3.0,4.0,14.0,5.0,11.0,26.0,0.0,0.0,0.0,0.0
0021400283,1610612750,MIN,Minnesota,201978,Chase Budinger,,,27:47,97.5,113.7,-16.2,0.167,0.75,18.2,0.077,0.1,0.087,24.3,0.5,0.53,0.202,102.28,0.095,2014-12-05T00:00:00,8,1610612750,MIN,Minnesota,4-14,24,33,17,31,7,0,0,0,0,0,0,0,0,0,112,0.464,0.704,0.3,23,43,14,0021400283,1610612750,MIN,Minnesota,Chase Budinger,,,27:47,0.0,2.0,3.0,4.0,14.0,5.0,11.0,26.0,0.0,0.0,0.0,0.0
0021400283,1610612750,MIN,Minnesota,203498,Shabazz Muhammad,,,26:32,102.5,101.5,1.0,0.071,0.0,5.5,0.087,0.087,0.087,0.0,0.533,0.581,0.266,101.08,0.16,2014-12-05T00:00:00,8,1610612745,HOU,Houston,15-4,33,22,28,22,9,0,0,0,0,0,0,0,0,0,114,0.487,0.839,0.375,19,42,22,0021400283,1610612750,MIN,Minnesota,Shabazz Muhammad,,,26:32,2.0,2.0,6.0,12.0,11.0,7.0,6.0,20.0,0.0,0.0,2.0,3.0
0021400283,1610612750,MIN,Minnesota,203498,Shabazz Muhammad,,,26:32,102.5,101.5,1.0,0.071,0.0,5.5,0.087,0.087,0.087,0.0,0.533,0.581,0.266,101.08,0.16,2014-12-05T00:00:00,8,1610612750,MIN,Minnesota,4-14,24,33,17,31,7,0,0,0,0,0,0,0,0,0,112,0.464,0.704,0.3,23,43,14,0021400283,1610612750,MIN,Minnesota,Shabazz Muhammad,,,26:32,2.0,2.0,6.0,12.0,11.0,7.0,6.0,20.0,0.0,0.0,2.0,3.0
0021400283,1610612750,MIN,Minnesota,203461,Anthony Bennett,,,20:00,114.6,86.4,28.2,0.063,1.0,12.7,0.05,0.211,0.128,12.7,0.2,0.255,0.146,95.76,0.025,2014-12-05T00:00:00,8,1610612745,HOU,Houston,15-4,33,22,28,22,9,0,0,0,0,0,0,0,0,0,114,0.487,0.839,0.375,19,42,22,0021400283,1610612750,MIN,Minnesota,Anthony Bennett,,,20:00,0.0,2.0,0.0,2.0,4.0,5.0,4.0,12.0,0.0,1.0,2.0,4.0
0021400283,1610612750,MIN,Minnesota,203461,Anthony Bennett,,,20:00,114.6,86.4,28.2,0.063,1.0,12.7,0.05,0.211,0.128,12.7,0.2,0.255,0.146,95.76,0.025,2014-12-05T00:00:00,8,1610612750,MIN,Minnesota,4-14,24,33,17,31,7,0,0,0,0,0,0,0,0,0,112,0.464,0.704,0.3,23,43,14,0021400283,1610612750,MIN,Minnesota,Anthony Bennett,,,20:00,0.0,2.0,0.0,2.0,4.0,5.0,4.0,12.0,0.0,1.0,2.0,4.0
0021400283,1610612750,MIN,Minnesota,202399,Jeff Adrien,,,16:07,117.3,73.0,44.3,0.154,0.0,40.0,0.063,0.118,0.091,0.0,0.333,0.333,0.076,97.21,0.116,2014-12-05T00:00:00,8,1610612745,HOU,Houston,15-4,33,22,28,22,9,0,0,0,0,0,0,0,0,0,114,0.487,0.839,0.375,19,42,22,0021400283,1610612750,MIN,Minnesota,Jeff Adrien,,,16:07,0.0,0.0,0.0,2.0,0.0,7.0,2.0,12.0,2.0,0.0,1.0,2.0
0021400283,1610612750,MIN,Minnesota,202399,Jeff Adrien,,,16:07,117.3,73.0,44.3,0.154,0.0,40.0,0.063,0.118,0.091,0.0,0.333,0.333,0.076,97.21,0.116,2014-12-05T00:00:00,8,1610612750,MIN,Minnesota,4-14,24,33,17,31,7,0,0,0,0,0,0,0,0,0,112,0.464,0.704,0.3,23,43,14,0021400283,1610612750,MIN,Minnesota,Jeff Adrien,,,16:07,0.0,0.0,0.0,2.0,0.0,7.0,2.0,12.0,2.0,0.0,1.0,2.0
0021400283,1610612750,MIN,Minnesota,203133,Robbie Hummel,,DNP - Coach's Decision                  ,,,,,,,0.0,,,,,,,0.0,,,2014-12-05T00:00:00,8,1610612745,HOU,Houston,15-4,33,22,28,22,9,0,0,0,0,0,0,0,0,0,114,0.487,0.839,0.375,19,42,22,0021400283,1610612750,MIN,Minnesota,Robbie Hummel,,DNP - Coach's Decision                  ,,,,,,,,,,,,,
0021400283,1610612750,MIN,Minnesota,203133,Robbie Hummel,,DNP - Coach's Decision                  ,,,,,,,0.0,,,,,,,0.0,,,2014-12-05T00:00:00,8,1610612750,MIN,Minnesota,4-14,24,33,17,31,7,0,0,0,0,0,0,0,0,0,112,0.464,0.704,0.3,23,43,14,0021400283,1610612750,MIN,Minnesota,Robbie Hummel,,DNP - Coach's Decision                  ,,,,,,,,,,,,,
0021400283,1610612750,MIN,Minnesota,201593,Nikola Pekovic,,DND - Right Wrist Sprain                ,,,,,,,0.0,,,,,,,0.0,,,2014-12-05T00:00:00,8,1610612745,HOU,Houston,15-4,33,22,28,22,9,0,0,0,0,0,0,0,0,0,114,0.487,0.839,0.375,19,42,22,0021400283,1610612750,MIN,Minnesota,Nikola Pekovic,,DND - Right Wrist Sprain                ,,,,,,,,,,,,,
0021400283,1610612750,MIN,Minnesota,201593,Nikola Pekovic,,DND - Right Wrist Sprain                ,,,,,,,0.0,,,,,,,0.0,,,2014-12-05T00:00:00,8,1610612750,MIN,Minnesota,4-14,24,33,17,31,7,0,0,0,0,0,0,0,0,0,112,0.464,0.704,0.3,23,43,14,0021400283,1610612750,MIN,Minnesota,Nikola Pekovic,,DND - Right Wrist Sprain                ,,,,,,,,,,,,,
0021400283,1610612750,MIN,Minnesota,203922,Glenn Robinson III,,DNP - Coach's Decision                  ,,,,,,,0.0,,,,,,,0.0,,,2014-12-05T00:00:00,8,1610612745,HOU,Houston,15-4,33,22,28,22,9,0,0,0,0,0,0,0,0,0,114,0.487,0.839,0.375,19,42,22,0021400283,1610612750,MIN,Minnesota,Glenn Robinson III,,DNP - Coach's Decision                  ,,,,,,,,,,,,,
0021400283,1610612750,MIN,Minnesota,203922,Glenn Robinson III,,DNP - Coach's Decision                  ,,,,,,,0.0,,,,,,,0.0,,,2014-12-05T00:00:00,8,1610612750,MIN,Minnesota,4-14,24,33,17,31,7,0,0,0,0,0,0,0,0,0,112,0.464,0.704,0.3,23,43,14,0021400283,1610612750,MIN,Minnesota,Glenn Robinson III,,DNP - Coach's Decision                  ,,,,,,,,,,,,,
0021400283,1610612750,MIN,Minnesota,2590,Mo Williams,,NWT - Back Spasms                       ,,,,,,,0.0,,,,,,,0.0,,,2014-12-05T00:00:00,8,1610612745,HOU,Houston,15-4,33,22,28,22,9,0,0,0,0,0,0,0,0,0,114,0.487,0.839,0.375,19,42,22,0021400283,1610612750,MIN,Minnesota,Mo Williams,,NWT - Back Spasms                       ,,,,,,,,,,,,,
0021400283,1610612750,MIN,Minnesota,2590,Mo Williams,,NWT - Back Spasms                       ,,,,,,,0.0,,,,,,,0.0,,,2014-12-05T00:00:00,8,1610612750,MIN,Minnesota,4-14,24,33,17,31,7,0,0,0,0,0,0,0,0,0,112,0.464,0.704,0.3,23,43,14,0021400283,1610612750,MIN,Minnesota,Mo Williams,,NWT - Back Spasms                       ,,,,,,,,,,,,,
