GAME_ID_x,TEAM_ID_x,TEAM_ABBREVIATION_x,TEAM_CITY_x,PLAYER_ID,PLAYER_NAME_x,START_POSITION_x,COMMENT_x,MIN_x,OFF_RATING,DEF_RATING,NET_RATING,AST_PCT,AST_TOV,AST_RATIO,OREB_PCT,DREB_PCT,REB_PCT,TM_TOV_PCT,EFG_PCT,TS_PCT,USG_PCT,PACE,PIE,GAME_DATE_EST,GAME_SEQUENCE,TEAM_ID_y,TEAM_ABBREVIATION_y,TEAM_CITY_NAME,TEAM_WINS_LOSSES,PTS_QTR1,PTS_QTR2,PTS_QTR3,PTS_QTR4,PTS_OT1,PTS_OT2,PTS_OT3,PTS_OT4,PTS_OT5,PTS_OT6,PTS_OT7,PTS_OT8,PTS_OT9,PTS_OT10,PTS,FG_PCT,FT_PCT,FG3_PCT,AST,REB,TOV,GAME_ID_y,TEAM_ID,TEAM_ABBREVIATION,TEAM_CITY_y,PLAYER_NAME_y,START_POSITION_y,COMMENT_y,MIN_y,PTS_OFF_TOV,PTS_2ND_CHANCE,PTS_FB,PTS_PAINT,OPP_PTS_OFF_TOV,OPP_PTS_2ND_CHANCE,OPP_PTS_FB,OPP_PTS_PAINT,BLK,BLKA,PF,PFD
0021300712,1610612755,PHI,Philadelphia,202323,Evan Turner,F,,33:56,84.0,109.2,-25.1,0.095,0.5,13.1,0.08,0.115,0.098,26.1,0.375,0.483,0.165,98.65,0.033,2014-02-03T00:00:00,3,1610612755,PHI,Philadelphia,15-34,16,33,20,33,0,0,0,0,0,0,0,0,0,0,102,0.521,0.714,0.4,20,38,25,0021300712,1610612755,PHI,Philadelphia,Evan Turner,F,,33:56,2.0,0.0,0.0,4.0,32.0,7.0,9.0,24.0,0.0,2.0,3.0,2.0
0021300712,1610612755,PHI,Philadelphia,202323,Evan Turner,F,,33:56,84.0,109.2,-25.1,0.095,0.5,13.1,0.08,0.115,0.098,26.1,0.375,0.483,0.165,98.65,0.033,2014-02-03T00:00:00,3,1610612751,BKN,Brooklyn,21-25,24,30,30,24,0,0,0,0,0,0,0,0,0,0,108,0.444,0.872,0.4,25,30,13,0021300712,1610612755,PHI,Philadelphia,Evan Turner,F,,33:56,2.0,0.0,0.0,4.0,32.0,7.0,9.0,24.0,0.0,2.0,3.0,2.0
0021300712,1610612755,PHI,Philadelphia,201152,Thaddeus Young,F,,38:07,102.4,109.0,-6.7,0.042,1.0,7.2,0.036,0.154,0.093,7.2,0.682,0.715,0.153,97.14,0.097,2014-02-03T00:00:00,3,1610612755,PHI,Philadelphia,15-34,16,33,20,33,0,0,0,0,0,0,0,0,0,0,102,0.521,0.714,0.4,20,38,25,0021300712,1610612755,PHI,Philadelphia,Thaddeus Young,F,,38:07,2.0,0.0,4.0,10.0,23.0,7.0,8.0,26.0,0.0,0.0,4.0,4.0
0021300712,1610612755,PHI,Philadelphia,201152,Thaddeus Young,F,,38:07,102.4,109.0,-6.7,0.042,1.0,7.2,0.036,0.154,0.093,7.2,0.682,0.715,0.153,97.14,0.097,2014-02-03T00:00:00,3,1610612751,BKN,Brooklyn,21-25,24,30,30,24,0,0,0,0,0,0,0,0,0,0,108,0.444,0.872,0.4,25,30,13,0021300712,1610612755,PHI,Philadelphia,Thaddeus Young,F,,38:07,2.0,0.0,4.0,10.0,23.0,7.0,8.0,26.0,0.0,0.0,4.0,4.0
0021300712,1610612755,PHI,Philadelphia,201150,Spencer Hawes,C,,35:06,101.5,111.3,-9.8,0.25,1.0,31.6,0.1,0.24,0.178,31.6,0.571,0.571,0.163,100.32,0.073,2014-02-03T00:00:00,3,1610612755,PHI,Philadelphia,15-34,16,33,20,33,0,0,0,0,0,0,0,0,0,0,102,0.521,0.714,0.4,20,38,25,0021300712,1610612755,PHI,Philadelphia,Spencer Hawes,C,,35:06,0.0,0.0,0.0,2.0,28.0,6.0,9.0,30.0,1.0,0.0,2.0,0.0
0021300712,1610612755,PHI,Philadelphia,201150,Spencer Hawes,C,,35:06,101.5,111.3,-9.8,0.25,1.0,31.6,0.1,0.24,0.178,31.6,0.571,0.571,0.163,100.32,0.073,2014-02-03T00:00:00,3,1610612751,BKN,Brooklyn,21-25,24,30,30,24,0,0,0,0,0,0,0,0,0,0,108,0.444,0.872,0.4,25,30,13,0021300712,1610612755,PHI,Philadelphia,Spencer Hawes,C,,35:06,0.0,0.0,0.0,2.0,28.0,6.0,9.0,30.0,1.0,0.0,2.0,0.0
0021300712,1610612755,PHI,Philadelphia,202341,James Anderson,G,,26:42,77.7,104.0,-26.3,0.231,3.0,23.3,0.0,0.25,0.122,7.8,0.688,0.676,0.163,99.33,0.171,2014-02-03T00:00:00,3,1610612755,PHI,Philadelphia,15-34,16,33,20,33,0,0,0,0,0,0,0,0,0,0,102,0.521,0.714,0.4,20,38,25,0021300712,1610612755,PHI,Philadelphia,James Anderson,G,,26:42,6.0,4.0,0.0,6.0,22.0,6.0,8.0,22.0,0.0,0.0,3.0,3.0
0021300712,1610612755,PHI,Philadelphia,202341,James Anderson,G,,26:42,77.7,104.0,-26.3,0.231,3.0,23.3,0.0,0.25,0.122,7.8,0.688,0.676,0.163,99.33,0.171,2014-02-03T00:00:00,3,1610612751,BKN,Brooklyn,21-25,24,30,30,24,0,0,0,0,0,0,0,0,0,0,108,0.444,0.872,0.4,25,30,13,0021300712,1610612755,PHI,Philadelphia,James Anderson,G,,26:42,6.0,4.0,0.0,6.0,22.0,6.0,8.0,22.0,0.0,0.0,3.0,3.0
0021300712,1610612755,PHI,Philadelphia,203487,Michael Carter-Williams,G,,36:06,101.0,118.7,-17.7,0.2,0.67,13.3,0.037,0.045,0.041,19.9,0.441,0.523,0.317,99.32,0.053,2014-02-03T00:00:00,3,1610612755,PHI,Philadelphia,15-34,16,33,20,33,0,0,0,0,0,0,0,0,0,0,102,0.521,0.714,0.4,20,38,25,0021300712,1610612755,PHI,Philadelphia,Michael Carter-Williams,G,,36:06,5.0,1.0,2.0,4.0,21.0,6.0,12.0,30.0,2.0,4.0,3.0,5.0
0021300712,1610612755,PHI,Philadelphia,203487,Michael Carter-Williams,G,,36:06,101.0,118.7,-17.7,0.2,0.67,13.3,0.037,0.045,0.041,19.9,0.441,0.523,0.317,99.32,0.053,2014-02-03T00:00:00,3,1610612751,BKN,Brooklyn,21-25,24,30,30,24,0,0,0,0,0,0,0,0,0,0,108,0.444,0.872,0.4,25,30,13,0021300712,1610612755,PHI,Philadelphia,Michael Carter-Williams,G,,36:06,5.0,1.0,2.0,4.0,21.0,6.0,12.0,30.0,2.0,4.0,3.0,5.0
0021300712,1610612755,PHI,Philadelphia,202730,Lavoy Allen,,,17:42,102.8,104.7,-1.9,0.091,0.5,17.0,0.067,0.286,0.172,34.0,1.0,0.868,0.116,104.57,0.066,2014-02-03T00:00:00,3,1610612755,PHI,Philadelphia,15-34,16,33,20,33,0,0,0,0,0,0,0,0,0,0,102,0.521,0.714,0.4,20,38,25,0021300712,1610612755,PHI,Philadelphia,Lavoy Allen,,,17:42,2.0,1.0,0.0,2.0,4.0,1.0,3.0,4.0,0.0,0.0,5.0,1.0
0021300712,1610612755,PHI,Philadelphia,202730,Lavoy Allen,,,17:42,102.8,104.7,-1.9,0.091,0.5,17.0,0.067,0.286,0.172,34.0,1.0,0.868,0.116,104.57,0.066,2014-02-03T00:00:00,3,1610612751,BKN,Brooklyn,21-25,24,30,30,24,0,0,0,0,0,0,0,0,0,0,108,0.444,0.872,0.4,25,30,13,0021300712,1610612755,PHI,Philadelphia,Lavoy Allen,,,17:42,2.0,1.0,0.0,2.0,4.0,1.0,3.0,4.0,0.0,0.0,5.0,1.0
0021300712,1610612755,PHI,Philadelphia,203138,Hollis Thompson,,,16:10,112.7,126.2,-13.5,0.0,0.0,0.0,0.0,0.083,0.053,25.0,0.667,0.667,0.122,104.06,0.0,2014-02-03T00:00:00,3,1610612755,PHI,Philadelphia,15-34,16,33,20,33,0,0,0,0,0,0,0,0,0,0,102,0.521,0.714,0.4,20,38,25,0021300712,1610612755,PHI,Philadelphia,Hollis Thompson,,,16:10,0.0,0.0,0.0,2.0,10.0,1.0,7.0,12.0,0.0,0.0,3.0,0.0
0021300712,1610612755,PHI,Philadelphia,203138,Hollis Thompson,,,16:10,112.7,126.2,-13.5,0.0,0.0,0.0,0.0,0.083,0.053,25.0,0.667,0.667,0.122,104.06,0.0,2014-02-03T00:00:00,3,1610612751,BKN,Brooklyn,21-25,24,30,30,24,0,0,0,0,0,0,0,0,0,0,108,0.444,0.872,0.4,25,30,13,0021300712,1610612755,PHI,Philadelphia,Hollis Thompson,,,16:10,0.0,0.0,0.0,2.0,10.0,1.0,7.0,12.0,0.0,0.0,3.0,0.0
0021300712,1610612755,PHI,Philadelphia,203100,Tony Wroten,,,25:16,125.1,101.5,23.6,0.176,0.75,15.8,0.077,0.238,0.176,21.1,0.75,0.753,0.273,102.39,0.202,2014-02-03T00:00:00,3,1610612755,PHI,Philadelphia,15-34,16,33,20,33,0,0,0,0,0,0,0,0,0,0,102,0.521,0.714,0.4,20,38,25,0021300712,1610612755,PHI,Philadelphia,Tony Wroten,,,25:16,0.0,0.0,7.0,12.0,15.0,1.0,4.0,12.0,0.0,0.0,2.0,5.0
0021300712,1610612755,PHI,Philadelphia,203100,Tony Wroten,,,25:16,125.1,101.5,23.6,0.176,0.75,15.8,0.077,0.238,0.176,21.1,0.75,0.753,0.273,102.39,0.202,2014-02-03T00:00:00,3,1610612751,BKN,Brooklyn,21-25,24,30,30,24,0,0,0,0,0,0,0,0,0,0,108,0.444,0.872,0.4,25,30,13,0021300712,1610612755,PHI,Philadelphia,Tony Wroten,,,25:16,0.0,0.0,7.0,12.0,15.0,1.0,4.0,12.0,0.0,0.0,2.0,5.0
0021300712,1610612755,PHI,Philadelphia,202343,Elliot Williams,,,10:56,121.4,75.9,45.5,0.0,0.0,0.0,0.0,0.111,0.056,0.0,0.5,0.481,0.323,103.37,0.0,2014-02-03T00:00:00,3,1610612755,PHI,Philadelphia,15-34,16,33,20,33,0,0,0,0,0,0,0,0,0,0,102,0.521,0.714,0.4,20,38,25,0021300712,1610612755,PHI,Philadelphia,Elliot Williams,,,10:56,0.0,0.0,1.0,4.0,5.0,0.0,0.0,0.0,0.0,0.0,3.0,4.0
0021300712,1610612755,PHI,Philadelphia,202343,Elliot Williams,,,10:56,121.4,75.9,45.5,0.0,0.0,0.0,0.0,0.111,0.056,0.0,0.5,0.481,0.323,103.37,0.0,2014-02-03T00:00:00,3,1610612751,BKN,Brooklyn,21-25,24,30,30,24,0,0,0,0,0,0,0,0,0,0,108,0.444,0.872,0.4,25,30,13,0021300712,1610612755,PHI,Philadelphia,Elliot Williams,,,10:56,0.0,0.0,1.0,4.0,5.0,0.0,0.0,0.0,0.0,0.0,3.0,4.0
0021300712,1610612755,PHI,Philadelphia,203485,Lorenzo Brown,,DNP - Coach's Decision,,,,,,,0.0,,,,,,,0.0,,,2014-02-03T00:00:00,3,1610612755,PHI,Philadelphia,15-34,16,33,20,33,0,0,0,0,0,0,0,0,0,0,102,0.521,0.714,0.4,20,38,25,0021300712,1610612755,PHI,Philadelphia,Lorenzo Brown,,DNP - Coach's Decision,,,,,,,,,,,,,
0021300712,1610612755,PHI,Philadelphia,203485,Lorenzo Brown,,DNP - Coach's Decision,,,,,,,0.0,,,,,,,0.0,,,2014-02-03T00:00:00,3,1610612751,BKN,Brooklyn,21-25,24,30,30,24,0,0,0,0,0,0,0,0,0,0,108,0.444,0.872,0.4,25,30,13,0021300712,1610612755,PHI,Philadelphia,Lorenzo Brown,,DNP - Coach's Decision,,,,,,,,,,,,,
0021300712,1610612755,PHI,Philadelphia,203102,Arnett Moultrie,,DND - Right Ankle Injury,,,,,,,0.0,,,,,,,0.0,,,2014-02-03T00:00:00,3,1610612755,PHI,Philadelphia,15-34,16,33,20,33,0,0,0,0,0,0,0,0,0,0,102,0.521,0.714,0.4,20,38,25,0021300712,1610612755,PHI,Philadelphia,Arnett Moultrie,,DND - Right Ankle Injury,,,,,,,,,,,,,
0021300712,1610612755,PHI,Philadelphia,203102,Arnett Moultrie,,DND - Right Ankle Injury,,,,,,,0.0,,,,,,,0.0,,,2014-02-03T00:00:00,3,1610612751,BKN,Brooklyn,21-25,24,30,30,24,0,0,0,0,0,0,0,0,0,0,108,0.444,0.872,0.4,25,30,13,0021300712,1610612755,PHI,Philadelphia,Arnett Moultrie,,DND - Right Ankle Injury,,,,,,,,,,,,,
0021300712,1610612751,BKN,Brooklyn,101187,Alan Anderson,F,,31:15,110.3,87.5,22.9,0.0,0.0,0.0,0.0,0.136,0.068,23.5,0.125,0.256,0.186,101.41,-0.034,2014-02-03T00:00:00,3,1610612755,PHI,Philadelphia,15-34,16,33,20,33,0,0,0,0,0,0,0,0,0,0,102,0.521,0.714,0.4,20,38,25,0021300712,1610612751,BKN,Brooklyn,Alan Anderson,F,,31:15,0.0,1.0,0.0,0.0,9.0,6.0,5.0,26.0,0.0,0.0,1.0,3.0
0021300712,1610612751,BKN,Brooklyn,101187,Alan Anderson,F,,31:15,110.3,87.5,22.9,0.0,0.0,0.0,0.0,0.136,0.068,23.5,0.125,0.256,0.186,101.41,-0.034,2014-02-03T00:00:00,3,1610612751,BKN,Brooklyn,21-25,24,30,30,24,0,0,0,0,0,0,0,0,0,0,108,0.444,0.872,0.4,25,30,13,0021300712,1610612751,BKN,Brooklyn,Alan Anderson,F,,31:15,0.0,1.0,0.0,0.0,9.0,6.0,5.0,26.0,0.0,0.0,1.0,3.0
0021300712,1610612751,BKN,Brooklyn,1718,Paul Pierce,F,,34:19,121.6,94.9,26.7,0.091,2.0,11.0,0.042,0.087,0.064,5.5,0.611,0.825,0.216,98.25,0.167,2014-02-03T00:00:00,3,1610612755,PHI,Philadelphia,15-34,16,33,20,33,0,0,0,0,0,0,0,0,0,0,102,0.521,0.714,0.4,20,38,25,0021300712,1610612751,BKN,Brooklyn,Paul Pierce,F,,34:19,6.0,2.0,0.0,8.0,11.0,5.0,10.0,30.0,0.0,0.0,4.0,9.0
0021300712,1610612751,BKN,Brooklyn,1718,Paul Pierce,F,,34:19,121.6,94.9,26.7,0.091,2.0,11.0,0.042,0.087,0.064,5.5,0.611,0.825,0.216,98.25,0.167,2014-02-03T00:00:00,3,1610612751,BKN,Brooklyn,21-25,24,30,30,24,0,0,0,0,0,0,0,0,0,0,108,0.444,0.872,0.4,25,30,13,0021300712,1610612751,BKN,Brooklyn,Paul Pierce,F,,34:19,6.0,2.0,0.0,8.0,11.0,5.0,10.0,30.0,0.0,0.0,4.0,9.0
0021300712,1610612751,BKN,Brooklyn,708,Kevin Garnett,C,,20:41,96.0,82.7,13.3,0.364,4.0,36.8,0.125,0.25,0.194,9.2,0.4,0.51,0.147,98.68,0.266,2014-02-03T00:00:00,3,1610612755,PHI,Philadelphia,15-34,16,33,20,33,0,0,0,0,0,0,0,0,0,0,102,0.521,0.714,0.4,20,38,25,0021300712,1610612751,BKN,Brooklyn,Kevin Garnett,C,,20:41,4.0,4.0,0.0,2.0,9.0,3.0,2.0,16.0,5.0,0.0,0.0,1.0
0021300712,1610612751,BKN,Brooklyn,708,Kevin Garnett,C,,20:41,96.0,82.7,13.3,0.364,4.0,36.8,0.125,0.25,0.194,9.2,0.4,0.51,0.147,98.68,0.266,2014-02-03T00:00:00,3,1610612751,BKN,Brooklyn,21-25,24,30,30,24,0,0,0,0,0,0,0,0,0,0,108,0.444,0.872,0.4,25,30,13,0021300712,1610612751,BKN,Brooklyn,Kevin Garnett,C,,20:41,4.0,4.0,0.0,2.0,9.0,3.0,2.0,16.0,5.0,0.0,0.0,1.0
0021300712,1610612751,BKN,Brooklyn,2733,Shaun Livingston,G,,36:59,117.9,86.4,31.5,0.348,4.0,37.0,0.036,0.2,0.113,9.2,0.444,0.558,0.171,97.27,0.198,2014-02-03T00:00:00,3,1610612755,PHI,Philadelphia,15-34,16,33,20,33,0,0,0,0,0,0,0,0,0,0,102,0.521,0.714,0.4,20,38,25,0021300712,1610612751,BKN,Brooklyn,Shaun Livingston,G,,36:59,6.0,0.0,2.0,8.0,9.0,6.0,4.0,30.0,0.0,0.0,3.0,6.0
0021300712,1610612751,BKN,Brooklyn,2733,Shaun Livingston,G,,36:59,117.9,86.4,31.5,0.348,4.0,37.0,0.036,0.2,0.113,9.2,0.444,0.558,0.171,97.27,0.198,2014-02-03T00:00:00,3,1610612751,BKN,Brooklyn,21-25,24,30,30,24,0,0,0,0,0,0,0,0,0,0,108,0.444,0.872,0.4,25,30,13,0021300712,1610612751,BKN,Brooklyn,Shaun Livingston,G,,36:59,6.0,0.0,2.0,8.0,9.0,6.0,4.0,30.0,0.0,0.0,3.0,6.0
0021300712,1610612751,BKN,Brooklyn,101114,Deron Williams,G,,40:52,113.7,91.5,22.2,0.286,0.0,23.2,0.0,0.111,0.051,0.0,0.5,0.528,0.225,99.11,0.128,2014-02-03T00:00:00,3,1610612755,PHI,Philadelphia,15-34,16,33,20,33,0,0,0,0,0,0,0,0,0,0,102,0.521,0.714,0.4,20,38,25,0021300712,1610612751,BKN,Brooklyn,Deron Williams,G,,40:52,10.0,0.0,5.0,2.0,11.0,5.0,6.0,38.0,0.0,2.0,3.0,3.0
0021300712,1610612751,BKN,Brooklyn,101114,Deron Williams,G,,40:52,113.7,91.5,22.2,0.286,0.0,23.2,0.0,0.111,0.051,0.0,0.5,0.528,0.225,99.11,0.128,2014-02-03T00:00:00,3,1610612751,BKN,Brooklyn,21-25,24,30,30,24,0,0,0,0,0,0,0,0,0,0,108,0.444,0.872,0.4,25,30,13,0021300712,1610612751,BKN,Brooklyn,Deron Williams,G,,40:52,10.0,0.0,5.0,2.0,11.0,5.0,6.0,38.0,0.0,2.0,3.0,3.0
0021300712,1610612751,BKN,Brooklyn,203486,Mason Plumlee,,,11:48,134.8,91.7,43.1,0.286,2.0,34.0,0.125,0.429,0.267,17.0,1.0,1.042,0.172,94.75,0.203,2014-02-03T00:00:00,3,1610612755,PHI,Philadelphia,15-34,16,33,20,33,0,0,0,0,0,0,0,0,0,0,102,0.521,0.714,0.4,20,38,25,0021300712,1610612751,BKN,Brooklyn,Mason Plumlee,,,11:48,4.0,0.0,0.0,4.0,2.0,0.0,1.0,12.0,0.0,0.0,5.0,1.0
0021300712,1610612751,BKN,Brooklyn,203486,Mason Plumlee,,,11:48,134.8,91.7,43.1,0.286,2.0,34.0,0.125,0.429,0.267,17.0,1.0,1.042,0.172,94.75,0.203,2014-02-03T00:00:00,3,1610612751,BKN,Brooklyn,21-25,24,30,30,24,0,0,0,0,0,0,0,0,0,0,108,0.444,0.872,0.4,25,30,13,0021300712,1610612751,BKN,Brooklyn,Mason Plumlee,,,11:48,4.0,0.0,0.0,4.0,2.0,0.0,1.0,12.0,0.0,0.0,5.0,1.0
0021300712,1610612751,BKN,Brooklyn,1891,Jason Terry,,,12:29,73.3,130.3,-57.0,0.667,1.0,22.2,0.0,0.0,0.0,22.2,0.3,0.3,0.257,108.51,-0.061,2014-02-03T00:00:00,3,1610612755,PHI,Philadelphia,15-34,16,33,20,33,0,0,0,0,0,0,0,0,0,0,102,0.521,0.714,0.4,20,38,25,0021300712,1610612751,BKN,Brooklyn,Jason Terry,,,12:29,0.0,0.0,0.0,0.0,8.0,1.0,9.0,16.0,0.0,1.0,1.0,0.0
0021300712,1610612751,BKN,Brooklyn,1891,Jason Terry,,,12:29,73.3,130.3,-57.0,0.667,1.0,22.2,0.0,0.0,0.0,22.2,0.3,0.3,0.257,108.51,-0.061,2014-02-03T00:00:00,3,1610612751,BKN,Brooklyn,21-25,24,30,30,24,0,0,0,0,0,0,0,0,0,0,108,0.444,0.872,0.4,25,30,13,0021300712,1610612751,BKN,Brooklyn,Jason Terry,,,12:29,0.0,0.0,0.0,0.0,8.0,1.0,9.0,16.0,0.0,1.0,1.0,0.0
0021300712,1610612751,BKN,Brooklyn,203141,Mirza Teletovic,,,28:11,99.8,120.2,-20.4,0.0,0.0,0.0,0.0,0.15,0.073,7.4,0.792,0.804,0.224,100.78,0.13,2014-02-03T00:00:00,3,1610612755,PHI,Philadelphia,15-34,16,33,20,33,0,0,0,0,0,0,0,0,0,0,102,0.521,0.714,0.4,20,38,25,0021300712,1610612751,BKN,Brooklyn,Mirza Teletovic,,,28:11,2.0,0.0,5.0,4.0,12.0,1.0,12.0,32.0,1.0,0.0,4.0,1.0
0021300712,1610612751,BKN,Brooklyn,203141,Mirza Teletovic,,,28:11,99.8,120.2,-20.4,0.0,0.0,0.0,0.0,0.15,0.073,7.4,0.792,0.804,0.224,100.78,0.13,2014-02-03T00:00:00,3,1610612751,BKN,Brooklyn,21-25,24,30,30,24,0,0,0,0,0,0,0,0,0,0,108,0.444,0.872,0.4,25,30,13,0021300712,1610612751,BKN,Brooklyn,Mirza Teletovic,,,28:11,2.0,0.0,5.0,4.0,12.0,1.0,12.0,32.0,1.0,0.0,4.0,1.0
0021300712,1610612751,BKN,Brooklyn,2501,Reggie Evans,,,15:31,108.8,129.7,-20.9,0.0,0.0,0.0,0.0,0.0,0.0,0.0,0.5,0.539,0.133,106.5,0.016,2014-02-03T00:00:00,3,1610612755,PHI,Philadelphia,15-34,16,33,20,33,0,0,0,0,0,0,0,0,0,0,102,0.521,0.714,0.4,20,38,25,0021300712,1610612751,BKN,Brooklyn,Reggie Evans,,,15:31,0.0,0.0,0.0,2.0,6.0,3.0,11.0,18.0,0.0,0.0,1.0,3.0
0021300712,1610612751,BKN,Brooklyn,2501,Reggie Evans,,,15:31,108.8,129.7,-20.9,0.0,0.0,0.0,0.0,0.0,0.0,0.0,0.5,0.539,0.133,106.5,0.016,2014-02-03T00:00:00,3,1610612751,BKN,Brooklyn,21-25,24,30,30,24,0,0,0,0,0,0,0,0,0,0,108,0.444,0.872,0.4,25,30,13,0021300712,1610612751,BKN,Brooklyn,Reggie Evans,,,15:31,0.0,0.0,0.0,2.0,6.0,3.0,11.0,18.0,0.0,0.0,1.0,3.0
0021300712,1610612751,BKN,Brooklyn,203104,Marquis Teague,,,7:55,78.8,164.8,-86.0,0.333,0.5,20.5,0.0,0.2,0.111,41.0,1.0,1.064,0.218,109.02,0.051,2014-02-03T00:00:00,3,1610612755,PHI,Philadelphia,15-34,16,33,20,33,0,0,0,0,0,0,0,0,0,0,102,0.521,0.714,0.4,20,38,25,0021300712,1610612751,BKN,Brooklyn,Marquis Teague,,,7:55,0.0,0.0,0.0,2.0,8.0,0.0,10.0,12.0,0.0,0.0,2.0,1.0
0021300712,1610612751,BKN,Brooklyn,203104,Marquis Teague,,,7:55,78.8,164.8,-86.0,0.333,0.5,20.5,0.0,0.2,0.111,41.0,1.0,1.064,0.218,109.02,0.051,2014-02-03T00:00:00,3,1610612751,BKN,Brooklyn,21-25,24,30,30,24,0,0,0,0,0,0,0,0,0,0,108,0.444,0.872,0.4,25,30,13,0021300712,1610612751,BKN,Brooklyn,Marquis Teague,,,7:55,0.0,0.0,0.0,2.0,8.0,0.0,10.0,12.0,0.0,0.0,2.0,1.0
0021300712,1610612751,BKN,Brooklyn,101154,Andray Blatche,,DNP - Coach's Decision,,,,,,,0.0,,,,,,,0.0,,,2014-02-03T00:00:00,3,1610612755,PHI,Philadelphia,15-34,16,33,20,33,0,0,0,0,0,0,0,0,0,0,102,0.521,0.714,0.4,20,38,25,0021300712,1610612751,BKN,Brooklyn,Andray Blatche,,DNP - Coach's Decision,,,,,,,,,,,,,
0021300712,1610612751,BKN,Brooklyn,101154,Andray Blatche,,DNP - Coach's Decision,,,,,,,0.0,,,,,,,0.0,,,2014-02-03T00:00:00,3,1610612751,BKN,Brooklyn,21-25,24,30,30,24,0,0,0,0,0,0,0,0,0,0,108,0.444,0.872,0.4,25,30,13,0021300712,1610612751,BKN,Brooklyn,Andray Blatche,,DNP - Coach's Decision,,,,,,,,,,,,,
0021300712,1610612751,BKN,Brooklyn,2207,Joe Johnson,,DNP - Coach's Decision,,,,,,,0.0,,,,,,,0.0,,,2014-02-03T00:00:00,3,1610612755,PHI,Philadelphia,15-34,16,33,20,33,0,0,0,0,0,0,0,0,0,0,102,0.521,0.714,0.4,20,38,25,0021300712,1610612751,BKN,Brooklyn,Joe Johnson,,DNP - Coach's Decision,,,,,,,,,,,,,
0021300712,1610612751,BKN,Brooklyn,2207,Joe Johnson,,DNP - Coach's Decision,,,,,,,0.0,,,,,,,0.0,,,2014-02-03T00:00:00,3,1610612751,BKN,Brooklyn,21-25,24,30,30,24,0,0,0,0,0,0,0,0,0,0,108,0.444,0.872,0.4,25,30,13,0021300712,1610612751,BKN,Brooklyn,Joe Johnson,,DNP - Coach's Decision,,,,,,,,,,,,,
0021300712,1610612751,BKN,Brooklyn,1905,Andrei Kirilenko,,DND - Sore Right Calf,,,,,,,0.0,,,,,,,0.0,,,2014-02-03T00:00:00,3,1610612755,PHI,Philadelphia,15-34,16,33,20,33,0,0,0,0,0,0,0,0,0,0,102,0.521,0.714,0.4,20,38,25,0021300712,1610612751,BKN,Brooklyn,Andrei Kirilenko,,DND - Sore Right Calf,,,,,,,,,,,,,
0021300712,1610612751,BKN,Brooklyn,1905,Andrei Kirilenko,,DND - Sore Right Calf,,,,,,,0.0,,,,,,,0.0,,,2014-02-03T00:00:00,3,1610612751,BKN,Brooklyn,21-25,24,30,30,24,0,0,0,0,0,0,0,0,0,0,108,0.444,0.872,0.4,25,30,13,0021300712,1610612751,BKN,Brooklyn,Andrei Kirilenko,,DND - Sore Right Calf,,,,,,,,,,,,,
