GAME_ID_x,TEAM_ID_x,TEAM_ABBREVIATION_x,TEAM_CITY_x,PLAYER_ID,PLAYER_NAME_x,START_POSITION_x,COMMENT_x,MIN_x,OFF_RATING,DEF_RATING,NET_RATING,AST_PCT,AST_TOV,AST_RATIO,OREB_PCT,DREB_PCT,REB_PCT,TM_TOV_PCT,EFG_PCT,TS_PCT,USG_PCT,PACE,PIE,GAME_DATE_EST,GAME_SEQUENCE,TEAM_ID_y,TEAM_ABBREVIATION_y,TEAM_CITY_NAME,TEAM_WINS_LOSSES,PTS_QTR1,PTS_QTR2,PTS_QTR3,PTS_QTR4,PTS_OT1,PTS_OT2,PTS_OT3,PTS_OT4,PTS_OT5,PTS_OT6,PTS_OT7,PTS_OT8,PTS_OT9,PTS_OT10,PTS,FG_PCT,FT_PCT,FG3_PCT,AST,REB,TOV,GAME_ID_y,TEAM_ID,TEAM_ABBREVIATION,TEAM_CITY_y,PLAYER_NAME_y,START_POSITION_y,COMMENT_y,MIN_y,PTS_OFF_TOV,PTS_2ND_CHANCE,PTS_FB,PTS_PAINT,OPP_PTS_OFF_TOV,OPP_PTS_2ND_CHANCE,OPP_PTS_FB,OPP_PTS_PAINT,BLK,BLKA,PF,PFD
0021400305,1610612744,GSW,Golden State,203084,Harrison Barnes,F,,29:24,96.0,81.9,14.0,0.048,0.0,16.7,0.031,0.139,0.088,0.0,0.4,0.4,0.072,99.3,0.069,2014-12-08T00:00:00,5,1610612744,GSW,Golden State,18-2,25,23,31,23,0,0,0,0,0,0,0,0,0,0,102,0.462,0.929,0.227,24,51,17,0021400305,1610612744,GSW,Golden State,Harrison Barnes,F,,29:24,2.0,0.0,2.0,2.0,8.0,8.0,10.0,26.0,0.0,0.0,2.0,0.0
0021400305,1610612744,GSW,Golden State,203084,Harrison Barnes,F,,29:24,96.0,81.9,14.0,0.048,0.0,16.7,0.031,0.139,0.088,0.0,0.4,0.4,0.072,99.3,0.069,2014-12-08T00:00:00,5,1610612750,MIN,Minnesota,4-16,20,19,24,23,0,0,0,0,0,0,0,0,0,0,86,0.364,0.69,0.182,22,49,19,0021400305,1610612744,GSW,Golden State,Harrison Barnes,F,,29:24,2.0,0.0,2.0,2.0,8.0,8.0,10.0,26.0,0.0,0.0,2.0,0.0
0021400305,1610612744,GSW,Golden State,203110,Draymond Green,F,,30:23,111.6,75.1,36.5,0.111,1.0,16.9,0.071,0.258,0.169,16.9,0.3,0.425,0.201,103.57,0.121,2014-12-08T00:00:00,5,1610612744,GSW,Golden State,18-2,25,23,31,23,0,0,0,0,0,0,0,0,0,0,102,0.462,0.929,0.227,24,51,17,0021400305,1610612744,GSW,Golden State,Draymond Green,F,,30:23,2.0,2.0,2.0,6.0,9.0,9.0,9.0,18.0,1.0,0.0,1.0,3.0
0021400305,1610612744,GSW,Golden State,203110,Draymond Green,F,,30:23,111.6,75.1,36.5,0.111,1.0,16.9,0.071,0.258,0.169,16.9,0.3,0.425,0.201,103.57,0.121,2014-12-08T00:00:00,5,1610612750,MIN,Minnesota,4-16,20,19,24,23,0,0,0,0,0,0,0,0,0,0,86,0.364,0.69,0.182,22,49,19,0021400305,1610612744,GSW,Golden State,Draymond Green,F,,30:23,2.0,2.0,2.0,6.0,9.0,9.0,9.0,18.0,1.0,0.0,1.0,3.0
0021400305,1610612744,GSW,Golden State,101106,Andrew Bogut,C,,2:28,83.3,17.0,66.3,0.0,0.0,0.0,0.0,0.8,0.5,33.3,0.0,0.0,0.5,115.59,0.444,2014-12-08T00:00:00,5,1610612744,GSW,Golden State,18-2,25,23,31,23,0,0,0,0,0,0,0,0,0,0,102,0.462,0.929,0.227,24,51,17,0021400305,1610612744,GSW,Golden State,Andrew Bogut,C,,2:28,0.0,0.0,0.0,0.0,0.0,0.0,0.0,0.0,2.0,0.0,0.0,0.0
0021400305,1610612744,GSW,Golden State,101106,Andrew Bogut,C,,2:28,83.3,17.0,66.3,0.0,0.0,0.0,0.0,0.8,0.5,33.3,0.0,0.0,0.5,115.59,0.444,2014-12-08T00:00:00,5,1610612750,MIN,Minnesota,4-16,20,19,24,23,0,0,0,0,0,0,0,0,0,0,86,0.364,0.69,0.182,22,49,19,0021400305,1610612744,GSW,Golden State,Andrew Bogut,C,,2:28,0.0,0.0,0.0,0.0,0.0,0.0,0.0,0.0,2.0,0.0,0.0,0.0
0021400305,1610612744,GSW,Golden State,202691,Klay Thompson,G,,29:54,99.1,80.3,18.8,0.176,3.0,14.5,0.0,0.03,0.016,4.8,0.567,0.626,0.267,98.73,0.134,2014-12-08T00:00:00,5,1610612744,GSW,Golden State,18-2,25,23,31,23,0,0,0,0,0,0,0,0,0,0,102,0.462,0.929,0.227,24,51,17,0021400305,1610612744,GSW,Golden State,Klay Thompson,G,,29:54,2.0,2.0,3.0,6.0,7.0,9.0,11.0,24.0,0.0,1.0,2.0,2.0
0021400305,1610612744,GSW,Golden State,202691,Klay Thompson,G,,29:54,99.1,80.3,18.8,0.176,3.0,14.5,0.0,0.03,0.016,4.8,0.567,0.626,0.267,98.73,0.134,2014-12-08T00:00:00,5,1610612750,MIN,Minnesota,4-16,20,19,24,23,0,0,0,0,0,0,0,0,0,0,86,0.364,0.69,0.182,22,49,19,0021400305,1610612744,GSW,Golden State,Klay Thompson,G,,29:54,2.0,2.0,3.0,6.0,7.0,9.0,11.0,24.0,0.0,1.0,2.0,2.0
0021400305,1610612744,GSW,Golden State,201939,Stephen Curry,G,,31:20,108.4,71.7,36.7,0.35,2.33,23.3,0.032,0.088,0.062,10.0,0.525,0.525,0.305,102.55,0.172,2014-12-08T00:00:00,5,1610612744,GSW,Golden State,18-2,25,23,31,23,0,0,0,0,0,0,0,0,0,0,102,0.462,0.929,0.227,24,51,17,0021400305,1610612744,GSW,Golden State,Stephen Curry,G,,31:20,7.0,2.0,4.0,10.0,8.0,9.0,9.0,16.0,1.0,1.0,3.0,0.0
0021400305,1610612744,GSW,Golden State,201939,Stephen Curry,G,,31:20,108.4,71.7,36.7,0.35,2.33,23.3,0.032,0.088,0.062,10.0,0.525,0.525,0.305,102.55,0.172,2014-12-08T00:00:00,5,1610612750,MIN,Minnesota,4-16,20,19,24,23,0,0,0,0,0,0,0,0,0,0,86,0.364,0.69,0.182,22,49,19,0021400305,1610612744,GSW,Golden State,Stephen Curry,G,,31:20,7.0,2.0,4.0,10.0,8.0,9.0,9.0,16.0,1.0,1.0,3.0,0.0
0021400305,1610612744,GSW,Golden State,203105,Festus Ezeli,,,21:29,91.8,82.7,9.2,0.0,0.0,0.0,0.158,0.238,0.2,29.1,0.75,0.717,0.136,101.21,0.088,2014-12-08T00:00:00,5,1610612744,GSW,Golden State,18-2,25,23,31,23,0,0,0,0,0,0,0,0,0,0,102,0.462,0.929,0.227,24,51,17,0021400305,1610612744,GSW,Golden State,Festus Ezeli,,,21:29,0.0,2.0,0.0,4.0,9.0,2.0,12.0,22.0,1.0,0.0,3.0,2.0
0021400305,1610612744,GSW,Golden State,203105,Festus Ezeli,,,21:29,91.8,82.7,9.2,0.0,0.0,0.0,0.158,0.238,0.2,29.1,0.75,0.717,0.136,101.21,0.088,2014-12-08T00:00:00,5,1610612750,MIN,Minnesota,4-16,20,19,24,23,0,0,0,0,0,0,0,0,0,0,86,0.364,0.69,0.182,22,49,19,0021400305,1610612744,GSW,Golden State,Festus Ezeli,,,21:29,0.0,2.0,0.0,4.0,9.0,2.0,12.0,22.0,1.0,0.0,3.0,2.0
0021400305,1610612744,GSW,Golden State,2733,Shaun Livingston,,,25:30,106.4,98.0,8.3,0.316,1.5,31.8,0.105,0.103,0.104,21.2,0.625,0.676,0.206,101.23,0.163,2014-12-08T00:00:00,5,1610612744,GSW,Golden State,18-2,25,23,31,23,0,0,0,0,0,0,0,0,0,0,102,0.462,0.929,0.227,24,51,17,0021400305,1610612744,GSW,Golden State,Shaun Livingston,,,25:30,0.0,2.0,0.0,8.0,14.0,13.0,9.0,28.0,0.0,0.0,3.0,1.0
0021400305,1610612744,GSW,Golden State,2733,Shaun Livingston,,,25:30,106.4,98.0,8.3,0.316,1.5,31.8,0.105,0.103,0.104,21.2,0.625,0.676,0.206,101.23,0.163,2014-12-08T00:00:00,5,1610612750,MIN,Minnesota,4-16,20,19,24,23,0,0,0,0,0,0,0,0,0,0,86,0.364,0.69,0.182,22,49,19,0021400305,1610612744,GSW,Golden State,Shaun Livingston,,,25:30,0.0,2.0,0.0,8.0,14.0,13.0,9.0,28.0,0.0,0.0,3.0,1.0
0021400305,1610612744,GSW,Golden State,2738,Andre Iguodala,,,23:57,108.8,91.7,17.1,0.158,0.0,23.1,0.1,0.087,0.093,0.0,0.4,0.4,0.163,103.9,0.107,2014-12-08T00:00:00,5,1610612744,GSW,Golden State,18-2,25,23,31,23,0,0,0,0,0,0,0,0,0,0,102,0.462,0.929,0.227,24,51,17,0021400305,1610612744,GSW,Golden State,Andre Iguodala,,,23:57,2.0,0.0,2.0,6.0,11.0,10.0,6.0,22.0,0.0,0.0,0.0,0.0
0021400305,1610612744,GSW,Golden State,2738,Andre Iguodala,,,23:57,108.8,91.7,17.1,0.158,0.0,23.1,0.1,0.087,0.093,0.0,0.4,0.4,0.163,103.9,0.107,2014-12-08T00:00:00,5,1610612750,MIN,Minnesota,4-16,20,19,24,23,0,0,0,0,0,0,0,0,0,0,86,0.364,0.69,0.182,22,49,19,0021400305,1610612744,GSW,Golden State,Andre Iguodala,,,23:57,2.0,0.0,2.0,6.0,11.0,10.0,6.0,22.0,0.0,0.0,0.0,0.0
0021400305,1610612744,GSW,Golden State,201578,Marreese Speights,,,20:43,127.0,90.4,36.6,0.0,0.0,0.0,0.15,0.19,0.171,18.4,0.625,0.676,0.215,99.26,0.125,2014-12-08T00:00:00,5,1610612744,GSW,Golden State,18-2,25,23,31,23,0,0,0,0,0,0,0,0,0,0,102,0.462,0.929,0.227,24,51,17,0021400305,1610612744,GSW,Golden State,Marreese Speights,,,20:43,0.0,8.0,0.0,8.0,5.0,13.0,1.0,12.0,1.0,0.0,4.0,2.0
0021400305,1610612744,GSW,Golden State,201578,Marreese Speights,,,20:43,127.0,90.4,36.6,0.0,0.0,0.0,0.15,0.19,0.171,18.4,0.625,0.676,0.215,99.26,0.125,2014-12-08T00:00:00,5,1610612750,MIN,Minnesota,4-16,20,19,24,23,0,0,0,0,0,0,0,0,0,0,86,0.364,0.69,0.182,22,49,19,0021400305,1610612744,GSW,Golden State,Marreese Speights,,,20:43,0.0,8.0,0.0,8.0,5.0,13.0,1.0,12.0,1.0,0.0,4.0,2.0
0021400305,1610612744,GSW,Golden State,2571,Leandro Barbosa,,,8:38,78.8,107.3,-28.5,0.333,0.0,16.7,0.0,0.0,0.0,0.0,0.4,0.4,0.22,101.19,0.077,2014-12-08T00:00:00,5,1610612744,GSW,Golden State,18-2,25,23,31,23,0,0,0,0,0,0,0,0,0,0,102,0.462,0.929,0.227,24,51,17,0021400305,1610612744,GSW,Golden State,Leandro Barbosa,,,8:38,2.0,0.0,2.0,4.0,5.0,5.0,3.0,12.0,0.0,2.0,0.0,0.0
0021400305,1610612744,GSW,Golden State,2571,Leandro Barbosa,,,8:38,78.8,107.3,-28.5,0.333,0.0,16.7,0.0,0.0,0.0,0.0,0.4,0.4,0.22,101.19,0.077,2014-12-08T00:00:00,5,1610612750,MIN,Minnesota,4-16,20,19,24,23,0,0,0,0,0,0,0,0,0,0,86,0.364,0.69,0.182,22,49,19,0021400305,1610612744,GSW,Golden State,Leandro Barbosa,,,8:38,2.0,0.0,2.0,4.0,5.0,5.0,3.0,12.0,0.0,2.0,0.0,0.0
0021400305,1610612744,GSW,Golden State,201575,Brandon Rush,,,6:25,75.0,102.0,-27.0,0.0,0.0,0.0,0.0,0.0,0.0,0.0,0.0,0.0,0.077,88.87,0.0,2014-12-08T00:00:00,5,1610612744,GSW,Golden State,18-2,25,23,31,23,0,0,0,0,0,0,0,0,0,0,102,0.462,0.929,0.227,24,51,17,0021400305,1610612744,GSW,Golden State,Brandon Rush,,,6:25,0.0,0.0,0.0,0.0,3.0,3.0,3.0,8.0,0.0,0.0,0.0,0.0
0021400305,1610612744,GSW,Golden State,201575,Brandon Rush,,,6:25,75.0,102.0,-27.0,0.0,0.0,0.0,0.0,0.0,0.0,0.0,0.0,0.0,0.077,88.87,0.0,2014-12-08T00:00:00,5,1610612750,MIN,Minnesota,4-16,20,19,24,23,0,0,0,0,0,0,0,0,0,0,86,0.364,0.69,0.182,22,49,19,0021400305,1610612744,GSW,Golden State,Brandon Rush,,,6:25,0.0,0.0,0.0,0.0,3.0,3.0,3.0,8.0,0.0,0.0,0.0,0.0
0021400305,1610612744,GSW,Golden State,203200,Justin Holiday,,,6:29,100.0,103.1,-3.1,0.0,0.0,0.0,0.0,0.0,0.0,33.3,0.75,0.75,0.25,83.81,0.061,2014-12-08T00:00:00,5,1610612744,GSW,Golden State,18-2,25,23,31,23,0,0,0,0,0,0,0,0,0,0,102,0.462,0.929,0.227,24,51,17,0021400305,1610612744,GSW,Golden State,Justin Holiday,,,6:29,0.0,0.0,0.0,0.0,3.0,6.0,4.0,6.0,0.0,0.0,0.0,0.0
0021400305,1610612744,GSW,Golden State,203200,Justin Holiday,,,6:29,100.0,103.1,-3.1,0.0,0.0,0.0,0.0,0.0,0.0,33.3,0.75,0.75,0.25,83.81,0.061,2014-12-08T00:00:00,5,1610612750,MIN,Minnesota,4-16,20,19,24,23,0,0,0,0,0,0,0,0,0,0,86,0.364,0.69,0.182,22,49,19,0021400305,1610612744,GSW,Golden State,Justin Holiday,,,6:29,0.0,0.0,0.0,0.0,3.0,6.0,4.0,6.0,0.0,0.0,0.0,0.0
0021400305,1610612744,GSW,Golden State,203136,Ognjen Kuzmic,,,3:20,33.3,118.3,-85.0,0.0,0.0,0.0,0.25,0.143,0.182,0.0,0.0,0.0,0.143,91.87,0.083,2014-12-08T00:00:00,5,1610612744,GSW,Golden State,18-2,25,23,31,23,0,0,0,0,0,0,0,0,0,0,102,0.462,0.929,0.227,24,51,17,0021400305,1610612744,GSW,Golden State,Ognjen Kuzmic,,,3:20,0.0,0.0,0.0,0.0,3.0,3.0,3.0,6.0,0.0,0.0,0.0,0.0
0021400305,1610612744,GSW,Golden State,203136,Ognjen Kuzmic,,,3:20,33.3,118.3,-85.0,0.0,0.0,0.0,0.25,0.143,0.182,0.0,0.0,0.0,0.143,91.87,0.083,2014-12-08T00:00:00,5,1610612750,MIN,Minnesota,4-16,20,19,24,23,0,0,0,0,0,0,0,0,0,0,86,0.364,0.69,0.182,22,49,19,0021400305,1610612744,GSW,Golden State,Ognjen Kuzmic,,,3:20,0.0,0.0,0.0,0.0,3.0,3.0,3.0,6.0,0.0,0.0,0.0,0.0
0021400305,1610612750,MIN,Minnesota,203952,Andrew Wiggins,F,,38:24,79.0,108.3,-29.3,0.188,0.75,10.5,0.048,0.088,0.066,14.0,0.444,0.488,0.274,101.03,0.063,2014-12-08T00:00:00,5,1610612744,GSW,Golden State,18-2,25,23,31,23,0,0,0,0,0,0,0,0,0,0,102,0.462,0.929,0.227,24,51,17,0021400305,1610612750,MIN,Minnesota,Andrew Wiggins,F,,38:24,3.0,2.0,2.0,8.0,15.0,14.0,13.0,46.0,0.0,1.0,2.0,4.0
0021400305,1610612750,MIN,Minnesota,203952,Andrew Wiggins,F,,38:24,79.0,108.3,-29.3,0.188,0.75,10.5,0.048,0.088,0.066,14.0,0.444,0.488,0.274,101.03,0.063,2014-12-08T00:00:00,5,1610612750,MIN,Minnesota,4-16,20,19,24,23,0,0,0,0,0,0,0,0,0,0,86,0.364,0.69,0.182,22,49,19,0021400305,1610612750,MIN,Minnesota,Andrew Wiggins,F,,38:24,3.0,2.0,2.0,8.0,15.0,14.0,13.0,46.0,0.0,1.0,2.0,4.0
0021400305,1610612750,MIN,Minnesota,201152,Thaddeus Young,F,,30:15,76.9,105.3,-28.4,0.067,0.5,6.5,0.088,0.125,0.106,13.1,0.5,0.528,0.192,105.62,0.079,2014-12-08T00:00:00,5,1610612744,GSW,Golden State,18-2,25,23,31,23,0,0,0,0,0,0,0,0,0,0,102,0.462,0.929,0.227,24,51,17,0021400305,1610612750,MIN,Minnesota,Thaddeus Young,F,,30:15,0.0,4.0,3.0,4.0,11.0,16.0,8.0,38.0,0.0,2.0,2.0,2.0
0021400305,1610612750,MIN,Minnesota,201152,Thaddeus Young,F,,30:15,76.9,105.3,-28.4,0.067,0.5,6.5,0.088,0.125,0.106,13.1,0.5,0.528,0.192,105.62,0.079,2014-12-08T00:00:00,5,1610612750,MIN,Minnesota,4-16,20,19,24,23,0,0,0,0,0,0,0,0,0,0,86,0.364,0.69,0.182,22,49,19,0021400305,1610612750,MIN,Minnesota,Thaddeus Young,F,,30:15,0.0,4.0,3.0,4.0,11.0,16.0,8.0,38.0,0.0,2.0,2.0,2.0
0021400305,1610612750,MIN,Minnesota,203476,Gorgui Dieng,C,,27:08,85.6,100.6,-15.1,0.222,4.0,40.5,0.0,0.44,0.212,10.1,0.5,0.615,0.091,103.7,0.159,2014-12-08T00:00:00,5,1610612744,GSW,Golden State,18-2,25,23,31,23,0,0,0,0,0,0,0,0,0,0,102,0.462,0.929,0.227,24,51,17,0021400305,1610612750,MIN,Minnesota,Gorgui Dieng,C,,27:08,2.0,0.0,0.0,4.0,10.0,8.0,10.0,32.0,2.0,0.0,1.0,1.0
0021400305,1610612750,MIN,Minnesota,203476,Gorgui Dieng,C,,27:08,85.6,100.6,-15.1,0.222,4.0,40.5,0.0,0.44,0.212,10.1,0.5,0.615,0.091,103.7,0.159,2014-12-08T00:00:00,5,1610612750,MIN,Minnesota,4-16,20,19,24,23,0,0,0,0,0,0,0,0,0,0,86,0.364,0.69,0.182,22,49,19,0021400305,1610612750,MIN,Minnesota,Gorgui Dieng,C,,27:08,2.0,0.0,0.0,4.0,10.0,8.0,10.0,32.0,2.0,0.0,1.0,1.0
0021400305,1610612750,MIN,Minnesota,201147,Corey Brewer,G,,33:11,79.6,95.4,-15.8,0.211,2.0,20.2,0.081,0.027,0.054,10.1,0.333,0.363,0.189,103.34,0.067,2014-12-08T00:00:00,5,1610612744,GSW,Golden State,18-2,25,23,31,23,0,0,0,0,0,0,0,0,0,0,102,0.462,0.929,0.227,24,51,17,0021400305,1610612750,MIN,Minnesota,Corey Brewer,G,,33:11,1.0,2.0,3.0,6.0,12.0,12.0,13.0,34.0,0.0,0.0,2.0,4.0
0021400305,1610612750,MIN,Minnesota,201147,Corey Brewer,G,,33:11,79.6,95.4,-15.8,0.211,2.0,20.2,0.081,0.027,0.054,10.1,0.333,0.363,0.189,103.34,0.067,2014-12-08T00:00:00,5,1610612750,MIN,Minnesota,4-16,20,19,24,23,0,0,0,0,0,0,0,0,0,0,86,0.364,0.69,0.182,22,49,19,0021400305,1610612750,MIN,Minnesota,Corey Brewer,G,,33:11,1.0,2.0,3.0,6.0,12.0,12.0,13.0,34.0,0.0,0.0,2.0,4.0
0021400305,1610612750,MIN,Minnesota,203897,Zach LaVine,G,,41:08,83.0,102.1,-19.1,0.348,1.33,25.9,0.021,0.071,0.044,19.4,0.25,0.267,0.222,99.35,0.024,2014-12-08T00:00:00,5,1610612744,GSW,Golden State,18-2,25,23,31,23,0,0,0,0,0,0,0,0,0,0,102,0.462,0.929,0.227,24,51,17,0021400305,1610612750,MIN,Minnesota,Zach LaVine,G,,41:08,4.0,0.0,5.0,6.0,11.0,14.0,13.0,40.0,0.0,1.0,1.0,1.0
0021400305,1610612750,MIN,Minnesota,203897,Zach LaVine,G,,41:08,83.0,102.1,-19.1,0.348,1.33,25.9,0.021,0.071,0.044,19.4,0.25,0.267,0.222,99.35,0.024,2014-12-08T00:00:00,5,1610612750,MIN,Minnesota,4-16,20,19,24,23,0,0,0,0,0,0,0,0,0,0,86,0.364,0.69,0.182,22,49,19,0021400305,1610612750,MIN,Minnesota,Zach LaVine,G,,41:08,4.0,0.0,5.0,6.0,11.0,14.0,13.0,40.0,0.0,1.0,1.0,1.0
0021400305,1610612750,MIN,Minnesota,203498,Shabazz Muhammad,,,18:19,89.6,122.8,-33.2,0.125,0.5,7.3,0.111,0.0,0.063,14.7,0.5,0.658,0.268,107.02,0.115,2014-12-08T00:00:00,5,1610612744,GSW,Golden State,18-2,25,23,31,23,0,0,0,0,0,0,0,0,0,0,102,0.462,0.929,0.227,24,51,17,0021400305,1610612750,MIN,Minnesota,Shabazz Muhammad,,,18:19,4.0,4.0,2.0,6.0,13.0,14.0,6.0,32.0,0.0,2.0,1.0,3.0
0021400305,1610612750,MIN,Minnesota,203498,Shabazz Muhammad,,,18:19,89.6,122.8,-33.2,0.125,0.5,7.3,0.111,0.0,0.063,14.7,0.5,0.658,0.268,107.02,0.115,2014-12-08T00:00:00,5,1610612750,MIN,Minnesota,4-16,20,19,24,23,0,0,0,0,0,0,0,0,0,0,86,0.364,0.69,0.182,22,49,19,0021400305,1610612750,MIN,Minnesota,Shabazz Muhammad,,,18:19,4.0,4.0,2.0,6.0,13.0,14.0,6.0,32.0,0.0,2.0,1.0,3.0
0021400305,1610612750,MIN,Minnesota,203461,Anthony Bennett,,,14:23,75.4,108.1,-32.8,0.0,0.0,0.0,0.0,0.313,0.147,0.0,0.25,0.25,0.208,101.85,0.085,2014-12-08T00:00:00,5,1610612744,GSW,Golden State,18-2,25,23,31,23,0,0,0,0,0,0,0,0,0,0,102,0.462,0.929,0.227,24,51,17,0021400305,1610612750,MIN,Minnesota,Anthony Bennett,,,14:23,0.0,0.0,0.0,2.0,7.0,10.0,5.0,16.0,1.0,0.0,1.0,1.0
0021400305,1610612750,MIN,Minnesota,203461,Anthony Bennett,,,14:23,75.4,108.1,-32.8,0.0,0.0,0.0,0.0,0.313,0.147,0.0,0.25,0.25,0.208,101.85,0.085,2014-12-08T00:00:00,5,1610612750,MIN,Minnesota,4-16,20,19,24,23,0,0,0,0,0,0,0,0,0,0,86,0.364,0.69,0.182,22,49,19,0021400305,1610612750,MIN,Minnesota,Anthony Bennett,,,14:23,0.0,0.0,0.0,2.0,7.0,10.0,5.0,16.0,1.0,0.0,1.0,1.0
0021400305,1610612750,MIN,Minnesota,203133,Robbie Hummel,,,15:05,99.5,87.7,11.7,0.1,1.0,20.0,0.222,0.077,0.161,20.0,0.0,0.0,0.102,93.56,0.04,2014-12-08T00:00:00,5,1610612744,GSW,Golden State,18-2,25,23,31,23,0,0,0,0,0,0,0,0,0,0,102,0.462,0.929,0.227,24,51,17,0021400305,1610612750,MIN,Minnesota,Robbie Hummel,,,15:05,0.0,0.0,0.0,0.0,6.0,2.0,7.0,14.0,1.0,0.0,0.0,0.0
0021400305,1610612750,MIN,Minnesota,203133,Robbie Hummel,,,15:05,99.5,87.7,11.7,0.1,1.0,20.0,0.222,0.077,0.161,20.0,0.0,0.0,0.102,93.56,0.04,2014-12-08T00:00:00,5,1610612750,MIN,Minnesota,4-16,20,19,24,23,0,0,0,0,0,0,0,0,0,0,86,0.364,0.69,0.182,22,49,19,0021400305,1610612750,MIN,Minnesota,Robbie Hummel,,,15:05,0.0,0.0,0.0,0.0,6.0,2.0,7.0,14.0,1.0,0.0,0.0,0.0
0021400305,1610612750,MIN,Minnesota,201978,Chase Budinger,,,8:40,115.1,86.7,28.4,0.0,0.0,0.0,0.0,0.0,0.0,0.0,0.625,0.625,0.194,84.85,0.145,2014-12-08T00:00:00,5,1610612744,GSW,Golden State,18-2,25,23,31,23,0,0,0,0,0,0,0,0,0,0,102,0.462,0.929,0.227,24,51,17,0021400305,1610612750,MIN,Minnesota,Chase Budinger,,,8:40,0.0,3.0,0.0,2.0,0.0,0.0,0.0,6.0,0.0,0.0,0.0,0.0
0021400305,1610612750,MIN,Minnesota,201978,Chase Budinger,,,8:40,115.1,86.7,28.4,0.0,0.0,0.0,0.0,0.0,0.0,0.0,0.625,0.625,0.194,84.85,0.145,2014-12-08T00:00:00,5,1610612750,MIN,Minnesota,4-16,20,19,24,23,0,0,0,0,0,0,0,0,0,0,86,0.364,0.69,0.182,22,49,19,0021400305,1610612750,MIN,Minnesota,Chase Budinger,,,8:40,0.0,3.0,0.0,2.0,0.0,0.0,0.0,6.0,0.0,0.0,0.0,0.0
0021400305,1610612750,MIN,Minnesota,203922,Glenn Robinson III,,,6:58,110.8,91.7,19.1,0.0,0.0,0.0,0.222,0.333,0.267,20.5,0.333,0.387,0.277,84.88,0.103,2014-12-08T00:00:00,5,1610612744,GSW,Golden State,18-2,25,23,31,23,0,0,0,0,0,0,0,0,0,0,102,0.462,0.929,0.227,24,51,17,0021400305,1610612750,MIN,Minnesota,Glenn Robinson III,,,6:58,3.0,2.0,1.0,2.0,0.0,0.0,0.0,6.0,0.0,0.0,0.0,1.0
0021400305,1610612750,MIN,Minnesota,203922,Glenn Robinson III,,,6:58,110.8,91.7,19.1,0.0,0.0,0.0,0.222,0.333,0.267,20.5,0.333,0.387,0.277,84.88,0.103,2014-12-08T00:00:00,5,1610612750,MIN,Minnesota,4-16,20,19,24,23,0,0,0,0,0,0,0,0,0,0,86,0.364,0.69,0.182,22,49,19,0021400305,1610612750,MIN,Minnesota,Glenn Robinson III,,,6:58,3.0,2.0,1.0,2.0,0.0,0.0,0.0,6.0,0.0,0.0,0.0,1.0
0021400305,1610612750,MIN,Minnesota,202399,Jeff Adrien,,,6:29,103.1,100.0,3.1,0.0,0.0,0.0,0.111,0.2,0.143,0.0,0.0,0.266,0.113,83.81,0.03,2014-12-08T00:00:00,5,1610612744,GSW,Golden State,18-2,25,23,31,23,0,0,0,0,0,0,0,0,0,0,102,0.462,0.929,0.227,24,51,17,0021400305,1610612750,MIN,Minnesota,Jeff Adrien,,,6:29,0.0,1.0,0.0,0.0,0.0,0.0,0.0,6.0,0.0,0.0,0.0,1.0
0021400305,1610612750,MIN,Minnesota,202399,Jeff Adrien,,,6:29,103.1,100.0,3.1,0.0,0.0,0.0,0.111,0.2,0.143,0.0,0.0,0.266,0.113,83.81,0.03,2014-12-08T00:00:00,5,1610612750,MIN,Minnesota,4-16,20,19,24,23,0,0,0,0,0,0,0,0,0,0,86,0.364,0.69,0.182,22,49,19,0021400305,1610612750,MIN,Minnesota,Jeff Adrien,,,6:29,0.0,1.0,0.0,0.0,0.0,0.0,0.0,6.0,0.0,0.0,0.0,1.0
0021400305,1610612750,MIN,Minnesota,201593,Nikola Pekovic,,DND - Sprained Right Wrist              ,,,,,,,0.0,,,,,,,0.0,,,2014-12-08T00:00:00,5,1610612744,GSW,Golden State,18-2,25,23,31,23,0,0,0,0,0,0,0,0,0,0,102,0.462,0.929,0.227,24,51,17,0021400305,1610612750,MIN,Minnesota,Nikola Pekovic,,DND - Sprained Right Wrist              ,,,,,,,,,,,,,
0021400305,1610612750,MIN,Minnesota,201593,Nikola Pekovic,,DND - Sprained Right Wrist              ,,,,,,,0.0,,,,,,,0.0,,,2014-12-08T00:00:00,5,1610612750,MIN,Minnesota,4-16,20,19,24,23,0,0,0,0,0,0,0,0,0,0,86,0.364,0.69,0.182,22,49,19,0021400305,1610612750,MIN,Minnesota,Nikola Pekovic,,DND - Sprained Right Wrist              ,,,,,,,,,,,,,
0021400305,1610612750,MIN,Minnesota,2590,Mo Williams,,NWT - Back Spasms                       ,,,,,,,0.0,,,,,,,0.0,,,2014-12-08T00:00:00,5,1610612744,GSW,Golden State,18-2,25,23,31,23,0,0,0,0,0,0,0,0,0,0,102,0.462,0.929,0.227,24,51,17,0021400305,1610612750,MIN,Minnesota,Mo Williams,,NWT - Back Spasms                       ,,,,,,,,,,,,,
0021400305,1610612750,MIN,Minnesota,2590,Mo Williams,,NWT - Back Spasms                       ,,,,,,,0.0,,,,,,,0.0,,,2014-12-08T00:00:00,5,1610612750,MIN,Minnesota,4-16,20,19,24,23,0,0,0,0,0,0,0,0,0,0,86,0.364,0.69,0.182,22,49,19,0021400305,1610612750,MIN,Minnesota,Mo Williams,,NWT - Back Spasms                       ,,,,,,,,,,,,,
