GAME_ID_x,TEAM_ID_x,TEAM_ABBREVIATION_x,TEAM_CITY_x,PLAYER_ID,PLAYER_NAME_x,START_POSITION_x,COMMENT_x,MIN_x,OFF_RATING,DEF_RATING,NET_RATING,AST_PCT,AST_TOV,AST_RATIO,OREB_PCT,DREB_PCT,REB_PCT,TM_TOV_PCT,EFG_PCT,TS_PCT,USG_PCT,PACE,PIE,GAME_DATE_EST,GAME_SEQUENCE,TEAM_ID_y,TEAM_ABBREVIATION_y,TEAM_CITY_NAME,TEAM_WINS_LOSSES,PTS_QTR1,PTS_QTR2,PTS_QTR3,PTS_QTR4,PTS_OT1,PTS_OT2,PTS_OT3,PTS_OT4,PTS_OT5,PTS_OT6,PTS_OT7,PTS_OT8,PTS_OT9,PTS_OT10,PTS,FG_PCT,FT_PCT,FG3_PCT,AST,REB,TOV,GAME_ID_y,TEAM_ID,TEAM_ABBREVIATION,TEAM_CITY_y,PLAYER_NAME_y,START_POSITION_y,COMMENT_y,MIN_y,PTS_OFF_TOV,PTS_2ND_CHANCE,PTS_FB,PTS_PAINT,OPP_PTS_OFF_TOV,OPP_PTS_2ND_CHANCE,OPP_PTS_FB,OPP_PTS_PAINT,BLK,BLKA,PF,PFD
0021400317,1610612746,LAC,Los Angeles,2440,Matt Barnes,F,,29:09,121.3,99.5,21.8,0.038,0.33,7.8,0.0,0.161,0.091,23.3,0.563,0.619,0.179,95.34,0.071,2014-12-10T00:00:00,2,1610612746,LAC,Los Angeles,16-5,33,21,28,21,0,0,0,0,0,0,0,0,0,0,103,0.477,0.857,0.292,25,50,12,0021400317,1610612746,LAC,Los Angeles,Matt Barnes,F,,29:09,0.0,0.0,9.0,6.0,10.0,11.0,6.0,16.0,1.0,0.0,2.0,3.0
0021400317,1610612746,LAC,Los Angeles,2440,Matt Barnes,F,,29:09,121.3,99.5,21.8,0.038,0.33,7.8,0.0,0.161,0.091,23.3,0.563,0.619,0.179,95.34,0.071,2014-12-10T00:00:00,2,1610612754,IND,Indiana,7-15,25,24,16,31,0,0,0,0,0,0,0,0,0,0,96,0.393,0.773,0.333,27,43,11,0021400317,1610612746,LAC,Los Angeles,Matt Barnes,F,,29:09,0.0,0.0,9.0,6.0,10.0,11.0,6.0,16.0,1.0,0.0,2.0,3.0
0021400317,1610612746,LAC,Los Angeles,201933,Blake Griffin,F,,37:59,115.4,86.5,28.8,0.172,0.0,21.0,0.1,0.152,0.132,0.0,0.412,0.453,0.217,96.41,0.139,2014-12-10T00:00:00,2,1610612746,LAC,Los Angeles,16-5,33,21,28,21,0,0,0,0,0,0,0,0,0,0,103,0.477,0.857,0.292,25,50,12,0021400317,1610612746,LAC,Los Angeles,Blake Griffin,F,,37:59,4.0,6.0,4.0,14.0,17.0,20.0,5.0,20.0,2.0,0.0,1.0,3.0
0021400317,1610612746,LAC,Los Angeles,201933,Blake Griffin,F,,37:59,115.4,86.5,28.8,0.172,0.0,21.0,0.1,0.152,0.132,0.0,0.412,0.453,0.217,96.41,0.139,2014-12-10T00:00:00,2,1610612754,IND,Indiana,7-15,25,24,16,31,0,0,0,0,0,0,0,0,0,0,96,0.393,0.773,0.333,27,43,11,0021400317,1610612746,LAC,Los Angeles,Blake Griffin,F,,37:59,4.0,6.0,4.0,14.0,17.0,20.0,5.0,20.0,2.0,0.0,1.0,3.0
0021400317,1610612746,LAC,Los Angeles,201599,DeAndre Jordan,C,,34:24,121.6,93.9,27.7,0.0,0.0,0.0,0.24,0.325,0.292,9.7,0.625,0.644,0.134,95.19,0.172,2014-12-10T00:00:00,2,1610612746,LAC,Los Angeles,16-5,33,21,28,21,0,0,0,0,0,0,0,0,0,0,103,0.477,0.857,0.292,25,50,12,0021400317,1610612746,LAC,Los Angeles,DeAndre Jordan,C,,34:24,2.0,4.0,3.0,10.0,14.0,20.0,6.0,20.0,3.0,0.0,3.0,5.0
0021400317,1610612746,LAC,Los Angeles,201599,DeAndre Jordan,C,,34:24,121.6,93.9,27.7,0.0,0.0,0.0,0.24,0.325,0.292,9.7,0.625,0.644,0.134,95.19,0.172,2014-12-10T00:00:00,2,1610612754,IND,Indiana,7-15,25,24,16,31,0,0,0,0,0,0,0,0,0,0,96,0.393,0.773,0.333,27,43,11,0021400317,1610612746,LAC,Los Angeles,DeAndre Jordan,C,,34:24,2.0,4.0,3.0,10.0,14.0,20.0,6.0,20.0,3.0,0.0,3.0,5.0
0021400317,1610612746,LAC,Los Angeles,200755,JJ Redick,G,,31:29,114.3,83.2,31.2,0.043,0.0,8.3,0.0,0.028,0.017,0.0,0.727,0.727,0.155,96.3,0.116,2014-12-10T00:00:00,2,1610612746,LAC,Los Angeles,16-5,33,21,28,21,0,0,0,0,0,0,0,0,0,0,103,0.477,0.857,0.292,25,50,12,0021400317,1610612746,LAC,Los Angeles,JJ Redick,G,,31:29,0.0,0.0,0.0,2.0,12.0,16.0,2.0,16.0,0.0,0.0,1.0,1.0
0021400317,1610612746,LAC,Los Angeles,200755,JJ Redick,G,,31:29,114.3,83.2,31.2,0.043,0.0,8.3,0.0,0.028,0.017,0.0,0.727,0.727,0.155,96.3,0.116,2014-12-10T00:00:00,2,1610612754,IND,Indiana,7-15,25,24,16,31,0,0,0,0,0,0,0,0,0,0,96,0.393,0.773,0.333,27,43,11,0021400317,1610612746,LAC,Los Angeles,JJ Redick,G,,31:29,0.0,0.0,0.0,2.0,12.0,16.0,2.0,16.0,0.0,0.0,1.0,1.0
0021400317,1610612746,LAC,Los Angeles,101108,Chris Paul,G,,37:09,111.7,82.0,29.8,0.556,3.75,41.3,0.032,0.152,0.104,11.0,0.438,0.491,0.253,96.06,0.201,2014-12-10T00:00:00,2,1610612746,LAC,Los Angeles,16-5,33,21,28,21,0,0,0,0,0,0,0,0,0,0,103,0.477,0.857,0.292,25,50,12,0021400317,1610612746,LAC,Los Angeles,Chris Paul,G,,37:09,4.0,0.0,3.0,2.0,15.0,22.0,3.0,20.0,0.0,1.0,4.0,3.0
0021400317,1610612746,LAC,Los Angeles,101108,Chris Paul,G,,37:09,111.7,82.0,29.8,0.556,3.75,41.3,0.032,0.152,0.104,11.0,0.438,0.491,0.253,96.06,0.201,2014-12-10T00:00:00,2,1610612754,IND,Indiana,7-15,25,24,16,31,0,0,0,0,0,0,0,0,0,0,96,0.393,0.773,0.333,27,43,11,0021400317,1610612746,LAC,Los Angeles,Chris Paul,G,,37:09,4.0,0.0,3.0,2.0,15.0,22.0,3.0,20.0,0.0,1.0,4.0,3.0
0021400317,1610612746,LAC,Los Angeles,2037,Jamal Crawford,,,26:20,86.7,115.7,-29.0,0.182,0.5,10.6,0.0,0.111,0.057,21.2,0.667,0.699,0.296,100.39,0.114,2014-12-10T00:00:00,2,1610612746,LAC,Los Angeles,16-5,33,21,28,21,0,0,0,0,0,0,0,0,0,0,103,0.477,0.857,0.292,25,50,12,0021400317,1610612746,LAC,Los Angeles,Jamal Crawford,,,26:20,2.0,0.0,0.0,2.0,11.0,18.0,8.0,26.0,0.0,0.0,2.0,1.0
0021400317,1610612746,LAC,Los Angeles,2037,Jamal Crawford,,,26:20,86.7,115.7,-29.0,0.182,0.5,10.6,0.0,0.111,0.057,21.2,0.667,0.699,0.296,100.39,0.114,2014-12-10T00:00:00,2,1610612754,IND,Indiana,7-15,25,24,16,31,0,0,0,0,0,0,0,0,0,0,96,0.393,0.773,0.333,27,43,11,0021400317,1610612746,LAC,Los Angeles,Jamal Crawford,,,26:20,2.0,0.0,0.0,2.0,11.0,18.0,8.0,26.0,0.0,0.0,2.0,1.0
0021400317,1610612746,LAC,Los Angeles,201150,Spencer Hawes,,,14:56,69.0,114.2,-45.2,0.143,0.0,12.5,0.0,0.154,0.065,0.0,0.357,0.357,0.213,104.72,0.043,2014-12-10T00:00:00,2,1610612746,LAC,Los Angeles,16-5,33,21,28,21,0,0,0,0,0,0,0,0,0,0,103,0.477,0.857,0.292,25,50,12,0021400317,1610612746,LAC,Los Angeles,Spencer Hawes,,,14:56,0.0,0.0,0.0,0.0,5.0,7.0,6.0,14.0,1.0,0.0,2.0,0.0
0021400317,1610612746,LAC,Los Angeles,201150,Spencer Hawes,,,14:56,69.0,114.2,-45.2,0.143,0.0,12.5,0.0,0.154,0.065,0.0,0.357,0.357,0.213,104.72,0.043,2014-12-10T00:00:00,2,1610612754,IND,Indiana,7-15,25,24,16,31,0,0,0,0,0,0,0,0,0,0,96,0.393,0.773,0.333,27,43,11,0021400317,1610612746,LAC,Los Angeles,Spencer Hawes,,,14:56,0.0,0.0,0.0,0.0,5.0,7.0,6.0,14.0,1.0,0.0,2.0,0.0
0021400317,1610612746,LAC,Los Angeles,200770,Jordan Farmar,,,14:20,90.4,124.4,-34.0,0.0,0.0,0.0,0.0,0.091,0.04,0.0,0.5,0.5,0.162,103.88,0.044,2014-12-10T00:00:00,2,1610612746,LAC,Los Angeles,16-5,33,21,28,21,0,0,0,0,0,0,0,0,0,0,103,0.477,0.857,0.292,25,50,12,0021400317,1610612746,LAC,Los Angeles,Jordan Farmar,,,14:20,0.0,3.0,0.0,0.0,7.0,5.0,8.0,14.0,0.0,0.0,1.0,0.0
0021400317,1610612746,LAC,Los Angeles,200770,Jordan Farmar,,,14:20,90.4,124.4,-34.0,0.0,0.0,0.0,0.0,0.091,0.04,0.0,0.5,0.5,0.162,103.88,0.044,2014-12-10T00:00:00,2,1610612754,IND,Indiana,7-15,25,24,16,31,0,0,0,0,0,0,0,0,0,0,96,0.393,0.773,0.333,27,43,11,0021400317,1610612746,LAC,Los Angeles,Jordan Farmar,,,14:20,0.0,3.0,0.0,0.0,7.0,5.0,8.0,14.0,0.0,0.0,1.0,0.0
0021400317,1610612746,LAC,Los Angeles,2045,Hedo Turkoglu,,,5:33,75.8,94.9,-19.2,0.0,0.0,0.0,0.0,0.2,0.1,0.0,0.0,0.0,0.084,105.94,0.063,2014-12-10T00:00:00,2,1610612746,LAC,Los Angeles,16-5,33,21,28,21,0,0,0,0,0,0,0,0,0,0,103,0.477,0.857,0.292,25,50,12,0021400317,1610612746,LAC,Los Angeles,Hedo Turkoglu,,,5:33,0.0,0.0,0.0,0.0,2.0,3.0,3.0,4.0,0.0,0.0,0.0,2.0
0021400317,1610612746,LAC,Los Angeles,2045,Hedo Turkoglu,,,5:33,75.8,94.9,-19.2,0.0,0.0,0.0,0.0,0.2,0.1,0.0,0.0,0.0,0.084,105.94,0.063,2014-12-10T00:00:00,2,1610612754,IND,Indiana,7-15,25,24,16,31,0,0,0,0,0,0,0,0,0,0,96,0.393,0.773,0.333,27,43,11,0021400317,1610612746,LAC,Los Angeles,Hedo Turkoglu,,,5:33,0.0,0.0,0.0,0.0,2.0,3.0,3.0,4.0,0.0,0.0,0.0,2.0
0021400317,1610612746,LAC,Los Angeles,201175,Glen Davis,,,8:41,72.7,122.2,-49.5,0.0,0.0,0.0,0.0,0.0,0.0,0.0,0.333,0.333,0.168,103.64,-0.027,2014-12-10T00:00:00,2,1610612746,LAC,Los Angeles,16-5,33,21,28,21,0,0,0,0,0,0,0,0,0,0,103,0.477,0.857,0.292,25,50,12,0021400317,1610612746,LAC,Los Angeles,Glen Davis,,,8:41,0.0,0.0,0.0,2.0,2.0,3.0,3.0,10.0,0.0,0.0,1.0,0.0
0021400317,1610612746,LAC,Los Angeles,201175,Glen Davis,,,8:41,72.7,122.2,-49.5,0.0,0.0,0.0,0.0,0.0,0.0,0.0,0.333,0.333,0.168,103.64,-0.027,2014-12-10T00:00:00,2,1610612754,IND,Indiana,7-15,25,24,16,31,0,0,0,0,0,0,0,0,0,0,96,0.393,0.773,0.333,27,43,11,0021400317,1610612746,LAC,Los Angeles,Glen Davis,,,8:41,0.0,0.0,0.0,2.0,2.0,3.0,3.0,10.0,0.0,0.0,1.0,0.0
0021400317,1610612746,LAC,Los Angeles,203099,Jared Cunningham,,DNP - Coach's Decision                  ,,,,,,,0.0,,,,,,,0.0,,,2014-12-10T00:00:00,2,1610612746,LAC,Los Angeles,16-5,33,21,28,21,0,0,0,0,0,0,0,0,0,0,103,0.477,0.857,0.292,25,50,12,0021400317,1610612746,LAC,Los Angeles,Jared Cunningham,,DNP - Coach's Decision                  ,,,,,,,,,,,,,
0021400317,1610612746,LAC,Los Angeles,203099,Jared Cunningham,,DNP - Coach's Decision                  ,,,,,,,0.0,,,,,,,0.0,,,2014-12-10T00:00:00,2,1610612754,IND,Indiana,7-15,25,24,16,31,0,0,0,0,0,0,0,0,0,0,96,0.393,0.773,0.333,27,43,11,0021400317,1610612746,LAC,Los Angeles,Jared Cunningham,,DNP - Coach's Decision                  ,,,,,,,,,,,,,
0021400317,1610612746,LAC,Los Angeles,202327,Ekpe Udoh,,DNP - Coach's Decision                  ,,,,,,,0.0,,,,,,,0.0,,,2014-12-10T00:00:00,2,1610612746,LAC,Los Angeles,16-5,33,21,28,21,0,0,0,0,0,0,0,0,0,0,103,0.477,0.857,0.292,25,50,12,0021400317,1610612746,LAC,Los Angeles,Ekpe Udoh,,DNP - Coach's Decision                  ,,,,,,,,,,,,,
0021400317,1610612746,LAC,Los Angeles,202327,Ekpe Udoh,,DNP - Coach's Decision                  ,,,,,,,0.0,,,,,,,0.0,,,2014-12-10T00:00:00,2,1610612754,IND,Indiana,7-15,25,24,16,31,0,0,0,0,0,0,0,0,0,0,96,0.393,0.773,0.333,27,43,11,0021400317,1610612746,LAC,Los Angeles,Ekpe Udoh,,DNP - Coach's Decision                  ,,,,,,,,,,,,,
0021400317,1610612746,LAC,Los Angeles,203912,CJ Wilcox,,DNP - Coach's Decision                  ,,,,,,,0.0,,,,,,,0.0,,,2014-12-10T00:00:00,2,1610612746,LAC,Los Angeles,16-5,33,21,28,21,0,0,0,0,0,0,0,0,0,0,103,0.477,0.857,0.292,25,50,12,0021400317,1610612746,LAC,Los Angeles,CJ Wilcox,,DNP - Coach's Decision                  ,,,,,,,,,,,,,
0021400317,1610612746,LAC,Los Angeles,203912,CJ Wilcox,,DNP - Coach's Decision                  ,,,,,,,0.0,,,,,,,0.0,,,2014-12-10T00:00:00,2,1610612754,IND,Indiana,7-15,25,24,16,31,0,0,0,0,0,0,0,0,0,0,96,0.393,0.773,0.333,27,43,11,0021400317,1610612746,LAC,Los Angeles,CJ Wilcox,,DNP - Coach's Decision                  ,,,,,,,,,,,,,
0021400317,1610612754,IND,Indiana,203142,Chris Copeland,F,,18:04,70.7,150.5,-79.8,0.0,0.0,0.0,0.0,0.1,0.032,0.0,0.444,0.506,0.242,98.29,0.045,2014-12-10T00:00:00,2,1610612746,LAC,Los Angeles,16-5,33,21,28,21,0,0,0,0,0,0,0,0,0,0,103,0.477,0.857,0.292,25,50,12,0021400317,1610612754,IND,Indiana,Chris Copeland,F,,18:04,2.0,3.0,0.0,0.0,8.0,8.0,14.0,26.0,1.0,1.0,2.0,1.0
0021400317,1610612754,IND,Indiana,203142,Chris Copeland,F,,18:04,70.7,150.5,-79.8,0.0,0.0,0.0,0.0,0.1,0.032,0.0,0.444,0.506,0.242,98.29,0.045,2014-12-10T00:00:00,2,1610612754,IND,Indiana,7-15,25,24,16,31,0,0,0,0,0,0,0,0,0,0,96,0.393,0.773,0.333,27,43,11,0021400317,1610612754,IND,Indiana,Chris Copeland,F,,18:04,2.0,3.0,0.0,0.0,8.0,8.0,14.0,26.0,1.0,1.0,2.0,1.0
0021400317,1610612754,IND,Indiana,2561,David West,F,,25:29,81.0,132.8,-51.8,0.231,0.0,30.0,0.033,0.105,0.061,0.0,0.143,0.143,0.126,94.74,0.005,2014-12-10T00:00:00,2,1610612746,LAC,Los Angeles,16-5,33,21,28,21,0,0,0,0,0,0,0,0,0,0,103,0.477,0.857,0.292,25,50,12,0021400317,1610612754,IND,Indiana,David West,F,,25:29,0.0,0.0,0.0,2.0,8.0,13.0,14.0,32.0,0.0,0.0,1.0,1.0
0021400317,1610612754,IND,Indiana,2561,David West,F,,25:29,81.0,132.8,-51.8,0.231,0.0,30.0,0.033,0.105,0.061,0.0,0.143,0.143,0.126,94.74,0.005,2014-12-10T00:00:00,2,1610612754,IND,Indiana,7-15,25,24,16,31,0,0,0,0,0,0,0,0,0,0,96,0.393,0.773,0.333,27,43,11,0021400317,1610612754,IND,Indiana,David West,F,,25:29,0.0,0.0,0.0,2.0,8.0,13.0,14.0,32.0,0.0,0.0,1.0,1.0
0021400317,1610612754,IND,Indiana,201579,Roy Hibbert,C,,12:12,78.3,157.8,-79.5,0.167,1.0,16.7,0.143,0.143,0.143,16.7,0.5,0.5,0.2,92.62,0.0,2014-12-10T00:00:00,2,1610612746,LAC,Los Angeles,16-5,33,21,28,21,0,0,0,0,0,0,0,0,0,0,103,0.477,0.857,0.292,25,50,12,0021400317,1610612754,IND,Indiana,Roy Hibbert,C,,12:12,2.0,0.0,0.0,0.0,4.0,6.0,5.0,12.0,0.0,0.0,4.0,2.0
0021400317,1610612754,IND,Indiana,201579,Roy Hibbert,C,,12:12,78.3,157.8,-79.5,0.167,1.0,16.7,0.143,0.143,0.143,16.7,0.5,0.5,0.2,92.62,0.0,2014-12-10T00:00:00,2,1610612754,IND,Indiana,7-15,25,24,16,31,0,0,0,0,0,0,0,0,0,0,96,0.393,0.773,0.333,27,43,11,0021400317,1610612754,IND,Indiana,Roy Hibbert,C,,12:12,2.0,0.0,0.0,0.0,4.0,6.0,5.0,12.0,0.0,0.0,4.0,2.0
0021400317,1610612754,IND,Indiana,203524,Solomon Hill,G,,16:33,81.9,147.7,-65.9,0.333,3.0,25.3,0.0,0.0,0.0,8.4,0.143,0.254,0.242,96.12,0.0,2014-12-10T00:00:00,2,1610612746,LAC,Los Angeles,16-5,33,21,28,21,0,0,0,0,0,0,0,0,0,0,103,0.477,0.857,0.292,25,50,12,0021400317,1610612754,IND,Indiana,Solomon Hill,G,,16:33,0.0,2.0,0.0,2.0,8.0,8.0,10.0,22.0,0.0,1.0,0.0,1.0
0021400317,1610612754,IND,Indiana,203524,Solomon Hill,G,,16:33,81.9,147.7,-65.9,0.333,3.0,25.3,0.0,0.0,0.0,8.4,0.143,0.254,0.242,96.12,0.0,2014-12-10T00:00:00,2,1610612754,IND,Indiana,7-15,25,24,16,31,0,0,0,0,0,0,0,0,0,0,96,0.393,0.773,0.333,27,43,11,0021400317,1610612754,IND,Indiana,Solomon Hill,G,,16:33,0.0,2.0,0.0,2.0,8.0,8.0,10.0,22.0,0.0,1.0,0.0,1.0
0021400317,1610612754,IND,Indiana,201155,Rodney Stuckey,G,,31:48,85.5,128.9,-43.4,0.333,3.0,30.2,0.0,0.087,0.034,10.1,0.364,0.421,0.189,96.88,0.077,2014-12-10T00:00:00,2,1610612746,LAC,Los Angeles,16-5,33,21,28,21,0,0,0,0,0,0,0,0,0,0,103,0.477,0.857,0.292,25,50,12,0021400317,1610612754,IND,Indiana,Rodney Stuckey,G,,31:48,2.0,2.0,2.0,4.0,10.0,13.0,16.0,32.0,0.0,2.0,0.0,2.0
0021400317,1610612754,IND,Indiana,201155,Rodney Stuckey,G,,31:48,85.5,128.9,-43.4,0.333,3.0,30.2,0.0,0.087,0.034,10.1,0.364,0.421,0.189,96.88,0.077,2014-12-10T00:00:00,2,1610612754,IND,Indiana,7-15,25,24,16,31,0,0,0,0,0,0,0,0,0,0,96,0.393,0.773,0.333,27,43,11,0021400317,1610612754,IND,Indiana,Rodney Stuckey,G,,31:48,2.0,2.0,2.0,4.0,10.0,13.0,16.0,32.0,0.0,2.0,0.0,2.0
0021400317,1610612754,IND,Indiana,101139,CJ Miles,,,34:09,104.4,78.5,25.9,0.125,0.5,6.7,0.028,0.091,0.058,13.4,0.659,0.631,0.344,98.61,0.142,2014-12-10T00:00:00,2,1610612746,LAC,Los Angeles,16-5,33,21,28,21,0,0,0,0,0,0,0,0,0,0,103,0.477,0.857,0.292,25,50,12,0021400317,1610612754,IND,Indiana,CJ Miles,,,34:09,5.0,8.0,3.0,6.0,4.0,5.0,9.0,16.0,0.0,0.0,2.0,2.0
0021400317,1610612754,IND,Indiana,101139,CJ Miles,,,34:09,104.4,78.5,25.9,0.125,0.5,6.7,0.028,0.091,0.058,13.4,0.659,0.631,0.344,98.61,0.142,2014-12-10T00:00:00,2,1610612754,IND,Indiana,7-15,25,24,16,31,0,0,0,0,0,0,0,0,0,0,96,0.393,0.773,0.333,27,43,11,0021400317,1610612754,IND,Indiana,CJ Miles,,,34:09,5.0,8.0,3.0,6.0,4.0,5.0,9.0,16.0,0.0,0.0,2.0,2.0
0021400317,1610612754,IND,Indiana,2449,Luis Scola,,,22:08,116.0,76.2,39.8,0.188,1.5,18.9,0.095,0.545,0.326,12.6,0.5,0.551,0.237,102.16,0.233,2014-12-10T00:00:00,2,1610612746,LAC,Los Angeles,16-5,33,21,28,21,0,0,0,0,0,0,0,0,0,0,103,0.477,0.857,0.292,25,50,12,0021400317,1610612754,IND,Indiana,Luis Scola,,,22:08,4.0,2.0,0.0,6.0,4.0,0.0,5.0,6.0,0.0,1.0,3.0,2.0
0021400317,1610612754,IND,Indiana,2449,Luis Scola,,,22:08,116.0,76.2,39.8,0.188,1.5,18.9,0.095,0.545,0.326,12.6,0.5,0.551,0.237,102.16,0.233,2014-12-10T00:00:00,2,1610612754,IND,Indiana,7-15,25,24,16,31,0,0,0,0,0,0,0,0,0,0,96,0.393,0.773,0.333,27,43,11,0021400317,1610612754,IND,Indiana,Luis Scola,,,22:08,4.0,2.0,0.0,6.0,4.0,0.0,5.0,6.0,0.0,1.0,3.0,2.0
0021400317,1610612754,IND,Indiana,202730,Lavoy Allen,,,35:48,103.1,88.9,14.1,0.1,2.0,14.3,0.158,0.206,0.181,7.1,0.636,0.636,0.14,99.73,0.15,2014-12-10T00:00:00,2,1610612746,LAC,Los Angeles,16-5,33,21,28,21,0,0,0,0,0,0,0,0,0,0,103,0.477,0.857,0.292,25,50,12,0021400317,1610612754,IND,Indiana,Lavoy Allen,,,35:48,2.0,6.0,0.0,10.0,8.0,7.0,14.0,26.0,0.0,2.0,1.0,1.0
0021400317,1610612754,IND,Indiana,202730,Lavoy Allen,,,35:48,103.1,88.9,14.1,0.1,2.0,14.3,0.158,0.206,0.181,7.1,0.636,0.636,0.14,99.73,0.15,2014-12-10T00:00:00,2,1610612754,IND,Indiana,7-15,25,24,16,31,0,0,0,0,0,0,0,0,0,0,96,0.393,0.773,0.333,27,43,11,0021400317,1610612754,IND,Indiana,Lavoy Allen,,,35:48,2.0,6.0,0.0,10.0,8.0,7.0,14.0,26.0,0.0,2.0,1.0,1.0
0021400317,1610612754,IND,Indiana,201228,C.J. Watson,,,27:37,112.2,83.5,28.7,0.318,0.0,40.0,0.0,0.107,0.054,0.0,0.143,0.38,0.164,97.44,0.079,2014-12-10T00:00:00,2,1610612746,LAC,Los Angeles,16-5,33,21,28,21,0,0,0,0,0,0,0,0,0,0,103,0.477,0.857,0.292,25,50,12,0021400317,1610612754,IND,Indiana,C.J. Watson,,,27:37,0.0,2.0,3.0,2.0,4.0,5.0,5.0,12.0,0.0,0.0,4.0,4.0
0021400317,1610612754,IND,Indiana,201228,C.J. Watson,,,27:37,112.2,83.5,28.7,0.318,0.0,40.0,0.0,0.107,0.054,0.0,0.143,0.38,0.164,97.44,0.079,2014-12-10T00:00:00,2,1610612754,IND,Indiana,7-15,25,24,16,31,0,0,0,0,0,0,0,0,0,0,96,0.393,0.773,0.333,27,43,11,0021400317,1610612754,IND,Indiana,C.J. Watson,,,27:37,0.0,2.0,3.0,2.0,4.0,5.0,5.0,12.0,0.0,0.0,4.0,4.0
0021400317,1610612754,IND,Indiana,204014,Damjan Rudez,,,16:12,120.6,64.1,56.5,0.0,0.0,0.0,0.0,0.0,0.0,0.0,0.0,0.532,0.051,99.97,0.019,2014-12-10T00:00:00,2,1610612746,LAC,Los Angeles,16-5,33,21,28,21,0,0,0,0,0,0,0,0,0,0,103,0.477,0.857,0.292,25,50,12,0021400317,1610612754,IND,Indiana,Damjan Rudez,,,16:12,2.0,0.0,2.0,0.0,2.0,0.0,3.0,6.0,0.0,0.0,1.0,1.0
0021400317,1610612754,IND,Indiana,204014,Damjan Rudez,,,16:12,120.6,64.1,56.5,0.0,0.0,0.0,0.0,0.0,0.0,0.0,0.0,0.532,0.051,99.97,0.019,2014-12-10T00:00:00,2,1610612754,IND,Indiana,7-15,25,24,16,31,0,0,0,0,0,0,0,0,0,0,96,0.393,0.773,0.333,27,43,11,0021400317,1610612754,IND,Indiana,Damjan Rudez,,,16:12,2.0,0.0,2.0,0.0,2.0,0.0,3.0,6.0,0.0,0.0,1.0,1.0
0021400317,1610612754,IND,Indiana,101133,Ian Mahinmi,,DND - Torn Left Plantar Fascia          ,,,,,,,0.0,,,,,,,0.0,,,2014-12-10T00:00:00,2,1610612746,LAC,Los Angeles,16-5,33,21,28,21,0,0,0,0,0,0,0,0,0,0,103,0.477,0.857,0.292,25,50,12,0021400317,1610612754,IND,Indiana,Ian Mahinmi,,DND - Torn Left Plantar Fascia          ,,,,,,,,,,,,,
0021400317,1610612754,IND,Indiana,101133,Ian Mahinmi,,DND - Torn Left Plantar Fascia          ,,,,,,,0.0,,,,,,,0.0,,,2014-12-10T00:00:00,2,1610612754,IND,Indiana,7-15,25,24,16,31,0,0,0,0,0,0,0,0,0,0,96,0.393,0.773,0.333,27,43,11,0021400317,1610612754,IND,Indiana,Ian Mahinmi,,DND - Torn Left Plantar Fascia          ,,,,,,,,,,,,,
0021400317,1610612754,IND,Indiana,202388,Donald Sloan,,DNP - Coach's Decision                  ,,,,,,,0.0,,,,,,,0.0,,,2014-12-10T00:00:00,2,1610612746,LAC,Los Angeles,16-5,33,21,28,21,0,0,0,0,0,0,0,0,0,0,103,0.477,0.857,0.292,25,50,12,0021400317,1610612754,IND,Indiana,Donald Sloan,,DNP - Coach's Decision                  ,,,,,,,,,,,,,
0021400317,1610612754,IND,Indiana,202388,Donald Sloan,,DNP - Coach's Decision                  ,,,,,,,0.0,,,,,,,0.0,,,2014-12-10T00:00:00,2,1610612754,IND,Indiana,7-15,25,24,16,31,0,0,0,0,0,0,0,0,0,0,96,0.393,0.773,0.333,27,43,11,0021400317,1610612754,IND,Indiana,Donald Sloan,,DNP - Coach's Decision                  ,,,,,,,,,,,,,
0021400317,1610612754,IND,Indiana,203963,Shayne Whittington,,DNP - Coach's Decision                  ,,,,,,,0.0,,,,,,,0.0,,,2014-12-10T00:00:00,2,1610612746,LAC,Los Angeles,16-5,33,21,28,21,0,0,0,0,0,0,0,0,0,0,103,0.477,0.857,0.292,25,50,12,0021400317,1610612754,IND,Indiana,Shayne Whittington,,DNP - Coach's Decision                  ,,,,,,,,,,,,,
0021400317,1610612754,IND,Indiana,203963,Shayne Whittington,,DNP - Coach's Decision                  ,,,,,,,0.0,,,,,,,0.0,,,2014-12-10T00:00:00,2,1610612754,IND,Indiana,7-15,25,24,16,31,0,0,0,0,0,0,0,0,0,0,96,0.393,0.773,0.333,27,43,11,0021400317,1610612754,IND,Indiana,Shayne Whittington,,DNP - Coach's Decision                  ,,,,,,,,,,,,,
