GAME_ID_x,TEAM_ID_x,TEAM_ABBREVIATION_x,TEAM_CITY_x,PLAYER_ID,PLAYER_NAME_x,START_POSITION_x,COMMENT_x,MIN_x,OFF_RATING,DEF_RATING,NET_RATING,AST_PCT,AST_TOV,AST_RATIO,OREB_PCT,DREB_PCT,REB_PCT,TM_TOV_PCT,EFG_PCT,TS_PCT,USG_PCT,PACE,PIE,GAME_DATE_EST,GAME_SEQUENCE,TEAM_ID_y,TEAM_ABBREVIATION_y,TEAM_CITY_NAME,TEAM_WINS_LOSSES,PTS_QTR1,PTS_QTR2,PTS_QTR3,PTS_QTR4,PTS_OT1,PTS_OT2,PTS_OT3,PTS_OT4,PTS_OT5,PTS_OT6,PTS_OT7,PTS_OT8,PTS_OT9,PTS_OT10,PTS,FG_PCT,FT_PCT,FG3_PCT,AST,REB,TOV,GAME_ID_y,TEAM_ID,TEAM_ABBREVIATION,TEAM_CITY_y,PLAYER_NAME_y,START_POSITION_y,COMMENT_y,MIN_y,PTS_OFF_TOV,PTS_2ND_CHANCE,PTS_FB,PTS_PAINT,OPP_PTS_OFF_TOV,OPP_PTS_2ND_CHANCE,OPP_PTS_FB,OPP_PTS_PAINT,BLK,BLKA,PF,PFD
0021400319,1610612755,PHI,Philadelphia,201601,Luc Mbah a Moute,F,,28:53,80.4,113.9,-33.5,0.0,0.0,0.0,0.0,0.077,0.041,9.6,0.667,0.636,0.173,95.67,0.115,2014-12-10T00:00:00,4,1610612755,PHI,Philadelphia,2-19,21,17,20,21,0,0,0,0,0,0,0,0,0,0,79,0.417,0.591,0.24,21,39,18,0021400319,1610612755,PHI,Philadelphia,Luc Mbah a Moute,F,,28:53,3.0,3.0,2.0,6.0,16.0,12.0,9.0,26.0,1.0,0.0,1.0,2.0
0021400319,1610612755,PHI,Philadelphia,201601,Luc Mbah a Moute,F,,28:53,80.4,113.9,-33.5,0.0,0.0,0.0,0.0,0.077,0.041,9.6,0.667,0.636,0.173,95.67,0.115,2014-12-10T00:00:00,4,1610612737,ATL,Atlanta,15-6,25,22,21,27,0,0,0,0,0,0,0,0,0,0,95,0.418,0.692,0.333,26,52,14,0021400319,1610612755,PHI,Philadelphia,Luc Mbah a Moute,F,,28:53,3.0,3.0,2.0,6.0,16.0,12.0,9.0,26.0,1.0,0.0,1.0,2.0
0021400319,1610612755,PHI,Philadelphia,203457,Nerlens Noel,F,,33:44,80.4,92.8,-12.4,0.188,1.5,21.8,0.0,0.161,0.085,14.5,0.429,0.457,0.162,94.17,0.063,2014-12-10T00:00:00,4,1610612755,PHI,Philadelphia,2-19,21,17,20,21,0,0,0,0,0,0,0,0,0,0,79,0.417,0.591,0.24,21,39,18,0021400319,1610612755,PHI,Philadelphia,Nerlens Noel,F,,33:44,2.0,0.0,0.0,6.0,11.0,8.0,10.0,30.0,3.0,0.0,3.0,3.0
0021400319,1610612755,PHI,Philadelphia,203457,Nerlens Noel,F,,33:44,80.4,92.8,-12.4,0.188,1.5,21.8,0.0,0.161,0.085,14.5,0.429,0.457,0.162,94.17,0.063,2014-12-10T00:00:00,4,1610612737,ATL,Atlanta,15-6,25,22,21,27,0,0,0,0,0,0,0,0,0,0,95,0.418,0.692,0.333,26,52,14,0021400319,1610612755,PHI,Philadelphia,Nerlens Noel,F,,33:44,2.0,0.0,0.0,6.0,11.0,8.0,10.0,30.0,3.0,0.0,3.0,3.0
0021400319,1610612755,PHI,Philadelphia,203156,Henry Sims,C,,13:15,79.8,103.9,-24.1,0.0,0.0,0.0,0.0,0.267,0.148,20.5,0.0,0.129,0.179,99.98,0.0,2014-12-10T00:00:00,4,1610612755,PHI,Philadelphia,2-19,21,17,20,21,0,0,0,0,0,0,0,0,0,0,79,0.417,0.591,0.24,21,39,18,0021400319,1610612755,PHI,Philadelphia,Henry Sims,C,,13:15,0.0,0.0,0.0,0.0,9.0,6.0,4.0,14.0,0.0,0.0,0.0,1.0
0021400319,1610612755,PHI,Philadelphia,203156,Henry Sims,C,,13:15,79.8,103.9,-24.1,0.0,0.0,0.0,0.0,0.267,0.148,20.5,0.0,0.129,0.179,99.98,0.0,2014-12-10T00:00:00,4,1610612737,ATL,Atlanta,15-6,25,22,21,27,0,0,0,0,0,0,0,0,0,0,95,0.418,0.692,0.333,26,52,14,0021400319,1610612755,PHI,Philadelphia,Henry Sims,C,,13:15,0.0,0.0,0.0,0.0,9.0,6.0,4.0,14.0,0.0,0.0,0.0,1.0
0021400319,1610612755,PHI,Philadelphia,203138,Hollis Thompson,G,,35:37,90.1,104.2,-14.1,0.211,0.0,35.0,0.032,0.133,0.082,0.0,0.5,0.538,0.099,94.85,0.098,2014-12-10T00:00:00,4,1610612755,PHI,Philadelphia,2-19,21,17,20,21,0,0,0,0,0,0,0,0,0,0,79,0.417,0.591,0.24,21,39,18,0021400319,1610612755,PHI,Philadelphia,Hollis Thompson,G,,35:37,3.0,0.0,3.0,2.0,18.0,12.0,8.0,36.0,0.0,0.0,0.0,1.0
0021400319,1610612755,PHI,Philadelphia,203138,Hollis Thompson,G,,35:37,90.1,104.2,-14.1,0.211,0.0,35.0,0.032,0.133,0.082,0.0,0.5,0.538,0.099,94.85,0.098,2014-12-10T00:00:00,4,1610612737,ATL,Atlanta,15-6,25,22,21,27,0,0,0,0,0,0,0,0,0,0,95,0.418,0.692,0.333,26,52,14,0021400319,1610612755,PHI,Philadelphia,Hollis Thompson,G,,35:37,3.0,0.0,3.0,2.0,18.0,12.0,8.0,36.0,0.0,0.0,0.0,1.0
0021400319,1610612755,PHI,Philadelphia,203487,Michael Carter-Williams,G,,38:19,82.2,96.2,-14.0,0.429,1.0,36.0,0.067,0.205,0.145,36.0,0.571,0.571,0.205,94.53,0.089,2014-12-10T00:00:00,4,1610612755,PHI,Philadelphia,2-19,21,17,20,21,0,0,0,0,0,0,0,0,0,0,79,0.417,0.591,0.24,21,39,18,0021400319,1610612755,PHI,Philadelphia,Michael Carter-Williams,G,,38:19,2.0,0.0,0.0,6.0,18.0,13.0,10.0,34.0,2.0,0.0,4.0,1.0
0021400319,1610612755,PHI,Philadelphia,203487,Michael Carter-Williams,G,,38:19,82.2,96.2,-14.0,0.429,1.0,36.0,0.067,0.205,0.145,36.0,0.571,0.571,0.205,94.53,0.089,2014-12-10T00:00:00,4,1610612737,ATL,Atlanta,15-6,25,22,21,27,0,0,0,0,0,0,0,0,0,0,95,0.418,0.692,0.333,26,52,14,0021400319,1610612755,PHI,Philadelphia,Michael Carter-Williams,G,,38:19,2.0,0.0,0.0,6.0,18.0,13.0,10.0,34.0,2.0,0.0,4.0,1.0
0021400319,1610612755,PHI,Philadelphia,203909,KJ McDaniels,,,23:05,85.8,80.0,5.9,0.182,2.0,12.7,0.05,0.111,0.085,6.3,0.318,0.392,0.285,95.45,0.102,2014-12-10T00:00:00,4,1610612755,PHI,Philadelphia,2-19,21,17,20,21,0,0,0,0,0,0,0,0,0,0,79,0.417,0.591,0.24,21,39,18,0021400319,1610612755,PHI,Philadelphia,KJ McDaniels,,,23:05,7.0,1.0,4.0,4.0,8.0,8.0,0.0,18.0,2.0,0.0,3.0,2.0
0021400319,1610612755,PHI,Philadelphia,203909,KJ McDaniels,,,23:05,85.8,80.0,5.9,0.182,2.0,12.7,0.05,0.111,0.085,6.3,0.318,0.392,0.285,95.45,0.102,2014-12-10T00:00:00,4,1610612737,ATL,Atlanta,15-6,25,22,21,27,0,0,0,0,0,0,0,0,0,0,95,0.418,0.692,0.333,26,52,14,0021400319,1610612755,PHI,Philadelphia,KJ McDaniels,,,23:05,7.0,1.0,4.0,4.0,8.0,8.0,0.0,18.0,2.0,0.0,3.0,2.0
0021400319,1610612755,PHI,Philadelphia,203496,Robert Covington,,,25:30,76.7,87.1,-10.4,0.0,0.0,0.0,0.042,0.148,0.098,20.2,0.364,0.379,0.283,98.45,0.0,2014-12-10T00:00:00,4,1610612755,PHI,Philadelphia,2-19,21,17,20,21,0,0,0,0,0,0,0,0,0,0,79,0.417,0.591,0.24,21,39,18,0021400319,1610612755,PHI,Philadelphia,Robert Covington,,,25:30,0.0,2.0,0.0,2.0,6.0,6.0,6.0,22.0,1.0,0.0,3.0,2.0
0021400319,1610612755,PHI,Philadelphia,203496,Robert Covington,,,25:30,76.7,87.1,-10.4,0.0,0.0,0.0,0.042,0.148,0.098,20.2,0.364,0.379,0.283,98.45,0.0,2014-12-10T00:00:00,4,1610612737,ATL,Atlanta,15-6,25,22,21,27,0,0,0,0,0,0,0,0,0,0,95,0.418,0.692,0.333,26,52,14,0021400319,1610612755,PHI,Philadelphia,Robert Covington,,,25:30,0.0,2.0,0.0,2.0,6.0,6.0,6.0,22.0,1.0,0.0,3.0,2.0
0021400319,1610612755,PHI,Philadelphia,203924,Jerami Grant,,,16:24,94.6,80.0,14.6,0.167,0.0,11.3,0.056,0.1,0.079,0.0,0.714,0.635,0.215,95.87,0.241,2014-12-10T00:00:00,4,1610612755,PHI,Philadelphia,2-19,21,17,20,21,0,0,0,0,0,0,0,0,0,0,79,0.417,0.591,0.24,21,39,18,0021400319,1610612755,PHI,Philadelphia,Jerami Grant,,,16:24,2.0,2.0,2.0,8.0,4.0,7.0,0.0,14.0,1.0,0.0,1.0,1.0
0021400319,1610612755,PHI,Philadelphia,203924,Jerami Grant,,,16:24,94.6,80.0,14.6,0.167,0.0,11.3,0.056,0.1,0.079,0.0,0.714,0.635,0.215,95.87,0.241,2014-12-10T00:00:00,4,1610612737,ATL,Atlanta,15-6,25,22,21,27,0,0,0,0,0,0,0,0,0,0,95,0.418,0.692,0.333,26,52,14,0021400319,1610612755,PHI,Philadelphia,Jerami Grant,,,16:24,2.0,2.0,2.0,8.0,4.0,7.0,0.0,14.0,1.0,0.0,1.0,1.0
0021400319,1610612755,PHI,Philadelphia,203144,Alexey Shved,,,16:24,82.0,100.7,-18.7,0.5,0.0,15.8,0.0,0.0,0.0,0.0,0.5,0.611,0.316,95.86,0.2,2014-12-10T00:00:00,4,1610612755,PHI,Philadelphia,2-19,21,17,20,21,0,0,0,0,0,0,0,0,0,0,79,0.417,0.591,0.24,21,39,18,0021400319,1610612755,PHI,Philadelphia,Alexey Shved,,,16:24,0.0,2.0,3.0,6.0,5.0,5.0,3.0,16.0,0.0,0.0,1.0,3.0
0021400319,1610612755,PHI,Philadelphia,203144,Alexey Shved,,,16:24,82.0,100.7,-18.7,0.5,0.0,15.8,0.0,0.0,0.0,0.0,0.5,0.611,0.316,95.86,0.2,2014-12-10T00:00:00,4,1610612737,ATL,Atlanta,15-6,25,22,21,27,0,0,0,0,0,0,0,0,0,0,95,0.418,0.692,0.333,26,52,14,0021400319,1610612755,PHI,Philadelphia,Alexey Shved,,,16:24,0.0,2.0,3.0,6.0,5.0,5.0,3.0,16.0,0.0,0.0,1.0,3.0
0021400319,1610612755,PHI,Philadelphia,203960,JaKarr Sampson,,,6:49,120.5,101.7,18.7,0.0,0.0,0.0,0.143,0.0,0.071,50.0,0.0,0.0,0.131,95.32,-0.163,2014-12-10T00:00:00,4,1610612755,PHI,Philadelphia,2-19,21,17,20,21,0,0,0,0,0,0,0,0,0,0,79,0.417,0.591,0.24,21,39,18,0021400319,1610612755,PHI,Philadelphia,JaKarr Sampson,,,6:49,0.0,0.0,0.0,0.0,5.0,3.0,0.0,6.0,0.0,1.0,2.0,0.0
0021400319,1610612755,PHI,Philadelphia,203960,JaKarr Sampson,,,6:49,120.5,101.7,18.7,0.0,0.0,0.0,0.143,0.0,0.071,50.0,0.0,0.0,0.131,95.32,-0.163,2014-12-10T00:00:00,4,1610612737,ATL,Atlanta,15-6,25,22,21,27,0,0,0,0,0,0,0,0,0,0,95,0.418,0.692,0.333,26,52,14,0021400319,1610612755,PHI,Philadelphia,JaKarr Sampson,,,6:49,0.0,0.0,0.0,0.0,5.0,3.0,0.0,6.0,0.0,1.0,2.0,0.0
0021400319,1610612755,PHI,Philadelphia,202723,Malcolm Lee,,,2:01,166.7,100.0,66.7,0.0,0.0,0.0,0.0,0.0,0.0,0.0,0.0,0.0,0.192,97.59,-0.1,2014-12-10T00:00:00,4,1610612755,PHI,Philadelphia,2-19,21,17,20,21,0,0,0,0,0,0,0,0,0,0,79,0.417,0.591,0.24,21,39,18,0021400319,1610612755,PHI,Philadelphia,Malcolm Lee,,,2:01,0.0,0.0,0.0,0.0,0.0,0.0,0.0,4.0,0.0,0.0,0.0,0.0
0021400319,1610612755,PHI,Philadelphia,202723,Malcolm Lee,,,2:01,166.7,100.0,66.7,0.0,0.0,0.0,0.0,0.0,0.0,0.0,0.0,0.0,0.192,97.59,-0.1,2014-12-10T00:00:00,4,1610612737,ATL,Atlanta,15-6,25,22,21,27,0,0,0,0,0,0,0,0,0,0,95,0.418,0.692,0.333,26,52,14,0021400319,1610612755,PHI,Philadelphia,Malcolm Lee,,,2:01,0.0,0.0,0.0,0.0,0.0,0.0,0.0,4.0,0.0,0.0,0.0,0.0
0021400319,1610612755,PHI,Philadelphia,203561,Brandon Davies,,DNP - Coach's Decision                  ,,,,,,,0.0,,,,,,,0.0,,,2014-12-10T00:00:00,4,1610612755,PHI,Philadelphia,2-19,21,17,20,21,0,0,0,0,0,0,0,0,0,0,79,0.417,0.591,0.24,21,39,18,0021400319,1610612755,PHI,Philadelphia,Brandon Davies,,DNP - Coach's Decision                  ,,,,,,,,,,,,,
0021400319,1610612755,PHI,Philadelphia,203561,Brandon Davies,,DNP - Coach's Decision                  ,,,,,,,0.0,,,,,,,0.0,,,2014-12-10T00:00:00,4,1610612737,ATL,Atlanta,15-6,25,22,21,27,0,0,0,0,0,0,0,0,0,0,95,0.418,0.692,0.333,26,52,14,0021400319,1610612755,PHI,Philadelphia,Brandon Davies,,DNP - Coach's Decision                  ,,,,,,,,,,,,,
0021400319,1610612737,ATL,Atlanta,201960,DeMarre Carroll,F,,26:11,92.3,80.8,11.5,0.214,0.0,18.4,0.214,0.227,0.22,0.0,0.5,0.526,0.218,96.28,0.255,2014-12-10T00:00:00,4,1610612755,PHI,Philadelphia,2-19,21,17,20,21,0,0,0,0,0,0,0,0,0,0,79,0.417,0.591,0.24,21,39,18,0021400319,1610612737,ATL,Atlanta,DeMarre Carroll,F,,26:11,5.0,6.0,2.0,6.0,14.0,7.0,6.0,26.0,0.0,1.0,0.0,3.0
0021400319,1610612737,ATL,Atlanta,201960,DeMarre Carroll,F,,26:11,92.3,80.8,11.5,0.214,0.0,18.4,0.214,0.227,0.22,0.0,0.5,0.526,0.218,96.28,0.255,2014-12-10T00:00:00,4,1610612737,ATL,Atlanta,15-6,25,22,21,27,0,0,0,0,0,0,0,0,0,0,95,0.418,0.692,0.333,26,52,14,0021400319,1610612737,ATL,Atlanta,DeMarre Carroll,F,,26:11,5.0,6.0,2.0,6.0,14.0,7.0,6.0,26.0,0.0,1.0,0.0,3.0
0021400319,1610612737,ATL,Atlanta,200794,Paul Millsap,F,,34:04,107.2,85.3,21.9,0.13,1.0,15.1,0.031,0.233,0.129,15.1,0.577,0.612,0.216,95.05,0.124,2014-12-10T00:00:00,4,1610612755,PHI,Philadelphia,2-19,21,17,20,21,0,0,0,0,0,0,0,0,0,0,79,0.417,0.591,0.24,21,39,18,0021400319,1610612737,ATL,Atlanta,Paul Millsap,F,,34:04,4.0,0.0,0.0,12.0,16.0,8.0,8.0,32.0,0.0,1.0,4.0,2.0
0021400319,1610612737,ATL,Atlanta,200794,Paul Millsap,F,,34:04,107.2,85.3,21.9,0.13,1.0,15.1,0.031,0.233,0.129,15.1,0.577,0.612,0.216,95.05,0.124,2014-12-10T00:00:00,4,1610612737,ATL,Atlanta,15-6,25,22,21,27,0,0,0,0,0,0,0,0,0,0,95,0.418,0.692,0.333,26,52,14,0021400319,1610612737,ATL,Atlanta,Paul Millsap,F,,34:04,4.0,0.0,0.0,12.0,16.0,8.0,8.0,32.0,0.0,1.0,4.0,2.0
0021400319,1610612737,ATL,Atlanta,201143,Al Horford,C,,27:08,87.8,69.1,18.7,0.067,0.0,7.2,0.037,0.273,0.143,0.0,0.417,0.427,0.198,98.71,0.142,2014-12-10T00:00:00,4,1610612755,PHI,Philadelphia,2-19,21,17,20,21,0,0,0,0,0,0,0,0,0,0,79,0.417,0.591,0.24,21,39,18,0021400319,1610612737,ATL,Atlanta,Al Horford,C,,27:08,2.0,0.0,0.0,8.0,7.0,3.0,4.0,18.0,0.0,3.0,1.0,4.0
0021400319,1610612737,ATL,Atlanta,201143,Al Horford,C,,27:08,87.8,69.1,18.7,0.067,0.0,7.2,0.037,0.273,0.143,0.0,0.417,0.427,0.198,98.71,0.142,2014-12-10T00:00:00,4,1610612737,ATL,Atlanta,15-6,25,22,21,27,0,0,0,0,0,0,0,0,0,0,95,0.418,0.692,0.333,26,52,14,0021400319,1610612737,ATL,Atlanta,Al Horford,C,,27:08,2.0,0.0,0.0,8.0,7.0,3.0,4.0,18.0,0.0,3.0,1.0,4.0
0021400319,1610612737,ATL,Atlanta,2594,Kyle Korver,G,,27:41,108.4,84.6,23.8,0.105,1.0,13.3,0.0,0.095,0.043,13.3,0.773,0.773,0.202,95.71,0.156,2014-12-10T00:00:00,4,1610612755,PHI,Philadelphia,2-19,21,17,20,21,0,0,0,0,0,0,0,0,0,0,79,0.417,0.591,0.24,21,39,18,0021400319,1610612737,ATL,Atlanta,Kyle Korver,G,,27:41,3.0,5.0,3.0,0.0,9.0,7.0,4.0,24.0,1.0,0.0,1.0,1.0
0021400319,1610612737,ATL,Atlanta,2594,Kyle Korver,G,,27:41,108.4,84.6,23.8,0.105,1.0,13.3,0.0,0.095,0.043,13.3,0.773,0.773,0.202,95.71,0.156,2014-12-10T00:00:00,4,1610612737,ATL,Atlanta,15-6,25,22,21,27,0,0,0,0,0,0,0,0,0,0,95,0.418,0.692,0.333,26,52,14,0021400319,1610612737,ATL,Atlanta,Kyle Korver,G,,27:41,3.0,5.0,3.0,0.0,9.0,7.0,4.0,24.0,1.0,0.0,1.0,1.0
0021400319,1610612737,ATL,Atlanta,201952,Jeff Teague,G,,24:34,95.6,79.5,16.2,0.333,3.0,43.2,0.04,0.0,0.023,14.4,0.2,0.34,0.138,96.99,0.056,2014-12-10T00:00:00,4,1610612755,PHI,Philadelphia,2-19,21,17,20,21,0,0,0,0,0,0,0,0,0,0,79,0.417,0.591,0.24,21,39,18,0021400319,1610612737,ATL,Atlanta,Jeff Teague,G,,24:34,4.0,0.0,2.0,2.0,9.0,7.0,4.0,24.0,0.0,0.0,2.0,2.0
0021400319,1610612737,ATL,Atlanta,201952,Jeff Teague,G,,24:34,95.6,79.5,16.2,0.333,3.0,43.2,0.04,0.0,0.023,14.4,0.2,0.34,0.138,96.99,0.056,2014-12-10T00:00:00,4,1610612737,ATL,Atlanta,15-6,25,22,21,27,0,0,0,0,0,0,0,0,0,0,95,0.418,0.692,0.333,26,52,14,0021400319,1610612737,ATL,Atlanta,Jeff Teague,G,,24:34,4.0,0.0,2.0,2.0,9.0,7.0,4.0,24.0,0.0,0.0,2.0,2.0
0021400319,1610612737,ATL,Atlanta,203544,Pero Antic,,,12:58,64.4,72.7,-8.3,0.0,0.0,0.0,0.0,0.0,0.0,25.0,0.417,0.417,0.239,100.51,-0.091,2014-12-10T00:00:00,4,1610612755,PHI,Philadelphia,2-19,21,17,20,21,0,0,0,0,0,0,0,0,0,0,79,0.417,0.591,0.24,21,39,18,0021400319,1610612737,ATL,Atlanta,Pero Antic,,,12:58,0.0,0.0,0.0,2.0,5.0,2.0,2.0,10.0,0.0,0.0,1.0,0.0
0021400319,1610612737,ATL,Atlanta,203544,Pero Antic,,,12:58,64.4,72.7,-8.3,0.0,0.0,0.0,0.0,0.0,0.0,25.0,0.417,0.417,0.239,100.51,-0.091,2014-12-10T00:00:00,4,1610612737,ATL,Atlanta,15-6,25,22,21,27,0,0,0,0,0,0,0,0,0,0,95,0.418,0.692,0.333,26,52,14,0021400319,1610612737,ATL,Atlanta,Pero Antic,,,12:58,0.0,0.0,0.0,2.0,5.0,2.0,2.0,10.0,0.0,0.0,1.0,0.0
0021400319,1610612737,ATL,Atlanta,202714,Shelvin Mack,,,20:03,79.5,85.5,-6.0,0.091,0.33,8.4,0.045,0.045,0.045,25.3,0.357,0.381,0.215,95.9,-0.031,2014-12-10T00:00:00,4,1610612755,PHI,Philadelphia,2-19,21,17,20,21,0,0,0,0,0,0,0,0,0,0,79,0.417,0.591,0.24,21,39,18,0021400319,1610612737,ATL,Atlanta,Shelvin Mack,,,20:03,0.0,1.0,2.0,2.0,10.0,3.0,10.0,16.0,0.0,0.0,1.0,2.0
0021400319,1610612737,ATL,Atlanta,202714,Shelvin Mack,,,20:03,79.5,85.5,-6.0,0.091,0.33,8.4,0.045,0.045,0.045,25.3,0.357,0.381,0.215,95.9,-0.031,2014-12-10T00:00:00,4,1610612737,ATL,Atlanta,15-6,25,22,21,27,0,0,0,0,0,0,0,0,0,0,95,0.418,0.692,0.333,26,52,14,0021400319,1610612737,ATL,Atlanta,Shelvin Mack,,,20:03,0.0,1.0,2.0,2.0,10.0,3.0,10.0,16.0,0.0,0.0,1.0,2.0
0021400319,1610612737,ATL,Atlanta,203471,Dennis Schroder,,,20:55,98.8,83.1,15.7,0.2,0.0,23.3,0.0,0.2,0.103,0.0,0.222,0.253,0.196,94.13,0.11,2014-12-10T00:00:00,4,1610612755,PHI,Philadelphia,2-19,21,17,20,21,0,0,0,0,0,0,0,0,0,0,79,0.417,0.591,0.24,21,39,18,0021400319,1610612737,ATL,Atlanta,Dennis Schroder,,,20:55,0.0,0.0,1.0,2.0,7.0,1.0,4.0,12.0,0.0,3.0,1.0,3.0
0021400319,1610612737,ATL,Atlanta,203471,Dennis Schroder,,,20:55,98.8,83.1,15.7,0.2,0.0,23.3,0.0,0.2,0.103,0.0,0.222,0.253,0.196,94.13,0.11,2014-12-10T00:00:00,4,1610612737,ATL,Atlanta,15-6,25,22,21,27,0,0,0,0,0,0,0,0,0,0,95,0.418,0.692,0.333,26,52,14,0021400319,1610612737,ATL,Atlanta,Dennis Schroder,,,20:55,0.0,0.0,1.0,2.0,7.0,1.0,4.0,12.0,0.0,3.0,1.0,3.0
0021400319,1610612737,ATL,Atlanta,200757,Thabo Sefolosha,,,20:14,98.5,92.3,6.2,0.235,4.0,44.4,0.053,0.421,0.237,11.1,0.0,0.0,0.101,94.28,0.095,2014-12-10T00:00:00,4,1610612755,PHI,Philadelphia,2-19,21,17,20,21,0,0,0,0,0,0,0,0,0,0,79,0.417,0.591,0.24,21,39,18,0021400319,1610612737,ATL,Atlanta,Thabo Sefolosha,,,20:14,0.0,0.0,0.0,0.0,3.0,2.0,6.0,12.0,0.0,1.0,1.0,0.0
0021400319,1610612737,ATL,Atlanta,200757,Thabo Sefolosha,,,20:14,98.5,92.3,6.2,0.235,4.0,44.4,0.053,0.421,0.237,11.1,0.0,0.0,0.101,94.28,0.095,2014-12-10T00:00:00,4,1610612737,ATL,Atlanta,15-6,25,22,21,27,0,0,0,0,0,0,0,0,0,0,95,0.418,0.692,0.333,26,52,14,0021400319,1610612737,ATL,Atlanta,Thabo Sefolosha,,,20:14,0.0,0.0,0.0,0.0,3.0,2.0,6.0,12.0,0.0,1.0,1.0,0.0
0021400319,1610612737,ATL,Atlanta,203488,Mike Muscala,,,19:08,117.0,105.0,12.0,0.25,3.0,25.0,0.278,0.133,0.212,8.3,0.75,0.75,0.197,89.11,0.226,2014-12-10T00:00:00,4,1610612755,PHI,Philadelphia,2-19,21,17,20,21,0,0,0,0,0,0,0,0,0,0,79,0.417,0.591,0.24,21,39,18,0021400319,1610612737,ATL,Atlanta,Mike Muscala,,,19:08,2.0,4.0,0.0,6.0,7.0,5.0,8.0,16.0,0.0,1.0,1.0,1.0
0021400319,1610612737,ATL,Atlanta,203488,Mike Muscala,,,19:08,117.0,105.0,12.0,0.25,3.0,25.0,0.278,0.133,0.212,8.3,0.75,0.75,0.197,89.11,0.226,2014-12-10T00:00:00,4,1610612737,ATL,Atlanta,15-6,25,22,21,27,0,0,0,0,0,0,0,0,0,0,95,0.418,0.692,0.333,26,52,14,0021400319,1610612737,ATL,Atlanta,Mike Muscala,,,19:08,2.0,4.0,0.0,6.0,7.0,5.0,8.0,16.0,0.0,1.0,1.0,1.0
0021400319,1610612737,ATL,Atlanta,203145,Kent Bazemore,,,4:33,100.0,130.6,-30.6,0.0,0.0,0.0,0.0,0.167,0.083,0.0,0.667,0.667,0.273,98.67,0.182,2014-12-10T00:00:00,4,1610612755,PHI,Philadelphia,2-19,21,17,20,21,0,0,0,0,0,0,0,0,0,0,79,0.417,0.591,0.24,21,39,18,0021400319,1610612737,ATL,Atlanta,Kent Bazemore,,,4:33,0.0,0.0,0.0,4.0,5.0,3.0,8.0,6.0,0.0,0.0,1.0,0.0
0021400319,1610612737,ATL,Atlanta,203145,Kent Bazemore,,,4:33,100.0,130.6,-30.6,0.0,0.0,0.0,0.0,0.167,0.083,0.0,0.667,0.667,0.273,98.67,0.182,2014-12-10T00:00:00,4,1610612737,ATL,Atlanta,15-6,25,22,21,27,0,0,0,0,0,0,0,0,0,0,95,0.418,0.692,0.333,26,52,14,0021400319,1610612737,ATL,Atlanta,Kent Bazemore,,,4:33,0.0,0.0,0.0,4.0,5.0,3.0,8.0,6.0,0.0,0.0,1.0,0.0
0021400319,1610612737,ATL,Atlanta,203098,John Jenkins,,,2:31,80.0,157.5,-77.5,0.0,0.0,0.0,0.0,0.0,0.0,0.0,0.0,0.0,0.143,96.13,-0.316,2014-12-10T00:00:00,4,1610612755,PHI,Philadelphia,2-19,21,17,20,21,0,0,0,0,0,0,0,0,0,0,79,0.417,0.591,0.24,21,39,18,0021400319,1610612737,ATL,Atlanta,John Jenkins,,,2:31,0.0,0.0,0.0,0.0,3.0,2.0,6.0,4.0,0.0,0.0,2.0,0.0
0021400319,1610612737,ATL,Atlanta,203098,John Jenkins,,,2:31,80.0,157.5,-77.5,0.0,0.0,0.0,0.0,0.0,0.0,0.0,0.0,0.0,0.143,96.13,-0.316,2014-12-10T00:00:00,4,1610612737,ATL,Atlanta,15-6,25,22,21,27,0,0,0,0,0,0,0,0,0,0,95,0.418,0.692,0.333,26,52,14,0021400319,1610612737,ATL,Atlanta,John Jenkins,,,2:31,0.0,0.0,0.0,0.0,3.0,2.0,6.0,4.0,0.0,0.0,2.0,0.0
0021400319,1610612737,ATL,Atlanta,1882,Elton Brand,,DNP - Coach's Decision                  ,,,,,,,0.0,,,,,,,0.0,,,2014-12-10T00:00:00,4,1610612755,PHI,Philadelphia,2-19,21,17,20,21,0,0,0,0,0,0,0,0,0,0,79,0.417,0.591,0.24,21,39,18,0021400319,1610612737,ATL,Atlanta,Elton Brand,,DNP - Coach's Decision                  ,,,,,,,,,,,,,
0021400319,1610612737,ATL,Atlanta,1882,Elton Brand,,DNP - Coach's Decision                  ,,,,,,,0.0,,,,,,,0.0,,,2014-12-10T00:00:00,4,1610612737,ATL,Atlanta,15-6,25,22,21,27,0,0,0,0,0,0,0,0,0,0,95,0.418,0.692,0.333,26,52,14,0021400319,1610612737,ATL,Atlanta,Elton Brand,,DNP - Coach's Decision                  ,,,,,,,,,,,,,
