GAME_ID_x,TEAM_ID_x,TEAM_ABBREVIATION_x,TEAM_CITY_x,PLAYER_ID,PLAYER_NAME_x,START_POSITION_x,COMMENT_x,MIN_x,OFF_RATING,DEF_RATING,NET_RATING,AST_PCT,AST_TOV,AST_RATIO,OREB_PCT,DREB_PCT,REB_PCT,TM_TOV_PCT,EFG_PCT,TS_PCT,USG_PCT,PACE,PIE,GAME_DATE_EST,GAME_SEQUENCE,TEAM_ID_y,TEAM_ABBREVIATION_y,TEAM_CITY_NAME,TEAM_WINS_LOSSES,PTS_QTR1,PTS_QTR2,PTS_QTR3,PTS_QTR4,PTS_OT1,PTS_OT2,PTS_OT3,PTS_OT4,PTS_OT5,PTS_OT6,PTS_OT7,PTS_OT8,PTS_OT9,PTS_OT10,PTS,FG_PCT,FT_PCT,FG3_PCT,AST,REB,TOV,GAME_ID_y,TEAM_ID,TEAM_ABBREVIATION,TEAM_CITY_y,PLAYER_NAME_y,START_POSITION_y,COMMENT_y,MIN_y,PTS_OFF_TOV,PTS_2ND_CHANCE,PTS_FB,PTS_PAINT,OPP_PTS_OFF_TOV,OPP_PTS_2ND_CHANCE,OPP_PTS_FB,OPP_PTS_PAINT,BLK,BLKA,PF,PFD
0021400330,1610612753,ORL,Orlando,202699,Tobias Harris,F,,33:53,105.9,93.5,12.4,0.136,1.0,13.8,0.038,0.313,0.19,13.8,0.321,0.412,0.271,91.59,0.081,2014-12-12T00:00:00,3,1610612753,ORL,Orlando,9-16,26,14,24,17,0,0,0,0,0,0,0,0,0,0,81,0.39,0.75,0.346,14,46,18,0021400330,1610612753,ORL,Orlando,Tobias Harris,F,,33:53,2.0,2.0,0.0,2.0,11.0,8.0,4.0,16.0,1.0,1.0,5.0,2.0
0021400330,1610612753,ORL,Orlando,202699,Tobias Harris,F,,33:53,105.9,93.5,12.4,0.136,1.0,13.8,0.038,0.313,0.19,13.8,0.321,0.412,0.271,91.59,0.081,2014-12-12T00:00:00,3,1610612737,ATL,Atlanta,16-6,29,11,24,23,0,0,0,0,0,0,0,0,0,0,87,0.372,0.741,0.31,24,42,12,0021400330,1610612753,ORL,Orlando,Tobias Harris,F,,33:53,2.0,2.0,0.0,2.0,11.0,8.0,4.0,16.0,1.0,1.0,5.0,2.0
0021400330,1610612753,ORL,Orlando,101112,Channing Frye,F,,36:55,88.4,84.7,3.6,0.045,0.5,9.7,0.029,0.258,0.138,19.4,0.5,0.546,0.119,93.89,0.072,2014-12-12T00:00:00,3,1610612753,ORL,Orlando,9-16,26,14,24,17,0,0,0,0,0,0,0,0,0,0,81,0.39,0.75,0.346,14,46,18,0021400330,1610612753,ORL,Orlando,Channing Frye,F,,36:55,0.0,2.0,0.0,0.0,10.0,7.0,4.0,20.0,1.0,0.0,4.0,2.0
0021400330,1610612753,ORL,Orlando,101112,Channing Frye,F,,36:55,88.4,84.7,3.6,0.045,0.5,9.7,0.029,0.258,0.138,19.4,0.5,0.546,0.119,93.89,0.072,2014-12-12T00:00:00,3,1610612737,ATL,Atlanta,16-6,29,11,24,23,0,0,0,0,0,0,0,0,0,0,87,0.372,0.741,0.31,24,42,12,0021400330,1610612753,ORL,Orlando,Channing Frye,F,,36:55,0.0,2.0,0.0,0.0,10.0,7.0,4.0,20.0,1.0,0.0,4.0,2.0
0021400330,1610612753,ORL,Orlando,203124,Kyle O'Quinn,C,,32:57,108.2,102.5,5.6,0.095,0.67,11.6,0.074,0.286,0.182,17.4,0.5,0.574,0.221,94.01,0.112,2014-12-12T00:00:00,3,1610612753,ORL,Orlando,9-16,26,14,24,17,0,0,0,0,0,0,0,0,0,0,81,0.39,0.75,0.346,14,46,18,0021400330,1610612753,ORL,Orlando,Kyle O'Quinn,C,,32:57,5.0,5.0,0.0,8.0,12.0,8.0,11.0,16.0,0.0,0.0,3.0,4.0
0021400330,1610612753,ORL,Orlando,203124,Kyle O'Quinn,C,,32:57,108.2,102.5,5.6,0.095,0.67,11.6,0.074,0.286,0.182,17.4,0.5,0.574,0.221,94.01,0.112,2014-12-12T00:00:00,3,1610612737,ATL,Atlanta,16-6,29,11,24,23,0,0,0,0,0,0,0,0,0,0,87,0.372,0.741,0.31,24,42,12,0021400330,1610612753,ORL,Orlando,Kyle O'Quinn,C,,32:57,5.0,5.0,0.0,8.0,12.0,8.0,11.0,16.0,0.0,0.0,3.0,4.0
0021400330,1610612753,ORL,Orlando,203095,Evan Fournier,G,,34:18,106.0,90.5,15.4,0.235,4.0,21.1,0.034,0.161,0.1,5.3,0.643,0.643,0.214,90.5,0.151,2014-12-12T00:00:00,3,1610612753,ORL,Orlando,9-16,26,14,24,17,0,0,0,0,0,0,0,0,0,0,81,0.39,0.75,0.346,14,46,18,0021400330,1610612753,ORL,Orlando,Evan Fournier,G,,34:18,3.0,0.0,2.0,10.0,9.0,8.0,4.0,14.0,0.0,0.0,4.0,0.0
0021400330,1610612753,ORL,Orlando,203095,Evan Fournier,G,,34:18,106.0,90.5,15.4,0.235,4.0,21.1,0.034,0.161,0.1,5.3,0.643,0.643,0.214,90.5,0.151,2014-12-12T00:00:00,3,1610612737,ATL,Atlanta,16-6,29,11,24,23,0,0,0,0,0,0,0,0,0,0,87,0.372,0.741,0.31,24,42,12,0021400330,1610612753,ORL,Orlando,Evan Fournier,G,,34:18,3.0,0.0,2.0,10.0,9.0,8.0,4.0,14.0,0.0,0.0,4.0,0.0
0021400330,1610612753,ORL,Orlando,203506,Victor Oladipo,G,,33:39,101.3,104.1,-2.8,0.063,0.33,5.6,0.0,0.069,0.035,16.9,0.792,0.763,0.246,91.66,0.098,2014-12-12T00:00:00,3,1610612753,ORL,Orlando,9-16,26,14,24,17,0,0,0,0,0,0,0,0,0,0,81,0.39,0.75,0.346,14,46,18,0021400330,1610612753,ORL,Orlando,Victor Oladipo,G,,33:39,0.0,0.0,1.0,6.0,14.0,8.0,7.0,18.0,0.0,0.0,5.0,3.0
0021400330,1610612753,ORL,Orlando,203506,Victor Oladipo,G,,33:39,101.3,104.1,-2.8,0.063,0.33,5.6,0.0,0.069,0.035,16.9,0.792,0.763,0.246,91.66,0.098,2014-12-12T00:00:00,3,1610612737,ATL,Atlanta,16-6,29,11,24,23,0,0,0,0,0,0,0,0,0,0,87,0.372,0.741,0.31,24,42,12,0021400330,1610612753,ORL,Orlando,Victor Oladipo,G,,33:39,0.0,0.0,1.0,6.0,14.0,8.0,7.0,18.0,0.0,0.0,5.0,3.0
0021400330,1610612753,ORL,Orlando,203473,Dewayne Dedmon,,,19:21,60.2,75.7,-15.5,0.0,0.0,0.0,0.091,0.125,0.105,60.0,0.0,0.0,0.111,103.56,-0.031,2014-12-12T00:00:00,3,1610612753,ORL,Orlando,9-16,26,14,24,17,0,0,0,0,0,0,0,0,0,0,81,0.39,0.75,0.346,14,46,18,0021400330,1610612753,ORL,Orlando,Dewayne Dedmon,,,19:21,0.0,0.0,0.0,0.0,11.0,2.0,7.0,10.0,2.0,1.0,1.0,0.0
0021400330,1610612753,ORL,Orlando,203473,Dewayne Dedmon,,,19:21,60.2,75.7,-15.5,0.0,0.0,0.0,0.091,0.125,0.105,60.0,0.0,0.0,0.111,103.56,-0.031,2014-12-12T00:00:00,3,1610612737,ATL,Atlanta,16-6,29,11,24,23,0,0,0,0,0,0,0,0,0,0,87,0.372,0.741,0.31,24,42,12,0021400330,1610612753,ORL,Orlando,Dewayne Dedmon,,,19:21,0.0,0.0,0.0,0.0,11.0,2.0,7.0,10.0,2.0,1.0,1.0,0.0
0021400330,1610612753,ORL,Orlando,2732,Ben Gordon,,,17:49,54.4,90.1,-35.7,0.2,0.0,14.3,0.0,0.0,0.0,0.0,0.417,0.417,0.14,100.38,0.062,2014-12-12T00:00:00,3,1610612753,ORL,Orlando,9-16,26,14,24,17,0,0,0,0,0,0,0,0,0,0,81,0.39,0.75,0.346,14,46,18,0021400330,1610612753,ORL,Orlando,Ben Gordon,,,17:49,0.0,0.0,0.0,0.0,12.0,5.0,7.0,10.0,0.0,0.0,1.0,1.0
0021400330,1610612753,ORL,Orlando,2732,Ben Gordon,,,17:49,54.4,90.1,-35.7,0.2,0.0,14.3,0.0,0.0,0.0,0.0,0.417,0.417,0.14,100.38,0.062,2014-12-12T00:00:00,3,1610612737,ATL,Atlanta,16-6,29,11,24,23,0,0,0,0,0,0,0,0,0,0,87,0.372,0.741,0.31,24,42,12,0021400330,1610612753,ORL,Orlando,Ben Gordon,,,17:49,0.0,0.0,0.0,0.0,12.0,5.0,7.0,10.0,0.0,0.0,1.0,1.0
0021400330,1610612753,ORL,Orlando,203901,Elfrid Payton,,,21:17,48.7,70.1,-21.4,0.333,1.0,22.2,0.036,0.0,0.021,22.2,0.2,0.2,0.143,103.26,-0.135,2014-12-12T00:00:00,3,1610612753,ORL,Orlando,9-16,26,14,24,17,0,0,0,0,0,0,0,0,0,0,81,0.39,0.75,0.346,14,46,18,0021400330,1610612753,ORL,Orlando,Elfrid Payton,,,21:17,0.0,0.0,0.0,0.0,7.0,2.0,7.0,10.0,0.0,1.0,2.0,0.0
0021400330,1610612753,ORL,Orlando,203901,Elfrid Payton,,,21:17,48.7,70.1,-21.4,0.333,1.0,22.2,0.036,0.0,0.021,22.2,0.2,0.2,0.143,103.26,-0.135,2014-12-12T00:00:00,3,1610612737,ATL,Atlanta,16-6,29,11,24,23,0,0,0,0,0,0,0,0,0,0,87,0.372,0.741,0.31,24,42,12,0021400330,1610612753,ORL,Orlando,Elfrid Payton,,,21:17,0.0,0.0,0.0,0.0,7.0,2.0,7.0,10.0,0.0,1.0,2.0,0.0
0021400330,1610612753,ORL,Orlando,2584,Willie Green,,,9:49,23.8,79.9,-56.1,0.0,0.0,0.0,0.077,0.286,0.15,11.1,0.0,0.0,0.375,106.43,-1.545,2014-12-12T00:00:00,3,1610612753,ORL,Orlando,9-16,26,14,24,17,0,0,0,0,0,0,0,0,0,0,81,0.39,0.75,0.346,14,46,18,0021400330,1610612753,ORL,Orlando,Willie Green,,,9:49,0.0,0.0,0.0,0.0,4.0,2.0,4.0,6.0,0.0,0.0,2.0,0.0
0021400330,1610612753,ORL,Orlando,2584,Willie Green,,,9:49,23.8,79.9,-56.1,0.0,0.0,0.0,0.077,0.286,0.15,11.1,0.0,0.0,0.375,106.43,-1.545,2014-12-12T00:00:00,3,1610612737,ATL,Atlanta,16-6,29,11,24,23,0,0,0,0,0,0,0,0,0,0,87,0.372,0.741,0.31,24,42,12,0021400330,1610612753,ORL,Orlando,Willie Green,,,9:49,0.0,0.0,0.0,0.0,4.0,2.0,4.0,6.0,0.0,0.0,2.0,0.0
0021400330,1610612753,ORL,Orlando,203906,Devyn Marble,,,0:03,0.0,227.3,-227.3,0.0,0.0,0.0,0.0,0.0,0.0,0.0,0.0,0.0,0.0,452.57,0.0,2014-12-12T00:00:00,3,1610612753,ORL,Orlando,9-16,26,14,24,17,0,0,0,0,0,0,0,0,0,0,81,0.39,0.75,0.346,14,46,18,0021400330,1610612753,ORL,Orlando,Devyn Marble,,,0:03,0.0,0.0,0.0,0.0,0.0,0.0,0.0,0.0,0.0,0.0,0.0,0.0
0021400330,1610612753,ORL,Orlando,203906,Devyn Marble,,,0:03,0.0,227.3,-227.3,0.0,0.0,0.0,0.0,0.0,0.0,0.0,0.0,0.0,0.0,452.57,0.0,2014-12-12T00:00:00,3,1610612737,ATL,Atlanta,16-6,29,11,24,23,0,0,0,0,0,0,0,0,0,0,87,0.372,0.741,0.31,24,42,12,0021400330,1610612753,ORL,Orlando,Devyn Marble,,,0:03,0.0,0.0,0.0,0.0,0.0,0.0,0.0,0.0,0.0,0.0,0.0,0.0
0021400330,1610612753,ORL,Orlando,203090,Maurice Harkless,,DNP - Coach's Decision                  ,,,,,,,0.0,,,,,,,0.0,,,2014-12-12T00:00:00,3,1610612753,ORL,Orlando,9-16,26,14,24,17,0,0,0,0,0,0,0,0,0,0,81,0.39,0.75,0.346,14,46,18,0021400330,1610612753,ORL,Orlando,Maurice Harkless,,DNP - Coach's Decision                  ,,,,,,,,,,,,,
0021400330,1610612753,ORL,Orlando,203090,Maurice Harkless,,DNP - Coach's Decision                  ,,,,,,,0.0,,,,,,,0.0,,,2014-12-12T00:00:00,3,1610612737,ATL,Atlanta,16-6,29,11,24,23,0,0,0,0,0,0,0,0,0,0,87,0.372,0.741,0.31,24,42,12,0021400330,1610612753,ORL,Orlando,Maurice Harkless,,DNP - Coach's Decision                  ,,,,,,,,,,,,,
0021400330,1610612753,ORL,Orlando,203094,Andrew Nicholson,,DNP - Coach's Decision                  ,,,,,,,0.0,,,,,,,0.0,,,2014-12-12T00:00:00,3,1610612753,ORL,Orlando,9-16,26,14,24,17,0,0,0,0,0,0,0,0,0,0,81,0.39,0.75,0.346,14,46,18,0021400330,1610612753,ORL,Orlando,Andrew Nicholson,,DNP - Coach's Decision                  ,,,,,,,,,,,,,
0021400330,1610612753,ORL,Orlando,203094,Andrew Nicholson,,DNP - Coach's Decision                  ,,,,,,,0.0,,,,,,,0.0,,,2014-12-12T00:00:00,3,1610612737,ATL,Atlanta,16-6,29,11,24,23,0,0,0,0,0,0,0,0,0,0,87,0.372,0.741,0.31,24,42,12,0021400330,1610612753,ORL,Orlando,Andrew Nicholson,,DNP - Coach's Decision                  ,,,,,,,,,,,,,
0021400330,1610612753,ORL,Orlando,2557,Luke Ridnour,,DNP - Coach's Decision                  ,,,,,,,0.0,,,,,,,0.0,,,2014-12-12T00:00:00,3,1610612753,ORL,Orlando,9-16,26,14,24,17,0,0,0,0,0,0,0,0,0,0,81,0.39,0.75,0.346,14,46,18,0021400330,1610612753,ORL,Orlando,Luke Ridnour,,DNP - Coach's Decision                  ,,,,,,,,,,,,,
0021400330,1610612753,ORL,Orlando,2557,Luke Ridnour,,DNP - Coach's Decision                  ,,,,,,,0.0,,,,,,,0.0,,,2014-12-12T00:00:00,3,1610612737,ATL,Atlanta,16-6,29,11,24,23,0,0,0,0,0,0,0,0,0,0,87,0.372,0.741,0.31,24,42,12,0021400330,1610612753,ORL,Orlando,Luke Ridnour,,DNP - Coach's Decision                  ,,,,,,,,,,,,,
0021400330,1610612737,ATL,Atlanta,201960,DeMarre Carroll,F,,31:57,101.0,104.5,-3.5,0.167,3.0,17.4,0.0,0.08,0.038,5.8,0.318,0.455,0.211,95.04,0.036,2014-12-12T00:00:00,3,1610612753,ORL,Orlando,9-16,26,14,24,17,0,0,0,0,0,0,0,0,0,0,81,0.39,0.75,0.346,14,46,18,0021400330,1610612737,ATL,Atlanta,DeMarre Carroll,F,,31:57,3.0,0.0,3.0,4.0,8.0,7.0,3.0,24.0,0.0,0.0,4.0,4.0
0021400330,1610612737,ATL,Atlanta,201960,DeMarre Carroll,F,,31:57,101.0,104.5,-3.5,0.167,3.0,17.4,0.0,0.08,0.038,5.8,0.318,0.455,0.211,95.04,0.036,2014-12-12T00:00:00,3,1610612737,ATL,Atlanta,16-6,29,11,24,23,0,0,0,0,0,0,0,0,0,0,87,0.372,0.741,0.31,24,42,12,0021400330,1610612737,ATL,Atlanta,DeMarre Carroll,F,,31:57,3.0,0.0,3.0,4.0,8.0,7.0,3.0,24.0,0.0,0.0,4.0,4.0
0021400330,1610612737,ATL,Atlanta,200794,Paul Millsap,F,,32:58,102.5,101.5,1.1,0.133,1.0,8.5,0.033,0.28,0.145,8.5,0.567,0.593,0.313,94.2,0.159,2014-12-12T00:00:00,3,1610612753,ORL,Orlando,9-16,26,14,24,17,0,0,0,0,0,0,0,0,0,0,81,0.39,0.75,0.346,14,46,18,0021400330,1610612737,ATL,Atlanta,Paul Millsap,F,,32:58,2.0,0.0,2.0,4.0,5.0,7.0,3.0,26.0,0.0,2.0,2.0,7.0
0021400330,1610612737,ATL,Atlanta,200794,Paul Millsap,F,,32:58,102.5,101.5,1.1,0.133,1.0,8.5,0.033,0.28,0.145,8.5,0.567,0.593,0.313,94.2,0.159,2014-12-12T00:00:00,3,1610612737,ATL,Atlanta,16-6,29,11,24,23,0,0,0,0,0,0,0,0,0,0,87,0.372,0.741,0.31,24,42,12,0021400330,1610612737,ATL,Atlanta,Paul Millsap,F,,32:58,2.0,0.0,2.0,4.0,5.0,7.0,3.0,26.0,0.0,2.0,2.0,7.0
0021400330,1610612737,ATL,Atlanta,201143,Al Horford,C,,33:50,78.5,92.0,-13.5,0.182,1.0,10.0,0.034,0.171,0.109,10.0,0.531,0.531,0.246,97.49,0.171,2014-12-12T00:00:00,3,1610612753,ORL,Orlando,9-16,26,14,24,17,0,0,0,0,0,0,0,0,0,0,81,0.39,0.75,0.346,14,46,18,0021400330,1610612737,ATL,Atlanta,Al Horford,C,,33:50,2.0,0.0,0.0,8.0,10.0,9.0,2.0,24.0,2.0,0.0,2.0,0.0
0021400330,1610612737,ATL,Atlanta,201143,Al Horford,C,,33:50,78.5,92.0,-13.5,0.182,1.0,10.0,0.034,0.171,0.109,10.0,0.531,0.531,0.246,97.49,0.171,2014-12-12T00:00:00,3,1610612737,ATL,Atlanta,16-6,29,11,24,23,0,0,0,0,0,0,0,0,0,0,87,0.372,0.741,0.31,24,42,12,0021400330,1610612737,ATL,Atlanta,Al Horford,C,,33:50,2.0,0.0,0.0,8.0,10.0,9.0,2.0,24.0,2.0,0.0,2.0,0.0
0021400330,1610612737,ATL,Atlanta,2594,Kyle Korver,G,,31:00,93.0,101.3,-8.4,0.176,3.0,33.3,0.036,0.148,0.091,11.1,0.6,0.6,0.094,87.81,0.137,2014-12-12T00:00:00,3,1610612753,ORL,Orlando,9-16,26,14,24,17,0,0,0,0,0,0,0,0,0,0,81,0.39,0.75,0.346,14,46,18,0021400330,1610612737,ATL,Atlanta,Kyle Korver,G,,31:00,3.0,6.0,0.0,0.0,7.0,9.0,0.0,20.0,0.0,0.0,0.0,2.0
0021400330,1610612737,ATL,Atlanta,2594,Kyle Korver,G,,31:00,93.0,101.3,-8.4,0.176,3.0,33.3,0.036,0.148,0.091,11.1,0.6,0.6,0.094,87.81,0.137,2014-12-12T00:00:00,3,1610612737,ATL,Atlanta,16-6,29,11,24,23,0,0,0,0,0,0,0,0,0,0,87,0.372,0.741,0.31,24,42,12,0021400330,1610612737,ATL,Atlanta,Kyle Korver,G,,31:00,3.0,6.0,0.0,0.0,7.0,9.0,0.0,20.0,0.0,0.0,0.0,2.0
0021400330,1610612737,ATL,Atlanta,201952,Jeff Teague,G,,33:22,92.1,96.8,-4.7,0.333,1.67,22.9,0.034,0.148,0.089,13.7,0.423,0.468,0.248,90.65,0.123,2014-12-12T00:00:00,3,1610612753,ORL,Orlando,9-16,26,14,24,17,0,0,0,0,0,0,0,0,0,0,81,0.39,0.75,0.346,14,46,18,0021400330,1610612737,ATL,Atlanta,Jeff Teague,G,,33:22,4.0,2.0,2.0,4.0,10.0,7.0,2.0,22.0,0.0,0.0,1.0,6.0
0021400330,1610612737,ATL,Atlanta,201952,Jeff Teague,G,,33:22,92.1,96.8,-4.7,0.333,1.67,22.9,0.034,0.148,0.089,13.7,0.423,0.468,0.248,90.65,0.123,2014-12-12T00:00:00,3,1610612737,ATL,Atlanta,16-6,29,11,24,23,0,0,0,0,0,0,0,0,0,0,87,0.372,0.741,0.31,24,42,12,0021400330,1610612737,ATL,Atlanta,Jeff Teague,G,,33:22,4.0,2.0,2.0,4.0,10.0,7.0,2.0,22.0,0.0,0.0,1.0,6.0
0021400330,1610612737,ATL,Atlanta,1882,Elton Brand,,,11:51,100.6,65.9,34.7,0.0,0.0,0.0,0.0,0.2,0.111,53.2,0.0,0.568,0.073,98.43,0.038,2014-12-12T00:00:00,3,1610612753,ORL,Orlando,9-16,26,14,24,17,0,0,0,0,0,0,0,0,0,0,81,0.39,0.75,0.346,14,46,18,0021400330,1610612737,ATL,Atlanta,Elton Brand,,,11:51,0.0,0.0,0.0,0.0,0.0,0.0,1.0,2.0,0.0,0.0,1.0,2.0
0021400330,1610612737,ATL,Atlanta,1882,Elton Brand,,,11:51,100.6,65.9,34.7,0.0,0.0,0.0,0.0,0.2,0.111,53.2,0.0,0.568,0.073,98.43,0.038,2014-12-12T00:00:00,3,1610612737,ATL,Atlanta,16-6,29,11,24,23,0,0,0,0,0,0,0,0,0,0,87,0.372,0.741,0.31,24,42,12,0021400330,1610612737,ATL,Atlanta,Elton Brand,,,11:51,0.0,0.0,0.0,0.0,0.0,0.0,1.0,2.0,0.0,0.0,1.0,2.0
0021400330,1610612737,ATL,Atlanta,200757,Thabo Sefolosha,,,21:41,79.4,59.9,19.5,0.091,0.0,20.0,0.056,0.071,0.065,0.0,0.25,0.25,0.084,103.35,0.053,2014-12-12T00:00:00,3,1610612753,ORL,Orlando,9-16,26,14,24,17,0,0,0,0,0,0,0,0,0,0,81,0.39,0.75,0.346,14,46,18,0021400330,1610612737,ATL,Atlanta,Thabo Sefolosha,,,21:41,0.0,2.0,0.0,2.0,5.0,2.0,3.0,6.0,1.0,0.0,1.0,0.0
0021400330,1610612737,ATL,Atlanta,200757,Thabo Sefolosha,,,21:41,79.4,59.9,19.5,0.091,0.0,20.0,0.056,0.071,0.065,0.0,0.25,0.25,0.084,103.35,0.053,2014-12-12T00:00:00,3,1610612737,ATL,Atlanta,16-6,29,11,24,23,0,0,0,0,0,0,0,0,0,0,87,0.372,0.741,0.31,24,42,12,0021400330,1610612737,ATL,Atlanta,Thabo Sefolosha,,,21:41,0.0,2.0,0.0,2.0,5.0,2.0,3.0,6.0,1.0,0.0,1.0,0.0
0021400330,1610612737,ATL,Atlanta,202714,Shelvin Mack,,,7:12,63.0,63.0,0.0,0.5,0.0,50.0,0.0,0.375,0.188,0.0,0.0,0.0,0.126,105.87,0.333,2014-12-12T00:00:00,3,1610612753,ORL,Orlando,9-16,26,14,24,17,0,0,0,0,0,0,0,0,0,0,81,0.39,0.75,0.346,14,46,18,0021400330,1610612737,ATL,Atlanta,Shelvin Mack,,,7:12,0.0,0.0,0.0,0.0,0.0,0.0,0.0,2.0,0.0,1.0,0.0,0.0
0021400330,1610612737,ATL,Atlanta,202714,Shelvin Mack,,,7:12,63.0,63.0,0.0,0.5,0.0,50.0,0.0,0.375,0.188,0.0,0.0,0.0,0.126,105.87,0.333,2014-12-12T00:00:00,3,1610612737,ATL,Atlanta,16-6,29,11,24,23,0,0,0,0,0,0,0,0,0,0,87,0.372,0.741,0.31,24,42,12,0021400330,1610612737,ATL,Atlanta,Shelvin Mack,,,7:12,0.0,0.0,0.0,0.0,0.0,0.0,0.0,2.0,0.0,1.0,0.0,0.0
0021400330,1610612737,ATL,Atlanta,203471,Dennis Schroder,,,18:33,83.5,57.8,25.7,0.5,2.5,31.7,0.0,0.182,0.108,12.7,0.143,0.285,0.258,101.95,0.194,2014-12-12T00:00:00,3,1610612753,ORL,Orlando,9-16,26,14,24,17,0,0,0,0,0,0,0,0,0,0,81,0.39,0.75,0.346,14,46,18,0021400330,1610612737,ATL,Atlanta,Dennis Schroder,,,18:33,2.0,0.0,0.0,2.0,0.0,2.0,1.0,2.0,0.0,1.0,1.0,4.0
0021400330,1610612737,ATL,Atlanta,203471,Dennis Schroder,,,18:33,83.5,57.8,25.7,0.5,2.5,31.7,0.0,0.182,0.108,12.7,0.143,0.285,0.258,101.95,0.194,2014-12-12T00:00:00,3,1610612737,ATL,Atlanta,16-6,29,11,24,23,0,0,0,0,0,0,0,0,0,0,87,0.372,0.741,0.31,24,42,12,0021400330,1610612737,ATL,Atlanta,Dennis Schroder,,,18:33,2.0,0.0,0.0,2.0,0.0,2.0,1.0,2.0,0.0,1.0,1.0,4.0
0021400330,1610612737,ATL,Atlanta,203118,Mike Scott,,,17:03,83.0,50.2,32.8,0.143,0.0,12.9,0.0,0.136,0.077,0.0,0.5,0.592,0.19,90.65,0.321,2014-12-12T00:00:00,3,1610612753,ORL,Orlando,9-16,26,14,24,17,0,0,0,0,0,0,0,0,0,0,81,0.39,0.75,0.346,14,46,18,0021400330,1610612737,ATL,Atlanta,Mike Scott,,,17:03,2.0,0.0,4.0,0.0,2.0,2.0,0.0,0.0,0.0,0.0,0.0,2.0
0021400330,1610612737,ATL,Atlanta,203118,Mike Scott,,,17:03,83.0,50.2,32.8,0.143,0.0,12.9,0.0,0.136,0.077,0.0,0.5,0.592,0.19,90.65,0.321,2014-12-12T00:00:00,3,1610612737,ATL,Atlanta,16-6,29,11,24,23,0,0,0,0,0,0,0,0,0,0,87,0.372,0.741,0.31,24,42,12,0021400330,1610612737,ATL,Atlanta,Mike Scott,,,17:03,2.0,0.0,4.0,0.0,2.0,2.0,0.0,0.0,0.0,0.0,0.0,2.0
0021400330,1610612737,ATL,Atlanta,203145,Kent Bazemore,,,0:33,106.4,166.7,-60.3,0.0,0.0,0.0,0.0,0.0,0.0,0.0,0.0,0.0,0.0,211.03,0.0,2014-12-12T00:00:00,3,1610612753,ORL,Orlando,9-16,26,14,24,17,0,0,0,0,0,0,0,0,0,0,81,0.39,0.75,0.346,14,46,18,0021400330,1610612737,ATL,Atlanta,Kent Bazemore,,,0:33,0.0,0.0,0.0,0.0,3.0,0.0,0.0,2.0,0.0,0.0,0.0,0.0
0021400330,1610612737,ATL,Atlanta,203145,Kent Bazemore,,,0:33,106.4,166.7,-60.3,0.0,0.0,0.0,0.0,0.0,0.0,0.0,0.0,0.0,0.0,211.03,0.0,2014-12-12T00:00:00,3,1610612737,ATL,Atlanta,16-6,29,11,24,23,0,0,0,0,0,0,0,0,0,0,87,0.372,0.741,0.31,24,42,12,0021400330,1610612737,ATL,Atlanta,Kent Bazemore,,,0:33,0.0,0.0,0.0,0.0,3.0,0.0,0.0,2.0,0.0,0.0,0.0,0.0
0021400330,1610612737,ATL,Atlanta,203098,John Jenkins,,DNP - Coach's Decision                  ,,,,,,,0.0,,,,,,,0.0,,,2014-12-12T00:00:00,3,1610612753,ORL,Orlando,9-16,26,14,24,17,0,0,0,0,0,0,0,0,0,0,81,0.39,0.75,0.346,14,46,18,0021400330,1610612737,ATL,Atlanta,John Jenkins,,DNP - Coach's Decision                  ,,,,,,,,,,,,,
0021400330,1610612737,ATL,Atlanta,203098,John Jenkins,,DNP - Coach's Decision                  ,,,,,,,0.0,,,,,,,0.0,,,2014-12-12T00:00:00,3,1610612737,ATL,Atlanta,16-6,29,11,24,23,0,0,0,0,0,0,0,0,0,0,87,0.372,0.741,0.31,24,42,12,0021400330,1610612737,ATL,Atlanta,John Jenkins,,DNP - Coach's Decision                  ,,,,,,,,,,,,,
0021400330,1610612737,ATL,Atlanta,203488,Mike Muscala,,DNP - Coach's Decision                  ,,,,,,,0.0,,,,,,,0.0,,,2014-12-12T00:00:00,3,1610612753,ORL,Orlando,9-16,26,14,24,17,0,0,0,0,0,0,0,0,0,0,81,0.39,0.75,0.346,14,46,18,0021400330,1610612737,ATL,Atlanta,Mike Muscala,,DNP - Coach's Decision                  ,,,,,,,,,,,,,
0021400330,1610612737,ATL,Atlanta,203488,Mike Muscala,,DNP - Coach's Decision                  ,,,,,,,0.0,,,,,,,0.0,,,2014-12-12T00:00:00,3,1610612737,ATL,Atlanta,16-6,29,11,24,23,0,0,0,0,0,0,0,0,0,0,87,0.372,0.741,0.31,24,42,12,0021400330,1610612737,ATL,Atlanta,Mike Muscala,,DNP - Coach's Decision                  ,,,,,,,,,,,,,
