GAME_ID_x,TEAM_ID_x,TEAM_ABBREVIATION_x,TEAM_CITY_x,PLAYER_ID,PLAYER_NAME_x,START_POSITION_x,COMMENT_x,MIN_x,OFF_RATING,DEF_RATING,NET_RATING,AST_PCT,AST_TOV,AST_RATIO,OREB_PCT,DREB_PCT,REB_PCT,TM_TOV_PCT,EFG_PCT,TS_PCT,USG_PCT,PACE,PIE,GAME_DATE_EST,GAME_SEQUENCE,TEAM_ID_y,TEAM_ABBREVIATION_y,TEAM_CITY_NAME,TEAM_WINS_LOSSES,PTS_QTR1,PTS_QTR2,PTS_QTR3,PTS_QTR4,PTS_OT1,PTS_OT2,PTS_OT3,PTS_OT4,PTS_OT5,PTS_OT6,PTS_OT7,PTS_OT8,PTS_OT9,PTS_OT10,PTS,FG_PCT,FT_PCT,FG3_PCT,AST,REB,TOV,GAME_ID_y,TEAM_ID,TEAM_ABBREVIATION,TEAM_CITY_y,PLAYER_NAME_y,START_POSITION_y,COMMENT_y,MIN_y,PTS_OFF_TOV,PTS_2ND_CHANCE,PTS_FB,PTS_PAINT,OPP_PTS_OFF_TOV,OPP_PTS_2ND_CHANCE,OPP_PTS_FB,OPP_PTS_PAINT,BLK,BLKA,PF,PFD
0021400345,1610612763,MEM,Memphis,2754,Tony Allen,F,,18:24,107.0,118.1,-11.1,0.0,0.0,0.0,0.067,0.0,0.032,33.3,0.5,0.5,0.082,93.77,-0.045,2014-12-13T00:00:00,6,1610612763,MEM,Memphis,19-4,21,22,25,41,11,0,0,0,0,0,0,0,0,0,120,0.484,0.704,0.423,33,42,14,0021400345,1610612763,MEM,Memphis,Tony Allen,F,,18:24,0.0,0.0,2.0,2.0,5.0,6.0,10.0,20.0,2.0,1.0,5.0,0.0
0021400345,1610612763,MEM,Memphis,2754,Tony Allen,F,,18:24,107.0,118.1,-11.1,0.0,0.0,0.0,0.067,0.0,0.032,33.3,0.5,0.5,0.082,93.77,-0.045,2014-12-13T00:00:00,6,1610612755,PHI,Philadelphia,2-21,28,22,30,29,6,0,0,0,0,0,0,0,0,0,115,0.488,0.706,0.393,22,45,16,0021400345,1610612763,MEM,Memphis,Tony Allen,F,,18:24,0.0,0.0,2.0,2.0,5.0,6.0,10.0,20.0,2.0,1.0,5.0,0.0
0021400345,1610612763,MEM,Memphis,2216,Zach Randolph,F,,32:48,122.7,92.9,29.8,0.048,0.33,5.1,0.08,0.31,0.204,15.2,0.714,0.761,0.255,98.17,0.235,2014-12-13T00:00:00,6,1610612763,MEM,Memphis,19-4,21,22,25,41,11,0,0,0,0,0,0,0,0,0,120,0.484,0.704,0.423,33,42,14,0021400345,1610612763,MEM,Memphis,Zach Randolph,F,,32:48,14.0,8.0,4.0,18.0,6.0,7.0,13.0,18.0,0.0,0.0,1.0,3.0
0021400345,1610612763,MEM,Memphis,2216,Zach Randolph,F,,32:48,122.7,92.9,29.8,0.048,0.33,5.1,0.08,0.31,0.204,15.2,0.714,0.761,0.255,98.17,0.235,2014-12-13T00:00:00,6,1610612755,PHI,Philadelphia,2-21,28,22,30,29,6,0,0,0,0,0,0,0,0,0,115,0.488,0.706,0.393,22,45,16,0021400345,1610612763,MEM,Memphis,Zach Randolph,F,,32:48,14.0,8.0,4.0,18.0,6.0,7.0,13.0,18.0,0.0,0.0,1.0,3.0
0021400345,1610612763,MEM,Memphis,201188,Marc Gasol,C,,36:32,108.1,101.8,6.3,0.12,1.5,15.4,0.0,0.273,0.153,10.2,0.545,0.62,0.212,96.97,0.153,2014-12-13T00:00:00,6,1610612763,MEM,Memphis,19-4,21,22,25,41,11,0,0,0,0,0,0,0,0,0,120,0.484,0.704,0.423,33,42,14,0021400345,1610612763,MEM,Memphis,Marc Gasol,C,,36:32,2.0,0.0,0.0,10.0,10.0,9.0,15.0,26.0,1.0,0.0,3.0,6.0
0021400345,1610612763,MEM,Memphis,201188,Marc Gasol,C,,36:32,108.1,101.8,6.3,0.12,1.5,15.4,0.0,0.273,0.153,10.2,0.545,0.62,0.212,96.97,0.153,2014-12-13T00:00:00,6,1610612755,PHI,Philadelphia,2-21,28,22,30,29,6,0,0,0,0,0,0,0,0,0,115,0.488,0.706,0.393,22,45,16,0021400345,1610612763,MEM,Memphis,Marc Gasol,C,,36:32,2.0,0.0,0.0,10.0,10.0,9.0,15.0,26.0,1.0,0.0,3.0,6.0
0021400345,1610612763,MEM,Memphis,201584,Courtney Lee,G,,37:00,116.2,94.0,22.1,0.185,5.0,25.2,0.0,0.088,0.047,5.0,0.654,0.684,0.18,98.54,0.138,2014-12-13T00:00:00,6,1610612763,MEM,Memphis,19-4,21,22,25,41,11,0,0,0,0,0,0,0,0,0,120,0.484,0.704,0.423,33,42,14,0021400345,1610612763,MEM,Memphis,Courtney Lee,G,,37:00,8.0,0.0,3.0,6.0,8.0,9.0,15.0,24.0,0.0,0.0,3.0,1.0
0021400345,1610612763,MEM,Memphis,201584,Courtney Lee,G,,37:00,116.2,94.0,22.1,0.185,5.0,25.2,0.0,0.088,0.047,5.0,0.654,0.684,0.18,98.54,0.138,2014-12-13T00:00:00,6,1610612755,PHI,Philadelphia,2-21,28,22,30,29,6,0,0,0,0,0,0,0,0,0,115,0.488,0.706,0.393,22,45,16,0021400345,1610612763,MEM,Memphis,Courtney Lee,G,,37:00,8.0,0.0,3.0,6.0,8.0,9.0,15.0,24.0,0.0,0.0,3.0,1.0
0021400345,1610612763,MEM,Memphis,201144,Mike Conley,G,,42:21,104.4,116.1,-11.7,0.429,2.25,23.4,0.031,0.057,0.045,10.4,0.705,0.705,0.317,97.79,0.176,2014-12-13T00:00:00,6,1610612763,MEM,Memphis,19-4,21,22,25,41,11,0,0,0,0,0,0,0,0,0,120,0.484,0.704,0.423,33,42,14,0021400345,1610612763,MEM,Memphis,Mike Conley,G,,42:21,5.0,5.0,3.0,16.0,15.0,13.0,17.0,34.0,0.0,2.0,3.0,8.0
0021400345,1610612763,MEM,Memphis,201144,Mike Conley,G,,42:21,104.4,116.1,-11.7,0.429,2.25,23.4,0.031,0.057,0.045,10.4,0.705,0.705,0.317,97.79,0.176,2014-12-13T00:00:00,6,1610612755,PHI,Philadelphia,2-21,28,22,30,29,6,0,0,0,0,0,0,0,0,0,115,0.488,0.706,0.393,22,45,16,0021400345,1610612763,MEM,Memphis,Mike Conley,G,,42:21,5.0,5.0,3.0,16.0,15.0,13.0,17.0,34.0,0.0,2.0,3.0,8.0
0021400345,1610612763,MEM,Memphis,2757,Beno Udrih,,,19:53,123.4,80.4,43.0,0.222,0.0,42.4,0.0,0.0,0.0,0.0,0.5,0.46,0.113,99.89,0.015,2014-12-13T00:00:00,6,1610612763,MEM,Memphis,19-4,21,22,25,41,11,0,0,0,0,0,0,0,0,0,120,0.484,0.704,0.423,33,42,14,0021400345,1610612763,MEM,Memphis,Beno Udrih,,,19:53,0.0,0.0,0.0,2.0,3.0,1.0,8.0,6.0,0.0,0.0,5.0,2.0
0021400345,1610612763,MEM,Memphis,2757,Beno Udrih,,,19:53,123.4,80.4,43.0,0.222,0.0,42.4,0.0,0.0,0.0,0.0,0.5,0.46,0.113,99.89,0.015,2014-12-13T00:00:00,6,1610612755,PHI,Philadelphia,2-21,28,22,30,29,6,0,0,0,0,0,0,0,0,0,115,0.488,0.706,0.393,22,45,16,0021400345,1610612763,MEM,Memphis,Beno Udrih,,,19:53,0.0,0.0,0.0,2.0,3.0,1.0,8.0,6.0,0.0,0.0,5.0,2.0
0021400345,1610612763,MEM,Memphis,202720,Jon Leuer,,,8:54,123.0,97.2,25.8,0.1,0.0,16.7,0.1,0.333,0.188,0.0,0.0,0.0,0.214,104.74,-0.024,2014-12-13T00:00:00,6,1610612763,MEM,Memphis,19-4,21,22,25,41,11,0,0,0,0,0,0,0,0,0,120,0.484,0.704,0.423,33,42,14,0021400345,1610612763,MEM,Memphis,Jon Leuer,,,8:54,0.0,0.0,0.0,0.0,2.0,0.0,6.0,6.0,1.0,0.0,0.0,0.0
0021400345,1610612763,MEM,Memphis,202720,Jon Leuer,,,8:54,123.0,97.2,25.8,0.1,0.0,16.7,0.1,0.333,0.188,0.0,0.0,0.0,0.214,104.74,-0.024,2014-12-13T00:00:00,6,1610612755,PHI,Philadelphia,2-21,28,22,30,29,6,0,0,0,0,0,0,0,0,0,115,0.488,0.706,0.393,22,45,16,0021400345,1610612763,MEM,Memphis,Jon Leuer,,,8:54,0.0,0.0,0.0,0.0,2.0,0.0,6.0,6.0,1.0,0.0,0.0,0.0
0021400345,1610612763,MEM,Memphis,202347,Quincy Pondexter,,,12:41,81.5,134.7,-53.2,0.0,0.0,0.0,0.0,0.222,0.087,0.0,0.0,0.0,0.035,93.7,0.0,2014-12-13T00:00:00,6,1610612763,MEM,Memphis,19-4,21,22,25,41,11,0,0,0,0,0,0,0,0,0,120,0.484,0.704,0.423,33,42,14,0021400345,1610612763,MEM,Memphis,Quincy Pondexter,,,12:41,0.0,0.0,0.0,0.0,4.0,2.0,5.0,14.0,0.0,0.0,1.0,1.0
0021400345,1610612763,MEM,Memphis,202347,Quincy Pondexter,,,12:41,81.5,134.7,-53.2,0.0,0.0,0.0,0.0,0.222,0.087,0.0,0.0,0.0,0.035,93.7,0.0,2014-12-13T00:00:00,6,1610612755,PHI,Philadelphia,2-21,28,22,30,29,6,0,0,0,0,0,0,0,0,0,115,0.488,0.706,0.393,22,45,16,0021400345,1610612763,MEM,Memphis,Quincy Pondexter,,,12:41,0.0,0.0,0.0,0.0,4.0,2.0,5.0,14.0,0.0,0.0,1.0,1.0
0021400345,1610612763,MEM,Memphis,201585,Kosta Koufos,,,11:34,101.5,145.3,-43.8,0.125,0.0,20.5,0.0,0.222,0.1,0.0,0.333,0.387,0.146,91.86,0.06,2014-12-13T00:00:00,6,1610612763,MEM,Memphis,19-4,21,22,25,41,11,0,0,0,0,0,0,0,0,0,120,0.484,0.704,0.423,33,42,14,0021400345,1610612763,MEM,Memphis,Kosta Koufos,,,11:34,0.0,0.0,0.0,2.0,7.0,4.0,1.0,8.0,0.0,0.0,0.0,1.0
0021400345,1610612763,MEM,Memphis,201585,Kosta Koufos,,,11:34,101.5,145.3,-43.8,0.125,0.0,20.5,0.0,0.222,0.1,0.0,0.333,0.387,0.146,91.86,0.06,2014-12-13T00:00:00,6,1610612755,PHI,Philadelphia,2-21,28,22,30,29,6,0,0,0,0,0,0,0,0,0,115,0.488,0.706,0.393,22,45,16,0021400345,1610612763,MEM,Memphis,Kosta Koufos,,,11:34,0.0,0.0,0.0,2.0,7.0,4.0,1.0,8.0,0.0,0.0,0.0,1.0
0021400345,1610612763,MEM,Memphis,2419,Tayshaun Prince,,,16:50,79.1,138.9,-59.8,0.143,0.5,10.0,0.125,0.167,0.143,20.0,0.429,0.429,0.228,96.66,0.067,2014-12-13T00:00:00,6,1610612763,MEM,Memphis,19-4,21,22,25,41,11,0,0,0,0,0,0,0,0,0,120,0.484,0.704,0.423,33,42,14,0021400345,1610612763,MEM,Memphis,Tayshaun Prince,,,16:50,0.0,0.0,2.0,4.0,11.0,6.0,5.0,18.0,0.0,0.0,0.0,1.0
0021400345,1610612763,MEM,Memphis,2419,Tayshaun Prince,,,16:50,79.1,138.9,-59.8,0.143,0.5,10.0,0.125,0.167,0.143,20.0,0.429,0.429,0.228,96.66,0.067,2014-12-13T00:00:00,6,1610612755,PHI,Philadelphia,2-21,28,22,30,29,6,0,0,0,0,0,0,0,0,0,115,0.488,0.706,0.393,22,45,16,0021400345,1610612763,MEM,Memphis,Tayshaun Prince,,,16:50,0.0,0.0,2.0,4.0,11.0,6.0,5.0,18.0,0.0,0.0,0.0,1.0
0021400345,1610612763,MEM,Memphis,1713,Vince Carter,,,15:58,97.6,138.9,-41.3,0.2,2.0,18.2,0.0,0.222,0.087,9.1,0.375,0.375,0.232,96.78,0.05,2014-12-13T00:00:00,6,1610612763,MEM,Memphis,19-4,21,22,25,41,11,0,0,0,0,0,0,0,0,0,120,0.484,0.704,0.423,33,42,14,0021400345,1610612763,MEM,Memphis,Vince Carter,,,15:58,0.0,0.0,0.0,0.0,7.0,4.0,3.0,14.0,0.0,0.0,1.0,0.0
0021400345,1610612763,MEM,Memphis,1713,Vince Carter,,,15:58,97.6,138.9,-41.3,0.2,2.0,18.2,0.0,0.222,0.087,9.1,0.375,0.375,0.232,96.78,0.05,2014-12-13T00:00:00,6,1610612755,PHI,Philadelphia,2-21,28,22,30,29,6,0,0,0,0,0,0,0,0,0,115,0.488,0.706,0.393,22,45,16,0021400345,1610612763,MEM,Memphis,Vince Carter,,,15:58,0.0,0.0,0.0,0.0,7.0,4.0,3.0,14.0,0.0,0.0,1.0,0.0
0021400345,1610612763,MEM,Memphis,203950,Jarnell Stokes,,,1:08,0.0,200.0,-200.0,0.0,0.0,0.0,0.0,0.0,0.0,0.0,0.0,0.0,0.0,84.71,0.0,2014-12-13T00:00:00,6,1610612763,MEM,Memphis,19-4,21,22,25,41,11,0,0,0,0,0,0,0,0,0,120,0.484,0.704,0.423,33,42,14,0021400345,1610612763,MEM,Memphis,Jarnell Stokes,,,1:08,0.0,0.0,0.0,0.0,0.0,0.0,0.0,4.0,0.0,0.0,0.0,0.0
0021400345,1610612763,MEM,Memphis,203950,Jarnell Stokes,,,1:08,0.0,200.0,-200.0,0.0,0.0,0.0,0.0,0.0,0.0,0.0,0.0,0.0,0.0,84.71,0.0,2014-12-13T00:00:00,6,1610612755,PHI,Philadelphia,2-21,28,22,30,29,6,0,0,0,0,0,0,0,0,0,115,0.488,0.706,0.393,22,45,16,0021400345,1610612763,MEM,Memphis,Jarnell Stokes,,,1:08,0.0,0.0,0.0,0.0,0.0,0.0,0.0,4.0,0.0,0.0,0.0,0.0
0021400345,1610612763,MEM,Memphis,201979,Nick Calathes,,,10:57,120.2,138.3,-18.1,0.6,0.0,67.6,0.286,0.0,0.154,0.0,0.0,0.174,0.103,97.49,0.082,2014-12-13T00:00:00,6,1610612763,MEM,Memphis,19-4,21,22,25,41,11,0,0,0,0,0,0,0,0,0,120,0.484,0.704,0.423,33,42,14,0021400345,1610612763,MEM,Memphis,Nick Calathes,,,10:57,0.0,0.0,0.0,0.0,7.0,4.0,2.0,8.0,0.0,1.0,2.0,1.0
0021400345,1610612763,MEM,Memphis,201979,Nick Calathes,,,10:57,120.2,138.3,-18.1,0.6,0.0,67.6,0.286,0.0,0.154,0.0,0.0,0.174,0.103,97.49,0.082,2014-12-13T00:00:00,6,1610612755,PHI,Philadelphia,2-21,28,22,30,29,6,0,0,0,0,0,0,0,0,0,115,0.488,0.706,0.393,22,45,16,0021400345,1610612763,MEM,Memphis,Nick Calathes,,,10:57,0.0,0.0,0.0,0.0,7.0,4.0,2.0,8.0,0.0,1.0,2.0,1.0
0021400345,1610612755,PHI,Philadelphia,203496,Robert Covington,F,,45:22,112.0,112.1,-0.2,0.034,1.0,4.3,0.056,0.2,0.127,4.3,0.406,0.564,0.227,97.74,0.1,2014-12-13T00:00:00,6,1610612763,MEM,Memphis,19-4,21,22,25,41,11,0,0,0,0,0,0,0,0,0,120,0.484,0.704,0.423,33,42,14,0021400345,1610612755,PHI,Philadelphia,Robert Covington,F,,45:22,6.0,1.0,7.0,4.0,29.0,13.0,12.0,52.0,0.0,1.0,3.0,8.0
0021400345,1610612755,PHI,Philadelphia,203496,Robert Covington,F,,45:22,112.0,112.1,-0.2,0.034,1.0,4.3,0.056,0.2,0.127,4.3,0.406,0.564,0.227,97.74,0.1,2014-12-13T00:00:00,6,1610612755,PHI,Philadelphia,2-21,28,22,30,29,6,0,0,0,0,0,0,0,0,0,115,0.488,0.706,0.393,22,45,16,0021400345,1610612755,PHI,Philadelphia,Robert Covington,F,,45:22,6.0,1.0,7.0,4.0,29.0,13.0,12.0,52.0,0.0,1.0,3.0,8.0
0021400345,1610612755,PHI,Philadelphia,201601,Luc Mbah a Moute,F,,34:08,93.3,117.5,-24.2,0.0,0.0,0.0,0.067,0.115,0.089,7.3,0.364,0.392,0.177,99.25,0.004,2014-12-13T00:00:00,6,1610612763,MEM,Memphis,19-4,21,22,25,41,11,0,0,0,0,0,0,0,0,0,120,0.484,0.704,0.423,33,42,14,0021400345,1610612755,PHI,Philadelphia,Luc Mbah a Moute,F,,34:08,0.0,2.0,2.0,6.0,29.0,8.0,9.0,40.0,1.0,2.0,5.0,3.0
0021400345,1610612755,PHI,Philadelphia,201601,Luc Mbah a Moute,F,,34:08,93.3,117.5,-24.2,0.0,0.0,0.0,0.067,0.115,0.089,7.3,0.364,0.392,0.177,99.25,0.004,2014-12-13T00:00:00,6,1610612755,PHI,Philadelphia,2-21,28,22,30,29,6,0,0,0,0,0,0,0,0,0,115,0.488,0.706,0.393,22,45,16,0021400345,1610612755,PHI,Philadelphia,Luc Mbah a Moute,F,,34:08,0.0,2.0,2.0,6.0,29.0,8.0,9.0,40.0,1.0,2.0,5.0,3.0
0021400345,1610612755,PHI,Philadelphia,203457,Nerlens Noel,C,,30:33,92.2,116.6,-24.4,0.059,0.33,10.2,0.0,0.217,0.096,30.7,0.25,0.347,0.127,97.75,0.027,2014-12-13T00:00:00,6,1610612763,MEM,Memphis,19-4,21,22,25,41,11,0,0,0,0,0,0,0,0,0,120,0.484,0.704,0.423,33,42,14,0021400345,1610612755,PHI,Philadelphia,Nerlens Noel,C,,30:33,0.0,0.0,0.0,2.0,22.0,6.0,4.0,34.0,2.0,0.0,4.0,3.0
0021400345,1610612755,PHI,Philadelphia,203457,Nerlens Noel,C,,30:33,92.2,116.6,-24.4,0.059,0.33,10.2,0.0,0.217,0.096,30.7,0.25,0.347,0.127,97.75,0.027,2014-12-13T00:00:00,6,1610612755,PHI,Philadelphia,2-21,28,22,30,29,6,0,0,0,0,0,0,0,0,0,115,0.488,0.706,0.393,22,45,16,0021400345,1610612755,PHI,Philadelphia,Nerlens Noel,C,,30:33,0.0,0.0,0.0,2.0,22.0,6.0,4.0,34.0,2.0,0.0,4.0,3.0
0021400345,1610612755,PHI,Philadelphia,203138,Hollis Thompson,G,,40:55,111.6,112.2,-0.6,0.0,0.0,0.0,0.057,0.063,0.06,10.1,1.188,1.182,0.107,97.51,0.137,2014-12-13T00:00:00,6,1610612763,MEM,Memphis,19-4,21,22,25,41,11,0,0,0,0,0,0,0,0,0,120,0.484,0.704,0.423,33,42,14,0021400345,1610612755,PHI,Philadelphia,Hollis Thompson,G,,40:55,3.0,4.0,3.0,4.0,22.0,9.0,6.0,46.0,0.0,0.0,3.0,1.0
0021400345,1610612755,PHI,Philadelphia,203138,Hollis Thompson,G,,40:55,111.6,112.2,-0.6,0.0,0.0,0.0,0.057,0.063,0.06,10.1,1.188,1.182,0.107,97.51,0.137,2014-12-13T00:00:00,6,1610612755,PHI,Philadelphia,2-21,28,22,30,29,6,0,0,0,0,0,0,0,0,0,115,0.488,0.706,0.393,22,45,16,0021400345,1610612755,PHI,Philadelphia,Hollis Thompson,G,,40:55,3.0,4.0,3.0,4.0,22.0,9.0,6.0,46.0,0.0,0.0,3.0,1.0
0021400345,1610612755,PHI,Philadelphia,203487,Michael Carter-Williams,G,,38:23,96.8,116.8,-20.0,0.647,1.83,30.7,0.061,0.3,0.175,16.7,0.417,0.424,0.291,98.74,0.101,2014-12-13T00:00:00,6,1610612763,MEM,Memphis,19-4,21,22,25,41,11,0,0,0,0,0,0,0,0,0,120,0.484,0.704,0.423,33,42,14,0021400345,1610612755,PHI,Philadelphia,Michael Carter-Williams,G,,38:23,2.0,2.0,3.0,8.0,29.0,8.0,13.0,50.0,0.0,1.0,4.0,2.0
0021400345,1610612755,PHI,Philadelphia,203487,Michael Carter-Williams,G,,38:23,96.8,116.8,-20.0,0.647,1.83,30.7,0.061,0.3,0.175,16.7,0.417,0.424,0.291,98.74,0.101,2014-12-13T00:00:00,6,1610612755,PHI,Philadelphia,2-21,28,22,30,29,6,0,0,0,0,0,0,0,0,0,115,0.488,0.706,0.393,22,45,16,0021400345,1610612755,PHI,Philadelphia,Michael Carter-Williams,G,,38:23,2.0,2.0,3.0,8.0,29.0,8.0,13.0,50.0,0.0,1.0,4.0,2.0
0021400345,1610612755,PHI,Philadelphia,203156,Henry Sims,,,22:08,137.6,101.6,36.0,0.176,3.0,30.4,0.0,0.25,0.147,10.1,1.0,1.02,0.152,95.93,0.194,2014-12-13T00:00:00,6,1610612763,MEM,Memphis,19-4,21,22,25,41,11,0,0,0,0,0,0,0,0,0,120,0.484,0.704,0.423,33,42,14,0021400345,1610612755,PHI,Philadelphia,Henry Sims,,,22:08,2.0,0.0,0.0,4.0,7.0,7.0,10.0,26.0,0.0,0.0,2.0,1.0
0021400345,1610612755,PHI,Philadelphia,203156,Henry Sims,,,22:08,137.6,101.6,36.0,0.176,3.0,30.4,0.0,0.25,0.147,10.1,1.0,1.02,0.152,95.93,0.194,2014-12-13T00:00:00,6,1610612755,PHI,Philadelphia,2-21,28,22,30,29,6,0,0,0,0,0,0,0,0,0,115,0.488,0.706,0.393,22,45,16,0021400345,1610612755,PHI,Philadelphia,Henry Sims,,,22:08,2.0,0.0,0.0,4.0,7.0,7.0,10.0,26.0,0.0,0.0,2.0,1.0
0021400345,1610612755,PHI,Philadelphia,203924,Jerami Grant,,,9:48,119.9,80.2,39.7,0.0,0.0,0.0,0.0,0.2,0.111,0.0,0.0,0.0,0.221,94.82,-0.09,2014-12-13T00:00:00,6,1610612763,MEM,Memphis,19-4,21,22,25,41,11,0,0,0,0,0,0,0,0,0,120,0.484,0.704,0.423,33,42,14,0021400345,1610612755,PHI,Philadelphia,Jerami Grant,,,9:48,0.0,0.0,0.0,0.0,0.0,2.0,3.0,10.0,0.0,0.0,0.0,2.0
0021400345,1610612755,PHI,Philadelphia,203924,Jerami Grant,,,9:48,119.9,80.2,39.7,0.0,0.0,0.0,0.0,0.2,0.111,0.0,0.0,0.0,0.221,94.82,-0.09,2014-12-13T00:00:00,6,1610612755,PHI,Philadelphia,2-21,28,22,30,29,6,0,0,0,0,0,0,0,0,0,115,0.488,0.706,0.393,22,45,16,0021400345,1610612755,PHI,Philadelphia,Jerami Grant,,,9:48,0.0,0.0,0.0,0.0,0.0,2.0,3.0,10.0,0.0,0.0,0.0,2.0
0021400345,1610612755,PHI,Philadelphia,203144,Alexey Shved,,,20:03,144.8,89.6,55.2,0.059,0.0,11.4,0.071,0.0,0.03,0.0,0.667,0.709,0.193,95.38,0.104,2014-12-13T00:00:00,6,1610612763,MEM,Memphis,19-4,21,22,25,41,11,0,0,0,0,0,0,0,0,0,120,0.484,0.704,0.423,33,42,14,0021400345,1610612755,PHI,Philadelphia,Alexey Shved,,,20:03,0.0,0.0,1.0,2.0,0.0,5.0,5.0,22.0,0.0,0.0,2.0,2.0
0021400345,1610612755,PHI,Philadelphia,203144,Alexey Shved,,,20:03,144.8,89.6,55.2,0.059,0.0,11.4,0.071,0.0,0.03,0.0,0.667,0.709,0.193,95.38,0.104,2014-12-13T00:00:00,6,1610612755,PHI,Philadelphia,2-21,28,22,30,29,6,0,0,0,0,0,0,0,0,0,115,0.488,0.706,0.393,22,45,16,0021400345,1610612755,PHI,Philadelphia,Alexey Shved,,,20:03,0.0,0.0,1.0,2.0,0.0,5.0,5.0,22.0,0.0,0.0,2.0,2.0
0021400345,1610612755,PHI,Philadelphia,203100,Tony Wroten,,,19:13,139.5,99.3,40.2,0.417,1.67,25.2,0.091,0.056,0.069,15.1,0.727,0.715,0.409,94.52,0.192,2014-12-13T00:00:00,6,1610612763,MEM,Memphis,19-4,21,22,25,41,11,0,0,0,0,0,0,0,0,0,120,0.484,0.704,0.423,33,42,14,0021400345,1610612755,PHI,Philadelphia,Tony Wroten,,,19:13,4.0,4.0,4.0,10.0,7.0,7.0,8.0,20.0,1.0,0.0,1.0,2.0
0021400345,1610612755,PHI,Philadelphia,203100,Tony Wroten,,,19:13,139.5,99.3,40.2,0.417,1.67,25.2,0.091,0.056,0.069,15.1,0.727,0.715,0.409,94.52,0.192,2014-12-13T00:00:00,6,1610612755,PHI,Philadelphia,2-21,28,22,30,29,6,0,0,0,0,0,0,0,0,0,115,0.488,0.706,0.393,22,45,16,0021400345,1610612755,PHI,Philadelphia,Tony Wroten,,,19:13,4.0,4.0,4.0,10.0,7.0,7.0,8.0,20.0,1.0,0.0,1.0,2.0
0021400345,1610612755,PHI,Philadelphia,203960,JaKarr Sampson,,,4:28,64.4,53.0,11.5,0.0,0.0,0.0,0.0,0.143,0.083,0.0,0.0,0.0,0.0,92.45,0.182,2014-12-13T00:00:00,6,1610612763,MEM,Memphis,19-4,21,22,25,41,11,0,0,0,0,0,0,0,0,0,120,0.484,0.704,0.423,33,42,14,0021400345,1610612755,PHI,Philadelphia,JaKarr Sampson,,,4:28,0.0,0.0,0.0,0.0,0.0,0.0,0.0,0.0,0.0,0.0,0.0,0.0
0021400345,1610612755,PHI,Philadelphia,203960,JaKarr Sampson,,,4:28,64.4,53.0,11.5,0.0,0.0,0.0,0.0,0.143,0.083,0.0,0.0,0.0,0.0,92.45,0.182,2014-12-13T00:00:00,6,1610612755,PHI,Philadelphia,2-21,28,22,30,29,6,0,0,0,0,0,0,0,0,0,115,0.488,0.706,0.393,22,45,16,0021400345,1610612755,PHI,Philadelphia,JaKarr Sampson,,,4:28,0.0,0.0,0.0,0.0,0.0,0.0,0.0,0.0,0.0,0.0,0.0,0.0
0021400345,1610612755,PHI,Philadelphia,203909,KJ McDaniels,,DND - Left Ankle Sprain                 ,,,,,,,0.0,,,,,,,0.0,,,2014-12-13T00:00:00,6,1610612763,MEM,Memphis,19-4,21,22,25,41,11,0,0,0,0,0,0,0,0,0,120,0.484,0.704,0.423,33,42,14,0021400345,1610612755,PHI,Philadelphia,KJ McDaniels,,DND - Left Ankle Sprain                 ,,,,,,,,,,,,,
0021400345,1610612755,PHI,Philadelphia,203909,KJ McDaniels,,DND - Left Ankle Sprain                 ,,,,,,,0.0,,,,,,,0.0,,,2014-12-13T00:00:00,6,1610612755,PHI,Philadelphia,2-21,28,22,30,29,6,0,0,0,0,0,0,0,0,0,115,0.488,0.706,0.393,22,45,16,0021400345,1610612755,PHI,Philadelphia,KJ McDaniels,,DND - Left Ankle Sprain                 ,,,,,,,,,,,,,
0021400345,1610612755,PHI,Philadelphia,204040,Ronald Roberts Jr.,,DNP - Coach's Decision                  ,,,,,,,0.0,,,,,,,0.0,,,2014-12-13T00:00:00,6,1610612763,MEM,Memphis,19-4,21,22,25,41,11,0,0,0,0,0,0,0,0,0,120,0.484,0.704,0.423,33,42,14,0021400345,1610612755,PHI,Philadelphia,Ronald Roberts Jr.,,DNP - Coach's Decision                  ,,,,,,,,,,,,,
0021400345,1610612755,PHI,Philadelphia,204040,Ronald Roberts Jr.,,DNP - Coach's Decision                  ,,,,,,,0.0,,,,,,,0.0,,,2014-12-13T00:00:00,6,1610612755,PHI,Philadelphia,2-21,28,22,30,29,6,0,0,0,0,0,0,0,0,0,115,0.488,0.706,0.393,22,45,16,0021400345,1610612755,PHI,Philadelphia,Ronald Roberts Jr.,,DNP - Coach's Decision                  ,,,,,,,,,,,,,
