GAME_ID_x,TEAM_ID_x,TEAM_ABBREVIATION_x,TEAM_CITY_x,PLAYER_ID,PLAYER_NAME_x,START_POSITION_x,COMMENT_x,MIN_x,OFF_RATING,DEF_RATING,NET_RATING,AST_PCT,AST_TOV,AST_RATIO,OREB_PCT,DREB_PCT,REB_PCT,TM_TOV_PCT,EFG_PCT,TS_PCT,USG_PCT,PACE,PIE,GAME_DATE_EST,GAME_SEQUENCE,TEAM_ID_y,TEAM_ABBREVIATION_y,TEAM_CITY_NAME,TEAM_WINS_LOSSES,PTS_QTR1,PTS_QTR2,PTS_QTR3,PTS_QTR4,PTS_OT1,PTS_OT2,PTS_OT3,PTS_OT4,PTS_OT5,PTS_OT6,PTS_OT7,PTS_OT8,PTS_OT9,PTS_OT10,PTS,FG_PCT,FT_PCT,FG3_PCT,AST,REB,TOV,GAME_ID_y,TEAM_ID,TEAM_ABBREVIATION,TEAM_CITY_y,PLAYER_NAME_y,START_POSITION_y,COMMENT_y,MIN_y,PTS_OFF_TOV,PTS_2ND_CHANCE,PTS_FB,PTS_PAINT,OPP_PTS_OFF_TOV,OPP_PTS_2ND_CHANCE,OPP_PTS_FB,OPP_PTS_PAINT,BLK,BLKA,PF,PFD
0021400340,1610612744,GSW,Golden State,203084,Harrison Barnes,F,,33:35,104.8,103.6,1.3,0.167,1.0,17.6,0.086,0.188,0.134,17.6,0.545,0.545,0.187,100.14,0.126,2014-12-13T00:00:00,1,1610612744,GSW,Golden State,20-2,39,27,21,18,0,0,0,0,0,0,0,0,0,0,105,0.446,0.778,0.313,21,45,13,0021400340,1610612744,GSW,Golden State,Harrison Barnes,F,,33:35,0.0,4.0,2.0,12.0,10.0,10.0,26.0,34.0,1.0,0.0,3.0,1.0
0021400340,1610612744,GSW,Golden State,203084,Harrison Barnes,F,,33:35,104.8,103.6,1.3,0.167,1.0,17.6,0.086,0.188,0.134,17.6,0.545,0.545,0.187,100.14,0.126,2014-12-13T00:00:00,1,1610612742,DAL,Dallas,17-8,18,26,24,30,0,0,0,0,0,0,0,0,0,0,98,0.404,0.7,0.2,14,53,15,0021400340,1610612744,GSW,Golden State,Harrison Barnes,F,,33:35,0.0,4.0,2.0,12.0,10.0,10.0,26.0,34.0,1.0,0.0,3.0,1.0
0021400340,1610612744,GSW,Golden State,203110,Draymond Green,F,,37:00,98.6,98.5,0.0,0.048,1.0,6.9,0.026,0.171,0.1,6.9,0.75,0.806,0.157,100.05,0.162,2014-12-13T00:00:00,1,1610612744,GSW,Golden State,20-2,39,27,21,18,0,0,0,0,0,0,0,0,0,0,105,0.446,0.778,0.313,21,45,13,0021400340,1610612744,GSW,Golden State,Draymond Green,F,,37:00,4.0,6.0,0.0,4.0,12.0,12.0,24.0,38.0,2.0,0.0,5.0,6.0
0021400340,1610612744,GSW,Golden State,203110,Draymond Green,F,,37:00,98.6,98.5,0.0,0.048,1.0,6.9,0.026,0.171,0.1,6.9,0.75,0.806,0.157,100.05,0.162,2014-12-13T00:00:00,1,1610612742,DAL,Dallas,17-8,18,26,24,30,0,0,0,0,0,0,0,0,0,0,98,0.404,0.7,0.2,14,53,15,0021400340,1610612744,GSW,Golden State,Draymond Green,F,,37:00,4.0,6.0,0.0,4.0,12.0,12.0,24.0,38.0,2.0,0.0,5.0,6.0
0021400340,1610612744,GSW,Golden State,203105,Festus Ezeli,C,,17:06,136.6,92.9,43.7,0.0,0.0,0.0,0.143,0.0,0.057,0.0,0.5,0.694,0.082,90.5,0.018,2014-12-13T00:00:00,1,1610612744,GSW,Golden State,20-2,39,27,21,18,0,0,0,0,0,0,0,0,0,0,105,0.446,0.778,0.313,21,45,13,0021400340,1610612744,GSW,Golden State,Festus Ezeli,C,,17:06,2.0,2.0,0.0,2.0,0.0,6.0,2.0,16.0,2.0,0.0,4.0,1.0
0021400340,1610612744,GSW,Golden State,203105,Festus Ezeli,C,,17:06,136.6,92.9,43.7,0.0,0.0,0.0,0.143,0.0,0.057,0.0,0.5,0.694,0.082,90.5,0.018,2014-12-13T00:00:00,1,1610612742,DAL,Dallas,17-8,18,26,24,30,0,0,0,0,0,0,0,0,0,0,98,0.404,0.7,0.2,14,53,15,0021400340,1610612744,GSW,Golden State,Festus Ezeli,C,,17:06,2.0,2.0,0.0,2.0,0.0,6.0,2.0,16.0,2.0,0.0,4.0,1.0
0021400340,1610612744,GSW,Golden State,202691,Klay Thompson,G,,41:15,97.4,104.1,-6.7,0.15,1.5,11.5,0.0,0.111,0.058,7.7,0.595,0.595,0.249,99.89,0.144,2014-12-13T00:00:00,1,1610612744,GSW,Golden State,20-2,39,27,21,18,0,0,0,0,0,0,0,0,0,0,105,0.446,0.778,0.313,21,45,13,0021400340,1610612744,GSW,Golden State,Klay Thompson,G,,41:15,2.0,0.0,9.0,4.0,14.0,14.0,30.0,44.0,1.0,0.0,3.0,1.0
0021400340,1610612744,GSW,Golden State,202691,Klay Thompson,G,,41:15,97.4,104.1,-6.7,0.15,1.5,11.5,0.0,0.111,0.058,7.7,0.595,0.595,0.249,99.89,0.144,2014-12-13T00:00:00,1,1610612742,DAL,Dallas,17-8,18,26,24,30,0,0,0,0,0,0,0,0,0,0,98,0.404,0.7,0.2,14,53,15,0021400340,1610612744,GSW,Golden State,Klay Thompson,G,,41:15,2.0,0.0,9.0,4.0,14.0,14.0,30.0,44.0,1.0,0.0,3.0,1.0
0021400340,1610612744,GSW,Golden State,201939,Stephen Curry,G,,37:11,111.3,97.3,14.0,0.381,8.0,22.9,0.0,0.079,0.041,2.9,0.477,0.559,0.317,102.06,0.193,2014-12-13T00:00:00,1,1610612744,GSW,Golden State,20-2,39,27,21,18,0,0,0,0,0,0,0,0,0,0,105,0.446,0.778,0.313,21,45,13,0021400340,1610612744,GSW,Golden State,Stephen Curry,G,,37:11,6.0,0.0,12.0,12.0,8.0,8.0,26.0,34.0,0.0,0.0,1.0,8.0
0021400340,1610612744,GSW,Golden State,201939,Stephen Curry,G,,37:11,111.3,97.3,14.0,0.381,8.0,22.9,0.0,0.079,0.041,2.9,0.477,0.559,0.317,102.06,0.193,2014-12-13T00:00:00,1,1610612742,DAL,Dallas,17-8,18,26,24,30,0,0,0,0,0,0,0,0,0,0,98,0.404,0.7,0.2,14,53,15,0021400340,1610612744,GSW,Golden State,Stephen Curry,G,,37:11,6.0,0.0,12.0,12.0,8.0,8.0,26.0,34.0,0.0,0.0,1.0,8.0
0021400340,1610612744,GSW,Golden State,2738,Andre Iguodala,,,29:10,101.4,88.8,12.6,0.238,0.0,45.5,0.042,0.167,0.117,0.0,0.167,0.167,0.091,98.71,0.092,2014-12-13T00:00:00,1,1610612744,GSW,Golden State,20-2,39,27,21,18,0,0,0,0,0,0,0,0,0,0,105,0.446,0.778,0.313,21,45,13,0021400340,1610612744,GSW,Golden State,Andre Iguodala,,,29:10,0.0,0.0,0.0,0.0,8.0,12.0,17.0,32.0,1.0,0.0,2.0,0.0
0021400340,1610612744,GSW,Golden State,2738,Andre Iguodala,,,29:10,101.4,88.8,12.6,0.238,0.0,45.5,0.042,0.167,0.117,0.0,0.167,0.167,0.091,98.71,0.092,2014-12-13T00:00:00,1,1610612742,DAL,Dallas,17-8,18,26,24,30,0,0,0,0,0,0,0,0,0,0,98,0.404,0.7,0.2,14,53,15,0021400340,1610612744,GSW,Golden State,Andre Iguodala,,,29:10,0.0,0.0,0.0,0.0,8.0,12.0,17.0,32.0,1.0,0.0,2.0,0.0
0021400340,1610612744,GSW,Golden State,2733,Shaun Livingston,,,21:03,99.9,87.5,12.4,0.091,0.33,7.9,0.053,0.179,0.128,23.7,0.5,0.521,0.237,101.2,0.103,2014-12-13T00:00:00,1,1610612744,GSW,Golden State,20-2,39,27,21,18,0,0,0,0,0,0,0,0,0,0,105,0.446,0.778,0.313,21,45,13,0021400340,1610612744,GSW,Golden State,Shaun Livingston,,,21:03,0.0,0.0,0.0,2.0,8.0,12.0,13.0,24.0,0.0,0.0,3.0,4.0
0021400340,1610612744,GSW,Golden State,2733,Shaun Livingston,,,21:03,99.9,87.5,12.4,0.091,0.33,7.9,0.053,0.179,0.128,23.7,0.5,0.521,0.237,101.2,0.103,2014-12-13T00:00:00,1,1610612742,DAL,Dallas,17-8,18,26,24,30,0,0,0,0,0,0,0,0,0,0,98,0.404,0.7,0.2,14,53,15,0021400340,1610612744,GSW,Golden State,Shaun Livingston,,,21:03,0.0,0.0,0.0,2.0,8.0,12.0,13.0,24.0,0.0,0.0,3.0,4.0
0021400340,1610612744,GSW,Golden State,201578,Marreese Speights,,,18:24,105.1,95.6,9.5,0.0,0.0,0.0,0.063,0.2,0.139,22.2,0.286,0.286,0.205,101.22,-0.022,2014-12-13T00:00:00,1,1610612744,GSW,Golden State,20-2,39,27,21,18,0,0,0,0,0,0,0,0,0,0,105,0.446,0.778,0.313,21,45,13,0021400340,1610612744,GSW,Golden State,Marreese Speights,,,18:24,0.0,0.0,0.0,4.0,6.0,6.0,13.0,24.0,0.0,0.0,3.0,2.0
0021400340,1610612744,GSW,Golden State,201578,Marreese Speights,,,18:24,105.1,95.6,9.5,0.0,0.0,0.0,0.063,0.2,0.139,22.2,0.286,0.286,0.205,101.22,-0.022,2014-12-13T00:00:00,1,1610612742,DAL,Dallas,17-8,18,26,24,30,0,0,0,0,0,0,0,0,0,0,98,0.404,0.7,0.2,14,53,15,0021400340,1610612744,GSW,Golden State,Marreese Speights,,,18:24,0.0,0.0,0.0,4.0,6.0,6.0,13.0,24.0,0.0,0.0,3.0,2.0
0021400340,1610612744,GSW,Golden State,201575,Brandon Rush,,,3:57,130.0,105.9,24.1,0.0,0.0,0.0,0.0,0.0,0.0,0.0,0.0,0.0,0.0,118.12,0.0,2014-12-13T00:00:00,1,1610612744,GSW,Golden State,20-2,39,27,21,18,0,0,0,0,0,0,0,0,0,0,105,0.446,0.778,0.313,21,45,13,0021400340,1610612744,GSW,Golden State,Brandon Rush,,,3:57,0.0,0.0,0.0,0.0,2.0,0.0,6.0,4.0,0.0,0.0,0.0,0.0
0021400340,1610612744,GSW,Golden State,201575,Brandon Rush,,,3:57,130.0,105.9,24.1,0.0,0.0,0.0,0.0,0.0,0.0,0.0,0.0,0.0,0.0,118.12,0.0,2014-12-13T00:00:00,1,1610612742,DAL,Dallas,17-8,18,26,24,30,0,0,0,0,0,0,0,0,0,0,98,0.404,0.7,0.2,14,53,15,0021400340,1610612744,GSW,Golden State,Brandon Rush,,,3:57,0.0,0.0,0.0,0.0,2.0,0.0,6.0,4.0,0.0,0.0,0.0,0.0
0021400340,1610612744,GSW,Golden State,203136,Ognjen Kuzmic,,,1:19,66.7,166.7,-100.0,0.0,0.0,0.0,0.0,0.0,0.0,100.0,0.0,0.0,0.333,109.37,-0.2,2014-12-13T00:00:00,1,1610612744,GSW,Golden State,20-2,39,27,21,18,0,0,0,0,0,0,0,0,0,0,105,0.446,0.778,0.313,21,45,13,0021400340,1610612744,GSW,Golden State,Ognjen Kuzmic,,,1:19,0.0,0.0,0.0,0.0,2.0,0.0,3.0,0.0,0.0,0.0,0.0,0.0
0021400340,1610612744,GSW,Golden State,203136,Ognjen Kuzmic,,,1:19,66.7,166.7,-100.0,0.0,0.0,0.0,0.0,0.0,0.0,100.0,0.0,0.0,0.333,109.37,-0.2,2014-12-13T00:00:00,1,1610612742,DAL,Dallas,17-8,18,26,24,30,0,0,0,0,0,0,0,0,0,0,98,0.404,0.7,0.2,14,53,15,0021400340,1610612744,GSW,Golden State,Ognjen Kuzmic,,,1:19,0.0,0.0,0.0,0.0,2.0,0.0,3.0,0.0,0.0,0.0,0.0,0.0
0021400340,1610612744,GSW,Golden State,2571,Leandro Barbosa,,DNP - Coach's Decision                  ,,,,,,,0.0,,,,,,,0.0,,,2014-12-13T00:00:00,1,1610612744,GSW,Golden State,20-2,39,27,21,18,0,0,0,0,0,0,0,0,0,0,105,0.446,0.778,0.313,21,45,13,0021400340,1610612744,GSW,Golden State,Leandro Barbosa,,DNP - Coach's Decision                  ,,,,,,,,,,,,,
0021400340,1610612744,GSW,Golden State,2571,Leandro Barbosa,,DNP - Coach's Decision                  ,,,,,,,0.0,,,,,,,0.0,,,2014-12-13T00:00:00,1,1610612742,DAL,Dallas,17-8,18,26,24,30,0,0,0,0,0,0,0,0,0,0,98,0.404,0.7,0.2,14,53,15,0021400340,1610612744,GSW,Golden State,Leandro Barbosa,,DNP - Coach's Decision                  ,,,,,,,,,,,,,
0021400340,1610612744,GSW,Golden State,203200,Justin Holiday,,DNP - Coach's Decision                  ,,,,,,,0.0,,,,,,,0.0,,,2014-12-13T00:00:00,1,1610612744,GSW,Golden State,20-2,39,27,21,18,0,0,0,0,0,0,0,0,0,0,105,0.446,0.778,0.313,21,45,13,0021400340,1610612744,GSW,Golden State,Justin Holiday,,DNP - Coach's Decision                  ,,,,,,,,,,,,,
0021400340,1610612744,GSW,Golden State,203200,Justin Holiday,,DNP - Coach's Decision                  ,,,,,,,0.0,,,,,,,0.0,,,2014-12-13T00:00:00,1,1610612742,DAL,Dallas,17-8,18,26,24,30,0,0,0,0,0,0,0,0,0,0,98,0.404,0.7,0.2,14,53,15,0021400340,1610612744,GSW,Golden State,Justin Holiday,,DNP - Coach's Decision                  ,,,,,,,,,,,,,
0021400340,1610612742,DAL,Dallas,2210,Richard Jefferson,F,,34:47,97.9,103.8,-6.0,0.0,0.0,0.0,0.028,0.364,0.188,17.0,0.75,0.666,0.142,99.91,0.11,2014-12-13T00:00:00,1,1610612744,GSW,Golden State,20-2,39,27,21,18,0,0,0,0,0,0,0,0,0,0,105,0.446,0.778,0.313,21,45,13,0021400340,1610612742,DAL,Dallas,Richard Jefferson,F,,34:47,2.0,0.0,7.0,6.0,9.0,5.0,16.0,28.0,0.0,1.0,5.0,2.0
0021400340,1610612742,DAL,Dallas,2210,Richard Jefferson,F,,34:47,97.9,103.8,-6.0,0.0,0.0,0.0,0.028,0.364,0.188,17.0,0.75,0.666,0.142,99.91,0.11,2014-12-13T00:00:00,1,1610612742,DAL,Dallas,17-8,18,26,24,30,0,0,0,0,0,0,0,0,0,0,98,0.404,0.7,0.2,14,53,15,0021400340,1610612742,DAL,Dallas,Richard Jefferson,F,,34:47,2.0,0.0,7.0,6.0,9.0,5.0,16.0,28.0,0.0,1.0,5.0,2.0
0021400340,1610612742,DAL,Dallas,1717,Dirk Nowitzki,F,,32:40,106.5,102.8,3.7,0.063,0.33,4.0,0.161,0.086,0.121,12.1,0.55,0.551,0.304,99.0,0.151,2014-12-13T00:00:00,1,1610612744,GSW,Golden State,20-2,39,27,21,18,0,0,0,0,0,0,0,0,0,0,105,0.446,0.778,0.313,21,45,13,0021400340,1610612742,DAL,Dallas,Dirk Nowitzki,F,,32:40,4.0,6.0,2.0,12.0,10.0,10.0,16.0,26.0,0.0,3.0,1.0,2.0
0021400340,1610612742,DAL,Dallas,1717,Dirk Nowitzki,F,,32:40,106.5,102.8,3.7,0.063,0.33,4.0,0.161,0.086,0.121,12.1,0.55,0.551,0.304,99.0,0.151,2014-12-13T00:00:00,1,1610612742,DAL,Dallas,17-8,18,26,24,30,0,0,0,0,0,0,0,0,0,0,98,0.404,0.7,0.2,14,53,15,0021400340,1610612742,DAL,Dallas,Dirk Nowitzki,F,,32:40,4.0,6.0,2.0,12.0,10.0,10.0,16.0,26.0,0.0,3.0,1.0,2.0
0021400340,1610612742,DAL,Dallas,2199,Tyson Chandler,C,,30:41,100.1,119.4,-19.2,0.0,0.0,0.0,0.125,0.348,0.218,17.4,0.5,0.578,0.165,96.27,0.1,2014-12-13T00:00:00,1,1610612744,GSW,Golden State,20-2,39,27,21,18,0,0,0,0,0,0,0,0,0,0,105,0.446,0.778,0.313,21,45,13,0021400340,1610612742,DAL,Dallas,Tyson Chandler,C,,30:41,2.0,2.0,4.0,6.0,6.0,4.0,14.0,28.0,0.0,1.0,2.0,5.0
0021400340,1610612742,DAL,Dallas,2199,Tyson Chandler,C,,30:41,100.1,119.4,-19.2,0.0,0.0,0.0,0.125,0.348,0.218,17.4,0.5,0.578,0.165,96.27,0.1,2014-12-13T00:00:00,1,1610612742,DAL,Dallas,17-8,18,26,24,30,0,0,0,0,0,0,0,0,0,0,98,0.404,0.7,0.2,14,53,15,0021400340,1610612742,DAL,Dallas,Tyson Chandler,C,,30:41,2.0,2.0,4.0,6.0,6.0,4.0,14.0,28.0,0.0,1.0,2.0,5.0
0021400340,1610612742,DAL,Dallas,101145,Monta Ellis,G,,34:11,104.8,102.2,2.7,0.294,1.67,15.1,0.0,0.029,0.014,9.1,0.409,0.478,0.348,98.38,0.09,2014-12-13T00:00:00,1,1610612744,GSW,Golden State,20-2,39,27,21,18,0,0,0,0,0,0,0,0,0,0,105,0.446,0.778,0.313,21,45,13,0021400340,1610612742,DAL,Dallas,Monta Ellis,G,,34:11,2.0,2.0,2.0,10.0,9.0,9.0,14.0,26.0,0.0,1.0,5.0,6.0
0021400340,1610612742,DAL,Dallas,101145,Monta Ellis,G,,34:11,104.8,102.2,2.7,0.294,1.67,15.1,0.0,0.029,0.014,9.1,0.409,0.478,0.348,98.38,0.09,2014-12-13T00:00:00,1,1610612742,DAL,Dallas,17-8,18,26,24,30,0,0,0,0,0,0,0,0,0,0,98,0.404,0.7,0.2,14,53,15,0021400340,1610612742,DAL,Dallas,Monta Ellis,G,,34:11,2.0,2.0,2.0,10.0,9.0,9.0,14.0,26.0,0.0,1.0,5.0,6.0
0021400340,1610612742,DAL,Dallas,2749,Jameer Nelson,G,,27:36,105.0,99.4,5.6,0.25,2.5,33.6,0.074,0.074,0.074,13.4,0.286,0.381,0.149,99.58,0.053,2014-12-13T00:00:00,1,1610612744,GSW,Golden State,20-2,39,27,21,18,0,0,0,0,0,0,0,0,0,0,105,0.446,0.778,0.313,21,45,13,0021400340,1610612742,DAL,Dallas,Jameer Nelson,G,,27:36,0.0,2.0,2.0,4.0,9.0,4.0,12.0,20.0,0.0,0.0,3.0,1.0
0021400340,1610612742,DAL,Dallas,2749,Jameer Nelson,G,,27:36,105.0,99.4,5.6,0.25,2.5,33.6,0.074,0.074,0.074,13.4,0.286,0.381,0.149,99.58,0.053,2014-12-13T00:00:00,1,1610612742,DAL,Dallas,17-8,18,26,24,30,0,0,0,0,0,0,0,0,0,0,98,0.404,0.7,0.2,14,53,15,0021400340,1610612742,DAL,Dallas,Jameer Nelson,G,,27:36,0.0,2.0,2.0,4.0,9.0,4.0,12.0,20.0,0.0,0.0,3.0,1.0
0021400340,1610612742,DAL,Dallas,203109,Jae Crowder,,,21:34,92.7,108.8,-16.1,0.067,0.0,14.3,0.038,0.267,0.122,0.0,0.167,0.167,0.11,104.83,0.05,2014-12-13T00:00:00,1,1610612744,GSW,Golden State,20-2,39,27,21,18,0,0,0,0,0,0,0,0,0,0,105,0.446,0.778,0.313,21,45,13,0021400340,1610612742,DAL,Dallas,Jae Crowder,,,21:34,0.0,0.0,0.0,2.0,11.0,4.0,14.0,20.0,0.0,1.0,2.0,0.0
0021400340,1610612742,DAL,Dallas,203109,Jae Crowder,,,21:34,92.7,108.8,-16.1,0.067,0.0,14.3,0.038,0.267,0.122,0.0,0.167,0.167,0.11,104.83,0.05,2014-12-13T00:00:00,1,1610612742,DAL,Dallas,17-8,18,26,24,30,0,0,0,0,0,0,0,0,0,0,98,0.404,0.7,0.2,14,53,15,0021400340,1610612742,DAL,Dallas,Jae Crowder,,,21:34,0.0,0.0,0.0,2.0,11.0,4.0,14.0,20.0,0.0,1.0,2.0,0.0
0021400340,1610612742,DAL,Dallas,2734,Devin Harris,,,21:47,75.8,111.8,-36.0,0.091,0.0,11.8,0.0,0.053,0.021,0.0,0.357,0.403,0.137,103.08,0.046,2014-12-13T00:00:00,1,1610612744,GSW,Golden State,20-2,39,27,21,18,0,0,0,0,0,0,0,0,0,0,105,0.446,0.778,0.313,21,45,13,0021400340,1610612742,DAL,Dallas,Devin Harris,,,21:47,0.0,0.0,6.0,2.0,8.0,8.0,11.0,24.0,0.0,0.0,2.0,1.0
0021400340,1610612742,DAL,Dallas,2734,Devin Harris,,,21:47,75.8,111.8,-36.0,0.091,0.0,11.8,0.0,0.053,0.021,0.0,0.357,0.403,0.137,103.08,0.046,2014-12-13T00:00:00,1,1610612742,DAL,Dallas,17-8,18,26,24,30,0,0,0,0,0,0,0,0,0,0,98,0.404,0.7,0.2,14,53,15,0021400340,1610612742,DAL,Dallas,Devin Harris,,,21:47,0.0,0.0,6.0,2.0,8.0,8.0,11.0,24.0,0.0,0.0,2.0,1.0
0021400340,1610612742,DAL,Dallas,201148,Brandan Wright,,,12:10,107.9,79.9,27.9,0.0,0.0,0.0,0.214,0.118,0.161,18.8,0.667,0.81,0.161,105.44,0.268,2014-12-13T00:00:00,1,1610612744,GSW,Golden State,20-2,39,27,21,18,0,0,0,0,0,0,0,0,0,0,105,0.446,0.778,0.313,21,45,13,0021400340,1610612742,DAL,Dallas,Brandan Wright,,,12:10,2.0,2.0,5.0,4.0,3.0,6.0,5.0,6.0,0.0,0.0,0.0,3.0
0021400340,1610612742,DAL,Dallas,201148,Brandan Wright,,,12:10,107.9,79.9,27.9,0.0,0.0,0.0,0.214,0.118,0.161,18.8,0.667,0.81,0.161,105.44,0.268,2014-12-13T00:00:00,1,1610612742,DAL,Dallas,17-8,18,26,24,30,0,0,0,0,0,0,0,0,0,0,98,0.404,0.7,0.2,14,53,15,0021400340,1610612742,DAL,Dallas,Brandan Wright,,,12:10,2.0,2.0,5.0,4.0,3.0,6.0,5.0,6.0,0.0,0.0,0.0,3.0
0021400340,1610612742,DAL,Dallas,200826,J.J. Barea,,,16:57,93.9,107.8,-13.9,0.083,0.5,8.8,0.05,0.143,0.088,17.7,0.286,0.361,0.238,101.38,-0.028,2014-12-13T00:00:00,1,1610612744,GSW,Golden State,20-2,39,27,21,18,0,0,0,0,0,0,0,0,0,0,105,0.446,0.778,0.313,21,45,13,0021400340,1610612742,DAL,Dallas,J.J. Barea,,,16:57,2.0,2.0,4.0,4.0,5.0,5.0,11.0,16.0,0.0,0.0,3.0,3.0
0021400340,1610612742,DAL,Dallas,200826,J.J. Barea,,,16:57,93.9,107.8,-13.9,0.083,0.5,8.8,0.05,0.143,0.088,17.7,0.286,0.361,0.238,101.38,-0.028,2014-12-13T00:00:00,1,1610612742,DAL,Dallas,17-8,18,26,24,30,0,0,0,0,0,0,0,0,0,0,98,0.404,0.7,0.2,14,53,15,0021400340,1610612742,DAL,Dallas,J.J. Barea,,,16:57,2.0,2.0,4.0,4.0,5.0,5.0,11.0,16.0,0.0,0.0,3.0,3.0
0021400340,1610612742,DAL,Dallas,202329,Al-Farouq Aminu,,,7:37,67.4,107.1,-39.7,0.0,0.0,0.0,0.0,0.143,0.048,0.0,0.0,0.0,0.129,95.54,-0.16,2014-12-13T00:00:00,1,1610612744,GSW,Golden State,20-2,39,27,21,18,0,0,0,0,0,0,0,0,0,0,105,0.446,0.778,0.313,21,45,13,0021400340,1610612742,DAL,Dallas,Al-Farouq Aminu,,,7:37,0.0,0.0,0.0,0.0,0.0,5.0,2.0,6.0,0.0,0.0,0.0,1.0
0021400340,1610612742,DAL,Dallas,202329,Al-Farouq Aminu,,,7:37,67.4,107.1,-39.7,0.0,0.0,0.0,0.0,0.143,0.048,0.0,0.0,0.0,0.129,95.54,-0.16,2014-12-13T00:00:00,1,1610612742,DAL,Dallas,17-8,18,26,24,30,0,0,0,0,0,0,0,0,0,0,98,0.404,0.7,0.2,14,53,15,0021400340,1610612742,DAL,Dallas,Al-Farouq Aminu,,,7:37,0.0,0.0,0.0,0.0,0.0,5.0,2.0,6.0,0.0,0.0,0.0,1.0
0021400340,1610612742,DAL,Dallas,203495,Ricky Ledo,,DNP - Coach's Decision                  ,,,,,,,0.0,,,,,,,0.0,,,2014-12-13T00:00:00,1,1610612744,GSW,Golden State,20-2,39,27,21,18,0,0,0,0,0,0,0,0,0,0,105,0.446,0.778,0.313,21,45,13,0021400340,1610612742,DAL,Dallas,Ricky Ledo,,DNP - Coach's Decision                  ,,,,,,,,,,,,,
0021400340,1610612742,DAL,Dallas,203495,Ricky Ledo,,DNP - Coach's Decision                  ,,,,,,,0.0,,,,,,,0.0,,,2014-12-13T00:00:00,1,1610612742,DAL,Dallas,17-8,18,26,24,30,0,0,0,0,0,0,0,0,0,0,98,0.404,0.7,0.2,14,53,15,0021400340,1610612742,DAL,Dallas,Ricky Ledo,,DNP - Coach's Decision                  ,,,,,,,,,,,,,
0021400340,1610612742,DAL,Dallas,202962,Greg Smith,,DNP - Coach's Decision                  ,,,,,,,0.0,,,,,,,0.0,,,2014-12-13T00:00:00,1,1610612744,GSW,Golden State,20-2,39,27,21,18,0,0,0,0,0,0,0,0,0,0,105,0.446,0.778,0.313,21,45,13,0021400340,1610612742,DAL,Dallas,Greg Smith,,DNP - Coach's Decision                  ,,,,,,,,,,,,,
0021400340,1610612742,DAL,Dallas,202962,Greg Smith,,DNP - Coach's Decision                  ,,,,,,,0.0,,,,,,,0.0,,,2014-12-13T00:00:00,1,1610612742,DAL,Dallas,17-8,18,26,24,30,0,0,0,0,0,0,0,0,0,0,98,0.404,0.7,0.2,14,53,15,0021400340,1610612742,DAL,Dallas,Greg Smith,,DNP - Coach's Decision                  ,,,,,,,,,,,,,
0021400340,1610612742,DAL,Dallas,101111,Charlie Villanueva,,DNP - Coach's Decision                  ,,,,,,,0.0,,,,,,,0.0,,,2014-12-13T00:00:00,1,1610612744,GSW,Golden State,20-2,39,27,21,18,0,0,0,0,0,0,0,0,0,0,105,0.446,0.778,0.313,21,45,13,0021400340,1610612742,DAL,Dallas,Charlie Villanueva,,DNP - Coach's Decision                  ,,,,,,,,,,,,,
0021400340,1610612742,DAL,Dallas,101111,Charlie Villanueva,,DNP - Coach's Decision                  ,,,,,,,0.0,,,,,,,0.0,,,2014-12-13T00:00:00,1,1610612742,DAL,Dallas,17-8,18,26,24,30,0,0,0,0,0,0,0,0,0,0,98,0.404,0.7,0.2,14,53,15,0021400340,1610612742,DAL,Dallas,Charlie Villanueva,,DNP - Coach's Decision                  ,,,,,,,,,,,,,
