GAME_ID_x,TEAM_ID_x,TEAM_ABBREVIATION_x,TEAM_CITY_x,PLAYER_ID,PLAYER_NAME_x,START_POSITION_x,COMMENT_x,MIN_x,OFF_RATING,DEF_RATING,NET_RATING,AST_PCT,AST_TOV,AST_RATIO,OREB_PCT,DREB_PCT,REB_PCT,TM_TOV_PCT,EFG_PCT,TS_PCT,USG_PCT,PACE,PIE,GAME_DATE_EST,GAME_SEQUENCE,TEAM_ID_y,TEAM_ABBREVIATION_y,TEAM_CITY_NAME,TEAM_WINS_LOSSES,PTS_QTR1,PTS_QTR2,PTS_QTR3,PTS_QTR4,PTS_OT1,PTS_OT2,PTS_OT3,PTS_OT4,PTS_OT5,PTS_OT6,PTS_OT7,PTS_OT8,PTS_OT9,PTS_OT10,PTS,FG_PCT,FT_PCT,FG3_PCT,AST,REB,TOV,GAME_ID_y,TEAM_ID,TEAM_ABBREVIATION,TEAM_CITY_y,PLAYER_NAME_y,START_POSITION_y,COMMENT_y,MIN_y,PTS_OFF_TOV,PTS_2ND_CHANCE,PTS_FB,PTS_PAINT,OPP_PTS_OFF_TOV,OPP_PTS_2ND_CHANCE,OPP_PTS_FB,OPP_PTS_PAINT,BLK,BLKA,PF,PFD
0021400355,1610612766,CHA,Charlotte,203077,Michael Kidd-Gilchrist,F,,21:11,67.4,124.3,-56.9,0.0,0.0,0.0,0.05,0.214,0.118,0.0,0.0,0.102,0.103,98.75,-0.045,2014-12-15T00:00:00,1,1610612766,CHA,Charlotte,6-18,17,28,23,20,0,0,0,0,0,0,0,0,0,0,88,0.458,0.5,0.313,22,37,10,0021400355,1610612766,CHA,Charlotte,Michael Kidd-Gilchrist,F,,21:11,0.0,1.0,0.0,0.0,13.0,2.0,4.0,14.0,0.0,2.0,3.0,2.0
0021400355,1610612766,CHA,Charlotte,203077,Michael Kidd-Gilchrist,F,,21:11,67.4,124.3,-56.9,0.0,0.0,0.0,0.05,0.214,0.118,0.0,0.0,0.102,0.103,98.75,-0.045,2014-12-15T00:00:00,1,1610612739,CLE,Cleveland,14-9,34,20,26,17,0,0,0,0,0,0,0,0,0,0,97,0.458,0.706,0.375,28,43,10,0021400355,1610612766,CHA,Charlotte,Michael Kidd-Gilchrist,F,,21:11,0.0,1.0,0.0,0.0,13.0,2.0,4.0,14.0,0.0,2.0,3.0,2.0
0021400355,1610612766,CHA,Charlotte,203469,Cody Zeller,F,,18:27,71.3,115.8,-44.5,0.0,0.0,0.0,0.105,0.077,0.094,17.0,0.25,0.41,0.165,89.81,0.017,2014-12-15T00:00:00,1,1610612766,CHA,Charlotte,6-18,17,28,23,20,0,0,0,0,0,0,0,0,0,0,88,0.458,0.5,0.313,22,37,10,0021400355,1610612766,CHA,Charlotte,Cody Zeller,F,,18:27,0.0,4.0,0.0,2.0,8.0,0.0,2.0,10.0,0.0,0.0,1.0,1.0
0021400355,1610612766,CHA,Charlotte,203469,Cody Zeller,F,,18:27,71.3,115.8,-44.5,0.0,0.0,0.0,0.105,0.077,0.094,17.0,0.25,0.41,0.165,89.81,0.017,2014-12-15T00:00:00,1,1610612739,CLE,Cleveland,14-9,34,20,26,17,0,0,0,0,0,0,0,0,0,0,97,0.458,0.706,0.375,28,43,10,0021400355,1610612766,CHA,Charlotte,Cody Zeller,F,,18:27,0.0,4.0,0.0,2.0,8.0,0.0,2.0,10.0,0.0,0.0,1.0,1.0
0021400355,1610612766,CHA,Charlotte,2744,Al Jefferson,C,,32:18,74.2,116.9,-42.8,0.133,2.0,12.5,0.0,0.381,0.154,6.3,0.538,0.538,0.196,97.1,0.129,2014-12-15T00:00:00,1,1610612766,CHA,Charlotte,6-18,17,28,23,20,0,0,0,0,0,0,0,0,0,0,88,0.458,0.5,0.313,22,37,10,0021400355,1610612766,CHA,Charlotte,Al Jefferson,C,,32:18,0.0,0.0,0.0,10.0,13.0,2.0,8.0,24.0,0.0,0.0,2.0,1.0
0021400355,1610612766,CHA,Charlotte,2744,Al Jefferson,C,,32:18,74.2,116.9,-42.8,0.133,2.0,12.5,0.0,0.381,0.154,6.3,0.538,0.538,0.196,97.1,0.129,2014-12-15T00:00:00,1,1610612739,CLE,Cleveland,14-9,34,20,26,17,0,0,0,0,0,0,0,0,0,0,97,0.458,0.706,0.375,28,43,10,0021400355,1610612766,CHA,Charlotte,Al Jefferson,C,,32:18,0.0,0.0,0.0,10.0,13.0,2.0,8.0,24.0,0.0,0.0,2.0,1.0
0021400355,1610612766,CHA,Charlotte,202362,Lance Stephenson,G,,24:37,80.8,130.2,-49.4,0.286,0.0,23.7,0.0,0.125,0.051,0.0,0.333,0.311,0.24,96.68,0.037,2014-12-15T00:00:00,1,1610612766,CHA,Charlotte,6-18,17,28,23,20,0,0,0,0,0,0,0,0,0,0,88,0.458,0.5,0.313,22,37,10,0021400355,1610612766,CHA,Charlotte,Lance Stephenson,G,,24:37,2.0,0.0,0.0,6.0,13.0,5.0,8.0,20.0,0.0,1.0,2.0,1.0
0021400355,1610612766,CHA,Charlotte,202362,Lance Stephenson,G,,24:37,80.8,130.2,-49.4,0.286,0.0,23.7,0.0,0.125,0.051,0.0,0.333,0.311,0.24,96.68,0.037,2014-12-15T00:00:00,1,1610612739,CLE,Cleveland,14-9,34,20,26,17,0,0,0,0,0,0,0,0,0,0,97,0.458,0.706,0.375,28,43,10,0021400355,1610612766,CHA,Charlotte,Lance Stephenson,G,,24:37,2.0,0.0,0.0,6.0,13.0,5.0,8.0,20.0,0.0,1.0,2.0,1.0
0021400355,1610612766,CHA,Charlotte,202689,Kemba Walker,G,,34:37,82.6,116.6,-34.0,0.333,1.67,17.3,0.0,0.227,0.094,10.4,0.575,0.575,0.317,97.06,0.17,2014-12-15T00:00:00,1,1610612766,CHA,Charlotte,6-18,17,28,23,20,0,0,0,0,0,0,0,0,0,0,88,0.458,0.5,0.313,22,37,10,0021400355,1610612766,CHA,Charlotte,Kemba Walker,G,,34:37,3.0,4.0,2.0,16.0,13.0,5.0,8.0,26.0,0.0,1.0,0.0,3.0
0021400355,1610612766,CHA,Charlotte,202689,Kemba Walker,G,,34:37,82.6,116.6,-34.0,0.333,1.67,17.3,0.0,0.227,0.094,10.4,0.575,0.575,0.317,97.06,0.17,2014-12-15T00:00:00,1,1610612739,CLE,Cleveland,14-9,34,20,26,17,0,0,0,0,0,0,0,0,0,0,97,0.458,0.706,0.375,28,43,10,0021400355,1610612766,CHA,Charlotte,Kemba Walker,G,,34:37,3.0,4.0,2.0,16.0,13.0,5.0,8.0,26.0,0.0,1.0,0.0,3.0
0021400355,1610612766,CHA,Charlotte,201945,Gerald Henderson,,,21:26,111.3,85.7,25.6,0.0,0.0,0.0,0.063,0.053,0.057,0.0,0.571,0.571,0.172,89.0,0.052,2014-12-15T00:00:00,1,1610612766,CHA,Charlotte,6-18,17,28,23,20,0,0,0,0,0,0,0,0,0,0,88,0.458,0.5,0.313,22,37,10,0021400355,1610612766,CHA,Charlotte,Gerald Henderson,,,21:26,2.0,2.0,0.0,4.0,2.0,3.0,4.0,16.0,0.0,1.0,3.0,2.0
0021400355,1610612766,CHA,Charlotte,201945,Gerald Henderson,,,21:26,111.3,85.7,25.6,0.0,0.0,0.0,0.063,0.053,0.057,0.0,0.571,0.571,0.172,89.0,0.052,2014-12-15T00:00:00,1,1610612739,CLE,Cleveland,14-9,34,20,26,17,0,0,0,0,0,0,0,0,0,0,97,0.458,0.706,0.375,28,43,10,0021400355,1610612766,CHA,Charlotte,Gerald Henderson,,,21:26,2.0,2.0,0.0,4.0,2.0,3.0,4.0,16.0,0.0,1.0,3.0,2.0
0021400355,1610612766,CHA,Charlotte,202390,Gary Neal,,,28:46,114.0,78.1,35.9,0.261,3.0,31.8,0.0,0.065,0.038,10.6,0.35,0.368,0.228,91.34,0.051,2014-12-15T00:00:00,1,1610612766,CHA,Charlotte,6-18,17,28,23,20,0,0,0,0,0,0,0,0,0,0,88,0.458,0.5,0.313,22,37,10,0021400355,1610612766,CHA,Charlotte,Gary Neal,,,28:46,3.0,0.0,3.0,0.0,2.0,6.0,4.0,14.0,0.0,0.0,2.0,2.0
0021400355,1610612766,CHA,Charlotte,202390,Gary Neal,,,28:46,114.0,78.1,35.9,0.261,3.0,31.8,0.0,0.065,0.038,10.6,0.35,0.368,0.228,91.34,0.051,2014-12-15T00:00:00,1,1610612739,CLE,Cleveland,14-9,34,20,26,17,0,0,0,0,0,0,0,0,0,0,97,0.458,0.706,0.375,28,43,10,0021400355,1610612766,CHA,Charlotte,Gary Neal,,,28:46,3.0,0.0,3.0,0.0,2.0,6.0,4.0,14.0,0.0,0.0,2.0,2.0
0021400355,1610612766,CHA,Charlotte,101107,Marvin Williams,,,29:33,105.8,96.4,9.3,0.0,0.0,0.0,0.0,0.074,0.042,25.0,0.833,0.833,0.126,96.32,0.064,2014-12-15T00:00:00,1,1610612766,CHA,Charlotte,6-18,17,28,23,20,0,0,0,0,0,0,0,0,0,0,88,0.458,0.5,0.313,22,37,10,0021400355,1610612766,CHA,Charlotte,Marvin Williams,,,29:33,0.0,0.0,0.0,0.0,7.0,8.0,8.0,22.0,1.0,0.0,1.0,0.0
0021400355,1610612766,CHA,Charlotte,101107,Marvin Williams,,,29:33,105.8,96.4,9.3,0.0,0.0,0.0,0.0,0.074,0.042,25.0,0.833,0.833,0.126,96.32,0.064,2014-12-15T00:00:00,1,1610612739,CLE,Cleveland,14-9,34,20,26,17,0,0,0,0,0,0,0,0,0,0,97,0.458,0.706,0.375,28,43,10,0021400355,1610612766,CHA,Charlotte,Marvin Williams,,,29:33,0.0,0.0,0.0,0.0,7.0,8.0,8.0,22.0,1.0,0.0,1.0,0.0
0021400355,1610612766,CHA,Charlotte,202687,Bismack Biyombo,,,15:42,142.0,76.2,65.8,0.0,0.0,0.0,0.111,0.316,0.25,0.0,1.0,0.725,0.099,87.07,0.175,2014-12-15T00:00:00,1,1610612766,CHA,Charlotte,6-18,17,28,23,20,0,0,0,0,0,0,0,0,0,0,88,0.458,0.5,0.313,22,37,10,0021400355,1610612766,CHA,Charlotte,Bismack Biyombo,,,15:42,0.0,2.0,0.0,2.0,2.0,6.0,2.0,8.0,4.0,0.0,0.0,2.0
0021400355,1610612766,CHA,Charlotte,202687,Bismack Biyombo,,,15:42,142.0,76.2,65.8,0.0,0.0,0.0,0.111,0.316,0.25,0.0,1.0,0.725,0.099,87.07,0.175,2014-12-15T00:00:00,1,1610612739,CLE,Cleveland,14-9,34,20,26,17,0,0,0,0,0,0,0,0,0,0,97,0.458,0.706,0.375,28,43,10,0021400355,1610612766,CHA,Charlotte,Bismack Biyombo,,,15:42,0.0,2.0,0.0,2.0,2.0,6.0,2.0,8.0,4.0,0.0,0.0,2.0
0021400355,1610612766,CHA,Charlotte,203148,Brian Roberts,,,13:23,127.4,68.3,59.1,0.556,5.0,41.7,0.0,0.111,0.074,8.3,0.583,0.583,0.295,85.43,0.213,2014-12-15T00:00:00,1,1610612766,CHA,Charlotte,6-18,17,28,23,20,0,0,0,0,0,0,0,0,0,0,88,0.458,0.5,0.313,22,37,10,0021400355,1610612766,CHA,Charlotte,Brian Roberts,,,13:23,2.0,0.0,3.0,2.0,2.0,3.0,2.0,6.0,0.0,0.0,0.0,0.0
0021400355,1610612766,CHA,Charlotte,203148,Brian Roberts,,,13:23,127.4,68.3,59.1,0.556,5.0,41.7,0.0,0.111,0.074,8.3,0.583,0.583,0.295,85.43,0.213,2014-12-15T00:00:00,1,1610612739,CLE,Cleveland,14-9,34,20,26,17,0,0,0,0,0,0,0,0,0,0,97,0.458,0.706,0.375,28,43,10,0021400355,1610612766,CHA,Charlotte,Brian Roberts,,,13:23,2.0,0.0,3.0,2.0,2.0,3.0,2.0,6.0,0.0,0.0,0.0,0.0
0021400355,1610612766,CHA,Charlotte,203798,PJ Hairston,,DNP - Coach's Decision                  ,,,,,,,0.0,,,,,,,0.0,,,2014-12-15T00:00:00,1,1610612766,CHA,Charlotte,6-18,17,28,23,20,0,0,0,0,0,0,0,0,0,0,88,0.458,0.5,0.313,22,37,10,0021400355,1610612766,CHA,Charlotte,PJ Hairston,,DNP - Coach's Decision                  ,,,,,,,,,,,,,
0021400355,1610612766,CHA,Charlotte,203798,PJ Hairston,,DNP - Coach's Decision                  ,,,,,,,0.0,,,,,,,0.0,,,2014-12-15T00:00:00,1,1610612739,CLE,Cleveland,14-9,34,20,26,17,0,0,0,0,0,0,0,0,0,0,97,0.458,0.706,0.375,28,43,10,0021400355,1610612766,CHA,Charlotte,PJ Hairston,,DNP - Coach's Decision                  ,,,,,,,,,,,,,
0021400355,1610612766,CHA,Charlotte,101131,Jason Maxiell,,DNP - Coach's Decision                  ,,,,,,,0.0,,,,,,,0.0,,,2014-12-15T00:00:00,1,1610612766,CHA,Charlotte,6-18,17,28,23,20,0,0,0,0,0,0,0,0,0,0,88,0.458,0.5,0.313,22,37,10,0021400355,1610612766,CHA,Charlotte,Jason Maxiell,,DNP - Coach's Decision                  ,,,,,,,,,,,,,
0021400355,1610612766,CHA,Charlotte,101131,Jason Maxiell,,DNP - Coach's Decision                  ,,,,,,,0.0,,,,,,,0.0,,,2014-12-15T00:00:00,1,1610612739,CLE,Cleveland,14-9,34,20,26,17,0,0,0,0,0,0,0,0,0,0,97,0.458,0.706,0.375,28,43,10,0021400355,1610612766,CHA,Charlotte,Jason Maxiell,,DNP - Coach's Decision                  ,,,,,,,,,,,,,
0021400355,1610612766,CHA,Charlotte,2457,Jannero Pargo,,DNP - Coach's Decision                  ,,,,,,,0.0,,,,,,,0.0,,,2014-12-15T00:00:00,1,1610612766,CHA,Charlotte,6-18,17,28,23,20,0,0,0,0,0,0,0,0,0,0,88,0.458,0.5,0.313,22,37,10,0021400355,1610612766,CHA,Charlotte,Jannero Pargo,,DNP - Coach's Decision                  ,,,,,,,,,,,,,
0021400355,1610612766,CHA,Charlotte,2457,Jannero Pargo,,DNP - Coach's Decision                  ,,,,,,,0.0,,,,,,,0.0,,,2014-12-15T00:00:00,1,1610612739,CLE,Cleveland,14-9,34,20,26,17,0,0,0,0,0,0,0,0,0,0,97,0.458,0.706,0.375,28,43,10,0021400355,1610612766,CHA,Charlotte,Jannero Pargo,,DNP - Coach's Decision                  ,,,,,,,,,,,,,
0021400355,1610612739,CLE,Cleveland,2544,LeBron James,F,,40:18,108.1,84.7,23.4,0.636,2.8,35.2,0.0,0.2,0.101,12.6,0.632,0.65,0.308,94.09,0.238,2014-12-15T00:00:00,1,1610612766,CHA,Charlotte,6-18,17,28,23,20,0,0,0,0,0,0,0,0,0,0,88,0.458,0.5,0.313,22,37,10,0021400355,1610612739,CLE,Cleveland,LeBron James,F,,40:18,2.0,3.0,6.0,8.0,12.0,11.0,8.0,38.0,3.0,1.0,2.0,4.0
0021400355,1610612739,CLE,Cleveland,2544,LeBron James,F,,40:18,108.1,84.7,23.4,0.636,2.8,35.2,0.0,0.2,0.101,12.6,0.632,0.65,0.308,94.09,0.238,2014-12-15T00:00:00,1,1610612739,CLE,Cleveland,14-9,34,20,26,17,0,0,0,0,0,0,0,0,0,0,97,0.458,0.706,0.375,28,43,10,0021400355,1610612739,CLE,Cleveland,LeBron James,F,,40:18,2.0,3.0,6.0,8.0,12.0,11.0,8.0,38.0,3.0,1.0,2.0,4.0
0021400355,1610612739,CLE,Cleveland,201567,Kevin Love,F,,38:47,112.4,88.0,24.4,0.192,5.0,22.5,0.034,0.529,0.302,4.5,0.643,0.679,0.213,95.3,0.268,2014-12-15T00:00:00,1,1610612766,CHA,Charlotte,6-18,17,28,23,20,0,0,0,0,0,0,0,0,0,0,88,0.458,0.5,0.313,22,37,10,0021400355,1610612739,CLE,Cleveland,Kevin Love,F,,38:47,3.0,0.0,0.0,2.0,10.0,11.0,8.0,36.0,0.0,0.0,1.0,4.0
0021400355,1610612739,CLE,Cleveland,201567,Kevin Love,F,,38:47,112.4,88.0,24.4,0.192,5.0,22.5,0.034,0.529,0.302,4.5,0.643,0.679,0.213,95.3,0.268,2014-12-15T00:00:00,1,1610612739,CLE,Cleveland,14-9,34,20,26,17,0,0,0,0,0,0,0,0,0,0,97,0.458,0.706,0.375,28,43,10,0021400355,1610612739,CLE,Cleveland,Kevin Love,F,,38:47,3.0,0.0,0.0,2.0,10.0,11.0,8.0,36.0,0.0,0.0,1.0,4.0
0021400355,1610612739,CLE,Cleveland,2760,Anderson Varejao,C,,27:04,110.6,81.9,28.8,0.0,0.0,0.0,0.13,0.08,0.104,7.7,0.333,0.333,0.23,92.25,-0.015,2014-12-15T00:00:00,1,1610612766,CHA,Charlotte,6-18,17,28,23,20,0,0,0,0,0,0,0,0,0,0,88,0.458,0.5,0.313,22,37,10,0021400355,1610612739,CLE,Cleveland,Anderson Varejao,C,,27:04,2.0,0.0,2.0,4.0,5.0,6.0,8.0,18.0,0.0,1.0,5.0,0.0
0021400355,1610612739,CLE,Cleveland,2760,Anderson Varejao,C,,27:04,110.6,81.9,28.8,0.0,0.0,0.0,0.13,0.08,0.104,7.7,0.333,0.333,0.23,92.25,-0.015,2014-12-15T00:00:00,1,1610612739,CLE,Cleveland,14-9,34,20,26,17,0,0,0,0,0,0,0,0,0,0,97,0.458,0.706,0.375,28,43,10,0021400355,1610612739,CLE,Cleveland,Anderson Varejao,C,,27:04,2.0,0.0,2.0,4.0,5.0,6.0,8.0,18.0,0.0,1.0,5.0,0.0
0021400355,1610612739,CLE,Cleveland,1890,Shawn Marion,G,,25:35,121.6,92.7,28.9,0.048,0.0,20.0,0.125,0.0,0.051,0.0,0.5,0.5,0.077,95.61,0.051,2014-12-15T00:00:00,1,1610612766,CHA,Charlotte,6-18,17,28,23,20,0,0,0,0,0,0,0,0,0,0,88,0.458,0.5,0.313,22,37,10,0021400355,1610612739,CLE,Cleveland,Shawn Marion,G,,25:35,0.0,2.0,0.0,4.0,2.0,9.0,2.0,30.0,1.0,1.0,1.0,0.0
0021400355,1610612739,CLE,Cleveland,1890,Shawn Marion,G,,25:35,121.6,92.7,28.9,0.048,0.0,20.0,0.125,0.0,0.051,0.0,0.5,0.5,0.077,95.61,0.051,2014-12-15T00:00:00,1,1610612739,CLE,Cleveland,14-9,34,20,26,17,0,0,0,0,0,0,0,0,0,0,97,0.458,0.706,0.375,28,43,10,0021400355,1610612739,CLE,Cleveland,Shawn Marion,G,,25:35,0.0,2.0,0.0,4.0,2.0,9.0,2.0,30.0,1.0,1.0,1.0,0.0
0021400355,1610612739,CLE,Cleveland,202681,Kyrie Irving,G,,39:57,104.8,83.5,21.3,0.148,2.0,18.4,0.0,0.056,0.028,9.2,0.464,0.508,0.206,97.06,0.072,2014-12-15T00:00:00,1,1610612766,CHA,Charlotte,6-18,17,28,23,20,0,0,0,0,0,0,0,0,0,0,88,0.458,0.5,0.313,22,37,10,0021400355,1610612739,CLE,Cleveland,Kyrie Irving,G,,39:57,3.0,0.0,0.0,4.0,7.0,11.0,8.0,36.0,0.0,0.0,1.0,4.0
0021400355,1610612739,CLE,Cleveland,202681,Kyrie Irving,G,,39:57,104.8,83.5,21.3,0.148,2.0,18.4,0.0,0.056,0.028,9.2,0.464,0.508,0.206,97.06,0.072,2014-12-15T00:00:00,1,1610612739,CLE,Cleveland,14-9,34,20,26,17,0,0,0,0,0,0,0,0,0,0,97,0.458,0.706,0.375,28,43,10,0021400355,1610612739,CLE,Cleveland,Kyrie Irving,G,,39:57,3.0,0.0,0.0,4.0,7.0,11.0,8.0,36.0,0.0,0.0,1.0,4.0
0021400355,1610612739,CLE,Cleveland,203079,Dion Waiters,,,23:52,85.0,101.4,-16.4,0.231,0.0,23.1,0.0,0.111,0.051,0.0,0.35,0.35,0.196,91.99,0.075,2014-12-15T00:00:00,1,1610612766,CHA,Charlotte,6-18,17,28,23,20,0,0,0,0,0,0,0,0,0,0,88,0.458,0.5,0.313,22,37,10,0021400355,1610612739,CLE,Cleveland,Dion Waiters,,,23:52,5.0,0.0,2.0,2.0,10.0,6.0,3.0,16.0,1.0,1.0,1.0,0.0
0021400355,1610612739,CLE,Cleveland,203079,Dion Waiters,,,23:52,85.0,101.4,-16.4,0.231,0.0,23.1,0.0,0.111,0.051,0.0,0.35,0.35,0.196,91.99,0.075,2014-12-15T00:00:00,1,1610612739,CLE,Cleveland,14-9,34,20,26,17,0,0,0,0,0,0,0,0,0,0,97,0.458,0.706,0.375,28,43,10,0021400355,1610612739,CLE,Cleveland,Dion Waiters,,,23:52,5.0,0.0,2.0,2.0,10.0,6.0,3.0,16.0,1.0,1.0,1.0,0.0
0021400355,1610612739,CLE,Cleveland,202684,Tristan Thompson,,,25:17,92.1,107.3,-15.2,0.067,1.0,10.2,0.095,0.167,0.128,10.2,0.667,0.644,0.159,94.32,0.094,2014-12-15T00:00:00,1,1610612766,CHA,Charlotte,6-18,17,28,23,20,0,0,0,0,0,0,0,0,0,0,88,0.458,0.5,0.313,22,37,10,0021400355,1610612739,CLE,Cleveland,Tristan Thompson,,,25:17,0.0,0.0,0.0,8.0,9.0,7.0,0.0,26.0,0.0,1.0,2.0,2.0
0021400355,1610612739,CLE,Cleveland,202684,Tristan Thompson,,,25:17,92.1,107.3,-15.2,0.067,1.0,10.2,0.095,0.167,0.128,10.2,0.667,0.644,0.159,94.32,0.094,2014-12-15T00:00:00,1,1610612739,CLE,Cleveland,14-9,34,20,26,17,0,0,0,0,0,0,0,0,0,0,97,0.458,0.706,0.375,28,43,10,0021400355,1610612739,CLE,Cleveland,Tristan Thompson,,,25:17,0.0,0.0,0.0,8.0,9.0,7.0,0.0,26.0,0.0,1.0,2.0,2.0
0021400355,1610612739,CLE,Cleveland,203521,Matthew Dellavedova,,,11:33,89.6,134.1,-44.5,0.0,0.0,0.0,0.0,0.143,0.063,0.0,0.0,0.0,0.079,82.78,-0.062,2014-12-15T00:00:00,1,1610612766,CHA,Charlotte,6-18,17,28,23,20,0,0,0,0,0,0,0,0,0,0,88,0.458,0.5,0.313,22,37,10,0021400355,1610612739,CLE,Cleveland,Matthew Dellavedova,,,11:33,0.0,0.0,0.0,0.0,5.0,2.0,0.0,6.0,0.0,0.0,1.0,0.0
0021400355,1610612739,CLE,Cleveland,203521,Matthew Dellavedova,,,11:33,89.6,134.1,-44.5,0.0,0.0,0.0,0.0,0.143,0.063,0.0,0.0,0.0,0.079,82.78,-0.062,2014-12-15T00:00:00,1,1610612739,CLE,Cleveland,14-9,34,20,26,17,0,0,0,0,0,0,0,0,0,0,97,0.458,0.706,0.375,28,43,10,0021400355,1610612739,CLE,Cleveland,Matthew Dellavedova,,,11:33,0.0,0.0,0.0,0.0,5.0,2.0,0.0,6.0,0.0,0.0,1.0,0.0
0021400355,1610612739,CLE,Cleveland,203925,Joe Harris,,,7:37,64.3,150.0,-85.7,0.0,0.0,0.0,0.0,0.0,0.0,0.0,0.75,0.75,0.118,88.23,0.054,2014-12-15T00:00:00,1,1610612766,CHA,Charlotte,6-18,17,28,23,20,0,0,0,0,0,0,0,0,0,0,88,0.458,0.5,0.313,22,37,10,0021400355,1610612739,CLE,Cleveland,Joe Harris,,,7:37,0.0,3.0,0.0,0.0,0.0,2.0,3.0,4.0,0.0,0.0,0.0,0.0
0021400355,1610612739,CLE,Cleveland,203925,Joe Harris,,,7:37,64.3,150.0,-85.7,0.0,0.0,0.0,0.0,0.0,0.0,0.0,0.75,0.75,0.118,88.23,0.054,2014-12-15T00:00:00,1,1610612739,CLE,Cleveland,14-9,34,20,26,17,0,0,0,0,0,0,0,0,0,0,97,0.458,0.706,0.375,28,43,10,0021400355,1610612739,CLE,Cleveland,Joe Harris,,,7:37,0.0,3.0,0.0,0.0,0.0,2.0,3.0,4.0,0.0,0.0,0.0,0.0
0021400355,1610612739,CLE,Cleveland,200811,Lou Amundson,,DNP - Coach's Decision                  ,,,,,,,0.0,,,,,,,0.0,,,2014-12-15T00:00:00,1,1610612766,CHA,Charlotte,6-18,17,28,23,20,0,0,0,0,0,0,0,0,0,0,88,0.458,0.5,0.313,22,37,10,0021400355,1610612739,CLE,Cleveland,Lou Amundson,,DNP - Coach's Decision                  ,,,,,,,,,,,,,
0021400355,1610612739,CLE,Cleveland,200811,Lou Amundson,,DNP - Coach's Decision                  ,,,,,,,0.0,,,,,,,0.0,,,2014-12-15T00:00:00,1,1610612739,CLE,Cleveland,14-9,34,20,26,17,0,0,0,0,0,0,0,0,0,0,97,0.458,0.706,0.375,28,43,10,0021400355,1610612739,CLE,Cleveland,Lou Amundson,,DNP - Coach's Decision                  ,,,,,,,,,,,,,
0021400355,1610612739,CLE,Cleveland,2217,Brendan Haywood,,DNP - Coach's Decision                  ,,,,,,,0.0,,,,,,,0.0,,,2014-12-15T00:00:00,1,1610612766,CHA,Charlotte,6-18,17,28,23,20,0,0,0,0,0,0,0,0,0,0,88,0.458,0.5,0.313,22,37,10,0021400355,1610612739,CLE,Cleveland,Brendan Haywood,,DNP - Coach's Decision                  ,,,,,,,,,,,,,
0021400355,1610612739,CLE,Cleveland,2217,Brendan Haywood,,DNP - Coach's Decision                  ,,,,,,,0.0,,,,,,,0.0,,,2014-12-15T00:00:00,1,1610612739,CLE,Cleveland,14-9,34,20,26,17,0,0,0,0,0,0,0,0,0,0,97,0.458,0.706,0.375,28,43,10,0021400355,1610612739,CLE,Cleveland,Brendan Haywood,,DNP - Coach's Decision                  ,,,,,,,,,,,,,
0021400355,1610612739,CLE,Cleveland,2592,James Jones,,DNP - Coach's Decision                  ,,,,,,,0.0,,,,,,,0.0,,,2014-12-15T00:00:00,1,1610612766,CHA,Charlotte,6-18,17,28,23,20,0,0,0,0,0,0,0,0,0,0,88,0.458,0.5,0.313,22,37,10,0021400355,1610612739,CLE,Cleveland,James Jones,,DNP - Coach's Decision                  ,,,,,,,,,,,,,
0021400355,1610612739,CLE,Cleveland,2592,James Jones,,DNP - Coach's Decision                  ,,,,,,,0.0,,,,,,,0.0,,,2014-12-15T00:00:00,1,1610612739,CLE,Cleveland,14-9,34,20,26,17,0,0,0,0,0,0,0,0,0,0,97,0.458,0.706,0.375,28,43,10,0021400355,1610612739,CLE,Cleveland,James Jones,,DNP - Coach's Decision                  ,,,,,,,,,,,,,
0021400355,1610612739,CLE,Cleveland,201985,AJ Price,,DNP - Coach's Decision                  ,,,,,,,0.0,,,,,,,0.0,,,2014-12-15T00:00:00,1,1610612766,CHA,Charlotte,6-18,17,28,23,20,0,0,0,0,0,0,0,0,0,0,88,0.458,0.5,0.313,22,37,10,0021400355,1610612739,CLE,Cleveland,AJ Price,,DNP - Coach's Decision                  ,,,,,,,,,,,,,
0021400355,1610612739,CLE,Cleveland,201985,AJ Price,,DNP - Coach's Decision                  ,,,,,,,0.0,,,,,,,0.0,,,2014-12-15T00:00:00,1,1610612739,CLE,Cleveland,14-9,34,20,26,17,0,0,0,0,0,0,0,0,0,0,97,0.458,0.706,0.375,28,43,10,0021400355,1610612739,CLE,Cleveland,AJ Price,,DNP - Coach's Decision                  ,,,,,,,,,,,,,
