GAME_ID_x,TEAM_ID_x,TEAM_ABBREVIATION_x,TEAM_CITY_x,PLAYER_ID,PLAYER_NAME_x,START_POSITION_x,COMMENT_x,MIN_x,OFF_RATING,DEF_RATING,NET_RATING,AST_PCT,AST_TOV,AST_RATIO,OREB_PCT,DREB_PCT,REB_PCT,TM_TOV_PCT,EFG_PCT,TS_PCT,USG_PCT,PACE,PIE,GAME_DATE_EST,GAME_SEQUENCE,TEAM_ID_y,TEAM_ABBREVIATION_y,TEAM_CITY_NAME,TEAM_WINS_LOSSES,PTS_QTR1,PTS_QTR2,PTS_QTR3,PTS_QTR4,PTS_OT1,PTS_OT2,PTS_OT3,PTS_OT4,PTS_OT5,PTS_OT6,PTS_OT7,PTS_OT8,PTS_OT9,PTS_OT10,PTS,FG_PCT,FT_PCT,FG3_PCT,AST,REB,TOV,GAME_ID_y,TEAM_ID,TEAM_ABBREVIATION,TEAM_CITY_y,PLAYER_NAME_y,START_POSITION_y,COMMENT_y,MIN_y,PTS_OFF_TOV,PTS_2ND_CHANCE,PTS_FB,PTS_PAINT,OPP_PTS_OFF_TOV,OPP_PTS_2ND_CHANCE,OPP_PTS_FB,OPP_PTS_PAINT,BLK,BLKA,PF,PFD
0021400358,1610612741,CHI,Chicago,2399,Mike Dunleavy,F,,39:02,82.3,96.5,-14.1,0.0,0.0,0.0,0.022,0.132,0.071,9.2,0.556,0.557,0.114,97.23,0.069,2014-12-15T00:00:00,4,1610612741,CHI,Chicago,15-9,22,22,20,22,0,0,0,0,0,0,0,0,0,0,86,0.376,0.714,0.207,18,57,14,0021400358,1610612741,CHI,Chicago,Mike Dunleavy,F,,39:02,0.0,0.0,2.0,4.0,15.0,2.0,10.0,32.0,0.0,0.0,1.0,2.0
0021400358,1610612741,CHI,Chicago,2399,Mike Dunleavy,F,,39:02,82.3,96.5,-14.1,0.0,0.0,0.0,0.022,0.132,0.071,9.2,0.556,0.557,0.114,97.23,0.069,2014-12-15T00:00:00,4,1610612737,ATL,Atlanta,17-7,28,22,23,20,0,0,0,0,0,0,0,0,0,0,93,0.434,0.824,0.333,26,40,9,0021400358,1610612741,CHI,Chicago,Mike Dunleavy,F,,39:02,0.0,0.0,2.0,4.0,15.0,2.0,10.0,32.0,0.0,0.0,1.0,2.0
0021400358,1610612741,CHI,Chicago,201959,Taj Gibson,F,,38:19,84.8,97.7,-13.0,0.045,0.5,6.9,0.125,0.324,0.221,13.9,0.636,0.656,0.142,98.41,0.16,2014-12-15T00:00:00,4,1610612741,CHI,Chicago,15-9,22,22,20,22,0,0,0,0,0,0,0,0,0,0,86,0.376,0.714,0.207,18,57,14,0021400358,1610612741,CHI,Chicago,Taj Gibson,F,,38:19,0.0,5.0,0.0,14.0,17.0,2.0,10.0,34.0,2.0,1.0,5.0,2.0
0021400358,1610612741,CHI,Chicago,201959,Taj Gibson,F,,38:19,84.8,97.7,-13.0,0.045,0.5,6.9,0.125,0.324,0.221,13.9,0.636,0.656,0.142,98.41,0.16,2014-12-15T00:00:00,4,1610612737,ATL,Atlanta,17-7,28,22,23,20,0,0,0,0,0,0,0,0,0,0,93,0.434,0.824,0.333,26,40,9,0021400358,1610612741,CHI,Chicago,Taj Gibson,F,,38:19,0.0,5.0,0.0,14.0,17.0,2.0,10.0,34.0,2.0,1.0,5.0,2.0
0021400358,1610612741,CHI,Chicago,2200,Pau Gasol,C,,39:56,85.2,102.3,-17.1,0.13,3.0,15.1,0.073,0.243,0.154,5.0,0.4,0.409,0.173,100.3,0.102,2014-12-15T00:00:00,4,1610612741,CHI,Chicago,15-9,22,22,20,22,0,0,0,0,0,0,0,0,0,0,86,0.376,0.714,0.207,18,57,14,0021400358,1610612741,CHI,Chicago,Pau Gasol,C,,39:56,1.0,6.0,2.0,10.0,15.0,2.0,12.0,36.0,3.0,1.0,3.0,3.0
0021400358,1610612741,CHI,Chicago,2200,Pau Gasol,C,,39:56,85.2,102.3,-17.1,0.13,3.0,15.1,0.073,0.243,0.154,5.0,0.4,0.409,0.173,100.3,0.102,2014-12-15T00:00:00,4,1610612737,ATL,Atlanta,17-7,28,22,23,20,0,0,0,0,0,0,0,0,0,0,93,0.434,0.824,0.333,26,40,9,0021400358,1610612741,CHI,Chicago,Pau Gasol,C,,39:56,1.0,6.0,2.0,10.0,15.0,2.0,12.0,36.0,3.0,1.0,3.0,3.0
0021400358,1610612741,CHI,Chicago,202710,Jimmy Butler,G,,37:38,85.5,102.9,-17.5,0.1,1.0,9.0,0.079,0.167,0.122,9.0,0.559,0.6,0.217,101.04,0.163,2014-12-15T00:00:00,4,1610612741,CHI,Chicago,15-9,22,22,20,22,0,0,0,0,0,0,0,0,0,0,86,0.376,0.714,0.207,18,57,14,0021400358,1610612741,CHI,Chicago,Jimmy Butler,G,,37:38,2.0,3.0,2.0,4.0,15.0,2.0,12.0,36.0,0.0,1.0,1.0,4.0
0021400358,1610612741,CHI,Chicago,202710,Jimmy Butler,G,,37:38,85.5,102.9,-17.5,0.1,1.0,9.0,0.079,0.167,0.122,9.0,0.559,0.6,0.217,101.04,0.163,2014-12-15T00:00:00,4,1610612737,ATL,Atlanta,17-7,28,22,23,20,0,0,0,0,0,0,0,0,0,0,93,0.434,0.824,0.333,26,40,9,0021400358,1610612741,CHI,Chicago,Jimmy Butler,G,,37:38,2.0,3.0,2.0,4.0,15.0,2.0,12.0,36.0,0.0,1.0,1.0,4.0
0021400358,1610612741,CHI,Chicago,201565,Derrick Rose,G,,31:30,85.9,103.5,-17.6,0.444,1.33,22.0,0.083,0.069,0.077,16.5,0.286,0.314,0.356,100.75,0.026,2014-12-15T00:00:00,4,1610612741,CHI,Chicago,15-9,22,22,20,22,0,0,0,0,0,0,0,0,0,0,86,0.376,0.714,0.207,18,57,14,0021400358,1610612741,CHI,Chicago,Derrick Rose,G,,31:30,0.0,3.0,2.0,6.0,13.0,2.0,8.0,32.0,1.0,2.0,1.0,3.0
0021400358,1610612741,CHI,Chicago,201565,Derrick Rose,G,,31:30,85.9,103.5,-17.6,0.444,1.33,22.0,0.083,0.069,0.077,16.5,0.286,0.314,0.356,100.75,0.026,2014-12-15T00:00:00,4,1610612737,ATL,Atlanta,17-7,28,22,23,20,0,0,0,0,0,0,0,0,0,0,93,0.434,0.824,0.333,26,40,9,0021400358,1610612741,CHI,Chicago,Derrick Rose,G,,31:30,0.0,3.0,2.0,6.0,13.0,2.0,8.0,32.0,1.0,2.0,1.0,3.0
0021400358,1610612741,CHI,Chicago,2550,Kirk Hinrich,,,21:44,91.9,89.4,2.5,0.125,2.0,20.0,0.0,0.043,0.025,10.0,0.0,0.0,0.168,95.0,-0.075,2014-12-15T00:00:00,4,1610612741,CHI,Chicago,15-9,22,22,20,22,0,0,0,0,0,0,0,0,0,0,86,0.376,0.714,0.207,18,57,14,0021400358,1610612741,CHI,Chicago,Kirk Hinrich,,,21:44,0.0,0.0,0.0,0.0,6.0,0.0,6.0,14.0,0.0,1.0,1.0,0.0
0021400358,1610612741,CHI,Chicago,2550,Kirk Hinrich,,,21:44,91.9,89.4,2.5,0.125,2.0,20.0,0.0,0.043,0.025,10.0,0.0,0.0,0.168,95.0,-0.075,2014-12-15T00:00:00,4,1610612737,ATL,Atlanta,17-7,28,22,23,20,0,0,0,0,0,0,0,0,0,0,93,0.434,0.824,0.333,26,40,9,0021400358,1610612741,CHI,Chicago,Kirk Hinrich,,,21:44,0.0,0.0,0.0,0.0,6.0,0.0,6.0,14.0,0.0,1.0,1.0,0.0
0021400358,1610612741,CHI,Chicago,202703,Nikola Mirotic,,,17:33,90.4,85.1,5.3,0.091,0.0,11.3,0.0,0.3,0.154,0.0,0.143,0.19,0.206,92.01,-0.02,2014-12-15T00:00:00,4,1610612741,CHI,Chicago,15-9,22,22,20,22,0,0,0,0,0,0,0,0,0,0,86,0.376,0.714,0.207,18,57,14,0021400358,1610612741,CHI,Chicago,Nikola Mirotic,,,17:33,0.0,0.0,0.0,2.0,2.0,0.0,2.0,10.0,0.0,1.0,4.0,2.0
0021400358,1610612741,CHI,Chicago,202703,Nikola Mirotic,,,17:33,90.4,85.1,5.3,0.091,0.0,11.3,0.0,0.3,0.154,0.0,0.143,0.19,0.206,92.01,-0.02,2014-12-15T00:00:00,4,1610612737,ATL,Atlanta,17-7,28,22,23,20,0,0,0,0,0,0,0,0,0,0,93,0.434,0.824,0.333,26,40,9,0021400358,1610612741,CHI,Chicago,Nikola Mirotic,,,17:33,0.0,0.0,0.0,2.0,2.0,0.0,2.0,10.0,0.0,1.0,4.0,2.0
0021400358,1610612741,CHI,Chicago,201166,Aaron Brooks,,,14:18,87.8,80.8,7.1,0.143,1.0,11.8,0.0,0.067,0.036,11.8,0.583,0.621,0.254,87.41,0.139,2014-12-15T00:00:00,4,1610612741,CHI,Chicago,15-9,22,22,20,22,0,0,0,0,0,0,0,0,0,0,86,0.376,0.714,0.207,18,57,14,0021400358,1610612741,CHI,Chicago,Aaron Brooks,,,14:18,0.0,0.0,0.0,2.0,2.0,0.0,0.0,6.0,0.0,0.0,1.0,1.0
0021400358,1610612741,CHI,Chicago,201166,Aaron Brooks,,,14:18,87.8,80.8,7.1,0.143,1.0,11.8,0.0,0.067,0.036,11.8,0.583,0.621,0.254,87.41,0.139,2014-12-15T00:00:00,4,1610612737,ATL,Atlanta,17-7,28,22,23,20,0,0,0,0,0,0,0,0,0,0,93,0.434,0.824,0.333,26,40,9,0021400358,1610612741,CHI,Chicago,Aaron Brooks,,,14:18,0.0,0.0,0.0,2.0,2.0,0.0,0.0,6.0,0.0,0.0,1.0,1.0
0021400358,1610612741,CHI,Chicago,203946,Cameron Bairstow,,DNP - Coach's Decision                  ,,,,,,,0.0,,,,,,,0.0,,,2014-12-15T00:00:00,4,1610612741,CHI,Chicago,15-9,22,22,20,22,0,0,0,0,0,0,0,0,0,0,86,0.376,0.714,0.207,18,57,14,0021400358,1610612741,CHI,Chicago,Cameron Bairstow,,DNP - Coach's Decision                  ,,,,,,,,,,,,,
0021400358,1610612741,CHI,Chicago,203946,Cameron Bairstow,,DNP - Coach's Decision                  ,,,,,,,0.0,,,,,,,0.0,,,2014-12-15T00:00:00,4,1610612737,ATL,Atlanta,17-7,28,22,23,20,0,0,0,0,0,0,0,0,0,0,93,0.434,0.824,0.333,26,40,9,0021400358,1610612741,CHI,Chicago,Cameron Bairstow,,DNP - Coach's Decision                  ,,,,,,,,,,,,,
0021400358,1610612741,CHI,Chicago,1737,Nazr Mohammed,,DNP - Coach's Decision                  ,,,,,,,0.0,,,,,,,0.0,,,2014-12-15T00:00:00,4,1610612741,CHI,Chicago,15-9,22,22,20,22,0,0,0,0,0,0,0,0,0,0,86,0.376,0.714,0.207,18,57,14,0021400358,1610612741,CHI,Chicago,Nazr Mohammed,,DNP - Coach's Decision                  ,,,,,,,,,,,,,
0021400358,1610612741,CHI,Chicago,1737,Nazr Mohammed,,DNP - Coach's Decision                  ,,,,,,,0.0,,,,,,,0.0,,,2014-12-15T00:00:00,4,1610612737,ATL,Atlanta,17-7,28,22,23,20,0,0,0,0,0,0,0,0,0,0,93,0.434,0.824,0.333,26,40,9,0021400358,1610612741,CHI,Chicago,Nazr Mohammed,,DNP - Coach's Decision                  ,,,,,,,,,,,,,
0021400358,1610612741,CHI,Chicago,202734,E'Twaun Moore,,DNP - Coach's Decision                  ,,,,,,,0.0,,,,,,,0.0,,,2014-12-15T00:00:00,4,1610612741,CHI,Chicago,15-9,22,22,20,22,0,0,0,0,0,0,0,0,0,0,86,0.376,0.714,0.207,18,57,14,0021400358,1610612741,CHI,Chicago,E'Twaun Moore,,DNP - Coach's Decision                  ,,,,,,,,,,,,,
0021400358,1610612741,CHI,Chicago,202734,E'Twaun Moore,,DNP - Coach's Decision                  ,,,,,,,0.0,,,,,,,0.0,,,2014-12-15T00:00:00,4,1610612737,ATL,Atlanta,17-7,28,22,23,20,0,0,0,0,0,0,0,0,0,0,93,0.434,0.824,0.333,26,40,9,0021400358,1610612741,CHI,Chicago,E'Twaun Moore,,DNP - Coach's Decision                  ,,,,,,,,,,,,,
0021400358,1610612741,CHI,Chicago,203503,Tony Snell,,DNP - Coach's Decision                  ,,,,,,,0.0,,,,,,,0.0,,,2014-12-15T00:00:00,4,1610612741,CHI,Chicago,15-9,22,22,20,22,0,0,0,0,0,0,0,0,0,0,86,0.376,0.714,0.207,18,57,14,0021400358,1610612741,CHI,Chicago,Tony Snell,,DNP - Coach's Decision                  ,,,,,,,,,,,,,
0021400358,1610612741,CHI,Chicago,203503,Tony Snell,,DNP - Coach's Decision                  ,,,,,,,0.0,,,,,,,0.0,,,2014-12-15T00:00:00,4,1610612737,ATL,Atlanta,17-7,28,22,23,20,0,0,0,0,0,0,0,0,0,0,93,0.434,0.824,0.333,26,40,9,0021400358,1610612741,CHI,Chicago,Tony Snell,,DNP - Coach's Decision                  ,,,,,,,,,,,,,
0021400358,1610612737,ATL,Atlanta,201960,DeMarre Carroll,F,,28:11,86.2,94.4,-8.2,0.063,1.0,14.3,0.0,0.107,0.055,14.3,0.7,0.7,0.106,95.14,0.069,2014-12-15T00:00:00,4,1610612741,CHI,Chicago,15-9,22,22,20,22,0,0,0,0,0,0,0,0,0,0,86,0.376,0.714,0.207,18,57,14,0021400358,1610612737,ATL,Atlanta,DeMarre Carroll,F,,28:11,2.0,0.0,2.0,2.0,1.0,7.0,4.0,28.0,1.0,1.0,4.0,0.0
0021400358,1610612737,ATL,Atlanta,201960,DeMarre Carroll,F,,28:11,86.2,94.4,-8.2,0.063,1.0,14.3,0.0,0.107,0.055,14.3,0.7,0.7,0.106,95.14,0.069,2014-12-15T00:00:00,4,1610612737,ATL,Atlanta,17-7,28,22,23,20,0,0,0,0,0,0,0,0,0,0,93,0.434,0.824,0.333,26,40,9,0021400358,1610612737,ATL,Atlanta,DeMarre Carroll,F,,28:11,2.0,0.0,2.0,2.0,1.0,7.0,4.0,28.0,1.0,1.0,4.0,0.0
0021400358,1610612737,ATL,Atlanta,200794,Paul Millsap,F,,36:12,103.7,80.0,23.6,0.08,2.0,9.2,0.059,0.162,0.113,4.6,0.406,0.456,0.248,101.44,0.123,2014-12-15T00:00:00,4,1610612741,CHI,Chicago,15-9,22,22,20,22,0,0,0,0,0,0,0,0,0,0,86,0.376,0.714,0.207,18,57,14,0021400358,1610612737,ATL,Atlanta,Paul Millsap,F,,36:12,6.0,0.0,2.0,10.0,3.0,15.0,6.0,28.0,0.0,3.0,2.0,6.0
0021400358,1610612737,ATL,Atlanta,200794,Paul Millsap,F,,36:12,103.7,80.0,23.6,0.08,2.0,9.2,0.059,0.162,0.113,4.6,0.406,0.456,0.248,101.44,0.123,2014-12-15T00:00:00,4,1610612737,ATL,Atlanta,17-7,28,22,23,20,0,0,0,0,0,0,0,0,0,0,93,0.434,0.824,0.333,26,40,9,0021400358,1610612737,ATL,Atlanta,Paul Millsap,F,,36:12,6.0,0.0,2.0,10.0,3.0,15.0,6.0,28.0,0.0,3.0,2.0,6.0
0021400358,1610612737,ATL,Atlanta,201143,Al Horford,C,,33:28,101.1,97.5,3.6,0.375,1.2,19.4,0.033,0.25,0.152,16.2,0.526,0.528,0.364,93.9,0.174,2014-12-15T00:00:00,4,1610612741,CHI,Chicago,15-9,22,22,20,22,0,0,0,0,0,0,0,0,0,0,86,0.376,0.714,0.207,18,57,14,0021400358,1610612737,ATL,Atlanta,Al Horford,C,,33:28,2.0,0.0,4.0,12.0,1.0,9.0,6.0,36.0,0.0,1.0,1.0,3.0
0021400358,1610612737,ATL,Atlanta,201143,Al Horford,C,,33:28,101.1,97.5,3.6,0.375,1.2,19.4,0.033,0.25,0.152,16.2,0.526,0.528,0.364,93.9,0.174,2014-12-15T00:00:00,4,1610612737,ATL,Atlanta,17-7,28,22,23,20,0,0,0,0,0,0,0,0,0,0,93,0.434,0.824,0.333,26,40,9,0021400358,1610612737,ATL,Atlanta,Al Horford,C,,33:28,2.0,0.0,4.0,12.0,1.0,9.0,6.0,36.0,0.0,1.0,1.0,3.0
0021400358,1610612737,ATL,Atlanta,2594,Kyle Korver,G,,34:37,105.8,89.1,16.7,0.148,0.0,30.8,0.03,0.081,0.057,0.0,0.667,0.667,0.119,99.6,0.111,2014-12-15T00:00:00,4,1610612741,CHI,Chicago,15-9,22,22,20,22,0,0,0,0,0,0,0,0,0,0,86,0.376,0.714,0.207,18,57,14,0021400358,1610612737,ATL,Atlanta,Kyle Korver,G,,34:37,3.0,0.0,0.0,0.0,3.0,15.0,8.0,30.0,2.0,0.0,1.0,0.0
0021400358,1610612737,ATL,Atlanta,2594,Kyle Korver,G,,34:37,105.8,89.1,16.7,0.148,0.0,30.8,0.03,0.081,0.057,0.0,0.667,0.667,0.119,99.6,0.111,2014-12-15T00:00:00,4,1610612737,ATL,Atlanta,17-7,28,22,23,20,0,0,0,0,0,0,0,0,0,0,93,0.434,0.824,0.333,26,40,9,0021400358,1610612737,ATL,Atlanta,Kyle Korver,G,,34:37,3.0,0.0,0.0,0.0,3.0,15.0,8.0,30.0,2.0,0.0,1.0,0.0
0021400358,1610612737,ATL,Atlanta,201952,Jeff Teague,G,,34:35,103.8,81.3,22.6,0.28,3.5,32.0,0.0,0.077,0.043,9.1,0.417,0.466,0.198,100.72,0.112,2014-12-15T00:00:00,4,1610612741,CHI,Chicago,15-9,22,22,20,22,0,0,0,0,0,0,0,0,0,0,86,0.376,0.714,0.207,18,57,14,0021400358,1610612737,ATL,Atlanta,Jeff Teague,G,,34:35,0.0,2.0,2.0,8.0,3.0,13.0,6.0,24.0,1.0,1.0,1.0,3.0
0021400358,1610612737,ATL,Atlanta,201952,Jeff Teague,G,,34:35,103.8,81.3,22.6,0.28,3.5,32.0,0.0,0.077,0.043,9.1,0.417,0.466,0.198,100.72,0.112,2014-12-15T00:00:00,4,1610612737,ATL,Atlanta,17-7,28,22,23,20,0,0,0,0,0,0,0,0,0,0,93,0.434,0.824,0.333,26,40,9,0021400358,1610612737,ATL,Atlanta,Jeff Teague,G,,34:35,0.0,2.0,2.0,8.0,3.0,13.0,6.0,24.0,1.0,1.0,1.0,3.0
0021400358,1610612737,ATL,Atlanta,200757,Thabo Sefolosha,,,15:07,109.9,76.6,33.3,0.167,0.0,51.5,0.0,0.25,0.115,0.0,0.0,0.532,0.064,96.6,0.104,2014-12-15T00:00:00,4,1610612741,CHI,Chicago,15-9,22,22,20,22,0,0,0,0,0,0,0,0,0,0,86,0.376,0.714,0.207,18,57,14,0021400358,1610612737,ATL,Atlanta,Thabo Sefolosha,,,15:07,2.0,0.0,0.0,0.0,0.0,7.0,2.0,16.0,0.0,0.0,2.0,2.0
0021400358,1610612737,ATL,Atlanta,200757,Thabo Sefolosha,,,15:07,109.9,76.6,33.3,0.167,0.0,51.5,0.0,0.25,0.115,0.0,0.0,0.532,0.064,96.6,0.104,2014-12-15T00:00:00,4,1610612737,ATL,Atlanta,17-7,28,22,23,20,0,0,0,0,0,0,0,0,0,0,93,0.434,0.824,0.333,26,40,9,0021400358,1610612737,ATL,Atlanta,Thabo Sefolosha,,,15:07,2.0,0.0,0.0,0.0,0.0,7.0,2.0,16.0,0.0,0.0,2.0,2.0
0021400358,1610612737,ATL,Atlanta,1882,Elton Brand,,,13:30,95.6,70.7,24.9,0.0,0.0,0.0,0.067,0.091,0.077,0.0,0.6,0.68,0.195,106.14,0.214,2014-12-15T00:00:00,4,1610612741,CHI,Chicago,15-9,22,22,20,22,0,0,0,0,0,0,0,0,0,0,86,0.376,0.714,0.207,18,57,14,0021400358,1610612737,ATL,Atlanta,Elton Brand,,,13:30,2.0,0.0,2.0,0.0,2.0,8.0,2.0,6.0,1.0,0.0,2.0,1.0
0021400358,1610612737,ATL,Atlanta,1882,Elton Brand,,,13:30,95.6,70.7,24.9,0.0,0.0,0.0,0.067,0.091,0.077,0.0,0.6,0.68,0.195,106.14,0.214,2014-12-15T00:00:00,4,1610612737,ATL,Atlanta,17-7,28,22,23,20,0,0,0,0,0,0,0,0,0,0,93,0.434,0.824,0.333,26,40,9,0021400358,1610612737,ATL,Atlanta,Elton Brand,,,13:30,2.0,0.0,2.0,0.0,2.0,8.0,2.0,6.0,1.0,0.0,2.0,1.0
0021400358,1610612737,ATL,Atlanta,203471,Dennis Schroder,,,13:19,78.5,102.7,-24.2,0.5,0.0,25.0,0.0,0.091,0.037,0.0,0.333,0.333,0.238,89.25,0.053,2014-12-15T00:00:00,4,1610612741,CHI,Chicago,15-9,22,22,20,22,0,0,0,0,0,0,0,0,0,0,86,0.376,0.714,0.207,18,57,14,0021400358,1610612737,ATL,Atlanta,Dennis Schroder,,,13:19,0.0,0.0,0.0,4.0,0.0,4.0,2.0,18.0,0.0,0.0,1.0,0.0
0021400358,1610612737,ATL,Atlanta,203471,Dennis Schroder,,,13:19,78.5,102.7,-24.2,0.5,0.0,25.0,0.0,0.091,0.037,0.0,0.333,0.333,0.238,89.25,0.053,2014-12-15T00:00:00,4,1610612737,ATL,Atlanta,17-7,28,22,23,20,0,0,0,0,0,0,0,0,0,0,93,0.434,0.824,0.333,26,40,9,0021400358,1610612737,ATL,Atlanta,Dennis Schroder,,,13:19,0.0,0.0,0.0,4.0,0.0,4.0,2.0,18.0,0.0,0.0,1.0,0.0
0021400358,1610612737,ATL,Atlanta,203118,Mike Scott,,,12:50,69.0,94.1,-25.1,0.333,0.0,16.7,0.0,0.125,0.065,0.0,0.5,0.5,0.216,89.09,0.141,2014-12-15T00:00:00,4,1610612741,CHI,Chicago,15-9,22,22,20,22,0,0,0,0,0,0,0,0,0,0,86,0.376,0.714,0.207,18,57,14,0021400358,1610612737,ATL,Atlanta,Mike Scott,,,12:50,0.0,0.0,0.0,2.0,0.0,2.0,2.0,14.0,0.0,0.0,0.0,0.0
0021400358,1610612737,ATL,Atlanta,203118,Mike Scott,,,12:50,69.0,94.1,-25.1,0.333,0.0,16.7,0.0,0.125,0.065,0.0,0.5,0.5,0.216,89.09,0.141,2014-12-15T00:00:00,4,1610612737,ATL,Atlanta,17-7,28,22,23,20,0,0,0,0,0,0,0,0,0,0,93,0.434,0.824,0.333,26,40,9,0021400358,1610612737,ATL,Atlanta,Mike Scott,,,12:50,0.0,0.0,0.0,2.0,0.0,2.0,2.0,14.0,0.0,0.0,0.0,0.0
0021400358,1610612737,ATL,Atlanta,203145,Kent Bazemore,,,18:11,87.9,73.2,14.8,0.111,0.0,13.7,0.0,0.174,0.093,0.0,0.2,0.396,0.16,100.36,0.098,2014-12-15T00:00:00,4,1610612741,CHI,Chicago,15-9,22,22,20,22,0,0,0,0,0,0,0,0,0,0,86,0.376,0.714,0.207,18,57,14,0021400358,1610612737,ATL,Atlanta,Kent Bazemore,,,18:11,0.0,0.0,0.0,2.0,2.0,5.0,2.0,10.0,2.0,0.0,3.0,2.0
0021400358,1610612737,ATL,Atlanta,203145,Kent Bazemore,,,18:11,87.9,73.2,14.8,0.111,0.0,13.7,0.0,0.174,0.093,0.0,0.2,0.396,0.16,100.36,0.098,2014-12-15T00:00:00,4,1610612737,ATL,Atlanta,17-7,28,22,23,20,0,0,0,0,0,0,0,0,0,0,93,0.434,0.824,0.333,26,40,9,0021400358,1610612737,ATL,Atlanta,Kent Bazemore,,,18:11,0.0,0.0,0.0,2.0,2.0,5.0,2.0,10.0,2.0,0.0,3.0,2.0
0021400358,1610612737,ATL,Atlanta,203098,John Jenkins,,DNP - Coach's Decision                  ,,,,,,,0.0,,,,,,,0.0,,,2014-12-15T00:00:00,4,1610612741,CHI,Chicago,15-9,22,22,20,22,0,0,0,0,0,0,0,0,0,0,86,0.376,0.714,0.207,18,57,14,0021400358,1610612737,ATL,Atlanta,John Jenkins,,DNP - Coach's Decision                  ,,,,,,,,,,,,,
0021400358,1610612737,ATL,Atlanta,203098,John Jenkins,,DNP - Coach's Decision                  ,,,,,,,0.0,,,,,,,0.0,,,2014-12-15T00:00:00,4,1610612737,ATL,Atlanta,17-7,28,22,23,20,0,0,0,0,0,0,0,0,0,0,93,0.434,0.824,0.333,26,40,9,0021400358,1610612737,ATL,Atlanta,John Jenkins,,DNP - Coach's Decision                  ,,,,,,,,,,,,,
0021400358,1610612737,ATL,Atlanta,202714,Shelvin Mack,,DNP - Coach's Decision                  ,,,,,,,0.0,,,,,,,0.0,,,2014-12-15T00:00:00,4,1610612741,CHI,Chicago,15-9,22,22,20,22,0,0,0,0,0,0,0,0,0,0,86,0.376,0.714,0.207,18,57,14,0021400358,1610612737,ATL,Atlanta,Shelvin Mack,,DNP - Coach's Decision                  ,,,,,,,,,,,,,
0021400358,1610612737,ATL,Atlanta,202714,Shelvin Mack,,DNP - Coach's Decision                  ,,,,,,,0.0,,,,,,,0.0,,,2014-12-15T00:00:00,4,1610612737,ATL,Atlanta,17-7,28,22,23,20,0,0,0,0,0,0,0,0,0,0,93,0.434,0.824,0.333,26,40,9,0021400358,1610612737,ATL,Atlanta,Shelvin Mack,,DNP - Coach's Decision                  ,,,,,,,,,,,,,
0021400358,1610612737,ATL,Atlanta,203488,Mike Muscala,,DNP - Coach's Decision                  ,,,,,,,0.0,,,,,,,0.0,,,2014-12-15T00:00:00,4,1610612741,CHI,Chicago,15-9,22,22,20,22,0,0,0,0,0,0,0,0,0,0,86,0.376,0.714,0.207,18,57,14,0021400358,1610612737,ATL,Atlanta,Mike Muscala,,DNP - Coach's Decision                  ,,,,,,,,,,,,,
0021400358,1610612737,ATL,Atlanta,203488,Mike Muscala,,DNP - Coach's Decision                  ,,,,,,,0.0,,,,,,,0.0,,,2014-12-15T00:00:00,4,1610612737,ATL,Atlanta,17-7,28,22,23,20,0,0,0,0,0,0,0,0,0,0,93,0.434,0.824,0.333,26,40,9,0021400358,1610612737,ATL,Atlanta,Mike Muscala,,DNP - Coach's Decision                  ,,,,,,,,,,,,,
