GAME_ID_x,TEAM_ID_x,TEAM_ABBREVIATION_x,TEAM_CITY_x,PLAYER_ID,PLAYER_NAME_x,START_POSITION_x,COMMENT_x,MIN_x,OFF_RATING,DEF_RATING,NET_RATING,AST_PCT,AST_TOV,AST_RATIO,OREB_PCT,DREB_PCT,REB_PCT,TM_TOV_PCT,EFG_PCT,TS_PCT,USG_PCT,PACE,PIE,GAME_DATE_EST,GAME_SEQUENCE,TEAM_ID_y,TEAM_ABBREVIATION_y,TEAM_CITY_NAME,TEAM_WINS_LOSSES,PTS_QTR1,PTS_QTR2,PTS_QTR3,PTS_QTR4,PTS_OT1,PTS_OT2,PTS_OT3,PTS_OT4,PTS_OT5,PTS_OT6,PTS_OT7,PTS_OT8,PTS_OT9,PTS_OT10,PTS,FG_PCT,FT_PCT,FG3_PCT,AST,REB,TOV,GAME_ID_y,TEAM_ID,TEAM_ABBREVIATION,TEAM_CITY_y,PLAYER_NAME_y,START_POSITION_y,COMMENT_y,MIN_y,PTS_OFF_TOV,PTS_2ND_CHANCE,PTS_FB,PTS_PAINT,OPP_PTS_OFF_TOV,OPP_PTS_2ND_CHANCE,OPP_PTS_FB,OPP_PTS_PAINT,BLK,BLKA,PF,PFD
0021400359,1610612753,ORL,Orlando,202699,Tobias Harris,F,,35:53,83.0,97.8,-14.8,0.167,1.0,13.7,0.0,0.167,0.094,13.7,0.533,0.567,0.256,92.41,0.151,2014-12-15T00:00:00,5,1610612753,ORL,Orlando,10-17,25,27,13,17,0,0,0,0,0,0,0,0,0,0,82,0.486,0.75,0.267,13,36,19,0021400359,1610612753,ORL,Orlando,Tobias Harris,F,,35:53,6.0,2.0,2.0,12.0,17.0,12.0,8.0,26.0,1.0,1.0,2.0,1.0
0021400359,1610612753,ORL,Orlando,202699,Tobias Harris,F,,35:53,83.0,97.8,-14.8,0.167,1.0,13.7,0.0,0.167,0.094,13.7,0.533,0.567,0.256,92.41,0.151,2014-12-15T00:00:00,5,1610612761,TOR,Toronto,19-6,28,16,27,24,0,0,0,0,0,0,0,0,0,0,95,0.446,0.667,0.367,25,39,11,0021400359,1610612753,ORL,Orlando,Tobias Harris,F,,35:53,6.0,2.0,2.0,12.0,17.0,12.0,8.0,26.0,1.0,1.0,2.0,1.0
0021400359,1610612753,ORL,Orlando,101112,Channing Frye,F,,35:07,84.1,110.8,-26.6,0.0,0.0,0.0,0.0,0.154,0.077,14.3,0.25,0.25,0.096,92.59,0.014,2014-12-15T00:00:00,5,1610612753,ORL,Orlando,10-17,25,27,13,17,0,0,0,0,0,0,0,0,0,0,82,0.486,0.75,0.267,13,36,19,0021400359,1610612753,ORL,Orlando,Channing Frye,F,,35:07,0.0,0.0,0.0,0.0,16.0,9.0,10.0,32.0,1.0,0.0,1.0,2.0
0021400359,1610612753,ORL,Orlando,101112,Channing Frye,F,,35:07,84.1,110.8,-26.6,0.0,0.0,0.0,0.0,0.154,0.077,14.3,0.25,0.25,0.096,92.59,0.014,2014-12-15T00:00:00,5,1610612761,TOR,Toronto,19-6,28,16,27,24,0,0,0,0,0,0,0,0,0,0,95,0.446,0.667,0.367,25,39,11,0021400359,1610612753,ORL,Orlando,Channing Frye,F,,35:07,0.0,0.0,0.0,0.0,16.0,9.0,10.0,32.0,1.0,0.0,1.0,2.0
0021400359,1610612753,ORL,Orlando,202696,Nikola Vucevic,C,,34:33,89.3,104.8,-15.5,0.1,0.5,9.8,0.1,0.194,0.148,19.7,0.462,0.454,0.254,90.33,0.081,2014-12-15T00:00:00,5,1610612753,ORL,Orlando,10-17,25,27,13,17,0,0,0,0,0,0,0,0,0,0,82,0.486,0.75,0.267,13,36,19,0021400359,1610612753,ORL,Orlando,Nikola Vucevic,C,,34:33,0.0,5.0,0.0,6.0,15.0,5.0,8.0,26.0,2.0,1.0,4.0,4.0
0021400359,1610612753,ORL,Orlando,202696,Nikola Vucevic,C,,34:33,89.3,104.8,-15.5,0.1,0.5,9.8,0.1,0.194,0.148,19.7,0.462,0.454,0.254,90.33,0.081,2014-12-15T00:00:00,5,1610612761,TOR,Toronto,19-6,28,16,27,24,0,0,0,0,0,0,0,0,0,0,95,0.446,0.667,0.367,25,39,11,0021400359,1610612753,ORL,Orlando,Nikola Vucevic,C,,34:33,0.0,5.0,0.0,6.0,15.0,5.0,8.0,26.0,2.0,1.0,4.0,4.0
0021400359,1610612753,ORL,Orlando,203095,Evan Fournier,G,,30:22,83.2,117.8,-34.7,0.125,1.0,13.4,0.048,0.083,0.067,13.4,0.45,0.506,0.217,89.34,0.06,2014-12-15T00:00:00,5,1610612753,ORL,Orlando,10-17,25,27,13,17,0,0,0,0,0,0,0,0,0,0,82,0.486,0.75,0.267,13,36,19,0021400359,1610612753,ORL,Orlando,Evan Fournier,G,,30:22,2.0,3.0,2.0,6.0,20.0,9.0,8.0,26.0,0.0,1.0,3.0,1.0
0021400359,1610612753,ORL,Orlando,203095,Evan Fournier,G,,30:22,83.2,117.8,-34.7,0.125,1.0,13.4,0.048,0.083,0.067,13.4,0.45,0.506,0.217,89.34,0.06,2014-12-15T00:00:00,5,1610612761,TOR,Toronto,19-6,28,16,27,24,0,0,0,0,0,0,0,0,0,0,95,0.446,0.667,0.367,25,39,11,0021400359,1610612753,ORL,Orlando,Evan Fournier,G,,30:22,2.0,3.0,2.0,6.0,20.0,9.0,8.0,26.0,0.0,1.0,3.0,1.0
0021400359,1610612753,ORL,Orlando,203506,Victor Oladipo,G,,36:51,80.7,98.0,-17.3,0.2,1.0,20.0,0.034,0.028,0.031,20.0,0.5,0.5,0.212,91.86,0.025,2014-12-15T00:00:00,5,1610612753,ORL,Orlando,10-17,25,27,13,17,0,0,0,0,0,0,0,0,0,0,82,0.486,0.75,0.267,13,36,19,0021400359,1610612753,ORL,Orlando,Victor Oladipo,G,,36:51,4.0,2.0,0.0,6.0,17.0,12.0,8.0,26.0,0.0,0.0,5.0,2.0
0021400359,1610612753,ORL,Orlando,203506,Victor Oladipo,G,,36:51,80.7,98.0,-17.3,0.2,1.0,20.0,0.034,0.028,0.031,20.0,0.5,0.5,0.212,91.86,0.025,2014-12-15T00:00:00,5,1610612761,TOR,Toronto,19-6,28,16,27,24,0,0,0,0,0,0,0,0,0,0,95,0.446,0.667,0.367,25,39,11,0021400359,1610612753,ORL,Orlando,Victor Oladipo,G,,36:51,4.0,2.0,0.0,6.0,17.0,12.0,8.0,26.0,0.0,0.0,5.0,2.0
0021400359,1610612753,ORL,Orlando,2732,Ben Gordon,,,22:42,106.6,88.3,18.3,0.0,0.0,0.0,0.067,0.087,0.079,8.3,0.727,0.727,0.255,90.88,0.189,2014-12-15T00:00:00,5,1610612753,ORL,Orlando,10-17,25,27,13,17,0,0,0,0,0,0,0,0,0,0,82,0.486,0.75,0.267,13,36,19,0021400359,1610612753,ORL,Orlando,Ben Gordon,,,22:42,2.0,0.0,0.0,2.0,5.0,3.0,2.0,12.0,0.0,0.0,0.0,1.0
0021400359,1610612753,ORL,Orlando,2732,Ben Gordon,,,22:42,106.6,88.3,18.3,0.0,0.0,0.0,0.067,0.087,0.079,8.3,0.727,0.727,0.255,90.88,0.189,2014-12-15T00:00:00,5,1610612761,TOR,Toronto,19-6,28,16,27,24,0,0,0,0,0,0,0,0,0,0,95,0.446,0.667,0.367,25,39,11,0021400359,1610612753,ORL,Orlando,Ben Gordon,,,22:42,2.0,0.0,0.0,2.0,5.0,3.0,2.0,12.0,0.0,0.0,0.0,1.0
0021400359,1610612753,ORL,Orlando,203901,Elfrid Payton,,,13:34,104.7,123.6,-18.9,0.25,1.0,28.6,0.0,0.222,0.143,28.6,0.667,0.667,0.201,86.61,0.103,2014-12-15T00:00:00,5,1610612753,ORL,Orlando,10-17,25,27,13,17,0,0,0,0,0,0,0,0,0,0,82,0.486,0.75,0.267,13,36,19,0021400359,1610612753,ORL,Orlando,Elfrid Payton,,,13:34,0.0,0.0,2.0,4.0,8.0,2.0,2.0,12.0,1.0,0.0,1.0,1.0
0021400359,1610612753,ORL,Orlando,203901,Elfrid Payton,,,13:34,104.7,123.6,-18.9,0.25,1.0,28.6,0.0,0.222,0.143,28.6,0.667,0.667,0.201,86.61,0.103,2014-12-15T00:00:00,5,1610612761,TOR,Toronto,19-6,28,16,27,24,0,0,0,0,0,0,0,0,0,0,95,0.446,0.667,0.367,25,39,11,0021400359,1610612753,ORL,Orlando,Elfrid Payton,,,13:34,0.0,0.0,2.0,4.0,8.0,2.0,2.0,12.0,1.0,0.0,1.0,1.0
0021400359,1610612753,ORL,Orlando,203090,Maurice Harkless,,,12:00,114.3,130.6,-16.4,0.0,0.0,0.0,0.0,0.143,0.083,0.0,0.333,0.436,0.15,88.16,0.033,2014-12-15T00:00:00,5,1610612753,ORL,Orlando,10-17,25,27,13,17,0,0,0,0,0,0,0,0,0,0,82,0.486,0.75,0.267,13,36,19,0021400359,1610612753,ORL,Orlando,Maurice Harkless,,,12:00,3.0,0.0,3.0,2.0,9.0,3.0,2.0,10.0,1.0,1.0,2.0,2.0
0021400359,1610612753,ORL,Orlando,203090,Maurice Harkless,,,12:00,114.3,130.6,-16.4,0.0,0.0,0.0,0.0,0.143,0.083,0.0,0.333,0.436,0.15,88.16,0.033,2014-12-15T00:00:00,5,1610612761,TOR,Toronto,19-6,28,16,27,24,0,0,0,0,0,0,0,0,0,0,95,0.446,0.667,0.367,25,39,11,0021400359,1610612753,ORL,Orlando,Maurice Harkless,,,12:00,3.0,0.0,3.0,2.0,9.0,3.0,2.0,10.0,1.0,1.0,2.0,2.0
0021400359,1610612753,ORL,Orlando,203124,Kyle O'Quinn,,,18:58,107.8,89.8,18.0,0.0,0.0,0.0,0.0,0.333,0.25,66.7,1.0,1.0,0.087,87.11,0.102,2014-12-15T00:00:00,5,1610612753,ORL,Orlando,10-17,25,27,13,17,0,0,0,0,0,0,0,0,0,0,82,0.486,0.75,0.267,13,36,19,0021400359,1610612753,ORL,Orlando,Kyle O'Quinn,,,18:58,0.0,0.0,0.0,2.0,8.0,5.0,2.0,10.0,1.0,0.0,1.0,0.0
0021400359,1610612753,ORL,Orlando,203124,Kyle O'Quinn,,,18:58,107.8,89.8,18.0,0.0,0.0,0.0,0.0,0.333,0.25,66.7,1.0,1.0,0.087,87.11,0.102,2014-12-15T00:00:00,5,1610612761,TOR,Toronto,19-6,28,16,27,24,0,0,0,0,0,0,0,0,0,0,95,0.446,0.667,0.367,25,39,11,0021400359,1610612753,ORL,Orlando,Kyle O'Quinn,,,18:58,0.0,0.0,0.0,2.0,8.0,5.0,2.0,10.0,1.0,0.0,1.0,0.0
0021400359,1610612753,ORL,Orlando,203473,Dewayne Dedmon,,DNP - Coach's Decision                  ,,,,,,,0.0,,,,,,,0.0,,,2014-12-15T00:00:00,5,1610612753,ORL,Orlando,10-17,25,27,13,17,0,0,0,0,0,0,0,0,0,0,82,0.486,0.75,0.267,13,36,19,0021400359,1610612753,ORL,Orlando,Dewayne Dedmon,,DNP - Coach's Decision                  ,,,,,,,,,,,,,
0021400359,1610612753,ORL,Orlando,203473,Dewayne Dedmon,,DNP - Coach's Decision                  ,,,,,,,0.0,,,,,,,0.0,,,2014-12-15T00:00:00,5,1610612761,TOR,Toronto,19-6,28,16,27,24,0,0,0,0,0,0,0,0,0,0,95,0.446,0.667,0.367,25,39,11,0021400359,1610612753,ORL,Orlando,Dewayne Dedmon,,DNP - Coach's Decision                  ,,,,,,,,,,,,,
0021400359,1610612753,ORL,Orlando,2584,Willie Green,,DNP - Coach's Decision                  ,,,,,,,0.0,,,,,,,0.0,,,2014-12-15T00:00:00,5,1610612753,ORL,Orlando,10-17,25,27,13,17,0,0,0,0,0,0,0,0,0,0,82,0.486,0.75,0.267,13,36,19,0021400359,1610612753,ORL,Orlando,Willie Green,,DNP - Coach's Decision                  ,,,,,,,,,,,,,
0021400359,1610612753,ORL,Orlando,2584,Willie Green,,DNP - Coach's Decision                  ,,,,,,,0.0,,,,,,,0.0,,,2014-12-15T00:00:00,5,1610612761,TOR,Toronto,19-6,28,16,27,24,0,0,0,0,0,0,0,0,0,0,95,0.446,0.667,0.367,25,39,11,0021400359,1610612753,ORL,Orlando,Willie Green,,DNP - Coach's Decision                  ,,,,,,,,,,,,,
0021400359,1610612753,ORL,Orlando,203094,Andrew Nicholson,,DNP - Coach's Decision                  ,,,,,,,0.0,,,,,,,0.0,,,2014-12-15T00:00:00,5,1610612753,ORL,Orlando,10-17,25,27,13,17,0,0,0,0,0,0,0,0,0,0,82,0.486,0.75,0.267,13,36,19,0021400359,1610612753,ORL,Orlando,Andrew Nicholson,,DNP - Coach's Decision                  ,,,,,,,,,,,,,
0021400359,1610612753,ORL,Orlando,203094,Andrew Nicholson,,DNP - Coach's Decision                  ,,,,,,,0.0,,,,,,,0.0,,,2014-12-15T00:00:00,5,1610612761,TOR,Toronto,19-6,28,16,27,24,0,0,0,0,0,0,0,0,0,0,95,0.446,0.667,0.367,25,39,11,0021400359,1610612753,ORL,Orlando,Andrew Nicholson,,DNP - Coach's Decision                  ,,,,,,,,,,,,,
0021400359,1610612753,ORL,Orlando,2557,Luke Ridnour,,DNP - Coach's Decision                  ,,,,,,,0.0,,,,,,,0.0,,,2014-12-15T00:00:00,5,1610612753,ORL,Orlando,10-17,25,27,13,17,0,0,0,0,0,0,0,0,0,0,82,0.486,0.75,0.267,13,36,19,0021400359,1610612753,ORL,Orlando,Luke Ridnour,,DNP - Coach's Decision                  ,,,,,,,,,,,,,
0021400359,1610612753,ORL,Orlando,2557,Luke Ridnour,,DNP - Coach's Decision                  ,,,,,,,0.0,,,,,,,0.0,,,2014-12-15T00:00:00,5,1610612761,TOR,Toronto,19-6,28,16,27,24,0,0,0,0,0,0,0,0,0,0,95,0.446,0.667,0.367,25,39,11,0021400359,1610612753,ORL,Orlando,Luke Ridnour,,DNP - Coach's Decision                  ,,,,,,,,,,,,,
0021400359,1610612761,TOR,Toronto,203082,Terrence Ross,F,,21:40,105.8,77.7,28.1,0.067,0.0,8.3,0.0,0.3,0.167,0.0,0.409,0.409,0.242,91.27,0.112,2014-12-15T00:00:00,5,1610612753,ORL,Orlando,10-17,25,27,13,17,0,0,0,0,0,0,0,0,0,0,82,0.486,0.75,0.267,13,36,19,0021400359,1610612761,TOR,Toronto,Terrence Ross,F,,21:40,0.0,3.0,0.0,0.0,8.0,2.0,2.0,14.0,0.0,1.0,1.0,1.0
0021400359,1610612761,TOR,Toronto,203082,Terrence Ross,F,,21:40,105.8,77.7,28.1,0.067,0.0,8.3,0.0,0.3,0.167,0.0,0.409,0.409,0.242,91.27,0.112,2014-12-15T00:00:00,5,1610612761,TOR,Toronto,19-6,28,16,27,24,0,0,0,0,0,0,0,0,0,0,95,0.446,0.667,0.367,25,39,11,0021400359,1610612761,TOR,Toronto,Terrence Ross,F,,21:40,0.0,3.0,0.0,0.0,8.0,2.0,2.0,14.0,0.0,1.0,1.0,1.0
0021400359,1610612761,TOR,Toronto,101161,Amir Johnson,F,,19:50,108.7,80.0,28.7,0.0,0.0,0.0,0.067,0.1,0.086,10.1,0.625,0.619,0.237,93.66,0.091,2014-12-15T00:00:00,5,1610612753,ORL,Orlando,10-17,25,27,13,17,0,0,0,0,0,0,0,0,0,0,82,0.486,0.75,0.267,13,36,19,0021400359,1610612761,TOR,Toronto,Amir Johnson,F,,19:50,0.0,2.0,2.0,8.0,6.0,4.0,2.0,14.0,0.0,2.0,3.0,1.0
0021400359,1610612761,TOR,Toronto,101161,Amir Johnson,F,,19:50,108.7,80.0,28.7,0.0,0.0,0.0,0.067,0.1,0.086,10.1,0.625,0.619,0.237,93.66,0.091,2014-12-15T00:00:00,5,1610612761,TOR,Toronto,19-6,28,16,27,24,0,0,0,0,0,0,0,0,0,0,95,0.446,0.667,0.367,25,39,11,0021400359,1610612761,TOR,Toronto,Amir Johnson,F,,19:50,0.0,2.0,2.0,8.0,6.0,4.0,2.0,14.0,0.0,2.0,3.0,1.0
0021400359,1610612761,TOR,Toronto,202685,Jonas Valanciunas,C,,22:39,96.0,89.6,6.4,0.0,0.0,0.0,0.083,0.273,0.174,12.7,0.333,0.436,0.155,93.67,0.103,2014-12-15T00:00:00,5,1610612753,ORL,Orlando,10-17,25,27,13,17,0,0,0,0,0,0,0,0,0,0,82,0.486,0.75,0.267,13,36,19,0021400359,1610612761,TOR,Toronto,Jonas Valanciunas,C,,22:39,0.0,0.0,0.0,2.0,8.0,6.0,2.0,18.0,1.0,2.0,1.0,2.0
0021400359,1610612761,TOR,Toronto,202685,Jonas Valanciunas,C,,22:39,96.0,89.6,6.4,0.0,0.0,0.0,0.083,0.273,0.174,12.7,0.333,0.436,0.155,93.67,0.103,2014-12-15T00:00:00,5,1610612761,TOR,Toronto,19-6,28,16,27,24,0,0,0,0,0,0,0,0,0,0,95,0.446,0.667,0.367,25,39,11,0021400359,1610612761,TOR,Toronto,Jonas Valanciunas,C,,22:39,0.0,0.0,0.0,2.0,8.0,6.0,2.0,18.0,1.0,2.0,1.0,2.0
0021400359,1610612761,TOR,Toronto,202361,Landry Fields,G,,22:03,93.2,85.6,7.6,0.167,0.0,22.5,0.095,0.1,0.098,0.0,0.583,0.581,0.15,88.86,0.136,2014-12-15T00:00:00,5,1610612753,ORL,Orlando,10-17,25,27,13,17,0,0,0,0,0,0,0,0,0,0,82,0.486,0.75,0.267,13,36,19,0021400359,1610612761,TOR,Toronto,Landry Fields,G,,22:03,2.0,0.0,4.0,4.0,8.0,4.0,2.0,10.0,0.0,0.0,1.0,2.0
0021400359,1610612761,TOR,Toronto,202361,Landry Fields,G,,22:03,93.2,85.6,7.6,0.167,0.0,22.5,0.095,0.1,0.098,0.0,0.583,0.581,0.15,88.86,0.136,2014-12-15T00:00:00,5,1610612761,TOR,Toronto,19-6,28,16,27,24,0,0,0,0,0,0,0,0,0,0,95,0.446,0.667,0.367,25,39,11,0021400359,1610612761,TOR,Toronto,Landry Fields,G,,22:03,2.0,0.0,4.0,4.0,8.0,4.0,2.0,10.0,0.0,0.0,1.0,2.0
0021400359,1610612761,TOR,Toronto,200768,Kyle Lowry,G,,31:20,107.7,79.5,28.3,0.421,2.0,32.2,0.037,0.148,0.093,16.1,0.667,0.66,0.25,92.71,0.212,2014-12-15T00:00:00,5,1610612753,ORL,Orlando,10-17,25,27,13,17,0,0,0,0,0,0,0,0,0,0,82,0.486,0.75,0.267,13,36,19,0021400359,1610612761,TOR,Toronto,Kyle Lowry,G,,31:20,6.0,3.0,0.0,0.0,12.0,8.0,4.0,26.0,1.0,0.0,3.0,5.0
0021400359,1610612761,TOR,Toronto,200768,Kyle Lowry,G,,31:20,107.7,79.5,28.3,0.421,2.0,32.2,0.037,0.148,0.093,16.1,0.667,0.66,0.25,92.71,0.212,2014-12-15T00:00:00,5,1610612761,TOR,Toronto,19-6,28,16,27,24,0,0,0,0,0,0,0,0,0,0,95,0.446,0.667,0.367,25,39,11,0021400359,1610612761,TOR,Toronto,Kyle Lowry,G,,31:20,6.0,3.0,0.0,0.0,12.0,8.0,4.0,26.0,1.0,0.0,3.0,5.0
0021400359,1610612761,TOR,Toronto,201949,James Johnson,,,21:03,122.4,95.7,26.8,0.067,1.0,14.3,0.118,0.091,0.107,14.3,0.8,0.8,0.133,91.17,0.155,2014-12-15T00:00:00,5,1610612753,ORL,Orlando,10-17,25,27,13,17,0,0,0,0,0,0,0,0,0,0,82,0.486,0.75,0.267,13,36,19,0021400359,1610612761,TOR,Toronto,James Johnson,,,21:03,6.0,2.0,0.0,8.0,7.0,8.0,7.0,24.0,2.0,0.0,0.0,1.0
0021400359,1610612761,TOR,Toronto,201949,James Johnson,,,21:03,122.4,95.7,26.8,0.067,1.0,14.3,0.118,0.091,0.107,14.3,0.8,0.8,0.133,91.17,0.155,2014-12-15T00:00:00,5,1610612761,TOR,Toronto,19-6,28,16,27,24,0,0,0,0,0,0,0,0,0,0,95,0.446,0.667,0.367,25,39,11,0021400359,1610612761,TOR,Toronto,James Johnson,,,21:03,6.0,2.0,0.0,8.0,7.0,8.0,7.0,24.0,2.0,0.0,0.0,1.0
0021400359,1610612761,TOR,Toronto,202335,Patrick Patterson,,,28:10,102.0,98.5,3.5,0.375,0.0,50.0,0.037,0.154,0.075,0.0,0.833,0.833,0.098,88.38,0.223,2014-12-15T00:00:00,5,1610612753,ORL,Orlando,10-17,25,27,13,17,0,0,0,0,0,0,0,0,0,0,82,0.486,0.75,0.267,13,36,19,0021400359,1610612761,TOR,Toronto,Patrick Patterson,,,28:10,2.0,0.0,0.0,2.0,11.0,8.0,7.0,26.0,0.0,0.0,0.0,2.0
0021400359,1610612761,TOR,Toronto,202335,Patrick Patterson,,,28:10,102.0,98.5,3.5,0.375,0.0,50.0,0.037,0.154,0.075,0.0,0.833,0.833,0.098,88.38,0.223,2014-12-15T00:00:00,5,1610612761,TOR,Toronto,19-6,28,16,27,24,0,0,0,0,0,0,0,0,0,0,95,0.446,0.667,0.367,25,39,11,0021400359,1610612761,TOR,Toronto,Patrick Patterson,,,28:10,2.0,0.0,0.0,2.0,11.0,8.0,7.0,26.0,0.0,0.0,0.0,2.0
0021400359,1610612761,TOR,Toronto,101150,Lou Williams,,,28:21,111.9,96.7,15.2,0.125,2.0,10.0,0.04,0.154,0.079,5.0,0.464,0.527,0.298,89.3,0.146,2014-12-15T00:00:00,5,1610612753,ORL,Orlando,10-17,25,27,13,17,0,0,0,0,0,0,0,0,0,0,82,0.486,0.75,0.267,13,36,19,0021400359,1610612761,TOR,Toronto,Lou Williams,,,28:21,5.0,0.0,2.0,4.0,9.0,8.0,7.0,26.0,0.0,1.0,0.0,5.0
0021400359,1610612761,TOR,Toronto,101150,Lou Williams,,,28:21,111.9,96.7,15.2,0.125,2.0,10.0,0.04,0.154,0.079,5.0,0.464,0.527,0.298,89.3,0.146,2014-12-15T00:00:00,5,1610612761,TOR,Toronto,19-6,28,16,27,24,0,0,0,0,0,0,0,0,0,0,95,0.446,0.667,0.367,25,39,11,0021400359,1610612761,TOR,Toronto,Lou Williams,,,28:21,5.0,0.0,2.0,4.0,9.0,8.0,7.0,26.0,0.0,1.0,0.0,5.0
0021400359,1610612761,TOR,Toronto,202349,Greivis Vasquez,,,19:33,83.3,115.0,-31.7,0.4,1.33,25.0,0.05,0.125,0.071,18.8,0.222,0.222,0.278,89.42,-0.041,2014-12-15T00:00:00,5,1610612753,ORL,Orlando,10-17,25,27,13,17,0,0,0,0,0,0,0,0,0,0,82,0.486,0.75,0.267,13,36,19,0021400359,1610612761,TOR,Toronto,Greivis Vasquez,,,19:33,2.0,0.0,2.0,4.0,7.0,6.0,5.0,20.0,0.0,0.0,2.0,0.0
0021400359,1610612761,TOR,Toronto,202349,Greivis Vasquez,,,19:33,83.3,115.0,-31.7,0.4,1.33,25.0,0.05,0.125,0.071,18.8,0.222,0.222,0.278,89.42,-0.041,2014-12-15T00:00:00,5,1610612761,TOR,Toronto,19-6,28,16,27,24,0,0,0,0,0,0,0,0,0,0,95,0.446,0.667,0.367,25,39,11,0021400359,1610612761,TOR,Toronto,Greivis Vasquez,,,19:33,2.0,0.0,2.0,4.0,7.0,6.0,5.0,20.0,0.0,0.0,2.0,0.0
0021400359,1610612761,TOR,Toronto,201946,Tyler Hansbrough,,,25:21,113.2,91.5,21.6,0.056,0.0,14.3,0.056,0.091,0.069,0.0,0.333,0.333,0.116,87.78,0.007,2014-12-15T00:00:00,5,1610612753,ORL,Orlando,10-17,25,27,13,17,0,0,0,0,0,0,0,0,0,0,82,0.486,0.75,0.267,13,36,19,0021400359,1610612761,TOR,Toronto,Tyler Hansbrough,,,25:21,0.0,2.0,0.0,4.0,9.0,6.0,7.0,22.0,0.0,1.0,3.0,0.0
0021400359,1610612761,TOR,Toronto,201946,Tyler Hansbrough,,,25:21,113.2,91.5,21.6,0.056,0.0,14.3,0.056,0.091,0.069,0.0,0.333,0.333,0.116,87.78,0.007,2014-12-15T00:00:00,5,1610612761,TOR,Toronto,19-6,28,16,27,24,0,0,0,0,0,0,0,0,0,0,95,0.446,0.667,0.367,25,39,11,0021400359,1610612761,TOR,Toronto,Tyler Hansbrough,,,25:21,0.0,2.0,0.0,4.0,9.0,6.0,7.0,22.0,0.0,1.0,3.0,0.0
0021400359,1610612761,TOR,Toronto,101236,Chuck Hayes,,DNP - Coach's Decision                  ,,,,,,,0.0,,,,,,,0.0,,,2014-12-15T00:00:00,5,1610612753,ORL,Orlando,10-17,25,27,13,17,0,0,0,0,0,0,0,0,0,0,82,0.486,0.75,0.267,13,36,19,0021400359,1610612761,TOR,Toronto,Chuck Hayes,,DNP - Coach's Decision                  ,,,,,,,,,,,,,
0021400359,1610612761,TOR,Toronto,101236,Chuck Hayes,,DNP - Coach's Decision                  ,,,,,,,0.0,,,,,,,0.0,,,2014-12-15T00:00:00,5,1610612761,TOR,Toronto,19-6,28,16,27,24,0,0,0,0,0,0,0,0,0,0,95,0.446,0.667,0.367,25,39,11,0021400359,1610612761,TOR,Toronto,Chuck Hayes,,DNP - Coach's Decision                  ,,,,,,,,,,,,,
0021400359,1610612761,TOR,Toronto,203512,Lucas Nogueira,,DNP - Coach's Decision                  ,,,,,,,0.0,,,,,,,0.0,,,2014-12-15T00:00:00,5,1610612753,ORL,Orlando,10-17,25,27,13,17,0,0,0,0,0,0,0,0,0,0,82,0.486,0.75,0.267,13,36,19,0021400359,1610612761,TOR,Toronto,Lucas Nogueira,,DNP - Coach's Decision                  ,,,,,,,,,,,,,
0021400359,1610612761,TOR,Toronto,203512,Lucas Nogueira,,DNP - Coach's Decision                  ,,,,,,,0.0,,,,,,,0.0,,,2014-12-15T00:00:00,5,1610612761,TOR,Toronto,19-6,28,16,27,24,0,0,0,0,0,0,0,0,0,0,95,0.446,0.667,0.367,25,39,11,0021400359,1610612761,TOR,Toronto,Lucas Nogueira,,DNP - Coach's Decision                  ,,,,,,,,,,,,,
0021400359,1610612761,TOR,Toronto,201880,Greg Stiemsma,,DNP - Coach's Decision                  ,,,,,,,0.0,,,,,,,0.0,,,2014-12-15T00:00:00,5,1610612753,ORL,Orlando,10-17,25,27,13,17,0,0,0,0,0,0,0,0,0,0,82,0.486,0.75,0.267,13,36,19,0021400359,1610612761,TOR,Toronto,Greg Stiemsma,,DNP - Coach's Decision                  ,,,,,,,,,,,,,
0021400359,1610612761,TOR,Toronto,201880,Greg Stiemsma,,DNP - Coach's Decision                  ,,,,,,,0.0,,,,,,,0.0,,,2014-12-15T00:00:00,5,1610612761,TOR,Toronto,19-6,28,16,27,24,0,0,0,0,0,0,0,0,0,0,95,0.446,0.667,0.367,25,39,11,0021400359,1610612761,TOR,Toronto,Greg Stiemsma,,DNP - Coach's Decision                  ,,,,,,,,,,,,,
