GAME_ID_x,TEAM_ID_x,TEAM_ABBREVIATION_x,TEAM_CITY_x,PLAYER_ID,PLAYER_NAME_x,START_POSITION_x,COMMENT_x,MIN_x,OFF_RATING,DEF_RATING,NET_RATING,AST_PCT,AST_TOV,AST_RATIO,OREB_PCT,DREB_PCT,REB_PCT,TM_TOV_PCT,EFG_PCT,TS_PCT,USG_PCT,PACE,PIE,GAME_DATE_EST,GAME_SEQUENCE,TEAM_ID_y,TEAM_ABBREVIATION_y,TEAM_CITY_NAME,TEAM_WINS_LOSSES,PTS_QTR1,PTS_QTR2,PTS_QTR3,PTS_QTR4,PTS_OT1,PTS_OT2,PTS_OT3,PTS_OT4,PTS_OT5,PTS_OT6,PTS_OT7,PTS_OT8,PTS_OT9,PTS_OT10,PTS,FG_PCT,FT_PCT,FG3_PCT,AST,REB,TOV,GAME_ID_y,TEAM_ID,TEAM_ABBREVIATION,TEAM_CITY_y,PLAYER_NAME_y,START_POSITION_y,COMMENT_y,MIN_y,PTS_OFF_TOV,PTS_2ND_CHANCE,PTS_FB,PTS_PAINT,OPP_PTS_OFF_TOV,OPP_PTS_2ND_CHANCE,OPP_PTS_FB,OPP_PTS_PAINT,BLK,BLKA,PF,PFD
0021400364,1610612748,MIA,Miami,2736,Luol Deng,F,,40:40,105.4,102.1,3.4,0.16,1.0,16.3,0.038,0.122,0.09,16.3,0.462,0.545,0.239,95.02,0.098,2014-12-16T00:00:00,2,1610612748,MIA,Miami,12-13,33,22,21,19,0,0,0,0,0,0,0,0,0,0,95,0.458,0.769,0.375,20,41,18,0021400364,1610612748,MIA,Miami,Luol Deng,F,,40:40,2.0,2.0,6.0,6.0,13.0,5.0,16.0,36.0,0.0,0.0,2.0,8.0
0021400364,1610612748,MIA,Miami,2736,Luol Deng,F,,40:40,105.4,102.1,3.4,0.16,1.0,16.3,0.038,0.122,0.09,16.3,0.462,0.545,0.239,95.02,0.098,2014-12-16T00:00:00,2,1610612751,BKN,Brooklyn,10-13,25,20,21,25,0,0,0,0,0,0,0,0,0,0,91,0.39,0.719,0.286,25,37,17,0021400364,1610612748,MIA,Miami,Luol Deng,F,,40:40,2.0,2.0,6.0,6.0,13.0,5.0,16.0,36.0,0.0,0.0,2.0,8.0
0021400364,1610612748,MIA,Miami,2617,Udonis Haslem,F,,24:40,83.1,97.6,-14.5,0.167,1.0,18.4,0.053,0.136,0.098,18.4,0.5,0.509,0.191,91.16,0.039,2014-12-16T00:00:00,2,1610612748,MIA,Miami,12-13,33,22,21,19,0,0,0,0,0,0,0,0,0,0,95,0.458,0.769,0.375,20,41,18,0021400364,1610612748,MIA,Miami,Udonis Haslem,F,,24:40,0.0,0.0,0.0,6.0,6.0,0.0,5.0,22.0,0.0,1.0,4.0,3.0
0021400364,1610612748,MIA,Miami,2617,Udonis Haslem,F,,24:40,83.1,97.6,-14.5,0.167,1.0,18.4,0.053,0.136,0.098,18.4,0.5,0.509,0.191,91.16,0.039,2014-12-16T00:00:00,2,1610612751,BKN,Brooklyn,10-13,25,20,21,25,0,0,0,0,0,0,0,0,0,0,91,0.39,0.719,0.286,25,37,17,0021400364,1610612748,MIA,Miami,Udonis Haslem,F,,24:40,0.0,0.0,0.0,6.0,6.0,0.0,5.0,22.0,0.0,1.0,4.0,3.0
0021400364,1610612748,MIA,Miami,203120,Justin Hamilton,C,,16:45,80.6,76.9,3.8,0.0,0.0,0.0,0.067,0.059,0.063,0.0,0.5,0.5,0.092,89.24,-0.014,2014-12-16T00:00:00,2,1610612748,MIA,Miami,12-13,33,22,21,19,0,0,0,0,0,0,0,0,0,0,95,0.458,0.769,0.375,20,41,18,0021400364,1610612748,MIA,Miami,Justin Hamilton,C,,16:45,0.0,0.0,0.0,0.0,2.0,0.0,2.0,8.0,0.0,0.0,3.0,3.0
0021400364,1610612748,MIA,Miami,203120,Justin Hamilton,C,,16:45,80.6,76.9,3.8,0.0,0.0,0.0,0.067,0.059,0.063,0.0,0.5,0.5,0.092,89.24,-0.014,2014-12-16T00:00:00,2,1610612751,BKN,Brooklyn,10-13,25,20,21,25,0,0,0,0,0,0,0,0,0,0,91,0.39,0.719,0.286,25,37,17,0021400364,1610612748,MIA,Miami,Justin Hamilton,C,,16:45,0.0,0.0,0.0,0.0,2.0,0.0,2.0,8.0,0.0,0.0,3.0,3.0
0021400364,1610612748,MIA,Miami,2548,Dwyane Wade,G,,36:07,84.8,94.1,-9.3,0.4,2.0,12.6,0.037,0.121,0.083,6.3,0.521,0.543,0.366,97.19,0.217,2014-12-16T00:00:00,2,1610612748,MIA,Miami,12-13,33,22,21,19,0,0,0,0,0,0,0,0,0,0,95,0.458,0.769,0.375,20,41,18,0021400364,1610612748,MIA,Miami,Dwyane Wade,G,,36:07,10.0,2.0,2.0,4.0,9.0,2.0,14.0,26.0,0.0,0.0,2.0,3.0
0021400364,1610612748,MIA,Miami,2548,Dwyane Wade,G,,36:07,84.8,94.1,-9.3,0.4,2.0,12.6,0.037,0.121,0.083,6.3,0.521,0.543,0.366,97.19,0.217,2014-12-16T00:00:00,2,1610612751,BKN,Brooklyn,10-13,25,20,21,25,0,0,0,0,0,0,0,0,0,0,91,0.39,0.719,0.286,25,37,17,0021400364,1610612748,MIA,Miami,Dwyane Wade,G,,36:07,10.0,2.0,2.0,4.0,9.0,2.0,14.0,26.0,0.0,0.0,2.0,3.0
0021400364,1610612748,MIA,Miami,202708,Norris Cole,G,,30:59,99.7,97.7,2.0,0.05,1.0,9.2,0.0,0.094,0.058,9.2,0.25,0.225,0.164,92.64,-0.023,2014-12-16T00:00:00,2,1610612748,MIA,Miami,12-13,33,22,21,19,0,0,0,0,0,0,0,0,0,0,95,0.458,0.769,0.375,20,41,18,0021400364,1610612748,MIA,Miami,Norris Cole,G,,30:59,0.0,0.0,0.0,2.0,7.0,5.0,11.0,24.0,0.0,1.0,2.0,1.0
0021400364,1610612748,MIA,Miami,202708,Norris Cole,G,,30:59,99.7,97.7,2.0,0.05,1.0,9.2,0.0,0.094,0.058,9.2,0.25,0.225,0.164,92.64,-0.023,2014-12-16T00:00:00,2,1610612751,BKN,Brooklyn,10-13,25,20,21,25,0,0,0,0,0,0,0,0,0,0,91,0.39,0.719,0.286,25,37,17,0021400364,1610612748,MIA,Miami,Norris Cole,G,,30:59,0.0,0.0,0.0,2.0,7.0,5.0,11.0,24.0,0.0,1.0,2.0,1.0
0021400364,1610612748,MIA,Miami,2365,Chris Andersen,,,19:32,132.4,107.9,24.5,0.067,0.0,25.0,0.222,0.438,0.36,0.0,0.667,0.667,0.068,96.99,0.173,2014-12-16T00:00:00,2,1610612748,MIA,Miami,12-13,33,22,21,19,0,0,0,0,0,0,0,0,0,0,95,0.458,0.769,0.375,20,41,18,0021400364,1610612748,MIA,Miami,Chris Andersen,,,19:32,0.0,2.0,0.0,4.0,7.0,5.0,11.0,16.0,2.0,0.0,1.0,1.0
0021400364,1610612748,MIA,Miami,2365,Chris Andersen,,,19:32,132.4,107.9,24.5,0.067,0.0,25.0,0.222,0.438,0.36,0.0,0.667,0.667,0.068,96.99,0.173,2014-12-16T00:00:00,2,1610612751,BKN,Brooklyn,10-13,25,20,21,25,0,0,0,0,0,0,0,0,0,0,91,0.39,0.719,0.286,25,37,17,0021400364,1610612748,MIA,Miami,Chris Andersen,,,19:32,0.0,2.0,0.0,4.0,7.0,5.0,11.0,16.0,2.0,0.0,1.0,1.0
0021400364,1610612748,MIA,Miami,201596,Mario Chalmers,,,31:12,100.5,88.5,12.0,0.25,1.67,36.7,0.0,0.226,0.135,22.0,0.667,0.887,0.121,102.58,0.195,2014-12-16T00:00:00,2,1610612748,MIA,Miami,12-13,33,22,21,19,0,0,0,0,0,0,0,0,0,0,95,0.458,0.769,0.375,20,41,18,0021400364,1610612748,MIA,Miami,Mario Chalmers,,,31:12,4.0,4.0,2.0,4.0,11.0,3.0,14.0,22.0,0.0,0.0,5.0,5.0
0021400364,1610612748,MIA,Miami,201596,Mario Chalmers,,,31:12,100.5,88.5,12.0,0.25,1.67,36.7,0.0,0.226,0.135,22.0,0.667,0.887,0.121,102.58,0.195,2014-12-16T00:00:00,2,1610612751,BKN,Brooklyn,10-13,25,20,21,25,0,0,0,0,0,0,0,0,0,0,91,0.39,0.719,0.286,25,37,17,0021400364,1610612748,MIA,Miami,Mario Chalmers,,,31:12,4.0,4.0,2.0,4.0,11.0,3.0,14.0,22.0,0.0,0.0,5.0,5.0
0021400364,1610612748,MIA,Miami,200761,Shawne Williams,,,18:30,120.0,85.4,34.6,0.273,1.5,21.6,0.0,0.133,0.071,14.4,0.5,0.563,0.246,97.88,0.117,2014-12-16T00:00:00,2,1610612748,MIA,Miami,12-13,33,22,21,19,0,0,0,0,0,0,0,0,0,0,95,0.458,0.769,0.375,20,41,18,0021400364,1610612748,MIA,Miami,Shawne Williams,,,18:30,2.0,0.0,0.0,0.0,4.0,3.0,3.0,14.0,0.0,0.0,3.0,1.0
0021400364,1610612748,MIA,Miami,200761,Shawne Williams,,,18:30,120.0,85.4,34.6,0.273,1.5,21.6,0.0,0.133,0.071,14.4,0.5,0.563,0.246,97.88,0.117,2014-12-16T00:00:00,2,1610612751,BKN,Brooklyn,10-13,25,20,21,25,0,0,0,0,0,0,0,0,0,0,91,0.39,0.719,0.286,25,37,17,0021400364,1610612748,MIA,Miami,Shawne Williams,,,18:30,2.0,0.0,0.0,0.0,4.0,3.0,3.0,14.0,0.0,0.0,3.0,1.0
0021400364,1610612748,MIA,Miami,203894,Shabazz Napier,,,18:24,104.3,89.6,14.7,0.0,0.0,0.0,0.077,0.125,0.103,38.1,1.125,1.127,0.195,96.86,0.171,2014-12-16T00:00:00,2,1610612748,MIA,Miami,12-13,33,22,21,19,0,0,0,0,0,0,0,0,0,0,95,0.458,0.769,0.375,20,41,18,0021400364,1610612748,MIA,Miami,Shabazz Napier,,,18:24,2.0,0.0,0.0,0.0,6.0,2.0,4.0,20.0,0.0,0.0,1.0,1.0
0021400364,1610612748,MIA,Miami,203894,Shabazz Napier,,,18:24,104.3,89.6,14.7,0.0,0.0,0.0,0.077,0.125,0.103,38.1,1.125,1.127,0.195,96.86,0.171,2014-12-16T00:00:00,2,1610612751,BKN,Brooklyn,10-13,25,20,21,25,0,0,0,0,0,0,0,0,0,0,91,0.39,0.719,0.286,25,37,17,0021400364,1610612748,MIA,Miami,Shabazz Napier,,,18:24,2.0,0.0,0.0,0.0,6.0,2.0,4.0,20.0,0.0,0.0,1.0,1.0
0021400364,1610612748,MIA,Miami,203516,James Ennis III,,,3:11,102.0,43.6,58.4,0.0,0.0,0.0,0.0,0.0,0.0,100.0,0.0,0.0,0.17,96.2,-0.333,2014-12-16T00:00:00,2,1610612748,MIA,Miami,12-13,33,22,21,19,0,0,0,0,0,0,0,0,0,0,95,0.458,0.769,0.375,20,41,18,0021400364,1610612748,MIA,Miami,James Ennis III,,,3:11,0.0,0.0,0.0,0.0,0.0,0.0,0.0,2.0,0.0,0.0,0.0,0.0
0021400364,1610612748,MIA,Miami,203516,James Ennis III,,,3:11,102.0,43.6,58.4,0.0,0.0,0.0,0.0,0.0,0.0,100.0,0.0,0.0,0.17,96.2,-0.333,2014-12-16T00:00:00,2,1610612751,BKN,Brooklyn,10-13,25,20,21,25,0,0,0,0,0,0,0,0,0,0,91,0.39,0.719,0.286,25,37,17,0021400364,1610612748,MIA,Miami,James Ennis III,,,3:11,0.0,0.0,0.0,0.0,0.0,0.0,0.0,2.0,0.0,0.0,0.0,0.0
0021400364,1610612748,MIA,Miami,101122,Danny Granger,,NWT - Illness                           ,,,,,,,0.0,,,,,,,0.0,,,2014-12-16T00:00:00,2,1610612748,MIA,Miami,12-13,33,22,21,19,0,0,0,0,0,0,0,0,0,0,95,0.458,0.769,0.375,20,41,18,0021400364,1610612748,MIA,Miami,Danny Granger,,NWT - Illness                           ,,,,,,,,,,,,,
0021400364,1610612748,MIA,Miami,101122,Danny Granger,,NWT - Illness                           ,,,,,,,0.0,,,,,,,0.0,,,2014-12-16T00:00:00,2,1610612751,BKN,Brooklyn,10-13,25,20,21,25,0,0,0,0,0,0,0,0,0,0,91,0.39,0.719,0.286,25,37,17,0021400364,1610612748,MIA,Miami,Danny Granger,,NWT - Illness                           ,,,,,,,,,,,,,
0021400364,1610612748,MIA,Miami,202355,Hassan Whiteside,,DNP - Coach's Decision                  ,,,,,,,0.0,,,,,,,0.0,,,2014-12-16T00:00:00,2,1610612748,MIA,Miami,12-13,33,22,21,19,0,0,0,0,0,0,0,0,0,0,95,0.458,0.769,0.375,20,41,18,0021400364,1610612748,MIA,Miami,Hassan Whiteside,,DNP - Coach's Decision                  ,,,,,,,,,,,,,
0021400364,1610612748,MIA,Miami,202355,Hassan Whiteside,,DNP - Coach's Decision                  ,,,,,,,0.0,,,,,,,0.0,,,2014-12-16T00:00:00,2,1610612751,BKN,Brooklyn,10-13,25,20,21,25,0,0,0,0,0,0,0,0,0,0,91,0.39,0.719,0.286,25,37,17,0021400364,1610612748,MIA,Miami,Hassan Whiteside,,DNP - Coach's Decision                  ,,,,,,,,,,,,,
0021400364,1610612751,BKN,Brooklyn,2207,Joe Johnson,F,,37:10,96.3,86.6,9.7,0.158,3.0,16.7,0.0,0.115,0.05,5.6,0.571,0.571,0.183,96.03,0.095,2014-12-16T00:00:00,2,1610612748,MIA,Miami,12-13,33,22,21,19,0,0,0,0,0,0,0,0,0,0,95,0.458,0.769,0.375,20,41,18,0021400364,1610612751,BKN,Brooklyn,Joe Johnson,F,,37:10,3.0,0.0,5.0,4.0,13.0,4.0,5.0,22.0,0.0,0.0,3.0,2.0
0021400364,1610612751,BKN,Brooklyn,2207,Joe Johnson,F,,37:10,96.3,86.6,9.7,0.158,3.0,16.7,0.0,0.115,0.05,5.6,0.571,0.571,0.183,96.03,0.095,2014-12-16T00:00:00,2,1610612751,BKN,Brooklyn,10-13,25,20,21,25,0,0,0,0,0,0,0,0,0,0,91,0.39,0.719,0.286,25,37,17,0021400364,1610612751,BKN,Brooklyn,Joe Johnson,F,,37:10,3.0,0.0,5.0,4.0,13.0,4.0,5.0,22.0,0.0,0.0,3.0,2.0
0021400364,1610612751,BKN,Brooklyn,708,Kevin Garnett,F,,21:04,81.7,75.1,6.6,0.111,1.0,12.5,0.053,0.45,0.256,12.5,0.333,0.333,0.158,90.05,0.198,2014-12-16T00:00:00,2,1610612748,MIA,Miami,12-13,33,22,21,19,0,0,0,0,0,0,0,0,0,0,95,0.458,0.769,0.375,20,41,18,0021400364,1610612751,BKN,Brooklyn,Kevin Garnett,F,,21:04,0.0,0.0,0.0,0.0,10.0,2.0,2.0,6.0,0.0,0.0,2.0,1.0
0021400364,1610612751,BKN,Brooklyn,708,Kevin Garnett,F,,21:04,81.7,75.1,6.6,0.111,1.0,12.5,0.053,0.45,0.256,12.5,0.333,0.333,0.158,90.05,0.198,2014-12-16T00:00:00,2,1610612751,BKN,Brooklyn,10-13,25,20,21,25,0,0,0,0,0,0,0,0,0,0,91,0.39,0.719,0.286,25,37,17,0021400364,1610612751,BKN,Brooklyn,Kevin Garnett,F,,21:04,0.0,0.0,0.0,0.0,10.0,2.0,2.0,6.0,0.0,0.0,2.0,1.0
0021400364,1610612751,BKN,Brooklyn,203486,Mason Plumlee,C,,32:12,105.9,111.3,-5.3,0.067,0.25,4.9,0.172,0.2,0.184,19.5,0.667,0.677,0.278,94.67,0.154,2014-12-16T00:00:00,2,1610612748,MIA,Miami,12-13,33,22,21,19,0,0,0,0,0,0,0,0,0,0,95,0.458,0.769,0.375,20,41,18,0021400364,1610612751,BKN,Brooklyn,Mason Plumlee,C,,32:12,4.0,2.0,0.0,16.0,13.0,8.0,8.0,22.0,1.0,0.0,2.0,5.0
0021400364,1610612751,BKN,Brooklyn,203486,Mason Plumlee,C,,32:12,105.9,111.3,-5.3,0.067,0.25,4.9,0.172,0.2,0.184,19.5,0.667,0.677,0.278,94.67,0.154,2014-12-16T00:00:00,2,1610612751,BKN,Brooklyn,10-13,25,20,21,25,0,0,0,0,0,0,0,0,0,0,91,0.39,0.719,0.286,25,37,17,0021400364,1610612751,BKN,Brooklyn,Mason Plumlee,C,,32:12,4.0,2.0,0.0,16.0,13.0,8.0,8.0,22.0,1.0,0.0,2.0,5.0
0021400364,1610612751,BKN,Brooklyn,203508,Sergey Karasev,G,,22:26,116.5,124.6,-8.2,0.231,3.0,20.9,0.125,0.067,0.097,7.0,0.5,0.533,0.241,91.41,0.086,2014-12-16T00:00:00,2,1610612748,MIA,Miami,12-13,33,22,21,19,0,0,0,0,0,0,0,0,0,0,95,0.458,0.769,0.375,20,41,18,0021400364,1610612751,BKN,Brooklyn,Sergey Karasev,G,,22:26,0.0,0.0,3.0,6.0,10.0,6.0,5.0,18.0,1.0,0.0,2.0,3.0
0021400364,1610612751,BKN,Brooklyn,203508,Sergey Karasev,G,,22:26,116.5,124.6,-8.2,0.231,3.0,20.9,0.125,0.067,0.097,7.0,0.5,0.533,0.241,91.41,0.086,2014-12-16T00:00:00,2,1610612751,BKN,Brooklyn,10-13,25,20,21,25,0,0,0,0,0,0,0,0,0,0,91,0.39,0.719,0.286,25,37,17,0021400364,1610612751,BKN,Brooklyn,Sergey Karasev,G,,22:26,0.0,0.0,3.0,6.0,10.0,6.0,5.0,18.0,1.0,0.0,2.0,3.0
0021400364,1610612751,BKN,Brooklyn,101114,Deron Williams,G,,38:33,97.0,97.8,-0.7,0.55,5.5,39.2,0.0,0.042,0.016,7.1,0.375,0.497,0.193,95.26,0.161,2014-12-16T00:00:00,2,1610612748,MIA,Miami,12-13,33,22,21,19,0,0,0,0,0,0,0,0,0,0,95,0.458,0.769,0.375,20,41,18,0021400364,1610612751,BKN,Brooklyn,Deron Williams,G,,38:33,4.0,0.0,5.0,4.0,12.0,6.0,10.0,24.0,0.0,0.0,1.0,3.0
0021400364,1610612751,BKN,Brooklyn,101114,Deron Williams,G,,38:33,97.0,97.8,-0.7,0.55,5.5,39.2,0.0,0.042,0.016,7.1,0.375,0.497,0.193,95.26,0.161,2014-12-16T00:00:00,2,1610612751,BKN,Brooklyn,10-13,25,20,21,25,0,0,0,0,0,0,0,0,0,0,91,0.39,0.719,0.286,25,37,17,0021400364,1610612751,BKN,Brooklyn,Deron Williams,G,,38:33,4.0,0.0,5.0,4.0,12.0,6.0,10.0,24.0,0.0,0.0,1.0,3.0
0021400364,1610612751,BKN,Brooklyn,203141,Mirza Teletovic,,,11:24,108.3,128.1,-19.8,0.143,0.0,16.7,0.0,0.0,0.0,0.0,0.5,0.5,0.199,96.21,0.022,2014-12-16T00:00:00,2,1610612748,MIA,Miami,12-13,33,22,21,19,0,0,0,0,0,0,0,0,0,0,95,0.458,0.769,0.375,20,41,18,0021400364,1610612751,BKN,Brooklyn,Mirza Teletovic,,,11:24,0.0,0.0,0.0,2.0,7.0,6.0,2.0,12.0,0.0,0.0,2.0,0.0
0021400364,1610612751,BKN,Brooklyn,203141,Mirza Teletovic,,,11:24,108.3,128.1,-19.8,0.143,0.0,16.7,0.0,0.0,0.0,0.0,0.5,0.5,0.199,96.21,0.022,2014-12-16T00:00:00,2,1610612751,BKN,Brooklyn,10-13,25,20,21,25,0,0,0,0,0,0,0,0,0,0,91,0.39,0.719,0.286,25,37,17,0021400364,1610612751,BKN,Brooklyn,Mirza Teletovic,,,11:24,0.0,0.0,0.0,2.0,7.0,6.0,2.0,12.0,0.0,0.0,2.0,0.0
0021400364,1610612751,BKN,Brooklyn,101187,Alan Anderson,,,17:13,75.3,85.5,-10.2,0.0,0.0,0.0,0.0,0.3,0.094,0.0,0.0,0.258,0.088,94.14,-0.1,2014-12-16T00:00:00,2,1610612748,MIA,Miami,12-13,33,22,21,19,0,0,0,0,0,0,0,0,0,0,95,0.458,0.769,0.375,20,41,18,0021400364,1610612751,BKN,Brooklyn,Alan Anderson,,,17:13,0.0,0.0,0.0,0.0,6.0,2.0,3.0,4.0,0.0,0.0,5.0,2.0
0021400364,1610612751,BKN,Brooklyn,101187,Alan Anderson,,,17:13,75.3,85.5,-10.2,0.0,0.0,0.0,0.0,0.3,0.094,0.0,0.0,0.258,0.088,94.14,-0.1,2014-12-16T00:00:00,2,1610612751,BKN,Brooklyn,10-13,25,20,21,25,0,0,0,0,0,0,0,0,0,0,91,0.39,0.719,0.286,25,37,17,0021400364,1610612751,BKN,Brooklyn,Alan Anderson,,,17:13,0.0,0.0,0.0,0.0,6.0,2.0,3.0,4.0,0.0,0.0,5.0,2.0
0021400364,1610612751,BKN,Brooklyn,203928,Cory Jefferson,,,10:02,73.1,111.5,-38.4,0.0,0.0,0.0,0.0,0.25,0.118,25.8,0.25,0.347,0.345,100.56,-0.174,2014-12-16T00:00:00,2,1610612748,MIA,Miami,12-13,33,22,21,19,0,0,0,0,0,0,0,0,0,0,95,0.458,0.769,0.375,20,41,18,0021400364,1610612751,BKN,Brooklyn,Cory Jefferson,,,10:02,0.0,0.0,0.0,2.0,6.0,0.0,5.0,0.0,0.0,2.0,3.0,2.0
0021400364,1610612751,BKN,Brooklyn,203928,Cory Jefferson,,,10:02,73.1,111.5,-38.4,0.0,0.0,0.0,0.0,0.25,0.118,25.8,0.25,0.347,0.345,100.56,-0.174,2014-12-16T00:00:00,2,1610612751,BKN,Brooklyn,10-13,25,20,21,25,0,0,0,0,0,0,0,0,0,0,91,0.39,0.719,0.286,25,37,17,0021400364,1610612751,BKN,Brooklyn,Cory Jefferson,,,10:02,0.0,0.0,0.0,2.0,6.0,0.0,5.0,0.0,0.0,2.0,3.0,2.0
0021400364,1610612751,BKN,Brooklyn,202711,Bojan Bogdanovic,,,15:39,89.2,93.5,-4.4,0.0,0.0,0.0,0.0,0.071,0.036,17.0,0.375,0.512,0.156,105.69,0.042,2014-12-16T00:00:00,2,1610612748,MIA,Miami,12-13,33,22,21,19,0,0,0,0,0,0,0,0,0,0,95,0.458,0.769,0.375,20,41,18,0021400364,1610612751,BKN,Brooklyn,Bojan Bogdanovic,,,15:39,2.0,0.0,0.0,0.0,10.0,6.0,5.0,2.0,0.0,0.0,1.0,1.0
0021400364,1610612751,BKN,Brooklyn,202711,Bojan Bogdanovic,,,15:39,89.2,93.5,-4.4,0.0,0.0,0.0,0.0,0.071,0.036,17.0,0.375,0.512,0.156,105.69,0.042,2014-12-16T00:00:00,2,1610612751,BKN,Brooklyn,10-13,25,20,21,25,0,0,0,0,0,0,0,0,0,0,91,0.39,0.719,0.286,25,37,17,0021400364,1610612751,BKN,Brooklyn,Bojan Bogdanovic,,,15:39,2.0,0.0,0.0,0.0,10.0,6.0,5.0,2.0,0.0,0.0,1.0,1.0
0021400364,1610612751,BKN,Brooklyn,101127,Jarrett Jack,,,28:47,84.0,103.5,-19.5,0.333,1.25,29.8,0.0,0.105,0.043,23.9,0.167,0.322,0.179,99.75,0.025,2014-12-16T00:00:00,2,1610612748,MIA,Miami,12-13,33,22,21,19,0,0,0,0,0,0,0,0,0,0,95,0.458,0.769,0.375,20,41,18,0021400364,1610612751,BKN,Brooklyn,Jarrett Jack,,,28:47,0.0,0.0,3.0,2.0,12.0,8.0,5.0,18.0,0.0,0.0,3.0,3.0
0021400364,1610612751,BKN,Brooklyn,101127,Jarrett Jack,,,28:47,84.0,103.5,-19.5,0.333,1.25,29.8,0.0,0.105,0.043,23.9,0.167,0.322,0.179,99.75,0.025,2014-12-16T00:00:00,2,1610612751,BKN,Brooklyn,10-13,25,20,21,25,0,0,0,0,0,0,0,0,0,0,91,0.39,0.719,0.286,25,37,17,0021400364,1610612751,BKN,Brooklyn,Jarrett Jack,,,28:47,0.0,0.0,3.0,2.0,12.0,8.0,5.0,18.0,0.0,0.0,3.0,3.0
0021400364,1610612751,BKN,Brooklyn,202721,Darius Morris,,,0:04,0.0,0.0,0.0,0.0,0.0,0.0,0.0,0.0,0.0,0.0,0.0,0.0,0.0,411.43,0.0,2014-12-16T00:00:00,2,1610612748,MIA,Miami,12-13,33,22,21,19,0,0,0,0,0,0,0,0,0,0,95,0.458,0.769,0.375,20,41,18,0021400364,1610612751,BKN,Brooklyn,Darius Morris,,,0:04,0.0,0.0,0.0,0.0,0.0,0.0,0.0,0.0,0.0,0.0,0.0,0.0
0021400364,1610612751,BKN,Brooklyn,202721,Darius Morris,,,0:04,0.0,0.0,0.0,0.0,0.0,0.0,0.0,0.0,0.0,0.0,0.0,0.0,0.0,411.43,0.0,2014-12-16T00:00:00,2,1610612751,BKN,Brooklyn,10-13,25,20,21,25,0,0,0,0,0,0,0,0,0,0,91,0.39,0.719,0.286,25,37,17,0021400364,1610612751,BKN,Brooklyn,Darius Morris,,,0:04,0.0,0.0,0.0,0.0,0.0,0.0,0.0,0.0,0.0,0.0,0.0,0.0
0021400364,1610612751,BKN,Brooklyn,202366,Jerome Jordan,,,5:26,75.2,135.1,-59.9,0.0,0.0,0.0,0.429,0.0,0.333,25.8,0.5,0.521,0.284,86.22,-0.053,2014-12-16T00:00:00,2,1610612748,MIA,Miami,12-13,33,22,21,19,0,0,0,0,0,0,0,0,0,0,95,0.458,0.769,0.375,20,41,18,0021400364,1610612751,BKN,Brooklyn,Jerome Jordan,,,5:26,0.0,3.0,0.0,2.0,1.0,2.0,0.0,2.0,0.0,0.0,2.0,1.0
0021400364,1610612751,BKN,Brooklyn,202366,Jerome Jordan,,,5:26,75.2,135.1,-59.9,0.0,0.0,0.0,0.429,0.0,0.333,25.8,0.5,0.521,0.284,86.22,-0.053,2014-12-16T00:00:00,2,1610612751,BKN,Brooklyn,10-13,25,20,21,25,0,0,0,0,0,0,0,0,0,0,91,0.39,0.719,0.286,25,37,17,0021400364,1610612751,BKN,Brooklyn,Jerome Jordan,,,5:26,0.0,3.0,0.0,2.0,1.0,2.0,0.0,2.0,0.0,0.0,2.0,1.0
0021400364,1610612751,BKN,Brooklyn,203561,Brandon Davies,,DNP - Coach's Decision                  ,,,,,,,0.0,,,,,,,0.0,,,2014-12-16T00:00:00,2,1610612748,MIA,Miami,12-13,33,22,21,19,0,0,0,0,0,0,0,0,0,0,95,0.458,0.769,0.375,20,41,18,0021400364,1610612751,BKN,Brooklyn,Brandon Davies,,DNP - Coach's Decision                  ,,,,,,,,,,,,,
0021400364,1610612751,BKN,Brooklyn,203561,Brandon Davies,,DNP - Coach's Decision                  ,,,,,,,0.0,,,,,,,0.0,,,2014-12-16T00:00:00,2,1610612751,BKN,Brooklyn,10-13,25,20,21,25,0,0,0,0,0,0,0,0,0,0,91,0.39,0.719,0.286,25,37,17,0021400364,1610612751,BKN,Brooklyn,Brandon Davies,,DNP - Coach's Decision                  ,,,,,,,,,,,,,
