GAME_ID_x,TEAM_ID_x,TEAM_ABBREVIATION_x,TEAM_CITY_x,PLAYER_ID,PLAYER_NAME_x,START_POSITION_x,COMMENT_x,MIN_x,OFF_RATING,DEF_RATING,NET_RATING,AST_PCT,AST_TOV,AST_RATIO,OREB_PCT,DREB_PCT,REB_PCT,TM_TOV_PCT,EFG_PCT,TS_PCT,USG_PCT,PACE,PIE,GAME_DATE_EST,GAME_SEQUENCE,TEAM_ID_y,TEAM_ABBREVIATION_y,TEAM_CITY_NAME,TEAM_WINS_LOSSES,PTS_QTR1,PTS_QTR2,PTS_QTR3,PTS_QTR4,PTS_OT1,PTS_OT2,PTS_OT3,PTS_OT4,PTS_OT5,PTS_OT6,PTS_OT7,PTS_OT8,PTS_OT9,PTS_OT10,PTS,FG_PCT,FT_PCT,FG3_PCT,AST,REB,TOV,GAME_ID_y,TEAM_ID,TEAM_ABBREVIATION,TEAM_CITY_y,PLAYER_NAME_y,START_POSITION_y,COMMENT_y,MIN_y,PTS_OFF_TOV,PTS_2ND_CHANCE,PTS_FB,PTS_PAINT,OPP_PTS_OFF_TOV,OPP_PTS_2ND_CHANCE,OPP_PTS_FB,OPP_PTS_PAINT,BLK,BLKA,PF,PFD
0021400374,1610612751,BKN,Brooklyn,2207,Joe Johnson,F,,38:20,95.1,119.0,-23.9,0.143,1.5,12.9,0.028,0.206,0.114,8.6,0.5,0.464,0.24,90.28,0.103,2014-12-17T00:00:00,6,1610612751,BKN,Brooklyn,10-14,30,22,21,16,0,0,0,0,0,0,0,0,0,0,89,0.432,0.455,0.333,20,43,13,0021400374,1610612751,BKN,Brooklyn,Joe Johnson,F,,38:20,6.0,2.0,0.0,12.0,12.0,11.0,14.0,48.0,0.0,1.0,1.0,1.0
0021400374,1610612751,BKN,Brooklyn,2207,Joe Johnson,F,,38:20,95.1,119.0,-23.9,0.143,1.5,12.9,0.028,0.206,0.114,8.6,0.5,0.464,0.24,90.28,0.103,2014-12-17T00:00:00,6,1610612761,TOR,Toronto,20-6,22,31,23,29,0,0,0,0,0,0,0,0,0,0,105,0.513,0.684,0.5,24,42,9,0021400374,1610612751,BKN,Brooklyn,Joe Johnson,F,,38:20,6.0,2.0,0.0,12.0,12.0,11.0,14.0,48.0,0.0,1.0,1.0,1.0
0021400374,1610612751,BKN,Brooklyn,203141,Mirza Teletovic,F,,20:49,121.5,118.7,2.8,0.133,2.0,15.4,0.0,0.188,0.088,7.7,0.7,0.7,0.247,90.27,0.138,2014-12-17T00:00:00,6,1610612751,BKN,Brooklyn,10-14,30,22,21,16,0,0,0,0,0,0,0,0,0,0,89,0.432,0.455,0.333,20,43,13,0021400374,1610612751,BKN,Brooklyn,Mirza Teletovic,F,,20:49,5.0,3.0,0.0,2.0,4.0,8.0,2.0,24.0,0.0,0.0,0.0,0.0
0021400374,1610612751,BKN,Brooklyn,203141,Mirza Teletovic,F,,20:49,121.5,118.7,2.8,0.133,2.0,15.4,0.0,0.188,0.088,7.7,0.7,0.7,0.247,90.27,0.138,2014-12-17T00:00:00,6,1610612761,TOR,Toronto,20-6,22,31,23,29,0,0,0,0,0,0,0,0,0,0,105,0.513,0.684,0.5,24,42,9,0021400374,1610612751,BKN,Brooklyn,Mirza Teletovic,F,,20:49,5.0,3.0,0.0,2.0,4.0,8.0,2.0,24.0,0.0,0.0,0.0,0.0
0021400374,1610612751,BKN,Brooklyn,203486,Mason Plumlee,C,,36:53,103.6,124.2,-20.6,0.1,0.67,8.8,0.097,0.185,0.138,13.1,0.692,0.645,0.262,88.71,0.121,2014-12-17T00:00:00,6,1610612751,BKN,Brooklyn,10-14,30,22,21,16,0,0,0,0,0,0,0,0,0,0,89,0.432,0.455,0.333,20,43,13,0021400374,1610612751,BKN,Brooklyn,Mason Plumlee,C,,36:53,6.0,4.0,4.0,18.0,10.0,10.0,9.0,46.0,2.0,2.0,3.0,6.0
0021400374,1610612751,BKN,Brooklyn,203486,Mason Plumlee,C,,36:53,103.6,124.2,-20.6,0.1,0.67,8.8,0.097,0.185,0.138,13.1,0.692,0.645,0.262,88.71,0.121,2014-12-17T00:00:00,6,1610612761,TOR,Toronto,20-6,22,31,23,29,0,0,0,0,0,0,0,0,0,0,105,0.513,0.684,0.5,24,42,9,0021400374,1610612751,BKN,Brooklyn,Mason Plumlee,C,,36:53,6.0,4.0,4.0,18.0,10.0,10.0,9.0,46.0,2.0,2.0,3.0,6.0
0021400374,1610612751,BKN,Brooklyn,101187,Alan Anderson,G,,26:50,115.1,111.3,3.8,0.043,0.0,11.3,0.083,0.25,0.159,0.0,0.214,0.254,0.135,87.69,0.055,2014-12-17T00:00:00,6,1610612751,BKN,Brooklyn,10-14,30,22,21,16,0,0,0,0,0,0,0,0,0,0,89,0.432,0.455,0.333,20,43,13,0021400374,1610612751,BKN,Brooklyn,Alan Anderson,G,,26:50,0.0,0.0,0.0,0.0,4.0,8.0,4.0,32.0,1.0,1.0,0.0,2.0
0021400374,1610612751,BKN,Brooklyn,101187,Alan Anderson,G,,26:50,115.1,111.3,3.8,0.043,0.0,11.3,0.083,0.25,0.159,0.0,0.214,0.254,0.135,87.69,0.055,2014-12-17T00:00:00,6,1610612761,TOR,Toronto,20-6,22,31,23,29,0,0,0,0,0,0,0,0,0,0,105,0.513,0.684,0.5,24,42,9,0021400374,1610612751,BKN,Brooklyn,Alan Anderson,G,,26:50,0.0,0.0,0.0,0.0,4.0,8.0,4.0,32.0,1.0,1.0,0.0,2.0
0021400374,1610612751,BKN,Brooklyn,101114,Deron Williams,G,,32:48,100.6,124.8,-24.2,0.333,1.4,25.5,0.097,0.0,0.055,18.2,0.367,0.356,0.278,88.61,0.004,2014-12-17T00:00:00,6,1610612751,BKN,Brooklyn,10-14,30,22,21,16,0,0,0,0,0,0,0,0,0,0,89,0.432,0.455,0.333,20,43,13,0021400374,1610612751,BKN,Brooklyn,Deron Williams,G,,32:48,0.0,2.0,0.0,6.0,10.0,11.0,9.0,46.0,0.0,0.0,3.0,6.0
0021400374,1610612751,BKN,Brooklyn,101114,Deron Williams,G,,32:48,100.6,124.8,-24.2,0.333,1.4,25.5,0.097,0.0,0.055,18.2,0.367,0.356,0.278,88.61,0.004,2014-12-17T00:00:00,6,1610612761,TOR,Toronto,20-6,22,31,23,29,0,0,0,0,0,0,0,0,0,0,105,0.513,0.684,0.5,24,42,9,0021400374,1610612751,BKN,Brooklyn,Deron Williams,G,,32:48,0.0,2.0,0.0,6.0,10.0,11.0,9.0,46.0,0.0,0.0,3.0,6.0
0021400374,1610612751,BKN,Brooklyn,101127,Jarrett Jack,,,23:43,81.7,116.5,-34.8,0.231,0.0,33.3,0.0,0.111,0.05,0.0,0.333,0.333,0.119,90.99,0.081,2014-12-17T00:00:00,6,1610612751,BKN,Brooklyn,10-14,30,22,21,16,0,0,0,0,0,0,0,0,0,0,89,0.432,0.455,0.333,20,43,13,0021400374,1610612751,BKN,Brooklyn,Jarrett Jack,,,23:43,0.0,0.0,0.0,2.0,6.0,0.0,7.0,26.0,1.0,0.0,1.0,1.0
0021400374,1610612751,BKN,Brooklyn,101127,Jarrett Jack,,,23:43,81.7,116.5,-34.8,0.231,0.0,33.3,0.0,0.111,0.05,0.0,0.333,0.333,0.119,90.99,0.081,2014-12-17T00:00:00,6,1610612761,TOR,Toronto,20-6,22,31,23,29,0,0,0,0,0,0,0,0,0,0,105,0.513,0.684,0.5,24,42,9,0021400374,1610612751,BKN,Brooklyn,Jarrett Jack,,,23:43,0.0,0.0,0.0,2.0,6.0,0.0,7.0,26.0,1.0,0.0,1.0,1.0
0021400374,1610612751,BKN,Brooklyn,202366,Jerome Jordan,,,12:34,67.5,106.0,-38.6,0.0,0.0,0.0,0.267,0.231,0.25,16.1,0.333,0.577,0.212,94.93,0.235,2014-12-17T00:00:00,6,1610612751,BKN,Brooklyn,10-14,30,22,21,16,0,0,0,0,0,0,0,0,0,0,89,0.432,0.455,0.333,20,43,13,0021400374,1610612751,BKN,Brooklyn,Jerome Jordan,,,12:34,2.0,3.0,0.0,2.0,4.0,1.0,7.0,14.0,2.0,0.0,2.0,4.0
0021400374,1610612751,BKN,Brooklyn,202366,Jerome Jordan,,,12:34,67.5,106.0,-38.6,0.0,0.0,0.0,0.267,0.231,0.25,16.1,0.333,0.577,0.212,94.93,0.235,2014-12-17T00:00:00,6,1610612761,TOR,Toronto,20-6,22,31,23,29,0,0,0,0,0,0,0,0,0,0,105,0.513,0.684,0.5,24,42,9,0021400374,1610612751,BKN,Brooklyn,Jerome Jordan,,,12:34,2.0,3.0,0.0,2.0,4.0,1.0,7.0,14.0,2.0,0.0,2.0,4.0
0021400374,1610612751,BKN,Brooklyn,203928,Cory Jefferson,,,16:55,92.6,104.2,-11.6,0.125,1.0,16.7,0.0,0.067,0.032,16.7,0.875,0.875,0.13,92.26,0.116,2014-12-17T00:00:00,6,1610612751,BKN,Brooklyn,10-14,30,22,21,16,0,0,0,0,0,0,0,0,0,0,89,0.432,0.455,0.333,20,43,13,0021400374,1610612751,BKN,Brooklyn,Cory Jefferson,,,16:55,0.0,0.0,0.0,2.0,4.0,0.0,7.0,16.0,0.0,0.0,2.0,0.0
0021400374,1610612751,BKN,Brooklyn,203928,Cory Jefferson,,,16:55,92.6,104.2,-11.6,0.125,1.0,16.7,0.0,0.067,0.032,16.7,0.875,0.875,0.13,92.26,0.116,2014-12-17T00:00:00,6,1610612761,TOR,Toronto,20-6,22,31,23,29,0,0,0,0,0,0,0,0,0,0,105,0.513,0.684,0.5,24,42,9,0021400374,1610612751,BKN,Brooklyn,Cory Jefferson,,,16:55,0.0,0.0,0.0,2.0,4.0,0.0,7.0,16.0,0.0,0.0,2.0,0.0
0021400374,1610612751,BKN,Brooklyn,202711,Bojan Bogdanovic,,,17:27,78.8,115.2,-36.4,0.0,0.0,0.0,0.0,0.053,0.026,0.0,0.3,0.3,0.12,95.39,-0.032,2014-12-17T00:00:00,6,1610612751,BKN,Brooklyn,10-14,30,22,21,16,0,0,0,0,0,0,0,0,0,0,89,0.432,0.455,0.333,20,43,13,0021400374,1610612751,BKN,Brooklyn,Bojan Bogdanovic,,,17:27,0.0,0.0,0.0,0.0,4.0,3.0,8.0,18.0,1.0,0.0,2.0,0.0
0021400374,1610612751,BKN,Brooklyn,202711,Bojan Bogdanovic,,,17:27,78.8,115.2,-36.4,0.0,0.0,0.0,0.0,0.053,0.026,0.0,0.3,0.3,0.12,95.39,-0.032,2014-12-17T00:00:00,6,1610612761,TOR,Toronto,20-6,22,31,23,29,0,0,0,0,0,0,0,0,0,0,105,0.513,0.684,0.5,24,42,9,0021400374,1610612751,BKN,Brooklyn,Bojan Bogdanovic,,,17:27,0.0,0.0,0.0,0.0,4.0,3.0,8.0,18.0,1.0,0.0,2.0,0.0
0021400374,1610612751,BKN,Brooklyn,203561,Brandon Davies,,,9:23,85.0,128.1,-43.0,0.0,0.0,0.0,0.1,0.2,0.15,0.0,0.0,0.0,0.048,91.06,0.0,2014-12-17T00:00:00,6,1610612751,BKN,Brooklyn,10-14,30,22,21,16,0,0,0,0,0,0,0,0,0,0,89,0.432,0.455,0.333,20,43,13,0021400374,1610612751,BKN,Brooklyn,Brandon Davies,,,9:23,0.0,0.0,0.0,0.0,2.0,3.0,3.0,8.0,1.0,0.0,2.0,1.0
0021400374,1610612751,BKN,Brooklyn,203561,Brandon Davies,,,9:23,85.0,128.1,-43.0,0.0,0.0,0.0,0.1,0.2,0.15,0.0,0.0,0.0,0.048,91.06,0.0,2014-12-17T00:00:00,6,1610612761,TOR,Toronto,20-6,22,31,23,29,0,0,0,0,0,0,0,0,0,0,105,0.513,0.684,0.5,24,42,9,0021400374,1610612751,BKN,Brooklyn,Brandon Davies,,,9:23,0.0,0.0,0.0,0.0,2.0,3.0,3.0,8.0,1.0,0.0,2.0,1.0
0021400374,1610612751,BKN,Brooklyn,202721,Darius Morris,,,2:56,104.2,114.3,-10.1,1.0,0.0,100.0,0.0,0.0,0.0,0.0,0.0,0.0,0.0,104.16,0.111,2014-12-17T00:00:00,6,1610612751,BKN,Brooklyn,10-14,30,22,21,16,0,0,0,0,0,0,0,0,0,0,89,0.432,0.455,0.333,20,43,13,0021400374,1610612751,BKN,Brooklyn,Darius Morris,,,2:56,0.0,0.0,0.0,0.0,0.0,0.0,0.0,2.0,0.0,0.0,0.0,0.0
0021400374,1610612751,BKN,Brooklyn,202721,Darius Morris,,,2:56,104.2,114.3,-10.1,1.0,0.0,100.0,0.0,0.0,0.0,0.0,0.0,0.0,0.0,104.16,0.111,2014-12-17T00:00:00,6,1610612761,TOR,Toronto,20-6,22,31,23,29,0,0,0,0,0,0,0,0,0,0,105,0.513,0.684,0.5,24,42,9,0021400374,1610612751,BKN,Brooklyn,Darius Morris,,,2:56,0.0,0.0,0.0,0.0,0.0,0.0,0.0,2.0,0.0,0.0,0.0,0.0
0021400374,1610612751,BKN,Brooklyn,203900,Markel Brown,,,1:22,106.4,100.0,6.4,0.0,0.0,0.0,0.0,0.0,0.0,0.0,0.0,0.0,0.0,85.7,0.0,2014-12-17T00:00:00,6,1610612751,BKN,Brooklyn,10-14,30,22,21,16,0,0,0,0,0,0,0,0,0,0,89,0.432,0.455,0.333,20,43,13,0021400374,1610612751,BKN,Brooklyn,Markel Brown,,,1:22,0.0,0.0,0.0,0.0,0.0,0.0,0.0,0.0,0.0,0.0,0.0,0.0
0021400374,1610612751,BKN,Brooklyn,203900,Markel Brown,,,1:22,106.4,100.0,6.4,0.0,0.0,0.0,0.0,0.0,0.0,0.0,0.0,0.0,0.0,85.7,0.0,2014-12-17T00:00:00,6,1610612761,TOR,Toronto,20-6,22,31,23,29,0,0,0,0,0,0,0,0,0,0,105,0.513,0.684,0.5,24,42,9,0021400374,1610612751,BKN,Brooklyn,Markel Brown,,,1:22,0.0,0.0,0.0,0.0,0.0,0.0,0.0,0.0,0.0,0.0,0.0,0.0
0021400374,1610612751,BKN,Brooklyn,203508,Sergey Karasev,,DND - Strained Left Oblique             ,,,,,,,0.0,,,,,,,0.0,,,2014-12-17T00:00:00,6,1610612751,BKN,Brooklyn,10-14,30,22,21,16,0,0,0,0,0,0,0,0,0,0,89,0.432,0.455,0.333,20,43,13,0021400374,1610612751,BKN,Brooklyn,Sergey Karasev,,DND - Strained Left Oblique             ,,,,,,,,,,,,,
0021400374,1610612751,BKN,Brooklyn,203508,Sergey Karasev,,DND - Strained Left Oblique             ,,,,,,,0.0,,,,,,,0.0,,,2014-12-17T00:00:00,6,1610612761,TOR,Toronto,20-6,22,31,23,29,0,0,0,0,0,0,0,0,0,0,105,0.513,0.684,0.5,24,42,9,0021400374,1610612751,BKN,Brooklyn,Sergey Karasev,,DND - Strained Left Oblique             ,,,,,,,,,,,,,
0021400374,1610612761,TOR,Toronto,203082,Terrence Ross,F,,22:11,123.4,105.2,18.1,0.0,0.0,0.0,0.0,0.048,0.025,16.1,0.4,0.431,0.261,89.23,-0.012,2014-12-17T00:00:00,6,1610612751,BKN,Brooklyn,10-14,30,22,21,16,0,0,0,0,0,0,0,0,0,0,89,0.432,0.455,0.333,20,43,13,0021400374,1610612761,TOR,Toronto,Terrence Ross,F,,22:11,0.0,0.0,3.0,2.0,15.0,11.0,4.0,24.0,0.0,0.0,2.0,1.0
0021400374,1610612761,TOR,Toronto,203082,Terrence Ross,F,,22:11,123.4,105.2,18.1,0.0,0.0,0.0,0.0,0.048,0.025,16.1,0.4,0.431,0.261,89.23,-0.012,2014-12-17T00:00:00,6,1610612761,TOR,Toronto,20-6,22,31,23,29,0,0,0,0,0,0,0,0,0,0,105,0.513,0.684,0.5,24,42,9,0021400374,1610612761,TOR,Toronto,Terrence Ross,F,,22:11,0.0,0.0,3.0,2.0,15.0,11.0,4.0,24.0,0.0,0.0,2.0,1.0
0021400374,1610612761,TOR,Toronto,101161,Amir Johnson,F,,31:16,130.5,97.2,33.3,0.042,0.0,8.6,0.185,0.133,0.158,0.0,0.625,0.611,0.16,91.5,0.078,2014-12-17T00:00:00,6,1610612751,BKN,Brooklyn,10-14,30,22,21,16,0,0,0,0,0,0,0,0,0,0,89,0.432,0.455,0.333,20,43,13,0021400374,1610612761,TOR,Toronto,Amir Johnson,F,,31:16,4.0,5.0,0.0,10.0,15.0,11.0,4.0,32.0,1.0,2.0,6.0,4.0
0021400374,1610612761,TOR,Toronto,101161,Amir Johnson,F,,31:16,130.5,97.2,33.3,0.042,0.0,8.6,0.185,0.133,0.158,0.0,0.625,0.611,0.16,91.5,0.078,2014-12-17T00:00:00,6,1610612761,TOR,Toronto,20-6,22,31,23,29,0,0,0,0,0,0,0,0,0,0,105,0.513,0.684,0.5,24,42,9,0021400374,1610612761,TOR,Toronto,Amir Johnson,F,,31:16,4.0,5.0,0.0,10.0,15.0,11.0,4.0,32.0,1.0,2.0,6.0,4.0
0021400374,1610612761,TOR,Toronto,202685,Jonas Valanciunas,C,,27:30,125.3,104.6,20.7,0.059,0.5,8.5,0.136,0.28,0.213,17.0,0.857,0.913,0.187,88.25,0.224,2014-12-17T00:00:00,6,1610612751,BKN,Brooklyn,10-14,30,22,21,16,0,0,0,0,0,0,0,0,0,0,89,0.432,0.455,0.333,20,43,13,0021400374,1610612761,TOR,Toronto,Jonas Valanciunas,C,,27:30,0.0,4.0,0.0,12.0,15.0,11.0,4.0,32.0,1.0,1.0,0.0,2.0
0021400374,1610612761,TOR,Toronto,202685,Jonas Valanciunas,C,,27:30,125.3,104.6,20.7,0.059,0.5,8.5,0.136,0.28,0.213,17.0,0.857,0.913,0.187,88.25,0.224,2014-12-17T00:00:00,6,1610612761,TOR,Toronto,20-6,22,31,23,29,0,0,0,0,0,0,0,0,0,0,105,0.513,0.684,0.5,24,42,9,0021400374,1610612761,TOR,Toronto,Jonas Valanciunas,C,,27:30,0.0,4.0,0.0,12.0,15.0,11.0,4.0,32.0,1.0,1.0,0.0,2.0
0021400374,1610612761,TOR,Toronto,202361,Landry Fields,G,,20:51,103.4,124.5,-21.0,0.154,0.0,33.3,0.059,0.125,0.091,0.0,0.75,0.75,0.092,89.11,0.117,2014-12-17T00:00:00,6,1610612751,BKN,Brooklyn,10-14,30,22,21,16,0,0,0,0,0,0,0,0,0,0,89,0.432,0.455,0.333,20,43,13,0021400374,1610612761,TOR,Toronto,Landry Fields,G,,20:51,2.0,0.0,4.0,4.0,15.0,5.0,4.0,26.0,0.0,0.0,1.0,0.0
0021400374,1610612761,TOR,Toronto,202361,Landry Fields,G,,20:51,103.4,124.5,-21.0,0.154,0.0,33.3,0.059,0.125,0.091,0.0,0.75,0.75,0.092,89.11,0.117,2014-12-17T00:00:00,6,1610612761,TOR,Toronto,20-6,22,31,23,29,0,0,0,0,0,0,0,0,0,0,105,0.513,0.684,0.5,24,42,9,0021400374,1610612761,TOR,Toronto,Landry Fields,G,,20:51,2.0,0.0,4.0,4.0,15.0,5.0,4.0,26.0,0.0,0.0,1.0,0.0
0021400374,1610612761,TOR,Toronto,200768,Kyle Lowry,G,,31:38,129.9,111.5,18.4,0.522,6.0,41.7,0.0,0.111,0.061,7.0,0.615,0.678,0.262,87.44,0.189,2014-12-17T00:00:00,6,1610612751,BKN,Brooklyn,10-14,30,22,21,16,0,0,0,0,0,0,0,0,0,0,89,0.432,0.455,0.333,20,43,13,0021400374,1610612761,TOR,Toronto,Kyle Lowry,G,,31:38,2.0,2.0,2.0,10.0,17.0,11.0,4.0,34.0,0.0,1.0,4.0,3.0
0021400374,1610612761,TOR,Toronto,200768,Kyle Lowry,G,,31:38,129.9,111.5,18.4,0.522,6.0,41.7,0.0,0.111,0.061,7.0,0.615,0.678,0.262,87.44,0.189,2014-12-17T00:00:00,6,1610612761,TOR,Toronto,20-6,22,31,23,29,0,0,0,0,0,0,0,0,0,0,105,0.513,0.684,0.5,24,42,9,0021400374,1610612761,TOR,Toronto,Kyle Lowry,G,,31:38,2.0,2.0,2.0,10.0,17.0,11.0,4.0,34.0,0.0,1.0,4.0,3.0
0021400374,1610612761,TOR,Toronto,202335,Patrick Patterson,,,25:12,113.1,87.6,25.4,0.059,0.0,9.1,0.0,0.087,0.047,0.0,0.65,0.65,0.197,91.12,0.118,2014-12-17T00:00:00,6,1610612751,BKN,Brooklyn,10-14,30,22,21,16,0,0,0,0,0,0,0,0,0,0,89,0.432,0.455,0.333,20,43,13,0021400374,1610612761,TOR,Toronto,Patrick Patterson,,,25:12,2.0,0.0,3.0,2.0,4.0,3.0,0.0,18.0,1.0,0.0,3.0,1.0
0021400374,1610612761,TOR,Toronto,202335,Patrick Patterson,,,25:12,113.1,87.6,25.4,0.059,0.0,9.1,0.0,0.087,0.047,0.0,0.65,0.65,0.197,91.12,0.118,2014-12-17T00:00:00,6,1610612761,TOR,Toronto,20-6,22,31,23,29,0,0,0,0,0,0,0,0,0,0,105,0.513,0.684,0.5,24,42,9,0021400374,1610612761,TOR,Toronto,Patrick Patterson,,,25:12,2.0,0.0,3.0,2.0,4.0,3.0,0.0,18.0,1.0,0.0,3.0,1.0
0021400374,1610612761,TOR,Toronto,101150,Lou Williams,,,25:22,119.2,89.9,29.3,0.053,0.0,9.1,0.0,0.0,0.0,0.0,0.5,0.5,0.197,92.3,0.075,2014-12-17T00:00:00,6,1610612751,BKN,Brooklyn,10-14,30,22,21,16,0,0,0,0,0,0,0,0,0,0,89,0.432,0.455,0.333,20,43,13,0021400374,1610612761,TOR,Toronto,Lou Williams,,,25:22,2.0,0.0,2.0,2.0,4.0,3.0,0.0,20.0,0.0,1.0,0.0,2.0
0021400374,1610612761,TOR,Toronto,101150,Lou Williams,,,25:22,119.2,89.9,29.3,0.053,0.0,9.1,0.0,0.0,0.0,0.0,0.5,0.5,0.197,92.3,0.075,2014-12-17T00:00:00,6,1610612761,TOR,Toronto,20-6,22,31,23,29,0,0,0,0,0,0,0,0,0,0,105,0.513,0.684,0.5,24,42,9,0021400374,1610612761,TOR,Toronto,Lou Williams,,,25:22,2.0,0.0,2.0,2.0,4.0,3.0,0.0,20.0,0.0,1.0,0.0,2.0
0021400374,1610612761,TOR,Toronto,201946,Tyler Hansbrough,,,10:40,76.2,99.0,-22.8,0.0,0.0,0.0,0.1,0.182,0.143,0.0,0.0,0.0,0.136,92.7,-0.1,2014-12-17T00:00:00,6,1610612751,BKN,Brooklyn,10-14,30,22,21,16,0,0,0,0,0,0,0,0,0,0,89,0.432,0.455,0.333,20,43,13,0021400374,1610612761,TOR,Toronto,Tyler Hansbrough,,,10:40,0.0,0.0,0.0,0.0,4.0,3.0,0.0,6.0,0.0,1.0,2.0,1.0
0021400374,1610612761,TOR,Toronto,201946,Tyler Hansbrough,,,10:40,76.2,99.0,-22.8,0.0,0.0,0.0,0.1,0.182,0.143,0.0,0.0,0.0,0.136,92.7,-0.1,2014-12-17T00:00:00,6,1610612761,TOR,Toronto,20-6,22,31,23,29,0,0,0,0,0,0,0,0,0,0,105,0.513,0.684,0.5,24,42,9,0021400374,1610612761,TOR,Toronto,Tyler Hansbrough,,,10:40,0.0,0.0,0.0,0.0,4.0,3.0,0.0,6.0,0.0,1.0,2.0,1.0
0021400374,1610612761,TOR,Toronto,202349,Greivis Vasquez,,,16:22,95.7,71.9,23.8,0.6,3.0,20.0,0.0,0.167,0.083,6.7,0.591,0.591,0.33,96.47,0.528,2014-12-17T00:00:00,6,1610612751,BKN,Brooklyn,10-14,30,22,21,16,0,0,0,0,0,0,0,0,0,0,89,0.432,0.455,0.333,20,43,13,0021400374,1610612761,TOR,Toronto,Greivis Vasquez,,,16:22,0.0,0.0,0.0,10.0,2.0,3.0,0.0,10.0,0.0,1.0,0.0,0.0
0021400374,1610612761,TOR,Toronto,202349,Greivis Vasquez,,,16:22,95.7,71.9,23.8,0.6,3.0,20.0,0.0,0.167,0.083,6.7,0.591,0.591,0.33,96.47,0.528,2014-12-17T00:00:00,6,1610612761,TOR,Toronto,20-6,22,31,23,29,0,0,0,0,0,0,0,0,0,0,105,0.513,0.684,0.5,24,42,9,0021400374,1610612761,TOR,Toronto,Greivis Vasquez,,,16:22,0.0,0.0,0.0,10.0,2.0,3.0,0.0,10.0,0.0,1.0,0.0,0.0
0021400374,1610612761,TOR,Toronto,201949,James Johnson,,,26:42,127.3,79.4,47.9,0.136,3.0,30.7,0.0,0.207,0.115,10.2,0.5,0.434,0.121,91.35,0.096,2014-12-17T00:00:00,6,1610612751,BKN,Brooklyn,10-14,30,22,21,16,0,0,0,0,0,0,0,0,0,0,89,0.432,0.455,0.333,20,43,13,0021400374,1610612761,TOR,Toronto,James Johnson,,,26:42,0.0,0.0,0.0,4.0,4.0,9.0,0.0,18.0,1.0,1.0,2.0,2.0
0021400374,1610612761,TOR,Toronto,201949,James Johnson,,,26:42,127.3,79.4,47.9,0.136,3.0,30.7,0.0,0.207,0.115,10.2,0.5,0.434,0.121,91.35,0.096,2014-12-17T00:00:00,6,1610612761,TOR,Toronto,20-6,22,31,23,29,0,0,0,0,0,0,0,0,0,0,105,0.513,0.684,0.5,24,42,9,0021400374,1610612761,TOR,Toronto,James Johnson,,,26:42,0.0,0.0,0.0,4.0,4.0,9.0,0.0,18.0,1.0,1.0,2.0,2.0
0021400374,1610612761,TOR,Toronto,201880,Greg Stiemsma,,,1:22,100.0,106.4,-6.4,0.0,0.0,0.0,1.0,1.0,1.0,100.0,0.0,0.0,0.25,85.7,-0.2,2014-12-17T00:00:00,6,1610612751,BKN,Brooklyn,10-14,30,22,21,16,0,0,0,0,0,0,0,0,0,0,89,0.432,0.455,0.333,20,43,13,0021400374,1610612761,TOR,Toronto,Greg Stiemsma,,,1:22,0.0,0.0,0.0,0.0,0.0,0.0,0.0,0.0,0.0,0.0,1.0,0.0
0021400374,1610612761,TOR,Toronto,201880,Greg Stiemsma,,,1:22,100.0,106.4,-6.4,0.0,0.0,0.0,1.0,1.0,1.0,100.0,0.0,0.0,0.25,85.7,-0.2,2014-12-17T00:00:00,6,1610612761,TOR,Toronto,20-6,22,31,23,29,0,0,0,0,0,0,0,0,0,0,105,0.513,0.684,0.5,24,42,9,0021400374,1610612761,TOR,Toronto,Greg Stiemsma,,,1:22,0.0,0.0,0.0,0.0,0.0,0.0,0.0,0.0,0.0,0.0,1.0,0.0
0021400374,1610612761,TOR,Toronto,203998,Bruno Caboclo,,,0:54,0.0,0.0,0.0,0.0,0.0,0.0,0.0,0.0,0.0,0.0,0.0,0.0,0.0,80.0,0.0,2014-12-17T00:00:00,6,1610612751,BKN,Brooklyn,10-14,30,22,21,16,0,0,0,0,0,0,0,0,0,0,89,0.432,0.455,0.333,20,43,13,0021400374,1610612761,TOR,Toronto,Bruno Caboclo,,,0:54,0.0,0.0,0.0,0.0,0.0,0.0,0.0,0.0,0.0,0.0,0.0,0.0
0021400374,1610612761,TOR,Toronto,203998,Bruno Caboclo,,,0:54,0.0,0.0,0.0,0.0,0.0,0.0,0.0,0.0,0.0,0.0,0.0,0.0,0.0,80.0,0.0,2014-12-17T00:00:00,6,1610612761,TOR,Toronto,20-6,22,31,23,29,0,0,0,0,0,0,0,0,0,0,105,0.513,0.684,0.5,24,42,9,0021400374,1610612761,TOR,Toronto,Bruno Caboclo,,,0:54,0.0,0.0,0.0,0.0,0.0,0.0,0.0,0.0,0.0,0.0,0.0,0.0
0021400374,1610612761,TOR,Toronto,101236,Chuck Hayes,,DNP - Coach's Decision                  ,,,,,,,0.0,,,,,,,0.0,,,2014-12-17T00:00:00,6,1610612751,BKN,Brooklyn,10-14,30,22,21,16,0,0,0,0,0,0,0,0,0,0,89,0.432,0.455,0.333,20,43,13,0021400374,1610612761,TOR,Toronto,Chuck Hayes,,DNP - Coach's Decision                  ,,,,,,,,,,,,,
0021400374,1610612761,TOR,Toronto,101236,Chuck Hayes,,DNP - Coach's Decision                  ,,,,,,,0.0,,,,,,,0.0,,,2014-12-17T00:00:00,6,1610612761,TOR,Toronto,20-6,22,31,23,29,0,0,0,0,0,0,0,0,0,0,105,0.513,0.684,0.5,24,42,9,0021400374,1610612761,TOR,Toronto,Chuck Hayes,,DNP - Coach's Decision                  ,,,,,,,,,,,,,
