GAME_ID_x,TEAM_ID_x,TEAM_ABBREVIATION_x,TEAM_CITY_x,PLAYER_ID,PLAYER_NAME_x,START_POSITION_x,COMMENT_x,MIN_x,OFF_RATING,DEF_RATING,NET_RATING,AST_PCT,AST_TOV,AST_RATIO,OREB_PCT,DREB_PCT,REB_PCT,TM_TOV_PCT,EFG_PCT,TS_PCT,USG_PCT,PACE,PIE,GAME_DATE_EST,GAME_SEQUENCE,TEAM_ID_y,TEAM_ABBREVIATION_y,TEAM_CITY_NAME,TEAM_WINS_LOSSES,PTS_QTR1,PTS_QTR2,PTS_QTR3,PTS_QTR4,PTS_OT1,PTS_OT2,PTS_OT3,PTS_OT4,PTS_OT5,PTS_OT6,PTS_OT7,PTS_OT8,PTS_OT9,PTS_OT10,PTS,FG_PCT,FT_PCT,FG3_PCT,AST,REB,TOV,GAME_ID_y,TEAM_ID,TEAM_ABBREVIATION,TEAM_CITY_y,PLAYER_NAME_y,START_POSITION_y,COMMENT_y,MIN_y,PTS_OFF_TOV,PTS_2ND_CHANCE,PTS_FB,PTS_PAINT,OPP_PTS_OFF_TOV,OPP_PTS_2ND_CHANCE,OPP_PTS_FB,OPP_PTS_PAINT,BLK,BLKA,PF,PFD
0021400391,1610612746,LAC,Los Angeles,2440,Matt Barnes,F,,34:30,117.7,89.8,27.9,0.0,0.0,0.0,0.063,0.067,0.065,0.0,0.8,0.8,0.125,101.28,0.129,2014-12-19T00:00:00,9,1610612746,LAC,Los Angeles,18-8,20,23,31,32,0,0,0,0,0,0,0,0,0,0,106,0.459,0.758,0.167,21,39,11,0021400391,1610612746,LAC,Los Angeles,Matt Barnes,F,,34:30,6.0,2.0,6.0,16.0,10.0,9.0,4.0,24.0,2.0,0.0,4.0,1.0
0021400391,1610612746,LAC,Los Angeles,2440,Matt Barnes,F,,34:30,117.7,89.8,27.9,0.0,0.0,0.0,0.063,0.067,0.065,0.0,0.8,0.8,0.125,101.28,0.129,2014-12-19T00:00:00,9,1610612743,DEN,Denver,11-15,29,30,12,38,0,0,0,0,0,0,0,0,0,0,109,0.475,0.733,0.379,30,40,21,0021400391,1610612746,LAC,Los Angeles,Matt Barnes,F,,34:30,6.0,2.0,6.0,16.0,10.0,9.0,4.0,24.0,2.0,0.0,4.0,1.0
0021400391,1610612746,LAC,Los Angeles,201933,Blake Griffin,F,,40:52,122.4,92.7,29.7,0.107,0.0,9.7,0.105,0.235,0.167,0.0,0.45,0.573,0.292,101.06,0.176,2014-12-19T00:00:00,9,1610612746,LAC,Los Angeles,18-8,20,23,31,32,0,0,0,0,0,0,0,0,0,0,106,0.459,0.758,0.167,21,39,11,0021400391,1610612746,LAC,Los Angeles,Blake Griffin,F,,40:52,7.0,3.0,0.0,6.0,10.0,9.0,4.0,30.0,0.0,0.0,5.0,9.0
0021400391,1610612746,LAC,Los Angeles,201933,Blake Griffin,F,,40:52,122.4,92.7,29.7,0.107,0.0,9.7,0.105,0.235,0.167,0.0,0.45,0.573,0.292,101.06,0.176,2014-12-19T00:00:00,9,1610612743,DEN,Denver,11-15,29,30,12,38,0,0,0,0,0,0,0,0,0,0,109,0.475,0.733,0.379,30,40,21,0021400391,1610612746,LAC,Los Angeles,Blake Griffin,F,,40:52,7.0,3.0,0.0,6.0,10.0,9.0,4.0,30.0,0.0,0.0,5.0,9.0
0021400391,1610612746,LAC,Los Angeles,201599,DeAndre Jordan,C,,42:33,108.0,103.7,4.4,0.0,0.0,0.0,0.114,0.323,0.212,16.6,0.571,0.546,0.127,101.84,0.08,2014-12-19T00:00:00,9,1610612746,LAC,Los Angeles,18-8,20,23,31,32,0,0,0,0,0,0,0,0,0,0,106,0.459,0.758,0.167,21,39,11,0021400391,1610612746,LAC,Los Angeles,DeAndre Jordan,C,,42:33,0.0,4.0,0.0,8.0,16.0,9.0,9.0,36.0,2.0,0.0,5.0,5.0
0021400391,1610612746,LAC,Los Angeles,201599,DeAndre Jordan,C,,42:33,108.0,103.7,4.4,0.0,0.0,0.0,0.114,0.323,0.212,16.6,0.571,0.546,0.127,101.84,0.08,2014-12-19T00:00:00,9,1610612743,DEN,Denver,11-15,29,30,12,38,0,0,0,0,0,0,0,0,0,0,109,0.475,0.733,0.379,30,40,21,0021400391,1610612746,LAC,Los Angeles,DeAndre Jordan,C,,42:33,0.0,4.0,0.0,8.0,16.0,9.0,9.0,36.0,2.0,0.0,5.0,5.0
0021400391,1610612746,LAC,Los Angeles,200755,JJ Redick,G,,25:09,112.9,81.7,31.1,0.091,1.0,15.0,0.0,0.095,0.043,15.0,0.313,0.429,0.18,107.6,0.035,2014-12-19T00:00:00,9,1610612746,LAC,Los Angeles,18-8,20,23,31,32,0,0,0,0,0,0,0,0,0,0,106,0.459,0.758,0.167,21,39,11,0021400391,1610612746,LAC,Los Angeles,JJ Redick,G,,25:09,0.0,0.0,0.0,0.0,7.0,6.0,6.0,18.0,0.0,0.0,1.0,1.0
0021400391,1610612746,LAC,Los Angeles,200755,JJ Redick,G,,25:09,112.9,81.7,31.1,0.091,1.0,15.0,0.0,0.095,0.043,15.0,0.313,0.429,0.18,107.6,0.035,2014-12-19T00:00:00,9,1610612743,DEN,Denver,11-15,29,30,12,38,0,0,0,0,0,0,0,0,0,0,109,0.475,0.733,0.379,30,40,21,0021400391,1610612746,LAC,Los Angeles,JJ Redick,G,,25:09,0.0,0.0,0.0,0.0,7.0,6.0,6.0,18.0,0.0,0.0,1.0,1.0
0021400391,1610612746,LAC,Los Angeles,101108,Chris Paul,G,,38:50,125.7,100.0,25.7,0.517,3.75,41.7,0.091,0.067,0.079,11.1,0.5,0.5,0.234,101.82,0.153,2014-12-19T00:00:00,9,1610612746,LAC,Los Angeles,18-8,20,23,31,32,0,0,0,0,0,0,0,0,0,0,106,0.459,0.758,0.167,21,39,11,0021400391,1610612746,LAC,Los Angeles,Chris Paul,G,,38:50,4.0,2.0,0.0,6.0,12.0,9.0,6.0,30.0,0.0,0.0,2.0,5.0
0021400391,1610612746,LAC,Los Angeles,101108,Chris Paul,G,,38:50,125.7,100.0,25.7,0.517,3.75,41.7,0.091,0.067,0.079,11.1,0.5,0.5,0.234,101.82,0.153,2014-12-19T00:00:00,9,1610612743,DEN,Denver,11-15,29,30,12,38,0,0,0,0,0,0,0,0,0,0,109,0.475,0.733,0.379,30,40,21,0021400391,1610612746,LAC,Los Angeles,Chris Paul,G,,38:50,4.0,2.0,0.0,6.0,12.0,9.0,6.0,30.0,0.0,0.0,2.0,5.0
0021400391,1610612746,LAC,Los Angeles,2037,Jamal Crawford,,,26:16,114.4,135.0,-20.6,0.0,0.0,0.0,0.0,0.0,0.0,10.4,0.5,0.581,0.323,98.69,0.074,2014-12-19T00:00:00,9,1610612746,LAC,Los Angeles,18-8,20,23,31,32,0,0,0,0,0,0,0,0,0,0,106,0.459,0.758,0.167,21,39,11,0021400391,1610612746,LAC,Los Angeles,Jamal Crawford,,,26:16,4.0,0.0,0.0,6.0,15.0,3.0,5.0,26.0,0.0,0.0,3.0,3.0
0021400391,1610612746,LAC,Los Angeles,2037,Jamal Crawford,,,26:16,114.4,135.0,-20.6,0.0,0.0,0.0,0.0,0.0,0.0,10.4,0.5,0.581,0.323,98.69,0.074,2014-12-19T00:00:00,9,1610612743,DEN,Denver,11-15,29,30,12,38,0,0,0,0,0,0,0,0,0,0,109,0.475,0.733,0.379,30,40,21,0021400391,1610612746,LAC,Los Angeles,Jamal Crawford,,,26:16,4.0,0.0,0.0,6.0,15.0,3.0,5.0,26.0,0.0,0.0,3.0,3.0
0021400391,1610612746,LAC,Los Angeles,201175,Glen Davis,,,10:42,50.8,135.9,-85.0,0.333,1.0,50.0,0.0,0.2,0.059,50.0,0.0,0.0,0.042,98.06,0.095,2014-12-19T00:00:00,9,1610612746,LAC,Los Angeles,18-8,20,23,31,32,0,0,0,0,0,0,0,0,0,0,106,0.459,0.758,0.167,21,39,11,0021400391,1610612746,LAC,Los Angeles,Glen Davis,,,10:42,0.0,0.0,0.0,0.0,6.0,0.0,3.0,12.0,0.0,0.0,1.0,0.0
0021400391,1610612746,LAC,Los Angeles,201175,Glen Davis,,,10:42,50.8,135.9,-85.0,0.333,1.0,50.0,0.0,0.2,0.059,50.0,0.0,0.0,0.042,98.06,0.095,2014-12-19T00:00:00,9,1610612743,DEN,Denver,11-15,29,30,12,38,0,0,0,0,0,0,0,0,0,0,109,0.475,0.733,0.379,30,40,21,0021400391,1610612746,LAC,Los Angeles,Glen Davis,,,10:42,0.0,0.0,0.0,0.0,6.0,0.0,3.0,12.0,0.0,0.0,1.0,0.0
0021400391,1610612746,LAC,Los Angeles,201604,Chris Douglas-Roberts,,,10:46,60.1,132.1,-72.0,0.0,0.0,0.0,0.0,0.2,0.063,0.0,0.333,0.333,0.127,95.51,0.062,2014-12-19T00:00:00,9,1610612746,LAC,Los Angeles,18-8,20,23,31,32,0,0,0,0,0,0,0,0,0,0,106,0.459,0.758,0.167,21,39,11,0021400391,1610612746,LAC,Los Angeles,Chris Douglas-Roberts,,,10:46,2.0,0.0,2.0,2.0,6.0,0.0,3.0,12.0,0.0,1.0,0.0,0.0
0021400391,1610612746,LAC,Los Angeles,201604,Chris Douglas-Roberts,,,10:46,60.1,132.1,-72.0,0.0,0.0,0.0,0.0,0.2,0.063,0.0,0.333,0.333,0.127,95.51,0.062,2014-12-19T00:00:00,9,1610612743,DEN,Denver,11-15,29,30,12,38,0,0,0,0,0,0,0,0,0,0,109,0.475,0.733,0.379,30,40,21,0021400391,1610612746,LAC,Los Angeles,Chris Douglas-Roberts,,,10:46,2.0,0.0,2.0,2.0,6.0,0.0,3.0,12.0,0.0,1.0,0.0,0.0
0021400391,1610612746,LAC,Los Angeles,200770,Jordan Farmar,,,9:10,37.3,119.8,-82.5,0.0,0.0,0.0,0.0,0.0,0.0,0.0,0.0,0.0,0.241,99.4,-0.293,2014-12-19T00:00:00,9,1610612746,LAC,Los Angeles,18-8,20,23,31,32,0,0,0,0,0,0,0,0,0,0,106,0.459,0.758,0.167,21,39,11,0021400391,1610612746,LAC,Los Angeles,Jordan Farmar,,,9:10,0.0,0.0,0.0,0.0,6.0,0.0,3.0,10.0,0.0,0.0,1.0,0.0
0021400391,1610612746,LAC,Los Angeles,200770,Jordan Farmar,,,9:10,37.3,119.8,-82.5,0.0,0.0,0.0,0.0,0.0,0.0,0.0,0.0,0.0,0.241,99.4,-0.293,2014-12-19T00:00:00,9,1610612743,DEN,Denver,11-15,29,30,12,38,0,0,0,0,0,0,0,0,0,0,109,0.475,0.733,0.379,30,40,21,0021400391,1610612746,LAC,Los Angeles,Jordan Farmar,,,9:10,0.0,0.0,0.0,0.0,6.0,0.0,3.0,10.0,0.0,0.0,1.0,0.0
0021400391,1610612746,LAC,Los Angeles,2045,Hedo Turkoglu,,,1:12,150.0,180.7,-30.7,0.0,0.0,0.0,0.0,0.0,0.0,0.0,0.0,0.0,0.0,106.4,0.0,2014-12-19T00:00:00,9,1610612746,LAC,Los Angeles,18-8,20,23,31,32,0,0,0,0,0,0,0,0,0,0,106,0.459,0.758,0.167,21,39,11,0021400391,1610612746,LAC,Los Angeles,Hedo Turkoglu,,,1:12,0.0,0.0,0.0,0.0,2.0,0.0,2.0,2.0,0.0,0.0,0.0,0.0
0021400391,1610612746,LAC,Los Angeles,2045,Hedo Turkoglu,,,1:12,150.0,180.7,-30.7,0.0,0.0,0.0,0.0,0.0,0.0,0.0,0.0,0.0,0.0,106.4,0.0,2014-12-19T00:00:00,9,1610612743,DEN,Denver,11-15,29,30,12,38,0,0,0,0,0,0,0,0,0,0,109,0.475,0.733,0.379,30,40,21,0021400391,1610612746,LAC,Los Angeles,Hedo Turkoglu,,,1:12,0.0,0.0,0.0,0.0,2.0,0.0,2.0,2.0,0.0,0.0,0.0,0.0
0021400391,1610612746,LAC,Los Angeles,203493,Reggie Bullock,,DNP - Coach's Decision                  ,,,,,,,0.0,,,,,,,0.0,,,2014-12-19T00:00:00,9,1610612746,LAC,Los Angeles,18-8,20,23,31,32,0,0,0,0,0,0,0,0,0,0,106,0.459,0.758,0.167,21,39,11,0021400391,1610612746,LAC,Los Angeles,Reggie Bullock,,DNP - Coach's Decision                  ,,,,,,,,,,,,,
0021400391,1610612746,LAC,Los Angeles,203493,Reggie Bullock,,DNP - Coach's Decision                  ,,,,,,,0.0,,,,,,,0.0,,,2014-12-19T00:00:00,9,1610612743,DEN,Denver,11-15,29,30,12,38,0,0,0,0,0,0,0,0,0,0,109,0.475,0.733,0.379,30,40,21,0021400391,1610612746,LAC,Los Angeles,Reggie Bullock,,DNP - Coach's Decision                  ,,,,,,,,,,,,,
0021400391,1610612746,LAC,Los Angeles,203099,Jared Cunningham,,DNP - Coach's Decision                  ,,,,,,,0.0,,,,,,,0.0,,,2014-12-19T00:00:00,9,1610612746,LAC,Los Angeles,18-8,20,23,31,32,0,0,0,0,0,0,0,0,0,0,106,0.459,0.758,0.167,21,39,11,0021400391,1610612746,LAC,Los Angeles,Jared Cunningham,,DNP - Coach's Decision                  ,,,,,,,,,,,,,
0021400391,1610612746,LAC,Los Angeles,203099,Jared Cunningham,,DNP - Coach's Decision                  ,,,,,,,0.0,,,,,,,0.0,,,2014-12-19T00:00:00,9,1610612743,DEN,Denver,11-15,29,30,12,38,0,0,0,0,0,0,0,0,0,0,109,0.475,0.733,0.379,30,40,21,0021400391,1610612746,LAC,Los Angeles,Jared Cunningham,,DNP - Coach's Decision                  ,,,,,,,,,,,,,
0021400391,1610612746,LAC,Los Angeles,202327,Ekpe Udoh,,DNP - Coach's Decision                  ,,,,,,,0.0,,,,,,,0.0,,,2014-12-19T00:00:00,9,1610612746,LAC,Los Angeles,18-8,20,23,31,32,0,0,0,0,0,0,0,0,0,0,106,0.459,0.758,0.167,21,39,11,0021400391,1610612746,LAC,Los Angeles,Ekpe Udoh,,DNP - Coach's Decision                  ,,,,,,,,,,,,,
0021400391,1610612746,LAC,Los Angeles,202327,Ekpe Udoh,,DNP - Coach's Decision                  ,,,,,,,0.0,,,,,,,0.0,,,2014-12-19T00:00:00,9,1610612743,DEN,Denver,11-15,29,30,12,38,0,0,0,0,0,0,0,0,0,0,109,0.475,0.733,0.379,30,40,21,0021400391,1610612746,LAC,Los Angeles,Ekpe Udoh,,DNP - Coach's Decision                  ,,,,,,,,,,,,,
0021400391,1610612743,DEN,Denver,201163,Wilson Chandler,F,,35:56,89.3,111.1,-21.8,0.105,0.5,8.7,0.061,0.091,0.076,17.5,0.438,0.474,0.239,102.22,0.024,2014-12-19T00:00:00,9,1610612746,LAC,Los Angeles,18-8,20,23,31,32,0,0,0,0,0,0,0,0,0,0,106,0.459,0.758,0.167,21,39,11,0021400391,1610612743,DEN,Denver,Wilson Chandler,F,,35:56,3.0,7.0,0.0,8.0,21.0,10.0,6.0,38.0,0.0,0.0,5.0,1.0
0021400391,1610612743,DEN,Denver,201163,Wilson Chandler,F,,35:56,89.3,111.1,-21.8,0.105,0.5,8.7,0.061,0.091,0.076,17.5,0.438,0.474,0.239,102.22,0.024,2014-12-19T00:00:00,9,1610612743,DEN,Denver,11-15,29,30,12,38,0,0,0,0,0,0,0,0,0,0,109,0.475,0.733,0.379,30,40,21,0021400391,1610612743,DEN,Denver,Wilson Chandler,F,,35:56,3.0,7.0,0.0,8.0,21.0,10.0,6.0,38.0,0.0,0.0,5.0,1.0
0021400391,1610612743,DEN,Denver,202702,Kenneth Faried,F,,28:17,113.5,99.2,14.3,0.105,0.5,12.3,0.063,0.231,0.167,24.5,0.667,0.678,0.218,102.06,0.101,2014-12-19T00:00:00,9,1610612746,LAC,Los Angeles,18-8,20,23,31,32,0,0,0,0,0,0,0,0,0,0,106,0.459,0.758,0.167,21,39,11,0021400391,1610612743,DEN,Denver,Kenneth Faried,F,,28:17,2.0,2.0,2.0,12.0,12.0,9.0,2.0,20.0,0.0,0.0,5.0,3.0
0021400391,1610612743,DEN,Denver,202702,Kenneth Faried,F,,28:17,113.5,99.2,14.3,0.105,0.5,12.3,0.063,0.231,0.167,24.5,0.667,0.678,0.218,102.06,0.101,2014-12-19T00:00:00,9,1610612743,DEN,Denver,11-15,29,30,12,38,0,0,0,0,0,0,0,0,0,0,109,0.475,0.733,0.379,30,40,21,0021400391,1610612743,DEN,Denver,Kenneth Faried,F,,28:17,2.0,2.0,2.0,12.0,12.0,9.0,2.0,20.0,0.0,0.0,5.0,3.0
0021400391,1610612743,DEN,Denver,202389,Timofey Mozgov,C,,25:09,104.8,104.7,0.1,0.059,1.0,9.6,0.0,0.32,0.174,9.6,0.813,0.77,0.154,101.99,0.159,2014-12-19T00:00:00,9,1610612746,LAC,Los Angeles,18-8,20,23,31,32,0,0,0,0,0,0,0,0,0,0,106,0.459,0.758,0.167,21,39,11,0021400391,1610612743,DEN,Denver,Timofey Mozgov,C,,25:09,0.0,0.0,2.0,6.0,8.0,8.0,2.0,30.0,0.0,0.0,2.0,3.0
0021400391,1610612743,DEN,Denver,202389,Timofey Mozgov,C,,25:09,104.8,104.7,0.1,0.059,1.0,9.6,0.0,0.32,0.174,9.6,0.813,0.77,0.154,101.99,0.159,2014-12-19T00:00:00,9,1610612743,DEN,Denver,11-15,29,30,12,38,0,0,0,0,0,0,0,0,0,0,109,0.475,0.733,0.379,30,40,21,0021400391,1610612743,DEN,Denver,Timofey Mozgov,C,,25:09,0.0,0.0,2.0,6.0,8.0,8.0,2.0,30.0,0.0,0.0,2.0,3.0
0021400391,1610612743,DEN,Denver,201167,Arron Afflalo,G,,32:29,95.2,118.5,-23.3,0.19,4.0,18.9,0.0,0.067,0.034,4.7,0.286,0.37,0.216,102.82,0.039,2014-12-19T00:00:00,9,1610612746,LAC,Los Angeles,18-8,20,23,31,32,0,0,0,0,0,0,0,0,0,0,106,0.459,0.758,0.167,21,39,11,0021400391,1610612743,DEN,Denver,Arron Afflalo,G,,32:29,0.0,0.0,0.0,2.0,17.0,10.0,6.0,40.0,0.0,3.0,2.0,2.0
0021400391,1610612743,DEN,Denver,201167,Arron Afflalo,G,,32:29,95.2,118.5,-23.3,0.19,4.0,18.9,0.0,0.067,0.034,4.7,0.286,0.37,0.216,102.82,0.039,2014-12-19T00:00:00,9,1610612743,DEN,Denver,11-15,29,30,12,38,0,0,0,0,0,0,0,0,0,0,109,0.475,0.733,0.379,30,40,21,0021400391,1610612743,DEN,Denver,Arron Afflalo,G,,32:29,0.0,0.0,0.0,2.0,17.0,10.0,6.0,40.0,0.0,3.0,2.0,2.0
0021400391,1610612743,DEN,Denver,201951,Ty Lawson,G,,37:25,103.5,115.8,-12.2,0.5,2.8,52.3,0.071,0.0,0.033,18.7,0.667,0.644,0.139,103.86,0.095,2014-12-19T00:00:00,9,1610612746,LAC,Los Angeles,18-8,20,23,31,32,0,0,0,0,0,0,0,0,0,0,106,0.459,0.758,0.167,21,39,11,0021400391,1610612743,DEN,Denver,Ty Lawson,G,,37:25,2.0,0.0,0.0,2.0,17.0,10.0,6.0,42.0,0.0,1.0,2.0,2.0
0021400391,1610612743,DEN,Denver,201951,Ty Lawson,G,,37:25,103.5,115.8,-12.2,0.5,2.8,52.3,0.071,0.0,0.033,18.7,0.667,0.644,0.139,103.86,0.095,2014-12-19T00:00:00,9,1610612743,DEN,Denver,11-15,29,30,12,38,0,0,0,0,0,0,0,0,0,0,109,0.475,0.733,0.379,30,40,21,0021400391,1610612743,DEN,Denver,Ty Lawson,G,,37:25,2.0,0.0,0.0,2.0,17.0,10.0,6.0,42.0,0.0,1.0,2.0,2.0
0021400391,1610612743,DEN,Denver,201581,JJ Hickson,,,14:39,72.0,114.0,-41.9,0.0,0.0,0.0,0.071,0.385,0.222,28.6,0.2,0.2,0.193,100.59,-0.01,2014-12-19T00:00:00,9,1610612746,LAC,Los Angeles,18-8,20,23,31,32,0,0,0,0,0,0,0,0,0,0,106,0.459,0.758,0.167,21,39,11,0021400391,1610612743,DEN,Denver,JJ Hickson,,,14:39,2.0,0.0,0.0,2.0,10.0,0.0,6.0,18.0,0.0,0.0,2.0,2.0
0021400391,1610612743,DEN,Denver,201581,JJ Hickson,,,14:39,72.0,114.0,-41.9,0.0,0.0,0.0,0.071,0.385,0.222,28.6,0.2,0.2,0.193,100.59,-0.01,2014-12-19T00:00:00,9,1610612743,DEN,Denver,11-15,29,30,12,38,0,0,0,0,0,0,0,0,0,0,109,0.475,0.733,0.379,30,40,21,0021400391,1610612743,DEN,Denver,JJ Hickson,,,14:39,2.0,0.0,0.0,2.0,10.0,0.0,6.0,18.0,0.0,0.0,2.0,2.0
0021400391,1610612743,DEN,Denver,201568,Danilo Gallinari,,,24:28,111.6,111.6,0.0,0.125,0.67,17.0,0.111,0.042,0.071,25.5,0.6,0.74,0.183,94.91,0.072,2014-12-19T00:00:00,9,1610612746,LAC,Los Angeles,18-8,20,23,31,32,0,0,0,0,0,0,0,0,0,0,106,0.459,0.758,0.167,21,39,11,0021400391,1610612743,DEN,Denver,Danilo Gallinari,,,24:28,3.0,0.0,0.0,0.0,13.0,3.0,8.0,20.0,1.0,0.0,2.0,4.0
0021400391,1610612743,DEN,Denver,201568,Danilo Gallinari,,,24:28,111.6,111.6,0.0,0.125,0.67,17.0,0.111,0.042,0.071,25.5,0.6,0.74,0.183,94.91,0.072,2014-12-19T00:00:00,9,1610612743,DEN,Denver,11-15,29,30,12,38,0,0,0,0,0,0,0,0,0,0,109,0.475,0.733,0.379,30,40,21,0021400391,1610612743,DEN,Denver,Danilo Gallinari,,,24:28,3.0,0.0,0.0,0.0,13.0,3.0,8.0,20.0,1.0,0.0,2.0,4.0
0021400391,1610612743,DEN,Denver,101126,Nate Robinson,,,15:44,122.2,90.5,31.8,0.429,3.0,16.6,0.143,0.235,0.208,5.5,0.727,0.71,0.434,95.47,0.394,2014-12-19T00:00:00,9,1610612746,LAC,Los Angeles,18-8,20,23,31,32,0,0,0,0,0,0,0,0,0,0,106,0.459,0.758,0.167,21,39,11,0021400391,1610612743,DEN,Denver,Nate Robinson,,,15:44,0.0,0.0,3.0,2.0,6.0,1.0,2.0,4.0,0.0,0.0,1.0,1.0
0021400391,1610612743,DEN,Denver,101126,Nate Robinson,,,15:44,122.2,90.5,31.8,0.429,3.0,16.6,0.143,0.235,0.208,5.5,0.727,0.71,0.434,95.47,0.394,2014-12-19T00:00:00,9,1610612743,DEN,Denver,11-15,29,30,12,38,0,0,0,0,0,0,0,0,0,0,109,0.475,0.733,0.379,30,40,21,0021400391,1610612743,DEN,Denver,Nate Robinson,,,15:44,0.0,0.0,3.0,2.0,6.0,1.0,2.0,4.0,0.0,0.0,1.0,1.0
0021400391,1610612743,DEN,Denver,203994,Jusuf Nurkic,,,17:10,119.3,100.8,18.5,0.1,0.0,20.5,0.0,0.143,0.091,0.0,1.0,1.031,0.099,98.97,0.162,2014-12-19T00:00:00,9,1610612746,LAC,Los Angeles,18-8,20,23,31,32,0,0,0,0,0,0,0,0,0,0,106,0.459,0.758,0.167,21,39,11,0021400391,1610612743,DEN,Denver,Jusuf Nurkic,,,17:10,2.0,0.0,0.0,4.0,10.0,3.0,2.0,4.0,0.0,0.0,3.0,3.0
0021400391,1610612743,DEN,Denver,203994,Jusuf Nurkic,,,17:10,119.3,100.8,18.5,0.1,0.0,20.5,0.0,0.143,0.091,0.0,1.0,1.031,0.099,98.97,0.162,2014-12-19T00:00:00,9,1610612743,DEN,Denver,11-15,29,30,12,38,0,0,0,0,0,0,0,0,0,0,109,0.475,0.733,0.379,30,40,21,0021400391,1610612743,DEN,Denver,Jusuf Nurkic,,,17:10,2.0,0.0,0.0,4.0,10.0,3.0,2.0,4.0,0.0,0.0,3.0,3.0
0021400391,1610612743,DEN,Denver,202087,Alonzo Gee,,,8:44,128.9,104.4,24.5,0.143,0.0,20.5,0.0,0.0,0.0,0.0,0.333,0.515,0.179,112.26,0.145,2014-12-19T00:00:00,9,1610612746,LAC,Los Angeles,18-8,20,23,31,32,0,0,0,0,0,0,0,0,0,0,106,0.459,0.758,0.167,21,39,11,0021400391,1610612743,DEN,Denver,Alonzo Gee,,,8:44,4.0,0.0,2.0,2.0,1.0,1.0,0.0,4.0,0.0,0.0,0.0,1.0
0021400391,1610612743,DEN,Denver,202087,Alonzo Gee,,,8:44,128.9,104.4,24.5,0.143,0.0,20.5,0.0,0.0,0.0,0.0,0.333,0.515,0.179,112.26,0.145,2014-12-19T00:00:00,9,1610612743,DEN,Denver,11-15,29,30,12,38,0,0,0,0,0,0,0,0,0,0,109,0.475,0.733,0.379,30,40,21,0021400391,1610612743,DEN,Denver,Alonzo Gee,,,8:44,4.0,0.0,2.0,2.0,1.0,1.0,0.0,4.0,0.0,0.0,0.0,1.0
0021400391,1610612743,DEN,Denver,201589,Darrell Arthur,,DNP - Coach's Decision                  ,,,,,,,0.0,,,,,,,0.0,,,2014-12-19T00:00:00,9,1610612746,LAC,Los Angeles,18-8,20,23,31,32,0,0,0,0,0,0,0,0,0,0,106,0.459,0.758,0.167,21,39,11,0021400391,1610612743,DEN,Denver,Darrell Arthur,,DNP - Coach's Decision                  ,,,,,,,,,,,,,
0021400391,1610612743,DEN,Denver,201589,Darrell Arthur,,DNP - Coach's Decision                  ,,,,,,,0.0,,,,,,,0.0,,,2014-12-19T00:00:00,9,1610612743,DEN,Denver,11-15,29,30,12,38,0,0,0,0,0,0,0,0,0,0,109,0.475,0.733,0.379,30,40,21,0021400391,1610612743,DEN,Denver,Darrell Arthur,,DNP - Coach's Decision                  ,,,,,,,,,,,,,
0021400391,1610612743,DEN,Denver,203475,Erick Green,,DNP - Coach's Decision                  ,,,,,,,0.0,,,,,,,0.0,,,2014-12-19T00:00:00,9,1610612746,LAC,Los Angeles,18-8,20,23,31,32,0,0,0,0,0,0,0,0,0,0,106,0.459,0.758,0.167,21,39,11,0021400391,1610612743,DEN,Denver,Erick Green,,DNP - Coach's Decision                  ,,,,,,,,,,,,,
0021400391,1610612743,DEN,Denver,203475,Erick Green,,DNP - Coach's Decision                  ,,,,,,,0.0,,,,,,,0.0,,,2014-12-19T00:00:00,9,1610612743,DEN,Denver,11-15,29,30,12,38,0,0,0,0,0,0,0,0,0,0,109,0.475,0.733,0.379,30,40,21,0021400391,1610612743,DEN,Denver,Erick Green,,DNP - Coach's Decision                  ,,,,,,,,,,,,,
0021400391,1610612743,DEN,Denver,203914,Gary Harris,,DNP - Coach's Decision                  ,,,,,,,0.0,,,,,,,0.0,,,2014-12-19T00:00:00,9,1610612746,LAC,Los Angeles,18-8,20,23,31,32,0,0,0,0,0,0,0,0,0,0,106,0.459,0.758,0.167,21,39,11,0021400391,1610612743,DEN,Denver,Gary Harris,,DNP - Coach's Decision                  ,,,,,,,,,,,,,
0021400391,1610612743,DEN,Denver,203914,Gary Harris,,DNP - Coach's Decision                  ,,,,,,,0.0,,,,,,,0.0,,,2014-12-19T00:00:00,9,1610612743,DEN,Denver,11-15,29,30,12,38,0,0,0,0,0,0,0,0,0,0,109,0.475,0.733,0.379,30,40,21,0021400391,1610612743,DEN,Denver,Gary Harris,,DNP - Coach's Decision                  ,,,,,,,,,,,,,
