GAME_ID_x,TEAM_ID_x,TEAM_ABBREVIATION_x,TEAM_CITY_x,PLAYER_ID,PLAYER_NAME_x,START_POSITION_x,COMMENT_x,MIN_x,OFF_RATING,DEF_RATING,NET_RATING,AST_PCT,AST_TOV,AST_RATIO,OREB_PCT,DREB_PCT,REB_PCT,TM_TOV_PCT,EFG_PCT,TS_PCT,USG_PCT,PACE,PIE,GAME_DATE_EST,GAME_SEQUENCE,TEAM_ID_y,TEAM_ABBREVIATION_y,TEAM_CITY_NAME,TEAM_WINS_LOSSES,PTS_QTR1,PTS_QTR2,PTS_QTR3,PTS_QTR4,PTS_OT1,PTS_OT2,PTS_OT3,PTS_OT4,PTS_OT5,PTS_OT6,PTS_OT7,PTS_OT8,PTS_OT9,PTS_OT10,PTS,FG_PCT,FT_PCT,FG3_PCT,AST,REB,TOV,GAME_ID_y,TEAM_ID,TEAM_ABBREVIATION,TEAM_CITY_y,PLAYER_NAME_y,START_POSITION_y,COMMENT_y,MIN_y,PTS_OFF_TOV,PTS_2ND_CHANCE,PTS_FB,PTS_PAINT,OPP_PTS_OFF_TOV,OPP_PTS_2ND_CHANCE,OPP_PTS_FB,OPP_PTS_PAINT,BLK,BLKA,PF,PFD
0021400387,1610612761,TOR,Toronto,203082,Terrence Ross,F,,21:39,106.9,75.6,31.3,0.059,0.0,7.1,0.043,0.167,0.113,0.0,0.423,0.423,0.23,107.35,0.131,2014-12-19T00:00:00,5,1610612761,TOR,Toronto,21-6,26,26,29,29,0,0,0,0,0,0,0,0,0,0,110,0.477,0.75,0.296,24,47,8,0021400387,1610612761,TOR,Toronto,Terrence Ross,F,,21:39,4.0,0.0,0.0,6.0,2.0,10.0,8.0,20.0,0.0,2.0,0.0,0.0
0021400387,1610612761,TOR,Toronto,203082,Terrence Ross,F,,21:39,106.9,75.6,31.3,0.059,0.0,7.1,0.043,0.167,0.113,0.0,0.423,0.423,0.23,107.35,0.131,2014-12-19T00:00:00,5,1610612765,DET,Detroit,5-22,31,21,18,30,0,0,0,0,0,0,0,0,0,0,100,0.436,0.667,0.32,28,49,11,0021400387,1610612761,TOR,Toronto,Terrence Ross,F,,21:39,4.0,0.0,0.0,6.0,2.0,10.0,8.0,20.0,0.0,2.0,0.0,0.0
0021400387,1610612761,TOR,Toronto,101161,Amir Johnson,F,,17:51,96.0,78.8,17.1,0.0,0.0,0.0,0.1,0.231,0.174,0.0,0.429,0.429,0.153,107.51,0.14,2014-12-19T00:00:00,5,1610612761,TOR,Toronto,21-6,26,26,29,29,0,0,0,0,0,0,0,0,0,0,110,0.477,0.75,0.296,24,47,8,0021400387,1610612761,TOR,Toronto,Amir Johnson,F,,17:51,2.0,4.0,2.0,6.0,2.0,10.0,8.0,16.0,1.0,2.0,1.0,0.0
0021400387,1610612761,TOR,Toronto,101161,Amir Johnson,F,,17:51,96.0,78.8,17.1,0.0,0.0,0.0,0.1,0.231,0.174,0.0,0.429,0.429,0.153,107.51,0.14,2014-12-19T00:00:00,5,1610612765,DET,Detroit,5-22,31,21,18,30,0,0,0,0,0,0,0,0,0,0,100,0.436,0.667,0.32,28,49,11,0021400387,1610612761,TOR,Toronto,Amir Johnson,F,,17:51,2.0,4.0,2.0,6.0,2.0,10.0,8.0,16.0,1.0,2.0,1.0,0.0
0021400387,1610612761,TOR,Toronto,202685,Jonas Valanciunas,C,,27:04,99.9,93.6,6.4,0.0,0.0,0.0,0.063,0.143,0.104,6.1,0.545,0.552,0.248,103.51,0.122,2014-12-19T00:00:00,5,1610612761,TOR,Toronto,21-6,26,26,29,29,0,0,0,0,0,0,0,0,0,0,110,0.477,0.75,0.296,24,47,8,0021400387,1610612761,TOR,Toronto,Jonas Valanciunas,C,,27:04,2.0,7.0,3.0,12.0,2.0,12.0,10.0,24.0,2.0,0.0,2.0,6.0
0021400387,1610612761,TOR,Toronto,202685,Jonas Valanciunas,C,,27:04,99.9,93.6,6.4,0.0,0.0,0.0,0.063,0.143,0.104,6.1,0.545,0.552,0.248,103.51,0.122,2014-12-19T00:00:00,5,1610612765,DET,Detroit,5-22,31,21,18,30,0,0,0,0,0,0,0,0,0,0,100,0.436,0.667,0.32,28,49,11,0021400387,1610612761,TOR,Toronto,Jonas Valanciunas,C,,27:04,2.0,7.0,3.0,12.0,2.0,12.0,10.0,24.0,2.0,0.0,2.0,6.0
0021400387,1610612761,TOR,Toronto,202361,Landry Fields,G,,15:13,97.7,87.0,10.7,0.154,0.0,50.0,0.059,0.05,0.054,0.0,0.5,0.5,0.053,105.77,0.045,2014-12-19T00:00:00,5,1610612761,TOR,Toronto,21-6,26,26,29,29,0,0,0,0,0,0,0,0,0,0,110,0.477,0.75,0.296,24,47,8,0021400387,1610612761,TOR,Toronto,Landry Fields,G,,15:13,0.0,0.0,0.0,2.0,2.0,8.0,8.0,14.0,0.0,0.0,2.0,1.0
0021400387,1610612761,TOR,Toronto,202361,Landry Fields,G,,15:13,97.7,87.0,10.7,0.154,0.0,50.0,0.059,0.05,0.054,0.0,0.5,0.5,0.053,105.77,0.045,2014-12-19T00:00:00,5,1610612765,DET,Detroit,5-22,31,21,18,30,0,0,0,0,0,0,0,0,0,0,100,0.436,0.667,0.32,28,49,11,0021400387,1610612761,TOR,Toronto,Landry Fields,G,,15:13,0.0,0.0,0.0,2.0,2.0,8.0,8.0,14.0,0.0,0.0,2.0,1.0
0021400387,1610612761,TOR,Toronto,200768,Kyle Lowry,G,,24:40,106.5,73.0,33.5,0.368,2.33,27.2,0.0,0.143,0.085,11.6,0.393,0.476,0.306,104.58,0.186,2014-12-19T00:00:00,5,1610612761,TOR,Toronto,21-6,26,26,29,29,0,0,0,0,0,0,0,0,0,0,110,0.477,0.75,0.296,24,47,8,0021400387,1610612761,TOR,Toronto,Kyle Lowry,G,,24:40,2.0,0.0,4.0,4.0,2.0,10.0,8.0,22.0,0.0,2.0,2.0,6.0
0021400387,1610612761,TOR,Toronto,200768,Kyle Lowry,G,,24:40,106.5,73.0,33.5,0.368,2.33,27.2,0.0,0.143,0.085,11.6,0.393,0.476,0.306,104.58,0.186,2014-12-19T00:00:00,5,1610612765,DET,Detroit,5-22,31,21,18,30,0,0,0,0,0,0,0,0,0,0,100,0.436,0.667,0.32,28,49,11,0021400387,1610612761,TOR,Toronto,Kyle Lowry,G,,24:40,2.0,0.0,4.0,4.0,2.0,10.0,8.0,22.0,0.0,2.0,2.0,6.0
0021400387,1610612761,TOR,Toronto,101150,Lou Williams,,,28:20,116.5,124.8,-8.3,0.158,0.0,22.7,0.0,0.043,0.023,0.0,0.625,0.735,0.176,93.36,0.12,2014-12-19T00:00:00,5,1610612761,TOR,Toronto,21-6,26,26,29,29,0,0,0,0,0,0,0,0,0,0,110,0.477,0.75,0.296,24,47,8,0021400387,1610612761,TOR,Toronto,Lou Williams,,,28:20,0.0,0.0,2.0,4.0,6.0,8.0,2.0,34.0,0.0,1.0,1.0,2.0
0021400387,1610612761,TOR,Toronto,101150,Lou Williams,,,28:20,116.5,124.8,-8.3,0.158,0.0,22.7,0.0,0.043,0.023,0.0,0.625,0.735,0.176,93.36,0.12,2014-12-19T00:00:00,5,1610612765,DET,Detroit,5-22,31,21,18,30,0,0,0,0,0,0,0,0,0,0,100,0.436,0.667,0.32,28,49,11,0021400387,1610612761,TOR,Toronto,Lou Williams,,,28:20,0.0,0.0,2.0,4.0,6.0,8.0,2.0,34.0,0.0,1.0,1.0,2.0
0021400387,1610612761,TOR,Toronto,202335,Patrick Patterson,,,30:27,118.5,118.4,0.1,0.182,0.0,33.3,0.042,0.154,0.1,0.0,0.688,0.688,0.125,93.18,0.102,2014-12-19T00:00:00,5,1610612761,TOR,Toronto,21-6,26,26,29,29,0,0,0,0,0,0,0,0,0,0,110,0.477,0.75,0.296,24,47,8,0021400387,1610612761,TOR,Toronto,Patrick Patterson,,,30:27,3.0,0.0,5.0,2.0,6.0,8.0,2.0,34.0,0.0,0.0,2.0,0.0
0021400387,1610612761,TOR,Toronto,202335,Patrick Patterson,,,30:27,118.5,118.4,0.1,0.182,0.0,33.3,0.042,0.154,0.1,0.0,0.688,0.688,0.125,93.18,0.102,2014-12-19T00:00:00,5,1610612765,DET,Detroit,5-22,31,21,18,30,0,0,0,0,0,0,0,0,0,0,100,0.436,0.667,0.32,28,49,11,0021400387,1610612761,TOR,Toronto,Patrick Patterson,,,30:27,3.0,0.0,5.0,2.0,6.0,8.0,2.0,34.0,0.0,0.0,2.0,0.0
0021400387,1610612761,TOR,Toronto,201946,Tyler Hansbrough,,,7:57,107.5,118.5,-11.0,0.0,0.0,0.0,0.167,0.0,0.083,0.0,0.667,0.667,0.178,95.88,0.04,2014-12-19T00:00:00,5,1610612761,TOR,Toronto,21-6,26,26,29,29,0,0,0,0,0,0,0,0,0,0,110,0.477,0.75,0.296,24,47,8,0021400387,1610612761,TOR,Toronto,Tyler Hansbrough,,,7:57,0.0,2.0,0.0,4.0,6.0,2.0,0.0,16.0,0.0,0.0,2.0,0.0
0021400387,1610612761,TOR,Toronto,201946,Tyler Hansbrough,,,7:57,107.5,118.5,-11.0,0.0,0.0,0.0,0.167,0.0,0.083,0.0,0.667,0.667,0.178,95.88,0.04,2014-12-19T00:00:00,5,1610612765,DET,Detroit,5-22,31,21,18,30,0,0,0,0,0,0,0,0,0,0,100,0.436,0.667,0.32,28,49,11,0021400387,1610612761,TOR,Toronto,Tyler Hansbrough,,,7:57,0.0,2.0,0.0,4.0,6.0,2.0,0.0,16.0,0.0,0.0,2.0,0.0
0021400387,1610612761,TOR,Toronto,202349,Greivis Vasquez,,,24:43,117.4,134.7,-17.3,0.313,1.67,28.0,0.0,0.167,0.079,16.8,0.389,0.405,0.267,89.99,0.038,2014-12-19T00:00:00,5,1610612761,TOR,Toronto,21-6,26,26,29,29,0,0,0,0,0,0,0,0,0,0,110,0.477,0.75,0.296,24,47,8,0021400387,1610612761,TOR,Toronto,Greivis Vasquez,,,24:43,0.0,0.0,0.0,2.0,6.0,8.0,2.0,30.0,1.0,0.0,2.0,3.0
0021400387,1610612761,TOR,Toronto,202349,Greivis Vasquez,,,24:43,117.4,134.7,-17.3,0.313,1.67,28.0,0.0,0.167,0.079,16.8,0.389,0.405,0.267,89.99,0.038,2014-12-19T00:00:00,5,1610612765,DET,Detroit,5-22,31,21,18,30,0,0,0,0,0,0,0,0,0,0,100,0.436,0.667,0.32,28,49,11,0021400387,1610612761,TOR,Toronto,Greivis Vasquez,,,24:43,0.0,0.0,0.0,2.0,6.0,8.0,2.0,30.0,1.0,0.0,2.0,3.0
0021400387,1610612761,TOR,Toronto,201949,James Johnson,,,29:25,119.8,111.5,8.3,0.105,0.0,16.8,0.037,0.233,0.14,0.0,0.556,0.607,0.162,93.17,0.125,2014-12-19T00:00:00,5,1610612761,TOR,Toronto,21-6,26,26,29,29,0,0,0,0,0,0,0,0,0,0,110,0.477,0.75,0.296,24,47,8,0021400387,1610612761,TOR,Toronto,James Johnson,,,29:25,0.0,0.0,2.0,10.0,6.0,10.0,2.0,30.0,1.0,0.0,2.0,1.0
0021400387,1610612761,TOR,Toronto,201949,James Johnson,,,29:25,119.8,111.5,8.3,0.105,0.0,16.8,0.037,0.233,0.14,0.0,0.556,0.607,0.162,93.17,0.125,2014-12-19T00:00:00,5,1610612765,DET,Detroit,5-22,31,21,18,30,0,0,0,0,0,0,0,0,0,0,100,0.436,0.667,0.32,28,49,11,0021400387,1610612761,TOR,Toronto,James Johnson,,,29:25,0.0,0.0,2.0,10.0,6.0,10.0,2.0,30.0,1.0,0.0,2.0,1.0
0021400387,1610612761,TOR,Toronto,101236,Chuck Hayes,,,12:41,154.6,113.0,41.6,0.0,0.0,0.0,0.0,0.091,0.059,18.4,1.0,1.014,0.24,86.36,0.129,2014-12-19T00:00:00,5,1610612761,TOR,Toronto,21-6,26,26,29,29,0,0,0,0,0,0,0,0,0,0,110,0.477,0.75,0.296,24,47,8,0021400387,1610612761,TOR,Toronto,Chuck Hayes,,,12:41,2.0,0.0,0.0,8.0,0.0,4.0,0.0,10.0,0.0,0.0,0.0,1.0
0021400387,1610612761,TOR,Toronto,101236,Chuck Hayes,,,12:41,154.6,113.0,41.6,0.0,0.0,0.0,0.0,0.091,0.059,18.4,1.0,1.014,0.24,86.36,0.129,2014-12-19T00:00:00,5,1610612765,DET,Detroit,5-22,31,21,18,30,0,0,0,0,0,0,0,0,0,0,100,0.436,0.667,0.32,28,49,11,0021400387,1610612761,TOR,Toronto,Chuck Hayes,,,12:41,2.0,0.0,0.0,8.0,0.0,4.0,0.0,10.0,0.0,0.0,0.0,1.0
0021400387,1610612761,TOR,Toronto,203512,Lucas Nogueira,,DNP - Coach's Decision                  ,,,,,,,0.0,,,,,,,0.0,,,2014-12-19T00:00:00,5,1610612761,TOR,Toronto,21-6,26,26,29,29,0,0,0,0,0,0,0,0,0,0,110,0.477,0.75,0.296,24,47,8,0021400387,1610612761,TOR,Toronto,Lucas Nogueira,,DNP - Coach's Decision                  ,,,,,,,,,,,,,
0021400387,1610612761,TOR,Toronto,203512,Lucas Nogueira,,DNP - Coach's Decision                  ,,,,,,,0.0,,,,,,,0.0,,,2014-12-19T00:00:00,5,1610612765,DET,Detroit,5-22,31,21,18,30,0,0,0,0,0,0,0,0,0,0,100,0.436,0.667,0.32,28,49,11,0021400387,1610612761,TOR,Toronto,Lucas Nogueira,,DNP - Coach's Decision                  ,,,,,,,,,,,,,
0021400387,1610612761,TOR,Toronto,201880,Greg Stiemsma,,DNP - Coach's Decision                  ,,,,,,,0.0,,,,,,,0.0,,,2014-12-19T00:00:00,5,1610612761,TOR,Toronto,21-6,26,26,29,29,0,0,0,0,0,0,0,0,0,0,110,0.477,0.75,0.296,24,47,8,0021400387,1610612761,TOR,Toronto,Greg Stiemsma,,DNP - Coach's Decision                  ,,,,,,,,,,,,,
0021400387,1610612761,TOR,Toronto,201880,Greg Stiemsma,,DNP - Coach's Decision                  ,,,,,,,0.0,,,,,,,0.0,,,2014-12-19T00:00:00,5,1610612765,DET,Detroit,5-22,31,21,18,30,0,0,0,0,0,0,0,0,0,0,100,0.436,0.667,0.32,28,49,11,0021400387,1610612761,TOR,Toronto,Greg Stiemsma,,DNP - Coach's Decision                  ,,,,,,,,,,,,,
0021400387,1610612765,DET,Detroit,202713,Kyle Singler,F,,20:51,83.5,107.3,-23.8,0.0,0.0,0.0,0.037,0.095,0.062,33.3,0.25,0.25,0.117,105.72,0.0,2014-12-19T00:00:00,5,1610612761,TOR,Toronto,21-6,26,26,29,29,0,0,0,0,0,0,0,0,0,0,110,0.477,0.75,0.296,24,47,8,0021400387,1610612765,DET,Detroit,Kyle Singler,F,,20:51,2.0,0.0,2.0,2.0,10.0,11.0,9.0,32.0,1.0,0.0,1.0,1.0
0021400387,1610612765,DET,Detroit,202713,Kyle Singler,F,,20:51,83.5,107.3,-23.8,0.0,0.0,0.0,0.037,0.095,0.062,33.3,0.25,0.25,0.117,105.72,0.0,2014-12-19T00:00:00,5,1610612765,DET,Detroit,5-22,31,21,18,30,0,0,0,0,0,0,0,0,0,0,100,0.436,0.667,0.32,28,49,11,0021400387,1610612765,DET,Detroit,Kyle Singler,F,,20:51,2.0,0.0,2.0,2.0,10.0,11.0,9.0,32.0,1.0,0.0,1.0,1.0
0021400387,1610612765,DET,Detroit,2746,Josh Smith,F,,25:02,81.4,104.7,-23.3,0.267,2.0,23.7,0.086,0.2,0.133,11.8,0.5,0.46,0.201,104.96,0.132,2014-12-19T00:00:00,5,1610612761,TOR,Toronto,21-6,26,26,29,29,0,0,0,0,0,0,0,0,0,0,110,0.477,0.75,0.296,24,47,8,0021400387,1610612765,DET,Detroit,Josh Smith,F,,25:02,2.0,0.0,2.0,6.0,10.0,13.0,11.0,38.0,1.0,1.0,1.0,2.0
0021400387,1610612765,DET,Detroit,2746,Josh Smith,F,,25:02,81.4,104.7,-23.3,0.267,2.0,23.7,0.086,0.2,0.133,11.8,0.5,0.46,0.201,104.96,0.132,2014-12-19T00:00:00,5,1610612765,DET,Detroit,5-22,31,21,18,30,0,0,0,0,0,0,0,0,0,0,100,0.436,0.667,0.32,28,49,11,0021400387,1610612765,DET,Detroit,Josh Smith,F,,25:02,2.0,0.0,2.0,6.0,10.0,13.0,11.0,38.0,1.0,1.0,1.0,2.0
0021400387,1610612765,DET,Detroit,203083,Andre Drummond,C,,20:42,85.7,105.4,-19.7,0.0,0.0,0.0,0.115,0.348,0.224,11.3,0.429,0.444,0.176,101.98,0.095,2014-12-19T00:00:00,5,1610612761,TOR,Toronto,21-6,26,26,29,29,0,0,0,0,0,0,0,0,0,0,110,0.477,0.75,0.296,24,47,8,0021400387,1610612765,DET,Detroit,Andre Drummond,C,,20:42,0.0,2.0,1.0,6.0,11.0,8.0,6.0,30.0,3.0,0.0,4.0,2.0
0021400387,1610612765,DET,Detroit,203083,Andre Drummond,C,,20:42,85.7,105.4,-19.7,0.0,0.0,0.0,0.115,0.348,0.224,11.3,0.429,0.444,0.176,101.98,0.095,2014-12-19T00:00:00,5,1610612765,DET,Detroit,5-22,31,21,18,30,0,0,0,0,0,0,0,0,0,0,100,0.436,0.667,0.32,28,49,11,0021400387,1610612765,DET,Detroit,Andre Drummond,C,,20:42,0.0,2.0,1.0,6.0,11.0,8.0,6.0,30.0,3.0,0.0,4.0,2.0
0021400387,1610612765,DET,Detroit,203484,Kentavious Caldwell-Pope,G,,26:54,114.1,106.5,7.6,0.158,3.0,18.8,0.0,0.037,0.019,6.3,0.75,0.75,0.209,101.14,0.11,2014-12-19T00:00:00,5,1610612761,TOR,Toronto,21-6,26,26,29,29,0,0,0,0,0,0,0,0,0,0,110,0.477,0.75,0.296,24,47,8,0021400387,1610612765,DET,Detroit,Kentavious Caldwell-Pope,G,,26:54,0.0,4.0,0.0,4.0,11.0,8.0,8.0,36.0,0.0,0.0,3.0,1.0
0021400387,1610612765,DET,Detroit,203484,Kentavious Caldwell-Pope,G,,26:54,114.1,106.5,7.6,0.158,3.0,18.8,0.0,0.037,0.019,6.3,0.75,0.75,0.209,101.14,0.11,2014-12-19T00:00:00,5,1610612765,DET,Detroit,5-22,31,21,18,30,0,0,0,0,0,0,0,0,0,0,100,0.436,0.667,0.32,28,49,11,0021400387,1610612765,DET,Detroit,Kentavious Caldwell-Pope,G,,26:54,0.0,4.0,0.0,4.0,11.0,8.0,8.0,36.0,0.0,0.0,3.0,1.0
0021400387,1610612765,DET,Detroit,201943,Brandon Jennings,G,,30:42,111.2,107.9,3.3,0.381,2.67,25.6,0.0,0.121,0.06,9.6,0.5,0.545,0.306,99.19,0.152,2014-12-19T00:00:00,5,1610612761,TOR,Toronto,21-6,26,26,29,29,0,0,0,0,0,0,0,0,0,0,110,0.477,0.75,0.296,24,47,8,0021400387,1610612765,DET,Detroit,Brandon Jennings,G,,30:42,0.0,4.0,5.0,8.0,10.0,12.0,12.0,42.0,1.0,1.0,3.0,5.0
0021400387,1610612765,DET,Detroit,201943,Brandon Jennings,G,,30:42,111.2,107.9,3.3,0.381,2.67,25.6,0.0,0.121,0.06,9.6,0.5,0.545,0.306,99.19,0.152,2014-12-19T00:00:00,5,1610612765,DET,Detroit,5-22,31,21,18,30,0,0,0,0,0,0,0,0,0,0,100,0.436,0.667,0.32,28,49,11,0021400387,1610612765,DET,Detroit,Brandon Jennings,G,,30:42,0.0,4.0,5.0,8.0,10.0,12.0,12.0,42.0,1.0,1.0,3.0,5.0
0021400387,1610612765,DET,Detroit,202328,Greg Monroe,,,25:33,109.2,127.1,-17.8,0.067,1.0,6.0,0.154,0.176,0.163,6.0,0.538,0.576,0.284,93.63,0.134,2014-12-19T00:00:00,5,1610612761,TOR,Toronto,21-6,26,26,29,29,0,0,0,0,0,0,0,0,0,0,110,0.477,0.75,0.296,24,47,8,0021400387,1610612765,DET,Detroit,Greg Monroe,,,25:33,0.0,2.0,0.0,14.0,6.0,5.0,10.0,34.0,0.0,1.0,1.0,4.0
0021400387,1610612765,DET,Detroit,202328,Greg Monroe,,,25:33,109.2,127.1,-17.8,0.067,1.0,6.0,0.154,0.176,0.163,6.0,0.538,0.576,0.284,93.63,0.134,2014-12-19T00:00:00,5,1610612765,DET,Detroit,5-22,31,21,18,30,0,0,0,0,0,0,0,0,0,0,100,0.436,0.667,0.32,28,49,11,0021400387,1610612765,DET,Detroit,Greg Monroe,,,25:33,0.0,2.0,0.0,14.0,6.0,5.0,10.0,34.0,0.0,1.0,1.0,4.0
0021400387,1610612765,DET,Detroit,201975,Jodie Meeks,,,24:34,98.9,118.0,-19.1,0.111,0.0,20.0,0.0,0.1,0.042,0.0,0.25,0.25,0.142,95.43,0.005,2014-12-19T00:00:00,5,1610612761,TOR,Toronto,21-6,26,26,29,29,0,0,0,0,0,0,0,0,0,0,110,0.477,0.75,0.296,24,47,8,0021400387,1610612765,DET,Detroit,Jodie Meeks,,,24:34,2.0,0.0,0.0,2.0,4.0,7.0,10.0,28.0,1.0,0.0,2.0,0.0
0021400387,1610612765,DET,Detroit,201975,Jodie Meeks,,,24:34,98.9,118.0,-19.1,0.111,0.0,20.0,0.0,0.1,0.042,0.0,0.25,0.25,0.142,95.43,0.005,2014-12-19T00:00:00,5,1610612765,DET,Detroit,5-22,31,21,18,30,0,0,0,0,0,0,0,0,0,0,100,0.436,0.667,0.32,28,49,11,0021400387,1610612765,DET,Detroit,Jodie Meeks,,,24:34,2.0,0.0,0.0,2.0,4.0,7.0,10.0,28.0,1.0,0.0,2.0,0.0
0021400387,1610612765,DET,Detroit,2406,Caron Butler,,,18:15,95.7,119.3,-23.6,0.222,0.0,20.0,0.053,0.133,0.088,0.0,0.688,0.688,0.197,90.79,0.151,2014-12-19T00:00:00,5,1610612761,TOR,Toronto,21-6,26,26,29,29,0,0,0,0,0,0,0,0,0,0,110,0.477,0.75,0.296,24,47,8,0021400387,1610612765,DET,Detroit,Caron Butler,,,18:15,2.0,6.0,0.0,6.0,5.0,0.0,7.0,22.0,0.0,0.0,1.0,0.0
0021400387,1610612765,DET,Detroit,2406,Caron Butler,,,18:15,95.7,119.3,-23.6,0.222,0.0,20.0,0.053,0.133,0.088,0.0,0.688,0.688,0.197,90.79,0.151,2014-12-19T00:00:00,5,1610612765,DET,Detroit,5-22,31,21,18,30,0,0,0,0,0,0,0,0,0,0,100,0.436,0.667,0.32,28,49,11,0021400387,1610612765,DET,Detroit,Caron Butler,,,18:15,2.0,6.0,0.0,6.0,5.0,0.0,7.0,22.0,0.0,0.0,1.0,0.0
0021400387,1610612765,DET,Detroit,201571,D.J. Augustin,,,17:18,85.9,118.2,-32.3,0.333,4.0,44.4,0.0,0.0,0.0,11.1,0.0,0.0,0.14,96.11,0.0,2014-12-19T00:00:00,5,1610612761,TOR,Toronto,21-6,26,26,29,29,0,0,0,0,0,0,0,0,0,0,110,0.477,0.75,0.296,24,47,8,0021400387,1610612765,DET,Detroit,D.J. Augustin,,,17:18,0.0,0.0,0.0,0.0,5.0,1.0,6.0,18.0,0.0,1.0,1.0,0.0
0021400387,1610612765,DET,Detroit,201571,D.J. Augustin,,,17:18,85.9,118.2,-32.3,0.333,4.0,44.4,0.0,0.0,0.0,11.1,0.0,0.0,0.14,96.11,0.0,2014-12-19T00:00:00,5,1610612765,DET,Detroit,5-22,31,21,18,30,0,0,0,0,0,0,0,0,0,0,100,0.436,0.667,0.32,28,49,11,0021400387,1610612765,DET,Detroit,D.J. Augustin,,,17:18,0.0,0.0,0.0,0.0,5.0,1.0,6.0,18.0,0.0,1.0,1.0,0.0
0021400387,1610612765,DET,Detroit,201973,Jonas Jerebko,,,21:36,127.6,114.2,13.4,0.222,0.0,31.1,0.063,0.316,0.2,0.0,0.313,0.394,0.195,90.89,0.093,2014-12-19T00:00:00,5,1610612761,TOR,Toronto,21-6,26,26,29,29,0,0,0,0,0,0,0,0,0,0,110,0.477,0.75,0.296,24,47,8,0021400387,1610612765,DET,Detroit,Jonas Jerebko,,,21:36,0.0,0.0,0.0,2.0,3.0,0.0,7.0,18.0,0.0,0.0,2.0,1.0
0021400387,1610612765,DET,Detroit,201973,Jonas Jerebko,,,21:36,127.6,114.2,13.4,0.222,0.0,31.1,0.063,0.316,0.2,0.0,0.313,0.394,0.195,90.89,0.093,2014-12-19T00:00:00,5,1610612765,DET,Detroit,5-22,31,21,18,30,0,0,0,0,0,0,0,0,0,0,100,0.436,0.667,0.32,28,49,11,0021400387,1610612765,DET,Detroit,Jonas Jerebko,,,21:36,0.0,0.0,0.0,2.0,3.0,0.0,7.0,18.0,0.0,0.0,2.0,1.0
0021400387,1610612765,DET,Detroit,201858,Cartier Martin,,,5:26,158.0,103.7,54.3,0.0,0.0,0.0,0.0,0.2,0.111,0.0,0.5,0.5,0.157,90.11,0.093,2014-12-19T00:00:00,5,1610612761,TOR,Toronto,21-6,26,26,29,29,0,0,0,0,0,0,0,0,0,0,110,0.477,0.75,0.296,24,47,8,0021400387,1610612765,DET,Detroit,Cartier Martin,,,5:26,0.0,0.0,0.0,0.0,0.0,0.0,2.0,2.0,0.0,1.0,0.0,0.0
0021400387,1610612765,DET,Detroit,201858,Cartier Martin,,,5:26,158.0,103.7,54.3,0.0,0.0,0.0,0.0,0.2,0.111,0.0,0.5,0.5,0.157,90.11,0.093,2014-12-19T00:00:00,5,1610612765,DET,Detroit,5-22,31,21,18,30,0,0,0,0,0,0,0,0,0,0,100,0.436,0.667,0.32,28,49,11,0021400387,1610612765,DET,Detroit,Cartier Martin,,,5:26,0.0,0.0,0.0,0.0,0.0,0.0,2.0,2.0,0.0,1.0,0.0,0.0
0021400387,1610612765,DET,Detroit,201202,Joel Anthony,,,3:07,177.5,75.3,102.2,0.0,0.0,0.0,1.0,0.25,0.4,0.0,0.0,0.0,0.0,103.19,0.056,2014-12-19T00:00:00,5,1610612761,TOR,Toronto,21-6,26,26,29,29,0,0,0,0,0,0,0,0,0,0,110,0.477,0.75,0.296,24,47,8,0021400387,1610612765,DET,Detroit,Joel Anthony,,,3:07,0.0,0.0,0.0,0.0,0.0,0.0,2.0,0.0,0.0,0.0,1.0,0.0
0021400387,1610612765,DET,Detroit,201202,Joel Anthony,,,3:07,177.5,75.3,102.2,0.0,0.0,0.0,1.0,0.25,0.4,0.0,0.0,0.0,0.0,103.19,0.056,2014-12-19T00:00:00,5,1610612765,DET,Detroit,5-22,31,21,18,30,0,0,0,0,0,0,0,0,0,0,100,0.436,0.667,0.32,28,49,11,0021400387,1610612765,DET,Detroit,Joel Anthony,,,3:07,0.0,0.0,0.0,0.0,0.0,0.0,2.0,0.0,0.0,0.0,1.0,0.0
0021400387,1610612765,DET,Detroit,203915,Spencer Dinwiddie,,DNP - Coach's Decision                  ,,,,,,,0.0,,,,,,,0.0,,,2014-12-19T00:00:00,5,1610612761,TOR,Toronto,21-6,26,26,29,29,0,0,0,0,0,0,0,0,0,0,110,0.477,0.75,0.296,24,47,8,0021400387,1610612765,DET,Detroit,Spencer Dinwiddie,,DNP - Coach's Decision                  ,,,,,,,,,,,,,
0021400387,1610612765,DET,Detroit,203915,Spencer Dinwiddie,,DNP - Coach's Decision                  ,,,,,,,0.0,,,,,,,0.0,,,2014-12-19T00:00:00,5,1610612765,DET,Detroit,5-22,31,21,18,30,0,0,0,0,0,0,0,0,0,0,100,0.436,0.667,0.32,28,49,11,0021400387,1610612765,DET,Detroit,Spencer Dinwiddie,,DNP - Coach's Decision                  ,,,,,,,,,,,,,
