GAME_ID_x,TEAM_ID_x,TEAM_ABBREVIATION_x,TEAM_CITY_x,PLAYER_ID,PLAYER_NAME_x,START_POSITION_x,COMMENT_x,MIN_x,OFF_RATING,DEF_RATING,NET_RATING,AST_PCT,AST_TOV,AST_RATIO,OREB_PCT,DREB_PCT,REB_PCT,TM_TOV_PCT,EFG_PCT,TS_PCT,USG_PCT,PACE,PIE,GAME_DATE_EST,GAME_SEQUENCE,TEAM_ID_y,TEAM_ABBREVIATION_y,TEAM_CITY_NAME,TEAM_WINS_LOSSES,PTS_QTR1,PTS_QTR2,PTS_QTR3,PTS_QTR4,PTS_OT1,PTS_OT2,PTS_OT3,PTS_OT4,PTS_OT5,PTS_OT6,PTS_OT7,PTS_OT8,PTS_OT9,PTS_OT10,PTS,FG_PCT,FT_PCT,FG3_PCT,AST,REB,TOV,GAME_ID_y,TEAM_ID,TEAM_ABBREVIATION,TEAM_CITY_y,PLAYER_NAME_y,START_POSITION_y,COMMENT_y,MIN_y,PTS_OFF_TOV,PTS_2ND_CHANCE,PTS_FB,PTS_PAINT,OPP_PTS_OFF_TOV,OPP_PTS_2ND_CHANCE,OPP_PTS_FB,OPP_PTS_PAINT,BLK,BLKA,PF,PFD
0021400412,1610612762,UTA,Utah,202330,Gordon Hayward,F,,36:18,111.2,104.2,7.0,0.2,2.0,18.6,0.042,0.094,0.071,9.3,0.667,0.677,0.236,91.45,0.127,2014-12-22T00:00:00,4,1610612762,UTA,Utah,9-20,19,25,26,27,0,0,0,0,0,0,0,0,0,0,97,0.453,0.741,0.474,20,49,11,0021400412,1610612762,UTA,Utah,Gordon Hayward,F,,36:18,0.0,1.0,2.0,4.0,15.0,6.0,5.0,28.0,1.0,2.0,2.0,5.0
0021400412,1610612762,UTA,Utah,202330,Gordon Hayward,F,,36:18,111.2,104.2,7.0,0.2,2.0,18.6,0.042,0.094,0.071,9.3,0.667,0.677,0.236,91.45,0.127,2014-12-22T00:00:00,4,1610612763,MEM,Memphis,21-7,22,21,25,23,0,0,0,0,0,0,0,0,0,0,91,0.442,0.889,0.304,22,34,4,0021400412,1610612762,UTA,Utah,Gordon Hayward,F,,36:18,0.0,1.0,2.0,4.0,15.0,6.0,5.0,28.0,1.0,2.0,2.0,5.0
0021400412,1610612762,UTA,Utah,202324,Derrick Favors,F,,35:30,104.3,102.2,2.1,0.053,0.5,5.7,0.036,0.182,0.115,11.3,0.417,0.512,0.231,90.35,0.092,2014-12-22T00:00:00,4,1610612762,UTA,Utah,9-20,19,25,26,27,0,0,0,0,0,0,0,0,0,0,97,0.453,0.741,0.474,20,49,11,0021400412,1610612762,UTA,Utah,Derrick Favors,F,,35:30,0.0,2.0,0.0,10.0,14.0,6.0,4.0,26.0,1.0,0.0,2.0,3.0
0021400412,1610612762,UTA,Utah,202324,Derrick Favors,F,,35:30,104.3,102.2,2.1,0.053,0.5,5.7,0.036,0.182,0.115,11.3,0.417,0.512,0.231,90.35,0.092,2014-12-22T00:00:00,4,1610612763,MEM,Memphis,21-7,22,21,25,23,0,0,0,0,0,0,0,0,0,0,91,0.442,0.889,0.304,22,34,4,0021400412,1610612762,UTA,Utah,Derrick Favors,F,,35:30,0.0,2.0,0.0,10.0,14.0,6.0,4.0,26.0,1.0,0.0,2.0,3.0
0021400412,1610612762,UTA,Utah,202683,Enes Kanter,C,,30:25,117.0,103.3,13.8,0.0,0.0,0.0,0.045,0.308,0.187,15.4,0.591,0.591,0.221,86.04,0.113,2014-12-22T00:00:00,4,1610612762,UTA,Utah,9-20,19,25,26,27,0,0,0,0,0,0,0,0,0,0,97,0.453,0.741,0.474,20,49,11,0021400412,1610612762,UTA,Utah,Enes Kanter,C,,30:25,3.0,2.0,0.0,6.0,7.0,4.0,5.0,26.0,1.0,0.0,2.0,0.0
0021400412,1610612762,UTA,Utah,202683,Enes Kanter,C,,30:25,117.0,103.3,13.8,0.0,0.0,0.0,0.045,0.308,0.187,15.4,0.591,0.591,0.221,86.04,0.113,2014-12-22T00:00:00,4,1610612763,MEM,Memphis,21-7,22,21,25,23,0,0,0,0,0,0,0,0,0,0,91,0.442,0.889,0.304,22,34,4,0021400412,1610612762,UTA,Utah,Enes Kanter,C,,30:25,3.0,2.0,0.0,6.0,7.0,4.0,5.0,26.0,1.0,0.0,2.0,0.0
0021400412,1610612762,UTA,Utah,202692,Alec Burks,G,,34:13,113.8,99.0,14.8,0.222,4.0,17.8,0.0,0.088,0.047,4.4,0.571,0.656,0.261,91.63,0.165,2014-12-22T00:00:00,4,1610612762,UTA,Utah,9-20,19,25,26,27,0,0,0,0,0,0,0,0,0,0,97,0.453,0.741,0.474,20,49,11,0021400412,1610612762,UTA,Utah,Alec Burks,G,,34:13,2.0,2.0,2.0,4.0,4.0,6.0,4.0,26.0,0.0,1.0,1.0,4.0
0021400412,1610612762,UTA,Utah,202692,Alec Burks,G,,34:13,113.8,99.0,14.8,0.222,4.0,17.8,0.0,0.088,0.047,4.4,0.571,0.656,0.261,91.63,0.165,2014-12-22T00:00:00,4,1610612763,MEM,Memphis,21-7,22,21,25,23,0,0,0,0,0,0,0,0,0,0,91,0.442,0.889,0.304,22,34,4,0021400412,1610612762,UTA,Utah,Alec Burks,G,,34:13,2.0,2.0,2.0,4.0,4.0,6.0,4.0,26.0,0.0,1.0,1.0,4.0
0021400412,1610612762,UTA,Utah,203504,Trey Burke,G,,26:01,117.2,102.7,14.4,0.235,4.0,29.8,0.059,0.125,0.098,7.4,0.438,0.474,0.177,92.26,0.1,2014-12-22T00:00:00,4,1610612762,UTA,Utah,9-20,19,25,26,27,0,0,0,0,0,0,0,0,0,0,97,0.453,0.741,0.474,20,49,11,0021400412,1610612762,UTA,Utah,Trey Burke,G,,26:01,0.0,0.0,0.0,2.0,8.0,6.0,2.0,24.0,0.0,0.0,0.0,1.0
0021400412,1610612762,UTA,Utah,203504,Trey Burke,G,,26:01,117.2,102.7,14.4,0.235,4.0,29.8,0.059,0.125,0.098,7.4,0.438,0.474,0.177,92.26,0.1,2014-12-22T00:00:00,4,1610612763,MEM,Memphis,21-7,22,21,25,23,0,0,0,0,0,0,0,0,0,0,91,0.442,0.889,0.304,22,34,4,0021400412,1610612762,UTA,Utah,Trey Burke,G,,26:01,0.0,0.0,0.0,2.0,8.0,6.0,2.0,24.0,0.0,0.0,0.0,1.0
0021400412,1610612762,UTA,Utah,203497,Rudy Gobert,,,29:30,103.2,95.6,7.7,0.0,0.0,0.0,0.179,0.407,0.291,25.0,0.167,0.167,0.126,85.92,0.069,2014-12-22T00:00:00,4,1610612762,UTA,Utah,9-20,19,25,26,27,0,0,0,0,0,0,0,0,0,0,97,0.453,0.741,0.474,20,49,11,0021400412,1610612762,UTA,Utah,Rudy Gobert,,,29:30,0.0,0.0,2.0,2.0,13.0,0.0,5.0,10.0,2.0,0.0,3.0,0.0
0021400412,1610612762,UTA,Utah,203497,Rudy Gobert,,,29:30,103.2,95.6,7.7,0.0,0.0,0.0,0.179,0.407,0.291,25.0,0.167,0.167,0.126,85.92,0.069,2014-12-22T00:00:00,4,1610612763,MEM,Memphis,21-7,22,21,25,23,0,0,0,0,0,0,0,0,0,0,91,0.442,0.889,0.304,22,34,4,0021400412,1610612762,UTA,Utah,Rudy Gobert,,,29:30,0.0,0.0,2.0,2.0,13.0,0.0,5.0,10.0,2.0,0.0,3.0,0.0
0021400412,1610612762,UTA,Utah,203957,Dante Exum,,,21:54,98.7,104.4,-5.7,0.25,0.0,50.0,0.0,0.105,0.049,0.0,1.0,1.0,0.066,84.21,0.124,2014-12-22T00:00:00,4,1610612762,UTA,Utah,9-20,19,25,26,27,0,0,0,0,0,0,0,0,0,0,97,0.453,0.741,0.474,20,49,11,0021400412,1610612762,UTA,Utah,Dante Exum,,,21:54,0.0,3.0,0.0,0.0,9.0,0.0,5.0,8.0,0.0,0.0,1.0,1.0
0021400412,1610612762,UTA,Utah,203957,Dante Exum,,,21:54,98.7,104.4,-5.7,0.25,0.0,50.0,0.0,0.105,0.049,0.0,1.0,1.0,0.066,84.21,0.124,2014-12-22T00:00:00,4,1610612763,MEM,Memphis,21-7,22,21,25,23,0,0,0,0,0,0,0,0,0,0,91,0.442,0.889,0.304,22,34,4,0021400412,1610612762,UTA,Utah,Dante Exum,,,21:54,0.0,3.0,0.0,0.0,9.0,0.0,5.0,8.0,0.0,0.0,1.0,1.0
0021400412,1610612762,UTA,Utah,203918,Rodney Hood,,,21:25,104.7,102.0,2.7,0.364,4.0,27.1,0.053,0.136,0.098,6.8,0.313,0.359,0.238,88.91,0.036,2014-12-22T00:00:00,4,1610612762,UTA,Utah,9-20,19,25,26,27,0,0,0,0,0,0,0,0,0,0,97,0.453,0.741,0.474,20,49,11,0021400412,1610612762,UTA,Utah,Rodney Hood,,,21:25,0.0,0.0,2.0,2.0,9.0,2.0,5.0,10.0,0.0,0.0,3.0,4.0
0021400412,1610612762,UTA,Utah,203918,Rodney Hood,,,21:25,104.7,102.0,2.7,0.364,4.0,27.1,0.053,0.136,0.098,6.8,0.313,0.359,0.238,88.91,0.036,2014-12-22T00:00:00,4,1610612763,MEM,Memphis,21-7,22,21,25,23,0,0,0,0,0,0,0,0,0,0,91,0.442,0.889,0.304,22,34,4,0021400412,1610612762,UTA,Utah,Rodney Hood,,,21:25,0.0,0.0,2.0,2.0,9.0,2.0,5.0,10.0,0.0,0.0,3.0,4.0
0021400412,1610612762,UTA,Utah,204060,Joe Ingles,,,4:44,101.5,139.6,-38.1,0.0,0.0,0.0,0.0,0.0,0.0,0.0,1.0,1.0,0.092,79.91,0.056,2014-12-22T00:00:00,4,1610612762,UTA,Utah,9-20,19,25,26,27,0,0,0,0,0,0,0,0,0,0,97,0.453,0.741,0.474,20,49,11,0021400412,1610612762,UTA,Utah,Joe Ingles,,,4:44,0.0,0.0,0.0,2.0,6.0,0.0,0.0,2.0,0.0,0.0,1.0,0.0
0021400412,1610612762,UTA,Utah,204060,Joe Ingles,,,4:44,101.5,139.6,-38.1,0.0,0.0,0.0,0.0,0.0,0.0,0.0,1.0,1.0,0.092,79.91,0.056,2014-12-22T00:00:00,4,1610612763,MEM,Memphis,21-7,22,21,25,23,0,0,0,0,0,0,0,0,0,0,91,0.442,0.889,0.304,22,34,4,0021400412,1610612762,UTA,Utah,Joe Ingles,,,4:44,0.0,0.0,0.0,2.0,6.0,0.0,0.0,2.0,0.0,0.0,1.0,0.0
0021400412,1610612762,UTA,Utah,203565,Patrick Christopher,,DNP - Coach's Decision                  ,,,,,,,0.0,,,,,,,0.0,,,2014-12-22T00:00:00,4,1610612762,UTA,Utah,9-20,19,25,26,27,0,0,0,0,0,0,0,0,0,0,97,0.453,0.741,0.474,20,49,11,0021400412,1610612762,UTA,Utah,Patrick Christopher,,DNP - Coach's Decision                  ,,,,,,,,,,,,,
0021400412,1610612762,UTA,Utah,203565,Patrick Christopher,,DNP - Coach's Decision                  ,,,,,,,0.0,,,,,,,0.0,,,2014-12-22T00:00:00,4,1610612763,MEM,Memphis,21-7,22,21,25,23,0,0,0,0,0,0,0,0,0,0,91,0.442,0.889,0.304,22,34,4,0021400412,1610612762,UTA,Utah,Patrick Christopher,,DNP - Coach's Decision                  ,,,,,,,,,,,,,
0021400412,1610612762,UTA,Utah,203546,Ian Clark,,DNP - Coach's Decision                  ,,,,,,,0.0,,,,,,,0.0,,,2014-12-22T00:00:00,4,1610612762,UTA,Utah,9-20,19,25,26,27,0,0,0,0,0,0,0,0,0,0,97,0.453,0.741,0.474,20,49,11,0021400412,1610612762,UTA,Utah,Ian Clark,,DNP - Coach's Decision                  ,,,,,,,,,,,,,
0021400412,1610612762,UTA,Utah,203546,Ian Clark,,DNP - Coach's Decision                  ,,,,,,,0.0,,,,,,,0.0,,,2014-12-22T00:00:00,4,1610612763,MEM,Memphis,21-7,22,21,25,23,0,0,0,0,0,0,0,0,0,0,91,0.442,0.889,0.304,22,34,4,0021400412,1610612762,UTA,Utah,Ian Clark,,DNP - Coach's Decision                  ,,,,,,,,,,,,,
0021400412,1610612762,UTA,Utah,202379,Jeremy Evans,,DNP - Coach's Decision                  ,,,,,,,0.0,,,,,,,0.0,,,2014-12-22T00:00:00,4,1610612762,UTA,Utah,9-20,19,25,26,27,0,0,0,0,0,0,0,0,0,0,97,0.453,0.741,0.474,20,49,11,0021400412,1610612762,UTA,Utah,Jeremy Evans,,DNP - Coach's Decision                  ,,,,,,,,,,,,,
0021400412,1610612762,UTA,Utah,202379,Jeremy Evans,,DNP - Coach's Decision                  ,,,,,,,0.0,,,,,,,0.0,,,2014-12-22T00:00:00,4,1610612763,MEM,Memphis,21-7,22,21,25,23,0,0,0,0,0,0,0,0,0,0,91,0.442,0.889,0.304,22,34,4,0021400412,1610612762,UTA,Utah,Jeremy Evans,,DNP - Coach's Decision                  ,,,,,,,,,,,,,
0021400412,1610612762,UTA,Utah,200779,Steve Novak,,DNP - Coach's Decision                  ,,,,,,,0.0,,,,,,,0.0,,,2014-12-22T00:00:00,4,1610612762,UTA,Utah,9-20,19,25,26,27,0,0,0,0,0,0,0,0,0,0,97,0.453,0.741,0.474,20,49,11,0021400412,1610612762,UTA,Utah,Steve Novak,,DNP - Coach's Decision                  ,,,,,,,,,,,,,
0021400412,1610612762,UTA,Utah,200779,Steve Novak,,DNP - Coach's Decision                  ,,,,,,,0.0,,,,,,,0.0,,,2014-12-22T00:00:00,4,1610612763,MEM,Memphis,21-7,22,21,25,23,0,0,0,0,0,0,0,0,0,0,91,0.442,0.889,0.304,22,34,4,0021400412,1610612762,UTA,Utah,Steve Novak,,DNP - Coach's Decision                  ,,,,,,,,,,,,,
0021400412,1610612763,MEM,Memphis,2419,Tayshaun Prince,F,,23:33,107.8,105.4,2.4,0.1,0.0,40.0,0.0,0.059,0.029,0.0,0.0,0.0,0.069,87.03,0.006,2014-12-22T00:00:00,4,1610612762,UTA,Utah,9-20,19,25,26,27,0,0,0,0,0,0,0,0,0,0,97,0.453,0.741,0.474,20,49,11,0021400412,1610612763,MEM,Memphis,Tayshaun Prince,F,,23:33,0.0,0.0,0.0,0.0,5.0,5.0,4.0,22.0,1.0,0.0,0.0,2.0
0021400412,1610612763,MEM,Memphis,2419,Tayshaun Prince,F,,23:33,107.8,105.4,2.4,0.1,0.0,40.0,0.0,0.059,0.029,0.0,0.0,0.0,0.069,87.03,0.006,2014-12-22T00:00:00,4,1610612763,MEM,Memphis,21-7,22,21,25,23,0,0,0,0,0,0,0,0,0,0,91,0.442,0.889,0.304,22,34,4,0021400412,1610612763,MEM,Memphis,Tayshaun Prince,F,,23:33,0.0,0.0,0.0,0.0,5.0,5.0,4.0,22.0,1.0,0.0,0.0,2.0
0021400412,1610612763,MEM,Memphis,201585,Kosta Koufos,F,,32:44,115.0,100.5,14.6,0.12,3.0,33.8,0.042,0.107,0.077,11.3,0.5,0.512,0.104,82.48,0.055,2014-12-22T00:00:00,4,1610612762,UTA,Utah,9-20,19,25,26,27,0,0,0,0,0,0,0,0,0,0,97,0.453,0.741,0.474,20,49,11,0021400412,1610612763,MEM,Memphis,Kosta Koufos,F,,32:44,2.0,0.0,0.0,4.0,0.0,5.0,6.0,24.0,1.0,0.0,3.0,3.0
0021400412,1610612763,MEM,Memphis,201585,Kosta Koufos,F,,32:44,115.0,100.5,14.6,0.12,3.0,33.8,0.042,0.107,0.077,11.3,0.5,0.512,0.104,82.48,0.055,2014-12-22T00:00:00,4,1610612763,MEM,Memphis,21-7,22,21,25,23,0,0,0,0,0,0,0,0,0,0,91,0.442,0.889,0.304,22,34,4,0021400412,1610612763,MEM,Memphis,Kosta Koufos,F,,32:44,2.0,0.0,0.0,4.0,0.0,5.0,6.0,24.0,1.0,0.0,3.0,3.0
0021400412,1610612763,MEM,Memphis,201188,Marc Gasol,C,,36:31,104.3,111.2,-7.0,0.238,2.5,16.3,0.088,0.375,0.207,6.5,0.455,0.505,0.339,92.72,0.172,2014-12-22T00:00:00,4,1610612762,UTA,Utah,9-20,19,25,26,27,0,0,0,0,0,0,0,0,0,0,97,0.453,0.741,0.474,20,49,11,0021400412,1610612763,MEM,Memphis,Marc Gasol,C,,36:31,8.0,4.0,0.0,10.0,5.0,8.0,4.0,26.0,0.0,2.0,2.0,6.0
0021400412,1610612763,MEM,Memphis,201188,Marc Gasol,C,,36:31,104.3,111.2,-7.0,0.238,2.5,16.3,0.088,0.375,0.207,6.5,0.455,0.505,0.339,92.72,0.172,2014-12-22T00:00:00,4,1610612763,MEM,Memphis,21-7,22,21,25,23,0,0,0,0,0,0,0,0,0,0,91,0.442,0.889,0.304,22,34,4,0021400412,1610612763,MEM,Memphis,Marc Gasol,C,,36:31,8.0,4.0,0.0,10.0,5.0,8.0,4.0,26.0,0.0,2.0,2.0,6.0
0021400412,1610612763,MEM,Memphis,201584,Courtney Lee,G,,37:43,100.1,109.4,-9.4,0.083,0.0,12.2,0.0,0.042,0.017,0.0,0.429,0.45,0.188,92.32,0.051,2014-12-22T00:00:00,4,1610612762,UTA,Utah,9-20,19,25,26,27,0,0,0,0,0,0,0,0,0,0,97,0.453,0.741,0.474,20,49,11,0021400412,1610612763,MEM,Memphis,Courtney Lee,G,,37:43,3.0,2.0,3.0,2.0,5.0,5.0,6.0,28.0,0.0,0.0,3.0,1.0
0021400412,1610612763,MEM,Memphis,201584,Courtney Lee,G,,37:43,100.1,109.4,-9.4,0.083,0.0,12.2,0.0,0.042,0.017,0.0,0.429,0.45,0.188,92.32,0.051,2014-12-22T00:00:00,4,1610612763,MEM,Memphis,21-7,22,21,25,23,0,0,0,0,0,0,0,0,0,0,91,0.442,0.889,0.304,22,34,4,0021400412,1610612763,MEM,Memphis,Courtney Lee,G,,37:43,3.0,2.0,3.0,2.0,5.0,5.0,6.0,28.0,0.0,0.0,3.0,1.0
0021400412,1610612763,MEM,Memphis,201144,Mike Conley,G,,31:48,101.5,120.8,-19.4,0.267,4.0,14.8,0.0,0.2,0.08,3.7,0.636,0.636,0.348,93.83,0.176,2014-12-22T00:00:00,4,1610612762,UTA,Utah,9-20,19,25,26,27,0,0,0,0,0,0,0,0,0,0,97,0.453,0.741,0.474,20,49,11,0021400412,1610612763,MEM,Memphis,Mike Conley,G,,31:48,2.0,0.0,2.0,12.0,5.0,5.0,4.0,26.0,0.0,2.0,3.0,1.0
0021400412,1610612763,MEM,Memphis,201144,Mike Conley,G,,31:48,101.5,120.8,-19.4,0.267,4.0,14.8,0.0,0.2,0.08,3.7,0.636,0.636,0.348,93.83,0.176,2014-12-22T00:00:00,4,1610612763,MEM,Memphis,21-7,22,21,25,23,0,0,0,0,0,0,0,0,0,0,91,0.442,0.889,0.304,22,34,4,0021400412,1610612763,MEM,Memphis,Mike Conley,G,,31:48,2.0,0.0,2.0,12.0,5.0,5.0,4.0,26.0,0.0,2.0,3.0,1.0
0021400412,1610612763,MEM,Memphis,2757,Beno Udrih,,,19:25,109.1,98.7,10.4,0.2,0.0,50.0,0.05,0.1,0.075,0.0,0.0,0.0,0.077,89.29,0.025,2014-12-22T00:00:00,4,1610612762,UTA,Utah,9-20,19,25,26,27,0,0,0,0,0,0,0,0,0,0,97,0.453,0.741,0.474,20,49,11,0021400412,1610612763,MEM,Memphis,Beno Udrih,,,19:25,0.0,0.0,0.0,0.0,0.0,5.0,4.0,8.0,0.0,0.0,1.0,0.0
0021400412,1610612763,MEM,Memphis,2757,Beno Udrih,,,19:25,109.1,98.7,10.4,0.2,0.0,50.0,0.05,0.1,0.075,0.0,0.0,0.0,0.077,89.29,0.025,2014-12-22T00:00:00,4,1610612763,MEM,Memphis,21-7,22,21,25,23,0,0,0,0,0,0,0,0,0,0,91,0.442,0.889,0.304,22,34,4,0021400412,1610612763,MEM,Memphis,Beno Udrih,,,19:25,0.0,0.0,0.0,0.0,0.0,5.0,4.0,8.0,0.0,0.0,1.0,0.0
0021400412,1610612763,MEM,Memphis,1713,Vince Carter,,,21:54,97.2,107.6,-10.4,0.167,0.0,20.2,0.0,0.095,0.044,0.0,0.714,0.761,0.174,89.04,0.164,2014-12-22T00:00:00,4,1610612762,UTA,Utah,9-20,19,25,26,27,0,0,0,0,0,0,0,0,0,0,97,0.453,0.741,0.474,20,49,11,0021400412,1610612763,MEM,Memphis,Vince Carter,,,21:54,2.0,0.0,2.0,4.0,0.0,5.0,4.0,8.0,0.0,0.0,3.0,2.0
0021400412,1610612763,MEM,Memphis,1713,Vince Carter,,,21:54,97.2,107.6,-10.4,0.167,0.0,20.2,0.0,0.095,0.044,0.0,0.714,0.761,0.174,89.04,0.164,2014-12-22T00:00:00,4,1610612763,MEM,Memphis,21-7,22,21,25,23,0,0,0,0,0,0,0,0,0,0,91,0.442,0.889,0.304,22,34,4,0021400412,1610612763,MEM,Memphis,Vince Carter,,,21:54,2.0,0.0,2.0,4.0,0.0,5.0,4.0,8.0,0.0,0.0,3.0,2.0
0021400412,1610612763,MEM,Memphis,202720,Jon Leuer,,,26:05,80.3,112.1,-31.8,0.071,0.0,10.0,0.0,0.192,0.094,0.0,0.222,0.222,0.182,86.23,0.024,2014-12-22T00:00:00,4,1610612762,UTA,Utah,9-20,19,25,26,27,0,0,0,0,0,0,0,0,0,0,97,0.453,0.741,0.474,20,49,11,0021400412,1610612763,MEM,Memphis,Jon Leuer,,,26:05,0.0,0.0,0.0,0.0,5.0,7.0,6.0,14.0,0.0,1.0,1.0,0.0
0021400412,1610612763,MEM,Memphis,202720,Jon Leuer,,,26:05,80.3,112.1,-31.8,0.071,0.0,10.0,0.0,0.192,0.094,0.0,0.222,0.222,0.182,86.23,0.024,2014-12-22T00:00:00,4,1610612763,MEM,Memphis,21-7,22,21,25,23,0,0,0,0,0,0,0,0,0,0,91,0.442,0.889,0.304,22,34,4,0021400412,1610612763,MEM,Memphis,Jon Leuer,,,26:05,0.0,0.0,0.0,0.0,5.0,7.0,6.0,14.0,0.0,1.0,1.0,0.0
0021400412,1610612763,MEM,Memphis,203919,Jordan Adams,,,10:18,111.8,114.2,-2.4,0.0,0.0,0.0,0.0,0.133,0.087,0.0,1.25,1.25,0.118,78.45,0.172,2014-12-22T00:00:00,4,1610612762,UTA,Utah,9-20,19,25,26,27,0,0,0,0,0,0,0,0,0,0,97,0.453,0.741,0.474,20,49,11,0021400412,1610612763,MEM,Memphis,Jordan Adams,,,10:18,0.0,0.0,0.0,0.0,0.0,5.0,2.0,4.0,1.0,0.0,2.0,0.0
0021400412,1610612763,MEM,Memphis,203919,Jordan Adams,,,10:18,111.8,114.2,-2.4,0.0,0.0,0.0,0.0,0.133,0.087,0.0,1.25,1.25,0.118,78.45,0.172,2014-12-22T00:00:00,4,1610612763,MEM,Memphis,21-7,22,21,25,23,0,0,0,0,0,0,0,0,0,0,91,0.442,0.889,0.304,22,34,4,0021400412,1610612763,MEM,Memphis,Jordan Adams,,,10:18,0.0,0.0,0.0,0.0,0.0,5.0,2.0,4.0,1.0,0.0,2.0,0.0
0021400412,1610612763,MEM,Memphis,201979,Nick Calathes,,DNP - Coach's Decision                  ,,,,,,,0.0,,,,,,,0.0,,,2014-12-22T00:00:00,4,1610612762,UTA,Utah,9-20,19,25,26,27,0,0,0,0,0,0,0,0,0,0,97,0.453,0.741,0.474,20,49,11,0021400412,1610612763,MEM,Memphis,Nick Calathes,,DNP - Coach's Decision                  ,,,,,,,,,,,,,
0021400412,1610612763,MEM,Memphis,201979,Nick Calathes,,DNP - Coach's Decision                  ,,,,,,,0.0,,,,,,,0.0,,,2014-12-22T00:00:00,4,1610612763,MEM,Memphis,21-7,22,21,25,23,0,0,0,0,0,0,0,0,0,0,91,0.442,0.889,0.304,22,34,4,0021400412,1610612763,MEM,Memphis,Nick Calathes,,DNP - Coach's Decision                  ,,,,,,,,,,,,,
0021400412,1610612763,MEM,Memphis,202347,Quincy Pondexter,,DNP - Coach's Decision                  ,,,,,,,0.0,,,,,,,0.0,,,2014-12-22T00:00:00,4,1610612762,UTA,Utah,9-20,19,25,26,27,0,0,0,0,0,0,0,0,0,0,97,0.453,0.741,0.474,20,49,11,0021400412,1610612763,MEM,Memphis,Quincy Pondexter,,DNP - Coach's Decision                  ,,,,,,,,,,,,,
0021400412,1610612763,MEM,Memphis,202347,Quincy Pondexter,,DNP - Coach's Decision                  ,,,,,,,0.0,,,,,,,0.0,,,2014-12-22T00:00:00,4,1610612763,MEM,Memphis,21-7,22,21,25,23,0,0,0,0,0,0,0,0,0,0,91,0.442,0.889,0.304,22,34,4,0021400412,1610612763,MEM,Memphis,Quincy Pondexter,,DNP - Coach's Decision                  ,,,,,,,,,,,,,
0021400412,1610612763,MEM,Memphis,203950,Jarnell Stokes,,DNP - Coach's Decision                  ,,,,,,,0.0,,,,,,,0.0,,,2014-12-22T00:00:00,4,1610612762,UTA,Utah,9-20,19,25,26,27,0,0,0,0,0,0,0,0,0,0,97,0.453,0.741,0.474,20,49,11,0021400412,1610612763,MEM,Memphis,Jarnell Stokes,,DNP - Coach's Decision                  ,,,,,,,,,,,,,
0021400412,1610612763,MEM,Memphis,203950,Jarnell Stokes,,DNP - Coach's Decision                  ,,,,,,,0.0,,,,,,,0.0,,,2014-12-22T00:00:00,4,1610612763,MEM,Memphis,21-7,22,21,25,23,0,0,0,0,0,0,0,0,0,0,91,0.442,0.889,0.304,22,34,4,0021400412,1610612763,MEM,Memphis,Jarnell Stokes,,DNP - Coach's Decision                  ,,,,,,,,,,,,,
