GAME_ID_x,TEAM_ID_x,TEAM_ABBREVIATION_x,TEAM_CITY_x,PLAYER_ID,PLAYER_NAME_x,START_POSITION_x,COMMENT_x,MIN_x,OFF_RATING,DEF_RATING,NET_RATING,AST_PCT,AST_TOV,AST_RATIO,OREB_PCT,DREB_PCT,REB_PCT,TM_TOV_PCT,EFG_PCT,TS_PCT,USG_PCT,PACE,PIE,GAME_DATE_EST,GAME_SEQUENCE,TEAM_ID_y,TEAM_ABBREVIATION_y,TEAM_CITY_NAME,TEAM_WINS_LOSSES,PTS_QTR1,PTS_QTR2,PTS_QTR3,PTS_QTR4,PTS_OT1,PTS_OT2,PTS_OT3,PTS_OT4,PTS_OT5,PTS_OT6,PTS_OT7,PTS_OT8,PTS_OT9,PTS_OT10,PTS,FG_PCT,FT_PCT,FG3_PCT,AST,REB,TOV,GAME_ID_y,TEAM_ID,TEAM_ABBREVIATION,TEAM_CITY_y,PLAYER_NAME_y,START_POSITION_y,COMMENT_y,MIN_y,PTS_OFF_TOV,PTS_2ND_CHANCE,PTS_FB,PTS_PAINT,OPP_PTS_OFF_TOV,OPP_PTS_2ND_CHANCE,OPP_PTS_FB,OPP_PTS_PAINT,BLK,BLKA,PF,PFD
0021400416,1610612750,MIN,Minnesota,203498,Shabazz Muhammad,F,,32:45,104.7,120.4,-15.6,0.083,2.0,8.8,0.172,0.043,0.115,4.4,0.412,0.458,0.244,102.39,0.068,2014-12-23T00:00:00,1,1610612750,MIN,Minnesota,5-22,26,30,23,25,0,0,0,0,0,0,0,0,0,0,104,0.443,0.759,0.308,25,40,18,0021400416,1610612750,MIN,Minnesota,Shabazz Muhammad,F,,32:45,2,6,1,10,11,9,14,40,1,2,3,5
0021400416,1610612750,MIN,Minnesota,203498,Shabazz Muhammad,F,,32:45,104.7,120.4,-15.6,0.083,2.0,8.8,0.172,0.043,0.115,4.4,0.412,0.458,0.244,102.39,0.068,2014-12-23T00:00:00,1,1610612739,CLE,Cleveland,17-10,27,37,32,29,0,0,0,0,0,0,0,0,0,0,125,0.524,0.806,0.5,24,38,17,0021400416,1610612750,MIN,Minnesota,Shabazz Muhammad,F,,32:45,2,6,1,10,11,9,14,40,1,2,3,5
0021400416,1610612750,MIN,Minnesota,201152,Thaddeus Young,F,,31:58,112.6,111.5,1.2,0.083,1.0,8.7,0.154,0.077,0.115,8.7,0.333,0.344,0.257,100.48,0.056,2014-12-23T00:00:00,1,1610612750,MIN,Minnesota,5-22,26,30,23,25,0,0,0,0,0,0,0,0,0,0,104,0.443,0.759,0.308,25,40,18,0021400416,1610612750,MIN,Minnesota,Thaddeus Young,F,,31:58,4,4,2,10,9,8,9,34,2,2,1,2
0021400416,1610612750,MIN,Minnesota,201152,Thaddeus Young,F,,31:58,112.6,111.5,1.2,0.083,1.0,8.7,0.154,0.077,0.115,8.7,0.333,0.344,0.257,100.48,0.056,2014-12-23T00:00:00,1,1610612739,CLE,Cleveland,17-10,27,37,32,29,0,0,0,0,0,0,0,0,0,0,125,0.524,0.806,0.5,24,38,17,0021400416,1610612750,MIN,Minnesota,Thaddeus Young,F,,31:58,4,4,2,10,9,8,9,34,2,2,1,2
0021400416,1610612750,MIN,Minnesota,203476,Gorgui Dieng,C,,36:06,107.9,114.5,-6.6,0.083,1.0,11.4,0.097,0.267,0.18,11.4,0.6,0.74,0.171,104.62,0.188,2014-12-23T00:00:00,1,1610612750,MIN,Minnesota,5-22,26,30,23,25,0,0,0,0,0,0,0,0,0,0,104,0.443,0.759,0.308,25,40,18,0021400416,1610612750,MIN,Minnesota,Gorgui Dieng,C,,36:06,4,2,0,8,12,11,6,40,4,0,3,4
0021400416,1610612750,MIN,Minnesota,203476,Gorgui Dieng,C,,36:06,107.9,114.5,-6.6,0.083,1.0,11.4,0.097,0.267,0.18,11.4,0.6,0.74,0.171,104.62,0.188,2014-12-23T00:00:00,1,1610612739,CLE,Cleveland,17-10,27,37,32,29,0,0,0,0,0,0,0,0,0,0,125,0.524,0.806,0.5,24,38,17,0021400416,1610612750,MIN,Minnesota,Gorgui Dieng,C,,36:06,4,2,0,8,12,11,6,40,4,0,3,4
0021400416,1610612750,MIN,Minnesota,203952,Andrew Wiggins,G,,36:47,99.7,129.3,-29.6,0.095,0.67,8.2,0.029,0.038,0.033,12.2,0.656,0.692,0.244,104.19,0.123,2014-12-23T00:00:00,1,1610612750,MIN,Minnesota,5-22,26,30,23,25,0,0,0,0,0,0,0,0,0,0,104,0.443,0.759,0.308,25,40,18,0021400416,1610612750,MIN,Minnesota,Andrew Wiggins,G,,36:47,4,3,1,12,14,11,13,44,1,1,1,6
0021400416,1610612750,MIN,Minnesota,203952,Andrew Wiggins,G,,36:47,99.7,129.3,-29.6,0.095,0.67,8.2,0.029,0.038,0.033,12.2,0.656,0.692,0.244,104.19,0.123,2014-12-23T00:00:00,1,1610612739,CLE,Cleveland,17-10,27,37,32,29,0,0,0,0,0,0,0,0,0,0,125,0.524,0.806,0.5,24,38,17,0021400416,1610612750,MIN,Minnesota,Andrew Wiggins,G,,36:47,4,3,1,12,14,11,13,44,1,1,1,6
0021400416,1610612750,MIN,Minnesota,203897,Zach LaVine,G,,26:02,104.1,123.4,-19.3,0.3,2.0,38.9,0.0,0.063,0.027,19.4,0.5,0.466,0.151,100.67,0.056,2014-12-23T00:00:00,1,1610612750,MIN,Minnesota,5-22,26,30,23,25,0,0,0,0,0,0,0,0,0,0,104,0.443,0.759,0.308,25,40,18,0021400416,1610612750,MIN,Minnesota,Zach LaVine,G,,26:02,0,0,0,2,11,11,8,28,0,0,4,1
0021400416,1610612750,MIN,Minnesota,203897,Zach LaVine,G,,26:02,104.1,123.4,-19.3,0.3,2.0,38.9,0.0,0.063,0.027,19.4,0.5,0.466,0.151,100.67,0.056,2014-12-23T00:00:00,1,1610612739,CLE,Cleveland,17-10,27,37,32,29,0,0,0,0,0,0,0,0,0,0,125,0.524,0.806,0.5,24,38,17,0021400416,1610612750,MIN,Minnesota,Zach LaVine,G,,26:02,0,0,0,2,11,11,8,28,0,0,4,1
0021400416,1610612750,MIN,Minnesota,201978,Chase Budinger,,,17:39,96.6,113.0,-16.4,0.1,0.5,12.7,0.0,0.294,0.156,25.4,0.625,0.717,0.159,104.87,0.081,2014-12-23T00:00:00,1,1610612750,MIN,Minnesota,5-22,26,30,23,25,0,0,0,0,0,0,0,0,0,0,104,0.443,0.759,0.308,25,40,18,0021400416,1610612750,MIN,Minnesota,Chase Budinger,,,17:39,2,0,0,0,9,2,5,18,0,0,4,1
0021400416,1610612750,MIN,Minnesota,201978,Chase Budinger,,,17:39,96.6,113.0,-16.4,0.1,0.5,12.7,0.0,0.294,0.156,25.4,0.625,0.717,0.159,104.87,0.081,2014-12-23T00:00:00,1,1610612739,CLE,Cleveland,17-10,27,37,32,29,0,0,0,0,0,0,0,0,0,0,125,0.524,0.806,0.5,24,38,17,0021400416,1610612750,MIN,Minnesota,Chase Budinger,,,17:39,2,0,0,0,9,2,5,18,0,0,4,1
0021400416,1610612750,MIN,Minnesota,2590,Mo Williams,,,21:58,97.8,120.0,-22.2,0.538,3.5,41.2,0.0,0.1,0.049,11.8,0.375,0.375,0.178,105.1,0.114,2014-12-23T00:00:00,1,1610612750,MIN,Minnesota,5-22,26,30,23,25,0,0,0,0,0,0,0,0,0,0,104,0.443,0.759,0.308,25,40,18,0021400416,1610612750,MIN,Minnesota,Mo Williams,,,21:58,2,0,0,2,9,2,8,24,1,0,0,2
0021400416,1610612750,MIN,Minnesota,2590,Mo Williams,,,21:58,97.8,120.0,-22.2,0.538,3.5,41.2,0.0,0.1,0.049,11.8,0.375,0.375,0.178,105.1,0.114,2014-12-23T00:00:00,1,1610612739,CLE,Cleveland,17-10,27,37,32,29,0,0,0,0,0,0,0,0,0,0,125,0.524,0.806,0.5,24,38,17,0021400416,1610612750,MIN,Minnesota,Mo Williams,,,21:58,2,0,0,2,9,2,8,24,1,0,0,2
0021400416,1610612750,MIN,Minnesota,203461,Anthony Bennett,,,11:30,64.6,152.1,-87.4,0.167,0.5,14.3,0.077,0.286,0.15,28.6,0.0,0.0,0.216,110.69,-0.158,2014-12-23T00:00:00,1,1610612750,MIN,Minnesota,5-22,26,30,23,25,0,0,0,0,0,0,0,0,0,0,104,0.443,0.759,0.308,25,40,18,0021400416,1610612750,MIN,Minnesota,Anthony Bennett,,,11:30,0,0,0,0,8,3,7,18,0,0,5,0
0021400416,1610612750,MIN,Minnesota,203461,Anthony Bennett,,,11:30,64.6,152.1,-87.4,0.167,0.5,14.3,0.077,0.286,0.15,28.6,0.0,0.0,0.216,110.69,-0.158,2014-12-23T00:00:00,1,1610612739,CLE,Cleveland,17-10,27,37,32,29,0,0,0,0,0,0,0,0,0,0,125,0.524,0.806,0.5,24,38,17,0021400416,1610612750,MIN,Minnesota,Anthony Bennett,,,11:30,0,0,0,0,8,3,7,18,0,0,5,0
0021400416,1610612750,MIN,Minnesota,202399,Jeff Adrien,,,11:54,80.4,146.8,-66.4,0.125,0.0,33.3,0.182,0.167,0.176,0.0,0.5,0.5,0.072,96.89,0.045,2014-12-23T00:00:00,1,1610612750,MIN,Minnesota,5-22,26,30,23,25,0,0,0,0,0,0,0,0,0,0,104,0.443,0.759,0.308,25,40,18,0021400416,1610612750,MIN,Minnesota,Jeff Adrien,,,11:54,0,2,0,2,8,2,10,12,0,1,2,1
0021400416,1610612750,MIN,Minnesota,202399,Jeff Adrien,,,11:54,80.4,146.8,-66.4,0.125,0.0,33.3,0.182,0.167,0.176,0.0,0.5,0.5,0.072,96.89,0.045,2014-12-23T00:00:00,1,1610612739,CLE,Cleveland,17-10,27,37,32,29,0,0,0,0,0,0,0,0,0,0,125,0.524,0.806,0.5,24,38,17,0021400416,1610612750,MIN,Minnesota,Jeff Adrien,,,11:54,0,2,0,2,8,2,10,12,0,1,2,1
0021400416,1610612750,MIN,Minnesota,203584,Troy Daniels,,,5:13,103.4,111.3,-8.0,0.0,0.0,0.0,0.0,0.0,0.0,0.0,0.0,0.0,0.094,94.41,-0.053,2014-12-23T00:00:00,1,1610612750,MIN,Minnesota,5-22,26,30,23,25,0,0,0,0,0,0,0,0,0,0,104,0.443,0.759,0.308,25,40,18,0021400416,1610612750,MIN,Minnesota,Troy Daniels,,,5:13,0,0,0,0,3,2,0,2,0,0,0,0
0021400416,1610612750,MIN,Minnesota,203584,Troy Daniels,,,5:13,103.4,111.3,-8.0,0.0,0.0,0.0,0.0,0.0,0.0,0.0,0.0,0.0,0.094,94.41,-0.053,2014-12-23T00:00:00,1,1610612739,CLE,Cleveland,17-10,27,37,32,29,0,0,0,0,0,0,0,0,0,0,125,0.524,0.806,0.5,24,38,17,0021400416,1610612750,MIN,Minnesota,Troy Daniels,,,5:13,0,0,0,0,3,2,0,2,0,0,0,0
0021400416,1610612750,MIN,Minnesota,203133,Robbie Hummel,,,4:32,114.1,101.4,12.8,1.0,0.0,33.3,0.0,0.333,0.167,0.0,1.0,1.0,0.207,98.05,0.353,2014-12-23T00:00:00,1,1610612750,MIN,Minnesota,5-22,26,30,23,25,0,0,0,0,0,0,0,0,0,0,104,0.443,0.759,0.308,25,40,18,0021400416,1610612750,MIN,Minnesota,Robbie Hummel,,,4:32,4,0,2,2,3,2,0,0,0,0,0,0
0021400416,1610612750,MIN,Minnesota,203133,Robbie Hummel,,,4:32,114.1,101.4,12.8,1.0,0.0,33.3,0.0,0.333,0.167,0.0,1.0,1.0,0.207,98.05,0.353,2014-12-23T00:00:00,1,1610612739,CLE,Cleveland,17-10,27,37,32,29,0,0,0,0,0,0,0,0,0,0,125,0.524,0.806,0.5,24,38,17,0021400416,1610612750,MIN,Minnesota,Robbie Hummel,,,4:32,4,0,2,2,3,2,0,0,0,0,0,0
0021400416,1610612750,MIN,Minnesota,203922,Glenn Robinson III,,,3:36,103.6,114.3,-10.7,0.0,0.0,0.0,0.0,0.0,0.0,53.2,0.0,0.568,0.278,91.73,-0.069,2014-12-23T00:00:00,1,1610612750,MIN,Minnesota,5-22,26,30,23,25,0,0,0,0,0,0,0,0,0,0,104,0.443,0.759,0.308,25,40,18,0021400416,1610612750,MIN,Minnesota,Glenn Robinson III,,,3:36,0,0,0,0,3,2,0,0,0,0,0,1
0021400416,1610612750,MIN,Minnesota,203922,Glenn Robinson III,,,3:36,103.6,114.3,-10.7,0.0,0.0,0.0,0.0,0.0,0.0,53.2,0.0,0.568,0.278,91.73,-0.069,2014-12-23T00:00:00,1,1610612739,CLE,Cleveland,17-10,27,37,32,29,0,0,0,0,0,0,0,0,0,0,125,0.524,0.806,0.5,24,38,17,0021400416,1610612750,MIN,Minnesota,Glenn Robinson III,,,3:36,0,0,0,0,3,2,0,0,0,0,0,1
0021400416,1610612739,CLE,Cleveland,2544,LeBron James,F,,34:38,125.2,98.0,27.2,0.12,1.5,12.9,0.0,0.125,0.07,8.6,0.625,0.659,0.236,105.44,0.135,2014-12-23T00:00:00,1,1610612750,MIN,Minnesota,5-22,26,30,23,25,0,0,0,0,0,0,0,0,0,0,104,0.443,0.759,0.308,25,40,18,0021400416,1610612739,CLE,Cleveland,LeBron James,F,,34:38,2,2,4,8,14,11,3,38,3,1,3,5
0021400416,1610612739,CLE,Cleveland,2544,LeBron James,F,,34:38,125.2,98.0,27.2,0.12,1.5,12.9,0.0,0.125,0.07,8.6,0.625,0.659,0.236,105.44,0.135,2014-12-23T00:00:00,1,1610612739,CLE,Cleveland,17-10,27,37,32,29,0,0,0,0,0,0,0,0,0,0,125,0.524,0.806,0.5,24,38,17,0021400416,1610612739,CLE,Cleveland,LeBron James,F,,34:38,2,2,4,8,14,11,3,38,3,1,3,5
0021400416,1610612739,CLE,Cleveland,201567,Kevin Love,F,,35:54,122.5,96.4,26.0,0.148,2.0,18.3,0.107,0.206,0.161,9.2,0.5,0.631,0.206,101.24,0.157,2014-12-23T00:00:00,1,1610612750,MIN,Minnesota,5-22,26,30,23,25,0,0,0,0,0,0,0,0,0,0,104,0.443,0.759,0.308,25,40,18,0021400416,1610612739,CLE,Cleveland,Kevin Love,F,,35:54,2,3,0,8,16,15,4,34,0,2,2,7
0021400416,1610612739,CLE,Cleveland,201567,Kevin Love,F,,35:54,122.5,96.4,26.0,0.148,2.0,18.3,0.107,0.206,0.161,9.2,0.5,0.631,0.206,101.24,0.157,2014-12-23T00:00:00,1,1610612739,CLE,Cleveland,17-10,27,37,32,29,0,0,0,0,0,0,0,0,0,0,125,0.524,0.806,0.5,24,38,17,0021400416,1610612739,CLE,Cleveland,Kevin Love,F,,35:54,2,3,0,8,16,15,4,34,0,2,2,7
0021400416,1610612739,CLE,Cleveland,2760,Anderson Varejao,C,,17:02,108.5,115.8,-7.4,0.091,0.0,16.7,0.286,0.143,0.214,0.0,0.6,0.6,0.122,100.55,0.116,2014-12-23T00:00:00,1,1610612750,MIN,Minnesota,5-22,26,30,23,25,0,0,0,0,0,0,0,0,0,0,104,0.443,0.759,0.308,25,40,18,0021400416,1610612739,CLE,Cleveland,Anderson Varejao,C,,17:02,0,2,0,6,4,4,2,20,0,0,2,1
0021400416,1610612739,CLE,Cleveland,2760,Anderson Varejao,C,,17:02,108.5,115.8,-7.4,0.091,0.0,16.7,0.286,0.143,0.214,0.0,0.6,0.6,0.122,100.55,0.116,2014-12-23T00:00:00,1,1610612739,CLE,Cleveland,17-10,27,37,32,29,0,0,0,0,0,0,0,0,0,0,125,0.524,0.806,0.5,24,38,17,0021400416,1610612739,CLE,Cleveland,Anderson Varejao,C,,17:02,0,2,0,6,4,4,2,20,0,0,2,1
0021400416,1610612739,CLE,Cleveland,2034,Mike Miller,G,,8:12,90.7,117.3,-26.6,0.2,0.0,50.0,0.0,0.0,0.0,0.0,0.0,0.0,0.054,106.54,-0.105,2014-12-23T00:00:00,1,1610612750,MIN,Minnesota,5-22,26,30,23,25,0,0,0,0,0,0,0,0,0,0,104,0.443,0.759,0.308,25,40,18,0021400416,1610612739,CLE,Cleveland,Mike Miller,G,,8:12,0,0,0,0,2,0,0,12,0,0,3,0
0021400416,1610612739,CLE,Cleveland,2034,Mike Miller,G,,8:12,90.7,117.3,-26.6,0.2,0.0,50.0,0.0,0.0,0.0,0.0,0.0,0.0,0.054,106.54,-0.105,2014-12-23T00:00:00,1,1610612739,CLE,Cleveland,17-10,27,37,32,29,0,0,0,0,0,0,0,0,0,0,125,0.524,0.806,0.5,24,38,17,0021400416,1610612739,CLE,Cleveland,Mike Miller,G,,8:12,0,0,0,0,2,0,0,12,0,0,3,0
0021400416,1610612739,CLE,Cleveland,202681,Kyrie Irving,G,,36:57,122.6,113.2,9.4,0.182,0.67,13.2,0.0,0.0,0.0,19.8,0.684,0.714,0.312,97.01,0.128,2014-12-23T00:00:00,1,1610612750,MIN,Minnesota,5-22,26,30,23,25,0,0,0,0,0,0,0,0,0,0,104,0.443,0.759,0.308,25,40,18,0021400416,1610612739,CLE,Cleveland,Kyrie Irving,G,,36:57,6,0,2,12,14,14,3,40,0,1,4,2
0021400416,1610612739,CLE,Cleveland,202681,Kyrie Irving,G,,36:57,122.6,113.2,9.4,0.182,0.67,13.2,0.0,0.0,0.0,19.8,0.684,0.714,0.312,97.01,0.128,2014-12-23T00:00:00,1,1610612739,CLE,Cleveland,17-10,27,37,32,29,0,0,0,0,0,0,0,0,0,0,125,0.524,0.806,0.5,24,38,17,0021400416,1610612739,CLE,Cleveland,Kyrie Irving,G,,36:57,6,0,2,12,14,14,3,40,0,1,4,2
0021400416,1610612739,CLE,Cleveland,203079,Dion Waiters,,,27:28,127.2,93.0,34.2,0.182,1.0,17.0,0.0,0.077,0.042,17.0,0.5,0.612,0.287,106.92,0.131,2014-12-23T00:00:00,1,1610612750,MIN,Minnesota,5-22,26,30,23,25,0,0,0,0,0,0,0,0,0,0,104,0.443,0.759,0.308,25,40,18,0021400416,1610612739,CLE,Cleveland,Dion Waiters,,,27:28,5,0,7,4,8,11,4,20,0,3,2,6
0021400416,1610612739,CLE,Cleveland,203079,Dion Waiters,,,27:28,127.2,93.0,34.2,0.182,1.0,17.0,0.0,0.077,0.042,17.0,0.5,0.612,0.287,106.92,0.131,2014-12-23T00:00:00,1,1610612739,CLE,Cleveland,17-10,27,37,32,29,0,0,0,0,0,0,0,0,0,0,125,0.524,0.806,0.5,24,38,17,0021400416,1610612739,CLE,Cleveland,Dion Waiters,,,27:28,5,0,7,4,8,11,4,20,0,3,2,6
0021400416,1610612739,CLE,Cleveland,202684,Tristan Thompson,,,26:52,132.9,92.0,41.0,0.0,0.0,0.0,0.158,0.24,0.205,17.0,0.5,0.512,0.091,104.87,0.089,2014-12-23T00:00:00,1,1610612750,MIN,Minnesota,5-22,26,30,23,25,0,0,0,0,0,0,0,0,0,0,104,0.443,0.759,0.308,25,40,18,0021400416,1610612739,CLE,Cleveland,Tristan Thompson,,,26:52,0,2,1,4,14,13,2,26,0,1,0,1
0021400416,1610612739,CLE,Cleveland,202684,Tristan Thompson,,,26:52,132.9,92.0,41.0,0.0,0.0,0.0,0.158,0.24,0.205,17.0,0.5,0.512,0.091,104.87,0.089,2014-12-23T00:00:00,1,1610612739,CLE,Cleveland,17-10,27,37,32,29,0,0,0,0,0,0,0,0,0,0,125,0.524,0.806,0.5,24,38,17,0021400416,1610612739,CLE,Cleveland,Tristan Thompson,,,26:52,0,2,1,4,14,13,2,26,0,1,0,1
0021400416,1610612739,CLE,Cleveland,203521,Matthew Dellavedova,,,13:28,107.5,89.2,18.3,0.273,3.0,33.3,0.071,0.0,0.036,11.1,0.3,0.3,0.173,110.35,-0.011,2014-12-23T00:00:00,1,1610612750,MIN,Minnesota,5-22,26,30,23,25,0,0,0,0,0,0,0,0,0,0,104,0.443,0.759,0.308,25,40,18,0021400416,1610612739,CLE,Cleveland,Matthew Dellavedova,,,13:28,0,0,0,0,10,7,4,12,0,0,3,0
0021400416,1610612739,CLE,Cleveland,203521,Matthew Dellavedova,,,13:28,107.5,89.2,18.3,0.273,3.0,33.3,0.071,0.0,0.036,11.1,0.3,0.3,0.173,110.35,-0.011,2014-12-23T00:00:00,1,1610612739,CLE,Cleveland,17-10,27,37,32,29,0,0,0,0,0,0,0,0,0,0,125,0.524,0.806,0.5,24,38,17,0021400416,1610612739,CLE,Cleveland,Matthew Dellavedova,,,13:28,0,0,0,0,10,7,4,12,0,0,3,0
0021400416,1610612739,CLE,Cleveland,1890,Shawn Marion,,,25:51,129.0,108.8,20.3,0.1,0.0,20.2,0.067,0.12,0.1,0.0,0.714,0.698,0.132,104.28,0.118,2014-12-23T00:00:00,1,1610612750,MIN,Minnesota,5-22,26,30,23,25,0,0,0,0,0,0,0,0,0,0,104,0.443,0.759,0.308,25,40,18,0021400416,1610612739,CLE,Cleveland,Shawn Marion,,,25:51,2,2,2,10,12,10,0,30,3,1,2,1
0021400416,1610612739,CLE,Cleveland,1890,Shawn Marion,,,25:51,129.0,108.8,20.3,0.1,0.0,20.2,0.067,0.12,0.1,0.0,0.714,0.698,0.132,104.28,0.118,2014-12-23T00:00:00,1,1610612739,CLE,Cleveland,17-10,27,37,32,29,0,0,0,0,0,0,0,0,0,0,125,0.524,0.806,0.5,24,38,17,0021400416,1610612739,CLE,Cleveland,Shawn Marion,,,25:51,2,2,2,10,12,10,0,30,3,1,2,1
0021400416,1610612739,CLE,Cleveland,2217,Brendan Haywood,,,4:06,100.0,104.2,-4.2,0.0,0.0,0.0,0.0,0.0,0.0,50.0,1.0,1.0,0.222,97.4,0.0,2014-12-23T00:00:00,1,1610612750,MIN,Minnesota,5-22,26,30,23,25,0,0,0,0,0,0,0,0,0,0,104,0.443,0.759,0.308,25,40,18,0021400416,1610612739,CLE,Cleveland,Brendan Haywood,,,4:06,0,2,0,0,4,0,2,2,0,0,1,0
0021400416,1610612739,CLE,Cleveland,2217,Brendan Haywood,,,4:06,100.0,104.2,-4.2,0.0,0.0,0.0,0.0,0.0,0.0,50.0,1.0,1.0,0.222,97.4,0.0,2014-12-23T00:00:00,1,1610612739,CLE,Cleveland,17-10,27,37,32,29,0,0,0,0,0,0,0,0,0,0,125,0.524,0.806,0.5,24,38,17,0021400416,1610612739,CLE,Cleveland,Brendan Haywood,,,4:06,0,2,0,0,4,0,2,2,0,0,1,0
0021400416,1610612739,CLE,Cleveland,2592,James Jones,,,3:36,114.3,103.6,10.7,1.0,0.0,50.0,0.0,0.5,0.2,0.0,0.75,0.75,0.25,91.73,0.345,2014-12-23T00:00:00,1,1610612750,MIN,Minnesota,5-22,26,30,23,25,0,0,0,0,0,0,0,0,0,0,104,0.443,0.759,0.308,25,40,18,0021400416,1610612739,CLE,Cleveland,James Jones,,,3:36,0,0,0,0,4,0,2,2,0,0,0,0
0021400416,1610612739,CLE,Cleveland,2592,James Jones,,,3:36,114.3,103.6,10.7,1.0,0.0,50.0,0.0,0.5,0.2,0.0,0.75,0.75,0.25,91.73,0.345,2014-12-23T00:00:00,1,1610612739,CLE,Cleveland,17-10,27,37,32,29,0,0,0,0,0,0,0,0,0,0,125,0.524,0.806,0.5,24,38,17,0021400416,1610612739,CLE,Cleveland,James Jones,,,3:36,0,0,0,0,4,0,2,2,0,0,0,0
0021400416,1610612739,CLE,Cleveland,203925,Joe Harris,,,3:12,133.3,85.0,48.3,0.0,0.0,0.0,0.0,0.0,0.0,0.0,1.5,1.5,0.143,89.1,0.148,2014-12-23T00:00:00,1,1610612750,MIN,Minnesota,5-22,26,30,23,25,0,0,0,0,0,0,0,0,0,0,104,0.443,0.759,0.308,25,40,18,0021400416,1610612739,CLE,Cleveland,Joe Harris,,,3:12,3,0,0,0,4,0,2,2,0,0,1,0
0021400416,1610612739,CLE,Cleveland,203925,Joe Harris,,,3:12,133.3,85.0,48.3,0.0,0.0,0.0,0.0,0.0,0.0,0.0,1.5,1.5,0.143,89.1,0.148,2014-12-23T00:00:00,1,1610612739,CLE,Cleveland,17-10,27,37,32,29,0,0,0,0,0,0,0,0,0,0,125,0.524,0.806,0.5,24,38,17,0021400416,1610612739,CLE,Cleveland,Joe Harris,,,3:12,3,0,0,0,4,0,2,2,0,0,1,0
0021400416,1610612739,CLE,Cleveland,201985,AJ Price,,,2:44,100.0,80.0,20.0,0.0,0.0,0.0,0.0,0.5,0.25,0.0,0.0,0.0,0.0,87.8,0.095,2014-12-23T00:00:00,1,1610612750,MIN,Minnesota,5-22,26,30,23,25,0,0,0,0,0,0,0,0,0,0,104,0.443,0.759,0.308,25,40,18,0021400416,1610612739,CLE,Cleveland,AJ Price,,,2:44,0,0,0,0,4,0,2,2,0,0,0,0
0021400416,1610612739,CLE,Cleveland,201985,AJ Price,,,2:44,100.0,80.0,20.0,0.0,0.0,0.0,0.0,0.5,0.25,0.0,0.0,0.0,0.0,87.8,0.095,2014-12-23T00:00:00,1,1610612739,CLE,Cleveland,17-10,27,37,32,29,0,0,0,0,0,0,0,0,0,0,125,0.524,0.806,0.5,24,38,17,0021400416,1610612739,CLE,Cleveland,AJ Price,,,2:44,0,0,0,0,4,0,2,2,0,0,0,0
