GAME_ID_x,TEAM_ID_x,TEAM_ABBREVIATION_x,TEAM_CITY_x,PLAYER_ID,PLAYER_NAME_x,START_POSITION_x,COMMENT_x,MIN_x,OFF_RATING,DEF_RATING,NET_RATING,AST_PCT,AST_TOV,AST_RATIO,OREB_PCT,DREB_PCT,REB_PCT,TM_TOV_PCT,EFG_PCT,TS_PCT,USG_PCT,PACE,PIE,GAME_DATE_EST,GAME_SEQUENCE,TEAM_ID_y,TEAM_ABBREVIATION_y,TEAM_CITY_NAME,TEAM_WINS_LOSSES,PTS_QTR1,PTS_QTR2,PTS_QTR3,PTS_QTR4,PTS_OT1,PTS_OT2,PTS_OT3,PTS_OT4,PTS_OT5,PTS_OT6,PTS_OT7,PTS_OT8,PTS_OT9,PTS_OT10,PTS,FG_PCT,FT_PCT,FG3_PCT,AST,REB,TOV,GAME_ID_y,TEAM_ID,TEAM_ABBREVIATION,TEAM_CITY_y,PLAYER_NAME_y,START_POSITION_y,COMMENT_y,MIN_y,PTS_OFF_TOV,PTS_2ND_CHANCE,PTS_FB,PTS_PAINT,OPP_PTS_OFF_TOV,OPP_PTS_2ND_CHANCE,OPP_PTS_FB,OPP_PTS_PAINT,BLK,BLKA,PF,PFD
0021400426,1610612744,GSW,Golden State,203084,Harrison Barnes,F,,27:31,100.8,121.2,-20.3,0.0,0.0,0.0,0.115,0.05,0.087,0.0,0.417,0.417,0.093,99.67,0.017,2014-12-23T00:00:00,11,1610612744,GSW,Golden State,23-4,24,24,25,32,0,0,0,0,0,0,0,0,0,0,105,0.464,0.882,0.462,20,39,19,0021400426,1610612744,GSW,Golden State,Harrison Barnes,F,,27:31,0.0,0.0,0.0,2.0,17.0,4.0,8.0,34.0,1.0,2.0,2.0,2.0
0021400426,1610612744,GSW,Golden State,203084,Harrison Barnes,F,,27:31,100.8,121.2,-20.3,0.0,0.0,0.0,0.115,0.05,0.087,0.0,0.417,0.417,0.093,99.67,0.017,2014-12-23T00:00:00,11,1610612747,LAL,Los Angeles,9-19,34,29,32,20,0,0,0,0,0,0,0,0,0,0,115,0.517,0.647,0.462,28,42,16,0021400426,1610612744,GSW,Golden State,Harrison Barnes,F,,27:31,0.0,0.0,0.0,2.0,17.0,4.0,8.0,34.0,1.0,2.0,2.0,2.0
0021400426,1610612744,GSW,Golden State,203110,Draymond Green,F,,23:25,98.7,122.2,-23.6,0.118,2.0,22.2,0.0,0.176,0.083,11.1,0.167,0.167,0.138,96.63,-0.01,2014-12-23T00:00:00,11,1610612744,GSW,Golden State,23-4,24,24,25,32,0,0,0,0,0,0,0,0,0,0,105,0.464,0.882,0.462,20,39,19,0021400426,1610612744,GSW,Golden State,Draymond Green,F,,23:25,0.0,0.0,0.0,2.0,13.0,6.0,6.0,26.0,0.0,1.0,2.0,0.0
0021400426,1610612744,GSW,Golden State,203110,Draymond Green,F,,23:25,98.7,122.2,-23.6,0.118,2.0,22.2,0.0,0.176,0.083,11.1,0.167,0.167,0.138,96.63,-0.01,2014-12-23T00:00:00,11,1610612747,LAL,Los Angeles,9-19,34,29,32,20,0,0,0,0,0,0,0,0,0,0,115,0.517,0.647,0.462,28,42,16,0021400426,1610612744,GSW,Golden State,Draymond Green,F,,23:25,0.0,0.0,0.0,2.0,13.0,6.0,6.0,26.0,0.0,1.0,2.0,0.0
0021400426,1610612744,GSW,Golden State,203105,Festus Ezeli,C,,13:54,97.1,119.6,-22.6,0.125,1.0,9.2,0.111,0.0,0.083,9.2,0.5,0.563,0.275,106.43,0.093,2014-12-23T00:00:00,11,1610612744,GSW,Golden State,23-4,24,24,25,32,0,0,0,0,0,0,0,0,0,0,105,0.464,0.882,0.462,20,39,19,0021400426,1610612744,GSW,Golden State,Festus Ezeli,C,,13:54,2.0,2.0,0.0,8.0,8.0,4.0,6.0,22.0,0.0,2.0,1.0,1.0
0021400426,1610612744,GSW,Golden State,203105,Festus Ezeli,C,,13:54,97.1,119.6,-22.6,0.125,1.0,9.2,0.111,0.0,0.083,9.2,0.5,0.563,0.275,106.43,0.093,2014-12-23T00:00:00,11,1610612747,LAL,Los Angeles,9-19,34,29,32,20,0,0,0,0,0,0,0,0,0,0,115,0.517,0.647,0.462,28,42,16,0021400426,1610612744,GSW,Golden State,Festus Ezeli,C,,13:54,2.0,2.0,0.0,8.0,8.0,4.0,6.0,22.0,0.0,2.0,1.0,1.0
0021400426,1610612744,GSW,Golden State,202691,Klay Thompson,G,,30:06,107.2,135.5,-28.3,0.05,1.0,5.6,0.034,0.125,0.067,5.6,0.533,0.567,0.239,101.65,0.078,2014-12-23T00:00:00,11,1610612744,GSW,Golden State,23-4,24,24,25,32,0,0,0,0,0,0,0,0,0,0,105,0.464,0.882,0.462,20,39,19,0021400426,1610612744,GSW,Golden State,Klay Thompson,G,,30:06,3.0,2.0,0.0,2.0,23.0,9.0,8.0,42.0,1.0,1.0,1.0,1.0
0021400426,1610612744,GSW,Golden State,202691,Klay Thompson,G,,30:06,107.2,135.5,-28.3,0.05,1.0,5.6,0.034,0.125,0.067,5.6,0.533,0.567,0.239,101.65,0.078,2014-12-23T00:00:00,11,1610612747,LAL,Los Angeles,9-19,34,29,32,20,0,0,0,0,0,0,0,0,0,0,115,0.517,0.647,0.462,28,42,16,0021400426,1610612744,GSW,Golden State,Klay Thompson,G,,30:06,3.0,2.0,0.0,2.0,23.0,9.0,8.0,42.0,1.0,1.0,1.0,1.0
0021400426,1610612744,GSW,Golden State,201939,Stephen Curry,G,,29:58,117.1,131.7,-14.6,0.333,0.86,22.2,0.0,0.125,0.048,25.9,0.786,0.786,0.306,97.84,0.143,2014-12-23T00:00:00,11,1610612744,GSW,Golden State,23-4,24,24,25,32,0,0,0,0,0,0,0,0,0,0,105,0.464,0.882,0.462,20,39,19,0021400426,1610612744,GSW,Golden State,Stephen Curry,G,,29:58,7.0,0.0,4.0,10.0,17.0,6.0,8.0,42.0,0.0,0.0,0.0,1.0
0021400426,1610612744,GSW,Golden State,201939,Stephen Curry,G,,29:58,117.1,131.7,-14.6,0.333,0.86,22.2,0.0,0.125,0.048,25.9,0.786,0.786,0.306,97.84,0.143,2014-12-23T00:00:00,11,1610612747,LAL,Los Angeles,9-19,34,29,32,20,0,0,0,0,0,0,0,0,0,0,115,0.517,0.647,0.462,28,42,16,0021400426,1610612744,GSW,Golden State,Stephen Curry,G,,29:58,7.0,0.0,4.0,10.0,17.0,6.0,8.0,42.0,0.0,0.0,0.0,1.0
0021400426,1610612744,GSW,Golden State,201578,Marreese Speights,,,20:12,130.0,125.5,4.5,0.111,1.0,16.7,0.091,0.235,0.179,16.7,0.375,0.375,0.229,95.76,0.015,2014-12-23T00:00:00,11,1610612744,GSW,Golden State,23-4,24,24,25,32,0,0,0,0,0,0,0,0,0,0,105,0.464,0.882,0.462,20,39,19,0021400426,1610612744,GSW,Golden State,Marreese Speights,,,20:12,2.0,2.0,0.0,6.0,8.0,7.0,0.0,20.0,0.0,2.0,4.0,1.0
0021400426,1610612744,GSW,Golden State,201578,Marreese Speights,,,20:12,130.0,125.5,4.5,0.111,1.0,16.7,0.091,0.235,0.179,16.7,0.375,0.375,0.229,95.76,0.015,2014-12-23T00:00:00,11,1610612747,LAL,Los Angeles,9-19,34,29,32,20,0,0,0,0,0,0,0,0,0,0,115,0.517,0.647,0.462,28,42,16,0021400426,1610612744,GSW,Golden State,Marreese Speights,,,20:12,2.0,2.0,0.0,6.0,8.0,7.0,0.0,20.0,0.0,2.0,4.0,1.0
0021400426,1610612744,GSW,Golden State,2738,Andre Iguodala,,,15:04,73.0,129.1,-56.2,0.0,0.0,0.0,0.0,0.0,0.0,42.9,0.375,0.375,0.209,98.32,-0.087,2014-12-23T00:00:00,11,1610612744,GSW,Golden State,23-4,24,24,25,32,0,0,0,0,0,0,0,0,0,0,105,0.464,0.882,0.462,20,39,19,0021400426,1610612744,GSW,Golden State,Andre Iguodala,,,15:04,0.0,0.0,0.0,0.0,8.0,7.0,0.0,12.0,0.0,0.0,1.0,1.0
0021400426,1610612744,GSW,Golden State,2738,Andre Iguodala,,,15:04,73.0,129.1,-56.2,0.0,0.0,0.0,0.0,0.0,0.0,42.9,0.375,0.375,0.209,98.32,-0.087,2014-12-23T00:00:00,11,1610612747,LAL,Los Angeles,9-19,34,29,32,20,0,0,0,0,0,0,0,0,0,0,115,0.517,0.647,0.462,28,42,16,0021400426,1610612744,GSW,Golden State,Andre Iguodala,,,15:04,0.0,0.0,0.0,0.0,8.0,7.0,0.0,12.0,0.0,0.0,1.0,1.0
0021400426,1610612744,GSW,Golden State,101135,David Lee,,,18:03,90.1,102.8,-12.7,0.125,1.0,8.5,0.0,0.318,0.194,8.5,0.5,0.615,0.257,100.79,0.268,2014-12-23T00:00:00,11,1610612744,GSW,Golden State,23-4,24,24,25,32,0,0,0,0,0,0,0,0,0,0,105,0.464,0.882,0.462,20,39,19,0021400426,1610612744,GSW,Golden State,David Lee,,,18:03,2.0,0.0,0.0,8.0,6.0,9.0,0.0,16.0,0.0,1.0,1.0,2.0
0021400426,1610612744,GSW,Golden State,101135,David Lee,,,18:03,90.1,102.8,-12.7,0.125,1.0,8.5,0.0,0.318,0.194,8.5,0.5,0.615,0.257,100.79,0.268,2014-12-23T00:00:00,11,1610612747,LAL,Los Angeles,9-19,34,29,32,20,0,0,0,0,0,0,0,0,0,0,115,0.517,0.647,0.462,28,42,16,0021400426,1610612744,GSW,Golden State,David Lee,,,18:03,2.0,0.0,0.0,8.0,6.0,9.0,0.0,16.0,0.0,1.0,1.0,2.0
0021400426,1610612744,GSW,Golden State,2733,Shaun Livingston,,,17:11,81.9,116.0,-34.1,0.273,3.0,38.7,0.063,0.056,0.059,12.9,0.5,0.665,0.114,102.96,0.105,2014-12-23T00:00:00,11,1610612744,GSW,Golden State,23-4,24,24,25,32,0,0,0,0,0,0,0,0,0,0,105,0.464,0.882,0.462,20,39,19,0021400426,1610612744,GSW,Golden State,Shaun Livingston,,,17:11,3.0,2.0,1.0,0.0,6.0,9.0,2.0,18.0,0.0,0.0,1.0,2.0
0021400426,1610612744,GSW,Golden State,2733,Shaun Livingston,,,17:11,81.9,116.0,-34.1,0.273,3.0,38.7,0.063,0.056,0.059,12.9,0.5,0.665,0.114,102.96,0.105,2014-12-23T00:00:00,11,1610612747,LAL,Los Angeles,9-19,34,29,32,20,0,0,0,0,0,0,0,0,0,0,115,0.517,0.647,0.462,28,42,16,0021400426,1610612744,GSW,Golden State,Shaun Livingston,,,17:11,3.0,2.0,1.0,0.0,6.0,9.0,2.0,18.0,0.0,0.0,1.0,2.0
0021400426,1610612744,GSW,Golden State,203200,Justin Holiday,,,18:35,100.4,85.4,15.0,0.0,0.0,0.0,0.077,0.15,0.121,12.0,0.667,0.751,0.182,102.65,0.181,2014-12-23T00:00:00,11,1610612744,GSW,Golden State,23-4,24,24,25,32,0,0,0,0,0,0,0,0,0,0,105,0.464,0.882,0.462,20,39,19,0021400426,1610612744,GSW,Golden State,Justin Holiday,,,18:35,2.0,0.0,0.0,2.0,9.0,0.0,2.0,14.0,0.0,0.0,2.0,2.0
0021400426,1610612744,GSW,Golden State,203200,Justin Holiday,,,18:35,100.4,85.4,15.0,0.0,0.0,0.0,0.077,0.15,0.121,12.0,0.667,0.751,0.182,102.65,0.181,2014-12-23T00:00:00,11,1610612747,LAL,Los Angeles,9-19,34,29,32,20,0,0,0,0,0,0,0,0,0,0,115,0.517,0.647,0.462,28,42,16,0021400426,1610612744,GSW,Golden State,Justin Holiday,,,18:35,2.0,0.0,0.0,2.0,9.0,0.0,2.0,14.0,0.0,0.0,2.0,2.0
0021400426,1610612744,GSW,Golden State,2571,Leandro Barbosa,,,13:29,120.6,90.5,30.1,0.2,2.0,22.5,0.286,0.056,0.12,11.3,0.8,0.765,0.228,97.4,0.17,2014-12-23T00:00:00,11,1610612744,GSW,Golden State,23-4,24,24,25,32,0,0,0,0,0,0,0,0,0,0,105,0.464,0.882,0.462,20,39,19,0021400426,1610612744,GSW,Golden State,Leandro Barbosa,,,13:29,4.0,0.0,4.0,0.0,0.0,4.0,0.0,10.0,0.0,1.0,1.0,2.0
0021400426,1610612744,GSW,Golden State,2571,Leandro Barbosa,,,13:29,120.6,90.5,30.1,0.2,2.0,22.5,0.286,0.056,0.12,11.3,0.8,0.765,0.228,97.4,0.17,2014-12-23T00:00:00,11,1610612747,LAL,Los Angeles,9-19,34,29,32,20,0,0,0,0,0,0,0,0,0,0,115,0.517,0.647,0.462,28,42,16,0021400426,1610612744,GSW,Golden State,Leandro Barbosa,,,13:29,4.0,0.0,4.0,0.0,0.0,4.0,0.0,10.0,0.0,1.0,1.0,2.0
0021400426,1610612744,GSW,Golden State,203136,Ognjen Kuzmic,,,6:16,133.8,54.9,78.9,0.2,0.0,50.0,0.0,0.091,0.067,0.0,1.0,1.0,0.066,103.25,0.286,2014-12-23T00:00:00,11,1610612744,GSW,Golden State,23-4,24,24,25,32,0,0,0,0,0,0,0,0,0,0,105,0.464,0.882,0.462,20,39,19,0021400426,1610612744,GSW,Golden State,Ognjen Kuzmic,,,6:16,0.0,0.0,2.0,2.0,0.0,0.0,0.0,2.0,0.0,0.0,0.0,0.0
0021400426,1610612744,GSW,Golden State,203136,Ognjen Kuzmic,,,6:16,133.8,54.9,78.9,0.2,0.0,50.0,0.0,0.091,0.067,0.0,1.0,1.0,0.066,103.25,0.286,2014-12-23T00:00:00,11,1610612747,LAL,Los Angeles,9-19,34,29,32,20,0,0,0,0,0,0,0,0,0,0,115,0.517,0.647,0.462,28,42,16,0021400426,1610612744,GSW,Golden State,Ognjen Kuzmic,,,6:16,0.0,0.0,2.0,2.0,0.0,0.0,0.0,2.0,0.0,0.0,0.0,0.0
0021400426,1610612744,GSW,Golden State,201575,Brandon Rush,,,6:16,133.8,54.9,78.9,0.167,0.0,50.0,0.0,0.273,0.2,0.0,0.0,0.0,0.066,103.25,0.057,2014-12-23T00:00:00,11,1610612744,GSW,Golden State,23-4,24,24,25,32,0,0,0,0,0,0,0,0,0,0,105,0.464,0.882,0.462,20,39,19,0021400426,1610612744,GSW,Golden State,Brandon Rush,,,6:16,0.0,0.0,0.0,0.0,0.0,0.0,0.0,2.0,0.0,0.0,2.0,0.0
0021400426,1610612744,GSW,Golden State,201575,Brandon Rush,,,6:16,133.8,54.9,78.9,0.167,0.0,50.0,0.0,0.273,0.2,0.0,0.0,0.0,0.066,103.25,0.057,2014-12-23T00:00:00,11,1610612747,LAL,Los Angeles,9-19,34,29,32,20,0,0,0,0,0,0,0,0,0,0,115,0.517,0.647,0.462,28,42,16,0021400426,1610612744,GSW,Golden State,Brandon Rush,,,6:16,0.0,0.0,0.0,0.0,0.0,0.0,0.0,2.0,0.0,0.0,2.0,0.0
0021400426,1610612747,LAL,Los Angeles,202325,Wesley Johnson,F,,25:26,128.1,110.3,17.8,0.125,3.0,20.2,0.0,0.12,0.077,6.7,0.6,0.643,0.206,99.46,0.117,2014-12-23T00:00:00,11,1610612744,GSW,Golden State,23-4,24,24,25,32,0,0,0,0,0,0,0,0,0,0,105,0.464,0.882,0.462,20,39,19,0021400426,1610612747,LAL,Los Angeles,Wesley Johnson,F,,25:26,2.0,0.0,2.0,6.0,12.0,4.0,4.0,22.0,0.0,1.0,0.0,2.0
0021400426,1610612747,LAL,Los Angeles,202325,Wesley Johnson,F,,25:26,128.1,110.3,17.8,0.125,3.0,20.2,0.0,0.12,0.077,6.7,0.6,0.643,0.206,99.46,0.117,2014-12-23T00:00:00,11,1610612747,LAL,Los Angeles,9-19,34,29,32,20,0,0,0,0,0,0,0,0,0,0,115,0.517,0.647,0.462,28,42,16,0021400426,1610612747,LAL,Los Angeles,Wesley Johnson,F,,25:26,2.0,0.0,2.0,6.0,12.0,4.0,4.0,22.0,0.0,1.0,0.0,2.0
0021400426,1610612747,LAL,Los Angeles,202334,Ed Davis,F,,20:44,117.3,109.9,7.3,0.143,0.0,22.2,0.154,0.188,0.172,0.0,1.0,1.0,0.153,98.86,0.242,2014-12-23T00:00:00,11,1610612744,GSW,Golden State,23-4,24,24,25,32,0,0,0,0,0,0,0,0,0,0,105,0.464,0.882,0.462,20,39,19,0021400426,1610612747,LAL,Los Angeles,Ed Davis,F,,20:44,4.0,2.0,2.0,12.0,12.0,2.0,4.0,16.0,2.0,0.0,0.0,2.0
0021400426,1610612747,LAL,Los Angeles,202334,Ed Davis,F,,20:44,117.3,109.9,7.3,0.143,0.0,22.2,0.154,0.188,0.172,0.0,1.0,1.0,0.153,98.86,0.242,2014-12-23T00:00:00,11,1610612747,LAL,Los Angeles,9-19,34,29,32,20,0,0,0,0,0,0,0,0,0,0,115,0.517,0.647,0.462,28,42,16,0021400426,1610612747,LAL,Los Angeles,Ed Davis,F,,20:44,4.0,2.0,2.0,12.0,12.0,2.0,4.0,16.0,2.0,0.0,0.0,2.0
0021400426,1610612747,LAL,Los Angeles,201941,Jordan Hill,C,,18:17,108.7,113.5,-4.8,0.063,1.0,11.4,0.083,0.238,0.182,11.4,0.2,0.296,0.186,100.45,0.068,2014-12-23T00:00:00,11,1610612744,GSW,Golden State,23-4,24,24,25,32,0,0,0,0,0,0,0,0,0,0,105,0.464,0.882,0.462,20,39,19,0021400426,1610612747,LAL,Los Angeles,Jordan Hill,C,,18:17,0.0,2.0,0.0,2.0,11.0,6.0,4.0,20.0,4.0,0.0,0.0,3.0
0021400426,1610612747,LAL,Los Angeles,201941,Jordan Hill,C,,18:17,108.7,113.5,-4.8,0.063,1.0,11.4,0.083,0.238,0.182,11.4,0.2,0.296,0.186,100.45,0.068,2014-12-23T00:00:00,11,1610612747,LAL,Los Angeles,9-19,34,29,32,20,0,0,0,0,0,0,0,0,0,0,115,0.517,0.647,0.462,28,42,16,0021400426,1610612747,LAL,Los Angeles,Jordan Hill,C,,18:17,0.0,2.0,0.0,2.0,11.0,6.0,4.0,20.0,4.0,0.0,0.0,3.0
0021400426,1610612747,LAL,Los Angeles,201961,Wayne Ellington,G,,25:11,123.5,110.5,12.9,0.091,0.67,14.3,0.0,0.2,0.122,21.4,0.667,0.667,0.208,97.59,0.101,2014-12-23T00:00:00,11,1610612744,GSW,Golden State,23-4,24,24,25,32,0,0,0,0,0,0,0,0,0,0,105,0.464,0.882,0.462,20,39,19,0021400426,1610612747,LAL,Los Angeles,Wayne Ellington,G,,25:11,2.0,0.0,0.0,4.0,13.0,4.0,5.0,22.0,0.0,1.0,1.0,0.0
0021400426,1610612747,LAL,Los Angeles,201961,Wayne Ellington,G,,25:11,123.5,110.5,12.9,0.091,0.67,14.3,0.0,0.2,0.122,21.4,0.667,0.667,0.208,97.59,0.101,2014-12-23T00:00:00,11,1610612747,LAL,Los Angeles,9-19,34,29,32,20,0,0,0,0,0,0,0,0,0,0,115,0.517,0.647,0.462,28,42,16,0021400426,1610612747,LAL,Los Angeles,Wayne Ellington,G,,25:11,2.0,0.0,0.0,4.0,13.0,4.0,5.0,22.0,0.0,1.0,1.0,0.0
0021400426,1610612747,LAL,Los Angeles,101179,Ronnie Price,G,,30:36,128.4,113.3,15.1,0.308,2.67,36.6,0.05,0.107,0.083,13.7,0.75,0.781,0.199,99.2,0.151,2014-12-23T00:00:00,11,1610612744,GSW,Golden State,23-4,24,24,25,32,0,0,0,0,0,0,0,0,0,0,105,0.464,0.882,0.462,20,39,19,0021400426,1610612747,LAL,Los Angeles,Ronnie Price,G,,30:36,0.0,0.0,2.0,6.0,15.0,6.0,5.0,26.0,0.0,0.0,2.0,2.0
0021400426,1610612747,LAL,Los Angeles,101179,Ronnie Price,G,,30:36,128.4,113.3,15.1,0.308,2.67,36.6,0.05,0.107,0.083,13.7,0.75,0.781,0.199,99.2,0.151,2014-12-23T00:00:00,11,1610612747,LAL,Los Angeles,9-19,34,29,32,20,0,0,0,0,0,0,0,0,0,0,115,0.517,0.647,0.462,28,42,16,0021400426,1610612747,LAL,Los Angeles,Ronnie Price,G,,30:36,0.0,0.0,2.0,6.0,15.0,6.0,5.0,26.0,0.0,0.0,2.0,2.0
0021400426,1610612747,LAL,Los Angeles,2430,Carlos Boozer,,,26:17,111.9,97.1,14.8,0.214,0.6,13.9,0.143,0.278,0.196,23.1,0.727,0.66,0.301,98.11,0.165,2014-12-23T00:00:00,11,1610612744,GSW,Golden State,23-4,24,24,25,32,0,0,0,0,0,0,0,0,0,0,105,0.464,0.882,0.462,20,39,19,0021400426,1610612747,LAL,Los Angeles,Carlos Boozer,,,26:17,4.0,6.0,0.0,12.0,13.0,4.0,7.0,20.0,1.0,0.0,2.0,3.0
0021400426,1610612747,LAL,Los Angeles,2430,Carlos Boozer,,,26:17,111.9,97.1,14.8,0.214,0.6,13.9,0.143,0.278,0.196,23.1,0.727,0.66,0.301,98.11,0.165,2014-12-23T00:00:00,11,1610612747,LAL,Los Angeles,9-19,34,29,32,20,0,0,0,0,0,0,0,0,0,0,115,0.517,0.647,0.462,28,42,16,0021400426,1610612747,LAL,Los Angeles,Carlos Boozer,,,26:17,4.0,6.0,0.0,12.0,13.0,4.0,7.0,20.0,1.0,0.0,2.0,3.0
0021400426,1610612747,LAL,Los Angeles,202391,Jeremy Lin,,,24:54,108.0,95.0,13.0,0.278,5.0,29.4,0.0,0.059,0.022,5.9,0.5,0.5,0.194,102.71,0.095,2014-12-23T00:00:00,11,1610612744,GSW,Golden State,23-4,24,24,25,32,0,0,0,0,0,0,0,0,0,0,105,0.464,0.882,0.462,20,39,19,0021400426,1610612747,LAL,Los Angeles,Jeremy Lin,,,24:54,3.0,0.0,0.0,0.0,12.0,4.0,6.0,22.0,0.0,0.0,4.0,2.0
0021400426,1610612747,LAL,Los Angeles,202391,Jeremy Lin,,,24:54,108.0,95.0,13.0,0.278,5.0,29.4,0.0,0.059,0.022,5.9,0.5,0.5,0.194,102.71,0.095,2014-12-23T00:00:00,11,1610612747,LAL,Los Angeles,9-19,34,29,32,20,0,0,0,0,0,0,0,0,0,0,115,0.517,0.647,0.462,28,42,16,0021400426,1610612747,LAL,Los Angeles,Jeremy Lin,,,24:54,3.0,0.0,0.0,0.0,12.0,4.0,6.0,22.0,0.0,0.0,4.0,2.0
0021400426,1610612747,LAL,Los Angeles,201156,Nick Young,,,30:09,111.2,103.6,7.6,0.042,1.0,6.1,0.034,0.167,0.094,6.1,0.462,0.524,0.207,103.83,0.083,2014-12-23T00:00:00,11,1610612744,GSW,Golden State,23-4,24,24,25,32,0,0,0,0,0,0,0,0,0,0,105,0.464,0.882,0.462,20,39,19,0021400426,1610612747,LAL,Los Angeles,Nick Young,,,30:09,6.0,3.0,0.0,2.0,18.0,6.0,7.0,32.0,1.0,0.0,3.0,2.0
0021400426,1610612747,LAL,Los Angeles,201156,Nick Young,,,30:09,111.2,103.6,7.6,0.042,1.0,6.1,0.034,0.167,0.094,6.1,0.462,0.524,0.207,103.83,0.083,2014-12-23T00:00:00,11,1610612747,LAL,Los Angeles,9-19,34,29,32,20,0,0,0,0,0,0,0,0,0,0,115,0.517,0.647,0.462,28,42,16,0021400426,1610612747,LAL,Los Angeles,Nick Young,,,30:09,6.0,3.0,0.0,2.0,18.0,6.0,7.0,32.0,1.0,0.0,3.0,2.0
0021400426,1610612747,LAL,Los Angeles,203135,Robert Sacre,,,23:07,115.3,96.2,19.1,0.176,0.0,33.3,0.074,0.0,0.047,0.0,0.5,0.5,0.106,98.3,0.085,2014-12-23T00:00:00,11,1610612744,GSW,Golden State,23-4,24,24,25,32,0,0,0,0,0,0,0,0,0,0,105,0.464,0.882,0.462,20,39,19,0021400426,1610612747,LAL,Los Angeles,Robert Sacre,,,23:07,0.0,0.0,0.0,4.0,9.0,2.0,7.0,16.0,2.0,0.0,1.0,1.0
0021400426,1610612747,LAL,Los Angeles,203135,Robert Sacre,,,23:07,115.3,96.2,19.1,0.176,0.0,33.3,0.074,0.0,0.047,0.0,0.5,0.5,0.106,98.3,0.085,2014-12-23T00:00:00,11,1610612747,LAL,Los Angeles,9-19,34,29,32,20,0,0,0,0,0,0,0,0,0,0,115,0.517,0.647,0.462,28,42,16,0021400426,1610612747,LAL,Los Angeles,Robert Sacre,,,23:07,0.0,0.0,0.0,4.0,9.0,2.0,7.0,16.0,2.0,0.0,1.0,1.0
0021400426,1610612747,LAL,Los Angeles,203903,Jordan Clarkson,,,15:19,88.1,94.6,-6.4,0.0,0.0,0.0,0.111,0.0,0.071,12.5,0.286,0.286,0.224,101.04,-0.048,2014-12-23T00:00:00,11,1610612744,GSW,Golden State,23-4,24,24,25,32,0,0,0,0,0,0,0,0,0,0,105,0.464,0.882,0.462,20,39,19,0021400426,1610612747,LAL,Los Angeles,Jordan Clarkson,,,15:19,2.0,0.0,2.0,4.0,10.0,2.0,6.0,14.0,0.0,0.0,2.0,1.0
0021400426,1610612747,LAL,Los Angeles,203903,Jordan Clarkson,,,15:19,88.1,94.6,-6.4,0.0,0.0,0.0,0.111,0.0,0.071,12.5,0.286,0.286,0.224,101.04,-0.048,2014-12-23T00:00:00,11,1610612747,LAL,Los Angeles,9-19,34,29,32,20,0,0,0,0,0,0,0,0,0,0,115,0.517,0.647,0.462,28,42,16,0021400426,1610612747,LAL,Los Angeles,Jordan Clarkson,,,15:19,2.0,0.0,2.0,4.0,10.0,2.0,6.0,14.0,0.0,0.0,2.0,1.0
0021400426,1610612747,LAL,Los Angeles,977,Kobe Bryant,,NWT - Rest.                             ,,,,,,,0.0,,,,,,,0.0,,,2014-12-23T00:00:00,11,1610612744,GSW,Golden State,23-4,24,24,25,32,0,0,0,0,0,0,0,0,0,0,105,0.464,0.882,0.462,20,39,19,0021400426,1610612747,LAL,Los Angeles,Kobe Bryant,,NWT - Rest.                             ,,,,,,,,,,,,,
0021400426,1610612747,LAL,Los Angeles,977,Kobe Bryant,,NWT - Rest.                             ,,,,,,,0.0,,,,,,,0.0,,,2014-12-23T00:00:00,11,1610612747,LAL,Los Angeles,9-19,34,29,32,20,0,0,0,0,0,0,0,0,0,0,115,0.517,0.647,0.462,28,42,16,0021400426,1610612747,LAL,Los Angeles,Kobe Bryant,,NWT - Rest.                             ,,,,,,,,,,,,,
0021400426,1610612747,LAL,Los Angeles,202333,Xavier Henry,,DND - Ruptured left achilles tendon.    ,,,,,,,0.0,,,,,,,0.0,,,2014-12-23T00:00:00,11,1610612744,GSW,Golden State,23-4,24,24,25,32,0,0,0,0,0,0,0,0,0,0,105,0.464,0.882,0.462,20,39,19,0021400426,1610612747,LAL,Los Angeles,Xavier Henry,,DND - Ruptured left achilles tendon.    ,,,,,,,,,,,,,
0021400426,1610612747,LAL,Los Angeles,202333,Xavier Henry,,DND - Ruptured left achilles tendon.    ,,,,,,,0.0,,,,,,,0.0,,,2014-12-23T00:00:00,11,1610612747,LAL,Los Angeles,9-19,34,29,32,20,0,0,0,0,0,0,0,0,0,0,115,0.517,0.647,0.462,28,42,16,0021400426,1610612747,LAL,Los Angeles,Xavier Henry,,DND - Ruptured left achilles tendon.    ,,,,,,,,,,,,,
0021400426,1610612747,LAL,Los Angeles,203527,Ryan Kelly,,DND - Torn right hamstring.             ,,,,,,,0.0,,,,,,,0.0,,,2014-12-23T00:00:00,11,1610612744,GSW,Golden State,23-4,24,24,25,32,0,0,0,0,0,0,0,0,0,0,105,0.464,0.882,0.462,20,39,19,0021400426,1610612747,LAL,Los Angeles,Ryan Kelly,,DND - Torn right hamstring.             ,,,,,,,,,,,,,
0021400426,1610612747,LAL,Los Angeles,203527,Ryan Kelly,,DND - Torn right hamstring.             ,,,,,,,0.0,,,,,,,0.0,,,2014-12-23T00:00:00,11,1610612747,LAL,Los Angeles,9-19,34,29,32,20,0,0,0,0,0,0,0,0,0,0,115,0.517,0.647,0.462,28,42,16,0021400426,1610612747,LAL,Los Angeles,Ryan Kelly,,DND - Torn right hamstring.             ,,,,,,,,,,,,,
