GAME_ID_x,TEAM_ID_x,TEAM_ABBREVIATION_x,TEAM_CITY_x,PLAYER_ID,PLAYER_NAME_x,START_POSITION_x,COMMENT_x,MIN_x,OFF_RATING,DEF_RATING,NET_RATING,AST_PCT,AST_TOV,AST_RATIO,OREB_PCT,DREB_PCT,REB_PCT,TM_TOV_PCT,EFG_PCT,TS_PCT,USG_PCT,PACE,PIE,GAME_DATE_EST,GAME_SEQUENCE,TEAM_ID_y,TEAM_ABBREVIATION_y,TEAM_CITY_NAME,TEAM_WINS_LOSSES,PTS_QTR1,PTS_QTR2,PTS_QTR3,PTS_QTR4,PTS_OT1,PTS_OT2,PTS_OT3,PTS_OT4,PTS_OT5,PTS_OT6,PTS_OT7,PTS_OT8,PTS_OT9,PTS_OT10,PTS,FG_PCT,FT_PCT,FG3_PCT,AST,REB,TOV,GAME_ID_y,TEAM_ID,TEAM_ABBREVIATION,TEAM_CITY_y,PLAYER_NAME_y,START_POSITION_y,COMMENT_y,MIN_y,PTS_OFF_TOV,PTS_2ND_CHANCE,PTS_FB,PTS_PAINT,OPP_PTS_OFF_TOV,OPP_PTS_2ND_CHANCE,OPP_PTS_FB,OPP_PTS_PAINT,BLK,BLKA,PF,PFD
0021400421,1610612743,DEN,Denver,201163,Wilson Chandler,F,,37:48,100.7,108.0,-7.3,0.042,0.5,5.0,0.0,0.143,0.071,10.0,0.324,0.324,0.21,97.42,0.007,2014-12-23T00:00:00,6,1610612743,DEN,Denver,12-17,27,27,23,19,0,0,0,0,0,0,0,0,0,0,96,0.439,0.773,0.28,15,51,18,0021400421,1610612743,DEN,Denver,Wilson Chandler,F,,37:48,2.0,0.0,4.0,8.0,22.0,14.0,12.0,46.0,0.0,0.0,3.0,0.0
0021400421,1610612743,DEN,Denver,201163,Wilson Chandler,F,,37:48,100.7,108.0,-7.3,0.042,0.5,5.0,0.0,0.143,0.071,10.0,0.324,0.324,0.21,97.42,0.007,2014-12-23T00:00:00,6,1610612751,BKN,Brooklyn,12-15,30,28,18,26,0,0,0,0,0,0,0,0,0,0,102,0.473,0.714,0.261,21,39,9,0021400421,1610612743,DEN,Denver,Wilson Chandler,F,,37:48,2.0,0.0,4.0,8.0,22.0,14.0,12.0,46.0,0.0,0.0,3.0,0.0
0021400421,1610612743,DEN,Denver,202702,Kenneth Faried,F,,31:57,116.6,103.1,13.5,0.095,0.67,11.0,0.2,0.29,0.25,16.5,0.727,0.758,0.218,95.58,0.207,2014-12-23T00:00:00,6,1610612743,DEN,Denver,12-17,27,27,23,19,0,0,0,0,0,0,0,0,0,0,96,0.439,0.773,0.28,15,51,18,0021400421,1610612743,DEN,Denver,Kenneth Faried,F,,31:57,2.0,5.0,7.0,16.0,16.0,8.0,8.0,40.0,1.0,0.0,3.0,7.0
0021400421,1610612743,DEN,Denver,202702,Kenneth Faried,F,,31:57,116.6,103.1,13.5,0.095,0.67,11.0,0.2,0.29,0.25,16.5,0.727,0.758,0.218,95.58,0.207,2014-12-23T00:00:00,6,1610612751,BKN,Brooklyn,12-15,30,28,18,26,0,0,0,0,0,0,0,0,0,0,102,0.473,0.714,0.261,21,39,9,0021400421,1610612743,DEN,Denver,Kenneth Faried,F,,31:57,2.0,5.0,7.0,16.0,16.0,8.0,8.0,40.0,1.0,0.0,3.0,7.0
0021400421,1610612743,DEN,Denver,202389,Timofey Mozgov,C,,27:57,110.9,97.5,13.4,0.0,0.0,0.0,0.115,0.2,0.157,10.2,0.143,0.285,0.144,98.91,0.05,2014-12-23T00:00:00,6,1610612743,DEN,Denver,12-17,27,27,23,19,0,0,0,0,0,0,0,0,0,0,96,0.439,0.773,0.28,15,51,18,0021400421,1610612743,DEN,Denver,Timofey Mozgov,C,,27:57,0.0,3.0,0.0,2.0,16.0,6.0,8.0,34.0,2.0,0.0,1.0,3.0
0021400421,1610612743,DEN,Denver,202389,Timofey Mozgov,C,,27:57,110.9,97.5,13.4,0.0,0.0,0.0,0.115,0.2,0.157,10.2,0.143,0.285,0.144,98.91,0.05,2014-12-23T00:00:00,6,1610612751,BKN,Brooklyn,12-15,30,28,18,26,0,0,0,0,0,0,0,0,0,0,102,0.473,0.714,0.261,21,39,9,0021400421,1610612743,DEN,Denver,Timofey Mozgov,C,,27:57,0.0,3.0,0.0,2.0,16.0,6.0,8.0,34.0,2.0,0.0,1.0,3.0
0021400421,1610612743,DEN,Denver,201167,Arron Afflalo,G,,41:14,101.4,103.5,-2.0,0.111,1.0,17.8,0.056,0.171,0.117,17.8,0.5,0.506,0.146,95.42,0.085,2014-12-23T00:00:00,6,1610612743,DEN,Denver,12-17,27,27,23,19,0,0,0,0,0,0,0,0,0,0,96,0.439,0.773,0.28,15,51,18,0021400421,1610612743,DEN,Denver,Arron Afflalo,G,,41:14,5.0,2.0,2.0,4.0,24.0,14.0,12.0,50.0,0.0,1.0,0.0,1.0
0021400421,1610612743,DEN,Denver,201167,Arron Afflalo,G,,41:14,101.4,103.5,-2.0,0.111,1.0,17.8,0.056,0.171,0.117,17.8,0.5,0.506,0.146,95.42,0.085,2014-12-23T00:00:00,6,1610612751,BKN,Brooklyn,12-15,30,28,18,26,0,0,0,0,0,0,0,0,0,0,102,0.473,0.714,0.261,21,39,9,0021400421,1610612743,DEN,Denver,Arron Afflalo,G,,41:14,5.0,2.0,2.0,4.0,24.0,14.0,12.0,50.0,0.0,1.0,0.0,1.0
0021400421,1610612743,DEN,Denver,201951,Ty Lawson,G,,41:36,105.6,112.1,-6.5,0.391,2.25,25.3,0.0,0.103,0.053,11.2,0.6,0.64,0.276,95.45,0.168,2014-12-23T00:00:00,6,1610612743,DEN,Denver,12-17,27,27,23,19,0,0,0,0,0,0,0,0,0,0,96,0.439,0.773,0.28,15,51,18,0021400421,1610612743,DEN,Denver,Ty Lawson,G,,41:36,3.0,3.0,9.0,4.0,20.0,18.0,10.0,54.0,0.0,0.0,1.0,3.0
0021400421,1610612743,DEN,Denver,201951,Ty Lawson,G,,41:36,105.6,112.1,-6.5,0.391,2.25,25.3,0.0,0.103,0.053,11.2,0.6,0.64,0.276,95.45,0.168,2014-12-23T00:00:00,6,1610612751,BKN,Brooklyn,12-15,30,28,18,26,0,0,0,0,0,0,0,0,0,0,102,0.473,0.714,0.261,21,39,9,0021400421,1610612743,DEN,Denver,Ty Lawson,G,,41:36,3.0,3.0,9.0,4.0,20.0,18.0,10.0,54.0,0.0,0.0,1.0,3.0
0021400421,1610612743,DEN,Denver,201581,JJ Hickson,,,12:21,78.1,118.5,-40.4,0.0,0.0,0.0,0.182,0.067,0.115,11.3,0.571,0.635,0.359,91.49,0.175,2014-12-23T00:00:00,6,1610612743,DEN,Denver,12-17,27,27,23,19,0,0,0,0,0,0,0,0,0,0,96,0.439,0.773,0.28,15,51,18,0021400421,1610612743,DEN,Denver,JJ Hickson,,,12:21,0.0,2.0,2.0,8.0,6.0,12.0,2.0,18.0,0.0,0.0,1.0,1.0
0021400421,1610612743,DEN,Denver,201581,JJ Hickson,,,12:21,78.1,118.5,-40.4,0.0,0.0,0.0,0.182,0.067,0.115,11.3,0.571,0.635,0.359,91.49,0.175,2014-12-23T00:00:00,6,1610612751,BKN,Brooklyn,12-15,30,28,18,26,0,0,0,0,0,0,0,0,0,0,102,0.473,0.714,0.261,21,39,9,0021400421,1610612743,DEN,Denver,JJ Hickson,,,12:21,0.0,2.0,2.0,8.0,6.0,12.0,2.0,18.0,0.0,0.0,1.0,1.0
0021400421,1610612743,DEN,Denver,101126,Nate Robinson,,,17:36,78.9,112.3,-33.3,0.0,0.0,0.0,0.0,0.0,0.0,0.0,0.25,0.25,0.108,91.62,-0.065,2014-12-23T00:00:00,6,1610612743,DEN,Denver,12-17,27,27,23,19,0,0,0,0,0,0,0,0,0,0,96,0.439,0.773,0.28,15,51,18,0021400421,1610612743,DEN,Denver,Nate Robinson,,,17:36,0.0,0.0,0.0,0.0,8.0,12.0,4.0,24.0,0.0,0.0,2.0,0.0
0021400421,1610612743,DEN,Denver,101126,Nate Robinson,,,17:36,78.9,112.3,-33.3,0.0,0.0,0.0,0.0,0.0,0.0,0.0,0.25,0.25,0.108,91.62,-0.065,2014-12-23T00:00:00,6,1610612751,BKN,Brooklyn,12-15,30,28,18,26,0,0,0,0,0,0,0,0,0,0,102,0.473,0.714,0.261,21,39,9,0021400421,1610612743,DEN,Denver,Nate Robinson,,,17:36,0.0,0.0,0.0,0.0,8.0,12.0,4.0,24.0,0.0,0.0,2.0,0.0
0021400421,1610612743,DEN,Denver,202087,Alonzo Gee,,,16:46,84.8,126.5,-41.7,0.0,0.0,0.0,0.0,0.15,0.088,51.5,0.0,0.532,0.108,89.69,0.022,2014-12-23T00:00:00,6,1610612743,DEN,Denver,12-17,27,27,23,19,0,0,0,0,0,0,0,0,0,0,96,0.439,0.773,0.28,15,51,18,0021400421,1610612743,DEN,Denver,Alonzo Gee,,,16:46,0.0,0.0,2.0,0.0,4.0,10.0,2.0,20.0,0.0,1.0,1.0,1.0
0021400421,1610612743,DEN,Denver,202087,Alonzo Gee,,,16:46,84.8,126.5,-41.7,0.0,0.0,0.0,0.0,0.15,0.088,51.5,0.0,0.532,0.108,89.69,0.022,2014-12-23T00:00:00,6,1610612751,BKN,Brooklyn,12-15,30,28,18,26,0,0,0,0,0,0,0,0,0,0,102,0.473,0.714,0.261,21,39,9,0021400421,1610612743,DEN,Denver,Alonzo Gee,,,16:46,0.0,0.0,2.0,0.0,4.0,10.0,2.0,20.0,0.0,1.0,1.0,1.0
0021400421,1610612743,DEN,Denver,203994,Jusuf Nurkic,,,12:45,78.9,113.2,-34.3,0.0,0.0,0.0,0.222,0.188,0.2,26.9,0.6,0.551,0.275,88.55,0.094,2014-12-23T00:00:00,6,1610612743,DEN,Denver,12-17,27,27,23,19,0,0,0,0,0,0,0,0,0,0,96,0.439,0.773,0.28,15,51,18,0021400421,1610612743,DEN,Denver,Jusuf Nurkic,,,12:45,0.0,4.0,0.0,4.0,4.0,6.0,2.0,14.0,1.0,1.0,3.0,3.0
0021400421,1610612743,DEN,Denver,203994,Jusuf Nurkic,,,12:45,78.9,113.2,-34.3,0.0,0.0,0.0,0.222,0.188,0.2,26.9,0.6,0.551,0.275,88.55,0.094,2014-12-23T00:00:00,6,1610612751,BKN,Brooklyn,12-15,30,28,18,26,0,0,0,0,0,0,0,0,0,0,102,0.473,0.714,0.261,21,39,9,0021400421,1610612743,DEN,Denver,Jusuf Nurkic,,,12:45,0.0,4.0,0.0,4.0,4.0,6.0,2.0,14.0,1.0,1.0,3.0,3.0
0021400421,1610612743,DEN,Denver,201589,Darrell Arthur,,DNP - Coach's Decision                  ,,,,,,,0.0,,,,,,,0.0,,,2014-12-23T00:00:00,6,1610612743,DEN,Denver,12-17,27,27,23,19,0,0,0,0,0,0,0,0,0,0,96,0.439,0.773,0.28,15,51,18,0021400421,1610612743,DEN,Denver,Darrell Arthur,,DNP - Coach's Decision                  ,,,,,,,,,,,,,
0021400421,1610612743,DEN,Denver,201589,Darrell Arthur,,DNP - Coach's Decision                  ,,,,,,,0.0,,,,,,,0.0,,,2014-12-23T00:00:00,6,1610612751,BKN,Brooklyn,12-15,30,28,18,26,0,0,0,0,0,0,0,0,0,0,102,0.473,0.714,0.261,21,39,9,0021400421,1610612743,DEN,Denver,Darrell Arthur,,DNP - Coach's Decision                  ,,,,,,,,,,,,,
0021400421,1610612743,DEN,Denver,203475,Erick Green,,DNP - Coach's Decision                  ,,,,,,,0.0,,,,,,,0.0,,,2014-12-23T00:00:00,6,1610612743,DEN,Denver,12-17,27,27,23,19,0,0,0,0,0,0,0,0,0,0,96,0.439,0.773,0.28,15,51,18,0021400421,1610612743,DEN,Denver,Erick Green,,DNP - Coach's Decision                  ,,,,,,,,,,,,,
0021400421,1610612743,DEN,Denver,203475,Erick Green,,DNP - Coach's Decision                  ,,,,,,,0.0,,,,,,,0.0,,,2014-12-23T00:00:00,6,1610612751,BKN,Brooklyn,12-15,30,28,18,26,0,0,0,0,0,0,0,0,0,0,102,0.473,0.714,0.261,21,39,9,0021400421,1610612743,DEN,Denver,Erick Green,,DNP - Coach's Decision                  ,,,,,,,,,,,,,
0021400421,1610612743,DEN,Denver,203914,Gary Harris,,DNP - Coach's Decision                  ,,,,,,,0.0,,,,,,,0.0,,,2014-12-23T00:00:00,6,1610612743,DEN,Denver,12-17,27,27,23,19,0,0,0,0,0,0,0,0,0,0,96,0.439,0.773,0.28,15,51,18,0021400421,1610612743,DEN,Denver,Gary Harris,,DNP - Coach's Decision                  ,,,,,,,,,,,,,
0021400421,1610612743,DEN,Denver,203914,Gary Harris,,DNP - Coach's Decision                  ,,,,,,,0.0,,,,,,,0.0,,,2014-12-23T00:00:00,6,1610612751,BKN,Brooklyn,12-15,30,28,18,26,0,0,0,0,0,0,0,0,0,0,102,0.473,0.714,0.261,21,39,9,0021400421,1610612743,DEN,Denver,Gary Harris,,DNP - Coach's Decision                  ,,,,,,,,,,,,,
0021400421,1610612751,BKN,Brooklyn,2207,Joe Johnson,F,,33:24,109.5,104.9,4.5,0.143,3.0,12.6,0.0,0.071,0.033,4.2,0.684,0.679,0.273,97.18,0.163,2014-12-23T00:00:00,6,1610612743,DEN,Denver,12-17,27,27,23,19,0,0,0,0,0,0,0,0,0,0,96,0.439,0.773,0.28,15,51,18,0021400421,1610612751,BKN,Brooklyn,Joe Johnson,F,,33:24,9.0,4.0,2.0,10.0,12.0,14.0,20.0,34.0,0.0,0.0,2.0,3.0
0021400421,1610612751,BKN,Brooklyn,2207,Joe Johnson,F,,33:24,109.5,104.9,4.5,0.143,3.0,12.6,0.0,0.071,0.033,4.2,0.684,0.679,0.273,97.18,0.163,2014-12-23T00:00:00,6,1610612751,BKN,Brooklyn,12-15,30,28,18,26,0,0,0,0,0,0,0,0,0,0,102,0.473,0.714,0.261,21,39,9,0021400421,1610612751,BKN,Brooklyn,Joe Johnson,F,,33:24,9.0,4.0,2.0,10.0,12.0,14.0,20.0,34.0,0.0,0.0,2.0,3.0
0021400421,1610612751,BKN,Brooklyn,708,Kevin Garnett,F,,13:28,98.4,122.1,-23.7,0.091,1.0,14.3,0.0,0.25,0.13,14.3,0.2,0.2,0.204,95.6,0.036,2014-12-23T00:00:00,6,1610612743,DEN,Denver,12-17,27,27,23,19,0,0,0,0,0,0,0,0,0,0,96,0.439,0.773,0.28,15,51,18,0021400421,1610612751,BKN,Brooklyn,Kevin Garnett,F,,13:28,0.0,0.0,0.0,2.0,8.0,7.0,7.0,12.0,0.0,1.0,2.0,0.0
0021400421,1610612751,BKN,Brooklyn,708,Kevin Garnett,F,,13:28,98.4,122.1,-23.7,0.091,1.0,14.3,0.0,0.25,0.13,14.3,0.2,0.2,0.204,95.6,0.036,2014-12-23T00:00:00,6,1610612751,BKN,Brooklyn,12-15,30,28,18,26,0,0,0,0,0,0,0,0,0,0,102,0.473,0.714,0.261,21,39,9,0021400421,1610612751,BKN,Brooklyn,Kevin Garnett,F,,13:28,0.0,0.0,0.0,2.0,8.0,7.0,7.0,12.0,0.0,1.0,2.0,0.0
0021400421,1610612751,BKN,Brooklyn,203486,Mason Plumlee,C,,39:45,104.6,100.5,4.1,0.077,1.0,10.4,0.122,0.235,0.173,10.4,0.643,0.62,0.196,95.93,0.17,2014-12-23T00:00:00,6,1610612743,DEN,Denver,12-17,27,27,23,19,0,0,0,0,0,0,0,0,0,0,96,0.439,0.773,0.28,15,51,18,0021400421,1610612751,BKN,Brooklyn,Mason Plumlee,C,,39:45,5.0,8.0,4.0,18.0,12.0,15.0,24.0,38.0,3.0,2.0,2.0,4.0
0021400421,1610612751,BKN,Brooklyn,203486,Mason Plumlee,C,,39:45,104.6,100.5,4.1,0.077,1.0,10.4,0.122,0.235,0.173,10.4,0.643,0.62,0.196,95.93,0.17,2014-12-23T00:00:00,6,1610612751,BKN,Brooklyn,12-15,30,28,18,26,0,0,0,0,0,0,0,0,0,0,102,0.473,0.714,0.261,21,39,9,0021400421,1610612751,BKN,Brooklyn,Mason Plumlee,C,,39:45,5.0,8.0,4.0,18.0,12.0,15.0,24.0,38.0,3.0,2.0,2.0,4.0
0021400421,1610612751,BKN,Brooklyn,203508,Sergey Karasev,G,,31:37,105.4,100.1,5.3,0.12,0.0,23.5,0.063,0.111,0.085,0.0,0.5,0.615,0.135,96.02,0.123,2014-12-23T00:00:00,6,1610612743,DEN,Denver,12-17,27,27,23,19,0,0,0,0,0,0,0,0,0,0,96,0.439,0.773,0.28,15,51,18,0021400421,1610612751,BKN,Brooklyn,Sergey Karasev,G,,31:37,4.0,2.0,4.0,6.0,10.0,13.0,18.0,32.0,0.0,0.0,2.0,3.0
0021400421,1610612751,BKN,Brooklyn,203508,Sergey Karasev,G,,31:37,105.4,100.1,5.3,0.12,0.0,23.5,0.063,0.111,0.085,0.0,0.5,0.615,0.135,96.02,0.123,2014-12-23T00:00:00,6,1610612751,BKN,Brooklyn,12-15,30,28,18,26,0,0,0,0,0,0,0,0,0,0,102,0.473,0.714,0.261,21,39,9,0021400421,1610612751,BKN,Brooklyn,Sergey Karasev,G,,31:37,4.0,2.0,4.0,6.0,10.0,13.0,18.0,32.0,0.0,0.0,2.0,3.0
0021400421,1610612751,BKN,Brooklyn,101127,Jarrett Jack,G,,38:07,107.2,103.5,3.7,0.286,2.67,31.6,0.0,0.032,0.014,11.8,0.538,0.594,0.196,96.19,0.126,2014-12-23T00:00:00,6,1610612743,DEN,Denver,12-17,27,27,23,19,0,0,0,0,0,0,0,0,0,0,96,0.439,0.773,0.28,15,51,18,0021400421,1610612751,BKN,Brooklyn,Jarrett Jack,G,,38:07,2.0,2.0,2.0,12.0,12.0,15.0,24.0,34.0,0.0,0.0,1.0,2.0
0021400421,1610612751,BKN,Brooklyn,101127,Jarrett Jack,G,,38:07,107.2,103.5,3.7,0.286,2.67,31.6,0.0,0.032,0.014,11.8,0.538,0.594,0.196,96.19,0.126,2014-12-23T00:00:00,6,1610612751,BKN,Brooklyn,12-15,30,28,18,26,0,0,0,0,0,0,0,0,0,0,102,0.473,0.714,0.261,21,39,9,0021400421,1610612751,BKN,Brooklyn,Jarrett Jack,G,,38:07,2.0,2.0,2.0,12.0,12.0,15.0,24.0,34.0,0.0,0.0,1.0,2.0
0021400421,1610612751,BKN,Brooklyn,203141,Mirza Teletovic,,,15:43,94.1,106.2,-12.1,0.0,0.0,0.0,0.0,0.188,0.1,12.5,0.214,0.214,0.243,101.88,-0.092,2014-12-23T00:00:00,6,1610612743,DEN,Denver,12-17,27,27,23,19,0,0,0,0,0,0,0,0,0,0,96,0.439,0.773,0.28,15,51,18,0021400421,1610612751,BKN,Brooklyn,Mirza Teletovic,,,15:43,0.0,0.0,0.0,0.0,4.0,8.0,17.0,18.0,0.0,0.0,4.0,0.0
0021400421,1610612751,BKN,Brooklyn,203141,Mirza Teletovic,,,15:43,94.1,106.2,-12.1,0.0,0.0,0.0,0.0,0.188,0.1,12.5,0.214,0.214,0.243,101.88,-0.092,2014-12-23T00:00:00,6,1610612751,BKN,Brooklyn,12-15,30,28,18,26,0,0,0,0,0,0,0,0,0,0,102,0.473,0.714,0.261,21,39,9,0021400421,1610612751,BKN,Brooklyn,Mirza Teletovic,,,15:43,0.0,0.0,0.0,0.0,4.0,8.0,17.0,18.0,0.0,0.0,4.0,0.0
0021400421,1610612751,BKN,Brooklyn,203561,Brandon Davies,,,2:22,120.0,50.0,70.0,0.0,0.0,0.0,0.167,0.0,0.143,0.0,0.333,0.333,0.333,91.27,-0.143,2014-12-23T00:00:00,6,1610612743,DEN,Denver,12-17,27,27,23,19,0,0,0,0,0,0,0,0,0,0,96,0.439,0.773,0.28,15,51,18,0021400421,1610612751,BKN,Brooklyn,Brandon Davies,,,2:22,0.0,2.0,0.0,2.0,0.0,0.0,2.0,2.0,0.0,0.0,1.0,0.0
0021400421,1610612751,BKN,Brooklyn,203561,Brandon Davies,,,2:22,120.0,50.0,70.0,0.0,0.0,0.0,0.167,0.0,0.143,0.0,0.333,0.333,0.333,91.27,-0.143,2014-12-23T00:00:00,6,1610612751,BKN,Brooklyn,12-15,30,28,18,26,0,0,0,0,0,0,0,0,0,0,102,0.473,0.714,0.261,21,39,9,0021400421,1610612751,BKN,Brooklyn,Brandon Davies,,,2:22,0.0,2.0,0.0,2.0,0.0,0.0,2.0,2.0,0.0,0.0,1.0,0.0
0021400421,1610612751,BKN,Brooklyn,101187,Alan Anderson,,,26:00,121.5,91.3,30.2,0.091,2.0,28.6,0.071,0.143,0.102,14.3,0.25,0.25,0.09,91.56,0.038,2014-12-23T00:00:00,6,1610612743,DEN,Denver,12-17,27,27,23,19,0,0,0,0,0,0,0,0,0,0,96,0.439,0.773,0.28,15,51,18,0021400421,1610612751,BKN,Brooklyn,Alan Anderson,,,26:00,0.0,0.0,0.0,0.0,2.0,6.0,8.0,20.0,0.0,0.0,2.0,1.0
0021400421,1610612751,BKN,Brooklyn,101187,Alan Anderson,,,26:00,121.5,91.3,30.2,0.091,2.0,28.6,0.071,0.143,0.102,14.3,0.25,0.25,0.09,91.56,0.038,2014-12-23T00:00:00,6,1610612751,BKN,Brooklyn,12-15,30,28,18,26,0,0,0,0,0,0,0,0,0,0,102,0.473,0.714,0.261,21,39,9,0021400421,1610612751,BKN,Brooklyn,Alan Anderson,,,26:00,0.0,0.0,0.0,0.0,2.0,6.0,8.0,20.0,0.0,0.0,2.0,1.0
0021400421,1610612751,BKN,Brooklyn,201572,Brook Lopez,,,8:15,129.7,99.5,30.2,0.0,0.0,0.0,0.125,0.429,0.267,0.0,0.6,0.6,0.28,90.07,0.319,2014-12-23T00:00:00,6,1610612743,DEN,Denver,12-17,27,27,23,19,0,0,0,0,0,0,0,0,0,0,96,0.439,0.773,0.28,15,51,18,0021400421,1610612751,BKN,Brooklyn,Brook Lopez,,,8:15,0.0,0.0,0.0,4.0,0.0,4.0,2.0,8.0,0.0,1.0,0.0,1.0
0021400421,1610612751,BKN,Brooklyn,201572,Brook Lopez,,,8:15,129.7,99.5,30.2,0.0,0.0,0.0,0.125,0.429,0.267,0.0,0.6,0.6,0.28,90.07,0.319,2014-12-23T00:00:00,6,1610612751,BKN,Brooklyn,12-15,30,28,18,26,0,0,0,0,0,0,0,0,0,0,102,0.473,0.714,0.261,21,39,9,0021400421,1610612751,BKN,Brooklyn,Brook Lopez,,,8:15,0.0,0.0,0.0,4.0,0.0,4.0,2.0,8.0,0.0,1.0,0.0,1.0
0021400421,1610612751,BKN,Brooklyn,202721,Darius Morris,,,11:27,111.9,80.6,31.3,0.286,0.0,33.3,0.0,0.0,0.0,0.0,0.5,0.5,0.176,86.08,0.143,2014-12-23T00:00:00,6,1610612743,DEN,Denver,12-17,27,27,23,19,0,0,0,0,0,0,0,0,0,0,96,0.439,0.773,0.28,15,51,18,0021400421,1610612751,BKN,Brooklyn,Darius Morris,,,11:27,0.0,0.0,0.0,4.0,0.0,4.0,2.0,12.0,0.0,0.0,1.0,0.0
0021400421,1610612751,BKN,Brooklyn,202721,Darius Morris,,,11:27,111.9,80.6,31.3,0.286,0.0,33.3,0.0,0.0,0.0,0.0,0.5,0.5,0.176,86.08,0.143,2014-12-23T00:00:00,6,1610612751,BKN,Brooklyn,12-15,30,28,18,26,0,0,0,0,0,0,0,0,0,0,102,0.473,0.714,0.261,21,39,9,0021400421,1610612751,BKN,Brooklyn,Darius Morris,,,11:27,0.0,0.0,0.0,4.0,0.0,4.0,2.0,12.0,0.0,0.0,1.0,0.0
0021400421,1610612751,BKN,Brooklyn,202711,Bojan Bogdanovic,,,13:02,105.8,96.4,9.3,0.0,0.0,0.0,0.0,0.0,0.0,0.0,0.357,0.357,0.284,93.18,-0.027,2014-12-23T00:00:00,6,1610612743,DEN,Denver,12-17,27,27,23,19,0,0,0,0,0,0,0,0,0,0,96,0.439,0.773,0.28,15,51,18,0021400421,1610612751,BKN,Brooklyn,Bojan Bogdanovic,,,13:02,3.0,0.0,0.0,0.0,0.0,5.0,6.0,12.0,0.0,0.0,1.0,0.0
0021400421,1610612751,BKN,Brooklyn,202711,Bojan Bogdanovic,,,13:02,105.8,96.4,9.3,0.0,0.0,0.0,0.0,0.0,0.0,0.0,0.357,0.357,0.284,93.18,-0.027,2014-12-23T00:00:00,6,1610612751,BKN,Brooklyn,12-15,30,28,18,26,0,0,0,0,0,0,0,0,0,0,102,0.473,0.714,0.261,21,39,9,0021400421,1610612751,BKN,Brooklyn,Bojan Bogdanovic,,,13:02,3.0,0.0,0.0,0.0,0.0,5.0,6.0,12.0,0.0,0.0,1.0,0.0
0021400421,1610612751,BKN,Brooklyn,203928,Cory Jefferson,,,6:50,127.6,93.2,34.4,0.0,0.0,0.0,0.143,0.2,0.167,0.0,0.5,0.521,0.226,86.54,0.07,2014-12-23T00:00:00,6,1610612743,DEN,Denver,12-17,27,27,23,19,0,0,0,0,0,0,0,0,0,0,96,0.439,0.773,0.28,15,51,18,0021400421,1610612751,BKN,Brooklyn,Cory Jefferson,,,6:50,1.0,2.0,0.0,2.0,0.0,4.0,0.0,8.0,0.0,0.0,1.0,1.0
0021400421,1610612751,BKN,Brooklyn,203928,Cory Jefferson,,,6:50,127.6,93.2,34.4,0.0,0.0,0.0,0.143,0.2,0.167,0.0,0.5,0.521,0.226,86.54,0.07,2014-12-23T00:00:00,6,1610612751,BKN,Brooklyn,12-15,30,28,18,26,0,0,0,0,0,0,0,0,0,0,102,0.473,0.714,0.261,21,39,9,0021400421,1610612751,BKN,Brooklyn,Cory Jefferson,,,6:50,1.0,2.0,0.0,2.0,0.0,4.0,0.0,8.0,0.0,0.0,1.0,1.0
0021400421,1610612751,BKN,Brooklyn,202366,Jerome Jordan,,DNP - Coach's Decision                  ,,,,,,,0.0,,,,,,,0.0,,,2014-12-23T00:00:00,6,1610612743,DEN,Denver,12-17,27,27,23,19,0,0,0,0,0,0,0,0,0,0,96,0.439,0.773,0.28,15,51,18,0021400421,1610612751,BKN,Brooklyn,Jerome Jordan,,DNP - Coach's Decision                  ,,,,,,,,,,,,,
0021400421,1610612751,BKN,Brooklyn,202366,Jerome Jordan,,DNP - Coach's Decision                  ,,,,,,,0.0,,,,,,,0.0,,,2014-12-23T00:00:00,6,1610612751,BKN,Brooklyn,12-15,30,28,18,26,0,0,0,0,0,0,0,0,0,0,102,0.473,0.714,0.261,21,39,9,0021400421,1610612751,BKN,Brooklyn,Jerome Jordan,,DNP - Coach's Decision                  ,,,,,,,,,,,,,
