GAME_ID_x,TEAM_ID_x,TEAM_ABBREVIATION_x,TEAM_CITY_x,PLAYER_ID,PLAYER_NAME_x,START_POSITION_x,COMMENT_x,MIN_x,OFF_RATING,DEF_RATING,NET_RATING,AST_PCT,AST_TOV,AST_RATIO,OREB_PCT,DREB_PCT,REB_PCT,TM_TOV_PCT,EFG_PCT,TS_PCT,USG_PCT,PACE,PIE,GAME_DATE_EST,GAME_SEQUENCE,TEAM_ID_y,TEAM_ABBREVIATION_y,TEAM_CITY_NAME,TEAM_WINS_LOSSES,PTS_QTR1,PTS_QTR2,PTS_QTR3,PTS_QTR4,PTS_OT1,PTS_OT2,PTS_OT3,PTS_OT4,PTS_OT5,PTS_OT6,PTS_OT7,PTS_OT8,PTS_OT9,PTS_OT10,PTS,FG_PCT,FT_PCT,FG3_PCT,AST,REB,TOV,GAME_ID_y,TEAM_ID,TEAM_ABBREVIATION,TEAM_CITY_y,PLAYER_NAME_y,START_POSITION_y,COMMENT_y,MIN_y,PTS_OFF_TOV,PTS_2ND_CHANCE,PTS_FB,PTS_PAINT,OPP_PTS_OFF_TOV,OPP_PTS_2ND_CHANCE,OPP_PTS_FB,OPP_PTS_PAINT,BLK,BLKA,PF,PFD
0021400432,1610612751,BKN,Brooklyn,2207,Joe Johnson,F,,35:09,106.6,106.5,0.1,0.042,1.0,6.3,0.031,0.038,0.034,6.3,0.308,0.324,0.192,97.42,0.004,2014-12-26T00:00:00,1,1610612751,BKN,Brooklyn,13-15,28,28,23,30,0,0,0,0,0,0,0,0,0,0,109,0.494,0.714,0.333,19,43,15,0021400432,1610612751,BKN,Brooklyn,Joe Johnson,F,,35:09,0.0,0.0,0.0,6.0,16.0,2.0,15.0,44.0,0.0,0.0,0.0,3.0
0021400432,1610612751,BKN,Brooklyn,2207,Joe Johnson,F,,35:09,106.6,106.5,0.1,0.042,1.0,6.3,0.031,0.038,0.034,6.3,0.308,0.324,0.192,97.42,0.004,2014-12-26T00:00:00,1,1610612738,BOS,Boston,10-17,29,27,30,21,0,0,0,0,0,0,0,0,0,0,107,0.517,0.727,0.375,32,37,14,0021400432,1610612751,BKN,Brooklyn,Joe Johnson,F,,35:09,0.0,0.0,0.0,6.0,16.0,2.0,15.0,44.0,0.0,0.0,0.0,3.0
0021400432,1610612751,BKN,Brooklyn,708,Kevin Garnett,F,,16:54,93.7,106.3,-12.6,0.125,1.0,14.3,0.059,0.188,0.121,14.3,0.6,0.6,0.145,104.98,0.11,2014-12-26T00:00:00,1,1610612751,BKN,Brooklyn,13-15,28,28,23,30,0,0,0,0,0,0,0,0,0,0,109,0.494,0.714,0.333,19,43,15,0021400432,1610612751,BKN,Brooklyn,Kevin Garnett,F,,16:54,2.0,0.0,0.0,4.0,14.0,5.0,9.0,26.0,0.0,0.0,0.0,1.0
0021400432,1610612751,BKN,Brooklyn,708,Kevin Garnett,F,,16:54,93.7,106.3,-12.6,0.125,1.0,14.3,0.059,0.188,0.121,14.3,0.6,0.6,0.145,104.98,0.11,2014-12-26T00:00:00,1,1610612738,BOS,Boston,10-17,29,27,30,21,0,0,0,0,0,0,0,0,0,0,107,0.517,0.727,0.375,32,37,14,0021400432,1610612751,BKN,Brooklyn,Kevin Garnett,F,,16:54,2.0,0.0,0.0,4.0,14.0,5.0,9.0,26.0,0.0,0.0,0.0,1.0
0021400432,1610612751,BKN,Brooklyn,203486,Mason Plumlee,C,,35:58,112.8,111.7,1.1,0.12,0.75,18.0,0.094,0.346,0.207,24.0,0.857,0.726,0.169,95.7,0.11,2014-12-26T00:00:00,1,1610612751,BKN,Brooklyn,13-15,28,28,23,30,0,0,0,0,0,0,0,0,0,0,109,0.494,0.714,0.333,19,43,15,0021400432,1610612751,BKN,Brooklyn,Mason Plumlee,C,,35:58,2.0,2.0,2.0,12.0,16.0,2.0,13.0,46.0,1.0,0.0,2.0,4.0
0021400432,1610612751,BKN,Brooklyn,203486,Mason Plumlee,C,,35:58,112.8,111.7,1.1,0.12,0.75,18.0,0.094,0.346,0.207,24.0,0.857,0.726,0.169,95.7,0.11,2014-12-26T00:00:00,1,1610612738,BOS,Boston,10-17,29,27,30,21,0,0,0,0,0,0,0,0,0,0,107,0.517,0.727,0.375,32,37,14,0021400432,1610612751,BKN,Brooklyn,Mason Plumlee,C,,35:58,2.0,2.0,2.0,12.0,16.0,2.0,13.0,46.0,1.0,0.0,2.0,4.0
0021400432,1610612751,BKN,Brooklyn,203508,Sergey Karasev,G,,25:31,105.0,117.7,-12.7,0.125,2.0,20.0,0.154,0.056,0.114,10.0,0.5,0.5,0.13,99.59,0.056,2014-12-26T00:00:00,1,1610612751,BKN,Brooklyn,13-15,28,28,23,30,0,0,0,0,0,0,0,0,0,0,109,0.494,0.714,0.333,19,43,15,0021400432,1610612751,BKN,Brooklyn,Sergey Karasev,G,,25:31,0.0,0.0,0.0,4.0,16.0,2.0,13.0,34.0,0.0,1.0,2.0,0.0
0021400432,1610612751,BKN,Brooklyn,203508,Sergey Karasev,G,,25:31,105.0,117.7,-12.7,0.125,2.0,20.0,0.154,0.056,0.114,10.0,0.5,0.5,0.13,99.59,0.056,2014-12-26T00:00:00,1,1610612738,BOS,Boston,10-17,29,27,30,21,0,0,0,0,0,0,0,0,0,0,107,0.517,0.727,0.375,32,37,14,0021400432,1610612751,BKN,Brooklyn,Sergey Karasev,G,,25:31,0.0,0.0,0.0,4.0,16.0,2.0,13.0,34.0,0.0,1.0,2.0,0.0
0021400432,1610612751,BKN,Brooklyn,101127,Jarrett Jack,G,,34:03,112.7,109.1,3.6,0.238,1.25,18.2,0.0,0.304,0.127,14.6,0.607,0.734,0.279,99.21,0.226,2014-12-26T00:00:00,1,1610612751,BKN,Brooklyn,13-15,28,28,23,30,0,0,0,0,0,0,0,0,0,0,109,0.494,0.714,0.333,19,43,15,0021400432,1610612751,BKN,Brooklyn,Jarrett Jack,G,,34:03,0.0,2.0,5.0,12.0,18.0,2.0,15.0,42.0,1.0,0.0,1.0,7.0
0021400432,1610612751,BKN,Brooklyn,101127,Jarrett Jack,G,,34:03,112.7,109.1,3.6,0.238,1.25,18.2,0.0,0.304,0.127,14.6,0.607,0.734,0.279,99.21,0.226,2014-12-26T00:00:00,1,1610612738,BOS,Boston,10-17,29,27,30,21,0,0,0,0,0,0,0,0,0,0,107,0.517,0.727,0.375,32,37,14,0021400432,1610612751,BKN,Brooklyn,Jarrett Jack,G,,34:03,0.0,2.0,5.0,12.0,18.0,2.0,15.0,42.0,1.0,0.0,1.0,7.0
0021400432,1610612751,BKN,Brooklyn,201572,Brook Lopez,,,13:39,109.0,119.4,-10.4,0.0,0.0,0.0,0.077,0.0,0.053,12.5,0.571,0.571,0.254,99.89,0.057,2014-12-26T00:00:00,1,1610612751,BKN,Brooklyn,13-15,28,28,23,30,0,0,0,0,0,0,0,0,0,0,109,0.494,0.714,0.333,19,43,15,0021400432,1610612751,BKN,Brooklyn,Brook Lopez,,,13:39,2.0,4.0,0.0,4.0,4.0,0.0,6.0,16.0,0.0,0.0,1.0,1.0
0021400432,1610612751,BKN,Brooklyn,201572,Brook Lopez,,,13:39,109.0,119.4,-10.4,0.0,0.0,0.0,0.077,0.0,0.053,12.5,0.571,0.571,0.254,99.89,0.057,2014-12-26T00:00:00,1,1610612738,BOS,Boston,10-17,29,27,30,21,0,0,0,0,0,0,0,0,0,0,107,0.517,0.727,0.375,32,37,14,0021400432,1610612751,BKN,Brooklyn,Brook Lopez,,,13:39,2.0,4.0,0.0,4.0,4.0,0.0,6.0,16.0,0.0,0.0,1.0,1.0
0021400432,1610612751,BKN,Brooklyn,101187,Alan Anderson,,,24:36,132.4,100.7,31.7,0.1,0.0,20.2,0.045,0.0,0.025,0.0,0.929,0.952,0.139,97.8,0.147,2014-12-26T00:00:00,1,1610612751,BKN,Brooklyn,13-15,28,28,23,30,0,0,0,0,0,0,0,0,0,0,109,0.494,0.714,0.333,19,43,15,0021400432,1610612751,BKN,Brooklyn,Alan Anderson,,,24:36,4.0,3.0,2.0,4.0,2.0,3.0,0.0,26.0,0.0,1.0,1.0,3.0
0021400432,1610612751,BKN,Brooklyn,101187,Alan Anderson,,,24:36,132.4,100.7,31.7,0.1,0.0,20.2,0.045,0.0,0.025,0.0,0.929,0.952,0.139,97.8,0.147,2014-12-26T00:00:00,1,1610612738,BOS,Boston,10-17,29,27,30,21,0,0,0,0,0,0,0,0,0,0,107,0.517,0.727,0.375,32,37,14,0021400432,1610612751,BKN,Brooklyn,Alan Anderson,,,24:36,4.0,3.0,2.0,4.0,2.0,3.0,0.0,26.0,0.0,1.0,1.0,3.0
0021400432,1610612751,BKN,Brooklyn,101114,Deron Williams,,,20:53,116.4,97.1,19.3,0.222,4.0,29.3,0.053,0.2,0.118,7.3,0.333,0.463,0.205,101.43,0.082,2014-12-26T00:00:00,1,1610612751,BKN,Brooklyn,13-15,28,28,23,30,0,0,0,0,0,0,0,0,0,0,109,0.494,0.714,0.333,19,43,15,0021400432,1610612751,BKN,Brooklyn,Deron Williams,,,20:53,2.0,0.0,0.0,2.0,2.0,3.0,2.0,26.0,0.0,0.0,1.0,3.0
0021400432,1610612751,BKN,Brooklyn,101114,Deron Williams,,,20:53,116.4,97.1,19.3,0.222,4.0,29.3,0.053,0.2,0.118,7.3,0.333,0.463,0.205,101.43,0.082,2014-12-26T00:00:00,1,1610612738,BOS,Boston,10-17,29,27,30,21,0,0,0,0,0,0,0,0,0,0,107,0.517,0.727,0.375,32,37,14,0021400432,1610612751,BKN,Brooklyn,Deron Williams,,,20:53,2.0,0.0,0.0,2.0,2.0,3.0,2.0,26.0,0.0,0.0,1.0,3.0
0021400432,1610612751,BKN,Brooklyn,202711,Bojan Bogdanovic,,,11:45,116.3,81.5,34.8,0.111,1.0,12.5,0.0,0.25,0.13,12.5,0.333,0.333,0.268,96.82,0.07,2014-12-26T00:00:00,1,1610612751,BKN,Brooklyn,13-15,28,28,23,30,0,0,0,0,0,0,0,0,0,0,109,0.494,0.714,0.333,19,43,15,0021400432,1610612751,BKN,Brooklyn,Bojan Bogdanovic,,,11:45,0.0,0.0,2.0,4.0,0.0,3.0,0.0,14.0,0.0,0.0,1.0,0.0
0021400432,1610612751,BKN,Brooklyn,202711,Bojan Bogdanovic,,,11:45,116.3,81.5,34.8,0.111,1.0,12.5,0.0,0.25,0.13,12.5,0.333,0.333,0.268,96.82,0.07,2014-12-26T00:00:00,1,1610612738,BOS,Boston,10-17,29,27,30,21,0,0,0,0,0,0,0,0,0,0,107,0.517,0.727,0.375,32,37,14,0021400432,1610612751,BKN,Brooklyn,Bojan Bogdanovic,,,11:45,0.0,0.0,2.0,4.0,0.0,3.0,0.0,14.0,0.0,0.0,1.0,0.0
0021400432,1610612751,BKN,Brooklyn,203141,Mirza Teletovic,,,21:31,113.2,97.5,15.8,0.0,0.0,0.0,0.048,0.2,0.111,7.8,0.455,0.463,0.262,101.9,0.081,2014-12-26T00:00:00,1,1610612751,BKN,Brooklyn,13-15,28,28,23,30,0,0,0,0,0,0,0,0,0,0,109,0.494,0.714,0.333,19,43,15,0021400432,1610612751,BKN,Brooklyn,Mirza Teletovic,,,21:31,0.0,0.0,0.0,4.0,2.0,3.0,2.0,26.0,1.0,1.0,1.0,1.0
0021400432,1610612751,BKN,Brooklyn,203141,Mirza Teletovic,,,21:31,113.2,97.5,15.8,0.0,0.0,0.0,0.048,0.2,0.111,7.8,0.455,0.463,0.262,101.9,0.081,2014-12-26T00:00:00,1,1610612738,BOS,Boston,10-17,29,27,30,21,0,0,0,0,0,0,0,0,0,0,107,0.517,0.727,0.375,32,37,14,0021400432,1610612751,BKN,Brooklyn,Mirza Teletovic,,,21:31,0.0,0.0,0.0,4.0,2.0,3.0,2.0,26.0,1.0,1.0,1.0,1.0
0021400432,1610612751,BKN,Brooklyn,203561,Brandon Davies,,DNP - Coach's Decision                  ,,,,,,,0.0,,,,,,,0.0,,,2014-12-26T00:00:00,1,1610612751,BKN,Brooklyn,13-15,28,28,23,30,0,0,0,0,0,0,0,0,0,0,109,0.494,0.714,0.333,19,43,15,0021400432,1610612751,BKN,Brooklyn,Brandon Davies,,DNP - Coach's Decision                  ,,,,,,,,,,,,,
0021400432,1610612751,BKN,Brooklyn,203561,Brandon Davies,,DNP - Coach's Decision                  ,,,,,,,0.0,,,,,,,0.0,,,2014-12-26T00:00:00,1,1610612738,BOS,Boston,10-17,29,27,30,21,0,0,0,0,0,0,0,0,0,0,107,0.517,0.727,0.375,32,37,14,0021400432,1610612751,BKN,Brooklyn,Brandon Davies,,DNP - Coach's Decision                  ,,,,,,,,,,,,,
0021400432,1610612751,BKN,Brooklyn,202366,Jerome Jordan,,DNP - Coach's Decision                  ,,,,,,,0.0,,,,,,,0.0,,,2014-12-26T00:00:00,1,1610612751,BKN,Brooklyn,13-15,28,28,23,30,0,0,0,0,0,0,0,0,0,0,109,0.494,0.714,0.333,19,43,15,0021400432,1610612751,BKN,Brooklyn,Jerome Jordan,,DNP - Coach's Decision                  ,,,,,,,,,,,,,
0021400432,1610612751,BKN,Brooklyn,202366,Jerome Jordan,,DNP - Coach's Decision                  ,,,,,,,0.0,,,,,,,0.0,,,2014-12-26T00:00:00,1,1610612738,BOS,Boston,10-17,29,27,30,21,0,0,0,0,0,0,0,0,0,0,107,0.517,0.727,0.375,32,37,14,0021400432,1610612751,BKN,Brooklyn,Jerome Jordan,,DNP - Coach's Decision                  ,,,,,,,,,,,,,
0021400432,1610612751,BKN,Brooklyn,202721,Darius Morris,,DNP - Coach's Decision                  ,,,,,,,0.0,,,,,,,0.0,,,2014-12-26T00:00:00,1,1610612751,BKN,Brooklyn,13-15,28,28,23,30,0,0,0,0,0,0,0,0,0,0,109,0.494,0.714,0.333,19,43,15,0021400432,1610612751,BKN,Brooklyn,Darius Morris,,DNP - Coach's Decision                  ,,,,,,,,,,,,,
0021400432,1610612751,BKN,Brooklyn,202721,Darius Morris,,DNP - Coach's Decision                  ,,,,,,,0.0,,,,,,,0.0,,,2014-12-26T00:00:00,1,1610612738,BOS,Boston,10-17,29,27,30,21,0,0,0,0,0,0,0,0,0,0,107,0.517,0.727,0.375,32,37,14,0021400432,1610612751,BKN,Brooklyn,Darius Morris,,DNP - Coach's Decision                  ,,,,,,,,,,,,,
0021400432,1610612738,BOS,Boston,201145,Jeff Green,F,,33:33,104.9,106.9,-2.0,0.227,0.0,20.9,0.0,0.097,0.056,0.0,0.583,0.583,0.25,99.36,0.14,2014-12-26T00:00:00,1,1610612751,BKN,Brooklyn,13-15,28,28,23,30,0,0,0,0,0,0,0,0,0,0,109,0.494,0.714,0.333,19,43,15,0021400432,1610612738,BOS,Boston,Jeff Green,F,,33:33,4.0,0.0,6.0,10.0,6.0,7.0,2.0,34.0,0.0,1.0,3.0,1.0
0021400432,1610612738,BOS,Boston,201145,Jeff Green,F,,33:33,104.9,106.9,-2.0,0.227,0.0,20.9,0.0,0.097,0.056,0.0,0.583,0.583,0.25,99.36,0.14,2014-12-26T00:00:00,1,1610612738,BOS,Boston,10-17,29,27,30,21,0,0,0,0,0,0,0,0,0,0,107,0.517,0.727,0.375,32,37,14,0021400432,1610612738,BOS,Boston,Jeff Green,F,,33:33,4.0,0.0,6.0,10.0,6.0,7.0,2.0,34.0,0.0,1.0,3.0,1.0
0021400432,1610612738,BOS,Boston,203096,Jared Sullinger,F,,31:41,107.3,107.6,-0.3,0.091,2.0,10.3,0.091,0.207,0.157,5.1,0.563,0.578,0.248,96.65,0.139,2014-12-26T00:00:00,1,1610612751,BKN,Brooklyn,13-15,28,28,23,30,0,0,0,0,0,0,0,0,0,0,109,0.494,0.714,0.333,19,43,15,0021400432,1610612738,BOS,Boston,Jared Sullinger,F,,31:41,4.0,0.0,3.0,10.0,6.0,7.0,4.0,34.0,0.0,0.0,2.0,2.0
0021400432,1610612738,BOS,Boston,203096,Jared Sullinger,F,,31:41,107.3,107.6,-0.3,0.091,2.0,10.3,0.091,0.207,0.157,5.1,0.563,0.578,0.248,96.65,0.139,2014-12-26T00:00:00,1,1610612738,BOS,Boston,10-17,29,27,30,21,0,0,0,0,0,0,0,0,0,0,107,0.517,0.727,0.375,32,37,14,0021400432,1610612738,BOS,Boston,Jared Sullinger,F,,31:41,4.0,0.0,3.0,10.0,6.0,7.0,4.0,34.0,0.0,0.0,2.0,2.0
0021400432,1610612738,BOS,Boston,203092,Tyler Zeller,C,,23:34,101.6,102.8,-1.3,0.059,0.5,7.8,0.118,0.318,0.231,15.5,0.667,0.709,0.223,102.65,0.206,2014-12-26T00:00:00,1,1610612751,BKN,Brooklyn,13-15,28,28,23,30,0,0,0,0,0,0,0,0,0,0,109,0.494,0.714,0.333,19,43,15,0021400432,1610612738,BOS,Boston,Tyler Zeller,C,,23:34,4.0,2.0,0.0,12.0,4.0,4.0,2.0,24.0,1.0,1.0,1.0,2.0
0021400432,1610612738,BOS,Boston,203092,Tyler Zeller,C,,23:34,101.6,102.8,-1.3,0.059,0.5,7.8,0.118,0.318,0.231,15.5,0.667,0.709,0.223,102.65,0.206,2014-12-26T00:00:00,1,1610612738,BOS,Boston,10-17,29,27,30,21,0,0,0,0,0,0,0,0,0,0,107,0.517,0.727,0.375,32,37,14,0021400432,1610612738,BOS,Boston,Tyler Zeller,C,,23:34,4.0,2.0,0.0,12.0,4.0,4.0,2.0,24.0,1.0,1.0,1.0,2.0
0021400432,1610612738,BOS,Boston,202340,Avery Bradley,G,,31:39,102.7,105.6,-3.0,0.091,2.0,11.8,0.0,0.143,0.077,5.9,0.607,0.607,0.211,98.34,0.109,2014-12-26T00:00:00,1,1610612751,BKN,Brooklyn,13-15,28,28,23,30,0,0,0,0,0,0,0,0,0,0,109,0.494,0.714,0.333,19,43,15,0021400432,1610612738,BOS,Boston,Avery Bradley,G,,31:39,2.0,0.0,4.0,8.0,8.0,5.0,4.0,34.0,0.0,0.0,3.0,0.0
0021400432,1610612738,BOS,Boston,202340,Avery Bradley,G,,31:39,102.7,105.6,-3.0,0.091,2.0,11.8,0.0,0.143,0.077,5.9,0.607,0.607,0.211,98.34,0.109,2014-12-26T00:00:00,1,1610612738,BOS,Boston,10-17,29,27,30,21,0,0,0,0,0,0,0,0,0,0,107,0.517,0.727,0.375,32,37,14,0021400432,1610612738,BOS,Boston,Avery Bradley,G,,31:39,2.0,0.0,4.0,8.0,8.0,5.0,4.0,34.0,0.0,0.0,3.0,0.0
0021400432,1610612738,BOS,Boston,203935,Marcus Smart,G,,30:47,96.0,96.3,-0.4,0.24,2.0,40.0,0.04,0.069,0.056,20.0,0.417,0.417,0.129,99.72,0.053,2014-12-26T00:00:00,1,1610612751,BKN,Brooklyn,13-15,28,28,23,30,0,0,0,0,0,0,0,0,0,0,109,0.494,0.714,0.333,19,43,15,0021400432,1610612738,BOS,Boston,Marcus Smart,G,,30:47,0.0,0.0,0.0,0.0,10.0,5.0,6.0,32.0,0.0,0.0,5.0,1.0
0021400432,1610612738,BOS,Boston,203935,Marcus Smart,G,,30:47,96.0,96.3,-0.4,0.24,2.0,40.0,0.04,0.069,0.056,20.0,0.417,0.417,0.129,99.72,0.053,2014-12-26T00:00:00,1,1610612738,BOS,Boston,10-17,29,27,30,21,0,0,0,0,0,0,0,0,0,0,107,0.517,0.727,0.375,32,37,14,0021400432,1610612738,BOS,Boston,Marcus Smart,G,,30:47,0.0,0.0,0.0,0.0,10.0,5.0,6.0,32.0,0.0,0.0,5.0,1.0
0021400432,1610612738,BOS,Boston,2749,Jameer Nelson,,,16:52,132.5,139.8,-7.3,0.471,0.0,64.9,0.0,0.188,0.12,0.0,0.5,0.579,0.13,97.11,0.111,2014-12-26T00:00:00,1,1610612751,BKN,Brooklyn,13-15,28,28,23,30,0,0,0,0,0,0,0,0,0,0,109,0.494,0.714,0.333,19,43,15,0021400432,1610612738,BOS,Boston,Jameer Nelson,,,16:52,2.0,0.0,0.0,0.0,2.0,6.0,5.0,24.0,0.0,1.0,2.0,1.0
0021400432,1610612738,BOS,Boston,2749,Jameer Nelson,,,16:52,132.5,139.8,-7.3,0.471,0.0,64.9,0.0,0.188,0.12,0.0,0.5,0.579,0.13,97.11,0.111,2014-12-26T00:00:00,1,1610612738,BOS,Boston,10-17,29,27,30,21,0,0,0,0,0,0,0,0,0,0,107,0.517,0.727,0.375,32,37,14,0021400432,1610612738,BOS,Boston,Jameer Nelson,,,16:52,2.0,0.0,0.0,0.0,2.0,6.0,5.0,24.0,0.0,1.0,2.0,1.0
0021400432,1610612738,BOS,Boston,203482,Kelly Olynyk,,,24:11,122.0,118.7,3.3,0.048,1.0,9.2,0.0,0.13,0.075,9.2,0.625,0.619,0.184,100.61,0.063,2014-12-26T00:00:00,1,1610612751,BKN,Brooklyn,13-15,28,28,23,30,0,0,0,0,0,0,0,0,0,0,109,0.494,0.714,0.333,19,43,15,0021400432,1610612738,BOS,Boston,Kelly Olynyk,,,24:11,2.0,0.0,2.0,10.0,8.0,6.0,9.0,30.0,2.0,0.0,3.0,1.0
0021400432,1610612738,BOS,Boston,203482,Kelly Olynyk,,,24:11,122.0,118.7,3.3,0.048,1.0,9.2,0.0,0.13,0.075,9.2,0.625,0.619,0.184,100.61,0.063,2014-12-26T00:00:00,1,1610612738,BOS,Boston,10-17,29,27,30,21,0,0,0,0,0,0,0,0,0,0,107,0.517,0.727,0.375,32,37,14,0021400432,1610612738,BOS,Boston,Kelly Olynyk,,,24:11,2.0,0.0,2.0,10.0,8.0,6.0,9.0,30.0,2.0,0.0,3.0,1.0
0021400432,1610612738,BOS,Boston,202323,Evan Turner,,,21:27,103.3,128.1,-24.8,0.353,3.0,50.0,0.0,0.091,0.053,16.7,0.375,0.375,0.134,95.54,0.043,2014-12-26T00:00:00,1,1610612751,BKN,Brooklyn,13-15,28,28,23,30,0,0,0,0,0,0,0,0,0,0,109,0.494,0.714,0.333,19,43,15,0021400432,1610612738,BOS,Boston,Evan Turner,,,21:27,0.0,0.0,0.0,0.0,6.0,9.0,7.0,30.0,0.0,0.0,3.0,0.0
0021400432,1610612738,BOS,Boston,202323,Evan Turner,,,21:27,103.3,128.1,-24.8,0.353,3.0,50.0,0.0,0.091,0.053,16.7,0.375,0.375,0.134,95.54,0.043,2014-12-26T00:00:00,1,1610612738,BOS,Boston,10-17,29,27,30,21,0,0,0,0,0,0,0,0,0,0,107,0.517,0.727,0.375,32,37,14,0021400432,1610612738,BOS,Boston,Evan Turner,,,21:27,0.0,0.0,0.0,0.0,6.0,9.0,7.0,30.0,0.0,0.0,3.0,0.0
0021400432,1610612738,BOS,Boston,201148,Brandan Wright,,,6:27,95.9,109.3,-13.4,0.333,0.33,14.3,0.0,0.143,0.077,42.9,0.667,0.667,0.361,112.55,0.075,2014-12-26T00:00:00,1,1610612751,BKN,Brooklyn,13-15,28,28,23,30,0,0,0,0,0,0,0,0,0,0,109,0.494,0.714,0.333,19,43,15,0021400432,1610612738,BOS,Boston,Brandan Wright,,,6:27,0.0,0.0,0.0,4.0,4.0,0.0,5.0,6.0,0.0,0.0,1.0,1.0
0021400432,1610612738,BOS,Boston,201148,Brandan Wright,,,6:27,95.9,109.3,-13.4,0.333,0.33,14.3,0.0,0.143,0.077,42.9,0.667,0.667,0.361,112.55,0.075,2014-12-26T00:00:00,1,1610612738,BOS,Boston,10-17,29,27,30,21,0,0,0,0,0,0,0,0,0,0,107,0.517,0.727,0.375,32,37,14,0021400432,1610612738,BOS,Boston,Brandan Wright,,,6:27,0.0,0.0,0.0,4.0,4.0,0.0,5.0,6.0,0.0,0.0,1.0,1.0
0021400432,1610612738,BOS,Boston,203109,Jae Crowder,,,15:31,108.6,115.8,-7.2,0.0,0.0,0.0,0.0,0.067,0.037,18.4,0.25,0.338,0.168,97.85,0.0,2014-12-26T00:00:00,1,1610612751,BKN,Brooklyn,13-15,28,28,23,30,0,0,0,0,0,0,0,0,0,0,109,0.494,0.714,0.333,19,43,15,0021400432,1610612738,BOS,Boston,Jae Crowder,,,15:31,0.0,3.0,0.0,2.0,6.0,4.0,9.0,22.0,0.0,0.0,0.0,1.0
0021400432,1610612738,BOS,Boston,203109,Jae Crowder,,,15:31,108.6,115.8,-7.2,0.0,0.0,0.0,0.0,0.067,0.037,18.4,0.25,0.338,0.168,97.85,0.0,2014-12-26T00:00:00,1,1610612738,BOS,Boston,10-17,29,27,30,21,0,0,0,0,0,0,0,0,0,0,107,0.517,0.727,0.375,32,37,14,0021400432,1610612738,BOS,Boston,Jae Crowder,,,15:31,0.0,3.0,0.0,2.0,6.0,4.0,9.0,22.0,0.0,0.0,0.0,1.0
0021400432,1610612738,BOS,Boston,101138,Brandon Bass,,,4:17,75.0,154.0,-79.0,0.0,0.0,0.0,0.0,0.0,0.0,0.0,1.0,1.0,0.25,92.12,0.182,2014-12-26T00:00:00,1,1610612751,BKN,Brooklyn,13-15,28,28,23,30,0,0,0,0,0,0,0,0,0,0,109,0.494,0.714,0.333,19,43,15,0021400432,1610612738,BOS,Boston,Brandon Bass,,,4:17,0.0,0.0,0.0,4.0,0.0,2.0,2.0,10.0,0.0,0.0,0.0,0.0
0021400432,1610612738,BOS,Boston,101138,Brandon Bass,,,4:17,75.0,154.0,-79.0,0.0,0.0,0.0,0.0,0.0,0.0,0.0,1.0,1.0,0.25,92.12,0.182,2014-12-26T00:00:00,1,1610612738,BOS,Boston,10-17,29,27,30,21,0,0,0,0,0,0,0,0,0,0,107,0.517,0.727,0.375,32,37,14,0021400432,1610612738,BOS,Boston,Brandon Bass,,,4:17,0.0,0.0,0.0,4.0,0.0,2.0,2.0,10.0,0.0,0.0,0.0,0.0
0021400432,1610612738,BOS,Boston,2222,Gerald Wallace,,,0:02,0.0,0.0,0.0,0.0,0.0,0.0,0.0,0.0,0.0,0.0,0.0,0.0,0.0,960.0,0.0,2014-12-26T00:00:00,1,1610612751,BKN,Brooklyn,13-15,28,28,23,30,0,0,0,0,0,0,0,0,0,0,109,0.494,0.714,0.333,19,43,15,0021400432,1610612738,BOS,Boston,Gerald Wallace,,,0:02,0.0,0.0,0.0,0.0,0.0,0.0,0.0,0.0,0.0,0.0,0.0,0.0
0021400432,1610612738,BOS,Boston,2222,Gerald Wallace,,,0:02,0.0,0.0,0.0,0.0,0.0,0.0,0.0,0.0,0.0,0.0,0.0,0.0,0.0,960.0,0.0,2014-12-26T00:00:00,1,1610612738,BOS,Boston,10-17,29,27,30,21,0,0,0,0,0,0,0,0,0,0,107,0.517,0.727,0.375,32,37,14,0021400432,1610612738,BOS,Boston,Gerald Wallace,,,0:02,0.0,0.0,0.0,0.0,0.0,0.0,0.0,0.0,0.0,0.0,0.0,0.0
0021400432,1610612738,BOS,Boston,203515,Phil Pressey,,DNP - Coach's Decision                  ,,,,,,,0.0,,,,,,,0.0,,,2014-12-26T00:00:00,1,1610612751,BKN,Brooklyn,13-15,28,28,23,30,0,0,0,0,0,0,0,0,0,0,109,0.494,0.714,0.333,19,43,15,0021400432,1610612738,BOS,Boston,Phil Pressey,,DNP - Coach's Decision                  ,,,,,,,,,,,,,
0021400432,1610612738,BOS,Boston,203515,Phil Pressey,,DNP - Coach's Decision                  ,,,,,,,0.0,,,,,,,0.0,,,2014-12-26T00:00:00,1,1610612738,BOS,Boston,10-17,29,27,30,21,0,0,0,0,0,0,0,0,0,0,107,0.517,0.727,0.375,32,37,14,0021400432,1610612738,BOS,Boston,Phil Pressey,,DNP - Coach's Decision                  ,,,,,,,,,,,,,
