GAME_ID_x,TEAM_ID_x,TEAM_ABBREVIATION_x,TEAM_CITY_x,PLAYER_ID,PLAYER_NAME_x,START_POSITION_x,COMMENT_x,MIN_x,OFF_RATING,DEF_RATING,NET_RATING,AST_PCT,AST_TOV,AST_RATIO,OREB_PCT,DREB_PCT,REB_PCT,TM_TOV_PCT,EFG_PCT,TS_PCT,USG_PCT,PACE,PIE,GAME_DATE_EST,GAME_SEQUENCE,TEAM_ID_y,TEAM_ABBREVIATION_y,TEAM_CITY_NAME,TEAM_WINS_LOSSES,PTS_QTR1,PTS_QTR2,PTS_QTR3,PTS_QTR4,PTS_OT1,PTS_OT2,PTS_OT3,PTS_OT4,PTS_OT5,PTS_OT6,PTS_OT7,PTS_OT8,PTS_OT9,PTS_OT10,PTS,FG_PCT,FT_PCT,FG3_PCT,AST,REB,TOV,GAME_ID_y,TEAM_ID,TEAM_ABBREVIATION,TEAM_CITY_y,PLAYER_NAME_y,START_POSITION_y,COMMENT_y,MIN_y,PTS_OFF_TOV,PTS_2ND_CHANCE,PTS_FB,PTS_PAINT,OPP_PTS_OFF_TOV,OPP_PTS_2ND_CHANCE,OPP_PTS_FB,OPP_PTS_PAINT,BLK,BLKA,PF,PFD
0021300732,1610612750,MIN,Minnesota,201601,Luc Mbah a Moute,F,,26:37,109.6,119.8,-10.2,0.0,0.0,0.0,0.083,0.08,0.082,20.2,0.429,0.508,0.179,91.11,0.027,2014-02-05T00:00:00,9,1610612750,MIN,Minnesota,24-25,25,29,23,20,0,0,0,0,0,0,0,0,0,0,97,0.474,0.739,0.3,18,39,14,0021300732,1610612750,MIN,Minnesota,Luc Mbah a Moute,F,,26:37,0.0,4.0,0.0,4.0,6.0,10.0,8.0,24.0,0.0,1.0,2.0,1.0
0021300732,1610612750,MIN,Minnesota,201601,Luc Mbah a Moute,F,,26:37,109.6,119.8,-10.2,0.0,0.0,0.0,0.083,0.08,0.082,20.2,0.429,0.508,0.179,91.11,0.027,2014-02-05T00:00:00,9,1610612760,OKC,Oklahoma City,40-11,26,30,24,26,0,0,0,0,0,0,0,0,0,0,106,0.484,0.727,0.37,25,49,16,0021300732,1610612750,MIN,Minnesota,Luc Mbah a Moute,F,,26:37,0.0,4.0,0.0,4.0,6.0,10.0,8.0,24.0,0.0,1.0,2.0,1.0
0021300732,1610612750,MIN,Minnesota,201967,Dante Cunningham,F,,42:35,98.5,115.9,-17.5,0.143,1.5,16.7,0.081,0.116,0.1,11.1,0.692,0.692,0.168,91.42,0.153,2014-02-05T00:00:00,9,1610612750,MIN,Minnesota,24-25,25,29,23,20,0,0,0,0,0,0,0,0,0,0,97,0.474,0.739,0.3,18,39,14,0021300732,1610612750,MIN,Minnesota,Dante Cunningham,F,,42:35,2.0,4.0,0.0,6.0,14.0,17.0,12.0,42.0,3.0,0.0,3.0,0.0
0021300732,1610612750,MIN,Minnesota,201967,Dante Cunningham,F,,42:35,98.5,115.9,-17.5,0.143,1.5,16.7,0.081,0.116,0.1,11.1,0.692,0.692,0.168,91.42,0.153,2014-02-05T00:00:00,9,1610612760,OKC,Oklahoma City,40-11,26,30,24,26,0,0,0,0,0,0,0,0,0,0,106,0.484,0.727,0.37,25,49,16,0021300732,1610612750,MIN,Minnesota,Dante Cunningham,F,,42:35,2.0,4.0,0.0,6.0,14.0,17.0,12.0,42.0,3.0,0.0,3.0,0.0
0021300732,1610612750,MIN,Minnesota,101142,Ronny Turiaf,C,,28:13,122.7,115.9,6.8,0.043,0.0,25.8,0.0,0.16,0.087,0.0,0.5,0.694,0.05,89.12,0.059,2014-02-05T00:00:00,9,1610612750,MIN,Minnesota,24-25,25,29,23,20,0,0,0,0,0,0,0,0,0,0,97,0.474,0.739,0.3,18,39,14,0021300732,1610612750,MIN,Minnesota,Ronny Turiaf,C,,28:13,0.0,0.0,0.0,2.0,3.0,11.0,7.0,26.0,4.0,0.0,3.0,3.0
0021300732,1610612750,MIN,Minnesota,101142,Ronny Turiaf,C,,28:13,122.7,115.9,6.8,0.043,0.0,25.8,0.0,0.16,0.087,0.0,0.5,0.694,0.05,89.12,0.059,2014-02-05T00:00:00,9,1610612760,OKC,Oklahoma City,40-11,26,30,24,26,0,0,0,0,0,0,0,0,0,0,106,0.484,0.727,0.37,25,49,16,0021300732,1610612750,MIN,Minnesota,Ronny Turiaf,C,,28:13,0.0,0.0,0.0,2.0,3.0,11.0,7.0,26.0,4.0,0.0,3.0,3.0
0021300732,1610612750,MIN,Minnesota,2755,Kevin Martin,G,,23:03,108.7,125.7,-17.0,0.077,0.0,9.1,0.0,0.087,0.049,0.0,0.4,0.4,0.23,88.67,0.07,2014-02-05T00:00:00,9,1610612750,MIN,Minnesota,24-25,25,29,23,20,0,0,0,0,0,0,0,0,0,0,97,0.474,0.739,0.3,18,39,14,0021300732,1610612750,MIN,Minnesota,Kevin Martin,G,,23:03,2.0,0.0,0.0,8.0,3.0,11.0,5.0,26.0,0.0,1.0,0.0,0.0
0021300732,1610612750,MIN,Minnesota,2755,Kevin Martin,G,,23:03,108.7,125.7,-17.0,0.077,0.0,9.1,0.0,0.087,0.049,0.0,0.4,0.4,0.23,88.67,0.07,2014-02-05T00:00:00,9,1610612760,OKC,Oklahoma City,40-11,26,30,24,26,0,0,0,0,0,0,0,0,0,0,106,0.484,0.727,0.37,25,49,16,0021300732,1610612750,MIN,Minnesota,Kevin Martin,G,,23:03,2.0,0.0,0.0,8.0,3.0,11.0,5.0,26.0,0.0,1.0,0.0,0.0
0021300732,1610612750,MIN,Minnesota,201937,Ricky Rubio,G,,33:07,97.7,112.7,-15.0,0.278,1.25,19.3,0.03,0.206,0.119,15.5,0.542,0.564,0.288,94.3,0.133,2014-02-05T00:00:00,9,1610612750,MIN,Minnesota,24-25,25,29,23,20,0,0,0,0,0,0,0,0,0,0,97,0.474,0.739,0.3,18,39,14,0021300732,1610612750,MIN,Minnesota,Ricky Rubio,G,,33:07,5.0,0.0,0.0,8.0,12.0,14.0,12.0,30.0,0.0,1.0,0.0,8.0
0021300732,1610612750,MIN,Minnesota,201937,Ricky Rubio,G,,33:07,97.7,112.7,-15.0,0.278,1.25,19.3,0.03,0.206,0.119,15.5,0.542,0.564,0.288,94.3,0.133,2014-02-05T00:00:00,9,1610612760,OKC,Oklahoma City,40-11,26,30,24,26,0,0,0,0,0,0,0,0,0,0,106,0.484,0.727,0.37,25,49,16,0021300732,1610612750,MIN,Minnesota,Ricky Rubio,G,,33:07,5.0,0.0,0.0,8.0,12.0,14.0,12.0,30.0,0.0,1.0,0.0,8.0
0021300732,1610612750,MIN,Minnesota,203144,Alexey Shved,,,17:09,114.2,108.4,5.8,0.083,0.5,8.5,0.0,0.071,0.036,17.0,0.357,0.457,0.279,90.57,0.036,2014-02-05T00:00:00,9,1610612750,MIN,Minnesota,24-25,25,29,23,20,0,0,0,0,0,0,0,0,0,0,97,0.474,0.739,0.3,18,39,14,0021300732,1610612750,MIN,Minnesota,Alexey Shved,,,17:09,2.0,1.0,2.0,2.0,5.0,4.0,5.0,12.0,0.0,1.0,0.0,3.0
0021300732,1610612750,MIN,Minnesota,203144,Alexey Shved,,,17:09,114.2,108.4,5.8,0.083,0.5,8.5,0.0,0.071,0.036,17.0,0.357,0.457,0.279,90.57,0.036,2014-02-05T00:00:00,9,1610612760,OKC,Oklahoma City,40-11,26,30,24,26,0,0,0,0,0,0,0,0,0,0,106,0.484,0.727,0.37,25,49,16,0021300732,1610612750,MIN,Minnesota,Alexey Shved,,,17:09,2.0,1.0,2.0,2.0,5.0,4.0,5.0,12.0,0.0,1.0,0.0,3.0
0021300732,1610612750,MIN,Minnesota,203476,Gorgui Dieng,,,7:56,101.6,104.2,-2.5,0.167,1.0,16.7,0.222,0.429,0.313,16.7,0.0,0.0,0.267,94.02,-0.136,2014-02-05T00:00:00,9,1610612750,MIN,Minnesota,24-25,25,29,23,20,0,0,0,0,0,0,0,0,0,0,97,0.474,0.739,0.3,18,39,14,0021300732,1610612750,MIN,Minnesota,Gorgui Dieng,,,7:56,0.0,0.0,0.0,0.0,3.0,2.0,3.0,4.0,0.0,2.0,3.0,1.0
0021300732,1610612750,MIN,Minnesota,203476,Gorgui Dieng,,,7:56,101.6,104.2,-2.5,0.167,1.0,16.7,0.222,0.429,0.313,16.7,0.0,0.0,0.267,94.02,-0.136,2014-02-05T00:00:00,9,1610612760,OKC,Oklahoma City,40-11,26,30,24,26,0,0,0,0,0,0,0,0,0,0,106,0.484,0.727,0.37,25,49,16,0021300732,1610612750,MIN,Minnesota,Gorgui Dieng,,,7:56,0.0,0.0,0.0,0.0,3.0,2.0,3.0,4.0,0.0,2.0,3.0,1.0
0021300732,1610612750,MIN,Minnesota,201978,Chase Budinger,,,21:23,102.8,107.1,-4.3,0.0,0.0,0.0,0.059,0.091,0.077,22.5,0.417,0.509,0.19,93.07,0.024,2014-02-05T00:00:00,9,1610612750,MIN,Minnesota,24-25,25,29,23,20,0,0,0,0,0,0,0,0,0,0,97,0.474,0.739,0.3,18,39,14,0021300732,1610612750,MIN,Minnesota,Chase Budinger,,,21:23,5.0,0.0,0.0,0.0,8.0,9.0,6.0,20.0,0.0,0.0,3.0,2.0
0021300732,1610612750,MIN,Minnesota,201978,Chase Budinger,,,21:23,102.8,107.1,-4.3,0.0,0.0,0.0,0.059,0.091,0.077,22.5,0.417,0.509,0.19,93.07,0.024,2014-02-05T00:00:00,9,1610612760,OKC,Oklahoma City,40-11,26,30,24,26,0,0,0,0,0,0,0,0,0,0,106,0.484,0.727,0.37,25,49,16,0021300732,1610612750,MIN,Minnesota,Chase Budinger,,,21:23,5.0,0.0,0.0,0.0,8.0,9.0,6.0,20.0,0.0,0.0,3.0,2.0
0021300732,1610612750,MIN,Minnesota,200826,J.J. Barea,,,15:22,94.7,109.9,-15.3,0.667,4.0,33.7,0.091,0.071,0.08,8.4,0.75,0.799,0.25,88.59,0.333,2014-02-05T00:00:00,9,1610612750,MIN,Minnesota,24-25,25,29,23,20,0,0,0,0,0,0,0,0,0,0,97,0.474,0.739,0.3,18,39,14,0021300732,1610612750,MIN,Minnesota,J.J. Barea,,,15:22,2.0,0.0,0.0,2.0,4.0,5.0,4.0,16.0,0.0,0.0,1.0,3.0
0021300732,1610612750,MIN,Minnesota,200826,J.J. Barea,,,15:22,94.7,109.9,-15.3,0.667,4.0,33.7,0.091,0.071,0.08,8.4,0.75,0.799,0.25,88.59,0.333,2014-02-05T00:00:00,9,1610612760,OKC,Oklahoma City,40-11,26,30,24,26,0,0,0,0,0,0,0,0,0,0,106,0.484,0.727,0.37,25,49,16,0021300732,1610612750,MIN,Minnesota,J.J. Barea,,,15:22,2.0,0.0,0.0,2.0,4.0,5.0,4.0,16.0,0.0,0.0,1.0,3.0
0021300732,1610612750,MIN,Minnesota,203133,Robbie Hummel,,,17:16,102.6,112.2,-9.6,0.083,0.0,16.7,0.0,0.053,0.029,0.0,0.5,0.5,0.128,97.1,0.075,2014-02-05T00:00:00,9,1610612750,MIN,Minnesota,24-25,25,29,23,20,0,0,0,0,0,0,0,0,0,0,97,0.474,0.739,0.3,18,39,14,0021300732,1610612750,MIN,Minnesota,Robbie Hummel,,,17:16,3.0,2.0,0.0,0.0,8.0,8.0,6.0,16.0,1.0,0.0,0.0,1.0
0021300732,1610612750,MIN,Minnesota,203133,Robbie Hummel,,,17:16,102.6,112.2,-9.6,0.083,0.0,16.7,0.0,0.053,0.029,0.0,0.5,0.5,0.128,97.1,0.075,2014-02-05T00:00:00,9,1610612760,OKC,Oklahoma City,40-11,26,30,24,26,0,0,0,0,0,0,0,0,0,0,106,0.484,0.727,0.37,25,49,16,0021300732,1610612750,MIN,Minnesota,Robbie Hummel,,,17:16,3.0,2.0,0.0,0.0,8.0,8.0,6.0,16.0,1.0,0.0,0.0,1.0
0021300732,1610612750,MIN,Minnesota,203498,Shabazz Muhammad,,,6:01,120.1,100.9,19.2,0.333,0.0,16.7,0.167,0.0,0.071,0.0,0.6,0.6,0.326,104.51,0.2,2014-02-05T00:00:00,9,1610612750,MIN,Minnesota,24-25,25,29,23,20,0,0,0,0,0,0,0,0,0,0,97,0.474,0.739,0.3,18,39,14,0021300732,1610612750,MIN,Minnesota,Shabazz Muhammad,,,6:01,2.0,2.0,0.0,4.0,4.0,4.0,2.0,4.0,0.0,0.0,1.0,0.0
0021300732,1610612750,MIN,Minnesota,203498,Shabazz Muhammad,,,6:01,120.1,100.9,19.2,0.333,0.0,16.7,0.167,0.0,0.071,0.0,0.6,0.6,0.326,104.51,0.2,2014-02-05T00:00:00,9,1610612760,OKC,Oklahoma City,40-11,26,30,24,26,0,0,0,0,0,0,0,0,0,0,106,0.484,0.727,0.37,25,49,16,0021300732,1610612750,MIN,Minnesota,Shabazz Muhammad,,,6:01,2.0,2.0,0.0,4.0,4.0,4.0,2.0,4.0,0.0,0.0,1.0,0.0
0021300732,1610612750,MIN,Minnesota,201985,AJ Price,,,1:18,233.3,150.0,83.3,0.0,0.0,0.0,0.0,0.0,0.0,0.0,1.5,1.5,0.333,92.31,0.3,2014-02-05T00:00:00,9,1610612750,MIN,Minnesota,24-25,25,29,23,20,0,0,0,0,0,0,0,0,0,0,97,0.474,0.739,0.3,18,39,14,0021300732,1610612750,MIN,Minnesota,AJ Price,,,1:18,0.0,0.0,0.0,0.0,0.0,0.0,0.0,0.0,0.0,0.0,0.0,0.0
0021300732,1610612750,MIN,Minnesota,201985,AJ Price,,,1:18,233.3,150.0,83.3,0.0,0.0,0.0,0.0,0.0,0.0,0.0,1.5,1.5,0.333,92.31,0.3,2014-02-05T00:00:00,9,1610612760,OKC,Oklahoma City,40-11,26,30,24,26,0,0,0,0,0,0,0,0,0,0,106,0.484,0.727,0.37,25,49,16,0021300732,1610612750,MIN,Minnesota,AJ Price,,,1:18,0.0,0.0,0.0,0.0,0.0,0.0,0.0,0.0,0.0,0.0,0.0,0.0
0021300732,1610612750,MIN,Minnesota,201567,Kevin Love,,DND - Stiff Neck,,,,,,,0.0,,,,,,,0.0,,,2014-02-05T00:00:00,9,1610612750,MIN,Minnesota,24-25,25,29,23,20,0,0,0,0,0,0,0,0,0,0,97,0.474,0.739,0.3,18,39,14,0021300732,1610612750,MIN,Minnesota,Kevin Love,,DND - Stiff Neck,,,,,,,,,,,,,
0021300732,1610612750,MIN,Minnesota,201567,Kevin Love,,DND - Stiff Neck,,,,,,,0.0,,,,,,,0.0,,,2014-02-05T00:00:00,9,1610612760,OKC,Oklahoma City,40-11,26,30,24,26,0,0,0,0,0,0,0,0,0,0,106,0.484,0.727,0.37,25,49,16,0021300732,1610612750,MIN,Minnesota,Kevin Love,,DND - Stiff Neck,,,,,,,,,,,,,
0021300732,1610612760,OKC,Oklahoma City,201142,Kevin Durant,F,,36:52,117.4,105.4,12.1,0.292,1.75,22.3,0.053,0.206,0.125,12.7,0.625,0.636,0.273,92.86,0.189,2014-02-05T00:00:00,9,1610612750,MIN,Minnesota,24-25,25,29,23,20,0,0,0,0,0,0,0,0,0,0,97,0.474,0.739,0.3,18,39,14,0021300732,1610612760,OKC,Oklahoma City,Kevin Durant,F,,36:52,3.0,4.0,7.0,8.0,17.0,10.0,0.0,30.0,0.0,1.0,2.0,3.0
0021300732,1610612760,OKC,Oklahoma City,201142,Kevin Durant,F,,36:52,117.4,105.4,12.1,0.292,1.75,22.3,0.053,0.206,0.125,12.7,0.625,0.636,0.273,92.86,0.189,2014-02-05T00:00:00,9,1610612760,OKC,Oklahoma City,40-11,26,30,24,26,0,0,0,0,0,0,0,0,0,0,106,0.484,0.727,0.37,25,49,16,0021300732,1610612760,OKC,Oklahoma City,Kevin Durant,F,,36:52,3.0,4.0,7.0,8.0,17.0,10.0,0.0,30.0,0.0,1.0,2.0,3.0
0021300732,1610612760,OKC,Oklahoma City,201586,Serge Ibaka,F,,32:04,120.0,112.4,7.5,0.04,0.25,5.9,0.156,0.067,0.113,23.5,0.583,0.583,0.206,91.4,0.067,2014-02-05T00:00:00,9,1610612750,MIN,Minnesota,24-25,25,29,23,20,0,0,0,0,0,0,0,0,0,0,97,0.474,0.739,0.3,18,39,14,0021300732,1610612760,OKC,Oklahoma City,Serge Ibaka,F,,32:04,0.0,4.0,2.0,8.0,13.0,10.0,0.0,30.0,3.0,0.0,3.0,0.0
0021300732,1610612760,OKC,Oklahoma City,201586,Serge Ibaka,F,,32:04,120.0,112.4,7.5,0.04,0.25,5.9,0.156,0.067,0.113,23.5,0.583,0.583,0.206,91.4,0.067,2014-02-05T00:00:00,9,1610612760,OKC,Oklahoma City,40-11,26,30,24,26,0,0,0,0,0,0,0,0,0,0,106,0.484,0.727,0.37,25,49,16,0021300732,1610612760,OKC,Oklahoma City,Serge Ibaka,F,,32:04,0.0,4.0,2.0,8.0,13.0,10.0,0.0,30.0,3.0,0.0,3.0,0.0
0021300732,1610612760,OKC,Oklahoma City,2570,Kendrick Perkins,C,,21:27,125.8,112.0,13.8,0.1,1.0,16.2,0.25,0.438,0.333,16.2,0.286,0.361,0.207,87.43,0.068,2014-02-05T00:00:00,9,1610612750,MIN,Minnesota,24-25,25,29,23,20,0,0,0,0,0,0,0,0,0,0,97,0.474,0.739,0.3,18,39,14,0021300732,1610612760,OKC,Oklahoma City,Kendrick Perkins,C,,21:27,0.0,1.0,0.0,4.0,5.0,2.0,0.0,20.0,0.0,3.0,4.0,2.0
0021300732,1610612760,OKC,Oklahoma City,2570,Kendrick Perkins,C,,21:27,125.8,112.0,13.8,0.1,1.0,16.2,0.25,0.438,0.333,16.2,0.286,0.361,0.207,87.43,0.068,2014-02-05T00:00:00,9,1610612760,OKC,Oklahoma City,40-11,26,30,24,26,0,0,0,0,0,0,0,0,0,0,106,0.484,0.727,0.37,25,49,16,0021300732,1610612760,OKC,Oklahoma City,Kendrick Perkins,C,,21:27,0.0,1.0,0.0,4.0,5.0,2.0,0.0,20.0,0.0,3.0,4.0,2.0
0021300732,1610612760,OKC,Oklahoma City,200757,Thabo Sefolosha,G,,31:54,127.0,115.8,11.3,0.069,0.0,12.0,0.063,0.143,0.1,0.0,0.292,0.41,0.189,91.03,0.075,2014-02-05T00:00:00,9,1610612750,MIN,Minnesota,24-25,25,29,23,20,0,0,0,0,0,0,0,0,0,0,97,0.474,0.739,0.3,18,39,14,0021300732,1610612760,OKC,Oklahoma City,Thabo Sefolosha,G,,31:54,4.0,4.0,0.0,2.0,14.0,8.0,0.0,30.0,1.0,1.0,0.0,3.0
0021300732,1610612760,OKC,Oklahoma City,200757,Thabo Sefolosha,G,,31:54,127.0,115.8,11.3,0.069,0.0,12.0,0.063,0.143,0.1,0.0,0.292,0.41,0.189,91.03,0.075,2014-02-05T00:00:00,9,1610612760,OKC,Oklahoma City,40-11,26,30,24,26,0,0,0,0,0,0,0,0,0,0,106,0.484,0.727,0.37,25,49,16,0021300732,1610612760,OKC,Oklahoma City,Thabo Sefolosha,G,,31:54,4.0,4.0,0.0,2.0,14.0,8.0,0.0,30.0,1.0,1.0,0.0,3.0
0021300732,1610612760,OKC,Oklahoma City,202704,Reggie Jackson,G,,35:33,123.3,102.3,21.0,0.333,9.0,37.5,0.026,0.071,0.045,4.2,0.714,0.714,0.174,91.44,0.168,2014-02-05T00:00:00,9,1610612750,MIN,Minnesota,24-25,25,29,23,20,0,0,0,0,0,0,0,0,0,0,97,0.474,0.739,0.3,18,39,14,0021300732,1610612760,OKC,Oklahoma City,Reggie Jackson,G,,35:33,2.0,4.0,0.0,12.0,15.0,4.0,0.0,24.0,0.0,1.0,4.0,1.0
0021300732,1610612760,OKC,Oklahoma City,202704,Reggie Jackson,G,,35:33,123.3,102.3,21.0,0.333,9.0,37.5,0.026,0.071,0.045,4.2,0.714,0.714,0.174,91.44,0.168,2014-02-05T00:00:00,9,1610612760,OKC,Oklahoma City,40-11,26,30,24,26,0,0,0,0,0,0,0,0,0,0,106,0.484,0.727,0.37,25,49,16,0021300732,1610612760,OKC,Oklahoma City,Reggie Jackson,G,,35:33,2.0,4.0,0.0,12.0,15.0,4.0,0.0,24.0,0.0,1.0,4.0,1.0
0021300732,1610612760,OKC,Oklahoma City,965,Derek Fisher,,,16:39,102.2,107.7,-5.5,0.25,2.0,19.2,0.0,0.143,0.074,9.6,0.929,0.874,0.246,89.31,0.227,2014-02-05T00:00:00,9,1610612750,MIN,Minnesota,24-25,25,29,23,20,0,0,0,0,0,0,0,0,0,0,97,0.474,0.739,0.3,18,39,14,0021300732,1610612760,OKC,Oklahoma City,Derek Fisher,,,16:39,3.0,2.0,3.0,0.0,8.0,9.0,2.0,14.0,0.0,0.0,2.0,1.0
0021300732,1610612760,OKC,Oklahoma City,965,Derek Fisher,,,16:39,102.2,107.7,-5.5,0.25,2.0,19.2,0.0,0.143,0.074,9.6,0.929,0.874,0.246,89.31,0.227,2014-02-05T00:00:00,9,1610612760,OKC,Oklahoma City,40-11,26,30,24,26,0,0,0,0,0,0,0,0,0,0,106,0.484,0.727,0.37,25,49,16,0021300732,1610612760,OKC,Oklahoma City,Derek Fisher,,,16:39,3.0,2.0,3.0,0.0,8.0,9.0,2.0,14.0,0.0,0.0,2.0,1.0
0021300732,1610612760,OKC,Oklahoma City,203500,Steven Adams,,,8:11,73.9,118.5,-44.6,0.0,0.0,0.0,0.167,0.091,0.118,100.0,0.0,0.0,0.063,93.15,0.045,2014-02-05T00:00:00,9,1610612750,MIN,Minnesota,24-25,25,29,23,20,0,0,0,0,0,0,0,0,0,0,97,0.474,0.739,0.3,18,39,14,0021300732,1610612760,OKC,Oklahoma City,Steven Adams,,,8:11,0.0,0.0,0.0,0.0,6.0,9.0,2.0,10.0,1.0,0.0,0.0,2.0
0021300732,1610612760,OKC,Oklahoma City,203500,Steven Adams,,,8:11,73.9,118.5,-44.6,0.0,0.0,0.0,0.167,0.091,0.118,100.0,0.0,0.0,0.063,93.15,0.045,2014-02-05T00:00:00,9,1610612760,OKC,Oklahoma City,40-11,26,30,24,26,0,0,0,0,0,0,0,0,0,0,106,0.484,0.727,0.37,25,49,16,0021300732,1610612760,OKC,Oklahoma City,Steven Adams,,,8:11,0.0,0.0,0.0,0.0,6.0,9.0,2.0,10.0,1.0,0.0,0.0,2.0
0021300732,1610612760,OKC,Oklahoma City,2555,Nick Collison,,,16:08,92.8,81.9,10.9,0.091,1.0,25.0,0.067,0.083,0.074,25.0,0.5,0.5,0.083,93.48,0.046,2014-02-05T00:00:00,9,1610612750,MIN,Minnesota,24-25,25,29,23,20,0,0,0,0,0,0,0,0,0,0,97,0.474,0.739,0.3,18,39,14,0021300732,1610612760,OKC,Oklahoma City,Nick Collison,,,16:08,0.0,0.0,0.0,2.0,8.0,3.0,2.0,4.0,0.0,1.0,1.0,2.0
0021300732,1610612760,OKC,Oklahoma City,2555,Nick Collison,,,16:08,92.8,81.9,10.9,0.091,1.0,25.0,0.067,0.083,0.074,25.0,0.5,0.5,0.083,93.48,0.046,2014-02-05T00:00:00,9,1610612760,OKC,Oklahoma City,40-11,26,30,24,26,0,0,0,0,0,0,0,0,0,0,106,0.484,0.727,0.37,25,49,16,0021300732,1610612760,OKC,Oklahoma City,Nick Collison,,,16:08,0.0,0.0,0.0,2.0,8.0,3.0,2.0,4.0,0.0,1.0,1.0,2.0
0021300732,1610612760,OKC,Oklahoma City,203087,Jeremy Lamb,,,17:24,92.7,101.4,-8.7,0.1,1.0,8.3,0.063,0.154,0.103,8.3,0.35,0.35,0.302,93.74,0.011,2014-02-05T00:00:00,9,1610612750,MIN,Minnesota,24-25,25,29,23,20,0,0,0,0,0,0,0,0,0,0,97,0.474,0.739,0.3,18,39,14,0021300732,1610612760,OKC,Oklahoma City,Jeremy Lamb,,,17:24,2.0,0.0,2.0,4.0,11.0,5.0,2.0,8.0,0.0,1.0,5.0,1.0
0021300732,1610612760,OKC,Oklahoma City,203087,Jeremy Lamb,,,17:24,92.7,101.4,-8.7,0.1,1.0,8.3,0.063,0.154,0.103,8.3,0.35,0.35,0.302,93.74,0.011,2014-02-05T00:00:00,9,1610612760,OKC,Oklahoma City,40-11,26,30,24,26,0,0,0,0,0,0,0,0,0,0,106,0.484,0.727,0.37,25,49,16,0021300732,1610612760,OKC,Oklahoma City,Jeremy Lamb,,,17:24,2.0,0.0,2.0,4.0,11.0,5.0,2.0,8.0,0.0,1.0,5.0,1.0
0021300732,1610612760,OKC,Oklahoma City,203103,Perry Jones III,,,22:30,110.6,96.2,14.4,0.0,0.0,0.0,0.042,0.105,0.07,0.0,0.429,0.429,0.129,97.0,0.074,2014-02-05T00:00:00,9,1610612750,MIN,Minnesota,24-25,25,29,23,20,0,0,0,0,0,0,0,0,0,0,97,0.474,0.739,0.3,18,39,14,0021300732,1610612760,OKC,Oklahoma City,Perry Jones III,,,22:30,0.0,0.0,0.0,4.0,16.0,5.0,2.0,8.0,1.0,0.0,0.0,1.0
0021300732,1610612760,OKC,Oklahoma City,203103,Perry Jones III,,,22:30,110.6,96.2,14.4,0.0,0.0,0.0,0.042,0.105,0.07,0.0,0.429,0.429,0.129,97.0,0.074,2014-02-05T00:00:00,9,1610612760,OKC,Oklahoma City,40-11,26,30,24,26,0,0,0,0,0,0,0,0,0,0,106,0.484,0.727,0.37,25,49,16,0021300732,1610612760,OKC,Oklahoma City,Perry Jones III,,,22:30,0.0,0.0,0.0,4.0,16.0,5.0,2.0,8.0,1.0,0.0,0.0,1.0
0021300732,1610612760,OKC,Oklahoma City,203460,Andre Roberson,,,1:18,150.0,233.3,-83.3,0.0,0.0,0.0,0.0,0.0,0.0,100.0,0.0,0.0,0.5,92.31,-0.2,2014-02-05T00:00:00,9,1610612750,MIN,Minnesota,24-25,25,29,23,20,0,0,0,0,0,0,0,0,0,0,97,0.474,0.739,0.3,18,39,14,0021300732,1610612760,OKC,Oklahoma City,Andre Roberson,,,1:18,0.0,0.0,0.0,0.0,2.0,0.0,0.0,2.0,0.0,0.0,1.0,0.0
0021300732,1610612760,OKC,Oklahoma City,203460,Andre Roberson,,,1:18,150.0,233.3,-83.3,0.0,0.0,0.0,0.0,0.0,0.0,100.0,0.0,0.0,0.5,92.31,-0.2,2014-02-05T00:00:00,9,1610612760,OKC,Oklahoma City,40-11,26,30,24,26,0,0,0,0,0,0,0,0,0,0,106,0.484,0.727,0.37,25,49,16,0021300732,1610612760,OKC,Oklahoma City,Andre Roberson,,,1:18,0.0,0.0,0.0,0.0,2.0,0.0,0.0,2.0,0.0,0.0,1.0,0.0
0021300732,1610612760,OKC,Oklahoma City,201934,Hasheem Thabeet,,DNP - Coach's Decision,,,,,,,0.0,,,,,,,0.0,,,2014-02-05T00:00:00,9,1610612750,MIN,Minnesota,24-25,25,29,23,20,0,0,0,0,0,0,0,0,0,0,97,0.474,0.739,0.3,18,39,14,0021300732,1610612760,OKC,Oklahoma City,Hasheem Thabeet,,DNP - Coach's Decision,,,,,,,,,,,,,
0021300732,1610612760,OKC,Oklahoma City,201934,Hasheem Thabeet,,DNP - Coach's Decision,,,,,,,0.0,,,,,,,0.0,,,2014-02-05T00:00:00,9,1610612760,OKC,Oklahoma City,40-11,26,30,24,26,0,0,0,0,0,0,0,0,0,0,106,0.484,0.727,0.37,25,49,16,0021300732,1610612760,OKC,Oklahoma City,Hasheem Thabeet,,DNP - Coach's Decision,,,,,,,,,,,,,
