GAME_ID_x,TEAM_ID_x,TEAM_ABBREVIATION_x,TEAM_CITY_x,PLAYER_ID,PLAYER_NAME_x,START_POSITION_x,COMMENT_x,MIN_x,OFF_RATING,DEF_RATING,NET_RATING,AST_PCT,AST_TOV,AST_RATIO,OREB_PCT,DREB_PCT,REB_PCT,TM_TOV_PCT,EFG_PCT,TS_PCT,USG_PCT,PACE,PIE,GAME_DATE_EST,GAME_SEQUENCE,TEAM_ID_y,TEAM_ABBREVIATION_y,TEAM_CITY_NAME,TEAM_WINS_LOSSES,PTS_QTR1,PTS_QTR2,PTS_QTR3,PTS_QTR4,PTS_OT1,PTS_OT2,PTS_OT3,PTS_OT4,PTS_OT5,PTS_OT6,PTS_OT7,PTS_OT8,PTS_OT9,PTS_OT10,PTS,FG_PCT,FT_PCT,FG3_PCT,AST,REB,TOV,GAME_ID_y,TEAM_ID,TEAM_ABBREVIATION,TEAM_CITY_y,PLAYER_NAME_y,START_POSITION_y,COMMENT_y,MIN_y,PTS_OFF_TOV,PTS_2ND_CHANCE,PTS_FB,PTS_PAINT,OPP_PTS_OFF_TOV,OPP_PTS_2ND_CHANCE,OPP_PTS_FB,OPP_PTS_PAINT,BLK,BLKA,PF,PFD
0021300736,1610612748,MIA,Miami,2544,LeBron James,F,,40:47,120.1,105.7,14.4,0.48,1.71,28.2,0.029,0.184,0.111,16.5,0.625,0.659,0.351,98.79,0.202,2014-02-05T00:00:00,12,1610612748,MIA,Miami,35-13,36,26,27,27,0,0,0,0,0,0,0,0,0,0,116,0.526,0.808,0.419,33,31,15,0021300736,1610612748,MIA,Miami,LeBron James,F,,40:47,8.0,2.0,4.0,16.0,13.0,22.0,10.0,42.0,1.0,0.0,2.0,9.0
0021300736,1610612748,MIA,Miami,2544,LeBron James,F,,40:47,120.1,105.7,14.4,0.48,1.71,28.2,0.029,0.184,0.111,16.5,0.625,0.659,0.351,98.79,0.202,2014-02-05T00:00:00,12,1610612746,LAC,Los Angeles,34-18,24,31,20,37,0,0,0,0,0,0,0,0,0,0,112,0.43,0.738,0.28,26,52,20,0021300736,1610612748,MIA,Miami,LeBron James,F,,40:47,8.0,2.0,4.0,16.0,13.0,22.0,10.0,42.0,1.0,0.0,2.0,9.0
0021300736,1610612748,MIA,Miami,2203,Shane Battier,F,,27:29,118.2,105.7,12.5,0.105,0.0,18.2,0.04,0.0,0.022,0.0,0.778,0.778,0.148,101.65,0.081,2014-02-05T00:00:00,12,1610612748,MIA,Miami,35-13,36,26,27,27,0,0,0,0,0,0,0,0,0,0,116,0.526,0.808,0.419,33,31,15,0021300736,1610612748,MIA,Miami,Shane Battier,F,,27:29,3.0,0.0,0.0,2.0,6.0,17.0,9.0,30.0,0.0,0.0,4.0,0.0
0021300736,1610612748,MIA,Miami,2203,Shane Battier,F,,27:29,118.2,105.7,12.5,0.105,0.0,18.2,0.04,0.0,0.022,0.0,0.778,0.778,0.148,101.65,0.081,2014-02-05T00:00:00,12,1610612746,LAC,Los Angeles,34-18,24,31,20,37,0,0,0,0,0,0,0,0,0,0,112,0.43,0.738,0.28,26,52,20,0021300736,1610612748,MIA,Miami,Shane Battier,F,,27:29,3.0,0.0,0.0,2.0,6.0,17.0,9.0,30.0,0.0,0.0,4.0,0.0
0021300736,1610612748,MIA,Miami,2547,Chris Bosh,C,,33:23,127.9,111.9,15.9,0.148,0.0,20.1,0.048,0.189,0.138,0.0,0.467,0.472,0.224,99.01,0.089,2014-02-05T00:00:00,12,1610612748,MIA,Miami,35-13,36,26,27,27,0,0,0,0,0,0,0,0,0,0,116,0.526,0.808,0.419,33,31,15,0021300736,1610612748,MIA,Miami,Chris Bosh,C,,33:23,2.0,2.0,0.0,8.0,16.0,21.0,5.0,38.0,0.0,0.0,5.0,1.0
0021300736,1610612748,MIA,Miami,2547,Chris Bosh,C,,33:23,127.9,111.9,15.9,0.148,0.0,20.1,0.048,0.189,0.138,0.0,0.467,0.472,0.224,99.01,0.089,2014-02-05T00:00:00,12,1610612746,LAC,Los Angeles,34-18,24,31,20,37,0,0,0,0,0,0,0,0,0,0,112,0.43,0.738,0.28,26,52,20,0021300736,1610612748,MIA,Miami,Chris Bosh,C,,33:23,2.0,2.0,0.0,8.0,16.0,21.0,5.0,38.0,0.0,0.0,5.0,1.0
0021300736,1610612748,MIA,Miami,2548,Dwyane Wade,G,,35:08,120.8,112.2,8.6,0.308,4.0,40.5,0.0,0.083,0.051,10.1,0.625,0.717,0.155,100.89,0.119,2014-02-05T00:00:00,12,1610612748,MIA,Miami,35-13,36,26,27,27,0,0,0,0,0,0,0,0,0,0,116,0.526,0.808,0.419,33,31,15,0021300736,1610612748,MIA,Miami,Dwyane Wade,G,,35:08,2.0,0.0,0.0,6.0,13.0,26.0,11.0,40.0,0.0,0.0,3.0,2.0
0021300736,1610612748,MIA,Miami,2548,Dwyane Wade,G,,35:08,120.8,112.2,8.6,0.308,4.0,40.5,0.0,0.083,0.051,10.1,0.625,0.717,0.155,100.89,0.119,2014-02-05T00:00:00,12,1610612746,LAC,Los Angeles,34-18,24,31,20,37,0,0,0,0,0,0,0,0,0,0,112,0.43,0.738,0.28,26,52,20,0021300736,1610612748,MIA,Miami,Dwyane Wade,G,,35:08,2.0,0.0,0.0,6.0,13.0,26.0,11.0,40.0,0.0,0.0,3.0,2.0
0021300736,1610612748,MIA,Miami,201596,Mario Chalmers,G,,26:21,137.1,97.0,40.2,0.12,0.75,21.4,0.0,0.0,0.0,28.6,0.714,0.714,0.197,97.03,0.025,2014-02-05T00:00:00,12,1610612748,MIA,Miami,35-13,36,26,27,27,0,0,0,0,0,0,0,0,0,0,116,0.526,0.808,0.419,33,31,15,0021300736,1610612748,MIA,Miami,Mario Chalmers,G,,26:21,0.0,0.0,4.0,4.0,8.0,14.0,0.0,26.0,0.0,1.0,5.0,2.0
0021300736,1610612748,MIA,Miami,201596,Mario Chalmers,G,,26:21,137.1,97.0,40.2,0.12,0.75,21.4,0.0,0.0,0.0,28.6,0.714,0.714,0.197,97.03,0.025,2014-02-05T00:00:00,12,1610612746,LAC,Los Angeles,34-18,24,31,20,37,0,0,0,0,0,0,0,0,0,0,112,0.43,0.738,0.28,26,52,20,0021300736,1610612748,MIA,Miami,Mario Chalmers,G,,26:21,0.0,0.0,4.0,4.0,8.0,14.0,0.0,26.0,0.0,1.0,5.0,2.0
0021300736,1610612748,MIA,Miami,2365,Chris Andersen,,,26:39,114.9,110.0,4.9,0.0,0.0,0.0,0.091,0.2,0.149,0.0,0.8,0.785,0.138,98.69,0.139,2014-02-05T00:00:00,12,1610612748,MIA,Miami,35-13,36,26,27,27,0,0,0,0,0,0,0,0,0,0,116,0.526,0.808,0.419,33,31,15,0021300736,1610612748,MIA,Miami,Chris Andersen,,,26:39,4.0,1.0,0.0,6.0,7.0,20.0,12.0,22.0,2.0,1.0,5.0,5.0
0021300736,1610612748,MIA,Miami,2365,Chris Andersen,,,26:39,114.9,110.0,4.9,0.0,0.0,0.0,0.091,0.2,0.149,0.0,0.8,0.785,0.138,98.69,0.139,2014-02-05T00:00:00,12,1610612746,LAC,Los Angeles,34-18,24,31,20,37,0,0,0,0,0,0,0,0,0,0,112,0.43,0.738,0.28,26,52,20,0021300736,1610612748,MIA,Miami,Chris Andersen,,,26:39,4.0,1.0,0.0,6.0,7.0,20.0,12.0,22.0,2.0,1.0,5.0,5.0
0021300736,1610612748,MIA,Miami,951,Ray Allen,,,27:13,113.2,116.5,-3.4,0.143,1.0,14.1,0.0,0.0,0.0,14.1,0.625,0.735,0.198,102.87,0.103,2014-02-05T00:00:00,12,1610612748,MIA,Miami,35-13,36,26,27,27,0,0,0,0,0,0,0,0,0,0,116,0.526,0.808,0.419,33,31,15,0021300736,1610612748,MIA,Miami,Ray Allen,,,27:13,3.0,0.0,0.0,2.0,14.0,20.0,11.0,30.0,0.0,0.0,3.0,3.0
0021300736,1610612748,MIA,Miami,951,Ray Allen,,,27:13,113.2,116.5,-3.4,0.143,1.0,14.1,0.0,0.0,0.0,14.1,0.625,0.735,0.198,102.87,0.103,2014-02-05T00:00:00,12,1610612746,LAC,Los Angeles,34-18,24,31,20,37,0,0,0,0,0,0,0,0,0,0,112,0.43,0.738,0.28,26,52,20,0021300736,1610612748,MIA,Miami,Ray Allen,,,27:13,3.0,0.0,0.0,2.0,14.0,20.0,11.0,30.0,0.0,0.0,3.0,3.0
0021300736,1610612748,MIA,Miami,202708,Norris Cole,,,17:13,97.3,104.7,-7.4,0.182,0.0,26.9,0.053,0.0,0.036,0.0,0.2,0.276,0.13,106.06,0.032,2014-02-05T00:00:00,12,1610612748,MIA,Miami,35-13,36,26,27,27,0,0,0,0,0,0,0,0,0,0,116,0.526,0.808,0.419,33,31,15,0021300736,1610612748,MIA,Miami,Norris Cole,,,17:13,3.0,0.0,3.0,2.0,8.0,5.0,9.0,16.0,0.0,0.0,3.0,2.0
0021300736,1610612748,MIA,Miami,202708,Norris Cole,,,17:13,97.3,104.7,-7.4,0.182,0.0,26.9,0.053,0.0,0.036,0.0,0.2,0.276,0.13,106.06,0.032,2014-02-05T00:00:00,12,1610612746,LAC,Los Angeles,34-18,24,31,20,37,0,0,0,0,0,0,0,0,0,0,112,0.43,0.738,0.28,26,52,20,0021300736,1610612748,MIA,Miami,Norris Cole,,,17:13,3.0,0.0,3.0,2.0,8.0,5.0,9.0,16.0,0.0,0.0,3.0,2.0
0021300736,1610612748,MIA,Miami,201141,Greg Oden,,,5:43,84.2,90.9,-6.7,0.0,0.0,0.0,0.2,0.25,0.231,0.0,1.0,1.0,0.078,105.42,0.163,2014-02-05T00:00:00,12,1610612748,MIA,Miami,35-13,36,26,27,27,0,0,0,0,0,0,0,0,0,0,116,0.526,0.808,0.419,33,31,15,0021300736,1610612748,MIA,Miami,Greg Oden,,,5:43,0.0,0.0,2.0,2.0,5.0,0.0,0.0,6.0,2.0,0.0,2.0,0.0
0021300736,1610612748,MIA,Miami,201141,Greg Oden,,,5:43,84.2,90.9,-6.7,0.0,0.0,0.0,0.2,0.25,0.231,0.0,1.0,1.0,0.078,105.42,0.163,2014-02-05T00:00:00,12,1610612746,LAC,Los Angeles,34-18,24,31,20,37,0,0,0,0,0,0,0,0,0,0,112,0.43,0.738,0.28,26,52,20,0021300736,1610612748,MIA,Miami,Greg Oden,,,5:43,0.0,0.0,2.0,2.0,5.0,0.0,0.0,6.0,2.0,0.0,2.0,0.0
0021300736,1610612748,MIA,Miami,201962,Toney Douglas,,,0:05,0.0,300.0,-300.0,0.0,0.0,0.0,0.0,0.0,0.0,0.0,0.0,0.0,0.0,300.0,0.0,2014-02-05T00:00:00,12,1610612748,MIA,Miami,35-13,36,26,27,27,0,0,0,0,0,0,0,0,0,0,116,0.526,0.808,0.419,33,31,15,0021300736,1610612748,MIA,Miami,Toney Douglas,,,0:05,0.0,0.0,0.0,0.0,0.0,0.0,3.0,0.0,0.0,0.0,0.0,0.0
0021300736,1610612748,MIA,Miami,201962,Toney Douglas,,,0:05,0.0,300.0,-300.0,0.0,0.0,0.0,0.0,0.0,0.0,0.0,0.0,0.0,0.0,300.0,0.0,2014-02-05T00:00:00,12,1610612746,LAC,Los Angeles,34-18,24,31,20,37,0,0,0,0,0,0,0,0,0,0,112,0.43,0.738,0.28,26,52,20,0021300736,1610612748,MIA,Miami,Toney Douglas,,,0:05,0.0,0.0,0.0,0.0,0.0,0.0,3.0,0.0,0.0,0.0,0.0,0.0
0021300736,1610612748,MIA,Miami,201563,Michael Beasley,,DNP - Coach's Decision,,,,,,,0.0,,,,,,,0.0,,,2014-02-05T00:00:00,12,1610612748,MIA,Miami,35-13,36,26,27,27,0,0,0,0,0,0,0,0,0,0,116,0.526,0.808,0.419,33,31,15,0021300736,1610612748,MIA,Miami,Michael Beasley,,DNP - Coach's Decision,,,,,,,,,,,,,
0021300736,1610612748,MIA,Miami,201563,Michael Beasley,,DNP - Coach's Decision,,,,,,,0.0,,,,,,,0.0,,,2014-02-05T00:00:00,12,1610612746,LAC,Los Angeles,34-18,24,31,20,37,0,0,0,0,0,0,0,0,0,0,112,0.43,0.738,0.28,26,52,20,0021300736,1610612748,MIA,Miami,Michael Beasley,,DNP - Coach's Decision,,,,,,,,,,,,,
0021300736,1610612748,MIA,Miami,2617,Udonis Haslem,,DNP - Coach's Decision,,,,,,,0.0,,,,,,,0.0,,,2014-02-05T00:00:00,12,1610612748,MIA,Miami,35-13,36,26,27,27,0,0,0,0,0,0,0,0,0,0,116,0.526,0.808,0.419,33,31,15,0021300736,1610612748,MIA,Miami,Udonis Haslem,,DNP - Coach's Decision,,,,,,,,,,,,,
0021300736,1610612748,MIA,Miami,2617,Udonis Haslem,,DNP - Coach's Decision,,,,,,,0.0,,,,,,,0.0,,,2014-02-05T00:00:00,12,1610612746,LAC,Los Angeles,34-18,24,31,20,37,0,0,0,0,0,0,0,0,0,0,112,0.43,0.738,0.28,26,52,20,0021300736,1610612748,MIA,Miami,Udonis Haslem,,DNP - Coach's Decision,,,,,,,,,,,,,
0021300736,1610612748,MIA,Miami,1740,Rashard Lewis,,DNP - Coach's Decision,,,,,,,0.0,,,,,,,0.0,,,2014-02-05T00:00:00,12,1610612748,MIA,Miami,35-13,36,26,27,27,0,0,0,0,0,0,0,0,0,0,116,0.526,0.808,0.419,33,31,15,0021300736,1610612748,MIA,Miami,Rashard Lewis,,DNP - Coach's Decision,,,,,,,,,,,,,
0021300736,1610612748,MIA,Miami,1740,Rashard Lewis,,DNP - Coach's Decision,,,,,,,0.0,,,,,,,0.0,,,2014-02-05T00:00:00,12,1610612746,LAC,Los Angeles,34-18,24,31,20,37,0,0,0,0,0,0,0,0,0,0,112,0.43,0.738,0.28,26,52,20,0021300736,1610612748,MIA,Miami,Rashard Lewis,,DNP - Coach's Decision,,,,,,,,,,,,,
0021300736,1610612746,LAC,Los Angeles,2440,Matt Barnes,F,,40:19,115.9,112.2,3.8,0.133,2.0,21.3,0.132,0.065,0.101,10.7,0.409,0.47,0.138,101.18,0.054,2014-02-05T00:00:00,12,1610612748,MIA,Miami,35-13,36,26,27,27,0,0,0,0,0,0,0,0,0,0,116,0.526,0.808,0.419,33,31,15,0021300736,1610612746,LAC,Los Angeles,Matt Barnes,F,,40:19,0.0,1.0,0.0,6.0,20.0,4.0,13.0,42.0,0.0,2.0,4.0,3.0
0021300736,1610612746,LAC,Los Angeles,2440,Matt Barnes,F,,40:19,115.9,112.2,3.8,0.133,2.0,21.3,0.132,0.065,0.101,10.7,0.409,0.47,0.138,101.18,0.054,2014-02-05T00:00:00,12,1610612746,LAC,Los Angeles,34-18,24,31,20,37,0,0,0,0,0,0,0,0,0,0,112,0.43,0.738,0.28,26,52,20,0021300736,1610612746,LAC,Los Angeles,Matt Barnes,F,,40:19,0.0,1.0,0.0,6.0,20.0,4.0,13.0,42.0,0.0,2.0,4.0,3.0
0021300736,1610612746,LAC,Los Angeles,201933,Blake Griffin,F,,42:17,108.4,113.2,-4.8,0.353,1.5,11.7,0.214,0.171,0.195,7.8,0.485,0.518,0.409,100.01,0.158,2014-02-05T00:00:00,12,1610612748,MIA,Miami,35-13,36,26,27,27,0,0,0,0,0,0,0,0,0,0,116,0.526,0.808,0.419,33,31,15,0021300736,1610612746,LAC,Los Angeles,Blake Griffin,F,,42:17,9.0,16.0,6.0,28.0,18.0,5.0,13.0,48.0,0.0,2.0,5.0,12.0
0021300736,1610612746,LAC,Los Angeles,201933,Blake Griffin,F,,42:17,108.4,113.2,-4.8,0.353,1.5,11.7,0.214,0.171,0.195,7.8,0.485,0.518,0.409,100.01,0.158,2014-02-05T00:00:00,12,1610612746,LAC,Los Angeles,34-18,24,31,20,37,0,0,0,0,0,0,0,0,0,0,112,0.43,0.738,0.28,26,52,20,0021300736,1610612746,LAC,Los Angeles,Blake Griffin,F,,42:17,9.0,16.0,6.0,28.0,18.0,5.0,13.0,48.0,0.0,2.0,5.0,12.0
0021300736,1610612746,LAC,Los Angeles,201599,DeAndre Jordan,C,,40:32,103.3,129.2,-25.9,0.0,0.0,0.0,0.122,0.423,0.239,22.7,0.75,0.784,0.128,98.89,0.127,2014-02-05T00:00:00,12,1610612748,MIA,Miami,35-13,36,26,27,27,0,0,0,0,0,0,0,0,0,0,116,0.526,0.808,0.419,33,31,15,0021300736,1610612746,LAC,Los Angeles,DeAndre Jordan,C,,40:32,0.0,6.0,0.0,12.0,22.0,4.0,10.0,44.0,1.0,0.0,3.0,5.0
0021300736,1610612746,LAC,Los Angeles,201599,DeAndre Jordan,C,,40:32,103.3,129.2,-25.9,0.0,0.0,0.0,0.122,0.423,0.239,22.7,0.75,0.784,0.128,98.89,0.127,2014-02-05T00:00:00,12,1610612746,LAC,Los Angeles,34-18,24,31,20,37,0,0,0,0,0,0,0,0,0,0,112,0.43,0.738,0.28,26,52,20,0021300736,1610612746,LAC,Los Angeles,DeAndre Jordan,C,,40:32,0.0,6.0,0.0,12.0,22.0,4.0,10.0,44.0,1.0,0.0,3.0,5.0
0021300736,1610612746,LAC,Los Angeles,2037,Jamal Crawford,G,,46:38,109.3,113.8,-4.5,0.214,1.2,16.9,0.0,0.079,0.036,14.1,0.548,0.632,0.239,101.11,0.125,2014-02-05T00:00:00,12,1610612748,MIA,Miami,35-13,36,26,27,27,0,0,0,0,0,0,0,0,0,0,116,0.526,0.808,0.419,33,31,15,0021300736,1610612746,LAC,Los Angeles,Jamal Crawford,G,,46:38,6.0,5.0,6.0,2.0,22.0,5.0,13.0,48.0,0.0,0.0,4.0,5.0
0021300736,1610612746,LAC,Los Angeles,2037,Jamal Crawford,G,,46:38,109.3,113.8,-4.5,0.214,1.2,16.9,0.0,0.079,0.036,14.1,0.548,0.632,0.239,101.11,0.125,2014-02-05T00:00:00,12,1610612746,LAC,Los Angeles,34-18,24,31,20,37,0,0,0,0,0,0,0,0,0,0,112,0.43,0.738,0.28,26,52,20,0021300736,1610612746,LAC,Los Angeles,Jamal Crawford,G,,46:38,6.0,5.0,6.0,2.0,22.0,5.0,13.0,48.0,0.0,0.0,4.0,5.0
0021300736,1610612746,LAC,Los Angeles,201954,Darren Collison,G,,37:54,111.1,122.5,-11.4,0.31,3.0,45.5,0.025,0.148,0.075,15.2,0.167,0.322,0.11,97.19,0.06,2014-02-05T00:00:00,12,1610612748,MIA,Miami,35-13,36,26,27,27,0,0,0,0,0,0,0,0,0,0,116,0.526,0.808,0.419,33,31,15,0021300736,1610612746,LAC,Los Angeles,Darren Collison,G,,37:54,0.0,0.0,0.0,2.0,17.0,4.0,10.0,46.0,1.0,1.0,1.0,2.0
0021300736,1610612746,LAC,Los Angeles,201954,Darren Collison,G,,37:54,111.1,122.5,-11.4,0.31,3.0,45.5,0.025,0.148,0.075,15.2,0.167,0.322,0.11,97.19,0.06,2014-02-05T00:00:00,12,1610612746,LAC,Los Angeles,34-18,24,31,20,37,0,0,0,0,0,0,0,0,0,0,112,0.43,0.738,0.28,26,52,20,0021300736,1610612746,LAC,Los Angeles,Darren Collison,G,,37:54,0.0,0.0,0.0,2.0,17.0,4.0,10.0,46.0,1.0,1.0,1.0,2.0
0021300736,1610612746,LAC,Los Angeles,201162,Jared Dudley,,,17:39,104.4,115.3,-11.0,0.083,0.0,14.5,0.077,0.222,0.161,0.0,0.2,0.255,0.127,105.38,0.009,2014-02-05T00:00:00,12,1610612748,MIA,Miami,35-13,36,26,27,27,0,0,0,0,0,0,0,0,0,0,116,0.526,0.808,0.419,33,31,15,0021300736,1610612746,LAC,Los Angeles,Jared Dudley,,,17:39,1.0,1.0,0.0,0.0,10.0,1.0,3.0,10.0,0.0,0.0,3.0,3.0
0021300736,1610612746,LAC,Los Angeles,201162,Jared Dudley,,,17:39,104.4,115.3,-11.0,0.083,0.0,14.5,0.077,0.222,0.161,0.0,0.2,0.255,0.127,105.38,0.009,2014-02-05T00:00:00,12,1610612746,LAC,Los Angeles,34-18,24,31,20,37,0,0,0,0,0,0,0,0,0,0,112,0.43,0.738,0.28,26,52,20,0021300736,1610612746,LAC,Los Angeles,Jared Dudley,,,17:39,1.0,1.0,0.0,0.0,10.0,1.0,3.0,10.0,0.0,0.0,3.0,3.0
0021300736,1610612746,LAC,Los Angeles,2584,Willie Green,,,11:03,106.8,111.3,-4.5,0.0,0.0,0.0,0.0,0.083,0.059,51.5,0.0,0.532,0.142,109.52,-0.078,2014-02-05T00:00:00,12,1610612748,MIA,Miami,35-13,36,26,27,27,0,0,0,0,0,0,0,0,0,0,116,0.526,0.808,0.419,33,31,15,0021300736,1610612746,LAC,Los Angeles,Willie Green,,,11:03,2.0,0.0,2.0,0.0,10.0,1.0,3.0,2.0,0.0,0.0,3.0,2.0
0021300736,1610612746,LAC,Los Angeles,2584,Willie Green,,,11:03,106.8,111.3,-4.5,0.0,0.0,0.0,0.0,0.083,0.059,51.5,0.0,0.532,0.142,109.52,-0.078,2014-02-05T00:00:00,12,1610612746,LAC,Los Angeles,34-18,24,31,20,37,0,0,0,0,0,0,0,0,0,0,112,0.43,0.738,0.28,26,52,20,0021300736,1610612746,LAC,Los Angeles,Willie Green,,,11:03,2.0,0.0,2.0,0.0,10.0,1.0,3.0,2.0,0.0,0.0,3.0,2.0
0021300736,1610612746,LAC,Los Angeles,2045,Hedo Turkoglu,,,2:20,25.8,162.0,-136.3,0.0,0.0,0.0,0.0,0.0,0.0,100.0,0.0,0.0,0.258,84.28,0.333,2014-02-05T00:00:00,12,1610612748,MIA,Miami,35-13,36,26,27,27,0,0,0,0,0,0,0,0,0,0,116,0.526,0.808,0.419,33,31,15,0021300736,1610612746,LAC,Los Angeles,Hedo Turkoglu,,,2:20,0.0,0.0,0.0,0.0,3.0,1.0,0.0,0.0,0.0,0.0,0.0,0.0
0021300736,1610612746,LAC,Los Angeles,2045,Hedo Turkoglu,,,2:20,25.8,162.0,-136.3,0.0,0.0,0.0,0.0,0.0,0.0,100.0,0.0,0.0,0.258,84.28,0.333,2014-02-05T00:00:00,12,1610612746,LAC,Los Angeles,34-18,24,31,20,37,0,0,0,0,0,0,0,0,0,0,112,0.43,0.738,0.28,26,52,20,0021300736,1610612746,LAC,Los Angeles,Hedo Turkoglu,,,2:20,0.0,0.0,0.0,0.0,3.0,1.0,0.0,0.0,0.0,0.0,0.0,0.0
0021300736,1610612746,LAC,Los Angeles,2756,Sasha Vujacic,,,1:17,0.0,254.6,-254.6,0.0,0.0,0.0,0.0,0.0,0.0,0.0,0.0,0.0,0.0,99.23,-0.087,2014-02-05T00:00:00,12,1610612748,MIA,Miami,35-13,36,26,27,27,0,0,0,0,0,0,0,0,0,0,116,0.526,0.808,0.419,33,31,15,0021300736,1610612746,LAC,Los Angeles,Sasha Vujacic,,,1:17,0.0,0.0,0.0,0.0,3.0,0.0,0.0,0.0,0.0,0.0,1.0,0.0
0021300736,1610612746,LAC,Los Angeles,2756,Sasha Vujacic,,,1:17,0.0,254.6,-254.6,0.0,0.0,0.0,0.0,0.0,0.0,0.0,0.0,0.0,0.0,99.23,-0.087,2014-02-05T00:00:00,12,1610612746,LAC,Los Angeles,34-18,24,31,20,37,0,0,0,0,0,0,0,0,0,0,112,0.43,0.738,0.28,26,52,20,0021300736,1610612746,LAC,Los Angeles,Sasha Vujacic,,,1:17,0.0,0.0,0.0,0.0,3.0,0.0,0.0,0.0,0.0,0.0,1.0,0.0
0021300736,1610612746,LAC,Los Angeles,203493,Reggie Bullock,,DNP - Coach's Decision,,,,,,,0.0,,,,,,,0.0,,,2014-02-05T00:00:00,12,1610612748,MIA,Miami,35-13,36,26,27,27,0,0,0,0,0,0,0,0,0,0,116,0.526,0.808,0.419,33,31,15,0021300736,1610612746,LAC,Los Angeles,Reggie Bullock,,DNP - Coach's Decision,,,,,,,,,,,,,
0021300736,1610612746,LAC,Los Angeles,203493,Reggie Bullock,,DNP - Coach's Decision,,,,,,,0.0,,,,,,,0.0,,,2014-02-05T00:00:00,12,1610612746,LAC,Los Angeles,34-18,24,31,20,37,0,0,0,0,0,0,0,0,0,0,112,0.43,0.738,0.28,26,52,20,0021300736,1610612746,LAC,Los Angeles,Reggie Bullock,,DNP - Coach's Decision,,,,,,,,,,,,,
0021300736,1610612746,LAC,Los Angeles,200797,Ryan Hollins,,DNP - Coach's Decision,,,,,,,0.0,,,,,,,0.0,,,2014-02-05T00:00:00,12,1610612748,MIA,Miami,35-13,36,26,27,27,0,0,0,0,0,0,0,0,0,0,116,0.526,0.808,0.419,33,31,15,0021300736,1610612746,LAC,Los Angeles,Ryan Hollins,,DNP - Coach's Decision,,,,,,,,,,,,,
0021300736,1610612746,LAC,Los Angeles,200797,Ryan Hollins,,DNP - Coach's Decision,,,,,,,0.0,,,,,,,0.0,,,2014-02-05T00:00:00,12,1610612746,LAC,Los Angeles,34-18,24,31,20,37,0,0,0,0,0,0,0,0,0,0,112,0.43,0.738,0.28,26,52,20,0021300736,1610612746,LAC,Los Angeles,Ryan Hollins,,DNP - Coach's Decision,,,,,,,,,,,,,
0021300736,1610612746,LAC,Los Angeles,1712,Antawn Jamison,,DNP - Coach's Decision,,,,,,,0.0,,,,,,,0.0,,,2014-02-05T00:00:00,12,1610612748,MIA,Miami,35-13,36,26,27,27,0,0,0,0,0,0,0,0,0,0,116,0.526,0.808,0.419,33,31,15,0021300736,1610612746,LAC,Los Angeles,Antawn Jamison,,DNP - Coach's Decision,,,,,,,,,,,,,
0021300736,1610612746,LAC,Los Angeles,1712,Antawn Jamison,,DNP - Coach's Decision,,,,,,,0.0,,,,,,,0.0,,,2014-02-05T00:00:00,12,1610612746,LAC,Los Angeles,34-18,24,31,20,37,0,0,0,0,0,0,0,0,0,0,112,0.43,0.738,0.28,26,52,20,0021300736,1610612746,LAC,Los Angeles,Antawn Jamison,,DNP - Coach's Decision,,,,,,,,,,,,,
0021300736,1610612746,LAC,Los Angeles,201957,Byron Mullens,,DNP - Coach's Decision,,,,,,,0.0,,,,,,,0.0,,,2014-02-05T00:00:00,12,1610612748,MIA,Miami,35-13,36,26,27,27,0,0,0,0,0,0,0,0,0,0,116,0.526,0.808,0.419,33,31,15,0021300736,1610612746,LAC,Los Angeles,Byron Mullens,,DNP - Coach's Decision,,,,,,,,,,,,,
0021300736,1610612746,LAC,Los Angeles,201957,Byron Mullens,,DNP - Coach's Decision,,,,,,,0.0,,,,,,,0.0,,,2014-02-05T00:00:00,12,1610612746,LAC,Los Angeles,34-18,24,31,20,37,0,0,0,0,0,0,0,0,0,0,112,0.43,0.738,0.28,26,52,20,0021300736,1610612746,LAC,Los Angeles,Byron Mullens,,DNP - Coach's Decision,,,,,,,,,,,,,
