GAME_ID_x,TEAM_ID_x,TEAM_ABBREVIATION_x,TEAM_CITY_x,PLAYER_ID,PLAYER_NAME_x,START_POSITION_x,COMMENT_x,MIN_x,OFF_RATING,DEF_RATING,NET_RATING,AST_PCT,AST_TOV,AST_RATIO,OREB_PCT,DREB_PCT,REB_PCT,TM_TOV_PCT,EFG_PCT,TS_PCT,USG_PCT,PACE,PIE,GAME_DATE_EST,GAME_SEQUENCE,TEAM_ABBREVIATION_y,TEAM_CITY_NAME,TEAM_WINS_LOSSES,PTS_QTR1,PTS_QTR2,PTS_QTR3,PTS_QTR4,PTS_OT1,PTS_OT2,PTS_OT3,PTS_OT4,PTS_OT5,PTS_OT6,PTS_OT7,PTS_OT8,PTS_OT9,PTS_OT10,PTS,FG_PCT,FT_PCT,FG3_PCT,AST,REB,TOV,GAME_ID_y,TEAM_ID_y,TEAM_ABBREVIATION,TEAM_CITY_y,PLAYER_NAME_y,START_POSITION_y,COMMENT_y,MIN_y,PTS_OFF_TOV,PTS_2ND_CHANCE,PTS_FB,PTS_PAINT,OPP_PTS_OFF_TOV,OPP_PTS_2ND_CHANCE,OPP_PTS_FB,OPP_PTS_PAINT,BLK,BLKA,PF,PFD
0021400510,1610612766,CHA,Charlotte,203077,Michael Kidd-Gilchrist,F,,18:08,122.8,75.5,47.3,0.143,0.67,20.2,0.1,0.286,0.226,30.4,0.5,0.615,0.198,100.07,0.076,2015-01-05T00:00:00,2,CHA,Charlotte,12-24,24,26,29,25,0,0,0,0,0,0,0,0,0,0,104,0.487,0.957,0.316,22,48,15,0021400510,1610612766,CHA,Charlotte,Michael Kidd-Gilchrist,F,,18:08,2.0,0.0,2.0,4.0,8.0,8.0,3.0,16.0,0.0,0.0,5.0,1.0
0021400510,1610612766,CHA,Charlotte,203469,Cody Zeller,F,,33:12,117.3,93.8,23.5,0.053,0.25,6.8,0.048,0.2,0.137,27.1,1.0,1.025,0.192,95.39,0.181,2015-01-05T00:00:00,2,CHA,Charlotte,12-24,24,26,29,25,0,0,0,0,0,0,0,0,0,0,104,0.487,0.957,0.316,22,48,15,0021400510,1610612766,CHA,Charlotte,Cody Zeller,F,,33:12,2.0,4.0,0.0,10.0,15.0,12.0,10.0,28.0,1.0,0.0,4.0,2.0
0021400510,1610612766,CHA,Charlotte,202687,Bismack Biyombo,C,,27:03,110.1,90.6,19.5,0.0,0.0,0.0,0.13,0.259,0.2,16.7,0.4,0.4,0.104,92.1,0.096,2015-01-05T00:00:00,2,CHA,Charlotte,12-24,24,26,29,25,0,0,0,0,0,0,0,0,0,0,104,0.487,0.957,0.316,22,48,15,0021400510,1610612766,CHA,Charlotte,Bismack Biyombo,C,,27:03,0.0,0.0,0.0,4.0,8.0,8.0,7.0,24.0,2.0,1.0,2.0,1.0
0021400510,1610612766,CHA,Charlotte,201945,Gerald Henderson,G,,33:41,117.3,95.9,21.4,0.348,4.0,37.0,0.04,0.063,0.053,9.2,0.444,0.558,0.187,93.08,0.141,2015-01-05T00:00:00,2,CHA,Charlotte,12-24,24,26,29,25,0,0,0,0,0,0,0,0,0,0,104,0.487,0.957,0.316,22,48,15,0021400510,1610612766,CHA,Charlotte,Gerald Henderson,G,,33:41,2.0,4.0,0.0,4.0,12.0,16.0,8.0,32.0,2.0,0.0,2.0,6.0
0021400510,1610612766,CHA,Charlotte,202689,Kemba Walker,G,,38:53,116.5,94.4,22.1,0.263,5.0,14.3,0.036,0.114,0.079,2.9,0.5,0.567,0.351,95.15,0.204,2015-01-05T00:00:00,2,CHA,Charlotte,12-24,24,26,29,25,0,0,0,0,0,0,0,0,0,0,104,0.487,0.957,0.316,22,48,15,0021400510,1610612766,CHA,Charlotte,Kemba Walker,G,,38:53,0.0,0.0,2.0,10.0,17.0,14.0,10.0,30.0,1.0,3.0,2.0,8.0
0021400510,1610612766,CHA,Charlotte,101107,Marvin Williams,,,29:45,110.4,109.3,1.1,0.056,1.0,10.6,0.125,0.192,0.16,10.6,0.643,0.672,0.132,94.0,0.126,2015-01-05T00:00:00,2,CHA,Charlotte,12-24,24,26,29,25,0,0,0,0,0,0,0,0,0,0,104,0.487,0.957,0.316,22,48,15,0021400510,1610612766,CHA,Charlotte,Marvin Williams,,,29:45,3.0,8.0,0.0,4.0,14.0,16.0,13.0,26.0,1.0,0.0,1.0,3.0
0021400510,1610612766,CHA,Charlotte,101131,Jason Maxiell,,,15:30,106.0,108.3,-2.3,0.0,0.0,0.0,0.111,0.067,0.083,100.0,0.0,0.0,0.03,95.38,-0.056,2015-01-05T00:00:00,2,CHA,Charlotte,12-24,24,26,29,25,0,0,0,0,0,0,0,0,0,0,104,0.487,0.957,0.316,22,48,15,0021400510,1610612766,CHA,Charlotte,Jason Maxiell,,,15:30,0.0,0.0,0.0,0.0,8.0,8.0,8.0,10.0,1.0,0.0,4.0,0.0
0021400510,1610612766,CHA,Charlotte,202390,Gary Neal,,,21:49,106.1,113.5,-7.4,0.286,4.0,22.4,0.063,0.053,0.057,5.6,0.208,0.272,0.293,94.12,-0.006,2015-01-05T00:00:00,2,CHA,Charlotte,12-24,24,26,29,25,0,0,0,0,0,0,0,0,0,0,104,0.487,0.957,0.316,22,48,15,0021400510,1610612766,CHA,Charlotte,Gary Neal,,,21:49,0.0,3.0,0.0,2.0,10.0,12.0,12.0,16.0,0.0,3.0,2.0,1.0
0021400510,1610612766,CHA,Charlotte,203798,PJ Hairston,,,12:52,106.9,96.4,10.5,0.0,0.0,0.0,0.0,0.143,0.077,0.0,0.7,0.735,0.186,95.65,0.228,2015-01-05T00:00:00,2,CHA,Charlotte,12-24,24,26,29,25,0,0,0,0,0,0,0,0,0,0,104,0.487,0.957,0.316,22,48,15,0021400510,1610612766,CHA,Charlotte,PJ Hairston,,,12:52,0.0,3.0,0.0,2.0,5.0,8.0,7.0,8.0,2.0,0.0,0.0,1.0
0021400510,1610612766,CHA,Charlotte,203148,Brian Roberts,,,9:07,97.5,113.4,-15.9,0.167,1.0,25.0,0.0,0.182,0.111,25.0,0.75,0.75,0.163,92.35,0.118,2015-01-05T00:00:00,2,CHA,Charlotte,12-24,24,26,29,25,0,0,0,0,0,0,0,0,0,0,104,0.487,0.957,0.316,22,48,15,0021400510,1610612766,CHA,Charlotte,Brian Roberts,,,9:07,0.0,0.0,0.0,0.0,3.0,8.0,7.0,10.0,0.0,0.0,0.0,0.0
0021400510,1610612766,CHA,Charlotte,202362,Lance Stephenson,,NWT - Pelvic Sprain                     ,,,,,,,0.0,,,,,,,0.0,,,2015-01-05T00:00:00,2,CHA,Charlotte,12-24,24,26,29,25,0,0,0,0,0,0,0,0,0,0,104,0.487,0.957,0.316,22,48,15,0021400510,1610612766,CHA,Charlotte,Lance Stephenson,,NWT - Pelvic Sprain                     ,,,,,,,,,,,,,
0021400510,1610612766,CHA,Charlotte,203943,Noah Vonleh,,DNP - Coach's Decision                  ,,,,,,,0.0,,,,,,,0.0,,,2015-01-05T00:00:00,2,CHA,Charlotte,12-24,24,26,29,25,0,0,0,0,0,0,0,0,0,0,104,0.487,0.957,0.316,22,48,15,0021400510,1610612766,CHA,Charlotte,Noah Vonleh,,DNP - Coach's Decision                  ,,,,,,,,,,,,,
0021400510,1610612738,BOS,Boston,201145,Jeff Green,F,,25:42,74.0,119.2,-45.2,0.0,0.0,0.0,0.0,0.048,0.02,0.0,0.231,0.26,0.226,97.94,-0.024,2015-01-05T00:00:00,2,BOS,Boston,11-21,16,20,26,33,0,0,0,0,0,0,0,0,0,0,95,0.396,0.696,0.389,22,33,6,0021400510,1610612738,BOS,Boston,Jeff Green,F,,25:42,2.0,0.0,2.0,6.0,6.0,8.0,4.0,22.0,0.0,3.0,0.0,2.0
0021400510,1610612738,BOS,Boston,203096,Jared Sullinger,F,,33:03,91.4,117.6,-26.2,0.063,1.0,4.8,0.121,0.154,0.136,4.8,0.5,0.59,0.266,94.14,0.17,2015-01-05T00:00:00,2,BOS,Boston,11-21,16,20,26,33,0,0,0,0,0,0,0,0,0,0,95,0.396,0.696,0.389,22,33,6,0021400510,1610612738,BOS,Boston,Jared Sullinger,F,,33:03,8.0,12.0,2.0,12.0,6.0,14.0,2.0,30.0,4.0,1.0,5.0,4.0
0021400510,1610612738,BOS,Boston,203092,Tyler Zeller,C,,15:48,75.6,121.6,-46.0,0.333,0.0,37.5,0.0,0.2,0.074,0.0,0.2,0.2,0.148,96.97,0.032,2015-01-05T00:00:00,2,BOS,Boston,11-21,16,20,26,33,0,0,0,0,0,0,0,0,0,0,95,0.396,0.696,0.389,22,33,6,0021400510,1610612738,BOS,Boston,Tyler Zeller,C,,15:48,0.0,0.0,0.0,2.0,6.0,6.0,2.0,20.0,0.0,0.0,1.0,1.0
0021400510,1610612738,BOS,Boston,202340,Avery Bradley,G,,19:45,70.1,109.0,-38.9,0.0,0.0,0.0,0.0,0.188,0.077,22.2,0.286,0.286,0.185,105.62,-0.029,2015-01-05T00:00:00,2,BOS,Boston,11-21,16,20,26,33,0,0,0,0,0,0,0,0,0,0,95,0.396,0.696,0.389,22,33,6,0021400510,1610612738,BOS,Boston,Avery Bradley,G,,19:45,0.0,0.0,0.0,2.0,4.0,7.0,2.0,16.0,0.0,1.0,2.0,0.0
0021400510,1610612738,BOS,Boston,202323,Evan Turner,G,,20:09,74.0,121.2,-47.1,0.4,2.0,33.7,0.0,0.118,0.05,16.8,0.4,0.425,0.173,93.47,0.029,2015-01-05T00:00:00,2,BOS,Boston,11-21,16,20,26,33,0,0,0,0,0,0,0,0,0,0,95,0.396,0.696,0.389,22,33,6,0021400510,1610612738,BOS,Boston,Evan Turner,G,,20:09,0.0,0.0,1.0,2.0,6.0,8.0,2.0,22.0,0.0,0.0,4.0,2.0
0021400510,1610612738,BOS,Boston,203482,Kelly Olynyk,,,13:32,105.4,80.9,24.5,0.0,0.0,0.0,0.0,0.273,0.125,0.0,0.333,0.388,0.211,97.09,0.057,2015-01-05T00:00:00,2,BOS,Boston,11-21,16,20,26,33,0,0,0,0,0,0,0,0,0,0,95,0.396,0.696,0.389,22,33,6,0021400510,1610612738,BOS,Boston,Kelly Olynyk,,,13:32,0.0,0.0,0.0,4.0,0.0,3.0,2.0,6.0,0.0,0.0,3.0,3.0
0021400510,1610612738,BOS,Boston,203515,Phil Pressey,,,14:10,114.7,77.6,37.1,0.2,0.0,18.2,0.0,0.3,0.136,0.0,0.333,0.333,0.268,100.43,0.156,2015-01-05T00:00:00,2,BOS,Boston,11-21,16,20,26,33,0,0,0,0,0,0,0,0,0,0,95,0.396,0.696,0.389,22,33,6,0021400510,1610612738,BOS,Boston,Phil Pressey,,,14:10,2.0,0.0,2.0,6.0,3.0,3.0,2.0,6.0,0.0,2.0,1.0,1.0
0021400510,1610612738,BOS,Boston,203935,Marcus Smart,,,20:46,107.9,109.2,-1.3,0.286,0.0,35.7,0.0,0.067,0.031,0.0,0.6,0.625,0.172,92.59,0.116,2015-01-05T00:00:00,2,BOS,Boston,11-21,16,20,26,33,0,0,0,0,0,0,0,0,0,0,95,0.396,0.696,0.389,22,33,6,0021400510,1610612738,BOS,Boston,Marcus Smart,,,20:46,0.0,0.0,3.0,0.0,0.0,11.0,2.0,14.0,0.0,0.0,2.0,2.0
0021400510,1610612738,BOS,Boston,101138,Brandon Bass,,,20:36,104.5,116.9,-12.4,0.364,4.0,29.1,0.059,0.059,0.059,7.3,0.429,0.457,0.236,88.42,0.068,2015-01-05T00:00:00,2,BOS,Boston,11-21,16,20,26,33,0,0,0,0,0,0,0,0,0,0,95,0.396,0.696,0.389,22,33,6,0021400510,1610612738,BOS,Boston,Brandon Bass,,,20:36,2.0,2.0,0.0,2.0,3.0,16.0,2.0,16.0,2.0,2.0,3.0,3.0
0021400510,1610612738,BOS,Boston,203109,Jae Crowder,,,25:31,123.2,113.6,9.5,0.111,0.0,15.5,0.1,0.2,0.143,0.0,0.6,0.597,0.199,91.35,0.139,2015-01-05T00:00:00,2,BOS,Boston,11-21,16,20,26,33,0,0,0,0,0,0,0,0,0,0,95,0.396,0.696,0.389,22,33,6,0021400510,1610612738,BOS,Boston,Jae Crowder,,,25:31,6.0,3.0,3.0,4.0,5.0,16.0,0.0,20.0,0.0,0.0,1.0,2.0
0021400510,1610612738,BOS,Boston,203923,James Young,,,17:31,128.4,118.5,10.0,0.0,0.0,0.0,0.067,0.0,0.04,0.0,0.929,0.929,0.168,94.1,0.171,2015-01-05T00:00:00,2,BOS,Boston,11-21,16,20,26,33,0,0,0,0,0,0,0,0,0,0,95,0.396,0.696,0.389,22,33,6,0021400510,1610612738,BOS,Boston,James Young,,,17:31,0.0,5.0,3.0,0.0,3.0,13.0,0.0,18.0,0.0,0.0,1.0,1.0
0021400510,1610612738,BOS,Boston,2222,Gerald Wallace,,,3:44,136.1,204.9,-68.9,0.0,0.0,0.0,0.0,0.0,0.0,0.0,0.0,0.0,0.127,69.17,-0.074,2015-01-05T00:00:00,2,BOS,Boston,11-21,16,20,26,33,0,0,0,0,0,0,0,0,0,0,95,0.396,0.696,0.389,22,33,6,0021400510,1610612738,BOS,Boston,Gerald Wallace,,,3:44,0.0,0.0,0.0,0.0,0.0,0.0,0.0,2.0,0.0,1.0,0.0,0.0
0021400510,1610612738,BOS,Boston,201148,Brandan Wright,,,9:43,136.3,125.3,11.0,0.222,0.0,69.4,0.25,0.0,0.154,0.0,0.0,0.568,0.038,88.52,0.095,2015-01-05T00:00:00,2,BOS,Boston,11-21,16,20,26,33,0,0,0,0,0,0,0,0,0,0,95,0.396,0.696,0.389,22,33,6,0021400510,1610612738,BOS,Boston,Brandan Wright,,,9:43,0.0,0.0,1.0,0.0,3.0,5.0,0.0,8.0,1.0,0.0,0.0,1.0
