GAME_ID_x,TEAM_ID_x,TEAM_ABBREVIATION_x,TEAM_CITY_x,PLAYER_ID,PLAYER_NAME_x,START_POSITION_x,COMMENT_x,MIN_x,OFF_RATING,DEF_RATING,NET_RATING,AST_PCT,AST_TOV,AST_RATIO,OREB_PCT,DREB_PCT,REB_PCT,TM_TOV_PCT,EFG_PCT,TS_PCT,USG_PCT,PACE,PIE,GAME_DATE_EST,GAME_SEQUENCE,TEAM_ABBREVIATION_y,TEAM_CITY_NAME,TEAM_WINS_LOSSES,PTS_QTR1,PTS_QTR2,PTS_QTR3,PTS_QTR4,PTS_OT1,PTS_OT2,PTS_OT3,PTS_OT4,PTS_OT5,PTS_OT6,PTS_OT7,PTS_OT8,PTS_OT9,PTS_OT10,PTS,FG_PCT,FT_PCT,FG3_PCT,AST,REB,TOV,GAME_ID_y,TEAM_ID_y,TEAM_ABBREVIATION,TEAM_CITY_y,PLAYER_NAME_y,START_POSITION_y,COMMENT_y,MIN_y,PTS_OFF_TOV,PTS_2ND_CHANCE,PTS_FB,PTS_PAINT,OPP_PTS_OFF_TOV,OPP_PTS_2ND_CHANCE,OPP_PTS_FB,OPP_PTS_PAINT,BLK,BLKA,PF,PFD
0021400536,1610612745,HOU,Houston,2772,Trevor Ariza,F,,25:48,133.4,88.2,45.1,0.053,0.5,7.2,0.0,0.045,0.025,14.4,0.8,0.827,0.214,102.92,0.135,2015-01-08T00:00:00,2,HOU,Houston,25-11,27,29,37,27,0,0,0,0,0,0,0,0,0,0,120,0.532,0.688,0.444,25,36,19,0021400536,1610612745,HOU,Houston,Trevor Ariza,F,,25:48,4.0,0.0,6.0,4.0,11.0,10.0,2.0,10.0,0.0,0.0,1.0,1.0
0021400536,1610612745,HOU,Houston,202700,Donatas Motiejunas,F,,36:05,134.8,99.0,35.8,0.103,1.0,15.7,0.087,0.179,0.137,15.7,0.7,0.65,0.194,101.5,0.112,2015-01-08T00:00:00,2,HOU,Houston,25-11,27,29,37,27,0,0,0,0,0,0,0,0,0,0,120,0.532,0.688,0.444,25,36,19,0021400536,1610612745,HOU,Houston,Donatas Motiejunas,F,,36:05,2.0,4.0,0.0,14.0,15.0,10.0,4.0,18.0,0.0,0.0,3.0,7.0
0021400536,1610612745,HOU,Houston,2730,Dwight Howard,C,,24:06,113.4,89.5,23.9,0.063,0.33,7.4,0.222,0.3,0.263,22.2,0.667,0.683,0.213,104.5,0.178,2015-01-08T00:00:00,2,HOU,Houston,25-11,27,29,37,27,0,0,0,0,0,0,0,0,0,0,120,0.532,0.688,0.444,25,36,19,0021400536,1610612745,HOU,Houston,Dwight Howard,C,,24:06,0.0,3.0,0.0,8.0,13.0,6.0,4.0,14.0,1.0,1.0,3.0,6.0
0021400536,1610612745,HOU,Houston,201976,Patrick Beverley,G,,25:48,133.4,88.2,45.1,0.15,0.0,25.0,0.0,0.091,0.05,0.0,0.778,0.778,0.149,102.92,0.116,2015-01-08T00:00:00,2,HOU,Houston,25-11,27,29,37,27,0,0,0,0,0,0,0,0,0,0,120,0.532,0.688,0.444,25,36,19,0021400536,1610612745,HOU,Houston,Patrick Beverley,G,,25:48,5.0,0.0,0.0,2.0,11.0,10.0,2.0,10.0,0.0,0.0,4.0,0.0
0021400536,1610612745,HOU,Houston,201935,James Harden,G,,30:40,138.0,92.3,45.7,0.391,3.0,28.4,0.0,0.16,0.091,9.5,0.559,0.636,0.327,100.24,0.21,2015-01-08T00:00:00,2,HOU,Houston,25-11,27,29,37,27,0,0,0,0,0,0,0,0,0,0,120,0.532,0.688,0.444,25,36,19,0021400536,1610612745,HOU,Houston,James Harden,G,,30:40,7.0,6.0,6.0,8.0,13.0,10.0,2.0,14.0,0.0,0.0,2.0,4.0
0021400536,1610612745,HOU,Houston,2746,Josh Smith,,,19:42,89.6,106.8,-17.3,0.077,0.33,12.7,0.0,0.071,0.034,38.1,0.333,0.258,0.163,96.91,-0.089,2015-01-08T00:00:00,2,HOU,Houston,25-11,27,29,37,27,0,0,0,0,0,0,0,0,0,0,120,0.532,0.688,0.444,25,36,19,0021400536,1610612745,HOU,Houston,Josh Smith,,,19:42,0.0,0.0,0.0,2.0,6.0,8.0,4.0,14.0,2.0,0.0,5.0,1.0
0021400536,1610612745,HOU,Houston,201147,Corey Brewer,,,22:12,96.1,104.7,-8.6,0.231,1.5,17.9,0.0,0.118,0.059,11.9,0.35,0.468,0.276,100.19,0.093,2015-01-08T00:00:00,2,HOU,Houston,25-11,27,29,37,27,0,0,0,0,0,0,0,0,0,0,120,0.532,0.688,0.444,25,36,19,0021400536,1610612745,HOU,Houston,Corey Brewer,,,22:12,7.0,0.0,2.0,2.0,6.0,4.0,5.0,20.0,1.0,0.0,1.0,2.0
0021400536,1610612745,HOU,Houston,1891,Jason Terry,,,22:12,96.1,104.7,-8.6,0.182,0.0,21.2,0.0,0.118,0.059,0.0,0.929,0.941,0.149,100.19,0.243,2015-01-08T00:00:00,2,HOU,Houston,25-11,27,29,37,27,0,0,0,0,0,0,0,0,0,0,120,0.532,0.688,0.444,25,36,19,0021400536,1610612745,HOU,Houston,Jason Terry,,,22:12,0.0,2.0,3.0,2.0,6.0,4.0,5.0,20.0,0.0,0.0,0.0,0.0
0021400536,1610612745,HOU,Houston,203123,Kostas Papanikolaou,,,17:20,79.3,101.6,-22.3,0.1,0.5,20.0,0.063,0.143,0.1,40.0,0.0,0.0,0.098,104.18,0.011,2015-01-08T00:00:00,2,HOU,Houston,25-11,27,29,37,27,0,0,0,0,0,0,0,0,0,0,120,0.532,0.688,0.444,25,36,19,0021400536,1610612745,HOU,Houston,Kostas Papanikolaou,,,17:20,0.0,0.0,0.0,0.0,4.0,4.0,5.0,16.0,0.0,0.0,0.0,0.0
0021400536,1610612745,HOU,Houston,201595,Joey Dorsey,,,9:32,121.8,92.9,28.9,0.0,0.0,0.0,0.0,0.333,0.176,0.0,1.0,0.798,0.083,105.83,0.074,2015-01-08T00:00:00,2,HOU,Houston,25-11,27,29,37,27,0,0,0,0,0,0,0,0,0,0,120,0.532,0.688,0.444,25,36,19,0021400536,1610612745,HOU,Houston,Joey Dorsey,,,9:32,0.0,0.0,0.0,2.0,0.0,2.0,1.0,8.0,1.0,0.0,3.0,1.0
0021400536,1610612745,HOU,Houston,203477,Isaiah Canaan,,,6:35,93.2,75.1,18.0,0.333,1.0,25.0,0.0,0.143,0.077,25.0,0.75,0.75,0.216,100.33,0.111,2015-01-08T00:00:00,2,HOU,Houston,25-11,27,29,37,27,0,0,0,0,0,0,0,0,0,0,120,0.532,0.688,0.444,25,36,19,0021400536,1610612745,HOU,Houston,Isaiah Canaan,,,6:35,0.0,0.0,0.0,0.0,0.0,2.0,1.0,6.0,0.0,0.0,1.0,0.0
0021400536,1610612745,HOU,Houston,203144,Alexey Shved,,DND - Sprained Left Ankle               ,,,,,,,0.0,,,,,,,0.0,,,2015-01-08T00:00:00,2,HOU,Houston,25-11,27,29,37,27,0,0,0,0,0,0,0,0,0,0,120,0.532,0.688,0.444,25,36,19,0021400536,1610612745,HOU,Houston,Alexey Shved,,DND - Sprained Left Ankle               ,,,,,,,,,,,,,
0021400536,1610612752,NYK,New York,203501,Tim Hardaway Jr.,F,,17:17,75.0,143.8,-68.8,0.0,0.0,0.0,0.0,0.2,0.069,0.0,0.389,0.389,0.22,100.2,0.014,2015-01-08T00:00:00,2,NYK,New York,5-34,22,20,27,27,0,0,0,0,0,0,0,0,0,0,96,0.463,0.524,0.423,22,38,21,0021400536,1610612752,NYK,New York,Tim Hardaway Jr.,F,,17:17,4.0,2.0,2.0,2.0,10.0,6.0,10.0,24.0,0.0,1.0,2.0,0.0
0021400536,1610612752,NYK,New York,201160,Jason Smith,F,,22:32,91.8,141.5,-49.7,0.154,1.0,18.2,0.056,0.231,0.129,18.2,0.429,0.429,0.174,101.06,0.036,2015-01-08T00:00:00,2,NYK,New York,5-34,22,20,27,27,0,0,0,0,0,0,0,0,0,0,96,0.463,0.524,0.423,22,38,21,0021400536,1610612752,NYK,New York,Jason Smith,F,,22:32,2.0,2.0,0.0,0.0,16.0,8.0,10.0,26.0,0.0,2.0,3.0,0.0
0021400536,1610612752,NYK,New York,202332,Cole Aldrich,C,,19:40,75.0,115.7,-40.7,0.0,0.0,0.0,0.111,0.2,0.152,37.5,0.4,0.4,0.178,100.5,0.0,2015-01-08T00:00:00,2,NYK,New York,5-34,22,20,27,27,0,0,0,0,0,0,0,0,0,0,96,0.463,0.524,0.423,22,38,21,0021400536,1610612752,NYK,New York,Cole Aldrich,C,,19:40,2.0,2.0,0.0,4.0,13.0,9.0,10.0,20.0,0.0,0.0,3.0,2.0
0021400536,1610612752,NYK,New York,101181,Jose Calderon,G,,21:12,83.7,147.6,-63.9,0.267,2.0,36.4,0.1,0.154,0.121,18.2,0.0,0.0,0.143,98.54,0.0,2015-01-08T00:00:00,2,NYK,New York,5-34,22,20,27,27,0,0,0,0,0,0,0,0,0,0,96,0.463,0.524,0.423,22,38,21,0021400536,1610612752,NYK,New York,Jose Calderon,G,,21:12,0.0,0.0,0.0,0.0,13.0,11.0,10.0,26.0,0.0,0.0,0.0,1.0
0021400536,1610612752,NYK,New York,203143,Pablo Prigioni,G,,17:17,86.1,153.1,-67.0,0.3,0.75,23.1,0.0,0.091,0.038,30.8,0.75,0.75,0.238,98.98,0.074,2015-01-08T00:00:00,2,NYK,New York,5-34,22,20,27,27,0,0,0,0,0,0,0,0,0,0,96,0.463,0.524,0.423,22,38,21,0021400536,1610612752,NYK,New York,Pablo Prigioni,G,,17:17,0.0,0.0,0.0,0.0,13.0,11.0,8.0,22.0,0.0,0.0,2.0,1.0
0021400536,1610612752,NYK,New York,203112,Quincy Acy,,,30:41,105.8,115.1,-9.3,0.143,3.0,21.3,0.042,0.182,0.109,7.1,0.571,0.546,0.158,102.69,0.054,2015-01-08T00:00:00,2,NYK,New York,5-34,22,20,27,27,0,0,0,0,0,0,0,0,0,0,96,0.463,0.524,0.423,22,38,21,0021400536,1610612752,NYK,New York,Quincy Acy,,,30:41,1.0,4.0,0.0,4.0,14.0,6.0,9.0,26.0,0.0,0.0,4.0,6.0
0021400536,1610612752,NYK,New York,203499,Shane Larkin,,,30:00,102.8,97.1,5.7,0.217,1.67,36.0,0.0,0.087,0.043,21.6,0.2,0.255,0.132,103.33,0.053,2015-01-08T00:00:00,2,NYK,New York,5-34,22,20,27,27,0,0,0,0,0,0,0,0,0,0,96,0.463,0.524,0.423,22,38,21,0021400536,1610612752,NYK,New York,Shane Larkin,,,30:00,2.0,0.0,0.0,0.0,12.0,4.0,9.0,22.0,0.0,0.0,1.0,3.0
0021400536,1610612752,NYK,New York,204037,Travis Wear,,,26:15,105.4,101.9,3.4,0.077,0.33,5.0,0.0,0.227,0.119,15.0,0.656,0.656,0.316,101.45,0.185,2015-01-08T00:00:00,2,NYK,New York,5-34,22,20,27,27,0,0,0,0,0,0,0,0,0,0,96,0.463,0.524,0.423,22,38,21,0021400536,1610612752,NYK,New York,Travis Wear,,,26:15,0.0,0.0,0.0,4.0,9.0,7.0,7.0,18.0,1.0,0.0,3.0,3.0
0021400536,1610612752,NYK,New York,203921,Cleanthony Early,,,24:35,104.7,91.4,13.3,0.067,1.0,6.8,0.176,0.15,0.162,6.8,0.65,0.633,0.245,103.8,0.204,2015-01-08T00:00:00,2,NYK,New York,5-34,22,20,27,27,0,0,0,0,0,0,0,0,0,0,96,0.463,0.524,0.423,22,38,21,0021400536,1610612752,NYK,New York,Cleanthony Early,,,24:35,2.0,2.0,1.0,10.0,10.0,4.0,5.0,16.0,0.0,2.0,0.0,3.0
0021400536,1610612752,NYK,New York,204038,Langston Galloway,,,30:31,104.3,97.1,7.2,0.158,1.5,17.0,0.048,0.115,0.085,11.3,0.75,0.752,0.211,103.15,0.152,2015-01-08T00:00:00,2,NYK,New York,5-34,22,20,27,27,0,0,0,0,0,0,0,0,0,0,96,0.463,0.524,0.423,22,38,21,0021400536,1610612752,NYK,New York,Langston Galloway,,,30:31,4.0,2.0,4.0,6.0,15.0,9.0,7.0,20.0,0.0,0.0,4.0,4.0
0021400536,1610612752,NYK,New York,200745,Andrea Bargnani,,DND - Strained Right Calf               ,,,,,,,0.0,,,,,,,0.0,,,2015-01-08T00:00:00,2,NYK,New York,5-34,22,20,27,27,0,0,0,0,0,0,0,0,0,0,96,0.463,0.524,0.423,22,38,21,0021400536,1610612752,NYK,New York,Andrea Bargnani,,DND - Strained Right Calf               ,,,,,,,,,,,,,
