GAME_ID_x,TEAM_ID_x,TEAM_ABBREVIATION_x,TEAM_CITY_x,PLAYER_ID,PLAYER_NAME_x,START_POSITION_x,COMMENT_x,MIN_x,OFF_RATING,DEF_RATING,NET_RATING,AST_PCT,AST_TOV,AST_RATIO,OREB_PCT,DREB_PCT,REB_PCT,TM_TOV_PCT,EFG_PCT,TS_PCT,USG_PCT,PACE,PIE,GAME_DATE_EST,GAME_SEQUENCE,TEAM_ABBREVIATION_y,TEAM_CITY_NAME,TEAM_WINS_LOSSES,PTS_QTR1,PTS_QTR2,PTS_QTR3,PTS_QTR4,PTS_OT1,PTS_OT2,PTS_OT3,PTS_OT4,PTS_OT5,PTS_OT6,PTS_OT7,PTS_OT8,PTS_OT9,PTS_OT10,PTS,FG_PCT,FT_PCT,FG3_PCT,AST,REB,TOV,GAME_ID_y,TEAM_ID_y,TEAM_ABBREVIATION,TEAM_CITY_y,PLAYER_NAME_y,START_POSITION_y,COMMENT_y,MIN_y,PTS_OFF_TOV,PTS_2ND_CHANCE,PTS_FB,PTS_PAINT,OPP_PTS_OFF_TOV,OPP_PTS_2ND_CHANCE,OPP_PTS_FB,OPP_PTS_PAINT,BLK,BLKA,PF,PFD
0021400535,1610612766,CHA,Charlotte,203077,Michael Kidd-Gilchrist,F,,30:17,119.9,81.2,38.8,0.12,3.0,18.4,0.04,0.367,0.218,6.1,0.364,0.406,0.193,96.41,0.12,2015-01-08T00:00:00,1,CHA,Charlotte,14-24,31,19,25,28,0,0,0,0,0,0,0,0,0,0,103,0.477,0.682,0.25,21,46,8,0021400535,1610612766,CHA,Charlotte,Michael Kidd-Gilchrist,F,,30:17,0.0,2.0,2.0,8.0,4.0,6.0,0.0,20.0,0.0,2.0,4.0,3.0
0021400535,1610612766,CHA,Charlotte,101107,Marvin Williams,F,,38:07,117.4,89.1,28.4,0.097,3.0,21.4,0.03,0.205,0.125,7.1,0.65,0.65,0.133,97.92,0.14,2015-01-08T00:00:00,1,CHA,Charlotte,14-24,31,19,25,28,0,0,0,0,0,0,0,0,0,0,103,0.477,0.682,0.25,21,46,8,0021400535,1610612766,CHA,Charlotte,Marvin Williams,F,,38:07,5.0,3.0,2.0,2.0,2.0,13.0,5.0,34.0,0.0,0.0,0.0,0.0
0021400535,1610612766,CHA,Charlotte,202687,Bismack Biyombo,C,,27:07,118.5,96.9,21.6,0.0,0.0,0.0,0.08,0.154,0.118,0.0,0.4,0.417,0.12,93.65,0.01,2015-01-08T00:00:00,1,CHA,Charlotte,14-24,31,19,25,28,0,0,0,0,0,0,0,0,0,0,103,0.477,0.682,0.25,21,46,8,0021400535,1610612766,CHA,Charlotte,Bismack Biyombo,C,,27:07,0.0,0.0,0.0,4.0,0.0,9.0,0.0,22.0,2.0,1.0,5.0,4.0
0021400535,1610612766,CHA,Charlotte,201945,Gerald Henderson,G,,37:34,114.1,91.4,22.8,0.136,1.5,10.7,0.0,0.135,0.07,7.1,0.65,0.672,0.305,97.8,0.208,2015-01-08T00:00:00,1,CHA,Charlotte,14-24,31,19,25,28,0,0,0,0,0,0,0,0,0,0,103,0.477,0.682,0.25,21,46,8,0021400535,1610612766,CHA,Charlotte,Gerald Henderson,G,,37:34,2.0,0.0,2.0,10.0,2.0,13.0,7.0,30.0,0.0,0.0,1.0,6.0
0021400535,1610612766,CHA,Charlotte,202689,Kemba Walker,G,,40:58,115.1,90.9,24.2,0.308,0.0,23.0,0.081,0.1,0.091,0.0,0.5,0.542,0.298,96.31,0.224,2015-01-08T00:00:00,1,CHA,Charlotte,14-24,31,19,25,28,0,0,0,0,0,0,0,0,0,0,103,0.477,0.682,0.25,21,46,8,0021400535,1610612766,CHA,Charlotte,Kemba Walker,G,,40:58,4.0,4.0,2.0,8.0,2.0,13.0,5.0,34.0,0.0,3.0,1.0,5.0
0021400535,1610612766,CHA,Charlotte,202390,Gary Neal,,,17:57,78.5,126.0,-47.5,0.077,0.5,11.8,0.0,0.083,0.032,23.7,0.0,0.092,0.185,105.2,-0.119,2015-01-08T00:00:00,1,CHA,Charlotte,14-24,31,19,25,28,0,0,0,0,0,0,0,0,0,0,103,0.477,0.682,0.25,21,46,8,0021400535,1610612766,CHA,Charlotte,Gary Neal,,,17:57,0.0,0.0,0.0,0.0,4.0,5.0,7.0,16.0,0.0,1.0,4.0,0.0
0021400535,1610612766,CHA,Charlotte,101131,Jason Maxiell,,,20:53,91.9,92.9,-1.0,0.077,1.0,14.3,0.0,0.105,0.054,14.3,0.6,0.6,0.132,104.43,0.088,2015-01-08T00:00:00,1,CHA,Charlotte,14-24,31,19,25,28,0,0,0,0,0,0,0,0,0,0,103,0.477,0.682,0.25,21,46,8,0021400535,1610612766,CHA,Charlotte,Jason Maxiell,,,20:53,0.0,0.0,0.0,4.0,6.0,4.0,7.0,14.0,1.0,0.0,1.0,1.0
0021400535,1610612766,CHA,Charlotte,203943,Noah Vonleh,,,9:53,67.0,118.3,-51.3,0.0,0.0,0.0,0.2,0.167,0.188,33.3,0.5,0.5,0.131,99.95,0.036,2015-01-08T00:00:00,1,CHA,Charlotte,14-24,31,19,25,28,0,0,0,0,0,0,0,0,0,0,103,0.477,0.682,0.25,21,46,8,0021400535,1610612766,CHA,Charlotte,Noah Vonleh,,,9:53,2.0,2.0,0.0,2.0,4.0,0.0,2.0,2.0,0.0,0.0,2.0,0.0
0021400535,1610612766,CHA,Charlotte,203148,Brian Roberts,,,17:14,78.6,101.1,-22.5,0.222,0.0,25.4,0.0,0.063,0.033,0.0,0.4,0.425,0.165,100.6,0.104,2015-01-08T00:00:00,1,CHA,Charlotte,14-24,31,19,25,28,0,0,0,0,0,0,0,0,0,0,103,0.477,0.682,0.25,21,46,8,0021400535,1610612766,CHA,Charlotte,Brian Roberts,,,17:14,2.0,0.0,2.0,2.0,6.0,2.0,2.0,8.0,0.0,0.0,0.0,2.0
0021400535,1610612766,CHA,Charlotte,203798,PJ Hairston,,NWT - Illness                           ,,,,,,,0.0,,,,,,,0.0,,,2015-01-08T00:00:00,1,CHA,Charlotte,14-24,31,19,25,28,0,0,0,0,0,0,0,0,0,0,103,0.477,0.682,0.25,21,46,8,0021400535,1610612766,CHA,Charlotte,PJ Hairston,,NWT - Illness                           ,,,,,,,,,,,,,
0021400535,1610612766,CHA,Charlotte,202362,Lance Stephenson,,NWT - Pelvic Sprain                     ,,,,,,,0.0,,,,,,,0.0,,,2015-01-08T00:00:00,1,CHA,Charlotte,14-24,31,19,25,28,0,0,0,0,0,0,0,0,0,0,103,0.477,0.682,0.25,21,46,8,0021400535,1610612766,CHA,Charlotte,Lance Stephenson,,NWT - Pelvic Sprain                     ,,,,,,,,,,,,,
0021400535,1610612766,CHA,Charlotte,203469,Cody Zeller,,DNP - Coach's Decision                  ,,,,,,,0.0,,,,,,,0.0,,,2015-01-08T00:00:00,1,CHA,Charlotte,14-24,31,19,25,28,0,0,0,0,0,0,0,0,0,0,103,0.477,0.682,0.25,21,46,8,0021400535,1610612766,CHA,Charlotte,Cody Zeller,,DNP - Coach's Decision                  ,,,,,,,,,,,,,
0021400535,1610612761,TOR,Toronto,202361,Landry Fields,F,,9:48,34.2,144.9,-110.7,0.0,0.0,0.0,0.0,0.0,0.0,0.0,0.0,0.0,0.0,97.37,-0.029,2015-01-08T00:00:00,1,TOR,Toronto,24-11,23,29,14,29,0,0,0,0,0,0,0,0,0,0,95,0.398,0.76,0.323,20,42,14,0021400535,1610612761,TOR,Toronto,Landry Fields,F,,9:48,0.0,0.0,0.0,0.0,4.0,7.0,6.0,12.0,0.0,0.0,1.0,0.0
0021400535,1610612761,TOR,Toronto,101161,Amir Johnson,F,,21:29,89.7,119.4,-29.7,0.0,0.0,0.0,0.08,0.167,0.116,51.0,1.0,0.868,0.116,103.46,0.014,2015-01-08T00:00:00,1,TOR,Toronto,24-11,23,29,14,29,0,0,0,0,0,0,0,0,0,0,95,0.398,0.76,0.323,20,42,14,0021400535,1610612761,TOR,Toronto,Amir Johnson,F,,21:29,1.0,2.0,0.0,4.0,6.0,5.0,6.0,16.0,0.0,0.0,4.0,1.0
0021400535,1610612761,TOR,Toronto,202685,Jonas Valanciunas,C,,21:34,71.6,112.3,-40.7,0.0,0.0,0.0,0.043,0.217,0.13,8.5,0.333,0.465,0.24,99.84,0.103,2015-01-08T00:00:00,1,TOR,Toronto,24-11,23,29,14,29,0,0,0,0,0,0,0,0,0,0,95,0.398,0.76,0.323,20,42,14,0021400535,1610612761,TOR,Toronto,Jonas Valanciunas,C,,21:34,0.0,2.0,0.0,6.0,6.0,9.0,8.0,26.0,0.0,0.0,1.0,2.0
0021400535,1610612761,TOR,Toronto,203082,Terrence Ross,G,,21:46,91.2,119.7,-28.5,0.083,0.0,9.1,0.0,0.19,0.087,0.0,0.35,0.35,0.209,95.95,0.031,2015-01-08T00:00:00,1,TOR,Toronto,24-11,23,29,14,29,0,0,0,0,0,0,0,0,0,0,95,0.398,0.76,0.323,20,42,14,0021400535,1610612761,TOR,Toronto,Terrence Ross,G,,21:46,0.0,0.0,0.0,2.0,4.0,7.0,4.0,24.0,1.0,0.0,4.0,0.0
0021400535,1610612761,TOR,Toronto,200768,Kyle Lowry,G,,36:11,87.2,111.8,-24.6,0.412,2.33,20.0,0.056,0.152,0.101,8.6,0.409,0.478,0.339,98.3,0.147,2015-01-08T00:00:00,1,TOR,Toronto,24-11,23,29,14,29,0,0,0,0,0,0,0,0,0,0,95,0.398,0.76,0.323,20,42,14,0021400535,1610612761,TOR,Toronto,Kyle Lowry,G,,36:11,0.0,5.0,0.0,6.0,11.0,9.0,8.0,30.0,1.0,1.0,1.0,5.0
0021400535,1610612761,TOR,Toronto,202349,Greivis Vasquez,,,29:34,115.5,97.2,18.3,0.19,1.33,26.7,0.0,0.111,0.06,20.0,0.688,0.688,0.166,99.91,0.083,2015-01-08T00:00:00,1,TOR,Toronto,24-11,23,29,14,29,0,0,0,0,0,0,0,0,0,0,95,0.398,0.76,0.323,20,42,14,0021400535,1610612761,TOR,Toronto,Greivis Vasquez,,,29:34,3.0,0.0,0.0,2.0,11.0,4.0,4.0,26.0,0.0,2.0,3.0,0.0
0021400535,1610612761,TOR,Toronto,202335,Patrick Patterson,,,28:46,99.5,99.3,0.3,0.158,3.0,25.0,0.04,0.115,0.078,8.3,0.438,0.438,0.136,96.53,0.067,2015-01-08T00:00:00,1,TOR,Toronto,24-11,23,29,14,29,0,0,0,0,0,0,0,0,0,0,95,0.398,0.76,0.323,20,42,14,0021400535,1610612761,TOR,Toronto,Patrick Patterson,,,28:46,2.0,2.0,0.0,2.0,8.0,6.0,4.0,26.0,1.0,0.0,2.0,0.0
0021400535,1610612761,TOR,Toronto,201946,Tyler Hansbrough,,,19:09,115.7,87.7,28.0,0.0,0.0,0.0,0.0,0.333,0.179,18.4,1.125,1.014,0.139,94.85,0.128,2015-01-08T00:00:00,1,TOR,Toronto,24-11,23,29,14,29,0,0,0,0,0,0,0,0,0,0,95,0.398,0.76,0.323,20,42,14,0021400535,1610612761,TOR,Toronto,Tyler Hansbrough,,,19:09,0.0,0.0,2.0,6.0,7.0,2.0,2.0,12.0,0.0,0.0,4.0,2.0
0021400535,1610612761,TOR,Toronto,101150,Lou Williams,,,28:21,96.0,103.1,-7.1,0.333,5.0,20.4,0.0,0.174,0.089,4.1,0.267,0.405,0.308,97.03,0.132,2015-01-08T00:00:00,1,TOR,Toronto,24-11,23,29,14,29,0,0,0,0,0,0,0,0,0,0,95,0.398,0.76,0.323,20,42,14,0021400535,1610612761,TOR,Toronto,Lou Williams,,,28:21,0.0,0.0,5.0,2.0,11.0,4.0,6.0,18.0,0.0,0.0,0.0,6.0
0021400535,1610612761,TOR,Toronto,201949,James Johnson,,,23:21,113.7,92.2,21.5,0.0,0.0,0.0,0.091,0.095,0.093,13.7,0.6,0.554,0.135,99.63,0.078,2015-01-08T00:00:00,1,TOR,Toronto,24-11,23,29,14,29,0,0,0,0,0,0,0,0,0,0,95,0.398,0.76,0.323,20,42,14,0021400535,1610612761,TOR,Toronto,James Johnson,,,23:21,0.0,2.0,0.0,6.0,7.0,2.0,2.0,10.0,4.0,0.0,1.0,2.0
0021400535,1610612761,TOR,Toronto,101236,Chuck Hayes,,DNP - Coach's Decision                  ,,,,,,,0.0,,,,,,,0.0,,,2015-01-08T00:00:00,1,TOR,Toronto,24-11,23,29,14,29,0,0,0,0,0,0,0,0,0,0,95,0.398,0.76,0.323,20,42,14,0021400535,1610612761,TOR,Toronto,Chuck Hayes,,DNP - Coach's Decision                  ,,,,,,,,,,,,,
0021400535,1610612761,TOR,Toronto,203512,Lucas Nogueira,,DNP - Coach's Decision                  ,,,,,,,0.0,,,,,,,0.0,,,2015-01-08T00:00:00,1,TOR,Toronto,24-11,23,29,14,29,0,0,0,0,0,0,0,0,0,0,95,0.398,0.76,0.323,20,42,14,0021400535,1610612761,TOR,Toronto,Lucas Nogueira,,DNP - Coach's Decision                  ,,,,,,,,,,,,,
0021400535,1610612761,TOR,Toronto,201880,Greg Stiemsma,,DNP - Coach's Decision                  ,,,,,,,0.0,,,,,,,0.0,,,2015-01-08T00:00:00,1,TOR,Toronto,24-11,23,29,14,29,0,0,0,0,0,0,0,0,0,0,95,0.398,0.76,0.323,20,42,14,0021400535,1610612761,TOR,Toronto,Greg Stiemsma,,DNP - Coach's Decision                  ,,,,,,,,,,,,,
