GAME_ID_x,TEAM_ID_x,TEAM_ABBREVIATION_x,TEAM_CITY_x,PLAYER_ID,PLAYER_NAME_x,START_POSITION_x,COMMENT_x,MIN_x,OFF_RATING,DEF_RATING,NET_RATING,AST_PCT,AST_TOV,AST_RATIO,OREB_PCT,DREB_PCT,REB_PCT,TM_TOV_PCT,EFG_PCT,TS_PCT,USG_PCT,PACE,PIE,GAME_DATE_EST,GAME_SEQUENCE,TEAM_ABBREVIATION_y,TEAM_CITY_NAME,TEAM_WINS_LOSSES,PTS_QTR1,PTS_QTR2,PTS_QTR3,PTS_QTR4,PTS_OT1,PTS_OT2,PTS_OT3,PTS_OT4,PTS_OT5,PTS_OT6,PTS_OT7,PTS_OT8,PTS_OT9,PTS_OT10,PTS,FG_PCT,FT_PCT,FG3_PCT,AST,REB,TOV,GAME_ID_y,TEAM_ID_y,TEAM_ABBREVIATION,TEAM_CITY_y,PLAYER_NAME_y,START_POSITION_y,COMMENT_y,MIN_y,PTS_OFF_TOV,PTS_2ND_CHANCE,PTS_FB,PTS_PAINT,OPP_PTS_OFF_TOV,OPP_PTS_2ND_CHANCE,OPP_PTS_FB,OPP_PTS_PAINT,BLK,BLKA,PF,PFD
0021400543,1610612741,CHI,Chicago,202710,Jimmy Butler,F,,36:15,71.4,113.4,-42.0,0.118,0.5,9.5,0.026,0.083,0.053,19.0,0.208,0.332,0.228,98.51,0.0,2015-01-09T00:00:00,6,CHI,Chicago,25-12,13,29,26,18,0,0,0,0,0,0,0,0,0,0,86,0.386,0.632,0.385,16,46,16,0021400543,1610612741,CHI,Chicago,Jimmy Butler,F,,36:15,2.0,0.0,4.0,0.0,17.0,9.0,18.0,26.0,1.0,1.0,3.0,4.0
0021400543,1610612741,CHI,Chicago,2200,Pau Gasol,F,,32:06,76.8,111.6,-34.9,0.071,1.0,6.8,0.088,0.357,0.21,6.8,0.455,0.47,0.182,100.19,0.149,2015-01-09T00:00:00,6,CHI,Chicago,25-12,13,29,26,18,0,0,0,0,0,0,0,0,0,0,86,0.386,0.632,0.385,16,46,16,0021400543,1610612741,CHI,Chicago,Pau Gasol,F,,32:06,2.0,4.0,0.0,6.0,16.0,6.0,18.0,24.0,2.0,0.0,1.0,3.0
0021400543,1610612741,CHI,Chicago,201149,Joakim Noah,C,,26:46,77.2,111.4,-34.2,0.125,2.0,22.5,0.074,0.32,0.192,11.3,0.2,0.255,0.109,98.59,0.072,2015-01-09T00:00:00,6,CHI,Chicago,25-12,13,29,26,18,0,0,0,0,0,0,0,0,0,0,86,0.386,0.632,0.385,16,46,16,0021400543,1610612741,CHI,Chicago,Joakim Noah,C,,26:46,0.0,2.0,0.0,2.0,14.0,6.0,13.0,24.0,1.0,2.0,2.0,3.0
0021400543,1610612741,CHI,Chicago,2550,Kirk Hinrich,G,,20:59,77.3,104.6,-27.2,0.0,0.0,0.0,0.042,0.0,0.022,42.9,0.375,0.375,0.137,98.41,-0.059,2015-01-09T00:00:00,6,CHI,Chicago,25-12,13,29,26,18,0,0,0,0,0,0,0,0,0,0,86,0.386,0.632,0.385,16,46,16,0021400543,1610612741,CHI,Chicago,Kirk Hinrich,G,,20:59,0.0,0.0,0.0,0.0,7.0,6.0,7.0,18.0,0.0,1.0,1.0,1.0
0021400543,1610612741,CHI,Chicago,201565,Derrick Rose,G,,30:59,80.0,116.2,-36.2,0.182,0.5,7.7,0.031,0.111,0.068,15.5,0.447,0.478,0.333,97.38,0.082,2015-01-09T00:00:00,6,CHI,Chicago,25-12,13,29,26,18,0,0,0,0,0,0,0,0,0,0,86,0.386,0.632,0.385,16,46,16,0021400543,1610612741,CHI,Chicago,Derrick Rose,G,,30:59,0.0,4.0,4.0,12.0,14.0,6.0,15.0,26.0,1.0,2.0,1.0,2.0
0021400543,1610612741,CHI,Chicago,201166,Aaron Brooks,,,23:21,96.7,93.7,3.0,0.4,1.33,20.0,0.048,0.08,0.065,15.0,0.615,0.615,0.317,92.88,0.108,2015-01-09T00:00:00,6,CHI,Chicago,25-12,13,29,26,18,0,0,0,0,0,0,0,0,0,0,86,0.386,0.632,0.385,16,46,16,0021400543,1610612741,CHI,Chicago,Aaron Brooks,,,23:21,3.0,3.0,3.0,4.0,8.0,5.0,10.0,16.0,0.0,1.0,4.0,0.0
0021400543,1610612741,CHI,Chicago,201959,Taj Gibson,,,23:01,106.3,101.4,4.9,0.133,0.0,28.6,0.043,0.087,0.065,0.0,0.2,0.2,0.099,91.43,0.055,2015-01-09T00:00:00,6,CHI,Chicago,25-12,13,29,26,18,0,0,0,0,0,0,0,0,0,0,86,0.386,0.632,0.385,16,46,16,0021400543,1610612741,CHI,Chicago,Taj Gibson,,,23:01,0.0,0.0,0.0,2.0,5.0,5.0,7.0,14.0,2.0,0.0,0.0,1.0
0021400543,1610612741,CHI,Chicago,203503,Tony Snell,,,18:31,118.2,113.6,4.6,0.0,0.0,0.0,0.0,0.077,0.034,0.0,0.667,0.654,0.174,93.99,0.098,2015-01-09T00:00:00,6,CHI,Chicago,25-12,13,29,26,18,0,0,0,0,0,0,0,0,0,0,86,0.386,0.632,0.385,16,46,16,0021400543,1610612741,CHI,Chicago,Tony Snell,,,18:31,0.0,0.0,1.0,2.0,6.0,2.0,10.0,14.0,0.0,0.0,2.0,2.0
0021400543,1610612741,CHI,Chicago,202703,Nikola Mirotic,,,14:16,128.1,99.7,28.4,0.091,0.0,17.0,0.1,0.222,0.179,0.0,0.625,0.615,0.182,90.58,0.138,2015-01-09T00:00:00,6,CHI,Chicago,25-12,13,29,26,18,0,0,0,0,0,0,0,0,0,0,86,0.386,0.632,0.385,16,46,16,0021400543,1610612741,CHI,Chicago,Nikola Mirotic,,,14:16,3.0,0.0,0.0,2.0,5.0,5.0,2.0,10.0,1.0,0.0,1.0,2.0
0021400543,1610612741,CHI,Chicago,202734,E'Twaun Moore,,,13:24,126.3,83.7,42.5,0.222,0.0,33.3,0.0,0.111,0.074,0.0,0.75,0.75,0.162,87.53,0.176,2015-01-09T00:00:00,6,CHI,Chicago,25-12,13,29,26,18,0,0,0,0,0,0,0,0,0,0,86,0.386,0.632,0.385,16,46,16,0021400543,1610612741,CHI,Chicago,E'Twaun Moore,,,13:24,2.0,0.0,0.0,4.0,3.0,5.0,0.0,8.0,0.0,0.0,0.0,0.0
0021400543,1610612741,CHI,Chicago,203946,Cameron Bairstow,,,0:25,0.0,0.0,0.0,0.0,0.0,0.0,0.0,0.0,0.0,0.0,0.0,0.0,0.0,58.78,0.0,2015-01-09T00:00:00,6,CHI,Chicago,25-12,13,29,26,18,0,0,0,0,0,0,0,0,0,0,86,0.386,0.632,0.385,16,46,16,0021400543,1610612741,CHI,Chicago,Cameron Bairstow,,,0:25,0.0,0.0,0.0,0.0,0.0,0.0,0.0,0.0,0.0,0.0,0.0,0.0
0021400543,1610612741,CHI,Chicago,1737,Nazr Mohammed,,DNP - Coach's Decision                  ,,,,,,,0.0,,,,,,,0.0,,,2015-01-09T00:00:00,6,CHI,Chicago,25-12,13,29,26,18,0,0,0,0,0,0,0,0,0,0,86,0.386,0.632,0.385,16,46,16,0021400543,1610612741,CHI,Chicago,Nazr Mohammed,,DNP - Coach's Decision                  ,,,,,,,,,,,,,
0021400543,1610612764,WAS,Washington,1718,Paul Pierce,F,,29:08,110.4,79.4,31.0,0.08,2.0,20.2,0.0,0.133,0.07,10.1,0.5,0.509,0.125,98.62,0.058,2015-01-09T00:00:00,6,WAS,Washington,25-11,30,30,20,22,0,0,0,0,0,0,0,0,0,0,102,0.477,0.632,0.533,27,48,13,0021400543,1610612764,WAS,Washington,Paul Pierce,F,,29:08,3.0,0.0,0.0,0.0,5.0,11.0,8.0,18.0,1.0,1.0,3.0,2.0
0021400543,1610612764,WAS,Washington,2403,Nene,F,,28:35,121.1,74.6,46.5,0.091,0.0,14.4,0.12,0.276,0.204,0.0,0.636,0.631,0.192,97.36,0.194,2015-01-09T00:00:00,6,WAS,Washington,25-11,30,30,20,22,0,0,0,0,0,0,0,0,0,0,102,0.477,0.632,0.533,27,48,13,0021400543,1610612764,WAS,Washington,Nene,F,,28:35,0.0,2.0,4.0,10.0,3.0,9.0,5.0,16.0,1.0,0.0,4.0,2.0
0021400543,1610612764,WAS,Washington,101162,Marcin Gortat,C,,38:27,116.4,87.9,28.5,0.038,0.5,4.7,0.086,0.256,0.176,9.4,0.625,0.577,0.245,96.89,0.144,2015-01-09T00:00:00,6,WAS,Washington,25-11,30,30,20,22,0,0,0,0,0,0,0,0,0,0,102,0.477,0.632,0.533,27,48,13,0021400543,1610612764,WAS,Washington,Marcin Gortat,C,,38:27,4.0,6.0,0.0,14.0,9.0,13.0,9.0,32.0,2.0,1.0,2.0,3.0
0021400543,1610612764,WAS,Washington,203078,Bradley Beal,G,,38:25,112.8,79.4,33.3,0.143,2.0,18.2,0.026,0.025,0.025,9.1,0.531,0.531,0.211,98.57,0.104,2015-01-09T00:00:00,6,WAS,Washington,25-11,30,30,20,22,0,0,0,0,0,0,0,0,0,0,102,0.477,0.632,0.533,27,48,13,0021400543,1610612764,WAS,Washington,Bradley Beal,G,,38:25,7.0,0.0,9.0,6.0,4.0,10.0,12.0,22.0,1.0,1.0,1.0,1.0
0021400543,1610612764,WAS,Washington,202322,John Wall,G,,34:52,118.4,79.6,38.8,0.444,4.0,37.8,0.0,0.108,0.059,9.4,0.4,0.477,0.266,97.0,0.177,2015-01-09T00:00:00,6,WAS,Washington,25-11,30,30,20,22,0,0,0,0,0,0,0,0,0,0,102,0.477,0.632,0.533,27,48,13,0021400543,1610612764,WAS,Washington,John Wall,G,,34:52,0.0,0.0,5.0,2.0,5.0,13.0,9.0,22.0,1.0,2.0,1.0,3.0
0021400543,1610612764,WAS,Washington,2743,Kris Humphries,,,19:26,85.9,112.3,-26.4,0.0,0.0,0.0,0.045,0.333,0.175,9.4,0.286,0.467,0.234,93.65,0.109,2015-01-09T00:00:00,6,WAS,Washington,25-11,30,30,20,22,0,0,0,0,0,0,0,0,0,0,102,0.477,0.632,0.533,27,48,13,0021400543,1610612764,WAS,Washington,Kris Humphries,,,19:26,5.0,3.0,2.0,2.0,9.0,4.0,7.0,18.0,1.0,0.0,3.0,4.0
0021400543,1610612764,WAS,Washington,2446,Rasual Butler,,,21:04,99.0,106.4,-7.4,0.1,0.0,11.1,0.0,0.05,0.024,0.0,0.813,0.813,0.169,89.94,0.146,2015-01-09T00:00:00,6,WAS,Washington,25-11,30,30,20,22,0,0,0,0,0,0,0,0,0,0,102,0.477,0.632,0.533,27,48,13,0021400543,1610612764,WAS,Washington,Rasual Butler,,,21:04,0.0,0.0,0.0,0.0,10.0,5.0,4.0,16.0,0.0,0.0,1.0,0.0
0021400543,1610612764,WAS,Washington,1889,Andre Miller,,,12:44,79.7,117.1,-37.4,0.5,2.0,50.0,0.063,0.0,0.038,25.0,0.0,0.0,0.125,93.94,-0.011,2015-01-09T00:00:00,6,WAS,Washington,25-11,30,30,20,22,0,0,0,0,0,0,0,0,0,0,102,0.477,0.632,0.533,27,48,13,0021400543,1610612764,WAS,Washington,Andre Miller,,,12:44,0.0,0.0,0.0,0.0,7.0,0.0,3.0,12.0,0.0,1.0,1.0,0.0
0021400543,1610612764,WAS,Washington,203490,Otto Porter Jr.,,,7:24,85.5,151.5,-66.0,0.0,0.0,0.0,0.143,0.0,0.091,0.0,0.333,0.333,0.156,87.75,0.017,2015-01-09T00:00:00,6,WAS,Washington,25-11,30,30,20,22,0,0,0,0,0,0,0,0,0,0,102,0.477,0.632,0.533,27,48,13,0021400543,1610612764,WAS,Washington,Otto Porter Jr.,,,7:24,0.0,0.0,0.0,2.0,5.0,0.0,0.0,12.0,0.0,1.0,0.0,0.0
0021400543,1610612764,WAS,Washington,202338,Kevin Seraphin,,,9:33,70.9,95.5,-24.6,0.25,1.0,25.0,0.167,0.25,0.2,25.0,0.5,0.5,0.121,91.73,0.08,2015-01-09T00:00:00,6,WAS,Washington,25-11,30,30,20,22,0,0,0,0,0,0,0,0,0,0,102,0.477,0.632,0.533,27,48,13,0021400543,1610612764,WAS,Washington,Kevin Seraphin,,,9:33,0.0,0.0,0.0,0.0,3.0,0.0,3.0,2.0,0.0,1.0,2.0,0.0
0021400543,1610612764,WAS,Washington,202066,Garrett Temple,,,0:25,0.0,0.0,0.0,0.0,0.0,0.0,0.0,0.0,0.0,100.0,0.0,0.0,1.0,58.78,1.0,2015-01-09T00:00:00,6,WAS,Washington,25-11,30,30,20,22,0,0,0,0,0,0,0,0,0,0,102,0.477,0.632,0.533,27,48,13,0021400543,1610612764,WAS,Washington,Garrett Temple,,,0:25,0.0,0.0,0.0,0.0,0.0,0.0,0.0,0.0,0.0,0.0,0.0,0.0
0021400543,1610612764,WAS,Washington,2400,Drew Gooden,,DNP - Coach's Decision                  ,,,,,,,0.0,,,,,,,0.0,,,2015-01-09T00:00:00,6,WAS,Washington,25-11,30,30,20,22,0,0,0,0,0,0,0,0,0,0,102,0.477,0.632,0.533,27,48,13,0021400543,1610612764,WAS,Washington,Drew Gooden,,DNP - Coach's Decision                  ,,,,,,,,,,,,,
0021400543,1610612764,WAS,Washington,101110,Martell Webster,,DNP - Coach's Decision                  ,,,,,,,0.0,,,,,,,0.0,,,2015-01-09T00:00:00,6,WAS,Washington,25-11,30,30,20,22,0,0,0,0,0,0,0,0,0,0,102,0.477,0.632,0.533,27,48,13,0021400543,1610612764,WAS,Washington,Martell Webster,,DNP - Coach's Decision                  ,,,,,,,,,,,,,
