GAME_ID_x,TEAM_ID_x,TEAM_ABBREVIATION_x,TEAM_CITY_x,PLAYER_ID,PLAYER_NAME_x,START_POSITION_x,COMMENT_x,MIN_x,OFF_RATING,DEF_RATING,NET_RATING,AST_PCT,AST_TOV,AST_RATIO,OREB_PCT,DREB_PCT,REB_PCT,TM_TOV_PCT,EFG_PCT,TS_PCT,USG_PCT,PACE,PIE,GAME_DATE_EST,GAME_SEQUENCE,TEAM_ABBREVIATION_y,TEAM_CITY_NAME,TEAM_WINS_LOSSES,PTS_QTR1,PTS_QTR2,PTS_QTR3,PTS_QTR4,PTS_OT1,PTS_OT2,PTS_OT3,PTS_OT4,PTS_OT5,PTS_OT6,PTS_OT7,PTS_OT8,PTS_OT9,PTS_OT10,PTS,FG_PCT,FT_PCT,FG3_PCT,AST,REB,TOV,GAME_ID_y,TEAM_ID_y,TEAM_ABBREVIATION,TEAM_CITY_y,PLAYER_NAME_y,START_POSITION_y,COMMENT_y,MIN_y,PTS_OFF_TOV,PTS_2ND_CHANCE,PTS_FB,PTS_PAINT,OPP_PTS_OFF_TOV,OPP_PTS_2ND_CHANCE,OPP_PTS_FB,OPP_PTS_PAINT,BLK,BLKA,PF,PFD
0021400539,1610612755,PHI,Philadelphia,201601,Luc Mbah a Moute,F,,36:00,97.2,96.3,0.9,0.0,0.0,0.0,0.036,0.107,0.071,21.6,0.7,0.735,0.193,88.88,0.133,2015-01-09T00:00:00,2,PHI,Philadelphia,6-29,23,22,19,26,0,0,0,0,0,0,0,0,0,0,90,0.456,0.588,0.471,22,38,14,0021400539,1610612755,PHI,Philadelphia,Luc Mbah a Moute,F,,36:00,0.0,0.0,0.0,4.0,9.0,7.0,7.0,32.0,1.0,1.0,1.0,1.0
0021400539,1610612755,PHI,Philadelphia,203156,Henry Sims,F,,17:43,91.9,119.9,-28.0,0.25,0.0,16.7,0.105,0.125,0.111,0.0,0.4,0.4,0.259,88.27,0.078,2015-01-09T00:00:00,2,PHI,Philadelphia,6-29,23,22,19,26,0,0,0,0,0,0,0,0,0,0,90,0.456,0.588,0.471,22,38,14,0021400539,1610612755,PHI,Philadelphia,Henry Sims,F,,17:43,4.0,4.0,0.0,4.0,4.0,0.0,2.0,20.0,0.0,0.0,1.0,1.0
0021400539,1610612755,PHI,Philadelphia,203457,Nerlens Noel,C,,32:20,107.8,92.8,15.1,0.1,2.0,15.4,0.038,0.174,0.102,7.7,0.6,0.6,0.171,91.97,0.116,2015-01-09T00:00:00,2,PHI,Philadelphia,6-29,23,22,19,26,0,0,0,0,0,0,0,0,0,0,90,0.456,0.588,0.471,22,38,14,0021400539,1610612755,PHI,Philadelphia,Nerlens Noel,C,,32:20,4.0,2.0,0.0,10.0,9.0,7.0,8.0,28.0,2.0,0.0,2.0,1.0
0021400539,1610612755,PHI,Philadelphia,203496,Robert Covington,G,,39:39,110.2,89.2,21.0,0.042,1.0,6.7,0.056,0.179,0.109,6.7,0.792,0.776,0.17,90.24,0.193,2015-01-09T00:00:00,2,PHI,Philadelphia,6-29,23,22,19,26,0,0,0,0,0,0,0,0,0,0,90,0.456,0.588,0.471,22,38,14,0021400539,1610612755,PHI,Philadelphia,Robert Covington,G,,39:39,6.0,2.0,2.0,8.0,8.0,7.0,4.0,36.0,0.0,0.0,2.0,2.0
0021400539,1610612755,PHI,Philadelphia,203487,Michael Carter-Williams,G,,30:48,95.1,94.2,0.8,0.421,2.0,33.8,0.074,0.208,0.137,16.9,0.278,0.344,0.245,92.19,0.05,2015-01-09T00:00:00,2,PHI,Philadelphia,6-29,23,22,19,26,0,0,0,0,0,0,0,0,0,0,90,0.456,0.588,0.471,22,38,14,0021400539,1610612755,PHI,Philadelphia,Michael Carter-Williams,G,,30:48,5.0,0.0,1.0,2.0,9.0,2.0,7.0,24.0,0.0,1.0,4.0,8.0
0021400539,1610612755,PHI,Philadelphia,203128,Furkan Aldemir,,,7:22,78.9,96.6,-17.7,0.25,0.5,25.0,0.167,0.1,0.125,50.0,0.0,0.0,0.185,100.08,-0.346,2015-01-09T00:00:00,2,PHI,Philadelphia,6-29,23,22,19,26,0,0,0,0,0,0,0,0,0,0,90,0.456,0.588,0.471,22,38,14,0021400539,1610612755,PHI,Philadelphia,Furkan Aldemir,,,7:22,0.0,0.0,0.0,0.0,6.0,4.0,5.0,8.0,0.0,0.0,5.0,0.0
0021400539,1610612755,PHI,Philadelphia,203909,KJ McDaniels,,,23:00,105.9,94.7,11.2,0.176,3.0,35.5,0.0,0.125,0.051,11.8,0.625,0.676,0.108,94.83,0.086,2015-01-09T00:00:00,2,PHI,Philadelphia,6-29,23,22,19,26,0,0,0,0,0,0,0,0,0,0,90,0.456,0.588,0.471,22,38,14,0021400539,1610612755,PHI,Philadelphia,KJ McDaniels,,,23:00,0.0,0.0,0.0,2.0,4.0,7.0,7.0,20.0,0.0,0.0,2.0,1.0
0021400539,1610612755,PHI,Philadelphia,202952,Malcolm Thomas,,,7:41,65.6,103.1,-37.5,0.0,0.0,0.0,0.0,0.333,0.176,66.7,0.0,0.0,0.169,100.83,-0.143,2015-01-09T00:00:00,2,PHI,Philadelphia,6-29,23,22,19,26,0,0,0,0,0,0,0,0,0,0,90,0.456,0.588,0.471,22,38,14,0021400539,1610612755,PHI,Philadelphia,Malcolm Thomas,,,7:41,0.0,0.0,0.0,0.0,3.0,2.0,1.0,6.0,0.0,0.0,2.0,0.0
0021400539,1610612755,PHI,Philadelphia,203100,Tony Wroten,,,28:19,109.6,82.8,26.9,0.211,0.0,21.3,0.0,0.087,0.041,0.0,0.385,0.407,0.242,88.37,0.136,2015-01-09T00:00:00,2,PHI,Philadelphia,6-29,23,22,19,26,0,0,0,0,0,0,0,0,0,0,90,0.456,0.588,0.471,22,38,14,0021400539,1610612755,PHI,Philadelphia,Tony Wroten,,,28:19,4.0,0.0,9.0,10.0,5.0,7.0,2.0,24.0,1.0,0.0,1.0,4.0
0021400539,1610612755,PHI,Philadelphia,203924,Jerami Grant,,,13:19,105.5,81.0,24.5,0.125,0.0,11.3,0.118,0.0,0.077,0.0,0.357,0.381,0.266,95.57,0.067,2015-01-09T00:00:00,2,PHI,Philadelphia,6-29,23,22,19,26,0,0,0,0,0,0,0,0,0,0,90,0.456,0.588,0.471,22,38,14,0021400539,1610612755,PHI,Philadelphia,Jerami Grant,,,13:19,0.0,3.0,0.0,2.0,3.0,2.0,2.0,10.0,0.0,0.0,1.0,1.0
0021400539,1610612755,PHI,Philadelphia,203960,JaKarr Sampson,,,3:49,71.4,101.4,-29.9,0.0,0.0,0.0,0.0,0.5,0.167,0.0,0.5,0.5,0.286,99.73,0.071,2015-01-09T00:00:00,2,PHI,Philadelphia,6-29,23,22,19,26,0,0,0,0,0,0,0,0,0,0,90,0.456,0.588,0.471,22,38,14,0021400539,1610612755,PHI,Philadelphia,JaKarr Sampson,,,3:49,0.0,0.0,0.0,2.0,0.0,0.0,0.0,2.0,0.0,1.0,1.0,0.0
0021400539,1610612755,PHI,Philadelphia,203138,Hollis Thompson,,DND - Upper Respiratory Infection       ,,,,,,,0.0,,,,,,,0.0,,,2015-01-09T00:00:00,2,PHI,Philadelphia,6-29,23,22,19,26,0,0,0,0,0,0,0,0,0,0,90,0.456,0.588,0.471,22,38,14,0021400539,1610612755,PHI,Philadelphia,Hollis Thompson,,DND - Upper Respiratory Infection       ,,,,,,,,,,,,,
0021400539,1610612751,BKN,Brooklyn,2207,Joe Johnson,F,,37:45,93.7,91.1,2.7,0.143,1.0,13.8,0.033,0.138,0.085,13.8,0.321,0.412,0.227,92.16,0.075,2015-01-09T00:00:00,2,BKN,Brooklyn,16-20,32,14,25,17,0,0,0,0,0,0,0,0,0,0,88,0.452,0.704,0.188,21,42,17,0021400539,1610612751,BKN,Brooklyn,Joe Johnson,F,,37:45,2.0,0.0,3.0,4.0,17.0,4.0,4.0,28.0,0.0,0.0,0.0,2.0
0021400539,1610612751,BKN,Brooklyn,203486,Mason Plumlee,F,,32:23,99.4,82.0,17.4,0.05,1.0,6.9,0.192,0.313,0.259,6.9,0.556,0.599,0.187,94.53,0.227,2015-01-09T00:00:00,2,BKN,Brooklyn,16-20,32,14,25,17,0,0,0,0,0,0,0,0,0,0,88,0.452,0.704,0.188,21,42,17,0021400539,1610612751,BKN,Brooklyn,Mason Plumlee,F,,32:23,1.0,6.0,4.0,10.0,11.0,7.0,5.0,20.0,0.0,2.0,2.0,5.0
0021400539,1610612751,BKN,Brooklyn,201572,Brook Lopez,C,,28:08,101.5,93.6,7.9,0.0,0.0,0.0,0.0,0.214,0.12,10.3,0.529,0.516,0.323,92.6,0.125,2015-01-09T00:00:00,2,BKN,Brooklyn,16-20,32,14,25,17,0,0,0,0,0,0,0,0,0,0,88,0.452,0.704,0.188,21,42,17,0021400539,1610612751,BKN,Brooklyn,Brook Lopez,C,,28:08,6.0,0.0,0.0,10.0,8.0,6.0,12.0,22.0,2.0,0.0,3.0,1.0
0021400539,1610612751,BKN,Brooklyn,203508,Sergey Karasev,G,,12:22,129.3,76.7,52.6,0.083,1.0,25.0,0.0,0.0,0.0,25.0,0.5,0.5,0.113,100.14,-0.021,2015-01-09T00:00:00,2,BKN,Brooklyn,16-20,32,14,25,17,0,0,0,0,0,0,0,0,0,0,88,0.452,0.704,0.188,21,42,17,0021400539,1610612751,BKN,Brooklyn,Sergey Karasev,G,,12:22,0.0,0.0,0.0,2.0,1.0,0.0,0.0,6.0,0.0,0.0,4.0,0.0
0021400539,1610612751,BKN,Brooklyn,101127,Jarrett Jack,G,,36:43,97.5,93.4,4.1,0.455,3.33,39.2,0.034,0.129,0.083,11.8,0.444,0.559,0.192,95.82,0.161,2015-01-09T00:00:00,2,BKN,Brooklyn,16-20,32,14,25,17,0,0,0,0,0,0,0,0,0,0,88,0.452,0.704,0.188,21,42,17,0021400539,1610612751,BKN,Brooklyn,Jarrett Jack,G,,36:43,1.0,0.0,0.0,6.0,17.0,6.0,8.0,28.0,0.0,0.0,2.0,7.0
0021400539,1610612751,BKN,Brooklyn,203141,Mirza Teletovic,,,20:26,74.9,104.5,-29.7,0.0,0.0,0.0,0.0,0.15,0.088,33.3,0.375,0.375,0.279,87.56,-0.043,2015-01-09T00:00:00,2,BKN,Brooklyn,16-20,32,14,25,17,0,0,0,0,0,0,0,0,0,0,88,0.452,0.704,0.188,21,42,17,0021400539,1610612751,BKN,Brooklyn,Mirza Teletovic,,,20:26,0.0,3.0,0.0,0.0,11.0,6.0,4.0,22.0,1.0,1.0,2.0,1.0
0021400539,1610612751,BKN,Brooklyn,101187,Alan Anderson,,,35:38,80.5,110.4,-30.0,0.118,0.0,20.2,0.036,0.065,0.051,0.0,0.429,0.444,0.103,88.74,0.056,2015-01-09T00:00:00,2,BKN,Brooklyn,16-20,32,14,25,17,0,0,0,0,0,0,0,0,0,0,88,0.452,0.704,0.188,21,42,17,0021400539,1610612751,BKN,Brooklyn,Alan Anderson,,,35:38,2.0,0.0,0.0,2.0,22.0,11.0,12.0,38.0,0.0,1.0,2.0,4.0
0021400539,1610612751,BKN,Brooklyn,202721,Darius Morris,,,13:30,74.3,152.9,-78.6,0.5,0.0,60.0,0.0,0.143,0.083,0.0,0.5,0.5,0.077,83.71,0.104,2015-01-09T00:00:00,2,BKN,Brooklyn,16-20,32,14,25,17,0,0,0,0,0,0,0,0,0,0,88,0.452,0.704,0.188,21,42,17,0021400539,1610612751,BKN,Brooklyn,Darius Morris,,,13:30,0.0,0.0,0.0,0.0,8.0,7.0,7.0,26.0,0.0,0.0,1.0,0.0
0021400539,1610612751,BKN,Brooklyn,202711,Bojan Bogdanovic,,,13:20,96.2,127.6,-31.4,0.0,0.0,0.0,0.0,0.0,0.0,33.3,0.75,0.75,0.231,90.07,0.071,2015-01-09T00:00:00,2,BKN,Brooklyn,16-20,32,14,25,17,0,0,0,0,0,0,0,0,0,0,88,0.452,0.704,0.188,21,42,17,0021400539,1610612751,BKN,Brooklyn,Bojan Bogdanovic,,,13:20,0.0,0.0,2.0,6.0,10.0,7.0,8.0,18.0,0.0,0.0,0.0,0.0
0021400539,1610612751,BKN,Brooklyn,202366,Jerome Jordan,,,9:46,97.0,138.2,-41.2,0.25,1.0,21.0,0.167,0.333,0.25,21.0,1.0,0.906,0.183,83.97,0.111,2015-01-09T00:00:00,2,BKN,Brooklyn,16-20,32,14,25,17,0,0,0,0,0,0,0,0,0,0,88,0.452,0.704,0.188,21,42,17,0021400539,1610612751,BKN,Brooklyn,Jerome Jordan,,,9:46,0.0,0.0,0.0,2.0,10.0,1.0,0.0,12.0,0.0,0.0,3.0,2.0
0021400539,1610612751,BKN,Brooklyn,203900,Markel Brown,,"DND - Mild MCL Sprain, Right Knee       ",,,,,,,0.0,,,,,,,0.0,,,2015-01-09T00:00:00,2,BKN,Brooklyn,16-20,32,14,25,17,0,0,0,0,0,0,0,0,0,0,88,0.452,0.704,0.188,21,42,17,0021400539,1610612751,BKN,Brooklyn,Markel Brown,,"DND - Mild MCL Sprain, Right Knee       ",,,,,,,,,,,,,
0021400539,1610612751,BKN,Brooklyn,708,Kevin Garnett,,DND - Rest                              ,,,,,,,0.0,,,,,,,0.0,,,2015-01-09T00:00:00,2,BKN,Brooklyn,16-20,32,14,25,17,0,0,0,0,0,0,0,0,0,0,88,0.452,0.704,0.188,21,42,17,0021400539,1610612751,BKN,Brooklyn,Kevin Garnett,,DND - Rest                              ,,,,,,,,,,,,,
0021400539,1610612751,BKN,Brooklyn,203928,Cory Jefferson,,DNP - Coach's Decision                  ,,,,,,,0.0,,,,,,,0.0,,,2015-01-09T00:00:00,2,BKN,Brooklyn,16-20,32,14,25,17,0,0,0,0,0,0,0,0,0,0,88,0.452,0.704,0.188,21,42,17,0021400539,1610612751,BKN,Brooklyn,Cory Jefferson,,DNP - Coach's Decision                  ,,,,,,,,,,,,,
