GAME_ID_x,TEAM_ID_x,TEAM_ABBREVIATION_x,TEAM_CITY_x,PLAYER_ID,PLAYER_NAME_x,START_POSITION_x,COMMENT_x,MIN_x,OFF_RATING,DEF_RATING,NET_RATING,AST_PCT,AST_TOV,AST_RATIO,OREB_PCT,DREB_PCT,REB_PCT,TM_TOV_PCT,EFG_PCT,TS_PCT,USG_PCT,PACE,PIE,GAME_DATE_EST,GAME_SEQUENCE,TEAM_ABBREVIATION_y,TEAM_CITY_NAME,TEAM_WINS_LOSSES,PTS_QTR1,PTS_QTR2,PTS_QTR3,PTS_QTR4,PTS_OT1,PTS_OT2,PTS_OT3,PTS_OT4,PTS_OT5,PTS_OT6,PTS_OT7,PTS_OT8,PTS_OT9,PTS_OT10,PTS,FG_PCT,FT_PCT,FG3_PCT,AST,REB,TOV,GAME_ID_y,TEAM_ID_y,TEAM_ABBREVIATION,TEAM_CITY_y,PLAYER_NAME_y,START_POSITION_y,COMMENT_y,MIN_y,PTS_OFF_TOV,PTS_2ND_CHANCE,PTS_FB,PTS_PAINT,OPP_PTS_OFF_TOV,OPP_PTS_2ND_CHANCE,OPP_PTS_FB,OPP_PTS_PAINT,BLK,BLKA,PF,PFD
0021400555,1610612762,UTA,Utah,202330,Gordon Hayward,F,,29:56,84.0,110.8,-26.8,0.313,1.0,23.0,0.053,0.143,0.1,23.0,0.25,0.383,0.255,97.18,0.056,2015-01-10T00:00:00,7,UTA,Utah,13-25,23,14,20,25,0,0,0,0,0,0,0,0,0,0,82,0.414,0.905,0.294,20,41,27,0021400555,1610612762,UTA,Utah,Gordon Hayward,F,,29:56,0.0,0.0,0.0,2.0,29.0,2.0,19.0,20.0,0.0,0.0,1.0,5.0
0021400555,1610612762,UTA,Utah,202324,Derrick Favors,F,,17:35,82.7,88.9,-6.1,0.0,0.0,0.0,0.0,0.438,0.28,26.8,0.833,0.915,0.313,92.27,0.343,2015-01-10T00:00:00,7,UTA,Utah,13-25,23,14,20,25,0,0,0,0,0,0,0,0,0,0,82,0.414,0.905,0.294,20,41,27,0021400555,1610612762,UTA,Utah,Derrick Favors,F,,17:35,2.0,2.0,0.0,6.0,14.0,2.0,8.0,8.0,0.0,0.0,2.0,3.0
0021400555,1610612762,UTA,Utah,203497,Rudy Gobert,C,,34:47,80.0,96.2,-16.1,0.167,1.0,37.5,0.0,0.161,0.093,37.5,1.0,1.0,0.065,98.81,0.096,2015-01-10T00:00:00,7,UTA,Utah,13-25,23,14,20,25,0,0,0,0,0,0,0,0,0,0,82,0.414,0.905,0.294,20,41,27,0021400555,1610612762,UTA,Utah,Rudy Gobert,C,,34:47,0.0,0.0,0.0,4.0,21.0,5.0,21.0,26.0,3.0,0.0,1.0,0.0
0021400555,1610612762,UTA,Utah,204060,Joe Ingles,G,,17:59,86.0,87.3,-1.3,0.333,4.0,50.0,0.0,0.167,0.1,12.5,0.333,0.333,0.102,98.54,0.144,2015-01-10T00:00:00,7,UTA,Utah,13-25,23,14,20,25,0,0,0,0,0,0,0,0,0,0,82,0.414,0.905,0.294,20,41,27,0021400555,1610612762,UTA,Utah,Joe Ingles,G,,17:59,2.0,0.0,0.0,2.0,9.0,5.0,12.0,14.0,0.0,0.0,0.0,1.0
0021400555,1610612762,UTA,Utah,203504,Trey Burke,G,,35:20,77.7,97.6,-19.9,0.231,0.75,13.4,0.042,0.125,0.089,17.9,0.464,0.522,0.247,98.54,0.068,2015-01-10T00:00:00,7,UTA,Utah,13-25,23,14,20,25,0,0,0,0,0,0,0,0,0,0,82,0.414,0.905,0.294,20,41,27,0021400555,1610612762,UTA,Utah,Trey Burke,G,,35:20,4.0,0.0,4.0,6.0,22.0,5.0,21.0,24.0,0.0,1.0,4.0,4.0
0021400555,1610612762,UTA,Utah,202683,Enes Kanter,,,20:59,86.3,111.5,-25.2,0.1,0.5,6.6,0.211,0.167,0.194,13.2,0.6,0.656,0.26,107.93,0.163,2015-01-10T00:00:00,7,UTA,Utah,13-25,23,14,20,25,0,0,0,0,0,0,0,0,0,0,82,0.414,0.905,0.294,20,41,27,0021400555,1610612762,UTA,Utah,Enes Kanter,,,20:59,6.0,8.0,0.0,10.0,21.0,3.0,18.0,16.0,0.0,1.0,3.0,3.0
0021400555,1610612762,UTA,Utah,202407,Elijah Millsap,,,27:51,73.0,90.6,-17.6,0.167,0.5,11.8,0.045,0.038,0.042,23.5,0.364,0.364,0.223,100.45,0.028,2015-01-10T00:00:00,7,UTA,Utah,13-25,23,14,20,25,0,0,0,0,0,0,0,0,0,0,82,0.414,0.905,0.294,20,41,27,0021400555,1610612762,UTA,Utah,Elijah Millsap,,,27:51,5.0,3.0,5.0,2.0,19.0,6.0,13.0,16.0,1.0,1.0,1.0,0.0
0021400555,1610612762,UTA,Utah,202344,Trevor Booker,,,13:57,72.7,112.7,-40.0,0.0,0.0,0.0,0.0,0.077,0.043,20.0,0.5,0.5,0.157,98.55,-0.013,2015-01-10T00:00:00,7,UTA,Utah,13-25,23,14,20,25,0,0,0,0,0,0,0,0,0,0,82,0.414,0.905,0.294,20,41,27,0021400555,1610612762,UTA,Utah,Trevor Booker,,,13:57,0.0,0.0,0.0,2.0,14.0,3.0,6.0,10.0,1.0,0.0,3.0,0.0
0021400555,1610612762,UTA,Utah,203957,Dante Exum,,,7:32,88.2,99.5,-11.3,0.0,0.0,0.0,0.0,0.167,0.083,25.8,0.5,0.521,0.217,98.63,0.0,2015-01-10T00:00:00,7,UTA,Utah,13-25,23,14,20,25,0,0,0,0,0,0,0,0,0,0,82,0.414,0.905,0.294,20,41,27,0021400555,1610612762,UTA,Utah,Dante Exum,,,7:32,0.0,0.0,2.0,2.0,4.0,0.0,7.0,6.0,0.0,0.0,1.0,2.0
0021400555,1610612762,UTA,Utah,202343,Elliot Williams,,,21:25,80.2,98.9,-18.7,0.0,0.0,0.0,0.0,0.071,0.032,33.3,0.25,0.25,0.172,104.13,-0.03,2015-01-10T00:00:00,7,UTA,Utah,13-25,23,14,20,25,0,0,0,0,0,0,0,0,0,0,82,0.414,0.905,0.294,20,41,27,0021400555,1610612762,UTA,Utah,Elliot Williams,,,21:25,0.0,0.0,0.0,0.0,25.0,3.0,9.0,8.0,0.0,0.0,0.0,0.0
0021400555,1610612762,UTA,Utah,203546,Ian Clark,,,3:57,112.6,122.2,-9.6,0.333,0.0,50.0,0.0,0.0,0.0,0.0,0.0,0.0,0.101,108.64,0.0,2015-01-10T00:00:00,7,UTA,Utah,13-25,23,14,20,25,0,0,0,0,0,0,0,0,0,0,82,0.414,0.905,0.294,20,41,27,0021400555,1610612762,UTA,Utah,Ian Clark,,,3:57,0.0,0.0,0.0,0.0,6.0,3.0,3.0,2.0,0.0,0.0,0.0,0.0
0021400555,1610612762,UTA,Utah,202379,Jeremy Evans,,,8:42,80.5,72.7,7.8,0.25,0.0,34.7,0.286,0.5,0.4,0.0,0.0,0.532,0.087,100.74,0.459,2015-01-10T00:00:00,7,UTA,Utah,13-25,23,14,20,25,0,0,0,0,0,0,0,0,0,0,82,0.414,0.905,0.294,20,41,27,0021400555,1610612762,UTA,Utah,Jeremy Evans,,,8:42,0.0,0.0,0.0,0.0,6.0,3.0,3.0,0.0,1.0,0.0,1.0,2.0
0021400555,1610612762,UTA,Utah,200779,Steve Novak,,DNP - Coach's Decision                  ,,,,,,,0.0,,,,,,,0.0,,,2015-01-10T00:00:00,7,UTA,Utah,13-25,23,14,20,25,0,0,0,0,0,0,0,0,0,0,82,0.414,0.905,0.294,20,41,27,0021400555,1610612762,UTA,Utah,Steve Novak,,DNP - Coach's Decision                  ,,,,,,,,,,,,,
0021400555,1610612745,HOU,Houston,2772,Trevor Ariza,F,,27:45,98.5,73.5,24.9,0.2,1.5,20.2,0.043,0.111,0.073,13.4,0.444,0.506,0.199,98.01,0.138,2015-01-10T00:00:00,7,HOU,Houston,26-11,23,23,32,19,0,0,0,0,0,0,0,0,0,0,97,0.429,0.857,0.382,24,33,20,0021400555,1610612745,HOU,Houston,Trevor Ariza,F,,27:45,10.0,0.0,0.0,2.0,10.0,6.0,6.0,18.0,0.0,1.0,2.0,1.0
0021400555,1610612745,HOU,Houston,202700,Donatas Motiejunas,F,,35:35,112.1,70.1,42.0,0.05,0.25,7.2,0.069,0.348,0.192,28.8,0.813,0.788,0.166,95.67,0.175,2015-01-10T00:00:00,7,HOU,Houston,26-11,23,23,32,19,0,0,0,0,0,0,0,0,0,0,97,0.429,0.857,0.382,24,33,20,0021400555,1610612745,HOU,Houston,Donatas Motiejunas,F,,35:35,1.0,2.0,2.0,6.0,10.0,6.0,6.0,20.0,0.0,1.0,2.0,5.0
0021400555,1610612745,HOU,Houston,2730,Dwight Howard,C,,37:12,84.8,79.5,5.3,0.056,0.33,7.7,0.057,0.222,0.129,23.1,0.444,0.444,0.148,99.85,0.054,2015-01-10T00:00:00,7,HOU,Houston,26-11,23,23,32,19,0,0,0,0,0,0,0,0,0,0,97,0.429,0.857,0.382,24,33,20,0021400555,1610612745,HOU,Houston,Dwight Howard,C,,37:12,2.0,0.0,2.0,8.0,17.0,10.0,7.0,30.0,1.0,0.0,4.0,0.0
0021400555,1610612745,HOU,Houston,201935,James Harden,G,,34:17,109.5,71.1,38.5,0.294,0.83,16.8,0.038,0.087,0.061,20.1,0.714,0.796,0.338,97.19,0.236,2015-01-10T00:00:00,7,HOU,Houston,26-11,23,23,32,19,0,0,0,0,0,0,0,0,0,0,97,0.429,0.857,0.382,24,33,20,0021400555,1610612745,HOU,Houston,James Harden,G,,34:17,10.0,0.0,11.0,4.0,10.0,6.0,6.0,20.0,1.0,1.0,3.0,5.0
0021400555,1610612745,HOU,Houston,201976,Patrick Beverley,G,,29:05,96.9,78.1,18.8,0.438,7.0,32.0,0.087,0.105,0.095,4.6,0.308,0.36,0.233,99.29,0.094,2015-01-10T00:00:00,7,HOU,Houston,26-11,23,23,32,19,0,0,0,0,0,0,0,0,0,0,97,0.429,0.857,0.382,24,33,20,0021400555,1610612745,HOU,Houston,Patrick Beverley,G,,29:05,10.0,0.0,5.0,0.0,12.0,9.0,8.0,20.0,0.0,0.0,3.0,2.0
0021400555,1610612745,HOU,Houston,2746,Josh Smith,,,20:33,105.2,89.6,15.6,0.167,0.0,15.5,0.0,0.188,0.094,0.0,0.4,0.46,0.238,103.19,0.126,2015-01-10T00:00:00,7,HOU,Houston,26-11,23,23,32,19,0,0,0,0,0,0,0,0,0,0,97,0.429,0.857,0.382,24,33,20,0021400555,1610612745,HOU,Houston,Josh Smith,,,20:33,2.0,0.0,6.0,8.0,7.0,4.0,5.0,18.0,1.0,2.0,1.0,3.0
0021400555,1610612745,HOU,Houston,201147,Corey Brewer,,,18:55,101.5,85.5,16.0,0.091,1.0,8.4,0.0,0.067,0.031,8.4,0.444,0.455,0.257,100.43,0.05,2015-01-10T00:00:00,7,HOU,Houston,26-11,23,23,32,19,0,0,0,0,0,0,0,0,0,0,97,0.429,0.857,0.382,24,33,20,0021400555,1610612745,HOU,Houston,Corey Brewer,,,18:55,3.0,0.0,2.0,2.0,7.0,4.0,3.0,16.0,0.0,1.0,2.0,1.0
0021400555,1610612745,HOU,Houston,1891,Jason Terry,,,18:55,101.5,85.5,16.0,0.286,0.0,80.0,0.0,0.0,0.0,0.0,0.0,0.0,0.024,100.43,0.017,2015-01-10T00:00:00,7,HOU,Houston,26-11,23,23,32,19,0,0,0,0,0,0,0,0,0,0,97,0.429,0.857,0.382,24,33,20,0021400555,1610612745,HOU,Houston,Jason Terry,,,18:55,0.0,0.0,0.0,0.0,7.0,4.0,3.0,16.0,0.0,0.0,3.0,0.0
0021400555,1610612745,HOU,Houston,203123,Kostas Papanikolaou,,,13:43,73.9,103.6,-29.7,0.0,0.0,0.0,0.0,0.091,0.04,50.0,0.5,0.5,0.183,106.1,0.0,2015-01-10T00:00:00,7,HOU,Houston,26-11,23,23,32,19,0,0,0,0,0,0,0,0,0,0,97,0.429,0.857,0.382,24,33,20,0021400555,1610612745,HOU,Houston,Kostas Papanikolaou,,,13:43,0.0,3.0,0.0,0.0,9.0,7.0,5.0,16.0,0.0,0.0,0.0,0.0
0021400555,1610612745,HOU,Houston,203477,Isaiah Canaan,,,1:20,75.0,166.7,-91.7,0.0,0.0,0.0,0.0,0.0,0.0,0.0,0.0,0.0,0.0,126.0,0.0,2015-01-10T00:00:00,7,HOU,Houston,26-11,23,23,32,19,0,0,0,0,0,0,0,0,0,0,97,0.429,0.857,0.382,24,33,20,0021400555,1610612745,HOU,Houston,Isaiah Canaan,,,1:20,0.0,0.0,0.0,0.0,2.0,3.0,2.0,2.0,0.0,0.0,0.0,0.0
0021400555,1610612745,HOU,Houston,201595,Joey Dorsey,,,1:20,75.0,166.7,-91.7,0.0,0.0,0.0,0.0,0.0,0.0,0.0,0.0,0.0,0.0,126.0,0.0,2015-01-10T00:00:00,7,HOU,Houston,26-11,23,23,32,19,0,0,0,0,0,0,0,0,0,0,97,0.429,0.857,0.382,24,33,20,0021400555,1610612745,HOU,Houston,Joey Dorsey,,,1:20,0.0,0.0,0.0,0.0,2.0,3.0,2.0,2.0,0.0,0.0,0.0,0.0
0021400555,1610612745,HOU,Houston,203144,Alexey Shved,,,1:20,75.0,166.7,-91.7,0.0,0.0,0.0,0.0,0.0,0.0,0.0,1.5,1.5,0.25,126.0,0.316,2015-01-10T00:00:00,7,HOU,Houston,26-11,23,23,32,19,0,0,0,0,0,0,0,0,0,0,97,0.429,0.857,0.382,24,33,20,0021400555,1610612745,HOU,Houston,Alexey Shved,,,1:20,0.0,3.0,0.0,0.0,2.0,3.0,2.0,2.0,0.0,0.0,0.0,0.0
