GAME_ID_x,TEAM_ID_x,TEAM_ABBREVIATION_x,TEAM_CITY_x,PLAYER_ID,PLAYER_NAME_x,START_POSITION_x,COMMENT_x,MIN_x,OFF_RATING,DEF_RATING,NET_RATING,AST_PCT,AST_TOV,AST_RATIO,OREB_PCT,DREB_PCT,REB_PCT,TM_TOV_PCT,EFG_PCT,TS_PCT,USG_PCT,PACE,PIE,GAME_DATE_EST,GAME_SEQUENCE,TEAM_ABBREVIATION_y,TEAM_CITY_NAME,TEAM_WINS_LOSSES,PTS_QTR1,PTS_QTR2,PTS_QTR3,PTS_QTR4,PTS_OT1,PTS_OT2,PTS_OT3,PTS_OT4,PTS_OT5,PTS_OT6,PTS_OT7,PTS_OT8,PTS_OT9,PTS_OT10,PTS,FG_PCT,FT_PCT,FG3_PCT,AST,REB,TOV,GAME_ID_y,TEAM_ID_y,TEAM_ABBREVIATION,TEAM_CITY_y,PLAYER_NAME_y,START_POSITION_y,COMMENT_y,MIN_y,PTS_OFF_TOV,PTS_2ND_CHANCE,PTS_FB,PTS_PAINT,OPP_PTS_OFF_TOV,OPP_PTS_2ND_CHANCE,OPP_PTS_FB,OPP_PTS_PAINT,BLK,BLKA,PF,PFD
0021400566,1610612753,ORL,Orlando,203906,Devyn Marble,F,,30:47,108.4,97.7,10.7,0.133,4.0,38.8,0.0,0.179,0.093,9.7,0.625,0.47,0.094,104.59,0.067,2015-01-12T00:00:00,4,ORL,Orlando,14-27,29,34,30,28,0,0,0,0,0,0,0,0,0,0,121,0.593,0.621,0.389,28,34,10,0021400566,1610612753,ORL,Orlando,Devyn Marble,F,,30:47,0.0,0.0,2.0,2.0,7.0,7.0,4.0,22.0,0.0,0.0,2.0,2.0
0021400566,1610612753,ORL,Orlando,101112,Channing Frye,F,,36:14,119.5,110.6,8.9,0.135,1.25,26.3,0.036,0.125,0.083,21.1,0.25,0.25,0.172,102.96,0.0,2015-01-12T00:00:00,4,ORL,Orlando,14-27,29,34,30,28,0,0,0,0,0,0,0,0,0,0,121,0.593,0.621,0.389,28,34,10,0021400566,1610612753,ORL,Orlando,Channing Frye,F,,36:14,0.0,0.0,0.0,2.0,7.0,12.0,4.0,28.0,1.0,1.0,5.0,0.0
0021400566,1610612753,ORL,Orlando,202696,Nikola Vucevic,C,,38:13,115.7,107.1,8.6,0.182,4.0,12.8,0.0,0.314,0.169,3.2,0.667,0.63,0.323,103.77,0.185,2015-01-12T00:00:00,4,ORL,Orlando,14-27,29,34,30,28,0,0,0,0,0,0,0,0,0,0,121,0.593,0.621,0.389,28,34,10,0021400566,1610612753,ORL,Orlando,Nikola Vucevic,C,,38:13,2.0,0.0,4.0,22.0,7.0,15.0,4.0,32.0,0.0,0.0,4.0,3.0
0021400566,1610612753,ORL,Orlando,203506,Victor Oladipo,G,,36:24,118.1,106.8,11.3,0.074,0.0,8.5,0.0,0.061,0.032,0.0,0.735,0.771,0.268,103.25,0.165,2015-01-12T00:00:00,4,ORL,Orlando,14-27,29,34,30,28,0,0,0,0,0,0,0,0,0,0,121,0.593,0.621,0.389,28,34,10,0021400566,1610612753,ORL,Orlando,Victor Oladipo,G,,36:24,3.0,0.0,6.0,14.0,5.0,12.0,4.0,28.0,0.0,2.0,3.0,5.0
0021400566,1610612753,ORL,Orlando,203901,Elfrid Payton,G,,32:44,115.6,102.1,13.5,0.241,7.0,46.7,0.04,0.111,0.077,6.7,0.714,0.714,0.11,105.12,0.111,2015-01-12T00:00:00,4,ORL,Orlando,14-27,29,34,30,28,0,0,0,0,0,0,0,0,0,0,121,0.593,0.621,0.389,28,34,10,0021400566,1610612753,ORL,Orlando,Elfrid Payton,G,,32:44,0.0,2.0,0.0,10.0,7.0,9.0,4.0,26.0,1.0,1.0,4.0,2.0
0021400566,1610612753,ORL,Orlando,2557,Luke Ridnour,,,15:16,122.5,137.7,-15.3,0.25,3.0,32.6,0.0,0.0,0.0,10.9,0.833,0.865,0.195,95.74,0.13,2015-01-12T00:00:00,4,ORL,Orlando,14-27,29,34,30,28,0,0,0,0,0,0,0,0,0,0,121,0.593,0.621,0.389,28,34,10,0021400566,1610612753,ORL,Orlando,Luke Ridnour,,,15:16,1.0,0.0,0.0,0.0,2.0,10.0,2.0,14.0,0.0,0.0,0.0,3.0
0021400566,1610612753,ORL,Orlando,203124,Kyle O'Quinn,,,11:57,129.9,133.9,-4.0,0.1,1.0,14.5,0.0,0.222,0.133,14.5,0.75,0.82,0.239,96.0,0.167,2015-01-12T00:00:00,4,ORL,Orlando,14-27,29,34,30,28,0,0,0,0,0,0,0,0,0,0,121,0.593,0.621,0.389,28,34,10,0021400566,1610612753,ORL,Orlando,Kyle O'Quinn,,,11:57,2.0,0.0,0.0,6.0,2.0,4.0,2.0,10.0,1.0,0.0,1.0,1.0
0021400566,1610612753,ORL,Orlando,203090,Maurice Harkless,,,8:57,103.3,112.8,-9.6,0.0,0.0,0.0,0.0,0.333,0.231,0.0,0.5,0.602,0.18,94.5,0.083,2015-01-12T00:00:00,4,ORL,Orlando,14-27,29,34,30,28,0,0,0,0,0,0,0,0,0,0,121,0.593,0.621,0.389,28,34,10,0021400566,1610612753,ORL,Orlando,Maurice Harkless,,,8:57,0.0,0.0,0.0,2.0,2.0,7.0,2.0,8.0,0.0,1.0,3.0,2.0
0021400566,1610612753,ORL,Orlando,2732,Ben Gordon,,,17:29,131.6,143.2,-11.6,0.077,0.0,14.3,0.0,0.133,0.087,0.0,0.583,0.583,0.161,99.02,0.075,2015-01-12T00:00:00,4,ORL,Orlando,14-27,29,34,30,28,0,0,0,0,0,0,0,0,0,0,121,0.593,0.621,0.389,28,34,10,0021400566,1610612753,ORL,Orlando,Ben Gordon,,,17:29,0.0,0.0,0.0,0.0,2.0,12.0,2.0,18.0,0.0,0.0,1.0,1.0
0021400566,1610612753,ORL,Orlando,2584,Willie Green,,,11:60,120.5,128.8,-8.3,0.143,1.0,15.5,0.0,0.0,0.0,15.5,0.75,0.788,0.212,101.18,0.098,2015-01-12T00:00:00,4,ORL,Orlando,14-27,29,34,30,28,0,0,0,0,0,0,0,0,0,0,121,0.593,0.621,0.389,28,34,10,0021400566,1610612753,ORL,Orlando,Willie Green,,,11:60,0.0,0.0,0.0,0.0,4.0,7.0,2.0,14.0,0.0,0.0,2.0,1.0
0021400566,1610612753,ORL,Orlando,203473,Dewayne Dedmon,,DNP - Coach's Decision                  ,,,,,,,0.0,,,,,,,0.0,,,2015-01-12T00:00:00,4,ORL,Orlando,14-27,29,34,30,28,0,0,0,0,0,0,0,0,0,0,121,0.593,0.621,0.389,28,34,10,0021400566,1610612753,ORL,Orlando,Dewayne Dedmon,,DNP - Coach's Decision                  ,,,,,,,,,,,,,
0021400566,1610612753,ORL,Orlando,202699,Tobias Harris,,DND - Sprained Left Ankle               ,,,,,,,0.0,,,,,,,0.0,,,2015-01-12T00:00:00,4,ORL,Orlando,14-27,29,34,30,28,0,0,0,0,0,0,0,0,0,0,121,0.593,0.621,0.389,28,34,10,0021400566,1610612753,ORL,Orlando,Tobias Harris,,DND - Sprained Left Ankle               ,,,,,,,,,,,,,
0021400566,1610612753,ORL,Orlando,203094,Andrew Nicholson,,DNP - Coach's Decision                  ,,,,,,,0.0,,,,,,,0.0,,,2015-01-12T00:00:00,4,ORL,Orlando,14-27,29,34,30,28,0,0,0,0,0,0,0,0,0,0,121,0.593,0.621,0.389,28,34,10,0021400566,1610612753,ORL,Orlando,Andrew Nicholson,,DNP - Coach's Decision                  ,,,,,,,,,,,,,
0021400566,1610612741,CHI,Chicago,203503,Tony Snell,F,,22:18,117.7,117.3,0.4,0.158,0.0,50.0,0.095,0.25,0.152,0.0,0.833,0.833,0.057,105.37,0.108,2015-01-12T00:00:00,4,CHI,Chicago,26-13,21,34,23,36,0,0,0,0,0,0,0,0,0,0,114,0.488,0.727,0.296,25,43,14,0021400566,1610612741,CHI,Chicago,Tony Snell,F,,22:18,3.0,3.0,0.0,0.0,0.0,2.0,6.0,32.0,0.0,0.0,1.0,1.0
0021400566,1610612741,CHI,Chicago,2200,Pau Gasol,F,,34:46,99.7,111.9,-12.3,0.056,0.25,3.9,0.0,0.5,0.237,15.7,0.625,0.686,0.297,104.43,0.218,2015-01-12T00:00:00,4,CHI,Chicago,26-13,21,34,23,36,0,0,0,0,0,0,0,0,0,0,114,0.488,0.727,0.296,25,43,14,0021400566,1610612741,CHI,Chicago,Pau Gasol,F,,34:46,2.0,0.0,0.0,10.0,6.0,2.0,12.0,48.0,2.0,0.0,1.0,6.0
0021400566,1610612741,CHI,Chicago,201149,Joakim Noah,C,,31:23,111.9,118.2,-6.3,0.138,1.33,28.8,0.087,0.2,0.146,21.6,0.5,0.436,0.136,106.38,0.016,2015-01-12T00:00:00,4,CHI,Chicago,26-13,21,34,23,36,0,0,0,0,0,0,0,0,0,0,114,0.488,0.727,0.296,25,43,14,0021400566,1610612741,CHI,Chicago,Joakim Noah,C,,31:23,0.0,0.0,0.0,0.0,6.0,2.0,8.0,42.0,1.0,1.0,6.0,2.0
0021400566,1610612741,CHI,Chicago,202710,Jimmy Butler,G,,42:52,104.3,111.4,-7.1,0.071,2.0,11.3,0.05,0.0,0.028,5.6,0.5,0.576,0.157,101.76,0.051,2015-01-12T00:00:00,4,CHI,Chicago,26-13,21,34,23,36,0,0,0,0,0,0,0,0,0,0,114,0.488,0.727,0.296,25,43,14,0021400566,1610612741,CHI,Chicago,Jimmy Butler,G,,42:52,0.0,0.0,0.0,2.0,8.0,2.0,12.0,52.0,0.0,0.0,2.0,4.0
0021400566,1610612741,CHI,Chicago,201565,Derrick Rose,G,,30:28,110.0,113.8,-3.8,0.318,2.33,26.6,0.0,0.08,0.041,11.4,0.567,0.551,0.264,105.62,0.098,2015-01-12T00:00:00,4,CHI,Chicago,26-13,21,34,23,36,0,0,0,0,0,0,0,0,0,0,114,0.488,0.727,0.296,25,43,14,0021400566,1610612741,CHI,Chicago,Derrick Rose,G,,30:28,2.0,4.0,4.0,12.0,6.0,2.0,8.0,40.0,0.0,1.0,3.0,3.0
0021400566,1610612741,CHI,Chicago,201959,Taj Gibson,,,18:45,125.4,126.4,-1.0,0.111,1.0,10.6,0.2,0.2,0.2,10.6,0.571,0.605,0.198,95.54,0.114,2015-01-12T00:00:00,4,CHI,Chicago,26-13,21,34,23,36,0,0,0,0,0,0,0,0,0,0,114,0.488,0.727,0.296,25,43,14,0021400566,1610612741,CHI,Chicago,Taj Gibson,,,18:45,2.0,5.0,0.0,6.0,2.0,0.0,4.0,18.0,0.0,1.0,1.0,1.0
0021400566,1610612741,CHI,Chicago,2550,Kirk Hinrich,,,24:37,105.8,123.2,-17.4,0.176,1.5,23.3,0.0,0.136,0.071,15.5,0.429,0.508,0.18,98.01,0.066,2015-01-12T00:00:00,4,CHI,Chicago,26-13,21,34,23,36,0,0,0,0,0,0,0,0,0,0,114,0.488,0.727,0.296,25,43,14,0021400566,1610612741,CHI,Chicago,Kirk Hinrich,,,24:37,0.0,2.0,2.0,4.0,7.0,0.0,7.0,24.0,1.0,0.0,1.0,1.0
0021400566,1610612741,CHI,Chicago,201166,Aaron Brooks,,,23:45,132.1,129.7,2.4,0.267,0.0,26.9,0.0,0.182,0.057,0.0,0.5,0.551,0.193,99.6,0.087,2015-01-12T00:00:00,4,CHI,Chicago,26-13,21,34,23,36,0,0,0,0,0,0,0,0,0,0,114,0.488,0.727,0.296,25,43,14,0021400566,1610612741,CHI,Chicago,Aaron Brooks,,,23:45,0.0,0.0,0.0,4.0,3.0,0.0,3.0,26.0,0.0,0.0,3.0,2.0
0021400566,1610612741,CHI,Chicago,202703,Nikola Mirotic,,,11:06,136.3,121.2,15.1,0.0,0.0,0.0,0.083,0.2,0.118,0.0,0.357,0.502,0.402,94.14,0.119,2015-01-12T00:00:00,4,CHI,Chicago,26-13,21,34,23,36,0,0,0,0,0,0,0,0,0,0,114,0.488,0.727,0.296,25,43,14,0021400566,1610612741,CHI,Chicago,Nikola Mirotic,,,11:06,0.0,5.0,0.0,2.0,2.0,0.0,0.0,8.0,1.0,0.0,2.0,5.0
0021400566,1610612741,CHI,Chicago,203946,Cameron Bairstow,,DNP - Coach's Decision                  ,,,,,,,0.0,,,,,,,0.0,,,2015-01-12T00:00:00,4,CHI,Chicago,26-13,21,34,23,36,0,0,0,0,0,0,0,0,0,0,114,0.488,0.727,0.296,25,43,14,0021400566,1610612741,CHI,Chicago,Cameron Bairstow,,DNP - Coach's Decision                  ,,,,,,,,,,,,,
0021400566,1610612741,CHI,Chicago,1737,Nazr Mohammed,,DNP - Coach's Decision                  ,,,,,,,0.0,,,,,,,0.0,,,2015-01-12T00:00:00,4,CHI,Chicago,26-13,21,34,23,36,0,0,0,0,0,0,0,0,0,0,114,0.488,0.727,0.296,25,43,14,0021400566,1610612741,CHI,Chicago,Nazr Mohammed,,DNP - Coach's Decision                  ,,,,,,,,,,,,,
0021400566,1610612741,CHI,Chicago,202734,E'Twaun Moore,,DNP - Coach's Decision                  ,,,,,,,0.0,,,,,,,0.0,,,2015-01-12T00:00:00,4,CHI,Chicago,26-13,21,34,23,36,0,0,0,0,0,0,0,0,0,0,114,0.488,0.727,0.296,25,43,14,0021400566,1610612741,CHI,Chicago,E'Twaun Moore,,DNP - Coach's Decision                  ,,,,,,,,,,,,,
