GAME_ID_x,TEAM_ID_x,TEAM_ABBREVIATION_x,TEAM_CITY_x,PLAYER_ID,PLAYER_NAME_x,START_POSITION_x,COMMENT_x,MIN_x,OFF_RATING,DEF_RATING,NET_RATING,AST_PCT,AST_TOV,AST_RATIO,OREB_PCT,DREB_PCT,REB_PCT,TM_TOV_PCT,EFG_PCT,TS_PCT,USG_PCT,PACE,PIE,GAME_DATE_EST,GAME_SEQUENCE,TEAM_ID_y,TEAM_ABBREVIATION_y,TEAM_CITY_NAME,TEAM_WINS_LOSSES,PTS_QTR1,PTS_QTR2,PTS_QTR3,PTS_QTR4,PTS_OT1,PTS_OT2,PTS_OT3,PTS_OT4,PTS_OT5,PTS_OT6,PTS_OT7,PTS_OT8,PTS_OT9,PTS_OT10,PTS,FG_PCT,FT_PCT,FG3_PCT,AST,REB,TOV,GAME_ID_y,TEAM_ID,TEAM_ABBREVIATION,TEAM_CITY_y,PLAYER_NAME_y,START_POSITION_y,COMMENT_y,MIN_y,PTS_OFF_TOV,PTS_2ND_CHANCE,PTS_FB,PTS_PAINT,OPP_PTS_OFF_TOV,OPP_PTS_2ND_CHANCE,OPP_PTS_FB,OPP_PTS_PAINT,BLK,BLKA,PF,PFD
0021300744,1610612751,BKN,Brooklyn,2207,Joe Johnson,F,,22:17,107.0,135.2,-28.2,0.091,0.5,7.0,0.077,0.063,0.071,14.0,0.7,0.707,0.239,103.14,0.096,2014-02-07T00:00:00,6,1610612751,BKN,Brooklyn,22-26,17,27,29,22,0,0,0,0,0,0,0,0,0,0,95,0.36,0.655,0.387,17,40,12,0021300744,1610612751,BKN,Brooklyn,Joe Johnson,F,,22:17,0.0,2.0,0.0,2.0,6.0,7.0,13.0,30.0,0.0,0.0,1.0,1.0
0021300744,1610612751,BKN,Brooklyn,2207,Joe Johnson,F,,22:17,107.0,135.2,-28.2,0.091,0.5,7.0,0.077,0.063,0.071,14.0,0.7,0.707,0.239,103.14,0.096,2014-02-07T00:00:00,6,1610612765,DET,Detroit,20-29,30,37,29,15,0,0,0,0,0,0,0,0,0,0,111,0.512,0.667,0.529,26,57,22,0021300744,1610612751,BKN,Brooklyn,Joe Johnson,F,,22:17,0.0,2.0,0.0,2.0,6.0,7.0,13.0,30.0,0.0,0.0,1.0,1.0
0021300744,1610612751,BKN,Brooklyn,1718,Paul Pierce,F,,17:59,106.2,136.1,-29.9,0.182,0.0,29.1,0.0,0.267,0.111,0.0,0.5,0.41,0.112,99.99,0.071,2014-02-07T00:00:00,6,1610612751,BKN,Brooklyn,22-26,17,27,29,22,0,0,0,0,0,0,0,0,0,0,95,0.36,0.655,0.387,17,40,12,0021300744,1610612751,BKN,Brooklyn,Paul Pierce,F,,17:59,0.0,0.0,0.0,4.0,6.0,7.0,9.0,24.0,0.0,0.0,1.0,2.0
0021300744,1610612751,BKN,Brooklyn,1718,Paul Pierce,F,,17:59,106.2,136.1,-29.9,0.182,0.0,29.1,0.0,0.267,0.111,0.0,0.5,0.41,0.112,99.99,0.071,2014-02-07T00:00:00,6,1610612765,DET,Detroit,20-29,30,37,29,15,0,0,0,0,0,0,0,0,0,0,111,0.512,0.667,0.529,26,57,22,0021300744,1610612751,BKN,Brooklyn,Paul Pierce,F,,17:59,0.0,0.0,0.0,4.0,6.0,7.0,9.0,24.0,0.0,0.0,1.0,2.0
0021300744,1610612751,BKN,Brooklyn,101154,Andray Blatche,C,,14:43,92.8,122.5,-29.7,0.286,0.0,18.6,0.118,0.143,0.129,0.0,0.429,0.457,0.25,100.65,0.139,2014-02-07T00:00:00,6,1610612751,BKN,Brooklyn,22-26,17,27,29,22,0,0,0,0,0,0,0,0,0,0,95,0.36,0.655,0.387,17,40,12,0021300744,1610612751,BKN,Brooklyn,Andray Blatche,C,,14:43,5.0,4.0,3.0,6.0,11.0,7.0,11.0,26.0,0.0,0.0,1.0,2.0
0021300744,1610612751,BKN,Brooklyn,101154,Andray Blatche,C,,14:43,92.8,122.5,-29.7,0.286,0.0,18.6,0.118,0.143,0.129,0.0,0.429,0.457,0.25,100.65,0.139,2014-02-07T00:00:00,6,1610612765,DET,Detroit,20-29,30,37,29,15,0,0,0,0,0,0,0,0,0,0,111,0.512,0.667,0.529,26,57,22,0021300744,1610612751,BKN,Brooklyn,Andray Blatche,C,,14:43,5.0,4.0,3.0,6.0,11.0,7.0,11.0,26.0,0.0,0.0,1.0,2.0
0021300744,1610612751,BKN,Brooklyn,2733,Shaun Livingston,G,,14:43,92.8,122.5,-29.7,0.111,1.0,12.7,0.059,0.071,0.065,12.7,0.2,0.34,0.196,100.65,0.026,2014-02-07T00:00:00,6,1610612751,BKN,Brooklyn,22-26,17,27,29,22,0,0,0,0,0,0,0,0,0,0,95,0.36,0.655,0.387,17,40,12,0021300744,1610612751,BKN,Brooklyn,Shaun Livingston,G,,14:43,0.0,2.0,0.0,2.0,11.0,7.0,11.0,26.0,0.0,0.0,0.0,1.0
0021300744,1610612751,BKN,Brooklyn,2733,Shaun Livingston,G,,14:43,92.8,122.5,-29.7,0.111,1.0,12.7,0.059,0.071,0.065,12.7,0.2,0.34,0.196,100.65,0.026,2014-02-07T00:00:00,6,1610612765,DET,Detroit,20-29,30,37,29,15,0,0,0,0,0,0,0,0,0,0,111,0.512,0.667,0.529,26,57,22,0021300744,1610612751,BKN,Brooklyn,Shaun Livingston,G,,14:43,0.0,2.0,0.0,2.0,11.0,7.0,11.0,26.0,0.0,0.0,0.0,1.0
0021300744,1610612751,BKN,Brooklyn,101114,Deron Williams,G,,24:50,98.7,137.5,-38.8,0.0,0.0,0.0,0.0,0.053,0.02,23.1,0.5,0.5,0.218,101.24,0.018,2014-02-07T00:00:00,6,1610612751,BKN,Brooklyn,22-26,17,27,29,22,0,0,0,0,0,0,0,0,0,0,95,0.36,0.655,0.387,17,40,12,0021300744,1610612751,BKN,Brooklyn,Deron Williams,G,,24:50,0.0,0.0,0.0,4.0,6.0,11.0,15.0,36.0,0.0,1.0,2.0,0.0
0021300744,1610612751,BKN,Brooklyn,101114,Deron Williams,G,,24:50,98.7,137.5,-38.8,0.0,0.0,0.0,0.0,0.053,0.02,23.1,0.5,0.5,0.218,101.24,0.018,2014-02-07T00:00:00,6,1610612765,DET,Detroit,20-29,30,37,29,15,0,0,0,0,0,0,0,0,0,0,111,0.512,0.667,0.529,26,57,22,0021300744,1610612751,BKN,Brooklyn,Deron Williams,G,,24:50,0.0,0.0,0.0,4.0,6.0,11.0,15.0,36.0,0.0,1.0,2.0,0.0
0021300744,1610612751,BKN,Brooklyn,1891,Jason Terry,,,24:59,90.3,88.9,1.4,0.222,0.0,15.4,0.0,0.048,0.02,0.0,0.818,0.818,0.197,96.49,0.232,2014-02-07T00:00:00,6,1610612751,BKN,Brooklyn,22-26,17,27,29,22,0,0,0,0,0,0,0,0,0,0,95,0.36,0.655,0.387,17,40,12,0021300744,1610612751,BKN,Brooklyn,Jason Terry,,,24:59,9.0,3.0,6.0,0.0,6.0,11.0,8.0,14.0,0.0,0.0,2.0,1.0
0021300744,1610612751,BKN,Brooklyn,1891,Jason Terry,,,24:59,90.3,88.9,1.4,0.222,0.0,15.4,0.0,0.048,0.02,0.0,0.818,0.818,0.197,96.49,0.232,2014-02-07T00:00:00,6,1610612765,DET,Detroit,20-29,30,37,29,15,0,0,0,0,0,0,0,0,0,0,111,0.512,0.667,0.529,26,57,22,0021300744,1610612751,BKN,Brooklyn,Jason Terry,,,24:59,9.0,3.0,6.0,0.0,6.0,11.0,8.0,14.0,0.0,0.0,2.0,1.0
0021300744,1610612751,BKN,Brooklyn,203486,Mason Plumlee,,,29:17,93.8,95.9,-2.1,0.071,0.5,5.7,0.059,0.273,0.143,11.4,0.364,0.448,0.244,99.4,0.051,2014-02-07T00:00:00,6,1610612751,BKN,Brooklyn,22-26,17,27,29,22,0,0,0,0,0,0,0,0,0,0,95,0.36,0.655,0.387,17,40,12,0021300744,1610612751,BKN,Brooklyn,Mason Plumlee,,,29:17,2.0,2.0,4.0,8.0,6.0,11.0,12.0,20.0,1.0,2.0,5.0,4.0
0021300744,1610612751,BKN,Brooklyn,203486,Mason Plumlee,,,29:17,93.8,95.9,-2.1,0.071,0.5,5.7,0.059,0.273,0.143,11.4,0.364,0.448,0.244,99.4,0.051,2014-02-07T00:00:00,6,1610612765,DET,Detroit,20-29,30,37,29,15,0,0,0,0,0,0,0,0,0,0,111,0.512,0.667,0.529,26,57,22,0021300744,1610612751,BKN,Brooklyn,Mason Plumlee,,,29:17,2.0,2.0,4.0,8.0,6.0,11.0,12.0,20.0,1.0,2.0,5.0,4.0
0021300744,1610612751,BKN,Brooklyn,203141,Mirza Teletovic,,,13:43,81.8,100.5,-18.7,0.125,0.0,16.7,0.0,0.222,0.071,0.0,0.0,0.0,0.167,100.99,-0.034,2014-02-07T00:00:00,6,1610612751,BKN,Brooklyn,22-26,17,27,29,22,0,0,0,0,0,0,0,0,0,0,95,0.36,0.655,0.387,17,40,12,0021300744,1610612751,BKN,Brooklyn,Mirza Teletovic,,,13:43,0.0,0.0,0.0,0.0,7.0,7.0,13.0,18.0,1.0,1.0,1.0,0.0
0021300744,1610612751,BKN,Brooklyn,203141,Mirza Teletovic,,,13:43,81.8,100.5,-18.7,0.125,0.0,16.7,0.0,0.222,0.071,0.0,0.0,0.0,0.167,100.99,-0.034,2014-02-07T00:00:00,6,1610612765,DET,Detroit,20-29,30,37,29,15,0,0,0,0,0,0,0,0,0,0,111,0.512,0.667,0.529,26,57,22,0021300744,1610612751,BKN,Brooklyn,Mirza Teletovic,,,13:43,0.0,0.0,0.0,0.0,7.0,7.0,13.0,18.0,1.0,1.0,1.0,0.0
0021300744,1610612751,BKN,Brooklyn,1905,Andrei Kirilenko,,,6:15,36.4,136.9,-100.5,0.0,0.0,0.0,0.091,0.2,0.125,0.0,0.5,0.5,0.154,95.54,0.116,2014-02-07T00:00:00,6,1610612751,BKN,Brooklyn,22-26,17,27,29,22,0,0,0,0,0,0,0,0,0,0,95,0.36,0.655,0.387,17,40,12,0021300744,1610612751,BKN,Brooklyn,Andrei Kirilenko,,,6:15,0.0,2.0,0.0,2.0,5.0,4.0,9.0,16.0,0.0,1.0,0.0,0.0
0021300744,1610612751,BKN,Brooklyn,1905,Andrei Kirilenko,,,6:15,36.4,136.9,-100.5,0.0,0.0,0.0,0.091,0.2,0.125,0.0,0.5,0.5,0.154,95.54,0.116,2014-02-07T00:00:00,6,1610612765,DET,Detroit,20-29,30,37,29,15,0,0,0,0,0,0,0,0,0,0,111,0.512,0.667,0.529,26,57,22,0021300744,1610612751,BKN,Brooklyn,Andrei Kirilenko,,,6:15,0.0,2.0,0.0,2.0,5.0,4.0,9.0,16.0,0.0,1.0,0.0,0.0
0021300744,1610612751,BKN,Brooklyn,101187,Alan Anderson,,,31:28,103.2,93.0,10.2,0.136,3.0,23.3,0.051,0.083,0.063,7.8,0.125,0.225,0.128,101.99,0.024,2014-02-07T00:00:00,6,1610612751,BKN,Brooklyn,22-26,17,27,29,22,0,0,0,0,0,0,0,0,0,0,95,0.36,0.655,0.387,17,40,12,0021300744,1610612751,BKN,Brooklyn,Alan Anderson,,,31:28,4.0,0.0,2.0,0.0,11.0,7.0,22.0,28.0,1.0,1.0,2.0,1.0
0021300744,1610612751,BKN,Brooklyn,101187,Alan Anderson,,,31:28,103.2,93.0,10.2,0.136,3.0,23.3,0.051,0.083,0.063,7.8,0.125,0.225,0.128,101.99,0.024,2014-02-07T00:00:00,6,1610612765,DET,Detroit,20-29,30,37,29,15,0,0,0,0,0,0,0,0,0,0,111,0.512,0.667,0.529,26,57,22,0021300744,1610612751,BKN,Brooklyn,Alan Anderson,,,31:28,4.0,0.0,2.0,0.0,11.0,7.0,22.0,28.0,1.0,1.0,2.0,1.0
0021300744,1610612751,BKN,Brooklyn,2501,Reggie Evans,,,20:18,107.0,95.4,11.6,0.0,0.0,0.0,0.24,0.167,0.209,7.1,0.3,0.42,0.276,100.49,0.088,2014-02-07T00:00:00,6,1610612751,BKN,Brooklyn,22-26,17,27,29,22,0,0,0,0,0,0,0,0,0,0,95,0.36,0.655,0.387,17,40,12,0021300744,1610612751,BKN,Brooklyn,Reggie Evans,,,20:18,5.0,3.0,1.0,6.0,4.0,4.0,11.0,16.0,0.0,3.0,2.0,5.0
0021300744,1610612751,BKN,Brooklyn,2501,Reggie Evans,,,20:18,107.0,95.4,11.6,0.0,0.0,0.0,0.24,0.167,0.209,7.1,0.3,0.42,0.276,100.49,0.088,2014-02-07T00:00:00,6,1610612765,DET,Detroit,20-29,30,37,29,15,0,0,0,0,0,0,0,0,0,0,111,0.512,0.667,0.529,26,57,22,0021300744,1610612751,BKN,Brooklyn,Reggie Evans,,,20:18,5.0,3.0,1.0,6.0,4.0,4.0,11.0,16.0,0.0,3.0,2.0,5.0
0021300744,1610612751,BKN,Brooklyn,203104,Marquis Teague,,,19:28,102.4,66.5,35.9,0.333,2.0,32.2,0.0,0.0,0.0,16.1,0.333,0.388,0.187,98.24,0.088,2014-02-07T00:00:00,6,1610612751,BKN,Brooklyn,22-26,17,27,29,22,0,0,0,0,0,0,0,0,0,0,95,0.36,0.655,0.387,17,40,12,0021300744,1610612751,BKN,Brooklyn,Marquis Teague,,,19:28,0.0,0.0,0.0,4.0,6.0,7.0,6.0,6.0,0.0,0.0,2.0,2.0
0021300744,1610612751,BKN,Brooklyn,203104,Marquis Teague,,,19:28,102.4,66.5,35.9,0.333,2.0,32.2,0.0,0.0,0.0,16.1,0.333,0.388,0.187,98.24,0.088,2014-02-07T00:00:00,6,1610612765,DET,Detroit,20-29,30,37,29,15,0,0,0,0,0,0,0,0,0,0,111,0.512,0.667,0.529,26,57,22,0021300744,1610612751,BKN,Brooklyn,Marquis Teague,,,19:28,0.0,0.0,0.0,4.0,6.0,7.0,6.0,6.0,0.0,0.0,2.0,2.0
0021300744,1610612751,BKN,Brooklyn,708,Kevin Garnett,,DND - REST,,,,,,,0.0,,,,,,,0.0,,,2014-02-07T00:00:00,6,1610612751,BKN,Brooklyn,22-26,17,27,29,22,0,0,0,0,0,0,0,0,0,0,95,0.36,0.655,0.387,17,40,12,0021300744,1610612751,BKN,Brooklyn,Kevin Garnett,,DND - REST,,,,,,,,,,,,,
0021300744,1610612751,BKN,Brooklyn,708,Kevin Garnett,,DND - REST,,,,,,,0.0,,,,,,,0.0,,,2014-02-07T00:00:00,6,1610612765,DET,Detroit,20-29,30,37,29,15,0,0,0,0,0,0,0,0,0,0,111,0.512,0.667,0.529,26,57,22,0021300744,1610612751,BKN,Brooklyn,Kevin Garnett,,DND - REST,,,,,,,,,,,,,
0021300744,1610612765,DET,Detroit,2746,Josh Smith,F,,35:02,111.5,92.4,19.1,0.28,7.0,26.7,0.033,0.163,0.11,3.8,0.594,0.632,0.214,105.23,0.219,2014-02-07T00:00:00,6,1610612751,BKN,Brooklyn,22-26,17,27,29,22,0,0,0,0,0,0,0,0,0,0,95,0.36,0.655,0.387,17,40,12,0021300744,1610612765,DET,Detroit,Josh Smith,F,,35:02,3.0,2.0,7.0,12.0,12.0,11.0,13.0,26.0,4.0,0.0,1.0,3.0
0021300744,1610612765,DET,Detroit,2746,Josh Smith,F,,35:02,111.5,92.4,19.1,0.28,7.0,26.7,0.033,0.163,0.11,3.8,0.594,0.632,0.214,105.23,0.219,2014-02-07T00:00:00,6,1610612765,DET,Detroit,20-29,30,37,29,15,0,0,0,0,0,0,0,0,0,0,111,0.512,0.667,0.529,26,57,22,0021300744,1610612765,DET,Detroit,Josh Smith,F,,35:02,3.0,2.0,7.0,12.0,12.0,11.0,13.0,26.0,4.0,0.0,1.0,3.0
0021300744,1610612765,DET,Detroit,202328,Greg Monroe,F,,30:48,119.3,107.3,12.0,0.111,1.0,18.9,0.069,0.139,0.108,18.9,0.556,0.607,0.166,99.62,0.08,2014-02-07T00:00:00,6,1610612751,BKN,Brooklyn,22-26,17,27,29,22,0,0,0,0,0,0,0,0,0,0,95,0.36,0.655,0.387,17,40,12,0021300744,1610612765,DET,Detroit,Greg Monroe,F,,30:48,2.0,2.0,6.0,10.0,10.0,12.0,11.0,24.0,0.0,0.0,6.0,3.0
0021300744,1610612765,DET,Detroit,202328,Greg Monroe,F,,30:48,119.3,107.3,12.0,0.111,1.0,18.9,0.069,0.139,0.108,18.9,0.556,0.607,0.166,99.62,0.08,2014-02-07T00:00:00,6,1610612765,DET,Detroit,20-29,30,37,29,15,0,0,0,0,0,0,0,0,0,0,111,0.512,0.667,0.529,26,57,22,0021300744,1610612765,DET,Detroit,Greg Monroe,F,,30:48,2.0,2.0,6.0,10.0,10.0,12.0,11.0,24.0,0.0,0.0,6.0,3.0
0021300744,1610612765,DET,Detroit,203083,Andre Drummond,C,,39:51,108.7,98.0,10.7,0.036,0.33,5.1,0.267,0.318,0.297,15.4,0.583,0.515,0.19,101.32,0.131,2014-02-07T00:00:00,6,1610612751,BKN,Brooklyn,22-26,17,27,29,22,0,0,0,0,0,0,0,0,0,0,95,0.36,0.655,0.387,17,40,12,0021300744,1610612765,DET,Detroit,Andre Drummond,C,,39:51,8.0,10.0,0.0,14.0,25.0,16.0,16.0,34.0,1.0,1.0,4.0,5.0
0021300744,1610612765,DET,Detroit,203083,Andre Drummond,C,,39:51,108.7,98.0,10.7,0.036,0.33,5.1,0.267,0.318,0.297,15.4,0.583,0.515,0.19,101.32,0.131,2014-02-07T00:00:00,6,1610612765,DET,Detroit,20-29,30,37,29,15,0,0,0,0,0,0,0,0,0,0,111,0.512,0.667,0.529,26,57,22,0021300744,1610612765,DET,Detroit,Andre Drummond,C,,39:51,8.0,10.0,0.0,14.0,25.0,16.0,16.0,34.0,1.0,1.0,4.0,5.0
0021300744,1610612765,DET,Detroit,202713,Kyle Singler,G,,39:08,105.2,99.2,6.0,0.038,0.25,5.3,0.061,0.067,0.064,21.2,0.577,0.576,0.187,100.8,0.065,2014-02-07T00:00:00,6,1610612751,BKN,Brooklyn,22-26,17,27,29,22,0,0,0,0,0,0,0,0,0,0,95,0.36,0.655,0.387,17,40,12,0021300744,1610612765,DET,Detroit,Kyle Singler,G,,39:08,0.0,4.0,5.0,2.0,18.0,12.0,14.0,28.0,2.0,0.0,4.0,2.0
0021300744,1610612765,DET,Detroit,202713,Kyle Singler,G,,39:08,105.2,99.2,6.0,0.038,0.25,5.3,0.061,0.067,0.064,21.2,0.577,0.576,0.187,100.8,0.065,2014-02-07T00:00:00,6,1610612765,DET,Detroit,20-29,30,37,29,15,0,0,0,0,0,0,0,0,0,0,111,0.512,0.667,0.529,26,57,22,0021300744,1610612765,DET,Detroit,Kyle Singler,G,,39:08,0.0,4.0,5.0,2.0,18.0,12.0,14.0,28.0,2.0,0.0,4.0,2.0
0021300744,1610612765,DET,Detroit,201943,Brandon Jennings,G,,38:52,114.6,93.6,20.9,0.321,1.13,28.0,0.063,0.17,0.127,24.8,0.808,0.855,0.235,101.22,0.215,2014-02-07T00:00:00,6,1610612751,BKN,Brooklyn,22-26,17,27,29,22,0,0,0,0,0,0,0,0,0,0,95,0.36,0.655,0.387,17,40,12,0021300744,1610612765,DET,Detroit,Brandon Jennings,G,,38:52,2.0,0.0,4.0,4.0,18.0,10.0,16.0,26.0,0.0,1.0,0.0,3.0
0021300744,1610612765,DET,Detroit,201943,Brandon Jennings,G,,38:52,114.6,93.6,20.9,0.321,1.13,28.0,0.063,0.17,0.127,24.8,0.808,0.855,0.235,101.22,0.215,2014-02-07T00:00:00,6,1610612765,DET,Detroit,20-29,30,37,29,15,0,0,0,0,0,0,0,0,0,0,111,0.512,0.667,0.529,26,57,22,0021300744,1610612765,DET,Detroit,Brandon Jennings,G,,38:52,2.0,0.0,4.0,4.0,18.0,10.0,16.0,26.0,0.0,1.0,0.0,3.0
0021300744,1610612765,DET,Detroit,201155,Rodney Stuckey,,,28:51,89.9,92.8,-2.9,0.133,0.0,11.8,0.0,0.105,0.066,0.0,0.429,0.47,0.215,97.5,0.139,2014-02-07T00:00:00,6,1610612751,BKN,Brooklyn,22-26,17,27,29,22,0,0,0,0,0,0,0,0,0,0,95,0.36,0.655,0.387,17,40,12,0021300744,1610612765,DET,Detroit,Rodney Stuckey,,,28:51,2.0,0.0,6.0,8.0,18.0,9.0,7.0,22.0,1.0,0.0,2.0,3.0
0021300744,1610612765,DET,Detroit,201155,Rodney Stuckey,,,28:51,89.9,92.8,-2.9,0.133,0.0,11.8,0.0,0.105,0.066,0.0,0.429,0.47,0.215,97.5,0.139,2014-02-07T00:00:00,6,1610612765,DET,Detroit,20-29,30,37,29,15,0,0,0,0,0,0,0,0,0,0,111,0.512,0.667,0.529,26,57,22,0021300744,1610612765,DET,Detroit,Rodney Stuckey,,,28:51,2.0,0.0,6.0,8.0,18.0,9.0,7.0,22.0,1.0,0.0,2.0,3.0
0021300744,1610612765,DET,Detroit,203484,Kentavious Caldwell-Pope,,,7:51,132.2,76.8,55.4,0.0,0.0,0.0,0.0,0.0,0.0,0.0,0.0,0.0,0.106,92.33,-0.036,2014-02-07T00:00:00,6,1610612751,BKN,Brooklyn,22-26,17,27,29,22,0,0,0,0,0,0,0,0,0,0,95,0.36,0.655,0.387,17,40,12,0021300744,1610612765,DET,Detroit,Kentavious Caldwell-Pope,,,7:51,0.0,0.0,0.0,0.0,5.0,6.0,0.0,8.0,0.0,1.0,0.0,0.0
0021300744,1610612765,DET,Detroit,203484,Kentavious Caldwell-Pope,,,7:51,132.2,76.8,55.4,0.0,0.0,0.0,0.0,0.0,0.0,0.0,0.0,0.0,0.106,92.33,-0.036,2014-02-07T00:00:00,6,1610612765,DET,Detroit,20-29,30,37,29,15,0,0,0,0,0,0,0,0,0,0,111,0.512,0.667,0.529,26,57,22,0021300744,1610612765,DET,Detroit,Kentavious Caldwell-Pope,,,7:51,0.0,0.0,0.0,0.0,5.0,6.0,0.0,8.0,0.0,1.0,0.0,0.0
0021300744,1610612765,DET,Detroit,1497,Chauncey Billups,,,9:08,80.0,113.4,-33.4,0.333,1.0,25.0,0.0,0.091,0.056,25.0,0.25,0.25,0.32,95.65,-0.043,2014-02-07T00:00:00,6,1610612751,BKN,Brooklyn,22-26,17,27,29,22,0,0,0,0,0,0,0,0,0,0,95,0.36,0.655,0.387,17,40,12,0021300744,1610612765,DET,Detroit,Chauncey Billups,,,9:08,0.0,0.0,0.0,0.0,7.0,8.0,0.0,12.0,0.0,0.0,1.0,0.0
0021300744,1610612765,DET,Detroit,1497,Chauncey Billups,,,9:08,80.0,113.4,-33.4,0.333,1.0,25.0,0.0,0.091,0.056,25.0,0.25,0.25,0.32,95.65,-0.043,2014-02-07T00:00:00,6,1610612765,DET,Detroit,20-29,30,37,29,15,0,0,0,0,0,0,0,0,0,0,111,0.512,0.667,0.529,26,57,22,0021300744,1610612765,DET,Detroit,Chauncey Billups,,,9:08,0.0,0.0,0.0,0.0,7.0,8.0,0.0,12.0,0.0,0.0,1.0,0.0
0021300744,1610612765,DET,Detroit,201973,Jonas Jerebko,,,10:29,106.9,99.0,7.9,0.143,1.0,33.3,0.0,0.0,0.0,33.3,1.0,1.0,0.092,91.21,0.048,2014-02-07T00:00:00,6,1610612751,BKN,Brooklyn,22-26,17,27,29,22,0,0,0,0,0,0,0,0,0,0,95,0.36,0.655,0.387,17,40,12,0021300744,1610612765,DET,Detroit,Jonas Jerebko,,,10:29,0.0,0.0,0.0,2.0,12.0,6.0,3.0,10.0,1.0,0.0,1.0,0.0
0021300744,1610612765,DET,Detroit,201973,Jonas Jerebko,,,10:29,106.9,99.0,7.9,0.143,1.0,33.3,0.0,0.0,0.0,33.3,1.0,1.0,0.092,91.21,0.048,2014-02-07T00:00:00,6,1610612765,DET,Detroit,20-29,30,37,29,15,0,0,0,0,0,0,0,0,0,0,111,0.512,0.667,0.529,26,57,22,0021300744,1610612765,DET,Detroit,Jonas Jerebko,,,10:29,0.0,0.0,0.0,2.0,12.0,6.0,3.0,10.0,1.0,0.0,1.0,0.0
0021300744,1610612765,DET,Detroit,101198,Will Bynum,,DNP - Coach's Decision,,,,,,,0.0,,,,,,,0.0,,,2014-02-07T00:00:00,6,1610612751,BKN,Brooklyn,22-26,17,27,29,22,0,0,0,0,0,0,0,0,0,0,95,0.36,0.655,0.387,17,40,12,0021300744,1610612765,DET,Detroit,Will Bynum,,DNP - Coach's Decision,,,,,,,,,,,,,
0021300744,1610612765,DET,Detroit,101198,Will Bynum,,DNP - Coach's Decision,,,,,,,0.0,,,,,,,0.0,,,2014-02-07T00:00:00,6,1610612765,DET,Detroit,20-29,30,37,29,15,0,0,0,0,0,0,0,0,0,0,111,0.512,0.667,0.529,26,57,22,0021300744,1610612765,DET,Detroit,Will Bynum,,DNP - Coach's Decision,,,,,,,,,,,,,
0021300744,1610612765,DET,Detroit,203540,Gigi Datome,,DNP - Coach's Decision,,,,,,,0.0,,,,,,,0.0,,,2014-02-07T00:00:00,6,1610612751,BKN,Brooklyn,22-26,17,27,29,22,0,0,0,0,0,0,0,0,0,0,95,0.36,0.655,0.387,17,40,12,0021300744,1610612765,DET,Detroit,Gigi Datome,,DNP - Coach's Decision,,,,,,,,,,,,,
0021300744,1610612765,DET,Detroit,203540,Gigi Datome,,DNP - Coach's Decision,,,,,,,0.0,,,,,,,0.0,,,2014-02-07T00:00:00,6,1610612765,DET,Detroit,20-29,30,37,29,15,0,0,0,0,0,0,0,0,0,0,111,0.512,0.667,0.529,26,57,22,0021300744,1610612765,DET,Detroit,Gigi Datome,,DNP - Coach's Decision,,,,,,,,,,,,,
0021300744,1610612765,DET,Detroit,101111,Charlie Villanueva,,DNP - Coach's Decision,,,,,,,0.0,,,,,,,0.0,,,2014-02-07T00:00:00,6,1610612751,BKN,Brooklyn,22-26,17,27,29,22,0,0,0,0,0,0,0,0,0,0,95,0.36,0.655,0.387,17,40,12,0021300744,1610612765,DET,Detroit,Charlie Villanueva,,DNP - Coach's Decision,,,,,,,,,,,,,
0021300744,1610612765,DET,Detroit,101111,Charlie Villanueva,,DNP - Coach's Decision,,,,,,,0.0,,,,,,,0.0,,,2014-02-07T00:00:00,6,1610612765,DET,Detroit,20-29,30,37,29,15,0,0,0,0,0,0,0,0,0,0,111,0.512,0.667,0.529,26,57,22,0021300744,1610612765,DET,Detroit,Charlie Villanueva,,DNP - Coach's Decision,,,,,,,,,,,,,
