GAME_ID_x,TEAM_ID_x,TEAM_ABBREVIATION_x,TEAM_CITY_x,PLAYER_ID,PLAYER_NAME_x,START_POSITION_x,COMMENT_x,MIN_x,OFF_RATING,DEF_RATING,NET_RATING,AST_PCT,AST_TOV,AST_RATIO,OREB_PCT,DREB_PCT,REB_PCT,TM_TOV_PCT,EFG_PCT,TS_PCT,USG_PCT,PACE,PIE,GAME_DATE_EST,GAME_SEQUENCE,TEAM_ID_y,TEAM_ABBREVIATION_y,TEAM_CITY_NAME,TEAM_WINS_LOSSES,PTS_QTR1,PTS_QTR2,PTS_QTR3,PTS_QTR4,PTS_OT1,PTS_OT2,PTS_OT3,PTS_OT4,PTS_OT5,PTS_OT6,PTS_OT7,PTS_OT8,PTS_OT9,PTS_OT10,PTS,FG_PCT,FT_PCT,FG3_PCT,AST,REB,TOV,GAME_ID_y,TEAM_ID,TEAM_ABBREVIATION,TEAM_CITY_y,PLAYER_NAME_y,START_POSITION_y,COMMENT_y,MIN_y,PTS_OFF_TOV,PTS_2ND_CHANCE,PTS_FB,PTS_PAINT,OPP_PTS_OFF_TOV,OPP_PTS_2ND_CHANCE,OPP_PTS_FB,OPP_PTS_PAINT,BLK,BLKA,PF,PFD
0021300739,1610612757,POR,Portland,201587,Nicolas Batum,F,,44:48,102.5,107.5,-5.0,0.103,1.0,23.7,0.053,0.103,0.078,23.7,0.125,0.225,0.122,101.1,0.018,2014-02-07T00:00:00,1,1610612757,POR,Portland,35-15,28,22,27,26,10,0,0,0,0,0,0,0,0,0,113,0.433,0.8,0.35,21,47,13,0021300739,1610612757,POR,Portland,Nicolas Batum,F,,44:48,2.0,0.0,0.0,2.0,15.0,19.0,10.0,34.0,2.0,0.0,2.0,4.0
0021300739,1610612757,POR,Portland,201587,Nicolas Batum,F,,44:48,102.5,107.5,-5.0,0.103,1.0,23.7,0.053,0.103,0.078,23.7,0.125,0.225,0.122,101.1,0.018,2014-02-07T00:00:00,1,1610612754,IND,Indiana,39-10,16,29,26,32,15,0,0,0,0,0,0,0,0,0,118,0.457,0.829,0.385,22,46,12,0021300739,1610612757,POR,Portland,Nicolas Batum,F,,44:48,2.0,0.0,0.0,2.0,15.0,19.0,10.0,34.0,2.0,0.0,2.0,4.0
0021300739,1610612757,POR,Portland,200746,LaMarcus Aldridge,F,,40:12,102.3,104.8,-2.6,0.038,0.5,3.4,0.059,0.212,0.134,6.8,0.375,0.42,0.294,101.52,0.054,2014-02-07T00:00:00,1,1610612757,POR,Portland,35-15,28,22,27,26,10,0,0,0,0,0,0,0,0,0,113,0.433,0.8,0.35,21,47,13,0021300739,1610612757,POR,Portland,LaMarcus Aldridge,F,,40:12,2.0,6.0,0.0,2.0,17.0,15.0,10.0,30.0,1.0,2.0,6.0,5.0
0021300739,1610612757,POR,Portland,200746,LaMarcus Aldridge,F,,40:12,102.3,104.8,-2.6,0.038,0.5,3.4,0.059,0.212,0.134,6.8,0.375,0.42,0.294,101.52,0.054,2014-02-07T00:00:00,1,1610612754,IND,Indiana,39-10,16,29,26,32,15,0,0,0,0,0,0,0,0,0,118,0.457,0.829,0.385,22,46,12,0021300739,1610612757,POR,Portland,LaMarcus Aldridge,F,,40:12,2.0,6.0,0.0,2.0,17.0,15.0,10.0,30.0,1.0,2.0,6.0,5.0
0021300739,1610612757,POR,Portland,201577,Robin Lopez,C,,40:13,97.9,105.9,-7.9,0.04,1.0,5.6,0.139,0.265,0.2,5.6,0.533,0.535,0.184,97.83,0.138,2014-02-07T00:00:00,1,1610612757,POR,Portland,35-15,28,22,27,26,10,0,0,0,0,0,0,0,0,0,113,0.433,0.8,0.35,21,47,13,0021300739,1610612757,POR,Portland,Robin Lopez,C,,40:13,0.0,2.0,0.0,8.0,12.0,13.0,8.0,32.0,0.0,2.0,1.0,3.0
0021300739,1610612757,POR,Portland,201577,Robin Lopez,C,,40:13,97.9,105.9,-7.9,0.04,1.0,5.6,0.139,0.265,0.2,5.6,0.533,0.535,0.184,97.83,0.138,2014-02-07T00:00:00,1,1610612754,IND,Indiana,39-10,16,29,26,32,15,0,0,0,0,0,0,0,0,0,118,0.457,0.829,0.385,22,46,12,0021300739,1610612757,POR,Portland,Robin Lopez,C,,40:13,0.0,2.0,0.0,8.0,12.0,13.0,8.0,32.0,0.0,2.0,1.0,3.0
0021300739,1610612757,POR,Portland,202083,Wesley Matthews,G,,39:14,91.0,112.0,-21.0,0.042,0.0,4.1,0.0,0.069,0.029,0.0,0.364,0.407,0.241,101.03,0.055,2014-02-07T00:00:00,1,1610612757,POR,Portland,35-15,28,22,27,26,10,0,0,0,0,0,0,0,0,0,113,0.433,0.8,0.35,21,47,13,0021300739,1610612757,POR,Portland,Wesley Matthews,G,,39:14,2.0,5.0,0.0,4.0,12.0,13.0,8.0,34.0,0.0,2.0,1.0,1.0
0021300739,1610612757,POR,Portland,202083,Wesley Matthews,G,,39:14,91.0,112.0,-21.0,0.042,0.0,4.1,0.0,0.069,0.029,0.0,0.364,0.407,0.241,101.03,0.055,2014-02-07T00:00:00,1,1610612754,IND,Indiana,39-10,16,29,26,32,15,0,0,0,0,0,0,0,0,0,118,0.457,0.829,0.385,22,46,12,0021300739,1610612757,POR,Portland,Wesley Matthews,G,,39:14,2.0,5.0,0.0,4.0,12.0,13.0,8.0,34.0,0.0,2.0,1.0,1.0
0021300739,1610612757,POR,Portland,203081,Damian Lillard,G,,44:48,93.3,111.1,-17.8,0.5,3.67,26.1,0.0,0.086,0.038,7.1,0.654,0.674,0.285,103.0,0.206,2014-02-07T00:00:00,1,1610612757,POR,Portland,35-15,28,22,27,26,10,0,0,0,0,0,0,0,0,0,113,0.433,0.8,0.35,21,47,13,0021300739,1610612757,POR,Portland,Damian Lillard,G,,44:48,6.0,0.0,2.0,6.0,13.0,15.0,11.0,36.0,0.0,2.0,5.0,6.0
0021300739,1610612757,POR,Portland,203081,Damian Lillard,G,,44:48,93.3,111.1,-17.8,0.5,3.67,26.1,0.0,0.086,0.038,7.1,0.654,0.674,0.285,103.0,0.206,2014-02-07T00:00:00,1,1610612754,IND,Indiana,39-10,16,29,26,32,15,0,0,0,0,0,0,0,0,0,118,0.457,0.829,0.385,22,46,12,0021300739,1610612757,POR,Portland,Damian Lillard,G,,44:48,6.0,0.0,2.0,6.0,13.0,15.0,11.0,36.0,0.0,2.0,5.0,6.0
0021300739,1610612757,POR,Portland,203468,CJ McCollum,,,12:03,129.7,96.8,32.9,0.091,1.0,16.7,0.0,0.071,0.048,16.7,1.125,1.125,0.168,102.58,0.148,2014-02-07T00:00:00,1,1610612757,POR,Portland,35-15,28,22,27,26,10,0,0,0,0,0,0,0,0,0,113,0.433,0.8,0.35,21,47,13,0021300739,1610612757,POR,Portland,CJ McCollum,,,12:03,0.0,0.0,2.0,2.0,5.0,6.0,4.0,4.0,0.0,0.0,2.0,0.0
0021300739,1610612757,POR,Portland,203468,CJ McCollum,,,12:03,129.7,96.8,32.9,0.091,1.0,16.7,0.0,0.071,0.048,16.7,1.125,1.125,0.168,102.58,0.148,2014-02-07T00:00:00,1,1610612754,IND,Indiana,39-10,16,29,26,32,15,0,0,0,0,0,0,0,0,0,118,0.457,0.829,0.385,22,46,12,0021300739,1610612757,POR,Portland,CJ McCollum,,,12:03,0.0,0.0,2.0,2.0,5.0,6.0,4.0,4.0,0.0,0.0,2.0,0.0
0021300739,1610612757,POR,Portland,2248,Earl Watson,,,12:12,105.6,97.1,8.5,0.111,0.5,25.0,0.125,0.143,0.136,50.0,1.0,1.0,0.102,100.81,-0.045,2014-02-07T00:00:00,1,1610612757,POR,Portland,35-15,28,22,27,26,10,0,0,0,0,0,0,0,0,0,113,0.433,0.8,0.35,21,47,13,0021300739,1610612757,POR,Portland,Earl Watson,,,12:12,0.0,0.0,0.0,0.0,8.0,4.0,5.0,6.0,0.0,0.0,5.0,0.0
0021300739,1610612757,POR,Portland,2248,Earl Watson,,,12:12,105.6,97.1,8.5,0.111,0.5,25.0,0.125,0.143,0.136,50.0,1.0,1.0,0.102,100.81,-0.045,2014-02-07T00:00:00,1,1610612754,IND,Indiana,39-10,16,29,26,32,15,0,0,0,0,0,0,0,0,0,118,0.457,0.829,0.385,22,46,12,0021300739,1610612757,POR,Portland,Earl Watson,,,12:12,0.0,0.0,0.0,0.0,8.0,4.0,5.0,6.0,0.0,0.0,5.0,0.0
0021300739,1610612757,POR,Portland,200777,Joel Freeland,,,17:36,91.9,116.6,-24.7,0.071,0.0,33.3,0.0,0.263,0.139,0.0,0.0,0.0,0.046,99.87,0.044,2014-02-07T00:00:00,1,1610612757,POR,Portland,35-15,28,22,27,26,10,0,0,0,0,0,0,0,0,0,113,0.433,0.8,0.35,21,47,13,0021300739,1610612757,POR,Portland,Joel Freeland,,,17:36,0.0,0.0,0.0,0.0,6.0,8.0,5.0,10.0,1.0,0.0,2.0,0.0
0021300739,1610612757,POR,Portland,200777,Joel Freeland,,,17:36,91.9,116.6,-24.7,0.071,0.0,33.3,0.0,0.263,0.139,0.0,0.0,0.0,0.046,99.87,0.044,2014-02-07T00:00:00,1,1610612754,IND,Indiana,39-10,16,29,26,32,15,0,0,0,0,0,0,0,0,0,118,0.457,0.829,0.385,22,46,12,0021300739,1610612757,POR,Portland,Joel Freeland,,,17:36,0.0,0.0,0.0,0.0,6.0,8.0,5.0,10.0,1.0,0.0,2.0,0.0
0021300739,1610612757,POR,Portland,203080,Thomas Robinson,,,7:31,95.5,128.9,-33.4,0.0,0.0,0.0,0.125,0.0,0.083,0.0,0.0,0.0,0.101,103.07,-0.191,2014-02-07T00:00:00,1,1610612757,POR,Portland,35-15,28,22,27,26,10,0,0,0,0,0,0,0,0,0,113,0.433,0.8,0.35,21,47,13,0021300739,1610612757,POR,Portland,Thomas Robinson,,,7:31,0.0,0.0,0.0,0.0,1.0,2.0,3.0,8.0,0.0,1.0,3.0,0.0
0021300739,1610612757,POR,Portland,203080,Thomas Robinson,,,7:31,95.5,128.9,-33.4,0.0,0.0,0.0,0.125,0.0,0.083,0.0,0.0,0.0,0.101,103.07,-0.191,2014-02-07T00:00:00,1,1610612754,IND,Indiana,39-10,16,29,26,32,15,0,0,0,0,0,0,0,0,0,118,0.457,0.829,0.385,22,46,12,0021300739,1610612757,POR,Portland,Thomas Robinson,,,7:31,0.0,0.0,0.0,0.0,1.0,2.0,3.0,8.0,0.0,1.0,3.0,0.0
0021300739,1610612757,POR,Portland,2748,Dorell Wright,,,6:23,77.5,126.9,-49.4,0.0,0.0,0.0,0.25,0.25,0.25,0.0,0.0,0.758,0.077,103.82,0.233,2014-02-07T00:00:00,1,1610612757,POR,Portland,35-15,28,22,27,26,10,0,0,0,0,0,0,0,0,0,113,0.433,0.8,0.35,21,47,13,0021300739,1610612757,POR,Portland,Dorell Wright,,,6:23,0.0,0.0,0.0,0.0,1.0,0.0,1.0,6.0,1.0,0.0,0.0,1.0
0021300739,1610612757,POR,Portland,2748,Dorell Wright,,,6:23,77.5,126.9,-49.4,0.0,0.0,0.0,0.25,0.25,0.25,0.0,0.0,0.758,0.077,103.82,0.233,2014-02-07T00:00:00,1,1610612754,IND,Indiana,39-10,16,29,26,32,15,0,0,0,0,0,0,0,0,0,118,0.457,0.829,0.385,22,46,12,0021300739,1610612757,POR,Portland,Dorell Wright,,,6:23,0.0,0.0,0.0,0.0,1.0,0.0,1.0,6.0,1.0,0.0,0.0,1.0
0021300739,1610612757,POR,Portland,203115,Will Barton,,DNP - Coach's Decision,,,,,,,0.0,,,,,,,0.0,,,2014-02-07T00:00:00,1,1610612757,POR,Portland,35-15,28,22,27,26,10,0,0,0,0,0,0,0,0,0,113,0.433,0.8,0.35,21,47,13,0021300739,1610612757,POR,Portland,Will Barton,,DNP - Coach's Decision,,,,,,,,,,,,,
0021300739,1610612757,POR,Portland,203115,Will Barton,,DNP - Coach's Decision,,,,,,,0.0,,,,,,,0.0,,,2014-02-07T00:00:00,1,1610612754,IND,Indiana,39-10,16,29,26,32,15,0,0,0,0,0,0,0,0,0,118,0.457,0.829,0.385,22,46,12,0021300739,1610612757,POR,Portland,Will Barton,,DNP - Coach's Decision,,,,,,,,,,,,,
0021300739,1610612757,POR,Portland,203459,Allen Crabbe,,DNP - Coach's Decision,,,,,,,0.0,,,,,,,0.0,,,2014-02-07T00:00:00,1,1610612757,POR,Portland,35-15,28,22,27,26,10,0,0,0,0,0,0,0,0,0,113,0.433,0.8,0.35,21,47,13,0021300739,1610612757,POR,Portland,Allen Crabbe,,DNP - Coach's Decision,,,,,,,,,,,,,
0021300739,1610612757,POR,Portland,203459,Allen Crabbe,,DNP - Coach's Decision,,,,,,,0.0,,,,,,,0.0,,,2014-02-07T00:00:00,1,1610612754,IND,Indiana,39-10,16,29,26,32,15,0,0,0,0,0,0,0,0,0,118,0.457,0.829,0.385,22,46,12,0021300739,1610612757,POR,Portland,Allen Crabbe,,DNP - Coach's Decision,,,,,,,,,,,,,
0021300739,1610612757,POR,Portland,203086,Meyers Leonard,,DNP - Coach's Decision,,,,,,,0.0,,,,,,,0.0,,,2014-02-07T00:00:00,1,1610612757,POR,Portland,35-15,28,22,27,26,10,0,0,0,0,0,0,0,0,0,113,0.433,0.8,0.35,21,47,13,0021300739,1610612757,POR,Portland,Meyers Leonard,,DNP - Coach's Decision,,,,,,,,,,,,,
0021300739,1610612757,POR,Portland,203086,Meyers Leonard,,DNP - Coach's Decision,,,,,,,0.0,,,,,,,0.0,,,2014-02-07T00:00:00,1,1610612754,IND,Indiana,39-10,16,29,26,32,15,0,0,0,0,0,0,0,0,0,118,0.457,0.829,0.385,22,46,12,0021300739,1610612757,POR,Portland,Meyers Leonard,,DNP - Coach's Decision,,,,,,,,,,,,,
0021300739,1610612754,IND,Indiana,202331,Paul George,F,,46:46,105.2,102.4,2.8,0.219,2.33,19.6,0.049,0.1,0.074,8.4,0.239,0.332,0.268,101.41,0.042,2014-02-07T00:00:00,1,1610612757,POR,Portland,35-15,28,22,27,26,10,0,0,0,0,0,0,0,0,0,113,0.433,0.8,0.35,21,47,13,0021300739,1610612754,IND,Indiana,Paul George,F,,46:46,6.0,4.0,4.0,4.0,12.0,13.0,4.0,24.0,0.0,3.0,3.0,5.0
0021300739,1610612754,IND,Indiana,202331,Paul George,F,,46:46,105.2,102.4,2.8,0.219,2.33,19.6,0.049,0.1,0.074,8.4,0.239,0.332,0.268,101.41,0.042,2014-02-07T00:00:00,1,1610612754,IND,Indiana,39-10,16,29,26,32,15,0,0,0,0,0,0,0,0,0,118,0.457,0.829,0.385,22,46,12,0021300739,1610612754,IND,Indiana,Paul George,F,,46:46,6.0,4.0,4.0,4.0,12.0,13.0,4.0,24.0,0.0,3.0,3.0,5.0
0021300739,1610612754,IND,Indiana,2561,David West,F,,39:59,111.6,95.5,16.1,0.05,0.33,4.4,0.03,0.225,0.137,13.3,0.813,0.805,0.239,101.01,0.22,2014-02-07T00:00:00,1,1610612757,POR,Portland,35-15,28,22,27,26,10,0,0,0,0,0,0,0,0,0,113,0.433,0.8,0.35,21,47,13,0021300739,1610612754,IND,Indiana,David West,F,,39:59,2.0,2.0,0.0,12.0,6.0,9.0,2.0,22.0,2.0,0.0,3.0,5.0
0021300739,1610612754,IND,Indiana,2561,David West,F,,39:59,111.6,95.5,16.1,0.05,0.33,4.4,0.03,0.225,0.137,13.3,0.813,0.805,0.239,101.01,0.22,2014-02-07T00:00:00,1,1610612754,IND,Indiana,39-10,16,29,26,32,15,0,0,0,0,0,0,0,0,0,118,0.457,0.829,0.385,22,46,12,0021300739,1610612754,IND,Indiana,David West,F,,39:59,2.0,2.0,0.0,12.0,6.0,9.0,2.0,22.0,2.0,0.0,3.0,5.0
0021300739,1610612754,IND,Indiana,201579,Roy Hibbert,C,,39:18,107.8,98.9,9.0,0.061,2.0,18.2,0.091,0.086,0.088,9.1,0.25,0.25,0.1,101.72,0.023,2014-02-07T00:00:00,1,1610612757,POR,Portland,35-15,28,22,27,26,10,0,0,0,0,0,0,0,0,0,113,0.433,0.8,0.35,21,47,13,0021300739,1610612754,IND,Indiana,Roy Hibbert,C,,39:18,0.0,2.0,0.0,4.0,10.0,9.0,4.0,20.0,2.0,0.0,2.0,0.0
0021300739,1610612754,IND,Indiana,201579,Roy Hibbert,C,,39:18,107.8,98.9,9.0,0.061,2.0,18.2,0.091,0.086,0.088,9.1,0.25,0.25,0.1,101.72,0.023,2014-02-07T00:00:00,1,1610612754,IND,Indiana,39-10,16,29,26,32,15,0,0,0,0,0,0,0,0,0,118,0.457,0.829,0.385,22,46,12,0021300739,1610612754,IND,Indiana,Roy Hibbert,C,,39:18,0.0,2.0,0.0,4.0,10.0,9.0,4.0,20.0,2.0,0.0,2.0,0.0
0021300739,1610612754,IND,Indiana,101122,Danny Granger,G,,40:10,117.0,88.3,28.7,0.094,3.0,20.8,0.031,0.122,0.082,6.9,0.3,0.335,0.125,102.13,0.053,2014-02-07T00:00:00,1,1610612757,POR,Portland,35-15,28,22,27,26,10,0,0,0,0,0,0,0,0,0,113,0.433,0.8,0.35,21,47,13,0021300739,1610612754,IND,Indiana,Danny Granger,G,,40:10,0.0,0.0,0.0,4.0,6.0,6.0,2.0,20.0,2.0,0.0,1.0,1.0
0021300739,1610612754,IND,Indiana,101122,Danny Granger,G,,40:10,117.0,88.3,28.7,0.094,3.0,20.8,0.031,0.122,0.082,6.9,0.3,0.335,0.125,102.13,0.053,2014-02-07T00:00:00,1,1610612754,IND,Indiana,39-10,16,29,26,32,15,0,0,0,0,0,0,0,0,0,118,0.457,0.829,0.385,22,46,12,0021300739,1610612754,IND,Indiana,Danny Granger,G,,40:10,0.0,0.0,0.0,4.0,6.0,6.0,2.0,20.0,2.0,0.0,1.0,1.0
0021300739,1610612754,IND,Indiana,201588,George Hill,G,,38:19,117.1,98.3,18.8,0.364,8.0,24.0,0.067,0.179,0.13,3.0,0.684,0.762,0.292,100.82,0.288,2014-02-07T00:00:00,1,1610612757,POR,Portland,35-15,28,22,27,26,10,0,0,0,0,0,0,0,0,0,113,0.433,0.8,0.35,21,47,13,0021300739,1610612754,IND,Indiana,George Hill,G,,38:19,4.0,5.0,6.0,12.0,8.0,6.0,4.0,22.0,1.0,1.0,4.0,8.0
0021300739,1610612754,IND,Indiana,201588,George Hill,G,,38:19,117.1,98.3,18.8,0.364,8.0,24.0,0.067,0.179,0.13,3.0,0.684,0.762,0.292,100.82,0.288,2014-02-07T00:00:00,1,1610612754,IND,Indiana,39-10,16,29,26,32,15,0,0,0,0,0,0,0,0,0,118,0.457,0.829,0.385,22,46,12,0021300739,1610612754,IND,Indiana,George Hill,G,,38:19,4.0,5.0,6.0,12.0,8.0,6.0,4.0,22.0,1.0,1.0,4.0,8.0
0021300739,1610612754,IND,Indiana,201228,C.J. Watson,,,14:55,91.8,101.7,-10.0,0.143,0.5,10.2,0.0,0.111,0.042,20.5,0.2,0.37,0.253,106.14,-0.013,2014-02-07T00:00:00,1,1610612757,POR,Portland,35-15,28,22,27,26,10,0,0,0,0,0,0,0,0,0,113,0.433,0.8,0.35,21,47,13,0021300739,1610612754,IND,Indiana,C.J. Watson,,,14:55,1.0,0.0,1.0,2.0,4.0,7.0,0.0,2.0,1.0,1.0,2.0,4.0
0021300739,1610612754,IND,Indiana,201228,C.J. Watson,,,14:55,91.8,101.7,-10.0,0.143,0.5,10.2,0.0,0.111,0.042,20.5,0.2,0.37,0.253,106.14,-0.013,2014-02-07T00:00:00,1,1610612754,IND,Indiana,39-10,16,29,26,32,15,0,0,0,0,0,0,0,0,0,118,0.457,0.829,0.385,22,46,12,0021300739,1610612754,IND,Indiana,C.J. Watson,,,14:55,1.0,0.0,1.0,2.0,4.0,7.0,0.0,2.0,1.0,1.0,2.0,4.0
0021300739,1610612754,IND,Indiana,2446,Rasual Butler,,,19:17,97.3,114.7,-17.4,0.0,0.0,0.0,0.059,0.067,0.063,0.0,1.0,1.025,0.119,100.54,0.188,2014-02-07T00:00:00,1,1610612757,POR,Portland,35-15,28,22,27,26,10,0,0,0,0,0,0,0,0,0,113,0.433,0.8,0.35,21,47,13,0021300739,1610612754,IND,Indiana,Rasual Butler,,,19:17,5.0,3.0,2.0,0.0,8.0,7.0,2.0,6.0,0.0,0.0,1.0,1.0
0021300739,1610612754,IND,Indiana,2446,Rasual Butler,,,19:17,97.3,114.7,-17.4,0.0,0.0,0.0,0.059,0.067,0.063,0.0,1.0,1.025,0.119,100.54,0.188,2014-02-07T00:00:00,1,1610612754,IND,Indiana,39-10,16,29,26,32,15,0,0,0,0,0,0,0,0,0,118,0.457,0.829,0.385,22,46,12,0021300739,1610612754,IND,Indiana,Rasual Butler,,,19:17,5.0,3.0,2.0,0.0,8.0,7.0,2.0,6.0,0.0,0.0,1.0,1.0
0021300739,1610612754,IND,Indiana,2449,Luis Scola,,,13:01,100.2,107.0,-6.9,0.0,0.0,0.0,0.083,0.125,0.1,11.3,0.429,0.444,0.307,101.26,0.065,2014-02-07T00:00:00,1,1610612757,POR,Portland,35-15,28,22,27,26,10,0,0,0,0,0,0,0,0,0,113,0.433,0.8,0.35,21,47,13,0021300739,1610612754,IND,Indiana,Luis Scola,,,13:01,0.0,3.0,0.0,2.0,6.0,4.0,2.0,2.0,0.0,0.0,1.0,2.0
0021300739,1610612754,IND,Indiana,2449,Luis Scola,,,13:01,100.2,107.0,-6.9,0.0,0.0,0.0,0.083,0.125,0.1,11.3,0.429,0.444,0.307,101.26,0.065,2014-02-07T00:00:00,1,1610612754,IND,Indiana,39-10,16,29,26,32,15,0,0,0,0,0,0,0,0,0,118,0.457,0.829,0.385,22,46,12,0021300739,1610612754,IND,Indiana,Luis Scola,,,13:01,0.0,3.0,0.0,2.0,6.0,4.0,2.0,2.0,0.0,0.0,1.0,2.0
0021300739,1610612754,IND,Indiana,101133,Ian Mahinmi,,,13:15,112.3,84.7,27.6,0.0,0.0,0.0,0.0,0.308,0.16,0.0,0.0,0.568,0.033,90.57,0.114,2014-02-07T00:00:00,1,1610612757,POR,Portland,35-15,28,22,27,26,10,0,0,0,0,0,0,0,0,0,113,0.433,0.8,0.35,21,47,13,0021300739,1610612754,IND,Indiana,Ian Mahinmi,,,13:15,0.0,0.0,0.0,0.0,0.0,4.0,0.0,2.0,1.0,0.0,3.0,1.0
0021300739,1610612754,IND,Indiana,101133,Ian Mahinmi,,,13:15,112.3,84.7,27.6,0.0,0.0,0.0,0.0,0.308,0.16,0.0,0.0,0.568,0.033,90.57,0.114,2014-02-07T00:00:00,1,1610612754,IND,Indiana,39-10,16,29,26,32,15,0,0,0,0,0,0,0,0,0,118,0.457,0.829,0.385,22,46,12,0021300739,1610612754,IND,Indiana,Ian Mahinmi,,,13:15,0.0,0.0,0.0,0.0,0.0,4.0,0.0,2.0,1.0,0.0,3.0,1.0
0021300739,1610612754,IND,Indiana,203142,Chris Copeland,,DNP - Coach's Decision,,,,,,,0.0,,,,,,,0.0,,,2014-02-07T00:00:00,1,1610612757,POR,Portland,35-15,28,22,27,26,10,0,0,0,0,0,0,0,0,0,113,0.433,0.8,0.35,21,47,13,0021300739,1610612754,IND,Indiana,Chris Copeland,,DNP - Coach's Decision,,,,,,,,,,,,,
0021300739,1610612754,IND,Indiana,203142,Chris Copeland,,DNP - Coach's Decision,,,,,,,0.0,,,,,,,0.0,,,2014-02-07T00:00:00,1,1610612754,IND,Indiana,39-10,16,29,26,32,15,0,0,0,0,0,0,0,0,0,118,0.457,0.829,0.385,22,46,12,0021300739,1610612754,IND,Indiana,Chris Copeland,,DNP - Coach's Decision,,,,,,,,,,,,,
0021300739,1610612754,IND,Indiana,203524,Solomon Hill,,DNP - Coach's Decision,,,,,,,0.0,,,,,,,0.0,,,2014-02-07T00:00:00,1,1610612757,POR,Portland,35-15,28,22,27,26,10,0,0,0,0,0,0,0,0,0,113,0.433,0.8,0.35,21,47,13,0021300739,1610612754,IND,Indiana,Solomon Hill,,DNP - Coach's Decision,,,,,,,,,,,,,
0021300739,1610612754,IND,Indiana,203524,Solomon Hill,,DNP - Coach's Decision,,,,,,,0.0,,,,,,,0.0,,,2014-02-07T00:00:00,1,1610612754,IND,Indiana,39-10,16,29,26,32,15,0,0,0,0,0,0,0,0,0,118,0.457,0.829,0.385,22,46,12,0021300739,1610612754,IND,Indiana,Solomon Hill,,DNP - Coach's Decision,,,,,,,,,,,,,
0021300739,1610612754,IND,Indiana,202388,Donald Sloan,,DNP - Coach's Decision,,,,,,,0.0,,,,,,,0.0,,,2014-02-07T00:00:00,1,1610612757,POR,Portland,35-15,28,22,27,26,10,0,0,0,0,0,0,0,0,0,113,0.433,0.8,0.35,21,47,13,0021300739,1610612754,IND,Indiana,Donald Sloan,,DNP - Coach's Decision,,,,,,,,,,,,,
0021300739,1610612754,IND,Indiana,202388,Donald Sloan,,DNP - Coach's Decision,,,,,,,0.0,,,,,,,0.0,,,2014-02-07T00:00:00,1,1610612754,IND,Indiana,39-10,16,29,26,32,15,0,0,0,0,0,0,0,0,0,118,0.457,0.829,0.385,22,46,12,0021300739,1610612754,IND,Indiana,Donald Sloan,,DNP - Coach's Decision,,,,,,,,,,,,,
0021300739,1610612754,IND,Indiana,202362,Lance Stephenson,,DND - Sore Lower Back,,,,,,,0.0,,,,,,,0.0,,,2014-02-07T00:00:00,1,1610612757,POR,Portland,35-15,28,22,27,26,10,0,0,0,0,0,0,0,0,0,113,0.433,0.8,0.35,21,47,13,0021300739,1610612754,IND,Indiana,Lance Stephenson,,DND - Sore Lower Back,,,,,,,,,,,,,
0021300739,1610612754,IND,Indiana,202362,Lance Stephenson,,DND - Sore Lower Back,,,,,,,0.0,,,,,,,0.0,,,2014-02-07T00:00:00,1,1610612754,IND,Indiana,39-10,16,29,26,32,15,0,0,0,0,0,0,0,0,0,118,0.457,0.829,0.385,22,46,12,0021300739,1610612754,IND,Indiana,Lance Stephenson,,DND - Sore Lower Back,,,,,,,,,,,,,
