GAME_ID_x,TEAM_ID_x,TEAM_ABBREVIATION_x,TEAM_CITY_x,PLAYER_ID,PLAYER_NAME_x,START_POSITION_x,COMMENT_x,MIN_x,OFF_RATING,DEF_RATING,NET_RATING,AST_PCT,AST_TOV,AST_RATIO,OREB_PCT,DREB_PCT,REB_PCT,TM_TOV_PCT,EFG_PCT,TS_PCT,USG_PCT,PACE,PIE,GAME_DATE_EST,GAME_SEQUENCE,TEAM_ABBREVIATION_y,TEAM_CITY_NAME,TEAM_WINS_LOSSES,PTS_QTR1,PTS_QTR2,PTS_QTR3,PTS_QTR4,PTS_OT1,PTS_OT2,PTS_OT3,PTS_OT4,PTS_OT5,PTS_OT6,PTS_OT7,PTS_OT8,PTS_OT9,PTS_OT10,PTS,FG_PCT,FT_PCT,FG3_PCT,AST,REB,TOV,GAME_ID_y,TEAM_ID_y,TEAM_ABBREVIATION,TEAM_CITY_y,PLAYER_NAME_y,START_POSITION_y,COMMENT_y,MIN_y,PTS_OFF_TOV,PTS_2ND_CHANCE,PTS_FB,PTS_PAINT,OPP_PTS_OFF_TOV,OPP_PTS_2ND_CHANCE,OPP_PTS_FB,OPP_PTS_PAINT,BLK,BLKA,PF,PFD
0021400589,1610612740,NOP,New Orleans,201583,Ryan Anderson,F,,34:46,74.7,113.2,-38.5,0.0,0.0,0.0,0.059,0.176,0.118,13.6,0.227,0.313,0.189,93.77,0.02,2015-01-16T00:00:00,3,NOP,New Orleans,19-20,22,25,12,22,0,0,0,0,0,0,0,0,0,0,81,0.387,0.655,0.235,17,55,18,0021400589,1610612740,NOP,New Orleans,Ryan Anderson,F,,34:46,1.0,0.0,0.0,0.0,17.0,9.0,10.0,34.0,0.0,2.0,1.0,3.0
0021400589,1610612740,NOP,New Orleans,201967,Dante Cunningham,F,,28:18,88.8,116.0,-27.2,0.067,1.0,11.1,0.04,0.111,0.077,11.1,0.429,0.429,0.129,93.35,0.039,2015-01-16T00:00:00,3,NOP,New Orleans,19-20,22,25,12,22,0,0,0,0,0,0,0,0,0,0,81,0.387,0.655,0.235,17,55,18,0021400589,1610612740,NOP,New Orleans,Dante Cunningham,F,,28:18,0.0,0.0,0.0,2.0,12.0,6.0,7.0,30.0,1.0,1.0,3.0,0.0
0021400589,1610612740,NOP,New Orleans,201600,Omer Asik,C,,20:04,57.3,112.7,-55.4,0.0,0.0,0.0,0.273,0.421,0.341,20.7,0.4,0.393,0.208,90.51,0.097,2015-01-16T00:00:00,3,NOP,New Orleans,19-20,22,25,12,22,0,0,0,0,0,0,0,0,0,0,81,0.387,0.655,0.235,17,55,18,0021400589,1610612740,NOP,New Orleans,Omer Asik,C,,20:04,0.0,5.0,3.0,4.0,10.0,4.0,8.0,20.0,1.0,2.0,4.0,3.0
0021400589,1610612740,NOP,New Orleans,201569,Eric Gordon,G,,34:14,74.8,103.8,-29.0,0.231,1.5,12.7,0.029,0.143,0.086,8.5,0.375,0.429,0.263,91.81,0.099,2015-01-16T00:00:00,3,NOP,New Orleans,19-20,22,25,12,22,0,0,0,0,0,0,0,0,0,0,81,0.387,0.655,0.235,17,55,18,0021400589,1610612740,NOP,New Orleans,Eric Gordon,G,,34:14,2.0,3.0,2.0,4.0,15.0,8.0,8.0,32.0,0.0,2.0,1.0,3.0
0021400589,1610612740,NOP,New Orleans,201936,Tyreke Evans,G,,32:17,77.2,115.8,-38.5,0.375,0.86,28.1,0.0,0.065,0.031,32.8,0.429,0.481,0.209,93.73,0.059,2015-01-16T00:00:00,3,NOP,New Orleans,19-20,22,25,12,22,0,0,0,0,0,0,0,0,0,0,81,0.387,0.655,0.235,17,55,18,0021400589,1610612740,NOP,New Orleans,Tyreke Evans,G,,32:17,0.0,0.0,7.0,6.0,17.0,7.0,10.0,30.0,2.0,2.0,0.0,3.0
0021400589,1610612740,NOP,New Orleans,201582,Alexis Ajinca,,,25:01,105.1,84.9,20.2,0.0,0.0,0.0,0.182,0.357,0.28,15.7,0.667,0.743,0.226,93.79,0.248,2015-01-16T00:00:00,3,NOP,New Orleans,19-20,22,25,12,22,0,0,0,0,0,0,0,0,0,0,81,0.387,0.655,0.235,17,55,18,0021400589,1610612740,NOP,New Orleans,Alexis Ajinca,,,25:01,0.0,4.0,2.0,12.0,10.0,8.0,2.0,18.0,1.0,0.0,4.0,2.0
0021400589,1610612740,NOP,New Orleans,202347,Quincy Pondexter,,,26:23,104.5,92.4,12.0,0.063,0.0,10.6,0.0,0.067,0.038,0.0,0.25,0.296,0.139,93.26,0.012,2015-01-16T00:00:00,3,NOP,New Orleans,19-20,22,25,12,22,0,0,0,0,0,0,0,0,0,0,81,0.387,0.655,0.235,17,55,18,0021400589,1610612740,NOP,New Orleans,Quincy Pondexter,,,26:23,0.0,0.0,0.0,4.0,5.0,9.0,2.0,22.0,0.0,0.0,2.0,2.0
0021400589,1610612740,NOP,New Orleans,202690,Jimmer Fredette,,,23:16,115.7,93.0,22.7,0.417,2.5,30.6,0.059,0.04,0.048,12.3,0.625,0.697,0.223,93.83,0.146,2015-01-16T00:00:00,3,NOP,New Orleans,19-20,22,25,12,22,0,0,0,0,0,0,0,0,0,0,81,0.387,0.655,0.235,17,55,18,0021400589,1610612740,NOP,New Orleans,Jimmer Fredette,,,23:16,2.0,2.0,0.0,10.0,5.0,10.0,2.0,20.0,0.0,1.0,3.0,3.0
0021400589,1610612740,NOP,New Orleans,202337,Luke Babbitt,,,6:20,98.4,74.5,23.9,0.0,0.0,0.0,0.0,0.143,0.077,0.0,0.75,0.521,0.218,92.01,0.154,2015-01-16T00:00:00,3,NOP,New Orleans,19-20,22,25,12,22,0,0,0,0,0,0,0,0,0,0,81,0.387,0.655,0.235,17,55,18,0021400589,1610612740,NOP,New Orleans,Luke Babbitt,,,6:20,0.0,0.0,3.0,0.0,3.0,3.0,1.0,2.0,0.0,0.0,0.0,1.0
0021400589,1610612740,NOP,New Orleans,203489,Nate Wolters,,,5:46,107.1,78.4,28.7,0.25,0.0,100.0,0.0,0.333,0.182,0.0,0.0,0.0,0.0,89.06,0.143,2015-01-16T00:00:00,3,NOP,New Orleans,19-20,22,25,12,22,0,0,0,0,0,0,0,0,0,0,81,0.387,0.655,0.235,17,55,18,0021400589,1610612740,NOP,New Orleans,Nate Wolters,,,5:46,0.0,0.0,0.0,0.0,3.0,3.0,0.0,2.0,0.0,0.0,1.0,0.0
0021400589,1610612740,NOP,New Orleans,203481,Jeff Withey,,,3:35,77.6,96.8,-19.1,0.0,0.0,0.0,0.0,0.0,0.0,0.0,0.0,0.0,0.269,84.66,-0.273,2015-01-16T00:00:00,3,NOP,New Orleans,19-20,22,25,12,22,0,0,0,0,0,0,0,0,0,0,81,0.387,0.655,0.235,17,55,18,0021400589,1610612740,NOP,New Orleans,Jeff Withey,,,3:35,0.0,0.0,0.0,0.0,3.0,3.0,0.0,0.0,1.0,0.0,0.0,0.0
0021400589,1610612740,NOP,New Orleans,203076,Anthony Davis,,DNP - Coach's Decision                  ,,,,,,,0.0,,,,,,,0.0,,,2015-01-16T00:00:00,3,NOP,New Orleans,19-20,22,25,12,22,0,0,0,0,0,0,0,0,0,0,81,0.387,0.655,0.235,17,55,18,0021400589,1610612740,NOP,New Orleans,Anthony Davis,,DNP - Coach's Decision                  ,,,,,,,,,,,,,
0021400589,1610612740,NOP,New Orleans,2422,John Salmons,,DNP - Coach's Decision                  ,,,,,,,0.0,,,,,,,0.0,,,2015-01-16T00:00:00,3,NOP,New Orleans,19-20,22,25,12,22,0,0,0,0,0,0,0,0,0,0,81,0.387,0.655,0.235,17,55,18,0021400589,1610612740,NOP,New Orleans,John Salmons,,DNP - Coach's Decision                  ,,,,,,,,,,,,,
0021400589,1610612755,PHI,Philadelphia,203496,Robert Covington,F,,32:48,123.2,75.4,47.8,0.125,0.0,14.9,0.034,0.161,0.1,0.0,0.429,0.527,0.244,92.56,0.161,2015-01-16T00:00:00,3,PHI,Philadelphia,8-31,33,17,23,23,0,0,0,0,0,0,0,0,0,0,96,0.45,0.63,0.318,22,39,8,0021400589,1610612755,PHI,Philadelphia,Robert Covington,F,,32:48,2.0,0.0,6.0,6.0,3.0,11.0,10.0,24.0,2.0,2.0,2.0,5.0
0021400589,1610612755,PHI,Philadelphia,201601,Luc Mbah a Moute,F,,31:28,113.5,84.1,29.4,0.05,0.0,9.1,0.065,0.067,0.066,0.0,0.65,0.65,0.152,91.07,0.113,2015-01-16T00:00:00,3,PHI,Philadelphia,8-31,33,17,23,23,0,0,0,0,0,0,0,0,0,0,96,0.45,0.63,0.318,22,39,8,0021400589,1610612755,PHI,Philadelphia,Luc Mbah a Moute,F,,31:28,7.0,2.0,2.0,6.0,1.0,12.0,10.0,28.0,0.0,1.0,3.0,0.0
0021400589,1610612755,PHI,Philadelphia,203457,Nerlens Noel,C,,32:46,105.1,75.4,29.7,0.111,0.0,14.5,0.063,0.281,0.172,0.0,0.7,0.723,0.173,91.67,0.313,2015-01-16T00:00:00,3,PHI,Philadelphia,8-31,33,17,23,23,0,0,0,0,0,0,0,0,0,0,96,0.45,0.63,0.318,22,39,8,0021400589,1610612755,PHI,Philadelphia,Nerlens Noel,C,,32:46,4.0,4.0,0.0,10.0,2.0,14.0,13.0,24.0,5.0,0.0,2.0,4.0
0021400589,1610612755,PHI,Philadelphia,203909,KJ McDaniels,G,,24:55,109.0,73.5,35.4,0.211,4.0,31.1,0.0,0.037,0.02,7.8,0.286,0.317,0.179,93.15,0.032,2015-01-16T00:00:00,3,PHI,Philadelphia,8-31,33,17,23,23,0,0,0,0,0,0,0,0,0,0,96,0.45,0.63,0.318,22,39,8,0021400589,1610612755,PHI,Philadelphia,KJ McDaniels,G,,24:55,2.0,0.0,0.0,2.0,2.0,11.0,7.0,20.0,1.0,0.0,2.0,1.0
0021400589,1610612755,PHI,Philadelphia,203487,Michael Carter-Williams,G,,34:27,106.4,73.8,32.5,0.389,2.33,21.8,0.031,0.147,0.091,9.4,0.5,0.498,0.354,92.07,0.211,2015-01-16T00:00:00,3,PHI,Philadelphia,8-31,33,17,23,23,0,0,0,0,0,0,0,0,0,0,96,0.45,0.63,0.318,22,39,8,0021400589,1610612755,PHI,Philadelphia,Michael Carter-Williams,G,,34:27,0.0,2.0,0.0,12.0,4.0,14.0,13.0,24.0,0.0,1.0,1.0,4.0
0021400589,1610612755,PHI,Philadelphia,203138,Hollis Thompson,,,20:55,92.1,107.2,-15.2,0.182,0.0,21.7,0.125,0.176,0.146,0.0,0.5,0.556,0.156,94.42,0.137,2015-01-16T00:00:00,3,PHI,Philadelphia,8-31,33,17,23,23,0,0,0,0,0,0,0,0,0,0,96,0.45,0.63,0.318,22,39,8,0021400589,1610612755,PHI,Philadelphia,Hollis Thompson,,,20:55,0.0,2.0,0.0,2.0,5.0,3.0,5.0,24.0,1.0,1.0,1.0,2.0
0021400589,1610612755,PHI,Philadelphia,203156,Henry Sims,,,10:39,81.9,108.7,-26.8,0.167,1.0,14.5,0.0,0.0,0.0,14.5,0.25,0.307,0.258,96.56,0.0,2015-01-16T00:00:00,3,PHI,Philadelphia,8-31,33,17,23,23,0,0,0,0,0,0,0,0,0,0,96,0.45,0.63,0.318,22,39,8,0021400589,1610612755,PHI,Philadelphia,Henry Sims,,,10:39,0.0,1.0,0.0,2.0,2.0,0.0,4.0,10.0,0.0,0.0,1.0,2.0
0021400589,1610612755,PHI,Philadelphia,203960,JaKarr Sampson,,,11:27,82.7,124.3,-41.6,0.143,1.0,20.0,0.0,0.1,0.042,20.0,0.0,0.0,0.162,92.76,-0.125,2015-01-16T00:00:00,3,PHI,Philadelphia,8-31,33,17,23,23,0,0,0,0,0,0,0,0,0,0,96,0.45,0.63,0.318,22,39,8,0021400589,1610612755,PHI,Philadelphia,JaKarr Sampson,,,11:27,0.0,0.0,0.0,0.0,0.0,2.0,10.0,14.0,0.0,0.0,3.0,0.0
0021400589,1610612755,PHI,Philadelphia,203924,Jerami Grant,,,25:02,85.7,92.2,-6.5,0.0,0.0,0.0,0.0,0.143,0.06,16.7,0.5,0.5,0.107,94.88,0.039,2015-01-16T00:00:00,3,PHI,Philadelphia,8-31,33,17,23,23,0,0,0,0,0,0,0,0,0,0,96,0.45,0.63,0.318,22,39,8,0021400589,1610612755,PHI,Philadelphia,Jerami Grant,,,25:02,2.0,0.0,2.0,2.0,5.0,3.0,9.0,22.0,1.0,1.0,4.0,0.0
0021400589,1610612755,PHI,Philadelphia,203580,Larry Drew II,,,13:33,96.0,121.2,-25.2,0.143,1.0,20.0,0.0,0.091,0.036,20.0,0.833,0.833,0.129,94.72,0.097,2015-01-16T00:00:00,3,PHI,Philadelphia,8-31,33,17,23,23,0,0,0,0,0,0,0,0,0,0,96,0.45,0.63,0.318,22,39,8,0021400589,1610612755,PHI,Philadelphia,Larry Drew II,,,13:33,3.0,3.0,0.0,0.0,1.0,0.0,4.0,18.0,0.0,0.0,0.0,1.0
0021400589,1610612755,PHI,Philadelphia,203128,Furkan Aldemir,,,2:00,100.0,87.2,12.8,0.0,0.0,0.0,0.0,0.0,0.0,0.0,0.0,0.0,0.0,77.28,-0.286,2015-01-16T00:00:00,3,PHI,Philadelphia,8-31,33,17,23,23,0,0,0,0,0,0,0,0,0,0,96,0.45,0.63,0.318,22,39,8,0021400589,1610612755,PHI,Philadelphia,Furkan Aldemir,,,2:00,0.0,0.0,0.0,0.0,0.0,0.0,0.0,2.0,0.0,0.0,1.0,0.0
0021400589,1610612755,PHI,Philadelphia,202952,Malcolm Thomas,,DNP - Coach's Decision                  ,,,,,,,0.0,,,,,,,0.0,,,2015-01-16T00:00:00,3,PHI,Philadelphia,8-31,33,17,23,23,0,0,0,0,0,0,0,0,0,0,96,0.45,0.63,0.318,22,39,8,0021400589,1610612755,PHI,Philadelphia,Malcolm Thomas,,DNP - Coach's Decision                  ,,,,,,,,,,,,,
0021400589,1610612755,PHI,Philadelphia,203100,Tony Wroten,,DND - Right Knee Sprain                 ,,,,,,,0.0,,,,,,,0.0,,,2015-01-16T00:00:00,3,PHI,Philadelphia,8-31,33,17,23,23,0,0,0,0,0,0,0,0,0,0,96,0.45,0.63,0.318,22,39,8,0021400589,1610612755,PHI,Philadelphia,Tony Wroten,,DND - Right Knee Sprain                 ,,,,,,,,,,,,,
