GAME_ID_x,TEAM_ID_x,TEAM_ABBREVIATION_x,TEAM_CITY_x,PLAYER_ID,PLAYER_NAME_x,START_POSITION_x,COMMENT_x,MIN_x,OFF_RATING,DEF_RATING,NET_RATING,AST_PCT,AST_TOV,AST_RATIO,OREB_PCT,DREB_PCT,REB_PCT,TM_TOV_PCT,EFG_PCT,TS_PCT,USG_PCT,PACE,PIE,GAME_DATE_EST,GAME_SEQUENCE,TEAM_ABBREVIATION_y,TEAM_CITY_NAME,TEAM_WINS_LOSSES,PTS_QTR1,PTS_QTR2,PTS_QTR3,PTS_QTR4,PTS_OT1,PTS_OT2,PTS_OT3,PTS_OT4,PTS_OT5,PTS_OT6,PTS_OT7,PTS_OT8,PTS_OT9,PTS_OT10,PTS,FG_PCT,FT_PCT,FG3_PCT,AST,REB,TOV,GAME_ID_y,TEAM_ID_y,TEAM_ABBREVIATION,TEAM_CITY_y,PLAYER_NAME_y,START_POSITION_y,COMMENT_y,MIN_y,PTS_OFF_TOV,PTS_2ND_CHANCE,PTS_FB,PTS_PAINT,OPP_PTS_OFF_TOV,OPP_PTS_2ND_CHANCE,OPP_PTS_FB,OPP_PTS_PAINT,BLK,BLKA,PF,PFD
0021400594,1610612743,DEN,Denver,201163,Wilson Chandler,F,,40:09,87.2,103.6,-16.4,0.048,0.33,6.3,0.021,0.125,0.068,18.8,0.417,0.417,0.166,95.19,0.013,2015-01-16T00:00:00,8,DEN,Denver,18-21,24,18,23,24,0,0,0,0,0,0,0,0,0,0,89,0.41,0.48,0.36,23,52,15,0021400594,1610612743,DEN,Denver,Wilson Chandler,F,,40:09,2.0,0.0,8.0,4.0,10.0,11.0,18.0,28.0,0.0,0.0,5.0,0.0
0021400594,1610612743,DEN,Denver,202702,Kenneth Faried,F,,27:37,91.2,114.0,-22.8,0.071,1.0,12.7,0.125,0.16,0.14,12.7,1.0,0.935,0.108,98.17,0.17,2015-01-16T00:00:00,8,DEN,Denver,18-21,24,18,23,24,0,0,0,0,0,0,0,0,0,0,89,0.41,0.48,0.36,23,52,15,0021400594,1610612743,DEN,Denver,Kenneth Faried,F,,27:37,0.0,6.0,2.0,10.0,10.0,8.0,16.0,20.0,2.0,0.0,2.0,4.0
0021400594,1610612743,DEN,Denver,203994,Jusuf Nurkic,C,,16:56,95.8,115.9,-20.0,0.0,0.0,0.0,0.13,0.188,0.154,0.0,0.143,0.143,0.165,100.66,-0.007,2015-01-16T00:00:00,8,DEN,Denver,18-21,24,18,23,24,0,0,0,0,0,0,0,0,0,0,89,0.41,0.48,0.36,23,52,15,0021400594,1610612743,DEN,Denver,Jusuf Nurkic,C,,16:56,0.0,0.0,0.0,2.0,8.0,6.0,14.0,14.0,0.0,0.0,2.0,0.0
0021400594,1610612743,DEN,Denver,201167,Arron Afflalo,G,,40:27,86.5,110.6,-24.1,0.0,0.0,0.0,0.0,0.132,0.057,5.4,0.441,0.459,0.201,94.55,0.063,2015-01-16T00:00:00,8,DEN,Denver,18-21,24,18,23,24,0,0,0,0,0,0,0,0,0,0,89,0.41,0.48,0.36,23,52,15,0021400594,1610612743,DEN,Denver,Arron Afflalo,G,,40:27,3.0,0.0,3.0,2.0,10.0,11.0,20.0,32.0,0.0,0.0,2.0,3.0
0021400594,1610612743,DEN,Denver,201951,Ty Lawson,G,,39:11,102.2,107.3,-5.0,0.429,0.0,41.4,0.023,0.128,0.073,0.0,0.269,0.324,0.194,96.46,0.073,2015-01-16T00:00:00,8,DEN,Denver,18-21,24,18,23,24,0,0,0,0,0,0,0,0,0,0,89,0.41,0.48,0.36,23,52,15,0021400594,1610612743,DEN,Denver,Ty Lawson,G,,39:11,0.0,0.0,6.0,4.0,10.0,9.0,18.0,30.0,0.0,1.0,3.0,7.0
0021400594,1610612743,DEN,Denver,201581,JJ Hickson,,,27:57,93.2,76.9,16.3,0.067,0.2,6.1,0.097,0.355,0.226,30.3,0.714,0.618,0.247,95.0,0.187,2015-01-16T00:00:00,8,DEN,Denver,18-21,24,18,23,24,0,0,0,0,0,0,0,0,0,0,89,0.41,0.48,0.36,23,52,15,0021400594,1610612743,DEN,Denver,JJ Hickson,,,27:57,6.0,4.0,1.0,10.0,2.0,3.0,4.0,18.0,0.0,0.0,3.0,6.0
0021400594,1610612743,DEN,Denver,2749,Jameer Nelson,,,27:46,89.4,87.1,2.2,0.5,1.75,26.6,0.0,0.125,0.067,15.2,0.429,0.457,0.324,95.03,0.094,2015-01-16T00:00:00,8,DEN,Denver,18-21,24,18,23,24,0,0,0,0,0,0,0,0,0,0,89,0.41,0.48,0.36,23,52,15,0021400594,1610612743,DEN,Denver,Jameer Nelson,,,27:46,0.0,0.0,6.0,4.0,0.0,5.0,6.0,16.0,0.0,1.0,6.0,2.0
0021400594,1610612743,DEN,Denver,201589,Darrell Arthur,,,16:27,90.7,93.0,-2.3,0.0,0.0,0.0,0.063,0.105,0.086,12.7,0.667,0.654,0.225,96.82,0.106,2015-01-16T00:00:00,8,DEN,Denver,18-21,24,18,23,24,0,0,0,0,0,0,0,0,0,0,89,0.41,0.48,0.36,23,52,15,0021400594,1610612743,DEN,Denver,Darrell Arthur,,,16:27,0.0,1.0,2.0,2.0,0.0,2.0,4.0,12.0,1.0,0.0,4.0,1.0
0021400594,1610612743,DEN,Denver,203475,Erick Green,,,1:24,125.0,0.0,125.0,0.5,0.0,100.0,0.0,0.0,0.0,0.0,0.0,0.0,0.0,117.94,0.667,2015-01-16T00:00:00,8,DEN,Denver,18-21,24,18,23,24,0,0,0,0,0,0,0,0,0,0,89,0.41,0.48,0.36,23,52,15,0021400594,1610612743,DEN,Denver,Erick Green,,,1:24,0.0,0.0,0.0,0.0,0.0,0.0,0.0,0.0,0.0,0.0,0.0,0.0
0021400594,1610612743,DEN,Denver,203914,Gary Harris,,,1:24,125.0,0.0,125.0,0.0,0.0,0.0,0.0,0.0,0.0,0.0,0.0,0.0,0.0,117.94,0.0,2015-01-16T00:00:00,8,DEN,Denver,18-21,24,18,23,24,0,0,0,0,0,0,0,0,0,0,89,0.41,0.48,0.36,23,52,15,0021400594,1610612743,DEN,Denver,Gary Harris,,,1:24,0.0,0.0,0.0,0.0,0.0,0.0,0.0,0.0,0.0,0.0,0.0,0.0
0021400594,1610612743,DEN,Denver,202087,Alonzo Gee,,,0:41,150.0,0.0,150.0,0.0,0.0,0.0,0.0,0.0,0.0,0.0,0.75,0.75,1.0,104.35,0.5,2015-01-16T00:00:00,8,DEN,Denver,18-21,24,18,23,24,0,0,0,0,0,0,0,0,0,0,89,0.41,0.48,0.36,23,52,15,0021400594,1610612743,DEN,Denver,Alonzo Gee,,,0:41,3.0,0.0,0.0,0.0,0.0,0.0,0.0,0.0,0.0,0.0,0.0,0.0
0021400594,1610612742,DAL,Dallas,202718,Chandler Parsons,F,,36:14,101.1,97.1,4.0,0.105,0.0,12.8,0.028,0.136,0.088,0.0,0.591,0.66,0.17,96.28,0.193,2015-01-16T00:00:00,8,DAL,Dallas,28-13,29,20,24,24,0,0,0,0,0,0,0,0,0,0,97,0.418,0.793,0.32,22,52,14,0021400594,1610612742,DAL,Dallas,Chandler Parsons,F,,36:14,2.0,2.0,6.0,10.0,12.0,11.0,22.0,32.0,0.0,0.0,0.0,4.0
0021400594,1610612742,DAL,Dallas,1717,Dirk Nowitzki,F,,30:02,112.6,89.3,23.3,0.056,0.0,4.7,0.038,0.276,0.164,0.0,0.556,0.619,0.305,98.0,0.215,2015-01-16T00:00:00,8,DAL,Dallas,28-13,29,20,24,24,0,0,0,0,0,0,0,0,0,0,97,0.418,0.793,0.32,22,52,14,0021400594,1610612742,DAL,Dallas,Dirk Nowitzki,F,,30:02,2.0,2.0,9.0,2.0,7.0,0.0,25.0,20.0,0.0,0.0,2.0,6.0
0021400594,1610612742,DAL,Dallas,2199,Tyson Chandler,C,,33:32,113.1,86.3,26.8,0.05,0.5,11.4,0.133,0.279,0.219,22.8,1.0,0.955,0.108,92.06,0.23,2015-01-16T00:00:00,8,DAL,Dallas,28-13,29,20,24,24,0,0,0,0,0,0,0,0,0,0,97,0.418,0.793,0.32,22,52,14,0021400594,1610612742,DAL,Dallas,Tyson Chandler,C,,33:32,2.0,5.0,0.0,6.0,7.0,11.0,18.0,26.0,1.0,0.0,2.0,5.0
0021400594,1610612742,DAL,Dallas,101145,Monta Ellis,G,,32:44,107.2,92.4,14.8,0.222,1.0,17.1,0.0,0.025,0.014,17.1,0.433,0.453,0.262,96.19,0.03,2015-01-16T00:00:00,8,DAL,Dallas,28-13,29,20,24,24,0,0,0,0,0,0,0,0,0,0,97,0.418,0.793,0.32,22,52,14,0021400594,1610612742,DAL,Dallas,Monta Ellis,G,,32:44,2.0,0.0,0.0,8.0,9.0,11.0,18.0,30.0,0.0,0.0,4.0,0.0
0021400594,1610612742,DAL,Dallas,200765,Rajon Rondo,G,,28:34,109.4,84.7,24.7,0.364,1.6,40.2,0.0,0.273,0.158,25.2,0.167,0.145,0.187,97.73,0.054,2015-01-16T00:00:00,8,DAL,Dallas,28-13,29,20,24,24,0,0,0,0,0,0,0,0,0,0,97,0.418,0.793,0.32,22,52,14,0021400594,1610612742,DAL,Dallas,Rajon Rondo,G,,28:34,2.0,0.0,0.0,0.0,10.0,6.0,20.0,20.0,0.0,0.0,3.0,2.0
0021400594,1610612742,DAL,Dallas,2734,Devin Harris,,,17:09,92.8,107.3,-14.5,0.111,0.0,12.9,0.0,0.0,0.0,0.0,0.3,0.444,0.176,96.28,0.0,2015-01-16T00:00:00,8,DAL,Dallas,28-13,29,20,24,24,0,0,0,0,0,0,0,0,0,0,97,0.418,0.793,0.32,22,52,14,0021400594,1610612742,DAL,Dallas,Devin Harris,,,17:09,0.0,0.0,1.0,0.0,2.0,4.0,8.0,16.0,0.0,1.0,2.0,2.0
0021400594,1610612742,DAL,Dallas,202329,Al-Farouq Aminu,,,17:49,84.1,101.0,-16.9,0.333,2.0,17.2,0.136,0.08,0.106,8.6,0.167,0.463,0.238,94.46,0.122,2015-01-16T00:00:00,8,DAL,Dallas,28-13,29,20,24,24,0,0,0,0,0,0,0,0,0,0,97,0.418,0.793,0.32,22,52,14,0021400594,1610612742,DAL,Dallas,Al-Farouq Aminu,,,17:49,0.0,2.0,4.0,2.0,7.0,10.0,3.0,18.0,1.0,1.0,3.0,4.0
0021400594,1610612742,DAL,Dallas,203939,Dwight Powell,,,14:28,75.6,106.2,-30.6,0.0,0.0,0.0,0.0,0.083,0.032,20.0,0.5,0.5,0.143,106.39,0.019,2015-01-16T00:00:00,8,DAL,Dallas,28-13,29,20,24,24,0,0,0,0,0,0,0,0,0,0,97,0.418,0.793,0.32,22,52,14,0021400594,1610612742,DAL,Dallas,Dwight Powell,,,14:28,0.0,0.0,0.0,2.0,7.0,0.0,10.0,12.0,0.0,0.0,3.0,1.0
0021400594,1610612742,DAL,Dallas,200826,J.J. Barea,,,17:33,79.1,91.6,-12.5,0.4,2.0,19.2,0.0,0.125,0.054,9.6,0.643,0.605,0.226,94.65,0.156,2015-01-16T00:00:00,8,DAL,Dallas,28-13,29,20,24,24,0,0,0,0,0,0,0,0,0,0,97,0.418,0.793,0.32,22,52,14,0021400594,1610612742,DAL,Dallas,J.J. Barea,,,17:33,0.0,0.0,0.0,4.0,7.0,1.0,10.0,10.0,0.0,1.0,2.0,2.0
0021400594,1610612742,DAL,Dallas,2210,Richard Jefferson,,,11:55,89.3,74.7,14.6,0.125,0.0,25.0,0.071,0.083,0.077,0.0,0.0,0.0,0.113,95.46,-0.054,2015-01-16T00:00:00,8,DAL,Dallas,28-13,29,20,24,24,0,0,0,0,0,0,0,0,0,0,97,0.418,0.793,0.32,22,52,14,0021400594,1610612742,DAL,Dallas,Richard Jefferson,,,11:55,0.0,0.0,0.0,0.0,2.0,1.0,6.0,6.0,0.0,0.0,2.0,1.0
0021400594,1610612742,DAL,Dallas,101109,Raymond Felton,,DNP - Coach's Decision                  ,,,,,,,0.0,,,,,,,0.0,,,2015-01-16T00:00:00,8,DAL,Dallas,28-13,29,20,24,24,0,0,0,0,0,0,0,0,0,0,97,0.418,0.793,0.32,22,52,14,0021400594,1610612742,DAL,Dallas,Raymond Felton,,DNP - Coach's Decision                  ,,,,,,,,,,,,,
0021400594,1610612742,DAL,Dallas,202962,Greg Smith,,DNP - Coach's Decision                  ,,,,,,,0.0,,,,,,,0.0,,,2015-01-16T00:00:00,8,DAL,Dallas,28-13,29,20,24,24,0,0,0,0,0,0,0,0,0,0,97,0.418,0.793,0.32,22,52,14,0021400594,1610612742,DAL,Dallas,Greg Smith,,DNP - Coach's Decision                  ,,,,,,,,,,,,,
0021400594,1610612742,DAL,Dallas,101111,Charlie Villanueva,,DNP - Coach's Decision                  ,,,,,,,0.0,,,,,,,0.0,,,2015-01-16T00:00:00,8,DAL,Dallas,28-13,29,20,24,24,0,0,0,0,0,0,0,0,0,0,97,0.418,0.793,0.32,22,52,14,0021400594,1610612742,DAL,Dallas,Charlie Villanueva,,DNP - Coach's Decision                  ,,,,,,,,,,,,,
