GAME_ID_x,TEAM_ID_x,TEAM_ABBREVIATION_x,TEAM_CITY_x,PLAYER_ID,PLAYER_NAME_x,START_POSITION_x,COMMENT_x,MIN_x,OFF_RATING,DEF_RATING,NET_RATING,AST_PCT,AST_TOV,AST_RATIO,OREB_PCT,DREB_PCT,REB_PCT,TM_TOV_PCT,EFG_PCT,TS_PCT,USG_PCT,PACE,PIE,GAME_DATE_EST,GAME_SEQUENCE,TEAM_ABBREVIATION_y,TEAM_CITY_NAME,TEAM_WINS_LOSSES,PTS_QTR1,PTS_QTR2,PTS_QTR3,PTS_QTR4,PTS_OT1,PTS_OT2,PTS_OT3,PTS_OT4,PTS_OT5,PTS_OT6,PTS_OT7,PTS_OT8,PTS_OT9,PTS_OT10,PTS,FG_PCT,FT_PCT,FG3_PCT,AST,REB,TOV,GAME_ID_y,TEAM_ID_y,TEAM_ABBREVIATION,TEAM_CITY_y,PLAYER_NAME_y,START_POSITION_y,COMMENT_y,MIN_y,PTS_OFF_TOV,PTS_2ND_CHANCE,PTS_FB,PTS_PAINT,OPP_PTS_OFF_TOV,OPP_PTS_2ND_CHANCE,OPP_PTS_FB,OPP_PTS_PAINT,BLK,BLKA,PF,PFD
0021400608,1610612740,NOP,New Orleans,201967,Dante Cunningham,F,,28:14,89.4,92.6,-3.2,0.053,0.0,14.5,0.038,0.143,0.085,0.0,0.2,0.17,0.098,91.61,0.033,2015-01-18T00:00:00,1,NOP,New Orleans,20-20,21,29,14,31,0,0,0,0,0,0,0,0,0,0,95,0.476,0.6,0.294,19,41,17,0021400608,1610612740,NOP,New Orleans,Dante Cunningham,F,,28:14,0.0,2.0,0.0,2.0,7.0,6.0,7.0,20.0,0.0,1.0,1.0,1.0
0021400608,1610612740,NOP,New Orleans,201583,Ryan Anderson,F,,26:46,80.8,122.8,-42.1,0.143,0.67,11.8,0.087,0.143,0.108,17.8,0.364,0.379,0.249,97.41,-0.023,2015-01-18T00:00:00,1,NOP,New Orleans,20-20,21,29,14,31,0,0,0,0,0,0,0,0,0,0,95,0.476,0.6,0.294,19,41,17,0021400608,1610612740,NOP,New Orleans,Ryan Anderson,F,,26:46,0.0,2.0,0.0,2.0,19.0,4.0,15.0,26.0,0.0,0.0,4.0,2.0
0021400608,1610612740,NOP,New Orleans,201600,Omer Asik,C,,31:46,97.5,89.3,8.2,0.0,0.0,0.0,0.111,0.214,0.164,8.4,0.5,0.506,0.166,95.35,0.112,2015-01-18T00:00:00,1,NOP,New Orleans,20-20,21,29,14,31,0,0,0,0,0,0,0,0,0,0,95,0.476,0.6,0.294,19,41,17,0021400608,1610612740,NOP,New Orleans,Omer Asik,C,,31:46,2.0,0.0,0.0,10.0,12.0,7.0,9.0,22.0,0.0,2.0,2.0,2.0
0021400608,1610612740,NOP,New Orleans,201569,Eric Gordon,G,,36:13,97.4,91.9,5.5,0.227,1.0,19.7,0.0,0.185,0.088,19.7,0.433,0.453,0.256,93.76,0.078,2015-01-18T00:00:00,1,NOP,New Orleans,20-20,21,29,14,31,0,0,0,0,0,0,0,0,0,0,95,0.476,0.6,0.294,19,41,17,0021400608,1610612740,NOP,New Orleans,Eric Gordon,G,,36:13,2.0,2.0,5.0,10.0,11.0,6.0,11.0,24.0,0.0,0.0,3.0,3.0
0021400608,1610612740,NOP,New Orleans,201936,Tyreke Evans,G,,36:18,97.4,97.7,-0.3,0.263,1.25,18.5,0.032,0.16,0.089,14.8,0.679,0.724,0.268,94.23,0.213,2015-01-18T00:00:00,1,NOP,New Orleans,20-20,21,29,14,31,0,0,0,0,0,0,0,0,0,0,95,0.476,0.6,0.294,19,41,17,0021400608,1610612740,NOP,New Orleans,Tyreke Evans,G,,36:18,6.0,4.0,4.0,16.0,14.0,4.0,11.0,26.0,0.0,1.0,2.0,6.0
0021400608,1610612740,NOP,New Orleans,202347,Quincy Pondexter,,,23:22,92.4,106.6,-14.2,0.0,0.0,0.0,0.048,0.263,0.15,0.0,0.2,0.184,0.098,98.09,0.013,2015-01-18T00:00:00,1,NOP,New Orleans,20-20,21,29,14,31,0,0,0,0,0,0,0,0,0,0,95,0.476,0.6,0.294,19,41,17,0021400608,1610612740,NOP,New Orleans,Quincy Pondexter,,,23:22,0.0,2.0,0.0,2.0,18.0,5.0,8.0,16.0,1.0,0.0,2.0,3.0
0021400608,1610612740,NOP,New Orleans,201582,Alexis Ajinca,,,33:56,117.2,101.6,15.6,0.125,3.0,16.8,0.08,0.148,0.115,5.6,0.769,0.793,0.193,92.83,0.2,2015-01-18T00:00:00,1,NOP,New Orleans,20-20,21,29,14,31,0,0,0,0,0,0,0,0,0,0,95,0.476,0.6,0.294,19,41,17,0021400608,1610612740,NOP,New Orleans,Alexis Ajinca,,,33:56,6.0,4.0,0.0,16.0,13.0,5.0,6.0,18.0,1.0,1.0,5.0,1.0
0021400608,1610612740,NOP,New Orleans,203489,Nate Wolters,,,6:59,90.7,99.5,-8.8,0.167,0.5,16.7,0.167,0.0,0.067,33.3,0.333,0.333,0.287,104.89,-0.021,2015-01-18T00:00:00,1,NOP,New Orleans,20-20,21,29,14,31,0,0,0,0,0,0,0,0,0,0,95,0.476,0.6,0.294,19,41,17,0021400608,1610612740,NOP,New Orleans,Nate Wolters,,,6:59,0.0,0.0,0.0,2.0,5.0,3.0,4.0,6.0,0.0,0.0,1.0,0.0
0021400608,1610612740,NOP,New Orleans,202690,Jimmer Fredette,,,16:26,103.8,108.2,-4.4,0.154,2.0,21.2,0.0,0.067,0.032,10.6,0.583,0.543,0.183,100.65,0.093,2015-01-18T00:00:00,1,NOP,New Orleans,20-20,21,29,14,31,0,0,0,0,0,0,0,0,0,0,95,0.476,0.6,0.294,19,41,17,0021400608,1610612740,NOP,New Orleans,Jimmer Fredette,,,16:26,0.0,2.0,2.0,2.0,11.0,5.0,4.0,12.0,0.0,0.0,0.0,0.0
0021400608,1610612740,NOP,New Orleans,202337,Luke Babbitt,,DNP - Coach's Decision                  ,,,,,,,0.0,,,,,,,0.0,,,2015-01-18T00:00:00,1,NOP,New Orleans,20-20,21,29,14,31,0,0,0,0,0,0,0,0,0,0,95,0.476,0.6,0.294,19,41,17,0021400608,1610612740,NOP,New Orleans,Luke Babbitt,,DNP - Coach's Decision                  ,,,,,,,,,,,,,
0021400608,1610612740,NOP,New Orleans,203076,Anthony Davis,,DNP - Coach's Decision                  ,,,,,,,0.0,,,,,,,0.0,,,2015-01-18T00:00:00,1,NOP,New Orleans,20-20,21,29,14,31,0,0,0,0,0,0,0,0,0,0,95,0.476,0.6,0.294,19,41,17,0021400608,1610612740,NOP,New Orleans,Anthony Davis,,DNP - Coach's Decision                  ,,,,,,,,,,,,,
0021400608,1610612740,NOP,New Orleans,2422,John Salmons,,DNP - Coach's Decision                  ,,,,,,,0.0,,,,,,,0.0,,,2015-01-18T00:00:00,1,NOP,New Orleans,20-20,21,29,14,31,0,0,0,0,0,0,0,0,0,0,95,0.476,0.6,0.294,19,41,17,0021400608,1610612740,NOP,New Orleans,John Salmons,,DNP - Coach's Decision                  ,,,,,,,,,,,,,
0021400608,1610612740,NOP,New Orleans,203481,Jeff Withey,,DNP - Coach's Decision                  ,,,,,,,0.0,,,,,,,0.0,,,2015-01-18T00:00:00,1,NOP,New Orleans,20-20,21,29,14,31,0,0,0,0,0,0,0,0,0,0,95,0.476,0.6,0.294,19,41,17,0021400608,1610612740,NOP,New Orleans,Jeff Withey,,DNP - Coach's Decision                  ,,,,,,,,,,,,,
0021400608,1610612761,TOR,Toronto,203082,Terrence Ross,F,,10:44,47.7,105.3,-57.6,0.0,0.0,0.0,0.0,0.091,0.05,0.0,0.0,0.0,0.151,84.7,-0.093,2015-01-18T00:00:00,1,TOR,Toronto,26-14,14,22,35,22,0,0,0,0,0,0,0,0,0,0,93,0.431,0.828,0.28,18,37,15,0021400608,1610612761,TOR,Toronto,Terrence Ross,F,,10:44,0.0,0.0,0.0,0.0,2.0,2.0,2.0,14.0,0.0,0.0,0.0,0.0
0021400608,1610612761,TOR,Toronto,101161,Amir Johnson,F,,31:47,82.7,104.4,-21.7,0.0,0.0,0.0,0.115,0.269,0.192,10.2,0.857,0.799,0.154,91.76,0.213,2015-01-18T00:00:00,1,TOR,Toronto,26-14,14,22,35,22,0,0,0,0,0,0,0,0,0,0,93,0.431,0.828,0.28,18,37,15,0021400608,1610612761,TOR,Toronto,Amir Johnson,F,,31:47,2.0,4.0,2.0,12.0,12.0,10.0,9.0,48.0,2.0,0.0,1.0,3.0
0021400608,1610612761,TOR,Toronto,202685,Jonas Valanciunas,C,,27:58,86.9,88.2,-1.3,0.0,0.0,0.0,0.05,0.25,0.159,33.8,0.4,0.51,0.156,94.12,0.072,2015-01-18T00:00:00,1,TOR,Toronto,26-14,14,22,35,22,0,0,0,0,0,0,0,0,0,0,93,0.431,0.828,0.28,18,37,15,0021400608,1610612761,TOR,Toronto,Jonas Valanciunas,C,,27:58,0.0,0.0,0.0,4.0,12.0,10.0,7.0,32.0,2.0,0.0,3.0,2.0
0021400608,1610612761,TOR,Toronto,201942,DeMar DeRozan,G,,35:54,96.3,91.9,4.4,0.067,1.0,4.2,0.0,0.1,0.053,4.2,0.417,0.501,0.308,95.25,0.099,2015-01-18T00:00:00,1,TOR,Toronto,26-14,14,22,35,22,0,0,0,0,0,0,0,0,0,0,93,0.431,0.828,0.28,18,37,15,0021400608,1610612761,TOR,Toronto,DeMar DeRozan,G,,35:54,4.0,0.0,7.0,4.0,12.0,12.0,9.0,44.0,0.0,2.0,3.0,4.0
0021400608,1610612761,TOR,Toronto,200768,Kyle Lowry,G,,37:37,93.9,92.5,1.4,0.25,1.25,26.3,0.074,0.1,0.088,21.1,0.4,0.4,0.183,93.12,0.069,2015-01-18T00:00:00,1,TOR,Toronto,26-14,14,22,35,22,0,0,0,0,0,0,0,0,0,0,93,0.431,0.828,0.28,18,37,15,0021400608,1610612761,TOR,Toronto,Kyle Lowry,G,,37:37,0.0,2.0,0.0,6.0,12.0,12.0,7.0,44.0,0.0,0.0,2.0,2.0
0021400608,1610612761,TOR,Toronto,101150,Lou Williams,,,20:42,114.0,109.1,4.9,0.111,0.0,6.9,0.0,0.0,0.0,0.0,0.444,0.634,0.296,97.76,0.19,2015-01-18T00:00:00,1,TOR,Toronto,26-14,14,22,35,22,0,0,0,0,0,0,0,0,0,0,93,0.431,0.828,0.28,18,37,15,0021400608,1610612761,TOR,Toronto,Lou Williams,,,20:42,4.0,0.0,6.0,6.0,6.0,10.0,4.0,32.0,0.0,0.0,0.0,4.0
0021400608,1610612761,TOR,Toronto,201946,Tyler Hansbrough,,,11:49,117.0,96.5,20.5,0.0,0.0,0.0,0.0,0.182,0.1,0.0,0.0,0.0,0.0,97.41,0.026,2015-01-18T00:00:00,1,TOR,Toronto,26-14,14,22,35,22,0,0,0,0,0,0,0,0,0,0,93,0.431,0.828,0.28,18,37,15,0021400608,1610612761,TOR,Toronto,Tyler Hansbrough,,,11:49,0.0,0.0,0.0,0.0,2.0,6.0,2.0,12.0,0.0,0.0,1.0,3.0
0021400608,1610612761,TOR,Toronto,202335,Patrick Patterson,,,24:26,127.4,98.6,28.8,0.059,0.0,14.5,0.053,0.095,0.075,0.0,0.8,0.85,0.108,100.15,0.098,2015-01-18T00:00:00,1,TOR,Toronto,26-14,14,22,35,22,0,0,0,0,0,0,0,0,0,0,93,0.431,0.828,0.28,18,37,15,0021400608,1610612761,TOR,Toronto,Patrick Patterson,,,24:26,6.0,0.0,0.0,0.0,6.0,10.0,4.0,32.0,1.0,0.0,4.0,1.0
0021400608,1610612761,TOR,Toronto,202349,Greivis Vasquez,,,28:03,110.4,91.9,18.5,0.563,3.0,33.5,0.0,0.083,0.043,11.2,0.5,0.538,0.288,100.93,0.142,2015-01-18T00:00:00,1,TOR,Toronto,26-14,14,22,35,22,0,0,0,0,0,0,0,0,0,0,93,0.431,0.828,0.28,18,37,15,0021400608,1610612761,TOR,Toronto,Greivis Vasquez,,,28:03,6.0,3.0,0.0,2.0,12.0,12.0,9.0,36.0,0.0,0.0,3.0,1.0
0021400608,1610612761,TOR,Toronto,201949,James Johnson,,,10:60,128.7,113.6,15.1,0.111,0.33,20.0,0.0,0.4,0.25,60.0,0.0,0.0,0.189,94.01,0.0,2015-01-18T00:00:00,1,TOR,Toronto,26-14,14,22,35,22,0,0,0,0,0,0,0,0,0,0,93,0.431,0.828,0.28,18,37,15,0021400608,1610612761,TOR,Toronto,James Johnson,,,10:60,0.0,0.0,0.0,0.0,4.0,6.0,2.0,16.0,0.0,0.0,1.0,0.0
0021400608,1610612761,TOR,Toronto,202361,Landry Fields,,DNP - Coach's Decision                  ,,,,,,,0.0,,,,,,,0.0,,,2015-01-18T00:00:00,1,TOR,Toronto,26-14,14,22,35,22,0,0,0,0,0,0,0,0,0,0,93,0.431,0.828,0.28,18,37,15,0021400608,1610612761,TOR,Toronto,Landry Fields,,DNP - Coach's Decision                  ,,,,,,,,,,,,,
0021400608,1610612761,TOR,Toronto,101236,Chuck Hayes,,DNP - Coach's Decision                  ,,,,,,,0.0,,,,,,,0.0,,,2015-01-18T00:00:00,1,TOR,Toronto,26-14,14,22,35,22,0,0,0,0,0,0,0,0,0,0,93,0.431,0.828,0.28,18,37,15,0021400608,1610612761,TOR,Toronto,Chuck Hayes,,DNP - Coach's Decision                  ,,,,,,,,,,,,,
0021400608,1610612761,TOR,Toronto,201880,Greg Stiemsma,,DNP - Coach's Decision                  ,,,,,,,0.0,,,,,,,0.0,,,2015-01-18T00:00:00,1,TOR,Toronto,26-14,14,22,35,22,0,0,0,0,0,0,0,0,0,0,93,0.431,0.828,0.28,18,37,15,0021400608,1610612761,TOR,Toronto,Greg Stiemsma,,DNP - Coach's Decision                  ,,,,,,,,,,,,,
