GAME_ID_x,TEAM_ID_x,TEAM_ABBREVIATION_x,TEAM_CITY_x,PLAYER_ID,PLAYER_NAME_x,START_POSITION_x,COMMENT_x,MIN_x,OFF_RATING,DEF_RATING,NET_RATING,AST_PCT,AST_TOV,AST_RATIO,OREB_PCT,DREB_PCT,REB_PCT,TM_TOV_PCT,EFG_PCT,TS_PCT,USG_PCT,PACE,PIE,GAME_DATE_EST,GAME_SEQUENCE,TEAM_ABBREVIATION_y,TEAM_CITY_NAME,TEAM_WINS_LOSSES,PTS_QTR1,PTS_QTR2,PTS_QTR3,PTS_QTR4,PTS_OT1,PTS_OT2,PTS_OT3,PTS_OT4,PTS_OT5,PTS_OT6,PTS_OT7,PTS_OT8,PTS_OT9,PTS_OT10,PTS,FG_PCT,FT_PCT,FG3_PCT,AST,REB,TOV,GAME_ID_y,TEAM_ID_y,TEAM_ABBREVIATION,TEAM_CITY_y,PLAYER_NAME_y,START_POSITION_y,COMMENT_y,MIN_y,PTS_OFF_TOV,PTS_2ND_CHANCE,PTS_FB,PTS_PAINT,OPP_PTS_OFF_TOV,OPP_PTS_2ND_CHANCE,OPP_PTS_FB,OPP_PTS_PAINT,BLK,BLKA,PF,PFD
0021400640,1610612751,BKN,Brooklyn,2207,Joe Johnson,F,,25:44,72.5,140.1,-67.6,0.273,1.5,17.6,0.043,0.333,0.158,11.8,0.375,0.375,0.253,96.81,0.069,2015-01-22T00:00:00,4,BKN,Brooklyn,18-25,23,14,19,28,0,0,0,0,0,0,0,0,0,0,84,0.375,0.56,0.19,17,40,12,0021400640,1610612751,BKN,Brooklyn,Joe Johnson,F,,25:44,0.0,0.0,0.0,6.0,17.0,2.0,18.0,34.0,0.0,0.0,1.0,0.0
0021400640,1610612751,BKN,Brooklyn,203486,Mason Plumlee,F,,25:22,79.3,149.1,-69.9,0.091,0.5,5.9,0.04,0.133,0.075,11.9,0.667,0.578,0.284,97.15,0.064,2015-01-22T00:00:00,4,BKN,Brooklyn,18-25,23,14,19,28,0,0,0,0,0,0,0,0,0,0,84,0.375,0.56,0.19,17,40,12,0021400640,1610612751,BKN,Brooklyn,Mason Plumlee,F,,25:22,4.0,0.0,6.0,12.0,15.0,9.0,21.0,38.0,0.0,0.0,2.0,7.0
0021400640,1610612751,BKN,Brooklyn,201572,Brook Lopez,C,,24:23,72.3,141.8,-69.5,0.0,0.0,0.0,0.0,0.059,0.024,20.5,0.333,0.515,0.093,94.85,-0.005,2015-01-22T00:00:00,4,BKN,Brooklyn,18-25,23,14,19,28,0,0,0,0,0,0,0,0,0,0,84,0.375,0.56,0.19,17,40,12,0021400640,1610612751,BKN,Brooklyn,Brook Lopez,C,,24:23,2.0,0.0,0.0,2.0,15.0,7.0,18.0,30.0,1.0,0.0,3.0,1.0
0021400640,1610612751,BKN,Brooklyn,202711,Bojan Bogdanovic,G,,13:25,111.2,131.4,-20.2,0.0,0.0,0.0,0.0,0.0,0.0,0.0,0.0,0.0,0.036,95.67,-0.016,2015-01-22T00:00:00,4,BKN,Brooklyn,18-25,23,14,19,28,0,0,0,0,0,0,0,0,0,0,84,0.375,0.56,0.19,17,40,12,0021400640,1610612751,BKN,Brooklyn,Bojan Bogdanovic,G,,13:25,0.0,0.0,0.0,0.0,2.0,9.0,7.0,20.0,0.0,0.0,0.0,0.0
0021400640,1610612751,BKN,Brooklyn,101127,Jarrett Jack,G,,27:12,73.7,143.1,-69.4,0.231,0.75,16.7,0.0,0.056,0.023,22.2,0.318,0.318,0.257,96.0,0.008,2015-01-22T00:00:00,4,BKN,Brooklyn,18-25,23,14,19,28,0,0,0,0,0,0,0,0,0,0,84,0.375,0.56,0.19,17,40,12,0021400640,1610612751,BKN,Brooklyn,Jarrett Jack,G,,27:12,0.0,0.0,0.0,0.0,17.0,7.0,17.0,40.0,0.0,2.0,1.0,1.0
0021400640,1610612751,BKN,Brooklyn,101187,Alan Anderson,,,16:21,52.5,128.7,-76.2,0.2,0.0,12.5,0.083,0.143,0.105,0.0,0.429,0.429,0.174,103.34,0.122,2015-01-22T00:00:00,4,BKN,Brooklyn,18-25,23,14,19,28,0,0,0,0,0,0,0,0,0,0,84,0.375,0.56,0.19,17,40,12,0021400640,1610612751,BKN,Brooklyn,Alan Anderson,,,16:21,4.0,2.0,2.0,6.0,7.0,7.0,16.0,22.0,0.0,1.0,1.0,0.0
0021400640,1610612751,BKN,Brooklyn,202721,Darius Morris,,,20:48,103.0,105.3,-2.3,0.333,0.0,23.5,0.0,0.0,0.0,0.0,0.423,0.423,0.242,98.58,0.06,2015-01-22T00:00:00,4,BKN,Brooklyn,18-25,23,14,19,28,0,0,0,0,0,0,0,0,0,0,84,0.375,0.56,0.19,17,40,12,0021400640,1610612751,BKN,Brooklyn,Darius Morris,,,20:48,2.0,3.0,4.0,8.0,0.0,8.0,11.0,16.0,0.0,2.0,2.0,1.0
0021400640,1610612751,BKN,Brooklyn,203141,Mirza Teletovic,,,7:30,45.3,138.2,-92.8,0.333,1.0,20.0,0.0,0.2,0.063,20.0,0.0,0.0,0.243,98.05,-0.107,2015-01-22T00:00:00,4,BKN,Brooklyn,18-25,23,14,19,28,0,0,0,0,0,0,0,0,0,0,84,0.375,0.56,0.19,17,40,12,0021400640,1610612751,BKN,Brooklyn,Mirza Teletovic,,,7:30,0.0,0.0,0.0,0.0,2.0,2.0,7.0,10.0,0.0,0.0,1.0,0.0
0021400640,1610612751,BKN,Brooklyn,203508,Sergey Karasev,,,14:29,109.0,118.1,-9.1,0.091,1.0,16.7,0.053,0.091,0.067,16.7,0.375,0.375,0.141,94.72,0.024,2015-01-22T00:00:00,4,BKN,Brooklyn,18-25,23,14,19,28,0,0,0,0,0,0,0,0,0,0,84,0.375,0.56,0.19,17,40,12,0021400640,1610612751,BKN,Brooklyn,Sergey Karasev,,,14:29,0.0,0.0,0.0,0.0,0.0,6.0,4.0,12.0,0.0,1.0,0.0,0.0
0021400640,1610612751,BKN,Brooklyn,202366,Jerome Jordan,,,21:10,104.3,105.9,-1.6,0.0,0.0,0.0,0.28,0.25,0.268,9.3,0.5,0.564,0.199,99.28,0.135,2015-01-22T00:00:00,4,BKN,Brooklyn,18-25,23,14,19,28,0,0,0,0,0,0,0,0,0,0,84,0.375,0.56,0.19,17,40,12,0021400640,1610612751,BKN,Brooklyn,Jerome Jordan,,,21:10,0.0,7.0,0.0,8.0,2.0,6.0,6.0,22.0,1.0,2.0,1.0,2.0
0021400640,1610612751,BKN,Brooklyn,203900,Markel Brown,,,26:01,100.4,113.8,-13.4,0.059,0.0,9.4,0.0,0.176,0.065,0.0,0.286,0.415,0.149,95.61,0.04,2015-01-22T00:00:00,4,BKN,Brooklyn,18-25,23,14,19,28,0,0,0,0,0,0,0,0,0,0,84,0.375,0.56,0.19,17,40,12,0021400640,1610612751,BKN,Brooklyn,Markel Brown,,,26:01,1.0,0.0,1.0,2.0,8.0,6.0,11.0,24.0,0.0,0.0,2.0,4.0
0021400640,1610612751,BKN,Brooklyn,203928,Cory Jefferson,,,17:35,113.4,94.5,18.8,0.182,0.0,15.5,0.136,0.333,0.216,0.0,0.4,0.414,0.24,97.24,0.175,2015-01-22T00:00:00,4,BKN,Brooklyn,18-25,23,14,19,28,0,0,0,0,0,0,0,0,0,0,84,0.375,0.56,0.19,17,40,12,0021400640,1610612751,BKN,Brooklyn,Cory Jefferson,,,17:35,0.0,2.0,0.0,4.0,0.0,6.0,4.0,12.0,1.0,1.0,0.0,1.0
0021400640,1610612751,BKN,Brooklyn,708,Kevin Garnett,,DND - Rest                              ,,,,,,,0.0,,,,,,,0.0,,,2015-01-22T00:00:00,4,BKN,Brooklyn,18-25,23,14,19,28,0,0,0,0,0,0,0,0,0,0,84,0.375,0.56,0.19,17,40,12,0021400640,1610612751,BKN,Brooklyn,Kevin Garnett,,DND - Rest                              ,,,,,,,,,,,,,
0021400640,1610612746,LAC,Los Angeles,2440,Matt Barnes,F,,23:37,144.3,78.7,65.6,0.077,0.0,28.6,0.0,0.15,0.086,0.0,0.8,0.8,0.093,98.37,0.098,2015-01-22T00:00:00,4,LAC,Los Angeles,29-14,34,36,27,26,0,0,0,0,0,0,0,0,0,0,123,0.59,0.667,0.44,41,48,14,0021400640,1610612746,LAC,Los Angeles,Matt Barnes,F,,23:37,0.0,0.0,5.0,2.0,6.0,2.0,6.0,22.0,1.0,0.0,1.0,0.0
0021400640,1610612746,LAC,Los Angeles,201933,Blake Griffin,F,,24:53,144.5,75.4,69.1,0.158,1.0,14.1,0.071,0.227,0.167,14.1,0.786,0.783,0.336,97.34,0.206,2015-01-22T00:00:00,4,LAC,Los Angeles,29-14,34,36,27,26,0,0,0,0,0,0,0,0,0,0,123,0.59,0.667,0.44,41,48,14,0021400640,1610612746,LAC,Los Angeles,Blake Griffin,F,,24:53,6.0,2.0,7.0,18.0,6.0,2.0,6.0,22.0,0.0,0.0,4.0,3.0
0021400640,1610612746,LAC,Los Angeles,201599,DeAndre Jordan,C,,25:36,145.6,80.5,65.1,0.0,0.0,0.0,0.235,0.333,0.293,20.2,1.0,0.888,0.172,97.2,0.17,2015-01-22T00:00:00,4,LAC,Los Angeles,29-14,34,36,27,26,0,0,0,0,0,0,0,0,0,0,123,0.59,0.667,0.44,41,48,14,0021400640,1610612746,LAC,Los Angeles,DeAndre Jordan,C,,25:36,2.0,2.0,2.0,14.0,6.0,4.0,6.0,22.0,2.0,0.0,1.0,4.0
0021400640,1610612746,LAC,Los Angeles,200755,JJ Redick,G,,19:44,148.4,84.0,64.4,0.167,3.0,23.3,0.0,0.0,0.0,7.8,0.938,0.957,0.241,95.3,0.177,2015-01-22T00:00:00,4,LAC,Los Angeles,29-14,34,36,27,26,0,0,0,0,0,0,0,0,0,0,123,0.59,0.667,0.44,41,48,14,0021400640,1610612746,LAC,Los Angeles,JJ Redick,G,,19:44,6.0,0.0,3.0,4.0,4.0,4.0,4.0,18.0,0.0,0.0,1.0,1.0
0021400640,1610612746,LAC,Los Angeles,101108,Chris Paul,G,,24:01,144.3,81.2,63.1,0.63,8.5,69.6,0.071,0.19,0.143,8.2,0.5,0.551,0.142,97.73,0.227,2015-01-22T00:00:00,4,LAC,Los Angeles,29-14,34,36,27,26,0,0,0,0,0,0,0,0,0,0,123,0.59,0.667,0.44,41,48,14,0021400640,1610612746,LAC,Los Angeles,Chris Paul,G,,24:01,0.0,0.0,0.0,2.0,6.0,4.0,6.0,22.0,0.0,0.0,0.0,0.0
0021400640,1610612746,LAC,Los Angeles,2037,Jamal Crawford,,,18:14,123.4,75.9,47.5,0.154,2.0,12.4,0.0,0.095,0.054,6.2,0.5,0.65,0.333,99.35,0.203,2015-01-22T00:00:00,4,LAC,Los Angeles,29-14,34,36,27,26,0,0,0,0,0,0,0,0,0,0,123,0.59,0.667,0.44,41,48,14,0021400640,1610612746,LAC,Los Angeles,Jamal Crawford,,,18:14,3.0,2.0,2.0,2.0,6.0,2.0,6.0,18.0,0.0,0.0,0.0,3.0
0021400640,1610612746,LAC,Los Angeles,201150,Spencer Hawes,,,15:36,120.6,80.7,39.9,0.4,0.0,33.3,0.0,0.16,0.108,0.0,0.438,0.438,0.244,93.54,0.146,2015-01-22T00:00:00,4,LAC,Los Angeles,29-14,34,36,27,26,0,0,0,0,0,0,0,0,0,0,123,0.59,0.667,0.44,41,48,14,0021400640,1610612746,LAC,Los Angeles,Spencer Hawes,,,15:36,0.0,3.0,0.0,2.0,4.0,5.0,4.0,14.0,3.0,1.0,4.0,0.0
0021400640,1610612746,LAC,Los Angeles,203085,Austin Rivers,,,23:59,108.8,92.2,16.6,0.375,3.0,35.8,0.05,0.091,0.075,11.9,0.643,0.514,0.2,96.51,0.119,2015-01-22T00:00:00,4,LAC,Los Angeles,29-14,34,36,27,26,0,0,0,0,0,0,0,0,0,0,123,0.59,0.667,0.44,41,48,14,0021400640,1610612746,LAC,Los Angeles,Austin Rivers,,,23:59,0.0,4.0,0.0,2.0,7.0,10.0,7.0,26.0,0.0,0.0,0.0,2.0
0021400640,1610612746,LAC,Los Angeles,2045,Hedo Turkoglu,,,15:29,120.6,80.4,40.2,0.091,1.0,20.0,0.0,0.2,0.139,20.0,0.833,0.833,0.126,94.43,0.152,2015-01-22T00:00:00,4,LAC,Los Angeles,29-14,34,36,27,26,0,0,0,0,0,0,0,0,0,0,123,0.59,0.667,0.44,41,48,14,0021400640,1610612746,LAC,Los Angeles,Hedo Turkoglu,,,15:29,0.0,0.0,3.0,0.0,4.0,5.0,4.0,14.0,1.0,0.0,1.0,0.0
0021400640,1610612746,LAC,Los Angeles,201175,Glen Davis,,,21:01,102.9,98.0,4.9,0.077,1.0,7.8,0.0,0.107,0.067,7.8,0.4,0.46,0.254,98.85,0.08,2015-01-22T00:00:00,4,LAC,Los Angeles,29-14,34,36,27,26,0,0,0,0,0,0,0,0,0,0,123,0.59,0.667,0.44,41,48,14,0021400640,1610612746,LAC,Los Angeles,Glen Davis,,,21:01,0.0,0.0,2.0,8.0,7.0,10.0,7.0,26.0,1.0,2.0,2.0,1.0
0021400640,1610612746,LAC,Los Angeles,203912,CJ Wilcox,,,10:02,91.0,112.7,-21.7,0.0,0.0,0.0,0.0,0.0,0.0,20.0,0.5,0.5,0.219,96.64,0.0,2015-01-22T00:00:00,4,LAC,Los Angeles,29-14,34,36,27,26,0,0,0,0,0,0,0,0,0,0,123,0.59,0.667,0.44,41,48,14,0021400640,1610612746,LAC,Los Angeles,CJ Wilcox,,,10:02,0.0,2.0,2.0,0.0,3.0,8.0,3.0,12.0,0.0,0.0,1.0,0.0
0021400640,1610612746,LAC,Los Angeles,2563,Dahntay Jones,,,8:54,90.0,119.0,-29.0,0.0,0.0,0.0,0.0,0.111,0.059,0.0,0.5,0.5,0.096,98.48,0.027,2015-01-22T00:00:00,4,LAC,Los Angeles,29-14,34,36,27,26,0,0,0,0,0,0,0,0,0,0,123,0.59,0.667,0.44,41,48,14,0021400640,1610612746,LAC,Los Angeles,Dahntay Jones,,,8:54,0.0,0.0,2.0,2.0,3.0,7.0,3.0,12.0,0.0,0.0,1.0,0.0
0021400640,1610612746,LAC,Los Angeles,202327,Ekpe Udoh,,,8:54,90.0,119.0,-29.0,0.286,0.0,100.0,0.25,0.111,0.176,0.0,0.0,0.0,0.0,98.48,0.093,2015-01-22T00:00:00,4,LAC,Los Angeles,29-14,34,36,27,26,0,0,0,0,0,0,0,0,0,0,123,0.59,0.667,0.44,41,48,14,0021400640,1610612746,LAC,Los Angeles,Ekpe Udoh,,,8:54,0.0,0.0,0.0,0.0,3.0,7.0,3.0,12.0,1.0,0.0,1.0,0.0
