GAME_ID_x,TEAM_ID_x,TEAM_ABBREVIATION_x,TEAM_CITY_x,PLAYER_ID,PLAYER_NAME_x,START_POSITION_x,COMMENT_x,MIN_x,OFF_RATING,DEF_RATING,NET_RATING,AST_PCT,AST_TOV,AST_RATIO,OREB_PCT,DREB_PCT,REB_PCT,TM_TOV_PCT,EFG_PCT,TS_PCT,USG_PCT,PACE,PIE,GAME_DATE_EST,GAME_SEQUENCE,TEAM_ABBREVIATION_y,TEAM_CITY_NAME,TEAM_WINS_LOSSES,PTS_QTR1,PTS_QTR2,PTS_QTR3,PTS_QTR4,PTS_OT1,PTS_OT2,PTS_OT3,PTS_OT4,PTS_OT5,PTS_OT6,PTS_OT7,PTS_OT8,PTS_OT9,PTS_OT10,PTS,FG_PCT,FT_PCT,FG3_PCT,AST,REB,TOV,GAME_ID_y,TEAM_ID_y,TEAM_ABBREVIATION,TEAM_CITY_y,PLAYER_NAME_y,START_POSITION_y,COMMENT_y,MIN_y,PTS_OFF_TOV,PTS_2ND_CHANCE,PTS_FB,PTS_PAINT,OPP_PTS_OFF_TOV,OPP_PTS_2ND_CHANCE,OPP_PTS_FB,OPP_PTS_PAINT,BLK,BLKA,PF,PFD
0021400651,1610612758,SAC,Sacramento,200752,Rudy Gay,F,,12:47,69.5,118.9,-49.3,0.5,0.0,44.4,0.0,0.231,0.12,0.0,0.0,0.0,0.163,106.11,0.0,2015-01-23T00:00:00,11,SAC,Sacramento,16-27,25,26,22,28,0,0,0,0,0,0,0,0,0,0,101,0.415,0.853,0.235,19,43,19,0021400651,1610612758,SAC,Sacramento,Rudy Gay,F,,12:47,0.0,0.0,0.0,0.0,8.0,5.0,2.0,16.0,0.0,0.0,2.0,1.0
0021400651,1610612758,SAC,Sacramento,202682,Derrick Williams,F,,22:15,89.9,117.4,-27.5,0.154,2.0,18.8,0.056,0.154,0.114,9.4,0.4,0.589,0.163,113.99,0.088,2015-01-23T00:00:00,11,SAC,Sacramento,16-27,25,26,22,28,0,0,0,0,0,0,0,0,0,0,101,0.415,0.853,0.235,19,43,19,0021400651,1610612758,SAC,Sacramento,Derrick Williams,F,,22:15,0.0,0.0,4.0,4.0,10.0,5.0,13.0,24.0,0.0,1.0,1.0,3.0
0021400651,1610612758,SAC,Sacramento,202326,DeMarcus Cousins,C,,35:07,93.5,100.9,-7.3,0.133,0.4,6.5,0.065,0.257,0.167,16.2,0.474,0.587,0.339,110.31,0.163,2015-01-23T00:00:00,11,SAC,Sacramento,16-27,25,26,22,28,0,0,0,0,0,0,0,0,0,0,101,0.415,0.853,0.235,19,43,19,0021400651,1610612758,SAC,Sacramento,DeMarcus Cousins,C,,35:07,5.0,7.0,0.0,6.0,13.0,7.0,16.0,28.0,0.0,1.0,4.0,6.0
0021400651,1610612758,SAC,Sacramento,203463,Ben McLemore,G,,25:13,86.3,104.4,-18.0,0.083,0.0,10.0,0.0,0.037,0.021,0.0,0.389,0.389,0.148,114.4,0.019,2015-01-23T00:00:00,11,SAC,Sacramento,16-27,25,26,22,28,0,0,0,0,0,0,0,0,0,0,101,0.415,0.853,0.235,19,43,19,0021400651,1610612758,SAC,Sacramento,Ben McLemore,G,,25:13,2.0,0.0,2.0,4.0,10.0,7.0,13.0,26.0,0.0,1.0,3.0,0.0
0021400651,1610612758,SAC,Sacramento,201954,Darren Collison,G,,34:25,87.9,117.6,-29.7,0.235,1.33,19.2,0.057,0.111,0.085,14.4,0.5,0.54,0.198,109.7,0.113,2015-01-23T00:00:00,11,SAC,Sacramento,16-27,25,26,22,28,0,0,0,0,0,0,0,0,0,0,101,0.415,0.853,0.235,19,43,19,0021400651,1610612758,SAC,Sacramento,Darren Collison,G,,34:25,6.0,2.0,4.0,8.0,19.0,8.0,25.0,34.0,0.0,0.0,0.0,1.0
0021400651,1610612758,SAC,Sacramento,203917,Nik Stauskas,,,22:47,101.9,128.7,-26.8,0.133,1.0,20.2,0.0,0.176,0.071,20.2,0.9,0.935,0.136,102.64,0.131,2015-01-23T00:00:00,11,SAC,Sacramento,16-27,25,26,22,28,0,0,0,0,0,0,0,0,0,0,101,0.415,0.853,0.235,19,43,19,0021400651,1610612758,SAC,Sacramento,Nik Stauskas,,,22:47,4.0,3.0,2.0,4.0,11.0,5.0,14.0,14.0,0.0,1.0,1.0,1.0
0021400651,1610612758,SAC,Sacramento,203113,Quincy Miller,,,33:48,103.5,100.5,3.0,0.0,0.0,0.0,0.029,0.161,0.091,21.3,0.438,0.587,0.161,110.71,0.074,2015-01-23T00:00:00,11,SAC,Sacramento,16-27,25,26,22,28,0,0,0,0,0,0,0,0,0,0,101,0.415,0.853,0.235,19,43,19,0021400651,1610612758,SAC,Sacramento,Quincy Miller,,,33:48,0.0,2.0,0.0,4.0,11.0,5.0,23.0,22.0,2.0,1.0,2.0,5.0
0021400651,1610612758,SAC,Sacramento,201956,Omri Casspi,,,7:13,117.3,110.1,7.2,0.0,0.0,0.0,0.167,0.125,0.143,41.0,0.5,0.694,0.254,105.25,0.088,2015-01-23T00:00:00,11,SAC,Sacramento,16-27,25,26,22,28,0,0,0,0,0,0,0,0,0,0,101,0.415,0.853,0.235,19,43,19,0021400651,1610612758,SAC,Sacramento,Omri Casspi,,,7:13,2.0,0.0,4.0,2.0,6.0,3.0,3.0,6.0,0.0,0.0,0.0,1.0
0021400651,1610612758,SAC,Sacramento,201574,Jason Thompson,,,11:29,59.1,153.5,-94.5,0.5,0.0,25.0,0.083,0.0,0.059,0.0,0.333,0.333,0.102,106.17,0.026,2015-01-23T00:00:00,11,SAC,Sacramento,16-27,25,26,22,28,0,0,0,0,0,0,0,0,0,0,101,0.415,0.853,0.235,19,43,19,0021400651,1610612758,SAC,Sacramento,Jason Thompson,,,11:29,2.0,0.0,0.0,0.0,8.0,7.0,11.0,10.0,1.0,1.0,1.0,0.0
0021400651,1610612758,SAC,Sacramento,201196,Ramon Sessions,,,13:35,107.8,107.7,0.2,0.273,1.5,37.5,0.1,0.125,0.111,25.0,0.0,0.0,0.149,106.58,-0.029,2015-01-23T00:00:00,11,SAC,Sacramento,16-27,25,26,22,28,0,0,0,0,0,0,0,0,0,0,101,0.415,0.853,0.235,19,43,19,0021400651,1610612758,SAC,Sacramento,Ramon Sessions,,,13:35,0.0,0.0,0.0,0.0,2.0,4.0,2.0,6.0,0.0,1.0,1.0,0.0
0021400651,1610612758,SAC,Sacramento,203492,Ray McCallum,,,12:58,97.0,153.8,-56.8,0.0,0.0,0.0,0.143,0.143,0.143,0.0,0.429,0.444,0.247,103.28,0.061,2015-01-23T00:00:00,11,SAC,Sacramento,16-27,25,26,22,28,0,0,0,0,0,0,0,0,0,0,101,0.415,0.853,0.235,19,43,19,0021400651,1610612758,SAC,Sacramento,Ray McCallum,,,12:58,0.0,2.0,0.0,6.0,5.0,2.0,11.0,10.0,0.0,1.0,1.0,1.0
0021400651,1610612758,SAC,Sacramento,200797,Ryan Hollins,,,8:23,121.7,117.1,4.6,0.0,0.0,0.0,0.0,0.0,0.0,20.5,0.667,0.644,0.243,100.66,0.027,2015-01-23T00:00:00,11,SAC,Sacramento,16-27,25,26,22,28,0,0,0,0,0,0,0,0,0,0,101,0.415,0.853,0.235,19,43,19,0021400651,1610612758,SAC,Sacramento,Ryan Hollins,,,8:23,0.0,0.0,2.0,2.0,2.0,2.0,2.0,4.0,0.0,0.0,1.0,3.0
0021400651,1610612758,SAC,Sacramento,2501,Reggie Evans,,DNP - Coach's Decision                  ,,,,,,,0.0,,,,,,,0.0,,,2015-01-23T00:00:00,11,SAC,Sacramento,16-27,25,26,22,28,0,0,0,0,0,0,0,0,0,0,101,0.415,0.853,0.235,19,43,19,0021400651,1610612758,SAC,Sacramento,Reggie Evans,,DNP - Coach's Decision                  ,,,,,,,,,,,,,
0021400651,1610612744,GSW,Golden State,203084,Harrison Barnes,F,,22:40,108.4,89.9,18.5,0.053,1.0,10.1,0.091,0.167,0.125,10.1,0.286,0.317,0.16,108.85,0.03,2015-01-23T00:00:00,11,GSW,Golden State,35-6,34,22,41,29,0,0,0,0,0,0,0,0,0,0,126,0.479,0.864,0.425,32,46,17,0021400651,1610612744,GSW,Golden State,Harrison Barnes,F,,22:40,0.0,3.0,2.0,4.0,6.0,5.0,4.0,12.0,0.0,0.0,1.0,1.0
0021400651,1610612744,GSW,Golden State,203110,Draymond Green,F,,27:10,130.9,89.8,41.1,0.077,2.0,20.0,0.048,0.259,0.167,10.0,0.786,0.786,0.12,110.43,0.105,2015-01-23T00:00:00,11,GSW,Golden State,35-6,34,22,41,29,0,0,0,0,0,0,0,0,0,0,126,0.479,0.864,0.425,32,46,17,0021400651,1610612744,GSW,Golden State,Draymond Green,F,,27:10,6.0,0.0,0.0,2.0,13.0,8.0,8.0,18.0,0.0,0.0,4.0,1.0
0021400651,1610612744,GSW,Golden State,101106,Andrew Bogut,C,,23:53,105.9,83.6,22.3,0.167,0.0,33.3,0.0,0.227,0.119,0.0,0.667,0.667,0.104,110.34,0.127,2015-01-23T00:00:00,11,GSW,Golden State,35-6,34,22,41,29,0,0,0,0,0,0,0,0,0,0,126,0.479,0.864,0.425,32,46,17,0021400651,1610612744,GSW,Golden State,Andrew Bogut,C,,23:53,4.0,0.0,0.0,8.0,9.0,5.0,4.0,12.0,2.0,0.0,2.0,2.0
0021400651,1610612744,GSW,Golden State,202691,Klay Thompson,G,,32:49,122.7,75.1,47.6,0.294,1.25,13.0,0.0,0.061,0.031,10.4,0.86,0.884,0.386,110.55,0.355,2015-01-23T00:00:00,11,GSW,Golden State,35-6,34,22,41,29,0,0,0,0,0,0,0,0,0,0,126,0.479,0.864,0.425,32,46,17,0021400651,1610612744,GSW,Golden State,Klay Thompson,G,,32:49,6.0,0.0,17.0,10.0,9.0,5.0,6.0,12.0,2.0,0.0,3.0,6.0
0021400651,1610612744,GSW,Golden State,201939,Stephen Curry,G,,29:03,120.0,91.8,28.2,0.407,1.83,38.1,0.043,0.103,0.077,20.8,0.364,0.421,0.253,109.05,0.091,2015-01-23T00:00:00,11,GSW,Golden State,35-6,34,22,41,29,0,0,0,0,0,0,0,0,0,0,126,0.479,0.864,0.425,32,46,17,0021400651,1610612744,GSW,Golden State,Stephen Curry,G,,29:03,0.0,0.0,6.0,2.0,15.0,10.0,10.0,20.0,0.0,0.0,0.0,1.0
0021400651,1610612744,GSW,Golden State,201575,Brandon Rush,,,15:44,91.2,134.2,-43.0,0.0,0.0,0.0,0.077,0.154,0.115,25.0,0.0,0.0,0.108,105.8,-0.015,2015-01-23T00:00:00,11,GSW,Golden State,35-6,34,22,41,29,0,0,0,0,0,0,0,0,0,0,126,0.479,0.864,0.425,32,46,17,0021400651,1610612744,GSW,Golden State,Brandon Rush,,,15:44,0.0,0.0,0.0,0.0,13.0,11.0,12.0,28.0,1.0,0.0,0.0,0.0
0021400651,1610612744,GSW,Golden State,203200,Justin Holiday,,,24:47,124.9,96.6,28.3,0.091,0.0,20.0,0.091,0.077,0.083,0.0,0.313,0.313,0.125,108.42,0.034,2015-01-23T00:00:00,11,GSW,Golden State,35-6,34,22,41,29,0,0,0,0,0,0,0,0,0,0,126,0.479,0.864,0.425,32,46,17,0021400651,1610612744,GSW,Golden State,Justin Holiday,,,24:47,0.0,0.0,0.0,0.0,14.0,11.0,14.0,28.0,1.0,0.0,1.0,0.0
0021400651,1610612744,GSW,Golden State,201578,Marreese Speights,,,20:55,106.3,112.9,-6.7,0.111,1.0,6.1,0.083,0.222,0.143,6.1,0.615,0.663,0.273,106.8,0.188,2015-01-23T00:00:00,11,GSW,Golden State,35-6,34,22,41,29,0,0,0,0,0,0,0,0,0,0,126,0.479,0.864,0.425,32,46,17,0021400651,1610612744,GSW,Golden State,Marreese Speights,,,20:55,2.0,2.0,2.0,4.0,10.0,11.0,14.0,28.0,1.0,0.0,5.0,3.0
0021400651,1610612744,GSW,Golden State,101135,David Lee,,,18:27,118.2,71.1,47.1,0.0,0.0,0.0,0.167,0.333,0.25,11.8,0.286,0.336,0.168,107.4,0.096,2015-01-23T00:00:00,11,GSW,Golden State,35-6,34,22,41,29,0,0,0,0,0,0,0,0,0,0,126,0.479,0.864,0.425,32,46,17,0021400651,1610612744,GSW,Golden State,David Lee,,,18:27,3.0,3.0,0.0,4.0,6.0,4.0,6.0,10.0,0.0,2.0,3.0,1.0
0021400651,1610612744,GSW,Golden State,2733,Shaun Livingston,,,18:57,106.9,96.2,10.6,0.583,3.5,47.0,0.0,0.0,0.0,13.4,0.6,0.68,0.154,108.46,0.163,2015-01-23T00:00:00,11,GSW,Golden State,35-6,34,22,41,29,0,0,0,0,0,0,0,0,0,0,126,0.479,0.864,0.425,32,46,17,0021400651,1610612744,GSW,Golden State,Shaun Livingston,,,18:57,0.0,4.0,0.0,4.0,6.0,6.0,8.0,20.0,1.0,0.0,2.0,1.0
0021400651,1610612744,GSW,Golden State,203949,James Michael McAdoo,,,5:35,93.5,152.9,-59.4,0.0,0.0,0.0,0.0,0.0,0.0,0.0,0.5,0.521,0.226,106.77,0.034,2015-01-23T00:00:00,11,GSW,Golden State,35-6,34,22,41,29,0,0,0,0,0,0,0,0,0,0,126,0.479,0.864,0.425,32,46,17,0021400651,1610612744,GSW,Golden State,James Michael McAdoo,,,5:35,0.0,0.0,0.0,2.0,4.0,4.0,4.0,12.0,0.0,1.0,1.0,1.0
0021400651,1610612744,GSW,Golden State,2571,Leandro Barbosa,,DNP - Coach's Decision                  ,,,,,,,0.0,,,,,,,0.0,,,2015-01-23T00:00:00,11,GSW,Golden State,35-6,34,22,41,29,0,0,0,0,0,0,0,0,0,0,126,0.479,0.864,0.425,32,46,17,0021400651,1610612744,GSW,Golden State,Leandro Barbosa,,DNP - Coach's Decision                  ,,,,,,,,,,,,,
0021400651,1610612744,GSW,Golden State,2738,Andre Iguodala,,DND - Rest                              ,,,,,,,0.0,,,,,,,0.0,,,2015-01-23T00:00:00,11,GSW,Golden State,35-6,34,22,41,29,0,0,0,0,0,0,0,0,0,0,126,0.479,0.864,0.425,32,46,17,0021400651,1610612744,GSW,Golden State,Andre Iguodala,,DND - Rest                              ,,,,,,,,,,,,,
