GAME_ID_x,TEAM_ID_x,TEAM_ABBREVIATION_x,TEAM_CITY_x,PLAYER_ID,PLAYER_NAME_x,START_POSITION_x,COMMENT_x,MIN_x,OFF_RATING,DEF_RATING,NET_RATING,AST_PCT,AST_TOV,AST_RATIO,OREB_PCT,DREB_PCT,REB_PCT,TM_TOV_PCT,EFG_PCT,TS_PCT,USG_PCT,PACE,PIE,GAME_DATE_EST,GAME_SEQUENCE,TEAM_ABBREVIATION_y,TEAM_CITY_NAME,TEAM_WINS_LOSSES,PTS_QTR1,PTS_QTR2,PTS_QTR3,PTS_QTR4,PTS_OT1,PTS_OT2,PTS_OT3,PTS_OT4,PTS_OT5,PTS_OT6,PTS_OT7,PTS_OT8,PTS_OT9,PTS_OT10,PTS,FG_PCT,FT_PCT,FG3_PCT,AST,REB,TOV,GAME_ID_y,TEAM_ID_y,TEAM_ABBREVIATION,TEAM_CITY_y,PLAYER_NAME_y,START_POSITION_y,COMMENT_y,MIN_y,PTS_OFF_TOV,PTS_2ND_CHANCE,PTS_FB,PTS_PAINT,OPP_PTS_OFF_TOV,OPP_PTS_2ND_CHANCE,OPP_PTS_FB,OPP_PTS_PAINT,BLK,BLKA,PF,PFD
0021400654,1610612755,PHI,Philadelphia,201601,Luc Mbah a Moute,F,,23:43,73.7,101.4,-27.7,0.0,0.0,0.0,0.0,0.333,0.149,16.8,0.333,0.354,0.217,100.3,0.044,2015-01-24T00:00:00,3,PHI,Philadelphia,8-36,21,20,20,22,0,0,0,0,0,0,0,0,0,0,83,0.383,0.545,0.375,18,48,23,0021400654,1610612755,PHI,Philadelphia,Luc Mbah a Moute,F,,23:43,2.0,0.0,0.0,6.0,9.0,5.0,4.0,26.0,0.0,0.0,2.0,3.0
0021400654,1610612755,PHI,Philadelphia,203496,Robert Covington,F,,21:48,67.6,98.1,-30.5,0.0,0.0,0.0,0.0,0.048,0.021,21.5,0.5,0.546,0.18,99.82,0.036,2015-01-24T00:00:00,3,PHI,Philadelphia,8-36,21,20,20,22,0,0,0,0,0,0,0,0,0,0,83,0.383,0.545,0.375,18,48,23,0021400654,1610612755,PHI,Philadelphia,Robert Covington,F,,21:48,0.0,0.0,8.0,0.0,7.0,5.0,3.0,22.0,0.0,0.0,1.0,1.0
0021400654,1610612755,PHI,Philadelphia,203457,Nerlens Noel,C,,23:35,91.0,93.7,-2.7,0.0,0.0,0.0,0.08,0.167,0.122,0.0,0.5,0.509,0.129,94.77,0.113,2015-01-24T00:00:00,3,PHI,Philadelphia,8-36,21,20,20,22,0,0,0,0,0,0,0,0,0,0,83,0.383,0.545,0.375,18,48,23,0021400654,1610612755,PHI,Philadelphia,Nerlens Noel,C,,23:35,0.0,2.0,2.0,6.0,4.0,7.0,0.0,24.0,1.0,1.0,2.0,2.0
0021400654,1610612755,PHI,Philadelphia,203909,KJ McDaniels,G,,28:32,70.3,98.5,-28.2,0.077,0.25,6.3,0.067,0.125,0.093,25.4,0.278,0.279,0.225,98.89,-0.007,2015-01-24T00:00:00,3,PHI,Philadelphia,8-36,21,20,20,22,0,0,0,0,0,0,0,0,0,0,83,0.383,0.545,0.375,18,48,23,0021400654,1610612755,PHI,Philadelphia,KJ McDaniels,G,,28:32,2.0,0.0,0.0,2.0,11.0,5.0,6.0,34.0,1.0,0.0,0.0,3.0
0021400654,1610612755,PHI,Philadelphia,203487,Michael Carter-Williams,G,,25:41,69.4,104.5,-35.0,0.6,1.2,25.1,0.0,0.13,0.058,20.9,0.333,0.388,0.304,98.53,0.058,2015-01-24T00:00:00,3,PHI,Philadelphia,8-36,21,20,20,22,0,0,0,0,0,0,0,0,0,0,83,0.383,0.545,0.375,18,48,23,0021400654,1610612755,PHI,Philadelphia,Michael Carter-Williams,G,,25:41,0.0,3.0,0.0,2.0,9.0,7.0,5.0,30.0,0.0,2.0,1.0,3.0
0021400654,1610612755,PHI,Philadelphia,203924,Jerami Grant,,,26:05,91.0,104.7,-13.7,0.071,0.2,5.1,0.0,0.091,0.04,25.6,0.6,0.592,0.29,98.75,0.025,2015-01-24T00:00:00,3,PHI,Philadelphia,8-36,21,20,20,22,0,0,0,0,0,0,0,0,0,0,83,0.383,0.545,0.375,18,48,23,0021400654,1610612755,PHI,Philadelphia,Jerami Grant,,,26:05,3.0,0.0,2.0,4.0,10.0,7.0,10.0,28.0,0.0,0.0,3.0,4.0
0021400654,1610612755,PHI,Philadelphia,203156,Henry Sims,,,8:14,72.2,154.9,-82.6,0.2,0.0,33.3,0.143,0.6,0.333,0.0,0.5,0.5,0.1,105.22,0.13,2015-01-24T00:00:00,3,PHI,Philadelphia,8-36,21,20,20,22,0,0,0,0,0,0,0,0,0,0,83,0.383,0.545,0.375,18,48,23,0021400654,1610612755,PHI,Philadelphia,Henry Sims,,,8:14,0.0,0.0,0.0,0.0,10.0,2.0,9.0,12.0,0.0,0.0,1.0,2.0
0021400654,1610612755,PHI,Philadelphia,203580,Larry Drew II,,,20:16,86.4,111.4,-25.1,0.4,4.0,35.0,0.0,0.0,0.0,8.7,0.667,0.699,0.149,99.62,0.143,2015-01-24T00:00:00,3,PHI,Philadelphia,8-36,21,20,20,22,0,0,0,0,0,0,0,0,0,0,83,0.383,0.545,0.375,18,48,23,0021400654,1610612755,PHI,Philadelphia,Larry Drew II,,,20:16,2.0,0.0,3.0,4.0,8.0,7.0,7.0,20.0,0.0,0.0,1.0,2.0
0021400654,1610612755,PHI,Philadelphia,203138,Hollis Thompson,,,20:13,104.7,108.6,-3.8,0.067,0.0,11.1,0.13,0.063,0.103,0.0,0.313,0.313,0.16,99.1,0.007,2015-01-24T00:00:00,3,PHI,Philadelphia,8-36,21,20,20,22,0,0,0,0,0,0,0,0,0,0,83,0.383,0.545,0.375,18,48,23,0021400654,1610612755,PHI,Philadelphia,Hollis Thompson,,,20:13,3.0,2.0,0.0,0.0,7.0,7.0,6.0,22.0,0.0,3.0,2.0,0.0
0021400654,1610612755,PHI,Philadelphia,203960,JaKarr Sampson,,,17:15,105.3,96.7,8.7,0.091,1.0,9.1,0.048,0.125,0.081,9.1,0.5,0.5,0.227,103.48,0.056,2015-01-24T00:00:00,3,PHI,Philadelphia,8-36,21,20,20,22,0,0,0,0,0,0,0,0,0,0,83,0.383,0.545,0.375,18,48,23,0021400654,1610612755,PHI,Philadelphia,JaKarr Sampson,,,17:15,2.0,0.0,5.0,6.0,6.0,5.0,6.0,16.0,0.0,0.0,3.0,0.0
0021400654,1610612755,PHI,Philadelphia,203128,Furkan Aldemir,,,19:42,94.1,85.4,8.6,0.231,3.0,37.5,0.227,0.375,0.289,12.5,0.5,0.5,0.099,101.67,0.22,2015-01-24T00:00:00,3,PHI,Philadelphia,8-36,21,20,20,22,0,0,0,0,0,0,0,0,0,0,83,0.383,0.545,0.375,18,48,23,0021400654,1610612755,PHI,Philadelphia,Furkan Aldemir,,,19:42,2.0,2.0,0.0,2.0,3.0,3.0,3.0,20.0,0.0,1.0,2.0,0.0
0021400654,1610612755,PHI,Philadelphia,202952,Malcolm Thomas,,,4:56,61.5,78.8,-17.4,0.0,0.0,0.0,0.25,0.25,0.25,100.0,0.0,0.0,0.186,90.68,-0.273,2015-01-24T00:00:00,3,PHI,Philadelphia,8-36,21,20,20,22,0,0,0,0,0,0,0,0,0,0,83,0.383,0.545,0.375,18,48,23,0021400654,1610612755,PHI,Philadelphia,Malcolm Thomas,,,4:56,0.0,0.0,0.0,0.0,1.0,0.0,1.0,6.0,0.0,0.0,1.0,0.0
0021400654,1610612763,MEM,Memphis,201145,Jeff Green,F,,27:34,99.2,82.7,16.5,0.077,1.0,6.8,0.0,0.029,0.016,6.8,0.636,0.705,0.21,101.44,0.177,2015-01-24T00:00:00,3,MEM,Memphis,31-12,27,33,21,20,0,0,0,0,0,0,0,0,0,0,101,0.468,0.84,0.429,24,47,18,0021400654,1610612763,MEM,Memphis,Jeff Green,F,,27:34,3.0,0.0,3.0,8.0,11.0,5.0,14.0,20.0,0.0,0.0,0.0,4.0
0021400654,1610612763,MEM,Memphis,2216,Zach Randolph,F,,27:15,106.8,82.1,24.8,0.286,1.33,22.2,0.091,0.375,0.259,16.7,0.773,0.773,0.225,99.91,0.294,2015-01-24T00:00:00,3,MEM,Memphis,31-12,27,33,21,20,0,0,0,0,0,0,0,0,0,0,101,0.468,0.84,0.429,24,47,18,0021400654,1610612763,MEM,Memphis,Zach Randolph,F,,27:15,0.0,0.0,0.0,10.0,11.0,5.0,12.0,18.0,0.0,1.0,2.0,0.0
0021400654,1610612763,MEM,Memphis,201188,Marc Gasol,C,,25:04,110.7,85.1,25.6,0.25,2.0,30.3,0.0,0.233,0.132,15.2,0.6,0.625,0.157,97.66,0.172,2015-01-24T00:00:00,3,MEM,Memphis,31-12,27,33,21,20,0,0,0,0,0,0,0,0,0,0,101,0.468,0.84,0.429,24,47,18,0021400654,1610612763,MEM,Memphis,Marc Gasol,C,,25:04,2.0,0.0,2.0,6.0,9.0,7.0,12.0,18.0,4.0,0.0,4.0,4.0
0021400654,1610612763,MEM,Memphis,201584,Courtney Lee,G,,22:33,97.7,78.4,19.4,0.231,1.5,23.7,0.0,0.04,0.022,15.8,0.3,0.524,0.189,99.24,0.095,2015-01-24T00:00:00,3,MEM,Memphis,31-12,27,33,21,20,0,0,0,0,0,0,0,0,0,0,101,0.468,0.84,0.429,24,47,18,0021400654,1610612763,MEM,Memphis,Courtney Lee,G,,22:33,0.0,3.0,0.0,0.0,9.0,7.0,9.0,16.0,0.0,0.0,1.0,4.0
0021400654,1610612763,MEM,Memphis,201144,Mike Conley,G,,20:32,107.7,76.3,31.5,0.077,0.5,8.4,0.05,0.045,0.048,16.8,0.438,0.507,0.237,96.78,0.042,2015-01-24T00:00:00,3,MEM,Memphis,31-12,27,33,21,20,0,0,0,0,0,0,0,0,0,0,101,0.468,0.84,0.429,24,47,18,0021400654,1610612763,MEM,Memphis,Mike Conley,G,,20:32,0.0,5.0,0.0,4.0,4.0,7.0,7.0,14.0,0.0,1.0,3.0,1.0
0021400654,1610612763,MEM,Memphis,202720,Jon Leuer,,,17:08,106.0,85.9,20.1,0.083,0.5,11.3,0.0,0.313,0.161,22.5,0.4,0.51,0.219,94.86,0.118,2015-01-24T00:00:00,3,MEM,Memphis,31-12,27,33,21,20,0,0,0,0,0,0,0,0,0,0,101,0.468,0.84,0.429,24,47,18,0021400654,1610612763,MEM,Memphis,Jon Leuer,,,17:08,0.0,0.0,2.0,2.0,3.0,4.0,6.0,10.0,0.0,0.0,1.0,1.0
0021400654,1610612763,MEM,Memphis,2754,Tony Allen,,,18:50,106.4,90.3,16.1,0.143,1.0,22.2,0.0,0.0,0.0,22.2,0.4,0.4,0.161,103.68,0.0,2015-01-24T00:00:00,3,MEM,Memphis,31-12,27,33,21,20,0,0,0,0,0,0,0,0,0,0,101,0.468,0.84,0.429,24,47,18,0021400654,1610612763,MEM,Memphis,Tony Allen,,,18:50,2.0,0.0,4.0,4.0,6.0,4.0,11.0,14.0,2.0,0.0,2.0,0.0
0021400654,1610612763,MEM,Memphis,2757,Beno Udrih,,,27:28,98.0,88.4,9.6,0.278,5.0,33.3,0.091,0.065,0.075,6.7,0.333,0.333,0.161,101.25,0.095,2015-01-24T00:00:00,3,MEM,Memphis,31-12,27,33,21,20,0,0,0,0,0,0,0,0,0,0,101,0.468,0.84,0.429,24,47,18,0021400654,1610612763,MEM,Memphis,Beno Udrih,,,27:28,4.0,0.0,0.0,4.0,12.0,2.0,13.0,18.0,0.0,0.0,1.0,1.0
0021400654,1610612763,MEM,Memphis,201585,Kosta Koufos,,,22:56,92.6,81.4,11.2,0.0,0.0,0.0,0.053,0.174,0.119,23.1,0.25,0.527,0.174,101.18,0.056,2015-01-24T00:00:00,3,MEM,Memphis,31-12,27,33,21,20,0,0,0,0,0,0,0,0,0,0,101,0.468,0.84,0.429,24,47,18,0021400654,1610612763,MEM,Memphis,Kosta Koufos,,,22:56,1.0,0.0,1.0,2.0,7.0,2.0,8.0,14.0,0.0,0.0,2.0,4.0
0021400654,1610612763,MEM,Memphis,1713,Vince Carter,,,23:36,101.9,81.6,20.3,0.2,3.0,16.7,0.15,0.12,0.133,5.6,0.464,0.464,0.283,99.78,0.159,2015-01-24T00:00:00,3,MEM,Memphis,31-12,27,33,21,20,0,0,0,0,0,0,0,0,0,0,101,0.468,0.84,0.429,24,47,18,0021400654,1610612763,MEM,Memphis,Vince Carter,,,23:36,5.0,4.0,0.0,8.0,7.0,2.0,8.0,14.0,1.0,0.0,3.0,0.0
0021400654,1610612763,MEM,Memphis,201979,Nick Calathes,,,7:04,85.4,86.2,-0.8,0.0,0.0,0.0,0.0,0.333,0.182,0.0,1.0,1.0,0.155,87.08,0.353,2015-01-24T00:00:00,3,MEM,Memphis,31-12,27,33,21,20,0,0,0,0,0,0,0,0,0,0,101,0.468,0.84,0.429,24,47,18,0021400654,1610612763,MEM,Memphis,Nick Calathes,,,7:04,0.0,0.0,0.0,4.0,1.0,0.0,0.0,4.0,0.0,0.0,1.0,0.0
0021400654,1610612763,MEM,Memphis,200748,Tyrus Thomas,,DNP - Coach's Decision                  ,,,,,,,0.0,,,,,,,0.0,,,2015-01-24T00:00:00,3,MEM,Memphis,31-12,27,33,21,20,0,0,0,0,0,0,0,0,0,0,101,0.468,0.84,0.429,24,47,18,0021400654,1610612763,MEM,Memphis,Tyrus Thomas,,DNP - Coach's Decision                  ,,,,,,,,,,,,,
