GAME_ID_x,TEAM_ID_x,TEAM_ABBREVIATION_x,TEAM_CITY_x,PLAYER_ID,PLAYER_NAME_x,START_POSITION_x,COMMENT_x,MIN_x,OFF_RATING,DEF_RATING,NET_RATING,AST_PCT,AST_TOV,AST_RATIO,OREB_PCT,DREB_PCT,REB_PCT,TM_TOV_PCT,EFG_PCT,TS_PCT,USG_PCT,PACE,PIE,GAME_DATE_EST,GAME_SEQUENCE,TEAM_ID_y,TEAM_ABBREVIATION_y,TEAM_CITY_NAME,TEAM_WINS_LOSSES,PTS_QTR1,PTS_QTR2,PTS_QTR3,PTS_QTR4,PTS_OT1,PTS_OT2,PTS_OT3,PTS_OT4,PTS_OT5,PTS_OT6,PTS_OT7,PTS_OT8,PTS_OT9,PTS_OT10,PTS,FG_PCT,FT_PCT,FG3_PCT,AST,REB,TOV,GAME_ID_y,TEAM_ID,TEAM_ABBREVIATION,TEAM_CITY_y,PLAYER_NAME_y,START_POSITION_y,COMMENT_y,MIN_y,PTS_OFF_TOV,PTS_2ND_CHANCE,PTS_FB,PTS_PAINT,OPP_PTS_OFF_TOV,OPP_PTS_2ND_CHANCE,OPP_PTS_FB,OPP_PTS_PAINT,BLK,BLKA,PF,PFD
0021300751,1610612743,DEN,Denver,201163,Wilson Chandler,F,,32:47,110.0,130.5,-20.4,0.217,5.0,24.6,0.067,0.067,0.067,4.9,0.692,0.698,0.191,102.64,0.106,2014-02-08T00:00:00,3,1610612743,DEN,Denver,24-25,29,32,25,23,0,0,0,0,0,0,0,0,0,0,109,0.466,0.545,0.455,24,47,20,0021300751,1610612743,DEN,Denver,Wilson Chandler,F,,32:47,0.0,3.0,0.0,0.0,19.0,14.0,19.0,46.0,0.0,1.0,3.0,1.0
0021300751,1610612743,DEN,Denver,201163,Wilson Chandler,F,,32:47,110.0,130.5,-20.4,0.217,5.0,24.6,0.067,0.067,0.067,4.9,0.692,0.698,0.191,102.64,0.106,2014-02-08T00:00:00,3,1610612765,DET,Detroit,21-29,30,35,32,29,0,0,0,0,0,0,0,0,0,0,126,0.51,0.783,0.4,28,40,10,0021300751,1610612743,DEN,Denver,Wilson Chandler,F,,32:47,0.0,3.0,0.0,0.0,19.0,14.0,19.0,46.0,0.0,1.0,3.0,1.0
0021300751,1610612743,DEN,Denver,202702,Kenneth Faried,F,,19:32,119.5,130.6,-11.1,0.071,0.5,8.8,0.053,0.125,0.086,17.7,0.714,0.661,0.203,105.03,0.068,2014-02-08T00:00:00,3,1610612743,DEN,Denver,24-25,29,32,25,23,0,0,0,0,0,0,0,0,0,0,109,0.466,0.545,0.455,24,47,20,0021300751,1610612743,DEN,Denver,Kenneth Faried,F,,19:32,0.0,2.0,2.0,10.0,11.0,8.0,14.0,30.0,1.0,0.0,2.0,2.0
0021300751,1610612743,DEN,Denver,202702,Kenneth Faried,F,,19:32,119.5,130.6,-11.1,0.071,0.5,8.8,0.053,0.125,0.086,17.7,0.714,0.661,0.203,105.03,0.068,2014-02-08T00:00:00,3,1610612765,DET,Detroit,21-29,30,35,32,29,0,0,0,0,0,0,0,0,0,0,126,0.51,0.783,0.4,28,40,10,0021300751,1610612743,DEN,Denver,Kenneth Faried,F,,19:32,0.0,2.0,2.0,10.0,11.0,8.0,14.0,30.0,1.0,0.0,2.0,2.0
0021300751,1610612743,DEN,Denver,201581,JJ Hickson,C,,33:34,105.4,132.0,-26.6,0.091,0.4,8.5,0.226,0.29,0.258,21.2,0.5,0.451,0.26,103.42,0.071,2014-02-08T00:00:00,3,1610612743,DEN,Denver,24-25,29,32,25,23,0,0,0,0,0,0,0,0,0,0,109,0.466,0.545,0.455,24,47,20,0021300751,1610612743,DEN,Denver,JJ Hickson,C,,33:34,0.0,4.0,0.0,12.0,21.0,14.0,24.0,50.0,1.0,1.0,2.0,4.0
0021300751,1610612743,DEN,Denver,201581,JJ Hickson,C,,33:34,105.4,132.0,-26.6,0.091,0.4,8.5,0.226,0.29,0.258,21.2,0.5,0.451,0.26,103.42,0.071,2014-02-08T00:00:00,3,1610612765,DET,Detroit,21-29,30,35,32,29,0,0,0,0,0,0,0,0,0,0,126,0.51,0.783,0.4,28,40,10,0021300751,1610612743,DEN,Denver,JJ Hickson,C,,33:34,0.0,4.0,0.0,12.0,21.0,14.0,24.0,50.0,1.0,1.0,2.0,4.0
0021300751,1610612743,DEN,Denver,200751,Randy Foye,G,,32:52,105.6,131.7,-26.2,0.158,1.0,13.1,0.0,0.179,0.082,13.1,0.719,0.741,0.245,102.06,0.155,2014-02-08T00:00:00,3,1610612743,DEN,Denver,24-25,29,32,25,23,0,0,0,0,0,0,0,0,0,0,109,0.466,0.545,0.455,24,47,20,0021300751,1610612743,DEN,Denver,Randy Foye,G,,32:52,0.0,2.0,0.0,2.0,15.0,14.0,16.0,42.0,1.0,0.0,0.0,1.0
0021300751,1610612743,DEN,Denver,200751,Randy Foye,G,,32:52,105.6,131.7,-26.2,0.158,1.0,13.1,0.0,0.179,0.082,13.1,0.719,0.741,0.245,102.06,0.155,2014-02-08T00:00:00,3,1610612765,DET,Detroit,21-29,30,35,32,29,0,0,0,0,0,0,0,0,0,0,126,0.51,0.783,0.4,28,40,10,0021300751,1610612743,DEN,Denver,Randy Foye,G,,32:52,0.0,2.0,0.0,2.0,15.0,14.0,16.0,42.0,1.0,0.0,0.0,1.0
0021300751,1610612743,DEN,Denver,201951,Ty Lawson,G,,19:21,114.4,114.6,-0.2,0.438,2.33,39.1,0.0,0.136,0.075,16.8,0.286,0.381,0.215,109.48,0.102,2014-02-08T00:00:00,3,1610612743,DEN,Denver,24-25,29,32,25,23,0,0,0,0,0,0,0,0,0,0,109,0.466,0.545,0.455,24,47,20,0021300751,1610612743,DEN,Denver,Ty Lawson,G,,19:21,0.0,0.0,0.0,0.0,11.0,12.0,20.0,32.0,0.0,1.0,0.0,2.0
0021300751,1610612743,DEN,Denver,201951,Ty Lawson,G,,19:21,114.4,114.6,-0.2,0.438,2.33,39.1,0.0,0.136,0.075,16.8,0.286,0.381,0.215,109.48,0.102,2014-02-08T00:00:00,3,1610612765,DET,Detroit,21-29,30,35,32,29,0,0,0,0,0,0,0,0,0,0,126,0.51,0.783,0.4,28,40,10,0021300751,1610612743,DEN,Denver,Ty Lawson,G,,19:21,0.0,0.0,0.0,0.0,11.0,12.0,20.0,32.0,0.0,1.0,0.0,2.0
0021300751,1610612743,DEN,Denver,202389,Timofey Mozgov,,,21:37,101.0,97.3,3.7,0.167,3.0,34.2,0.0,0.04,0.025,11.4,0.0,0.315,0.114,105.25,0.013,2014-02-08T00:00:00,3,1610612743,DEN,Denver,24-25,29,32,25,23,0,0,0,0,0,0,0,0,0,0,109,0.466,0.545,0.455,24,47,20,0021300751,1610612743,DEN,Denver,Timofey Mozgov,,,21:37,0.0,0.0,0.0,0.0,8.0,8.0,10.0,28.0,2.0,0.0,3.0,4.0
0021300751,1610612743,DEN,Denver,202389,Timofey Mozgov,,,21:37,101.0,97.3,3.7,0.167,3.0,34.2,0.0,0.04,0.025,11.4,0.0,0.315,0.114,105.25,0.013,2014-02-08T00:00:00,3,1610612765,DET,Detroit,21-29,30,35,32,29,0,0,0,0,0,0,0,0,0,0,126,0.51,0.783,0.4,28,40,10,0021300751,1610612743,DEN,Denver,Timofey Mozgov,,,21:37,0.0,0.0,0.0,0.0,8.0,8.0,10.0,28.0,2.0,0.0,3.0,4.0
0021300751,1610612743,DEN,Denver,203095,Evan Fournier,,,20:47,103.1,104.9,-1.8,0.0,0.0,0.0,0.067,0.091,0.081,16.7,0.6,0.6,0.233,109.95,0.053,2014-02-08T00:00:00,3,1610612743,DEN,Denver,24-25,29,32,25,23,0,0,0,0,0,0,0,0,0,0,109,0.466,0.545,0.455,24,47,20,0021300751,1610612743,DEN,Denver,Evan Fournier,,,20:47,2.0,0.0,2.0,4.0,10.0,8.0,12.0,32.0,0.0,1.0,3.0,0.0
0021300751,1610612743,DEN,Denver,203095,Evan Fournier,,,20:47,103.1,104.9,-1.8,0.0,0.0,0.0,0.067,0.091,0.081,16.7,0.6,0.6,0.233,109.95,0.053,2014-02-08T00:00:00,3,1610612765,DET,Detroit,21-29,30,35,32,29,0,0,0,0,0,0,0,0,0,0,126,0.51,0.783,0.4,28,40,10,0021300751,1610612743,DEN,Denver,Evan Fournier,,,20:47,2.0,0.0,2.0,4.0,10.0,8.0,12.0,32.0,0.0,1.0,3.0,0.0
0021300751,1610612743,DEN,Denver,203113,Quincy Miller,,,16:09,95.7,101.4,-5.6,0.0,0.0,0.0,0.083,0.0,0.037,0.0,0.5,0.5,0.156,105.57,0.076,2014-02-08T00:00:00,3,1610612743,DEN,Denver,24-25,29,32,25,23,0,0,0,0,0,0,0,0,0,0,109,0.466,0.545,0.455,24,47,20,0021300751,1610612743,DEN,Denver,Quincy Miller,,,16:09,0.0,2.0,2.0,4.0,8.0,6.0,11.0,22.0,0.0,0.0,0.0,0.0
0021300751,1610612743,DEN,Denver,203113,Quincy Miller,,,16:09,95.7,101.4,-5.6,0.0,0.0,0.0,0.083,0.0,0.037,0.0,0.5,0.5,0.156,105.57,0.076,2014-02-08T00:00:00,3,1610612765,DET,Detroit,21-29,30,35,32,29,0,0,0,0,0,0,0,0,0,0,126,0.51,0.783,0.4,28,40,10,0021300751,1610612743,DEN,Denver,Quincy Miller,,,16:09,0.0,2.0,2.0,4.0,8.0,6.0,11.0,22.0,0.0,0.0,0.0,0.0
0021300751,1610612743,DEN,Denver,201589,Darrell Arthur,,,21:25,96.0,130.0,-34.0,0.167,2.0,25.0,0.045,0.176,0.103,12.5,0.4,0.4,0.116,98.75,0.03,2014-02-08T00:00:00,3,1610612743,DEN,Denver,24-25,29,32,25,23,0,0,0,0,0,0,0,0,0,0,109,0.466,0.545,0.455,24,47,20,0021300751,1610612743,DEN,Denver,Darrell Arthur,,,21:25,2.0,0.0,0.0,0.0,12.0,12.0,10.0,26.0,0.0,1.0,3.0,0.0
0021300751,1610612743,DEN,Denver,201589,Darrell Arthur,,,21:25,96.0,130.0,-34.0,0.167,2.0,25.0,0.045,0.176,0.103,12.5,0.4,0.4,0.116,98.75,0.03,2014-02-08T00:00:00,3,1610612765,DET,Detroit,21-29,30,35,32,29,0,0,0,0,0,0,0,0,0,0,126,0.51,0.783,0.4,28,40,10,0021300751,1610612743,DEN,Denver,Darrell Arthur,,,21:25,2.0,0.0,0.0,0.0,12.0,12.0,10.0,26.0,0.0,1.0,3.0,0.0
0021300751,1610612743,DEN,Denver,201576,Anthony Randolph,,,11:52,119.8,101.5,18.4,0.111,0.5,12.5,0.0,0.25,0.167,25.0,0.6,0.6,0.278,98.78,0.085,2014-02-08T00:00:00,3,1610612743,DEN,Denver,24-25,29,32,25,23,0,0,0,0,0,0,0,0,0,0,109,0.466,0.545,0.455,24,47,20,0021300751,1610612743,DEN,Denver,Anthony Randolph,,,11:52,3.0,0.0,0.0,0.0,2.0,2.0,0.0,12.0,0.0,0.0,1.0,0.0
0021300751,1610612743,DEN,Denver,201576,Anthony Randolph,,,11:52,119.8,101.5,18.4,0.111,0.5,12.5,0.0,0.25,0.167,25.0,0.6,0.6,0.278,98.78,0.085,2014-02-08T00:00:00,3,1610612765,DET,Detroit,21-29,30,35,32,29,0,0,0,0,0,0,0,0,0,0,126,0.51,0.783,0.4,28,40,10,0021300751,1610612743,DEN,Denver,Anthony Randolph,,,11:52,3.0,0.0,0.0,0.0,2.0,2.0,0.0,12.0,0.0,0.0,1.0,0.0
0021300751,1610612743,DEN,Denver,202706,Jordan Hamilton,,,10:04,95.8,105.7,-9.9,0.0,0.0,0.0,0.222,0.286,0.25,0.0,0.0,0.174,0.116,101.66,0.058,2014-02-08T00:00:00,3,1610612743,DEN,Denver,24-25,29,32,25,23,0,0,0,0,0,0,0,0,0,0,109,0.466,0.545,0.455,24,47,20,0021300751,1610612743,DEN,Denver,Jordan Hamilton,,,10:04,0.0,0.0,0.0,0.0,8.0,2.0,4.0,10.0,0.0,0.0,0.0,2.0
0021300751,1610612743,DEN,Denver,202706,Jordan Hamilton,,,10:04,95.8,105.7,-9.9,0.0,0.0,0.0,0.222,0.286,0.25,0.0,0.0,0.174,0.116,101.66,0.058,2014-02-08T00:00:00,3,1610612765,DET,Detroit,21-29,30,35,32,29,0,0,0,0,0,0,0,0,0,0,126,0.51,0.783,0.4,28,40,10,0021300751,1610612743,DEN,Denver,Jordan Hamilton,,,10:04,0.0,0.0,0.0,0.0,8.0,2.0,4.0,10.0,0.0,0.0,0.0,2.0
0021300751,1610612743,DEN,Denver,1889,Andre Miller,,NWT - PERSONAL REASONS,,,,,,,0.0,,,,,,,0.0,,,2014-02-08T00:00:00,3,1610612743,DEN,Denver,24-25,29,32,25,23,0,0,0,0,0,0,0,0,0,0,109,0.466,0.545,0.455,24,47,20,0021300751,1610612743,DEN,Denver,Andre Miller,,NWT - PERSONAL REASONS,,,,,,,,,,,,,
0021300751,1610612743,DEN,Denver,1889,Andre Miller,,NWT - PERSONAL REASONS,,,,,,,0.0,,,,,,,0.0,,,2014-02-08T00:00:00,3,1610612765,DET,Detroit,21-29,30,35,32,29,0,0,0,0,0,0,0,0,0,0,126,0.51,0.783,0.4,28,40,10,0021300751,1610612743,DEN,Denver,Andre Miller,,NWT - PERSONAL REASONS,,,,,,,,,,,,,
0021300751,1610612743,DEN,Denver,101126,Nate Robinson,,NWT - LEFT ACL SPRAIN,,,,,,,0.0,,,,,,,0.0,,,2014-02-08T00:00:00,3,1610612743,DEN,Denver,24-25,29,32,25,23,0,0,0,0,0,0,0,0,0,0,109,0.466,0.545,0.455,24,47,20,0021300751,1610612743,DEN,Denver,Nate Robinson,,NWT - LEFT ACL SPRAIN,,,,,,,,,,,,,
0021300751,1610612743,DEN,Denver,101126,Nate Robinson,,NWT - LEFT ACL SPRAIN,,,,,,,0.0,,,,,,,0.0,,,2014-02-08T00:00:00,3,1610612765,DET,Detroit,21-29,30,35,32,29,0,0,0,0,0,0,0,0,0,0,126,0.51,0.783,0.4,28,40,10,0021300751,1610612743,DEN,Denver,Nate Robinson,,NWT - LEFT ACL SPRAIN,,,,,,,,,,,,,
0021300751,1610612765,DET,Detroit,2746,Josh Smith,F,,45:30,127.1,108.6,18.5,0.222,2.0,19.6,0.075,0.184,0.128,9.8,0.537,0.522,0.292,103.28,0.136,2014-02-08T00:00:00,3,1610612743,DEN,Denver,24-25,29,32,25,23,0,0,0,0,0,0,0,0,0,0,109,0.466,0.545,0.455,24,47,20,0021300751,1610612765,DET,Detroit,Josh Smith,F,,45:30,4.0,4.0,1.0,16.0,7.0,13.0,2.0,28.0,1.0,1.0,3.0,2.0
0021300751,1610612765,DET,Detroit,2746,Josh Smith,F,,45:30,127.1,108.6,18.5,0.222,2.0,19.6,0.075,0.184,0.128,9.8,0.537,0.522,0.292,103.28,0.136,2014-02-08T00:00:00,3,1610612765,DET,Detroit,21-29,30,35,32,29,0,0,0,0,0,0,0,0,0,0,126,0.51,0.783,0.4,28,40,10,0021300751,1610612765,DET,Detroit,Josh Smith,F,,45:30,4.0,4.0,1.0,16.0,7.0,13.0,2.0,28.0,1.0,1.0,3.0,2.0
0021300751,1610612765,DET,Detroit,202328,Greg Monroe,F,,30:24,98.0,130.4,-32.4,0.0,0.0,0.0,0.0,0.273,0.118,23.3,0.667,0.709,0.181,97.36,0.097,2014-02-08T00:00:00,3,1610612743,DEN,Denver,24-25,29,32,25,23,0,0,0,0,0,0,0,0,0,0,109,0.466,0.545,0.455,24,47,20,0021300751,1610612765,DET,Detroit,Greg Monroe,F,,30:24,2.0,2.0,0.0,10.0,5.0,8.0,6.0,22.0,0.0,0.0,3.0,3.0
0021300751,1610612765,DET,Detroit,202328,Greg Monroe,F,,30:24,98.0,130.4,-32.4,0.0,0.0,0.0,0.0,0.273,0.118,23.3,0.667,0.709,0.181,97.36,0.097,2014-02-08T00:00:00,3,1610612765,DET,Detroit,21-29,30,35,32,29,0,0,0,0,0,0,0,0,0,0,126,0.51,0.783,0.4,28,40,10,0021300751,1610612765,DET,Detroit,Greg Monroe,F,,30:24,2.0,2.0,0.0,10.0,5.0,8.0,6.0,22.0,0.0,0.0,3.0,3.0
0021300751,1610612765,DET,Detroit,203083,Andre Drummond,C,,35:24,120.4,94.8,25.6,0.067,0.0,12.6,0.216,0.2,0.208,0.0,0.615,0.648,0.151,105.74,0.184,2014-02-08T00:00:00,3,1610612743,DEN,Denver,24-25,29,32,25,23,0,0,0,0,0,0,0,0,0,0,109,0.466,0.545,0.455,24,47,20,0021300751,1610612765,DET,Detroit,Andre Drummond,C,,35:24,4.0,8.0,2.0,16.0,2.0,7.0,6.0,22.0,3.0,1.0,4.0,3.0
0021300751,1610612765,DET,Detroit,203083,Andre Drummond,C,,35:24,120.4,94.8,25.6,0.067,0.0,12.6,0.216,0.2,0.208,0.0,0.615,0.648,0.151,105.74,0.184,2014-02-08T00:00:00,3,1610612765,DET,Detroit,21-29,30,35,32,29,0,0,0,0,0,0,0,0,0,0,126,0.51,0.783,0.4,28,40,10,0021300751,1610612765,DET,Detroit,Andre Drummond,C,,35:24,4.0,8.0,2.0,16.0,2.0,7.0,6.0,22.0,3.0,1.0,4.0,3.0
0021300751,1610612765,DET,Detroit,202713,Kyle Singler,G,,45:43,119.0,107.3,11.7,0.024,0.0,8.4,0.024,0.05,0.037,0.0,0.45,0.46,0.098,102.92,0.038,2014-02-08T00:00:00,3,1610612743,DEN,Denver,24-25,29,32,25,23,0,0,0,0,0,0,0,0,0,0,109,0.466,0.545,0.455,24,47,20,0021300751,1610612765,DET,Detroit,Kyle Singler,G,,45:43,2.0,2.0,3.0,6.0,7.0,13.0,6.0,32.0,0.0,1.0,1.0,3.0
0021300751,1610612765,DET,Detroit,202713,Kyle Singler,G,,45:43,119.0,107.3,11.7,0.024,0.0,8.4,0.024,0.05,0.037,0.0,0.45,0.46,0.098,102.92,0.038,2014-02-08T00:00:00,3,1610612765,DET,Detroit,21-29,30,35,32,29,0,0,0,0,0,0,0,0,0,0,126,0.51,0.783,0.4,28,40,10,0021300751,1610612765,DET,Detroit,Kyle Singler,G,,45:43,2.0,2.0,3.0,6.0,7.0,13.0,6.0,32.0,0.0,1.0,1.0,3.0
0021300751,1610612765,DET,Detroit,201943,Brandon Jennings,G,,40:16,124.6,95.5,29.1,0.364,6.0,30.7,0.0,0.027,0.013,5.1,0.636,0.698,0.261,106.45,0.213,2014-02-08T00:00:00,3,1610612743,DEN,Denver,24-25,29,32,25,23,0,0,0,0,0,0,0,0,0,0,109,0.466,0.545,0.455,24,47,20,0021300751,1610612765,DET,Detroit,Brandon Jennings,G,,40:16,11.0,0.0,18.0,8.0,2.0,11.0,2.0,24.0,0.0,1.0,1.0,3.0
0021300751,1610612765,DET,Detroit,201943,Brandon Jennings,G,,40:16,124.6,95.5,29.1,0.364,6.0,30.7,0.0,0.027,0.013,5.1,0.636,0.698,0.261,106.45,0.213,2014-02-08T00:00:00,3,1610612765,DET,Detroit,21-29,30,35,32,29,0,0,0,0,0,0,0,0,0,0,126,0.51,0.783,0.4,28,40,10,0021300751,1610612765,DET,Detroit,Brandon Jennings,G,,40:16,11.0,0.0,18.0,8.0,2.0,11.0,2.0,24.0,0.0,1.0,1.0,3.0
0021300751,1610612765,DET,Detroit,201155,Rodney Stuckey,,,28:44,114.0,100.9,13.1,0.13,3.0,13.9,0.037,0.13,0.08,4.6,0.467,0.539,0.273,104.98,0.118,2014-02-08T00:00:00,3,1610612743,DEN,Denver,24-25,29,32,25,23,0,0,0,0,0,0,0,0,0,0,109,0.466,0.545,0.455,24,47,20,0021300751,1610612765,DET,Detroit,Rodney Stuckey,,,28:44,2.0,4.0,4.0,10.0,7.0,4.0,4.0,20.0,0.0,1.0,1.0,3.0
0021300751,1610612765,DET,Detroit,201155,Rodney Stuckey,,,28:44,114.0,100.9,13.1,0.13,3.0,13.9,0.037,0.13,0.08,4.6,0.467,0.539,0.273,104.98,0.118,2014-02-08T00:00:00,3,1610612765,DET,Detroit,21-29,30,35,32,29,0,0,0,0,0,0,0,0,0,0,126,0.51,0.783,0.4,28,40,10,0021300751,1610612765,DET,Detroit,Rodney Stuckey,,,28:44,2.0,4.0,4.0,10.0,7.0,4.0,4.0,20.0,0.0,1.0,1.0,3.0
0021300751,1610612765,DET,Detroit,203484,Kentavious Caldwell-Pope,,,12:22,129.2,131.4,-2.2,0.071,0.0,33.3,0.0,0.0,0.0,0.0,0.0,0.0,0.073,104.25,-0.053,2014-02-08T00:00:00,3,1610612743,DEN,Denver,24-25,29,32,25,23,0,0,0,0,0,0,0,0,0,0,109,0.466,0.545,0.455,24,47,20,0021300751,1610612765,DET,Detroit,Kentavious Caldwell-Pope,,,12:22,0.0,0.0,0.0,0.0,5.0,7.0,4.0,10.0,1.0,0.0,3.0,0.0
0021300751,1610612765,DET,Detroit,203484,Kentavious Caldwell-Pope,,,12:22,129.2,131.4,-2.2,0.071,0.0,33.3,0.0,0.0,0.0,0.0,0.0,0.0,0.073,104.25,-0.053,2014-02-08T00:00:00,3,1610612765,DET,Detroit,21-29,30,35,32,29,0,0,0,0,0,0,0,0,0,0,126,0.51,0.783,0.4,28,40,10,0021300751,1610612765,DET,Detroit,Kentavious Caldwell-Pope,,,12:22,0.0,0.0,0.0,0.0,5.0,7.0,4.0,10.0,1.0,0.0,3.0,0.0
0021300751,1610612765,DET,Detroit,201973,Jonas Jerebko,,,1:37,204.9,40.0,164.9,0.333,0.0,100.0,0.0,0.333,0.25,0.0,0.0,0.0,0.0,146.67,0.16,2014-02-08T00:00:00,3,1610612743,DEN,Denver,24-25,29,32,25,23,0,0,0,0,0,0,0,0,0,0,109,0.466,0.545,0.455,24,47,20,0021300751,1610612765,DET,Detroit,Jonas Jerebko,,,1:37,0.0,0.0,0.0,0.0,0.0,2.0,0.0,2.0,0.0,0.0,0.0,0.0
0021300751,1610612765,DET,Detroit,201973,Jonas Jerebko,,,1:37,204.9,40.0,164.9,0.333,0.0,100.0,0.0,0.333,0.25,0.0,0.0,0.0,0.0,146.67,0.16,2014-02-08T00:00:00,3,1610612765,DET,Detroit,21-29,30,35,32,29,0,0,0,0,0,0,0,0,0,0,126,0.51,0.783,0.4,28,40,10,0021300751,1610612765,DET,Detroit,Jonas Jerebko,,,1:37,0.0,0.0,0.0,0.0,0.0,2.0,0.0,2.0,0.0,0.0,0.0,0.0
0021300751,1610612765,DET,Detroit,1497,Chauncey Billups,,DNP - Coach's Decision,,,,,,,0.0,,,,,,,0.0,,,2014-02-08T00:00:00,3,1610612743,DEN,Denver,24-25,29,32,25,23,0,0,0,0,0,0,0,0,0,0,109,0.466,0.545,0.455,24,47,20,0021300751,1610612765,DET,Detroit,Chauncey Billups,,DNP - Coach's Decision,,,,,,,,,,,,,
0021300751,1610612765,DET,Detroit,1497,Chauncey Billups,,DNP - Coach's Decision,,,,,,,0.0,,,,,,,0.0,,,2014-02-08T00:00:00,3,1610612765,DET,Detroit,21-29,30,35,32,29,0,0,0,0,0,0,0,0,0,0,126,0.51,0.783,0.4,28,40,10,0021300751,1610612765,DET,Detroit,Chauncey Billups,,DNP - Coach's Decision,,,,,,,,,,,,,
0021300751,1610612765,DET,Detroit,101198,Will Bynum,,DNP - Coach's Decision,,,,,,,0.0,,,,,,,0.0,,,2014-02-08T00:00:00,3,1610612743,DEN,Denver,24-25,29,32,25,23,0,0,0,0,0,0,0,0,0,0,109,0.466,0.545,0.455,24,47,20,0021300751,1610612765,DET,Detroit,Will Bynum,,DNP - Coach's Decision,,,,,,,,,,,,,
0021300751,1610612765,DET,Detroit,101198,Will Bynum,,DNP - Coach's Decision,,,,,,,0.0,,,,,,,0.0,,,2014-02-08T00:00:00,3,1610612765,DET,Detroit,21-29,30,35,32,29,0,0,0,0,0,0,0,0,0,0,126,0.51,0.783,0.4,28,40,10,0021300751,1610612765,DET,Detroit,Will Bynum,,DNP - Coach's Decision,,,,,,,,,,,,,
0021300751,1610612765,DET,Detroit,203540,Gigi Datome,,DNP - Coach's Decision,,,,,,,0.0,,,,,,,0.0,,,2014-02-08T00:00:00,3,1610612743,DEN,Denver,24-25,29,32,25,23,0,0,0,0,0,0,0,0,0,0,109,0.466,0.545,0.455,24,47,20,0021300751,1610612765,DET,Detroit,Gigi Datome,,DNP - Coach's Decision,,,,,,,,,,,,,
0021300751,1610612765,DET,Detroit,203540,Gigi Datome,,DNP - Coach's Decision,,,,,,,0.0,,,,,,,0.0,,,2014-02-08T00:00:00,3,1610612765,DET,Detroit,21-29,30,35,32,29,0,0,0,0,0,0,0,0,0,0,126,0.51,0.783,0.4,28,40,10,0021300751,1610612765,DET,Detroit,Gigi Datome,,DNP - Coach's Decision,,,,,,,,,,,,,
0021300751,1610612765,DET,Detroit,101111,Charlie Villanueva,,DNP - Coach's Decision,,,,,,,0.0,,,,,,,0.0,,,2014-02-08T00:00:00,3,1610612743,DEN,Denver,24-25,29,32,25,23,0,0,0,0,0,0,0,0,0,0,109,0.466,0.545,0.455,24,47,20,0021300751,1610612765,DET,Detroit,Charlie Villanueva,,DNP - Coach's Decision,,,,,,,,,,,,,
0021300751,1610612765,DET,Detroit,101111,Charlie Villanueva,,DNP - Coach's Decision,,,,,,,0.0,,,,,,,0.0,,,2014-02-08T00:00:00,3,1610612765,DET,Detroit,21-29,30,35,32,29,0,0,0,0,0,0,0,0,0,0,126,0.51,0.783,0.4,28,40,10,0021300751,1610612765,DET,Detroit,Charlie Villanueva,,DNP - Coach's Decision,,,,,,,,,,,,,
