GAME_ID_x,TEAM_ID_x,TEAM_ABBREVIATION_x,TEAM_CITY_x,PLAYER_ID,PLAYER_NAME_x,START_POSITION_x,COMMENT_x,MIN_x,OFF_RATING,DEF_RATING,NET_RATING,AST_PCT,AST_TOV,AST_RATIO,OREB_PCT,DREB_PCT,REB_PCT,TM_TOV_PCT,EFG_PCT,TS_PCT,USG_PCT,PACE,PIE,GAME_DATE_EST,GAME_SEQUENCE,TEAM_ID_y,TEAM_ABBREVIATION_y,TEAM_CITY_NAME,TEAM_WINS_LOSSES,PTS_QTR1,PTS_QTR2,PTS_QTR3,PTS_QTR4,PTS_OT1,PTS_OT2,PTS_OT3,PTS_OT4,PTS_OT5,PTS_OT6,PTS_OT7,PTS_OT8,PTS_OT9,PTS_OT10,PTS,FG_PCT,FT_PCT,FG3_PCT,AST,REB,TOV,GAME_ID_y,TEAM_ID,TEAM_ABBREVIATION,TEAM_CITY_y,PLAYER_NAME_y,START_POSITION_y,COMMENT_y,MIN_y,PTS_OFF_TOV,PTS_2ND_CHANCE,PTS_FB,PTS_PAINT,OPP_PTS_OFF_TOV,OPP_PTS_2ND_CHANCE,OPP_PTS_FB,OPP_PTS_PAINT,BLK,BLKA,PF,PFD
0021300753,1610612745,HOU,Houston,202718,Chandler Parsons,F,,35:26,103.1,102.7,0.4,0.148,2.0,28.6,0.034,0.063,0.049,14.3,0.5,0.5,0.13,100.03,0.058,2014-02-08T00:00:00,5,1610612745,HOU,Houston,34-17,29,27,25,20,0,0,0,0,0,0,0,0,0,0,101,0.494,0.692,0.333,23,38,13,0021300753,1610612745,HOU,Houston,Chandler Parsons,F,,35:26,2.0,0.0,2.0,2.0,14.0,14.0,12.0,34.0,0.0,0.0,1.0,1.0
0021300753,1610612745,HOU,Houston,202718,Chandler Parsons,F,,35:26,103.1,102.7,0.4,0.148,2.0,28.6,0.034,0.063,0.049,14.3,0.5,0.5,0.13,100.03,0.058,2014-02-08T00:00:00,5,1610612749,MIL,Milwaukee,9-41,26,19,24,26,0,0,0,0,0,0,0,0,0,0,95,0.444,0.818,0.4,26,47,18,0021300753,1610612745,HOU,Houston,Chandler Parsons,F,,35:26,2.0,0.0,2.0,2.0,14.0,14.0,12.0,34.0,0.0,0.0,1.0,1.0
0021300753,1610612745,HOU,Houston,203093,Terrence Jones,F,,22:52,99.3,123.2,-23.9,0.056,0.0,20.0,0.045,0.235,0.128,0.0,0.25,0.25,0.083,95.48,0.032,2014-02-08T00:00:00,5,1610612745,HOU,Houston,34-17,29,27,25,20,0,0,0,0,0,0,0,0,0,0,101,0.494,0.692,0.333,23,38,13,0021300753,1610612745,HOU,Houston,Terrence Jones,F,,22:52,0.0,0.0,0.0,0.0,8.0,8.0,8.0,20.0,0.0,1.0,1.0,0.0
0021300753,1610612745,HOU,Houston,203093,Terrence Jones,F,,22:52,99.3,123.2,-23.9,0.056,0.0,20.0,0.045,0.235,0.128,0.0,0.25,0.25,0.083,95.48,0.032,2014-02-08T00:00:00,5,1610612749,MIL,Milwaukee,9-41,26,19,24,26,0,0,0,0,0,0,0,0,0,0,95,0.444,0.818,0.4,26,47,18,0021300753,1610612745,HOU,Houston,Terrence Jones,F,,22:52,0.0,0.0,0.0,0.0,8.0,8.0,8.0,20.0,0.0,1.0,1.0,0.0
0021300753,1610612745,HOU,Houston,2730,Dwight Howard,C,,37:01,102.9,101.3,1.6,0.25,2.5,17.2,0.032,0.387,0.21,6.9,0.579,0.611,0.305,98.43,0.214,2014-02-08T00:00:00,5,1610612745,HOU,Houston,34-17,29,27,25,20,0,0,0,0,0,0,0,0,0,0,101,0.494,0.692,0.333,23,38,13,0021300753,1610612745,HOU,Houston,Dwight Howard,C,,37:01,2.0,3.0,0.0,22.0,12.0,12.0,12.0,36.0,2.0,2.0,3.0,8.0
0021300753,1610612745,HOU,Houston,2730,Dwight Howard,C,,37:01,102.9,101.3,1.6,0.25,2.5,17.2,0.032,0.387,0.21,6.9,0.579,0.611,0.305,98.43,0.214,2014-02-08T00:00:00,5,1610612749,MIL,Milwaukee,9-41,26,19,24,26,0,0,0,0,0,0,0,0,0,0,95,0.444,0.818,0.4,26,47,18,0021300753,1610612745,HOU,Houston,Dwight Howard,C,,37:01,2.0,3.0,0.0,22.0,12.0,12.0,12.0,36.0,2.0,2.0,3.0,8.0
0021300753,1610612745,HOU,Houston,201935,James Harden,G,,39:06,104.1,97.8,6.3,0.12,0.6,9.8,0.0,0.054,0.029,16.3,0.452,0.483,0.328,100.39,0.078,2014-02-08T00:00:00,5,1610612745,HOU,Houston,34-17,29,27,25,20,0,0,0,0,0,0,0,0,0,0,101,0.494,0.692,0.333,23,38,13,0021300753,1610612745,HOU,Houston,James Harden,G,,39:06,12.0,0.0,12.0,12.0,14.0,14.0,12.0,36.0,0.0,1.0,1.0,6.0
0021300753,1610612745,HOU,Houston,201935,James Harden,G,,39:06,104.1,97.8,6.3,0.12,0.6,9.8,0.0,0.054,0.029,16.3,0.452,0.483,0.328,100.39,0.078,2014-02-08T00:00:00,5,1610612749,MIL,Milwaukee,9-41,26,19,24,26,0,0,0,0,0,0,0,0,0,0,95,0.444,0.818,0.4,26,47,18,0021300753,1610612745,HOU,Houston,James Harden,G,,39:06,12.0,0.0,12.0,12.0,14.0,14.0,12.0,36.0,0.0,1.0,1.0,6.0
0021300753,1610612745,HOU,Houston,201976,Patrick Beverley,G,,29:44,105.9,99.5,6.5,0.158,0.0,20.0,0.048,0.067,0.059,0.0,0.625,0.625,0.195,95.11,0.131,2014-02-08T00:00:00,5,1610612745,HOU,Houston,34-17,29,27,25,20,0,0,0,0,0,0,0,0,0,0,101,0.494,0.692,0.333,23,38,13,0021300753,1610612745,HOU,Houston,Patrick Beverley,G,,29:44,0.0,2.0,0.0,6.0,8.0,14.0,8.0,30.0,3.0,1.0,3.0,1.0
0021300753,1610612745,HOU,Houston,201976,Patrick Beverley,G,,29:44,105.9,99.5,6.5,0.158,0.0,20.0,0.048,0.067,0.059,0.0,0.625,0.625,0.195,95.11,0.131,2014-02-08T00:00:00,5,1610612749,MIL,Milwaukee,9-41,26,19,24,26,0,0,0,0,0,0,0,0,0,0,95,0.444,0.818,0.4,26,47,18,0021300753,1610612745,HOU,Houston,Patrick Beverley,G,,29:44,0.0,2.0,0.0,6.0,8.0,14.0,8.0,30.0,3.0,1.0,3.0,1.0
0021300753,1610612745,HOU,Houston,202700,Donatas Motiejunas,,,24:47,104.8,78.1,26.6,0.0,0.0,0.0,0.0,0.037,0.023,14.5,0.8,0.765,0.128,97.65,0.07,2014-02-08T00:00:00,5,1610612745,HOU,Houston,34-17,29,27,25,20,0,0,0,0,0,0,0,0,0,0,101,0.494,0.692,0.333,23,38,13,0021300753,1610612745,HOU,Houston,Donatas Motiejunas,,,24:47,2.0,0.0,3.0,8.0,8.0,10.0,4.0,28.0,0.0,0.0,3.0,1.0
0021300753,1610612745,HOU,Houston,202700,Donatas Motiejunas,,,24:47,104.8,78.1,26.6,0.0,0.0,0.0,0.0,0.037,0.023,14.5,0.8,0.765,0.128,97.65,0.07,2014-02-08T00:00:00,5,1610612749,MIL,Milwaukee,9-41,26,19,24,26,0,0,0,0,0,0,0,0,0,0,95,0.444,0.818,0.4,26,47,18,0021300753,1610612745,HOU,Houston,Donatas Motiejunas,,,24:47,2.0,0.0,3.0,8.0,8.0,10.0,4.0,28.0,0.0,0.0,3.0,1.0
0021300753,1610612745,HOU,Houston,202391,Jeremy Lin,,,27:31,101.8,85.4,16.4,0.235,2.0,20.0,0.0,0.074,0.038,10.0,0.643,0.643,0.254,101.59,0.165,2014-02-08T00:00:00,5,1610612745,HOU,Houston,34-17,29,27,25,20,0,0,0,0,0,0,0,0,0,0,101,0.494,0.692,0.333,23,38,13,0021300753,1610612745,HOU,Houston,Jeremy Lin,,,27:31,4.0,5.0,2.0,8.0,10.0,8.0,4.0,30.0,0.0,1.0,2.0,1.0
0021300753,1610612745,HOU,Houston,202391,Jeremy Lin,,,27:31,101.8,85.4,16.4,0.235,2.0,20.0,0.0,0.074,0.038,10.0,0.643,0.643,0.254,101.59,0.165,2014-02-08T00:00:00,5,1610612749,MIL,Milwaukee,9-41,26,19,24,26,0,0,0,0,0,0,0,0,0,0,95,0.444,0.818,0.4,26,47,18,0021300753,1610612745,HOU,Houston,Jeremy Lin,,,27:31,4.0,5.0,2.0,8.0,10.0,8.0,4.0,30.0,0.0,1.0,2.0,1.0
0021300753,1610612745,HOU,Houston,201600,Omer Asik,,,10:59,104.7,76.6,28.1,0.182,2.0,66.7,0.0,0.333,0.217,33.3,0.0,0.0,0.04,97.78,0.188,2014-02-08T00:00:00,5,1610612745,HOU,Houston,34-17,29,27,25,20,0,0,0,0,0,0,0,0,0,0,101,0.494,0.692,0.333,23,38,13,0021300753,1610612745,HOU,Houston,Omer Asik,,,10:59,0.0,0.0,0.0,0.0,4.0,6.0,0.0,12.0,0.0,0.0,0.0,0.0
0021300753,1610612745,HOU,Houston,201600,Omer Asik,,,10:59,104.7,76.6,28.1,0.182,2.0,66.7,0.0,0.333,0.217,33.3,0.0,0.0,0.04,97.78,0.188,2014-02-08T00:00:00,5,1610612749,MIL,Milwaukee,9-41,26,19,24,26,0,0,0,0,0,0,0,0,0,0,95,0.444,0.818,0.4,26,47,18,0021300753,1610612745,HOU,Houston,Omer Asik,,,10:59,0.0,0.0,0.0,0.0,4.0,6.0,0.0,12.0,0.0,0.0,0.0,0.0
0021300753,1610612745,HOU,Houston,201956,Omri Casspi,,,12:34,104.0,75.4,28.6,0.083,0.0,33.3,0.2,0.143,0.167,0.0,0.0,0.0,0.074,93.35,0.029,2014-02-08T00:00:00,5,1610612745,HOU,Houston,34-17,29,27,25,20,0,0,0,0,0,0,0,0,0,0,101,0.494,0.692,0.333,23,38,13,0021300753,1610612745,HOU,Houston,Omri Casspi,,,12:34,0.0,0.0,0.0,0.0,2.0,4.0,0.0,14.0,0.0,0.0,1.0,0.0
0021300753,1610612745,HOU,Houston,201956,Omri Casspi,,,12:34,104.0,75.4,28.6,0.083,0.0,33.3,0.2,0.143,0.167,0.0,0.0,0.0,0.074,93.35,0.029,2014-02-08T00:00:00,5,1610612749,MIL,Milwaukee,9-41,26,19,24,26,0,0,0,0,0,0,0,0,0,0,95,0.444,0.818,0.4,26,47,18,0021300753,1610612745,HOU,Houston,Omri Casspi,,,12:34,0.0,0.0,0.0,0.0,2.0,4.0,0.0,14.0,0.0,0.0,1.0,0.0
0021300753,1610612745,HOU,Houston,200758,Ronnie Brewer,,DNP - Coach's Decision,,,,,,,0.0,,,,,,,0.0,,,2014-02-08T00:00:00,5,1610612745,HOU,Houston,34-17,29,27,25,20,0,0,0,0,0,0,0,0,0,0,101,0.494,0.692,0.333,23,38,13,0021300753,1610612745,HOU,Houston,Ronnie Brewer,,DNP - Coach's Decision,,,,,,,,,,,,,
0021300753,1610612745,HOU,Houston,200758,Ronnie Brewer,,DNP - Coach's Decision,,,,,,,0.0,,,,,,,0.0,,,2014-02-08T00:00:00,5,1610612749,MIL,Milwaukee,9-41,26,19,24,26,0,0,0,0,0,0,0,0,0,0,95,0.444,0.818,0.4,26,47,18,0021300753,1610612745,HOU,Houston,Ronnie Brewer,,DNP - Coach's Decision,,,,,,,,,,,,,
0021300753,1610612745,HOU,Houston,201166,Aaron Brooks,,DNP - Coach's Decision,,,,,,,0.0,,,,,,,0.0,,,2014-02-08T00:00:00,5,1610612745,HOU,Houston,34-17,29,27,25,20,0,0,0,0,0,0,0,0,0,0,101,0.494,0.692,0.333,23,38,13,0021300753,1610612745,HOU,Houston,Aaron Brooks,,DNP - Coach's Decision,,,,,,,,,,,,,
0021300753,1610612745,HOU,Houston,201166,Aaron Brooks,,DNP - Coach's Decision,,,,,,,0.0,,,,,,,0.0,,,2014-02-08T00:00:00,5,1610612749,MIL,Milwaukee,9-41,26,19,24,26,0,0,0,0,0,0,0,0,0,0,95,0.444,0.818,0.4,26,47,18,0021300753,1610612745,HOU,Houston,Aaron Brooks,,DNP - Coach's Decision,,,,,,,,,,,,,
0021300753,1610612745,HOU,Houston,101128,Francisco Garcia,,DNP - Coach's Decision,,,,,,,0.0,,,,,,,0.0,,,2014-02-08T00:00:00,5,1610612745,HOU,Houston,34-17,29,27,25,20,0,0,0,0,0,0,0,0,0,0,101,0.494,0.692,0.333,23,38,13,0021300753,1610612745,HOU,Houston,Francisco Garcia,,DNP - Coach's Decision,,,,,,,,,,,,,
0021300753,1610612745,HOU,Houston,101128,Francisco Garcia,,DNP - Coach's Decision,,,,,,,0.0,,,,,,,0.0,,,2014-02-08T00:00:00,5,1610612749,MIL,Milwaukee,9-41,26,19,24,26,0,0,0,0,0,0,0,0,0,0,95,0.444,0.818,0.4,26,47,18,0021300753,1610612745,HOU,Houston,Francisco Garcia,,DNP - Coach's Decision,,,,,,,,,,,,,
0021300753,1610612745,HOU,Houston,202962,Greg Smith,,NWT - Sore right knee,,,,,,,0.0,,,,,,,0.0,,,2014-02-08T00:00:00,5,1610612745,HOU,Houston,34-17,29,27,25,20,0,0,0,0,0,0,0,0,0,0,101,0.494,0.692,0.333,23,38,13,0021300753,1610612745,HOU,Houston,Greg Smith,,NWT - Sore right knee,,,,,,,,,,,,,
0021300753,1610612745,HOU,Houston,202962,Greg Smith,,NWT - Sore right knee,,,,,,,0.0,,,,,,,0.0,,,2014-02-08T00:00:00,5,1610612749,MIL,Milwaukee,9-41,26,19,24,26,0,0,0,0,0,0,0,0,0,0,95,0.444,0.818,0.4,26,47,18,0021300753,1610612745,HOU,Houston,Greg Smith,,NWT - Sore right knee,,,,,,,,,,,,,
0021300753,1610612749,MIL,Milwaukee,203114,Khris Middleton,F,,35:02,100.1,103.1,-3.0,0.333,4.0,32.9,0.0,0.143,0.066,8.2,0.654,0.698,0.194,101.85,0.144,2014-02-08T00:00:00,5,1610612745,HOU,Houston,34-17,29,27,25,20,0,0,0,0,0,0,0,0,0,0,101,0.494,0.692,0.333,23,38,13,0021300753,1610612749,MIL,Milwaukee,Khris Middleton,F,,35:02,0.0,0.0,4.0,4.0,20.0,5.0,15.0,40.0,0.0,0.0,5.0,2.0
0021300753,1610612749,MIL,Milwaukee,203114,Khris Middleton,F,,35:02,100.1,103.1,-3.0,0.333,4.0,32.9,0.0,0.143,0.066,8.2,0.654,0.698,0.194,101.85,0.144,2014-02-08T00:00:00,5,1610612749,MIL,Milwaukee,9-41,26,19,24,26,0,0,0,0,0,0,0,0,0,0,95,0.444,0.818,0.4,26,47,18,0021300753,1610612749,MIL,Milwaukee,Khris Middleton,F,,35:02,0.0,0.0,4.0,4.0,20.0,5.0,15.0,40.0,0.0,0.0,5.0,2.0
0021300753,1610612749,MIL,Milwaukee,203089,John Henson,F,,40:46,97.7,97.8,-0.1,0.107,1.0,15.0,0.056,0.216,0.137,15.0,0.5,0.5,0.177,99.38,0.104,2014-02-08T00:00:00,5,1610612745,HOU,Houston,34-17,29,27,25,20,0,0,0,0,0,0,0,0,0,0,101,0.494,0.692,0.333,23,38,13,0021300753,1610612749,MIL,Milwaukee,John Henson,F,,40:46,4.0,2.0,2.0,14.0,20.0,7.0,16.0,50.0,4.0,2.0,2.0,0.0
0021300753,1610612749,MIL,Milwaukee,203089,John Henson,F,,40:46,97.7,97.8,-0.1,0.107,1.0,15.0,0.056,0.216,0.137,15.0,0.5,0.5,0.177,99.38,0.104,2014-02-08T00:00:00,5,1610612749,MIL,Milwaukee,9-41,26,19,24,26,0,0,0,0,0,0,0,0,0,0,95,0.444,0.818,0.4,26,47,18,0021300753,1610612749,MIL,Milwaukee,John Henson,F,,40:46,4.0,2.0,2.0,14.0,20.0,7.0,16.0,50.0,4.0,2.0,2.0,0.0
0021300753,1610612749,MIL,Milwaukee,202336,Larry Sanders,C,,4:23,77.8,133.3,-55.6,0.0,0.0,0.0,0.25,0.5,0.333,25.0,0.333,0.333,0.333,98.56,0.095,2014-02-08T00:00:00,5,1610612745,HOU,Houston,34-17,29,27,25,20,0,0,0,0,0,0,0,0,0,0,101,0.494,0.692,0.333,23,38,13,0021300753,1610612749,MIL,Milwaukee,Larry Sanders,C,,4:23,0.0,2.0,0.0,2.0,2.0,0.0,2.0,6.0,0.0,0.0,0.0,0.0
0021300753,1610612749,MIL,Milwaukee,202336,Larry Sanders,C,,4:23,77.8,133.3,-55.6,0.0,0.0,0.0,0.25,0.5,0.333,25.0,0.333,0.333,0.333,98.56,0.095,2014-02-08T00:00:00,5,1610612749,MIL,Milwaukee,9-41,26,19,24,26,0,0,0,0,0,0,0,0,0,0,95,0.444,0.818,0.4,26,47,18,0021300753,1610612749,MIL,Milwaukee,Larry Sanders,C,,4:23,0.0,2.0,0.0,2.0,2.0,0.0,2.0,6.0,0.0,0.0,0.0,0.0
0021300753,1610612749,MIL,Milwaukee,203489,Nate Wolters,G,,38:47,98.1,103.2,-5.1,0.125,1.5,14.7,0.057,0.143,0.1,9.8,0.633,0.615,0.193,97.17,0.126,2014-02-08T00:00:00,5,1610612745,HOU,Houston,34-17,29,27,25,20,0,0,0,0,0,0,0,0,0,0,101,0.494,0.692,0.333,23,38,13,0021300753,1610612749,MIL,Milwaukee,Nate Wolters,G,,38:47,0.0,7.0,2.0,10.0,18.0,7.0,17.0,48.0,0.0,0.0,1.0,2.0
0021300753,1610612749,MIL,Milwaukee,203489,Nate Wolters,G,,38:47,98.1,103.2,-5.1,0.125,1.5,14.7,0.057,0.143,0.1,9.8,0.633,0.615,0.193,97.17,0.126,2014-02-08T00:00:00,5,1610612749,MIL,Milwaukee,9-41,26,19,24,26,0,0,0,0,0,0,0,0,0,0,95,0.444,0.818,0.4,26,47,18,0021300753,1610612749,MIL,Milwaukee,Nate Wolters,G,,38:47,0.0,7.0,2.0,10.0,18.0,7.0,17.0,48.0,0.0,0.0,1.0,2.0
0021300753,1610612749,MIL,Milwaukee,202688,Brandon Knight,G,,34:57,98.6,101.6,-3.0,0.238,1.25,17.0,0.0,0.069,0.032,13.6,0.55,0.563,0.291,101.58,0.112,2014-02-08T00:00:00,5,1610612745,HOU,Houston,34-17,29,27,25,20,0,0,0,0,0,0,0,0,0,0,101,0.494,0.692,0.333,23,38,13,0021300753,1610612749,MIL,Milwaukee,Brandon Knight,G,,34:57,6.0,3.0,4.0,8.0,20.0,5.0,13.0,42.0,0.0,1.0,1.0,3.0
0021300753,1610612749,MIL,Milwaukee,202688,Brandon Knight,G,,34:57,98.6,101.6,-3.0,0.238,1.25,17.0,0.0,0.069,0.032,13.6,0.55,0.563,0.291,101.58,0.112,2014-02-08T00:00:00,5,1610612749,MIL,Milwaukee,9-41,26,19,24,26,0,0,0,0,0,0,0,0,0,0,95,0.444,0.818,0.4,26,47,18,0021300753,1610612749,MIL,Milwaukee,Brandon Knight,G,,34:57,6.0,3.0,4.0,8.0,20.0,5.0,13.0,42.0,0.0,1.0,1.0,3.0
0021300753,1610612749,MIL,Milwaukee,2585,Zaza Pachulia,,,29:27,102.2,105.8,-3.6,0.227,2.5,38.8,0.125,0.318,0.217,15.5,1.0,1.02,0.116,98.74,0.165,2014-02-08T00:00:00,5,1610612745,HOU,Houston,34-17,29,27,25,20,0,0,0,0,0,0,0,0,0,0,101,0.494,0.692,0.333,23,38,13,0021300753,1610612749,MIL,Milwaukee,Zaza Pachulia,,,29:27,4.0,2.0,0.0,8.0,16.0,5.0,12.0,36.0,0.0,0.0,4.0,3.0
0021300753,1610612749,MIL,Milwaukee,2585,Zaza Pachulia,,,29:27,102.2,105.8,-3.6,0.227,2.5,38.8,0.125,0.318,0.217,15.5,1.0,1.02,0.116,98.74,0.165,2014-02-08T00:00:00,5,1610612749,MIL,Milwaukee,9-41,26,19,24,26,0,0,0,0,0,0,0,0,0,0,95,0.444,0.818,0.4,26,47,18,0021300753,1610612749,MIL,Milwaukee,Zaza Pachulia,,,29:27,4.0,2.0,0.0,8.0,16.0,5.0,12.0,36.0,0.0,0.0,4.0,3.0
0021300753,1610612749,MIL,Milwaukee,203507,Giannis Antetokounmpo,,,24:56,85.9,103.8,-17.9,0.0,0.0,0.0,0.04,0.222,0.116,10.1,0.0,0.056,0.173,97.37,-0.065,2014-02-08T00:00:00,5,1610612745,HOU,Houston,34-17,29,27,25,20,0,0,0,0,0,0,0,0,0,0,101,0.494,0.692,0.333,23,38,13,0021300753,1610612749,MIL,Milwaukee,Giannis Antetokounmpo,,,24:56,0.0,0.0,0.0,0.0,8.0,8.0,10.0,32.0,1.0,1.0,2.0,3.0
0021300753,1610612749,MIL,Milwaukee,203507,Giannis Antetokounmpo,,,24:56,85.9,103.8,-17.9,0.0,0.0,0.0,0.04,0.222,0.116,10.1,0.0,0.056,0.173,97.37,-0.065,2014-02-08T00:00:00,5,1610612749,MIL,Milwaukee,9-41,26,19,24,26,0,0,0,0,0,0,0,0,0,0,95,0.444,0.818,0.4,26,47,18,0021300753,1610612749,MIL,Milwaukee,Giannis Antetokounmpo,,,24:56,0.0,0.0,0.0,0.0,8.0,8.0,10.0,32.0,1.0,1.0,2.0,3.0
0021300753,1610612749,MIL,Milwaukee,203545,Miroslav Raduljica,,,19:14,91.4,107.7,-16.3,0.154,1.0,25.0,0.087,0.083,0.086,25.0,0.25,0.25,0.133,91.61,-0.009,2014-02-08T00:00:00,5,1610612745,HOU,Houston,34-17,29,27,25,20,0,0,0,0,0,0,0,0,0,0,101,0.494,0.692,0.333,23,38,13,0021300753,1610612749,MIL,Milwaukee,Miroslav Raduljica,,,19:14,2.0,2.0,0.0,2.0,4.0,8.0,6.0,22.0,1.0,1.0,3.0,0.0
0021300753,1610612749,MIL,Milwaukee,203545,Miroslav Raduljica,,,19:14,91.4,107.7,-16.3,0.154,1.0,25.0,0.087,0.083,0.086,25.0,0.25,0.25,0.133,91.61,-0.009,2014-02-08T00:00:00,5,1610612749,MIL,Milwaukee,9-41,26,19,24,26,0,0,0,0,0,0,0,0,0,0,95,0.444,0.818,0.4,26,47,18,0021300753,1610612749,MIL,Milwaukee,Miroslav Raduljica,,,19:14,2.0,2.0,0.0,2.0,4.0,8.0,6.0,22.0,1.0,1.0,3.0,0.0
0021300753,1610612749,MIL,Milwaukee,202390,Gary Neal,,,12:28,83.5,104.7,-21.2,0.0,0.0,0.0,0.154,0.0,0.087,10.1,0.0,0.113,0.356,89.79,-0.188,2014-02-08T00:00:00,5,1610612745,HOU,Houston,34-17,29,27,25,20,0,0,0,0,0,0,0,0,0,0,101,0.494,0.692,0.333,23,38,13,0021300753,1610612749,MIL,Milwaukee,Gary Neal,,,12:28,0.0,0.0,0.0,0.0,2.0,5.0,4.0,14.0,0.0,0.0,0.0,2.0
0021300753,1610612749,MIL,Milwaukee,202390,Gary Neal,,,12:28,83.5,104.7,-21.2,0.0,0.0,0.0,0.154,0.0,0.087,10.1,0.0,0.113,0.356,89.79,-0.188,2014-02-08T00:00:00,5,1610612749,MIL,Milwaukee,9-41,26,19,24,26,0,0,0,0,0,0,0,0,0,0,95,0.444,0.818,0.4,26,47,18,0021300753,1610612749,MIL,Milwaukee,Gary Neal,,,12:28,0.0,0.0,0.0,0.0,2.0,5.0,4.0,14.0,0.0,0.0,0.0,2.0
0021300753,1610612749,MIL,Milwaukee,101141,Ersan Ilyasova,,DNP - Coach's Decision,,,,,,,0.0,,,,,,,0.0,,,2014-02-08T00:00:00,5,1610612745,HOU,Houston,34-17,29,27,25,20,0,0,0,0,0,0,0,0,0,0,101,0.494,0.692,0.333,23,38,13,0021300753,1610612749,MIL,Milwaukee,Ersan Ilyasova,,DNP - Coach's Decision,,,,,,,,,,,,,
0021300753,1610612749,MIL,Milwaukee,101141,Ersan Ilyasova,,DNP - Coach's Decision,,,,,,,0.0,,,,,,,0.0,,,2014-02-08T00:00:00,5,1610612749,MIL,Milwaukee,9-41,26,19,24,26,0,0,0,0,0,0,0,0,0,0,95,0.444,0.818,0.4,26,47,18,0021300753,1610612749,MIL,Milwaukee,Ersan Ilyasova,,DNP - Coach's Decision,,,,,,,,,,,,,
0021300753,1610612749,MIL,Milwaukee,201564,O.J. Mayo,,DND - Illness/Conditioning,,,,,,,0.0,,,,,,,0.0,,,2014-02-08T00:00:00,5,1610612745,HOU,Houston,34-17,29,27,25,20,0,0,0,0,0,0,0,0,0,0,101,0.494,0.692,0.333,23,38,13,0021300753,1610612749,MIL,Milwaukee,O.J. Mayo,,DND - Illness/Conditioning,,,,,,,,,,,,,
0021300753,1610612749,MIL,Milwaukee,201564,O.J. Mayo,,DND - Illness/Conditioning,,,,,,,0.0,,,,,,,0.0,,,2014-02-08T00:00:00,5,1610612749,MIL,Milwaukee,9-41,26,19,24,26,0,0,0,0,0,0,0,0,0,0,95,0.444,0.818,0.4,26,47,18,0021300753,1610612749,MIL,Milwaukee,O.J. Mayo,,DND - Illness/Conditioning,,,,,,,,,,,,,
0021300753,1610612749,MIL,Milwaukee,2557,Luke Ridnour,,DNP - Coach's Decision,,,,,,,0.0,,,,,,,0.0,,,2014-02-08T00:00:00,5,1610612745,HOU,Houston,34-17,29,27,25,20,0,0,0,0,0,0,0,0,0,0,101,0.494,0.692,0.333,23,38,13,0021300753,1610612749,MIL,Milwaukee,Luke Ridnour,,DNP - Coach's Decision,,,,,,,,,,,,,
0021300753,1610612749,MIL,Milwaukee,2557,Luke Ridnour,,DNP - Coach's Decision,,,,,,,0.0,,,,,,,0.0,,,2014-02-08T00:00:00,5,1610612749,MIL,Milwaukee,9-41,26,19,24,26,0,0,0,0,0,0,0,0,0,0,95,0.444,0.818,0.4,26,47,18,0021300753,1610612749,MIL,Milwaukee,Luke Ridnour,,DNP - Coach's Decision,,,,,,,,,,,,,
0021300753,1610612749,MIL,Milwaukee,202327,Ekpe Udoh,,DND - Left ankle sprain,,,,,,,0.0,,,,,,,0.0,,,2014-02-08T00:00:00,5,1610612745,HOU,Houston,34-17,29,27,25,20,0,0,0,0,0,0,0,0,0,0,101,0.494,0.692,0.333,23,38,13,0021300753,1610612749,MIL,Milwaukee,Ekpe Udoh,,DND - Left ankle sprain,,,,,,,,,,,,,
0021300753,1610612749,MIL,Milwaukee,202327,Ekpe Udoh,,DND - Left ankle sprain,,,,,,,0.0,,,,,,,0.0,,,2014-02-08T00:00:00,5,1610612749,MIL,Milwaukee,9-41,26,19,24,26,0,0,0,0,0,0,0,0,0,0,95,0.444,0.818,0.4,26,47,18,0021300753,1610612749,MIL,Milwaukee,Ekpe Udoh,,DND - Left ankle sprain,,,,,,,,,,,,,
