GAME_ID_x,TEAM_ID_x,TEAM_ABBREVIATION_x,TEAM_CITY_x,PLAYER_ID,PLAYER_NAME_x,START_POSITION_x,COMMENT_x,MIN_x,OFF_RATING,DEF_RATING,NET_RATING,AST_PCT,AST_TOV,AST_RATIO,OREB_PCT,DREB_PCT,REB_PCT,TM_TOV_PCT,EFG_PCT,TS_PCT,USG_PCT,PACE,PIE,GAME_DATE_EST,GAME_SEQUENCE,TEAM_ABBREVIATION_y,TEAM_CITY_NAME,TEAM_WINS_LOSSES,PTS_QTR1,PTS_QTR2,PTS_QTR3,PTS_QTR4,PTS_OT1,PTS_OT2,PTS_OT3,PTS_OT4,PTS_OT5,PTS_OT6,PTS_OT7,PTS_OT8,PTS_OT9,PTS_OT10,PTS,FG_PCT,FT_PCT,FG3_PCT,AST,REB,TOV,GAME_ID_y,TEAM_ID_y,TEAM_ABBREVIATION,TEAM_CITY_y,PLAYER_NAME_y,START_POSITION_y,COMMENT_y,MIN_y,PTS_OFF_TOV,PTS_2ND_CHANCE,PTS_FB,PTS_PAINT,OPP_PTS_OFF_TOV,OPP_PTS_2ND_CHANCE,OPP_PTS_FB,OPP_PTS_PAINT,BLK,BLKA,PF,PFD
0021400673,1610612738,BOS,Boston,203109,Jae Crowder,F,,15:57,88.3,101.6,-13.3,0.0,0.0,0.0,0.0,0.083,0.042,0.0,0.625,0.625,0.132,87.03,0.059,2015-01-26T00:00:00,4,BOS,Boston,16-27,17,38,16,28,0,0,0,0,0,0,0,0,0,0,99,0.473,0.913,0.421,18,37,14,0021400673,1610612738,BOS,Boston,Jae Crowder,F,,15:57,0.0,0.0,0.0,2.0,9.0,2.0,6.0,14.0,0.0,1.0,1.0,0.0
0021400673,1610612738,BOS,Boston,203096,Jared Sullinger,F,,27:24,100.5,81.5,19.0,0.071,0.25,6.1,0.1,0.28,0.2,24.5,0.45,0.53,0.275,88.27,0.139,2015-01-26T00:00:00,4,BOS,Boston,16-27,17,38,16,28,0,0,0,0,0,0,0,0,0,0,99,0.473,0.913,0.421,18,37,14,0021400673,1610612738,BOS,Boston,Jared Sullinger,F,,27:24,0.0,2.0,0.0,4.0,8.0,2.0,8.0,20.0,0.0,1.0,1.0,2.0
0021400673,1610612738,BOS,Boston,101138,Brandon Bass,C,,25:18,74.0,103.2,-29.3,0.111,0.0,12.7,0.043,0.286,0.159,0.0,0.5,0.581,0.141,94.15,0.129,2015-01-26T00:00:00,4,BOS,Boston,16-27,17,38,16,28,0,0,0,0,0,0,0,0,0,0,99,0.473,0.913,0.421,18,37,14,0021400673,1610612738,BOS,Boston,Brandon Bass,C,,25:18,2.0,2.0,2.0,6.0,14.0,6.0,12.0,22.0,1.0,2.0,5.0,2.0
0021400673,1610612738,BOS,Boston,202340,Avery Bradley,G,,28:52,100.3,88.6,11.7,0.0,0.0,0.0,0.0,0.0,0.0,18.9,0.417,0.466,0.265,95.25,0.0,2015-01-26T00:00:00,4,BOS,Boston,16-27,17,38,16,28,0,0,0,0,0,0,0,0,0,0,99,0.473,0.913,0.421,18,37,14,0021400673,1610612738,BOS,Boston,Avery Bradley,G,,28:52,0.0,3.0,3.0,2.0,10.0,4.0,12.0,24.0,0.0,2.0,2.0,3.0
0021400673,1610612738,BOS,Boston,202323,Evan Turner,G,,21:19,88.5,74.7,13.8,0.444,2.0,25.6,0.0,0.158,0.086,12.8,0.286,0.467,0.281,91.5,0.213,2015-01-26T00:00:00,4,BOS,Boston,16-27,17,38,16,28,0,0,0,0,0,0,0,0,0,0,99,0.473,0.913,0.421,18,37,14,0021400673,1610612738,BOS,Boston,Evan Turner,G,,21:19,0.0,0.0,0.0,0.0,11.0,6.0,4.0,20.0,0.0,0.0,1.0,6.0
0021400673,1610612738,BOS,Boston,201977,Marcus Thornton,,,19:27,115.0,98.3,16.6,0.077,1.0,9.2,0.0,0.125,0.08,9.2,0.438,0.507,0.257,93.82,0.116,2015-01-26T00:00:00,4,BOS,Boston,16-27,17,38,16,28,0,0,0,0,0,0,0,0,0,0,99,0.473,0.913,0.421,18,37,14,0021400673,1610612738,BOS,Boston,Marcus Thornton,,,19:27,2.0,0.0,2.0,2.0,10.0,10.0,3.0,20.0,0.0,2.0,0.0,1.0
0021400673,1610612738,BOS,Boston,203092,Tyler Zeller,,,29:11,123.7,97.2,26.6,0.053,1.0,9.2,0.053,0.222,0.152,9.2,0.75,0.788,0.16,99.14,0.147,2015-01-26T00:00:00,4,BOS,Boston,16-27,17,38,16,28,0,0,0,0,0,0,0,0,0,0,99,0.473,0.913,0.421,18,37,14,0021400673,1610612738,BOS,Boston,Tyler Zeller,,,29:11,0.0,0.0,0.0,8.0,12.0,12.0,7.0,28.0,2.0,1.0,4.0,4.0
0021400673,1610612738,BOS,Boston,203935,Marcus Smart,,,28:55,113.9,104.4,9.5,0.238,5.0,33.3,0.05,0.087,0.07,6.7,0.5,0.5,0.16,99.6,0.099,2015-01-26T00:00:00,4,BOS,Boston,16-27,17,38,16,28,0,0,0,0,0,0,0,0,0,0,99,0.473,0.913,0.421,18,37,14,0021400673,1610612738,BOS,Boston,Marcus Smart,,,28:55,2.0,2.0,2.0,4.0,11.0,8.0,13.0,28.0,0.0,1.0,0.0,2.0
0021400673,1610612738,BOS,Boston,2222,Gerald Wallace,,,13:36,129.7,97.6,32.1,0.0,0.0,0.0,0.0,0.273,0.176,69.4,0.0,1.136,0.1,96.05,0.097,2015-01-26T00:00:00,4,BOS,Boston,16-27,17,38,16,28,0,0,0,0,0,0,0,0,0,0,99,0.473,0.913,0.421,18,37,14,0021400673,1610612738,BOS,Boston,Gerald Wallace,,,13:36,0.0,0.0,0.0,0.0,6.0,8.0,3.0,18.0,0.0,0.0,0.0,1.0
0021400673,1610612738,BOS,Boston,2419,Tayshaun Prince,,,30:02,120.4,88.9,31.5,0.294,0.0,29.8,0.0,0.067,0.04,0.0,0.8,0.808,0.187,98.1,0.207,2015-01-26T00:00:00,4,BOS,Boston,16-27,17,38,16,28,0,0,0,0,0,0,0,0,0,0,99,0.473,0.913,0.421,18,37,14,0021400673,1610612738,BOS,Boston,Tayshaun Prince,,,30:02,7.0,2.0,2.0,8.0,9.0,12.0,7.0,26.0,0.0,0.0,1.0,2.0
0021400673,1610612738,BOS,Boston,203515,Phil Pressey,,DNP - Coach's Decision                  ,,,,,,,0.0,,,,,,,0.0,,,2015-01-26T00:00:00,4,BOS,Boston,16-27,17,38,16,28,0,0,0,0,0,0,0,0,0,0,99,0.473,0.913,0.421,18,37,14,0021400673,1610612738,BOS,Boston,Phil Pressey,,DNP - Coach's Decision                  ,,,,,,,,,,,,,
0021400673,1610612738,BOS,Boston,203923,James Young,,DNP - Coach's Decision                  ,,,,,,,0.0,,,,,,,0.0,,,2015-01-26T00:00:00,4,BOS,Boston,16-27,17,38,16,28,0,0,0,0,0,0,0,0,0,0,99,0.473,0.913,0.421,18,37,14,0021400673,1610612738,BOS,Boston,James Young,,DNP - Coach's Decision                  ,,,,,,,,,,,,,
0021400673,1610612762,UTA,Utah,202330,Gordon Hayward,F,,35:30,100.9,88.9,12.0,0.143,3.0,11.4,0.063,0.143,0.1,3.8,0.529,0.583,0.283,95.97,0.211,2015-01-26T00:00:00,4,UTA,Utah,16-29,17,14,35,24,0,0,0,0,0,0,0,0,0,0,90,0.427,0.579,0.375,18,39,14,0021400673,1610612762,UTA,Utah,Gordon Hayward,F,,35:30,3.0,2.0,6.0,6.0,7.0,9.0,2.0,26.0,2.0,0.0,2.0,7.0
0021400673,1610612762,UTA,Utah,202324,Derrick Favors,F,,34:11,90.7,88.6,2.1,0.222,1.33,17.3,0.029,0.25,0.129,13.0,0.385,0.404,0.25,94.76,0.103,2015-01-26T00:00:00,4,UTA,Utah,16-29,17,14,35,24,0,0,0,0,0,0,0,0,0,0,90,0.427,0.579,0.375,18,39,14,0021400673,1610612762,UTA,Utah,Derrick Favors,F,,34:11,0.0,2.0,0.0,8.0,5.0,9.0,4.0,20.0,4.0,1.0,3.0,4.0
0021400673,1610612762,UTA,Utah,202683,Enes Kanter,C,,31:02,109.1,107.3,1.8,0.0,0.0,0.0,0.125,0.12,0.122,20.0,0.625,0.625,0.301,92.2,0.071,2015-01-26T00:00:00,4,UTA,Utah,16-29,17,14,35,24,0,0,0,0,0,0,0,0,0,0,90,0.427,0.579,0.375,18,39,14,0021400673,1610612762,UTA,Utah,Enes Kanter,C,,31:02,6.0,4.0,6.0,20.0,10.0,6.0,9.0,26.0,0.0,0.0,6.0,1.0
0021400673,1610612762,UTA,Utah,204060,Joe Ingles,G,,31:14,100.5,86.6,13.8,0.227,2.5,38.5,0.0,0.148,0.075,15.4,0.167,0.167,0.122,90.25,0.023,2015-01-26T00:00:00,4,UTA,Utah,16-29,17,14,35,24,0,0,0,0,0,0,0,0,0,0,90,0.427,0.579,0.375,18,39,14,0021400673,1610612762,UTA,Utah,Joe Ingles,G,,31:14,2.0,0.0,0.0,0.0,7.0,6.0,4.0,22.0,0.0,0.0,6.0,1.0
0021400673,1610612762,UTA,Utah,203957,Dante Exum,G,,25:17,73.2,123.2,-50.0,0.133,1.0,33.3,0.0,0.063,0.025,33.3,0.0,0.0,0.077,92.94,-0.045,2015-01-26T00:00:00,4,UTA,Utah,16-29,17,14,35,24,0,0,0,0,0,0,0,0,0,0,90,0.427,0.579,0.375,18,39,14,0021400673,1610612762,UTA,Utah,Dante Exum,G,,25:17,0.0,0.0,0.0,0.0,7.0,7.0,9.0,16.0,0.0,0.0,3.0,1.0
0021400673,1610612762,UTA,Utah,203497,Rudy Gobert,,,26:06,83.6,113.1,-29.5,0.143,0.0,33.3,0.174,0.5,0.286,0.0,1.0,1.0,0.068,95.85,0.258,2015-01-26T00:00:00,4,UTA,Utah,16-29,17,14,35,24,0,0,0,0,0,0,0,0,0,0,90,0.427,0.579,0.375,18,39,14,0021400673,1610612762,UTA,Utah,Rudy Gobert,,,26:06,6.0,6.0,0.0,8.0,9.0,7.0,7.0,22.0,3.0,0.0,0.0,1.0
0021400673,1610612762,UTA,Utah,203504,Trey Burke,,,32:08,97.0,114.4,-17.5,0.0,0.0,0.0,0.0,0.0,0.0,0.0,0.45,0.45,0.267,97.07,0.038,2015-01-26T00:00:00,4,UTA,Utah,16-29,17,14,35,24,0,0,0,0,0,0,0,0,0,0,90,0.427,0.579,0.375,18,39,14,0021400673,1610612762,UTA,Utah,Trey Burke,,,32:08,3.0,0.0,3.0,2.0,10.0,7.0,9.0,26.0,0.0,1.0,1.0,0.0
0021400673,1610612762,UTA,Utah,202407,Elijah Millsap,,,20:06,83.8,132.1,-48.3,0.143,1.0,25.0,0.0,0.5,0.16,25.0,0.375,0.375,0.131,101.42,0.045,2015-01-26T00:00:00,4,UTA,Utah,16-29,17,14,35,24,0,0,0,0,0,0,0,0,0,0,90,0.427,0.579,0.375,18,39,14,0021400673,1610612762,UTA,Utah,Elijah Millsap,,,20:06,0.0,0.0,0.0,0.0,8.0,4.0,9.0,18.0,1.0,1.0,2.0,0.0
0021400673,1610612762,UTA,Utah,202344,Trevor Booker,,,4:26,87.5,182.6,-95.1,0.0,0.0,0.0,0.0,0.0,0.0,0.0,0.0,0.0,0.0,90.7,0.0,2015-01-26T00:00:00,4,UTA,Utah,16-29,17,14,35,24,0,0,0,0,0,0,0,0,0,0,90,0.427,0.579,0.375,18,39,14,0021400673,1610612762,UTA,Utah,Trevor Booker,,,4:26,0.0,0.0,0.0,0.0,2.0,0.0,2.0,4.0,0.0,0.0,0.0,0.0
0021400673,1610612762,UTA,Utah,203546,Ian Clark,,DNP - Coach's Decision                  ,,,,,,,0.0,,,,,,,0.0,,,2015-01-26T00:00:00,4,UTA,Utah,16-29,17,14,35,24,0,0,0,0,0,0,0,0,0,0,90,0.427,0.579,0.375,18,39,14,0021400673,1610612762,UTA,Utah,Ian Clark,,DNP - Coach's Decision                  ,,,,,,,,,,,,,
0021400673,1610612762,UTA,Utah,202379,Jeremy Evans,,DNP - Coach's Decision                  ,,,,,,,0.0,,,,,,,0.0,,,2015-01-26T00:00:00,4,UTA,Utah,16-29,17,14,35,24,0,0,0,0,0,0,0,0,0,0,90,0.427,0.579,0.375,18,39,14,0021400673,1610612762,UTA,Utah,Jeremy Evans,,DNP - Coach's Decision                  ,,,,,,,,,,,,,
0021400673,1610612762,UTA,Utah,200779,Steve Novak,,DNP - Coach's Decision                  ,,,,,,,0.0,,,,,,,0.0,,,2015-01-26T00:00:00,4,UTA,Utah,16-29,17,14,35,24,0,0,0,0,0,0,0,0,0,0,90,0.427,0.579,0.375,18,39,14,0021400673,1610612762,UTA,Utah,Steve Novak,,DNP - Coach's Decision                  ,,,,,,,,,,,,,
0021400673,1610612762,UTA,Utah,202343,Elliot Williams,,DNP - Coach's Decision                  ,,,,,,,0.0,,,,,,,0.0,,,2015-01-26T00:00:00,4,UTA,Utah,16-29,17,14,35,24,0,0,0,0,0,0,0,0,0,0,90,0.427,0.579,0.375,18,39,14,0021400673,1610612762,UTA,Utah,Elliot Williams,,DNP - Coach's Decision                  ,,,,,,,,,,,,,
