GAME_ID_x,TEAM_ID_x,TEAM_ABBREVIATION_x,TEAM_CITY_x,PLAYER_ID,PLAYER_NAME_x,START_POSITION_x,COMMENT_x,MIN_x,OFF_RATING,DEF_RATING,NET_RATING,AST_PCT,AST_TOV,AST_RATIO,OREB_PCT,DREB_PCT,REB_PCT,TM_TOV_PCT,EFG_PCT,TS_PCT,USG_PCT,PACE,PIE,GAME_DATE_EST,GAME_SEQUENCE,TEAM_ABBREVIATION_y,TEAM_CITY_NAME,TEAM_WINS_LOSSES,PTS_QTR1,PTS_QTR2,PTS_QTR3,PTS_QTR4,PTS_OT1,PTS_OT2,PTS_OT3,PTS_OT4,PTS_OT5,PTS_OT6,PTS_OT7,PTS_OT8,PTS_OT9,PTS_OT10,PTS,FG_PCT,FT_PCT,FG3_PCT,AST,REB,TOV,GAME_ID_y,TEAM_ID_y,TEAM_ABBREVIATION,TEAM_CITY_y,PLAYER_NAME_y,START_POSITION_y,COMMENT_y,MIN_y,PTS_OFF_TOV,PTS_2ND_CHANCE,PTS_FB,PTS_PAINT,OPP_PTS_OFF_TOV,OPP_PTS_2ND_CHANCE,OPP_PTS_FB,OPP_PTS_PAINT,BLK,BLKA,PF,PFD
0021400678,1610612763,MEM,Memphis,201145,Jeff Green,F,,30:45,109.7,109.2,0.5,0.091,0.0,22.2,0.045,0.154,0.104,0.0,0.571,0.571,0.114,88.41,0.081,2015-01-27T00:00:00,4,MEM,Memphis,33-12,24,30,32,23,0,0,0,0,0,0,0,0,0,0,109,0.532,0.75,0.476,23,40,13,0021400678,1610612763,MEM,Memphis,Jeff Green,F,,30:45,0.0,0.0,0.0,2.0,17.0,4.0,11.0,30.0,0.0,0.0,1.0,1.0
0021400678,1610612763,MEM,Memphis,2216,Zach Randolph,F,,33:38,121.0,103.6,17.4,0.091,0.4,8.4,0.091,0.296,0.204,21.0,0.667,0.656,0.305,91.37,0.133,2015-01-27T00:00:00,4,MEM,Memphis,33-12,24,30,32,23,0,0,0,0,0,0,0,0,0,0,109,0.532,0.75,0.476,23,40,13,0021400678,1610612763,MEM,Memphis,Zach Randolph,F,,33:38,2.0,2.0,0.0,6.0,19.0,6.0,13.0,32.0,0.0,0.0,3.0,6.0
0021400678,1610612763,MEM,Memphis,201188,Marc Gasol,C,,28:09,112.1,121.3,-9.2,0.333,3.0,28.0,0.105,0.095,0.1,9.3,0.538,0.558,0.256,91.35,0.137,2015-01-27T00:00:00,4,MEM,Memphis,33-12,24,30,32,23,0,0,0,0,0,0,0,0,0,0,109,0.532,0.75,0.476,23,40,13,0021400678,1610612763,MEM,Memphis,Marc Gasol,C,,28:09,0.0,4.0,0.0,12.0,17.0,8.0,11.0,32.0,0.0,2.0,0.0,3.0
0021400678,1610612763,MEM,Memphis,201584,Courtney Lee,G,,30:51,116.7,105.8,10.9,0.083,0.0,22.2,0.0,0.08,0.043,0.0,0.929,0.929,0.105,91.49,0.109,2015-01-27T00:00:00,4,MEM,Memphis,33-12,24,30,32,23,0,0,0,0,0,0,0,0,0,0,109,0.532,0.75,0.476,23,40,13,0021400678,1610612763,MEM,Memphis,Courtney Lee,G,,30:51,2.0,2.0,0.0,0.0,19.0,6.0,13.0,30.0,0.0,0.0,3.0,0.0
0021400678,1610612763,MEM,Memphis,2757,Beno Udrih,G,,20:41,130.0,131.2,-1.1,0.278,2.5,38.5,0.0,0.182,0.091,15.4,0.667,0.667,0.179,92.41,0.104,2015-01-27T00:00:00,4,MEM,Memphis,33-12,24,30,32,23,0,0,0,0,0,0,0,0,0,0,109,0.532,0.75,0.476,23,40,13,0021400678,1610612763,MEM,Memphis,Beno Udrih,G,,20:41,6.0,0.0,0.0,2.0,15.0,4.0,9.0,24.0,0.0,0.0,0.0,1.0
0021400678,1610612763,MEM,Memphis,201979,Nick Calathes,,,27:19,109.7,75.7,34.0,0.125,2.0,15.7,0.0,0.179,0.094,7.8,0.625,0.666,0.192,90.11,0.178,2015-01-27T00:00:00,4,MEM,Memphis,33-12,24,30,32,23,0,0,0,0,0,0,0,0,0,0,109,0.532,0.75,0.476,23,40,13,0021400678,1610612763,MEM,Memphis,Nick Calathes,,,27:19,4.0,0.0,0.0,4.0,4.0,4.0,4.0,22.0,0.0,0.0,4.0,3.0
0021400678,1610612763,MEM,Memphis,1713,Vince Carter,,,26:37,122.7,83.5,39.2,0.105,0.0,14.1,0.0,0.13,0.065,0.0,0.35,0.492,0.216,92.77,0.127,2015-01-27T00:00:00,4,MEM,Memphis,33-12,24,30,32,23,0,0,0,0,0,0,0,0,0,0,109,0.532,0.75,0.476,23,40,13,0021400678,1610612763,MEM,Memphis,Vince Carter,,,26:37,2.0,0.0,2.0,2.0,2.0,4.0,2.0,26.0,0.0,0.0,2.0,2.0
0021400678,1610612763,MEM,Memphis,202720,Jon Leuer,,,9:27,127.3,70.9,56.4,0.143,1.0,17.0,0.1,0.167,0.125,17.0,0.5,0.515,0.226,100.12,0.098,2015-01-27T00:00:00,4,MEM,Memphis,33-12,24,30,32,23,0,0,0,0,0,0,0,0,0,0,109,0.532,0.75,0.476,23,40,13,0021400678,1610612763,MEM,Memphis,Jon Leuer,,,9:27,0.0,1.0,0.0,0.0,0.0,2.0,0.0,6.0,0.0,1.0,0.0,2.0
0021400678,1610612763,MEM,Memphis,201585,Kosta Koufos,,,20:45,122.8,80.2,42.6,0.071,1.0,9.3,0.176,0.167,0.171,9.3,0.429,0.514,0.231,88.97,0.112,2015-01-27T00:00:00,4,MEM,Memphis,33-12,24,30,32,23,0,0,0,0,0,0,0,0,0,0,109,0.532,0.75,0.476,23,40,13,0021400678,1610612763,MEM,Memphis,Kosta Koufos,,,20:45,2.0,2.0,0.0,4.0,2.0,0.0,2.0,16.0,0.0,0.0,2.0,2.0
0021400678,1610612763,MEM,Memphis,203919,Jordan Adams,,,10:23,131.6,91.1,40.5,0.0,0.0,0.0,0.0,0.125,0.063,25.0,0.833,0.833,0.193,91.35,0.082,2015-01-27T00:00:00,4,MEM,Memphis,33-12,24,30,32,23,0,0,0,0,0,0,0,0,0,0,109,0.532,0.75,0.476,23,40,13,0021400678,1610612763,MEM,Memphis,Jordan Adams,,,10:23,3.0,0.0,3.0,2.0,0.0,2.0,0.0,10.0,0.0,0.0,2.0,0.0
0021400678,1610612763,MEM,Memphis,200748,Tyrus Thomas,,,1:25,150.0,100.0,50.0,0.0,0.0,0.0,0.0,0.0,0.0,0.0,0.0,0.0,0.0,67.76,0.0,2015-01-27T00:00:00,4,MEM,Memphis,33-12,24,30,32,23,0,0,0,0,0,0,0,0,0,0,109,0.532,0.75,0.476,23,40,13,0021400678,1610612763,MEM,Memphis,Tyrus Thomas,,,1:25,0.0,0.0,0.0,0.0,0.0,0.0,0.0,2.0,0.0,0.0,0.0,0.0
0021400678,1610612763,MEM,Memphis,2754,Tony Allen,,DND - Left Ankle Sprain                 ,,,,,,,0.0,,,,,,,0.0,,,2015-01-27T00:00:00,4,MEM,Memphis,33-12,24,30,32,23,0,0,0,0,0,0,0,0,0,0,109,0.532,0.75,0.476,23,40,13,0021400678,1610612763,MEM,Memphis,Tony Allen,,DND - Left Ankle Sprain                 ,,,,,,,,,,,,,
0021400678,1610612763,MEM,Memphis,201144,Mike Conley,,DNP - Coach's Decision                  ,,,,,,,0.0,,,,,,,0.0,,,2015-01-27T00:00:00,4,MEM,Memphis,33-12,24,30,32,23,0,0,0,0,0,0,0,0,0,0,109,0.532,0.75,0.476,23,40,13,0021400678,1610612763,MEM,Memphis,Mike Conley,,DNP - Coach's Decision                  ,,,,,,,,,,,,,
0021400678,1610612742,DAL,Dallas,202718,Chandler Parsons,F,,32:00,109.1,123.6,-14.6,0.15,1.5,17.8,0.0,0.091,0.048,11.8,0.773,0.8,0.222,92.09,0.129,2015-01-27T00:00:00,4,DAL,Dallas,30-16,24,20,28,18,0,0,0,0,0,0,0,0,0,0,90,0.487,0.7,0.269,20,35,16,0021400678,1610612742,DAL,Dallas,Chandler Parsons,F,,32:00,2.0,0.0,0.0,6.0,14.0,9.0,0.0,22.0,0.0,0.0,1.0,2.0
0021400678,1610612742,DAL,Dallas,1717,Dirk Nowitzki,F,,29:20,105.9,126.7,-20.8,0.2,0.0,23.7,0.091,0.143,0.116,0.0,0.417,0.427,0.216,91.31,0.097,2015-01-27T00:00:00,4,DAL,Dallas,30-16,24,20,28,18,0,0,0,0,0,0,0,0,0,0,90,0.487,0.7,0.269,20,35,16,0021400678,1610612742,DAL,Dallas,Dirk Nowitzki,F,,29:20,2.0,0.0,0.0,6.0,12.0,7.0,2.0,20.0,1.0,0.0,0.0,3.0
0021400678,1610612742,DAL,Dallas,2199,Tyson Chandler,C,,31:50,97.0,116.2,-19.2,0.05,0.33,11.3,0.111,0.105,0.109,33.8,1.0,1.025,0.124,88.42,0.058,2015-01-27T00:00:00,4,DAL,Dallas,30-16,24,20,28,18,0,0,0,0,0,0,0,0,0,0,90,0.487,0.7,0.269,20,35,16,0021400678,1610612742,DAL,Dallas,Tyson Chandler,C,,31:50,2.0,4.0,2.0,8.0,13.0,6.0,3.0,22.0,0.0,0.0,5.0,5.0
0021400678,1610612742,DAL,Dallas,101145,Monta Ellis,G,,33:19,99.0,119.4,-20.4,0.056,0.33,4.8,0.0,0.05,0.022,14.4,0.531,0.563,0.294,90.97,0.085,2015-01-27T00:00:00,4,DAL,Dallas,30-16,24,20,28,18,0,0,0,0,0,0,0,0,0,0,90,0.487,0.7,0.269,20,35,16,0021400678,1610612742,DAL,Dallas,Monta Ellis,G,,33:19,7.0,2.0,5.0,8.0,15.0,8.0,5.0,28.0,0.0,0.0,1.0,4.0
0021400678,1610612742,DAL,Dallas,200765,Rajon Rondo,G,,27:47,98.3,121.1,-22.8,0.263,1.67,31.3,0.087,0.238,0.159,18.8,0.438,0.438,0.197,89.6,0.099,2015-01-27T00:00:00,4,DAL,Dallas,30-16,24,20,28,18,0,0,0,0,0,0,0,0,0,0,90,0.487,0.7,0.269,20,35,16,0021400678,1610612742,DAL,Dallas,Rajon Rondo,G,,27:47,0.0,2.0,0.0,4.0,10.0,3.0,2.0,16.0,0.0,0.0,2.0,1.0
0021400678,1610612742,DAL,Dallas,2734,Devin Harris,,,16:12,91.7,115.2,-23.6,0.25,1.0,18.2,0.0,0.154,0.077,18.2,0.429,0.429,0.26,97.01,0.019,2015-01-27T00:00:00,4,DAL,Dallas,30-16,24,20,28,18,0,0,0,0,0,0,0,0,0,0,90,0.487,0.7,0.269,20,35,16,0021400678,1610612742,DAL,Dallas,Devin Harris,,,16:12,4.0,0.0,4.0,2.0,12.0,8.0,0.0,16.0,0.0,0.0,4.0,0.0
0021400678,1610612742,DAL,Dallas,203939,Dwight Powell,,,13:40,90.1,110.9,-20.8,0.0,0.0,0.0,0.0,0.188,0.12,50.0,0.0,0.0,0.067,95.88,-0.056,2015-01-27T00:00:00,4,DAL,Dallas,30-16,24,20,28,18,0,0,0,0,0,0,0,0,0,0,90,0.487,0.7,0.269,20,35,16,0021400678,1610612742,DAL,Dallas,Dwight Powell,,,13:40,0.0,0.0,0.0,0.0,10.0,5.0,2.0,12.0,0.0,0.0,4.0,0.0
0021400678,1610612742,DAL,Dallas,2210,Richard Jefferson,,,13:24,80.0,113.6,-33.6,0.0,0.0,0.0,0.0,0.091,0.038,0.0,0.75,0.75,0.067,90.51,0.056,2015-01-27T00:00:00,4,DAL,Dallas,30-16,24,20,28,18,0,0,0,0,0,0,0,0,0,0,90,0.487,0.7,0.269,20,35,16,0021400678,1610612742,DAL,Dallas,Richard Jefferson,,,13:24,0.0,0.0,0.0,0.0,7.0,2.0,5.0,12.0,0.0,0.0,1.0,0.0
0021400678,1610612742,DAL,Dallas,200826,J.J. Barea,,,14:50,100.9,124.1,-23.2,0.2,0.0,22.2,0.0,0.0,0.0,0.0,0.357,0.357,0.235,89.25,0.04,2015-01-27T00:00:00,4,DAL,Dallas,30-16,24,20,28,18,0,0,0,0,0,0,0,0,0,0,90,0.487,0.7,0.269,20,35,16,0021400678,1610612742,DAL,Dallas,J.J. Barea,,,14:50,0.0,0.0,0.0,2.0,5.0,3.0,3.0,6.0,0.0,0.0,0.0,1.0
0021400678,1610612742,DAL,Dallas,101111,Charlie Villanueva,,,5:44,67.3,110.3,-43.0,0.0,0.0,0.0,0.0,0.6,0.25,66.7,0.0,0.0,0.216,95.27,0.034,2015-01-27T00:00:00,4,DAL,Dallas,30-16,24,20,28,18,0,0,0,0,0,0,0,0,0,0,90,0.487,0.7,0.269,20,35,16,0021400678,1610612742,DAL,Dallas,Charlie Villanueva,,,5:44,0.0,0.0,0.0,0.0,5.0,0.0,3.0,4.0,1.0,0.0,0.0,0.0
0021400678,1610612742,DAL,Dallas,202329,Al-Farouq Aminu,,,11:32,119.5,114.9,4.6,0.111,0.0,16.7,0.0,0.375,0.176,0.0,0.4,0.4,0.22,90.56,0.13,2015-01-27T00:00:00,4,DAL,Dallas,30-16,24,20,28,18,0,0,0,0,0,0,0,0,0,0,90,0.487,0.7,0.269,20,35,16,0021400678,1610612742,DAL,Dallas,Al-Farouq Aminu,,,11:32,2.0,0.0,2.0,4.0,2.0,4.0,0.0,8.0,1.0,0.0,1.0,0.0
0021400678,1610612742,DAL,Dallas,101109,Raymond Felton,,,5:18,111.3,102.7,8.6,0.333,0.0,25.0,0.0,0.0,0.0,0.0,0.667,0.667,0.276,84.41,0.2,2015-01-27T00:00:00,4,DAL,Dallas,30-16,24,20,28,18,0,0,0,0,0,0,0,0,0,0,90,0.487,0.7,0.269,20,35,16,0021400678,1610612742,DAL,Dallas,Raymond Felton,,,5:18,0.0,0.0,0.0,4.0,0.0,0.0,0.0,2.0,0.0,0.0,1.0,0.0
0021400678,1610612742,DAL,Dallas,202962,Greg Smith,,,5:04,111.3,102.7,8.6,0.0,0.0,0.0,0.167,0.4,0.273,0.0,1.0,0.532,0.173,88.29,0.156,2015-01-27T00:00:00,4,DAL,Dallas,30-16,24,20,28,18,0,0,0,0,0,0,0,0,0,0,90,0.487,0.7,0.269,20,35,16,0021400678,1610612742,DAL,Dallas,Greg Smith,,,5:04,0.0,0.0,0.0,2.0,0.0,0.0,0.0,2.0,0.0,0.0,0.0,1.0
