GAME_ID_x,TEAM_ID_x,TEAM_ABBREVIATION_x,TEAM_CITY_x,PLAYER_ID,PLAYER_NAME_x,START_POSITION_x,COMMENT_x,MIN_x,OFF_RATING,DEF_RATING,NET_RATING,AST_PCT,AST_TOV,AST_RATIO,OREB_PCT,DREB_PCT,REB_PCT,TM_TOV_PCT,EFG_PCT,TS_PCT,USG_PCT,PACE,PIE,GAME_DATE_EST,GAME_SEQUENCE,TEAM_ABBREVIATION_y,TEAM_CITY_NAME,TEAM_WINS_LOSSES,PTS_QTR1,PTS_QTR2,PTS_QTR3,PTS_QTR4,PTS_OT1,PTS_OT2,PTS_OT3,PTS_OT4,PTS_OT5,PTS_OT6,PTS_OT7,PTS_OT8,PTS_OT9,PTS_OT10,PTS,FG_PCT,FT_PCT,FG3_PCT,AST,REB,TOV,GAME_ID_y,TEAM_ID_y,TEAM_ABBREVIATION,TEAM_CITY_y,PLAYER_NAME_y,START_POSITION_y,COMMENT_y,MIN_y,PTS_OFF_TOV,PTS_2ND_CHANCE,PTS_FB,PTS_PAINT,OPP_PTS_OFF_TOV,OPP_PTS_2ND_CHANCE,OPP_PTS_FB,OPP_PTS_PAINT,BLK,BLKA,PF,PFD
0021400689,1610612766,CHA,Charlotte,203077,Michael Kidd-Gilchrist,F,,25:02,109.3,101.2,8.1,0.071,1.0,6.7,0.043,0.087,0.065,6.7,0.538,0.538,0.271,91.12,0.091,2015-01-28T00:00:00,9,CHA,Charlotte,19-27,19,19,26,22,0,0,0,0,0,0,0,0,0,0,86,0.41,0.857,0.333,23,43,12,0021400689,1610612766,CHA,Charlotte,Michael Kidd-Gilchrist,F,,25:02,6.0,2.0,4.0,10.0,2.0,7.0,0.0,24.0,0.0,2.0,1.0,1.0
0021400689,1610612766,CHA,Charlotte,203469,Cody Zeller,F,,36:31,100.8,93.7,7.2,0.269,3.5,41.5,0.056,0.314,0.183,11.8,0.5,0.571,0.124,95.3,0.164,2015-01-28T00:00:00,9,CHA,Charlotte,19-27,19,19,26,22,0,0,0,0,0,0,0,0,0,0,86,0.41,0.857,0.333,23,43,12,0021400689,1610612766,CHA,Charlotte,Cody Zeller,F,,36:31,2.0,0.0,0.0,2.0,8.0,7.0,5.0,24.0,1.0,1.0,0.0,3.0
0021400689,1610612766,CHA,Charlotte,2744,Al Jefferson,C,,34:55,104.2,88.6,15.6,0.056,1.0,6.7,0.088,0.342,0.222,6.7,0.667,0.66,0.197,92.2,0.197,2015-01-28T00:00:00,9,CHA,Charlotte,19-27,19,19,26,22,0,0,0,0,0,0,0,0,0,0,86,0.41,0.857,0.333,23,43,12,0021400689,1610612766,CHA,Charlotte,Al Jefferson,C,,34:55,4.0,2.0,2.0,14.0,6.0,11.0,4.0,38.0,0.0,0.0,3.0,3.0
0021400689,1610612766,CHA,Charlotte,201945,Gerald Henderson,G,,35:07,105.6,93.6,12.0,0.143,0.0,13.3,0.0,0.03,0.015,0.0,0.382,0.458,0.268,92.05,0.075,2015-01-28T00:00:00,9,CHA,Charlotte,19-27,19,19,26,22,0,0,0,0,0,0,0,0,0,0,86,0.41,0.857,0.333,23,43,12,0021400689,1610612766,CHA,Charlotte,Gerald Henderson,G,,35:07,4.0,3.0,4.0,4.0,9.0,11.0,7.0,34.0,2.0,3.0,2.0,4.0
0021400689,1610612766,CHA,Charlotte,203148,Brian Roberts,G,,36:39,102.3,88.0,14.3,0.231,0.0,35.3,0.027,0.053,0.04,0.0,0.364,0.364,0.144,92.99,0.078,2015-01-28T00:00:00,9,CHA,Charlotte,19-27,19,19,26,22,0,0,0,0,0,0,0,0,0,0,86,0.41,0.857,0.333,23,43,12,0021400689,1610612766,CHA,Charlotte,Brian Roberts,G,,36:39,0.0,3.0,0.0,2.0,5.0,7.0,5.0,28.0,0.0,0.0,1.0,0.0
0021400689,1610612766,CHA,Charlotte,101131,Jason Maxiell,,,16:01,56.5,128.7,-72.2,0.0,0.0,0.0,0.063,0.091,0.074,0.0,0.4,0.4,0.143,94.32,0.029,2015-01-28T00:00:00,9,CHA,Charlotte,19-27,19,19,26,22,0,0,0,0,0,0,0,0,0,0,86,0.41,0.857,0.333,23,43,12,0021400689,1610612766,CHA,Charlotte,Jason Maxiell,,,16:01,2.0,0.0,0.0,4.0,13.0,4.0,13.0,8.0,0.0,1.0,1.0,0.0
0021400689,1610612766,CHA,Charlotte,202362,Lance Stephenson,,,20:14,61.5,106.0,-44.5,0.4,1.0,30.8,0.0,0.222,0.1,30.8,0.0,0.0,0.206,97.46,-0.045,2015-01-28T00:00:00,9,CHA,Charlotte,19-27,19,19,26,22,0,0,0,0,0,0,0,0,0,0,86,0.41,0.857,0.333,23,43,12,0021400689,1610612766,CHA,Charlotte,Lance Stephenson,,,20:14,0.0,0.0,0.0,0.0,13.0,4.0,15.0,14.0,1.0,1.0,3.0,1.0
0021400689,1610612766,CHA,Charlotte,203798,PJ Hairston,,,9:00,53.0,134.6,-81.6,0.0,0.0,0.0,0.0,0.0,0.0,0.0,0.0,0.0,0.101,101.87,-0.14,2015-01-28T00:00:00,9,CHA,Charlotte,19-27,19,19,26,22,0,0,0,0,0,0,0,0,0,0,86,0.41,0.857,0.333,23,43,12,0021400689,1610612766,CHA,Charlotte,PJ Hairston,,,9:00,0.0,0.0,0.0,0.0,6.0,0.0,8.0,6.0,0.0,0.0,2.0,0.0
0021400689,1610612766,CHA,Charlotte,202390,Gary Neal,,,17:58,81.9,109.8,-27.9,0.0,0.0,0.0,0.0,0.056,0.029,26.9,0.5,0.551,0.385,96.39,0.018,2015-01-28T00:00:00,9,CHA,Charlotte,19-27,19,19,26,22,0,0,0,0,0,0,0,0,0,0,86,0.41,0.857,0.333,23,43,12,0021400689,1610612766,CHA,Charlotte,Gary Neal,,,17:58,3.0,3.0,5.0,2.0,10.0,4.0,10.0,14.0,0.0,0.0,3.0,1.0
0021400689,1610612766,CHA,Charlotte,203943,Noah Vonleh,,,8:33,77.6,121.2,-43.7,0.25,0.0,34.7,0.0,0.0,0.0,0.0,1.0,1.064,0.106,95.66,0.136,2015-01-28T00:00:00,9,CHA,Charlotte,19-27,19,19,26,22,0,0,0,0,0,0,0,0,0,0,86,0.41,0.857,0.333,23,43,12,0021400689,1610612766,CHA,Charlotte,Noah Vonleh,,,8:33,0.0,0.0,0.0,2.0,3.0,0.0,8.0,10.0,0.0,0.0,1.0,1.0
0021400689,1610612766,CHA,Charlotte,202687,Bismack Biyombo,,"DND - Bone bruise, right knee           ",,,,,,,0.0,,,,,,,0.0,,,2015-01-28T00:00:00,9,CHA,Charlotte,19-27,19,19,26,22,0,0,0,0,0,0,0,0,0,0,86,0.41,0.857,0.333,23,43,12,0021400689,1610612766,CHA,Charlotte,Bismack Biyombo,,"DND - Bone bruise, right knee           ",,,,,,,,,,,,,
0021400689,1610612766,CHA,Charlotte,203106,Jeffery Taylor,,DNP - Coach's Decision                  ,,,,,,,0.0,,,,,,,0.0,,,2015-01-28T00:00:00,9,CHA,Charlotte,19-27,19,19,26,22,0,0,0,0,0,0,0,0,0,0,86,0.41,0.857,0.333,23,43,12,0021400689,1610612766,CHA,Charlotte,Jeffery Taylor,,DNP - Coach's Decision                  ,,,,,,,,,,,,,
0021400689,1610612766,CHA,Charlotte,101107,Marvin Williams,,NWT - Concussion                        ,,,,,,,0.0,,,,,,,0.0,,,2015-01-28T00:00:00,9,CHA,Charlotte,19-27,19,19,26,22,0,0,0,0,0,0,0,0,0,0,86,0.41,0.857,0.333,23,43,12,0021400689,1610612766,CHA,Charlotte,Marvin Williams,,NWT - Concussion                        ,,,,,,,,,,,,,
0021400689,1610612759,SAS,San Antonio,202695,Kawhi Leonard,F,,23:10,88.6,105.6,-17.0,0.231,3.0,26.5,0.056,0.211,0.135,8.8,0.5,0.615,0.172,95.23,0.139,2015-01-28T00:00:00,9,SAS,San Antonio,30-17,27,28,14,26,0,0,0,0,0,0,0,0,0,0,95,0.422,0.833,0.345,23,49,14,0021400689,1610612759,SAS,San Antonio,Kawhi Leonard,F,,23:10,0.0,0.0,0.0,2.0,12.0,5.0,8.0,26.0,0.0,0.0,2.0,2.0
0021400689,1610612759,SAS,San Antonio,1495,Tim Duncan,F,,28:56,102.1,104.9,-2.8,0.111,0.5,10.1,0.038,0.5,0.269,20.2,0.417,0.436,0.283,90.62,0.137,2015-01-28T00:00:00,9,SAS,San Antonio,30-17,27,28,14,26,0,0,0,0,0,0,0,0,0,0,95,0.422,0.833,0.345,23,49,14,0021400689,1610612759,SAS,San Antonio,Tim Duncan,F,,28:56,2.0,2.0,0.0,10.0,10.0,8.0,8.0,26.0,3.0,2.0,3.0,2.0
0021400689,1610612759,SAS,San Antonio,2588,Matt Bonner,C,,31:13,102.6,118.5,-15.8,0.095,0.0,20.0,0.0,0.077,0.036,0.0,0.625,0.625,0.117,90.57,0.081,2015-01-28T00:00:00,9,SAS,San Antonio,30-17,27,28,14,26,0,0,0,0,0,0,0,0,0,0,95,0.422,0.833,0.345,23,49,14,0021400689,1610612759,SAS,San Antonio,Matt Bonner,C,,31:13,2.0,0.0,0.0,4.0,13.0,10.0,13.0,26.0,1.0,0.0,1.0,0.0
0021400689,1610612759,SAS,San Antonio,201980,Danny Green,G,,26:19,117.0,85.7,31.3,0.111,2.0,13.9,0.136,0.074,0.102,6.9,0.727,0.699,0.211,97.0,0.16,2015-01-28T00:00:00,9,SAS,San Antonio,30-17,27,28,14,26,0,0,0,0,0,0,0,0,0,0,95,0.422,0.833,0.345,23,49,14,0021400689,1610612759,SAS,San Antonio,Danny Green,G,,26:19,5.0,7.0,5.0,4.0,6.0,7.0,6.0,20.0,3.0,0.0,1.0,1.0
0021400689,1610612759,SAS,San Antonio,2225,Tony Parker,G,,27:34,100.3,115.1,-14.8,0.357,2.5,23.5,0.043,0.0,0.022,9.4,0.538,0.594,0.282,89.88,0.133,2015-01-28T00:00:00,9,SAS,San Antonio,30-17,27,28,14,26,0,0,0,0,0,0,0,0,0,0,95,0.422,0.833,0.345,23,49,14,0021400689,1610612759,SAS,San Antonio,Tony Parker,G,,27:34,0.0,2.0,0.0,10.0,12.0,8.0,8.0,28.0,0.0,0.0,0.0,2.0
0021400689,1610612759,SAS,San Antonio,1938,Manu Ginobili,,,22:41,93.2,65.6,27.6,0.2,2.0,14.3,0.0,0.12,0.065,7.1,0.455,0.455,0.25,96.11,0.118,2015-01-28T00:00:00,9,SAS,San Antonio,30-17,27,28,14,26,0,0,0,0,0,0,0,0,0,0,95,0.422,0.833,0.345,23,49,14,0021400689,1610612759,SAS,San Antonio,Manu Ginobili,,,22:41,3.0,0.0,2.0,4.0,10.0,6.0,4.0,20.0,1.0,1.0,0.0,6.0
0021400689,1610612759,SAS,San Antonio,2564,Boris Diaw,,,16:47,95.6,50.3,45.3,0.375,3.0,33.8,0.0,0.238,0.135,11.3,0.5,0.615,0.161,100.5,0.241,2015-01-28T00:00:00,9,SAS,San Antonio,30-17,27,28,14,26,0,0,0,0,0,0,0,0,0,0,95,0.422,0.833,0.345,23,49,14,0021400689,1610612759,SAS,San Antonio,Boris Diaw,,,16:47,0.0,0.0,2.0,4.0,8.0,3.0,2.0,14.0,0.0,0.0,1.0,1.0
0021400689,1610612759,SAS,San Antonio,203382,Aron Baynes,,,19:04,97.2,75.5,21.8,0.0,0.0,0.0,0.158,0.143,0.15,25.0,0.333,0.333,0.19,99.22,0.008,2015-01-28T00:00:00,9,SAS,San Antonio,30-17,27,28,14,26,0,0,0,0,0,0,0,0,0,0,95,0.422,0.833,0.345,23,49,14,0021400689,1610612759,SAS,San Antonio,Aron Baynes,,,19:04,0.0,0.0,0.0,2.0,11.0,5.0,7.0,14.0,0.0,1.0,2.0,0.0
0021400689,1610612759,SAS,San Antonio,201988,Patty Mills,,,20:26,99.8,65.5,34.3,0.25,3.0,20.9,0.0,0.167,0.087,7.0,0.333,0.436,0.24,99.65,0.129,2015-01-28T00:00:00,9,SAS,San Antonio,30-17,27,28,14,26,0,0,0,0,0,0,0,0,0,0,95,0.422,0.833,0.345,23,49,14,0021400689,1610612759,SAS,San Antonio,Patty Mills,,,20:26,3.0,0.0,6.0,0.0,9.0,5.0,7.0,12.0,0.0,0.0,1.0,2.0
0021400689,1610612759,SAS,San Antonio,202709,Cory Joseph,,,18:22,116.3,94.5,21.9,0.071,1.0,20.5,0.048,0.105,0.075,20.5,0.0,0.347,0.091,85.3,0.007,2015-01-28T00:00:00,9,SAS,San Antonio,30-17,27,28,14,26,0,0,0,0,0,0,0,0,0,0,95,0.422,0.833,0.345,23,49,14,0021400689,1610612759,SAS,San Antonio,Cory Joseph,,,18:22,0.0,0.0,0.0,0.0,8.0,8.0,2.0,14.0,0.0,0.0,2.0,1.0
0021400689,1610612759,SAS,San Antonio,201965,Jeff Ayres,,,2:44,40.0,170.1,-130.1,0.0,0.0,0.0,0.0,0.5,0.167,0.0,0.0,0.0,0.0,95.53,0.0,2015-01-28T00:00:00,9,SAS,San Antonio,30-17,27,28,14,26,0,0,0,0,0,0,0,0,0,0,95,0.422,0.833,0.345,23,49,14,0021400689,1610612759,SAS,San Antonio,Jeff Ayres,,,2:44,0.0,0.0,0.0,0.0,3.0,0.0,5.0,0.0,0.0,0.0,1.0,0.0
0021400689,1610612759,SAS,San Antonio,202130,Reggie Williams,,,2:44,40.0,170.1,-130.1,0.0,0.0,0.0,0.0,0.0,0.0,0.0,0.0,0.0,0.167,95.53,-0.087,2015-01-28T00:00:00,9,SAS,San Antonio,30-17,27,28,14,26,0,0,0,0,0,0,0,0,0,0,95,0.422,0.833,0.345,23,49,14,0021400689,1610612759,SAS,San Antonio,Reggie Williams,,,2:44,0.0,0.0,0.0,0.0,3.0,0.0,5.0,0.0,0.0,0.0,0.0,0.0
0021400689,1610612759,SAS,San Antonio,201168,Tiago Splitter,,DNP - Coach's Decision                  ,,,,,,,0.0,,,,,,,0.0,,,2015-01-28T00:00:00,9,SAS,San Antonio,30-17,27,28,14,26,0,0,0,0,0,0,0,0,0,0,95,0.422,0.833,0.345,23,49,14,0021400689,1610612759,SAS,San Antonio,Tiago Splitter,,DNP - Coach's Decision                  ,,,,,,,,,,,,,
