GAME_ID_x,TEAM_ID_x,TEAM_ABBREVIATION_x,TEAM_CITY_x,PLAYER_ID,PLAYER_NAME_x,START_POSITION_x,COMMENT_x,MIN_x,OFF_RATING,DEF_RATING,NET_RATING,AST_PCT,AST_TOV,AST_RATIO,OREB_PCT,DREB_PCT,REB_PCT,TM_TOV_PCT,EFG_PCT,TS_PCT,USG_PCT,PACE,PIE,GAME_DATE_EST,GAME_SEQUENCE,TEAM_ABBREVIATION_y,TEAM_CITY_NAME,TEAM_WINS_LOSSES,PTS_QTR1,PTS_QTR2,PTS_QTR3,PTS_QTR4,PTS_OT1,PTS_OT2,PTS_OT3,PTS_OT4,PTS_OT5,PTS_OT6,PTS_OT7,PTS_OT8,PTS_OT9,PTS_OT10,PTS,FG_PCT,FT_PCT,FG3_PCT,AST,REB,TOV,GAME_ID_y,TEAM_ID_y,TEAM_ABBREVIATION,TEAM_CITY_y,PLAYER_NAME_y,START_POSITION_y,COMMENT_y,MIN_y,PTS_OFF_TOV,PTS_2ND_CHANCE,PTS_FB,PTS_PAINT,OPP_PTS_OFF_TOV,OPP_PTS_2ND_CHANCE,OPP_PTS_FB,OPP_PTS_PAINT,BLK,BLKA,PF,PFD
0021400687,1610612743,DEN,Denver,201163,Wilson Chandler,F,,28:05,102.2,92.5,9.6,0.158,1.5,23.1,0.095,0.207,0.16,15.4,0.563,0.563,0.176,86.83,0.119,2015-01-28T00:00:00,7,DEN,Denver,19-27,28,21,21,23,0,0,0,0,0,0,0,0,0,0,93,0.459,0.714,0.588,30,39,8,0021400687,1610612743,DEN,Denver,Wilson Chandler,F,,28:05,0.0,2.0,0.0,4.0,3.0,4.0,3.0,20.0,0.0,0.0,3.0,1.0
0021400687,1610612743,DEN,Denver,202702,Kenneth Faried,F,,32:28,109.6,98.0,11.6,0.045,0.0,7.5,0.083,0.156,0.125,0.0,0.545,0.568,0.189,88.25,0.128,2015-01-28T00:00:00,7,DEN,Denver,19-27,28,21,21,23,0,0,0,0,0,0,0,0,0,0,93,0.459,0.714,0.588,30,39,8,0021400687,1610612743,DEN,Denver,Kenneth Faried,F,,32:28,4.0,2.0,2.0,10.0,3.0,6.0,3.0,26.0,1.0,1.0,3.0,3.0
0021400687,1610612743,DEN,Denver,203994,Jusuf Nurkic,C,,28:37,102.1,94.5,7.6,0.0,0.0,0.0,0.0,0.321,0.184,28.8,0.778,0.759,0.244,87.82,0.159,2015-01-28T00:00:00,7,DEN,Denver,19-27,28,21,21,23,0,0,0,0,0,0,0,0,0,0,93,0.459,0.714,0.588,30,39,8,0021400687,1610612743,DEN,Denver,Jusuf Nurkic,C,,28:37,2.0,0.0,2.0,10.0,2.0,4.0,3.0,22.0,2.0,0.0,4.0,2.0
0021400687,1610612743,DEN,Denver,201167,Arron Afflalo,G,,39:06,105.4,95.3,10.2,0.167,4.0,21.2,0.0,0.024,0.014,5.3,0.692,0.72,0.19,84.98,0.142,2015-01-28T00:00:00,7,DEN,Denver,19-27,28,21,21,23,0,0,0,0,0,0,0,0,0,0,93,0.459,0.714,0.588,30,39,8,0021400687,1610612743,DEN,Denver,Arron Afflalo,G,,39:06,3.0,2.0,2.0,0.0,3.0,12.0,4.0,30.0,0.0,0.0,2.0,4.0
0021400687,1610612743,DEN,Denver,201951,Ty Lawson,G,,32:05,106.1,98.0,8.1,0.5,13.0,50.0,0.043,0.0,0.018,3.8,0.208,0.208,0.199,87.88,0.06,2015-01-28T00:00:00,7,DEN,Denver,19-27,28,21,21,23,0,0,0,0,0,0,0,0,0,0,93,0.459,0.714,0.588,30,39,8,0021400687,1610612743,DEN,Denver,Ty Lawson,G,,32:05,2.0,0.0,0.0,2.0,3.0,8.0,3.0,26.0,0.0,3.0,2.0,2.0
0021400687,1610612743,DEN,Denver,201589,Darrell Arthur,,,18:06,103.5,109.9,-6.4,0.083,0.0,12.5,0.0,0.111,0.059,0.0,0.286,0.286,0.201,84.49,0.009,2015-01-28T00:00:00,7,DEN,Denver,19-27,28,21,21,23,0,0,0,0,0,0,0,0,0,0,93,0.459,0.714,0.588,30,39,8,0021400687,1610612743,DEN,Denver,Darrell Arthur,,,18:06,0.0,0.0,0.0,2.0,0.0,16.0,1.0,20.0,3.0,0.0,3.0,0.0
0021400687,1610612743,DEN,Denver,201581,JJ Hickson,,,19:00,108.2,106.8,1.4,0.2,0.0,16.7,0.118,0.15,0.135,0.0,0.5,0.5,0.269,85.79,0.196,2015-01-28T00:00:00,7,DEN,Denver,19-27,28,21,21,23,0,0,0,0,0,0,0,0,0,0,93,0.459,0.714,0.588,30,39,8,0021400687,1610612743,DEN,Denver,JJ Hickson,,,19:00,0.0,2.0,0.0,10.0,1.0,16.0,1.0,20.0,0.0,1.0,0.0,0.0
0021400687,1610612743,DEN,Denver,201568,Danilo Gallinari,,,20:18,112.9,108.8,4.1,0.154,0.0,20.0,0.0,0.105,0.053,0.0,0.688,0.688,0.194,86.36,0.156,2015-01-28T00:00:00,7,DEN,Denver,19-27,28,21,21,23,0,0,0,0,0,0,0,0,0,0,93,0.459,0.714,0.588,30,39,8,0021400687,1610612743,DEN,Denver,Danilo Gallinari,,,20:18,3.0,0.0,0.0,2.0,0.0,16.0,1.0,22.0,1.0,1.0,1.0,0.0
0021400687,1610612743,DEN,Denver,2749,Jameer Nelson,,,16:17,97.4,102.1,-4.7,0.3,0.0,37.5,0.063,0.188,0.125,0.0,0.2,0.2,0.153,85.7,0.012,2015-01-28T00:00:00,7,DEN,Denver,19-27,28,21,21,23,0,0,0,0,0,0,0,0,0,0,93,0.459,0.714,0.588,30,39,8,0021400687,1610612743,DEN,Denver,Jameer Nelson,,,16:17,0.0,0.0,0.0,2.0,0.0,12.0,1.0,16.0,0.0,0.0,4.0,2.0
0021400687,1610612743,DEN,Denver,200751,Randy Foye,,,5:58,109.4,101.0,8.4,0.25,0.0,33.3,0.0,0.0,0.0,0.0,0.75,0.75,0.168,95.57,0.125,2015-01-28T00:00:00,7,DEN,Denver,19-27,28,21,21,23,0,0,0,0,0,0,0,0,0,0,93,0.459,0.714,0.588,30,39,8,0021400687,1610612743,DEN,Denver,Randy Foye,,,5:58,0.0,0.0,0.0,0.0,0.0,6.0,0.0,8.0,0.0,0.0,0.0,1.0
0021400687,1610612743,DEN,Denver,202087,Alonzo Gee,,DNP - Coach's Decision                  ,,,,,,,0.0,,,,,,,0.0,,,2015-01-28T00:00:00,7,DEN,Denver,19-27,28,21,21,23,0,0,0,0,0,0,0,0,0,0,93,0.459,0.714,0.588,30,39,8,0021400687,1610612743,DEN,Denver,Alonzo Gee,,DNP - Coach's Decision                  ,,,,,,,,,,,,,
0021400687,1610612743,DEN,Denver,203914,Gary Harris,,DNP - Coach's Decision                  ,,,,,,,0.0,,,,,,,0.0,,,2015-01-28T00:00:00,7,DEN,Denver,19-27,28,21,21,23,0,0,0,0,0,0,0,0,0,0,93,0.459,0.714,0.588,30,39,8,0021400687,1610612743,DEN,Denver,Gary Harris,,DNP - Coach's Decision                  ,,,,,,,,,,,,,
0021400687,1610612743,DEN,Denver,201580,JaVale McGee,,DNP - Coach's Decision                  ,,,,,,,0.0,,,,,,,0.0,,,2015-01-28T00:00:00,7,DEN,Denver,19-27,28,21,21,23,0,0,0,0,0,0,0,0,0,0,93,0.459,0.714,0.588,30,39,8,0021400687,1610612743,DEN,Denver,JaVale McGee,,DNP - Coach's Decision                  ,,,,,,,,,,,,,
0021400687,1610612740,NOP,New Orleans,201967,Dante Cunningham,F,,38:37,102.4,106.8,-4.5,0.125,0.0,30.0,0.028,0.031,0.029,0.0,0.429,0.429,0.089,87.89,0.042,2015-01-28T00:00:00,7,NOP,New Orleans,24-22,17,22,31,15,0,0,0,0,0,0,0,0,0,0,85,0.39,0.75,0.2,15,48,9,0021400687,1610612740,NOP,New Orleans,Dante Cunningham,F,,38:37,0.0,0.0,0.0,4.0,11.0,8.0,6.0,32.0,0.0,0.0,2.0,1.0
0021400687,1610612740,NOP,New Orleans,203076,Anthony Davis,F,,36:54,102.1,107.3,-5.2,0.105,0.0,9.3,0.059,0.345,0.19,0.0,0.533,0.619,0.253,86.96,0.216,2015-01-28T00:00:00,7,NOP,New Orleans,24-22,17,22,31,15,0,0,0,0,0,0,0,0,0,0,85,0.39,0.75,0.2,15,48,9,0021400687,1610612740,NOP,New Orleans,Anthony Davis,F,,36:54,1.0,2.0,0.0,8.0,14.0,4.0,6.0,30.0,2.0,2.0,2.0,8.0
0021400687,1610612740,NOP,New Orleans,201600,Omer Asik,C,,27:59,102.1,92.3,9.8,0.0,0.0,0.0,0.233,0.2,0.218,29.6,0.333,0.42,0.106,88.26,0.061,2015-01-28T00:00:00,7,NOP,New Orleans,24-22,17,22,31,15,0,0,0,0,0,0,0,0,0,0,85,0.39,0.75,0.2,15,48,9,0021400687,1610612740,NOP,New Orleans,Omer Asik,C,,27:59,0.0,3.0,0.0,2.0,3.0,6.0,0.0,18.0,2.0,0.0,3.0,3.0
0021400687,1610612740,NOP,New Orleans,201569,Eric Gordon,G,,41:48,102.8,109.1,-6.3,0.231,3.0,25.1,0.025,0.156,0.083,8.4,0.333,0.346,0.206,86.12,0.042,2015-01-28T00:00:00,7,NOP,New Orleans,24-22,17,22,31,15,0,0,0,0,0,0,0,0,0,0,85,0.39,0.75,0.2,15,48,9,0021400687,1610612740,NOP,New Orleans,Eric Gordon,G,,41:48,0.0,3.0,0.0,4.0,14.0,8.0,6.0,32.0,1.0,0.0,3.0,1.0
0021400687,1610612740,NOP,New Orleans,201936,Tyreke Evans,G,,38:25,97.3,101.2,-3.8,0.154,0.5,6.8,0.048,0.125,0.081,13.6,0.523,0.536,0.326,85.6,0.131,2015-01-28T00:00:00,7,NOP,New Orleans,24-22,17,22,31,15,0,0,0,0,0,0,0,0,0,0,85,0.39,0.75,0.2,15,48,9,0021400687,1610612740,NOP,New Orleans,Tyreke Evans,G,,38:25,2.0,6.0,4.0,16.0,7.0,6.0,2.0,32.0,0.0,2.0,3.0,4.0
0021400687,1610612740,NOP,New Orleans,201583,Ryan Anderson,,,29:20,96.5,118.3,-21.8,0.067,1.0,7.0,0.103,0.182,0.137,7.0,0.3,0.451,0.217,84.93,0.084,2015-01-28T00:00:00,7,NOP,New Orleans,24-22,17,22,31,15,0,0,0,0,0,0,0,0,0,0,85,0.39,0.75,0.2,15,48,9,0021400687,1610612740,NOP,New Orleans,Ryan Anderson,,,29:20,0.0,4.0,0.0,6.0,11.0,6.0,6.0,34.0,0.0,1.0,1.0,5.0
0021400687,1610612740,NOP,New Orleans,202347,Quincy Pondexter,,,16:21,90.2,103.2,-13.1,0.0,0.0,0.0,0.059,0.071,0.065,0.0,0.4,0.4,0.136,87.84,0.043,2015-01-28T00:00:00,7,NOP,New Orleans,24-22,17,22,31,15,0,0,0,0,0,0,0,0,0,0,85,0.39,0.75,0.2,15,48,9,0021400687,1610612740,NOP,New Orleans,Quincy Pondexter,,,16:21,0.0,2.0,0.0,2.0,7.0,2.0,4.0,20.0,1.0,0.0,1.0,0.0
0021400687,1610612740,NOP,New Orleans,203489,Nate Wolters,,,2:45,68.0,150.0,-82.0,0.0,0.0,0.0,0.0,1.0,0.25,0.0,0.0,0.0,0.254,86.23,-0.154,2015-01-28T00:00:00,7,NOP,New Orleans,24-22,17,22,31,15,0,0,0,0,0,0,0,0,0,0,85,0.39,0.75,0.2,15,48,9,0021400687,1610612740,NOP,New Orleans,Nate Wolters,,,2:45,0.0,0.0,0.0,0.0,0.0,0.0,0.0,6.0,0.0,1.0,0.0,0.0
0021400687,1610612740,NOP,New Orleans,202690,Jimmer Fredette,,,7:51,94.9,87.4,7.5,0.2,0.0,25.0,0.0,0.0,0.0,0.0,0.0,0.0,0.169,90.58,-0.083,2015-01-28T00:00:00,7,NOP,New Orleans,24-22,17,22,31,15,0,0,0,0,0,0,0,0,0,0,85,0.39,0.75,0.2,15,48,9,0021400687,1610612740,NOP,New Orleans,Jimmer Fredette,,,7:51,0.0,0.0,0.0,0.0,3.0,0.0,0.0,6.0,0.0,1.0,0.0,0.0
0021400687,1610612740,NOP,New Orleans,201582,Alexis Ajinca,,DNP - Coach's Decision                  ,,,,,,,0.0,,,,,,,0.0,,,2015-01-28T00:00:00,7,NOP,New Orleans,24-22,17,22,31,15,0,0,0,0,0,0,0,0,0,0,85,0.39,0.75,0.2,15,48,9,0021400687,1610612740,NOP,New Orleans,Alexis Ajinca,,DNP - Coach's Decision                  ,,,,,,,,,,,,,
0021400687,1610612740,NOP,New Orleans,202337,Luke Babbitt,,DNP - Coach's Decision                  ,,,,,,,0.0,,,,,,,0.0,,,2015-01-28T00:00:00,7,NOP,New Orleans,24-22,17,22,31,15,0,0,0,0,0,0,0,0,0,0,85,0.39,0.75,0.2,15,48,9,0021400687,1610612740,NOP,New Orleans,Luke Babbitt,,DNP - Coach's Decision                  ,,,,,,,,,,,,,
0021400687,1610612740,NOP,New Orleans,2422,John Salmons,,DNP - Coach's Decision                  ,,,,,,,0.0,,,,,,,0.0,,,2015-01-28T00:00:00,7,NOP,New Orleans,24-22,17,22,31,15,0,0,0,0,0,0,0,0,0,0,85,0.39,0.75,0.2,15,48,9,0021400687,1610612740,NOP,New Orleans,John Salmons,,DNP - Coach's Decision                  ,,,,,,,,,,,,,
0021400687,1610612740,NOP,New Orleans,203481,Jeff Withey,,DNP - Coach's Decision                  ,,,,,,,0.0,,,,,,,0.0,,,2015-01-28T00:00:00,7,NOP,New Orleans,24-22,17,22,31,15,0,0,0,0,0,0,0,0,0,0,85,0.39,0.75,0.2,15,48,9,0021400687,1610612740,NOP,New Orleans,Jeff Withey,,DNP - Coach's Decision                  ,,,,,,,,,,,,,
