GAME_ID_x,TEAM_ID_x,TEAM_ABBREVIATION_x,TEAM_CITY_x,PLAYER_ID,PLAYER_NAME_x,START_POSITION_x,COMMENT_x,MIN_x,OFF_RATING,DEF_RATING,NET_RATING,AST_PCT,AST_TOV,AST_RATIO,OREB_PCT,DREB_PCT,REB_PCT,TM_TOV_PCT,EFG_PCT,TS_PCT,USG_PCT,PACE,PIE,GAME_DATE_EST,GAME_SEQUENCE,TEAM_ABBREVIATION_y,TEAM_CITY_NAME,TEAM_WINS_LOSSES,PTS_QTR1,PTS_QTR2,PTS_QTR3,PTS_QTR4,PTS_OT1,PTS_OT2,PTS_OT3,PTS_OT4,PTS_OT5,PTS_OT6,PTS_OT7,PTS_OT8,PTS_OT9,PTS_OT10,PTS,FG_PCT,FT_PCT,FG3_PCT,AST,REB,TOV,GAME_ID_y,TEAM_ID_y,TEAM_ABBREVIATION,TEAM_CITY_y,PLAYER_NAME_y,START_POSITION_y,COMMENT_y,MIN_y,PTS_OFF_TOV,PTS_2ND_CHANCE,PTS_FB,PTS_PAINT,OPP_PTS_OFF_TOV,OPP_PTS_2ND_CHANCE,OPP_PTS_FB,OPP_PTS_PAINT,BLK,BLKA,PF,PFD
0021400693,1610612743,DEN,Denver,201163,Wilson Chandler,F,,25:37,80.3,118.5,-38.2,0.071,0.0,8.3,0.036,0.211,0.106,0.0,0.455,0.455,0.189,94.89,0.107,2015-01-29T00:00:00,3,DEN,Denver,19-28,11,24,14,20,0,0,0,0,0,0,0,0,0,0,69,0.333,0.9,0.077,19,47,16,0021400693,1610612743,DEN,Denver,Wilson Chandler,F,,25:37,0.0,2.0,4.0,8.0,6.0,2.0,10.0,26.0,1.0,0.0,1.0,1.0
0021400693,1610612743,DEN,Denver,202702,Kenneth Faried,F,,22:54,79.2,111.5,-32.3,0.083,1.0,7.7,0.04,0.273,0.149,7.7,0.455,0.455,0.238,94.64,0.101,2015-01-29T00:00:00,3,DEN,Denver,19-28,11,24,14,20,0,0,0,0,0,0,0,0,0,0,69,0.333,0.9,0.077,19,47,16,0021400693,1610612743,DEN,Denver,Kenneth Faried,F,,22:54,4.0,0.0,2.0,10.0,9.0,4.0,9.0,24.0,0.0,1.0,3.0,2.0
0021400693,1610612743,DEN,Denver,203994,Jusuf Nurkic,C,,22:23,76.7,121.7,-45.0,0.067,0.33,9.1,0.12,0.167,0.14,27.3,0.0,0.0,0.199,91.57,-0.075,2015-01-29T00:00:00,3,DEN,Denver,19-28,11,24,14,20,0,0,0,0,0,0,0,0,0,0,69,0.333,0.9,0.077,19,47,16,0021400693,1610612743,DEN,Denver,Jusuf Nurkic,C,,22:23,0.0,0.0,0.0,0.0,6.0,4.0,10.0,24.0,0.0,0.0,2.0,1.0
0021400693,1610612743,DEN,Denver,201167,Arron Afflalo,G,,23:06,61.9,99.8,-38.0,0.1,1.0,14.3,0.0,0.038,0.019,14.3,0.7,0.7,0.116,96.57,0.064,2015-01-29T00:00:00,3,DEN,Denver,19-28,11,24,14,20,0,0,0,0,0,0,0,0,0,0,69,0.333,0.9,0.077,19,47,16,0021400693,1610612743,DEN,Denver,Arron Afflalo,G,,23:06,0.0,0.0,0.0,2.0,11.0,4.0,9.0,20.0,0.0,0.0,2.0,0.0
0021400693,1610612743,DEN,Denver,201951,Ty Lawson,G,,25:03,77.9,118.6,-40.6,0.4,6.0,31.1,0.0,0.087,0.04,5.2,0.273,0.365,0.232,95.23,0.107,2015-01-29T00:00:00,3,DEN,Denver,19-28,11,24,14,20,0,0,0,0,0,0,0,0,0,0,69,0.333,0.9,0.077,19,47,16,0021400693,1610612743,DEN,Denver,Ty Lawson,G,,25:03,2.0,0.0,4.0,6.0,10.0,4.0,8.0,24.0,1.0,0.0,0.0,2.0
0021400693,1610612743,DEN,Denver,201568,Danilo Gallinari,,,13:55,71.9,88.8,-16.9,0.0,0.0,0.0,0.067,0.111,0.091,21.2,0.5,0.538,0.284,100.85,0.127,2015-01-29T00:00:00,3,DEN,Denver,19-28,11,24,14,20,0,0,0,0,0,0,0,0,0,0,69,0.333,0.9,0.077,19,47,16,0021400693,1610612743,DEN,Denver,Danilo Gallinari,,,13:55,0.0,3.0,0.0,2.0,11.0,2.0,3.0,14.0,0.0,0.0,0.0,1.0
0021400693,1610612743,DEN,Denver,2749,Jameer Nelson,,,21:09,64.0,95.8,-31.8,0.5,2.5,45.5,0.0,0.125,0.062,18.2,0.25,0.25,0.133,96.45,0.062,2015-01-29T00:00:00,3,DEN,Denver,19-28,11,24,14,20,0,0,0,0,0,0,0,0,0,0,69,0.333,0.9,0.077,19,47,16,0021400693,1610612743,DEN,Denver,Jameer Nelson,,,21:09,0.0,0.0,0.0,2.0,9.0,6.0,7.0,20.0,0.0,0.0,2.0,0.0
0021400693,1610612743,DEN,Denver,201581,JJ Hickson,,,11:44,37.9,74.1,-36.3,0.0,0.0,0.0,0.071,0.211,0.152,16.7,0.4,0.4,0.233,98.26,0.25,2015-01-29T00:00:00,3,DEN,Denver,19-28,11,24,14,20,0,0,0,0,0,0,0,0,0,0,69,0.333,0.9,0.077,19,47,16,0021400693,1610612743,DEN,Denver,JJ Hickson,,,11:44,0.0,0.0,0.0,2.0,7.0,6.0,3.0,10.0,0.0,0.0,3.0,0.0
0021400693,1610612743,DEN,Denver,200751,Randy Foye,,,15:55,69.3,102.5,-33.3,0.222,0.67,16.8,0.0,0.056,0.028,25.3,0.0,0.145,0.266,100.07,-0.103,2015-01-29T00:00:00,3,DEN,Denver,19-28,11,24,14,20,0,0,0,0,0,0,0,0,0,0,69,0.333,0.9,0.077,19,47,16,0021400693,1610612743,DEN,Denver,Randy Foye,,,15:55,0.0,0.0,0.0,0.0,10.0,2.0,4.0,16.0,0.0,1.0,1.0,1.0
0021400693,1610612743,DEN,Denver,201589,Darrell Arthur,,,13:06,45.2,87.6,-42.4,0.0,0.0,0.0,0.0,0.125,0.061,11.3,0.429,0.444,0.289,102.84,0.132,2015-01-29T00:00:00,3,DEN,Denver,19-28,11,24,14,20,0,0,0,0,0,0,0,0,0,0,69,0.333,0.9,0.077,19,47,16,0021400693,1610612743,DEN,Denver,Darrell Arthur,,,13:06,0.0,0.0,2.0,2.0,6.0,2.0,4.0,8.0,1.0,1.0,1.0,2.0
0021400693,1610612743,DEN,Denver,202087,Alonzo Gee,,,15:20,63.3,98.8,-35.5,0.0,0.0,0.0,0.111,0.188,0.147,16.7,0.6,0.6,0.17,102.68,0.144,2015-01-29T00:00:00,3,DEN,Denver,19-28,11,24,14,20,0,0,0,0,0,0,0,0,0,0,69,0.333,0.9,0.077,19,47,16,0021400693,1610612743,DEN,Denver,Alonzo Gee,,,15:20,2.0,2.0,2.0,6.0,6.0,6.0,8.0,14.0,0.0,0.0,1.0,0.0
0021400693,1610612743,DEN,Denver,201580,JaVale McGee,,,15:12,87.0,95.3,-8.4,0.1,0.0,33.3,0.0,0.294,0.152,0.0,0.5,0.5,0.058,102.19,0.09,2015-01-29T00:00:00,3,DEN,Denver,19-28,11,24,14,20,0,0,0,0,0,0,0,0,0,0,69,0.333,0.9,0.077,19,47,16,0021400693,1610612743,DEN,Denver,JaVale McGee,,,15:12,0.0,0.0,2.0,2.0,8.0,4.0,4.0,14.0,1.0,0.0,2.0,0.0
0021400693,1610612743,DEN,Denver,203914,Gary Harris,,,14:36,75.3,98.2,-22.8,0.125,0.0,12.7,0.063,0.071,0.067,0.0,0.0,0.145,0.214,94.88,-0.022,2015-01-29T00:00:00,3,DEN,Denver,19-28,11,24,14,20,0,0,0,0,0,0,0,0,0,0,69,0.333,0.9,0.077,19,47,16,0021400693,1610612743,DEN,Denver,Gary Harris,,,14:36,0.0,0.0,0.0,0.0,6.0,4.0,6.0,16.0,1.0,1.0,1.0,1.0
0021400693,1610612763,MEM,Memphis,201145,Jeff Green,F,,26:17,115.7,71.3,44.4,0.0,0.0,0.0,0.0,0.069,0.035,0.0,0.556,0.604,0.174,96.85,0.107,2015-01-29T00:00:00,3,MEM,Memphis,34-12,26,24,24,25,0,0,0,0,0,0,0,0,0,0,99,0.443,0.667,0.188,17,57,9,0021400693,1610612763,MEM,Memphis,Jeff Green,F,,26:17,5.0,0.0,1.0,2.0,6.0,2.0,10.0,30.0,0.0,0.0,0.0,3.0
0021400693,1610612763,MEM,Memphis,2216,Zach Randolph,F,,30:20,107.4,67.4,40.0,0.1,2.0,10.7,0.161,0.333,0.254,5.3,0.429,0.476,0.244,96.46,0.237,2015-01-29T00:00:00,3,MEM,Memphis,34-12,26,24,24,25,0,0,0,0,0,0,0,0,0,0,99,0.443,0.667,0.188,17,57,9,0021400693,1610612763,MEM,Memphis,Zach Randolph,F,,30:20,2.0,4.0,0.0,8.0,6.0,2.0,14.0,32.0,0.0,1.0,2.0,2.0
0021400693,1610612763,MEM,Memphis,201188,Marc Gasol,C,,24:57,116.8,81.8,34.9,0.105,2.0,16.8,0.045,0.24,0.149,8.4,0.5,0.563,0.183,95.5,0.137,2015-01-29T00:00:00,3,MEM,Memphis,34-12,26,24,24,25,0,0,0,0,0,0,0,0,0,0,99,0.443,0.667,0.188,17,57,9,0021400693,1610612763,MEM,Memphis,Marc Gasol,C,,24:57,0.0,0.0,0.0,6.0,6.0,2.0,12.0,30.0,2.0,1.0,3.0,2.0
0021400693,1610612763,MEM,Memphis,201584,Courtney Lee,G,,24:10,110.5,71.6,38.9,0.118,2.0,14.0,0.0,0.074,0.04,7.0,0.5,0.486,0.228,96.17,0.099,2015-01-29T00:00:00,3,MEM,Memphis,34-12,26,24,24,25,0,0,0,0,0,0,0,0,0,0,99,0.443,0.667,0.188,17,57,9,0021400693,1610612763,MEM,Memphis,Courtney Lee,G,,24:10,2.0,0.0,4.0,6.0,6.0,2.0,12.0,28.0,0.0,0.0,0.0,2.0
0021400693,1610612763,MEM,Memphis,2757,Beno Udrih,G,,22:57,117.6,70.4,47.2,0.176,3.0,21.4,0.0,0.077,0.042,7.1,0.55,0.55,0.215,96.17,0.125,2015-01-29T00:00:00,3,MEM,Memphis,34-12,26,24,24,25,0,0,0,0,0,0,0,0,0,0,99,0.443,0.667,0.188,17,57,9,0021400693,1610612763,MEM,Memphis,Beno Udrih,G,,22:57,2.0,0.0,4.0,2.0,6.0,2.0,10.0,26.0,0.0,1.0,0.0,0.0
0021400693,1610612763,MEM,Memphis,2754,Tony Allen,,,21:20,87.7,53.2,34.5,0.0,0.0,0.0,0.16,0.185,0.173,8.5,0.333,0.372,0.245,94.77,0.194,2015-01-29T00:00:00,3,MEM,Memphis,34-12,26,24,24,25,0,0,0,0,0,0,0,0,0,0,99,0.443,0.667,0.188,17,57,9,0021400693,1610612763,MEM,Memphis,Tony Allen,,,21:20,2.0,4.0,4.0,6.0,0.0,3.0,4.0,8.0,0.0,1.0,0.0,2.0
0021400693,1610612763,MEM,Memphis,201585,Kosta Koufos,,,23:03,89.7,57.3,32.4,0.0,0.0,0.0,0.036,0.207,0.123,16.7,0.6,0.6,0.109,98.92,0.127,2015-01-29T00:00:00,3,MEM,Memphis,34-12,26,24,24,25,0,0,0,0,0,0,0,0,0,0,99,0.443,0.667,0.188,17,57,9,0021400693,1610612763,MEM,Memphis,Kosta Koufos,,,23:03,4.0,0.0,2.0,4.0,2.0,5.0,4.0,12.0,0.0,1.0,3.0,0.0
0021400693,1610612763,MEM,Memphis,201979,Nick Calathes,,,25:03,90.6,69.9,20.7,0.417,0.0,31.5,0.0,0.036,0.018,0.0,0.5,0.506,0.188,98.03,0.161,2015-01-29T00:00:00,3,MEM,Memphis,34-12,26,24,24,25,0,0,0,0,0,0,0,0,0,0,99,0.443,0.667,0.188,17,57,9,0021400693,1610612763,MEM,Memphis,Nick Calathes,,,25:03,4.0,0.0,0.0,8.0,2.0,5.0,6.0,16.0,0.0,0.0,2.0,1.0
0021400693,1610612763,MEM,Memphis,1713,Vince Carter,,,7:07,68.3,56.7,11.6,0.0,0.0,0.0,0.0,0.222,0.118,17.0,0.25,0.41,0.402,102.83,0.154,2015-01-29T00:00:00,3,MEM,Memphis,34-12,26,24,24,25,0,0,0,0,0,0,0,0,0,0,99,0.443,0.667,0.188,17,57,9,0021400693,1610612763,MEM,Memphis,Vince Carter,,,7:07,0.0,0.0,2.0,0.0,0.0,0.0,2.0,2.0,0.0,0.0,0.0,2.0
0021400693,1610612763,MEM,Memphis,202720,Jon Leuer,,,17:40,96.5,74.8,21.6,0.091,0.0,12.9,0.053,0.278,0.162,0.0,0.4,0.444,0.168,98.3,0.171,2015-01-29T00:00:00,3,MEM,Memphis,34-12,26,24,24,25,0,0,0,0,0,0,0,0,0,0,99,0.443,0.667,0.188,17,57,9,0021400693,1610612763,MEM,Memphis,Jon Leuer,,,17:40,0.0,2.0,0.0,4.0,2.0,5.0,2.0,10.0,0.0,0.0,0.0,4.0
0021400693,1610612763,MEM,Memphis,203919,Jordan Adams,,,12:00,105.8,82.6,23.1,0.1,0.5,16.7,0.083,0.083,0.083,33.3,0.0,0.0,0.181,95.68,-0.036,2015-01-29T00:00:00,3,MEM,Memphis,34-12,26,24,24,25,0,0,0,0,0,0,0,0,0,0,99,0.443,0.667,0.188,17,57,9,0021400693,1610612763,MEM,Memphis,Jordan Adams,,,12:00,0.0,0.0,0.0,0.0,2.0,5.0,2.0,8.0,2.0,0.0,1.0,0.0
0021400693,1610612763,MEM,Memphis,200748,Tyrus Thomas,,,5:06,110.5,114.8,-4.3,0.25,0.0,34.7,0.0,0.0,0.0,0.0,1.0,1.064,0.16,108.61,0.175,2015-01-29T00:00:00,3,MEM,Memphis,34-12,26,24,24,25,0,0,0,0,0,0,0,0,0,0,99,0.443,0.667,0.188,17,57,9,0021400693,1610612763,MEM,Memphis,Tyrus Thomas,,,5:06,0.0,0.0,0.0,0.0,2.0,2.0,2.0,8.0,0.0,0.0,0.0,1.0
0021400693,1610612763,MEM,Memphis,201144,Mike Conley,,DND - Left Wrist Sprain                 ,,,,,,,0.0,,,,,,,0.0,,,2015-01-29T00:00:00,3,MEM,Memphis,34-12,26,24,24,25,0,0,0,0,0,0,0,0,0,0,99,0.443,0.667,0.188,17,57,9,0021400693,1610612763,MEM,Memphis,Mike Conley,,DND - Left Wrist Sprain                 ,,,,,,,,,,,,,
