GAME_ID_x,TEAM_ID_x,TEAM_ABBREVIATION_x,TEAM_CITY_x,PLAYER_ID,PLAYER_NAME_x,START_POSITION_x,COMMENT_x,MIN_x,OFF_RATING,DEF_RATING,NET_RATING,AST_PCT,AST_TOV,AST_RATIO,OREB_PCT,DREB_PCT,REB_PCT,TM_TOV_PCT,EFG_PCT,TS_PCT,USG_PCT,PACE,PIE,GAME_DATE_EST,GAME_SEQUENCE,TEAM_ABBREVIATION_y,TEAM_CITY_NAME,TEAM_WINS_LOSSES,PTS_QTR1,PTS_QTR2,PTS_QTR3,PTS_QTR4,PTS_OT1,PTS_OT2,PTS_OT3,PTS_OT4,PTS_OT5,PTS_OT6,PTS_OT7,PTS_OT8,PTS_OT9,PTS_OT10,PTS,FG_PCT,FT_PCT,FG3_PCT,AST,REB,TOV,GAME_ID_y,TEAM_ID_y,TEAM_ABBREVIATION,TEAM_CITY_y,PLAYER_NAME_y,START_POSITION_y,COMMENT_y,MIN_y,PTS_OFF_TOV,PTS_2ND_CHANCE,PTS_FB,PTS_PAINT,OPP_PTS_OFF_TOV,OPP_PTS_2ND_CHANCE,OPP_PTS_FB,OPP_PTS_PAINT,BLK,BLKA,PF,PFD
0021400714,1610612746,LAC,Los Angeles,2440,Matt Barnes,F,,29:45,116.1,96.8,19.4,0.185,0.0,42.1,0.071,0.138,0.105,0.0,0.0,0.145,0.101,99.47,0.017,2015-01-31T00:00:00,10,LAC,Los Angeles,33-15,29,27,28,21,0,0,0,0,0,0,0,0,0,0,105,0.44,0.944,0.364,20,56,15,0021400714,1610612746,LAC,Los Angeles,Matt Barnes,F,,29:45,0,2,0,0,6,6,7,12,0,1,6,1
0021400714,1610612746,LAC,Los Angeles,201933,Blake Griffin,F,,34:40,114.5,93.2,21.4,0.263,2.5,16.1,0.032,0.364,0.203,6.4,0.571,0.644,0.328,99.37,0.277,2015-01-31T00:00:00,10,LAC,Los Angeles,33-15,29,27,28,21,0,0,0,0,0,0,0,0,0,0,105,0.44,0.944,0.364,20,56,15,0021400714,1610612746,LAC,Los Angeles,Blake Griffin,F,,34:40,7,0,6,16,8,8,7,16,1,0,1,7
0021400714,1610612746,LAC,Los Angeles,201599,DeAndre Jordan,C,,30:57,99.2,89.0,10.1,0.045,1.0,12.7,0.206,0.414,0.302,12.7,0.6,0.68,0.092,97.36,0.202,2015-01-31T00:00:00,10,LAC,Los Angeles,33-15,29,27,28,21,0,0,0,0,0,0,0,0,0,0,105,0.44,0.944,0.364,20,56,15,0021400714,1610612746,LAC,Los Angeles,DeAndre Jordan,C,,30:57,0,2,0,6,8,4,6,18,4,0,4,2
0021400714,1610612746,LAC,Los Angeles,200755,JJ Redick,G,,27:47,117.3,101.3,16.1,0.045,1.0,11.1,0.0,0.154,0.077,11.1,0.643,0.643,0.126,97.34,0.083,2015-01-31T00:00:00,10,LAC,Los Angeles,33-15,29,27,28,21,0,0,0,0,0,0,0,0,0,0,105,0.44,0.944,0.364,20,56,15,0021400714,1610612746,LAC,Los Angeles,JJ Redick,G,,27:47,2,0,2,2,6,4,6,12,0,0,0,0
0021400714,1610612746,LAC,Los Angeles,101108,Chris Paul,G,,30:40,114.4,99.6,14.8,0.3,1.2,22.2,0.037,0.074,0.056,18.5,0.625,0.625,0.3,98.8,0.111,2015-01-31T00:00:00,10,LAC,Los Angeles,33-15,29,27,28,21,0,0,0,0,0,0,0,0,0,0,105,0.44,0.944,0.364,20,56,15,0021400714,1610612746,LAC,Los Angeles,Chris Paul,G,,30:40,2,0,6,6,7,6,7,14,0,0,3,2
0021400714,1610612746,LAC,Los Angeles,2037,Jamal Crawford,,,20:34,91.0,59.8,31.2,0.0,0.0,0.0,0.043,0.05,0.047,14.5,0.2,0.34,0.265,104.0,0.062,2015-01-31T00:00:00,10,LAC,Los Angeles,33-15,29,27,28,21,0,0,0,0,0,0,0,0,0,0,105,0.44,0.944,0.364,20,56,15,0021400714,1610612746,LAC,Los Angeles,Jamal Crawford,,,20:34,0,0,0,2,6,4,1,12,2,0,1,1
0021400714,1610612746,LAC,Los Angeles,201150,Spencer Hawes,,,24:10,111.9,66.5,45.4,0.059,0.5,9.1,0.048,0.087,0.068,18.2,0.688,0.688,0.17,105.27,0.118,2015-01-31T00:00:00,10,LAC,Los Angeles,33-15,29,27,28,21,0,0,0,0,0,0,0,0,0,0,105,0.44,0.944,0.364,20,56,15,0021400714,1610612746,LAC,Los Angeles,Spencer Hawes,,,24:10,3,0,0,2,6,4,1,12,0,2,3,1
0021400714,1610612746,LAC,Los Angeles,203085,Austin Rivers,,,18:29,97.4,66.6,30.8,0.0,0.0,0.0,0.095,0.0,0.053,0.0,0.409,0.446,0.268,98.68,0.08,2015-01-31T00:00:00,10,LAC,Los Angeles,33-15,29,27,28,21,0,0,0,0,0,0,0,0,0,0,105,0.44,0.944,0.364,20,56,15,0021400714,1610612746,LAC,Los Angeles,Austin Rivers,,,18:29,6,4,0,4,7,3,2,12,0,0,2,3
0021400714,1610612746,LAC,Los Angeles,2045,Hedo Turkoglu,,,11:57,102.7,52.6,50.1,0.125,0.5,14.3,0.0,0.25,0.143,28.6,0.625,0.625,0.205,104.35,0.113,2015-01-31T00:00:00,10,LAC,Los Angeles,33-15,29,27,28,21,0,0,0,0,0,0,0,0,0,0,105,0.44,0.944,0.364,20,56,15,0021400714,1610612746,LAC,Los Angeles,Hedo Turkoglu,,,11:57,3,5,0,0,4,2,0,10,0,0,2,0
0021400714,1610612746,LAC,Los Angeles,201175,Glen Davis,,,3:37,93.2,121.5,-28.4,0.0,0.0,0.0,0.0,0.0,0.0,0.0,0.0,0.0,0.118,80.96,-0.105,2015-01-31T00:00:00,10,LAC,Los Angeles,33-15,29,27,28,21,0,0,0,0,0,0,0,0,0,0,105,0.44,0.944,0.364,20,56,15,0021400714,1610612746,LAC,Los Angeles,Glen Davis,,,3:37,0,0,0,0,2,1,2,2,0,0,0,0
0021400714,1610612746,LAC,Los Angeles,203912,CJ Wilcox,,,2:28,67.6,79.8,-12.2,0.0,0.0,0.0,0.0,0.0,0.0,0.0,0.0,0.0,0.155,79.78,2.0,2015-01-31T00:00:00,10,LAC,Los Angeles,33-15,29,27,28,21,0,0,0,0,0,0,0,0,0,0,105,0.44,0.944,0.364,20,56,15,0021400714,1610612746,LAC,Los Angeles,CJ Wilcox,,,2:28,0,0,0,0,0,1,2,0,0,0,0,0
0021400714,1610612746,LAC,Los Angeles,2563,Dahntay Jones,,,2:28,67.6,79.8,-12.2,0.0,0.0,0.0,0.0,0.0,0.0,0.0,0.0,0.0,0.155,79.78,0.0,2015-01-31T00:00:00,10,LAC,Los Angeles,33-15,29,27,28,21,0,0,0,0,0,0,0,0,0,0,105,0.44,0.944,0.364,20,56,15,0021400714,1610612746,LAC,Los Angeles,Dahntay Jones,,,2:28,0,0,0,0,0,1,2,0,0,0,0,0
0021400714,1610612746,LAC,Los Angeles,202327,Ekpe Udoh,,,2:28,67.6,79.8,-12.2,0.0,0.0,0.0,0.2,0.0,0.167,0.0,0.0,0.0,0.0,79.78,1.0,2015-01-31T00:00:00,10,LAC,Los Angeles,33-15,29,27,28,21,0,0,0,0,0,0,0,0,0,0,105,0.44,0.944,0.364,20,56,15,0021400714,1610612746,LAC,Los Angeles,Ekpe Udoh,,,2:28,0,0,0,0,0,1,2,0,0,0,1,0
0021400714,1610612759,SAS,San Antonio,202695,Kawhi Leonard,F,,34:20,88.5,115.9,-27.4,0.0,0.0,0.0,0.03,0.118,0.075,0.0,0.556,0.594,0.272,99.79,0.136,2015-01-31T00:00:00,10,SAS,San Antonio,30-18,25,17,27,16,0,0,0,0,0,0,0,0,0,0,85,0.373,0.679,0.333,18,36,17,0021400714,1610612759,SAS,San Antonio,Kawhi Leonard,F,,34:20,1,0,2,4,17,9,14,28,0,0,3,3
0021400714,1610612759,SAS,San Antonio,1495,Tim Duncan,F,,26:20,97.2,110.2,-13.1,0.063,1.0,14.3,0.037,0.259,0.148,14.3,0.4,0.4,0.108,97.56,0.069,2015-01-31T00:00:00,10,SAS,San Antonio,30-18,25,17,27,16,0,0,0,0,0,0,0,0,0,0,85,0.373,0.679,0.333,18,36,17,0021400714,1610612759,SAS,San Antonio,Tim Duncan,F,,26:20,0,0,0,0,8,6,12,26,0,2,2,2
0021400714,1610612759,SAS,San Antonio,201168,Tiago Splitter,C,,17:02,79.0,101.8,-22.7,0.143,0.33,12.7,0.0,0.053,0.027,38.1,1.0,1.031,0.172,107.48,0.121,2015-01-31T00:00:00,10,SAS,San Antonio,30-18,25,17,27,16,0,0,0,0,0,0,0,0,0,0,85,0.373,0.679,0.333,18,36,17,0021400714,1610612759,SAS,San Antonio,Tiago Splitter,C,,17:02,0,0,0,6,11,5,6,14,0,0,1,1
0021400714,1610612759,SAS,San Antonio,201980,Danny Green,G,,29:47,75.5,87.8,-12.3,0.0,0.0,0.0,0.0,0.059,0.032,8.0,0.682,0.699,0.193,100.83,0.193,2015-01-31T00:00:00,10,SAS,San Antonio,30-18,25,17,27,16,0,0,0,0,0,0,0,0,0,0,85,0.373,0.679,0.333,18,36,17,0021400714,1610612759,SAS,San Antonio,Danny Green,G,,29:47,3,0,3,0,10,10,8,22,3,0,0,0
0021400714,1610612759,SAS,San Antonio,2225,Tony Parker,G,,30:14,94.6,106.4,-11.8,0.421,2.67,36.6,0.0,0.188,0.097,13.7,0.2,0.23,0.209,100.31,0.041,2015-01-31T00:00:00,10,SAS,San Antonio,30-18,25,17,27,16,0,0,0,0,0,0,0,0,0,0,85,0.373,0.679,0.333,18,36,17,0021400714,1610612759,SAS,San Antonio,Tony Parker,G,,30:14,1,2,1,4,14,6,12,28,0,2,2,3
0021400714,1610612759,SAS,San Antonio,2564,Boris Diaw,,,27:08,88.7,115.1,-26.4,0.267,4.0,26.7,0.043,0.3,0.163,6.7,0.45,0.45,0.182,100.23,0.097,2015-01-31T00:00:00,10,SAS,San Antonio,30-18,25,17,27,16,0,0,0,0,0,0,0,0,0,0,85,0.373,0.679,0.333,18,36,17,0021400714,1610612759,SAS,San Antonio,Boris Diaw,,,27:08,0,4,0,6,15,1,8,24,0,1,3,2
0021400714,1610612759,SAS,San Antonio,1938,Manu Ginobili,,,22:14,82.7,115.6,-33.0,0.167,0.5,11.5,0.0,0.111,0.05,23.0,0.286,0.395,0.298,103.02,0.0,2015-01-31T00:00:00,10,SAS,San Antonio,30-18,25,17,27,16,0,0,0,0,0,0,0,0,0,0,85,0.373,0.679,0.333,18,36,17,0021400714,1610612759,SAS,San Antonio,Manu Ginobili,,,22:14,4,2,1,2,13,1,6,18,0,2,1,6
0021400714,1610612759,SAS,San Antonio,201988,Patty Mills,,,13:07,69.1,111.7,-42.6,0.0,0.0,0.0,0.0,0.0,0.0,20.0,0.25,0.25,0.185,95.15,-0.102,2015-01-31T00:00:00,10,SAS,San Antonio,30-18,25,17,27,16,0,0,0,0,0,0,0,0,0,0,85,0.373,0.679,0.333,18,36,17,0021400714,1610612759,SAS,San Antonio,Patty Mills,,,13:07,0,0,0,0,6,4,2,8,0,0,2,2
0021400714,1610612759,SAS,San Antonio,202709,Cory Joseph,,,9:19,86.4,108.9,-22.6,0.0,0.0,0.0,0.2,0.111,0.143,53.2,0.0,1.136,0.096,92.63,0.064,2015-01-31T00:00:00,10,SAS,San Antonio,30-18,25,17,27,16,0,0,0,0,0,0,0,0,0,0,85,0.373,0.679,0.333,18,36,17,0021400714,1610612759,SAS,San Antonio,Cory Joseph,,,9:19,0,0,2,0,6,6,0,6,0,0,1,1
0021400714,1610612759,SAS,San Antonio,2588,Matt Bonner,,,8:13,50.0,94.5,-44.5,0.0,0.0,0.0,0.0,0.083,0.05,0.0,0.0,0.0,0.125,93.12,-0.148,2015-01-31T00:00:00,10,SAS,San Antonio,30-18,25,17,27,16,0,0,0,0,0,0,0,0,0,0,85,0.373,0.679,0.333,18,36,17,0021400714,1610612759,SAS,San Antonio,Matt Bonner,,,8:13,0,0,0,0,3,7,0,2,0,0,1,0
0021400714,1610612759,SAS,San Antonio,203382,Aron Baynes,,,12:37,70.6,96.2,-25.6,0.25,0.5,20.5,0.0,0.077,0.043,41.0,0.0,0.266,0.139,98.69,-0.044,2015-01-31T00:00:00,10,SAS,San Antonio,30-18,25,17,27,16,0,0,0,0,0,0,0,0,0,0,85,0.373,0.679,0.333,18,36,17,0021400714,1610612759,SAS,San Antonio,Aron Baynes,,,12:37,1,0,0,0,6,4,2,6,0,0,0,1
0021400714,1610612759,SAS,San Antonio,202130,Reggie Williams,,,4:59,104.2,118.5,-14.3,0.0,0.0,0.0,0.0,0.0,0.0,0.0,0.0,0.258,0.402,82.26,-0.148,2015-01-31T00:00:00,10,SAS,San Antonio,30-18,25,17,27,16,0,0,0,0,0,0,0,0,0,0,85,0.373,0.679,0.333,18,36,17,0021400714,1610612759,SAS,San Antonio,Reggie Williams,,,4:59,0,0,0,0,3,3,0,4,0,0,1,1
0021400714,1610612759,SAS,San Antonio,201965,Jeff Ayres,,,4:40,117.8,118.5,-0.7,1.0,0.0,34.7,0.0,0.2,0.143,0.0,1.0,0.798,0.218,82.7,0.258,2015-01-31T00:00:00,10,SAS,San Antonio,30-18,25,17,27,16,0,0,0,0,0,0,0,0,0,0,85,0.373,0.679,0.333,18,36,17,0021400714,1610612759,SAS,San Antonio,Jeff Ayres,,,4:40,2,1,0,2,3,3,0,4,0,0,0,1
