GAME_ID_x,TEAM_ID_x,TEAM_ABBREVIATION_x,TEAM_CITY_x,PLAYER_ID,PLAYER_NAME_x,START_POSITION_x,COMMENT_x,MIN_x,OFF_RATING,DEF_RATING,NET_RATING,AST_PCT,AST_TOV,AST_RATIO,OREB_PCT,DREB_PCT,REB_PCT,TM_TOV_PCT,EFG_PCT,TS_PCT,USG_PCT,PACE,PIE,GAME_DATE_EST,GAME_SEQUENCE,TEAM_ABBREVIATION_y,TEAM_CITY_NAME,TEAM_WINS_LOSSES,PTS_QTR1,PTS_QTR2,PTS_QTR3,PTS_QTR4,PTS_OT1,PTS_OT2,PTS_OT3,PTS_OT4,PTS_OT5,PTS_OT6,PTS_OT7,PTS_OT8,PTS_OT9,PTS_OT10,PTS,FG_PCT,FT_PCT,FG3_PCT,AST,REB,TOV,GAME_ID_y,TEAM_ID_y,TEAM_ABBREVIATION,TEAM_CITY_y,PLAYER_NAME_y,START_POSITION_y,COMMENT_y,MIN_y,PTS_OFF_TOV,PTS_2ND_CHANCE,PTS_FB,PTS_PAINT,OPP_PTS_OFF_TOV,OPP_PTS_2ND_CHANCE,OPP_PTS_FB,OPP_PTS_PAINT,BLK,BLKA,PF,PFD
0021400713,1610612766,CHA,Charlotte,203077,Michael Kidd-Gilchrist,F,,30:24,103.7,72.1,31.5,0.13,3.0,15.6,0.08,0.297,0.21,5.2,0.538,0.559,0.236,103.25,0.211,2015-01-31T00:00:00,9,CHA,Charlotte,20-27,30,32,18,24,0,0,0,0,0,0,0,0,0,0,104,0.473,0.64,0.0,32,57,10,0021400713,1610612766,CHA,Charlotte,Michael Kidd-Gilchrist,F,,30:24,5.0,4.0,3.0,8.0,9.0,2.0,8.0,24.0,1.0,0.0,2.0,4.0
0021400713,1610612766,CHA,Charlotte,203469,Cody Zeller,F,,31:31,103.4,68.4,35.0,0.143,0.0,20.2,0.037,0.184,0.123,0.0,0.909,0.884,0.168,105.0,0.27,2015-01-31T00:00:00,9,CHA,Charlotte,20-27,30,32,18,24,0,0,0,0,0,0,0,0,0,0,104,0.473,0.64,0.0,32,57,10,0021400713,1610612766,CHA,Charlotte,Cody Zeller,F,,31:31,5.0,2.0,4.0,18.0,11.0,2.0,8.0,26.0,2.0,0.0,3.0,3.0
0021400713,1610612766,CHA,Charlotte,2744,Al Jefferson,C,,27:47,85.6,72.3,13.4,0.2,0.0,16.7,0.0,0.2,0.111,0.0,0.467,0.467,0.235,106.25,0.191,2015-01-31T00:00:00,9,CHA,Charlotte,20-27,30,32,18,24,0,0,0,0,0,0,0,0,0,0,104,0.473,0.64,0.0,32,57,10,0021400713,1610612766,CHA,Charlotte,Al Jefferson,C,,27:47,0.0,0.0,0.0,10.0,11.0,2.0,7.0,24.0,2.0,1.0,1.0,0.0
0021400713,1610612766,CHA,Charlotte,201945,Gerald Henderson,G,,25:03,102.1,63.6,38.6,0.0,0.0,0.0,0.0,0.121,0.071,16.7,0.4,0.4,0.207,106.79,0.044,2015-01-31T00:00:00,9,CHA,Charlotte,20-27,30,32,18,24,0,0,0,0,0,0,0,0,0,0,104,0.473,0.64,0.0,32,57,10,0021400713,1610612766,CHA,Charlotte,Gerald Henderson,G,,25:03,2.0,0.0,2.0,6.0,8.0,2.0,7.0,22.0,0.0,0.0,1.0,0.0
0021400713,1610612766,CHA,Charlotte,203148,Brian Roberts,G,,22:35,87.4,74.0,13.3,0.316,0.0,46.2,0.0,0.143,0.08,0.0,0.0,0.0,0.14,102.79,0.0,2015-01-31T00:00:00,9,CHA,Charlotte,20-27,30,32,18,24,0,0,0,0,0,0,0,0,0,0,104,0.473,0.64,0.0,32,57,10,0021400713,1610612766,CHA,Charlotte,Brian Roberts,G,,22:35,0.0,0.0,0.0,0.0,8.0,2.0,7.0,22.0,0.0,1.0,3.0,0.0
0021400713,1610612766,CHA,Charlotte,202362,Lance Stephenson,,,29:54,103.3,86.1,17.2,0.52,4.33,48.4,0.033,0.125,0.081,11.2,0.2,0.184,0.19,103.51,0.05,2015-01-31T00:00:00,9,CHA,Charlotte,20-27,30,32,18,24,0,0,0,0,0,0,0,0,0,0,104,0.473,0.64,0.0,32,57,10,0021400713,1610612766,CHA,Charlotte,Lance Stephenson,,,29:54,0.0,0.0,0.0,0.0,9.0,9.0,5.0,28.0,0.0,2.0,5.0,1.0
0021400713,1610612766,CHA,Charlotte,101131,Jason Maxiell,,,20:13,120.1,96.4,23.7,0.0,0.0,0.0,0.111,0.25,0.184,0.0,0.6,0.643,0.216,101.86,0.208,2015-01-31T00:00:00,9,CHA,Charlotte,20-27,30,32,18,24,0,0,0,0,0,0,0,0,0,0,104,0.473,0.64,0.0,32,57,10,0021400713,1610612766,CHA,Charlotte,Jason Maxiell,,,20:13,2.0,6.0,0.0,10.0,4.0,9.0,5.0,22.0,4.0,1.0,1.0,2.0
0021400713,1610612766,CHA,Charlotte,202390,Gary Neal,,,16:22,132.3,58.8,73.5,0.235,0.0,37.2,0.0,0.053,0.032,0.0,0.6,0.74,0.172,108.04,0.195,2015-01-31T00:00:00,9,CHA,Charlotte,20-27,30,32,18,24,0,0,0,0,0,0,0,0,0,0,104,0.473,0.64,0.0,32,57,10,0021400713,1610612766,CHA,Charlotte,Gary Neal,,,16:22,0.0,0.0,0.0,0.0,3.0,0.0,1.0,8.0,0.0,0.0,0.0,3.0
0021400713,1610612766,CHA,Charlotte,203943,Noah Vonleh,,,16:29,93.7,109.7,-16.0,0.0,0.0,0.0,0.211,0.176,0.194,20.7,0.6,0.654,0.223,103.26,0.144,2015-01-31T00:00:00,9,CHA,Charlotte,20-27,30,32,18,24,0,0,0,0,0,0,0,0,0,0,104,0.473,0.64,0.0,32,57,10,0021400713,1610612766,CHA,Charlotte,Noah Vonleh,,,16:29,0.0,7.0,0.0,6.0,4.0,9.0,4.0,20.0,2.0,0.0,1.0,3.0
0021400713,1610612766,CHA,Charlotte,203798,PJ Hairston,,,10:39,76.1,145.0,-68.8,0.0,0.0,0.0,0.0,0.0,0.0,20.5,0.0,0.258,0.17,104.56,-0.047,2015-01-31T00:00:00,9,CHA,Charlotte,20-27,30,32,18,24,0,0,0,0,0,0,0,0,0,0,104,0.473,0.64,0.0,32,57,10,0021400713,1610612766,CHA,Charlotte,PJ Hairston,,,10:39,0.0,0.0,0.0,0.0,4.0,9.0,4.0,18.0,0.0,1.0,1.0,1.0
0021400713,1610612766,CHA,Charlotte,203106,Jeffery Taylor,,,9:03,71.3,149.3,-78.0,0.0,0.0,0.0,0.0,0.125,0.05,17.0,0.5,0.41,0.239,101.83,0.0,2015-01-31T00:00:00,9,CHA,Charlotte,20-27,30,32,18,24,0,0,0,0,0,0,0,0,0,0,104,0.473,0.64,0.0,32,57,10,0021400713,1610612766,CHA,Charlotte,Jeffery Taylor,,,9:03,0.0,0.0,0.0,0.0,4.0,9.0,4.0,16.0,0.0,2.0,0.0,2.0
0021400713,1610612766,CHA,Charlotte,202687,Bismack Biyombo,,DND - Bone Bruise Right Knee            ,,,,,,,0.0,,,,,,,0.0,,,2015-01-31T00:00:00,9,CHA,Charlotte,20-27,30,32,18,24,0,0,0,0,0,0,0,0,0,0,104,0.473,0.64,0.0,32,57,10,0021400713,1610612766,CHA,Charlotte,Bismack Biyombo,,DND - Bone Bruise Right Knee            ,,,,,,,,,,,,,
0021400713,1610612766,CHA,Charlotte,101107,Marvin Williams,,DND - Concussion                        ,,,,,,,0.0,,,,,,,0.0,,,2015-01-31T00:00:00,9,CHA,Charlotte,20-27,30,32,18,24,0,0,0,0,0,0,0,0,0,0,104,0.473,0.64,0.0,32,57,10,0021400713,1610612766,CHA,Charlotte,Marvin Williams,,DND - Concussion                        ,,,,,,,,,,,,,
0021400713,1610612743,DEN,Denver,201163,Wilson Chandler,F,,23:34,66.5,90.7,-24.2,0.182,0.0,17.5,0.03,0.292,0.14,0.0,0.5,0.53,0.167,106.4,0.156,2015-01-31T00:00:00,9,DEN,Denver,19-29,15,15,22,34,0,0,0,0,0,0,0,0,0,0,86,0.359,0.75,0.208,21,44,12,0021400713,1610612743,DEN,Denver,Wilson Chandler,F,,23:34,0.0,0.0,5.0,6.0,3.0,8.0,3.0,22.0,0.0,0.0,2.0,2.0
0021400713,1610612743,DEN,Denver,201568,Danilo Gallinari,F,,23:49,105.8,81.7,24.1,0.143,2.0,9.6,0.0,0.154,0.08,4.8,0.344,0.422,0.335,104.44,0.123,2015-01-31T00:00:00,9,DEN,Denver,19-29,15,15,22,34,0,0,0,0,0,0,0,0,0,0,86,0.359,0.75,0.208,21,44,12,0021400713,1610612743,DEN,Denver,Danilo Gallinari,F,,23:49,2.0,0.0,0.0,4.0,4.0,10.0,2.0,20.0,0.0,2.0,0.0,3.0
0021400713,1610612743,DEN,Denver,203994,Jusuf Nurkic,C,,21:24,94.5,98.5,-4.0,0.0,0.0,0.0,0.077,0.238,0.149,0.0,0.333,0.333,0.175,103.45,0.1,2015-01-31T00:00:00,9,DEN,Denver,19-29,15,15,22,34,0,0,0,0,0,0,0,0,0,0,86,0.359,0.75,0.208,21,44,12,0021400713,1610612743,DEN,Denver,Jusuf Nurkic,C,,21:24,4.0,2.0,0.0,6.0,2.0,10.0,5.0,22.0,4.0,2.0,1.0,1.0
0021400713,1610612743,DEN,Denver,201167,Arron Afflalo,G,,30:14,71.6,96.2,-24.6,0.063,0.25,6.7,0.0,0.226,0.103,26.9,0.389,0.405,0.192,108.75,0.037,2015-01-31T00:00:00,9,DEN,Denver,19-29,15,15,22,34,0,0,0,0,0,0,0,0,0,0,86,0.359,0.75,0.208,21,44,12,0021400713,1610612743,DEN,Denver,Arron Afflalo,G,,30:14,0.0,0.0,1.0,2.0,14.0,11.0,7.0,34.0,0.0,0.0,1.0,1.0
0021400713,1610612743,DEN,Denver,201951,Ty Lawson,G,,31:59,78.1,104.5,-26.4,0.474,4.5,42.5,0.027,0.133,0.075,9.4,0.438,0.49,0.164,107.4,0.094,2015-01-31T00:00:00,9,DEN,Denver,19-29,15,15,22,34,0,0,0,0,0,0,0,0,0,0,86,0.359,0.75,0.208,21,44,12,0021400713,1610612743,DEN,Denver,Ty Lawson,G,,31:59,0.0,0.0,0.0,0.0,12.0,14.0,9.0,42.0,0.0,1.0,2.0,3.0
0021400713,1610612743,DEN,Denver,202087,Alonzo Gee,,,19:48,92.2,111.7,-19.5,0.0,0.0,0.0,0.053,0.0,0.029,25.0,0.667,0.667,0.086,100.07,0.007,2015-01-31T00:00:00,9,DEN,Denver,19-29,15,15,22,34,0,0,0,0,0,0,0,0,0,0,86,0.359,0.75,0.208,21,44,12,0021400713,1610612743,DEN,Denver,Alonzo Gee,,,19:48,2.0,2.0,2.0,4.0,9.0,7.0,6.0,32.0,0.0,1.0,2.0,0.0
0021400713,1610612743,DEN,Denver,201581,JJ Hickson,,,29:40,62.7,109.5,-46.8,0.0,0.0,0.0,0.026,0.269,0.125,18.4,0.625,0.676,0.159,103.91,0.107,2015-01-31T00:00:00,9,DEN,Denver,19-29,15,15,22,34,0,0,0,0,0,0,0,0,0,0,86,0.359,0.75,0.208,21,44,12,0021400713,1610612743,DEN,Denver,JJ Hickson,,,29:40,4.0,2.0,2.0,10.0,10.0,10.0,7.0,42.0,1.0,0.0,3.0,1.0
0021400713,1610612743,DEN,Denver,201580,JaVale McGee,,,15:48,77.3,113.0,-35.7,0.0,0.0,0.0,0.0,0.071,0.032,0.0,0.375,0.45,0.249,102.2,0.065,2015-01-31T00:00:00,9,DEN,Denver,19-29,15,15,22,34,0,0,0,0,0,0,0,0,0,0,86,0.359,0.75,0.208,21,44,12,0021400713,1610612743,DEN,Denver,JaVale McGee,,,15:48,2.0,0.0,0.0,6.0,6.0,8.0,2.0,22.0,2.0,2.0,1.0,1.0
0021400713,1610612743,DEN,Denver,200751,Randy Foye,,,11:08,52.8,106.0,-53.2,0.25,0.0,12.7,0.0,0.0,0.0,0.0,0.0,0.073,0.268,101.92,-0.141,2015-01-31T00:00:00,9,DEN,Denver,19-29,15,15,22,34,0,0,0,0,0,0,0,0,0,0,86,0.359,0.75,0.208,21,44,12,0021400713,1610612743,DEN,Denver,Randy Foye,,,11:08,1.0,0.0,0.0,0.0,2.0,2.0,2.0,18.0,0.0,1.0,1.0,2.0
0021400713,1610612743,DEN,Denver,2749,Jameer Nelson,,,18:25,75.8,116.8,-41.0,0.375,3.0,25.3,0.0,0.063,0.029,8.4,0.143,0.19,0.226,101.23,-0.074,2015-01-31T00:00:00,9,DEN,Denver,19-29,15,15,22,34,0,0,0,0,0,0,0,0,0,0,86,0.359,0.75,0.208,21,44,12,0021400713,1610612743,DEN,Denver,Jameer Nelson,,,18:25,0.0,0.0,0.0,2.0,4.0,11.0,0.0,24.0,0.0,1.0,4.0,2.0
0021400713,1610612743,DEN,Denver,203914,Gary Harris,,,8:10,132.4,83.5,48.9,0.125,1.0,12.5,0.333,0.0,0.133,12.5,0.583,0.583,0.32,104.74,0.106,2015-01-31T00:00:00,9,DEN,Denver,19-29,15,15,22,34,0,0,0,0,0,0,0,0,0,0,86,0.359,0.75,0.208,21,44,12,0021400713,1610612743,DEN,Denver,Gary Harris,,,8:10,0.0,5.0,2.0,4.0,4.0,2.0,2.0,10.0,1.0,1.0,2.0,0.0
0021400713,1610612743,DEN,Denver,203475,Erick Green,,,6:01,163.0,51.0,112.0,0.25,0.0,40.0,0.0,0.0,0.0,0.0,0.333,0.333,0.189,98.29,0.1,2015-01-31T00:00:00,9,DEN,Denver,19-29,15,15,22,34,0,0,0,0,0,0,0,0,0,0,86,0.359,0.75,0.208,21,44,12,0021400713,1610612743,DEN,Denver,Erick Green,,,6:01,0.0,0.0,0.0,2.0,0.0,2.0,0.0,2.0,0.0,0.0,0.0,2.0
