GAME_ID_x,TEAM_ID_x,TEAM_ABBREVIATION_x,TEAM_CITY_x,PLAYER_ID,PLAYER_NAME_x,START_POSITION_x,COMMENT_x,MIN_x,OFF_RATING,DEF_RATING,NET_RATING,AST_PCT,AST_TOV,AST_RATIO,OREB_PCT,DREB_PCT,REB_PCT,TM_TOV_PCT,EFG_PCT,TS_PCT,USG_PCT,PACE,PIE,GAME_DATE_EST,GAME_SEQUENCE,TEAM_ABBREVIATION_y,TEAM_CITY_NAME,TEAM_WINS_LOSSES,PTS_QTR1,PTS_QTR2,PTS_QTR3,PTS_QTR4,PTS_OT1,PTS_OT2,PTS_OT3,PTS_OT4,PTS_OT5,PTS_OT6,PTS_OT7,PTS_OT8,PTS_OT9,PTS_OT10,PTS,FG_PCT,FT_PCT,FG3_PCT,AST,REB,TOV,GAME_ID_y,TEAM_ID_y,TEAM_ABBREVIATION,TEAM_CITY_y,PLAYER_NAME_y,START_POSITION_y,COMMENT_y,MIN_y,PTS_OFF_TOV,PTS_2ND_CHANCE,PTS_FB,PTS_PAINT,OPP_PTS_OFF_TOV,OPP_PTS_2ND_CHANCE,OPP_PTS_FB,OPP_PTS_PAINT,BLK,BLKA,PF,PFD
0021400722,1610612737,ATL,Atlanta,203145,Kent Bazemore,F,,26:54,122.2,128.5,-6.2,0.0,0.0,0.0,0.0,0.12,0.065,0.0,0.444,0.436,0.189,91.8,0.025,2015-02-02T00:00:00,5,ATL,Atlanta,40-9,22,20,32,26,0,0,0,0,0,0,0,0,0,0,100,0.449,0.765,0.318,19,32,6,0021400722,1610612737,ATL,Atlanta,Kent Bazemore,F,,26:54,0.0,0.0,2.0,8.0,9.0,11.0,7.0,32.0,0.0,0.0,2.0,2.0
0021400722,1610612737,ATL,Atlanta,200794,Paul Millsap,F,,32:23,112.4,142.8,-30.4,0.045,0.5,5.1,0.077,0.148,0.113,10.2,0.357,0.451,0.278,91.96,0.051,2015-02-02T00:00:00,5,ATL,Atlanta,40-9,22,20,32,26,0,0,0,0,0,0,0,0,0,0,100,0.449,0.765,0.318,19,32,6,0021400722,1610612737,ATL,Atlanta,Paul Millsap,F,,32:23,0.0,2.0,0.0,8.0,9.0,13.0,11.0,40.0,2.0,2.0,2.0,3.0
0021400722,1610612737,ATL,Atlanta,201143,Al Horford,C,,30:05,96.5,113.9,-17.4,0.222,4.0,28.6,0.167,0.167,0.167,7.1,0.444,0.444,0.154,94.07,0.116,2015-02-02T00:00:00,5,ATL,Atlanta,40-9,22,20,32,26,0,0,0,0,0,0,0,0,0,0,100,0.449,0.765,0.318,19,32,6,0021400722,1610612737,ATL,Atlanta,Al Horford,C,,30:05,0.0,2.0,0.0,2.0,6.0,7.0,15.0,28.0,0.0,0.0,1.0,0.0
0021400722,1610612737,ATL,Atlanta,2594,Kyle Korver,G,,29:55,94.9,131.7,-36.8,0.059,1.0,11.1,0.0,0.115,0.053,11.1,0.857,0.857,0.121,94.49,0.081,2015-02-02T00:00:00,5,ATL,Atlanta,40-9,22,20,32,26,0,0,0,0,0,0,0,0,0,0,100,0.449,0.765,0.318,19,32,6,0021400722,1610612737,ATL,Atlanta,Kyle Korver,G,,29:55,0.0,0.0,0.0,0.0,8.0,10.0,17.0,34.0,0.0,1.0,2.0,1.0
0021400722,1610612737,ATL,Atlanta,201952,Jeff Teague,G,,29:13,111.9,131.6,-19.6,0.438,7.0,25.7,0.0,0.087,0.042,3.7,0.5,0.547,0.335,91.81,0.127,2015-02-02T00:00:00,5,ATL,Atlanta,40-9,22,20,32,26,0,0,0,0,0,0,0,0,0,0,100,0.449,0.765,0.318,19,32,6,0021400722,1610612737,ATL,Atlanta,Jeff Teague,G,,29:13,5.0,3.0,2.0,14.0,4.0,9.0,11.0,32.0,0.0,2.0,3.0,3.0
0021400722,1610612737,ATL,Atlanta,203544,Pero Antic,,,5:59,83.6,158.0,-74.3,0.0,0.0,0.0,0.0,0.0,0.0,50.0,0.0,0.0,0.17,86.44,-0.122,2015-02-02T00:00:00,5,ATL,Atlanta,40-9,22,20,32,26,0,0,0,0,0,0,0,0,0,0,100,0.449,0.765,0.318,19,32,6,0021400722,1610612737,ATL,Atlanta,Pero Antic,,,5:59,0.0,0.0,0.0,0.0,5.0,4.0,0.0,8.0,1.0,0.0,1.0,0.0
0021400722,1610612737,ATL,Atlanta,201960,DeMarre Carroll,,,23:15,110.6,121.6,-11.0,0.0,0.0,0.0,0.0,0.118,0.059,0.0,0.75,0.75,0.086,90.63,0.052,2015-02-02T00:00:00,5,ATL,Atlanta,40-9,22,20,32,26,0,0,0,0,0,0,0,0,0,0,100,0.449,0.765,0.318,19,32,6,0021400722,1610612737,ATL,Atlanta,DeMarre Carroll,,,23:15,3.0,0.0,0.0,0.0,5.0,7.0,5.0,24.0,0.0,0.0,1.0,0.0
0021400722,1610612737,ATL,Atlanta,203471,Dennis Schroder,,,18:47,99.5,114.6,-15.2,0.417,0.0,26.5,0.053,0.059,0.056,0.0,0.308,0.36,0.329,94.35,0.106,2015-02-02T00:00:00,5,ATL,Atlanta,40-9,22,20,32,26,0,0,0,0,0,0,0,0,0,0,100,0.449,0.765,0.318,19,32,6,0021400722,1610612737,ATL,Atlanta,Dennis Schroder,,,18:47,4.0,0.0,2.0,6.0,7.0,6.0,6.0,20.0,0.0,4.0,0.0,5.0
0021400722,1610612737,ATL,Atlanta,203118,Mike Scott,,,22:37,105.3,105.9,-0.6,0.0,0.0,0.0,0.0,0.158,0.071,0.0,0.438,0.474,0.167,94.52,0.086,2015-02-02T00:00:00,5,ATL,Atlanta,40-9,22,20,32,26,0,0,0,0,0,0,0,0,0,0,100,0.449,0.765,0.318,19,32,6,0021400722,1610612737,ATL,Atlanta,Mike Scott,,,22:37,0.0,0.0,0.0,4.0,2.0,6.0,8.0,24.0,0.0,1.0,1.0,1.0
0021400722,1610612737,ATL,Atlanta,203098,John Jenkins,,,15:56,100.7,110.1,-9.4,0.083,0.0,16.7,0.0,0.083,0.032,0.0,0.7,0.7,0.132,94.47,0.107,2015-02-02T00:00:00,5,ATL,Atlanta,40-9,22,20,32,26,0,0,0,0,0,0,0,0,0,0,100,0.449,0.765,0.318,19,32,6,0021400722,1610612737,ATL,Atlanta,John Jenkins,,,15:56,0.0,0.0,3.0,2.0,0.0,2.0,5.0,14.0,0.0,0.0,1.0,0.0
0021400722,1610612737,ATL,Atlanta,203488,Mike Muscala,,,4:57,171.7,128.8,42.9,0.0,0.0,0.0,0.333,0.0,0.167,0.0,1.0,1.0,0.194,90.38,0.13,2015-02-02T00:00:00,5,ATL,Atlanta,40-9,22,20,32,26,0,0,0,0,0,0,0,0,0,0,100,0.449,0.765,0.318,19,32,6,0021400722,1610612737,ATL,Atlanta,Mike Muscala,,,4:57,2.0,2.0,0.0,2.0,0.0,0.0,0.0,4.0,0.0,0.0,1.0,0.0
0021400722,1610612737,ATL,Atlanta,1882,Elton Brand,,DNP - Coach's Decision                  ,,,,,,,0.0,,,,,,,0.0,,,2015-02-02T00:00:00,5,ATL,Atlanta,40-9,22,20,32,26,0,0,0,0,0,0,0,0,0,0,100,0.449,0.765,0.318,19,32,6,0021400722,1610612737,ATL,Atlanta,Elton Brand,,DNP - Coach's Decision                  ,,,,,,,,,,,,,
0021400722,1610612737,ATL,Atlanta,203940,Adreian Payne,,DNP - Coach's Decision                  ,,,,,,,0.0,,,,,,,0.0,,,2015-02-02T00:00:00,5,ATL,Atlanta,40-9,22,20,32,26,0,0,0,0,0,0,0,0,0,0,100,0.449,0.765,0.318,19,32,6,0021400722,1610612737,ATL,Atlanta,Adreian Payne,,DNP - Coach's Decision                  ,,,,,,,,,,,,,
0021400722,1610612740,NOP,New Orleans,201967,Dante Cunningham,F,,22:21,139.2,111.8,27.4,0.105,0.0,22.5,0.0,0.059,0.029,0.0,0.667,0.727,0.139,92.59,0.104,2015-02-02T00:00:00,5,NOP,New Orleans,26-22,32,23,33,27,0,0,0,0,0,0,0,0,0,0,115,0.5,0.87,0.391,30,52,13,0021400722,1610612740,NOP,New Orleans,Dante Cunningham,F,,22:21,2.0,2.0,2.0,4.0,10.0,5.0,0.0,14.0,1.0,0.0,0.0,1.0
0021400722,1610612740,NOP,New Orleans,203076,Anthony Davis,F,,33:56,128.9,119.3,9.6,0.143,1.5,9.7,0.258,0.2,0.232,6.4,0.522,0.556,0.35,89.98,0.168,2015-02-02T00:00:00,5,NOP,New Orleans,26-22,32,23,33,27,0,0,0,0,0,0,0,0,0,0,115,0.5,0.87,0.391,30,52,13,0021400722,1610612740,NOP,New Orleans,Anthony Davis,F,,33:56,6.0,9.0,2.0,16.0,12.0,9.0,2.0,32.0,2.0,0.0,2.0,4.0
0021400722,1610612740,NOP,New Orleans,201600,Omer Asik,C,,32:49,124.3,104.1,20.2,0.037,1.0,9.4,0.125,0.452,0.309,9.4,0.333,0.521,0.144,93.22,0.135,2015-02-02T00:00:00,5,NOP,New Orleans,26-22,32,23,33,27,0,0,0,0,0,0,0,0,0,0,115,0.5,0.87,0.391,30,52,13,0021400722,1610612740,NOP,New Orleans,Omer Asik,C,,32:49,0.0,2.0,0.0,4.0,10.0,5.0,4.0,30.0,1.0,1.0,1.0,3.0
0021400722,1610612740,NOP,New Orleans,201569,Eric Gordon,G,,28:21,124.8,109.8,15.0,0.412,7.0,35.2,0.0,0.111,0.06,5.0,0.818,0.842,0.206,91.61,0.181,2015-02-02T00:00:00,5,NOP,New Orleans,26-22,32,23,33,27,0,0,0,0,0,0,0,0,0,0,115,0.5,0.87,0.391,30,52,13,0021400722,1610612740,NOP,New Orleans,Eric Gordon,G,,28:21,0.0,0.0,10.0,4.0,10.0,7.0,2.0,28.0,1.0,0.0,4.0,1.0
0021400722,1610612740,NOP,New Orleans,201936,Tyreke Evans,G,,31:52,134.1,116.6,17.5,0.48,0.0,46.2,0.071,0.12,0.094,0.0,0.536,0.536,0.189,91.28,0.167,2015-02-02T00:00:00,5,NOP,New Orleans,26-22,32,23,33,27,0,0,0,0,0,0,0,0,0,0,115,0.5,0.87,0.391,30,52,13,0021400722,1610612740,NOP,New Orleans,Tyreke Evans,G,,31:52,0.0,0.0,0.0,12.0,10.0,9.0,2.0,28.0,0.0,0.0,1.0,1.0
0021400722,1610612740,NOP,New Orleans,202347,Quincy Pondexter,,,30:57,122.0,102.5,19.5,0.042,0.33,7.7,0.067,0.107,0.086,23.1,0.389,0.389,0.162,91.94,0.012,2015-02-02T00:00:00,5,NOP,New Orleans,26-22,32,23,33,27,0,0,0,0,0,0,0,0,0,0,115,0.5,0.87,0.391,30,52,13,0021400722,1610612740,NOP,New Orleans,Quincy Pondexter,,,30:57,0.0,0.0,3.0,4.0,4.0,4.0,6.0,38.0,1.0,2.0,3.0,0.0
0021400722,1610612740,NOP,New Orleans,201583,Ryan Anderson,,,28:10,119.8,93.5,26.4,0.0,0.0,0.0,0.04,0.161,0.107,14.5,0.55,0.638,0.2,95.07,0.125,2015-02-02T00:00:00,5,NOP,New Orleans,26-22,32,23,33,27,0,0,0,0,0,0,0,0,0,0,115,0.5,0.87,0.391,30,52,13,0021400722,1610612740,NOP,New Orleans,Ryan Anderson,,,28:10,0.0,2.0,0.0,6.0,6.0,4.0,9.0,30.0,1.0,0.0,1.0,2.0
0021400722,1610612740,NOP,New Orleans,202690,Jimmer Fredette,,,20:35,114.7,92.2,22.6,0.214,1.0,23.3,0.063,0.042,0.05,23.3,0.667,0.727,0.21,97.1,0.098,2015-02-02T00:00:00,5,NOP,New Orleans,26-22,32,23,33,27,0,0,0,0,0,0,0,0,0,0,115,0.5,0.87,0.391,30,52,13,0021400722,1610612740,NOP,New Orleans,Jimmer Fredette,,,20:35,3.0,0.0,0.0,2.0,4.0,2.0,9.0,22.0,2.0,0.0,3.0,3.0
0021400722,1610612740,NOP,New Orleans,2422,John Salmons,,,7:42,76.8,80.0,-3.2,0.25,1.0,33.3,0.0,0.0,0.0,33.3,0.0,0.0,0.123,91.39,-0.056,2015-02-02T00:00:00,5,NOP,New Orleans,26-22,32,23,33,27,0,0,0,0,0,0,0,0,0,0,115,0.5,0.87,0.391,30,52,13,0021400722,1610612740,NOP,New Orleans,John Salmons,,,7:42,0.0,0.0,0.0,0.0,4.0,0.0,2.0,8.0,0.0,0.0,0.0,0.0
0021400722,1610612740,NOP,New Orleans,203481,Jeff Withey,,,1:06,150.0,166.7,-16.7,0.0,0.0,0.0,0.0,0.0,0.0,0.0,0.0,0.0,0.0,109.09,0.0,2015-02-02T00:00:00,5,NOP,New Orleans,26-22,32,23,33,27,0,0,0,0,0,0,0,0,0,0,115,0.5,0.87,0.391,30,52,13,0021400722,1610612740,NOP,New Orleans,Jeff Withey,,,1:06,0.0,0.0,0.0,0.0,0.0,0.0,3.0,0.0,0.0,0.0,0.0,0.0
0021400722,1610612740,NOP,New Orleans,203489,Nate Wolters,,,1:06,150.0,166.7,-16.7,0.0,0.0,0.0,0.0,0.0,0.0,0.0,0.0,0.0,0.0,109.09,0.0,2015-02-02T00:00:00,5,NOP,New Orleans,26-22,32,23,33,27,0,0,0,0,0,0,0,0,0,0,115,0.5,0.87,0.391,30,52,13,0021400722,1610612740,NOP,New Orleans,Nate Wolters,,,1:06,0.0,0.0,0.0,0.0,0.0,0.0,3.0,0.0,0.0,0.0,0.0,0.0
0021400722,1610612740,NOP,New Orleans,202337,Luke Babbitt,,,1:06,150.0,166.7,-16.7,0.0,0.0,0.0,0.0,0.0,0.0,0.0,0.0,0.0,0.0,109.09,0.053,2015-02-02T00:00:00,5,NOP,New Orleans,26-22,32,23,33,27,0,0,0,0,0,0,0,0,0,0,115,0.5,0.87,0.391,30,52,13,0021400722,1610612740,NOP,New Orleans,Luke Babbitt,,,1:06,0.0,0.0,0.0,0.0,0.0,0.0,3.0,0.0,1.0,0.0,0.0,0.0
0021400722,1610612740,NOP,New Orleans,201582,Alexis Ajinca,,DNP - Coach's Decision                  ,,,,,,,0.0,,,,,,,0.0,,,2015-02-02T00:00:00,5,NOP,New Orleans,26-22,32,23,33,27,0,0,0,0,0,0,0,0,0,0,115,0.5,0.87,0.391,30,52,13,0021400722,1610612740,NOP,New Orleans,Alexis Ajinca,,DNP - Coach's Decision                  ,,,,,,,,,,,,,
