GAME_ID_x,TEAM_ID_x,TEAM_ABBREVIATION_x,TEAM_CITY_x,PLAYER_ID,PLAYER_NAME_x,START_POSITION_x,COMMENT_x,MIN_x,OFF_RATING,DEF_RATING,NET_RATING,AST_PCT,AST_TOV,AST_RATIO,OREB_PCT,DREB_PCT,REB_PCT,TM_TOV_PCT,EFG_PCT,TS_PCT,USG_PCT,PACE,PIE,GAME_DATE_EST,GAME_SEQUENCE,TEAM_ABBREVIATION_y,TEAM_CITY_NAME,TEAM_WINS_LOSSES,PTS_QTR1,PTS_QTR2,PTS_QTR3,PTS_QTR4,PTS_OT1,PTS_OT2,PTS_OT3,PTS_OT4,PTS_OT5,PTS_OT6,PTS_OT7,PTS_OT8,PTS_OT9,PTS_OT10,PTS,FG_PCT,FT_PCT,FG3_PCT,AST,REB,TOV,GAME_ID_y,TEAM_ID_y,TEAM_ABBREVIATION,TEAM_CITY_y,PLAYER_NAME_y,START_POSITION_y,COMMENT_y,MIN_y,PTS_OFF_TOV,PTS_2ND_CHANCE,PTS_FB,PTS_PAINT,OPP_PTS_OFF_TOV,OPP_PTS_2ND_CHANCE,OPP_PTS_FB,OPP_PTS_PAINT,BLK,BLKA,PF,PFD
0021400724,1610612750,MIN,Minnesota,203952,Andrew Wiggins,F,,42:37,105.2,104.9,0.3,0.103,0.75,12.5,0.116,0.0,0.062,16.6,0.286,0.41,0.208,95.44,0.02,2015-02-02T00:00:00,7,MIN,Minnesota,8-40,20,27,26,21,0,0,0,0,0,0,0,0,0,0,94,0.415,0.885,0.231,18,47,15,0021400724,1610612750,MIN,Minnesota,Andrew Wiggins,F,,42:37,2.0,2.0,4.0,6.0,13.0,13.0,19.0,30.0,1.0,3.0,4.0,4.0
0021400724,1610612750,MIN,Minnesota,201152,Thaddeus Young,F,,39:25,106.4,97.0,9.4,0.125,0.0,19.2,0.056,0.179,0.12,0.0,0.5,0.593,0.145,93.4,0.15,2015-02-02T00:00:00,7,MIN,Minnesota,8-40,20,27,26,21,0,0,0,0,0,0,0,0,0,0,94,0.415,0.885,0.231,18,47,15,0021400724,1610612750,MIN,Minnesota,Thaddeus Young,F,,39:25,4.0,1.0,2.0,8.0,10.0,13.0,7.0,34.0,1.0,1.0,3.0,4.0
0021400724,1610612750,MIN,Minnesota,201593,Nikola Pekovic,C,,26:52,100.8,93.4,7.4,0.0,0.0,0.0,0.111,0.304,0.2,21.4,0.364,0.364,0.231,92.9,0.043,2015-02-02T00:00:00,7,MIN,Minnesota,8-40,20,27,26,21,0,0,0,0,0,0,0,0,0,0,94,0.415,0.885,0.231,18,47,15,0021400724,1610612750,MIN,Minnesota,Nikola Pekovic,C,,26:52,0.0,2.0,0.0,8.0,8.0,11.0,7.0,22.0,0.0,1.0,4.0,0.0
0021400724,1610612750,MIN,Minnesota,2755,Kevin Martin,G,,38:45,110.5,98.3,12.2,0.045,0.5,4.8,0.0,0.108,0.056,9.6,0.5,0.531,0.228,93.77,0.101,2015-02-02T00:00:00,7,MIN,Minnesota,8-40,20,27,26,21,0,0,0,0,0,0,0,0,0,0,94,0.415,0.885,0.231,18,47,15,0021400724,1610612750,MIN,Minnesota,Kevin Martin,G,,38:45,8.0,0.0,8.0,6.0,12.0,13.0,9.0,34.0,0.0,0.0,1.0,1.0
0021400724,1610612750,MIN,Minnesota,201937,Ricky Rubio,G,,21:22,100.7,108.5,-7.8,0.364,1.33,23.7,0.0,0.15,0.071,17.8,0.444,0.506,0.27,91.39,0.083,2015-02-02T00:00:00,7,MIN,Minnesota,8-40,20,27,26,21,0,0,0,0,0,0,0,0,0,0,94,0.415,0.885,0.231,18,47,15,0021400724,1610612750,MIN,Minnesota,Ricky Rubio,G,,21:22,2.0,0.0,0.0,2.0,4.0,9.0,11.0,16.0,0.0,1.0,3.0,3.0
0021400724,1610612750,MIN,Minnesota,203476,Gorgui Dieng,,,21:08,98.0,119.5,-21.5,0.182,2.0,16.8,0.25,0.2,0.225,8.4,0.5,0.507,0.198,96.94,0.109,2015-02-02T00:00:00,7,MIN,Minnesota,8-40,20,27,26,21,0,0,0,0,0,0,0,0,0,0,94,0.415,0.885,0.231,18,47,15,0021400724,1610612750,MIN,Minnesota,Gorgui Dieng,,,21:08,0.0,4.0,0.0,6.0,9.0,2.0,14.0,18.0,0.0,3.0,3.0,2.0
0021400724,1610612750,MIN,Minnesota,2590,Mo Williams,,,26:38,98.6,103.1,-4.5,0.313,5.0,31.1,0.0,0.13,0.062,6.2,0.571,0.744,0.177,97.32,0.156,2015-02-02T00:00:00,7,MIN,Minnesota,8-40,20,27,26,21,0,0,0,0,0,0,0,0,0,0,94,0.415,0.885,0.231,18,47,15,0021400724,1610612750,MIN,Minnesota,Mo Williams,,,26:38,4.0,0.0,2.0,0.0,13.0,4.0,10.0,24.0,0.0,0.0,4.0,3.0
0021400724,1610612750,MIN,Minnesota,201978,Chase Budinger,,,5:54,36.4,141.7,-105.3,0.0,0.0,0.0,0.0,0.0,0.0,0.0,0.0,0.0,0.133,93.56,-0.083,2015-02-02T00:00:00,7,MIN,Minnesota,8-40,20,27,26,21,0,0,0,0,0,0,0,0,0,0,94,0.415,0.885,0.231,18,47,15,0021400724,1610612750,MIN,Minnesota,Chase Budinger,,,5:54,0.0,0.0,0.0,0.0,2.0,0.0,12.0,8.0,0.0,1.0,0.0,0.0
0021400724,1610612750,MIN,Minnesota,203461,Anthony Bennett,,,12:11,70.2,133.9,-63.7,0.0,0.0,0.0,0.077,0.429,0.2,0.0,0.667,0.667,0.103,96.21,0.148,2015-02-02T00:00:00,7,MIN,Minnesota,8-40,20,27,26,21,0,0,0,0,0,0,0,0,0,0,94,0.415,0.885,0.231,18,47,15,0021400724,1610612750,MIN,Minnesota,Anthony Bennett,,,12:11,2.0,0.0,0.0,2.0,9.0,0.0,14.0,12.0,0.0,0.0,0.0,1.0
0021400724,1610612750,MIN,Minnesota,203485,Lorenzo Brown,,,1:29,50.0,206.2,-156.2,0.0,0.0,0.0,0.0,0.0,0.0,100.0,0.0,0.0,0.25,127.5,-0.154,2015-02-02T00:00:00,7,MIN,Minnesota,8-40,20,27,26,21,0,0,0,0,0,0,0,0,0,0,94,0.415,0.885,0.231,18,47,15,0021400724,1610612750,MIN,Minnesota,Lorenzo Brown,,,1:29,0.0,0.0,0.0,0.0,5.0,0.0,2.0,0.0,0.0,0.0,0.0,0.0
0021400724,1610612750,MIN,Minnesota,203584,Troy Daniels,,,3:39,68.3,59.2,9.1,0.0,0.0,0.0,0.0,0.0,0.0,0.0,0.0,0.0,0.137,92.58,-0.4,2015-02-02T00:00:00,7,MIN,Minnesota,8-40,20,27,26,21,0,0,0,0,0,0,0,0,0,0,94,0.415,0.885,0.231,18,47,15,0021400724,1610612750,MIN,Minnesota,Troy Daniels,,,3:39,0.0,0.0,0.0,0.0,0.0,0.0,0.0,2.0,0.0,0.0,0.0,0.0
0021400724,1610612750,MIN,Minnesota,203897,Zach LaVine,,DND - Sprained Left Ankle               ,,,,,,,0.0,,,,,,,0.0,,,2015-02-02T00:00:00,7,MIN,Minnesota,8-40,20,27,26,21,0,0,0,0,0,0,0,0,0,0,94,0.415,0.885,0.231,18,47,15,0021400724,1610612750,MIN,Minnesota,Zach LaVine,,DND - Sprained Left Ankle               ,,,,,,,,,,,,,
0021400724,1610612750,MIN,Minnesota,203922,Glenn Robinson III,,DNP - Coach's Decision                  ,,,,,,,0.0,,,,,,,0.0,,,2015-02-02T00:00:00,7,MIN,Minnesota,8-40,20,27,26,21,0,0,0,0,0,0,0,0,0,0,94,0.415,0.885,0.231,18,47,15,0021400724,1610612750,MIN,Minnesota,Glenn Robinson III,,DNP - Coach's Decision                  ,,,,,,,,,,,,,
0021400724,1610612742,DAL,Dallas,202718,Chandler Parsons,F,,35:06,95.3,112.5,-17.1,0.105,0.67,11.8,0.03,0.161,0.094,17.6,0.75,0.75,0.189,95.48,0.154,2015-02-02T00:00:00,7,DAL,Dallas,33-17,30,24,27,19,0,0,0,0,0,0,0,0,0,0,100,0.464,0.667,0.323,27,43,15,0021400724,1610612742,DAL,Dallas,Chandler Parsons,F,,35:06,4.0,2.0,4.0,10.0,18.0,8.0,16.0,34.0,0.0,0.0,3.0,2.0
0021400724,1610612742,DAL,Dallas,1717,Dirk Nowitzki,F,,30:36,114.2,88.7,25.5,0.095,1.0,13.9,0.0,0.226,0.117,13.9,0.8,0.766,0.182,92.65,0.167,2015-02-02T00:00:00,7,DAL,Dallas,33-17,30,24,27,19,0,0,0,0,0,0,0,0,0,0,100,0.464,0.667,0.323,27,43,15,0021400724,1610612742,DAL,Dallas,Dirk Nowitzki,F,,30:36,4.0,4.0,3.0,2.0,12.0,2.0,8.0,20.0,1.0,0.0,2.0,3.0
0021400724,1610612742,DAL,Dallas,2199,Tyson Chandler,C,,31:12,93.3,104.0,-10.7,0.25,0.0,63.5,0.167,0.167,0.167,0.0,1.0,1.042,0.04,95.88,0.181,2015-02-02T00:00:00,7,DAL,Dallas,33-17,30,24,27,19,0,0,0,0,0,0,0,0,0,0,100,0.464,0.667,0.323,27,43,15,0021400724,1610612742,DAL,Dallas,Tyson Chandler,C,,31:12,2.0,2.0,0.0,4.0,16.0,7.0,14.0,30.0,3.0,0.0,2.0,3.0
0021400724,1610612742,DAL,Dallas,101145,Monta Ellis,G,,36:06,101.5,111.3,-9.8,0.1,0.67,6.5,0.0,0.031,0.015,9.7,0.405,0.445,0.352,96.23,0.016,2015-02-02T00:00:00,7,DAL,Dallas,33-17,30,24,27,19,0,0,0,0,0,0,0,0,0,0,100,0.464,0.667,0.323,27,43,15,0021400724,1610612742,DAL,Dallas,Monta Ellis,G,,36:06,3.0,3.0,3.0,2.0,20.0,8.0,14.0,32.0,0.0,0.0,4.0,7.0
0021400724,1610612742,DAL,Dallas,200826,J.J. Barea,G,,28:60,112.3,85.6,26.7,0.364,8.0,33.5,0.115,0.029,0.067,4.2,0.286,0.336,0.244,90.9,0.075,2015-02-02T00:00:00,7,DAL,Dallas,33-17,30,24,27,19,0,0,0,0,0,0,0,0,0,0,100,0.464,0.667,0.323,27,43,15,0021400724,1610612742,DAL,Dallas,J.J. Barea,G,,28:60,0.0,0.0,2.0,6.0,12.0,5.0,8.0,22.0,0.0,2.0,2.0,3.0
0021400724,1610612742,DAL,Dallas,2734,Devin Harris,,,23:37,104.4,102.6,1.8,0.235,4.0,33.7,0.0,0.059,0.026,8.4,0.417,0.509,0.149,99.14,0.085,2015-02-02T00:00:00,7,DAL,Dallas,33-17,30,24,27,19,0,0,0,0,0,0,0,0,0,0,100,0.464,0.667,0.323,27,43,15,0021400724,1610612742,DAL,Dallas,Devin Harris,,,23:37,2.0,0.0,2.0,2.0,10.0,4.0,6.0,18.0,1.0,0.0,1.0,2.0
0021400724,1610612742,DAL,Dallas,202329,Al-Farouq Aminu,,,21:26,114.9,81.5,33.4,0.133,0.67,20.0,0.125,0.125,0.125,30.0,0.9,0.9,0.169,97.81,0.145,2015-02-02T00:00:00,7,DAL,Dallas,33-17,30,24,27,19,0,0,0,0,0,0,0,0,0,0,100,0.464,0.667,0.323,27,43,15,0021400724,1610612742,DAL,Dallas,Al-Farouq Aminu,,,21:26,2.0,0.0,4.0,6.0,8.0,4.0,2.0,14.0,2.0,0.0,3.0,0.0
0021400724,1610612742,DAL,Dallas,202962,Greg Smith,,,4:14,112.5,159.8,-47.3,0.0,0.0,0.0,0.0,0.0,0.0,0.0,1.0,1.0,0.111,95.02,0.082,2015-02-02T00:00:00,7,DAL,Dallas,33-17,30,24,27,19,0,0,0,0,0,0,0,0,0,0,100,0.464,0.667,0.323,27,43,15,0021400724,1610612742,DAL,Dallas,Greg Smith,,,4:14,0.0,0.0,0.0,2.0,2.0,2.0,2.0,4.0,0.0,0.0,0.0,0.0
0021400724,1610612742,DAL,Dallas,203939,Dwight Powell,,,1:47,100.0,0.0,100.0,0.0,0.0,0.0,0.0,0.0,0.0,0.0,0.0,0.0,0.0,94.21,0.0,2015-02-02T00:00:00,7,DAL,Dallas,33-17,30,24,27,19,0,0,0,0,0,0,0,0,0,0,100,0.464,0.667,0.323,27,43,15,0021400724,1610612742,DAL,Dallas,Dwight Powell,,,1:47,0.0,0.0,0.0,0.0,0.0,0.0,0.0,0.0,0.0,0.0,0.0,1.0
0021400724,1610612742,DAL,Dallas,101111,Charlie Villanueva,,,12:35,139.6,72.1,67.5,0.1,1.0,9.1,0.111,0.357,0.261,9.1,0.222,0.222,0.375,92.69,0.095,2015-02-02T00:00:00,7,DAL,Dallas,33-17,30,24,27,19,0,0,0,0,0,0,0,0,0,0,100,0.464,0.667,0.323,27,43,15,0021400724,1610612742,DAL,Dallas,Charlie Villanueva,,,12:35,0.0,2.0,0.0,4.0,4.0,1.0,2.0,4.0,3.0,0.0,0.0,0.0
0021400724,1610612742,DAL,Dallas,101109,Raymond Felton,,,5:10,100.0,71.7,28.3,0.333,0.0,33.3,0.0,0.091,0.067,0.0,0.75,0.75,0.2,87.14,0.273,2015-02-02T00:00:00,7,DAL,Dallas,33-17,30,24,27,19,0,0,0,0,0,0,0,0,0,0,100,0.464,0.667,0.323,27,43,15,0021400724,1610612742,DAL,Dallas,Raymond Felton,,,5:10,0.0,0.0,3.0,0.0,2.0,1.0,2.0,2.0,0.0,0.0,1.0,1.0
0021400724,1610612742,DAL,Dallas,2210,Richard Jefferson,,,9:12,83.5,140.5,-57.0,0.0,0.0,0.0,0.0,0.333,0.143,33.3,0.5,0.5,0.16,88.28,0.111,2015-02-02T00:00:00,7,DAL,Dallas,33-17,30,24,27,19,0,0,0,0,0,0,0,0,0,0,100,0.464,0.667,0.323,27,43,15,0021400724,1610612742,DAL,Dallas,Richard Jefferson,,,9:12,0.0,0.0,0.0,2.0,6.0,3.0,6.0,10.0,0.0,0.0,0.0,0.0
0021400724,1610612742,DAL,Dallas,203495,Ricky Ledo,,DNP - Coach's Decision                  ,,,,,,,0.0,,,,,,,0.0,,,2015-02-02T00:00:00,7,DAL,Dallas,33-17,30,24,27,19,0,0,0,0,0,0,0,0,0,0,100,0.464,0.667,0.323,27,43,15,0021400724,1610612742,DAL,Dallas,Ricky Ledo,,DNP - Coach's Decision                  ,,,,,,,,,,,,,
