GAME_ID_x,TEAM_ID_x,TEAM_ABBREVIATION_x,TEAM_CITY_x,PLAYER_ID,PLAYER_NAME_x,START_POSITION_x,COMMENT_x,MIN_x,OFF_RATING,DEF_RATING,NET_RATING,AST_PCT,AST_TOV,AST_RATIO,OREB_PCT,DREB_PCT,REB_PCT,TM_TOV_PCT,EFG_PCT,TS_PCT,USG_PCT,PACE,PIE,GAME_DATE_EST,GAME_SEQUENCE,TEAM_ID_y,TEAM_ABBREVIATION_y,TEAM_CITY_NAME,TEAM_WINS_LOSSES,PTS_QTR1,PTS_QTR2,PTS_QTR3,PTS_QTR4,PTS_OT1,PTS_OT2,PTS_OT3,PTS_OT4,PTS_OT5,PTS_OT6,PTS_OT7,PTS_OT8,PTS_OT9,PTS_OT10,PTS,FG_PCT,FT_PCT,FG3_PCT,AST,REB,TOV,GAME_ID_y,TEAM_ID,TEAM_ABBREVIATION,TEAM_CITY_y,PLAYER_NAME_y,START_POSITION_y,COMMENT_y,MIN_y,PTS_OFF_TOV,PTS_2ND_CHANCE,PTS_FB,PTS_PAINT,OPP_PTS_OFF_TOV,OPP_PTS_2ND_CHANCE,OPP_PTS_FB,OPP_PTS_PAINT,BLK,BLKA,PF,PFD
0021300489,1610612740,NOP,New Orleans,202329,Al-Farouq Aminu,F,,28:29,97.9,103.6,-5.7,0.167,1.0,21.4,0.0,0.174,0.1,21.4,0.5,0.5,0.192,91.21,0.059,2014-01-04T00:00:00,1,1610612740,NOP,New Orleans,15-17,27,22,12,21,0,0,0,0,0,0,0,0,0,0,82,0.456,0.654,0.333,15,33,17,0021300489,1610612740,NOP,New Orleans,Al-Farouq Aminu,F,,28:29,0.0,0.0,0.0,8.0,18.0,4.0,7.0,28.0,1.0,1.0,4.0,1.0
0021300489,1610612740,NOP,New Orleans,202329,Al-Farouq Aminu,F,,28:29,97.9,103.6,-5.7,0.167,1.0,21.4,0.0,0.174,0.1,21.4,0.5,0.5,0.192,91.21,0.059,2014-01-04T00:00:00,1,1610612754,IND,Indiana,26-6,15,29,30,25,0,0,0,0,0,0,0,0,0,0,99,0.47,0.737,0.318,20,45,15,0021300489,1610612740,NOP,New Orleans,Al-Farouq Aminu,F,,28:29,0.0,0.0,0.0,8.0,18.0,4.0,7.0,28.0,1.0,1.0,4.0,1.0
0021300489,1610612740,NOP,New Orleans,203076,Anthony Davis,F,,34:01,92.9,100.4,-7.5,0.0,0.0,0.0,0.0,0.333,0.157,12.7,0.333,0.363,0.237,93.29,0.043,2014-01-04T00:00:00,1,1610612740,NOP,New Orleans,15-17,27,22,12,21,0,0,0,0,0,0,0,0,0,0,82,0.456,0.654,0.333,15,33,17,0021300489,1610612740,NOP,New Orleans,Anthony Davis,F,,34:01,2.0,0.0,0.0,4.0,20.0,6.0,5.0,32.0,3.0,4.0,4.0,3.0
0021300489,1610612740,NOP,New Orleans,203076,Anthony Davis,F,,34:01,92.9,100.4,-7.5,0.0,0.0,0.0,0.0,0.333,0.157,12.7,0.333,0.363,0.237,93.29,0.043,2014-01-04T00:00:00,1,1610612754,IND,Indiana,26-6,15,29,30,25,0,0,0,0,0,0,0,0,0,0,99,0.47,0.737,0.318,20,45,15,0021300489,1610612740,NOP,New Orleans,Anthony Davis,F,,34:01,2.0,0.0,0.0,4.0,20.0,6.0,5.0,32.0,3.0,4.0,4.0,3.0
0021300489,1610612740,NOP,New Orleans,201582,Alexis Ajinca,C,,31:30,109.7,106.1,3.6,0.05,0.5,6.9,0.158,0.138,0.146,13.9,0.714,0.746,0.211,88.29,0.156,2014-01-04T00:00:00,1,1610612740,NOP,New Orleans,15-17,27,22,12,21,0,0,0,0,0,0,0,0,0,0,82,0.456,0.654,0.333,15,33,17,0021300489,1610612740,NOP,New Orleans,Alexis Ajinca,C,,31:30,4.0,3.0,0.0,4.0,23.0,9.0,4.0,28.0,1.0,1.0,2.0,5.0
0021300489,1610612740,NOP,New Orleans,201582,Alexis Ajinca,C,,31:30,109.7,106.1,3.6,0.05,0.5,6.9,0.158,0.138,0.146,13.9,0.714,0.746,0.211,88.29,0.156,2014-01-04T00:00:00,1,1610612754,IND,Indiana,26-6,15,29,30,25,0,0,0,0,0,0,0,0,0,0,99,0.47,0.737,0.318,20,45,15,0021300489,1610612740,NOP,New Orleans,Alexis Ajinca,C,,31:30,4.0,3.0,0.0,4.0,23.0,9.0,4.0,28.0,1.0,1.0,2.0,5.0
0021300489,1610612740,NOP,New Orleans,201569,Eric Gordon,G,,38:43,101.2,103.3,-2.1,0.111,0.5,9.1,0.069,0.118,0.095,18.2,0.656,0.656,0.263,90.89,0.145,2014-01-04T00:00:00,1,1610612740,NOP,New Orleans,15-17,27,22,12,21,0,0,0,0,0,0,0,0,0,0,82,0.456,0.654,0.333,15,33,17,0021300489,1610612740,NOP,New Orleans,Eric Gordon,G,,38:43,0.0,4.0,4.0,12.0,23.0,11.0,5.0,38.0,0.0,2.0,0.0,2.0
0021300489,1610612740,NOP,New Orleans,201569,Eric Gordon,G,,38:43,101.2,103.3,-2.1,0.111,0.5,9.1,0.069,0.118,0.095,18.2,0.656,0.656,0.263,90.89,0.145,2014-01-04T00:00:00,1,1610612754,IND,Indiana,26-6,15,29,30,25,0,0,0,0,0,0,0,0,0,0,99,0.47,0.737,0.318,20,45,15,0021300489,1610612740,NOP,New Orleans,Eric Gordon,G,,38:43,0.0,4.0,4.0,12.0,23.0,11.0,5.0,38.0,0.0,2.0,0.0,2.0
0021300489,1610612740,NOP,New Orleans,201950,Jrue Holiday,G,,33:36,96.7,93.6,3.1,0.35,2.33,35.2,0.0,0.033,0.018,15.1,0.444,0.405,0.195,90.87,0.074,2014-01-04T00:00:00,1,1610612740,NOP,New Orleans,15-17,27,22,12,21,0,0,0,0,0,0,0,0,0,0,82,0.456,0.654,0.333,15,33,17,0021300489,1610612740,NOP,New Orleans,Jrue Holiday,G,,33:36,2.0,0.0,0.0,0.0,21.0,11.0,5.0,30.0,0.0,1.0,2.0,6.0
0021300489,1610612740,NOP,New Orleans,201950,Jrue Holiday,G,,33:36,96.7,93.6,3.1,0.35,2.33,35.2,0.0,0.033,0.018,15.1,0.444,0.405,0.195,90.87,0.074,2014-01-04T00:00:00,1,1610612754,IND,Indiana,26-6,15,29,30,25,0,0,0,0,0,0,0,0,0,0,99,0.47,0.737,0.318,20,45,15,0021300489,1610612740,NOP,New Orleans,Jrue Holiday,G,,33:36,2.0,0.0,0.0,0.0,21.0,11.0,5.0,30.0,0.0,1.0,2.0,6.0
0021300489,1610612740,NOP,New Orleans,201880,Greg Stiemsma,,,20:37,65.8,108.2,-42.4,0.0,0.0,0.0,0.0,0.143,0.073,0.0,0.0,0.0,0.048,94.43,-0.012,2014-01-04T00:00:00,1,1610612740,NOP,New Orleans,15-17,27,22,12,21,0,0,0,0,0,0,0,0,0,0,82,0.456,0.654,0.333,15,33,17,0021300489,1610612740,NOP,New Orleans,Greg Stiemsma,,,20:37,0.0,0.0,0.0,0.0,9.0,11.0,3.0,14.0,1.0,0.0,3.0,0.0
0021300489,1610612740,NOP,New Orleans,201880,Greg Stiemsma,,,20:37,65.8,108.2,-42.4,0.0,0.0,0.0,0.0,0.143,0.073,0.0,0.0,0.0,0.048,94.43,-0.012,2014-01-04T00:00:00,1,1610612754,IND,Indiana,26-6,15,29,30,25,0,0,0,0,0,0,0,0,0,0,99,0.47,0.737,0.318,20,45,15,0021300489,1610612740,NOP,New Orleans,Greg Stiemsma,,,20:37,0.0,0.0,0.0,0.0,9.0,11.0,3.0,14.0,1.0,0.0,3.0,0.0
0021300489,1610612740,NOP,New Orleans,201936,Tyreke Evans,,,25:34,78.6,115.6,-37.1,0.1,0.33,6.2,0.0,0.083,0.042,18.7,0.333,0.497,0.28,94.89,0.08,2014-01-04T00:00:00,1,1610612740,NOP,New Orleans,15-17,27,22,12,21,0,0,0,0,0,0,0,0,0,0,82,0.456,0.654,0.333,15,33,17,0021300489,1610612740,NOP,New Orleans,Tyreke Evans,,,25:34,4.0,0.0,2.0,6.0,11.0,11.0,2.0,24.0,0.0,0.0,2.0,4.0
0021300489,1610612740,NOP,New Orleans,201936,Tyreke Evans,,,25:34,78.6,115.6,-37.1,0.1,0.33,6.2,0.0,0.083,0.042,18.7,0.333,0.497,0.28,94.89,0.08,2014-01-04T00:00:00,1,1610612754,IND,Indiana,26-6,15,29,30,25,0,0,0,0,0,0,0,0,0,0,99,0.47,0.737,0.318,20,45,15,0021300489,1610612740,NOP,New Orleans,Tyreke Evans,,,25:34,4.0,0.0,2.0,6.0,11.0,11.0,2.0,24.0,0.0,0.0,2.0,4.0
0021300489,1610612740,NOP,New Orleans,203121,Darius Miller,,,9:17,49.2,124.4,-75.2,0.0,0.0,0.0,0.0,0.0,0.0,0.0,0.0,0.0,0.0,96.1,-0.049,2014-01-04T00:00:00,1,1610612740,NOP,New Orleans,15-17,27,22,12,21,0,0,0,0,0,0,0,0,0,0,82,0.456,0.654,0.333,15,33,17,0021300489,1610612740,NOP,New Orleans,Darius Miller,,,9:17,0.0,0.0,0.0,0.0,4.0,4.0,2.0,4.0,0.0,0.0,1.0,0.0
0021300489,1610612740,NOP,New Orleans,203121,Darius Miller,,,9:17,49.2,124.4,-75.2,0.0,0.0,0.0,0.0,0.0,0.0,0.0,0.0,0.0,0.0,96.1,-0.049,2014-01-04T00:00:00,1,1610612754,IND,Indiana,26-6,15,29,30,25,0,0,0,0,0,0,0,0,0,0,99,0.47,0.737,0.318,20,45,15,0021300489,1610612740,NOP,New Orleans,Darius Miller,,,9:17,0.0,0.0,0.0,0.0,4.0,4.0,2.0,4.0,0.0,0.0,1.0,0.0
0021300489,1610612740,NOP,New Orleans,203148,Brian Roberts,,,14:24,74.8,139.7,-64.9,0.2,0.0,13.7,0.0,0.083,0.043,0.0,0.4,0.475,0.208,94.31,0.091,2014-01-04T00:00:00,1,1610612740,NOP,New Orleans,15-17,27,22,12,21,0,0,0,0,0,0,0,0,0,0,82,0.456,0.654,0.333,15,33,17,0021300489,1610612740,NOP,New Orleans,Brian Roberts,,,14:24,0.0,0.0,0.0,2.0,6.0,4.0,2.0,12.0,0.0,0.0,0.0,2.0
0021300489,1610612740,NOP,New Orleans,203148,Brian Roberts,,,14:24,74.8,139.7,-64.9,0.2,0.0,13.7,0.0,0.083,0.043,0.0,0.4,0.475,0.208,94.31,0.091,2014-01-04T00:00:00,1,1610612754,IND,Indiana,26-6,15,29,30,25,0,0,0,0,0,0,0,0,0,0,99,0.47,0.737,0.318,20,45,15,0021300489,1610612740,NOP,New Orleans,Brian Roberts,,,14:24,0.0,0.0,0.0,2.0,6.0,4.0,2.0,12.0,0.0,0.0,0.0,2.0
0021300489,1610612740,NOP,New Orleans,203481,Jeff Withey,,,3:50,43.6,150.0,-106.4,0.0,0.0,0.0,0.0,0.2,0.167,0.0,0.0,0.0,0.0,80.82,0.143,2014-01-04T00:00:00,1,1610612740,NOP,New Orleans,15-17,27,22,12,21,0,0,0,0,0,0,0,0,0,0,82,0.456,0.654,0.333,15,33,17,0021300489,1610612740,NOP,New Orleans,Jeff Withey,,,3:50,0.0,0.0,0.0,0.0,0.0,4.0,0.0,0.0,0.0,0.0,0.0,0.0
0021300489,1610612740,NOP,New Orleans,203481,Jeff Withey,,,3:50,43.6,150.0,-106.4,0.0,0.0,0.0,0.0,0.2,0.167,0.0,0.0,0.0,0.0,80.82,0.143,2014-01-04T00:00:00,1,1610612754,IND,Indiana,26-6,15,29,30,25,0,0,0,0,0,0,0,0,0,0,99,0.47,0.737,0.318,20,45,15,0021300489,1610612740,NOP,New Orleans,Jeff Withey,,,3:50,0.0,0.0,0.0,0.0,0.0,4.0,0.0,0.0,0.0,0.0,0.0,0.0
0021300489,1610612740,NOP,New Orleans,201627,Anthony Morrow,,DNP - Coach's Decision,,,,,,,0.0,,,,,,,0.0,,,2014-01-04T00:00:00,1,1610612740,NOP,New Orleans,15-17,27,22,12,21,0,0,0,0,0,0,0,0,0,0,82,0.456,0.654,0.333,15,33,17,0021300489,1610612740,NOP,New Orleans,Anthony Morrow,,DNP - Coach's Decision,,,,,,,,,,,,,
0021300489,1610612740,NOP,New Orleans,201627,Anthony Morrow,,DNP - Coach's Decision,,,,,,,0.0,,,,,,,0.0,,,2014-01-04T00:00:00,1,1610612754,IND,Indiana,26-6,15,29,30,25,0,0,0,0,0,0,0,0,0,0,99,0.47,0.737,0.318,20,45,15,0021300489,1610612740,NOP,New Orleans,Anthony Morrow,,DNP - Coach's Decision,,,,,,,,,,,,,
0021300489,1610612740,NOP,New Orleans,203085,Austin Rivers,,DNP - Coach's Decision,,,,,,,0.0,,,,,,,0.0,,,2014-01-04T00:00:00,1,1610612740,NOP,New Orleans,15-17,27,22,12,21,0,0,0,0,0,0,0,0,0,0,82,0.456,0.654,0.333,15,33,17,0021300489,1610612740,NOP,New Orleans,Austin Rivers,,DNP - Coach's Decision,,,,,,,,,,,,,
0021300489,1610612740,NOP,New Orleans,203085,Austin Rivers,,DNP - Coach's Decision,,,,,,,0.0,,,,,,,0.0,,,2014-01-04T00:00:00,1,1610612754,IND,Indiana,26-6,15,29,30,25,0,0,0,0,0,0,0,0,0,0,99,0.47,0.737,0.318,20,45,15,0021300489,1610612740,NOP,New Orleans,Austin Rivers,,DNP - Coach's Decision,,,,,,,,,,,,,
0021300489,1610612754,IND,Indiana,202331,Paul George,F,,36:42,103.3,92.5,10.8,0.238,5.0,15.1,0.094,0.259,0.169,3.0,0.375,0.443,0.348,89.43,0.174,2014-01-04T00:00:00,1,1610612740,NOP,New Orleans,15-17,27,22,12,21,0,0,0,0,0,0,0,0,0,0,82,0.456,0.654,0.333,15,33,17,0021300489,1610612754,IND,Indiana,Paul George,F,,36:42,10.0,4.0,3.0,10.0,6.0,4.0,4.0,30.0,0.0,3.0,2.0,3.0
0021300489,1610612754,IND,Indiana,202331,Paul George,F,,36:42,103.3,92.5,10.8,0.238,5.0,15.1,0.094,0.259,0.169,3.0,0.375,0.443,0.348,89.43,0.174,2014-01-04T00:00:00,1,1610612754,IND,Indiana,26-6,15,29,30,25,0,0,0,0,0,0,0,0,0,0,99,0.47,0.737,0.318,20,45,15,0021300489,1610612754,IND,Indiana,Paul George,F,,36:42,10.0,4.0,3.0,10.0,6.0,4.0,4.0,30.0,0.0,3.0,2.0,3.0
0021300489,1610612754,IND,Indiana,2561,David West,F,,29:26,105.1,99.7,5.4,0.263,2.5,33.3,0.038,0.143,0.085,13.3,0.5,0.5,0.156,89.14,0.092,2014-01-04T00:00:00,1,1610612740,NOP,New Orleans,15-17,27,22,12,21,0,0,0,0,0,0,0,0,0,0,82,0.456,0.654,0.333,15,33,17,0021300489,1610612754,IND,Indiana,David West,F,,29:26,0.0,2.0,0.0,2.0,6.0,5.0,2.0,22.0,2.0,1.0,4.0,0.0
0021300489,1610612754,IND,Indiana,2561,David West,F,,29:26,105.1,99.7,5.4,0.263,2.5,33.3,0.038,0.143,0.085,13.3,0.5,0.5,0.156,89.14,0.092,2014-01-04T00:00:00,1,1610612754,IND,Indiana,26-6,15,29,30,25,0,0,0,0,0,0,0,0,0,0,99,0.47,0.737,0.318,20,45,15,0021300489,1610612754,IND,Indiana,David West,F,,29:26,0.0,2.0,0.0,2.0,6.0,5.0,2.0,22.0,2.0,1.0,4.0,0.0
0021300489,1610612754,IND,Indiana,201579,Roy Hibbert,C,,33:35,98.9,89.3,9.6,0.087,0.67,14.5,0.111,0.192,0.151,21.8,0.286,0.342,0.164,91.07,0.04,2014-01-04T00:00:00,1,1610612740,NOP,New Orleans,15-17,27,22,12,21,0,0,0,0,0,0,0,0,0,0,82,0.456,0.654,0.333,15,33,17,0021300489,1610612754,IND,Indiana,Roy Hibbert,C,,33:35,2.0,1.0,0.0,2.0,6.0,4.0,4.0,26.0,5.0,0.0,3.0,3.0
0021300489,1610612754,IND,Indiana,201579,Roy Hibbert,C,,33:35,98.9,89.3,9.6,0.087,0.67,14.5,0.111,0.192,0.151,21.8,0.286,0.342,0.164,91.07,0.04,2014-01-04T00:00:00,1,1610612754,IND,Indiana,26-6,15,29,30,25,0,0,0,0,0,0,0,0,0,0,99,0.47,0.737,0.318,20,45,15,0021300489,1610612754,IND,Indiana,Roy Hibbert,C,,33:35,2.0,1.0,0.0,2.0,6.0,4.0,4.0,26.0,5.0,0.0,3.0,3.0
0021300489,1610612754,IND,Indiana,202362,Lance Stephenson,G,,36:14,109.3,94.1,15.2,0.182,1.0,18.4,0.065,0.148,0.103,18.4,0.667,0.69,0.221,91.75,0.164,2014-01-04T00:00:00,1,1610612740,NOP,New Orleans,15-17,27,22,12,21,0,0,0,0,0,0,0,0,0,0,82,0.456,0.654,0.333,15,33,17,0021300489,1610612754,IND,Indiana,Lance Stephenson,G,,36:14,6.0,0.0,2.0,16.0,10.0,7.0,4.0,28.0,0.0,0.0,2.0,4.0
0021300489,1610612754,IND,Indiana,202362,Lance Stephenson,G,,36:14,109.3,94.1,15.2,0.182,1.0,18.4,0.065,0.148,0.103,18.4,0.667,0.69,0.221,91.75,0.164,2014-01-04T00:00:00,1,1610612754,IND,Indiana,26-6,15,29,30,25,0,0,0,0,0,0,0,0,0,0,99,0.47,0.737,0.318,20,45,15,0021300489,1610612754,IND,Indiana,Lance Stephenson,G,,36:14,6.0,0.0,2.0,16.0,10.0,7.0,4.0,28.0,0.0,0.0,2.0,4.0
0021300489,1610612754,IND,Indiana,201588,George Hill,G,,31:10,93.6,97.8,-4.2,0.056,0.0,10.0,0.0,0.048,0.021,0.0,0.556,0.556,0.133,90.17,0.049,2014-01-04T00:00:00,1,1610612740,NOP,New Orleans,15-17,27,22,12,21,0,0,0,0,0,0,0,0,0,0,82,0.456,0.654,0.333,15,33,17,0021300489,1610612754,IND,Indiana,George Hill,G,,31:10,5.0,0.0,2.0,4.0,8.0,4.0,4.0,26.0,1.0,0.0,3.0,2.0
0021300489,1610612754,IND,Indiana,201588,George Hill,G,,31:10,93.6,97.8,-4.2,0.056,0.0,10.0,0.0,0.048,0.021,0.0,0.556,0.556,0.133,90.17,0.049,2014-01-04T00:00:00,1,1610612754,IND,Indiana,26-6,15,29,30,25,0,0,0,0,0,0,0,0,0,0,99,0.47,0.737,0.318,20,45,15,0021300489,1610612754,IND,Indiana,George Hill,G,,31:10,5.0,0.0,2.0,4.0,8.0,4.0,4.0,26.0,1.0,0.0,3.0,2.0
0021300489,1610612754,IND,Indiana,101122,Danny Granger,,,20:32,106.1,85.6,20.5,0.077,1.0,9.7,0.053,0.222,0.135,9.7,0.714,0.781,0.196,96.5,0.287,2014-01-04T00:00:00,1,1610612740,NOP,New Orleans,15-17,27,22,12,21,0,0,0,0,0,0,0,0,0,0,82,0.456,0.654,0.333,15,33,17,0021300489,1610612754,IND,Indiana,Danny Granger,,,20:32,0.0,4.0,0.0,2.0,8.0,3.0,4.0,14.0,0.0,1.0,0.0,2.0
0021300489,1610612754,IND,Indiana,101122,Danny Granger,,,20:32,106.1,85.6,20.5,0.077,1.0,9.7,0.053,0.222,0.135,9.7,0.714,0.781,0.196,96.5,0.287,2014-01-04T00:00:00,1,1610612754,IND,Indiana,26-6,15,29,30,25,0,0,0,0,0,0,0,0,0,0,99,0.47,0.737,0.318,20,45,15,0021300489,1610612754,IND,Indiana,Danny Granger,,,20:32,0.0,4.0,0.0,2.0,8.0,3.0,4.0,14.0,0.0,1.0,0.0,2.0
0021300489,1610612754,IND,Indiana,2449,Luis Scola,,,17:18,108.2,79.1,29.1,0.0,0.0,0.0,0.133,0.467,0.3,36.4,0.571,0.571,0.274,96.55,0.152,2014-01-04T00:00:00,1,1610612740,NOP,New Orleans,15-17,27,22,12,21,0,0,0,0,0,0,0,0,0,0,82,0.456,0.654,0.333,15,33,17,0021300489,1610612754,IND,Indiana,Luis Scola,,,17:18,2.0,4.0,0.0,2.0,6.0,2.0,4.0,14.0,0.0,0.0,2.0,2.0
0021300489,1610612754,IND,Indiana,2449,Luis Scola,,,17:18,108.2,79.1,29.1,0.0,0.0,0.0,0.133,0.467,0.3,36.4,0.571,0.571,0.274,96.55,0.152,2014-01-04T00:00:00,1,1610612754,IND,Indiana,26-6,15,29,30,25,0,0,0,0,0,0,0,0,0,0,99,0.47,0.737,0.318,20,45,15,0021300489,1610612754,IND,Indiana,Luis Scola,,,17:18,2.0,4.0,0.0,2.0,6.0,2.0,4.0,14.0,0.0,0.0,2.0,2.0
0021300489,1610612754,IND,Indiana,201228,C.J. Watson,,,16:50,132.2,76.1,56.1,0.143,0.0,28.6,0.0,0.0,0.0,0.0,0.6,0.6,0.13,95.1,0.064,2014-01-04T00:00:00,1,1610612740,NOP,New Orleans,15-17,27,22,12,21,0,0,0,0,0,0,0,0,0,0,82,0.456,0.654,0.333,15,33,17,0021300489,1610612754,IND,Indiana,C.J. Watson,,,16:50,2.0,0.0,0.0,2.0,4.0,3.0,2.0,10.0,0.0,0.0,3.0,0.0
0021300489,1610612754,IND,Indiana,201228,C.J. Watson,,,16:50,132.2,76.1,56.1,0.143,0.0,28.6,0.0,0.0,0.0,0.0,0.6,0.6,0.13,95.1,0.064,2014-01-04T00:00:00,1,1610612754,IND,Indiana,26-6,15,29,30,25,0,0,0,0,0,0,0,0,0,0,99,0.47,0.737,0.318,20,45,15,0021300489,1610612754,IND,Indiana,C.J. Watson,,,16:50,2.0,0.0,0.0,2.0,4.0,3.0,2.0,10.0,0.0,0.0,3.0,0.0
0021300489,1610612754,IND,Indiana,101133,Ian Mahinmi,,,14:25,126.6,90.5,36.1,0.0,0.0,0.0,0.133,0.0,0.08,0.0,0.333,0.291,0.099,93.82,-0.067,2014-01-04T00:00:00,1,1610612740,NOP,New Orleans,15-17,27,22,12,21,0,0,0,0,0,0,0,0,0,0,82,0.456,0.654,0.333,15,33,17,0021300489,1610612754,IND,Indiana,Ian Mahinmi,,,14:25,0.0,0.0,0.0,2.0,6.0,3.0,2.0,10.0,1.0,1.0,3.0,2.0
0021300489,1610612754,IND,Indiana,101133,Ian Mahinmi,,,14:25,126.6,90.5,36.1,0.0,0.0,0.0,0.133,0.0,0.08,0.0,0.333,0.291,0.099,93.82,-0.067,2014-01-04T00:00:00,1,1610612754,IND,Indiana,26-6,15,29,30,25,0,0,0,0,0,0,0,0,0,0,99,0.47,0.737,0.318,20,45,15,0021300489,1610612754,IND,Indiana,Ian Mahinmi,,,14:25,0.0,0.0,0.0,2.0,6.0,3.0,2.0,10.0,1.0,1.0,3.0,2.0
0021300489,1610612754,IND,Indiana,2446,Rasual Butler,,,1:16,150.0,34.7,115.3,0.0,0.0,0.0,0.0,0.0,0.0,0.0,1.5,1.5,0.5,92.46,0.0,2014-01-04T00:00:00,1,1610612740,NOP,New Orleans,15-17,27,22,12,21,0,0,0,0,0,0,0,0,0,0,82,0.456,0.654,0.333,15,33,17,0021300489,1610612754,IND,Indiana,Rasual Butler,,,1:16,0.0,0.0,0.0,0.0,0.0,0.0,0.0,0.0,0.0,0.0,0.0,0.0
0021300489,1610612754,IND,Indiana,2446,Rasual Butler,,,1:16,150.0,34.7,115.3,0.0,0.0,0.0,0.0,0.0,0.0,0.0,1.5,1.5,0.5,92.46,0.0,2014-01-04T00:00:00,1,1610612754,IND,Indiana,26-6,15,29,30,25,0,0,0,0,0,0,0,0,0,0,99,0.47,0.737,0.318,20,45,15,0021300489,1610612754,IND,Indiana,Rasual Butler,,,1:16,0.0,0.0,0.0,0.0,0.0,0.0,0.0,0.0,0.0,0.0,0.0,0.0
0021300489,1610612754,IND,Indiana,203111,Orlando Johnson,,,1:16,150.0,34.7,115.3,0.0,0.0,0.0,0.0,0.0,0.0,0.0,0.0,0.0,0.0,92.46,0.0,2014-01-04T00:00:00,1,1610612740,NOP,New Orleans,15-17,27,22,12,21,0,0,0,0,0,0,0,0,0,0,82,0.456,0.654,0.333,15,33,17,0021300489,1610612754,IND,Indiana,Orlando Johnson,,,1:16,0.0,0.0,0.0,0.0,0.0,0.0,0.0,0.0,0.0,0.0,1.0,0.0
0021300489,1610612754,IND,Indiana,203111,Orlando Johnson,,,1:16,150.0,34.7,115.3,0.0,0.0,0.0,0.0,0.0,0.0,0.0,0.0,0.0,0.0,92.46,0.0,2014-01-04T00:00:00,1,1610612754,IND,Indiana,26-6,15,29,30,25,0,0,0,0,0,0,0,0,0,0,99,0.47,0.737,0.318,20,45,15,0021300489,1610612754,IND,Indiana,Orlando Johnson,,,1:16,0.0,0.0,0.0,0.0,0.0,0.0,0.0,0.0,0.0,0.0,1.0,0.0
0021300489,1610612754,IND,Indiana,202388,Donald Sloan,,,1:16,150.0,34.7,115.3,0.0,0.0,0.0,0.0,0.0,0.0,0.0,0.0,0.0,0.0,92.46,0.0,2014-01-04T00:00:00,1,1610612740,NOP,New Orleans,15-17,27,22,12,21,0,0,0,0,0,0,0,0,0,0,82,0.456,0.654,0.333,15,33,17,0021300489,1610612754,IND,Indiana,Donald Sloan,,,1:16,0.0,0.0,0.0,0.0,0.0,0.0,0.0,0.0,0.0,0.0,0.0,0.0
0021300489,1610612754,IND,Indiana,202388,Donald Sloan,,,1:16,150.0,34.7,115.3,0.0,0.0,0.0,0.0,0.0,0.0,0.0,0.0,0.0,0.0,92.46,0.0,2014-01-04T00:00:00,1,1610612754,IND,Indiana,26-6,15,29,30,25,0,0,0,0,0,0,0,0,0,0,99,0.47,0.737,0.318,20,45,15,0021300489,1610612754,IND,Indiana,Donald Sloan,,,1:16,0.0,0.0,0.0,0.0,0.0,0.0,0.0,0.0,0.0,0.0,0.0,0.0
0021300489,1610612754,IND,Indiana,203142,Chris Copeland,,DNP - Coach's Decision,,,,,,,0.0,,,,,,,0.0,,,2014-01-04T00:00:00,1,1610612740,NOP,New Orleans,15-17,27,22,12,21,0,0,0,0,0,0,0,0,0,0,82,0.456,0.654,0.333,15,33,17,0021300489,1610612754,IND,Indiana,Chris Copeland,,DNP - Coach's Decision,,,,,,,,,,,,,
0021300489,1610612754,IND,Indiana,203142,Chris Copeland,,DNP - Coach's Decision,,,,,,,0.0,,,,,,,0.0,,,2014-01-04T00:00:00,1,1610612754,IND,Indiana,26-6,15,29,30,25,0,0,0,0,0,0,0,0,0,0,99,0.47,0.737,0.318,20,45,15,0021300489,1610612754,IND,Indiana,Chris Copeland,,DNP - Coach's Decision,,,,,,,,,,,,,
