GAME_ID_x,TEAM_ID_x,TEAM_ABBREVIATION_x,TEAM_CITY_x,PLAYER_ID,PLAYER_NAME_x,START_POSITION_x,COMMENT_x,MIN_x,OFF_RATING,DEF_RATING,NET_RATING,AST_PCT,AST_TOV,AST_RATIO,OREB_PCT,DREB_PCT,REB_PCT,TM_TOV_PCT,EFG_PCT,TS_PCT,USG_PCT,PACE,PIE,GAME_DATE_EST,GAME_SEQUENCE,TEAM_ID_y,TEAM_ABBREVIATION_y,TEAM_CITY_NAME,TEAM_WINS_LOSSES,PTS_QTR1,PTS_QTR2,PTS_QTR3,PTS_QTR4,PTS_OT1,PTS_OT2,PTS_OT3,PTS_OT4,PTS_OT5,PTS_OT6,PTS_OT7,PTS_OT8,PTS_OT9,PTS_OT10,PTS,FG_PCT,FT_PCT,FG3_PCT,AST,REB,TOV,GAME_ID_y,TEAM_ID,TEAM_ABBREVIATION,TEAM_CITY_y,PLAYER_NAME_y,START_POSITION_y,COMMENT_y,MIN_y,PTS_OFF_TOV,PTS_2ND_CHANCE,PTS_FB,PTS_PAINT,OPP_PTS_OFF_TOV,OPP_PTS_2ND_CHANCE,OPP_PTS_FB,OPP_PTS_PAINT,BLK,BLKA,PF,PFD
0021300492,1610612737,ATL,Atlanta,201960,DeMarre Carroll,F,,38:45,88.2,94.6,-6.4,0.2,2.0,26.9,0.07,0.108,0.088,13.4,0.563,0.563,0.126,86.74,0.141,2014-01-04T00:00:00,4,1610612737,ATL,Atlanta,18-16,18,27,19,20,0,0,0,0,0,0,0,0,0,0,84,0.372,0.857,0.286,21,43,15,0021300492,1610612737,ATL,Atlanta,DeMarre Carroll,F,,38:45,2.0,6.0,0.0,4.0,7.0,12.0,11.0,28.0,1.0,0.0,2.0,1.0
0021300492,1610612737,ATL,Atlanta,201960,DeMarre Carroll,F,,38:45,88.2,94.6,-6.4,0.2,2.0,26.9,0.07,0.108,0.088,13.4,0.563,0.563,0.126,86.74,0.141,2014-01-04T00:00:00,4,1610612741,CHI,Chicago,14-18,26,24,17,24,0,0,0,0,0,0,0,0,0,0,91,0.407,0.792,0.353,19,52,13,0021300492,1610612737,ATL,Atlanta,DeMarre Carroll,F,,38:45,2.0,6.0,0.0,4.0,7.0,12.0,11.0,28.0,1.0,0.0,2.0,1.0
0021300492,1610612737,ATL,Atlanta,200794,Paul Millsap,F,,30:52,90.6,107.2,-16.6,0.071,0.5,4.2,0.194,0.207,0.2,8.5,0.278,0.388,0.336,87.43,0.12,2014-01-04T00:00:00,4,1610612737,ATL,Atlanta,18-16,18,27,19,20,0,0,0,0,0,0,0,0,0,0,84,0.372,0.857,0.286,21,43,15,0021300492,1610612737,ATL,Atlanta,Paul Millsap,F,,30:52,2.0,2.0,0.0,8.0,15.0,12.0,9.0,30.0,2.0,6.0,2.0,5.0
0021300492,1610612737,ATL,Atlanta,200794,Paul Millsap,F,,30:52,90.6,107.2,-16.6,0.071,0.5,4.2,0.194,0.207,0.2,8.5,0.278,0.388,0.336,87.43,0.12,2014-01-04T00:00:00,4,1610612741,CHI,Chicago,14-18,26,24,17,24,0,0,0,0,0,0,0,0,0,0,91,0.407,0.792,0.353,19,52,13,0021300492,1610612737,ATL,Atlanta,Paul Millsap,F,,30:52,2.0,2.0,0.0,8.0,15.0,12.0,9.0,30.0,2.0,6.0,2.0,5.0
0021300492,1610612737,ATL,Atlanta,203544,Pero Antic,C,,22:35,92.5,96.8,-4.3,0.091,1.0,10.0,0.069,0.238,0.14,10.0,0.563,0.563,0.16,91.07,0.127,2014-01-04T00:00:00,4,1610612737,ATL,Atlanta,18-16,18,27,19,20,0,0,0,0,0,0,0,0,0,0,84,0.372,0.857,0.286,21,43,15,0021300492,1610612737,ATL,Atlanta,Pero Antic,C,,22:35,3.0,0.0,0.0,0.0,2.0,6.0,9.0,20.0,1.0,0.0,3.0,1.0
0021300492,1610612737,ATL,Atlanta,203544,Pero Antic,C,,22:35,92.5,96.8,-4.3,0.091,1.0,10.0,0.069,0.238,0.14,10.0,0.563,0.563,0.16,91.07,0.127,2014-01-04T00:00:00,4,1610612741,CHI,Chicago,14-18,26,24,17,24,0,0,0,0,0,0,0,0,0,0,91,0.407,0.792,0.353,19,52,13,0021300492,1610612737,ATL,Atlanta,Pero Antic,C,,22:35,3.0,0.0,0.0,0.0,2.0,6.0,9.0,20.0,1.0,0.0,3.0,1.0
0021300492,1610612737,ATL,Atlanta,2594,Kyle Korver,G,,36:06,92.4,103.2,-10.8,0.143,3.0,23.1,0.026,0.114,0.068,7.7,0.444,0.444,0.122,89.88,0.059,2014-01-04T00:00:00,4,1610612737,ATL,Atlanta,18-16,18,27,19,20,0,0,0,0,0,0,0,0,0,0,84,0.372,0.857,0.286,21,43,15,0021300492,1610612737,ATL,Atlanta,Kyle Korver,G,,36:06,3.0,0.0,0.0,0.0,11.0,12.0,13.0,34.0,0.0,0.0,3.0,1.0
0021300492,1610612737,ATL,Atlanta,2594,Kyle Korver,G,,36:06,92.4,103.2,-10.8,0.143,3.0,23.1,0.026,0.114,0.068,7.7,0.444,0.444,0.122,89.88,0.059,2014-01-04T00:00:00,4,1610612741,CHI,Chicago,14-18,26,24,17,24,0,0,0,0,0,0,0,0,0,0,91,0.407,0.792,0.353,19,52,13,0021300492,1610612737,ATL,Atlanta,Kyle Korver,G,,36:06,3.0,0.0,0.0,0.0,11.0,12.0,13.0,34.0,0.0,0.0,3.0,1.0
0021300492,1610612737,ATL,Atlanta,201952,Jeff Teague,G,,32:08,91.2,98.4,-7.2,0.429,1.5,22.3,0.029,0.032,0.03,14.9,0.438,0.474,0.281,89.12,0.1,2014-01-04T00:00:00,4,1610612737,ATL,Atlanta,18-16,18,27,19,20,0,0,0,0,0,0,0,0,0,0,84,0.372,0.857,0.286,21,43,15,0021300492,1610612737,ATL,Atlanta,Jeff Teague,G,,32:08,4.0,0.0,12.0,10.0,9.0,10.0,11.0,26.0,1.0,2.0,4.0,4.0
0021300492,1610612737,ATL,Atlanta,201952,Jeff Teague,G,,32:08,91.2,98.4,-7.2,0.429,1.5,22.3,0.029,0.032,0.03,14.9,0.438,0.474,0.281,89.12,0.1,2014-01-04T00:00:00,4,1610612741,CHI,Chicago,14-18,26,24,17,24,0,0,0,0,0,0,0,0,0,0,91,0.407,0.792,0.353,19,52,13,0021300492,1610612737,ATL,Atlanta,Jeff Teague,G,,32:08,4.0,0.0,12.0,10.0,9.0,10.0,11.0,26.0,1.0,2.0,4.0,4.0
0021300492,1610612737,ATL,Atlanta,1882,Elton Brand,,,19:27,94.9,115.4,-20.5,0.0,0.0,0.0,0.0,0.1,0.056,0.0,0.5,0.5,0.103,86.72,0.047,2014-01-04T00:00:00,4,1610612737,ATL,Atlanta,18-16,18,27,19,20,0,0,0,0,0,0,0,0,0,0,84,0.372,0.857,0.286,21,43,15,0021300492,1610612737,ATL,Atlanta,Elton Brand,,,19:27,0.0,0.0,0.0,2.0,6.0,10.0,4.0,14.0,3.0,1.0,3.0,0.0
0021300492,1610612737,ATL,Atlanta,1882,Elton Brand,,,19:27,94.9,115.4,-20.5,0.0,0.0,0.0,0.0,0.1,0.056,0.0,0.5,0.5,0.103,86.72,0.047,2014-01-04T00:00:00,4,1610612741,CHI,Chicago,14-18,26,24,17,24,0,0,0,0,0,0,0,0,0,0,91,0.407,0.792,0.353,19,52,13,0021300492,1610612737,ATL,Atlanta,Elton Brand,,,19:27,0.0,0.0,0.0,2.0,6.0,10.0,4.0,14.0,3.0,1.0,3.0,0.0
0021300492,1610612737,ATL,Atlanta,101150,Lou Williams,,,19:05,106.4,121.9,-15.4,0.154,1.0,19.2,0.0,0.118,0.063,19.2,0.333,0.388,0.203,88.4,0.038,2014-01-04T00:00:00,4,1610612737,ATL,Atlanta,18-16,18,27,19,20,0,0,0,0,0,0,0,0,0,0,84,0.372,0.857,0.286,21,43,15,0021300492,1610612737,ATL,Atlanta,Lou Williams,,,19:05,2.0,0.0,0.0,4.0,8.0,8.0,6.0,16.0,0.0,1.0,0.0,0.0
0021300492,1610612737,ATL,Atlanta,101150,Lou Williams,,,19:05,106.4,121.9,-15.4,0.154,1.0,19.2,0.0,0.118,0.063,19.2,0.333,0.388,0.203,88.4,0.038,2014-01-04T00:00:00,4,1610612741,CHI,Chicago,14-18,26,24,17,24,0,0,0,0,0,0,0,0,0,0,91,0.407,0.792,0.353,19,52,13,0021300492,1610612737,ATL,Atlanta,Lou Williams,,,19:05,2.0,0.0,0.0,4.0,8.0,8.0,6.0,16.0,0.0,1.0,0.0,0.0
0021300492,1610612737,ATL,Atlanta,203118,Mike Scott,,,25:10,86.4,108.1,-21.7,0.143,2.0,14.0,0.167,0.04,0.102,7.0,0.5,0.53,0.206,92.43,0.093,2014-01-04T00:00:00,4,1610612737,ATL,Atlanta,18-16,18,27,19,20,0,0,0,0,0,0,0,0,0,0,84,0.372,0.857,0.286,21,43,15,0021300492,1610612737,ATL,Atlanta,Mike Scott,,,25:10,2.0,6.0,1.0,2.0,11.0,12.0,8.0,18.0,0.0,2.0,3.0,2.0
0021300492,1610612737,ATL,Atlanta,203118,Mike Scott,,,25:10,86.4,108.1,-21.7,0.143,2.0,14.0,0.167,0.04,0.102,7.0,0.5,0.53,0.206,92.43,0.093,2014-01-04T00:00:00,4,1610612741,CHI,Chicago,14-18,26,24,17,24,0,0,0,0,0,0,0,0,0,0,91,0.407,0.792,0.353,19,52,13,0021300492,1610612737,ATL,Atlanta,Mike Scott,,,25:10,2.0,6.0,1.0,2.0,11.0,12.0,8.0,18.0,0.0,2.0,3.0,2.0
0021300492,1610612737,ATL,Atlanta,202714,Shelvin Mack,,,15:52,94.1,118.7,-24.6,0.222,1.0,18.2,0.0,0.067,0.034,18.2,0.286,0.286,0.267,88.34,0.0,2014-01-04T00:00:00,4,1610612737,ATL,Atlanta,18-16,18,27,19,20,0,0,0,0,0,0,0,0,0,0,84,0.372,0.857,0.286,21,43,15,0021300492,1610612737,ATL,Atlanta,Shelvin Mack,,,15:52,0.0,0.0,0.0,4.0,6.0,8.0,4.0,14.0,0.0,0.0,0.0,1.0
0021300492,1610612737,ATL,Atlanta,202714,Shelvin Mack,,,15:52,94.1,118.7,-24.6,0.222,1.0,18.2,0.0,0.067,0.034,18.2,0.286,0.286,0.267,88.34,0.0,2014-01-04T00:00:00,4,1610612741,CHI,Chicago,14-18,26,24,17,24,0,0,0,0,0,0,0,0,0,0,91,0.407,0.792,0.353,19,52,13,0021300492,1610612737,ATL,Atlanta,Shelvin Mack,,,15:52,0.0,0.0,0.0,4.0,6.0,8.0,4.0,14.0,0.0,0.0,0.0,1.0
0021300492,1610612737,ATL,Atlanta,202970,Gustavo Ayon,,DNP - Coach's Decision,,,,,,,0.0,,,,,,,0.0,,,2014-01-04T00:00:00,4,1610612737,ATL,Atlanta,18-16,18,27,19,20,0,0,0,0,0,0,0,0,0,0,84,0.372,0.857,0.286,21,43,15,0021300492,1610612737,ATL,Atlanta,Gustavo Ayon,,DNP - Coach's Decision,,,,,,,,,,,,,
0021300492,1610612737,ATL,Atlanta,202970,Gustavo Ayon,,DNP - Coach's Decision,,,,,,,0.0,,,,,,,0.0,,,2014-01-04T00:00:00,4,1610612741,CHI,Chicago,14-18,26,24,17,24,0,0,0,0,0,0,0,0,0,0,91,0.407,0.792,0.353,19,52,13,0021300492,1610612737,ATL,Atlanta,Gustavo Ayon,,DNP - Coach's Decision,,,,,,,,,,,,,
0021300492,1610612737,ATL,Atlanta,201858,Cartier Martin,,DNP - Coach's Decision,,,,,,,0.0,,,,,,,0.0,,,2014-01-04T00:00:00,4,1610612737,ATL,Atlanta,18-16,18,27,19,20,0,0,0,0,0,0,0,0,0,0,84,0.372,0.857,0.286,21,43,15,0021300492,1610612737,ATL,Atlanta,Cartier Martin,,DNP - Coach's Decision,,,,,,,,,,,,,
0021300492,1610612737,ATL,Atlanta,201858,Cartier Martin,,DNP - Coach's Decision,,,,,,,0.0,,,,,,,0.0,,,2014-01-04T00:00:00,4,1610612741,CHI,Chicago,14-18,26,24,17,24,0,0,0,0,0,0,0,0,0,0,91,0.407,0.792,0.353,19,52,13,0021300492,1610612737,ATL,Atlanta,Cartier Martin,,DNP - Coach's Decision,,,,,,,,,,,,,
0021300492,1610612737,ATL,Atlanta,203471,Dennis Schroder,,DNP - Coach's Decision,,,,,,,0.0,,,,,,,0.0,,,2014-01-04T00:00:00,4,1610612737,ATL,Atlanta,18-16,18,27,19,20,0,0,0,0,0,0,0,0,0,0,84,0.372,0.857,0.286,21,43,15,0021300492,1610612737,ATL,Atlanta,Dennis Schroder,,DNP - Coach's Decision,,,,,,,,,,,,,
0021300492,1610612737,ATL,Atlanta,203471,Dennis Schroder,,DNP - Coach's Decision,,,,,,,0.0,,,,,,,0.0,,,2014-01-04T00:00:00,4,1610612741,CHI,Chicago,14-18,26,24,17,24,0,0,0,0,0,0,0,0,0,0,91,0.407,0.792,0.353,19,52,13,0021300492,1610612737,ATL,Atlanta,Dennis Schroder,,DNP - Coach's Decision,,,,,,,,,,,,,
0021300492,1610612741,CHI,Chicago,2736,Luol Deng,F,,29:42,92.7,81.3,11.4,0.077,0.33,4.6,0.241,0.114,0.172,13.9,0.367,0.482,0.308,91.22,0.21,2014-01-04T00:00:00,4,1610612737,ATL,Atlanta,18-16,18,27,19,20,0,0,0,0,0,0,0,0,0,0,84,0.372,0.857,0.286,21,43,15,0021300492,1610612741,CHI,Chicago,Luol Deng,F,,29:42,0.0,6.0,2.0,8.0,16.0,6.0,11.0,12.0,0.0,2.0,1.0,5.0
0021300492,1610612741,CHI,Chicago,2736,Luol Deng,F,,29:42,92.7,81.3,11.4,0.077,0.33,4.6,0.241,0.114,0.172,13.9,0.367,0.482,0.308,91.22,0.21,2014-01-04T00:00:00,4,1610612741,CHI,Chicago,14-18,26,24,17,24,0,0,0,0,0,0,0,0,0,0,91,0.407,0.792,0.353,19,52,13,0021300492,1610612741,CHI,Chicago,Luol Deng,F,,29:42,0.0,6.0,2.0,8.0,16.0,6.0,11.0,12.0,0.0,2.0,1.0,5.0
0021300492,1610612741,CHI,Chicago,201959,Taj Gibson,F,,39:13,102.1,93.4,8.7,0.1,1.0,11.8,0.077,0.214,0.148,11.8,0.333,0.388,0.172,87.15,0.097,2014-01-04T00:00:00,4,1610612737,ATL,Atlanta,18-16,18,27,19,20,0,0,0,0,0,0,0,0,0,0,84,0.372,0.857,0.286,21,43,15,0021300492,1610612741,CHI,Chicago,Taj Gibson,F,,39:13,6.0,2.0,2.0,6.0,11.0,14.0,11.0,26.0,3.0,2.0,4.0,3.0
0021300492,1610612741,CHI,Chicago,201959,Taj Gibson,F,,39:13,102.1,93.4,8.7,0.1,1.0,11.8,0.077,0.214,0.148,11.8,0.333,0.388,0.172,87.15,0.097,2014-01-04T00:00:00,4,1610612741,CHI,Chicago,14-18,26,24,17,24,0,0,0,0,0,0,0,0,0,0,91,0.407,0.792,0.353,19,52,13,0021300492,1610612741,CHI,Chicago,Taj Gibson,F,,39:13,6.0,2.0,2.0,6.0,11.0,14.0,11.0,26.0,3.0,2.0,4.0,3.0
0021300492,1610612741,CHI,Chicago,201149,Joakim Noah,C,,34:21,99.9,89.0,10.9,0.1,0.67,13.7,0.094,0.225,0.167,20.5,0.429,0.519,0.166,88.87,0.153,2014-01-04T00:00:00,4,1610612737,ATL,Atlanta,18-16,18,27,19,20,0,0,0,0,0,0,0,0,0,0,84,0.372,0.857,0.286,21,43,15,0021300492,1610612741,CHI,Chicago,Joakim Noah,C,,34:21,1.0,2.0,0.0,6.0,18.0,9.0,11.0,20.0,5.0,1.0,2.0,4.0
0021300492,1610612741,CHI,Chicago,201149,Joakim Noah,C,,34:21,99.9,89.0,10.9,0.1,0.67,13.7,0.094,0.225,0.167,20.5,0.429,0.519,0.166,88.87,0.153,2014-01-04T00:00:00,4,1610612741,CHI,Chicago,14-18,26,24,17,24,0,0,0,0,0,0,0,0,0,0,91,0.407,0.792,0.353,19,52,13,0021300492,1610612741,CHI,Chicago,Joakim Noah,C,,34:21,1.0,2.0,0.0,6.0,18.0,9.0,11.0,20.0,5.0,1.0,2.0,4.0
0021300492,1610612741,CHI,Chicago,202710,Jimmy Butler,G,,38:18,108.1,94.7,13.4,0.15,0.0,19.0,0.025,0.024,0.024,0.0,0.409,0.431,0.152,85.47,0.105,2014-01-04T00:00:00,4,1610612737,ATL,Atlanta,18-16,18,27,19,20,0,0,0,0,0,0,0,0,0,0,84,0.372,0.857,0.286,21,43,15,0021300492,1610612741,CHI,Chicago,Jimmy Butler,G,,38:18,2.0,2.0,4.0,4.0,9.0,12.0,7.0,26.0,1.0,0.0,0.0,4.0
0021300492,1610612741,CHI,Chicago,202710,Jimmy Butler,G,,38:18,108.1,94.7,13.4,0.15,0.0,19.0,0.025,0.024,0.024,0.0,0.409,0.431,0.152,85.47,0.105,2014-01-04T00:00:00,4,1610612741,CHI,Chicago,14-18,26,24,17,24,0,0,0,0,0,0,0,0,0,0,91,0.407,0.792,0.353,19,52,13,0021300492,1610612741,CHI,Chicago,Jimmy Butler,G,,38:18,2.0,2.0,4.0,4.0,9.0,12.0,7.0,26.0,1.0,0.0,0.0,4.0
0021300492,1610612741,CHI,Chicago,2550,Kirk Hinrich,G,,19:30,102.2,92.9,9.3,0.222,0.0,40.0,0.0,0.087,0.045,0.0,0.833,0.833,0.073,84.68,0.092,2014-01-04T00:00:00,4,1610612737,ATL,Atlanta,18-16,18,27,19,20,0,0,0,0,0,0,0,0,0,0,84,0.372,0.857,0.286,21,43,15,0021300492,1610612741,CHI,Chicago,Kirk Hinrich,G,,19:30,0.0,0.0,0.0,0.0,7.0,2.0,4.0,6.0,0.0,0.0,4.0,0.0
0021300492,1610612741,CHI,Chicago,2550,Kirk Hinrich,G,,19:30,102.2,92.9,9.3,0.222,0.0,40.0,0.0,0.087,0.045,0.0,0.833,0.833,0.073,84.68,0.092,2014-01-04T00:00:00,4,1610612741,CHI,Chicago,14-18,26,24,17,24,0,0,0,0,0,0,0,0,0,0,91,0.407,0.792,0.353,19,52,13,0021300492,1610612741,CHI,Chicago,Kirk Hinrich,G,,19:30,0.0,0.0,0.0,0.0,7.0,2.0,4.0,6.0,0.0,0.0,4.0,0.0
0021300492,1610612741,CHI,Chicago,2399,Mike Dunleavy,,,28:00,114.5,100.4,14.1,0.0,0.0,0.0,0.043,0.095,0.068,6.7,0.714,0.714,0.24,90.99,0.161,2014-01-04T00:00:00,4,1610612737,ATL,Atlanta,18-16,18,27,19,20,0,0,0,0,0,0,0,0,0,0,84,0.372,0.857,0.286,21,43,15,0021300492,1610612741,CHI,Chicago,Mike Dunleavy,,,28:00,4.0,2.0,5.0,8.0,11.0,10.0,8.0,30.0,1.0,0.0,0.0,1.0
0021300492,1610612741,CHI,Chicago,2399,Mike Dunleavy,,,28:00,114.5,100.4,14.1,0.0,0.0,0.0,0.043,0.095,0.068,6.7,0.714,0.714,0.24,90.99,0.161,2014-01-04T00:00:00,4,1610612741,CHI,Chicago,14-18,26,24,17,24,0,0,0,0,0,0,0,0,0,0,91,0.407,0.792,0.353,19,52,13,0021300492,1610612741,CHI,Chicago,Mike Dunleavy,,,28:00,4.0,2.0,5.0,8.0,11.0,10.0,8.0,30.0,1.0,0.0,0.0,1.0
0021300492,1610612741,CHI,Chicago,1737,Nazr Mohammed,,,13:39,118.3,100.0,18.3,0.125,0.5,9.3,0.214,0.333,0.261,18.6,0.333,0.451,0.32,88.83,0.107,2014-01-04T00:00:00,4,1610612737,ATL,Atlanta,18-16,18,27,19,20,0,0,0,0,0,0,0,0,0,0,84,0.372,0.857,0.286,21,43,15,0021300492,1610612741,CHI,Chicago,Nazr Mohammed,,,13:39,2.0,2.0,0.0,2.0,0.0,5.0,2.0,14.0,1.0,1.0,0.0,2.0
0021300492,1610612741,CHI,Chicago,1737,Nazr Mohammed,,,13:39,118.3,100.0,18.3,0.125,0.5,9.3,0.214,0.333,0.261,18.6,0.333,0.451,0.32,88.83,0.107,2014-01-04T00:00:00,4,1610612741,CHI,Chicago,14-18,26,24,17,24,0,0,0,0,0,0,0,0,0,0,91,0.407,0.792,0.353,19,52,13,0021300492,1610612741,CHI,Chicago,Nazr Mohammed,,,13:39,2.0,2.0,0.0,2.0,0.0,5.0,2.0,14.0,1.0,1.0,0.0,2.0
0021300492,1610612741,CHI,Chicago,201571,D.J. Augustin,,,28:30,107.0,91.7,15.3,0.389,3.5,30.6,0.08,0.077,0.078,8.7,0.346,0.396,0.243,91.72,0.07,2014-01-04T00:00:00,4,1610612737,ATL,Atlanta,18-16,18,27,19,20,0,0,0,0,0,0,0,0,0,0,84,0.372,0.857,0.286,21,43,15,0021300492,1610612741,CHI,Chicago,D.J. Augustin,,,28:30,0.0,2.0,2.0,6.0,11.0,12.0,9.0,28.0,1.0,2.0,4.0,1.0
0021300492,1610612741,CHI,Chicago,201571,D.J. Augustin,,,28:30,107.0,91.7,15.3,0.389,3.5,30.6,0.08,0.077,0.078,8.7,0.346,0.396,0.243,91.72,0.07,2014-01-04T00:00:00,4,1610612741,CHI,Chicago,14-18,26,24,17,24,0,0,0,0,0,0,0,0,0,0,91,0.407,0.792,0.353,19,52,13,0021300492,1610612741,CHI,Chicago,D.J. Augustin,,,28:30,0.0,2.0,2.0,6.0,11.0,12.0,9.0,28.0,1.0,2.0,4.0,1.0
0021300492,1610612741,CHI,Chicago,203503,Tony Snell,,,8:47,117.6,87.3,30.3,0.111,0.0,100.0,0.0,0.0,0.0,0.0,0.0,0.0,0.0,96.51,0.058,2014-01-04T00:00:00,4,1610612737,ATL,Atlanta,18-16,18,27,19,20,0,0,0,0,0,0,0,0,0,0,84,0.372,0.857,0.286,21,43,15,0021300492,1610612741,CHI,Chicago,Tony Snell,,,8:47,0.0,0.0,0.0,0.0,7.0,0.0,2.0,8.0,0.0,0.0,0.0,0.0
0021300492,1610612741,CHI,Chicago,203503,Tony Snell,,,8:47,117.6,87.3,30.3,0.111,0.0,100.0,0.0,0.0,0.0,0.0,0.0,0.0,0.0,96.51,0.058,2014-01-04T00:00:00,4,1610612741,CHI,Chicago,14-18,26,24,17,24,0,0,0,0,0,0,0,0,0,0,91,0.407,0.792,0.353,19,52,13,0021300492,1610612741,CHI,Chicago,Tony Snell,,,8:47,0.0,0.0,0.0,0.0,7.0,0.0,2.0,8.0,0.0,0.0,0.0,0.0
0021300492,1610612741,CHI,Chicago,2430,Carlos Boozer,,DND - Sore Right Knee,,,,,,,0.0,,,,,,,0.0,,,2014-01-04T00:00:00,4,1610612737,ATL,Atlanta,18-16,18,27,19,20,0,0,0,0,0,0,0,0,0,0,84,0.372,0.857,0.286,21,43,15,0021300492,1610612741,CHI,Chicago,Carlos Boozer,,DND - Sore Right Knee,,,,,,,,,,,,,
0021300492,1610612741,CHI,Chicago,2430,Carlos Boozer,,DND - Sore Right Knee,,,,,,,0.0,,,,,,,0.0,,,2014-01-04T00:00:00,4,1610612741,CHI,Chicago,14-18,26,24,17,24,0,0,0,0,0,0,0,0,0,0,91,0.407,0.792,0.353,19,52,13,0021300492,1610612741,CHI,Chicago,Carlos Boozer,,DND - Sore Right Knee,,,,,,,,,,,,,
0021300492,1610612741,CHI,Chicago,203513,Erik Murphy,,DNP - Coach's Decision,,,,,,,0.0,,,,,,,0.0,,,2014-01-04T00:00:00,4,1610612737,ATL,Atlanta,18-16,18,27,19,20,0,0,0,0,0,0,0,0,0,0,84,0.372,0.857,0.286,21,43,15,0021300492,1610612741,CHI,Chicago,Erik Murphy,,DNP - Coach's Decision,,,,,,,,,,,,,
0021300492,1610612741,CHI,Chicago,203513,Erik Murphy,,DNP - Coach's Decision,,,,,,,0.0,,,,,,,0.0,,,2014-01-04T00:00:00,4,1610612741,CHI,Chicago,14-18,26,24,17,24,0,0,0,0,0,0,0,0,0,0,91,0.407,0.792,0.353,19,52,13,0021300492,1610612741,CHI,Chicago,Erik Murphy,,DNP - Coach's Decision,,,,,,,,,,,,,
