GAME_ID_x,TEAM_ID_x,TEAM_ABBREVIATION_x,TEAM_CITY_x,PLAYER_ID,PLAYER_NAME_x,START_POSITION_x,COMMENT_x,MIN_x,OFF_RATING,DEF_RATING,NET_RATING,AST_PCT,AST_TOV,AST_RATIO,OREB_PCT,DREB_PCT,REB_PCT,TM_TOV_PCT,EFG_PCT,TS_PCT,USG_PCT,PACE,PIE,GAME_DATE_EST,GAME_SEQUENCE,TEAM_ABBREVIATION_y,TEAM_CITY_NAME,TEAM_WINS_LOSSES,PTS_QTR1,PTS_QTR2,PTS_QTR3,PTS_QTR4,PTS_OT1,PTS_OT2,PTS_OT3,PTS_OT4,PTS_OT5,PTS_OT6,PTS_OT7,PTS_OT8,PTS_OT9,PTS_OT10,PTS,FG_PCT,FT_PCT,FG3_PCT,AST,REB,TOV,GAME_ID_y,TEAM_ID_y,TEAM_ABBREVIATION,TEAM_CITY_y,PLAYER_NAME_y,START_POSITION_y,COMMENT_y,MIN_y,PTS_OFF_TOV,PTS_2ND_CHANCE,PTS_FB,PTS_PAINT,OPP_PTS_OFF_TOV,OPP_PTS_2ND_CHANCE,OPP_PTS_FB,OPP_PTS_PAINT,BLK,BLKA,PF,PFD
0021400751,1610612743,DEN,Denver,201163,Wilson Chandler,F,,22:16,92.7,117.2,-24.5,0.083,1.0,7.7,0.0,0.208,0.098,7.7,0.5,0.5,0.225,100.58,0.089,2015-02-06T00:00:00,7,DEN,Denver,19-32,21,21,20,26,0,0,0,0,0,0,0,0,0,0,88,0.388,0.773,0.227,22,43,13,0021400751,1610612743,DEN,Denver,Wilson Chandler,F,,22:16,0.0,2.0,2.0,8.0,2.0,8.0,9.0,24.0,1.0,0.0,3.0,0.0
0021400751,1610612743,DEN,Denver,202702,Kenneth Faried,F,,24:49,96.4,93.5,2.9,0.143,2.0,14.5,0.129,0.08,0.107,7.3,0.444,0.465,0.19,102.9,0.09,2015-02-06T00:00:00,7,DEN,Denver,19-32,21,21,20,26,0,0,0,0,0,0,0,0,0,0,88,0.388,0.773,0.227,22,43,13,0021400751,1610612743,DEN,Denver,Kenneth Faried,F,,24:49,1.0,2.0,2.0,8.0,2.0,8.0,8.0,28.0,2.0,1.0,5.0,3.0
0021400751,1610612743,DEN,Denver,203994,Jusuf Nurkic,C,,26:19,83.3,104.5,-21.3,0.059,0.0,7.3,0.118,0.36,0.22,0.0,0.1,0.237,0.216,96.81,0.075,2015-02-06T00:00:00,7,DEN,Denver,19-32,21,21,20,26,0,0,0,0,0,0,0,0,0,0,88,0.388,0.773,0.227,22,43,13,0021400751,1610612743,DEN,Denver,Jusuf Nurkic,C,,26:19,0.0,0.0,3.0,2.0,2.0,6.0,13.0,38.0,1.0,1.0,1.0,3.0
0021400751,1610612743,DEN,Denver,201167,Arron Afflalo,G,,22:40,85.0,111.2,-26.2,0.083,1.0,11.1,0.0,0.048,0.02,11.1,0.429,0.429,0.158,93.68,0.018,2015-02-06T00:00:00,7,DEN,Denver,19-32,21,21,20,26,0,0,0,0,0,0,0,0,0,0,88,0.388,0.773,0.227,22,43,13,0021400751,1610612743,DEN,Denver,Arron Afflalo,G,,22:40,2.0,2.0,0.0,4.0,2.0,6.0,11.0,28.0,1.0,0.0,2.0,0.0
0021400751,1610612743,DEN,Denver,201951,Ty Lawson,G,,39:02,91.4,102.9,-11.5,0.409,2.25,31.6,0.0,0.083,0.038,14.0,0.542,0.644,0.215,101.13,0.124,2015-02-06T00:00:00,7,DEN,Denver,19-32,21,21,20,26,0,0,0,0,0,0,0,0,0,0,88,0.388,0.773,0.227,22,43,13,0021400751,1610612743,DEN,Denver,Ty Lawson,G,,39:02,5.0,0.0,6.0,6.0,6.0,12.0,17.0,48.0,0.0,2.0,4.0,5.0
0021400751,1610612743,DEN,Denver,203914,Gary Harris,,,11:18,88.4,108.0,-19.6,0.286,0.0,33.3,0.0,0.1,0.059,0.0,0.25,0.25,0.162,101.61,0.027,2015-02-06T00:00:00,7,DEN,Denver,19-32,21,21,20,26,0,0,0,0,0,0,0,0,0,0,88,0.388,0.773,0.227,22,43,13,0021400751,1610612743,DEN,Denver,Gary Harris,,,11:18,0.0,0.0,0.0,0.0,4.0,6.0,4.0,16.0,0.0,0.0,1.0,0.0
0021400751,1610612743,DEN,Denver,201589,Darrell Arthur,,,17:38,88.9,108.5,-19.6,0.0,0.0,0.0,0.0,0.0,0.0,9.2,0.444,0.506,0.304,94.89,0.054,2015-02-06T00:00:00,7,DEN,Denver,19-32,21,21,20,26,0,0,0,0,0,0,0,0,0,0,88,0.388,0.773,0.227,22,43,13,0021400751,1610612743,DEN,Denver,Darrell Arthur,,,17:38,2.0,0.0,0.0,0.0,4.0,8.0,7.0,18.0,0.0,0.0,3.0,1.0
0021400751,1610612743,DEN,Denver,201568,Danilo Gallinari,,,29:39,95.0,89.9,5.1,0.176,3.0,20.2,0.033,0.227,0.115,6.7,0.5,0.551,0.177,98.01,0.147,2015-02-06T00:00:00,7,DEN,Denver,19-32,21,21,20,26,0,0,0,0,0,0,0,0,0,0,88,0.388,0.773,0.227,22,43,13,0021400751,1610612743,DEN,Denver,Danilo Gallinari,,,29:39,3.0,0.0,4.0,2.0,4.0,8.0,8.0,28.0,0.0,0.0,1.0,3.0
0021400751,1610612743,DEN,Denver,201581,JJ Hickson,,,14:31,97.7,105.4,-7.7,0.143,1.0,14.3,0.125,0.364,0.263,14.3,0.6,0.6,0.209,91.19,0.2,2015-02-06T00:00:00,7,DEN,Denver,19-32,21,21,20,26,0,0,0,0,0,0,0,0,0,0,88,0.388,0.773,0.227,22,43,13,0021400751,1610612743,DEN,Denver,JJ Hickson,,,14:31,2.0,2.0,0.0,4.0,4.0,6.0,4.0,14.0,0.0,0.0,0.0,0.0
0021400751,1610612743,DEN,Denver,203475,Erick Green,,,8:58,88.8,75.6,13.3,0.2,1.0,33.3,0.125,0.0,0.067,33.3,0.0,0.0,0.119,84.69,-0.034,2015-02-06T00:00:00,7,DEN,Denver,19-32,21,21,20,26,0,0,0,0,0,0,0,0,0,0,88,0.388,0.773,0.227,22,43,13,0021400751,1610612743,DEN,Denver,Erick Green,,,8:58,0.0,0.0,0.0,0.0,0.0,4.0,0.0,4.0,0.0,0.0,0.0,1.0
0021400751,1610612743,DEN,Denver,200751,Randy Foye,,,14:02,102.0,72.4,29.7,0.111,0.5,14.3,0.0,0.0,0.0,28.6,0.375,0.375,0.185,102.27,-0.149,2015-02-06T00:00:00,7,DEN,Denver,19-32,21,21,20,26,0,0,0,0,0,0,0,0,0,0,88,0.388,0.773,0.227,22,43,13,0021400751,1610612743,DEN,Denver,Randy Foye,,,14:02,0.0,0.0,0.0,0.0,0.0,4.0,2.0,8.0,0.0,0.0,4.0,0.0
0021400751,1610612743,DEN,Denver,202087,Alonzo Gee,,,8:48,72.1,50.3,21.8,0.0,0.0,0.0,0.0,0.222,0.111,0.0,0.333,0.333,0.17,99.58,0.333,2015-02-06T00:00:00,7,DEN,Denver,19-32,21,21,20,26,0,0,0,0,0,0,0,0,0,0,88,0.388,0.773,0.227,22,43,13,0021400751,1610612743,DEN,Denver,Alonzo Gee,,,8:48,0.0,0.0,2.0,2.0,0.0,4.0,2.0,6.0,0.0,0.0,0.0,0.0
0021400751,1610612743,DEN,Denver,2749,Jameer Nelson,,DND - LEFT ACHILLES STRAIN              ,,,,,,,0.0,,,,,,,0.0,,,2015-02-06T00:00:00,7,DEN,Denver,19-32,21,21,20,26,0,0,0,0,0,0,0,0,0,0,88,0.388,0.773,0.227,22,43,13,0021400751,1610612743,DEN,Denver,Jameer Nelson,,DND - LEFT ACHILLES STRAIN              ,,,,,,,,,,,,,
0021400751,1610612765,DET,Detroit,202713,Kyle Singler,F,,28:08,107.0,86.1,20.9,0.095,0.0,22.2,0.0,0.079,0.047,0.0,0.143,0.143,0.105,104.14,0.0,2015-02-06T00:00:00,7,DET,Detroit,20-31,28,28,24,18,0,0,0,0,0,0,0,0,0,0,98,0.451,0.769,0.167,23,51,16,0021400751,1610612765,DET,Detroit,Kyle Singler,F,,28:08,0.0,0.0,0.0,0.0,9.0,8.0,13.0,26.0,0.0,1.0,1.0,1.0
0021400751,1610612765,DET,Detroit,202328,Greg Monroe,F,,36:05,101.7,88.0,13.8,0.143,0.75,12.5,0.118,0.405,0.276,16.7,0.538,0.619,0.245,100.91,0.279,2015-02-06T00:00:00,7,DET,Detroit,20-31,28,28,24,18,0,0,0,0,0,0,0,0,0,0,98,0.451,0.769,0.167,23,51,16,0021400751,1610612765,DET,Detroit,Greg Monroe,F,,36:05,2.0,6.0,4.0,12.0,12.0,8.0,15.0,32.0,2.0,1.0,0.0,7.0
0021400751,1610612765,DET,Detroit,203083,Andre Drummond,C,,32:22,104.6,89.6,15.0,0.0,0.0,0.0,0.111,0.278,0.206,0.0,0.462,0.44,0.211,94.59,0.11,2015-02-06T00:00:00,7,DET,Detroit,20-31,28,28,24,18,0,0,0,0,0,0,0,0,0,0,98,0.451,0.769,0.167,23,51,16,0021400751,1610612765,DET,Detroit,Andre Drummond,C,,32:22,0.0,4.0,2.0,12.0,8.0,6.0,8.0,22.0,2.0,1.0,3.0,3.0
0021400751,1610612765,DET,Detroit,203484,Kentavious Caldwell-Pope,G,,22:34,104.3,94.8,9.5,0.077,0.5,8.1,0.043,0.036,0.039,16.2,0.438,0.483,0.214,102.57,0.043,2015-02-06T00:00:00,7,DET,Detroit,20-31,28,28,24,18,0,0,0,0,0,0,0,0,0,0,98,0.451,0.769,0.167,23,51,16,0021400751,1610612765,DET,Detroit,Kentavious Caldwell-Pope,G,,22:34,0.0,2.0,3.0,4.0,7.0,8.0,6.0,22.0,0.0,1.0,0.0,2.0
0021400751,1610612765,DET,Detroit,201571,D.J. Augustin,G,,34:15,103.2,80.1,23.1,0.55,2.2,37.3,0.0,0.048,0.027,16.9,0.7,0.814,0.232,100.95,0.222,2015-02-06T00:00:00,7,DET,Detroit,20-31,28,28,24,18,0,0,0,0,0,0,0,0,0,0,98,0.451,0.769,0.167,23,51,16,0021400751,1610612765,DET,Detroit,D.J. Augustin,G,,34:15,0.0,0.0,2.0,8.0,9.0,8.0,13.0,26.0,0.0,1.0,1.0,5.0
0021400751,1610612765,DET,Detroit,2406,Caron Butler,,,19:52,84.7,99.2,-14.5,0.077,0.5,10.0,0.059,0.0,0.033,20.0,0.357,0.357,0.206,89.44,-0.011,2015-02-06T00:00:00,7,DET,Detroit,20-31,28,28,24,18,0,0,0,0,0,0,0,0,0,0,98,0.451,0.769,0.167,23,51,16,0021400751,1610612765,DET,Detroit,Caron Butler,,,19:52,0.0,0.0,0.0,0.0,6.0,0.0,6.0,10.0,0.0,0.0,1.0,2.0
0021400751,1610612765,DET,Detroit,201229,Anthony Tolliver,,,15:57,100.8,92.1,8.7,0.0,0.0,0.0,0.0,0.455,0.208,20.0,0.25,0.25,0.14,93.53,-0.024,2015-02-06T00:00:00,7,DET,Detroit,20-31,28,28,24,18,0,0,0,0,0,0,0,0,0,0,98,0.451,0.769,0.167,23,51,16,0021400751,1610612765,DET,Detroit,Anthony Tolliver,,,15:57,0.0,0.0,0.0,2.0,3.0,0.0,5.0,8.0,0.0,0.0,5.0,1.0
0021400751,1610612765,DET,Detroit,201975,Jodie Meeks,,,25:26,93.2,87.2,6.0,0.0,0.0,0.0,0.0,0.087,0.047,13.4,0.667,0.699,0.259,94.06,0.187,2015-02-06T00:00:00,7,DET,Detroit,20-31,28,28,24,18,0,0,0,0,0,0,0,0,0,0,98,0.451,0.769,0.167,23,51,16,0021400751,1610612765,DET,Detroit,Jodie Meeks,,,25:26,4.0,2.0,6.0,10.0,8.0,0.0,13.0,14.0,0.0,0.0,1.0,2.0
0021400751,1610612765,DET,Detroit,101249,John Lucas III,,,13:45,86.5,123.6,-37.1,0.556,0.0,55.6,0.0,0.0,0.0,0.0,0.5,0.5,0.13,90.86,0.128,2015-02-06T00:00:00,7,DET,Detroit,20-31,28,28,24,18,0,0,0,0,0,0,0,0,0,0,98,0.451,0.769,0.167,23,51,16,0021400751,1610612765,DET,Detroit,John Lucas III,,,13:45,0.0,2.0,0.0,2.0,6.0,0.0,6.0,10.0,0.0,0.0,2.0,0.0
0021400751,1610612765,DET,Detroit,201202,Joel Anthony,,,2:39,50.0,102.5,-52.5,0.0,0.0,0.0,0.333,0.0,0.167,0.0,0.0,0.0,0.2,80.42,0.0,2015-02-06T00:00:00,7,DET,Detroit,20-31,28,28,24,18,0,0,0,0,0,0,0,0,0,0,98,0.451,0.769,0.167,23,51,16,0021400751,1610612765,DET,Detroit,Joel Anthony,,,2:39,0.0,0.0,0.0,0.0,3.0,0.0,2.0,0.0,0.0,0.0,1.0,1.0
0021400751,1610612765,DET,Detroit,201973,Jonas Jerebko,,,8:57,74.8,102.3,-27.6,0.0,0.0,0.0,0.111,0.0,0.053,0.0,0.333,0.333,0.123,112.41,-0.02,2015-02-06T00:00:00,7,DET,Detroit,20-31,28,28,24,18,0,0,0,0,0,0,0,0,0,0,98,0.451,0.769,0.167,23,51,16,0021400751,1610612765,DET,Detroit,Jonas Jerebko,,,8:57,0.0,0.0,0.0,2.0,4.0,2.0,8.0,10.0,0.0,0.0,1.0,0.0
0021400751,1610612765,DET,Detroit,203915,Spencer Dinwiddie,,DNP - Coach's Decision                  ,,,,,,,0.0,,,,,,,0.0,,,2015-02-06T00:00:00,7,DET,Detroit,20-31,28,28,24,18,0,0,0,0,0,0,0,0,0,0,98,0.451,0.769,0.167,23,51,16,0021400751,1610612765,DET,Detroit,Spencer Dinwiddie,,DNP - Coach's Decision                  ,,,,,,,,,,,,,
0021400751,1610612765,DET,Detroit,201858,Cartier Martin,,DNP - Coach's Decision                  ,,,,,,,0.0,,,,,,,0.0,,,2015-02-06T00:00:00,7,DET,Detroit,20-31,28,28,24,18,0,0,0,0,0,0,0,0,0,0,98,0.451,0.769,0.167,23,51,16,0021400751,1610612765,DET,Detroit,Cartier Martin,,DNP - Coach's Decision                  ,,,,,,,,,,,,,
