GAME_ID_x,TEAM_ID_x,TEAM_ABBREVIATION_x,TEAM_CITY_x,PLAYER_ID,PLAYER_NAME_x,START_POSITION_x,COMMENT_x,MIN_x,OFF_RATING,DEF_RATING,NET_RATING,AST_PCT,AST_TOV,AST_RATIO,OREB_PCT,DREB_PCT,REB_PCT,TM_TOV_PCT,EFG_PCT,TS_PCT,USG_PCT,PACE,PIE,GAME_DATE_EST,GAME_SEQUENCE,TEAM_ABBREVIATION_y,TEAM_CITY_NAME,TEAM_WINS_LOSSES,PTS_QTR1,PTS_QTR2,PTS_QTR3,PTS_QTR4,PTS_OT1,PTS_OT2,PTS_OT3,PTS_OT4,PTS_OT5,PTS_OT6,PTS_OT7,PTS_OT8,PTS_OT9,PTS_OT10,PTS,FG_PCT,FT_PCT,FG3_PCT,AST,REB,TOV,GAME_ID_y,TEAM_ID_y,TEAM_ABBREVIATION,TEAM_CITY_y,PLAYER_NAME_y,START_POSITION_y,COMMENT_y,MIN_y,PTS_OFF_TOV,PTS_2ND_CHANCE,PTS_FB,PTS_PAINT,OPP_PTS_OFF_TOV,OPP_PTS_2ND_CHANCE,OPP_PTS_FB,OPP_PTS_PAINT,BLK,BLKA,PF,PFD
0021400764,1610612758,SAC,Sacramento,200752,Rudy Gay,F,,28:49,81.1,126.3,-45.1,0.067,0.5,8.4,0.0,0.053,0.023,16.8,0.125,0.225,0.176,93.75,-0.048,2015-02-07T00:00:00,7,SAC,Sacramento,17-32,15,24,22,29,0,0,0,0,0,0,0,0,0,0,90,0.39,0.697,0.231,15,40,12,0021400764,1610612758,SAC,Sacramento,Rudy Gay,F,,28:49,0.0,0.0,0.0,2.0,6.0,8.0,8.0,38.0,1.0,0.0,2.0,1.0
0021400764,1610612758,SAC,Sacramento,201574,Jason Thompson,F,,28:03,73.7,134.5,-60.8,0.0,0.0,0.0,0.12,0.1,0.111,0.0,0.6,0.595,0.095,93.36,0.057,2015-02-07T00:00:00,7,SAC,Sacramento,17-32,15,24,22,29,0,0,0,0,0,0,0,0,0,0,90,0.39,0.697,0.231,15,40,12,0021400764,1610612758,SAC,Sacramento,Jason Thompson,F,,28:03,0.0,6.0,0.0,6.0,16.0,9.0,10.0,38.0,1.0,1.0,3.0,1.0
0021400764,1610612758,SAC,Sacramento,202326,DeMarcus Cousins,C,,37:23,88.2,110.5,-22.3,0.143,0.5,5.7,0.065,0.25,0.159,11.5,0.417,0.468,0.4,94.12,0.116,2015-02-07T00:00:00,7,SAC,Sacramento,17-32,15,24,22,29,0,0,0,0,0,0,0,0,0,0,90,0.39,0.697,0.231,15,40,12,0021400764,1610612758,SAC,Sacramento,DeMarcus Cousins,C,,37:23,2.0,2.0,4.0,10.0,8.0,13.0,6.0,40.0,2.0,1.0,6.0,12.0
0021400764,1610612758,SAC,Sacramento,203463,Ben McLemore,G,,32:02,83.6,122.1,-38.5,0.0,0.0,0.0,0.0,0.074,0.036,6.3,0.5,0.5,0.227,91.97,0.084,2015-02-07T00:00:00,7,SAC,Sacramento,17-32,15,24,22,29,0,0,0,0,0,0,0,0,0,0,90,0.39,0.697,0.231,15,40,12,0021400764,1610612758,SAC,Sacramento,Ben McLemore,G,,32:02,5.0,0.0,2.0,4.0,12.0,13.0,8.0,34.0,1.0,0.0,1.0,1.0
0021400764,1610612758,SAC,Sacramento,201196,Ramon Sessions,G,,31:22,84.9,122.6,-37.7,0.294,2.5,32.0,0.074,0.074,0.074,12.8,0.5,0.637,0.153,91.73,0.125,2015-02-07T00:00:00,7,SAC,Sacramento,17-32,15,24,22,29,0,0,0,0,0,0,0,0,0,0,90,0.39,0.697,0.231,15,40,12,0021400764,1610612758,SAC,Sacramento,Ramon Sessions,G,,31:22,0.0,0.0,2.0,4.0,12.0,13.0,6.0,34.0,0.0,1.0,2.0,5.0
0021400764,1610612758,SAC,Sacramento,2501,Reggie Evans,,,22:30,120.0,98.7,21.2,0.0,0.0,0.0,0.263,0.3,0.282,9.4,0.286,0.363,0.21,88.75,0.079,2015-02-07T00:00:00,7,SAC,Sacramento,17-32,15,24,22,29,0,0,0,0,0,0,0,0,0,0,90,0.39,0.697,0.231,15,40,12,0021400764,1610612758,SAC,Sacramento,Reggie Evans,,,22:30,1.0,3.0,0.0,4.0,8.0,8.0,12.0,26.0,0.0,2.0,3.0,3.0
0021400764,1610612758,SAC,Sacramento,201956,Omri Casspi,,,24:31,119.6,100.3,19.2,0.133,2.0,13.7,0.05,0.087,0.07,6.8,0.333,0.473,0.222,90.88,0.111,2015-02-07T00:00:00,7,SAC,Sacramento,17-32,15,24,22,29,0,0,0,0,0,0,0,0,0,0,90,0.39,0.697,0.231,15,40,12,0021400764,1610612758,SAC,Sacramento,Omri Casspi,,,24:31,1.0,3.0,0.0,6.0,14.0,9.0,12.0,30.0,0.0,1.0,1.0,3.0
0021400764,1610612758,SAC,Sacramento,203492,Ray McCallum,,,16:38,116.4,99.4,17.0,0.3,3.0,42.9,0.0,0.077,0.034,14.3,0.667,0.667,0.103,92.52,0.132,2015-02-07T00:00:00,7,SAC,Sacramento,17-32,15,24,22,29,0,0,0,0,0,0,0,0,0,0,90,0.39,0.697,0.231,15,40,12,0021400764,1610612758,SAC,Sacramento,Ray McCallum,,,16:38,0.0,0.0,2.0,4.0,4.0,4.0,10.0,22.0,0.0,0.0,0.0,2.0
0021400764,1610612758,SAC,Sacramento,203917,Nik Stauskas,,,10:47,120.8,88.0,32.8,0.182,0.0,66.7,0.0,0.091,0.042,0.0,0.0,0.0,0.035,90.9,0.071,2015-02-07T00:00:00,7,SAC,Sacramento,17-32,15,24,22,29,0,0,0,0,0,0,0,0,0,0,90,0.39,0.697,0.231,15,40,12,0021400764,1610612758,SAC,Sacramento,Nik Stauskas,,,10:47,0.0,0.0,0.0,0.0,0.0,4.0,4.0,10.0,0.0,0.0,0.0,0.0
0021400764,1610612758,SAC,Sacramento,201171,Carl Landry,,,5:43,131.6,116.5,15.1,0.0,0.0,0.0,0.111,0.0,0.071,0.0,0.5,0.5,0.126,81.11,0.025,2015-02-07T00:00:00,7,SAC,Sacramento,17-32,15,24,22,29,0,0,0,0,0,0,0,0,0,0,90,0.39,0.697,0.231,15,40,12,0021400764,1610612758,SAC,Sacramento,Carl Landry,,,5:43,0.0,0.0,0.0,0.0,0.0,4.0,2.0,8.0,0.0,0.0,1.0,0.0
0021400764,1610612758,SAC,Sacramento,203113,Quincy Miller,,,2:12,143.4,51.5,91.9,0.0,0.0,0.0,0.0,0.333,0.2,0.0,0.5,0.5,0.34,95.56,0.5,2015-02-07T00:00:00,7,SAC,Sacramento,17-32,15,24,22,29,0,0,0,0,0,0,0,0,0,0,90,0.39,0.697,0.231,15,40,12,0021400764,1610612758,SAC,Sacramento,Quincy Miller,,,2:12,0.0,2.0,0.0,2.0,0.0,0.0,2.0,0.0,0.0,0.0,0.0,0.0
0021400764,1610612758,SAC,Sacramento,200797,Ryan Hollins,,DNP - Coach's Decision                  ,,,,,,,0.0,,,,,,,0.0,,,2015-02-07T00:00:00,7,SAC,Sacramento,17-32,15,24,22,29,0,0,0,0,0,0,0,0,0,0,90,0.39,0.697,0.231,15,40,12,0021400764,1610612758,SAC,Sacramento,Ryan Hollins,,DNP - Coach's Decision                  ,,,,,,,,,,,,,
0021400764,1610612758,SAC,Sacramento,202682,Derrick Williams,,DNP - Coach's Decision                  ,,,,,,,0.0,,,,,,,0.0,,,2015-02-07T00:00:00,7,SAC,Sacramento,17-32,15,24,22,29,0,0,0,0,0,0,0,0,0,0,90,0.39,0.697,0.231,15,40,12,0021400764,1610612758,SAC,Sacramento,Derrick Williams,,DNP - Coach's Decision                  ,,,,,,,,,,,,,
0021400764,1610612762,UTA,Utah,202330,Gordon Hayward,F,,37:10,129.1,89.2,39.9,0.115,1.5,10.5,0.036,0.034,0.035,7.0,0.63,0.64,0.319,93.53,0.195,2015-02-07T00:00:00,7,UTA,Utah,18-33,25,24,26,27,0,0,0,0,0,0,0,0,0,0,102,0.5,0.647,0.263,21,43,9,0021400764,1610612762,UTA,Utah,Gordon Hayward,F,,37:10,4.0,0.0,6.0,12.0,6.0,8.0,4.0,28.0,0.0,3.0,1.0,4.0
0021400764,1610612762,UTA,Utah,202324,Derrick Favors,F,,32:39,132.5,85.1,47.4,0.2,2.5,19.7,0.13,0.194,0.167,7.9,0.529,0.546,0.297,91.06,0.164,2015-02-07T00:00:00,7,UTA,Utah,18-33,25,24,26,27,0,0,0,0,0,0,0,0,0,0,102,0.5,0.647,0.263,21,43,9,0021400764,1610612762,UTA,Utah,Derrick Favors,F,,32:39,0.0,6.0,0.0,16.0,5.0,6.0,4.0,22.0,3.0,1.0,5.0,2.0
0021400764,1610612762,UTA,Utah,202683,Enes Kanter,C,,32:58,106.7,91.1,15.6,0.048,0.33,4.6,0.156,0.25,0.203,13.8,0.438,0.479,0.281,91.38,0.184,2015-02-07T00:00:00,7,UTA,Utah,18-33,25,24,26,27,0,0,0,0,0,0,0,0,0,0,102,0.5,0.647,0.263,21,43,9,0021400764,1610612762,UTA,Utah,Enes Kanter,C,,32:58,2.0,8.0,2.0,12.0,9.0,9.0,8.0,24.0,0.0,0.0,2.0,4.0
0021400764,1610612762,UTA,Utah,202407,Elijah Millsap,G,,36:16,113.0,90.6,22.4,0.097,0.0,34.7,0.061,0.172,0.113,0.0,0.333,0.621,0.071,93.34,0.112,2015-02-07T00:00:00,7,UTA,Utah,18-33,25,24,26,27,0,0,0,0,0,0,0,0,0,0,102,0.5,0.647,0.263,21,43,9,0021400764,1610612762,UTA,Utah,Elijah Millsap,G,,36:16,1.0,1.0,4.0,2.0,6.0,9.0,6.0,28.0,0.0,1.0,3.0,4.0
0021400764,1610612762,UTA,Utah,203957,Dante Exum,G,,33:57,124.4,91.1,33.3,0.125,2.0,36.4,0.0,0.065,0.034,18.2,0.5,0.5,0.094,89.92,0.038,2015-02-07T00:00:00,7,UTA,Utah,18-33,25,24,26,27,0,0,0,0,0,0,0,0,0,0,102,0.5,0.647,0.263,21,43,9,0021400764,1610612762,UTA,Utah,Dante Exum,G,,33:57,0.0,0.0,0.0,2.0,7.0,12.0,6.0,28.0,0.0,0.0,4.0,1.0
0021400764,1610612762,UTA,Utah,203504,Trey Burke,,,25:38,101.5,104.9,-3.4,0.267,0.0,24.3,0.0,0.154,0.087,0.0,0.417,0.402,0.233,92.47,0.128,2015-02-07T00:00:00,7,UTA,Utah,18-33,25,24,26,27,0,0,0,0,0,0,0,0,0,0,102,0.5,0.647,0.263,21,43,9,0021400764,1610612762,UTA,Utah,Trey Burke,,,25:38,2.0,0.0,4.0,6.0,5.0,11.0,8.0,28.0,0.0,0.0,2.0,1.0
0021400764,1610612762,UTA,Utah,203497,Rudy Gobert,,,17:09,95.0,103.2,-8.2,0.0,0.0,0.0,0.143,0.214,0.179,0.0,1.0,0.694,0.079,93.15,0.029,2015-02-07T00:00:00,7,UTA,Utah,18-33,25,24,26,27,0,0,0,0,0,0,0,0,0,0,102,0.5,0.647,0.263,21,43,9,0021400764,1610612762,UTA,Utah,Rudy Gobert,,,17:09,0.0,2.0,0.0,4.0,4.0,6.0,4.0,20.0,2.0,0.0,6.0,2.0
0021400764,1610612762,UTA,Utah,200779,Steve Novak,,,9:52,55.9,114.2,-58.2,0.0,0.0,0.0,0.091,0.0,0.042,0.0,0.0,0.0,0.091,86.11,-0.304,2015-02-07T00:00:00,7,UTA,Utah,18-33,25,24,26,27,0,0,0,0,0,0,0,0,0,0,102,0.5,0.647,0.263,21,43,9,0021400764,1610612762,UTA,Utah,Steve Novak,,,9:52,0.0,0.0,0.0,0.0,3.0,7.0,6.0,12.0,0.0,0.0,2.0,0.0
0021400764,1610612762,UTA,Utah,203546,Ian Clark,,,2:21,51.5,153.1,-101.5,0.0,0.0,0.0,0.0,0.0,0.0,0.0,0.0,0.0,0.205,99.68,-0.125,2015-02-07T00:00:00,7,UTA,Utah,18-33,25,24,26,27,0,0,0,0,0,0,0,0,0,0,102,0.5,0.647,0.263,21,43,9,0021400764,1610612762,UTA,Utah,Ian Clark,,,2:21,0.0,0.0,0.0,0.0,0.0,3.0,2.0,6.0,0.0,0.0,0.0,0.0
0021400764,1610612762,UTA,Utah,202344,Trevor Booker,,,12:00,122.3,116.2,6.1,0.143,0.0,16.7,0.0,0.0,0.0,0.0,0.9,0.9,0.199,94.08,0.165,2015-02-07T00:00:00,7,UTA,Utah,18-33,25,24,26,27,0,0,0,0,0,0,0,0,0,0,102,0.5,0.647,0.263,21,43,9,0021400764,1610612762,UTA,Utah,Trevor Booker,,,12:00,7.0,0.0,0.0,2.0,0.0,9.0,2.0,14.0,1.0,0.0,3.0,1.0
0021400764,1610612762,UTA,Utah,202379,Jeremy Evans,,DNP - Coach's Decision                  ,,,,,,,0.0,,,,,,,0.0,,,2015-02-07T00:00:00,7,UTA,Utah,18-33,25,24,26,27,0,0,0,0,0,0,0,0,0,0,102,0.5,0.647,0.263,21,43,9,0021400764,1610612762,UTA,Utah,Jeremy Evans,,DNP - Coach's Decision                  ,,,,,,,,,,,,,
0021400764,1610612762,UTA,Utah,204060,Joe Ingles,,DND - Low back muscle spasms            ,,,,,,,0.0,,,,,,,0.0,,,2015-02-07T00:00:00,7,UTA,Utah,18-33,25,24,26,27,0,0,0,0,0,0,0,0,0,0,102,0.5,0.647,0.263,21,43,9,0021400764,1610612762,UTA,Utah,Joe Ingles,,DND - Low back muscle spasms            ,,,,,,,,,,,,,
