GAME_ID_x,TEAM_ID_x,TEAM_ABBREVIATION_x,TEAM_CITY_x,PLAYER_ID,PLAYER_NAME_x,START_POSITION_x,COMMENT_x,MIN_x,OFF_RATING,DEF_RATING,NET_RATING,AST_PCT,AST_TOV,AST_RATIO,OREB_PCT,DREB_PCT,REB_PCT,TM_TOV_PCT,EFG_PCT,TS_PCT,USG_PCT,PACE,PIE,GAME_DATE_EST,GAME_SEQUENCE,TEAM_ABBREVIATION_y,TEAM_CITY_NAME,TEAM_WINS_LOSSES,PTS_QTR1,PTS_QTR2,PTS_QTR3,PTS_QTR4,PTS_OT1,PTS_OT2,PTS_OT3,PTS_OT4,PTS_OT5,PTS_OT6,PTS_OT7,PTS_OT8,PTS_OT9,PTS_OT10,PTS,FG_PCT,FT_PCT,FG3_PCT,AST,REB,TOV,GAME_ID_y,TEAM_ID_y,TEAM_ABBREVIATION,TEAM_CITY_y,PLAYER_NAME_y,START_POSITION_y,COMMENT_y,MIN_y,PTS_OFF_TOV,PTS_2ND_CHANCE,PTS_FB,PTS_PAINT,OPP_PTS_OFF_TOV,OPP_PTS_2ND_CHANCE,OPP_PTS_FB,OPP_PTS_PAINT,BLK,BLKA,PF,PFD
0021400769,1610612750,MIN,Minnesota,203952,Andrew Wiggins,F,,39:29,116.4,110.5,5.9,0.192,2.5,22.6,0.037,0.179,0.121,9.1,0.542,0.597,0.195,96.38,0.12,2015-02-08T00:00:00,5,MIN,Minnesota,11-40,32,29,20,31,0,0,0,0,0,0,0,0,0,0,112,0.513,0.853,0.417,26,40,15,0021400769,1610612750,MIN,Minnesota,Andrew Wiggins,F,,39:29,1.0,3.0,0.0,8.0,17.0,19.0,9.0,34.0,1.0,1.0,3.0,5.0
0021400769,1610612750,MIN,Minnesota,201152,Thaddeus Young,F,,40:16,121.0,115.0,6.1,0.148,1.33,26.9,0.074,0.056,0.063,20.2,1.0,1.015,0.122,93.36,0.094,2015-02-08T00:00:00,5,MIN,Minnesota,11-40,32,29,20,31,0,0,0,0,0,0,0,0,0,0,112,0.513,0.853,0.417,26,40,15,0021400769,1610612750,MIN,Minnesota,Thaddeus Young,F,,40:16,0.0,5.0,2.0,4.0,12.0,19.0,9.0,34.0,0.0,0.0,5.0,1.0
0021400769,1610612750,MIN,Minnesota,201593,Nikola Pekovic,C,,32:30,131.0,114.7,16.3,0.05,0.0,4.5,0.048,0.069,0.06,0.0,0.563,0.681,0.291,94.71,0.204,2015-02-08T00:00:00,5,MIN,Minnesota,11-40,32,29,20,31,0,0,0,0,0,0,0,0,0,0,112,0.513,0.853,0.417,26,40,15,0021400769,1610612750,MIN,Minnesota,Nikola Pekovic,C,,32:30,4.0,2.0,2.0,16.0,7.0,14.0,7.0,22.0,0.0,0.0,1.0,9.0
0021400769,1610612750,MIN,Minnesota,2755,Kevin Martin,G,,42:14,122.7,112.9,9.7,0.077,2.0,7.4,0.036,0.216,0.138,3.7,0.429,0.498,0.27,92.48,0.133,2015-02-08T00:00:00,5,MIN,Minnesota,11-40,32,29,20,31,0,0,0,0,0,0,0,0,0,0,112,0.513,0.853,0.417,26,40,15,0021400769,1610612750,MIN,Minnesota,Kevin Martin,G,,42:14,8.0,4.0,4.0,6.0,12.0,19.0,9.0,38.0,0.0,0.0,3.0,6.0
0021400769,1610612750,MIN,Minnesota,2590,Mo Williams,G,,33:53,123.7,107.4,16.3,0.333,3.0,41.6,0.048,0.094,0.075,13.9,0.429,0.571,0.168,95.98,0.091,2015-02-08T00:00:00,5,MIN,Minnesota,11-40,32,29,20,31,0,0,0,0,0,0,0,0,0,0,112,0.513,0.853,0.417,26,40,15,0021400769,1610612750,MIN,Minnesota,Mo Williams,G,,33:53,3.0,3.0,0.0,0.0,7.0,14.0,5.0,24.0,0.0,1.0,3.0,3.0
0021400769,1610612750,MIN,Minnesota,203897,Zach LaVine,,,18:22,92.8,109.8,-17.0,0.333,1.5,27.3,0.077,0.133,0.107,18.2,0.833,0.833,0.197,94.27,0.177,2015-02-08T00:00:00,5,MIN,Minnesota,11-40,32,29,20,31,0,0,0,0,0,0,0,0,0,0,112,0.513,0.853,0.417,26,40,15,0021400769,1610612750,MIN,Minnesota,Zach LaVine,,,18:22,4.0,2.0,2.0,6.0,13.0,7.0,4.0,20.0,0.0,0.0,1.0,1.0
0021400769,1610612750,MIN,Minnesota,203461,Anthony Bennett,,,16:38,99.4,100.4,-1.0,0.083,1.0,25.0,0.1,0.364,0.238,25.0,0.5,0.5,0.085,91.06,0.109,2015-02-08T00:00:00,5,MIN,Minnesota,11-40,32,29,20,31,0,0,0,0,0,0,0,0,0,0,112,0.513,0.853,0.417,26,40,15,0021400769,1610612750,MIN,Minnesota,Anthony Bennett,,,16:38,0.0,0.0,0.0,2.0,5.0,4.0,0.0,18.0,0.0,0.0,0.0,0.0
0021400769,1610612750,MIN,Minnesota,203476,Gorgui Dieng,,,15:08,80.6,97.8,-17.2,0.111,0.33,12.5,0.091,0.143,0.12,37.5,0.25,0.25,0.214,94.24,-0.074,2015-02-08T00:00:00,5,MIN,Minnesota,11-40,32,29,20,31,0,0,0,0,0,0,0,0,0,0,112,0.513,0.853,0.417,26,40,15,0021400769,1610612750,MIN,Minnesota,Gorgui Dieng,,,15:08,0.0,0.0,0.0,2.0,10.0,7.0,2.0,18.0,0.0,1.0,4.0,0.0
0021400769,1610612750,MIN,Minnesota,203485,Lorenzo Brown,,,1:31,0.0,103.1,-103.1,0.0,0.0,0.0,0.0,0.5,0.25,0.0,0.0,0.0,0.333,109.11,0.0,2015-02-08T00:00:00,5,MIN,Minnesota,11-40,32,29,20,31,0,0,0,0,0,0,0,0,0,0,112,0.513,0.853,0.417,26,40,15,0021400769,1610612750,MIN,Minnesota,Lorenzo Brown,,,1:31,0.0,0.0,0.0,0.0,2.0,2.0,0.0,2.0,0.0,1.0,0.0,0.0
0021400769,1610612750,MIN,Minnesota,201978,Chase Budinger,,DNP - Coach's Decision                  ,,,,,,,0.0,,,,,,,0.0,,,2015-02-08T00:00:00,5,MIN,Minnesota,11-40,32,29,20,31,0,0,0,0,0,0,0,0,0,0,112,0.513,0.853,0.417,26,40,15,0021400769,1610612750,MIN,Minnesota,Chase Budinger,,DNP - Coach's Decision                  ,,,,,,,,,,,,,
0021400769,1610612750,MIN,Minnesota,203584,Troy Daniels,,DNP - Coach's Decision                  ,,,,,,,0.0,,,,,,,0.0,,,2015-02-08T00:00:00,5,MIN,Minnesota,11-40,32,29,20,31,0,0,0,0,0,0,0,0,0,0,112,0.513,0.853,0.417,26,40,15,0021400769,1610612750,MIN,Minnesota,Troy Daniels,,DNP - Coach's Decision                  ,,,,,,,,,,,,,
0021400769,1610612750,MIN,Minnesota,203922,Glenn Robinson III,,DNP - Coach's Decision                  ,,,,,,,0.0,,,,,,,0.0,,,2015-02-08T00:00:00,5,MIN,Minnesota,11-40,32,29,20,31,0,0,0,0,0,0,0,0,0,0,112,0.513,0.853,0.417,26,40,15,0021400769,1610612750,MIN,Minnesota,Glenn Robinson III,,DNP - Coach's Decision                  ,,,,,,,,,,,,,
0021400769,1610612750,MIN,Minnesota,201937,Ricky Rubio,,DNP - Coach's Decision                  ,,,,,,,0.0,,,,,,,0.0,,,2015-02-08T00:00:00,5,MIN,Minnesota,11-40,32,29,20,31,0,0,0,0,0,0,0,0,0,0,112,0.513,0.853,0.417,26,40,15,0021400769,1610612750,MIN,Minnesota,Ricky Rubio,,DNP - Coach's Decision                  ,,,,,,,,,,,,,
0021400769,1610612765,DET,Detroit,202713,Kyle Singler,F,,32:12,114.4,113.4,1.0,0.13,3.0,33.3,0.0,0.125,0.057,11.1,0.5,0.5,0.086,96.83,0.041,2015-02-08T00:00:00,5,DET,Detroit,20-32,24,27,22,28,0,0,0,0,0,0,0,0,0,0,101,0.468,0.773,0.323,18,35,15,0021400769,1610612765,DET,Detroit,Kyle Singler,F,,32:12,3.0,0.0,0.0,0.0,8.0,11.0,6.0,34.0,2.0,0.0,3.0,1.0
0021400769,1610612765,DET,Detroit,202328,Greg Monroe,F,,31:30,110.7,115.1,-4.4,0.0,0.0,0.0,0.065,0.304,0.167,22.7,0.455,0.55,0.265,93.07,0.069,2015-02-08T00:00:00,5,DET,Detroit,20-32,24,27,22,28,0,0,0,0,0,0,0,0,0,0,101,0.468,0.773,0.323,18,35,15,0021400769,1610612765,DET,Detroit,Greg Monroe,F,,31:30,6.0,4.0,0.0,10.0,5.0,8.0,4.0,30.0,0.0,0.0,5.0,3.0
0021400769,1610612765,DET,Detroit,203083,Andre Drummond,C,,28:49,108.1,127.0,-18.9,0.067,0.2,6.3,0.32,0.353,0.333,31.7,1.0,0.871,0.236,93.37,0.155,2015-02-08T00:00:00,5,DET,Detroit,20-32,24,27,22,28,0,0,0,0,0,0,0,0,0,0,101,0.468,0.773,0.323,18,35,15,0021400769,1610612765,DET,Detroit,Andre Drummond,C,,28:49,0.0,11.0,0.0,16.0,12.0,12.0,8.0,30.0,2.0,0.0,6.0,3.0
0021400769,1610612765,DET,Detroit,203484,Kentavious Caldwell-Pope,G,,29:49,122.2,129.3,-7.1,0.0,0.0,0.0,0.0,0.05,0.021,0.0,0.467,0.472,0.237,96.62,0.062,2015-02-08T00:00:00,5,DET,Detroit,20-32,24,27,22,28,0,0,0,0,0,0,0,0,0,0,101,0.468,0.773,0.323,18,35,15,0021400769,1610612765,DET,Detroit,Kentavious Caldwell-Pope,G,,29:49,2.0,3.0,2.0,2.0,10.0,11.0,8.0,34.0,0.0,0.0,2.0,2.0
0021400769,1610612765,DET,Detroit,201571,D.J. Augustin,G,,35:06,116.6,122.1,-5.5,0.381,8.0,29.9,0.03,0.04,0.034,3.7,0.5,0.563,0.25,95.03,0.119,2015-02-08T00:00:00,5,DET,Detroit,20-32,24,27,22,28,0,0,0,0,0,0,0,0,0,0,101,0.468,0.773,0.323,18,35,15,0021400769,1610612765,DET,Detroit,D.J. Augustin,G,,35:06,4.0,0.0,4.0,8.0,8.0,14.0,6.0,34.0,0.0,1.0,3.0,4.0
0021400769,1610612765,DET,Detroit,201229,Anthony Tolliver,,,34:24,111.9,104.1,7.7,0.045,0.0,9.3,0.033,0.125,0.074,0.0,0.688,0.768,0.13,95.1,0.114,2015-02-08T00:00:00,5,DET,Detroit,20-32,24,27,22,28,0,0,0,0,0,0,0,0,0,0,101,0.468,0.773,0.323,18,35,15,0021400769,1610612765,DET,Detroit,Anthony Tolliver,,,34:24,0.0,3.0,3.0,2.0,20.0,15.0,8.0,28.0,0.0,0.0,2.0,4.0
0021400769,1610612765,DET,Detroit,201975,Jodie Meeks,,,18:11,88.5,92.1,-3.6,0.0,0.0,0.0,0.0,0.083,0.037,0.0,0.5,0.571,0.214,90.54,0.089,2015-02-08T00:00:00,5,DET,Detroit,20-32,24,27,22,28,0,0,0,0,0,0,0,0,0,0,101,0.468,0.773,0.323,18,35,15,0021400769,1610612765,DET,Detroit,Jodie Meeks,,,18:11,2.0,0.0,0.0,4.0,10.0,8.0,2.0,10.0,0.0,0.0,2.0,2.0
0021400769,1610612765,DET,Detroit,101249,John Lucas III,,,12:54,92.9,96.5,-3.6,0.375,1.5,30.0,0.0,0.0,0.0,20.0,0.3,0.3,0.243,92.39,0.0,2015-02-08T00:00:00,5,DET,Detroit,20-32,24,27,22,28,0,0,0,0,0,0,0,0,0,0,101,0.468,0.773,0.323,18,35,15,0021400769,1610612765,DET,Detroit,John Lucas III,,,12:54,0.0,0.0,0.0,0.0,12.0,5.0,4.0,10.0,0.0,0.0,1.0,1.0
0021400769,1610612765,DET,Detroit,2406,Caron Butler,,,15:48,100.8,120.2,-19.3,0.182,2.0,28.6,0.0,0.125,0.045,14.3,0.25,0.25,0.148,89.19,0.019,2015-02-08T00:00:00,5,DET,Detroit,20-32,24,27,22,28,0,0,0,0,0,0,0,0,0,0,101,0.468,0.773,0.323,18,35,15,0021400769,1610612765,DET,Detroit,Caron Butler,,,15:48,0.0,0.0,0.0,0.0,12.0,8.0,4.0,10.0,0.0,0.0,0.0,0.0
0021400769,1610612765,DET,Detroit,201202,Joel Anthony,,,1:18,100.0,159.6,-59.6,0.0,0.0,0.0,0.0,0.0,0.0,100.0,0.0,0.0,0.333,124.8,-0.5,2015-02-08T00:00:00,5,DET,Detroit,20-32,24,27,22,28,0,0,0,0,0,0,0,0,0,0,101,0.468,0.773,0.323,18,35,15,0021400769,1610612765,DET,Detroit,Joel Anthony,,,1:18,0.0,0.0,0.0,0.0,3.0,3.0,0.0,0.0,0.0,0.0,1.0,0.0
0021400769,1610612765,DET,Detroit,203915,Spencer Dinwiddie,,DNP - Coach's Decision                  ,,,,,,,0.0,,,,,,,0.0,,,2015-02-08T00:00:00,5,DET,Detroit,20-32,24,27,22,28,0,0,0,0,0,0,0,0,0,0,101,0.468,0.773,0.323,18,35,15,0021400769,1610612765,DET,Detroit,Spencer Dinwiddie,,DNP - Coach's Decision                  ,,,,,,,,,,,,,
0021400769,1610612765,DET,Detroit,201973,Jonas Jerebko,,DNP - Coach's Decision                  ,,,,,,,0.0,,,,,,,0.0,,,2015-02-08T00:00:00,5,DET,Detroit,20-32,24,27,22,28,0,0,0,0,0,0,0,0,0,0,101,0.468,0.773,0.323,18,35,15,0021400769,1610612765,DET,Detroit,Jonas Jerebko,,DNP - Coach's Decision                  ,,,,,,,,,,,,,
0021400769,1610612765,DET,Detroit,201858,Cartier Martin,,DNP - Coach's Decision                  ,,,,,,,0.0,,,,,,,0.0,,,2015-02-08T00:00:00,5,DET,Detroit,20-32,24,27,22,28,0,0,0,0,0,0,0,0,0,0,101,0.468,0.773,0.323,18,35,15,0021400769,1610612765,DET,Detroit,Cartier Martin,,DNP - Coach's Decision                  ,,,,,,,,,,,,,
