GAME_ID_x,TEAM_ID_x,TEAM_ABBREVIATION_x,TEAM_CITY_x,PLAYER_ID,PLAYER_NAME_x,START_POSITION_x,COMMENT_x,MIN_x,OFF_RATING,DEF_RATING,NET_RATING,AST_PCT,AST_TOV,AST_RATIO,OREB_PCT,DREB_PCT,REB_PCT,TM_TOV_PCT,EFG_PCT,TS_PCT,USG_PCT,PACE,PIE,GAME_DATE_EST,GAME_SEQUENCE,TEAM_ABBREVIATION_y,TEAM_CITY_NAME,TEAM_WINS_LOSSES,PTS_QTR1,PTS_QTR2,PTS_QTR3,PTS_QTR4,PTS_OT1,PTS_OT2,PTS_OT3,PTS_OT4,PTS_OT5,PTS_OT6,PTS_OT7,PTS_OT8,PTS_OT9,PTS_OT10,PTS,FG_PCT,FT_PCT,FG3_PCT,AST,REB,TOV,GAME_ID_y,TEAM_ID_y,TEAM_ABBREVIATION,TEAM_CITY_y,PLAYER_NAME_y,START_POSITION_y,COMMENT_y,MIN_y,PTS_OFF_TOV,PTS_2ND_CHANCE,PTS_FB,PTS_PAINT,OPP_PTS_OFF_TOV,OPP_PTS_2ND_CHANCE,OPP_PTS_FB,OPP_PTS_PAINT,BLK,BLKA,PF,PFD
0021400771,1610612757,POR,Portland,201587,Nicolas Batum,F,,28:47,113.8,111.2,2.6,0.211,1.33,30.8,0.0,0.241,0.159,23.1,0.417,0.417,0.16,94.15,0.089,2015-02-08T00:00:00,7,POR,Portland,35-17,26,35,20,28,0,0,0,0,0,0,0,0,0,0,109,0.526,0.87,0.31,20,39,11,0021400771,1610612757,POR,Portland,Nicolas Batum,F,,28:47,0.0,0.0,0.0,0.0,11.0,16.0,17.0,20.0,0.0,0.0,1.0,1.0
0021400771,1610612757,POR,Portland,200746,LaMarcus Aldridge,F,,36:29,114.8,115.9,-1.1,0.105,0.5,7.5,0.095,0.091,0.093,15.1,0.471,0.585,0.337,92.39,0.126,2015-02-08T00:00:00,7,POR,Portland,35-17,26,35,20,28,0,0,0,0,0,0,0,0,0,0,109,0.526,0.87,0.31,20,39,11,0021400771,1610612757,POR,Portland,LaMarcus Aldridge,F,,36:29,4.0,4.0,0.0,12.0,17.0,22.0,15.0,22.0,2.0,0.0,4.0,5.0
0021400771,1610612757,POR,Portland,201577,Robin Lopez,C,,31:08,121.8,94.1,27.6,0.045,0.0,10.7,0.0,0.091,0.06,0.0,0.857,0.841,0.133,95.8,0.116,2015-02-08T00:00:00,7,POR,Portland,35-17,26,35,20,28,0,0,0,0,0,0,0,0,0,0,109,0.526,0.87,0.31,20,39,11,0021400771,1610612757,POR,Portland,Robin Lopez,C,,31:08,4.0,0.0,0.0,10.0,10.0,8.0,11.0,18.0,0.0,0.0,3.0,2.0
0021400771,1610612757,POR,Portland,202083,Wesley Matthews,G,,33:24,114.6,99.3,15.2,0.077,0.0,18.2,0.0,0.083,0.054,0.0,0.333,0.333,0.135,94.88,0.035,2015-02-08T00:00:00,7,POR,Portland,35-17,26,35,20,28,0,0,0,0,0,0,0,0,0,0,109,0.526,0.87,0.31,20,39,11,0021400771,1610612757,POR,Portland,Wesley Matthews,G,,33:24,0.0,0.0,0.0,0.0,13.0,12.0,11.0,18.0,0.0,0.0,2.0,2.0
0021400771,1610612757,POR,Portland,203081,Damian Lillard,G,,36:45,122.1,110.4,11.7,0.2,5.0,24.0,0.0,0.135,0.089,4.8,0.65,0.775,0.216,93.83,0.188,2015-02-08T00:00:00,7,POR,Portland,35-17,26,35,20,28,0,0,0,0,0,0,0,0,0,0,109,0.526,0.87,0.31,20,39,11,0021400771,1610612757,POR,Portland,Damian Lillard,G,,36:45,3.0,3.0,2.0,8.0,14.0,20.0,17.0,26.0,0.0,0.0,3.0,10.0
0021400771,1610612757,POR,Portland,2549,Chris Kaman,,,13:31,113.1,131.1,-18.0,0.125,1.0,25.0,0.1,0.154,0.13,25.0,1.0,1.0,0.105,90.41,0.099,2015-02-08T00:00:00,7,POR,Portland,35-17,26,35,20,28,0,0,0,0,0,0,0,0,0,0,109,0.526,0.87,0.31,20,39,11,0021400771,1610612757,POR,Portland,Chris Kaman,,,13:31,0.0,0.0,0.0,2.0,4.0,14.0,6.0,12.0,1.0,0.0,2.0,1.0
0021400771,1610612757,POR,Portland,2581,Steve Blake,,,21:17,106.1,112.3,-6.2,0.231,1.5,28.7,0.067,0.12,0.1,19.2,0.7,0.643,0.171,88.86,0.103,2015-02-08T00:00:00,7,POR,Portland,35-17,26,35,20,28,0,0,0,0,0,0,0,0,0,0,109,0.526,0.87,0.31,20,39,11,0021400771,1610612757,POR,Portland,Steve Blake,,,21:17,0.0,3.0,0.0,2.0,7.0,19.0,6.0,16.0,0.0,0.0,1.0,2.0
0021400771,1610612757,POR,Portland,203115,Will Barton,,,8:10,135.1,102.6,32.5,0.125,0.0,20.0,0.0,0.143,0.071,0.0,0.25,0.25,0.202,92.28,0.015,2015-02-08T00:00:00,7,POR,Portland,35-17,26,35,20,28,0,0,0,0,0,0,0,0,0,0,109,0.526,0.87,0.31,20,39,11,0021400771,1610612757,POR,Portland,Will Barton,,,8:10,0.0,2.0,0.0,2.0,0.0,3.0,0.0,6.0,1.0,1.0,1.0,0.0
0021400771,1610612757,POR,Portland,203468,CJ McCollum,,,15:37,120.5,88.1,32.4,0.0,0.0,0.0,0.0,0.125,0.074,0.0,0.857,0.857,0.22,91.29,0.226,2015-02-08T00:00:00,7,POR,Portland,35-17,26,35,20,28,0,0,0,0,0,0,0,0,0,0,109,0.526,0.87,0.31,20,39,11,0021400771,1610612757,POR,Portland,CJ McCollum,,,15:37,5.0,0.0,2.0,6.0,6.0,5.0,0.0,4.0,0.0,0.0,0.0,0.0
0021400771,1610612757,POR,Portland,203086,Meyers Leonard,,,14:52,116.0,81.9,34.1,0.1,0.0,10.0,0.0,0.286,0.194,0.0,0.667,0.667,0.296,91.24,0.243,2015-02-08T00:00:00,7,POR,Portland,35-17,26,35,20,28,0,0,0,0,0,0,0,0,0,0,109,0.526,0.87,0.31,20,39,11,0021400771,1610612757,POR,Portland,Meyers Leonard,,,14:52,0.0,0.0,2.0,4.0,3.0,6.0,2.0,8.0,1.0,0.0,2.0,1.0
0021400771,1610612757,POR,Portland,203459,Allen Crabbe,,DNP - Coach's Decision                  ,,,,,,,0.0,,,,,,,0.0,,,2015-02-08T00:00:00,7,POR,Portland,35-17,26,35,20,28,0,0,0,0,0,0,0,0,0,0,109,0.526,0.87,0.31,20,39,11,0021400771,1610612757,POR,Portland,Allen Crabbe,,DNP - Coach's Decision                  ,,,,,,,,,,,,,
0021400771,1610612757,POR,Portland,203080,Thomas Robinson,,DNP - Coach's Decision                  ,,,,,,,0.0,,,,,,,0.0,,,2015-02-08T00:00:00,7,POR,Portland,35-17,26,35,20,28,0,0,0,0,0,0,0,0,0,0,109,0.526,0.87,0.31,20,39,11,0021400771,1610612757,POR,Portland,Thomas Robinson,,DNP - Coach's Decision                  ,,,,,,,,,,,,,
0021400771,1610612757,POR,Portland,2748,Dorell Wright,,DNP - Coach's Decision                  ,,,,,,,0.0,,,,,,,0.0,,,2015-02-08T00:00:00,7,POR,Portland,35-17,26,35,20,28,0,0,0,0,0,0,0,0,0,0,109,0.526,0.87,0.31,20,39,11,0021400771,1610612757,POR,Portland,Dorell Wright,,DNP - Coach's Decision                  ,,,,,,,,,,,,,
0021400771,1610612745,HOU,Houston,2772,Trevor Ariza,F,,41:05,104.4,117.4,-13.0,0.24,6.0,35.5,0.045,0.217,0.104,5.9,0.389,0.455,0.118,93.35,0.106,2015-02-08T00:00:00,7,HOU,Houston,35-16,27,21,32,18,0,0,0,0,0,0,0,0,0,0,98,0.378,0.676,0.371,24,40,11,0021400771,1610612745,HOU,Houston,Trevor Ariza,F,,41:05,3.0,0.0,0.0,2.0,13.0,4.0,6.0,38.0,0.0,1.0,2.0,2.0
0021400771,1610612745,HOU,Houston,202700,Donatas Motiejunas,F,,36:18,107.8,117.3,-9.5,0.095,2.0,14.2,0.079,0.15,0.103,7.1,0.563,0.451,0.145,91.77,0.019,2015-02-08T00:00:00,7,HOU,Houston,35-16,27,21,32,18,0,0,0,0,0,0,0,0,0,0,98,0.378,0.676,0.371,24,40,11,0021400771,1610612745,HOU,Houston,Donatas Motiejunas,F,,36:18,2.0,5.0,3.0,6.0,13.0,2.0,6.0,32.0,0.0,0.0,3.0,4.0
0021400771,1610612745,HOU,Houston,201595,Joey Dorsey,C,,12:42,107.3,120.3,-13.0,0.0,0.0,0.0,0.091,0.25,0.158,0.0,0.25,0.25,0.142,96.23,-0.012,2015-02-08T00:00:00,7,HOU,Houston,35-16,27,21,32,18,0,0,0,0,0,0,0,0,0,0,98,0.378,0.676,0.371,24,40,11,0021400771,1610612745,HOU,Houston,Joey Dorsey,C,,12:42,2.0,0.0,2.0,2.0,6.0,2.0,2.0,10.0,0.0,1.0,2.0,0.0
0021400771,1610612745,HOU,Houston,201935,James Harden,G,,39:50,110.3,116.7,-6.4,0.533,2.0,17.0,0.1,0.208,0.141,8.5,0.52,0.641,0.43,92.91,0.272,2015-02-08T00:00:00,7,HOU,Houston,35-16,27,21,32,18,0,0,0,0,0,0,0,0,0,0,98,0.378,0.676,0.371,24,40,11,0021400771,1610612745,HOU,Houston,James Harden,G,,39:50,5.0,10.0,8.0,12.0,14.0,10.0,6.0,34.0,0.0,3.0,2.0,11.0
0021400771,1610612745,HOU,Houston,201976,Patrick Beverley,G,,25:18,110.4,130.7,-20.4,0.059,0.5,14.3,0.083,0.077,0.081,28.6,0.25,0.25,0.109,94.29,-0.051,2015-02-08T00:00:00,7,HOU,Houston,35-16,27,21,32,18,0,0,0,0,0,0,0,0,0,0,98,0.378,0.676,0.371,24,40,11,0021400771,1610612745,HOU,Houston,Patrick Beverley,G,,25:18,0.0,0.0,0.0,0.0,11.0,8.0,4.0,26.0,0.0,0.0,5.0,0.0
0021400771,1610612745,HOU,Houston,2746,Josh Smith,,,28:56,113.6,113.3,0.2,0.267,2.0,22.2,0.1,0.111,0.104,11.1,0.667,0.667,0.214,93.6,0.115,2015-02-08T00:00:00,7,HOU,Houston,35-16,27,21,32,18,0,0,0,0,0,0,0,0,0,0,98,0.378,0.676,0.371,24,40,11,0021400771,1610612745,HOU,Houston,Josh Smith,,,28:56,5.0,6.0,4.0,4.0,8.0,10.0,2.0,28.0,0.0,0.0,3.0,1.0
0021400771,1610612745,HOU,Houston,201147,Corey Brewer,,,21:07,88.4,117.3,-29.0,0.125,1.0,9.1,0.0,0.143,0.051,9.1,0.278,0.278,0.215,92.47,-0.04,2015-02-08T00:00:00,7,HOU,Houston,35-16,27,21,32,18,0,0,0,0,0,0,0,0,0,0,98,0.378,0.676,0.371,24,40,11,0021400771,1610612745,HOU,Houston,Corey Brewer,,,21:07,0.0,0.0,0.0,2.0,5.0,10.0,2.0,26.0,0.0,0.0,3.0,0.0
0021400771,1610612745,HOU,Houston,203093,Terrence Jones,,,14:25,94.3,121.0,-26.7,0.0,0.0,0.0,0.0,0.2,0.083,0.0,0.2,0.255,0.199,93.69,-0.036,2015-02-08T00:00:00,7,HOU,Houston,35-16,27,21,32,18,0,0,0,0,0,0,0,0,0,0,98,0.378,0.676,0.371,24,40,11,0021400771,1610612745,HOU,Houston,Terrence Jones,,,14:25,0.0,1.0,0.0,2.0,5.0,10.0,0.0,20.0,0.0,0.0,2.0,1.0
0021400771,1610612745,HOU,Houston,1891,Jason Terry,,,20:19,99.6,98.3,1.3,0.2,0.0,25.0,0.0,0.2,0.077,0.0,0.5,0.5,0.125,90.72,0.104,2015-02-08T00:00:00,7,HOU,Houston,35-16,27,21,32,18,0,0,0,0,0,0,0,0,0,0,98,0.378,0.676,0.371,24,40,11,0021400771,1610612745,HOU,Houston,Jason Terry,,,20:19,0.0,3.0,0.0,0.0,5.0,4.0,2.0,16.0,1.0,0.0,2.0,0.0
0021400771,1610612745,HOU,Houston,203477,Isaiah Canaan,,DNP - Coach's Decision                  ,,,,,,,0.0,,,,,,,0.0,,,2015-02-08T00:00:00,7,HOU,Houston,35-16,27,21,32,18,0,0,0,0,0,0,0,0,0,0,98,0.378,0.676,0.371,24,40,11,0021400771,1610612745,HOU,Houston,Isaiah Canaan,,DNP - Coach's Decision                  ,,,,,,,,,,,,,
0021400771,1610612745,HOU,Houston,203123,Kostas Papanikolaou,,DNP - Coach's Decision                  ,,,,,,,0.0,,,,,,,0.0,,,2015-02-08T00:00:00,7,HOU,Houston,35-16,27,21,32,18,0,0,0,0,0,0,0,0,0,0,98,0.378,0.676,0.371,24,40,11,0021400771,1610612745,HOU,Houston,Kostas Papanikolaou,,DNP - Coach's Decision                  ,,,,,,,,,,,,,
0021400771,1610612745,HOU,Houston,203144,Alexey Shved,,DNP - Coach's Decision                  ,,,,,,,0.0,,,,,,,0.0,,,2015-02-08T00:00:00,7,HOU,Houston,35-16,27,21,32,18,0,0,0,0,0,0,0,0,0,0,98,0.378,0.676,0.371,24,40,11,0021400771,1610612745,HOU,Houston,Alexey Shved,,DNP - Coach's Decision                  ,,,,,,,,,,,,,
