GAME_ID_x,TEAM_ID_x,TEAM_ABBREVIATION_x,TEAM_CITY_x,PLAYER_ID,PLAYER_NAME_x,START_POSITION_x,COMMENT_x,MIN_x,OFF_RATING,DEF_RATING,NET_RATING,AST_PCT,AST_TOV,AST_RATIO,OREB_PCT,DREB_PCT,REB_PCT,TM_TOV_PCT,EFG_PCT,TS_PCT,USG_PCT,PACE,PIE,GAME_DATE_EST,GAME_SEQUENCE,TEAM_ABBREVIATION_y,TEAM_CITY_NAME,TEAM_WINS_LOSSES,PTS_QTR1,PTS_QTR2,PTS_QTR3,PTS_QTR4,PTS_OT1,PTS_OT2,PTS_OT3,PTS_OT4,PTS_OT5,PTS_OT6,PTS_OT7,PTS_OT8,PTS_OT9,PTS_OT10,PTS,FG_PCT,FT_PCT,FG3_PCT,AST,REB,TOV,GAME_ID_y,TEAM_ID_y,TEAM_ABBREVIATION,TEAM_CITY_y,PLAYER_NAME_y,START_POSITION_y,COMMENT_y,MIN_y,PTS_OFF_TOV,PTS_2ND_CHANCE,PTS_FB,PTS_PAINT,OPP_PTS_OFF_TOV,OPP_PTS_2ND_CHANCE,OPP_PTS_FB,OPP_PTS_PAINT,BLK,BLKA,PF,PFD
0021400782,1610612760,OKC,Oklahoma City,201142,Kevin Durant,F,,36:35,134.0,111.5,22.4,0.091,0.5,6.7,0.0,0.118,0.068,13.4,0.868,0.839,0.325,101.53,0.206,2015-02-09T00:00:00,9,OKC,Oklahoma City,27-25,38,35,33,18,0,0,0,0,0,0,0,0,0,0,124,0.538,0.743,0.5,24,40,12,0021400782,1610612760,OKC,Oklahoma City,Kevin Durant,F,,36:35,5.0,3.0,0.0,8.0,15.0,15.0,7.0,44.0,0.0,0.0,2.0,6.0
0021400782,1610612760,OKC,Oklahoma City,201586,Serge Ibaka,F,,24:03,131.0,117.2,13.8,0.0,0.0,0.0,0.111,0.25,0.184,0.0,0.5,0.5,0.123,101.19,0.072,2015-02-09T00:00:00,9,OKC,Oklahoma City,27-25,38,35,33,18,0,0,0,0,0,0,0,0,0,0,124,0.538,0.743,0.5,24,40,12,0021400782,1610612760,OKC,Oklahoma City,Serge Ibaka,F,,24:03,0.0,2.0,0.0,2.0,13.0,9.0,6.0,34.0,3.0,0.0,4.0,0.0
0021400782,1610612760,OKC,Oklahoma City,2570,Kendrick Perkins,C,,20:19,151.8,121.7,30.1,0.05,1.0,25.0,0.077,0.048,0.059,25.0,1.0,1.0,0.065,103.77,0.035,2015-02-09T00:00:00,9,OKC,Oklahoma City,27-25,38,35,33,18,0,0,0,0,0,0,0,0,0,0,124,0.538,0.743,0.5,24,40,12,0021400782,1610612760,OKC,Oklahoma City,Kendrick Perkins,C,,20:19,0.0,2.0,0.0,4.0,8.0,11.0,4.0,30.0,0.0,0.0,2.0,1.0
0021400782,1610612760,OKC,Oklahoma City,203460,Andre Roberson,G,,24:27,139.5,115.1,24.3,0.158,3.0,30.0,0.0,0.125,0.077,10.0,1.0,1.0,0.131,98.87,0.13,2015-02-09T00:00:00,9,OKC,Oklahoma City,27-25,38,35,33,18,0,0,0,0,0,0,0,0,0,0,124,0.538,0.743,0.5,24,40,12,0021400782,1610612760,OKC,Oklahoma City,Andre Roberson,G,,24:27,2.0,0.0,2.0,6.0,13.0,11.0,6.0,30.0,1.0,0.0,4.0,0.0
0021400782,1610612760,OKC,Oklahoma City,201566,Russell Westbrook,G,,32:18,135.4,124.6,10.8,0.375,9.0,30.7,0.045,0.148,0.102,3.4,0.607,0.674,0.265,104.5,0.193,2015-02-09T00:00:00,9,OKC,Oklahoma City,27-25,38,35,33,18,0,0,0,0,0,0,0,0,0,0,124,0.538,0.743,0.5,24,40,12,0021400782,1610612760,OKC,Oklahoma City,Russell Westbrook,G,,32:18,5.0,0.0,10.0,10.0,15.0,13.0,7.0,46.0,0.0,1.0,1.0,8.0
0021400782,1610612760,OKC,Oklahoma City,2555,Nick Collison,,,26:46,119.2,110.2,9.1,0.136,3.0,38.1,0.0,0.16,0.091,12.7,0.0,0.258,0.082,100.1,0.028,2015-02-09T00:00:00,9,OKC,Oklahoma City,27-25,38,35,33,18,0,0,0,0,0,0,0,0,0,0,124,0.538,0.743,0.5,24,40,12,0021400782,1610612760,OKC,Oklahoma City,Nick Collison,,,26:46,0.0,0.0,0.0,0.0,6.0,8.0,6.0,24.0,0.0,2.0,2.0,2.0
0021400782,1610612760,OKC,Oklahoma City,203079,Dion Waiters,,,18:10,112.7,95.5,17.2,0.077,0.33,8.3,0.0,0.063,0.033,25.0,0.125,0.125,0.267,98.82,-0.111,2015-02-09T00:00:00,9,OKC,Oklahoma City,27-25,38,35,33,18,0,0,0,0,0,0,0,0,0,0,124,0.538,0.743,0.5,24,40,12,0021400782,1610612760,OKC,Oklahoma City,Dion Waiters,,,18:10,0.0,0.0,2.0,2.0,2.0,4.0,4.0,10.0,0.0,0.0,2.0,0.0
0021400782,1610612760,OKC,Oklahoma City,203956,Mitch McGary,,,24:52,99.9,113.9,-14.0,0.0,0.0,0.0,0.25,0.25,0.25,0.0,0.5,0.581,0.271,92.11,0.225,2015-02-09T00:00:00,9,OKC,Oklahoma City,27-25,38,35,33,18,0,0,0,0,0,0,0,0,0,0,124,0.538,0.743,0.5,24,40,12,0021400782,1610612760,OKC,Oklahoma City,Mitch McGary,,,24:52,2.0,5.0,0.0,12.0,7.0,6.0,4.0,16.0,1.0,1.0,1.0,4.0
0021400782,1610612760,OKC,Oklahoma City,202704,Reggie Jackson,,,19:27,92.8,117.4,-24.6,0.308,4.0,41.0,0.0,0.235,0.111,10.2,0.333,0.525,0.135,90.41,0.092,2015-02-09T00:00:00,9,OKC,Oklahoma City,27-25,38,35,33,18,0,0,0,0,0,0,0,0,0,0,124,0.538,0.743,0.5,24,40,12,0021400782,1610612760,OKC,Oklahoma City,Reggie Jackson,,,19:27,2.0,0.0,2.0,2.0,2.0,6.0,3.0,16.0,0.0,0.0,3.0,3.0
0021400782,1610612760,OKC,Oklahoma City,201627,Anthony Morrow,,,13:03,101.5,128.7,-27.2,0.167,0.0,14.3,0.0,0.0,0.0,0.0,0.75,0.75,0.234,92.47,0.117,2015-02-09T00:00:00,9,OKC,Oklahoma City,27-25,38,35,33,18,0,0,0,0,0,0,0,0,0,0,124,0.538,0.743,0.5,24,40,12,0021400782,1610612760,OKC,Oklahoma City,Anthony Morrow,,,13:03,0.0,0.0,0.0,0.0,4.0,2.0,3.0,10.0,0.0,0.0,2.0,1.0
0021400782,1610612760,OKC,Oklahoma City,203103,Perry Jones III,,DNP - Coach's Decision                  ,,,,,,,0.0,,,,,,,0.0,,,2015-02-09T00:00:00,9,OKC,Oklahoma City,27-25,38,35,33,18,0,0,0,0,0,0,0,0,0,0,124,0.538,0.743,0.5,24,40,12,0021400782,1610612760,OKC,Oklahoma City,Perry Jones III,,DNP - Coach's Decision                  ,,,,,,,,,,,,,
0021400782,1610612760,OKC,Oklahoma City,203087,Jeremy Lamb,,DNP - Coach's Decision                  ,,,,,,,0.0,,,,,,,0.0,,,2015-02-09T00:00:00,9,OKC,Oklahoma City,27-25,38,35,33,18,0,0,0,0,0,0,0,0,0,0,124,0.538,0.743,0.5,24,40,12,0021400782,1610612760,OKC,Oklahoma City,Jeremy Lamb,,DNP - Coach's Decision                  ,,,,,,,,,,,,,
0021400782,1610612760,OKC,Oklahoma City,202397,Ish Smith,,DNP - Coach's Decision                  ,,,,,,,0.0,,,,,,,0.0,,,2015-02-09T00:00:00,9,OKC,Oklahoma City,27-25,38,35,33,18,0,0,0,0,0,0,0,0,0,0,124,0.538,0.743,0.5,24,40,12,0021400782,1610612760,OKC,Oklahoma City,Ish Smith,,DNP - Coach's Decision                  ,,,,,,,,,,,,,
0021400782,1610612743,DEN,Denver,201163,Wilson Chandler,F,,35:26,128.6,135.9,-7.3,0.08,0.0,10.7,0.0,0.043,0.019,0.0,0.633,0.686,0.2,100.38,0.104,2015-02-09T00:00:00,9,DEN,Denver,19-33,18,41,33,22,0,0,0,0,0,0,0,0,0,0,114,0.483,0.724,0.321,20,38,10,0021400782,1610612743,DEN,Denver,Wilson Chandler,F,,35:26,2.0,3.0,4.0,14.0,10.0,7.0,14.0,38.0,0.0,1.0,4.0,2.0
0021400782,1610612743,DEN,Denver,202702,Kenneth Faried,F,,33:00,130.9,133.1,-2.2,0.042,1.0,5.1,0.179,0.217,0.196,5.1,0.571,0.628,0.234,98.09,0.121,2015-02-09T00:00:00,9,DEN,Denver,19-33,18,41,33,22,0,0,0,0,0,0,0,0,0,0,114,0.483,0.724,0.321,20,38,10,0021400782,1610612743,DEN,Denver,Kenneth Faried,F,,33:00,6.0,6.0,3.0,16.0,10.0,7.0,9.0,32.0,0.0,1.0,4.0,5.0
0021400782,1610612743,DEN,Denver,203994,Jusuf Nurkic,C,,33:37,130.2,128.8,1.4,0.077,0.5,10.7,0.185,0.409,0.286,21.5,0.6,0.633,0.211,99.78,0.111,2015-02-09T00:00:00,9,DEN,Denver,19-33,18,41,33,22,0,0,0,0,0,0,0,0,0,0,114,0.483,0.724,0.321,20,38,10,0021400782,1610612743,DEN,Denver,Jusuf Nurkic,C,,33:37,2.0,6.0,0.0,10.0,8.0,7.0,7.0,28.0,1.0,1.0,6.0,5.0
0021400782,1610612743,DEN,Denver,201167,Arron Afflalo,G,,28:26,97.6,138.8,-41.2,0.05,1.0,8.1,0.034,0.091,0.059,8.1,0.222,0.291,0.168,102.74,-0.004,2015-02-09T00:00:00,9,DEN,Denver,19-33,18,41,33,22,0,0,0,0,0,0,0,0,0,0,114,0.483,0.724,0.321,20,38,10,0021400782,1610612743,DEN,Denver,Arron Afflalo,G,,28:26,0.0,0.0,0.0,2.0,14.0,10.0,15.0,36.0,0.0,1.0,1.0,3.0
0021400782,1610612743,DEN,Denver,201951,Ty Lawson,G,,38:01,120.9,128.6,-7.7,0.321,4.5,37.7,0.0,0.037,0.016,8.4,0.875,0.854,0.162,103.23,0.136,2015-02-09T00:00:00,9,DEN,Denver,19-33,18,41,33,22,0,0,0,0,0,0,0,0,0,0,114,0.483,0.724,0.321,20,38,10,0021400782,1610612743,DEN,Denver,Ty Lawson,G,,38:01,5.0,0.0,0.0,4.0,10.0,8.0,14.0,40.0,0.0,0.0,3.0,3.0
0021400782,1610612743,DEN,Denver,201581,JJ Hickson,,,12:05,64.3,116.9,-52.6,0.2,1.0,17.0,0.0,0.2,0.087,17.0,0.667,0.644,0.189,102.09,0.123,2015-02-09T00:00:00,9,DEN,Denver,19-33,18,41,33,22,0,0,0,0,0,0,0,0,0,0,114,0.483,0.724,0.321,20,38,10,0021400782,1610612743,DEN,Denver,JJ Hickson,,,12:05,0.0,0.0,0.0,4.0,8.0,5.0,9.0,18.0,0.0,0.0,1.0,1.0
0021400782,1610612743,DEN,Denver,201589,Darrell Arthur,,,17:18,92.1,107.0,-14.9,0.111,0.0,8.4,0.056,0.267,0.152,0.0,0.4,0.414,0.288,97.5,0.144,2015-02-09T00:00:00,9,DEN,Denver,19-33,18,41,33,22,0,0,0,0,0,0,0,0,0,0,114,0.483,0.724,0.321,20,38,10,0021400782,1610612743,DEN,Denver,Darrell Arthur,,,17:18,2.0,2.0,0.0,2.0,6.0,5.0,7.0,14.0,2.0,1.0,1.0,2.0
0021400782,1610612743,DEN,Denver,201568,Danilo Gallinari,,,14:20,90.1,99.7,-9.7,0.0,0.0,0.0,0.0,0.083,0.038,14.3,0.25,0.25,0.235,93.5,-0.049,2015-02-09T00:00:00,9,DEN,Denver,19-33,18,41,33,22,0,0,0,0,0,0,0,0,0,0,114,0.483,0.724,0.321,20,38,10,0021400782,1610612743,DEN,Denver,Danilo Gallinari,,,14:20,0.0,0.0,3.0,0.0,6.0,5.0,2.0,8.0,0.0,0.0,1.0,1.0
0021400782,1610612743,DEN,Denver,200751,Randy Foye,,,25:15,127.3,104.1,23.2,0.136,0.0,27.6,0.0,0.059,0.029,0.0,0.429,0.508,0.143,96.19,0.041,2015-02-09T00:00:00,9,DEN,Denver,19-33,18,41,33,22,0,0,0,0,0,0,0,0,0,0,114,0.483,0.724,0.321,20,38,10,0021400782,1610612743,DEN,Denver,Randy Foye,,,25:15,0.0,0.0,0.0,0.0,8.0,6.0,3.0,16.0,1.0,0.0,4.0,1.0
0021400782,1610612743,DEN,Denver,203475,Erick Green,,,1:16,0.0,0.0,0.0,0.0,0.0,0.0,0.0,0.0,0.0,0.0,0.0,0.0,0.5,37.89,1.0,2015-02-09T00:00:00,9,DEN,Denver,19-33,18,41,33,22,0,0,0,0,0,0,0,0,0,0,114,0.483,0.724,0.321,20,38,10,0021400782,1610612743,DEN,Denver,Erick Green,,,1:16,0.0,0.0,0.0,0.0,0.0,0.0,0.0,0.0,0.0,0.0,0.0,0.0
0021400782,1610612743,DEN,Denver,203914,Gary Harris,,,1:16,0.0,0.0,0.0,0.0,0.0,0.0,0.0,0.0,0.0,0.0,0.0,0.0,0.0,37.89,0.0,2015-02-09T00:00:00,9,DEN,Denver,19-33,18,41,33,22,0,0,0,0,0,0,0,0,0,0,114,0.483,0.724,0.321,20,38,10,0021400782,1610612743,DEN,Denver,Gary Harris,,,1:16,0.0,0.0,0.0,0.0,0.0,0.0,0.0,0.0,0.0,0.0,0.0,0.0
0021400782,1610612743,DEN,Denver,202087,Alonzo Gee,,DNP - Coach's Decision                  ,,,,,,,0.0,,,,,,,0.0,,,2015-02-09T00:00:00,9,DEN,Denver,19-33,18,41,33,22,0,0,0,0,0,0,0,0,0,0,114,0.483,0.724,0.321,20,38,10,0021400782,1610612743,DEN,Denver,Alonzo Gee,,DNP - Coach's Decision                  ,,,,,,,,,,,,,
0021400782,1610612743,DEN,Denver,201580,JaVale McGee,,DNP - Coach's Decision                  ,,,,,,,0.0,,,,,,,0.0,,,2015-02-09T00:00:00,9,DEN,Denver,19-33,18,41,33,22,0,0,0,0,0,0,0,0,0,0,114,0.483,0.724,0.321,20,38,10,0021400782,1610612743,DEN,Denver,JaVale McGee,,DNP - Coach's Decision                  ,,,,,,,,,,,,,
