GAME_ID_x,TEAM_ID_x,TEAM_ABBREVIATION_x,TEAM_CITY_x,PLAYER_ID,PLAYER_NAME_x,START_POSITION_x,COMMENT_x,MIN_x,OFF_RATING,DEF_RATING,NET_RATING,AST_PCT,AST_TOV,AST_RATIO,OREB_PCT,DREB_PCT,REB_PCT,TM_TOV_PCT,EFG_PCT,TS_PCT,USG_PCT,PACE,PIE,GAME_DATE_EST,GAME_SEQUENCE,TEAM_ABBREVIATION_y,TEAM_CITY_NAME,TEAM_WINS_LOSSES,PTS_QTR1,PTS_QTR2,PTS_QTR3,PTS_QTR4,PTS_OT1,PTS_OT2,PTS_OT3,PTS_OT4,PTS_OT5,PTS_OT6,PTS_OT7,PTS_OT8,PTS_OT9,PTS_OT10,PTS,FG_PCT,FT_PCT,FG3_PCT,AST,REB,TOV,GAME_ID_y,TEAM_ID_y,TEAM_ABBREVIATION,TEAM_CITY_y,PLAYER_NAME_y,START_POSITION_y,COMMENT_y,MIN_y,PTS_OFF_TOV,PTS_2ND_CHANCE,PTS_FB,PTS_PAINT,OPP_PTS_OFF_TOV,OPP_PTS_2ND_CHANCE,OPP_PTS_FB,OPP_PTS_PAINT,BLK,BLKA,PF,PFD
0021400775,1610612744,GSW,Golden State,203084,Harrison Barnes,F,,21:53,85.6,89.8,-4.3,0.0,0.0,0.0,0.038,0.1,0.065,9.1,0.45,0.45,0.218,97.52,0.082,2015-02-09T00:00:00,2,GSW,Golden State,41-9,20,26,21,22,0,0,0,0,0,0,0,0,0,0,89,0.4,0.737,0.241,26,40,14,0021400775,1610612744,GSW,Golden State,Harrison Barnes,F,,21:53,0.0,0.0,0.0,4.0,2.0,8.0,3.0,20.0,1.0,0.0,0.0,0.0
0021400775,1610612744,GSW,Golden State,203110,Draymond Green,F,,27:26,83.3,76.3,6.9,0.118,2.0,22.2,0.033,0.077,0.054,11.1,0.333,0.333,0.115,100.85,0.024,2015-02-09T00:00:00,2,GSW,Golden State,41-9,20,26,21,22,0,0,0,0,0,0,0,0,0,0,89,0.4,0.737,0.241,26,40,14,0021400775,1610612744,GSW,Golden State,Draymond Green,F,,27:26,0.0,0.0,0.0,2.0,4.0,11.0,2.0,34.0,1.0,2.0,3.0,2.0
0021400775,1610612744,GSW,Golden State,101106,Andrew Bogut,C,,30:13,88.7,75.8,12.9,0.158,0.0,51.0,0.059,0.292,0.155,0.0,1.0,0.694,0.045,93.74,0.148,2015-02-09T00:00:00,2,GSW,Golden State,41-9,20,26,21,22,0,0,0,0,0,0,0,0,0,0,89,0.4,0.737,0.241,26,40,14,0021400775,1610612744,GSW,Golden State,Andrew Bogut,C,,30:13,4.0,0.0,0.0,4.0,2.0,10.0,0.0,22.0,2.0,0.0,2.0,3.0
0021400775,1610612744,GSW,Golden State,202691,Klay Thompson,G,,29:09,79.8,76.4,3.4,0.214,1.0,13.8,0.0,0.067,0.032,13.8,0.321,0.412,0.287,102.29,0.068,2015-02-09T00:00:00,2,GSW,Golden State,41-9,20,26,21,22,0,0,0,0,0,0,0,0,0,0,89,0.4,0.737,0.241,26,40,14,0021400775,1610612744,GSW,Golden State,Klay Thompson,G,,29:09,9.0,0.0,4.0,6.0,4.0,9.0,5.0,28.0,0.0,1.0,1.0,4.0
0021400775,1610612744,GSW,Golden State,201939,Stephen Curry,G,,31:45,82.3,81.3,1.0,0.5,6.0,20.9,0.0,0.179,0.076,3.5,0.425,0.46,0.329,96.09,0.188,2015-02-09T00:00:00,2,GSW,Golden State,41-9,20,26,21,22,0,0,0,0,0,0,0,0,0,0,89,0.4,0.737,0.241,26,40,14,0021400775,1610612744,GSW,Golden State,Stephen Curry,G,,31:45,7.0,5.0,2.0,8.0,2.0,10.0,3.0,30.0,0.0,0.0,2.0,2.0
0021400775,1610612744,GSW,Golden State,201578,Marreese Speights,,,14:45,87.7,77.4,10.3,0.0,0.0,0.0,0.0,0.059,0.037,11.1,0.625,0.625,0.263,112.4,0.098,2015-02-09T00:00:00,2,GSW,Golden State,41-9,20,26,21,22,0,0,0,0,0,0,0,0,0,0,89,0.4,0.737,0.241,26,40,14,0021400775,1610612744,GSW,Golden State,Marreese Speights,,,14:45,2.0,0.0,0.0,2.0,6.0,6.0,6.0,16.0,0.0,0.0,2.0,3.0
0021400775,1610612744,GSW,Golden State,2738,Andre Iguodala,,,29:54,86.9,81.3,5.6,0.125,1.0,12.6,0.0,0.179,0.091,12.6,0.5,0.547,0.208,105.96,0.152,2015-02-09T00:00:00,2,GSW,Golden State,41-9,20,26,21,22,0,0,0,0,0,0,0,0,0,0,89,0.4,0.737,0.241,26,40,14,0021400775,1610612744,GSW,Golden State,Andre Iguodala,,,29:54,9.0,0.0,6.0,8.0,6.0,8.0,9.0,28.0,0.0,0.0,1.0,1.0
0021400775,1610612744,GSW,Golden State,2733,Shaun Livingston,,,16:10,99.5,83.1,16.4,0.2,1.5,42.9,0.0,0.2,0.12,28.6,0.0,0.0,0.108,110.63,0.047,2015-02-09T00:00:00,2,GSW,Golden State,41-9,20,26,21,22,0,0,0,0,0,0,0,0,0,0,89,0.4,0.737,0.241,26,40,14,0021400775,1610612744,GSW,Golden State,Shaun Livingston,,,16:10,0.0,0.0,0.0,0.0,6.0,6.0,6.0,16.0,0.0,0.0,1.0,0.0
0021400775,1610612744,GSW,Golden State,101135,David Lee,,,19:06,92.8,91.0,1.7,0.333,5.0,45.5,0.0,0.188,0.091,9.1,0.0,0.0,0.14,102.54,0.053,2015-02-09T00:00:00,2,GSW,Golden State,41-9,20,26,21,22,0,0,0,0,0,0,0,0,0,0,89,0.4,0.737,0.241,26,40,14,0021400775,1610612744,GSW,Golden State,David Lee,,,19:06,0.0,0.0,0.0,0.0,4.0,5.0,4.0,16.0,0.0,1.0,1.0,0.0
0021400775,1610612744,GSW,Golden State,2571,Leandro Barbosa,,,19:39,100.9,97.2,3.7,0.182,1.0,14.2,0.125,0.25,0.188,14.2,0.786,0.794,0.265,106.03,0.2,2015-02-09T00:00:00,2,GSW,Golden State,41-9,20,26,21,22,0,0,0,0,0,0,0,0,0,0,89,0.4,0.737,0.241,26,40,14,0021400775,1610612744,GSW,Golden State,Leandro Barbosa,,,19:39,4.0,0.0,5.0,6.0,4.0,7.0,7.0,20.0,1.0,0.0,1.0,4.0
0021400775,1610612744,GSW,Golden State,203105,Festus Ezeli,,DNP - Coach's Decision                  ,,,,,,,0.0,,,,,,,0.0,,,2015-02-09T00:00:00,2,GSW,Golden State,41-9,20,26,21,22,0,0,0,0,0,0,0,0,0,0,89,0.4,0.737,0.241,26,40,14,0021400775,1610612744,GSW,Golden State,Festus Ezeli,,DNP - Coach's Decision                  ,,,,,,,,,,,,,
0021400775,1610612744,GSW,Golden State,203200,Justin Holiday,,DNP - Coach's Decision                  ,,,,,,,0.0,,,,,,,0.0,,,2015-02-09T00:00:00,2,GSW,Golden State,41-9,20,26,21,22,0,0,0,0,0,0,0,0,0,0,89,0.4,0.737,0.241,26,40,14,0021400775,1610612744,GSW,Golden State,Justin Holiday,,DNP - Coach's Decision                  ,,,,,,,,,,,,,
0021400775,1610612744,GSW,Golden State,201575,Brandon Rush,,DNP - Coach's Decision                  ,,,,,,,0.0,,,,,,,0.0,,,2015-02-09T00:00:00,2,GSW,Golden State,41-9,20,26,21,22,0,0,0,0,0,0,0,0,0,0,89,0.4,0.737,0.241,26,40,14,0021400775,1610612744,GSW,Golden State,Brandon Rush,,DNP - Coach's Decision                  ,,,,,,,,,,,,,
0021400775,1610612755,PHI,Philadelphia,203496,Robert Covington,F,,31:31,87.9,82.6,5.3,0.071,0.33,4.9,0.0,0.235,0.125,14.8,0.6,0.643,0.269,98.23,0.21,2015-02-09T00:00:00,2,PHI,Philadelphia,12-41,24,20,17,23,0,0,0,0,0,0,0,0,0,0,84,0.418,0.786,0.292,21,52,27,0021400775,1610612755,PHI,Philadelphia,Robert Covington,F,,31:31,0.0,0.0,0.0,6.0,23.0,5.0,10.0,24.0,0.0,1.0,3.0,1.0
0021400775,1610612755,PHI,Philadelphia,201601,Luc Mbah a Moute,F,,35:05,79.2,80.2,-1.1,0.056,0.2,5.0,0.03,0.211,0.127,25.2,0.462,0.468,0.229,99.58,0.114,2015-02-09T00:00:00,2,PHI,Philadelphia,12-41,24,20,17,23,0,0,0,0,0,0,0,0,0,0,84,0.418,0.786,0.292,21,52,27,0021400775,1610612755,PHI,Philadelphia,Luc Mbah a Moute,F,,35:05,4.0,8.0,2.0,6.0,27.0,2.0,14.0,26.0,1.0,3.0,0.0,1.0
0021400775,1610612755,PHI,Philadelphia,203457,Nerlens Noel,C,,32:02,75.4,85.0,-9.6,0.308,4.0,28.8,0.1,0.125,0.113,7.2,0.625,0.619,0.137,97.25,0.161,2015-02-09T00:00:00,2,PHI,Philadelphia,12-41,24,20,17,23,0,0,0,0,0,0,0,0,0,0,84,0.418,0.786,0.292,21,52,27,0021400775,1610612755,PHI,Philadelphia,Nerlens Noel,C,,32:02,0.0,4.0,0.0,10.0,25.0,3.0,10.0,26.0,1.0,0.0,3.0,2.0
0021400775,1610612755,PHI,Philadelphia,203960,JaKarr Sampson,G,,26:38,82.0,85.7,-3.6,0.133,0.67,16.7,0.0,0.222,0.122,25.0,0.714,0.714,0.166,102.1,0.15,2015-02-09T00:00:00,2,PHI,Philadelphia,12-41,24,20,17,23,0,0,0,0,0,0,0,0,0,0,84,0.418,0.786,0.292,21,52,27,0021400775,1610612755,PHI,Philadelphia,JaKarr Sampson,G,,26:38,2.0,0.0,2.0,10.0,20.0,0.0,7.0,24.0,0.0,0.0,0.0,1.0
0021400775,1610612755,PHI,Philadelphia,204025,Tim Frazier,G,,35:55,80.9,86.3,-5.4,0.368,1.0,27.0,0.086,0.083,0.085,27.0,0.409,0.421,0.226,99.18,0.035,2015-02-09T00:00:00,2,PHI,Philadelphia,12-41,24,20,17,23,0,0,0,0,0,0,0,0,0,0,84,0.418,0.786,0.292,21,52,27,0021400775,1610612755,PHI,Philadelphia,Tim Frazier,G,,35:55,2.0,0.0,3.0,4.0,27.0,5.0,12.0,26.0,0.0,0.0,3.0,4.0
0021400775,1610612755,PHI,Philadelphia,203138,Hollis Thompson,,,27:54,82.6,87.3,-4.7,0.1,0.5,13.3,0.0,0.207,0.109,26.7,0.0,0.0,0.186,106.38,-0.118,2015-02-09T00:00:00,2,PHI,Philadelphia,12-41,24,20,17,23,0,0,0,0,0,0,0,0,0,0,84,0.418,0.786,0.292,21,52,27,0021400775,1610612755,PHI,Philadelphia,Hollis Thompson,,,27:54,0.0,0.0,0.0,0.0,16.0,5.0,13.0,24.0,0.0,0.0,6.0,1.0
0021400775,1610612755,PHI,Philadelphia,203156,Henry Sims,,,12:12,89.3,89.4,-0.1,0.0,0.0,0.0,0.077,0.333,0.2,16.7,0.8,0.8,0.194,112.29,0.202,2015-02-09T00:00:00,2,PHI,Philadelphia,12-41,24,20,17,23,0,0,0,0,0,0,0,0,0,0,84,0.418,0.786,0.292,21,52,27,0021400775,1610612755,PHI,Philadelphia,Henry Sims,,,12:12,0.0,0.0,0.0,4.0,6.0,0.0,5.0,10.0,0.0,0.0,1.0,0.0
0021400775,1610612755,PHI,Philadelphia,203909,KJ McDaniels,,,16:45,71.4,99.8,-28.4,0.1,0.5,10.6,0.063,0.077,0.069,21.2,0.333,0.388,0.2,113.62,0.03,2015-02-09T00:00:00,2,PHI,Philadelphia,12-41,24,20,17,23,0,0,0,0,0,0,0,0,0,0,84,0.418,0.786,0.292,21,52,27,0021400775,1610612755,PHI,Philadelphia,KJ McDaniels,,,16:45,0.0,2.0,0.0,4.0,15.0,0.0,9.0,18.0,1.0,1.0,1.0,1.0
0021400775,1610612755,PHI,Philadelphia,203924,Jerami Grant,,,21:58,96.3,104.6,-8.3,0.188,3.0,27.9,0.067,0.105,0.088,9.3,0.2,0.444,0.163,99.95,0.057,2015-02-09T00:00:00,2,PHI,Philadelphia,12-41,24,20,17,23,0,0,0,0,0,0,0,0,0,0,84,0.418,0.786,0.292,21,52,27,0021400775,1610612755,PHI,Philadelphia,Jerami Grant,,,21:58,0.0,2.0,2.0,2.0,16.0,5.0,5.0,22.0,1.0,0.0,2.0,3.0
0021400775,1610612755,PHI,Philadelphia,203128,Furkan Aldemir,,DNP - Coach's Decision                  ,,,,,,,0.0,,,,,,,0.0,,,2015-02-09T00:00:00,2,PHI,Philadelphia,12-41,24,20,17,23,0,0,0,0,0,0,0,0,0,0,84,0.418,0.786,0.292,21,52,27,0021400775,1610612755,PHI,Philadelphia,Furkan Aldemir,,DNP - Coach's Decision                  ,,,,,,,,,,,,,
0021400775,1610612755,PHI,Philadelphia,203487,Michael Carter-Williams,,DND - Right Foot Big Toe Strain         ,,,,,,,0.0,,,,,,,0.0,,,2015-02-09T00:00:00,2,PHI,Philadelphia,12-41,24,20,17,23,0,0,0,0,0,0,0,0,0,0,84,0.418,0.786,0.292,21,52,27,0021400775,1610612755,PHI,Philadelphia,Michael Carter-Williams,,DND - Right Foot Big Toe Strain         ,,,,,,,,,,,,,
0021400775,1610612755,PHI,Philadelphia,202952,Malcolm Thomas,,DNP - Coach's Decision                  ,,,,,,,0.0,,,,,,,0.0,,,2015-02-09T00:00:00,2,PHI,Philadelphia,12-41,24,20,17,23,0,0,0,0,0,0,0,0,0,0,84,0.418,0.786,0.292,21,52,27,0021400775,1610612755,PHI,Philadelphia,Malcolm Thomas,,DNP - Coach's Decision                  ,,,,,,,,,,,,,
