GAME_ID_x,TEAM_ID_x,TEAM_ABBREVIATION_x,TEAM_CITY_x,PLAYER_ID,PLAYER_NAME_x,START_POSITION_x,COMMENT_x,MIN_x,OFF_RATING,DEF_RATING,NET_RATING,AST_PCT,AST_TOV,AST_RATIO,OREB_PCT,DREB_PCT,REB_PCT,TM_TOV_PCT,EFG_PCT,TS_PCT,USG_PCT,PACE,PIE,GAME_DATE_EST,GAME_SEQUENCE,TEAM_ABBREVIATION_y,TEAM_CITY_NAME,TEAM_WINS_LOSSES,PTS_QTR1,PTS_QTR2,PTS_QTR3,PTS_QTR4,PTS_OT1,PTS_OT2,PTS_OT3,PTS_OT4,PTS_OT5,PTS_OT6,PTS_OT7,PTS_OT8,PTS_OT9,PTS_OT10,PTS,FG_PCT,FT_PCT,FG3_PCT,AST,REB,TOV,GAME_ID_y,TEAM_ID_y,TEAM_ABBREVIATION,TEAM_CITY_y,PLAYER_NAME_y,START_POSITION_y,COMMENT_y,MIN_y,PTS_OFF_TOV,PTS_2ND_CHANCE,PTS_FB,PTS_PAINT,OPP_PTS_OFF_TOV,OPP_PTS_2ND_CHANCE,OPP_PTS_FB,OPP_PTS_PAINT,BLK,BLKA,PF,PFD
0021400794,1610612754,IND,Indiana,101139,CJ Miles,F,,22:52,140.6,70.1,70.5,0.0,0.0,0.0,0.0,0.158,0.094,14.9,0.364,0.393,0.292,91.93,0.037,2015-02-11T00:00:00,7,IND,Indiana,21-33,32,25,32,17,0,0,0,0,0,0,0,0,0,0,106,0.533,0.944,0.45,28,37,13,0021400794,1610612754,IND,Indiana,CJ Miles,F,,22:52,2.0,0.0,2.0,6.0,2.0,4.0,2.0,10.0,0.0,1.0,1.0,1.0
0021400794,1610612754,IND,Indiana,2561,David West,F,,27:34,140.1,84.9,55.1,0.333,7.0,39.1,0.133,0.13,0.132,5.6,0.889,0.86,0.193,91.89,0.25,2015-02-11T00:00:00,7,IND,Indiana,21-33,32,25,32,17,0,0,0,0,0,0,0,0,0,0,106,0.533,0.944,0.45,28,37,13,0021400794,1610612754,IND,Indiana,David West,F,,27:34,4.0,2.0,0.0,4.0,6.0,8.0,2.0,14.0,0.0,0.0,2.0,1.0
0021400794,1610612754,IND,Indiana,201579,Roy Hibbert,C,,19:03,114.6,79.5,35.1,0.077,0.5,9.7,0.0,0.333,0.188,19.4,0.5,0.615,0.236,91.62,0.127,2015-02-11T00:00:00,7,IND,Indiana,21-33,32,25,32,17,0,0,0,0,0,0,0,0,0,0,106,0.533,0.944,0.45,28,37,13,0021400794,1610612754,IND,Indiana,Roy Hibbert,C,,19:03,0.0,0.0,0.0,4.0,0.0,2.0,4.0,10.0,2.0,0.0,5.0,4.0
0021400794,1610612754,IND,Indiana,203524,Solomon Hill,G,,27:05,119.9,91.2,28.7,0.167,3.0,30.4,0.059,0.087,0.075,10.1,1.0,1.02,0.123,94.43,0.138,2015-02-11T00:00:00,7,IND,Indiana,21-33,32,25,32,17,0,0,0,0,0,0,0,0,0,0,106,0.533,0.944,0.45,28,37,13,0021400794,1610612754,IND,Indiana,Solomon Hill,G,,27:05,5.0,3.0,0.0,2.0,8.0,8.0,10.0,20.0,0.0,0.0,3.0,1.0
0021400794,1610612754,IND,Indiana,201588,George Hill,G,,28:50,126.3,76.4,49.9,0.45,9.0,42.0,0.0,0.12,0.068,4.7,0.727,0.743,0.211,90.56,0.239,2015-02-11T00:00:00,7,IND,Indiana,21-33,32,25,32,17,0,0,0,0,0,0,0,0,0,0,106,0.533,0.944,0.45,28,37,13,0021400794,1610612754,IND,Indiana,George Hill,G,,28:50,0.0,0.0,0.0,4.0,3.0,4.0,4.0,14.0,0.0,0.0,1.0,2.0
0021400794,1610612754,IND,Indiana,201228,C.J. Watson,,,26:15,103.9,117.9,-14.0,0.167,3.0,27.6,0.0,0.048,0.026,9.2,0.417,0.509,0.151,89.09,0.034,2015-02-11T00:00:00,7,IND,Indiana,21-33,32,25,32,17,0,0,0,0,0,0,0,0,0,0,106,0.533,0.944,0.45,28,37,13,0021400794,1610612754,IND,Indiana,C.J. Watson,,,26:15,0.0,0.0,0.0,0.0,13.0,4.0,4.0,28.0,0.0,1.0,3.0,2.0
0021400794,1610612754,IND,Indiana,101133,Ian Mahinmi,,,19:09,129.5,77.5,52.0,0.063,0.5,20.0,0.3,0.313,0.308,40.0,0.5,0.5,0.108,88.48,0.043,2015-02-11T00:00:00,7,IND,Indiana,21-33,32,25,32,17,0,0,0,0,0,0,0,0,0,0,106,0.533,0.944,0.45,28,37,13,0021400794,1610612754,IND,Indiana,Ian Mahinmi,,,19:09,2.0,0.0,0.0,2.0,7.0,4.0,0.0,10.0,0.0,0.0,4.0,0.0
0021400794,1610612754,IND,Indiana,201155,Rodney Stuckey,,,12:52,127.5,111.2,16.3,0.167,0.0,9.1,0.0,0.0,0.0,0.0,0.8,0.8,0.38,90.65,0.306,2015-02-11T00:00:00,7,IND,Indiana,21-33,32,25,32,17,0,0,0,0,0,0,0,0,0,0,106,0.533,0.944,0.45,28,37,13,0021400794,1610612754,IND,Indiana,Rodney Stuckey,,,12:52,5.0,0.0,2.0,8.0,6.0,4.0,0.0,10.0,0.0,0.0,1.0,1.0
0021400794,1610612754,IND,Indiana,204014,Damjan Rudez,,,19:59,102.4,126.5,-24.1,0.083,1.0,14.3,0.0,0.0,0.0,14.3,0.6,0.6,0.143,91.58,0.039,2015-02-11T00:00:00,7,IND,Indiana,21-33,32,25,32,17,0,0,0,0,0,0,0,0,0,0,106,0.533,0.944,0.45,28,37,13,0021400794,1610612754,IND,Indiana,Damjan Rudez,,,19:59,2.0,0.0,0.0,4.0,11.0,4.0,8.0,26.0,0.0,0.0,1.0,0.0
0021400794,1610612754,IND,Indiana,2449,Luis Scola,,,18:18,110.5,110.3,0.2,0.071,0.5,9.7,0.077,0.4,0.25,19.4,0.333,0.478,0.238,89.09,0.136,2015-02-11T00:00:00,7,IND,Indiana,21-33,32,25,32,17,0,0,0,0,0,0,0,0,0,0,106,0.533,0.944,0.45,28,37,13,0021400794,1610612754,IND,Indiana,Luis Scola,,,18:18,0.0,2.0,0.0,4.0,5.0,2.0,2.0,14.0,0.0,1.0,0.0,2.0
0021400794,1610612754,IND,Indiana,202388,Donald Sloan,,,6:07,54.9,174.4,-119.6,1.0,0.0,100.0,0.0,0.0,0.0,0.0,0.0,0.0,0.0,104.06,0.034,2015-02-11T00:00:00,7,IND,Indiana,21-33,32,25,32,17,0,0,0,0,0,0,0,0,0,0,106,0.533,0.944,0.45,28,37,13,0021400794,1610612754,IND,Indiana,Donald Sloan,,,6:07,0.0,0.0,0.0,0.0,8.0,2.0,8.0,18.0,0.0,0.0,0.0,1.0
0021400794,1610612754,IND,Indiana,203963,Shayne Whittington,,,5:58,59.5,174.4,-114.9,0.0,0.0,0.0,0.0,1.0,0.143,0.0,0.0,0.532,0.32,102.65,0.033,2015-02-11T00:00:00,7,IND,Indiana,21-33,32,25,32,17,0,0,0,0,0,0,0,0,0,0,106,0.533,0.944,0.45,28,37,13,0021400794,1610612754,IND,Indiana,Shayne Whittington,,,5:58,0.0,0.0,0.0,0.0,8.0,2.0,8.0,18.0,0.0,0.0,2.0,2.0
0021400794,1610612754,IND,Indiana,203142,Chris Copeland,,,5:58,59.5,174.4,-114.9,0.0,0.0,0.0,0.0,0.0,0.0,0.0,0.0,0.0,0.17,102.65,-0.1,2015-02-11T00:00:00,7,IND,Indiana,21-33,32,25,32,17,0,0,0,0,0,0,0,0,0,0,106,0.533,0.944,0.45,28,37,13,0021400794,1610612754,IND,Indiana,Chris Copeland,,,5:58,0.0,0.0,0.0,0.0,8.0,2.0,8.0,18.0,0.0,0.0,1.0,0.0
0021400794,1610612740,NOP,New Orleans,201967,Dante Cunningham,F,,21:50,87.0,131.5,-44.5,0.0,0.0,0.0,0.0,0.0,0.0,25.0,0.0,0.0,0.094,90.67,-0.072,2015-02-11T00:00:00,7,NOP,New Orleans,27-26,18,17,25,33,0,0,0,0,0,0,0,0,0,0,93,0.459,0.72,0.467,22,32,13,0021400794,1610612740,NOP,New Orleans,Dante Cunningham,F,,21:50,0.0,0.0,0.0,0.0,6.0,2.0,2.0,26.0,1.0,0.0,3.0,2.0
0021400794,1610612740,NOP,New Orleans,201582,Alexis Ajinca,F,,25:26,116.2,117.4,-1.2,0.118,0.0,14.8,0.188,0.25,0.219,0.0,0.375,0.608,0.213,92.89,0.124,2015-02-11T00:00:00,7,NOP,New Orleans,27-26,18,17,25,33,0,0,0,0,0,0,0,0,0,0,93,0.459,0.72,0.467,22,32,13,0021400794,1610612740,NOP,New Orleans,Alexis Ajinca,F,,25:26,6.0,4.0,0.0,2.0,7.0,0.0,2.0,20.0,0.0,1.0,4.0,5.0
0021400794,1610612740,NOP,New Orleans,201600,Omer Asik,C,,29:26,84.9,124.2,-39.3,0.0,0.0,0.0,0.074,0.333,0.178,20.5,0.5,0.451,0.158,91.06,0.054,2015-02-11T00:00:00,7,NOP,New Orleans,27-26,18,17,25,33,0,0,0,0,0,0,0,0,0,0,93,0.459,0.72,0.467,22,32,13,0021400794,1610612740,NOP,New Orleans,Omer Asik,C,,29:26,1.0,4.0,0.0,6.0,13.0,5.0,2.0,22.0,1.0,0.0,1.0,6.0
0021400794,1610612740,NOP,New Orleans,201569,Eric Gordon,G,,23:49,74.3,129.0,-54.7,0.182,1.0,14.3,0.0,0.071,0.028,14.3,0.3,0.3,0.235,92.75,-0.012,2015-02-11T00:00:00,7,NOP,New Orleans,27-26,18,17,25,33,0,0,0,0,0,0,0,0,0,0,93,0.459,0.72,0.467,22,32,13,0021400794,1610612740,NOP,New Orleans,Eric Gordon,G,,23:49,0.0,0.0,0.0,0.0,13.0,3.0,2.0,16.0,0.0,0.0,1.0,1.0
0021400794,1610612740,NOP,New Orleans,201936,Tyreke Evans,G,,23:39,71.4,131.9,-60.5,0.6,3.0,31.8,0.043,0.0,0.027,10.6,0.3,0.368,0.252,91.49,0.043,2015-02-11T00:00:00,7,NOP,New Orleans,27-26,18,17,25,33,0,0,0,0,0,0,0,0,0,0,93,0.459,0.72,0.467,22,32,13,0021400794,1610612740,NOP,New Orleans,Tyreke Evans,G,,23:39,0.0,0.0,4.0,2.0,13.0,3.0,2.0,16.0,0.0,0.0,3.0,1.0
0021400794,1610612740,NOP,New Orleans,203481,Jeff Withey,,,17:45,104.1,104.5,-0.5,0.0,0.0,0.0,0.0,0.333,0.154,11.3,0.714,0.698,0.231,97.24,0.165,2015-02-11T00:00:00,7,NOP,New Orleans,27-26,18,17,25,33,0,0,0,0,0,0,0,0,0,0,93,0.459,0.72,0.467,22,32,13,0021400794,1610612740,NOP,New Orleans,Jeff Withey,,,17:45,4.0,0.0,4.0,10.0,9.0,5.0,2.0,12.0,0.0,1.0,1.0,3.0
0021400794,1610612740,NOP,New Orleans,202347,Quincy Pondexter,,,20:07,91.5,120.4,-28.9,0.0,0.0,0.0,0.0,0.071,0.032,0.0,0.643,0.643,0.174,89.91,0.118,2015-02-11T00:00:00,7,NOP,New Orleans,27-26,18,17,25,33,0,0,0,0,0,0,0,0,0,0,93,0.459,0.72,0.467,22,32,13,0021400794,1610612740,NOP,New Orleans,Quincy Pondexter,,,20:07,0.0,0.0,0.0,4.0,12.0,7.0,2.0,24.0,1.0,0.0,0.0,0.0
0021400794,1610612740,NOP,New Orleans,201962,Toney Douglas,,,25:03,125.5,102.2,23.3,0.438,3.5,33.9,0.0,0.056,0.029,9.7,0.611,0.601,0.263,90.79,0.124,2015-02-11T00:00:00,7,NOP,New Orleans,27-26,18,17,25,33,0,0,0,0,0,0,0,0,0,0,93,0.459,0.72,0.467,22,32,13,0021400794,1610612740,NOP,New Orleans,Toney Douglas,,,25:03,0.0,0.0,2.0,6.0,7.0,4.0,2.0,22.0,0.0,0.0,3.0,3.0
0021400794,1610612740,NOP,New Orleans,202337,Luke Babbitt,,,34:05,118.0,107.4,10.6,0.0,0.0,0.0,0.045,0.28,0.17,11.3,0.929,0.952,0.126,91.82,0.152,2015-02-11T00:00:00,7,NOP,New Orleans,27-26,18,17,25,33,0,0,0,0,0,0,0,0,0,0,93,0.459,0.72,0.467,22,32,13,0021400794,1610612740,NOP,New Orleans,Luke Babbitt,,,34:05,4.0,2.0,2.0,4.0,13.0,4.0,4.0,28.0,0.0,0.0,0.0,1.0
0021400794,1610612740,NOP,New Orleans,202690,Jimmer Fredette,,,18:50,124.9,95.7,29.1,0.385,2.5,34.6,0.0,0.059,0.036,13.9,0.571,0.605,0.243,92.21,0.134,2015-02-11T00:00:00,7,NOP,New Orleans,27-26,18,17,25,33,0,0,0,0,0,0,0,0,0,0,93,0.459,0.72,0.467,22,32,13,0021400794,1610612740,NOP,New Orleans,Jimmer Fredette,,,18:50,2.0,0.0,0.0,8.0,7.0,2.0,0.0,4.0,0.0,0.0,1.0,2.0
0021400794,1610612740,NOP,New Orleans,201583,Ryan Anderson,,DND - Right Elbow Sprain                ,,,,,,,0.0,,,,,,,0.0,,,2015-02-11T00:00:00,7,NOP,New Orleans,27-26,18,17,25,33,0,0,0,0,0,0,0,0,0,0,93,0.459,0.72,0.467,22,32,13,0021400794,1610612740,NOP,New Orleans,Ryan Anderson,,DND - Right Elbow Sprain                ,,,,,,,,,,,,,
0021400794,1610612740,NOP,New Orleans,203076,Anthony Davis,,DNP - Coach's Decision                  ,,,,,,,0.0,,,,,,,0.0,,,2015-02-11T00:00:00,7,NOP,New Orleans,27-26,18,17,25,33,0,0,0,0,0,0,0,0,0,0,93,0.459,0.72,0.467,22,32,13,0021400794,1610612740,NOP,New Orleans,Anthony Davis,,DNP - Coach's Decision                  ,,,,,,,,,,,,,
0021400794,1610612740,NOP,New Orleans,2422,John Salmons,,DNP - Coach's Decision                  ,,,,,,,0.0,,,,,,,0.0,,,2015-02-11T00:00:00,7,NOP,New Orleans,27-26,18,17,25,33,0,0,0,0,0,0,0,0,0,0,93,0.459,0.72,0.467,22,32,13,0021400794,1610612740,NOP,New Orleans,John Salmons,,DNP - Coach's Decision                  ,,,,,,,,,,,,,
