GAME_ID_x,TEAM_ID_x,TEAM_ABBREVIATION_x,TEAM_CITY_x,PLAYER_ID,PLAYER_NAME_x,START_POSITION_x,COMMENT_x,MIN_x,OFF_RATING,DEF_RATING,NET_RATING,AST_PCT,AST_TOV,AST_RATIO,OREB_PCT,DREB_PCT,REB_PCT,TM_TOV_PCT,EFG_PCT,TS_PCT,USG_PCT,PACE,PIE,GAME_DATE_EST,GAME_SEQUENCE,TEAM_ABBREVIATION_y,TEAM_CITY_NAME,TEAM_WINS_LOSSES,PTS_QTR1,PTS_QTR2,PTS_QTR3,PTS_QTR4,PTS_OT1,PTS_OT2,PTS_OT3,PTS_OT4,PTS_OT5,PTS_OT6,PTS_OT7,PTS_OT8,PTS_OT9,PTS_OT10,PTS,FG_PCT,FT_PCT,FG3_PCT,AST,REB,TOV,GAME_ID_y,TEAM_ID_y,TEAM_ABBREVIATION,TEAM_CITY_y,PLAYER_NAME_y,START_POSITION_y,COMMENT_y,MIN_y,PTS_OFF_TOV,PTS_2ND_CHANCE,PTS_FB,PTS_PAINT,OPP_PTS_OFF_TOV,OPP_PTS_2ND_CHANCE,OPP_PTS_FB,OPP_PTS_PAINT,BLK,BLKA,PF,PFD
0021400834,1610612751,BKN,Brooklyn,2207,Joe Johnson,F,,28:14,107.8,82.9,24.9,0.0,0.0,0.0,0.0,0.235,0.127,7.1,0.462,0.462,0.208,103.78,0.16,2015-02-23T00:00:00,5,BKN,Brooklyn,23-31,26,28,31,25,0,0,0,0,0,0,0,0,0,0,110,0.467,0.87,0.19,21,57,10,0021400834,1610612751,BKN,Brooklyn,Joe Johnson,F,,28:14,0.0,0.0,4.0,10.0,2.0,10.0,10.0,24.0,3.0,0.0,0.0,1.0
0021400834,1610612751,BKN,Brooklyn,101187,Alan Anderson,F,,28:15,108.5,99.7,8.8,0.048,0.0,10.0,0.042,0.094,0.071,0.0,0.722,0.722,0.143,101.2,0.11,2015-02-23T00:00:00,5,BKN,Brooklyn,23-31,26,28,31,25,0,0,0,0,0,0,0,0,0,0,110,0.467,0.87,0.19,21,57,10,0021400834,1610612751,BKN,Brooklyn,Alan Anderson,F,,28:15,0.0,2.0,0.0,4.0,4.0,12.0,8.0,28.0,0.0,1.0,3.0,0.0
0021400834,1610612751,BKN,Brooklyn,203486,Mason Plumlee,C,,16:19,105.8,100.7,5.1,0.0,0.0,0.0,0.0,0.238,0.152,19.6,0.833,0.854,0.308,98.31,0.188,2015-02-23T00:00:00,5,BKN,Brooklyn,23-31,26,28,31,25,0,0,0,0,0,0,0,0,0,0,110,0.467,0.87,0.19,21,57,10,0021400834,1610612751,BKN,Brooklyn,Mason Plumlee,C,,16:19,2.0,0.0,2.0,10.0,0.0,10.0,2.0,12.0,0.0,0.0,3.0,3.0
0021400834,1610612751,BKN,Brooklyn,203900,Markel Brown,G,,45:11,110.6,84.5,26.1,0.056,2.0,12.6,0.047,0.155,0.109,6.3,0.333,0.388,0.13,99.75,0.104,2015-02-23T00:00:00,5,BKN,Brooklyn,23-31,26,28,31,25,0,0,0,0,0,0,0,0,0,0,110,0.467,0.87,0.19,21,57,10,0021400834,1610612751,BKN,Brooklyn,Markel Brown,G,,45:11,6.0,2.0,4.0,6.0,6.0,20.0,10.0,36.0,4.0,2.0,2.0,3.0
0021400834,1610612751,BKN,Brooklyn,101114,Deron Williams,G,,33:12,109.4,82.0,27.4,0.522,12.0,40.3,0.0,0.116,0.068,3.4,0.4,0.477,0.227,102.88,0.211,2015-02-23T00:00:00,5,BKN,Brooklyn,23-31,26,28,31,25,0,0,0,0,0,0,0,0,0,0,110,0.467,0.87,0.19,21,57,10,0021400834,1610612751,BKN,Brooklyn,Deron Williams,G,,33:12,2.0,0.0,0.0,8.0,4.0,11.0,12.0,28.0,0.0,0.0,2.0,5.0
0021400834,1610612751,BKN,Brooklyn,201572,Brook Lopez,,,31:41,115.3,72.8,42.5,0.0,0.0,0.0,0.188,0.073,0.123,0.0,0.353,0.463,0.26,99.2,0.117,2015-02-23T00:00:00,5,BKN,Brooklyn,23-31,26,28,31,25,0,0,0,0,0,0,0,0,0,0,110,0.467,0.87,0.19,21,57,10,0021400834,1610612751,BKN,Brooklyn,Brook Lopez,,,31:41,0.0,9.0,0.0,6.0,6.0,10.0,10.0,26.0,0.0,0.0,3.0,6.0
0021400834,1610612751,BKN,Brooklyn,203508,Sergey Karasev,,,9:44,121.8,69.3,52.5,0.0,0.0,0.0,0.0,0.125,0.083,50.0,0.0,0.0,0.087,92.81,-0.035,2015-02-23T00:00:00,5,BKN,Brooklyn,23-31,26,28,31,25,0,0,0,0,0,0,0,0,0,0,110,0.467,0.87,0.19,21,57,10,0021400834,1610612751,BKN,Brooklyn,Sergey Karasev,,,9:44,0.0,0.0,0.0,0.0,2.0,4.0,2.0,6.0,0.0,0.0,1.0,1.0
0021400834,1610612751,BKN,Brooklyn,201152,Thaddeus Young,,,23:39,120.8,74.0,46.8,0.063,0.33,6.3,0.095,0.091,0.093,18.9,0.591,0.631,0.273,92.83,0.162,2015-02-23T00:00:00,5,BKN,Brooklyn,23-31,26,28,31,25,0,0,0,0,0,0,0,0,0,0,110,0.467,0.87,0.19,21,57,10,0021400834,1610612751,BKN,Brooklyn,Thaddeus Young,,,23:39,9.0,2.0,0.0,8.0,4.0,10.0,6.0,18.0,1.0,0.0,3.0,2.0
0021400834,1610612751,BKN,Brooklyn,202721,Darius Morris,,,14:49,118.9,82.9,36.0,0.333,4.0,44.4,0.154,0.053,0.094,11.1,0.5,0.5,0.148,89.98,0.156,2015-02-23T00:00:00,5,BKN,Brooklyn,23-31,26,28,31,25,0,0,0,0,0,0,0,0,0,0,110,0.467,0.87,0.19,21,57,10,0021400834,1610612751,BKN,Brooklyn,Darius Morris,,,14:49,0.0,2.0,2.0,4.0,2.0,9.0,0.0,10.0,0.0,0.0,0.0,0.0
0021400834,1610612751,BKN,Brooklyn,203928,Cory Jefferson,,,8:57,113.4,41.8,71.6,0.2,0.0,17.0,0.143,0.308,0.25,0.0,0.75,0.717,0.227,94.61,0.8,2015-02-23T00:00:00,5,BKN,Brooklyn,23-31,26,28,31,25,0,0,0,0,0,0,0,0,0,0,110,0.467,0.87,0.19,21,57,10,0021400834,1610612751,BKN,Brooklyn,Cory Jefferson,,,8:57,0.0,4.0,0.0,6.0,0.0,4.0,0.0,2.0,1.0,0.0,0.0,3.0
0021400834,1610612751,BKN,Brooklyn,202711,Bojan Bogdanovic,,DNP - Coach's Decision                  ,,,,,,,0.0,,,,,,,0.0,,,2015-02-23T00:00:00,5,BKN,Brooklyn,23-31,26,28,31,25,0,0,0,0,0,0,0,0,0,0,110,0.467,0.87,0.19,21,57,10,0021400834,1610612751,BKN,Brooklyn,Bojan Bogdanovic,,DNP - Coach's Decision                  ,,,,,,,,,,,,,
0021400834,1610612751,BKN,Brooklyn,101127,Jarrett Jack,,DNP - Coach's Decision                  ,,,,,,,0.0,,,,,,,0.0,,,2015-02-23T00:00:00,5,BKN,Brooklyn,23-31,26,28,31,25,0,0,0,0,0,0,0,0,0,0,110,0.467,0.87,0.19,21,57,10,0021400834,1610612751,BKN,Brooklyn,Jarrett Jack,,DNP - Coach's Decision                  ,,,,,,,,,,,,,
0021400834,1610612751,BKN,Brooklyn,202366,Jerome Jordan,,DNP - Coach's Decision                  ,,,,,,,0.0,,,,,,,0.0,,,2015-02-23T00:00:00,5,BKN,Brooklyn,23-31,26,28,31,25,0,0,0,0,0,0,0,0,0,0,110,0.467,0.87,0.19,21,57,10,0021400834,1610612751,BKN,Brooklyn,Jerome Jordan,,DNP - Coach's Decision                  ,,,,,,,,,,,,,
0021400834,1610612743,DEN,Denver,201568,Danilo Gallinari,F,,30:26,86.3,116.4,-30.0,0.071,0.0,6.6,0.0,0.08,0.031,0.0,0.708,0.775,0.184,102.23,0.197,2015-02-23T00:00:00,5,DEN,Denver,20-36,23,22,24,13,0,0,0,0,0,0,0,0,0,0,82,0.33,0.591,0.259,18,49,13,0021400834,1610612743,DEN,Denver,Danilo Gallinari,F,,30:26,0.0,3.0,0.0,4.0,14.0,9.0,8.0,40.0,0.0,1.0,1.0,5.0
0021400834,1610612743,DEN,Denver,201589,Darrell Arthur,F,,23:01,91.4,123.5,-32.1,0.0,0.0,0.0,0.172,0.1,0.143,0.0,0.333,0.333,0.267,100.89,-0.006,2015-02-23T00:00:00,5,DEN,Denver,20-36,23,22,24,13,0,0,0,0,0,0,0,0,0,0,82,0.33,0.591,0.259,18,49,13,0021400834,1610612743,DEN,Denver,Darrell Arthur,F,,23:01,0.0,8.0,2.0,6.0,8.0,11.0,6.0,38.0,0.0,1.0,5.0,0.0
0021400834,1610612743,DEN,Denver,203994,Jusuf Nurkic,C,,25:19,93.6,99.1,-5.5,0.067,1.0,7.8,0.133,0.222,0.175,7.8,0.3,0.322,0.194,98.36,0.043,2015-02-23T00:00:00,5,DEN,Denver,20-36,23,22,24,13,0,0,0,0,0,0,0,0,0,0,82,0.33,0.591,0.259,18,49,13,0021400834,1610612743,DEN,Denver,Jusuf Nurkic,C,,25:19,0.0,3.0,0.0,6.0,6.0,13.0,6.0,28.0,0.0,2.0,5.0,1.0
0021400834,1610612743,DEN,Denver,203914,Gary Harris,G,,26:07,81.9,106.2,-24.3,0.0,0.0,0.0,0.03,0.045,0.036,7.0,0.375,0.375,0.227,100.66,-0.025,2015-02-23T00:00:00,5,DEN,Denver,20-36,23,22,24,13,0,0,0,0,0,0,0,0,0,0,82,0.33,0.591,0.259,18,49,13,0021400834,1610612743,DEN,Denver,Gary Harris,G,,26:07,0.0,2.0,2.0,6.0,8.0,7.0,10.0,34.0,1.0,0.0,3.0,3.0
0021400834,1610612743,DEN,Denver,201951,Ty Lawson,G,,31:53,78.8,114.1,-35.3,0.556,2.5,45.7,0.0,0.172,0.069,18.3,0.429,0.381,0.143,104.93,0.095,2015-02-23T00:00:00,5,DEN,Denver,20-36,23,22,24,13,0,0,0,0,0,0,0,0,0,0,82,0.33,0.591,0.259,18,49,13,0021400834,1610612743,DEN,Denver,Ty Lawson,G,,31:53,4.0,0.0,2.0,6.0,17.0,13.0,8.0,42.0,0.0,0.0,2.0,2.0
0021400834,1610612743,DEN,Denver,203530,Joffrey Lauvergne,,,20:21,62.2,119.6,-57.4,0.2,0.67,18.2,0.1,0.5,0.214,27.3,0.0,0.0,0.179,101.47,0.007,2015-02-23T00:00:00,5,DEN,Denver,20-36,23,22,24,13,0,0,0,0,0,0,0,0,0,0,82,0.33,0.591,0.259,18,49,13,0021400834,1610612743,DEN,Denver,Joffrey Lauvergne,,,20:21,0.0,0.0,0.0,0.0,11.0,4.0,8.0,30.0,0.0,1.0,2.0,0.0
0021400834,1610612743,DEN,Denver,202702,Kenneth Faried,,,12:45,80.0,112.5,-32.6,0.143,1.0,12.9,0.176,0.167,0.172,12.9,0.25,0.347,0.22,91.51,0.0,2015-02-23T00:00:00,5,DEN,Denver,20-36,23,22,24,13,0,0,0,0,0,0,0,0,0,0,82,0.33,0.591,0.259,18,49,13,0021400834,1610612743,DEN,Denver,Kenneth Faried,,,12:45,0.0,2.0,2.0,2.0,7.0,8.0,0.0,16.0,1.0,0.0,3.0,3.0
0021400834,1610612743,DEN,Denver,200751,Randy Foye,,,20:01,64.4,114.2,-49.9,0.125,0.0,10.1,0.034,0.105,0.062,0.0,0.313,0.282,0.183,94.65,-0.01,2015-02-23T00:00:00,5,DEN,Denver,20-36,23,22,24,13,0,0,0,0,0,0,0,0,0,0,82,0.33,0.591,0.259,18,49,13,0021400834,1610612743,DEN,Denver,Randy Foye,,,20:01,0.0,0.0,0.0,2.0,7.0,12.0,4.0,28.0,0.0,2.0,1.0,1.0
0021400834,1610612743,DEN,Denver,203115,Will Barton,,,21:28,85.9,100.8,-14.9,0.111,1.0,6.8,0.083,0.08,0.082,6.8,0.5,0.588,0.253,99.59,0.176,2015-02-23T00:00:00,5,DEN,Denver,20-36,23,22,24,13,0,0,0,0,0,0,0,0,0,0,82,0.33,0.591,0.259,18,49,13,0021400834,1610612743,DEN,Denver,Will Barton,,,21:28,2.0,2.0,4.0,6.0,9.0,12.0,4.0,22.0,0.0,2.0,0.0,2.0
0021400834,1610612743,DEN,Denver,201581,JJ Hickson,,,2:15,175.0,100.0,75.0,0.0,0.0,0.0,0.0,0.0,0.0,0.0,0.0,0.0,0.0,85.33,0.0,2015-02-23T00:00:00,5,DEN,Denver,20-36,23,22,24,13,0,0,0,0,0,0,0,0,0,0,82,0.33,0.591,0.259,18,49,13,0021400834,1610612743,DEN,Denver,JJ Hickson,,,2:15,0.0,0.0,0.0,0.0,0.0,2.0,0.0,4.0,0.0,0.0,0.0,0.0
0021400834,1610612743,DEN,Denver,2749,Jameer Nelson,,,11:29,103.8,110.2,-6.4,0.125,1.0,20.0,0.0,0.077,0.04,20.0,0.0,0.0,0.147,87.95,-0.103,2015-02-23T00:00:00,5,DEN,Denver,20-36,23,22,24,13,0,0,0,0,0,0,0,0,0,0,82,0.33,0.591,0.259,18,49,13,0021400834,1610612743,DEN,Denver,Jameer Nelson,,,11:29,0.0,0.0,0.0,0.0,4.0,6.0,2.0,12.0,1.0,0.0,2.0,0.0
0021400834,1610612743,DEN,Denver,203475,Erick Green,,,14:55,69.5,119.7,-50.2,0.0,0.0,0.0,0.0,0.083,0.029,14.3,0.25,0.25,0.185,91.97,-0.049,2015-02-23T00:00:00,5,DEN,Denver,20-36,23,22,24,13,0,0,0,0,0,0,0,0,0,0,82,0.33,0.591,0.259,18,49,13,0021400834,1610612743,DEN,Denver,Erick Green,,,14:55,0.0,0.0,0.0,0.0,4.0,8.0,4.0,16.0,0.0,0.0,0.0,0.0
0021400834,1610612743,DEN,Denver,201163,Wilson Chandler,,DND - Left Adductors Soreness           ,,,,,,,0.0,,,,,,,0.0,,,2015-02-23T00:00:00,5,DEN,Denver,20-36,23,22,24,13,0,0,0,0,0,0,0,0,0,0,82,0.33,0.591,0.259,18,49,13,0021400834,1610612743,DEN,Denver,Wilson Chandler,,DND - Left Adductors Soreness           ,,,,,,,,,,,,,
