GAME_ID_x,TEAM_ID_x,TEAM_ABBREVIATION_x,TEAM_CITY_x,PLAYER_ID,PLAYER_NAME_x,START_POSITION_x,COMMENT_x,MIN_x,OFF_RATING,DEF_RATING,NET_RATING,AST_PCT,AST_TOV,AST_RATIO,OREB_PCT,DREB_PCT,REB_PCT,TM_TOV_PCT,EFG_PCT,TS_PCT,USG_PCT,PACE,PIE,GAME_DATE_EST,GAME_SEQUENCE,TEAM_ABBREVIATION_y,TEAM_CITY_NAME,TEAM_WINS_LOSSES,PTS_QTR1,PTS_QTR2,PTS_QTR3,PTS_QTR4,PTS_OT1,PTS_OT2,PTS_OT3,PTS_OT4,PTS_OT5,PTS_OT6,PTS_OT7,PTS_OT8,PTS_OT9,PTS_OT10,PTS,FG_PCT,FT_PCT,FG3_PCT,AST,REB,TOV,GAME_ID_y,TEAM_ID_y,TEAM_ABBREVIATION,TEAM_CITY_y,PLAYER_NAME_y,START_POSITION_y,COMMENT_y,MIN_y,PTS_OFF_TOV,PTS_2ND_CHANCE,PTS_FB,PTS_PAINT,OPP_PTS_OFF_TOV,OPP_PTS_2ND_CHANCE,OPP_PTS_FB,OPP_PTS_PAINT,BLK,BLKA,PF,PFD
0021400830,1610612755,PHI,Philadelphia,201601,Luc Mbah a Moute,F,,30:28,103.7,109.0,-5.4,0.091,0.0,14.4,0.0,0.227,0.1,0.0,0.318,0.295,0.181,97.76,0.03,2015-02-23T00:00:00,1,PHI,Philadelphia,12-44,31,29,19,29,0,0,0,0,0,0,0,0,0,0,108,0.476,0.536,0.419,27,33,12,0021400830,1610612755,PHI,Philadelphia,Luc Mbah a Moute,F,,30:28,2.0,0.0,0.0,2.0,8.0,2.0,14.0,30.0,1.0,0.0,1.0,1.0
0021400830,1610612755,PHI,Philadelphia,203156,Henry Sims,F,,17:56,99.1,120.4,-21.3,0.3,3.0,26.5,0.0,0.188,0.088,8.8,0.833,0.82,0.212,96.41,0.197,2015-02-23T00:00:00,1,PHI,Philadelphia,12-44,31,29,19,29,0,0,0,0,0,0,0,0,0,0,108,0.476,0.536,0.419,27,33,12,0021400830,1610612755,PHI,Philadelphia,Henry Sims,F,,17:56,0.0,0.0,2.0,6.0,8.0,2.0,12.0,18.0,1.0,0.0,1.0,3.0
0021400830,1610612755,PHI,Philadelphia,203457,Nerlens Noel,C,,31:02,108.6,104.9,3.7,0.118,0.0,12.2,0.071,0.172,0.123,0.0,0.5,0.625,0.216,95.68,0.163,2015-02-23T00:00:00,1,PHI,Philadelphia,12-44,31,29,19,29,0,0,0,0,0,0,0,0,0,0,108,0.476,0.536,0.419,27,33,12,0021400830,1610612755,PHI,Philadelphia,Nerlens Noel,C,,31:02,1.0,2.0,0.0,6.0,10.0,6.0,10.0,26.0,4.0,0.0,4.0,6.0
0021400830,1610612755,PHI,Philadelphia,203496,Robert Covington,G,,33:50,108.9,116.5,-7.6,0.091,0.0,10.9,0.067,0.074,0.07,0.0,0.5,0.49,0.215,98.23,0.086,2015-02-23T00:00:00,1,PHI,Philadelphia,12-44,31,29,19,29,0,0,0,0,0,0,0,0,0,0,108,0.476,0.536,0.419,27,33,12,0021400830,1610612755,PHI,Philadelphia,Robert Covington,G,,33:50,5.0,2.0,5.0,6.0,12.0,6.0,14.0,34.0,0.0,0.0,4.0,2.0
0021400830,1610612755,PHI,Philadelphia,203477,Isaiah Canaan,G,,29:37,110.2,116.8,-6.7,0.158,1.0,20.0,0.04,0.0,0.021,20.0,0.611,0.611,0.193,94.16,0.032,2015-02-23T00:00:00,1,PHI,Philadelphia,12-44,31,29,19,29,0,0,0,0,0,0,0,0,0,0,108,0.476,0.536,0.419,27,33,12,0021400830,1610612755,PHI,Philadelphia,Isaiah Canaan,G,,29:37,0.0,0.0,0.0,0.0,12.0,6.0,10.0,28.0,0.0,0.0,3.0,1.0
0021400830,1610612755,PHI,Philadelphia,203138,Hollis Thompson,,,27:32,109.7,128.4,-18.7,0.063,0.5,7.2,0.0,0.059,0.024,14.4,1.0,1.011,0.197,100.52,0.153,2015-02-23T00:00:00,1,PHI,Philadelphia,12-44,31,29,19,29,0,0,0,0,0,0,0,0,0,0,108,0.476,0.536,0.419,27,33,12,0021400830,1610612755,PHI,Philadelphia,Hollis Thompson,,,27:32,5.0,3.0,5.0,0.0,11.0,4.0,8.0,32.0,0.0,0.0,1.0,1.0
0021400830,1610612755,PHI,Philadelphia,203960,JaKarr Sampson,,,20:18,115.1,119.9,-4.9,0.125,1.0,15.5,0.067,0.333,0.185,15.5,0.25,0.282,0.243,101.58,0.027,2015-02-23T00:00:00,1,PHI,Philadelphia,12-44,31,29,19,29,0,0,0,0,0,0,0,0,0,0,108,0.476,0.536,0.419,27,33,12,0021400830,1610612755,PHI,Philadelphia,JaKarr Sampson,,,20:18,2.0,0.0,1.0,4.0,9.0,2.0,4.0,26.0,2.0,3.0,1.0,2.0
0021400830,1610612755,PHI,Philadelphia,204025,Tim Frazier,,,11:55,131.0,140.0,-9.0,0.308,0.0,68.0,0.0,0.0,0.0,0.0,0.0,0.0,0.065,102.63,0.027,2015-02-23T00:00:00,1,PHI,Philadelphia,12-44,31,29,19,29,0,0,0,0,0,0,0,0,0,0,108,0.476,0.536,0.419,27,33,12,0021400830,1610612755,PHI,Philadelphia,Tim Frazier,,,11:55,0.0,0.0,0.0,0.0,3.0,0.0,4.0,18.0,0.0,0.0,0.0,1.0
0021400830,1610612755,PHI,Philadelphia,201580,JaVale McGee,,,11:54,94.9,150.7,-55.8,0.111,0.0,16.7,0.083,0.2,0.118,0.0,0.6,0.6,0.159,111.67,0.096,2015-02-23T00:00:00,1,PHI,Philadelphia,12-44,31,29,19,29,0,0,0,0,0,0,0,0,0,0,108,0.476,0.536,0.419,27,33,12,0021400830,1610612755,PHI,Philadelphia,JaVale McGee,,,11:54,0.0,2.0,0.0,6.0,5.0,0.0,6.0,16.0,0.0,0.0,0.0,0.0
0021400830,1610612755,PHI,Philadelphia,202397,Ish Smith,,,23:34,105.4,133.6,-28.2,0.467,1.75,35.4,0.043,0.125,0.077,20.2,0.429,0.4,0.227,101.72,0.049,2015-02-23T00:00:00,1,PHI,Philadelphia,12-44,31,29,19,29,0,0,0,0,0,0,0,0,0,0,108,0.476,0.536,0.419,27,33,12,0021400830,1610612755,PHI,Philadelphia,Ish Smith,,,23:34,1.0,2.0,0.0,6.0,7.0,2.0,8.0,28.0,0.0,0.0,3.0,3.0
0021400830,1610612755,PHI,Philadelphia,203128,Furkan Aldemir,,,1:54,175.0,100.0,75.0,0.0,0.0,0.0,0.5,1.0,0.667,0.0,1.0,1.0,0.4,101.05,0.393,2015-02-23T00:00:00,1,PHI,Philadelphia,12-44,31,29,19,29,0,0,0,0,0,0,0,0,0,0,108,0.476,0.536,0.419,27,33,12,0021400830,1610612755,PHI,Philadelphia,Furkan Aldemir,,,1:54,0.0,2.0,0.0,4.0,0.0,0.0,0.0,4.0,0.0,0.0,0.0,0.0
0021400830,1610612755,PHI,Philadelphia,203924,Jerami Grant,,DND - Lower Back Contusion              ,,,,,,,0.0,,,,,,,0.0,,,2015-02-23T00:00:00,1,PHI,Philadelphia,12-44,31,29,19,29,0,0,0,0,0,0,0,0,0,0,108,0.476,0.536,0.419,27,33,12,0021400830,1610612755,PHI,Philadelphia,Jerami Grant,,DND - Lower Back Contusion              ,,,,,,,,,,,,,
0021400830,1610612755,PHI,Philadelphia,2202,Jason Richardson,,DND - Left Knee Contusion               ,,,,,,,0.0,,,,,,,0.0,,,2015-02-23T00:00:00,1,PHI,Philadelphia,12-44,31,29,19,29,0,0,0,0,0,0,0,0,0,0,108,0.476,0.536,0.419,27,33,12,0021400830,1610612755,PHI,Philadelphia,Jason Richardson,,DND - Left Knee Contusion               ,,,,,,,,,,,,,
0021400830,1610612748,MIA,Miami,2736,Luol Deng,F,,32:49,132.3,102.6,29.6,0.08,2.0,10.7,0.0,0.097,0.056,5.3,0.929,0.92,0.22,97.5,0.183,2015-02-23T00:00:00,1,MIA,Miami,24-31,32,29,30,28,0,0,0,0,0,0,0,0,0,0,119,0.554,0.727,0.524,27,45,16,0021400830,1610612748,MIA,Miami,Luol Deng,F,,32:49,4.0,0.0,6.0,10.0,9.0,4.0,10.0,26.0,0.0,0.0,1.0,2.0
0021400830,1610612748,MIA,Miami,2617,Udonis Haslem,F,,22:38,99.0,100.6,-1.6,0.0,0.0,0.0,0.087,0.217,0.152,25.0,0.333,0.333,0.147,100.99,0.041,2015-02-23T00:00:00,1,MIA,Miami,24-31,32,29,30,28,0,0,0,0,0,0,0,0,0,0,119,0.554,0.727,0.524,27,45,16,0021400830,1610612748,MIA,Miami,Udonis Haslem,F,,22:38,0.0,0.0,0.0,2.0,10.0,4.0,10.0,18.0,0.0,0.0,2.0,1.0
0021400830,1610612748,MIA,Miami,202355,Hassan Whiteside,C,,27:41,125.4,100.1,25.4,0.0,0.0,0.0,0.158,0.407,0.304,0.0,0.625,0.615,0.156,97.58,0.152,2015-02-23T00:00:00,1,MIA,Miami,24-31,32,29,30,28,0,0,0,0,0,0,0,0,0,0,119,0.554,0.727,0.524,27,45,16,0021400830,1610612748,MIA,Miami,Hassan Whiteside,C,,27:41,0.0,2.0,0.0,8.0,9.0,2.0,10.0,20.0,0.0,2.0,1.0,3.0
0021400830,1610612748,MIA,Miami,2548,Dwyane Wade,G,,23:09,120.2,101.7,18.5,0.286,0.67,15.9,0.0,0.136,0.075,23.8,0.538,0.592,0.403,97.24,0.112,2015-02-23T00:00:00,1,MIA,Miami,24-31,32,29,30,28,0,0,0,0,0,0,0,0,0,0,119,0.554,0.727,0.524,27,45,16,0021400830,1610612748,MIA,Miami,Dwyane Wade,G,,23:09,6.0,0.0,8.0,10.0,7.0,2.0,7.0,18.0,0.0,1.0,2.0,2.0
0021400830,1610612748,MIA,Miami,201609,Goran Dragic,G,,33:03,129.4,102.9,26.5,0.4,3.33,34.8,0.045,0.034,0.039,10.4,0.714,0.73,0.247,99.37,0.173,2015-02-23T00:00:00,1,MIA,Miami,24-31,32,29,30,28,0,0,0,0,0,0,0,0,0,0,119,0.554,0.727,0.524,27,45,16,0021400830,1610612748,MIA,Miami,Goran Dragic,G,,33:03,0.0,0.0,2.0,10.0,10.0,2.0,10.0,26.0,0.0,1.0,2.0,2.0
0021400830,1610612748,MIA,Miami,201611,Henry Walker,,,21:08,113.1,122.3,-9.2,0.0,0.0,0.0,0.0,0.056,0.033,16.7,1.1,1.1,0.132,100.29,0.083,2015-02-23T00:00:00,1,MIA,Miami,24-31,32,29,30,28,0,0,0,0,0,0,0,0,0,0,119,0.554,0.727,0.524,27,45,16,0021400830,1610612748,MIA,Miami,Henry Walker,,,21:08,3.0,0.0,0.0,2.0,9.0,9.0,5.0,22.0,0.0,0.0,1.0,1.0
0021400830,1610612748,MIA,Miami,201596,Mario Chalmers,,,21:22,130.9,106.1,24.8,0.316,6.0,38.9,0.077,0.059,0.067,6.5,0.563,0.533,0.188,101.45,0.076,2015-02-23T00:00:00,1,MIA,Miami,24-31,32,29,30,28,0,0,0,0,0,0,0,0,0,0,119,0.554,0.727,0.524,27,45,16,0021400830,1610612748,MIA,Miami,Mario Chalmers,,,21:22,2.0,0.0,2.0,4.0,6.0,9.0,3.0,18.0,0.0,2.0,5.0,3.0
0021400830,1610612748,MIA,Miami,2365,Chris Andersen,,,16:50,125.4,109.6,15.8,0.0,0.0,0.0,0.333,0.333,0.333,0.0,0.667,0.84,0.119,102.03,0.211,2015-02-23T00:00:00,1,MIA,Miami,24-31,32,29,30,28,0,0,0,0,0,0,0,0,0,0,119,0.554,0.727,0.524,27,45,16,0021400830,1610612748,MIA,Miami,Chris Andersen,,,16:50,2.0,4.0,0.0,4.0,4.0,9.0,0.0,16.0,2.0,1.0,2.0,3.0
0021400830,1610612748,MIA,Miami,203516,James Ennis III,,,20:30,122.5,119.5,3.0,0.111,2.0,18.2,0.0,0.059,0.031,9.1,0.188,0.188,0.197,98.72,-0.055,2015-02-23T00:00:00,1,MIA,Miami,24-31,32,29,30,28,0,0,0,0,0,0,0,0,0,0,119,0.554,0.727,0.524,27,45,16,0021400830,1610612748,MIA,Miami,James Ennis III,,,20:30,0.0,0.0,0.0,0.0,7.0,11.0,4.0,18.0,1.0,1.0,3.0,1.0
0021400830,1610612748,MIA,Miami,203894,Shabazz Napier,,,13:53,115.3,113.2,2.1,0.167,2.0,50.0,0.0,0.273,0.143,25.0,0.0,0.0,0.063,96.88,0.065,2015-02-23T00:00:00,1,MIA,Miami,24-31,32,29,30,28,0,0,0,0,0,0,0,0,0,0,119,0.554,0.727,0.524,27,45,16,0021400830,1610612748,MIA,Miami,Shabazz Napier,,,13:53,0.0,0.0,0.0,0.0,3.0,9.0,0.0,10.0,0.0,0.0,0.0,0.0
0021400830,1610612748,MIA,Miami,204020,Tyler Johnson,,,3:29,57.1,174.4,-117.3,1.0,0.0,25.0,0.0,0.25,0.125,0.0,0.333,0.333,0.429,95.63,0.1,2015-02-23T00:00:00,1,MIA,Miami,24-31,32,29,30,28,0,0,0,0,0,0,0,0,0,0,119,0.554,0.727,0.524,27,45,16,0021400830,1610612748,MIA,Miami,Tyler Johnson,,,3:29,0.0,0.0,0.0,2.0,3.0,2.0,3.0,4.0,0.0,0.0,0.0,0.0
0021400830,1610612748,MIA,Miami,204054,Zoran Dragic,,,3:29,57.1,174.4,-117.3,0.0,0.0,0.0,0.0,0.0,0.0,0.0,0.0,0.0,0.0,95.63,-0.05,2015-02-23T00:00:00,1,MIA,Miami,24-31,32,29,30,28,0,0,0,0,0,0,0,0,0,0,119,0.554,0.727,0.524,27,45,16,0021400830,1610612748,MIA,Miami,Zoran Dragic,,,3:29,0.0,0.0,0.0,0.0,3.0,2.0,3.0,4.0,0.0,0.0,1.0,0.0
