GAME_ID_x,TEAM_ID_x,TEAM_ABBREVIATION_x,TEAM_CITY_x,PLAYER_ID,PLAYER_NAME_x,START_POSITION_x,COMMENT_x,MIN_x,OFF_RATING,DEF_RATING,NET_RATING,AST_PCT,AST_TOV,AST_RATIO,OREB_PCT,DREB_PCT,REB_PCT,TM_TOV_PCT,EFG_PCT,TS_PCT,USG_PCT,PACE,PIE,GAME_DATE_EST,GAME_SEQUENCE,TEAM_ABBREVIATION_y,TEAM_CITY_NAME,TEAM_WINS_LOSSES,PTS_QTR1,PTS_QTR2,PTS_QTR3,PTS_QTR4,PTS_OT1,PTS_OT2,PTS_OT3,PTS_OT4,PTS_OT5,PTS_OT6,PTS_OT7,PTS_OT8,PTS_OT9,PTS_OT10,PTS,FG_PCT,FT_PCT,FG3_PCT,AST,REB,TOV,GAME_ID_y,TEAM_ID_y,TEAM_ABBREVIATION,TEAM_CITY_y,PLAYER_NAME_y,START_POSITION_y,COMMENT_y,MIN_y,PTS_OFF_TOV,PTS_2ND_CHANCE,PTS_FB,PTS_PAINT,OPP_PTS_OFF_TOV,OPP_PTS_2ND_CHANCE,OPP_PTS_FB,OPP_PTS_PAINT,BLK,BLKA,PF,PFD
0021400840,1610612754,IND,Indiana,203524,Solomon Hill,F,,24:16,113.4,102.4,11.0,0.167,0.0,25.3,0.0,0.13,0.061,0.0,0.625,0.619,0.16,96.26,0.106,2015-02-24T00:00:00,3,IND,Indiana,23-34,20,22,27,23,0,0,0,0,0,0,0,0,0,0,92,0.432,0.636,0.346,26,48,13,0021400840,1610612754,IND,Indiana,Solomon Hill,F,,24:16,0,0,0,2,8,6,13,26,0,2,1,1
0021400840,1610612754,IND,Indiana,2561,David West,F,,25:51,95.3,115.7,-20.4,0.125,2.0,11.8,0.063,0.19,0.113,5.9,0.385,0.396,0.242,99.43,0.056,2015-02-24T00:00:00,3,IND,Indiana,23-34,20,22,27,23,0,0,0,0,0,0,0,0,0,0,92,0.432,0.636,0.346,26,48,13,0021400840,1610612754,IND,Indiana,David West,F,,25:51,0,2,0,6,10,9,17,34,0,1,2,2
0021400840,1610612754,IND,Indiana,201579,Roy Hibbert,C,,24:33,107.7,96.4,11.3,0.0,0.0,0.0,0.115,0.318,0.208,20.0,0.375,0.375,0.175,99.64,0.05,2015-02-24T00:00:00,3,IND,Indiana,23-34,20,22,27,23,0,0,0,0,0,0,0,0,0,0,92,0.432,0.636,0.346,26,48,13,0021400840,1610612754,IND,Indiana,Roy Hibbert,C,,24:33,2,4,0,4,6,8,13,26,1,1,3,0
0021400840,1610612754,IND,Indiana,101139,CJ Miles,G,,27:05,101.6,104.2,-2.6,0.0,0.0,0.0,0.034,0.042,0.038,12.2,0.714,0.727,0.269,99.85,0.128,2015-02-24T00:00:00,3,IND,Indiana,23-34,20,22,27,23,0,0,0,0,0,0,0,0,0,0,92,0.432,0.636,0.346,26,48,13,0021400840,1610612754,IND,Indiana,CJ Miles,G,,27:05,9,2,2,8,8,9,15,32,0,0,2,0
0021400840,1610612754,IND,Indiana,201588,George Hill,G,,29:23,96.6,105.3,-8.7,0.4,8.0,36.6,0.0,0.074,0.034,4.6,0.458,0.505,0.207,100.3,0.131,2015-02-24T00:00:00,3,IND,Indiana,23-34,20,22,27,23,0,0,0,0,0,0,0,0,0,0,92,0.432,0.636,0.346,26,48,13,0021400840,1610612754,IND,Indiana,George Hill,G,,29:23,0,2,2,6,10,11,17,38,0,1,2,4
0021400840,1610612754,IND,Indiana,201155,Rodney Stuckey,,,26:05,78.1,114.6,-36.5,0.313,1.67,31.3,0.033,0.094,0.065,18.8,0.313,0.313,0.187,99.23,0.025,2015-02-24T00:00:00,3,IND,Indiana,23-34,20,22,27,23,0,0,0,0,0,0,0,0,0,0,92,0.432,0.636,0.346,26,48,13,0021400840,1610612754,IND,Indiana,Rodney Stuckey,,,26:05,0,0,0,2,8,13,12,24,0,0,2,5
0021400840,1610612754,IND,Indiana,101133,Ian Mahinmi,,,16:00,64.1,140.4,-76.2,0.0,0.0,0.0,0.05,0.211,0.128,0.0,0.667,0.644,0.109,100.44,0.067,2015-02-24T00:00:00,3,IND,Indiana,23-34,20,22,27,23,0,0,0,0,0,0,0,0,0,0,92,0.432,0.636,0.346,26,48,13,0021400840,1610612754,IND,Indiana,Ian Mahinmi,,,16:00,0,3,0,4,8,8,10,18,0,1,3,3
0021400840,1610612754,IND,Indiana,201228,C.J. Watson,,,14:01,73.0,137.0,-64.0,0.571,2.0,36.4,0.0,0.222,0.118,18.2,0.3,0.3,0.22,99.24,0.09,2015-02-24T00:00:00,3,IND,Indiana,23-34,20,22,27,23,0,0,0,0,0,0,0,0,0,0,92,0.432,0.636,0.346,26,48,13,0021400840,1610612754,IND,Indiana,C.J. Watson,,,14:01,0,0,3,0,6,8,6,10,0,0,0,0
0021400840,1610612754,IND,Indiana,2449,Luis Scola,,,19:32,81.8,114.1,-32.2,0.1,1.0,8.4,0.056,0.143,0.109,8.4,0.444,0.455,0.263,100.2,0.11,2015-02-24T00:00:00,3,IND,Indiana,23-34,20,22,27,23,0,0,0,0,0,0,0,0,0,0,92,0.432,0.636,0.346,26,48,13,0021400840,1610612754,IND,Indiana,Luis Scola,,,19:32,2,0,0,6,4,13,6,14,0,1,0,1
0021400840,1610612754,IND,Indiana,204014,Damjan Rudez,,,18:08,82.6,99.1,-16.5,0.091,0.0,14.3,0.0,0.069,0.043,0.0,0.25,0.25,0.161,97.5,0.016,2015-02-24T00:00:00,3,IND,Indiana,23-34,20,22,27,23,0,0,0,0,0,0,0,0,0,0,92,0.432,0.636,0.346,26,48,13,0021400840,1610612754,IND,Indiana,Damjan Rudez,,,18:08,0,0,0,0,2,10,6,8,0,1,0,0
0021400840,1610612754,IND,Indiana,203142,Chris Copeland,,,5:02,133.3,22.2,111.1,0.0,0.0,0.0,0.0,0.111,0.083,0.0,1.5,1.5,0.111,85.83,0.167,2015-02-24T00:00:00,3,IND,Indiana,23-34,20,22,27,23,0,0,0,0,0,0,0,0,0,0,92,0.432,0.636,0.346,26,48,13,0021400840,1610612754,IND,Indiana,Chris Copeland,,,5:02,0,0,0,0,0,0,0,0,1,0,2,0
0021400840,1610612754,IND,Indiana,202388,Donald Sloan,,,5:02,133.3,22.2,111.1,0.0,0.0,0.0,0.0,0.222,0.167,100.0,0.0,0.0,0.111,85.83,0.067,2015-02-24T00:00:00,3,IND,Indiana,23-34,20,22,27,23,0,0,0,0,0,0,0,0,0,0,92,0.432,0.636,0.346,26,48,13,0021400840,1610612754,IND,Indiana,Donald Sloan,,,5:02,0,0,0,0,0,0,0,0,0,0,0,0
0021400840,1610612754,IND,Indiana,202730,Lavoy Allen,,,5:02,133.3,22.2,111.1,0.5,0.0,66.7,0.0,0.222,0.167,0.0,1.0,1.0,0.111,85.83,0.433,2015-02-24T00:00:00,3,IND,Indiana,23-34,20,22,27,23,0,0,0,0,0,0,0,0,0,0,92,0.432,0.636,0.346,26,48,13,0021400840,1610612754,IND,Indiana,Lavoy Allen,,,5:02,0,0,0,2,0,0,0,0,1,0,0,0
0021400840,1610612760,OKC,Oklahoma City,202713,Kyle Singler,F,,18:40,103.0,118.3,-15.3,0.133,2.0,28.6,0.0,0.0,0.0,14.3,0.0,0.0,0.12,97.77,-0.03,2015-02-24T00:00:00,3,OKC,Oklahoma City,32-25,30,18,32,25,0,0,0,0,0,0,0,0,0,0,105,0.417,0.889,0.375,23,57,10,0021400840,1610612760,OKC,Oklahoma City,Kyle Singler,F,,18:40,0,0,0,0,13,8,2,24,1,0,0,0
0021400840,1610612760,OKC,Oklahoma City,201586,Serge Ibaka,F,,29:01,103.6,99.1,4.5,0.0,0.0,0.0,0.08,0.229,0.167,19.0,0.864,0.901,0.247,97.9,0.21,2015-02-24T00:00:00,3,OKC,Oklahoma City,32-25,30,18,32,25,0,0,0,0,0,0,0,0,0,0,105,0.417,0.889,0.375,23,57,10,0021400840,1610612760,OKC,Oklahoma City,Serge Ibaka,F,,29:01,4,4,4,8,13,13,2,30,3,0,4,3
0021400840,1610612760,OKC,Oklahoma City,202683,Enes Kanter,C,,23:27,104.4,110.2,-5.8,0.0,0.0,0.0,0.105,0.12,0.114,0.0,0.6,0.638,0.227,99.19,0.113,2015-02-24T00:00:00,3,OKC,Oklahoma City,32-25,30,18,32,25,0,0,0,0,0,0,0,0,0,0,105,0.417,0.889,0.375,23,57,10,0021400840,1610612760,OKC,Oklahoma City,Enes Kanter,C,,23:27,2,4,0,10,13,8,2,26,0,0,2,4
0021400840,1610612760,OKC,Oklahoma City,203460,Andre Roberson,G,,17:14,112.3,90.1,22.2,0.067,0.0,50.0,0.0,0.15,0.094,0.0,1.0,1.0,0.027,101.89,0.087,2015-02-24T00:00:00,3,OKC,Oklahoma City,32-25,30,18,32,25,0,0,0,0,0,0,0,0,0,0,105,0.417,0.889,0.375,23,57,10,0021400840,1610612760,OKC,Oklahoma City,Andre Roberson,G,,17:14,2,0,2,2,9,6,2,14,1,0,2,0
0021400840,1610612760,OKC,Oklahoma City,201566,Russell Westbrook,G,,28:15,103.7,102.5,1.2,0.625,2.0,28.3,0.0,0.324,0.19,14.2,0.447,0.492,0.409,98.83,0.211,2015-02-24T00:00:00,3,OKC,Oklahoma City,32-25,30,18,32,25,0,0,0,0,0,0,0,0,0,0,105,0.417,0.889,0.375,23,57,10,0021400840,1610612760,OKC,Oklahoma City,Russell Westbrook,G,,28:15,0,0,11,14,13,13,2,30,0,1,1,2
0021400840,1610612760,OKC,Oklahoma City,203079,Dion Waiters,,,29:26,112.6,88.2,24.4,0.05,0.0,5.3,0.026,0.033,0.029,0.0,0.389,0.389,0.242,98.96,0.013,2015-02-24T00:00:00,3,OKC,Oklahoma City,32-25,30,18,32,25,0,0,0,0,0,0,0,0,0,0,105,0.417,0.889,0.375,23,57,10,0021400840,1610612760,OKC,Oklahoma City,Dion Waiters,,,29:26,0,3,3,0,2,5,5,18,0,0,2,1
0021400840,1610612760,OKC,Oklahoma City,201627,Anthony Morrow,,,20:34,123.2,69.4,53.8,0.067,0.0,10.0,0.111,0.08,0.096,0.0,0.667,0.667,0.172,97.98,0.16,2015-02-24T00:00:00,3,OKC,Oklahoma City,32-25,30,18,32,25,0,0,0,0,0,0,0,0,0,0,105,0.417,0.889,0.375,23,57,10,0021400840,1610612760,OKC,Oklahoma City,Anthony Morrow,,,20:34,4,5,3,4,0,5,5,12,0,0,1,0
0021400840,1610612760,OKC,Oklahoma City,2555,Nick Collison,,,19:36,126.6,69.4,57.1,0.059,0.0,12.7,0.115,0.217,0.163,0.0,0.333,0.363,0.135,101.44,0.138,2015-02-24T00:00:00,3,OKC,Oklahoma City,32-25,30,18,32,25,0,0,0,0,0,0,0,0,0,0,105,0.417,0.889,0.375,23,57,10,0021400840,1610612760,OKC,Oklahoma City,Nick Collison,,,19:36,0,3,0,4,0,5,5,10,1,0,1,1
0021400840,1610612760,OKC,Oklahoma City,201571,D.J. Augustin,,,24:49,99.8,89.4,10.4,0.389,7.0,50.0,0.0,0.095,0.034,7.1,0.25,0.25,0.111,98.09,0.075,2015-02-24T00:00:00,3,OKC,Oklahoma City,32-25,30,18,32,25,0,0,0,0,0,0,0,0,0,0,105,0.417,0.889,0.375,23,57,10,0021400840,1610612760,OKC,Oklahoma City,D.J. Augustin,,,24:49,0,0,0,0,2,2,5,18,0,0,0,1
0021400840,1610612760,OKC,Oklahoma City,203956,Mitch McGary,,,18:54,110.0,83.5,26.5,0.0,0.0,0.0,0.103,0.313,0.178,0.0,0.286,0.489,0.184,98.29,0.148,2015-02-24T00:00:00,3,OKC,Oklahoma City,32-25,30,18,32,25,0,0,0,0,0,0,0,0,0,0,105,0.417,0.889,0.375,23,57,10,0021400840,1610612760,OKC,Oklahoma City,Mitch McGary,,,18:54,2,0,0,4,0,0,5,10,2,1,3,4
0021400840,1610612760,OKC,Oklahoma City,203103,Perry Jones III,,,5:02,22.2,133.3,-111.1,0.0,0.0,0.0,0.111,0.333,0.167,0.0,0.0,0.0,0.091,85.83,0.1,2015-02-24T00:00:00,3,OKC,Oklahoma City,32-25,30,18,32,25,0,0,0,0,0,0,0,0,0,0,105,0.417,0.889,0.375,23,57,10,0021400840,1610612760,OKC,Oklahoma City,Perry Jones III,,,5:02,0,0,0,0,0,0,0,4,0,1,0,1
0021400840,1610612760,OKC,Oklahoma City,203087,Jeremy Lamb,,,5:02,22.2,133.3,-111.1,0.0,0.0,0.0,0.0,0.333,0.083,0.0,0.25,0.25,0.364,85.83,0.0,2015-02-24T00:00:00,3,OKC,Oklahoma City,32-25,30,18,32,25,0,0,0,0,0,0,0,0,0,0,105,0.417,0.889,0.375,23,57,10,0021400840,1610612760,OKC,Oklahoma City,Jeremy Lamb,,,5:02,0,0,0,0,0,0,0,4,0,0,0,0
