GAME_ID_x,TEAM_ID_x,TEAM_ABBREVIATION_x,TEAM_CITY_x,PLAYER_ID,PLAYER_NAME_x,START_POSITION_x,COMMENT_x,MIN_x,OFF_RATING,DEF_RATING,NET_RATING,AST_PCT,AST_TOV,AST_RATIO,OREB_PCT,DREB_PCT,REB_PCT,TM_TOV_PCT,EFG_PCT,TS_PCT,USG_PCT,PACE,PIE,GAME_DATE_EST,GAME_SEQUENCE,TEAM_ID_y,TEAM_ABBREVIATION_y,TEAM_CITY_NAME,TEAM_WINS_LOSSES,PTS_QTR1,PTS_QTR2,PTS_QTR3,PTS_QTR4,PTS_OT1,PTS_OT2,PTS_OT3,PTS_OT4,PTS_OT5,PTS_OT6,PTS_OT7,PTS_OT8,PTS_OT9,PTS_OT10,PTS,FG_PCT,FT_PCT,FG3_PCT,AST,REB,TOV,GAME_ID_y,TEAM_ID,TEAM_ABBREVIATION,TEAM_CITY_y,PLAYER_NAME_y,START_POSITION_y,COMMENT_y,MIN_y,PTS_OFF_TOV,PTS_2ND_CHANCE,PTS_FB,PTS_PAINT,OPP_PTS_OFF_TOV,OPP_PTS_2ND_CHANCE,OPP_PTS_FB,OPP_PTS_PAINT,BLK,BLKA,PF,PFD
0021300771,1610612758,SAC,Sacramento,200752,Rudy Gay,F,,32:56,90.8,115.7,-24.9,0.2,1.0,14.5,0.074,0.25,0.164,14.5,0.333,0.478,0.252,94.62,0.147,2014-02-11T00:00:00,2,1610612758,SAC,Sacramento,17-35,23,20,25,31,0,0,0,0,0,0,0,0,0,0,99,0.459,0.697,0.308,18,36,14,0021300771,1610612758,SAC,Sacramento,Rudy Gay,F,,32:56,2.0,2.0,2.0,6.0,16.0,10.0,8.0,36.0,1.0,0.0,1.0,6.0
0021300771,1610612758,SAC,Sacramento,200752,Rudy Gay,F,,32:56,90.8,115.7,-24.9,0.2,1.0,14.5,0.074,0.25,0.164,14.5,0.333,0.478,0.252,94.62,0.147,2014-02-11T00:00:00,2,1610612739,CLE,Cleveland,19-33,30,25,25,29,0,0,0,0,0,0,0,0,0,0,109,0.477,0.652,0.571,30,45,12,0021300771,1610612758,SAC,Sacramento,Rudy Gay,F,,32:56,2.0,2.0,2.0,6.0,16.0,10.0,8.0,36.0,1.0,0.0,1.0,6.0
0021300771,1610612758,SAC,Sacramento,201574,Jason Thompson,F,,15:27,102.4,114.7,-12.4,0.0,0.0,0.0,0.1,0.2,0.15,100.0,0.0,0.0,0.03,91.71,-0.012,2014-02-11T00:00:00,2,1610612758,SAC,Sacramento,17-35,23,20,25,31,0,0,0,0,0,0,0,0,0,0,99,0.459,0.697,0.308,18,36,14,0021300771,1610612758,SAC,Sacramento,Jason Thompson,F,,15:27,0.0,0.0,0.0,0.0,8.0,8.0,0.0,12.0,2.0,0.0,3.0,0.0
0021300771,1610612758,SAC,Sacramento,201574,Jason Thompson,F,,15:27,102.4,114.7,-12.4,0.0,0.0,0.0,0.1,0.2,0.15,100.0,0.0,0.0,0.03,91.71,-0.012,2014-02-11T00:00:00,2,1610612739,CLE,Cleveland,19-33,30,25,25,29,0,0,0,0,0,0,0,0,0,0,109,0.477,0.652,0.571,30,45,12,0021300771,1610612758,SAC,Sacramento,Jason Thompson,F,,15:27,0.0,0.0,0.0,0.0,8.0,8.0,0.0,12.0,2.0,0.0,3.0,0.0
0021300771,1610612758,SAC,Sacramento,202326,DeMarcus Cousins,C,,35:49,103.0,123.1,-20.1,0.0,0.0,0.0,0.138,0.2,0.169,17.4,0.417,0.551,0.3,93.62,0.089,2014-02-11T00:00:00,2,1610612758,SAC,Sacramento,17-35,23,20,25,31,0,0,0,0,0,0,0,0,0,0,99,0.459,0.697,0.308,18,36,14,0021300771,1610612758,SAC,Sacramento,DeMarcus Cousins,C,,35:49,1.0,7.0,0.0,6.0,17.0,14.0,7.0,36.0,1.0,0.0,2.0,9.0
0021300771,1610612758,SAC,Sacramento,202326,DeMarcus Cousins,C,,35:49,103.0,123.1,-20.1,0.0,0.0,0.0,0.138,0.2,0.169,17.4,0.417,0.551,0.3,93.62,0.089,2014-02-11T00:00:00,2,1610612739,CLE,Cleveland,19-33,30,25,25,29,0,0,0,0,0,0,0,0,0,0,109,0.477,0.652,0.571,30,45,12,0021300771,1610612758,SAC,Sacramento,DeMarcus Cousins,C,,35:49,1.0,7.0,0.0,6.0,17.0,14.0,7.0,36.0,1.0,0.0,2.0,9.0
0021300771,1610612758,SAC,Sacramento,201977,Marcus Thornton,G,,24:31,100.8,107.7,-6.9,0.0,0.0,0.0,0.0,0.0,0.0,18.2,0.611,0.611,0.213,95.74,0.065,2014-02-11T00:00:00,2,1610612758,SAC,Sacramento,17-35,23,20,25,31,0,0,0,0,0,0,0,0,0,0,99,0.459,0.697,0.308,18,36,14,0021300771,1610612758,SAC,Sacramento,Marcus Thornton,G,,24:31,5.0,0.0,3.0,0.0,10.0,12.0,4.0,26.0,0.0,0.0,0.0,0.0
0021300771,1610612758,SAC,Sacramento,201977,Marcus Thornton,G,,24:31,100.8,107.7,-6.9,0.0,0.0,0.0,0.0,0.0,0.0,18.2,0.611,0.611,0.213,95.74,0.065,2014-02-11T00:00:00,2,1610612739,CLE,Cleveland,19-33,30,25,25,29,0,0,0,0,0,0,0,0,0,0,109,0.477,0.652,0.571,30,45,12,0021300771,1610612758,SAC,Sacramento,Marcus Thornton,G,,24:31,5.0,0.0,3.0,0.0,10.0,12.0,4.0,26.0,0.0,0.0,0.0,0.0
0021300771,1610612758,SAC,Sacramento,202738,Isaiah Thomas,G,,36:26,101.9,121.8,-19.9,0.5,4.0,30.5,0.0,0.067,0.034,7.6,0.536,0.494,0.234,93.72,0.102,2014-02-11T00:00:00,2,1610612758,SAC,Sacramento,17-35,23,20,25,31,0,0,0,0,0,0,0,0,0,0,99,0.459,0.697,0.308,18,36,14,0021300771,1610612758,SAC,Sacramento,Isaiah Thomas,G,,36:26,2.0,0.0,2.0,4.0,18.0,13.0,7.0,38.0,1.0,1.0,2.0,7.0
0021300771,1610612758,SAC,Sacramento,202738,Isaiah Thomas,G,,36:26,101.9,121.8,-19.9,0.5,4.0,30.5,0.0,0.067,0.034,7.6,0.536,0.494,0.234,93.72,0.102,2014-02-11T00:00:00,2,1610612739,CLE,Cleveland,19-33,30,25,25,29,0,0,0,0,0,0,0,0,0,0,109,0.477,0.652,0.571,30,45,12,0021300771,1610612758,SAC,Sacramento,Isaiah Thomas,G,,36:26,2.0,0.0,2.0,4.0,18.0,13.0,7.0,38.0,1.0,1.0,2.0,7.0
0021300771,1610612758,SAC,Sacramento,203112,Quincy Acy,,,15:10,105.0,124.2,-19.2,0.111,1.0,25.0,0.059,0.267,0.156,25.0,1.25,1.25,0.089,96.4,0.118,2014-02-11T00:00:00,2,1610612758,SAC,Sacramento,17-35,23,20,25,31,0,0,0,0,0,0,0,0,0,0,99,0.459,0.697,0.308,18,36,14,0021300771,1610612758,SAC,Sacramento,Quincy Acy,,,15:10,0.0,0.0,0.0,2.0,4.0,5.0,5.0,10.0,0.0,0.0,2.0,0.0
0021300771,1610612758,SAC,Sacramento,203112,Quincy Acy,,,15:10,105.0,124.2,-19.2,0.111,1.0,25.0,0.059,0.267,0.156,25.0,1.25,1.25,0.089,96.4,0.118,2014-02-11T00:00:00,2,1610612739,CLE,Cleveland,19-33,30,25,25,29,0,0,0,0,0,0,0,0,0,0,109,0.477,0.652,0.571,30,45,12,0021300771,1610612758,SAC,Sacramento,Quincy Acy,,,15:10,0.0,0.0,0.0,2.0,4.0,5.0,5.0,10.0,0.0,0.0,2.0,0.0
0021300771,1610612758,SAC,Sacramento,203463,Ben McLemore,,,23:29,111.3,124.7,-13.4,0.154,0.0,22.5,0.0,0.0,0.0,0.0,0.667,0.654,0.135,91.82,0.057,2014-02-11T00:00:00,2,1610612758,SAC,Sacramento,17-35,23,20,25,31,0,0,0,0,0,0,0,0,0,0,99,0.459,0.697,0.308,18,36,14,0021300771,1610612758,SAC,Sacramento,Ben McLemore,,,23:29,3.0,0.0,0.0,2.0,10.0,3.0,7.0,20.0,0.0,0.0,2.0,1.0
0021300771,1610612758,SAC,Sacramento,203463,Ben McLemore,,,23:29,111.3,124.7,-13.4,0.154,0.0,22.5,0.0,0.0,0.0,0.0,0.667,0.654,0.135,91.82,0.057,2014-02-11T00:00:00,2,1610612739,CLE,Cleveland,19-33,30,25,25,29,0,0,0,0,0,0,0,0,0,0,109,0.477,0.652,0.571,30,45,12,0021300771,1610612758,SAC,Sacramento,Ben McLemore,,,23:29,3.0,0.0,0.0,2.0,10.0,3.0,7.0,20.0,0.0,0.0,2.0,1.0
0021300771,1610612758,SAC,Sacramento,202682,Derrick Williams,,,26:37,109.5,121.5,-12.1,0.154,2.0,14.4,0.042,0.08,0.061,7.2,0.4,0.46,0.211,93.52,0.058,2014-02-11T00:00:00,2,1610612758,SAC,Sacramento,17-35,23,20,25,31,0,0,0,0,0,0,0,0,0,0,99,0.459,0.697,0.308,18,36,14,0021300771,1610612758,SAC,Sacramento,Derrick Williams,,,26:37,4.0,0.0,2.0,2.0,12.0,7.0,9.0,30.0,1.0,0.0,3.0,2.0
0021300771,1610612758,SAC,Sacramento,202682,Derrick Williams,,,26:37,109.5,121.5,-12.1,0.154,2.0,14.4,0.042,0.08,0.061,7.2,0.4,0.46,0.211,93.52,0.058,2014-02-11T00:00:00,2,1610612739,CLE,Cleveland,19-33,30,25,25,29,0,0,0,0,0,0,0,0,0,0,109,0.477,0.652,0.571,30,45,12,0021300771,1610612758,SAC,Sacramento,Derrick Williams,,,26:37,4.0,0.0,2.0,2.0,12.0,7.0,9.0,30.0,1.0,0.0,3.0,2.0
0021300771,1610612758,SAC,Sacramento,202690,Jimmer Fredette,,,8:25,94.5,113.4,-18.9,0.333,0.0,40.0,0.0,0.0,0.0,0.0,0.0,0.0,0.159,95.58,-0.032,2014-02-11T00:00:00,2,1610612758,SAC,Sacramento,17-35,23,20,25,31,0,0,0,0,0,0,0,0,0,0,99,0.459,0.697,0.308,18,36,14,0021300771,1610612758,SAC,Sacramento,Jimmer Fredette,,,8:25,0.0,0.0,0.0,0.0,2.0,2.0,4.0,6.0,0.0,0.0,0.0,1.0
0021300771,1610612758,SAC,Sacramento,202690,Jimmer Fredette,,,8:25,94.5,113.4,-18.9,0.333,0.0,40.0,0.0,0.0,0.0,0.0,0.0,0.0,0.159,95.58,-0.032,2014-02-11T00:00:00,2,1610612739,CLE,Cleveland,19-33,30,25,25,29,0,0,0,0,0,0,0,0,0,0,109,0.477,0.652,0.571,30,45,12,0021300771,1610612758,SAC,Sacramento,Jimmer Fredette,,,8:25,0.0,0.0,0.0,0.0,2.0,2.0,4.0,6.0,0.0,0.0,0.0,1.0
0021300771,1610612758,SAC,Sacramento,201189,Aaron Gray,,,8:03,112.5,90.1,22.4,0.0,0.0,0.0,0.0,0.222,0.143,0.0,0.0,0.0,0.0,97.31,0.0,2014-02-11T00:00:00,2,1610612758,SAC,Sacramento,17-35,23,20,25,31,0,0,0,0,0,0,0,0,0,0,99,0.459,0.697,0.308,18,36,14,0021300771,1610612758,SAC,Sacramento,Aaron Gray,,,8:03,0.0,0.0,0.0,0.0,2.0,0.0,4.0,6.0,0.0,0.0,2.0,0.0
0021300771,1610612758,SAC,Sacramento,201189,Aaron Gray,,,8:03,112.5,90.1,22.4,0.0,0.0,0.0,0.0,0.222,0.143,0.0,0.0,0.0,0.0,97.31,0.0,2014-02-11T00:00:00,2,1610612739,CLE,Cleveland,19-33,30,25,25,29,0,0,0,0,0,0,0,0,0,0,109,0.477,0.652,0.571,30,45,12,0021300771,1610612758,SAC,Sacramento,Aaron Gray,,,8:03,0.0,0.0,0.0,0.0,2.0,0.0,4.0,6.0,0.0,0.0,2.0,0.0
0021300771,1610612758,SAC,Sacramento,203492,Ray McCallum,,,3:09,183.3,51.0,132.3,0.0,0.0,0.0,0.0,0.25,0.25,0.0,1.0,1.0,0.167,90.32,0.261,2014-02-11T00:00:00,2,1610612758,SAC,Sacramento,17-35,23,20,25,31,0,0,0,0,0,0,0,0,0,0,99,0.459,0.697,0.308,18,36,14,0021300771,1610612758,SAC,Sacramento,Ray McCallum,,,3:09,0.0,0.0,0.0,2.0,0.0,0.0,0.0,2.0,0.0,0.0,0.0,0.0
0021300771,1610612758,SAC,Sacramento,203492,Ray McCallum,,,3:09,183.3,51.0,132.3,0.0,0.0,0.0,0.0,0.25,0.25,0.0,1.0,1.0,0.167,90.32,0.261,2014-02-11T00:00:00,2,1610612739,CLE,Cleveland,19-33,30,25,25,29,0,0,0,0,0,0,0,0,0,0,109,0.477,0.652,0.571,30,45,12,0021300771,1610612758,SAC,Sacramento,Ray McCallum,,,3:09,0.0,0.0,0.0,2.0,0.0,0.0,0.0,2.0,0.0,0.0,0.0,0.0
0021300771,1610612758,SAC,Sacramento,201171,Carl Landry,,,7:03,146.6,87.9,58.8,0.0,0.0,0.0,0.0,0.167,0.091,0.0,1.0,1.042,0.184,89.06,0.324,2014-02-11T00:00:00,2,1610612758,SAC,Sacramento,17-35,23,20,25,31,0,0,0,0,0,0,0,0,0,0,99,0.459,0.697,0.308,18,36,14,0021300771,1610612758,SAC,Sacramento,Carl Landry,,,7:03,2.0,0.0,0.0,2.0,1.0,1.0,0.0,6.0,0.0,0.0,1.0,1.0
0021300771,1610612758,SAC,Sacramento,201171,Carl Landry,,,7:03,146.6,87.9,58.8,0.0,0.0,0.0,0.0,0.167,0.091,0.0,1.0,1.042,0.184,89.06,0.324,2014-02-11T00:00:00,2,1610612739,CLE,Cleveland,19-33,30,25,25,29,0,0,0,0,0,0,0,0,0,0,109,0.477,0.652,0.571,30,45,12,0021300771,1610612758,SAC,Sacramento,Carl Landry,,,7:03,2.0,0.0,0.0,2.0,1.0,1.0,0.0,6.0,0.0,0.0,1.0,1.0
0021300771,1610612758,SAC,Sacramento,2566,Travis Outlaw,,,2:55,183.3,61.5,121.9,0.0,0.0,0.0,0.0,0.0,0.0,0.0,0.833,0.833,0.5,89.53,0.348,2014-02-11T00:00:00,2,1610612758,SAC,Sacramento,17-35,23,20,25,31,0,0,0,0,0,0,0,0,0,0,99,0.459,0.697,0.308,18,36,14,0021300771,1610612758,SAC,Sacramento,Travis Outlaw,,,2:55,2.0,0.0,0.0,0.0,0.0,0.0,0.0,2.0,0.0,0.0,0.0,0.0
0021300771,1610612758,SAC,Sacramento,2566,Travis Outlaw,,,2:55,183.3,61.5,121.9,0.0,0.0,0.0,0.0,0.0,0.0,0.0,0.833,0.833,0.5,89.53,0.348,2014-02-11T00:00:00,2,1610612739,CLE,Cleveland,19-33,30,25,25,29,0,0,0,0,0,0,0,0,0,0,109,0.477,0.652,0.571,30,45,12,0021300771,1610612758,SAC,Sacramento,Travis Outlaw,,,2:55,2.0,0.0,0.0,0.0,0.0,0.0,0.0,2.0,0.0,0.0,0.0,0.0
0021300771,1610612739,CLE,Cleveland,2736,Luol Deng,F,,33:21,116.7,101.5,15.2,0.182,4.0,18.2,0.036,0.08,0.057,4.5,0.647,0.647,0.234,94.88,0.164,2014-02-11T00:00:00,2,1610612758,SAC,Sacramento,17-35,23,20,25,31,0,0,0,0,0,0,0,0,0,0,99,0.459,0.697,0.308,18,36,14,0021300771,1610612739,CLE,Cleveland,Luol Deng,F,,33:21,2.0,2.0,2.0,8.0,13.0,4.0,7.0,14.0,0.0,1.0,2.0,1.0
0021300771,1610612739,CLE,Cleveland,2736,Luol Deng,F,,33:21,116.7,101.5,15.2,0.182,4.0,18.2,0.036,0.08,0.057,4.5,0.647,0.647,0.234,94.88,0.164,2014-02-11T00:00:00,2,1610612739,CLE,Cleveland,19-33,30,25,25,29,0,0,0,0,0,0,0,0,0,0,109,0.477,0.652,0.571,30,45,12,0021300771,1610612739,CLE,Cleveland,Luol Deng,F,,33:21,2.0,2.0,2.0,8.0,13.0,4.0,7.0,14.0,0.0,1.0,2.0,1.0
0021300771,1610612739,CLE,Cleveland,202684,Tristan Thompson,F,,30:04,117.8,104.2,13.6,0.045,1.0,6.4,0.261,0.304,0.283,6.4,0.5,0.592,0.215,94.89,0.172,2014-02-11T00:00:00,2,1610612758,SAC,Sacramento,17-35,23,20,25,31,0,0,0,0,0,0,0,0,0,0,99,0.459,0.697,0.308,18,36,14,0021300771,1610612739,CLE,Cleveland,Tristan Thompson,F,,30:04,2.0,6.0,2.0,10.0,10.0,5.0,7.0,18.0,0.0,2.0,3.0,6.0
0021300771,1610612739,CLE,Cleveland,202684,Tristan Thompson,F,,30:04,117.8,104.2,13.6,0.045,1.0,6.4,0.261,0.304,0.283,6.4,0.5,0.592,0.215,94.89,0.172,2014-02-11T00:00:00,2,1610612739,CLE,Cleveland,19-33,30,25,25,29,0,0,0,0,0,0,0,0,0,0,109,0.477,0.652,0.571,30,45,12,0021300771,1610612739,CLE,Cleveland,Tristan Thompson,F,,30:04,2.0,6.0,2.0,10.0,10.0,5.0,7.0,18.0,0.0,2.0,3.0,6.0
0021300771,1610612739,CLE,Cleveland,203092,Tyler Zeller,C,,18:15,105.9,95.0,10.9,0.077,0.5,12.5,0.067,0.176,0.125,25.0,0.6,0.6,0.16,98.14,0.063,2014-02-11T00:00:00,2,1610612758,SAC,Sacramento,17-35,23,20,25,31,0,0,0,0,0,0,0,0,0,0,99,0.459,0.697,0.308,18,36,14,0021300771,1610612739,CLE,Cleveland,Tyler Zeller,C,,18:15,4.0,2.0,0.0,4.0,7.0,3.0,5.0,6.0,0.0,1.0,3.0,0.0
0021300771,1610612739,CLE,Cleveland,203092,Tyler Zeller,C,,18:15,105.9,95.0,10.9,0.077,0.5,12.5,0.067,0.176,0.125,25.0,0.6,0.6,0.16,98.14,0.063,2014-02-11T00:00:00,2,1610612739,CLE,Cleveland,19-33,30,25,25,29,0,0,0,0,0,0,0,0,0,0,109,0.477,0.652,0.571,30,45,12,0021300771,1610612739,CLE,Cleveland,Tyler Zeller,C,,18:15,4.0,2.0,0.0,4.0,7.0,3.0,5.0,6.0,0.0,1.0,3.0,0.0
0021300771,1610612739,CLE,Cleveland,202681,Kyrie Irving,G,,33:25,120.1,100.0,20.1,0.24,6.0,31.6,0.0,0.071,0.036,5.3,0.542,0.542,0.17,95.23,0.101,2014-02-11T00:00:00,2,1610612758,SAC,Sacramento,17-35,23,20,25,31,0,0,0,0,0,0,0,0,0,0,99,0.459,0.697,0.308,18,36,14,0021300771,1610612739,CLE,Cleveland,Kyrie Irving,G,,33:25,3.0,0.0,3.0,2.0,10.0,7.0,9.0,16.0,0.0,1.0,3.0,1.0
0021300771,1610612739,CLE,Cleveland,202681,Kyrie Irving,G,,33:25,120.1,100.0,20.1,0.24,6.0,31.6,0.0,0.071,0.036,5.3,0.542,0.542,0.17,95.23,0.101,2014-02-11T00:00:00,2,1610612739,CLE,Cleveland,19-33,30,25,25,29,0,0,0,0,0,0,0,0,0,0,109,0.477,0.652,0.571,30,45,12,0021300771,1610612739,CLE,Cleveland,Kyrie Irving,G,,33:25,3.0,0.0,3.0,2.0,10.0,7.0,9.0,16.0,0.0,1.0,3.0,1.0
0021300771,1610612739,CLE,Cleveland,101127,Jarrett Jack,G,,17:44,108.8,91.8,17.0,0.267,1.33,40.0,0.0,0.188,0.094,30.0,0.333,0.333,0.14,98.42,0.063,2014-02-11T00:00:00,2,1610612758,SAC,Sacramento,17-35,23,20,25,31,0,0,0,0,0,0,0,0,0,0,99,0.459,0.697,0.308,18,36,14,0021300771,1610612739,CLE,Cleveland,Jarrett Jack,G,,17:44,0.0,0.0,0.0,2.0,7.0,3.0,5.0,6.0,1.0,0.0,3.0,0.0
0021300771,1610612739,CLE,Cleveland,101127,Jarrett Jack,G,,17:44,108.8,91.8,17.0,0.267,1.33,40.0,0.0,0.188,0.094,30.0,0.333,0.333,0.14,98.42,0.063,2014-02-11T00:00:00,2,1610612739,CLE,Cleveland,19-33,30,25,25,29,0,0,0,0,0,0,0,0,0,0,109,0.477,0.652,0.571,30,45,12,0021300771,1610612739,CLE,Cleveland,Jarrett Jack,G,,17:44,0.0,0.0,0.0,2.0,7.0,3.0,5.0,6.0,1.0,0.0,3.0,0.0
0021300771,1610612739,CLE,Cleveland,203461,Anthony Bennett,,,29:45,122.4,112.9,9.5,0.0,0.0,0.0,0.111,0.318,0.204,7.2,0.833,0.733,0.214,91.17,0.169,2014-02-11T00:00:00,2,1610612758,SAC,Sacramento,17-35,23,20,25,31,0,0,0,0,0,0,0,0,0,0,99,0.459,0.697,0.308,18,36,14,0021300771,1610612739,CLE,Cleveland,Anthony Bennett,,,29:45,2.0,1.0,0.0,4.0,14.0,6.0,4.0,20.0,0.0,0.0,1.0,5.0
0021300771,1610612739,CLE,Cleveland,203461,Anthony Bennett,,,29:45,122.4,112.9,9.5,0.0,0.0,0.0,0.111,0.318,0.204,7.2,0.833,0.733,0.214,91.17,0.169,2014-02-11T00:00:00,2,1610612739,CLE,Cleveland,19-33,30,25,25,29,0,0,0,0,0,0,0,0,0,0,109,0.477,0.652,0.571,30,45,12,0021300771,1610612739,CLE,Cleveland,Anthony Bennett,,,29:45,2.0,1.0,0.0,4.0,14.0,6.0,4.0,20.0,0.0,0.0,1.0,5.0
0021300771,1610612739,CLE,Cleveland,203079,Dion Waiters,,,28:07,122.8,111.8,11.1,0.5,8.0,28.8,0.0,0.043,0.022,3.6,0.471,0.533,0.33,90.99,0.146,2014-02-11T00:00:00,2,1610612758,SAC,Sacramento,17-35,23,20,25,31,0,0,0,0,0,0,0,0,0,0,99,0.459,0.697,0.308,18,36,14,0021300771,1610612739,CLE,Cleveland,Dion Waiters,,,28:07,4.0,2.0,2.0,8.0,14.0,6.0,2.0,18.0,0.0,1.0,3.0,3.0
0021300771,1610612739,CLE,Cleveland,203079,Dion Waiters,,,28:07,122.8,111.8,11.1,0.5,8.0,28.8,0.0,0.043,0.022,3.6,0.471,0.533,0.33,90.99,0.146,2014-02-11T00:00:00,2,1610612739,CLE,Cleveland,19-33,30,25,25,29,0,0,0,0,0,0,0,0,0,0,109,0.477,0.652,0.571,30,45,12,0021300771,1610612739,CLE,Cleveland,Dion Waiters,,,28:07,4.0,2.0,2.0,8.0,14.0,6.0,2.0,18.0,0.0,1.0,3.0,3.0
0021300771,1610612739,CLE,Cleveland,202087,Alonzo Gee,,,14:39,113.6,115.7,-2.1,0.125,0.0,16.7,0.0,0.0,0.0,0.0,0.4,0.4,0.155,91.41,0.038,2014-02-11T00:00:00,2,1610612758,SAC,Sacramento,17-35,23,20,25,31,0,0,0,0,0,0,0,0,0,0,99,0.459,0.697,0.308,18,36,14,0021300771,1610612739,CLE,Cleveland,Alonzo Gee,,,14:39,0.0,0.0,2.0,4.0,8.0,5.0,2.0,12.0,0.0,0.0,0.0,0.0
0021300771,1610612739,CLE,Cleveland,202087,Alonzo Gee,,,14:39,113.6,115.7,-2.1,0.125,0.0,16.7,0.0,0.0,0.0,0.0,0.4,0.4,0.155,91.41,0.038,2014-02-11T00:00:00,2,1610612739,CLE,Cleveland,19-33,30,25,25,29,0,0,0,0,0,0,0,0,0,0,109,0.477,0.652,0.571,30,45,12,0021300771,1610612739,CLE,Cleveland,Alonzo Gee,,,14:39,0.0,0.0,2.0,4.0,8.0,5.0,2.0,12.0,0.0,0.0,0.0,0.0
0021300771,1610612739,CLE,Cleveland,203521,Matthew Dellavedova,,,16:44,103.3,124.2,-20.9,0.385,0.0,62.5,0.053,0.273,0.133,0.0,0.0,0.0,0.077,90.87,0.056,2014-02-11T00:00:00,2,1610612758,SAC,Sacramento,17-35,23,20,25,31,0,0,0,0,0,0,0,0,0,0,99,0.459,0.697,0.308,18,36,14,0021300771,1610612739,CLE,Cleveland,Matthew Dellavedova,,,16:44,0.0,0.0,0.0,0.0,11.0,2.0,2.0,12.0,0.0,0.0,3.0,1.0
0021300771,1610612739,CLE,Cleveland,203521,Matthew Dellavedova,,,16:44,103.3,124.2,-20.9,0.385,0.0,62.5,0.053,0.273,0.133,0.0,0.0,0.0,0.077,90.87,0.056,2014-02-11T00:00:00,2,1610612739,CLE,Cleveland,19-33,30,25,25,29,0,0,0,0,0,0,0,0,0,0,109,0.477,0.652,0.571,30,45,12,0021300771,1610612739,CLE,Cleveland,Matthew Dellavedova,,,16:44,0.0,0.0,0.0,0.0,11.0,2.0,2.0,12.0,0.0,0.0,3.0,1.0
0021300771,1610612739,CLE,Cleveland,203156,Henry Sims,,,17:56,112.3,108.7,3.6,0.0,0.0,0.0,0.158,0.125,0.143,25.4,0.6,0.595,0.189,92.02,-0.008,2014-02-11T00:00:00,2,1610612758,SAC,Sacramento,17-35,23,20,25,31,0,0,0,0,0,0,0,0,0,0,99,0.459,0.697,0.308,18,36,14,0021300771,1610612739,CLE,Cleveland,Henry Sims,,,17:56,3.0,2.0,0.0,4.0,11.0,4.0,2.0,8.0,0.0,0.0,6.0,1.0
0021300771,1610612739,CLE,Cleveland,203156,Henry Sims,,,17:56,112.3,108.7,3.6,0.0,0.0,0.0,0.158,0.125,0.143,25.4,0.6,0.595,0.189,92.02,-0.008,2014-02-11T00:00:00,2,1610612739,CLE,Cleveland,19-33,30,25,25,29,0,0,0,0,0,0,0,0,0,0,109,0.477,0.652,0.571,30,45,12,0021300771,1610612739,CLE,Cleveland,Henry Sims,,,17:56,3.0,2.0,0.0,4.0,11.0,4.0,2.0,8.0,0.0,0.0,6.0,1.0
0021300771,1610612739,CLE,Cleveland,201947,Earl Clark,,DNP - Coach's Decision,,,,,,,0.0,,,,,,,0.0,,,2014-02-11T00:00:00,2,1610612758,SAC,Sacramento,17-35,23,20,25,31,0,0,0,0,0,0,0,0,0,0,99,0.459,0.697,0.308,18,36,14,0021300771,1610612739,CLE,Cleveland,Earl Clark,,DNP - Coach's Decision,,,,,,,,,,,,,
0021300771,1610612739,CLE,Cleveland,201947,Earl Clark,,DNP - Coach's Decision,,,,,,,0.0,,,,,,,0.0,,,2014-02-11T00:00:00,2,1610612739,CLE,Cleveland,19-33,30,25,25,29,0,0,0,0,0,0,0,0,0,0,109,0.477,0.652,0.571,30,45,12,0021300771,1610612739,CLE,Cleveland,Earl Clark,,DNP - Coach's Decision,,,,,,,,,,,,,
0021300771,1610612739,CLE,Cleveland,101139,CJ Miles,,DND - Sore Right Foot,,,,,,,0.0,,,,,,,0.0,,,2014-02-11T00:00:00,2,1610612758,SAC,Sacramento,17-35,23,20,25,31,0,0,0,0,0,0,0,0,0,0,99,0.459,0.697,0.308,18,36,14,0021300771,1610612739,CLE,Cleveland,CJ Miles,,DND - Sore Right Foot,,,,,,,,,,,,,
0021300771,1610612739,CLE,Cleveland,101139,CJ Miles,,DND - Sore Right Foot,,,,,,,0.0,,,,,,,0.0,,,2014-02-11T00:00:00,2,1610612739,CLE,Cleveland,19-33,30,25,25,29,0,0,0,0,0,0,0,0,0,0,109,0.477,0.652,0.571,30,45,12,0021300771,1610612739,CLE,Cleveland,CJ Miles,,DND - Sore Right Foot,,,,,,,,,,,,,
0021300771,1610612739,CLE,Cleveland,2760,Anderson Varejao,,DND - Sore Back,,,,,,,0.0,,,,,,,0.0,,,2014-02-11T00:00:00,2,1610612758,SAC,Sacramento,17-35,23,20,25,31,0,0,0,0,0,0,0,0,0,0,99,0.459,0.697,0.308,18,36,14,0021300771,1610612739,CLE,Cleveland,Anderson Varejao,,DND - Sore Back,,,,,,,,,,,,,
0021300771,1610612739,CLE,Cleveland,2760,Anderson Varejao,,DND - Sore Back,,,,,,,0.0,,,,,,,0.0,,,2014-02-11T00:00:00,2,1610612739,CLE,Cleveland,19-33,30,25,25,29,0,0,0,0,0,0,0,0,0,0,109,0.477,0.652,0.571,30,45,12,0021300771,1610612739,CLE,Cleveland,Anderson Varejao,,DND - Sore Back,,,,,,,,,,,,,
