GAME_ID_x,TEAM_ID_x,TEAM_ABBREVIATION_x,TEAM_CITY_x,PLAYER_ID,PLAYER_NAME_x,START_POSITION_x,COMMENT_x,MIN_x,OFF_RATING,DEF_RATING,NET_RATING,AST_PCT,AST_TOV,AST_RATIO,OREB_PCT,DREB_PCT,REB_PCT,TM_TOV_PCT,EFG_PCT,TS_PCT,USG_PCT,PACE,PIE,GAME_DATE_EST,GAME_SEQUENCE,TEAM_ABBREVIATION_y,TEAM_CITY_NAME,TEAM_WINS_LOSSES,PTS_QTR1,PTS_QTR2,PTS_QTR3,PTS_QTR4,PTS_OT1,PTS_OT2,PTS_OT3,PTS_OT4,PTS_OT5,PTS_OT6,PTS_OT7,PTS_OT8,PTS_OT9,PTS_OT10,PTS,FG_PCT,FT_PCT,FG3_PCT,AST,REB,TOV,GAME_ID_y,TEAM_ID_y,TEAM_ABBREVIATION,TEAM_CITY_y,PLAYER_NAME_y,START_POSITION_y,COMMENT_y,MIN_y,PTS_OFF_TOV,PTS_2ND_CHANCE,PTS_FB,PTS_PAINT,OPP_PTS_OFF_TOV,OPP_PTS_2ND_CHANCE,OPP_PTS_FB,OPP_PTS_PAINT,BLK,BLKA,PF,PFD
0021400859,1610612766,CHA,Charlotte,203077,Michael Kidd-Gilchrist,F,,31:53,97.2,108.0,-10.8,0.188,0.0,20.0,0.071,0.25,0.172,0.0,0.5,0.5,0.183,93.87,0.154,2015-02-27T00:00:00,4,CHA,Charlotte,23-33,21,28,26,23,0,0,0,0,0,0,0,0,0,0,98,0.451,0.824,0.476,19,48,16,0021400859,1610612766,CHA,Charlotte,Michael Kidd-Gilchrist,F,,31:53,2.0,2.0,2.0,4.0,14.0,10.0,12.0,24.0,1.0,2.0,1.0,1.0
0021400859,1610612766,CHA,Charlotte,203469,Cody Zeller,F,,28:39,110.3,100.8,9.5,0.045,0.5,8.5,0.091,0.156,0.13,17.0,0.571,0.628,0.166,99.14,0.131,2015-02-27T00:00:00,4,CHA,Charlotte,23-33,21,28,26,23,0,0,0,0,0,0,0,0,0,0,98,0.451,0.824,0.476,19,48,16,0021400859,1610612766,CHA,Charlotte,Cody Zeller,F,,28:39,2.0,4.0,0.0,6.0,10.0,7.0,16.0,20.0,1.0,1.0,0.0,3.0
0021400859,1610612766,CHA,Charlotte,2744,Al Jefferson,C,,32:53,101.8,99.2,2.6,0.05,0.0,6.7,0.0,0.205,0.121,0.0,0.462,0.504,0.196,95.15,0.102,2015-02-27T00:00:00,4,CHA,Charlotte,23-33,21,28,26,23,0,0,0,0,0,0,0,0,0,0,98,0.451,0.824,0.476,19,48,16,0021400859,1610612766,CHA,Charlotte,Al Jefferson,C,,32:53,2.0,0.0,0.0,12.0,11.0,14.0,17.0,22.0,2.0,1.0,4.0,1.0
0021400859,1610612766,CHA,Charlotte,201945,Gerald Henderson,G,,37:04,108.7,107.7,1.0,0.083,0.4,10.5,0.0,0.098,0.056,26.3,0.583,0.583,0.211,94.53,0.057,2015-02-27T00:00:00,4,CHA,Charlotte,23-33,21,28,26,23,0,0,0,0,0,0,0,0,0,0,98,0.451,0.824,0.476,19,48,16,0021400859,1610612766,CHA,Charlotte,Gerald Henderson,G,,37:04,2.0,0.0,0.0,2.0,14.0,14.0,18.0,28.0,1.0,1.0,2.0,2.0
0021400859,1610612766,CHA,Charlotte,2590,Mo Williams,G,,37:05,103.2,102.9,0.3,0.2,1.33,11.8,0.03,0.133,0.09,8.8,0.522,0.575,0.363,97.36,0.125,2015-02-27T00:00:00,4,CHA,Charlotte,23-33,21,28,26,23,0,0,0,0,0,0,0,0,0,0,98,0.451,0.824,0.476,19,48,16,0021400859,1610612766,CHA,Charlotte,Mo Williams,G,,37:05,0.0,3.0,5.0,0.0,11.0,20.0,18.0,26.0,0.0,0.0,5.0,4.0
0021400859,1610612766,CHA,Charlotte,101107,Marvin Williams,,,21:21,94.5,131.1,-36.6,0.091,1.0,14.5,0.0,0.136,0.071,14.5,0.5,0.615,0.127,95.96,0.098,2015-02-27T00:00:00,4,CHA,Charlotte,23-33,21,28,26,23,0,0,0,0,0,0,0,0,0,0,98,0.451,0.824,0.476,19,48,16,0021400859,1610612766,CHA,Charlotte,Marvin Williams,,,21:21,0.0,0.0,0.0,2.0,14.0,15.0,4.0,22.0,2.0,0.0,1.0,1.0
0021400859,1610612766,CHA,Charlotte,203148,Brian Roberts,,,15:08,91.6,131.9,-40.3,0.0,0.0,0.0,0.0,0.0,0.0,0.0,0.6,0.6,0.144,101.21,0.017,2015-02-27T00:00:00,4,CHA,Charlotte,23-33,21,28,26,23,0,0,0,0,0,0,0,0,0,0,98,0.451,0.824,0.476,19,48,16,0021400859,1610612766,CHA,Charlotte,Brian Roberts,,,15:08,0.0,0.0,3.0,0.0,10.0,10.0,2.0,16.0,0.0,0.0,3.0,1.0
0021400859,1610612766,CHA,Charlotte,101131,Jason Maxiell,,,13:07,85.6,121.3,-35.8,0.0,0.0,0.0,0.077,0.267,0.179,50.0,0.0,0.0,0.069,98.95,0.03,2015-02-27T00:00:00,4,CHA,Charlotte,23-33,21,28,26,23,0,0,0,0,0,0,0,0,0,0,98,0.451,0.824,0.476,19,48,16,0021400859,1610612766,CHA,Charlotte,Jason Maxiell,,,13:07,0.0,0.0,0.0,0.0,7.0,8.0,1.0,12.0,0.0,0.0,1.0,1.0
0021400859,1610612766,CHA,Charlotte,202362,Lance Stephenson,,,22:50,94.3,111.3,-17.0,0.412,1.75,43.8,0.118,0.042,0.073,25.0,0.4,0.4,0.171,102.25,0.066,2015-02-27T00:00:00,4,CHA,Charlotte,23-33,21,28,26,23,0,0,0,0,0,0,0,0,0,0,98,0.451,0.824,0.476,19,48,16,0021400859,1610612766,CHA,Charlotte,Lance Stephenson,,,22:50,0.0,4.0,0.0,2.0,14.0,12.0,7.0,20.0,0.0,0.0,1.0,1.0
0021400859,1610612766,CHA,Charlotte,203584,Troy Daniels,,DNP - Coach's Decision                  ,,,,,,,0.0,,,,,,,0.0,,,2015-02-27T00:00:00,4,CHA,Charlotte,23-33,21,28,26,23,0,0,0,0,0,0,0,0,0,0,98,0.451,0.824,0.476,19,48,16,0021400859,1610612766,CHA,Charlotte,Troy Daniels,,DNP - Coach's Decision                  ,,,,,,,,,,,,,
0021400859,1610612766,CHA,Charlotte,203798,PJ Hairston,,DNP - Coach's Decision                  ,,,,,,,0.0,,,,,,,0.0,,,2015-02-27T00:00:00,4,CHA,Charlotte,23-33,21,28,26,23,0,0,0,0,0,0,0,0,0,0,98,0.451,0.824,0.476,19,48,16,0021400859,1610612766,CHA,Charlotte,PJ Hairston,,DNP - Coach's Decision                  ,,,,,,,,,,,,,
0021400859,1610612766,CHA,Charlotte,203106,Jeffery Taylor,,DNP - Coach's Decision                  ,,,,,,,0.0,,,,,,,0.0,,,2015-02-27T00:00:00,4,CHA,Charlotte,23-33,21,28,26,23,0,0,0,0,0,0,0,0,0,0,98,0.451,0.824,0.476,19,48,16,0021400859,1610612766,CHA,Charlotte,Jeffery Taylor,,DNP - Coach's Decision                  ,,,,,,,,,,,,,
0021400859,1610612766,CHA,Charlotte,203943,Noah Vonleh,,DNP - Coach's Decision                  ,,,,,,,0.0,,,,,,,0.0,,,2015-02-27T00:00:00,4,CHA,Charlotte,23-33,21,28,26,23,0,0,0,0,0,0,0,0,0,0,98,0.451,0.824,0.476,19,48,16,0021400859,1610612766,CHA,Charlotte,Noah Vonleh,,DNP - Coach's Decision                  ,,,,,,,,,,,,,
0021400859,1610612738,BOS,Boston,202323,Evan Turner,F,,29:47,98.4,109.0,-10.6,0.333,7.0,53.8,0.0,0.25,0.105,7.7,0.2,0.2,0.091,94.83,0.088,2015-02-27T00:00:00,4,BOS,Boston,23-33,27,18,24,37,0,0,0,0,0,0,0,0,0,0,106,0.417,0.8,0.4,24,47,8,0021400859,1610612738,BOS,Boston,Evan Turner,F,,29:47,0.0,0.0,0.0,2.0,4.0,7.0,4.0,20.0,0.0,0.0,0.0,1.0
0021400859,1610612738,BOS,Boston,101138,Brandon Bass,F,,20:15,90.7,104.2,-13.4,0.077,1.0,8.4,0.077,0.313,0.167,8.4,0.333,0.405,0.237,100.84,0.086,2015-02-27T00:00:00,4,BOS,Boston,23-33,27,18,24,37,0,0,0,0,0,0,0,0,0,0,106,0.417,0.8,0.4,24,47,8,0021400859,1610612738,BOS,Boston,Brandon Bass,F,,20:15,2.0,2.0,2.0,2.0,2.0,5.0,4.0,14.0,1.0,2.0,1.0,2.0
0021400859,1610612738,BOS,Boston,203092,Tyler Zeller,C,,24:09,80.7,112.6,-31.9,0.077,0.0,10.6,0.1,0.3,0.18,0.0,0.375,0.415,0.161,94.81,0.14,2015-02-27T00:00:00,4,BOS,Boston,23-33,27,18,24,37,0,0,0,0,0,0,0,0,0,0,106,0.417,0.8,0.4,24,47,8,0021400859,1610612738,BOS,Boston,Tyler Zeller,C,,24:09,0.0,3.0,0.0,4.0,4.0,7.0,4.0,20.0,3.0,2.0,0.0,4.0
0021400859,1610612738,BOS,Boston,202340,Avery Bradley,G,,33:51,109.8,103.3,6.5,0.1,1.0,9.1,0.054,0.107,0.077,9.1,0.528,0.528,0.265,97.21,0.085,2015-02-27T00:00:00,4,BOS,Boston,23-33,27,18,24,37,0,0,0,0,0,0,0,0,0,0,106,0.417,0.8,0.4,24,47,8,0021400859,1610612738,BOS,Boston,Avery Bradley,G,,33:51,5.0,4.0,5.0,4.0,4.0,5.0,7.0,16.0,0.0,1.0,2.0,0.0
0021400859,1610612738,BOS,Boston,203935,Marcus Smart,G,,31:27,94.9,103.4,-8.4,0.15,3.0,23.1,0.0,0.074,0.03,7.7,0.556,0.556,0.139,96.94,0.042,2015-02-27T00:00:00,4,BOS,Boston,23-33,27,18,24,37,0,0,0,0,0,0,0,0,0,0,106,0.417,0.8,0.4,24,47,8,0021400859,1610612738,BOS,Boston,Marcus Smart,G,,31:27,0.0,0.0,6.0,2.0,6.0,13.0,7.0,26.0,0.0,0.0,5.0,3.0
0021400859,1610612738,BOS,Boston,202738,Isaiah Thomas,,,31:24,127.4,93.2,34.1,0.35,2.33,19.2,0.0,0.037,0.017,8.2,0.455,0.53,0.394,97.0,0.132,2015-02-27T00:00:00,4,BOS,Boston,23-33,27,18,24,37,0,0,0,0,0,0,0,0,0,0,106,0.417,0.8,0.4,24,47,8,0021400859,1610612738,BOS,Boston,Isaiah Thomas,,,31:24,9.0,0.0,1.0,14.0,6.0,8.0,6.0,14.0,0.0,2.0,3.0,6.0
0021400859,1610612738,BOS,Boston,203109,Jae Crowder,,,27:45,124.3,97.6,26.6,0.0,0.0,0.0,0.036,0.2,0.113,0.0,0.636,0.636,0.17,94.27,0.123,2015-02-27T00:00:00,4,BOS,Boston,23-33,27,18,24,37,0,0,0,0,0,0,0,0,0,0,106,0.417,0.8,0.4,24,47,8,0021400859,1610612738,BOS,Boston,Jae Crowder,,,27:45,3.0,6.0,0.0,2.0,6.0,8.0,6.0,14.0,0.0,0.0,2.0,0.0
0021400859,1610612738,BOS,Boston,201973,Jonas Jerebko,,,23:51,138.8,89.3,49.5,0.167,0.0,23.3,0.208,0.238,0.222,0.0,0.833,0.81,0.17,99.3,0.219,2015-02-27T00:00:00,4,BOS,Boston,23-33,27,18,24,37,0,0,0,0,0,0,0,0,0,0,106,0.417,0.8,0.4,24,47,8,0021400859,1610612738,BOS,Boston,Jonas Jerebko,,,23:51,0.0,7.0,3.0,6.0,4.0,6.0,6.0,8.0,1.0,0.0,2.0,2.0
0021400859,1610612738,BOS,Boston,203923,James Young,,,17:31,122.8,89.5,33.3,0.0,0.0,0.0,0.048,0.0,0.026,0.0,0.2,0.2,0.115,100.73,0.02,2015-02-27T00:00:00,4,BOS,Boston,23-33,27,18,24,37,0,0,0,0,0,0,0,0,0,0,106,0.417,0.8,0.4,24,47,8,0021400859,1610612738,BOS,Boston,James Young,,,17:31,2.0,0.0,2.0,2.0,4.0,6.0,6.0,8.0,0.0,0.0,0.0,0.0
0021400859,1610612738,BOS,Boston,203540,Gigi Datome,,DNP - Coach's Decision                  ,,,,,,,0.0,,,,,,,0.0,,,2015-02-27T00:00:00,4,BOS,Boston,23-33,27,18,24,37,0,0,0,0,0,0,0,0,0,0,106,0.417,0.8,0.4,24,47,8,0021400859,1610612738,BOS,Boston,Gigi Datome,,DNP - Coach's Decision                  ,,,,,,,,,,,,,
0021400859,1610612738,BOS,Boston,203515,Phil Pressey,,DNP - Coach's Decision                  ,,,,,,,0.0,,,,,,,0.0,,,2015-02-27T00:00:00,4,BOS,Boston,23-33,27,18,24,37,0,0,0,0,0,0,0,0,0,0,106,0.417,0.8,0.4,24,47,8,0021400859,1610612738,BOS,Boston,Phil Pressey,,DNP - Coach's Decision                  ,,,,,,,,,,,,,
0021400859,1610612738,BOS,Boston,101183,Shavlik Randolph,,DNP - Coach's Decision                  ,,,,,,,0.0,,,,,,,0.0,,,2015-02-27T00:00:00,4,BOS,Boston,23-33,27,18,24,37,0,0,0,0,0,0,0,0,0,0,106,0.417,0.8,0.4,24,47,8,0021400859,1610612738,BOS,Boston,Shavlik Randolph,,DNP - Coach's Decision                  ,,,,,,,,,,,,,
0021400859,1610612738,BOS,Boston,2222,Gerald Wallace,,DNP - Coach's Decision                  ,,,,,,,0.0,,,,,,,0.0,,,2015-02-27T00:00:00,4,BOS,Boston,23-33,27,18,24,37,0,0,0,0,0,0,0,0,0,0,106,0.417,0.8,0.4,24,47,8,0021400859,1610612738,BOS,Boston,Gerald Wallace,,DNP - Coach's Decision                  ,,,,,,,,,,,,,
