GAME_ID_x,TEAM_ID_x,TEAM_ABBREVIATION_x,TEAM_CITY_x,PLAYER_ID,PLAYER_NAME_x,START_POSITION_x,COMMENT_x,MIN_x,OFF_RATING,DEF_RATING,NET_RATING,AST_PCT,AST_TOV,AST_RATIO,OREB_PCT,DREB_PCT,REB_PCT,TM_TOV_PCT,EFG_PCT,TS_PCT,USG_PCT,PACE,PIE,GAME_DATE_EST,GAME_SEQUENCE,TEAM_ABBREVIATION_y,TEAM_CITY_NAME,TEAM_WINS_LOSSES,PTS_QTR1,PTS_QTR2,PTS_QTR3,PTS_QTR4,PTS_OT1,PTS_OT2,PTS_OT3,PTS_OT4,PTS_OT5,PTS_OT6,PTS_OT7,PTS_OT8,PTS_OT9,PTS_OT10,PTS,FG_PCT,FT_PCT,FG3_PCT,AST,REB,TOV,GAME_ID_y,TEAM_ID_y,TEAM_ABBREVIATION,TEAM_CITY_y,PLAYER_NAME_y,START_POSITION_y,COMMENT_y,MIN_y,PTS_OFF_TOV,PTS_2ND_CHANCE,PTS_FB,PTS_PAINT,OPP_PTS_OFF_TOV,OPP_PTS_2ND_CHANCE,OPP_PTS_FB,OPP_PTS_PAINT,BLK,BLKA,PF,PFD
0021400862,1610612750,MIN,Minnesota,203952,Andrew Wiggins,F,,32:30,95.7,110.6,-14.9,0.056,1.0,5.7,0.0,0.095,0.055,5.7,0.455,0.455,0.232,93.02,0.027,2015-02-27T00:00:00,7,MIN,Minnesota,13-44,23,21,23,22,0,0,0,0,0,0,0,0,0,0,89,0.429,0.677,0.143,17,45,11,0021400862,1610612750,MIN,Minnesota,Andrew Wiggins,F,,32:30,2.0,0.0,2.0,2.0,9.0,13.0,2.0,40.0,0.0,1.0,5.0,5.0
0021400862,1610612750,MIN,Minnesota,203940,Adreian Payne,F,,27:20,88.7,97.8,-9.0,0.0,0.0,0.0,0.077,0.091,0.085,12.5,0.429,0.429,0.134,87.73,0.0,2015-02-27T00:00:00,7,MIN,Minnesota,13-44,23,21,23,22,0,0,0,0,0,0,0,0,0,0,89,0.429,0.677,0.143,17,45,11,0021400862,1610612750,MIN,Minnesota,Adreian Payne,F,,27:20,2.0,0.0,0.0,6.0,9.0,8.0,2.0,20.0,0.0,1.0,5.0,2.0
0021400862,1610612750,MIN,Minnesota,201593,Nikola Pekovic,C,,29:05,100.9,112.4,-11.5,0.0,0.0,0.0,0.138,0.2,0.172,9.3,0.5,0.615,0.167,91.41,0.145,2015-02-27T00:00:00,7,MIN,Minnesota,13-44,23,21,23,22,0,0,0,0,0,0,0,0,0,0,89,0.429,0.677,0.143,17,45,11,0021400862,1610612750,MIN,Minnesota,Nikola Pekovic,C,,29:05,2.0,4.0,2.0,4.0,8.0,12.0,0.0,30.0,0.0,0.0,1.0,3.0
0021400862,1610612750,MIN,Minnesota,2755,Kevin Martin,G,,37:27,94.7,107.0,-12.3,0.118,2.0,10.6,0.0,0.109,0.063,5.3,0.533,0.567,0.206,93.59,0.147,2015-02-27T00:00:00,7,MIN,Minnesota,13-44,23,21,23,22,0,0,0,0,0,0,0,0,0,0,89,0.429,0.677,0.143,17,45,11,0021400862,1610612750,MIN,Minnesota,Kevin Martin,G,,37:27,2.0,2.0,4.0,0.0,12.0,16.0,2.0,36.0,0.0,0.0,1.0,3.0
0021400862,1610612750,MIN,Minnesota,201937,Ricky Rubio,G,,38:15,91.6,107.9,-16.3,0.5,10.0,36.2,0.059,0.085,0.074,3.6,0.393,0.451,0.209,93.79,0.166,2015-02-27T00:00:00,7,MIN,Minnesota,13-44,23,21,23,22,0,0,0,0,0,0,0,0,0,0,89,0.429,0.677,0.143,17,45,11,0021400862,1610612750,MIN,Minnesota,Ricky Rubio,G,,38:15,0.0,3.0,0.0,0.0,14.0,18.0,2.0,42.0,1.0,1.0,1.0,4.0
0021400862,1610612750,MIN,Minnesota,203476,Gorgui Dieng,,,24:54,96.6,108.1,-11.5,0.0,0.0,0.0,0.067,0.129,0.109,44.4,0.5,0.532,0.131,96.03,0.05,2015-02-27T00:00:00,7,MIN,Minnesota,13-44,23,21,23,22,0,0,0,0,0,0,0,0,0,0,89,0.429,0.677,0.143,17,45,11,0021400862,1610612750,MIN,Minnesota,Gorgui Dieng,,,24:54,2.0,0.0,0.0,0.0,11.0,12.0,4.0,30.0,0.0,1.0,0.0,4.0
0021400862,1610612750,MIN,Minnesota,202390,Gary Neal,,,28:56,90.5,98.8,-8.3,0.133,1.0,10.8,0.0,0.107,0.059,10.8,0.286,0.312,0.264,91.24,0.0,2015-02-27T00:00:00,7,MIN,Minnesota,13-44,23,21,23,22,0,0,0,0,0,0,0,0,0,0,89,0.429,0.677,0.143,17,45,11,0021400862,1610612750,MIN,Minnesota,Gary Neal,,,28:56,0.0,0.0,0.0,2.0,13.0,9.0,4.0,24.0,0.0,1.0,4.0,0.0
0021400862,1610612750,MIN,Minnesota,203897,Zach LaVine,,,9:45,109.2,94.8,14.4,0.4,2.0,22.5,0.143,0.5,0.353,11.3,0.7,0.765,0.356,86.65,0.452,2015-02-27T00:00:00,7,MIN,Minnesota,13-44,23,21,23,22,0,0,0,0,0,0,0,0,0,0,89,0.429,0.677,0.143,17,45,11,0021400862,1610612750,MIN,Minnesota,Zach LaVine,,,9:45,2.0,0.0,0.0,2.0,2.0,0.0,2.0,6.0,1.0,0.0,1.0,2.0
0021400862,1610612750,MIN,Minnesota,201978,Chase Budinger,,,3:01,72.7,116.7,-44.0,0.0,0.0,0.0,0.0,0.0,0.0,0.0,0.0,0.0,0.145,102.47,-0.111,2015-02-27T00:00:00,7,MIN,Minnesota,13-44,23,21,23,22,0,0,0,0,0,0,0,0,0,0,89,0.429,0.677,0.143,17,45,11,0021400862,1610612750,MIN,Minnesota,Chase Budinger,,,3:01,0.0,0.0,0.0,0.0,0.0,2.0,0.0,4.0,0.0,0.0,0.0,0.0
0021400862,1610612750,MIN,Minnesota,203922,Glenn Robinson III,,,8:47,115.1,89.5,25.6,0.0,0.0,0.0,0.0,0.0,0.0,0.0,0.0,1.136,0.053,91.59,0.083,2015-02-27T00:00:00,7,MIN,Minnesota,13-44,23,21,23,22,0,0,0,0,0,0,0,0,0,0,89,0.429,0.677,0.143,17,45,11,0021400862,1610612750,MIN,Minnesota,Glenn Robinson III,,,8:47,0.0,0.0,0.0,0.0,2.0,0.0,2.0,8.0,0.0,0.0,0.0,1.0
0021400862,1610612750,MIN,Minnesota,203485,Lorenzo Brown,,DNP - Coach's Decision                  ,,,,,,,0.0,,,,,,,0.0,,,2015-02-27T00:00:00,7,MIN,Minnesota,13-44,23,21,23,22,0,0,0,0,0,0,0,0,0,0,89,0.429,0.677,0.143,17,45,11,0021400862,1610612750,MIN,Minnesota,Lorenzo Brown,,DNP - Coach's Decision                  ,,,,,,,,,,,,,
0021400862,1610612750,MIN,Minnesota,708,Kevin Garnett,,DNP - Coach's Decision                  ,,,,,,,0.0,,,,,,,0.0,,,2015-02-27T00:00:00,7,MIN,Minnesota,13-44,23,21,23,22,0,0,0,0,0,0,0,0,0,0,89,0.429,0.677,0.143,17,45,11,0021400862,1610612750,MIN,Minnesota,Kevin Garnett,,DNP - Coach's Decision                  ,,,,,,,,,,,,,
0021400862,1610612750,MIN,Minnesota,203133,Robbie Hummel,,DND - Broken Right Hand                 ,,,,,,,0.0,,,,,,,0.0,,,2015-02-27T00:00:00,7,MIN,Minnesota,13-44,23,21,23,22,0,0,0,0,0,0,0,0,0,0,89,0.429,0.677,0.143,17,45,11,0021400862,1610612750,MIN,Minnesota,Robbie Hummel,,DND - Broken Right Hand                 ,,,,,,,,,,,,,
0021400862,1610612741,CHI,Chicago,2399,Mike Dunleavy,F,,31:56,111.2,87.9,23.2,0.176,0.0,14.3,0.105,0.125,0.114,0.0,0.583,0.583,0.233,93.83,0.172,2015-02-27T00:00:00,7,CHI,Chicago,37-22,27,24,22,23,0,0,0,0,0,0,0,0,0,0,96,0.385,0.813,0.29,24,53,9,0021400862,1610612741,CHI,Chicago,Mike Dunleavy,F,,31:56,8.0,7.0,0.0,6.0,10.0,7.0,6.0,6.0,2.0,0.0,5.0,4.0
0021400862,1610612741,CHI,Chicago,201959,Taj Gibson,F,,9:10,124.4,107.7,16.7,0.0,0.0,0.0,0.111,0.111,0.111,0.0,0.4,0.4,0.239,90.38,0.037,2015-02-27T00:00:00,7,CHI,Chicago,37-22,27,24,22,23,0,0,0,0,0,0,0,0,0,0,96,0.385,0.813,0.29,24,53,9,0021400862,1610612741,CHI,Chicago,Taj Gibson,F,,9:10,0.0,0.0,0.0,4.0,2.0,0.0,6.0,2.0,0.0,0.0,1.0,1.0
0021400862,1610612741,CHI,Chicago,201149,Joakim Noah,C,,37:39,113.8,93.4,20.4,0.308,2.67,40.2,0.087,0.229,0.148,15.1,0.625,0.619,0.133,93.81,0.156,2015-02-27T00:00:00,7,CHI,Chicago,37-22,27,24,22,23,0,0,0,0,0,0,0,0,0,0,96,0.385,0.813,0.29,24,53,9,0021400862,1610612741,CHI,Chicago,Joakim Noah,C,,37:39,0.0,4.0,0.0,10.0,10.0,9.0,8.0,12.0,0.0,1.0,3.0,1.0
0021400862,1610612741,CHI,Chicago,202710,Jimmy Butler,G,,42:33,107.2,90.7,16.5,0.043,1.0,4.2,0.098,0.194,0.138,4.2,0.579,0.634,0.226,93.02,0.258,2015-02-27T00:00:00,7,CHI,Chicago,37-22,27,24,22,23,0,0,0,0,0,0,0,0,0,0,96,0.385,0.813,0.29,24,53,9,0021400862,1610612741,CHI,Chicago,Jimmy Butler,G,,42:33,8.0,3.0,4.0,14.0,10.0,5.0,8.0,12.0,2.0,0.0,0.0,7.0
0021400862,1610612741,CHI,Chicago,201166,Aaron Brooks,G,,30:35,117.0,101.1,15.9,0.167,4.0,20.0,0.056,0.087,0.068,5.0,0.2,0.2,0.221,90.84,-0.038,2015-02-27T00:00:00,7,CHI,Chicago,37-22,27,24,22,23,0,0,0,0,0,0,0,0,0,0,96,0.385,0.813,0.29,24,53,9,0021400862,1610612741,CHI,Chicago,Aaron Brooks,G,,30:35,0.0,0.0,0.0,0.0,6.0,5.0,8.0,10.0,0.0,1.0,4.0,0.0
0021400862,1610612741,CHI,Chicago,203503,Tony Snell,,,30:37,104.1,98.1,6.0,0.1,1.0,11.8,0.032,0.167,0.091,11.8,0.417,0.466,0.22,92.31,0.049,2015-02-27T00:00:00,7,CHI,Chicago,37-22,27,24,22,23,0,0,0,0,0,0,0,0,0,0,96,0.385,0.813,0.29,24,53,9,0021400862,1610612741,CHI,Chicago,Tony Snell,,,30:37,0.0,0.0,0.0,4.0,10.0,6.0,2.0,12.0,0.0,0.0,4.0,1.0
0021400862,1610612741,CHI,Chicago,202703,Nikola Mirotic,,,18:49,93.0,103.3,-10.3,0.333,0.0,21.1,0.074,0.143,0.098,0.0,0.222,0.357,0.258,88.31,0.056,2015-02-27T00:00:00,7,CHI,Chicago,37-22,27,24,22,23,0,0,0,0,0,0,0,0,0,0,96,0.385,0.813,0.29,24,53,9,0021400862,1610612741,CHI,Chicago,Nikola Mirotic,,,18:49,0.0,2.0,0.0,4.0,2.0,7.0,2.0,12.0,1.0,0.0,4.0,3.0
0021400862,1610612741,CHI,Chicago,2550,Kirk Hinrich,,,23:03,89.8,92.8,-3.0,0.214,0.0,33.3,0.04,0.05,0.044,0.0,0.333,0.333,0.114,93.5,0.076,2015-02-27T00:00:00,7,CHI,Chicago,37-22,27,24,22,23,0,0,0,0,0,0,0,0,0,0,96,0.385,0.813,0.29,24,53,9,0021400862,1610612741,CHI,Chicago,Kirk Hinrich,,,23:03,0.0,2.0,0.0,4.0,8.0,4.0,0.0,8.0,0.0,0.0,1.0,1.0
0021400862,1610612741,CHI,Chicago,1737,Nazr Mohammed,,,10:21,75.5,102.0,-26.6,0.0,0.0,0.0,0.182,0.333,0.235,40.0,0.333,0.333,0.209,87.0,0.0,2015-02-27T00:00:00,7,CHI,Chicago,37-22,27,24,22,23,0,0,0,0,0,0,0,0,0,0,96,0.385,0.813,0.29,24,53,9,0021400862,1610612741,CHI,Chicago,Nazr Mohammed,,,10:21,0.0,0.0,0.0,2.0,2.0,0.0,0.0,4.0,0.0,0.0,2.0,0.0
0021400862,1610612741,CHI,Chicago,202734,E'Twaun Moore,,,2:26,41.0,100.0,-59.0,0.0,0.0,0.0,0.0,0.0,0.0,0.0,0.0,0.0,0.17,97.45,-0.222,2015-02-27T00:00:00,7,CHI,Chicago,37-22,27,24,22,23,0,0,0,0,0,0,0,0,0,0,96,0.385,0.813,0.29,24,53,9,0021400862,1610612741,CHI,Chicago,E'Twaun Moore,,,2:26,0.0,0.0,0.0,0.0,0.0,2.0,0.0,2.0,0.0,0.0,0.0,0.0
0021400862,1610612741,CHI,Chicago,203926,Doug McDermott,,,2:51,116.7,66.7,50.0,0.0,0.0,0.0,0.0,0.0,0.0,0.0,0.0,0.0,0.0,101.05,0.0,2015-02-27T00:00:00,7,CHI,Chicago,37-22,27,24,22,23,0,0,0,0,0,0,0,0,0,0,96,0.385,0.813,0.29,24,53,9,0021400862,1610612741,CHI,Chicago,Doug McDermott,,,2:51,0.0,0.0,0.0,0.0,0.0,0.0,0.0,0.0,0.0,0.0,0.0,0.0
0021400862,1610612741,CHI,Chicago,203946,Cameron Bairstow,,DNP - Coach's Decision                  ,,,,,,,0.0,,,,,,,0.0,,,2015-02-27T00:00:00,7,CHI,Chicago,37-22,27,24,22,23,0,0,0,0,0,0,0,0,0,0,96,0.385,0.813,0.29,24,53,9,0021400862,1610612741,CHI,Chicago,Cameron Bairstow,,DNP - Coach's Decision                  ,,,,,,,,,,,,,
