GAME_ID_x,TEAM_ID_x,TEAM_ABBREVIATION_x,TEAM_CITY_x,PLAYER_ID,PLAYER_NAME_x,START_POSITION_x,COMMENT_x,MIN_x,OFF_RATING,DEF_RATING,NET_RATING,AST_PCT,AST_TOV,AST_RATIO,OREB_PCT,DREB_PCT,REB_PCT,TM_TOV_PCT,EFG_PCT,TS_PCT,USG_PCT,PACE,PIE,GAME_DATE_EST,GAME_SEQUENCE,TEAM_ABBREVIATION_y,TEAM_CITY_NAME,TEAM_WINS_LOSSES,PTS_QTR1,PTS_QTR2,PTS_QTR3,PTS_QTR4,PTS_OT1,PTS_OT2,PTS_OT3,PTS_OT4,PTS_OT5,PTS_OT6,PTS_OT7,PTS_OT8,PTS_OT9,PTS_OT10,PTS,FG_PCT,FT_PCT,FG3_PCT,AST,REB,TOV,GAME_ID_y,TEAM_ID_y,TEAM_ABBREVIATION,TEAM_CITY_y,PLAYER_NAME_y,START_POSITION_y,COMMENT_y,MIN_y,PTS_OFF_TOV,PTS_2ND_CHANCE,PTS_FB,PTS_PAINT,OPP_PTS_OFF_TOV,OPP_PTS_2ND_CHANCE,OPP_PTS_FB,OPP_PTS_PAINT,BLK,BLKA,PF,PFD
0021400869,1610612760,OKC,Oklahoma City,202713,Kyle Singler,F,,30:38,99.1,127.5,-28.3,0.08,2.0,25.0,0.0,0.167,0.071,12.5,0.3,0.3,0.077,104.74,0.016,2015-02-27T00:00:00,14,OKC,Oklahoma City,32-27,25,34,30,23,0,0,0,0,0,0,0,0,0,0,112,0.479,0.818,0.286,24,47,11,0021400869,1610612760,OKC,Oklahoma City,Kyle Singler,F,,30:38,3.0,0.0,0.0,0.0,12.0,7.0,5.0,34.0,2.0,1.0,4.0,0.0
0021400869,1610612760,OKC,Oklahoma City,201586,Serge Ibaka,F,,39:31,104.0,116.9,-12.8,0.0,0.0,0.0,0.079,0.077,0.078,0.0,0.583,0.583,0.126,101.79,0.076,2015-02-27T00:00:00,14,OKC,Oklahoma City,32-27,25,34,30,23,0,0,0,0,0,0,0,0,0,0,112,0.479,0.818,0.286,24,47,11,0021400869,1610612760,OKC,Oklahoma City,Serge Ibaka,F,,39:31,4.0,2.0,0.0,8.0,14.0,7.0,6.0,42.0,2.0,1.0,2.0,0.0
0021400869,1610612760,OKC,Oklahoma City,2555,Nick Collison,C,,12:19,100.9,117.6,-16.7,0.125,0.5,11.1,0.091,0.182,0.136,22.2,0.5,0.5,0.269,101.86,0.01,2015-02-27T00:00:00,14,OKC,Oklahoma City,32-27,25,34,30,23,0,0,0,0,0,0,0,0,0,0,112,0.479,0.818,0.286,24,47,11,0021400869,1610612760,OKC,Oklahoma City,Nick Collison,C,,12:19,0.0,2.0,0.0,6.0,7.0,0.0,2.0,14.0,0.0,0.0,4.0,0.0
0021400869,1610612760,OKC,Oklahoma City,203460,Andre Roberson,G,,19:56,97.2,127.4,-30.1,0.0,0.0,0.0,0.0,0.211,0.1,0.0,0.5,0.5,0.061,103.04,0.044,2015-02-27T00:00:00,14,OKC,Oklahoma City,32-27,25,34,30,23,0,0,0,0,0,0,0,0,0,0,112,0.479,0.818,0.286,24,47,11,0021400869,1610612760,OKC,Oklahoma City,Andre Roberson,G,,19:56,0.0,0.0,0.0,0.0,10.0,2.0,4.0,20.0,0.0,0.0,1.0,0.0
0021400869,1610612760,OKC,Oklahoma City,201566,Russell Westbrook,G,,37:26,101.2,121.8,-20.6,0.55,1.83,19.9,0.135,0.229,0.181,10.9,0.438,0.524,0.475,102.59,0.225,2015-02-27T00:00:00,14,OKC,Oklahoma City,32-27,25,34,30,23,0,0,0,0,0,0,0,0,0,0,112,0.479,0.818,0.286,24,47,11,0021400869,1610612760,OKC,Oklahoma City,Russell Westbrook,G,,37:26,2.0,2.0,9.0,20.0,14.0,7.0,6.0,40.0,0.0,0.0,1.0,8.0
0021400869,1610612760,OKC,Oklahoma City,203079,Dion Waiters,,,27:53,116.7,108.3,8.4,0.08,0.0,13.4,0.045,0.107,0.08,0.0,0.25,0.272,0.194,99.46,-0.023,2015-02-27T00:00:00,14,OKC,Oklahoma City,32-27,25,34,30,23,0,0,0,0,0,0,0,0,0,0,112,0.479,0.818,0.286,24,47,11,0021400869,1610612760,OKC,Oklahoma City,Dion Waiters,,,27:53,4.0,0.0,3.0,2.0,4.0,6.0,3.0,30.0,0.0,1.0,5.0,3.0
0021400869,1610612760,OKC,Oklahoma City,203956,Mitch McGary,,,28:07,116.1,105.7,10.4,0.105,1.0,11.8,0.143,0.214,0.184,11.8,0.769,0.769,0.23,100.74,0.191,2015-02-27T00:00:00,14,OKC,Oklahoma City,32-27,25,34,30,23,0,0,0,0,0,0,0,0,0,0,112,0.479,0.818,0.286,24,47,11,0021400869,1610612760,OKC,Oklahoma City,Mitch McGary,,,28:07,2.0,2.0,4.0,18.0,5.0,4.0,5.0,28.0,0.0,0.0,2.0,0.0
0021400869,1610612760,OKC,Oklahoma City,201627,Anthony Morrow,,,24:10,126.8,97.6,29.2,0.1,0.0,25.8,0.0,0.115,0.067,0.0,1.25,1.128,0.104,97.94,0.14,2015-02-27T00:00:00,14,OKC,Oklahoma City,32-27,25,34,30,23,0,0,0,0,0,0,0,0,0,0,112,0.479,0.818,0.286,24,47,11,0021400869,1610612760,OKC,Oklahoma City,Anthony Morrow,,,24:10,0.0,2.0,3.0,4.0,2.0,5.0,3.0,22.0,0.0,0.0,3.0,1.0
0021400869,1610612760,OKC,Oklahoma City,201571,D.J. Augustin,,,19:59,113.2,112.1,1.1,0.25,0.0,33.7,0.0,0.05,0.026,0.0,0.286,0.381,0.154,102.3,0.096,2015-02-27T00:00:00,14,OKC,Oklahoma City,32-27,25,34,30,23,0,0,0,0,0,0,0,0,0,0,112,0.479,0.818,0.286,24,47,11,0021400869,1610612760,OKC,Oklahoma City,D.J. Augustin,,,19:59,0.0,0.0,2.0,0.0,2.0,7.0,1.0,20.0,0.0,1.0,1.0,2.0
0021400869,1610612760,OKC,Oklahoma City,203103,Perry Jones III,,DNP - Coach's Decision                  ,,,,,,,0.0,,,,,,,0.0,,,2015-02-27T00:00:00,14,OKC,Oklahoma City,32-27,25,34,30,23,0,0,0,0,0,0,0,0,0,0,112,0.479,0.818,0.286,24,47,11,0021400869,1610612760,OKC,Oklahoma City,Perry Jones III,,DNP - Coach's Decision                  ,,,,,,,,,,,,,
0021400869,1610612760,OKC,Oklahoma City,202683,Enes Kanter,,DND - Right thigh contusion             ,,,,,,,0.0,,,,,,,0.0,,,2015-02-27T00:00:00,14,OKC,Oklahoma City,32-27,25,34,30,23,0,0,0,0,0,0,0,0,0,0,112,0.479,0.818,0.286,24,47,11,0021400869,1610612760,OKC,Oklahoma City,Enes Kanter,,DND - Right thigh contusion             ,,,,,,,,,,,,,
0021400869,1610612760,OKC,Oklahoma City,203087,Jeremy Lamb,,DNP - Coach's Decision                  ,,,,,,,0.0,,,,,,,0.0,,,2015-02-27T00:00:00,14,OKC,Oklahoma City,32-27,25,34,30,23,0,0,0,0,0,0,0,0,0,0,112,0.479,0.818,0.286,24,47,11,0021400869,1610612760,OKC,Oklahoma City,Jeremy Lamb,,DNP - Coach's Decision                  ,,,,,,,,,,,,,
0021400869,1610612757,POR,Portland,201587,Nicolas Batum,F,,38:38,119.7,100.5,19.2,0.097,1.0,22.5,0.0,0.108,0.055,22.5,0.5,0.615,0.114,103.41,0.058,2015-02-27T00:00:00,14,POR,Portland,38-19,28,19,31,37,0,0,0,0,0,0,0,0,0,0,115,0.438,0.871,0.385,20,43,9,0021400869,1610612757,POR,Portland,Nicolas Batum,F,,38:38,0.0,0.0,0.0,0.0,12.0,6.0,18.0,48.0,1.0,0.0,2.0,2.0
0021400869,1610612757,POR,Portland,200746,LaMarcus Aldridge,F,,38:45,118.3,100.5,17.8,0.217,5.0,15.0,0.184,0.243,0.213,3.0,0.435,0.529,0.305,103.18,0.193,2015-02-27T00:00:00,14,POR,Portland,38-19,28,19,31,37,0,0,0,0,0,0,0,0,0,0,115,0.438,0.871,0.385,20,43,9,0021400869,1610612757,POR,Portland,LaMarcus Aldridge,F,,38:45,2.0,7.0,2.0,14.0,12.0,6.0,18.0,48.0,1.0,1.0,2.0,6.0
0021400869,1610612757,POR,Portland,201577,Robin Lopez,C,,25:36,111.7,116.8,-5.1,0.059,1.0,10.0,0.077,0.143,0.106,10.0,0.5,0.5,0.151,100.94,0.068,2015-02-27T00:00:00,14,POR,Portland,38-19,28,19,31,37,0,0,0,0,0,0,0,0,0,0,115,0.438,0.871,0.385,20,43,9,0021400869,1610612757,POR,Portland,Robin Lopez,C,,25:36,0.0,0.0,0.0,6.0,10.0,2.0,10.0,34.0,0.0,1.0,0.0,0.0
0021400869,1610612757,POR,Portland,202083,Wesley Matthews,G,,32:53,114.1,106.2,7.9,0.125,3.0,16.8,0.031,0.156,0.094,5.6,0.231,0.288,0.19,104.09,0.051,2015-02-27T00:00:00,14,POR,Portland,38-19,28,19,31,37,0,0,0,0,0,0,0,0,0,0,115,0.438,0.871,0.385,20,43,9,0021400869,1610612757,POR,Portland,Wesley Matthews,G,,32:53,3.0,0.0,0.0,0.0,11.0,10.0,14.0,32.0,1.0,0.0,1.0,3.0
0021400869,1610612757,POR,Portland,203081,Damian Lillard,G,,36:41,120.6,101.2,19.4,0.238,5.0,15.9,0.0,0.083,0.042,3.2,0.5,0.568,0.302,104.55,0.151,2015-02-27T00:00:00,14,POR,Portland,38-19,28,19,31,37,0,0,0,0,0,0,0,0,0,0,115,0.438,0.871,0.385,20,43,9,0021400869,1610612757,POR,Portland,Damian Lillard,G,,36:41,9.0,0.0,4.0,16.0,10.0,8.0,15.0,44.0,0.0,1.0,1.0,6.0
0021400869,1610612757,POR,Portland,201167,Arron Afflalo,,,30:35,115.9,110.7,5.2,0.105,2.0,16.0,0.0,0.069,0.034,8.0,1.0,0.945,0.15,99.8,0.12,2015-02-27T00:00:00,14,POR,Portland,38-19,28,19,31,37,0,0,0,0,0,0,0,0,0,0,115,0.438,0.871,0.385,20,43,9,0021400869,1610612757,POR,Portland,Arron Afflalo,,,30:35,0.0,0.0,1.0,6.0,7.0,8.0,15.0,40.0,0.0,0.0,4.0,4.0
0021400869,1610612757,POR,Portland,2581,Steve Blake,,,11:19,95.8,132.5,-36.7,0.143,1.0,33.3,0.0,0.0,0.0,33.3,1.5,1.5,0.084,92.3,0.022,2015-02-27T00:00:00,14,POR,Portland,38-19,28,19,31,37,0,0,0,0,0,0,0,0,0,0,115,0.438,0.871,0.385,20,43,9,0021400869,1610612757,POR,Portland,Steve Blake,,,11:19,0.0,0.0,0.0,0.0,5.0,2.0,6.0,14.0,0.0,0.0,2.0,1.0
0021400869,1610612757,POR,Portland,2549,Chris Kaman,,,13:52,97.7,121.1,-23.4,0.0,0.0,0.0,0.154,0.455,0.292,0.0,0.667,0.667,0.196,96.44,0.22,2015-02-27T00:00:00,14,POR,Portland,38-19,28,19,31,37,0,0,0,0,0,0,0,0,0,0,115,0.438,0.871,0.385,20,43,9,0021400869,1610612757,POR,Portland,Chris Kaman,,,13:52,0.0,2.0,0.0,8.0,5.0,4.0,6.0,16.0,0.0,0.0,0.0,1.0
0021400869,1610612757,POR,Portland,203086,Meyers Leonard,,,5:36,81.8,155.7,-73.9,0.0,0.0,0.0,0.0,0.0,0.0,0.0,0.5,0.5,0.273,99.43,-0.018,2015-02-27T00:00:00,14,POR,Portland,38-19,28,19,31,37,0,0,0,0,0,0,0,0,0,0,115,0.438,0.871,0.385,20,43,9,0021400869,1610612757,POR,Portland,Meyers Leonard,,,5:36,0.0,0.0,0.0,0.0,3.0,2.0,3.0,6.0,1.0,1.0,2.0,0.0
0021400869,1610612757,POR,Portland,2748,Dorell Wright,,,6:05,164.2,93.2,71.1,0.0,0.0,0.0,0.0,0.0,0.0,0.0,0.0,0.0,0.077,94.05,-0.059,2015-02-27T00:00:00,14,POR,Portland,38-19,28,19,31,37,0,0,0,0,0,0,0,0,0,0,115,0.438,0.871,0.385,20,43,9,0021400869,1610612757,POR,Portland,Dorell Wright,,,6:05,0.0,0.0,0.0,0.0,0.0,2.0,0.0,8.0,0.0,0.0,0.0,0.0
0021400869,1610612757,POR,Portland,203459,Allen Crabbe,,DNP - Coach's Decision                  ,,,,,,,0.0,,,,,,,0.0,,,2015-02-27T00:00:00,14,POR,Portland,38-19,28,19,31,37,0,0,0,0,0,0,0,0,0,0,115,0.438,0.871,0.385,20,43,9,0021400869,1610612757,POR,Portland,Allen Crabbe,,DNP - Coach's Decision                  ,,,,,,,,,,,,,
0021400869,1610612757,POR,Portland,202087,Alonzo Gee,,DNP - Coach's Decision                  ,,,,,,,0.0,,,,,,,0.0,,,2015-02-27T00:00:00,14,POR,Portland,38-19,28,19,31,37,0,0,0,0,0,0,0,0,0,0,115,0.438,0.871,0.385,20,43,9,0021400869,1610612757,POR,Portland,Alonzo Gee,,DNP - Coach's Decision                  ,,,,,,,,,,,,,
0021400869,1610612757,POR,Portland,203468,CJ McCollum,,DNP - Coach's Decision                  ,,,,,,,0.0,,,,,,,0.0,,,2015-02-27T00:00:00,14,POR,Portland,38-19,28,19,31,37,0,0,0,0,0,0,0,0,0,0,115,0.438,0.871,0.385,20,43,9,0021400869,1610612757,POR,Portland,CJ McCollum,,DNP - Coach's Decision                  ,,,,,,,,,,,,,
