GAME_ID_x,TEAM_ID_x,TEAM_ABBREVIATION_x,TEAM_CITY_x,PLAYER_ID,PLAYER_NAME_x,START_POSITION_x,COMMENT_x,MIN_x,OFF_RATING,DEF_RATING,NET_RATING,AST_PCT,AST_TOV,AST_RATIO,OREB_PCT,DREB_PCT,REB_PCT,TM_TOV_PCT,EFG_PCT,TS_PCT,USG_PCT,PACE,PIE,GAME_DATE_EST,GAME_SEQUENCE,TEAM_ABBREVIATION_y,TEAM_CITY_NAME,TEAM_WINS_LOSSES,PTS_QTR1,PTS_QTR2,PTS_QTR3,PTS_QTR4,PTS_OT1,PTS_OT2,PTS_OT3,PTS_OT4,PTS_OT5,PTS_OT6,PTS_OT7,PTS_OT8,PTS_OT9,PTS_OT10,PTS,FG_PCT,FT_PCT,FG3_PCT,AST,REB,TOV,GAME_ID_y,TEAM_ID_y,TEAM_ABBREVIATION,TEAM_CITY_y,PLAYER_NAME_y,START_POSITION_y,COMMENT_y,MIN_y,PTS_OFF_TOV,PTS_2ND_CHANCE,PTS_FB,PTS_PAINT,OPP_PTS_OFF_TOV,OPP_PTS_2ND_CHANCE,OPP_PTS_FB,OPP_PTS_PAINT,BLK,BLKA,PF,PFD
0021400872,1610612761,TOR,Toronto,101161,Amir Johnson,F,,19:58,77.0,82.2,-5.1,0.125,1.0,10.0,0.174,0.176,0.175,10.0,0.5,0.5,0.206,90.58,0.154,2015-02-28T00:00:00,3,TOR,Toronto,37-22,15,32,24,27,0,0,0,0,0,0,0,0,0,0,98,0.42,0.786,0.276,16,40,12,0021400872,1610612761,TOR,Toronto,Amir Johnson,F,,19:58,2.0,4.0,0.0,8.0,6.0,4.0,2.0,10.0,0.0,1.0,4.0,0.0
0021400872,1610612761,TOR,Toronto,201949,James Johnson,F,,32:42,105.6,98.7,6.9,0.111,0.67,11.5,0.031,0.231,0.121,17.3,0.545,0.568,0.206,99.16,0.105,2015-02-28T00:00:00,3,TOR,Toronto,37-22,15,32,24,27,0,0,0,0,0,0,0,0,0,0,98,0.42,0.786,0.276,16,40,12,0021400872,1610612761,TOR,Toronto,James Johnson,F,,32:42,0.0,2.0,3.0,12.0,13.0,9.0,6.0,22.0,3.0,0.0,4.0,2.0
0021400872,1610612761,TOR,Toronto,202685,Jonas Valanciunas,C,,27:30,108.3,120.0,-11.7,0.0,0.0,0.0,0.048,0.368,0.2,0.0,0.75,0.752,0.188,90.24,0.159,2015-02-28T00:00:00,3,TOR,Toronto,37-22,15,32,24,27,0,0,0,0,0,0,0,0,0,0,98,0.42,0.786,0.276,16,40,12,0021400872,1610612761,TOR,Toronto,Jonas Valanciunas,C,,27:30,2.0,2.0,0.0,8.0,11.0,8.0,4.0,22.0,0.0,1.0,6.0,6.0
0021400872,1610612761,TOR,Toronto,201942,DeMar DeRozan,G,,40:18,100.4,101.1,-0.7,0.077,0.0,9.7,0.0,0.091,0.041,0.0,0.2,0.351,0.204,96.33,0.038,2015-02-28T00:00:00,3,TOR,Toronto,37-22,15,32,24,27,0,0,0,0,0,0,0,0,0,0,98,0.42,0.786,0.276,16,40,12,0021400872,1610612761,TOR,Toronto,DeMar DeRozan,G,,40:18,0.0,2.0,0.0,0.0,13.0,8.0,6.0,30.0,0.0,2.0,3.0,6.0
0021400872,1610612761,TOR,Toronto,202349,Greivis Vasquez,G,,33:59,98.5,93.7,4.8,0.3,2.0,27.3,0.061,0.036,0.049,13.6,0.538,0.538,0.21,97.01,0.07,2015-02-28T00:00:00,3,TOR,Toronto,37-22,15,32,24,27,0,0,0,0,0,0,0,0,0,0,98,0.42,0.786,0.276,16,40,12,0021400872,1610612761,TOR,Toronto,Greivis Vasquez,G,,33:59,3.0,0.0,2.0,2.0,12.0,8.0,4.0,24.0,0.0,0.0,4.0,1.0
0021400872,1610612761,TOR,Toronto,202335,Patrick Patterson,,,27:45,106.8,114.9,-8.1,0.133,0.67,16.7,0.038,0.211,0.111,25.0,0.714,0.714,0.163,96.71,0.082,2015-02-28T00:00:00,3,TOR,Toronto,37-22,15,32,24,27,0,0,0,0,0,0,0,0,0,0,98,0.42,0.786,0.276,16,40,12,0021400872,1610612761,TOR,Toronto,Patrick Patterson,,,27:45,7.0,2.0,0.0,2.0,7.0,9.0,2.0,26.0,0.0,0.0,5.0,0.0
0021400872,1610612761,TOR,Toronto,203082,Terrence Ross,,,15:49,98.6,139.4,-40.8,0.0,0.0,0.0,0.0,0.2,0.08,33.3,0.0,0.0,0.096,91.41,-0.036,2015-02-28T00:00:00,3,TOR,Toronto,37-22,15,32,24,27,0,0,0,0,0,0,0,0,0,0,98,0.42,0.786,0.276,16,40,12,0021400872,1610612761,TOR,Toronto,Terrence Ross,,,15:49,0.0,0.0,0.0,0.0,1.0,7.0,2.0,20.0,0.0,0.0,1.0,0.0
0021400872,1610612761,TOR,Toronto,101150,Lou Williams,,,33:11,110.7,113.8,-3.1,0.158,3.0,12.5,0.0,0.071,0.034,4.2,0.438,0.551,0.284,100.53,0.116,2015-02-28T00:00:00,3,TOR,Toronto,37-22,15,32,24,27,0,0,0,0,0,0,0,0,0,0,98,0.42,0.786,0.276,16,40,12,0021400872,1610612761,TOR,Toronto,Lou Williams,,,33:11,2.0,0.0,4.0,6.0,7.0,7.0,4.0,36.0,1.0,1.0,0.0,5.0
0021400872,1610612761,TOR,Toronto,201946,Tyler Hansbrough,,,8:48,123.8,109.4,14.4,0.0,0.0,0.0,0.111,0.2,0.158,0.0,0.0,0.266,0.099,98.62,0.042,2015-02-28T00:00:00,3,TOR,Toronto,37-22,15,32,24,27,0,0,0,0,0,0,0,0,0,0,98,0.42,0.786,0.276,16,40,12,0021400872,1610612761,TOR,Toronto,Tyler Hansbrough,,,8:48,0.0,1.0,0.0,0.0,0.0,5.0,0.0,10.0,0.0,0.0,0.0,1.0
0021400872,1610612761,TOR,Toronto,202361,Landry Fields,,DNP - Coach's Decision                  ,,,,,,,0.0,,,,,,,0.0,,,2015-02-28T00:00:00,3,TOR,Toronto,37-22,15,32,24,27,0,0,0,0,0,0,0,0,0,0,98,0.42,0.786,0.276,16,40,12,0021400872,1610612761,TOR,Toronto,Landry Fields,,DNP - Coach's Decision                  ,,,,,,,,,,,,,
0021400872,1610612761,TOR,Toronto,101236,Chuck Hayes,,DNP - Coach's Decision                  ,,,,,,,0.0,,,,,,,0.0,,,2015-02-28T00:00:00,3,TOR,Toronto,37-22,15,32,24,27,0,0,0,0,0,0,0,0,0,0,98,0.42,0.786,0.276,16,40,12,0021400872,1610612761,TOR,Toronto,Chuck Hayes,,DNP - Coach's Decision                  ,,,,,,,,,,,,,
0021400872,1610612761,TOR,Toronto,203512,Lucas Nogueira,,DNP - Coach's Decision                  ,,,,,,,0.0,,,,,,,0.0,,,2015-02-28T00:00:00,3,TOR,Toronto,37-22,15,32,24,27,0,0,0,0,0,0,0,0,0,0,98,0.42,0.786,0.276,16,40,12,0021400872,1610612761,TOR,Toronto,Lucas Nogueira,,DNP - Coach's Decision                  ,,,,,,,,,,,,,
0021400872,1610612761,TOR,Toronto,201880,Greg Stiemsma,,DNP - Coach's Decision                  ,,,,,,,0.0,,,,,,,0.0,,,2015-02-28T00:00:00,3,TOR,Toronto,37-22,15,32,24,27,0,0,0,0,0,0,0,0,0,0,98,0.42,0.786,0.276,16,40,12,0021400872,1610612761,TOR,Toronto,Greg Stiemsma,,DNP - Coach's Decision                  ,,,,,,,,,,,,,
0021400872,1610612752,NYK,New York,200811,Lou Amundson,F,,24:26,90.3,86.0,4.3,0.231,3.0,23.7,0.0,0.12,0.068,7.9,0.5,0.521,0.176,98.01,0.079,2015-02-28T00:00:00,3,NYK,New York,12-46,22,28,25,28,0,0,0,0,0,0,0,0,0,0,103,0.44,0.789,0.368,21,44,11,0021400872,1610612752,NYK,New York,Lou Amundson,F,,24:26,1.0,0.0,0.0,4.0,7.0,2.0,4.0,18.0,3.0,0.0,4.0,3.0
0021400872,1610612752,NYK,New York,203921,Cleanthony Early,F,,19:38,99.9,87.3,12.6,0.222,0.0,13.7,0.067,0.15,0.114,0.0,0.2,0.356,0.301,90.07,0.143,2015-02-28T00:00:00,3,NYK,New York,12-46,22,28,25,28,0,0,0,0,0,0,0,0,0,0,103,0.44,0.789,0.368,21,44,11,0021400872,1610612752,NYK,New York,Cleanthony Early,F,,19:38,4.0,1.0,2.0,2.0,4.0,6.0,2.0,16.0,0.0,2.0,1.0,3.0
0021400872,1610612752,NYK,New York,200745,Andrea Bargnani,C,,31:20,95.6,112.7,-17.1,0.077,0.33,5.2,0.033,0.069,0.051,15.7,0.542,0.63,0.255,96.61,0.118,2015-02-28T00:00:00,3,NYK,New York,12-46,22,28,25,28,0,0,0,0,0,0,0,0,0,0,103,0.44,0.789,0.368,21,44,11,0021400872,1610612752,NYK,New York,Andrea Bargnani,C,,31:20,2.0,2.0,0.0,8.0,11.0,10.0,9.0,30.0,0.0,1.0,1.0,5.0
0021400872,1610612752,NYK,New York,204038,Langston Galloway,G,,26:12,90.9,94.8,-4.0,0.071,1.0,14.3,0.115,0.179,0.148,14.3,0.6,0.6,0.097,99.71,0.131,2015-02-28T00:00:00,3,NYK,New York,12-46,22,28,25,28,0,0,0,0,0,0,0,0,0,0,103,0.44,0.789,0.368,21,44,11,0021400872,1610612752,NYK,New York,Langston Galloway,G,,26:12,3.0,3.0,0.0,0.0,7.0,8.0,6.0,24.0,0.0,0.0,2.0,1.0
0021400872,1610612752,NYK,New York,203501,Tim Hardaway Jr.,G,,35:27,98.5,100.1,-1.6,0.083,0.0,5.2,0.0,0.206,0.113,0.0,0.6,0.608,0.238,94.79,0.174,2015-02-28T00:00:00,3,NYK,New York,12-46,22,28,25,28,0,0,0,0,0,0,0,0,0,0,103,0.44,0.789,0.368,21,44,11,0021400872,1610612752,NYK,New York,Tim Hardaway Jr.,G,,35:27,0.0,0.0,2.0,6.0,11.0,13.0,8.0,30.0,0.0,0.0,2.0,5.0
0021400872,1610612752,NYK,New York,202332,Cole Aldrich,,,17:16,140.0,115.1,24.9,0.091,1.0,13.9,0.0,0.267,0.16,13.9,0.667,0.865,0.184,86.16,0.162,2015-02-28T00:00:00,3,NYK,New York,12-46,22,28,25,28,0,0,0,0,0,0,0,0,0,0,103,0.44,0.789,0.368,21,44,11,0021400872,1610612752,NYK,New York,Cole Aldrich,,,17:16,0.0,0.0,0.0,4.0,4.0,9.0,2.0,12.0,1.0,0.0,4.0,3.0
0021400872,1610612752,NYK,New York,201160,Jason Smith,,,19:49,124.5,94.3,30.2,0.188,3.0,37.5,0.0,0.25,0.147,12.5,0.25,0.25,0.116,97.42,0.083,2015-02-28T00:00:00,3,NYK,New York,12-46,22,28,25,28,0,0,0,0,0,0,0,0,0,0,103,0.44,0.789,0.368,21,44,11,0021400872,1610612752,NYK,New York,Jason Smith,,,19:49,0.0,0.0,0.0,2.0,5.0,3.0,3.0,14.0,0.0,0.0,1.0,1.0
0021400872,1610612752,NYK,New York,202498,Lance Thomas,,,25:50,119.4,116.8,2.6,0.167,3.0,23.3,0.15,0.087,0.116,7.8,0.375,0.45,0.18,98.31,0.083,2015-02-28T00:00:00,3,NYK,New York,12-46,22,28,25,28,0,0,0,0,0,0,0,0,0,0,103,0.44,0.789,0.368,21,44,11,0021400872,1610612752,NYK,New York,Lance Thomas,,,25:50,2.0,4.0,0.0,6.0,12.0,7.0,5.0,20.0,1.0,0.0,0.0,2.0
0021400872,1610612752,NYK,New York,203499,Shane Larkin,,,20:04,127.3,113.6,13.6,0.071,0.0,16.7,0.0,0.2,0.115,0.0,0.4,0.4,0.126,91.42,0.0,2015-02-28T00:00:00,3,NYK,New York,12-46,22,28,25,28,0,0,0,0,0,0,0,0,0,0,103,0.44,0.789,0.368,21,44,11,0021400872,1610612752,NYK,New York,Shane Larkin,,,20:04,0.0,0.0,0.0,4.0,9.0,4.0,3.0,14.0,0.0,1.0,5.0,1.0
0021400872,1610612752,NYK,New York,203144,Alexey Shved,,,19:58,106.9,106.7,0.2,0.417,1.67,29.1,0.0,0.095,0.053,17.4,0.714,0.815,0.265,104.64,0.225,2015-02-28T00:00:00,3,NYK,New York,12-46,22,28,25,28,0,0,0,0,0,0,0,0,0,0,103,0.44,0.789,0.368,21,44,11,0021400872,1610612752,NYK,New York,Alexey Shved,,,19:58,2.0,3.0,2.0,4.0,10.0,3.0,3.0,12.0,0.0,0.0,1.0,3.0
0021400872,1610612752,NYK,New York,203112,Quincy Acy,,DNP - Coach's Decision                  ,,,,,,,0.0,,,,,,,0.0,,,2015-02-28T00:00:00,3,NYK,New York,12-46,22,28,25,28,0,0,0,0,0,0,0,0,0,0,103,0.44,0.789,0.368,21,44,11,0021400872,1610612752,NYK,New York,Quincy Acy,,DNP - Coach's Decision                  ,,,,,,,,,,,,,
0021400872,1610612752,NYK,New York,101181,Jose Calderon,,DND - Strained Left Achilles            ,,,,,,,0.0,,,,,,,0.0,,,2015-02-28T00:00:00,3,NYK,New York,12-46,22,28,25,28,0,0,0,0,0,0,0,0,0,0,103,0.44,0.789,0.368,21,44,11,0021400872,1610612752,NYK,New York,Jose Calderon,,DND - Strained Left Achilles            ,,,,,,,,,,,,,
0021400872,1610612752,NYK,New York,204037,Travis Wear,,DNP - Coach's Decision                  ,,,,,,,0.0,,,,,,,0.0,,,2015-02-28T00:00:00,3,NYK,New York,12-46,22,28,25,28,0,0,0,0,0,0,0,0,0,0,103,0.44,0.789,0.368,21,44,11,0021400872,1610612752,NYK,New York,Travis Wear,,DNP - Coach's Decision                  ,,,,,,,,,,,,,
