GAME_ID_x,TEAM_ID_x,TEAM_ABBREVIATION_x,TEAM_CITY_x,PLAYER_ID,PLAYER_NAME_x,START_POSITION_x,COMMENT_x,MIN_x,OFF_RATING,DEF_RATING,NET_RATING,AST_PCT,AST_TOV,AST_RATIO,OREB_PCT,DREB_PCT,REB_PCT,TM_TOV_PCT,EFG_PCT,TS_PCT,USG_PCT,PACE,PIE,GAME_DATE_EST,GAME_SEQUENCE,TEAM_ABBREVIATION_y,TEAM_CITY_NAME,TEAM_WINS_LOSSES,PTS_QTR1,PTS_QTR2,PTS_QTR3,PTS_QTR4,PTS_OT1,PTS_OT2,PTS_OT3,PTS_OT4,PTS_OT5,PTS_OT6,PTS_OT7,PTS_OT8,PTS_OT9,PTS_OT10,PTS,FG_PCT,FT_PCT,FG3_PCT,AST,REB,TOV,GAME_ID_y,TEAM_ID_y,TEAM_ABBREVIATION,TEAM_CITY_y,PLAYER_NAME_y,START_POSITION_y,COMMENT_y,MIN_y,PTS_OFF_TOV,PTS_2ND_CHANCE,PTS_FB,PTS_PAINT,OPP_PTS_OFF_TOV,OPP_PTS_2ND_CHANCE,OPP_PTS_FB,OPP_PTS_PAINT,BLK,BLKA,PF,PFD
0021400880,1610612744,GSW,Golden State,203084,Harrison Barnes,F,,30:02,114.2,108.1,6.1,0.0,0.0,0.0,0.114,0.105,0.11,6.3,0.536,0.571,0.223,102.21,0.088,2015-03-01T00:00:00,4,GSW,Golden State,46-11,25,24,26,31,0,0,0,0,0,0,0,0,0,0,106,0.421,0.824,0.353,19,55,10,0021400880,1610612744,GSW,Golden State,Harrison Barnes,F,,30:02,0.0,4.0,0.0,4.0,8.0,24.0,16.0,34.0,0.0,0.0,3.0,2.0
0021400880,1610612744,GSW,Golden State,203110,Draymond Green,F,,43:46,114.0,89.2,24.8,0.118,4.0,19.4,0.043,0.158,0.107,4.8,0.385,0.448,0.164,99.6,0.091,2015-03-01T00:00:00,4,GSW,Golden State,46-11,25,24,26,31,0,0,0,0,0,0,0,0,0,0,106,0.421,0.824,0.353,19,55,10,0021400880,1610612744,GSW,Golden State,Draymond Green,F,,43:46,2.0,3.0,0.0,4.0,11.0,21.0,17.0,38.0,3.0,1.0,4.0,5.0
0021400880,1610612744,GSW,Golden State,101106,Andrew Bogut,C,,18:43,94.9,113.9,-19.0,0.231,0.0,33.3,0.167,0.333,0.238,0.0,0.167,0.167,0.14,96.84,0.111,2015-03-01T00:00:00,4,GSW,Golden State,46-11,25,24,26,31,0,0,0,0,0,0,0,0,0,0,106,0.421,0.824,0.353,19,55,10,0021400880,1610612744,GSW,Golden State,Andrew Bogut,C,,18:43,0.0,2.0,0.0,2.0,6.0,6.0,11.0,20.0,2.0,0.0,2.0,0.0
0021400880,1610612744,GSW,Golden State,202691,Klay Thompson,G,,38:17,116.9,93.6,23.3,0.077,0.0,8.0,0.0,0.106,0.057,0.0,0.435,0.435,0.256,99.6,0.09,2015-03-01T00:00:00,4,GSW,Golden State,46-11,25,24,26,31,0,0,0,0,0,0,0,0,0,0,106,0.421,0.824,0.353,19,55,10,0021400880,1610612744,GSW,Golden State,Klay Thompson,G,,38:17,0.0,2.0,0.0,6.0,11.0,19.0,16.0,36.0,1.0,0.0,2.0,3.0
0021400880,1610612744,GSW,Golden State,201939,Stephen Curry,G,,37:38,104.8,91.0,13.7,0.294,1.0,14.8,0.0,0.082,0.043,14.8,0.75,0.779,0.319,101.76,0.254,2015-03-01T00:00:00,4,GSW,Golden State,46-11,25,24,26,31,0,0,0,0,0,0,0,0,0,0,106,0.421,0.824,0.353,19,55,10,0021400880,1610612744,GSW,Golden State,Stephen Curry,G,,37:38,5.0,0.0,8.0,14.0,11.0,17.0,17.0,32.0,0.0,0.0,1.0,3.0
0021400880,1610612744,GSW,Golden State,2738,Andre Iguodala,,,32:41,112.8,88.9,23.9,0.125,0.0,42.9,0.029,0.17,0.111,0.0,0.75,0.75,0.052,100.84,0.17,2015-03-01T00:00:00,4,GSW,Golden State,46-11,25,24,26,31,0,0,0,0,0,0,0,0,0,0,106,0.421,0.824,0.353,19,55,10,0021400880,1610612744,GSW,Golden State,Andre Iguodala,,,32:41,2.0,0.0,2.0,6.0,9.0,20.0,11.0,30.0,1.0,0.0,0.0,1.0
0021400880,1610612744,GSW,Golden State,101135,David Lee,,,7:44,71.1,141.0,-69.9,0.0,0.0,0.0,0.25,0.2,0.227,17.0,0.25,0.307,0.296,109.61,0.014,2015-03-01T00:00:00,4,GSW,Golden State,46-11,25,24,26,31,0,0,0,0,0,0,0,0,0,0,106,0.421,0.824,0.353,19,55,10,0021400880,1610612744,GSW,Golden State,David Lee,,,7:44,0.0,3.0,0.0,2.0,2.0,5.0,8.0,10.0,0.0,1.0,1.0,1.0
0021400880,1610612744,GSW,Golden State,2571,Leandro Barbosa,,,5:13,50.6,144.7,-94.1,0.0,0.0,0.0,0.0,0.0,0.0,0.0,0.0,0.0,0.168,102.69,-0.091,2015-03-01T00:00:00,4,GSW,Golden State,46-11,25,24,26,31,0,0,0,0,0,0,0,0,0,0,106,0.421,0.824,0.353,19,55,10,0021400880,1610612744,GSW,Golden State,Leandro Barbosa,,,5:13,0.0,0.0,0.0,0.0,2.0,5.0,5.0,8.0,0.0,1.0,0.0,0.0
0021400880,1610612744,GSW,Golden State,2733,Shaun Livingston,,,19:34,110.6,95.1,15.5,0.143,1.0,19.4,0.05,0.0,0.023,19.4,0.4,0.554,0.193,97.1,0.015,2015-03-01T00:00:00,4,GSW,Golden State,46-11,25,24,26,31,0,0,0,0,0,0,0,0,0,0,106,0.421,0.824,0.353,19,55,10,0021400880,1610612744,GSW,Golden State,Shaun Livingston,,,19:34,0.0,0.0,0.0,2.0,5.0,11.0,8.0,18.0,1.0,0.0,4.0,2.0
0021400880,1610612744,GSW,Golden State,203200,Justin Holiday,,,6:22,127.6,72.0,55.6,0.0,0.0,0.0,0.0,0.2,0.118,0.0,0.0,0.0,0.131,102.43,-0.044,2015-03-01T00:00:00,4,GSW,Golden State,46-11,25,24,26,31,0,0,0,0,0,0,0,0,0,0,106,0.421,0.824,0.353,19,55,10,0021400880,1610612744,GSW,Golden State,Justin Holiday,,,6:22,0.0,0.0,0.0,0.0,0.0,2.0,1.0,4.0,0.0,0.0,1.0,0.0
0021400880,1610612744,GSW,Golden State,203105,Festus Ezeli,,NWT - NBA Suspension                    ,,,,,,,0.0,,,,,,,0.0,,,2015-03-01T00:00:00,4,GSW,Golden State,46-11,25,24,26,31,0,0,0,0,0,0,0,0,0,0,106,0.421,0.824,0.353,19,55,10,0021400880,1610612744,GSW,Golden State,Festus Ezeli,,NWT - NBA Suspension                    ,,,,,,,,,,,,,
0021400880,1610612744,GSW,Golden State,201575,Brandon Rush,,DNP - Coach's Decision                  ,,,,,,,0.0,,,,,,,0.0,,,2015-03-01T00:00:00,4,GSW,Golden State,46-11,25,24,26,31,0,0,0,0,0,0,0,0,0,0,106,0.421,0.824,0.353,19,55,10,0021400880,1610612744,GSW,Golden State,Brandon Rush,,DNP - Coach's Decision                  ,,,,,,,,,,,,,
0021400880,1610612744,GSW,Golden State,201578,Marreese Speights,,DNP - Coach's Decision                  ,,,,,,,0.0,,,,,,,0.0,,,2015-03-01T00:00:00,4,GSW,Golden State,46-11,25,24,26,31,0,0,0,0,0,0,0,0,0,0,106,0.421,0.824,0.353,19,55,10,0021400880,1610612744,GSW,Golden State,Marreese Speights,,DNP - Coach's Decision                  ,,,,,,,,,,,,,
0021400880,1610612738,BOS,Boston,202323,Evan Turner,F,,28:13,99.3,104.4,-5.0,0.286,3.0,28.7,0.0,0.257,0.134,9.6,0.333,0.388,0.203,102.74,0.144,2015-03-01T00:00:00,4,BOS,Boston,23-34,38,27,21,15,0,0,0,0,0,0,0,0,0,0,101,0.367,0.765,0.258,21,60,8,0021400880,1610612738,BOS,Boston,Evan Turner,F,,28:13,0.0,2.0,2.0,2.0,9.0,7.0,8.0,26.0,0.0,1.0,2.0,2.0
0021400880,1610612738,BOS,Boston,101138,Brandon Bass,F,,31:50,92.1,111.5,-19.5,0.056,1.0,6.3,0.139,0.212,0.174,6.3,0.5,0.545,0.186,96.46,0.14,2015-03-01T00:00:00,4,BOS,Boston,23-34,38,27,21,15,0,0,0,0,0,0,0,0,0,0,101,0.367,0.765,0.258,21,60,8,0021400880,1610612738,BOS,Boston,Brandon Bass,F,,31:50,0.0,5.0,0.0,10.0,9.0,8.0,10.0,30.0,0.0,1.0,2.0,2.0
0021400880,1610612738,BOS,Boston,203092,Tyler Zeller,C,,27:20,108.9,95.8,13.1,0.048,1.0,6.1,0.1,0.083,0.091,6.1,0.538,0.594,0.217,104.4,0.144,2015-03-01T00:00:00,4,BOS,Boston,23-34,38,27,21,15,0,0,0,0,0,0,0,0,0,0,101,0.367,0.765,0.258,21,60,8,0021400880,1610612738,BOS,Boston,Tyler Zeller,C,,27:20,2.0,6.0,2.0,12.0,5.0,5.0,8.0,16.0,1.0,0.0,1.0,3.0
0021400880,1610612738,BOS,Boston,202340,Avery Bradley,G,,33:59,99.8,111.0,-11.2,0.083,2.0,9.4,0.051,0.053,0.052,4.7,0.294,0.328,0.217,100.68,0.0,2015-03-01T00:00:00,4,BOS,Boston,23-34,38,27,21,15,0,0,0,0,0,0,0,0,0,0,101,0.367,0.765,0.258,21,60,8,0021400880,1610612738,BOS,Boston,Avery Bradley,G,,33:59,2.0,2.0,4.0,4.0,9.0,9.0,10.0,32.0,0.0,3.0,3.0,3.0
0021400880,1610612738,BOS,Boston,203935,Marcus Smart,G,,36:14,101.5,101.4,0.1,0.148,0.0,26.7,0.047,0.095,0.071,0.0,0.455,0.455,0.125,98.57,0.086,2015-03-01T00:00:00,4,BOS,Boston,23-34,38,27,21,15,0,0,0,0,0,0,0,0,0,0,101,0.367,0.765,0.258,21,60,8,0021400880,1610612738,BOS,Boston,Marcus Smart,G,,36:14,7.0,2.0,5.0,4.0,9.0,12.0,8.0,28.0,0.0,0.0,2.0,2.0
0021400880,1610612738,BOS,Boston,202738,Isaiah Thomas,,,28:47,90.5,116.3,-25.8,0.357,5.0,18.2,0.023,0.034,0.027,3.6,0.452,0.466,0.284,100.53,0.098,2015-03-01T00:00:00,4,BOS,Boston,23-34,38,27,21,15,0,0,0,0,0,0,0,0,0,0,101,0.367,0.765,0.258,21,60,8,0021400880,1610612738,BOS,Boston,Isaiah Thomas,,,28:47,0.0,2.0,5.0,10.0,0.0,7.0,2.0,24.0,0.0,2.0,3.0,4.0
0021400880,1610612738,BOS,Boston,203109,Jae Crowder,,,26:35,88.0,120.9,-32.9,0.133,1.0,9.5,0.146,0.407,0.25,9.5,0.265,0.265,0.26,101.62,0.093,2015-03-01T00:00:00,4,BOS,Boston,23-34,38,27,21,15,0,0,0,0,0,0,0,0,0,0,101,0.367,0.765,0.258,21,60,8,0021400880,1610612738,BOS,Boston,Jae Crowder,,,26:35,2.0,7.0,0.0,4.0,4.0,10.0,2.0,28.0,1.0,1.0,2.0,0.0
0021400880,1610612738,BOS,Boston,203923,James Young,,,14:33,96.6,124.1,-27.5,0.0,0.0,0.0,0.0,0.133,0.056,0.0,0.3,0.37,0.178,99.43,0.016,2015-03-01T00:00:00,4,BOS,Boston,23-34,38,27,21,15,0,0,0,0,0,0,0,0,0,0,101,0.367,0.765,0.258,21,60,8,0021400880,1610612738,BOS,Boston,James Young,,,14:33,0.0,0.0,4.0,0.0,0.0,7.0,2.0,10.0,0.0,0.0,0.0,2.0
0021400880,1610612738,BOS,Boston,201973,Jonas Jerebko,,,12:29,102.5,95.7,6.8,0.0,0.0,0.0,0.105,0.0,0.059,0.0,1.5,1.5,0.031,100.74,0.079,2015-03-01T00:00:00,4,BOS,Boston,23-34,38,27,21,15,0,0,0,0,0,0,0,0,0,0,101,0.367,0.765,0.258,21,60,8,0021400880,1610612738,BOS,Boston,Jonas Jerebko,,,12:29,0.0,0.0,0.0,0.0,0.0,5.0,0.0,6.0,1.0,0.0,2.0,0.0
0021400880,1610612738,BOS,Boston,203540,Gigi Datome,,DNP - Coach's Decision                  ,,,,,,,0.0,,,,,,,0.0,,,2015-03-01T00:00:00,4,BOS,Boston,23-34,38,27,21,15,0,0,0,0,0,0,0,0,0,0,101,0.367,0.765,0.258,21,60,8,0021400880,1610612738,BOS,Boston,Gigi Datome,,DNP - Coach's Decision                  ,,,,,,,,,,,,,
0021400880,1610612738,BOS,Boston,203515,Phil Pressey,,DNP - Coach's Decision                  ,,,,,,,0.0,,,,,,,0.0,,,2015-03-01T00:00:00,4,BOS,Boston,23-34,38,27,21,15,0,0,0,0,0,0,0,0,0,0,101,0.367,0.765,0.258,21,60,8,0021400880,1610612738,BOS,Boston,Phil Pressey,,DNP - Coach's Decision                  ,,,,,,,,,,,,,
0021400880,1610612738,BOS,Boston,101183,Shavlik Randolph,,DNP - Coach's Decision                  ,,,,,,,0.0,,,,,,,0.0,,,2015-03-01T00:00:00,4,BOS,Boston,23-34,38,27,21,15,0,0,0,0,0,0,0,0,0,0,101,0.367,0.765,0.258,21,60,8,0021400880,1610612738,BOS,Boston,Shavlik Randolph,,DNP - Coach's Decision                  ,,,,,,,,,,,,,
0021400880,1610612738,BOS,Boston,2222,Gerald Wallace,,DNP - Coach's Decision                  ,,,,,,,0.0,,,,,,,0.0,,,2015-03-01T00:00:00,4,BOS,Boston,23-34,38,27,21,15,0,0,0,0,0,0,0,0,0,0,101,0.367,0.765,0.258,21,60,8,0021400880,1610612738,BOS,Boston,Gerald Wallace,,DNP - Coach's Decision                  ,,,,,,,,,,,,,
