GAME_ID_x,TEAM_ID_x,TEAM_ABBREVIATION_x,TEAM_CITY_x,PLAYER_ID,PLAYER_NAME_x,START_POSITION_x,COMMENT_x,MIN_x,OFF_RATING,DEF_RATING,NET_RATING,AST_PCT,AST_TOV,AST_RATIO,OREB_PCT,DREB_PCT,REB_PCT,TM_TOV_PCT,EFG_PCT,TS_PCT,USG_PCT,PACE,PIE,GAME_DATE_EST,GAME_SEQUENCE,TEAM_ABBREVIATION_y,TEAM_CITY_NAME,TEAM_WINS_LOSSES,PTS_QTR1,PTS_QTR2,PTS_QTR3,PTS_QTR4,PTS_OT1,PTS_OT2,PTS_OT3,PTS_OT4,PTS_OT5,PTS_OT6,PTS_OT7,PTS_OT8,PTS_OT9,PTS_OT10,PTS,FG_PCT,FT_PCT,FG3_PCT,AST,REB,TOV,GAME_ID_y,TEAM_ID_y,TEAM_ABBREVIATION,TEAM_CITY_y,PLAYER_NAME_y,START_POSITION_y,COMMENT_y,MIN_y,PTS_OFF_TOV,PTS_2ND_CHANCE,PTS_FB,PTS_PAINT,OPP_PTS_OFF_TOV,OPP_PTS_2ND_CHANCE,OPP_PTS_FB,OPP_PTS_PAINT,BLK,BLKA,PF,PFD
0021400888,1610612746,LAC,Los Angeles,202706,Jordan Hamilton,F,,25:50,120.9,100.7,20.3,0.043,0.0,9.1,0.0,0.158,0.071,0.0,0.5,0.5,0.163,100.4,0.043,2015-03-02T00:00:00,4,LAC,Los Angeles,40-21,36,22,28,24,0,0,0,0,0,0,0,0,0,0,110,0.478,0.526,0.364,24,43,11,0021400888,1610612746,LAC,Los Angeles,Jordan Hamilton,F,,25:50,0.0,0.0,3.0,4.0,4.0,2.0,4.0,18.0,0.0,1.0,3.0,0.0
0021400888,1610612746,LAC,Los Angeles,201150,Spencer Hawes,F,,23:17,100.1,124.5,-24.4,0.056,1.0,7.1,0.0,0.263,0.125,7.1,0.333,0.333,0.237,100.76,0.011,2015-03-02T00:00:00,4,LAC,Los Angeles,40-21,36,22,28,24,0,0,0,0,0,0,0,0,0,0,110,0.478,0.526,0.364,24,43,11,0021400888,1610612746,LAC,Los Angeles,Spencer Hawes,F,,23:17,0.0,0.0,0.0,2.0,11.0,6.0,4.0,14.0,2.0,2.0,4.0,2.0
0021400888,1610612746,LAC,Los Angeles,201599,DeAndre Jordan,C,,37:54,111.8,104.3,7.5,0.032,0.25,6.3,0.135,0.406,0.261,25.1,0.571,0.547,0.167,101.9,0.097,2015-03-02T00:00:00,4,LAC,Los Angeles,40-21,36,22,28,24,0,0,0,0,0,0,0,0,0,0,110,0.478,0.526,0.364,24,43,11,0021400888,1610612746,LAC,Los Angeles,DeAndre Jordan,C,,37:54,0.0,5.0,0.0,8.0,9.0,4.0,4.0,20.0,0.0,0.0,3.0,9.0
0021400888,1610612746,LAC,Los Angeles,200755,JJ Redick,G,,43:35,104.0,103.2,0.8,0.031,0.33,5.3,0.049,0.083,0.065,15.8,0.6,0.6,0.181,98.85,0.057,2015-03-02T00:00:00,4,LAC,Los Angeles,40-21,36,22,28,24,0,0,0,0,0,0,0,0,0,0,110,0.478,0.526,0.364,24,43,11,0021400888,1610612746,LAC,Los Angeles,JJ Redick,G,,43:35,2.0,0.0,0.0,0.0,11.0,8.0,8.0,24.0,0.0,0.0,3.0,5.0
0021400888,1610612746,LAC,Los Angeles,101108,Chris Paul,G,,36:43,113.4,104.6,8.9,0.636,14.0,40.0,0.0,0.129,0.06,2.9,0.65,0.65,0.243,100.69,0.255,2015-03-02T00:00:00,4,LAC,Los Angeles,40-21,36,22,28,24,0,0,0,0,0,0,0,0,0,0,110,0.478,0.526,0.364,24,43,11,0021400888,1610612746,LAC,Los Angeles,Chris Paul,G,,36:43,2.0,0.0,2.0,10.0,9.0,4.0,4.0,18.0,0.0,0.0,1.0,1.0
0021400888,1610612746,LAC,Los Angeles,2037,Jamal Crawford,,,11:21,92.4,139.1,-46.7,0.0,0.0,0.0,0.0,0.167,0.08,0.0,0.5,0.5,0.335,108.86,0.083,2015-03-02T00:00:00,4,LAC,Los Angeles,40-21,36,22,28,24,0,0,0,0,0,0,0,0,0,0,110,0.478,0.526,0.364,24,43,11,0021400888,1610612746,LAC,Los Angeles,Jamal Crawford,,,11:21,0.0,0.0,0.0,2.0,5.0,4.0,4.0,10.0,0.0,0.0,2.0,0.0
0021400888,1610612746,LAC,Los Angeles,201175,Glen Davis,,,25:20,106.1,108.1,-2.0,0.105,1.0,14.5,0.067,0.038,0.054,14.5,0.625,0.615,0.2,101.64,0.054,2015-03-02T00:00:00,4,LAC,Los Angeles,40-21,36,22,28,24,0,0,0,0,0,0,0,0,0,0,110,0.478,0.526,0.364,24,43,11,0021400888,1610612746,LAC,Los Angeles,Glen Davis,,,25:20,0.0,5.0,0.0,10.0,2.0,6.0,6.0,18.0,1.0,1.0,6.0,2.0
0021400888,1610612746,LAC,Los Angeles,203085,Austin Rivers,,,25:25,94.4,85.7,8.6,0.25,0.0,27.1,0.0,0.037,0.018,0.0,0.611,0.604,0.179,108.1,0.143,2015-03-02T00:00:00,4,LAC,Los Angeles,40-21,36,22,28,24,0,0,0,0,0,0,0,0,0,0,110,0.478,0.526,0.364,24,43,11,0021400888,1610612746,LAC,Los Angeles,Austin Rivers,,,25:25,2.0,0.0,4.0,6.0,4.0,6.0,4.0,12.0,0.0,0.0,3.0,2.0
0021400888,1610612746,LAC,Los Angeles,2045,Hedo Turkoglu,,,9:05,96.2,55.3,40.8,0.0,0.0,0.0,0.0,0.2,0.077,0.0,0.0,0.0,0.096,104.66,-0.049,2015-03-02T00:00:00,4,LAC,Los Angeles,40-21,36,22,28,24,0,0,0,0,0,0,0,0,0,0,110,0.478,0.526,0.364,24,43,11,0021400888,1610612746,LAC,Los Angeles,Hedo Turkoglu,,,9:05,0.0,0.0,0.0,0.0,0.0,0.0,2.0,4.0,0.0,0.0,0.0,0.0
0021400888,1610612746,LAC,Los Angeles,203912,CJ Wilcox,,,1:11,69.4,100.0,-30.6,0.0,0.0,0.0,0.0,0.0,0.0,0.0,0.0,0.0,0.0,139.54,0.0,2015-03-02T00:00:00,4,LAC,Los Angeles,40-21,36,22,28,24,0,0,0,0,0,0,0,0,0,0,110,0.478,0.526,0.364,24,43,11,0021400888,1610612746,LAC,Los Angeles,CJ Wilcox,,,1:11,0.0,0.0,0.0,0.0,0.0,0.0,0.0,2.0,0.0,0.0,0.0,0.0
0021400888,1610612746,LAC,Los Angeles,2563,Dahntay Jones,,,0:19,227.3,69.4,157.8,0.0,0.0,0.0,0.0,0.5,0.5,0.0,0.0,1.136,1.0,286.48,1.0,2015-03-02T00:00:00,4,LAC,Los Angeles,40-21,36,22,28,24,0,0,0,0,0,0,0,0,0,0,110,0.478,0.526,0.364,24,43,11,0021400888,1610612746,LAC,Los Angeles,Dahntay Jones,,,0:19,0.0,0.0,0.0,0.0,0.0,0.0,0.0,0.0,0.0,0.0,1.0,1.0
0021400888,1610612746,LAC,Los Angeles,2440,Matt Barnes,,DND - Strained Right Hamstring          ,,,,,,,0.0,,,,,,,0.0,,,2015-03-02T00:00:00,4,LAC,Los Angeles,40-21,36,22,28,24,0,0,0,0,0,0,0,0,0,0,110,0.478,0.526,0.364,24,43,11,0021400888,1610612746,LAC,Los Angeles,Matt Barnes,,DND - Strained Right Hamstring          ,,,,,,,,,,,,,
0021400888,1610612746,LAC,Los Angeles,202327,Ekpe Udoh,,DNP - Coach's Decision                  ,,,,,,,0.0,,,,,,,0.0,,,2015-03-02T00:00:00,4,LAC,Los Angeles,40-21,36,22,28,24,0,0,0,0,0,0,0,0,0,0,110,0.478,0.526,0.364,24,43,11,0021400888,1610612746,LAC,Los Angeles,Ekpe Udoh,,DNP - Coach's Decision                  ,,,,,,,,,,,,,
0021400888,1610612750,MIN,Minnesota,203952,Andrew Wiggins,F,,41:51,99.6,107.3,-7.6,0.154,2.0,15.2,0.027,0.048,0.038,7.6,0.313,0.441,0.237,103.04,0.067,2015-03-02T00:00:00,4,MIN,Minnesota,13-46,23,37,27,18,0,0,0,0,0,0,0,0,0,0,105,0.439,0.829,0.267,25,47,11,0021400888,1610612750,MIN,Minnesota,Andrew Wiggins,F,,41:51,4.0,0.0,2.0,10.0,6.0,8.0,7.0,30.0,1.0,1.0,1.0,8.0
0021400888,1610612750,MIN,Minnesota,708,Kevin Garnett,F,,21:56,115.3,108.7,6.7,0.0,0.0,0.0,0.0,0.136,0.081,0.0,0.6,0.6,0.225,98.83,0.097,2015-03-02T00:00:00,4,MIN,Minnesota,13-46,23,37,27,18,0,0,0,0,0,0,0,0,0,0,105,0.439,0.829,0.267,25,47,11,0021400888,1610612750,MIN,Minnesota,Kevin Garnett,F,,21:56,0.0,2.0,0.0,0.0,0.0,5.0,0.0,16.0,1.0,0.0,4.0,0.0
0021400888,1610612750,MIN,Minnesota,203476,Gorgui Dieng,C,,38:37,108.9,102.6,6.3,0.0,0.0,0.0,0.086,0.195,0.145,18.4,0.5,0.563,0.128,101.19,0.074,2015-03-02T00:00:00,4,MIN,Minnesota,13-46,23,37,27,18,0,0,0,0,0,0,0,0,0,0,105,0.439,0.829,0.267,25,47,11,0021400888,1610612750,MIN,Minnesota,Gorgui Dieng,C,,38:37,2.0,0.0,0.0,6.0,2.0,8.0,7.0,34.0,2.0,0.0,5.0,2.0
0021400888,1610612750,MIN,Minnesota,202390,Gary Neal,G,,40:40,103.4,100.7,2.7,0.167,4.0,16.2,0.0,0.225,0.118,4.1,0.412,0.484,0.219,102.37,0.113,2015-03-02T00:00:00,4,MIN,Minnesota,13-46,23,37,27,18,0,0,0,0,0,0,0,0,0,0,105,0.439,0.829,0.267,25,47,11,0021400888,1610612750,MIN,Minnesota,Gary Neal,G,,40:40,3.0,0.0,0.0,0.0,6.0,8.0,9.0,36.0,0.0,1.0,4.0,3.0
0021400888,1610612750,MIN,Minnesota,201937,Ricky Rubio,G,,39:45,103.3,110.9,-7.6,0.458,5.5,39.3,0.028,0.268,0.156,7.2,0.5,0.602,0.19,101.99,0.197,2015-03-02T00:00:00,4,MIN,Minnesota,13-46,23,37,27,18,0,0,0,0,0,0,0,0,0,0,105,0.439,0.829,0.267,25,47,11,0021400888,1610612750,MIN,Minnesota,Ricky Rubio,G,,39:45,2.0,0.0,0.0,0.0,2.0,10.0,9.0,38.0,0.0,1.0,1.0,6.0
0021400888,1610612750,MIN,Minnesota,203940,Adreian Payne,,,23:55,109.4,109.3,0.0,0.056,1.0,7.8,0.13,0.091,0.111,7.8,0.444,0.558,0.199,102.81,0.068,2015-03-02T00:00:00,4,MIN,Minnesota,13-46,23,37,27,18,0,0,0,0,0,0,0,0,0,0,105,0.439,0.829,0.267,25,47,11,0021400888,1610612750,MIN,Minnesota,Adreian Payne,,,23:55,0.0,6.0,0.0,4.0,6.0,5.0,7.0,22.0,0.0,0.0,4.0,3.0
0021400888,1610612750,MIN,Minnesota,203897,Zach LaVine,,,22:26,105.0,107.2,-2.2,0.308,1.33,22.5,0.0,0.136,0.073,16.9,0.611,0.651,0.257,103.91,0.12,2015-03-02T00:00:00,4,MIN,Minnesota,13-46,23,37,27,18,0,0,0,0,0,0,0,0,0,0,105,0.439,0.829,0.267,25,47,11,0021400888,1610612750,MIN,Minnesota,Zach LaVine,,,22:26,0.0,0.0,4.0,6.0,4.0,4.0,2.0,22.0,0.0,0.0,3.0,3.0
0021400888,1610612750,MIN,Minnesota,201978,Chase Budinger,,,10:51,67.1,109.4,-42.3,0.167,0.0,33.3,0.0,0.1,0.053,0.0,0.5,0.5,0.073,108.56,0.08,2015-03-02T00:00:00,4,MIN,Minnesota,13-46,23,37,27,18,0,0,0,0,0,0,0,0,0,0,105,0.439,0.829,0.267,25,47,11,0021400888,1610612750,MIN,Minnesota,Chase Budinger,,,10:51,0.0,0.0,2.0,2.0,4.0,2.0,4.0,12.0,0.0,0.0,0.0,1.0
0021400888,1610612750,MIN,Minnesota,203485,Lorenzo Brown,,DNP - Coach's Decision                  ,,,,,,,0.0,,,,,,,0.0,,,2015-03-02T00:00:00,4,MIN,Minnesota,13-46,23,37,27,18,0,0,0,0,0,0,0,0,0,0,105,0.439,0.829,0.267,25,47,11,0021400888,1610612750,MIN,Minnesota,Lorenzo Brown,,DNP - Coach's Decision                  ,,,,,,,,,,,,,
0021400888,1610612750,MIN,Minnesota,2755,Kevin Martin,,NWT - Illness                           ,,,,,,,0.0,,,,,,,0.0,,,2015-03-02T00:00:00,4,MIN,Minnesota,13-46,23,37,27,18,0,0,0,0,0,0,0,0,0,0,105,0.439,0.829,0.267,25,47,11,0021400888,1610612750,MIN,Minnesota,Kevin Martin,,NWT - Illness                           ,,,,,,,,,,,,,
0021400888,1610612750,MIN,Minnesota,201593,Nikola Pekovic,,DNP - Coach's Decision                  ,,,,,,,0.0,,,,,,,0.0,,,2015-03-02T00:00:00,4,MIN,Minnesota,13-46,23,37,27,18,0,0,0,0,0,0,0,0,0,0,105,0.439,0.829,0.267,25,47,11,0021400888,1610612750,MIN,Minnesota,Nikola Pekovic,,DNP - Coach's Decision                  ,,,,,,,,,,,,,
0021400888,1610612750,MIN,Minnesota,203922,Glenn Robinson III,,DNP - Coach's Decision                  ,,,,,,,0.0,,,,,,,0.0,,,2015-03-02T00:00:00,4,MIN,Minnesota,13-46,23,37,27,18,0,0,0,0,0,0,0,0,0,0,105,0.439,0.829,0.267,25,47,11,0021400888,1610612750,MIN,Minnesota,Glenn Robinson III,,DNP - Coach's Decision                  ,,,,,,,,,,,,,
