GAME_ID_x,TEAM_ID_x,TEAM_ABBREVIATION_x,TEAM_CITY_x,PLAYER_ID,PLAYER_NAME_x,START_POSITION_x,COMMENT_x,MIN_x,OFF_RATING,DEF_RATING,NET_RATING,AST_PCT,AST_TOV,AST_RATIO,OREB_PCT,DREB_PCT,REB_PCT,TM_TOV_PCT,EFG_PCT,TS_PCT,USG_PCT,PACE,PIE,GAME_DATE_EST,GAME_SEQUENCE,TEAM_ABBREVIATION_y,TEAM_CITY_NAME,TEAM_WINS_LOSSES,PTS_QTR1,PTS_QTR2,PTS_QTR3,PTS_QTR4,PTS_OT1,PTS_OT2,PTS_OT3,PTS_OT4,PTS_OT5,PTS_OT6,PTS_OT7,PTS_OT8,PTS_OT9,PTS_OT10,PTS,FG_PCT,FT_PCT,FG3_PCT,AST,REB,TOV,GAME_ID_y,TEAM_ID_y,TEAM_ABBREVIATION,TEAM_CITY_y,PLAYER_NAME_y,START_POSITION_y,COMMENT_y,MIN_y,PTS_OFF_TOV,PTS_2ND_CHANCE,PTS_FB,PTS_PAINT,OPP_PTS_OFF_TOV,OPP_PTS_2ND_CHANCE,OPP_PTS_FB,OPP_PTS_PAINT,BLK,BLKA,PF,PFD
0021400891,1610612738,BOS,Boston,202323,Evan Turner,F,,27:38,77.8,129.4,-51.6,0.467,3.5,41.2,0.0,0.095,0.039,11.8,0.375,0.375,0.16,97.41,0.06,2015-03-03T00:00:00,3,BOS,Boston,23-35,16,20,17,26,0,0,0,0,0,0,0,0,0,0,79,0.352,0.769,0.25,23,42,14,0021400891,1610612738,BOS,Boston,Evan Turner,F,,27:38,2.0,2.0,2.0,4.0,16.0,9.0,12.0,36.0,0.0,1.0,3.0,2.0
0021400891,1610612738,BOS,Boston,101138,Brandon Bass,F,,27:23,79.3,131.8,-52.5,0.091,0.33,5.3,0.172,0.0,0.1,15.8,0.5,0.5,0.293,96.54,0.064,2015-03-03T00:00:00,3,BOS,Boston,23-35,16,20,17,26,0,0,0,0,0,0,0,0,0,0,79,0.352,0.769,0.25,23,42,14,0021400891,1610612738,BOS,Boston,Brandon Bass,F,,27:23,2.0,2.0,2.0,4.0,16.0,9.0,12.0,36.0,0.0,1.0,0.0,1.0
0021400891,1610612738,BOS,Boston,203092,Tyler Zeller,C,,12:20,81.1,127.5,-46.4,0.143,0.0,25.0,0.0,0.25,0.12,0.0,0.667,0.667,0.108,100.72,0.068,2015-03-03T00:00:00,3,BOS,Boston,23-35,16,20,17,26,0,0,0,0,0,0,0,0,0,0,79,0.352,0.769,0.25,23,42,14,0021400891,1610612738,BOS,Boston,Tyler Zeller,C,,12:20,0.0,0.0,0.0,0.0,6.0,3.0,6.0,12.0,0.0,0.0,3.0,0.0
0021400891,1610612738,BOS,Boston,202340,Avery Bradley,G,,24:25,74.9,120.9,-46.0,0.071,1.0,9.1,0.0,0.053,0.022,9.1,0.389,0.389,0.176,98.69,0.0,2015-03-03T00:00:00,3,BOS,Boston,23-35,16,20,17,26,0,0,0,0,0,0,0,0,0,0,79,0.352,0.769,0.25,23,42,14,0021400891,1610612738,BOS,Boston,Avery Bradley,G,,24:25,0.0,3.0,0.0,0.0,12.0,7.0,12.0,28.0,0.0,0.0,2.0,0.0
0021400891,1610612738,BOS,Boston,203935,Marcus Smart,G,,21:36,74.7,129.3,-54.6,0.125,1.0,20.2,0.0,0.313,0.128,20.2,0.0,0.17,0.155,105.38,0.02,2015-03-03T00:00:00,3,BOS,Boston,23-35,16,20,17,26,0,0,0,0,0,0,0,0,0,0,79,0.352,0.769,0.25,23,42,14,0021400891,1610612738,BOS,Boston,Marcus Smart,G,,21:36,0.0,0.0,0.0,0.0,11.0,3.0,11.0,26.0,0.0,1.0,1.0,1.0
0021400891,1610612738,BOS,Boston,202738,Isaiah Thomas,,,19:45,57.8,128.7,-70.9,0.4,0.67,10.1,0.0,0.111,0.048,15.2,0.308,0.373,0.39,96.74,0.0,2015-03-03T00:00:00,3,BOS,Boston,23-35,16,20,17,26,0,0,0,0,0,0,0,0,0,0,79,0.352,0.769,0.25,23,42,14,0021400891,1610612738,BOS,Boston,Isaiah Thomas,,,19:45,0.0,2.0,0.0,6.0,11.0,6.0,7.0,26.0,0.0,2.0,2.0,4.0
0021400891,1610612738,BOS,Boston,203109,Jae Crowder,,,14:19,75.6,118.0,-42.4,0.286,0.0,22.8,0.059,0.067,0.063,0.0,0.2,0.296,0.22,93.41,-0.011,2015-03-03T00:00:00,3,BOS,Boston,23-35,16,20,17,26,0,0,0,0,0,0,0,0,0,0,79,0.352,0.769,0.25,23,42,14,0021400891,1610612738,BOS,Boston,Jae Crowder,,,14:19,2.0,0.0,0.0,0.0,5.0,6.0,3.0,14.0,0.0,0.0,2.0,4.0
0021400891,1610612738,BOS,Boston,203923,James Young,,,17:06,77.0,107.0,-30.0,0.0,0.0,0.0,0.0,0.056,0.029,0.0,0.6,0.712,0.162,96.45,0.177,2015-03-03T00:00:00,3,BOS,Boston,23-35,16,20,17,26,0,0,0,0,0,0,0,0,0,0,79,0.352,0.769,0.25,23,42,14,0021400891,1610612738,BOS,Boston,James Young,,,17:06,3.0,0.0,0.0,0.0,7.0,8.0,3.0,14.0,0.0,0.0,0.0,1.0
0021400891,1610612738,BOS,Boston,201973,Jonas Jerebko,,,20:59,76.8,119.8,-42.9,0.2,2.0,18.2,0.08,0.158,0.114,9.1,0.313,0.313,0.193,93.47,0.021,2015-03-03T00:00:00,3,BOS,Boston,23-35,16,20,17,26,0,0,0,0,0,0,0,0,0,0,79,0.352,0.769,0.25,23,42,14,0021400891,1610612738,BOS,Boston,Jonas Jerebko,,,20:59,0.0,3.0,0.0,2.0,9.0,4.0,7.0,26.0,1.0,0.0,3.0,2.0
0021400891,1610612738,BOS,Boston,101183,Shavlik Randolph,,,12:46,91.5,106.9,-15.4,0.125,0.0,14.3,0.182,0.222,0.2,0.0,0.333,0.333,0.198,97.08,0.114,2015-03-03T00:00:00,3,BOS,Boston,23-35,16,20,17,26,0,0,0,0,0,0,0,0,0,0,79,0.352,0.769,0.25,23,42,14,0021400891,1610612738,BOS,Boston,Shavlik Randolph,,,12:46,0.0,2.0,0.0,4.0,2.0,6.0,2.0,8.0,1.0,1.0,1.0,0.0
0021400891,1610612738,BOS,Boston,203540,Gigi Datome,,,15:03,99.3,80.5,18.8,0.0,0.0,0.0,0.0,0.294,0.156,12.5,0.5,0.5,0.241,90.13,0.156,2015-03-03T00:00:00,3,BOS,Boston,23-35,16,20,17,26,0,0,0,0,0,0,0,0,0,0,79,0.352,0.769,0.25,23,42,14,0021400891,1610612738,BOS,Boston,Gigi Datome,,,15:03,0.0,0.0,0.0,2.0,0.0,8.0,0.0,6.0,0.0,0.0,1.0,1.0
0021400891,1610612738,BOS,Boston,2222,Gerald Wallace,,,14:40,102.8,86.9,15.9,0.0,0.0,0.0,0.071,0.25,0.167,50.0,0.0,0.0,0.062,87.58,0.038,2015-03-03T00:00:00,3,BOS,Boston,23-35,16,20,17,26,0,0,0,0,0,0,0,0,0,0,79,0.352,0.769,0.25,23,42,14,0021400891,1610612738,BOS,Boston,Gerald Wallace,,,14:40,0.0,0.0,0.0,0.0,0.0,8.0,0.0,6.0,0.0,0.0,1.0,2.0
0021400891,1610612738,BOS,Boston,203515,Phil Pressey,,,12:00,116.5,73.8,42.7,0.571,0.0,57.1,0.0,0.143,0.083,0.0,0.833,0.833,0.114,85.28,0.298,2015-03-03T00:00:00,3,BOS,Boston,23-35,16,20,17,26,0,0,0,0,0,0,0,0,0,0,79,0.352,0.769,0.25,23,42,14,0021400891,1610612738,BOS,Boston,Phil Pressey,,,12:00,2.0,0.0,0.0,0.0,0.0,8.0,0.0,2.0,1.0,0.0,2.0,0.0
0021400891,1610612739,CLE,Cleveland,2544,LeBron James,F,,25:35,133.8,66.8,66.9,0.294,5.0,16.5,0.048,0.069,0.06,3.3,0.522,0.555,0.436,100.34,0.248,2015-03-03T00:00:00,3,CLE,Cleveland,38-24,29,32,34,15,0,0,0,0,0,0,0,0,0,0,110,0.483,1.0,0.357,28,52,11,0021400891,1610612739,CLE,Cleveland,LeBron James,F,,25:35,9.0,2.0,9.0,12.0,2.0,7.0,4.0,14.0,1.0,0.0,0.0,3.0
0021400891,1610612739,CLE,Cleveland,201567,Kevin Love,F,,24:53,123.9,76.8,47.1,0.136,0.0,21.6,0.0,0.286,0.167,0.0,0.5,0.551,0.189,98.76,0.168,2015-03-03T00:00:00,3,CLE,Cleveland,38-24,29,32,34,15,0,0,0,0,0,0,0,0,0,0,110,0.483,1.0,0.357,28,52,11,0021400891,1610612739,CLE,Cleveland,Kevin Love,F,,24:53,4.0,0.0,6.0,4.0,4.0,7.0,4.0,12.0,1.0,0.0,0.0,1.0
0021400891,1610612739,CLE,Cleveland,202389,Timofey Mozgov,C,,20:25,131.7,84.1,47.7,0.167,3.0,30.0,0.2,0.143,0.167,10.0,0.833,0.833,0.156,98.04,0.144,2015-03-03T00:00:00,3,CLE,Cleveland,38-24,29,32,34,15,0,0,0,0,0,0,0,0,0,0,110,0.483,1.0,0.357,28,52,11,0021400891,1610612739,CLE,Cleveland,Timofey Mozgov,C,,20:25,0.0,2.0,0.0,10.0,4.0,3.0,4.0,6.0,3.0,0.0,3.0,2.0
0021400891,1610612739,CLE,Cleveland,2747,JR Smith,G,,23:06,128.6,83.5,45.2,0.0,0.0,0.0,0.0,0.154,0.087,10.0,0.667,0.667,0.19,95.75,0.091,2015-03-03T00:00:00,3,CLE,Cleveland,38-24,29,32,34,15,0,0,0,0,0,0,0,0,0,0,110,0.483,1.0,0.357,28,52,11,0021400891,1610612739,CLE,Cleveland,JR Smith,G,,23:06,2.0,0.0,0.0,4.0,4.0,7.0,4.0,10.0,0.0,0.0,3.0,2.0
0021400891,1610612739,CLE,Cleveland,202681,Kyrie Irving,G,,25:54,131.7,80.0,51.7,0.227,2.5,26.7,0.0,0.071,0.041,10.7,0.7,0.765,0.235,96.51,0.174,2015-03-03T00:00:00,3,CLE,Cleveland,38-24,29,32,34,15,0,0,0,0,0,0,0,0,0,0,110,0.483,1.0,0.357,28,52,11,0021400891,1610612739,CLE,Cleveland,Kyrie Irving,G,,25:54,2.0,3.0,0.0,8.0,4.0,7.0,4.0,14.0,0.0,0.0,2.0,2.0
0021400891,1610612739,CLE,Cleveland,202684,Tristan Thompson,,,17:13,131.1,56.0,75.2,0.0,0.0,0.0,0.071,0.273,0.194,17.0,1.0,1.025,0.147,101.2,0.301,2015-03-03T00:00:00,3,CLE,Cleveland,38-24,29,32,34,15,0,0,0,0,0,0,0,0,0,0,110,0.483,1.0,0.357,28,52,11,0021400891,1610612739,CLE,Cleveland,Tristan Thompson,,,17:13,2.0,2.0,0.0,8.0,2.0,6.0,0.0,12.0,0.0,0.0,0.0,3.0
0021400891,1610612739,CLE,Cleveland,202697,Iman Shumpert,,,17:26,124.7,54.5,70.2,0.111,1.0,33.3,0.143,0.19,0.171,33.3,0.0,0.0,0.097,102.7,0.067,2015-03-03T00:00:00,3,CLE,Cleveland,38-24,29,32,34,15,0,0,0,0,0,0,0,0,0,0,110,0.483,1.0,0.357,28,52,11,0021400891,1610612739,CLE,Cleveland,Iman Shumpert,,,17:26,0.0,0.0,0.0,0.0,2.0,4.0,0.0,10.0,1.0,0.0,1.0,0.0
0021400891,1610612739,CLE,Cleveland,2592,James Jones,,,21:29,101.2,85.6,15.6,0.182,0.0,22.5,0.043,0.238,0.136,0.0,0.667,0.727,0.151,92.41,0.229,2015-03-03T00:00:00,3,CLE,Cleveland,38-24,29,32,34,15,0,0,0,0,0,0,0,0,0,0,110,0.483,1.0,0.357,28,52,11,0021400891,1610612739,CLE,Cleveland,James Jones,,,21:29,0.0,0.0,0.0,0.0,7.0,7.0,0.0,10.0,0.0,0.0,2.0,3.0
0021400891,1610612739,CLE,Cleveland,203521,Matthew Dellavedova,,,25:19,99.2,86.2,13.0,0.412,0.0,53.8,0.043,0.16,0.104,0.0,0.0,0.0,0.11,96.32,0.058,2015-03-03T00:00:00,3,CLE,Cleveland,38-24,29,32,34,15,0,0,0,0,0,0,0,0,0,0,110,0.483,1.0,0.357,28,52,11,0021400891,1610612739,CLE,Cleveland,Matthew Dellavedova,,,25:19,0.0,0.0,0.0,0.0,9.0,7.0,0.0,10.0,0.0,1.0,2.0,4.0
0021400891,1610612739,CLE,Cleveland,203925,Joe Harris,,,14:40,86.9,102.8,-15.9,0.0,0.0,0.0,0.063,0.071,0.067,16.7,0.6,0.6,0.205,87.58,0.038,2015-03-03T00:00:00,3,CLE,Cleveland,38-24,29,32,34,15,0,0,0,0,0,0,0,0,0,0,110,0.483,1.0,0.357,28,52,11,0021400891,1610612739,CLE,Cleveland,Joe Harris,,,14:40,0.0,3.0,0.0,0.0,7.0,5.0,0.0,4.0,0.0,0.0,2.0,0.0
0021400891,1610612739,CLE,Cleveland,2570,Kendrick Perkins,,,12:00,73.8,116.5,-42.7,0.333,0.5,9.6,0.143,0.0,0.083,19.2,0.286,0.336,0.388,85.28,-0.035,2015-03-03T00:00:00,3,CLE,Cleveland,38-24,29,32,34,15,0,0,0,0,0,0,0,0,0,0,110,0.483,1.0,0.357,28,52,11,0021400891,1610612739,CLE,Cleveland,Kendrick Perkins,,,12:00,0.0,5.0,0.0,2.0,5.0,5.0,0.0,4.0,0.0,2.0,2.0,1.0
0021400891,1610612739,CLE,Cleveland,2034,Mike Miller,,,12:00,73.8,116.5,-42.7,0.0,0.0,0.0,0.0,0.1,0.042,0.0,0.0,0.0,0.041,85.28,-0.035,2015-03-03T00:00:00,3,CLE,Cleveland,38-24,29,32,34,15,0,0,0,0,0,0,0,0,0,0,110,0.483,1.0,0.357,28,52,11,0021400891,1610612739,CLE,Cleveland,Mike Miller,,,12:00,0.0,0.0,0.0,0.0,5.0,5.0,0.0,4.0,0.0,0.0,1.0,0.0
0021400891,1610612739,CLE,Cleveland,2217,Brendan Haywood,,DNP - Coach's Decision                  ,,,,,,,0.0,,,,,,,0.0,,,2015-03-03T00:00:00,3,CLE,Cleveland,38-24,29,32,34,15,0,0,0,0,0,0,0,0,0,0,110,0.483,1.0,0.357,28,52,11,0021400891,1610612739,CLE,Cleveland,Brendan Haywood,,DNP - Coach's Decision                  ,,,,,,,,,,,,,
