GAME_ID_x,TEAM_ID_x,TEAM_ABBREVIATION_x,TEAM_CITY_x,PLAYER_ID,PLAYER_NAME_x,START_POSITION_x,COMMENT_x,MIN_x,OFF_RATING,DEF_RATING,NET_RATING,AST_PCT,AST_TOV,AST_RATIO,OREB_PCT,DREB_PCT,REB_PCT,TM_TOV_PCT,EFG_PCT,TS_PCT,USG_PCT,PACE,PIE,GAME_DATE_EST,GAME_SEQUENCE,TEAM_ABBREVIATION_y,TEAM_CITY_NAME,TEAM_WINS_LOSSES,PTS_QTR1,PTS_QTR2,PTS_QTR3,PTS_QTR4,PTS_OT1,PTS_OT2,PTS_OT3,PTS_OT4,PTS_OT5,PTS_OT6,PTS_OT7,PTS_OT8,PTS_OT9,PTS_OT10,PTS,FG_PCT,FT_PCT,FG3_PCT,AST,REB,TOV,GAME_ID_y,TEAM_ID_y,TEAM_ABBREVIATION,TEAM_CITY_y,PLAYER_NAME_y,START_POSITION_y,COMMENT_y,MIN_y,PTS_OFF_TOV,PTS_2ND_CHANCE,PTS_FB,PTS_PAINT,OPP_PTS_OFF_TOV,OPP_PTS_2ND_CHANCE,OPP_PTS_FB,OPP_PTS_PAINT,BLK,BLKA,PF,PFD
0021400918,1610612747,LAL,Los Angeles,203527,Ryan Kelly,F,,17:24,87.1,106.8,-19.7,0.077,1.0,14.3,0.0,0.071,0.034,14.3,0.0,0.0,0.188,87.94,-0.071,2015-03-06T00:00:00,9,LAL,Los Angeles,16-45,16,30,25,19,0,0,0,0,0,0,0,0,0,0,90,0.464,0.778,0.417,22,44,9,0021400918,1610612747,LAL,Los Angeles,Ryan Kelly,F,,17:24,0.0,0.0,0.0,0.0,3.0,6.0,5.0,20.0,1.0,0.0,1.0,0.0
0021400918,1610612747,LAL,Los Angeles,2430,Carlos Boozer,F,,27:34,93.9,107.7,-13.8,0.15,0.0,25.3,0.0,0.321,0.176,0.0,0.375,0.394,0.158,95.0,0.113,2015-03-06T00:00:00,9,LAL,Los Angeles,16-45,16,30,25,19,0,0,0,0,0,0,0,0,0,0,90,0.464,0.778,0.417,22,44,9,0021400918,1610612747,LAL,Los Angeles,Carlos Boozer,F,,27:34,0.0,1.0,2.0,4.0,8.0,8.0,10.0,32.0,0.0,0.0,3.0,1.0
0021400918,1610612747,LAL,Los Angeles,203135,Robert Sacre,C,,15:15,82.1,100.8,-18.7,0.182,0.0,40.0,0.071,0.071,0.071,0.0,0.0,0.0,0.103,90.9,-0.019,2015-03-06T00:00:00,9,LAL,Los Angeles,16-45,16,30,25,19,0,0,0,0,0,0,0,0,0,0,90,0.464,0.778,0.417,22,44,9,0021400918,1610612747,LAL,Los Angeles,Robert Sacre,C,,15:15,0.0,0.0,0.0,0.0,3.0,6.0,5.0,18.0,1.0,0.0,2.0,1.0
0021400918,1610612747,LAL,Los Angeles,201961,Wayne Ellington,G,,33:38,99.9,102.5,-2.6,0.174,4.0,22.2,0.0,0.081,0.047,5.6,0.538,0.538,0.197,96.62,0.094,2015-03-06T00:00:00,9,LAL,Los Angeles,16-45,16,30,25,19,0,0,0,0,0,0,0,0,0,0,90,0.464,0.778,0.417,22,44,9,0021400918,1610612747,LAL,Los Angeles,Wayne Ellington,G,,33:38,0.0,0.0,0.0,2.0,10.0,10.0,12.0,38.0,0.0,1.0,2.0,1.0
0021400918,1610612747,LAL,Los Angeles,203903,Jordan Clarkson,G,,36:18,94.1,108.3,-14.2,0.333,3.0,23.1,0.0,0.121,0.063,7.7,0.694,0.694,0.266,94.68,0.185,2015-03-06T00:00:00,9,LAL,Los Angeles,16-45,16,30,25,19,0,0,0,0,0,0,0,0,0,0,90,0.464,0.778,0.417,22,44,9,0021400918,1610612747,LAL,Los Angeles,Jordan Clarkson,G,,36:18,4.0,2.0,4.0,12.0,10.0,15.0,10.0,42.0,0.0,0.0,2.0,0.0
0021400918,1610612747,LAL,Los Angeles,202391,Jeremy Lin,,,26:51,91.4,109.7,-18.3,0.158,0.0,33.8,0.0,0.16,0.083,0.0,0.2,0.34,0.106,91.76,0.096,2015-03-06T00:00:00,9,LAL,Los Angeles,16-45,16,30,25,19,0,0,0,0,0,0,0,0,0,0,90,0.464,0.778,0.417,22,44,9,0021400918,1610612747,LAL,Los Angeles,Jeremy Lin,,,26:51,0.0,0.0,0.0,2.0,7.0,9.0,6.0,28.0,3.0,0.0,2.0,4.0
0021400918,1610612747,LAL,Los Angeles,202334,Ed Davis,,,20:16,100.7,105.9,-5.2,0.091,1.0,14.3,0.063,0.25,0.156,14.3,1.0,1.0,0.151,87.16,0.165,2015-03-06T00:00:00,9,LAL,Los Angeles,16-45,16,30,25,19,0,0,0,0,0,0,0,0,0,0,90,0.464,0.778,0.417,22,44,9,0021400918,1610612747,LAL,Los Angeles,Ed Davis,,,20:16,2.0,2.0,0.0,10.0,4.0,9.0,4.0,22.0,2.0,0.0,4.0,1.0
0021400918,1610612747,LAL,Los Angeles,202325,Wesley Johnson,,,29:49,107.0,97.5,9.4,0.05,1.0,7.2,0.0,0.172,0.094,7.2,0.545,0.589,0.214,89.69,0.074,2015-03-06T00:00:00,9,LAL,Los Angeles,16-45,16,30,25,19,0,0,0,0,0,0,0,0,0,0,90,0.464,0.778,0.417,22,44,9,0021400918,1610612747,LAL,Los Angeles,Wesley Johnson,,,29:49,2.0,0.0,4.0,6.0,6.0,11.0,9.0,34.0,0.0,0.0,6.0,1.0
0021400918,1610612747,LAL,Los Angeles,201941,Jordan Hill,,,23:44,88.9,108.8,-19.9,0.083,0.33,5.0,0.095,0.261,0.182,15.1,0.4,0.409,0.359,97.48,0.053,2015-03-06T00:00:00,9,LAL,Los Angeles,16-45,16,30,25,19,0,0,0,0,0,0,0,0,0,0,90,0.464,0.778,0.417,22,44,9,0021400918,1610612747,LAL,Los Angeles,Jordan Hill,,,23:44,2.0,0.0,0.0,6.0,9.0,9.0,4.0,24.0,0.0,0.0,4.0,1.0
0021400918,1610612747,LAL,Los Angeles,204028,Tarik Black,,,9:11,144.3,89.5,54.8,0.0,0.0,0.0,0.167,0.182,0.176,0.0,1.0,1.042,0.079,89.07,0.148,2015-03-06T00:00:00,9,LAL,Los Angeles,16-45,16,30,25,19,0,0,0,0,0,0,0,0,0,0,90,0.464,0.778,0.417,22,44,9,0021400918,1610612747,LAL,Los Angeles,Tarik Black,,,9:11,0.0,0.0,0.0,2.0,0.0,2.0,5.0,12.0,2.0,0.0,0.0,2.0
0021400918,1610612747,LAL,Los Angeles,977,Kobe Bryant,,NWT - Right Rotator Cuff Surgery        ,,,,,,,0.0,,,,,,,0.0,,,2015-03-06T00:00:00,9,LAL,Los Angeles,16-45,16,30,25,19,0,0,0,0,0,0,0,0,0,0,90,0.464,0.778,0.417,22,44,9,0021400918,1610612747,LAL,Los Angeles,Kobe Bryant,,NWT - Right Rotator Cuff Surgery        ,,,,,,,,,,,,,
0021400918,1610612747,LAL,Los Angeles,101179,Ronnie Price,,NWT - Right Elbow Surgery               ,,,,,,,0.0,,,,,,,0.0,,,2015-03-06T00:00:00,9,LAL,Los Angeles,16-45,16,30,25,19,0,0,0,0,0,0,0,0,0,0,90,0.464,0.778,0.417,22,44,9,0021400918,1610612747,LAL,Los Angeles,Ronnie Price,,NWT - Right Elbow Surgery               ,,,,,,,,,,,,,
0021400918,1610612747,LAL,Los Angeles,201156,Nick Young,,DND - Sore Left Knee                    ,,,,,,,0.0,,,,,,,0.0,,,2015-03-06T00:00:00,9,LAL,Los Angeles,16-45,16,30,25,19,0,0,0,0,0,0,0,0,0,0,90,0.464,0.778,0.417,22,44,9,0021400918,1610612747,LAL,Los Angeles,Nick Young,,DND - Sore Left Knee                    ,,,,,,,,,,,,,
0021400918,1610612763,MEM,Memphis,201145,Jeff Green,F,,32:02,103.3,90.9,12.5,0.056,1.0,5.4,0.033,0.143,0.086,5.4,0.25,0.488,0.253,94.03,0.105,2015-03-06T00:00:00,9,MEM,Memphis,44-17,24,19,24,30,0,0,0,0,0,0,0,0,0,0,97,0.442,0.848,0.091,18,42,8,0021400918,1610612763,MEM,Memphis,Jeff Green,F,,32:02,2.0,4.0,4.0,0.0,8.0,3.0,8.0,32.0,0.0,3.0,2.0,6.0
0021400918,1610612763,MEM,Memphis,2216,Zach Randolph,F,,37:03,109.7,105.4,4.3,0.158,1.0,12.6,0.094,0.357,0.217,12.6,0.625,0.676,0.27,92.12,0.181,2015-03-06T00:00:00,9,MEM,Memphis,44-17,24,19,24,30,0,0,0,0,0,0,0,0,0,0,97,0.442,0.848,0.091,18,42,8,0021400918,1610612763,MEM,Memphis,Zach Randolph,F,,37:03,3.0,9.0,2.0,18.0,8.0,2.0,8.0,34.0,0.0,2.0,3.0,4.0
0021400918,1610612763,MEM,Memphis,201188,Marc Gasol,C,,36:27,114.5,94.3,20.2,0.087,2.0,11.1,0.029,0.172,0.095,5.6,0.455,0.602,0.208,93.39,0.12,2015-03-06T00:00:00,9,MEM,Memphis,44-17,24,19,24,30,0,0,0,0,0,0,0,0,0,0,97,0.442,0.848,0.091,18,42,8,0021400918,1610612763,MEM,Memphis,Marc Gasol,C,,36:27,0.0,2.0,3.0,8.0,8.0,3.0,10.0,30.0,0.0,0.0,2.0,6.0
0021400918,1610612763,MEM,Memphis,201584,Courtney Lee,G,,26:46,115.0,101.4,13.7,0.182,0.0,40.0,0.0,0.053,0.023,0.0,0.167,0.167,0.105,92.71,0.017,2015-03-06T00:00:00,9,MEM,Memphis,44-17,24,19,24,30,0,0,0,0,0,0,0,0,0,0,97,0.442,0.848,0.091,18,42,8,0021400918,1610612763,MEM,Memphis,Courtney Lee,G,,26:46,0.0,0.0,0.0,2.0,6.0,0.0,8.0,20.0,0.0,0.0,0.0,0.0
0021400918,1610612763,MEM,Memphis,201144,Mike Conley,G,,33:39,112.1,90.5,21.6,0.273,3.0,30.5,0.0,0.138,0.066,10.2,0.5,0.515,0.189,93.58,0.093,2015-03-06T00:00:00,9,MEM,Memphis,44-17,24,19,24,30,0,0,0,0,0,0,0,0,0,0,97,0.442,0.848,0.091,18,42,8,0021400918,1610612763,MEM,Memphis,Mike Conley,G,,33:39,1.0,0.0,3.0,4.0,8.0,3.0,10.0,30.0,1.0,0.0,2.0,6.0
0021400918,1610612763,MEM,Memphis,2754,Tony Allen,,,28:56,106.6,96.3,10.3,0.071,1.0,9.2,0.074,0.125,0.098,9.2,0.875,0.845,0.175,89.35,0.144,2015-03-06T00:00:00,9,MEM,Memphis,44-17,24,19,24,30,0,0,0,0,0,0,0,0,0,0,97,0.442,0.848,0.091,18,42,8,0021400918,1610612763,MEM,Memphis,Tony Allen,,,28:56,2.0,2.0,2.0,14.0,6.0,3.0,4.0,22.0,0.0,0.0,2.0,1.0
0021400918,1610612763,MEM,Memphis,2757,Beno Udrih,,,8:39,83.5,88.9,-5.3,0.0,0.0,0.0,0.0,0.0,0.0,0.0,0.0,0.0,0.113,93.34,-0.078,2015-03-06T00:00:00,9,MEM,Memphis,44-17,24,19,24,30,0,0,0,0,0,0,0,0,0,0,97,0.442,0.848,0.091,18,42,8,0021400918,1610612763,MEM,Memphis,Beno Udrih,,,8:39,0.0,0.0,0.0,0.0,0.0,2.0,0.0,8.0,0.0,1.0,0.0,0.0
0021400918,1610612763,MEM,Memphis,201585,Kosta Koufos,,,17:13,75.9,84.7,-8.8,0.125,0.0,16.7,0.0,0.278,0.139,0.0,0.2,0.2,0.149,88.55,0.092,2015-03-06T00:00:00,9,MEM,Memphis,44-17,24,19,24,30,0,0,0,0,0,0,0,0,0,0,97,0.442,0.848,0.091,18,42,8,0021400918,1610612763,MEM,Memphis,Kosta Koufos,,,17:13,0.0,0.0,0.0,2.0,4.0,4.0,2.0,18.0,0.0,2.0,0.0,2.0
0021400918,1610612763,MEM,Memphis,1713,Vince Carter,,,6:23,78.4,100.9,-22.6,0.0,0.0,0.0,0.0,0.25,0.125,0.0,0.0,0.0,0.218,96.4,-0.054,2015-03-06T00:00:00,9,MEM,Memphis,44-17,24,19,24,30,0,0,0,0,0,0,0,0,0,0,97,0.442,0.848,0.091,18,42,8,0021400918,1610612763,MEM,Memphis,Vince Carter,,,6:23,0.0,0.0,0.0,0.0,0.0,2.0,0.0,8.0,0.0,0.0,0.0,0.0
0021400918,1610612763,MEM,Memphis,201979,Nick Calathes,,,12:53,86.9,118.7,-31.8,0.0,0.0,0.0,0.0,0.143,0.045,0.0,0.6,0.68,0.243,98.39,0.184,2015-03-06T00:00:00,9,MEM,Memphis,44-17,24,19,24,30,0,0,0,0,0,0,0,0,0,0,97,0.442,0.848,0.091,18,42,8,0021400918,1610612763,MEM,Memphis,Nick Calathes,,,12:53,4.0,0.0,0.0,6.0,2.0,3.0,0.0,18.0,0.0,1.0,1.0,1.0
0021400918,1610612763,MEM,Memphis,203919,Jordan Adams,,DNP - Coach's Decision                  ,,,,,,,0.0,,,,,,,0.0,,,2015-03-06T00:00:00,9,MEM,Memphis,44-17,24,19,24,30,0,0,0,0,0,0,0,0,0,0,97,0.442,0.848,0.091,18,42,8,0021400918,1610612763,MEM,Memphis,Jordan Adams,,DNP - Coach's Decision                  ,,,,,,,,,,,,,
0021400918,1610612763,MEM,Memphis,203210,JaMychal Green,,DNP - Coach's Decision                  ,,,,,,,0.0,,,,,,,0.0,,,2015-03-06T00:00:00,9,MEM,Memphis,44-17,24,19,24,30,0,0,0,0,0,0,0,0,0,0,97,0.442,0.848,0.091,18,42,8,0021400918,1610612763,MEM,Memphis,JaMychal Green,,DNP - Coach's Decision                  ,,,,,,,,,,,,,
0021400918,1610612763,MEM,Memphis,202720,Jon Leuer,,DNP - Coach's Decision                  ,,,,,,,0.0,,,,,,,0.0,,,2015-03-06T00:00:00,9,MEM,Memphis,44-17,24,19,24,30,0,0,0,0,0,0,0,0,0,0,97,0.442,0.848,0.091,18,42,8,0021400918,1610612763,MEM,Memphis,Jon Leuer,,DNP - Coach's Decision                  ,,,,,,,,,,,,,
