GAME_ID_x,TEAM_ID_x,TEAM_ABBREVIATION_x,TEAM_CITY_x,PLAYER_ID,PLAYER_NAME_x,START_POSITION_x,COMMENT_x,MIN_x,OFF_RATING,DEF_RATING,NET_RATING,AST_PCT,AST_TOV,AST_RATIO,OREB_PCT,DREB_PCT,REB_PCT,TM_TOV_PCT,EFG_PCT,TS_PCT,USG_PCT,PACE,PIE,GAME_DATE_EST,GAME_SEQUENCE,TEAM_ID_y,TEAM_ABBREVIATION_y,TEAM_CITY_NAME,TEAM_WINS_LOSSES,PTS_QTR1,PTS_QTR2,PTS_QTR3,PTS_QTR4,PTS_OT1,PTS_OT2,PTS_OT3,PTS_OT4,PTS_OT5,PTS_OT6,PTS_OT7,PTS_OT8,PTS_OT9,PTS_OT10,PTS,FG_PCT,FT_PCT,FG3_PCT,AST,REB,TOV,GAME_ID_y,TEAM_ID,TEAM_ABBREVIATION,TEAM_CITY_y,PLAYER_NAME_y,START_POSITION_y,COMMENT_y,MIN_y,PTS_OFF_TOV,PTS_2ND_CHANCE,PTS_FB,PTS_PAINT,OPP_PTS_OFF_TOV,OPP_PTS_2ND_CHANCE,OPP_PTS_FB,OPP_PTS_PAINT,BLK,BLKA,PF,PFD
0021300785,1610612740,NOP,New Orleans,202329,Al-Farouq Aminu,F,,29:06,121.2,108.2,13.0,0.095,2.0,20.0,0.095,0.263,0.175,10.0,0.714,0.714,0.133,90.11,0.142,2014-02-12T00:00:00,9,1610612740,NOP,New Orleans,23-29,25,21,37,19,0,0,0,0,0,0,0,0,0,0,102,0.519,0.824,0.462,23,38,10,0021300785,1610612740,NOP,New Orleans,Al-Farouq Aminu,F,,29:06,4.0,0.0,4.0,10.0,11.0,5.0,10.0,24.0,1.0,0.0,2.0,3.0
0021300785,1610612740,NOP,New Orleans,202329,Al-Farouq Aminu,F,,29:06,121.2,108.2,13.0,0.095,2.0,20.0,0.095,0.263,0.175,10.0,0.714,0.714,0.133,90.11,0.142,2014-02-12T00:00:00,9,1610612749,MIL,Milwaukee,9-43,19,30,27,22,0,0,0,0,0,0,0,0,0,0,98,0.488,0.737,0.375,28,34,11,0021300785,1610612740,NOP,New Orleans,Al-Farouq Aminu,F,,29:06,4.0,0.0,4.0,10.0,11.0,5.0,10.0,24.0,1.0,0.0,2.0,3.0
0021300785,1610612740,NOP,New Orleans,203076,Anthony Davis,F,,19:56,100.7,87.3,13.3,0.0,0.0,0.0,0.077,0.0,0.034,15.5,0.5,0.551,0.35,91.31,0.063,2014-02-12T00:00:00,9,1610612740,NOP,New Orleans,23-29,25,21,37,19,0,0,0,0,0,0,0,0,0,0,102,0.519,0.824,0.462,23,38,10,0021300785,1610612740,NOP,New Orleans,Anthony Davis,F,,19:56,0.0,0.0,2.0,10.0,7.0,0.0,7.0,16.0,1.0,1.0,4.0,1.0
0021300785,1610612740,NOP,New Orleans,203076,Anthony Davis,F,,19:56,100.7,87.3,13.3,0.0,0.0,0.0,0.077,0.0,0.034,15.5,0.5,0.551,0.35,91.31,0.063,2014-02-12T00:00:00,9,1610612749,MIL,Milwaukee,9-43,19,30,27,22,0,0,0,0,0,0,0,0,0,0,98,0.488,0.737,0.375,28,34,11,0021300785,1610612740,NOP,New Orleans,Anthony Davis,F,,19:56,0.0,0.0,2.0,10.0,7.0,0.0,7.0,16.0,1.0,1.0,4.0,1.0
0021300785,1610612740,NOP,New Orleans,201582,Alexis Ajinca,C,,21:47,129.4,103.9,25.5,0.214,1.0,21.6,0.071,0.471,0.29,21.6,1.0,1.015,0.232,90.74,0.261,2014-02-12T00:00:00,9,1610612740,NOP,New Orleans,23-29,25,21,37,19,0,0,0,0,0,0,0,0,0,0,102,0.519,0.824,0.462,23,38,10,0021300785,1610612740,NOP,New Orleans,Alexis Ajinca,C,,21:47,2.0,4.0,0.0,12.0,11.0,2.0,6.0,18.0,1.0,0.0,2.0,2.0
0021300785,1610612740,NOP,New Orleans,201582,Alexis Ajinca,C,,21:47,129.4,103.9,25.5,0.214,1.0,21.6,0.071,0.471,0.29,21.6,1.0,1.015,0.232,90.74,0.261,2014-02-12T00:00:00,9,1610612749,MIL,Milwaukee,9-43,19,30,27,22,0,0,0,0,0,0,0,0,0,0,98,0.488,0.737,0.375,28,34,11,0021300785,1610612740,NOP,New Orleans,Alexis Ajinca,C,,21:47,2.0,4.0,0.0,12.0,11.0,2.0,6.0,18.0,1.0,0.0,2.0,2.0
0021300785,1610612740,NOP,New Orleans,201569,Eric Gordon,G,,34:09,127.6,101.1,26.5,0.24,6.0,26.5,0.048,0.0,0.023,4.4,0.615,0.671,0.242,90.65,0.15,2014-02-12T00:00:00,9,1610612740,NOP,New Orleans,23-29,25,21,37,19,0,0,0,0,0,0,0,0,0,0,102,0.519,0.824,0.462,23,38,10,0021300785,1610612740,NOP,New Orleans,Eric Gordon,G,,34:09,4.0,2.0,6.0,8.0,11.0,2.0,8.0,28.0,0.0,0.0,1.0,3.0
0021300785,1610612740,NOP,New Orleans,201569,Eric Gordon,G,,34:09,127.6,101.1,26.5,0.24,6.0,26.5,0.048,0.0,0.023,4.4,0.615,0.671,0.242,90.65,0.15,2014-02-12T00:00:00,9,1610612749,MIL,Milwaukee,9-43,19,30,27,22,0,0,0,0,0,0,0,0,0,0,98,0.488,0.737,0.375,28,34,11,0021300785,1610612740,NOP,New Orleans,Eric Gordon,G,,34:09,4.0,2.0,6.0,8.0,11.0,2.0,8.0,28.0,0.0,0.0,1.0,3.0
0021300785,1610612740,NOP,New Orleans,203148,Brian Roberts,G,,38:10,123.4,96.6,26.7,0.172,0.0,24.6,0.037,0.111,0.074,0.0,0.5,0.555,0.197,90.04,0.115,2014-02-12T00:00:00,9,1610612740,NOP,New Orleans,23-29,25,21,37,19,0,0,0,0,0,0,0,0,0,0,102,0.519,0.824,0.462,23,38,10,0021300785,1610612740,NOP,New Orleans,Brian Roberts,G,,38:10,0.0,0.0,2.0,4.0,11.0,2.0,11.0,28.0,0.0,0.0,2.0,3.0
0021300785,1610612740,NOP,New Orleans,203148,Brian Roberts,G,,38:10,123.4,96.6,26.7,0.172,0.0,24.6,0.037,0.111,0.074,0.0,0.5,0.555,0.197,90.04,0.115,2014-02-12T00:00:00,9,1610612749,MIL,Milwaukee,9-43,19,30,27,22,0,0,0,0,0,0,0,0,0,0,98,0.488,0.737,0.375,28,34,11,0021300785,1610612740,NOP,New Orleans,Brian Roberts,G,,38:10,0.0,0.0,2.0,4.0,11.0,2.0,11.0,28.0,0.0,0.0,2.0,3.0
0021300785,1610612740,NOP,New Orleans,202337,Luke Babbitt,,,27:03,132.7,117.4,15.3,0.048,0.0,11.1,0.05,0.2,0.125,0.0,0.625,0.625,0.141,87.94,0.071,2014-02-12T00:00:00,9,1610612740,NOP,New Orleans,23-29,25,21,37,19,0,0,0,0,0,0,0,0,0,0,102,0.519,0.824,0.462,23,38,10,0021300785,1610612740,NOP,New Orleans,Luke Babbitt,,,27:03,0.0,0.0,0.0,2.0,6.0,4.0,8.0,28.0,0.0,0.0,3.0,0.0
0021300785,1610612740,NOP,New Orleans,202337,Luke Babbitt,,,27:03,132.7,117.4,15.3,0.048,0.0,11.1,0.05,0.2,0.125,0.0,0.625,0.625,0.141,87.94,0.071,2014-02-12T00:00:00,9,1610612749,MIL,Milwaukee,9-43,19,30,27,22,0,0,0,0,0,0,0,0,0,0,98,0.488,0.737,0.375,28,34,11,0021300785,1610612740,NOP,New Orleans,Luke Babbitt,,,27:03,0.0,0.0,0.0,2.0,6.0,4.0,8.0,28.0,0.0,0.0,3.0,0.0
0021300785,1610612740,NOP,New Orleans,201880,Greg Stiemsma,,,20:13,103.8,113.3,-9.5,0.071,1.0,33.3,0.111,0.25,0.176,33.3,1.0,1.0,0.05,87.34,0.067,2014-02-12T00:00:00,9,1610612740,NOP,New Orleans,23-29,25,21,37,19,0,0,0,0,0,0,0,0,0,0,102,0.519,0.824,0.462,23,38,10,0021300785,1610612740,NOP,New Orleans,Greg Stiemsma,,,20:13,2.0,0.0,0.0,2.0,2.0,5.0,11.0,22.0,2.0,0.0,4.0,0.0
0021300785,1610612740,NOP,New Orleans,201880,Greg Stiemsma,,,20:13,103.8,113.3,-9.5,0.071,1.0,33.3,0.111,0.25,0.176,33.3,1.0,1.0,0.05,87.34,0.067,2014-02-12T00:00:00,9,1610612749,MIL,Milwaukee,9-43,19,30,27,22,0,0,0,0,0,0,0,0,0,0,98,0.488,0.737,0.375,28,34,11,0021300785,1610612740,NOP,New Orleans,Greg Stiemsma,,,20:13,2.0,0.0,0.0,2.0,2.0,5.0,11.0,22.0,2.0,0.0,4.0,0.0
0021300785,1610612740,NOP,New Orleans,201936,Tyreke Evans,,,25:19,112.6,112.9,-0.3,0.267,2.0,21.3,0.0,0.211,0.1,10.7,0.455,0.47,0.311,85.8,0.101,2014-02-12T00:00:00,9,1610612740,NOP,New Orleans,23-29,25,21,37,19,0,0,0,0,0,0,0,0,0,0,102,0.519,0.824,0.462,23,38,10,0021300785,1610612740,NOP,New Orleans,Tyreke Evans,,,25:19,0.0,0.0,2.0,10.0,2.0,5.0,9.0,24.0,0.0,1.0,0.0,4.0
0021300785,1610612740,NOP,New Orleans,201936,Tyreke Evans,,,25:19,112.6,112.9,-0.3,0.267,2.0,21.3,0.0,0.211,0.1,10.7,0.455,0.47,0.311,85.8,0.101,2014-02-12T00:00:00,9,1610612749,MIL,Milwaukee,9-43,19,30,27,22,0,0,0,0,0,0,0,0,0,0,98,0.488,0.737,0.375,28,34,11,0021300785,1610612740,NOP,New Orleans,Tyreke Evans,,,25:19,0.0,0.0,2.0,10.0,2.0,5.0,9.0,24.0,0.0,1.0,0.0,4.0
0021300785,1610612740,NOP,New Orleans,201627,Anthony Morrow,,,14:27,93.6,118.9,-25.3,0.0,0.0,0.0,0.0,0.0,0.0,0.0,0.25,0.25,0.135,85.89,-0.04,2014-02-12T00:00:00,9,1610612740,NOP,New Orleans,23-29,25,21,37,19,0,0,0,0,0,0,0,0,0,0,102,0.519,0.824,0.462,23,38,10,0021300785,1610612740,NOP,New Orleans,Anthony Morrow,,,14:27,0.0,0.0,0.0,2.0,2.0,5.0,9.0,16.0,0.0,0.0,1.0,0.0
0021300785,1610612740,NOP,New Orleans,201627,Anthony Morrow,,,14:27,93.6,118.9,-25.3,0.0,0.0,0.0,0.0,0.0,0.0,0.0,0.25,0.25,0.135,85.89,-0.04,2014-02-12T00:00:00,9,1610612749,MIL,Milwaukee,9-43,19,30,27,22,0,0,0,0,0,0,0,0,0,0,98,0.488,0.737,0.375,28,34,11,0021300785,1610612740,NOP,New Orleans,Anthony Morrow,,,14:27,0.0,0.0,0.0,2.0,2.0,5.0,9.0,16.0,0.0,0.0,1.0,0.0
0021300785,1610612740,NOP,New Orleans,203085,Austin Rivers,,,9:50,95.5,151.0,-55.5,0.167,0.0,20.0,0.111,0.0,0.056,0.0,0.0,0.0,0.213,84.56,-0.057,2014-02-12T00:00:00,9,1610612740,NOP,New Orleans,23-29,25,21,37,19,0,0,0,0,0,0,0,0,0,0,102,0.519,0.824,0.462,23,38,10,0021300785,1610612740,NOP,New Orleans,Austin Rivers,,,9:50,0.0,0.0,0.0,0.0,2.0,5.0,6.0,16.0,0.0,1.0,0.0,0.0
0021300785,1610612740,NOP,New Orleans,203085,Austin Rivers,,,9:50,95.5,151.0,-55.5,0.167,0.0,20.0,0.111,0.0,0.056,0.0,0.0,0.0,0.213,84.56,-0.057,2014-02-12T00:00:00,9,1610612749,MIL,Milwaukee,9-43,19,30,27,22,0,0,0,0,0,0,0,0,0,0,98,0.488,0.737,0.375,28,34,11,0021300785,1610612740,NOP,New Orleans,Austin Rivers,,,9:50,0.0,0.0,0.0,0.0,2.0,5.0,6.0,16.0,0.0,1.0,0.0,0.0
0021300785,1610612740,NOP,New Orleans,203121,Darius Miller,,DNP - Coach's Decision,,,,,,,0.0,,,,,,,0.0,,,2014-02-12T00:00:00,9,1610612740,NOP,New Orleans,23-29,25,21,37,19,0,0,0,0,0,0,0,0,0,0,102,0.519,0.824,0.462,23,38,10,0021300785,1610612740,NOP,New Orleans,Darius Miller,,DNP - Coach's Decision,,,,,,,,,,,,,
0021300785,1610612740,NOP,New Orleans,203121,Darius Miller,,DNP - Coach's Decision,,,,,,,0.0,,,,,,,0.0,,,2014-02-12T00:00:00,9,1610612749,MIL,Milwaukee,9-43,19,30,27,22,0,0,0,0,0,0,0,0,0,0,98,0.488,0.737,0.375,28,34,11,0021300785,1610612740,NOP,New Orleans,Darius Miller,,DNP - Coach's Decision,,,,,,,,,,,,,
0021300785,1610612740,NOP,New Orleans,201160,Jason Smith,,NWT - Right Knee Cartilage,,,,,,,0.0,,,,,,,0.0,,,2014-02-12T00:00:00,9,1610612740,NOP,New Orleans,23-29,25,21,37,19,0,0,0,0,0,0,0,0,0,0,102,0.519,0.824,0.462,23,38,10,0021300785,1610612740,NOP,New Orleans,Jason Smith,,NWT - Right Knee Cartilage,,,,,,,,,,,,,
0021300785,1610612740,NOP,New Orleans,201160,Jason Smith,,NWT - Right Knee Cartilage,,,,,,,0.0,,,,,,,0.0,,,2014-02-12T00:00:00,9,1610612749,MIL,Milwaukee,9-43,19,30,27,22,0,0,0,0,0,0,0,0,0,0,98,0.488,0.737,0.375,28,34,11,0021300785,1610612740,NOP,New Orleans,Jason Smith,,NWT - Right Knee Cartilage,,,,,,,,,,,,,
0021300785,1610612740,NOP,New Orleans,203481,Jeff Withey,,DNP - Coach's Decision,,,,,,,0.0,,,,,,,0.0,,,2014-02-12T00:00:00,9,1610612740,NOP,New Orleans,23-29,25,21,37,19,0,0,0,0,0,0,0,0,0,0,102,0.519,0.824,0.462,23,38,10,0021300785,1610612740,NOP,New Orleans,Jeff Withey,,DNP - Coach's Decision,,,,,,,,,,,,,
0021300785,1610612740,NOP,New Orleans,203481,Jeff Withey,,DNP - Coach's Decision,,,,,,,0.0,,,,,,,0.0,,,2014-02-12T00:00:00,9,1610612749,MIL,Milwaukee,9-43,19,30,27,22,0,0,0,0,0,0,0,0,0,0,98,0.488,0.737,0.375,28,34,11,0021300785,1610612740,NOP,New Orleans,Jeff Withey,,DNP - Coach's Decision,,,,,,,,,,,,,
0021300785,1610612749,MIL,Milwaukee,203114,Khris Middleton,F,,29:52,107.5,139.6,-32.1,0.174,1.33,25.0,0.1,0.133,0.114,18.8,0.611,0.611,0.189,91.0,0.059,2014-02-12T00:00:00,9,1610612740,NOP,New Orleans,23-29,25,21,37,19,0,0,0,0,0,0,0,0,0,0,102,0.519,0.824,0.462,23,38,10,0021300785,1610612749,MIL,Milwaukee,Khris Middleton,F,,29:52,0.0,2.0,0.0,4.0,10.0,2.0,12.0,44.0,0.0,0.0,3.0,0.0
0021300785,1610612749,MIL,Milwaukee,203114,Khris Middleton,F,,29:52,107.5,139.6,-32.1,0.174,1.33,25.0,0.1,0.133,0.114,18.8,0.611,0.611,0.189,91.0,0.059,2014-02-12T00:00:00,9,1610612749,MIL,Milwaukee,9-43,19,30,27,22,0,0,0,0,0,0,0,0,0,0,98,0.488,0.737,0.375,28,34,11,0021300785,1610612749,MIL,Milwaukee,Khris Middleton,F,,29:52,0.0,2.0,0.0,4.0,10.0,2.0,12.0,44.0,0.0,0.0,3.0,0.0
0021300785,1610612749,MIL,Milwaukee,101141,Ersan Ilyasova,F,,35:13,98.9,119.7,-20.8,0.1,0.0,10.8,0.08,0.269,0.176,0.0,0.423,0.484,0.234,86.93,0.106,2014-02-12T00:00:00,9,1610612740,NOP,New Orleans,23-29,25,21,37,19,0,0,0,0,0,0,0,0,0,0,102,0.519,0.824,0.462,23,38,10,0021300785,1610612749,MIL,Milwaukee,Ersan Ilyasova,F,,35:13,3.0,2.0,2.0,4.0,12.0,6.0,8.0,46.0,0.0,1.0,2.0,7.0
0021300785,1610612749,MIL,Milwaukee,101141,Ersan Ilyasova,F,,35:13,98.9,119.7,-20.8,0.1,0.0,10.8,0.08,0.269,0.176,0.0,0.423,0.484,0.234,86.93,0.106,2014-02-12T00:00:00,9,1610612749,MIL,Milwaukee,9-43,19,30,27,22,0,0,0,0,0,0,0,0,0,0,98,0.488,0.737,0.375,28,34,11,0021300785,1610612749,MIL,Milwaukee,Ersan Ilyasova,F,,35:13,3.0,2.0,2.0,4.0,12.0,6.0,8.0,46.0,0.0,1.0,2.0,7.0
0021300785,1610612749,MIL,Milwaukee,2585,Zaza Pachulia,C,,37:39,112.1,109.6,2.5,0.074,1.0,12.6,0.069,0.167,0.119,12.6,0.273,0.337,0.179,86.82,0.028,2014-02-12T00:00:00,9,1610612740,NOP,New Orleans,23-29,25,21,37,19,0,0,0,0,0,0,0,0,0,0,102,0.519,0.824,0.462,23,38,10,0021300785,1610612749,MIL,Milwaukee,Zaza Pachulia,C,,37:39,2.0,0.0,2.0,6.0,8.0,6.0,12.0,48.0,0.0,1.0,2.0,1.0
0021300785,1610612749,MIL,Milwaukee,2585,Zaza Pachulia,C,,37:39,112.1,109.6,2.5,0.074,1.0,12.6,0.069,0.167,0.119,12.6,0.273,0.337,0.179,86.82,0.028,2014-02-12T00:00:00,9,1610612749,MIL,Milwaukee,9-43,19,30,27,22,0,0,0,0,0,0,0,0,0,0,98,0.488,0.737,0.375,28,34,11,0021300785,1610612749,MIL,Milwaukee,Zaza Pachulia,C,,37:39,2.0,0.0,2.0,6.0,8.0,6.0,12.0,48.0,0.0,1.0,2.0,1.0
0021300785,1610612749,MIL,Milwaukee,203489,Nate Wolters,G,,32:58,108.4,110.9,-2.5,0.35,7.0,36.8,0.074,0.148,0.111,5.3,0.636,0.636,0.172,87.68,0.159,2014-02-12T00:00:00,9,1610612740,NOP,New Orleans,23-29,25,21,37,19,0,0,0,0,0,0,0,0,0,0,102,0.519,0.824,0.462,23,38,10,0021300785,1610612749,MIL,Milwaukee,Nate Wolters,G,,32:58,4.0,3.0,2.0,8.0,6.0,4.0,10.0,44.0,2.0,0.0,3.0,2.0
0021300785,1610612749,MIL,Milwaukee,203489,Nate Wolters,G,,32:58,108.4,110.9,-2.5,0.35,7.0,36.8,0.074,0.148,0.111,5.3,0.636,0.636,0.172,87.68,0.159,2014-02-12T00:00:00,9,1610612749,MIL,Milwaukee,9-43,19,30,27,22,0,0,0,0,0,0,0,0,0,0,98,0.488,0.737,0.375,28,34,11,0021300785,1610612749,MIL,Milwaukee,Nate Wolters,G,,32:58,4.0,3.0,2.0,8.0,6.0,4.0,10.0,44.0,2.0,0.0,3.0,2.0
0021300785,1610612749,MIL,Milwaukee,202688,Brandon Knight,G,,44:58,101.9,115.2,-13.3,0.346,0.0,31.4,0.0,0.057,0.029,0.0,0.5,0.56,0.213,89.65,0.12,2014-02-12T00:00:00,9,1610612740,NOP,New Orleans,23-29,25,21,37,19,0,0,0,0,0,0,0,0,0,0,102,0.519,0.824,0.462,23,38,10,0021300785,1610612749,MIL,Milwaukee,Brandon Knight,G,,44:58,0.0,0.0,8.0,10.0,12.0,6.0,16.0,56.0,0.0,1.0,3.0,8.0
0021300785,1610612749,MIL,Milwaukee,202688,Brandon Knight,G,,44:58,101.9,115.2,-13.3,0.346,0.0,31.4,0.0,0.057,0.029,0.0,0.5,0.56,0.213,89.65,0.12,2014-02-12T00:00:00,9,1610612749,MIL,Milwaukee,9-43,19,30,27,22,0,0,0,0,0,0,0,0,0,0,98,0.488,0.737,0.375,28,34,11,0021300785,1610612749,MIL,Milwaukee,Brandon Knight,G,,44:58,0.0,0.0,8.0,10.0,12.0,6.0,16.0,56.0,0.0,1.0,3.0,8.0
0021300785,1610612749,MIL,Milwaukee,203545,Miroslav Raduljica,,,10:13,101.2,145.9,-44.7,0.0,0.0,0.0,0.0,0.333,0.154,0.0,0.75,0.75,0.202,93.12,0.128,2014-02-12T00:00:00,9,1610612740,NOP,New Orleans,23-29,25,21,37,19,0,0,0,0,0,0,0,0,0,0,102,0.519,0.824,0.462,23,38,10,0021300785,1610612749,MIL,Milwaukee,Miroslav Raduljica,,,10:13,2.0,0.0,0.0,6.0,4.0,0.0,4.0,12.0,0.0,0.0,1.0,0.0
0021300785,1610612749,MIL,Milwaukee,203545,Miroslav Raduljica,,,10:13,101.2,145.9,-44.7,0.0,0.0,0.0,0.0,0.333,0.154,0.0,0.75,0.75,0.202,93.12,0.128,2014-02-12T00:00:00,9,1610612749,MIL,Milwaukee,9-43,19,30,27,22,0,0,0,0,0,0,0,0,0,0,98,0.488,0.737,0.375,28,34,11,0021300785,1610612749,MIL,Milwaukee,Miroslav Raduljica,,,10:13,2.0,0.0,0.0,6.0,4.0,0.0,4.0,12.0,0.0,0.0,1.0,0.0
0021300785,1610612749,MIL,Milwaukee,203507,Giannis Antetokounmpo,,,20:03,116.8,106.3,10.5,0.056,0.5,14.5,0.0,0.188,0.094,29.1,0.333,0.387,0.138,93.41,0.028,2014-02-12T00:00:00,9,1610612740,NOP,New Orleans,23-29,25,21,37,19,0,0,0,0,0,0,0,0,0,0,102,0.519,0.824,0.462,23,38,10,0021300785,1610612749,MIL,Milwaukee,Giannis Antetokounmpo,,,20:03,0.0,0.0,1.0,2.0,2.0,2.0,8.0,18.0,1.0,2.0,1.0,1.0
0021300785,1610612749,MIL,Milwaukee,203507,Giannis Antetokounmpo,,,20:03,116.8,106.3,10.5,0.056,0.5,14.5,0.0,0.188,0.094,29.1,0.333,0.387,0.138,93.41,0.028,2014-02-12T00:00:00,9,1610612749,MIL,Milwaukee,9-43,19,30,27,22,0,0,0,0,0,0,0,0,0,0,98,0.488,0.737,0.375,28,34,11,0021300785,1610612749,MIL,Milwaukee,Giannis Antetokounmpo,,,20:03,0.0,0.0,1.0,2.0,2.0,2.0,8.0,18.0,1.0,2.0,1.0,1.0
0021300785,1610612749,MIL,Milwaukee,202390,Gary Neal,,,29:04,113.6,114.5,-1.0,0.188,1.0,16.3,0.0,0.04,0.021,16.3,0.708,0.723,0.255,87.62,0.132,2014-02-12T00:00:00,9,1610612740,NOP,New Orleans,23-29,25,21,37,19,0,0,0,0,0,0,0,0,0,0,102,0.519,0.824,0.462,23,38,10,0021300785,1610612749,MIL,Milwaukee,Gary Neal,,,29:04,2.0,0.0,2.0,4.0,6.0,4.0,10.0,32.0,0.0,0.0,1.0,0.0
0021300785,1610612749,MIL,Milwaukee,202390,Gary Neal,,,29:04,113.6,114.5,-1.0,0.188,1.0,16.3,0.0,0.04,0.021,16.3,0.708,0.723,0.255,87.62,0.132,2014-02-12T00:00:00,9,1610612749,MIL,Milwaukee,9-43,19,30,27,22,0,0,0,0,0,0,0,0,0,0,98,0.488,0.737,0.375,28,34,11,0021300785,1610612749,MIL,Milwaukee,Gary Neal,,,29:04,2.0,0.0,2.0,4.0,6.0,4.0,10.0,32.0,0.0,0.0,1.0,0.0
0021300785,1610612749,MIL,Milwaukee,203089,John Henson,,DNP - Coach's Decision,,,,,,,0.0,,,,,,,0.0,,,2014-02-12T00:00:00,9,1610612740,NOP,New Orleans,23-29,25,21,37,19,0,0,0,0,0,0,0,0,0,0,102,0.519,0.824,0.462,23,38,10,0021300785,1610612749,MIL,Milwaukee,John Henson,,DNP - Coach's Decision,,,,,,,,,,,,,
0021300785,1610612749,MIL,Milwaukee,203089,John Henson,,DNP - Coach's Decision,,,,,,,0.0,,,,,,,0.0,,,2014-02-12T00:00:00,9,1610612749,MIL,Milwaukee,9-43,19,30,27,22,0,0,0,0,0,0,0,0,0,0,98,0.488,0.737,0.375,28,34,11,0021300785,1610612749,MIL,Milwaukee,John Henson,,DNP - Coach's Decision,,,,,,,,,,,,,
0021300785,1610612749,MIL,Milwaukee,201564,O.J. Mayo,,DND - Illness/Conditioning,,,,,,,0.0,,,,,,,0.0,,,2014-02-12T00:00:00,9,1610612740,NOP,New Orleans,23-29,25,21,37,19,0,0,0,0,0,0,0,0,0,0,102,0.519,0.824,0.462,23,38,10,0021300785,1610612749,MIL,Milwaukee,O.J. Mayo,,DND - Illness/Conditioning,,,,,,,,,,,,,
0021300785,1610612749,MIL,Milwaukee,201564,O.J. Mayo,,DND - Illness/Conditioning,,,,,,,0.0,,,,,,,0.0,,,2014-02-12T00:00:00,9,1610612749,MIL,Milwaukee,9-43,19,30,27,22,0,0,0,0,0,0,0,0,0,0,98,0.488,0.737,0.375,28,34,11,0021300785,1610612749,MIL,Milwaukee,O.J. Mayo,,DND - Illness/Conditioning,,,,,,,,,,,,,
0021300785,1610612749,MIL,Milwaukee,2557,Luke Ridnour,,DNP - Coach's Decision,,,,,,,0.0,,,,,,,0.0,,,2014-02-12T00:00:00,9,1610612740,NOP,New Orleans,23-29,25,21,37,19,0,0,0,0,0,0,0,0,0,0,102,0.519,0.824,0.462,23,38,10,0021300785,1610612749,MIL,Milwaukee,Luke Ridnour,,DNP - Coach's Decision,,,,,,,,,,,,,
0021300785,1610612749,MIL,Milwaukee,2557,Luke Ridnour,,DNP - Coach's Decision,,,,,,,0.0,,,,,,,0.0,,,2014-02-12T00:00:00,9,1610612749,MIL,Milwaukee,9-43,19,30,27,22,0,0,0,0,0,0,0,0,0,0,98,0.488,0.737,0.375,28,34,11,0021300785,1610612749,MIL,Milwaukee,Luke Ridnour,,DNP - Coach's Decision,,,,,,,,,,,,,
0021300785,1610612749,MIL,Milwaukee,202336,Larry Sanders,,NWT - Fractured Orbital Bone,,,,,,,0.0,,,,,,,0.0,,,2014-02-12T00:00:00,9,1610612740,NOP,New Orleans,23-29,25,21,37,19,0,0,0,0,0,0,0,0,0,0,102,0.519,0.824,0.462,23,38,10,0021300785,1610612749,MIL,Milwaukee,Larry Sanders,,NWT - Fractured Orbital Bone,,,,,,,,,,,,,
0021300785,1610612749,MIL,Milwaukee,202336,Larry Sanders,,NWT - Fractured Orbital Bone,,,,,,,0.0,,,,,,,0.0,,,2014-02-12T00:00:00,9,1610612749,MIL,Milwaukee,9-43,19,30,27,22,0,0,0,0,0,0,0,0,0,0,98,0.488,0.737,0.375,28,34,11,0021300785,1610612749,MIL,Milwaukee,Larry Sanders,,NWT - Fractured Orbital Bone,,,,,,,,,,,,,
0021300785,1610612749,MIL,Milwaukee,202327,Ekpe Udoh,,NWT - Right Knee Swelling,,,,,,,0.0,,,,,,,0.0,,,2014-02-12T00:00:00,9,1610612740,NOP,New Orleans,23-29,25,21,37,19,0,0,0,0,0,0,0,0,0,0,102,0.519,0.824,0.462,23,38,10,0021300785,1610612749,MIL,Milwaukee,Ekpe Udoh,,NWT - Right Knee Swelling,,,,,,,,,,,,,
0021300785,1610612749,MIL,Milwaukee,202327,Ekpe Udoh,,NWT - Right Knee Swelling,,,,,,,0.0,,,,,,,0.0,,,2014-02-12T00:00:00,9,1610612749,MIL,Milwaukee,9-43,19,30,27,22,0,0,0,0,0,0,0,0,0,0,98,0.488,0.737,0.375,28,34,11,0021300785,1610612749,MIL,Milwaukee,Ekpe Udoh,,NWT - Right Knee Swelling,,,,,,,,,,,,,
