GAME_ID_x,TEAM_ID_x,TEAM_ABBREVIATION_x,TEAM_CITY_x,PLAYER_ID,PLAYER_NAME_x,START_POSITION_x,COMMENT_x,MIN_x,OFF_RATING,DEF_RATING,NET_RATING,AST_PCT,AST_TOV,AST_RATIO,OREB_PCT,DREB_PCT,REB_PCT,TM_TOV_PCT,EFG_PCT,TS_PCT,USG_PCT,PACE,PIE,GAME_DATE_EST,GAME_SEQUENCE,TEAM_ID_y,TEAM_ABBREVIATION_y,TEAM_CITY_NAME,TEAM_WINS_LOSSES,PTS_QTR1,PTS_QTR2,PTS_QTR3,PTS_QTR4,PTS_OT1,PTS_OT2,PTS_OT3,PTS_OT4,PTS_OT5,PTS_OT6,PTS_OT7,PTS_OT8,PTS_OT9,PTS_OT10,PTS,FG_PCT,FT_PCT,FG3_PCT,AST,REB,TOV,GAME_ID_y,TEAM_ID,TEAM_ABBREVIATION,TEAM_CITY_y,PLAYER_NAME_y,START_POSITION_y,COMMENT_y,MIN_y,PTS_OFF_TOV,PTS_2ND_CHANCE,PTS_FB,PTS_PAINT,OPP_PTS_OFF_TOV,OPP_PTS_2ND_CHANCE,OPP_PTS_FB,OPP_PTS_PAINT,BLK,BLKA,PF,PFD
0021300786,1610612743,DEN,Denver,201589,Darrell Arthur,F,,10:59,79.2,137.7,-58.6,0.125,0.0,20.0,0.0,0.1,0.045,0.0,0.0,0.0,0.148,104.8,-0.144,2014-02-12T00:00:00,10,1610612743,DEN,Denver,24-27,19,22,23,26,0,0,0,0,0,0,0,0,0,0,90,0.393,0.75,0.375,19,45,21,0021300786,1610612743,DEN,Denver,Darrell Arthur,F,,10:59,0.0,0.0,0.0,0.0,10.0,2.0,6.0,10.0,0.0,1.0,5.0,0.0
0021300786,1610612743,DEN,Denver,201589,Darrell Arthur,F,,10:59,79.2,137.7,-58.6,0.125,0.0,20.0,0.0,0.1,0.045,0.0,0.0,0.0,0.148,104.8,-0.144,2014-02-12T00:00:00,10,1610612750,MIN,Minnesota,25-28,31,30,28,28,0,0,0,0,0,0,0,0,0,0,117,0.523,0.652,0.462,31,40,10,0021300786,1610612743,DEN,Denver,Darrell Arthur,F,,10:59,0.0,0.0,0.0,0.0,10.0,2.0,6.0,10.0,0.0,1.0,5.0,0.0
0021300786,1610612743,DEN,Denver,202702,Kenneth Faried,F,,19:03,77.4,137.3,-59.9,0.111,0.5,10.1,0.053,0.071,0.061,20.2,0.333,0.436,0.203,96.55,0.031,2014-02-12T00:00:00,10,1610612743,DEN,Denver,24-27,19,22,23,26,0,0,0,0,0,0,0,0,0,0,90,0.393,0.75,0.375,19,45,21,0021300786,1610612743,DEN,Denver,Kenneth Faried,F,,19:03,0.0,2.0,0.0,4.0,12.0,4.0,10.0,22.0,2.0,0.0,3.0,3.0
0021300786,1610612743,DEN,Denver,202702,Kenneth Faried,F,,19:03,77.4,137.3,-59.9,0.111,0.5,10.1,0.053,0.071,0.061,20.2,0.333,0.436,0.203,96.55,0.031,2014-02-12T00:00:00,10,1610612750,MIN,Minnesota,25-28,31,30,28,28,0,0,0,0,0,0,0,0,0,0,117,0.523,0.652,0.462,31,40,10,0021300786,1610612743,DEN,Denver,Kenneth Faried,F,,19:03,0.0,2.0,0.0,4.0,12.0,4.0,10.0,22.0,2.0,0.0,3.0,3.0
0021300786,1610612743,DEN,Denver,201581,JJ Hickson,C,,25:23,93.3,112.4,-19.1,0.273,1.0,16.8,0.261,0.28,0.271,16.8,0.545,0.589,0.246,100.15,0.152,2014-02-12T00:00:00,10,1610612743,DEN,Denver,24-27,19,22,23,26,0,0,0,0,0,0,0,0,0,0,90,0.393,0.75,0.375,19,45,21,0021300786,1610612743,DEN,Denver,JJ Hickson,C,,25:23,2.0,4.0,4.0,10.0,21.0,4.0,10.0,16.0,0.0,2.0,4.0,1.0
0021300786,1610612743,DEN,Denver,201581,JJ Hickson,C,,25:23,93.3,112.4,-19.1,0.273,1.0,16.8,0.261,0.28,0.271,16.8,0.545,0.589,0.246,100.15,0.152,2014-02-12T00:00:00,10,1610612750,MIN,Minnesota,25-28,31,30,28,28,0,0,0,0,0,0,0,0,0,0,117,0.523,0.652,0.462,31,40,10,0021300786,1610612743,DEN,Denver,JJ Hickson,C,,25:23,2.0,4.0,4.0,10.0,21.0,4.0,10.0,16.0,0.0,2.0,4.0,1.0
0021300786,1610612743,DEN,Denver,201163,Wilson Chandler,G,,29:50,87.6,115.6,-28.0,0.0,0.0,0.0,0.034,0.28,0.148,9.1,0.6,0.6,0.156,100.4,0.09,2014-02-12T00:00:00,10,1610612743,DEN,Denver,24-27,19,22,23,26,0,0,0,0,0,0,0,0,0,0,90,0.393,0.75,0.375,19,45,21,0021300786,1610612743,DEN,Denver,Wilson Chandler,G,,29:50,0.0,3.0,0.0,0.0,21.0,4.0,14.0,24.0,0.0,0.0,2.0,1.0
0021300786,1610612743,DEN,Denver,201163,Wilson Chandler,G,,29:50,87.6,115.6,-28.0,0.0,0.0,0.0,0.034,0.28,0.148,9.1,0.6,0.6,0.156,100.4,0.09,2014-02-12T00:00:00,10,1610612750,MIN,Minnesota,25-28,31,30,28,28,0,0,0,0,0,0,0,0,0,0,117,0.523,0.652,0.462,31,40,10,0021300786,1610612743,DEN,Denver,Wilson Chandler,G,,29:50,0.0,3.0,0.0,0.0,21.0,4.0,14.0,24.0,0.0,0.0,2.0,1.0
0021300786,1610612743,DEN,Denver,200751,Randy Foye,G,,33:10,79.3,128.0,-48.8,0.235,0.5,16.1,0.0,0.034,0.016,32.2,0.333,0.388,0.263,99.4,-0.026,2014-02-12T00:00:00,10,1610612743,DEN,Denver,24-27,19,22,23,26,0,0,0,0,0,0,0,0,0,0,90,0.393,0.75,0.375,19,45,21,0021300786,1610612743,DEN,Denver,Randy Foye,G,,33:10,0.0,0.0,0.0,2.0,25.0,6.0,16.0,34.0,1.0,1.0,2.0,2.0
0021300786,1610612743,DEN,Denver,200751,Randy Foye,G,,33:10,79.3,128.0,-48.8,0.235,0.5,16.1,0.0,0.034,0.016,32.2,0.333,0.388,0.263,99.4,-0.026,2014-02-12T00:00:00,10,1610612750,MIN,Minnesota,25-28,31,30,28,28,0,0,0,0,0,0,0,0,0,0,117,0.523,0.652,0.462,31,40,10,0021300786,1610612743,DEN,Denver,Randy Foye,G,,33:10,0.0,0.0,0.0,2.0,25.0,6.0,16.0,34.0,1.0,1.0,2.0,2.0
0021300786,1610612743,DEN,Denver,202706,Jordan Hamilton,,,33:15,98.2,104.0,-5.9,0.368,7.0,31.8,0.061,0.16,0.103,4.5,0.571,0.571,0.194,99.26,0.203,2014-02-12T00:00:00,10,1610612743,DEN,Denver,24-27,19,22,23,26,0,0,0,0,0,0,0,0,0,0,90,0.393,0.75,0.375,19,45,21,0021300786,1610612743,DEN,Denver,Jordan Hamilton,,,33:15,4.0,0.0,2.0,8.0,10.0,4.0,6.0,24.0,0.0,0.0,0.0,2.0
0021300786,1610612743,DEN,Denver,202706,Jordan Hamilton,,,33:15,98.2,104.0,-5.9,0.368,7.0,31.8,0.061,0.16,0.103,4.5,0.571,0.571,0.194,99.26,0.203,2014-02-12T00:00:00,10,1610612750,MIN,Minnesota,25-28,31,30,28,28,0,0,0,0,0,0,0,0,0,0,117,0.523,0.652,0.462,31,40,10,0021300786,1610612743,DEN,Denver,Jordan Hamilton,,,33:15,4.0,0.0,2.0,8.0,10.0,4.0,6.0,24.0,0.0,0.0,0.0,2.0
0021300786,1610612743,DEN,Denver,202389,Timofey Mozgov,,,31:10,89.5,111.3,-21.8,0.053,0.5,7.3,0.033,0.208,0.111,14.7,0.375,0.423,0.171,101.28,0.047,2014-02-12T00:00:00,10,1610612743,DEN,Denver,24-27,19,22,23,26,0,0,0,0,0,0,0,0,0,0,90,0.393,0.75,0.375,19,45,21,0021300786,1610612743,DEN,Denver,Timofey Mozgov,,,31:10,0.0,2.0,1.0,6.0,15.0,4.0,12.0,28.0,3.0,1.0,3.0,5.0
0021300786,1610612743,DEN,Denver,202389,Timofey Mozgov,,,31:10,89.5,111.3,-21.8,0.053,0.5,7.3,0.033,0.208,0.111,14.7,0.375,0.423,0.171,101.28,0.047,2014-02-12T00:00:00,10,1610612750,MIN,Minnesota,25-28,31,30,28,28,0,0,0,0,0,0,0,0,0,0,117,0.523,0.652,0.462,31,40,10,0021300786,1610612743,DEN,Denver,Timofey Mozgov,,,31:10,0.0,2.0,1.0,6.0,15.0,4.0,12.0,28.0,3.0,1.0,3.0,5.0
0021300786,1610612743,DEN,Denver,203095,Evan Fournier,,,32:38,97.1,111.3,-14.2,0.05,0.33,6.8,0.031,0.167,0.089,20.3,0.5,0.604,0.181,98.76,0.057,2014-02-12T00:00:00,10,1610612743,DEN,Denver,24-27,19,22,23,26,0,0,0,0,0,0,0,0,0,0,90,0.393,0.75,0.375,19,45,21,0021300786,1610612743,DEN,Denver,Evan Fournier,,,32:38,0.0,0.0,2.0,4.0,15.0,2.0,12.0,26.0,0.0,0.0,4.0,3.0
0021300786,1610612743,DEN,Denver,203095,Evan Fournier,,,32:38,97.1,111.3,-14.2,0.05,0.33,6.8,0.031,0.167,0.089,20.3,0.5,0.604,0.181,98.76,0.057,2014-02-12T00:00:00,10,1610612750,MIN,Minnesota,25-28,31,30,28,28,0,0,0,0,0,0,0,0,0,0,117,0.523,0.652,0.462,31,40,10,0021300786,1610612743,DEN,Denver,Evan Fournier,,,32:38,0.0,0.0,2.0,4.0,15.0,2.0,12.0,26.0,0.0,0.0,4.0,3.0
0021300786,1610612743,DEN,Denver,201576,Anthony Randolph,,,14:43,90.5,117.8,-27.4,0.167,0.0,10.1,0.0,0.222,0.087,0.0,0.5,0.507,0.246,105.28,0.122,2014-02-12T00:00:00,10,1610612743,DEN,Denver,24-27,19,22,23,26,0,0,0,0,0,0,0,0,0,0,90,0.393,0.75,0.375,19,45,21,0021300786,1610612743,DEN,Denver,Anthony Randolph,,,14:43,4.0,0.0,4.0,8.0,10.0,0.0,10.0,14.0,0.0,0.0,2.0,2.0
0021300786,1610612743,DEN,Denver,201576,Anthony Randolph,,,14:43,90.5,117.8,-27.4,0.167,0.0,10.1,0.0,0.222,0.087,0.0,0.5,0.507,0.246,105.28,0.122,2014-02-12T00:00:00,10,1610612750,MIN,Minnesota,25-28,31,30,28,28,0,0,0,0,0,0,0,0,0,0,117,0.523,0.652,0.462,31,40,10,0021300786,1610612743,DEN,Denver,Anthony Randolph,,,14:43,4.0,0.0,4.0,8.0,10.0,0.0,10.0,14.0,0.0,0.0,2.0,2.0
0021300786,1610612743,DEN,Denver,203113,Quincy Miller,,,9:49,93.7,110.9,-17.2,0.0,0.0,0.0,0.091,0.0,0.063,25.8,0.0,0.174,0.159,107.65,-0.063,2014-02-12T00:00:00,10,1610612743,DEN,Denver,24-27,19,22,23,26,0,0,0,0,0,0,0,0,0,0,90,0.393,0.75,0.375,19,45,21,0021300786,1610612743,DEN,Denver,Quincy Miller,,,9:49,0.0,0.0,0.0,0.0,6.0,0.0,4.0,12.0,1.0,0.0,0.0,1.0
0021300786,1610612743,DEN,Denver,203113,Quincy Miller,,,9:49,93.7,110.9,-17.2,0.0,0.0,0.0,0.091,0.0,0.063,25.8,0.0,0.174,0.159,107.65,-0.063,2014-02-12T00:00:00,10,1610612750,MIN,Minnesota,25-28,31,30,28,28,0,0,0,0,0,0,0,0,0,0,117,0.523,0.652,0.462,31,40,10,0021300786,1610612743,DEN,Denver,Quincy Miller,,,9:49,0.0,0.0,0.0,0.0,6.0,0.0,4.0,12.0,1.0,0.0,0.0,1.0
0021300786,1610612743,DEN,Denver,201951,Ty Lawson,,DNP - Coach's Decision,,,,,,,0.0,,,,,,,0.0,,,2014-02-12T00:00:00,10,1610612743,DEN,Denver,24-27,19,22,23,26,0,0,0,0,0,0,0,0,0,0,90,0.393,0.75,0.375,19,45,21,0021300786,1610612743,DEN,Denver,Ty Lawson,,DNP - Coach's Decision,,,,,,,,,,,,,
0021300786,1610612743,DEN,Denver,201951,Ty Lawson,,DNP - Coach's Decision,,,,,,,0.0,,,,,,,0.0,,,2014-02-12T00:00:00,10,1610612750,MIN,Minnesota,25-28,31,30,28,28,0,0,0,0,0,0,0,0,0,0,117,0.523,0.652,0.462,31,40,10,0021300786,1610612743,DEN,Denver,Ty Lawson,,DNP - Coach's Decision,,,,,,,,,,,,,
0021300786,1610612743,DEN,Denver,1889,Andre Miller,,NWT - Personal Reasons,,,,,,,0.0,,,,,,,0.0,,,2014-02-12T00:00:00,10,1610612743,DEN,Denver,24-27,19,22,23,26,0,0,0,0,0,0,0,0,0,0,90,0.393,0.75,0.375,19,45,21,0021300786,1610612743,DEN,Denver,Andre Miller,,NWT - Personal Reasons,,,,,,,,,,,,,
0021300786,1610612743,DEN,Denver,1889,Andre Miller,,NWT - Personal Reasons,,,,,,,0.0,,,,,,,0.0,,,2014-02-12T00:00:00,10,1610612750,MIN,Minnesota,25-28,31,30,28,28,0,0,0,0,0,0,0,0,0,0,117,0.523,0.652,0.462,31,40,10,0021300786,1610612743,DEN,Denver,Andre Miller,,NWT - Personal Reasons,,,,,,,,,,,,,
0021300786,1610612743,DEN,Denver,101126,Nate Robinson,,NWT - Left ACL Sprain,,,,,,,0.0,,,,,,,0.0,,,2014-02-12T00:00:00,10,1610612743,DEN,Denver,24-27,19,22,23,26,0,0,0,0,0,0,0,0,0,0,90,0.393,0.75,0.375,19,45,21,0021300786,1610612743,DEN,Denver,Nate Robinson,,NWT - Left ACL Sprain,,,,,,,,,,,,,
0021300786,1610612743,DEN,Denver,101126,Nate Robinson,,NWT - Left ACL Sprain,,,,,,,0.0,,,,,,,0.0,,,2014-02-12T00:00:00,10,1610612750,MIN,Minnesota,25-28,31,30,28,28,0,0,0,0,0,0,0,0,0,0,117,0.523,0.652,0.462,31,40,10,0021300786,1610612743,DEN,Denver,Nate Robinson,,NWT - Left ACL Sprain,,,,,,,,,,,,,
0021300786,1610612750,MIN,Minnesota,201147,Corey Brewer,F,,36:02,119.9,83.7,36.2,0.04,0.33,5.1,0.0,0.057,0.031,15.2,0.679,0.698,0.234,100.12,0.137,2014-02-12T00:00:00,10,1610612743,DEN,Denver,24-27,19,22,23,26,0,0,0,0,0,0,0,0,0,0,90,0.393,0.75,0.375,19,45,21,0021300786,1610612750,MIN,Minnesota,Corey Brewer,F,,36:02,12.0,2.0,15.0,14.0,4.0,9.0,6.0,24.0,0.0,0.0,2.0,3.0
0021300786,1610612750,MIN,Minnesota,201147,Corey Brewer,F,,36:02,119.9,83.7,36.2,0.04,0.33,5.1,0.0,0.057,0.031,15.2,0.679,0.698,0.234,100.12,0.137,2014-02-12T00:00:00,10,1610612750,MIN,Minnesota,25-28,31,30,28,28,0,0,0,0,0,0,0,0,0,0,117,0.523,0.652,0.462,31,40,10,0021300786,1610612750,MIN,Minnesota,Corey Brewer,F,,36:02,12.0,2.0,15.0,14.0,4.0,9.0,6.0,24.0,0.0,0.0,2.0,3.0
0021300786,1610612750,MIN,Minnesota,201567,Kevin Love,F,,36:54,124.7,85.2,39.5,0.308,8.0,26.0,0.067,0.257,0.169,3.3,0.7,0.735,0.277,99.15,0.264,2014-02-12T00:00:00,10,1610612743,DEN,Denver,24-27,19,22,23,26,0,0,0,0,0,0,0,0,0,0,90,0.393,0.75,0.375,19,45,21,0021300786,1610612750,MIN,Minnesota,Kevin Love,F,,36:54,7.0,2.0,2.0,6.0,4.0,9.0,6.0,26.0,1.0,0.0,2.0,7.0
0021300786,1610612750,MIN,Minnesota,201567,Kevin Love,F,,36:54,124.7,85.2,39.5,0.308,8.0,26.0,0.067,0.257,0.169,3.3,0.7,0.735,0.277,99.15,0.264,2014-02-12T00:00:00,10,1610612750,MIN,Minnesota,25-28,31,30,28,28,0,0,0,0,0,0,0,0,0,0,117,0.523,0.652,0.462,31,40,10,0021300786,1610612750,MIN,Minnesota,Kevin Love,F,,36:54,7.0,2.0,2.0,6.0,4.0,9.0,6.0,26.0,1.0,0.0,2.0,7.0
0021300786,1610612750,MIN,Minnesota,101142,Ronny Turiaf,C,,28:54,118.9,93.9,25.0,0.115,3.0,26.5,0.038,0.345,0.2,8.8,0.167,0.205,0.131,99.15,0.079,2014-02-12T00:00:00,10,1610612743,DEN,Denver,24-27,19,22,23,26,0,0,0,0,0,0,0,0,0,0,90,0.393,0.75,0.375,19,45,21,0021300786,1610612750,MIN,Minnesota,Ronny Turiaf,C,,28:54,0.0,0.0,0.0,2.0,4.0,9.0,6.0,22.0,4.0,2.0,1.0,2.0
0021300786,1610612750,MIN,Minnesota,101142,Ronny Turiaf,C,,28:54,118.9,93.9,25.0,0.115,3.0,26.5,0.038,0.345,0.2,8.8,0.167,0.205,0.131,99.15,0.079,2014-02-12T00:00:00,10,1610612750,MIN,Minnesota,25-28,31,30,28,28,0,0,0,0,0,0,0,0,0,0,117,0.523,0.652,0.462,31,40,10,0021300786,1610612750,MIN,Minnesota,Ronny Turiaf,C,,28:54,0.0,0.0,0.0,2.0,4.0,9.0,6.0,22.0,4.0,2.0,1.0,2.0
0021300786,1610612750,MIN,Minnesota,201978,Chase Budinger,G,,26:36,122.9,93.5,29.4,0.048,0.0,6.7,0.0,0.038,0.02,0.0,0.423,0.432,0.231,100.9,0.036,2014-02-12T00:00:00,10,1610612743,DEN,Denver,24-27,19,22,23,26,0,0,0,0,0,0,0,0,0,0,90,0.393,0.75,0.375,19,45,21,0021300786,1610612750,MIN,Minnesota,Chase Budinger,G,,26:36,6.0,0.0,3.0,2.0,2.0,7.0,4.0,18.0,0.0,2.0,2.0,1.0
0021300786,1610612750,MIN,Minnesota,201978,Chase Budinger,G,,26:36,122.9,93.5,29.4,0.048,0.0,6.7,0.0,0.038,0.02,0.0,0.423,0.432,0.231,100.9,0.036,2014-02-12T00:00:00,10,1610612750,MIN,Minnesota,25-28,31,30,28,28,0,0,0,0,0,0,0,0,0,0,117,0.523,0.652,0.462,31,40,10,0021300786,1610612750,MIN,Minnesota,Chase Budinger,G,,26:36,6.0,0.0,3.0,2.0,2.0,7.0,4.0,18.0,0.0,2.0,2.0,1.0
0021300786,1610612750,MIN,Minnesota,201937,Ricky Rubio,G,,32:48,133.1,89.5,43.6,0.4,12.0,57.8,0.04,0.0,0.018,4.8,0.667,0.709,0.122,100.16,0.167,2014-02-12T00:00:00,10,1610612743,DEN,Denver,24-27,19,22,23,26,0,0,0,0,0,0,0,0,0,0,90,0.393,0.75,0.375,19,45,21,0021300786,1610612750,MIN,Minnesota,Ricky Rubio,G,,32:48,2.0,0.0,0.0,4.0,4.0,9.0,8.0,28.0,0.0,1.0,2.0,5.0
0021300786,1610612750,MIN,Minnesota,201937,Ricky Rubio,G,,32:48,133.1,89.5,43.6,0.4,12.0,57.8,0.04,0.0,0.018,4.8,0.667,0.709,0.122,100.16,0.167,2014-02-12T00:00:00,10,1610612750,MIN,Minnesota,25-28,31,30,28,28,0,0,0,0,0,0,0,0,0,0,117,0.523,0.652,0.462,31,40,10,0021300786,1610612750,MIN,Minnesota,Ricky Rubio,G,,32:48,2.0,0.0,0.0,4.0,4.0,9.0,8.0,28.0,0.0,1.0,2.0,5.0
0021300786,1610612750,MIN,Minnesota,200826,J.J. Barea,,,18:26,116.0,72.8,43.2,0.3,3.0,25.0,0.0,0.056,0.03,8.3,1.125,1.125,0.23,95.41,0.296,2014-02-12T00:00:00,10,1610612743,DEN,Denver,24-27,19,22,23,26,0,0,0,0,0,0,0,0,0,0,90,0.393,0.75,0.375,19,45,21,0021300786,1610612750,MIN,Minnesota,J.J. Barea,,,18:26,2.0,0.0,0.0,4.0,4.0,6.0,4.0,16.0,0.0,0.0,4.0,2.0
0021300786,1610612750,MIN,Minnesota,200826,J.J. Barea,,,18:26,116.0,72.8,43.2,0.3,3.0,25.0,0.0,0.056,0.03,8.3,1.125,1.125,0.23,95.41,0.296,2014-02-12T00:00:00,10,1610612750,MIN,Minnesota,25-28,31,30,28,28,0,0,0,0,0,0,0,0,0,0,117,0.523,0.652,0.462,31,40,10,0021300786,1610612750,MIN,Minnesota,J.J. Barea,,,18:26,2.0,0.0,0.0,4.0,4.0,6.0,4.0,16.0,0.0,0.0,4.0,2.0
0021300786,1610612750,MIN,Minnesota,201967,Dante Cunningham,,,16:03,134.6,72.6,62.1,0.071,0.0,12.5,0.2,0.2,0.2,0.0,0.429,0.429,0.211,96.17,0.085,2014-02-12T00:00:00,10,1610612743,DEN,Denver,24-27,19,22,23,26,0,0,0,0,0,0,0,0,0,0,90,0.393,0.75,0.375,19,45,21,0021300786,1610612750,MIN,Minnesota,Dante Cunningham,,,16:03,0.0,0.0,0.0,4.0,4.0,4.0,4.0,18.0,0.0,1.0,2.0,0.0
0021300786,1610612750,MIN,Minnesota,201967,Dante Cunningham,,,16:03,134.6,72.6,62.1,0.071,0.0,12.5,0.2,0.2,0.2,0.0,0.429,0.429,0.211,96.17,0.085,2014-02-12T00:00:00,10,1610612750,MIN,Minnesota,25-28,31,30,28,28,0,0,0,0,0,0,0,0,0,0,117,0.523,0.652,0.462,31,40,10,0021300786,1610612750,MIN,Minnesota,Dante Cunningham,,,16:03,0.0,0.0,0.0,4.0,4.0,4.0,4.0,18.0,0.0,1.0,2.0,0.0
0021300786,1610612750,MIN,Minnesota,203144,Alexey Shved,,,6:50,67.2,69.9,-2.7,0.0,0.0,0.0,0.0,0.0,0.0,0.0,0.0,0.0,0.063,97.62,-0.222,2014-02-12T00:00:00,10,1610612743,DEN,Denver,24-27,19,22,23,26,0,0,0,0,0,0,0,0,0,0,90,0.393,0.75,0.375,19,45,21,0021300786,1610612750,MIN,Minnesota,Alexey Shved,,,6:50,0.0,0.0,0.0,0.0,4.0,0.0,2.0,8.0,0.0,0.0,1.0,0.0
0021300786,1610612750,MIN,Minnesota,203144,Alexey Shved,,,6:50,67.2,69.9,-2.7,0.0,0.0,0.0,0.0,0.0,0.0,0.0,0.0,0.0,0.063,97.62,-0.222,2014-02-12T00:00:00,10,1610612750,MIN,Minnesota,25-28,31,30,28,28,0,0,0,0,0,0,0,0,0,0,117,0.523,0.652,0.462,31,40,10,0021300786,1610612750,MIN,Minnesota,Alexey Shved,,,6:50,0.0,0.0,0.0,0.0,4.0,0.0,2.0,8.0,0.0,0.0,1.0,0.0
0021300786,1610612750,MIN,Minnesota,201601,Luc Mbah a Moute,,,9:32,135.4,106.6,28.8,0.0,0.0,0.0,0.0,0.1,0.059,50.0,1.0,1.0,0.099,100.3,0.049,2014-02-12T00:00:00,10,1610612743,DEN,Denver,24-27,19,22,23,26,0,0,0,0,0,0,0,0,0,0,90,0.393,0.75,0.375,19,45,21,0021300786,1610612750,MIN,Minnesota,Luc Mbah a Moute,,,9:32,0.0,2.0,0.0,2.0,4.0,2.0,5.0,14.0,0.0,0.0,0.0,0.0
0021300786,1610612750,MIN,Minnesota,201601,Luc Mbah a Moute,,,9:32,135.4,106.6,28.8,0.0,0.0,0.0,0.0,0.1,0.059,50.0,1.0,1.0,0.099,100.3,0.049,2014-02-12T00:00:00,10,1610612750,MIN,Minnesota,25-28,31,30,28,28,0,0,0,0,0,0,0,0,0,0,117,0.523,0.652,0.462,31,40,10,0021300786,1610612750,MIN,Minnesota,Luc Mbah a Moute,,,9:32,0.0,2.0,0.0,2.0,4.0,2.0,5.0,14.0,0.0,0.0,0.0,0.0
0021300786,1610612750,MIN,Minnesota,203476,Gorgui Dieng,,,7:57,81.0,102.6,-21.6,0.2,1.0,26.6,0.0,0.5,0.286,26.6,0.0,0.568,0.149,111.82,0.167,2014-02-12T00:00:00,10,1610612743,DEN,Denver,24-27,19,22,23,26,0,0,0,0,0,0,0,0,0,0,90,0.393,0.75,0.375,19,45,21,0021300786,1610612750,MIN,Minnesota,Gorgui Dieng,,,7:57,0.0,0.0,0.0,0.0,4.0,0.0,5.0,10.0,0.0,0.0,1.0,3.0
0021300786,1610612750,MIN,Minnesota,203476,Gorgui Dieng,,,7:57,81.0,102.6,-21.6,0.2,1.0,26.6,0.0,0.5,0.286,26.6,0.0,0.568,0.149,111.82,0.167,2014-02-12T00:00:00,10,1610612750,MIN,Minnesota,25-28,31,30,28,28,0,0,0,0,0,0,0,0,0,0,117,0.523,0.652,0.462,31,40,10,0021300786,1610612750,MIN,Minnesota,Gorgui Dieng,,,7:57,0.0,0.0,0.0,0.0,4.0,0.0,5.0,10.0,0.0,0.0,1.0,3.0
0021300786,1610612750,MIN,Minnesota,201985,AJ Price,,,7:34,78.1,108.4,-30.3,0.333,1.0,16.7,0.0,0.125,0.077,16.7,0.5,0.5,0.3,108.35,0.176,2014-02-12T00:00:00,10,1610612743,DEN,Denver,24-27,19,22,23,26,0,0,0,0,0,0,0,0,0,0,90,0.393,0.75,0.375,19,45,21,0021300786,1610612750,MIN,Minnesota,AJ Price,,,7:34,0.0,0.0,0.0,2.0,4.0,0.0,5.0,10.0,0.0,0.0,0.0,1.0
0021300786,1610612750,MIN,Minnesota,201985,AJ Price,,,7:34,78.1,108.4,-30.3,0.333,1.0,16.7,0.0,0.125,0.077,16.7,0.5,0.5,0.3,108.35,0.176,2014-02-12T00:00:00,10,1610612750,MIN,Minnesota,25-28,31,30,28,28,0,0,0,0,0,0,0,0,0,0,117,0.523,0.652,0.462,31,40,10,0021300786,1610612750,MIN,Minnesota,AJ Price,,,7:34,0.0,0.0,0.0,2.0,4.0,0.0,5.0,10.0,0.0,0.0,0.0,1.0
0021300786,1610612750,MIN,Minnesota,203498,Shabazz Muhammad,,,6:13,75.1,113.6,-38.5,0.0,0.0,0.0,0.0,0.0,0.0,0.0,0.5,0.512,0.333,110.88,0.071,2014-02-12T00:00:00,10,1610612743,DEN,Denver,24-27,19,22,23,26,0,0,0,0,0,0,0,0,0,0,90,0.393,0.75,0.375,19,45,21,0021300786,1610612750,MIN,Minnesota,Shabazz Muhammad,,,6:13,0.0,0.0,0.0,2.0,4.0,0.0,5.0,8.0,0.0,1.0,1.0,1.0
0021300786,1610612750,MIN,Minnesota,203498,Shabazz Muhammad,,,6:13,75.1,113.6,-38.5,0.0,0.0,0.0,0.0,0.0,0.0,0.0,0.5,0.512,0.333,110.88,0.071,2014-02-12T00:00:00,10,1610612750,MIN,Minnesota,25-28,31,30,28,28,0,0,0,0,0,0,0,0,0,0,117,0.523,0.652,0.462,31,40,10,0021300786,1610612750,MIN,Minnesota,Shabazz Muhammad,,,6:13,0.0,0.0,0.0,2.0,4.0,0.0,5.0,8.0,0.0,1.0,1.0,1.0
0021300786,1610612750,MIN,Minnesota,203133,Robbie Hummel,,,6:13,75.1,113.6,-38.5,0.0,0.0,0.0,0.0,0.286,0.182,0.0,0.0,0.0,0.137,110.88,-0.143,2014-02-12T00:00:00,10,1610612743,DEN,Denver,24-27,19,22,23,26,0,0,0,0,0,0,0,0,0,0,90,0.393,0.75,0.375,19,45,21,0021300786,1610612750,MIN,Minnesota,Robbie Hummel,,,6:13,0.0,0.0,0.0,0.0,4.0,0.0,5.0,8.0,0.0,0.0,2.0,0.0
0021300786,1610612750,MIN,Minnesota,203133,Robbie Hummel,,,6:13,75.1,113.6,-38.5,0.0,0.0,0.0,0.0,0.286,0.182,0.0,0.0,0.0,0.137,110.88,-0.143,2014-02-12T00:00:00,10,1610612750,MIN,Minnesota,25-28,31,30,28,28,0,0,0,0,0,0,0,0,0,0,117,0.523,0.652,0.462,31,40,10,0021300786,1610612750,MIN,Minnesota,Robbie Hummel,,,6:13,0.0,0.0,0.0,0.0,4.0,0.0,5.0,8.0,0.0,0.0,2.0,0.0
