GAME_ID_x,TEAM_ID_x,TEAM_ABBREVIATION_x,TEAM_CITY_x,PLAYER_ID,PLAYER_NAME_x,START_POSITION_x,COMMENT_x,MIN_x,OFF_RATING,DEF_RATING,NET_RATING,AST_PCT,AST_TOV,AST_RATIO,OREB_PCT,DREB_PCT,REB_PCT,TM_TOV_PCT,EFG_PCT,TS_PCT,USG_PCT,PACE,PIE,GAME_DATE_EST,GAME_SEQUENCE,TEAM_ABBREVIATION_y,TEAM_CITY_NAME,TEAM_WINS_LOSSES,PTS_QTR1,PTS_QTR2,PTS_QTR3,PTS_QTR4,PTS_OT1,PTS_OT2,PTS_OT3,PTS_OT4,PTS_OT5,PTS_OT6,PTS_OT7,PTS_OT8,PTS_OT9,PTS_OT10,PTS,FG_PCT,FT_PCT,FG3_PCT,AST,REB,TOV,GAME_ID_y,TEAM_ID_y,TEAM_ABBREVIATION,TEAM_CITY_y,PLAYER_NAME_y,START_POSITION_y,COMMENT_y,MIN_y,PTS_OFF_TOV,PTS_2ND_CHANCE,PTS_FB,PTS_PAINT,OPP_PTS_OFF_TOV,OPP_PTS_2ND_CHANCE,OPP_PTS_FB,OPP_PTS_PAINT,BLK,BLKA,PF,PFD
0021400927,1610612737,ATL,Atlanta,203145,Kent Bazemore,F,,35:53,75.8,95.4,-19.5,0.111,0.67,12.8,0.0,0.225,0.12,19.2,0.313,0.423,0.175,102.17,0.097,2015-03-07T00:00:00,5,ATL,Atlanta,49-13,31,22,16,15,0,0,0,0,0,0,0,0,0,0,84,0.39,0.813,0.44,20,42,19,0021400927,1610612737,ATL,Atlanta,Kent Bazemore,F,,35:53,0.0,0.0,7.0,2.0,14.0,7.0,17.0,20.0,2.0,1.0,0.0,4.0
0021400927,1610612737,ATL,Atlanta,201143,Al Horford,F,,33:36,75.4,87.5,-12.1,0.308,2.0,18.2,0.0,0.135,0.072,9.1,0.375,0.375,0.246,102.46,0.117,2015-03-07T00:00:00,5,ATL,Atlanta,49-13,31,22,16,15,0,0,0,0,0,0,0,0,0,0,84,0.39,0.813,0.44,20,42,19,0021400927,1610612737,ATL,Atlanta,Al Horford,F,,33:36,2.0,0.0,2.0,10.0,14.0,5.0,17.0,16.0,3.0,0.0,1.0,0.0
0021400927,1610612737,ATL,Atlanta,203488,Mike Muscala,C,,17:17,79.1,85.5,-6.4,0.0,0.0,0.0,0.105,0.294,0.194,0.0,0.333,0.333,0.078,106.09,0.06,2015-03-07T00:00:00,5,ATL,Atlanta,49-13,31,22,16,15,0,0,0,0,0,0,0,0,0,0,84,0.39,0.813,0.44,20,42,19,0021400927,1610612737,ATL,Atlanta,Mike Muscala,C,,17:17,0.0,0.0,0.0,0.0,6.0,4.0,15.0,8.0,1.0,0.0,3.0,0.0
0021400927,1610612737,ATL,Atlanta,203098,John Jenkins,G,,22:49,85.8,78.2,7.6,0.091,1.0,11.1,0.0,0.148,0.082,11.1,0.571,0.571,0.161,101.53,0.11,2015-03-07T00:00:00,5,ATL,Atlanta,49-13,31,22,16,15,0,0,0,0,0,0,0,0,0,0,84,0.39,0.813,0.44,20,42,19,0021400927,1610612737,ATL,Atlanta,John Jenkins,G,,22:49,3.0,3.0,3.0,0.0,9.0,9.0,14.0,10.0,0.0,0.0,0.0,0.0
0021400927,1610612737,ATL,Atlanta,201952,Jeff Teague,G,,32:58,78.8,80.7,-2.0,0.286,0.8,16.2,0.0,0.051,0.028,20.3,0.423,0.543,0.29,100.38,0.106,2015-03-07T00:00:00,5,ATL,Atlanta,49-13,31,22,16,15,0,0,0,0,0,0,0,0,0,0,84,0.39,0.813,0.44,20,42,19,0021400927,1610612737,ATL,Atlanta,Jeff Teague,G,,32:58,0.0,0.0,5.0,6.0,12.0,5.0,17.0,10.0,1.0,0.0,3.0,4.0
0021400927,1610612737,ATL,Atlanta,203118,Mike Scott,,,28:38,92.3,93.7,-1.3,0.133,0.0,18.2,0.045,0.167,0.121,0.0,0.611,0.611,0.149,97.33,0.153,2015-03-07T00:00:00,5,ATL,Atlanta,49-13,31,22,16,15,0,0,0,0,0,0,0,0,0,0,84,0.39,0.813,0.44,20,42,19,0021400927,1610612737,ATL,Atlanta,Mike Scott,,,28:38,2.0,0.0,0.0,2.0,13.0,8.0,4.0,18.0,0.0,0.0,1.0,0.0
0021400927,1610612737,ATL,Atlanta,203471,Dennis Schroder,,,30:52,92.9,97.3,-4.4,0.4,1.2,23.3,0.043,0.028,0.034,19.4,0.5,0.542,0.302,98.06,0.065,2015-03-07T00:00:00,5,ATL,Atlanta,49-13,31,22,16,15,0,0,0,0,0,0,0,0,0,0,84,0.39,0.813,0.44,20,42,19,0021400927,1610612737,ATL,Atlanta,Dennis Schroder,,,30:52,0.0,3.0,2.0,8.0,15.0,8.0,4.0,22.0,1.0,2.0,4.0,4.0
0021400927,1610612737,ATL,Atlanta,1882,Elton Brand,,,16:29,103.9,99.0,4.9,0.0,0.0,0.0,0.077,0.222,0.161,33.3,0.0,0.0,0.089,91.85,0.017,2015-03-07T00:00:00,5,ATL,Atlanta,49-13,31,22,16,15,0,0,0,0,0,0,0,0,0,0,84,0.39,0.813,0.44,20,42,19,0021400927,1610612737,ATL,Atlanta,Elton Brand,,,16:29,0.0,0.0,0.0,0.0,5.0,7.0,2.0,10.0,1.0,0.0,2.0,0.0
0021400927,1610612737,ATL,Atlanta,202714,Shelvin Mack,,,21:28,103.2,103.2,0.0,0.077,0.5,11.1,0.0,0.05,0.027,22.2,0.75,0.75,0.179,95.34,0.086,2015-03-07T00:00:00,5,ATL,Atlanta,49-13,31,22,16,15,0,0,0,0,0,0,0,0,0,0,84,0.39,0.813,0.44,20,42,19,0021400927,1610612737,ATL,Atlanta,Shelvin Mack,,,21:28,6.0,0.0,0.0,0.0,7.0,7.0,5.0,16.0,0.0,0.0,0.0,0.0
0021400927,1610612737,ATL,Atlanta,203544,Pero Antic,,DNP - Coach's Decision                  ,,,,,,,0.0,,,,,,,0.0,,,2015-03-07T00:00:00,5,ATL,Atlanta,49-13,31,22,16,15,0,0,0,0,0,0,0,0,0,0,84,0.39,0.813,0.44,20,42,19,0021400927,1610612737,ATL,Atlanta,Pero Antic,,DNP - Coach's Decision                  ,,,,,,,,,,,,,
0021400927,1610612737,ATL,Atlanta,201960,DeMarre Carroll,,DNP - Coach's Decision                  ,,,,,,,0.0,,,,,,,0.0,,,2015-03-07T00:00:00,5,ATL,Atlanta,49-13,31,22,16,15,0,0,0,0,0,0,0,0,0,0,84,0.39,0.813,0.44,20,42,19,0021400927,1610612737,ATL,Atlanta,DeMarre Carroll,,DNP - Coach's Decision                  ,,,,,,,,,,,,,
0021400927,1610612737,ATL,Atlanta,204067,Jarell Eddie,,DNP - Coach's Decision                  ,,,,,,,0.0,,,,,,,0.0,,,2015-03-07T00:00:00,5,ATL,Atlanta,49-13,31,22,16,15,0,0,0,0,0,0,0,0,0,0,84,0.39,0.813,0.44,20,42,19,0021400927,1610612737,ATL,Atlanta,Jarell Eddie,,DNP - Coach's Decision                  ,,,,,,,,,,,,,
0021400927,1610612737,ATL,Atlanta,200794,Paul Millsap,,DNP - Coach's Decision                  ,,,,,,,0.0,,,,,,,0.0,,,2015-03-07T00:00:00,5,ATL,Atlanta,49-13,31,22,16,15,0,0,0,0,0,0,0,0,0,0,84,0.39,0.813,0.44,20,42,19,0021400927,1610612737,ATL,Atlanta,Paul Millsap,,DNP - Coach's Decision                  ,,,,,,,,,,,,,
0021400927,1610612755,PHI,Philadelphia,203496,Robert Covington,F,,28:57,93.1,83.4,9.6,0.059,0.17,5.3,0.0,0.143,0.075,31.6,0.5,0.5,0.263,100.24,0.032,2015-03-07T00:00:00,5,PHI,Philadelphia,14-49,20,27,25,20,0,0,0,0,0,0,0,0,0,0,92,0.368,0.529,0.351,24,55,16,0021400927,1610612755,PHI,Philadelphia,Robert Covington,F,,28:57,2.0,0.0,3.0,2.0,6.0,6.0,11.0,18.0,0.0,2.0,3.0,0.0
0021400927,1610612755,PHI,Philadelphia,201601,Luc Mbah a Moute,F,,28:45,79.5,69.7,9.8,0.1,1.0,5.6,0.0,0.1,0.046,5.6,0.594,0.594,0.232,103.88,0.205,2015-03-07T00:00:00,5,PHI,Philadelphia,14-49,20,27,25,20,0,0,0,0,0,0,0,0,0,0,92,0.368,0.529,0.351,24,55,16,0021400927,1610612755,PHI,Philadelphia,Luc Mbah a Moute,F,,28:45,4.0,4.0,2.0,0.0,5.0,6.0,14.0,14.0,0.0,0.0,0.0,2.0
0021400927,1610612755,PHI,Philadelphia,203457,Nerlens Noel,C,,31:44,84.6,76.9,7.7,0.0,0.0,0.0,0.194,0.333,0.258,12.0,0.333,0.376,0.211,102.86,0.171,2015-03-07T00:00:00,5,PHI,Philadelphia,14-49,20,27,25,20,0,0,0,0,0,0,0,0,0,0,92,0.368,0.529,0.351,24,55,16,0021400927,1610612755,PHI,Philadelphia,Nerlens Noel,C,,31:44,6.0,1.0,4.0,8.0,8.0,6.0,14.0,20.0,1.0,2.0,1.0,6.0
0021400927,1610612755,PHI,Philadelphia,203960,JaKarr Sampson,G,,20:55,83.0,81.9,1.2,0.067,0.0,12.5,0.12,0.048,0.087,0.0,0.0,0.0,0.133,101.57,-0.066,2015-03-07T00:00:00,5,PHI,Philadelphia,14-49,20,27,25,20,0,0,0,0,0,0,0,0,0,0,92,0.368,0.529,0.351,24,55,16,0021400927,1610612755,PHI,Philadelphia,JaKarr Sampson,G,,20:55,0.0,0.0,0.0,0.0,8.0,3.0,9.0,6.0,0.0,2.0,2.0,0.0
0021400927,1610612755,PHI,Philadelphia,203477,Isaiah Canaan,G,,36:36,89.3,80.2,9.1,0.348,8.0,31.3,0.0,0.143,0.063,3.9,0.231,0.363,0.197,99.82,0.073,2015-03-07T00:00:00,5,PHI,Philadelphia,14-49,20,27,25,20,0,0,0,0,0,0,0,0,0,0,92,0.368,0.529,0.351,24,55,16,0021400927,1610612755,PHI,Philadelphia,Isaiah Canaan,G,,36:36,0.0,0.0,5.0,0.0,5.0,3.0,19.0,22.0,0.0,1.0,4.0,3.0
0021400927,1610612755,PHI,Philadelphia,203128,Furkan Aldemir,,,18:10,89.8,111.9,-22.1,0.143,2.0,34.0,0.182,0.286,0.222,17.0,0.0,0.0,0.087,96.97,0.069,2015-03-07T00:00:00,5,PHI,Philadelphia,14-49,20,27,25,20,0,0,0,0,0,0,0,0,0,0,92,0.368,0.529,0.351,24,55,16,0021400927,1610612755,PHI,Philadelphia,Furkan Aldemir,,,18:10,0.0,0.0,0.0,0.0,7.0,0.0,7.0,16.0,2.0,0.0,0.0,1.0
0021400927,1610612755,PHI,Philadelphia,203924,Jerami Grant,,,5:19,42.1,151.5,-109.4,0.0,0.0,0.0,0.0,0.5,0.091,33.3,0.0,0.0,0.216,107.26,-0.044,2015-03-07T00:00:00,5,PHI,Philadelphia,14-49,20,27,25,20,0,0,0,0,0,0,0,0,0,0,92,0.368,0.529,0.351,24,55,16,0021400927,1610612755,PHI,Philadelphia,Jerami Grant,,,5:19,0.0,0.0,0.0,0.0,2.0,0.0,2.0,10.0,0.0,0.0,0.0,0.0
0021400927,1610612755,PHI,Philadelphia,203080,Thomas Robinson,,,18:02,107.6,106.3,1.3,0.091,1.0,10.0,0.056,0.077,0.065,10.0,0.625,0.625,0.208,94.6,0.115,2015-03-07T00:00:00,5,PHI,Philadelphia,14-49,20,27,25,20,0,0,0,0,0,0,0,0,0,0,92,0.368,0.529,0.351,24,55,16,0021400927,1610612755,PHI,Philadelphia,Thomas Robinson,,,18:02,4.0,2.0,2.0,8.0,8.0,0.0,5.0,10.0,0.0,1.0,1.0,0.0
0021400927,1610612755,PHI,Philadelphia,202397,Ish Smith,,,21:37,101.1,87.1,14.0,0.429,6.0,29.4,0.0,0.118,0.047,4.9,0.346,0.335,0.255,97.86,0.082,2015-03-07T00:00:00,5,PHI,Philadelphia,14-49,20,27,25,20,0,0,0,0,0,0,0,0,0,0,92,0.368,0.529,0.351,24,55,16,0021400927,1610612755,PHI,Philadelphia,Ish Smith,,,21:37,3.0,2.0,0.0,6.0,8.0,3.0,6.0,8.0,0.0,1.0,1.0,2.0
0021400927,1610612755,PHI,Philadelphia,203138,Hollis Thompson,,,29:55,107.2,80.8,26.4,0.235,2.0,25.0,0.067,0.28,0.164,12.5,0.95,0.95,0.167,95.56,0.271,2015-03-07T00:00:00,5,PHI,Philadelphia,14-49,20,27,25,20,0,0,0,0,0,0,0,0,0,0,92,0.368,0.529,0.351,24,55,16,0021400927,1610612755,PHI,Philadelphia,Hollis Thompson,,,29:55,0.0,3.0,3.0,2.0,8.0,3.0,8.0,16.0,0.0,0.0,0.0,0.0
0021400927,1610612755,PHI,Philadelphia,2202,Jason Richardson,,DND - Rest                              ,,,,,,,0.0,,,,,,,0.0,,,2015-03-07T00:00:00,5,PHI,Philadelphia,14-49,20,27,25,20,0,0,0,0,0,0,0,0,0,0,92,0.368,0.529,0.351,24,55,16,0021400927,1610612755,PHI,Philadelphia,Jason Richardson,,DND - Rest                              ,,,,,,,,,,,,,
0021400927,1610612755,PHI,Philadelphia,203922,Glenn Robinson III,,NWT - Player Transaction                ,,,,,,,0.0,,,,,,,0.0,,,2015-03-07T00:00:00,5,PHI,Philadelphia,14-49,20,27,25,20,0,0,0,0,0,0,0,0,0,0,92,0.368,0.529,0.351,24,55,16,0021400927,1610612755,PHI,Philadelphia,Glenn Robinson III,,NWT - Player Transaction                ,,,,,,,,,,,,,
0021400927,1610612755,PHI,Philadelphia,203156,Henry Sims,,DNP - Coach's Decision                  ,,,,,,,0.0,,,,,,,0.0,,,2015-03-07T00:00:00,5,PHI,Philadelphia,14-49,20,27,25,20,0,0,0,0,0,0,0,0,0,0,92,0.368,0.529,0.351,24,55,16,0021400927,1610612755,PHI,Philadelphia,Henry Sims,,DNP - Coach's Decision                  ,,,,,,,,,,,,,
