GAME_ID_x,TEAM_ID_x,TEAM_ABBREVIATION_x,TEAM_CITY_x,PLAYER_ID,PLAYER_NAME_x,START_POSITION_x,COMMENT_x,MIN_x,OFF_RATING,DEF_RATING,NET_RATING,AST_PCT,AST_TOV,AST_RATIO,OREB_PCT,DREB_PCT,REB_PCT,TM_TOV_PCT,EFG_PCT,TS_PCT,USG_PCT,PACE,PIE,GAME_DATE_EST,GAME_SEQUENCE,TEAM_ABBREVIATION_y,TEAM_CITY_NAME,TEAM_WINS_LOSSES,PTS_QTR1,PTS_QTR2,PTS_QTR3,PTS_QTR4,PTS_OT1,PTS_OT2,PTS_OT3,PTS_OT4,PTS_OT5,PTS_OT6,PTS_OT7,PTS_OT8,PTS_OT9,PTS_OT10,PTS,FG_PCT,FT_PCT,FG3_PCT,AST,REB,TOV,GAME_ID_y,TEAM_ID_y,TEAM_ABBREVIATION,TEAM_CITY_y,PLAYER_NAME_y,START_POSITION_y,COMMENT_y,MIN_y,PTS_OFF_TOV,PTS_2ND_CHANCE,PTS_FB,PTS_PAINT,OPP_PTS_OFF_TOV,OPP_PTS_2ND_CHANCE,OPP_PTS_FB,OPP_PTS_PAINT,BLK,BLKA,PF,PFD
0021400933,1610612762,UTA,Utah,202330,Gordon Hayward,F,,32:44,115.3,104.8,10.5,0.071,1.0,4.8,0.04,0.154,0.098,4.8,0.533,0.633,0.31,86.12,0.182,2015-03-08T00:00:00,3,UTA,Utah,26-36,21,21,24,29,0,0,0,0,0,0,0,0,0,0,95,0.472,0.81,0.455,24,43,16,0021400933,1610612762,UTA,Utah,Gordon Hayward,F,,32:44,2.0,3.0,0.0,2.0,15.0,6.0,10.0,26.0,0.0,0.0,1.0,6.0
0021400933,1610612762,UTA,Utah,202324,Derrick Favors,F,,37:32,123.1,88.6,34.5,0.211,4.0,16.3,0.0,0.258,0.14,4.1,0.5,0.564,0.284,84.53,0.176,2015-03-08T00:00:00,3,UTA,Utah,26-36,21,21,24,29,0,0,0,0,0,0,0,0,0,0,95,0.472,0.81,0.455,24,43,16,0021400933,1610612762,UTA,Utah,Derrick Favors,F,,37:32,8.0,4.0,0.0,14.0,19.0,4.0,7.0,28.0,1.0,1.0,2.0,5.0
0021400933,1610612762,UTA,Utah,203497,Rudy Gobert,C,,36:02,105.3,105.8,-0.5,0.217,1.67,38.8,0.143,0.25,0.196,23.3,0.25,0.41,0.104,87.7,0.079,2015-03-08T00:00:00,3,UTA,Utah,26-36,21,21,24,29,0,0,0,0,0,0,0,0,0,0,95,0.472,0.81,0.455,24,43,16,0021400933,1610612762,UTA,Utah,Rudy Gobert,C,,36:02,0.0,2.0,0.0,2.0,16.0,8.0,9.0,30.0,2.0,0.0,3.0,3.0
0021400933,1610612762,UTA,Utah,204060,Joe Ingles,G,,23:21,115.9,98.9,17.0,0.214,1.0,27.3,0.0,0.158,0.079,27.3,0.2,0.2,0.171,80.46,0.012,2015-03-08T00:00:00,3,UTA,Utah,26-36,21,21,24,29,0,0,0,0,0,0,0,0,0,0,95,0.472,0.81,0.455,24,43,16,0021400933,1610612762,UTA,Utah,Joe Ingles,G,,23:21,2.0,0.0,0.0,2.0,13.0,4.0,4.0,20.0,0.0,0.0,0.0,0.0
0021400933,1610612762,UTA,Utah,203957,Dante Exum,G,,27:42,113.4,117.9,-4.4,0.077,1.0,12.5,0.125,0.053,0.093,12.5,1.167,1.167,0.123,83.1,0.148,2015-03-08T00:00:00,3,UTA,Utah,26-36,21,21,24,29,0,0,0,0,0,0,0,0,0,0,95,0.472,0.81,0.455,24,43,16,0021400933,1610612762,UTA,Utah,Dante Exum,G,,27:42,3.0,2.0,0.0,2.0,16.0,4.0,6.0,24.0,1.0,0.0,0.0,0.0
0021400933,1610612762,UTA,Utah,203504,Trey Burke,,,20:18,103.7,77.6,26.0,0.364,0.0,26.7,0.0,0.105,0.067,0.0,0.545,0.545,0.259,93.6,0.22,2015-03-08T00:00:00,3,UTA,Utah,26-36,21,21,24,29,0,0,0,0,0,0,0,0,0,0,95,0.472,0.81,0.455,24,43,16,0021400933,1610612762,UTA,Utah,Trey Burke,,,20:18,3.0,0.0,2.0,4.0,7.0,4.0,6.0,20.0,0.0,0.0,0.0,1.0
0021400933,1610612762,UTA,Utah,202407,Elijah Millsap,,,19:58,113.9,87.3,26.5,0.133,2.0,25.4,0.0,0.0,0.0,12.7,0.625,0.615,0.139,92.6,0.078,2015-03-08T00:00:00,3,UTA,Utah,26-36,21,21,24,29,0,0,0,0,0,0,0,0,0,0,95,0.472,0.81,0.455,24,43,16,0021400933,1610612762,UTA,Utah,Elijah Millsap,,,19:58,1.0,0.0,1.0,2.0,6.0,4.0,7.0,22.0,0.0,1.0,0.0,1.0
0021400933,1610612762,UTA,Utah,202344,Trevor Booker,,,22:23,93.7,110.5,-16.8,0.0,0.0,0.0,0.25,0.235,0.242,36.4,0.571,0.571,0.221,91.57,0.077,2015-03-08T00:00:00,3,UTA,Utah,26-36,21,21,24,29,0,0,0,0,0,0,0,0,0,0,95,0.472,0.81,0.455,24,43,16,0021400933,1610612762,UTA,Utah,Trevor Booker,,,22:23,0.0,4.0,2.0,8.0,11.0,4.0,8.0,30.0,0.0,0.0,2.0,0.0
0021400933,1610612762,UTA,Utah,203918,Rodney Hood,,,20:00,88.0,106.4,-18.4,0.286,2.0,40.0,0.0,0.133,0.067,20.0,0.375,0.375,0.131,93.91,0.017,2015-03-08T00:00:00,3,UTA,Utah,26-36,21,21,24,29,0,0,0,0,0,0,0,0,0,0,95,0.472,0.81,0.455,24,43,16,0021400933,1610612762,UTA,Utah,Rodney Hood,,,20:00,0.0,0.0,0.0,0.0,12.0,2.0,3.0,20.0,0.0,0.0,4.0,0.0
0021400933,1610612762,UTA,Utah,203968,Jerrelle Benimon,,DNP - Coach's Decision                  ,,,,,,,0.0,,,,,,,0.0,,,2015-03-08T00:00:00,3,UTA,Utah,26-36,21,21,24,29,0,0,0,0,0,0,0,0,0,0,95,0.472,0.81,0.455,24,43,16,0021400933,1610612762,UTA,Utah,Jerrelle Benimon,,DNP - Coach's Decision                  ,,,,,,,,,,,,,
0021400933,1610612762,UTA,Utah,203955,Bryce Cotton,,DNP - Coach's Decision                  ,,,,,,,0.0,,,,,,,0.0,,,2015-03-08T00:00:00,3,UTA,Utah,26-36,21,21,24,29,0,0,0,0,0,0,0,0,0,0,95,0.472,0.81,0.455,24,43,16,0021400933,1610612762,UTA,Utah,Bryce Cotton,,DNP - Coach's Decision                  ,,,,,,,,,,,,,
0021400933,1610612762,UTA,Utah,202379,Jeremy Evans,,DNP - Coach's Decision                  ,,,,,,,0.0,,,,,,,0.0,,,2015-03-08T00:00:00,3,UTA,Utah,26-36,21,21,24,29,0,0,0,0,0,0,0,0,0,0,95,0.472,0.81,0.455,24,43,16,0021400933,1610612762,UTA,Utah,Jeremy Evans,,DNP - Coach's Decision                  ,,,,,,,,,,,,,
0021400933,1610612762,UTA,Utah,203511,Grant Jerrett,,DNP - Coach's Decision                  ,,,,,,,0.0,,,,,,,0.0,,,2015-03-08T00:00:00,3,UTA,Utah,26-36,21,21,24,29,0,0,0,0,0,0,0,0,0,0,95,0.472,0.81,0.455,24,43,16,0021400933,1610612762,UTA,Utah,Grant Jerrett,,DNP - Coach's Decision                  ,,,,,,,,,,,,,
0021400933,1610612751,BKN,Brooklyn,2207,Joe Johnson,F,,35:06,104.5,105.8,-1.3,0.208,5.0,31.3,0.0,0.036,0.018,6.3,0.45,0.45,0.155,85.85,0.059,2015-03-08T00:00:00,3,BKN,Brooklyn,25-36,24,19,20,25,0,0,0,0,0,0,0,0,0,0,88,0.5,0.364,0.533,21,30,14,0021400933,1610612751,BKN,Brooklyn,Joe Johnson,F,,35:06,4.0,0.0,3.0,4.0,14.0,11.0,3.0,22.0,0.0,1.0,1.0,2.0
0021400933,1610612751,BKN,Brooklyn,201152,Thaddeus Young,F,,32:43,101.4,111.2,-9.8,0.125,1.0,9.5,0.037,0.087,0.06,9.5,0.559,0.559,0.296,86.89,0.132,2015-03-08T00:00:00,3,BKN,Brooklyn,25-36,24,19,20,25,0,0,0,0,0,0,0,0,0,0,88,0.5,0.364,0.533,21,30,14,0021400933,1610612751,BKN,Brooklyn,Thaddeus Young,F,,32:43,5.0,2.0,4.0,14.0,14.0,9.0,3.0,20.0,0.0,1.0,3.0,0.0
0021400933,1610612751,BKN,Brooklyn,201572,Brook Lopez,C,,35:58,109.2,107.0,2.1,0.0,0.0,0.0,0.167,0.172,0.169,5.0,0.471,0.495,0.288,83.94,0.114,2015-03-08T00:00:00,3,BKN,Brooklyn,25-36,24,19,20,25,0,0,0,0,0,0,0,0,0,0,88,0.5,0.364,0.533,21,30,14,0021400933,1610612751,BKN,Brooklyn,Brook Lopez,C,,35:58,4.0,6.0,2.0,12.0,14.0,13.0,5.0,26.0,2.0,0.0,3.0,5.0
0021400933,1610612751,BKN,Brooklyn,203900,Markel Brown,G,,16:48,103.7,105.9,-2.2,0.083,1.0,16.7,0.0,0.167,0.077,16.7,0.375,0.375,0.156,79.03,0.018,2015-03-08T00:00:00,3,BKN,Brooklyn,25-36,24,19,20,25,0,0,0,0,0,0,0,0,0,0,88,0.5,0.364,0.533,21,30,14,0021400933,1610612751,BKN,Brooklyn,Markel Brown,G,,16:48,0.0,0.0,0.0,0.0,7.0,5.0,0.0,10.0,0.0,0.0,1.0,0.0
0021400933,1610612751,BKN,Brooklyn,101114,Deron Williams,G,,30:29,103.4,112.2,-8.8,0.19,1.33,31.1,0.04,0.167,0.102,23.3,0.5,0.51,0.145,86.26,0.06,2015-03-08T00:00:00,3,BKN,Brooklyn,25-36,24,19,20,25,0,0,0,0,0,0,0,0,0,0,88,0.5,0.364,0.533,21,30,14,0021400933,1610612751,BKN,Brooklyn,Deron Williams,G,,30:29,1.0,0.0,1.0,2.0,14.0,9.0,1.0,18.0,0.0,1.0,2.0,1.0
0021400933,1610612751,BKN,Brooklyn,101127,Jarrett Jack,,,23:16,95.6,112.7,-17.0,0.313,1.0,33.3,0.0,0.133,0.063,33.3,0.7,0.7,0.213,93.99,0.089,2015-03-08T00:00:00,3,BKN,Brooklyn,25-36,24,19,20,25,0,0,0,0,0,0,0,0,0,0,88,0.5,0.364,0.533,21,30,14,0021400933,1610612751,BKN,Brooklyn,Jarrett Jack,,,23:16,2.0,0.0,0.0,0.0,12.0,6.0,5.0,20.0,0.0,0.0,1.0,0.0
0021400933,1610612751,BKN,Brooklyn,202711,Bojan Bogdanovic,,,21:12,93.3,111.3,-18.0,0.083,1.0,11.1,0.0,0.067,0.032,11.1,0.786,0.786,0.197,89.62,0.133,2015-03-08T00:00:00,3,BKN,Brooklyn,25-36,24,19,20,25,0,0,0,0,0,0,0,0,0,0,88,0.5,0.364,0.533,21,30,14,0021400933,1610612751,BKN,Brooklyn,Bojan Bogdanovic,,,21:12,3.0,0.0,0.0,2.0,5.0,8.0,2.0,20.0,0.0,0.0,0.0,1.0
0021400933,1610612751,BKN,Brooklyn,101187,Alan Anderson,,,17:09,97.5,103.7,-6.1,0.077,0.0,20.0,0.0,0.091,0.042,0.0,0.5,0.5,0.122,90.29,0.052,2015-03-08T00:00:00,3,BKN,Brooklyn,25-36,24,19,20,25,0,0,0,0,0,0,0,0,0,0,88,0.5,0.364,0.533,21,30,14,0021400933,1610612751,BKN,Brooklyn,Alan Anderson,,,17:09,0.0,0.0,0.0,4.0,5.0,6.0,4.0,18.0,0.0,1.0,1.0,1.0
0021400933,1610612751,BKN,Brooklyn,203486,Mason Plumlee,,,12:02,77.1,113.6,-36.5,0.286,0.0,41.0,0.0,0.333,0.143,0.0,1.0,0.694,0.117,98.3,0.086,2015-03-08T00:00:00,3,BKN,Brooklyn,25-36,24,19,20,25,0,0,0,0,0,0,0,0,0,0,88,0.5,0.364,0.533,21,30,14,0021400933,1610612751,BKN,Brooklyn,Mason Plumlee,,,12:02,2.0,0.0,2.0,4.0,5.0,2.0,0.0,10.0,0.0,0.0,4.0,1.0
0021400933,1610612751,BKN,Brooklyn,203928,Cory Jefferson,,,15:17,97.8,103.7,-5.9,0.0,0.0,0.0,0.0,0.25,0.13,0.0,0.6,0.51,0.192,88.92,0.095,2015-03-08T00:00:00,3,BKN,Brooklyn,25-36,24,19,20,25,0,0,0,0,0,0,0,0,0,0,88,0.5,0.364,0.533,21,30,14,0021400933,1610612751,BKN,Brooklyn,Cory Jefferson,,,15:17,2.0,0.0,0.0,2.0,5.0,6.0,2.0,16.0,0.0,0.0,0.0,1.0
0021400933,1610612751,BKN,Brooklyn,202366,Jerome Jordan,,DNP - Coach's Decision                  ,,,,,,,0.0,,,,,,,0.0,,,2015-03-08T00:00:00,3,BKN,Brooklyn,25-36,24,19,20,25,0,0,0,0,0,0,0,0,0,0,88,0.5,0.364,0.533,21,30,14,0021400933,1610612751,BKN,Brooklyn,Jerome Jordan,,DNP - Coach's Decision                  ,,,,,,,,,,,,,
0021400933,1610612751,BKN,Brooklyn,203508,Sergey Karasev,,DNP - Coach's Decision                  ,,,,,,,0.0,,,,,,,0.0,,,2015-03-08T00:00:00,3,BKN,Brooklyn,25-36,24,19,20,25,0,0,0,0,0,0,0,0,0,0,88,0.5,0.364,0.533,21,30,14,0021400933,1610612751,BKN,Brooklyn,Sergey Karasev,,DNP - Coach's Decision                  ,,,,,,,,,,,,,
0021400933,1610612751,BKN,Brooklyn,202721,Darius Morris,,DNP - Coach's Decision                  ,,,,,,,0.0,,,,,,,0.0,,,2015-03-08T00:00:00,3,BKN,Brooklyn,25-36,24,19,20,25,0,0,0,0,0,0,0,0,0,0,88,0.5,0.364,0.533,21,30,14,0021400933,1610612751,BKN,Brooklyn,Darius Morris,,DNP - Coach's Decision                  ,,,,,,,,,,,,,
