GAME_ID_x,TEAM_ID_x,TEAM_ABBREVIATION_x,TEAM_CITY_x,PLAYER_ID,PLAYER_NAME_x,START_POSITION_x,COMMENT_x,MIN_x,OFF_RATING,DEF_RATING,NET_RATING,AST_PCT,AST_TOV,AST_RATIO,OREB_PCT,DREB_PCT,REB_PCT,TM_TOV_PCT,EFG_PCT,TS_PCT,USG_PCT,PACE,PIE,GAME_DATE_EST,GAME_SEQUENCE,TEAM_ABBREVIATION_y,TEAM_CITY_NAME,TEAM_WINS_LOSSES,PTS_QTR1,PTS_QTR2,PTS_QTR3,PTS_QTR4,PTS_OT1,PTS_OT2,PTS_OT3,PTS_OT4,PTS_OT5,PTS_OT6,PTS_OT7,PTS_OT8,PTS_OT9,PTS_OT10,PTS,FG_PCT,FT_PCT,FG3_PCT,AST,REB,TOV,GAME_ID_y,TEAM_ID_y,TEAM_ABBREVIATION,TEAM_CITY_y,PLAYER_NAME_y,START_POSITION_y,COMMENT_y,MIN_y,PTS_OFF_TOV,PTS_2ND_CHANCE,PTS_FB,PTS_PAINT,OPP_PTS_OFF_TOV,OPP_PTS_2ND_CHANCE,OPP_PTS_FB,OPP_PTS_PAINT,BLK,BLKA,PF,PFD
0021400944,1610612744,GSW,Golden State,203084,Harrison Barnes,F,,31:53,98.9,90.1,8.8,0.05,1.0,8.8,0.074,0.071,0.073,8.8,0.375,0.483,0.152,98.1,0.052,2015-03-09T00:00:00,7,GSW,Golden State,50-12,25,21,30,22,0,0,0,0,0,0,0,0,0,0,98,0.422,0.789,0.419,17,48,18,0021400944,1610612744,GSW,Golden State,Harrison Barnes,F,,31:53,0.0,2.0,2.0,4.0,13.0,8.0,12.0,24.0,0.0,0.0,2.0,3.0
0021400944,1610612744,GSW,Golden State,203110,Draymond Green,F,,33:35,103.9,70.6,33.3,0.0,0.0,0.0,0.071,0.267,0.172,16.9,0.308,0.373,0.222,101.14,0.088,2015-03-09T00:00:00,7,GSW,Golden State,50-12,25,21,30,22,0,0,0,0,0,0,0,0,0,0,98,0.422,0.789,0.419,17,48,18,0021400944,1610612744,GSW,Golden State,Draymond Green,F,,33:35,2.0,0.0,0.0,0.0,11.0,7.0,8.0,18.0,1.0,1.0,2.0,2.0
0021400944,1610612744,GSW,Golden State,101106,Andrew Bogut,C,,23:03,123.6,62.5,61.1,0.105,2.0,50.0,0.048,0.316,0.175,25.0,1.0,1.0,0.038,98.0,0.113,2015-03-09T00:00:00,7,GSW,Golden State,50-12,25,21,30,22,0,0,0,0,0,0,0,0,0,0,98,0.422,0.789,0.419,17,48,18,0021400944,1610612744,GSW,Golden State,Andrew Bogut,C,,23:03,0.0,0.0,2.0,2.0,4.0,2.0,0.0,8.0,1.0,0.0,4.0,1.0
0021400944,1610612744,GSW,Golden State,202691,Klay Thompson,G,,30:39,113.0,83.3,29.7,0.167,1.5,11.5,0.0,0.069,0.037,7.6,0.526,0.59,0.332,99.95,0.174,2015-03-09T00:00:00,7,GSW,Golden State,50-12,25,21,30,22,0,0,0,0,0,0,0,0,0,0,98,0.422,0.789,0.419,17,48,18,0021400944,1610612744,GSW,Golden State,Klay Thompson,G,,30:39,8.0,3.0,10.0,6.0,11.0,9.0,8.0,20.0,1.0,0.0,1.0,3.0
0021400944,1610612744,GSW,Golden State,201939,Stephen Curry,G,,35:46,102.0,73.1,28.9,0.385,1.25,14.8,0.091,0.097,0.094,11.8,0.729,0.723,0.342,101.81,0.354,2015-03-09T00:00:00,7,GSW,Golden State,50-12,25,21,30,22,0,0,0,0,0,0,0,0,0,0,98,0.422,0.789,0.419,17,48,18,0021400944,1610612744,GSW,Golden State,Stephen Curry,G,,35:46,21.0,3.0,10.0,10.0,13.0,7.0,10.0,20.0,0.0,0.0,3.0,7.0
0021400944,1610612744,GSW,Golden State,2738,Andre Iguodala,,,29:13,87.7,83.5,4.2,0.0,0.0,0.0,0.0,0.233,0.127,50.8,0.667,0.644,0.113,103.6,0.076,2015-03-09T00:00:00,7,GSW,Golden State,50-12,25,21,30,22,0,0,0,0,0,0,0,0,0,0,98,0.422,0.789,0.419,17,48,18,0021400944,1610612744,GSW,Golden State,Andre Iguodala,,,29:13,0.0,0.0,5.0,2.0,13.0,7.0,10.0,22.0,2.0,0.0,4.0,1.0
0021400944,1610612744,GSW,Golden State,203105,Festus Ezeli,,,15:06,54.9,80.7,-25.8,0.0,0.0,0.0,0.1,0.438,0.308,22.5,0.333,0.436,0.132,103.25,0.264,2015-03-09T00:00:00,7,GSW,Golden State,50-12,25,21,30,22,0,0,0,0,0,0,0,0,0,0,98,0.422,0.789,0.419,17,48,18,0021400944,1610612744,GSW,Golden State,Festus Ezeli,,,15:06,0.0,0.0,3.0,2.0,6.0,4.0,4.0,16.0,1.0,0.0,1.0,1.0
0021400944,1610612744,GSW,Golden State,2571,Leandro Barbosa,,,8:17,36.0,85.2,-49.1,0.0,0.0,0.0,0.0,0.0,0.0,0.0,0.0,0.0,0.147,103.96,-0.222,2015-03-09T00:00:00,7,GSW,Golden State,50-12,25,21,30,22,0,0,0,0,0,0,0,0,0,0,98,0.422,0.789,0.419,17,48,18,0021400944,1610612744,GSW,Golden State,Leandro Barbosa,,,8:17,0.0,0.0,0.0,0.0,2.0,0.0,2.0,6.0,0.0,0.0,0.0,0.0
0021400944,1610612744,GSW,Golden State,2733,Shaun Livingston,,,25:04,98.3,81.7,16.6,0.286,4.0,33.7,0.0,0.077,0.044,8.4,0.5,0.509,0.149,95.97,0.075,2015-03-09T00:00:00,7,GSW,Golden State,50-12,25,21,30,22,0,0,0,0,0,0,0,0,0,0,98,0.422,0.789,0.419,17,48,18,0021400944,1610612744,GSW,Golden State,Shaun Livingston,,,25:04,2.0,2.0,1.0,6.0,10.0,9.0,4.0,18.0,2.0,0.0,4.0,1.0
0021400944,1610612744,GSW,Golden State,201578,Marreese Speights,,,4:28,162.5,127.1,35.4,0.333,0.0,66.7,0.0,0.4,0.25,0.0,0.0,0.0,0.111,93.71,0.107,2015-03-09T00:00:00,7,GSW,Golden State,50-12,25,21,30,22,0,0,0,0,0,0,0,0,0,0,98,0.422,0.789,0.419,17,48,18,0021400944,1610612744,GSW,Golden State,Marreese Speights,,,4:28,0.0,0.0,0.0,0.0,0.0,2.0,0.0,4.0,0.0,0.0,0.0,0.0
0021400944,1610612744,GSW,Golden State,203200,Justin Holiday,,,2:56,33.3,108.7,-75.4,0.0,0.0,0.0,0.0,0.0,0.0,33.3,0.0,0.0,0.5,101.78,-0.375,2015-03-09T00:00:00,7,GSW,Golden State,50-12,25,21,30,22,0,0,0,0,0,0,0,0,0,0,98,0.422,0.789,0.419,17,48,18,0021400944,1610612744,GSW,Golden State,Justin Holiday,,,2:56,0.0,0.0,0.0,0.0,2.0,0.0,2.0,4.0,0.0,0.0,0.0,0.0
0021400944,1610612744,GSW,Golden State,101135,David Lee,,DNP - Coach's Decision                  ,,,,,,,0.0,,,,,,,0.0,,,2015-03-09T00:00:00,7,GSW,Golden State,50-12,25,21,30,22,0,0,0,0,0,0,0,0,0,0,98,0.422,0.789,0.419,17,48,18,0021400944,1610612744,GSW,Golden State,David Lee,,DNP - Coach's Decision                  ,,,,,,,,,,,,,
0021400944,1610612744,GSW,Golden State,201575,Brandon Rush,,DNP - Coach's Decision                  ,,,,,,,0.0,,,,,,,0.0,,,2015-03-09T00:00:00,7,GSW,Golden State,50-12,25,21,30,22,0,0,0,0,0,0,0,0,0,0,98,0.422,0.789,0.419,17,48,18,0021400944,1610612744,GSW,Golden State,Brandon Rush,,DNP - Coach's Decision                  ,,,,,,,,,,,,,
0021400944,1610612756,PHX,Phoenix,200782,PJ Tucker,F,,35:11,77.1,97.9,-20.8,0.0,0.0,0.0,0.091,0.067,0.079,10.2,0.429,0.457,0.122,103.58,0.049,2015-03-09T00:00:00,7,PHX,Phoenix,33-32,19,27,15,19,0,0,0,0,0,0,0,0,0,0,80,0.377,0.783,0.364,13,37,18,0021400944,1610612756,PHX,Phoenix,PJ Tucker,F,,35:11,0.0,3.0,0.0,6.0,25.0,5.0,22.0,24.0,0.0,2.0,1.0,2.0
0021400944,1610612756,PHX,Phoenix,202693,Markieff Morris,F,,26:08,69.4,127.3,-57.9,0.25,1.0,20.2,0.0,0.19,0.093,20.2,0.125,0.225,0.221,95.22,0.0,2015-03-09T00:00:00,7,PHX,Phoenix,33-32,19,27,15,19,0,0,0,0,0,0,0,0,0,0,80,0.377,0.783,0.364,13,37,18,0021400944,1610612756,PHX,Phoenix,Markieff Morris,F,,26:08,0.0,0.0,0.0,0.0,26.0,8.0,21.0,18.0,0.0,1.0,4.0,1.0
0021400944,1610612756,PHX,Phoenix,203458,Alex Len,C,,27:56,78.3,108.8,-30.5,0.0,0.0,0.0,0.0,0.393,0.216,34.0,0.5,0.644,0.194,99.94,0.128,2015-03-09T00:00:00,7,PHX,Phoenix,33-32,19,27,15,19,0,0,0,0,0,0,0,0,0,0,80,0.377,0.783,0.364,13,37,18,0021400944,1610612756,PHX,Phoenix,Alex Len,C,,27:56,4.0,4.0,0.0,4.0,27.0,8.0,21.0,20.0,1.0,0.0,4.0,4.0
0021400944,1610612756,PHX,Phoenix,202688,Brandon Knight,G,,13:18,92.2,115.4,-23.2,0.0,0.0,0.0,0.077,0.0,0.04,0.0,0.667,0.689,0.313,97.8,0.181,2015-03-09T00:00:00,7,PHX,Phoenix,33-32,19,27,15,19,0,0,0,0,0,0,0,0,0,0,80,0.377,0.783,0.364,13,37,18,0021400944,1610612756,PHX,Phoenix,Brandon Knight,G,,13:18,0.0,0.0,0.0,4.0,5.0,5.0,16.0,14.0,0.0,1.0,1.0,2.0
0021400944,1610612756,PHX,Phoenix,202339,Eric Bledsoe,G,,35:37,68.6,103.9,-35.3,0.273,0.5,13.3,0.0,0.065,0.032,26.5,0.636,0.696,0.264,99.41,0.125,2015-03-09T00:00:00,7,PHX,Phoenix,33-32,19,27,15,19,0,0,0,0,0,0,0,0,0,0,80,0.377,0.783,0.364,13,37,18,0021400944,1610612756,PHX,Phoenix,Eric Bledsoe,G,,35:37,7.0,0.0,5.0,4.0,33.0,8.0,25.0,22.0,0.0,0.0,3.0,5.0
0021400944,1610612756,PHX,Phoenix,101123,Gerald Green,,,17:58,71.6,92.4,-20.8,0.2,1.0,18.4,0.0,0.077,0.03,18.4,0.167,0.145,0.211,104.25,-0.125,2015-03-09T00:00:00,7,PHX,Phoenix,33-32,19,27,15,19,0,0,0,0,0,0,0,0,0,0,80,0.377,0.783,0.364,13,37,18,0021400944,1610612756,PHX,Phoenix,Gerald Green,,,17:58,0.0,0.0,0.0,0.0,6.0,2.0,16.0,14.0,0.0,0.0,1.0,1.0
0021400944,1610612756,PHX,Phoenix,202694,Marcus Morris,,,27:48,83.9,102.0,-18.1,0.133,2.0,20.0,0.0,0.261,0.128,10.0,0.143,0.143,0.136,98.31,0.038,2015-03-09T00:00:00,7,PHX,Phoenix,33-32,19,27,15,19,0,0,0,0,0,0,0,0,0,0,80,0.377,0.783,0.364,13,37,18,0021400944,1610612756,PHX,Phoenix,Marcus Morris,,,27:48,0.0,2.0,0.0,0.0,22.0,7.0,18.0,22.0,0.0,0.0,1.0,1.0
0021400944,1610612756,PHX,Phoenix,201148,Brandan Wright,,,15:13,78.3,65.4,12.9,0.125,0.0,10.6,0.059,0.273,0.143,0.0,0.375,0.415,0.24,105.42,0.15,2015-03-09T00:00:00,7,PHX,Phoenix,33-32,19,27,15,19,0,0,0,0,0,0,0,0,0,0,80,0.377,0.783,0.364,13,37,18,0021400944,1610612756,PHX,Phoenix,Brandan Wright,,,15:13,0.0,2.0,0.0,4.0,3.0,0.0,12.0,8.0,0.0,2.0,3.0,1.0
0021400944,1610612756,PHX,Phoenix,203933,TJ Warren,,,23:36,91.1,91.8,-0.7,0.083,1.0,8.7,0.042,0.053,0.047,8.7,0.556,0.583,0.192,97.87,0.129,2015-03-09T00:00:00,7,PHX,Phoenix,33-32,19,27,15,19,0,0,0,0,0,0,0,0,0,0,80,0.377,0.783,0.364,13,37,18,0021400944,1610612756,PHX,Phoenix,TJ Warren,,,23:36,4.0,0.0,3.0,8.0,15.0,7.0,12.0,16.0,0.0,1.0,0.0,3.0
0021400944,1610612756,PHX,Phoenix,203462,Archie Goodwin,,,8:27,98.3,58.1,40.2,0.143,0.0,20.5,0.0,0.167,0.067,0.0,0.333,0.515,0.182,103.73,0.162,2015-03-09T00:00:00,7,PHX,Phoenix,33-32,19,27,15,19,0,0,0,0,0,0,0,0,0,0,80,0.377,0.783,0.364,13,37,18,0021400944,1610612756,PHX,Phoenix,Archie Goodwin,,,8:27,2.0,0.0,4.0,2.0,3.0,0.0,2.0,2.0,0.0,1.0,1.0,1.0
0021400944,1610612756,PHX,Phoenix,2853,Earl Barron,,,2:56,108.7,33.3,75.4,0.0,0.0,0.0,0.0,0.0,0.0,0.0,0.0,0.0,0.311,101.78,-0.25,2015-03-09T00:00:00,7,PHX,Phoenix,33-32,19,27,15,19,0,0,0,0,0,0,0,0,0,0,80,0.377,0.783,0.364,13,37,18,0021400944,1610612756,PHX,Phoenix,Earl Barron,,,2:56,0.0,0.0,0.0,0.0,0.0,0.0,0.0,0.0,0.0,0.0,0.0,0.0
0021400944,1610612756,PHX,Phoenix,201977,Marcus Thornton,,,2:56,108.7,33.3,75.4,0.0,0.0,0.0,0.0,0.0,0.0,0.0,0.0,0.0,0.0,101.78,0.25,2015-03-09T00:00:00,7,PHX,Phoenix,33-32,19,27,15,19,0,0,0,0,0,0,0,0,0,0,80,0.377,0.783,0.364,13,37,18,0021400944,1610612756,PHX,Phoenix,Marcus Thornton,,,2:56,0.0,0.0,0.0,0.0,0.0,0.0,0.0,0.0,0.0,0.0,0.0,0.0
0021400944,1610612756,PHX,Phoenix,203493,Reggie Bullock,,,2:56,108.7,33.3,75.4,0.0,0.0,0.0,0.0,0.0,0.0,0.0,0.0,0.0,0.155,101.78,-0.125,2015-03-09T00:00:00,7,PHX,Phoenix,33-32,19,27,15,19,0,0,0,0,0,0,0,0,0,0,80,0.377,0.783,0.364,13,37,18,0021400944,1610612756,PHX,Phoenix,Reggie Bullock,,,2:56,0.0,0.0,0.0,0.0,0.0,0.0,0.0,0.0,0.0,0.0,0.0,0.0
