GAME_ID_x,TEAM_ID_x,TEAM_ABBREVIATION_x,TEAM_CITY_x,PLAYER_ID,PLAYER_NAME_x,START_POSITION_x,COMMENT_x,MIN_x,OFF_RATING,DEF_RATING,NET_RATING,AST_PCT,AST_TOV,AST_RATIO,OREB_PCT,DREB_PCT,REB_PCT,TM_TOV_PCT,EFG_PCT,TS_PCT,USG_PCT,PACE,PIE,GAME_DATE_EST,GAME_SEQUENCE,TEAM_ABBREVIATION_y,TEAM_CITY_NAME,TEAM_WINS_LOSSES,PTS_QTR1,PTS_QTR2,PTS_QTR3,PTS_QTR4,PTS_OT1,PTS_OT2,PTS_OT3,PTS_OT4,PTS_OT5,PTS_OT6,PTS_OT7,PTS_OT8,PTS_OT9,PTS_OT10,PTS,FG_PCT,FT_PCT,FG3_PCT,AST,REB,TOV,GAME_ID_y,TEAM_ID_y,TEAM_ABBREVIATION,TEAM_CITY_y,PLAYER_NAME_y,START_POSITION_y,COMMENT_y,MIN_y,PTS_OFF_TOV,PTS_2ND_CHANCE,PTS_FB,PTS_PAINT,OPP_PTS_OFF_TOV,OPP_PTS_2ND_CHANCE,OPP_PTS_FB,OPP_PTS_PAINT,BLK,BLKA,PF,PFD
0021400938,1610612764,WAS,Washington,1718,Paul Pierce,F,,18:04,125.5,79.3,46.3,0.056,0.0,12.5,0.0,0.278,0.161,0.0,0.643,0.643,0.173,96.62,0.175,2015-03-09T00:00:00,1,WAS,Washington,36-28,36,20,21,18,0,0,0,0,0,0,0,0,0,0,95,0.518,1.0,0.143,21,49,13,0021400938,1610612764,WAS,Washington,Paul Pierce,F,,18:04,0.0,0.0,0.0,2.0,4.0,4.0,0.0,16.0,0.0,0.0,0.0,1.0
0021400938,1610612764,WAS,Washington,2403,Nene,F,,19:22,134.8,86.7,48.1,0.0,0.0,0.0,0.0,0.053,0.034,35.5,0.8,0.827,0.204,97.31,0.045,2015-03-09T00:00:00,1,WAS,Washington,36-28,36,20,21,18,0,0,0,0,0,0,0,0,0,0,95,0.518,1.0,0.143,21,49,13,0021400938,1610612764,WAS,Washington,Nene,F,,19:22,4.0,0.0,2.0,4.0,4.0,6.0,0.0,18.0,0.0,0.0,4.0,2.0
0021400938,1610612764,WAS,Washington,101162,Marcin Gortat,C,,28:06,117.1,87.8,29.4,0.0,0.0,0.0,0.125,0.179,0.159,0.0,0.818,0.842,0.197,96.54,0.231,2015-03-09T00:00:00,1,WAS,Washington,36-28,36,20,21,18,0,0,0,0,0,0,0,0,0,0,95,0.518,1.0,0.143,21,49,13,0021400938,1610612764,WAS,Washington,Marcin Gortat,C,,28:06,2.0,2.0,2.0,14.0,6.0,9.0,0.0,18.0,0.0,1.0,1.0,3.0
0021400938,1610612764,WAS,Washington,203078,Bradley Beal,G,,31:27,113.9,87.1,26.9,0.115,1.5,14.3,0.056,0.143,0.109,9.5,0.438,0.438,0.276,93.13,0.094,2015-03-09T00:00:00,1,WAS,Washington,36-28,36,20,21,18,0,0,0,0,0,0,0,0,0,0,95,0.518,1.0,0.143,21,49,13,0021400938,1610612764,WAS,Washington,Bradley Beal,G,,31:27,2.0,0.0,2.0,6.0,8.0,6.0,0.0,22.0,0.0,3.0,1.0,1.0
0021400938,1610612764,WAS,Washington,202322,John Wall,G,,29:16,116.6,84.7,31.8,0.375,3.0,39.1,0.0,0.172,0.106,13.0,0.682,0.682,0.222,96.01,0.228,2015-03-09T00:00:00,1,WAS,Washington,36-28,36,20,21,18,0,0,0,0,0,0,0,0,0,0,95,0.518,1.0,0.143,21,49,13,0021400938,1610612764,WAS,Washington,John Wall,G,,29:16,5.0,3.0,8.0,8.0,6.0,9.0,0.0,18.0,1.0,0.0,1.0,0.0
0021400938,1610612764,WAS,Washington,2400,Drew Gooden,,,23:39,90.7,64.5,26.2,0.176,0.0,37.5,0.0,0.24,0.128,0.0,0.2,0.2,0.107,88.13,0.093,2015-03-09T00:00:00,1,WAS,Washington,36-28,36,20,21,18,0,0,0,0,0,0,0,0,0,0,95,0.518,1.0,0.143,21,49,13,0021400938,1610612764,WAS,Washington,Drew Gooden,,,23:39,0.0,0.0,0.0,0.0,2.0,8.0,0.0,6.0,1.0,1.0,3.0,1.0
0021400938,1610612764,WAS,Washington,203490,Otto Porter Jr.,,,23:11,83.2,56.6,26.6,0.083,0.5,7.7,0.13,0.115,0.122,15.4,0.4,0.4,0.262,89.9,0.152,2015-03-09T00:00:00,1,WAS,Washington,36-28,36,20,21,18,0,0,0,0,0,0,0,0,0,0,95,0.518,1.0,0.143,21,49,13,0021400938,1610612764,WAS,Washington,Otto Porter Jr.,,,23:11,0.0,2.0,2.0,6.0,2.0,8.0,0.0,6.0,1.0,1.0,0.0,0.0
0021400938,1610612764,WAS,Washington,202066,Garrett Temple,,,19:03,97.8,87.4,10.4,0.067,1.0,17.0,0.0,0.05,0.029,17.0,0.0,0.258,0.123,89.93,-0.058,2015-03-09T00:00:00,1,WAS,Washington,36-28,36,20,21,18,0,0,0,0,0,0,0,0,0,0,95,0.518,1.0,0.143,21,49,13,0021400938,1610612764,WAS,Washington,Garrett Temple,,,19:03,2.0,0.0,2.0,0.0,2.0,10.0,0.0,4.0,0.0,0.0,3.0,2.0
0021400938,1610612764,WAS,Washington,202338,Kevin Seraphin,,,19:54,80.0,52.7,27.3,0.0,0.0,0.0,0.095,0.238,0.167,0.0,0.667,0.667,0.225,88.0,0.387,2015-03-09T00:00:00,1,WAS,Washington,36-28,36,20,21,18,0,0,0,0,0,0,0,0,0,0,95,0.518,1.0,0.143,21,49,13,0021400938,1610612764,WAS,Washington,Kevin Seraphin,,,19:54,0.0,2.0,0.0,10.0,2.0,5.0,0.0,6.0,0.0,0.0,4.0,0.0
0021400938,1610612764,WAS,Washington,201196,Ramon Sessions,,,18:45,78.8,55.6,23.2,0.273,1.5,30.0,0.0,0.15,0.077,20.0,0.4,0.4,0.189,88.31,0.127,2015-03-09T00:00:00,1,WAS,Washington,36-28,36,20,21,18,0,0,0,0,0,0,0,0,0,0,95,0.518,1.0,0.143,21,49,13,0021400938,1610612764,WAS,Washington,Ramon Sessions,,,18:45,0.0,0.0,2.0,4.0,2.0,5.0,0.0,6.0,0.0,1.0,1.0,0.0
0021400938,1610612764,WAS,Washington,201971,DeJuan Blair,,,4:40,36.4,62.2,-25.9,0.0,0.0,0.0,0.0,0.4,0.222,0.0,0.0,0.0,0.182,106.3,-0.4,2015-03-09T00:00:00,1,WAS,Washington,36-28,36,20,21,18,0,0,0,0,0,0,0,0,0,0,95,0.518,1.0,0.143,21,49,13,0021400938,1610612764,WAS,Washington,DeJuan Blair,,,4:40,0.0,0.0,0.0,0.0,2.0,0.0,0.0,0.0,0.0,1.0,1.0,0.0
0021400938,1610612764,WAS,Washington,2446,Rasual Butler,,,4:34,44.4,0.0,44.4,0.0,0.0,0.0,0.0,0.167,0.083,0.0,0.0,0.0,0.1,99.71,0.0,2015-03-09T00:00:00,1,WAS,Washington,36-28,36,20,21,18,0,0,0,0,0,0,0,0,0,0,95,0.518,1.0,0.143,21,49,13,0021400938,1610612764,WAS,Washington,Rasual Butler,,,4:34,0.0,0.0,0.0,0.0,0.0,0.0,0.0,0.0,1.0,0.0,0.0,1.0
0021400938,1610612764,WAS,Washington,101110,Martell Webster,,DNP - Coach's Decision                  ,,,,,,,0.0,,,,,,,0.0,,,2015-03-09T00:00:00,1,WAS,Washington,36-28,36,20,21,18,0,0,0,0,0,0,0,0,0,0,95,0.518,1.0,0.143,21,49,13,0021400938,1610612764,WAS,Washington,Martell Webster,,DNP - Coach's Decision                  ,,,,,,,,,,,,,
0021400938,1610612766,CHA,Charlotte,203077,Michael Kidd-Gilchrist,F,,29:52,82.0,115.4,-33.4,0.056,1.0,11.4,0.097,0.13,0.111,11.4,0.4,0.518,0.12,92.28,0.066,2015-03-09T00:00:00,1,CHA,Charlotte,28-34,21,25,14,9,0,0,0,0,0,0,0,0,0,0,69,0.325,0.75,0.182,13,37,15,0021400938,1610612766,CHA,Charlotte,Michael Kidd-Gilchrist,F,,29:52,4.0,0.0,0.0,4.0,7.0,7.0,12.0,32.0,1.0,0.0,1.0,3.0
0021400938,1610612766,CHA,Charlotte,203469,Cody Zeller,F,,6:52,91.2,158.2,-66.9,0.0,0.0,0.0,0.0,0.2,0.091,0.0,0.0,0.0,0.057,114.92,-0.024,2015-03-09T00:00:00,1,CHA,Charlotte,28-34,21,25,14,9,0,0,0,0,0,0,0,0,0,0,69,0.325,0.75,0.182,13,37,15,0021400938,1610612766,CHA,Charlotte,Cody Zeller,F,,6:52,0.0,0.0,0.0,0.0,5.0,5.0,6.0,16.0,2.0,0.0,2.0,0.0
0021400938,1610612766,CHA,Charlotte,2744,Al Jefferson,C,,28:40,87.9,109.9,-22.0,0.091,0.5,5.9,0.077,0.188,0.119,11.8,0.5,0.5,0.264,94.66,0.096,2015-03-09T00:00:00,1,CHA,Charlotte,28-34,21,25,14,9,0,0,0,0,0,0,0,0,0,0,69,0.325,0.75,0.182,13,37,15,0021400938,1610612766,CHA,Charlotte,Al Jefferson,C,,28:40,2.0,2.0,0.0,12.0,9.0,5.0,12.0,30.0,1.0,0.0,2.0,0.0
0021400938,1610612766,CHA,Charlotte,201945,Gerald Henderson,G,,25:12,96.2,117.2,-21.0,0.0,0.0,0.0,0.0,0.231,0.086,28.6,0.4,0.4,0.13,94.44,0.01,2015-03-09T00:00:00,1,CHA,Charlotte,28-34,21,25,14,9,0,0,0,0,0,0,0,0,0,0,69,0.325,0.75,0.182,13,37,15,0021400938,1610612766,CHA,Charlotte,Gerald Henderson,G,,25:12,0.0,0.0,0.0,2.0,9.0,5.0,12.0,28.0,0.0,0.0,1.0,0.0
0021400938,1610612766,CHA,Charlotte,2590,Mo Williams,G,,32:39,82.3,104.4,-22.0,0.538,2.33,22.5,0.0,0.0,0.0,9.7,0.361,0.451,0.332,95.41,0.097,2015-03-09T00:00:00,1,CHA,Charlotte,28-34,21,25,14,9,0,0,0,0,0,0,0,0,0,0,69,0.325,0.75,0.182,13,37,15,0021400938,1610612766,CHA,Charlotte,Mo Williams,G,,32:39,0.0,2.0,0.0,4.0,15.0,7.0,18.0,40.0,0.0,2.0,1.0,5.0
0021400938,1610612766,CHA,Charlotte,101107,Marvin Williams,,,20:25,80.6,94.6,-14.0,0.0,0.0,0.0,0.0,0.357,0.139,0.0,0.75,0.75,0.095,84.71,0.162,2015-03-09T00:00:00,1,CHA,Charlotte,28-34,21,25,14,9,0,0,0,0,0,0,0,0,0,0,69,0.325,0.75,0.182,13,37,15,0021400938,1610612766,CHA,Charlotte,Marvin Williams,,,20:25,0.0,6.0,0.0,0.0,2.0,0.0,2.0,10.0,0.0,0.0,0.0,1.0
0021400938,1610612766,CHA,Charlotte,203148,Brian Roberts,,,23:40,52.2,95.7,-43.5,0.125,0.0,9.1,0.0,0.045,0.02,0.0,0.0,0.0,0.204,91.11,-0.16,2015-03-09T00:00:00,1,CHA,Charlotte,28-34,21,25,14,9,0,0,0,0,0,0,0,0,0,0,69,0.325,0.75,0.182,13,37,15,0021400938,1610612766,CHA,Charlotte,Brian Roberts,,,23:40,0.0,0.0,0.0,0.0,6.0,4.0,8.0,26.0,0.0,0.0,0.0,2.0
0021400938,1610612766,CHA,Charlotte,202687,Bismack Biyombo,,,19:20,52.5,91.7,-39.2,0.0,0.0,0.0,0.087,0.333,0.205,41.0,0.333,0.347,0.178,90.54,0.113,2015-03-09T00:00:00,1,CHA,Charlotte,28-34,21,25,14,9,0,0,0,0,0,0,0,0,0,0,69,0.325,0.75,0.182,13,37,15,0021400938,1610612766,CHA,Charlotte,Bismack Biyombo,,,19:20,0.0,2.0,0.0,2.0,6.0,4.0,8.0,24.0,1.0,1.0,1.0,4.0
0021400938,1610612766,CHA,Charlotte,202362,Lance Stephenson,,,23:35,76.4,97.9,-21.5,0.5,1.0,17.9,0.0,0.105,0.047,17.9,0.5,0.558,0.29,88.9,0.119,2015-03-09T00:00:00,1,CHA,Charlotte,28-34,21,25,14,9,0,0,0,0,0,0,0,0,0,0,69,0.325,0.75,0.182,13,37,15,0021400938,1610612766,CHA,Charlotte,Lance Stephenson,,,23:35,2.0,0.0,0.0,0.0,8.0,4.0,12.0,26.0,0.0,0.0,2.0,3.0
0021400938,1610612766,CHA,Charlotte,101131,Jason Maxiell,,,14:49,91.7,100.4,-8.7,0.0,0.0,0.0,0.083,0.167,0.125,0.0,0.333,0.515,0.138,87.57,0.155,2015-03-09T00:00:00,1,CHA,Charlotte,28-34,21,25,14,9,0,0,0,0,0,0,0,0,0,0,69,0.325,0.75,0.182,13,37,15,0021400938,1610612766,CHA,Charlotte,Jason Maxiell,,,14:49,0.0,2.0,0.0,0.0,8.0,4.0,10.0,20.0,2.0,0.0,0.0,1.0
0021400938,1610612766,CHA,Charlotte,203584,Troy Daniels,,,5:44,0.0,50.0,-50.0,0.0,0.0,0.0,0.0,0.0,0.0,0.0,0.0,0.0,0.167,100.47,0.0,2015-03-09T00:00:00,1,CHA,Charlotte,28-34,21,25,14,9,0,0,0,0,0,0,0,0,0,0,69,0.325,0.75,0.182,13,37,15,0021400938,1610612766,CHA,Charlotte,Troy Daniels,,,5:44,0.0,0.0,0.0,0.0,0.0,0.0,0.0,6.0,0.0,0.0,1.0,0.0
0021400938,1610612766,CHA,Charlotte,203943,Noah Vonleh,,,4:36,0.0,60.0,-60.0,0.0,0.0,0.0,0.0,0.2,0.091,0.0,0.0,0.0,0.1,104.35,0.25,2015-03-09T00:00:00,1,CHA,Charlotte,28-34,21,25,14,9,0,0,0,0,0,0,0,0,0,0,69,0.325,0.75,0.182,13,37,15,0021400938,1610612766,CHA,Charlotte,Noah Vonleh,,,4:36,0.0,0.0,0.0,0.0,0.0,0.0,0.0,6.0,1.0,1.0,0.0,0.0
0021400938,1610612766,CHA,Charlotte,203106,Jeffery Taylor,,,4:36,0.0,60.0,-60.0,0.0,0.0,0.0,0.0,0.2,0.091,33.3,0.0,0.0,0.3,104.35,-1.0,2015-03-09T00:00:00,1,CHA,Charlotte,28-34,21,25,14,9,0,0,0,0,0,0,0,0,0,0,69,0.325,0.75,0.182,13,37,15,0021400938,1610612766,CHA,Charlotte,Jeffery Taylor,,,4:36,0.0,0.0,0.0,0.0,0.0,0.0,0.0,6.0,0.0,0.0,0.0,0.0
