GAME_ID_x,TEAM_ID_x,TEAM_ABBREVIATION_x,TEAM_CITY_x,PLAYER_ID,PLAYER_NAME_x,START_POSITION_x,COMMENT_x,MIN_x,OFF_RATING,DEF_RATING,NET_RATING,AST_PCT,AST_TOV,AST_RATIO,OREB_PCT,DREB_PCT,REB_PCT,TM_TOV_PCT,EFG_PCT,TS_PCT,USG_PCT,PACE,PIE,GAME_DATE_EST,GAME_SEQUENCE,TEAM_ABBREVIATION_y,TEAM_CITY_NAME,TEAM_WINS_LOSSES,PTS_QTR1,PTS_QTR2,PTS_QTR3,PTS_QTR4,PTS_OT1,PTS_OT2,PTS_OT3,PTS_OT4,PTS_OT5,PTS_OT6,PTS_OT7,PTS_OT8,PTS_OT9,PTS_OT10,PTS,FG_PCT,FT_PCT,FG3_PCT,AST,REB,TOV,GAME_ID_y,TEAM_ID_y,TEAM_ABBREVIATION,TEAM_CITY_y,PLAYER_NAME_y,START_POSITION_y,COMMENT_y,MIN_y,PTS_OFF_TOV,PTS_2ND_CHANCE,PTS_FB,PTS_PAINT,OPP_PTS_OFF_TOV,OPP_PTS_2ND_CHANCE,OPP_PTS_FB,OPP_PTS_PAINT,BLK,BLKA,PF,PFD
0021400945,1610612750,MIN,Minnesota,203952,Andrew Wiggins,F,,32:04,88.2,105.9,-17.6,0.0,0.0,0.0,0.033,0.167,0.093,16.8,0.357,0.37,0.237,94.3,-0.005,2015-03-09T00:00:00,8,MIN,Minnesota,14-48,25,14,23,14,0,0,0,0,0,0,0,0,0,0,76,0.373,0.571,0.25,25,50,15,0021400945,1610612750,MIN,Minnesota,Andrew Wiggins,F,,32:04,5.0,0.0,4.0,8.0,6.0,7.0,6.0,30.0,0.0,1.0,3.0,5.0
0021400945,1610612750,MIN,Minnesota,203940,Adreian Payne,F,,36:33,88.6,104.5,-15.9,0.111,0.67,10.9,0.152,0.357,0.246,16.4,0.583,0.601,0.198,93.29,0.165,2015-03-09T00:00:00,8,MIN,Minnesota,14-48,25,14,23,14,0,0,0,0,0,0,0,0,0,0,76,0.373,0.571,0.25,25,50,15,0021400945,1610612750,MIN,Minnesota,Adreian Payne,F,,36:33,2.0,0.0,2.0,8.0,9.0,7.0,6.0,32.0,1.0,0.0,4.0,3.0
0021400945,1610612750,MIN,Minnesota,201593,Nikola Pekovic,C,,23:31,76.3,110.5,-34.3,0.0,0.0,0.0,0.154,0.286,0.213,12.7,0.417,0.436,0.269,98.46,0.071,2015-03-09T00:00:00,8,MIN,Minnesota,14-48,25,14,23,14,0,0,0,0,0,0,0,0,0,0,76,0.373,0.571,0.25,25,50,15,0021400945,1610612750,MIN,Minnesota,Nikola Pekovic,C,,23:31,2.0,8.0,2.0,10.0,7.0,6.0,7.0,24.0,0.0,1.0,4.0,3.0
0021400945,1610612750,MIN,Minnesota,2755,Kevin Martin,G,,29:05,72.1,105.5,-33.4,0.143,0.0,15.8,0.0,0.0,0.0,0.0,0.313,0.47,0.162,92.26,0.059,2015-03-09T00:00:00,8,MIN,Minnesota,14-48,25,14,23,14,0,0,0,0,0,0,0,0,0,0,76,0.373,0.571,0.25,25,50,15,0021400945,1610612750,MIN,Minnesota,Kevin Martin,G,,29:05,5.0,2.0,2.0,2.0,9.0,10.0,7.0,28.0,0.0,0.0,1.0,2.0
0021400945,1610612750,MIN,Minnesota,201937,Ricky Rubio,G,,34:04,82.6,112.4,-29.8,0.571,4.0,51.2,0.0,0.074,0.034,12.8,0.125,0.118,0.149,93.3,0.059,2015-03-09T00:00:00,8,MIN,Minnesota,14-48,25,14,23,14,0,0,0,0,0,0,0,0,0,0,76,0.373,0.571,0.25,25,50,15,0021400945,1610612750,MIN,Minnesota,Ricky Rubio,G,,34:04,0.0,0.0,0.0,0.0,9.0,10.0,9.0,32.0,0.0,0.0,1.0,3.0
0021400945,1610612750,MIN,Minnesota,203476,Gorgui Dieng,,,26:55,76.5,91.1,-14.6,0.071,0.0,11.1,0.045,0.273,0.182,0.0,0.375,0.375,0.148,89.49,0.149,2015-03-09T00:00:00,8,MIN,Minnesota,14-48,25,14,23,14,0,0,0,0,0,0,0,0,0,0,76,0.373,0.571,0.25,25,50,15,0021400945,1610612750,MIN,Minnesota,Gorgui Dieng,,,26:55,0.0,4.0,0.0,4.0,4.0,10.0,7.0,14.0,1.0,0.0,2.0,2.0
0021400945,1610612750,MIN,Minnesota,202390,Gary Neal,,,20:50,71.4,102.5,-31.2,0.333,0.0,22.3,0.0,0.154,0.089,0.0,0.4,0.431,0.239,94.0,0.177,2015-03-09T00:00:00,8,MIN,Minnesota,14-48,25,14,23,14,0,0,0,0,0,0,0,0,0,0,76,0.373,0.571,0.25,25,50,15,0021400945,1610612750,MIN,Minnesota,Gary Neal,,,20:50,0.0,0.0,0.0,4.0,5.0,6.0,7.0,12.0,0.0,0.0,0.0,3.0
0021400945,1610612750,MIN,Minnesota,203897,Zach LaVine,,,13:56,73.3,56.1,17.3,0.375,0.75,25.0,0.0,0.05,0.03,33.3,0.3,0.3,0.294,95.43,-0.085,2015-03-09T00:00:00,8,MIN,Minnesota,14-48,25,14,23,14,0,0,0,0,0,0,0,0,0,0,76,0.373,0.571,0.25,25,50,15,0021400945,1610612750,MIN,Minnesota,Zach LaVine,,,13:56,3.0,0.0,0.0,0.0,2.0,3.0,2.0,4.0,0.0,0.0,2.0,0.0
0021400945,1610612750,MIN,Minnesota,201978,Chase Budinger,,,10:58,78.6,50.3,28.3,0.143,0.0,25.8,0.0,0.063,0.038,0.0,0.0,0.174,0.127,95.24,0.053,2015-03-09T00:00:00,8,MIN,Minnesota,14-48,25,14,23,14,0,0,0,0,0,0,0,0,0,0,76,0.373,0.571,0.25,25,50,15,0021400945,1610612750,MIN,Minnesota,Chase Budinger,,,10:58,0.0,0.0,0.0,0.0,2.0,3.0,2.0,2.0,0.0,0.0,0.0,1.0
0021400945,1610612750,MIN,Minnesota,203120,Justin Hamilton,,,9:01,64.0,38.9,25.1,0.0,0.0,0.0,0.111,0.0,0.048,0.0,0.667,0.667,0.152,97.85,0.238,2015-03-09T00:00:00,8,MIN,Minnesota,14-48,25,14,23,14,0,0,0,0,0,0,0,0,0,0,76,0.373,0.571,0.25,25,50,15,0021400945,1610612750,MIN,Minnesota,Justin Hamilton,,,9:01,0.0,2.0,0.0,4.0,2.0,3.0,2.0,2.0,0.0,0.0,2.0,0.0
0021400945,1610612750,MIN,Minnesota,203485,Lorenzo Brown,,,3:03,118.3,33.3,85.0,0.5,0.0,34.7,0.0,0.5,0.25,0.0,1.0,0.532,0.278,100.41,0.429,2015-03-09T00:00:00,8,MIN,Minnesota,14-48,25,14,23,14,0,0,0,0,0,0,0,0,0,0,76,0.373,0.571,0.25,25,50,15,0021400945,1610612750,MIN,Minnesota,Lorenzo Brown,,,3:03,2.0,0.0,2.0,2.0,0.0,0.0,0.0,0.0,0.0,0.0,0.0,1.0
0021400945,1610612750,MIN,Minnesota,708,Kevin Garnett,,DNP - Coach's Decision                  ,,,,,,,0.0,,,,,,,0.0,,,2015-03-09T00:00:00,8,MIN,Minnesota,14-48,25,14,23,14,0,0,0,0,0,0,0,0,0,0,76,0.373,0.571,0.25,25,50,15,0021400945,1610612750,MIN,Minnesota,Kevin Garnett,,DNP - Coach's Decision                  ,,,,,,,,,,,,,
0021400945,1610612746,LAC,Los Angeles,2440,Matt Barnes,F,,30:43,107.9,89.3,18.6,0.048,0.5,6.7,0.0,0.071,0.038,13.3,0.542,0.542,0.224,92.88,0.057,2015-03-09T00:00:00,8,LAC,Los Angeles,41-23,25,23,26,15,0,0,0,0,0,0,0,0,0,0,89,0.443,0.533,0.355,30,42,15,0021400945,1610612746,LAC,Los Angeles,Matt Barnes,F,,30:43,0.0,0.0,4.0,4.0,14.0,10.0,10.0,30.0,0.0,1.0,4.0,2.0
0021400945,1610612746,LAC,Los Angeles,201150,Spencer Hawes,F,,22:47,127.1,73.4,53.7,0.136,0.0,30.4,0.0,0.045,0.026,0.0,0.417,0.363,0.141,95.44,0.0,2015-03-09T00:00:00,8,LAC,Los Angeles,41-23,25,23,26,15,0,0,0,0,0,0,0,0,0,0,89,0.443,0.533,0.355,30,42,15,0021400945,1610612746,LAC,Los Angeles,Spencer Hawes,F,,22:47,0.0,0.0,0.0,0.0,9.0,6.0,6.0,20.0,0.0,0.0,4.0,2.0
0021400945,1610612746,LAC,Los Angeles,201599,DeAndre Jordan,C,,38:55,112.2,82.3,30.0,0.125,0.75,15.5,0.147,0.333,0.243,20.7,0.909,0.812,0.197,92.63,0.22,2015-03-09T00:00:00,8,LAC,Los Angeles,41-23,25,23,26,15,0,0,0,0,0,0,0,0,0,0,89,0.443,0.533,0.355,30,42,15,0021400945,1610612746,LAC,Los Angeles,DeAndre Jordan,C,,38:55,4.0,4.0,2.0,20.0,14.0,10.0,10.0,34.0,2.0,1.0,2.0,4.0
0021400945,1610612746,LAC,Los Angeles,200755,JJ Redick,G,,39:01,100.4,67.3,33.0,0.0,0.0,0.0,0.0,0.122,0.063,4.7,0.605,0.64,0.252,95.61,0.192,2015-03-09T00:00:00,8,LAC,Los Angeles,41-23,25,23,26,15,0,0,0,0,0,0,0,0,0,0,89,0.443,0.533,0.355,30,42,15,0021400945,1610612746,LAC,Los Angeles,JJ Redick,G,,39:01,4.0,3.0,2.0,4.0,11.0,16.0,6.0,30.0,0.0,0.0,0.0,3.0
0021400945,1610612746,LAC,Los Angeles,101108,Chris Paul,G,,29:43,111.3,80.4,30.9,0.577,3.75,60.0,0.0,0.138,0.08,16.0,0.167,0.167,0.163,94.69,0.096,2015-03-09T00:00:00,8,LAC,Los Angeles,41-23,25,23,26,15,0,0,0,0,0,0,0,0,0,0,89,0.443,0.533,0.355,30,42,15,0021400945,1610612746,LAC,Los Angeles,Chris Paul,G,,29:43,0.0,0.0,0.0,2.0,14.0,10.0,8.0,26.0,0.0,0.0,3.0,1.0
0021400945,1610612746,LAC,Los Angeles,201175,Glen Davis,,,20:02,70.3,82.4,-12.0,0.111,1.0,17.4,0.0,0.2,0.087,17.4,0.0,0.399,0.116,93.73,0.025,2015-03-09T00:00:00,8,LAC,Los Angeles,41-23,25,23,26,15,0,0,0,0,0,0,0,0,0,0,89,0.443,0.533,0.355,30,42,15,0021400945,1610612746,LAC,Los Angeles,Glen Davis,,,20:02,0.0,0.0,0.0,0.0,5.0,10.0,4.0,18.0,0.0,0.0,4.0,4.0
0021400945,1610612746,LAC,Los Angeles,203085,Austin Rivers,,,21:39,87.3,72.9,14.4,0.857,0.0,41.6,0.069,0.111,0.085,0.0,0.75,0.77,0.183,91.57,0.362,2015-03-09T00:00:00,8,LAC,Los Angeles,41-23,25,23,26,15,0,0,0,0,0,0,0,0,0,0,89,0.443,0.533,0.355,30,42,15,0021400945,1610612746,LAC,Los Angeles,Austin Rivers,,,21:39,3.0,0.0,3.0,6.0,3.0,6.0,4.0,20.0,0.0,0.0,2.0,1.0
0021400945,1610612746,LAC,Los Angeles,101126,Nate Robinson,,,16:50,69.5,79.7,-10.1,0.167,1.0,8.4,0.08,0.2,0.125,8.4,0.167,0.202,0.286,93.7,-0.055,2015-03-09T00:00:00,8,LAC,Los Angeles,41-23,25,23,26,15,0,0,0,0,0,0,0,0,0,0,89,0.443,0.533,0.355,30,42,15,0021400945,1610612746,LAC,Los Angeles,Nate Robinson,,,16:50,0.0,3.0,0.0,0.0,5.0,6.0,4.0,14.0,0.0,0.0,1.0,1.0
0021400945,1610612746,LAC,Los Angeles,2045,Hedo Turkoglu,,,11:36,57.1,60.9,-3.8,0.0,0.0,0.0,0.0,0.0,0.0,0.0,0.3,0.3,0.194,94.7,0.0,2015-03-09T00:00:00,8,LAC,Los Angeles,41-23,25,23,26,15,0,0,0,0,0,0,0,0,0,0,89,0.443,0.533,0.355,30,42,15,0021400945,1610612746,LAC,Los Angeles,Hedo Turkoglu,,,11:36,0.0,3.0,0.0,0.0,0.0,6.0,0.0,8.0,0.0,0.0,1.0,1.0
0021400945,1610612746,LAC,Los Angeles,202706,Jordan Hamilton,,,3:03,33.3,118.3,-85.0,0.0,0.0,0.0,0.0,0.0,0.0,0.0,0.0,0.0,0.0,100.41,-0.143,2015-03-09T00:00:00,8,LAC,Los Angeles,41-23,25,23,26,15,0,0,0,0,0,0,0,0,0,0,89,0.443,0.533,0.355,30,42,15,0021400945,1610612746,LAC,Los Angeles,Jordan Hamilton,,,3:03,0.0,0.0,0.0,0.0,5.0,0.0,2.0,4.0,0.0,0.0,1.0,0.0
0021400945,1610612746,LAC,Los Angeles,203912,CJ Wilcox,,,2:02,0.0,154.6,-154.6,0.0,0.0,0.0,0.0,0.0,0.0,50.0,0.0,0.0,0.5,93.01,-0.5,2015-03-09T00:00:00,8,LAC,Los Angeles,41-23,25,23,26,15,0,0,0,0,0,0,0,0,0,0,89,0.443,0.533,0.355,30,42,15,0021400945,1610612746,LAC,Los Angeles,CJ Wilcox,,,2:02,0.0,0.0,0.0,0.0,5.0,0.0,2.0,2.0,0.0,0.0,0.0,0.0
0021400945,1610612746,LAC,Los Angeles,202327,Ekpe Udoh,,,2:02,0.0,154.6,-154.6,0.0,0.0,0.0,0.0,0.0,0.0,100.0,0.0,0.0,0.25,93.01,-0.5,2015-03-09T00:00:00,8,LAC,Los Angeles,41-23,25,23,26,15,0,0,0,0,0,0,0,0,0,0,89,0.443,0.533,0.355,30,42,15,0021400945,1610612746,LAC,Los Angeles,Ekpe Udoh,,,2:02,0.0,0.0,0.0,0.0,5.0,0.0,2.0,2.0,0.0,0.0,1.0,0.0
0021400945,1610612746,LAC,Los Angeles,2563,Dahntay Jones,,,1:37,0.0,166.7,-166.7,0.0,0.0,0.0,0.0,0.0,0.0,0.0,0.0,0.0,0.0,89.07,0.0,2015-03-09T00:00:00,8,LAC,Los Angeles,41-23,25,23,26,15,0,0,0,0,0,0,0,0,0,0,89,0.443,0.533,0.355,30,42,15,0021400945,1610612746,LAC,Los Angeles,Dahntay Jones,,,1:37,0.0,0.0,0.0,0.0,5.0,0.0,2.0,2.0,0.0,0.0,0.0,0.0
