GAME_ID_x,TEAM_ID_x,TEAM_ABBREVIATION_x,TEAM_CITY_x,PLAYER_ID,PLAYER_NAME_x,START_POSITION_x,COMMENT_x,MIN_x,OFF_RATING,DEF_RATING,NET_RATING,AST_PCT,AST_TOV,AST_RATIO,OREB_PCT,DREB_PCT,REB_PCT,TM_TOV_PCT,EFG_PCT,TS_PCT,USG_PCT,PACE,PIE,GAME_DATE_EST,GAME_SEQUENCE,TEAM_ABBREVIATION_y,TEAM_CITY_NAME,TEAM_WINS_LOSSES,PTS_QTR1,PTS_QTR2,PTS_QTR3,PTS_QTR4,PTS_OT1,PTS_OT2,PTS_OT3,PTS_OT4,PTS_OT5,PTS_OT6,PTS_OT7,PTS_OT8,PTS_OT9,PTS_OT10,PTS,FG_PCT,FT_PCT,FG3_PCT,AST,REB,TOV,GAME_ID_y,TEAM_ID_y,TEAM_ABBREVIATION,TEAM_CITY_y,PLAYER_NAME_y,START_POSITION_y,COMMENT_y,MIN_y,PTS_OFF_TOV,PTS_2ND_CHANCE,PTS_FB,PTS_PAINT,OPP_PTS_OFF_TOV,OPP_PTS_2ND_CHANCE,OPP_PTS_FB,OPP_PTS_PAINT,BLK,BLKA,PF,PFD
0021400949,1610612761,TOR,Toronto,203082,Terrence Ross,F,,24:47,105.0,100.1,4.9,0.0,0.0,0.0,0.0,0.08,0.042,18.2,0.278,0.278,0.198,93.55,-0.006,2015-03-10T00:00:00,4,TOR,Toronto,38-26,17,24,30,36,0,0,0,0,0,0,0,0,0,0,107,0.443,0.722,0.308,19,46,9,0021400949,1610612761,TOR,Toronto,Terrence Ross,F,,24:47,0.0,0.0,0.0,0.0,2.0,8.0,6.0,28.0,1.0,0.0,0.0,0.0
0021400949,1610612761,TOR,Toronto,101161,Amir Johnson,F,,32:54,111.4,109.2,2.3,0.13,3.0,15.9,0.167,0.25,0.206,5.3,0.571,0.538,0.2,97.23,0.179,2015-03-10T00:00:00,4,TOR,Toronto,38-26,17,24,30,36,0,0,0,0,0,0,0,0,0,0,107,0.443,0.722,0.308,19,46,9,0021400949,1610612761,TOR,Toronto,Amir Johnson,F,,32:54,0.0,8.0,4.0,16.0,2.0,10.0,9.0,34.0,1.0,0.0,1.0,2.0
0021400949,1610612761,TOR,Toronto,202685,Jonas Valanciunas,C,,21:28,81.0,121.0,-40.1,0.0,0.0,0.0,0.143,0.158,0.15,22.5,0.667,0.654,0.19,93.6,0.072,2015-03-10T00:00:00,4,TOR,Toronto,38-26,17,24,30,36,0,0,0,0,0,0,0,0,0,0,107,0.443,0.722,0.308,19,46,9,0021400949,1610612761,TOR,Toronto,Jonas Valanciunas,C,,21:28,2.0,3.0,0.0,8.0,7.0,11.0,8.0,28.0,1.0,0.0,4.0,2.0
0021400949,1610612761,TOR,Toronto,201942,DeMar DeRozan,G,,38:34,113.4,120.5,-7.1,0.143,4.0,15.3,0.0,0.086,0.041,3.8,0.444,0.498,0.246,96.28,0.07,2015-03-10T00:00:00,4,TOR,Toronto,38-26,17,24,30,36,0,0,0,0,0,0,0,0,0,0,107,0.443,0.722,0.308,19,46,9,0021400949,1610612761,TOR,Toronto,DeMar DeRozan,G,,38:34,2.0,0.0,0.0,8.0,7.0,17.0,11.0,44.0,0.0,1.0,5.0,5.0
0021400949,1610612761,TOR,Toronto,200768,Kyle Lowry,G,,42:43,109.7,116.1,-6.4,0.172,5.0,17.8,0.021,0.083,0.048,3.6,0.658,0.725,0.221,96.1,0.184,2015-03-10T00:00:00,4,TOR,Toronto,38-26,17,24,30,36,0,0,0,0,0,0,0,0,0,0,107,0.443,0.722,0.308,19,46,9,0021400949,1610612761,TOR,Toronto,Kyle Lowry,G,,42:43,8.0,0.0,12.0,4.0,2.0,10.0,11.0,42.0,0.0,2.0,4.0,5.0
0021400949,1610612761,TOR,Toronto,101150,Lou Williams,,,23:13,118.1,143.9,-25.9,0.063,1.0,8.3,0.0,0.063,0.023,8.3,0.55,0.55,0.189,98.74,0.038,2015-03-10T00:00:00,4,TOR,Toronto,38-26,17,24,30,36,0,0,0,0,0,0,0,0,0,0,107,0.443,0.722,0.308,19,46,9,0021400949,1610612761,TOR,Toronto,Lou Williams,,,23:13,0.0,0.0,2.0,4.0,5.0,9.0,8.0,22.0,0.0,0.0,3.0,0.0
0021400949,1610612761,TOR,Toronto,202335,Patrick Patterson,,,29:28,128.0,131.4,-3.4,0.107,0.0,21.4,0.167,0.227,0.192,0.0,0.182,0.182,0.152,96.73,0.032,2015-03-10T00:00:00,4,TOR,Toronto,38-26,17,24,30,36,0,0,0,0,0,0,0,0,0,0,107,0.443,0.722,0.308,19,46,9,0021400949,1610612761,TOR,Toronto,Patrick Patterson,,,29:28,0.0,4.0,0.0,4.0,5.0,11.0,8.0,30.0,2.0,0.0,3.0,1.0
0021400949,1610612761,TOR,Toronto,202349,Greivis Vasquez,,,14:43,112.2,140.2,-28.0,0.3,3.0,42.9,0.0,0.091,0.038,14.3,0.5,0.5,0.119,95.37,0.016,2015-03-10T00:00:00,4,TOR,Toronto,38-26,17,24,30,36,0,0,0,0,0,0,0,0,0,0,107,0.443,0.722,0.308,19,46,9,0021400949,1610612761,TOR,Toronto,Greivis Vasquez,,,14:43,3.0,0.0,0.0,0.0,5.0,7.0,6.0,14.0,0.0,0.0,3.0,0.0
0021400949,1610612761,TOR,Toronto,201949,James Johnson,,,4:59,81.0,160.9,-80.0,0.0,0.0,0.0,0.143,0.5,0.222,0.0,0.6,0.6,0.421,92.47,0.262,2015-03-10T00:00:00,4,TOR,Toronto,38-26,17,24,30,36,0,0,0,0,0,0,0,0,0,0,107,0.443,0.722,0.308,19,46,9,0021400949,1610612761,TOR,Toronto,James Johnson,,,4:59,0.0,2.0,0.0,4.0,0.0,0.0,0.0,4.0,0.0,0.0,1.0,0.0
0021400949,1610612761,TOR,Toronto,201946,Tyler Hansbrough,,,7:11,150.3,116.1,34.2,0.0,0.0,0.0,0.333,0.143,0.231,0.0,0.0,0.0,0.113,97.83,-0.07,2015-03-10T00:00:00,4,TOR,Toronto,38-26,17,24,30,36,0,0,0,0,0,0,0,0,0,0,107,0.443,0.722,0.308,19,46,9,0021400949,1610612761,TOR,Toronto,Tyler Hansbrough,,,7:11,0.0,0.0,0.0,0.0,0.0,2.0,3.0,4.0,0.0,0.0,2.0,2.0
0021400949,1610612761,TOR,Toronto,202361,Landry Fields,,DNP - Coach's Decision                  ,,,,,,,0.0,,,,,,,0.0,,,2015-03-10T00:00:00,4,TOR,Toronto,38-26,17,24,30,36,0,0,0,0,0,0,0,0,0,0,107,0.443,0.722,0.308,19,46,9,0021400949,1610612761,TOR,Toronto,Landry Fields,,DNP - Coach's Decision                  ,,,,,,,,,,,,,
0021400949,1610612761,TOR,Toronto,101236,Chuck Hayes,,DNP - Coach's Decision                  ,,,,,,,0.0,,,,,,,0.0,,,2015-03-10T00:00:00,4,TOR,Toronto,38-26,17,24,30,36,0,0,0,0,0,0,0,0,0,0,107,0.443,0.722,0.308,19,46,9,0021400949,1610612761,TOR,Toronto,Chuck Hayes,,DNP - Coach's Decision                  ,,,,,,,,,,,,,
0021400949,1610612761,TOR,Toronto,201880,Greg Stiemsma,,DNP - Coach's Decision                  ,,,,,,,0.0,,,,,,,0.0,,,2015-03-10T00:00:00,4,TOR,Toronto,38-26,17,24,30,36,0,0,0,0,0,0,0,0,0,0,107,0.443,0.722,0.308,19,46,9,0021400949,1610612761,TOR,Toronto,Greg Stiemsma,,DNP - Coach's Decision                  ,,,,,,,,,,,,,
0021400949,1610612759,SAS,San Antonio,202695,Kawhi Leonard,F,,38:51,118.0,107.2,10.8,0.043,1.0,4.4,0.111,0.184,0.149,4.4,0.526,0.578,0.244,93.18,0.197,2015-03-10T00:00:00,4,SAS,San Antonio,40-23,28,33,24,32,0,0,0,0,0,0,0,0,0,0,117,0.482,0.8,0.611,24,45,11,0021400949,1610612759,SAS,San Antonio,Kawhi Leonard,F,,38:51,4.0,6.0,4.0,18.0,7.0,13.0,8.0,36.0,1.0,0.0,1.0,5.0
0021400949,1610612759,SAS,San Antonio,1495,Tim Duncan,F,,36:17,105.2,103.9,1.3,0.091,2.0,11.9,0.086,0.256,0.176,6.0,0.417,0.436,0.184,93.05,0.116,2015-03-10T00:00:00,4,SAS,San Antonio,40-23,28,33,24,32,0,0,0,0,0,0,0,0,0,0,117,0.482,0.8,0.611,24,45,11,0021400949,1610612759,SAS,San Antonio,Tim Duncan,F,,36:17,0.0,6.0,2.0,10.0,7.0,15.0,8.0,36.0,1.0,2.0,2.0,3.0
0021400949,1610612759,SAS,San Antonio,201168,Tiago Splitter,C,,27:12,128.7,84.4,44.3,0.038,0.5,9.3,0.091,0.063,0.074,18.6,0.167,0.387,0.149,96.07,0.0,2015-03-10T00:00:00,4,SAS,San Antonio,40-23,28,33,24,32,0,0,0,0,0,0,0,0,0,0,117,0.482,0.8,0.611,24,45,11,0021400949,1610612759,SAS,San Antonio,Tiago Splitter,C,,27:12,0.0,0.0,0.0,2.0,8.0,9.0,6.0,20.0,0.0,1.0,4.0,4.0
0021400949,1610612759,SAS,San Antonio,201980,Danny Green,G,,25:44,143.7,104.8,38.8,0.105,2.0,16.4,0.056,0.172,0.128,8.2,1.071,1.033,0.179,94.79,0.196,2015-03-10T00:00:00,4,SAS,San Antonio,40-23,28,33,24,32,0,0,0,0,0,0,0,0,0,0,117,0.482,0.8,0.611,24,45,11,0021400949,1610612759,SAS,San Antonio,Danny Green,G,,25:44,3.0,3.0,0.0,0.0,7.0,8.0,14.0,22.0,1.0,0.0,1.0,3.0
0021400949,1610612759,SAS,San Antonio,2225,Tony Parker,G,,36:30,113.9,105.1,8.8,0.45,9.0,27.6,0.0,0.054,0.028,3.1,0.475,0.508,0.288,93.04,0.147,2015-03-10T00:00:00,4,SAS,San Antonio,40-23,28,33,24,32,0,0,0,0,0,0,0,0,0,0,117,0.482,0.8,0.611,24,45,11,0021400949,1610612759,SAS,San Antonio,Tony Parker,G,,36:30,0.0,2.0,5.0,10.0,7.0,13.0,8.0,34.0,0.0,1.0,2.0,3.0
0021400949,1610612759,SAS,San Antonio,201158,Marco Belinelli,,,20:42,120.4,123.5,-3.1,0.0,0.0,0.0,0.0,0.045,0.026,20.0,1.25,1.25,0.115,96.0,0.101,2015-03-10T00:00:00,4,SAS,San Antonio,40-23,28,33,24,32,0,0,0,0,0,0,0,0,0,0,117,0.482,0.8,0.611,24,45,11,0021400949,1610612759,SAS,San Antonio,Marco Belinelli,,,20:42,0.0,0.0,0.0,4.0,8.0,9.0,4.0,24.0,0.0,0.0,1.0,0.0
0021400949,1610612759,SAS,San Antonio,202709,Cory Joseph,,,10:43,88.8,118.5,-29.7,0.143,0.0,17.4,0.0,0.182,0.087,0.0,0.0,0.315,0.166,109.68,0.0,2015-03-10T00:00:00,4,SAS,San Antonio,40-23,28,33,24,32,0,0,0,0,0,0,0,0,0,0,117,0.482,0.8,0.611,24,45,11,0021400949,1610612759,SAS,San Antonio,Cory Joseph,,,10:43,0.0,0.0,0.0,0.0,8.0,4.0,10.0,14.0,0.0,0.0,2.0,4.0
0021400949,1610612759,SAS,San Antonio,2564,Boris Diaw,,,16:48,131.9,116.1,15.9,0.25,1.33,44.4,0.154,0.0,0.083,33.3,0.0,0.0,0.142,88.87,-0.012,2015-03-10T00:00:00,4,SAS,San Antonio,40-23,28,33,24,32,0,0,0,0,0,0,0,0,0,0,117,0.482,0.8,0.611,24,45,11,0021400949,1610612759,SAS,San Antonio,Boris Diaw,,,16:48,0.0,0.0,0.0,0.0,6.0,2.0,6.0,20.0,0.0,0.0,1.0,1.0
0021400949,1610612759,SAS,San Antonio,201988,Patty Mills,,,11:13,141.5,111.0,30.5,0.4,4.0,36.4,0.0,0.231,0.15,9.1,0.417,0.417,0.276,98.11,0.121,2015-03-10T00:00:00,4,SAS,San Antonio,40-23,28,33,24,32,0,0,0,0,0,0,0,0,0,0,117,0.482,0.8,0.611,24,45,11,0021400949,1610612759,SAS,San Antonio,Patty Mills,,,11:13,0.0,0.0,3.0,0.0,8.0,4.0,2.0,12.0,0.0,0.0,1.0,1.0
0021400949,1610612759,SAS,San Antonio,203382,Aron Baynes,,,5:47,188.7,184.6,4.1,0.0,0.0,0.0,0.333,0.0,0.111,0.0,1.0,1.017,0.251,106.77,0.148,2015-03-10T00:00:00,4,SAS,San Antonio,40-23,28,33,24,32,0,0,0,0,0,0,0,0,0,0,117,0.482,0.8,0.611,24,45,11,0021400949,1610612759,SAS,San Antonio,Aron Baynes,,,5:47,0.0,0.0,0.0,6.0,0.0,4.0,8.0,8.0,0.0,0.0,1.0,1.0
0021400949,1610612759,SAS,San Antonio,2588,Matt Bonner,,,9:40,97.5,130.1,-32.6,0.0,0.0,0.0,0.0,0.0,0.0,0.0,1.0,1.031,0.18,104.38,0.188,2015-03-10T00:00:00,4,SAS,San Antonio,40-23,28,33,24,32,0,0,0,0,0,0,0,0,0,0,117,0.482,0.8,0.611,24,45,11,0021400949,1610612759,SAS,San Antonio,Matt Bonner,,,9:40,0.0,0.0,0.0,0.0,9.0,4.0,0.0,10.0,0.0,1.0,1.0,1.0
0021400949,1610612759,SAS,San Antonio,201965,Jeff Ayres,,,0:17,170.5,266.7,-96.2,0.0,0.0,0.0,0.0,0.0,0.0,0.0,0.0,0.0,0.0,408.0,0.0,2015-03-10T00:00:00,4,SAS,San Antonio,40-23,28,33,24,32,0,0,0,0,0,0,0,0,0,0,117,0.482,0.8,0.611,24,45,11,0021400949,1610612759,SAS,San Antonio,Jeff Ayres,,,0:17,0.0,0.0,0.0,0.0,0.0,0.0,8.0,2.0,0.0,0.0,0.0,0.0
0021400949,1610612759,SAS,San Antonio,202130,Reggie Williams,,,0:17,170.5,266.7,-96.2,0.0,0.0,0.0,0.0,0.0,0.0,0.0,0.0,0.0,0.0,408.0,0.0,2015-03-10T00:00:00,4,SAS,San Antonio,40-23,28,33,24,32,0,0,0,0,0,0,0,0,0,0,117,0.482,0.8,0.611,24,45,11,0021400949,1610612759,SAS,San Antonio,Reggie Williams,,,0:17,0.0,0.0,0.0,0.0,0.0,0.0,8.0,2.0,0.0,0.0,0.0,0.0
