GAME_ID_x,TEAM_ID_x,TEAM_ABBREVIATION_x,TEAM_CITY_x,PLAYER_ID,PLAYER_NAME_x,START_POSITION_x,COMMENT_x,MIN_x,OFF_RATING,DEF_RATING,NET_RATING,AST_PCT,AST_TOV,AST_RATIO,OREB_PCT,DREB_PCT,REB_PCT,TM_TOV_PCT,EFG_PCT,TS_PCT,USG_PCT,PACE,PIE,GAME_DATE_EST,GAME_SEQUENCE,TEAM_ABBREVIATION_y,TEAM_CITY_NAME,TEAM_WINS_LOSSES,PTS_QTR1,PTS_QTR2,PTS_QTR3,PTS_QTR4,PTS_OT1,PTS_OT2,PTS_OT3,PTS_OT4,PTS_OT5,PTS_OT6,PTS_OT7,PTS_OT8,PTS_OT9,PTS_OT10,PTS,FG_PCT,FT_PCT,FG3_PCT,AST,REB,TOV,GAME_ID_y,TEAM_ID_y,TEAM_ABBREVIATION,TEAM_CITY_y,PLAYER_NAME_y,START_POSITION_y,COMMENT_y,MIN_y,PTS_OFF_TOV,PTS_2ND_CHANCE,PTS_FB,PTS_PAINT,OPP_PTS_OFF_TOV,OPP_PTS_2ND_CHANCE,OPP_PTS_FB,OPP_PTS_PAINT,BLK,BLKA,PF,PFD
0021400947,1610612740,NOP,New Orleans,202347,Quincy Pondexter,F,,29:33,107.0,91.6,15.4,0.2,4.0,28.6,0.04,0.0,0.018,7.1,0.944,0.944,0.159,97.23,0.137,2015-03-10T00:00:00,2,NOP,New Orleans,36-29,23,32,23,33,0,0,0,0,0,0,0,0,0,0,111,0.517,0.818,0.571,31,41,10,0021400947,1610612740,NOP,New Orleans,Quincy Pondexter,F,,29:33,0.0,0.0,0.0,2.0,4.0,2.0,7.0,30.0,1.0,0.0,2.0,0.0
0021400947,1610612740,NOP,New Orleans,203076,Anthony Davis,F,,28:03,108.2,86.1,22.1,0.278,0.0,21.2,0.042,0.179,0.115,0.0,0.313,0.402,0.319,91.38,0.141,2015-03-10T00:00:00,2,NOP,New Orleans,36-29,23,32,23,33,0,0,0,0,0,0,0,0,0,0,111,0.517,0.818,0.571,31,41,10,0021400947,1610612740,NOP,New Orleans,Anthony Davis,F,,28:03,0.0,2.0,4.0,4.0,4.0,2.0,5.0,24.0,3.0,0.0,2.0,3.0
0021400947,1610612740,NOP,New Orleans,201600,Omer Asik,C,,27:17,107.8,93.3,14.4,0.056,0.0,11.1,0.111,0.444,0.278,0.0,0.75,0.75,0.134,89.87,0.259,2015-03-10T00:00:00,2,NOP,New Orleans,36-29,23,32,23,33,0,0,0,0,0,0,0,0,0,0,111,0.517,0.818,0.571,31,41,10,0021400947,1610612740,NOP,New Orleans,Omer Asik,C,,27:17,2.0,8.0,0.0,12.0,2.0,2.0,7.0,26.0,0.0,0.0,0.0,2.0
0021400947,1610612740,NOP,New Orleans,201569,Eric Gordon,G,,30:52,110.9,88.6,22.2,0.35,3.5,29.3,0.036,0.033,0.034,8.4,0.536,0.538,0.254,89.26,0.119,2015-03-10T00:00:00,2,NOP,New Orleans,36-29,23,32,23,33,0,0,0,0,0,0,0,0,0,0,111,0.517,0.818,0.571,31,41,10,0021400947,1610612740,NOP,New Orleans,Eric Gordon,G,,30:52,0.0,5.0,0.0,4.0,4.0,4.0,5.0,26.0,0.0,2.0,1.0,2.0
0021400947,1610612740,NOP,New Orleans,202708,Norris Cole,G,,29:28,95.3,90.8,4.5,0.25,2.0,23.5,0.0,0.167,0.086,11.8,0.727,0.727,0.21,94.51,0.174,2015-03-10T00:00:00,2,NOP,New Orleans,36-29,23,32,23,33,0,0,0,0,0,0,0,0,0,0,111,0.517,0.818,0.571,31,41,10,0021400947,1610612740,NOP,New Orleans,Norris Cole,G,,29:28,2.0,0.0,2.0,2.0,4.0,2.0,5.0,30.0,0.0,2.0,3.0,2.0
0021400947,1610612740,NOP,New Orleans,201967,Dante Cunningham,,,26:21,121.2,100.3,20.9,0.0,0.0,0.0,0.0,0.095,0.056,0.0,1.0,1.0,0.056,96.36,0.065,2015-03-10T00:00:00,2,NOP,New Orleans,36-29,23,32,23,33,0,0,0,0,0,0,0,0,0,0,111,0.517,0.818,0.571,31,41,10,0021400947,1610612740,NOP,New Orleans,Dante Cunningham,,,26:21,2.0,0.0,2.0,4.0,10.0,6.0,4.0,30.0,0.0,0.0,2.0,0.0
0021400947,1610612740,NOP,New Orleans,201582,Alexis Ajinca,,,22:55,126.2,96.4,29.8,0.25,1.33,17.9,0.067,0.182,0.135,13.4,0.5,0.555,0.359,98.11,0.157,2015-03-10T00:00:00,2,NOP,New Orleans,36-29,23,32,23,33,0,0,0,0,0,0,0,0,0,0,111,0.517,0.818,0.571,31,41,10,0021400947,1610612740,NOP,New Orleans,Alexis Ajinca,,,22:55,0.0,0.0,0.0,12.0,10.0,8.0,6.0,28.0,0.0,1.0,4.0,3.0
0021400947,1610612740,NOP,New Orleans,202343,Elliot Williams,,,16:14,129.1,97.7,31.5,0.125,0.0,25.0,0.0,0.063,0.043,0.0,0.333,0.333,0.166,103.37,0.015,2015-03-10T00:00:00,2,NOP,New Orleans,36-29,23,32,23,33,0,0,0,0,0,0,0,0,0,0,111,0.517,0.818,0.571,31,41,10,0021400947,1610612740,NOP,New Orleans,Elliot Williams,,,16:14,2.0,0.0,2.0,4.0,10.0,4.0,4.0,18.0,0.0,0.0,2.0,0.0
0021400947,1610612740,NOP,New Orleans,202690,Jimmer Fredette,,,14:32,151.8,117.3,34.5,0.176,1.5,33.3,0.125,0.182,0.158,22.2,0.5,0.5,0.186,96.04,0.063,2015-03-10T00:00:00,2,NOP,New Orleans,36-29,23,32,23,33,0,0,0,0,0,0,0,0,0,0,111,0.517,0.818,0.571,31,41,10,0021400947,1610612740,NOP,New Orleans,Jimmer Fredette,,,14:32,0.0,0.0,0.0,2.0,6.0,6.0,6.0,18.0,0.0,0.0,2.0,0.0
0021400947,1610612740,NOP,New Orleans,202337,Luke Babbitt,,,13:06,155.5,121.2,34.3,0.063,0.0,50.0,0.0,0.111,0.059,0.0,1.0,1.0,0.035,93.14,0.056,2015-03-10T00:00:00,2,NOP,New Orleans,36-29,23,32,23,33,0,0,0,0,0,0,0,0,0,0,111,0.517,0.818,0.571,31,41,10,0021400947,1610612740,NOP,New Orleans,Luke Babbitt,,,13:06,0.0,0.0,0.0,2.0,4.0,4.0,6.0,18.0,0.0,0.0,1.0,0.0
0021400947,1610612740,NOP,New Orleans,203481,Jeff Withey,,,1:39,200.0,180.4,19.6,0.0,0.0,0.0,0.0,0.0,0.0,0.0,1.0,1.0,0.333,100.07,0.143,2015-03-10T00:00:00,2,NOP,New Orleans,36-29,23,32,23,33,0,0,0,0,0,0,0,0,0,0,111,0.517,0.818,0.571,31,41,10,0021400947,1610612740,NOP,New Orleans,Jeff Withey,,,1:39,0.0,0.0,0.0,2.0,2.0,0.0,0.0,2.0,0.0,0.0,0.0,0.0
0021400947,1610612740,NOP,New Orleans,201583,Ryan Anderson,,NWT - Right MCL Sprain                  ,,,,,,,0.0,,,,,,,0.0,,,2015-03-10T00:00:00,2,NOP,New Orleans,36-29,23,32,23,33,0,0,0,0,0,0,0,0,0,0,111,0.517,0.818,0.571,31,41,10,0021400947,1610612740,NOP,New Orleans,Ryan Anderson,,NWT - Right MCL Sprain                  ,,,,,,,,,,,,,
0021400947,1610612740,NOP,New Orleans,201936,Tyreke Evans,,DNP - Coach's Decision                  ,,,,,,,0.0,,,,,,,0.0,,,2015-03-10T00:00:00,2,NOP,New Orleans,36-29,23,32,23,33,0,0,0,0,0,0,0,0,0,0,111,0.517,0.818,0.571,31,41,10,0021400947,1610612740,NOP,New Orleans,Tyreke Evans,,DNP - Coach's Decision                  ,,,,,,,,,,,,,
0021400947,1610612751,BKN,Brooklyn,2207,Joe Johnson,F,,27:45,91.8,115.6,-23.8,0.188,1.0,17.6,0.0,0.217,0.109,17.6,0.455,0.455,0.24,93.34,0.081,2015-03-10T00:00:00,2,BKN,Brooklyn,25-37,27,19,15,30,0,0,0,0,0,0,0,0,0,0,91,0.417,0.652,0.375,19,41,12,0021400947,1610612751,BKN,Brooklyn,Joe Johnson,F,,27:45,0.0,0.0,0.0,4.0,6.0,9.0,8.0,20.0,0.0,1.0,0.0,0.0
0021400947,1610612751,BKN,Brooklyn,201152,Thaddeus Young,F,,27:04,95.3,114.8,-19.5,0.125,2.0,11.2,0.042,0.208,0.125,5.6,0.321,0.336,0.272,90.37,0.034,2015-03-10T00:00:00,2,BKN,Brooklyn,25-37,27,19,15,30,0,0,0,0,0,0,0,0,0,0,91,0.417,0.652,0.375,19,41,12,0021400947,1610612751,BKN,Brooklyn,Thaddeus Young,F,,27:04,0.0,0.0,3.0,6.0,6.0,13.0,8.0,26.0,0.0,1.0,2.0,1.0
0021400947,1610612751,BKN,Brooklyn,201572,Brook Lopez,C,,24:53,85.9,118.9,-33.0,0.0,0.0,0.0,0.222,0.13,0.18,6.0,0.5,0.476,0.314,91.67,0.111,2015-03-10T00:00:00,2,BKN,Brooklyn,25-37,27,19,15,30,0,0,0,0,0,0,0,0,0,0,91,0.417,0.652,0.375,19,41,12,0021400947,1610612751,BKN,Brooklyn,Brook Lopez,C,,24:53,2.0,2.0,0.0,12.0,6.0,12.0,8.0,28.0,3.0,0.0,2.0,2.0
0021400947,1610612751,BKN,Brooklyn,203900,Markel Brown,G,,24:56,91.2,101.4,-10.1,0.0,0.0,0.0,0.0,0.2,0.102,0.0,1.0,0.902,0.076,92.75,0.138,2015-03-10T00:00:00,2,BKN,Brooklyn,25-37,27,19,15,30,0,0,0,0,0,0,0,0,0,0,91,0.417,0.652,0.375,19,41,12,0021400947,1610612751,BKN,Brooklyn,Markel Brown,G,,24:56,0.0,2.0,2.0,4.0,4.0,12.0,4.0,24.0,0.0,0.0,1.0,3.0
0021400947,1610612751,BKN,Brooklyn,101114,Deron Williams,G,,25:52,85.3,96.6,-11.3,0.286,0.0,25.4,0.0,0.04,0.019,0.0,0.3,0.425,0.205,94.79,0.112,2015-03-10T00:00:00,2,BKN,Brooklyn,25-37,27,19,15,30,0,0,0,0,0,0,0,0,0,0,91,0.417,0.652,0.375,19,41,12,0021400947,1610612751,BKN,Brooklyn,Deron Williams,G,,25:52,2.0,2.0,2.0,4.0,4.0,9.0,6.0,16.0,1.0,0.0,1.0,4.0
0021400947,1610612751,BKN,Brooklyn,202711,Bojan Bogdanovic,,,17:13,105.0,132.8,-27.8,0.091,1.0,11.1,0.0,0.0,0.0,11.1,0.857,0.857,0.19,98.75,0.097,2015-03-10T00:00:00,2,BKN,Brooklyn,25-37,27,19,15,30,0,0,0,0,0,0,0,0,0,0,91,0.417,0.652,0.375,19,41,12,0021400947,1610612751,BKN,Brooklyn,Bojan Bogdanovic,,,17:13,2.0,0.0,2.0,6.0,2.0,0.0,4.0,18.0,0.0,0.0,2.0,0.0
0021400947,1610612751,BKN,Brooklyn,101127,Jarrett Jack,,,28:14,102.4,125.5,-23.1,0.176,3.0,19.7,0.0,0.056,0.023,6.6,0.611,0.67,0.192,95.68,0.11,2015-03-10T00:00:00,2,BKN,Brooklyn,25-37,27,19,15,30,0,0,0,0,0,0,0,0,0,0,91,0.417,0.652,0.375,19,41,12,0021400947,1610612751,BKN,Brooklyn,Jarrett Jack,,,28:14,2.0,0.0,0.0,8.0,4.0,9.0,4.0,36.0,0.0,1.0,0.0,4.0
0021400947,1610612751,BKN,Brooklyn,101187,Alan Anderson,,,10:21,92.8,138.9,-46.1,0.167,1.0,17.4,0.0,0.0,0.0,17.4,0.0,0.399,0.203,90.06,0.0,2015-03-10T00:00:00,2,BKN,Brooklyn,25-37,27,19,15,30,0,0,0,0,0,0,0,0,0,0,91,0.417,0.652,0.375,19,41,12,0021400947,1610612751,BKN,Brooklyn,Alan Anderson,,,10:21,0.0,0.0,0.0,0.0,2.0,6.0,2.0,22.0,0.0,1.0,0.0,2.0
0021400947,1610612751,BKN,Brooklyn,203928,Cory Jefferson,,,20:56,98.3,119.6,-21.3,0.091,0.5,9.1,0.095,0.385,0.206,18.2,0.5,0.5,0.21,99.79,0.112,2015-03-10T00:00:00,2,BKN,Brooklyn,25-37,27,19,15,30,0,0,0,0,0,0,0,0,0,0,91,0.417,0.652,0.375,19,41,12,0021400947,1610612751,BKN,Brooklyn,Cory Jefferson,,,20:56,4.0,2.0,2.0,6.0,2.0,2.0,2.0,24.0,1.0,0.0,0.0,0.0
0021400947,1610612751,BKN,Brooklyn,203486,Mason Plumlee,,,17:01,117.7,132.1,-14.4,0.133,2.0,25.4,0.091,0.125,0.105,12.7,0.0,0.102,0.155,96.13,-0.057,2015-03-10T00:00:00,2,BKN,Brooklyn,25-37,27,19,15,30,0,0,0,0,0,0,0,0,0,0,91,0.417,0.652,0.375,19,41,12,0021400947,1610612751,BKN,Brooklyn,Mason Plumlee,,,17:01,0.0,0.0,0.0,0.0,2.0,0.0,2.0,20.0,0.0,0.0,3.0,3.0
0021400947,1610612751,BKN,Brooklyn,202366,Jerome Jordan,,,6:06,79.3,67.3,11.9,0.0,0.0,0.0,0.143,0.333,0.231,0.0,0.0,0.0,0.0,101.35,0.103,2015-03-10T00:00:00,2,BKN,Brooklyn,25-37,27,19,15,30,0,0,0,0,0,0,0,0,0,0,91,0.417,0.652,0.375,19,41,12,0021400947,1610612751,BKN,Brooklyn,Jerome Jordan,,,6:06,0.0,0.0,0.0,0.0,0.0,3.0,0.0,2.0,0.0,0.0,1.0,0.0
0021400947,1610612751,BKN,Brooklyn,203508,Sergey Karasev,,,5:50,112.5,151.5,-39.0,0.167,1.0,33.3,0.25,0.5,0.333,33.3,0.0,0.0,0.13,100.06,0.017,2015-03-10T00:00:00,2,BKN,Brooklyn,25-37,27,19,15,30,0,0,0,0,0,0,0,0,0,0,91,0.417,0.652,0.375,19,41,12,0021400947,1610612751,BKN,Brooklyn,Sergey Karasev,,,5:50,0.0,0.0,0.0,0.0,2.0,0.0,2.0,8.0,0.0,0.0,0.0,0.0
0021400947,1610612751,BKN,Brooklyn,202721,Darius Morris,,,3:49,145.3,128.6,16.8,0.333,0.0,50.0,0.0,0.0,0.0,0.0,0.0,0.0,0.145,87.28,0.0,2015-03-10T00:00:00,2,BKN,Brooklyn,25-37,27,19,15,30,0,0,0,0,0,0,0,0,0,0,91,0.417,0.652,0.375,19,41,12,0021400947,1610612751,BKN,Brooklyn,Darius Morris,,,3:49,0.0,0.0,0.0,0.0,0.0,0.0,0.0,6.0,0.0,0.0,0.0,0.0
