GAME_ID_x,TEAM_ID_x,TEAM_ABBREVIATION_x,TEAM_CITY_x,PLAYER_ID,PLAYER_NAME_x,START_POSITION_x,COMMENT_x,MIN_x,OFF_RATING,DEF_RATING,NET_RATING,AST_PCT,AST_TOV,AST_RATIO,OREB_PCT,DREB_PCT,REB_PCT,TM_TOV_PCT,EFG_PCT,TS_PCT,USG_PCT,PACE,PIE,GAME_DATE_EST,GAME_SEQUENCE,TEAM_ABBREVIATION_y,TEAM_CITY_NAME,TEAM_WINS_LOSSES,PTS_QTR1,PTS_QTR2,PTS_QTR3,PTS_QTR4,PTS_OT1,PTS_OT2,PTS_OT3,PTS_OT4,PTS_OT5,PTS_OT6,PTS_OT7,PTS_OT8,PTS_OT9,PTS_OT10,PTS,FG_PCT,FT_PCT,FG3_PCT,AST,REB,TOV,GAME_ID_y,TEAM_ID_y,TEAM_ABBREVIATION,TEAM_CITY_y,PLAYER_NAME_y,START_POSITION_y,COMMENT_y,MIN_y,PTS_OFF_TOV,PTS_2ND_CHANCE,PTS_FB,PTS_PAINT,OPP_PTS_OFF_TOV,OPP_PTS_2ND_CHANCE,OPP_PTS_FB,OPP_PTS_PAINT,BLK,BLKA,PF,PFD
0021400960,1610612765,DET,Detroit,2406,Caron Butler,F,,20:23,98.5,105.5,-7.0,0.056,0.0,20.5,0.0,0.059,0.029,0.0,0.333,0.515,0.083,98.2,0.053,2015-03-11T00:00:00,9,DET,Detroit,23-41,25,26,25,22,0,0,0,0,0,0,0,0,0,0,98,0.429,0.833,0.333,18,49,13,0021400960,1610612765,DET,Detroit,Caron Butler,F,,20:23,0.0,0.0,0.0,0.0,8.0,8.0,4.0,30.0,0.0,0.0,0.0,1.0
0021400960,1610612765,DET,Detroit,202328,Greg Monroe,F,,31:44,97.9,96.7,1.2,0.05,0.33,4.1,0.0,0.296,0.145,12.2,0.389,0.484,0.322,97.17,0.132,2015-03-11T00:00:00,9,DET,Detroit,23-41,25,26,25,22,0,0,0,0,0,0,0,0,0,0,98,0.429,0.833,0.333,18,49,13,0021400960,1610612765,DET,Detroit,Greg Monroe,F,,31:44,2.0,0.0,0.0,14.0,16.0,8.0,8.0,44.0,2.0,0.0,3.0,3.0
0021400960,1610612765,DET,Detroit,203083,Andre Drummond,C,,33:32,103.4,114.8,-11.3,0.0,0.0,0.0,0.375,0.357,0.368,11.2,0.478,0.461,0.31,98.4,0.161,2015-03-11T00:00:00,9,DET,Detroit,23-41,25,26,25,22,0,0,0,0,0,0,0,0,0,0,98,0.429,0.833,0.333,18,49,13,0021400960,1610612765,DET,Detroit,Andre Drummond,C,,33:32,4.0,16.0,2.0,20.0,14.0,8.0,14.0,38.0,2.0,1.0,3.0,1.0
0021400960,1610612765,DET,Detroit,203484,Kentavious Caldwell-Pope,G,,35:37,96.7,109.9,-13.3,0.111,0.0,16.7,0.028,0.038,0.032,0.0,0.433,0.433,0.169,98.7,0.07,2015-03-11T00:00:00,9,DET,Detroit,23-41,25,26,25,22,0,0,0,0,0,0,0,0,0,0,98,0.429,0.833,0.333,18,49,13,0021400960,1610612765,DET,Detroit,Kentavious Caldwell-Pope,G,,35:37,4.0,0.0,2.0,4.0,18.0,8.0,10.0,48.0,0.0,0.0,1.0,0.0
0021400960,1610612765,DET,Detroit,202704,Reggie Jackson,G,,30:57,100.6,106.5,-6.0,0.391,2.25,32.1,0.031,0.042,0.036,14.3,0.467,0.467,0.245,98.17,0.074,2015-03-11T00:00:00,9,DET,Detroit,23-41,25,26,25,22,0,0,0,0,0,0,0,0,0,0,98,0.429,0.833,0.333,18,49,13,0021400960,1610612765,DET,Detroit,Reggie Jackson,G,,30:57,0.0,2.0,0.0,12.0,16.0,6.0,10.0,36.0,0.0,1.0,4.0,1.0
0021400960,1610612765,DET,Detroit,2419,Tayshaun Prince,,,24:12,86.4,116.8,-30.4,0.067,0.0,11.3,0.065,0.091,0.075,0.0,0.429,0.508,0.13,98.58,0.082,2015-03-11T00:00:00,9,DET,Detroit,23-41,25,26,25,22,0,0,0,0,0,0,0,0,0,0,98,0.429,0.833,0.333,18,49,13,0021400960,1610612765,DET,Detroit,Tayshaun Prince,,,24:12,4.0,4.0,2.0,2.0,6.0,6.0,6.0,24.0,0.0,0.0,0.0,1.0
0021400960,1610612765,DET,Detroit,201858,Cartier Martin,,,15:39,104.2,107.1,-2.9,0.167,0.0,50.0,0.0,0.125,0.053,0.0,0.0,0.0,0.05,94.34,0.016,2015-03-11T00:00:00,9,DET,Detroit,23-41,25,26,25,22,0,0,0,0,0,0,0,0,0,0,98,0.429,0.833,0.333,18,49,13,0021400960,1610612765,DET,Detroit,Cartier Martin,,,15:39,0.0,0.0,0.0,0.0,2.0,4.0,4.0,10.0,0.0,1.0,1.0,1.0
0021400960,1610612765,DET,Detroit,201975,Jodie Meeks,,,24:21,98.7,110.1,-11.4,0.0,0.0,0.0,0.0,0.143,0.062,0.0,0.875,0.875,0.065,99.15,0.08,2015-03-11T00:00:00,9,DET,Detroit,23-41,25,26,25,22,0,0,0,0,0,0,0,0,0,0,98,0.429,0.833,0.333,18,49,13,0021400960,1610612765,DET,Detroit,Jodie Meeks,,,24:21,2.0,0.0,2.0,2.0,12.0,4.0,10.0,28.0,1.0,1.0,2.0,2.0
0021400960,1610612765,DET,Detroit,203915,Spencer Dinwiddie,,,17:03,95.3,112.2,-16.9,0.111,0.33,7.7,0.0,0.125,0.057,23.1,0.444,0.444,0.295,97.69,0.0,2015-03-11T00:00:00,9,DET,Detroit,23-41,25,26,25,22,0,0,0,0,0,0,0,0,0,0,98,0.429,0.833,0.333,18,49,13,0021400960,1610612765,DET,Detroit,Spencer Dinwiddie,,,17:03,0.0,3.0,0.0,0.0,4.0,6.0,4.0,22.0,0.0,1.0,2.0,0.0
0021400960,1610612765,DET,Detroit,201229,Anthony Tolliver,,,6:32,122.0,101.0,20.9,0.0,0.0,0.0,0.0,0.0,0.0,0.0,0.5,0.5,0.127,97.86,0.087,2015-03-11T00:00:00,9,DET,Detroit,23-41,25,26,25,22,0,0,0,0,0,0,0,0,0,0,98,0.429,0.833,0.333,18,49,13,0021400960,1610612765,DET,Detroit,Anthony Tolliver,,,6:32,0.0,0.0,0.0,2.0,4.0,2.0,0.0,10.0,0.0,1.0,0.0,1.0
0021400960,1610612765,DET,Detroit,201202,Joel Anthony,,DNP - Coach's Decision                  ,,,,,,,0.0,,,,,,,0.0,,,2015-03-11T00:00:00,9,DET,Detroit,23-41,25,26,25,22,0,0,0,0,0,0,0,0,0,0,98,0.429,0.833,0.333,18,49,13,0021400960,1610612765,DET,Detroit,Joel Anthony,,DNP - Coach's Decision                  ,,,,,,,,,,,,,
0021400960,1610612765,DET,Detroit,101249,John Lucas III,,DNP - Coach's Decision                  ,,,,,,,0.0,,,,,,,0.0,,,2015-03-11T00:00:00,9,DET,Detroit,23-41,25,26,25,22,0,0,0,0,0,0,0,0,0,0,98,0.429,0.833,0.333,18,49,13,0021400960,1610612765,DET,Detroit,John Lucas III,,DNP - Coach's Decision                  ,,,,,,,,,,,,,
0021400960,1610612765,DET,Detroit,200761,Shawne Williams,,DNP - Coach's Decision                  ,,,,,,,0.0,,,,,,,0.0,,,2015-03-11T00:00:00,9,DET,Detroit,23-41,25,26,25,22,0,0,0,0,0,0,0,0,0,0,98,0.429,0.833,0.333,18,49,13,0021400960,1610612765,DET,Detroit,Shawne Williams,,DNP - Coach's Decision                  ,,,,,,,,,,,,,
0021400960,1610612744,GSW,Golden State,203084,Harrison Barnes,F,,22:43,104.8,93.9,10.9,0.05,0.5,16.7,0.048,0.167,0.111,33.3,0.833,0.833,0.097,98.92,0.084,2015-03-11T00:00:00,9,GSW,Golden State,51-12,30,26,23,26,0,0,0,0,0,0,0,0,0,0,105,0.524,0.769,0.35,29,42,17,0021400960,1610612744,GSW,Golden State,Harrison Barnes,F,,22:43,2.0,2.0,3.0,2.0,8.0,6.0,4.0,32.0,0.0,0.0,0.0,0.0
0021400960,1610612744,GSW,Golden State,203110,Draymond Green,F,,31:28,107.9,105.4,2.5,0.12,1.0,14.9,0.037,0.176,0.115,14.9,0.364,0.462,0.241,99.43,0.059,2015-03-11T00:00:00,9,GSW,Golden State,51-12,30,26,23,26,0,0,0,0,0,0,0,0,0,0,105,0.524,0.769,0.35,29,42,17,0021400960,1610612744,GSW,Golden State,Draymond Green,F,,31:28,0.0,0.0,3.0,6.0,10.0,16.0,4.0,42.0,0.0,1.0,3.0,5.0
0021400960,1610612744,GSW,Golden State,101106,Andrew Bogut,C,,30:21,110.0,104.0,6.0,0.136,3.0,25.0,0.087,0.125,0.109,8.3,0.75,0.75,0.134,95.39,0.147,2015-03-11T00:00:00,9,GSW,Golden State,51-12,30,26,23,26,0,0,0,0,0,0,0,0,0,0,105,0.524,0.769,0.35,29,42,17,0021400960,1610612744,GSW,Golden State,Andrew Bogut,C,,30:21,0.0,6.0,0.0,12.0,14.0,14.0,4.0,42.0,2.0,2.0,1.0,0.0
0021400960,1610612744,GSW,Golden State,202691,Klay Thompson,G,,34:52,107.0,89.5,17.5,0.143,1.5,12.1,0.0,0.057,0.031,8.0,0.658,0.679,0.28,97.47,0.181,2015-03-11T00:00:00,9,GSW,Golden State,51-12,30,26,23,26,0,0,0,0,0,0,0,0,0,0,105,0.524,0.769,0.35,29,42,17,0021400960,1610612744,GSW,Golden State,Klay Thompson,G,,34:52,10.0,0.0,0.0,12.0,10.0,12.0,2.0,38.0,1.0,0.0,1.0,2.0
0021400960,1610612744,GSW,Golden State,201939,Stephen Curry,G,,33:57,114.4,102.1,12.2,0.367,3.67,37.9,0.034,0.105,0.075,10.3,0.3,0.3,0.228,97.98,0.074,2015-03-11T00:00:00,9,GSW,Golden State,51-12,30,26,23,26,0,0,0,0,0,0,0,0,0,0,105,0.524,0.769,0.35,29,42,17,0021400960,1610612744,GSW,Golden State,Stephen Curry,G,,33:57,0.0,0.0,0.0,2.0,10.0,19.0,4.0,40.0,0.0,1.0,1.0,1.0
0021400960,1610612744,GSW,Golden State,2738,Andre Iguodala,,,28:05,108.8,97.2,11.7,0.105,1.0,17.5,0.13,0.118,0.123,17.5,0.929,0.874,0.155,97.94,0.171,2015-03-11T00:00:00,9,GSW,Golden State,51-12,30,26,23,26,0,0,0,0,0,0,0,0,0,0,105,0.524,0.769,0.35,29,42,17,0021400960,1610612744,GSW,Golden State,Andre Iguodala,,,28:05,4.0,4.0,2.0,8.0,10.0,23.0,6.0,28.0,1.0,1.0,1.0,1.0
0021400960,1610612744,GSW,Golden State,201578,Marreese Speights,,,17:39,106.3,90.0,16.2,0.0,0.0,0.0,0.0,0.263,0.139,18.2,0.667,0.667,0.277,102.49,0.148,2015-03-11T00:00:00,9,GSW,Golden State,51-12,30,26,23,26,0,0,0,0,0,0,0,0,0,0,105,0.524,0.769,0.35,29,42,17,0021400960,1610612744,GSW,Golden State,Marreese Speights,,,17:39,0.0,0.0,2.0,8.0,2.0,11.0,4.0,14.0,2.0,0.0,3.0,3.0
0021400960,1610612744,GSW,Golden State,2571,Leandro Barbosa,,,19:12,106.4,103.4,3.0,0.077,1.0,12.0,0.0,0.05,0.027,12.0,0.7,0.791,0.176,97.7,0.141,2015-03-11T00:00:00,9,GSW,Golden State,51-12,30,26,23,26,0,0,0,0,0,0,0,0,0,0,105,0.524,0.769,0.35,29,42,17,0021400960,1610612744,GSW,Golden State,Leandro Barbosa,,,19:12,4.0,0.0,2.0,4.0,6.0,13.0,6.0,20.0,0.0,0.0,0.0,3.0
0021400960,1610612744,GSW,Golden State,2733,Shaun Livingston,,,21:43,108.4,101.1,7.3,0.313,5.0,38.5,0.143,0.105,0.121,7.7,0.286,0.286,0.18,96.19,0.067,2015-03-11T00:00:00,9,GSW,Golden State,51-12,30,26,23,26,0,0,0,0,0,0,0,0,0,0,105,0.524,0.769,0.35,29,42,17,0021400960,1610612744,GSW,Golden State,Shaun Livingston,,,21:43,0.0,0.0,2.0,4.0,10.0,11.0,6.0,24.0,0.0,0.0,1.0,1.0
0021400960,1610612744,GSW,Golden State,203105,Festus Ezeli,,DNP - Coach's Decision                  ,,,,,,,0.0,,,,,,,0.0,,,2015-03-11T00:00:00,9,GSW,Golden State,51-12,30,26,23,26,0,0,0,0,0,0,0,0,0,0,105,0.524,0.769,0.35,29,42,17,0021400960,1610612744,GSW,Golden State,Festus Ezeli,,DNP - Coach's Decision                  ,,,,,,,,,,,,,
0021400960,1610612744,GSW,Golden State,203200,Justin Holiday,,DNP - Coach's Decision                  ,,,,,,,0.0,,,,,,,0.0,,,2015-03-11T00:00:00,9,GSW,Golden State,51-12,30,26,23,26,0,0,0,0,0,0,0,0,0,0,105,0.524,0.769,0.35,29,42,17,0021400960,1610612744,GSW,Golden State,Justin Holiday,,DNP - Coach's Decision                  ,,,,,,,,,,,,,
0021400960,1610612744,GSW,Golden State,101135,David Lee,,DNP - Coach's Decision                  ,,,,,,,0.0,,,,,,,0.0,,,2015-03-11T00:00:00,9,GSW,Golden State,51-12,30,26,23,26,0,0,0,0,0,0,0,0,0,0,105,0.524,0.769,0.35,29,42,17,0021400960,1610612744,GSW,Golden State,David Lee,,DNP - Coach's Decision                  ,,,,,,,,,,,,,
0021400960,1610612744,GSW,Golden State,201575,Brandon Rush,,DNP - Coach's Decision                  ,,,,,,,0.0,,,,,,,0.0,,,2015-03-11T00:00:00,9,GSW,Golden State,51-12,30,26,23,26,0,0,0,0,0,0,0,0,0,0,105,0.524,0.769,0.35,29,42,17,0021400960,1610612744,GSW,Golden State,Brandon Rush,,DNP - Coach's Decision                  ,,,,,,,,,,,,,
