GAME_ID_x,TEAM_ID_x,TEAM_ABBREVIATION_x,TEAM_CITY_x,PLAYER_ID,PLAYER_NAME_x,START_POSITION_x,COMMENT_x,MIN_x,OFF_RATING,DEF_RATING,NET_RATING,AST_PCT,AST_TOV,AST_RATIO,OREB_PCT,DREB_PCT,REB_PCT,TM_TOV_PCT,EFG_PCT,TS_PCT,USG_PCT,PACE,PIE,GAME_DATE_EST,GAME_SEQUENCE,TEAM_ABBREVIATION_y,TEAM_CITY_NAME,TEAM_WINS_LOSSES,PTS_QTR1,PTS_QTR2,PTS_QTR3,PTS_QTR4,PTS_OT1,PTS_OT2,PTS_OT3,PTS_OT4,PTS_OT5,PTS_OT6,PTS_OT7,PTS_OT8,PTS_OT9,PTS_OT10,PTS,FG_PCT,FT_PCT,FG3_PCT,AST,REB,TOV,GAME_ID_y,TEAM_ID_y,TEAM_ABBREVIATION,TEAM_CITY_y,PLAYER_NAME_y,START_POSITION_y,COMMENT_y,MIN_y,PTS_OFF_TOV,PTS_2ND_CHANCE,PTS_FB,PTS_PAINT,OPP_PTS_OFF_TOV,OPP_PTS_2ND_CHANCE,OPP_PTS_FB,OPP_PTS_PAINT,BLK,BLKA,PF,PFD
0021400962,1610612749,MIL,Milwaukee,203507,Giannis Antetokounmpo,F,,34:48,89.2,83.5,5.7,0.15,3.0,14.5,0.0,0.2,0.088,4.8,0.286,0.361,0.222,94.92,0.041,2015-03-12T00:00:00,1,MIL,Milwaukee,34-31,31,22,21,22,7,0,0,0,0,0,0,0,0,0,103,0.385,0.806,0.286,17,48,15,0021400962,1610612749,MIL,Milwaukee,Giannis Antetokounmpo,F,,34:48,2.0,2.0,5.0,8.0,4.0,3.0,8.0,20.0,1.0,0.0,5.0,6.0
0021400962,1610612749,MIL,Milwaukee,101141,Ersan Ilyasova,F,,35:17,90.2,78.6,11.6,0.118,0.0,11.9,0.051,0.276,0.147,0.0,0.654,0.644,0.176,94.0,0.247,2015-03-12T00:00:00,1,MIL,Milwaukee,34-31,31,22,21,22,7,0,0,0,0,0,0,0,0,0,103,0.385,0.806,0.286,17,48,15,0021400962,1610612749,MIL,Milwaukee,Ersan Ilyasova,F,,35:17,5.0,2.0,2.0,8.0,5.0,3.0,10.0,20.0,0.0,2.0,4.0,8.0
0021400962,1610612749,MIL,Milwaukee,2585,Zaza Pachulia,C,,33:51,88.7,88.4,0.3,0.176,1.5,16.1,0.195,0.154,0.179,10.7,0.455,0.587,0.193,96.08,0.169,2015-03-12T00:00:00,1,MIL,Milwaukee,34-31,31,22,21,22,7,0,0,0,0,0,0,0,0,0,103,0.385,0.806,0.286,17,48,15,0021400962,1610612749,MIL,Milwaukee,Zaza Pachulia,C,,33:51,4.0,4.0,2.0,10.0,7.0,0.0,12.0,16.0,0.0,1.0,5.0,5.0
0021400962,1610612749,MIL,Milwaukee,203114,Khris Middleton,G,,45:20,94.8,103.4,-8.7,0.043,0.33,3.8,0.021,0.086,0.048,11.4,0.357,0.403,0.239,98.4,0.026,2015-03-12T00:00:00,1,MIL,Milwaukee,34-31,31,22,21,22,7,0,0,0,0,0,0,0,0,0,103,0.385,0.806,0.286,17,48,15,0021400962,1610612749,MIL,Milwaukee,Khris Middleton,G,,45:20,0.0,2.0,0.0,4.0,11.0,7.0,16.0,28.0,0.0,2.0,2.0,3.0
0021400962,1610612749,MIL,Milwaukee,203487,Michael Carter-Williams,G,,39:60,90.6,97.2,-6.6,0.267,1.33,11.9,0.0,0.229,0.104,8.9,0.4,0.526,0.322,99.74,0.216,2015-03-12T00:00:00,1,MIL,Milwaukee,34-31,31,22,21,22,7,0,0,0,0,0,0,0,0,0,103,0.385,0.806,0.286,17,48,15,0021400962,1610612749,MIL,Milwaukee,Michael Carter-Williams,G,,39:60,5.0,0.0,3.0,8.0,7.0,5.0,15.0,24.0,0.0,1.0,1.0,9.0
0021400962,1610612749,MIL,Milwaukee,203187,Chris Johnson,,,24:12,97.4,121.9,-24.5,0.0,0.0,0.0,0.0,0.056,0.026,0.0,0.0,0.258,0.07,98.94,-0.011,2015-03-12T00:00:00,1,MIL,Milwaukee,34-31,31,22,21,22,7,0,0,0,0,0,0,0,0,0,103,0.385,0.806,0.286,17,48,15,0021400962,1610612749,MIL,Milwaukee,Chris Johnson,,,24:12,2.0,0.0,2.0,0.0,7.0,8.0,11.0,24.0,0.0,1.0,3.0,1.0
0021400962,1610612749,MIL,Milwaukee,203101,Miles Plumlee,,,7:10,128.9,127.1,1.7,0.0,0.0,0.0,0.0,0.0,0.0,0.0,1.0,1.0,0.064,107.3,0.083,2015-03-12T00:00:00,1,MIL,Milwaukee,34-31,31,22,21,22,7,0,0,0,0,0,0,0,0,0,103,0.385,0.806,0.286,17,48,15,0021400962,1610612749,MIL,Milwaukee,Miles Plumlee,,,7:10,0.0,0.0,0.0,2.0,4.0,2.0,4.0,6.0,1.0,0.0,0.0,0.0
0021400962,1610612749,MIL,Milwaukee,201162,Jared Dudley,,,17:54,97.9,146.9,-49.0,0.0,0.0,0.0,0.0,0.077,0.036,66.7,0.0,0.0,0.077,105.88,-0.038,2015-03-12T00:00:00,1,MIL,Milwaukee,34-31,31,22,21,22,7,0,0,0,0,0,0,0,0,0,103,0.385,0.806,0.286,17,48,15,0021400962,1610612749,MIL,Milwaukee,Jared Dudley,,,17:54,0.0,0.0,0.0,0.0,6.0,6.0,9.0,18.0,0.0,0.0,2.0,0.0
0021400962,1610612749,MIL,Milwaukee,203898,Tyler Ennis,,,14:41,104.9,137.3,-32.4,0.444,2.0,30.8,0.077,0.25,0.143,15.4,0.429,0.429,0.276,91.62,0.093,2015-03-12T00:00:00,1,MIL,Milwaukee,34-31,31,22,21,22,7,0,0,0,0,0,0,0,0,0,103,0.385,0.806,0.286,17,48,15,0021400962,1610612749,MIL,Milwaukee,Tyler Ennis,,,14:41,2.0,0.0,0.0,2.0,4.0,4.0,7.0,12.0,1.0,0.0,2.0,1.0
0021400962,1610612749,MIL,Milwaukee,203089,John Henson,,,11:48,89.7,126.1,-36.4,0.0,0.0,0.0,0.0,0.273,0.15,100.0,0.0,0.0,0.082,92.75,-0.06,2015-03-12T00:00:00,1,MIL,Milwaukee,34-31,31,22,21,22,7,0,0,0,0,0,0,0,0,0,103,0.385,0.806,0.286,17,48,15,0021400962,1610612749,MIL,Milwaukee,John Henson,,,11:48,0.0,0.0,0.0,0.0,0.0,7.0,3.0,12.0,0.0,0.0,3.0,0.0
0021400962,1610612749,MIL,Milwaukee,201573,Jerryd Bayless,,DND - Sore Right Ankle                  ,,,,,,,0.0,,,,,,,0.0,,,2015-03-12T00:00:00,1,MIL,Milwaukee,34-31,31,22,21,22,7,0,0,0,0,0,0,0,0,0,103,0.385,0.806,0.286,17,48,15,0021400962,1610612749,MIL,Milwaukee,Jerryd Bayless,,DND - Sore Right Ankle                  ,,,,,,,,,,,,,
0021400962,1610612749,MIL,Milwaukee,201564,O.J. Mayo,,DND - Rest                              ,,,,,,,0.0,,,,,,,0.0,,,2015-03-12T00:00:00,1,MIL,Milwaukee,34-31,31,22,21,22,7,0,0,0,0,0,0,0,0,0,103,0.385,0.806,0.286,17,48,15,0021400962,1610612749,MIL,Milwaukee,O.J. Mayo,,DND - Rest                              ,,,,,,,,,,,,,
0021400962,1610612749,MIL,Milwaukee,203948,Johnny O'Bryant III,,DNP - Coach's Decision                  ,,,,,,,0.0,,,,,,,0.0,,,2015-03-12T00:00:00,1,MIL,Milwaukee,34-31,31,22,21,22,7,0,0,0,0,0,0,0,0,0,103,0.385,0.806,0.286,17,48,15,0021400962,1610612749,MIL,Milwaukee,Johnny O'Bryant III,,DNP - Coach's Decision                  ,,,,,,,,,,,,,
0021400962,1610612754,IND,Indiana,203524,Solomon Hill,F,,25:29,78.4,91.7,-13.2,0.083,0.5,10.4,0.0,0.071,0.041,20.7,0.5,0.678,0.17,95.13,0.076,2015-03-12T00:00:00,1,IND,Indiana,30-34,19,32,31,14,13,0,0,0,0,0,0,0,0,0,109,0.494,0.786,0.409,24,48,20,0021400962,1610612754,IND,Indiana,Solomon Hill,F,,25:29,0.0,0.0,3.0,4.0,14.0,6.0,7.0,20.0,0.0,1.0,3.0,4.0
0021400962,1610612754,IND,Indiana,2561,David West,F,,28:24,91.5,88.1,3.5,0.2,0.75,17.8,0.0,0.182,0.109,23.7,0.444,0.455,0.245,96.98,0.053,2015-03-12T00:00:00,1,IND,Indiana,30-34,19,32,31,14,13,0,0,0,0,0,0,0,0,0,109,0.494,0.786,0.409,24,48,20,0021400962,1610612754,IND,Indiana,David West,F,,28:24,0.0,1.0,0.0,0.0,14.0,6.0,7.0,20.0,2.0,0.0,5.0,3.0
0021400962,1610612754,IND,Indiana,101133,Ian Mahinmi,C,,29:15,99.7,100.5,-0.8,0.118,0.67,21.2,0.087,0.258,0.185,31.8,1.0,0.901,0.124,99.17,0.125,2015-03-12T00:00:00,1,IND,Indiana,30-34,19,32,31,14,13,0,0,0,0,0,0,0,0,0,109,0.494,0.786,0.409,24,48,20,0021400962,1610612754,IND,Indiana,Ian Mahinmi,C,,29:15,0.0,2.0,0.0,6.0,16.0,6.0,7.0,24.0,4.0,0.0,6.0,2.0
0021400962,1610612754,IND,Indiana,101139,CJ Miles,G,,30:12,97.2,88.1,9.0,0.176,0.0,25.0,0.0,0.081,0.049,0.0,0.778,0.778,0.146,100.55,0.132,2015-03-12T00:00:00,1,IND,Indiana,30-34,19,32,31,14,13,0,0,0,0,0,0,0,0,0,109,0.494,0.786,0.409,24,48,20,0021400962,1610612754,IND,Indiana,CJ Miles,G,,30:12,0.0,0.0,0.0,0.0,14.0,6.0,7.0,22.0,0.0,0.0,3.0,0.0
0021400962,1610612754,IND,Indiana,201588,George Hill,G,,31:23,95.0,83.9,11.0,0.357,1.25,18.7,0.0,0.105,0.063,14.9,0.438,0.479,0.334,101.08,0.098,2015-03-12T00:00:00,1,IND,Indiana,30-34,19,32,31,14,13,0,0,0,0,0,0,0,0,0,109,0.494,0.786,0.409,24,48,20,0021400962,1610612754,IND,Indiana,George Hill,G,,31:23,7.0,0.0,10.0,8.0,14.0,6.0,7.0,22.0,0.0,0.0,5.0,7.0
0021400962,1610612754,IND,Indiana,2449,Luis Scola,,,33:32,110.0,90.1,19.9,0.0,0.0,0.0,0.148,0.324,0.246,0.0,0.533,0.551,0.216,95.95,0.22,2015-03-12T00:00:00,1,IND,Indiana,30-34,19,32,31,14,13,0,0,0,0,0,0,0,0,0,109,0.494,0.786,0.409,24,48,20,0021400962,1610612754,IND,Indiana,Luis Scola,,,33:32,2.0,6.0,2.0,10.0,8.0,6.0,7.0,26.0,0.0,1.0,2.0,2.0
0021400962,1610612754,IND,Indiana,201155,Rodney Stuckey,,,36:58,117.7,91.2,26.5,0.273,2.0,19.7,0.0,0.171,0.097,9.9,0.5,0.584,0.315,94.74,0.213,2015-03-12T00:00:00,1,IND,Indiana,30-34,19,32,31,14,13,0,0,0,0,0,0,0,0,0,109,0.494,0.786,0.409,24,48,20,0021400962,1610612754,IND,Indiana,Rodney Stuckey,,,36:58,0.0,0.0,2.0,8.0,8.0,8.0,7.0,30.0,0.0,0.0,1.0,6.0
0021400962,1610612754,IND,Indiana,204014,Damjan Rudez,,,12:40,120.7,110.0,10.7,0.0,0.0,0.0,0.0,0.0,0.0,50.0,0.0,0.0,0.066,101.95,-0.143,2015-03-12T00:00:00,1,IND,Indiana,30-34,19,32,31,14,13,0,0,0,0,0,0,0,0,0,109,0.494,0.786,0.409,24,48,20,0021400962,1610612754,IND,Indiana,Damjan Rudez,,,12:40,0.0,0.0,0.0,0.0,4.0,0.0,7.0,12.0,0.0,0.0,4.0,0.0
0021400962,1610612754,IND,Indiana,202730,Lavoy Allen,,,14:22,115.6,106.1,9.6,0.0,0.0,0.0,0.0,0.111,0.048,100.0,0.0,0.0,0.03,96.36,-0.011,2015-03-12T00:00:00,1,IND,Indiana,30-34,19,32,31,14,13,0,0,0,0,0,0,0,0,0,109,0.494,0.786,0.409,24,48,20,0021400962,1610612754,IND,Indiana,Lavoy Allen,,,14:22,0.0,0.0,0.0,0.0,2.0,2.0,7.0,14.0,1.0,0.0,1.0,0.0
0021400962,1610612754,IND,Indiana,201228,C.J. Watson,,,22:46,121.6,109.7,12.0,0.222,2.0,34.0,0.0,0.059,0.029,17.0,0.75,0.868,0.157,93.89,0.109,2015-03-12T00:00:00,1,IND,Indiana,30-34,19,32,31,14,13,0,0,0,0,0,0,0,0,0,109,0.494,0.786,0.409,24,48,20,0021400962,1610612754,IND,Indiana,C.J. Watson,,,22:46,2.0,0.0,2.0,0.0,6.0,4.0,7.0,20.0,0.0,1.0,3.0,3.0
0021400962,1610612754,IND,Indiana,203142,Chris Copeland,,DNP - Coach's Decision                  ,,,,,,,0.0,,,,,,,0.0,,,2015-03-12T00:00:00,1,IND,Indiana,30-34,19,32,31,14,13,0,0,0,0,0,0,0,0,0,109,0.494,0.786,0.409,24,48,20,0021400962,1610612754,IND,Indiana,Chris Copeland,,DNP - Coach's Decision                  ,,,,,,,,,,,,,
0021400962,1610612754,IND,Indiana,202388,Donald Sloan,,DNP - Coach's Decision                  ,,,,,,,0.0,,,,,,,0.0,,,2015-03-12T00:00:00,1,IND,Indiana,30-34,19,32,31,14,13,0,0,0,0,0,0,0,0,0,109,0.494,0.786,0.409,24,48,20,0021400962,1610612754,IND,Indiana,Donald Sloan,,DNP - Coach's Decision                  ,,,,,,,,,,,,,
0021400962,1610612754,IND,Indiana,203963,Shayne Whittington,,DNP - Coach's Decision                  ,,,,,,,0.0,,,,,,,0.0,,,2015-03-12T00:00:00,1,IND,Indiana,30-34,19,32,31,14,13,0,0,0,0,0,0,0,0,0,109,0.494,0.786,0.409,24,48,20,0021400962,1610612754,IND,Indiana,Shayne Whittington,,DNP - Coach's Decision                  ,,,,,,,,,,,,,
