GAME_ID_x,TEAM_ID_x,TEAM_ABBREVIATION_x,TEAM_CITY_x,PLAYER_ID,PLAYER_NAME_x,START_POSITION_x,COMMENT_x,MIN_x,OFF_RATING,DEF_RATING,NET_RATING,AST_PCT,AST_TOV,AST_RATIO,OREB_PCT,DREB_PCT,REB_PCT,TM_TOV_PCT,EFG_PCT,TS_PCT,USG_PCT,PACE,PIE,GAME_DATE_EST,GAME_SEQUENCE,TEAM_ABBREVIATION_y,TEAM_CITY_NAME,TEAM_WINS_LOSSES,PTS_QTR1,PTS_QTR2,PTS_QTR3,PTS_QTR4,PTS_OT1,PTS_OT2,PTS_OT3,PTS_OT4,PTS_OT5,PTS_OT6,PTS_OT7,PTS_OT8,PTS_OT9,PTS_OT10,PTS,FG_PCT,FT_PCT,FG3_PCT,AST,REB,TOV,GAME_ID_y,TEAM_ID_y,TEAM_ABBREVIATION,TEAM_CITY_y,PLAYER_NAME_y,START_POSITION_y,COMMENT_y,MIN_y,PTS_OFF_TOV,PTS_2ND_CHANCE,PTS_FB,PTS_PAINT,OPP_PTS_OFF_TOV,OPP_PTS_2ND_CHANCE,OPP_PTS_FB,OPP_PTS_PAINT,BLK,BLKA,PF,PFD
0021400966,1610612752,NYK,New York,202498,Lance Thomas,F,,16:36,102.4,101.0,1.4,0.0,0.0,0.0,0.0,0.133,0.063,0.0,0.5,0.5,0.175,98.08,0.063,2015-03-12T00:00:00,5,NYK,New York,13-51,25,35,20,21,0,0,0,0,0,0,0,0,0,0,101,0.468,0.769,0.5,27,33,8,0021400966,1610612752,NYK,New York,Lance Thomas,F,,16:36,2.0,0.0,2.0,2.0,0.0,8.0,1.0,16.0,0.0,0.0,2.0,0.0
0021400966,1610612752,NYK,New York,200811,Lou Amundson,F,,19:32,104.8,94.4,10.5,0.357,0.0,45.5,0.063,0.231,0.138,0.0,0.333,0.333,0.157,93.87,0.139,2015-03-12T00:00:00,5,NYK,New York,13-51,25,35,20,21,0,0,0,0,0,0,0,0,0,0,101,0.468,0.769,0.5,27,33,8,0021400966,1610612752,NYK,New York,Lou Amundson,F,,19:32,2.0,2.0,0.0,4.0,2.0,6.0,1.0,14.0,2.0,1.0,1.0,3.0
0021400966,1610612752,NYK,New York,200745,Andrea Bargnani,C,,32:39,106.4,92.1,14.3,0.095,0.0,11.9,0.0,0.069,0.035,0.0,0.4,0.539,0.225,94.07,0.098,2015-03-12T00:00:00,5,NYK,New York,13-51,25,35,20,21,0,0,0,0,0,0,0,0,0,0,101,0.468,0.769,0.5,27,33,8,0021400966,1610612752,NYK,New York,Andrea Bargnani,C,,32:39,0.0,0.0,2.0,2.0,5.0,17.0,2.0,22.0,0.0,0.0,1.0,9.0
0021400966,1610612752,NYK,New York,203144,Alexey Shved,G,,33:24,103.4,90.7,12.8,0.333,6.0,27.6,0.033,0.313,0.177,4.6,0.423,0.474,0.24,92.62,0.191,2015-03-12T00:00:00,5,NYK,New York,13-51,25,35,20,21,0,0,0,0,0,0,0,0,0,0,101,0.468,0.769,0.5,27,33,8,0021400966,1610612752,NYK,New York,Alexey Shved,G,,33:24,0.0,0.0,0.0,8.0,5.0,17.0,3.0,22.0,0.0,1.0,2.0,3.0
0021400966,1610612752,NYK,New York,204038,Langston Galloway,G,,25:34,100.7,95.6,5.1,0.25,1.33,28.6,0.048,0.043,0.045,21.4,0.857,0.857,0.194,94.66,0.147,2015-03-12T00:00:00,5,NYK,New York,13-51,25,35,20,21,0,0,0,0,0,0,0,0,0,0,101,0.468,0.769,0.5,27,33,8,0021400966,1610612752,NYK,New York,Langston Galloway,G,,25:34,2.0,5.0,0.0,2.0,4.0,15.0,1.0,20.0,1.0,1.0,2.0,0.0
0021400966,1610612752,NYK,New York,203921,Cleanthony Early,,,23:33,103.1,82.7,20.5,0.0,0.0,0.0,0.0,0.143,0.073,12.7,0.75,0.799,0.166,96.01,0.138,2015-03-12T00:00:00,5,NYK,New York,13-51,25,35,20,21,0,0,0,0,0,0,0,0,0,0,101,0.468,0.769,0.5,27,33,8,0021400966,1610612752,NYK,New York,Cleanthony Early,,,23:33,3.0,0.0,0.0,4.0,5.0,8.0,4.0,22.0,2.0,0.0,4.0,2.0
0021400966,1610612752,NYK,New York,202332,Cole Aldrich,,,19:44,125.0,104.5,20.5,0.133,2.0,25.4,0.0,0.095,0.057,12.7,0.5,0.512,0.146,96.76,0.078,2015-03-12T00:00:00,5,NYK,New York,13-51,25,35,20,21,0,0,0,0,0,0,0,0,0,0,101,0.468,0.769,0.5,27,33,8,0021400966,1610612752,NYK,New York,Cole Aldrich,,,19:44,0.0,0.0,0.0,2.0,4.0,10.0,3.0,28.0,2.0,0.0,1.0,2.0
0021400966,1610612752,NYK,New York,201160,Jason Smith,,,23:49,103.6,96.0,7.6,0.167,0.0,18.6,0.045,0.083,0.065,0.0,0.286,0.457,0.181,97.14,0.073,2015-03-12T00:00:00,5,NYK,New York,13-51,25,35,20,21,0,0,0,0,0,0,0,0,0,0,101,0.468,0.769,0.5,27,33,8,0021400966,1610612752,NYK,New York,Jason Smith,,,23:49,0.0,2.0,0.0,2.0,7.0,13.0,4.0,24.0,1.0,0.0,3.0,4.0
0021400966,1610612752,NYK,New York,203501,Tim Hardaway Jr.,,,31:16,116.5,91.0,25.5,0.133,2.0,11.5,0.0,0.1,0.057,5.7,0.75,0.762,0.248,96.07,0.189,2015-03-12T00:00:00,5,NYK,New York,13-51,25,35,20,21,0,0,0,0,0,0,0,0,0,0,101,0.468,0.769,0.5,27,33,8,0021400966,1610612752,NYK,New York,Tim Hardaway Jr.,,,31:16,2.0,0.0,2.0,6.0,9.0,15.0,4.0,28.0,0.0,0.0,1.0,2.0
0021400966,1610612752,NYK,New York,203499,Shane Larkin,,,13:53,143.2,128.8,14.4,0.364,4.0,40.5,0.0,0.083,0.048,10.1,0.25,0.307,0.211,97.01,0.023,2015-03-12T00:00:00,5,NYK,New York,13-51,25,35,20,21,0,0,0,0,0,0,0,0,0,0,101,0.468,0.769,0.5,27,33,8,0021400966,1610612752,NYK,New York,Shane Larkin,,,13:53,1.0,0.0,0.0,2.0,4.0,6.0,2.0,24.0,1.0,1.0,2.0,1.0
0021400966,1610612752,NYK,New York,203112,Quincy Acy,,NWT - Personal.                         ,,,,,,,0.0,,,,,,,0.0,,,2015-03-12T00:00:00,5,NYK,New York,13-51,25,35,20,21,0,0,0,0,0,0,0,0,0,0,101,0.468,0.769,0.5,27,33,8,0021400966,1610612752,NYK,New York,Quincy Acy,,NWT - Personal.                         ,,,,,,,,,,,,,
0021400966,1610612752,NYK,New York,204037,Travis Wear,,DNP - Coach's Decision                  ,,,,,,,0.0,,,,,,,0.0,,,2015-03-12T00:00:00,5,NYK,New York,13-51,25,35,20,21,0,0,0,0,0,0,0,0,0,0,101,0.468,0.769,0.5,27,33,8,0021400966,1610612752,NYK,New York,Travis Wear,,DNP - Coach's Decision                  ,,,,,,,,,,,,,
0021400966,1610612747,LAL,Los Angeles,202325,Wesley Johnson,F,,32:49,99.6,103.1,-3.5,0.0,0.0,0.0,0.034,0.071,0.053,16.7,0.2,0.2,0.153,94.58,-0.043,2015-03-12T00:00:00,5,LAL,Los Angeles,17-47,28,26,20,20,0,0,0,0,0,0,0,0,0,0,94,0.422,0.619,0.278,18,51,13,0021400966,1610612747,LAL,Los Angeles,Wesley Johnson,F,,32:49,0.0,4.0,0.0,2.0,9.0,7.0,4.0,28.0,2.0,1.0,4.0,2.0
0021400966,1610612747,LAL,Los Angeles,201941,Jordan Hill,F,,28:46,99.9,107.8,-8.0,0.063,0.5,5.5,0.111,0.292,0.196,10.9,0.607,0.62,0.254,93.27,0.173,2015-03-12T00:00:00,5,LAL,Los Angeles,17-47,28,26,20,20,0,0,0,0,0,0,0,0,0,0,94,0.422,0.619,0.278,18,51,13,0021400966,1610612747,LAL,Los Angeles,Jordan Hill,F,,28:46,2.0,7.0,0.0,6.0,7.0,5.0,6.0,24.0,1.0,0.0,3.0,2.0
0021400966,1610612747,LAL,Los Angeles,204028,Tarik Black,C,,25:04,107.9,98.5,9.4,0.059,1.0,12.5,0.136,0.348,0.244,12.5,0.833,0.833,0.125,92.83,0.144,2015-03-12T00:00:00,5,LAL,Los Angeles,17-47,28,26,20,20,0,0,0,0,0,0,0,0,0,0,94,0.422,0.619,0.278,18,51,13,0021400966,1610612747,LAL,Los Angeles,Tarik Black,C,,25:04,2.0,6.0,0.0,10.0,3.0,3.0,2.0,16.0,0.0,0.0,6.0,1.0
0021400966,1610612747,LAL,Los Angeles,201961,Wayne Ellington,G,,28:08,96.1,101.8,-5.7,0.105,0.0,12.6,0.0,0.077,0.039,0.0,0.385,0.396,0.213,93.19,0.057,2015-03-12T00:00:00,5,LAL,Los Angeles,17-47,28,26,20,20,0,0,0,0,0,0,0,0,0,0,94,0.422,0.619,0.278,18,51,13,0021400966,1610612747,LAL,Los Angeles,Wayne Ellington,G,,28:08,0.0,0.0,1.0,2.0,3.0,5.0,2.0,20.0,0.0,3.0,0.0,3.0
0021400966,1610612747,LAL,Los Angeles,203903,Jordan Clarkson,G,,27:50,84.7,113.4,-28.6,0.063,0.5,6.3,0.038,0.143,0.085,12.6,0.417,0.427,0.223,93.71,0.029,2015-03-12T00:00:00,5,LAL,Los Angeles,17-47,28,26,20,20,0,0,0,0,0,0,0,0,0,0,94,0.422,0.619,0.278,18,51,13,0021400966,1610612747,LAL,Los Angeles,Jordan Clarkson,G,,27:50,1.0,0.0,1.0,0.0,7.0,5.0,6.0,22.0,0.0,0.0,2.0,1.0
0021400966,1610612747,LAL,Los Angeles,202391,Jeremy Lin,,,22:24,99.0,108.1,-9.1,0.5,2.33,32.3,0.105,0.0,0.053,13.9,0.444,0.601,0.279,98.44,0.178,2015-03-12T00:00:00,5,LAL,Los Angeles,17-47,28,26,20,20,0,0,0,0,0,0,0,0,0,0,94,0.422,0.619,0.278,18,51,13,0021400966,1610612747,LAL,Los Angeles,Jeremy Lin,,,22:24,0.0,2.0,0.0,6.0,9.0,4.0,2.0,18.0,1.0,2.0,1.0,4.0
0021400966,1610612747,LAL,Los Angeles,2430,Carlos Boozer,,,19:14,89.9,111.3,-21.5,0.222,1.0,12.2,0.0,0.438,0.212,12.2,0.417,0.442,0.32,98.43,0.168,2015-03-12T00:00:00,5,LAL,Los Angeles,17-47,28,26,20,20,0,0,0,0,0,0,0,0,0,0,94,0.422,0.619,0.278,18,51,13,0021400966,1610612747,LAL,Los Angeles,Carlos Boozer,,,19:14,2.0,2.0,2.0,10.0,5.0,4.0,0.0,10.0,0.0,2.0,2.0,2.0
0021400966,1610612747,LAL,Los Angeles,202334,Ed Davis,,,22:41,85.6,121.2,-35.6,0.077,0.0,10.7,0.238,0.294,0.263,0.0,0.429,0.421,0.148,98.15,0.12,2015-03-12T00:00:00,5,LAL,Los Angeles,17-47,28,26,20,20,0,0,0,0,0,0,0,0,0,0,94,0.422,0.619,0.278,18,51,13,0021400966,1610612747,LAL,Los Angeles,Ed Davis,,,22:41,0.0,2.0,0.0,6.0,9.0,6.0,4.0,18.0,0.0,1.0,4.0,2.0
0021400966,1610612747,LAL,Los Angeles,203913,Jabari Brown,,,17:38,107.9,115.8,-8.0,0.083,1.0,10.2,0.0,0.143,0.063,10.2,0.5,0.451,0.208,97.4,0.03,2015-03-12T00:00:00,5,LAL,Los Angeles,17-47,28,26,20,20,0,0,0,0,0,0,0,0,0,0,94,0.422,0.619,0.278,18,51,13,0021400966,1610612747,LAL,Los Angeles,Jabari Brown,,,17:38,2.0,0.0,1.0,2.0,5.0,4.0,2.0,8.0,0.0,0.0,1.0,2.0
0021400966,1610612747,LAL,Los Angeles,203527,Ryan Kelly,,,15:27,85.0,122.4,-37.5,0.167,0.0,66.7,0.0,0.0,0.0,0.0,0.0,0.0,0.028,96.91,-0.038,2015-03-12T00:00:00,5,LAL,Los Angeles,17-47,28,26,20,20,0,0,0,0,0,0,0,0,0,0,94,0.422,0.619,0.278,18,51,13,0021400966,1610612747,LAL,Los Angeles,Ryan Kelly,,,15:27,0.0,0.0,0.0,0.0,3.0,2.0,2.0,6.0,0.0,0.0,3.0,0.0
0021400966,1610612747,LAL,Los Angeles,977,Kobe Bryant,,DND - Right rotator cuff surgery.       ,,,,,,,0.0,,,,,,,0.0,,,2015-03-12T00:00:00,5,LAL,Los Angeles,17-47,28,26,20,20,0,0,0,0,0,0,0,0,0,0,94,0.422,0.619,0.278,18,51,13,0021400966,1610612747,LAL,Los Angeles,Kobe Bryant,,DND - Right rotator cuff surgery.       ,,,,,,,,,,,,,
0021400966,1610612747,LAL,Los Angeles,203135,Robert Sacre,,DNP - Coach's Decision                  ,,,,,,,0.0,,,,,,,0.0,,,2015-03-12T00:00:00,5,LAL,Los Angeles,17-47,28,26,20,20,0,0,0,0,0,0,0,0,0,0,94,0.422,0.619,0.278,18,51,13,0021400966,1610612747,LAL,Los Angeles,Robert Sacre,,DNP - Coach's Decision                  ,,,,,,,,,,,,,
0021400966,1610612747,LAL,Los Angeles,201156,Nick Young,,DND - Sore left knee.                   ,,,,,,,0.0,,,,,,,0.0,,,2015-03-12T00:00:00,5,LAL,Los Angeles,17-47,28,26,20,20,0,0,0,0,0,0,0,0,0,0,94,0.422,0.619,0.278,18,51,13,0021400966,1610612747,LAL,Los Angeles,Nick Young,,DND - Sore left knee.                   ,,,,,,,,,,,,,
