GAME_ID_x,TEAM_ID_x,TEAM_ABBREVIATION_x,TEAM_CITY_x,PLAYER_ID,PLAYER_NAME_x,START_POSITION_x,COMMENT_x,MIN_x,OFF_RATING,DEF_RATING,NET_RATING,AST_PCT,AST_TOV,AST_RATIO,OREB_PCT,DREB_PCT,REB_PCT,TM_TOV_PCT,EFG_PCT,TS_PCT,USG_PCT,PACE,PIE,GAME_DATE_EST,GAME_SEQUENCE,TEAM_ABBREVIATION_y,TEAM_CITY_NAME,TEAM_WINS_LOSSES,PTS_QTR1,PTS_QTR2,PTS_QTR3,PTS_QTR4,PTS_OT1,PTS_OT2,PTS_OT3,PTS_OT4,PTS_OT5,PTS_OT6,PTS_OT7,PTS_OT8,PTS_OT9,PTS_OT10,PTS,FG_PCT,FT_PCT,FG3_PCT,AST,REB,TOV,GAME_ID_y,TEAM_ID_y,TEAM_ABBREVIATION,TEAM_CITY_y,PLAYER_NAME_y,START_POSITION_y,COMMENT_y,MIN_y,PTS_OFF_TOV,PTS_2ND_CHANCE,PTS_FB,PTS_PAINT,OPP_PTS_OFF_TOV,OPP_PTS_2ND_CHANCE,OPP_PTS_FB,OPP_PTS_PAINT,BLK,BLKA,PF,PFD
0021400970,1610612748,MIA,Miami,2736,Luol Deng,F,,34:40,98.6,98.0,0.6,0.115,1.5,17.8,0.077,0.121,0.102,11.8,0.273,0.337,0.176,101.41,0.041,2015-03-13T00:00:00,4,MIA,Miami,29-36,18,23,22,29,0,0,0,0,0,0,0,0,0,0,92,0.443,0.708,0.217,21,44,20,0021400970,1610612748,MIA,Miami,Luol Deng,F,,34:40,4.0,2.0,4.0,6.0,17.0,6.0,10.0,24.0,0.0,2.0,2.0,2.0
0021400970,1610612748,MIA,Miami,201611,Henry Walker,F,,22:26,89.7,121.6,-32.0,0.143,0.0,14.3,0.0,0.133,0.057,0.0,0.333,0.333,0.231,100.56,0.046,2015-03-13T00:00:00,4,MIA,Miami,29-36,18,23,22,29,0,0,0,0,0,0,0,0,0,0,92,0.443,0.708,0.217,21,44,20,0021400970,1610612748,MIA,Miami,Henry Walker,F,,22:26,0.0,3.0,2.0,2.0,10.0,5.0,8.0,18.0,0.0,0.0,3.0,1.0
0021400970,1610612748,MIA,Miami,202355,Hassan Whiteside,C,,24:28,84.6,116.6,-32.0,0.0,0.0,0.0,0.095,0.476,0.286,27.9,0.667,0.58,0.196,99.5,0.131,2015-03-13T00:00:00,4,MIA,Miami,29-36,18,23,22,29,0,0,0,0,0,0,0,0,0,0,92,0.443,0.708,0.217,21,44,20,0021400970,1610612748,MIA,Miami,Hassan Whiteside,C,,24:28,0.0,2.0,0.0,8.0,14.0,5.0,10.0,18.0,3.0,0.0,3.0,3.0
0021400970,1610612748,MIA,Miami,2548,Dwyane Wade,G,,32:46,93.6,106.8,-13.2,0.235,0.8,15.7,0.0,0.125,0.06,19.6,0.731,0.757,0.285,103.91,0.172,2015-03-13T00:00:00,4,MIA,Miami,29-36,18,23,22,29,0,0,0,0,0,0,0,0,0,0,92,0.443,0.708,0.217,21,44,20,0021400970,1610612748,MIA,Miami,Dwyane Wade,G,,32:46,2.0,0.0,1.0,8.0,17.0,6.0,15.0,30.0,1.0,0.0,1.0,6.0
0021400970,1610612748,MIA,Miami,201609,Goran Dragic,G,,38:43,100.2,102.8,-2.6,0.217,2.5,20.1,0.0,0.075,0.042,8.0,0.471,0.503,0.232,98.91,0.112,2015-03-13T00:00:00,4,MIA,Miami,29-36,18,23,22,29,0,0,0,0,0,0,0,0,0,0,92,0.443,0.708,0.217,21,44,20,0021400970,1610612748,MIA,Miami,Goran Dragic,G,,38:43,8.0,0.0,10.0,16.0,13.0,15.0,13.0,24.0,0.0,1.0,2.0,4.0
0021400970,1610612748,MIA,Miami,201563,Michael Beasley,,,25:34,89.7,84.2,5.5,0.071,0.5,7.2,0.095,0.226,0.173,14.4,0.45,0.506,0.224,102.51,0.119,2015-03-13T00:00:00,4,MIA,Miami,29-36,18,23,22,29,0,0,0,0,0,0,0,0,0,0,92,0.443,0.708,0.217,21,44,20,0021400970,1610612748,MIA,Miami,Michael Beasley,,,25:34,2.0,2.0,0.0,6.0,11.0,10.0,7.0,16.0,0.0,1.0,4.0,1.0
0021400970,1610612748,MIA,Miami,201596,Mario Chalmers,,,30:14,90.6,96.9,-6.3,0.158,1.0,25.3,0.0,0.091,0.051,25.3,0.7,0.68,0.127,99.99,0.043,2015-03-13T00:00:00,4,MIA,Miami,29-36,18,23,22,29,0,0,0,0,0,0,0,0,0,0,92,0.443,0.708,0.217,21,44,20,0021400970,1610612748,MIA,Miami,Mario Chalmers,,,30:14,0.0,0.0,2.0,4.0,14.0,12.0,5.0,16.0,0.0,0.0,4.0,2.0
0021400970,1610612748,MIA,Miami,2365,Chris Andersen,,,18:41,77.3,89.4,-12.1,0.182,2.0,34.0,0.056,0.19,0.128,17.0,0.0,0.347,0.089,106.37,0.085,2015-03-13T00:00:00,4,MIA,Miami,29-36,18,23,22,29,0,0,0,0,0,0,0,0,0,0,92,0.443,0.708,0.217,21,44,20,0021400970,1610612748,MIA,Miami,Chris Andersen,,,18:41,0.0,0.0,0.0,0.0,5.0,9.0,5.0,14.0,1.0,1.0,1.0,1.0
0021400970,1610612748,MIA,Miami,204020,Tyler Johnson,,,12:28,50.9,91.9,-41.0,0.333,0.5,14.5,0.0,0.083,0.037,29.1,0.333,0.387,0.199,105.29,-0.037,2015-03-13T00:00:00,4,MIA,Miami,29-36,18,23,22,29,0,0,0,0,0,0,0,0,0,0,92,0.443,0.708,0.217,21,44,20,0021400970,1610612748,MIA,Miami,Tyler Johnson,,,12:28,2.0,0.0,1.0,2.0,4.0,7.0,2.0,10.0,0.0,0.0,2.0,2.0
0021400970,1610612748,MIA,Miami,203516,James Ennis III,,DNP - Coach's Decision                  ,,,,,,,0.0,,,,,,,0.0,,,2015-03-13T00:00:00,4,MIA,Miami,29-36,18,23,22,29,0,0,0,0,0,0,0,0,0,0,92,0.443,0.708,0.217,21,44,20,0021400970,1610612748,MIA,Miami,James Ennis III,,DNP - Coach's Decision                  ,,,,,,,,,,,,,
0021400970,1610612748,MIA,Miami,2617,Udonis Haslem,,DNP - Coach's Decision                  ,,,,,,,0.0,,,,,,,0.0,,,2015-03-13T00:00:00,4,MIA,Miami,29-36,18,23,22,29,0,0,0,0,0,0,0,0,0,0,92,0.443,0.708,0.217,21,44,20,0021400970,1610612748,MIA,Miami,Udonis Haslem,,DNP - Coach's Decision                  ,,,,,,,,,,,,,
0021400970,1610612748,MIA,Miami,203894,Shabazz Napier,,DNP - Coach's Decision                  ,,,,,,,0.0,,,,,,,0.0,,,2015-03-13T00:00:00,4,MIA,Miami,29-36,18,23,22,29,0,0,0,0,0,0,0,0,0,0,92,0.443,0.708,0.217,21,44,20,0021400970,1610612748,MIA,Miami,Shabazz Napier,,DNP - Coach's Decision                  ,,,,,,,,,,,,,
0021400970,1610612761,TOR,Toronto,203082,Terrence Ross,F,,20:20,112.4,93.5,18.9,0.0,0.0,0.0,0.0,0.118,0.061,0.0,0.563,0.563,0.175,103.21,0.056,2015-03-13T00:00:00,4,TOR,Toronto,39-26,21,29,28,24,0,0,0,0,0,0,0,0,0,0,102,0.43,0.71,0.364,26,43,17,0021400970,1610612761,TOR,Toronto,Terrence Ross,F,,20:20,0.0,3.0,0.0,0.0,10.0,5.0,8.0,22.0,1.0,0.0,2.0,0.0
0021400970,1610612761,TOR,Toronto,101161,Amir Johnson,F,,25:28,110.0,92.5,17.5,0.143,2.0,15.2,0.0,0.136,0.071,7.6,0.625,0.637,0.204,98.95,0.116,2015-03-13T00:00:00,4,TOR,Toronto,39-26,21,29,28,24,0,0,0,0,0,0,0,0,0,0,102,0.43,0.71,0.364,26,43,17,0021400970,1610612761,TOR,Toronto,Amir Johnson,F,,25:28,6.0,2.0,3.0,8.0,8.0,5.0,8.0,30.0,1.0,2.0,3.0,5.0
0021400970,1610612761,TOR,Toronto,201946,Tyler Hansbrough,C,,26:39,109.9,100.3,9.6,0.053,0.0,34.7,0.0,0.238,0.116,0.0,1.0,0.798,0.032,100.36,0.066,2015-03-13T00:00:00,4,TOR,Toronto,39-26,21,29,28,24,0,0,0,0,0,0,0,0,0,0,102,0.43,0.71,0.364,26,43,17,0021400970,1610612761,TOR,Toronto,Tyler Hansbrough,C,,26:39,0.0,0.0,0.0,2.0,16.0,5.0,14.0,30.0,0.0,0.0,2.0,1.0
0021400970,1610612761,TOR,Toronto,201942,DeMar DeRozan,G,,38:03,111.8,98.7,13.1,0.24,2.0,22.5,0.094,0.094,0.094,11.2,0.25,0.508,0.255,97.23,0.082,2015-03-13T00:00:00,4,TOR,Toronto,39-26,21,29,28,24,0,0,0,0,0,0,0,0,0,0,102,0.43,0.71,0.364,26,43,17,0021400970,1610612761,TOR,Toronto,DeMar DeRozan,G,,38:03,4.0,1.0,2.0,4.0,16.0,7.0,16.0,44.0,0.0,2.0,4.0,7.0
0021400970,1610612761,TOR,Toronto,200768,Kyle Lowry,G,,37:03,102.5,79.8,22.7,0.4,2.0,33.3,0.029,0.206,0.116,16.7,0.792,0.792,0.184,102.95,0.264,2015-03-13T00:00:00,4,TOR,Toronto,39-26,21,29,28,24,0,0,0,0,0,0,0,0,0,0,102,0.43,0.71,0.364,26,43,17,0021400970,1610612761,TOR,Toronto,Kyle Lowry,G,,37:03,0.0,3.0,3.0,2.0,10.0,9.0,12.0,36.0,1.0,0.0,3.0,3.0
0021400970,1610612761,TOR,Toronto,202335,Patrick Patterson,,,22:20,114.6,84.5,30.1,0.167,1.0,18.2,0.0,0.25,0.114,18.2,0.429,0.429,0.172,99.3,0.061,2015-03-13T00:00:00,4,TOR,Toronto,39-26,21,29,28,24,0,0,0,0,0,0,0,0,0,0,102,0.43,0.71,0.364,26,43,17,0021400970,1610612761,TOR,Toronto,Patrick Patterson,,,22:20,2.0,0.0,0.0,2.0,4.0,6.0,3.0,22.0,1.0,0.0,4.0,1.0
0021400970,1610612761,TOR,Toronto,201949,James Johnson,,,12:34,70.6,84.2,-13.5,0.167,1.0,12.0,0.0,0.455,0.2,12.0,0.6,0.554,0.25,108.55,0.183,2015-03-13T00:00:00,4,TOR,Toronto,39-26,21,29,28,24,0,0,0,0,0,0,0,0,0,0,102,0.43,0.71,0.364,26,43,17,0021400970,1610612761,TOR,Toronto,James Johnson,,,12:34,2.0,0.0,2.0,6.0,6.0,0.0,9.0,14.0,1.0,0.0,2.0,2.0
0021400970,1610612761,TOR,Toronto,202349,Greivis Vasquez,,,25:45,80.3,104.4,-24.1,0.222,0.5,11.8,0.0,0.056,0.021,23.5,0.545,0.545,0.247,104.65,0.047,2015-03-13T00:00:00,4,TOR,Toronto,39-26,21,29,28,24,0,0,0,0,0,0,0,0,0,0,102,0.43,0.71,0.364,26,43,17,0021400970,1610612761,TOR,Toronto,Greivis Vasquez,,,25:45,4.0,0.0,5.0,6.0,14.0,2.0,16.0,32.0,0.0,0.0,1.0,0.0
0021400970,1610612761,TOR,Toronto,101150,Lou Williams,,,22:49,97.1,70.2,26.9,0.154,1.0,10.7,0.115,0.045,0.083,10.7,0.417,0.478,0.306,101.82,0.097,2015-03-13T00:00:00,4,TOR,Toronto,39-26,21,29,28,24,0,0,0,0,0,0,0,0,0,0,102,0.43,0.71,0.364,26,43,17,0021400970,1610612761,TOR,Toronto,Lou Williams,,,22:49,3.0,5.0,0.0,4.0,4.0,4.0,8.0,22.0,0.0,0.0,0.0,2.0
0021400970,1610612761,TOR,Toronto,101236,Chuck Hayes,,,8:59,70.8,71.7,-1.0,0.4,0.0,34.0,0.167,0.25,0.2,0.0,0.0,0.129,0.167,108.79,0.085,2015-03-13T00:00:00,4,TOR,Toronto,39-26,21,29,28,24,0,0,0,0,0,0,0,0,0,0,102,0.43,0.71,0.364,26,43,17,0021400970,1610612761,TOR,Toronto,Chuck Hayes,,,8:59,0.0,1.0,0.0,0.0,2.0,2.0,6.0,8.0,0.0,1.0,1.0,1.0
0021400970,1610612761,TOR,Toronto,203998,Bruno Caboclo,,DNP - Coach's Decision                  ,,,,,,,0.0,,,,,,,0.0,,,2015-03-13T00:00:00,4,TOR,Toronto,39-26,21,29,28,24,0,0,0,0,0,0,0,0,0,0,102,0.43,0.71,0.364,26,43,17,0021400970,1610612761,TOR,Toronto,Bruno Caboclo,,DNP - Coach's Decision                  ,,,,,,,,,,,,,
0021400970,1610612761,TOR,Toronto,202361,Landry Fields,,DNP - Coach's Decision                  ,,,,,,,0.0,,,,,,,0.0,,,2015-03-13T00:00:00,4,TOR,Toronto,39-26,21,29,28,24,0,0,0,0,0,0,0,0,0,0,102,0.43,0.71,0.364,26,43,17,0021400970,1610612761,TOR,Toronto,Landry Fields,,DNP - Coach's Decision                  ,,,,,,,,,,,,,
0021400970,1610612761,TOR,Toronto,201880,Greg Stiemsma,,DNP - Coach's Decision                  ,,,,,,,0.0,,,,,,,0.0,,,2015-03-13T00:00:00,4,TOR,Toronto,39-26,21,29,28,24,0,0,0,0,0,0,0,0,0,0,102,0.43,0.71,0.364,26,43,17,0021400970,1610612761,TOR,Toronto,Greg Stiemsma,,DNP - Coach's Decision                  ,,,,,,,,,,,,,
