GAME_ID_x,TEAM_ID_x,TEAM_ABBREVIATION_x,TEAM_CITY_x,PLAYER_ID,PLAYER_NAME_x,START_POSITION_x,COMMENT_x,MIN_x,OFF_RATING,DEF_RATING,NET_RATING,AST_PCT,AST_TOV,AST_RATIO,OREB_PCT,DREB_PCT,REB_PCT,TM_TOV_PCT,EFG_PCT,TS_PCT,USG_PCT,PACE,PIE,GAME_DATE_EST,GAME_SEQUENCE,TEAM_ABBREVIATION_y,TEAM_CITY_NAME,TEAM_WINS_LOSSES,PTS_QTR1,PTS_QTR2,PTS_QTR3,PTS_QTR4,PTS_OT1,PTS_OT2,PTS_OT3,PTS_OT4,PTS_OT5,PTS_OT6,PTS_OT7,PTS_OT8,PTS_OT9,PTS_OT10,PTS,FG_PCT,FT_PCT,FG3_PCT,AST,REB,TOV,GAME_ID_y,TEAM_ID_y,TEAM_ABBREVIATION,TEAM_CITY_y,PLAYER_NAME_y,START_POSITION_y,COMMENT_y,MIN_y,PTS_OFF_TOV,PTS_2ND_CHANCE,PTS_FB,PTS_PAINT,OPP_PTS_OFF_TOV,OPP_PTS_2ND_CHANCE,OPP_PTS_FB,OPP_PTS_PAINT,BLK,BLKA,PF,PFD
0021401026,1610612737,ATL,Atlanta,201960,DeMarre Carroll,F,,33:22,117.1,129.3,-12.2,0.045,1.0,7.3,0.036,0.174,0.098,7.3,0.611,0.644,0.171,100.96,0.079,2015-03-20T00:00:00,7,ATL,Atlanta,53-16,35,33,27,20,0,0,0,0,0,0,0,0,0,0,115,0.5,0.8,0.448,20,34,11,0021401026,1610612737,ATL,Atlanta,DeMarre Carroll,F,,33:22,7.0,0.0,6.0,8.0,9.0,13.0,16.0,38.0,0.0,0.0,2.0,5.0
0021401026,1610612737,ATL,Atlanta,200794,Paul Millsap,F,,37:06,119.0,125.4,-6.4,0.125,1.5,13.2,0.0,0.111,0.053,8.8,0.531,0.535,0.238,101.15,0.078,2015-03-20T00:00:00,7,ATL,Atlanta,53-16,35,33,27,20,0,0,0,0,0,0,0,0,0,0,115,0.5,0.8,0.448,20,34,11,0021401026,1610612737,ATL,Atlanta,Paul Millsap,F,,37:06,0.0,2.0,2.0,12.0,7.0,13.0,19.0,38.0,2.0,1.0,4.0,3.0
0021401026,1610612737,ATL,Atlanta,201143,Al Horford,C,,33:07,97.9,134.3,-36.4,0.19,2.0,30.8,0.097,0.333,0.2,15.4,0.714,0.714,0.128,93.81,0.117,2015-03-20T00:00:00,7,ATL,Atlanta,53-16,35,33,27,20,0,0,0,0,0,0,0,0,0,0,115,0.5,0.8,0.448,20,34,11,0021401026,1610612737,ATL,Atlanta,Al Horford,C,,33:07,2.0,2.0,0.0,8.0,9.0,13.0,13.0,40.0,1.0,0.0,3.0,0.0
0021401026,1610612737,ATL,Atlanta,203145,Kent Bazemore,G,,27:41,98.6,122.7,-24.1,0.0,0.0,0.0,0.0,0.182,0.077,10.0,0.556,0.556,0.165,96.06,0.053,2015-03-20T00:00:00,7,ATL,Atlanta,53-16,35,33,27,20,0,0,0,0,0,0,0,0,0,0,115,0.5,0.8,0.448,20,34,11,0021401026,1610612737,ATL,Atlanta,Kent Bazemore,G,,27:41,0.0,2.0,0.0,4.0,5.0,4.0,16.0,32.0,1.0,1.0,3.0,1.0
0021401026,1610612737,ATL,Atlanta,201952,Jeff Teague,G,,31:57,105.7,126.8,-21.1,0.143,3.0,17.9,0.069,0.091,0.078,6.0,0.318,0.431,0.196,100.11,0.069,2015-03-20T00:00:00,7,ATL,Atlanta,53-16,35,33,27,20,0,0,0,0,0,0,0,0,0,0,115,0.5,0.8,0.448,20,34,11,0021401026,1610612737,ATL,Atlanta,Jeff Teague,G,,31:57,4.0,2.0,4.0,4.0,9.0,11.0,19.0,34.0,0.0,1.0,1.0,3.0
0021401026,1610612737,ATL,Atlanta,203471,Dennis Schroder,,,31:51,133.9,123.7,10.2,0.182,2.0,18.4,0.0,0.107,0.057,9.2,0.607,0.666,0.256,95.31,0.12,2015-03-20T00:00:00,7,ATL,Atlanta,53-16,35,33,27,20,0,0,0,0,0,0,0,0,0,0,115,0.5,0.8,0.448,20,34,11,0021401026,1610612737,ATL,Atlanta,Dennis Schroder,,,31:51,3.0,0.0,4.0,8.0,2.0,11.0,12.0,32.0,0.0,3.0,1.0,2.0
0021401026,1610612737,ATL,Atlanta,203544,Pero Antic,,,19:48,155.4,125.0,30.4,0.077,1.0,7.1,0.077,0.154,0.115,7.1,0.889,0.911,0.314,97.21,0.179,2015-03-20T00:00:00,7,ATL,Atlanta,53-16,35,33,27,20,0,0,0,0,0,0,0,0,0,0,115,0.5,0.8,0.448,20,34,11,0021401026,1610612737,ATL,Atlanta,Pero Antic,,,19:48,2.0,2.0,0.0,4.0,0.0,4.0,5.0,24.0,0.0,0.0,2.0,4.0
0021401026,1610612737,ATL,Atlanta,202714,Shelvin Mack,,,20:35,139.3,132.4,6.9,0.211,4.0,36.4,0.0,0.056,0.029,9.1,0.417,0.417,0.168,90.11,0.047,2015-03-20T00:00:00,7,ATL,Atlanta,53-16,35,33,27,20,0,0,0,0,0,0,0,0,0,0,115,0.5,0.8,0.448,20,34,11,0021401026,1610612737,ATL,Atlanta,Shelvin Mack,,,20:35,0.0,0.0,0.0,2.0,2.0,6.0,5.0,26.0,0.0,0.0,0.0,1.0
0021401026,1610612737,ATL,Atlanta,203488,Mike Muscala,,,4:33,133.3,66.7,66.7,0.0,0.0,0.0,0.0,0.0,0.0,0.0,1.0,1.0,0.111,94.95,0.1,2015-03-20T00:00:00,7,ATL,Atlanta,53-16,35,33,27,20,0,0,0,0,0,0,0,0,0,0,115,0.5,0.8,0.448,20,34,11,0021401026,1610612737,ATL,Atlanta,Mike Muscala,,,4:33,0.0,0.0,0.0,0.0,2.0,0.0,0.0,6.0,0.0,0.0,0.0,0.0
0021401026,1610612737,ATL,Atlanta,1882,Elton Brand,,DNP - Coach's Decision                  ,,,,,,,0.0,,,,,,,0.0,,,2015-03-20T00:00:00,7,ATL,Atlanta,53-16,35,33,27,20,0,0,0,0,0,0,0,0,0,0,115,0.5,0.8,0.448,20,34,11,0021401026,1610612737,ATL,Atlanta,Elton Brand,,DNP - Coach's Decision                  ,,,,,,,,,,,,,
0021401026,1610612737,ATL,Atlanta,201948,Austin Daye,,DNP - Coach's Decision                  ,,,,,,,0.0,,,,,,,0.0,,,2015-03-20T00:00:00,7,ATL,Atlanta,53-16,35,33,27,20,0,0,0,0,0,0,0,0,0,0,115,0.5,0.8,0.448,20,34,11,0021401026,1610612737,ATL,Atlanta,Austin Daye,,DNP - Coach's Decision                  ,,,,,,,,,,,,,
0021401026,1610612737,ATL,Atlanta,203098,John Jenkins,,DNP - Coach's Decision                  ,,,,,,,0.0,,,,,,,0.0,,,2015-03-20T00:00:00,7,ATL,Atlanta,53-16,35,33,27,20,0,0,0,0,0,0,0,0,0,0,115,0.5,0.8,0.448,20,34,11,0021401026,1610612737,ATL,Atlanta,John Jenkins,,DNP - Coach's Decision                  ,,,,,,,,,,,,,
0021401026,1610612760,OKC,Oklahoma City,203079,Dion Waiters,F,,37:28,131.5,123.2,8.3,0.083,0.0,9.6,0.037,0.067,0.053,0.0,0.667,0.689,0.218,99.1,0.125,2015-03-20T00:00:00,7,OKC,Oklahoma City,39-30,34,27,29,33,0,0,0,0,0,0,0,0,0,0,123,0.512,0.923,0.433,26,44,12,0021401026,1610612760,OKC,Oklahoma City,Dion Waiters,F,,37:28,7.0,2.0,2.0,16.0,18.0,4.0,16.0,38.0,2.0,0.0,2.0,1.0
0021401026,1610612760,OKC,Oklahoma City,203956,Mitch McGary,F,,17:23,96.9,118.0,-21.2,0.083,0.25,11.1,0.0,0.308,0.16,44.4,0.75,0.75,0.199,104.18,0.027,2015-03-20T00:00:00,7,OKC,Oklahoma City,39-30,34,27,29,33,0,0,0,0,0,0,0,0,0,0,123,0.512,0.923,0.433,26,44,12,0021401026,1610612760,OKC,Oklahoma City,Mitch McGary,F,,17:23,0.0,0.0,2.0,4.0,13.0,2.0,10.0,20.0,0.0,1.0,4.0,0.0
0021401026,1610612760,OKC,Oklahoma City,203500,Steven Adams,C,,35:07,121.7,111.2,10.5,0.077,2.0,15.0,0.133,0.4,0.267,7.5,0.556,0.581,0.141,97.42,0.125,2015-03-20T00:00:00,7,OKC,Oklahoma City,39-30,34,27,29,33,0,0,0,0,0,0,0,0,0,0,123,0.512,0.923,0.433,26,44,12,0021401026,1610612760,OKC,Oklahoma City,Steven Adams,C,,35:07,0.0,0.0,0.0,10.0,14.0,4.0,14.0,34.0,2.0,0.0,5.0,4.0
0021401026,1610612760,OKC,Oklahoma City,203460,Andre Roberson,G,,17:27,117.5,114.9,2.5,0.077,1.0,16.7,0.0,0.143,0.087,16.7,0.625,0.625,0.125,106.56,0.048,2015-03-20T00:00:00,7,OKC,Oklahoma City,39-30,34,27,29,33,0,0,0,0,0,0,0,0,0,0,123,0.512,0.923,0.433,26,44,12,0021401026,1610612760,OKC,Oklahoma City,Andre Roberson,G,,17:27,0.0,0.0,2.0,2.0,11.0,2.0,10.0,20.0,0.0,0.0,2.0,0.0
0021401026,1610612760,OKC,Oklahoma City,201566,Russell Westbrook,G,,44:27,125.1,111.1,14.0,0.438,2.33,27.2,0.059,0.2,0.135,11.7,0.396,0.572,0.374,97.79,0.178,2015-03-20T00:00:00,7,OKC,Oklahoma City,39-30,34,27,29,33,0,0,0,0,0,0,0,0,0,0,123,0.512,0.923,0.433,26,44,12,0021401026,1610612760,OKC,Oklahoma City,Russell Westbrook,G,,44:27,2.0,9.0,9.0,8.0,18.0,10.0,16.0,46.0,0.0,1.0,3.0,9.0
0021401026,1610612760,OKC,Oklahoma City,2555,Nick Collison,,,23:51,133.7,134.5,-0.8,0.188,0.0,24.1,0.111,0.158,0.135,0.0,0.722,0.689,0.179,96.06,0.128,2015-03-20T00:00:00,7,OKC,Oklahoma City,39-30,34,27,29,33,0,0,0,0,0,0,0,0,0,0,123,0.512,0.923,0.433,26,44,12,0021401026,1610612760,OKC,Oklahoma City,Nick Collison,,,23:51,0.0,4.0,0.0,10.0,7.0,6.0,2.0,24.0,2.0,1.0,1.0,1.0
0021401026,1610612760,OKC,Oklahoma City,201627,Anthony Morrow,,,31:05,132.4,116.9,15.5,0.048,0.0,8.1,0.0,0.0,0.0,0.0,0.9,0.928,0.169,91.81,0.125,2015-03-20T00:00:00,7,OKC,Oklahoma City,39-30,34,27,29,33,0,0,0,0,0,0,0,0,0,0,123,0.512,0.923,0.433,26,44,12,0021401026,1610612760,OKC,Oklahoma City,Anthony Morrow,,,31:05,0.0,0.0,6.0,0.0,9.0,8.0,8.0,30.0,0.0,0.0,1.0,1.0
0021401026,1610612760,OKC,Oklahoma City,200779,Steve Novak,,,6:38,146.6,154.9,-8.3,0.125,0.0,50.0,0.0,0.25,0.125,0.0,0.0,0.0,0.07,103.19,0.021,2015-03-20T00:00:00,7,OKC,Oklahoma City,39-30,34,27,29,33,0,0,0,0,0,0,0,0,0,0,123,0.512,0.923,0.433,26,44,12,0021401026,1610612760,OKC,Oklahoma City,Steve Novak,,,6:38,0.0,0.0,0.0,0.0,0.0,0.0,0.0,6.0,0.0,0.0,0.0,0.0
0021401026,1610612760,OKC,Oklahoma City,201571,D.J. Augustin,,,20:54,130.9,118.9,12.0,0.059,0.0,20.0,0.05,0.105,0.077,0.0,0.25,0.25,0.089,90.1,0.015,2015-03-20T00:00:00,7,OKC,Oklahoma City,39-30,34,27,29,33,0,0,0,0,0,0,0,0,0,0,123,0.512,0.923,0.433,26,44,12,0021401026,1610612760,OKC,Oklahoma City,D.J. Augustin,,,20:54,0.0,0.0,0.0,2.0,0.0,8.0,4.0,22.0,0.0,1.0,1.0,0.0
0021401026,1610612760,OKC,Oklahoma City,202713,Kyle Singler,,,0:07,227.3,200.0,27.3,0.0,0.0,0.0,0.0,0.0,0.0,0.0,0.0,0.0,0.0,365.84,0.0,2015-03-20T00:00:00,7,OKC,Oklahoma City,39-30,34,27,29,33,0,0,0,0,0,0,0,0,0,0,123,0.512,0.923,0.433,26,44,12,0021401026,1610612760,OKC,Oklahoma City,Kyle Singler,,,0:07,0.0,0.0,0.0,0.0,0.0,0.0,0.0,2.0,0.0,0.0,0.0,0.0
0021401026,1610612760,OKC,Oklahoma City,203103,Perry Jones III,,,5:34,148.4,88.9,59.5,0.0,0.0,0.0,0.0,0.0,0.0,0.0,1.0,1.0,0.102,76.57,0.129,2015-03-20T00:00:00,7,OKC,Oklahoma City,39-30,34,27,29,33,0,0,0,0,0,0,0,0,0,0,123,0.512,0.923,0.433,26,44,12,0021401026,1610612760,OKC,Oklahoma City,Perry Jones III,,,5:34,0.0,0.0,0.0,2.0,0.0,6.0,0.0,8.0,0.0,0.0,0.0,0.0
0021401026,1610612760,OKC,Oklahoma City,202683,Enes Kanter,,DND - Left Ankle Sprain                 ,,,,,,,0.0,,,,,,,0.0,,,2015-03-20T00:00:00,7,OKC,Oklahoma City,39-30,34,27,29,33,0,0,0,0,0,0,0,0,0,0,123,0.512,0.923,0.433,26,44,12,0021401026,1610612760,OKC,Oklahoma City,Enes Kanter,,DND - Left Ankle Sprain                 ,,,,,,,,,,,,,
0021401026,1610612760,OKC,Oklahoma City,203087,Jeremy Lamb,,DNP - Coach's Decision                  ,,,,,,,0.0,,,,,,,0.0,,,2015-03-20T00:00:00,7,OKC,Oklahoma City,39-30,34,27,29,33,0,0,0,0,0,0,0,0,0,0,123,0.512,0.923,0.433,26,44,12,0021401026,1610612760,OKC,Oklahoma City,Jeremy Lamb,,DNP - Coach's Decision                  ,,,,,,,,,,,,,
