GAME_ID_x,TEAM_ID_x,TEAM_ABBREVIATION_x,TEAM_CITY_x,PLAYER_ID,PLAYER_NAME_x,START_POSITION_x,COMMENT_x,MIN_x,OFF_RATING,DEF_RATING,NET_RATING,AST_PCT,AST_TOV,AST_RATIO,OREB_PCT,DREB_PCT,REB_PCT,TM_TOV_PCT,EFG_PCT,TS_PCT,USG_PCT,PACE,PIE,GAME_DATE_EST,GAME_SEQUENCE,TEAM_ABBREVIATION_y,TEAM_CITY_NAME,TEAM_WINS_LOSSES,PTS_QTR1,PTS_QTR2,PTS_QTR3,PTS_QTR4,PTS_OT1,PTS_OT2,PTS_OT3,PTS_OT4,PTS_OT5,PTS_OT6,PTS_OT7,PTS_OT8,PTS_OT9,PTS_OT10,PTS,FG_PCT,FT_PCT,FG3_PCT,AST,REB,TOV,GAME_ID_y,TEAM_ID_y,TEAM_ABBREVIATION,TEAM_CITY_y,PLAYER_NAME_y,START_POSITION_y,COMMENT_y,MIN_y,PTS_OFF_TOV,PTS_2ND_CHANCE,PTS_FB,PTS_PAINT,OPP_PTS_OFF_TOV,OPP_PTS_2ND_CHANCE,OPP_PTS_FB,OPP_PTS_PAINT,BLK,BLKA,PF,PFD
0021401038,1610612748,MIA,Miami,2736,Luol Deng,F,,27:35,91.8,99.8,-8.1,0.167,3.0,27.3,0.045,0.107,0.08,9.1,0.429,0.429,0.128,90.93,0.101,2015-03-22T00:00:00,2,MIA,Miami,32-37,21,17,20,17,0,0,0,0,0,0,0,0,0,0,75,0.395,0.533,0.167,13,41,18,0021401038,1610612748,MIA,Miami,Luol Deng,F,,27:35,2.0,0.0,0.0,2.0,16.0,9.0,11.0,34.0,0.0,0.0,0.0,0.0
0021401038,1610612748,MIA,Miami,2617,Udonis Haslem,F,,21:24,93.1,111.1,-18.0,0.0,0.0,0.0,0.133,0.263,0.206,20.0,0.375,0.375,0.223,90.03,0.082,2015-03-22T00:00:00,2,MIA,Miami,32-37,21,17,20,17,0,0,0,0,0,0,0,0,0,0,75,0.395,0.533,0.167,13,41,18,0021401038,1610612748,MIA,Miami,Udonis Haslem,F,,21:24,0.0,0.0,0.0,2.0,14.0,3.0,13.0,26.0,0.0,1.0,2.0,1.0
0021401038,1610612748,MIA,Miami,202355,Hassan Whiteside,C,,23:36,95.1,119.4,-24.3,0.0,0.0,0.0,0.15,0.174,0.163,0.0,0.833,0.683,0.186,92.22,0.108,2015-03-22T00:00:00,2,MIA,Miami,32-37,21,17,20,17,0,0,0,0,0,0,0,0,0,0,75,0.395,0.533,0.167,13,41,18,0021401038,1610612748,MIA,Miami,Hassan Whiteside,C,,23:36,2.0,5.0,0.0,10.0,11.0,9.0,13.0,36.0,3.0,1.0,6.0,5.0
0021401038,1610612748,MIA,Miami,2548,Dwyane Wade,G,,31:20,89.7,109.9,-20.2,0.222,1.33,17.5,0.0,0.061,0.034,13.1,0.4,0.378,0.268,94.49,0.06,2015-03-22T00:00:00,2,MIA,Miami,32-37,21,17,20,17,0,0,0,0,0,0,0,0,0,0,75,0.395,0.533,0.167,13,41,18,0021401038,1610612748,MIA,Miami,Dwyane Wade,G,,31:20,4.0,0.0,2.0,4.0,20.0,11.0,19.0,46.0,0.0,0.0,0.0,2.0
0021401038,1610612748,MIA,Miami,201609,Goran Dragic,G,,34:12,75.5,104.5,-29.0,0.167,1.5,18.4,0.031,0.121,0.077,12.3,0.45,0.53,0.173,97.32,0.102,2015-03-22T00:00:00,2,MIA,Miami,32-37,21,17,20,17,0,0,0,0,0,0,0,0,0,0,75,0.395,0.533,0.167,13,41,18,0021401038,1610612748,MIA,Miami,Goran Dragic,G,,34:12,0.0,0.0,3.0,6.0,24.0,15.0,16.0,42.0,0.0,1.0,2.0,3.0
0021401038,1610612748,MIA,Miami,201596,Mario Chalmers,,,33:37,76.9,98.4,-21.5,0.0,0.0,0.0,0.0,0.061,0.03,21.2,0.357,0.403,0.256,93.38,0.013,2015-03-22T00:00:00,2,MIA,Miami,32-37,21,17,20,17,0,0,0,0,0,0,0,0,0,0,75,0.395,0.533,0.167,13,41,18,0021401038,1610612748,MIA,Miami,Mario Chalmers,,,33:37,2.0,2.0,5.0,4.0,20.0,12.0,15.0,40.0,0.0,1.0,1.0,5.0
0021401038,1610612748,MIA,Miami,201563,Michael Beasley,,,19:28,68.5,89.8,-21.3,0.2,0.33,8.3,0.0,0.136,0.075,25.0,0.625,0.625,0.269,97.59,0.187,2015-03-22T00:00:00,2,MIA,Miami,32-37,21,17,20,17,0,0,0,0,0,0,0,0,0,0,75,0.395,0.533,0.167,13,41,18,0021401038,1610612748,MIA,Miami,Michael Beasley,,,19:28,2.0,0.0,0.0,8.0,12.0,12.0,8.0,20.0,2.0,0.0,2.0,0.0
0021401038,1610612748,MIA,Miami,2365,Chris Andersen,,,21:09,65.3,85.7,-20.4,0.1,1.0,12.5,0.227,0.048,0.14,12.5,0.333,0.333,0.142,97.18,0.093,2015-03-22T00:00:00,2,MIA,Miami,32-37,21,17,20,17,0,0,0,0,0,0,0,0,0,0,75,0.395,0.533,0.167,13,41,18,0021401038,1610612748,MIA,Miami,Chris Andersen,,,21:09,0.0,2.0,2.0,4.0,17.0,8.0,6.0,20.0,1.0,3.0,0.0,1.0
0021401038,1610612748,MIA,Miami,201611,Henry Walker,,,21:15,60.9,79.2,-18.3,0.0,0.0,0.0,0.038,0.12,0.078,14.3,0.0,0.0,0.131,99.94,-0.164,2015-03-22T00:00:00,2,MIA,Miami,32-37,21,17,20,17,0,0,0,0,0,0,0,0,0,0,75,0.395,0.533,0.167,13,41,18,0021401038,1610612748,MIA,Miami,Henry Walker,,,21:15,0.0,0.0,0.0,0.0,16.0,6.0,4.0,16.0,0.0,0.0,2.0,0.0
0021401038,1610612748,MIA,Miami,204020,Tyler Johnson,,,3:12,80.0,0.0,80.0,0.5,0.0,50.0,0.0,0.25,0.2,0.0,0.0,0.0,0.2,75.0,0.667,2015-03-22T00:00:00,2,MIA,Miami,32-37,21,17,20,17,0,0,0,0,0,0,0,0,0,0,75,0.395,0.533,0.167,13,41,18,0021401038,1610612748,MIA,Miami,Tyler Johnson,,,3:12,0.0,0.0,0.0,0.0,0.0,0.0,0.0,0.0,0.0,0.0,0.0,0.0
0021401038,1610612748,MIA,Miami,204054,Zoran Dragic,,,3:12,80.0,0.0,80.0,0.0,0.0,0.0,0.0,0.0,0.0,100.0,0.0,0.0,0.2,75.0,-0.667,2015-03-22T00:00:00,2,MIA,Miami,32-37,21,17,20,17,0,0,0,0,0,0,0,0,0,0,75,0.395,0.533,0.167,13,41,18,0021401038,1610612748,MIA,Miami,Zoran Dragic,,,3:12,0.0,0.0,0.0,0.0,0.0,0.0,0.0,0.0,0.0,0.0,0.0,0.0
0021401038,1610612748,MIA,Miami,203516,James Ennis III,,DNP - Coach's Decision                  ,,,,,,,0.0,,,,,,,0.0,,,2015-03-22T00:00:00,2,MIA,Miami,32-37,21,17,20,17,0,0,0,0,0,0,0,0,0,0,75,0.395,0.533,0.167,13,41,18,0021401038,1610612748,MIA,Miami,James Ennis III,,DNP - Coach's Decision                  ,,,,,,,,,,,,,
0021401038,1610612748,MIA,Miami,203894,Shabazz Napier,,DNP - Coach's Decision                  ,,,,,,,0.0,,,,,,,0.0,,,2015-03-22T00:00:00,2,MIA,Miami,32-37,21,17,20,17,0,0,0,0,0,0,0,0,0,0,75,0.395,0.533,0.167,13,41,18,0021401038,1610612748,MIA,Miami,Shabazz Napier,,DNP - Coach's Decision                  ,,,,,,,,,,,,,
0021401038,1610612760,OKC,Oklahoma City,203079,Dion Waiters,F,,32:45,98.7,83.6,15.1,0.136,1.5,17.9,0.0,0.103,0.048,11.9,0.45,0.425,0.179,92.51,0.024,2015-03-22T00:00:00,2,OKC,Oklahoma City,40-30,25,23,18,27,0,0,0,0,0,0,0,0,0,0,93,0.444,0.538,0.333,25,51,17,0021401038,1610612760,OKC,Oklahoma City,Dion Waiters,F,,32:45,2.0,0.0,5.0,4.0,8.0,5.0,7.0,24.0,0.0,2.0,3.0,2.0
0021401038,1610612760,OKC,Oklahoma City,202683,Enes Kanter,F,,34:25,101.8,85.8,15.9,0.0,0.0,0.0,0.182,0.194,0.188,8.6,0.6,0.633,0.292,92.22,0.269,2015-03-22T00:00:00,2,OKC,Oklahoma City,40-30,25,23,18,27,0,0,0,0,0,0,0,0,0,0,93,0.444,0.538,0.333,25,51,17,0021401038,1610612760,OKC,Oklahoma City,Enes Kanter,F,,34:25,8.0,8.0,2.0,18.0,8.0,7.0,7.0,28.0,0.0,4.0,2.0,3.0
0021401038,1610612760,OKC,Oklahoma City,203500,Steven Adams,C,,30:35,103.4,90.1,13.3,0.0,0.0,0.0,0.129,0.261,0.185,8.7,0.5,0.479,0.159,94.11,0.082,2015-03-22T00:00:00,2,OKC,Oklahoma City,40-30,25,23,18,27,0,0,0,0,0,0,0,0,0,0,93,0.444,0.538,0.333,25,51,17,0021401038,1610612760,OKC,Oklahoma City,Steven Adams,C,,30:35,0.0,0.0,2.0,10.0,10.0,7.0,9.0,26.0,1.0,0.0,4.0,2.0
0021401038,1610612760,OKC,Oklahoma City,203460,Andre Roberson,G,,1:29,34.7,200.0,-165.3,0.0,0.0,0.0,0.0,0.0,0.0,0.0,0.0,0.0,0.0,95.14,0.0,2015-03-22T00:00:00,2,OKC,Oklahoma City,40-30,25,23,18,27,0,0,0,0,0,0,0,0,0,0,93,0.444,0.538,0.333,25,51,17,0021401038,1610612760,OKC,Oklahoma City,Andre Roberson,G,,1:29,0.0,0.0,0.0,0.0,4.0,0.0,2.0,4.0,0.0,0.0,0.0,0.0
0021401038,1610612760,OKC,Oklahoma City,201566,Russell Westbrook,G,,33:56,103.1,85.8,17.2,0.654,3.4,43.7,0.091,0.194,0.141,12.9,0.344,0.355,0.27,93.61,0.221,2015-03-22T00:00:00,2,OKC,Oklahoma City,40-30,25,23,18,27,0,0,0,0,0,0,0,0,0,0,93,0.444,0.538,0.333,25,51,17,0021401038,1610612760,OKC,Oklahoma City,Russell Westbrook,G,,33:56,6.0,1.0,4.0,8.0,10.0,9.0,6.0,30.0,2.0,0.0,3.0,3.0
0021401038,1610612760,OKC,Oklahoma City,201627,Anthony Morrow,,,29:30,111.6,68.0,43.5,0.04,1.0,7.7,0.037,0.029,0.032,7.7,0.545,0.545,0.159,101.99,0.092,2015-03-22T00:00:00,2,OKC,Oklahoma City,40-30,25,23,18,27,0,0,0,0,0,0,0,0,0,0,93,0.444,0.538,0.333,25,51,17,0021401038,1610612760,OKC,Oklahoma City,Anthony Morrow,,,29:30,8.0,4.0,2.0,4.0,2.0,3.0,8.0,22.0,1.0,0.0,2.0,2.0
0021401038,1610612760,OKC,Oklahoma City,203956,Mitch McGary,,,25:32,95.0,67.6,27.4,0.067,0.33,6.1,0.143,0.16,0.151,18.4,0.545,0.568,0.23,95.39,0.226,2015-03-22T00:00:00,2,OKC,Oklahoma City,40-30,25,23,18,27,0,0,0,0,0,0,0,0,0,0,93,0.444,0.538,0.333,25,51,17,0021401038,1610612760,OKC,Oklahoma City,Mitch McGary,,,25:32,6.0,4.0,6.0,10.0,4.0,4.0,8.0,22.0,2.0,0.0,2.0,2.0
0021401038,1610612760,OKC,Oklahoma City,201571,D.J. Augustin,,,24:08,100.7,74.5,26.2,0.1,0.67,16.7,0.08,0.091,0.085,25.0,0.214,0.214,0.165,96.07,-0.025,2015-03-22T00:00:00,2,OKC,Oklahoma City,40-30,25,23,18,27,0,0,0,0,0,0,0,0,0,0,93,0.444,0.538,0.333,25,51,17,0021401038,1610612760,OKC,Oklahoma City,D.J. Augustin,,,24:08,0.0,0.0,0.0,0.0,6.0,6.0,8.0,24.0,1.0,0.0,1.0,1.0
0021401038,1610612760,OKC,Oklahoma City,202713,Kyle Singler,,,15:28,88.7,84.7,3.9,0.1,0.0,50.0,0.0,0.0,0.0,0.0,1.0,1.0,0.027,87.7,0.175,2015-03-22T00:00:00,2,OKC,Oklahoma City,40-30,25,23,18,27,0,0,0,0,0,0,0,0,0,0,93,0.444,0.538,0.333,25,51,17,0021401038,1610612760,OKC,Oklahoma City,Kyle Singler,,,15:28,0.0,0.0,0.0,2.0,2.0,4.0,5.0,12.0,0.0,0.0,0.0,0.0
0021401038,1610612760,OKC,Oklahoma City,200779,Steve Novak,,,5:28,63.6,50.0,13.6,0.0,0.0,0.0,0.167,0.143,0.154,0.0,1.5,1.5,0.077,100.98,0.6,2015-03-22T00:00:00,2,OKC,Oklahoma City,40-30,25,23,18,27,0,0,0,0,0,0,0,0,0,0,93,0.444,0.538,0.333,25,51,17,0021401038,1610612760,OKC,Oklahoma City,Steve Novak,,,5:28,0.0,0.0,0.0,0.0,2.0,0.0,0.0,4.0,0.0,0.0,0.0,0.0
0021401038,1610612760,OKC,Oklahoma City,203087,Jeremy Lamb,,,3:32,33.3,66.7,-33.3,0.0,0.0,0.0,0.0,1.0,0.167,0.0,0.0,0.0,0.143,81.51,0.0,2015-03-22T00:00:00,2,OKC,Oklahoma City,40-30,25,23,18,27,0,0,0,0,0,0,0,0,0,0,93,0.444,0.538,0.333,25,51,17,0021401038,1610612760,OKC,Oklahoma City,Jeremy Lamb,,,3:32,0.0,0.0,0.0,0.0,2.0,0.0,0.0,2.0,0.0,0.0,0.0,0.0
0021401038,1610612760,OKC,Oklahoma City,203103,Perry Jones III,,,3:12,0.0,80.0,-80.0,0.0,0.0,0.0,0.0,0.0,0.0,0.0,0.0,0.0,0.333,75.0,-0.667,2015-03-22T00:00:00,2,OKC,Oklahoma City,40-30,25,23,18,27,0,0,0,0,0,0,0,0,0,0,93,0.444,0.538,0.333,25,51,17,0021401038,1610612760,OKC,Oklahoma City,Perry Jones III,,,3:12,0.0,0.0,0.0,0.0,2.0,0.0,0.0,2.0,0.0,0.0,0.0,0.0
0021401038,1610612760,OKC,Oklahoma City,2555,Nick Collison,,DND - Left Ankle Sprain                 ,,,,,,,0.0,,,,,,,0.0,,,2015-03-22T00:00:00,2,OKC,Oklahoma City,40-30,25,23,18,27,0,0,0,0,0,0,0,0,0,0,93,0.444,0.538,0.333,25,51,17,0021401038,1610612760,OKC,Oklahoma City,Nick Collison,,DND - Left Ankle Sprain                 ,,,,,,,,,,,,,
