GAME_ID_x,TEAM_ID_x,TEAM_ABBREVIATION_x,TEAM_CITY_x,PLAYER_ID,PLAYER_NAME_x,START_POSITION_x,COMMENT_x,MIN_x,OFF_RATING,DEF_RATING,NET_RATING,AST_PCT,AST_TOV,AST_RATIO,OREB_PCT,DREB_PCT,REB_PCT,TM_TOV_PCT,EFG_PCT,TS_PCT,USG_PCT,PACE,PIE,GAME_DATE_EST,GAME_SEQUENCE,TEAM_ABBREVIATION_y,TEAM_CITY_NAME,TEAM_WINS_LOSSES,PTS_QTR1,PTS_QTR2,PTS_QTR3,PTS_QTR4,PTS_OT1,PTS_OT2,PTS_OT3,PTS_OT4,PTS_OT5,PTS_OT6,PTS_OT7,PTS_OT8,PTS_OT9,PTS_OT10,PTS,FG_PCT,FT_PCT,FG3_PCT,AST,REB,TOV,GAME_ID_y,TEAM_ID_y,TEAM_ABBREVIATION,TEAM_CITY_y,PLAYER_NAME_y,START_POSITION_y,COMMENT_y,MIN_y,PTS_OFF_TOV,PTS_2ND_CHANCE,PTS_FB,PTS_PAINT,OPP_PTS_OFF_TOV,OPP_PTS_2ND_CHANCE,OPP_PTS_FB,OPP_PTS_PAINT,BLK,BLKA,PF,PFD
0021401043,1610612765,DET,Detroit,2406,Caron Butler,F,,28:05,108.0,105.9,2.2,0.059,0.5,9.6,0.0,0.063,0.032,19.2,0.786,0.806,0.158,87.91,0.077,2015-03-22T00:00:00,7,DET,Detroit,26-44,26,15,22,25,17,0,0,0,0,0,0,0,0,0,105,0.438,0.6,0.346,24,56,14,0021401043,1610612765,DET,Detroit,Caron Butler,F,,28:05,0.0,0.0,7.0,0.0,6.0,13.0,1.0,20.0,0.0,0.0,3.0,1.0
0021401043,1610612765,DET,Detroit,201229,Anthony Tolliver,F,,24:47,104.7,113.4,-8.6,0.15,0.0,30.0,0.036,0.05,0.042,0.0,0.0,0.0,0.116,96.83,-0.042,2015-03-22T00:00:00,7,DET,Detroit,26-44,26,15,22,25,17,0,0,0,0,0,0,0,0,0,105,0.438,0.6,0.346,24,56,14,0021401043,1610612765,DET,Detroit,Anthony Tolliver,F,,24:47,0.0,0.0,0.0,0.0,7.0,8.0,2.0,18.0,1.0,2.0,2.0,0.0
0021401043,1610612765,DET,Detroit,203083,Andre Drummond,C,,40:12,99.2,82.6,16.5,0.091,0.0,8.4,0.19,0.304,0.25,0.0,0.471,0.412,0.238,97.3,0.151,2015-03-22T00:00:00,7,DET,Detroit,26-44,26,15,22,25,17,0,0,0,0,0,0,0,0,0,105,0.438,0.6,0.346,24,56,14,0021401043,1610612765,DET,Detroit,Andre Drummond,C,,40:12,2.0,6.0,0.0,16.0,7.0,9.0,3.0,22.0,4.0,1.0,4.0,8.0
0021401043,1610612765,DET,Detroit,203484,Kentavious Caldwell-Pope,G,,44:19,99.5,84.5,15.0,0.043,0.25,3.7,0.047,0.122,0.087,14.9,0.575,0.62,0.262,98.4,0.152,2015-03-22T00:00:00,7,DET,Detroit,26-44,26,15,22,25,17,0,0,0,0,0,0,0,0,0,105,0.438,0.6,0.346,24,56,14,0021401043,1610612765,DET,Detroit,Kentavious Caldwell-Pope,G,,44:19,4.0,0.0,6.0,8.0,9.0,8.0,3.0,32.0,0.0,1.0,2.0,3.0
0021401043,1610612765,DET,Detroit,202704,Reggie Jackson,G,,37:03,111.5,94.2,17.3,0.44,2.75,34.9,0.0,0.243,0.122,12.7,0.385,0.515,0.24,96.34,0.163,2015-03-22T00:00:00,7,DET,Detroit,26-44,26,15,22,25,17,0,0,0,0,0,0,0,0,0,105,0.438,0.6,0.346,24,56,14,0021401043,1610612765,DET,Detroit,Reggie Jackson,G,,37:03,0.0,2.0,0.0,8.0,7.0,8.0,4.0,26.0,1.0,1.0,4.0,7.0
0021401043,1610612765,DET,Detroit,201975,Jodie Meeks,,,33:35,94.0,86.3,7.7,0.0,0.0,0.0,0.0,0.111,0.066,9.3,0.688,0.717,0.147,99.98,0.135,2015-03-22T00:00:00,7,DET,Detroit,26-44,26,15,22,25,17,0,0,0,0,0,0,0,0,0,105,0.438,0.6,0.346,24,56,14,0021401043,1610612765,DET,Detroit,Jodie Meeks,,,33:35,0.0,2.0,2.0,4.0,7.0,15.0,4.0,32.0,0.0,0.0,0.0,3.0
0021401043,1610612765,DET,Detroit,203915,Spencer Dinwiddie,,,15:58,72.7,81.3,-8.6,0.667,1.33,33.3,0.0,0.115,0.073,25.0,0.6,0.6,0.253,97.48,0.205,2015-03-22T00:00:00,7,DET,Detroit,26-44,26,15,22,25,17,0,0,0,0,0,0,0,0,0,105,0.438,0.6,0.346,24,56,14,0021401043,1610612765,DET,Detroit,Spencer Dinwiddie,,,15:58,0.0,0.0,0.0,4.0,4.0,10.0,0.0,16.0,2.0,0.0,3.0,0.0
0021401043,1610612765,DET,Detroit,2419,Tayshaun Prince,,,29:08,97.8,77.5,20.4,0.125,0.0,16.8,0.0,0.068,0.044,0.0,0.444,0.455,0.17,98.2,0.081,2015-03-22T00:00:00,7,DET,Detroit,26-44,26,15,22,25,17,0,0,0,0,0,0,0,0,0,105,0.438,0.6,0.346,24,56,14,0021401043,1610612765,DET,Detroit,Tayshaun Prince,,,29:08,0.0,0.0,0.0,2.0,4.0,12.0,3.0,30.0,0.0,0.0,2.0,1.0
0021401043,1610612765,DET,Detroit,201202,Joel Anthony,,,11:53,96.0,103.2,-7.2,0.0,0.0,0.0,0.0,0.125,0.077,0.0,0.333,0.333,0.137,87.25,0.047,2015-03-22T00:00:00,7,DET,Detroit,26-44,26,15,22,25,17,0,0,0,0,0,0,0,0,0,105,0.438,0.6,0.346,24,56,14,0021401043,1610612765,DET,Detroit,Joel Anthony,,,11:53,0.0,0.0,0.0,2.0,4.0,7.0,0.0,14.0,2.0,0.0,1.0,0.0
0021401043,1610612765,DET,Detroit,101249,John Lucas III,,DNP - Coach's Decision                  ,,,,,,,0.0,,,,,,,0.0,,,2015-03-22T00:00:00,7,DET,Detroit,26-44,26,15,22,25,17,0,0,0,0,0,0,0,0,0,105,0.438,0.6,0.346,24,56,14,0021401043,1610612765,DET,Detroit,John Lucas III,,DNP - Coach's Decision                  ,,,,,,,,,,,,,
0021401043,1610612765,DET,Detroit,201858,Cartier Martin,,DNP - Coach's Decision                  ,,,,,,,0.0,,,,,,,0.0,,,2015-03-22T00:00:00,7,DET,Detroit,26-44,26,15,22,25,17,0,0,0,0,0,0,0,0,0,105,0.438,0.6,0.346,24,56,14,0021401043,1610612765,DET,Detroit,Cartier Martin,,DNP - Coach's Decision                  ,,,,,,,,,,,,,
0021401043,1610612765,DET,Detroit,203113,Quincy Miller,,DNP - Coach's Decision                  ,,,,,,,0.0,,,,,,,0.0,,,2015-03-22T00:00:00,7,DET,Detroit,26-44,26,15,22,25,17,0,0,0,0,0,0,0,0,0,105,0.438,0.6,0.346,24,56,14,0021401043,1610612765,DET,Detroit,Quincy Miller,,DNP - Coach's Decision                  ,,,,,,,,,,,,,
0021401043,1610612765,DET,Detroit,200761,Shawne Williams,,NWT - Illness                           ,,,,,,,0.0,,,,,,,0.0,,,2015-03-22T00:00:00,7,DET,Detroit,26-44,26,15,22,25,17,0,0,0,0,0,0,0,0,0,105,0.438,0.6,0.346,24,56,14,0021401043,1610612765,DET,Detroit,Shawne Williams,,NWT - Illness                           ,,,,,,,,,,,,,
0021401043,1610612738,BOS,Boston,203109,Jae Crowder,F,,44:35,96.0,104.4,-8.4,0.111,3.0,13.5,0.019,0.143,0.074,4.5,0.469,0.522,0.184,96.21,0.097,2015-03-22T00:00:00,7,BOS,Boston,30-39,23,24,22,19,9,0,0,0,0,0,0,0,0,0,97,0.362,0.765,0.296,24,59,13,0021401043,1610612738,BOS,Boston,Jae Crowder,F,,44:35,4.0,5.0,1.0,10.0,4.0,8.0,11.0,38.0,1.0,2.0,4.0,4.0
0021401043,1610612738,BOS,Boston,101138,Brandon Bass,F,,34:41,101.1,109.7,-8.6,0.0,0.0,0.0,0.125,0.143,0.134,11.5,0.433,0.421,0.245,92.48,0.047,2015-03-22T00:00:00,7,BOS,Boston,30-39,23,24,22,19,9,0,0,0,0,0,0,0,0,0,97,0.362,0.765,0.296,24,59,13,0021401043,1610612738,BOS,Boston,Brandon Bass,F,,34:41,5.0,0.0,2.0,6.0,2.0,6.0,13.0,30.0,2.0,0.0,3.0,2.0
0021401043,1610612738,BOS,Boston,203092,Tyler Zeller,C,,19:57,82.7,122.5,-39.7,0.091,0.0,8.4,0.087,0.133,0.105,0.0,0.4,0.46,0.232,98.11,0.075,2015-03-22T00:00:00,7,BOS,Boston,30-39,23,24,22,19,9,0,0,0,0,0,0,0,0,0,97,0.362,0.765,0.296,24,59,13,0021401043,1610612738,BOS,Boston,Tyler Zeller,C,,19:57,0.0,0.0,0.0,6.0,4.0,8.0,6.0,26.0,0.0,1.0,3.0,2.0
0021401043,1610612738,BOS,Boston,202340,Avery Bradley,G,,37:52,95.6,109.2,-13.5,0.16,1.33,22.4,0.027,0.083,0.055,16.8,0.4,0.46,0.169,95.32,0.043,2015-03-22T00:00:00,7,BOS,Boston,30-39,23,24,22,19,9,0,0,0,0,0,0,0,0,0,97,0.362,0.765,0.296,24,59,13,0021401043,1610612738,BOS,Boston,Avery Bradley,G,,37:52,0.0,3.0,0.0,0.0,4.0,8.0,13.0,32.0,0.0,0.0,3.0,2.0
0021401043,1610612738,BOS,Boston,202323,Evan Turner,G,,38:40,95.8,111.7,-15.9,0.4,4.0,25.1,0.0,0.162,0.077,6.3,0.524,0.526,0.265,94.72,0.194,2015-03-22T00:00:00,7,BOS,Boston,30-39,23,24,22,19,9,0,0,0,0,0,0,0,0,0,97,0.362,0.765,0.296,24,59,13,0021401043,1610612738,BOS,Boston,Evan Turner,G,,38:40,2.0,0.0,1.0,12.0,4.0,8.0,13.0,34.0,0.0,2.0,2.0,5.0
0021401043,1610612738,BOS,Boston,203482,Kelly Olynyk,,,28:42,86.9,71.2,15.7,0.294,2.5,29.6,0.057,0.2,0.129,11.8,0.111,0.202,0.175,93.78,0.089,2015-03-22T00:00:00,7,BOS,Boston,30-39,23,24,22,19,9,0,0,0,0,0,0,0,0,0,97,0.362,0.765,0.296,24,59,13,0021401043,1610612738,BOS,Boston,Kelly Olynyk,,,28:42,0.0,0.0,0.0,2.0,2.0,2.0,7.0,14.0,2.0,2.0,2.0,2.0
0021401043,1610612738,BOS,Boston,203540,Gigi Datome,,,5:23,109.4,64.3,45.1,0.0,0.0,0.0,0.0,0.0,0.0,100.0,0.0,0.0,0.078,101.63,-0.063,2015-03-22T00:00:00,7,BOS,Boston,30-39,23,24,22,19,9,0,0,0,0,0,0,0,0,0,97,0.362,0.765,0.296,24,59,13,0021401043,1610612738,BOS,Boston,Gigi Datome,,,5:23,0.0,0.0,0.0,0.0,2.0,2.0,2.0,4.0,0.0,0.0,0.0,0.0
0021401043,1610612738,BOS,Boston,203515,Phil Pressey,,,14:30,72.8,75.6,-2.7,0.286,2.0,22.5,0.0,0.133,0.054,11.3,0.2,0.255,0.19,102.52,0.0,2015-03-22T00:00:00,7,BOS,Boston,30-39,23,24,22,19,9,0,0,0,0,0,0,0,0,0,97,0.362,0.765,0.296,24,59,13,0021401043,1610612738,BOS,Boston,Phil Pressey,,,14:30,0.0,0.0,0.0,0.0,2.0,2.0,2.0,10.0,0.0,3.0,1.0,2.0
0021401043,1610612738,BOS,Boston,201973,Jonas Jerebko,,,21:13,85.0,94.8,-9.9,0.0,0.0,0.0,0.147,0.222,0.173,0.0,0.375,0.402,0.207,102.17,0.087,2015-03-22T00:00:00,7,BOS,Boston,30-39,23,24,22,19,9,0,0,0,0,0,0,0,0,0,97,0.362,0.765,0.296,24,59,13,0021401043,1610612738,BOS,Boston,Jonas Jerebko,,,21:13,0.0,5.0,0.0,4.0,4.0,4.0,4.0,16.0,0.0,0.0,4.0,2.0
0021401043,1610612738,BOS,Boston,2222,Gerald Wallace,,,12:38,74.4,72.9,1.5,0.167,0.0,25.0,0.13,0.385,0.222,0.0,0.333,0.333,0.085,87.68,0.361,2015-03-22T00:00:00,7,BOS,Boston,30-39,23,24,22,19,9,0,0,0,0,0,0,0,0,0,97,0.362,0.765,0.296,24,59,13,0021401043,1610612738,BOS,Boston,Gerald Wallace,,,12:38,0.0,2.0,0.0,2.0,0.0,0.0,2.0,10.0,0.0,0.0,1.0,0.0
0021401043,1610612738,BOS,Boston,203923,James Young,,,6:50,52.9,92.6,-39.7,0.0,0.0,0.0,0.0,0.143,0.056,20.0,0.375,0.375,0.25,116.6,0.053,2015-03-22T00:00:00,7,BOS,Boston,30-39,23,24,22,19,9,0,0,0,0,0,0,0,0,0,97,0.362,0.765,0.296,24,59,13,0021401043,1610612738,BOS,Boston,James Young,,,6:50,0.0,3.0,0.0,0.0,2.0,2.0,2.0,6.0,0.0,0.0,0.0,0.0
0021401043,1610612738,BOS,Boston,101183,Shavlik Randolph,,DNP - Coach's Decision                  ,,,,,,,0.0,,,,,,,0.0,,,2015-03-22T00:00:00,7,BOS,Boston,30-39,23,24,22,19,9,0,0,0,0,0,0,0,0,0,97,0.362,0.765,0.296,24,59,13,0021401043,1610612738,BOS,Boston,Shavlik Randolph,,DNP - Coach's Decision                  ,,,,,,,,,,,,,
0021401043,1610612738,BOS,Boston,203935,Marcus Smart,,NWT - NBA Suspension                    ,,,,,,,0.0,,,,,,,0.0,,,2015-03-22T00:00:00,7,BOS,Boston,30-39,23,24,22,19,9,0,0,0,0,0,0,0,0,0,97,0.362,0.765,0.296,24,59,13,0021401043,1610612738,BOS,Boston,Marcus Smart,,NWT - NBA Suspension                    ,,,,,,,,,,,,,
