GAME_ID_x,TEAM_ID_x,TEAM_ABBREVIATION_x,TEAM_CITY_x,PLAYER_ID,PLAYER_NAME_x,START_POSITION_x,COMMENT_x,MIN_x,OFF_RATING,DEF_RATING,NET_RATING,AST_PCT,AST_TOV,AST_RATIO,OREB_PCT,DREB_PCT,REB_PCT,TM_TOV_PCT,EFG_PCT,TS_PCT,USG_PCT,PACE,PIE,GAME_DATE_EST,GAME_SEQUENCE,TEAM_ABBREVIATION_y,TEAM_CITY_NAME,TEAM_WINS_LOSSES,PTS_QTR1,PTS_QTR2,PTS_QTR3,PTS_QTR4,PTS_OT1,PTS_OT2,PTS_OT3,PTS_OT4,PTS_OT5,PTS_OT6,PTS_OT7,PTS_OT8,PTS_OT9,PTS_OT10,PTS,FG_PCT,FT_PCT,FG3_PCT,AST,REB,TOV,GAME_ID_y,TEAM_ID_y,TEAM_ABBREVIATION,TEAM_CITY_y,PLAYER_NAME_y,START_POSITION_y,COMMENT_y,MIN_y,PTS_OFF_TOV,PTS_2ND_CHANCE,PTS_FB,PTS_PAINT,OPP_PTS_OFF_TOV,OPP_PTS_2ND_CHANCE,OPP_PTS_FB,OPP_PTS_PAINT,BLK,BLKA,PF,PFD
0021401055,1610612748,MIA,Miami,2736,Luol Deng,F,,34:32,100.4,96.7,3.7,0.1,0.0,13.4,0.0,0.111,0.06,0.0,0.5,0.505,0.172,95.91,0.081,2015-03-24T00:00:00,2,MIA,Miami,32-38,27,24,28,9,0,0,0,0,0,0,0,0,0,0,88,0.44,0.778,0.421,18,34,18,0021401055,1610612748,MIA,Miami,Luol Deng,F,,34:32,2.0,0.0,2.0,4.0,15.0,19.0,6.0,34.0,0.0,1.0,2.0,2.0
0021401055,1610612748,MIA,Miami,2617,Udonis Haslem,F,,15:35,85.2,81.6,3.6,0.111,1.0,20.0,0.0,0.0,0.0,20.0,0.0,0.0,0.123,97.95,-0.242,2015-03-24T00:00:00,2,MIA,Miami,32-38,27,24,28,9,0,0,0,0,0,0,0,0,0,0,88,0.44,0.778,0.421,18,34,18,0021401055,1610612748,MIA,Miami,Udonis Haslem,F,,15:35,0.0,0.0,0.0,0.0,9.0,6.0,4.0,12.0,1.0,2.0,5.0,1.0
0021401055,1610612748,MIA,Miami,202355,Hassan Whiteside,C,,12:01,99.7,95.2,4.4,0.0,0.0,0.0,0.333,0.4,0.364,11.8,0.429,0.47,0.312,96.43,0.261,2015-03-24T00:00:00,2,MIA,Miami,32-38,27,24,28,9,0,0,0,0,0,0,0,0,0,0,88,0.44,0.778,0.421,18,34,18,0021401055,1610612748,MIA,Miami,Hassan Whiteside,C,,12:01,0.0,5.0,0.0,6.0,3.0,7.0,0.0,14.0,2.0,2.0,1.0,1.0
0021401055,1610612748,MIA,Miami,2548,Dwyane Wade,G,,30:50,80.2,100.4,-20.2,0.4,0.8,15.3,0.0,0.077,0.035,19.2,0.536,0.615,0.341,95.4,0.173,2015-03-24T00:00:00,2,MIA,Miami,32-38,27,24,28,9,0,0,0,0,0,0,0,0,0,0,88,0.44,0.778,0.421,18,34,18,0021401055,1610612748,MIA,Miami,Dwyane Wade,G,,30:50,4.0,0.0,0.0,6.0,17.0,14.0,6.0,30.0,0.0,0.0,1.0,3.0
0021401055,1610612748,MIA,Miami,201609,Goran Dragic,G,,40:10,99.4,89.1,10.3,0.261,2.0,26.9,0.0,0.075,0.042,13.4,0.625,0.601,0.189,95.72,0.139,2015-03-24T00:00:00,2,MIA,Miami,32-38,27,24,28,9,0,0,0,0,0,0,0,0,0,0,88,0.44,0.778,0.421,18,34,18,0021401055,1610612748,MIA,Miami,Goran Dragic,G,,40:10,3.0,2.0,3.0,10.0,20.0,19.0,8.0,34.0,0.0,1.0,2.0,9.0
0021401055,1610612748,MIA,Miami,201611,Henry Walker,,,26:48,98.1,86.4,11.7,0.0,0.0,0.0,0.0,0.129,0.077,33.3,1.125,1.125,0.107,94.36,0.134,2015-03-24T00:00:00,2,MIA,Miami,32-38,27,24,28,9,0,0,0,0,0,0,0,0,0,0,88,0.44,0.778,0.421,18,34,18,0021401055,1610612748,MIA,Miami,Henry Walker,,,26:48,0.0,0.0,0.0,0.0,11.0,10.0,8.0,30.0,0.0,1.0,2.0,1.0
0021401055,1610612748,MIA,Miami,201596,Mario Chalmers,,,26:59,97.6,89.5,8.2,0.125,1.0,12.3,0.053,0.0,0.022,12.3,0.45,0.574,0.244,94.97,0.109,2015-03-24T00:00:00,2,MIA,Miami,32-38,27,24,28,9,0,0,0,0,0,0,0,0,0,0,88,0.44,0.778,0.421,18,34,18,0021401055,1610612748,MIA,Miami,Mario Chalmers,,,26:59,8.0,0.0,2.0,6.0,14.0,11.0,10.0,28.0,0.0,0.0,4.0,3.0
0021401055,1610612748,MIA,Miami,2365,Chris Andersen,,,26:23,99.8,99.8,0.0,0.105,0.67,22.2,0.1,0.148,0.128,33.3,0.5,0.5,0.125,92.93,0.06,2015-03-24T00:00:00,2,MIA,Miami,32-38,27,24,28,9,0,0,0,0,0,0,0,0,0,0,88,0.44,0.778,0.421,18,34,18,0021401055,1610612748,MIA,Miami,Chris Andersen,,,26:23,0.0,0.0,0.0,2.0,12.0,10.0,8.0,24.0,1.0,1.0,1.0,2.0
0021401055,1610612748,MIA,Miami,201563,Michael Beasley,,,26:42,70.8,97.3,-26.4,0.071,1.0,9.1,0.04,0.25,0.133,9.1,0.222,0.222,0.171,94.43,0.024,2015-03-24T00:00:00,2,MIA,Miami,32-38,27,24,28,9,0,0,0,0,0,0,0,0,0,0,88,0.44,0.778,0.421,18,34,18,0021401055,1610612748,MIA,Miami,Michael Beasley,,,26:42,2.0,0.0,0.0,4.0,19.0,9.0,10.0,24.0,0.0,1.0,2.0,1.0
0021401055,1610612748,MIA,Miami,204054,Zoran Dragic,,DNP - Coach's Decision                  ,,,,,,,0.0,,,,,,,0.0,,,2015-03-24T00:00:00,2,MIA,Miami,32-38,27,24,28,9,0,0,0,0,0,0,0,0,0,0,88,0.44,0.778,0.421,18,34,18,0021401055,1610612748,MIA,Miami,Zoran Dragic,,DNP - Coach's Decision                  ,,,,,,,,,,,,,
0021401055,1610612748,MIA,Miami,203516,James Ennis III,,DNP - Coach's Decision                  ,,,,,,,0.0,,,,,,,0.0,,,2015-03-24T00:00:00,2,MIA,Miami,32-38,27,24,28,9,0,0,0,0,0,0,0,0,0,0,88,0.44,0.778,0.421,18,34,18,0021401055,1610612748,MIA,Miami,James Ennis III,,DNP - Coach's Decision                  ,,,,,,,,,,,,,
0021401055,1610612748,MIA,Miami,204020,Tyler Johnson,,DNP - Coach's Decision                  ,,,,,,,0.0,,,,,,,0.0,,,2015-03-24T00:00:00,2,MIA,Miami,32-38,27,24,28,9,0,0,0,0,0,0,0,0,0,0,88,0.44,0.778,0.421,18,34,18,0021401055,1610612748,MIA,Miami,Tyler Johnson,,DNP - Coach's Decision                  ,,,,,,,,,,,,,
0021401055,1610612748,MIA,Miami,203894,Shabazz Napier,,DNP - Coach's Decision                  ,,,,,,,0.0,,,,,,,0.0,,,2015-03-24T00:00:00,2,MIA,Miami,32-38,27,24,28,9,0,0,0,0,0,0,0,0,0,0,88,0.44,0.778,0.421,18,34,18,0021401055,1610612748,MIA,Miami,Shabazz Napier,,DNP - Coach's Decision                  ,,,,,,,,,,,,,
0021401055,1610612749,MIL,Milwaukee,203507,Giannis Antetokounmpo,F,,39:11,97.2,84.8,12.4,0.087,0.33,10.1,0.029,0.281,0.152,30.4,0.6,0.68,0.193,94.33,0.138,2015-03-24T00:00:00,2,MIL,Milwaukee,35-36,22,27,16,24,0,0,0,0,0,0,0,0,0,0,89,0.414,0.765,0.235,25,53,20,0021401055,1610612749,MIL,Milwaukee,Giannis Antetokounmpo,F,,39:11,4.0,2.0,4.0,8.0,13.0,0.0,3.0,26.0,3.0,0.0,4.0,2.0
0021401055,1610612749,MIL,Milwaukee,101141,Ersan Ilyasova,F,,28:34,92.5,94.7,-2.2,0.133,2.0,10.1,0.143,0.259,0.2,5.1,0.533,0.567,0.252,96.99,0.247,2015-03-24T00:00:00,2,MIL,Milwaukee,35-36,22,27,16,24,0,0,0,0,0,0,0,0,0,0,89,0.414,0.765,0.235,25,53,20,0021401055,1610612749,MIL,Milwaukee,Ersan Ilyasova,F,,28:34,5.0,5.0,0.0,8.0,14.0,7.0,4.0,24.0,3.0,0.0,3.0,5.0
0021401055,1610612749,MIL,Milwaukee,2585,Zaza Pachulia,C,,33:13,106.2,81.0,25.2,0.304,2.33,31.4,0.2,0.194,0.196,13.4,0.545,0.568,0.197,95.57,0.217,2015-03-24T00:00:00,2,MIL,Milwaukee,35-36,22,27,16,24,0,0,0,0,0,0,0,0,0,0,89,0.414,0.765,0.235,25,53,20,0021401055,1610612749,MIL,Milwaukee,Zaza Pachulia,C,,33:13,6.0,4.0,2.0,10.0,13.0,2.0,5.0,20.0,1.0,0.0,3.0,4.0
0021401055,1610612749,MIL,Milwaukee,203114,Khris Middleton,G,,39:05,92.0,94.1,-2.2,0.08,1.0,9.1,0.027,0.083,0.055,9.1,0.353,0.364,0.211,95.03,0.014,2015-03-24T00:00:00,2,MIL,Milwaukee,35-36,22,27,16,24,0,0,0,0,0,0,0,0,0,0,89,0.414,0.765,0.235,25,53,20,0021401055,1610612749,MIL,Milwaukee,Khris Middleton,G,,39:05,7.0,4.0,0.0,2.0,17.0,7.0,7.0,28.0,0.0,0.0,2.0,1.0
0021401055,1610612749,MIL,Milwaukee,203487,Michael Carter-Williams,G,,26:06,96.7,85.6,11.1,0.222,0.67,26.9,0.0,0.13,0.073,40.3,0.25,0.41,0.188,94.83,-0.061,2015-03-24T00:00:00,2,MIL,Milwaukee,35-36,22,27,16,24,0,0,0,0,0,0,0,0,0,0,89,0.414,0.765,0.235,25,53,20,0021401055,1610612749,MIL,Milwaukee,Michael Carter-Williams,G,,26:06,0.0,0.0,2.0,2.0,9.0,5.0,5.0,20.0,0.0,1.0,6.0,4.0
0021401055,1610612749,MIL,Milwaukee,201573,Jerryd Bayless,,,36:31,88.7,92.0,-3.3,0.217,5.0,26.3,0.049,0.094,0.068,5.3,0.385,0.385,0.153,96.03,0.108,2015-03-24T00:00:00,2,MIL,Milwaukee,35-36,22,27,16,24,0,0,0,0,0,0,0,0,0,0,89,0.414,0.765,0.235,25,53,20,0021401055,1610612749,MIL,Milwaukee,Jerryd Bayless,,,36:31,2.0,2.0,2.0,4.0,14.0,7.0,4.0,30.0,1.0,3.0,2.0,1.0
0021401055,1610612749,MIL,Milwaukee,203089,John Henson,,,11:37,70.7,135.4,-64.7,0.25,0.0,14.5,0.167,0.0,0.13,0.0,0.4,0.425,0.186,95.61,0.056,2015-03-24T00:00:00,2,MIL,Milwaukee,35-36,22,27,16,24,0,0,0,0,0,0,0,0,0,0,89,0.414,0.765,0.235,25,53,20,0021401055,1610612749,MIL,Milwaukee,John Henson,,,11:37,0.0,2.0,0.0,4.0,6.0,5.0,2.0,16.0,0.0,0.0,2.0,3.0
0021401055,1610612749,MIL,Milwaukee,203898,Tyler Ennis,,,4:04,56.3,132.2,-75.9,0.0,0.0,0.0,0.0,0.0,0.0,100.0,0.0,0.0,0.092,101.51,-0.333,2015-03-24T00:00:00,2,MIL,Milwaukee,35-36,22,27,16,24,0,0,0,0,0,0,0,0,0,0,89,0.414,0.765,0.235,25,53,20,0021401055,1610612749,MIL,Milwaukee,Tyler Ennis,,,4:04,0.0,0.0,0.0,0.0,4.0,2.0,2.0,8.0,0.0,0.0,1.0,0.0
0021401055,1610612749,MIL,Milwaukee,203101,Miles Plumlee,,,15:50,99.7,85.0,14.7,0.143,0.0,11.1,0.231,0.071,0.148,0.0,0.5,0.5,0.235,92.27,0.17,2015-03-24T00:00:00,2,MIL,Milwaukee,35-36,22,27,16,24,0,0,0,0,0,0,0,0,0,0,89,0.414,0.765,0.235,25,53,20,0021401055,1610612749,MIL,Milwaukee,Miles Plumlee,,,15:50,0.0,2.0,2.0,8.0,5.0,0.0,3.0,14.0,1.0,0.0,0.0,0.0
0021401055,1610612749,MIL,Milwaukee,201564,O.J. Mayo,,,5:50,72.7,136.4,-63.6,0.25,0.0,20.0,0.091,0.333,0.143,0.0,0.0,0.0,0.235,90.51,-0.065,2015-03-24T00:00:00,2,MIL,Milwaukee,35-36,22,27,16,24,0,0,0,0,0,0,0,0,0,0,89,0.414,0.765,0.235,25,53,20,0021401055,1610612749,MIL,Milwaukee,O.J. Mayo,,,5:50,0.0,0.0,0.0,0.0,0.0,0.0,0.0,4.0,0.0,0.0,0.0,0.0
0021401055,1610612749,MIL,Milwaukee,201162,Jared Dudley,,DNP - Coach's Decision                  ,,,,,,,0.0,,,,,,,0.0,,,2015-03-24T00:00:00,2,MIL,Milwaukee,35-36,22,27,16,24,0,0,0,0,0,0,0,0,0,0,89,0.414,0.765,0.235,25,53,20,0021401055,1610612749,MIL,Milwaukee,Jared Dudley,,DNP - Coach's Decision                  ,,,,,,,,,,,,,
0021401055,1610612749,MIL,Milwaukee,203187,Chris Johnson,,DNP - Coach's Decision                  ,,,,,,,0.0,,,,,,,0.0,,,2015-03-24T00:00:00,2,MIL,Milwaukee,35-36,22,27,16,24,0,0,0,0,0,0,0,0,0,0,89,0.414,0.765,0.235,25,53,20,0021401055,1610612749,MIL,Milwaukee,Chris Johnson,,DNP - Coach's Decision                  ,,,,,,,,,,,,,
0021401055,1610612749,MIL,Milwaukee,203948,Johnny O'Bryant III,,DNP - Coach's Decision                  ,,,,,,,0.0,,,,,,,0.0,,,2015-03-24T00:00:00,2,MIL,Milwaukee,35-36,22,27,16,24,0,0,0,0,0,0,0,0,0,0,89,0.414,0.765,0.235,25,53,20,0021401055,1610612749,MIL,Milwaukee,Johnny O'Bryant III,,DNP - Coach's Decision                  ,,,,,,,,,,,,,
