GAME_ID_x,TEAM_ID_x,TEAM_ABBREVIATION_x,TEAM_CITY_x,PLAYER_ID,PLAYER_NAME_x,START_POSITION_x,COMMENT_x,MIN_x,OFF_RATING,DEF_RATING,NET_RATING,AST_PCT,AST_TOV,AST_RATIO,OREB_PCT,DREB_PCT,REB_PCT,TM_TOV_PCT,EFG_PCT,TS_PCT,USG_PCT,PACE,PIE,GAME_DATE_EST,GAME_SEQUENCE,TEAM_ABBREVIATION_y,TEAM_CITY_NAME,TEAM_WINS_LOSSES,PTS_QTR1,PTS_QTR2,PTS_QTR3,PTS_QTR4,PTS_OT1,PTS_OT2,PTS_OT3,PTS_OT4,PTS_OT5,PTS_OT6,PTS_OT7,PTS_OT8,PTS_OT9,PTS_OT10,PTS,FG_PCT,FT_PCT,FG3_PCT,AST,REB,TOV,GAME_ID_y,TEAM_ID_y,TEAM_ABBREVIATION,TEAM_CITY_y,PLAYER_NAME_y,START_POSITION_y,COMMENT_y,MIN_y,PTS_OFF_TOV,PTS_2ND_CHANCE,PTS_FB,PTS_PAINT,OPP_PTS_OFF_TOV,OPP_PTS_2ND_CHANCE,OPP_PTS_FB,OPP_PTS_PAINT,BLK,BLKA,PF,PFD
0021401059,1610612744,GSW,Golden State,203084,Harrison Barnes,F,,35:41,123.4,106.5,16.8,0.0,0.0,0.0,0.0,0.079,0.05,12.7,0.917,0.945,0.106,96.04,0.076,2015-03-24T00:00:00,6,GSW,Golden State,58-13,26,31,36,29,0,0,0,0,0,0,0,0,0,0,122,0.602,0.909,0.462,37,46,13,0021401059,1610612744,GSW,Golden State,Harrison Barnes,F,,35:41,2.0,0.0,2.0,4.0,15.0,8.0,6.0,32.0,0.0,0.0,1.0,2.0
0021401059,1610612744,GSW,Golden State,203110,Draymond Green,F,,37:10,131.6,106.4,25.3,0.229,4.0,38.3,0.0,0.262,0.169,9.6,0.65,0.643,0.157,98.23,0.135,2015-03-24T00:00:00,6,GSW,Golden State,58-13,26,31,36,29,0,0,0,0,0,0,0,0,0,0,122,0.602,0.909,0.462,37,46,13,0021401059,1610612744,GSW,Golden State,Draymond Green,F,,37:10,1.0,0.0,2.0,8.0,10.0,8.0,3.0,32.0,3.0,0.0,3.0,2.0
0021401059,1610612744,GSW,Golden State,101106,Andrew Bogut,C,,23:48,133.1,113.1,20.1,0.286,3.0,37.5,0.294,0.393,0.356,12.5,0.625,0.625,0.191,95.88,0.184,2015-03-24T00:00:00,6,GSW,Golden State,58-13,26,31,36,29,0,0,0,0,0,0,0,0,0,0,122,0.602,0.909,0.462,37,46,13,0021401059,1610612744,GSW,Golden State,Andrew Bogut,C,,23:48,2.0,6.0,0.0,10.0,5.0,8.0,0.0,22.0,0.0,1.0,2.0,0.0
0021401059,1610612744,GSW,Golden State,202691,Klay Thompson,G,,25:12,132.8,117.1,15.7,0.095,0.0,12.3,0.0,0.077,0.043,0.0,0.5,0.559,0.251,101.52,0.093,2015-03-24T00:00:00,6,GSW,Golden State,58-13,26,31,36,29,0,0,0,0,0,0,0,0,0,0,122,0.602,0.909,0.462,37,46,13,0021401059,1610612744,GSW,Golden State,Klay Thompson,G,,25:12,0.0,0.0,3.0,6.0,7.0,8.0,6.0,26.0,1.0,1.0,1.0,2.0
0021401059,1610612744,GSW,Golden State,201939,Stephen Curry,G,,35:26,129.4,110.7,18.8,0.4,5.0,28.7,0.0,0.053,0.033,5.7,0.705,0.721,0.323,97.1,0.19,2015-03-24T00:00:00,6,GSW,Golden State,58-13,26,31,36,29,0,0,0,0,0,0,0,0,0,0,122,0.602,0.909,0.462,37,46,13,0021401059,1610612744,GSW,Golden State,Stephen Curry,G,,35:26,5.0,6.0,5.0,12.0,10.0,8.0,3.0,32.0,0.0,0.0,2.0,3.0
0021401059,1610612744,GSW,Golden State,203200,Justin Holiday,,,18:15,120.4,105.4,15.0,0.0,0.0,0.0,0.0,0.05,0.036,16.7,0.4,0.4,0.167,95.79,-0.013,2015-03-24T00:00:00,6,GSW,Golden State,58-13,26,31,36,29,0,0,0,0,0,0,0,0,0,0,122,0.602,0.909,0.462,37,46,13,0021401059,1610612744,GSW,Golden State,Justin Holiday,,,18:15,0.0,0.0,2.0,2.0,13.0,3.0,0.0,14.0,0.0,0.0,2.0,1.0
0021401059,1610612744,GSW,Golden State,2738,Andre Iguodala,,,31:10,125.7,114.5,11.2,0.182,0.8,20.0,0.0,0.133,0.087,25.0,0.955,0.955,0.247,98.81,0.154,2015-03-24T00:00:00,6,GSW,Golden State,58-13,26,31,36,29,0,0,0,0,0,0,0,0,0,0,122,0.602,0.909,0.462,37,46,13,0021401059,1610612744,GSW,Golden State,Andre Iguodala,,,31:10,4.0,0.0,4.0,6.0,18.0,6.0,6.0,24.0,0.0,0.0,1.0,2.0
0021401059,1610612744,GSW,Golden State,203105,Festus Ezeli,,,11:17,118.8,104.2,14.7,0.111,0.0,25.0,0.143,0.125,0.13,0.0,0.667,0.667,0.131,93.5,0.084,2015-03-24T00:00:00,6,GSW,Golden State,58-13,26,31,36,29,0,0,0,0,0,0,0,0,0,0,122,0.602,0.909,0.462,37,46,13,0021401059,1610612744,GSW,Golden State,Festus Ezeli,,,11:17,0.0,0.0,0.0,4.0,8.0,3.0,0.0,4.0,1.0,0.0,3.0,0.0
0021401059,1610612744,GSW,Golden State,2571,Leandro Barbosa,,,17:07,121.4,100.5,20.9,0.313,0.0,56.3,0.0,0.2,0.148,0.0,0.5,0.644,0.115,91.98,0.148,2015-03-24T00:00:00,6,GSW,Golden State,58-13,26,31,36,29,0,0,0,0,0,0,0,0,0,0,122,0.602,0.909,0.462,37,46,13,0021401059,1610612744,GSW,Golden State,Leandro Barbosa,,,17:07,0.0,0.0,2.0,0.0,10.0,3.0,3.0,8.0,0.0,0.0,2.0,1.0
0021401059,1610612744,GSW,Golden State,201578,Marreese Speights,,,4:54,122.2,123.7,-1.5,0.25,0.0,33.3,0.0,0.0,0.0,0.0,0.5,0.5,0.222,99.53,0.04,2015-03-24T00:00:00,6,GSW,Golden State,58-13,26,31,36,29,0,0,0,0,0,0,0,0,0,0,122,0.602,0.909,0.462,37,46,13,0021401059,1610612744,GSW,Golden State,Marreese Speights,,,4:54,0.0,0.0,0.0,0.0,4.0,0.0,3.0,6.0,0.0,0.0,1.0,1.0
0021401059,1610612744,GSW,Golden State,101135,David Lee,,DNP - Coach's Decision                  ,,,,,,,0.0,,,,,,,0.0,,,2015-03-24T00:00:00,6,GSW,Golden State,58-13,26,31,36,29,0,0,0,0,0,0,0,0,0,0,122,0.602,0.909,0.462,37,46,13,0021401059,1610612744,GSW,Golden State,David Lee,,DNP - Coach's Decision                  ,,,,,,,,,,,,,
0021401059,1610612744,GSW,Golden State,203949,James Michael McAdoo,,DNP - Coach's Decision                  ,,,,,,,0.0,,,,,,,0.0,,,2015-03-24T00:00:00,6,GSW,Golden State,58-13,26,31,36,29,0,0,0,0,0,0,0,0,0,0,122,0.602,0.909,0.462,37,46,13,0021401059,1610612744,GSW,Golden State,James Michael McAdoo,,DNP - Coach's Decision                  ,,,,,,,,,,,,,
0021401059,1610612744,GSW,Golden State,201575,Brandon Rush,,DNP - Coach's Decision                  ,,,,,,,0.0,,,,,,,0.0,,,2015-03-24T00:00:00,6,GSW,Golden State,58-13,26,31,36,29,0,0,0,0,0,0,0,0,0,0,122,0.602,0.909,0.462,37,46,13,0021401059,1610612744,GSW,Golden State,Brandon Rush,,DNP - Coach's Decision                  ,,,,,,,,,,,,,
0021401059,1610612757,POR,Portland,202087,Alonzo Gee,F,,31:25,114.5,129.8,-15.3,0.083,0.0,16.7,0.091,0.0,0.056,0.0,0.5,0.5,0.134,98.91,0.039,2015-03-24T00:00:00,6,POR,Portland,44-25,30,32,18,28,0,0,0,0,0,0,0,0,0,0,108,0.424,0.789,0.441,23,35,10,0021401059,1610612757,POR,Portland,Alonzo Gee,F,,31:25,4.0,0.0,2.0,10.0,12.0,10.0,14.0,38.0,0.0,2.0,3.0,0.0
0021401059,1610612757,POR,Portland,2748,Dorell Wright,F,,20:52,119.0,128.6,-9.5,0.133,0.0,15.5,0.04,0.25,0.122,0.0,0.5,0.551,0.225,92.89,0.116,2015-03-24T00:00:00,6,POR,Portland,44-25,30,32,18,28,0,0,0,0,0,0,0,0,0,0,108,0.424,0.789,0.441,23,35,10,0021401059,1610612757,POR,Portland,Dorell Wright,F,,20:52,0.0,3.0,0.0,4.0,3.0,8.0,8.0,24.0,0.0,1.0,0.0,1.0
0021401059,1610612757,POR,Portland,201577,Robin Lopez,C,,20:52,116.6,140.4,-23.8,0.176,0.0,37.5,0.12,0.25,0.171,0.0,0.2,0.2,0.103,93.9,0.059,2015-03-24T00:00:00,6,POR,Portland,44-25,30,32,18,28,0,0,0,0,0,0,0,0,0,0,108,0.424,0.789,0.441,23,35,10,0021401059,1610612757,POR,Portland,Robin Lopez,C,,20:52,0.0,0.0,0.0,2.0,5.0,8.0,10.0,26.0,1.0,0.0,0.0,1.0
0021401059,1610612757,POR,Portland,201167,Arron Afflalo,G,,28:13,101.8,134.5,-32.6,0.118,1.0,14.3,0.0,0.063,0.023,14.3,0.45,0.45,0.188,96.52,0.022,2015-03-24T00:00:00,6,POR,Portland,44-25,30,32,18,28,0,0,0,0,0,0,0,0,0,0,108,0.424,0.789,0.441,23,35,10,0021401059,1610612757,POR,Portland,Arron Afflalo,G,,28:13,0.0,2.0,0.0,6.0,9.0,8.0,9.0,32.0,0.0,0.0,1.0,1.0
0021401059,1610612757,POR,Portland,203081,Damian Lillard,G,,32:50,101.7,125.8,-24.1,0.313,1.25,15.5,0.079,0.174,0.115,12.4,0.571,0.625,0.354,97.07,0.166,2015-03-24T00:00:00,6,POR,Portland,44-25,30,32,18,28,0,0,0,0,0,0,0,0,0,0,108,0.424,0.789,0.441,23,35,10,0021401059,1610612757,POR,Portland,Damian Lillard,G,,32:50,2.0,3.0,0.0,2.0,10.0,12.0,16.0,38.0,1.0,1.0,1.0,6.0
0021401059,1610612757,POR,Portland,203468,CJ McCollum,,,28:48,114.7,123.7,-9.0,0.133,1.0,8.4,0.0,0.063,0.022,8.4,0.583,0.582,0.325,100.73,0.103,2015-03-24T00:00:00,6,POR,Portland,44-25,30,32,18,28,0,0,0,0,0,0,0,0,0,0,108,0.424,0.789,0.441,23,35,10,0021401059,1610612757,POR,Portland,CJ McCollum,,,28:48,5.0,0.0,3.0,8.0,12.0,6.0,15.0,34.0,0.0,1.0,2.0,4.0
0021401059,1610612757,POR,Portland,200777,Joel Freeland,,,23:22,109.6,118.1,-8.4,0.0,0.0,0.0,0.0,0.333,0.108,0.0,0.5,0.509,0.129,97.62,0.056,2015-03-24T00:00:00,6,POR,Portland,44-25,30,32,18,28,0,0,0,0,0,0,0,0,0,0,108,0.424,0.789,0.441,23,35,10,0021401059,1610612757,POR,Portland,Joel Freeland,,,23:22,0.0,0.0,0.0,6.0,4.0,2.0,8.0,22.0,0.0,0.0,2.0,2.0
0021401059,1610612757,POR,Portland,203459,Allen Crabbe,,,23:07,99.7,122.5,-22.9,0.143,0.0,20.2,0.0,0.091,0.029,0.0,0.357,0.381,0.151,98.3,0.032,2015-03-24T00:00:00,6,POR,Portland,44-25,30,32,18,28,0,0,0,0,0,0,0,0,0,0,108,0.424,0.789,0.441,23,35,10,0021401059,1610612757,POR,Portland,Allen Crabbe,,,23:07,6.0,3.0,1.0,2.0,9.0,4.0,10.0,22.0,0.0,0.0,2.0,1.0
0021401059,1610612757,POR,Portland,203086,Meyers Leonard,,,15:06,100.1,121.2,-21.1,0.0,0.0,0.0,0.111,0.375,0.192,50.0,0.0,0.0,0.059,95.11,0.016,2015-03-24T00:00:00,6,POR,Portland,44-25,30,32,18,28,0,0,0,0,0,0,0,0,0,0,108,0.424,0.789,0.441,23,35,10,0021401059,1610612757,POR,Portland,Meyers Leonard,,,15:06,0.0,0.0,0.0,0.0,2.0,2.0,6.0,10.0,0.0,0.0,1.0,0.0
0021401059,1610612757,POR,Portland,2581,Steve Blake,,,15:25,126.9,126.3,0.6,0.417,5.0,42.5,0.0,0.167,0.05,8.5,0.75,0.868,0.202,97.14,0.141,2015-03-24T00:00:00,6,POR,Portland,44-25,30,32,18,28,0,0,0,0,0,0,0,0,0,0,108,0.424,0.789,0.441,23,35,10,0021401059,1610612757,POR,Portland,Steve Blake,,,15:25,3.0,0.0,0.0,0.0,4.0,0.0,4.0,14.0,0.0,0.0,2.0,2.0
0021401059,1610612757,POR,Portland,200746,LaMarcus Aldridge,,DND - Left hand injury                  ,,,,,,,0.0,,,,,,,0.0,,,2015-03-24T00:00:00,6,POR,Portland,44-25,30,32,18,28,0,0,0,0,0,0,0,0,0,0,108,0.424,0.789,0.441,23,35,10,0021401059,1610612757,POR,Portland,LaMarcus Aldridge,,DND - Left hand injury                  ,,,,,,,,,,,,,
0021401059,1610612757,POR,Portland,201587,Nicolas Batum,,DND - Lower back injury                 ,,,,,,,0.0,,,,,,,0.0,,,2015-03-24T00:00:00,6,POR,Portland,44-25,30,32,18,28,0,0,0,0,0,0,0,0,0,0,108,0.424,0.789,0.441,23,35,10,0021401059,1610612757,POR,Portland,Nicolas Batum,,DND - Lower back injury                 ,,,,,,,,,,,,,
0021401059,1610612757,POR,Portland,2549,Chris Kaman,,DND - Right shoulder strain             ,,,,,,,0.0,,,,,,,0.0,,,2015-03-24T00:00:00,6,POR,Portland,44-25,30,32,18,28,0,0,0,0,0,0,0,0,0,0,108,0.424,0.789,0.441,23,35,10,0021401059,1610612757,POR,Portland,Chris Kaman,,DND - Right shoulder strain             ,,,,,,,,,,,,,
