GAME_ID_x,TEAM_ID_x,TEAM_ABBREVIATION_x,TEAM_CITY_x,PLAYER_ID,PLAYER_NAME_x,START_POSITION_x,COMMENT_x,MIN_x,OFF_RATING,DEF_RATING,NET_RATING,AST_PCT,AST_TOV,AST_RATIO,OREB_PCT,DREB_PCT,REB_PCT,TM_TOV_PCT,EFG_PCT,TS_PCT,USG_PCT,PACE,PIE,GAME_DATE_EST,GAME_SEQUENCE,TEAM_ABBREVIATION_y,TEAM_CITY_NAME,TEAM_WINS_LOSSES,PTS_QTR1,PTS_QTR2,PTS_QTR3,PTS_QTR4,PTS_OT1,PTS_OT2,PTS_OT3,PTS_OT4,PTS_OT5,PTS_OT6,PTS_OT7,PTS_OT8,PTS_OT9,PTS_OT10,PTS,FG_PCT,FT_PCT,FG3_PCT,AST,REB,TOV,GAME_ID_y,TEAM_ID_y,TEAM_ABBREVIATION,TEAM_CITY_y,PLAYER_NAME_y,START_POSITION_y,COMMENT_y,MIN_y,PTS_OFF_TOV,PTS_2ND_CHANCE,PTS_FB,PTS_PAINT,OPP_PTS_OFF_TOV,OPP_PTS_2ND_CHANCE,OPP_PTS_FB,OPP_PTS_PAINT,BLK,BLKA,PF,PFD
0021401070,1610612757,POR,Portland,203459,Allen Crabbe,F,,30:26,105.2,97.3,8.0,0.0,0.0,0.0,0.0,0.167,0.085,14.3,0.667,0.667,0.105,92.68,0.061,2015-03-25T00:00:00,11,POR,Portland,45-25,12,25,18,37,0,0,0,0,0,0,0,0,0,0,92,0.42,0.85,0.259,19,45,14,0021401070,1610612757,POR,Portland,Allen Crabbe,F,,30:26,5.0,0.0,2.0,2.0,4.0,13.0,2.0,26.0,1.0,0.0,4.0,1.0
0021401070,1610612757,POR,Portland,200746,LaMarcus Aldridge,F,,36:16,86.0,100.8,-14.8,0.0,0.0,0.0,0.056,0.2,0.127,16.2,0.389,0.46,0.304,91.59,0.114,2015-03-25T00:00:00,11,POR,Portland,45-25,12,25,18,37,0,0,0,0,0,0,0,0,0,0,92,0.42,0.85,0.259,19,45,14,0021401070,1610612757,POR,Portland,LaMarcus Aldridge,F,,36:16,2.0,4.0,2.0,10.0,13.0,15.0,6.0,34.0,1.0,0.0,1.0,4.0
0021401070,1610612757,POR,Portland,201577,Robin Lopez,C,,21:44,86.3,97.0,-10.7,0.0,0.0,0.0,0.19,0.095,0.143,25.0,0.333,0.333,0.168,90.45,0.026,2015-03-25T00:00:00,11,POR,Portland,45-25,12,25,18,37,0,0,0,0,0,0,0,0,0,0,92,0.42,0.85,0.259,19,45,14,0021401070,1610612757,POR,Portland,Robin Lopez,C,,21:44,2.0,0.0,2.0,4.0,4.0,6.0,2.0,20.0,1.0,0.0,1.0,2.0
0021401070,1610612757,POR,Portland,201167,Arron Afflalo,G,,27:03,105.0,91.1,13.9,0.158,3.0,23.3,0.0,0.038,0.02,7.8,0.375,0.394,0.161,92.95,0.014,2015-03-25T00:00:00,11,POR,Portland,45-25,12,25,18,37,0,0,0,0,0,0,0,0,0,0,92,0.42,0.85,0.259,19,45,14,0021401070,1610612757,POR,Portland,Arron Afflalo,G,,27:03,0.0,0.0,0.0,4.0,4.0,11.0,2.0,24.0,0.0,0.0,4.0,1.0
0021401070,1610612757,POR,Portland,203081,Damian Lillard,G,,40:15,106.7,101.0,5.7,0.5,6.0,34.9,0.028,0.2,0.113,5.8,0.406,0.564,0.255,91.85,0.234,2015-03-25T00:00:00,11,POR,Portland,45-25,12,25,18,37,0,0,0,0,0,0,0,0,0,0,92,0.42,0.85,0.259,19,45,14,0021401070,1610612757,POR,Portland,Damian Lillard,G,,40:15,0.0,2.0,10.0,10.0,11.0,11.0,6.0,32.0,0.0,0.0,2.0,8.0
0021401070,1610612757,POR,Portland,200777,Joel Freeland,,,18:57,97.6,107.8,-10.2,0.0,0.0,0.0,0.143,0.2,0.172,25.0,1.0,1.0,0.1,89.01,0.103,2015-03-25T00:00:00,11,POR,Portland,45-25,12,25,18,37,0,0,0,0,0,0,0,0,0,0,92,0.42,0.85,0.259,19,45,14,0021401070,1610612757,POR,Portland,Joel Freeland,,,18:57,0.0,2.0,0.0,6.0,9.0,4.0,4.0,16.0,1.0,0.0,3.0,2.0
0021401070,1610612757,POR,Portland,203468,CJ McCollum,,,21:18,88.6,111.3,-22.7,0.0,0.0,0.0,0.05,0.158,0.103,22.5,0.5,0.509,0.204,88.07,0.071,2015-03-25T00:00:00,11,POR,Portland,45-25,12,25,18,37,0,0,0,0,0,0,0,0,0,0,92,0.42,0.85,0.259,19,45,14,0021401070,1610612757,POR,Portland,CJ McCollum,,,21:18,0.0,0.0,2.0,2.0,9.0,6.0,4.0,16.0,1.0,0.0,1.0,2.0
0021401070,1610612757,POR,Portland,2748,Dorell Wright,,,27:05,107.5,105.9,1.6,0.125,0.0,12.5,0.043,0.154,0.102,0.0,0.536,0.536,0.245,92.17,0.135,2015-03-25T00:00:00,11,POR,Portland,45-25,12,25,18,37,0,0,0,0,0,0,0,0,0,0,92,0.42,0.85,0.259,19,45,14,0021401070,1610612757,POR,Portland,Dorell Wright,,,27:05,0.0,0.0,3.0,4.0,9.0,13.0,4.0,22.0,0.0,2.0,2.0,0.0
0021401070,1610612757,POR,Portland,2581,Steve Blake,,,16:56,106.6,83.8,22.9,0.154,2.0,28.6,0.0,0.111,0.067,14.3,0.375,0.375,0.148,85.78,0.061,2015-03-25T00:00:00,11,POR,Portland,45-25,12,25,18,37,0,0,0,0,0,0,0,0,0,0,92,0.42,0.85,0.259,19,45,14,0021401070,1610612757,POR,Portland,Steve Blake,,,16:56,3.0,0.0,0.0,0.0,2.0,6.0,0.0,10.0,0.0,0.0,0.0,0.0
0021401070,1610612757,POR,Portland,201587,Nicolas Batum,,DNP - Coach's Decision                  ,,,,,,,0.0,,,,,,,0.0,,,2015-03-25T00:00:00,11,POR,Portland,45-25,12,25,18,37,0,0,0,0,0,0,0,0,0,0,92,0.42,0.85,0.259,19,45,14,0021401070,1610612757,POR,Portland,Nicolas Batum,,DNP - Coach's Decision                  ,,,,,,,,,,,,,
0021401070,1610612757,POR,Portland,202087,Alonzo Gee,,DNP - Coach's Decision                  ,,,,,,,0.0,,,,,,,0.0,,,2015-03-25T00:00:00,11,POR,Portland,45-25,12,25,18,37,0,0,0,0,0,0,0,0,0,0,92,0.42,0.85,0.259,19,45,14,0021401070,1610612757,POR,Portland,Alonzo Gee,,DNP - Coach's Decision                  ,,,,,,,,,,,,,
0021401070,1610612757,POR,Portland,2549,Chris Kaman,,DND - Right shoulder strain             ,,,,,,,0.0,,,,,,,0.0,,,2015-03-25T00:00:00,11,POR,Portland,45-25,12,25,18,37,0,0,0,0,0,0,0,0,0,0,92,0.42,0.85,0.259,19,45,14,0021401070,1610612757,POR,Portland,Chris Kaman,,DND - Right shoulder strain             ,,,,,,,,,,,,,
0021401070,1610612757,POR,Portland,203086,Meyers Leonard,,DNP - Coach's Decision                  ,,,,,,,0.0,,,,,,,0.0,,,2015-03-25T00:00:00,11,POR,Portland,45-25,12,25,18,37,0,0,0,0,0,0,0,0,0,0,92,0.42,0.85,0.259,19,45,14,0021401070,1610612757,POR,Portland,Meyers Leonard,,DNP - Coach's Decision                  ,,,,,,,,,,,,,
0021401070,1610612762,UTA,Utah,202407,Elijah Millsap,F,,33:15,97.1,107.7,-10.6,0.105,0.5,11.3,0.033,0.233,0.133,22.5,0.45,0.383,0.223,91.56,0.058,2015-03-25T00:00:00,11,UTA,Utah,31-40,21,18,26,24,0,0,0,0,0,0,0,0,0,0,89,0.438,0.652,0.25,12,43,9,0021401070,1610612762,UTA,Utah,Elijah Millsap,F,,33:15,2.0,2.0,2.0,6.0,12.0,8.0,14.0,36.0,0.0,2.0,2.0,6.0
0021401070,1610612762,UTA,Utah,202324,Derrick Favors,F,,31:54,107.8,90.4,17.4,0.0,0.0,0.0,0.179,0.296,0.236,4.2,0.474,0.566,0.361,90.43,0.237,2015-03-25T00:00:00,11,UTA,Utah,31-40,21,18,26,24,0,0,0,0,0,0,0,0,0,0,89,0.438,0.652,0.25,12,43,9,0021401070,1610612762,UTA,Utah,Derrick Favors,F,,31:54,2.0,5.0,0.0,14.0,10.0,4.0,9.0,26.0,1.0,0.0,5.0,5.0
0021401070,1610612762,UTA,Utah,203497,Rudy Gobert,C,,33:45,92.9,97.1,-4.2,0.0,0.0,0.0,0.061,0.235,0.149,9.3,0.625,0.615,0.155,91.22,0.129,2015-03-25T00:00:00,11,UTA,Utah,31-40,21,18,26,24,0,0,0,0,0,0,0,0,0,0,89,0.438,0.652,0.25,12,43,9,0021401070,1610612762,UTA,Utah,Rudy Gobert,C,,33:45,0.0,4.0,0.0,10.0,9.0,8.0,14.0,34.0,0.0,1.0,4.0,3.0
0021401070,1610612762,UTA,Utah,203957,Dante Exum,G,,29:54,79.7,98.5,-18.9,0.133,2.0,25.0,0.032,0.071,0.051,12.5,0.3,0.3,0.1,88.74,0.021,2015-03-25T00:00:00,11,UTA,Utah,31-40,21,18,26,24,0,0,0,0,0,0,0,0,0,0,89,0.438,0.652,0.25,12,43,9,0021401070,1610612762,UTA,Utah,Dante Exum,G,,29:54,0.0,0.0,0.0,0.0,5.0,4.0,14.0,24.0,0.0,0.0,1.0,0.0
0021401070,1610612762,UTA,Utah,203504,Trey Burke,G,,39:21,106.4,95.9,10.5,0.136,3.0,12.1,0.029,0.088,0.059,4.0,0.474,0.53,0.261,91.05,0.16,2015-03-25T00:00:00,11,UTA,Utah,31-40,21,18,26,24,0,0,0,0,0,0,0,0,0,0,89,0.438,0.652,0.25,12,43,9,0021401070,1610612762,UTA,Utah,Trey Burke,G,,39:21,2.0,6.0,0.0,4.0,12.0,8.0,14.0,36.0,0.0,0.0,1.0,3.0
0021401070,1610612762,UTA,Utah,204060,Joe Ingles,,,29:52,109.3,105.7,3.6,0.095,2.0,14.4,0.037,0.115,0.075,7.2,0.45,0.46,0.181,95.69,0.06,2015-03-25T00:00:00,11,UTA,Utah,31-40,21,18,26,24,0,0,0,0,0,0,0,0,0,0,89,0.438,0.652,0.25,12,43,9,0021401070,1610612762,UTA,Utah,Joe Ingles,,,29:52,2.0,0.0,2.0,2.0,7.0,6.0,14.0,30.0,0.0,1.0,4.0,1.0
0021401070,1610612762,UTA,Utah,203546,Ian Clark,,,13:55,105.0,78.1,26.9,0.1,0.0,20.0,0.0,0.0,0.0,0.0,0.375,0.375,0.144,89.06,0.047,2015-03-25T00:00:00,11,UTA,Utah,31-40,21,18,26,24,0,0,0,0,0,0,0,0,0,0,89,0.438,0.652,0.25,12,43,9,0021401070,1610612762,UTA,Utah,Ian Clark,,,13:55,3.0,0.0,0.0,0.0,0.0,0.0,7.0,6.0,0.0,1.0,0.0,0.0
0021401070,1610612762,UTA,Utah,202344,Trevor Booker,,,22:50,102.6,100.4,2.2,0.105,0.0,33.3,0.0,0.05,0.023,0.0,0.25,0.25,0.082,91.15,0.019,2015-03-25T00:00:00,11,UTA,Utah,31-40,21,18,26,24,0,0,0,0,0,0,0,0,0,0,89,0.438,0.652,0.25,12,43,9,0021401070,1610612762,UTA,Utah,Trevor Booker,,,22:50,2.0,0.0,2.0,2.0,5.0,2.0,14.0,12.0,1.0,0.0,2.0,0.0
0021401070,1610612762,UTA,Utah,204022,Jack Cooley,,,5:14,87.5,155.6,-68.1,0.0,0.0,0.0,0.0,0.0,0.0,0.0,1.0,1.0,0.111,77.96,0.04,2015-03-25T00:00:00,11,UTA,Utah,31-40,21,18,26,24,0,0,0,0,0,0,0,0,0,0,89,0.438,0.652,0.25,12,43,9,0021401070,1610612762,UTA,Utah,Jack Cooley,,,5:14,0.0,0.0,0.0,2.0,0.0,0.0,5.0,6.0,0.0,0.0,1.0,0.0
0021401070,1610612762,UTA,Utah,203955,Bryce Cotton,,DNP - Coach's Decision                  ,,,,,,,0.0,,,,,,,0.0,,,2015-03-25T00:00:00,11,UTA,Utah,31-40,21,18,26,24,0,0,0,0,0,0,0,0,0,0,89,0.438,0.652,0.25,12,43,9,0021401070,1610612762,UTA,Utah,Bryce Cotton,,DNP - Coach's Decision                  ,,,,,,,,,,,,,
0021401070,1610612762,UTA,Utah,202379,Jeremy Evans,,DNP - Coach's Decision                  ,,,,,,,0.0,,,,,,,0.0,,,2015-03-25T00:00:00,11,UTA,Utah,31-40,21,18,26,24,0,0,0,0,0,0,0,0,0,0,89,0.438,0.652,0.25,12,43,9,0021401070,1610612762,UTA,Utah,Jeremy Evans,,DNP - Coach's Decision                  ,,,,,,,,,,,,,
0021401070,1610612762,UTA,Utah,203511,Grant Jerrett,,DNP - Coach's Decision                  ,,,,,,,0.0,,,,,,,0.0,,,2015-03-25T00:00:00,11,UTA,Utah,31-40,21,18,26,24,0,0,0,0,0,0,0,0,0,0,89,0.438,0.652,0.25,12,43,9,0021401070,1610612762,UTA,Utah,Grant Jerrett,,DNP - Coach's Decision                  ,,,,,,,,,,,,,
