GAME_ID_x,TEAM_ID_x,TEAM_ABBREVIATION_x,TEAM_CITY_x,PLAYER_ID,PLAYER_NAME_x,START_POSITION_x,COMMENT_x,MIN_x,OFF_RATING,DEF_RATING,NET_RATING,AST_PCT,AST_TOV,AST_RATIO,OREB_PCT,DREB_PCT,REB_PCT,TM_TOV_PCT,EFG_PCT,TS_PCT,USG_PCT,PACE,PIE,GAME_DATE_EST,GAME_SEQUENCE,TEAM_ABBREVIATION_y,TEAM_CITY_NAME,TEAM_WINS_LOSSES,PTS_QTR1,PTS_QTR2,PTS_QTR3,PTS_QTR4,PTS_OT1,PTS_OT2,PTS_OT3,PTS_OT4,PTS_OT5,PTS_OT6,PTS_OT7,PTS_OT8,PTS_OT9,PTS_OT10,PTS,FG_PCT,FT_PCT,FG3_PCT,AST,REB,TOV,GAME_ID_y,TEAM_ID_y,TEAM_ABBREVIATION,TEAM_CITY_y,PLAYER_NAME_y,START_POSITION_y,COMMENT_y,MIN_y,PTS_OFF_TOV,PTS_2ND_CHANCE,PTS_FB,PTS_PAINT,OPP_PTS_OFF_TOV,OPP_PTS_2ND_CHANCE,OPP_PTS_FB,OPP_PTS_PAINT,BLK,BLKA,PF,PFD
0021401082,1610612744,GSW,Golden State,203084,Harrison Barnes,F,,23:35,105.7,96.7,9.0,0.1,0.0,50.0,0.056,0.19,0.128,0.0,0.75,0.75,0.037,99.3,0.092,2015-03-27T00:00:00,9,GSW,Golden State,59-13,31,23,31,22,0,0,0,0,0,0,0,0,0,0,107,0.433,0.765,0.516,28,43,14,0021401082,1610612744,GSW,Golden State,Harrison Barnes,F,,23:35,0,0,0,0,4,6,4,16,0,1,2,0
0021401082,1610612744,GSW,Golden State,203110,Draymond Green,F,,20:10,129.7,78.3,51.4,0.214,1.5,20.8,0.0,0.1,0.057,13.9,0.556,0.53,0.266,90.26,0.075,2015-03-27T00:00:00,9,GSW,Golden State,59-13,31,23,31,22,0,0,0,0,0,0,0,0,0,0,107,0.433,0.765,0.516,28,43,14,0021401082,1610612744,GSW,Golden State,Draymond Green,F,,20:10,4,0,2,10,0,0,4,8,0,0,3,1
0021401082,1610612744,GSW,Golden State,101106,Andrew Bogut,C,,27:23,136.8,97.1,39.7,0.111,1.5,42.9,0.133,0.353,0.25,28.6,0.5,0.5,0.066,95.36,0.088,2015-03-27T00:00:00,9,GSW,Golden State,59-13,31,23,31,22,0,0,0,0,0,0,0,0,0,0,107,0.433,0.765,0.516,28,43,14,0021401082,1610612744,GSW,Golden State,Andrew Bogut,C,,27:23,0,0,0,2,6,4,6,16,0,0,0,0
0021401082,1610612744,GSW,Golden State,202691,Klay Thompson,G,,26:44,127.1,107.9,19.3,0.063,0.0,5.3,0.0,0.111,0.054,0.0,0.765,0.783,0.299,97.57,0.19,2015-03-27T00:00:00,9,GSW,Golden State,59-13,31,23,31,22,0,0,0,0,0,0,0,0,0,0,107,0.433,0.765,0.516,28,43,14,0021401082,1610612744,GSW,Golden State,Klay Thompson,G,,26:44,8,3,5,4,6,6,6,18,0,0,2,2
0021401082,1610612744,GSW,Golden State,201939,Stephen Curry,G,,34:14,128.3,95.8,32.5,0.5,2.5,25.9,0.038,0.083,0.06,10.4,0.727,0.771,0.362,96.05,0.254,2015-03-27T00:00:00,9,GSW,Golden State,59-13,31,23,31,22,0,0,0,0,0,0,0,0,0,0,107,0.433,0.765,0.516,28,43,14,0021401082,1610612744,GSW,Golden State,Stephen Curry,G,,34:14,10,6,12,4,6,4,12,24,1,0,3,3
0021401082,1610612744,GSW,Golden State,101135,David Lee,,,16:30,106.0,101.1,4.9,0.1,1.0,15.8,0.0,0.0,0.0,15.8,0.667,0.694,0.14,94.1,0.085,2015-03-27T00:00:00,9,GSW,Golden State,59-13,31,23,31,22,0,0,0,0,0,0,0,0,0,0,107,0.433,0.765,0.516,28,43,14,0021401082,1610612744,GSW,Golden State,David Lee,,,16:30,4,0,2,4,4,4,4,18,0,0,1,3
0021401082,1610612744,GSW,Golden State,2738,Andre Iguodala,,,24:50,84.3,82.0,2.3,0.143,2.0,14.3,0.033,0.238,0.118,7.1,0.136,0.136,0.205,94.11,-0.008,2015-03-27T00:00:00,9,GSW,Golden State,59-13,31,23,31,22,0,0,0,0,0,0,0,0,0,0,107,0.433,0.765,0.516,28,43,14,0021401082,1610612744,GSW,Golden State,Andre Iguodala,,,24:50,0,0,0,0,0,8,6,32,0,0,1,4
0021401082,1610612744,GSW,Golden State,2571,Leandro Barbosa,,,20:02,85.8,66.2,19.6,0.2,1.0,22.2,0.08,0.125,0.098,22.2,0.4,0.4,0.144,92.73,0.121,2015-03-27T00:00:00,9,GSW,Golden State,59-13,31,23,31,22,0,0,0,0,0,0,0,0,0,0,107,0.433,0.765,0.516,28,43,14,0021401082,1610612744,GSW,Golden State,Leandro Barbosa,,,20:02,0,0,4,4,0,4,4,22,1,0,0,0
0021401082,1610612744,GSW,Golden State,203105,Festus Ezeli,,,15:08,57.1,63.8,-6.7,0.0,0.0,0.0,0.136,0.294,0.205,0.0,0.25,0.41,0.133,94.39,0.31,2015-03-27T00:00:00,9,GSW,Golden State,59-13,31,23,31,22,0,0,0,0,0,0,0,0,0,0,107,0.433,0.765,0.516,28,43,14,0021401082,1610612744,GSW,Golden State,Festus Ezeli,,,15:08,2,0,0,2,0,2,4,16,2,1,2,3
0021401082,1610612744,GSW,Golden State,2733,Shaun Livingston,,,21:28,89.4,87.9,1.4,0.364,2.0,26.9,0.042,0.05,0.045,13.4,0.25,0.282,0.22,94.58,0.009,2015-03-27T00:00:00,9,GSW,Golden State,59-13,31,23,31,22,0,0,0,0,0,0,0,0,0,0,107,0.433,0.765,0.516,28,43,14,0021401082,1610612744,GSW,Golden State,Shaun Livingston,,,21:28,0,0,1,2,4,8,6,28,0,0,2,1
0021401082,1610612744,GSW,Golden State,201578,Marreese Speights,,,5:29,113.6,123.7,-10.0,0.0,0.0,0.0,0.111,0.0,0.083,0.0,0.25,0.25,0.277,99.62,0.0,2015-03-27T00:00:00,9,GSW,Golden State,59-13,31,23,31,22,0,0,0,0,0,0,0,0,0,0,107,0.433,0.765,0.516,28,43,14,0021401082,1610612744,GSW,Golden State,Marreese Speights,,,5:29,2,2,0,2,0,4,2,10,1,0,0,0
0021401082,1610612744,GSW,Golden State,203949,James Michael McAdoo,,,2:51,155.3,82.0,73.3,0.0,0.0,0.0,0.333,0.0,0.286,0.0,0.5,0.41,0.258,115.87,0.16,2015-03-27T00:00:00,9,GSW,Golden State,59-13,31,23,31,22,0,0,0,0,0,0,0,0,0,0,107,0.433,0.765,0.516,28,43,14,0021401082,1610612744,GSW,Golden State,James Michael McAdoo,,,2:51,2,0,2,2,0,0,2,2,0,0,0,1
0021401082,1610612744,GSW,Golden State,203200,Justin Holiday,,,1:35,116.3,25.8,90.5,0.0,0.0,0.0,0.0,0.0,0.0,0.0,0.0,0.0,0.184,110.96,0.0,2015-03-27T00:00:00,9,GSW,Golden State,59-13,31,23,31,22,0,0,0,0,0,0,0,0,0,0,107,0.433,0.765,0.516,28,43,14,0021401082,1610612744,GSW,Golden State,Justin Holiday,,,1:35,0,0,0,0,0,0,0,0,0,0,1,0
0021401082,1610612763,MEM,Memphis,2754,Tony Allen,F,,18:51,112.2,125.9,-13.6,0.071,0.0,20.0,0.154,0.222,0.182,0.0,0.5,0.5,0.098,96.99,0.052,2015-03-27T00:00:00,9,MEM,Memphis,50-23,24,25,16,19,0,0,0,0,0,0,0,0,0,0,84,0.447,0.733,0.385,19,40,19,0021401082,1610612763,MEM,Memphis,Tony Allen,F,,18:51,2,2,2,4,13,3,16,16,1,0,2,1
0021401082,1610612763,MEM,Memphis,2216,Zach Randolph,F,,26:59,99.0,134.9,-35.9,0.188,1.0,17.8,0.059,0.133,0.094,17.8,0.4,0.46,0.255,94.6,0.054,2015-03-27T00:00:00,9,MEM,Memphis,50-23,24,25,16,19,0,0,0,0,0,0,0,0,0,0,84,0.447,0.733,0.385,19,40,19,0021401082,1610612763,MEM,Memphis,Zach Randolph,F,,26:59,0,2,0,4,18,9,18,24,0,0,1,4
0021401082,1610612763,MEM,Memphis,201188,Marc Gasol,C,,29:28,92.1,129.4,-37.3,0.2,0.75,15.3,0.05,0.2,0.125,20.4,0.4,0.514,0.285,94.23,0.045,2015-03-27T00:00:00,9,MEM,Memphis,50-23,24,25,16,19,0,0,0,0,0,0,0,0,0,0,84,0.447,0.733,0.385,19,40,19,0021401082,1610612763,MEM,Memphis,Marc Gasol,C,,29:28,0,0,2,6,21,9,19,24,0,0,4,4
0021401082,1610612763,MEM,Memphis,201584,Courtney Lee,G,,22:23,87.8,118.7,-30.9,0.0,0.0,0.0,0.0,0.056,0.029,12.7,0.167,0.291,0.166,97.25,0.011,2015-03-27T00:00:00,9,MEM,Memphis,50-23,24,25,16,19,0,0,0,0,0,0,0,0,0,0,84,0.447,0.733,0.385,19,40,19,0021401082,1610612763,MEM,Memphis,Courtney Lee,G,,22:23,2,0,2,0,15,6,16,16,0,2,0,1
0021401082,1610612763,MEM,Memphis,201144,Mike Conley,G,,32:04,89.7,123.9,-34.2,0.333,1.0,21.7,0.0,0.125,0.062,21.7,0.615,0.615,0.271,96.22,0.094,2015-03-27T00:00:00,9,MEM,Memphis,50-23,24,25,16,19,0,0,0,0,0,0,0,0,0,0,84,0.447,0.733,0.385,19,40,19,0021401082,1610612763,MEM,Memphis,Mike Conley,G,,32:04,2,0,0,2,23,9,23,24,0,1,4,0
0021401082,1610612763,MEM,Memphis,201145,Jeff Green,,,32:28,81.3,102.0,-20.7,0.071,1.0,7.1,0.037,0.206,0.131,7.1,0.667,0.667,0.195,93.32,0.186,2015-03-27T00:00:00,9,MEM,Memphis,50-23,24,25,16,19,0,0,0,0,0,0,0,0,0,0,84,0.447,0.733,0.385,19,40,19,0021401082,1610612763,MEM,Memphis,Jeff Green,,,32:28,0,2,2,10,18,6,18,26,0,2,1,2
0021401082,1610612763,MEM,Memphis,1713,Vince Carter,,,22:59,87.7,69.6,18.1,0.056,0.0,20.0,0.048,0.179,0.122,0.0,0.25,0.25,0.076,96.81,0.087,2015-03-27T00:00:00,9,MEM,Memphis,50-23,24,25,16,19,0,0,0,0,0,0,0,0,0,0,84,0.447,0.733,0.385,19,40,19,0021401082,1610612763,MEM,Memphis,Vince Carter,,,22:59,0,2,0,2,9,3,12,10,0,0,2,1
0021401082,1610612763,MEM,Memphis,2757,Beno Udrih,,,19:26,83.8,77.6,6.1,0.167,2.0,20.0,0.059,0.0,0.023,10.0,0.286,0.286,0.19,94.9,-0.01,2015-03-27T00:00:00,9,MEM,Memphis,50-23,24,25,16,19,0,0,0,0,0,0,0,0,0,0,84,0.447,0.733,0.385,19,40,19,0021401082,1610612763,MEM,Memphis,Beno Udrih,,,19:26,0,0,2,4,11,2,7,14,0,0,1,1
0021401082,1610612763,MEM,Memphis,201585,Kosta Koufos,,,14:49,82.5,53.8,28.7,0.0,0.0,0.0,0.063,0.2,0.139,12.7,0.667,0.654,0.24,90.32,0.302,2015-03-27T00:00:00,9,MEM,Memphis,50-23,24,25,16,19,0,0,0,0,0,0,0,0,0,0,84,0.447,0.733,0.385,19,40,19,0021401082,1610612763,MEM,Memphis,Kosta Koufos,,,14:49,0,2,0,8,2,0,3,6,1,0,2,1
0021401082,1610612763,MEM,Memphis,201979,Nick Calathes,,,12:00,85.1,96.7,-11.5,0.143,0.5,20.0,0.0,0.111,0.071,40.0,0.5,0.5,0.164,90.16,0.095,2015-03-27T00:00:00,9,MEM,Memphis,50-23,24,25,16,19,0,0,0,0,0,0,0,0,0,0,84,0.447,0.733,0.385,19,40,19,0021401082,1610612763,MEM,Memphis,Nick Calathes,,,12:00,0,0,2,2,9,2,2,8,0,0,0,1
0021401082,1610612763,MEM,Memphis,203919,Jordan Adams,,,2:51,82.0,155.3,-73.3,1.0,0.0,30.1,0.0,0.167,0.143,0.0,1.5,0.862,0.317,115.87,0.32,2015-03-27T00:00:00,9,MEM,Memphis,50-23,24,25,16,19,0,0,0,0,0,0,0,0,0,0,84,0.447,0.733,0.385,19,40,19,0021401082,1610612763,MEM,Memphis,Jordan Adams,,,2:51,0,0,0,0,7,2,2,4,0,0,0,1
0021401082,1610612763,MEM,Memphis,203210,JaMychal Green,,,2:51,82.0,155.3,-73.3,0.5,1.0,50.0,0.0,0.167,0.143,50.0,0.0,0.0,0.137,115.87,0.08,2015-03-27T00:00:00,9,MEM,Memphis,50-23,24,25,16,19,0,0,0,0,0,0,0,0,0,0,84,0.447,0.733,0.385,19,40,19,0021401082,1610612763,MEM,Memphis,JaMychal Green,,,2:51,0,0,0,0,7,2,2,4,0,0,0,0
0021401082,1610612763,MEM,Memphis,202720,Jon Leuer,,,2:51,82.0,155.3,-73.3,0.0,0.0,0.0,0.0,0.0,0.0,0.0,0.0,0.0,0.137,115.87,-0.16,2015-03-27T00:00:00,9,MEM,Memphis,50-23,24,25,16,19,0,0,0,0,0,0,0,0,0,0,84,0.447,0.733,0.385,19,40,19,0021401082,1610612763,MEM,Memphis,Jon Leuer,,,2:51,0,0,0,0,7,2,2,4,0,0,1,0
