GAME_ID_x,TEAM_ID_x,TEAM_ABBREVIATION_x,TEAM_CITY_x,PLAYER_ID,PLAYER_NAME_x,START_POSITION_x,COMMENT_x,MIN_x,OFF_RATING,DEF_RATING,NET_RATING,AST_PCT,AST_TOV,AST_RATIO,OREB_PCT,DREB_PCT,REB_PCT,TM_TOV_PCT,EFG_PCT,TS_PCT,USG_PCT,PACE,PIE,GAME_DATE_EST,GAME_SEQUENCE,TEAM_ABBREVIATION_y,TEAM_CITY_NAME,TEAM_WINS_LOSSES,PTS_QTR1,PTS_QTR2,PTS_QTR3,PTS_QTR4,PTS_OT1,PTS_OT2,PTS_OT3,PTS_OT4,PTS_OT5,PTS_OT6,PTS_OT7,PTS_OT8,PTS_OT9,PTS_OT10,PTS,FG_PCT,FT_PCT,FG3_PCT,AST,REB,TOV,GAME_ID_y,TEAM_ID_y,TEAM_ABBREVIATION,TEAM_CITY_y,PLAYER_NAME_y,START_POSITION_y,COMMENT_y,MIN_y,PTS_OFF_TOV,PTS_2ND_CHANCE,PTS_FB,PTS_PAINT,OPP_PTS_OFF_TOV,OPP_PTS_2ND_CHANCE,OPP_PTS_FB,OPP_PTS_PAINT,BLK,BLKA,PF,PFD
0021401092,1610612755,PHI,Philadelphia,203924,Jerami Grant,F,,21:35,102.7,118.1,-15.4,0.0,0.0,0.0,0.0,0.105,0.051,25.8,0.0,0.174,0.165,86.63,-0.092,2015-03-29T00:00:00,4,PHI,Philadelphia,18-56,20,25,24,17,0,0,0,0,0,0,0,0,0,0,86,0.405,0.533,0.333,18,45,13,0021401092,1610612755,PHI,Philadelphia,Jerami Grant,F,,21:35,0.0,0.0,0.0,0.0,5.0,5.0,4.0,14.0,0.0,0.0,2.0,2.0
0021401092,1610612755,PHI,Philadelphia,203457,Nerlens Noel,F,,34:16,97.2,95.2,1.9,0.143,1.5,17.6,0.033,0.278,0.167,11.8,0.333,0.333,0.192,88.81,0.1,2015-03-29T00:00:00,4,PHI,Philadelphia,18-56,20,25,24,17,0,0,0,0,0,0,0,0,0,0,86,0.405,0.533,0.333,18,45,13,0021401092,1610612755,PHI,Philadelphia,Nerlens Noel,F,,34:16,4.0,0.0,4.0,6.0,9.0,9.0,4.0,18.0,0.0,0.0,4.0,0.0
0021401092,1610612755,PHI,Philadelphia,203128,Furkan Aldemir,C,,26:33,107.0,100.3,6.7,0.0,0.0,0.0,0.333,0.13,0.227,0.0,0.833,0.799,0.114,93.25,0.168,2015-03-29T00:00:00,4,PHI,Philadelphia,18-56,20,25,24,17,0,0,0,0,0,0,0,0,0,0,86,0.405,0.533,0.333,18,45,13,0021401092,1610612755,PHI,Philadelphia,Furkan Aldemir,C,,26:33,0.0,9.0,0.0,10.0,7.0,5.0,4.0,14.0,0.0,0.0,2.0,2.0
0021401092,1610612755,PHI,Philadelphia,203496,Robert Covington,G,,31:13,90.2,84.8,5.4,0.067,1.0,6.3,0.0,0.133,0.067,6.3,0.731,0.684,0.216,91.34,0.151,2015-03-29T00:00:00,4,PHI,Philadelphia,18-56,20,25,24,17,0,0,0,0,0,0,0,0,0,0,86,0.405,0.533,0.333,18,45,13,0021401092,1610612755,PHI,Philadelphia,Robert Covington,G,,31:13,6.0,2.0,6.0,4.0,7.0,7.0,4.0,16.0,0.0,1.0,5.0,1.0
0021401092,1610612755,PHI,Philadelphia,202397,Ish Smith,G,,30:30,91.6,96.2,-4.6,0.389,1.75,25.5,0.034,0.143,0.088,14.6,0.313,0.335,0.296,93.04,0.104,2015-03-29T00:00:00,4,PHI,Philadelphia,18-56,20,25,24,17,0,0,0,0,0,0,0,0,0,0,86,0.405,0.533,0.333,18,45,13,0021401092,1610612755,PHI,Philadelphia,Ish Smith,G,,30:30,2.0,2.0,2.0,10.0,10.0,12.0,4.0,20.0,0.0,0.0,0.0,2.0
0021401092,1610612755,PHI,Philadelphia,201601,Luc Mbah a Moute,,,25:23,78.7,78.1,0.6,0.083,0.0,9.3,0.0,0.121,0.065,0.0,0.313,0.41,0.183,92.89,0.171,2015-03-29T00:00:00,4,PHI,Philadelphia,18-56,20,25,24,17,0,0,0,0,0,0,0,0,0,0,86,0.405,0.533,0.333,18,45,13,0021401092,1610612755,PHI,Philadelphia,Luc Mbah a Moute,,,25:23,0.0,2.0,0.0,2.0,5.0,16.0,5.0,22.0,0.0,1.0,0.0,2.0
0021401092,1610612755,PHI,Philadelphia,203960,JaKarr Sampson,,,16:48,97.7,112.3,-14.6,0.125,0.0,12.5,0.0,0.136,0.079,0.0,0.643,0.643,0.201,93.89,0.151,2015-03-29T00:00:00,4,PHI,Philadelphia,18-56,20,25,24,17,0,0,0,0,0,0,0,0,0,0,86,0.405,0.533,0.333,18,45,13,0021401092,1610612755,PHI,Philadelphia,JaKarr Sampson,,,16:48,0.0,0.0,3.0,4.0,5.0,12.0,5.0,18.0,0.0,0.0,1.0,0.0
0021401092,1610612755,PHI,Philadelphia,203138,Hollis Thompson,,,23:43,80.2,81.3,-1.1,0.0,0.0,0.0,0.0,0.103,0.056,0.0,0.7,0.7,0.099,97.77,0.137,2015-03-29T00:00:00,4,PHI,Philadelphia,18-56,20,25,24,17,0,0,0,0,0,0,0,0,0,0,86,0.405,0.533,0.333,18,45,13,0021401092,1610612755,PHI,Philadelphia,Hollis Thompson,,,23:43,0.0,0.0,0.0,2.0,7.0,12.0,5.0,18.0,0.0,0.0,2.0,0.0
0021401092,1610612755,PHI,Philadelphia,203477,Isaiah Canaan,,,17:29,95.1,91.9,3.2,0.625,1.67,26.3,0.0,0.042,0.024,15.8,0.364,0.364,0.404,90.98,0.04,2015-03-29T00:00:00,4,PHI,Philadelphia,18-56,20,25,24,17,0,0,0,0,0,0,0,0,0,0,86,0.405,0.533,0.333,18,45,13,0021401092,1610612755,PHI,Philadelphia,Isaiah Canaan,,,17:29,0.0,0.0,0.0,2.0,2.0,7.0,5.0,14.0,0.0,0.0,2.0,2.0
0021401092,1610612755,PHI,Philadelphia,203156,Henry Sims,,,12:30,88.9,103.5,-14.7,0.0,0.0,0.0,0.154,0.0,0.069,25.8,0.5,0.521,0.145,97.61,-0.05,2015-03-29T00:00:00,4,PHI,Philadelphia,18-56,20,25,24,17,0,0,0,0,0,0,0,0,0,0,86,0.405,0.533,0.333,18,45,13,0021401092,1610612755,PHI,Philadelphia,Henry Sims,,,12:30,2.0,2.0,0.0,2.0,3.0,10.0,5.0,16.0,0.0,0.0,3.0,1.0
0021401092,1610612755,PHI,Philadelphia,2202,Jason Richardson,,DND - Left Knee Injury                  ,,,,,,,0.0,,,,,,,0.0,,,2015-03-29T00:00:00,4,PHI,Philadelphia,18-56,20,25,24,17,0,0,0,0,0,0,0,0,0,0,86,0.405,0.533,0.333,18,45,13,0021401092,1610612755,PHI,Philadelphia,Jason Richardson,,DND - Left Knee Injury                  ,,,,,,,,,,,,,
0021401092,1610612755,PHI,Philadelphia,203922,Glenn Robinson III,,DNP - Coach's Decision                  ,,,,,,,0.0,,,,,,,0.0,,,2015-03-29T00:00:00,4,PHI,Philadelphia,18-56,20,25,24,17,0,0,0,0,0,0,0,0,0,0,86,0.405,0.533,0.333,18,45,13,0021401092,1610612755,PHI,Philadelphia,Glenn Robinson III,,DNP - Coach's Decision                  ,,,,,,,,,,,,,
0021401092,1610612755,PHI,Philadelphia,203080,Thomas Robinson,,DNP - Coach's Decision                  ,,,,,,,0.0,,,,,,,0.0,,,2015-03-29T00:00:00,4,PHI,Philadelphia,18-56,20,25,24,17,0,0,0,0,0,0,0,0,0,0,86,0.405,0.533,0.333,18,45,13,0021401092,1610612755,PHI,Philadelphia,Thomas Robinson,,DNP - Coach's Decision                  ,,,,,,,,,,,,,
0021401092,1610612739,CLE,Cleveland,2544,LeBron James,F,,37:53,93.0,96.3,-3.2,0.316,1.2,15.9,0.053,0.237,0.145,13.3,0.354,0.375,0.386,91.02,0.116,2015-03-29T00:00:00,4,CLE,Cleveland,48-27,26,27,19,15,0,0,0,0,0,0,0,0,0,0,87,0.388,0.667,0.391,17,53,17,0021401092,1610612739,CLE,Cleveland,LeBron James,F,,37:53,4.0,2.0,0.0,10.0,9.0,12.0,10.0,34.0,1.0,0.0,0.0,6.0
0021401092,1610612739,CLE,Cleveland,201567,Kevin Love,F,,30:58,101.4,82.9,18.5,0.056,0.5,7.4,0.094,0.241,0.164,14.9,0.5,0.479,0.172,93.38,0.143,2015-03-29T00:00:00,4,CLE,Cleveland,48-27,26,27,19,15,0,0,0,0,0,0,0,0,0,0,87,0.388,0.667,0.391,17,53,17,0021401092,1610612739,CLE,Cleveland,Kevin Love,F,,30:58,3.0,2.0,0.0,4.0,12.0,13.0,12.0,30.0,1.0,0.0,1.0,1.0
0021401092,1610612739,CLE,Cleveland,202389,Timofey Mozgov,C,,32:30,95.0,100.3,-5.3,0.063,0.5,7.8,0.147,0.161,0.154,15.5,0.667,0.709,0.167,87.72,0.148,2015-03-29T00:00:00,4,CLE,Cleveland,48-27,26,27,19,15,0,0,0,0,0,0,0,0,0,0,87,0.388,0.667,0.391,17,53,17,0021401092,1610612739,CLE,Cleveland,Timofey Mozgov,C,,32:30,0.0,4.0,2.0,10.0,11.0,17.0,12.0,34.0,0.0,0.0,4.0,3.0
0021401092,1610612739,CLE,Cleveland,2747,JR Smith,G,,37:25,91.3,91.9,-0.5,0.095,0.0,20.0,0.026,0.057,0.041,0.0,0.563,0.563,0.095,91.72,0.079,2015-03-29T00:00:00,4,CLE,Cleveland,48-27,26,27,19,15,0,0,0,0,0,0,0,0,0,0,87,0.388,0.667,0.391,17,53,17,0021401092,1610612739,CLE,Cleveland,JR Smith,G,,37:25,0.0,0.0,0.0,0.0,12.0,15.0,15.0,34.0,0.0,0.0,1.0,0.0
0021401092,1610612739,CLE,Cleveland,202681,Kyrie Irving,G,,38:15,92.8,87.9,5.0,0.222,0.8,14.1,0.0,0.081,0.038,17.7,0.417,0.44,0.282,90.98,0.084,2015-03-29T00:00:00,4,CLE,Cleveland,48-27,26,27,19,15,0,0,0,0,0,0,0,0,0,0,87,0.388,0.667,0.391,17,53,17,0021401092,1610612739,CLE,Cleveland,Kyrie Irving,G,,38:15,3.0,7.0,0.0,4.0,12.0,15.0,15.0,32.0,0.0,0.0,1.0,5.0
0021401092,1610612739,CLE,Cleveland,202697,Iman Shumpert,,,10:58,106.3,83.5,22.8,0.0,0.0,0.0,0.0,0.111,0.048,0.0,0.429,0.514,0.318,101.28,0.187,2015-03-29T00:00:00,4,CLE,Cleveland,48-27,26,27,19,15,0,0,0,0,0,0,0,0,0,0,87,0.388,0.667,0.391,17,53,17,0021401092,1610612739,CLE,Cleveland,Iman Shumpert,,,10:58,2.0,0.0,5.0,0.0,5.0,3.0,5.0,10.0,0.0,0.0,0.0,2.0
0021401092,1610612739,CLE,Cleveland,202684,Tristan Thompson,,,19:42,90.3,88.9,1.5,0.0,0.0,0.0,0.174,0.25,0.209,14.5,0.4,0.51,0.138,100.65,0.144,2015-03-29T00:00:00,4,CLE,Cleveland,48-27,26,27,19,15,0,0,0,0,0,0,0,0,0,0,87,0.388,0.667,0.391,17,53,17,0021401092,1610612739,CLE,Cleveland,Tristan Thompson,,,19:42,0.0,2.0,2.0,4.0,5.0,2.0,3.0,12.0,0.0,0.0,1.0,3.0
0021401092,1610612739,CLE,Cleveland,203521,Matthew Dellavedova,,,20:09,82.1,85.8,-3.7,0.154,0.0,50.0,0.04,0.091,0.064,0.0,0.0,0.0,0.044,89.38,0.011,2015-03-29T00:00:00,4,CLE,Cleveland,48-27,26,27,19,15,0,0,0,0,0,0,0,0,0,0,87,0.388,0.667,0.391,17,53,17,0021401092,1610612739,CLE,Cleveland,Matthew Dellavedova,,,20:09,0.0,0.0,0.0,0.0,2.0,6.0,0.0,14.0,0.0,0.0,2.0,0.0
0021401092,1610612739,CLE,Cleveland,2592,James Jones,,,5:52,110.5,143.1,-32.6,0.0,0.0,0.0,0.0,0.0,0.0,0.0,0.0,0.0,0.078,96.71,-0.068,2015-03-29T00:00:00,4,CLE,Cleveland,48-27,26,27,19,15,0,0,0,0,0,0,0,0,0,0,87,0.388,0.667,0.391,17,53,17,0021401092,1610612739,CLE,Cleveland,James Jones,,,5:52,0.0,0.0,0.0,0.0,0.0,0.0,3.0,6.0,0.0,0.0,1.0,1.0
0021401092,1610612739,CLE,Cleveland,1890,Shawn Marion,,,6:18,114.8,126.3,-11.5,0.25,0.5,25.0,0.222,0.167,0.2,50.0,1.0,1.0,0.165,91.73,0.091,2015-03-29T00:00:00,4,CLE,Cleveland,48-27,26,27,19,15,0,0,0,0,0,0,0,0,0,0,87,0.388,0.667,0.391,17,53,17,0021401092,1610612739,CLE,Cleveland,Shawn Marion,,,6:18,0.0,2.0,0.0,2.0,2.0,2.0,0.0,4.0,0.0,0.0,1.0,0.0
0021401092,1610612739,CLE,Cleveland,2217,Brendan Haywood,,DNP - Coach's Decision                  ,,,,,,,0.0,,,,,,,0.0,,,2015-03-29T00:00:00,4,CLE,Cleveland,48-27,26,27,19,15,0,0,0,0,0,0,0,0,0,0,87,0.388,0.667,0.391,17,53,17,0021401092,1610612739,CLE,Cleveland,Brendan Haywood,,DNP - Coach's Decision                  ,,,,,,,,,,,,,
0021401092,1610612739,CLE,Cleveland,2034,Mike Miller,,DNP - Coach's Decision                  ,,,,,,,0.0,,,,,,,0.0,,,2015-03-29T00:00:00,4,CLE,Cleveland,48-27,26,27,19,15,0,0,0,0,0,0,0,0,0,0,87,0.388,0.667,0.391,17,53,17,0021401092,1610612739,CLE,Cleveland,Mike Miller,,DNP - Coach's Decision                  ,,,,,,,,,,,,,
0021401092,1610612739,CLE,Cleveland,2570,Kendrick Perkins,,DNP - Coach's Decision                  ,,,,,,,0.0,,,,,,,0.0,,,2015-03-29T00:00:00,4,CLE,Cleveland,48-27,26,27,19,15,0,0,0,0,0,0,0,0,0,0,87,0.388,0.667,0.391,17,53,17,0021401092,1610612739,CLE,Cleveland,Kendrick Perkins,,DNP - Coach's Decision                  ,,,,,,,,,,,,,
