GAME_ID_x,TEAM_ID_x,TEAM_ABBREVIATION_x,TEAM_CITY_x,PLAYER_ID,PLAYER_NAME_x,START_POSITION_x,COMMENT_x,MIN_x,OFF_RATING,DEF_RATING,NET_RATING,AST_PCT,AST_TOV,AST_RATIO,OREB_PCT,DREB_PCT,REB_PCT,TM_TOV_PCT,EFG_PCT,TS_PCT,USG_PCT,PACE,PIE,GAME_DATE_EST,GAME_SEQUENCE,TEAM_ABBREVIATION_y,TEAM_CITY_NAME,TEAM_WINS_LOSSES,PTS_QTR1,PTS_QTR2,PTS_QTR3,PTS_QTR4,PTS_OT1,PTS_OT2,PTS_OT3,PTS_OT4,PTS_OT5,PTS_OT6,PTS_OT7,PTS_OT8,PTS_OT9,PTS_OT10,PTS,FG_PCT,FT_PCT,FG3_PCT,AST,REB,TOV,GAME_ID_y,TEAM_ID_y,TEAM_ABBREVIATION,TEAM_CITY_y,PLAYER_NAME_y,START_POSITION_y,COMMENT_y,MIN_y,PTS_OFF_TOV,PTS_2ND_CHANCE,PTS_FB,PTS_PAINT,OPP_PTS_OFF_TOV,OPP_PTS_2ND_CHANCE,OPP_PTS_FB,OPP_PTS_PAINT,BLK,BLKA,PF,PFD
0021401099,1610612742,DAL,Dallas,202718,Chandler Parsons,F,,36:36,95.6,105.7,-10.0,0.056,0.33,3.8,0.026,0.346,0.156,11.5,0.6,0.608,0.303,97.76,0.163,2015-03-29T00:00:00,8,DAL,Dallas,45-29,27,34,18,20,0,0,0,0,0,0,0,0,0,0,99,0.444,0.684,0.4,20,41,12,0021401099,1610612742,DAL,Dallas,Chandler Parsons,F,,36:36,2.0,8.0,2.0,16.0,9.0,5.0,4.0,26.0,1.0,1.0,4.0,4.0
0021401099,1610612742,DAL,Dallas,1717,Dirk Nowitzki,F,,33:41,100.4,114.6,-14.2,0.0,0.0,0.0,0.0,0.208,0.093,11.6,0.577,0.625,0.218,101.57,0.103,2015-03-29T00:00:00,8,DAL,Dallas,45-29,27,34,18,20,0,0,0,0,0,0,0,0,0,0,99,0.444,0.684,0.4,20,41,12,0021401099,1610612742,DAL,Dallas,Dirk Nowitzki,F,,33:41,4.0,0.0,0.0,2.0,7.0,5.0,0.0,24.0,0.0,0.0,3.0,4.0
0021401099,1610612742,DAL,Dallas,2199,Tyson Chandler,C,,28:11,105.5,97.8,7.8,0.087,0.0,28.6,0.071,0.45,0.229,0.0,0.2,0.2,0.081,95.6,0.089,2015-03-29T00:00:00,8,DAL,Dallas,45-29,27,34,18,20,0,0,0,0,0,0,0,0,0,0,99,0.444,0.684,0.4,20,41,12,0021401099,1610612742,DAL,Dallas,Tyson Chandler,C,,28:11,0.0,2.0,0.0,2.0,7.0,3.0,4.0,20.0,1.0,0.0,3.0,3.0
0021401099,1610612742,DAL,Dallas,2210,Richard Jefferson,G,,16:27,97.7,134.0,-36.3,0.182,2.0,22.2,0.0,0.0,0.0,11.1,0.333,0.333,0.19,98.97,-0.028,2015-03-29T00:00:00,8,DAL,Dallas,45-29,27,34,18,20,0,0,0,0,0,0,0,0,0,0,99,0.444,0.684,0.4,20,41,12,0021401099,1610612742,DAL,Dallas,Richard Jefferson,G,,16:27,2.0,0.0,2.0,4.0,5.0,3.0,0.0,14.0,0.0,0.0,3.0,3.0
0021401099,1610612742,DAL,Dallas,200765,Rajon Rondo,G,,38:00,95.8,104.0,-8.2,0.455,5.0,37.8,0.077,0.138,0.103,7.6,0.571,0.589,0.193,97.37,0.196,2015-03-29T00:00:00,8,DAL,Dallas,45-29,27,34,18,20,0,0,0,0,0,0,0,0,0,0,99,0.444,0.684,0.4,20,41,12,0021401099,1610612742,DAL,Dallas,Rajon Rondo,G,,38:00,2.0,0.0,2.0,12.0,9.0,7.0,4.0,30.0,1.0,0.0,2.0,2.0
0021401099,1610612742,DAL,Dallas,2405,Amar'e Stoudemire,,,19:11,92.3,109.5,-17.1,0.0,0.0,0.0,0.056,0.063,0.059,0.0,0.417,0.427,0.278,104.71,0.042,2015-03-29T00:00:00,8,DAL,Dallas,45-29,27,34,18,20,0,0,0,0,0,0,0,0,0,0,99,0.444,0.684,0.4,20,41,12,0021401099,1610612742,DAL,Dallas,Amar'e Stoudemire,,,19:11,0.0,0.0,0.0,6.0,4.0,4.0,0.0,14.0,0.0,1.0,3.0,3.0
0021401099,1610612742,DAL,Dallas,202329,Al-Farouq Aminu,,,14:38,98.8,102.0,-3.1,0.0,0.0,0.0,0.067,0.083,0.074,0.0,0.25,0.307,0.134,106.28,-0.012,2015-03-29T00:00:00,8,DAL,Dallas,45-29,27,34,18,20,0,0,0,0,0,0,0,0,0,0,99,0.444,0.684,0.4,20,41,12,0021401099,1610612742,DAL,Dallas,Al-Farouq Aminu,,,14:38,0.0,0.0,1.0,2.0,2.0,2.0,0.0,8.0,0.0,1.0,2.0,1.0
0021401099,1610612742,DAL,Dallas,2734,Devin Harris,,,27:12,87.1,92.3,-5.2,0.143,3.0,30.4,0.032,0.04,0.036,10.1,0.3,0.34,0.104,102.42,0.007,2015-03-29T00:00:00,8,DAL,Dallas,45-29,27,34,18,20,0,0,0,0,0,0,0,0,0,0,99,0.444,0.684,0.4,20,41,12,0021401099,1610612742,DAL,Dallas,Devin Harris,,,27:12,0.0,0.0,0.0,0.0,4.0,4.0,0.0,14.0,0.0,1.0,2.0,3.0
0021401099,1610612742,DAL,Dallas,101109,Raymond Felton,,,14:25,122.5,97.9,24.6,0.083,0.33,9.2,0.0,0.0,0.0,27.6,0.583,0.654,0.301,104.01,0.055,2015-03-29T00:00:00,8,DAL,Dallas,45-29,27,34,18,20,0,0,0,0,0,0,0,0,0,0,99,0.444,0.684,0.4,20,41,12,0021401099,1610612742,DAL,Dallas,Raymond Felton,,,14:25,0.0,0.0,2.0,0.0,4.0,0.0,4.0,10.0,0.0,1.0,1.0,2.0
0021401099,1610612742,DAL,Dallas,101111,Charlie Villanueva,,,11:40,85.1,101.0,-15.9,0.143,0.0,16.7,0.0,0.2,0.083,0.0,0.3,0.3,0.206,94.85,0.0,2015-03-29T00:00:00,8,DAL,Dallas,45-29,27,34,18,20,0,0,0,0,0,0,0,0,0,0,99,0.444,0.684,0.4,20,41,12,0021401099,1610612742,DAL,Dallas,Charlie Villanueva,,,11:40,0.0,0.0,0.0,0.0,4.0,2.0,4.0,10.0,0.0,1.0,2.0,0.0
0021401099,1610612742,DAL,Dallas,203108,Bernard James,,DNP - Coach's Decision                  ,,,,,,,0.0,,,,,,,0.0,,,2015-03-29T00:00:00,8,DAL,Dallas,45-29,27,34,18,20,0,0,0,0,0,0,0,0,0,0,99,0.444,0.684,0.4,20,41,12,0021401099,1610612742,DAL,Dallas,Bernard James,,DNP - Coach's Decision                  ,,,,,,,,,,,,,
0021401099,1610612742,DAL,Dallas,203939,Dwight Powell,,DNP - Coach's Decision                  ,,,,,,,0.0,,,,,,,0.0,,,2015-03-29T00:00:00,8,DAL,Dallas,45-29,27,34,18,20,0,0,0,0,0,0,0,0,0,0,99,0.444,0.684,0.4,20,41,12,0021401099,1610612742,DAL,Dallas,Dwight Powell,,DNP - Coach's Decision                  ,,,,,,,,,,,,,
0021401099,1610612742,DAL,Dallas,202962,Greg Smith,,DNP - Coach's Decision                  ,,,,,,,0.0,,,,,,,0.0,,,2015-03-29T00:00:00,8,DAL,Dallas,45-29,27,34,18,20,0,0,0,0,0,0,0,0,0,0,99,0.444,0.684,0.4,20,41,12,0021401099,1610612742,DAL,Dallas,Greg Smith,,DNP - Coach's Decision                  ,,,,,,,,,,,,,
0021401099,1610612754,IND,Indiana,203524,Solomon Hill,F,,14:17,127.2,111.8,15.4,0.462,3.0,60.0,0.0,0.083,0.053,20.0,0.5,0.5,0.138,99.95,0.035,2015-03-29T00:00:00,8,IND,Indiana,32-41,33,22,23,26,0,0,0,0,0,0,0,0,0,0,104,0.5,0.692,0.588,23,43,15,0021401099,1610612754,IND,Indiana,Solomon Hill,F,,14:17,0.0,0.0,0.0,2.0,0.0,5.0,0.0,10.0,0.0,1.0,4.0,2.0
0021401099,1610612754,IND,Indiana,2561,David West,F,,28:19,105.5,95.4,10.1,0.294,1.25,29.6,0.0,0.156,0.096,23.7,0.571,0.635,0.202,97.87,0.142,2015-03-29T00:00:00,8,IND,Indiana,32-41,33,22,23,26,0,0,0,0,0,0,0,0,0,0,104,0.5,0.692,0.588,23,43,15,0021401099,1610612754,IND,Indiana,David West,F,,28:19,0.0,0.0,0.0,2.0,4.0,8.0,6.0,26.0,2.0,0.0,2.0,2.0
0021401099,1610612754,IND,Indiana,201579,Roy Hibbert,C,,25:06,101.8,113.1,-11.2,0.133,2.0,13.6,0.0,0.304,0.175,6.8,0.5,0.595,0.255,95.21,0.149,2015-03-29T00:00:00,8,IND,Indiana,32-41,33,22,23,26,0,0,0,0,0,0,0,0,0,0,104,0.5,0.692,0.588,23,43,15,0021401099,1610612754,IND,Indiana,Roy Hibbert,C,,25:06,0.0,0.0,0.0,2.0,4.0,7.0,8.0,24.0,1.0,0.0,3.0,4.0
0021401099,1610612754,IND,Indiana,101139,CJ Miles,G,,28:07,108.7,106.2,2.5,0.077,0.5,5.7,0.0,0.133,0.082,11.3,0.958,0.956,0.292,96.92,0.239,2015-03-29T00:00:00,8,IND,Indiana,32-41,33,22,23,26,0,0,0,0,0,0,0,0,0,0,104,0.5,0.692,0.588,23,43,15,0021401099,1610612754,IND,Indiana,CJ Miles,G,,28:07,2.0,0.0,2.0,8.0,4.0,10.0,8.0,30.0,0.0,0.0,2.0,4.0
0021401099,1610612754,IND,Indiana,201588,George Hill,G,,36:23,107.1,94.1,13.1,0.227,5.0,27.8,0.0,0.105,0.063,5.6,0.583,0.583,0.176,97.1,0.134,2015-03-29T00:00:00,8,IND,Indiana,32-41,33,22,23,26,0,0,0,0,0,0,0,0,0,0,104,0.5,0.692,0.588,23,43,15,0021401099,1610612754,IND,Indiana,George Hill,G,,36:23,3.0,3.0,0.0,6.0,6.0,10.0,9.0,36.0,1.0,0.0,0.0,2.0
0021401099,1610612754,IND,Indiana,201155,Rodney Stuckey,,,30:01,99.2,88.1,11.1,0.105,0.0,11.8,0.0,0.152,0.086,0.0,0.321,0.336,0.224,102.6,0.067,2015-03-29T00:00:00,8,IND,Indiana,32-41,33,22,23,26,0,0,0,0,0,0,0,0,0,0,104,0.5,0.692,0.588,23,43,15,0021401099,1610612754,IND,Indiana,Rodney Stuckey,,,30:01,2.0,0.0,0.0,6.0,10.0,3.0,7.0,28.0,0.0,1.0,0.0,1.0
0021401099,1610612754,IND,Indiana,101133,Ian Mahinmi,,,17:01,125.9,72.9,53.0,0.077,1.0,14.8,0.077,0.167,0.129,14.8,0.333,0.315,0.159,102.33,0.024,2015-03-29T00:00:00,8,IND,Indiana,32-41,33,22,23,26,0,0,0,0,0,0,0,0,0,0,104,0.5,0.692,0.588,23,43,15,0021401099,1610612754,IND,Indiana,Ian Mahinmi,,,17:01,2.0,2.0,0.0,2.0,2.0,3.0,1.0,12.0,1.0,0.0,3.0,2.0
0021401099,1610612754,IND,Indiana,201228,C.J. Watson,,,23:36,97.3,92.4,4.9,0.067,1.0,11.4,0.0,0.143,0.071,11.4,0.4,0.518,0.148,100.77,0.031,2015-03-29T00:00:00,8,IND,Indiana,32-41,33,22,23,26,0,0,0,0,0,0,0,0,0,0,104,0.5,0.692,0.588,23,43,15,0021401099,1610612754,IND,Indiana,C.J. Watson,,,23:36,0.0,0.0,0.0,2.0,6.0,2.0,3.0,20.0,0.0,0.0,4.0,3.0
0021401099,1610612754,IND,Indiana,2449,Luis Scola,,,22:08,102.4,96.5,5.9,0.0,0.0,0.0,0.056,0.2,0.132,11.4,0.5,0.515,0.172,105.79,0.05,2015-03-29T00:00:00,8,IND,Indiana,32-41,33,22,23,26,0,0,0,0,0,0,0,0,0,0,104,0.5,0.692,0.588,23,43,15,0021401099,1610612754,IND,Indiana,Luis Scola,,,22:08,2.0,2.0,2.0,4.0,6.0,2.0,3.0,22.0,0.0,1.0,4.0,4.0
0021401099,1610612754,IND,Indiana,204014,Damjan Rudez,,,11:36,101.4,107.4,-6.0,0.0,0.0,0.0,0.1,0.1,0.1,33.3,1.5,1.5,0.105,107.08,0.145,2015-03-29T00:00:00,8,IND,Indiana,32-41,33,22,23,26,0,0,0,0,0,0,0,0,0,0,104,0.5,0.692,0.588,23,43,15,0021401099,1610612754,IND,Indiana,Damjan Rudez,,,11:36,0.0,0.0,0.0,0.0,4.0,0.0,0.0,8.0,0.0,0.0,1.0,1.0
0021401099,1610612754,IND,Indiana,202730,Lavoy Allen,,,3:26,57.1,147.8,-90.7,0.0,0.0,0.0,0.25,0.667,0.429,25.0,0.333,0.333,0.444,100.94,0.0,2015-03-29T00:00:00,8,IND,Indiana,32-41,33,22,23,26,0,0,0,0,0,0,0,0,0,0,104,0.5,0.692,0.588,23,43,15,0021401099,1610612754,IND,Indiana,Lavoy Allen,,,3:26,0.0,0.0,0.0,0.0,4.0,0.0,0.0,4.0,1.0,0.0,2.0,0.0
0021401099,1610612754,IND,Indiana,203142,Chris Copeland,,DNP - Coach's Decision                  ,,,,,,,0.0,,,,,,,0.0,,,2015-03-29T00:00:00,8,IND,Indiana,32-41,33,22,23,26,0,0,0,0,0,0,0,0,0,0,104,0.5,0.692,0.588,23,43,15,0021401099,1610612754,IND,Indiana,Chris Copeland,,DNP - Coach's Decision                  ,,,,,,,,,,,,,
0021401099,1610612754,IND,Indiana,202388,Donald Sloan,,DNP - Coach's Decision                  ,,,,,,,0.0,,,,,,,0.0,,,2015-03-29T00:00:00,8,IND,Indiana,32-41,33,22,23,26,0,0,0,0,0,0,0,0,0,0,104,0.5,0.692,0.588,23,43,15,0021401099,1610612754,IND,Indiana,Donald Sloan,,DNP - Coach's Decision                  ,,,,,,,,,,,,,
