GAME_ID_x,TEAM_ID_x,TEAM_ABBREVIATION_x,TEAM_CITY_x,PLAYER_ID,PLAYER_NAME_x,START_POSITION_x,COMMENT_x,MIN_x,OFF_RATING,DEF_RATING,NET_RATING,AST_PCT,AST_TOV,AST_RATIO,OREB_PCT,DREB_PCT,REB_PCT,TM_TOV_PCT,EFG_PCT,TS_PCT,USG_PCT,PACE,PIE,GAME_DATE_EST,GAME_SEQUENCE,TEAM_ABBREVIATION_y,TEAM_CITY_NAME,TEAM_WINS_LOSSES,PTS_QTR1,PTS_QTR2,PTS_QTR3,PTS_QTR4,PTS_OT1,PTS_OT2,PTS_OT3,PTS_OT4,PTS_OT5,PTS_OT6,PTS_OT7,PTS_OT8,PTS_OT9,PTS_OT10,PTS,FG_PCT,FT_PCT,FG3_PCT,AST,REB,TOV,GAME_ID_y,TEAM_ID_y,TEAM_ABBREVIATION,TEAM_CITY_y,PLAYER_NAME_y,START_POSITION_y,COMMENT_y,MIN_y,PTS_OFF_TOV,PTS_2ND_CHANCE,PTS_FB,PTS_PAINT,OPP_PTS_OFF_TOV,OPP_PTS_2ND_CHANCE,OPP_PTS_FB,OPP_PTS_PAINT,BLK,BLKA,PF,PFD
0021401123,1610612740,NOP,New Orleans,202347,Quincy Pondexter,F,,17:57,156.0,133.0,23.1,0.125,0.0,28.6,0.0,0.063,0.048,0.0,1.0,1.0,0.163,81.35,0.11,2015-04-01T00:00:00,12,NOP,New Orleans,40-34,29,31,30,23,0,0,0,0,0,0,0,0,0,0,113,0.564,0.762,0.563,31,40,6,0021401123,1610612740,NOP,New Orleans,Quincy Pondexter,F,,17:57,0.0,0.0,0.0,2.0,4.0,5.0,11.0,16.0,0.0,0.0,2.0,0.0
0021401123,1610612740,NOP,New Orleans,203076,Anthony Davis,F,,34:47,136.9,113.6,23.3,0.273,6.0,26.2,0.043,0.2,0.132,4.4,0.6,0.63,0.255,82.11,0.183,2015-04-01T00:00:00,12,NOP,New Orleans,40-34,29,31,30,23,0,0,0,0,0,0,0,0,0,0,113,0.564,0.762,0.563,31,40,6,0021401123,1610612740,NOP,New Orleans,Anthony Davis,F,,34:47,0.0,2.0,2.0,10.0,4.0,7.0,11.0,34.0,4.0,0.0,1.0,4.0
0021401123,1610612740,NOP,New Orleans,201600,Omer Asik,C,,22:22,141.5,126.4,15.0,0.0,0.0,0.0,0.357,0.263,0.303,0.0,0.571,0.571,0.168,80.18,0.123,2015-04-01T00:00:00,12,NOP,New Orleans,40-34,29,31,30,23,0,0,0,0,0,0,0,0,0,0,113,0.564,0.762,0.563,31,40,6,0021401123,1610612740,NOP,New Orleans,Omer Asik,C,,22:22,2.0,2.0,0.0,8.0,4.0,5.0,11.0,20.0,1.0,1.0,0.0,1.0
0021401123,1610612740,NOP,New Orleans,201569,Eric Gordon,G,,27:48,142.7,119.1,23.6,0.192,2.5,34.2,0.0,0.087,0.05,13.7,0.6,0.654,0.183,82.43,0.054,2015-04-01T00:00:00,12,NOP,New Orleans,40-34,29,31,30,23,0,0,0,0,0,0,0,0,0,0,113,0.564,0.762,0.563,31,40,6,0021401123,1610612740,NOP,New Orleans,Eric Gordon,G,,27:48,2.0,0.0,0.0,0.0,4.0,5.0,11.0,28.0,0.0,0.0,3.0,3.0
0021401123,1610612740,NOP,New Orleans,201936,Tyreke Evans,G,,27:38,139.2,112.6,26.6,0.421,8.0,40.2,0.0,0.087,0.045,5.0,0.7,0.735,0.222,82.82,0.139,2015-04-01T00:00:00,12,NOP,New Orleans,40-34,29,31,30,23,0,0,0,0,0,0,0,0,0,0,113,0.564,0.762,0.563,31,40,6,0021401123,1610612740,NOP,New Orleans,Tyreke Evans,G,,27:38,4.0,0.0,2.0,8.0,2.0,5.0,9.0,26.0,0.0,0.0,4.0,2.0
0021401123,1610612740,NOP,New Orleans,201967,Dante Cunningham,,,20:29,135.1,98.6,36.5,0.063,0.0,20.0,0.0,0.111,0.063,0.0,0.75,0.75,0.101,85.58,0.099,2015-04-01T00:00:00,12,NOP,New Orleans,40-34,29,31,30,23,0,0,0,0,0,0,0,0,0,0,113,0.564,0.762,0.563,31,40,6,0021401123,1610612740,NOP,New Orleans,Dante Cunningham,,,20:29,0.0,0.0,0.0,4.0,0.0,7.0,3.0,20.0,0.0,0.0,0.0,0.0
0021401123,1610612740,NOP,New Orleans,201582,Alexis Ajinca,,,13:51,128.1,93.8,34.3,0.083,0.0,12.7,0.1,0.167,0.136,0.0,0.333,0.436,0.248,90.8,0.081,2015-04-01T00:00:00,12,NOP,New Orleans,40-34,29,31,30,23,0,0,0,0,0,0,0,0,0,0,113,0.564,0.762,0.563,31,40,6,0021401123,1610612740,NOP,New Orleans,Alexis Ajinca,,,13:51,0.0,4.0,0.0,4.0,0.0,5.0,3.0,14.0,0.0,0.0,1.0,1.0
0021401123,1610612740,NOP,New Orleans,202708,Norris Cole,,,27:13,126.0,94.7,31.3,0.308,0.0,25.0,0.045,0.04,0.043,0.0,0.708,0.708,0.222,84.37,0.207,2015-04-01T00:00:00,12,NOP,New Orleans,40-34,29,31,30,23,0,0,0,0,0,0,0,0,0,0,113,0.564,0.762,0.563,31,40,6,0021401123,1610612740,NOP,New Orleans,Norris Cole,,,27:13,3.0,2.0,3.0,10.0,2.0,9.0,5.0,28.0,1.0,1.0,0.0,0.0
0021401123,1610612740,NOP,New Orleans,201583,Ryan Anderson,,,21:35,130.5,89.4,41.2,0.071,0.0,6.8,0.0,0.143,0.083,0.0,0.545,0.623,0.306,91.18,0.183,2015-04-01T00:00:00,12,NOP,New Orleans,40-34,29,31,30,23,0,0,0,0,0,0,0,0,0,0,113,0.564,0.762,0.563,31,40,6,0021401123,1610612740,NOP,New Orleans,Ryan Anderson,,,21:35,0.0,0.0,0.0,2.0,3.0,7.0,3.0,18.0,0.0,0.0,1.0,4.0
0021401123,1610612740,NOP,New Orleans,201962,Toney Douglas,,,18:08,118.1,93.2,24.9,0.143,2.0,31.1,0.071,0.353,0.226,15.5,0.333,0.291,0.115,92.81,0.06,2015-04-01T00:00:00,12,NOP,New Orleans,40-34,29,31,30,23,0,0,0,0,0,0,0,0,0,0,113,0.564,0.762,0.563,31,40,6,0021401123,1610612740,NOP,New Orleans,Toney Douglas,,,18:08,0.0,0.0,2.0,2.0,3.0,5.0,3.0,14.0,0.0,0.0,4.0,1.0
0021401123,1610612740,NOP,New Orleans,203481,Jeff Withey,,,3:25,85.4,69.4,15.9,0.0,0.0,0.0,0.0,0.25,0.167,53.2,0.0,0.568,0.229,118.29,-0.75,2015-04-01T00:00:00,12,NOP,New Orleans,40-34,29,31,30,23,0,0,0,0,0,0,0,0,0,0,113,0.564,0.762,0.563,31,40,6,0021401123,1610612740,NOP,New Orleans,Jeff Withey,,,3:25,0.0,0.0,0.0,0.0,3.0,0.0,0.0,2.0,1.0,0.0,2.0,1.0
0021401123,1610612740,NOP,New Orleans,202337,Luke Babbitt,,,2:45,68.3,52.4,15.9,0.0,0.0,0.0,0.0,0.0,0.0,0.0,0.0,0.0,0.0,130.56,0.0,2015-04-01T00:00:00,12,NOP,New Orleans,40-34,29,31,30,23,0,0,0,0,0,0,0,0,0,0,113,0.564,0.762,0.563,31,40,6,0021401123,1610612740,NOP,New Orleans,Luke Babbitt,,,2:45,0.0,0.0,0.0,0.0,3.0,0.0,0.0,0.0,0.0,0.0,0.0,0.0
0021401123,1610612740,NOP,New Orleans,202690,Jimmer Fredette,,,2:02,79.1,70.9,8.2,0.5,0.0,100.0,0.0,0.0,0.0,0.0,0.0,0.0,0.0,141.17,-1.0,2015-04-01T00:00:00,12,NOP,New Orleans,40-34,29,31,30,23,0,0,0,0,0,0,0,0,0,0,113,0.564,0.762,0.563,31,40,6,0021401123,1610612740,NOP,New Orleans,Jimmer Fredette,,,2:02,0.0,0.0,0.0,0.0,3.0,0.0,0.0,0.0,0.0,0.0,0.0,0.0
0021401123,1610612747,LAL,Los Angeles,202325,Wesley Johnson,F,,26:29,120.1,147.5,-27.3,0.095,0.0,18.4,0.136,0.294,0.205,0.0,0.25,0.282,0.171,81.31,0.052,2015-04-01T00:00:00,12,LAL,Los Angeles,20-54,31,18,21,22,0,0,0,0,0,0,0,0,0,0,92,0.446,0.619,0.313,22,35,5,0021401123,1610612747,LAL,Los Angeles,Wesley Johnson,F,,26:29,2.0,2.0,2.0,4.0,4.0,4.0,0.0,28.0,0.0,0.0,0.0,1.0
0021401123,1610612747,LAL,Los Angeles,203527,Ryan Kelly,F,,29:57,108.3,135.9,-27.6,0.167,0.0,23.3,0.0,0.048,0.022,0.0,0.611,0.607,0.163,86.7,0.056,2015-04-01T00:00:00,12,LAL,Los Angeles,20-54,31,18,21,22,0,0,0,0,0,0,0,0,0,0,92,0.446,0.619,0.313,22,35,5,0021401123,1610612747,LAL,Los Angeles,Ryan Kelly,F,,29:57,0.0,0.0,4.0,4.0,6.0,2.0,2.0,28.0,0.0,0.0,4.0,1.0
0021401123,1610612747,LAL,Los Angeles,204028,Tarik Black,C,,28:09,110.7,131.8,-21.1,0.0,0.0,0.0,0.042,0.095,0.067,0.0,0.8,0.766,0.184,86.49,0.112,2015-04-01T00:00:00,12,LAL,Los Angeles,20-54,31,18,21,22,0,0,0,0,0,0,0,0,0,0,92,0.446,0.619,0.313,22,35,5,0021401123,1610612747,LAL,Los Angeles,Tarik Black,C,,28:09,0.0,0.0,0.0,14.0,4.0,2.0,2.0,26.0,1.0,0.0,3.0,2.0
0021401123,1610612747,LAL,Los Angeles,202391,Jeremy Lin,G,,28:13,102.3,129.6,-27.3,0.167,0.0,19.2,0.038,0.095,0.064,0.0,0.3,0.396,0.215,84.58,0.06,2015-04-01T00:00:00,12,LAL,Los Angeles,20-54,31,18,21,22,0,0,0,0,0,0,0,0,0,0,92,0.446,0.619,0.313,22,35,5,0021401123,1610612747,LAL,Los Angeles,Jeremy Lin,G,,28:13,3.0,0.0,1.0,4.0,4.0,6.0,6.0,30.0,0.0,3.0,1.0,6.0
0021401123,1610612747,LAL,Los Angeles,203903,Jordan Clarkson,G,,31:10,118.7,144.1,-25.4,0.5,10.0,46.0,0.077,0.333,0.171,4.6,0.833,0.836,0.188,85.57,0.192,2015-04-01T00:00:00,12,LAL,Los Angeles,20-54,31,18,21,22,0,0,0,0,0,0,0,0,0,0,92,0.446,0.619,0.313,22,35,5,0021401123,1610612747,LAL,Los Angeles,Jordan Clarkson,G,,31:10,1.0,3.0,2.0,6.0,7.0,4.0,3.0,34.0,0.0,0.0,2.0,3.0
0021401123,1610612747,LAL,Los Angeles,203913,Jabari Brown,,,30:11,93.0,117.1,-24.1,0.053,1.0,9.2,0.032,0.0,0.019,9.2,0.313,0.338,0.152,90.96,-0.015,2015-04-01T00:00:00,12,LAL,Los Angeles,20-54,31,18,21,22,0,0,0,0,0,0,0,0,0,0,92,0.446,0.619,0.313,22,35,5,0021401123,1610612747,LAL,Los Angeles,Jabari Brown,,,30:11,0.0,0.0,2.0,0.0,7.0,8.0,9.0,30.0,0.0,2.0,1.0,2.0
0021401123,1610612747,LAL,Los Angeles,201961,Wayne Ellington,,,27:57,95.6,126.8,-31.1,0.133,2.0,14.4,0.0,0.091,0.043,7.2,0.5,0.506,0.2,88.24,0.062,2015-04-01T00:00:00,12,LAL,Los Angeles,20-54,31,18,21,22,0,0,0,0,0,0,0,0,0,0,92,0.446,0.619,0.313,22,35,5,0021401123,1610612747,LAL,Los Angeles,Wayne Ellington,,,27:57,1.0,0.0,0.0,4.0,11.0,8.0,9.0,28.0,0.0,0.0,2.0,1.0
0021401123,1610612747,LAL,Los Angeles,201941,Jordan Hill,,,19:51,98.3,133.7,-35.5,0.0,0.0,0.0,0.211,0.273,0.233,15.5,0.4,0.46,0.302,85.89,0.086,2015-04-01T00:00:00,12,LAL,Los Angeles,20-54,31,18,21,22,0,0,0,0,0,0,0,0,0,0,92,0.446,0.619,0.313,22,35,5,0021401123,1610612747,LAL,Los Angeles,Jordan Hill,,,19:51,0.0,7.0,3.0,6.0,7.0,8.0,7.0,24.0,1.0,1.0,1.0,2.0
0021401123,1610612747,LAL,Los Angeles,2430,Carlos Boozer,,,18:03,100.7,126.9,-26.2,0.083,0.0,10.0,0.0,0.273,0.103,0.0,0.222,0.222,0.232,85.47,0.0,2015-04-01T00:00:00,12,LAL,Los Angeles,20-54,31,18,21,22,0,0,0,0,0,0,0,0,0,0,92,0.446,0.619,0.313,22,35,5,0021401123,1610612747,LAL,Los Angeles,Carlos Boozer,,,18:03,0.0,0.0,0.0,2.0,5.0,8.0,7.0,22.0,0.0,1.0,3.0,0.0
0021401123,1610612747,LAL,Los Angeles,977,Kobe Bryant,,DND - Right rotator cuff surgery        ,,,,,,,0.0,,,,,,,0.0,,,2015-04-01T00:00:00,12,LAL,Los Angeles,20-54,31,18,21,22,0,0,0,0,0,0,0,0,0,0,92,0.446,0.619,0.313,22,35,5,0021401123,1610612747,LAL,Los Angeles,Kobe Bryant,,DND - Right rotator cuff surgery        ,,,,,,,,,,,,,
0021401123,1610612747,LAL,Los Angeles,202334,Ed Davis,,DNP - Coach's Decision                  ,,,,,,,0.0,,,,,,,0.0,,,2015-04-01T00:00:00,12,LAL,Los Angeles,20-54,31,18,21,22,0,0,0,0,0,0,0,0,0,0,92,0.446,0.619,0.313,22,35,5,0021401123,1610612747,LAL,Los Angeles,Ed Davis,,DNP - Coach's Decision                  ,,,,,,,,,,,,,
0021401123,1610612747,LAL,Los Angeles,203135,Robert Sacre,,DNP - Coach's Decision                  ,,,,,,,0.0,,,,,,,0.0,,,2015-04-01T00:00:00,12,LAL,Los Angeles,20-54,31,18,21,22,0,0,0,0,0,0,0,0,0,0,92,0.446,0.619,0.313,22,35,5,0021401123,1610612747,LAL,Los Angeles,Robert Sacre,,DNP - Coach's Decision                  ,,,,,,,,,,,,,
0021401123,1610612747,LAL,Los Angeles,201156,Nick Young,,DND - Fractured left kneecap            ,,,,,,,0.0,,,,,,,0.0,,,2015-04-01T00:00:00,12,LAL,Los Angeles,20-54,31,18,21,22,0,0,0,0,0,0,0,0,0,0,92,0.446,0.619,0.313,22,35,5,0021401123,1610612747,LAL,Los Angeles,Nick Young,,DND - Fractured left kneecap            ,,,,,,,,,,,,,
