GAME_ID_x,TEAM_ID_x,TEAM_ABBREVIATION_x,TEAM_CITY_x,PLAYER_ID,PLAYER_NAME_x,START_POSITION_x,COMMENT_x,MIN_x,OFF_RATING,DEF_RATING,NET_RATING,AST_PCT,AST_TOV,AST_RATIO,OREB_PCT,DREB_PCT,REB_PCT,TM_TOV_PCT,EFG_PCT,TS_PCT,USG_PCT,PACE,PIE,GAME_DATE_EST,GAME_SEQUENCE,TEAM_ABBREVIATION_y,TEAM_CITY_NAME,TEAM_WINS_LOSSES,PTS_QTR1,PTS_QTR2,PTS_QTR3,PTS_QTR4,PTS_OT1,PTS_OT2,PTS_OT3,PTS_OT4,PTS_OT5,PTS_OT6,PTS_OT7,PTS_OT8,PTS_OT9,PTS_OT10,PTS,FG_PCT,FT_PCT,FG3_PCT,AST,REB,TOV,GAME_ID_y,TEAM_ID_y,TEAM_ABBREVIATION,TEAM_CITY_y,PLAYER_NAME_y,START_POSITION_y,COMMENT_y,MIN_y,PTS_OFF_TOV,PTS_2ND_CHANCE,PTS_FB,PTS_PAINT,OPP_PTS_OFF_TOV,OPP_PTS_2ND_CHANCE,OPP_PTS_FB,OPP_PTS_PAINT,BLK,BLKA,PF,PFD
0021401143,1610612753,ORL,Orlando,202699,Tobias Harris,F,,40:37,107.9,99.1,8.8,0.077,1.0,9.8,0.029,0.243,0.141,9.8,0.7,0.705,0.209,93.1,0.181,2015-04-04T00:00:00,7,ORL,Orlando,24-53,22,29,21,25,0,0,0,0,0,0,0,0,0,0,97,0.465,0.692,0.381,23,45,12,0021401143,1610612753,ORL,Orlando,Tobias Harris,F,,40:37,0.0,0.0,3.0,4.0,14.0,13.0,9.0,36.0,3.0,2.0,0.0,6.0
0021401143,1610612753,ORL,Orlando,203473,Dewayne Dedmon,F,,19:43,79.3,121.1,-41.8,0.0,0.0,0.0,0.222,0.059,0.143,20.5,0.667,0.644,0.113,95.82,0.076,2015-04-04T00:00:00,7,ORL,Orlando,24-53,22,29,21,25,0,0,0,0,0,0,0,0,0,0,97,0.465,0.692,0.381,23,45,12,0021401143,1610612753,ORL,Orlando,Dewayne Dedmon,F,,19:43,4.0,5.0,0.0,4.0,11.0,11.0,4.0,24.0,3.0,0.0,1.0,1.0
0021401143,1610612753,ORL,Orlando,202696,Nikola Vucevic,C,,33:47,108.4,100.2,8.1,0.25,1.67,19.7,0.067,0.156,0.113,11.8,0.588,0.573,0.278,94.03,0.116,2015-04-04T00:00:00,7,ORL,Orlando,24-53,22,29,21,25,0,0,0,0,0,0,0,0,0,0,97,0.465,0.692,0.381,23,45,12,0021401143,1610612753,ORL,Orlando,Nikola Vucevic,C,,33:47,2.0,4.0,2.0,6.0,14.0,9.0,7.0,30.0,0.0,0.0,5.0,1.0
0021401143,1610612753,ORL,Orlando,203506,Victor Oladipo,G,,36:46,99.6,99.4,0.2,0.087,1.0,8.2,0.0,0.167,0.086,8.2,0.342,0.369,0.278,93.14,0.059,2015-04-04T00:00:00,7,ORL,Orlando,24-53,22,29,21,25,0,0,0,0,0,0,0,0,0,0,97,0.465,0.692,0.381,23,45,12,0021401143,1610612753,ORL,Orlando,Victor Oladipo,G,,36:46,0.0,0.0,5.0,4.0,14.0,13.0,7.0,28.0,1.0,0.0,2.0,5.0
0021401143,1610612753,ORL,Orlando,203901,Elfrid Payton,G,,40:05,110.3,96.4,13.9,0.344,3.67,43.2,0.029,0.051,0.041,11.8,0.409,0.437,0.166,93.88,0.089,2015-04-04T00:00:00,7,ORL,Orlando,24-53,22,29,21,25,0,0,0,0,0,0,0,0,0,0,97,0.465,0.692,0.381,23,45,12,0021401143,1610612753,ORL,Orlando,Elfrid Payton,G,,40:05,3.0,2.0,0.0,4.0,14.0,11.0,7.0,36.0,1.0,1.0,3.0,2.0
0021401143,1610612753,ORL,Orlando,203932,Aaron Gordon,,,29:16,113.0,83.2,29.9,0.05,0.0,14.3,0.16,0.229,0.2,0.0,0.833,0.833,0.1,89.9,0.212,2015-04-04T00:00:00,7,ORL,Orlando,24-53,22,29,21,25,0,0,0,0,0,0,0,0,0,0,97,0.465,0.692,0.381,23,45,12,0021401143,1610612753,ORL,Orlando,Aaron Gordon,,,29:16,2.0,6.0,0.0,8.0,9.0,8.0,7.0,22.0,2.0,0.0,0.0,2.0
0021401143,1610612753,ORL,Orlando,2584,Willie Green,,,24:32,108.6,77.9,30.7,0.056,1.0,7.5,0.0,0.0,0.0,7.5,0.35,0.442,0.224,91.11,0.041,2015-04-04T00:00:00,7,ORL,Orlando,24-53,22,29,21,25,0,0,0,0,0,0,0,0,0,0,97,0.465,0.692,0.381,23,45,12,0021401143,1610612753,ORL,Orlando,Willie Green,,,24:32,0.0,0.0,5.0,4.0,4.0,6.0,4.0,16.0,0.0,3.0,1.0,2.0
0021401143,1610612753,ORL,Orlando,203094,Andrew Nicholson,,,15:14,115.3,88.3,27.0,0.091,0.0,16.7,0.0,0.182,0.077,0.0,0.4,0.4,0.157,88.73,0.052,2015-04-04T00:00:00,7,ORL,Orlando,24-53,22,29,21,25,0,0,0,0,0,0,0,0,0,0,97,0.465,0.692,0.381,23,45,12,0021401143,1610612753,ORL,Orlando,Andrew Nicholson,,,15:14,0.0,2.0,0.0,2.0,0.0,4.0,0.0,8.0,0.0,0.0,1.0,0.0
0021401143,1610612753,ORL,Orlando,101112,Channing Frye,,DNP - Coach's Decision                  ,,,,,,,0.0,,,,,,,0.0,,,2015-04-04T00:00:00,7,ORL,Orlando,24-53,22,29,21,25,0,0,0,0,0,0,0,0,0,0,97,0.465,0.692,0.381,23,45,12,0021401143,1610612753,ORL,Orlando,Channing Frye,,DNP - Coach's Decision                  ,,,,,,,,,,,,,
0021401143,1610612753,ORL,Orlando,2732,Ben Gordon,,DNP - Coach's Decision                  ,,,,,,,0.0,,,,,,,0.0,,,2015-04-04T00:00:00,7,ORL,Orlando,24-53,22,29,21,25,0,0,0,0,0,0,0,0,0,0,97,0.465,0.692,0.381,23,45,12,0021401143,1610612753,ORL,Orlando,Ben Gordon,,DNP - Coach's Decision                  ,,,,,,,,,,,,,
0021401143,1610612753,ORL,Orlando,203090,Maurice Harkless,,DNP - Coach's Decision                  ,,,,,,,0.0,,,,,,,0.0,,,2015-04-04T00:00:00,7,ORL,Orlando,24-53,22,29,21,25,0,0,0,0,0,0,0,0,0,0,97,0.465,0.692,0.381,23,45,12,0021401143,1610612753,ORL,Orlando,Maurice Harkless,,DNP - Coach's Decision                  ,,,,,,,,,,,,,
0021401143,1610612753,ORL,Orlando,203124,Kyle O'Quinn,,DNP - Coach's Decision                  ,,,,,,,0.0,,,,,,,0.0,,,2015-04-04T00:00:00,7,ORL,Orlando,24-53,22,29,21,25,0,0,0,0,0,0,0,0,0,0,97,0.465,0.692,0.381,23,45,12,0021401143,1610612753,ORL,Orlando,Kyle O'Quinn,,DNP - Coach's Decision                  ,,,,,,,,,,,,,
0021401143,1610612753,ORL,Orlando,2557,Luke Ridnour,,NWT - Personal Reasons                  ,,,,,,,0.0,,,,,,,0.0,,,2015-04-04T00:00:00,7,ORL,Orlando,24-53,22,29,21,25,0,0,0,0,0,0,0,0,0,0,97,0.465,0.692,0.381,23,45,12,0021401143,1610612753,ORL,Orlando,Luke Ridnour,,NWT - Personal Reasons                  ,,,,,,,,,,,,,
0021401143,1610612749,MIL,Milwaukee,203507,Giannis Antetokounmpo,F,,27:53,82.9,123.5,-40.6,0.0,0.0,0.0,0.0,0.125,0.064,13.4,0.25,0.311,0.256,88.91,-0.047,2015-04-04T00:00:00,7,MIL,Milwaukee,38-39,31,22,20,17,0,0,0,0,0,0,0,0,0,0,90,0.438,0.538,0.313,26,45,13,0021401143,1610612749,MIL,Milwaukee,Giannis Antetokounmpo,F,,27:53,3.0,0.0,3.0,4.0,7.0,12.0,6.0,22.0,1.0,3.0,5.0,3.0
0021401143,1610612749,MIL,Milwaukee,101141,Ersan Ilyasova,F,,26:52,107.4,99.8,7.5,0.111,2.0,11.0,0.136,0.208,0.174,5.5,0.615,0.592,0.274,93.05,0.141,2015-04-04T00:00:00,7,MIL,Milwaukee,38-39,31,22,20,17,0,0,0,0,0,0,0,0,0,0,90,0.438,0.538,0.313,26,45,13,0021401143,1610612749,MIL,Milwaukee,Ersan Ilyasova,F,,26:52,3.0,7.0,0.0,8.0,7.0,8.0,5.0,16.0,0.0,4.0,2.0,5.0
0021401143,1610612749,MIL,Milwaukee,2585,Zaza Pachulia,C,,23:21,113.6,100.8,12.8,0.286,6.0,54.5,0.105,0.158,0.132,9.1,0.5,0.5,0.095,94.73,0.126,2015-04-04T00:00:00,7,MIL,Milwaukee,38-39,31,22,20,17,0,0,0,0,0,0,0,0,0,0,90,0.438,0.538,0.313,26,45,13,0021401143,1610612749,MIL,Milwaukee,Zaza Pachulia,C,,23:21,0.0,2.0,0.0,4.0,7.0,4.0,5.0,14.0,0.0,0.0,1.0,0.0
0021401143,1610612749,MIL,Milwaukee,203114,Khris Middleton,G,,33:56,106.2,102.6,3.6,0.08,0.0,10.1,0.0,0.103,0.047,0.0,0.375,0.422,0.22,95.48,0.063,2015-04-04T00:00:00,7,MIL,Milwaukee,38-39,31,22,20,17,0,0,0,0,0,0,0,0,0,0,90,0.438,0.538,0.313,26,45,13,0021401143,1610612749,MIL,Milwaukee,Khris Middleton,G,,33:56,6.0,2.0,4.0,2.0,9.0,11.0,12.0,24.0,0.0,0.0,4.0,1.0
0021401143,1610612749,MIL,Milwaukee,203487,Michael Carter-Williams,G,,34:04,104.7,99.6,5.1,0.333,2.25,33.3,0.086,0.233,0.154,14.8,0.286,0.286,0.22,95.81,0.092,2015-04-04T00:00:00,7,MIL,Milwaukee,38-39,31,22,20,17,0,0,0,0,0,0,0,0,0,0,90,0.438,0.538,0.313,26,45,13,0021401143,1610612749,MIL,Milwaukee,Michael Carter-Williams,G,,34:04,2.0,0.0,0.0,4.0,9.0,11.0,12.0,24.0,0.0,3.0,2.0,0.0
0021401143,1610612749,MIL,Milwaukee,201564,O.J. Mayo,,,31:34,97.0,97.8,-0.8,0.053,0.5,7.4,0.0,0.063,0.033,14.9,0.7,0.67,0.186,91.3,0.063,2015-04-04T00:00:00,7,MIL,Milwaukee,38-39,31,22,20,17,0,0,0,0,0,0,0,0,0,0,90,0.438,0.538,0.313,26,45,13,0021401143,1610612749,MIL,Milwaukee,O.J. Mayo,,,31:34,2.0,0.0,2.0,8.0,6.0,14.0,10.0,26.0,1.0,0.0,3.0,1.0
0021401143,1610612749,MIL,Milwaukee,203089,John Henson,,,24:39,77.9,110.5,-32.5,0.364,4.0,27.7,0.179,0.125,0.154,6.9,0.556,0.53,0.189,90.82,0.181,2015-04-04T00:00:00,7,MIL,Milwaukee,38-39,31,22,20,17,0,0,0,0,0,0,0,0,0,0,90,0.438,0.538,0.313,26,45,13,0021401143,1610612749,MIL,Milwaukee,John Henson,,,24:39,0.0,4.0,0.0,10.0,4.0,15.0,10.0,22.0,3.0,0.0,1.0,2.0
0021401143,1610612749,MIL,Milwaukee,201162,Jared Dudley,,,21:53,77.4,113.2,-35.8,0.0,0.0,0.0,0.0,0.105,0.043,20.0,0.875,0.875,0.099,92.29,0.109,2015-04-04T00:00:00,7,MIL,Milwaukee,38-39,31,22,20,17,0,0,0,0,0,0,0,0,0,0,90,0.438,0.538,0.313,26,45,13,0021401143,1610612749,MIL,Milwaukee,Jared Dudley,,,21:53,0.0,0.0,0.0,0.0,4.0,11.0,10.0,20.0,1.0,0.0,1.0,0.0
0021401143,1610612749,MIL,Milwaukee,201573,Jerryd Bayless,,,15:48,79.6,112.6,-32.9,0.286,2.0,20.0,0.059,0.214,0.129,10.0,0.429,0.429,0.236,89.74,0.124,2015-04-04T00:00:00,7,MIL,Milwaukee,38-39,31,22,20,17,0,0,0,0,0,0,0,0,0,0,90,0.438,0.538,0.313,26,45,13,0021401143,1610612749,MIL,Milwaukee,Jerryd Bayless,,,15:48,0.0,0.0,0.0,0.0,2.0,9.0,5.0,12.0,0.0,0.0,0.0,1.0
0021401143,1610612749,MIL,Milwaukee,203898,Tyler Ennis,,DNP - Coach's Decision                  ,,,,,,,0.0,,,,,,,0.0,,,2015-04-04T00:00:00,7,MIL,Milwaukee,38-39,31,22,20,17,0,0,0,0,0,0,0,0,0,0,90,0.438,0.538,0.313,26,45,13,0021401143,1610612749,MIL,Milwaukee,Tyler Ennis,,DNP - Coach's Decision                  ,,,,,,,,,,,,,
0021401143,1610612749,MIL,Milwaukee,203948,Johnny O'Bryant III,,DNP - Coach's Decision                  ,,,,,,,0.0,,,,,,,0.0,,,2015-04-04T00:00:00,7,MIL,Milwaukee,38-39,31,22,20,17,0,0,0,0,0,0,0,0,0,0,90,0.438,0.538,0.313,26,45,13,0021401143,1610612749,MIL,Milwaukee,Johnny O'Bryant III,,DNP - Coach's Decision                  ,,,,,,,,,,,,,
0021401143,1610612749,MIL,Milwaukee,203101,Miles Plumlee,,DNP - Coach's Decision                  ,,,,,,,0.0,,,,,,,0.0,,,2015-04-04T00:00:00,7,MIL,Milwaukee,38-39,31,22,20,17,0,0,0,0,0,0,0,0,0,0,90,0.438,0.538,0.313,26,45,13,0021401143,1610612749,MIL,Milwaukee,Miles Plumlee,,DNP - Coach's Decision                  ,,,,,,,,,,,,,
