GAME_ID_x,TEAM_ID_x,TEAM_ABBREVIATION_x,TEAM_CITY_x,PLAYER_ID,PLAYER_NAME_x,START_POSITION_x,COMMENT_x,MIN_x,OFF_RATING,DEF_RATING,NET_RATING,AST_PCT,AST_TOV,AST_RATIO,OREB_PCT,DREB_PCT,REB_PCT,TM_TOV_PCT,EFG_PCT,TS_PCT,USG_PCT,PACE,PIE,GAME_DATE_EST,GAME_SEQUENCE,TEAM_ABBREVIATION_y,TEAM_CITY_NAME,TEAM_WINS_LOSSES,PTS_QTR1,PTS_QTR2,PTS_QTR3,PTS_QTR4,PTS_OT1,PTS_OT2,PTS_OT3,PTS_OT4,PTS_OT5,PTS_OT6,PTS_OT7,PTS_OT8,PTS_OT9,PTS_OT10,PTS,FG_PCT,FT_PCT,FG3_PCT,AST,REB,TOV,GAME_ID_y,TEAM_ID_y,TEAM_ABBREVIATION,TEAM_CITY_y,PLAYER_NAME_y,START_POSITION_y,COMMENT_y,MIN_y,PTS_OFF_TOV,PTS_2ND_CHANCE,PTS_FB,PTS_PAINT,OPP_PTS_OFF_TOV,OPP_PTS_2ND_CHANCE,OPP_PTS_FB,OPP_PTS_PAINT,BLK,BLKA,PF,PFD
0021400668,1610612757,POR,Portland,203468,CJ McCollum,F,,34:23,104.1,104.9,-0.7,0.083,1.0,11.5,0.0,0.171,0.088,11.5,0.542,0.563,0.199,100.23,0.086,2015-04-06T00:00:00,1,POR,Portland,50-27,25,13,26,32,0,0,0,0,0,0,0,0,0,0,96,0.448,0.778,0.423,17,50,12,0021400668,1610612757,POR,Portland,CJ McCollum,F,,34:23,7.0,0.0,0.0,8.0,12.0,11.0,7.0,44.0,0.0,3.0,3.0,3.0
0021400668,1610612757,POR,Portland,203086,Meyers Leonard,F,,37:06,103.8,116.2,-12.3,0.174,1.33,20.0,0.061,0.342,0.211,15.0,0.654,0.654,0.197,95.27,0.153,2015-04-06T00:00:00,1,POR,Portland,50-27,25,13,26,32,0,0,0,0,0,0,0,0,0,0,96,0.448,0.778,0.423,17,50,12,0021400668,1610612757,POR,Portland,Meyers Leonard,F,,37:06,2.0,4.0,2.0,14.0,16.0,16.0,12.0,44.0,0.0,0.0,5.0,0.0
0021400668,1610612757,POR,Portland,201577,Robin Lopez,C,,32:31,104.4,114.6,-10.2,0.087,2.0,14.3,0.103,0.111,0.108,7.1,0.364,0.364,0.178,92.31,0.049,2015-04-06T00:00:00,1,POR,Portland,50-27,25,13,26,32,0,0,0,0,0,0,0,0,0,0,96,0.448,0.778,0.423,17,50,12,0021400668,1610612757,POR,Portland,Robin Lopez,C,,32:31,0.0,2.0,0.0,6.0,14.0,12.0,5.0,36.0,2.0,1.0,2.0,1.0
0021400668,1610612757,POR,Portland,201167,Arron Afflalo,G,,36:42,106.8,115.4,-8.6,0.037,1.0,7.7,0.0,0.116,0.068,7.7,0.455,0.455,0.153,92.92,0.028,2015-04-06T00:00:00,1,POR,Portland,50-27,25,13,26,32,0,0,0,0,0,0,0,0,0,0,96,0.448,0.778,0.423,17,50,12,0021400668,1610612757,POR,Portland,Arron Afflalo,G,,36:42,0.0,0.0,0.0,0.0,15.0,14.0,5.0,40.0,0.0,1.0,4.0,0.0
0021400668,1610612757,POR,Portland,203081,Damian Lillard,G,,38:46,102.4,112.8,-10.4,0.111,1.0,6.5,0.029,0.068,0.051,6.5,0.654,0.67,0.347,93.75,0.177,2015-04-06T00:00:00,1,POR,Portland,50-27,25,13,26,32,0,0,0,0,0,0,0,0,0,0,96,0.448,0.778,0.423,17,50,12,0021400668,1610612757,POR,Portland,Damian Lillard,G,,38:46,0.0,5.0,0.0,14.0,17.0,14.0,7.0,40.0,1.0,0.0,2.0,4.0
0021400668,1610612757,POR,Portland,200777,Joel Freeland,,,14:13,112.1,77.2,34.9,0.091,0.0,20.0,0.133,0.25,0.194,0.0,0.25,0.25,0.122,91.09,0.026,2015-04-06T00:00:00,1,POR,Portland,50-27,25,13,26,32,0,0,0,0,0,0,0,0,0,0,96,0.448,0.778,0.423,17,50,12,0021400668,1610612757,POR,Portland,Joel Freeland,,,14:13,0.0,0.0,0.0,0.0,1.0,4.0,0.0,14.0,0.0,0.0,4.0,1.0
0021400668,1610612757,POR,Portland,202087,Alonzo Gee,,,11:34,79.5,114.2,-34.7,0.167,1.0,25.0,0.077,0.167,0.12,25.0,0.0,0.0,0.122,97.88,0.013,2015-04-06T00:00:00,1,POR,Portland,50-27,25,13,26,32,0,0,0,0,0,0,0,0,0,0,96,0.448,0.778,0.423,17,50,12,0021400668,1610612757,POR,Portland,Alonzo Gee,,,11:34,0.0,0.0,0.0,0.0,5.0,4.0,7.0,14.0,0.0,0.0,0.0,0.0
0021400668,1610612757,POR,Portland,203459,Allen Crabbe,,,15:23,97.9,94.6,3.3,0.0,0.0,0.0,0.063,0.067,0.065,0.0,0.375,0.521,0.162,95.58,0.072,2015-04-06T00:00:00,1,POR,Portland,50-27,25,13,26,32,0,0,0,0,0,0,0,0,0,0,96,0.448,0.778,0.423,17,50,12,0021400668,1610612757,POR,Portland,Allen Crabbe,,,15:23,0.0,4.0,0.0,0.0,3.0,6.0,7.0,18.0,0.0,0.0,0.0,2.0
0021400668,1610612757,POR,Portland,2581,Steve Blake,,,18:44,92.5,123.6,-31.1,0.286,2.0,44.4,0.05,0.063,0.056,22.2,0.0,0.0,0.117,96.87,0.006,2015-04-06T00:00:00,1,POR,Portland,50-27,25,13,26,32,0,0,0,0,0,0,0,0,0,0,96,0.448,0.778,0.423,17,50,12,0021400668,1610612757,POR,Portland,Steve Blake,,,18:44,0.0,0.0,0.0,0.0,12.0,9.0,10.0,20.0,0.0,0.0,1.0,0.0
0021400668,1610612757,POR,Portland,204025,Tim Frazier,,,0:39,100.0,0.0,100.0,0.0,0.0,0.0,0.0,0.0,0.0,0.0,1.0,1.0,0.5,110.77,2.0,2015-04-06T00:00:00,1,POR,Portland,50-27,25,13,26,32,0,0,0,0,0,0,0,0,0,0,96,0.448,0.778,0.423,17,50,12,0021400668,1610612757,POR,Portland,Tim Frazier,,,0:39,0.0,0.0,0.0,2.0,0.0,0.0,0.0,0.0,0.0,0.0,0.0,0.0
0021400668,1610612757,POR,Portland,200746,LaMarcus Aldridge,,NWT - Left Thumb Sprain                 ,,,,,,,0.0,,,,,,,0.0,,,2015-04-06T00:00:00,1,POR,Portland,50-27,25,13,26,32,0,0,0,0,0,0,0,0,0,0,96,0.448,0.778,0.423,17,50,12,0021400668,1610612757,POR,Portland,LaMarcus Aldridge,,NWT - Left Thumb Sprain                 ,,,,,,,,,,,,,
0021400668,1610612757,POR,Portland,201587,Nicolas Batum,,NWT - Low Back Sprain                   ,,,,,,,0.0,,,,,,,0.0,,,2015-04-06T00:00:00,1,POR,Portland,50-27,25,13,26,32,0,0,0,0,0,0,0,0,0,0,96,0.448,0.778,0.423,17,50,12,0021400668,1610612757,POR,Portland,Nicolas Batum,,NWT - Low Back Sprain                   ,,,,,,,,,,,,,
0021400668,1610612757,POR,Portland,2549,Chris Kaman,,NWT - Right Thumb Sprain                ,,,,,,,0.0,,,,,,,0.0,,,2015-04-06T00:00:00,1,POR,Portland,50-27,25,13,26,32,0,0,0,0,0,0,0,0,0,0,96,0.448,0.778,0.423,17,50,12,0021400668,1610612757,POR,Portland,Chris Kaman,,NWT - Right Thumb Sprain                ,,,,,,,,,,,,,
0021400668,1610612751,BKN,Brooklyn,2207,Joe Johnson,F,,35:14,115.8,108.5,7.3,0.2,0.0,32.2,0.0,0.2,0.085,0.0,0.1,0.237,0.158,94.09,0.049,2015-04-06T00:00:00,1,BKN,Brooklyn,36-41,22,32,23,29,0,0,0,0,0,0,0,0,0,0,106,0.451,0.783,0.429,25,46,6,0021400668,1610612751,BKN,Brooklyn,Joe Johnson,F,,35:14,0.0,0.0,0.0,0.0,0.0,9.0,2.0,34.0,0.0,0.0,0.0,5.0
0021400668,1610612751,BKN,Brooklyn,201152,Thaddeus Young,F,,41:36,112.5,104.6,7.9,0.074,0.0,10.4,0.07,0.053,0.062,0.0,0.563,0.577,0.193,93.01,0.109,2015-04-06T00:00:00,1,BKN,Brooklyn,36-41,22,32,23,29,0,0,0,0,0,0,0,0,0,0,106,0.451,0.783,0.429,25,46,6,0021400668,1610612751,BKN,Brooklyn,Thaddeus Young,F,,41:36,2.0,6.0,2.0,16.0,4.0,14.0,2.0,42.0,1.0,0.0,1.0,2.0
0021400668,1610612751,BKN,Brooklyn,201572,Brook Lopez,C,,32:25,110.7,110.6,0.1,0.077,0.0,3.6,0.108,0.172,0.136,0.0,0.6,0.598,0.367,96.35,0.207,2015-04-06T00:00:00,1,BKN,Brooklyn,36-41,22,32,23,29,0,0,0,0,0,0,0,0,0,0,106,0.451,0.783,0.429,25,46,6,0021400668,1610612751,BKN,Brooklyn,Brook Lopez,C,,32:25,5.0,7.0,2.0,20.0,0.0,9.0,2.0,34.0,1.0,1.0,2.0,5.0
0021400668,1610612751,BKN,Brooklyn,203900,Markel Brown,G,,26:06,94.2,122.5,-28.3,0.05,0.0,17.0,0.0,0.217,0.098,0.0,0.0,0.205,0.084,95.66,0.023,2015-04-06T00:00:00,1,BKN,Brooklyn,36-41,22,32,23,29,0,0,0,0,0,0,0,0,0,0,106,0.451,0.783,0.429,25,46,6,0021400668,1610612751,BKN,Brooklyn,Markel Brown,G,,26:06,0.0,0.0,0.0,0.0,7.0,13.0,0.0,26.0,1.0,1.0,3.0,1.0
0021400668,1610612751,BKN,Brooklyn,101114,Deron Williams,G,,36:42,114.0,105.3,8.7,0.417,0.0,33.6,0.048,0.125,0.081,0.0,0.556,0.607,0.244,93.0,0.191,2015-04-06T00:00:00,1,BKN,Brooklyn,36-41,22,32,23,29,0,0,0,0,0,0,0,0,0,0,106,0.451,0.783,0.429,25,46,6,0021400668,1610612751,BKN,Brooklyn,Deron Williams,G,,36:42,7.0,3.0,3.0,8.0,0.0,12.0,0.0,32.0,0.0,1.0,2.0,4.0
0021400668,1610612751,BKN,Brooklyn,201947,Earl Clark,,,6:07,105.6,79.1,26.5,0.0,0.0,0.0,0.0,0.143,0.067,0.0,0.0,0.0,0.0,105.31,-0.027,2015-04-06T00:00:00,1,BKN,Brooklyn,36-41,22,32,23,29,0,0,0,0,0,0,0,0,0,0,106,0.451,0.783,0.429,25,46,6,0021400668,1610612751,BKN,Brooklyn,Earl Clark,,,6:07,0.0,0.0,0.0,0.0,3.0,1.0,0.0,0.0,1.0,0.0,2.0,0.0
0021400668,1610612751,BKN,Brooklyn,202711,Bojan Bogdanovic,,,30:35,113.4,88.5,24.9,0.048,0.33,5.6,0.065,0.094,0.079,16.8,0.5,0.54,0.243,94.37,0.103,2015-04-06T00:00:00,1,BKN,Brooklyn,36-41,22,32,23,29,0,0,0,0,0,0,0,0,0,0,106,0.451,0.783,0.429,25,46,6,0021400668,1610612751,BKN,Brooklyn,Bojan Bogdanovic,,,30:35,3.0,2.0,3.0,8.0,9.0,8.0,2.0,26.0,0.0,0.0,0.0,1.0
0021400668,1610612751,BKN,Brooklyn,101127,Jarrett Jack,,,11:18,99.7,92.3,7.4,0.125,1.0,20.0,0.0,0.154,0.091,20.0,0.5,0.5,0.148,101.67,0.069,2015-04-06T00:00:00,1,BKN,Brooklyn,36-41,22,32,23,29,0,0,0,0,0,0,0,0,0,0,106,0.451,0.783,0.429,25,46,6,0021400668,1610612751,BKN,Brooklyn,Jarrett Jack,,,11:18,0.0,0.0,0.0,0.0,9.0,3.0,2.0,12.0,0.0,0.0,0.0,1.0
0021400668,1610612751,BKN,Brooklyn,203486,Mason Plumlee,,,15:35,109.3,84.0,25.3,0.083,0.5,17.0,0.071,0.313,0.2,34.0,0.5,0.694,0.139,92.33,0.175,2015-04-06T00:00:00,1,BKN,Brooklyn,36-41,22,32,23,29,0,0,0,0,0,0,0,0,0,0,106,0.451,0.783,0.429,25,46,6,0021400668,1610612751,BKN,Brooklyn,Mason Plumlee,,,15:35,2.0,0.0,2.0,2.0,9.0,6.0,0.0,10.0,1.0,0.0,1.0,2.0
0021400668,1610612751,BKN,Brooklyn,202721,Darius Morris,,,4:22,123.0,40.0,83.0,0.5,0.0,100.0,0.0,0.2,0.143,0.0,0.0,0.0,0.0,108.65,0.2,2015-04-06T00:00:00,1,BKN,Brooklyn,36-41,22,32,23,29,0,0,0,0,0,0,0,0,0,0,106,0.451,0.783,0.429,25,46,6,0021400668,1610612751,BKN,Brooklyn,Darius Morris,,,4:22,0.0,0.0,0.0,0.0,4.0,0.0,0.0,4.0,0.0,0.0,0.0,0.0
0021400668,1610612751,BKN,Brooklyn,101187,Alan Anderson,,DND - Sprained Left Ankle               ,,,,,,,0.0,,,,,,,0.0,,,2015-04-06T00:00:00,1,BKN,Brooklyn,36-41,22,32,23,29,0,0,0,0,0,0,0,0,0,0,106,0.451,0.783,0.429,25,46,6,0021400668,1610612751,BKN,Brooklyn,Alan Anderson,,DND - Sprained Left Ankle               ,,,,,,,,,,,,,
0021400668,1610612751,BKN,Brooklyn,203928,Cory Jefferson,,DNP - Coach's Decision                  ,,,,,,,0.0,,,,,,,0.0,,,2015-04-06T00:00:00,1,BKN,Brooklyn,36-41,22,32,23,29,0,0,0,0,0,0,0,0,0,0,106,0.451,0.783,0.429,25,46,6,0021400668,1610612751,BKN,Brooklyn,Cory Jefferson,,DNP - Coach's Decision                  ,,,,,,,,,,,,,
0021400668,1610612751,BKN,Brooklyn,202366,Jerome Jordan,,DNP - Coach's Decision                  ,,,,,,,0.0,,,,,,,0.0,,,2015-04-06T00:00:00,1,BKN,Brooklyn,36-41,22,32,23,29,0,0,0,0,0,0,0,0,0,0,106,0.451,0.783,0.429,25,46,6,0021400668,1610612751,BKN,Brooklyn,Jerome Jordan,,DNP - Coach's Decision                  ,,,,,,,,,,,,,
