GAME_ID_x,TEAM_ID_x,TEAM_ABBREVIATION_x,TEAM_CITY_x,PLAYER_ID,PLAYER_NAME_x,START_POSITION_x,COMMENT_x,MIN_x,OFF_RATING,DEF_RATING,NET_RATING,AST_PCT,AST_TOV,AST_RATIO,OREB_PCT,DREB_PCT,REB_PCT,TM_TOV_PCT,EFG_PCT,TS_PCT,USG_PCT,PACE,PIE,GAME_DATE_EST,GAME_SEQUENCE,TEAM_ABBREVIATION_y,TEAM_CITY_NAME,TEAM_WINS_LOSSES,PTS_QTR1,PTS_QTR2,PTS_QTR3,PTS_QTR4,PTS_OT1,PTS_OT2,PTS_OT3,PTS_OT4,PTS_OT5,PTS_OT6,PTS_OT7,PTS_OT8,PTS_OT9,PTS_OT10,PTS,FG_PCT,FT_PCT,FG3_PCT,AST,REB,TOV,GAME_ID_y,TEAM_ID_y,TEAM_ABBREVIATION,TEAM_CITY_y,PLAYER_NAME_y,START_POSITION_y,COMMENT_y,MIN_y,PTS_OFF_TOV,PTS_2ND_CHANCE,PTS_FB,PTS_PAINT,OPP_PTS_OFF_TOV,OPP_PTS_2ND_CHANCE,OPP_PTS_FB,OPP_PTS_PAINT,BLK,BLKA,PF,PFD
0021401156,1610612744,GSW,Golden State,203084,Harrison Barnes,F,,22:51,94.8,118.6,-23.8,0.071,0.0,11.3,0.0,0.048,0.023,0.0,0.429,0.444,0.147,102.34,0.038,2015-04-07T00:00:00,3,GSW,Golden State,63-15,27,28,23,22,0,0,0,0,0,0,0,0,0,0,100,0.442,0.7,0.409,25,50,11,0021401156,1610612744,GSW,Golden State,Harrison Barnes,F,,22:51,2.0,2.0,0.0,4.0,8.0,7.0,7.0,18.0,1.0,0.0,2.0,1.0
0021401156,1610612744,GSW,Golden State,203110,Draymond Green,F,,34:53,100.6,112.5,-11.9,0.19,4.0,16.8,0.088,0.314,0.203,4.2,0.639,0.636,0.241,100.8,0.19,2015-04-07T00:00:00,3,GSW,Golden State,63-15,27,28,23,22,0,0,0,0,0,0,0,0,0,0,100,0.442,0.7,0.409,25,50,11,0021401156,1610612744,GSW,Golden State,Draymond Green,F,,34:53,4.0,0.0,0.0,14.0,12.0,11.0,10.0,26.0,1.0,2.0,4.0,1.0
0021401156,1610612744,GSW,Golden State,101106,Andrew Bogut,C,,28:08,98.9,82.2,16.6,0.158,1.0,21.4,0.08,0.222,0.154,21.4,0.5,0.5,0.181,98.1,0.131,2015-04-07T00:00:00,3,GSW,Golden State,63-15,27,28,23,22,0,0,0,0,0,0,0,0,0,0,100,0.442,0.7,0.409,25,50,11,0021401156,1610612744,GSW,Golden State,Andrew Bogut,C,,28:08,2.0,2.0,0.0,8.0,8.0,5.0,5.0,14.0,9.0,0.0,5.0,1.0
0021401156,1610612744,GSW,Golden State,202691,Klay Thompson,G,,30:03,100.7,106.4,-5.7,0.042,0.25,6.3,0.0,0.103,0.054,25.2,0.25,0.322,0.211,103.35,-0.013,2015-04-07T00:00:00,3,GSW,Golden State,63-15,27,28,23,22,0,0,0,0,0,0,0,0,0,0,100,0.442,0.7,0.409,25,50,11,0021401156,1610612744,GSW,Golden State,Klay Thompson,G,,30:03,2.0,3.0,2.0,2.0,12.0,7.0,7.0,22.0,1.0,1.0,2.0,2.0
0021401156,1610612744,GSW,Golden State,201939,Stephen Curry,G,,34:45,106.1,100.3,5.8,0.391,4.5,30.1,0.032,0.143,0.091,6.7,0.639,0.662,0.253,104.38,0.186,2015-04-07T00:00:00,3,GSW,Golden State,63-15,27,28,23,22,0,0,0,0,0,0,0,0,0,0,100,0.442,0.7,0.409,25,50,11,0021401156,1610612744,GSW,Golden State,Stephen Curry,G,,34:45,2.0,0.0,5.0,6.0,14.0,7.0,9.0,26.0,0.0,1.0,3.0,3.0
0021401156,1610612744,GSW,Golden State,201578,Marreese Speights,,,13:35,110.2,115.1,-4.9,0.0,0.0,0.0,0.133,0.214,0.172,0.0,0.571,0.571,0.196,109.86,0.098,2015-04-07T00:00:00,3,GSW,Golden State,63-15,27,28,23,22,0,0,0,0,0,0,0,0,0,0,100,0.442,0.7,0.409,25,50,11,0021401156,1610612744,GSW,Golden State,Marreese Speights,,,13:35,0.0,2.0,2.0,6.0,6.0,2.0,4.0,12.0,0.0,1.0,2.0,1.0
0021401156,1610612744,GSW,Golden State,2738,Andre Iguodala,,,28:26,101.9,97.3,4.6,0.04,0.0,8.4,0.036,0.214,0.125,0.0,0.3,0.322,0.168,99.16,0.037,2015-04-07T00:00:00,3,GSW,Golden State,63-15,27,28,23,22,0,0,0,0,0,0,0,0,0,0,100,0.442,0.7,0.409,25,50,11,0021401156,1610612744,GSW,Golden State,Andre Iguodala,,,28:26,0.0,0.0,3.0,6.0,6.0,4.0,5.0,18.0,0.0,1.0,2.0,3.0
0021401156,1610612744,GSW,Golden State,2733,Shaun Livingston,,,18:48,86.8,93.6,-6.8,0.25,3.0,25.0,0.0,0.167,0.073,8.3,0.375,0.375,0.21,93.47,0.087,2015-04-07T00:00:00,3,GSW,Golden State,63-15,27,28,23,22,0,0,0,0,0,0,0,0,0,0,100,0.442,0.7,0.409,25,50,11,0021401156,1610612744,GSW,Golden State,Shaun Livingston,,,18:48,0.0,0.0,0.0,4.0,2.0,4.0,5.0,14.0,0.0,2.0,0.0,0.0
0021401156,1610612744,GSW,Golden State,2571,Leandro Barbosa,,,17:57,97.5,96.4,1.1,0.214,0.0,37.5,0.0,0.056,0.026,0.0,0.4,0.4,0.122,95.2,0.079,2015-04-07T00:00:00,3,GSW,Golden State,63-15,27,28,23,22,0,0,0,0,0,0,0,0,0,0,100,0.442,0.7,0.409,25,50,11,0021401156,1610612744,GSW,Golden State,Leandro Barbosa,,,17:57,2.0,2.0,0.0,0.0,2.0,4.0,5.0,12.0,0.0,0.0,0.0,0.0
0021401156,1610612744,GSW,Golden State,101135,David Lee,,,10:34,84.2,112.5,-28.3,0.0,0.0,0.0,0.143,0.0,0.083,0.0,0.5,0.5,0.174,89.58,0.048,2015-04-07T00:00:00,3,GSW,Golden State,63-15,27,28,23,22,0,0,0,0,0,0,0,0,0,0,100,0.442,0.7,0.409,25,50,11,0021401156,1610612744,GSW,Golden State,David Lee,,,10:34,0.0,4.0,0.0,4.0,0.0,4.0,3.0,8.0,0.0,0.0,1.0,1.0
0021401156,1610612744,GSW,Golden State,203105,Festus Ezeli,,DNP - Coach's Decision                  ,,,,,,,0.0,,,,,,,0.0,,,2015-04-07T00:00:00,3,GSW,Golden State,63-15,27,28,23,22,0,0,0,0,0,0,0,0,0,0,100,0.442,0.7,0.409,25,50,11,0021401156,1610612744,GSW,Golden State,Festus Ezeli,,DNP - Coach's Decision                  ,,,,,,,,,,,,,
0021401156,1610612744,GSW,Golden State,203200,Justin Holiday,,DNP - Coach's Decision                  ,,,,,,,0.0,,,,,,,0.0,,,2015-04-07T00:00:00,3,GSW,Golden State,63-15,27,28,23,22,0,0,0,0,0,0,0,0,0,0,100,0.442,0.7,0.409,25,50,11,0021401156,1610612744,GSW,Golden State,Justin Holiday,,DNP - Coach's Decision                  ,,,,,,,,,,,,,
0021401156,1610612744,GSW,Golden State,201575,Brandon Rush,,DNP - Coach's Decision                  ,,,,,,,0.0,,,,,,,0.0,,,2015-04-07T00:00:00,3,GSW,Golden State,63-15,27,28,23,22,0,0,0,0,0,0,0,0,0,0,100,0.442,0.7,0.409,25,50,11,0021401156,1610612744,GSW,Golden State,Brandon Rush,,DNP - Coach's Decision                  ,,,,,,,,,,,,,
0021401156,1610612740,NOP,New Orleans,202347,Quincy Pondexter,F,,34:11,105.6,102.2,3.4,0.053,0.25,7.0,0.0,0.0,0.0,28.2,1.143,1.087,0.165,103.4,0.094,2015-04-07T00:00:00,3,NOP,New Orleans,42-35,19,24,36,24,0,0,0,0,0,0,0,0,0,0,103,0.434,0.733,0.474,25,45,12,0021401156,1610612740,NOP,New Orleans,Quincy Pondexter,F,,34:11,3.0,0.0,2.0,4.0,12.0,9.0,10.0,36.0,0.0,0.0,2.0,4.0
0021401156,1610612740,NOP,New Orleans,203076,Anthony Davis,F,,40:23,104.4,100.7,3.7,0.1,0.0,7.1,0.026,0.237,0.13,0.0,0.476,0.552,0.285,101.98,0.179,2015-04-07T00:00:00,3,NOP,New Orleans,42-35,19,24,36,24,0,0,0,0,0,0,0,0,0,0,103,0.434,0.733,0.474,25,45,12,0021401156,1610612740,NOP,New Orleans,Anthony Davis,F,,40:23,7.0,2.0,0.0,8.0,14.0,11.0,10.0,44.0,4.0,2.0,1.0,9.0
0021401156,1610612740,NOP,New Orleans,201600,Omer Asik,C,,18:12,87.5,98.3,-10.9,0.25,1.0,19.4,0.118,0.444,0.286,19.4,0.4,0.475,0.204,100.69,0.148,2015-04-07T00:00:00,3,NOP,New Orleans,42-35,19,24,36,24,0,0,0,0,0,0,0,0,0,0,103,0.434,0.733,0.474,25,45,12,0021401156,1610612740,NOP,New Orleans,Omer Asik,C,,18:12,0.0,5.0,0.0,4.0,8.0,5.0,3.0,12.0,1.0,3.0,3.0,2.0
0021401156,1610612740,NOP,New Orleans,201569,Eric Gordon,G,,33:33,101.6,100.8,0.7,0.105,2.0,13.0,0.03,0.065,0.047,6.5,0.417,0.442,0.173,103.21,0.042,2015-04-07T00:00:00,3,NOP,New Orleans,42-35,19,24,36,24,0,0,0,0,0,0,0,0,0,0,103,0.434,0.733,0.474,25,45,12,0021401156,1610612740,NOP,New Orleans,Eric Gordon,G,,33:33,0.0,0.0,0.0,2.0,12.0,9.0,10.0,36.0,0.0,3.0,2.0,1.0
0021401156,1610612740,NOP,New Orleans,201936,Tyreke Evans,G,,27:31,113.3,102.5,10.8,0.5,3.0,40.5,0.037,0.2,0.115,13.5,0.5,0.588,0.203,103.45,0.167,2015-04-07T00:00:00,3,NOP,New Orleans,42-35,19,24,36,24,0,0,0,0,0,0,0,0,0,0,103,0.434,0.733,0.474,25,45,12,0021401156,1610612740,NOP,New Orleans,Tyreke Evans,G,,27:31,4.0,0.0,7.0,8.0,10.0,7.0,7.0,30.0,0.0,1.0,3.0,3.0
0021401156,1610612740,NOP,New Orleans,202708,Norris Cole,,,21:13,90.8,95.6,-4.8,0.5,7.0,44.1,0.0,0.0,0.0,6.3,0.214,0.254,0.198,97.11,0.037,2015-04-07T00:00:00,3,NOP,New Orleans,42-35,19,24,36,24,0,0,0,0,0,0,0,0,0,0,103,0.434,0.733,0.474,25,45,12,0021401156,1610612740,NOP,New Orleans,Norris Cole,,,21:13,0.0,0.0,0.0,0.0,4.0,8.0,5.0,26.0,0.0,1.0,0.0,1.0
0021401156,1610612740,NOP,New Orleans,201583,Ryan Anderson,,,30:50,110.0,97.1,12.9,0.091,2.0,11.1,0.103,0.194,0.15,5.6,0.4,0.4,0.236,96.13,0.075,2015-04-07T00:00:00,3,NOP,New Orleans,42-35,19,24,36,24,0,0,0,0,0,0,0,0,0,0,103,0.434,0.733,0.474,25,45,12,0021401156,1610612740,NOP,New Orleans,Ryan Anderson,,,30:50,0.0,2.0,3.0,4.0,6.0,10.0,9.0,42.0,1.0,2.0,1.0,0.0
0021401156,1610612740,NOP,New Orleans,201962,Toney Douglas,,,11:02,93.3,100.0,-6.7,0.0,0.0,0.0,0.0,0.154,0.077,0.0,0.0,0.0,0.085,92.36,0.032,2015-04-07T00:00:00,3,NOP,New Orleans,42-35,19,24,36,24,0,0,0,0,0,0,0,0,0,0,103,0.434,0.733,0.474,25,45,12,0021401156,1610612740,NOP,New Orleans,Toney Douglas,,,11:02,0.0,0.0,0.0,0.0,2.0,6.0,2.0,14.0,1.0,0.0,0.0,0.0
0021401156,1610612740,NOP,New Orleans,201967,Dante Cunningham,,,17:31,102.7,91.9,10.8,0.0,0.0,0.0,0.0,0.227,0.128,0.0,0.667,0.644,0.108,97.36,0.097,2015-04-07T00:00:00,3,NOP,New Orleans,42-35,19,24,36,24,0,0,0,0,0,0,0,0,0,0,103,0.434,0.733,0.474,25,45,12,0021401156,1610612740,NOP,New Orleans,Dante Cunningham,,,17:31,0.0,0.0,0.0,0.0,2.0,6.0,2.0,22.0,0.0,0.0,1.0,1.0
0021401156,1610612740,NOP,New Orleans,201582,Alexis Ajinca,,,5:34,100.0,109.1,-9.1,0.0,0.0,0.0,0.0,0.0,0.0,0.0,0.667,0.667,0.231,94.85,0.137,2015-04-07T00:00:00,3,NOP,New Orleans,42-35,19,24,36,24,0,0,0,0,0,0,0,0,0,0,103,0.434,0.733,0.474,25,45,12,0021401156,1610612740,NOP,New Orleans,Alexis Ajinca,,,5:34,0.0,2.0,0.0,4.0,0.0,4.0,2.0,8.0,1.0,0.0,0.0,0.0
0021401156,1610612740,NOP,New Orleans,202337,Luke Babbitt,,DNP - Coach's Decision                  ,,,,,,,0.0,,,,,,,0.0,,,2015-04-07T00:00:00,3,NOP,New Orleans,42-35,19,24,36,24,0,0,0,0,0,0,0,0,0,0,103,0.434,0.733,0.474,25,45,12,0021401156,1610612740,NOP,New Orleans,Luke Babbitt,,DNP - Coach's Decision                  ,,,,,,,,,,,,,
0021401156,1610612740,NOP,New Orleans,202690,Jimmer Fredette,,DNP - Coach's Decision                  ,,,,,,,0.0,,,,,,,0.0,,,2015-04-07T00:00:00,3,NOP,New Orleans,42-35,19,24,36,24,0,0,0,0,0,0,0,0,0,0,103,0.434,0.733,0.474,25,45,12,0021401156,1610612740,NOP,New Orleans,Jimmer Fredette,,DNP - Coach's Decision                  ,,,,,,,,,,,,,
0021401156,1610612740,NOP,New Orleans,203481,Jeff Withey,,DNP - Coach's Decision                  ,,,,,,,0.0,,,,,,,0.0,,,2015-04-07T00:00:00,3,NOP,New Orleans,42-35,19,24,36,24,0,0,0,0,0,0,0,0,0,0,103,0.434,0.733,0.474,25,45,12,0021401156,1610612740,NOP,New Orleans,Jeff Withey,,DNP - Coach's Decision                  ,,,,,,,,,,,,,
