GAME_ID_x,TEAM_ID_x,TEAM_ABBREVIATION_x,TEAM_CITY_x,PLAYER_ID,PLAYER_NAME_x,START_POSITION_x,COMMENT_x,MIN_x,OFF_RATING,DEF_RATING,NET_RATING,AST_PCT,AST_TOV,AST_RATIO,OREB_PCT,DREB_PCT,REB_PCT,TM_TOV_PCT,EFG_PCT,TS_PCT,USG_PCT,PACE,PIE,GAME_DATE_EST,GAME_SEQUENCE,TEAM_ABBREVIATION_y,TEAM_CITY_NAME,TEAM_WINS_LOSSES,PTS_QTR1,PTS_QTR2,PTS_QTR3,PTS_QTR4,PTS_OT1,PTS_OT2,PTS_OT3,PTS_OT4,PTS_OT5,PTS_OT6,PTS_OT7,PTS_OT8,PTS_OT9,PTS_OT10,PTS,FG_PCT,FT_PCT,FG3_PCT,AST,REB,TOV,GAME_ID_y,TEAM_ID_y,TEAM_ABBREVIATION,TEAM_CITY_y,PLAYER_NAME_y,START_POSITION_y,COMMENT_y,MIN_y,PTS_OFF_TOV,PTS_2ND_CHANCE,PTS_FB,PTS_PAINT,OPP_PTS_OFF_TOV,OPP_PTS_2ND_CHANCE,OPP_PTS_FB,OPP_PTS_PAINT,BLK,BLKA,PF,PFD
0021401166,1610612740,NOP,New Orleans,202347,Quincy Pondexter,F,,27:52,89.3,122.7,-33.4,0.214,1.5,25.0,0.037,0.04,0.038,16.7,0.786,0.786,0.159,85.78,0.075,2015-04-08T00:00:00,7,NOP,New Orleans,42-36,24,12,19,19,0,0,0,0,0,0,0,0,0,0,74,0.35,0.667,0.286,13,39,12,0021401166,1610612740,NOP,New Orleans,Quincy Pondexter,F,,27:52,2,0,2,2,11,19,6,30,0,0,3,2
0021401166,1610612740,NOP,New Orleans,203076,Anthony Davis,F,,27:43,91.4,128.4,-36.9,0.077,0.0,9.2,0.038,0.167,0.1,0.0,0.556,0.607,0.175,87.01,0.129,2015-04-08T00:00:00,7,NOP,New Orleans,42-36,24,12,19,19,0,0,0,0,0,0,0,0,0,0,74,0.35,0.667,0.286,13,39,12,0021401166,1610612740,NOP,New Orleans,Anthony Davis,F,,27:43,0,2,0,8,11,19,4,32,2,1,2,2
0021401166,1610612740,NOP,New Orleans,201600,Omer Asik,C,,23:26,96.6,126.6,-30.0,0.133,0.0,25.8,0.048,0.263,0.15,0.0,0.5,0.434,0.119,87.67,0.07,2015-04-08T00:00:00,7,NOP,New Orleans,42-36,24,12,19,19,0,0,0,0,0,0,0,0,0,0,74,0.35,0.667,0.286,13,39,12,0021401166,1610612740,NOP,New Orleans,Omer Asik,C,,23:26,0,2,0,4,11,15,4,26,0,1,1,2
0021401166,1610612740,NOP,New Orleans,201569,Eric Gordon,G,,27:27,85.1,126.9,-41.8,0.231,3.0,17.6,0.038,0.0,0.02,5.9,0.346,0.346,0.257,86.21,0.034,2015-04-08T00:00:00,7,NOP,New Orleans,42-36,24,12,19,19,0,0,0,0,0,0,0,0,0,0,74,0.35,0.667,0.286,13,39,12,0021401166,1610612740,NOP,New Orleans,Eric Gordon,G,,27:27,0,3,0,6,11,17,4,32,0,0,0,1
0021401166,1610612740,NOP,New Orleans,201936,Tyreke Evans,G,,26:43,95.1,133.8,-38.7,0.2,1.0,16.9,0.04,0.227,0.128,16.9,0.35,0.425,0.271,86.67,0.071,2015-04-08T00:00:00,7,NOP,New Orleans,42-36,24,12,19,19,0,0,0,0,0,0,0,0,0,0,74,0.35,0.667,0.286,13,39,12,0021401166,1610612740,NOP,New Orleans,Tyreke Evans,G,,26:43,2,0,2,4,11,19,4,32,0,0,1,2
0021401166,1610612740,NOP,New Orleans,201967,Dante Cunningham,,,22:13,78.7,123.0,-44.3,0.0,0.0,0.0,0.192,0.263,0.222,0.0,0.0,0.102,0.103,89.1,0.079,2015-04-08T00:00:00,7,NOP,New Orleans,42-36,24,12,19,19,0,0,0,0,0,0,0,0,0,0,74,0.35,0.667,0.286,13,39,12,0021401166,1610612740,NOP,New Orleans,Dante Cunningham,,,22:13,0,1,0,0,2,8,12,30,0,0,0,1
0021401166,1610612740,NOP,New Orleans,201582,Alexis Ajinca,,,15:06,73.1,133.6,-60.5,0.0,0.0,0.0,0.059,0.154,0.1,17.0,0.5,0.512,0.213,85.57,0.031,2015-04-08T00:00:00,7,NOP,New Orleans,42-36,24,12,19,19,0,0,0,0,0,0,0,0,0,0,74,0.35,0.667,0.286,13,39,12,0021401166,1610612740,NOP,New Orleans,Alexis Ajinca,,,15:06,0,0,0,4,0,6,9,22,0,0,2,1
0021401166,1610612740,NOP,New Orleans,202708,Norris Cole,,,17:44,67.5,114.0,-46.6,0.0,0.0,0.0,0.0,0.111,0.051,0.0,0.389,0.455,0.277,86.4,0.112,2015-04-08T00:00:00,7,NOP,New Orleans,42-36,24,12,19,19,0,0,0,0,0,0,0,0,0,0,74,0.35,0.667,0.286,13,39,12,0021401166,1610612740,NOP,New Orleans,Norris Cole,,,17:44,2,3,4,2,0,6,9,22,0,0,1,3
0021401166,1610612740,NOP,New Orleans,201962,Toney Douglas,,,16:32,76.1,123.9,-47.8,0.167,1.0,9.2,0.0,0.077,0.031,9.2,0.375,0.45,0.263,93.77,0.0,2015-04-08T00:00:00,7,NOP,New Orleans,42-36,24,12,19,19,0,0,0,0,0,0,0,0,0,0,74,0.35,0.667,0.286,13,39,12,0021401166,1610612740,NOP,New Orleans,Toney Douglas,,,16:32,2,0,2,4,2,4,10,20,0,0,4,1
0021401166,1610612740,NOP,New Orleans,201583,Ryan Anderson,,,12:52,48.2,130.5,-82.3,0.0,0.0,0.0,0.0,0.083,0.036,14.3,0.0,0.0,0.308,83.04,-0.156,2015-04-08T00:00:00,7,NOP,New Orleans,42-36,24,12,19,19,0,0,0,0,0,0,0,0,0,0,74,0.35,0.667,0.286,13,39,12,0021401166,1610612740,NOP,New Orleans,Ryan Anderson,,,12:52,0,0,0,0,0,6,4,16,0,0,0,1
0021401166,1610612740,NOP,New Orleans,202337,Luke Babbitt,,,9:46,86.0,108.7,-22.7,0.0,0.0,0.0,0.0,0.0,0.0,20.0,0.5,0.5,0.202,96.03,0.03,2015-04-08T00:00:00,7,NOP,New Orleans,42-36,24,12,19,19,0,0,0,0,0,0,0,0,0,0,74,0.35,0.667,0.286,13,39,12,0021401166,1610612740,NOP,New Orleans,Luke Babbitt,,,9:46,0,0,0,2,2,2,8,12,0,0,0,0
0021401166,1610612740,NOP,New Orleans,203481,Jeff Withey,,,7:07,88.1,100.9,-12.8,0.0,0.0,0.0,0.111,0.167,0.133,100.0,0.0,0.0,0.051,96.58,0.093,2015-04-08T00:00:00,7,NOP,New Orleans,42-36,24,12,19,19,0,0,0,0,0,0,0,0,0,0,74,0.35,0.667,0.286,13,39,12,0021401166,1610612740,NOP,New Orleans,Jeff Withey,,,7:07,0,0,0,0,2,2,3,8,1,0,0,0
0021401166,1610612740,NOP,New Orleans,202690,Jimmer Fredette,,,5:29,93.5,128.7,-35.1,0.0,0.0,0.0,0.0,0.0,0.0,33.3,0.0,0.0,0.218,99.09,-0.17,2015-04-08T00:00:00,7,NOP,New Orleans,42-36,24,12,19,19,0,0,0,0,0,0,0,0,0,0,74,0.35,0.667,0.286,13,39,12,0021401166,1610612740,NOP,New Orleans,Jimmer Fredette,,,5:29,0,0,0,0,2,2,3,8,0,1,1,0
0021401166,1610612763,MEM,Memphis,201145,Jeff Green,F,,33:02,133.1,85.4,47.7,0.042,0.0,8.3,0.036,0.097,0.068,0.0,0.682,0.682,0.162,84.55,0.124,2015-04-08T00:00:00,7,MEM,Memphis,53-25,27,28,26,29,0,0,0,0,0,0,0,0,0,0,110,0.511,0.857,0.471,27,52,8,0021401166,1610612763,MEM,Memphis,Jeff Green,F,,33:02,4,0,2,10,4,8,4,24,0,0,1,2
0021401166,1610612763,MEM,Memphis,2216,Zach Randolph,F,,29:43,126.2,92.3,33.9,0.273,0.0,29.5,0.208,0.276,0.245,0.0,0.462,0.524,0.234,86.6,0.221,2015-04-08T00:00:00,7,MEM,Memphis,53-25,27,28,26,29,0,0,0,0,0,0,0,0,0,0,110,0.511,0.857,0.471,27,52,8,0021401166,1610612763,MEM,Memphis,Zach Randolph,F,,29:43,0,11,0,10,4,7,6,24,0,1,2,2
0021401166,1610612763,MEM,Memphis,201188,Marc Gasol,C,,29:00,137.4,86.3,51.1,0.261,0.0,30.4,0.043,0.241,0.154,0.0,0.5,0.545,0.228,87.46,0.192,2015-04-08T00:00:00,7,MEM,Memphis,53-25,27,28,26,29,0,0,0,0,0,0,0,0,0,0,110,0.511,0.857,0.471,27,52,8,0021401166,1610612763,MEM,Memphis,Marc Gasol,C,,29:00,2,2,0,8,2,7,2,22,2,0,1,4
0021401166,1610612763,MEM,Memphis,201584,Courtney Lee,G,,27:10,124.8,93.6,31.2,0.045,0.0,10.0,0.0,0.074,0.041,0.0,0.444,0.444,0.163,85.91,0.04,2015-04-08T00:00:00,7,MEM,Memphis,53-25,27,28,26,29,0,0,0,0,0,0,0,0,0,0,110,0.511,0.857,0.471,27,52,8,0021401166,1610612763,MEM,Memphis,Courtney Lee,G,,27:10,2,6,2,2,2,7,4,20,0,0,2,0
0021401166,1610612763,MEM,Memphis,201144,Mike Conley,G,,32:51,125.6,85.4,40.2,0.16,2.0,26.7,0.0,0.065,0.033,13.3,0.556,0.556,0.165,84.05,0.052,2015-04-08T00:00:00,7,MEM,Memphis,53-25,27,28,26,29,0,0,0,0,0,0,0,0,0,0,110,0.511,0.857,0.471,27,52,8,0021401166,1610612763,MEM,Memphis,Mike Conley,G,,32:51,3,0,0,4,4,8,4,22,0,1,3,1
0021401166,1610612763,MEM,Memphis,1713,Vince Carter,,,18:18,127.8,63.2,64.6,0.0,0.0,0.0,0.059,0.182,0.128,0.0,0.714,0.714,0.17,87.66,0.168,2015-04-08T00:00:00,7,MEM,Memphis,53-25,27,28,26,29,0,0,0,0,0,0,0,0,0,0,110,0.511,0.857,0.471,27,52,8,0021401166,1610612763,MEM,Memphis,Vince Carter,,,18:18,0,0,0,2,0,5,2,6,0,0,3,0
0021401166,1610612763,MEM,Memphis,2757,Beno Udrih,,,18:53,116.0,73.5,42.5,0.167,2.0,15.7,0.0,0.0,0.0,7.8,0.625,0.717,0.249,87.49,0.2,2015-04-08T00:00:00,7,MEM,Memphis,53-25,27,28,26,29,0,0,0,0,0,0,0,0,0,0,110,0.511,0.857,0.471,27,52,8,0021401166,1610612763,MEM,Memphis,Beno Udrih,,,18:53,0,0,5,6,4,5,6,12,0,0,2,3
0021401166,1610612763,MEM,Memphis,201585,Kosta Koufos,,,15:28,123.3,63.2,60.0,0.0,0.0,0.0,0.25,0.438,0.344,17.5,0.444,0.477,0.325,87.02,0.259,2015-04-08T00:00:00,7,MEM,Memphis,53-25,27,28,26,29,0,0,0,0,0,0,0,0,0,0,110,0.511,0.857,0.471,27,52,8,0021401166,1610612763,MEM,Memphis,Kosta Koufos,,,15:28,0,4,4,8,2,3,4,8,0,0,0,1
0021401166,1610612763,MEM,Memphis,201979,Nick Calathes,,,8:41,114.6,84.5,30.2,0.556,0.0,85.0,0.0,0.1,0.059,0.0,0.0,0.568,0.043,99.72,0.19,2015-04-08T00:00:00,7,MEM,Memphis,53-25,27,28,26,29,0,0,0,0,0,0,0,0,0,0,110,0.511,0.857,0.471,27,52,8,0021401166,1610612763,MEM,Memphis,Nick Calathes,,,8:41,0,0,0,0,4,1,4,10,0,0,1,1
0021401166,1610612763,MEM,Memphis,202720,Jon Leuer,,,7:50,104.2,89.5,14.7,0.2,1.0,16.7,0.143,0.0,0.063,16.7,0.5,0.5,0.273,101.35,0.094,2015-04-08T00:00:00,7,MEM,Memphis,53-25,27,28,26,29,0,0,0,0,0,0,0,0,0,0,110,0.511,0.857,0.471,27,52,8,0021401166,1610612763,MEM,Memphis,Jon Leuer,,,7:50,0,0,0,2,4,1,4,10,0,0,0,0
0021401166,1610612763,MEM,Memphis,203919,Jordan Adams,,,7:07,100.9,88.1,12.8,0.2,1.0,25.0,0.0,0.0,0.0,25.0,0.75,0.75,0.189,96.58,0.163,2015-04-08T00:00:00,7,MEM,Memphis,53-25,27,28,26,29,0,0,0,0,0,0,0,0,0,0,110,0.511,0.857,0.471,27,52,8,0021401166,1610612763,MEM,Memphis,Jordan Adams,,,7:07,0,0,3,0,4,1,4,8,1,1,0,0
0021401166,1610612763,MEM,Memphis,203950,Jarnell Stokes,,,6:28,108.7,94.5,14.2,0.0,0.0,0.0,0.0,0.333,0.231,33.3,1.0,1.0,0.216,98.87,0.208,2015-04-08T00:00:00,7,MEM,Memphis,53-25,27,28,26,29,0,0,0,0,0,0,0,0,0,0,110,0.511,0.857,0.471,27,52,8,0021401166,1610612763,MEM,Memphis,Jarnell Stokes,,,6:28,2,2,0,4,4,1,4,8,0,0,1,0
0021401166,1610612763,MEM,Memphis,203210,JaMychal Green,,,5:29,128.7,93.5,35.1,0.0,0.0,0.0,0.333,0.167,0.222,0.0,0.5,0.5,0.168,99.09,0.149,2015-04-08T00:00:00,7,MEM,Memphis,53-25,27,28,26,29,0,0,0,0,0,0,0,0,0,0,110,0.511,0.857,0.471,27,52,8,0021401166,1610612763,MEM,Memphis,JaMychal Green,,,5:29,0,0,0,2,2,1,2,6,0,0,0,1
