GAME_ID_x,TEAM_ID_x,TEAM_ABBREVIATION_x,TEAM_CITY_x,PLAYER_ID,PLAYER_NAME_x,START_POSITION_x,COMMENT_x,MIN_x,OFF_RATING,DEF_RATING,NET_RATING,AST_PCT,AST_TOV,AST_RATIO,OREB_PCT,DREB_PCT,REB_PCT,TM_TOV_PCT,EFG_PCT,TS_PCT,USG_PCT,PACE,PIE,GAME_DATE_EST,GAME_SEQUENCE,TEAM_ABBREVIATION_y,TEAM_CITY_NAME,TEAM_WINS_LOSSES,PTS_QTR1,PTS_QTR2,PTS_QTR3,PTS_QTR4,PTS_OT1,PTS_OT2,PTS_OT3,PTS_OT4,PTS_OT5,PTS_OT6,PTS_OT7,PTS_OT8,PTS_OT9,PTS_OT10,PTS,FG_PCT,FT_PCT,FG3_PCT,AST,REB,TOV,GAME_ID_y,TEAM_ID_y,TEAM_ABBREVIATION,TEAM_CITY_y,PLAYER_NAME_y,START_POSITION_y,COMMENT_y,MIN_y,PTS_OFF_TOV,PTS_2ND_CHANCE,PTS_FB,PTS_PAINT,OPP_PTS_OFF_TOV,OPP_PTS_2ND_CHANCE,OPP_PTS_FB,OPP_PTS_PAINT,BLK,BLKA,PF,PFD
0021401160,1610612761,TOR,Toronto,203082,Terrence Ross,F,,23:24,99.8,70.8,29.0,0.167,2.0,20.0,0.0,0.04,0.023,10.0,0.643,0.643,0.166,86.19,0.12,2015-04-08T00:00:00,1,TOR,Toronto,46-32,20,27,22,23,0,0,0,0,0,0,0,0,0,0,92,0.429,0.737,0.444,20,47,9,0021401160,1610612761,TOR,Toronto,Terrence Ross,F,,23:24,0.0,0.0,0.0,0.0,3.0,4.0,0.0,10.0,0.0,1.0,2.0,0.0
0021401160,1610612761,TOR,Toronto,201946,Tyler Hansbrough,F,,37:23,119.7,91.0,28.7,0.0,0.0,0.0,0.192,0.206,0.2,0.0,0.444,0.558,0.147,84.18,0.126,2015-04-08T00:00:00,1,TOR,Toronto,46-32,20,27,22,23,0,0,0,0,0,0,0,0,0,0,92,0.429,0.737,0.444,20,47,9,0021401160,1610612761,TOR,Toronto,Tyler Hansbrough,F,,37:23,0.0,6.0,0.0,8.0,3.0,9.0,0.0,12.0,2.0,1.0,3.0,4.0
0021401160,1610612761,TOR,Toronto,202685,Jonas Valanciunas,C,,16:52,90.6,64.4,26.3,0.2,2.0,33.3,0.083,0.389,0.267,16.7,0.333,0.333,0.11,92.9,0.181,2015-04-08T00:00:00,1,TOR,Toronto,46-32,20,27,22,23,0,0,0,0,0,0,0,0,0,0,92,0.429,0.737,0.444,20,47,9,0021401160,1610612761,TOR,Toronto,Jonas Valanciunas,C,,16:52,0.0,0.0,0.0,2.0,0.0,2.0,0.0,8.0,2.0,1.0,4.0,2.0
0021401160,1610612761,TOR,Toronto,201942,DeMar DeRozan,G,,33:47,98.5,59.5,39.0,0.412,7.0,25.8,0.042,0.026,0.032,3.7,0.375,0.472,0.287,87.95,0.218,2015-04-08T00:00:00,1,TOR,Toronto,46-32,20,27,22,23,0,0,0,0,0,0,0,0,0,0,92,0.429,0.737,0.444,20,47,9,0021401160,1610612761,TOR,Toronto,DeMar DeRozan,G,,33:47,3.0,0.0,3.0,4.0,3.0,4.0,0.0,12.0,3.0,2.0,0.0,4.0
0021401160,1610612761,TOR,Toronto,202349,Greivis Vasquez,G,,35:34,124.8,103.2,21.7,0.174,4.0,22.2,0.0,0.172,0.098,5.6,0.615,0.615,0.204,85.32,0.112,2015-04-08T00:00:00,1,TOR,Toronto,46-32,20,27,22,23,0,0,0,0,0,0,0,0,0,0,92,0.429,0.737,0.444,20,47,9,0021401160,1610612761,TOR,Toronto,Greivis Vasquez,G,,35:34,3.0,3.0,0.0,2.0,9.0,11.0,0.0,14.0,0.0,0.0,3.0,0.0
0021401160,1610612761,TOR,Toronto,202335,Patrick Patterson,,,31:20,94.1,93.0,1.1,0.0,0.0,0.0,0.04,0.242,0.155,0.0,0.571,0.571,0.112,83.52,0.138,2015-04-08T00:00:00,1,TOR,Toronto,46-32,20,27,22,23,0,0,0,0,0,0,0,0,0,0,92,0.429,0.737,0.444,20,47,9,0021401160,1610612761,TOR,Toronto,Patrick Patterson,,,31:20,2.0,0.0,0.0,2.0,9.0,11.0,0.0,10.0,2.0,0.0,3.0,1.0
0021401160,1610612761,TOR,Toronto,101150,Lou Williams,,,25:30,94.9,95.8,-1.0,0.222,2.0,10.1,0.0,0.077,0.04,5.1,0.433,0.477,0.346,83.92,0.155,2015-04-08T00:00:00,1,TOR,Toronto,46-32,20,27,22,23,0,0,0,0,0,0,0,0,0,0,92,0.429,0.737,0.444,20,47,9,0021401160,1610612761,TOR,Toronto,Lou Williams,,,25:30,0.0,0.0,0.0,2.0,2.0,9.0,0.0,8.0,0.0,0.0,0.0,2.0
0021401160,1610612761,TOR,Toronto,201949,James Johnson,,,23:27,115.9,97.9,18.0,0.077,0.33,7.8,0.063,0.286,0.189,23.5,0.714,0.628,0.254,86.13,0.12,2015-04-08T00:00:00,1,TOR,Toronto,46-32,20,27,22,23,0,0,0,0,0,0,0,0,0,0,92,0.429,0.737,0.444,20,47,9,0021401160,1610612761,TOR,Toronto,James Johnson,,,23:27,2.0,4.0,0.0,10.0,2.0,7.0,0.0,6.0,0.0,0.0,2.0,2.0
0021401160,1610612761,TOR,Toronto,101236,Chuck Hayes,,,9:16,134.7,82.9,51.7,0.25,0.0,100.0,0.0,0.125,0.067,0.0,0.0,0.0,0.0,87.94,0.029,2015-04-08T00:00:00,1,TOR,Toronto,46-32,20,27,22,23,0,0,0,0,0,0,0,0,0,0,92,0.429,0.737,0.444,20,47,9,0021401160,1610612761,TOR,Toronto,Chuck Hayes,,,9:16,0.0,0.0,0.0,0.0,2.0,2.0,0.0,4.0,0.0,0.0,2.0,0.0
0021401160,1610612761,TOR,Toronto,203998,Bruno Caboclo,,,1:09,0.0,200.0,-200.0,0.0,0.0,0.0,0.0,0.0,0.0,100.0,0.0,0.0,1.0,62.61,-0.286,2015-04-08T00:00:00,1,TOR,Toronto,46-32,20,27,22,23,0,0,0,0,0,0,0,0,0,0,92,0.429,0.737,0.444,20,47,9,0021401160,1610612761,TOR,Toronto,Bruno Caboclo,,,1:09,0.0,0.0,0.0,0.0,4.0,2.0,0.0,2.0,0.0,0.0,0.0,0.0
0021401160,1610612761,TOR,Toronto,201880,Greg Stiemsma,,,1:09,0.0,200.0,-200.0,0.0,0.0,0.0,0.0,0.0,0.0,0.0,0.0,0.0,0.0,62.61,0.0,2015-04-08T00:00:00,1,TOR,Toronto,46-32,20,27,22,23,0,0,0,0,0,0,0,0,0,0,92,0.429,0.737,0.444,20,47,9,0021401160,1610612761,TOR,Toronto,Greg Stiemsma,,,1:09,0.0,0.0,0.0,0.0,4.0,2.0,0.0,2.0,0.0,0.0,0.0,0.0
0021401160,1610612761,TOR,Toronto,202361,Landry Fields,,,1:09,0.0,200.0,-200.0,0.0,0.0,0.0,0.0,0.0,0.0,0.0,0.0,0.0,0.0,62.61,0.0,2015-04-08T00:00:00,1,TOR,Toronto,46-32,20,27,22,23,0,0,0,0,0,0,0,0,0,0,92,0.429,0.737,0.444,20,47,9,0021401160,1610612761,TOR,Toronto,Landry Fields,,,1:09,0.0,0.0,0.0,0.0,4.0,2.0,0.0,2.0,0.0,0.0,0.0,0.0
0021401160,1610612761,TOR,Toronto,101161,Amir Johnson,,DND - Sprained Right Ankle              ,,,,,,,0.0,,,,,,,0.0,,,2015-04-08T00:00:00,1,TOR,Toronto,46-32,20,27,22,23,0,0,0,0,0,0,0,0,0,0,92,0.429,0.737,0.444,20,47,9,0021401160,1610612761,TOR,Toronto,Amir Johnson,,DND - Sprained Right Ankle              ,,,,,,,,,,,,,
0021401160,1610612766,CHA,Charlotte,203106,Jeffery Taylor,F,,18:08,60.2,106.0,-45.8,0.0,0.0,0.0,0.0,0.154,0.059,0.0,0.667,0.667,0.161,88.89,0.098,2015-04-08T00:00:00,1,CHA,Charlotte,33-45,15,16,14,29,0,0,0,0,0,0,0,0,0,0,74,0.346,0.727,0.455,15,35,8,0021401160,1610612766,CHA,Charlotte,Jeffery Taylor,F,,18:08,3.0,0.0,0.0,2.0,3.0,5.0,3.0,8.0,0.0,1.0,3.0,1.0
0021401160,1610612766,CHA,Charlotte,101107,Marvin Williams,F,,24:34,82.3,118.8,-36.5,0.214,1.5,27.6,0.0,0.471,0.205,18.4,0.0,0.085,0.164,89.14,0.054,2015-04-08T00:00:00,1,CHA,Charlotte,33-45,15,16,14,29,0,0,0,0,0,0,0,0,0,0,74,0.346,0.727,0.455,15,35,8,0021401160,1610612766,CHA,Charlotte,Marvin Williams,F,,24:34,0.0,0.0,0.0,0.0,6.0,7.0,3.0,16.0,1.0,1.0,2.0,1.0
0021401160,1610612766,CHA,Charlotte,202687,Bismack Biyombo,C,,30:02,66.2,93.0,-26.8,0.0,0.0,0.0,0.091,0.174,0.125,0.0,0.5,0.615,0.083,87.74,0.144,2015-04-08T00:00:00,1,CHA,Charlotte,33-45,15,16,14,29,0,0,0,0,0,0,0,0,0,0,74,0.346,0.727,0.455,15,35,8,0021401160,1610612766,CHA,Charlotte,Bismack Biyombo,C,,30:02,0.0,2.0,0.0,4.0,6.0,5.0,3.0,10.0,3.0,1.0,2.0,1.0
0021401160,1610612766,CHA,Charlotte,201945,Gerald Henderson,G,,27:53,79.7,119.0,-39.3,0.273,1.5,15.5,0.0,0.0,0.0,10.4,0.308,0.314,0.302,86.28,-0.022,2015-04-08T00:00:00,1,CHA,Charlotte,33-45,15,16,14,29,0,0,0,0,0,0,0,0,0,0,74,0.346,0.727,0.455,15,35,8,0021401160,1610612766,CHA,Charlotte,Gerald Henderson,G,,27:53,2.0,0.0,0.0,4.0,6.0,7.0,3.0,16.0,0.0,3.0,1.0,4.0
0021401160,1610612766,CHA,Charlotte,202689,Kemba Walker,G,,31:08,69.8,98.4,-28.5,0.333,3.0,16.0,0.03,0.125,0.07,5.3,0.423,0.508,0.255,88.5,0.176,2015-04-08T00:00:00,1,CHA,Charlotte,33-45,15,16,14,29,0,0,0,0,0,0,0,0,0,0,74,0.346,0.727,0.455,15,35,8,0021401160,1610612766,CHA,Charlotte,Kemba Walker,G,,31:08,0.0,2.0,0.0,2.0,6.0,5.0,3.0,14.0,0.0,0.0,0.0,7.0
0021401160,1610612766,CHA,Charlotte,2590,Mo Williams,,,20:29,88.2,98.9,-10.7,0.429,3.0,17.6,0.0,0.056,0.024,5.9,0.385,0.385,0.36,81.17,0.069,2015-04-08T00:00:00,1,CHA,Charlotte,33-45,15,16,14,29,0,0,0,0,0,0,0,0,0,0,74,0.346,0.727,0.455,15,35,8,0021401160,1610612766,CHA,Charlotte,Mo Williams,,,20:29,0.0,3.0,0.0,0.0,2.0,8.0,0.0,12.0,0.0,0.0,1.0,0.0
0021401160,1610612766,CHA,Charlotte,203943,Noah Vonleh,,,23:26,92.8,92.3,0.5,0.0,0.0,0.0,0.08,0.222,0.14,0.0,0.214,0.214,0.153,81.89,0.03,2015-04-08T00:00:00,1,CHA,Charlotte,33-45,15,16,14,29,0,0,0,0,0,0,0,0,0,0,74,0.346,0.727,0.455,15,35,8,0021401160,1610612766,CHA,Charlotte,Noah Vonleh,,,23:26,0.0,0.0,0.0,0.0,4.0,6.0,0.0,14.0,1.0,2.0,1.0,1.0
0021401160,1610612766,CHA,Charlotte,203148,Brian Roberts,,,16:52,120.7,124.1,-3.4,0.3,3.0,27.3,0.071,0.0,0.04,9.1,0.714,0.714,0.25,80.25,0.15,2015-04-08T00:00:00,1,CHA,Charlotte,33-45,15,16,14,29,0,0,0,0,0,0,0,0,0,0,74,0.346,0.727,0.455,15,35,8,0021401160,1610612766,CHA,Charlotte,Brian Roberts,,,16:52,2.0,2.0,0.0,0.0,4.0,8.0,0.0,16.0,0.0,0.0,1.0,0.0
0021401160,1610612766,CHA,Charlotte,101131,Jason Maxiell,,,17:58,121.9,132.7,-10.8,0.0,0.0,0.0,0.143,0.0,0.077,0.0,0.667,0.667,0.086,82.02,0.057,2015-04-08T00:00:00,1,CHA,Charlotte,33-45,15,16,14,29,0,0,0,0,0,0,0,0,0,0,74,0.346,0.727,0.455,15,35,8,0021401160,1610612766,CHA,Charlotte,Jason Maxiell,,,17:58,2.0,4.0,0.0,4.0,4.0,8.0,0.0,20.0,0.0,0.0,1.0,2.0
0021401160,1610612766,CHA,Charlotte,203798,PJ Hairston,,,23:53,110.0,104.6,5.4,0.0,0.0,0.0,0.0,0.235,0.114,11.1,0.313,0.313,0.197,86.14,-0.013,2015-04-08T00:00:00,1,CHA,Charlotte,33-45,15,16,14,29,0,0,0,0,0,0,0,0,0,0,74,0.346,0.727,0.455,15,35,8,0021401160,1610612766,CHA,Charlotte,PJ Hairston,,,23:53,0.0,0.0,0.0,2.0,7.0,6.0,0.0,20.0,0.0,1.0,3.0,1.0
0021401160,1610612766,CHA,Charlotte,203584,Troy Daniels,,,5:37,109.1,77.8,31.3,0.0,0.0,0.0,0.0,0.0,0.0,0.0,0.75,0.75,0.167,85.46,0.129,2015-04-08T00:00:00,1,CHA,Charlotte,33-45,15,16,14,29,0,0,0,0,0,0,0,0,0,0,74,0.346,0.727,0.455,15,35,8,0021401160,1610612766,CHA,Charlotte,Troy Daniels,,,5:37,0.0,0.0,0.0,0.0,2.0,0.0,0.0,4.0,0.0,0.0,0.0,1.0
0021401160,1610612766,CHA,Charlotte,2744,Al Jefferson,,DND - Right Knee Soreness               ,,,,,,,0.0,,,,,,,0.0,,,2015-04-08T00:00:00,1,CHA,Charlotte,33-45,15,16,14,29,0,0,0,0,0,0,0,0,0,0,74,0.346,0.727,0.455,15,35,8,0021401160,1610612766,CHA,Charlotte,Al Jefferson,,DND - Right Knee Soreness               ,,,,,,,,,,,,,
0021401160,1610612766,CHA,Charlotte,202362,Lance Stephenson,,DND - Right Toe Sprain                  ,,,,,,,0.0,,,,,,,0.0,,,2015-04-08T00:00:00,1,CHA,Charlotte,33-45,15,16,14,29,0,0,0,0,0,0,0,0,0,0,74,0.346,0.727,0.455,15,35,8,0021401160,1610612766,CHA,Charlotte,Lance Stephenson,,DND - Right Toe Sprain                  ,,,,,,,,,,,,,
