GAME_ID_x,TEAM_ID_x,TEAM_ABBREVIATION_x,TEAM_CITY_x,PLAYER_ID,PLAYER_NAME_x,START_POSITION_x,COMMENT_x,MIN_x,OFF_RATING,DEF_RATING,NET_RATING,AST_PCT,AST_TOV,AST_RATIO,OREB_PCT,DREB_PCT,REB_PCT,TM_TOV_PCT,EFG_PCT,TS_PCT,USG_PCT,PACE,PIE,GAME_DATE_EST,GAME_SEQUENCE,TEAM_ABBREVIATION_y,TEAM_CITY_NAME,TEAM_WINS_LOSSES,PTS_QTR1,PTS_QTR2,PTS_QTR3,PTS_QTR4,PTS_OT1,PTS_OT2,PTS_OT3,PTS_OT4,PTS_OT5,PTS_OT6,PTS_OT7,PTS_OT8,PTS_OT9,PTS_OT10,PTS,FG_PCT,FT_PCT,FG3_PCT,AST,REB,TOV,GAME_ID_y,TEAM_ID_y,TEAM_ABBREVIATION,TEAM_CITY_y,PLAYER_NAME_y,START_POSITION_y,COMMENT_y,MIN_y,PTS_OFF_TOV,PTS_2ND_CHANCE,PTS_FB,PTS_PAINT,OPP_PTS_OFF_TOV,OPP_PTS_2ND_CHANCE,OPP_PTS_FB,OPP_PTS_PAINT,BLK,BLKA,PF,PFD
0021401184,1610612742,DAL,Dallas,2210,Richard Jefferson,F,,31:24,111.5,106.6,4.8,0.091,1.0,9.6,0.0,0.098,0.063,9.6,0.667,0.716,0.267,103.03,0.133,2015-04-10T00:00:00,10,DAL,Dallas,48-31,35,38,20,28,13,10,0,0,0,0,0,0,0,0,144,0.523,0.792,0.379,39,49,17,0021401184,1610612742,DAL,Dallas,Richard Jefferson,F,,31:24,8.0,0.0,4.0,8.0,11.0,19.0,0.0,30.0,0.0,0.0,4.0,7.0
0021401184,1610612742,DAL,Dallas,1717,Dirk Nowitzki,F,,37:34,122.4,105.9,16.5,0.138,2.0,14.7,0.0,0.209,0.127,7.4,0.526,0.59,0.264,100.58,0.175,2015-04-10T00:00:00,10,DAL,Dallas,48-31,35,38,20,28,13,10,0,0,0,0,0,0,0,0,144,0.523,0.792,0.379,39,49,17,0021401184,1610612742,DAL,Dallas,Dirk Nowitzki,F,,37:34,2.0,0.0,0.0,4.0,10.0,19.0,2.0,30.0,3.0,0.0,2.0,5.0
0021401184,1610612742,DAL,Dallas,2199,Tyson Chandler,C,,30:55,117.2,109.7,7.5,0.033,0.33,12.7,0.136,0.2,0.177,38.1,0.667,0.773,0.094,103.94,0.066,2015-04-10T00:00:00,10,DAL,Dallas,48-31,35,38,20,28,13,10,0,0,0,0,0,0,0,0,144,0.523,0.792,0.379,39,49,17,0021401184,1610612742,DAL,Dallas,Tyson Chandler,C,,30:55,2.0,2.0,2.0,4.0,11.0,18.0,0.0,28.0,1.0,0.0,4.0,4.0
0021401184,1610612742,DAL,Dallas,101145,Monta Ellis,G,,37:13,117.4,105.8,11.6,0.179,1.0,17.9,0.0,0.0,0.0,17.9,0.529,0.531,0.266,102.82,0.051,2015-04-10T00:00:00,10,DAL,Dallas,48-31,35,38,20,28,13,10,0,0,0,0,0,0,0,0,144,0.523,0.792,0.379,39,49,17,0021401184,1610612742,DAL,Dallas,Monta Ellis,G,,37:13,2.0,1.0,2.0,12.0,11.0,21.0,2.0,38.0,0.0,0.0,2.0,1.0
0021401184,1610612742,DAL,Dallas,101109,Raymond Felton,G,,29:55,105.8,97.6,8.2,0.25,5.0,27.1,0.0,0.125,0.068,5.4,0.542,0.523,0.189,102.54,0.15,2015-04-10T00:00:00,10,DAL,Dallas,48-31,35,38,20,28,13,10,0,0,0,0,0,0,0,0,144,0.523,0.792,0.379,39,49,17,0021401184,1610612742,DAL,Dallas,Raymond Felton,G,,29:55,0.0,3.0,4.0,8.0,9.0,13.0,2.0,24.0,1.0,0.0,1.0,1.0
0021401184,1610612742,DAL,Dallas,202329,Al-Farouq Aminu,,,28:49,112.2,125.9,-13.7,0.043,1.0,7.7,0.28,0.067,0.164,7.7,0.455,0.455,0.168,106.32,0.058,2015-04-10T00:00:00,10,DAL,Dallas,48-31,35,38,20,28,13,10,0,0,0,0,0,0,0,0,144,0.523,0.792,0.379,39,49,17,0021401184,1610612742,DAL,Dallas,Al-Farouq Aminu,,,28:49,2.0,2.0,2.0,10.0,18.0,17.0,7.0,34.0,1.0,1.0,2.0,0.0
0021401184,1610612742,DAL,Dallas,2734,Devin Harris,,,29:21,128.0,132.8,-4.8,0.346,4.5,39.8,0.0,0.069,0.041,8.8,0.944,0.902,0.197,102.84,0.183,2015-04-10T00:00:00,10,DAL,Dallas,48-31,35,38,20,28,13,10,0,0,0,0,0,0,0,0,144,0.523,0.792,0.379,39,49,17,0021401184,1610612742,DAL,Dallas,Devin Harris,,,29:21,0.0,2.0,7.0,8.0,15.0,17.0,5.0,26.0,0.0,0.0,0.0,3.0
0021401184,1610612742,DAL,Dallas,101111,Charlie Villanueva,,,18:13,108.6,131.7,-23.1,0.2,0.0,23.1,0.067,0.125,0.097,0.0,0.3,0.3,0.23,104.38,0.018,2015-04-10T00:00:00,10,DAL,Dallas,48-31,35,38,20,28,13,10,0,0,0,0,0,0,0,0,144,0.523,0.792,0.379,39,49,17,0021401184,1610612742,DAL,Dallas,Charlie Villanueva,,,18:13,0.0,0.0,0.0,0.0,11.0,9.0,5.0,18.0,0.0,0.0,2.0,1.0
0021401184,1610612742,DAL,Dallas,2405,Amar'e Stoudemire,,,21:45,116.7,123.5,-6.8,0.0,0.0,0.0,0.0,0.19,0.105,0.0,0.75,0.768,0.198,104.7,0.147,2015-04-10T00:00:00,10,DAL,Dallas,48-31,35,38,20,28,13,10,0,0,0,0,0,0,0,0,144,0.523,0.792,0.379,39,49,17,0021401184,1610612742,DAL,Dallas,Amar'e Stoudemire,,,21:45,1.0,1.0,0.0,10.0,12.0,12.0,5.0,24.0,0.0,0.0,2.0,4.0
0021401184,1610612742,DAL,Dallas,200826,J.J. Barea,,,19:48,101.1,133.8,-32.7,0.563,9.0,60.0,0.0,0.091,0.053,6.7,0.5,0.5,0.126,105.56,0.113,2015-04-10T00:00:00,10,DAL,Dallas,48-31,35,38,20,28,13,10,0,0,0,0,0,0,0,0,144,0.523,0.792,0.379,39,49,17,0021401184,1610612742,DAL,Dallas,J.J. Barea,,,19:48,3.0,0.0,2.0,2.0,15.0,13.0,5.0,24.0,0.0,0.0,2.0,0.0
0021401184,1610612742,DAL,Dallas,203108,Bernard James,,,5:03,100.0,112.7,-12.7,0.0,0.0,0.0,0.0,0.25,0.1,0.0,0.0,0.0,0.0,94.06,0.0,2015-04-10T00:00:00,10,DAL,Dallas,48-31,35,38,20,28,13,10,0,0,0,0,0,0,0,0,144,0.523,0.792,0.379,39,49,17,0021401184,1610612742,DAL,Dallas,Bernard James,,,5:03,0.0,0.0,0.0,0.0,2.0,2.0,2.0,4.0,0.0,0.0,2.0,0.0
0021401184,1610612742,DAL,Dallas,203939,Dwight Powell,,DNP - Coach's Decision                  ,,,,,,,0.0,,,,,,,0.0,,,2015-04-10T00:00:00,10,DAL,Dallas,48-31,35,38,20,28,13,10,0,0,0,0,0,0,0,0,144,0.523,0.792,0.379,39,49,17,0021401184,1610612742,DAL,Dallas,Dwight Powell,,DNP - Coach's Decision                  ,,,,,,,,,,,,,
0021401184,1610612742,DAL,Dallas,202962,Greg Smith,,DNP - Coach's Decision                  ,,,,,,,0.0,,,,,,,0.0,,,2015-04-10T00:00:00,10,DAL,Dallas,48-31,35,38,20,28,13,10,0,0,0,0,0,0,0,0,144,0.523,0.792,0.379,39,49,17,0021401184,1610612742,DAL,Dallas,Greg Smith,,DNP - Coach's Decision                  ,,,,,,,,,,,,,
0021401184,1610612743,DEN,Denver,201163,Wilson Chandler,F,,48:42,112.8,116.6,-3.8,0.056,0.67,7.4,0.107,0.139,0.12,11.1,0.455,0.455,0.196,105.67,0.053,2015-04-10T00:00:00,10,DEN,Denver,29-50,27,25,37,32,13,9,0,0,0,0,0,0,0,0,143,0.424,0.88,0.349,29,61,15,0021401184,1610612743,DEN,Denver,Wilson Chandler,F,,48:42,2.0,9.0,0.0,14.0,18.0,8.0,23.0,60.0,0.0,1.0,3.0,1.0
0021401184,1610612743,DEN,Denver,201568,Danilo Gallinari,F,,45:46,124.3,101.9,22.4,0.067,0.0,6.8,0.041,0.184,0.103,0.0,0.804,0.858,0.238,103.06,0.229,2015-04-10T00:00:00,10,DEN,Denver,29-50,27,25,37,32,13,9,0,0,0,0,0,0,0,0,143,0.424,0.88,0.349,29,61,15,0021401184,1610612743,DEN,Denver,Danilo Gallinari,F,,45:46,5.0,9.0,2.0,8.0,8.0,9.0,17.0,50.0,1.0,1.0,4.0,6.0
0021401184,1610612743,DEN,Denver,202702,Kenneth Faried,C,,32:06,119.1,114.7,4.5,0.04,0.33,5.8,0.143,0.174,0.155,17.3,0.5,0.526,0.207,104.28,0.046,2015-04-10T00:00:00,10,DEN,Denver,29-50,27,25,37,32,13,9,0,0,0,0,0,0,0,0,143,0.424,0.88,0.349,29,61,15,0021401184,1610612743,DEN,Denver,Kenneth Faried,C,,32:06,4.0,0.0,2.0,12.0,3.0,5.0,13.0,38.0,0.0,2.0,5.0,6.0
0021401184,1610612743,DEN,Denver,200751,Randy Foye,G,,47:06,114.4,112.7,1.7,0.111,1.33,16.0,0.02,0.111,0.057,12.0,0.472,0.472,0.173,104.09,0.064,2015-04-10T00:00:00,10,DEN,Denver,29-50,27,25,37,32,13,9,0,0,0,0,0,0,0,0,143,0.424,0.88,0.349,29,61,15,0021401184,1610612743,DEN,Denver,Randy Foye,G,,47:06,3.0,2.0,3.0,2.0,15.0,10.0,21.0,54.0,0.0,0.0,2.0,2.0
0021401184,1610612743,DEN,Denver,201951,Ty Lawson,G,,52:13,120.3,113.1,7.2,0.419,9.0,43.0,0.0,0.122,0.051,4.8,0.405,0.434,0.175,104.41,0.11,2015-04-10T00:00:00,10,DEN,Denver,29-50,27,25,37,32,13,9,0,0,0,0,0,0,0,0,143,0.424,0.88,0.349,29,61,15,0021401184,1610612743,DEN,Denver,Ty Lawson,G,,52:13,7.0,0.0,0.0,4.0,20.0,9.0,23.0,58.0,0.0,0.0,0.0,1.0
0021401184,1610612743,DEN,Denver,201581,JJ Hickson,,,20:19,119.8,99.1,20.8,0.0,0.0,0.0,0.304,0.25,0.279,13.7,0.5,0.554,0.251,101.36,0.164,2015-04-10T00:00:00,10,DEN,Denver,29-50,27,25,37,32,13,9,0,0,0,0,0,0,0,0,143,0.424,0.88,0.349,29,61,15,0021401184,1610612743,DEN,Denver,JJ Hickson,,,20:19,2.0,8.0,0.0,8.0,13.0,4.0,5.0,22.0,0.0,1.0,2.0,3.0
0021401184,1610612743,DEN,Denver,203115,Will Barton,,,10:20,96.3,136.1,-39.7,0.143,0.0,20.0,0.059,0.125,0.08,0.0,0.25,0.25,0.13,102.84,0.012,2015-04-10T00:00:00,10,DEN,Denver,29-50,27,25,37,32,13,9,0,0,0,0,0,0,0,0,143,0.424,0.88,0.349,29,61,15,0021401184,1610612743,DEN,Denver,Will Barton,,,10:20,2.0,2.0,0.0,2.0,9.0,1.0,6.0,12.0,0.0,0.0,2.0,0.0
0021401184,1610612743,DEN,Denver,203914,Gary Harris,,,9:53,87.2,139.2,-52.0,0.0,0.0,0.0,0.0,0.143,0.053,0.0,0.0,0.0,0.078,97.23,-0.1,2015-04-10T00:00:00,10,DEN,Denver,29-50,27,25,37,32,13,9,0,0,0,0,0,0,0,0,143,0.424,0.88,0.349,29,61,15,0021401184,1610612743,DEN,Denver,Gary Harris,,,9:53,0.0,0.0,0.0,0.0,3.0,2.0,1.0,12.0,0.0,0.0,2.0,1.0
0021401184,1610612743,DEN,Denver,203994,Jusuf Nurkic,,,14:28,108.4,144.0,-35.6,0.111,0.5,7.8,0.313,0.182,0.259,15.7,0.25,0.41,0.298,97.34,0.029,2015-04-10T00:00:00,10,DEN,Denver,29-50,27,25,37,32,13,9,0,0,0,0,0,0,0,0,143,0.424,0.88,0.349,29,61,15,0021401184,1610612743,DEN,Denver,Jusuf Nurkic,,,14:28,0.0,2.0,0.0,4.0,9.0,5.0,5.0,12.0,0.0,1.0,5.0,3.0
0021401184,1610612743,DEN,Denver,203475,Erick Green,,,8:50,96.6,137.0,-40.4,0.0,0.0,0.0,0.0,0.0,0.0,0.0,0.2,0.2,0.231,98.25,-0.103,2015-04-10T00:00:00,10,DEN,Denver,29-50,27,25,37,32,13,9,0,0,0,0,0,0,0,0,143,0.424,0.88,0.349,29,61,15,0021401184,1610612743,DEN,Denver,Erick Green,,,8:50,0.0,0.0,0.0,2.0,2.0,2.0,1.0,12.0,0.0,0.0,1.0,0.0
0021401184,1610612743,DEN,Denver,203530,Joffrey Lauvergne,,,0:17,0.0,0.0,0.0,0.0,0.0,0.0,0.0,0.0,0.0,0.0,0.0,0.0,0.0,83.72,0.0,2015-04-10T00:00:00,10,DEN,Denver,29-50,27,25,37,32,13,9,0,0,0,0,0,0,0,0,143,0.424,0.88,0.349,29,61,15,0021401184,1610612743,DEN,Denver,Joffrey Lauvergne,,,0:17,0.0,0.0,0.0,0.0,0.0,0.0,0.0,0.0,0.0,0.0,0.0,0.0
0021401184,1610612743,DEN,Denver,201589,Darrell Arthur,,DNP - Coach's Decision                  ,,,,,,,0.0,,,,,,,0.0,,,2015-04-10T00:00:00,10,DEN,Denver,29-50,27,25,37,32,13,9,0,0,0,0,0,0,0,0,143,0.424,0.88,0.349,29,61,15,0021401184,1610612743,DEN,Denver,Darrell Arthur,,DNP - Coach's Decision                  ,,,,,,,,,,,,,
0021401184,1610612743,DEN,Denver,203546,Ian Clark,,DNP - Coach's Decision                  ,,,,,,,0.0,,,,,,,0.0,,,2015-04-10T00:00:00,10,DEN,Denver,29-50,27,25,37,32,13,9,0,0,0,0,0,0,0,0,143,0.424,0.88,0.349,29,61,15,0021401184,1610612743,DEN,Denver,Ian Clark,,DNP - Coach's Decision                  ,,,,,,,,,,,,,
