GAME_ID_x,TEAM_ID_x,TEAM_ABBREVIATION_x,TEAM_CITY_x,PLAYER_ID,PLAYER_NAME_x,START_POSITION_x,COMMENT_x,MIN_x,OFF_RATING,DEF_RATING,NET_RATING,AST_PCT,AST_TOV,AST_RATIO,OREB_PCT,DREB_PCT,REB_PCT,TM_TOV_PCT,EFG_PCT,TS_PCT,USG_PCT,PACE,PIE,GAME_DATE_EST,GAME_SEQUENCE,TEAM_ABBREVIATION_y,TEAM_CITY_NAME,TEAM_WINS_LOSSES,PTS_QTR1,PTS_QTR2,PTS_QTR3,PTS_QTR4,PTS_OT1,PTS_OT2,PTS_OT3,PTS_OT4,PTS_OT5,PTS_OT6,PTS_OT7,PTS_OT8,PTS_OT9,PTS_OT10,PTS,FG_PCT,FT_PCT,FG3_PCT,AST,REB,TOV,GAME_ID_y,TEAM_ID_y,TEAM_ABBREVIATION,TEAM_CITY_y,PLAYER_NAME_y,START_POSITION_y,COMMENT_y,MIN_y,PTS_OFF_TOV,PTS_2ND_CHANCE,PTS_FB,PTS_PAINT,OPP_PTS_OFF_TOV,OPP_PTS_2ND_CHANCE,OPP_PTS_FB,OPP_PTS_PAINT,BLK,BLKA,PF,PFD
0021401194,1610612739,CLE,Cleveland,1890,Shawn Marion,F,,25:49,84.1,121.1,-37.0,0.0,0.0,0.0,0.083,0.238,0.156,18.2,0.444,0.444,0.179,95.08,0.092,2015-04-12T00:00:00,2,CLE,Cleveland,51-29,22,9,24,23,0,0,0,0,0,0,0,0,0,0,78,0.392,0.684,0.136,18,44,24,0021401194,1610612739,CLE,Cleveland,Shawn Marion,F,,25:49,0.0,0.0,0.0,8.0,15.0,7.0,12.0,26.0,0.0,0.0,0.0,1.0
0021401194,1610612739,CLE,Cleveland,202684,Tristan Thompson,F,,28:00,80.9,112.5,-31.7,0.0,0.0,0.0,0.074,0.136,0.102,18.0,0.455,0.513,0.257,93.39,0.074,2015-04-12T00:00:00,2,CLE,Cleveland,51-29,22,9,24,23,0,0,0,0,0,0,0,0,0,0,78,0.392,0.684,0.136,18,44,24,0021401194,1610612739,CLE,Cleveland,Tristan Thompson,F,,28:00,0.0,4.0,0.0,10.0,17.0,4.0,12.0,30.0,1.0,0.0,0.0,6.0
0021401194,1610612739,CLE,Cleveland,202389,Timofey Mozgov,C,,22:55,69.6,110.1,-40.5,0.111,0.25,5.9,0.154,0.222,0.182,23.7,0.364,0.379,0.282,92.45,0.07,2015-04-12T00:00:00,2,CLE,Cleveland,51-29,22,9,24,23,0,0,0,0,0,0,0,0,0,0,78,0.392,0.684,0.136,18,44,24,0021401194,1610612739,CLE,Cleveland,Timofey Mozgov,C,,22:55,2.0,0.0,0.0,8.0,13.0,4.0,7.0,22.0,1.0,0.0,0.0,4.0
0021401194,1610612739,CLE,Cleveland,202697,Iman Shumpert,G,,37:33,66.4,114.0,-47.7,0.214,0.43,11.2,0.029,0.273,0.149,26.2,0.433,0.447,0.266,102.44,0.048,2015-04-12T00:00:00,2,CLE,Cleveland,51-29,22,9,24,23,0,0,0,0,0,0,0,0,0,0,78,0.392,0.684,0.136,18,44,24,0021401194,1610612739,CLE,Cleveland,Iman Shumpert,G,,37:33,0.0,3.0,0.0,0.0,32.0,5.0,20.0,34.0,0.0,0.0,4.0,4.0
0021401194,1610612739,CLE,Cleveland,203521,Matthew Dellavedova,G,,31:34,74.7,112.1,-37.4,0.563,2.25,36.0,0.034,0.038,0.036,16.0,0.292,0.292,0.218,93.64,0.033,2015-04-12T00:00:00,2,CLE,Cleveland,51-29,22,9,24,23,0,0,0,0,0,0,0,0,0,0,78,0.392,0.684,0.136,18,44,24,0021401194,1610612739,CLE,Cleveland,Matthew Dellavedova,G,,31:34,0.0,0.0,0.0,0.0,25.0,4.0,14.0,32.0,0.0,0.0,1.0,1.0
0021401194,1610612739,CLE,Cleveland,203925,Joe Harris,,,25:11,83.6,125.7,-42.1,0.077,0.0,10.1,0.0,0.111,0.047,0.0,0.5,0.507,0.151,100.63,0.027,2015-04-12T00:00:00,2,CLE,Cleveland,51-29,22,9,24,23,0,0,0,0,0,0,0,0,0,0,78,0.392,0.684,0.136,18,44,24,0021401194,1610612739,CLE,Cleveland,Joe Harris,,,25:11,0.0,0.0,0.0,4.0,15.0,4.0,17.0,32.0,1.0,0.0,5.0,2.0
0021401194,1610612739,CLE,Cleveland,2592,James Jones,,,26:15,78.7,128.5,-49.8,0.0,0.0,0.0,0.056,0.136,0.1,0.0,0.643,0.761,0.149,106.53,0.131,2015-04-12T00:00:00,2,CLE,Cleveland,51-29,22,9,24,23,0,0,0,0,0,0,0,0,0,0,78,0.392,0.684,0.136,18,44,24,0021401194,1610612739,CLE,Cleveland,James Jones,,,26:15,2.0,0.0,3.0,0.0,25.0,5.0,20.0,28.0,1.0,0.0,2.0,4.0
0021401194,1610612739,CLE,Cleveland,2034,Mike Miller,,,23:54,82.2,137.1,-54.8,0.118,0.67,22.2,0.0,0.105,0.056,33.3,0.25,0.25,0.129,103.31,-0.026,2015-04-12T00:00:00,2,CLE,Cleveland,51-29,22,9,24,23,0,0,0,0,0,0,0,0,0,0,78,0.392,0.684,0.136,18,44,24,0021401194,1610612739,CLE,Cleveland,Mike Miller,,,23:54,0.0,0.0,0.0,0.0,21.0,7.0,18.0,26.0,1.0,1.0,3.0,0.0
0021401194,1610612739,CLE,Cleveland,2570,Kendrick Perkins,,,18:50,77.6,132.2,-54.6,0.167,2.0,40.0,0.0,0.25,0.129,20.0,0.0,0.0,0.071,104.9,0.0,2015-04-12T00:00:00,2,CLE,Cleveland,51-29,22,9,24,23,0,0,0,0,0,0,0,0,0,0,78,0.392,0.684,0.136,18,44,24,0021401194,1610612739,CLE,Cleveland,Kendrick Perkins,,,18:50,0.0,0.0,0.0,0.0,17.0,5.0,15.0,20.0,0.0,0.0,3.0,0.0
0021401194,1610612739,CLE,Cleveland,2217,Brendan Haywood,,DNP - Coach's Decision                  ,,,,,,,0.0,,,,,,,0.0,,,2015-04-12T00:00:00,2,CLE,Cleveland,51-29,22,9,24,23,0,0,0,0,0,0,0,0,0,0,78,0.392,0.684,0.136,18,44,24,0021401194,1610612739,CLE,Cleveland,Brendan Haywood,,DNP - Coach's Decision                  ,,,,,,,,,,,,,
0021401194,1610612739,CLE,Cleveland,202681,Kyrie Irving,,DNP - Coach's Decision                  ,,,,,,,0.0,,,,,,,0.0,,,2015-04-12T00:00:00,2,CLE,Cleveland,51-29,22,9,24,23,0,0,0,0,0,0,0,0,0,0,78,0.392,0.684,0.136,18,44,24,0021401194,1610612739,CLE,Cleveland,Kyrie Irving,,DNP - Coach's Decision                  ,,,,,,,,,,,,,
0021401194,1610612739,CLE,Cleveland,2544,LeBron James,,DNP - Coach's Decision                  ,,,,,,,0.0,,,,,,,0.0,,,2015-04-12T00:00:00,2,CLE,Cleveland,51-29,22,9,24,23,0,0,0,0,0,0,0,0,0,0,78,0.392,0.684,0.136,18,44,24,0021401194,1610612739,CLE,Cleveland,LeBron James,,DNP - Coach's Decision                  ,,,,,,,,,,,,,
0021401194,1610612739,CLE,Cleveland,2747,JR Smith,,DNP - Coach's Decision                  ,,,,,,,0.0,,,,,,,0.0,,,2015-04-12T00:00:00,2,CLE,Cleveland,51-29,22,9,24,23,0,0,0,0,0,0,0,0,0,0,78,0.392,0.684,0.136,18,44,24,0021401194,1610612739,CLE,Cleveland,JR Smith,,DNP - Coach's Decision                  ,,,,,,,,,,,,,
0021401194,1610612738,BOS,Boston,202323,Evan Turner,F,,26:43,93.2,79.9,13.3,0.313,5.0,25.3,0.0,0.304,0.143,5.1,0.5,0.545,0.25,106.04,0.241,2015-04-12T00:00:00,2,BOS,Boston,38-42,21,34,29,33,0,0,0,0,0,0,0,0,0,0,117,0.548,0.682,0.417,29,38,7,0021401194,1610612738,BOS,Boston,Evan Turner,F,,26:43,7.0,0.0,1.0,8.0,4.0,2.0,3.0,24.0,1.0,0.0,1.0,3.0
0021401194,1610612738,BOS,Boston,101138,Brandon Bass,F,,17:48,94.5,66.2,28.3,0.0,0.0,0.0,0.0,0.143,0.079,22.2,0.429,0.429,0.258,92.55,0.039,2015-04-12T00:00:00,2,BOS,Boston,38-42,21,34,29,33,0,0,0,0,0,0,0,0,0,0,117,0.548,0.682,0.417,29,38,7,0021401194,1610612738,BOS,Boston,Brandon Bass,F,,17:48,2.0,0.0,2.0,4.0,2.0,0.0,0.0,18.0,0.0,1.0,2.0,0.0
0021401194,1610612738,BOS,Boston,203092,Tyler Zeller,C,,18:57,95.8,73.4,22.4,0.0,0.0,0.0,0.0,0.278,0.135,0.0,0.833,0.833,0.155,100.74,0.186,2015-04-12T00:00:00,2,BOS,Boston,38-42,21,34,29,33,0,0,0,0,0,0,0,0,0,0,117,0.548,0.682,0.417,29,38,7,0021401194,1610612738,BOS,Boston,Tyler Zeller,C,,18:57,6.0,0.0,2.0,8.0,2.0,0.0,0.0,20.0,0.0,1.0,2.0,0.0
0021401194,1610612738,BOS,Boston,202340,Avery Bradley,G,,27:49,103.4,71.0,32.4,0.211,2.0,26.7,0.0,0.0,0.0,13.3,0.667,0.667,0.193,98.22,0.103,2015-04-12T00:00:00,2,BOS,Boston,38-42,21,34,29,33,0,0,0,0,0,0,0,0,0,0,117,0.548,0.682,0.417,29,38,7,0021401194,1610612738,BOS,Boston,Avery Bradley,G,,27:49,0.0,0.0,0.0,0.0,2.0,2.0,3.0,24.0,0.0,0.0,2.0,1.0
0021401194,1610612738,BOS,Boston,203935,Marcus Smart,G,,32:56,124.1,65.0,59.1,0.069,0.0,18.2,0.0,0.0,0.0,0.0,0.389,0.389,0.135,94.01,0.049,2015-04-12T00:00:00,2,BOS,Boston,38-42,21,34,29,33,0,0,0,0,0,0,0,0,0,0,117,0.548,0.682,0.417,29,38,7,0021401194,1610612738,BOS,Boston,Marcus Smart,G,,32:56,4.0,0.0,4.0,4.0,2.0,5.0,0.0,20.0,0.0,0.0,2.0,1.0
0021401194,1610612738,BOS,Boston,202738,Isaiah Thomas,,,22:15,127.0,69.6,57.4,0.353,6.0,30.5,0.0,0.111,0.056,5.1,0.6,0.672,0.267,107.61,0.252,2015-04-12T00:00:00,2,BOS,Boston,38-42,21,34,29,33,0,0,0,0,0,0,0,0,0,0,117,0.548,0.682,0.417,29,38,7,0021401194,1610612738,BOS,Boston,Isaiah Thomas,,,22:15,5.0,3.0,9.0,4.0,2.0,4.0,3.0,4.0,0.0,0.0,2.0,3.0
0021401194,1610612738,BOS,Boston,203109,Jae Crowder,,,24:51,131.4,74.8,56.6,0.125,0.0,25.5,0.0,0.304,0.171,0.0,0.5,0.514,0.156,105.16,0.153,2015-04-12T00:00:00,2,BOS,Boston,38-42,21,34,29,33,0,0,0,0,0,0,0,0,0,0,117,0.548,0.682,0.417,29,38,7,0021401194,1610612738,BOS,Boston,Jae Crowder,,,24:51,6.0,2.0,3.0,2.0,2.0,4.0,3.0,6.0,0.0,1.0,1.0,3.0
0021401194,1610612738,BOS,Boston,203096,Jared Sullinger,,,17:20,128.8,105.9,22.9,0.308,0.0,31.3,0.091,0.083,0.087,0.0,0.571,0.628,0.226,100.44,0.146,2015-04-12T00:00:00,2,BOS,Boston,38-42,21,34,29,33,0,0,0,0,0,0,0,0,0,0,117,0.548,0.682,0.417,29,38,7,0021401194,1610612738,BOS,Boston,Jared Sullinger,,,17:20,2.0,2.0,1.0,6.0,2.0,5.0,3.0,10.0,0.0,1.0,4.0,2.0
0021401194,1610612738,BOS,Boston,201973,Jonas Jerebko,,,18:37,142.5,83.7,58.7,0.125,0.0,20.2,0.154,0.067,0.107,0.0,0.714,0.635,0.185,102.1,0.124,2015-04-12T00:00:00,2,BOS,Boston,38-42,21,34,29,33,0,0,0,0,0,0,0,0,0,0,117,0.548,0.682,0.417,29,38,7,0021401194,1610612738,BOS,Boston,Jonas Jerebko,,,18:37,0.0,0.0,2.0,4.0,2.0,2.0,0.0,6.0,0.0,1.0,3.0,2.0
0021401194,1610612738,BOS,Boston,203482,Kelly Olynyk,,,18:11,157.2,67.6,89.6,0.059,1.0,12.7,0.231,0.235,0.233,12.7,0.8,0.85,0.176,90.54,0.211,2015-04-12T00:00:00,2,BOS,Boston,38-42,21,34,29,33,0,0,0,0,0,0,0,0,0,0,117,0.548,0.682,0.417,29,38,7,0021401194,1610612738,BOS,Boston,Kelly Olynyk,,,18:11,4.0,2.0,0.0,6.0,0.0,5.0,0.0,6.0,0.0,0.0,2.0,1.0
0021401194,1610612738,BOS,Boston,203540,Gigi Datome,,,8:40,169.4,95.5,73.9,0.0,0.0,0.0,0.0,0.2,0.1,0.0,1.0,1.0,0.169,87.29,0.176,2015-04-12T00:00:00,2,BOS,Boston,38-42,21,34,29,33,0,0,0,0,0,0,0,0,0,0,117,0.548,0.682,0.417,29,38,7,0021401194,1610612738,BOS,Boston,Gigi Datome,,,8:40,0.0,0.0,3.0,0.0,0.0,3.0,0.0,6.0,0.0,0.0,0.0,0.0
0021401194,1610612738,BOS,Boston,203515,Phil Pressey,,,5:53,163.9,137.9,26.1,0.5,0.0,50.0,0.0,0.25,0.143,0.0,1.0,1.0,0.17,84.2,0.226,2015-04-12T00:00:00,2,BOS,Boston,38-42,21,34,29,33,0,0,0,0,0,0,0,0,0,0,117,0.548,0.682,0.417,29,38,7,0021401194,1610612738,BOS,Boston,Phil Pressey,,,5:53,0.0,0.0,0.0,4.0,0.0,3.0,0.0,6.0,0.0,0.0,1.0,2.0
0021401194,1610612738,BOS,Boston,2222,Gerald Wallace,,DNP - Coach's Decision                  ,,,,,,,0.0,,,,,,,0.0,,,2015-04-12T00:00:00,2,BOS,Boston,38-42,21,34,29,33,0,0,0,0,0,0,0,0,0,0,117,0.548,0.682,0.417,29,38,7,0021401194,1610612738,BOS,Boston,Gerald Wallace,,DNP - Coach's Decision                  ,,,,,,,,,,,,,
