GAME_ID_x,TEAM_ID_x,TEAM_ABBREVIATION_x,TEAM_CITY_x,PLAYER_ID,PLAYER_NAME_x,START_POSITION_x,COMMENT_x,MIN_x,OFF_RATING,DEF_RATING,NET_RATING,AST_PCT,AST_TOV,AST_RATIO,OREB_PCT,DREB_PCT,REB_PCT,TM_TOV_PCT,EFG_PCT,TS_PCT,USG_PCT,PACE,PIE,GAME_DATE_EST,GAME_SEQUENCE,TEAM_ABBREVIATION_y,TEAM_CITY_NAME,TEAM_WINS_LOSSES,PTS_QTR1,PTS_QTR2,PTS_QTR3,PTS_QTR4,PTS_OT1,PTS_OT2,PTS_OT3,PTS_OT4,PTS_OT5,PTS_OT6,PTS_OT7,PTS_OT8,PTS_OT9,PTS_OT10,PTS,FG_PCT,FT_PCT,FG3_PCT,AST,REB,TOV,GAME_ID_y,TEAM_ID_y,TEAM_ABBREVIATION,TEAM_CITY_y,PLAYER_NAME_y,START_POSITION_y,COMMENT_y,MIN_y,PTS_OFF_TOV,PTS_2ND_CHANCE,PTS_FB,PTS_PAINT,OPP_PTS_OFF_TOV,OPP_PTS_2ND_CHANCE,OPP_PTS_FB,OPP_PTS_PAINT,BLK,BLKA,PF,PFD
0021401206,1610612741,CHI,Chicago,2399,Mike Dunleavy,F,,32:41,117.8,96.3,21.5,0.036,0.0,11.1,0.071,0.065,0.068,0.0,0.313,0.313,0.118,91.23,0.016,2015-04-13T00:00:00,5,CHI,Chicago,49-32,26,31,30,26,0,0,0,0,0,0,0,0,0,0,113,0.5,0.765,0.4,26,46,7,0021401206,1610612741,CHI,Chicago,Mike Dunleavy,F,,32:41,0.0,0.0,0.0,0.0,2.0,9.0,2.0,28.0,0.0,0.0,2.0,0.0
0021401206,1610612741,CHI,Chicago,2200,Pau Gasol,F,,35:03,118.8,98.9,19.8,0.174,4.0,16.8,0.071,0.243,0.169,4.2,0.556,0.583,0.259,94.79,0.194,2015-04-13T00:00:00,5,CHI,Chicago,49-32,26,31,30,26,0,0,0,0,0,0,0,0,0,0,113,0.5,0.765,0.4,26,46,7,0021401206,1610612741,CHI,Chicago,Pau Gasol,F,,35:03,0.0,8.0,4.0,12.0,4.0,11.0,2.0,38.0,2.0,1.0,1.0,3.0
0021401206,1610612741,CHI,Chicago,201959,Taj Gibson,C,,31:04,106.7,88.8,17.9,0.048,0.0,10.4,0.071,0.212,0.148,0.0,0.833,0.868,0.122,97.06,0.219,2015-04-13T00:00:00,5,CHI,Chicago,49-32,26,31,30,26,0,0,0,0,0,0,0,0,0,0,113,0.5,0.765,0.4,26,46,7,0021401206,1610612741,CHI,Chicago,Taj Gibson,C,,31:04,2.0,2.0,0.0,10.0,4.0,9.0,2.0,26.0,4.0,0.0,3.0,6.0
0021401206,1610612741,CHI,Chicago,202710,Jimmy Butler,G,,33:09,117.6,87.4,30.2,0.087,2.0,14.0,0.0,0.162,0.094,7.0,0.8,0.751,0.168,94.99,0.162,2015-04-13T00:00:00,5,CHI,Chicago,49-32,26,31,30,26,0,0,0,0,0,0,0,0,0,0,113,0.5,0.765,0.4,26,46,7,0021401206,1610612741,CHI,Chicago,Jimmy Butler,G,,33:09,8.0,0.0,5.0,8.0,4.0,9.0,2.0,32.0,1.0,1.0,2.0,1.0
0021401206,1610612741,CHI,Chicago,201565,Derrick Rose,G,,23:04,104.3,89.7,14.6,0.467,3.5,30.6,0.0,0.12,0.068,8.7,0.462,0.468,0.306,98.64,0.159,2015-04-13T00:00:00,5,CHI,Chicago,49-32,26,31,30,26,0,0,0,0,0,0,0,0,0,0,113,0.5,0.765,0.4,26,46,7,0021401206,1610612741,CHI,Chicago,Derrick Rose,G,,23:04,0.0,1.0,5.0,4.0,4.0,7.0,2.0,26.0,0.0,1.0,1.0,2.0
0021401206,1610612741,CHI,Chicago,202703,Nikola Mirotic,,,24:25,135.4,91.4,44.0,0.0,0.0,0.0,0.0,0.087,0.047,5.6,0.733,0.776,0.345,90.9,0.224,2015-04-13T00:00:00,5,CHI,Chicago,49-32,26,31,30,26,0,0,0,0,0,0,0,0,0,0,113,0.5,0.765,0.4,26,46,7,0021401206,1610612741,CHI,Chicago,Nikola Mirotic,,,24:25,3.0,3.0,0.0,4.0,0.0,6.0,0.0,14.0,0.0,0.0,1.0,2.0
0021401206,1610612741,CHI,Chicago,201166,Aaron Brooks,,,23:13,137.0,97.8,39.3,0.35,7.0,46.7,0.105,0.045,0.073,6.7,0.5,0.5,0.162,90.43,0.093,2015-04-13T00:00:00,5,CHI,Chicago,49-32,26,31,30,26,0,0,0,0,0,0,0,0,0,0,113,0.5,0.765,0.4,26,46,7,0021401206,1610612741,CHI,Chicago,Aaron Brooks,,,23:13,0.0,0.0,0.0,2.0,0.0,6.0,0.0,14.0,0.0,0.0,3.0,0.0
0021401206,1610612741,CHI,Chicago,203503,Tony Snell,,,27:30,121.8,92.6,29.2,0.136,3.0,23.1,0.045,0.179,0.12,7.7,0.333,0.333,0.162,97.75,0.041,2015-04-13T00:00:00,5,CHI,Chicago,49-32,26,31,30,26,0,0,0,0,0,0,0,0,0,0,113,0.5,0.765,0.4,26,46,7,0021401206,1610612741,CHI,Chicago,Tony Snell,,,27:30,2.0,0.0,0.0,4.0,4.0,10.0,0.0,20.0,1.0,0.0,4.0,0.0
0021401206,1610612741,CHI,Chicago,1737,Nazr Mohammed,,,3:45,128.6,67.6,61.0,0.25,0.0,100.0,0.0,0.333,0.25,0.0,0.0,0.0,0.0,101.63,0.091,2015-04-13T00:00:00,5,CHI,Chicago,49-32,26,31,30,26,0,0,0,0,0,0,0,0,0,0,113,0.5,0.765,0.4,26,46,7,0021401206,1610612741,CHI,Chicago,Nazr Mohammed,,,3:45,0.0,0.0,0.0,0.0,2.0,2.0,0.0,2.0,0.0,0.0,1.0,0.0
0021401206,1610612741,CHI,Chicago,203926,Doug McDermott,,,2:40,100.0,58.1,41.9,0.0,0.0,0.0,0.0,0.0,0.0,0.0,0.0,0.0,0.0,115.92,0.0,2015-04-13T00:00:00,5,CHI,Chicago,49-32,26,31,30,26,0,0,0,0,0,0,0,0,0,0,113,0.5,0.765,0.4,26,46,7,0021401206,1610612741,CHI,Chicago,Doug McDermott,,,2:40,0.0,0.0,0.0,0.0,2.0,2.0,0.0,0.0,0.0,0.0,0.0,0.0
0021401206,1610612741,CHI,Chicago,203946,Cameron Bairstow,,,1:43,66.7,41.0,25.7,0.0,0.0,0.0,0.0,0.0,0.0,0.0,0.0,0.0,0.0,110.17,0.0,2015-04-13T00:00:00,5,CHI,Chicago,49-32,26,31,30,26,0,0,0,0,0,0,0,0,0,0,113,0.5,0.765,0.4,26,46,7,0021401206,1610612741,CHI,Chicago,Cameron Bairstow,,,1:43,0.0,0.0,0.0,0.0,2.0,2.0,0.0,0.0,0.0,0.0,0.0,0.0
0021401206,1610612741,CHI,Chicago,202734,E'Twaun Moore,,,1:43,66.7,41.0,25.7,0.0,0.0,0.0,0.0,0.5,0.333,0.0,0.5,0.5,0.667,110.17,0.0,2015-04-13T00:00:00,5,CHI,Chicago,49-32,26,31,30,26,0,0,0,0,0,0,0,0,0,0,113,0.5,0.765,0.4,26,46,7,0021401206,1610612741,CHI,Chicago,E'Twaun Moore,,,1:43,0.0,0.0,0.0,2.0,2.0,2.0,0.0,0.0,0.0,0.0,0.0,0.0
0021401206,1610612741,CHI,Chicago,201149,Joakim Noah,,DNP - Coach's Decision                  ,,,,,,,0.0,,,,,,,0.0,,,2015-04-13T00:00:00,5,CHI,Chicago,49-32,26,31,30,26,0,0,0,0,0,0,0,0,0,0,113,0.5,0.765,0.4,26,46,7,0021401206,1610612741,CHI,Chicago,Joakim Noah,,DNP - Coach's Decision                  ,,,,,,,,,,,,,
0021401206,1610612751,BKN,Brooklyn,2207,Joe Johnson,F,,36:26,94.3,123.1,-28.8,0.105,0.67,13.4,0.0,0.0,0.0,20.2,0.556,0.607,0.161,92.49,0.03,2015-04-13T00:00:00,5,BKN,Brooklyn,37-44,21,29,15,21,0,0,0,0,0,0,0,0,0,0,86,0.368,0.864,0.25,12,42,10,0021401206,1610612751,BKN,Brooklyn,Joe Johnson,F,,36:26,0.0,0.0,0.0,10.0,11.0,12.0,10.0,30.0,0.0,1.0,3.0,1.0
0021401206,1610612751,BKN,Brooklyn,201152,Thaddeus Young,F,,27:00,97.6,115.8,-18.2,0.0,0.0,0.0,0.133,0.35,0.22,7.8,0.273,0.337,0.21,95.72,0.077,2015-04-13T00:00:00,5,BKN,Brooklyn,37-44,21,29,15,21,0,0,0,0,0,0,0,0,0,0,86,0.368,0.864,0.25,12,42,10,0021401206,1610612751,BKN,Brooklyn,Thaddeus Young,F,,27:00,2.0,0.0,0.0,6.0,7.0,5.0,9.0,24.0,0.0,2.0,1.0,1.0
0021401206,1610612751,BKN,Brooklyn,201572,Brook Lopez,C,,33:45,98.9,124.0,-25.1,0.0,0.0,0.0,0.108,0.154,0.127,0.0,0.455,0.509,0.169,94.9,0.062,2015-04-13T00:00:00,5,BKN,Brooklyn,37-44,21,29,15,21,0,0,0,0,0,0,0,0,0,0,86,0.368,0.864,0.25,12,42,10,0021401206,1610612751,BKN,Brooklyn,Brook Lopez,C,,33:45,0.0,7.0,0.0,8.0,5.0,9.0,11.0,32.0,1.0,0.0,4.0,2.0
0021401206,1610612751,BKN,Brooklyn,203900,Markel Brown,G,,16:59,84.5,98.7,-14.3,0.0,0.0,0.0,0.0,0.158,0.083,0.0,0.375,0.45,0.237,98.86,0.111,2015-04-13T00:00:00,5,BKN,Brooklyn,37-44,21,29,15,21,0,0,0,0,0,0,0,0,0,0,86,0.368,0.864,0.25,12,42,10,0021401206,1610612751,BKN,Brooklyn,Markel Brown,G,,16:59,2.0,0.0,2.0,4.0,6.0,4.0,6.0,20.0,0.0,1.0,0.0,1.0
0021401206,1610612751,BKN,Brooklyn,101114,Deron Williams,G,,33:06,91.0,112.6,-21.6,0.263,0.0,25.9,0.029,0.207,0.111,0.0,0.231,0.314,0.2,94.49,0.082,2015-04-13T00:00:00,5,BKN,Brooklyn,37-44,21,29,15,21,0,0,0,0,0,0,0,0,0,0,86,0.368,0.864,0.25,12,42,10,0021401206,1610612751,BKN,Brooklyn,Deron Williams,G,,33:06,0.0,2.0,0.0,4.0,7.0,9.0,11.0,32.0,2.0,2.0,2.0,3.0
0021401206,1610612751,BKN,Brooklyn,202711,Bojan Bogdanovic,,,32:55,104.7,125.6,-20.9,0.1,2.0,12.7,0.0,0.05,0.02,6.3,0.591,0.666,0.186,93.56,0.086,2015-04-13T00:00:00,5,BKN,Brooklyn,37-44,21,29,15,21,0,0,0,0,0,0,0,0,0,0,86,0.368,0.864,0.25,12,42,10,0021401206,1610612751,BKN,Brooklyn,Bojan Bogdanovic,,,32:55,0.0,2.0,0.0,2.0,11.0,12.0,5.0,32.0,0.0,2.0,2.0,2.0
0021401206,1610612751,BKN,Brooklyn,101127,Jarrett Jack,,,25:28,88.1,135.5,-47.5,0.2,0.5,9.8,0.0,0.045,0.021,19.6,0.5,0.519,0.336,92.28,0.068,2015-04-13T00:00:00,5,BKN,Brooklyn,37-44,21,29,15,21,0,0,0,0,0,0,0,0,0,0,86,0.368,0.864,0.25,12,42,10,0021401206,1610612751,BKN,Brooklyn,Jarrett Jack,,,25:28,0.0,0.0,0.0,6.0,8.0,9.0,10.0,22.0,0.0,0.0,0.0,2.0
0021401206,1610612751,BKN,Brooklyn,203486,Mason Plumlee,,,11:54,72.5,109.4,-37.0,0.2,1.0,17.0,0.273,0.308,0.292,17.0,0.0,0.0,0.195,92.41,-0.017,2015-04-13T00:00:00,5,BKN,Brooklyn,37-44,21,29,15,21,0,0,0,0,0,0,0,0,0,0,86,0.368,0.864,0.25,12,42,10,0021401206,1610612751,BKN,Brooklyn,Mason Plumlee,,,11:54,0.0,0.0,0.0,0.0,8.0,5.0,3.0,8.0,0.0,0.0,1.0,3.0
0021401206,1610612751,BKN,Brooklyn,203928,Cory Jefferson,,,7:51,90.1,100.8,-10.7,0.0,0.0,0.0,0.0,0.167,0.1,0.0,0.0,0.0,0.113,102.85,-0.047,2015-04-13T00:00:00,5,BKN,Brooklyn,37-44,21,29,15,21,0,0,0,0,0,0,0,0,0,0,86,0.368,0.864,0.25,12,42,10,0021401206,1610612751,BKN,Brooklyn,Cory Jefferson,,,7:51,0.0,0.0,0.0,0.0,5.0,2.0,3.0,12.0,0.0,0.0,1.0,0.0
0021401206,1610612751,BKN,Brooklyn,201947,Earl Clark,,,6:46,27.3,122.5,-95.2,0.0,0.0,0.0,0.0,0.286,0.111,0.0,0.0,0.0,0.12,101.15,0.0,2015-04-13T00:00:00,5,BKN,Brooklyn,37-44,21,29,15,21,0,0,0,0,0,0,0,0,0,0,86,0.368,0.864,0.25,12,42,10,0021401206,1610612751,BKN,Brooklyn,Earl Clark,,,6:46,0.0,0.0,0.0,0.0,3.0,3.0,2.0,6.0,0.0,0.0,0.0,1.0
0021401206,1610612751,BKN,Brooklyn,202366,Jerome Jordan,,,5:10,84.2,90.0,-5.8,0.0,0.0,0.0,0.0,0.333,0.143,0.0,0.5,0.694,0.242,101.64,0.267,2015-04-13T00:00:00,5,BKN,Brooklyn,37-44,21,29,15,21,0,0,0,0,0,0,0,0,0,0,86,0.368,0.864,0.25,12,42,10,0021401206,1610612751,BKN,Brooklyn,Jerome Jordan,,,5:10,2.0,4.0,0.0,0.0,2.0,0.0,0.0,6.0,0.0,0.0,0.0,1.0
0021401206,1610612751,BKN,Brooklyn,202721,Darius Morris,,,2:40,58.1,100.0,-41.9,0.0,0.0,0.0,0.0,0.0,0.0,0.0,0.0,0.0,0.145,115.92,-0.2,2015-04-13T00:00:00,5,BKN,Brooklyn,37-44,21,29,15,21,0,0,0,0,0,0,0,0,0,0,86,0.368,0.864,0.25,12,42,10,0021401206,1610612751,BKN,Brooklyn,Darius Morris,,,2:40,0.0,0.0,0.0,0.0,2.0,0.0,0.0,6.0,0.0,0.0,0.0,1.0
0021401206,1610612751,BKN,Brooklyn,101187,Alan Anderson,,DND - Sprained Left Ankle               ,,,,,,,0.0,,,,,,,0.0,,,2015-04-13T00:00:00,5,BKN,Brooklyn,37-44,21,29,15,21,0,0,0,0,0,0,0,0,0,0,86,0.368,0.864,0.25,12,42,10,0021401206,1610612751,BKN,Brooklyn,Alan Anderson,,DND - Sprained Left Ankle               ,,,,,,,,,,,,,
