GAME_ID_x,TEAM_ID_x,TEAM_ABBREVIATION_x,TEAM_CITY_x,PLAYER_ID,PLAYER_NAME_x,START_POSITION_x,COMMENT_x,MIN_x,OFF_RATING,DEF_RATING,NET_RATING,AST_PCT,AST_TOV,AST_RATIO,OREB_PCT,DREB_PCT,REB_PCT,TM_TOV_PCT,EFG_PCT,TS_PCT,USG_PCT,PACE,PIE,GAME_DATE_EST,GAME_SEQUENCE,TEAM_ABBREVIATION_y,TEAM_CITY_NAME,TEAM_WINS_LOSSES,PTS_QTR1,PTS_QTR2,PTS_QTR3,PTS_QTR4,PTS_OT1,PTS_OT2,PTS_OT3,PTS_OT4,PTS_OT5,PTS_OT6,PTS_OT7,PTS_OT8,PTS_OT9,PTS_OT10,PTS,FG_PCT,FT_PCT,FG3_PCT,AST,REB,TOV,GAME_ID_y,TEAM_ID_y,TEAM_ABBREVIATION,TEAM_CITY_y,PLAYER_NAME_y,START_POSITION_y,COMMENT_y,MIN_y,PTS_OFF_TOV,PTS_2ND_CHANCE,PTS_FB,PTS_PAINT,OPP_PTS_OFF_TOV,OPP_PTS_2ND_CHANCE,OPP_PTS_FB,OPP_PTS_PAINT,BLK,BLKA,PF,PFD
0021401225,1610612764,WAS,Washington,2446,Rasual Butler,F,,44:45,113.0,103.8,9.2,0.061,0.0,9.5,0.026,0.146,0.089,0.0,0.447,0.447,0.186,95.44,0.088,2015-04-15T00:00:00,9,WAS,Washington,46-36,28,28,23,22,7,0,0,0,0,0,0,0,0,0,108,0.433,0.762,0.364,26,50,13,0021401225,1610612764,WAS,Washington,Rasual Butler,F,,44:45,2.0,2.0,0.0,2.0,16.0,10.0,7.0,36.0,1.0,1.0,0.0,1.0
0021401225,1610612764,WAS,Washington,2743,Kris Humphries,F,,28:52,104.8,107.4,-2.6,0.111,0.0,18.6,0.103,0.077,0.091,0.0,0.571,0.685,0.138,89.36,0.124,2015-04-15T00:00:00,9,WAS,Washington,46-36,28,28,23,22,7,0,0,0,0,0,0,0,0,0,108,0.433,0.762,0.364,26,50,13,0021401225,1610612764,WAS,Washington,Kris Humphries,F,,28:52,2.0,4.0,2.0,2.0,4.0,7.0,5.0,16.0,0.0,0.0,1.0,4.0
0021401225,1610612764,WAS,Washington,101162,Marcin Gortat,C,,14:20,123.0,93.7,29.4,0.4,0.0,26.7,0.077,0.313,0.207,0.0,0.364,0.364,0.348,92.76,0.174,2015-04-15T00:00:00,9,WAS,Washington,46-36,28,28,23,22,7,0,0,0,0,0,0,0,0,0,108,0.433,0.762,0.364,26,50,13,0021401225,1610612764,WAS,Washington,Marcin Gortat,C,,14:20,0.0,2.0,0.0,6.0,2.0,5.0,0.0,6.0,0.0,0.0,1.0,1.0
0021401225,1610612764,WAS,Washington,203490,Otto Porter Jr.,G,,20:28,98.4,103.1,-4.7,0.0,0.0,0.0,0.043,0.136,0.089,28.6,0.4,0.4,0.147,93.11,0.027,2015-04-15T00:00:00,9,WAS,Washington,46-36,28,28,23,22,7,0,0,0,0,0,0,0,0,0,108,0.433,0.762,0.364,26,50,13,0021401225,1610612764,WAS,Washington,Otto Porter Jr.,G,,20:28,0.0,0.0,0.0,0.0,4.0,5.0,5.0,8.0,1.0,0.0,1.0,1.0
0021401225,1610612764,WAS,Washington,201196,Ramon Sessions,G,,37:26,96.4,101.4,-5.0,0.273,6.0,34.0,0.0,0.056,0.029,5.7,0.625,0.658,0.143,95.26,0.104,2015-04-15T00:00:00,9,WAS,Washington,46-36,28,28,23,22,7,0,0,0,0,0,0,0,0,0,108,0.433,0.762,0.364,26,50,13,0021401225,1610612764,WAS,Washington,Ramon Sessions,G,,37:26,0.0,0.0,4.0,2.0,13.0,5.0,7.0,20.0,0.0,0.0,1.0,3.0
0021401225,1610612764,WAS,Washington,202338,Kevin Seraphin,,,38:31,96.6,113.8,-17.2,0.091,0.4,9.8,0.086,0.3,0.185,24.5,0.462,0.446,0.211,94.29,0.079,2015-04-15T00:00:00,9,WAS,Washington,46-36,28,28,23,22,7,0,0,0,0,0,0,0,0,0,108,0.433,0.762,0.364,26,50,13,0021401225,1610612764,WAS,Washington,Kevin Seraphin,,,38:31,2.0,2.0,0.0,6.0,13.0,5.0,5.0,30.0,3.0,0.0,3.0,2.0
0021401225,1610612764,WAS,Washington,101110,Martell Webster,,,35:35,99.2,109.0,-9.8,0.091,1.0,12.1,0.032,0.074,0.052,12.1,0.722,0.799,0.178,95.99,0.143,2015-04-15T00:00:00,9,WAS,Washington,46-36,28,28,23,22,7,0,0,0,0,0,0,0,0,0,108,0.433,0.762,0.364,26,50,13,0021401225,1610612764,WAS,Washington,Martell Webster,,,35:35,10.0,2.0,0.0,0.0,13.0,5.0,2.0,32.0,0.0,0.0,0.0,3.0
0021401225,1610612764,WAS,Washington,101198,Will Bynum,,,20:56,98.8,147.1,-48.3,0.667,8.0,32.2,0.111,0.167,0.133,4.0,0.333,0.346,0.348,91.66,0.101,2015-04-15T00:00:00,9,WAS,Washington,46-36,28,28,23,22,7,0,0,0,0,0,0,0,0,0,108,0.433,0.762,0.364,26,50,13,0021401225,1610612764,WAS,Washington,Will Bynum,,,20:56,0.0,0.0,3.0,6.0,7.0,5.0,2.0,20.0,0.0,1.0,1.0,2.0
0021401225,1610612764,WAS,Washington,201971,DeJuan Blair,,,24:08,100.3,111.1,-10.8,0.0,0.0,0.0,0.158,0.2,0.179,16.7,0.5,0.5,0.211,100.68,0.069,2015-04-15T00:00:00,9,WAS,Washington,46-36,28,28,23,22,7,0,0,0,0,0,0,0,0,0,108,0.433,0.762,0.364,26,50,13,0021401225,1610612764,WAS,Washington,DeJuan Blair,,,24:08,2.0,0.0,2.0,10.0,13.0,3.0,2.0,22.0,0.0,2.0,5.0,0.0
0021401225,1610612764,WAS,Washington,203078,Bradley Beal,,DNP - Coach's Decision                  ,,,,,,,0.0,,,,,,,0.0,,,2015-04-15T00:00:00,9,WAS,Washington,46-36,28,28,23,22,7,0,0,0,0,0,0,0,0,0,108,0.433,0.762,0.364,26,50,13,0021401225,1610612764,WAS,Washington,Bradley Beal,,DNP - Coach's Decision                  ,,,,,,,,,,,,,
0021401225,1610612764,WAS,Washington,2400,Drew Gooden,,DNP - Coach's Decision                  ,,,,,,,0.0,,,,,,,0.0,,,2015-04-15T00:00:00,9,WAS,Washington,46-36,28,28,23,22,7,0,0,0,0,0,0,0,0,0,108,0.433,0.762,0.364,26,50,13,0021401225,1610612764,WAS,Washington,Drew Gooden,,DNP - Coach's Decision                  ,,,,,,,,,,,,,
0021401225,1610612764,WAS,Washington,1718,Paul Pierce,,DNP - Coach's Decision                  ,,,,,,,0.0,,,,,,,0.0,,,2015-04-15T00:00:00,9,WAS,Washington,46-36,28,28,23,22,7,0,0,0,0,0,0,0,0,0,108,0.433,0.762,0.364,26,50,13,0021401225,1610612764,WAS,Washington,Paul Pierce,,DNP - Coach's Decision                  ,,,,,,,,,,,,,
0021401225,1610612764,WAS,Washington,202322,John Wall,,DNP - Coach's Decision                  ,,,,,,,0.0,,,,,,,0.0,,,2015-04-15T00:00:00,9,WAS,Washington,46-36,28,28,23,22,7,0,0,0,0,0,0,0,0,0,108,0.433,0.762,0.364,26,50,13,0021401225,1610612764,WAS,Washington,John Wall,,DNP - Coach's Decision                  ,,,,,,,,,,,,,
0021401225,1610612739,CLE,Cleveland,2034,Mike Miller,F,,18:21,103.7,101.4,2.4,0.0,0.0,0.0,0.0,0.105,0.054,0.0,0.75,0.75,0.05,94.38,0.015,2015-04-15T00:00:00,9,CLE,Cleveland,53-29,20,33,21,27,12,0,0,0,0,0,0,0,0,0,113,0.473,0.647,0.533,29,44,16,0021401225,1610612739,CLE,Cleveland,Mike Miller,F,,18:21,0.0,3.0,0.0,0.0,2.0,8.0,6.0,12.0,0.0,0.0,3.0,0.0
0021401225,1610612739,CLE,Cleveland,201567,Kevin Love,F,,18:21,90.8,107.5,-16.7,0.0,0.0,0.0,0.0,0.15,0.081,7.2,0.708,0.738,0.326,102.96,0.196,2015-04-15T00:00:00,9,CLE,Cleveland,53-29,20,33,21,27,12,0,0,0,0,0,0,0,0,0,113,0.473,0.647,0.533,29,44,16,0021401225,1610612739,CLE,Cleveland,Kevin Love,F,,18:21,0.0,0.0,0.0,0.0,4.0,4.0,6.0,16.0,0.0,0.0,0.0,1.0
0021401225,1610612739,CLE,Cleveland,202389,Timofey Mozgov,C,,13:49,110.8,115.8,-5.0,0.0,0.0,0.0,0.077,0.143,0.111,0.0,0.8,0.68,0.197,96.65,0.094,2015-04-15T00:00:00,9,CLE,Cleveland,53-29,20,33,21,27,12,0,0,0,0,0,0,0,0,0,113,0.473,0.647,0.533,29,44,16,0021401225,1610612739,CLE,Cleveland,Timofey Mozgov,C,,13:49,0.0,2.0,0.0,6.0,2.0,6.0,4.0,10.0,0.0,0.0,1.0,1.0
0021401225,1610612739,CLE,Cleveland,2747,JR Smith,G,,8:57,80.5,139.8,-59.3,0.429,3.0,33.3,0.0,0.0,0.0,11.1,0.0,0.0,0.302,101.26,-0.061,2015-04-15T00:00:00,9,CLE,Cleveland,53-29,20,33,21,27,12,0,0,0,0,0,0,0,0,0,113,0.473,0.647,0.533,29,44,16,0021401225,1610612739,CLE,Cleveland,JR Smith,G,,8:57,0.0,0.0,0.0,0.0,2.0,4.0,4.0,6.0,0.0,1.0,0.0,0.0
0021401225,1610612739,CLE,Cleveland,202681,Kyrie Irving,G,,17:52,101.0,135.9,-35.0,0.636,3.5,38.9,0.0,0.133,0.065,11.1,0.5,0.5,0.277,100.96,0.124,2015-04-15T00:00:00,9,CLE,Cleveland,53-29,20,33,21,27,12,0,0,0,0,0,0,0,0,0,113,0.473,0.647,0.533,29,44,16,0021401225,1610612739,CLE,Cleveland,Kyrie Irving,G,,17:52,2.0,3.0,0.0,2.0,4.0,4.0,6.0,20.0,0.0,0.0,0.0,0.0
0021401225,1610612739,CLE,Cleveland,1890,Shawn Marion,,,32:47,109.6,100.9,8.7,0.043,0.0,9.1,0.143,0.172,0.158,0.0,0.4,0.4,0.141,93.97,0.088,2015-04-15T00:00:00,9,CLE,Cleveland,53-29,20,33,21,27,12,0,0,0,0,0,0,0,0,0,113,0.473,0.647,0.533,29,44,16,0021401225,1610612739,CLE,Cleveland,Shawn Marion,,,32:47,6.0,2.0,2.0,8.0,14.0,4.0,5.0,18.0,0.0,2.0,0.0,0.0
0021401225,1610612739,CLE,Cleveland,202697,Iman Shumpert,,,29:21,132.0,92.3,39.7,0.111,0.0,13.4,0.043,0.185,0.12,0.0,0.708,0.699,0.213,87.33,0.194,2015-04-15T00:00:00,9,CLE,Cleveland,53-29,20,33,21,27,12,0,0,0,0,0,0,0,0,0,113,0.473,0.647,0.533,29,44,16,0021401225,1610612739,CLE,Cleveland,Iman Shumpert,,,29:21,5.0,0.0,2.0,4.0,2.0,8.0,3.0,18.0,0.0,0.0,1.0,1.0
0021401225,1610612739,CLE,Cleveland,203521,Matthew Dellavedova,,,32:44,113.0,81.6,31.4,0.6,4.0,44.6,0.0,0.097,0.051,11.2,0.727,0.758,0.21,92.79,0.258,2015-04-15T00:00:00,9,CLE,Cleveland,53-29,20,33,21,27,12,0,0,0,0,0,0,0,0,0,113,0.473,0.647,0.533,29,44,16,0021401225,1610612739,CLE,Cleveland,Matthew Dellavedova,,,32:44,2.0,0.0,3.0,2.0,14.0,6.0,5.0,14.0,0.0,1.0,2.0,3.0
0021401225,1610612739,CLE,Cleveland,202684,Tristan Thompson,,,21:35,131.9,99.8,32.1,0.154,2.0,17.0,0.167,0.25,0.211,8.5,0.571,0.685,0.229,84.2,0.203,2015-04-15T00:00:00,9,CLE,Cleveland,53-29,20,33,21,27,12,0,0,0,0,0,0,0,0,0,113,0.473,0.647,0.533,29,44,16,0021401225,1610612739,CLE,Cleveland,Tristan Thompson,,,21:35,0.0,0.0,0.0,8.0,5.0,8.0,0.0,10.0,1.0,1.0,1.0,2.0
0021401225,1610612739,CLE,Cleveland,2592,James Jones,,,11:38,151.8,119.9,31.9,0.0,0.0,0.0,0.1,0.0,0.063,0.0,0.375,0.375,0.168,87.2,-0.047,2015-04-15T00:00:00,9,CLE,Cleveland,53-29,20,33,21,27,12,0,0,0,0,0,0,0,0,0,113,0.473,0.647,0.533,29,44,16,0021401225,1610612739,CLE,Cleveland,James Jones,,,11:38,0.0,0.0,0.0,0.0,2.0,4.0,0.0,10.0,0.0,0.0,3.0,0.0
0021401225,1610612739,CLE,Cleveland,2570,Kendrick Perkins,,,27:30,107.7,95.9,11.8,0.053,0.33,9.2,0.05,0.174,0.116,27.6,0.5,0.509,0.165,96.87,0.052,2015-04-15T00:00:00,9,CLE,Cleveland,53-29,20,33,21,27,12,0,0,0,0,0,0,0,0,0,113,0.473,0.647,0.533,29,44,16,0021401225,1610612739,CLE,Cleveland,Kendrick Perkins,,,27:30,2.0,0.0,0.0,6.0,16.0,2.0,7.0,18.0,1.0,0.0,2.0,2.0
0021401225,1610612739,CLE,Cleveland,203925,Joe Harris,,,17:06,94.1,102.5,-8.5,0.083,0.2,9.1,0.0,0.071,0.034,45.5,0.3,0.3,0.263,99.87,-0.124,2015-04-15T00:00:00,9,CLE,Cleveland,53-29,20,33,21,27,12,0,0,0,0,0,0,0,0,0,113,0.473,0.647,0.533,29,44,16,0021401225,1610612739,CLE,Cleveland,Joe Harris,,,17:06,0.0,0.0,0.0,0.0,14.0,2.0,4.0,10.0,0.0,0.0,3.0,1.0
0021401225,1610612739,CLE,Cleveland,2217,Brendan Haywood,,,14:59,86.5,93.3,-6.8,0.0,0.0,0.0,0.0,0.077,0.037,0.0,0.667,0.579,0.126,99.77,0.072,2015-04-15T00:00:00,9,CLE,Cleveland,53-29,20,33,21,27,12,0,0,0,0,0,0,0,0,0,113,0.473,0.647,0.533,29,44,16,0021401225,1610612739,CLE,Cleveland,Brendan Haywood,,,14:59,0.0,0.0,0.0,2.0,9.0,0.0,5.0,8.0,2.0,0.0,1.0,2.0
