GAME_ID_x,TEAM_ID_x,TEAM_ABBREVIATION_x,TEAM_CITY_x,PLAYER_ID,PLAYER_NAME_x,START_POSITION_x,COMMENT_x,MIN_x,OFF_RATING,DEF_RATING,NET_RATING,AST_PCT,AST_TOV,AST_RATIO,OREB_PCT,DREB_PCT,REB_PCT,TM_TOV_PCT,EFG_PCT,TS_PCT,USG_PCT,PACE,PIE,GAME_DATE_EST,GAME_SEQUENCE,TEAM_ABBREVIATION_y,TEAM_CITY_NAME,TEAM_WINS_LOSSES,PTS_QTR1,PTS_QTR2,PTS_QTR3,PTS_QTR4,PTS_OT1,PTS_OT2,PTS_OT3,PTS_OT4,PTS_OT5,PTS_OT6,PTS_OT7,PTS_OT8,PTS_OT9,PTS_OT10,PTS,FG_PCT,FT_PCT,FG3_PCT,AST,REB,TOV,GAME_ID_y,TEAM_ID_y,TEAM_ABBREVIATION,TEAM_CITY_y,PLAYER_NAME_y,START_POSITION_y,COMMENT_y,MIN_y,PTS_OFF_TOV,PTS_2ND_CHANCE,PTS_FB,PTS_PAINT,OPP_PTS_OFF_TOV,OPP_PTS_2ND_CHANCE,OPP_PTS_FB,OPP_PTS_PAINT,BLK,BLKA,PF,PFD
0021401226,1610612765,DET,Detroit,2406,Caron Butler,F,,24:00,124.8,95.0,29.8,0.0,0.0,0.0,0.0,0.091,0.048,0.0,1.2,1.19,0.106,102.08,0.156,2015-04-15T00:00:00,10,DET,Detroit,32-50,34,21,29,28,0,0,0,0,0,0,0,0,0,0,112,0.506,0.741,0.385,20,44,12,0021401226,1610612765,DET,Detroit,Caron Butler,F,,24:00,3.0,0.0,3.0,0.0,6.0,6.0,7.0,12.0,0.0,0.0,1.0,1.0
0021401226,1610612765,DET,Detroit,202328,Greg Monroe,F,,21:25,112.0,101.8,10.2,0.071,1.0,9.3,0.0,0.133,0.061,9.3,0.429,0.571,0.2,99.7,0.107,2015-04-15T00:00:00,10,DET,Detroit,32-50,34,21,29,28,0,0,0,0,0,0,0,0,0,0,112,0.506,0.741,0.385,20,44,12,0021401226,1610612765,DET,Detroit,Greg Monroe,F,,21:25,4.0,0.0,2.0,2.0,7.0,6.0,8.0,14.0,0.0,0.0,4.0,3.0
0021401226,1610612765,DET,Detroit,203083,Andre Drummond,C,,22:18,115.9,109.5,6.4,0.0,0.0,0.0,0.3,0.4,0.343,6.4,0.583,0.581,0.302,100.3,0.186,2015-04-15T00:00:00,10,DET,Detroit,32-50,34,21,29,28,0,0,0,0,0,0,0,0,0,0,112,0.506,0.741,0.385,20,44,12,0021401226,1610612765,DET,Detroit,Andre Drummond,C,,22:18,6.0,6.0,0.0,14.0,8.0,6.0,4.0,18.0,2.0,1.0,4.0,4.0
0021401226,1610612765,DET,Detroit,203484,Kentavious Caldwell-Pope,G,,34:29,122.9,91.1,31.7,0.167,4.0,25.4,0.033,0.129,0.082,6.3,0.778,0.79,0.149,97.61,0.154,2015-04-15T00:00:00,10,DET,Detroit,32-50,34,21,29,28,0,0,0,0,0,0,0,0,0,0,112,0.506,0.741,0.385,20,44,12,0021401226,1610612765,DET,Detroit,Kentavious Caldwell-Pope,G,,34:29,5.0,5.0,3.0,2.0,11.0,10.0,8.0,20.0,0.0,0.0,2.0,4.0
0021401226,1610612765,DET,Detroit,202704,Reggie Jackson,G,,31:30,134.7,90.0,44.8,0.5,5.5,33.4,0.036,0.107,0.071,6.1,0.563,0.601,0.303,96.64,0.217,2015-04-15T00:00:00,10,DET,Detroit,32-50,34,21,29,28,0,0,0,0,0,0,0,0,0,0,112,0.506,0.741,0.385,20,44,12,0021401226,1610612765,DET,Detroit,Reggie Jackson,G,,31:30,7.0,0.0,3.0,14.0,8.0,8.0,7.0,18.0,0.0,1.0,4.0,5.0
0021401226,1610612765,DET,Detroit,201229,Anthony Tolliver,,,30:10,122.8,78.7,44.2,0.0,0.0,0.0,0.0,0.222,0.122,10.0,0.556,0.556,0.157,92.51,0.099,2015-04-15T00:00:00,10,DET,Detroit,32-50,34,21,29,28,0,0,0,0,0,0,0,0,0,0,112,0.506,0.741,0.385,20,44,12,0021401226,1610612765,DET,Detroit,Anthony Tolliver,,,30:10,5.0,0.0,2.0,2.0,7.0,8.0,6.0,20.0,0.0,0.0,2.0,0.0
0021401226,1610612765,DET,Detroit,101249,John Lucas III,,,16:30,86.1,95.8,-9.7,0.333,3.0,33.3,0.0,0.059,0.036,11.1,0.2,0.2,0.179,95.88,-0.023,2015-04-15T00:00:00,10,DET,Detroit,32-50,34,21,29,28,0,0,0,0,0,0,0,0,0,0,112,0.506,0.741,0.385,20,44,12,0021401226,1610612765,DET,Detroit,John Lucas III,,,16:30,0.0,0.0,0.0,2.0,5.0,8.0,4.0,18.0,0.0,0.0,2.0,0.0
0021401226,1610612765,DET,Detroit,201975,Jodie Meeks,,,24:00,110.4,88.6,21.8,0.063,0.5,7.8,0.105,0.087,0.095,15.5,0.444,0.506,0.236,90.68,0.126,2015-04-15T00:00:00,10,DET,Detroit,32-50,34,21,29,28,0,0,0,0,0,0,0,0,0,0,112,0.506,0.741,0.385,20,44,12,0021401226,1610612765,DET,Detroit,Jodie Meeks,,,24:00,2.0,2.0,2.0,6.0,7.0,10.0,4.0,24.0,0.0,0.0,1.0,1.0
0021401226,1610612765,DET,Detroit,203113,Quincy Miller,,,13:31,104.5,94.1,10.4,0.0,0.0,0.0,0.0,0.0,0.0,14.3,0.5,0.5,0.26,93.25,0.049,2015-04-15T00:00:00,10,DET,Detroit,32-50,34,21,29,28,0,0,0,0,0,0,0,0,0,0,112,0.506,0.741,0.385,20,44,12,0021401226,1610612765,DET,Detroit,Quincy Miller,,,13:31,2.0,0.0,0.0,2.0,2.0,6.0,3.0,16.0,0.0,1.0,0.0,0.0
0021401226,1610612765,DET,Detroit,201202,Joel Anthony,,,17:10,125.7,68.1,57.6,0.0,0.0,0.0,0.071,0.208,0.158,50.0,0.5,0.5,0.107,93.93,0.07,2015-04-15T00:00:00,10,DET,Detroit,32-50,34,21,29,28,0,0,0,0,0,0,0,0,0,0,112,0.506,0.741,0.385,20,44,12,0021401226,1610612765,DET,Detroit,Joel Anthony,,,17:10,0.0,0.0,0.0,0.0,4.0,8.0,3.0,12.0,1.0,0.0,2.0,0.0
0021401226,1610612765,DET,Detroit,200761,Shawne Williams,,,4:57,100.0,121.5,-21.5,0.0,0.0,0.0,0.0,0.222,0.154,0.0,0.0,0.0,0.1,96.39,0.05,2015-04-15T00:00:00,10,DET,Detroit,32-50,34,21,29,28,0,0,0,0,0,0,0,0,0,0,112,0.506,0.741,0.385,20,44,12,0021401226,1610612765,DET,Detroit,Shawne Williams,,,4:57,0.0,0.0,0.0,0.0,0.0,4.0,1.0,8.0,0.0,0.0,0.0,0.0
0021401226,1610612765,DET,Detroit,201858,Cartier Martin,,DNP - Coach's Decision                  ,,,,,,,0.0,,,,,,,0.0,,,2015-04-15T00:00:00,10,DET,Detroit,32-50,34,21,29,28,0,0,0,0,0,0,0,0,0,0,112,0.506,0.741,0.385,20,44,12,0021401226,1610612765,DET,Detroit,Cartier Martin,,DNP - Coach's Decision                  ,,,,,,,,,,,,,
0021401226,1610612765,DET,Detroit,2419,Tayshaun Prince,,DND -                                   ,,,,,,,0.0,,,,,,,0.0,,,2015-04-15T00:00:00,10,DET,Detroit,32-50,34,21,29,28,0,0,0,0,0,0,0,0,0,0,112,0.506,0.741,0.385,20,44,12,0021401226,1610612765,DET,Detroit,Tayshaun Prince,,DND -                                   ,,,,,,,,,,,,,
0021401226,1610612752,NYK,New York,201160,Jason Smith,F,,22:16,87.3,122.5,-35.2,0.091,0.33,6.8,0.0,0.25,0.122,20.3,0.333,0.418,0.282,98.69,0.037,2015-04-15T00:00:00,10,NYK,New York,17-65,25,21,24,20,0,0,0,0,0,0,0,0,0,0,90,0.429,0.63,0.368,19,40,20,0021401226,1610612752,NYK,New York,Jason Smith,F,,22:16,1.0,0.0,1.0,0.0,18.0,6.0,12.0,22.0,0.0,2.0,3.0,2.0
0021401226,1610612752,NYK,New York,202498,Lance Thomas,F,,24:16,103.8,108.9,-5.0,0.118,2.0,28.6,0.0,0.105,0.057,14.3,0.75,0.75,0.093,99.53,0.085,2015-04-15T00:00:00,10,NYK,New York,17-65,25,21,24,20,0,0,0,0,0,0,0,0,0,0,90,0.429,0.63,0.368,19,40,20,0021401226,1610612752,NYK,New York,Lance Thomas,F,,24:16,2.0,0.0,0.0,4.0,18.0,6.0,11.0,22.0,0.0,0.0,2.0,2.0
0021401226,1610612752,NYK,New York,202332,Cole Aldrich,C,,27:20,111.5,109.3,2.2,0.154,2.0,9.6,0.269,0.4,0.326,4.8,0.688,0.676,0.286,96.2,0.294,2015-04-15T00:00:00,10,NYK,New York,17-65,25,21,24,20,0,0,0,0,0,0,0,0,0,0,90,0.429,0.63,0.368,19,40,20,0021401226,1610612752,NYK,New York,Cole Aldrich,C,,27:20,1.0,10.0,0.0,22.0,17.0,6.0,8.0,28.0,2.0,0.0,1.0,2.0
0021401226,1610612752,NYK,New York,204038,Langston Galloway,G,,32:16,103.7,122.0,-18.3,0.28,3.5,38.2,0.0,0.036,0.017,10.9,0.25,0.376,0.148,94.52,0.046,2015-04-15T00:00:00,10,NYK,New York,17-65,25,21,24,20,0,0,0,0,0,0,0,0,0,0,90,0.429,0.63,0.368,19,40,20,0021401226,1610612752,NYK,New York,Langston Galloway,G,,32:16,2.0,2.0,2.0,0.0,21.0,13.0,7.0,36.0,1.0,0.0,4.0,5.0
0021401226,1610612752,NYK,New York,203501,Tim Hardaway Jr.,G,,33:30,88.1,119.0,-30.9,0.143,1.0,10.2,0.034,0.074,0.054,10.2,0.792,0.805,0.239,97.78,0.183,2015-04-15T00:00:00,10,NYK,New York,17-65,25,21,24,20,0,0,0,0,0,0,0,0,0,0,90,0.429,0.63,0.368,19,40,20,0021401226,1610612752,NYK,New York,Tim Hardaway Jr.,G,,33:30,5.0,2.0,7.0,4.0,26.0,6.0,15.0,28.0,0.0,0.0,0.0,5.0
0021401226,1610612752,NYK,New York,200811,Lou Amundson,,,17:50,67.9,124.2,-56.3,0.125,0.25,10.2,0.0,0.176,0.094,41.0,0.0,0.105,0.223,101.37,-0.114,2015-04-15T00:00:00,10,NYK,New York,17-65,25,21,24,20,0,0,0,0,0,0,0,0,0,0,90,0.429,0.63,0.368,19,40,20,0021401226,1610612752,NYK,New York,Lou Amundson,,,17:50,0.0,0.0,0.0,0.0,17.0,5.0,7.0,12.0,0.0,0.0,2.0,2.0
0021401226,1610612752,NYK,New York,203112,Quincy Acy,,,19:39,88.0,134.6,-46.7,0.077,0.5,12.7,0.042,0.2,0.103,25.4,0.0,0.102,0.148,90.28,-0.036,2015-04-15T00:00:00,10,NYK,New York,17-65,25,21,24,20,0,0,0,0,0,0,0,0,0,0,90,0.429,0.63,0.368,19,40,20,0021401226,1610612752,NYK,New York,Quincy Acy,,,19:39,0.0,0.0,1.0,0.0,11.0,7.0,2.0,18.0,0.0,0.0,1.0,2.0
0021401226,1610612752,NYK,New York,203921,Cleanthony Early,,,20:54,81.7,123.2,-41.5,0.0,0.0,0.0,0.04,0.111,0.07,18.2,0.389,0.389,0.216,96.73,0.007,2015-04-15T00:00:00,10,NYK,New York,17-65,25,21,24,20,0,0,0,0,0,0,0,0,0,0,90,0.429,0.63,0.368,19,40,20,0021401226,1610612752,NYK,New York,Cleanthony Early,,,20:54,2.0,0.0,0.0,2.0,16.0,5.0,4.0,18.0,0.0,0.0,1.0,1.0
0021401226,1610612752,NYK,New York,203499,Shane Larkin,,,23:54,74.2,116.9,-42.7,0.2,1.0,20.2,0.0,0.059,0.026,20.2,0.4,0.425,0.157,94.59,0.0,2015-04-15T00:00:00,10,NYK,New York,17-65,25,21,24,20,0,0,0,0,0,0,0,0,0,0,90,0.429,0.63,0.368,19,40,20,0021401226,1610612752,NYK,New York,Shane Larkin,,,23:54,0.0,2.0,0.0,2.0,17.0,4.0,8.0,20.0,0.0,0.0,3.0,1.0
0021401226,1610612752,NYK,New York,203495,Ricky Ledo,,,18:05,102.0,101.4,0.6,0.083,1.0,11.1,0.111,0.071,0.094,11.1,0.357,0.357,0.181,93.96,0.018,2015-04-15T00:00:00,10,NYK,New York,17-65,25,21,24,20,0,0,0,0,0,0,0,0,0,0,90,0.429,0.63,0.368,19,40,20,0021401226,1610612752,NYK,New York,Ricky Ledo,,,18:05,0.0,0.0,0.0,2.0,9.0,7.0,1.0,16.0,0.0,1.0,1.0,0.0
0021401226,1610612752,NYK,New York,200745,Andrea Bargnani,,NWT - Illness                           ,,,,,,,0.0,,,,,,,0.0,,,2015-04-15T00:00:00,10,NYK,New York,17-65,25,21,24,20,0,0,0,0,0,0,0,0,0,0,90,0.429,0.63,0.368,19,40,20,0021401226,1610612752,NYK,New York,Andrea Bargnani,,NWT - Illness                           ,,,,,,,,,,,,,
0021401226,1610612752,NYK,New York,204037,Travis Wear,,DND - Sore Lower Back                   ,,,,,,,0.0,,,,,,,0.0,,,2015-04-15T00:00:00,10,NYK,New York,17-65,25,21,24,20,0,0,0,0,0,0,0,0,0,0,90,0.429,0.63,0.368,19,40,20,0021401226,1610612752,NYK,New York,Travis Wear,,DND - Sore Lower Back                   ,,,,,,,,,,,,,
