GAME_ID_x,TEAM_ID_x,TEAM_ABBREVIATION_x,TEAM_CITY_x,PLAYER_ID,PLAYER_NAME_x,START_POSITION_x,COMMENT_x,MIN_x,OFF_RATING,DEF_RATING,NET_RATING,AST_PCT,AST_TOV,AST_RATIO,OREB_PCT,DREB_PCT,REB_PCT,TM_TOV_PCT,EFG_PCT,TS_PCT,USG_PCT,PACE,PIE,GAME_DATE_EST,GAME_SEQUENCE,TEAM_ABBREVIATION_y,TEAM_CITY_NAME,TEAM_WINS_LOSSES,PTS_QTR1,PTS_QTR2,PTS_QTR3,PTS_QTR4,PTS_OT1,PTS_OT2,PTS_OT3,PTS_OT4,PTS_OT5,PTS_OT6,PTS_OT7,PTS_OT8,PTS_OT9,PTS_OT10,PTS,FG_PCT,FT_PCT,FG3_PCT,AST,REB,TOV,GAME_ID_y,TEAM_ID_y,TEAM_ABBREVIATION,TEAM_CITY_y,PLAYER_NAME_y,START_POSITION_y,COMMENT_y,MIN_y,PTS_OFF_TOV,PTS_2ND_CHANCE,PTS_FB,PTS_PAINT,OPP_PTS_OFF_TOV,OPP_PTS_2ND_CHANCE,OPP_PTS_FB,OPP_PTS_PAINT,BLK,BLKA,PF,PFD
0041400112,1610612738,BOS,Boston,202323,Evan Turner,F,,33:29,102.4,86.4,16.0,0.143,3.0,17.9,0.065,0.333,0.197,6.0,0.273,0.353,0.19,94.34,0.117,2015-04-21T00:00:00,1,BOS,Boston,0-2,26,24,18,23,0,0,0,0,0,0,0,0,0,0,91,0.388,0.864,0.273,19,39,11,0041400112,1610612738,BOS,Boston,Evan Turner,F,,33:29,2.0,2.0,0.0,2.0,11.0,9.0,6.0,28.0,0.0,3.0,2.0,3.0
0041400112,1610612738,BOS,Boston,101138,Brandon Bass,F,,15:02,87.3,115.3,-28.0,0.333,0.0,30.4,0.059,0.091,0.071,0.0,0.0,0.145,0.217,98.36,0.046,2015-04-21T00:00:00,1,BOS,Boston,0-2,26,24,18,23,0,0,0,0,0,0,0,0,0,0,91,0.388,0.864,0.273,19,39,11,0041400112,1610612738,BOS,Boston,Brandon Bass,F,,15:02,0.0,0.0,0.0,0.0,9.0,6.0,2.0,18.0,2.0,3.0,0.0,2.0
0041400112,1610612738,BOS,Boston,203092,Tyler Zeller,C,,30:22,96.7,96.7,0.0,0.063,0.5,8.4,0.074,0.143,0.109,16.8,0.625,0.619,0.179,92.39,0.116,2015-04-21T00:00:00,1,BOS,Boston,0-2,26,24,18,23,0,0,0,0,0,0,0,0,0,0,91,0.388,0.864,0.273,19,39,11,0041400112,1610612738,BOS,Boston,Tyler Zeller,C,,30:22,2.0,6.0,0.0,8.0,11.0,15.0,8.0,30.0,1.0,1.0,2.0,4.0
0041400112,1610612738,BOS,Boston,202340,Avery Bradley,G,,28:34,90.1,111.5,-21.4,0.0,0.0,0.0,0.036,0.136,0.08,0.0,0.444,0.444,0.152,89.95,0.031,2015-04-21T00:00:00,1,BOS,Boston,0-2,26,24,18,23,0,0,0,0,0,0,0,0,0,0,91,0.388,0.864,0.273,19,39,11,0041400112,1610612738,BOS,Boston,Avery Bradley,G,,28:34,0.0,3.0,2.0,2.0,11.0,11.0,6.0,24.0,0.0,1.0,4.0,1.0
0041400112,1610612738,BOS,Boston,203935,Marcus Smart,G,,25:31,88.5,122.0,-33.5,0.091,0.0,9.2,0.0,0.048,0.019,0.0,0.5,0.506,0.171,96.11,0.034,2015-04-21T00:00:00,1,BOS,Boston,0-2,26,24,18,23,0,0,0,0,0,0,0,0,0,0,91,0.388,0.864,0.273,19,39,11,0041400112,1610612738,BOS,Boston,Marcus Smart,G,,25:31,5.0,0.0,0.0,2.0,9.0,15.0,4.0,26.0,0.0,0.0,3.0,2.0
0041400112,1610612738,BOS,Boston,202738,Isaiah Thomas,,,30:02,99.9,108.2,-8.3,0.5,1.75,23.8,0.033,0.0,0.02,13.6,0.429,0.598,0.324,92.95,0.181,2015-04-21T00:00:00,1,BOS,Boston,0-2,26,24,18,23,0,0,0,0,0,0,0,0,0,0,91,0.388,0.864,0.273,19,39,11,0041400112,1610612738,BOS,Boston,Isaiah Thomas,,,30:02,7.0,3.0,4.0,6.0,6.0,13.0,6.0,28.0,0.0,0.0,2.0,6.0
0041400112,1610612738,BOS,Boston,203096,Jared Sullinger,,,22:14,103.1,127.7,-24.6,0.111,0.0,7.7,0.111,0.133,0.119,0.0,0.583,0.583,0.22,93.76,0.144,2015-04-21T00:00:00,1,BOS,Boston,0-2,26,24,18,23,0,0,0,0,0,0,0,0,0,0,91,0.388,0.864,0.273,19,39,11,0041400112,1610612738,BOS,Boston,Jared Sullinger,,,22:14,4.0,5.0,0.0,8.0,2.0,10.0,4.0,18.0,0.0,0.0,1.0,2.0
0041400112,1610612738,BOS,Boston,203482,Kelly Olynyk,,,20:60,112.3,100.4,11.9,0.0,0.0,0.0,0.0,0.167,0.061,28.6,0.5,0.5,0.133,92.99,-0.015,2015-04-21T00:00:00,1,BOS,Boston,0-2,26,24,18,23,0,0,0,0,0,0,0,0,0,0,91,0.388,0.864,0.273,19,39,11,0041400112,1610612738,BOS,Boston,Kelly Olynyk,,,20:60,0.0,0.0,0.0,2.0,2.0,3.0,6.0,12.0,0.0,0.0,4.0,0.0
0041400112,1610612738,BOS,Boston,203109,Jae Crowder,,,29:41,104.8,110.2,-5.4,0.167,3.0,20.2,0.12,0.083,0.102,6.7,0.4,0.46,0.188,90.24,0.08,2015-04-21T00:00:00,1,BOS,Boston,0-2,26,24,18,23,0,0,0,0,0,0,0,0,0,0,91,0.388,0.864,0.273,19,39,11,0041400112,1610612738,BOS,Boston,Jae Crowder,,,29:41,2.0,0.0,4.0,6.0,4.0,16.0,8.0,24.0,0.0,2.0,3.0,2.0
0041400112,1610612738,BOS,Boston,201973,Jonas Jerebko,,,4:04,57.1,25.0,32.1,0.0,0.0,0.0,0.0,0.167,0.125,50.0,0.0,0.0,0.286,88.52,-4.0,2015-04-21T00:00:00,1,BOS,Boston,0-2,26,24,18,23,0,0,0,0,0,0,0,0,0,0,91,0.388,0.864,0.273,19,39,11,0041400112,1610612738,BOS,Boston,Jonas Jerebko,,,4:04,0.0,0.0,0.0,0.0,0.0,2.0,0.0,2.0,0.0,0.0,1.0,0.0
0041400112,1610612738,BOS,Boston,203540,Gigi Datome,,DNP - Coach's Decision                  ,,,,,,,0.0,,,,,,,0.0,,,2015-04-21T00:00:00,1,BOS,Boston,0-2,26,24,18,23,0,0,0,0,0,0,0,0,0,0,91,0.388,0.864,0.273,19,39,11,0041400112,1610612738,BOS,Boston,Gigi Datome,,DNP - Coach's Decision                  ,,,,,,,,,,,,,
0041400112,1610612738,BOS,Boston,203515,Phil Pressey,,DNP - Coach's Decision                  ,,,,,,,0.0,,,,,,,0.0,,,2015-04-21T00:00:00,1,BOS,Boston,0-2,26,24,18,23,0,0,0,0,0,0,0,0,0,0,91,0.388,0.864,0.273,19,39,11,0041400112,1610612738,BOS,Boston,Phil Pressey,,DNP - Coach's Decision                  ,,,,,,,,,,,,,
0041400112,1610612738,BOS,Boston,2222,Gerald Wallace,,DNP - Coach's Decision                  ,,,,,,,0.0,,,,,,,0.0,,,2015-04-21T00:00:00,1,BOS,Boston,0-2,26,24,18,23,0,0,0,0,0,0,0,0,0,0,91,0.388,0.864,0.273,19,39,11,0041400112,1610612738,BOS,Boston,Gerald Wallace,,DNP - Coach's Decision                  ,,,,,,,,,,,,,
0041400112,1610612739,CLE,Cleveland,2544,LeBron James,F,,41:48,113.0,100.8,12.2,0.35,1.17,18.2,0.032,0.195,0.125,15.6,0.523,0.588,0.341,92.9,0.183,2015-04-21T00:00:00,1,CLE,Cleveland,2-0,25,26,24,24,0,0,0,0,0,0,0,0,0,0,99,0.447,0.923,0.241,18,47,18,0041400112,1610612739,CLE,Cleveland,LeBron James,F,,41:48,0.0,4.0,6.0,16.0,19.0,13.0,8.0,32.0,2.0,0.0,3.0,7.0
0041400112,1610612739,CLE,Cleveland,201567,Kevin Love,F,,29:34,112.2,111.1,1.2,0.105,0.5,11.7,0.048,0.179,0.122,23.4,0.438,0.587,0.236,93.06,0.06,2015-04-21T00:00:00,1,CLE,Cleveland,2-0,25,26,24,24,0,0,0,0,0,0,0,0,0,0,99,0.447,0.923,0.241,18,47,18,0041400112,1610612739,CLE,Cleveland,Kevin Love,F,,29:34,7.0,2.0,0.0,4.0,12.0,11.0,6.0,26.0,2.0,2.0,5.0,4.0
0041400112,1610612739,CLE,Cleveland,202389,Timofey Mozgov,C,,28:31,112.0,87.3,24.8,0.0,0.0,0.0,0.182,0.091,0.127,25.2,0.636,0.673,0.241,96.85,0.102,2015-04-21T00:00:00,1,CLE,Cleveland,2-0,25,26,24,24,0,0,0,0,0,0,0,0,0,0,99,0.447,0.923,0.241,18,47,18,0041400112,1610612739,CLE,Cleveland,Timofey Mozgov,C,,28:31,2.0,4.0,0.0,12.0,9.0,6.0,4.0,14.0,5.0,0.0,6.0,1.0
0041400112,1610612739,CLE,Cleveland,2747,JR Smith,G,,34:02,102.0,87.5,14.6,0.045,1.0,7.1,0.0,0.1,0.058,7.1,0.292,0.292,0.168,96.73,0.038,2015-04-21T00:00:00,1,CLE,Cleveland,2-0,25,26,24,24,0,0,0,0,0,0,0,0,0,0,99,0.447,0.923,0.241,18,47,18,0041400112,1610612739,CLE,Cleveland,JR Smith,G,,34:02,2.0,3.0,2.0,2.0,16.0,16.0,6.0,28.0,0.0,0.0,3.0,0.0
0041400112,1610612739,CLE,Cleveland,202681,Kyrie Irving,G,,38:46,103.9,89.4,14.5,0.273,3.0,20.6,0.0,0.116,0.067,6.9,0.528,0.617,0.26,95.24,0.188,2015-04-21T00:00:00,1,CLE,Cleveland,2-0,25,26,24,24,0,0,0,0,0,0,0,0,0,0,99,0.447,0.923,0.241,18,47,18,0041400112,1610612739,CLE,Cleveland,Kyrie Irving,G,,38:46,2.0,7.0,2.0,8.0,15.0,13.0,8.0,28.0,1.0,1.0,3.0,6.0
0041400112,1610612739,CLE,Cleveland,202684,Tristan Thompson,,,26:21,101.2,105.2,-3.9,0.111,2.0,66.7,0.227,0.25,0.239,33.3,0.0,0.0,0.018,90.9,0.131,2015-04-21T00:00:00,1,CLE,Cleveland,2-0,25,26,24,24,0,0,0,0,0,0,0,0,0,0,99,0.447,0.923,0.241,18,47,18,0041400112,1610612739,CLE,Cleveland,Tristan Thompson,,,26:21,0.0,0.0,0.0,0.0,16.0,15.0,8.0,24.0,0.0,0.0,0.0,1.0
0041400112,1610612739,CLE,Cleveland,2570,Kendrick Perkins,,,2:08,125.0,112.8,12.2,0.0,0.0,0.0,0.0,0.0,0.0,0.0,0.0,0.0,0.0,104.93,0.0,2015-04-21T00:00:00,1,CLE,Cleveland,2-0,25,26,24,24,0,0,0,0,0,0,0,0,0,0,99,0.447,0.923,0.241,18,47,18,0041400112,1610612739,CLE,Cleveland,Kendrick Perkins,,,2:08,0.0,0.0,0.0,0.0,3.0,6.0,0.0,0.0,0.0,0.0,0.0,0.0
0041400112,1610612739,CLE,Cleveland,202697,Iman Shumpert,,,25:32,101.1,104.0,-2.8,0.0,0.0,0.0,0.05,0.211,0.128,0.0,0.333,0.333,0.057,86.16,0.079,2015-04-21T00:00:00,1,CLE,Cleveland,2-0,25,26,24,24,0,0,0,0,0,0,0,0,0,0,99,0.447,0.923,0.241,18,47,18,0041400112,1610612739,CLE,Cleveland,Iman Shumpert,,,25:32,0.0,0.0,0.0,0.0,13.0,9.0,6.0,16.0,0.0,0.0,1.0,1.0
0041400112,1610612739,CLE,Cleveland,203521,Matthew Dellavedova,,,9:14,117.1,135.1,-18.1,0.0,0.0,0.0,0.0,0.0,0.0,0.0,1.5,1.33,0.114,83.89,0.143,2015-04-21T00:00:00,1,CLE,Cleveland,2-0,25,26,24,24,0,0,0,0,0,0,0,0,0,0,99,0.447,0.923,0.241,18,47,18,0041400112,1610612739,CLE,Cleveland,Matthew Dellavedova,,,9:14,0.0,0.0,0.0,0.0,7.0,6.0,2.0,8.0,0.0,0.0,1.0,1.0
0041400112,1610612739,CLE,Cleveland,2592,James Jones,,,4:04,25.0,57.1,-32.1,0.0,0.0,0.0,0.0,0.0,0.0,0.0,0.0,0.0,0.111,88.52,-2.0,2015-04-21T00:00:00,1,CLE,Cleveland,2-0,25,26,24,24,0,0,0,0,0,0,0,0,0,0,99,0.447,0.923,0.241,18,47,18,0041400112,1610612739,CLE,Cleveland,James Jones,,,4:04,0.0,0.0,0.0,0.0,0.0,0.0,2.0,4.0,0.0,0.0,0.0,1.0
0041400112,1610612739,CLE,Cleveland,2217,Brendan Haywood,,DNP - Coach's Decision                  ,,,,,,,0.0,,,,,,,0.0,,,2015-04-21T00:00:00,1,CLE,Cleveland,2-0,25,26,24,24,0,0,0,0,0,0,0,0,0,0,99,0.447,0.923,0.241,18,47,18,0041400112,1610612739,CLE,Cleveland,Brendan Haywood,,DNP - Coach's Decision                  ,,,,,,,,,,,,,
0041400112,1610612739,CLE,Cleveland,1890,Shawn Marion,,DNP - Coach's Decision                  ,,,,,,,0.0,,,,,,,0.0,,,2015-04-21T00:00:00,1,CLE,Cleveland,2-0,25,26,24,24,0,0,0,0,0,0,0,0,0,0,99,0.447,0.923,0.241,18,47,18,0041400112,1610612739,CLE,Cleveland,Shawn Marion,,DNP - Coach's Decision                  ,,,,,,,,,,,,,
0041400112,1610612739,CLE,Cleveland,2034,Mike Miller,,DNP - Coach's Decision                  ,,,,,,,0.0,,,,,,,0.0,,,2015-04-21T00:00:00,1,CLE,Cleveland,2-0,25,26,24,24,0,0,0,0,0,0,0,0,0,0,99,0.447,0.923,0.241,18,47,18,0041400112,1610612739,CLE,Cleveland,Mike Miller,,DNP - Coach's Decision                  ,,,,,,,,,,,,,
