GAME_ID_x,TEAM_ID_x,TEAM_ABBREVIATION_x,TEAM_CITY_x,PLAYER_ID,PLAYER_NAME_x,START_POSITION_x,COMMENT_x,MIN_x,OFF_RATING,DEF_RATING,NET_RATING,AST_PCT,AST_TOV,AST_RATIO,OREB_PCT,DREB_PCT,REB_PCT,TM_TOV_PCT,EFG_PCT,TS_PCT,USG_PCT,PACE,PIE,GAME_DATE_EST,GAME_SEQUENCE,TEAM_ABBREVIATION_y,TEAM_CITY_NAME,TEAM_WINS_LOSSES,PTS_QTR1,PTS_QTR2,PTS_QTR3,PTS_QTR4,PTS_OT1,PTS_OT2,PTS_OT3,PTS_OT4,PTS_OT5,PTS_OT6,PTS_OT7,PTS_OT8,PTS_OT9,PTS_OT10,PTS,FG_PCT,FT_PCT,FG3_PCT,AST,REB,TOV,GAME_ID_y,TEAM_ID_y,TEAM_ABBREVIATION,TEAM_CITY_y,PLAYER_NAME_y,START_POSITION_y,COMMENT_y,MIN_y,PTS_OFF_TOV,PTS_2ND_CHANCE,PTS_FB,PTS_PAINT,OPP_PTS_OFF_TOV,OPP_PTS_2ND_CHANCE,OPP_PTS_FB,OPP_PTS_PAINT,BLK,BLKA,PF,PFD
0041400155,1610612742,DAL,Dallas,202329,Al-Farouq Aminu,F,,36:27,89.4,101.0,-11.5,0.083,1.0,12.9,0.079,0.176,0.125,12.9,0.438,0.608,0.147,110.75,0.132,2015-04-28T00:00:00,3,DAL,Dallas,1-4,22,28,25,19,0,0,0,0,0,0,0,0,0,0,94,0.38,0.76,0.192,21,47,18,0041400155,1610612742,DAL,Dallas,Al-Farouq Aminu,F,,36:27,9.0,0.0,7.0,4.0,10.0,19.0,15.0,40.0,0.0,1.0,6.0,4.0
0041400155,1610612742,DAL,Dallas,1717,Dirk Nowitzki,F,,39:02,84.7,101.8,-17.1,0.0,0.0,0.0,0.0,0.357,0.176,7.0,0.348,0.415,0.299,105.63,0.114,2015-04-28T00:00:00,3,DAL,Dallas,1-4,22,28,25,19,0,0,0,0,0,0,0,0,0,0,94,0.38,0.76,0.192,21,47,18,0041400155,1610612742,DAL,Dallas,Dirk Nowitzki,F,,39:02,8.0,2.0,2.0,2.0,10.0,16.0,16.0,46.0,0.0,0.0,5.0,6.0
0041400155,1610612742,DAL,Dallas,2199,Tyson Chandler,C,,35:56,80.3,94.3,-14.1,0.0,0.0,0.0,0.105,0.057,0.082,11.4,0.833,0.709,0.098,107.32,0.091,2015-04-28T00:00:00,3,DAL,Dallas,1-4,22,28,25,19,0,0,0,0,0,0,0,0,0,0,94,0.38,0.76,0.192,21,47,18,0041400155,1610612742,DAL,Dallas,Tyson Chandler,C,,35:56,2.0,4.0,4.0,10.0,8.0,13.0,13.0,38.0,0.0,1.0,2.0,3.0
0041400155,1610612742,DAL,Dallas,101145,Monta Ellis,G,,42:13,85.0,90.7,-5.7,0.35,1.17,17.7,0.0,0.067,0.034,15.2,0.462,0.473,0.304,110.08,0.137,2015-04-28T00:00:00,3,DAL,Dallas,1-4,22,28,25,19,0,0,0,0,0,0,0,0,0,0,94,0.38,0.76,0.192,21,47,18,0041400155,1610612742,DAL,Dallas,Monta Ellis,G,,42:13,6.0,3.0,6.0,14.0,14.0,19.0,16.0,44.0,1.0,0.0,3.0,3.0
0041400155,1610612742,DAL,Dallas,200826,J.J. Barea,G,,37:24,76.4,100.2,-23.8,0.391,3.0,37.5,0.0,0.171,0.079,12.5,0.25,0.25,0.164,106.86,0.082,2015-04-28T00:00:00,3,DAL,Dallas,1-4,22,28,25,19,0,0,0,0,0,0,0,0,0,0,94,0.38,0.76,0.192,21,47,18,0041400155,1610612742,DAL,Dallas,J.J. Barea,G,,37:24,2.0,0.0,2.0,4.0,14.0,16.0,16.0,44.0,0.0,3.0,2.0,6.0
0041400155,1610612742,DAL,Dallas,101111,Charlie Villanueva,,,9:25,75.1,76.5,-1.5,0.2,0.0,16.7,0.0,0.167,0.059,0.0,0.6,0.6,0.175,127.84,0.212,2015-04-28T00:00:00,3,DAL,Dallas,1-4,22,28,25,19,0,0,0,0,0,0,0,0,0,0,94,0.38,0.76,0.192,21,47,18,0041400155,1610612742,DAL,Dallas,Charlie Villanueva,,,9:25,0.0,0.0,0.0,0.0,4.0,5.0,7.0,8.0,1.0,0.0,2.0,1.0
0041400155,1610612742,DAL,Dallas,2405,Amar'e Stoudemire,,,11:22,90.1,98.1,-8.1,0.0,0.0,0.0,0.154,0.077,0.115,37.5,0.2,0.2,0.26,116.72,-0.135,2015-04-28T00:00:00,3,DAL,Dallas,1-4,22,28,25,19,0,0,0,0,0,0,0,0,0,0,94,0.38,0.76,0.192,21,47,18,0041400155,1610612742,DAL,Dallas,Amar'e Stoudemire,,,11:22,0.0,0.0,0.0,2.0,6.0,8.0,8.0,14.0,0.0,0.0,4.0,0.0
0041400155,1610612742,DAL,Dallas,2734,Devin Harris,,,26:47,85.4,86.9,-1.5,0.056,1.0,9.3,0.033,0.1,0.067,9.3,0.286,0.457,0.136,111.36,0.049,2015-04-28T00:00:00,3,DAL,Dallas,1-4,22,28,25,19,0,0,0,0,0,0,0,0,0,0,94,0.38,0.76,0.192,21,47,18,0041400155,1610612742,DAL,Dallas,Devin Harris,,,26:47,0.0,0.0,2.0,0.0,4.0,9.0,14.0,26.0,0.0,1.0,4.0,3.0
0041400155,1610612742,DAL,Dallas,203939,Dwight Powell,,,0:42,150.0,108.7,41.3,1.0,0.0,100.0,0.0,0.0,0.0,0.0,0.0,0.0,0.0,163.2,0.0,2015-04-28T00:00:00,3,DAL,Dallas,1-4,22,28,25,19,0,0,0,0,0,0,0,0,0,0,94,0.38,0.76,0.192,21,47,18,0041400155,1610612742,DAL,Dallas,Dwight Powell,,,0:42,0.0,0.0,0.0,0.0,0.0,0.0,0.0,0.0,0.0,0.0,1.0,0.0
0041400155,1610612742,DAL,Dallas,202962,Greg Smith,,,0:42,150.0,106.4,43.6,0.0,0.0,0.0,0.0,0.0,0.0,0.0,0.0,0.0,0.0,133.03,0.0,2015-04-28T00:00:00,3,DAL,Dallas,1-4,22,28,25,19,0,0,0,0,0,0,0,0,0,0,94,0.38,0.76,0.192,21,47,18,0041400155,1610612742,DAL,Dallas,Greg Smith,,,0:42,0.0,0.0,0.0,0.0,0.0,0.0,0.0,0.0,0.0,0.0,0.0,0.0
0041400155,1610612742,DAL,Dallas,101109,Raymond Felton,,DNP - Coach's Decision                  ,,,,,,,0.0,,,,,,,0.0,,,2015-04-28T00:00:00,3,DAL,Dallas,1-4,22,28,25,19,0,0,0,0,0,0,0,0,0,0,94,0.38,0.76,0.192,21,47,18,0041400155,1610612742,DAL,Dallas,Raymond Felton,,DNP - Coach's Decision                  ,,,,,,,,,,,,,
0041400155,1610612742,DAL,Dallas,203108,Bernard James,,DNP - Coach's Decision                  ,,,,,,,0.0,,,,,,,0.0,,,2015-04-28T00:00:00,3,DAL,Dallas,1-4,22,28,25,19,0,0,0,0,0,0,0,0,0,0,94,0.38,0.76,0.192,21,47,18,0041400155,1610612742,DAL,Dallas,Bernard James,,DNP - Coach's Decision                  ,,,,,,,,,,,,,
0041400155,1610612742,DAL,Dallas,2210,Richard Jefferson,,DNP - Coach's Decision                  ,,,,,,,0.0,,,,,,,0.0,,,2015-04-28T00:00:00,3,DAL,Dallas,1-4,22,28,25,19,0,0,0,0,0,0,0,0,0,0,94,0.38,0.76,0.192,21,47,18,0041400155,1610612742,DAL,Dallas,Richard Jefferson,,DNP - Coach's Decision                  ,,,,,,,,,,,,,
0041400155,1610612745,HOU,Houston,2772,Trevor Ariza,F,,37:29,94.6,80.9,13.7,0.148,4.0,30.8,0.054,0.209,0.138,7.7,0.313,0.313,0.096,112.61,0.089,2015-04-28T00:00:00,3,HOU,Houston,4-1,31,25,26,21,0,0,0,0,0,0,0,0,0,0,103,0.451,0.528,0.323,22,53,21,0041400155,1610612745,HOU,Houston,Trevor Ariza,F,,37:29,0.0,5.0,0.0,2.0,19.0,7.0,15.0,30.0,0.0,0.0,3.0,1.0
0041400155,1610612745,HOU,Houston,203093,Terrence Jones,F,,28:16,99.5,82.9,16.6,0.071,1.0,6.4,0.042,0.129,0.091,6.4,0.591,0.55,0.217,106.17,0.104,2015-04-28T00:00:00,3,HOU,Houston,4-1,31,25,26,21,0,0,0,0,0,0,0,0,0,0,103,0.451,0.528,0.323,22,53,21,0041400155,1610612745,HOU,Houston,Terrence Jones,F,,28:16,4.0,0.0,4.0,10.0,13.0,4.0,13.0,18.0,0.0,0.0,3.0,7.0
0041400155,1610612745,HOU,Houston,2730,Dwight Howard,C,,38:30,91.8,80.2,11.6,0.0,0.0,0.0,0.077,0.372,0.232,17.9,0.5,0.489,0.244,106.67,0.213,2015-04-28T00:00:00,3,HOU,Houston,4-1,31,25,26,21,0,0,0,0,0,0,0,0,0,0,103,0.451,0.528,0.323,22,53,21,0041400155,1610612745,HOU,Houston,Dwight Howard,C,,38:30,0.0,4.0,0.0,14.0,21.0,6.0,17.0,28.0,4.0,0.0,3.0,7.0
0041400155,1610612745,HOU,Houston,201935,James Harden,G,,35:04,104.9,86.8,18.2,0.381,1.33,22.4,0.027,0.026,0.027,16.8,0.579,0.647,0.304,111.31,0.17,2015-04-28T00:00:00,3,HOU,Houston,4-1,31,25,26,21,0,0,0,0,0,0,0,0,0,0,103,0.451,0.528,0.323,22,53,21,0041400155,1610612745,HOU,Houston,James Harden,G,,35:04,5.0,3.0,7.0,8.0,19.0,9.0,19.0,24.0,1.0,0.0,4.0,5.0
0041400155,1610612745,HOU,Houston,1891,Jason Terry,G,,24:37,100.2,84.2,16.0,0.167,1.5,25.5,0.0,0.033,0.019,17.0,0.2,0.37,0.142,112.35,0.025,2015-04-28T00:00:00,3,HOU,Houston,4-1,31,25,26,21,0,0,0,0,0,0,0,0,0,0,103,0.451,0.528,0.323,22,53,21,0041400155,1610612745,HOU,Houston,Jason Terry,G,,24:37,1.0,0.0,0.0,2.0,11.0,7.0,7.0,16.0,1.0,0.0,2.0,2.0
0041400155,1610612745,HOU,Houston,2746,Josh Smith,,,22:27,97.0,86.6,10.4,0.167,0.5,9.3,0.074,0.25,0.157,18.6,0.667,0.644,0.328,114.26,0.192,2015-04-28T00:00:00,3,HOU,Houston,4-1,31,25,26,21,0,0,0,0,0,0,0,0,0,0,103,0.451,0.528,0.323,22,53,21,0041400155,1610612745,HOU,Houston,Josh Smith,,,22:27,2.0,7.0,5.0,10.0,14.0,5.0,10.0,18.0,0.0,0.0,3.0,5.0
0041400155,1610612745,HOU,Houston,203143,Pablo Prigioni,,,22:14,87.6,84.3,3.3,0.067,0.0,20.0,0.042,0.0,0.023,0.0,0.625,0.625,0.074,105.48,0.05,2015-04-28T00:00:00,3,HOU,Houston,4-1,31,25,26,21,0,0,0,0,0,0,0,0,0,0,103,0.451,0.528,0.323,22,53,21,0041400155,1610612745,HOU,Houston,Pablo Prigioni,,,22:14,0.0,0.0,3.0,2.0,16.0,2.0,16.0,20.0,0.0,0.0,3.0,1.0
0041400155,1610612745,HOU,Houston,203991,Clint Capela,,,6:47,94.8,96.2,-1.4,0.167,1.0,20.5,0.167,0.0,0.083,20.5,0.5,0.347,0.206,129.67,-0.056,2015-04-28T00:00:00,3,HOU,Houston,4-1,31,25,26,21,0,0,0,0,0,0,0,0,0,0,103,0.451,0.528,0.323,22,53,21,0041400155,1610612745,HOU,Houston,Clint Capela,,,6:47,2.0,2.0,0.0,2.0,6.0,3.0,6.0,8.0,0.0,1.0,1.0,1.0
0041400155,1610612745,HOU,Houston,201147,Corey Brewer,,,22:30,89.7,76.4,13.3,0.143,1.0,20.0,0.0,0.174,0.089,20.0,0.417,0.417,0.151,105.63,0.018,2015-04-28T00:00:00,3,HOU,Houston,4-1,31,25,26,21,0,0,0,0,0,0,0,0,0,0,103,0.451,0.528,0.323,22,53,21,0041400155,1610612745,HOU,Houston,Corey Brewer,,,22:30,0.0,0.0,2.0,2.0,16.0,2.0,12.0,18.0,0.0,1.0,4.0,0.0
0041400155,1610612745,HOU,Houston,203123,Kostas Papanikolaou,,,0:42,0.0,150.0,-150.0,0.0,0.0,0.0,0.0,0.0,0.0,0.0,0.0,0.0,0.0,103.1,0.0,2015-04-28T00:00:00,3,HOU,Houston,4-1,31,25,26,21,0,0,0,0,0,0,0,0,0,0,103,0.451,0.528,0.323,22,53,21,0041400155,1610612745,HOU,Houston,Kostas Papanikolaou,,,0:42,0.0,0.0,0.0,0.0,0.0,0.0,0.0,0.0,0.0,0.0,0.0,0.0
0041400155,1610612745,HOU,Houston,203910,Nick Johnson,,,0:42,0.0,150.0,-150.0,0.0,0.0,0.0,0.0,1.0,1.0,0.0,0.0,0.0,1.0,103.1,0.0,2015-04-28T00:00:00,3,HOU,Houston,4-1,31,25,26,21,0,0,0,0,0,0,0,0,0,0,103,0.451,0.528,0.323,22,53,21,0041400155,1610612745,HOU,Houston,Nick Johnson,,,0:42,0.0,0.0,0.0,0.0,0.0,0.0,0.0,0.0,0.0,0.0,0.0,0.0
0041400155,1610612745,HOU,Houston,201595,Joey Dorsey,,,0:42,0.0,150.0,-150.0,0.0,0.0,0.0,0.0,0.0,0.0,0.0,0.0,0.0,0.0,103.1,0.0,2015-04-28T00:00:00,3,HOU,Houston,4-1,31,25,26,21,0,0,0,0,0,0,0,0,0,0,103,0.451,0.528,0.323,22,53,21,0041400155,1610612745,HOU,Houston,Joey Dorsey,,,0:42,0.0,0.0,0.0,0.0,0.0,0.0,0.0,0.0,0.0,0.0,0.0,0.0
0041400155,1610612745,HOU,Houston,203909,KJ McDaniels,,DND - Nondisplaced Right Elbow Fracture ,,,,,,,0.0,,,,,,,0.0,,,2015-04-28T00:00:00,3,HOU,Houston,4-1,31,25,26,21,0,0,0,0,0,0,0,0,0,0,103,0.451,0.528,0.323,22,53,21,0041400155,1610612745,HOU,Houston,KJ McDaniels,,DND - Nondisplaced Right Elbow Fracture ,,,,,,,,,,,,,
