GAME_ID_x,TEAM_ID_x,TEAM_ABBREVIATION_x,TEAM_CITY_x,PLAYER_ID,PLAYER_NAME_x,START_POSITION_x,COMMENT_x,MIN_x,OFF_RATING,DEF_RATING,NET_RATING,AST_PCT,AST_TOV,AST_RATIO,OREB_PCT,DREB_PCT,REB_PCT,TM_TOV_PCT,EFG_PCT,TS_PCT,USG_PCT,PACE,PIE,GAME_DATE_EST,GAME_SEQUENCE,TEAM_ABBREVIATION_y,TEAM_CITY_NAME,TEAM_WINS_LOSSES,PTS_QTR1,PTS_QTR2,PTS_QTR3,PTS_QTR4,PTS_OT1,PTS_OT2,PTS_OT3,PTS_OT4,PTS_OT5,PTS_OT6,PTS_OT7,PTS_OT8,PTS_OT9,PTS_OT10,PTS,FG_PCT,FT_PCT,FG3_PCT,AST,REB,TOV,GAME_ID_y,TEAM_ID_y,TEAM_ABBREVIATION,TEAM_CITY_y,PLAYER_NAME_y,START_POSITION_y,COMMENT_y,MIN_y,PTS_OFF_TOV,PTS_2ND_CHANCE,PTS_FB,PTS_PAINT,OPP_PTS_OFF_TOV,OPP_PTS_2ND_CHANCE,OPP_PTS_FB,OPP_PTS_PAINT,BLK,BLKA,PF,PFD
0041400126,1610612741,CHI,Chicago,2399,Mike Dunleavy,F,,28:05,121.3,76.2,45.1,0.227,1.67,28.3,0.0,0.16,0.08,17.0,1.0,1.037,0.197,100.74,0.203,2015-04-30T00:00:00,2,CHI,Chicago,4-2,34,31,26,29,0,0,0,0,0,0,0,0,0,0,120,0.511,0.813,0.5,31,50,12,0041400126,1610612741,CHI,Chicago,Mike Dunleavy,F,,28:05,0,3,4,0,4,4,6,18,0,0,3,3
0041400126,1610612741,CHI,Chicago,2200,Pau Gasol,F,,30:25,117.9,77.8,40.1,0.095,2.0,11.6,0.074,0.231,0.151,5.8,0.667,0.669,0.214,100.9,0.177,2015-04-30T00:00:00,2,CHI,Chicago,4-2,34,31,26,29,0,0,0,0,0,0,0,0,0,0,120,0.511,0.813,0.5,31,50,12,0041400126,1610612741,CHI,Chicago,Pau Gasol,F,,30:25,2,4,5,12,4,4,6,18,1,0,1,3
0041400126,1610612741,CHI,Chicago,201149,Joakim Noah,C,,25:20,128.9,54.7,74.2,0.095,0.0,20.2,0.176,0.333,0.263,0.0,0.714,0.698,0.147,92.05,0.216,2015-04-30T00:00:00,2,CHI,Chicago,4-2,34,31,26,29,0,0,0,0,0,0,0,0,0,0,120,0.511,0.813,0.5,31,50,12,0041400126,1610612741,CHI,Chicago,Joakim Noah,C,,25:20,5,2,0,10,0,0,0,6,0,0,3,2
0041400126,1610612741,CHI,Chicago,202710,Jimmy Butler,G,,31:41,121.2,59.9,61.4,0.2,1.67,22.7,0.038,0.036,0.037,13.6,0.571,0.571,0.229,100.57,0.157,2015-04-30T00:00:00,2,CHI,Chicago,4-2,34,31,26,29,0,0,0,0,0,0,0,0,0,0,120,0.511,0.813,0.5,31,50,12,0041400126,1610612741,CHI,Chicago,Jimmy Butler,G,,31:41,4,0,4,8,4,2,0,10,0,1,0,1
0041400126,1610612741,CHI,Chicago,201565,Derrick Rose,G,,24:52,126.3,53.8,72.5,0.368,3.5,30.4,0.0,0.217,0.114,8.7,0.536,0.536,0.272,100.38,0.222,2015-04-30T00:00:00,2,CHI,Chicago,4-2,34,31,26,29,0,0,0,0,0,0,0,0,0,0,120,0.511,0.813,0.5,31,50,12,0041400126,1610612741,CHI,Chicago,Derrick Rose,G,,24:52,5,0,0,6,1,2,0,8,0,1,1,3
0041400126,1610612741,CHI,Chicago,201959,Taj Gibson,,,25:56,106.5,88.5,18.0,0.167,1.5,22.3,0.04,0.238,0.13,14.9,0.5,0.533,0.178,95.54,0.085,2015-04-30T00:00:00,2,CHI,Chicago,4-2,34,31,26,29,0,0,0,0,0,0,0,0,0,0,120,0.511,0.813,0.5,31,50,12,0041400126,1610612741,CHI,Chicago,Taj Gibson,,,25:56,5,0,7,8,4,4,6,16,0,1,4,2
0041400126,1610612741,CHI,Chicago,201166,Aaron Brooks,,,16:47,111.0,100.4,10.6,0.167,0.0,22.2,0.0,0.2,0.1,0.0,0.571,0.571,0.193,90.38,0.14,2015-04-30T00:00:00,2,CHI,Chicago,4-2,34,31,26,29,0,0,0,0,0,0,0,0,0,0,120,0.511,0.813,0.5,31,50,12,0041400126,1610612741,CHI,Chicago,Aaron Brooks,,,16:47,2,0,0,0,0,2,6,10,0,1,0,0
0041400126,1610612741,CHI,Chicago,2550,Kirk Hinrich,,,20:13,102.8,102.1,0.7,0.188,0.0,37.5,0.0,0.077,0.033,0.0,0.5,0.5,0.114,92.69,0.069,2015-04-30T00:00:00,2,CHI,Chicago,4-2,34,31,26,29,0,0,0,0,0,0,0,0,0,0,120,0.511,0.813,0.5,31,50,12,0041400126,1610612741,CHI,Chicago,Kirk Hinrich,,,20:13,0,2,0,2,3,2,6,12,0,0,1,1
0041400126,1610612741,CHI,Chicago,202703,Nikola Mirotic,,,7:37,138.5,60.5,78.1,0.143,0.0,25.0,0.125,0.2,0.174,0.0,0.333,0.333,0.159,96.92,0.173,2015-04-30T00:00:00,2,CHI,Chicago,4-2,34,31,26,29,0,0,0,0,0,0,0,0,0,0,120,0.511,0.813,0.5,31,50,12,0041400126,1610612741,CHI,Chicago,Nikola Mirotic,,,7:37,0,0,0,0,0,1,0,0,0,0,0,0
0041400126,1610612741,CHI,Chicago,203503,Tony Snell,,,12:00,138.9,70.4,68.5,0.111,0.0,16.7,0.0,0.111,0.071,0.0,0.5,0.5,0.201,81.52,0.135,2015-04-30T00:00:00,2,CHI,Chicago,4-2,34,31,26,29,0,0,0,0,0,0,0,0,0,0,120,0.511,0.813,0.5,31,50,12,0041400126,1610612741,CHI,Chicago,Tony Snell,,,12:00,0,3,0,2,0,1,0,2,0,0,0,1
0041400126,1610612741,CHI,Chicago,1737,Nazr Mohammed,,,6:42,147.5,38.8,108.7,0.0,0.0,0.0,0.143,0.0,0.045,0.0,0.333,0.333,0.189,92.27,0.056,2015-04-30T00:00:00,2,CHI,Chicago,4-2,34,31,26,29,0,0,0,0,0,0,0,0,0,0,120,0.511,0.813,0.5,31,50,12,0041400126,1610612741,CHI,Chicago,Nazr Mohammed,,,6:42,0,2,0,2,0,1,0,0,1,0,0,0
0041400126,1610612741,CHI,Chicago,203926,Doug McDermott,,,6:05,143.1,25.3,117.8,0.0,0.0,0.0,0.143,0.0,0.045,20.5,0.5,0.644,0.328,93.74,0.179,2015-04-30T00:00:00,2,CHI,Chicago,4-2,34,31,26,29,0,0,0,0,0,0,0,0,0,0,120,0.511,0.813,0.5,31,50,12,0041400126,1610612741,CHI,Chicago,Doug McDermott,,,6:05,0,3,2,0,0,1,0,0,0,0,0,1
0041400126,1610612741,CHI,Chicago,202734,E'Twaun Moore,,,4:17,139.6,33.8,105.8,0.0,0.0,0.0,0.0,0.3,0.2,0.0,0.75,0.75,0.202,93.91,0.421,2015-04-30T00:00:00,2,CHI,Chicago,4-2,34,31,26,29,0,0,0,0,0,0,0,0,0,0,120,0.511,0.813,0.5,31,50,12,0041400126,1610612741,CHI,Chicago,E'Twaun Moore,,,4:17,0,3,0,0,0,1,0,0,0,0,1,0
0041400126,1610612749,MIL,Milwaukee,203507,Giannis Antetokounmpo,F,,15:14,81.0,136.7,-55.8,0.25,1.0,18.4,0.0,0.214,0.103,18.4,0.333,0.363,0.29,99.7,0.034,2015-04-30T00:00:00,2,MIL,Milwaukee,2-4,16,17,19,14,0,0,0,0,0,0,0,0,0,0,66,0.329,0.632,0.211,17,41,18,0041400126,1610612749,MIL,Milwaukee,Giannis Antetokounmpo,F,,15:14,0,0,0,4,7,7,15,16,1,0,1,2
0041400126,1610612749,MIL,Milwaukee,101141,Ersan Ilyasova,F,,17:26,72.7,145.3,-72.7,0.0,0.0,0.0,0.063,0.143,0.1,0.0,0.5,0.509,0.194,99.45,0.059,2015-04-30T00:00:00,2,MIL,Milwaukee,2-4,16,17,19,14,0,0,0,0,0,0,0,0,0,0,66,0.329,0.632,0.211,17,41,18,0041400126,1610612749,MIL,Milwaukee,Ersan Ilyasova,F,,17:26,1,2,0,4,8,5,16,18,0,0,1,1
0041400126,1610612749,MIL,Milwaukee,2585,Zaza Pachulia,C,,17:33,78.1,132.8,-54.7,0.143,0.5,11.4,0.0,0.214,0.097,22.8,0.5,0.694,0.226,98.02,0.099,2015-04-30T00:00:00,2,MIL,Milwaukee,2-4,16,17,19,14,0,0,0,0,0,0,0,0,0,0,66,0.329,0.632,0.211,17,41,18,0041400126,1610612749,MIL,Milwaukee,Zaza Pachulia,C,,17:33,0,0,0,0,7,5,13,16,0,0,1,2
0041400126,1610612749,MIL,Milwaukee,203114,Khris Middleton,G,,26:09,53.8,122.3,-68.5,0.143,0.33,8.4,0.0,0.136,0.067,25.3,0.286,0.381,0.205,99.52,-0.026,2015-04-30T00:00:00,2,MIL,Milwaukee,2-4,16,17,19,14,0,0,0,0,0,0,0,0,0,0,66,0.329,0.632,0.211,17,41,18,0041400126,1610612749,MIL,Milwaukee,Khris Middleton,G,,26:09,0,0,0,0,16,5,12,26,0,0,4,1
0041400126,1610612749,MIL,Milwaukee,203487,Michael Carter-Williams,G,,17:33,47.0,128.7,-81.7,0.333,0.5,10.1,0.0,0.235,0.118,20.2,0.167,0.218,0.239,104.7,-0.01,2015-04-30T00:00:00,2,MIL,Milwaukee,2-4,16,17,19,14,0,0,0,0,0,0,0,0,0,0,66,0.329,0.632,0.211,17,41,18,0041400126,1610612749,MIL,Milwaukee,Michael Carter-Williams,G,,17:33,0,0,0,0,12,5,10,18,1,0,1,2
0041400126,1610612749,MIL,Milwaukee,201573,Jerryd Bayless,,,32:01,89.9,114.1,-24.3,0.238,2.5,36.0,0.031,0.111,0.068,14.4,0.5,0.509,0.13,92.32,0.075,2015-04-30T00:00:00,2,MIL,Milwaukee,2-4,16,17,19,14,0,0,0,0,0,0,0,0,0,0,66,0.329,0.632,0.211,17,41,18,0041400126,1610612749,MIL,Milwaukee,Jerryd Bayless,,,32:01,0,0,3,0,11,17,13,32,1,0,1,1
0041400126,1610612749,MIL,Milwaukee,201564,O.J. Mayo,,,24:40,63.5,107.8,-44.3,0.1,0.5,9.1,0.0,0.095,0.049,18.2,0.25,0.25,0.189,101.11,-0.055,2015-04-30T00:00:00,2,MIL,Milwaukee,2-4,16,17,19,14,0,0,0,0,0,0,0,0,0,0,66,0.329,0.632,0.211,17,41,18,0041400126,1610612749,MIL,Milwaukee,O.J. Mayo,,,24:40,0,0,0,2,19,6,10,36,0,0,3,0
0041400126,1610612749,MIL,Milwaukee,203089,John Henson,,,14:04,40.3,110.4,-70.1,0.0,0.0,0.0,0.0,0.154,0.087,34.0,0.667,0.515,0.198,101.76,0.0,2015-04-30T00:00:00,2,MIL,Milwaukee,2-4,16,17,19,14,0,0,0,0,0,0,0,0,0,0,66,0.329,0.632,0.211,17,41,18,0041400126,1610612749,MIL,Milwaukee,John Henson,,,14:04,0,0,0,4,14,4,5,20,0,0,1,2
0041400126,1610612749,MIL,Milwaukee,201162,Jared Dudley,,,18:34,69.1,89.3,-20.2,0.125,0.5,15.5,0.0,0.167,0.091,31.1,0.833,0.872,0.136,102.64,0.182,2015-04-30T00:00:00,2,MIL,Milwaukee,2-4,16,17,19,14,0,0,0,0,0,0,0,0,0,0,66,0.329,0.632,0.211,17,41,18,0041400126,1610612749,MIL,Milwaukee,Jared Dudley,,,18:34,3,0,0,2,13,4,4,24,0,1,0,2
0041400126,1610612749,MIL,Milwaukee,203898,Tyler Ennis,,,16:23,92.3,117.0,-24.7,0.333,0.0,25.0,0.136,0.067,0.108,0.0,0.278,0.278,0.235,89.48,0.042,2015-04-30T00:00:00,2,MIL,Milwaukee,2-4,16,17,19,14,0,0,0,0,0,0,0,0,0,0,66,0.329,0.632,0.211,17,41,18,0041400126,1610612749,MIL,Milwaukee,Tyler Ennis,,,16:23,0,0,3,0,2,13,4,14,0,0,1,0
0041400126,1610612749,MIL,Milwaukee,203101,Miles Plumlee,,,16:23,92.3,117.0,-24.7,0.1,1.0,9.2,0.136,0.2,0.162,9.2,0.125,0.169,0.258,89.48,-0.017,2015-04-30T00:00:00,2,MIL,Milwaukee,2-4,16,17,19,14,0,0,0,0,0,0,0,0,0,0,66,0.329,0.632,0.211,17,41,18,0041400126,1610612749,MIL,Milwaukee,Miles Plumlee,,,16:23,0,3,0,2,2,13,4,14,1,0,1,1
0041400126,1610612749,MIL,Milwaukee,203948,Johnny O'Bryant III,,,12:00,70.4,138.9,-68.5,0.0,0.0,0.0,0.056,0.2,0.107,0.0,0.375,0.375,0.298,81.52,0.068,2015-04-30T00:00:00,2,MIL,Milwaukee,2-4,16,17,19,14,0,0,0,0,0,0,0,0,0,0,66,0.329,0.632,0.211,17,41,18,0041400126,1610612749,MIL,Milwaukee,Johnny O'Bryant III,,,12:00,0,0,0,0,2,13,2,8,0,1,1,0
0041400126,1610612749,MIL,Milwaukee,203268,Jorge Gutierrez,,,12:00,70.4,138.9,-68.5,0.2,0.0,33.3,0.0,0.1,0.036,0.0,0.5,0.5,0.074,81.52,0.054,2015-04-30T00:00:00,2,MIL,Milwaukee,2-4,16,17,19,14,0,0,0,0,0,0,0,0,0,0,66,0.329,0.632,0.211,17,41,18,0041400126,1610612749,MIL,Milwaukee,Jorge Gutierrez,,,12:00,0,0,0,2,2,13,2,8,0,0,1,0
