GAME_ID_x,TEAM_ID_x,TEAM_ABBREVIATION_x,TEAM_CITY_x,PLAYER_ID,PLAYER_NAME_x,START_POSITION_x,COMMENT_x,MIN_x,OFF_RATING,DEF_RATING,NET_RATING,AST_PCT,AST_TOV,AST_RATIO,OREB_PCT,DREB_PCT,REB_PCT,TM_TOV_PCT,EFG_PCT,TS_PCT,USG_PCT,PACE,PIE,GAME_DATE_EST,GAME_SEQUENCE,TEAM_ID_y,TEAM_ABBREVIATION_y,TEAM_CITY_NAME,TEAM_WINS_LOSSES,PTS_QTR1,PTS_QTR2,PTS_QTR3,PTS_QTR4,PTS_OT1,PTS_OT2,PTS_OT3,PTS_OT4,PTS_OT5,PTS_OT6,PTS_OT7,PTS_OT8,PTS_OT9,PTS_OT10,PTS,FG_PCT,FT_PCT,FG3_PCT,AST,REB,TOV,GAME_ID_y,TEAM_ID,TEAM_ABBREVIATION,TEAM_CITY_y,PLAYER_NAME_y,START_POSITION_y,COMMENT_y,MIN_y,PTS_OFF_TOV,PTS_2ND_CHANCE,PTS_FB,PTS_PAINT,OPP_PTS_OFF_TOV,OPP_PTS_2ND_CHANCE,OPP_PTS_FB,OPP_PTS_PAINT,BLK,BLKA,PF,PFD
0021300795,1610612766,CHA,Charlotte,203077,Michael Kidd-Gilchrist,F,,19:57,120.2,92.1,28.1,0.0,0.0,0.0,0.077,0.167,0.135,0.0,0.667,0.537,0.166,95.71,0.037,2014-02-18T00:00:00,4,1610612766,CHA,Charlotte,24-30,32,22,25,29,0,0,0,0,0,0,0,0,0,0,108,0.52,0.622,0.412,25,43,7,0021300795,1610612766,CHA,Charlotte,Michael Kidd-Gilchrist,F,,19:57,0.0,0.0,2.0,4.0,4.0,5.0,2.0,20.0,0.0,0.0,4.0,5.0
0021300795,1610612766,CHA,Charlotte,203077,Michael Kidd-Gilchrist,F,,19:57,120.2,92.1,28.1,0.0,0.0,0.0,0.077,0.167,0.135,0.0,0.667,0.537,0.166,95.71,0.037,2014-02-18T00:00:00,4,1610612765,DET,Detroit,22-31,21,22,24,29,0,0,0,0,0,0,0,0,0,0,96,0.398,0.565,0.313,20,52,7,0021300795,1610612766,CHA,Charlotte,Michael Kidd-Gilchrist,F,,19:57,0.0,0.0,2.0,4.0,4.0,5.0,2.0,20.0,0.0,0.0,4.0,5.0
0021300795,1610612766,CHA,Charlotte,201177,Josh McRoberts,F,,32:35,129.1,90.8,38.3,0.125,0.0,27.1,0.04,0.237,0.159,0.0,0.9,0.866,0.131,93.38,0.185,2014-02-18T00:00:00,4,1610612766,CHA,Charlotte,24-30,32,22,25,29,0,0,0,0,0,0,0,0,0,0,108,0.52,0.622,0.412,25,43,7,0021300795,1610612766,CHA,Charlotte,Josh McRoberts,F,,32:35,0.0,3.0,0.0,0.0,2.0,14.0,2.0,38.0,0.0,0.0,2.0,3.0
0021300795,1610612766,CHA,Charlotte,201177,Josh McRoberts,F,,32:35,129.1,90.8,38.3,0.125,0.0,27.1,0.04,0.237,0.159,0.0,0.9,0.866,0.131,93.38,0.185,2014-02-18T00:00:00,4,1610612765,DET,Detroit,22-31,21,22,24,29,0,0,0,0,0,0,0,0,0,0,96,0.398,0.565,0.313,20,52,7,0021300795,1610612766,CHA,Charlotte,Josh McRoberts,F,,32:35,0.0,3.0,0.0,0.0,2.0,14.0,2.0,38.0,0.0,0.0,2.0,3.0
0021300795,1610612766,CHA,Charlotte,2744,Al Jefferson,C,,37:56,119.3,100.3,19.0,0.389,7.0,18.8,0.0,0.293,0.174,2.7,0.536,0.546,0.387,98.22,0.233,2014-02-18T00:00:00,4,1610612766,CHA,Charlotte,24-30,32,22,25,29,0,0,0,0,0,0,0,0,0,0,108,0.52,0.622,0.412,25,43,7,0021300795,1610612766,CHA,Charlotte,Al Jefferson,C,,37:56,4.0,2.0,0.0,26.0,6.0,15.0,8.0,42.0,0.0,1.0,2.0,3.0
0021300795,1610612766,CHA,Charlotte,2744,Al Jefferson,C,,37:56,119.3,100.3,19.0,0.389,7.0,18.8,0.0,0.293,0.174,2.7,0.536,0.546,0.387,98.22,0.233,2014-02-18T00:00:00,4,1610612765,DET,Detroit,22-31,21,22,24,29,0,0,0,0,0,0,0,0,0,0,96,0.398,0.565,0.313,20,52,7,0021300795,1610612766,CHA,Charlotte,Al Jefferson,C,,37:56,4.0,2.0,0.0,26.0,6.0,15.0,8.0,42.0,0.0,1.0,2.0,3.0
0021300795,1610612766,CHA,Charlotte,201945,Gerald Henderson,G,,32:03,125.0,92.2,32.8,0.28,7.0,39.7,0.0,0.028,0.017,5.7,0.429,0.622,0.172,94.47,0.116,2014-02-18T00:00:00,4,1610612766,CHA,Charlotte,24-30,32,22,25,29,0,0,0,0,0,0,0,0,0,0,108,0.52,0.622,0.412,25,43,7,0021300795,1610612766,CHA,Charlotte,Gerald Henderson,G,,32:03,2.0,0.0,2.0,2.0,4.0,11.0,4.0,32.0,0.0,0.0,2.0,4.0
0021300795,1610612766,CHA,Charlotte,201945,Gerald Henderson,G,,32:03,125.0,92.2,32.8,0.28,7.0,39.7,0.0,0.028,0.017,5.7,0.429,0.622,0.172,94.47,0.116,2014-02-18T00:00:00,4,1610612765,DET,Detroit,22-31,21,22,24,29,0,0,0,0,0,0,0,0,0,0,96,0.398,0.565,0.313,20,52,7,0021300795,1610612766,CHA,Charlotte,Gerald Henderson,G,,32:03,2.0,0.0,2.0,2.0,4.0,11.0,4.0,32.0,0.0,0.0,2.0,4.0
0021300795,1610612766,CHA,Charlotte,202689,Kemba Walker,G,,42:43,116.2,97.6,18.6,0.214,2.0,22.4,0.0,0.08,0.048,11.2,0.594,0.619,0.235,98.01,0.105,2014-02-18T00:00:00,4,1610612766,CHA,Charlotte,24-30,32,22,25,29,0,0,0,0,0,0,0,0,0,0,108,0.52,0.622,0.412,25,43,7,0021300795,1610612766,CHA,Charlotte,Kemba Walker,G,,42:43,3.0,2.0,2.0,8.0,6.0,15.0,8.0,48.0,0.0,0.0,4.0,2.0
0021300795,1610612766,CHA,Charlotte,202689,Kemba Walker,G,,42:43,116.2,97.6,18.6,0.214,2.0,22.4,0.0,0.08,0.048,11.2,0.594,0.619,0.235,98.01,0.105,2014-02-18T00:00:00,4,1610612765,DET,Detroit,22-31,21,22,24,29,0,0,0,0,0,0,0,0,0,0,96,0.398,0.565,0.313,20,52,7,0021300795,1610612766,CHA,Charlotte,Kemba Walker,G,,42:43,3.0,2.0,2.0,8.0,6.0,15.0,8.0,48.0,0.0,0.0,4.0,2.0
0021300795,1610612766,CHA,Charlotte,201196,Ramon Sessions,,,21:14,101.8,102.5,-0.7,0.125,1.0,9.6,0.0,0.136,0.065,9.6,0.75,0.711,0.204,95.17,0.163,2014-02-18T00:00:00,4,1610612766,CHA,Charlotte,24-30,32,22,25,29,0,0,0,0,0,0,0,0,0,0,108,0.52,0.622,0.412,25,43,7,0021300795,1610612766,CHA,Charlotte,Ramon Sessions,,,21:14,4.0,2.0,2.0,10.0,2.0,12.0,4.0,28.0,0.0,0.0,1.0,1.0
0021300795,1610612766,CHA,Charlotte,201196,Ramon Sessions,,,21:14,101.8,102.5,-0.7,0.125,1.0,9.6,0.0,0.136,0.065,9.6,0.75,0.711,0.204,95.17,0.163,2014-02-18T00:00:00,4,1610612765,DET,Detroit,22-31,21,22,24,29,0,0,0,0,0,0,0,0,0,0,96,0.398,0.565,0.313,20,52,7,0021300795,1610612766,CHA,Charlotte,Ramon Sessions,,,21:14,4.0,2.0,2.0,10.0,2.0,12.0,4.0,28.0,0.0,0.0,1.0,1.0
0021300795,1610612766,CHA,Charlotte,203469,Cody Zeller,,,15:25,92.2,109.5,-17.4,0.083,1.0,17.0,0.125,0.125,0.125,17.0,0.0,0.129,0.133,102.16,-0.017,2014-02-18T00:00:00,4,1610612766,CHA,Charlotte,24-30,32,22,25,29,0,0,0,0,0,0,0,0,0,0,108,0.52,0.622,0.412,25,43,7,0021300795,1610612766,CHA,Charlotte,Cody Zeller,,,15:25,0.0,0.0,0.0,0.0,4.0,5.0,6.0,16.0,0.0,2.0,2.0,1.0
0021300795,1610612766,CHA,Charlotte,203469,Cody Zeller,,,15:25,92.2,109.5,-17.4,0.083,1.0,17.0,0.125,0.125,0.125,17.0,0.0,0.129,0.133,102.16,-0.017,2014-02-18T00:00:00,4,1610612765,DET,Detroit,22-31,21,22,24,29,0,0,0,0,0,0,0,0,0,0,96,0.398,0.565,0.313,20,52,7,0021300795,1610612766,CHA,Charlotte,Cody Zeller,,,15:25,0.0,0.0,0.0,0.0,4.0,5.0,6.0,16.0,0.0,2.0,2.0,1.0
0021300795,1610612766,CHA,Charlotte,201229,Anthony Tolliver,,,28:03,112.7,100.3,12.5,0.0,0.0,0.0,0.0,0.033,0.017,0.0,0.375,0.512,0.083,96.55,0.034,2014-02-18T00:00:00,4,1610612766,CHA,Charlotte,24-30,32,22,25,29,0,0,0,0,0,0,0,0,0,0,108,0.52,0.622,0.412,25,43,7,0021300795,1610612766,CHA,Charlotte,Anthony Tolliver,,,28:03,0.0,0.0,0.0,0.0,2.0,14.0,6.0,34.0,1.0,0.0,0.0,1.0
0021300795,1610612766,CHA,Charlotte,201229,Anthony Tolliver,,,28:03,112.7,100.3,12.5,0.0,0.0,0.0,0.0,0.033,0.017,0.0,0.375,0.512,0.083,96.55,0.034,2014-02-18T00:00:00,4,1610612765,DET,Detroit,22-31,21,22,24,29,0,0,0,0,0,0,0,0,0,0,96,0.398,0.565,0.313,20,52,7,0021300795,1610612766,CHA,Charlotte,Anthony Tolliver,,,28:03,0.0,0.0,0.0,0.0,2.0,14.0,6.0,34.0,1.0,0.0,0.0,1.0
0021300795,1610612766,CHA,Charlotte,202687,Bismack Biyombo,,,10:04,100.9,82.8,18.1,0.0,0.0,0.0,0.077,0.154,0.115,0.0,1.0,0.543,0.139,88.59,0.095,2014-02-18T00:00:00,4,1610612766,CHA,Charlotte,24-30,32,22,25,29,0,0,0,0,0,0,0,0,0,0,108,0.52,0.622,0.412,25,43,7,0021300795,1610612766,CHA,Charlotte,Bismack Biyombo,,,10:04,0.0,2.0,0.0,2.0,0.0,4.0,0.0,12.0,1.0,0.0,1.0,4.0
0021300795,1610612766,CHA,Charlotte,202687,Bismack Biyombo,,,10:04,100.9,82.8,18.1,0.0,0.0,0.0,0.077,0.154,0.115,0.0,1.0,0.543,0.139,88.59,0.095,2014-02-18T00:00:00,4,1610612765,DET,Detroit,22-31,21,22,24,29,0,0,0,0,0,0,0,0,0,0,96,0.398,0.565,0.313,20,52,7,0021300795,1610612766,CHA,Charlotte,Bismack Biyombo,,,10:04,0.0,2.0,0.0,2.0,0.0,4.0,0.0,12.0,1.0,0.0,1.0,4.0
0021300795,1610612766,CHA,Charlotte,202399,Jeff Adrien,,DNP - Coach's Decision,,,,,,,0.0,,,,,,,0.0,,,2014-02-18T00:00:00,4,1610612766,CHA,Charlotte,24-30,32,22,25,29,0,0,0,0,0,0,0,0,0,0,108,0.52,0.622,0.412,25,43,7,0021300795,1610612766,CHA,Charlotte,Jeff Adrien,,DNP - Coach's Decision,,,,,,,,,,,,,
0021300795,1610612766,CHA,Charlotte,202399,Jeff Adrien,,DNP - Coach's Decision,,,,,,,0.0,,,,,,,0.0,,,2014-02-18T00:00:00,4,1610612765,DET,Detroit,22-31,21,22,24,29,0,0,0,0,0,0,0,0,0,0,96,0.398,0.565,0.313,20,52,7,0021300795,1610612766,CHA,Charlotte,Jeff Adrien,,DNP - Coach's Decision,,,,,,,,,,,,,
0021300795,1610612766,CHA,Charlotte,201604,Chris Douglas-Roberts,,DNP - Coach's Decision,,,,,,,0.0,,,,,,,0.0,,,2014-02-18T00:00:00,4,1610612766,CHA,Charlotte,24-30,32,22,25,29,0,0,0,0,0,0,0,0,0,0,108,0.52,0.622,0.412,25,43,7,0021300795,1610612766,CHA,Charlotte,Chris Douglas-Roberts,,DNP - Coach's Decision,,,,,,,,,,,,,
0021300795,1610612766,CHA,Charlotte,201604,Chris Douglas-Roberts,,DNP - Coach's Decision,,,,,,,0.0,,,,,,,0.0,,,2014-02-18T00:00:00,4,1610612765,DET,Detroit,22-31,21,22,24,29,0,0,0,0,0,0,0,0,0,0,96,0.398,0.565,0.313,20,52,7,0021300795,1610612766,CHA,Charlotte,Chris Douglas-Roberts,,DNP - Coach's Decision,,,,,,,,,,,,,
0021300795,1610612766,CHA,Charlotte,2732,Ben Gordon,,DNP - Coach's Decision,,,,,,,0.0,,,,,,,0.0,,,2014-02-18T00:00:00,4,1610612766,CHA,Charlotte,24-30,32,22,25,29,0,0,0,0,0,0,0,0,0,0,108,0.52,0.622,0.412,25,43,7,0021300795,1610612766,CHA,Charlotte,Ben Gordon,,DNP - Coach's Decision,,,,,,,,,,,,,
0021300795,1610612766,CHA,Charlotte,2732,Ben Gordon,,DNP - Coach's Decision,,,,,,,0.0,,,,,,,0.0,,,2014-02-18T00:00:00,4,1610612765,DET,Detroit,22-31,21,22,24,29,0,0,0,0,0,0,0,0,0,0,96,0.398,0.565,0.313,20,52,7,0021300795,1610612766,CHA,Charlotte,Ben Gordon,,DNP - Coach's Decision,,,,,,,,,,,,,
0021300795,1610612766,CHA,Charlotte,2457,Jannero Pargo,,DNP - Coach's Decision,,,,,,,0.0,,,,,,,0.0,,,2014-02-18T00:00:00,4,1610612766,CHA,Charlotte,24-30,32,22,25,29,0,0,0,0,0,0,0,0,0,0,108,0.52,0.622,0.412,25,43,7,0021300795,1610612766,CHA,Charlotte,Jannero Pargo,,DNP - Coach's Decision,,,,,,,,,,,,,
0021300795,1610612766,CHA,Charlotte,2457,Jannero Pargo,,DNP - Coach's Decision,,,,,,,0.0,,,,,,,0.0,,,2014-02-18T00:00:00,4,1610612765,DET,Detroit,22-31,21,22,24,29,0,0,0,0,0,0,0,0,0,0,96,0.398,0.565,0.313,20,52,7,0021300795,1610612766,CHA,Charlotte,Jannero Pargo,,DNP - Coach's Decision,,,,,,,,,,,,,
0021300795,1610612765,DET,Detroit,2746,Josh Smith,F,,36:48,93.8,121.0,-27.2,0.042,0.5,4.4,0.071,0.296,0.159,8.8,0.294,0.305,0.249,98.73,0.011,2014-02-18T00:00:00,4,1610612766,CHA,Charlotte,24-30,32,22,25,29,0,0,0,0,0,0,0,0,0,0,108,0.52,0.622,0.412,25,43,7,0021300795,1610612765,DET,Detroit,Josh Smith,F,,36:48,0.0,5.0,0.0,10.0,10.0,7.0,8.0,46.0,0.0,0.0,3.0,4.0
0021300795,1610612765,DET,Detroit,2746,Josh Smith,F,,36:48,93.8,121.0,-27.2,0.042,0.5,4.4,0.071,0.296,0.159,8.8,0.294,0.305,0.249,98.73,0.011,2014-02-18T00:00:00,4,1610612765,DET,Detroit,22-31,21,22,24,29,0,0,0,0,0,0,0,0,0,0,96,0.398,0.565,0.313,20,52,7,0021300795,1610612765,DET,Detroit,Josh Smith,F,,36:48,0.0,5.0,0.0,10.0,10.0,7.0,8.0,46.0,0.0,0.0,3.0,4.0
0021300795,1610612765,DET,Detroit,202328,Greg Monroe,F,,36:39,94.1,110.9,-16.8,0.048,0.5,4.8,0.025,0.281,0.139,9.6,0.5,0.507,0.237,95.92,0.103,2014-02-18T00:00:00,4,1610612766,CHA,Charlotte,24-30,32,22,25,29,0,0,0,0,0,0,0,0,0,0,108,0.52,0.622,0.412,25,43,7,0021300795,1610612765,DET,Detroit,Greg Monroe,F,,36:39,0.0,2.0,0.0,16.0,13.0,9.0,8.0,40.0,1.0,0.0,4.0,5.0
0021300795,1610612765,DET,Detroit,202328,Greg Monroe,F,,36:39,94.1,110.9,-16.8,0.048,0.5,4.8,0.025,0.281,0.139,9.6,0.5,0.507,0.237,95.92,0.103,2014-02-18T00:00:00,4,1610612765,DET,Detroit,22-31,21,22,24,29,0,0,0,0,0,0,0,0,0,0,96,0.398,0.565,0.313,20,52,7,0021300795,1610612765,DET,Detroit,Greg Monroe,F,,36:39,0.0,2.0,0.0,16.0,13.0,9.0,8.0,40.0,1.0,0.0,4.0,5.0
0021300795,1610612765,DET,Detroit,203083,Andre Drummond,C,,34:12,101.9,125.4,-23.5,0.045,1.0,5.6,0.289,0.379,0.328,5.6,0.533,0.504,0.207,92.44,0.156,2014-02-18T00:00:00,4,1610612766,CHA,Charlotte,24-30,32,22,25,29,0,0,0,0,0,0,0,0,0,0,108,0.52,0.622,0.412,25,43,7,0021300795,1610612765,DET,Detroit,Andre Drummond,C,,34:12,2.0,8.0,2.0,16.0,7.0,7.0,6.0,36.0,2.0,1.0,5.0,3.0
0021300795,1610612765,DET,Detroit,203083,Andre Drummond,C,,34:12,101.9,125.4,-23.5,0.045,1.0,5.6,0.289,0.379,0.328,5.6,0.533,0.504,0.207,92.44,0.156,2014-02-18T00:00:00,4,1610612765,DET,Detroit,22-31,21,22,24,29,0,0,0,0,0,0,0,0,0,0,96,0.398,0.565,0.313,20,52,7,0021300795,1610612765,DET,Detroit,Andre Drummond,C,,34:12,2.0,8.0,2.0,16.0,7.0,7.0,6.0,36.0,2.0,1.0,5.0,3.0
0021300795,1610612765,DET,Detroit,202713,Kyle Singler,G,,39:33,100.9,116.6,-15.7,0.103,3.0,23.1,0.0,0.063,0.027,7.7,0.722,0.722,0.106,97.36,0.075,2014-02-18T00:00:00,4,1610612766,CHA,Charlotte,24-30,32,22,25,29,0,0,0,0,0,0,0,0,0,0,108,0.52,0.622,0.412,25,43,7,0021300795,1610612765,DET,Detroit,Kyle Singler,G,,39:33,2.0,0.0,2.0,2.0,11.0,7.0,6.0,40.0,0.0,0.0,5.0,0.0
0021300795,1610612765,DET,Detroit,202713,Kyle Singler,G,,39:33,100.9,116.6,-15.7,0.103,3.0,23.1,0.0,0.063,0.027,7.7,0.722,0.722,0.106,97.36,0.075,2014-02-18T00:00:00,4,1610612765,DET,Detroit,22-31,21,22,24,29,0,0,0,0,0,0,0,0,0,0,96,0.398,0.565,0.313,20,52,7,0021300795,1610612765,DET,Detroit,Kyle Singler,G,,39:33,2.0,0.0,2.0,2.0,11.0,7.0,6.0,40.0,0.0,0.0,5.0,0.0
0021300795,1610612765,DET,Detroit,201943,Brandon Jennings,G,,38:33,95.4,121.1,-25.6,0.304,7.0,23.4,0.0,0.067,0.027,3.3,0.444,0.546,0.256,97.54,0.128,2014-02-18T00:00:00,4,1610612766,CHA,Charlotte,24-30,32,22,25,29,0,0,0,0,0,0,0,0,0,0,108,0.52,0.622,0.412,25,43,7,0021300795,1610612765,DET,Detroit,Brandon Jennings,G,,38:33,2.0,2.0,2.0,2.0,10.0,9.0,8.0,48.0,0.0,0.0,2.0,4.0
0021300795,1610612765,DET,Detroit,201943,Brandon Jennings,G,,38:33,95.4,121.1,-25.6,0.304,7.0,23.4,0.0,0.067,0.027,3.3,0.444,0.546,0.256,97.54,0.128,2014-02-18T00:00:00,4,1610612765,DET,Detroit,22-31,21,22,24,29,0,0,0,0,0,0,0,0,0,0,96,0.398,0.565,0.313,20,52,7,0021300795,1610612765,DET,Detroit,Brandon Jennings,G,,38:33,2.0,2.0,2.0,2.0,10.0,9.0,8.0,48.0,0.0,0.0,2.0,4.0
0021300795,1610612765,DET,Detroit,201155,Rodney Stuckey,,,17:29,102.4,108.7,-6.3,0.071,0.0,8.3,0.0,0.158,0.083,0.0,0.091,0.091,0.261,92.3,-0.104,2014-02-18T00:00:00,4,1610612766,CHA,Charlotte,24-30,32,22,25,29,0,0,0,0,0,0,0,0,0,0,108,0.52,0.622,0.412,25,43,7,0021300795,1610612765,DET,Detroit,Rodney Stuckey,,,17:29,0.0,0.0,0.0,0.0,7.0,8.0,2.0,18.0,0.0,0.0,2.0,0.0
0021300795,1610612765,DET,Detroit,201155,Rodney Stuckey,,,17:29,102.4,108.7,-6.3,0.071,0.0,8.3,0.0,0.158,0.083,0.0,0.091,0.091,0.261,92.3,-0.104,2014-02-18T00:00:00,4,1610612765,DET,Detroit,22-31,21,22,24,29,0,0,0,0,0,0,0,0,0,0,96,0.398,0.565,0.313,20,52,7,0021300795,1610612765,DET,Detroit,Rodney Stuckey,,,17:29,0.0,0.0,0.0,0.0,7.0,8.0,2.0,18.0,0.0,0.0,2.0,0.0
0021300795,1610612765,DET,Detroit,203484,Kentavious Caldwell-Pope,,,10:20,79.5,95.4,-15.9,0.0,0.0,0.0,0.0,0.0,0.0,0.0,0.0,0.0,0.0,101.26,0.0,2014-02-18T00:00:00,4,1610612766,CHA,Charlotte,24-30,32,22,25,29,0,0,0,0,0,0,0,0,0,0,108,0.52,0.622,0.412,25,43,7,0021300795,1610612765,DET,Detroit,Kentavious Caldwell-Pope,,,10:20,0.0,0.0,0.0,0.0,4.0,2.0,2.0,12.0,0.0,0.0,0.0,0.0
0021300795,1610612765,DET,Detroit,203484,Kentavious Caldwell-Pope,,,10:20,79.5,95.4,-15.9,0.0,0.0,0.0,0.0,0.0,0.0,0.0,0.0,0.0,0.0,101.26,0.0,2014-02-18T00:00:00,4,1610612765,DET,Detroit,22-31,21,22,24,29,0,0,0,0,0,0,0,0,0,0,96,0.398,0.565,0.313,20,52,7,0021300795,1610612765,DET,Detroit,Kentavious Caldwell-Pope,,,10:20,0.0,0.0,0.0,0.0,4.0,2.0,2.0,12.0,0.0,0.0,0.0,0.0
0021300795,1610612765,DET,Detroit,201973,Jonas Jerebko,,,6:21,84.2,104.6,-20.4,0.0,0.0,0.0,0.1,0.125,0.111,0.0,0.5,0.5,0.112,84.59,0.13,2014-02-18T00:00:00,4,1610612766,CHA,Charlotte,24-30,32,22,25,29,0,0,0,0,0,0,0,0,0,0,108,0.52,0.622,0.412,25,43,7,0021300795,1610612765,DET,Detroit,Jonas Jerebko,,,6:21,0.0,2.0,0.0,2.0,0.0,4.0,0.0,6.0,0.0,0.0,1.0,0.0
0021300795,1610612765,DET,Detroit,201973,Jonas Jerebko,,,6:21,84.2,104.6,-20.4,0.0,0.0,0.0,0.1,0.125,0.111,0.0,0.5,0.5,0.112,84.59,0.13,2014-02-18T00:00:00,4,1610612765,DET,Detroit,22-31,21,22,24,29,0,0,0,0,0,0,0,0,0,0,96,0.398,0.565,0.313,20,52,7,0021300795,1610612765,DET,Detroit,Jonas Jerebko,,,6:21,0.0,2.0,0.0,2.0,0.0,4.0,0.0,6.0,0.0,0.0,1.0,0.0
0021300795,1610612765,DET,Detroit,101198,Will Bynum,,,20:05,102.1,107.7,-5.6,0.429,0.0,35.5,0.0,0.0,0.0,0.0,0.4,0.414,0.209,98.09,0.104,2014-02-18T00:00:00,4,1610612766,CHA,Charlotte,24-30,32,22,25,29,0,0,0,0,0,0,0,0,0,0,108,0.52,0.622,0.412,25,43,7,0021300795,1610612765,DET,Detroit,Will Bynum,,,20:05,0.0,0.0,2.0,6.0,3.0,2.0,0.0,14.0,0.0,1.0,2.0,2.0
0021300795,1610612765,DET,Detroit,101198,Will Bynum,,,20:05,102.1,107.7,-5.6,0.429,0.0,35.5,0.0,0.0,0.0,0.0,0.4,0.414,0.209,98.09,0.104,2014-02-18T00:00:00,4,1610612765,DET,Detroit,22-31,21,22,24,29,0,0,0,0,0,0,0,0,0,0,96,0.398,0.565,0.313,20,52,7,0021300795,1610612765,DET,Detroit,Will Bynum,,,20:05,0.0,0.0,2.0,6.0,3.0,2.0,0.0,14.0,0.0,1.0,2.0,2.0
0021300795,1610612765,DET,Detroit,203540,Gigi Datome,,DNP - Coach's Decision,,,,,,,0.0,,,,,,,0.0,,,2014-02-18T00:00:00,4,1610612766,CHA,Charlotte,24-30,32,22,25,29,0,0,0,0,0,0,0,0,0,0,108,0.52,0.622,0.412,25,43,7,0021300795,1610612765,DET,Detroit,Gigi Datome,,DNP - Coach's Decision,,,,,,,,,,,,,
0021300795,1610612765,DET,Detroit,203540,Gigi Datome,,DNP - Coach's Decision,,,,,,,0.0,,,,,,,0.0,,,2014-02-18T00:00:00,4,1610612765,DET,Detroit,22-31,21,22,24,29,0,0,0,0,0,0,0,0,0,0,96,0.398,0.565,0.313,20,52,7,0021300795,1610612765,DET,Detroit,Gigi Datome,,DNP - Coach's Decision,,,,,,,,,,,,,
0021300795,1610612765,DET,Detroit,202725,Josh Harrellson,,DNP - Coach's Decision,,,,,,,0.0,,,,,,,0.0,,,2014-02-18T00:00:00,4,1610612766,CHA,Charlotte,24-30,32,22,25,29,0,0,0,0,0,0,0,0,0,0,108,0.52,0.622,0.412,25,43,7,0021300795,1610612765,DET,Detroit,Josh Harrellson,,DNP - Coach's Decision,,,,,,,,,,,,,
0021300795,1610612765,DET,Detroit,202725,Josh Harrellson,,DNP - Coach's Decision,,,,,,,0.0,,,,,,,0.0,,,2014-02-18T00:00:00,4,1610612765,DET,Detroit,22-31,21,22,24,29,0,0,0,0,0,0,0,0,0,0,96,0.398,0.565,0.313,20,52,7,0021300795,1610612765,DET,Detroit,Josh Harrellson,,DNP - Coach's Decision,,,,,,,,,,,,,
0021300795,1610612765,DET,Detroit,203502,Tony Mitchell,,DNP - Coach's Decision,,,,,,,0.0,,,,,,,0.0,,,2014-02-18T00:00:00,4,1610612766,CHA,Charlotte,24-30,32,22,25,29,0,0,0,0,0,0,0,0,0,0,108,0.52,0.622,0.412,25,43,7,0021300795,1610612765,DET,Detroit,Tony Mitchell,,DNP - Coach's Decision,,,,,,,,,,,,,
0021300795,1610612765,DET,Detroit,203502,Tony Mitchell,,DNP - Coach's Decision,,,,,,,0.0,,,,,,,0.0,,,2014-02-18T00:00:00,4,1610612765,DET,Detroit,22-31,21,22,24,29,0,0,0,0,0,0,0,0,0,0,96,0.398,0.565,0.313,20,52,7,0021300795,1610612765,DET,Detroit,Tony Mitchell,,DNP - Coach's Decision,,,,,,,,,,,,,
0021300795,1610612765,DET,Detroit,203491,Peyton Siva,,DNP - Coach's Decision,,,,,,,0.0,,,,,,,0.0,,,2014-02-18T00:00:00,4,1610612766,CHA,Charlotte,24-30,32,22,25,29,0,0,0,0,0,0,0,0,0,0,108,0.52,0.622,0.412,25,43,7,0021300795,1610612765,DET,Detroit,Peyton Siva,,DNP - Coach's Decision,,,,,,,,,,,,,
0021300795,1610612765,DET,Detroit,203491,Peyton Siva,,DNP - Coach's Decision,,,,,,,0.0,,,,,,,0.0,,,2014-02-18T00:00:00,4,1610612765,DET,Detroit,22-31,21,22,24,29,0,0,0,0,0,0,0,0,0,0,96,0.398,0.565,0.313,20,52,7,0021300795,1610612765,DET,Detroit,Peyton Siva,,DNP - Coach's Decision,,,,,,,,,,,,,
