GAME_ID_x,TEAM_ID_x,TEAM_ABBREVIATION_x,TEAM_CITY_x,PLAYER_ID,PLAYER_NAME_x,START_POSITION_x,COMMENT_x,MIN_x,OFF_RATING,DEF_RATING,NET_RATING,AST_PCT,AST_TOV,AST_RATIO,OREB_PCT,DREB_PCT,REB_PCT,TM_TOV_PCT,EFG_PCT,TS_PCT,USG_PCT,PACE,PIE,GAME_DATE_EST,GAME_SEQUENCE,TEAM_ABBREVIATION_y,TEAM_CITY_NAME,TEAM_WINS_LOSSES,PTS_QTR1,PTS_QTR2,PTS_QTR3,PTS_QTR4,PTS_OT1,PTS_OT2,PTS_OT3,PTS_OT4,PTS_OT5,PTS_OT6,PTS_OT7,PTS_OT8,PTS_OT9,PTS_OT10,PTS,FG_PCT,FT_PCT,FG3_PCT,AST,REB,TOV,GAME_ID_y,TEAM_ID_y,TEAM_ABBREVIATION,TEAM_CITY_y,PLAYER_NAME_y,START_POSITION_y,COMMENT_y,MIN_y,PTS_OFF_TOV,PTS_2ND_CHANCE,PTS_FB,PTS_PAINT,OPP_PTS_OFF_TOV,OPP_PTS_2ND_CHANCE,OPP_PTS_FB,OPP_PTS_PAINT,BLK,BLKA,PF,PFD
0041400232,1610612746,LAC,Los Angeles,2440,Matt Barnes,F,,33:56,98.4,112.3,-13.9,0.227,5.0,36.0,0.0,0.171,0.088,7.2,0.286,0.381,0.12,103.12,0.071,2015-05-06T00:00:00,2,LAC,Los Angeles,1-1,24,41,20,24,0,0,0,0,0,0,0,0,0,0,109,0.453,0.781,0.24,20,40,11,0041400232,1610612746,LAC,Los Angeles,Matt Barnes,F,,33:56,2.0,0.0,2.0,2.0,13.0,14.0,11.0,38.0,0.0,0.0,6.0,2.0
0041400232,1610612746,LAC,Los Angeles,201933,Blake Griffin,F,,41:19,104.3,113.2,-8.9,0.182,1.33,11.5,0.0,0.385,0.192,8.6,0.565,0.611,0.315,106.28,0.249,2015-05-06T00:00:00,2,LAC,Los Angeles,1-1,24,41,20,24,0,0,0,0,0,0,0,0,0,0,109,0.453,0.781,0.24,20,40,11,0041400232,1610612746,LAC,Los Angeles,Blake Griffin,F,,41:19,8.0,2.0,10.0,22.0,18.0,14.0,11.0,46.0,1.0,3.0,4.0,10.0
0041400232,1610612746,LAC,Los Angeles,201599,DeAndre Jordan,C,,25:06,117.8,106.0,11.8,0.0,0.0,0.0,0.211,0.381,0.3,10.4,1.0,0.926,0.176,100.11,0.268,2015-05-06T00:00:00,2,LAC,Los Angeles,1-1,24,41,20,24,0,0,0,0,0,0,0,0,0,0,109,0.453,0.781,0.24,20,40,11,0041400232,1610612746,LAC,Los Angeles,DeAndre Jordan,C,,25:06,2.0,8.0,2.0,12.0,15.0,7.0,7.0,22.0,2.0,0.0,4.0,3.0
0041400232,1610612746,LAC,Los Angeles,200755,JJ Redick,G,,46:09,101.8,104.5,-2.7,0.057,1.0,12.7,0.0,0.0,0.0,12.7,0.4,0.51,0.127,106.4,0.0,2015-05-06T00:00:00,2,LAC,Los Angeles,1-1,24,41,20,24,0,0,0,0,0,0,0,0,0,0,109,0.453,0.781,0.24,20,40,11,0041400232,1610612746,LAC,Los Angeles,JJ Redick,G,,46:09,3.0,0.0,0.0,2.0,20.0,12.0,13.0,48.0,0.0,0.0,5.0,3.0
0041400232,1610612746,LAC,Los Angeles,203085,Austin Rivers,G,,25:23,95.2,95.8,-0.6,0.154,2.0,15.5,0.0,0.0,0.0,7.8,0.5,0.506,0.196,99.98,0.0,2015-05-06T00:00:00,2,LAC,Los Angeles,1-1,24,41,20,24,0,0,0,0,0,0,0,0,0,0,109,0.453,0.781,0.24,20,40,11,0041400232,1610612746,LAC,Los Angeles,Austin Rivers,G,,25:23,0.0,0.0,3.0,6.0,11.0,11.0,4.0,26.0,0.0,2.0,5.0,3.0
0041400232,1610612746,LAC,Los Angeles,201175,Glen Davis,,,14:20,95.6,122.0,-26.4,0.0,0.0,0.0,0.0,0.118,0.059,0.0,0.5,0.5,0.113,114.06,0.032,2015-05-06T00:00:00,2,LAC,Los Angeles,1-1,24,41,20,24,0,0,0,0,0,0,0,0,0,0,109,0.453,0.781,0.24,20,40,11,0041400232,1610612746,LAC,Los Angeles,Glen Davis,,,14:20,0.0,0.0,0.0,0.0,0.0,3.0,7.0,24.0,0.0,1.0,3.0,1.0
0041400232,1610612746,LAC,Los Angeles,2037,Jamal Crawford,,,35:57,107.2,111.4,-4.1,0.192,0.0,16.6,0.059,0.075,0.068,0.0,0.295,0.379,0.288,108.76,0.065,2015-05-06T00:00:00,2,LAC,Los Angeles,1-1,24,41,20,24,0,0,0,0,0,0,0,0,0,0,109,0.453,0.781,0.24,20,40,11,0041400232,1610612746,LAC,Los Angeles,Jamal Crawford,,,35:57,0.0,0.0,2.0,6.0,16.0,9.0,12.0,40.0,0.0,3.0,3.0,4.0
0041400232,1610612746,LAC,Los Angeles,2045,Hedo Turkoglu,,,7:11,71.4,83.5,-12.1,0.0,0.0,0.0,0.0,0.0,0.0,33.3,0.75,0.75,0.165,120.81,-0.108,2015-05-06T00:00:00,2,LAC,Los Angeles,1-1,24,41,20,24,0,0,0,0,0,0,0,0,0,0,109,0.453,0.781,0.24,20,40,11,0041400232,1610612746,LAC,Los Angeles,Hedo Turkoglu,,,7:11,0.0,0.0,0.0,0.0,3.0,0.0,7.0,6.0,0.0,0.0,4.0,1.0
0041400232,1610612746,LAC,Los Angeles,201991,Lester Hudson,,,10:31,118.7,94.0,24.7,0.222,1.0,28.6,0.0,0.0,0.0,28.6,0.833,0.833,0.179,117.39,0.037,2015-05-06T00:00:00,2,LAC,Los Angeles,1-1,24,41,20,24,0,0,0,0,0,0,0,0,0,0,109,0.453,0.781,0.24,20,40,11,0041400232,1610612746,LAC,Los Angeles,Lester Hudson,,,10:31,0.0,0.0,0.0,0.0,4.0,0.0,6.0,8.0,1.0,1.0,4.0,0.0
0041400232,1610612746,LAC,Los Angeles,2563,Dahntay Jones,,,0:06,0.0,200.0,-200.0,0.0,0.0,0.0,0.0,0.0,0.0,0.0,0.0,0.0,0.0,480.0,0.0,2015-05-06T00:00:00,2,LAC,Los Angeles,1-1,24,41,20,24,0,0,0,0,0,0,0,0,0,0,109,0.453,0.781,0.24,20,40,11,0041400232,1610612746,LAC,Los Angeles,Dahntay Jones,,,0:06,0.0,0.0,0.0,0.0,0.0,0.0,2.0,2.0,0.0,0.0,0.0,0.0
0041400232,1610612746,LAC,Los Angeles,202327,Ekpe Udoh,,,0:02,0.0,56.8,-56.8,0.0,0.0,0.0,0.0,0.0,0.0,0.0,0.0,0.0,0.0,1267.2,0.5,2015-05-06T00:00:00,2,LAC,Los Angeles,1-1,24,41,20,24,0,0,0,0,0,0,0,0,0,0,109,0.453,0.781,0.24,20,40,11,0041400232,1610612746,LAC,Los Angeles,Ekpe Udoh,,,0:02,0.0,0.0,0.0,0.0,0.0,0.0,0.0,0.0,0.0,0.0,2.0,0.0
0041400232,1610612746,LAC,Los Angeles,202706,Jordan Hamilton,,DNP - Coach's Decision                  ,,,,,,,0.0,,,,,,,0.0,,,2015-05-06T00:00:00,2,LAC,Los Angeles,1-1,24,41,20,24,0,0,0,0,0,0,0,0,0,0,109,0.453,0.781,0.24,20,40,11,0041400232,1610612746,LAC,Los Angeles,Jordan Hamilton,,DNP - Coach's Decision                  ,,,,,,,,,,,,,
0041400232,1610612746,LAC,Los Angeles,201150,Spencer Hawes,,DNP - Coach's Decision                  ,,,,,,,0.0,,,,,,,0.0,,,2015-05-06T00:00:00,2,LAC,Los Angeles,1-1,24,41,20,24,0,0,0,0,0,0,0,0,0,0,109,0.453,0.781,0.24,20,40,11,0041400232,1610612746,LAC,Los Angeles,Spencer Hawes,,DNP - Coach's Decision                  ,,,,,,,,,,,,,
0041400232,1610612745,HOU,Houston,2772,Trevor Ariza,F,,44:52,108.0,109.0,-0.9,0.071,2.0,11.1,0.07,0.25,0.157,5.5,0.375,0.497,0.147,104.52,0.102,2015-05-06T00:00:00,2,HOU,Houston,1-1,35,21,27,32,0,0,0,0,0,0,0,0,0,0,115,0.425,0.656,0.192,20,54,14,0041400232,1610612745,HOU,Houston,Trevor Ariza,F,,44:52,8.0,4.0,0.0,6.0,15.0,10.0,19.0,50.0,0.0,0.0,4.0,3.0
0041400232,1610612745,HOU,Houston,203093,Terrence Jones,F,,26:55,98.7,92.9,5.7,0.1,0.5,7.2,0.103,0.192,0.145,14.4,0.4,0.46,0.185,104.19,0.134,2015-05-06T00:00:00,2,HOU,Houston,1-1,35,21,27,32,0,0,0,0,0,0,0,0,0,0,115,0.425,0.656,0.192,20,54,14,0041400232,1610612745,HOU,Houston,Terrence Jones,F,,26:55,6.0,0.0,4.0,8.0,11.0,4.0,10.0,30.0,3.0,1.0,4.0,1.0
0041400232,1610612745,HOU,Houston,2730,Dwight Howard,C,,35:24,117.1,116.9,0.2,0.15,3.0,12.4,0.125,0.414,0.262,4.1,0.727,0.593,0.242,106.01,0.165,2015-05-06T00:00:00,2,HOU,Houston,1-1,35,21,27,32,0,0,0,0,0,0,0,0,0,0,115,0.425,0.656,0.192,20,54,14,0041400232,1610612745,HOU,Houston,Dwight Howard,C,,35:24,4.0,4.0,0.0,16.0,15.0,8.0,17.0,42.0,4.0,2.0,4.0,14.0
0041400232,1610612745,HOU,Houston,201935,James Harden,G,,35:03,107.8,95.4,12.5,0.368,1.0,18.6,0.028,0.061,0.043,18.6,0.5,0.678,0.327,107.67,0.214,2015-05-06T00:00:00,2,HOU,Houston,1-1,35,21,27,32,0,0,0,0,0,0,0,0,0,0,115,0.425,0.656,0.192,20,54,14,0041400232,1610612745,HOU,Houston,James Harden,G,,35:03,0.0,4.0,4.0,8.0,11.0,6.0,11.0,32.0,1.0,0.0,4.0,9.0
0041400232,1610612745,HOU,Houston,1891,Jason Terry,G,,28:05,101.0,95.5,5.5,0.067,1.0,9.8,0.0,0.111,0.057,9.8,0.5,0.61,0.131,105.19,0.127,2015-05-06T00:00:00,2,HOU,Houston,1-1,35,21,27,32,0,0,0,0,0,0,0,0,0,0,115,0.425,0.656,0.192,20,54,14,0041400232,1610612745,HOU,Houston,Jason Terry,G,,28:05,2.0,0.0,0.0,4.0,11.0,8.0,8.0,32.0,0.0,0.0,1.0,3.0
0041400232,1610612745,HOU,Houston,2746,Josh Smith,,,16:39,104.6,111.7,-7.1,0.077,0.0,7.9,0.105,0.222,0.162,0.0,0.333,0.344,0.252,115.95,0.039,2015-05-06T00:00:00,2,HOU,Houston,1-1,35,21,27,32,0,0,0,0,0,0,0,0,0,0,115,0.425,0.656,0.192,20,54,14,0041400232,1610612745,HOU,Houston,Josh Smith,,,16:39,0.0,2.0,3.0,4.0,4.0,6.0,8.0,20.0,2.0,1.0,2.0,3.0
0041400232,1610612745,HOU,Houston,203143,Pablo Prigioni,,,19:52,113.8,110.5,3.4,0.267,4.0,40.5,0.0,0.0,0.0,10.1,0.375,0.512,0.115,106.62,0.013,2015-05-06T00:00:00,2,HOU,Houston,1-1,35,21,27,32,0,0,0,0,0,0,0,0,0,0,115,0.425,0.656,0.192,20,54,14,0041400232,1610612745,HOU,Houston,Pablo Prigioni,,,19:52,0.0,0.0,0.0,0.0,4.0,2.0,11.0,16.0,0.0,0.0,4.0,2.0
0041400232,1610612745,HOU,Houston,203991,Clint Capela,,,3:17,63.5,88.8,-25.3,0.0,0.0,0.0,0.333,0.667,0.5,0.0,0.0,0.0,0.0,107.01,0.429,2015-05-06T00:00:00,2,HOU,Houston,1-1,35,21,27,32,0,0,0,0,0,0,0,0,0,0,115,0.425,0.656,0.192,20,54,14,0041400232,1610612745,HOU,Houston,Clint Capela,,,3:17,0.0,0.0,0.0,0.0,0.0,2.0,0.0,2.0,0.0,0.0,1.0,0.0
0041400232,1610612745,HOU,Houston,201147,Corey Brewer,,,29:53,110.4,91.4,19.0,0.071,1.0,6.4,0.029,0.032,0.031,6.4,0.364,0.403,0.198,107.55,0.006,2015-05-06T00:00:00,2,HOU,Houston,1-1,35,21,27,32,0,0,0,0,0,0,0,0,0,0,115,0.425,0.656,0.192,20,54,14,0041400232,1610612745,HOU,Houston,Corey Brewer,,,29:53,0.0,0.0,5.0,6.0,4.0,4.0,11.0,26.0,0.0,0.0,3.0,5.0
0041400232,1610612745,HOU,Houston,201595,Joey Dorsey,,DNP - Coach's Decision                  ,,,,,,,0.0,,,,,,,0.0,,,2015-05-06T00:00:00,2,HOU,Houston,1-1,35,21,27,32,0,0,0,0,0,0,0,0,0,0,115,0.425,0.656,0.192,20,54,14,0041400232,1610612745,HOU,Houston,Joey Dorsey,,DNP - Coach's Decision                  ,,,,,,,,,,,,,
0041400232,1610612745,HOU,Houston,203910,Nick Johnson,,DNP - Coach's Decision                  ,,,,,,,0.0,,,,,,,0.0,,,2015-05-06T00:00:00,2,HOU,Houston,1-1,35,21,27,32,0,0,0,0,0,0,0,0,0,0,115,0.425,0.656,0.192,20,54,14,0041400232,1610612745,HOU,Houston,Nick Johnson,,DNP - Coach's Decision                  ,,,,,,,,,,,,,
0041400232,1610612745,HOU,Houston,203909,KJ McDaniels,,DNP - Coach's Decision                  ,,,,,,,0.0,,,,,,,0.0,,,2015-05-06T00:00:00,2,HOU,Houston,1-1,35,21,27,32,0,0,0,0,0,0,0,0,0,0,115,0.425,0.656,0.192,20,54,14,0041400232,1610612745,HOU,Houston,KJ McDaniels,,DNP - Coach's Decision                  ,,,,,,,,,,,,,
0041400232,1610612745,HOU,Houston,203123,Kostas Papanikolaou,,DNP - Coach's Decision                  ,,,,,,,0.0,,,,,,,0.0,,,2015-05-06T00:00:00,2,HOU,Houston,1-1,35,21,27,32,0,0,0,0,0,0,0,0,0,0,115,0.425,0.656,0.192,20,54,14,0041400232,1610612745,HOU,Houston,Kostas Papanikolaou,,DNP - Coach's Decision                  ,,,,,,,,,,,,,
