GAME_ID_x,TEAM_ID_x,TEAM_ABBREVIATION_x,TEAM_CITY_x,PLAYER_ID,PLAYER_NAME_x,START_POSITION_x,COMMENT_x,MIN_x,OFF_RATING,DEF_RATING,NET_RATING,AST_PCT,AST_TOV,AST_RATIO,OREB_PCT,DREB_PCT,REB_PCT,TM_TOV_PCT,EFG_PCT,TS_PCT,USG_PCT,PACE,PIE,GAME_DATE_EST,GAME_SEQUENCE,TEAM_ABBREVIATION_y,TEAM_CITY_NAME,TEAM_WINS_LOSSES,PTS_QTR1,PTS_QTR2,PTS_QTR3,PTS_QTR4,PTS_OT1,PTS_OT2,PTS_OT3,PTS_OT4,PTS_OT5,PTS_OT6,PTS_OT7,PTS_OT8,PTS_OT9,PTS_OT10,PTS,FG_PCT,FT_PCT,FG3_PCT,AST,REB,TOV,GAME_ID_y,TEAM_ID_y,TEAM_ABBREVIATION,TEAM_CITY_y,PLAYER_NAME_y,START_POSITION_y,COMMENT_y,MIN_y,PTS_OFF_TOV,PTS_2ND_CHANCE,PTS_FB,PTS_PAINT,OPP_PTS_OFF_TOV,OPP_PTS_2ND_CHANCE,OPP_PTS_FB,OPP_PTS_PAINT,BLK,BLKA,PF,PFD
0041400225,1610612763,MEM,Memphis,201145,Jeff Green,F,,27:40,95.0,100.5,-5.5,0.063,1.0,6.7,0.0,0.138,0.077,6.7,0.385,0.385,0.235,89.7,0.055,2015-05-13T00:00:00,2,MEM,Memphis,2-3,25,16,16,21,0,0,0,0,0,0,0,0,0,0,78,0.398,0.8,0.267,21,43,16,0041400225,1610612763,MEM,Memphis,Jeff Green,F,,27:40,0,0,2,6,4,2,10,20,0,2,1,0
0041400225,1610612763,MEM,Memphis,2216,Zach Randolph,F,,34:06,80.5,96.2,-15.7,0.059,0.25,5.9,0.161,0.147,0.154,23.5,0.542,0.542,0.216,93.33,0.105,2015-05-13T00:00:00,2,MEM,Memphis,2-3,25,16,16,21,0,0,0,0,0,0,0,0,0,0,78,0.398,0.8,0.267,21,43,16,0041400225,1610612763,MEM,Memphis,Zach Randolph,F,,34:06,4,4,0,6,17,5,18,18,0,0,2,2
0041400225,1610612763,MEM,Memphis,201188,Marc Gasol,C,,36:07,91.2,104.5,-13.2,0.333,3.0,19.4,0.069,0.303,0.194,6.5,0.364,0.393,0.323,90.32,0.144,2015-05-13T00:00:00,2,MEM,Memphis,2-3,25,16,16,21,0,0,0,0,0,0,0,0,0,0,78,0.398,0.8,0.267,21,43,16,0041400225,1610612763,MEM,Memphis,Marc Gasol,C,,36:07,8,0,2,10,14,0,20,24,1,2,3,6
0041400225,1610612763,MEM,Memphis,201584,Courtney Lee,G,,30:46,85.5,99.1,-13.6,0.211,1.33,40.0,0.0,0.1,0.055,30.0,1.167,1.167,0.091,92.95,0.081,2015-05-13T00:00:00,2,MEM,Memphis,2-3,25,16,16,21,0,0,0,0,0,0,0,0,0,0,78,0.398,0.8,0.267,21,43,16,0041400225,1610612763,MEM,Memphis,Courtney Lee,G,,30:46,2,0,0,0,17,3,18,16,0,0,3,0
0041400225,1610612763,MEM,Memphis,201144,Mike Conley,G,,32:54,85.6,89.4,-3.8,0.278,2.5,27.3,0.0,0.0,0.0,10.9,0.5,0.574,0.19,90.89,0.12,2015-05-13T00:00:00,2,MEM,Memphis,2-3,25,16,16,21,0,0,0,0,0,0,0,0,0,0,78,0.398,0.8,0.267,21,43,16,0041400225,1610612763,MEM,Memphis,Mike Conley,G,,32:54,2,2,0,2,9,2,11,22,0,0,3,1
0041400225,1610612763,MEM,Memphis,2757,Beno Udrih,,,12:22,85.8,170.5,-84.7,0.0,0.0,0.0,0.0,0.0,0.0,0.0,0.75,0.75,0.071,89.66,0.035,2015-05-13T00:00:00,2,MEM,Memphis,2-3,25,16,16,21,0,0,0,0,0,0,0,0,0,0,78,0.398,0.8,0.267,21,43,16,0041400225,1610612763,MEM,Memphis,Beno Udrih,,,12:22,0,0,0,0,10,3,18,8,0,0,0,1
0041400225,1610612763,MEM,Memphis,1713,Vince Carter,,,19:54,83.4,143.2,-59.7,0.111,0.5,7.4,0.2,0.133,0.171,14.9,0.35,0.383,0.284,85.72,0.056,2015-05-13T00:00:00,2,MEM,Memphis,2-3,25,16,16,21,0,0,0,0,0,0,0,0,0,0,78,0.398,0.8,0.267,21,43,16,0041400225,1610612763,MEM,Memphis,Vince Carter,,,19:54,0,5,0,4,10,3,20,14,0,1,1,1
0041400225,1610612763,MEM,Memphis,201585,Kosta Koufos,,,13:33,78.5,159.1,-80.7,0.0,0.0,0.0,0.071,0.1,0.083,17.0,0.0,0.102,0.185,89.69,-0.09,2015-05-13T00:00:00,2,MEM,Memphis,2-3,25,16,16,21,0,0,0,0,0,0,0,0,0,0,78,0.398,0.8,0.267,21,43,16,0041400225,1610612763,MEM,Memphis,Kosta Koufos,,,13:33,0,1,0,0,7,5,15,12,0,0,1,1
0041400225,1610612763,MEM,Memphis,201979,Nick Calathes,,,18:35,77.4,134.8,-57.4,0.167,2.0,40.0,0.0,0.125,0.057,20.0,0.0,0.0,0.073,87.2,0.015,2015-05-13T00:00:00,2,MEM,Memphis,2-3,25,16,16,21,0,0,0,0,0,0,0,0,0,0,78,0.398,0.8,0.267,21,43,16,0041400225,1610612763,MEM,Memphis,Nick Calathes,,,18:35,0,0,0,0,7,2,15,20,0,0,2,0
0041400225,1610612763,MEM,Memphis,203919,Jordan Adams,,,5:51,101.2,66.7,34.5,0.0,0.0,0.0,0.0,0.2,0.1,0.0,1.0,0.798,0.173,77.46,0.2,2015-05-13T00:00:00,2,MEM,Memphis,2-3,25,16,16,21,0,0,0,0,0,0,0,0,0,0,78,0.398,0.8,0.267,21,43,16,0041400225,1610612763,MEM,Memphis,Jordan Adams,,,5:51,0,0,0,0,0,0,0,4,0,0,0,1
0041400225,1610612763,MEM,Memphis,203893,Russ Smith,,,2:44,100.0,100.0,0.0,0.5,0.0,100.0,0.0,0.0,0.0,0.0,0.0,0.0,0.0,70.24,0.1,2015-05-13T00:00:00,2,MEM,Memphis,2-3,25,16,16,21,0,0,0,0,0,0,0,0,0,0,78,0.398,0.8,0.267,21,43,16,0041400225,1610612763,MEM,Memphis,Russ Smith,,,2:44,0,0,0,0,0,0,0,4,0,0,0,0
0041400225,1610612763,MEM,Memphis,202720,Jon Leuer,,,2:44,100.0,100.0,0.0,0.0,0.0,0.0,0.333,0.5,0.4,0.0,0.5,0.5,0.4,70.24,0.25,2015-05-13T00:00:00,2,MEM,Memphis,2-3,25,16,16,21,0,0,0,0,0,0,0,0,0,0,78,0.398,0.8,0.267,21,43,16,0041400225,1610612763,MEM,Memphis,Jon Leuer,,,2:44,0,0,2,2,0,0,0,4,0,1,0,0
0041400225,1610612763,MEM,Memphis,203210,JaMychal Green,,,2:44,100.0,100.0,0.0,0.0,0.0,0.0,0.0,0.5,0.2,0.0,0.0,0.0,0.4,70.24,-0.2,2015-05-13T00:00:00,2,MEM,Memphis,2-3,25,16,16,21,0,0,0,0,0,0,0,0,0,0,78,0.398,0.8,0.267,21,43,16,0041400225,1610612763,MEM,Memphis,JaMychal Green,,,2:44,0,0,0,0,0,0,0,4,0,0,1,0
0041400225,1610612744,GSW,Golden State,203084,Harrison Barnes,F,,32:42,99.2,85.4,13.7,0.053,0.2,6.2,0.061,0.037,0.05,30.9,0.688,0.686,0.21,91.54,0.062,2015-05-13T00:00:00,2,GSW,Golden State,3-2,26,23,25,24,0,0,0,0,0,0,0,0,0,0,98,0.469,0.8,0.467,28,44,16,0041400225,1610612744,GSW,Golden State,Harrison Barnes,F,,32:42,0,0,3,0,12,8,2,22,1,0,0,3
0041400225,1610612744,GSW,Golden State,203110,Draymond Green,F,,31:28,106.5,96.7,9.9,0.429,9.0,46.3,0.071,0.111,0.091,5.1,0.333,0.371,0.155,89.36,0.097,2015-05-13T00:00:00,2,GSW,Golden State,3-2,26,23,25,24,0,0,0,0,0,0,0,0,0,0,98,0.469,0.8,0.467,28,44,16,0041400225,1610612744,GSW,Golden State,Draymond Green,F,,31:28,3,3,5,6,14,8,2,20,0,0,4,2
0041400225,1610612744,GSW,Golden State,101106,Andrew Bogut,C,,23:35,97.7,89.6,8.1,0.0,0.0,0.0,0.125,0.3,0.205,12.5,0.429,0.429,0.148,93.46,0.104,2015-05-13T00:00:00,2,GSW,Golden State,3-2,26,23,25,24,0,0,0,0,0,0,0,0,0,0,98,0.469,0.8,0.467,28,44,16,0041400225,1610612744,GSW,Golden State,Andrew Bogut,C,,23:35,4,0,0,6,12,4,2,18,4,1,2,0
0041400225,1610612744,GSW,Golden State,202691,Klay Thompson,G,,38:38,105.6,92.6,13.0,0.227,2.5,20.2,0.0,0.118,0.058,8.1,0.531,0.591,0.241,90.3,0.139,2015-05-13T00:00:00,2,GSW,Golden State,3-2,26,23,25,24,0,0,0,0,0,0,0,0,0,0,98,0.469,0.8,0.467,28,44,16,0041400225,1610612744,GSW,Golden State,Klay Thompson,G,,38:38,0,0,7,0,16,10,4,26,0,0,1,4
0041400225,1610612744,GSW,Golden State,201939,Stephen Curry,G,,32:33,100.8,75.4,25.3,0.278,1.0,19.2,0.059,0.167,0.109,19.2,0.563,0.563,0.278,93.76,0.205,2015-05-13T00:00:00,2,GSW,Golden State,3-2,26,23,25,24,0,0,0,0,0,0,0,0,0,0,98,0.469,0.8,0.467,28,44,16,0041400225,1610612744,GSW,Golden State,Stephen Curry,G,,32:33,6,0,6,0,12,6,2,18,0,0,0,4
0041400225,1610612744,GSW,Golden State,2738,Andre Iguodala,,,25:07,130.2,76.1,54.1,0.188,3.0,21.4,0.1,0.043,0.07,7.1,0.8,0.8,0.207,90.51,0.192,2015-05-13T00:00:00,2,GSW,Golden State,3-2,26,23,25,24,0,0,0,0,0,0,0,0,0,0,98,0.469,0.8,0.467,28,44,16,0041400225,1610612744,GSW,Golden State,Andre Iguodala,,,25:07,6,2,6,8,6,8,4,14,0,0,1,2
0041400225,1610612744,GSW,Golden State,2733,Shaun Livingston,,,21:53,143.5,85.5,58.0,0.158,3.0,37.5,0.056,0.105,0.081,12.5,0.75,0.75,0.11,85.63,0.118,2015-05-13T00:00:00,2,GSW,Golden State,3-2,26,23,25,24,0,0,0,0,0,0,0,0,0,0,98,0.469,0.8,0.467,28,44,16,0041400225,1610612744,GSW,Golden State,Shaun Livingston,,,21:53,0,0,2,4,4,8,2,12,0,0,1,1
0041400225,1610612744,GSW,Golden State,101135,David Lee,,,17:26,143.7,91.1,52.6,0.067,0.0,12.5,0.154,0.333,0.25,0.0,0.429,0.429,0.198,83.92,0.113,2015-05-13T00:00:00,2,GSW,Golden State,3-2,26,23,25,24,0,0,0,0,0,0,0,0,0,0,98,0.469,0.8,0.467,28,44,16,0041400225,1610612744,GSW,Golden State,David Lee,,,17:26,0,0,0,6,4,6,2,10,0,0,3,0
0041400225,1610612744,GSW,Golden State,203105,Festus Ezeli,,,6:14,80.0,61.5,18.5,0.0,0.0,0.0,0.0,0.125,0.067,0.0,0.0,0.0,0.0,88.56,0.033,2015-05-13T00:00:00,2,GSW,Golden State,3-2,26,23,25,24,0,0,0,0,0,0,0,0,0,0,98,0.469,0.8,0.467,28,44,16,0041400225,1610612744,GSW,Golden State,Festus Ezeli,,,6:14,0,0,0,0,0,2,2,2,1,0,1,1
0041400225,1610612744,GSW,Golden State,203949,James Michael McAdoo,,,2:44,100.0,100.0,0.0,0.0,0.0,0.0,0.0,0.333,0.2,0.0,1.0,1.0,0.5,70.24,0.5,2015-05-13T00:00:00,2,GSW,Golden State,3-2,26,23,25,24,0,0,0,0,0,0,0,0,0,0,98,0.469,0.8,0.467,28,44,16,0041400225,1610612744,GSW,Golden State,James Michael McAdoo,,,2:44,0,0,0,4,0,0,2,2,0,0,0,0
0041400225,1610612744,GSW,Golden State,2571,Leandro Barbosa,,,2:44,100.0,100.0,0.0,0.5,0.0,50.0,0.0,0.0,0.0,0.0,0.0,0.0,0.25,70.24,0.0,2015-05-13T00:00:00,2,GSW,Golden State,3-2,26,23,25,24,0,0,0,0,0,0,0,0,0,0,98,0.469,0.8,0.467,28,44,16,0041400225,1610612744,GSW,Golden State,Leandro Barbosa,,,2:44,0,0,0,0,0,0,2,2,0,0,0,0
0041400225,1610612744,GSW,Golden State,203200,Justin Holiday,,,2:44,100.0,100.0,0.0,0.0,0.0,0.0,0.0,0.0,0.0,0.0,0.0,0.0,0.25,70.24,-0.1,2015-05-13T00:00:00,2,GSW,Golden State,3-2,26,23,25,24,0,0,0,0,0,0,0,0,0,0,98,0.469,0.8,0.467,28,44,16,0041400225,1610612744,GSW,Golden State,Justin Holiday,,,2:44,0,0,0,0,0,0,2,2,0,0,0,0
0041400225,1610612744,GSW,Golden State,201575,Brandon Rush,,,2:12,66.7,100.0,-33.3,0.0,0.0,0.0,0.0,0.333,0.2,0.0,0.0,0.0,0.0,76.36,0.143,2015-05-13T00:00:00,2,GSW,Golden State,3-2,26,23,25,24,0,0,0,0,0,0,0,0,0,0,98,0.469,0.8,0.467,28,44,16,0041400225,1610612744,GSW,Golden State,Brandon Rush,,,2:12,0,0,0,0,0,0,2,2,0,0,0,0
