GAME_ID_x,TEAM_ID_x,TEAM_ABBREVIATION_x,TEAM_CITY_x,PLAYER_ID,PLAYER_NAME_x,START_POSITION_x,COMMENT_x,MIN_x,OFF_RATING,DEF_RATING,NET_RATING,AST_PCT,AST_TOV,AST_RATIO,OREB_PCT,DREB_PCT,REB_PCT,TM_TOV_PCT,EFG_PCT,TS_PCT,USG_PCT,PACE,PIE,GAME_DATE_EST,GAME_SEQUENCE,TEAM_ID_y,TEAM_ABBREVIATION_y,TEAM_CITY_NAME,TEAM_WINS_LOSSES,PTS_QTR1,PTS_QTR2,PTS_QTR3,PTS_QTR4,PTS_OT1,PTS_OT2,PTS_OT3,PTS_OT4,PTS_OT5,PTS_OT6,PTS_OT7,PTS_OT8,PTS_OT9,PTS_OT10,PTS,FG_PCT,FT_PCT,FG3_PCT,AST,REB,TOV,GAME_ID_y,TEAM_ID,TEAM_ABBREVIATION,TEAM_CITY_y,PLAYER_NAME_y,START_POSITION_y,COMMENT_y,MIN_y,PTS_OFF_TOV,PTS_2ND_CHANCE,PTS_FB,PTS_PAINT,OPP_PTS_OFF_TOV,OPP_PTS_2ND_CHANCE,OPP_PTS_FB,OPP_PTS_PAINT,BLK,BLKA,PF,PFD
0021300804,1610612764,WAS,Washington,2772,Trevor Ariza,F,,36:10,125.5,93.5,32.0,0.067,0.0,14.3,0.097,0.188,0.143,0.0,0.792,0.792,0.149,98.51,0.145,2014-02-19T00:00:00,4,1610612764,WAS,Washington,26-28,31,27,33,23,0,0,0,0,0,0,0,0,0,0,114,0.517,0.818,0.542,30,41,10,0021300804,1610612764,WAS,Washington,Trevor Ariza,F,,36:10,0.0,0.0,6.0,4.0,12.0,11.0,3.0,38.0,0.0,0.0,1.0,1.0
0021300804,1610612764,WAS,Washington,2772,Trevor Ariza,F,,36:10,125.5,93.5,32.0,0.067,0.0,14.3,0.097,0.188,0.143,0.0,0.792,0.792,0.149,98.51,0.145,2014-02-19T00:00:00,4,1610612737,ATL,Atlanta,25-28,14,33,36,14,0,0,0,0,0,0,0,0,0,0,97,0.452,0.833,0.375,20,38,16,0021300804,1610612764,WAS,Washington,Trevor Ariza,F,,36:10,0.0,0.0,6.0,4.0,12.0,11.0,3.0,38.0,0.0,0.0,1.0,1.0
0021300804,1610612764,WAS,Washington,2403,Nene,F,,30:49,121.0,99.3,21.7,0.077,0.4,10.7,0.038,0.192,0.115,26.8,0.333,0.43,0.25,97.36,0.012,2014-02-19T00:00:00,4,1610612764,WAS,Washington,26-28,31,27,33,23,0,0,0,0,0,0,0,0,0,0,114,0.517,0.818,0.542,30,41,10,0021300804,1610612764,WAS,Washington,Nene,F,,30:49,0.0,0.0,1.0,4.0,12.0,11.0,3.0,36.0,0.0,0.0,4.0,4.0
0021300804,1610612764,WAS,Washington,2403,Nene,F,,30:49,121.0,99.3,21.7,0.077,0.4,10.7,0.038,0.192,0.115,26.8,0.333,0.43,0.25,97.36,0.012,2014-02-19T00:00:00,4,1610612737,ATL,Atlanta,25-28,14,33,36,14,0,0,0,0,0,0,0,0,0,0,97,0.452,0.833,0.375,20,38,16,0021300804,1610612764,WAS,Washington,Nene,F,,30:49,0.0,0.0,1.0,4.0,12.0,11.0,3.0,36.0,0.0,0.0,4.0,4.0
0021300804,1610612764,WAS,Washington,101162,Marcin Gortat,C,,28:33,114.8,81.1,33.6,0.05,0.33,7.7,0.077,0.345,0.218,23.1,0.778,0.778,0.186,97.35,0.174,2014-02-19T00:00:00,4,1610612764,WAS,Washington,26-28,31,27,33,23,0,0,0,0,0,0,0,0,0,0,114,0.517,0.818,0.542,30,41,10,0021300804,1610612764,WAS,Washington,Marcin Gortat,C,,28:33,0.0,4.0,2.0,10.0,10.0,9.0,1.0,24.0,2.0,0.0,4.0,0.0
0021300804,1610612764,WAS,Washington,101162,Marcin Gortat,C,,28:33,114.8,81.1,33.6,0.05,0.33,7.7,0.077,0.345,0.218,23.1,0.778,0.778,0.186,97.35,0.174,2014-02-19T00:00:00,4,1610612737,ATL,Atlanta,25-28,14,33,36,14,0,0,0,0,0,0,0,0,0,0,97,0.452,0.833,0.375,20,38,16,0021300804,1610612764,WAS,Washington,Marcin Gortat,C,,28:33,0.0,4.0,2.0,10.0,10.0,9.0,1.0,24.0,2.0,0.0,4.0,0.0
0021300804,1610612764,WAS,Washington,203078,Bradley Beal,G,,35:13,114.6,103.8,10.7,0.24,0.0,25.7,0.033,0.154,0.089,0.0,0.5,0.548,0.231,96.24,0.136,2014-02-19T00:00:00,4,1610612764,WAS,Washington,26-28,31,27,33,23,0,0,0,0,0,0,0,0,0,0,114,0.517,0.818,0.542,30,41,10,0021300804,1610612764,WAS,Washington,Bradley Beal,G,,35:13,6.0,0.0,5.0,4.0,12.0,9.0,6.0,38.0,1.0,1.0,2.0,3.0
0021300804,1610612764,WAS,Washington,203078,Bradley Beal,G,,35:13,114.6,103.8,10.7,0.24,0.0,25.7,0.033,0.154,0.089,0.0,0.5,0.548,0.231,96.24,0.136,2014-02-19T00:00:00,4,1610612737,ATL,Atlanta,25-28,14,33,36,14,0,0,0,0,0,0,0,0,0,0,97,0.452,0.833,0.375,20,38,16,0021300804,1610612764,WAS,Washington,Bradley Beal,G,,35:13,6.0,0.0,5.0,4.0,12.0,9.0,6.0,38.0,1.0,1.0,2.0,3.0
0021300804,1610612764,WAS,Washington,202322,John Wall,G,,33:51,120.0,95.1,24.8,0.48,0.0,37.6,0.034,0.133,0.085,0.0,0.5,0.528,0.267,98.56,0.198,2014-02-19T00:00:00,4,1610612764,WAS,Washington,26-28,31,27,33,23,0,0,0,0,0,0,0,0,0,0,114,0.517,0.818,0.542,30,41,10,0021300804,1610612764,WAS,Washington,John Wall,G,,33:51,2.0,2.0,5.0,6.0,12.0,11.0,3.0,36.0,1.0,0.0,0.0,2.0
0021300804,1610612764,WAS,Washington,202322,John Wall,G,,33:51,120.0,95.1,24.8,0.48,0.0,37.6,0.034,0.133,0.085,0.0,0.5,0.528,0.267,98.56,0.198,2014-02-19T00:00:00,4,1610612737,ATL,Atlanta,25-28,14,33,36,14,0,0,0,0,0,0,0,0,0,0,97,0.452,0.833,0.375,20,38,16,0021300804,1610612764,WAS,Washington,John Wall,G,,33:51,2.0,2.0,5.0,6.0,12.0,11.0,3.0,36.0,1.0,0.0,0.0,2.0
0021300804,1610612764,WAS,Washington,101110,Martell Webster,,,22:57,128.3,92.3,36.0,0.111,2.0,15.4,0.0,0.0,0.0,7.7,0.65,0.65,0.228,94.85,0.074,2014-02-19T00:00:00,4,1610612764,WAS,Washington,26-28,31,27,33,23,0,0,0,0,0,0,0,0,0,0,114,0.517,0.818,0.542,30,41,10,0021300804,1610612764,WAS,Washington,Martell Webster,,,22:57,3.0,0.0,0.0,4.0,2.0,2.0,5.0,12.0,0.0,0.0,2.0,0.0
0021300804,1610612764,WAS,Washington,101110,Martell Webster,,,22:57,128.3,92.3,36.0,0.111,2.0,15.4,0.0,0.0,0.0,7.7,0.65,0.65,0.228,94.85,0.074,2014-02-19T00:00:00,4,1610612737,ATL,Atlanta,25-28,14,33,36,14,0,0,0,0,0,0,0,0,0,0,97,0.452,0.833,0.375,20,38,16,0021300804,1610612764,WAS,Washington,Martell Webster,,,22:57,3.0,0.0,0.0,4.0,2.0,2.0,5.0,12.0,0.0,0.0,2.0,0.0
0021300804,1610612764,WAS,Washington,202344,Trevor Booker,,,24:21,123.5,103.3,20.2,0.053,0.0,11.1,0.0,0.133,0.057,0.0,0.75,0.75,0.156,98.13,0.145,2014-02-19T00:00:00,4,1610612764,WAS,Washington,26-28,31,27,33,23,0,0,0,0,0,0,0,0,0,0,114,0.517,0.818,0.542,30,41,10,0021300804,1610612764,WAS,Washington,Trevor Booker,,,24:21,4.0,0.0,2.0,6.0,4.0,2.0,6.0,20.0,1.0,0.0,2.0,0.0
0021300804,1610612764,WAS,Washington,202344,Trevor Booker,,,24:21,123.5,103.3,20.2,0.053,0.0,11.1,0.0,0.133,0.057,0.0,0.75,0.75,0.156,98.13,0.145,2014-02-19T00:00:00,4,1610612737,ATL,Atlanta,25-28,14,33,36,14,0,0,0,0,0,0,0,0,0,0,97,0.452,0.833,0.375,20,38,16,0021300804,1610612764,WAS,Washington,Trevor Booker,,,24:21,4.0,0.0,2.0,6.0,4.0,2.0,6.0,20.0,1.0,0.0,2.0,0.0
0021300804,1610612764,WAS,Washington,202066,Garrett Temple,,,15:02,112.6,115.4,-2.8,0.182,0.0,33.3,0.0,0.143,0.045,0.0,0.5,0.5,0.128,92.5,0.0,2014-02-19T00:00:00,4,1610612764,WAS,Washington,26-28,31,27,33,23,0,0,0,0,0,0,0,0,0,0,114,0.517,0.818,0.542,30,41,10,0021300804,1610612764,WAS,Washington,Garrett Temple,,,15:02,4.0,0.0,2.0,2.0,2.0,0.0,4.0,8.0,0.0,0.0,5.0,1.0
0021300804,1610612764,WAS,Washington,202066,Garrett Temple,,,15:02,112.6,115.4,-2.8,0.182,0.0,33.3,0.0,0.143,0.045,0.0,0.5,0.5,0.128,92.5,0.0,2014-02-19T00:00:00,4,1610612737,ATL,Atlanta,25-28,14,33,36,14,0,0,0,0,0,0,0,0,0,0,97,0.452,0.833,0.375,20,38,16,0021300804,1610612764,WAS,Washington,Garrett Temple,,,15:02,4.0,0.0,2.0,2.0,2.0,0.0,4.0,8.0,0.0,0.0,5.0,1.0
0021300804,1610612764,WAS,Washington,202338,Kevin Seraphin,,,11:47,124.4,133.9,-9.6,0.2,2.0,50.0,0.0,0.0,0.0,25.0,1.0,1.0,0.082,93.1,0.0,2014-02-19T00:00:00,4,1610612764,WAS,Washington,26-28,31,27,33,23,0,0,0,0,0,0,0,0,0,0,114,0.517,0.818,0.542,30,41,10,0021300804,1610612764,WAS,Washington,Kevin Seraphin,,,11:47,2.0,0.0,0.0,2.0,2.0,0.0,4.0,8.0,0.0,0.0,3.0,0.0
0021300804,1610612764,WAS,Washington,202338,Kevin Seraphin,,,11:47,124.4,133.9,-9.6,0.2,2.0,50.0,0.0,0.0,0.0,25.0,1.0,1.0,0.082,93.1,0.0,2014-02-19T00:00:00,4,1610612737,ATL,Atlanta,25-28,14,33,36,14,0,0,0,0,0,0,0,0,0,0,97,0.452,0.833,0.375,20,38,16,0021300804,1610612764,WAS,Washington,Kevin Seraphin,,,11:47,2.0,0.0,0.0,2.0,2.0,0.0,4.0,8.0,0.0,0.0,3.0,0.0
0021300804,1610612764,WAS,Washington,203490,Otto Porter Jr.,,,0:48,0.0,227.3,-227.3,0.0,0.0,0.0,0.0,0.0,0.0,0.0,0.0,0.0,0.5,56.17,-2.0,2014-02-19T00:00:00,4,1610612764,WAS,Washington,26-28,31,27,33,23,0,0,0,0,0,0,0,0,0,0,114,0.517,0.818,0.542,30,41,10,0021300804,1610612764,WAS,Washington,Otto Porter Jr.,,,0:48,0.0,0.0,0.0,0.0,2.0,0.0,0.0,0.0,0.0,0.0,0.0,0.0
0021300804,1610612764,WAS,Washington,203490,Otto Porter Jr.,,,0:48,0.0,227.3,-227.3,0.0,0.0,0.0,0.0,0.0,0.0,0.0,0.0,0.0,0.5,56.17,-2.0,2014-02-19T00:00:00,4,1610612737,ATL,Atlanta,25-28,14,33,36,14,0,0,0,0,0,0,0,0,0,0,97,0.452,0.833,0.375,20,38,16,0021300804,1610612764,WAS,Washington,Otto Porter Jr.,,,0:48,0.0,0.0,0.0,0.0,2.0,0.0,0.0,0.0,0.0,0.0,0.0,0.0
0021300804,1610612764,WAS,Washington,202686,Jan Vesely,,,0:30,0.0,0.0,0.0,0.0,0.0,0.0,1.0,0.0,1.0,0.0,0.0,0.0,0.0,0.0,-1.0,2014-02-19T00:00:00,4,1610612764,WAS,Washington,26-28,31,27,33,23,0,0,0,0,0,0,0,0,0,0,114,0.517,0.818,0.542,30,41,10,0021300804,1610612764,WAS,Washington,Jan Vesely,,,0:30,0.0,0.0,0.0,0.0,0.0,0.0,0.0,0.0,0.0,0.0,0.0,0.0
0021300804,1610612764,WAS,Washington,202686,Jan Vesely,,,0:30,0.0,0.0,0.0,0.0,0.0,0.0,1.0,0.0,1.0,0.0,0.0,0.0,0.0,0.0,-1.0,2014-02-19T00:00:00,4,1610612737,ATL,Atlanta,25-28,14,33,36,14,0,0,0,0,0,0,0,0,0,0,97,0.452,0.833,0.375,20,38,16,0021300804,1610612764,WAS,Washington,Jan Vesely,,,0:30,0.0,0.0,0.0,0.0,0.0,0.0,0.0,0.0,0.0,0.0,0.0,0.0
0021300804,1610612764,WAS,Washington,201953,Eric Maynor,,DNP - Coach's Decision,,,,,,,0.0,,,,,,,0.0,,,2014-02-19T00:00:00,4,1610612764,WAS,Washington,26-28,31,27,33,23,0,0,0,0,0,0,0,0,0,0,114,0.517,0.818,0.542,30,41,10,0021300804,1610612764,WAS,Washington,Eric Maynor,,DNP - Coach's Decision,,,,,,,,,,,,,
0021300804,1610612764,WAS,Washington,201953,Eric Maynor,,DNP - Coach's Decision,,,,,,,0.0,,,,,,,0.0,,,2014-02-19T00:00:00,4,1610612737,ATL,Atlanta,25-28,14,33,36,14,0,0,0,0,0,0,0,0,0,0,97,0.452,0.833,0.375,20,38,16,0021300804,1610612764,WAS,Washington,Eric Maynor,,DNP - Coach's Decision,,,,,,,,,,,,,
0021300804,1610612764,WAS,Washington,202698,Chris Singleton,,DNP - Coach's Decision,,,,,,,0.0,,,,,,,0.0,,,2014-02-19T00:00:00,4,1610612764,WAS,Washington,26-28,31,27,33,23,0,0,0,0,0,0,0,0,0,0,114,0.517,0.818,0.542,30,41,10,0021300804,1610612764,WAS,Washington,Chris Singleton,,DNP - Coach's Decision,,,,,,,,,,,,,
0021300804,1610612764,WAS,Washington,202698,Chris Singleton,,DNP - Coach's Decision,,,,,,,0.0,,,,,,,0.0,,,2014-02-19T00:00:00,4,1610612737,ATL,Atlanta,25-28,14,33,36,14,0,0,0,0,0,0,0,0,0,0,97,0.452,0.833,0.375,20,38,16,0021300804,1610612764,WAS,Washington,Chris Singleton,,DNP - Coach's Decision,,,,,,,,,,,,,
0021300804,1610612737,ATL,Atlanta,201858,Cartier Martin,F,,24:11,110.9,112.6,-1.7,0.0,0.0,0.0,0.0,0.1,0.053,25.8,0.5,0.694,0.072,95.95,0.021,2014-02-19T00:00:00,4,1610612764,WAS,Washington,26-28,31,27,33,23,0,0,0,0,0,0,0,0,0,0,114,0.517,0.818,0.542,30,41,10,0021300804,1610612737,ATL,Atlanta,Cartier Martin,F,,24:11,0.0,0.0,0.0,0.0,11.0,4.0,12.0,12.0,0.0,0.0,2.0,2.0
0021300804,1610612737,ATL,Atlanta,201858,Cartier Martin,F,,24:11,110.9,112.6,-1.7,0.0,0.0,0.0,0.0,0.1,0.053,25.8,0.5,0.694,0.072,95.95,0.021,2014-02-19T00:00:00,4,1610612737,ATL,Atlanta,25-28,14,33,36,14,0,0,0,0,0,0,0,0,0,0,97,0.452,0.833,0.375,20,38,16,0021300804,1610612737,ATL,Atlanta,Cartier Martin,F,,24:11,0.0,0.0,0.0,0.0,11.0,4.0,12.0,12.0,0.0,0.0,2.0,2.0
0021300804,1610612737,ATL,Atlanta,200794,Paul Millsap,F,,37:45,96.8,127.9,-31.1,0.182,1.33,14.0,0.063,0.31,0.18,10.5,0.417,0.488,0.294,98.11,0.122,2014-02-19T00:00:00,4,1610612764,WAS,Washington,26-28,31,27,33,23,0,0,0,0,0,0,0,0,0,0,114,0.517,0.818,0.542,30,41,10,0021300804,1610612737,ATL,Atlanta,Paul Millsap,F,,37:45,6.0,5.0,0.0,12.0,17.0,4.0,23.0,36.0,1.0,2.0,2.0,6.0
0021300804,1610612737,ATL,Atlanta,200794,Paul Millsap,F,,37:45,96.8,127.9,-31.1,0.182,1.33,14.0,0.063,0.31,0.18,10.5,0.417,0.488,0.294,98.11,0.122,2014-02-19T00:00:00,4,1610612737,ATL,Atlanta,25-28,14,33,36,14,0,0,0,0,0,0,0,0,0,0,97,0.452,0.833,0.375,20,38,16,0021300804,1610612737,ATL,Atlanta,Paul Millsap,F,,37:45,6.0,5.0,0.0,12.0,17.0,4.0,23.0,36.0,1.0,2.0,2.0,6.0
0021300804,1610612737,ATL,Atlanta,1882,Elton Brand,C,,34:57,105.3,114.0,-8.6,0.05,0.0,6.6,0.111,0.296,0.204,0.0,0.636,0.71,0.18,99.02,0.172,2014-02-19T00:00:00,4,1610612764,WAS,Washington,26-28,31,27,33,23,0,0,0,0,0,0,0,0,0,0,114,0.517,0.818,0.542,30,41,10,0021300804,1610612737,ATL,Atlanta,Elton Brand,C,,34:57,4.0,4.0,1.0,14.0,15.0,2.0,19.0,28.0,0.0,0.0,1.0,8.0
0021300804,1610612737,ATL,Atlanta,1882,Elton Brand,C,,34:57,105.3,114.0,-8.6,0.05,0.0,6.6,0.111,0.296,0.204,0.0,0.636,0.71,0.18,99.02,0.172,2014-02-19T00:00:00,4,1610612737,ATL,Atlanta,25-28,14,33,36,14,0,0,0,0,0,0,0,0,0,0,97,0.452,0.833,0.375,20,38,16,0021300804,1610612737,ATL,Atlanta,Elton Brand,C,,34:57,4.0,4.0,1.0,14.0,15.0,2.0,19.0,28.0,0.0,0.0,1.0,8.0
0021300804,1610612737,ATL,Atlanta,2594,Kyle Korver,G,,33:54,96.8,124.8,-28.0,0.182,2.0,36.4,0.0,0.074,0.034,18.2,1.0,1.0,0.09,101.86,0.078,2014-02-19T00:00:00,4,1610612764,WAS,Washington,26-28,31,27,33,23,0,0,0,0,0,0,0,0,0,0,114,0.517,0.818,0.542,30,41,10,0021300804,1610612737,ATL,Atlanta,Kyle Korver,G,,33:54,0.0,0.0,0.0,2.0,11.0,4.0,21.0,32.0,0.0,0.0,1.0,0.0
0021300804,1610612737,ATL,Atlanta,2594,Kyle Korver,G,,33:54,96.8,124.8,-28.0,0.182,2.0,36.4,0.0,0.074,0.034,18.2,1.0,1.0,0.09,101.86,0.078,2014-02-19T00:00:00,4,1610612737,ATL,Atlanta,25-28,14,33,36,14,0,0,0,0,0,0,0,0,0,0,97,0.452,0.833,0.375,20,38,16,0021300804,1610612737,ATL,Atlanta,Kyle Korver,G,,33:54,0.0,0.0,0.0,2.0,11.0,4.0,21.0,32.0,0.0,0.0,1.0,0.0
0021300804,1610612737,ATL,Atlanta,201952,Jeff Teague,G,,30:22,103.8,115.9,-12.1,0.263,1.67,20.1,0.0,0.091,0.043,12.1,0.438,0.474,0.286,101.51,0.068,2014-02-19T00:00:00,4,1610612764,WAS,Washington,26-28,31,27,33,23,0,0,0,0,0,0,0,0,0,0,114,0.517,0.818,0.542,30,41,10,0021300804,1610612737,ATL,Atlanta,Jeff Teague,G,,30:22,0.0,0.0,0.0,6.0,9.0,2.0,16.0,26.0,0.0,3.0,1.0,1.0
0021300804,1610612737,ATL,Atlanta,201952,Jeff Teague,G,,30:22,103.8,115.9,-12.1,0.263,1.67,20.1,0.0,0.091,0.043,12.1,0.438,0.474,0.286,101.51,0.068,2014-02-19T00:00:00,4,1610612737,ATL,Atlanta,25-28,14,33,36,14,0,0,0,0,0,0,0,0,0,0,97,0.452,0.833,0.375,20,38,16,0021300804,1610612737,ATL,Atlanta,Jeff Teague,G,,30:22,0.0,0.0,0.0,6.0,9.0,2.0,16.0,26.0,0.0,3.0,1.0,1.0
0021300804,1610612737,ATL,Atlanta,101150,Lou Williams,,,31:12,88.4,120.8,-32.5,0.154,0.67,11.1,0.0,0.067,0.038,16.7,0.389,0.54,0.253,92.22,0.07,2014-02-19T00:00:00,4,1610612764,WAS,Washington,26-28,31,27,33,23,0,0,0,0,0,0,0,0,0,0,114,0.517,0.818,0.542,30,41,10,0021300804,1610612737,ATL,Atlanta,Lou Williams,,,31:12,4.0,0.0,2.0,4.0,13.0,4.0,11.0,34.0,0.0,0.0,0.0,5.0
0021300804,1610612737,ATL,Atlanta,101150,Lou Williams,,,31:12,88.4,120.8,-32.5,0.154,0.67,11.1,0.0,0.067,0.038,16.7,0.389,0.54,0.253,92.22,0.07,2014-02-19T00:00:00,4,1610612737,ATL,Atlanta,25-28,14,33,36,14,0,0,0,0,0,0,0,0,0,0,97,0.452,0.833,0.375,20,38,16,0021300804,1610612737,ATL,Atlanta,Lou Williams,,,31:12,4.0,0.0,2.0,4.0,13.0,4.0,11.0,34.0,0.0,0.0,0.0,5.0
0021300804,1610612737,ATL,Atlanta,202714,Shelvin Mack,,,16:37,82.6,124.0,-41.5,0.75,1.5,27.6,0.0,0.111,0.067,18.4,0.4,0.51,0.252,89.14,0.054,2014-02-19T00:00:00,4,1610612764,WAS,Washington,26-28,31,27,33,23,0,0,0,0,0,0,0,0,0,0,114,0.517,0.818,0.542,30,41,10,0021300804,1610612737,ATL,Atlanta,Shelvin Mack,,,16:37,0.0,0.0,2.0,2.0,12.0,4.0,2.0,16.0,0.0,0.0,3.0,1.0
0021300804,1610612737,ATL,Atlanta,202714,Shelvin Mack,,,16:37,82.6,124.0,-41.5,0.75,1.5,27.6,0.0,0.111,0.067,18.4,0.4,0.51,0.252,89.14,0.054,2014-02-19T00:00:00,4,1610612737,ATL,Atlanta,25-28,14,33,36,14,0,0,0,0,0,0,0,0,0,0,97,0.452,0.833,0.375,20,38,16,0021300804,1610612737,ATL,Atlanta,Shelvin Mack,,,16:37,0.0,0.0,2.0,2.0,12.0,4.0,2.0,16.0,0.0,0.0,3.0,1.0
0021300804,1610612737,ATL,Atlanta,203118,Mike Scott,,,19:38,94.8,119.2,-24.4,0.0,0.0,0.0,0.0,0.208,0.135,16.7,0.4,0.4,0.154,93.88,0.069,2014-02-19T00:00:00,4,1610612764,WAS,Washington,26-28,31,27,33,23,0,0,0,0,0,0,0,0,0,0,114,0.517,0.818,0.542,30,41,10,0021300804,1610612737,ATL,Atlanta,Mike Scott,,,19:38,0.0,2.0,0.0,4.0,10.0,4.0,4.0,18.0,0.0,0.0,0.0,0.0
0021300804,1610612737,ATL,Atlanta,203118,Mike Scott,,,19:38,94.8,119.2,-24.4,0.0,0.0,0.0,0.0,0.208,0.135,16.7,0.4,0.4,0.154,93.88,0.069,2014-02-19T00:00:00,4,1610612737,ATL,Atlanta,25-28,14,33,36,14,0,0,0,0,0,0,0,0,0,0,97,0.452,0.833,0.375,20,38,16,0021300804,1610612737,ATL,Atlanta,Mike Scott,,,19:38,0.0,2.0,0.0,4.0,10.0,4.0,4.0,18.0,0.0,0.0,0.0,0.0
0021300804,1610612737,ATL,Atlanta,203471,Dennis Schroder,,,11:24,107.2,122.6,-15.4,0.167,1.0,25.0,0.0,0.077,0.056,25.0,0.5,0.5,0.146,82.69,0.025,2014-02-19T00:00:00,4,1610612764,WAS,Washington,26-28,31,27,33,23,0,0,0,0,0,0,0,0,0,0,114,0.517,0.818,0.542,30,41,10,0021300804,1610612737,ATL,Atlanta,Dennis Schroder,,,11:24,0.0,0.0,2.0,0.0,7.0,2.0,7.0,8.0,0.0,0.0,1.0,0.0
0021300804,1610612737,ATL,Atlanta,203471,Dennis Schroder,,,11:24,107.2,122.6,-15.4,0.167,1.0,25.0,0.0,0.077,0.056,25.0,0.5,0.5,0.146,82.69,0.025,2014-02-19T00:00:00,4,1610612737,ATL,Atlanta,25-28,14,33,36,14,0,0,0,0,0,0,0,0,0,0,97,0.452,0.833,0.375,20,38,16,0021300804,1610612737,ATL,Atlanta,Dennis Schroder,,,11:24,0.0,0.0,2.0,0.0,7.0,2.0,7.0,8.0,0.0,0.0,1.0,0.0
0021300804,1610612737,ATL,Atlanta,203544,Pero Antic,,"DND - Stress Fracture, Right Ankle",,,,,,,0.0,,,,,,,0.0,,,2014-02-19T00:00:00,4,1610612764,WAS,Washington,26-28,31,27,33,23,0,0,0,0,0,0,0,0,0,0,114,0.517,0.818,0.542,30,41,10,0021300804,1610612737,ATL,Atlanta,Pero Antic,,"DND - Stress Fracture, Right Ankle",,,,,,,,,,,,,
0021300804,1610612737,ATL,Atlanta,203544,Pero Antic,,"DND - Stress Fracture, Right Ankle",,,,,,,0.0,,,,,,,0.0,,,2014-02-19T00:00:00,4,1610612737,ATL,Atlanta,25-28,14,33,36,14,0,0,0,0,0,0,0,0,0,0,97,0.452,0.833,0.375,20,38,16,0021300804,1610612737,ATL,Atlanta,Pero Antic,,"DND - Stress Fracture, Right Ankle",,,,,,,,,,,,,
0021300804,1610612737,ATL,Atlanta,202970,Gustavo Ayon,,DND - Right Shoulder Injury,,,,,,,0.0,,,,,,,0.0,,,2014-02-19T00:00:00,4,1610612764,WAS,Washington,26-28,31,27,33,23,0,0,0,0,0,0,0,0,0,0,114,0.517,0.818,0.542,30,41,10,0021300804,1610612737,ATL,Atlanta,Gustavo Ayon,,DND - Right Shoulder Injury,,,,,,,,,,,,,
0021300804,1610612737,ATL,Atlanta,202970,Gustavo Ayon,,DND - Right Shoulder Injury,,,,,,,0.0,,,,,,,0.0,,,2014-02-19T00:00:00,4,1610612737,ATL,Atlanta,25-28,14,33,36,14,0,0,0,0,0,0,0,0,0,0,97,0.452,0.833,0.375,20,38,16,0021300804,1610612737,ATL,Atlanta,Gustavo Ayon,,DND - Right Shoulder Injury,,,,,,,,,,,,,
0021300804,1610612737,ATL,Atlanta,201960,DeMarre Carroll,,DNP - Coach's Decision,,,,,,,0.0,,,,,,,0.0,,,2014-02-19T00:00:00,4,1610612764,WAS,Washington,26-28,31,27,33,23,0,0,0,0,0,0,0,0,0,0,114,0.517,0.818,0.542,30,41,10,0021300804,1610612737,ATL,Atlanta,DeMarre Carroll,,DNP - Coach's Decision,,,,,,,,,,,,,
0021300804,1610612737,ATL,Atlanta,201960,DeMarre Carroll,,DNP - Coach's Decision,,,,,,,0.0,,,,,,,0.0,,,2014-02-19T00:00:00,4,1610612737,ATL,Atlanta,25-28,14,33,36,14,0,0,0,0,0,0,0,0,0,0,97,0.452,0.833,0.375,20,38,16,0021300804,1610612737,ATL,Atlanta,DeMarre Carroll,,DNP - Coach's Decision,,,,,,,,,,,,,
