GAME_ID_x,TEAM_ID_x,TEAM_ABBREVIATION_x,TEAM_CITY_x,PLAYER_ID,PLAYER_NAME_x,START_POSITION_x,COMMENT_x,MIN_x,OFF_RATING,DEF_RATING,NET_RATING,AST_PCT,AST_TOV,AST_RATIO,OREB_PCT,DREB_PCT,REB_PCT,TM_TOV_PCT,EFG_PCT,TS_PCT,USG_PCT,PACE,PIE,GAME_DATE_EST,GAME_SEQUENCE,TEAM_ID_y,TEAM_ABBREVIATION_y,TEAM_CITY_NAME,TEAM_WINS_LOSSES,PTS_QTR1,PTS_QTR2,PTS_QTR3,PTS_QTR4,PTS_OT1,PTS_OT2,PTS_OT3,PTS_OT4,PTS_OT5,PTS_OT6,PTS_OT7,PTS_OT8,PTS_OT9,PTS_OT10,PTS,FG_PCT,FT_PCT,FG3_PCT,AST,REB,TOV,GAME_ID_y,TEAM_ID,TEAM_ABBREVIATION,TEAM_CITY_y,PLAYER_NAME_y,START_POSITION_y,COMMENT_y,MIN_y,PTS_OFF_TOV,PTS_2ND_CHANCE,PTS_FB,PTS_PAINT,OPP_PTS_OFF_TOV,OPP_PTS_2ND_CHANCE,OPP_PTS_FB,OPP_PTS_PAINT,BLK,BLKA,PF,PFD
0021300805,1610612754,IND,Indiana,202331,Paul George,F,,36:05,89.7,101.9,-12.2,0.133,0.29,5.6,0.028,0.278,0.153,19.8,0.568,0.663,0.382,108.28,0.25,2014-02-19T00:00:00,5,1610612754,IND,Indiana,41-13,18,21,33,19,0,0,0,0,0,0,0,0,0,0,91,0.402,0.75,0.273,17,49,21,0021300805,1610612754,IND,Indiana,Paul George,F,,36:05,4,2,2,10,12,6,14,32,1,1,2,9
0021300805,1610612754,IND,Indiana,202331,Paul George,F,,36:05,89.7,101.9,-12.2,0.133,0.29,5.6,0.028,0.278,0.153,19.8,0.568,0.663,0.382,108.28,0.25,2014-02-19T00:00:00,5,1610612750,MIN,Minnesota,26-28,30,22,30,22,0,0,0,0,0,0,0,0,0,0,104,0.482,0.581,0.3,26,44,15,0021300805,1610612754,IND,Indiana,Paul George,F,,36:05,4,2,2,10,12,6,14,32,1,1,2,9
0021300805,1610612754,IND,Indiana,2561,David West,F,,27:19,94.6,104.2,-9.5,0.15,1.5,20.0,0.071,0.179,0.125,13.3,0.2,0.2,0.178,106.99,0.0,2014-02-19T00:00:00,5,1610612754,IND,Indiana,41-13,18,21,33,19,0,0,0,0,0,0,0,0,0,0,91,0.402,0.75,0.273,17,49,21,0021300805,1610612754,IND,Indiana,David West,F,,27:19,0,2,0,4,10,4,11,28,0,1,5,1
0021300805,1610612754,IND,Indiana,2561,David West,F,,27:19,94.6,104.2,-9.5,0.15,1.5,20.0,0.071,0.179,0.125,13.3,0.2,0.2,0.178,106.99,0.0,2014-02-19T00:00:00,5,1610612750,MIN,Minnesota,26-28,30,22,30,22,0,0,0,0,0,0,0,0,0,0,104,0.482,0.581,0.3,26,44,15,0021300805,1610612754,IND,Indiana,David West,F,,27:19,0,2,0,4,10,4,11,28,0,1,5,1
0021300805,1610612754,IND,Indiana,201579,Roy Hibbert,C,,23:37,85.1,103.6,-18.6,0.125,2.0,25.0,0.042,0.154,0.1,12.5,0.4,0.4,0.103,109.87,0.039,2014-02-19T00:00:00,5,1610612754,IND,Indiana,41-13,18,21,33,19,0,0,0,0,0,0,0,0,0,0,91,0.402,0.75,0.273,17,49,21,0021300805,1610612754,IND,Indiana,Roy Hibbert,C,,23:37,0,2,0,0,6,4,9,24,0,0,3,0
0021300805,1610612754,IND,Indiana,201579,Roy Hibbert,C,,23:37,85.1,103.6,-18.6,0.125,2.0,25.0,0.042,0.154,0.1,12.5,0.4,0.4,0.103,109.87,0.039,2014-02-19T00:00:00,5,1610612750,MIN,Minnesota,26-28,30,22,30,22,0,0,0,0,0,0,0,0,0,0,104,0.482,0.581,0.3,26,44,15,0021300805,1610612754,IND,Indiana,Roy Hibbert,C,,23:37,0,2,0,0,6,4,9,24,0,0,3,0
0021300805,1610612754,IND,Indiana,202362,Lance Stephenson,G,,37:15,79.0,101.9,-22.9,0.19,2.0,18.3,0.048,0.229,0.13,9.1,0.333,0.315,0.198,105.51,0.047,2014-02-19T00:00:00,5,1610612754,IND,Indiana,41-13,18,21,33,19,0,0,0,0,0,0,0,0,0,0,91,0.402,0.75,0.273,17,49,21,0021300805,1610612754,IND,Indiana,Lance Stephenson,G,,37:15,0,2,0,10,12,4,17,40,0,2,3,4
0021300805,1610612754,IND,Indiana,202362,Lance Stephenson,G,,37:15,79.0,101.9,-22.9,0.19,2.0,18.3,0.048,0.229,0.13,9.1,0.333,0.315,0.198,105.51,0.047,2014-02-19T00:00:00,5,1610612750,MIN,Minnesota,26-28,30,22,30,22,0,0,0,0,0,0,0,0,0,0,104,0.482,0.581,0.3,26,44,15,0021300805,1610612754,IND,Indiana,Lance Stephenson,G,,37:15,0,2,0,10,12,4,17,40,0,2,3,4
0021300805,1610612754,IND,Indiana,201588,George Hill,G,,31:41,83.9,99.8,-15.9,0.059,0.5,7.8,0.0,0.171,0.088,15.7,0.625,0.666,0.154,108.78,0.108,2014-02-19T00:00:00,5,1610612754,IND,Indiana,41-13,18,21,33,19,0,0,0,0,0,0,0,0,0,0,91,0.402,0.75,0.273,17,49,21,0021300805,1610612754,IND,Indiana,George Hill,G,,31:41,3,0,2,2,10,4,14,32,1,0,3,2
0021300805,1610612754,IND,Indiana,201588,George Hill,G,,31:41,83.9,99.8,-15.9,0.059,0.5,7.8,0.0,0.171,0.088,15.7,0.625,0.666,0.154,108.78,0.108,2014-02-19T00:00:00,5,1610612750,MIN,Minnesota,26-28,30,22,30,22,0,0,0,0,0,0,0,0,0,0,104,0.482,0.581,0.3,26,44,15,0021300805,1610612754,IND,Indiana,George Hill,G,,31:41,3,0,2,2,10,4,14,32,1,0,3,2
0021300805,1610612754,IND,Indiana,2449,Luis Scola,,,9:56,45.5,80.0,-34.5,0.0,0.0,0.0,0.083,0.182,0.13,60.0,0.5,0.5,0.217,110.52,-0.021,2014-02-19T00:00:00,5,1610612754,IND,Indiana,41-13,18,21,33,19,0,0,0,0,0,0,0,0,0,0,91,0.402,0.75,0.273,17,49,21,0021300805,1610612754,IND,Indiana,Luis Scola,,,9:56,0,2,0,2,4,0,5,10,0,0,1,0
0021300805,1610612754,IND,Indiana,2449,Luis Scola,,,9:56,45.5,80.0,-34.5,0.0,0.0,0.0,0.083,0.182,0.13,60.0,0.5,0.5,0.217,110.52,-0.021,2014-02-19T00:00:00,5,1610612750,MIN,Minnesota,26-28,30,22,30,22,0,0,0,0,0,0,0,0,0,0,104,0.482,0.581,0.3,26,44,15,0021300805,1610612754,IND,Indiana,Luis Scola,,,9:56,0,2,0,2,4,0,5,10,0,0,1,0
0021300805,1610612754,IND,Indiana,201228,C.J. Watson,,,15:06,89.7,91.9,-2.2,0.1,1.0,11.1,0.0,0.1,0.037,11.1,0.429,0.429,0.22,103.25,0.023,2014-02-19T00:00:00,5,1610612754,IND,Indiana,41-13,18,21,33,19,0,0,0,0,0,0,0,0,0,0,91,0.402,0.75,0.273,17,49,21,0021300805,1610612754,IND,Indiana,C.J. Watson,,,15:06,2,0,0,4,8,2,5,8,0,1,2,1
0021300805,1610612754,IND,Indiana,201228,C.J. Watson,,,15:06,89.7,91.9,-2.2,0.1,1.0,11.1,0.0,0.1,0.037,11.1,0.429,0.429,0.22,103.25,0.023,2014-02-19T00:00:00,5,1610612750,MIN,Minnesota,26-28,30,22,30,22,0,0,0,0,0,0,0,0,0,0,104,0.482,0.581,0.3,26,44,15,0021300805,1610612754,IND,Indiana,C.J. Watson,,,15:06,2,0,0,4,8,2,5,8,0,1,2,1
0021300805,1610612754,IND,Indiana,101122,Danny Granger,,,17:38,94.8,82.4,12.4,0.077,0.0,14.3,0.056,0.133,0.091,0.0,0.167,0.167,0.143,104.53,-0.011,2014-02-19T00:00:00,5,1610612754,IND,Indiana,41-13,18,21,33,19,0,0,0,0,0,0,0,0,0,0,91,0.402,0.75,0.273,17,49,21,0021300805,1610612754,IND,Indiana,Danny Granger,,,17:38,0,2,0,2,8,2,5,8,0,0,1,0
0021300805,1610612754,IND,Indiana,101122,Danny Granger,,,17:38,94.8,82.4,12.4,0.077,0.0,14.3,0.056,0.133,0.091,0.0,0.167,0.167,0.143,104.53,-0.011,2014-02-19T00:00:00,5,1610612750,MIN,Minnesota,26-28,30,22,30,22,0,0,0,0,0,0,0,0,0,0,104,0.482,0.581,0.3,26,44,15,0021300805,1610612754,IND,Indiana,Danny Granger,,,17:38,0,2,0,2,8,2,5,8,0,0,1,0
0021300805,1610612754,IND,Indiana,101133,Ian Mahinmi,,,23:05,84.8,92.4,-7.6,0.071,0.0,17.0,0.045,0.0,0.026,0.0,0.5,0.512,0.088,103.39,0.033,2014-02-19T00:00:00,5,1610612754,IND,Indiana,41-13,18,21,33,19,0,0,0,0,0,0,0,0,0,0,91,0.402,0.75,0.273,17,49,21,0021300805,1610612754,IND,Indiana,Ian Mahinmi,,,23:05,2,2,0,4,10,3,8,16,1,0,4,2
0021300805,1610612754,IND,Indiana,101133,Ian Mahinmi,,,23:05,84.8,92.4,-7.6,0.071,0.0,17.0,0.045,0.0,0.026,0.0,0.5,0.512,0.088,103.39,0.033,2014-02-19T00:00:00,5,1610612750,MIN,Minnesota,26-28,30,22,30,22,0,0,0,0,0,0,0,0,0,0,104,0.482,0.581,0.3,26,44,15,0021300805,1610612754,IND,Indiana,Ian Mahinmi,,,23:05,2,2,0,4,10,3,8,16,1,0,4,2
0021300805,1610612754,IND,Indiana,203142,Chris Copeland,,,10:45,93.8,98.2,-4.4,0.167,0.0,17.0,0.0,0.167,0.071,0.0,0.625,0.615,0.184,104.75,0.1,2014-02-19T00:00:00,5,1610612754,IND,Indiana,41-13,18,21,33,19,0,0,0,0,0,0,0,0,0,0,91,0.402,0.75,0.273,17,49,21,0021300805,1610612754,IND,Indiana,Chris Copeland,,,10:45,2,1,2,2,4,3,2,2,0,0,2,1
0021300805,1610612754,IND,Indiana,203142,Chris Copeland,,,10:45,93.8,98.2,-4.4,0.167,0.0,17.0,0.0,0.167,0.071,0.0,0.625,0.615,0.184,104.75,0.1,2014-02-19T00:00:00,5,1610612750,MIN,Minnesota,26-28,30,22,30,22,0,0,0,0,0,0,0,0,0,0,104,0.482,0.581,0.3,26,44,15,0021300805,1610612754,IND,Indiana,Chris Copeland,,,10:45,2,1,2,2,4,3,2,2,0,0,2,1
0021300805,1610612754,IND,Indiana,2446,Rasual Butler,,,2:31,57.1,86.8,-29.7,0.0,0.0,0.0,0.0,0.0,0.0,33.3,0.5,0.5,0.429,121.68,0.182,2014-02-19T00:00:00,5,1610612754,IND,Indiana,41-13,18,21,33,19,0,0,0,0,0,0,0,0,0,0,91,0.402,0.75,0.273,17,49,21,0021300805,1610612754,IND,Indiana,Rasual Butler,,,2:31,0,0,2,2,2,1,0,0,0,0,1,0
0021300805,1610612754,IND,Indiana,2446,Rasual Butler,,,2:31,57.1,86.8,-29.7,0.0,0.0,0.0,0.0,0.0,0.0,33.3,0.5,0.5,0.429,121.68,0.182,2014-02-19T00:00:00,5,1610612750,MIN,Minnesota,26-28,30,22,30,22,0,0,0,0,0,0,0,0,0,0,104,0.482,0.581,0.3,26,44,15,0021300805,1610612754,IND,Indiana,Rasual Butler,,,2:31,0,0,2,2,2,1,0,0,0,0,1,0
0021300805,1610612754,IND,Indiana,203111,Orlando Johnson,,,2:31,57.1,86.8,-29.7,1.0,1.0,25.0,0.0,0.5,0.5,25.0,0.5,0.5,0.429,121.68,0.364,2014-02-19T00:00:00,5,1610612754,IND,Indiana,41-13,18,21,33,19,0,0,0,0,0,0,0,0,0,0,91,0.402,0.75,0.273,17,49,21,0021300805,1610612754,IND,Indiana,Orlando Johnson,,,2:31,0,0,0,2,2,1,0,0,0,0,0,0
0021300805,1610612754,IND,Indiana,203111,Orlando Johnson,,,2:31,57.1,86.8,-29.7,1.0,1.0,25.0,0.0,0.5,0.5,25.0,0.5,0.5,0.429,121.68,0.364,2014-02-19T00:00:00,5,1610612750,MIN,Minnesota,26-28,30,22,30,22,0,0,0,0,0,0,0,0,0,0,104,0.482,0.581,0.3,26,44,15,0021300805,1610612754,IND,Indiana,Orlando Johnson,,,2:31,0,0,0,2,2,1,0,0,0,0,0,0
0021300805,1610612754,IND,Indiana,202388,Donald Sloan,,,2:31,57.1,86.8,-29.7,0.0,0.0,0.0,0.0,0.0,0.0,100.0,0.0,0.0,0.143,121.68,-0.182,2014-02-19T00:00:00,5,1610612754,IND,Indiana,41-13,18,21,33,19,0,0,0,0,0,0,0,0,0,0,91,0.402,0.75,0.273,17,49,21,0021300805,1610612754,IND,Indiana,Donald Sloan,,,2:31,0,0,0,0,2,1,0,0,0,0,0,0
0021300805,1610612754,IND,Indiana,202388,Donald Sloan,,,2:31,57.1,86.8,-29.7,0.0,0.0,0.0,0.0,0.0,0.0,100.0,0.0,0.0,0.143,121.68,-0.182,2014-02-19T00:00:00,5,1610612750,MIN,Minnesota,26-28,30,22,30,22,0,0,0,0,0,0,0,0,0,0,104,0.482,0.581,0.3,26,44,15,0021300805,1610612754,IND,Indiana,Donald Sloan,,,2:31,0,0,0,0,2,1,0,0,0,0,0,0
0021300805,1610612750,MIN,Minnesota,201147,Corey Brewer,F,,27:37,102.6,87.7,14.9,0.048,0.0,8.1,0.0,0.042,0.018,0.0,0.5,0.53,0.171,109.56,0.069,2014-02-19T00:00:00,5,1610612754,IND,Indiana,41-13,18,21,33,19,0,0,0,0,0,0,0,0,0,0,91,0.402,0.75,0.273,17,49,21,0021300805,1610612750,MIN,Minnesota,Corey Brewer,F,,27:37,2,0,10,10,7,8,6,22,0,1,4,5
0021300805,1610612750,MIN,Minnesota,201147,Corey Brewer,F,,27:37,102.6,87.7,14.9,0.048,0.0,8.1,0.0,0.042,0.018,0.0,0.5,0.53,0.171,109.56,0.069,2014-02-19T00:00:00,5,1610612750,MIN,Minnesota,26-28,30,22,30,22,0,0,0,0,0,0,0,0,0,0,104,0.482,0.581,0.3,26,44,15,0021300805,1610612750,MIN,Minnesota,Corey Brewer,F,,27:37,2,0,10,10,7,8,6,22,0,1,4,5
0021300805,1610612750,MIN,Minnesota,201567,Kevin Love,F,,37:22,101.3,88.2,13.1,0.053,0.33,3.3,0.026,0.441,0.219,9.9,0.75,0.795,0.327,106.92,0.346,2014-02-19T00:00:00,5,1610612754,IND,Indiana,41-13,18,21,33,19,0,0,0,0,0,0,0,0,0,0,91,0.402,0.75,0.273,17,49,21,0021300805,1610612750,MIN,Minnesota,Kevin Love,F,,37:22,6,4,2,8,11,10,8,32,0,0,2,8
0021300805,1610612750,MIN,Minnesota,201567,Kevin Love,F,,37:22,101.3,88.2,13.1,0.053,0.33,3.3,0.026,0.441,0.219,9.9,0.75,0.795,0.327,106.92,0.346,2014-02-19T00:00:00,5,1610612750,MIN,Minnesota,26-28,30,22,30,22,0,0,0,0,0,0,0,0,0,0,104,0.482,0.581,0.3,26,44,15,0021300805,1610612750,MIN,Minnesota,Kevin Love,F,,37:22,6,4,2,8,11,10,8,32,0,0,2,8
0021300805,1610612750,MIN,Minnesota,101142,Ronny Turiaf,C,,29:32,100.1,90.1,10.0,0.0,0.0,0.0,0.032,0.097,0.065,0.0,0.714,0.523,0.16,106.98,0.041,2014-02-19T00:00:00,5,1610612754,IND,Indiana,41-13,18,21,33,19,0,0,0,0,0,0,0,0,0,0,91,0.402,0.75,0.273,17,49,21,0021300805,1610612750,MIN,Minnesota,Ronny Turiaf,C,,29:32,2,2,0,8,9,11,4,24,2,1,3,5
0021300805,1610612750,MIN,Minnesota,101142,Ronny Turiaf,C,,29:32,100.1,90.1,10.0,0.0,0.0,0.0,0.032,0.097,0.065,0.0,0.714,0.523,0.16,106.98,0.041,2014-02-19T00:00:00,5,1610612750,MIN,Minnesota,26-28,30,22,30,22,0,0,0,0,0,0,0,0,0,0,104,0.482,0.581,0.3,26,44,15,0021300805,1610612750,MIN,Minnesota,Ronny Turiaf,C,,29:32,2,2,0,8,9,11,4,24,2,1,3,5
0021300805,1610612750,MIN,Minnesota,201978,Chase Budinger,G,,28:22,103.5,98.7,4.8,0.091,2.0,18.2,0.0,0.077,0.037,9.1,0.313,0.313,0.137,107.15,0.0,2014-02-19T00:00:00,5,1610612754,IND,Indiana,41-13,18,21,33,19,0,0,0,0,0,0,0,0,0,0,91,0.402,0.75,0.273,17,49,21,0021300805,1610612750,MIN,Minnesota,Chase Budinger,G,,28:22,0,0,0,0,13,10,6,24,0,0,3,0
0021300805,1610612750,MIN,Minnesota,201978,Chase Budinger,G,,28:22,103.5,98.7,4.8,0.091,2.0,18.2,0.0,0.077,0.037,9.1,0.313,0.313,0.137,107.15,0.0,2014-02-19T00:00:00,5,1610612750,MIN,Minnesota,26-28,30,22,30,22,0,0,0,0,0,0,0,0,0,0,104,0.482,0.581,0.3,26,44,15,0021300805,1610612750,MIN,Minnesota,Chase Budinger,G,,28:22,0,0,0,0,13,10,6,24,0,0,3,0
0021300805,1610612750,MIN,Minnesota,201937,Ricky Rubio,G,,32:57,101.6,91.3,10.3,0.654,8.5,53.7,0.028,0.207,0.108,6.3,0.2,0.237,0.179,110.97,0.14,2014-02-19T00:00:00,5,1610612754,IND,Indiana,41-13,18,21,33,19,0,0,0,0,0,0,0,0,0,0,91,0.402,0.75,0.273,17,49,21,0021300805,1610612750,MIN,Minnesota,Ricky Rubio,G,,32:57,0,1,0,2,11,10,8,32,0,0,1,5
0021300805,1610612750,MIN,Minnesota,201937,Ricky Rubio,G,,32:57,101.6,91.3,10.3,0.654,8.5,53.7,0.028,0.207,0.108,6.3,0.2,0.237,0.179,110.97,0.14,2014-02-19T00:00:00,5,1610612750,MIN,Minnesota,26-28,30,22,30,22,0,0,0,0,0,0,0,0,0,0,104,0.482,0.581,0.3,26,44,15,0021300805,1610612750,MIN,Minnesota,Ricky Rubio,G,,32:57,0,1,0,2,11,10,8,32,0,0,1,5
0021300805,1610612750,MIN,Minnesota,201601,Luc Mbah a Moute,,,24:31,89.8,79.1,10.7,0.056,1.0,25.0,0.0,0.038,0.022,25.0,0.0,0.0,0.053,103.09,-0.069,2014-02-19T00:00:00,5,1610612754,IND,Indiana,41-13,18,21,33,19,0,0,0,0,0,0,0,0,0,0,91,0.402,0.75,0.273,17,49,21,0021300805,1610612750,MIN,Minnesota,Luc Mbah a Moute,,,24:31,0,0,0,0,6,7,4,24,0,0,4,0
0021300805,1610612750,MIN,Minnesota,201601,Luc Mbah a Moute,,,24:31,89.8,79.1,10.7,0.056,1.0,25.0,0.0,0.038,0.022,25.0,0.0,0.0,0.053,103.09,-0.069,2014-02-19T00:00:00,5,1610612750,MIN,Minnesota,26-28,30,22,30,22,0,0,0,0,0,0,0,0,0,0,104,0.482,0.581,0.3,26,44,15,0021300805,1610612750,MIN,Minnesota,Luc Mbah a Moute,,,24:31,0,0,0,0,6,7,4,24,0,0,4,0
0021300805,1610612750,MIN,Minnesota,201967,Dante Cunningham,,,24:16,89.6,81.4,8.2,0.0,0.0,0.0,0.111,0.208,0.167,16.8,0.444,0.506,0.21,105.27,0.167,2014-02-19T00:00:00,5,1610612754,IND,Indiana,41-13,18,21,33,19,0,0,0,0,0,0,0,0,0,0,91,0.402,0.75,0.273,17,49,21,0021300805,1610612750,MIN,Minnesota,Dante Cunningham,,,24:16,4,0,2,4,6,7,4,26,2,0,1,1
0021300805,1610612750,MIN,Minnesota,201967,Dante Cunningham,,,24:16,89.6,81.4,8.2,0.0,0.0,0.0,0.111,0.208,0.167,16.8,0.444,0.506,0.21,105.27,0.167,2014-02-19T00:00:00,5,1610612750,MIN,Minnesota,26-28,30,22,30,22,0,0,0,0,0,0,0,0,0,0,104,0.482,0.581,0.3,26,44,15,0021300805,1610612750,MIN,Minnesota,Dante Cunningham,,,24:16,4,0,2,4,6,7,4,26,2,0,1,1
0021300805,1610612750,MIN,Minnesota,203144,Alexey Shved,,,14:18,84.2,59.0,25.2,0.1,0.5,11.3,0.0,0.2,0.129,22.5,0.4,0.51,0.247,105.89,0.182,2014-02-19T00:00:00,5,1610612754,IND,Indiana,41-13,18,21,33,19,0,0,0,0,0,0,0,0,0,0,91,0.402,0.75,0.273,17,49,21,0021300805,1610612750,MIN,Minnesota,Alexey Shved,,,14:18,2,0,2,4,0,5,0,14,0,0,0,2
0021300805,1610612750,MIN,Minnesota,203144,Alexey Shved,,,14:18,84.2,59.0,25.2,0.1,0.5,11.3,0.0,0.2,0.129,22.5,0.4,0.51,0.247,105.89,0.182,2014-02-19T00:00:00,5,1610612750,MIN,Minnesota,26-28,30,22,30,22,0,0,0,0,0,0,0,0,0,0,104,0.482,0.581,0.3,26,44,15,0021300805,1610612750,MIN,Minnesota,Alexey Shved,,,14:18,2,0,2,4,0,5,0,14,0,0,0,2
0021300805,1610612750,MIN,Minnesota,200826,J.J. Barea,,,14:35,90.0,75.3,14.7,0.5,1.5,20.0,0.0,0.053,0.036,13.3,0.6,0.6,0.416,95.58,0.24,2014-02-19T00:00:00,5,1610612754,IND,Indiana,41-13,18,21,33,19,0,0,0,0,0,0,0,0,0,0,91,0.402,0.75,0.273,17,49,21,0021300805,1610612750,MIN,Minnesota,J.J. Barea,,,14:35,2,0,2,4,2,5,0,12,0,1,1,1
0021300805,1610612750,MIN,Minnesota,200826,J.J. Barea,,,14:35,90.0,75.3,14.7,0.5,1.5,20.0,0.0,0.053,0.036,13.3,0.6,0.6,0.416,95.58,0.24,2014-02-19T00:00:00,5,1610612750,MIN,Minnesota,26-28,30,22,30,22,0,0,0,0,0,0,0,0,0,0,104,0.482,0.581,0.3,26,44,15,0021300805,1610612750,MIN,Minnesota,J.J. Barea,,,14:35,2,0,2,4,2,5,0,12,0,1,1,1
0021300805,1610612750,MIN,Minnesota,203476,Gorgui Dieng,,,4:00,88.9,42.4,46.5,0.0,0.0,0.0,0.0,0.143,0.111,100.0,0.0,0.0,0.111,110.64,-0.125,2014-02-19T00:00:00,5,1610612754,IND,Indiana,41-13,18,21,33,19,0,0,0,0,0,0,0,0,0,0,91,0.402,0.75,0.273,17,49,21,0021300805,1610612750,MIN,Minnesota,Gorgui Dieng,,,4:00,0,0,0,0,0,2,0,4,1,0,1,0
0021300805,1610612750,MIN,Minnesota,203476,Gorgui Dieng,,,4:00,88.9,42.4,46.5,0.0,0.0,0.0,0.0,0.143,0.111,100.0,0.0,0.0,0.111,110.64,-0.125,2014-02-19T00:00:00,5,1610612750,MIN,Minnesota,26-28,30,22,30,22,0,0,0,0,0,0,0,0,0,0,104,0.482,0.581,0.3,26,44,15,0021300805,1610612750,MIN,Minnesota,Gorgui Dieng,,,4:00,0,0,0,0,0,2,0,4,1,0,1,0
0021300805,1610612750,MIN,Minnesota,203133,Robbie Hummel,,,0:50,106.4,50.0,56.4,0.0,0.0,0.0,0.0,0.0,0.0,0.0,0.0,0.0,0.0,169.68,0.0,2014-02-19T00:00:00,5,1610612754,IND,Indiana,41-13,18,21,33,19,0,0,0,0,0,0,0,0,0,0,91,0.402,0.75,0.273,17,49,21,0021300805,1610612750,MIN,Minnesota,Robbie Hummel,,,0:50,0,0,0,0,0,0,0,2,0,0,0,0
0021300805,1610612750,MIN,Minnesota,203133,Robbie Hummel,,,0:50,106.4,50.0,56.4,0.0,0.0,0.0,0.0,0.0,0.0,0.0,0.0,0.0,0.0,169.68,0.0,2014-02-19T00:00:00,5,1610612750,MIN,Minnesota,26-28,30,22,30,22,0,0,0,0,0,0,0,0,0,0,104,0.482,0.581,0.3,26,44,15,0021300805,1610612750,MIN,Minnesota,Robbie Hummel,,,0:50,0,0,0,0,0,0,0,2,0,0,0,0
0021300805,1610612750,MIN,Minnesota,203498,Shabazz Muhammad,,,0:50,106.4,50.0,56.4,0.0,0.0,0.0,0.0,0.0,0.0,100.0,0.0,0.0,0.532,169.68,0.0,2014-02-19T00:00:00,5,1610612754,IND,Indiana,41-13,18,21,33,19,0,0,0,0,0,0,0,0,0,0,91,0.402,0.75,0.273,17,49,21,0021300805,1610612750,MIN,Minnesota,Shabazz Muhammad,,,0:50,0,0,0,0,0,0,0,2,0,0,0,0
0021300805,1610612750,MIN,Minnesota,203498,Shabazz Muhammad,,,0:50,106.4,50.0,56.4,0.0,0.0,0.0,0.0,0.0,0.0,100.0,0.0,0.0,0.532,169.68,0.0,2014-02-19T00:00:00,5,1610612750,MIN,Minnesota,26-28,30,22,30,22,0,0,0,0,0,0,0,0,0,0,104,0.482,0.581,0.3,26,44,15,0021300805,1610612750,MIN,Minnesota,Shabazz Muhammad,,,0:50,0,0,0,0,0,0,0,2,0,0,0,0
0021300805,1610612750,MIN,Minnesota,201985,AJ Price,,,0:50,106.4,50.0,56.4,0.0,0.0,0.0,0.0,0.0,0.0,0.0,0.0,0.0,0.0,169.68,0.0,2014-02-19T00:00:00,5,1610612754,IND,Indiana,41-13,18,21,33,19,0,0,0,0,0,0,0,0,0,0,91,0.402,0.75,0.273,17,49,21,0021300805,1610612750,MIN,Minnesota,AJ Price,,,0:50,0,0,0,0,0,0,0,2,0,0,0,0
0021300805,1610612750,MIN,Minnesota,201985,AJ Price,,,0:50,106.4,50.0,56.4,0.0,0.0,0.0,0.0,0.0,0.0,0.0,0.0,0.0,0.0,169.68,0.0,2014-02-19T00:00:00,5,1610612750,MIN,Minnesota,26-28,30,22,30,22,0,0,0,0,0,0,0,0,0,0,104,0.482,0.581,0.3,26,44,15,0021300805,1610612750,MIN,Minnesota,AJ Price,,,0:50,0,0,0,0,0,0,0,2,0,0,0,0
