GAME_ID_x,TEAM_ID_x,TEAM_ABBREVIATION_x,TEAM_CITY_x,PLAYER_ID,PLAYER_NAME_x,START_POSITION_x,COMMENT_x,MIN_x,OFF_RATING,DEF_RATING,NET_RATING,AST_PCT,AST_TOV,AST_RATIO,OREB_PCT,DREB_PCT,REB_PCT,TM_TOV_PCT,EFG_PCT,TS_PCT,USG_PCT,PACE,PIE,GAME_DATE_EST,GAME_SEQUENCE,TEAM_ID_y,TEAM_ABBREVIATION_y,TEAM_CITY_NAME,TEAM_WINS_LOSSES,PTS_QTR1,PTS_QTR2,PTS_QTR3,PTS_QTR4,PTS_OT1,PTS_OT2,PTS_OT3,PTS_OT4,PTS_OT5,PTS_OT6,PTS_OT7,PTS_OT8,PTS_OT9,PTS_OT10,PTS,FG_PCT,FT_PCT,FG3_PCT,AST,REB,TOV,GAME_ID_y,TEAM_ID,TEAM_ABBREVIATION,TEAM_CITY_y,PLAYER_NAME_y,START_POSITION_y,COMMENT_y,MIN_y,PTS_OFF_TOV,PTS_2ND_CHANCE,PTS_FB,PTS_PAINT,OPP_PTS_OFF_TOV,OPP_PTS_2ND_CHANCE,OPP_PTS_FB,OPP_PTS_PAINT,BLK,BLKA,PF,PFD
0021300812,1610612743,DEN,Denver,201576,Anthony Randolph,F,,27:48,98.7,100.9,-2.2,0.167,3.0,17.9,0.0,0.15,0.079,6.0,0.318,0.313,0.238,93.44,0.013,2014-02-20T00:00:00,1,1610612743,DEN,Denver,25-28,31,19,28,23,0,0,0,0,0,0,0,0,0,0,101,0.513,0.577,0.444,22,41,15,0021300812,1610612743,DEN,Denver,Anthony Randolph,F,,27:48,1.0,2.0,1.0,4.0,17.0,8.0,6.0,28.0,0.0,2.0,3.0,3.0
0021300812,1610612743,DEN,Denver,201576,Anthony Randolph,F,,27:48,98.7,100.9,-2.2,0.167,3.0,17.9,0.0,0.15,0.079,6.0,0.318,0.313,0.238,93.44,0.013,2014-02-20T00:00:00,1,1610612749,MIL,Milwaukee,10-44,22,20,25,23,0,0,0,0,0,0,0,0,0,0,90,0.427,0.8,0.19,15,36,12,0021300812,1610612743,DEN,Denver,Anthony Randolph,F,,27:48,1.0,2.0,1.0,4.0,17.0,8.0,6.0,28.0,0.0,2.0,3.0,3.0
0021300812,1610612743,DEN,Denver,202702,Kenneth Faried,F,,38:31,119.0,99.9,19.1,0.083,0.67,9.0,0.143,0.061,0.098,13.5,0.733,0.756,0.244,93.44,0.174,2014-02-20T00:00:00,1,1610612743,DEN,Denver,25-28,31,19,28,23,0,0,0,0,0,0,0,0,0,0,101,0.513,0.577,0.444,22,41,15,0021300812,1610612743,DEN,Denver,Kenneth Faried,F,,38:31,4.0,8.0,5.0,20.0,20.0,12.0,7.0,36.0,0.0,0.0,1.0,3.0
0021300812,1610612743,DEN,Denver,202702,Kenneth Faried,F,,38:31,119.0,99.9,19.1,0.083,0.67,9.0,0.143,0.061,0.098,13.5,0.733,0.756,0.244,93.44,0.174,2014-02-20T00:00:00,1,1610612749,MIL,Milwaukee,10-44,22,20,25,23,0,0,0,0,0,0,0,0,0,0,90,0.427,0.8,0.19,15,36,12,0021300812,1610612743,DEN,Denver,Kenneth Faried,F,,38:31,4.0,8.0,5.0,20.0,20.0,12.0,7.0,36.0,0.0,0.0,1.0,3.0
0021300812,1610612743,DEN,Denver,201581,JJ Hickson,C,,29:02,116.9,98.9,18.0,0.05,0.5,6.6,0.125,0.333,0.222,13.3,0.667,0.579,0.221,92.78,0.129,2014-02-20T00:00:00,1,1610612743,DEN,Denver,25-28,31,19,28,23,0,0,0,0,0,0,0,0,0,0,101,0.513,0.577,0.444,22,41,15,0021300812,1610612743,DEN,Denver,JJ Hickson,C,,29:02,0.0,1.0,0.0,10.0,15.0,10.0,4.0,28.0,0.0,1.0,2.0,4.0
0021300812,1610612743,DEN,Denver,201581,JJ Hickson,C,,29:02,116.9,98.9,18.0,0.05,0.5,6.6,0.125,0.333,0.222,13.3,0.667,0.579,0.221,92.78,0.129,2014-02-20T00:00:00,1,1610612749,MIL,Milwaukee,10-44,22,20,25,23,0,0,0,0,0,0,0,0,0,0,90,0.427,0.8,0.19,15,36,12,0021300812,1610612743,DEN,Denver,JJ Hickson,C,,29:02,0.0,1.0,0.0,10.0,15.0,10.0,4.0,28.0,0.0,1.0,2.0,4.0
0021300812,1610612743,DEN,Denver,201163,Wilson Chandler,G,,31:59,105.7,97.6,8.2,0.053,1.0,10.0,0.042,0.208,0.125,10.0,0.938,0.938,0.131,93.05,0.182,2014-02-20T00:00:00,1,1610612743,DEN,Denver,25-28,31,19,28,23,0,0,0,0,0,0,0,0,0,0,101,0.513,0.577,0.444,22,41,15,0021300812,1610612743,DEN,Denver,Wilson Chandler,G,,31:59,3.0,0.0,3.0,4.0,19.0,10.0,6.0,30.0,0.0,0.0,1.0,2.0
0021300812,1610612743,DEN,Denver,201163,Wilson Chandler,G,,31:59,105.7,97.6,8.2,0.053,1.0,10.0,0.042,0.208,0.125,10.0,0.938,0.938,0.131,93.05,0.182,2014-02-20T00:00:00,1,1610612749,MIL,Milwaukee,10-44,22,20,25,23,0,0,0,0,0,0,0,0,0,0,90,0.427,0.8,0.19,15,36,12,0021300812,1610612743,DEN,Denver,Wilson Chandler,G,,31:59,3.0,0.0,3.0,4.0,19.0,10.0,6.0,30.0,0.0,0.0,1.0,2.0
0021300812,1610612743,DEN,Denver,200751,Randy Foye,G,,39:48,115.7,92.1,23.7,0.323,2.5,38.5,0.0,0.0,0.0,15.4,0.5,0.5,0.182,91.71,0.095,2014-02-20T00:00:00,1,1610612743,DEN,Denver,25-28,31,19,28,23,0,0,0,0,0,0,0,0,0,0,101,0.513,0.577,0.444,22,41,15,0021300812,1610612743,DEN,Denver,Randy Foye,G,,39:48,0.0,0.0,3.0,2.0,22.0,14.0,7.0,32.0,2.0,1.0,1.0,0.0
0021300812,1610612743,DEN,Denver,200751,Randy Foye,G,,39:48,115.7,92.1,23.7,0.323,2.5,38.5,0.0,0.0,0.0,15.4,0.5,0.5,0.182,91.71,0.095,2014-02-20T00:00:00,1,1610612749,MIL,Milwaukee,10-44,22,20,25,23,0,0,0,0,0,0,0,0,0,0,90,0.427,0.8,0.19,15,36,12,0021300812,1610612743,DEN,Denver,Randy Foye,G,,39:48,0.0,0.0,3.0,2.0,22.0,14.0,7.0,32.0,2.0,1.0,1.0,0.0
0021300812,1610612743,DEN,Denver,203095,Evan Fournier,,,27:21,107.1,92.4,14.7,0.176,1.5,21.4,0.091,0.115,0.104,14.3,0.389,0.389,0.188,91.61,0.063,2014-02-20T00:00:00,1,1610612743,DEN,Denver,25-28,31,19,28,23,0,0,0,0,0,0,0,0,0,0,101,0.513,0.577,0.444,22,41,15,0021300812,1610612743,DEN,Denver,Evan Fournier,,,27:21,0.0,0.0,0.0,2.0,13.0,10.0,5.0,18.0,0.0,1.0,2.0,1.0
0021300812,1610612743,DEN,Denver,203095,Evan Fournier,,,27:21,107.1,92.4,14.7,0.176,1.5,21.4,0.091,0.115,0.104,14.3,0.389,0.389,0.188,91.61,0.063,2014-02-20T00:00:00,1,1610612749,MIL,Milwaukee,10-44,22,20,25,23,0,0,0,0,0,0,0,0,0,0,90,0.427,0.8,0.19,15,36,12,0021300812,1610612743,DEN,Denver,Evan Fournier,,,27:21,0.0,0.0,0.0,2.0,13.0,10.0,5.0,18.0,0.0,1.0,2.0,1.0
0021300812,1610612743,DEN,Denver,202389,Timofey Mozgov,,,23:03,105.6,94.9,10.8,0.077,0.5,7.5,0.111,0.304,0.22,14.9,0.5,0.673,0.245,88.25,0.258,2014-02-20T00:00:00,1,1610612743,DEN,Denver,25-28,31,19,28,23,0,0,0,0,0,0,0,0,0,0,101,0.513,0.577,0.444,22,41,15,0021300812,1610612743,DEN,Denver,Timofey Mozgov,,,23:03,2.0,2.0,0.0,6.0,13.0,8.0,5.0,14.0,3.0,0.0,6.0,6.0
0021300812,1610612743,DEN,Denver,202389,Timofey Mozgov,,,23:03,105.6,94.9,10.8,0.077,0.5,7.5,0.111,0.304,0.22,14.9,0.5,0.673,0.245,88.25,0.258,2014-02-20T00:00:00,1,1610612749,MIL,Milwaukee,10-44,22,20,25,23,0,0,0,0,0,0,0,0,0,0,90,0.427,0.8,0.19,15,36,12,0021300812,1610612743,DEN,Denver,Timofey Mozgov,,,23:03,2.0,2.0,0.0,6.0,13.0,8.0,5.0,14.0,3.0,0.0,6.0,6.0
0021300812,1610612743,DEN,Denver,201589,Darrell Arthur,,,22:28,108.3,99.9,8.4,0.071,0.0,14.3,0.0,0.091,0.054,0.0,0.417,0.417,0.126,91.36,0.01,2014-02-20T00:00:00,1,1610612743,DEN,Denver,25-28,31,19,28,23,0,0,0,0,0,0,0,0,0,0,101,0.513,0.577,0.444,22,41,15,0021300812,1610612743,DEN,Denver,Darrell Arthur,,,22:28,0.0,0.0,0.0,0.0,11.0,8.0,5.0,14.0,1.0,1.0,4.0,1.0
0021300812,1610612743,DEN,Denver,201589,Darrell Arthur,,,22:28,108.3,99.9,8.4,0.071,0.0,14.3,0.0,0.091,0.054,0.0,0.417,0.417,0.126,91.36,0.01,2014-02-20T00:00:00,1,1610612749,MIL,Milwaukee,10-44,22,20,25,23,0,0,0,0,0,0,0,0,0,0,90,0.427,0.8,0.19,15,36,12,0021300812,1610612743,DEN,Denver,Darrell Arthur,,,22:28,0.0,0.0,0.0,0.0,11.0,8.0,5.0,14.0,1.0,1.0,4.0,1.0
0021300812,1610612743,DEN,Denver,201166,Aaron Brooks,,NWT - Trade pending,,,,,,,0.0,,,,,,,0.0,,,2014-02-20T00:00:00,1,1610612743,DEN,Denver,25-28,31,19,28,23,0,0,0,0,0,0,0,0,0,0,101,0.513,0.577,0.444,22,41,15,0021300812,1610612743,DEN,Denver,Aaron Brooks,,NWT - Trade pending,,,,,,,,,,,,,
0021300812,1610612743,DEN,Denver,201166,Aaron Brooks,,NWT - Trade pending,,,,,,,0.0,,,,,,,0.0,,,2014-02-20T00:00:00,1,1610612749,MIL,Milwaukee,10-44,22,20,25,23,0,0,0,0,0,0,0,0,0,0,90,0.427,0.8,0.19,15,36,12,0021300812,1610612743,DEN,Denver,Aaron Brooks,,NWT - Trade pending,,,,,,,,,,,,,
0021300812,1610612743,DEN,Denver,201951,Ty Lawson,,DND - Left rib fracture,,,,,,,0.0,,,,,,,0.0,,,2014-02-20T00:00:00,1,1610612743,DEN,Denver,25-28,31,19,28,23,0,0,0,0,0,0,0,0,0,0,101,0.513,0.577,0.444,22,41,15,0021300812,1610612743,DEN,Denver,Ty Lawson,,DND - Left rib fracture,,,,,,,,,,,,,
0021300812,1610612743,DEN,Denver,201951,Ty Lawson,,DND - Left rib fracture,,,,,,,0.0,,,,,,,0.0,,,2014-02-20T00:00:00,1,1610612749,MIL,Milwaukee,10-44,22,20,25,23,0,0,0,0,0,0,0,0,0,0,90,0.427,0.8,0.19,15,36,12,0021300812,1610612743,DEN,Denver,Ty Lawson,,DND - Left rib fracture,,,,,,,,,,,,,
0021300812,1610612743,DEN,Denver,203113,Quincy Miller,,DNP - Coach's Decision,,,,,,,0.0,,,,,,,0.0,,,2014-02-20T00:00:00,1,1610612743,DEN,Denver,25-28,31,19,28,23,0,0,0,0,0,0,0,0,0,0,101,0.513,0.577,0.444,22,41,15,0021300812,1610612743,DEN,Denver,Quincy Miller,,DNP - Coach's Decision,,,,,,,,,,,,,
0021300812,1610612743,DEN,Denver,203113,Quincy Miller,,DNP - Coach's Decision,,,,,,,0.0,,,,,,,0.0,,,2014-02-20T00:00:00,1,1610612749,MIL,Milwaukee,10-44,22,20,25,23,0,0,0,0,0,0,0,0,0,0,90,0.427,0.8,0.19,15,36,12,0021300812,1610612743,DEN,Denver,Quincy Miller,,DNP - Coach's Decision,,,,,,,,,,,,,
0021300812,1610612743,DEN,Denver,101126,Nate Robinson,,DND - Left ACL sprain,,,,,,,0.0,,,,,,,0.0,,,2014-02-20T00:00:00,1,1610612743,DEN,Denver,25-28,31,19,28,23,0,0,0,0,0,0,0,0,0,0,101,0.513,0.577,0.444,22,41,15,0021300812,1610612743,DEN,Denver,Nate Robinson,,DND - Left ACL sprain,,,,,,,,,,,,,
0021300812,1610612743,DEN,Denver,101126,Nate Robinson,,DND - Left ACL sprain,,,,,,,0.0,,,,,,,0.0,,,2014-02-20T00:00:00,1,1610612749,MIL,Milwaukee,10-44,22,20,25,23,0,0,0,0,0,0,0,0,0,0,90,0.427,0.8,0.19,15,36,12,0021300812,1610612743,DEN,Denver,Nate Robinson,,DND - Left ACL sprain,,,,,,,,,,,,,
0021300812,1610612743,DEN,Denver,202686,Jan Vesely,,NWT - Trade pending,,,,,,,0.0,,,,,,,0.0,,,2014-02-20T00:00:00,1,1610612743,DEN,Denver,25-28,31,19,28,23,0,0,0,0,0,0,0,0,0,0,101,0.513,0.577,0.444,22,41,15,0021300812,1610612743,DEN,Denver,Jan Vesely,,NWT - Trade pending,,,,,,,,,,,,,
0021300812,1610612743,DEN,Denver,202686,Jan Vesely,,NWT - Trade pending,,,,,,,0.0,,,,,,,0.0,,,2014-02-20T00:00:00,1,1610612749,MIL,Milwaukee,10-44,22,20,25,23,0,0,0,0,0,0,0,0,0,0,90,0.427,0.8,0.19,15,36,12,0021300812,1610612743,DEN,Denver,Jan Vesely,,NWT - Trade pending,,,,,,,,,,,,,
0021300812,1610612749,MIL,Milwaukee,2406,Caron Butler,F,,31:16,89.5,108.4,-18.9,0.063,1.0,4.9,0.0,0.16,0.075,4.9,0.441,0.464,0.297,87.78,0.136,2014-02-20T00:00:00,1,1610612743,DEN,Denver,25-28,31,19,28,23,0,0,0,0,0,0,0,0,0,0,101,0.513,0.577,0.444,22,41,15,0021300812,1610612749,MIL,Milwaukee,Caron Butler,F,,31:16,4.0,5.0,0.0,2.0,7.0,11.0,10.0,32.0,2.0,0.0,0.0,1.0
0021300812,1610612749,MIL,Milwaukee,2406,Caron Butler,F,,31:16,89.5,108.4,-18.9,0.063,1.0,4.9,0.0,0.16,0.075,4.9,0.441,0.464,0.297,87.78,0.136,2014-02-20T00:00:00,1,1610612749,MIL,Milwaukee,10-44,22,20,25,23,0,0,0,0,0,0,0,0,0,0,90,0.427,0.8,0.19,15,36,12,0021300812,1610612749,MIL,Milwaukee,Caron Butler,F,,31:16,4.0,5.0,0.0,2.0,7.0,11.0,10.0,32.0,2.0,0.0,0.0,1.0
0021300812,1610612749,MIL,Milwaukee,101141,Ersan Ilyasova,F,,35:20,98.6,114.1,-15.5,0.0,0.0,0.0,0.125,0.25,0.183,0.0,0.393,0.444,0.202,92.57,0.091,2014-02-20T00:00:00,1,1610612743,DEN,Denver,25-28,31,19,28,23,0,0,0,0,0,0,0,0,0,0,101,0.513,0.577,0.444,22,41,15,0021300812,1610612749,MIL,Milwaukee,Ersan Ilyasova,F,,35:20,2.0,5.0,2.0,8.0,5.0,11.0,12.0,40.0,0.0,1.0,4.0,2.0
0021300812,1610612749,MIL,Milwaukee,101141,Ersan Ilyasova,F,,35:20,98.6,114.1,-15.5,0.0,0.0,0.0,0.125,0.25,0.183,0.0,0.393,0.444,0.202,92.57,0.091,2014-02-20T00:00:00,1,1610612749,MIL,Milwaukee,10-44,22,20,25,23,0,0,0,0,0,0,0,0,0,0,90,0.427,0.8,0.19,15,36,12,0021300812,1610612749,MIL,Milwaukee,Ersan Ilyasova,F,,35:20,2.0,5.0,2.0,8.0,5.0,11.0,12.0,40.0,0.0,1.0,4.0,2.0
0021300812,1610612749,MIL,Milwaukee,2585,Zaza Pachulia,C,,23:41,95.9,120.4,-24.5,0.118,0.5,15.7,0.053,0.111,0.081,31.3,0.2,0.37,0.207,97.4,-0.032,2014-02-20T00:00:00,1,1610612743,DEN,Denver,25-28,31,19,28,23,0,0,0,0,0,0,0,0,0,0,101,0.513,0.577,0.444,22,41,15,0021300812,1610612749,MIL,Milwaukee,Zaza Pachulia,C,,23:41,0.0,0.0,0.0,0.0,4.0,7.0,6.0,24.0,0.0,0.0,3.0,3.0
0021300812,1610612749,MIL,Milwaukee,2585,Zaza Pachulia,C,,23:41,95.9,120.4,-24.5,0.118,0.5,15.7,0.053,0.111,0.081,31.3,0.2,0.37,0.207,97.4,-0.032,2014-02-20T00:00:00,1,1610612749,MIL,Milwaukee,10-44,22,20,25,23,0,0,0,0,0,0,0,0,0,0,90,0.427,0.8,0.19,15,36,12,0021300812,1610612749,MIL,Milwaukee,Zaza Pachulia,C,,23:41,0.0,0.0,0.0,0.0,4.0,7.0,6.0,24.0,0.0,0.0,3.0,3.0
0021300812,1610612749,MIL,Milwaukee,203114,Khris Middleton,G,,27:44,101.9,124.5,-22.6,0.056,0.0,9.2,0.0,0.059,0.024,0.0,0.222,0.304,0.155,96.33,-0.019,2014-02-20T00:00:00,1,1610612743,DEN,Denver,25-28,31,19,28,23,0,0,0,0,0,0,0,0,0,0,101,0.513,0.577,0.444,22,41,15,0021300812,1610612749,MIL,Milwaukee,Khris Middleton,G,,27:44,0.0,0.0,0.0,2.0,5.0,6.0,7.0,38.0,0.0,1.0,3.0,1.0
0021300812,1610612749,MIL,Milwaukee,203114,Khris Middleton,G,,27:44,101.9,124.5,-22.6,0.056,0.0,9.2,0.0,0.059,0.024,0.0,0.222,0.304,0.155,96.33,-0.019,2014-02-20T00:00:00,1,1610612749,MIL,Milwaukee,10-44,22,20,25,23,0,0,0,0,0,0,0,0,0,0,90,0.427,0.8,0.19,15,36,12,0021300812,1610612749,MIL,Milwaukee,Khris Middleton,G,,27:44,0.0,0.0,0.0,2.0,5.0,6.0,7.0,38.0,0.0,1.0,3.0,1.0
0021300812,1610612749,MIL,Milwaukee,203489,Nate Wolters,G,,39:35,94.1,116.1,-22.0,0.217,5.0,25.0,0.03,0.038,0.034,5.0,0.429,0.429,0.175,93.01,0.062,2014-02-20T00:00:00,1,1610612743,DEN,Denver,25-28,31,19,28,23,0,0,0,0,0,0,0,0,0,0,101,0.513,0.577,0.444,22,41,15,0021300812,1610612749,MIL,Milwaukee,Nate Wolters,G,,39:35,4.0,2.0,0.0,10.0,10.0,11.0,9.0,46.0,0.0,2.0,2.0,4.0
0021300812,1610612749,MIL,Milwaukee,203489,Nate Wolters,G,,39:35,94.1,116.1,-22.0,0.217,5.0,25.0,0.03,0.038,0.034,5.0,0.429,0.429,0.175,93.01,0.062,2014-02-20T00:00:00,1,1610612749,MIL,Milwaukee,10-44,22,20,25,23,0,0,0,0,0,0,0,0,0,0,90,0.427,0.8,0.19,15,36,12,0021300812,1610612749,MIL,Milwaukee,Nate Wolters,G,,39:35,4.0,2.0,0.0,10.0,10.0,11.0,9.0,46.0,0.0,2.0,2.0,4.0
0021300812,1610612749,MIL,Milwaukee,203089,John Henson,,,24:49,91.6,96.8,-5.3,0.182,0.4,13.3,0.136,0.235,0.179,33.3,0.75,0.75,0.241,88.36,0.151,2014-02-20T00:00:00,1,1610612743,DEN,Denver,25-28,31,19,28,23,0,0,0,0,0,0,0,0,0,0,101,0.513,0.577,0.444,22,41,15,0021300812,1610612749,MIL,Milwaukee,John Henson,,,24:49,4.0,0.0,0.0,12.0,6.0,6.0,6.0,26.0,1.0,0.0,4.0,2.0
0021300812,1610612749,MIL,Milwaukee,203089,John Henson,,,24:49,91.6,96.8,-5.3,0.182,0.4,13.3,0.136,0.235,0.179,33.3,0.75,0.75,0.241,88.36,0.151,2014-02-20T00:00:00,1,1610612749,MIL,Milwaukee,10-44,22,20,25,23,0,0,0,0,0,0,0,0,0,0,90,0.427,0.8,0.19,15,36,12,0021300812,1610612749,MIL,Milwaukee,John Henson,,,24:49,4.0,0.0,0.0,12.0,6.0,6.0,6.0,26.0,1.0,0.0,4.0,2.0
0021300812,1610612749,MIL,Milwaukee,203507,Giannis Antetokounmpo,,,32:20,105.3,100.0,5.3,0.182,0.0,30.3,0.125,0.038,0.08,0.0,0.5,0.598,0.13,91.09,0.186,2014-02-20T00:00:00,1,1610612743,DEN,Denver,25-28,31,19,28,23,0,0,0,0,0,0,0,0,0,0,101,0.513,0.577,0.444,22,41,15,0021300812,1610612749,MIL,Milwaukee,Giannis Antetokounmpo,,,32:20,5.0,0.0,7.0,4.0,8.0,9.0,7.0,20.0,3.0,2.0,1.0,6.0
0021300812,1610612749,MIL,Milwaukee,203507,Giannis Antetokounmpo,,,32:20,105.3,100.0,5.3,0.182,0.0,30.3,0.125,0.038,0.08,0.0,0.5,0.598,0.13,91.09,0.186,2014-02-20T00:00:00,1,1610612749,MIL,Milwaukee,10-44,22,20,25,23,0,0,0,0,0,0,0,0,0,0,90,0.427,0.8,0.19,15,36,12,0021300812,1610612749,MIL,Milwaukee,Giannis Antetokounmpo,,,32:20,5.0,0.0,7.0,4.0,8.0,9.0,7.0,20.0,3.0,2.0,1.0,6.0
0021300812,1610612749,MIL,Milwaukee,201564,O.J. Mayo,,,23:21,95.3,93.1,2.2,0.0,0.0,0.0,0.0,0.143,0.073,11.1,0.688,0.688,0.18,90.57,0.17,2014-02-20T00:00:00,1,1610612743,DEN,Denver,25-28,31,19,28,23,0,0,0,0,0,0,0,0,0,0,101,0.513,0.577,0.444,22,41,15,0021300812,1610612749,MIL,Milwaukee,O.J. Mayo,,,23:21,7.0,2.0,0.0,2.0,5.0,4.0,3.0,14.0,0.0,0.0,1.0,0.0
0021300812,1610612749,MIL,Milwaukee,201564,O.J. Mayo,,,23:21,95.3,93.1,2.2,0.0,0.0,0.0,0.0,0.143,0.073,11.1,0.688,0.688,0.18,90.57,0.17,2014-02-20T00:00:00,1,1610612749,MIL,Milwaukee,10-44,22,20,25,23,0,0,0,0,0,0,0,0,0,0,90,0.427,0.8,0.19,15,36,12,0021300812,1610612749,MIL,Milwaukee,O.J. Mayo,,,23:21,7.0,2.0,0.0,2.0,5.0,4.0,3.0,14.0,0.0,0.0,1.0,0.0
0021300812,1610612749,MIL,Milwaukee,203545,Miroslav Raduljica,,,1:54,133.0,159.6,-26.6,0.0,0.0,0.0,0.0,0.5,0.25,0.0,0.0,1.136,0.185,94.99,0.182,2014-02-20T00:00:00,1,1610612743,DEN,Denver,25-28,31,19,28,23,0,0,0,0,0,0,0,0,0,0,101,0.513,0.577,0.444,22,41,15,0021300812,1610612749,MIL,Milwaukee,Miroslav Raduljica,,,1:54,0.0,2.0,0.0,0.0,0.0,0.0,0.0,0.0,0.0,0.0,2.0,1.0
0021300812,1610612749,MIL,Milwaukee,203545,Miroslav Raduljica,,,1:54,133.0,159.6,-26.6,0.0,0.0,0.0,0.0,0.5,0.25,0.0,0.0,1.136,0.185,94.99,0.182,2014-02-20T00:00:00,1,1610612749,MIL,Milwaukee,10-44,22,20,25,23,0,0,0,0,0,0,0,0,0,0,90,0.427,0.8,0.19,15,36,12,0021300812,1610612749,MIL,Milwaukee,Miroslav Raduljica,,,1:54,0.0,2.0,0.0,0.0,0.0,0.0,0.0,0.0,0.0,0.0,2.0,1.0
0021300812,1610612749,MIL,Milwaukee,202399,Jeff Adrien,,NWT - Trade pending,,,,,,,0.0,,,,,,,0.0,,,2014-02-20T00:00:00,1,1610612743,DEN,Denver,25-28,31,19,28,23,0,0,0,0,0,0,0,0,0,0,101,0.513,0.577,0.444,22,41,15,0021300812,1610612749,MIL,Milwaukee,Jeff Adrien,,NWT - Trade pending,,,,,,,,,,,,,
0021300812,1610612749,MIL,Milwaukee,202399,Jeff Adrien,,NWT - Trade pending,,,,,,,0.0,,,,,,,0.0,,,2014-02-20T00:00:00,1,1610612749,MIL,Milwaukee,10-44,22,20,25,23,0,0,0,0,0,0,0,0,0,0,90,0.427,0.8,0.19,15,36,12,0021300812,1610612749,MIL,Milwaukee,Jeff Adrien,,NWT - Trade pending,,,,,,,,,,,,,
0021300812,1610612749,MIL,Milwaukee,202688,Brandon Knight,,DNP - Coach's Decision,,,,,,,0.0,,,,,,,0.0,,,2014-02-20T00:00:00,1,1610612743,DEN,Denver,25-28,31,19,28,23,0,0,0,0,0,0,0,0,0,0,101,0.513,0.577,0.444,22,41,15,0021300812,1610612749,MIL,Milwaukee,Brandon Knight,,DNP - Coach's Decision,,,,,,,,,,,,,
0021300812,1610612749,MIL,Milwaukee,202688,Brandon Knight,,DNP - Coach's Decision,,,,,,,0.0,,,,,,,0.0,,,2014-02-20T00:00:00,1,1610612749,MIL,Milwaukee,10-44,22,20,25,23,0,0,0,0,0,0,0,0,0,0,90,0.427,0.8,0.19,15,36,12,0021300812,1610612749,MIL,Milwaukee,Brandon Knight,,DNP - Coach's Decision,,,,,,,,,,,,,
0021300812,1610612749,MIL,Milwaukee,201196,Ramon Sessions,,NWT - Trade pending,,,,,,,0.0,,,,,,,0.0,,,2014-02-20T00:00:00,1,1610612743,DEN,Denver,25-28,31,19,28,23,0,0,0,0,0,0,0,0,0,0,101,0.513,0.577,0.444,22,41,15,0021300812,1610612749,MIL,Milwaukee,Ramon Sessions,,NWT - Trade pending,,,,,,,,,,,,,
0021300812,1610612749,MIL,Milwaukee,201196,Ramon Sessions,,NWT - Trade pending,,,,,,,0.0,,,,,,,0.0,,,2014-02-20T00:00:00,1,1610612749,MIL,Milwaukee,10-44,22,20,25,23,0,0,0,0,0,0,0,0,0,0,90,0.427,0.8,0.19,15,36,12,0021300812,1610612749,MIL,Milwaukee,Ramon Sessions,,NWT - Trade pending,,,,,,,,,,,,,
0021300812,1610612749,MIL,Milwaukee,202327,Ekpe Udoh,,DNP - Coach's Decision,,,,,,,0.0,,,,,,,0.0,,,2014-02-20T00:00:00,1,1610612743,DEN,Denver,25-28,31,19,28,23,0,0,0,0,0,0,0,0,0,0,101,0.513,0.577,0.444,22,41,15,0021300812,1610612749,MIL,Milwaukee,Ekpe Udoh,,DNP - Coach's Decision,,,,,,,,,,,,,
0021300812,1610612749,MIL,Milwaukee,202327,Ekpe Udoh,,DNP - Coach's Decision,,,,,,,0.0,,,,,,,0.0,,,2014-02-20T00:00:00,1,1610612749,MIL,Milwaukee,10-44,22,20,25,23,0,0,0,0,0,0,0,0,0,0,90,0.427,0.8,0.19,15,36,12,0021300812,1610612749,MIL,Milwaukee,Ekpe Udoh,,DNP - Coach's Decision,,,,,,,,,,,,,
