GAME_ID_x,TEAM_ID_x,TEAM_ABBREVIATION_x,TEAM_CITY_x,PLAYER_ID,PLAYER_NAME_x,START_POSITION_x,COMMENT_x,MIN_x,OFF_RATING,DEF_RATING,NET_RATING,AST_PCT,AST_TOV,AST_RATIO,OREB_PCT,DREB_PCT,REB_PCT,TM_TOV_PCT,EFG_PCT,TS_PCT,USG_PCT,PACE,PIE,GAME_DATE_EST,GAME_SEQUENCE,TEAM_ID_y,TEAM_ABBREVIATION_y,TEAM_CITY_NAME,TEAM_WINS_LOSSES,PTS_QTR1,PTS_QTR2,PTS_QTR3,PTS_QTR4,PTS_OT1,PTS_OT2,PTS_OT3,PTS_OT4,PTS_OT5,PTS_OT6,PTS_OT7,PTS_OT8,PTS_OT9,PTS_OT10,PTS,FG_PCT,FT_PCT,FG3_PCT,AST,REB,TOV,GAME_ID_y,TEAM_ID,TEAM_ABBREVIATION,TEAM_CITY_y,PLAYER_NAME_y,START_POSITION_y,COMMENT_y,MIN_y,PTS_OFF_TOV,PTS_2ND_CHANCE,PTS_FB,PTS_PAINT,OPP_PTS_OFF_TOV,OPP_PTS_2ND_CHANCE,OPP_PTS_FB,OPP_PTS_PAINT,BLK,BLKA,PF,PFD
0021300813,1610612748,MIA,Miami,2544,LeBron James,F,,33:24,109.0,91.8,17.2,0.2,0.38,8.5,0.042,0.207,0.132,22.7,0.705,0.682,0.453,95.37,0.272,2014-02-20T00:00:00,2,1610612748,MIA,Miami,39-14,34,20,22,27,0,0,0,0,0,0,0,0,0,0,103,0.547,0.762,0.238,24,41,18,0021300813,1610612748,MIA,Miami,LeBron James,F,,33:24,13.0,0.0,8.0,22.0,23.0,12.0,25.0,30.0,0.0,0.0,1.0,6.0
0021300813,1610612748,MIA,Miami,2544,LeBron James,F,,33:24,109.0,91.8,17.2,0.2,0.38,8.5,0.042,0.207,0.132,22.7,0.705,0.682,0.453,95.37,0.272,2014-02-20T00:00:00,2,1610612760,OKC,Oklahoma City,43-13,17,30,18,16,0,0,0,0,0,0,0,0,0,0,81,0.378,0.767,0.1,15,38,20,0021300813,1610612748,MIA,Miami,LeBron James,F,,33:24,13.0,0.0,8.0,22.0,23.0,12.0,25.0,30.0,0.0,0.0,1.0,6.0
0021300813,1610612748,MIA,Miami,2203,Shane Battier,F,,31:55,110.2,73.6,36.6,0.0,0.0,0.0,0.087,0.069,0.077,0.0,0.125,0.125,0.118,94.05,-0.033,2014-02-20T00:00:00,2,1610612748,MIA,Miami,39-14,34,20,22,27,0,0,0,0,0,0,0,0,0,0,103,0.547,0.762,0.238,24,41,18,0021300813,1610612748,MIA,Miami,Shane Battier,F,,31:55,0.0,0.0,0.0,2.0,16.0,9.0,17.0,26.0,0.0,0.0,3.0,1.0
0021300813,1610612748,MIA,Miami,2203,Shane Battier,F,,31:55,110.2,73.6,36.6,0.0,0.0,0.0,0.087,0.069,0.077,0.0,0.125,0.125,0.118,94.05,-0.033,2014-02-20T00:00:00,2,1610612760,OKC,Oklahoma City,43-13,17,30,18,16,0,0,0,0,0,0,0,0,0,0,81,0.378,0.767,0.1,15,38,20,0021300813,1610612748,MIA,Miami,Shane Battier,F,,31:55,0.0,0.0,0.0,2.0,16.0,9.0,17.0,26.0,0.0,0.0,3.0,1.0
0021300813,1610612748,MIA,Miami,2547,Chris Bosh,C,,38:43,120.0,78.0,42.1,0.097,1.0,14.8,0.0,0.216,0.133,14.8,0.722,0.84,0.207,96.53,0.236,2014-02-20T00:00:00,2,1610612748,MIA,Miami,39-14,34,20,22,27,0,0,0,0,0,0,0,0,0,0,103,0.547,0.762,0.238,24,41,18,0021300813,1610612748,MIA,Miami,Chris Bosh,C,,38:43,2.0,0.0,0.0,4.0,20.0,13.0,22.0,36.0,1.0,1.0,3.0,8.0
0021300813,1610612748,MIA,Miami,2547,Chris Bosh,C,,38:43,120.0,78.0,42.1,0.097,1.0,14.8,0.0,0.216,0.133,14.8,0.722,0.84,0.207,96.53,0.236,2014-02-20T00:00:00,2,1610612760,OKC,Oklahoma City,43-13,17,30,18,16,0,0,0,0,0,0,0,0,0,0,81,0.378,0.767,0.1,15,38,20,0021300813,1610612748,MIA,Miami,Chris Bosh,C,,38:43,2.0,0.0,0.0,4.0,20.0,13.0,22.0,36.0,1.0,1.0,3.0,8.0
0021300813,1610612748,MIA,Miami,2548,Dwyane Wade,G,,36:35,118.2,79.9,38.2,0.417,3.33,32.4,0.083,0.156,0.125,9.7,0.647,0.671,0.259,97.28,0.261,2014-02-20T00:00:00,2,1610612748,MIA,Miami,39-14,34,20,22,27,0,0,0,0,0,0,0,0,0,0,103,0.547,0.762,0.238,24,41,18,0021300813,1610612748,MIA,Miami,Dwyane Wade,G,,36:35,10.0,0.0,10.0,14.0,20.0,7.0,22.0,36.0,0.0,0.0,3.0,4.0
0021300813,1610612748,MIA,Miami,2548,Dwyane Wade,G,,36:35,118.2,79.9,38.2,0.417,3.33,32.4,0.083,0.156,0.125,9.7,0.647,0.671,0.259,97.28,0.261,2014-02-20T00:00:00,2,1610612760,OKC,Oklahoma City,43-13,17,30,18,16,0,0,0,0,0,0,0,0,0,0,81,0.378,0.767,0.1,15,38,20,0021300813,1610612748,MIA,Miami,Dwyane Wade,G,,36:35,10.0,0.0,10.0,14.0,20.0,7.0,22.0,36.0,0.0,0.0,3.0,4.0
0021300813,1610612748,MIA,Miami,201596,Mario Chalmers,G,,32:44,120.6,79.7,40.8,0.107,1.5,24.1,0.0,0.067,0.042,16.1,0.643,0.605,0.13,96.5,0.062,2014-02-20T00:00:00,2,1610612748,MIA,Miami,39-14,34,20,22,27,0,0,0,0,0,0,0,0,0,0,103,0.547,0.762,0.238,24,41,18,0021300813,1610612748,MIA,Miami,Mario Chalmers,G,,32:44,2.0,0.0,0.0,4.0,21.0,13.0,20.0,30.0,0.0,0.0,4.0,2.0
0021300813,1610612748,MIA,Miami,201596,Mario Chalmers,G,,32:44,120.6,79.7,40.8,0.107,1.5,24.1,0.0,0.067,0.042,16.1,0.643,0.605,0.13,96.5,0.062,2014-02-20T00:00:00,2,1610612760,OKC,Oklahoma City,43-13,17,30,18,16,0,0,0,0,0,0,0,0,0,0,81,0.378,0.767,0.1,15,38,20,0021300813,1610612748,MIA,Miami,Mario Chalmers,G,,32:44,2.0,0.0,0.0,4.0,21.0,13.0,20.0,30.0,0.0,0.0,4.0,2.0
0021300813,1610612748,MIA,Miami,951,Ray Allen,,,24:40,89.7,84.0,5.6,0.071,1.0,11.8,0.0,0.13,0.067,11.8,0.417,0.466,0.146,92.98,0.089,2014-02-20T00:00:00,2,1610612748,MIA,Miami,39-14,34,20,22,27,0,0,0,0,0,0,0,0,0,0,103,0.547,0.762,0.238,24,41,18,0021300813,1610612748,MIA,Miami,Ray Allen,,,24:40,0.0,2.0,0.0,2.0,14.0,2.0,13.0,14.0,0.0,0.0,0.0,2.0
0021300813,1610612748,MIA,Miami,951,Ray Allen,,,24:40,89.7,84.0,5.6,0.071,1.0,11.8,0.0,0.13,0.067,11.8,0.417,0.466,0.146,92.98,0.089,2014-02-20T00:00:00,2,1610612760,OKC,Oklahoma City,43-13,17,30,18,16,0,0,0,0,0,0,0,0,0,0,81,0.378,0.767,0.1,15,38,20,0021300813,1610612748,MIA,Miami,Ray Allen,,,24:40,0.0,2.0,0.0,2.0,14.0,2.0,13.0,14.0,0.0,0.0,0.0,2.0
0021300813,1610612748,MIA,Miami,2365,Chris Andersen,,,20:34,82.3,99.9,-17.6,0.077,1.0,50.0,0.095,0.3,0.195,50.0,0.0,0.0,0.021,99.84,0.075,2014-02-20T00:00:00,2,1610612748,MIA,Miami,39-14,34,20,22,27,0,0,0,0,0,0,0,0,0,0,103,0.547,0.762,0.238,24,41,18,0021300813,1610612748,MIA,Miami,Chris Andersen,,,20:34,0.0,0.0,0.0,0.0,16.0,4.0,13.0,14.0,2.0,0.0,3.0,0.0
0021300813,1610612748,MIA,Miami,2365,Chris Andersen,,,20:34,82.3,99.9,-17.6,0.077,1.0,50.0,0.095,0.3,0.195,50.0,0.0,0.0,0.021,99.84,0.075,2014-02-20T00:00:00,2,1610612760,OKC,Oklahoma City,43-13,17,30,18,16,0,0,0,0,0,0,0,0,0,0,81,0.378,0.767,0.1,15,38,20,0021300813,1610612748,MIA,Miami,Chris Andersen,,,20:34,0.0,0.0,0.0,0.0,16.0,4.0,13.0,14.0,2.0,0.0,3.0,0.0
0021300813,1610612748,MIA,Miami,202708,Norris Cole,,,21:25,90.8,97.6,-6.8,0.25,0.0,33.3,0.05,0.05,0.05,0.0,0.417,0.417,0.137,92.63,0.038,2014-02-20T00:00:00,2,1610612748,MIA,Miami,39-14,34,20,22,27,0,0,0,0,0,0,0,0,0,0,103,0.547,0.762,0.238,24,41,18,0021300813,1610612748,MIA,Miami,Norris Cole,,,21:25,0.0,0.0,0.0,2.0,15.0,5.0,13.0,14.0,0.0,1.0,3.0,1.0
0021300813,1610612748,MIA,Miami,202708,Norris Cole,,,21:25,90.8,97.6,-6.8,0.25,0.0,33.3,0.05,0.05,0.05,0.0,0.417,0.417,0.137,92.63,0.038,2014-02-20T00:00:00,2,1610612760,OKC,Oklahoma City,43-13,17,30,18,16,0,0,0,0,0,0,0,0,0,0,81,0.378,0.767,0.1,15,38,20,0021300813,1610612748,MIA,Miami,Norris Cole,,,21:25,0.0,0.0,0.0,2.0,15.0,5.0,13.0,14.0,0.0,1.0,3.0,1.0
0021300813,1610612748,MIA,Miami,201563,Michael Beasley,,DNP - Coach's Decision,,,,,,,0.0,,,,,,,0.0,,,2014-02-20T00:00:00,2,1610612748,MIA,Miami,39-14,34,20,22,27,0,0,0,0,0,0,0,0,0,0,103,0.547,0.762,0.238,24,41,18,0021300813,1610612748,MIA,Miami,Michael Beasley,,DNP - Coach's Decision,,,,,,,,,,,,,
0021300813,1610612748,MIA,Miami,201563,Michael Beasley,,DNP - Coach's Decision,,,,,,,0.0,,,,,,,0.0,,,2014-02-20T00:00:00,2,1610612760,OKC,Oklahoma City,43-13,17,30,18,16,0,0,0,0,0,0,0,0,0,0,81,0.378,0.767,0.1,15,38,20,0021300813,1610612748,MIA,Miami,Michael Beasley,,DNP - Coach's Decision,,,,,,,,,,,,,
0021300813,1610612748,MIA,Miami,201962,Toney Douglas,,DNP - Coach's Decision,,,,,,,0.0,,,,,,,0.0,,,2014-02-20T00:00:00,2,1610612748,MIA,Miami,39-14,34,20,22,27,0,0,0,0,0,0,0,0,0,0,103,0.547,0.762,0.238,24,41,18,0021300813,1610612748,MIA,Miami,Toney Douglas,,DNP - Coach's Decision,,,,,,,,,,,,,
0021300813,1610612748,MIA,Miami,201962,Toney Douglas,,DNP - Coach's Decision,,,,,,,0.0,,,,,,,0.0,,,2014-02-20T00:00:00,2,1610612760,OKC,Oklahoma City,43-13,17,30,18,16,0,0,0,0,0,0,0,0,0,0,81,0.378,0.767,0.1,15,38,20,0021300813,1610612748,MIA,Miami,Toney Douglas,,DNP - Coach's Decision,,,,,,,,,,,,,
0021300813,1610612748,MIA,Miami,2617,Udonis Haslem,,DNP - Coach's Decision,,,,,,,0.0,,,,,,,0.0,,,2014-02-20T00:00:00,2,1610612748,MIA,Miami,39-14,34,20,22,27,0,0,0,0,0,0,0,0,0,0,103,0.547,0.762,0.238,24,41,18,0021300813,1610612748,MIA,Miami,Udonis Haslem,,DNP - Coach's Decision,,,,,,,,,,,,,
0021300813,1610612748,MIA,Miami,2617,Udonis Haslem,,DNP - Coach's Decision,,,,,,,0.0,,,,,,,0.0,,,2014-02-20T00:00:00,2,1610612760,OKC,Oklahoma City,43-13,17,30,18,16,0,0,0,0,0,0,0,0,0,0,81,0.378,0.767,0.1,15,38,20,0021300813,1610612748,MIA,Miami,Udonis Haslem,,DNP - Coach's Decision,,,,,,,,,,,,,
0021300813,1610612748,MIA,Miami,1740,Rashard Lewis,,DNP - Coach's Decision,,,,,,,0.0,,,,,,,0.0,,,2014-02-20T00:00:00,2,1610612748,MIA,Miami,39-14,34,20,22,27,0,0,0,0,0,0,0,0,0,0,103,0.547,0.762,0.238,24,41,18,0021300813,1610612748,MIA,Miami,Rashard Lewis,,DNP - Coach's Decision,,,,,,,,,,,,,
0021300813,1610612748,MIA,Miami,1740,Rashard Lewis,,DNP - Coach's Decision,,,,,,,0.0,,,,,,,0.0,,,2014-02-20T00:00:00,2,1610612760,OKC,Oklahoma City,43-13,17,30,18,16,0,0,0,0,0,0,0,0,0,0,81,0.378,0.767,0.1,15,38,20,0021300813,1610612748,MIA,Miami,Rashard Lewis,,DNP - Coach's Decision,,,,,,,,,,,,,
0021300813,1610612748,MIA,Miami,201141,Greg Oden,,DNP - Coach's Decision,,,,,,,0.0,,,,,,,0.0,,,2014-02-20T00:00:00,2,1610612748,MIA,Miami,39-14,34,20,22,27,0,0,0,0,0,0,0,0,0,0,103,0.547,0.762,0.238,24,41,18,0021300813,1610612748,MIA,Miami,Greg Oden,,DNP - Coach's Decision,,,,,,,,,,,,,
0021300813,1610612748,MIA,Miami,201141,Greg Oden,,DNP - Coach's Decision,,,,,,,0.0,,,,,,,0.0,,,2014-02-20T00:00:00,2,1610612760,OKC,Oklahoma City,43-13,17,30,18,16,0,0,0,0,0,0,0,0,0,0,81,0.378,0.767,0.1,15,38,20,0021300813,1610612748,MIA,Miami,Greg Oden,,DNP - Coach's Decision,,,,,,,,,,,,,
0021300813,1610612760,OKC,Oklahoma City,201142,Kevin Durant,F,,39:24,90.1,103.5,-13.3,0.2,0.6,8.7,0.028,0.25,0.125,14.5,0.477,0.53,0.349,96.93,0.149,2014-02-20T00:00:00,2,1610612748,MIA,Miami,39-14,34,20,22,27,0,0,0,0,0,0,0,0,0,0,103,0.547,0.762,0.238,24,41,18,0021300813,1610612760,OKC,Oklahoma City,Kevin Durant,F,,39:24,9.0,4.0,17.0,12.0,25.0,2.0,16.0,42.0,0.0,0.0,3.0,6.0
0021300813,1610612760,OKC,Oklahoma City,201142,Kevin Durant,F,,39:24,90.1,103.5,-13.3,0.2,0.6,8.7,0.028,0.25,0.125,14.5,0.477,0.53,0.349,96.93,0.149,2014-02-20T00:00:00,2,1610612760,OKC,Oklahoma City,43-13,17,30,18,16,0,0,0,0,0,0,0,0,0,0,81,0.378,0.767,0.1,15,38,20,0021300813,1610612760,OKC,Oklahoma City,Kevin Durant,F,,39:24,9.0,4.0,17.0,12.0,25.0,2.0,16.0,42.0,0.0,0.0,3.0,6.0
0021300813,1610612760,OKC,Oklahoma City,201586,Serge Ibaka,F,,35:06,91.0,110.7,-19.8,0.059,0.5,6.0,0.156,0.13,0.145,12.0,0.455,0.513,0.192,98.24,0.064,2014-02-20T00:00:00,2,1610612748,MIA,Miami,39-14,34,20,22,27,0,0,0,0,0,0,0,0,0,0,103,0.547,0.762,0.238,24,41,18,0021300813,1610612760,OKC,Oklahoma City,Serge Ibaka,F,,35:06,6.0,6.0,6.0,8.0,23.0,2.0,16.0,42.0,1.0,0.0,4.0,3.0
0021300813,1610612760,OKC,Oklahoma City,201586,Serge Ibaka,F,,35:06,91.0,110.7,-19.8,0.059,0.5,6.0,0.156,0.13,0.145,12.0,0.455,0.513,0.192,98.24,0.064,2014-02-20T00:00:00,2,1610612760,OKC,Oklahoma City,43-13,17,30,18,16,0,0,0,0,0,0,0,0,0,0,81,0.378,0.767,0.1,15,38,20,0021300813,1610612760,OKC,Oklahoma City,Serge Ibaka,F,,35:06,6.0,6.0,6.0,8.0,23.0,2.0,16.0,42.0,1.0,0.0,4.0,3.0
0021300813,1610612760,OKC,Oklahoma City,2570,Kendrick Perkins,C,,7:31,66.7,142.5,-75.8,0.0,0.0,0.0,0.0,0.5,0.167,100.0,0.0,0.0,0.056,97.19,-0.069,2014-02-20T00:00:00,2,1610612748,MIA,Miami,39-14,34,20,22,27,0,0,0,0,0,0,0,0,0,0,103,0.547,0.762,0.238,24,41,18,0021300813,1610612760,OKC,Oklahoma City,Kendrick Perkins,C,,7:31,0.0,0.0,0.0,0.0,14.0,0.0,8.0,14.0,0.0,0.0,2.0,0.0
0021300813,1610612760,OKC,Oklahoma City,2570,Kendrick Perkins,C,,7:31,66.7,142.5,-75.8,0.0,0.0,0.0,0.0,0.5,0.167,100.0,0.0,0.0,0.056,97.19,-0.069,2014-02-20T00:00:00,2,1610612760,OKC,Oklahoma City,43-13,17,30,18,16,0,0,0,0,0,0,0,0,0,0,81,0.378,0.767,0.1,15,38,20,0021300813,1610612760,OKC,Oklahoma City,Kendrick Perkins,C,,7:31,0.0,0.0,0.0,0.0,14.0,0.0,8.0,14.0,0.0,0.0,2.0,0.0
0021300813,1610612760,OKC,Oklahoma City,200757,Thabo Sefolosha,G,,25:35,79.5,122.5,-43.1,0.0,0.0,0.0,0.0,0.214,0.083,25.0,0.333,0.333,0.068,98.16,0.0,2014-02-20T00:00:00,2,1610612748,MIA,Miami,39-14,34,20,22,27,0,0,0,0,0,0,0,0,0,0,103,0.547,0.762,0.238,24,41,18,0021300813,1610612760,OKC,Oklahoma City,Thabo Sefolosha,G,,25:35,0.0,0.0,0.0,2.0,23.0,0.0,16.0,36.0,0.0,0.0,3.0,0.0
0021300813,1610612760,OKC,Oklahoma City,200757,Thabo Sefolosha,G,,25:35,79.5,122.5,-43.1,0.0,0.0,0.0,0.0,0.214,0.083,25.0,0.333,0.333,0.068,98.16,0.0,2014-02-20T00:00:00,2,1610612760,OKC,Oklahoma City,43-13,17,30,18,16,0,0,0,0,0,0,0,0,0,0,81,0.378,0.767,0.1,15,38,20,0021300813,1610612760,OKC,Oklahoma City,Thabo Sefolosha,G,,25:35,0.0,0.0,0.0,2.0,23.0,0.0,16.0,36.0,0.0,0.0,3.0,0.0
0021300813,1610612760,OKC,Oklahoma City,201566,Russell Westbrook,G,,23:53,87.4,107.4,-20.0,0.167,0.5,9.3,0.136,0.167,0.147,18.7,0.273,0.455,0.332,101.13,0.108,2014-02-20T00:00:00,2,1610612748,MIA,Miami,39-14,34,20,22,27,0,0,0,0,0,0,0,0,0,0,103,0.547,0.762,0.238,24,41,18,0021300813,1610612760,OKC,Oklahoma City,Russell Westbrook,G,,23:53,7.0,1.0,6.0,6.0,21.0,0.0,16.0,30.0,0.0,0.0,1.0,5.0
0021300813,1610612760,OKC,Oklahoma City,201566,Russell Westbrook,G,,23:53,87.4,107.4,-20.0,0.167,0.5,9.3,0.136,0.167,0.147,18.7,0.273,0.455,0.332,101.13,0.108,2014-02-20T00:00:00,2,1610612760,OKC,Oklahoma City,43-13,17,30,18,16,0,0,0,0,0,0,0,0,0,0,81,0.378,0.767,0.1,15,38,20,0021300813,1610612760,OKC,Oklahoma City,Russell Westbrook,G,,23:53,7.0,1.0,6.0,6.0,21.0,0.0,16.0,30.0,0.0,0.0,1.0,5.0
0021300813,1610612760,OKC,Oklahoma City,202704,Reggie Jackson,,,36:35,92.5,95.9,-3.4,0.263,1.67,27.3,0.0,0.097,0.045,16.4,0.444,0.533,0.168,94.71,0.11,2014-02-20T00:00:00,2,1610612748,MIA,Miami,39-14,34,20,22,27,0,0,0,0,0,0,0,0,0,0,103,0.547,0.762,0.238,24,41,18,0021300813,1610612760,OKC,Oklahoma City,Reggie Jackson,,,36:35,2.0,0.0,0.0,8.0,7.0,2.0,2.0,28.0,1.0,1.0,2.0,3.0
0021300813,1610612760,OKC,Oklahoma City,202704,Reggie Jackson,,,36:35,92.5,95.9,-3.4,0.263,1.67,27.3,0.0,0.097,0.045,16.4,0.444,0.533,0.168,94.71,0.11,2014-02-20T00:00:00,2,1610612760,OKC,Oklahoma City,43-13,17,30,18,16,0,0,0,0,0,0,0,0,0,0,81,0.378,0.767,0.1,15,38,20,0021300813,1610612760,OKC,Oklahoma City,Reggie Jackson,,,36:35,2.0,0.0,0.0,8.0,7.0,2.0,2.0,28.0,1.0,1.0,2.0,3.0
0021300813,1610612760,OKC,Oklahoma City,203087,Jeremy Lamb,,,20:36,75.9,111.3,-35.4,0.2,1.0,15.4,0.0,0.059,0.029,15.4,0.111,0.111,0.265,91.06,-0.072,2014-02-20T00:00:00,2,1610612748,MIA,Miami,39-14,34,20,22,27,0,0,0,0,0,0,0,0,0,0,103,0.547,0.762,0.238,24,41,18,0021300813,1610612760,OKC,Oklahoma City,Jeremy Lamb,,,20:36,0.0,0.0,0.0,2.0,6.0,2.0,2.0,18.0,0.0,1.0,2.0,0.0
0021300813,1610612760,OKC,Oklahoma City,203087,Jeremy Lamb,,,20:36,75.9,111.3,-35.4,0.2,1.0,15.4,0.0,0.059,0.029,15.4,0.111,0.111,0.265,91.06,-0.072,2014-02-20T00:00:00,2,1610612760,OKC,Oklahoma City,43-13,17,30,18,16,0,0,0,0,0,0,0,0,0,0,81,0.378,0.767,0.1,15,38,20,0021300813,1610612760,OKC,Oklahoma City,Jeremy Lamb,,,20:36,0.0,0.0,0.0,2.0,6.0,2.0,2.0,18.0,0.0,1.0,2.0,0.0
0021300813,1610612760,OKC,Oklahoma City,965,Derek Fisher,,,15:07,84.7,109.1,-24.5,0.0,0.0,0.0,0.077,0.0,0.038,0.0,0.333,0.333,0.095,93.42,-0.05,2014-02-20T00:00:00,2,1610612748,MIA,Miami,39-14,34,20,22,27,0,0,0,0,0,0,0,0,0,0,103,0.547,0.762,0.238,24,41,18,0021300813,1610612760,OKC,Oklahoma City,Derek Fisher,,,15:07,2.0,0.0,0.0,0.0,4.0,2.0,2.0,12.0,0.0,0.0,4.0,0.0
0021300813,1610612760,OKC,Oklahoma City,965,Derek Fisher,,,15:07,84.7,109.1,-24.5,0.0,0.0,0.0,0.077,0.0,0.038,0.0,0.333,0.333,0.095,93.42,-0.05,2014-02-20T00:00:00,2,1610612760,OKC,Oklahoma City,43-13,17,30,18,16,0,0,0,0,0,0,0,0,0,0,81,0.378,0.767,0.1,15,38,20,0021300813,1610612760,OKC,Oklahoma City,Derek Fisher,,,15:07,2.0,0.0,0.0,0.0,4.0,2.0,2.0,12.0,0.0,0.0,4.0,0.0
0021300813,1610612760,OKC,Oklahoma City,2555,Nick Collison,,,11:00,73.5,90.5,-16.9,0.167,0.0,50.0,0.0,0.25,0.13,0.0,0.0,0.0,0.044,93.29,0.091,2014-02-20T00:00:00,2,1610612748,MIA,Miami,39-14,34,20,22,27,0,0,0,0,0,0,0,0,0,0,103,0.547,0.762,0.238,24,41,18,0021300813,1610612760,OKC,Oklahoma City,Nick Collison,,,11:00,0.0,0.0,0.0,0.0,4.0,0.0,2.0,4.0,0.0,0.0,0.0,2.0
0021300813,1610612760,OKC,Oklahoma City,2555,Nick Collison,,,11:00,73.5,90.5,-16.9,0.167,0.0,50.0,0.0,0.25,0.13,0.0,0.0,0.0,0.044,93.29,0.091,2014-02-20T00:00:00,2,1610612760,OKC,Oklahoma City,43-13,17,30,18,16,0,0,0,0,0,0,0,0,0,0,81,0.378,0.767,0.1,15,38,20,0021300813,1610612760,OKC,Oklahoma City,Nick Collison,,,11:00,0.0,0.0,0.0,0.0,4.0,0.0,2.0,4.0,0.0,0.0,0.0,2.0
0021300813,1610612760,OKC,Oklahoma City,203103,Perry Jones III,,,21:25,80.5,99.8,-19.3,0.143,0.5,11.8,0.042,0.174,0.106,23.7,0.7,0.735,0.153,94.76,0.12,2014-02-20T00:00:00,2,1610612748,MIA,Miami,39-14,34,20,22,27,0,0,0,0,0,0,0,0,0,0,103,0.547,0.762,0.238,24,41,18,0021300813,1610612760,OKC,Oklahoma City,Perry Jones III,,,21:25,3.0,2.0,0.0,2.0,8.0,0.0,10.0,16.0,0.0,1.0,3.0,1.0
0021300813,1610612760,OKC,Oklahoma City,203103,Perry Jones III,,,21:25,80.5,99.8,-19.3,0.143,0.5,11.8,0.042,0.174,0.106,23.7,0.7,0.735,0.153,94.76,0.12,2014-02-20T00:00:00,2,1610612760,OKC,Oklahoma City,43-13,17,30,18,16,0,0,0,0,0,0,0,0,0,0,81,0.378,0.767,0.1,15,38,20,0021300813,1610612760,OKC,Oklahoma City,Perry Jones III,,,21:25,3.0,2.0,0.0,2.0,8.0,0.0,10.0,16.0,0.0,1.0,3.0,1.0
0021300813,1610612760,OKC,Oklahoma City,203500,Steven Adams,,,1:54,0.0,200.0,-200.0,0.0,0.0,0.0,0.0,0.0,0.0,0.0,0.0,0.0,0.0,63.16,0.0,2014-02-20T00:00:00,2,1610612748,MIA,Miami,39-14,34,20,22,27,0,0,0,0,0,0,0,0,0,0,103,0.547,0.762,0.238,24,41,18,0021300813,1610612760,OKC,Oklahoma City,Steven Adams,,,1:54,0.0,0.0,0.0,0.0,0.0,0.0,0.0,4.0,0.0,0.0,0.0,0.0
0021300813,1610612760,OKC,Oklahoma City,203500,Steven Adams,,,1:54,0.0,200.0,-200.0,0.0,0.0,0.0,0.0,0.0,0.0,0.0,0.0,0.0,0.0,63.16,0.0,2014-02-20T00:00:00,2,1610612760,OKC,Oklahoma City,43-13,17,30,18,16,0,0,0,0,0,0,0,0,0,0,81,0.378,0.767,0.1,15,38,20,0021300813,1610612760,OKC,Oklahoma City,Steven Adams,,,1:54,0.0,0.0,0.0,0.0,0.0,0.0,0.0,4.0,0.0,0.0,0.0,0.0
0021300813,1610612760,OKC,Oklahoma City,203460,Andre Roberson,,,1:54,0.0,200.0,-200.0,0.0,0.0,0.0,0.0,0.0,0.0,0.0,0.0,0.0,0.0,63.16,0.0,2014-02-20T00:00:00,2,1610612748,MIA,Miami,39-14,34,20,22,27,0,0,0,0,0,0,0,0,0,0,103,0.547,0.762,0.238,24,41,18,0021300813,1610612760,OKC,Oklahoma City,Andre Roberson,,,1:54,0.0,0.0,0.0,0.0,0.0,0.0,0.0,4.0,0.0,0.0,0.0,0.0
0021300813,1610612760,OKC,Oklahoma City,203460,Andre Roberson,,,1:54,0.0,200.0,-200.0,0.0,0.0,0.0,0.0,0.0,0.0,0.0,0.0,0.0,0.0,63.16,0.0,2014-02-20T00:00:00,2,1610612760,OKC,Oklahoma City,43-13,17,30,18,16,0,0,0,0,0,0,0,0,0,0,81,0.378,0.767,0.1,15,38,20,0021300813,1610612760,OKC,Oklahoma City,Andre Roberson,,,1:54,0.0,0.0,0.0,0.0,0.0,0.0,0.0,4.0,0.0,0.0,0.0,0.0
0021300813,1610612760,OKC,Oklahoma City,201934,Hasheem Thabeet,,DNP - Coach's Decision,,,,,,,0.0,,,,,,,0.0,,,2014-02-20T00:00:00,2,1610612748,MIA,Miami,39-14,34,20,22,27,0,0,0,0,0,0,0,0,0,0,103,0.547,0.762,0.238,24,41,18,0021300813,1610612760,OKC,Oklahoma City,Hasheem Thabeet,,DNP - Coach's Decision,,,,,,,,,,,,,
0021300813,1610612760,OKC,Oklahoma City,201934,Hasheem Thabeet,,DNP - Coach's Decision,,,,,,,0.0,,,,,,,0.0,,,2014-02-20T00:00:00,2,1610612760,OKC,Oklahoma City,43-13,17,30,18,16,0,0,0,0,0,0,0,0,0,0,81,0.378,0.767,0.1,15,38,20,0021300813,1610612760,OKC,Oklahoma City,Hasheem Thabeet,,DNP - Coach's Decision,,,,,,,,,,,,,
