GAME_ID_x,TEAM_ID_x,TEAM_ABBREVIATION_x,TEAM_CITY_x,PLAYER_ID,PLAYER_NAME_x,START_POSITION_x,COMMENT_x,MIN_x,OFF_RATING,DEF_RATING,NET_RATING,AST_PCT,AST_TOV,AST_RATIO,OREB_PCT,DREB_PCT,REB_PCT,TM_TOV_PCT,EFG_PCT,TS_PCT,USG_PCT,PACE,PIE,GAME_DATE_EST,GAME_SEQUENCE,TEAM_ABBREVIATION_y,TEAM_CITY_NAME,TEAM_WINS_LOSSES,PTS_QTR1,PTS_QTR2,PTS_QTR3,PTS_QTR4,PTS_OT1,PTS_OT2,PTS_OT3,PTS_OT4,PTS_OT5,PTS_OT6,PTS_OT7,PTS_OT8,PTS_OT9,PTS_OT10,PTS,FG_PCT,FT_PCT,FG3_PCT,AST,REB,TOV,GAME_ID_y,TEAM_ID_y,TEAM_ABBREVIATION,TEAM_CITY_y,PLAYER_NAME_y,START_POSITION_y,COMMENT_y,MIN_y,PTS_OFF_TOV,PTS_2ND_CHANCE,PTS_FB,PTS_PAINT,OPP_PTS_OFF_TOV,OPP_PTS_2ND_CHANCE,OPP_PTS_FB,OPP_PTS_PAINT,BLK,BLKA,PF,PFD
0041400404,1610612744,GSW,Golden State,203084,Harrison Barnes,F,,33:04,115.2,98.2,17.0,0.0,0.0,0.0,0.107,0.132,0.121,0.0,0.556,0.651,0.162,91.9,0.128,2015-06-11T00:00:00,1,GSW,Golden State,2-2,31,23,22,27,0,0,0,0,0,0,0,0,0,0,103,0.468,0.704,0.4,24,44,7,0041400404,1610612744,GSW,Golden State,Harrison Barnes,F,,33:04,0.0,2.0,0.0,2.0,5.0,15.0,2.0,36.0,2.0,0.0,2.0,2.0
0041400404,1610612744,GSW,Golden State,2738,Andre Iguodala,F,,39:16,115.8,92.4,23.4,0.0,0.0,0.0,0.031,0.171,0.11,5.9,0.667,0.693,0.211,92.85,0.144,2015-06-11T00:00:00,1,GSW,Golden State,2-2,31,23,22,27,0,0,0,0,0,0,0,0,0,0,103,0.468,0.704,0.4,24,44,7,0041400404,1610612744,GSW,Golden State,Andre Iguodala,F,,39:16,2.0,0.0,4.0,4.0,8.0,18.0,2.0,42.0,0.0,1.0,4.0,2.0
0041400404,1610612744,GSW,Golden State,203110,Draymond Green,C,,32:23,124.2,88.0,36.2,0.286,0.0,29.9,0.0,0.212,0.125,0.0,0.591,0.604,0.229,93.03,0.181,2015-06-11T00:00:00,1,GSW,Golden State,2-2,31,23,22,27,0,0,0,0,0,0,0,0,0,0,103,0.468,0.704,0.4,24,44,7,0041400404,1610612744,GSW,Golden State,Draymond Green,C,,32:23,0.0,0.0,2.0,8.0,4.0,12.0,0.0,32.0,1.0,1.0,5.0,4.0
0041400404,1610612744,GSW,Golden State,202691,Klay Thompson,G,,39:06,117.6,92.4,25.2,0.077,0.0,18.2,0.0,0.051,0.028,0.0,0.5,0.5,0.115,92.02,0.066,2015-06-11T00:00:00,1,GSW,Golden State,2-2,31,23,22,27,0,0,0,0,0,0,0,0,0,0,103,0.468,0.704,0.4,24,44,7,0041400404,1610612744,GSW,Golden State,Klay Thompson,G,,39:06,0.0,0.0,2.0,4.0,7.0,17.0,2.0,40.0,1.0,1.0,0.0,0.0
0041400404,1610612744,GSW,Golden State,201939,Stephen Curry,G,,41:03,116.5,90.5,26.0,0.292,1.75,24.2,0.0,0.044,0.026,13.9,0.588,0.615,0.263,92.84,0.139,2015-06-11T00:00:00,1,GSW,Golden State,2-2,31,23,22,27,0,0,0,0,0,0,0,0,0,0,103,0.468,0.704,0.4,24,44,7,0041400404,1610612744,GSW,Golden State,Stephen Curry,G,,41:03,0.0,3.0,2.0,8.0,8.0,18.0,2.0,42.0,0.0,0.0,1.0,3.0
0041400404,1610612744,GSW,Golden State,101135,David Lee,,,15:26,95.8,87.7,8.1,0.5,0.0,23.7,0.0,0.25,0.139,0.0,0.429,0.467,0.29,91.4,0.214,2015-06-11T00:00:00,1,GSW,Golden State,2-2,31,23,22,27,0,0,0,0,0,0,0,0,0,0,103,0.468,0.704,0.4,24,44,7,0041400404,1610612744,GSW,Golden State,David Lee,,,15:26,0.0,4.0,0.0,6.0,6.0,10.0,2.0,16.0,0.0,0.0,1.0,3.0
0041400404,1610612744,GSW,Golden State,2733,Shaun Livingston,,,24:30,119.7,60.8,58.9,0.222,4.0,37.2,0.059,0.206,0.157,9.3,0.5,0.608,0.146,88.46,0.215,2015-06-11T00:00:00,1,GSW,Golden State,2-2,31,23,22,27,0,0,0,0,0,0,0,0,0,0,103,0.468,0.704,0.4,24,44,7,0041400404,1610612744,GSW,Golden State,Shaun Livingston,,,24:30,3.0,0.0,1.0,2.0,1.0,7.0,0.0,16.0,1.0,0.0,3.0,3.0
0041400404,1610612744,GSW,Golden State,2571,Leandro Barbosa,,,6:57,102.0,71.2,30.8,0.333,0.0,25.0,0.0,0.0,0.0,0.0,0.333,0.333,0.235,84.26,0.0,2015-06-11T00:00:00,1,GSW,Golden State,2-2,31,23,22,27,0,0,0,0,0,0,0,0,0,0,103,0.468,0.704,0.4,24,44,7,0041400404,1610612744,GSW,Golden State,Leandro Barbosa,,,6:57,0.0,0.0,0.0,2.0,0.0,2.0,0.0,4.0,0.0,0.0,1.0,1.0
0041400404,1610612744,GSW,Golden State,101106,Andrew Bogut,,,2:46,80.0,70.9,9.1,0.5,1.0,50.0,0.0,0.333,0.25,50.0,0.0,0.0,0.2,92.3,-1.333,2015-06-11T00:00:00,1,GSW,Golden State,2-2,31,23,22,27,0,0,0,0,0,0,0,0,0,0,103,0.468,0.704,0.4,24,44,7,0041400404,1610612744,GSW,Golden State,Andrew Bogut,,,2:46,0.0,0.0,0.0,0.0,1.0,1.0,0.0,2.0,0.0,0.0,3.0,0.0
0041400404,1610612744,GSW,Golden State,201578,Marreese Speights,,,2:08,77.3,79.8,-2.5,0.0,0.0,0.0,0.5,0.333,0.4,0.0,0.0,0.174,0.59,85.95,-3.0,2015-06-11T00:00:00,1,GSW,Golden State,2-2,31,23,22,27,0,0,0,0,0,0,0,0,0,0,103,0.468,0.704,0.4,24,44,7,0041400404,1610612744,GSW,Golden State,Marreese Speights,,,2:08,0.0,0.0,0.0,0.0,0.0,0.0,0.0,0.0,0.0,0.0,1.0,1.0
0041400404,1610612744,GSW,Golden State,203200,Justin Holiday,,,2:08,77.3,79.8,-2.5,0.0,0.0,0.0,0.0,0.0,0.0,0.0,0.0,0.0,0.0,85.95,0.0,2015-06-11T00:00:00,1,GSW,Golden State,2-2,31,23,22,27,0,0,0,0,0,0,0,0,0,0,103,0.468,0.704,0.4,24,44,7,0041400404,1610612744,GSW,Golden State,Justin Holiday,,,2:08,0.0,0.0,0.0,0.0,0.0,0.0,0.0,0.0,0.0,0.0,0.0,0.0
0041400404,1610612744,GSW,Golden State,203949,James Michael McAdoo,,,1:12,53.2,106.4,-53.2,0.0,0.0,0.0,0.0,0.5,0.25,0.0,0.0,0.0,0.0,75.2,2.0,2015-06-11T00:00:00,1,GSW,Golden State,2-2,31,23,22,27,0,0,0,0,0,0,0,0,0,0,103,0.468,0.704,0.4,24,44,7,0041400404,1610612744,GSW,Golden State,James Michael McAdoo,,,1:12,0.0,0.0,0.0,0.0,0.0,0.0,0.0,0.0,0.0,0.0,0.0,0.0
0041400404,1610612744,GSW,Golden State,203105,Festus Ezeli,,DNP - Coach's Decision                  ,,,,,,,0.0,,,,,,,0.0,,,2015-06-11T00:00:00,1,GSW,Golden State,2-2,31,23,22,27,0,0,0,0,0,0,0,0,0,0,103,0.468,0.704,0.4,24,44,7,0041400404,1610612744,GSW,Golden State,Festus Ezeli,,DNP - Coach's Decision                  ,,,,,,,,,,,,,
0041400404,1610612739,CLE,Cleveland,2544,LeBron James,F,,40:55,94.1,116.7,-22.6,0.381,4.0,22.0,0.047,0.303,0.158,5.5,0.341,0.379,0.3,91.97,0.091,2015-06-11T00:00:00,1,CLE,Cleveland,2-2,24,18,28,12,0,0,0,0,0,0,0,0,0,0,82,0.33,0.714,0.148,16,49,9,0041400404,1610612739,CLE,Cleveland,LeBron James,F,,40:55,6.0,3.0,2.0,12.0,5.0,9.0,7.0,30.0,0.0,2.0,5.0,8.0
0041400404,1610612739,CLE,Cleveland,202684,Tristan Thompson,F,,38:25,94.9,114.5,-19.6,0.0,0.0,0.0,0.15,0.219,0.181,0.0,0.6,0.6,0.114,92.56,0.137,2015-06-11T00:00:00,1,CLE,Cleveland,2-2,24,18,28,12,0,0,0,0,0,0,0,0,0,0,82,0.33,0.714,0.148,16,49,9,0041400404,1610612739,CLE,Cleveland,Tristan Thompson,F,,38:25,0.0,6.0,0.0,12.0,2.0,9.0,8.0,28.0,1.0,1.0,1.0,1.0
0041400404,1610612739,CLE,Cleveland,202389,Timofey Mozgov,C,,33:29,103.5,115.2,-11.7,0.067,0.33,4.0,0.176,0.138,0.159,11.9,0.563,0.658,0.313,92.47,0.184,2015-06-11T00:00:00,1,CLE,Cleveland,2-2,24,18,28,12,0,0,0,0,0,0,0,0,0,0,82,0.33,0.714,0.148,16,49,9,0041400404,1610612739,CLE,Cleveland,Timofey Mozgov,C,,33:29,2.0,9.0,0.0,16.0,5.0,7.0,5.0,26.0,0.0,1.0,3.0,9.0
0041400404,1610612739,CLE,Cleveland,202697,Iman Shumpert,G,,39:04,92.7,113.3,-20.6,0.042,0.0,10.0,0.024,0.194,0.096,0.0,0.278,0.278,0.097,93.26,0.033,2015-06-11T00:00:00,1,CLE,Cleveland,2-2,24,18,28,12,0,0,0,0,0,0,0,0,0,0,82,0.33,0.714,0.148,16,49,9,0041400404,1610612739,CLE,Cleveland,Iman Shumpert,G,,39:04,0.0,0.0,0.0,0.0,5.0,5.0,9.0,30.0,1.0,0.0,2.0,0.0
0041400404,1610612739,CLE,Cleveland,203521,Matthew Dellavedova,G,,33:24,91.7,111.3,-19.6,0.2,1.33,18.3,0.0,0.036,0.016,13.7,0.286,0.336,0.238,90.67,0.0,2015-06-11T00:00:00,1,CLE,Cleveland,2-2,24,18,28,12,0,0,0,0,0,0,0,0,0,0,82,0.33,0.714,0.148,16,49,9,0041400404,1610612739,CLE,Cleveland,Matthew Dellavedova,G,,33:24,0.0,0.0,0.0,2.0,5.0,4.0,9.0,24.0,0.0,1.0,2.0,1.0
0041400404,1610612739,CLE,Cleveland,2747,JR Smith,,,27:34,63.1,114.3,-51.3,0.25,0.0,14.3,0.029,0.043,0.034,0.0,0.167,0.167,0.2,93.41,-0.098,2015-06-11T00:00:00,1,CLE,Cleveland,2-2,24,18,28,12,0,0,0,0,0,0,0,0,0,0,82,0.33,0.714,0.148,16,49,9,0041400404,1610612739,CLE,Cleveland,JR Smith,,,27:34,0.0,2.0,0.0,4.0,3.0,7.0,9.0,26.0,0.0,0.0,4.0,0.0
0041400404,1610612739,CLE,Cleveland,2592,James Jones,,,17:51,67.1,124.5,-57.4,0.0,0.0,0.0,0.0,0.231,0.079,25.0,0.0,0.0,0.097,87.16,-0.036,2015-06-11T00:00:00,1,CLE,Cleveland,2-2,24,18,28,12,0,0,0,0,0,0,0,0,0,0,82,0.33,0.714,0.148,16,49,9,0041400404,1610612739,CLE,Cleveland,James Jones,,,17:51,0.0,0.0,0.0,0.0,0.0,4.0,8.0,16.0,1.0,0.0,1.0,0.0
0041400404,1610612739,CLE,Cleveland,2570,Kendrick Perkins,,,3:06,52.1,102.5,-50.4,0.0,0.0,0.0,0.0,0.5,0.143,0.0,0.0,0.347,0.5,82.37,0.0,2015-06-11T00:00:00,1,CLE,Cleveland,2-2,24,18,28,12,0,0,0,0,0,0,0,0,0,0,82,0.33,0.714,0.148,16,49,9,0041400404,1610612739,CLE,Cleveland,Kendrick Perkins,,,3:06,0.0,0.0,0.0,0.0,0.0,0.0,0.0,0.0,0.0,0.0,1.0,1.0
0041400404,1610612739,CLE,Cleveland,203925,Joe Harris,,,3:06,52.1,102.5,-50.4,0.0,0.0,0.0,0.0,0.0,0.0,0.0,0.0,0.568,0.153,82.37,0.0,2015-06-11T00:00:00,1,CLE,Cleveland,2-2,24,18,28,12,0,0,0,0,0,0,0,0,0,0,82,0.33,0.714,0.148,16,49,9,0041400404,1610612739,CLE,Cleveland,Joe Harris,,,3:06,0.0,0.0,0.0,0.0,0.0,0.0,0.0,0.0,0.0,0.0,0.0,1.0
0041400404,1610612739,CLE,Cleveland,2034,Mike Miller,,,3:06,52.1,102.5,-50.4,0.0,0.0,0.0,0.0,0.0,0.0,0.0,0.0,0.0,0.0,82.37,0.0,2015-06-11T00:00:00,1,CLE,Cleveland,2-2,24,18,28,12,0,0,0,0,0,0,0,0,0,0,82,0.33,0.714,0.148,16,49,9,0041400404,1610612739,CLE,Cleveland,Mike Miller,,,3:06,0.0,0.0,0.0,0.0,0.0,0.0,0.0,0.0,0.0,0.0,0.0,0.0
0041400404,1610612739,CLE,Cleveland,2217,Brendan Haywood,,DNP - Coach's Decision                  ,,,,,,,0.0,,,,,,,0.0,,,2015-06-11T00:00:00,1,CLE,Cleveland,2-2,24,18,28,12,0,0,0,0,0,0,0,0,0,0,82,0.33,0.714,0.148,16,49,9,0041400404,1610612739,CLE,Cleveland,Brendan Haywood,,DNP - Coach's Decision                  ,,,,,,,,,,,,,
0041400404,1610612739,CLE,Cleveland,202681,Kyrie Irving,,NWT - Fractured Left Knee Cap           ,,,,,,,0.0,,,,,,,0.0,,,2015-06-11T00:00:00,1,CLE,Cleveland,2-2,24,18,28,12,0,0,0,0,0,0,0,0,0,0,82,0.33,0.714,0.148,16,49,9,0041400404,1610612739,CLE,Cleveland,Kyrie Irving,,NWT - Fractured Left Knee Cap           ,,,,,,,,,,,,,
0041400404,1610612739,CLE,Cleveland,1890,Shawn Marion,,DNP - Coach's Decision                  ,,,,,,,0.0,,,,,,,0.0,,,2015-06-11T00:00:00,1,CLE,Cleveland,2-2,24,18,28,12,0,0,0,0,0,0,0,0,0,0,82,0.33,0.714,0.148,16,49,9,0041400404,1610612739,CLE,Cleveland,Shawn Marion,,DNP - Coach's Decision                  ,,,,,,,,,,,,,
