GAME_ID_x,TEAM_ID_x,TEAM_ABBREVIATION_x,TEAM_CITY_x,PLAYER_ID,PLAYER_NAME_x,START_POSITION_x,COMMENT_x,MIN_x,OFF_RATING,DEF_RATING,NET_RATING,AST_PCT,AST_TOV,AST_RATIO,OREB_PCT,DREB_PCT,REB_PCT,TM_TOV_PCT,EFG_PCT,TS_PCT,USG_PCT,PACE,PIE,GAME_DATE_EST,GAME_SEQUENCE,TEAM_ID_y,TEAM_ABBREVIATION_y,TEAM_CITY_NAME,TEAM_WINS_LOSSES,PTS_QTR1,PTS_QTR2,PTS_QTR3,PTS_QTR4,PTS_OT1,PTS_OT2,PTS_OT3,PTS_OT4,PTS_OT5,PTS_OT6,PTS_OT7,PTS_OT8,PTS_OT9,PTS_OT10,PTS,FG_PCT,FT_PCT,FG3_PCT,AST,REB,TOV,GAME_ID_y,TEAM_ID,TEAM_ABBREVIATION,TEAM_CITY_y,PLAYER_NAME_y,START_POSITION_y,COMMENT_y,MIN_y,PTS_OFF_TOV,PTS_2ND_CHANCE,PTS_FB,PTS_PAINT,OPP_PTS_OFF_TOV,OPP_PTS_2ND_CHANCE,OPP_PTS_FB,OPP_PTS_PAINT,BLK,BLKA,PF,PFD
0021300836,1610612753,ORL,Orlando,203090,Maurice Harkless,F,,28:05,80.2,109.7,-29.4,0.0,0.0,0.0,0.0,0.087,0.038,0.0,0.333,0.333,0.052,97.8,-0.024,2014-02-23T00:00:00,4,1610612753,ORL,Orlando,17-41,14,27,24,25,0,0,0,0,0,0,0,0,0,0,90,0.414,0.765,0.357,20,32,9,0021300836,1610612753,ORL,Orlando,Maurice Harkless,F,,28:05,0.0,0.0,0.0,2.0,6.0,10.0,8.0,18.0,0.0,1.0,5.0,1.0
0021300836,1610612753,ORL,Orlando,203090,Maurice Harkless,F,,28:05,80.2,109.7,-29.4,0.0,0.0,0.0,0.0,0.087,0.038,0.0,0.333,0.333,0.052,97.8,-0.024,2014-02-23T00:00:00,4,1610612761,TOR,Toronto,31-25,19,25,36,25,0,0,0,0,0,0,0,0,0,0,105,0.523,0.778,0.529,23,50,23,0021300836,1610612753,ORL,Orlando,Maurice Harkless,F,,28:05,0.0,0.0,0.0,2.0,6.0,10.0,8.0,18.0,0.0,1.0,5.0,1.0
0021300836,1610612753,ORL,Orlando,202699,Tobias Harris,F,,33:33,100.3,115.7,-15.4,0.133,0.0,9.7,0.083,0.143,0.105,0.0,0.7,0.756,0.265,92.57,0.224,2014-02-23T00:00:00,4,1610612753,ORL,Orlando,17-41,14,27,24,25,0,0,0,0,0,0,0,0,0,0,90,0.414,0.765,0.357,20,32,9,0021300836,1610612753,ORL,Orlando,Tobias Harris,F,,33:33,10.0,6.0,4.0,12.0,5.0,8.0,4.0,20.0,0.0,0.0,3.0,6.0
0021300836,1610612753,ORL,Orlando,202699,Tobias Harris,F,,33:33,100.3,115.7,-15.4,0.133,0.0,9.7,0.083,0.143,0.105,0.0,0.7,0.756,0.265,92.57,0.224,2014-02-23T00:00:00,4,1610612761,TOR,Toronto,31-25,19,25,36,25,0,0,0,0,0,0,0,0,0,0,105,0.523,0.778,0.529,23,50,23,0021300836,1610612753,ORL,Orlando,Tobias Harris,F,,33:33,10.0,6.0,4.0,12.0,5.0,8.0,4.0,20.0,0.0,0.0,3.0,6.0
0021300836,1610612753,ORL,Orlando,202696,Nikola Vucevic,C,,30:03,92.0,108.6,-16.7,0.059,0.33,5.6,0.034,0.125,0.075,16.9,0.333,0.4,0.276,96.15,0.021,2014-02-23T00:00:00,4,1610612753,ORL,Orlando,17-41,14,27,24,25,0,0,0,0,0,0,0,0,0,0,90,0.414,0.765,0.357,20,32,9,0021300836,1610612753,ORL,Orlando,Nikola Vucevic,C,,30:03,3.0,1.0,0.0,6.0,6.0,10.0,8.0,20.0,1.0,1.0,5.0,4.0
0021300836,1610612753,ORL,Orlando,202696,Nikola Vucevic,C,,30:03,92.0,108.6,-16.7,0.059,0.33,5.6,0.034,0.125,0.075,16.9,0.333,0.4,0.276,96.15,0.021,2014-02-23T00:00:00,4,1610612761,TOR,Toronto,31-25,19,25,36,25,0,0,0,0,0,0,0,0,0,0,105,0.523,0.778,0.529,23,50,23,0021300836,1610612753,ORL,Orlando,Nikola Vucevic,C,,30:03,3.0,1.0,0.0,6.0,6.0,10.0,8.0,20.0,1.0,1.0,5.0,4.0
0021300836,1610612753,ORL,Orlando,203506,Victor Oladipo,G,,35:05,84.4,110.4,-26.0,0.105,0.5,10.3,0.0,0.167,0.063,20.6,0.385,0.409,0.237,96.57,0.055,2014-02-23T00:00:00,4,1610612753,ORL,Orlando,17-41,14,27,24,25,0,0,0,0,0,0,0,0,0,0,90,0.414,0.765,0.357,20,32,9,0021300836,1610612753,ORL,Orlando,Victor Oladipo,G,,35:05,3.0,0.0,0.0,4.0,7.0,10.0,8.0,24.0,0.0,1.0,3.0,3.0
0021300836,1610612753,ORL,Orlando,203506,Victor Oladipo,G,,35:05,84.4,110.4,-26.0,0.105,0.5,10.3,0.0,0.167,0.063,20.6,0.385,0.409,0.237,96.57,0.055,2014-02-23T00:00:00,4,1610612761,TOR,Toronto,31-25,19,25,36,25,0,0,0,0,0,0,0,0,0,0,105,0.523,0.778,0.529,23,50,23,0021300836,1610612753,ORL,Orlando,Victor Oladipo,G,,35:05,3.0,0.0,0.0,4.0,7.0,10.0,8.0,24.0,0.0,1.0,3.0,3.0
0021300836,1610612753,ORL,Orlando,2749,Jameer Nelson,G,,32:20,104.8,112.3,-7.5,0.333,4.0,40.2,0.0,0.059,0.021,10.1,0.444,0.455,0.165,95.81,0.069,2014-02-23T00:00:00,4,1610612753,ORL,Orlando,17-41,14,27,24,25,0,0,0,0,0,0,0,0,0,0,90,0.414,0.765,0.357,20,32,9,0021300836,1610612753,ORL,Orlando,Jameer Nelson,G,,32:20,2.0,0.0,2.0,6.0,6.0,7.0,6.0,22.0,0.0,0.0,2.0,4.0
0021300836,1610612753,ORL,Orlando,2749,Jameer Nelson,G,,32:20,104.8,112.3,-7.5,0.333,4.0,40.2,0.0,0.059,0.021,10.1,0.444,0.455,0.165,95.81,0.069,2014-02-23T00:00:00,4,1610612761,TOR,Toronto,31-25,19,25,36,25,0,0,0,0,0,0,0,0,0,0,105,0.523,0.778,0.529,23,50,23,0021300836,1610612753,ORL,Orlando,Jameer Nelson,G,,32:20,2.0,0.0,2.0,6.0,6.0,7.0,6.0,22.0,0.0,0.0,2.0,4.0
0021300836,1610612753,ORL,Orlando,203094,Andrew Nicholson,,,13:15,93.2,84.5,8.6,0.0,0.0,0.0,0.077,0.333,0.2,0.0,0.0,0.0,0.174,91.65,-0.048,2014-02-23T00:00:00,4,1610612753,ORL,Orlando,17-41,14,27,24,25,0,0,0,0,0,0,0,0,0,0,90,0.414,0.765,0.357,20,32,9,0021300836,1610612753,ORL,Orlando,Andrew Nicholson,,,13:15,0.0,0.0,0.0,0.0,3.0,0.0,2.0,8.0,0.0,0.0,1.0,1.0
0021300836,1610612753,ORL,Orlando,203094,Andrew Nicholson,,,13:15,93.2,84.5,8.6,0.0,0.0,0.0,0.077,0.333,0.2,0.0,0.0,0.0,0.174,91.65,-0.048,2014-02-23T00:00:00,4,1610612761,TOR,Toronto,31-25,19,25,36,25,0,0,0,0,0,0,0,0,0,0,105,0.523,0.778,0.529,23,50,23,0021300836,1610612753,ORL,Orlando,Andrew Nicholson,,,13:15,0.0,0.0,0.0,0.0,3.0,0.0,2.0,8.0,0.0,0.0,1.0,1.0
0021300836,1610612753,ORL,Orlando,202734,E'Twaun Moore,,,27:51,101.4,101.6,-0.2,0.214,0.0,15.9,0.069,0.111,0.085,0.0,0.5,0.504,0.263,93.41,0.168,2014-02-23T00:00:00,4,1610612753,ORL,Orlando,17-41,14,27,24,25,0,0,0,0,0,0,0,0,0,0,90,0.414,0.765,0.357,20,32,9,0021300836,1610612753,ORL,Orlando,E'Twaun Moore,,,27:51,7.0,2.0,4.0,12.0,5.0,2.0,6.0,16.0,1.0,1.0,1.0,1.0
0021300836,1610612753,ORL,Orlando,202734,E'Twaun Moore,,,27:51,101.4,101.6,-0.2,0.214,0.0,15.9,0.069,0.111,0.085,0.0,0.5,0.504,0.263,93.41,0.168,2014-02-23T00:00:00,4,1610612761,TOR,Toronto,31-25,19,25,36,25,0,0,0,0,0,0,0,0,0,0,105,0.523,0.778,0.529,23,50,23,0021300836,1610612753,ORL,Orlando,E'Twaun Moore,,,27:51,7.0,2.0,4.0,12.0,5.0,2.0,6.0,16.0,1.0,1.0,1.0,1.0
0021300836,1610612753,ORL,Orlando,203117,Doron Lamb,,,16:00,107.1,119.4,-12.3,0.0,0.0,0.0,0.0,0.125,0.038,0.0,0.375,0.375,0.103,92.88,-0.016,2014-02-23T00:00:00,4,1610612753,ORL,Orlando,17-41,14,27,24,25,0,0,0,0,0,0,0,0,0,0,90,0.414,0.765,0.357,20,32,9,0021300836,1610612753,ORL,Orlando,Doron Lamb,,,16:00,0.0,3.0,0.0,0.0,3.0,0.0,2.0,10.0,0.0,0.0,2.0,0.0
0021300836,1610612753,ORL,Orlando,203117,Doron Lamb,,,16:00,107.1,119.4,-12.3,0.0,0.0,0.0,0.0,0.125,0.038,0.0,0.375,0.375,0.103,92.88,-0.016,2014-02-23T00:00:00,4,1610612761,TOR,Toronto,31-25,19,25,36,25,0,0,0,0,0,0,0,0,0,0,105,0.523,0.778,0.529,23,50,23,0021300836,1610612753,ORL,Orlando,Doron Lamb,,,16:00,0.0,3.0,0.0,0.0,3.0,0.0,2.0,10.0,0.0,0.0,2.0,0.0
0021300836,1610612753,ORL,Orlando,203124,Kyle O'Quinn,,,23:48,99.2,113.2,-14.1,0.267,0.0,26.7,0.077,0.231,0.128,0.0,0.455,0.455,0.199,97.02,0.121,2014-02-23T00:00:00,4,1610612753,ORL,Orlando,17-41,14,27,24,25,0,0,0,0,0,0,0,0,0,0,90,0.414,0.765,0.357,20,32,9,0021300836,1610612753,ORL,Orlando,Kyle O'Quinn,,,23:48,0.0,2.0,0.0,6.0,4.0,3.0,6.0,12.0,0.0,0.0,3.0,2.0
0021300836,1610612753,ORL,Orlando,203124,Kyle O'Quinn,,,23:48,99.2,113.2,-14.1,0.267,0.0,26.7,0.077,0.231,0.128,0.0,0.455,0.455,0.199,97.02,0.121,2014-02-23T00:00:00,4,1610612761,TOR,Toronto,31-25,19,25,36,25,0,0,0,0,0,0,0,0,0,0,105,0.523,0.778,0.529,23,50,23,0021300836,1610612753,ORL,Orlando,Kyle O'Quinn,,,23:48,0.0,2.0,0.0,6.0,4.0,3.0,6.0,12.0,0.0,0.0,3.0,2.0
0021300836,1610612753,ORL,Orlando,201167,Arron Afflalo,,NWT - Sprained Right Ankle,,,,,,,0.0,,,,,,,0.0,,,2014-02-23T00:00:00,4,1610612753,ORL,Orlando,17-41,14,27,24,25,0,0,0,0,0,0,0,0,0,0,90,0.414,0.765,0.357,20,32,9,0021300836,1610612753,ORL,Orlando,Arron Afflalo,,NWT - Sprained Right Ankle,,,,,,,,,,,,,
0021300836,1610612753,ORL,Orlando,201167,Arron Afflalo,,NWT - Sprained Right Ankle,,,,,,,0.0,,,,,,,0.0,,,2014-02-23T00:00:00,4,1610612761,TOR,Toronto,31-25,19,25,36,25,0,0,0,0,0,0,0,0,0,0,105,0.523,0.778,0.529,23,50,23,0021300836,1610612753,ORL,Orlando,Arron Afflalo,,NWT - Sprained Right Ankle,,,,,,,,,,,,,
0021300836,1610612753,ORL,Orlando,101131,Jason Maxiell,,DNP - Coach's Decision,,,,,,,0.0,,,,,,,0.0,,,2014-02-23T00:00:00,4,1610612753,ORL,Orlando,17-41,14,27,24,25,0,0,0,0,0,0,0,0,0,0,90,0.414,0.765,0.357,20,32,9,0021300836,1610612753,ORL,Orlando,Jason Maxiell,,DNP - Coach's Decision,,,,,,,,,,,,,
0021300836,1610612753,ORL,Orlando,101131,Jason Maxiell,,DNP - Coach's Decision,,,,,,,0.0,,,,,,,0.0,,,2014-02-23T00:00:00,4,1610612761,TOR,Toronto,31-25,19,25,36,25,0,0,0,0,0,0,0,0,0,0,105,0.523,0.778,0.529,23,50,23,0021300836,1610612753,ORL,Orlando,Jason Maxiell,,DNP - Coach's Decision,,,,,,,,,,,,,
0021300836,1610612753,ORL,Orlando,101179,Ronnie Price,,DNP - Coach's Decision,,,,,,,0.0,,,,,,,0.0,,,2014-02-23T00:00:00,4,1610612753,ORL,Orlando,17-41,14,27,24,25,0,0,0,0,0,0,0,0,0,0,90,0.414,0.765,0.357,20,32,9,0021300836,1610612753,ORL,Orlando,Ronnie Price,,DNP - Coach's Decision,,,,,,,,,,,,,
0021300836,1610612753,ORL,Orlando,101179,Ronnie Price,,DNP - Coach's Decision,,,,,,,0.0,,,,,,,0.0,,,2014-02-23T00:00:00,4,1610612761,TOR,Toronto,31-25,19,25,36,25,0,0,0,0,0,0,0,0,0,0,105,0.523,0.778,0.529,23,50,23,0021300836,1610612753,ORL,Orlando,Ronnie Price,,DNP - Coach's Decision,,,,,,,,,,,,,
0021300836,1610612761,TOR,Toronto,203082,Terrence Ross,F,,29:12,120.3,103.4,16.9,0.111,0.0,14.9,0.063,0.133,0.109,0.0,0.682,0.699,0.179,95.44,0.146,2014-02-23T00:00:00,4,1610612753,ORL,Orlando,17-41,14,27,24,25,0,0,0,0,0,0,0,0,0,0,90,0.414,0.765,0.357,20,32,9,0021300836,1610612761,TOR,Toronto,Terrence Ross,F,,29:12,0.0,3.0,0.0,4.0,19.0,4.0,6.0,36.0,0.0,0.0,0.0,1.0
0021300836,1610612761,TOR,Toronto,203082,Terrence Ross,F,,29:12,120.3,103.4,16.9,0.111,0.0,14.9,0.063,0.133,0.109,0.0,0.682,0.699,0.179,95.44,0.146,2014-02-23T00:00:00,4,1610612761,TOR,Toronto,31-25,19,25,36,25,0,0,0,0,0,0,0,0,0,0,105,0.523,0.778,0.529,23,50,23,0021300836,1610612761,TOR,Toronto,Terrence Ross,F,,29:12,0.0,3.0,0.0,4.0,19.0,4.0,6.0,36.0,0.0,0.0,0.0,1.0
0021300836,1610612761,TOR,Toronto,101161,Amir Johnson,F,,23:28,121.1,97.4,23.7,0.188,3.0,25.3,0.2,0.217,0.211,8.4,0.714,0.761,0.165,97.08,0.185,2014-02-23T00:00:00,4,1610612753,ORL,Orlando,17-41,14,27,24,25,0,0,0,0,0,0,0,0,0,0,90,0.414,0.765,0.357,20,32,9,0021300836,1610612761,TOR,Toronto,Amir Johnson,F,,23:28,0.0,2.0,2.0,8.0,12.0,4.0,4.0,28.0,0.0,1.0,2.0,1.0
0021300836,1610612761,TOR,Toronto,101161,Amir Johnson,F,,23:28,121.1,97.4,23.7,0.188,3.0,25.3,0.2,0.217,0.211,8.4,0.714,0.761,0.165,97.08,0.185,2014-02-23T00:00:00,4,1610612761,TOR,Toronto,31-25,19,25,36,25,0,0,0,0,0,0,0,0,0,0,105,0.523,0.778,0.529,23,50,23,0021300836,1610612761,TOR,Toronto,Amir Johnson,F,,23:28,0.0,2.0,2.0,8.0,12.0,4.0,4.0,28.0,0.0,1.0,2.0,1.0
0021300836,1610612761,TOR,Toronto,202685,Jonas Valanciunas,C,,27:57,115.9,102.1,13.8,0.048,0.17,8.3,0.15,0.25,0.205,49.7,0.5,0.689,0.171,96.7,0.014,2014-02-23T00:00:00,4,1610612753,ORL,Orlando,17-41,14,27,24,25,0,0,0,0,0,0,0,0,0,0,90,0.414,0.765,0.357,20,32,9,0021300836,1610612761,TOR,Toronto,Jonas Valanciunas,C,,27:57,0.0,3.0,2.0,2.0,18.0,5.0,6.0,30.0,0.0,1.0,5.0,5.0
0021300836,1610612761,TOR,Toronto,202685,Jonas Valanciunas,C,,27:57,115.9,102.1,13.8,0.048,0.17,8.3,0.15,0.25,0.205,49.7,0.5,0.689,0.171,96.7,0.014,2014-02-23T00:00:00,4,1610612761,TOR,Toronto,31-25,19,25,36,25,0,0,0,0,0,0,0,0,0,0,105,0.523,0.778,0.529,23,50,23,0021300836,1610612761,TOR,Toronto,Jonas Valanciunas,C,,27:57,0.0,3.0,2.0,2.0,18.0,5.0,6.0,30.0,0.0,1.0,5.0,5.0
0021300836,1610612761,TOR,Toronto,201942,DeMar DeRozan,G,,31:44,108.6,100.4,8.1,0.286,0.8,14.0,0.0,0.103,0.061,17.5,0.529,0.611,0.359,95.51,0.14,2014-02-23T00:00:00,4,1610612753,ORL,Orlando,17-41,14,27,24,25,0,0,0,0,0,0,0,0,0,0,90,0.414,0.765,0.357,20,32,9,0021300836,1610612761,TOR,Toronto,DeMar DeRozan,G,,31:44,4.0,0.0,2.0,8.0,16.0,14.0,8.0,30.0,1.0,0.0,4.0,6.0
0021300836,1610612761,TOR,Toronto,201942,DeMar DeRozan,G,,31:44,108.6,100.4,8.1,0.286,0.8,14.0,0.0,0.103,0.061,17.5,0.529,0.611,0.359,95.51,0.14,2014-02-23T00:00:00,4,1610612761,TOR,Toronto,31-25,19,25,36,25,0,0,0,0,0,0,0,0,0,0,105,0.523,0.778,0.529,23,50,23,0021300836,1610612761,TOR,Toronto,DeMar DeRozan,G,,31:44,4.0,0.0,2.0,8.0,16.0,14.0,8.0,30.0,1.0,0.0,4.0,6.0
0021300836,1610612761,TOR,Toronto,200768,Kyle Lowry,G,,36:48,113.8,87.1,26.7,0.286,0.86,19.5,0.0,0.1,0.063,22.7,0.692,0.785,0.288,98.92,0.176,2014-02-23T00:00:00,4,1610612753,ORL,Orlando,17-41,14,27,24,25,0,0,0,0,0,0,0,0,0,0,90,0.414,0.765,0.357,20,32,9,0021300836,1610612761,TOR,Toronto,Kyle Lowry,G,,36:48,4.0,2.0,4.0,6.0,23.0,5.0,6.0,30.0,0.0,0.0,3.0,7.0
0021300836,1610612761,TOR,Toronto,200768,Kyle Lowry,G,,36:48,113.8,87.1,26.7,0.286,0.86,19.5,0.0,0.1,0.063,22.7,0.692,0.785,0.288,98.92,0.176,2014-02-23T00:00:00,4,1610612761,TOR,Toronto,31-25,19,25,36,25,0,0,0,0,0,0,0,0,0,0,105,0.523,0.778,0.529,23,50,23,0021300836,1610612761,TOR,Toronto,Kyle Lowry,G,,36:48,4.0,2.0,4.0,6.0,23.0,5.0,6.0,30.0,0.0,0.0,3.0,7.0
0021300836,1610612761,TOR,Toronto,2422,John Salmons,,,15:35,95.5,71.2,24.3,0.0,0.0,0.0,0.0,0.182,0.121,51.5,0.0,0.266,0.116,95.92,0.025,2014-02-23T00:00:00,4,1610612753,ORL,Orlando,17-41,14,27,24,25,0,0,0,0,0,0,0,0,0,0,90,0.414,0.765,0.357,20,32,9,0021300836,1610612761,TOR,Toronto,John Salmons,,,15:35,0.0,0.0,0.0,0.0,7.0,4.0,4.0,16.0,0.0,0.0,1.0,1.0
0021300836,1610612761,TOR,Toronto,2422,John Salmons,,,15:35,95.5,71.2,24.3,0.0,0.0,0.0,0.0,0.182,0.121,51.5,0.0,0.266,0.116,95.92,0.025,2014-02-23T00:00:00,4,1610612761,TOR,Toronto,31-25,19,25,36,25,0,0,0,0,0,0,0,0,0,0,105,0.523,0.778,0.529,23,50,23,0021300836,1610612761,TOR,Toronto,John Salmons,,,15:35,0.0,0.0,0.0,0.0,7.0,4.0,4.0,16.0,0.0,0.0,1.0,1.0
0021300836,1610612761,TOR,Toronto,202335,Patrick Patterson,,,20:51,102.9,86.5,16.5,0.182,0.0,28.6,0.0,0.231,0.158,0.0,0.2,0.2,0.117,94.92,0.103,2014-02-23T00:00:00,4,1610612753,ORL,Orlando,17-41,14,27,24,25,0,0,0,0,0,0,0,0,0,0,90,0.414,0.765,0.357,20,32,9,0021300836,1610612761,TOR,Toronto,Patrick Patterson,,,20:51,0.0,0.0,0.0,0.0,7.0,9.0,4.0,18.0,2.0,0.0,3.0,0.0
0021300836,1610612761,TOR,Toronto,202335,Patrick Patterson,,,20:51,102.9,86.5,16.5,0.182,0.0,28.6,0.0,0.231,0.158,0.0,0.2,0.2,0.117,94.92,0.103,2014-02-23T00:00:00,4,1610612761,TOR,Toronto,31-25,19,25,36,25,0,0,0,0,0,0,0,0,0,0,105,0.523,0.778,0.529,23,50,23,0021300836,1610612761,TOR,Toronto,Patrick Patterson,,,20:51,0.0,0.0,0.0,0.0,7.0,9.0,4.0,18.0,2.0,0.0,3.0,0.0
0021300836,1610612761,TOR,Toronto,201946,Tyler Hansbrough,,,17:49,93.7,92.4,1.3,0.0,0.0,0.0,0.091,0.143,0.125,16.4,0.5,0.492,0.173,92.68,0.0,2014-02-23T00:00:00,4,1610612753,ORL,Orlando,17-41,14,27,24,25,0,0,0,0,0,0,0,0,0,0,90,0.414,0.765,0.357,20,32,9,0021300836,1610612761,TOR,Toronto,Tyler Hansbrough,,,17:49,1.0,0.0,0.0,2.0,7.0,9.0,4.0,16.0,1.0,0.0,3.0,4.0
0021300836,1610612761,TOR,Toronto,201946,Tyler Hansbrough,,,17:49,93.7,92.4,1.3,0.0,0.0,0.0,0.091,0.143,0.125,16.4,0.5,0.492,0.173,92.68,0.0,2014-02-23T00:00:00,4,1610612761,TOR,Toronto,31-25,19,25,36,25,0,0,0,0,0,0,0,0,0,0,105,0.523,0.778,0.529,23,50,23,0021300836,1610612761,TOR,Toronto,Tyler Hansbrough,,,17:49,1.0,0.0,0.0,2.0,7.0,9.0,4.0,16.0,1.0,0.0,3.0,4.0
0021300836,1610612761,TOR,Toronto,202349,Greivis Vasquez,,,25:48,103.2,101.4,1.8,0.364,4.0,33.3,0.0,0.12,0.065,8.3,0.714,0.714,0.147,92.76,0.155,2014-02-23T00:00:00,4,1610612753,ORL,Orlando,17-41,14,27,24,25,0,0,0,0,0,0,0,0,0,0,90,0.414,0.765,0.357,20,32,9,0021300836,1610612761,TOR,Toronto,Greivis Vasquez,,,25:48,0.0,0.0,0.0,0.0,10.0,12.0,6.0,28.0,0.0,0.0,1.0,0.0
0021300836,1610612761,TOR,Toronto,202349,Greivis Vasquez,,,25:48,103.2,101.4,1.8,0.364,4.0,33.3,0.0,0.12,0.065,8.3,0.714,0.714,0.147,92.76,0.155,2014-02-23T00:00:00,4,1610612761,TOR,Toronto,31-25,19,25,36,25,0,0,0,0,0,0,0,0,0,0,105,0.523,0.778,0.529,23,50,23,0021300836,1610612761,TOR,Toronto,Greivis Vasquez,,,25:48,0.0,0.0,0.0,0.0,10.0,12.0,6.0,28.0,0.0,0.0,1.0,0.0
0021300836,1610612761,TOR,Toronto,201986,Nando De Colo,,,4:53,87.2,125.0,-37.8,0.333,0.0,100.0,0.25,0.5,0.375,0.0,0.0,0.0,0.0,73.13,0.25,2014-02-23T00:00:00,4,1610612753,ORL,Orlando,17-41,14,27,24,25,0,0,0,0,0,0,0,0,0,0,90,0.414,0.765,0.357,20,32,9,0021300836,1610612761,TOR,Toronto,Nando De Colo,,,4:53,0.0,0.0,0.0,0.0,0.0,3.0,0.0,4.0,0.0,0.0,0.0,0.0
0021300836,1610612761,TOR,Toronto,201986,Nando De Colo,,,4:53,87.2,125.0,-37.8,0.333,0.0,100.0,0.25,0.5,0.375,0.0,0.0,0.0,0.0,73.13,0.25,2014-02-23T00:00:00,4,1610612761,TOR,Toronto,31-25,19,25,36,25,0,0,0,0,0,0,0,0,0,0,105,0.523,0.778,0.529,23,50,23,0021300836,1610612761,TOR,Toronto,Nando De Colo,,,4:53,0.0,0.0,0.0,0.0,0.0,3.0,0.0,4.0,0.0,0.0,0.0,0.0
0021300836,1610612761,TOR,Toronto,101236,Chuck Hayes,,,5:55,98.0,94.5,3.5,0.0,0.0,0.0,0.0,0.167,0.083,0.0,0.0,0.0,0.0,88.59,0.083,2014-02-23T00:00:00,4,1610612753,ORL,Orlando,17-41,14,27,24,25,0,0,0,0,0,0,0,0,0,0,90,0.414,0.765,0.357,20,32,9,0021300836,1610612761,TOR,Toronto,Chuck Hayes,,,5:55,0.0,0.0,0.0,0.0,6.0,1.0,2.0,4.0,0.0,0.0,0.0,0.0
0021300836,1610612761,TOR,Toronto,101236,Chuck Hayes,,,5:55,98.0,94.5,3.5,0.0,0.0,0.0,0.0,0.167,0.083,0.0,0.0,0.0,0.0,88.59,0.083,2014-02-23T00:00:00,4,1610612761,TOR,Toronto,31-25,19,25,36,25,0,0,0,0,0,0,0,0,0,0,105,0.523,0.778,0.529,23,50,23,0021300836,1610612761,TOR,Toronto,Chuck Hayes,,,5:55,0.0,0.0,0.0,0.0,6.0,1.0,2.0,4.0,0.0,0.0,0.0,0.0
0021300836,1610612761,TOR,Toronto,202361,Landry Fields,,DNP - Coach's Decision,,,,,,,0.0,,,,,,,0.0,,,2014-02-23T00:00:00,4,1610612753,ORL,Orlando,17-41,14,27,24,25,0,0,0,0,0,0,0,0,0,0,90,0.414,0.765,0.357,20,32,9,0021300836,1610612761,TOR,Toronto,Landry Fields,,DNP - Coach's Decision,,,,,,,,,,,,,
0021300836,1610612761,TOR,Toronto,202361,Landry Fields,,DNP - Coach's Decision,,,,,,,0.0,,,,,,,0.0,,,2014-02-23T00:00:00,4,1610612761,TOR,Toronto,31-25,19,25,36,25,0,0,0,0,0,0,0,0,0,0,105,0.523,0.778,0.529,23,50,23,0021300836,1610612761,TOR,Toronto,Landry Fields,,DNP - Coach's Decision,,,,,,,,,,,,,
0021300836,1610612761,TOR,Toronto,200779,Steve Novak,,DNP - Coach's Decision,,,,,,,0.0,,,,,,,0.0,,,2014-02-23T00:00:00,4,1610612753,ORL,Orlando,17-41,14,27,24,25,0,0,0,0,0,0,0,0,0,0,90,0.414,0.765,0.357,20,32,9,0021300836,1610612761,TOR,Toronto,Steve Novak,,DNP - Coach's Decision,,,,,,,,,,,,,
0021300836,1610612761,TOR,Toronto,200779,Steve Novak,,DNP - Coach's Decision,,,,,,,0.0,,,,,,,0.0,,,2014-02-23T00:00:00,4,1610612761,TOR,Toronto,31-25,19,25,36,25,0,0,0,0,0,0,0,0,0,0,105,0.523,0.778,0.529,23,50,23,0021300836,1610612761,TOR,Toronto,Steve Novak,,DNP - Coach's Decision,,,,,,,,,,,,,
