GAME_ID_x,TEAM_ID_x,TEAM_ABBREVIATION_x,TEAM_CITY_x,PLAYER_ID,PLAYER_NAME_x,START_POSITION_x,COMMENT_x,MIN_x,OFF_RATING,DEF_RATING,NET_RATING,AST_PCT,AST_TOV,AST_RATIO,OREB_PCT,DREB_PCT,REB_PCT,TM_TOV_PCT,EFG_PCT,TS_PCT,USG_PCT,PACE,PIE,GAME_DATE_EST,GAME_SEQUENCE,TEAM_ID_y,TEAM_ABBREVIATION_y,TEAM_CITY_NAME,TEAM_WINS_LOSSES,PTS_QTR1,PTS_QTR2,PTS_QTR3,PTS_QTR4,PTS_OT1,PTS_OT2,PTS_OT3,PTS_OT4,PTS_OT5,PTS_OT6,PTS_OT7,PTS_OT8,PTS_OT9,PTS_OT10,PTS,FG_PCT,FT_PCT,FG3_PCT,AST,REB,TOV,GAME_ID_y,TEAM_ID,TEAM_ABBREVIATION,TEAM_CITY_y,PLAYER_NAME_y,START_POSITION_y,COMMENT_y,MIN_y,PTS_OFF_TOV,PTS_2ND_CHANCE,PTS_FB,PTS_PAINT,OPP_PTS_OFF_TOV,OPP_PTS_2ND_CHANCE,OPP_PTS_FB,OPP_PTS_PAINT,BLK,BLKA,PF,PFD
0021300844,1610612746,LAC,Los Angeles,2440,Matt Barnes,F,,34:20,132.3,122.9,9.4,0.107,0.0,30.4,0.0,0.081,0.049,0.0,0.833,0.872,0.094,94.15,0.09,2014-02-24T00:00:00,4,1610612746,LAC,Los Angeles,39-20,32,29,32,30,0,0,0,0,0,0,0,0,0,0,123,0.518,0.808,0.571,34,40,9,0021300844,1610612746,LAC,Los Angeles,Matt Barnes,F,,34:20,2.0,0.0,2.0,2.0,9.0,25.0,3.0,32.0,1.0,0.0,2.0,1.0
0021300844,1610612746,LAC,Los Angeles,2440,Matt Barnes,F,,34:20,132.3,122.9,9.4,0.107,0.0,30.4,0.0,0.081,0.049,0.0,0.833,0.872,0.094,94.15,0.09,2014-02-24T00:00:00,4,1610612740,NOP,New Orleans,23-33,26,27,25,32,0,0,0,0,0,0,0,0,0,0,110,0.425,0.829,0.389,24,50,9,0021300844,1610612746,LAC,Los Angeles,Matt Barnes,F,,34:20,2.0,0.0,2.0,2.0,9.0,25.0,3.0,32.0,1.0,0.0,2.0,1.0
0021300844,1610612746,LAC,Los Angeles,201933,Blake Griffin,F,,33:04,142.2,119.0,23.1,0.111,0.75,11.9,0.0,0.125,0.074,15.9,0.5,0.606,0.316,94.94,0.071,2014-02-24T00:00:00,4,1610612746,LAC,Los Angeles,39-20,32,29,32,30,0,0,0,0,0,0,0,0,0,0,123,0.518,0.808,0.571,34,40,9,0021300844,1610612746,LAC,Los Angeles,Blake Griffin,F,,33:04,5.0,0.0,9.0,12.0,8.0,24.0,3.0,30.0,0.0,1.0,5.0,12.0
0021300844,1610612746,LAC,Los Angeles,201933,Blake Griffin,F,,33:04,142.2,119.0,23.1,0.111,0.75,11.9,0.0,0.125,0.074,15.9,0.5,0.606,0.316,94.94,0.071,2014-02-24T00:00:00,4,1610612740,NOP,New Orleans,23-33,26,27,25,32,0,0,0,0,0,0,0,0,0,0,110,0.425,0.829,0.389,24,50,9,0021300844,1610612746,LAC,Los Angeles,Blake Griffin,F,,33:04,5.0,0.0,9.0,12.0,8.0,24.0,3.0,30.0,0.0,1.0,5.0,12.0
0021300844,1610612746,LAC,Los Angeles,201599,DeAndre Jordan,C,,37:05,134.2,119.8,14.5,0.074,2.0,14.9,0.233,0.225,0.229,7.4,0.7,0.67,0.141,92.65,0.144,2014-02-24T00:00:00,4,1610612746,LAC,Los Angeles,39-20,32,29,32,30,0,0,0,0,0,0,0,0,0,0,123,0.518,0.808,0.571,34,40,9,0021300844,1610612746,LAC,Los Angeles,DeAndre Jordan,C,,37:05,4.0,4.0,0.0,14.0,9.0,27.0,3.0,36.0,4.0,1.0,3.0,4.0
0021300844,1610612746,LAC,Los Angeles,201599,DeAndre Jordan,C,,37:05,134.2,119.8,14.5,0.074,2.0,14.9,0.233,0.225,0.229,7.4,0.7,0.67,0.141,92.65,0.144,2014-02-24T00:00:00,4,1610612740,NOP,New Orleans,23-33,26,27,25,32,0,0,0,0,0,0,0,0,0,0,110,0.425,0.829,0.389,24,50,9,0021300844,1610612746,LAC,Los Angeles,DeAndre Jordan,C,,37:05,4.0,4.0,0.0,14.0,9.0,27.0,3.0,36.0,4.0,1.0,3.0,4.0
0021300844,1610612746,LAC,Los Angeles,2037,Jamal Crawford,G,,33:59,136.8,122.5,14.3,0.217,2.5,20.5,0.0,0.0,0.0,8.2,0.676,0.688,0.256,91.44,0.098,2014-02-24T00:00:00,4,1610612746,LAC,Los Angeles,39-20,32,29,32,30,0,0,0,0,0,0,0,0,0,0,123,0.518,0.808,0.571,34,40,9,0021300844,1610612746,LAC,Los Angeles,Jamal Crawford,G,,33:59,0.0,6.0,0.0,0.0,8.0,24.0,5.0,34.0,0.0,0.0,3.0,2.0
0021300844,1610612746,LAC,Los Angeles,2037,Jamal Crawford,G,,33:59,136.8,122.5,14.3,0.217,2.5,20.5,0.0,0.0,0.0,8.2,0.676,0.688,0.256,91.44,0.098,2014-02-24T00:00:00,4,1610612740,NOP,New Orleans,23-33,26,27,25,32,0,0,0,0,0,0,0,0,0,0,110,0.425,0.829,0.389,24,50,9,0021300844,1610612746,LAC,Los Angeles,Jamal Crawford,G,,33:59,0.0,6.0,0.0,0.0,8.0,24.0,5.0,34.0,0.0,0.0,3.0,2.0
0021300844,1610612746,LAC,Los Angeles,101108,Chris Paul,G,,30:20,142.3,116.0,26.3,0.542,0.0,49.8,0.0,0.133,0.082,0.0,0.6,0.726,0.207,95.42,0.206,2014-02-24T00:00:00,4,1610612746,LAC,Los Angeles,39-20,32,29,32,30,0,0,0,0,0,0,0,0,0,0,123,0.518,0.808,0.571,34,40,9,0021300844,1610612746,LAC,Los Angeles,Chris Paul,G,,30:20,2.0,0.0,2.0,8.0,8.0,19.0,3.0,26.0,0.0,1.0,4.0,3.0
0021300844,1610612746,LAC,Los Angeles,101108,Chris Paul,G,,30:20,142.3,116.0,26.3,0.542,0.0,49.8,0.0,0.133,0.082,0.0,0.6,0.726,0.207,95.42,0.206,2014-02-24T00:00:00,4,1610612740,NOP,New Orleans,23-33,26,27,25,32,0,0,0,0,0,0,0,0,0,0,110,0.425,0.829,0.389,24,50,9,0021300844,1610612746,LAC,Los Angeles,Chris Paul,G,,30:20,2.0,0.0,2.0,8.0,8.0,19.0,3.0,26.0,0.0,1.0,4.0,3.0
0021300844,1610612746,LAC,Los Angeles,201954,Darren Collison,,,21:54,118.1,125.4,-7.3,0.231,1.5,19.4,0.043,0.042,0.043,13.0,0.55,0.575,0.256,89.12,0.108,2014-02-24T00:00:00,4,1610612746,LAC,Los Angeles,39-20,32,29,32,30,0,0,0,0,0,0,0,0,0,0,123,0.518,0.808,0.571,34,40,9,0021300844,1610612746,LAC,Los Angeles,Darren Collison,,,21:54,0.0,2.0,2.0,6.0,3.0,16.0,4.0,22.0,0.0,1.0,1.0,1.0
0021300844,1610612746,LAC,Los Angeles,201954,Darren Collison,,,21:54,118.1,125.4,-7.3,0.231,1.5,19.4,0.043,0.042,0.043,13.0,0.55,0.575,0.256,89.12,0.108,2014-02-24T00:00:00,4,1610612740,NOP,New Orleans,23-33,26,27,25,32,0,0,0,0,0,0,0,0,0,0,110,0.425,0.829,0.389,24,50,9,0021300844,1610612746,LAC,Los Angeles,Darren Collison,,,21:54,0.0,2.0,2.0,6.0,3.0,16.0,4.0,22.0,0.0,1.0,1.0,1.0
0021300844,1610612746,LAC,Los Angeles,201162,Jared Dudley,,,17:27,119.6,118.5,1.2,0.364,0.0,44.4,0.053,0.053,0.053,0.0,0.5,0.5,0.132,88.96,0.107,2014-02-24T00:00:00,4,1610612746,LAC,Los Angeles,39-20,32,29,32,30,0,0,0,0,0,0,0,0,0,0,123,0.518,0.808,0.571,34,40,9,0021300844,1610612746,LAC,Los Angeles,Jared Dudley,,,17:27,3.0,0.0,0.0,0.0,5.0,12.0,4.0,18.0,0.0,2.0,1.0,0.0
0021300844,1610612746,LAC,Los Angeles,201162,Jared Dudley,,,17:27,119.6,118.5,1.2,0.364,0.0,44.4,0.053,0.053,0.053,0.0,0.5,0.5,0.132,88.96,0.107,2014-02-24T00:00:00,4,1610612740,NOP,New Orleans,23-33,26,27,25,32,0,0,0,0,0,0,0,0,0,0,110,0.425,0.829,0.389,24,50,9,0021300844,1610612746,LAC,Los Angeles,Jared Dudley,,,17:27,3.0,0.0,0.0,0.0,5.0,12.0,4.0,18.0,0.0,2.0,1.0,0.0
0021300844,1610612746,LAC,Los Angeles,2045,Hedo Turkoglu,,,14:56,106.1,123.5,-17.4,0.167,0.0,9.1,0.056,0.167,0.111,0.0,0.6,0.6,0.3,86.85,0.125,2014-02-24T00:00:00,4,1610612746,LAC,Los Angeles,39-20,32,29,32,30,0,0,0,0,0,0,0,0,0,0,123,0.518,0.808,0.571,34,40,9,0021300844,1610612746,LAC,Los Angeles,Hedo Turkoglu,,,14:56,0.0,0.0,0.0,0.0,3.0,9.0,4.0,16.0,0.0,1.0,4.0,0.0
0021300844,1610612746,LAC,Los Angeles,2045,Hedo Turkoglu,,,14:56,106.1,123.5,-17.4,0.167,0.0,9.1,0.056,0.167,0.111,0.0,0.6,0.6,0.3,86.85,0.125,2014-02-24T00:00:00,4,1610612740,NOP,New Orleans,23-33,26,27,25,32,0,0,0,0,0,0,0,0,0,0,110,0.425,0.829,0.389,24,50,9,0021300844,1610612746,LAC,Los Angeles,Hedo Turkoglu,,,14:56,0.0,0.0,0.0,0.0,3.0,9.0,4.0,16.0,0.0,1.0,4.0,0.0
0021300844,1610612746,LAC,Los Angeles,200797,Ryan Hollins,,,10:53,128.6,122.2,6.4,0.0,0.0,0.0,0.0,0.2,0.1,0.0,0.0,0.0,0.0,89.8,-0.066,2014-02-24T00:00:00,4,1610612746,LAC,Los Angeles,39-20,32,29,32,30,0,0,0,0,0,0,0,0,0,0,123,0.518,0.808,0.571,34,40,9,0021300844,1610612746,LAC,Los Angeles,Ryan Hollins,,,10:53,0.0,0.0,0.0,0.0,2.0,6.0,4.0,10.0,0.0,0.0,5.0,0.0
0021300844,1610612746,LAC,Los Angeles,200797,Ryan Hollins,,,10:53,128.6,122.2,6.4,0.0,0.0,0.0,0.0,0.2,0.1,0.0,0.0,0.0,0.0,89.8,-0.066,2014-02-24T00:00:00,4,1610612740,NOP,New Orleans,23-33,26,27,25,32,0,0,0,0,0,0,0,0,0,0,110,0.425,0.829,0.389,24,50,9,0021300844,1610612746,LAC,Los Angeles,Ryan Hollins,,,10:53,0.0,0.0,0.0,0.0,2.0,6.0,4.0,10.0,0.0,0.0,5.0,0.0
0021300844,1610612746,LAC,Los Angeles,203493,Reggie Bullock,,,6:03,112.5,105.5,7.0,0.0,0.0,0.0,0.0,0.375,0.231,0.0,0.5,0.5,0.241,98.36,0.167,2014-02-24T00:00:00,4,1610612746,LAC,Los Angeles,39-20,32,29,32,30,0,0,0,0,0,0,0,0,0,0,123,0.518,0.808,0.571,34,40,9,0021300844,1610612746,LAC,Los Angeles,Reggie Bullock,,,6:03,0.0,0.0,0.0,0.0,0.0,3.0,2.0,6.0,0.0,0.0,0.0,0.0
0021300844,1610612746,LAC,Los Angeles,203493,Reggie Bullock,,,6:03,112.5,105.5,7.0,0.0,0.0,0.0,0.0,0.375,0.231,0.0,0.5,0.5,0.241,98.36,0.167,2014-02-24T00:00:00,4,1610612740,NOP,New Orleans,23-33,26,27,25,32,0,0,0,0,0,0,0,0,0,0,110,0.425,0.829,0.389,24,50,9,0021300844,1610612746,LAC,Los Angeles,Reggie Bullock,,,6:03,0.0,0.0,0.0,0.0,0.0,3.0,2.0,6.0,0.0,0.0,0.0,0.0
0021300844,1610612746,LAC,Los Angeles,2584,Willie Green,,DNP - Coach's Decision,,,,,,,0.0,,,,,,,0.0,,,2014-02-24T00:00:00,4,1610612746,LAC,Los Angeles,39-20,32,29,32,30,0,0,0,0,0,0,0,0,0,0,123,0.518,0.808,0.571,34,40,9,0021300844,1610612746,LAC,Los Angeles,Willie Green,,DNP - Coach's Decision,,,,,,,,,,,,,
0021300844,1610612746,LAC,Los Angeles,2584,Willie Green,,DNP - Coach's Decision,,,,,,,0.0,,,,,,,0.0,,,2014-02-24T00:00:00,4,1610612740,NOP,New Orleans,23-33,26,27,25,32,0,0,0,0,0,0,0,0,0,0,110,0.425,0.829,0.389,24,50,9,0021300844,1610612746,LAC,Los Angeles,Willie Green,,DNP - Coach's Decision,,,,,,,,,,,,,
0021300844,1610612746,LAC,Los Angeles,200755,JJ Redick,,DND - Bulging Disc Lower Back,,,,,,,0.0,,,,,,,0.0,,,2014-02-24T00:00:00,4,1610612746,LAC,Los Angeles,39-20,32,29,32,30,0,0,0,0,0,0,0,0,0,0,123,0.518,0.808,0.571,34,40,9,0021300844,1610612746,LAC,Los Angeles,JJ Redick,,DND - Bulging Disc Lower Back,,,,,,,,,,,,,
0021300844,1610612746,LAC,Los Angeles,200755,JJ Redick,,DND - Bulging Disc Lower Back,,,,,,,0.0,,,,,,,0.0,,,2014-02-24T00:00:00,4,1610612740,NOP,New Orleans,23-33,26,27,25,32,0,0,0,0,0,0,0,0,0,0,110,0.425,0.829,0.389,24,50,9,0021300844,1610612746,LAC,Los Angeles,JJ Redick,,DND - Bulging Disc Lower Back,,,,,,,,,,,,,
0021300844,1610612740,NOP,New Orleans,202329,Al-Farouq Aminu,F,,20:35,119.0,130.4,-11.3,0.154,2.0,15.0,0.125,0.063,0.1,7.5,0.5,0.581,0.213,98.08,0.085,2014-02-24T00:00:00,4,1610612746,LAC,Los Angeles,39-20,32,29,32,30,0,0,0,0,0,0,0,0,0,0,123,0.518,0.808,0.571,34,40,9,0021300844,1610612740,NOP,New Orleans,Al-Farouq Aminu,F,,20:35,2.0,4.0,0.0,6.0,11.0,10.0,11.0,28.0,0.0,1.0,2.0,3.0
0021300844,1610612740,NOP,New Orleans,202329,Al-Farouq Aminu,F,,20:35,119.0,130.4,-11.3,0.154,2.0,15.0,0.125,0.063,0.1,7.5,0.5,0.581,0.213,98.08,0.085,2014-02-24T00:00:00,4,1610612740,NOP,New Orleans,23-33,26,27,25,32,0,0,0,0,0,0,0,0,0,0,110,0.425,0.829,0.389,24,50,9,0021300844,1610612740,NOP,New Orleans,Al-Farouq Aminu,F,,20:35,2.0,4.0,0.0,6.0,11.0,10.0,11.0,28.0,0.0,1.0,2.0,3.0
0021300844,1610612740,NOP,New Orleans,203076,Anthony Davis,F,,38:03,117.1,141.9,-24.8,0.091,2.0,8.1,0.028,0.37,0.175,4.0,0.438,0.599,0.26,94.33,0.135,2014-02-24T00:00:00,4,1610612746,LAC,Los Angeles,39-20,32,29,32,30,0,0,0,0,0,0,0,0,0,0,123,0.518,0.808,0.571,34,40,9,0021300844,1610612740,NOP,New Orleans,Anthony Davis,F,,38:03,4.0,5.0,0.0,10.0,16.0,12.0,13.0,36.0,2.0,1.0,4.0,11.0
0021300844,1610612740,NOP,New Orleans,203076,Anthony Davis,F,,38:03,117.1,141.9,-24.8,0.091,2.0,8.1,0.028,0.37,0.175,4.0,0.438,0.599,0.26,94.33,0.135,2014-02-24T00:00:00,4,1610612740,NOP,New Orleans,23-33,26,27,25,32,0,0,0,0,0,0,0,0,0,0,110,0.425,0.829,0.389,24,50,9,0021300844,1610612740,NOP,New Orleans,Anthony Davis,F,,38:03,4.0,5.0,0.0,10.0,16.0,12.0,13.0,36.0,2.0,1.0,4.0,11.0
0021300844,1610612740,NOP,New Orleans,201880,Greg Stiemsma,C,,11:25,105.1,137.7,-32.6,0.125,0.0,33.3,0.154,0.5,0.286,0.0,0.5,0.5,0.074,96.36,0.108,2014-02-24T00:00:00,4,1610612746,LAC,Los Angeles,39-20,32,29,32,30,0,0,0,0,0,0,0,0,0,0,123,0.518,0.808,0.571,34,40,9,0021300844,1610612740,NOP,New Orleans,Greg Stiemsma,C,,11:25,0.0,0.0,0.0,2.0,7.0,3.0,9.0,12.0,0.0,0.0,2.0,0.0
0021300844,1610612740,NOP,New Orleans,201880,Greg Stiemsma,C,,11:25,105.1,137.7,-32.6,0.125,0.0,33.3,0.154,0.5,0.286,0.0,0.5,0.5,0.074,96.36,0.108,2014-02-24T00:00:00,4,1610612740,NOP,New Orleans,23-33,26,27,25,32,0,0,0,0,0,0,0,0,0,0,110,0.425,0.829,0.389,24,50,9,0021300844,1610612740,NOP,New Orleans,Greg Stiemsma,C,,11:25,0.0,0.0,0.0,2.0,7.0,3.0,9.0,12.0,0.0,0.0,2.0,0.0
0021300844,1610612740,NOP,New Orleans,201569,Eric Gordon,G,,23:01,122.1,164.8,-42.7,0.067,1.0,12.5,0.0,0.0,0.0,12.5,0.833,0.833,0.135,95.05,0.04,2014-02-24T00:00:00,4,1610612746,LAC,Los Angeles,39-20,32,29,32,30,0,0,0,0,0,0,0,0,0,0,123,0.518,0.808,0.571,34,40,9,0021300844,1610612740,NOP,New Orleans,Eric Gordon,G,,23:01,0.0,3.0,0.0,2.0,9.0,2.0,11.0,26.0,0.0,0.0,3.0,1.0
0021300844,1610612740,NOP,New Orleans,201569,Eric Gordon,G,,23:01,122.1,164.8,-42.7,0.067,1.0,12.5,0.0,0.0,0.0,12.5,0.833,0.833,0.135,95.05,0.04,2014-02-24T00:00:00,4,1610612740,NOP,New Orleans,23-33,26,27,25,32,0,0,0,0,0,0,0,0,0,0,110,0.425,0.829,0.389,24,50,9,0021300844,1610612740,NOP,New Orleans,Eric Gordon,G,,23:01,0.0,3.0,0.0,2.0,9.0,2.0,11.0,26.0,0.0,0.0,3.0,1.0
0021300844,1610612740,NOP,New Orleans,203148,Brian Roberts,G,,18:40,107.0,121.3,-14.3,0.538,3.5,50.4,0.087,0.067,0.079,14.4,0.25,0.41,0.148,100.03,0.097,2014-02-24T00:00:00,4,1610612746,LAC,Los Angeles,39-20,32,29,32,30,0,0,0,0,0,0,0,0,0,0,123,0.518,0.808,0.571,34,40,9,0021300844,1610612740,NOP,New Orleans,Brian Roberts,G,,18:40,2.0,0.0,0.0,0.0,9.0,7.0,11.0,28.0,1.0,0.0,0.0,2.0
0021300844,1610612740,NOP,New Orleans,203148,Brian Roberts,G,,18:40,107.0,121.3,-14.3,0.538,3.5,50.4,0.087,0.067,0.079,14.4,0.25,0.41,0.148,100.03,0.097,2014-02-24T00:00:00,4,1610612740,NOP,New Orleans,23-33,26,27,25,32,0,0,0,0,0,0,0,0,0,0,110,0.425,0.829,0.389,24,50,9,0021300844,1610612740,NOP,New Orleans,Brian Roberts,G,,18:40,2.0,0.0,0.0,0.0,9.0,7.0,11.0,28.0,1.0,0.0,0.0,2.0
0021300844,1610612740,NOP,New Orleans,201582,Alexis Ajinca,,,26:39,129.4,123.5,6.0,0.071,0.0,6.0,0.207,0.231,0.218,0.0,0.538,0.607,0.245,91.13,0.162,2014-02-24T00:00:00,4,1610612746,LAC,Los Angeles,39-20,32,29,32,30,0,0,0,0,0,0,0,0,0,0,123,0.518,0.808,0.571,34,40,9,0021300844,1610612740,NOP,New Orleans,Alexis Ajinca,,,26:39,0.0,10.0,0.0,10.0,6.0,9.0,6.0,28.0,1.0,2.0,5.0,3.0
0021300844,1610612740,NOP,New Orleans,201582,Alexis Ajinca,,,26:39,129.4,123.5,6.0,0.071,0.0,6.0,0.207,0.231,0.218,0.0,0.538,0.607,0.245,91.13,0.162,2014-02-24T00:00:00,4,1610612740,NOP,New Orleans,23-33,26,27,25,32,0,0,0,0,0,0,0,0,0,0,110,0.425,0.829,0.389,24,50,9,0021300844,1610612740,NOP,New Orleans,Alexis Ajinca,,,26:39,0.0,10.0,0.0,10.0,6.0,9.0,6.0,28.0,1.0,2.0,5.0,3.0
0021300844,1610612740,NOP,New Orleans,201936,Tyreke Evans,,,29:17,116.2,138.4,-22.2,0.294,5.0,25.2,0.0,0.167,0.077,5.0,0.308,0.288,0.235,88.29,0.035,2014-02-24T00:00:00,4,1610612746,LAC,Los Angeles,39-20,32,29,32,30,0,0,0,0,0,0,0,0,0,0,123,0.518,0.808,0.571,34,40,9,0021300844,1610612740,NOP,New Orleans,Tyreke Evans,,,29:17,0.0,0.0,2.0,8.0,7.0,5.0,4.0,18.0,0.0,0.0,1.0,3.0
0021300844,1610612740,NOP,New Orleans,201936,Tyreke Evans,,,29:17,116.2,138.4,-22.2,0.294,5.0,25.2,0.0,0.167,0.077,5.0,0.308,0.288,0.235,88.29,0.035,2014-02-24T00:00:00,4,1610612740,NOP,New Orleans,23-33,26,27,25,32,0,0,0,0,0,0,0,0,0,0,110,0.425,0.829,0.389,24,50,9,0021300844,1610612740,NOP,New Orleans,Tyreke Evans,,,29:17,0.0,0.0,2.0,8.0,7.0,5.0,4.0,18.0,0.0,0.0,1.0,3.0
0021300844,1610612740,NOP,New Orleans,203085,Austin Rivers,,,29:23,129.6,136.9,-7.3,0.15,3.0,22.5,0.0,0.08,0.038,7.5,0.438,0.536,0.159,88.27,0.054,2014-02-24T00:00:00,4,1610612746,LAC,Los Angeles,39-20,32,29,32,30,0,0,0,0,0,0,0,0,0,0,123,0.518,0.808,0.571,34,40,9,0021300844,1610612740,NOP,New Orleans,Austin Rivers,,,29:23,0.0,6.0,2.0,4.0,7.0,5.0,4.0,14.0,1.0,1.0,4.0,2.0
0021300844,1610612740,NOP,New Orleans,203085,Austin Rivers,,,29:23,129.6,136.9,-7.3,0.15,3.0,22.5,0.0,0.08,0.038,7.5,0.438,0.536,0.159,88.27,0.054,2014-02-24T00:00:00,4,1610612740,NOP,New Orleans,23-33,26,27,25,32,0,0,0,0,0,0,0,0,0,0,110,0.425,0.829,0.389,24,50,9,0021300844,1610612740,NOP,New Orleans,Austin Rivers,,,29:23,0.0,6.0,2.0,4.0,7.0,5.0,4.0,14.0,1.0,1.0,4.0,2.0
0021300844,1610612740,NOP,New Orleans,202337,Luke Babbitt,,,14:04,123.8,102.7,21.2,0.222,2.0,33.3,0.063,0.063,0.063,16.7,0.5,0.5,0.13,87.3,0.074,2014-02-24T00:00:00,4,1610612746,LAC,Los Angeles,39-20,32,29,32,30,0,0,0,0,0,0,0,0,0,0,123,0.518,0.808,0.571,34,40,9,0021300844,1610612740,NOP,New Orleans,Luke Babbitt,,,14:04,0.0,0.0,0.0,0.0,3.0,0.0,2.0,6.0,2.0,0.0,1.0,0.0
0021300844,1610612740,NOP,New Orleans,202337,Luke Babbitt,,,14:04,123.8,102.7,21.2,0.222,2.0,33.3,0.063,0.063,0.063,16.7,0.5,0.5,0.13,87.3,0.074,2014-02-24T00:00:00,4,1610612740,NOP,New Orleans,23-33,26,27,25,32,0,0,0,0,0,0,0,0,0,0,110,0.425,0.829,0.389,24,50,9,0021300844,1610612740,NOP,New Orleans,Luke Babbitt,,,14:04,0.0,0.0,0.0,0.0,3.0,0.0,2.0,6.0,2.0,0.0,1.0,0.0
0021300844,1610612740,NOP,New Orleans,201627,Anthony Morrow,,,22:21,123.3,92.3,31.0,0.0,0.0,0.0,0.043,0.037,0.04,7.8,0.5,0.553,0.248,90.93,0.088,2014-02-24T00:00:00,4,1610612746,LAC,Los Angeles,39-20,32,29,32,30,0,0,0,0,0,0,0,0,0,0,123,0.518,0.808,0.571,34,40,9,0021300844,1610612740,NOP,New Orleans,Anthony Morrow,,,22:21,3.0,2.0,3.0,2.0,5.0,7.0,4.0,12.0,0.0,0.0,0.0,2.0
0021300844,1610612740,NOP,New Orleans,201627,Anthony Morrow,,,22:21,123.3,92.3,31.0,0.0,0.0,0.0,0.043,0.037,0.04,7.8,0.5,0.553,0.248,90.93,0.088,2014-02-24T00:00:00,4,1610612740,NOP,New Orleans,23-33,26,27,25,32,0,0,0,0,0,0,0,0,0,0,110,0.425,0.829,0.389,24,50,9,0021300844,1610612740,NOP,New Orleans,Anthony Morrow,,,22:21,3.0,2.0,3.0,2.0,5.0,7.0,4.0,12.0,0.0,0.0,0.0,2.0
0021300844,1610612740,NOP,New Orleans,203481,Jeff Withey,,,6:33,128.7,149.0,-20.3,0.0,0.0,0.0,0.444,0.0,0.308,0.0,0.333,0.387,0.23,84.13,0.038,2014-02-24T00:00:00,4,1610612746,LAC,Los Angeles,39-20,32,29,32,30,0,0,0,0,0,0,0,0,0,0,123,0.518,0.808,0.571,34,40,9,0021300844,1610612740,NOP,New Orleans,Jeff Withey,,,6:33,0.0,3.0,0.0,2.0,0.0,0.0,0.0,2.0,0.0,0.0,1.0,1.0
0021300844,1610612740,NOP,New Orleans,203481,Jeff Withey,,,6:33,128.7,149.0,-20.3,0.0,0.0,0.0,0.444,0.0,0.308,0.0,0.333,0.387,0.23,84.13,0.038,2014-02-24T00:00:00,4,1610612740,NOP,New Orleans,23-33,26,27,25,32,0,0,0,0,0,0,0,0,0,0,110,0.425,0.829,0.389,24,50,9,0021300844,1610612740,NOP,New Orleans,Jeff Withey,,,6:33,0.0,3.0,0.0,2.0,0.0,0.0,0.0,2.0,0.0,0.0,1.0,1.0
0021300844,1610612740,NOP,New Orleans,203121,Darius Miller,,DNP - Coach's Decision,,,,,,,0.0,,,,,,,0.0,,,2014-02-24T00:00:00,4,1610612746,LAC,Los Angeles,39-20,32,29,32,30,0,0,0,0,0,0,0,0,0,0,123,0.518,0.808,0.571,34,40,9,0021300844,1610612740,NOP,New Orleans,Darius Miller,,DNP - Coach's Decision,,,,,,,,,,,,,
0021300844,1610612740,NOP,New Orleans,203121,Darius Miller,,DNP - Coach's Decision,,,,,,,0.0,,,,,,,0.0,,,2014-02-24T00:00:00,4,1610612740,NOP,New Orleans,23-33,26,27,25,32,0,0,0,0,0,0,0,0,0,0,110,0.425,0.829,0.389,24,50,9,0021300844,1610612740,NOP,New Orleans,Darius Miller,,DNP - Coach's Decision,,,,,,,,,,,,,
0021300844,1610612740,NOP,New Orleans,201160,Jason Smith,,DND - Right Knee Cartilage,,,,,,,0.0,,,,,,,0.0,,,2014-02-24T00:00:00,4,1610612746,LAC,Los Angeles,39-20,32,29,32,30,0,0,0,0,0,0,0,0,0,0,123,0.518,0.808,0.571,34,40,9,0021300844,1610612740,NOP,New Orleans,Jason Smith,,DND - Right Knee Cartilage,,,,,,,,,,,,,
0021300844,1610612740,NOP,New Orleans,201160,Jason Smith,,DND - Right Knee Cartilage,,,,,,,0.0,,,,,,,0.0,,,2014-02-24T00:00:00,4,1610612740,NOP,New Orleans,23-33,26,27,25,32,0,0,0,0,0,0,0,0,0,0,110,0.425,0.829,0.389,24,50,9,0021300844,1610612740,NOP,New Orleans,Jason Smith,,DND - Right Knee Cartilage,,,,,,,,,,,,,
