GAME_ID_x,TEAM_ID_x,TEAM_ABBREVIATION_x,TEAM_CITY_x,PLAYER_ID,PLAYER_NAME_x,START_POSITION_x,COMMENT_x,MIN_x,OFF_RATING,DEF_RATING,NET_RATING,AST_PCT,AST_TOV,AST_RATIO,OREB_PCT,DREB_PCT,REB_PCT,TM_TOV_PCT,EFG_PCT,TS_PCT,USG_PCT,PACE,PIE,GAME_DATE_EST,GAME_SEQUENCE,TEAM_ID_y,TEAM_ABBREVIATION_y,TEAM_CITY_NAME,TEAM_WINS_LOSSES,PTS_QTR1,PTS_QTR2,PTS_QTR3,PTS_QTR4,PTS_OT1,PTS_OT2,PTS_OT3,PTS_OT4,PTS_OT5,PTS_OT6,PTS_OT7,PTS_OT8,PTS_OT9,PTS_OT10,PTS,FG_PCT,FT_PCT,FG3_PCT,AST,REB,TOV,GAME_ID_y,TEAM_ID,TEAM_ABBREVIATION,TEAM_CITY_y,PLAYER_NAME_y,START_POSITION_y,COMMENT_y,MIN_y,PTS_OFF_TOV,PTS_2ND_CHANCE,PTS_FB,PTS_PAINT,OPP_PTS_OFF_TOV,OPP_PTS_2ND_CHANCE,OPP_PTS_FB,OPP_PTS_PAINT,BLK,BLKA,PF,PFD
0021300869,1610612744,GSW,Golden State,2738,Andre Iguodala,F,,26:06,115.8,84.5,31.3,0.13,0.0,22.7,0.0,0.161,0.081,0.0,0.25,0.343,0.153,112.48,0.087,2014-02-28T00:00:00,3,1610612744,GSW,Golden State,36-23,38,35,26,27,0,0,0,0,0,0,0,0,0,0,126,0.478,0.774,0.4,25,49,15,0021300869,1610612744,GSW,Golden State,Andre Iguodala,F,,26:06,4.0,0.0,3.0,4.0,8.0,10.0,5.0,16.0,0.0,1.0,1.0,3.0
0021300869,1610612744,GSW,Golden State,2738,Andre Iguodala,F,,26:06,115.8,84.5,31.3,0.13,0.0,22.7,0.0,0.161,0.081,0.0,0.25,0.343,0.153,112.48,0.087,2014-02-28T00:00:00,3,1610612752,NYK,New York,21-38,27,25,28,23,0,0,0,0,0,0,0,0,0,0,103,0.379,0.913,0.4,14,50,17,0021300869,1610612744,GSW,Golden State,Andre Iguodala,F,,26:06,4.0,0.0,3.0,4.0,8.0,10.0,5.0,16.0,0.0,1.0,1.0,3.0
0021300869,1610612744,GSW,Golden State,101135,David Lee,F,,23:48,132.5,87.3,45.1,0.0,0.0,0.0,0.16,0.069,0.111,22.5,0.667,0.727,0.144,109.47,0.103,2014-02-28T00:00:00,3,1610612744,GSW,Golden State,36-23,38,35,26,27,0,0,0,0,0,0,0,0,0,0,126,0.478,0.774,0.4,25,49,15,0021300869,1610612744,GSW,Golden State,David Lee,F,,23:48,0.0,6.0,2.0,8.0,6.0,10.0,3.0,14.0,1.0,0.0,2.0,1.0
0021300869,1610612744,GSW,Golden State,101135,David Lee,F,,23:48,132.5,87.3,45.1,0.0,0.0,0.0,0.16,0.069,0.111,22.5,0.667,0.727,0.144,109.47,0.103,2014-02-28T00:00:00,3,1610612752,NYK,New York,21-38,27,25,28,23,0,0,0,0,0,0,0,0,0,0,103,0.379,0.913,0.4,14,50,17,0021300869,1610612744,GSW,Golden State,David Lee,F,,23:48,0.0,6.0,2.0,8.0,6.0,10.0,3.0,14.0,1.0,0.0,2.0,1.0
0021300869,1610612744,GSW,Golden State,101106,Andrew Bogut,C,,12:27,128.2,102.7,25.5,0.1,1.0,18.4,0.091,0.429,0.28,18.4,1.0,0.872,0.148,110.42,0.107,2014-02-28T00:00:00,3,1610612744,GSW,Golden State,36-23,38,35,26,27,0,0,0,0,0,0,0,0,0,0,126,0.478,0.774,0.4,25,49,15,0021300869,1610612744,GSW,Golden State,Andrew Bogut,C,,12:27,0.0,2.0,0.0,6.0,6.0,4.0,3.0,8.0,0.0,0.0,5.0,1.0
0021300869,1610612744,GSW,Golden State,101106,Andrew Bogut,C,,12:27,128.2,102.7,25.5,0.1,1.0,18.4,0.091,0.429,0.28,18.4,1.0,0.872,0.148,110.42,0.107,2014-02-28T00:00:00,3,1610612752,NYK,New York,21-38,27,25,28,23,0,0,0,0,0,0,0,0,0,0,103,0.379,0.913,0.4,14,50,17,0021300869,1610612744,GSW,Golden State,Andrew Bogut,C,,12:27,0.0,2.0,0.0,6.0,6.0,4.0,3.0,8.0,0.0,0.0,5.0,1.0
0021300869,1610612744,GSW,Golden State,201939,Stephen Curry,G,,30:18,124.1,90.9,33.2,0.5,2.75,30.8,0.061,0.237,0.155,11.2,0.605,0.65,0.324,111.75,0.248,2014-02-28T00:00:00,3,1610612744,GSW,Golden State,36-23,38,35,26,27,0,0,0,0,0,0,0,0,0,0,126,0.478,0.774,0.4,25,49,15,0021300869,1610612744,GSW,Golden State,Stephen Curry,G,,30:18,8.0,2.0,6.0,6.0,8.0,18.0,5.0,22.0,1.0,1.0,2.0,2.0
0021300869,1610612744,GSW,Golden State,201939,Stephen Curry,G,,30:18,124.1,90.9,33.2,0.5,2.75,30.8,0.061,0.237,0.155,11.2,0.605,0.65,0.324,111.75,0.248,2014-02-28T00:00:00,3,1610612752,NYK,New York,21-38,27,25,28,23,0,0,0,0,0,0,0,0,0,0,103,0.379,0.913,0.4,14,50,17,0021300869,1610612744,GSW,Golden State,Stephen Curry,G,,30:18,8.0,2.0,6.0,6.0,8.0,18.0,5.0,22.0,1.0,1.0,2.0,2.0
0021300869,1610612744,GSW,Golden State,202691,Klay Thompson,G,,29:03,120.4,91.8,28.6,0.05,0.0,5.2,0.0,0.086,0.045,0.0,0.676,0.682,0.252,111.8,0.159,2014-02-28T00:00:00,3,1610612744,GSW,Golden State,36-23,38,35,26,27,0,0,0,0,0,0,0,0,0,0,126,0.478,0.774,0.4,25,49,15,0021300869,1610612744,GSW,Golden State,Klay Thompson,G,,29:03,1.0,0.0,4.0,4.0,8.0,16.0,5.0,22.0,0.0,0.0,1.0,4.0
0021300869,1610612744,GSW,Golden State,202691,Klay Thompson,G,,29:03,120.4,91.8,28.6,0.05,0.0,5.2,0.0,0.086,0.045,0.0,0.676,0.682,0.252,111.8,0.159,2014-02-28T00:00:00,3,1610612752,NYK,New York,21-38,27,25,28,23,0,0,0,0,0,0,0,0,0,0,103,0.379,0.913,0.4,14,50,17,0021300869,1610612744,GSW,Golden State,Klay Thompson,G,,29:03,1.0,0.0,4.0,4.0,8.0,16.0,5.0,22.0,0.0,0.0,1.0,4.0
0021300869,1610612744,GSW,Golden State,979,Jermaine O'Neal,,,20:17,113.9,95.5,18.4,0.0,0.0,0.0,0.095,0.154,0.128,16.4,0.75,0.735,0.233,113.07,0.125,2014-02-28T00:00:00,3,1610612744,GSW,Golden State,36-23,38,35,26,27,0,0,0,0,0,0,0,0,0,0,126,0.478,0.774,0.4,25,49,15,0021300869,1610612744,GSW,Golden State,Jermaine O'Neal,,,20:17,2.0,4.0,0.0,12.0,5.0,12.0,6.0,12.0,1.0,0.0,4.0,3.0
0021300869,1610612744,GSW,Golden State,979,Jermaine O'Neal,,,20:17,113.9,95.5,18.4,0.0,0.0,0.0,0.095,0.154,0.128,16.4,0.75,0.735,0.233,113.07,0.125,2014-02-28T00:00:00,3,1610612752,NYK,New York,21-38,27,25,28,23,0,0,0,0,0,0,0,0,0,0,103,0.379,0.913,0.4,14,50,17,0021300869,1610612744,GSW,Golden State,Jermaine O'Neal,,,20:17,2.0,4.0,0.0,12.0,5.0,12.0,6.0,12.0,1.0,0.0,4.0,3.0
0021300869,1610612744,GSW,Golden State,203084,Harrison Barnes,,,26:59,106.7,101.4,5.3,0.105,1.0,16.8,0.0,0.16,0.078,16.8,0.5,0.571,0.15,108.58,0.071,2014-02-28T00:00:00,3,1610612744,GSW,Golden State,36-23,38,35,26,27,0,0,0,0,0,0,0,0,0,0,126,0.478,0.774,0.4,25,49,15,0021300869,1610612744,GSW,Golden State,Harrison Barnes,,,26:59,3.0,0.0,0.0,0.0,9.0,16.0,8.0,22.0,0.0,0.0,2.0,2.0
0021300869,1610612744,GSW,Golden State,203084,Harrison Barnes,,,26:59,106.7,101.4,5.3,0.105,1.0,16.8,0.0,0.16,0.078,16.8,0.5,0.571,0.15,108.58,0.071,2014-02-28T00:00:00,3,1610612752,NYK,New York,21-38,27,25,28,23,0,0,0,0,0,0,0,0,0,0,103,0.379,0.913,0.4,14,50,17,0021300869,1610612744,GSW,Golden State,Harrison Barnes,,,26:59,3.0,0.0,0.0,0.0,9.0,16.0,8.0,22.0,0.0,0.0,2.0,2.0
0021300869,1610612744,GSW,Golden State,2581,Steve Blake,,,19:50,111.0,101.4,9.6,0.308,0.0,38.3,0.059,0.125,0.091,0.0,0.667,0.699,0.129,105.81,0.194,2014-02-28T00:00:00,3,1610612744,GSW,Golden State,36-23,38,35,26,27,0,0,0,0,0,0,0,0,0,0,126,0.478,0.774,0.4,25,49,15,0021300869,1610612744,GSW,Golden State,Steve Blake,,,19:50,0.0,3.0,0.0,2.0,7.0,12.0,6.0,12.0,0.0,0.0,1.0,1.0
0021300869,1610612744,GSW,Golden State,2581,Steve Blake,,,19:50,111.0,101.4,9.6,0.308,0.0,38.3,0.059,0.125,0.091,0.0,0.667,0.699,0.129,105.81,0.194,2014-02-28T00:00:00,3,1610612752,NYK,New York,21-38,27,25,28,23,0,0,0,0,0,0,0,0,0,0,103,0.379,0.913,0.4,14,50,17,0021300869,1610612744,GSW,Golden State,Steve Blake,,,19:50,0.0,3.0,0.0,2.0,7.0,12.0,6.0,12.0,0.0,0.0,1.0,1.0
0021300869,1610612744,GSW,Golden State,202348,Jordan Crawford,,,18:14,106.9,99.0,7.9,0.143,0.5,17.5,0.0,0.071,0.033,35.0,0.0,0.092,0.209,106.04,-0.087,2014-02-28T00:00:00,3,1610612744,GSW,Golden State,36-23,38,35,26,27,0,0,0,0,0,0,0,0,0,0,126,0.478,0.774,0.4,25,49,15,0021300869,1610612744,GSW,Golden State,Jordan Crawford,,,18:14,0.0,0.0,0.0,0.0,7.0,8.0,6.0,10.0,0.0,0.0,1.0,0.0
0021300869,1610612744,GSW,Golden State,202348,Jordan Crawford,,,18:14,106.9,99.0,7.9,0.143,0.5,17.5,0.0,0.071,0.033,35.0,0.0,0.092,0.209,106.04,-0.087,2014-02-28T00:00:00,3,1610612752,NYK,New York,21-38,27,25,28,23,0,0,0,0,0,0,0,0,0,0,103,0.379,0.913,0.4,14,50,17,0021300869,1610612744,GSW,Golden State,Jordan Crawford,,,18:14,0.0,0.0,0.0,0.0,7.0,8.0,6.0,10.0,0.0,0.0,1.0,0.0
0021300869,1610612744,GSW,Golden State,203110,Draymond Green,,,22:39,111.2,88.8,22.4,0.063,0.0,14.3,0.045,0.063,0.053,0.0,0.417,0.417,0.106,104.65,0.089,2014-02-28T00:00:00,3,1610612744,GSW,Golden State,36-23,38,35,26,27,0,0,0,0,0,0,0,0,0,0,126,0.478,0.774,0.4,25,49,15,0021300869,1610612744,GSW,Golden State,Draymond Green,,,22:39,2.0,0.0,0.0,0.0,7.0,8.0,6.0,12.0,1.0,2.0,1.0,2.0
0021300869,1610612744,GSW,Golden State,203110,Draymond Green,,,22:39,111.2,88.8,22.4,0.063,0.0,14.3,0.045,0.063,0.053,0.0,0.417,0.417,0.106,104.65,0.089,2014-02-28T00:00:00,3,1610612752,NYK,New York,21-38,27,25,28,23,0,0,0,0,0,0,0,0,0,0,103,0.379,0.913,0.4,14,50,17,0021300869,1610612744,GSW,Golden State,Draymond Green,,,22:39,2.0,0.0,0.0,0.0,7.0,8.0,6.0,12.0,1.0,2.0,1.0,2.0
0021300869,1610612744,GSW,Golden State,201578,Marreese Speights,,,10:19,91.5,96.0,-4.5,0.0,0.0,0.0,0.091,0.0,0.059,0.0,0.429,0.595,0.388,104.31,0.28,2014-02-28T00:00:00,3,1610612744,GSW,Golden State,36-23,38,35,26,27,0,0,0,0,0,0,0,0,0,0,126,0.478,0.774,0.4,25,49,15,0021300869,1610612744,GSW,Golden State,Marreese Speights,,,10:19,2.0,2.0,0.0,2.0,4.0,6.0,2.0,10.0,1.0,0.0,1.0,5.0
0021300869,1610612744,GSW,Golden State,201578,Marreese Speights,,,10:19,91.5,96.0,-4.5,0.0,0.0,0.0,0.091,0.0,0.059,0.0,0.429,0.595,0.388,104.31,0.28,2014-02-28T00:00:00,3,1610612752,NYK,New York,21-38,27,25,28,23,0,0,0,0,0,0,0,0,0,0,103,0.379,0.913,0.4,14,50,17,0021300869,1610612744,GSW,Golden State,Marreese Speights,,,10:19,2.0,2.0,0.0,2.0,4.0,6.0,2.0,10.0,1.0,0.0,1.0,5.0
0021300869,1610612744,GSW,Golden State,200756,Hilton Armstrong,,DNP - Coach's Decision,,,,,,,0.0,,,,,,,0.0,,,2014-02-28T00:00:00,3,1610612744,GSW,Golden State,36-23,38,35,26,27,0,0,0,0,0,0,0,0,0,0,126,0.478,0.774,0.4,25,49,15,0021300869,1610612744,GSW,Golden State,Hilton Armstrong,,DNP - Coach's Decision,,,,,,,,,,,,,
0021300869,1610612744,GSW,Golden State,200756,Hilton Armstrong,,DNP - Coach's Decision,,,,,,,0.0,,,,,,,0.0,,,2014-02-28T00:00:00,3,1610612752,NYK,New York,21-38,27,25,28,23,0,0,0,0,0,0,0,0,0,0,103,0.379,0.913,0.4,14,50,17,0021300869,1610612744,GSW,Golden State,Hilton Armstrong,,DNP - Coach's Decision,,,,,,,,,,,,,
0021300869,1610612744,GSW,Golden State,203517,Nemanja Nedovic,,NWT - Strep Throat,,,,,,,0.0,,,,,,,0.0,,,2014-02-28T00:00:00,3,1610612744,GSW,Golden State,36-23,38,35,26,27,0,0,0,0,0,0,0,0,0,0,126,0.478,0.774,0.4,25,49,15,0021300869,1610612744,GSW,Golden State,Nemanja Nedovic,,NWT - Strep Throat,,,,,,,,,,,,,
0021300869,1610612744,GSW,Golden State,203517,Nemanja Nedovic,,NWT - Strep Throat,,,,,,,0.0,,,,,,,0.0,,,2014-02-28T00:00:00,3,1610612752,NYK,New York,21-38,27,25,28,23,0,0,0,0,0,0,0,0,0,0,103,0.379,0.913,0.4,14,50,17,0021300869,1610612744,GSW,Golden State,Nemanja Nedovic,,NWT - Strep Throat,,,,,,,,,,,,,
0021300869,1610612752,NYK,New York,2546,Carmelo Anthony,F,,37:29,94.0,116.1,-22.1,0.091,1.0,6.0,0.175,0.22,0.198,6.0,0.288,0.39,0.317,111.79,0.097,2014-02-28T00:00:00,3,1610612744,GSW,Golden State,36-23,38,35,26,27,0,0,0,0,0,0,0,0,0,0,126,0.478,0.774,0.4,25,49,15,0021300869,1610612752,NYK,New York,Carmelo Anthony,F,,37:29,3.0,12.0,0.0,6.0,15.0,14.0,15.0,34.0,0.0,0.0,3.0,8.0
0021300869,1610612752,NYK,New York,2546,Carmelo Anthony,F,,37:29,94.0,116.1,-22.1,0.091,1.0,6.0,0.175,0.22,0.198,6.0,0.288,0.39,0.317,111.79,0.097,2014-02-28T00:00:00,3,1610612752,NYK,New York,21-38,27,25,28,23,0,0,0,0,0,0,0,0,0,0,103,0.379,0.913,0.4,14,50,17,0021300869,1610612752,NYK,New York,Carmelo Anthony,F,,37:29,3.0,12.0,0.0,6.0,15.0,14.0,15.0,34.0,0.0,0.0,3.0,8.0
0021300869,1610612752,NYK,New York,2747,JR Smith,F,,31:15,88.0,128.0,-39.9,0.063,0.5,4.5,0.027,0.1,0.06,9.1,0.447,0.447,0.254,110.47,0.045,2014-02-28T00:00:00,3,1610612744,GSW,Golden State,36-23,38,35,26,27,0,0,0,0,0,0,0,0,0,0,126,0.478,0.774,0.4,25,49,15,0021300869,1610612752,NYK,New York,JR Smith,F,,31:15,0.0,4.0,3.0,2.0,15.0,10.0,15.0,30.0,0.0,0.0,2.0,1.0
0021300869,1610612752,NYK,New York,2747,JR Smith,F,,31:15,88.0,128.0,-39.9,0.063,0.5,4.5,0.027,0.1,0.06,9.1,0.447,0.447,0.254,110.47,0.045,2014-02-28T00:00:00,3,1610612752,NYK,New York,21-38,27,25,28,23,0,0,0,0,0,0,0,0,0,0,103,0.379,0.913,0.4,14,50,17,0021300869,1610612752,NYK,New York,JR Smith,F,,31:15,0.0,4.0,3.0,2.0,15.0,10.0,15.0,30.0,0.0,0.0,2.0,1.0
0021300869,1610612752,NYK,New York,2199,Tyson Chandler,C,,29:38,99.0,110.6,-11.6,0.136,1.5,18.4,0.094,0.281,0.188,12.3,0.2,0.265,0.176,111.31,0.045,2014-02-28T00:00:00,3,1610612744,GSW,Golden State,36-23,38,35,26,27,0,0,0,0,0,0,0,0,0,0,126,0.478,0.774,0.4,25,49,15,0021300869,1610612752,NYK,New York,Tyson Chandler,C,,29:38,0.0,4.0,0.0,4.0,12.0,14.0,12.0,30.0,0.0,2.0,5.0,3.0
0021300869,1610612752,NYK,New York,2199,Tyson Chandler,C,,29:38,99.0,110.6,-11.6,0.136,1.5,18.4,0.094,0.281,0.188,12.3,0.2,0.265,0.176,111.31,0.045,2014-02-28T00:00:00,3,1610612752,NYK,New York,21-38,27,25,28,23,0,0,0,0,0,0,0,0,0,0,103,0.379,0.913,0.4,14,50,17,0021300869,1610612752,NYK,New York,Tyson Chandler,C,,29:38,0.0,4.0,0.0,4.0,12.0,14.0,12.0,30.0,0.0,2.0,5.0,3.0
0021300869,1610612752,NYK,New York,101109,Raymond Felton,G,,21:34,85.4,123.3,-38.0,0.273,0.5,18.9,0.0,0.091,0.039,37.8,0.583,0.581,0.216,114.62,0.022,2014-02-28T00:00:00,3,1610612744,GSW,Golden State,36-23,38,35,26,27,0,0,0,0,0,0,0,0,0,0,126,0.478,0.774,0.4,25,49,15,0021300869,1610612752,NYK,New York,Raymond Felton,G,,21:34,0.0,0.0,0.0,4.0,8.0,8.0,12.0,20.0,0.0,0.0,2.0,2.0
0021300869,1610612752,NYK,New York,101109,Raymond Felton,G,,21:34,85.4,123.3,-38.0,0.273,0.5,18.9,0.0,0.091,0.039,37.8,0.583,0.581,0.216,114.62,0.022,2014-02-28T00:00:00,3,1610612752,NYK,New York,21-38,27,25,28,23,0,0,0,0,0,0,0,0,0,0,103,0.379,0.913,0.4,14,50,17,0021300869,1610612752,NYK,New York,Raymond Felton,G,,21:34,0.0,0.0,0.0,4.0,8.0,8.0,12.0,20.0,0.0,0.0,2.0,2.0
0021300869,1610612752,NYK,New York,203143,Pablo Prigioni,G,,10:21,71.4,140.3,-68.9,0.0,0.0,0.0,0.0,0.0,0.0,0.0,0.833,0.833,0.13,103.23,0.022,2014-02-28T00:00:00,3,1610612744,GSW,Golden State,36-23,38,35,26,27,0,0,0,0,0,0,0,0,0,0,126,0.478,0.774,0.4,25,49,15,0021300869,1610612752,NYK,New York,Pablo Prigioni,G,,10:21,0.0,0.0,0.0,0.0,7.0,6.0,2.0,18.0,0.0,0.0,3.0,0.0
0021300869,1610612752,NYK,New York,203143,Pablo Prigioni,G,,10:21,71.4,140.3,-68.9,0.0,0.0,0.0,0.0,0.0,0.0,0.0,0.833,0.833,0.13,103.23,0.022,2014-02-28T00:00:00,3,1610612752,NYK,New York,21-38,27,25,28,23,0,0,0,0,0,0,0,0,0,0,103,0.379,0.913,0.4,14,50,17,0021300869,1610612752,NYK,New York,Pablo Prigioni,G,,10:21,0.0,0.0,0.0,0.0,7.0,6.0,2.0,18.0,0.0,0.0,3.0,0.0
0021300869,1610612752,NYK,New York,203501,Tim Hardaway Jr.,,,40:29,98.8,112.5,-13.7,0.0,0.0,0.0,0.0,0.048,0.024,6.8,0.727,0.806,0.138,110.08,0.111,2014-02-28T00:00:00,3,1610612744,GSW,Golden State,36-23,38,35,26,27,0,0,0,0,0,0,0,0,0,0,126,0.478,0.774,0.4,25,49,15,0021300869,1610612752,NYK,New York,Tim Hardaway Jr.,,,40:29,8.0,2.0,4.0,4.0,17.0,15.0,13.0,32.0,0.0,1.0,3.0,5.0
0021300869,1610612752,NYK,New York,203501,Tim Hardaway Jr.,,,40:29,98.8,112.5,-13.7,0.0,0.0,0.0,0.0,0.048,0.024,6.8,0.727,0.806,0.138,110.08,0.111,2014-02-28T00:00:00,3,1610612752,NYK,New York,21-38,27,25,28,23,0,0,0,0,0,0,0,0,0,0,103,0.379,0.913,0.4,14,50,17,0021300869,1610612752,NYK,New York,Tim Hardaway Jr.,,,40:29,8.0,2.0,4.0,4.0,17.0,15.0,13.0,32.0,0.0,1.0,3.0,5.0
0021300869,1610612752,NYK,New York,202719,Jeremy Tyler,,,19:27,78.8,126.4,-47.6,0.111,1.0,12.5,0.095,0.176,0.132,12.5,0.5,0.5,0.136,106.51,0.04,2014-02-28T00:00:00,3,1610612744,GSW,Golden State,36-23,38,35,26,27,0,0,0,0,0,0,0,0,0,0,126,0.478,0.774,0.4,25,49,15,0021300869,1610612752,NYK,New York,Jeremy Tyler,,,19:27,0.0,2.0,0.0,6.0,10.0,5.0,3.0,14.0,1.0,1.0,5.0,0.0
0021300869,1610612752,NYK,New York,202719,Jeremy Tyler,,,19:27,78.8,126.4,-47.6,0.111,1.0,12.5,0.095,0.176,0.132,12.5,0.5,0.5,0.136,106.51,0.04,2014-02-28T00:00:00,3,1610612752,NYK,New York,21-38,27,25,28,23,0,0,0,0,0,0,0,0,0,0,103,0.379,0.913,0.4,14,50,17,0021300869,1610612752,NYK,New York,Jeremy Tyler,,,19:27,0.0,2.0,0.0,6.0,10.0,5.0,3.0,14.0,1.0,1.0,5.0,0.0
0021300869,1610612752,NYK,New York,200769,Shannon Brown,,,15:12,107.8,92.5,15.3,0.083,0.0,33.3,0.0,0.2,0.107,0.0,0.0,0.0,0.055,105.66,0.054,2014-02-28T00:00:00,3,1610612744,GSW,Golden State,36-23,38,35,26,27,0,0,0,0,0,0,0,0,0,0,126,0.478,0.774,0.4,25,49,15,0021300869,1610612752,NYK,New York,Shannon Brown,,,15:12,0.0,0.0,0.0,0.0,5.0,7.0,0.0,12.0,0.0,0.0,1.0,0.0
0021300869,1610612752,NYK,New York,200769,Shannon Brown,,,15:12,107.8,92.5,15.3,0.083,0.0,33.3,0.0,0.2,0.107,0.0,0.0,0.0,0.055,105.66,0.054,2014-02-28T00:00:00,3,1610612752,NYK,New York,21-38,27,25,28,23,0,0,0,0,0,0,0,0,0,0,103,0.379,0.913,0.4,14,50,17,0021300869,1610612752,NYK,New York,Shannon Brown,,,15:12,0.0,0.0,0.0,0.0,5.0,7.0,0.0,12.0,0.0,0.0,1.0,0.0
0021300869,1610612752,NYK,New York,201947,Earl Clark,,,10:59,101.1,110.2,-9.1,0.167,0.0,12.9,0.0,0.333,0.211,0.0,0.4,0.592,0.285,103.05,0.282,2014-02-28T00:00:00,3,1610612744,GSW,Golden State,36-23,38,35,26,27,0,0,0,0,0,0,0,0,0,0,126,0.478,0.774,0.4,25,49,15,0021300869,1610612752,NYK,New York,Earl Clark,,,10:59,2.0,0.0,4.0,4.0,9.0,7.0,0.0,12.0,2.0,0.0,0.0,2.0
0021300869,1610612752,NYK,New York,201947,Earl Clark,,,10:59,101.1,110.2,-9.1,0.167,0.0,12.9,0.0,0.333,0.211,0.0,0.4,0.592,0.285,103.05,0.282,2014-02-28T00:00:00,3,1610612752,NYK,New York,21-38,27,25,28,23,0,0,0,0,0,0,0,0,0,0,103,0.379,0.913,0.4,14,50,17,0021300869,1610612752,NYK,New York,Earl Clark,,,10:59,2.0,0.0,4.0,4.0,9.0,7.0,0.0,12.0,2.0,0.0,0.0,2.0
0021300869,1610612752,NYK,New York,203315,Toure' Murry,,,23:36,101.1,104.0,-2.9,0.125,0.67,16.7,0.0,0.077,0.045,25.0,0.571,0.571,0.174,106.09,0.08,2014-02-28T00:00:00,3,1610612744,GSW,Golden State,36-23,38,35,26,27,0,0,0,0,0,0,0,0,0,0,126,0.478,0.774,0.4,25,49,15,0021300869,1610612752,NYK,New York,Toure' Murry,,,23:36,2.0,0.0,0.0,2.0,12.0,9.0,3.0,18.0,1.0,1.0,0.0,0.0
0021300869,1610612752,NYK,New York,203315,Toure' Murry,,,23:36,101.1,104.0,-2.9,0.125,0.67,16.7,0.0,0.077,0.045,25.0,0.571,0.571,0.174,106.09,0.08,2014-02-28T00:00:00,3,1610612752,NYK,New York,21-38,27,25,28,23,0,0,0,0,0,0,0,0,0,0,103,0.379,0.913,0.4,14,50,17,0021300869,1610612752,NYK,New York,Toure' Murry,,,23:36,2.0,0.0,0.0,2.0,12.0,9.0,3.0,18.0,1.0,1.0,0.0,0.0
0021300869,1610612752,NYK,New York,202332,Cole Aldrich,,DNP - Coach's Decision,,,,,,,0.0,,,,,,,0.0,,,2014-02-28T00:00:00,3,1610612744,GSW,Golden State,36-23,38,35,26,27,0,0,0,0,0,0,0,0,0,0,126,0.478,0.774,0.4,25,49,15,0021300869,1610612752,NYK,New York,Cole Aldrich,,DNP - Coach's Decision,,,,,,,,,,,,,
0021300869,1610612752,NYK,New York,202332,Cole Aldrich,,DNP - Coach's Decision,,,,,,,0.0,,,,,,,0.0,,,2014-02-28T00:00:00,3,1610612752,NYK,New York,21-38,27,25,28,23,0,0,0,0,0,0,0,0,0,0,103,0.379,0.913,0.4,14,50,17,0021300869,1610612752,NYK,New York,Cole Aldrich,,DNP - Coach's Decision,,,,,,,,,,,,,
0021300869,1610612752,NYK,New York,2405,Amar'e Stoudemire,,DND - Sore Left Knee,,,,,,,0.0,,,,,,,0.0,,,2014-02-28T00:00:00,3,1610612744,GSW,Golden State,36-23,38,35,26,27,0,0,0,0,0,0,0,0,0,0,126,0.478,0.774,0.4,25,49,15,0021300869,1610612752,NYK,New York,Amar'e Stoudemire,,DND - Sore Left Knee,,,,,,,,,,,,,
0021300869,1610612752,NYK,New York,2405,Amar'e Stoudemire,,DND - Sore Left Knee,,,,,,,0.0,,,,,,,0.0,,,2014-02-28T00:00:00,3,1610612752,NYK,New York,21-38,27,25,28,23,0,0,0,0,0,0,0,0,0,0,103,0.379,0.913,0.4,14,50,17,0021300869,1610612752,NYK,New York,Amar'e Stoudemire,,DND - Sore Left Knee,,,,,,,,,,,,,
