GAME_ID_x,TEAM_ID_x,TEAM_ABBREVIATION_x,TEAM_CITY_x,PLAYER_ID,PLAYER_NAME_x,START_POSITION_x,COMMENT_x,MIN_x,OFF_RATING,DEF_RATING,NET_RATING,AST_PCT,AST_TOV,AST_RATIO,OREB_PCT,DREB_PCT,REB_PCT,TM_TOV_PCT,EFG_PCT,TS_PCT,USG_PCT,PACE,PIE,GAME_DATE_EST,GAME_SEQUENCE,TEAM_ID_y,TEAM_ABBREVIATION_y,TEAM_CITY_NAME,TEAM_WINS_LOSSES,PTS_QTR1,PTS_QTR2,PTS_QTR3,PTS_QTR4,PTS_OT1,PTS_OT2,PTS_OT3,PTS_OT4,PTS_OT5,PTS_OT6,PTS_OT7,PTS_OT8,PTS_OT9,PTS_OT10,PTS,FG_PCT,FT_PCT,FG3_PCT,AST,REB,TOV,GAME_ID_y,TEAM_ID,TEAM_ABBREVIATION,TEAM_CITY_y,PLAYER_NAME_y,START_POSITION_y,COMMENT_y,MIN_y,PTS_OFF_TOV,PTS_2ND_CHANCE,PTS_FB,PTS_PAINT,OPP_PTS_OFF_TOV,OPP_PTS_2ND_CHANCE,OPP_PTS_FB,OPP_PTS_PAINT,BLK,BLKA,PF,PFD
0021300874,1610612753,ORL,Orlando,203090,Maurice Harkless,F,,33:31,105.0,127.2,-22.2,0.05,0.33,5.8,0.0,0.182,0.082,17.4,0.5,0.53,0.214,97.5,0.076,2014-03-01T00:00:00,1,1610612753,ORL,Orlando,18-43,30,23,20,25,0,0,0,0,0,0,0,0,0,0,98,0.434,0.759,0.222,18,39,12,0021300874,1610612753,ORL,Orlando,Maurice Harkless,F,,33:31,8.0,0.0,2.0,8.0,15.0,8.0,13.0,42.0,0.0,1.0,0.0,3.0
0021300874,1610612753,ORL,Orlando,203090,Maurice Harkless,F,,33:31,105.0,127.2,-22.2,0.05,0.33,5.8,0.0,0.182,0.082,17.4,0.5,0.53,0.214,97.5,0.076,2014-03-01T00:00:00,1,1610612748,MIA,Miami,42-14,32,29,28,23,0,0,0,0,0,0,0,0,0,0,112,0.581,0.833,0.375,20,39,17,0021300874,1610612753,ORL,Orlando,Maurice Harkless,F,,33:31,8.0,0.0,2.0,8.0,15.0,8.0,13.0,42.0,0.0,1.0,0.0,3.0
0021300874,1610612753,ORL,Orlando,202699,Tobias Harris,F,,28:04,110.3,128.7,-18.4,0.0,0.0,0.0,0.045,0.105,0.073,6.6,0.591,0.71,0.235,98.13,0.118,2014-03-01T00:00:00,1,1610612753,ORL,Orlando,18-43,30,23,20,25,0,0,0,0,0,0,0,0,0,0,98,0.434,0.759,0.222,18,39,12,0021300874,1610612753,ORL,Orlando,Tobias Harris,F,,28:04,0.0,0.0,2.0,6.0,13.0,8.0,13.0,40.0,0.0,0.0,1.0,4.0
0021300874,1610612753,ORL,Orlando,202699,Tobias Harris,F,,28:04,110.3,128.7,-18.4,0.0,0.0,0.0,0.045,0.105,0.073,6.6,0.591,0.71,0.235,98.13,0.118,2014-03-01T00:00:00,1,1610612748,MIA,Miami,42-14,32,29,28,23,0,0,0,0,0,0,0,0,0,0,112,0.581,0.833,0.375,20,39,17,0021300874,1610612753,ORL,Orlando,Tobias Harris,F,,28:04,0.0,0.0,2.0,6.0,13.0,8.0,13.0,40.0,0.0,0.0,1.0,4.0
0021300874,1610612753,ORL,Orlando,202696,Nikola Vucevic,C,,22:45,103.6,138.1,-34.5,0.0,0.0,0.0,0.25,0.308,0.27,0.0,0.643,0.643,0.283,89.88,0.215,2014-03-01T00:00:00,1,1610612753,ORL,Orlando,18-43,30,23,20,25,0,0,0,0,0,0,0,0,0,0,98,0.434,0.759,0.222,18,39,12,0021300874,1610612753,ORL,Orlando,Nikola Vucevic,C,,22:45,4.0,10.0,0.0,14.0,4.0,6.0,8.0,30.0,0.0,1.0,3.0,1.0
0021300874,1610612753,ORL,Orlando,202696,Nikola Vucevic,C,,22:45,103.6,138.1,-34.5,0.0,0.0,0.0,0.25,0.308,0.27,0.0,0.643,0.643,0.283,89.88,0.215,2014-03-01T00:00:00,1,1610612748,MIA,Miami,42-14,32,29,28,23,0,0,0,0,0,0,0,0,0,0,112,0.581,0.833,0.375,20,39,17,0021300874,1610612753,ORL,Orlando,Nikola Vucevic,C,,22:45,4.0,10.0,0.0,14.0,4.0,6.0,8.0,30.0,0.0,1.0,3.0,1.0
0021300874,1610612753,ORL,Orlando,203506,Victor Oladipo,G,,26:15,95.7,122.5,-26.8,0.067,0.5,7.5,0.0,0.0,0.0,14.9,0.333,0.481,0.196,94.03,-0.024,2014-03-01T00:00:00,1,1610612753,ORL,Orlando,18-43,30,23,20,25,0,0,0,0,0,0,0,0,0,0,98,0.434,0.759,0.222,18,39,12,0021300874,1610612753,ORL,Orlando,Victor Oladipo,G,,26:15,1.0,0.0,1.0,4.0,8.0,6.0,10.0,32.0,0.0,0.0,3.0,7.0
0021300874,1610612753,ORL,Orlando,203506,Victor Oladipo,G,,26:15,95.7,122.5,-26.8,0.067,0.5,7.5,0.0,0.0,0.0,14.9,0.333,0.481,0.196,94.03,-0.024,2014-03-01T00:00:00,1,1610612748,MIA,Miami,42-14,32,29,28,23,0,0,0,0,0,0,0,0,0,0,112,0.581,0.833,0.375,20,39,17,0021300874,1610612753,ORL,Orlando,Victor Oladipo,G,,26:15,1.0,0.0,1.0,4.0,8.0,6.0,10.0,32.0,0.0,0.0,3.0,7.0
0021300874,1610612753,ORL,Orlando,2749,Jameer Nelson,G,,30:54,107.7,126.9,-19.2,0.423,5.5,52.4,0.0,0.05,0.022,9.5,0.188,0.188,0.143,98.02,0.044,2014-03-01T00:00:00,1,1610612753,ORL,Orlando,18-43,30,23,20,25,0,0,0,0,0,0,0,0,0,0,98,0.434,0.759,0.222,18,39,12,0021300874,1610612753,ORL,Orlando,Jameer Nelson,G,,30:54,0.0,0.0,0.0,0.0,13.0,8.0,13.0,40.0,0.0,0.0,1.0,0.0
0021300874,1610612753,ORL,Orlando,2749,Jameer Nelson,G,,30:54,107.7,126.9,-19.2,0.423,5.5,52.4,0.0,0.05,0.022,9.5,0.188,0.188,0.143,98.02,0.044,2014-03-01T00:00:00,1,1610612748,MIA,Miami,42-14,32,29,28,23,0,0,0,0,0,0,0,0,0,0,112,0.581,0.833,0.375,20,39,17,0021300874,1610612753,ORL,Orlando,Jameer Nelson,G,,30:54,0.0,0.0,0.0,0.0,13.0,8.0,13.0,40.0,0.0,0.0,1.0,0.0
0021300874,1610612753,ORL,Orlando,203124,Kyle O'Quinn,,,22:19,106.9,113.7,-6.8,0.154,1.0,13.4,0.333,0.563,0.441,13.4,0.6,0.643,0.239,97.52,0.25,2014-03-01T00:00:00,1,1610612753,ORL,Orlando,18-43,30,23,20,25,0,0,0,0,0,0,0,0,0,0,98,0.434,0.759,0.222,18,39,12,0021300874,1610612753,ORL,Orlando,Kyle O'Quinn,,,22:19,6.0,6.0,2.0,10.0,13.0,6.0,7.0,20.0,1.0,1.0,4.0,1.0
0021300874,1610612753,ORL,Orlando,203124,Kyle O'Quinn,,,22:19,106.9,113.7,-6.8,0.154,1.0,13.4,0.333,0.563,0.441,13.4,0.6,0.643,0.239,97.52,0.25,2014-03-01T00:00:00,1,1610612748,MIA,Miami,42-14,32,29,28,23,0,0,0,0,0,0,0,0,0,0,112,0.581,0.833,0.375,20,39,17,0021300874,1610612753,ORL,Orlando,Kyle O'Quinn,,,22:19,6.0,6.0,2.0,10.0,13.0,6.0,7.0,20.0,1.0,1.0,4.0,1.0
0021300874,1610612753,ORL,Orlando,202734,E'Twaun Moore,,,33:55,108.4,122.9,-14.5,0.05,0.5,9.2,0.0,0.0,0.0,18.4,0.643,0.635,0.134,89.98,0.033,2014-03-01T00:00:00,1,1610612753,ORL,Orlando,18-43,30,23,20,25,0,0,0,0,0,0,0,0,0,0,98,0.434,0.759,0.222,18,39,12,0021300874,1610612753,ORL,Orlando,E'Twaun Moore,,,33:55,2.0,0.0,3.0,2.0,13.0,12.0,7.0,30.0,0.0,0.0,2.0,1.0
0021300874,1610612753,ORL,Orlando,202734,E'Twaun Moore,,,33:55,108.4,122.9,-14.5,0.05,0.5,9.2,0.0,0.0,0.0,18.4,0.643,0.635,0.134,89.98,0.033,2014-03-01T00:00:00,1,1610612748,MIA,Miami,42-14,32,29,28,23,0,0,0,0,0,0,0,0,0,0,112,0.581,0.833,0.375,20,39,17,0021300874,1610612753,ORL,Orlando,E'Twaun Moore,,,33:55,2.0,0.0,3.0,2.0,13.0,12.0,7.0,30.0,0.0,0.0,2.0,1.0
0021300874,1610612753,ORL,Orlando,203117,Doron Lamb,,,14:29,103.2,104.2,-1.0,0.0,0.0,0.0,0.056,0.091,0.069,0.0,0.0,0.0,0.181,83.12,-0.169,2014-03-01T00:00:00,1,1610612753,ORL,Orlando,18-43,30,23,20,25,0,0,0,0,0,0,0,0,0,0,98,0.434,0.759,0.222,18,39,12,0021300874,1610612753,ORL,Orlando,Doron Lamb,,,14:29,0.0,0.0,0.0,0.0,2.0,6.0,2.0,10.0,0.0,0.0,1.0,0.0
0021300874,1610612753,ORL,Orlando,203117,Doron Lamb,,,14:29,103.2,104.2,-1.0,0.0,0.0,0.0,0.056,0.091,0.069,0.0,0.0,0.0,0.181,83.12,-0.169,2014-03-01T00:00:00,1,1610612748,MIA,Miami,42-14,32,29,28,23,0,0,0,0,0,0,0,0,0,0,112,0.581,0.833,0.375,20,39,17,0021300874,1610612753,ORL,Orlando,Doron Lamb,,,14:29,0.0,0.0,0.0,0.0,2.0,6.0,2.0,10.0,0.0,0.0,1.0,0.0
0021300874,1610612753,ORL,Orlando,203094,Andrew Nicholson,,,19:56,95.2,108.8,-13.6,0.182,0.0,22.5,0.043,0.071,0.054,0.0,0.167,0.291,0.154,86.16,-0.033,2014-03-01T00:00:00,1,1610612753,ORL,Orlando,18-43,30,23,20,25,0,0,0,0,0,0,0,0,0,0,98,0.434,0.759,0.222,18,39,12,0021300874,1610612753,ORL,Orlando,Andrew Nicholson,,,19:56,0.0,0.0,0.0,0.0,4.0,6.0,2.0,12.0,0.0,3.0,4.0,2.0
0021300874,1610612753,ORL,Orlando,203094,Andrew Nicholson,,,19:56,95.2,108.8,-13.6,0.182,0.0,22.5,0.043,0.071,0.054,0.0,0.167,0.291,0.154,86.16,-0.033,2014-03-01T00:00:00,1,1610612748,MIA,Miami,42-14,32,29,28,23,0,0,0,0,0,0,0,0,0,0,112,0.581,0.833,0.375,20,39,17,0021300874,1610612753,ORL,Orlando,Andrew Nicholson,,,19:56,0.0,0.0,0.0,0.0,4.0,6.0,2.0,12.0,0.0,3.0,4.0,2.0
0021300874,1610612753,ORL,Orlando,203519,Adonis Thomas,,,4:56,106.6,50.0,56.6,0.0,0.0,0.0,0.0,0.0,0.0,0.0,0.5,0.5,0.192,79.98,0.091,2014-03-01T00:00:00,1,1610612753,ORL,Orlando,18-43,30,23,20,25,0,0,0,0,0,0,0,0,0,0,98,0.434,0.759,0.222,18,39,12,0021300874,1610612753,ORL,Orlando,Adonis Thomas,,,4:56,0.0,0.0,0.0,2.0,0.0,2.0,0.0,2.0,0.0,0.0,0.0,0.0
0021300874,1610612753,ORL,Orlando,203519,Adonis Thomas,,,4:56,106.6,50.0,56.6,0.0,0.0,0.0,0.0,0.0,0.0,0.0,0.5,0.5,0.192,79.98,0.091,2014-03-01T00:00:00,1,1610612748,MIA,Miami,42-14,32,29,28,23,0,0,0,0,0,0,0,0,0,0,112,0.581,0.833,0.375,20,39,17,0021300874,1610612753,ORL,Orlando,Adonis Thomas,,,4:56,0.0,0.0,0.0,2.0,0.0,2.0,0.0,2.0,0.0,0.0,0.0,0.0
0021300874,1610612753,ORL,Orlando,203473,Dewayne Dedmon,,,2:56,91.9,40.0,51.9,0.0,0.0,0.0,0.0,0.5,0.286,0.0,0.5,0.615,0.449,85.42,0.667,2014-03-01T00:00:00,1,1610612753,ORL,Orlando,18-43,30,23,20,25,0,0,0,0,0,0,0,0,0,0,98,0.434,0.759,0.222,18,39,12,0021300874,1610612753,ORL,Orlando,Dewayne Dedmon,,,2:56,3.0,0.0,0.0,2.0,0.0,2.0,0.0,2.0,0.0,0.0,0.0,1.0
0021300874,1610612753,ORL,Orlando,203473,Dewayne Dedmon,,,2:56,91.9,40.0,51.9,0.0,0.0,0.0,0.0,0.5,0.286,0.0,0.5,0.615,0.449,85.42,0.667,2014-03-01T00:00:00,1,1610612748,MIA,Miami,42-14,32,29,28,23,0,0,0,0,0,0,0,0,0,0,112,0.581,0.833,0.375,20,39,17,0021300874,1610612753,ORL,Orlando,Dewayne Dedmon,,,2:56,3.0,0.0,0.0,2.0,0.0,2.0,0.0,2.0,0.0,0.0,0.0,1.0
0021300874,1610612753,ORL,Orlando,101131,Jason Maxiell,,DNP - Coach's Decision,,,,,,,0.0,,,,,,,0.0,,,2014-03-01T00:00:00,1,1610612753,ORL,Orlando,18-43,30,23,20,25,0,0,0,0,0,0,0,0,0,0,98,0.434,0.759,0.222,18,39,12,0021300874,1610612753,ORL,Orlando,Jason Maxiell,,DNP - Coach's Decision,,,,,,,,,,,,,
0021300874,1610612753,ORL,Orlando,101131,Jason Maxiell,,DNP - Coach's Decision,,,,,,,0.0,,,,,,,0.0,,,2014-03-01T00:00:00,1,1610612748,MIA,Miami,42-14,32,29,28,23,0,0,0,0,0,0,0,0,0,0,112,0.581,0.833,0.375,20,39,17,0021300874,1610612753,ORL,Orlando,Jason Maxiell,,DNP - Coach's Decision,,,,,,,,,,,,,
0021300874,1610612753,ORL,Orlando,101179,Ronnie Price,,DNP - Coach's Decision,,,,,,,0.0,,,,,,,0.0,,,2014-03-01T00:00:00,1,1610612753,ORL,Orlando,18-43,30,23,20,25,0,0,0,0,0,0,0,0,0,0,98,0.434,0.759,0.222,18,39,12,0021300874,1610612753,ORL,Orlando,Ronnie Price,,DNP - Coach's Decision,,,,,,,,,,,,,
0021300874,1610612753,ORL,Orlando,101179,Ronnie Price,,DNP - Coach's Decision,,,,,,,0.0,,,,,,,0.0,,,2014-03-01T00:00:00,1,1610612748,MIA,Miami,42-14,32,29,28,23,0,0,0,0,0,0,0,0,0,0,112,0.581,0.833,0.375,20,39,17,0021300874,1610612753,ORL,Orlando,Ronnie Price,,DNP - Coach's Decision,,,,,,,,,,,,,
0021300874,1610612748,MIA,Miami,2544,LeBron James,F,,31:13,127.8,103.8,24.0,0.304,3.5,30.2,0.048,0.308,0.191,8.6,0.667,0.704,0.243,96.99,0.24,2014-03-01T00:00:00,1,1610612753,ORL,Orlando,18-43,30,23,20,25,0,0,0,0,0,0,0,0,0,0,98,0.434,0.759,0.222,18,39,12,0021300874,1610612748,MIA,Miami,LeBron James,F,,31:13,10.0,0.0,11.0,12.0,11.0,8.0,8.0,30.0,0.0,0.0,1.0,4.0
0021300874,1610612748,MIA,Miami,2544,LeBron James,F,,31:13,127.8,103.8,24.0,0.304,3.5,30.2,0.048,0.308,0.191,8.6,0.667,0.704,0.243,96.99,0.24,2014-03-01T00:00:00,1,1610612748,MIA,Miami,42-14,32,29,28,23,0,0,0,0,0,0,0,0,0,0,112,0.581,0.833,0.375,20,39,17,0021300874,1610612748,MIA,Miami,LeBron James,F,,31:13,10.0,0.0,11.0,12.0,11.0,8.0,8.0,30.0,0.0,0.0,1.0,4.0
0021300874,1610612748,MIA,Miami,2203,Shane Battier,F,,18:40,135.5,101.0,34.5,0.111,0.0,33.3,0.0,0.1,0.067,0.0,0.625,0.625,0.096,100.9,0.06,2014-03-01T00:00:00,1,1610612753,ORL,Orlando,18-43,30,23,20,25,0,0,0,0,0,0,0,0,0,0,98,0.434,0.759,0.222,18,39,12,0021300874,1610612748,MIA,Miami,Shane Battier,F,,18:40,0.0,0.0,0.0,2.0,9.0,6.0,6.0,20.0,0.0,0.0,3.0,1.0
0021300874,1610612748,MIA,Miami,2203,Shane Battier,F,,18:40,135.5,101.0,34.5,0.111,0.0,33.3,0.0,0.1,0.067,0.0,0.625,0.625,0.096,100.9,0.06,2014-03-01T00:00:00,1,1610612748,MIA,Miami,42-14,32,29,28,23,0,0,0,0,0,0,0,0,0,0,112,0.581,0.833,0.375,20,39,17,0021300874,1610612748,MIA,Miami,Shane Battier,F,,18:40,0.0,0.0,0.0,2.0,9.0,6.0,6.0,20.0,0.0,0.0,3.0,1.0
0021300874,1610612748,MIA,Miami,2547,Chris Bosh,C,,18:03,140.0,111.6,28.4,0.0,0.0,0.0,0.0,0.167,0.107,8.9,0.75,0.833,0.3,93.23,0.163,2014-03-01T00:00:00,1,1610612753,ORL,Orlando,18-43,30,23,20,25,0,0,0,0,0,0,0,0,0,0,98,0.434,0.759,0.222,18,39,12,0021300874,1610612748,MIA,Miami,Chris Bosh,C,,18:03,3.0,2.0,0.0,6.0,6.0,8.0,0.0,16.0,1.0,0.0,4.0,3.0
0021300874,1610612748,MIA,Miami,2547,Chris Bosh,C,,18:03,140.0,111.6,28.4,0.0,0.0,0.0,0.0,0.167,0.107,8.9,0.75,0.833,0.3,93.23,0.163,2014-03-01T00:00:00,1,1610612748,MIA,Miami,42-14,32,29,28,23,0,0,0,0,0,0,0,0,0,0,112,0.581,0.833,0.375,20,39,17,0021300874,1610612748,MIA,Miami,Chris Bosh,C,,18:03,3.0,2.0,0.0,6.0,6.0,8.0,0.0,16.0,1.0,0.0,4.0,3.0
0021300874,1610612748,MIA,Miami,2548,Dwyane Wade,G,,30:02,119.9,104.6,15.4,0.25,1.33,17.2,0.105,0.029,0.057,12.9,0.714,0.741,0.294,94.77,0.223,2014-03-01T00:00:00,1,1610612753,ORL,Orlando,18-43,30,23,20,25,0,0,0,0,0,0,0,0,0,0,98,0.434,0.759,0.222,18,39,12,0021300874,1610612748,MIA,Miami,Dwyane Wade,G,,30:02,4.0,2.0,4.0,12.0,19.0,14.0,8.0,32.0,1.0,1.0,0.0,4.0
0021300874,1610612748,MIA,Miami,2548,Dwyane Wade,G,,30:02,119.9,104.6,15.4,0.25,1.33,17.2,0.105,0.029,0.057,12.9,0.714,0.741,0.294,94.77,0.223,2014-03-01T00:00:00,1,1610612748,MIA,Miami,42-14,32,29,28,23,0,0,0,0,0,0,0,0,0,0,112,0.581,0.833,0.375,20,39,17,0021300874,1610612748,MIA,Miami,Dwyane Wade,G,,30:02,4.0,2.0,4.0,12.0,19.0,14.0,8.0,32.0,1.0,1.0,0.0,4.0
0021300874,1610612748,MIA,Miami,201596,Mario Chalmers,G,,25:40,135.7,105.0,30.7,0.125,1.0,30.4,0.059,0.042,0.049,30.4,0.833,0.902,0.126,95.45,0.066,2014-03-01T00:00:00,1,1610612753,ORL,Orlando,18-43,30,23,20,25,0,0,0,0,0,0,0,0,0,0,98,0.434,0.759,0.222,18,39,12,0021300874,1610612748,MIA,Miami,Mario Chalmers,G,,25:40,0.0,0.0,0.0,2.0,9.0,8.0,6.0,22.0,0.0,0.0,2.0,1.0
0021300874,1610612748,MIA,Miami,201596,Mario Chalmers,G,,25:40,135.7,105.0,30.7,0.125,1.0,30.4,0.059,0.042,0.049,30.4,0.833,0.902,0.126,95.45,0.066,2014-03-01T00:00:00,1,1610612748,MIA,Miami,42-14,32,29,28,23,0,0,0,0,0,0,0,0,0,0,112,0.581,0.833,0.375,20,39,17,0021300874,1610612748,MIA,Miami,Mario Chalmers,G,,25:40,0.0,0.0,0.0,2.0,9.0,8.0,6.0,22.0,0.0,0.0,2.0,1.0
0021300874,1610612748,MIA,Miami,951,Ray Allen,,,24:03,126.3,104.7,21.6,0.053,1.0,11.1,0.0,0.048,0.029,11.1,0.5,0.5,0.158,92.37,0.047,2014-03-01T00:00:00,1,1610612753,ORL,Orlando,18-43,30,23,20,25,0,0,0,0,0,0,0,0,0,0,98,0.434,0.759,0.222,18,39,12,0021300874,1610612748,MIA,Miami,Ray Allen,,,24:03,0.0,0.0,0.0,2.0,12.0,8.0,4.0,24.0,0.0,0.0,0.0,0.0
0021300874,1610612748,MIA,Miami,951,Ray Allen,,,24:03,126.3,104.7,21.6,0.053,1.0,11.1,0.0,0.048,0.029,11.1,0.5,0.5,0.158,92.37,0.047,2014-03-01T00:00:00,1,1610612748,MIA,Miami,42-14,32,29,28,23,0,0,0,0,0,0,0,0,0,0,112,0.581,0.833,0.375,20,39,17,0021300874,1610612748,MIA,Miami,Ray Allen,,,24:03,0.0,0.0,0.0,2.0,12.0,8.0,4.0,24.0,0.0,0.0,0.0,0.0
0021300874,1610612748,MIA,Miami,201563,Michael Beasley,,,21:49,93.9,103.5,-9.6,0.083,0.33,8.3,0.111,0.105,0.108,25.0,0.5,0.5,0.236,92.45,0.07,2014-03-01T00:00:00,1,1610612753,ORL,Orlando,18-43,30,23,20,25,0,0,0,0,0,0,0,0,0,0,98,0.434,0.759,0.222,18,39,12,0021300874,1610612748,MIA,Miami,Michael Beasley,,,21:49,0.0,2.0,0.0,4.0,15.0,6.0,4.0,24.0,3.0,0.0,2.0,0.0
0021300874,1610612748,MIA,Miami,201563,Michael Beasley,,,21:49,93.9,103.5,-9.6,0.083,0.33,8.3,0.111,0.105,0.108,25.0,0.5,0.5,0.236,92.45,0.07,2014-03-01T00:00:00,1,1610612748,MIA,Miami,42-14,32,29,28,23,0,0,0,0,0,0,0,0,0,0,112,0.581,0.833,0.375,20,39,17,0021300874,1610612748,MIA,Miami,Michael Beasley,,,21:49,0.0,2.0,0.0,4.0,15.0,6.0,4.0,24.0,3.0,0.0,2.0,0.0
0021300874,1610612748,MIA,Miami,2365,Chris Andersen,,,19:20,119.9,92.6,27.3,0.0,0.0,0.0,0.143,0.176,0.161,0.0,0.667,0.644,0.093,92.2,0.074,2014-03-01T00:00:00,1,1610612753,ORL,Orlando,18-43,30,23,20,25,0,0,0,0,0,0,0,0,0,0,98,0.434,0.759,0.222,18,39,12,0021300874,1610612748,MIA,Miami,Chris Andersen,,,19:20,0.0,4.0,0.0,4.0,7.0,6.0,5.0,20.0,1.0,0.0,3.0,3.0
0021300874,1610612748,MIA,Miami,2365,Chris Andersen,,,19:20,119.9,92.6,27.3,0.0,0.0,0.0,0.143,0.176,0.161,0.0,0.667,0.644,0.093,92.2,0.074,2014-03-01T00:00:00,1,1610612748,MIA,Miami,42-14,32,29,28,23,0,0,0,0,0,0,0,0,0,0,112,0.581,0.833,0.375,20,39,17,0021300874,1610612748,MIA,Miami,Chris Andersen,,,19:20,0.0,4.0,0.0,4.0,7.0,6.0,5.0,20.0,1.0,0.0,3.0,3.0
0021300874,1610612748,MIA,Miami,202708,Norris Cole,,,27:17,109.5,105.3,4.2,0.053,0.5,7.8,0.0,0.083,0.044,15.5,0.389,0.455,0.214,87.71,0.036,2014-03-01T00:00:00,1,1610612753,ORL,Orlando,18-43,30,23,20,25,0,0,0,0,0,0,0,0,0,0,98,0.434,0.759,0.222,18,39,12,0021300874,1610612748,MIA,Miami,Norris Cole,,,27:17,0.0,0.0,0.0,0.0,15.0,10.0,4.0,28.0,0.0,0.0,1.0,1.0
0021300874,1610612748,MIA,Miami,202708,Norris Cole,,,27:17,109.5,105.3,4.2,0.053,0.5,7.8,0.0,0.083,0.044,15.5,0.389,0.455,0.214,87.71,0.036,2014-03-01T00:00:00,1,1610612748,MIA,Miami,42-14,32,29,28,23,0,0,0,0,0,0,0,0,0,0,112,0.581,0.833,0.375,20,39,17,0021300874,1610612748,MIA,Miami,Norris Cole,,,27:17,0.0,0.0,0.0,0.0,15.0,10.0,4.0,28.0,0.0,0.0,1.0,1.0
0021300874,1610612748,MIA,Miami,201141,Greg Oden,,,13:07,141.9,123.0,19.0,0.1,1.0,15.8,0.0,0.364,0.222,15.8,1.0,0.926,0.197,88.54,0.14,2014-03-01T00:00:00,1,1610612753,ORL,Orlando,18-43,30,23,20,25,0,0,0,0,0,0,0,0,0,0,98,0.434,0.759,0.222,18,39,12,0021300874,1610612748,MIA,Miami,Greg Oden,,,13:07,0.0,2.0,0.0,6.0,8.0,4.0,5.0,10.0,0.0,0.0,3.0,2.0
0021300874,1610612748,MIA,Miami,201141,Greg Oden,,,13:07,141.9,123.0,19.0,0.1,1.0,15.8,0.0,0.364,0.222,15.8,1.0,0.926,0.197,88.54,0.14,2014-03-01T00:00:00,1,1610612748,MIA,Miami,42-14,32,29,28,23,0,0,0,0,0,0,0,0,0,0,112,0.581,0.833,0.375,20,39,17,0021300874,1610612748,MIA,Miami,Greg Oden,,,13:07,0.0,2.0,0.0,6.0,8.0,4.0,5.0,10.0,0.0,0.0,3.0,2.0
0021300874,1610612748,MIA,Miami,2617,Udonis Haslem,,,4:56,50.0,106.6,-56.6,0.0,0.0,0.0,0.167,0.2,0.182,0.0,1.0,1.0,0.111,79.98,0.318,2014-03-01T00:00:00,1,1610612753,ORL,Orlando,18-43,30,23,20,25,0,0,0,0,0,0,0,0,0,0,98,0.434,0.759,0.222,18,39,12,0021300874,1610612748,MIA,Miami,Udonis Haslem,,,4:56,0.0,2.0,0.0,2.0,3.0,2.0,0.0,6.0,0.0,0.0,0.0,0.0
0021300874,1610612748,MIA,Miami,2617,Udonis Haslem,,,4:56,50.0,106.6,-56.6,0.0,0.0,0.0,0.167,0.2,0.182,0.0,1.0,1.0,0.111,79.98,0.318,2014-03-01T00:00:00,1,1610612748,MIA,Miami,42-14,32,29,28,23,0,0,0,0,0,0,0,0,0,0,112,0.581,0.833,0.375,20,39,17,0021300874,1610612748,MIA,Miami,Udonis Haslem,,,4:56,0.0,2.0,0.0,2.0,3.0,2.0,0.0,6.0,0.0,0.0,0.0,0.0
0021300874,1610612748,MIA,Miami,201962,Toney Douglas,,,2:56,40.0,91.9,-51.9,0.0,0.0,0.0,0.0,0.333,0.143,33.3,0.0,0.0,0.5,85.42,-0.5,2014-03-01T00:00:00,1,1610612753,ORL,Orlando,18-43,30,23,20,25,0,0,0,0,0,0,0,0,0,0,98,0.434,0.759,0.222,18,39,12,0021300874,1610612748,MIA,Miami,Toney Douglas,,,2:56,0.0,0.0,0.0,0.0,3.0,0.0,0.0,4.0,0.0,0.0,1.0,0.0
0021300874,1610612748,MIA,Miami,201962,Toney Douglas,,,2:56,40.0,91.9,-51.9,0.0,0.0,0.0,0.0,0.333,0.143,33.3,0.0,0.0,0.5,85.42,-0.5,2014-03-01T00:00:00,1,1610612748,MIA,Miami,42-14,32,29,28,23,0,0,0,0,0,0,0,0,0,0,112,0.581,0.833,0.375,20,39,17,0021300874,1610612748,MIA,Miami,Toney Douglas,,,2:56,0.0,0.0,0.0,0.0,3.0,0.0,0.0,4.0,0.0,0.0,1.0,0.0
0021300874,1610612748,MIA,Miami,1740,Rashard Lewis,,,2:56,40.0,91.9,-51.9,0.0,0.0,0.0,0.0,0.333,0.143,0.0,0.0,0.0,0.0,85.42,0.167,2014-03-01T00:00:00,1,1610612753,ORL,Orlando,18-43,30,23,20,25,0,0,0,0,0,0,0,0,0,0,98,0.434,0.759,0.222,18,39,12,0021300874,1610612748,MIA,Miami,Rashard Lewis,,,2:56,0.0,0.0,0.0,0.0,3.0,0.0,0.0,4.0,0.0,0.0,0.0,0.0
0021300874,1610612748,MIA,Miami,1740,Rashard Lewis,,,2:56,40.0,91.9,-51.9,0.0,0.0,0.0,0.0,0.333,0.143,0.0,0.0,0.0,0.0,85.42,0.167,2014-03-01T00:00:00,1,1610612748,MIA,Miami,42-14,32,29,28,23,0,0,0,0,0,0,0,0,0,0,112,0.581,0.833,0.375,20,39,17,0021300874,1610612748,MIA,Miami,Rashard Lewis,,,2:56,0.0,0.0,0.0,0.0,3.0,0.0,0.0,4.0,0.0,0.0,0.0,0.0
