GAME_ID_x,TEAM_ID_x,TEAM_ABBREVIATION_x,TEAM_CITY_x,PLAYER_ID,PLAYER_NAME_x,START_POSITION_x,COMMENT_x,MIN_x,OFF_RATING,DEF_RATING,NET_RATING,AST_PCT,AST_TOV,AST_RATIO,OREB_PCT,DREB_PCT,REB_PCT,TM_TOV_PCT,EFG_PCT,TS_PCT,USG_PCT,PACE,PIE,GAME_DATE_EST,GAME_SEQUENCE,TEAM_ID_y,TEAM_ABBREVIATION_y,TEAM_CITY_NAME,TEAM_WINS_LOSSES,PTS_QTR1,PTS_QTR2,PTS_QTR3,PTS_QTR4,PTS_OT1,PTS_OT2,PTS_OT3,PTS_OT4,PTS_OT5,PTS_OT6,PTS_OT7,PTS_OT8,PTS_OT9,PTS_OT10,PTS,FG_PCT,FT_PCT,FG3_PCT,AST,REB,TOV,GAME_ID_y,TEAM_ID,TEAM_ABBREVIATION,TEAM_CITY_y,PLAYER_NAME_y,START_POSITION_y,COMMENT_y,MIN_y,PTS_OFF_TOV,PTS_2ND_CHANCE,PTS_FB,PTS_PAINT,OPP_PTS_OFF_TOV,OPP_PTS_2ND_CHANCE,OPP_PTS_FB,OPP_PTS_PAINT,BLK,BLKA,PF,PFD
0021300887,1610612766,CHA,Charlotte,203077,Michael Kidd-Gilchrist,F,,20:19,88.4,114.4,-26.0,0.071,0.0,25.8,0.0,0.0,0.0,0.0,0.0,0.174,0.066,97.95,-0.055,2014-03-02T00:00:00,5,1610612766,CHA,Charlotte,27-32,25,30,26,18,0,0,0,0,0,0,0,0,0,0,99,0.441,0.775,0.364,19,29,15,0021300887,1610612766,CHA,Charlotte,Michael Kidd-Gilchrist,F,,20:19,1,0,1,0,6,10,4,24,0,0,4,1
0021300887,1610612766,CHA,Charlotte,203077,Michael Kidd-Gilchrist,F,,20:19,88.4,114.4,-26.0,0.071,0.0,25.8,0.0,0.0,0.0,0.0,0.0,0.174,0.066,97.95,-0.055,2014-03-02T00:00:00,5,1610612760,OKC,Oklahoma City,45-15,31,30,24,31,0,0,0,0,0,0,0,0,0,0,116,0.5,0.867,0.364,19,44,15,0021300887,1610612766,CHA,Charlotte,Michael Kidd-Gilchrist,F,,20:19,1,0,1,0,6,10,4,24,0,0,4,1
0021300887,1610612766,CHA,Charlotte,201177,Josh McRoberts,F,,28:48,101.5,131.4,-29.9,0.375,3.0,43.2,0.05,0.19,0.122,14.4,0.4,0.51,0.131,96.63,0.092,2014-03-02T00:00:00,5,1610612766,CHA,Charlotte,27-32,25,30,26,18,0,0,0,0,0,0,0,0,0,0,99,0.441,0.775,0.364,19,29,15,0021300887,1610612766,CHA,Charlotte,Josh McRoberts,F,,28:48,2,0,0,2,18,13,6,36,0,0,1,2
0021300887,1610612766,CHA,Charlotte,201177,Josh McRoberts,F,,28:48,101.5,131.4,-29.9,0.375,3.0,43.2,0.05,0.19,0.122,14.4,0.4,0.51,0.131,96.63,0.092,2014-03-02T00:00:00,5,1610612760,OKC,Oklahoma City,45-15,31,30,24,31,0,0,0,0,0,0,0,0,0,0,116,0.5,0.867,0.364,19,44,15,0021300887,1610612766,CHA,Charlotte,Josh McRoberts,F,,28:48,2,0,0,2,18,13,6,36,0,0,1,2
0021300887,1610612766,CHA,Charlotte,2744,Al Jefferson,C,,35:55,102.2,123.4,-21.2,0.2,3.0,12.8,0.0,0.241,0.123,4.3,0.625,0.64,0.265,100.17,0.173,2014-03-02T00:00:00,5,1610612766,CHA,Charlotte,27-32,25,30,26,18,0,0,0,0,0,0,0,0,0,0,99,0.441,0.775,0.364,19,29,15,0021300887,1610612766,CHA,Charlotte,Al Jefferson,C,,35:55,4,2,0,16,19,15,15,42,1,2,3,4
0021300887,1610612766,CHA,Charlotte,2744,Al Jefferson,C,,35:55,102.2,123.4,-21.2,0.2,3.0,12.8,0.0,0.241,0.123,4.3,0.625,0.64,0.265,100.17,0.173,2014-03-02T00:00:00,5,1610612760,OKC,Oklahoma City,45-15,31,30,24,31,0,0,0,0,0,0,0,0,0,0,116,0.5,0.867,0.364,19,44,15,0021300887,1610612766,CHA,Charlotte,Al Jefferson,C,,35:55,4,2,0,16,19,15,15,42,1,2,3,4
0021300887,1610612766,CHA,Charlotte,201945,Gerald Henderson,G,,28:02,89.3,121.4,-32.1,0.0,0.0,0.0,0.0,0.238,0.114,9.0,0.286,0.446,0.184,98.52,0.062,2014-03-02T00:00:00,5,1610612766,CHA,Charlotte,27-32,25,30,26,18,0,0,0,0,0,0,0,0,0,0,99,0.441,0.775,0.364,19,29,15,0021300887,1610612766,CHA,Charlotte,Gerald Henderson,G,,28:02,3,1,0,2,13,13,9,34,0,1,1,6
0021300887,1610612766,CHA,Charlotte,201945,Gerald Henderson,G,,28:02,89.3,121.4,-32.1,0.0,0.0,0.0,0.0,0.238,0.114,9.0,0.286,0.446,0.184,98.52,0.062,2014-03-02T00:00:00,5,1610612760,OKC,Oklahoma City,45-15,31,30,24,31,0,0,0,0,0,0,0,0,0,0,116,0.5,0.867,0.364,19,44,15,0021300887,1610612766,CHA,Charlotte,Gerald Henderson,G,,28:02,3,1,0,2,13,13,9,34,0,1,1,6
0021300887,1610612766,CHA,Charlotte,202689,Kemba Walker,G,,32:58,90.7,119.4,-28.7,0.211,1.33,20.0,0.037,0.074,0.056,15.0,0.231,0.231,0.221,101.37,0.013,2014-03-02T00:00:00,5,1610612766,CHA,Charlotte,27-32,25,30,26,18,0,0,0,0,0,0,0,0,0,0,99,0.441,0.775,0.364,19,29,15,0021300887,1610612766,CHA,Charlotte,Kemba Walker,G,,32:58,2,0,0,2,17,13,15,36,0,2,0,0
0021300887,1610612766,CHA,Charlotte,202689,Kemba Walker,G,,32:58,90.7,119.4,-28.7,0.211,1.33,20.0,0.037,0.074,0.056,15.0,0.231,0.231,0.221,101.37,0.013,2014-03-02T00:00:00,5,1610612760,OKC,Oklahoma City,45-15,31,30,24,31,0,0,0,0,0,0,0,0,0,0,116,0.5,0.867,0.364,19,44,15,0021300887,1610612766,CHA,Charlotte,Kemba Walker,G,,32:58,2,0,0,2,17,13,15,36,0,2,0,0
0021300887,1610612766,CHA,Charlotte,203469,Cody Zeller,,,19:12,92.0,96.7,-4.7,0.1,1.0,12.4,0.0,0.235,0.125,12.4,0.667,0.822,0.163,106.05,0.198,2014-03-02T00:00:00,5,1610612766,CHA,Charlotte,27-32,25,30,26,18,0,0,0,0,0,0,0,0,0,0,99,0.441,0.775,0.364,19,29,15,0021300887,1610612766,CHA,Charlotte,Cody Zeller,,,19:12,1,0,0,4,7,6,9,14,0,1,2,6
0021300887,1610612766,CHA,Charlotte,203469,Cody Zeller,,,19:12,92.0,96.7,-4.7,0.1,1.0,12.4,0.0,0.235,0.125,12.4,0.667,0.822,0.163,106.05,0.198,2014-03-02T00:00:00,5,1610612760,OKC,Oklahoma City,45-15,31,30,24,31,0,0,0,0,0,0,0,0,0,0,116,0.5,0.867,0.364,19,44,15,0021300887,1610612766,CHA,Charlotte,Cody Zeller,,,19:12,1,0,0,4,7,6,9,14,0,1,2,6
0021300887,1610612766,CHA,Charlotte,202390,Gary Neal,,,20:02,92.4,129.8,-37.4,0.111,1.0,9.9,0.0,0.0,0.0,9.9,0.6,0.743,0.205,103.93,0.057,2014-03-02T00:00:00,5,1610612766,CHA,Charlotte,27-32,25,30,26,18,0,0,0,0,0,0,0,0,0,0,99,0.441,0.775,0.364,19,29,15,0021300887,1610612766,CHA,Charlotte,Gary Neal,,,20:02,0,0,3,0,19,7,10,20,0,0,5,4
0021300887,1610612766,CHA,Charlotte,202390,Gary Neal,,,20:02,92.4,129.8,-37.4,0.111,1.0,9.9,0.0,0.0,0.0,9.9,0.6,0.743,0.205,103.93,0.057,2014-03-02T00:00:00,5,1610612760,OKC,Oklahoma City,45-15,31,30,24,31,0,0,0,0,0,0,0,0,0,0,116,0.5,0.867,0.364,19,44,15,0021300887,1610612766,CHA,Charlotte,Gary Neal,,,20:02,0,0,3,0,19,7,10,20,0,0,5,4
0021300887,1610612766,CHA,Charlotte,201229,Anthony Tolliver,,,24:41,115.4,109.4,6.0,0.0,0.0,0.0,0.0,0.0,0.0,7.0,0.583,0.638,0.271,102.07,0.062,2014-03-02T00:00:00,5,1610612766,CHA,Charlotte,27-32,25,30,26,18,0,0,0,0,0,0,0,0,0,0,99,0.441,0.775,0.364,19,29,15,0021300887,1610612766,CHA,Charlotte,Anthony Tolliver,,,24:41,2,0,2,2,10,6,7,20,0,1,4,2
0021300887,1610612766,CHA,Charlotte,201229,Anthony Tolliver,,,24:41,115.4,109.4,6.0,0.0,0.0,0.0,0.0,0.0,0.0,7.0,0.583,0.638,0.271,102.07,0.062,2014-03-02T00:00:00,5,1610612760,OKC,Oklahoma City,45-15,31,30,24,31,0,0,0,0,0,0,0,0,0,0,116,0.5,0.867,0.364,19,44,15,0021300887,1610612766,CHA,Charlotte,Anthony Tolliver,,,24:41,2,0,2,2,10,6,7,20,0,1,4,2
0021300887,1610612766,CHA,Charlotte,202687,Bismack Biyombo,,,12:05,83.7,97.4,-13.7,0.0,0.0,0.0,0.0,0.333,0.188,25.8,1.0,0.868,0.148,101.08,0.277,2014-03-02T00:00:00,5,1610612766,CHA,Charlotte,27-32,25,30,26,18,0,0,0,0,0,0,0,0,0,0,99,0.441,0.775,0.364,19,29,15,0021300887,1610612766,CHA,Charlotte,Bismack Biyombo,,,12:05,0,0,0,4,6,4,0,8,3,0,1,2
0021300887,1610612766,CHA,Charlotte,202687,Bismack Biyombo,,,12:05,83.7,97.4,-13.7,0.0,0.0,0.0,0.0,0.333,0.188,25.8,1.0,0.868,0.148,101.08,0.277,2014-03-02T00:00:00,5,1610612760,OKC,Oklahoma City,45-15,31,30,24,31,0,0,0,0,0,0,0,0,0,0,116,0.5,0.867,0.364,19,44,15,0021300887,1610612766,CHA,Charlotte,Bismack Biyombo,,,12:05,0,0,0,4,6,4,0,8,3,0,1,2
0021300887,1610612766,CHA,Charlotte,2557,Luke Ridnour,,,12:06,111.3,122.3,-11.1,0.4,1.0,34.0,0.0,0.143,0.071,34.0,1.5,1.33,0.154,98.54,0.105,2014-03-02T00:00:00,5,1610612766,CHA,Charlotte,27-32,25,30,26,18,0,0,0,0,0,0,0,0,0,0,99,0.441,0.775,0.364,19,29,15,0021300887,1610612766,CHA,Charlotte,Luke Ridnour,,,12:06,0,0,0,0,6,4,0,12,0,0,2,2
0021300887,1610612766,CHA,Charlotte,2557,Luke Ridnour,,,12:06,111.3,122.3,-11.1,0.4,1.0,34.0,0.0,0.143,0.071,34.0,1.5,1.33,0.154,98.54,0.105,2014-03-02T00:00:00,5,1610612760,OKC,Oklahoma City,45-15,31,30,24,31,0,0,0,0,0,0,0,0,0,0,116,0.5,0.867,0.364,19,44,15,0021300887,1610612766,CHA,Charlotte,Luke Ridnour,,,12:06,0,0,0,0,6,4,0,12,0,0,2,2
0021300887,1610612766,CHA,Charlotte,201604,Chris Douglas-Roberts,,,2:56,119.0,66.7,52.4,0.0,0.0,0.0,0.0,0.25,0.2,0.0,1.5,1.5,0.17,97.2,0.4,2014-03-02T00:00:00,5,1610612766,CHA,Charlotte,27-32,25,30,26,18,0,0,0,0,0,0,0,0,0,0,99,0.441,0.775,0.364,19,29,15,0021300887,1610612766,CHA,Charlotte,Chris Douglas-Roberts,,,2:56,0,0,0,0,2,2,0,2,0,0,0,0
0021300887,1610612766,CHA,Charlotte,201604,Chris Douglas-Roberts,,,2:56,119.0,66.7,52.4,0.0,0.0,0.0,0.0,0.25,0.2,0.0,1.5,1.5,0.17,97.2,0.4,2014-03-02T00:00:00,5,1610612760,OKC,Oklahoma City,45-15,31,30,24,31,0,0,0,0,0,0,0,0,0,0,116,0.5,0.867,0.364,19,44,15,0021300887,1610612766,CHA,Charlotte,Chris Douglas-Roberts,,,2:56,0,0,0,0,2,2,0,2,0,0,0,0
0021300887,1610612766,CHA,Charlotte,2457,Jannero Pargo,,,2:56,119.0,66.7,52.4,0.5,0.5,25.0,0.0,0.0,0.0,50.0,0.0,0.0,0.51,97.2,-0.2,2014-03-02T00:00:00,5,1610612766,CHA,Charlotte,27-32,25,30,26,18,0,0,0,0,0,0,0,0,0,0,99,0.441,0.775,0.364,19,29,15,0021300887,1610612766,CHA,Charlotte,Jannero Pargo,,,2:56,0,0,0,0,2,2,0,2,0,0,0,0
0021300887,1610612766,CHA,Charlotte,2457,Jannero Pargo,,,2:56,119.0,66.7,52.4,0.5,0.5,25.0,0.0,0.0,0.0,50.0,0.0,0.0,0.51,97.2,-0.2,2014-03-02T00:00:00,5,1610612760,OKC,Oklahoma City,45-15,31,30,24,31,0,0,0,0,0,0,0,0,0,0,116,0.5,0.867,0.364,19,44,15,0021300887,1610612766,CHA,Charlotte,Jannero Pargo,,,2:56,0,0,0,0,2,2,0,2,0,0,0,0
0021300887,1610612760,OKC,Oklahoma City,201142,Kevin Durant,F,,38:11,124.8,98.4,26.5,0.192,5.0,14.2,0.033,0.167,0.1,2.8,0.333,0.478,0.343,100.34,0.132,2014-03-02T00:00:00,5,1610612766,CHA,Charlotte,27-32,25,30,26,18,0,0,0,0,0,0,0,0,0,0,99,0.441,0.775,0.364,19,29,15,0021300887,1610612760,OKC,Oklahoma City,Kevin Durant,F,,38:11,7,4,4,10,12,2,6,28,0,0,2,9
0021300887,1610612760,OKC,Oklahoma City,201142,Kevin Durant,F,,38:11,124.8,98.4,26.5,0.192,5.0,14.2,0.033,0.167,0.1,2.8,0.333,0.478,0.343,100.34,0.132,2014-03-02T00:00:00,5,1610612760,OKC,Oklahoma City,45-15,31,30,24,31,0,0,0,0,0,0,0,0,0,0,116,0.5,0.867,0.364,19,44,15,0021300887,1610612760,OKC,Oklahoma City,Kevin Durant,F,,38:11,7,4,4,10,12,2,6,28,0,0,2,9
0021300887,1610612760,OKC,Oklahoma City,201586,Serge Ibaka,F,,26:50,128.2,90.2,38.1,0.048,0.33,6.8,0.1,0.364,0.238,20.5,0.688,0.705,0.229,100.42,0.138,2014-03-02T00:00:00,5,1610612766,CHA,Charlotte,27-32,25,30,26,18,0,0,0,0,0,0,0,0,0,0,99,0.441,0.775,0.364,19,29,15,0021300887,1610612760,OKC,Oklahoma City,Serge Ibaka,F,,26:50,7,4,2,8,8,3,4,18,2,0,4,4
0021300887,1610612760,OKC,Oklahoma City,201586,Serge Ibaka,F,,26:50,128.2,90.2,38.1,0.048,0.33,6.8,0.1,0.364,0.238,20.5,0.688,0.705,0.229,100.42,0.138,2014-03-02T00:00:00,5,1610612760,OKC,Oklahoma City,45-15,31,30,24,31,0,0,0,0,0,0,0,0,0,0,116,0.5,0.867,0.364,19,44,15,0021300887,1610612760,OKC,Oklahoma City,Serge Ibaka,F,,26:50,7,4,2,8,8,3,4,18,2,0,4,4
0021300887,1610612760,OKC,Oklahoma City,203500,Steven Adams,C,,19:21,102.0,103.5,-1.5,0.071,0.0,33.3,0.111,0.267,0.182,0.0,1.0,1.0,0.045,97.7,0.08,2014-03-02T00:00:00,5,1610612766,CHA,Charlotte,27-32,25,30,26,18,0,0,0,0,0,0,0,0,0,0,99,0.441,0.775,0.364,19,29,15,0021300887,1610612760,OKC,Oklahoma City,Steven Adams,C,,19:21,0,4,0,4,5,2,1,16,1,0,5,0
0021300887,1610612760,OKC,Oklahoma City,203500,Steven Adams,C,,19:21,102.0,103.5,-1.5,0.071,0.0,33.3,0.111,0.267,0.182,0.0,1.0,1.0,0.045,97.7,0.08,2014-03-02T00:00:00,5,1610612760,OKC,Oklahoma City,45-15,31,30,24,31,0,0,0,0,0,0,0,0,0,0,116,0.5,0.867,0.364,19,44,15,0021300887,1610612760,OKC,Oklahoma City,Steven Adams,C,,19:21,0,4,0,4,5,2,1,16,1,0,5,0
0021300887,1610612760,OKC,Oklahoma City,203103,Perry Jones III,G,,22:21,111.0,106.7,4.3,0.118,0.0,25.0,0.0,0.059,0.028,0.0,0.333,0.333,0.116,99.61,0.024,2014-03-02T00:00:00,5,1610612766,CHA,Charlotte,27-32,25,30,26,18,0,0,0,0,0,0,0,0,0,0,99,0.441,0.775,0.364,19,29,15,0021300887,1610612760,OKC,Oklahoma City,Perry Jones III,G,,22:21,0,0,0,4,5,2,4,16,0,0,1,0
0021300887,1610612760,OKC,Oklahoma City,203103,Perry Jones III,G,,22:21,111.0,106.7,4.3,0.118,0.0,25.0,0.0,0.059,0.028,0.0,0.333,0.333,0.116,99.61,0.024,2014-03-02T00:00:00,5,1610612760,OKC,Oklahoma City,45-15,31,30,24,31,0,0,0,0,0,0,0,0,0,0,116,0.5,0.867,0.364,19,44,15,0021300887,1610612760,OKC,Oklahoma City,Perry Jones III,G,,22:21,0,0,0,4,5,2,4,16,0,0,1,0
0021300887,1610612760,OKC,Oklahoma City,201566,Russell Westbrook,G,,25:15,129.5,94.7,34.8,0.333,1.0,21.9,0.0,0.095,0.051,21.9,1.0,1.009,0.315,99.35,0.261,2014-03-02T00:00:00,5,1610612766,CHA,Charlotte,27-32,25,30,26,18,0,0,0,0,0,0,0,0,0,0,99,0.441,0.775,0.364,19,29,15,0021300887,1610612760,OKC,Oklahoma City,Russell Westbrook,G,,25:15,2,3,5,8,5,2,1,16,0,1,2,1
0021300887,1610612760,OKC,Oklahoma City,201566,Russell Westbrook,G,,25:15,129.5,94.7,34.8,0.333,1.0,21.9,0.0,0.095,0.051,21.9,1.0,1.009,0.315,99.35,0.261,2014-03-02T00:00:00,5,1610612760,OKC,Oklahoma City,45-15,31,30,24,31,0,0,0,0,0,0,0,0,0,0,116,0.5,0.867,0.364,19,44,15,0021300887,1610612760,OKC,Oklahoma City,Russell Westbrook,G,,25:15,2,3,5,8,5,2,1,16,0,1,2,1
0021300887,1610612760,OKC,Oklahoma City,201934,Hasheem Thabeet,,,17:31,109.4,103.7,5.7,0.0,0.0,0.0,0.077,0.333,0.2,100.0,0.0,0.0,0.025,102.87,0.037,2014-03-02T00:00:00,5,1610612766,CHA,Charlotte,27-32,25,30,26,18,0,0,0,0,0,0,0,0,0,0,99,0.441,0.775,0.364,19,29,15,0021300887,1610612760,OKC,Oklahoma City,Hasheem Thabeet,,,17:31,0,0,0,0,7,0,5,14,3,0,5,1
0021300887,1610612760,OKC,Oklahoma City,201934,Hasheem Thabeet,,,17:31,109.4,103.7,5.7,0.0,0.0,0.0,0.077,0.333,0.2,100.0,0.0,0.0,0.025,102.87,0.037,2014-03-02T00:00:00,5,1610612760,OKC,Oklahoma City,45-15,31,30,24,31,0,0,0,0,0,0,0,0,0,0,116,0.5,0.867,0.364,19,44,15,0021300887,1610612760,OKC,Oklahoma City,Hasheem Thabeet,,,17:31,0,0,0,0,7,0,5,14,3,0,5,1
0021300887,1610612760,OKC,Oklahoma City,203087,Jeremy Lamb,,,24:04,105.3,104.5,0.9,0.0,0.0,0.0,0.05,0.267,0.143,0.0,0.313,0.394,0.16,100.76,0.069,2014-03-02T00:00:00,5,1610612766,CHA,Charlotte,27-32,25,30,26,18,0,0,0,0,0,0,0,0,0,0,99,0.441,0.775,0.364,19,29,15,0021300887,1610612760,OKC,Oklahoma City,Jeremy Lamb,,,24:04,0,0,0,0,10,1,2,16,1,1,1,1
0021300887,1610612760,OKC,Oklahoma City,203087,Jeremy Lamb,,,24:04,105.3,104.5,0.9,0.0,0.0,0.0,0.05,0.267,0.143,0.0,0.313,0.394,0.16,100.76,0.069,2014-03-02T00:00:00,5,1610612760,OKC,Oklahoma City,45-15,31,30,24,31,0,0,0,0,0,0,0,0,0,0,116,0.5,0.867,0.364,19,44,15,0021300887,1610612760,OKC,Oklahoma City,Jeremy Lamb,,,24:04,0,0,0,0,10,1,2,16,1,1,1,1
0021300887,1610612760,OKC,Oklahoma City,202704,Reggie Jackson,,,27:16,115.1,88.6,26.5,0.188,1.5,15.1,0.0,0.167,0.073,10.1,0.536,0.571,0.266,101.36,0.169,2014-03-02T00:00:00,5,1610612766,CHA,Charlotte,27-32,25,30,26,18,0,0,0,0,0,0,0,0,0,0,99,0.441,0.775,0.364,19,29,15,0021300887,1610612760,OKC,Oklahoma City,Reggie Jackson,,,27:16,2,0,4,10,10,1,5,18,0,1,1,2
0021300887,1610612760,OKC,Oklahoma City,202704,Reggie Jackson,,,27:16,115.1,88.6,26.5,0.188,1.5,15.1,0.0,0.167,0.073,10.1,0.536,0.571,0.266,101.36,0.169,2014-03-02T00:00:00,5,1610612760,OKC,Oklahoma City,45-15,31,30,24,31,0,0,0,0,0,0,0,0,0,0,116,0.5,0.867,0.364,19,44,15,0021300887,1610612760,OKC,Oklahoma City,Reggie Jackson,,,27:16,2,0,4,10,10,1,5,18,0,1,1,2
0021300887,1610612760,OKC,Oklahoma City,2555,Nick Collison,,,13:28,104.3,78.4,25.9,0.0,0.0,0.0,0.111,0.1,0.105,38.7,0.667,0.735,0.237,107.55,-0.058,2014-03-02T00:00:00,5,1610612766,CHA,Charlotte,27-32,25,30,26,18,0,0,0,0,0,0,0,0,0,0,99,0.441,0.775,0.364,19,29,15,0021300887,1610612760,OKC,Oklahoma City,Nick Collison,,,13:28,2,2,0,4,8,1,2,4,0,1,5,2
0021300887,1610612760,OKC,Oklahoma City,2555,Nick Collison,,,13:28,104.3,78.4,25.9,0.0,0.0,0.0,0.111,0.1,0.105,38.7,0.667,0.735,0.237,107.55,-0.058,2014-03-02T00:00:00,5,1610612760,OKC,Oklahoma City,45-15,31,30,24,31,0,0,0,0,0,0,0,0,0,0,116,0.5,0.867,0.364,19,44,15,0021300887,1610612760,OKC,Oklahoma City,Nick Collison,,,13:28,2,2,0,4,8,1,2,4,0,1,5,2
0021300887,1610612760,OKC,Oklahoma City,965,Derek Fisher,,,19:15,135.4,104.2,31.3,0.111,0.0,34.0,0.0,0.091,0.043,0.0,0.833,0.773,0.092,96.95,0.118,2014-03-02T00:00:00,5,1610612766,CHA,Charlotte,27-32,25,30,26,18,0,0,0,0,0,0,0,0,0,0,99,0.441,0.775,0.364,19,29,15,0021300887,1610612760,OKC,Oklahoma City,Derek Fisher,,,19:15,3,0,0,0,3,1,0,8,0,0,3,3
0021300887,1610612760,OKC,Oklahoma City,965,Derek Fisher,,,19:15,135.4,104.2,31.3,0.111,0.0,34.0,0.0,0.091,0.043,0.0,0.833,0.773,0.092,96.95,0.118,2014-03-02T00:00:00,5,1610612760,OKC,Oklahoma City,45-15,31,30,24,31,0,0,0,0,0,0,0,0,0,0,116,0.5,0.867,0.364,19,44,15,0021300887,1610612760,OKC,Oklahoma City,Derek Fisher,,,19:15,3,0,0,0,3,1,0,8,0,0,3,3
0021300887,1610612760,OKC,Oklahoma City,203460,Andre Roberson,,,6:28,85.4,101.7,-16.3,0.0,0.0,0.0,0.375,0.0,0.25,0.0,0.5,0.5,0.126,98.87,0.184,2014-03-02T00:00:00,5,1610612766,CHA,Charlotte,27-32,25,30,26,18,0,0,0,0,0,0,0,0,0,0,99,0.441,0.775,0.364,19,29,15,0021300887,1610612760,OKC,Oklahoma City,Andre Roberson,,,6:28,2,2,0,2,2,0,0,6,0,0,0,0
0021300887,1610612760,OKC,Oklahoma City,203460,Andre Roberson,,,6:28,85.4,101.7,-16.3,0.0,0.0,0.0,0.375,0.0,0.25,0.0,0.5,0.5,0.126,98.87,0.184,2014-03-02T00:00:00,5,1610612760,OKC,Oklahoma City,45-15,31,30,24,31,0,0,0,0,0,0,0,0,0,0,116,0.5,0.867,0.364,19,44,15,0021300887,1610612760,OKC,Oklahoma City,Andre Roberson,,,6:28,2,2,0,2,2,0,0,6,0,0,0,0
