GAME_ID_x,TEAM_ID_x,TEAM_ABBREVIATION_x,TEAM_CITY_x,PLAYER_ID,PLAYER_NAME_x,START_POSITION_x,COMMENT_x,MIN_x,OFF_RATING,DEF_RATING,NET_RATING,AST_PCT,AST_TOV,AST_RATIO,OREB_PCT,DREB_PCT,REB_PCT,TM_TOV_PCT,EFG_PCT,TS_PCT,USG_PCT,PACE,PIE,GAME_DATE_EST,GAME_SEQUENCE,TEAM_ID_y,TEAM_ABBREVIATION_y,TEAM_CITY_NAME,TEAM_WINS_LOSSES,PTS_QTR1,PTS_QTR2,PTS_QTR3,PTS_QTR4,PTS_OT1,PTS_OT2,PTS_OT3,PTS_OT4,PTS_OT5,PTS_OT6,PTS_OT7,PTS_OT8,PTS_OT9,PTS_OT10,PTS,FG_PCT,FT_PCT,FG3_PCT,AST,REB,TOV,GAME_ID_y,TEAM_ID,TEAM_ABBREVIATION,TEAM_CITY_y,PLAYER_NAME_y,START_POSITION_y,COMMENT_y,MIN_y,PTS_OFF_TOV,PTS_2ND_CHANCE,PTS_FB,PTS_PAINT,OPP_PTS_OFF_TOV,OPP_PTS_2ND_CHANCE,OPP_PTS_FB,OPP_PTS_PAINT,BLK,BLKA,PF,PFD
0021300886,1610612755,PHI,Philadelphia,203138,Hollis Thompson,F,,25:03,82.1,91.5,-9.4,0.0,0.0,0.0,0.0,0.0,0.0,0.0,0.0,0.0,0.054,99.41,-0.069,2014-03-02T00:00:00,4,1610612755,PHI,Philadelphia,15-45,27,19,23,12,0,0,0,0,0,0,0,0,0,0,81,0.372,0.667,0.208,16,45,19,0021300886,1610612755,PHI,Philadelphia,Hollis Thompson,F,,25:03,0.0,0.0,0.0,0.0,10.0,4.0,2.0,16.0,0.0,1.0,1.0,0.0
0021300886,1610612755,PHI,Philadelphia,203138,Hollis Thompson,F,,25:03,82.1,91.5,-9.4,0.0,0.0,0.0,0.0,0.0,0.0,0.0,0.0,0.0,0.054,99.41,-0.069,2014-03-02T00:00:00,4,1610612753,ORL,Orlando,19-43,28,15,23,26,0,0,0,0,0,0,0,0,0,0,92,0.422,0.778,0.077,17,47,13,0021300886,1610612755,PHI,Philadelphia,Hollis Thompson,F,,25:03,0.0,0.0,0.0,0.0,10.0,4.0,2.0,16.0,0.0,1.0,1.0,0.0
0021300886,1610612755,PHI,Philadelphia,201152,Thaddeus Young,F,,36:02,80.5,87.6,-7.1,0.273,3.0,10.3,0.056,0.2,0.121,3.4,0.58,0.58,0.312,95.96,0.316,2014-03-02T00:00:00,4,1610612755,PHI,Philadelphia,15-45,27,19,23,12,0,0,0,0,0,0,0,0,0,0,81,0.372,0.667,0.208,16,45,19,0021300886,1610612755,PHI,Philadelphia,Thaddeus Young,F,,36:02,7.0,7.0,2.0,14.0,13.0,11.0,5.0,30.0,0.0,1.0,3.0,2.0
0021300886,1610612755,PHI,Philadelphia,201152,Thaddeus Young,F,,36:02,80.5,87.6,-7.1,0.273,3.0,10.3,0.056,0.2,0.121,3.4,0.58,0.58,0.312,95.96,0.316,2014-03-02T00:00:00,4,1610612753,ORL,Orlando,19-43,28,15,23,26,0,0,0,0,0,0,0,0,0,0,92,0.422,0.778,0.077,17,47,13,0021300886,1610612755,PHI,Philadelphia,Thaddeus Young,F,,36:02,7.0,7.0,2.0,14.0,13.0,11.0,5.0,30.0,0.0,1.0,3.0,2.0
0021300886,1610612755,PHI,Philadelphia,203156,Henry Sims,C,,30:58,83.3,89.9,-6.6,0.059,0.0,10.4,0.059,0.185,0.115,0.0,0.667,0.694,0.118,94.05,0.161,2014-03-02T00:00:00,4,1610612755,PHI,Philadelphia,15-45,27,19,23,12,0,0,0,0,0,0,0,0,0,0,81,0.372,0.667,0.208,16,45,19,0021300886,1610612755,PHI,Philadelphia,Henry Sims,C,,30:58,2.0,4.0,0.0,6.0,12.0,10.0,4.0,24.0,1.0,1.0,4.0,5.0
0021300886,1610612755,PHI,Philadelphia,203156,Henry Sims,C,,30:58,83.3,89.9,-6.6,0.059,0.0,10.4,0.059,0.185,0.115,0.0,0.667,0.694,0.118,94.05,0.161,2014-03-02T00:00:00,4,1610612753,ORL,Orlando,19-43,28,15,23,26,0,0,0,0,0,0,0,0,0,0,92,0.422,0.778,0.077,17,47,13,0021300886,1610612755,PHI,Philadelphia,Henry Sims,C,,30:58,2.0,4.0,0.0,6.0,12.0,10.0,4.0,24.0,1.0,1.0,4.0,5.0
0021300886,1610612755,PHI,Philadelphia,202341,James Anderson,G,,32:53,87.7,90.3,-2.6,0.13,3.0,27.3,0.029,0.103,0.063,9.1,0.143,0.143,0.104,95.99,0.031,2014-03-02T00:00:00,4,1610612755,PHI,Philadelphia,15-45,27,19,23,12,0,0,0,0,0,0,0,0,0,0,81,0.372,0.667,0.208,16,45,19,0021300886,1610612755,PHI,Philadelphia,James Anderson,G,,32:53,0.0,0.0,0.0,2.0,9.0,8.0,5.0,28.0,0.0,0.0,1.0,1.0
0021300886,1610612755,PHI,Philadelphia,202341,James Anderson,G,,32:53,87.7,90.3,-2.6,0.13,3.0,27.3,0.029,0.103,0.063,9.1,0.143,0.143,0.104,95.99,0.031,2014-03-02T00:00:00,4,1610612753,ORL,Orlando,19-43,28,15,23,26,0,0,0,0,0,0,0,0,0,0,92,0.422,0.778,0.077,17,47,13,0021300886,1610612755,PHI,Philadelphia,James Anderson,G,,32:53,0.0,0.0,0.0,2.0,9.0,8.0,5.0,28.0,0.0,0.0,1.0,1.0
0021300886,1610612755,PHI,Philadelphia,203487,Michael Carter-Williams,G,,31:52,78.8,93.3,-14.5,0.429,0.75,16.8,0.121,0.241,0.177,22.4,0.35,0.391,0.39,100.71,0.105,2014-03-02T00:00:00,4,1610612755,PHI,Philadelphia,15-45,27,19,23,12,0,0,0,0,0,0,0,0,0,0,81,0.372,0.667,0.208,16,45,19,0021300886,1610612755,PHI,Philadelphia,Michael Carter-Williams,G,,31:52,2.0,0.0,2.0,8.0,11.0,10.0,5.0,26.0,1.0,1.0,4.0,6.0
0021300886,1610612755,PHI,Philadelphia,203487,Michael Carter-Williams,G,,31:52,78.8,93.3,-14.5,0.429,0.75,16.8,0.121,0.241,0.177,22.4,0.35,0.391,0.39,100.71,0.105,2014-03-02T00:00:00,4,1610612753,ORL,Orlando,19-43,28,15,23,26,0,0,0,0,0,0,0,0,0,0,92,0.422,0.778,0.077,17,47,13,0021300886,1610612755,PHI,Philadelphia,Michael Carter-Williams,G,,31:52,2.0,0.0,2.0,8.0,11.0,10.0,5.0,26.0,1.0,1.0,4.0,6.0
0021300886,1610612755,PHI,Philadelphia,201957,Byron Mullens,,,14:02,78.3,115.8,-37.5,0.0,0.0,0.0,0.071,0.231,0.148,0.0,0.417,0.417,0.178,105.58,0.054,2014-03-02T00:00:00,4,1610612755,PHI,Philadelphia,15-45,27,19,23,12,0,0,0,0,0,0,0,0,0,0,81,0.372,0.667,0.208,16,45,19,0021300886,1610612755,PHI,Philadelphia,Byron Mullens,,,14:02,0.0,0.0,0.0,2.0,12.0,7.0,9.0,20.0,0.0,0.0,2.0,0.0
0021300886,1610612755,PHI,Philadelphia,201957,Byron Mullens,,,14:02,78.3,115.8,-37.5,0.0,0.0,0.0,0.071,0.231,0.148,0.0,0.417,0.417,0.178,105.58,0.054,2014-03-02T00:00:00,4,1610612753,ORL,Orlando,19-43,28,15,23,26,0,0,0,0,0,0,0,0,0,0,92,0.422,0.778,0.077,17,47,13,0021300886,1610612755,PHI,Philadelphia,Byron Mullens,,,14:02,0.0,0.0,0.0,2.0,12.0,7.0,9.0,20.0,0.0,0.0,2.0,0.0
0021300886,1610612755,PHI,Philadelphia,203100,Tony Wroten,,,25:02,76.6,101.4,-24.8,0.091,0.2,4.8,0.097,0.087,0.093,23.9,0.393,0.403,0.313,101.45,-0.007,2014-03-02T00:00:00,4,1610612755,PHI,Philadelphia,15-45,27,19,23,12,0,0,0,0,0,0,0,0,0,0,81,0.372,0.667,0.208,16,45,19,0021300886,1610612755,PHI,Philadelphia,Tony Wroten,,,25:02,4.0,3.0,3.0,8.0,15.0,14.0,12.0,30.0,0.0,2.0,3.0,2.0
0021300886,1610612755,PHI,Philadelphia,203100,Tony Wroten,,,25:02,76.6,101.4,-24.8,0.091,0.2,4.8,0.097,0.087,0.093,23.9,0.393,0.403,0.313,101.45,-0.007,2014-03-02T00:00:00,4,1610612753,ORL,Orlando,19-43,28,15,23,26,0,0,0,0,0,0,0,0,0,0,92,0.422,0.778,0.077,17,47,13,0021300886,1610612755,PHI,Philadelphia,Tony Wroten,,,25:02,4.0,3.0,3.0,8.0,15.0,14.0,12.0,30.0,0.0,2.0,3.0,2.0
0021300886,1610612755,PHI,Philadelphia,202343,Elliot Williams,,,13:22,68.7,100.8,-32.1,0.143,1.0,25.8,0.0,0.167,0.074,25.8,0.0,0.532,0.094,103.06,0.056,2014-03-02T00:00:00,4,1610612755,PHI,Philadelphia,15-45,27,19,23,12,0,0,0,0,0,0,0,0,0,0,81,0.372,0.667,0.208,16,45,19,0021300886,1610612755,PHI,Philadelphia,Elliot Williams,,,13:22,0.0,0.0,0.0,0.0,8.0,10.0,5.0,16.0,0.0,0.0,1.0,1.0
0021300886,1610612755,PHI,Philadelphia,202343,Elliot Williams,,,13:22,68.7,100.8,-32.1,0.143,1.0,25.8,0.0,0.167,0.074,25.8,0.0,0.532,0.094,103.06,0.056,2014-03-02T00:00:00,4,1610612753,ORL,Orlando,19-43,28,15,23,26,0,0,0,0,0,0,0,0,0,0,92,0.422,0.778,0.077,17,47,13,0021300886,1610612755,PHI,Philadelphia,Elliot Williams,,,13:22,0.0,0.0,0.0,0.0,8.0,10.0,5.0,16.0,0.0,0.0,1.0,1.0
0021300886,1610612755,PHI,Philadelphia,202363,Jarvis Varnado,,,14:38,83.0,87.8,-4.7,0.0,0.0,0.0,0.0,0.188,0.103,0.0,0.0,0.568,0.051,107.52,0.042,2014-03-02T00:00:00,4,1610612755,PHI,Philadelphia,15-45,27,19,23,12,0,0,0,0,0,0,0,0,0,0,81,0.372,0.667,0.208,16,45,19,0021300886,1610612755,PHI,Philadelphia,Jarvis Varnado,,,14:38,0.0,0.0,0.0,0.0,5.0,8.0,6.0,12.0,3.0,0.0,3.0,3.0
0021300886,1610612755,PHI,Philadelphia,202363,Jarvis Varnado,,,14:38,83.0,87.8,-4.7,0.0,0.0,0.0,0.0,0.188,0.103,0.0,0.0,0.568,0.051,107.52,0.042,2014-03-02T00:00:00,4,1610612753,ORL,Orlando,19-43,28,15,23,26,0,0,0,0,0,0,0,0,0,0,92,0.422,0.778,0.077,17,47,13,0021300886,1610612755,PHI,Philadelphia,Jarvis Varnado,,,14:38,0.0,0.0,0.0,0.0,5.0,8.0,6.0,12.0,3.0,0.0,3.0,3.0
0021300886,1610612755,PHI,Philadelphia,201953,Eric Maynor,,,16:08,85.8,95.4,-9.6,0.091,0.33,12.5,0.0,0.071,0.033,37.5,0.0,0.0,0.191,95.33,-0.1,2014-03-02T00:00:00,4,1610612755,PHI,Philadelphia,15-45,27,19,23,12,0,0,0,0,0,0,0,0,0,0,81,0.372,0.667,0.208,16,45,19,0021300886,1610612755,PHI,Philadelphia,Eric Maynor,,,16:08,0.0,0.0,0.0,0.0,10.0,8.0,7.0,18.0,0.0,0.0,0.0,0.0
0021300886,1610612755,PHI,Philadelphia,201953,Eric Maynor,,,16:08,85.8,95.4,-9.6,0.091,0.33,12.5,0.0,0.071,0.033,37.5,0.0,0.0,0.191,95.33,-0.1,2014-03-02T00:00:00,4,1610612753,ORL,Orlando,19-43,28,15,23,26,0,0,0,0,0,0,0,0,0,0,92,0.422,0.778,0.077,17,47,13,0021300886,1610612755,PHI,Philadelphia,Eric Maynor,,,16:08,0.0,0.0,0.0,0.0,10.0,8.0,7.0,18.0,0.0,0.0,0.0,0.0
0021300886,1610612755,PHI,Philadelphia,203485,Lorenzo Brown,,DNP - Coach's Decision,,,,,,,0.0,,,,,,,0.0,,,2014-03-02T00:00:00,4,1610612755,PHI,Philadelphia,15-45,27,19,23,12,0,0,0,0,0,0,0,0,0,0,81,0.372,0.667,0.208,16,45,19,0021300886,1610612755,PHI,Philadelphia,Lorenzo Brown,,DNP - Coach's Decision,,,,,,,,,,,,,
0021300886,1610612755,PHI,Philadelphia,203485,Lorenzo Brown,,DNP - Coach's Decision,,,,,,,0.0,,,,,,,0.0,,,2014-03-02T00:00:00,4,1610612753,ORL,Orlando,19-43,28,15,23,26,0,0,0,0,0,0,0,0,0,0,92,0.422,0.778,0.077,17,47,13,0021300886,1610612755,PHI,Philadelphia,Lorenzo Brown,,DNP - Coach's Decision,,,,,,,,,,,,,
0021300886,1610612755,PHI,Philadelphia,203102,Arnett Moultrie,,DNP - Coach's Decision,,,,,,,0.0,,,,,,,0.0,,,2014-03-02T00:00:00,4,1610612755,PHI,Philadelphia,15-45,27,19,23,12,0,0,0,0,0,0,0,0,0,0,81,0.372,0.667,0.208,16,45,19,0021300886,1610612755,PHI,Philadelphia,Arnett Moultrie,,DNP - Coach's Decision,,,,,,,,,,,,,
0021300886,1610612755,PHI,Philadelphia,203102,Arnett Moultrie,,DNP - Coach's Decision,,,,,,,0.0,,,,,,,0.0,,,2014-03-02T00:00:00,4,1610612753,ORL,Orlando,19-43,28,15,23,26,0,0,0,0,0,0,0,0,0,0,92,0.422,0.778,0.077,17,47,13,0021300886,1610612755,PHI,Philadelphia,Arnett Moultrie,,DNP - Coach's Decision,,,,,,,,,,,,,
0021300886,1610612753,ORL,Orlando,203090,Maurice Harkless,F,,40:34,100.7,80.8,19.9,0.115,0.0,23.3,0.057,0.1,0.08,0.0,0.5,0.506,0.109,98.11,0.116,2014-03-02T00:00:00,4,1610612755,PHI,Philadelphia,15-45,27,19,23,12,0,0,0,0,0,0,0,0,0,0,81,0.372,0.667,0.208,16,45,19,0021300886,1610612753,ORL,Orlando,Maurice Harkless,F,,40:34,0.0,1.0,2.0,6.0,13.0,14.0,4.0,36.0,3.0,0.0,2.0,1.0
0021300886,1610612753,ORL,Orlando,203090,Maurice Harkless,F,,40:34,100.7,80.8,19.9,0.115,0.0,23.3,0.057,0.1,0.08,0.0,0.5,0.506,0.109,98.11,0.116,2014-03-02T00:00:00,4,1610612753,ORL,Orlando,19-43,28,15,23,26,0,0,0,0,0,0,0,0,0,0,92,0.422,0.778,0.077,17,47,13,0021300886,1610612753,ORL,Orlando,Maurice Harkless,F,,40:34,0.0,1.0,2.0,6.0,13.0,14.0,4.0,36.0,3.0,0.0,2.0,1.0
0021300886,1610612753,ORL,Orlando,202699,Tobias Harris,F,,33:45,93.7,78.3,15.4,0.0,0.0,0.0,0.094,0.139,0.118,4.0,0.55,0.647,0.318,100.07,0.399,2014-03-02T00:00:00,4,1610612755,PHI,Philadelphia,15-45,27,19,23,12,0,0,0,0,0,0,0,0,0,0,81,0.372,0.667,0.208,16,45,19,0021300886,1610612753,ORL,Orlando,Tobias Harris,F,,33:45,8.0,7.0,2.0,14.0,8.0,14.0,4.0,24.0,0.0,1.0,0.0,5.0
0021300886,1610612753,ORL,Orlando,202699,Tobias Harris,F,,33:45,93.7,78.3,15.4,0.0,0.0,0.0,0.094,0.139,0.118,4.0,0.55,0.647,0.318,100.07,0.399,2014-03-02T00:00:00,4,1610612753,ORL,Orlando,19-43,28,15,23,26,0,0,0,0,0,0,0,0,0,0,92,0.422,0.778,0.077,17,47,13,0021300886,1610612753,ORL,Orlando,Tobias Harris,F,,33:45,8.0,7.0,2.0,14.0,8.0,14.0,4.0,24.0,0.0,1.0,0.0,5.0
0021300886,1610612753,ORL,Orlando,202696,Nikola Vucevic,C,,32:18,94.7,87.8,6.9,0.188,1.5,13.6,0.1,0.424,0.27,9.1,0.5,0.527,0.256,100.12,0.268,2014-03-02T00:00:00,4,1610612755,PHI,Philadelphia,15-45,27,19,23,12,0,0,0,0,0,0,0,0,0,0,81,0.372,0.667,0.208,16,45,19,0021300886,1610612753,ORL,Orlando,Nikola Vucevic,C,,32:18,2.0,2.0,0.0,8.0,10.0,11.0,6.0,28.0,2.0,0.0,4.0,7.0
0021300886,1610612753,ORL,Orlando,202696,Nikola Vucevic,C,,32:18,94.7,87.8,6.9,0.188,1.5,13.6,0.1,0.424,0.27,9.1,0.5,0.527,0.256,100.12,0.268,2014-03-02T00:00:00,4,1610612753,ORL,Orlando,19-43,28,15,23,26,0,0,0,0,0,0,0,0,0,0,92,0.422,0.778,0.077,17,47,13,0021300886,1610612753,ORL,Orlando,Nikola Vucevic,C,,32:18,2.0,2.0,0.0,8.0,10.0,11.0,6.0,28.0,2.0,0.0,4.0,7.0
0021300886,1610612753,ORL,Orlando,203506,Victor Oladipo,G,,38:31,91.8,83.6,8.2,0.174,1.0,20.2,0.0,0.051,0.027,20.2,0.3,0.383,0.18,98.82,0.0,2014-03-02T00:00:00,4,1610612755,PHI,Philadelphia,15-45,27,19,23,12,0,0,0,0,0,0,0,0,0,0,81,0.372,0.667,0.208,16,45,19,0021300886,1610612753,ORL,Orlando,Victor Oladipo,G,,38:31,2.0,2.0,0.0,2.0,15.0,14.0,6.0,32.0,0.0,2.0,5.0,4.0
0021300886,1610612753,ORL,Orlando,203506,Victor Oladipo,G,,38:31,91.8,83.6,8.2,0.174,1.0,20.2,0.0,0.051,0.027,20.2,0.3,0.383,0.18,98.82,0.0,2014-03-02T00:00:00,4,1610612753,ORL,Orlando,19-43,28,15,23,26,0,0,0,0,0,0,0,0,0,0,92,0.422,0.778,0.077,17,47,13,0021300886,1610612753,ORL,Orlando,Victor Oladipo,G,,38:31,2.0,2.0,0.0,2.0,15.0,14.0,6.0,32.0,0.0,2.0,5.0,4.0
0021300886,1610612753,ORL,Orlando,101179,Ronnie Price,G,,24:07,92.7,86.5,6.2,0.105,2.0,20.0,0.0,0.143,0.073,10.0,0.0,0.0,0.158,95.46,-0.043,2014-03-02T00:00:00,4,1610612755,PHI,Philadelphia,15-45,27,19,23,12,0,0,0,0,0,0,0,0,0,0,81,0.372,0.667,0.208,16,45,19,0021300886,1610612753,ORL,Orlando,Ronnie Price,G,,24:07,0.0,0.0,0.0,0.0,6.0,6.0,3.0,24.0,0.0,0.0,2.0,2.0
0021300886,1610612753,ORL,Orlando,101179,Ronnie Price,G,,24:07,92.7,86.5,6.2,0.105,2.0,20.0,0.0,0.143,0.073,10.0,0.0,0.0,0.158,95.46,-0.043,2014-03-02T00:00:00,4,1610612753,ORL,Orlando,19-43,28,15,23,26,0,0,0,0,0,0,0,0,0,0,92,0.422,0.778,0.077,17,47,13,0021300886,1610612753,ORL,Orlando,Ronnie Price,G,,24:07,0.0,0.0,0.0,0.0,6.0,6.0,3.0,24.0,0.0,0.0,2.0,2.0
0021300886,1610612753,ORL,Orlando,202734,E'Twaun Moore,,,32:15,98.8,66.5,32.3,0.095,2.0,13.6,0.0,0.026,0.014,6.8,0.4,0.468,0.164,101.92,0.075,2014-03-02T00:00:00,4,1610612755,PHI,Philadelphia,15-45,27,19,23,12,0,0,0,0,0,0,0,0,0,0,81,0.372,0.667,0.208,16,45,19,0021300886,1610612753,ORL,Orlando,E'Twaun Moore,,,32:15,5.0,4.0,3.0,6.0,4.0,8.0,5.0,18.0,0.0,1.0,2.0,2.0
0021300886,1610612753,ORL,Orlando,202734,E'Twaun Moore,,,32:15,98.8,66.5,32.3,0.095,2.0,13.6,0.0,0.026,0.014,6.8,0.4,0.468,0.164,101.92,0.075,2014-03-02T00:00:00,4,1610612753,ORL,Orlando,19-43,28,15,23,26,0,0,0,0,0,0,0,0,0,0,92,0.422,0.778,0.077,17,47,13,0021300886,1610612753,ORL,Orlando,E'Twaun Moore,,,32:15,5.0,4.0,3.0,6.0,4.0,8.0,5.0,18.0,0.0,1.0,2.0,2.0
0021300886,1610612753,ORL,Orlando,203124,Kyle O'Quinn,,,19:11,93.9,79.0,15.0,0.167,0.5,16.7,0.188,0.263,0.229,33.3,0.667,0.667,0.231,98.6,0.198,2014-03-02T00:00:00,4,1610612755,PHI,Philadelphia,15-45,27,19,23,12,0,0,0,0,0,0,0,0,0,0,81,0.372,0.667,0.208,16,45,19,0021300886,1610612753,ORL,Orlando,Kyle O'Quinn,,,19:11,4.0,2.0,2.0,6.0,7.0,3.0,3.0,16.0,1.0,0.0,2.0,0.0
0021300886,1610612753,ORL,Orlando,203124,Kyle O'Quinn,,,19:11,93.9,79.0,15.0,0.167,0.5,16.7,0.188,0.263,0.229,33.3,0.667,0.667,0.231,98.6,0.198,2014-03-02T00:00:00,4,1610612753,ORL,Orlando,19-43,28,15,23,26,0,0,0,0,0,0,0,0,0,0,92,0.422,0.778,0.077,17,47,13,0021300886,1610612753,ORL,Orlando,Kyle O'Quinn,,,19:11,4.0,2.0,2.0,6.0,7.0,3.0,3.0,16.0,1.0,0.0,2.0,0.0
0021300886,1610612753,ORL,Orlando,203519,Adonis Thomas,,,8:33,59.7,113.4,-53.7,0.25,0.0,15.5,0.0,0.222,0.111,0.0,0.2,0.276,0.266,101.28,0.037,2014-03-02T00:00:00,4,1610612755,PHI,Philadelphia,15-45,27,19,23,12,0,0,0,0,0,0,0,0,0,0,81,0.372,0.667,0.208,16,45,19,0021300886,1610612753,ORL,Orlando,Adonis Thomas,,,8:33,0.0,0.0,3.0,2.0,7.0,0.0,3.0,10.0,0.0,1.0,1.0,1.0
0021300886,1610612753,ORL,Orlando,203519,Adonis Thomas,,,8:33,59.7,113.4,-53.7,0.25,0.0,15.5,0.0,0.222,0.111,0.0,0.2,0.276,0.266,101.28,0.037,2014-03-02T00:00:00,4,1610612753,ORL,Orlando,19-43,28,15,23,26,0,0,0,0,0,0,0,0,0,0,92,0.422,0.778,0.077,17,47,13,0021300886,1610612753,ORL,Orlando,Adonis Thomas,,,8:33,0.0,0.0,3.0,2.0,7.0,0.0,3.0,10.0,0.0,1.0,1.0,1.0
0021300886,1610612753,ORL,Orlando,203094,Andrew Nicholson,,,10:46,92.6,73.1,19.5,0.0,0.0,0.0,0.0,0.0,0.0,0.0,0.5,0.5,0.093,92.11,-0.037,2014-03-02T00:00:00,4,1610612755,PHI,Philadelphia,15-45,27,19,23,12,0,0,0,0,0,0,0,0,0,0,81,0.372,0.667,0.208,16,45,19,0021300886,1610612753,ORL,Orlando,Andrew Nicholson,,,10:46,0.0,0.0,0.0,0.0,5.0,0.0,1.0,12.0,0.0,0.0,2.0,0.0
0021300886,1610612753,ORL,Orlando,203094,Andrew Nicholson,,,10:46,92.6,73.1,19.5,0.0,0.0,0.0,0.0,0.0,0.0,0.0,0.5,0.5,0.093,92.11,-0.037,2014-03-02T00:00:00,4,1610612753,ORL,Orlando,19-43,28,15,23,26,0,0,0,0,0,0,0,0,0,0,92,0.422,0.778,0.077,17,47,13,0021300886,1610612753,ORL,Orlando,Andrew Nicholson,,,10:46,0.0,0.0,0.0,0.0,5.0,0.0,1.0,12.0,0.0,0.0,2.0,0.0
0021300886,1610612753,ORL,Orlando,203473,Dewayne Dedmon,,DNP - Coach's Decision,,,,,,,0.0,,,,,,,0.0,,,2014-03-02T00:00:00,4,1610612755,PHI,Philadelphia,15-45,27,19,23,12,0,0,0,0,0,0,0,0,0,0,81,0.372,0.667,0.208,16,45,19,0021300886,1610612753,ORL,Orlando,Dewayne Dedmon,,DNP - Coach's Decision,,,,,,,,,,,,,
0021300886,1610612753,ORL,Orlando,203473,Dewayne Dedmon,,DNP - Coach's Decision,,,,,,,0.0,,,,,,,0.0,,,2014-03-02T00:00:00,4,1610612753,ORL,Orlando,19-43,28,15,23,26,0,0,0,0,0,0,0,0,0,0,92,0.422,0.778,0.077,17,47,13,0021300886,1610612753,ORL,Orlando,Dewayne Dedmon,,DNP - Coach's Decision,,,,,,,,,,,,,
0021300886,1610612753,ORL,Orlando,203117,Doron Lamb,,DNP - Coach's Decision,,,,,,,0.0,,,,,,,0.0,,,2014-03-02T00:00:00,4,1610612755,PHI,Philadelphia,15-45,27,19,23,12,0,0,0,0,0,0,0,0,0,0,81,0.372,0.667,0.208,16,45,19,0021300886,1610612753,ORL,Orlando,Doron Lamb,,DNP - Coach's Decision,,,,,,,,,,,,,
0021300886,1610612753,ORL,Orlando,203117,Doron Lamb,,DNP - Coach's Decision,,,,,,,0.0,,,,,,,0.0,,,2014-03-02T00:00:00,4,1610612753,ORL,Orlando,19-43,28,15,23,26,0,0,0,0,0,0,0,0,0,0,92,0.422,0.778,0.077,17,47,13,0021300886,1610612753,ORL,Orlando,Doron Lamb,,DNP - Coach's Decision,,,,,,,,,,,,,
0021300886,1610612753,ORL,Orlando,101131,Jason Maxiell,,DNP - Coach's Decision,,,,,,,0.0,,,,,,,0.0,,,2014-03-02T00:00:00,4,1610612755,PHI,Philadelphia,15-45,27,19,23,12,0,0,0,0,0,0,0,0,0,0,81,0.372,0.667,0.208,16,45,19,0021300886,1610612753,ORL,Orlando,Jason Maxiell,,DNP - Coach's Decision,,,,,,,,,,,,,
0021300886,1610612753,ORL,Orlando,101131,Jason Maxiell,,DNP - Coach's Decision,,,,,,,0.0,,,,,,,0.0,,,2014-03-02T00:00:00,4,1610612753,ORL,Orlando,19-43,28,15,23,26,0,0,0,0,0,0,0,0,0,0,92,0.422,0.778,0.077,17,47,13,0021300886,1610612753,ORL,Orlando,Jason Maxiell,,DNP - Coach's Decision,,,,,,,,,,,,,
0021300886,1610612753,ORL,Orlando,2749,Jameer Nelson,,DNP - Coach's Decision,,,,,,,0.0,,,,,,,0.0,,,2014-03-02T00:00:00,4,1610612755,PHI,Philadelphia,15-45,27,19,23,12,0,0,0,0,0,0,0,0,0,0,81,0.372,0.667,0.208,16,45,19,0021300886,1610612753,ORL,Orlando,Jameer Nelson,,DNP - Coach's Decision,,,,,,,,,,,,,
0021300886,1610612753,ORL,Orlando,2749,Jameer Nelson,,DNP - Coach's Decision,,,,,,,0.0,,,,,,,0.0,,,2014-03-02T00:00:00,4,1610612753,ORL,Orlando,19-43,28,15,23,26,0,0,0,0,0,0,0,0,0,0,92,0.422,0.778,0.077,17,47,13,0021300886,1610612753,ORL,Orlando,Jameer Nelson,,DNP - Coach's Decision,,,,,,,,,,,,,
