GAME_ID_x,TEAM_ID_x,TEAM_ABBREVIATION_x,TEAM_CITY_x,PLAYER_ID,PLAYER_NAME_x,START_POSITION_x,COMMENT_x,MIN_x,OFF_RATING,DEF_RATING,NET_RATING,AST_PCT,AST_TOV,AST_RATIO,OREB_PCT,DREB_PCT,REB_PCT,TM_TOV_PCT,EFG_PCT,TS_PCT,USG_PCT,PACE,PIE,GAME_DATE_EST,GAME_SEQUENCE,TEAM_ID_y,TEAM_ABBREVIATION_y,TEAM_CITY_NAME,TEAM_WINS_LOSSES,PTS_QTR1,PTS_QTR2,PTS_QTR3,PTS_QTR4,PTS_OT1,PTS_OT2,PTS_OT3,PTS_OT4,PTS_OT5,PTS_OT6,PTS_OT7,PTS_OT8,PTS_OT9,PTS_OT10,PTS,FG_PCT,FT_PCT,FG3_PCT,AST,REB,TOV,GAME_ID_y,TEAM_ID,TEAM_ABBREVIATION,TEAM_CITY_y,PLAYER_NAME_y,START_POSITION_y,COMMENT_y,MIN_y,PTS_OFF_TOV,PTS_2ND_CHANCE,PTS_FB,PTS_PAINT,OPP_PTS_OFF_TOV,OPP_PTS_2ND_CHANCE,OPP_PTS_FB,OPP_PTS_PAINT,BLK,BLKA,PF,PFD
0021300884,1610612744,GSW,Golden State,2738,Andre Iguodala,F,,30:29,101.4,115.5,-14.1,0.238,1.67,36.3,0.059,0.182,0.107,21.8,0.5,0.694,0.117,92.48,0.094,2014-03-02T00:00:00,2,1610612744,GSW,Golden State,36-24,28,22,28,20,0,0,0,0,0,0,0,0,0,0,98,0.42,0.8,0.348,25,41,13,0021300884,1610612744,GSW,Golden State,Andre Iguodala,F,,30:29,2.0,0.0,4.0,4.0,11.0,2.0,0.0,26.0,0.0,0.0,3.0,3.0
0021300884,1610612744,GSW,Golden State,2738,Andre Iguodala,F,,30:29,101.4,115.5,-14.1,0.238,1.67,36.3,0.059,0.182,0.107,21.8,0.5,0.694,0.117,92.48,0.094,2014-03-02T00:00:00,2,1610612761,TOR,Toronto,33-26,25,30,20,29,0,0,0,0,0,0,0,0,0,0,104,0.481,0.87,0.364,28,39,9,0021300884,1610612744,GSW,Golden State,Andre Iguodala,F,,30:29,2.0,0.0,4.0,4.0,11.0,2.0,0.0,26.0,0.0,0.0,3.0,3.0
0021300884,1610612744,GSW,Golden State,101135,David Lee,F,,43:12,108.5,115.9,-7.4,0.115,3.0,12.6,0.167,0.133,0.153,4.2,0.444,0.506,0.206,91.69,0.09,2014-03-02T00:00:00,2,1610612744,GSW,Golden State,36-24,28,22,28,20,0,0,0,0,0,0,0,0,0,0,98,0.42,0.8,0.348,25,41,13,0021300884,1610612744,GSW,Golden State,David Lee,F,,43:12,4.0,4.0,2.0,16.0,15.0,4.0,2.0,36.0,0.0,2.0,5.0,5.0
0021300884,1610612744,GSW,Golden State,101135,David Lee,F,,43:12,108.5,115.9,-7.4,0.115,3.0,12.6,0.167,0.133,0.153,4.2,0.444,0.506,0.206,91.69,0.09,2014-03-02T00:00:00,2,1610612761,TOR,Toronto,33-26,25,30,20,29,0,0,0,0,0,0,0,0,0,0,104,0.481,0.87,0.364,28,39,9,0021300884,1610612744,GSW,Golden State,David Lee,F,,43:12,4.0,4.0,2.0,16.0,15.0,4.0,2.0,36.0,0.0,2.0,5.0,5.0
0021300884,1610612744,GSW,Golden State,101106,Andrew Bogut,C,,30:34,104.8,113.2,-8.4,0.048,1.0,14.5,0.125,0.273,0.185,14.5,0.5,0.41,0.078,92.3,0.105,2014-03-02T00:00:00,2,1610612744,GSW,Golden State,36-24,28,22,28,20,0,0,0,0,0,0,0,0,0,0,98,0.42,0.8,0.348,25,41,13,0021300884,1610612744,GSW,Golden State,Andrew Bogut,C,,30:34,0.0,0.0,0.0,4.0,10.0,2.0,0.0,26.0,3.0,0.0,0.0,1.0
0021300884,1610612744,GSW,Golden State,101106,Andrew Bogut,C,,30:34,104.8,113.2,-8.4,0.048,1.0,14.5,0.125,0.273,0.185,14.5,0.5,0.41,0.078,92.3,0.105,2014-03-02T00:00:00,2,1610612761,TOR,Toronto,33-26,25,30,20,29,0,0,0,0,0,0,0,0,0,0,104,0.481,0.87,0.364,28,39,9,0021300884,1610612744,GSW,Golden State,Andrew Bogut,C,,30:34,0.0,0.0,0.0,4.0,10.0,2.0,0.0,26.0,3.0,0.0,0.0,1.0
0021300884,1610612744,GSW,Golden State,202691,Klay Thompson,G,,26:31,104.5,115.7,-11.2,0.0,0.0,0.0,0.033,0.105,0.061,5.9,0.333,0.378,0.261,91.44,-0.014,2014-03-02T00:00:00,2,1610612744,GSW,Golden State,36-24,28,22,28,20,0,0,0,0,0,0,0,0,0,0,98,0.42,0.8,0.348,25,41,13,0021300884,1610612744,GSW,Golden State,Klay Thompson,G,,26:31,2.0,5.0,0.0,2.0,10.0,2.0,0.0,24.0,0.0,0.0,5.0,1.0
0021300884,1610612744,GSW,Golden State,202691,Klay Thompson,G,,26:31,104.5,115.7,-11.2,0.0,0.0,0.0,0.033,0.105,0.061,5.9,0.333,0.378,0.261,91.44,-0.014,2014-03-02T00:00:00,2,1610612761,TOR,Toronto,33-26,25,30,20,29,0,0,0,0,0,0,0,0,0,0,104,0.481,0.87,0.364,28,39,9,0021300884,1610612744,GSW,Golden State,Klay Thompson,G,,26:31,2.0,5.0,0.0,2.0,10.0,2.0,0.0,24.0,0.0,0.0,5.0,1.0
0021300884,1610612744,GSW,Golden State,201939,Stephen Curry,G,,43:12,108.5,115.9,-7.4,0.333,1.17,16.4,0.024,0.1,0.056,14.1,0.556,0.574,0.354,91.69,0.127,2014-03-02T00:00:00,2,1610612744,GSW,Golden State,36-24,28,22,28,20,0,0,0,0,0,0,0,0,0,0,98,0.42,0.8,0.348,25,41,13,0021300884,1610612744,GSW,Golden State,Stephen Curry,G,,43:12,5.0,2.0,4.0,12.0,15.0,4.0,2.0,36.0,0.0,0.0,3.0,5.0
0021300884,1610612744,GSW,Golden State,201939,Stephen Curry,G,,43:12,108.5,115.9,-7.4,0.333,1.17,16.4,0.024,0.1,0.056,14.1,0.556,0.574,0.354,91.69,0.127,2014-03-02T00:00:00,2,1610612761,TOR,Toronto,33-26,25,30,20,29,0,0,0,0,0,0,0,0,0,0,104,0.481,0.87,0.364,28,39,9,0021300884,1610612744,GSW,Golden State,Stephen Curry,G,,43:12,5.0,2.0,4.0,12.0,15.0,4.0,2.0,36.0,0.0,0.0,3.0,5.0
0021300884,1610612744,GSW,Golden State,203084,Harrison Barnes,,,22:21,99.6,120.3,-20.7,0.091,1.0,9.2,0.0,0.125,0.059,9.2,0.563,0.619,0.209,90.07,0.116,2014-03-02T00:00:00,2,1610612744,GSW,Golden State,36-24,28,22,28,20,0,0,0,0,0,0,0,0,0,0,98,0.42,0.8,0.348,25,41,13,0021300884,1610612744,GSW,Golden State,Harrison Barnes,,,22:21,0.0,0.0,0.0,2.0,4.0,3.0,2.0,16.0,1.0,0.0,1.0,2.0
0021300884,1610612744,GSW,Golden State,203084,Harrison Barnes,,,22:21,99.6,120.3,-20.7,0.091,1.0,9.2,0.0,0.125,0.059,9.2,0.563,0.619,0.209,90.07,0.116,2014-03-02T00:00:00,2,1610612761,TOR,Toronto,33-26,25,30,20,29,0,0,0,0,0,0,0,0,0,0,104,0.481,0.87,0.364,28,39,9,0021300884,1610612744,GSW,Golden State,Harrison Barnes,,,22:21,0.0,0.0,0.0,2.0,4.0,3.0,2.0,16.0,1.0,0.0,1.0,2.0
0021300884,1610612744,GSW,Golden State,203110,Draymond Green,,,17:01,107.1,122.2,-15.2,0.385,0.0,55.6,0.0,0.182,0.087,0.0,0.25,0.25,0.118,90.91,0.088,2014-03-02T00:00:00,2,1610612744,GSW,Golden State,36-24,28,22,28,20,0,0,0,0,0,0,0,0,0,0,98,0.42,0.8,0.348,25,41,13,0021300884,1610612744,GSW,Golden State,Draymond Green,,,17:01,0.0,0.0,0.0,2.0,5.0,3.0,2.0,14.0,0.0,0.0,1.0,0.0
0021300884,1610612744,GSW,Golden State,203110,Draymond Green,,,17:01,107.1,122.2,-15.2,0.385,0.0,55.6,0.0,0.182,0.087,0.0,0.25,0.25,0.118,90.91,0.088,2014-03-02T00:00:00,2,1610612761,TOR,Toronto,33-26,25,30,20,29,0,0,0,0,0,0,0,0,0,0,104,0.481,0.87,0.364,28,39,9,0021300884,1610612744,GSW,Golden State,Draymond Green,,,17:01,0.0,0.0,0.0,2.0,5.0,3.0,2.0,14.0,0.0,0.0,1.0,0.0
0021300884,1610612744,GSW,Golden State,2581,Steve Blake,,,16:22,107.7,116.7,-9.0,0.25,0.0,50.0,0.083,0.0,0.042,0.0,0.5,0.5,0.092,90.16,0.016,2014-03-02T00:00:00,2,1610612744,GSW,Golden State,36-24,28,22,28,20,0,0,0,0,0,0,0,0,0,0,98,0.42,0.8,0.348,25,41,13,0021300884,1610612744,GSW,Golden State,Steve Blake,,,16:22,0.0,0.0,0.0,0.0,5.0,3.0,2.0,14.0,1.0,0.0,4.0,1.0
0021300884,1610612744,GSW,Golden State,2581,Steve Blake,,,16:22,107.7,116.7,-9.0,0.25,0.0,50.0,0.083,0.0,0.042,0.0,0.5,0.5,0.092,90.16,0.016,2014-03-02T00:00:00,2,1610612761,TOR,Toronto,33-26,25,30,20,29,0,0,0,0,0,0,0,0,0,0,104,0.481,0.87,0.364,28,39,9,0021300884,1610612744,GSW,Golden State,Steve Blake,,,16:22,0.0,0.0,0.0,0.0,5.0,3.0,2.0,14.0,1.0,0.0,4.0,1.0
0021300884,1610612744,GSW,Golden State,201578,Marreese Speights,,,4:48,66.7,123.9,-57.2,0.0,0.0,0.0,0.0,0.25,0.125,0.0,0.5,0.5,0.222,89.4,0.129,2014-03-02T00:00:00,2,1610612744,GSW,Golden State,36-24,28,22,28,20,0,0,0,0,0,0,0,0,0,0,98,0.42,0.8,0.348,25,41,13,0021300884,1610612744,GSW,Golden State,Marreese Speights,,,4:48,0.0,0.0,0.0,2.0,0.0,1.0,0.0,4.0,0.0,1.0,0.0,0.0
0021300884,1610612744,GSW,Golden State,201578,Marreese Speights,,,4:48,66.7,123.9,-57.2,0.0,0.0,0.0,0.0,0.25,0.125,0.0,0.5,0.5,0.222,89.4,0.129,2014-03-02T00:00:00,2,1610612761,TOR,Toronto,33-26,25,30,20,29,0,0,0,0,0,0,0,0,0,0,104,0.481,0.87,0.364,28,39,9,0021300884,1610612744,GSW,Golden State,Marreese Speights,,,4:48,0.0,0.0,0.0,2.0,0.0,1.0,0.0,4.0,0.0,1.0,0.0,0.0
0021300884,1610612744,GSW,Golden State,202348,Jordan Crawford,,,5:30,90.0,120.8,-30.8,0.0,0.0,0.0,0.0,0.25,0.125,0.0,0.333,0.333,0.3,90.59,0.051,2014-03-02T00:00:00,2,1610612744,GSW,Golden State,36-24,28,22,28,20,0,0,0,0,0,0,0,0,0,0,98,0.42,0.8,0.348,25,41,13,0021300884,1610612744,GSW,Golden State,Jordan Crawford,,,5:30,0.0,0.0,0.0,0.0,0.0,1.0,0.0,4.0,0.0,0.0,0.0,0.0
0021300884,1610612744,GSW,Golden State,202348,Jordan Crawford,,,5:30,90.0,120.8,-30.8,0.0,0.0,0.0,0.0,0.25,0.125,0.0,0.333,0.333,0.3,90.59,0.051,2014-03-02T00:00:00,2,1610612761,TOR,Toronto,33-26,25,30,20,29,0,0,0,0,0,0,0,0,0,0,104,0.481,0.87,0.364,28,39,9,0021300884,1610612744,GSW,Golden State,Jordan Crawford,,,5:30,0.0,0.0,0.0,0.0,0.0,1.0,0.0,4.0,0.0,0.0,0.0,0.0
0021300884,1610612744,GSW,Golden State,200756,Hilton Armstrong,,DNP - Coach's Decision,,,,,,,0.0,,,,,,,0.0,,,2014-03-02T00:00:00,2,1610612744,GSW,Golden State,36-24,28,22,28,20,0,0,0,0,0,0,0,0,0,0,98,0.42,0.8,0.348,25,41,13,0021300884,1610612744,GSW,Golden State,Hilton Armstrong,,DNP - Coach's Decision,,,,,,,,,,,,,
0021300884,1610612744,GSW,Golden State,200756,Hilton Armstrong,,DNP - Coach's Decision,,,,,,,0.0,,,,,,,0.0,,,2014-03-02T00:00:00,2,1610612761,TOR,Toronto,33-26,25,30,20,29,0,0,0,0,0,0,0,0,0,0,104,0.481,0.87,0.364,28,39,9,0021300884,1610612744,GSW,Golden State,Hilton Armstrong,,DNP - Coach's Decision,,,,,,,,,,,,,
0021300884,1610612744,GSW,Golden State,203517,Nemanja Nedovic,,DNP - Coach's Decision,,,,,,,0.0,,,,,,,0.0,,,2014-03-02T00:00:00,2,1610612744,GSW,Golden State,36-24,28,22,28,20,0,0,0,0,0,0,0,0,0,0,98,0.42,0.8,0.348,25,41,13,0021300884,1610612744,GSW,Golden State,Nemanja Nedovic,,DNP - Coach's Decision,,,,,,,,,,,,,
0021300884,1610612744,GSW,Golden State,203517,Nemanja Nedovic,,DNP - Coach's Decision,,,,,,,0.0,,,,,,,0.0,,,2014-03-02T00:00:00,2,1610612761,TOR,Toronto,33-26,25,30,20,29,0,0,0,0,0,0,0,0,0,0,104,0.481,0.87,0.364,28,39,9,0021300884,1610612744,GSW,Golden State,Nemanja Nedovic,,DNP - Coach's Decision,,,,,,,,,,,,,
0021300884,1610612744,GSW,Golden State,979,Jermaine O'Neal,,NWT - Not with team,,,,,,,0.0,,,,,,,0.0,,,2014-03-02T00:00:00,2,1610612744,GSW,Golden State,36-24,28,22,28,20,0,0,0,0,0,0,0,0,0,0,98,0.42,0.8,0.348,25,41,13,0021300884,1610612744,GSW,Golden State,Jermaine O'Neal,,NWT - Not with team,,,,,,,,,,,,,
0021300884,1610612744,GSW,Golden State,979,Jermaine O'Neal,,NWT - Not with team,,,,,,,0.0,,,,,,,0.0,,,2014-03-02T00:00:00,2,1610612761,TOR,Toronto,33-26,25,30,20,29,0,0,0,0,0,0,0,0,0,0,104,0.481,0.87,0.364,28,39,9,0021300884,1610612744,GSW,Golden State,Jermaine O'Neal,,NWT - Not with team,,,,,,,,,,,,,
0021300884,1610612761,TOR,Toronto,202361,Landry Fields,F,,24:48,100.8,105.7,-4.9,0.0,0.0,0.0,0.053,0.167,0.122,0.0,0.8,0.8,0.101,93.66,0.15,2014-03-02T00:00:00,2,1610612744,GSW,Golden State,36-24,28,22,28,20,0,0,0,0,0,0,0,0,0,0,98,0.42,0.8,0.348,25,41,13,0021300884,1610612761,TOR,Toronto,Landry Fields,F,,24:48,0.0,0.0,0.0,8.0,11.0,4.0,8.0,24.0,0.0,1.0,0.0,2.0
0021300884,1610612761,TOR,Toronto,202361,Landry Fields,F,,24:48,100.8,105.7,-4.9,0.0,0.0,0.0,0.053,0.167,0.122,0.0,0.8,0.8,0.101,93.66,0.15,2014-03-02T00:00:00,2,1610612761,TOR,Toronto,33-26,25,30,20,29,0,0,0,0,0,0,0,0,0,0,104,0.481,0.87,0.364,28,39,9,0021300884,1610612761,TOR,Toronto,Landry Fields,F,,24:48,0.0,0.0,0.0,8.0,11.0,4.0,8.0,24.0,0.0,1.0,0.0,2.0
0021300884,1610612761,TOR,Toronto,101161,Amir Johnson,F,,30:12,116.8,97.6,19.2,0.208,5.0,31.5,0.05,0.242,0.17,6.3,0.444,0.455,0.182,91.42,0.105,2014-03-02T00:00:00,2,1610612744,GSW,Golden State,36-24,28,22,28,20,0,0,0,0,0,0,0,0,0,0,98,0.42,0.8,0.348,25,41,13,0021300884,1610612761,TOR,Toronto,Amir Johnson,F,,30:12,1.0,0.0,0.0,8.0,11.0,7.0,8.0,28.0,0.0,2.0,3.0,2.0
0021300884,1610612761,TOR,Toronto,101161,Amir Johnson,F,,30:12,116.8,97.6,19.2,0.208,5.0,31.5,0.05,0.242,0.17,6.3,0.444,0.455,0.182,91.42,0.105,2014-03-02T00:00:00,2,1610612761,TOR,Toronto,33-26,25,30,20,29,0,0,0,0,0,0,0,0,0,0,104,0.481,0.87,0.364,28,39,9,0021300884,1610612761,TOR,Toronto,Amir Johnson,F,,30:12,1.0,0.0,0.0,8.0,11.0,7.0,8.0,28.0,0.0,2.0,3.0,2.0
0021300884,1610612761,TOR,Toronto,202685,Jonas Valanciunas,C,,23:07,105.6,106.2,-0.6,0.077,0.33,10.0,0.059,0.148,0.114,30.0,0.833,0.833,0.189,94.15,0.123,2014-03-02T00:00:00,2,1610612744,GSW,Golden State,36-24,28,22,28,20,0,0,0,0,0,0,0,0,0,0,98,0.42,0.8,0.348,25,41,13,0021300884,1610612761,TOR,Toronto,Jonas Valanciunas,C,,23:07,2.0,0.0,0.0,8.0,11.0,4.0,10.0,20.0,1.0,0.0,3.0,1.0
0021300884,1610612761,TOR,Toronto,202685,Jonas Valanciunas,C,,23:07,105.6,106.2,-0.6,0.077,0.33,10.0,0.059,0.148,0.114,30.0,0.833,0.833,0.189,94.15,0.123,2014-03-02T00:00:00,2,1610612761,TOR,Toronto,33-26,25,30,20,29,0,0,0,0,0,0,0,0,0,0,104,0.481,0.87,0.364,28,39,9,0021300884,1610612761,TOR,Toronto,Jonas Valanciunas,C,,23:07,2.0,0.0,0.0,8.0,11.0,4.0,10.0,20.0,1.0,0.0,3.0,1.0
0021300884,1610612761,TOR,Toronto,201942,DeMar DeRozan,G,,42:12,120.9,98.7,22.2,0.24,0.0,22.0,0.0,0.1,0.058,0.0,0.656,0.752,0.251,90.4,0.231,2014-03-02T00:00:00,2,1610612744,GSW,Golden State,36-24,28,22,28,20,0,0,0,0,0,0,0,0,0,0,98,0.42,0.8,0.348,25,41,13,0021300884,1610612761,TOR,Toronto,DeMar DeRozan,G,,42:12,8.0,2.0,0.0,2.0,9.0,9.0,8.0,34.0,0.0,1.0,2.0,8.0
0021300884,1610612761,TOR,Toronto,201942,DeMar DeRozan,G,,42:12,120.9,98.7,22.2,0.24,0.0,22.0,0.0,0.1,0.058,0.0,0.656,0.752,0.251,90.4,0.231,2014-03-02T00:00:00,2,1610612761,TOR,Toronto,33-26,25,30,20,29,0,0,0,0,0,0,0,0,0,0,104,0.481,0.87,0.364,28,39,9,0021300884,1610612761,TOR,Toronto,DeMar DeRozan,G,,42:12,8.0,2.0,0.0,2.0,9.0,9.0,8.0,34.0,0.0,1.0,2.0,8.0
0021300884,1610612761,TOR,Toronto,200768,Kyle Lowry,G,,31:27,118.3,98.6,19.8,0.348,4.0,32.3,0.091,0.029,0.054,8.1,0.346,0.44,0.257,93.9,0.085,2014-03-02T00:00:00,2,1610612744,GSW,Golden State,36-24,28,22,28,20,0,0,0,0,0,0,0,0,0,0,98,0.42,0.8,0.348,25,41,13,0021300884,1610612761,TOR,Toronto,Kyle Lowry,G,,31:27,0.0,0.0,0.0,0.0,8.0,11.0,10.0,24.0,0.0,0.0,4.0,5.0
0021300884,1610612761,TOR,Toronto,200768,Kyle Lowry,G,,31:27,118.3,98.6,19.8,0.348,4.0,32.3,0.091,0.029,0.054,8.1,0.346,0.44,0.257,93.9,0.085,2014-03-02T00:00:00,2,1610612761,TOR,Toronto,33-26,25,30,20,29,0,0,0,0,0,0,0,0,0,0,104,0.481,0.87,0.364,28,39,9,0021300884,1610612761,TOR,Toronto,Kyle Lowry,G,,31:27,0.0,0.0,0.0,0.0,8.0,11.0,10.0,24.0,0.0,0.0,4.0,5.0
0021300884,1610612761,TOR,Toronto,202349,Greivis Vasquez,,,22:52,128.7,107.8,21.0,0.267,4.0,22.2,0.0,0.0,0.0,5.6,0.462,0.462,0.3,88.65,0.071,2014-03-02T00:00:00,2,1610612744,GSW,Golden State,36-24,28,22,28,20,0,0,0,0,0,0,0,0,0,0,98,0.42,0.8,0.348,25,41,13,0021300884,1610612761,TOR,Toronto,Greivis Vasquez,,,22:52,0.0,0.0,0.0,6.0,7.0,2.0,2.0,28.0,0.0,1.0,0.0,1.0
0021300884,1610612761,TOR,Toronto,202349,Greivis Vasquez,,,22:52,128.7,107.8,21.0,0.267,4.0,22.2,0.0,0.0,0.0,5.6,0.462,0.462,0.3,88.65,0.071,2014-03-02T00:00:00,2,1610612761,TOR,Toronto,33-26,25,30,20,29,0,0,0,0,0,0,0,0,0,0,104,0.481,0.87,0.364,28,39,9,0021300884,1610612761,TOR,Toronto,Greivis Vasquez,,,22:52,0.0,0.0,0.0,6.0,7.0,2.0,2.0,28.0,0.0,1.0,0.0,1.0
0021300884,1610612761,TOR,Toronto,2422,John Salmons,,,20:23,114.7,113.5,1.2,0.25,0.0,37.5,0.0,0.063,0.032,0.0,0.2,0.2,0.118,90.8,0.0,2014-03-02T00:00:00,2,1610612744,GSW,Golden State,36-24,28,22,28,20,0,0,0,0,0,0,0,0,0,0,98,0.42,0.8,0.348,25,41,13,0021300884,1610612761,TOR,Toronto,John Salmons,,,20:23,2.0,0.0,0.0,0.0,4.0,7.0,2.0,20.0,0.0,0.0,2.0,0.0
0021300884,1610612761,TOR,Toronto,2422,John Salmons,,,20:23,114.7,113.5,1.2,0.25,0.0,37.5,0.0,0.063,0.032,0.0,0.2,0.2,0.118,90.8,0.0,2014-03-02T00:00:00,2,1610612761,TOR,Toronto,33-26,25,30,20,29,0,0,0,0,0,0,0,0,0,0,104,0.481,0.87,0.364,28,39,9,0021300884,1610612761,TOR,Toronto,John Salmons,,,20:23,2.0,0.0,0.0,0.0,4.0,7.0,2.0,20.0,0.0,0.0,2.0,0.0
0021300884,1610612761,TOR,Toronto,202335,Patrick Patterson,,,28:43,121.5,104.7,16.8,0.056,0.5,7.2,0.048,0.19,0.119,14.4,0.5,0.551,0.213,90.99,0.077,2014-03-02T00:00:00,2,1610612744,GSW,Golden State,36-24,28,22,28,20,0,0,0,0,0,0,0,0,0,0,98,0.42,0.8,0.348,25,41,13,0021300884,1610612761,TOR,Toronto,Patrick Patterson,,,28:43,0.0,0.0,2.0,4.0,4.0,7.0,2.0,28.0,1.0,0.0,3.0,1.0
0021300884,1610612761,TOR,Toronto,202335,Patrick Patterson,,,28:43,121.5,104.7,16.8,0.056,0.5,7.2,0.048,0.19,0.119,14.4,0.5,0.551,0.213,90.99,0.077,2014-03-02T00:00:00,2,1610612761,TOR,Toronto,33-26,25,30,20,29,0,0,0,0,0,0,0,0,0,0,104,0.481,0.87,0.364,28,39,9,0021300884,1610612761,TOR,Toronto,Patrick Patterson,,,28:43,0.0,0.0,2.0,4.0,4.0,7.0,2.0,28.0,1.0,0.0,3.0,1.0
0021300884,1610612761,TOR,Toronto,201946,Tyler Hansbrough,,,13:41,126.5,120.9,5.6,0.0,0.0,0.0,0.3,0.2,0.25,0.0,1.0,0.904,0.12,86.58,0.16,2014-03-02T00:00:00,2,1610612744,GSW,Golden State,36-24,28,22,28,20,0,0,0,0,0,0,0,0,0,0,98,0.42,0.8,0.348,25,41,13,0021300884,1610612761,TOR,Toronto,Tyler Hansbrough,,,13:41,2.0,3.0,0.0,4.0,0.0,4.0,0.0,12.0,1.0,0.0,1.0,2.0
0021300884,1610612761,TOR,Toronto,201946,Tyler Hansbrough,,,13:41,126.5,120.9,5.6,0.0,0.0,0.0,0.3,0.2,0.25,0.0,1.0,0.904,0.12,86.58,0.16,2014-03-02T00:00:00,2,1610612761,TOR,Toronto,33-26,25,30,20,29,0,0,0,0,0,0,0,0,0,0,104,0.481,0.87,0.364,28,39,9,0021300884,1610612761,TOR,Toronto,Tyler Hansbrough,,,13:41,2.0,3.0,0.0,4.0,0.0,4.0,0.0,12.0,1.0,0.0,1.0,2.0
0021300884,1610612761,TOR,Toronto,201986,Nando De Colo,,,2:34,94.0,143.4,-49.5,0.0,0.0,0.0,0.0,0.5,0.2,0.0,0.0,0.0,0.0,95.38,0.1,2014-03-02T00:00:00,2,1610612744,GSW,Golden State,36-24,28,22,28,20,0,0,0,0,0,0,0,0,0,0,98,0.42,0.8,0.348,25,41,13,0021300884,1610612761,TOR,Toronto,Nando De Colo,,,2:34,0.0,0.0,0.0,0.0,0.0,0.0,0.0,2.0,0.0,0.0,0.0,0.0
0021300884,1610612761,TOR,Toronto,201986,Nando De Colo,,,2:34,94.0,143.4,-49.5,0.0,0.0,0.0,0.0,0.5,0.2,0.0,0.0,0.0,0.0,95.38,0.1,2014-03-02T00:00:00,2,1610612761,TOR,Toronto,33-26,25,30,20,29,0,0,0,0,0,0,0,0,0,0,104,0.481,0.87,0.364,28,39,9,0021300884,1610612761,TOR,Toronto,Nando De Colo,,,2:34,0.0,0.0,0.0,0.0,0.0,0.0,0.0,2.0,0.0,0.0,0.0,0.0
0021300884,1610612761,TOR,Toronto,101236,Chuck Hayes,,DNP - Coach's Decision,,,,,,,0.0,,,,,,,0.0,,,2014-03-02T00:00:00,2,1610612744,GSW,Golden State,36-24,28,22,28,20,0,0,0,0,0,0,0,0,0,0,98,0.42,0.8,0.348,25,41,13,0021300884,1610612761,TOR,Toronto,Chuck Hayes,,DNP - Coach's Decision,,,,,,,,,,,,,
0021300884,1610612761,TOR,Toronto,101236,Chuck Hayes,,DNP - Coach's Decision,,,,,,,0.0,,,,,,,0.0,,,2014-03-02T00:00:00,2,1610612761,TOR,Toronto,33-26,25,30,20,29,0,0,0,0,0,0,0,0,0,0,104,0.481,0.87,0.364,28,39,9,0021300884,1610612761,TOR,Toronto,Chuck Hayes,,DNP - Coach's Decision,,,,,,,,,,,,,
0021300884,1610612761,TOR,Toronto,200779,Steve Novak,,DNP - Coach's Decision,,,,,,,0.0,,,,,,,0.0,,,2014-03-02T00:00:00,2,1610612744,GSW,Golden State,36-24,28,22,28,20,0,0,0,0,0,0,0,0,0,0,98,0.42,0.8,0.348,25,41,13,0021300884,1610612761,TOR,Toronto,Steve Novak,,DNP - Coach's Decision,,,,,,,,,,,,,
0021300884,1610612761,TOR,Toronto,200779,Steve Novak,,DNP - Coach's Decision,,,,,,,0.0,,,,,,,0.0,,,2014-03-02T00:00:00,2,1610612761,TOR,Toronto,33-26,25,30,20,29,0,0,0,0,0,0,0,0,0,0,104,0.481,0.87,0.364,28,39,9,0021300884,1610612761,TOR,Toronto,Steve Novak,,DNP - Coach's Decision,,,,,,,,,,,,,
0021300884,1610612761,TOR,Toronto,202933,Julyan Stone,,DNP - Coach's Decision,,,,,,,0.0,,,,,,,0.0,,,2014-03-02T00:00:00,2,1610612744,GSW,Golden State,36-24,28,22,28,20,0,0,0,0,0,0,0,0,0,0,98,0.42,0.8,0.348,25,41,13,0021300884,1610612761,TOR,Toronto,Julyan Stone,,DNP - Coach's Decision,,,,,,,,,,,,,
0021300884,1610612761,TOR,Toronto,202933,Julyan Stone,,DNP - Coach's Decision,,,,,,,0.0,,,,,,,0.0,,,2014-03-02T00:00:00,2,1610612761,TOR,Toronto,33-26,25,30,20,29,0,0,0,0,0,0,0,0,0,0,104,0.481,0.87,0.364,28,39,9,0021300884,1610612761,TOR,Toronto,Julyan Stone,,DNP - Coach's Decision,,,,,,,,,,,,,
