GAME_ID_x,TEAM_ID_x,TEAM_ABBREVIATION_x,TEAM_CITY_x,PLAYER_ID,PLAYER_NAME_x,START_POSITION_x,COMMENT_x,MIN_x,OFF_RATING,DEF_RATING,NET_RATING,AST_PCT,AST_TOV,AST_RATIO,OREB_PCT,DREB_PCT,REB_PCT,TM_TOV_PCT,EFG_PCT,TS_PCT,USG_PCT,PACE,PIE,GAME_DATE_EST,GAME_SEQUENCE,TEAM_ID_y,TEAM_ABBREVIATION_y,TEAM_CITY_NAME,TEAM_WINS_LOSSES,PTS_QTR1,PTS_QTR2,PTS_QTR3,PTS_QTR4,PTS_OT1,PTS_OT2,PTS_OT3,PTS_OT4,PTS_OT5,PTS_OT6,PTS_OT7,PTS_OT8,PTS_OT9,PTS_OT10,PTS,FG_PCT,FT_PCT,FG3_PCT,AST,REB,TOV,GAME_ID_y,TEAM_ID,TEAM_ABBREVIATION,TEAM_CITY_y,PLAYER_NAME_y,START_POSITION_y,COMMENT_y,MIN_y,PTS_OFF_TOV,PTS_2ND_CHANCE,PTS_FB,PTS_PAINT,OPP_PTS_OFF_TOV,OPP_PTS_2ND_CHANCE,OPP_PTS_FB,OPP_PTS_PAINT,BLK,BLKA,PF,PFD
0021300899,1610612744,GSW,Golden State,2738,Andre Iguodala,F,,23:24,97.1,95.8,1.3,0.063,0.0,10.0,0.0,0.095,0.045,0.0,0.333,0.333,0.172,97.78,0.025,2014-03-04T00:00:00,2,1610612744,GSW,Golden State,37-24,25,23,25,25,0,0,0,0,0,0,0,0,0,0,98,0.44,0.667,0.5,24,44,10,0021300899,1610612744,GSW,Golden State,Andre Iguodala,F,,23:24,0.0,2.0,2.0,4.0,2.0,7.0,4.0,24.0,0.0,2.0,1.0,0.0
0021300899,1610612744,GSW,Golden State,2738,Andre Iguodala,F,,23:24,97.1,95.8,1.3,0.063,0.0,10.0,0.0,0.095,0.045,0.0,0.333,0.333,0.172,97.78,0.025,2014-03-04T00:00:00,2,1610612754,IND,Indiana,46-14,21,21,28,26,0,0,0,0,0,0,0,0,0,0,96,0.419,0.955,0.188,16,43,8,0021300899,1610612744,GSW,Golden State,Andre Iguodala,F,,23:24,0.0,2.0,2.0,4.0,2.0,7.0,4.0,24.0,0.0,2.0,1.0,0.0
0021300899,1610612744,GSW,Golden State,101135,David Lee,F,,22:19,81.3,95.2,-13.9,0.2,2.0,15.8,0.045,0.19,0.116,7.9,0.571,0.571,0.214,98.82,0.134,2014-03-04T00:00:00,2,1610612744,GSW,Golden State,37-24,25,23,25,25,0,0,0,0,0,0,0,0,0,0,98,0.44,0.667,0.5,24,44,10,0021300899,1610612744,GSW,Golden State,David Lee,F,,22:19,1.0,2.0,2.0,8.0,4.0,7.0,6.0,18.0,0.0,0.0,3.0,3.0
0021300899,1610612744,GSW,Golden State,101135,David Lee,F,,22:19,81.3,95.2,-13.9,0.2,2.0,15.8,0.045,0.19,0.116,7.9,0.571,0.571,0.214,98.82,0.134,2014-03-04T00:00:00,2,1610612754,IND,Indiana,46-14,21,21,28,26,0,0,0,0,0,0,0,0,0,0,96,0.419,0.955,0.188,16,43,8,0021300899,1610612744,GSW,Golden State,David Lee,F,,22:19,1.0,2.0,2.0,8.0,4.0,7.0,6.0,18.0,0.0,0.0,3.0,3.0
0021300899,1610612744,GSW,Golden State,101106,Andrew Bogut,C,,22:10,105.8,99.1,6.7,0.056,0.0,20.5,0.05,0.25,0.15,0.0,0.333,0.387,0.085,96.3,0.066,2014-03-04T00:00:00,2,1610612744,GSW,Golden State,37-24,25,23,25,25,0,0,0,0,0,0,0,0,0,0,98,0.44,0.667,0.5,24,44,10,0021300899,1610612744,GSW,Golden State,Andrew Bogut,C,,22:10,2.0,0.0,0.0,2.0,0.0,7.0,2.0,22.0,3.0,1.0,4.0,1.0
0021300899,1610612744,GSW,Golden State,101106,Andrew Bogut,C,,22:10,105.8,99.1,6.7,0.056,0.0,20.5,0.05,0.25,0.15,0.0,0.333,0.387,0.085,96.3,0.066,2014-03-04T00:00:00,2,1610612754,IND,Indiana,46-14,21,21,28,26,0,0,0,0,0,0,0,0,0,0,96,0.419,0.955,0.188,16,43,8,0021300899,1610612744,GSW,Golden State,Andrew Bogut,C,,22:10,2.0,0.0,0.0,2.0,0.0,7.0,2.0,22.0,3.0,1.0,4.0,1.0
0021300899,1610612744,GSW,Golden State,202691,Klay Thompson,G,,41:14,103.2,100.9,2.3,0.091,2.0,8.4,0.025,0.1,0.063,4.2,0.575,0.599,0.239,95.81,0.137,2014-03-04T00:00:00,2,1610612744,GSW,Golden State,37-24,25,23,25,25,0,0,0,0,0,0,0,0,0,0,98,0.44,0.667,0.5,24,44,10,0021300899,1610612744,GSW,Golden State,Klay Thompson,G,,41:14,4.0,0.0,0.0,8.0,10.0,15.0,6.0,32.0,1.0,2.0,1.0,2.0
0021300899,1610612744,GSW,Golden State,202691,Klay Thompson,G,,41:14,103.2,100.9,2.3,0.091,2.0,8.4,0.025,0.1,0.063,4.2,0.575,0.599,0.239,95.81,0.137,2014-03-04T00:00:00,2,1610612754,IND,Indiana,46-14,21,21,28,26,0,0,0,0,0,0,0,0,0,0,96,0.419,0.955,0.188,16,43,8,0021300899,1610612744,GSW,Golden State,Klay Thompson,G,,41:14,4.0,0.0,0.0,8.0,10.0,15.0,6.0,32.0,1.0,2.0,1.0,2.0
0021300899,1610612744,GSW,Golden State,201939,Stephen Curry,G,,32:14,88.2,103.0,-14.7,0.4,1.5,20.5,0.03,0.241,0.129,13.6,0.444,0.492,0.33,94.36,0.145,2014-03-04T00:00:00,2,1610612744,GSW,Golden State,37-24,25,23,25,25,0,0,0,0,0,0,0,0,0,0,98,0.44,0.667,0.5,24,44,10,0021300899,1610612744,GSW,Golden State,Stephen Curry,G,,32:14,2.0,2.0,4.0,4.0,6.0,11.0,6.0,28.0,0.0,1.0,5.0,5.0
0021300899,1610612744,GSW,Golden State,201939,Stephen Curry,G,,32:14,88.2,103.0,-14.7,0.4,1.5,20.5,0.03,0.241,0.129,13.6,0.444,0.492,0.33,94.36,0.145,2014-03-04T00:00:00,2,1610612754,IND,Indiana,46-14,21,21,28,26,0,0,0,0,0,0,0,0,0,0,96,0.419,0.955,0.188,16,43,8,0021300899,1610612744,GSW,Golden State,Stephen Curry,G,,32:14,2.0,2.0,4.0,4.0,6.0,11.0,6.0,28.0,0.0,1.0,5.0,5.0
0021300899,1610612744,GSW,Golden State,979,Jermaine O'Neal,,,30:22,110.5,101.2,9.3,0.045,1.0,9.4,0.143,0.0,0.074,9.4,0.333,0.405,0.142,93.26,0.0,2014-03-04T00:00:00,2,1610612744,GSW,Golden State,37-24,25,23,25,25,0,0,0,0,0,0,0,0,0,0,98,0.44,0.667,0.5,24,44,10,0021300899,1610612744,GSW,Golden State,Jermaine O'Neal,,,30:22,0.0,2.0,0.0,2.0,10.0,8.0,4.0,20.0,2.0,0.0,3.0,4.0
0021300899,1610612744,GSW,Golden State,979,Jermaine O'Neal,,,30:22,110.5,101.2,9.3,0.045,1.0,9.4,0.143,0.0,0.074,9.4,0.333,0.405,0.142,93.26,0.0,2014-03-04T00:00:00,2,1610612754,IND,Indiana,46-14,21,21,28,26,0,0,0,0,0,0,0,0,0,0,96,0.419,0.955,0.188,16,43,8,0021300899,1610612744,GSW,Golden State,Jermaine O'Neal,,,30:22,0.0,2.0,0.0,2.0,10.0,8.0,4.0,20.0,2.0,0.0,3.0,4.0
0021300899,1610612744,GSW,Golden State,203084,Harrison Barnes,,,23:33,119.0,106.9,12.2,0.133,0.0,18.4,0.0,0.238,0.122,0.0,0.5,0.563,0.182,90.37,0.13,2014-03-04T00:00:00,2,1610612744,GSW,Golden State,37-24,25,23,25,25,0,0,0,0,0,0,0,0,0,0,98,0.44,0.667,0.5,24,44,10,0021300899,1610612744,GSW,Golden State,Harrison Barnes,,,23:33,0.0,5.0,0.0,2.0,8.0,8.0,2.0,12.0,0.0,1.0,1.0,1.0
0021300899,1610612744,GSW,Golden State,203084,Harrison Barnes,,,23:33,119.0,106.9,12.2,0.133,0.0,18.4,0.0,0.238,0.122,0.0,0.5,0.563,0.182,90.37,0.13,2014-03-04T00:00:00,2,1610612754,IND,Indiana,46-14,21,21,28,26,0,0,0,0,0,0,0,0,0,0,96,0.419,0.955,0.188,16,43,8,0021300899,1610612744,GSW,Golden State,Harrison Barnes,,,23:33,0.0,5.0,0.0,2.0,8.0,8.0,2.0,12.0,0.0,1.0,1.0,1.0
0021300899,1610612744,GSW,Golden State,203110,Draymond Green,,,21:10,125.3,108.6,16.7,0.231,3.0,27.3,0.056,0.316,0.189,9.1,0.714,0.714,0.184,88.48,0.187,2014-03-04T00:00:00,2,1610612744,GSW,Golden State,37-24,25,23,25,25,0,0,0,0,0,0,0,0,0,0,98,0.44,0.667,0.5,24,44,10,0021300899,1610612744,GSW,Golden State,Draymond Green,,,21:10,0.0,0.0,0.0,0.0,6.0,8.0,0.0,12.0,0.0,0.0,1.0,3.0
0021300899,1610612744,GSW,Golden State,203110,Draymond Green,,,21:10,125.3,108.6,16.7,0.231,3.0,27.3,0.056,0.316,0.189,9.1,0.714,0.714,0.184,88.48,0.187,2014-03-04T00:00:00,2,1610612754,IND,Indiana,46-14,21,21,28,26,0,0,0,0,0,0,0,0,0,0,96,0.419,0.955,0.188,16,43,8,0021300899,1610612744,GSW,Golden State,Draymond Green,,,21:10,0.0,0.0,0.0,0.0,6.0,8.0,0.0,12.0,0.0,0.0,1.0,3.0
0021300899,1610612744,GSW,Golden State,2581,Steve Blake,,,16:48,133.8,101.8,32.0,0.4,6.0,75.0,0.083,0.067,0.074,12.5,0.0,0.0,0.058,91.51,0.071,2014-03-04T00:00:00,2,1610612744,GSW,Golden State,37-24,25,23,25,25,0,0,0,0,0,0,0,0,0,0,98,0.44,0.667,0.5,24,44,10,0021300899,1610612744,GSW,Golden State,Steve Blake,,,16:48,0.0,0.0,0.0,0.0,4.0,4.0,0.0,8.0,0.0,0.0,1.0,1.0
0021300899,1610612744,GSW,Golden State,2581,Steve Blake,,,16:48,133.8,101.8,32.0,0.4,6.0,75.0,0.083,0.067,0.074,12.5,0.0,0.0,0.058,91.51,0.071,2014-03-04T00:00:00,2,1610612754,IND,Indiana,46-14,21,21,28,26,0,0,0,0,0,0,0,0,0,0,96,0.419,0.955,0.188,16,43,8,0021300899,1610612744,GSW,Golden State,Steve Blake,,,16:48,0.0,0.0,0.0,0.0,4.0,4.0,0.0,8.0,0.0,0.0,1.0,1.0
0021300899,1610612744,GSW,Golden State,202348,Jordan Crawford,,,6:46,119.5,104.5,15.0,0.0,0.0,0.0,0.0,0.0,0.0,16.7,0.7,0.7,0.505,82.71,0.171,2014-03-04T00:00:00,2,1610612744,GSW,Golden State,37-24,25,23,25,25,0,0,0,0,0,0,0,0,0,0,98,0.44,0.667,0.5,24,44,10,0021300899,1610612744,GSW,Golden State,Jordan Crawford,,,6:46,0.0,0.0,0.0,2.0,0.0,0.0,0.0,4.0,0.0,0.0,1.0,0.0
0021300899,1610612744,GSW,Golden State,202348,Jordan Crawford,,,6:46,119.5,104.5,15.0,0.0,0.0,0.0,0.0,0.0,0.0,16.7,0.7,0.7,0.505,82.71,0.171,2014-03-04T00:00:00,2,1610612754,IND,Indiana,46-14,21,21,28,26,0,0,0,0,0,0,0,0,0,0,96,0.419,0.955,0.188,16,43,8,0021300899,1610612744,GSW,Golden State,Jordan Crawford,,,6:46,0.0,0.0,0.0,2.0,0.0,0.0,0.0,4.0,0.0,0.0,1.0,0.0
0021300899,1610612744,GSW,Golden State,201578,Marreese Speights,,DNP - Coach's Decision,,,,,,,0.0,,,,,,,0.0,,,2014-03-04T00:00:00,2,1610612744,GSW,Golden State,37-24,25,23,25,25,0,0,0,0,0,0,0,0,0,0,98,0.44,0.667,0.5,24,44,10,0021300899,1610612744,GSW,Golden State,Marreese Speights,,DNP - Coach's Decision,,,,,,,,,,,,,
0021300899,1610612744,GSW,Golden State,201578,Marreese Speights,,DNP - Coach's Decision,,,,,,,0.0,,,,,,,0.0,,,2014-03-04T00:00:00,2,1610612754,IND,Indiana,46-14,21,21,28,26,0,0,0,0,0,0,0,0,0,0,96,0.419,0.955,0.188,16,43,8,0021300899,1610612744,GSW,Golden State,Marreese Speights,,DNP - Coach's Decision,,,,,,,,,,,,,
0021300899,1610612754,IND,Indiana,202331,Paul George,F,,39:43,102.2,100.8,1.4,0.19,4.0,12.7,0.081,0.225,0.156,3.2,0.413,0.49,0.315,95.23,0.168,2014-03-04T00:00:00,2,1610612744,GSW,Golden State,37-24,25,23,25,25,0,0,0,0,0,0,0,0,0,0,98,0.44,0.667,0.5,24,44,10,0021300899,1610612754,IND,Indiana,Paul George,F,,39:43,4.0,3.0,6.0,4.0,9.0,13.0,6.0,24.0,1.0,1.0,2.0,5.0
0021300899,1610612754,IND,Indiana,202331,Paul George,F,,39:43,102.2,100.8,1.4,0.19,4.0,12.7,0.081,0.225,0.156,3.2,0.413,0.49,0.315,95.23,0.168,2014-03-04T00:00:00,2,1610612754,IND,Indiana,46-14,21,21,28,26,0,0,0,0,0,0,0,0,0,0,96,0.419,0.955,0.188,16,43,8,0021300899,1610612754,IND,Indiana,Paul George,F,,39:43,4.0,3.0,6.0,4.0,9.0,13.0,6.0,24.0,1.0,1.0,2.0,5.0
0021300899,1610612754,IND,Indiana,2561,David West,F,,33:33,101.8,87.6,14.2,0.143,0.0,9.1,0.091,0.114,0.103,0.0,0.588,0.672,0.265,97.49,0.267,2014-03-04T00:00:00,2,1610612744,GSW,Golden State,37-24,25,23,25,25,0,0,0,0,0,0,0,0,0,0,98,0.44,0.667,0.5,24,44,10,0021300899,1610612754,IND,Indiana,David West,F,,33:33,6.0,6.0,0.0,18.0,5.0,10.0,6.0,22.0,1.0,1.0,2.0,4.0
0021300899,1610612754,IND,Indiana,2561,David West,F,,33:33,101.8,87.6,14.2,0.143,0.0,9.1,0.091,0.114,0.103,0.0,0.588,0.672,0.265,97.49,0.267,2014-03-04T00:00:00,2,1610612754,IND,Indiana,46-14,21,21,28,26,0,0,0,0,0,0,0,0,0,0,96,0.419,0.955,0.188,16,43,8,0021300899,1610612754,IND,Indiana,David West,F,,33:33,6.0,6.0,0.0,18.0,5.0,10.0,6.0,22.0,1.0,1.0,2.0,4.0
0021300899,1610612754,IND,Indiana,201579,Roy Hibbert,C,,34:06,100.6,93.0,7.5,0.045,0.5,8.5,0.032,0.057,0.045,17.0,0.571,0.685,0.142,96.65,0.079,2014-03-04T00:00:00,2,1610612744,GSW,Golden State,37-24,25,23,25,25,0,0,0,0,0,0,0,0,0,0,98,0.44,0.667,0.5,24,44,10,0021300899,1610612754,IND,Indiana,Roy Hibbert,C,,34:06,0.0,4.0,0.0,2.0,5.0,11.0,8.0,30.0,3.0,1.0,3.0,3.0
0021300899,1610612754,IND,Indiana,201579,Roy Hibbert,C,,34:06,100.6,93.0,7.5,0.045,0.5,8.5,0.032,0.057,0.045,17.0,0.571,0.685,0.142,96.65,0.079,2014-03-04T00:00:00,2,1610612754,IND,Indiana,46-14,21,21,28,26,0,0,0,0,0,0,0,0,0,0,96,0.419,0.955,0.188,16,43,8,0021300899,1610612754,IND,Indiana,Roy Hibbert,C,,34:06,0.0,4.0,0.0,2.0,5.0,11.0,8.0,30.0,3.0,1.0,3.0,3.0
0021300899,1610612754,IND,Indiana,202362,Lance Stephenson,G,,38:29,104.4,96.5,7.9,0.12,1.5,15.8,0.063,0.184,0.129,10.5,0.429,0.429,0.194,94.3,0.104,2014-03-04T00:00:00,2,1610612744,GSW,Golden State,37-24,25,23,25,25,0,0,0,0,0,0,0,0,0,0,98,0.44,0.667,0.5,24,44,10,0021300899,1610612754,IND,Indiana,Lance Stephenson,G,,38:29,0.0,2.0,0.0,10.0,5.0,11.0,8.0,30.0,1.0,3.0,2.0,4.0
0021300899,1610612754,IND,Indiana,202362,Lance Stephenson,G,,38:29,104.4,96.5,7.9,0.12,1.5,15.8,0.063,0.184,0.129,10.5,0.429,0.429,0.194,94.3,0.104,2014-03-04T00:00:00,2,1610612754,IND,Indiana,46-14,21,21,28,26,0,0,0,0,0,0,0,0,0,0,96,0.419,0.955,0.188,16,43,8,0021300899,1610612754,IND,Indiana,Lance Stephenson,G,,38:29,0.0,2.0,0.0,10.0,5.0,11.0,8.0,30.0,1.0,3.0,2.0,4.0
0021300899,1610612754,IND,Indiana,201588,George Hill,G,,35:16,103.4,93.4,10.1,0.125,3.0,21.6,0.0,0.184,0.1,7.2,0.333,0.405,0.144,94.73,0.067,2014-03-04T00:00:00,2,1610612744,GSW,Golden State,37-24,25,23,25,25,0,0,0,0,0,0,0,0,0,0,98,0.44,0.667,0.5,24,44,10,0021300899,1610612754,IND,Indiana,George Hill,G,,35:16,0.0,0.0,0.0,2.0,5.0,13.0,8.0,30.0,0.0,0.0,3.0,4.0
0021300899,1610612754,IND,Indiana,201588,George Hill,G,,35:16,103.4,93.4,10.1,0.125,3.0,21.6,0.0,0.184,0.1,7.2,0.333,0.405,0.144,94.73,0.067,2014-03-04T00:00:00,2,1610612754,IND,Indiana,46-14,21,21,28,26,0,0,0,0,0,0,0,0,0,0,96,0.419,0.955,0.188,16,43,8,0021300899,1610612754,IND,Indiana,George Hill,G,,35:16,0.0,0.0,0.0,2.0,5.0,13.0,8.0,30.0,0.0,0.0,3.0,4.0
0021300899,1610612754,IND,Indiana,101133,Ian Mahinmi,,,13:54,103.7,137.1,-33.5,0.0,0.0,0.0,0.0,0.0,0.0,0.0,0.5,0.5,0.071,87.37,0.01,2014-03-04T00:00:00,2,1610612744,GSW,Golden State,37-24,25,23,25,25,0,0,0,0,0,0,0,0,0,0,98,0.44,0.667,0.5,24,44,10,0021300899,1610612754,IND,Indiana,Ian Mahinmi,,,13:54,0.0,0.0,0.0,0.0,4.0,2.0,0.0,2.0,1.0,0.0,2.0,0.0
0021300899,1610612754,IND,Indiana,101133,Ian Mahinmi,,,13:54,103.7,137.1,-33.5,0.0,0.0,0.0,0.0,0.0,0.0,0.0,0.5,0.5,0.071,87.37,0.01,2014-03-04T00:00:00,2,1610612754,IND,Indiana,46-14,21,21,28,26,0,0,0,0,0,0,0,0,0,0,96,0.419,0.955,0.188,16,43,8,0021300899,1610612754,IND,Indiana,Ian Mahinmi,,,13:54,0.0,0.0,0.0,0.0,4.0,2.0,0.0,2.0,1.0,0.0,2.0,0.0
0021300899,1610612754,IND,Indiana,202323,Evan Turner,,,17:44,92.5,138.4,-45.9,0.083,0.0,16.7,0.0,0.3,0.111,0.0,0.0,0.0,0.133,89.38,-0.05,2014-03-04T00:00:00,2,1610612744,GSW,Golden State,37-24,25,23,25,25,0,0,0,0,0,0,0,0,0,0,98,0.44,0.667,0.5,24,44,10,0021300899,1610612754,IND,Indiana,Evan Turner,,,17:44,0.0,0.0,0.0,0.0,4.0,2.0,2.0,10.0,0.0,0.0,2.0,0.0
0021300899,1610612754,IND,Indiana,202323,Evan Turner,,,17:44,92.5,138.4,-45.9,0.083,0.0,16.7,0.0,0.3,0.111,0.0,0.0,0.0,0.133,89.38,-0.05,2014-03-04T00:00:00,2,1610612754,IND,Indiana,46-14,21,21,28,26,0,0,0,0,0,0,0,0,0,0,96,0.419,0.955,0.188,16,43,8,0021300899,1610612754,IND,Indiana,Evan Turner,,,17:44,0.0,0.0,0.0,0.0,4.0,2.0,2.0,10.0,0.0,0.0,2.0,0.0
0021300899,1610612754,IND,Indiana,201228,C.J. Watson,,,12:48,95.7,133.9,-38.2,0.222,2.0,36.8,0.0,0.167,0.059,18.4,0.0,0.205,0.123,93.23,-0.023,2014-03-04T00:00:00,2,1610612744,GSW,Golden State,37-24,25,23,25,25,0,0,0,0,0,0,0,0,0,0,98,0.44,0.667,0.5,24,44,10,0021300899,1610612754,IND,Indiana,C.J. Watson,,,12:48,0.0,0.0,0.0,0.0,4.0,0.0,0.0,2.0,0.0,0.0,2.0,1.0
0021300899,1610612754,IND,Indiana,201228,C.J. Watson,,,12:48,95.7,133.9,-38.2,0.222,2.0,36.8,0.0,0.167,0.059,18.4,0.0,0.205,0.123,93.23,-0.023,2014-03-04T00:00:00,2,1610612754,IND,Indiana,46-14,21,21,28,26,0,0,0,0,0,0,0,0,0,0,96,0.419,0.955,0.188,16,43,8,0021300899,1610612754,IND,Indiana,C.J. Watson,,,12:48,0.0,0.0,0.0,0.0,4.0,0.0,0.0,2.0,0.0,0.0,2.0,1.0
0021300899,1610612754,IND,Indiana,2449,Luis Scola,,,14:27,100.4,153.5,-53.0,0.0,0.0,0.0,0.0,0.111,0.053,12.5,0.571,0.571,0.287,85.77,0.048,2014-03-04T00:00:00,2,1610612744,GSW,Golden State,37-24,25,23,25,25,0,0,0,0,0,0,0,0,0,0,98,0.44,0.667,0.5,24,44,10,0021300899,1610612754,IND,Indiana,Luis Scola,,,14:27,0.0,0.0,0.0,0.0,4.0,3.0,2.0,10.0,0.0,0.0,2.0,0.0
0021300899,1610612754,IND,Indiana,2449,Luis Scola,,,14:27,100.4,153.5,-53.0,0.0,0.0,0.0,0.0,0.111,0.053,12.5,0.571,0.571,0.287,85.77,0.048,2014-03-04T00:00:00,2,1610612754,IND,Indiana,46-14,21,21,28,26,0,0,0,0,0,0,0,0,0,0,96,0.419,0.955,0.188,16,43,8,0021300899,1610612754,IND,Indiana,Luis Scola,,,14:27,0.0,0.0,0.0,0.0,4.0,3.0,2.0,10.0,0.0,0.0,2.0,0.0
0021300899,1610612754,IND,Indiana,202730,Lavoy Allen,,DNP - Coach's Decision,,,,,,,0.0,,,,,,,0.0,,,2014-03-04T00:00:00,2,1610612744,GSW,Golden State,37-24,25,23,25,25,0,0,0,0,0,0,0,0,0,0,98,0.44,0.667,0.5,24,44,10,0021300899,1610612754,IND,Indiana,Lavoy Allen,,DNP - Coach's Decision,,,,,,,,,,,,,
0021300899,1610612754,IND,Indiana,202730,Lavoy Allen,,DNP - Coach's Decision,,,,,,,0.0,,,,,,,0.0,,,2014-03-04T00:00:00,2,1610612754,IND,Indiana,46-14,21,21,28,26,0,0,0,0,0,0,0,0,0,0,96,0.419,0.955,0.188,16,43,8,0021300899,1610612754,IND,Indiana,Lavoy Allen,,DNP - Coach's Decision,,,,,,,,,,,,,
0021300899,1610612754,IND,Indiana,2446,Rasual Butler,,DNP - Coach's Decision,,,,,,,0.0,,,,,,,0.0,,,2014-03-04T00:00:00,2,1610612744,GSW,Golden State,37-24,25,23,25,25,0,0,0,0,0,0,0,0,0,0,98,0.44,0.667,0.5,24,44,10,0021300899,1610612754,IND,Indiana,Rasual Butler,,DNP - Coach's Decision,,,,,,,,,,,,,
0021300899,1610612754,IND,Indiana,2446,Rasual Butler,,DNP - Coach's Decision,,,,,,,0.0,,,,,,,0.0,,,2014-03-04T00:00:00,2,1610612754,IND,Indiana,46-14,21,21,28,26,0,0,0,0,0,0,0,0,0,0,96,0.419,0.955,0.188,16,43,8,0021300899,1610612754,IND,Indiana,Rasual Butler,,DNP - Coach's Decision,,,,,,,,,,,,,
0021300899,1610612754,IND,Indiana,203142,Chris Copeland,,DNP - Coach's Decision,,,,,,,0.0,,,,,,,0.0,,,2014-03-04T00:00:00,2,1610612744,GSW,Golden State,37-24,25,23,25,25,0,0,0,0,0,0,0,0,0,0,98,0.44,0.667,0.5,24,44,10,0021300899,1610612754,IND,Indiana,Chris Copeland,,DNP - Coach's Decision,,,,,,,,,,,,,
0021300899,1610612754,IND,Indiana,203142,Chris Copeland,,DNP - Coach's Decision,,,,,,,0.0,,,,,,,0.0,,,2014-03-04T00:00:00,2,1610612754,IND,Indiana,46-14,21,21,28,26,0,0,0,0,0,0,0,0,0,0,96,0.419,0.955,0.188,16,43,8,0021300899,1610612754,IND,Indiana,Chris Copeland,,DNP - Coach's Decision,,,,,,,,,,,,,
0021300899,1610612754,IND,Indiana,202388,Donald Sloan,,DNP - Coach's Decision,,,,,,,0.0,,,,,,,0.0,,,2014-03-04T00:00:00,2,1610612744,GSW,Golden State,37-24,25,23,25,25,0,0,0,0,0,0,0,0,0,0,98,0.44,0.667,0.5,24,44,10,0021300899,1610612754,IND,Indiana,Donald Sloan,,DNP - Coach's Decision,,,,,,,,,,,,,
0021300899,1610612754,IND,Indiana,202388,Donald Sloan,,DNP - Coach's Decision,,,,,,,0.0,,,,,,,0.0,,,2014-03-04T00:00:00,2,1610612754,IND,Indiana,46-14,21,21,28,26,0,0,0,0,0,0,0,0,0,0,96,0.419,0.955,0.188,16,43,8,0021300899,1610612754,IND,Indiana,Donald Sloan,,DNP - Coach's Decision,,,,,,,,,,,,,
