GAME_ID_x,TEAM_ID_x,TEAM_ABBREVIATION_x,TEAM_CITY_x,PLAYER_ID,PLAYER_NAME_x,START_POSITION_x,COMMENT_x,MIN_x,OFF_RATING,DEF_RATING,NET_RATING,AST_PCT,AST_TOV,AST_RATIO,OREB_PCT,DREB_PCT,REB_PCT,TM_TOV_PCT,EFG_PCT,TS_PCT,USG_PCT,PACE,PIE,GAME_DATE_EST,GAME_SEQUENCE,TEAM_ID_y,TEAM_ABBREVIATION_y,TEAM_CITY_NAME,TEAM_WINS_LOSSES,PTS_QTR1,PTS_QTR2,PTS_QTR3,PTS_QTR4,PTS_OT1,PTS_OT2,PTS_OT3,PTS_OT4,PTS_OT5,PTS_OT6,PTS_OT7,PTS_OT8,PTS_OT9,PTS_OT10,PTS,FG_PCT,FT_PCT,FG3_PCT,AST,REB,TOV,GAME_ID_y,TEAM_ID,TEAM_ABBREVIATION,TEAM_CITY_y,PLAYER_NAME_y,START_POSITION_y,COMMENT_y,MIN_y,PTS_OFF_TOV,PTS_2ND_CHANCE,PTS_FB,PTS_PAINT,OPP_PTS_OFF_TOV,OPP_PTS_2ND_CHANCE,OPP_PTS_FB,OPP_PTS_PAINT,BLK,BLKA,PF,PFD
0021300910,1610612758,SAC,Sacramento,200752,Rudy Gay,F,,34:57,132.4,117.9,14.5,0.222,1.2,20.2,0.038,0.188,0.121,16.9,0.5,0.59,0.295,94.85,0.134,2014-03-05T00:00:00,7,1610612758,SAC,Sacramento,22-39,28,33,34,21,0,0,0,0,0,0,0,0,0,0,116,0.518,0.813,0.286,21,46,9,0021300910,1610612758,SAC,Sacramento,Rudy Gay,F,,34:57,0.0,5.0,0.0,14.0,5.0,6.0,7.0,30.0,0.0,0.0,3.0,5.0
0021300910,1610612758,SAC,Sacramento,200752,Rudy Gay,F,,34:57,132.4,117.9,14.5,0.222,1.2,20.2,0.038,0.188,0.121,16.9,0.5,0.59,0.295,94.85,0.134,2014-03-05T00:00:00,7,1610612749,MIL,Milwaukee,12-48,26,22,26,28,0,0,0,0,0,0,0,0,0,0,102,0.439,0.828,0.353,25,37,8,0021300910,1610612758,SAC,Sacramento,Rudy Gay,F,,34:57,0.0,5.0,0.0,14.0,5.0,6.0,7.0,30.0,0.0,0.0,3.0,5.0
0021300910,1610612758,SAC,Sacramento,201574,Jason Thompson,F,,24:18,116.5,115.9,0.6,0.0,0.0,0.0,0.261,0.304,0.283,0.0,0.444,0.444,0.158,93.49,0.116,2014-03-05T00:00:00,7,1610612758,SAC,Sacramento,22-39,28,33,34,21,0,0,0,0,0,0,0,0,0,0,116,0.518,0.813,0.286,21,46,9,0021300910,1610612758,SAC,Sacramento,Jason Thompson,F,,24:18,2.0,2.0,2.0,8.0,3.0,4.0,5.0,20.0,1.0,0.0,2.0,2.0
0021300910,1610612758,SAC,Sacramento,201574,Jason Thompson,F,,24:18,116.5,115.9,0.6,0.0,0.0,0.0,0.261,0.304,0.283,0.0,0.444,0.444,0.158,93.49,0.116,2014-03-05T00:00:00,7,1610612749,MIL,Milwaukee,12-48,26,22,26,28,0,0,0,0,0,0,0,0,0,0,102,0.439,0.828,0.353,25,37,8,0021300910,1610612758,SAC,Sacramento,Jason Thompson,F,,24:18,2.0,2.0,2.0,8.0,3.0,4.0,5.0,20.0,1.0,0.0,2.0,2.0
0021300910,1610612758,SAC,Sacramento,202326,DeMarcus Cousins,C,,31:21,126.6,103.6,23.1,0.238,2.5,20.0,0.08,0.286,0.189,8.0,0.5,0.585,0.294,90.87,0.162,2014-03-05T00:00:00,7,1610612758,SAC,Sacramento,22-39,28,33,34,21,0,0,0,0,0,0,0,0,0,0,116,0.518,0.813,0.286,21,46,9,0021300910,1610612758,SAC,Sacramento,DeMarcus Cousins,C,,31:21,2.0,2.0,6.0,8.0,0.0,5.0,5.0,22.0,0.0,0.0,5.0,6.0
0021300910,1610612758,SAC,Sacramento,202326,DeMarcus Cousins,C,,31:21,126.6,103.6,23.1,0.238,2.5,20.0,0.08,0.286,0.189,8.0,0.5,0.585,0.294,90.87,0.162,2014-03-05T00:00:00,7,1610612749,MIL,Milwaukee,12-48,26,22,26,28,0,0,0,0,0,0,0,0,0,0,102,0.439,0.828,0.353,25,37,8,0021300910,1610612758,SAC,Sacramento,DeMarcus Cousins,C,,31:21,2.0,2.0,6.0,8.0,0.0,5.0,5.0,22.0,0.0,0.0,5.0,6.0
0021300910,1610612758,SAC,Sacramento,203463,Ben McLemore,G,,26:03,114.1,121.3,-7.2,0.048,0.0,16.7,0.0,0.091,0.044,0.0,0.4,0.4,0.086,91.64,0.034,2014-03-05T00:00:00,7,1610612758,SAC,Sacramento,22-39,28,33,34,21,0,0,0,0,0,0,0,0,0,0,116,0.518,0.813,0.286,21,46,9,0021300910,1610612758,SAC,Sacramento,Ben McLemore,G,,26:03,2.0,0.0,2.0,2.0,3.0,4.0,5.0,22.0,1.0,0.0,1.0,0.0
0021300910,1610612758,SAC,Sacramento,203463,Ben McLemore,G,,26:03,114.1,121.3,-7.2,0.048,0.0,16.7,0.0,0.091,0.044,0.0,0.4,0.4,0.086,91.64,0.034,2014-03-05T00:00:00,7,1610612749,MIL,Milwaukee,12-48,26,22,26,28,0,0,0,0,0,0,0,0,0,0,102,0.439,0.828,0.353,25,37,8,0021300910,1610612758,SAC,Sacramento,Ben McLemore,G,,26:03,2.0,0.0,2.0,2.0,3.0,4.0,5.0,22.0,1.0,0.0,1.0,0.0
0021300910,1610612758,SAC,Sacramento,202738,Isaiah Thomas,G,,32:52,130.5,105.5,25.0,0.273,3.0,23.3,0.0,0.091,0.052,7.8,0.656,0.704,0.262,96.36,0.188,2014-03-05T00:00:00,7,1610612758,SAC,Sacramento,22-39,28,33,34,21,0,0,0,0,0,0,0,0,0,0,116,0.518,0.813,0.286,21,46,9,0021300910,1610612758,SAC,Sacramento,Isaiah Thomas,G,,32:52,2.0,0.0,3.0,6.0,6.0,5.0,5.0,26.0,0.0,0.0,3.0,2.0
0021300910,1610612758,SAC,Sacramento,202738,Isaiah Thomas,G,,32:52,130.5,105.5,25.0,0.273,3.0,23.3,0.0,0.091,0.052,7.8,0.656,0.704,0.262,96.36,0.188,2014-03-05T00:00:00,7,1610612749,MIL,Milwaukee,12-48,26,22,26,28,0,0,0,0,0,0,0,0,0,0,102,0.439,0.828,0.353,25,37,8,0021300910,1610612758,SAC,Sacramento,Isaiah Thomas,G,,32:52,2.0,0.0,3.0,6.0,6.0,5.0,5.0,26.0,0.0,0.0,3.0,2.0
0021300910,1610612758,SAC,Sacramento,203492,Ray McCallum,,,30:46,120.3,113.9,6.4,0.056,0.0,9.1,0.045,0.1,0.077,0.0,0.75,0.75,0.154,91.89,0.138,2014-03-05T00:00:00,7,1610612758,SAC,Sacramento,22-39,28,33,34,21,0,0,0,0,0,0,0,0,0,0,116,0.518,0.813,0.286,21,46,9,0021300910,1610612758,SAC,Sacramento,Ray McCallum,,,30:46,2.0,0.0,0.0,4.0,5.0,7.0,8.0,34.0,0.0,0.0,1.0,0.0
0021300910,1610612758,SAC,Sacramento,203492,Ray McCallum,,,30:46,120.3,113.9,6.4,0.056,0.0,9.1,0.045,0.1,0.077,0.0,0.75,0.75,0.154,91.89,0.138,2014-03-05T00:00:00,7,1610612749,MIL,Milwaukee,12-48,26,22,26,28,0,0,0,0,0,0,0,0,0,0,102,0.439,0.828,0.353,25,37,8,0021300910,1610612758,SAC,Sacramento,Ray McCallum,,,30:46,2.0,0.0,0.0,4.0,5.0,7.0,8.0,34.0,0.0,0.0,1.0,0.0
0021300910,1610612758,SAC,Sacramento,203112,Quincy Acy,,,13:13,116.3,126.4,-10.1,0.0,0.0,0.0,0.091,0.0,0.048,0.0,0.4,0.51,0.217,88.24,0.03,2014-03-05T00:00:00,7,1610612758,SAC,Sacramento,22-39,28,33,34,21,0,0,0,0,0,0,0,0,0,0,116,0.518,0.813,0.286,21,46,9,0021300910,1610612758,SAC,Sacramento,Quincy Acy,,,13:13,2.0,2.0,2.0,2.0,4.0,2.0,4.0,16.0,0.0,0.0,2.0,2.0
0021300910,1610612758,SAC,Sacramento,203112,Quincy Acy,,,13:13,116.3,126.4,-10.1,0.0,0.0,0.0,0.091,0.0,0.048,0.0,0.4,0.51,0.217,88.24,0.03,2014-03-05T00:00:00,7,1610612749,MIL,Milwaukee,12-48,26,22,26,28,0,0,0,0,0,0,0,0,0,0,102,0.439,0.828,0.353,25,37,8,0021300910,1610612758,SAC,Sacramento,Quincy Acy,,,13:13,2.0,2.0,2.0,2.0,4.0,2.0,4.0,16.0,0.0,0.0,2.0,2.0
0021300910,1610612758,SAC,Sacramento,202682,Derrick Williams,,,12:39,113.3,79.1,34.2,0.111,0.0,22.5,0.0,0.091,0.045,0.0,0.333,0.291,0.133,88.4,0.028,2014-03-05T00:00:00,7,1610612758,SAC,Sacramento,22-39,28,33,34,21,0,0,0,0,0,0,0,0,0,0,116,0.518,0.813,0.286,21,46,9,0021300910,1610612758,SAC,Sacramento,Derrick Williams,,,12:39,0.0,0.0,0.0,2.0,2.0,0.0,2.0,6.0,0.0,2.0,0.0,1.0
0021300910,1610612758,SAC,Sacramento,202682,Derrick Williams,,,12:39,113.3,79.1,34.2,0.111,0.0,22.5,0.0,0.091,0.045,0.0,0.333,0.291,0.133,88.4,0.028,2014-03-05T00:00:00,7,1610612749,MIL,Milwaukee,12-48,26,22,26,28,0,0,0,0,0,0,0,0,0,0,102,0.439,0.828,0.353,25,37,8,0021300910,1610612758,SAC,Sacramento,Derrick Williams,,,12:39,0.0,0.0,0.0,2.0,2.0,0.0,2.0,6.0,0.0,2.0,0.0,1.0
0021300910,1610612758,SAC,Sacramento,2501,Reggie Evans,,,27:07,128.6,108.3,20.3,0.05,0.0,10.6,0.059,0.138,0.109,0.0,0.75,0.774,0.14,97.06,0.094,2014-03-05T00:00:00,7,1610612758,SAC,Sacramento,22-39,28,33,34,21,0,0,0,0,0,0,0,0,0,0,116,0.518,0.813,0.286,21,46,9,0021300910,1610612758,SAC,Sacramento,Reggie Evans,,,27:07,0.0,4.0,2.0,6.0,7.0,5.0,4.0,26.0,0.0,0.0,5.0,6.0
0021300910,1610612758,SAC,Sacramento,2501,Reggie Evans,,,27:07,128.6,108.3,20.3,0.05,0.0,10.6,0.059,0.138,0.109,0.0,0.75,0.774,0.14,97.06,0.094,2014-03-05T00:00:00,7,1610612749,MIL,Milwaukee,12-48,26,22,26,28,0,0,0,0,0,0,0,0,0,0,102,0.439,0.828,0.353,25,37,8,0021300910,1610612758,SAC,Sacramento,Reggie Evans,,,27:07,0.0,4.0,2.0,6.0,7.0,5.0,4.0,26.0,0.0,0.0,5.0,6.0
0021300910,1610612758,SAC,Sacramento,203111,Orlando Johnson,,,6:44,102.0,109.4,-7.4,0.0,0.0,0.0,0.0,0.0,0.0,0.0,0.0,0.0,0.073,84.26,-0.083,2014-03-05T00:00:00,7,1610612758,SAC,Sacramento,22-39,28,33,34,21,0,0,0,0,0,0,0,0,0,0,116,0.518,0.813,0.286,21,46,9,0021300910,1610612758,SAC,Sacramento,Orlando Johnson,,,6:44,0.0,0.0,0.0,0.0,0.0,2.0,0.0,8.0,1.0,0.0,1.0,0.0
0021300910,1610612758,SAC,Sacramento,203111,Orlando Johnson,,,6:44,102.0,109.4,-7.4,0.0,0.0,0.0,0.0,0.0,0.0,0.0,0.0,0.0,0.073,84.26,-0.083,2014-03-05T00:00:00,7,1610612749,MIL,Milwaukee,12-48,26,22,26,28,0,0,0,0,0,0,0,0,0,0,102,0.439,0.828,0.353,25,37,8,0021300910,1610612758,SAC,Sacramento,Orlando Johnson,,,6:44,0.0,0.0,0.0,0.0,0.0,2.0,0.0,8.0,1.0,0.0,1.0,0.0
0021300910,1610612758,SAC,Sacramento,201189,Aaron Gray,,DNP - Coach's Decision,,,,,,,0.0,,,,,,,0.0,,,2014-03-05T00:00:00,7,1610612758,SAC,Sacramento,22-39,28,33,34,21,0,0,0,0,0,0,0,0,0,0,116,0.518,0.813,0.286,21,46,9,0021300910,1610612758,SAC,Sacramento,Aaron Gray,,DNP - Coach's Decision,,,,,,,,,,,,,
0021300910,1610612758,SAC,Sacramento,201189,Aaron Gray,,DNP - Coach's Decision,,,,,,,0.0,,,,,,,0.0,,,2014-03-05T00:00:00,7,1610612749,MIL,Milwaukee,12-48,26,22,26,28,0,0,0,0,0,0,0,0,0,0,102,0.439,0.828,0.353,25,37,8,0021300910,1610612758,SAC,Sacramento,Aaron Gray,,DNP - Coach's Decision,,,,,,,,,,,,,
0021300910,1610612758,SAC,Sacramento,2566,Travis Outlaw,,DNP - Coach's Decision,,,,,,,0.0,,,,,,,0.0,,,2014-03-05T00:00:00,7,1610612758,SAC,Sacramento,22-39,28,33,34,21,0,0,0,0,0,0,0,0,0,0,116,0.518,0.813,0.286,21,46,9,0021300910,1610612758,SAC,Sacramento,Travis Outlaw,,DNP - Coach's Decision,,,,,,,,,,,,,
0021300910,1610612758,SAC,Sacramento,2566,Travis Outlaw,,DNP - Coach's Decision,,,,,,,0.0,,,,,,,0.0,,,2014-03-05T00:00:00,7,1610612749,MIL,Milwaukee,12-48,26,22,26,28,0,0,0,0,0,0,0,0,0,0,102,0.439,0.828,0.353,25,37,8,0021300910,1610612758,SAC,Sacramento,Travis Outlaw,,DNP - Coach's Decision,,,,,,,,,,,,,
0021300910,1610612749,MIL,Milwaukee,203114,Khris Middleton,F,,29:25,98.4,129.7,-31.4,0.067,0.0,6.3,0.0,0.174,0.074,0.0,0.357,0.37,0.233,94.05,0.04,2014-03-05T00:00:00,7,1610612758,SAC,Sacramento,22-39,28,33,34,21,0,0,0,0,0,0,0,0,0,0,116,0.518,0.813,0.286,21,46,9,0021300910,1610612749,MIL,Milwaukee,Khris Middleton,F,,29:25,0.0,0.0,0.0,0.0,8.0,13.0,15.0,36.0,1.0,0.0,3.0,3.0
0021300910,1610612749,MIL,Milwaukee,203114,Khris Middleton,F,,29:25,98.4,129.7,-31.4,0.067,0.0,6.3,0.0,0.174,0.074,0.0,0.357,0.37,0.233,94.05,0.04,2014-03-05T00:00:00,7,1610612749,MIL,Milwaukee,12-48,26,22,26,28,0,0,0,0,0,0,0,0,0,0,102,0.439,0.828,0.353,25,37,8,0021300910,1610612749,MIL,Milwaukee,Khris Middleton,F,,29:25,0.0,0.0,0.0,0.0,8.0,13.0,15.0,36.0,1.0,0.0,3.0,3.0
0021300910,1610612749,MIL,Milwaukee,101141,Ersan Ilyasova,F,,29:43,111.8,133.7,-21.9,0.105,0.0,17.0,0.069,0.136,0.098,0.0,0.375,0.461,0.154,92.63,0.04,2014-03-05T00:00:00,7,1610612758,SAC,Sacramento,22-39,28,33,34,21,0,0,0,0,0,0,0,0,0,0,116,0.518,0.813,0.286,21,46,9,0021300910,1610612749,MIL,Milwaukee,Ersan Ilyasova,F,,29:43,0.0,3.0,0.0,2.0,8.0,13.0,15.0,34.0,0.0,1.0,4.0,3.0
0021300910,1610612749,MIL,Milwaukee,101141,Ersan Ilyasova,F,,29:43,111.8,133.7,-21.9,0.105,0.0,17.0,0.069,0.136,0.098,0.0,0.375,0.461,0.154,92.63,0.04,2014-03-05T00:00:00,7,1610612749,MIL,Milwaukee,12-48,26,22,26,28,0,0,0,0,0,0,0,0,0,0,102,0.439,0.828,0.353,25,37,8,0021300910,1610612749,MIL,Milwaukee,Ersan Ilyasova,F,,29:43,0.0,3.0,0.0,2.0,8.0,13.0,15.0,34.0,0.0,1.0,4.0,3.0
0021300910,1610612749,MIL,Milwaukee,2585,Zaza Pachulia,C,,16:23,94.6,136.1,-41.5,0.3,1.0,27.3,0.0,0.071,0.037,27.3,0.4,0.4,0.245,92.23,-0.026,2014-03-05T00:00:00,7,1610612758,SAC,Sacramento,22-39,28,33,34,21,0,0,0,0,0,0,0,0,0,0,116,0.518,0.813,0.286,21,46,9,0021300910,1610612749,MIL,Milwaukee,Zaza Pachulia,C,,16:23,0.0,0.0,0.0,2.0,8.0,4.0,11.0,22.0,0.0,1.0,4.0,0.0
0021300910,1610612749,MIL,Milwaukee,2585,Zaza Pachulia,C,,16:23,94.6,136.1,-41.5,0.3,1.0,27.3,0.0,0.071,0.037,27.3,0.4,0.4,0.245,92.23,-0.026,2014-03-05T00:00:00,7,1610612749,MIL,Milwaukee,12-48,26,22,26,28,0,0,0,0,0,0,0,0,0,0,102,0.439,0.828,0.353,25,37,8,0021300910,1610612749,MIL,Milwaukee,Zaza Pachulia,C,,16:23,0.0,0.0,0.0,2.0,8.0,4.0,11.0,22.0,0.0,1.0,4.0,0.0
0021300910,1610612749,MIL,Milwaukee,203489,Nate Wolters,G,,23:33,111.0,117.4,-6.4,0.143,2.0,22.2,0.0,0.111,0.045,11.1,0.667,0.667,0.132,91.03,0.103,2014-03-05T00:00:00,7,1610612758,SAC,Sacramento,22-39,28,33,34,21,0,0,0,0,0,0,0,0,0,0,116,0.518,0.813,0.286,21,46,9,0021300910,1610612749,MIL,Milwaukee,Nate Wolters,G,,23:33,0.0,0.0,0.0,8.0,4.0,7.0,13.0,20.0,0.0,0.0,0.0,0.0
0021300910,1610612749,MIL,Milwaukee,203489,Nate Wolters,G,,23:33,111.0,117.4,-6.4,0.143,2.0,22.2,0.0,0.111,0.045,11.1,0.667,0.667,0.132,91.03,0.103,2014-03-05T00:00:00,7,1610612749,MIL,Milwaukee,12-48,26,22,26,28,0,0,0,0,0,0,0,0,0,0,102,0.439,0.828,0.353,25,37,8,0021300910,1610612749,MIL,Milwaukee,Nate Wolters,G,,23:33,0.0,0.0,0.0,8.0,4.0,7.0,13.0,20.0,0.0,0.0,0.0,0.0
0021300910,1610612749,MIL,Milwaukee,202688,Brandon Knight,G,,32:49,113.9,127.6,-13.8,0.316,6.0,24.6,0.03,0.167,0.088,4.1,0.615,0.718,0.254,92.59,0.208,2014-03-05T00:00:00,7,1610612758,SAC,Sacramento,22-39,28,33,34,21,0,0,0,0,0,0,0,0,0,0,116,0.518,0.813,0.286,21,46,9,0021300910,1610612749,MIL,Milwaukee,Brandon Knight,G,,32:49,0.0,2.0,3.0,8.0,10.0,11.0,15.0,32.0,0.0,0.0,0.0,8.0
0021300910,1610612749,MIL,Milwaukee,202688,Brandon Knight,G,,32:49,113.9,127.6,-13.8,0.316,6.0,24.6,0.03,0.167,0.088,4.1,0.615,0.718,0.254,92.59,0.208,2014-03-05T00:00:00,7,1610612749,MIL,Milwaukee,12-48,26,22,26,28,0,0,0,0,0,0,0,0,0,0,102,0.439,0.828,0.353,25,37,8,0021300910,1610612749,MIL,Milwaukee,Brandon Knight,G,,32:49,0.0,2.0,3.0,8.0,10.0,11.0,15.0,32.0,0.0,0.0,0.0,8.0
0021300910,1610612749,MIL,Milwaukee,203507,Giannis Antetokounmpo,,,17:43,123.0,126.0,-3.0,0.214,0.0,37.5,0.0,0.077,0.04,0.0,0.5,0.5,0.139,95.75,0.032,2014-03-05T00:00:00,7,1610612758,SAC,Sacramento,22-39,28,33,34,21,0,0,0,0,0,0,0,0,0,0,116,0.518,0.813,0.286,21,46,9,0021300910,1610612749,MIL,Milwaukee,Giannis Antetokounmpo,,,17:43,0.0,0.0,0.0,2.0,6.0,4.0,4.0,22.0,1.0,0.0,4.0,0.0
0021300910,1610612749,MIL,Milwaukee,203507,Giannis Antetokounmpo,,,17:43,123.0,126.0,-3.0,0.214,0.0,37.5,0.0,0.077,0.04,0.0,0.5,0.5,0.139,95.75,0.032,2014-03-05T00:00:00,7,1610612749,MIL,Milwaukee,12-48,26,22,26,28,0,0,0,0,0,0,0,0,0,0,102,0.439,0.828,0.353,25,37,8,0021300910,1610612749,MIL,Milwaukee,Giannis Antetokounmpo,,,17:43,0.0,0.0,0.0,2.0,6.0,4.0,4.0,22.0,1.0,0.0,4.0,0.0
0021300910,1610612749,MIL,Milwaukee,203089,John Henson,,,24:15,116.5,124.7,-8.2,0.067,0.0,11.4,0.208,0.1,0.159,0.0,0.333,0.387,0.145,93.51,0.028,2014-03-05T00:00:00,7,1610612758,SAC,Sacramento,22-39,28,33,34,21,0,0,0,0,0,0,0,0,0,0,116,0.518,0.813,0.286,21,46,9,0021300910,1610612749,MIL,Milwaukee,John Henson,,,24:15,3.0,1.0,0.0,4.0,4.0,9.0,4.0,28.0,0.0,0.0,3.0,3.0
0021300910,1610612749,MIL,Milwaukee,203089,John Henson,,,24:15,116.5,124.7,-8.2,0.067,0.0,11.4,0.208,0.1,0.159,0.0,0.333,0.387,0.145,93.51,0.028,2014-03-05T00:00:00,7,1610612749,MIL,Milwaukee,12-48,26,22,26,28,0,0,0,0,0,0,0,0,0,0,102,0.439,0.828,0.353,25,37,8,0021300910,1610612749,MIL,Milwaukee,John Henson,,,24:15,3.0,1.0,0.0,4.0,4.0,9.0,4.0,28.0,0.0,0.0,3.0,3.0
0021300910,1610612749,MIL,Milwaukee,201564,O.J. Mayo,,,19:37,121.8,115.3,6.5,0.083,1.0,8.4,0.0,0.158,0.088,8.4,0.333,0.405,0.275,94.99,0.053,2014-03-05T00:00:00,7,1610612758,SAC,Sacramento,22-39,28,33,34,21,0,0,0,0,0,0,0,0,0,0,116,0.518,0.813,0.286,21,46,9,0021300910,1610612749,MIL,Milwaukee,O.J. Mayo,,,19:37,2.0,0.0,0.0,0.0,2.0,6.0,2.0,24.0,0.0,0.0,1.0,1.0
0021300910,1610612749,MIL,Milwaukee,201564,O.J. Mayo,,,19:37,121.8,115.3,6.5,0.083,1.0,8.4,0.0,0.158,0.088,8.4,0.333,0.405,0.275,94.99,0.053,2014-03-05T00:00:00,7,1610612749,MIL,Milwaukee,12-48,26,22,26,28,0,0,0,0,0,0,0,0,0,0,102,0.439,0.828,0.353,25,37,8,0021300910,1610612749,MIL,Milwaukee,O.J. Mayo,,,19:37,2.0,0.0,0.0,0.0,2.0,6.0,2.0,24.0,0.0,0.0,1.0,1.0
0021300910,1610612749,MIL,Milwaukee,201196,Ramon Sessions,,,17:26,92.8,124.6,-31.7,0.375,1.5,25.5,0.067,0.143,0.103,17.0,0.5,0.666,0.247,92.4,0.137,2014-03-05T00:00:00,7,1610612758,SAC,Sacramento,22-39,28,33,34,21,0,0,0,0,0,0,0,0,0,0,116,0.518,0.813,0.286,21,46,9,0021300910,1610612749,MIL,Milwaukee,Ramon Sessions,,,17:26,2.0,0.0,6.0,2.0,6.0,4.0,2.0,22.0,0.0,1.0,1.0,2.0
0021300910,1610612749,MIL,Milwaukee,201196,Ramon Sessions,,,17:26,92.8,124.6,-31.7,0.375,1.5,25.5,0.067,0.143,0.103,17.0,0.5,0.666,0.247,92.4,0.137,2014-03-05T00:00:00,7,1610612749,MIL,Milwaukee,12-48,26,22,26,28,0,0,0,0,0,0,0,0,0,0,102,0.439,0.828,0.353,25,37,8,0021300910,1610612749,MIL,Milwaukee,Ramon Sessions,,,17:26,2.0,0.0,6.0,2.0,6.0,4.0,2.0,22.0,0.0,1.0,1.0,2.0
0021300910,1610612749,MIL,Milwaukee,202399,Jeff Adrien,,,22:09,108.4,106.1,2.3,0.091,0.0,8.8,0.048,0.235,0.132,0.0,0.667,0.727,0.214,94.96,0.196,2014-03-05T00:00:00,7,1610612758,SAC,Sacramento,22-39,28,33,34,21,0,0,0,0,0,0,0,0,0,0,116,0.518,0.813,0.286,21,46,9,0021300910,1610612749,MIL,Milwaukee,Jeff Adrien,,,22:09,0.0,2.0,0.0,12.0,4.0,4.0,4.0,20.0,0.0,0.0,4.0,3.0
0021300910,1610612749,MIL,Milwaukee,202399,Jeff Adrien,,,22:09,108.4,106.1,2.3,0.091,0.0,8.8,0.048,0.235,0.132,0.0,0.667,0.727,0.214,94.96,0.196,2014-03-05T00:00:00,7,1610612749,MIL,Milwaukee,12-48,26,22,26,28,0,0,0,0,0,0,0,0,0,0,102,0.439,0.828,0.353,25,37,8,0021300910,1610612749,MIL,Milwaukee,Jeff Adrien,,,22:09,0.0,2.0,0.0,12.0,4.0,4.0,4.0,20.0,0.0,0.0,4.0,3.0
0021300910,1610612749,MIL,Milwaukee,203545,Miroslav Raduljica,,,3:30,170.1,66.7,103.4,0.5,0.0,100.0,0.0,0.0,0.0,0.0,0.0,0.0,0.0,81.62,0.174,2014-03-05T00:00:00,7,1610612758,SAC,Sacramento,22-39,28,33,34,21,0,0,0,0,0,0,0,0,0,0,116,0.518,0.813,0.286,21,46,9,0021300910,1610612749,MIL,Milwaukee,Miroslav Raduljica,,,3:30,0.0,0.0,0.0,0.0,0.0,0.0,0.0,0.0,0.0,0.0,0.0,0.0
0021300910,1610612749,MIL,Milwaukee,203545,Miroslav Raduljica,,,3:30,170.1,66.7,103.4,0.5,0.0,100.0,0.0,0.0,0.0,0.0,0.0,0.0,0.0,81.62,0.174,2014-03-05T00:00:00,7,1610612749,MIL,Milwaukee,12-48,26,22,26,28,0,0,0,0,0,0,0,0,0,0,102,0.439,0.828,0.353,25,37,8,0021300910,1610612749,MIL,Milwaukee,Miroslav Raduljica,,,3:30,0.0,0.0,0.0,0.0,0.0,0.0,0.0,0.0,0.0,0.0,0.0,0.0
0021300910,1610612749,MIL,Milwaukee,203183,Tony Mitchell,,,3:27,170.1,80.0,90.1,0.0,0.0,0.0,0.333,0.0,0.167,0.0,0.5,0.5,0.254,75.69,0.12,2014-03-05T00:00:00,7,1610612758,SAC,Sacramento,22-39,28,33,34,21,0,0,0,0,0,0,0,0,0,0,116,0.518,0.813,0.286,21,46,9,0021300910,1610612749,MIL,Milwaukee,Tony Mitchell,,,3:27,0.0,0.0,0.0,2.0,0.0,0.0,0.0,0.0,0.0,0.0,0.0,0.0
0021300910,1610612749,MIL,Milwaukee,203183,Tony Mitchell,,,3:27,170.1,80.0,90.1,0.0,0.0,0.0,0.333,0.0,0.167,0.0,0.5,0.5,0.254,75.69,0.12,2014-03-05T00:00:00,7,1610612749,MIL,Milwaukee,12-48,26,22,26,28,0,0,0,0,0,0,0,0,0,0,102,0.439,0.828,0.353,25,37,8,0021300910,1610612749,MIL,Milwaukee,Tony Mitchell,,,3:27,0.0,0.0,0.0,2.0,0.0,0.0,0.0,0.0,0.0,0.0,0.0,0.0
0021300910,1610612749,MIL,Milwaukee,202327,Ekpe Udoh,,DNP - Coach's Decision,,,,,,,0.0,,,,,,,0.0,,,2014-03-05T00:00:00,7,1610612758,SAC,Sacramento,22-39,28,33,34,21,0,0,0,0,0,0,0,0,0,0,116,0.518,0.813,0.286,21,46,9,0021300910,1610612749,MIL,Milwaukee,Ekpe Udoh,,DNP - Coach's Decision,,,,,,,,,,,,,
0021300910,1610612749,MIL,Milwaukee,202327,Ekpe Udoh,,DNP - Coach's Decision,,,,,,,0.0,,,,,,,0.0,,,2014-03-05T00:00:00,7,1610612749,MIL,Milwaukee,12-48,26,22,26,28,0,0,0,0,0,0,0,0,0,0,102,0.439,0.828,0.353,25,37,8,0021300910,1610612749,MIL,Milwaukee,Ekpe Udoh,,DNP - Coach's Decision,,,,,,,,,,,,,
