GAME_ID_x,TEAM_ID_x,TEAM_ABBREVIATION_x,TEAM_CITY_x,PLAYER_ID,PLAYER_NAME_x,START_POSITION_x,COMMENT_x,MIN_x,OFF_RATING,DEF_RATING,NET_RATING,AST_PCT,AST_TOV,AST_RATIO,OREB_PCT,DREB_PCT,REB_PCT,TM_TOV_PCT,EFG_PCT,TS_PCT,USG_PCT,PACE,PIE,GAME_DATE_EST,GAME_SEQUENCE,TEAM_ABBREVIATION_y,TEAM_CITY_NAME,TEAM_WINS_LOSSES,PTS_QTR1,PTS_QTR2,PTS_QTR3,PTS_QTR4,PTS_OT1,PTS_OT2,PTS_OT3,PTS_OT4,PTS_OT5,PTS_OT6,PTS_OT7,PTS_OT8,PTS_OT9,PTS_OT10,PTS,FG_PCT,FT_PCT,FG3_PCT,AST,REB,TOV,GAME_ID_y,TEAM_ID_y,TEAM_ABBREVIATION,TEAM_CITY_y,PLAYER_NAME_y,START_POSITION_y,COMMENT_y,MIN_y,PTS_OFF_TOV,PTS_2ND_CHANCE,PTS_FB,PTS_PAINT,OPP_PTS_OFF_TOV,OPP_PTS_2ND_CHANCE,OPP_PTS_FB,OPP_PTS_PAINT,BLK,BLKA,PF,PFD
0011500002,1610612766,CHA,Charlotte,203077,Michael Kidd-Gilchrist,F,,12:36,87.3,113.6,-26.3,0.167,0.0,20.0,0.083,0.0,0.048,0.0,0.5,0.5,0.153,93.27,0.074,2015-10-03T00:00:00,1,CHA,Charlotte,1-0,24,24,37,21,0,0,0,0,0,0,0,0,0,0,106,0.453,0.743,0.387,30,41,13,0011500002,1610612766,CHA,Charlotte,Michael Kidd-Gilchrist,F,,12:36,0.0,0.0,2.0,4.0,4.0,0.0,7.0,10.0,0.0,0.0,0.0,2.0
0011500002,1610612766,CHA,Charlotte,101107,Marvin Williams,F,,21:39,126.1,101.9,24.2,0.143,1.0,20.0,0.0,0.105,0.057,20.0,0.75,0.75,0.182,93.38,0.086,2015-10-03T00:00:00,1,CHA,Charlotte,1-0,24,24,37,21,0,0,0,0,0,0,0,0,0,0,106,0.453,0.743,0.387,30,41,13,0011500002,1610612766,CHA,Charlotte,Marvin Williams,F,,21:39,0.0,0.0,0.0,0.0,4.0,0.0,7.0,14.0,0.0,0.0,0.0,0.0
0011500002,1610612766,CHA,Charlotte,2744,Al Jefferson,C,,23:26,124.1,99.6,24.6,0.0,0.0,0.0,0.0,0.45,0.22,0.0,0.5,0.5,0.08,93.32,0.124,2015-10-03T00:00:00,1,CHA,Charlotte,1-0,24,24,37,21,0,0,0,0,0,0,0,0,0,0,106,0.453,0.743,0.387,30,41,13,0011500002,1610612766,CHA,Charlotte,Al Jefferson,C,,23:26,0.0,0.0,0.0,2.0,4.0,0.0,7.0,16.0,1.0,0.0,1.0,1.0
0011500002,1610612766,CHA,Charlotte,201587,Nicolas Batum,G,,22:51,119.8,99.8,20.0,0.25,3.0,16.5,0.095,0.2,0.146,5.5,0.458,0.493,0.304,95.58,0.124,2015-10-03T00:00:00,1,CHA,Charlotte,1-0,24,24,37,21,0,0,0,0,0,0,0,0,0,0,106,0.453,0.743,0.387,30,41,13,0011500002,1610612766,CHA,Charlotte,Nicolas Batum,G,,22:51,3.0,0.0,0.0,6.0,6.0,0.0,7.0,14.0,0.0,0.0,0.0,3.0
0011500002,1610612766,CHA,Charlotte,202689,Kemba Walker,G,,22:39,122.4,97.3,25.2,0.571,8.0,38.0,0.0,0.1,0.049,4.7,0.389,0.538,0.267,94.43,0.127,2015-10-03T00:00:00,1,CHA,Charlotte,1-0,24,24,37,21,0,0,0,0,0,0,0,0,0,0,106,0.453,0.743,0.387,30,41,13,0011500002,1610612766,CHA,Charlotte,Kemba Walker,G,,22:39,0.0,0.0,3.0,4.0,4.0,0.0,7.0,14.0,0.0,0.0,3.0,4.0
0011500002,1610612766,CHA,Charlotte,203087,Jeremy Lamb,,,24:55,129.1,95.3,33.8,0.067,1.0,7.3,0.045,0.097,0.075,7.3,0.6,0.68,0.223,98.75,0.138,2015-10-03T00:00:00,1,CHA,Charlotte,1-0,24,24,37,21,0,0,0,0,0,0,0,0,0,0,106,0.453,0.743,0.387,30,41,13,0011500002,1610612766,CHA,Charlotte,Jeremy Lamb,,,24:55,2.0,2.0,2.0,4.0,8.0,10.0,2.0,20.0,0.0,0.0,0.0,2.0
0011500002,1610612766,CHA,Charlotte,203469,Cody Zeller,,,22:51,101.4,107.8,-6.5,0.167,0.0,22.3,0.045,0.167,0.109,0.0,1.0,0.718,0.133,101.38,0.15,2015-10-03T00:00:00,1,CHA,Charlotte,1-0,24,24,37,21,0,0,0,0,0,0,0,0,0,0,106,0.453,0.743,0.387,30,41,13,0011500002,1610612766,CHA,Charlotte,Cody Zeller,,,22:51,3.0,0.0,0.0,6.0,10.0,13.0,4.0,22.0,0.0,0.0,1.0,5.0
0011500002,1610612766,CHA,Charlotte,201150,Spencer Hawes,,,18:07,103.3,112.6,-9.3,0.273,0.0,37.5,0.0,0.143,0.077,0.0,0.2,0.2,0.136,93.23,0.032,2015-10-03T00:00:00,1,CHA,Charlotte,1-0,24,24,37,21,0,0,0,0,0,0,0,0,0,0,106,0.453,0.743,0.387,30,41,13,0011500002,1610612766,CHA,Charlotte,Spencer Hawes,,,18:07,0.0,0.0,0.0,2.0,10.0,6.0,4.0,16.0,0.0,1.0,1.0,0.0
0011500002,1610612766,CHA,Charlotte,202391,Jeremy Lin,,,25:21,99.1,105.2,-6.2,0.583,3.5,32.3,0.0,0.077,0.044,9.2,0.6,0.672,0.269,100.01,0.173,2015-10-03T00:00:00,1,CHA,Charlotte,1-0,24,24,37,21,0,0,0,0,0,0,0,0,0,0,106,0.453,0.743,0.387,30,41,13,0011500002,1610612766,CHA,Charlotte,Jeremy Lin,,,25:21,0.0,3.0,0.0,2.0,14.0,13.0,6.0,26.0,0.0,2.0,4.0,6.0
0011500002,1610612766,CHA,Charlotte,203798,PJ Hairston,,,20:38,105.7,108.5,-2.8,0.0,0.0,0.0,0.077,0.067,0.071,0.0,0.6,0.68,0.141,95.5,0.021,2015-10-03T00:00:00,1,CHA,Charlotte,1-0,24,24,37,21,0,0,0,0,0,0,0,0,0,0,106,0.453,0.743,0.387,30,41,13,0011500002,1610612766,CHA,Charlotte,PJ Hairston,,,20:38,0.0,0.0,0.0,0.0,10.0,6.0,6.0,20.0,0.0,0.0,5.0,4.0
0011500002,1610612766,CHA,Charlotte,203148,Brian Roberts,,,14:59,87.5,96.8,-9.3,0.333,1.0,42.9,0.083,0.059,0.069,42.9,0.0,0.0,0.126,103.99,0.057,2015-10-03T00:00:00,1,CHA,Charlotte,1-0,24,24,37,21,0,0,0,0,0,0,0,0,0,0,106,0.453,0.743,0.387,30,41,13,0011500002,1610612766,CHA,Charlotte,Brian Roberts,,,14:59,0.0,0.0,0.0,0.0,8.0,10.0,4.0,16.0,0.0,0.0,0.0,3.0
0011500002,1610612766,CHA,Charlotte,1626163,Frank Kaminsky,,,9:58,79.5,77.1,2.4,0.0,0.0,0.0,0.0,0.267,0.167,33.3,0.583,0.583,0.381,113.85,0.256,2015-10-03T00:00:00,1,CHA,Charlotte,1-0,24,24,37,21,0,0,0,0,0,0,0,0,0,0,106,0.453,0.743,0.387,30,41,13,0011500002,1610612766,CHA,Charlotte,Frank Kaminsky,,,9:58,5.0,0.0,2.0,2.0,8.0,7.0,4.0,12.0,1.0,0.0,0.0,0.0
0011500002,1610612766,CHA,Charlotte,203584,Troy Daniels,,DNP - Coach's Decision                  ,,,,,,,0.0,,,,,,,0.0,,,2015-10-03T00:00:00,1,CHA,Charlotte,1-0,24,24,37,21,0,0,0,0,0,0,0,0,0,0,106,0.453,0.743,0.387,30,41,13,0011500002,1610612766,CHA,Charlotte,Troy Daniels,,DNP - Coach's Decision                  ,,,,,,,,,,,,,
0011500002,1610612766,CHA,Charlotte,201946,Tyler Hansbrough,,DNP - Coach's Decision                  ,,,,,,,0.0,,,,,,,0.0,,,2015-10-03T00:00:00,1,CHA,Charlotte,1-0,24,24,37,21,0,0,0,0,0,0,0,0,0,0,106,0.453,0.743,0.387,30,41,13,0011500002,1610612766,CHA,Charlotte,Tyler Hansbrough,,DNP - Coach's Decision                  ,,,,,,,,,,,,,
0011500002,1610612766,CHA,Charlotte,1626151,Aaron Harrison,,DNP - Coach's Decision                  ,,,,,,,0.0,,,,,,,0.0,,,2015-10-03T00:00:00,1,CHA,Charlotte,1-0,24,24,37,21,0,0,0,0,0,0,0,0,0,0,106,0.453,0.743,0.387,30,41,13,0011500002,1610612766,CHA,Charlotte,Aaron Harrison,,DNP - Coach's Decision                  ,,,,,,,,,,,,,
0011500002,1610612766,CHA,Charlotte,1626280,Sam Thompson,,DNP - Coach's Decision                  ,,,,,,,0.0,,,,,,,0.0,,,2015-10-03T00:00:00,1,CHA,Charlotte,1-0,24,24,37,21,0,0,0,0,0,0,0,0,0,0,106,0.453,0.743,0.387,30,41,13,0011500002,1610612766,CHA,Charlotte,Sam Thompson,,DNP - Coach's Decision                  ,,,,,,,,,,,,,
0011500002,1610612766,CHA,Charlotte,1626279,Jason Washburn,,DNP - Coach's Decision                  ,,,,,,,0.0,,,,,,,0.0,,,2015-10-03T00:00:00,1,CHA,Charlotte,1-0,24,24,37,21,0,0,0,0,0,0,0,0,0,0,106,0.453,0.743,0.387,30,41,13,0011500002,1610612766,CHA,Charlotte,Jason Washburn,,DNP - Coach's Decision                  ,,,,,,,,,,,,,
0011500002,1610612766,CHA,Charlotte,202343,Elliot Williams,,DNP - Coach's Decision                  ,,,,,,,0.0,,,,,,,0.0,,,2015-10-03T00:00:00,1,CHA,Charlotte,1-0,24,24,37,21,0,0,0,0,0,0,0,0,0,0,106,0.453,0.743,0.387,30,41,13,0011500002,1610612766,CHA,Charlotte,Elliot Williams,,DNP - Coach's Decision                  ,,,,,,,,,,,,,
0011500002,1610612753,ORL,Orlando,202699,Tobias Harris,F,,18:28,99.4,104.3,-4.8,0.1,1.0,14.3,0.0,0.263,0.152,14.3,0.9,0.9,0.161,95.65,0.154,2015-10-03T00:00:00,1,ORL,Orlando,0-1,29,22,25,24,0,0,0,0,0,0,0,0,0,0,100,0.438,0.842,0.231,22,45,12,0011500002,1610612753,ORL,Orlando,Tobias Harris,F,,18:28,0.0,0.0,0.0,2.0,5.0,0.0,7.0,14.0,0.0,0.0,2.0,0.0
0011500002,1610612753,ORL,Orlando,101112,Channing Frye,F,,18:32,99.4,106.4,-7.0,0.071,0.33,10.1,0.0,0.118,0.063,30.4,0.0,0.17,0.239,96.77,-0.065,2015-10-03T00:00:00,1,ORL,Orlando,0-1,29,22,25,24,0,0,0,0,0,0,0,0,0,0,100,0.438,0.842,0.231,22,45,12,0011500002,1610612753,ORL,Orlando,Channing Frye,F,,18:32,0.0,0.0,0.0,0.0,5.0,3.0,7.0,12.0,0.0,0.0,2.0,1.0
0011500002,1610612753,ORL,Orlando,203473,Dewayne Dedmon,C,,11:38,121.3,102.0,19.4,0.0,0.0,0.0,0.0,0.167,0.1,0.0,0.0,0.347,0.12,98.24,0.0,2015-10-03T00:00:00,1,ORL,Orlando,0-1,29,22,25,24,0,0,0,0,0,0,0,0,0,0,100,0.438,0.842,0.231,22,45,12,0011500002,1610612753,ORL,Orlando,Dewayne Dedmon,C,,11:38,0.0,0.0,0.0,0.0,5.0,0.0,7.0,8.0,0.0,0.0,2.0,1.0
0011500002,1610612753,ORL,Orlando,203506,Victor Oladipo,G,,20:02,104.1,105.1,-1.0,0.333,0.0,24.4,0.056,0.235,0.143,0.0,0.813,0.858,0.22,95.1,0.259,2015-10-03T00:00:00,1,ORL,Orlando,0-1,29,22,25,24,0,0,0,0,0,0,0,0,0,0,100,0.438,0.842,0.231,22,45,12,0011500002,1610612753,ORL,Orlando,Victor Oladipo,G,,20:02,4.0,2.0,2.0,8.0,2.0,3.0,7.0,14.0,0.0,1.0,2.0,2.0
0011500002,1610612753,ORL,Orlando,203901,Elfrid Payton,G,,17:16,105.3,107.6,-2.3,0.273,3.0,27.3,0.0,0.2,0.107,9.1,0.429,0.429,0.227,95.35,0.115,2015-10-03T00:00:00,1,ORL,Orlando,0-1,29,22,25,24,0,0,0,0,0,0,0,0,0,0,100,0.438,0.842,0.231,22,45,12,0011500002,1610612753,ORL,Orlando,Elfrid Payton,G,,17:16,2.0,0.0,2.0,6.0,5.0,0.0,7.0,12.0,0.0,0.0,1.0,1.0
0011500002,1610612753,ORL,Orlando,1626209,Mario Hezonja,,,10:09,95.6,133.6,-38.0,0.0,0.0,0.0,0.0,0.111,0.059,0.0,0.75,0.75,0.302,96.52,0.18,2015-10-03T00:00:00,1,ORL,Orlando,0-1,29,22,25,24,0,0,0,0,0,0,0,0,0,0,100,0.438,0.842,0.231,22,45,12,0011500002,1610612753,ORL,Orlando,Mario Hezonja,,,10:09,2.0,0.0,5.0,2.0,3.0,0.0,0.0,8.0,0.0,0.0,1.0,0.0
0011500002,1610612753,ORL,Orlando,201228,C.J. Watson,,,24:09,97.8,92.7,5.1,0.294,5.0,30.4,0.0,0.045,0.021,6.1,0.25,0.239,0.184,102.24,0.026,2015-10-03T00:00:00,1,ORL,Orlando,0-1,29,22,25,24,0,0,0,0,0,0,0,0,0,0,100,0.438,0.842,0.231,22,45,12,0011500002,1610612753,ORL,Orlando,C.J. Watson,,,24:09,2.0,3.0,2.0,2.0,8.0,3.0,2.0,16.0,2.0,0.0,3.0,2.0
0011500002,1610612753,ORL,Orlando,201160,Jason Smith,,,21:49,108.4,125.1,-16.7,0.071,1.0,9.2,0.053,0.167,0.108,9.2,0.5,0.563,0.217,92.27,0.092,2015-10-03T00:00:00,1,ORL,Orlando,0-1,29,22,25,24,0,0,0,0,0,0,0,0,0,0,100,0.438,0.842,0.231,22,45,12,0011500002,1610612753,ORL,Orlando,Jason Smith,,,21:49,2.0,0.0,0.0,0.0,3.0,5.0,0.0,16.0,0.0,0.0,1.0,1.0
0011500002,1610612753,ORL,Orlando,203094,Andrew Nicholson,,,21:25,110.7,124.1,-13.4,0.2,0.0,11.3,0.118,0.375,0.242,0.0,0.714,0.73,0.353,89.76,0.274,2015-10-03T00:00:00,1,ORL,Orlando,0-1,29,22,25,24,0,0,0,0,0,0,0,0,0,0,100,0.438,0.842,0.231,22,45,12,0011500002,1610612753,ORL,Orlando,Andrew Nicholson,,,21:25,2.0,4.0,0.0,10.0,3.0,2.0,0.0,16.0,0.0,0.0,2.0,3.0
0011500002,1610612753,ORL,Orlando,203906,Devyn Marble,,,20:14,96.2,92.4,3.7,0.071,1.0,8.1,0.042,0.0,0.025,8.1,0.222,0.291,0.211,104.38,-0.024,2015-10-03T00:00:00,1,ORL,Orlando,0-1,29,22,25,24,0,0,0,0,0,0,0,0,0,0,100,0.438,0.842,0.231,22,45,12,0011500002,1610612753,ORL,Orlando,Devyn Marble,,,20:14,0.0,0.0,0.0,2.0,5.0,3.0,2.0,10.0,0.0,0.0,2.0,2.0
0011500002,1610612753,ORL,Orlando,1626295,Nnanna Egwu,,,15:03,83.7,95.4,-11.7,0.083,1.0,50.0,0.15,0.3,0.2,50.0,0.0,0.0,0.023,103.72,0.122,2015-10-03T00:00:00,1,ORL,Orlando,0-1,29,22,25,24,0,0,0,0,0,0,0,0,0,0,100,0.438,0.842,0.231,22,45,12,0011500002,1610612753,ORL,Orlando,Nnanna Egwu,,,15:03,0.0,0.0,0.0,0.0,5.0,0.0,2.0,8.0,1.0,0.0,1.0,0.0
0011500002,1610612753,ORL,Orlando,203929,Melvin Ejim,,,14:34,105.6,112.4,-6.8,0.091,1.0,10.0,0.222,0.083,0.167,10.0,0.375,0.375,0.214,104.51,-0.02,2015-10-03T00:00:00,1,ORL,Orlando,0-1,29,22,25,24,0,0,0,0,0,0,0,0,0,0,100,0.438,0.842,0.231,22,45,12,0011500002,1610612753,ORL,Orlando,Melvin Ejim,,,14:34,0.0,4.0,0.0,6.0,8.0,2.0,2.0,10.0,0.0,1.0,5.0,1.0
0011500002,1610612753,ORL,Orlando,203894,Shabazz Napier,,,9:01,112.5,171.8,-59.3,0.429,0.0,42.9,0.0,0.2,0.083,0.0,0.25,0.25,0.235,84.43,0.022,2015-10-03T00:00:00,1,ORL,Orlando,0-1,29,22,25,24,0,0,0,0,0,0,0,0,0,0,100,0.438,0.842,0.231,22,45,12,0011500002,1610612753,ORL,Orlando,Shabazz Napier,,,9:01,0.0,0.0,0.0,0.0,3.0,2.0,0.0,8.0,0.0,0.0,2.0,0.0
0011500002,1610612753,ORL,Orlando,1626296,Jordan Sibert,,,6:35,108.3,195.0,-86.7,0.0,0.0,0.0,0.0,0.0,0.0,0.0,0.0,0.0,0.077,84.87,-0.057,2015-10-03T00:00:00,1,ORL,Orlando,0-1,29,22,25,24,0,0,0,0,0,0,0,0,0,0,100,0.438,0.842,0.231,22,45,12,0011500002,1610612753,ORL,Orlando,Jordan Sibert,,,6:35,0.0,0.0,0.0,0.0,0.0,2.0,0.0,4.0,0.0,0.0,1.0,0.0
0011500002,1610612753,ORL,Orlando,203951,Keith Appling,,,11:05,88.6,76.1,12.5,0.0,0.0,0.0,0.0,0.111,0.04,41.0,0.5,0.694,0.139,109.83,0.0,2015-10-03T00:00:00,1,ORL,Orlando,0-1,29,22,25,24,0,0,0,0,0,0,0,0,0,0,100,0.438,0.842,0.231,22,45,12,0011500002,1610612753,ORL,Orlando,Keith Appling,,,11:05,4.0,0.0,2.0,2.0,5.0,0.0,2.0,4.0,0.0,0.0,3.0,1.0
0011500002,1610612753,ORL,Orlando,203095,Evan Fournier,,DNP - Coach's Decision                  ,,,,,,,0.0,,,,,,,0.0,,,2015-10-03T00:00:00,1,ORL,Orlando,0-1,29,22,25,24,0,0,0,0,0,0,0,0,0,0,100,0.438,0.842,0.231,22,45,12,0011500002,1610612753,ORL,Orlando,Evan Fournier,,DNP - Coach's Decision                  ,,,,,,,,,,,,,
0011500002,1610612753,ORL,Orlando,203932,Aaron Gordon,,DND - Broken Jaw                        ,,,,,,,0.0,,,,,,,0.0,,,2015-10-03T00:00:00,1,ORL,Orlando,0-1,29,22,25,24,0,0,0,0,0,0,0,0,0,0,100,0.438,0.842,0.231,22,45,12,0011500002,1610612753,ORL,Orlando,Aaron Gordon,,DND - Broken Jaw                        ,,,,,,,,,,,,,
0011500002,1610612753,ORL,Orlando,201880,Greg Stiemsma,,DNP - Coach's Decision                  ,,,,,,,0.0,,,,,,,0.0,,,2015-10-03T00:00:00,1,ORL,Orlando,0-1,29,22,25,24,0,0,0,0,0,0,0,0,0,0,100,0.438,0.842,0.231,22,45,12,0011500002,1610612753,ORL,Orlando,Greg Stiemsma,,DNP - Coach's Decision                  ,,,,,,,,,,,,,
0011500002,1610612753,ORL,Orlando,202696,Nikola Vucevic,,DNP - Coach's Decision                  ,,,,,,,0.0,,,,,,,0.0,,,2015-10-03T00:00:00,1,ORL,Orlando,0-1,29,22,25,24,0,0,0,0,0,0,0,0,0,0,100,0.438,0.842,0.231,22,45,12,0011500002,1610612753,ORL,Orlando,Nikola Vucevic,,DNP - Coach's Decision                  ,,,,,,,,,,,,,
