GAME_ID_x,TEAM_ID_x,TEAM_ABBREVIATION_x,TEAM_CITY_x,PLAYER_ID,PLAYER_NAME_x,START_POSITION_x,COMMENT_x,MIN_x,OFF_RATING,DEF_RATING,NET_RATING,AST_PCT,AST_TOV,AST_RATIO,OREB_PCT,DREB_PCT,REB_PCT,TM_TOV_PCT,EFG_PCT,TS_PCT,USG_PCT,PACE,PIE,GAME_DATE_EST,GAME_SEQUENCE,TEAM_ABBREVIATION_y,TEAM_CITY_NAME,TEAM_WINS_LOSSES,PTS_QTR1,PTS_QTR2,PTS_QTR3,PTS_QTR4,PTS_OT1,PTS_OT2,PTS_OT3,PTS_OT4,PTS_OT5,PTS_OT6,PTS_OT7,PTS_OT8,PTS_OT9,PTS_OT10,PTS,FG_PCT,FT_PCT,FG3_PCT,AST,REB,TOV,GAME_ID_y,TEAM_ID_y,TEAM_ABBREVIATION,TEAM_CITY_y,PLAYER_NAME_y,START_POSITION_y,COMMENT_y,MIN_y,PTS_OFF_TOV,PTS_2ND_CHANCE,PTS_FB,PTS_PAINT,OPP_PTS_OFF_TOV,OPP_PTS_2ND_CHANCE,OPP_PTS_FB,OPP_PTS_PAINT,BLK,BLKA,PF,PFD
0011500015,1610612743,DEN,Denver,201568,Danilo Gallinari,F,,26:09,95.3,87.1,8.1,0.263,5.0,26.5,0.0,0.231,0.118,5.3,0.208,0.272,0.218,101.62,0.09,2015-10-06T00:00:00,6,DEN,Denver,1-1,30,23,18,25,0,0,0,0,0,0,0,0,0,0,96,0.424,0.842,0.286,22,52,22,0011500015,1610612743,DEN,Denver,Danilo Gallinari,F,,26:09,0.0,0.0,0.0,0.0,14.0,8.0,17.0,30.0,0.0,1.0,0.0,3.0
0011500015,1610612743,DEN,Denver,202702,Kenneth Faried,F,,19:59,102.9,89.1,13.8,0.077,0.33,6.7,0.222,0.261,0.244,20.0,0.455,0.455,0.281,102.57,0.094,2015-10-06T00:00:00,6,DEN,Denver,1-1,30,23,18,25,0,0,0,0,0,0,0,0,0,0,96,0.424,0.842,0.286,22,52,22,0011500015,1610612743,DEN,Denver,Kenneth Faried,F,,19:59,2.0,6.0,2.0,10.0,12.0,8.0,10.0,24.0,1.0,2.0,4.0,2.0
0011500015,1610612743,DEN,Denver,203530,Joffrey Lauvergne,C,,28:31,89.2,80.4,8.8,0.063,0.5,9.1,0.12,0.31,0.222,18.2,0.875,0.875,0.146,103.18,0.238,2015-10-06T00:00:00,6,DEN,Denver,1-1,30,23,18,25,0,0,0,0,0,0,0,0,0,0,96,0.424,0.842,0.286,22,52,22,0011500015,1610612743,DEN,Denver,Joffrey Lauvergne,C,,28:31,0.0,2.0,0.0,6.0,16.0,8.0,16.0,32.0,0.0,1.0,2.0,0.0
0011500015,1610612743,DEN,Denver,203914,Gary Harris,G,,30:19,97.2,93.6,3.6,0.045,1.0,8.4,0.0,0.031,0.017,8.4,0.556,0.607,0.15,99.53,0.065,2015-10-06T00:00:00,6,DEN,Denver,1-1,30,23,18,25,0,0,0,0,0,0,0,0,0,0,96,0.424,0.842,0.286,22,52,22,0011500015,1610612743,DEN,Denver,Gary Harris,G,,30:19,2.0,0.0,2.0,2.0,14.0,8.0,18.0,30.0,0.0,1.0,2.0,1.0
0011500015,1610612743,DEN,Denver,1626144,Emmanuel Mudiay,G,,31:11,94.3,89.3,5.0,0.263,0.71,18.6,0.0,0.029,0.016,26.0,0.536,0.571,0.293,100.61,0.067,2015-10-06T00:00:00,6,DEN,Denver,1-1,30,23,18,25,0,0,0,0,0,0,0,0,0,0,96,0.424,0.842,0.286,22,52,22,0011500015,1610612743,DEN,Denver,Emmanuel Mudiay,G,,31:11,4.0,0.0,6.0,10.0,14.0,8.0,18.0,30.0,0.0,0.0,3.0,2.0
0011500015,1610612743,DEN,Denver,201163,Wilson Chandler,,,22:09,90.5,95.0,-4.5,0.308,4.0,34.0,0.095,0.105,0.1,8.5,0.2,0.37,0.148,102.85,0.1,2015-10-06T00:00:00,6,DEN,Denver,1-1,30,23,18,25,0,0,0,0,0,0,0,0,0,0,96,0.424,0.842,0.286,22,52,22,0011500015,1610612743,DEN,Denver,Wilson Chandler,,,22:09,2.0,0.0,2.0,2.0,9.0,2.0,16.0,16.0,0.0,1.0,1.0,3.0
0011500015,1610612743,DEN,Denver,203999,Nikola Jokic,,,18:17,95.4,86.8,8.7,0.0,0.0,0.0,0.056,0.1,0.079,42.9,1.0,1.0,0.16,97.93,0.143,2015-10-06T00:00:00,6,DEN,Denver,1-1,30,23,18,25,0,0,0,0,0,0,0,0,0,0,96,0.424,0.842,0.286,22,52,22,0011500015,1610612743,DEN,Denver,Nikola Jokic,,,18:17,6.0,4.0,2.0,8.0,7.0,2.0,6.0,8.0,0.0,0.0,1.0,0.0
0011500015,1610612743,DEN,Denver,2749,Jameer Nelson,,,17:41,88.1,72.0,16.1,0.333,1.0,16.2,0.063,0.167,0.118,16.2,0.643,0.721,0.242,105.16,0.277,2015-10-06T00:00:00,6,DEN,Denver,1-1,30,23,18,25,0,0,0,0,0,0,0,0,0,0,96,0.424,0.842,0.286,22,52,22,0011500015,1610612743,DEN,Denver,Jameer Nelson,,,17:41,3.0,2.0,7.0,0.0,9.0,2.0,7.0,12.0,0.0,0.0,1.0,3.0
0011500015,1610612743,DEN,Denver,201581,JJ Hickson,,,5:52,88.8,92.9,-4.1,0.0,0.0,0.0,0.0,0.5,0.273,0.0,0.0,0.399,0.278,112.58,0.121,2015-10-06T00:00:00,6,DEN,Denver,1-1,30,23,18,25,0,0,0,0,0,0,0,0,0,0,96,0.424,0.842,0.286,22,52,22,0011500015,1610612743,DEN,Denver,JJ Hickson,,,5:52,2.0,2.0,0.0,0.0,5.0,0.0,3.0,4.0,0.0,1.0,1.0,2.0
0011500015,1610612743,DEN,Denver,200751,Randy Foye,,,16:49,92.9,78.0,14.9,0.111,1.0,12.5,0.063,0.063,0.063,12.5,0.25,0.25,0.172,103.44,0.022,2015-10-06T00:00:00,6,DEN,Denver,1-1,30,23,18,25,0,0,0,0,0,0,0,0,0,0,96,0.424,0.842,0.286,22,52,22,0011500015,1610612743,DEN,Denver,Randy Foye,,,16:49,3.0,0.0,0.0,0.0,9.0,2.0,7.0,12.0,1.0,0.0,1.0,0.0
0011500015,1610612743,DEN,Denver,203115,Will Barton,,,15:59,93.4,78.7,14.7,0.182,0.0,22.5,0.071,0.278,0.188,0.0,0.333,0.363,0.18,97.54,0.225,2015-10-06T00:00:00,6,DEN,Denver,1-1,30,23,18,25,0,0,0,0,0,0,0,0,0,0,96,0.424,0.842,0.286,22,52,22,0011500015,1610612743,DEN,Denver,Will Barton,,,15:59,3.0,2.0,2.0,2.0,4.0,2.0,5.0,8.0,1.0,1.0,0.0,2.0
0011500015,1610612743,DEN,Denver,203910,Nick Johnson,,,7:04,92.9,60.5,32.4,0.0,0.0,0.0,0.0,0.0,0.0,50.0,0.0,0.0,0.125,98.08,-0.143,2015-10-06T00:00:00,6,DEN,Denver,1-1,30,23,18,25,0,0,0,0,0,0,0,0,0,0,96,0.424,0.842,0.286,22,52,22,0011500015,1610612743,DEN,Denver,Nick Johnson,,,7:04,0.0,0.0,0.0,0.0,2.0,0.0,2.0,4.0,0.0,0.0,1.0,0.0
0011500015,1610612743,DEN,Denver,201589,Darrell Arthur,,DNP - Coach's Decision                  ,,,,,,,0.0,,,,,,,0.0,,,2015-10-06T00:00:00,6,DEN,Denver,1-1,30,23,18,25,0,0,0,0,0,0,0,0,0,0,96,0.424,0.842,0.286,22,52,22,0011500015,1610612743,DEN,Denver,Darrell Arthur,,DNP - Coach's Decision                  ,,,,,,,,,,,,,
0011500015,1610612743,DEN,Denver,203475,Erick Green,,DNP - Coach's Decision                  ,,,,,,,0.0,,,,,,,0.0,,,2015-10-06T00:00:00,6,DEN,Denver,1-1,30,23,18,25,0,0,0,0,0,0,0,0,0,0,96,0.424,0.842,0.286,22,52,22,0011500015,1610612743,DEN,Denver,Erick Green,,DNP - Coach's Decision                  ,,,,,,,,,,,,,
0011500015,1610612743,DEN,Denver,202394,Matt Janning,,DNP - Coach's Decision                  ,,,,,,,0.0,,,,,,,0.0,,,2015-10-06T00:00:00,6,DEN,Denver,1-1,30,23,18,25,0,0,0,0,0,0,0,0,0,0,96,0.424,0.842,0.286,22,52,22,0011500015,1610612743,DEN,Denver,Matt Janning,,DNP - Coach's Decision                  ,,,,,,,,,,,,,
0011500015,1610612743,DEN,Denver,2034,Mike Miller,,DNP - Coach's Decision                  ,,,,,,,0.0,,,,,,,0.0,,,2015-10-06T00:00:00,6,DEN,Denver,1-1,30,23,18,25,0,0,0,0,0,0,0,0,0,0,96,0.424,0.842,0.286,22,52,22,0011500015,1610612743,DEN,Denver,Mike Miller,,DNP - Coach's Decision                  ,,,,,,,,,,,,,
0011500015,1610612743,DEN,Denver,203994,Jusuf Nurkic,,DNP - Coach's Decision                  ,,,,,,,0.0,,,,,,,0.0,,,2015-10-06T00:00:00,6,DEN,Denver,1-1,30,23,18,25,0,0,0,0,0,0,0,0,0,0,96,0.424,0.842,0.286,22,52,22,0011500015,1610612743,DEN,Denver,Jusuf Nurkic,,DNP - Coach's Decision                  ,,,,,,,,,,,,,
0011500015,1610612743,DEN,Denver,200762,Oleksiy Pecherov,,DNP - Coach's Decision                  ,,,,,,,0.0,,,,,,,0.0,,,2015-10-06T00:00:00,6,DEN,Denver,1-1,30,23,18,25,0,0,0,0,0,0,0,0,0,0,96,0.424,0.842,0.286,22,52,22,0011500015,1610612743,DEN,Denver,Oleksiy Pecherov,,DNP - Coach's Decision                  ,,,,,,,,,,,,,
0011500015,1610612743,DEN,Denver,202464,Devin Sweetney,,DNP - Coach's Decision                  ,,,,,,,0.0,,,,,,,0.0,,,2015-10-06T00:00:00,6,DEN,Denver,1-1,30,23,18,25,0,0,0,0,0,0,0,0,0,0,96,0.424,0.842,0.286,22,52,22,0011500015,1610612743,DEN,Denver,Devin Sweetney,,DNP - Coach's Decision                  ,,,,,,,,,,,,,
0011500015,1610612742,DAL,Dallas,1626147,Justin Anderson,F,,22:20,77.5,102.3,-24.9,0.0,0.0,0.0,0.0,0.05,0.022,29.1,0.0,0.102,0.13,104.88,-0.079,2015-10-06T00:00:00,6,DAL,Dallas,0-1,16,30,19,21,0,0,0,0,0,0,0,0,0,0,86,0.395,0.818,0.243,23,42,21,0011500015,1610612742,DAL,Dallas,Justin Anderson,F,,22:20,1.0,0.0,0.0,0.0,12.0,8.0,9.0,22.0,1.0,0.0,1.0,1.0
0011500015,1610612742,DAL,Dallas,101111,Charlie Villanueva,F,,22:51,77.0,92.4,-15.4,0.0,0.0,0.0,0.08,0.273,0.17,5.6,0.529,0.529,0.327,100.54,0.231,2015-10-06T00:00:00,6,DAL,Dallas,0-1,16,30,19,21,0,0,0,0,0,0,0,0,0,0,86,0.395,0.818,0.243,23,42,21,0011500015,1610612742,DAL,Dallas,Charlie Villanueva,F,,22:51,7.0,6.0,5.0,12.0,11.0,12.0,11.0,18.0,0.0,0.0,1.0,1.0
0011500015,1610612742,DAL,Dallas,2585,Zaza Pachulia,C,,22:51,77.0,92.4,-15.4,0.143,2.0,29.1,0.16,0.182,0.17,14.5,0.333,0.515,0.089,100.54,0.115,2015-10-06T00:00:00,6,DAL,Dallas,0-1,16,30,19,21,0,0,0,0,0,0,0,0,0,0,86,0.395,0.818,0.243,23,42,21,0011500015,1610612742,DAL,Dallas,Zaza Pachulia,C,,22:51,0.0,0.0,0.0,0.0,11.0,12.0,11.0,18.0,1.0,0.0,3.0,2.0
0011500015,1610612742,DAL,Dallas,101109,Raymond Felton,G,,18:51,58.7,100.4,-41.7,0.714,1.67,27.8,0.045,0.118,0.077,16.7,0.4,0.4,0.283,105.32,0.096,2015-10-06T00:00:00,6,DAL,Dallas,0-1,16,30,19,21,0,0,0,0,0,0,0,0,0,0,86,0.395,0.818,0.243,23,42,21,0011500015,1610612742,DAL,Dallas,Raymond Felton,G,,18:51,2.0,2.0,2.0,8.0,14.0,10.0,9.0,18.0,0.0,1.0,2.0,2.0
0011500015,1610612742,DAL,Dallas,203098,John Jenkins,G,,29:41,71.0,100.2,-29.2,0.077,0.14,4.2,0.03,0.0,0.017,29.3,0.467,0.504,0.323,104.79,0.028,2015-10-06T00:00:00,6,DAL,Dallas,0-1,16,30,19,21,0,0,0,0,0,0,0,0,0,0,86,0.395,0.818,0.243,23,42,21,0011500015,1610612742,DAL,Dallas,John Jenkins,G,,29:41,2.0,0.0,7.0,6.0,20.0,12.0,15.0,30.0,0.0,2.0,0.0,2.0
0011500015,1610612742,DAL,Dallas,2734,Devin Harris,,,19:31,115.1,88.8,26.3,0.25,0.0,25.3,0.0,0.1,0.053,0.0,0.813,0.788,0.201,97.89,0.234,2015-10-06T00:00:00,6,DAL,Dallas,0-1,16,30,19,21,0,0,0,0,0,0,0,0,0,0,86,0.395,0.818,0.243,23,42,21,0011500015,1610612742,DAL,Dallas,Devin Harris,,,19:31,3.0,0.0,9.0,4.0,7.0,6.0,8.0,10.0,1.0,0.0,1.0,3.0
0011500015,1610612742,DAL,Dallas,200826,J.J. Barea,,,19:31,115.1,88.8,26.3,0.438,2.33,45.3,0.0,0.15,0.079,19.4,0.2,0.276,0.191,97.89,0.071,2015-10-06T00:00:00,6,DAL,Dallas,0-1,16,30,19,21,0,0,0,0,0,0,0,0,0,0,86,0.395,0.818,0.243,23,42,21,0011500015,1610612742,DAL,Dallas,J.J. Barea,,,19:31,0.0,0.0,0.0,2.0,7.0,6.0,8.0,10.0,0.0,0.0,1.0,2.0
0011500015,1610612742,DAL,Dallas,202379,Jeremy Evans,,,20:40,109.5,89.4,20.2,0.125,0.0,33.3,0.0,0.182,0.098,0.0,0.25,0.25,0.085,97.08,0.055,2015-10-06T00:00:00,6,DAL,Dallas,0-1,16,30,19,21,0,0,0,0,0,0,0,0,0,0,86,0.395,0.818,0.243,23,42,21,0011500015,1610612742,DAL,Dallas,Jeremy Evans,,,20:40,2.0,0.0,2.0,2.0,9.0,8.0,8.0,12.0,2.0,0.0,2.0,0.0
0011500015,1610612742,DAL,Dallas,2223,Samuel Dalembert,,,14:19,93.5,91.4,2.1,0.0,0.0,0.0,0.143,0.214,0.179,25.4,0.6,0.68,0.247,101.59,0.12,2015-10-06T00:00:00,6,DAL,Dallas,0-1,16,30,19,21,0,0,0,0,0,0,0,0,0,0,86,0.395,0.818,0.243,23,42,21,0011500015,1610612742,DAL,Dallas,Samuel Dalembert,,,14:19,2.0,2.0,0.0,6.0,10.0,4.0,6.0,10.0,2.0,0.0,4.0,1.0
0011500015,1610612742,DAL,Dallas,1626254,Maurice Ndour,,,20:31,82.0,91.7,-9.6,0.0,0.0,0.0,0.0,0.118,0.053,11.1,0.5,0.5,0.192,103.64,0.067,2015-10-06T00:00:00,6,DAL,Dallas,0-1,16,30,19,21,0,0,0,0,0,0,0,0,0,0,86,0.395,0.818,0.243,23,42,21,0011500015,1610612742,DAL,Dallas,Maurice Ndour,,,20:31,2.0,0.0,0.0,0.0,16.0,6.0,12.0,16.0,0.0,0.0,2.0,2.0
0011500015,1610612742,DAL,Dallas,202820,Jarrid Famous,,,9:38,81.4,90.0,-8.6,0.0,0.0,0.0,0.1,0.0,0.059,20.0,0.5,0.5,0.229,101.85,0.031,2015-10-06T00:00:00,6,DAL,Dallas,0-1,16,30,19,21,0,0,0,0,0,0,0,0,0,0,86,0.395,0.818,0.243,23,42,21,0011500015,1610612742,DAL,Dallas,Jarrid Famous,,,9:38,2.0,0.0,0.0,2.0,6.0,2.0,6.0,12.0,1.0,0.0,1.0,0.0
0011500015,1610612742,DAL,Dallas,1626165,Brandon Ashley,,,9:38,81.4,90.0,-8.6,0.167,0.0,50.0,0.0,0.429,0.176,0.0,0.0,0.0,0.046,101.85,0.094,2015-10-06T00:00:00,6,DAL,Dallas,0-1,16,30,19,21,0,0,0,0,0,0,0,0,0,0,86,0.395,0.818,0.243,23,42,21,0011500015,1610612742,DAL,Dallas,Brandon Ashley,,,9:38,0.0,0.0,0.0,0.0,6.0,2.0,6.0,12.0,0.0,0.0,0.0,0.0
0011500015,1610612742,DAL,Dallas,203966,Jamil Wilson,,,9:38,81.4,90.0,-8.6,0.333,0.0,50.0,0.0,0.143,0.059,0.0,0.0,0.0,0.091,101.85,0.063,2015-10-06T00:00:00,6,DAL,Dallas,0-1,16,30,19,21,0,0,0,0,0,0,0,0,0,0,86,0.395,0.818,0.243,23,42,21,0011500015,1610612742,DAL,Dallas,Jamil Wilson,,,9:38,0.0,0.0,0.0,0.0,6.0,2.0,6.0,12.0,0.0,0.0,0.0,1.0
0011500015,1610612742,DAL,Dallas,202083,Wesley Matthews,,DNP - Coach's Decision                  ,,,,,,,0.0,,,,,,,0.0,,,2015-10-06T00:00:00,6,DAL,Dallas,0-1,16,30,19,21,0,0,0,0,0,0,0,0,0,0,86,0.395,0.818,0.243,23,42,21,0011500015,1610612742,DAL,Dallas,Wesley Matthews,,DNP - Coach's Decision                  ,,,,,,,,,,,,,
0011500015,1610612742,DAL,Dallas,201580,JaVale McGee,,DNP - Coach's Decision                  ,,,,,,,0.0,,,,,,,0.0,,,2015-10-06T00:00:00,6,DAL,Dallas,0-1,16,30,19,21,0,0,0,0,0,0,0,0,0,0,86,0.395,0.818,0.243,23,42,21,0011500015,1610612742,DAL,Dallas,JaVale McGee,,DNP - Coach's Decision                  ,,,,,,,,,,,,,
0011500015,1610612742,DAL,Dallas,1626257,Salah Mejri,,DNP - Coach's Decision                  ,,,,,,,0.0,,,,,,,0.0,,,2015-10-06T00:00:00,6,DAL,Dallas,0-1,16,30,19,21,0,0,0,0,0,0,0,0,0,0,86,0.395,0.818,0.243,23,42,21,0011500015,1610612742,DAL,Dallas,Salah Mejri,,DNP - Coach's Decision                  ,,,,,,,,,,,,,
0011500015,1610612742,DAL,Dallas,1717,Dirk Nowitzki,,DNP - Coach's Decision                  ,,,,,,,0.0,,,,,,,0.0,,,2015-10-06T00:00:00,6,DAL,Dallas,0-1,16,30,19,21,0,0,0,0,0,0,0,0,0,0,86,0.395,0.818,0.243,23,42,21,0011500015,1610612742,DAL,Dallas,Dirk Nowitzki,,DNP - Coach's Decision                  ,,,,,,,,,,,,,
0011500015,1610612742,DAL,Dallas,202718,Chandler Parsons,,DNP - Coach's Decision                  ,,,,,,,0.0,,,,,,,0.0,,,2015-10-06T00:00:00,6,DAL,Dallas,0-1,16,30,19,21,0,0,0,0,0,0,0,0,0,0,86,0.395,0.818,0.243,23,42,21,0011500015,1610612742,DAL,Dallas,Chandler Parsons,,DNP - Coach's Decision                  ,,,,,,,,,,,,,
0011500015,1610612742,DAL,Dallas,203939,Dwight Powell,,DNP - Coach's Decision                  ,,,,,,,0.0,,,,,,,0.0,,,2015-10-06T00:00:00,6,DAL,Dallas,0-1,16,30,19,21,0,0,0,0,0,0,0,0,0,0,86,0.395,0.818,0.243,23,42,21,0011500015,1610612742,DAL,Dallas,Dwight Powell,,DNP - Coach's Decision                  ,,,,,,,,,,,,,
0011500015,1610612742,DAL,Dallas,101114,Deron Williams,,DNP - Coach's Decision                  ,,,,,,,0.0,,,,,,,0.0,,,2015-10-06T00:00:00,6,DAL,Dallas,0-1,16,30,19,21,0,0,0,0,0,0,0,0,0,0,86,0.395,0.818,0.243,23,42,21,0011500015,1610612742,DAL,Dallas,Deron Williams,,DNP - Coach's Decision                  ,,,,,,,,,,,,,
