GAME_ID_x,TEAM_ID_x,TEAM_ABBREVIATION_x,TEAM_CITY_x,PLAYER_ID,PLAYER_NAME_x,START_POSITION_x,COMMENT_x,MIN_x,OFF_RATING,DEF_RATING,NET_RATING,AST_PCT,AST_TOV,AST_RATIO,OREB_PCT,DREB_PCT,REB_PCT,TM_TOV_PCT,EFG_PCT,TS_PCT,USG_PCT,PACE,PIE,GAME_DATE_EST,GAME_SEQUENCE,TEAM_ABBREVIATION_y,TEAM_CITY_NAME,TEAM_WINS_LOSSES,PTS_QTR1,PTS_QTR2,PTS_QTR3,PTS_QTR4,PTS_OT1,PTS_OT2,PTS_OT3,PTS_OT4,PTS_OT5,PTS_OT6,PTS_OT7,PTS_OT8,PTS_OT9,PTS_OT10,PTS,FG_PCT,FT_PCT,FG3_PCT,AST,REB,TOV,GAME_ID_y,TEAM_ID_y,TEAM_ABBREVIATION,TEAM_CITY_y,PLAYER_NAME_y,START_POSITION_y,COMMENT_y,MIN_y,PTS_OFF_TOV,PTS_2ND_CHANCE,PTS_FB,PTS_PAINT,OPP_PTS_OFF_TOV,OPP_PTS_2ND_CHANCE,OPP_PTS_FB,OPP_PTS_PAINT,BLK,BLKA,PF,PFD
0011500030,1610612738,BOS,Boston,203109,Jae Crowder,F,,22:19,115.3,74.8,40.5,0.3,6.0,53.6,0.0,0.133,0.075,8.9,1.25,0.952,0.087,114.98,0.17,2015-10-08T00:00:00,1,BOS,Boston,2-0,25,29,31,26,0,0,0,0,0,0,0,0,0,0,111,0.427,0.75,0.348,26,51,15,0011500030,1610612738,BOS,Boston,Jae Crowder,F,,22:19,0.0,0.0,0.0,2.0,2.0,5.0,2.0,12.0,0.0,0.0,2.0,2.0
0011500030,1610612738,BOS,Boston,101135,David Lee,F,,20:58,113.4,92.6,20.8,0.286,2.0,20.2,0.091,0.346,0.229,10.1,0.417,0.472,0.304,106.87,0.184,2015-10-08T00:00:00,1,BOS,Boston,2-0,25,29,31,26,0,0,0,0,0,0,0,0,0,0,111,0.427,0.75,0.348,26,51,15,0011500030,1610612738,BOS,Boston,David Lee,F,,20:58,2.0,2.0,0.0,10.0,4.0,4.0,2.0,16.0,0.0,1.0,2.0,2.0
0011500030,1610612738,BOS,Boston,203092,Tyler Zeller,C,,21:12,104.6,98.9,5.7,0.0,0.0,0.0,0.043,0.154,0.102,14.5,0.6,0.68,0.133,105.69,0.098,2015-10-08T00:00:00,1,BOS,Boston,2-0,25,29,31,26,0,0,0,0,0,0,0,0,0,0,111,0.427,0.75,0.348,26,51,15,0011500030,1610612738,BOS,Boston,Tyler Zeller,C,,21:12,2.0,2.0,0.0,4.0,4.0,4.0,2.0,16.0,2.0,0.0,3.0,1.0
0011500030,1610612738,BOS,Boston,203935,Marcus Smart,G,,21:17,110.5,74.6,35.9,0.111,1.0,15.8,0.091,0.13,0.111,15.8,0.167,0.405,0.184,113.08,0.021,2015-10-08T00:00:00,1,BOS,Boston,2-0,25,29,31,26,0,0,0,0,0,0,0,0,0,0,111,0.427,0.75,0.348,26,51,15,0011500030,1610612738,BOS,Boston,Marcus Smart,G,,21:17,4.0,0.0,2.0,2.0,0.0,2.0,3.0,8.0,0.0,1.0,5.0,6.0
0011500030,1610612738,BOS,Boston,202340,Avery Bradley,G,,20:47,112.6,87.8,24.8,0.143,0.0,12.5,0.048,0.077,0.064,0.0,0.607,0.607,0.259,111.96,0.176,2015-10-08T00:00:00,1,BOS,Boston,2-0,25,29,31,26,0,0,0,0,0,0,0,0,0,0,111,0.427,0.75,0.348,26,51,15,0011500030,1610612738,BOS,Boston,Avery Bradley,G,,20:47,2.0,3.0,7.0,8.0,4.0,4.0,2.0,12.0,0.0,0.0,1.0,1.0
0011500030,1610612738,BOS,Boston,202738,Isaiah Thomas,,,24:36,93.8,76.2,17.5,0.214,3.0,14.8,0.036,0.094,0.067,4.9,0.433,0.46,0.268,115.05,0.147,2015-10-08T00:00:00,1,BOS,Boston,2-0,25,29,31,26,0,0,0,0,0,0,0,0,0,0,111,0.427,0.75,0.348,26,51,15,0011500030,1610612738,BOS,Boston,Isaiah Thomas,,,24:36,4.0,3.0,2.0,8.0,4.0,7.0,3.0,14.0,0.0,1.0,2.0,3.0
0011500030,1610612738,BOS,Boston,201973,Jonas Jerebko,,,18:52,84.9,91.6,-6.7,0.0,0.0,0.0,0.158,0.176,0.167,18.4,0.25,0.338,0.224,108.19,-0.041,2015-10-08T00:00:00,1,BOS,Boston,2-0,25,29,31,26,0,0,0,0,0,0,0,0,0,0,111,0.427,0.75,0.348,26,51,15,0011500030,1610612738,BOS,Boston,Jonas Jerebko,,,18:52,2.0,2.0,0.0,4.0,4.0,2.0,5.0,6.0,0.0,0.0,5.0,2.0
0011500030,1610612738,BOS,Boston,203482,Kelly Olynyk,,,20:15,98.5,60.9,37.6,0.067,1.0,14.3,0.045,0.1,0.071,14.3,0.6,0.6,0.11,118.09,0.125,2015-10-08T00:00:00,1,BOS,Boston,2-0,25,29,31,26,0,0,0,0,0,0,0,0,0,0,111,0.427,0.75,0.348,26,51,15,0011500030,1610612738,BOS,Boston,Kelly Olynyk,,,20:15,0.0,0.0,2.0,2.0,0.0,3.0,3.0,6.0,0.0,0.0,4.0,0.0
0011500030,1610612738,BOS,Boston,203096,Jared Sullinger,,,11:15,101.8,70.6,31.2,0.125,0.5,9.3,0.091,0.357,0.24,18.6,0.333,0.451,0.32,123.05,0.22,2015-10-08T00:00:00,1,BOS,Boston,2-0,25,29,31,26,0,0,0,0,0,0,0,0,0,0,111,0.427,0.75,0.348,26,51,15,0011500030,1610612738,BOS,Boston,Jared Sullinger,,,11:15,0.0,2.0,0.0,4.0,0.0,3.0,1.0,2.0,0.0,1.0,3.0,2.0
0011500030,1610612738,BOS,Boston,1626154,RJ Hunter,,,16:13,87.3,101.3,-14.0,0.273,1.5,27.3,0.0,0.125,0.037,18.2,0.167,0.167,0.197,108.27,-0.019,2015-10-08T00:00:00,1,BOS,Boston,2-0,25,29,31,26,0,0,0,0,0,0,0,0,0,0,111,0.427,0.75,0.348,26,51,15,0011500030,1610612738,BOS,Boston,RJ Hunter,,,16:13,2.0,0.0,2.0,2.0,4.0,0.0,6.0,12.0,0.0,1.0,1.0,2.0
0011500030,1610612738,BOS,Boston,203923,James Young,,,14:15,88.1,111.0,-22.9,0.0,0.0,0.0,0.0,0.125,0.045,25.0,0.5,0.5,0.119,104.69,0.01,2015-10-08T00:00:00,1,BOS,Boston,2-0,25,29,31,26,0,0,0,0,0,0,0,0,0,0,111,0.427,0.75,0.348,26,51,15,0011500030,1610612738,BOS,Boston,James Young,,,14:15,3.0,0.0,0.0,0.0,6.0,0.0,4.0,10.0,1.0,0.0,1.0,1.0
0011500030,1610612738,BOS,Boston,1626179,Terry Rozier,,,16:01,92.3,89.9,2.4,0.571,0.0,33.3,0.0,0.0,0.0,0.0,0.875,0.875,0.196,108.61,0.404,2015-10-08T00:00:00,1,BOS,Boston,2-0,25,29,31,26,0,0,0,0,0,0,0,0,0,0,111,0.427,0.75,0.348,26,51,15,0011500030,1610612738,BOS,Boston,Terry Rozier,,,16:01,2.0,2.0,2.0,6.0,4.0,1.0,6.0,8.0,0.0,0.0,0.0,0.0
0011500030,1610612738,BOS,Boston,1626175,Jordan Mickey,,,12:00,90.4,99.7,-9.3,0.0,0.0,0.0,0.143,0.0,0.105,0.0,0.333,0.363,0.21,111.68,0.041,2015-10-08T00:00:00,1,BOS,Boston,2-0,25,29,31,26,0,0,0,0,0,0,0,0,0,0,111,0.427,0.75,0.348,26,51,15,0011500030,1610612738,BOS,Boston,Jordan Mickey,,,12:00,3.0,1.0,0.0,4.0,4.0,0.0,6.0,8.0,1.0,0.0,1.0,2.0
0011500030,1610612738,BOS,Boston,101161,Amir Johnson,,DND - Sick                              ,,,,,,,0.0,,,,,,,0.0,,,2015-10-08T00:00:00,1,BOS,Boston,2-0,25,29,31,26,0,0,0,0,0,0,0,0,0,0,111,0.427,0.75,0.348,26,51,15,0011500030,1610612738,BOS,Boston,Amir Johnson,,DND - Sick                              ,,,,,,,,,,,,,
0011500030,1610612738,BOS,Boston,203103,Perry Jones III,,DNP - Coach's Decision                  ,,,,,,,0.0,,,,,,,0.0,,,2015-10-08T00:00:00,1,BOS,Boston,2-0,25,29,31,26,0,0,0,0,0,0,0,0,0,0,111,0.427,0.75,0.348,26,51,15,0011500030,1610612738,BOS,Boston,Perry Jones III,,DNP - Coach's Decision                  ,,,,,,,,,,,,,
0011500030,1610612738,BOS,Boston,202323,Evan Turner,,DND - Right Knee Strain                 ,,,,,,,0.0,,,,,,,0.0,,,2015-10-08T00:00:00,1,BOS,Boston,2-0,25,29,31,26,0,0,0,0,0,0,0,0,0,0,111,0.427,0.75,0.348,26,51,15,0011500030,1610612738,BOS,Boston,Evan Turner,,DND - Right Knee Strain                 ,,,,,,,,,,,,,
0011500030,12315,RMD,Madrid,1962937072,Jonas Maciulis,F,,11:17,73.3,89.7,-16.3,0.0,0.0,0.0,0.0,0.071,0.038,52.1,0.0,0.543,0.201,120.22,0.0,2015-10-08T00:00:00,1,RMD,Madrid,0-1,23,20,26,27,0,0,0,0,0,0,0,0,0,0,96,0.376,0.71,0.27,19,49,26,0011500030,12315,RMD,Madrid,Jonas Maciulis,F,,11:17,0.0,0.0,0.0,0.0,8.0,4.0,9.0,18.0,0.0,0.0,0.0,2.0
0011500030,12315,RMD,Madrid,1962937075,Gustavo Ayon,F,,22:59,82.1,101.8,-19.7,0.167,0.5,16.8,0.05,0.167,0.114,33.7,0.4,0.425,0.173,114.95,0.053,2015-10-08T00:00:00,1,RMD,Madrid,0-1,23,20,26,27,0,0,0,0,0,0,0,0,0,0,96,0.376,0.71,0.27,19,49,26,0011500030,12315,RMD,Madrid,Gustavo Ayon,F,,22:59,0.0,0.0,2.0,4.0,16.0,5.0,13.0,34.0,2.0,0.0,3.0,1.0
0011500030,12315,RMD,Madrid,1962937078,Trey Tompkins,C,,30:56,96.3,107.0,-10.7,0.0,0.0,0.0,0.063,0.188,0.125,5.3,0.647,0.671,0.243,109.92,0.172,2015-10-08T00:00:00,1,RMD,Madrid,0-1,23,20,26,27,0,0,0,0,0,0,0,0,0,0,96,0.376,0.71,0.27,19,49,26,0011500030,12315,RMD,Madrid,Trey Tompkins,C,,30:56,2.0,4.0,0.0,4.0,15.0,14.0,13.0,44.0,1.0,0.0,2.0,2.0
0011500030,12315,RMD,Madrid,1962937077,Sergio Llull,G,,29:36,79.7,113.8,-34.0,0.462,3.0,25.9,0.026,0.065,0.043,8.6,0.423,0.493,0.217,111.09,0.099,2015-10-08T00:00:00,1,RMD,Madrid,0-1,23,20,26,27,0,0,0,0,0,0,0,0,0,0,96,0.376,0.71,0.27,19,49,26,0011500030,12315,RMD,Madrid,Sergio Llull,G,,29:36,2.0,0.0,0.0,2.0,12.0,14.0,13.0,38.0,0.0,0.0,2.0,6.0
0011500030,12315,RMD,Madrid,1962937076,Jaycee Carroll,G,,33:05,91.6,92.5,-0.9,0.125,1.0,18.9,0.034,0.105,0.075,18.9,0.111,0.202,0.154,111.85,-0.023,2015-10-08T00:00:00,1,RMD,Madrid,0-1,23,20,26,27,0,0,0,0,0,0,0,0,0,0,96,0.376,0.71,0.27,19,49,26,0011500030,12315,RMD,Madrid,Jaycee Carroll,G,,33:05,0.0,0.0,0.0,2.0,20.0,10.0,13.0,38.0,0.0,1.0,4.0,3.0
0011500030,12315,RMD,Madrid,1962937074,Sergio Rodriguez,,,31:01,82.9,96.7,-13.8,0.429,1.0,23.6,0.0,0.094,0.048,23.6,0.5,0.484,0.235,112.91,0.121,2015-10-08T00:00:00,1,RMD,Madrid,0-1,23,20,26,27,0,0,0,0,0,0,0,0,0,0,96,0.376,0.71,0.27,19,49,26,0011500030,12315,RMD,Madrid,Sergio Rodriguez,,,31:01,0.0,0.0,2.0,6.0,18.0,10.0,8.0,34.0,0.0,0.0,1.0,2.0
0011500030,12315,RMD,Madrid,1962937073,Felipe Reyes,,,19:07,75.5,92.7,-17.2,0.0,0.0,0.0,0.111,0.238,0.179,19.5,0.5,0.605,0.296,110.78,0.162,2015-10-08T00:00:00,1,RMD,Madrid,0-1,23,20,26,27,0,0,0,0,0,0,0,0,0,0,96,0.376,0.71,0.27,19,49,26,0011500030,12315,RMD,Madrid,Felipe Reyes,,,19:07,2.0,3.0,3.0,2.0,12.0,6.0,4.0,16.0,0.0,1.0,5.0,8.0
0011500030,12315,RMD,Madrid,1962937070,Andres Nocioni,,,21:25,95.5,110.8,-15.2,0.091,0.5,7.4,0.0,0.158,0.083,14.9,0.5,0.527,0.23,110.63,0.048,2015-10-08T00:00:00,1,RMD,Madrid,0-1,23,20,26,27,0,0,0,0,0,0,0,0,0,0,96,0.376,0.71,0.27,19,49,26,0011500030,12315,RMD,Madrid,Andres Nocioni,,,21:25,2.0,0.0,2.0,2.0,18.0,4.0,4.0,22.0,0.0,1.0,5.0,3.0
0011500030,12315,RMD,Madrid,1962937079,Guillermo Hernangomez,,,17:40,85.6,101.3,-15.7,0.0,0.0,0.0,0.167,0.167,0.167,0.0,0.333,0.363,0.141,104.89,0.068,2015-10-08T00:00:00,1,RMD,Madrid,0-1,23,20,26,27,0,0,0,0,0,0,0,0,0,0,96,0.376,0.71,0.27,19,49,26,0011500030,12315,RMD,Madrid,Guillermo Hernangomez,,,17:40,0.0,0.0,0.0,4.0,2.0,9.0,2.0,16.0,1.0,1.0,2.0,1.0
0011500030,12315,RMD,Madrid,1962937071,Luka Doncic,,,15:40,68.7,95.3,-26.6,0.111,0.5,17.0,0.0,0.235,0.143,34.0,0.0,0.174,0.126,111.03,0.041,2015-10-08T00:00:00,1,RMD,Madrid,0-1,23,20,26,27,0,0,0,0,0,0,0,0,0,0,96,0.376,0.71,0.27,19,49,26,0011500030,12315,RMD,Madrid,Luka Doncic,,,15:40,0.0,0.0,0.0,0.0,9.0,7.0,6.0,14.0,1.0,0.0,0.0,2.0
0011500030,12315,RMD,Madrid,1962937086,Dino Radoncic,,,4:59,75.0,101.0,-26.0,0.0,0.0,0.0,0.083,0.167,0.111,0.0,0.0,0.0,0.059,115.01,0.026,2015-10-08T00:00:00,1,RMD,Madrid,0-1,23,20,26,27,0,0,0,0,0,0,0,0,0,0,96,0.376,0.71,0.27,19,49,26,0011500030,12315,RMD,Madrid,Dino Radoncic,,,4:59,0.0,0.0,0.0,0.0,0.0,2.0,0.0,6.0,0.0,0.0,0.0,0.0
0011500030,12315,RMD,Madrid,1962937085,Samba Thiago,,,2:15,206.2,60.0,146.2,0.0,0.0,0.0,0.0,0.333,0.25,0.0,0.0,0.0,0.0,94.72,0.087,2015-10-08T00:00:00,1,RMD,Madrid,0-1,23,20,26,27,0,0,0,0,0,0,0,0,0,0,96,0.376,0.71,0.27,19,49,26,0011500030,12315,RMD,Madrid,Samba Thiago,,,2:15,0.0,0.0,0.0,0.0,0.0,0.0,0.0,0.0,0.0,0.0,0.0,0.0
0011500030,12315,RMD,Madrid,1962937069,Rudy Fernandez,,DND - Injured                           ,,,,,,,0.0,,,,,,,0.0,,,2015-10-08T00:00:00,1,RMD,Madrid,0-1,23,20,26,27,0,0,0,0,0,0,0,0,0,0,96,0.376,0.71,0.27,19,49,26,0011500030,12315,RMD,Madrid,Rudy Fernandez,,DND - Injured                           ,,,,,,,,,,,,,
0011500030,12315,RMD,Madrid,1962937080,Jeffrey Taylor,,DND - Injured                           ,,,,,,,0.0,,,,,,,0.0,,,2015-10-08T00:00:00,1,RMD,Madrid,0-1,23,20,26,27,0,0,0,0,0,0,0,0,0,0,96,0.376,0.71,0.27,19,49,26,0011500030,12315,RMD,Madrid,Jeffrey Taylor,,DND - Injured                           ,,,,,,,,,,,,,
