GAME_ID_x,TEAM_ID_x,TEAM_ABBREVIATION_x,TEAM_CITY_x,PLAYER_ID,PLAYER_NAME_x,START_POSITION_x,COMMENT_x,MIN_x,OFF_RATING,DEF_RATING,NET_RATING,AST_PCT,AST_TOV,AST_RATIO,OREB_PCT,DREB_PCT,REB_PCT,TM_TOV_PCT,EFG_PCT,TS_PCT,USG_PCT,PACE,PIE,GAME_DATE_EST,GAME_SEQUENCE,TEAM_ABBREVIATION_y,TEAM_CITY_NAME,TEAM_WINS_LOSSES,PTS_QTR1,PTS_QTR2,PTS_QTR3,PTS_QTR4,PTS_OT1,PTS_OT2,PTS_OT3,PTS_OT4,PTS_OT5,PTS_OT6,PTS_OT7,PTS_OT8,PTS_OT9,PTS_OT10,PTS,FG_PCT,FT_PCT,FG3_PCT,AST,REB,TOV,GAME_ID_y,TEAM_ID_y,TEAM_ABBREVIATION,TEAM_CITY_y,PLAYER_NAME_y,START_POSITION_y,COMMENT_y,MIN_y,PTS_OFF_TOV,PTS_2ND_CHANCE,PTS_FB,PTS_PAINT,OPP_PTS_OFF_TOV,OPP_PTS_2ND_CHANCE,OPP_PTS_FB,OPP_PTS_PAINT,BLK,BLKA,PF,PFD
0011500034,12321,FEN,Istanbul,1962937127,Nikola Kalinic,F,,25:49,73.4,117.4,-44.0,0.083,1.0,9.2,0.074,0.214,0.122,9.2,0.5,0.563,0.156,102.15,0.11,2015-10-09T00:00:00,3,FEN,Istanbul,1-1,21,20,17,23,0,0,0,0,0,0,0,0,0,0,81,0.375,0.7,0.296,22,40,19,0011500034,12321,FEN,Istanbul,Nikola Kalinic,F,,25:49,0.0,0.0,2.0,8.0,22.0,9.0,12.0,28.0,0.0,1.0,3.0,3.0
0011500034,12321,FEN,Istanbul,1962937115,Jan Vesely,F,,28:00,91.8,122.4,-30.5,0.133,2.0,10.1,0.111,0.118,0.114,5.1,0.467,0.507,0.275,100.39,0.074,2015-10-09T00:00:00,3,FEN,Istanbul,1-1,21,20,17,23,0,0,0,0,0,0,0,0,0,0,81,0.375,0.7,0.296,22,40,19,0011500034,12321,FEN,Istanbul,Jan Vesely,F,,28:00,2.0,4.0,0.0,6.0,18.0,11.0,14.0,26.0,1.0,0.0,5.0,3.0
0011500034,12321,FEN,Istanbul,1962937116,Ekpe Udoh,C,,34:48,76.6,111.9,-35.3,0.05,0.33,7.2,0.122,0.19,0.145,21.6,0.444,0.455,0.152,98.79,0.05,2015-10-09T00:00:00,3,FEN,Istanbul,1-1,21,20,17,23,0,0,0,0,0,0,0,0,0,0,81,0.375,0.7,0.296,22,40,19,0011500034,12321,FEN,Istanbul,Ekpe Udoh,C,,34:48,0.0,4.0,0.0,6.0,22.0,4.0,17.0,34.0,2.0,1.0,3.0,1.0
0011500034,12321,FEN,Istanbul,1962937117,Bogdan Bogdanovic,G,,29:24,95.1,108.7,-13.6,0.19,1.33,26.7,0.0,0.278,0.109,20.0,0.313,0.313,0.173,95.92,0.047,2015-10-09T00:00:00,3,FEN,Istanbul,1-1,21,20,17,23,0,0,0,0,0,0,0,0,0,0,81,0.375,0.7,0.296,22,40,19,0011500034,12321,FEN,Istanbul,Bogdan Bogdanovic,G,,29:24,0.0,0.0,0.0,0.0,16.0,4.0,12.0,28.0,0.0,2.0,1.0,1.0
0011500034,12321,FEN,Istanbul,1962937118,Kostas Sloukas,G,,22:40,87.9,114.6,-26.7,0.462,3.0,35.3,0.0,0.077,0.031,11.8,0.556,0.556,0.209,102.03,0.103,2015-10-09T00:00:00,3,FEN,Istanbul,1-1,21,20,17,23,0,0,0,0,0,0,0,0,0,0,81,0.375,0.7,0.296,22,40,19,0011500034,12321,FEN,Istanbul,Kostas Sloukas,G,,22:40,5.0,3.0,0.0,2.0,15.0,7.0,13.0,24.0,0.0,2.0,3.0,3.0
0011500034,12321,FEN,Istanbul,1962937114,Luigi Datome,,,31:06,80.9,117.9,-37.0,0.0,0.0,0.0,0.029,0.1,0.056,11.8,0.214,0.235,0.224,100.29,-0.082,2015-10-09T00:00:00,3,FEN,Istanbul,1-1,21,20,17,23,0,0,0,0,0,0,0,0,0,0,81,0.375,0.7,0.296,22,40,19,0011500034,12321,FEN,Istanbul,Luigi Datome,,,31:06,1.0,0.0,0.0,4.0,22.0,9.0,19.0,28.0,1.0,1.0,5.0,1.0
0011500034,12321,FEN,Istanbul,1962937128,Ali Muhammed,,,20:45,70.6,117.8,-47.1,0.375,1.0,15.0,0.036,0.143,0.071,15.0,0.464,0.464,0.328,98.87,0.086,2015-10-09T00:00:00,3,FEN,Istanbul,1-1,21,20,17,23,0,0,0,0,0,0,0,0,0,0,81,0.375,0.7,0.296,22,40,19,0011500034,12321,FEN,Istanbul,Ali Muhammed,,,20:45,0.0,0.0,0.0,0.0,16.0,4.0,10.0,20.0,0.0,0.0,1.0,0.0
0011500034,12321,FEN,Istanbul,1962937121,Melih Mahmutoglu,,,19:41,90.0,88.4,1.7,0.154,2.0,28.6,0.0,0.158,0.077,14.3,0.375,0.375,0.114,94.33,0.039,2015-10-09T00:00:00,3,FEN,Istanbul,1-1,21,20,17,23,0,0,0,0,0,0,0,0,0,0,81,0.375,0.7,0.296,22,40,19,0011500034,12321,FEN,Istanbul,Melih Mahmutoglu,,,19:41,0.0,0.0,0.0,0.0,11.0,2.0,10.0,18.0,0.0,0.0,3.0,2.0
0011500034,12321,FEN,Istanbul,1962937123,Omer Yurtseven,,,11:55,72.3,81.6,-9.3,0.2,1.0,16.7,0.167,0.25,0.208,16.7,0.5,0.5,0.173,96.99,0.308,2015-10-09T00:00:00,3,FEN,Istanbul,1-1,21,20,17,23,0,0,0,0,0,0,0,0,0,0,81,0.375,0.7,0.296,22,40,19,0011500034,12321,FEN,Istanbul,Omer Yurtseven,,,11:55,0.0,2.0,0.0,4.0,6.0,4.0,6.0,8.0,0.0,0.0,1.0,0.0
0011500034,12321,FEN,Istanbul,1962937120,Baris Hersek,,,8:29,64.4,148.5,-84.1,0.5,1.0,25.0,0.125,0.0,0.067,25.0,0.75,0.75,0.139,100.32,-0.023,2015-10-09T00:00:00,3,FEN,Istanbul,1-1,21,20,17,23,0,0,0,0,0,0,0,0,0,0,81,0.375,0.7,0.296,22,40,19,0011500034,12321,FEN,Istanbul,Baris Hersek,,,8:29,0.0,0.0,0.0,0.0,13.0,7.0,5.0,12.0,0.0,0.0,3.0,0.0
0011500034,12321,FEN,Istanbul,1962937126,Berk Ugurlu,,,4:35,114.2,65.4,48.8,0.0,0.0,0.0,0.0,0.0,0.0,50.0,0.0,0.0,0.225,81.27,-0.133,2015-10-09T00:00:00,3,FEN,Istanbul,1-1,21,20,17,23,0,0,0,0,0,0,0,0,0,0,81,0.375,0.7,0.296,22,40,19,0011500034,12321,FEN,Istanbul,Berk Ugurlu,,,4:35,0.0,0.0,0.0,0.0,2.0,2.0,1.0,2.0,0.0,0.0,0.0,0.0
0011500034,12321,FEN,Istanbul,1962937124,Egehan Arna,,,2:48,83.3,105.0,-21.7,0.5,0.0,100.0,0.0,0.0,0.0,0.0,0.0,0.0,0.0,92.23,0.111,2015-10-09T00:00:00,3,FEN,Istanbul,1-1,21,20,17,23,0,0,0,0,0,0,0,0,0,0,81,0.375,0.7,0.296,22,40,19,0011500034,12321,FEN,Istanbul,Egehan Arna,,,2:48,0.0,0.0,0.0,0.0,2.0,2.0,1.0,2.0,0.0,0.0,0.0,0.0
0011500034,12321,FEN,Istanbul,1962937122,Pero Antic,,DNP - Coach's Decision                  ,,,,,,,0.0,,,,,,,0.0,,,2015-10-09T00:00:00,3,FEN,Istanbul,1-1,21,20,17,23,0,0,0,0,0,0,0,0,0,0,81,0.375,0.7,0.296,22,40,19,0011500034,12321,FEN,Istanbul,Pero Antic,,DNP - Coach's Decision                  ,,,,,,,,,,,,,
0011500034,12321,FEN,Istanbul,1962937125,Ercan Bayrak,,DNP - Coach's Decision                  ,,,,,,,0.0,,,,,,,0.0,,,2015-10-09T00:00:00,3,FEN,Istanbul,1-1,21,20,17,23,0,0,0,0,0,0,0,0,0,0,81,0.375,0.7,0.296,22,40,19,0011500034,12321,FEN,Istanbul,Ercan Bayrak,,DNP - Coach's Decision                  ,,,,,,,,,,,,,
0011500034,12321,FEN,Istanbul,1962937119,Ricky Hickman,,DNP - Coach's Decision                  ,,,,,,,0.0,,,,,,,0.0,,,2015-10-09T00:00:00,3,FEN,Istanbul,1-1,21,20,17,23,0,0,0,0,0,0,0,0,0,0,81,0.375,0.7,0.296,22,40,19,0011500034,12321,FEN,Istanbul,Ricky Hickman,,DNP - Coach's Decision                  ,,,,,,,,,,,,,
0011500034,1610612760,OKC,Oklahoma City,201142,Kevin Durant,F,,21:41,120.3,86.8,33.5,0.357,2.5,28.0,0.0,0.19,0.114,11.2,0.6,0.597,0.259,97.8,0.207,2015-10-09T00:00:00,3,OKC,Oklahoma City,2-0,32,26,29,24,0,0,0,0,0,0,0,0,0,0,111,0.5,0.765,0.429,20,43,15,0011500034,1610612760,OKC,Oklahoma City,Kevin Durant,F,,21:41,4.0,4.0,3.0,10.0,7.0,7.0,2.0,16.0,1.0,0.0,2.0,1.0
0011500034,1610612760,OKC,Oklahoma City,201586,Serge Ibaka,F,,23:54,118.2,81.0,37.3,0.05,1.0,12.7,0.071,0.136,0.111,12.7,0.5,0.595,0.124,102.67,0.096,2015-10-09T00:00:00,3,OKC,Oklahoma City,2-0,32,26,29,24,0,0,0,0,0,0,0,0,0,0,111,0.5,0.765,0.429,20,43,15,0011500034,1610612760,OKC,Oklahoma City,Serge Ibaka,F,,23:54,3.0,2.0,0.0,0.0,7.0,9.0,2.0,18.0,2.0,0.0,1.0,1.0
0011500034,1610612760,OKC,Oklahoma City,203500,Steven Adams,C,,21:09,105.3,100.9,4.5,0.0,0.0,0.0,0.313,0.158,0.229,21.7,0.6,0.694,0.189,94.59,0.123,2015-10-09T00:00:00,3,OKC,Oklahoma City,2-0,32,26,29,24,0,0,0,0,0,0,0,0,0,0,111,0.5,0.765,0.429,20,43,15,0011500034,1610612760,OKC,Oklahoma City,Steven Adams,C,,21:09,0.0,5.0,0.0,6.0,7.0,9.0,2.0,16.0,1.0,1.0,3.0,5.0
0011500034,1610612760,OKC,Oklahoma City,203460,Andre Roberson,G,,20:21,113.7,86.5,27.2,0.059,0.0,33.3,0.0,0.053,0.033,0.0,1.25,1.25,0.042,103.31,0.129,2015-10-09T00:00:00,3,OKC,Oklahoma City,2-0,32,26,29,24,0,0,0,0,0,0,0,0,0,0,111,0.5,0.765,0.429,20,43,15,0011500034,1610612760,OKC,Oklahoma City,Andre Roberson,G,,20:21,2.0,0.0,2.0,2.0,7.0,9.0,2.0,16.0,0.0,0.0,2.0,2.0
0011500034,1610612760,OKC,Oklahoma City,201566,Russell Westbrook,G,,21:41,120.3,86.8,33.5,0.357,2.5,22.0,0.0,0.0,0.0,8.8,0.429,0.508,0.357,97.8,0.173,2015-10-09T00:00:00,3,OKC,Oklahoma City,2-0,32,26,29,24,0,0,0,0,0,0,0,0,0,0,111,0.5,0.765,0.429,20,43,15,0011500034,1610612760,OKC,Oklahoma City,Russell Westbrook,G,,21:41,4.0,0.0,2.0,6.0,7.0,7.0,2.0,16.0,0.0,0.0,1.0,4.0
0011500034,1610612760,OKC,Oklahoma City,202683,Enes Kanter,,,18:31,122.8,57.3,65.5,0.0,0.0,0.0,0.0,0.304,0.219,31.1,0.75,0.828,0.237,107.06,0.23,2015-10-09T00:00:00,3,OKC,Oklahoma City,2-0,32,26,29,24,0,0,0,0,0,0,0,0,0,0,111,0.5,0.765,0.429,20,43,15,0011500034,1610612760,OKC,Oklahoma City,Enes Kanter,,,18:31,6.0,0.0,7.0,6.0,0.0,2.0,0.0,10.0,0.0,0.0,1.0,4.0
0011500034,1610612760,OKC,Oklahoma City,201571,D.J. Augustin,,,12:41,104.0,78.1,25.9,0.444,4.0,40.5,0.0,0.133,0.087,10.1,0.0,0.102,0.227,99.99,0.027,2015-10-09T00:00:00,3,OKC,Oklahoma City,2-0,32,26,29,24,0,0,0,0,0,0,0,0,0,0,111,0.5,0.765,0.429,20,43,15,0011500034,1610612760,OKC,Oklahoma City,D.J. Augustin,,,12:41,0.0,0.0,0.0,0.0,0.0,0.0,0.0,8.0,0.0,2.0,0.0,2.0
0011500034,1610612760,OKC,Oklahoma City,203956,Mitch McGary,,,16:46,126.3,74.5,51.8,0.182,0.0,17.7,0.0,0.3,0.207,0.0,0.563,0.59,0.268,99.8,0.226,2015-10-09T00:00:00,3,OKC,Oklahoma City,2-0,32,26,29,24,0,0,0,0,0,0,0,0,0,0,111,0.5,0.765,0.429,20,43,15,0011500034,1610612760,OKC,Oklahoma City,Mitch McGary,,,16:46,5.0,0.0,4.0,6.0,0.0,2.0,0.0,8.0,0.0,1.0,0.0,2.0
0011500034,1610612760,OKC,Oklahoma City,201627,Anthony Morrow,,,11:04,101.7,90.5,11.2,0.0,0.0,0.0,0.0,0.077,0.043,16.7,0.5,0.5,0.254,92.47,0.027,2015-10-09T00:00:00,3,OKC,Oklahoma City,2-0,32,26,29,24,0,0,0,0,0,0,0,0,0,0,111,0.5,0.765,0.429,20,43,15,0011500034,1610612760,OKC,Oklahoma City,Anthony Morrow,,,11:04,2.0,0.0,2.0,2.0,0.0,4.0,0.0,6.0,0.0,0.0,1.0,0.0
0011500034,1610612760,OKC,Oklahoma City,203962,Josh Huestis,,,15:44,115.3,79.7,35.7,0.0,0.0,0.0,0.0,0.143,0.077,0.0,0.75,0.75,0.062,94.76,0.115,2015-10-09T00:00:00,3,OKC,Oklahoma City,2-0,32,26,29,24,0,0,0,0,0,0,0,0,0,0,111,0.5,0.765,0.429,20,43,15,0011500034,1610612760,OKC,Oklahoma City,Josh Huestis,,,15:44,0.0,0.0,0.0,0.0,1.0,0.0,0.0,6.0,1.0,0.0,0.0,0.0
0011500034,1610612760,OKC,Oklahoma City,200779,Steve Novak,,,3:01,20.5,100.0,-79.5,0.0,0.0,0.0,0.0,0.2,0.111,0.0,0.0,0.0,0.0,78.6,1.0,2015-10-09T00:00:00,3,OKC,Oklahoma City,2-0,32,26,29,24,0,0,0,0,0,0,0,0,0,0,111,0.5,0.765,0.429,20,43,15,0011500034,1610612760,OKC,Oklahoma City,Steve Novak,,,3:01,0.0,0.0,0.0,0.0,0.0,2.0,0.0,2.0,0.0,0.0,0.0,0.0
0011500034,1610612760,OKC,Oklahoma City,203079,Dion Waiters,,,18:52,115.4,66.9,48.6,0.2,2.0,14.5,0.0,0.083,0.059,7.3,0.833,0.883,0.275,105.07,0.298,2015-10-09T00:00:00,3,OKC,Oklahoma City,2-0,32,26,29,24,0,0,0,0,0,0,0,0,0,0,111,0.5,0.765,0.429,20,43,15,0011500034,1610612760,OKC,Oklahoma City,Dion Waiters,,,18:52,5.0,0.0,3.0,4.0,0.0,6.0,0.0,10.0,0.0,0.0,2.0,4.0
0011500034,1610612760,OKC,Oklahoma City,1626166,Cameron Payne,,,17:21,105.2,78.6,26.6,0.0,0.0,0.0,0.071,0.05,0.059,20.5,0.417,0.451,0.249,99.65,0.078,2015-10-09T00:00:00,3,OKC,Oklahoma City,2-0,32,26,29,24,0,0,0,0,0,0,0,0,0,0,111,0.5,0.765,0.429,20,43,15,0011500034,1610612760,OKC,Oklahoma City,Cameron Payne,,,17:21,0.0,0.0,0.0,2.0,1.0,6.0,0.0,10.0,1.0,0.0,0.0,2.0
0011500034,1610612760,OKC,Oklahoma City,204075,Talib Zanna,,,8:20,103.1,100.8,2.3,0.0,0.0,0.0,0.125,0.0,0.063,0.0,1.0,1.0,0.057,90.43,0.109,2015-10-09T00:00:00,3,OKC,Oklahoma City,2-0,32,26,29,24,0,0,0,0,0,0,0,0,0,0,111,0.5,0.765,0.429,20,43,15,0011500034,1610612760,OKC,Oklahoma City,Talib Zanna,,,8:20,2.0,2.0,0.0,2.0,1.0,2.0,0.0,4.0,1.0,0.0,0.0,0.0
0011500034,1610612760,OKC,Oklahoma City,1627361,Dez Wells,,,,,,,,,0.0,,,,,,,0.0,,,2015-10-09T00:00:00,3,OKC,Oklahoma City,2-0,32,26,29,24,0,0,0,0,0,0,0,0,0,0,111,0.5,0.765,0.429,20,43,15,0011500034,1610612760,OKC,Oklahoma City,Dez Wells,,,,,,,,,,,,,,,
0011500034,1610612760,OKC,Oklahoma City,202933,Julyan Stone,,,4:19,65.4,114.2,-48.8,0.0,0.0,0.0,0.0,0.333,0.111,0.0,0.0,0.0,0.0,86.29,0.0,2015-10-09T00:00:00,3,OKC,Oklahoma City,2-0,32,26,29,24,0,0,0,0,0,0,0,0,0,0,111,0.5,0.765,0.429,20,43,15,0011500034,1610612760,OKC,Oklahoma City,Julyan Stone,,,4:19,0.0,0.0,0.0,0.0,1.0,0.0,0.0,2.0,0.0,0.0,1.0,0.0
0011500034,1610612760,OKC,Oklahoma City,2555,Nick Collison,,DNP - Coach's Decision                  ,,,,,,,0.0,,,,,,,0.0,,,2015-10-09T00:00:00,3,OKC,Oklahoma City,2-0,32,26,29,24,0,0,0,0,0,0,0,0,0,0,111,0.5,0.765,0.429,20,43,15,0011500034,1610612760,OKC,Oklahoma City,Nick Collison,,DNP - Coach's Decision                  ,,,,,,,,,,,,,
0011500034,1610612760,OKC,Oklahoma City,1626180,Michael Qualls,,DNP - Coach's Decision                  ,,,,,,,0.0,,,,,,,0.0,,,2015-10-09T00:00:00,3,OKC,Oklahoma City,2-0,32,26,29,24,0,0,0,0,0,0,0,0,0,0,111,0.5,0.765,0.429,20,43,15,0011500034,1610612760,OKC,Oklahoma City,Michael Qualls,,DNP - Coach's Decision                  ,,,,,,,,,,,,,
0011500034,1610612760,OKC,Oklahoma City,202713,Kyle Singler,,DNP - Coach's Decision                  ,,,,,,,0.0,,,,,,,0.0,,,2015-10-09T00:00:00,3,OKC,Oklahoma City,2-0,32,26,29,24,0,0,0,0,0,0,0,0,0,0,111,0.5,0.765,0.429,20,43,15,0011500034,1610612760,OKC,Oklahoma City,Kyle Singler,,DNP - Coach's Decision                  ,,,,,,,,,,,,,
