GAME_ID_x,TEAM_ID_x,TEAM_ABBREVIATION_x,TEAM_CITY_x,PLAYER_ID,PLAYER_NAME_x,START_POSITION_x,COMMENT_x,MIN_x,OFF_RATING,DEF_RATING,NET_RATING,AST_PCT,AST_TOV,AST_RATIO,OREB_PCT,DREB_PCT,REB_PCT,TM_TOV_PCT,EFG_PCT,TS_PCT,USG_PCT,PACE,PIE,GAME_DATE_EST,GAME_SEQUENCE,TEAM_ABBREVIATION_y,TEAM_CITY_NAME,TEAM_WINS_LOSSES,PTS_QTR1,PTS_QTR2,PTS_QTR3,PTS_QTR4,PTS_OT1,PTS_OT2,PTS_OT3,PTS_OT4,PTS_OT5,PTS_OT6,PTS_OT7,PTS_OT8,PTS_OT9,PTS_OT10,PTS,FG_PCT,FT_PCT,FG3_PCT,AST,REB,TOV,GAME_ID_y,TEAM_ID_y,TEAM_ABBREVIATION,TEAM_CITY_y,PLAYER_NAME_y,START_POSITION_y,COMMENT_y,MIN_y,PTS_OFF_TOV,PTS_2ND_CHANCE,PTS_FB,PTS_PAINT,OPP_PTS_OFF_TOV,OPP_PTS_2ND_CHANCE,OPP_PTS_FB,OPP_PTS_PAINT,BLK,BLKA,PF,PFD
0011500051,1610612749,MIL,Milwaukee,203996,Damien Inglis,F,,8:11,66.7,132.6,-66.0,0.0,0.0,0.0,0.0,0.0,0.0,0.0,0.5,0.5,0.118,88.22,0.0,2015-10-13T00:00:00,2,MIL,Milwaukee,1-2,23,22,30,35,0,0,0,0,0,0,0,0,0,0,110,0.477,0.808,0.368,30,52,15,0011500051,1610612749,MIL,Milwaukee,Damien Inglis,F,,8:11,0.0,0.0,0.0,0.0,2.0,3.0,4.0,6.0,0.0,0.0,1.0,1.0
0011500051,1610612749,MIL,Milwaukee,203114,Khris Middleton,F,,27:44,98.6,102.5,-3.8,0.059,0.0,10.1,0.0,0.107,0.054,0.0,0.25,0.338,0.135,102.39,0.012,2015-10-13T00:00:00,2,MIL,Milwaukee,1-2,23,22,30,35,0,0,0,0,0,0,0,0,0,0,110,0.477,0.808,0.368,30,52,15,0011500051,1610612749,MIL,Milwaukee,Khris Middleton,F,,27:44,0.0,2.0,2.0,2.0,7.0,9.0,4.0,12.0,2.0,0.0,4.0,1.0
0011500051,1610612749,MIL,Milwaukee,202328,Greg Monroe,C,,27:47,93.0,111.7,-18.7,0.143,1.0,10.8,0.069,0.5,0.255,10.8,0.636,0.654,0.263,97.65,0.264,2015-10-13T00:00:00,2,MIL,Milwaukee,1-2,23,22,30,35,0,0,0,0,0,0,0,0,0,0,110,0.477,0.808,0.368,30,52,15,0011500051,1610612749,MIL,Milwaukee,Greg Monroe,C,,27:47,4.0,4.0,0.0,12.0,7.0,6.0,8.0,20.0,0.0,0.0,3.0,7.0
0011500051,1610612749,MIL,Milwaukee,202349,Greivis Vasquez,G,,21:39,88.6,118.1,-29.5,0.2,0.0,22.2,0.0,0.2,0.089,0.0,0.643,0.643,0.137,99.81,0.117,2015-10-13T00:00:00,2,MIL,Milwaukee,1-2,23,22,30,35,0,0,0,0,0,0,0,0,0,0,110,0.477,0.808,0.368,30,52,15,0011500051,1610612749,MIL,Milwaukee,Greivis Vasquez,G,,21:39,3.0,0.0,2.0,4.0,2.0,6.0,4.0,10.0,0.0,0.0,4.0,0.0
0011500051,1610612749,MIL,Milwaukee,203487,Michael Carter-Williams,G,,28:07,81.3,105.5,-24.2,0.188,1.5,18.8,0.065,0.107,0.085,12.5,0.091,0.091,0.194,100.55,-0.033,2015-10-13T00:00:00,2,MIL,Milwaukee,1-2,23,22,30,35,0,0,0,0,0,0,0,0,0,0,110,0.477,0.808,0.368,30,52,15,0011500051,1610612749,MIL,Milwaukee,Michael Carter-Williams,G,,28:07,0.0,0.0,0.0,0.0,12.0,8.0,8.0,14.0,3.0,1.0,3.0,1.0
0011500051,1610612749,MIL,Milwaukee,1626173,Rashad Vaughn,,,34:26,119.7,95.3,24.4,0.0,0.0,0.0,0.0,0.028,0.015,0.0,0.633,0.615,0.187,102.6,0.06,2015-10-13T00:00:00,2,MIL,Milwaukee,1-2,23,22,30,35,0,0,0,0,0,0,0,0,0,0,110,0.477,0.808,0.368,30,52,15,0011500051,1610612749,MIL,Milwaukee,Rashad Vaughn,,,34:26,2.0,2.0,0.0,10.0,13.0,9.0,7.0,18.0,0.0,0.0,4.0,1.0
0011500051,1610612749,MIL,Milwaukee,203089,John Henson,,,20:13,129.4,83.4,46.0,0.133,0.4,11.3,0.267,0.24,0.25,28.3,0.625,0.752,0.309,105.37,0.224,2015-10-13T00:00:00,2,MIL,Milwaukee,1-2,23,22,30,35,0,0,0,0,0,0,0,0,0,0,110,0.477,0.808,0.368,30,52,15,0011500051,1610612749,MIL,Milwaukee,John Henson,,,20:13,0.0,8.0,0.0,8.0,11.0,6.0,3.0,4.0,4.0,2.0,2.0,3.0
0011500051,1610612749,MIL,Milwaukee,201573,Jerryd Bayless,,,23:10,134.3,87.0,47.3,0.381,4.0,40.5,0.0,0.154,0.095,10.1,0.563,0.666,0.22,102.56,0.182,2015-10-13T00:00:00,2,MIL,Milwaukee,1-2,23,22,30,35,0,0,0,0,0,0,0,0,0,0,110,0.477,0.808,0.368,30,52,15,0011500051,1610612749,MIL,Milwaukee,Jerryd Bayless,,,23:10,4.0,2.0,2.0,6.0,11.0,6.0,3.0,12.0,1.0,0.0,2.0,2.0
0011500051,1610612749,MIL,Milwaukee,201564,O.J. Mayo,,,23:31,142.7,85.7,57.0,0.435,5.0,45.7,0.059,0.13,0.1,9.1,0.556,0.607,0.208,104.63,0.183,2015-10-13T00:00:00,2,MIL,Milwaukee,1-2,23,22,30,35,0,0,0,0,0,0,0,0,0,0,110,0.477,0.808,0.368,30,52,15,0011500051,1610612749,MIL,Milwaukee,O.J. Mayo,,,23:31,3.0,0.0,0.0,0.0,9.0,4.0,3.0,8.0,0.0,0.0,1.0,3.0
0011500051,1610612749,MIL,Milwaukee,203948,Johnny O'Bryant III,,,20:16,124.9,95.6,29.3,0.056,1.0,10.7,0.25,0.211,0.229,10.7,0.667,0.683,0.175,98.86,0.133,2015-10-13T00:00:00,2,MIL,Milwaukee,1-2,23,22,30,35,0,0,0,0,0,0,0,0,0,0,110,0.477,0.808,0.368,30,52,15,0011500051,1610612749,MIL,Milwaukee,Johnny O'Bryant III,,,20:16,0.0,3.0,2.0,8.0,11.0,3.0,7.0,12.0,0.0,0.0,2.0,4.0
0011500051,1610612749,MIL,Milwaukee,203268,Jorge Gutierrez,,,4:56,70.9,101.4,-30.5,0.5,1.0,33.3,0.0,0.0,0.0,33.3,1.0,1.0,0.168,91.26,0.077,2015-10-13T00:00:00,2,MIL,Milwaukee,1-2,23,22,30,35,0,0,0,0,0,0,0,0,0,0,110,0.477,0.808,0.368,30,52,15,0011500051,1610612749,MIL,Milwaukee,Jorge Gutierrez,,,4:56,0.0,0.0,0.0,2.0,5.0,0.0,4.0,4.0,0.0,0.0,1.0,1.0
0011500051,1610612749,MIL,Milwaukee,202068,Marcus Landry,,DNP - Coach's Decision                  ,,,,,,,0.0,,,,,,,0.0,,,2015-10-13T00:00:00,2,MIL,Milwaukee,1-2,23,22,30,35,0,0,0,0,0,0,0,0,0,0,110,0.477,0.808,0.368,30,52,15,0011500051,1610612749,MIL,Milwaukee,Marcus Landry,,DNP - Coach's Decision                  ,,,,,,,,,,,,,
0011500051,1610612749,MIL,Milwaukee,2694,Josh Powell,,DNP - Coach's Decision                  ,,,,,,,0.0,,,,,,,0.0,,,2015-10-13T00:00:00,2,MIL,Milwaukee,1-2,23,22,30,35,0,0,0,0,0,0,0,0,0,0,110,0.477,0.808,0.368,30,52,15,0011500051,1610612749,MIL,Milwaukee,Josh Powell,,DNP - Coach's Decision                  ,,,,,,,,,,,,,
0011500051,1610612739,CLE,Cleveland,2210,Richard Jefferson,F,,20:06,117.0,85.7,31.3,0.25,2.0,15.1,0.0,0.125,0.068,7.5,0.5,0.778,0.246,101.54,0.212,2015-10-13T00:00:00,2,CLE,Cleveland,0-4,31,20,27,23,0,0,0,0,0,0,0,0,0,0,101,0.351,0.795,0.316,19,39,13,0011500051,1610612739,CLE,Cleveland,Richard Jefferson,F,,20:06,0.0,2.0,2.0,2.0,5.0,10.0,0.0,18.0,0.0,0.0,4.0,7.0
0011500051,1610612739,CLE,Cleveland,2592,James Jones,F,,29:42,105.6,95.0,10.5,0.071,1.0,8.4,0.033,0.133,0.083,8.4,0.333,0.405,0.161,99.85,0.067,2015-10-13T00:00:00,2,CLE,Cleveland,0-4,31,20,27,23,0,0,0,0,0,0,0,0,0,0,101,0.351,0.795,0.316,19,39,13,0011500051,1610612739,CLE,Cleveland,James Jones,F,,29:42,0.0,3.0,0.0,0.0,5.0,14.0,4.0,26.0,1.0,0.0,0.0,3.0
0011500051,1610612739,CLE,Cleveland,201619,Sasha Kaun,C,,23:29,120.2,107.8,12.4,0.0,0.0,0.0,0.056,0.217,0.146,11.6,0.6,0.524,0.171,95.9,0.018,2015-10-13T00:00:00,2,CLE,Cleveland,0-4,31,20,27,23,0,0,0,0,0,0,0,0,0,0,101,0.351,0.795,0.316,19,39,13,0011500051,1610612739,CLE,Cleveland,Sasha Kaun,C,,23:29,2.0,1.0,0.0,6.0,8.0,8.0,2.0,22.0,0.0,1.0,5.0,4.0
0011500051,1610612739,CLE,Cleveland,203521,Matthew Dellavedova,G,,21:09,106.4,80.5,25.9,0.222,0.0,16.8,0.0,0.04,0.021,0.0,0.611,0.658,0.198,104.08,0.222,2015-10-13T00:00:00,2,CLE,Cleveland,0-4,31,20,27,23,0,0,0,0,0,0,0,0,0,0,101,0.351,0.795,0.316,19,39,13,0011500051,1610612739,CLE,Cleveland,Matthew Dellavedova,G,,21:09,3.0,3.0,0.0,0.0,0.0,14.0,2.0,18.0,0.0,1.0,0.0,3.0
0011500051,1610612739,CLE,Cleveland,2590,Mo Williams,G,,28:29,100.8,108.0,-7.2,0.4,1.33,15.9,0.031,0.172,0.098,12.0,0.367,0.498,0.312,104.95,0.123,2015-10-13T00:00:00,2,CLE,Cleveland,0-4,31,20,27,23,0,0,0,0,0,0,0,0,0,0,101,0.351,0.795,0.316,19,39,13,0011500051,1610612739,CLE,Cleveland,Mo Williams,G,,28:29,3.0,0.0,5.0,0.0,8.0,14.0,2.0,28.0,0.0,3.0,1.0,3.0
0011500051,1610612739,CLE,Cleveland,203925,Joe Harris,,,14:45,91.1,107.5,-16.4,0.0,0.0,0.0,0.0,0.0,0.0,11.1,0.625,0.625,0.258,103.29,0.071,2015-10-13T00:00:00,2,CLE,Cleveland,0-4,31,20,27,23,0,0,0,0,0,0,0,0,0,0,101,0.351,0.795,0.316,19,39,13,0011500051,1610612739,CLE,Cleveland,Joe Harris,,,14:45,8.0,0.0,2.0,4.0,4.0,5.0,4.0,20.0,0.0,1.0,1.0,0.0
0011500051,1610612739,CLE,Cleveland,2760,Anderson Varejao,,,12:21,74.3,81.9,-7.7,0.333,1.0,25.0,0.056,0.167,0.1,25.0,0.5,0.5,0.096,109.53,0.068,2015-10-13T00:00:00,2,CLE,Cleveland,0-4,31,20,27,23,0,0,0,0,0,0,0,0,0,0,101,0.351,0.795,0.316,19,39,13,0011500051,1610612739,CLE,Cleveland,Anderson Varejao,,,12:21,2.0,2.0,0.0,2.0,0.0,12.0,0.0,14.0,1.0,0.0,3.0,0.0
0011500051,1610612739,CLE,Cleveland,203099,Jared Cunningham,,,23:24,82.8,124.2,-41.4,0.2,0.0,12.0,0.077,0.105,0.089,0.0,0.083,0.205,0.257,105.27,-0.011,2015-10-13T00:00:00,2,CLE,Cleveland,0-4,31,20,27,23,0,0,0,0,0,0,0,0,0,0,101,0.351,0.795,0.316,19,39,13,0011500051,1610612739,CLE,Cleveland,Jared Cunningham,,,23:24,0.0,1.0,0.0,2.0,12.0,12.0,4.0,26.0,0.0,4.0,2.0,3.0
0011500051,1610612739,CLE,Cleveland,202419,Chris Johnson,,,16:52,87.9,128.8,-40.8,0.0,0.0,0.0,0.053,0.231,0.125,0.0,1.0,1.064,0.047,104.84,0.115,2015-10-13T00:00:00,2,CLE,Cleveland,0-4,31,20,27,23,0,0,0,0,0,0,0,0,0,0,101,0.351,0.795,0.316,19,39,13,0011500051,1610612739,CLE,Cleveland,Chris Johnson,,,16:52,0.0,0.0,0.0,2.0,8.0,5.0,6.0,22.0,1.0,0.0,0.0,1.0
0011500051,1610612739,CLE,Cleveland,202091,Dionte Christmas,,,16:47,97.1,165.2,-68.1,0.25,0.0,24.4,0.0,0.1,0.045,0.0,0.875,0.806,0.177,93.01,0.096,2015-10-13T00:00:00,2,CLE,Cleveland,0-4,31,20,27,23,0,0,0,0,0,0,0,0,0,0,101,0.351,0.795,0.316,19,39,13,0011500051,1610612739,CLE,Cleveland,Dionte Christmas,,,16:47,0.0,0.0,0.0,2.0,9.0,6.0,6.0,22.0,0.0,0.0,2.0,2.0
0011500051,1610612739,CLE,Cleveland,1626188,Quinn Cook,,,14:24,103.4,121.9,-18.5,0.5,1.0,28.8,0.1,0.2,0.15,28.8,0.4,0.51,0.34,90.27,0.042,2015-10-13T00:00:00,2,CLE,Cleveland,0-4,31,20,27,23,0,0,0,0,0,0,0,0,0,0,101,0.351,0.795,0.316,19,39,13,0011500051,1610612739,CLE,Cleveland,Quinn Cook,,,14:24,0.0,0.0,2.0,4.0,8.0,1.0,6.0,18.0,0.0,0.0,3.0,1.0
0011500051,1610612739,CLE,Cleveland,201948,Austin Daye,,,7:33,92.6,185.2,-92.6,0.0,0.0,0.0,0.0,0.4,0.2,50.0,0.0,0.0,0.116,102.99,-0.071,2015-10-13T00:00:00,2,CLE,Cleveland,0-4,31,20,27,23,0,0,0,0,0,0,0,0,0,0,101,0.351,0.795,0.316,19,39,13,0011500051,1610612739,CLE,Cleveland,Austin Daye,,,7:33,0.0,0.0,0.0,0.0,7.0,2.0,2.0,10.0,0.0,0.0,3.0,0.0
0011500051,1610612739,CLE,Cleveland,1626305,Nick Minnerath,,,6:03,92.6,92.6,0.0,0.25,0.0,50.0,0.0,0.2,0.111,0.0,0.0,0.0,0.084,94.25,0.048,2015-10-13T00:00:00,2,CLE,Cleveland,0-4,31,20,27,23,0,0,0,0,0,0,0,0,0,0,101,0.351,0.795,0.316,19,39,13,0011500051,1610612739,CLE,Cleveland,Nick Minnerath,,,6:03,0.0,0.0,0.0,0.0,4.0,1.0,2.0,10.0,0.0,0.0,0.0,0.0
0011500051,1610612739,CLE,Cleveland,203474,DJ Stephens,,,4:56,101.4,70.9,30.5,0.0,0.0,0.0,0.0,0.0,0.0,0.0,0.0,0.0,0.0,91.26,0.0,2015-10-13T00:00:00,2,CLE,Cleveland,0-4,31,20,27,23,0,0,0,0,0,0,0,0,0,0,101,0.351,0.795,0.316,19,39,13,0011500051,1610612739,CLE,Cleveland,DJ Stephens,,,4:56,0.0,0.0,0.0,0.0,2.0,1.0,0.0,6.0,0.0,0.0,0.0,0.0
