GAME_ID_x,TEAM_ID_x,TEAM_ABBREVIATION_x,TEAM_CITY_x,PLAYER_ID,PLAYER_NAME_x,START_POSITION_x,COMMENT_x,MIN_x,OFF_RATING,DEF_RATING,NET_RATING,AST_PCT,AST_TOV,AST_RATIO,OREB_PCT,DREB_PCT,REB_PCT,TM_TOV_PCT,EFG_PCT,TS_PCT,USG_PCT,PACE,PIE,GAME_DATE_EST,GAME_SEQUENCE,TEAM_ABBREVIATION_y,TEAM_CITY_NAME,TEAM_WINS_LOSSES,PTS_QTR1,PTS_QTR2,PTS_QTR3,PTS_QTR4,PTS_OT1,PTS_OT2,PTS_OT3,PTS_OT4,PTS_OT5,PTS_OT6,PTS_OT7,PTS_OT8,PTS_OT9,PTS_OT10,PTS,FG_PCT,FT_PCT,FG3_PCT,AST,REB,TOV,GAME_ID_y,TEAM_ID_y,TEAM_ABBREVIATION,TEAM_CITY_y,PLAYER_NAME_y,START_POSITION_y,COMMENT_y,MIN_y,PTS_OFF_TOV,PTS_2ND_CHANCE,PTS_FB,PTS_PAINT,OPP_PTS_OFF_TOV,OPP_PTS_2ND_CHANCE,OPP_PTS_FB,OPP_PTS_PAINT,BLK,BLKA,PF,PFD
0011500086,1610612757,POR,Portland,203090,Maurice Harkless,F,,29:00,92.3,85.9,6.4,0.0,0.0,0.0,0.067,0.107,0.086,0.0,0.417,0.497,0.216,103.98,0.111,2015-10-19T00:00:00,5,POR,Portland,3-3,25,22,27,28,0,0,0,0,0,0,0,0,0,0,102,0.42,0.75,0.345,16,45,12,0011500086,1610612757,POR,Portland,Maurice Harkless,F,,29:00,6.0,3.0,4.0,10.0,6.0,0.0,7.0,10.0,1.0,0.0,2.0,5.0
0011500086,1610612757,POR,Portland,203086,Meyers Leonard,F,,22:15,109.0,94.3,14.6,0.063,0.5,11.1,0.0,0.375,0.209,22.2,0.667,0.667,0.161,101.78,0.123,2015-10-19T00:00:00,5,POR,Portland,3-3,25,22,27,28,0,0,0,0,0,0,0,0,0,0,102,0.42,0.75,0.345,16,45,12,0011500086,1610612757,POR,Portland,Meyers Leonard,F,,22:15,3.0,0.0,0.0,2.0,2.0,4.0,4.0,12.0,1.0,0.0,3.0,0.0
0011500086,1610612757,POR,Portland,203486,Mason Plumlee,C,,17:59,108.9,85.3,23.6,0.167,2.0,19.4,0.0,0.2,0.094,9.7,0.667,0.615,0.192,107.09,0.133,2015-10-19T00:00:00,5,POR,Portland,3-3,25,22,27,28,0,0,0,0,0,0,0,0,0,0,102,0.42,0.75,0.345,16,45,12,0011500086,1610612757,POR,Portland,Mason Plumlee,C,,17:59,1.0,0.0,1.0,8.0,4.0,0.0,4.0,2.0,0.0,0.0,2.0,2.0
0011500086,1610612757,POR,Portland,203468,CJ McCollum,G,,24:53,102.5,101.2,1.3,0.0,0.0,0.0,0.045,0.115,0.083,9.1,0.5,0.5,0.205,97.53,0.055,2015-10-19T00:00:00,5,POR,Portland,3-3,25,22,27,28,0,0,0,0,0,0,0,0,0,0,102,0.42,0.75,0.345,16,45,12,0011500086,1610612757,POR,Portland,CJ McCollum,G,,24:53,0.0,2.0,0.0,4.0,8.0,8.0,9.0,10.0,0.0,0.0,2.0,1.0
0011500086,1610612757,POR,Portland,203081,Damian Lillard,G,,24:00,104.6,94.6,10.0,0.462,2.0,22.5,0.0,0.12,0.065,11.3,0.467,0.567,0.399,98.36,0.212,2015-10-19T00:00:00,5,POR,Portland,3-3,25,22,27,28,0,0,0,0,0,0,0,0,0,0,102,0.42,0.75,0.345,16,45,12,0011500086,1610612757,POR,Portland,Damian Lillard,G,,24:00,2.0,0.0,3.0,8.0,2.0,6.0,4.0,14.0,0.0,0.0,0.0,4.0
0011500086,1610612757,POR,Portland,202334,Ed Davis,,,16:02,78.6,110.7,-32.1,0.143,0.0,17.0,0.071,0.063,0.067,0.0,0.5,0.512,0.15,87.6,0.116,2015-10-19T00:00:00,5,POR,Portland,3-3,25,22,27,28,0,0,0,0,0,0,0,0,0,0,102,0.42,0.75,0.345,16,45,12,0011500086,1610612757,POR,Portland,Ed Davis,,,16:02,0.0,2.0,0.0,4.0,2.0,6.0,2.0,18.0,0.0,0.0,0.0,1.0
0011500086,1610612757,POR,Portland,203459,Allen Crabbe,,,27:50,89.4,111.7,-22.3,0.071,1.0,9.1,0.0,0.08,0.041,9.1,0.556,0.556,0.17,92.86,0.067,2015-10-19T00:00:00,5,POR,Portland,3-3,25,22,27,28,0,0,0,0,0,0,0,0,0,0,102,0.42,0.75,0.345,16,45,12,0011500086,1610612757,POR,Portland,Allen Crabbe,,,27:50,0.0,0.0,0.0,2.0,15.0,9.0,8.0,28.0,0.0,0.0,1.0,0.0
0011500086,1610612757,POR,Portland,1626192,Pat Connaughton,,,16:43,103.7,121.5,-17.8,0.0,0.0,0.0,0.0,0.063,0.029,30.1,1.5,1.293,0.08,105.78,0.074,2015-10-19T00:00:00,5,POR,Portland,3-3,25,22,27,28,0,0,0,0,0,0,0,0,0,0,102,0.42,0.75,0.345,16,45,12,0011500086,1610612757,POR,Portland,Pat Connaughton,,,16:43,3.0,0.0,0.0,0.0,15.0,3.0,11.0,20.0,0.0,0.0,1.0,2.0
0011500086,1610612757,POR,Portland,2549,Chris Kaman,,,16:30,106.6,109.6,-3.0,0.273,3.0,21.4,0.095,0.176,0.132,7.1,0.3,0.3,0.264,104.88,0.057,2015-10-19T00:00:00,5,POR,Portland,3-3,25,22,27,28,0,0,0,0,0,0,0,0,0,0,102,0.42,0.75,0.345,16,45,12,0011500086,1610612757,POR,Portland,Chris Kaman,,,16:30,0.0,2.0,0.0,4.0,13.0,3.0,9.0,12.0,1.0,0.0,2.0,0.0
0011500086,1610612757,POR,Portland,203943,Noah Vonleh,,,23:09,92.3,119.2,-27.0,0.067,1.0,9.6,0.12,0.389,0.233,9.6,0.125,0.178,0.166,101.23,0.028,2015-10-19T00:00:00,5,POR,Portland,3-3,25,22,27,28,0,0,0,0,0,0,0,0,0,0,102,0.42,0.75,0.345,16,45,12,0011500086,1610612757,POR,Portland,Noah Vonleh,,,23:09,0.0,0.0,0.0,2.0,17.0,5.0,11.0,22.0,1.0,1.0,3.0,2.0
0011500086,1610612757,POR,Portland,204025,Tim Frazier,,,5:19,97.2,98.2,-1.0,0.333,0.0,50.0,0.0,0.0,0.0,0.0,1.0,1.0,0.081,101.66,0.138,2015-10-19T00:00:00,5,POR,Portland,3-3,25,22,27,28,0,0,0,0,0,0,0,0,0,0,102,0.42,0.75,0.345,16,45,12,0011500086,1610612757,POR,Portland,Tim Frazier,,,5:19,0.0,0.0,0.0,2.0,4.0,0.0,2.0,2.0,0.0,0.0,1.0,1.0
0011500086,1610612757,POR,Portland,203515,Phil Pressey,,,12:00,99.3,121.8,-22.5,0.0,0.0,0.0,0.063,0.0,0.04,14.5,0.5,0.51,0.201,108.96,-0.034,2015-10-19T00:00:00,5,POR,Portland,3-3,25,22,27,28,0,0,0,0,0,0,0,0,0,0,102,0.42,0.75,0.345,16,45,12,0011500086,1610612757,POR,Portland,Phil Pressey,,,12:00,0.0,0.0,3.0,2.0,5.0,1.0,2.0,12.0,0.0,0.0,4.0,3.0
0011500086,1610612757,POR,Portland,204179,Omari Johnson,,,4:20,127.6,135.8,-8.2,0.0,0.0,0.0,0.0,0.0,0.0,0.0,1.0,1.0,0.061,143.11,0.075,2015-10-19T00:00:00,5,POR,Portland,3-3,25,22,27,28,0,0,0,0,0,0,0,0,0,0,102,0.42,0.75,0.345,16,45,12,0011500086,1610612757,POR,Portland,Omari Johnson,,,4:20,2.0,0.0,2.0,2.0,2.0,0.0,2.0,8.0,0.0,0.0,1.0,0.0
0011500086,1610612757,POR,Portland,1626146,Cliff Alexander,,DND - Left knee soreness.               ,,,,,,,0.0,,,,,,,0.0,,,2015-10-19T00:00:00,5,POR,Portland,3-3,25,22,27,28,0,0,0,0,0,0,0,0,0,0,102,0.42,0.75,0.345,16,45,12,0011500086,1610612757,POR,Portland,Cliff Alexander,,DND - Left knee soreness.               ,,,,,,,,,,,,,
0011500086,1610612757,POR,Portland,202329,Al-Farouq Aminu,,DND - Left hamstring strain.            ,,,,,,,0.0,,,,,,,0.0,,,2015-10-19T00:00:00,5,POR,Portland,3-3,25,22,27,28,0,0,0,0,0,0,0,0,0,0,102,0.42,0.75,0.345,16,45,12,0011500086,1610612757,POR,Portland,Al-Farouq Aminu,,DND - Left hamstring strain.            ,,,,,,,,,,,,,
0011500086,1610612757,POR,Portland,201945,Gerald Henderson,,DND - Left hip soreness.                ,,,,,,,0.0,,,,,,,0.0,,,2015-10-19T00:00:00,5,POR,Portland,3-3,25,22,27,28,0,0,0,0,0,0,0,0,0,0,102,0.42,0.75,0.345,16,45,12,0011500086,1610612757,POR,Portland,Gerald Henderson,,DND - Left hip soreness.                ,,,,,,,,,,,,,
0011500086,1610612757,POR,Portland,1626242,Luis Montero,,DNP - Coach's Decision                  ,,,,,,,0.0,,,,,,,0.0,,,2015-10-19T00:00:00,5,POR,Portland,3-3,25,22,27,28,0,0,0,0,0,0,0,0,0,0,102,0.42,0.75,0.345,16,45,12,0011500086,1610612757,POR,Portland,Luis Montero,,DNP - Coach's Decision                  ,,,,,,,,,,,,,
0011500086,1610612747,LAL,Los Angeles,1626148,Anthony Brown,F,,18:39,86.0,84.4,1.6,0.0,0.0,0.0,0.053,0.0,0.027,20.0,0.0,0.0,0.12,101.15,-0.083,2015-10-19T00:00:00,5,LAL,Los Angeles,3-4,21,26,25,32,0,0,0,0,0,0,0,0,0,0,104,0.447,0.815,0.316,22,48,13,0011500086,1610612747,LAL,Los Angeles,Anthony Brown,F,,18:39,0.0,0.0,0.0,0.0,7.0,2.0,4.0,18.0,0.0,0.0,0.0,0.0
0011500086,1610612747,LAL,Los Angeles,203944,Julius Randle,F,,12:00,75.6,95.4,-19.8,0.5,0.0,50.8,0.0,0.6,0.261,0.0,0.0,0.258,0.135,107.92,0.22,2015-10-19T00:00:00,5,LAL,Los Angeles,3-4,21,26,25,32,0,0,0,0,0,0,0,0,0,0,104,0.447,0.815,0.316,22,48,13,0011500086,1610612747,LAL,Los Angeles,Julius Randle,F,,12:00,0.0,0.0,0.0,0.0,5.0,0.0,2.0,14.0,0.0,2.0,0.0,2.0
0011500086,1610612747,LAL,Los Angeles,201579,Roy Hibbert,C,,12:00,75.6,95.4,-19.8,0.0,0.0,0.0,0.0,0.1,0.043,0.0,0.6,0.6,0.174,107.92,0.122,2015-10-19T00:00:00,5,LAL,Los Angeles,3-4,21,26,25,32,0,0,0,0,0,0,0,0,0,0,104,0.447,0.815,0.316,22,48,13,0011500086,1610612747,LAL,Los Angeles,Roy Hibbert,C,,12:00,0.0,0.0,0.0,4.0,5.0,0.0,2.0,14.0,0.0,0.0,1.0,3.0
0011500086,1610612747,LAL,Los Angeles,203903,Jordan Clarkson,G,,24:00,94.6,104.6,-10.0,0.25,0.75,16.9,0.04,0.143,0.087,22.5,0.722,0.79,0.27,98.36,0.171,2015-10-19T00:00:00,5,LAL,Los Angeles,3-4,21,26,25,32,0,0,0,0,0,0,0,0,0,0,104,0.447,0.815,0.316,22,48,13,0011500086,1610612747,LAL,Los Angeles,Jordan Clarkson,G,,24:00,2.0,4.0,4.0,6.0,8.0,2.0,6.0,30.0,0.0,0.0,3.0,3.0
0011500086,1610612747,LAL,Los Angeles,1626156,D'Angelo Russell,G,,17:21,94.6,108.4,-13.8,0.0,0.0,0.0,0.0,0.111,0.059,18.4,0.625,0.676,0.251,115.92,0.124,2015-10-19T00:00:00,5,LAL,Los Angeles,3-4,21,26,25,32,0,0,0,0,0,0,0,0,0,0,104,0.447,0.815,0.316,22,48,13,0011500086,1610612747,LAL,Los Angeles,D'Angelo Russell,G,,17:21,2.0,0.0,0.0,6.0,10.0,2.0,7.0,22.0,0.0,0.0,1.0,1.0
0011500086,1610612747,LAL,Los Angeles,203913,Jabari Brown,,,17:21,114.0,105.1,8.9,0.231,3.0,31.1,0.0,0.0,0.0,10.4,0.667,0.887,0.156,109.89,0.135,2015-10-19T00:00:00,5,LAL,Los Angeles,3-4,21,26,25,32,0,0,0,0,0,0,0,0,0,0,104,0.447,0.815,0.316,22,48,13,0011500086,1610612747,LAL,Los Angeles,Jabari Brown,,,17:21,4.0,0.0,6.0,0.0,7.0,5.0,5.0,16.0,0.0,0.0,3.0,3.0
0011500086,1610612747,LAL,Los Angeles,1626273,Marcelo Huertas,,,18:39,106.2,80.0,26.3,0.727,8.0,42.4,0.0,0.053,0.028,5.3,0.333,0.405,0.267,95.54,0.167,2015-10-19T00:00:00,5,LAL,Los Angeles,3-4,21,26,25,32,0,0,0,0,0,0,0,0,0,0,104,0.447,0.815,0.316,22,48,13,0011500086,1610612747,LAL,Los Angeles,Marcelo Huertas,,,18:39,2.0,0.0,0.0,2.0,4.0,5.0,2.0,12.0,0.0,0.0,2.0,3.0
0011500086,1610612747,LAL,Los Angeles,1626182,Jonathan Holmes,,,1:11,100.0,150.0,-50.0,0.0,0.0,0.0,0.0,0.0,0.0,0.0,0.0,0.0,0.0,81.13,0.286,2015-10-19T00:00:00,5,LAL,Los Angeles,3-4,21,26,25,32,0,0,0,0,0,0,0,0,0,0,104,0.447,0.815,0.316,22,48,13,0011500086,1610612747,LAL,Los Angeles,Jonathan Holmes,,,1:11,0.0,0.0,0.0,0.0,0.0,0.0,0.0,0.0,0.0,0.0,0.0,0.0
0011500086,1610612747,LAL,Los Angeles,204028,Tarik Black,,,12:00,104.2,89.3,14.9,0.0,0.0,0.0,0.182,0.364,0.273,17.0,1.0,0.82,0.21,99.2,0.229,2015-10-19T00:00:00,5,LAL,Los Angeles,3-4,21,26,25,32,0,0,0,0,0,0,0,0,0,0,104,0.447,0.815,0.316,22,48,13,0011500086,1610612747,LAL,Los Angeles,Tarik Black,,,12:00,6.0,2.0,2.0,6.0,2.0,3.0,0.0,8.0,0.0,0.0,3.0,1.0
0011500086,1610612747,LAL,Los Angeles,101138,Brandon Bass,,,12:00,104.2,89.3,14.9,0.125,0.0,20.0,0.091,0.273,0.182,0.0,0.25,0.25,0.143,99.2,0.1,2015-10-19T00:00:00,5,LAL,Los Angeles,3-4,21,26,25,32,0,0,0,0,0,0,0,0,0,0,104,0.447,0.815,0.316,22,48,13,0011500086,1610612747,LAL,Los Angeles,Brandon Bass,,,12:00,0.0,0.0,0.0,0.0,2.0,3.0,0.0,8.0,0.0,1.0,0.0,0.0
0011500086,1610612747,LAL,Los Angeles,1626204,Larry Nance Jr.,,,16:27,118.1,106.6,11.5,0.091,0.0,16.7,0.118,0.133,0.125,0.0,0.7,0.7,0.136,91.16,0.19,2015-10-19T00:00:00,5,LAL,Los Angeles,3-4,21,26,25,32,0,0,0,0,0,0,0,0,0,0,104,0.447,0.815,0.316,22,48,13,0011500086,1610612747,LAL,Los Angeles,Larry Nance Jr.,,,16:27,0.0,2.0,0.0,2.0,3.0,5.0,4.0,18.0,0.0,0.0,0.0,1.0
0011500086,1610612747,LAL,Los Angeles,201156,Nick Young,,,18:22,111.2,103.1,8.0,0.0,0.0,0.0,0.063,0.167,0.118,6.9,0.423,0.446,0.36,93.98,0.073,2015-10-19T00:00:00,5,LAL,Los Angeles,3-4,21,26,25,32,0,0,0,0,0,0,0,0,0,0,104,0.447,0.815,0.316,22,48,13,0011500086,1610612747,LAL,Los Angeles,Nick Young,,,18:22,0.0,0.0,3.0,0.0,5.0,2.0,4.0,22.0,0.0,0.0,1.0,0.0
0011500086,1610612747,LAL,Los Angeles,1626187,Michael Frazier,,,12:00,119.7,114.8,4.9,0.0,0.0,0.0,0.0,0.0,0.0,0.0,0.0,0.0,0.077,88.8,-0.045,2015-10-19T00:00:00,5,LAL,Los Angeles,3-4,21,26,25,32,0,0,0,0,0,0,0,0,0,0,104,0.447,0.815,0.316,22,48,13,0011500086,1610612747,LAL,Los Angeles,Michael Frazier,,,12:00,0.0,0.0,0.0,0.0,3.0,2.0,4.0,16.0,0.0,0.0,0.0,0.0
0011500086,1610612747,LAL,Los Angeles,1626193,Robert Upshaw,,,12:00,119.7,114.8,4.9,0.111,0.0,20.0,0.083,0.455,0.261,0.0,0.25,0.25,0.155,88.8,0.034,2015-10-19T00:00:00,5,LAL,Los Angeles,3-4,21,26,25,32,0,0,0,0,0,0,0,0,0,0,104,0.447,0.815,0.316,22,48,13,0011500086,1610612747,LAL,Los Angeles,Robert Upshaw,,,12:00,0.0,0.0,0.0,0.0,3.0,2.0,4.0,16.0,0.0,0.0,4.0,0.0
0011500086,1610612747,LAL,Los Angeles,203527,Ryan Kelly,,,12:00,121.8,99.3,22.5,0.0,0.0,0.0,0.0,0.25,0.16,13.9,0.625,0.726,0.264,108.96,0.18,2015-10-19T00:00:00,5,LAL,Los Angeles,3-4,21,26,25,32,0,0,0,0,0,0,0,0,0,0,104,0.447,0.815,0.316,22,48,13,0011500086,1610612747,LAL,Los Angeles,Ryan Kelly,,,12:00,3.0,0.0,0.0,2.0,7.0,4.0,7.0,12.0,0.0,1.0,1.0,2.0
0011500086,1610612747,LAL,Los Angeles,1897,Metta World Peace,,,12:00,121.8,99.3,22.5,0.0,0.0,0.0,0.0,0.063,0.04,0.0,0.5,0.45,0.163,108.96,0.022,2015-10-19T00:00:00,5,LAL,Los Angeles,3-4,21,26,25,32,0,0,0,0,0,0,0,0,0,0,104,0.447,0.815,0.316,22,48,13,0011500086,1610612747,LAL,Los Angeles,Metta World Peace,,,12:00,0.0,0.0,0.0,4.0,7.0,4.0,7.0,12.0,0.0,0.0,1.0,1.0
0011500086,1610612747,LAL,Los Angeles,203135,Robert Sacre,,,12:00,121.8,99.3,22.5,0.111,1.0,14.5,0.111,0.188,0.16,14.5,0.5,0.512,0.216,108.96,0.112,2015-10-19T00:00:00,5,LAL,Los Angeles,3-4,21,26,25,32,0,0,0,0,0,0,0,0,0,0,104,0.447,0.815,0.316,22,48,13,0011500086,1610612747,LAL,Los Angeles,Robert Sacre,,,12:00,0.0,1.0,0.0,2.0,7.0,4.0,7.0,12.0,1.0,0.0,1.0,2.0
0011500086,1610612747,LAL,Los Angeles,977,Kobe Bryant,,NWT - Lower left leg contusion.         ,,,,,,,0.0,,,,,,,0.0,,,2015-10-19T00:00:00,5,LAL,Los Angeles,3-4,21,26,25,32,0,0,0,0,0,0,0,0,0,0,104,0.447,0.815,0.316,22,48,13,0011500086,1610612747,LAL,Los Angeles,Kobe Bryant,,NWT - Lower left leg contusion.         ,,,,,,,,,,,,,
0011500086,1610612747,LAL,Los Angeles,101150,Lou Williams,,DND - Sore groin.                       ,,,,,,,0.0,,,,,,,0.0,,,2015-10-19T00:00:00,5,LAL,Los Angeles,3-4,21,26,25,32,0,0,0,0,0,0,0,0,0,0,104,0.447,0.815,0.316,22,48,13,0011500086,1610612747,LAL,Los Angeles,Lou Williams,,DND - Sore groin.                       ,,,,,,,,,,,,,
