GAME_ID_x,TEAM_ID_x,TEAM_ABBREVIATION_x,TEAM_CITY_x,PLAYER_ID,PLAYER_NAME_x,START_POSITION_x,COMMENT_x,MIN_x,OFF_RATING,DEF_RATING,NET_RATING,AST_PCT,AST_TOV,AST_RATIO,OREB_PCT,DREB_PCT,REB_PCT,TM_TOV_PCT,EFG_PCT,TS_PCT,USG_PCT,PACE,PIE,GAME_DATE_EST,GAME_SEQUENCE,TEAM_ABBREVIATION_y,TEAM_CITY_NAME,TEAM_WINS_LOSSES,PTS_QTR1,PTS_QTR2,PTS_QTR3,PTS_QTR4,PTS_OT1,PTS_OT2,PTS_OT3,PTS_OT4,PTS_OT5,PTS_OT6,PTS_OT7,PTS_OT8,PTS_OT9,PTS_OT10,PTS,FG_PCT,FT_PCT,FG3_PCT,AST,REB,TOV,GAME_ID_y,TEAM_ID_y,TEAM_ABBREVIATION,TEAM_CITY_y,PLAYER_NAME_y,START_POSITION_y,COMMENT_y,MIN_y,PTS_OFF_TOV,PTS_2ND_CHANCE,PTS_FB,PTS_PAINT,OPP_PTS_OFF_TOV,OPP_PTS_2ND_CHANCE,OPP_PTS_FB,OPP_PTS_PAINT,BLK,BLKA,PF,PFD
0011500092,1610612740,NOP,New Orleans,201967,Dante Cunningham,F,,35:09,86.4,99.8,-13.4,0.063,0.0,20.0,0.032,0.111,0.075,0.0,0.0,0.0,0.051,103.99,-0.035,2015-10-21T00:00:00,1,NOP,New Orleans,2-4,21,37,21,22,6,0,0,0,0,0,0,0,0,0,107,0.378,0.843,0.32,10,45,22,0011500092,1610612740,NOP,New Orleans,Dante Cunningham,F,,35:09,0.0,0.0,0.0,0.0,14.0,13.0,8.0,34.0,1.0,0.0,5.0,1.0
0011500092,1610612740,NOP,New Orleans,203076,Anthony Davis,F,,40:36,89.8,99.9,-10.0,0.0,0.0,0.0,0.054,0.304,0.193,5.8,0.333,0.51,0.383,102.17,0.253,2015-10-21T00:00:00,1,NOP,New Orleans,2-4,21,37,21,22,6,0,0,0,0,0,0,0,0,0,107,0.378,0.843,0.32,10,45,22,0011500092,1610612740,NOP,New Orleans,Anthony Davis,F,,40:36,4.0,2.0,5.0,12.0,13.0,16.0,8.0,40.0,5.0,1.0,4.0,14.0
0011500092,1610612740,NOP,New Orleans,2570,Kendrick Perkins,C,,24:24,92.4,76.8,15.5,0.0,0.0,0.0,0.042,0.259,0.157,29.1,0.5,0.615,0.123,108.28,0.12,2015-10-21T00:00:00,1,NOP,New Orleans,2-4,21,37,21,22,6,0,0,0,0,0,0,0,0,0,107,0.378,0.843,0.32,10,45,22,0011500092,1610612740,NOP,New Orleans,Kendrick Perkins,C,,24:24,2.0,2.0,0.0,4.0,6.0,6.0,8.0,24.0,1.0,0.0,2.0,1.0
0011500092,1610612740,NOP,New Orleans,201569,Eric Gordon,G,,39:22,91.5,96.7,-5.2,0.125,1.0,12.3,0.0,0.068,0.038,12.3,0.357,0.57,0.162,103.59,0.092,2015-10-21T00:00:00,1,NOP,New Orleans,2-4,21,37,21,22,6,0,0,0,0,0,0,0,0,0,107,0.378,0.843,0.32,10,45,22,0011500092,1610612740,NOP,New Orleans,Eric Gordon,G,,39:22,0.0,0.0,0.0,0.0,13.0,14.0,8.0,38.0,0.0,0.0,1.0,7.0
0011500092,1610612740,NOP,New Orleans,201950,Jrue Holiday,G,,15:09,89.6,81.4,8.2,0.2,0.25,7.4,0.0,0.105,0.059,29.6,0.5,0.704,0.353,109.5,0.193,2015-10-21T00:00:00,1,NOP,New Orleans,2-4,21,37,21,22,6,0,0,0,0,0,0,0,0,0,107,0.378,0.843,0.32,10,45,22,0011500092,1610612740,NOP,New Orleans,Jrue Holiday,G,,15:09,0.0,0.0,0.0,2.0,4.0,2.0,6.0,16.0,0.0,0.0,1.0,5.0
0011500092,1610612740,NOP,New Orleans,101126,Nate Robinson,,,25:50,94.3,108.9,-14.7,0.0,0.0,0.0,0.0,0.038,0.021,25.2,0.773,0.758,0.295,96.77,0.129,2015-10-21T00:00:00,1,NOP,New Orleans,2-4,21,37,21,22,6,0,0,0,0,0,0,0,0,0,107,0.378,0.843,0.32,10,45,22,0011500092,1610612740,NOP,New Orleans,Nate Robinson,,,25:50,10.0,0.0,4.0,4.0,11.0,15.0,4.0,24.0,0.0,1.0,3.0,2.0
0011500092,1610612740,NOP,New Orleans,201583,Ryan Anderson,,,25:32,104.9,101.5,3.4,0.091,0.2,7.1,0.056,0.2,0.14,35.7,0.688,0.688,0.231,104.75,0.053,2015-10-21T00:00:00,1,NOP,New Orleans,2-4,21,37,21,22,6,0,0,0,0,0,0,0,0,0,107,0.378,0.843,0.32,10,45,22,0011500092,1610612740,NOP,New Orleans,Ryan Anderson,,,25:32,0.0,0.0,0.0,0.0,9.0,10.0,4.0,14.0,0.0,0.0,6.0,2.0
0011500092,1610612740,NOP,New Orleans,1626214,Bryce Dejean-Jones,,,15:42,107.9,90.4,17.5,0.2,0.0,22.8,0.0,0.083,0.04,0.0,0.4,0.518,0.192,104.81,0.094,2015-10-21T00:00:00,1,NOP,New Orleans,2-4,21,37,21,22,6,0,0,0,0,0,0,0,0,0,107,0.378,0.843,0.32,10,45,22,0011500092,1610612740,NOP,New Orleans,Bryce Dejean-Jones,,,15:42,2.0,0.0,2.0,4.0,5.0,5.0,2.0,6.0,0.0,0.0,3.0,4.0
0011500092,1610612740,NOP,New Orleans,202087,Alonzo Gee,,,31:15,98.4,89.4,9.0,0.118,2.0,22.8,0.0,0.1,0.053,11.4,0.0,0.347,0.096,103.08,0.028,2015-10-21T00:00:00,1,NOP,New Orleans,2-4,21,37,21,22,6,0,0,0,0,0,0,0,0,0,107,0.378,0.843,0.32,10,45,22,0011500092,1610612740,NOP,New Orleans,Alonzo Gee,,,31:15,2.0,0.0,2.0,0.0,12.0,12.0,2.0,20.0,0.0,1.0,5.0,3.0
0011500092,1610612740,NOP,New Orleans,1627322,Bo McCalebb,,,12:01,99.9,83.6,16.3,0.167,0.5,20.0,0.0,0.0,0.0,40.0,0.5,0.5,0.138,112.96,-0.04,2015-10-21T00:00:00,1,NOP,New Orleans,2-4,21,37,21,22,6,0,0,0,0,0,0,0,0,0,107,0.378,0.843,0.32,10,45,22,0011500092,1610612740,NOP,New Orleans,Bo McCalebb,,,12:01,0.0,0.0,0.0,2.0,3.0,2.0,0.0,4.0,0.0,0.0,1.0,1.0
0011500092,1610612740,NOP,New Orleans,202399,Jeff Adrien,,DNP - Coach's Decision                  ,,,,,,,0.0,,,,,,,0.0,,,2015-10-21T00:00:00,1,NOP,New Orleans,2-4,21,37,21,22,6,0,0,0,0,0,0,0,0,0,107,0.378,0.843,0.32,10,45,22,0011500092,1610612740,NOP,New Orleans,Jeff Adrien,,DNP - Coach's Decision                  ,,,,,,,,,,,,,
0011500092,1610612740,NOP,New Orleans,201582,Alexis Ajinca,,DNP - Coach's Decision                  ,,,,,,,0.0,,,,,,,0.0,,,2015-10-21T00:00:00,1,NOP,New Orleans,2-4,21,37,21,22,6,0,0,0,0,0,0,0,0,0,107,0.378,0.843,0.32,10,45,22,0011500092,1610612740,NOP,New Orleans,Alexis Ajinca,,DNP - Coach's Decision                  ,,,,,,,,,,,,,
0011500092,1610612740,NOP,New Orleans,201600,Omer Asik,,DNP - Coach's Decision                  ,,,,,,,0.0,,,,,,,0.0,,,2015-10-21T00:00:00,1,NOP,New Orleans,2-4,21,37,21,22,6,0,0,0,0,0,0,0,0,0,107,0.378,0.843,0.32,10,45,22,0011500092,1610612740,NOP,New Orleans,Omer Asik,,DNP - Coach's Decision                  ,,,,,,,,,,,,,
0011500092,1610612740,NOP,New Orleans,202337,Luke Babbitt,,DNP - Coach's Decision                  ,,,,,,,0.0,,,,,,,0.0,,,2015-10-21T00:00:00,1,NOP,New Orleans,2-4,21,37,21,22,6,0,0,0,0,0,0,0,0,0,107,0.378,0.843,0.32,10,45,22,0011500092,1610612740,NOP,New Orleans,Luke Babbitt,,DNP - Coach's Decision                  ,,,,,,,,,,,,,
0011500092,1610612740,NOP,New Orleans,202708,Norris Cole,,DNP - Coach's Decision                  ,,,,,,,0.0,,,,,,,0.0,,,2015-10-21T00:00:00,1,NOP,New Orleans,2-4,21,37,21,22,6,0,0,0,0,0,0,0,0,0,107,0.378,0.843,0.32,10,45,22,0011500092,1610612740,NOP,New Orleans,Norris Cole,,DNP - Coach's Decision                  ,,,,,,,,,,,,,
0011500092,1610612740,NOP,New Orleans,201604,Chris Douglas-Roberts,,DNP - Coach's Decision                  ,,,,,,,0.0,,,,,,,0.0,,,2015-10-21T00:00:00,1,NOP,New Orleans,2-4,21,37,21,22,6,0,0,0,0,0,0,0,0,0,107,0.378,0.843,0.32,10,45,22,0011500092,1610612740,NOP,New Orleans,Chris Douglas-Roberts,,DNP - Coach's Decision                  ,,,,,,,,,,,,,
0011500092,1610612740,NOP,New Orleans,201936,Tyreke Evans,,DNP - Coach's Decision                  ,,,,,,,0.0,,,,,,,0.0,,,2015-10-21T00:00:00,1,NOP,New Orleans,2-4,21,37,21,22,6,0,0,0,0,0,0,0,0,0,107,0.378,0.843,0.32,10,45,22,0011500092,1610612740,NOP,New Orleans,Tyreke Evans,,DNP - Coach's Decision                  ,,,,,,,,,,,,,
0011500092,1610612740,NOP,New Orleans,203930,Sean Kilpatrick,,DNP - Coach's Decision                  ,,,,,,,0.0,,,,,,,0.0,,,2015-10-21T00:00:00,1,NOP,New Orleans,2-4,21,37,21,22,6,0,0,0,0,0,0,0,0,0,107,0.378,0.843,0.32,10,45,22,0011500092,1610612740,NOP,New Orleans,Sean Kilpatrick,,DNP - Coach's Decision                  ,,,,,,,,,,,,,
0011500092,1610612740,NOP,New Orleans,202347,Quincy Pondexter,,DNP - Coach's Decision                  ,,,,,,,0.0,,,,,,,0.0,,,2015-10-21T00:00:00,1,NOP,New Orleans,2-4,21,37,21,22,6,0,0,0,0,0,0,0,0,0,107,0.378,0.843,0.32,10,45,22,0011500092,1610612740,NOP,New Orleans,Quincy Pondexter,,DNP - Coach's Decision                  ,,,,,,,,,,,,,
0011500092,1610612753,ORL,Orlando,203095,Evan Fournier,F,,34:34,86.4,87.8,-1.4,0.095,0.0,12.7,0.0,0.063,0.027,0.0,0.375,0.4,0.162,102.0,0.038,2015-10-21T00:00:00,1,ORL,Orlando,5-2,29,19,27,26,9,0,0,0,0,0,0,0,0,0,110,0.402,0.686,0.381,27,56,18,0011500092,1610612753,ORL,Orlando,Evan Fournier,F,,34:34,2.0,3.0,4.0,6.0,13.0,2.0,10.0,18.0,1.0,1.0,2.0,2.0
0011500092,1610612753,ORL,Orlando,202699,Tobias Harris,F,,29:53,96.7,98.7,-2.0,0.118,0.67,10.1,0.1,0.2,0.145,15.2,0.538,0.61,0.236,106.88,0.198,2015-10-21T00:00:00,1,ORL,Orlando,5-2,29,19,27,26,9,0,0,0,0,0,0,0,0,0,110,0.402,0.686,0.381,27,56,18,0011500092,1610612753,ORL,Orlando,Tobias Harris,F,,29:53,3.0,2.0,0.0,8.0,13.0,4.0,5.0,18.0,1.0,1.0,4.0,4.0
0011500092,1610612753,ORL,Orlando,202696,Nikola Vucevic,C,,33:09,100.9,79.8,21.1,0.222,2.0,13.0,0.179,0.241,0.206,6.5,0.45,0.483,0.318,99.77,0.183,2015-10-21T00:00:00,1,ORL,Orlando,5-2,29,19,27,26,9,0,0,0,0,0,0,0,0,0,110,0.402,0.686,0.381,27,56,18,0011500092,1610612753,ORL,Orlando,Nikola Vucevic,C,,33:09,8.0,10.0,0.0,16.0,9.0,2.0,2.0,10.0,0.0,2.0,6.0,7.0
0011500092,1610612753,ORL,Orlando,203506,Victor Oladipo,G,,27:05,92.5,77.8,14.7,0.294,5.0,28.0,0.0,0.261,0.113,5.6,0.409,0.421,0.194,102.81,0.14,2015-10-21T00:00:00,1,ORL,Orlando,5-2,29,19,27,26,9,0,0,0,0,0,0,0,0,0,110,0.402,0.686,0.381,27,56,18,0011500092,1610612753,ORL,Orlando,Victor Oladipo,G,,27:05,2.0,0.0,6.0,6.0,4.0,2.0,1.0,8.0,0.0,1.0,5.0,1.0
0011500092,1610612753,ORL,Orlando,201228,C.J. Watson,G,,31:31,101.4,77.9,23.4,0.28,3.5,37.1,0.056,0.161,0.104,10.6,0.111,0.152,0.147,105.91,0.036,2015-10-21T00:00:00,1,ORL,Orlando,5-2,29,19,27,26,9,0,0,0,0,0,0,0,0,0,110,0.402,0.686,0.381,27,56,18,0011500092,1610612753,ORL,Orlando,C.J. Watson,G,,31:31,0.0,0.0,0.0,2.0,12.0,2.0,6.0,8.0,0.0,0.0,5.0,4.0
0011500092,1610612753,ORL,Orlando,1626209,Mario Hezonja,,,28:18,108.6,99.5,9.1,0.125,2.0,13.6,0.04,0.125,0.082,6.8,0.8,0.808,0.18,101.87,0.212,2015-10-21T00:00:00,1,ORL,Orlando,5-2,29,19,27,26,9,0,0,0,0,0,0,0,0,0,110,0.402,0.686,0.381,27,56,18,0011500092,1610612753,ORL,Orlando,Mario Hezonja,,,28:18,3.0,0.0,0.0,0.0,12.0,2.0,6.0,12.0,0.0,1.0,2.0,2.0
0011500092,1610612753,ORL,Orlando,203906,Devyn Marble,,,16:28,83.7,130.9,-47.2,0.571,2.0,30.8,0.0,0.091,0.038,15.4,0.429,0.429,0.219,107.45,0.084,2015-10-21T00:00:00,1,ORL,Orlando,5-2,29,19,27,26,9,0,0,0,0,0,0,0,0,0,110,0.402,0.686,0.381,27,56,18,0011500092,1610612753,ORL,Orlando,Devyn Marble,,,16:28,0.0,2.0,0.0,4.0,8.0,2.0,7.0,20.0,0.0,0.0,2.0,1.0
0011500092,1610612753,ORL,Orlando,101112,Channing Frye,,,23:07,91.4,88.5,2.9,0.0,0.0,0.0,0.04,0.19,0.109,25.4,0.8,0.85,0.14,100.46,0.109,2015-10-21T00:00:00,1,ORL,Orlando,5-2,29,19,27,26,9,0,0,0,0,0,0,0,0,0,110,0.402,0.686,0.381,27,56,18,0011500092,1610612753,ORL,Orlando,Channing Frye,,,23:07,0.0,0.0,0.0,0.0,7.0,0.0,8.0,10.0,1.0,0.0,5.0,2.0
0011500092,1610612753,ORL,Orlando,203932,Aaron Gordon,,,14:09,95.8,103.5,-7.7,0.0,0.0,0.0,0.091,0.364,0.227,43.6,0.0,0.258,0.213,102.17,-0.068,2015-10-21T00:00:00,1,ORL,Orlando,5-2,29,19,27,26,9,0,0,0,0,0,0,0,0,0,110,0.402,0.686,0.381,27,56,18,0011500092,1610612753,ORL,Orlando,Aaron Gordon,,,14:09,0.0,2.0,0.0,0.0,9.0,0.0,6.0,10.0,0.0,0.0,4.0,3.0
0011500092,1610612753,ORL,Orlando,203473,Dewayne Dedmon,,,5:05,55.1,137.9,-82.7,0.0,0.0,0.0,0.0,0.333,0.125,0.0,0.0,0.0,0.0,102.74,0.054,2015-10-21T00:00:00,1,ORL,Orlando,5-2,29,19,27,26,9,0,0,0,0,0,0,0,0,0,110,0.402,0.686,0.381,27,56,18,0011500092,1610612753,ORL,Orlando,Dewayne Dedmon,,,5:05,0.0,0.0,0.0,0.0,4.0,0.0,4.0,8.0,0.0,0.0,0.0,1.0
0011500092,1610612753,ORL,Orlando,201160,Jason Smith,,,14:46,93.7,108.0,-14.3,0.143,0.5,9.3,0.0,0.143,0.08,18.6,0.333,0.451,0.27,114.2,0.0,2015-10-21T00:00:00,1,ORL,Orlando,5-2,29,19,27,26,9,0,0,0,0,0,0,0,0,0,110,0.402,0.686,0.381,27,56,18,0011500092,1610612753,ORL,Orlando,Jason Smith,,,14:46,0.0,0.0,0.0,2.0,7.0,2.0,7.0,10.0,0.0,1.0,3.0,3.0
0011500092,1610612753,ORL,Orlando,201880,Greg Stiemsma,,,6:55,78.7,130.0,-51.3,0.0,0.0,0.0,0.0,0.167,0.083,0.0,0.0,0.0,0.057,116.03,-0.148,2015-10-21T00:00:00,1,ORL,Orlando,5-2,29,19,27,26,9,0,0,0,0,0,0,0,0,0,110,0.402,0.686,0.381,27,56,18,0011500092,1610612753,ORL,Orlando,Greg Stiemsma,,,6:55,0.0,0.0,0.0,0.0,2.0,2.0,3.0,8.0,0.0,0.0,2.0,1.0
0011500092,1610612753,ORL,Orlando,1626295,Nnanna Egwu,,DNP - Coach's Decision                  ,,,,,,,0.0,,,,,,,0.0,,,2015-10-21T00:00:00,1,ORL,Orlando,5-2,29,19,27,26,9,0,0,0,0,0,0,0,0,0,110,0.402,0.686,0.381,27,56,18,0011500092,1610612753,ORL,Orlando,Nnanna Egwu,,DNP - Coach's Decision                  ,,,,,,,,,,,,,
0011500092,1610612753,ORL,Orlando,203929,Melvin Ejim,,DNP - Coach's Decision                  ,,,,,,,0.0,,,,,,,0.0,,,2015-10-21T00:00:00,1,ORL,Orlando,5-2,29,19,27,26,9,0,0,0,0,0,0,0,0,0,110,0.402,0.686,0.381,27,56,18,0011500092,1610612753,ORL,Orlando,Melvin Ejim,,DNP - Coach's Decision                  ,,,,,,,,,,,,,
0011500092,1610612753,ORL,Orlando,203894,Shabazz Napier,,DNP - Coach's Decision                  ,,,,,,,0.0,,,,,,,0.0,,,2015-10-21T00:00:00,1,ORL,Orlando,5-2,29,19,27,26,9,0,0,0,0,0,0,0,0,0,110,0.402,0.686,0.381,27,56,18,0011500092,1610612753,ORL,Orlando,Shabazz Napier,,DNP - Coach's Decision                  ,,,,,,,,,,,,,
0011500092,1610612753,ORL,Orlando,203094,Andrew Nicholson,,DNP - Coach's Decision                  ,,,,,,,0.0,,,,,,,0.0,,,2015-10-21T00:00:00,1,ORL,Orlando,5-2,29,19,27,26,9,0,0,0,0,0,0,0,0,0,110,0.402,0.686,0.381,27,56,18,0011500092,1610612753,ORL,Orlando,Andrew Nicholson,,DNP - Coach's Decision                  ,,,,,,,,,,,,,
0011500092,1610612753,ORL,Orlando,203901,Elfrid Payton,,DNP - Coach's Decision                  ,,,,,,,0.0,,,,,,,0.0,,,2015-10-21T00:00:00,1,ORL,Orlando,5-2,29,19,27,26,9,0,0,0,0,0,0,0,0,0,110,0.402,0.686,0.381,27,56,18,0011500092,1610612753,ORL,Orlando,Elfrid Payton,,DNP - Coach's Decision                  ,,,,,,,,,,,,,
