GAME_ID_x,TEAM_ID_x,TEAM_ABBREVIATION_x,TEAM_CITY_x,PLAYER_ID,PLAYER_NAME_x,START_POSITION_x,COMMENT_x,MIN_x,OFF_RATING,DEF_RATING,NET_RATING,AST_PCT,AST_TOV,AST_RATIO,OREB_PCT,DREB_PCT,REB_PCT,TM_TOV_PCT,EFG_PCT,TS_PCT,USG_PCT,PACE,PIE,GAME_DATE_EST,GAME_SEQUENCE,TEAM_ABBREVIATION_y,TEAM_CITY_NAME,TEAM_WINS_LOSSES,PTS_QTR1,PTS_QTR2,PTS_QTR3,PTS_QTR4,PTS_OT1,PTS_OT2,PTS_OT3,PTS_OT4,PTS_OT5,PTS_OT6,PTS_OT7,PTS_OT8,PTS_OT9,PTS_OT10,PTS,FG_PCT,FT_PCT,FG3_PCT,AST,REB,TOV,GAME_ID_y,TEAM_ID_y,TEAM_ABBREVIATION,TEAM_CITY_y,PLAYER_NAME_y,START_POSITION_y,COMMENT_y,MIN_y,PTS_OFF_TOV,PTS_2ND_CHANCE,PTS_FB,PTS_PAINT,OPP_PTS_OFF_TOV,OPP_PTS_2ND_CHANCE,OPP_PTS_FB,OPP_PTS_PAINT,BLK,BLKA,PF,PFD
0011500102,1610612763,MEM,Memphis,201145,Jeff Green,F,,21:05,89.9,84.7,5.2,0.308,2.0,37.6,0.0,0.115,0.07,18.8,0.0,0.431,0.147,95.26,0.116,2015-10-23T00:00:00,1,MEM,Memphis,6-1,18,21,24,13,0,0,0,0,0,0,0,0,0,0,76,0.329,0.724,0.217,17,48,19,0011500102,1610612763,MEM,Memphis,Jeff Green,F,,21:05,2.0,0.0,0.0,0.0,10.0,5.0,9.0,18.0,0.0,0.0,1.0,3.0
0011500102,1610612763,MEM,Memphis,203210,JaMychal Green,F,,15:23,91.4,59.2,32.2,0.125,0.33,10.0,0.133,0.19,0.167,30.0,0.333,0.333,0.276,97.85,-0.082,2015-10-23T00:00:00,1,MEM,Memphis,6-1,18,21,24,13,0,0,0,0,0,0,0,0,0,0,76,0.329,0.724,0.217,17,48,19,0011500102,1610612763,MEM,Memphis,JaMychal Green,F,,15:23,0.0,2.0,0.0,4.0,5.0,2.0,7.0,10.0,0.0,1.0,5.0,0.0
0011500102,1610612763,MEM,Memphis,201148,Brandan Wright,C,,26:21,93.0,79.1,13.9,0.083,0.0,11.3,0.043,0.267,0.17,0.0,0.714,0.698,0.139,94.23,0.301,2015-10-23T00:00:00,1,MEM,Memphis,6-1,18,21,24,13,0,0,0,0,0,0,0,0,0,0,76,0.329,0.724,0.217,17,48,19,0011500102,1610612763,MEM,Memphis,Brandan Wright,C,,26:21,4.0,4.0,0.0,6.0,10.0,7.0,7.0,22.0,1.0,1.0,2.0,3.0
0011500102,1610612763,MEM,Memphis,1713,Vince Carter,G,,22:40,81.1,81.3,-0.2,0.111,0.5,6.5,0.0,0.04,0.021,13.0,0.417,0.402,0.29,97.79,-0.04,2015-10-23T00:00:00,1,MEM,Memphis,6-1,18,21,24,13,0,0,0,0,0,0,0,0,0,0,76,0.329,0.724,0.217,17,48,19,0011500102,1610612763,MEM,Memphis,Vince Carter,G,,22:40,0.0,0.0,0.0,4.0,10.0,7.0,7.0,22.0,0.0,0.0,3.0,4.0
0011500102,1610612763,MEM,Memphis,2757,Beno Udrih,G,,23:10,85.4,88.4,-3.0,0.25,3.0,25.3,0.0,0.043,0.021,8.4,0.357,0.444,0.178,96.59,0.088,2015-10-23T00:00:00,1,MEM,Memphis,6-1,18,21,24,13,0,0,0,0,0,0,0,0,0,0,76,0.329,0.724,0.217,17,48,19,0011500102,1610612763,MEM,Memphis,Beno Udrih,G,,23:10,0.0,0.0,0.0,0.0,9.0,7.0,11.0,24.0,0.0,0.0,0.0,0.0
0011500102,1610612763,MEM,Memphis,203950,Jarnell Stokes,,,30:05,75.5,120.9,-45.4,0.182,2.0,15.8,0.088,0.25,0.155,7.9,0.429,0.519,0.151,90.65,0.1,2015-10-23T00:00:00,1,MEM,Memphis,6-1,18,21,24,13,0,0,0,0,0,0,0,0,0,0,76,0.329,0.724,0.217,17,48,19,0011500102,1610612763,MEM,Memphis,Jarnell Stokes,,,30:05,1.0,0.0,1.0,2.0,19.0,7.0,11.0,28.0,0.0,0.0,4.0,3.0
0011500102,1610612763,MEM,Memphis,203893,Russ Smith,,,21:00,84.3,84.4,-0.2,0.2,0.5,11.3,0.0,0.16,0.091,22.7,0.111,0.344,0.332,89.42,0.024,2015-10-23T00:00:00,1,MEM,Memphis,6-1,18,21,24,13,0,0,0,0,0,0,0,0,0,0,76,0.329,0.724,0.217,17,48,19,0011500102,1610612763,MEM,Memphis,Russ Smith,,,21:00,2.0,0.0,2.0,2.0,9.0,2.0,4.0,14.0,0.0,2.0,1.0,3.0
0011500102,1610612763,MEM,Memphis,200821,Yakhouba Diawara,,,17:41,62.9,107.1,-44.2,0.0,0.0,0.0,0.0,0.059,0.026,0.0,0.2,0.2,0.121,88.44,0.029,2015-10-23T00:00:00,1,MEM,Memphis,6-1,18,21,24,13,0,0,0,0,0,0,0,0,0,0,76,0.329,0.724,0.217,17,48,19,0011500102,1610612763,MEM,Memphis,Yakhouba Diawara,,,17:41,0.0,0.0,0.0,0.0,10.0,2.0,5.0,10.0,0.0,1.0,0.0,0.0
0011500102,1610612763,MEM,Memphis,200797,Ryan Hollins,,,9:39,72.7,139.5,-66.8,0.0,0.0,0.0,0.0,0.143,0.059,100.0,0.0,0.0,0.044,97.66,0.0,2015-10-23T00:00:00,1,MEM,Memphis,6-1,18,21,24,13,0,0,0,0,0,0,0,0,0,0,76,0.329,0.724,0.217,17,48,19,0011500102,1610612763,MEM,Memphis,Ryan Hollins,,,9:39,0.0,0.0,0.0,0.0,6.0,0.0,8.0,12.0,0.0,0.0,0.0,2.0
0011500102,1610612763,MEM,Memphis,203919,Jordan Adams,,,17:10,84.4,131.4,-47.0,0.2,0.0,10.1,0.125,0.143,0.133,0.0,0.5,0.507,0.221,91.04,0.094,2015-10-23T00:00:00,1,MEM,Memphis,6-1,18,21,24,13,0,0,0,0,0,0,0,0,0,0,76,0.329,0.724,0.217,17,48,19,0011500102,1610612763,MEM,Memphis,Jordan Adams,,,17:10,0.0,3.0,2.0,2.0,12.0,0.0,11.0,12.0,0.0,0.0,3.0,3.0
0011500102,1610612763,MEM,Memphis,1626272,Lazeric Jones,,,21:39,74.3,85.0,-10.6,0.286,2.0,18.4,0.038,0.0,0.021,9.2,0.429,0.508,0.175,91.93,0.139,2015-10-23T00:00:00,1,MEM,Memphis,6-1,18,21,24,13,0,0,0,0,0,0,0,0,0,0,76,0.329,0.724,0.217,17,48,19,0011500102,1610612763,MEM,Memphis,Lazeric Jones,,,21:39,0.0,2.0,0.0,0.0,12.0,4.0,7.0,14.0,0.0,0.0,0.0,2.0
0011500102,1610612763,MEM,Memphis,1627293,Alex Stepheson,,,12:00,60.4,86.4,-26.0,0.0,0.0,0.0,0.313,0.231,0.276,30.4,0.167,0.218,0.346,87.04,-0.208,2015-10-23T00:00:00,1,MEM,Memphis,6-1,18,21,24,13,0,0,0,0,0,0,0,0,0,0,76,0.329,0.724,0.217,17,48,19,0011500102,1610612763,MEM,Memphis,Alex Stepheson,,,12:00,0.0,1.0,0.0,2.0,8.0,2.0,3.0,4.0,0.0,1.0,2.0,1.0
0011500102,1610612763,MEM,Memphis,1627258,Sampson Carter,,,2:07,103.1,0.0,103.1,0.0,0.0,0.0,0.0,0.0,0.0,100.0,0.0,0.0,0.258,89.35,0.5,2015-10-23T00:00:00,1,MEM,Memphis,6-1,18,21,24,13,0,0,0,0,0,0,0,0,0,0,76,0.329,0.724,0.217,17,48,19,0011500102,1610612763,MEM,Memphis,Sampson Carter,,,2:07,0.0,0.0,0.0,0.0,0.0,0.0,0.0,0.0,0.0,0.0,0.0,0.0
0011500102,1610612763,MEM,Memphis,2440,Matt Barnes,,DNP - Coach's Decision                  ,,,,,,,0.0,,,,,,,0.0,,,2015-10-23T00:00:00,1,MEM,Memphis,6-1,18,21,24,13,0,0,0,0,0,0,0,0,0,0,76,0.329,0.724,0.217,17,48,19,0011500102,1610612763,MEM,Memphis,Matt Barnes,,DNP - Coach's Decision                  ,,,,,,,,,,,,,
0011500102,1610612753,ORL,Orlando,203095,Evan Fournier,F,,26:05,78.3,79.8,-1.5,0.143,2.0,16.8,0.0,0.04,0.019,8.4,0.125,0.169,0.162,95.4,-0.13,2015-10-23T00:00:00,1,ORL,Orlando,6-2,26,16,25,19,0,0,0,0,0,0,0,0,0,0,86,0.381,0.706,0.333,24,51,17,0011500102,1610612753,ORL,Orlando,Evan Fournier,F,,26:05,0.0,0.0,0.0,2.0,6.0,7.0,2.0,14.0,0.0,0.0,3.0,1.0
0011500102,1610612753,ORL,Orlando,202699,Tobias Harris,F,,30:26,90.8,95.8,-5.1,0.267,4.0,21.0,0.061,0.235,0.149,5.2,0.5,0.639,0.226,94.69,0.274,2015-10-23T00:00:00,1,ORL,Orlando,6-2,26,16,25,19,0,0,0,0,0,0,0,0,0,0,86,0.381,0.706,0.333,24,51,17,0011500102,1610612753,ORL,Orlando,Tobias Harris,F,,30:26,4.0,0.0,11.0,8.0,7.0,7.0,3.0,18.0,0.0,0.0,3.0,4.0
0011500102,1610612753,ORL,Orlando,202696,Nikola Vucevic,C,,17:40,81.4,92.3,-10.9,0.143,0.33,8.3,0.056,0.25,0.158,25.0,0.625,0.625,0.285,98.46,0.139,2015-10-23T00:00:00,1,ORL,Orlando,6-2,26,16,25,19,0,0,0,0,0,0,0,0,0,0,86,0.381,0.706,0.333,24,51,17,0011500102,1610612753,ORL,Orlando,Nikola Vucevic,C,,17:40,0.0,2.0,0.0,8.0,5.0,4.0,1.0,8.0,2.0,0.0,4.0,1.0
0011500102,1610612753,ORL,Orlando,203506,Victor Oladipo,G,,17:18,85.8,101.1,-15.3,0.091,1.0,16.7,0.0,0.105,0.059,16.7,0.0,0.0,0.14,90.56,-0.017,2015-10-23T00:00:00,1,ORL,Orlando,6-2,26,16,25,19,0,0,0,0,0,0,0,0,0,0,86,0.381,0.706,0.333,24,51,17,0011500102,1610612753,ORL,Orlando,Victor Oladipo,G,,17:18,0.0,0.0,0.0,0.0,4.0,6.0,2.0,12.0,0.0,1.0,0.0,0.0
0011500102,1610612753,ORL,Orlando,201228,C.J. Watson,G,,22:22,76.6,98.0,-21.4,0.182,2.0,25.0,0.0,0.0,0.0,12.5,0.3,0.3,0.122,92.19,0.018,2015-10-23T00:00:00,1,ORL,Orlando,6-2,26,16,25,19,0,0,0,0,0,0,0,0,0,0,86,0.381,0.706,0.333,24,51,17,0011500102,1610612753,ORL,Orlando,C.J. Watson,G,,22:22,3.0,0.0,0.0,0.0,6.0,9.0,2.0,16.0,0.0,0.0,0.0,1.0
0011500102,1610612753,ORL,Orlando,1626209,Mario Hezonja,,,23:54,107.0,76.8,30.2,0.25,4.0,28.8,0.083,0.217,0.149,7.2,0.313,0.338,0.184,96.6,0.098,2015-10-23T00:00:00,1,ORL,Orlando,6-2,26,16,25,19,0,0,0,0,0,0,0,0,0,0,86,0.381,0.706,0.333,24,51,17,0011500102,1610612753,ORL,Orlando,Mario Hezonja,,,23:54,4.0,0.0,0.0,2.0,3.0,7.0,3.0,10.0,0.0,0.0,2.0,3.0
0011500102,1610612753,ORL,Orlando,203894,Shabazz Napier,,,25:38,107.3,66.8,40.5,0.533,4.0,40.2,0.0,0.091,0.043,10.1,0.722,0.759,0.2,93.93,0.388,2015-10-23T00:00:00,1,ORL,Orlando,6-2,26,16,25,19,0,0,0,0,0,0,0,0,0,0,86,0.381,0.706,0.333,24,51,17,0011500102,1610612753,ORL,Orlando,Shabazz Napier,,,25:38,2.0,3.0,2.0,4.0,3.0,3.0,3.0,6.0,0.0,0.0,2.0,2.0
0011500102,1610612753,ORL,Orlando,101112,Channing Frye,,,8:26,100.8,54.2,46.6,0.0,0.0,0.0,0.111,0.0,0.071,0.0,0.0,0.0,0.096,84.38,-0.385,2015-10-23T00:00:00,1,ORL,Orlando,6-2,26,16,25,19,0,0,0,0,0,0,0,0,0,0,86,0.381,0.706,0.333,24,51,17,0011500102,1610612753,ORL,Orlando,Channing Frye,,,8:26,0.0,0.0,0.0,0.0,0.0,0.0,0.0,2.0,0.0,0.0,1.0,1.0
0011500102,1610612753,ORL,Orlando,203473,Dewayne Dedmon,,,21:49,123.0,58.2,64.8,0.0,0.0,0.0,0.278,0.24,0.256,36.8,0.333,0.363,0.224,88.18,0.033,2015-10-23T00:00:00,1,ORL,Orlando,6-2,26,16,25,19,0,0,0,0,0,0,0,0,0,0,86,0.381,0.706,0.333,24,51,17,0011500102,1610612753,ORL,Orlando,Dewayne Dedmon,,,21:49,2.0,0.0,2.0,4.0,0.0,3.0,0.0,4.0,2.0,0.0,4.0,2.0
0011500102,1610612753,ORL,Orlando,203906,Devyn Marble,,,17:58,87.0,66.6,20.4,0.125,1.0,11.1,0.091,0.056,0.075,11.1,0.571,0.571,0.185,88.64,0.36,2015-10-23T00:00:00,1,ORL,Orlando,6-2,26,16,25,19,0,0,0,0,0,0,0,0,0,0,86,0.381,0.706,0.333,24,51,17,0011500102,1610612753,ORL,Orlando,Devyn Marble,,,17:58,5.0,0.0,0.0,0.0,4.0,4.0,2.0,6.0,1.0,0.0,2.0,1.0
0011500102,1610612753,ORL,Orlando,201160,Jason Smith,,,3:57,38.1,125.0,-86.9,0.0,0.0,0.0,0.0,0.0,0.0,0.0,0.5,0.5,0.202,96.49,0.1,2015-10-23T00:00:00,1,ORL,Orlando,6-2,26,16,25,19,0,0,0,0,0,0,0,0,0,0,86,0.381,0.706,0.333,24,51,17,0011500102,1610612753,ORL,Orlando,Jason Smith,,,3:57,0.0,0.0,0.0,0.0,2.0,4.0,2.0,8.0,0.0,0.0,0.0,0.0
0011500102,1610612753,ORL,Orlando,1626295,Nnanna Egwu,,,4:34,48.1,95.7,-47.7,0.0,0.0,0.0,0.143,0.5,0.222,29.1,0.5,0.41,0.304,93.13,0.0,2015-10-23T00:00:00,1,ORL,Orlando,6-2,26,16,25,19,0,0,0,0,0,0,0,0,0,0,86,0.381,0.706,0.333,24,51,17,0011500102,1610612753,ORL,Orlando,Nnanna Egwu,,,4:34,0.0,0.0,0.0,2.0,2.0,1.0,2.0,2.0,1.0,0.0,1.0,2.0
0011500102,1610612753,ORL,Orlando,203094,Andrew Nicholson,,,19:53,107.3,71.3,36.0,0.111,1.0,6.9,0.111,0.174,0.146,6.9,0.583,0.563,0.304,93.52,0.208,2015-10-23T00:00:00,1,ORL,Orlando,6-2,26,16,25,19,0,0,0,0,0,0,0,0,0,0,86,0.381,0.706,0.333,24,51,17,0011500102,1610612753,ORL,Orlando,Andrew Nicholson,,,19:53,4.0,4.0,3.0,8.0,3.0,5.0,3.0,4.0,0.0,0.0,2.0,3.0
0011500102,1610612753,ORL,Orlando,203932,Aaron Gordon,,DNP - Coach's Decision                  ,,,,,,,0.0,,,,,,,0.0,,,2015-10-23T00:00:00,1,ORL,Orlando,6-2,26,16,25,19,0,0,0,0,0,0,0,0,0,0,86,0.381,0.706,0.333,24,51,17,0011500102,1610612753,ORL,Orlando,Aaron Gordon,,DNP - Coach's Decision                  ,,,,,,,,,,,,,
