GAME_ID_x,TEAM_ID_x,TEAM_ABBREVIATION_x,TEAM_CITY_x,PLAYER_ID,PLAYER_NAME_x,START_POSITION_x,COMMENT_x,MIN_x,OFF_RATING,DEF_RATING,NET_RATING,AST_PCT,AST_TOV,AST_RATIO,OREB_PCT,DREB_PCT,REB_PCT,TM_TOV_PCT,EFG_PCT,TS_PCT,USG_PCT,PACE,PIE,GAME_DATE_EST,GAME_SEQUENCE,TEAM_ABBREVIATION_y,TEAM_CITY_NAME,TEAM_WINS_LOSSES,PTS_QTR1,PTS_QTR2,PTS_QTR3,PTS_QTR4,PTS_OT1,PTS_OT2,PTS_OT3,PTS_OT4,PTS_OT5,PTS_OT6,PTS_OT7,PTS_OT8,PTS_OT9,PTS_OT10,PTS,FG_PCT,FT_PCT,FG3_PCT,AST,REB,TOV,GAME_ID_y,TEAM_ID_y,TEAM_ABBREVIATION,TEAM_CITY_y,PLAYER_NAME_y,START_POSITION_y,COMMENT_y,MIN_y,PTS_OFF_TOV,PTS_2ND_CHANCE,PTS_FB,PTS_PAINT,OPP_PTS_OFF_TOV,OPP_PTS_2ND_CHANCE,OPP_PTS_FB,OPP_PTS_PAINT,BLK,BLKA,PF,PFD
0011500107,1610612764,WAS,Washington,203490,Otto Porter Jr.,F,,25:02,102.3,114.9,-12.6,0.222,4.0,37.2,0.0,0.036,0.021,9.3,0.5,0.608,0.121,96.28,0.079,2015-10-23T00:00:00,3,WAS,Washington,4-3,28,17,19,18,0,0,0,0,0,0,0,0,0,0,82,0.392,0.75,0.192,22,44,16,0011500107,1610612764,WAS,Washington,Otto Porter Jr.,F,,25:02,0.0,2.0,0.0,2.0,10.0,2.0,5.0,20.0,0.0,0.0,3.0,3.0
0011500107,1610612764,WAS,Washington,2743,Kris Humphries,F,,27:37,82.4,88.7,-6.3,0.0,0.0,0.0,0.12,0.367,0.255,27.3,0.625,0.625,0.185,92.44,0.222,2015-10-23T00:00:00,3,WAS,Washington,4-3,28,17,19,18,0,0,0,0,0,0,0,0,0,0,82,0.392,0.75,0.192,22,44,16,0011500107,1610612764,WAS,Washington,Kris Humphries,F,,27:37,3.0,0.0,0.0,2.0,9.0,6.0,3.0,22.0,1.0,0.0,3.0,2.0
0011500107,1610612764,WAS,Washington,101162,Marcin Gortat,C,,27:10,98.7,115.7,-17.0,0.0,0.0,0.0,0.043,0.29,0.185,0.0,0.6,0.68,0.191,95.8,0.222,2015-10-23T00:00:00,3,WAS,Washington,4-3,28,17,19,18,0,0,0,0,0,0,0,0,0,0,82,0.392,0.75,0.192,22,44,16,0011500107,1610612764,WAS,Washington,Marcin Gortat,C,,27:10,0.0,2.0,0.0,10.0,10.0,4.0,5.0,24.0,1.0,1.0,1.0,5.0
0011500107,1610612764,WAS,Washington,203078,Bradley Beal,G,,23:46,100.1,123.6,-23.6,0.0,0.0,0.0,0.0,0.074,0.043,15.5,0.5,0.506,0.243,96.62,0.022,2015-10-23T00:00:00,3,WAS,Washington,4-3,28,17,19,18,0,0,0,0,0,0,0,0,0,0,82,0.392,0.75,0.192,22,44,16,0011500107,1610612764,WAS,Washington,Bradley Beal,G,,23:46,2.0,1.0,4.0,8.0,10.0,4.0,5.0,22.0,0.0,0.0,3.0,3.0
0011500107,1610612764,WAS,Washington,202322,John Wall,G,,23:46,100.1,123.6,-23.6,0.471,1.6,39.1,0.05,0.074,0.064,24.5,0.286,0.336,0.235,96.62,0.05,2015-10-23T00:00:00,3,WAS,Washington,4-3,28,17,19,18,0,0,0,0,0,0,0,0,0,0,82,0.392,0.75,0.192,22,44,16,0011500107,1610612764,WAS,Washington,John Wall,G,,23:46,0.0,2.0,3.0,2.0,10.0,4.0,5.0,22.0,0.0,0.0,1.0,2.0
0011500107,1610612764,WAS,Washington,2400,Drew Gooden,,,18:00,80.1,98.4,-18.3,0.0,0.0,0.0,0.111,0.13,0.122,0.0,0.313,0.313,0.191,88.63,0.037,2015-10-23T00:00:00,3,WAS,Washington,4-3,28,17,19,18,0,0,0,0,0,0,0,0,0,0,82,0.392,0.75,0.192,22,44,16,0011500107,1610612764,WAS,Washington,Drew Gooden,,,18:00,0.0,2.0,0.0,2.0,4.0,4.0,2.0,14.0,1.0,0.0,2.0,0.0
0011500107,1610612764,WAS,Washington,202390,Gary Neal,,,19:41,54.5,59.8,-5.3,0.25,1.0,10.0,0.0,0.04,0.022,10.0,0.375,0.375,0.207,91.78,0.056,2015-10-23T00:00:00,3,WAS,Washington,4-3,28,17,19,18,0,0,0,0,0,0,0,0,0,0,82,0.392,0.75,0.192,22,44,16,0011500107,1610612764,WAS,Washington,Gary Neal,,,19:41,0.0,0.0,0.0,0.0,4.0,6.0,0.0,14.0,0.0,0.0,1.0,0.0
0011500107,1610612764,WAS,Washington,201196,Ramon Sessions,,,16:49,57.1,52.0,5.1,0.6,3.0,30.4,0.056,0.048,0.051,10.1,0.2,0.255,0.188,88.87,0.05,2015-10-23T00:00:00,3,WAS,Washington,4-3,28,17,19,18,0,0,0,0,0,0,0,0,0,0,82,0.392,0.75,0.192,22,44,16,0011500107,1610612764,WAS,Washington,Ramon Sessions,,,16:49,0.0,0.0,0.0,2.0,2.0,4.0,0.0,10.0,0.0,0.0,1.0,2.0
0011500107,1610612764,WAS,Washington,202066,Garrett Temple,,,14:55,84.9,99.7,-14.8,0.111,0.0,33.3,0.0,0.0,0.0,0.0,0.0,0.0,0.066,90.36,-0.046,2015-10-23T00:00:00,3,WAS,Washington,4-3,28,17,19,18,0,0,0,0,0,0,0,0,0,0,82,0.392,0.75,0.192,22,44,16,0011500107,1610612764,WAS,Washington,Garrett Temple,,,14:55,0.0,0.0,0.0,0.0,2.0,7.0,0.0,12.0,0.0,0.0,1.0,0.0
0011500107,1610612764,WAS,Washington,201162,Jared Dudley,,,15:14,71.9,85.0,-13.0,0.167,1.0,10.1,0.059,0.0,0.032,10.1,0.357,0.381,0.294,97.9,-0.012,2015-10-23T00:00:00,3,WAS,Washington,4-3,28,17,19,18,0,0,0,0,0,0,0,0,0,0,82,0.392,0.75,0.192,22,44,16,0011500107,1610612764,WAS,Washington,Jared Dudley,,,15:14,2.0,0.0,3.0,2.0,3.0,5.0,0.0,8.0,0.0,0.0,2.0,1.0
0011500107,1610612764,WAS,Washington,1626162,Kelly Oubre Jr.,,,13:22,73.5,64.9,8.6,0.2,0.0,18.8,0.077,0.077,0.077,0.0,0.667,0.81,0.148,95.89,0.414,2015-10-23T00:00:00,3,WAS,Washington,4-3,28,17,19,18,0,0,0,0,0,0,0,0,0,0,82,0.392,0.75,0.192,22,44,16,0011500107,1610612764,WAS,Washington,Kelly Oubre Jr.,,,13:22,3.0,0.0,5.0,4.0,2.0,3.0,0.0,4.0,1.0,0.0,0.0,2.0
0011500107,1610612764,WAS,Washington,202725,Josh Harrellson,,,8:45,87.3,88.5,-1.2,0.0,0.0,0.0,0.0,0.333,0.133,28.6,0.5,0.5,0.382,102.91,0.058,2015-10-23T00:00:00,3,WAS,Washington,4-3,28,17,19,18,0,0,0,0,0,0,0,0,0,0,82,0.392,0.75,0.192,22,44,16,0011500107,1610612764,WAS,Washington,Josh Harrellson,,,8:45,0.0,0.0,0.0,2.0,2.0,3.0,0.0,4.0,2.0,0.0,1.0,0.0
0011500107,1610612764,WAS,Washington,202397,Ish Smith,,,7:48,98.0,104.9,-6.9,0.5,0.0,51.0,0.0,0.25,0.083,0.0,0.0,0.174,0.176,100.06,0.101,2015-10-23T00:00:00,3,WAS,Washington,4-3,28,17,19,18,0,0,0,0,0,0,0,0,0,0,82,0.392,0.75,0.192,22,44,16,0011500107,1610612764,WAS,Washington,Ish Smith,,,7:48,0.0,0.0,1.0,0.0,2.0,3.0,0.0,4.0,1.0,0.0,0.0,1.0
0011500107,1610612764,WAS,Washington,204189,Jaron Johnson,,DNP - Coach's Decision                  ,,,,,,,0.0,,,,,,,0.0,,,2015-10-23T00:00:00,3,WAS,Washington,4-3,28,17,19,18,0,0,0,0,0,0,0,0,0,0,82,0.392,0.75,0.192,22,44,16,0011500107,1610612764,WAS,Washington,Jaron Johnson,,DNP - Coach's Decision                  ,,,,,,,,,,,,,
0011500107,1610612764,WAS,Washington,203315,Toure' Murry,,DNP - Coach's Decision                  ,,,,,,,0.0,,,,,,,0.0,,,2015-10-23T00:00:00,3,WAS,Washington,4-3,28,17,19,18,0,0,0,0,0,0,0,0,0,0,82,0.392,0.75,0.192,22,44,16,0011500107,1610612764,WAS,Washington,Toure' Murry,,DNP - Coach's Decision                  ,,,,,,,,,,,,,
0011500107,1610612764,WAS,Washington,1626294,Jaleel Roberts,,DNP - Coach's Decision                  ,,,,,,,0.0,,,,,,,0.0,,,2015-10-23T00:00:00,3,WAS,Washington,4-3,28,17,19,18,0,0,0,0,0,0,0,0,0,0,82,0.392,0.75,0.192,22,44,16,0011500107,1610612764,WAS,Washington,Jaleel Roberts,,DNP - Coach's Decision                  ,,,,,,,,,,,,,
0011500107,1610612761,TOR,Toronto,2449,Luis Scola,F,,21:23,121.0,98.7,22.3,0.0,0.0,0.0,0.056,0.263,0.162,8.4,0.4,0.414,0.248,93.67,0.045,2015-10-23T00:00:00,3,TOR,Toronto,5-2,21,25,29,17,0,0,0,0,0,0,0,0,0,0,92,0.359,0.864,0.304,19,54,11,0011500107,1610612761,TOR,Toronto,Luis Scola,F,,21:23,1.0,2.0,0.0,6.0,5.0,4.0,8.0,20.0,0.0,1.0,3.0,1.0
0011500107,1610612761,TOR,Toronto,201960,DeMarre Carroll,F,,27:30,115.4,90.8,24.6,0.111,0.0,13.1,0.036,0.077,0.056,0.0,0.583,0.601,0.212,93.96,0.13,2015-10-23T00:00:00,3,TOR,Toronto,5-2,21,25,29,17,0,0,0,0,0,0,0,0,0,0,92,0.359,0.864,0.304,19,54,11,0011500107,1610612761,TOR,Toronto,DeMarre Carroll,F,,27:30,2.0,0.0,0.0,4.0,5.0,6.0,8.0,24.0,1.0,0.0,3.0,3.0
0011500107,1610612761,TOR,Toronto,202685,Jonas Valanciunas,C,,20:49,116.8,93.8,23.0,0.0,0.0,0.0,0.05,0.333,0.184,10.1,0.625,0.676,0.202,95.12,0.193,2015-10-23T00:00:00,3,TOR,Toronto,5-2,21,25,29,17,0,0,0,0,0,0,0,0,0,0,92,0.359,0.864,0.304,19,54,11,0011500107,1610612761,TOR,Toronto,Jonas Valanciunas,C,,20:49,0.0,0.0,0.0,6.0,5.0,4.0,8.0,18.0,0.0,0.0,2.0,3.0
0011500107,1610612761,TOR,Toronto,201942,DeMar DeRozan,G,,31:09,100.3,89.9,10.3,0.2,2.0,18.4,0.029,0.067,0.047,9.2,0.286,0.381,0.244,94.78,0.029,2015-10-23T00:00:00,3,TOR,Toronto,5-2,21,25,29,17,0,0,0,0,0,0,0,0,0,0,92,0.359,0.864,0.304,19,54,11,0011500107,1610612761,TOR,Toronto,DeMar DeRozan,G,,31:09,0.0,2.0,0.0,4.0,5.0,7.0,7.0,26.0,0.0,1.0,5.0,3.0
0011500107,1610612761,TOR,Toronto,200768,Kyle Lowry,G,,29:43,111.1,95.3,15.8,0.3,6.0,27.6,0.161,0.115,0.14,4.6,0.385,0.44,0.236,94.14,0.141,2015-10-23T00:00:00,3,TOR,Toronto,5-2,21,25,29,17,0,0,0,0,0,0,0,0,0,0,92,0.359,0.864,0.304,19,54,11,0011500107,1610612761,TOR,Toronto,Kyle Lowry,G,,29:43,7.0,2.0,5.0,4.0,5.0,9.0,7.0,26.0,0.0,0.0,1.0,3.0
0011500107,1610612761,TOR,Toronto,202687,Bismack Biyombo,,,27:03,83.1,79.6,3.5,0.091,1.0,10.1,0.161,0.286,0.22,10.1,0.286,0.381,0.142,94.94,0.146,2015-10-23T00:00:00,3,TOR,Toronto,5-2,21,25,29,17,0,0,0,0,0,0,0,0,0,0,92,0.359,0.864,0.304,19,54,11,0011500107,1610612761,TOR,Toronto,Bismack Biyombo,,,27:03,2.0,2.0,0.0,4.0,5.0,5.0,8.0,18.0,0.0,2.0,2.0,2.0
0011500107,1610612761,TOR,Toronto,203082,Terrence Ross,,,23:16,69.8,72.0,-2.2,0.0,0.0,0.0,0.0,0.048,0.019,16.7,0.6,0.6,0.104,94.57,0.025,2015-10-23T00:00:00,3,TOR,Toronto,5-2,21,25,29,17,0,0,0,0,0,0,0,0,0,0,92,0.359,0.864,0.304,19,54,11,0011500107,1610612761,TOR,Toronto,Terrence Ross,,,23:16,0.0,0.0,0.0,0.0,5.0,3.0,8.0,12.0,0.0,0.0,3.0,0.0
0011500107,1610612761,TOR,Toronto,202335,Patrick Patterson,,,19:53,61.3,63.5,-2.2,0.143,1.0,11.1,0.065,0.105,0.08,11.1,0.0,0.0,0.165,94.73,-0.136,2015-10-23T00:00:00,3,TOR,Toronto,5-2,21,25,29,17,0,0,0,0,0,0,0,0,0,0,92,0.359,0.864,0.304,19,54,11,0011500107,1610612761,TOR,Toronto,Patrick Patterson,,,19:53,0.0,0.0,0.0,0.0,0.0,5.0,2.0,8.0,0.0,0.0,0.0,1.0
0011500107,1610612761,TOR,Toronto,202709,Cory Joseph,,,26:52,79.7,71.8,7.8,0.364,4.0,25.4,0.069,0.071,0.07,6.3,0.333,0.465,0.188,95.58,0.177,2015-10-23T00:00:00,3,TOR,Toronto,5-2,21,25,29,17,0,0,0,0,0,0,0,0,0,0,92,0.359,0.864,0.304,19,54,11,0011500107,1610612761,TOR,Toronto,Cory Joseph,,,26:52,2.0,0.0,0.0,6.0,5.0,2.0,12.0,12.0,0.0,2.0,2.0,2.0
0011500107,1610612761,TOR,Toronto,203461,Anthony Bennett,,,7:24,111.8,111.7,0.1,0.25,0.0,25.0,0.0,0.5,0.333,0.0,0.333,0.333,0.174,95.74,0.141,2015-10-23T00:00:00,3,TOR,Toronto,5-2,21,25,29,17,0,0,0,0,0,0,0,0,0,0,92,0.359,0.864,0.304,19,54,11,0011500107,1610612761,TOR,Toronto,Anthony Bennett,,,7:24,0.0,0.0,0.0,0.0,5.0,0.0,6.0,8.0,0.0,0.0,0.0,0.0
0011500107,1610612761,TOR,Toronto,1626153,Delon Wright,,,6:18,113.6,105.5,8.1,0.0,0.0,0.0,0.0,0.143,0.1,31.1,0.625,0.676,0.424,97.22,0.105,2015-10-23T00:00:00,3,TOR,Toronto,5-2,21,25,29,17,0,0,0,0,0,0,0,0,0,0,92,0.359,0.864,0.304,19,54,11,0011500107,1610612761,TOR,Toronto,Delon Wright,,,6:18,0.0,3.0,0.0,2.0,5.0,0.0,6.0,8.0,0.0,1.0,0.0,1.0
0011500107,1610612761,TOR,Toronto,203998,Bruno Caboclo,,DNP - Coach's Decision                  ,,,,,,,0.0,,,,,,,0.0,,,2015-10-23T00:00:00,3,TOR,Toronto,5-2,21,25,29,17,0,0,0,0,0,0,0,0,0,0,92,0.359,0.864,0.304,19,54,11,0011500107,1610612761,TOR,Toronto,Bruno Caboclo,,DNP - Coach's Decision                  ,,,,,,,,,,,,,
0011500107,1610612761,TOR,Toronto,201949,James Johnson,,DNP - Coach's Decision                  ,,,,,,,0.0,,,,,,,0.0,,,2015-10-23T00:00:00,3,TOR,Toronto,5-2,21,25,29,17,0,0,0,0,0,0,0,0,0,0,92,0.359,0.864,0.304,19,54,11,0011500107,1610612761,TOR,Toronto,James Johnson,,DNP - Coach's Decision                  ,,,,,,,,,,,,,
0011500107,1610612761,TOR,Toronto,1626252,Michale Kyser,,DNP - Coach's Decision                  ,,,,,,,0.0,,,,,,,0.0,,,2015-10-23T00:00:00,3,TOR,Toronto,5-2,21,25,29,17,0,0,0,0,0,0,0,0,0,0,92,0.359,0.864,0.304,19,54,11,0011500107,1610612761,TOR,Toronto,Michale Kyser,,DNP - Coach's Decision                  ,,,,,,,,,,,,,
0011500107,1610612761,TOR,Toronto,203512,Lucas Nogueira,,DNP - Coach's Decision                  ,,,,,,,0.0,,,,,,,0.0,,,2015-10-23T00:00:00,3,TOR,Toronto,5-2,21,25,29,17,0,0,0,0,0,0,0,0,0,0,92,0.359,0.864,0.304,19,54,11,0011500107,1610612761,TOR,Toronto,Lucas Nogueira,,DNP - Coach's Decision                  ,,,,,,,,,,,,,
0011500107,1610612761,TOR,Toronto,1626181,Norman Powell,,DNP - Coach's Decision                  ,,,,,,,0.0,,,,,,,0.0,,,2015-10-23T00:00:00,3,TOR,Toronto,5-2,21,25,29,17,0,0,0,0,0,0,0,0,0,0,92,0.359,0.864,0.304,19,54,11,0011500107,1610612761,TOR,Toronto,Norman Powell,,DNP - Coach's Decision                  ,,,,,,,,,,,,,
0011500107,1610612761,TOR,Toronto,204040,Ronald Roberts Jr.,,DNP - Coach's Decision                  ,,,,,,,0.0,,,,,,,0.0,,,2015-10-23T00:00:00,3,TOR,Toronto,5-2,21,25,29,17,0,0,0,0,0,0,0,0,0,0,92,0.359,0.864,0.304,19,54,11,0011500107,1610612761,TOR,Toronto,Ronald Roberts Jr.,,DNP - Coach's Decision                  ,,,,,,,,,,,,,
0011500107,1610612761,TOR,Toronto,1626263,Shannon Scott,,DNP - Coach's Decision                  ,,,,,,,0.0,,,,,,,0.0,,,2015-10-23T00:00:00,3,TOR,Toronto,5-2,21,25,29,17,0,0,0,0,0,0,0,0,0,0,92,0.359,0.864,0.304,19,54,11,0011500107,1610612761,TOR,Toronto,Shannon Scott,,DNP - Coach's Decision                  ,,,,,,,,,,,,,
0011500107,1610612761,TOR,Toronto,1626253,Axel Toupane,,DNP - Coach's Decision                  ,,,,,,,0.0,,,,,,,0.0,,,2015-10-23T00:00:00,3,TOR,Toronto,5-2,21,25,29,17,0,0,0,0,0,0,0,0,0,0,92,0.359,0.864,0.304,19,54,11,0011500107,1610612761,TOR,Toronto,Axel Toupane,,DNP - Coach's Decision                  ,,,,,,,,,,,,,
