GAME_ID_x,TEAM_ID_x,TEAM_ABBREVIATION_x,TEAM_CITY_x,PLAYER_ID,PLAYER_NAME_x,START_POSITION_x,COMMENT_x,MIN_x,OFF_RATING,DEF_RATING,NET_RATING,AST_PCT,AST_TOV,AST_RATIO,OREB_PCT,DREB_PCT,REB_PCT,TM_TOV_PCT,EFG_PCT,TS_PCT,USG_PCT,PACE,PIE,GAME_DATE_EST,GAME_SEQUENCE,TEAM_ABBREVIATION_y,TEAM_CITY_NAME,TEAM_WINS_LOSSES,PTS_QTR1,PTS_QTR2,PTS_QTR3,PTS_QTR4,PTS_OT1,PTS_OT2,PTS_OT3,PTS_OT4,PTS_OT5,PTS_OT6,PTS_OT7,PTS_OT8,PTS_OT9,PTS_OT10,PTS,FG_PCT,FT_PCT,FG3_PCT,AST,REB,TOV,GAME_ID_y,TEAM_ID_y,TEAM_ABBREVIATION,TEAM_CITY_y,PLAYER_NAME_y,START_POSITION_y,COMMENT_y,MIN_y,PTS_OFF_TOV,PTS_2ND_CHANCE,PTS_FB,PTS_PAINT,OPP_PTS_OFF_TOV,OPP_PTS_2ND_CHANCE,OPP_PTS_FB,OPP_PTS_PAINT,BLK,BLKA,PF,PFD
0011500104,1610612748,MIA,Miami,203516,James Ennis III,F,,5:24,112.8,69.9,42.9,0.0,0.0,0.0,0.0,0.2,0.083,0.0,0.0,0.266,0.138,104.53,0.0,2015-10-23T00:00:00,6,MIA,Miami,4-4,26,28,9,27,0,0,0,0,0,0,0,0,0,0,90,0.417,0.781,0.357,15,45,16,0011500104,1610612748,MIA,Miami,James Ennis III,F,,5:24,0.0,1.0,0.0,0.0,0.0,1.0,2.0,2.0,0.0,0.0,0.0,2.0
0011500104,1610612748,MIA,Miami,2547,Chris Bosh,F,,31:48,83.2,106.7,-23.4,0.0,0.0,0.0,0.0,0.172,0.088,10.2,0.433,0.539,0.29,98.29,0.178,2015-10-23T00:00:00,6,MIA,Miami,4-4,26,28,9,27,0,0,0,0,0,0,0,0,0,0,90,0.417,0.781,0.357,15,45,16,0011500104,1610612748,MIA,Miami,Chris Bosh,F,,31:48,0.0,0.0,0.0,4.0,15.0,9.0,7.0,12.0,1.0,1.0,0.0,4.0
0011500104,1610612748,MIA,Miami,202355,Hassan Whiteside,C,,29:32,75.9,87.0,-11.2,0.1,0.33,6.9,0.143,0.267,0.207,20.7,0.429,0.475,0.211,97.55,0.125,2015-10-23T00:00:00,6,MIA,Miami,4-4,26,28,9,27,0,0,0,0,0,0,0,0,0,0,90,0.417,0.781,0.357,15,45,16,0011500104,1610612748,MIA,Miami,Hassan Whiteside,C,,29:32,2.0,3.0,0.0,6.0,13.0,7.0,7.0,10.0,3.0,1.0,5.0,4.0
0011500104,1610612748,MIA,Miami,2548,Dwyane Wade,G,,26:29,69.5,80.1,-10.6,0.125,0.5,5.5,0.037,0.107,0.073,11.0,0.231,0.362,0.295,99.14,0.064,2015-10-23T00:00:00,6,MIA,Miami,4-4,26,28,9,27,0,0,0,0,0,0,0,0,0,0,90,0.417,0.781,0.357,15,45,16,0011500104,1610612748,MIA,Miami,Dwyane Wade,G,,26:29,0.0,0.0,0.0,4.0,12.0,6.0,4.0,10.0,0.0,1.0,2.0,5.0
0011500104,1610612748,MIA,Miami,201596,Mario Chalmers,G,,20:52,76.8,101.8,-25.0,0.333,0.6,27.3,0.043,0.056,0.049,45.5,0.833,0.833,0.158,106.69,0.029,2015-10-23T00:00:00,6,MIA,Miami,4-4,26,28,9,27,0,0,0,0,0,0,0,0,0,0,90,0.417,0.781,0.357,15,45,16,0011500104,1610612748,MIA,Miami,Mario Chalmers,G,,20:52,2.0,0.0,0.0,2.0,10.0,4.0,4.0,10.0,0.0,0.0,3.0,1.0
0011500104,1610612748,MIA,Miami,1626159,Justise Winslow,,,33:01,103.5,96.1,7.4,0.048,0.33,7.3,0.038,0.108,0.079,22.0,0.214,0.415,0.179,96.13,0.015,2015-10-23T00:00:00,6,MIA,Miami,4-4,26,28,9,27,0,0,0,0,0,0,0,0,0,0,90,0.417,0.781,0.357,15,45,16,0011500104,1610612748,MIA,Miami,Justise Winslow,,,33:01,1.0,0.0,2.0,0.0,10.0,7.0,3.0,10.0,0.0,1.0,4.0,3.0
0011500104,1610612748,MIA,Miami,201177,Josh McRoberts,,,13:30,114.5,55.1,59.4,0.545,0.0,76.1,0.0,0.059,0.042,0.0,0.0,0.266,0.069,93.3,0.145,2015-10-23T00:00:00,6,MIA,Miami,4-4,26,28,9,27,0,0,0,0,0,0,0,0,0,0,90,0.417,0.781,0.357,15,45,16,0011500104,1610612748,MIA,Miami,Josh McRoberts,,,13:30,0.0,0.0,0.0,0.0,2.0,4.0,0.0,0.0,0.0,0.0,2.0,1.0
0011500104,1610612748,MIA,Miami,204020,Tyler Johnson,,,27:17,110.5,90.7,19.8,0.125,2.0,16.7,0.0,0.161,0.104,8.3,0.5,0.5,0.184,91.73,0.103,2015-10-23T00:00:00,6,MIA,Miami,4-4,26,28,9,27,0,0,0,0,0,0,0,0,0,0,90,0.417,0.781,0.357,15,45,16,0011500104,1610612748,MIA,Miami,Tyler Johnson,,,27:17,0.0,2.0,0.0,6.0,7.0,7.0,3.0,6.0,1.0,0.0,3.0,2.0
0011500104,1610612748,MIA,Miami,2365,Chris Andersen,,,15:31,133.0,109.0,24.0,0.0,0.0,0.0,0.0,0.2,0.125,0.0,1.0,1.0,0.032,93.36,0.073,2015-10-23T00:00:00,6,MIA,Miami,4-4,26,28,9,27,0,0,0,0,0,0,0,0,0,0,90,0.417,0.781,0.357,15,45,16,0011500104,1610612748,MIA,Miami,Chris Andersen,,,15:31,0.0,0.0,0.0,2.0,2.0,2.0,0.0,6.0,1.0,0.0,1.0,1.0
0011500104,1610612748,MIA,Miami,101123,Gerald Green,,,26:51,114.0,104.2,9.7,0.077,0.0,5.8,0.0,0.185,0.106,0.0,0.7,0.735,0.271,99.07,0.241,2015-10-23T00:00:00,6,MIA,Miami,4-4,26,28,9,27,0,0,0,0,0,0,0,0,0,0,90,0.417,0.781,0.357,15,45,16,0011500104,1610612748,MIA,Miami,Gerald Green,,,26:51,2.0,0.0,2.0,10.0,7.0,5.0,3.0,8.0,0.0,1.0,2.0,3.0
0011500104,1610612748,MIA,Miami,1626196,Josh Richardson,,,9:45,41.8,134.2,-92.5,0.0,0.0,0.0,0.0,0.25,0.125,0.0,0.0,0.0,0.0,85.27,0.128,2015-10-23T00:00:00,6,MIA,Miami,4-4,26,28,9,27,0,0,0,0,0,0,0,0,0,0,90,0.417,0.781,0.357,15,45,16,0011500104,1610612748,MIA,Miami,Josh Richardson,,,9:45,0.0,0.0,0.0,0.0,7.0,3.0,2.0,6.0,1.0,0.0,0.0,2.0
0011500104,1610612748,MIA,Miami,202728,Keith Benson,,DNP - Coach's Decision                  ,,,,,,,0.0,,,,,,,0.0,,,2015-10-23T00:00:00,6,MIA,Miami,4-4,26,28,9,27,0,0,0,0,0,0,0,0,0,0,90,0.417,0.781,0.357,15,45,16,0011500104,1610612748,MIA,Miami,Keith Benson,,DNP - Coach's Decision                  ,,,,,,,,,,,,,
0011500104,1610612748,MIA,Miami,2736,Luol Deng,,DNP - Coach's Decision                  ,,,,,,,0.0,,,,,,,0.0,,,2015-10-23T00:00:00,6,MIA,Miami,4-4,26,28,9,27,0,0,0,0,0,0,0,0,0,0,90,0.417,0.781,0.357,15,45,16,0011500104,1610612748,MIA,Miami,Luol Deng,,DNP - Coach's Decision                  ,,,,,,,,,,,,,
0011500104,1610612748,MIA,Miami,201609,Goran Dragic,,NWT - Coach's Decision                  ,,,,,,,0.0,,,,,,,0.0,,,2015-10-23T00:00:00,6,MIA,Miami,4-4,26,28,9,27,0,0,0,0,0,0,0,0,0,0,90,0.417,0.781,0.357,15,45,16,0011500104,1610612748,MIA,Miami,Goran Dragic,,NWT - Coach's Decision                  ,,,,,,,,,,,,,
0011500104,1610612748,MIA,Miami,2617,Udonis Haslem,,DNP - Coach's Decision                  ,,,,,,,0.0,,,,,,,0.0,,,2015-10-23T00:00:00,6,MIA,Miami,4-4,26,28,9,27,0,0,0,0,0,0,0,0,0,0,90,0.417,0.781,0.357,15,45,16,0011500104,1610612748,MIA,Miami,Udonis Haslem,,DNP - Coach's Decision                  ,,,,,,,,,,,,,
0011500104,1610612748,MIA,Miami,201645,Tre Kelley,,DNP - Coach's Decision                  ,,,,,,,0.0,,,,,,,0.0,,,2015-10-23T00:00:00,6,MIA,Miami,4-4,26,28,9,27,0,0,0,0,0,0,0,0,0,0,90,0.417,0.781,0.357,15,45,16,0011500104,1610612748,MIA,Miami,Tre Kelley,,DNP - Coach's Decision                  ,,,,,,,,,,,,,
0011500104,1610612748,MIA,Miami,101249,John Lucas III,,DNP - Coach's Decision                  ,,,,,,,0.0,,,,,,,0.0,,,2015-10-23T00:00:00,6,MIA,Miami,4-4,26,28,9,27,0,0,0,0,0,0,0,0,0,0,90,0.417,0.781,0.357,15,45,16,0011500104,1610612748,MIA,Miami,John Lucas III,,DNP - Coach's Decision                  ,,,,,,,,,,,,,
0011500104,1610612748,MIA,Miami,2405,Amar'e Stoudemire,,DNP - Coach's Decision                  ,,,,,,,0.0,,,,,,,0.0,,,2015-10-23T00:00:00,6,MIA,Miami,4-4,26,28,9,27,0,0,0,0,0,0,0,0,0,0,90,0.417,0.781,0.357,15,45,16,0011500104,1610612748,MIA,Miami,Amar'e Stoudemire,,DNP - Coach's Decision                  ,,,,,,,,,,,,,
0011500104,1610612748,MIA,Miami,1627362,Briante Weber,,DNP - Coach's Decision                  ,,,,,,,0.0,,,,,,,0.0,,,2015-10-23T00:00:00,6,MIA,Miami,4-4,26,28,9,27,0,0,0,0,0,0,0,0,0,0,90,0.417,0.781,0.357,15,45,16,0011500104,1610612748,MIA,Miami,Briante Weber,,DNP - Coach's Decision                  ,,,,,,,,,,,,,
0011500104,1610612748,MIA,Miami,204222,Greg Whittington,,NWT - Coach's Decision                  ,,,,,,,0.0,,,,,,,0.0,,,2015-10-23T00:00:00,6,MIA,Miami,4-4,26,28,9,27,0,0,0,0,0,0,0,0,0,0,90,0.417,0.781,0.357,15,45,16,0011500104,1610612748,MIA,Miami,Greg Whittington,,NWT - Coach's Decision                  ,,,,,,,,,,,,,
0011500104,1610612740,NOP,New Orleans,201967,Dante Cunningham,F,,33:10,84.8,84.1,0.7,0.0,0.0,0.0,0.0,0.323,0.159,30.4,0.417,0.436,0.133,98.5,0.107,2015-10-23T00:00:00,6,NOP,New Orleans,3-4,23,25,18,27,0,0,0,0,0,0,0,0,0,0,93,0.333,0.813,0.464,18,44,14,0011500104,1610612740,NOP,New Orleans,Dante Cunningham,F,,33:10,2.0,1.0,2.0,2.0,7.0,6.0,2.0,16.0,0.0,1.0,2.0,2.0
0011500104,1610612740,NOP,New Orleans,203076,Anthony Davis,F,,36:11,104.8,81.8,23.0,0.294,1.67,15.0,0.129,0.257,0.197,9.0,0.4,0.494,0.344,98.46,0.246,2015-10-23T00:00:00,6,NOP,New Orleans,3-4,23,25,18,27,0,0,0,0,0,0,0,0,0,0,93,0.333,0.813,0.464,18,44,14,0011500104,1610612740,NOP,New Orleans,Anthony Davis,F,,36:11,2.0,5.0,0.0,2.0,6.0,6.0,2.0,22.0,5.0,3.0,4.0,7.0
0011500104,1610612740,NOP,New Orleans,2570,Kendrick Perkins,C,,17:51,90.1,73.2,16.9,0.091,0.5,14.3,0.143,0.056,0.094,28.6,0.25,0.25,0.151,95.19,-0.1,2015-10-23T00:00:00,6,NOP,New Orleans,3-4,23,25,18,27,0,0,0,0,0,0,0,0,0,0,93,0.333,0.813,0.464,18,44,14,0011500104,1610612740,NOP,New Orleans,Kendrick Perkins,C,,17:51,0.0,0.0,0.0,2.0,4.0,2.0,2.0,12.0,0.0,0.0,4.0,0.0
0011500104,1610612740,NOP,New Orleans,201569,Eric Gordon,G,,35:57,105.9,85.1,20.8,0.111,2.0,9.2,0.056,0.059,0.057,4.6,0.5,0.59,0.24,96.37,0.124,2015-10-23T00:00:00,6,NOP,New Orleans,3-4,23,25,18,27,0,0,0,0,0,0,0,0,0,0,93,0.333,0.813,0.464,18,44,14,0011500104,1610612740,NOP,New Orleans,Eric Gordon,G,,35:57,10.0,3.0,0.0,4.0,6.0,6.0,2.0,26.0,0.0,0.0,4.0,3.0
0011500104,1610612740,NOP,New Orleans,201950,Jrue Holiday,G,,17:50,112.7,71.7,41.0,0.444,0.0,31.1,0.0,0.105,0.063,0.0,0.5,0.563,0.221,100.18,0.241,2015-10-23T00:00:00,6,NOP,New Orleans,3-4,23,25,18,27,0,0,0,0,0,0,0,0,0,0,93,0.333,0.813,0.464,18,44,14,0011500104,1610612740,NOP,New Orleans,Jrue Holiday,G,,17:50,3.0,0.0,2.0,2.0,4.0,4.0,0.0,10.0,0.0,2.0,2.0,3.0
0011500104,1610612740,NOP,New Orleans,201583,Ryan Anderson,,,24:06,85.3,100.6,-15.3,0.0,0.0,0.0,0.069,0.294,0.152,16.8,0.444,0.506,0.22,93.28,0.099,2015-10-23T00:00:00,6,NOP,New Orleans,3-4,23,25,18,27,0,0,0,0,0,0,0,0,0,0,93,0.333,0.813,0.464,18,44,14,0011500104,1610612740,NOP,New Orleans,Ryan Anderson,,,24:06,0.0,0.0,3.0,2.0,1.0,2.0,2.0,14.0,0.0,0.0,3.0,2.0
0011500104,1610612740,NOP,New Orleans,101126,Nate Robinson,,,18:02,67.3,109.3,-42.0,0.2,1.0,14.5,0.0,0.083,0.029,14.5,0.0,0.205,0.146,90.5,-0.081,2015-10-23T00:00:00,6,NOP,New Orleans,3-4,23,25,18,27,0,0,0,0,0,0,0,0,0,0,93,0.333,0.813,0.464,18,44,14,0011500104,1610612740,NOP,New Orleans,Nate Robinson,,,18:02,0.0,0.0,0.0,0.0,1.0,0.0,0.0,10.0,0.0,0.0,2.0,1.0
0011500104,1610612740,NOP,New Orleans,1626214,Bryce Dejean-Jones,,,25:02,89.9,111.7,-21.7,0.111,1.0,11.4,0.0,0.0,0.0,11.4,1.0,0.962,0.136,96.91,0.092,2015-10-23T00:00:00,6,NOP,New Orleans,3-4,23,25,18,27,0,0,0,0,0,0,0,0,0,0,93,0.333,0.813,0.464,18,44,14,0011500104,1610612740,NOP,New Orleans,Bryce Dejean-Jones,,,25:02,0.0,2.0,0.0,2.0,3.0,2.0,4.0,24.0,0.0,0.0,4.0,3.0
0011500104,1610612740,NOP,New Orleans,202087,Alonzo Gee,,,20:16,94.6,130.8,-36.2,0.0,0.0,0.0,0.04,0.125,0.061,0.0,0.143,0.19,0.167,97.38,-0.051,2015-10-23T00:00:00,6,NOP,New Orleans,3-4,23,25,18,27,0,0,0,0,0,0,0,0,0,0,93,0.333,0.813,0.464,18,44,14,0011500104,1610612740,NOP,New Orleans,Alonzo Gee,,,20:16,0.0,0.0,0.0,0.0,1.0,0.0,2.0,22.0,0.0,0.0,1.0,1.0
0011500104,1610612740,NOP,New Orleans,1627322,Bo McCalebb,,,12:16,104.8,104.0,0.8,0.4,4.0,57.1,0.0,0.222,0.091,14.3,0.0,0.0,0.104,101.19,0.024,2015-10-23T00:00:00,6,NOP,New Orleans,3-4,23,25,18,27,0,0,0,0,0,0,0,0,0,0,93,0.333,0.813,0.464,18,44,14,0011500104,1610612740,NOP,New Orleans,Bo McCalebb,,,12:16,0.0,0.0,0.0,0.0,2.0,2.0,4.0,14.0,0.0,1.0,2.0,0.0
0011500104,1610612740,NOP,New Orleans,202399,Jeff Adrien,,DNP - Coach's Decision                  ,,,,,,,0.0,,,,,,,0.0,,,2015-10-23T00:00:00,6,NOP,New Orleans,3-4,23,25,18,27,0,0,0,0,0,0,0,0,0,0,93,0.333,0.813,0.464,18,44,14,0011500104,1610612740,NOP,New Orleans,Jeff Adrien,,DNP - Coach's Decision                  ,,,,,,,,,,,,,
0011500104,1610612740,NOP,New Orleans,201582,Alexis Ajinca,,DNP - Coach's Decision                  ,,,,,,,0.0,,,,,,,0.0,,,2015-10-23T00:00:00,6,NOP,New Orleans,3-4,23,25,18,27,0,0,0,0,0,0,0,0,0,0,93,0.333,0.813,0.464,18,44,14,0011500104,1610612740,NOP,New Orleans,Alexis Ajinca,,DNP - Coach's Decision                  ,,,,,,,,,,,,,
0011500104,1610612740,NOP,New Orleans,201600,Omer Asik,,DNP - Coach's Decision                  ,,,,,,,0.0,,,,,,,0.0,,,2015-10-23T00:00:00,6,NOP,New Orleans,3-4,23,25,18,27,0,0,0,0,0,0,0,0,0,0,93,0.333,0.813,0.464,18,44,14,0011500104,1610612740,NOP,New Orleans,Omer Asik,,DNP - Coach's Decision                  ,,,,,,,,,,,,,
0011500104,1610612740,NOP,New Orleans,202337,Luke Babbitt,,DNP - Coach's Decision                  ,,,,,,,0.0,,,,,,,0.0,,,2015-10-23T00:00:00,6,NOP,New Orleans,3-4,23,25,18,27,0,0,0,0,0,0,0,0,0,0,93,0.333,0.813,0.464,18,44,14,0011500104,1610612740,NOP,New Orleans,Luke Babbitt,,DNP - Coach's Decision                  ,,,,,,,,,,,,,
0011500104,1610612740,NOP,New Orleans,202708,Norris Cole,,DND - Left Ankle Sprain                 ,,,,,,,0.0,,,,,,,0.0,,,2015-10-23T00:00:00,6,NOP,New Orleans,3-4,23,25,18,27,0,0,0,0,0,0,0,0,0,0,93,0.333,0.813,0.464,18,44,14,0011500104,1610612740,NOP,New Orleans,Norris Cole,,DND - Left Ankle Sprain                 ,,,,,,,,,,,,,
0011500104,1610612740,NOP,New Orleans,201936,Tyreke Evans,,NWT - Right Knee Surgery                ,,,,,,,0.0,,,,,,,0.0,,,2015-10-23T00:00:00,6,NOP,New Orleans,3-4,23,25,18,27,0,0,0,0,0,0,0,0,0,0,93,0.333,0.813,0.464,18,44,14,0011500104,1610612740,NOP,New Orleans,Tyreke Evans,,NWT - Right Knee Surgery                ,,,,,,,,,,,,,
0011500104,1610612740,NOP,New Orleans,202347,Quincy Pondexter,,DNP - Coach's Decision                  ,,,,,,,0.0,,,,,,,0.0,,,2015-10-23T00:00:00,6,NOP,New Orleans,3-4,23,25,18,27,0,0,0,0,0,0,0,0,0,0,93,0.333,0.813,0.464,18,44,14,0011500104,1610612740,NOP,New Orleans,Quincy Pondexter,,DNP - Coach's Decision                  ,,,,,,,,,,,,,
