GAME_ID_x,TEAM_ID_x,TEAM_ABBREVIATION_x,TEAM_CITY_x,PLAYER_ID,PLAYER_NAME_x,START_POSITION_x,COMMENT_x,MIN_x,OFF_RATING,DEF_RATING,NET_RATING,AST_PCT,AST_TOV,AST_RATIO,OREB_PCT,DREB_PCT,REB_PCT,TM_TOV_PCT,EFG_PCT,TS_PCT,USG_PCT,PACE,PIE,GAME_DATE_EST,GAME_SEQUENCE,TEAM_ABBREVIATION_y,TEAM_CITY_NAME,TEAM_WINS_LOSSES,PTS_QTR1,PTS_QTR2,PTS_QTR3,PTS_QTR4,PTS_OT1,PTS_OT2,PTS_OT3,PTS_OT4,PTS_OT5,PTS_OT6,PTS_OT7,PTS_OT8,PTS_OT9,PTS_OT10,PTS,FG_PCT,FT_PCT,FG3_PCT,AST,REB,TOV,GAME_ID_y,TEAM_ID_y,TEAM_ABBREVIATION,TEAM_CITY_y,PLAYER_NAME_y,START_POSITION_y,COMMENT_y,MIN_y,PTS_OFF_TOV,PTS_2ND_CHANCE,PTS_FB,PTS_PAINT,OPP_PTS_OFF_TOV,OPP_PTS_2ND_CHANCE,OPP_PTS_FB,OPP_PTS_PAINT,BLK,BLKA,PF,PFD
0021500003,1610612740,NOP,New Orleans,201967,Dante Cunningham,F,,26:31,91.1,125.9,-34.8,0.0,0.0,0.0,0.038,0.043,0.041,0.0,0.75,0.77,0.131,106.72,0.092,2015-10-27T00:00:00,3,NOP,New Orleans,0-1,35,14,26,20,0,0,0,0,0,0,0,0,0,0,95,0.422,0.704,0.333,21,33,18,0021500003,1610612740,NOP,New Orleans,Dante Cunningham,F,,26:31,8.0,2.0,3.0,4.0,16.0,9.0,11.0,36.0,0.0,1.0,2.0,1.0
0021500003,1610612740,NOP,New Orleans,203076,Anthony Davis,F,,34:31,91.6,112.9,-21.3,0.095,0.4,6.0,0.031,0.147,0.091,14.9,0.2,0.338,0.378,108.82,-0.027,2015-10-27T00:00:00,3,NOP,New Orleans,0-1,35,14,26,20,0,0,0,0,0,0,0,0,0,0,95,0.422,0.704,0.333,21,33,18,0021500003,1610612740,NOP,New Orleans,Anthony Davis,F,,34:31,6.0,0.0,4.0,2.0,20.0,15.0,11.0,40.0,3.0,1.0,4.0,9.0
0021500003,1610612740,NOP,New Orleans,2570,Kendrick Perkins,C,,15:53,86.7,129.1,-42.4,0.125,0.0,16.7,0.0,0.333,0.16,0.0,1.0,1.0,0.145,98.5,0.211,2015-10-27T00:00:00,3,NOP,New Orleans,0-1,35,14,26,20,0,0,0,0,0,0,0,0,0,0,95,0.422,0.704,0.333,21,33,18,0021500003,1610612740,NOP,New Orleans,Kendrick Perkins,C,,15:53,0.0,0.0,0.0,10.0,8.0,4.0,11.0,24.0,0.0,0.0,1.0,2.0
0021500003,1610612740,NOP,New Orleans,201569,Eric Gordon,G,,33:29,98.3,113.1,-14.8,0.19,1.0,15.5,0.0,0.125,0.068,15.5,0.353,0.391,0.287,105.17,0.05,2015-10-27T00:00:00,3,NOP,New Orleans,0-1,35,14,26,20,0,0,0,0,0,0,0,0,0,0,95,0.422,0.704,0.333,21,33,18,0021500003,1610612740,NOP,New Orleans,Eric Gordon,G,,33:29,5.0,0.0,0.0,2.0,19.0,16.0,11.0,40.0,0.0,3.0,1.0,2.0
0021500003,1610612740,NOP,New Orleans,101126,Nate Robinson,G,,19:03,66.5,117.3,-50.7,0.273,0.0,75.0,0.0,0.0,0.0,0.0,0.0,0.0,0.023,99.75,-0.042,2015-10-27T00:00:00,3,NOP,New Orleans,0-1,35,14,26,20,0,0,0,0,0,0,0,0,0,0,95,0.422,0.704,0.333,21,33,18,0021500003,1610612740,NOP,New Orleans,Nate Robinson,G,,19:03,0.0,0.0,0.0,0.0,11.0,7.0,5.0,24.0,0.0,0.0,5.0,0.0
0021500003,1610612740,NOP,New Orleans,202397,Ish Smith,,,38:01,101.7,96.0,5.7,0.375,4.5,34.9,0.032,0.027,0.029,7.8,0.577,0.576,0.181,106.63,0.134,2015-10-27T00:00:00,3,NOP,New Orleans,0-1,35,14,26,20,0,0,0,0,0,0,0,0,0,0,95,0.422,0.704,0.333,21,33,18,0021500003,1610612740,NOP,New Orleans,Ish Smith,,,38:01,2.0,2.0,2.0,10.0,19.0,16.0,10.0,38.0,0.0,2.0,5.0,9.0
0021500003,1610612740,NOP,New Orleans,201582,Alexis Ajinca,,,16:56,101.6,86.9,14.7,0.0,0.0,0.0,0.25,0.053,0.129,12.5,0.429,0.429,0.198,105.37,0.014,2015-10-27T00:00:00,3,NOP,New Orleans,0-1,35,14,26,20,0,0,0,0,0,0,0,0,0,0,95,0.422,0.704,0.333,21,33,18,0021500003,1610612740,NOP,New Orleans,Alexis Ajinca,,,16:56,0.0,2.0,0.0,4.0,9.0,6.0,2.0,14.0,0.0,0.0,3.0,0.0
0021500003,1610612740,NOP,New Orleans,202087,Alonzo Gee,,,26:56,75.5,85.6,-10.1,0.077,0.33,11.1,0.0,0.179,0.091,33.3,0.8,0.8,0.123,106.01,0.198,2015-10-27T00:00:00,3,NOP,New Orleans,0-1,35,14,26,20,0,0,0,0,0,0,0,0,0,0,95,0.422,0.704,0.333,21,33,18,0021500003,1610612740,NOP,New Orleans,Alonzo Gee,,,26:56,4.0,0.0,6.0,8.0,13.0,15.0,2.0,24.0,0.0,0.0,3.0,2.0
0021500003,1610612740,NOP,New Orleans,201583,Ryan Anderson,,,28:40,82.1,97.2,-15.1,0.063,0.33,7.6,0.069,0.148,0.107,22.7,0.357,0.489,0.176,104.72,0.067,2015-10-27T00:00:00,3,NOP,New Orleans,0-1,35,14,26,20,0,0,0,0,0,0,0,0,0,0,95,0.422,0.704,0.333,21,33,18,0021500003,1610612740,NOP,New Orleans,Ryan Anderson,,,28:40,4.0,2.0,3.0,0.0,15.0,17.0,2.0,30.0,0.0,0.0,2.0,4.0
0021500003,1610612740,NOP,New Orleans,201600,Omer Asik,,DND - Right Calf Strain                 ,,,,,,,0.0,,,,,,,0.0,,,2015-10-27T00:00:00,3,NOP,New Orleans,0-1,35,14,26,20,0,0,0,0,0,0,0,0,0,0,95,0.422,0.704,0.333,21,33,18,0021500003,1610612740,NOP,New Orleans,Omer Asik,,DND - Right Calf Strain                 ,,,,,,,,,,,,,
0021500003,1610612740,NOP,New Orleans,202337,Luke Babbitt,,DND - Left Hamstring Tightness          ,,,,,,,0.0,,,,,,,0.0,,,2015-10-27T00:00:00,3,NOP,New Orleans,0-1,35,14,26,20,0,0,0,0,0,0,0,0,0,0,95,0.422,0.704,0.333,21,33,18,0021500003,1610612740,NOP,New Orleans,Luke Babbitt,,DND - Left Hamstring Tightness          ,,,,,,,,,,,,,
0021500003,1610612740,NOP,New Orleans,201950,Jrue Holiday,,DND - Rest                              ,,,,,,,0.0,,,,,,,0.0,,,2015-10-27T00:00:00,3,NOP,New Orleans,0-1,35,14,26,20,0,0,0,0,0,0,0,0,0,0,95,0.422,0.704,0.333,21,33,18,0021500003,1610612740,NOP,New Orleans,Jrue Holiday,,DND - Rest                              ,,,,,,,,,,,,,
0021500003,1610612744,GSW,Golden State,203084,Harrison Barnes,F,,32:42,121.2,93.3,27.9,0.1,3.0,17.8,0.161,0.16,0.161,5.9,0.292,0.311,0.169,103.55,0.038,2015-10-27T00:00:00,3,GSW,Golden State,1-0,39,20,35,17,0,0,0,0,0,0,0,0,0,0,111,0.427,0.909,0.3,29,56,20,0021500003,1610612744,GSW,Golden State,Harrison Barnes,F,,32:42,5.0,3.0,0.0,2.0,12.0,4.0,11.0,28.0,0.0,0.0,3.0,2.0
0021500003,1610612744,GSW,Golden State,203110,Draymond Green,F,,29:26,119.5,85.9,33.6,0.08,2.0,12.6,0.103,0.238,0.16,6.3,0.333,0.388,0.179,104.99,0.046,2015-10-27T00:00:00,3,GSW,Golden State,1-0,39,20,35,17,0,0,0,0,0,0,0,0,0,0,111,0.427,0.909,0.3,29,56,20,0021500003,1610612744,GSW,Golden State,Draymond Green,F,,29:26,5.0,0.0,0.0,0.0,11.0,4.0,13.0,26.0,0.0,0.0,5.0,8.0
0021500003,1610612744,GSW,Golden State,101106,Andrew Bogut,C,,18:42,139.2,85.6,53.6,0.333,0.0,45.5,0.077,0.222,0.161,0.0,1.0,1.0,0.146,102.88,0.265,2015-10-27T00:00:00,3,GSW,Golden State,1-0,39,20,35,17,0,0,0,0,0,0,0,0,0,0,111,0.427,0.909,0.3,29,56,20,0021500003,1610612744,GSW,Golden State,Andrew Bogut,C,,18:42,0.0,4.0,0.0,12.0,8.0,2.0,7.0,14.0,2.0,0.0,2.0,1.0
0021500003,1610612744,GSW,Golden State,202691,Klay Thompson,G,,26:26,106.7,96.8,9.9,0.158,0.43,15.5,0.0,0.217,0.114,36.2,0.375,0.483,0.247,108.95,0.016,2015-10-27T00:00:00,3,GSW,Golden State,1-0,39,20,35,17,0,0,0,0,0,0,0,0,0,0,111,0.427,0.909,0.3,29,56,20,0021500003,1610612744,GSW,Golden State,Klay Thompson,G,,26:26,2.0,0.0,0.0,6.0,18.0,4.0,16.0,30.0,1.0,0.0,5.0,2.0
0021500003,1610612744,GSW,Golden State,201939,Stephen Curry,G,,35:37,110.3,93.8,16.5,0.389,3.5,18.4,0.088,0.107,0.097,5.3,0.635,0.688,0.341,104.34,0.326,2015-10-27T00:00:00,3,GSW,Golden State,1-0,39,20,35,17,0,0,0,0,0,0,0,0,0,0,111,0.427,0.909,0.3,29,56,20,0021500003,1610612744,GSW,Golden State,Stephen Curry,G,,35:37,10.0,8.0,11.0,14.0,16.0,4.0,13.0,30.0,0.0,1.0,1.0,6.0
0021500003,1610612744,GSW,Golden State,2738,Andre Iguodala,,,23:23,92.9,93.5,-0.5,0.188,3.0,42.9,0.036,0.167,0.096,14.3,0.333,0.333,0.059,106.82,0.09,2015-10-27T00:00:00,3,GSW,Golden State,1-0,39,20,35,17,0,0,0,0,0,0,0,0,0,0,111,0.427,0.909,0.3,29,56,20,0021500003,1610612744,GSW,Golden State,Andre Iguodala,,,23:23,2.0,0.0,2.0,2.0,18.0,4.0,7.0,18.0,0.0,0.0,2.0,0.0
0021500003,1610612744,GSW,Golden State,2571,Leandro Barbosa,,,20:30,90.7,100.2,-9.4,0.133,0.67,18.2,0.038,0.25,0.13,27.3,0.0,0.0,0.15,101.85,-0.082,2015-10-27T00:00:00,3,GSW,Golden State,1-0,39,20,35,17,0,0,0,0,0,0,0,0,0,0,111,0.427,0.909,0.3,29,56,20,0021500003,1610612744,GSW,Golden State,Leandro Barbosa,,,20:30,0.0,0.0,0.0,0.0,18.0,4.0,5.0,14.0,1.0,0.0,3.0,0.0
0021500003,1610612744,GSW,Golden State,203105,Festus Ezeli,,,17:01,71.6,98.9,-27.2,0.25,1.0,7.8,0.167,0.091,0.138,7.8,0.6,0.597,0.258,105.07,0.25,2015-10-27T00:00:00,3,GSW,Golden State,1-0,39,20,35,17,0,0,0,0,0,0,0,0,0,0,111,0.427,0.909,0.3,29,56,20,0021500003,1610612744,GSW,Golden State,Festus Ezeli,,,17:01,0.0,0.0,0.0,12.0,10.0,2.0,8.0,16.0,1.0,2.0,2.0,3.0
0021500003,1610612744,GSW,Golden State,203949,James Michael McAdoo,,,2:31,130.8,121.5,9.3,0.0,0.0,0.0,0.0,0.0,0.0,69.4,0.0,1.136,0.419,120.46,-0.3,2015-10-27T00:00:00,3,GSW,Golden State,1-0,39,20,35,17,0,0,0,0,0,0,0,0,0,0,111,0.427,0.909,0.3,29,56,20,0021500003,1610612744,GSW,Golden State,James Michael McAdoo,,,2:31,0.0,0.0,0.0,0.0,4.0,2.0,0.0,2.0,0.0,0.0,4.0,1.0
0021500003,1610612744,GSW,Golden State,201578,Marreese Speights,,,10:42,85.2,78.1,7.1,0.2,0.5,8.5,0.4,0.067,0.2,17.0,0.357,0.514,0.351,109.78,0.244,2015-10-27T00:00:00,3,GSW,Golden State,1-0,39,20,35,17,0,0,0,0,0,0,0,0,0,0,111,0.427,0.909,0.3,29,56,20,0021500003,1610612744,GSW,Golden State,Marreese Speights,,,10:42,2.0,2.0,0.0,2.0,13.0,4.0,5.0,10.0,1.0,0.0,1.0,3.0
0021500003,1610612744,GSW,Golden State,2733,Shaun Livingston,,,21:20,88.7,58.4,30.3,0.167,0.0,25.0,0.0,0.13,0.07,0.0,0.5,0.5,0.109,104.67,0.259,2015-10-27T00:00:00,3,GSW,Golden State,1-0,39,20,35,17,0,0,0,0,0,0,0,0,0,0,111,0.427,0.909,0.3,29,56,20,0021500003,1610612744,GSW,Golden State,Shaun Livingston,,,21:20,0.0,4.0,0.0,4.0,15.0,4.0,5.0,10.0,1.0,0.0,1.0,0.0
0021500003,1610612744,GSW,Golden State,201575,Brandon Rush,,,1:40,180.4,103.1,77.3,0.0,0.0,0.0,0.0,0.0,0.0,0.0,0.0,0.0,0.0,111.74,0.0,2015-10-27T00:00:00,3,GSW,Golden State,1-0,39,20,35,17,0,0,0,0,0,0,0,0,0,0,111,0.427,0.909,0.3,29,56,20,0021500003,1610612744,GSW,Golden State,Brandon Rush,,,1:40,0.0,0.0,0.0,0.0,2.0,2.0,0.0,2.0,0.0,0.0,0.0,0.0
0021500003,1610612744,GSW,Golden State,201574,Jason Thompson,,DNP - Coach's Decision                  ,,,,,,,0.0,,,,,,,0.0,,,2015-10-27T00:00:00,3,GSW,Golden State,1-0,39,20,35,17,0,0,0,0,0,0,0,0,0,0,111,0.427,0.909,0.3,29,56,20,0021500003,1610612744,GSW,Golden State,Jason Thompson,,DNP - Coach's Decision                  ,,,,,,,,,,,,,
