GAME_ID_x,TEAM_ID_x,TEAM_ABBREVIATION_x,TEAM_CITY_x,PLAYER_ID,PLAYER_NAME_x,START_POSITION_x,COMMENT_x,MIN_x,OFF_RATING,DEF_RATING,NET_RATING,AST_PCT,AST_TOV,AST_RATIO,OREB_PCT,DREB_PCT,REB_PCT,TM_TOV_PCT,EFG_PCT,TS_PCT,USG_PCT,PACE,PIE,GAME_DATE_EST,GAME_SEQUENCE,TEAM_ABBREVIATION_y,TEAM_CITY_NAME,TEAM_WINS_LOSSES,PTS_QTR1,PTS_QTR2,PTS_QTR3,PTS_QTR4,PTS_OT1,PTS_OT2,PTS_OT3,PTS_OT4,PTS_OT5,PTS_OT6,PTS_OT7,PTS_OT8,PTS_OT9,PTS_OT10,PTS,FG_PCT,FT_PCT,FG3_PCT,AST,REB,TOV,GAME_ID_y,TEAM_ID_y,TEAM_ABBREVIATION,TEAM_CITY_y,PLAYER_NAME_y,START_POSITION_y,COMMENT_y,MIN_y,PTS_OFF_TOV,PTS_2ND_CHANCE,PTS_FB,PTS_PAINT,OPP_PTS_OFF_TOV,OPP_PTS_2ND_CHANCE,OPP_PTS_FB,OPP_PTS_PAINT,BLK,BLKA,PF,PFD
0021500011,1610612739,CLE,Cleveland,2544,LeBron James,F,,30:48,92.0,78.6,13.4,0.278,1.67,20.4,0.03,0.207,0.113,12.2,0.308,0.363,0.276,93.01,0.119,2015-10-28T00:00:00,8,CLE,Cleveland,1-1,26,27,26,27,0,0,0,0,0,0,0,0,0,0,106,0.488,0.647,0.448,29,54,19,0021500011,1610612739,CLE,Cleveland,LeBron James,F,,30:48,2.0,0.0,6.0,6.0,7.0,2.0,7.0,26.0,0.0,0.0,1.0,5.0
0021500011,1610612739,CLE,Cleveland,201567,Kevin Love,F,,28:51,114.0,82.2,31.8,0.176,1.0,14.7,0.091,0.314,0.228,14.7,0.571,0.589,0.289,89.78,0.212,2015-10-28T00:00:00,8,CLE,Cleveland,1-1,26,27,26,27,0,0,0,0,0,0,0,0,0,0,106,0.488,0.647,0.448,29,54,19,0021500011,1610612739,CLE,Cleveland,Kevin Love,F,,28:51,5.0,4.0,2.0,8.0,8.0,5.0,7.0,22.0,0.0,0.0,2.0,1.0
0021500011,1610612739,CLE,Cleveland,202389,Timofey Mozgov,C,,25:04,97.2,94.1,3.1,0.0,0.0,0.0,0.043,0.13,0.087,19.2,0.5,0.533,0.2,87.09,0.056,2015-10-28T00:00:00,8,CLE,Cleveland,1-1,26,27,26,27,0,0,0,0,0,0,0,0,0,0,106,0.488,0.647,0.448,29,54,19,0021500011,1610612739,CLE,Cleveland,Timofey Mozgov,C,,25:04,3.0,3.0,0.0,8.0,7.0,2.0,7.0,24.0,0.0,1.0,2.0,4.0
0021500011,1610612739,CLE,Cleveland,2747,JR Smith,G,,33:51,110.6,84.8,25.8,0.292,7.0,38.9,0.077,0.152,0.119,5.6,0.45,0.45,0.153,92.97,0.13,2015-10-28T00:00:00,8,CLE,Cleveland,1-1,26,27,26,27,0,0,0,0,0,0,0,0,0,0,106,0.488,0.647,0.448,29,54,19,0021500011,1610612739,CLE,Cleveland,JR Smith,G,,33:51,0.0,0.0,3.0,2.0,10.0,4.0,5.0,28.0,0.0,0.0,2.0,0.0
0021500011,1610612739,CLE,Cleveland,2590,Mo Williams,G,,22:38,100.0,98.4,1.6,0.357,2.5,33.3,0.0,0.095,0.048,13.3,0.563,0.563,0.217,86.57,0.097,2015-10-28T00:00:00,8,CLE,Cleveland,1-1,26,27,26,27,0,0,0,0,0,0,0,0,0,0,106,0.488,0.647,0.448,29,54,19,0021500011,1610612739,CLE,Cleveland,Mo Williams,G,,22:38,0.0,3.0,0.0,0.0,6.0,3.0,7.0,22.0,0.0,1.0,1.0,0.0
0021500011,1610612739,CLE,Cleveland,2210,Richard Jefferson,,,18:20,117.1,68.5,48.6,0.0,0.0,0.0,0.0,0.107,0.073,23.7,1.083,1.087,0.191,103.0,0.242,2015-10-28T00:00:00,8,CLE,Cleveland,1-1,26,27,26,27,0,0,0,0,0,0,0,0,0,0,106,0.488,0.647,0.448,29,54,19,0021500011,1610612739,CLE,Cleveland,Richard Jefferson,,,18:20,0.0,2.0,3.0,4.0,7.0,3.0,4.0,6.0,0.0,0.0,3.0,1.0
0021500011,1610612739,CLE,Cleveland,202684,Tristan Thompson,,,19:59,96.3,53.1,43.2,0.077,0.5,17.0,0.167,0.185,0.178,34.0,1.0,0.868,0.096,104.34,0.282,2015-10-28T00:00:00,8,CLE,Cleveland,1-1,26,27,26,27,0,0,0,0,0,0,0,0,0,0,106,0.488,0.647,0.448,29,54,19,0021500011,1610612739,CLE,Cleveland,Tristan Thompson,,,19:59,1.0,2.0,1.0,4.0,6.0,1.0,1.0,6.0,0.0,0.0,4.0,2.0
0021500011,1610612739,CLE,Cleveland,203521,Matthew Dellavedova,,,17:59,117.9,50.6,67.2,0.231,0.0,25.0,0.0,0.04,0.026,0.0,0.667,0.667,0.193,104.42,0.407,2015-10-28T00:00:00,8,CLE,Cleveland,1-1,26,27,26,27,0,0,0,0,0,0,0,0,0,0,106,0.488,0.647,0.448,29,54,19,0021500011,1610612739,CLE,Cleveland,Matthew Dellavedova,,,17:59,7.0,0.0,4.0,6.0,3.0,2.0,1.0,6.0,0.0,1.0,2.0,2.0
0021500011,1610612739,CLE,Cleveland,2760,Anderson Varejao,,,10:52,119.8,61.5,58.3,0.182,2.0,22.2,0.222,0.25,0.238,11.1,0.333,0.333,0.242,107.43,0.091,2015-10-28T00:00:00,8,CLE,Cleveland,1-1,26,27,26,27,0,0,0,0,0,0,0,0,0,0,106,0.488,0.647,0.448,29,54,19,0021500011,1610612739,CLE,Cleveland,Anderson Varejao,,,10:52,0.0,0.0,0.0,4.0,2.0,2.0,1.0,4.0,0.0,0.0,2.0,1.0
0021500011,1610612739,CLE,Cleveland,203099,Jared Cunningham,,,15:09,109.4,75.8,33.6,0.091,1.0,11.4,0.0,0.053,0.033,11.4,0.9,0.888,0.206,110.76,0.198,2015-10-28T00:00:00,8,CLE,Cleveland,1-1,26,27,26,27,0,0,0,0,0,0,0,0,0,0,106,0.488,0.647,0.448,29,54,19,0021500011,1610612739,CLE,Cleveland,Jared Cunningham,,,15:09,2.0,0.0,4.0,6.0,3.0,5.0,0.0,12.0,1.0,0.0,2.0,2.0
0021500011,1610612739,CLE,Cleveland,201619,Sasha Kaun,,,5:59,115.3,96.6,18.6,0.167,1.0,50.0,0.2,0.0,0.1,50.0,0.0,0.0,0.067,117.93,-0.038,2015-10-28T00:00:00,8,CLE,Cleveland,1-1,26,27,26,27,0,0,0,0,0,0,0,0,0,0,106,0.488,0.647,0.448,29,54,19,0021500011,1610612739,CLE,Cleveland,Sasha Kaun,,,5:59,0.0,0.0,0.0,0.0,1.0,2.0,0.0,8.0,1.0,0.0,3.0,0.0
0021500011,1610612739,CLE,Cleveland,2592,James Jones,,,5:15,124.2,102.6,21.6,0.0,0.0,0.0,0.0,0.0,0.0,33.3,0.75,0.75,0.216,121.23,0.0,2015-10-28T00:00:00,8,CLE,Cleveland,1-1,26,27,26,27,0,0,0,0,0,0,0,0,0,0,106,0.488,0.647,0.448,29,54,19,0021500011,1610612739,CLE,Cleveland,James Jones,,,5:15,3.0,0.0,3.0,0.0,0.0,2.0,0.0,8.0,0.0,0.0,1.0,0.0
0021500011,1610612739,CLE,Cleveland,203925,Joe Harris,,,5:15,124.2,102.6,21.6,0.167,0.0,50.0,0.0,0.5,0.222,0.0,0.0,0.0,0.072,121.23,0.074,2015-10-28T00:00:00,8,CLE,Cleveland,1-1,26,27,26,27,0,0,0,0,0,0,0,0,0,0,106,0.488,0.647,0.448,29,54,19,0021500011,1610612739,CLE,Cleveland,Joe Harris,,,5:15,0.0,0.0,0.0,0.0,0.0,2.0,0.0,8.0,0.0,0.0,0.0,0.0
0021500011,1610612763,MEM,Memphis,201145,Jeff Green,F,,20:04,68.3,117.5,-49.2,0.286,0.0,16.8,0.0,0.059,0.023,0.0,0.389,0.405,0.238,96.11,-0.017,2015-10-28T00:00:00,8,MEM,Memphis,0-1,10,22,23,21,0,0,0,0,0,0,0,0,0,0,76,0.354,0.727,0.125,15,40,16,0021500011,1610612763,MEM,Memphis,Jeff Green,F,,20:04,2.0,0.0,1.0,2.0,6.0,7.0,17.0,20.0,0.0,0.0,5.0,1.0
0021500011,1610612763,MEM,Memphis,2216,Zach Randolph,F,,30:54,94.2,103.9,-9.7,0.0,0.0,0.0,0.091,0.2,0.138,13.6,0.455,0.47,0.233,88.57,0.086,2015-10-28T00:00:00,8,MEM,Memphis,0-1,10,22,23,21,0,0,0,0,0,0,0,0,0,0,76,0.354,0.727,0.125,15,40,16,0021500011,1610612763,MEM,Memphis,Zach Randolph,F,,30:54,3.0,3.0,0.0,8.0,5.0,12.0,10.0,24.0,0.0,0.0,1.0,4.0
0021500011,1610612763,MEM,Memphis,201188,Marc Gasol,C,,29:43,84.7,94.3,-9.7,0.0,0.0,0.0,0.0,0.185,0.091,7.7,0.5,0.5,0.215,90.23,0.081,2015-10-28T00:00:00,8,MEM,Memphis,0-1,10,22,23,21,0,0,0,0,0,0,0,0,0,0,76,0.354,0.727,0.125,15,40,16,0021500011,1610612763,MEM,Memphis,Marc Gasol,C,,29:43,0.0,0.0,0.0,8.0,10.0,10.0,10.0,20.0,0.0,0.0,3.0,2.0
0021500011,1610612763,MEM,Memphis,201584,Courtney Lee,G,,31:16,81.9,99.3,-17.4,0.118,0.0,16.8,0.0,0.063,0.03,0.0,0.278,0.354,0.153,89.65,0.08,2015-10-28T00:00:00,8,MEM,Memphis,0-1,10,22,23,21,0,0,0,0,0,0,0,0,0,0,76,0.354,0.727,0.125,15,40,16,0021500011,1610612763,MEM,Memphis,Courtney Lee,G,,31:16,2.0,0.0,5.0,0.0,8.0,14.0,15.0,26.0,1.0,0.0,0.0,1.0
0021500011,1610612763,MEM,Memphis,201144,Mike Conley,G,,29:26,86.8,116.5,-29.7,0.375,6.0,35.8,0.0,0.148,0.067,6.0,0.25,0.41,0.167,91.26,0.102,2015-10-28T00:00:00,8,MEM,Memphis,0-1,10,22,23,21,0,0,0,0,0,0,0,0,0,0,76,0.354,0.727,0.125,15,40,16,0021500011,1610612763,MEM,Memphis,Mike Conley,G,,29:26,0.0,0.0,2.0,2.0,8.0,11.0,11.0,30.0,0.0,0.0,1.0,5.0
0021500011,1610612763,MEM,Memphis,2754,Tony Allen,,,22:39,86.5,94.9,-8.4,0.154,1.0,20.0,0.158,0.211,0.184,20.0,0.5,0.5,0.168,93.33,0.152,2015-10-28T00:00:00,8,MEM,Memphis,0-1,10,22,23,21,0,0,0,0,0,0,0,0,0,0,76,0.354,0.727,0.125,15,40,16,0021500011,1610612763,MEM,Memphis,Tony Allen,,,22:39,2.0,0.0,0.0,6.0,12.0,5.0,4.0,20.0,1.0,0.0,1.0,1.0
0021500011,1610612763,MEM,Memphis,201148,Brandan Wright,,,16:41,70.5,125.4,-54.9,0.0,0.0,0.0,0.056,0.077,0.065,22.8,0.4,0.592,0.207,111.29,0.07,2015-10-28T00:00:00,8,MEM,Memphis,0-1,10,22,23,21,0,0,0,0,0,0,0,0,0,0,76,0.354,0.727,0.125,15,40,16,0021500011,1610612763,MEM,Memphis,Brandan Wright,,,16:41,0.0,2.0,0.0,4.0,16.0,2.0,12.0,24.0,1.0,0.0,1.0,2.0
0021500011,1610612763,MEM,Memphis,2440,Matt Barnes,,,17:30,53.5,120.8,-67.4,0.167,0.5,14.3,0.0,0.143,0.051,28.6,0.0,0.0,0.135,105.76,-0.161,2015-10-28T00:00:00,8,MEM,Memphis,0-1,10,22,23,21,0,0,0,0,0,0,0,0,0,0,76,0.354,0.727,0.125,15,40,16,0021500011,1610612763,MEM,Memphis,Matt Barnes,,,17:30,0.0,0.0,0.0,0.0,16.0,7.0,13.0,28.0,0.0,0.0,2.0,1.0
0021500011,1610612763,MEM,Memphis,2757,Beno Udrih,,,14:44,60.8,95.9,-35.1,0.333,0.5,17.5,0.0,0.0,0.0,35.0,0.4,0.46,0.266,112.27,-0.028,2015-10-28T00:00:00,8,MEM,Memphis,0-1,10,22,23,21,0,0,0,0,0,0,0,0,0,0,76,0.354,0.727,0.125,15,40,16,0021500011,1610612763,MEM,Memphis,Beno Udrih,,,14:44,0.0,0.0,0.0,2.0,12.0,0.0,15.0,16.0,0.0,0.0,1.0,4.0
0021500011,1610612763,MEM,Memphis,203210,JaMychal Green,,,14:00,64.8,117.3,-52.5,0.0,0.0,0.0,0.2,0.3,0.233,0.0,0.4,0.34,0.153,111.09,0.058,2015-10-28T00:00:00,8,MEM,Memphis,0-1,10,22,23,21,0,0,0,0,0,0,0,0,0,0,76,0.354,0.727,0.125,15,40,16,0021500011,1610612763,MEM,Memphis,JaMychal Green,,,14:00,0.0,2.0,0.0,2.0,12.0,2.0,13.0,20.0,0.0,0.0,2.0,2.0
0021500011,1610612763,MEM,Memphis,203919,Jordan Adams,,,7:04,91.8,101.4,-9.6,0.0,0.0,0.0,0.0,0.0,0.0,17.0,0.25,0.307,0.301,119.82,0.0,2015-10-28T00:00:00,8,MEM,Memphis,0-1,10,22,23,21,0,0,0,0,0,0,0,0,0,0,76,0.354,0.727,0.125,15,40,16,0021500011,1610612763,MEM,Memphis,Jordan Adams,,,7:04,3.0,0.0,0.0,0.0,5.0,0.0,5.0,6.0,0.0,0.0,0.0,1.0
0021500011,1610612763,MEM,Memphis,203893,Russ Smith,,,5:59,96.6,115.3,-18.6,0.0,0.0,0.0,0.0,0.4,0.2,18.4,0.25,0.338,0.329,117.93,0.038,2015-10-28T00:00:00,8,MEM,Memphis,0-1,10,22,23,21,0,0,0,0,0,0,0,0,0,0,76,0.354,0.727,0.125,15,40,16,0021500011,1610612763,MEM,Memphis,Russ Smith,,,5:59,0.0,0.0,0.0,2.0,5.0,0.0,5.0,6.0,0.0,2.0,1.0,1.0
0021500011,1610612763,MEM,Memphis,1713,Vince Carter,,DNP - Coach's Decision                  ,,,,,,,0.0,,,,,,,0.0,,,2015-10-28T00:00:00,8,MEM,Memphis,0-1,10,22,23,21,0,0,0,0,0,0,0,0,0,0,76,0.354,0.727,0.125,15,40,16,0021500011,1610612763,MEM,Memphis,Vince Carter,,DNP - Coach's Decision                  ,,,,,,,,,,,,,
