GAME_ID_x,TEAM_ID_x,TEAM_ABBREVIATION_x,TEAM_CITY_x,PLAYER_ID,PLAYER_NAME_x,START_POSITION_x,COMMENT_x,MIN_x,OFF_RATING,DEF_RATING,NET_RATING,AST_PCT,AST_TOV,AST_RATIO,OREB_PCT,DREB_PCT,REB_PCT,TM_TOV_PCT,EFG_PCT,TS_PCT,USG_PCT,PACE,PIE,GAME_DATE_EST,GAME_SEQUENCE,TEAM_ABBREVIATION_y,TEAM_CITY_NAME,TEAM_WINS_LOSSES,PTS_QTR1,PTS_QTR2,PTS_QTR3,PTS_QTR4,PTS_OT1,PTS_OT2,PTS_OT3,PTS_OT4,PTS_OT5,PTS_OT6,PTS_OT7,PTS_OT8,PTS_OT9,PTS_OT10,PTS,FG_PCT,FT_PCT,FG3_PCT,AST,REB,TOV,GAME_ID_y,TEAM_ID_y,TEAM_ABBREVIATION,TEAM_CITY_y,PLAYER_NAME_y,START_POSITION_y,COMMENT_y,MIN_y,PTS_OFF_TOV,PTS_2ND_CHANCE,PTS_FB,PTS_PAINT,OPP_PTS_OFF_TOV,OPP_PTS_2ND_CHANCE,OPP_PTS_FB,OPP_PTS_PAINT,BLK,BLKA,PF,PFD
0021500005,1610612755,PHI,Philadelphia,203138,Hollis Thompson,F,,36:04,88.0,103.3,-15.3,0.13,1.5,15.8,0.031,0.061,0.046,10.5,0.321,0.321,0.181,104.92,-0.038,2015-10-28T00:00:00,2,PHI,Philadelphia,0-1,26,14,27,28,0,0,0,0,0,0,0,0,0,0,95,0.41,0.87,0.318,12,46,22,0021500005,1610612755,PHI,Philadelphia,Hollis Thompson,F,,36:04,3.0,0.0,0.0,0.0,32.0,12.0,24.0,36.0,0.0,2.0,6.0,1.0
0021500005,1610612755,PHI,Philadelphia,203457,Nerlens Noel,F,,35:02,93.0,98.6,-5.6,0.1,0.67,9.5,0.077,0.345,0.191,14.2,0.385,0.435,0.216,103.03,0.112,2015-10-28T00:00:00,2,PHI,Philadelphia,0-1,26,14,27,28,0,0,0,0,0,0,0,0,0,0,95,0.41,0.87,0.318,12,46,22,0021500005,1610612755,PHI,Philadelphia,Nerlens Noel,F,,35:02,0.0,2.0,0.0,8.0,19.0,6.0,15.0,34.0,2.0,2.0,4.0,7.0
0021500005,1610612755,PHI,Philadelphia,1626143,Jahlil Okafor,C,,38:05,91.7,103.4,-11.7,0.053,0.13,3.6,0.129,0.088,0.108,28.9,0.625,0.697,0.286,106.6,0.121,2015-10-28T00:00:00,2,PHI,Philadelphia,0-1,26,14,27,28,0,0,0,0,0,0,0,0,0,0,95,0.41,0.87,0.318,12,46,22,0021500005,1610612755,PHI,Philadelphia,Jahlil Okafor,C,,38:05,8.0,6.0,2.0,20.0,27.0,12.0,26.0,44.0,2.0,0.0,4.0,6.0
0021500005,1610612755,PHI,Philadelphia,203960,JaKarr Sampson,G,,26:57,113.5,116.3,-2.8,0.0,0.0,0.0,0.0,0.154,0.093,22.5,0.556,0.63,0.21,100.03,0.093,2015-10-28T00:00:00,2,PHI,Philadelphia,0-1,26,14,27,28,0,0,0,0,0,0,0,0,0,0,95,0.41,0.87,0.318,12,46,22,0021500005,1610612755,PHI,Philadelphia,JaKarr Sampson,G,,26:57,3.0,0.0,3.0,10.0,18.0,10.0,14.0,28.0,0.0,0.0,1.0,2.0
0021500005,1610612755,PHI,Philadelphia,203477,Isaiah Canaan,G,,37:59,92.3,98.8,-6.6,0.095,0.67,10.1,0.026,0.182,0.097,15.1,0.571,0.605,0.189,102.53,0.129,2015-10-28T00:00:00,2,PHI,Philadelphia,0-1,26,14,27,28,0,0,0,0,0,0,0,0,0,0,95,0.41,0.87,0.318,12,46,22,0021500005,1610612755,PHI,Philadelphia,Isaiah Canaan,G,,37:59,2.0,4.0,0.0,4.0,20.0,6.0,17.0,38.0,0.0,1.0,0.0,2.0
0021500005,1610612755,PHI,Philadelphia,204456,T.J. McConnell,,,27:35,86.0,115.9,-29.9,0.25,1.33,33.3,0.042,0.0,0.021,25.0,0.4,0.4,0.12,107.64,0.021,2015-10-28T00:00:00,2,PHI,Philadelphia,0-1,26,14,27,28,0,0,0,0,0,0,0,0,0,0,95,0.41,0.87,0.318,12,46,22,0021500005,1610612755,PHI,Philadelphia,T.J. McConnell,,,27:35,2.0,0.0,2.0,4.0,21.0,14.0,18.0,36.0,1.0,0.0,4.0,1.0
0021500005,1610612755,PHI,Philadelphia,203924,Jerami Grant,,,26:37,81.6,116.3,-34.7,0.0,0.0,0.0,0.037,0.227,0.122,0.0,0.286,0.489,0.143,101.66,0.104,2015-10-28T00:00:00,2,PHI,Philadelphia,0-1,26,14,27,28,0,0,0,0,0,0,0,0,0,0,95,0.41,0.87,0.318,12,46,22,0021500005,1610612755,PHI,Philadelphia,Jerami Grant,,,26:37,0.0,0.0,0.0,4.0,22.0,10.0,13.0,32.0,0.0,1.0,2.0,4.0
0021500005,1610612755,PHI,Philadelphia,1626174,Christian Wood,,,5:36,67.8,132.7,-64.9,0.0,0.0,0.0,0.286,0.0,0.167,0.0,0.0,0.0,0.162,105.63,-0.049,2015-10-28T00:00:00,2,PHI,Philadelphia,0-1,26,14,27,28,0,0,0,0,0,0,0,0,0,0,95,0.41,0.87,0.318,12,46,22,0021500005,1610612755,PHI,Philadelphia,Christian Wood,,,5:36,0.0,0.0,0.0,0.0,7.0,6.0,3.0,8.0,0.0,1.0,0.0,0.0
0021500005,1610612755,PHI,Philadelphia,1626158,Richaun Holmes,,,6:05,117.6,134.7,-17.0,0.0,0.0,0.0,0.111,0.4,0.214,0.0,0.333,0.333,0.197,87.13,0.091,2015-10-28T00:00:00,2,PHI,Philadelphia,0-1,26,14,27,28,0,0,0,0,0,0,0,0,0,0,95,0.41,0.87,0.318,12,46,22,0021500005,1610612755,PHI,Philadelphia,Richaun Holmes,,,6:05,0.0,2.0,0.0,2.0,4.0,4.0,0.0,4.0,1.0,0.0,1.0,0.0
0021500005,1610612755,PHI,Philadelphia,203496,Robert Covington,,DND - RT Knee Sprain                    ,,,,,,,0.0,,,,,,,0.0,,,2015-10-28T00:00:00,2,PHI,Philadelphia,0-1,26,14,27,28,0,0,0,0,0,0,0,0,0,0,95,0.41,0.87,0.318,12,46,22,0021500005,1610612755,PHI,Philadelphia,Robert Covington,,DND - RT Knee Sprain                    ,,,,,,,,,,,,,
0021500005,1610612755,PHI,Philadelphia,203088,Kendall Marshall,,DND - Coach's Decision                  ,,,,,,,0.0,,,,,,,0.0,,,2015-10-28T00:00:00,2,PHI,Philadelphia,0-1,26,14,27,28,0,0,0,0,0,0,0,0,0,0,95,0.41,0.87,0.318,12,46,22,0021500005,1610612755,PHI,Philadelphia,Kendall Marshall,,DND - Coach's Decision                  ,,,,,,,,,,,,,
0021500005,1610612755,PHI,Philadelphia,203917,Nik Stauskas,,DNP - Coach's Decision                  ,,,,,,,0.0,,,,,,,0.0,,,2015-10-28T00:00:00,2,PHI,Philadelphia,0-1,26,14,27,28,0,0,0,0,0,0,0,0,0,0,95,0.41,0.87,0.318,12,46,22,0021500005,1610612755,PHI,Philadelphia,Nik Stauskas,,DNP - Coach's Decision                  ,,,,,,,,,,,,,
0021500005,1610612738,BOS,Boston,203109,Jae Crowder,F,,31:12,106.2,106.0,0.2,0.15,1.0,20.3,0.069,0.133,0.102,20.3,0.714,0.799,0.166,101.51,0.129,2015-10-28T00:00:00,2,BOS,Boston,1-0,21,30,28,33,0,0,0,0,0,0,0,0,0,0,112,0.459,0.963,0.333,31,41,17,0021500005,1610612738,BOS,Boston,Jae Crowder,F,,31:12,4.0,0.0,4.0,4.0,13.0,12.0,2.0,42.0,0.0,0.0,3.0,3.0
0021500005,1610612738,BOS,Boston,101135,David Lee,F,,21:57,97.0,104.3,-7.4,0.357,2.5,29.8,0.048,0.16,0.109,11.9,0.25,0.41,0.233,102.08,0.089,2015-10-28T00:00:00,2,BOS,Boston,1-0,21,30,28,33,0,0,0,0,0,0,0,0,0,0,112,0.459,0.963,0.333,31,41,17,0021500005,1610612738,BOS,Boston,David Lee,F,,21:57,2.0,4.0,0.0,4.0,7.0,10.0,0.0,28.0,1.0,3.0,3.0,2.0
0021500005,1610612738,BOS,Boston,203092,Tyler Zeller,C,,10:39,111.5,135.9,-24.3,0.0,0.0,0.0,0.0,0.1,0.056,17.0,0.5,0.615,0.24,98.25,0.034,2015-10-28T00:00:00,2,BOS,Boston,1-0,21,30,28,33,0,0,0,0,0,0,0,0,0,0,112,0.459,0.963,0.333,31,41,17,0021500005,1610612738,BOS,Boston,Tyler Zeller,C,,10:39,0.0,0.0,2.0,2.0,6.0,4.0,0.0,20.0,1.0,0.0,3.0,1.0
0021500005,1610612738,BOS,Boston,202340,Avery Bradley,G,,32:36,110.3,109.3,1.1,0.083,1.0,20.0,0.0,0.038,0.018,20.0,0.333,0.333,0.103,103.27,0.008,2015-10-28T00:00:00,2,BOS,Boston,1-0,21,30,28,33,0,0,0,0,0,0,0,0,0,0,112,0.459,0.963,0.333,31,41,17,0021500005,1610612738,BOS,Boston,Avery Bradley,G,,32:36,4.0,0.0,4.0,4.0,16.0,8.0,5.0,44.0,0.0,0.0,2.0,0.0
0021500005,1610612738,BOS,Boston,203935,Marcus Smart,G,,32:23,109.3,80.3,29.0,0.208,5.0,31.7,0.0,0.067,0.034,6.3,0.563,0.666,0.139,104.57,0.134,2015-10-28T00:00:00,2,BOS,Boston,1-0,21,30,28,33,0,0,0,0,0,0,0,0,0,0,112,0.459,0.963,0.333,31,41,17,0021500005,1610612738,BOS,Boston,Marcus Smart,G,,32:23,5.0,0.0,3.0,0.0,9.0,10.0,2.0,28.0,1.0,1.0,3.0,4.0
0021500005,1610612738,BOS,Boston,203096,Jared Sullinger,,,21:03,92.2,85.6,6.6,0.182,2.0,18.2,0.0,0.333,0.175,9.1,0.75,0.75,0.185,103.79,0.241,2015-10-28T00:00:00,2,BOS,Boston,1-0,21,30,28,33,0,0,0,0,0,0,0,0,0,0,112,0.459,0.963,0.333,31,41,17,0021500005,1610612738,BOS,Boston,Jared Sullinger,,,21:03,8.0,2.0,4.0,8.0,9.0,8.0,4.0,18.0,1.0,0.0,3.0,2.0
0021500005,1610612738,BOS,Boston,202738,Isaiah Thomas,,,29:09,106.8,82.9,23.9,0.467,2.33,21.8,0.04,0.04,0.04,9.4,0.553,0.611,0.351,106.37,0.241,2015-10-28T00:00:00,2,BOS,Boston,1-0,21,30,28,33,0,0,0,0,0,0,0,0,0,0,112,0.459,0.963,0.333,31,41,17,0021500005,1610612738,BOS,Boston,Isaiah Thomas,,,29:09,7.0,3.0,7.0,18.0,11.0,6.0,7.0,26.0,0.0,1.0,1.0,4.0
0021500005,1610612738,BOS,Boston,202323,Evan Turner,,,22:01,106.3,65.9,40.4,0.118,0.67,18.4,0.059,0.12,0.095,27.6,0.4,0.51,0.168,103.95,0.085,2015-10-28T00:00:00,2,BOS,Boston,1-0,21,30,28,33,0,0,0,0,0,0,0,0,0,0,112,0.459,0.963,0.333,31,41,17,0021500005,1610612738,BOS,Boston,Evan Turner,,,22:01,0.0,0.0,2.0,0.0,5.0,6.0,5.0,16.0,0.0,0.0,0.0,1.0
0021500005,1610612738,BOS,Boston,101161,Amir Johnson,,,20:02,112.7,76.6,36.1,0.1,1.0,7.2,0.176,0.286,0.226,7.2,0.591,0.631,0.26,103.68,0.216,2015-10-28T00:00:00,2,BOS,Boston,1-0,21,30,28,33,0,0,0,0,0,0,0,0,0,0,112,0.459,0.963,0.333,31,41,17,0021500005,1610612738,BOS,Boston,Amir Johnson,,,20:02,4.0,5.0,0.0,10.0,9.0,2.0,5.0,20.0,2.0,0.0,3.0,2.0
0021500005,1610612738,BOS,Boston,201973,Jonas Jerebko,,,15:02,111.5,70.4,41.1,0.25,0.0,30.0,0.0,0.2,0.111,0.0,0.357,0.357,0.194,108.84,0.113,2015-10-28T00:00:00,2,BOS,Boston,1-0,21,30,28,33,0,0,0,0,0,0,0,0,0,0,112,0.459,0.963,0.333,31,41,17,0021500005,1610612738,BOS,Boston,Jonas Jerebko,,,15:02,0.0,0.0,0.0,2.0,5.0,4.0,5.0,10.0,1.0,1.0,1.0,2.0
0021500005,1610612738,BOS,Boston,1626179,Terry Rozier,,,1:58,243.1,162.0,81.0,0.0,0.0,0.0,0.5,0.0,0.25,0.0,0.0,0.0,0.41,87.86,-0.13,2015-10-28T00:00:00,2,BOS,Boston,1-0,21,30,28,33,0,0,0,0,0,0,0,0,0,0,112,0.459,0.963,0.333,31,41,17,0021500005,1610612738,BOS,Boston,Terry Rozier,,,1:58,0.0,0.0,0.0,0.0,0.0,0.0,0.0,4.0,0.0,0.0,0.0,0.0
0021500005,1610612738,BOS,Boston,1626175,Jordan Mickey,,,1:58,243.1,162.0,81.0,0.5,0.0,53.2,0.5,0.5,0.5,0.0,0.0,1.136,0.18,87.86,0.304,2015-10-28T00:00:00,2,BOS,Boston,1-0,21,30,28,33,0,0,0,0,0,0,0,0,0,0,112,0.459,0.963,0.333,31,41,17,0021500005,1610612738,BOS,Boston,Jordan Mickey,,,1:58,0.0,2.0,0.0,0.0,0.0,0.0,0.0,4.0,0.0,0.0,1.0,1.0
0021500005,1610612738,BOS,Boston,203482,Kelly Olynyk,,DND - Suspended                         ,,,,,,,0.0,,,,,,,0.0,,,2015-10-28T00:00:00,2,BOS,Boston,1-0,21,30,28,33,0,0,0,0,0,0,0,0,0,0,112,0.459,0.963,0.333,31,41,17,0021500005,1610612738,BOS,Boston,Kelly Olynyk,,DND - Suspended                         ,,,,,,,,,,,,,
