GAME_ID_x,TEAM_ID_x,TEAM_ABBREVIATION_x,TEAM_CITY_x,PLAYER_ID,PLAYER_NAME_x,START_POSITION_x,COMMENT_x,MIN_x,OFF_RATING,DEF_RATING,NET_RATING,AST_PCT,AST_TOV,AST_RATIO,OREB_PCT,DREB_PCT,REB_PCT,TM_TOV_PCT,EFG_PCT,TS_PCT,USG_PCT,PACE,PIE,GAME_DATE_EST,GAME_SEQUENCE,TEAM_ABBREVIATION_y,TEAM_CITY_NAME,TEAM_WINS_LOSSES,PTS_QTR1,PTS_QTR2,PTS_QTR3,PTS_QTR4,PTS_OT1,PTS_OT2,PTS_OT3,PTS_OT4,PTS_OT5,PTS_OT6,PTS_OT7,PTS_OT8,PTS_OT9,PTS_OT10,PTS,FG_PCT,FT_PCT,FG3_PCT,AST,REB,TOV,GAME_ID_y,TEAM_ID_y,TEAM_ABBREVIATION,TEAM_CITY_y,PLAYER_NAME_y,START_POSITION_y,COMMENT_y,MIN_y,PTS_OFF_TOV,PTS_2ND_CHANCE,PTS_FB,PTS_PAINT,OPP_PTS_OFF_TOV,OPP_PTS_2ND_CHANCE,OPP_PTS_FB,OPP_PTS_PAINT,BLK,BLKA,PF,PFD
0021500030,1610612744,GSW,Golden State,203084,Harrison Barnes,F,,26:28,117.3,94.2,23.1,0.105,0.0,15.5,0.0,0.217,0.106,0.0,0.5,0.551,0.185,96.99,0.137,2015-10-30T00:00:00,10,GSW,Golden State,2-0,30,27,24,31,0,0,0,0,0,0,0,0,0,0,112,0.462,0.68,0.346,26,47,8,0021500030,1610612744,GSW,Golden State,Harrison Barnes,F,,26:28,2.0,0.0,0.0,6.0,3.0,7.0,9.0,20.0,0.0,0.0,2.0,2.0
0021500030,1610612744,GSW,Golden State,203110,Draymond Green,F,,31:14,104.4,83.3,21.1,0.292,7.0,39.4,0.029,0.2,0.109,5.6,0.438,0.461,0.145,103.95,0.149,2015-10-30T00:00:00,10,GSW,Golden State,2-0,30,27,24,31,0,0,0,0,0,0,0,0,0,0,112,0.462,0.68,0.346,26,47,8,0021500030,1610612744,GSW,Golden State,Draymond Green,F,,31:14,2.0,3.0,0.0,4.0,7.0,8.0,7.0,22.0,1.0,3.0,2.0,6.0
0021500030,1610612744,GSW,Golden State,203105,Festus Ezeli,C,,24:42,105.2,79.7,25.5,0.059,0.5,7.3,0.12,0.182,0.149,14.5,0.444,0.418,0.223,99.54,0.059,2015-10-30T00:00:00,10,GSW,Golden State,2-0,30,27,24,31,0,0,0,0,0,0,0,0,0,0,112,0.462,0.68,0.346,26,47,8,0021500030,1610612744,GSW,Golden State,Festus Ezeli,C,,24:42,1.0,0.0,1.0,8.0,7.0,4.0,7.0,14.0,2.0,2.0,2.0,2.0
0021500030,1610612744,GSW,Golden State,202691,Klay Thompson,G,,24:03,99.0,89.6,9.5,0.0,0.0,0.0,0.0,0.087,0.042,15.5,0.45,0.506,0.228,104.66,0.038,2015-10-30T00:00:00,10,GSW,Golden State,2-0,30,27,24,31,0,0,0,0,0,0,0,0,0,0,112,0.462,0.68,0.346,26,47,8,0021500030,1610612744,GSW,Golden State,Klay Thompson,G,,24:03,2.0,0.0,4.0,4.0,5.0,0.0,7.0,14.0,0.0,0.0,3.0,1.0
0021500030,1610612744,GSW,Golden State,201939,Stephen Curry,G,,27:24,109.9,90.8,19.1,0.375,6.0,25.3,0.0,0.25,0.127,4.2,0.733,0.746,0.277,102.94,0.28,2015-10-30T00:00:00,10,GSW,Golden State,2-0,30,27,24,31,0,0,0,0,0,0,0,0,0,0,112,0.462,0.68,0.346,26,47,8,0021500030,1610612744,GSW,Golden State,Stephen Curry,G,,27:24,7.0,2.0,10.0,10.0,7.0,8.0,7.0,24.0,0.0,0.0,4.0,2.0
0021500030,1610612744,GSW,Golden State,2738,Andre Iguodala,,,29:47,116.2,74.4,41.8,0.2,0.0,30.8,0.094,0.086,0.09,0.0,0.667,0.667,0.13,99.44,0.2,2015-10-30T00:00:00,10,GSW,Golden State,2-0,30,27,24,31,0,0,0,0,0,0,0,0,0,0,112,0.462,0.68,0.346,26,47,8,0021500030,1610612744,GSW,Golden State,Andre Iguodala,,,29:47,5.0,2.0,2.0,6.0,4.0,13.0,2.0,26.0,0.0,0.0,0.0,2.0
0021500030,1610612744,GSW,Golden State,2733,Shaun Livingston,,,19:59,116.6,80.2,36.4,0.0,0.0,0.0,0.0,0.053,0.024,0.0,0.0,0.385,0.114,97.28,0.017,2015-10-30T00:00:00,10,GSW,Golden State,2-0,30,27,24,31,0,0,0,0,0,0,0,0,0,0,112,0.462,0.68,0.346,26,47,8,0021500030,1610612744,GSW,Golden State,Shaun Livingston,,,19:59,0.0,0.0,0.0,0.0,2.0,9.0,2.0,18.0,0.0,1.0,0.0,2.0
0021500030,1610612744,GSW,Golden State,201578,Marreese Speights,,,12:40,141.2,92.4,48.7,0.143,0.0,7.8,0.222,0.125,0.16,0.0,0.545,0.589,0.439,94.81,0.219,2015-10-30T00:00:00,10,GSW,Golden State,2-0,30,27,24,31,0,0,0,0,0,0,0,0,0,0,112,0.462,0.68,0.346,26,47,8,0021500030,1610612744,GSW,Golden State,Marreese Speights,,,12:40,0.0,4.0,0.0,8.0,0.0,9.0,2.0,16.0,1.0,0.0,3.0,2.0
0021500030,1610612744,GSW,Golden State,2571,Leandro Barbosa,,,19:23,125.8,85.3,40.5,0.111,2.0,22.2,0.0,0.091,0.053,11.1,0.417,0.417,0.159,99.05,0.059,2015-10-30T00:00:00,10,GSW,Golden State,2-0,30,27,24,31,0,0,0,0,0,0,0,0,0,0,112,0.462,0.68,0.346,26,47,8,0021500030,1610612744,GSW,Golden State,Leandro Barbosa,,,19:23,0.0,0.0,0.0,0.0,2.0,13.0,6.0,20.0,0.0,0.0,3.0,0.0
0021500030,1610612744,GSW,Golden State,201574,Jason Thompson,,,6:26,95.2,116.0,-20.8,0.0,0.0,0.0,0.143,0.25,0.2,0.0,0.667,0.667,0.169,116.69,0.164,2015-10-30T00:00:00,10,GSW,Golden State,2-0,30,27,24,31,0,0,0,0,0,0,0,0,0,0,112,0.462,0.68,0.346,26,47,8,0021500030,1610612744,GSW,Golden State,Jason Thompson,,,6:26,0.0,2.0,0.0,2.0,2.0,2.0,4.0,10.0,0.0,1.0,1.0,0.0
0021500030,1610612744,GSW,Golden State,203949,James Michael McAdoo,,,7:24,94.8,127.4,-32.6,0.167,1.0,20.5,0.0,0.2,0.077,20.5,0.5,0.521,0.217,115.85,-0.029,2015-10-30T00:00:00,10,GSW,Golden State,2-0,30,27,24,31,0,0,0,0,0,0,0,0,0,0,112,0.462,0.68,0.346,26,47,8,0021500030,1610612744,GSW,Golden State,James Michael McAdoo,,,7:24,0.0,0.0,0.0,0.0,2.0,4.0,4.0,10.0,0.0,0.0,3.0,1.0
0021500030,1610612744,GSW,Golden State,201575,Brandon Rush,,,5:54,101.7,110.2,-8.4,0.0,0.0,0.0,0.143,0.2,0.167,0.0,0.25,0.25,0.254,115.04,0.02,2015-10-30T00:00:00,10,GSW,Golden State,2-0,30,27,24,31,0,0,0,0,0,0,0,0,0,0,112,0.462,0.68,0.346,26,47,8,0021500030,1610612744,GSW,Golden State,Brandon Rush,,,5:54,0.0,0.0,0.0,2.0,2.0,4.0,4.0,8.0,0.0,1.0,0.0,0.0
0021500030,1610612744,GSW,Golden State,203546,Ian Clark,,,4:36,101.1,138.9,-37.8,0.5,0.0,40.0,0.0,0.0,0.0,0.0,0.333,0.333,0.253,116.87,0.042,2015-10-30T00:00:00,10,GSW,Golden State,2-0,30,27,24,31,0,0,0,0,0,0,0,0,0,0,112,0.462,0.68,0.346,26,47,8,0021500030,1610612744,GSW,Golden State,Ian Clark,,,4:36,0.0,0.0,0.0,0.0,2.0,4.0,4.0,8.0,0.0,1.0,1.0,0.0
0021500030,1610612745,HOU,Houston,2772,Trevor Ariza,F,,29:41,82.2,107.9,-25.6,0.083,1.0,8.1,0.033,0.125,0.081,8.1,0.444,0.533,0.166,102.1,0.088,2015-10-30T00:00:00,10,HOU,Houston,0-2,29,15,21,27,0,0,0,0,0,0,0,0,0,0,92,0.366,0.75,0.217,19,49,16,0021500030,1610612745,HOU,Houston,Trevor Ariza,F,,29:41,0.0,0.0,0.0,2.0,15.0,7.0,15.0,26.0,0.0,0.0,1.0,1.0
0021500030,1610612745,HOU,Houston,203093,Terrence Jones,F,,18:09,92.3,105.5,-13.2,0.125,0.0,12.5,0.059,0.188,0.121,0.0,0.286,0.286,0.163,101.55,0.069,2015-10-30T00:00:00,10,HOU,Houston,0-2,29,15,21,27,0,0,0,0,0,0,0,0,0,0,92,0.366,0.75,0.217,19,49,16,0021500030,1610612745,HOU,Houston,Terrence Jones,F,,18:09,0.0,0.0,0.0,2.0,6.0,6.0,6.0,22.0,1.0,0.0,0.0,1.0
0021500030,1610612745,HOU,Houston,2730,Dwight Howard,C,,21:49,78.1,119.9,-41.8,0.333,0.5,11.2,0.182,0.158,0.171,22.4,0.364,0.379,0.313,96.06,0.008,2015-10-30T00:00:00,10,HOU,Houston,0-2,29,15,21,27,0,0,0,0,0,0,0,0,0,0,92,0.366,0.75,0.217,19,49,16,0021500030,1610612745,HOU,Houston,Dwight Howard,C,,21:49,2.0,0.0,0.0,8.0,8.0,7.0,6.0,24.0,1.0,1.0,5.0,2.0
0021500030,1610612745,HOU,Houston,201935,James Harden,G,,37:00,78.6,107.6,-29.0,0.333,1.25,16.4,0.05,0.125,0.088,13.1,0.25,0.372,0.287,101.79,0.065,2015-10-30T00:00:00,10,HOU,Houston,0-2,29,15,21,27,0,0,0,0,0,0,0,0,0,0,92,0.366,0.75,0.217,19,49,16,0021500030,1610612745,HOU,Houston,James Harden,G,,37:00,1.0,2.0,3.0,2.0,17.0,11.0,17.0,40.0,1.0,1.0,2.0,6.0
0021500030,1610612745,HOU,Houston,201951,Ty Lawson,G,,35:31,96.0,114.1,-18.1,0.238,2.5,26.4,0.0,0.121,0.058,10.5,0.313,0.46,0.158,102.42,0.061,2015-10-30T00:00:00,10,HOU,Houston,0-2,29,15,21,27,0,0,0,0,0,0,0,0,0,0,92,0.366,0.75,0.217,19,49,16,0021500030,1610612745,HOU,Houston,Ty Lawson,G,,35:31,0.0,0.0,6.0,2.0,17.0,12.0,17.0,42.0,1.0,1.0,2.0,5.0
0021500030,1610612745,HOU,Houston,203991,Clint Capela,,,17:45,95.8,95.7,0.1,0.091,0.5,13.4,0.063,0.333,0.216,26.9,0.75,0.788,0.155,105.95,0.19,2015-10-30T00:00:00,10,HOU,Houston,0-2,29,15,21,27,0,0,0,0,0,0,0,0,0,0,92,0.366,0.75,0.217,19,49,16,0021500030,1610612745,HOU,Houston,Clint Capela,,,17:45,2.0,2.0,0.0,6.0,9.0,4.0,9.0,14.0,2.0,0.0,2.0,1.0
0021500030,1610612745,HOU,Houston,1626149,Montrezl Harrell,,,21:10,98.4,126.2,-27.8,0.0,0.0,0.0,0.05,0.111,0.079,0.0,0.778,0.759,0.221,102.14,0.179,2015-10-30T00:00:00,10,HOU,Houston,0-2,29,15,21,27,0,0,0,0,0,0,0,0,0,0,92,0.366,0.75,0.217,19,49,16,0021500030,1610612745,HOU,Houston,Montrezl Harrell,,,21:10,4.0,4.0,2.0,14.0,8.0,4.0,9.0,24.0,1.0,0.0,1.0,3.0
0021500030,1610612745,HOU,Houston,201976,Patrick Beverley,,,20:54,88.5,117.4,-28.9,0.143,2.0,22.2,0.053,0.15,0.103,11.1,0.333,0.333,0.149,98.25,-0.007,2015-10-30T00:00:00,10,HOU,Houston,0-2,29,15,21,27,0,0,0,0,0,0,0,0,0,0,92,0.366,0.75,0.217,19,49,16,0021500030,1610612745,HOU,Houston,Patrick Beverley,,,20:54,0.0,2.0,0.0,4.0,4.0,3.0,2.0,20.0,0.0,0.0,5.0,0.0
0021500030,1610612745,HOU,Houston,201147,Corey Brewer,,,29:01,84.8,109.1,-24.3,0.125,1.0,14.8,0.031,0.121,0.077,14.8,0.417,0.578,0.159,101.97,0.093,2015-10-30T00:00:00,10,HOU,Houston,0-2,29,15,21,27,0,0,0,0,0,0,0,0,0,0,92,0.366,0.75,0.217,19,49,16,0021500030,1610612745,HOU,Houston,Corey Brewer,,,29:01,0.0,7.0,2.0,0.0,11.0,11.0,4.0,30.0,1.0,1.0,1.0,5.0
0021500030,1610612745,HOU,Houston,203909,KJ McDaniels,,,4:30,131.6,101.1,30.5,0.0,0.0,0.0,0.0,0.25,0.125,0.0,0.25,0.25,0.344,114.77,-0.022,2015-10-30T00:00:00,10,HOU,Houston,0-2,29,15,21,27,0,0,0,0,0,0,0,0,0,0,92,0.366,0.75,0.217,19,49,16,0021500030,1610612745,HOU,Houston,KJ McDaniels,,,4:30,0.0,0.0,0.0,2.0,0.0,0.0,0.0,4.0,1.0,0.0,1.0,0.0
0021500030,1610612745,HOU,Houston,1626155,Sam Dekker,,,4:30,131.6,101.1,30.5,0.0,0.0,0.0,0.0,0.25,0.125,0.0,0.0,0.0,0.0,114.77,0.087,2015-10-30T00:00:00,10,HOU,Houston,0-2,29,15,21,27,0,0,0,0,0,0,0,0,0,0,92,0.366,0.75,0.217,19,49,16,0021500030,1610612745,HOU,Houston,Sam Dekker,,,4:30,0.0,0.0,0.0,0.0,0.0,0.0,0.0,4.0,0.0,0.0,0.0,0.0
0021500030,1610612745,HOU,Houston,1891,Jason Terry,,DNP - Coach's Decision                  ,,,,,,,0.0,,,,,,,0.0,,,2015-10-30T00:00:00,10,HOU,Houston,0-2,29,15,21,27,0,0,0,0,0,0,0,0,0,0,92,0.366,0.75,0.217,19,49,16,0021500030,1610612745,HOU,Houston,Jason Terry,,DNP - Coach's Decision                  ,,,,,,,,,,,,,
0021500030,1610612745,HOU,Houston,201977,Marcus Thornton,,DNP - Coach's Decision                  ,,,,,,,0.0,,,,,,,0.0,,,2015-10-30T00:00:00,10,HOU,Houston,0-2,29,15,21,27,0,0,0,0,0,0,0,0,0,0,92,0.366,0.75,0.217,19,49,16,0021500030,1610612745,HOU,Houston,Marcus Thornton,,DNP - Coach's Decision                  ,,,,,,,,,,,,,
