GAME_ID_x,TEAM_ID_x,TEAM_ABBREVIATION_x,TEAM_CITY_x,PLAYER_ID,PLAYER_NAME_x,START_POSITION_x,COMMENT_x,MIN_x,OFF_RATING,DEF_RATING,NET_RATING,AST_PCT,AST_TOV,AST_RATIO,OREB_PCT,DREB_PCT,REB_PCT,TM_TOV_PCT,EFG_PCT,TS_PCT,USG_PCT,PACE,PIE,GAME_DATE_EST,GAME_SEQUENCE,TEAM_ABBREVIATION_y,TEAM_CITY_NAME,TEAM_WINS_LOSSES,PTS_QTR1,PTS_QTR2,PTS_QTR3,PTS_QTR4,PTS_OT1,PTS_OT2,PTS_OT3,PTS_OT4,PTS_OT5,PTS_OT6,PTS_OT7,PTS_OT8,PTS_OT9,PTS_OT10,PTS,FG_PCT,FT_PCT,FG3_PCT,AST,REB,TOV,GAME_ID_y,TEAM_ID_y,TEAM_ABBREVIATION,TEAM_CITY_y,PLAYER_NAME_y,START_POSITION_y,COMMENT_y,MIN_y,PTS_OFF_TOV,PTS_2ND_CHANCE,PTS_FB,PTS_PAINT,OPP_PTS_OFF_TOV,OPP_PTS_2ND_CHANCE,OPP_PTS_FB,OPP_PTS_PAINT,BLK,BLKA,PF,PFD
0021500032,1610612757,POR,Portland,202329,Al-Farouq Aminu,F,,31:32,90.9,105.7,-14.7,0.0,0.0,0.0,0.083,0.219,0.147,34.9,0.667,0.714,0.219,109.87,0.086,2015-10-30T00:00:00,12,POR,Portland,1-1,23,26,20,23,0,0,0,0,0,0,0,0,0,0,92,0.395,0.789,0.375,17,42,23,0021500032,1610612757,POR,Portland,Al-Farouq Aminu,F,,31:32,2.0,2.0,6.0,6.0,23.0,11.0,10.0,40.0,2.0,1.0,5.0,3.0
0021500032,1610612757,POR,Portland,203086,Meyers Leonard,F,,17:33,84.8,116.8,-32.0,0.182,1.0,22.2,0.0,0.231,0.094,22.2,0.0,0.0,0.166,109.8,-0.113,2015-10-30T00:00:00,12,POR,Portland,1-1,23,26,20,23,0,0,0,0,0,0,0,0,0,0,92,0.395,0.789,0.375,17,42,23,0021500032,1610612757,POR,Portland,Meyers Leonard,F,,17:33,0.0,0.0,0.0,0.0,15.0,5.0,10.0,18.0,0.0,0.0,5.0,1.0
0021500032,1610612757,POR,Portland,203486,Mason Plumlee,C,,25:36,90.6,112.9,-22.4,0.083,1.0,6.3,0.111,0.08,0.096,6.3,0.538,0.54,0.238,109.4,0.118,2015-10-30T00:00:00,12,POR,Portland,1-1,23,26,20,23,0,0,0,0,0,0,0,0,0,0,92,0.395,0.789,0.375,17,42,23,0021500032,1610612757,POR,Portland,Mason Plumlee,C,,25:36,7.0,5.0,2.0,12.0,23.0,11.0,14.0,32.0,0.0,2.0,4.0,3.0
0021500032,1610612757,POR,Portland,203468,CJ McCollum,G,,33:18,81.2,101.1,-20.0,0.2,1.5,11.1,0.022,0.115,0.056,7.4,0.364,0.364,0.282,111.89,0.035,2015-10-30T00:00:00,12,POR,Portland,1-1,23,26,20,23,0,0,0,0,0,0,0,0,0,0,92,0.395,0.789,0.375,17,42,23,0021500032,1610612757,POR,Portland,CJ McCollum,G,,33:18,5.0,0.0,7.0,4.0,23.0,9.0,16.0,42.0,0.0,2.0,4.0,1.0
0021500032,1610612757,POR,Portland,203081,Damian Lillard,G,,36:50,87.8,102.2,-14.4,0.3,0.86,16.6,0.0,0.083,0.041,19.4,0.425,0.52,0.334,110.19,0.076,2015-10-30T00:00:00,12,POR,Portland,1-1,23,26,20,23,0,0,0,0,0,0,0,0,0,0,92,0.395,0.789,0.375,17,42,23,0021500032,1610612757,POR,Portland,Damian Lillard,G,,36:50,2.0,3.0,0.0,6.0,29.0,15.0,16.0,46.0,0.0,1.0,4.0,6.0
0021500032,1610612757,POR,Portland,203459,Allen Crabbe,,,22:56,84.3,102.5,-18.2,0.063,1.0,20.0,0.0,0.15,0.062,20.0,0.0,0.0,0.073,101.97,0.0,2015-10-30T00:00:00,12,POR,Portland,1-1,23,26,20,23,0,0,0,0,0,0,0,0,0,0,92,0.395,0.789,0.375,17,42,23,0021500032,1610612757,POR,Portland,Allen Crabbe,,,22:56,0.0,0.0,0.0,0.0,10.0,6.0,10.0,26.0,0.0,0.0,3.0,0.0
0021500032,1610612757,POR,Portland,202334,Ed Davis,,,19:42,83.2,87.0,-3.8,0.083,0.5,13.7,0.04,0.063,0.049,27.3,0.667,0.579,0.131,105.89,0.019,2015-10-30T00:00:00,12,POR,Portland,1-1,23,26,20,23,0,0,0,0,0,0,0,0,0,0,92,0.395,0.789,0.375,17,42,23,0021500032,1610612757,POR,Portland,Ed Davis,,,19:42,0.0,0.0,0.0,4.0,6.0,4.0,4.0,24.0,1.0,0.0,2.0,2.0
0021500032,1610612757,POR,Portland,203090,Maurice Harkless,,,24:01,87.6,80.9,6.7,0.067,1.0,12.5,0.033,0.19,0.098,12.5,0.75,0.75,0.118,109.28,0.138,2015-10-30T00:00:00,12,POR,Portland,1-1,23,26,20,23,0,0,0,0,0,0,0,0,0,0,92,0.395,0.789,0.375,17,42,23,0021500032,1610612757,POR,Portland,Maurice Harkless,,,24:01,4.0,2.0,2.0,6.0,6.0,8.0,4.0,32.0,1.0,0.0,3.0,0.0
0021500032,1610612757,POR,Portland,203943,Noah Vonleh,,,21:02,89.1,92.6,-3.5,0.067,0.0,33.3,0.1,0.222,0.158,0.0,0.5,0.5,0.042,101.72,0.107,2015-10-30T00:00:00,12,POR,Portland,1-1,23,26,20,23,0,0,0,0,0,0,0,0,0,0,92,0.395,0.789,0.375,17,42,23,0021500032,1610612757,POR,Portland,Noah Vonleh,,,21:02,0.0,2.0,0.0,2.0,10.0,6.0,6.0,24.0,1.0,0.0,2.0,0.0
0021500032,1610612757,POR,Portland,1626192,Pat Connaughton,,,2:42,72.7,63.3,9.4,0.0,0.0,0.0,0.0,0.0,0.0,0.0,0.75,0.868,0.419,117.55,1.143,2015-10-30T00:00:00,12,POR,Portland,1-1,23,26,20,23,0,0,0,0,0,0,0,0,0,0,92,0.395,0.789,0.375,17,42,23,0021500032,1610612757,POR,Portland,Pat Connaughton,,,2:42,0.0,0.0,0.0,0.0,0.0,0.0,0.0,2.0,0.0,1.0,0.0,1.0
0021500032,1610612757,POR,Portland,1626242,Luis Montero,,,2:24,85.0,75.2,9.8,0.0,0.0,0.0,0.0,1.0,0.333,50.0,0.0,0.0,0.34,112.0,-0.222,2015-10-30T00:00:00,12,POR,Portland,1-1,23,26,20,23,0,0,0,0,0,0,0,0,0,0,92,0.395,0.789,0.375,17,42,23,0021500032,1610612757,POR,Portland,Luis Montero,,,2:24,0.0,0.0,0.0,0.0,0.0,0.0,0.0,2.0,0.0,0.0,0.0,0.0
0021500032,1610612757,POR,Portland,204025,Tim Frazier,,,2:24,85.0,75.2,9.8,1.0,0.0,100.0,0.0,0.0,0.0,0.0,0.0,0.0,0.0,112.0,0.222,2015-10-30T00:00:00,12,POR,Portland,1-1,23,26,20,23,0,0,0,0,0,0,0,0,0,0,92,0.395,0.789,0.375,17,42,23,0021500032,1610612757,POR,Portland,Tim Frazier,,,2:24,0.0,0.0,0.0,0.0,0.0,0.0,0.0,2.0,0.0,0.0,1.0,0.0
0021500032,1610612757,POR,Portland,2549,Chris Kaman,,DNP - Coach's Decision                  ,,,,,,,0.0,,,,,,,0.0,,,2015-10-30T00:00:00,12,POR,Portland,1-1,23,26,20,23,0,0,0,0,0,0,0,0,0,0,92,0.395,0.789,0.375,17,42,23,0021500032,1610612757,POR,Portland,Chris Kaman,,DNP - Coach's Decision                  ,,,,,,,,,,,,,
0021500032,1610612756,PHX,Phoenix,200782,PJ Tucker,F,,23:45,106.5,81.2,25.3,0.067,0.5,11.1,0.0,0.148,0.089,22.2,0.333,0.333,0.137,108.53,0.042,2015-10-30T00:00:00,12,PHX,Phoenix,1-1,27,28,28,27,0,0,0,0,0,0,0,0,0,0,110,0.446,0.762,0.222,17,55,19,0021500032,1610612756,PHX,Phoenix,PJ Tucker,F,,23:45,2.0,2.0,0.0,4.0,8.0,7.0,8.0,18.0,0.0,0.0,2.0,2.0
0021500032,1610612756,PHX,Phoenix,202693,Markieff Morris,F,,34:21,106.2,87.0,19.2,0.091,0.67,9.1,0.091,0.143,0.118,13.6,0.382,0.382,0.222,108.24,0.059,2015-10-30T00:00:00,12,PHX,Phoenix,1-1,27,28,28,27,0,0,0,0,0,0,0,0,0,0,110,0.446,0.762,0.222,17,55,19,0021500032,1610612756,PHX,Phoenix,Markieff Morris,F,,34:21,0.0,4.0,0.0,6.0,17.0,12.0,10.0,32.0,2.0,2.0,3.0,1.0
0021500032,1610612756,PHX,Phoenix,2199,Tyson Chandler,C,,25:54,111.7,89.5,22.1,0.063,1.0,7.0,0.208,0.308,0.26,7.0,0.429,0.611,0.204,106.71,0.212,2015-10-30T00:00:00,12,PHX,Phoenix,1-1,27,28,28,27,0,0,0,0,0,0,0,0,0,0,110,0.446,0.762,0.222,17,55,19,0021500032,1610612756,PHX,Phoenix,Tyson Chandler,C,,25:54,4.0,5.0,2.0,6.0,10.0,7.0,8.0,22.0,1.0,0.0,2.0,6.0
0021500032,1610612756,PHX,Phoenix,202688,Brandon Knight,G,,33:04,102.3,88.7,13.6,0.211,2.0,19.2,0.034,0.077,0.059,9.6,0.571,0.605,0.198,109.22,0.155,2015-10-30T00:00:00,12,PHX,Phoenix,1-1,27,28,28,27,0,0,0,0,0,0,0,0,0,0,110,0.446,0.762,0.222,17,55,19,0021500032,1610612756,PHX,Phoenix,Brandon Knight,G,,33:04,11.0,2.0,2.0,10.0,16.0,8.0,13.0,26.0,0.0,0.0,3.0,4.0
0021500032,1610612756,PHX,Phoenix,202339,Eric Bledsoe,G,,33:14,100.5,86.3,14.2,0.158,1.0,12.1,0.0,0.056,0.03,12.1,0.429,0.584,0.249,110.35,0.167,2015-10-30T00:00:00,12,PHX,Phoenix,1-1,27,28,28,27,0,0,0,0,0,0,0,0,0,0,110,0.446,0.762,0.222,17,55,19,0021500032,1610612756,PHX,Phoenix,Eric Bledsoe,G,,33:14,2.0,0.0,4.0,8.0,15.0,10.0,10.0,28.0,1.0,2.0,0.0,6.0
0021500032,1610612756,PHX,Phoenix,201603,Sonny Weems,,,16:48,90.1,86.7,3.4,0.0,0.0,0.0,0.0,0.143,0.086,62.1,0.5,0.615,0.167,101.83,0.021,2015-10-30T00:00:00,12,PHX,Phoenix,1-1,27,28,28,27,0,0,0,0,0,0,0,0,0,0,110,0.446,0.762,0.222,17,55,19,0021500032,1610612756,PHX,Phoenix,Sonny Weems,,,16:48,0.0,0.0,0.0,2.0,7.0,4.0,7.0,16.0,0.0,0.0,0.0,2.0
0021500032,1610612756,PHX,Phoenix,203458,Alex Len,,,18:45,84.0,87.9,-3.9,0.1,1.0,10.2,0.067,0.125,0.103,10.2,0.667,0.644,0.195,107.26,0.21,2015-10-30T00:00:00,12,PHX,Phoenix,1-1,27,28,28,27,0,0,0,0,0,0,0,0,0,0,110,0.446,0.762,0.222,17,55,19,0021500032,1610612756,PHX,Phoenix,Alex Len,,,18:45,0.0,2.0,0.0,8.0,5.0,4.0,9.0,14.0,2.0,0.0,1.0,3.0
0021500032,1610612756,PHX,Phoenix,202720,Jon Leuer,,,14:36,87.3,78.6,8.7,0.167,0.0,34.0,0.0,0.348,0.235,0.0,0.0,0.129,0.103,112.77,0.123,2015-10-30T00:00:00,12,PHX,Phoenix,1-1,27,28,28,27,0,0,0,0,0,0,0,0,0,0,110,0.446,0.762,0.222,17,55,19,0021500032,1610612756,PHX,Phoenix,Jon Leuer,,,14:36,0.0,0.0,1.0,0.0,8.0,5.0,7.0,12.0,0.0,1.0,2.0,3.0
0021500032,1610612756,PHX,Phoenix,203933,TJ Warren,,,21:51,94.6,92.6,2.0,0.083,1.0,7.3,0.043,0.192,0.122,7.3,0.75,0.723,0.221,107.91,0.225,2015-10-30T00:00:00,12,PHX,Phoenix,1-1,27,28,28,27,0,0,0,0,0,0,0,0,0,0,110,0.446,0.762,0.222,17,55,19,0021500032,1610612756,PHX,Phoenix,TJ Warren,,,21:51,6.0,0.0,3.0,12.0,12.0,7.0,9.0,22.0,0.0,0.0,2.0,2.0
0021500032,1610612756,PHX,Phoenix,101179,Ronnie Price,,,10:30,107.1,80.4,26.7,0.25,0.0,29.6,0.0,0.167,0.095,0.0,0.333,0.63,0.181,109.53,0.333,2015-10-30T00:00:00,12,PHX,Phoenix,1-1,27,28,28,27,0,0,0,0,0,0,0,0,0,0,110,0.446,0.762,0.222,17,55,19,0021500032,1610612756,PHX,Phoenix,Ronnie Price,,,10:30,4.0,0.0,6.0,2.0,2.0,6.0,4.0,10.0,0.0,0.0,1.0,3.0
0021500032,1610612756,PHX,Phoenix,1626164,Devin Booker,,,2:24,75.2,85.0,-9.8,0.0,0.0,0.0,0.0,0.0,0.0,50.0,0.0,0.0,0.376,112.0,-0.667,2015-10-30T00:00:00,12,PHX,Phoenix,1-1,27,28,28,27,0,0,0,0,0,0,0,0,0,0,110,0.446,0.762,0.222,17,55,19,0021500032,1610612756,PHX,Phoenix,Devin Booker,,,2:24,0.0,0.0,0.0,0.0,0.0,0.0,0.0,0.0,0.0,0.0,1.0,0.0
0021500032,1610612756,PHX,Phoenix,203462,Archie Goodwin,,,2:24,75.2,85.0,-9.8,0.0,0.0,0.0,0.0,0.5,0.333,53.2,0.0,0.568,0.353,112.0,0.111,2015-10-30T00:00:00,12,PHX,Phoenix,1-1,27,28,28,27,0,0,0,0,0,0,0,0,0,0,110,0.446,0.762,0.222,17,55,19,0021500032,1610612756,PHX,Phoenix,Archie Goodwin,,,2:24,0.0,0.0,0.0,0.0,0.0,0.0,0.0,0.0,1.0,0.0,0.0,1.0
0021500032,1610612756,PHX,Phoenix,203141,Mirza Teletovic,,,2:24,75.2,85.0,-9.8,0.0,0.0,0.0,0.0,0.0,0.0,0.0,0.0,0.0,0.0,112.0,0.222,2015-10-30T00:00:00,12,PHX,Phoenix,1-1,27,28,28,27,0,0,0,0,0,0,0,0,0,0,110,0.446,0.762,0.222,17,55,19,0021500032,1610612756,PHX,Phoenix,Mirza Teletovic,,,2:24,0.0,0.0,0.0,0.0,0.0,0.0,0.0,0.0,0.0,0.0,0.0,0.0
