GAME_ID_x,TEAM_ID_x,TEAM_ABBREVIATION_x,TEAM_CITY_x,PLAYER_ID,PLAYER_NAME_x,START_POSITION_x,COMMENT_x,MIN_x,OFF_RATING,DEF_RATING,NET_RATING,AST_PCT,AST_TOV,AST_RATIO,OREB_PCT,DREB_PCT,REB_PCT,TM_TOV_PCT,EFG_PCT,TS_PCT,USG_PCT,PACE,PIE,GAME_DATE_EST,GAME_SEQUENCE,TEAM_ABBREVIATION_y,TEAM_CITY_NAME,TEAM_WINS_LOSSES,PTS_QTR1,PTS_QTR2,PTS_QTR3,PTS_QTR4,PTS_OT1,PTS_OT2,PTS_OT3,PTS_OT4,PTS_OT5,PTS_OT6,PTS_OT7,PTS_OT8,PTS_OT9,PTS_OT10,PTS,FG_PCT,FT_PCT,FG3_PCT,AST,REB,TOV,GAME_ID_y,TEAM_ID_y,TEAM_ABBREVIATION,TEAM_CITY_y,PLAYER_NAME_y,START_POSITION_y,COMMENT_y,MIN_y,PTS_OFF_TOV,PTS_2ND_CHANCE,PTS_FB,PTS_PAINT,OPP_PTS_OFF_TOV,OPP_PTS_2ND_CHANCE,OPP_PTS_FB,OPP_PTS_PAINT,BLK,BLKA,PF,PFD
0021500039,1610612737,ATL,Atlanta,203145,Kent Bazemore,F,,28:13,106.9,111.5,-4.6,0.067,0.0,6.4,0.0,0.148,0.078,0.0,0.583,0.683,0.26,95.0,0.171,2015-11-01T00:00:00,1,ATL,Atlanta,3-1,28,18,24,24,0,0,0,0,0,0,0,0,0,0,94,0.42,0.929,0.241,22,48,11,0021500039,1610612737,ATL,Atlanta,Kent Bazemore,F,,28:13,2.0,3.0,2.0,8.0,3.0,11.0,4.0,14.0,1.0,2.0,1.0,3.0
0021500039,1610612737,ATL,Atlanta,200794,Paul Millsap,F,,34:56,105.2,112.2,-7.0,0.273,0.0,31.6,0.033,0.147,0.094,0.0,0.615,0.615,0.172,94.2,0.13,2015-11-01T00:00:00,1,ATL,Atlanta,3-1,28,18,24,24,0,0,0,0,0,0,0,0,0,0,94,0.42,0.929,0.241,22,48,11,0021500039,1610612737,ATL,Atlanta,Paul Millsap,F,,34:56,2.0,0.0,0.0,8.0,7.0,11.0,11.0,26.0,2.0,0.0,3.0,2.0
0021500039,1610612737,ATL,Atlanta,201143,Al Horford,C,,34:55,93.9,99.3,-5.3,0.056,0.33,5.3,0.059,0.263,0.167,15.9,0.5,0.538,0.241,96.09,0.136,2015-11-01T00:00:00,1,ATL,Atlanta,3-1,28,18,24,24,0,0,0,0,0,0,0,0,0,0,94,0.42,0.929,0.241,22,48,11,0021500039,1610612737,ATL,Atlanta,Al Horford,C,,34:55,0.0,2.0,4.0,10.0,7.0,11.0,6.0,18.0,3.0,1.0,1.0,0.0
0021500039,1610612737,ATL,Atlanta,2594,Kyle Korver,G,,31:18,105.8,110.0,-4.2,0.087,2.0,16.7,0.0,0.067,0.034,8.3,0.333,0.333,0.151,95.27,0.0,2015-11-01T00:00:00,1,ATL,Atlanta,3-1,28,18,24,24,0,0,0,0,0,0,0,0,0,0,94,0.42,0.929,0.241,22,48,11,0021500039,1610612737,ATL,Atlanta,Kyle Korver,G,,31:18,0.0,2.0,0.0,0.0,5.0,11.0,7.0,20.0,0.0,0.0,3.0,1.0
0021500039,1610612737,ATL,Atlanta,201952,Jeff Teague,G,,32:11,94.6,100.8,-6.1,0.235,4.0,17.6,0.0,0.167,0.088,4.4,0.438,0.507,0.278,93.91,0.13,2015-11-01T00:00:00,1,ATL,Atlanta,3-1,28,18,24,24,0,0,0,0,0,0,0,0,0,0,94,0.42,0.929,0.241,22,48,11,0021500039,1610612737,ATL,Atlanta,Jeff Teague,G,,32:11,4.0,0.0,4.0,8.0,4.0,11.0,6.0,18.0,0.0,4.0,2.0,4.0
0021500039,1610612737,ATL,Atlanta,201168,Tiago Splitter,,,17:30,106.3,81.6,24.6,0.077,1.0,14.5,0.188,0.267,0.226,14.5,0.75,0.717,0.138,94.41,0.175,2015-11-01T00:00:00,1,ATL,Atlanta,3-1,28,18,24,24,0,0,0,0,0,0,0,0,0,0,94,0.42,0.929,0.241,22,48,11,0021500039,1610612737,ATL,Atlanta,Tiago Splitter,,,17:30,2.0,3.0,0.0,6.0,7.0,0.0,7.0,16.0,0.0,1.0,2.0,1.0
0021500039,1610612737,ATL,Atlanta,203934,Lamar Patterson,,,9:06,94.7,80.0,14.8,0.25,2.0,33.3,0.0,0.125,0.059,16.7,0.0,0.0,0.174,99.59,-0.031,2015-11-01T00:00:00,1,ATL,Atlanta,3-1,28,18,24,24,0,0,0,0,0,0,0,0,0,0,94,0.42,0.929,0.241,22,48,11,0021500039,1610612737,ATL,Atlanta,Lamar Patterson,,,9:06,0.0,0.0,0.0,0.0,2.0,0.0,4.0,6.0,0.0,1.0,0.0,1.0
0021500039,1610612737,ATL,Atlanta,203471,Dennis Schroder,,,21:11,93.5,77.9,15.6,0.214,3.0,23.1,0.05,0.1,0.075,7.7,0.333,0.333,0.205,94.97,0.051,2015-11-01T00:00:00,1,ATL,Atlanta,3-1,28,18,24,24,0,0,0,0,0,0,0,0,0,0,94,0.42,0.929,0.241,22,48,11,0021500039,1610612737,ATL,Atlanta,Dennis Schroder,,,21:11,2.0,0.0,2.0,4.0,10.0,0.0,9.0,16.0,0.0,2.0,2.0,2.0
0021500039,1610612737,ATL,Atlanta,200757,Thabo Sefolosha,,,17:36,81.6,78.5,3.1,0.0,0.0,0.0,0.118,0.111,0.114,37.5,0.5,0.5,0.192,102.18,0.054,2015-11-01T00:00:00,1,ATL,Atlanta,3-1,28,18,24,24,0,0,0,0,0,0,0,0,0,0,94,0.42,0.929,0.241,22,48,11,0021500039,1610612737,ATL,Atlanta,Thabo Sefolosha,,,17:36,3.0,0.0,0.0,0.0,10.0,0.0,9.0,12.0,0.0,1.0,1.0,0.0
0021500039,1610612737,ATL,Atlanta,203118,Mike Scott,,,13:04,78.5,57.4,21.1,0.25,0.0,40.0,0.0,0.214,0.103,0.0,0.0,0.0,0.101,100.36,0.029,2015-11-01T00:00:00,1,ATL,Atlanta,3-1,28,18,24,24,0,0,0,0,0,0,0,0,0,0,94,0.42,0.929,0.241,22,48,11,0021500039,1610612737,ATL,Atlanta,Mike Scott,,,13:04,0.0,0.0,0.0,0.0,5.0,0.0,2.0,4.0,0.0,1.0,1.0,0.0
0021500039,1610612737,ATL,Atlanta,203200,Justin Holiday,,DNP - Coach's Decision                  ,,,,,,,0.0,,,,,,,0.0,,,2015-11-01T00:00:00,1,ATL,Atlanta,3-1,28,18,24,24,0,0,0,0,0,0,0,0,0,0,94,0.42,0.929,0.241,22,48,11,0021500039,1610612737,ATL,Atlanta,Justin Holiday,,DNP - Coach's Decision                  ,,,,,,,,,,,,,
0021500039,1610612737,ATL,Atlanta,202714,Shelvin Mack,,DNP - Coach's Decision                  ,,,,,,,0.0,,,,,,,0.0,,,2015-11-01T00:00:00,1,ATL,Atlanta,3-1,28,18,24,24,0,0,0,0,0,0,0,0,0,0,94,0.42,0.929,0.241,22,48,11,0021500039,1610612737,ATL,Atlanta,Shelvin Mack,,DNP - Coach's Decision                  ,,,,,,,,,,,,,
0021500039,1610612737,ATL,Atlanta,203488,Mike Muscala,,DNP - Coach's Decision                  ,,,,,,,0.0,,,,,,,0.0,,,2015-11-01T00:00:00,1,ATL,Atlanta,3-1,28,18,24,24,0,0,0,0,0,0,0,0,0,0,94,0.42,0.929,0.241,22,48,11,0021500039,1610612737,ATL,Atlanta,Mike Muscala,,DNP - Coach's Decision                  ,,,,,,,,,,,,,
0021500039,1610612766,CHA,Charlotte,203798,PJ Hairston,F,,23:12,115.4,100.3,15.1,0.059,0.5,9.7,0.0,0.19,0.095,19.4,0.333,0.478,0.186,96.17,0.045,2015-11-01T00:00:00,1,CHA,Charlotte,0-3,18,21,37,16,0,0,0,0,0,0,0,0,0,0,92,0.372,0.933,0.378,27,45,11,0021500039,1610612766,CHA,Charlotte,PJ Hairston,F,,23:12,5.0,0.0,5.0,4.0,8.0,3.0,4.0,26.0,0.0,0.0,1.0,2.0
0021500039,1610612766,CHA,Charlotte,101107,Marvin Williams,F,,32:58,103.9,99.6,4.3,0.056,0.5,7.7,0.0,0.152,0.079,15.4,0.75,0.75,0.166,95.87,0.118,2015-11-01T00:00:00,1,CHA,Charlotte,0-3,18,21,37,16,0,0,0,0,0,0,0,0,0,0,92,0.372,0.933,0.378,27,45,11,0021500039,1610612766,CHA,Charlotte,Marvin Williams,F,,32:58,0.0,6.0,0.0,0.0,11.0,6.0,12.0,28.0,3.0,1.0,0.0,0.0
0021500039,1610612766,CHA,Charlotte,2744,Al Jefferson,C,,29:24,109.1,104.1,5.0,0.125,0.0,14.3,0.0,0.37,0.179,0.0,0.417,0.417,0.191,93.47,0.116,2015-11-01T00:00:00,1,CHA,Charlotte,0-3,18,21,37,16,0,0,0,0,0,0,0,0,0,0,92,0.372,0.933,0.378,27,45,11,0021500039,1610612766,CHA,Charlotte,Al Jefferson,C,,29:24,2.0,0.0,2.0,10.0,6.0,8.0,4.0,28.0,2.0,2.0,1.0,1.0
0021500039,1610612766,CHA,Charlotte,201587,Nicolas Batum,G,,36:15,110.3,103.6,6.7,0.364,4.0,32.2,0.083,0.065,0.075,8.0,0.5,0.538,0.214,94.76,0.113,2015-11-01T00:00:00,1,CHA,Charlotte,0-3,18,21,37,16,0,0,0,0,0,0,0,0,0,0,92,0.372,0.933,0.378,27,45,11,0021500039,1610612766,CHA,Charlotte,Nicolas Batum,G,,36:15,0.0,0.0,2.0,2.0,10.0,10.0,6.0,34.0,2.0,0.0,2.0,2.0
0021500039,1610612766,CHA,Charlotte,202689,Kemba Walker,G,,31:16,105.1,104.1,1.0,0.333,3.0,29.2,0.059,0.143,0.097,9.7,0.556,0.679,0.208,96.13,0.143,2015-11-01T00:00:00,1,CHA,Charlotte,0-3,18,21,37,16,0,0,0,0,0,0,0,0,0,0,92,0.372,0.933,0.378,27,45,11,0021500039,1610612766,CHA,Charlotte,Kemba Walker,G,,31:16,0.0,5.0,0.0,4.0,8.0,10.0,4.0,30.0,0.0,1.0,3.0,7.0
0021500039,1610612766,CHA,Charlotte,203469,Cody Zeller,,,22:49,59.7,88.2,-28.4,0.0,0.0,0.0,0.074,0.136,0.102,14.3,0.5,0.5,0.142,97.68,0.12,2015-11-01T00:00:00,1,CHA,Charlotte,0-3,18,21,37,16,0,0,0,0,0,0,0,0,0,0,92,0.372,0.933,0.378,27,45,11,0021500039,1610612766,CHA,Charlotte,Cody Zeller,,,22:49,0.0,0.0,2.0,6.0,11.0,4.0,6.0,20.0,1.0,0.0,0.0,1.0
0021500039,1610612766,CHA,Charlotte,201150,Spencer Hawes,,,18:24,77.4,85.3,-7.9,0.2,2.0,18.2,0.053,0.167,0.108,9.1,0.125,0.125,0.216,99.5,-0.056,2015-11-01T00:00:00,1,CHA,Charlotte,0-3,18,21,37,16,0,0,0,0,0,0,0,0,0,0,92,0.372,0.933,0.378,27,45,11,0021500039,1610612766,CHA,Charlotte,Spencer Hawes,,,18:24,0.0,0.0,0.0,0.0,7.0,2.0,8.0,14.0,1.0,1.0,4.0,0.0
0021500039,1610612766,CHA,Charlotte,202391,Jeremy Lin,,,21:28,91.9,101.4,-9.5,0.455,5.0,31.5,0.05,0.048,0.049,6.3,0.278,0.354,0.234,94.94,0.074,2015-11-01T00:00:00,1,CHA,Charlotte,0-3,18,21,37,16,0,0,0,0,0,0,0,0,0,0,92,0.372,0.933,0.378,27,45,11,0021500039,1610612766,CHA,Charlotte,Jeremy Lin,,,21:28,2.0,0.0,2.0,2.0,7.0,5.0,8.0,16.0,2.0,0.0,2.0,3.0
0021500039,1610612766,CHA,Charlotte,203087,Jeremy Lamb,,,18:16,64.5,79.7,-15.2,0.4,0.0,15.4,0.0,0.211,0.1,0.0,0.409,0.409,0.27,100.38,0.158,2015-11-01T00:00:00,1,CHA,Charlotte,0-3,18,21,37,16,0,0,0,0,0,0,0,0,0,0,92,0.372,0.933,0.378,27,45,11,0021500039,1610612766,CHA,Charlotte,Jeremy Lamb,,,18:16,3.0,0.0,0.0,2.0,5.0,2.0,6.0,14.0,2.0,1.0,1.0,0.0
0021500039,1610612766,CHA,Charlotte,1626163,Frank Kaminsky,,,5:59,110.3,100.0,10.3,0.0,0.0,0.0,0.0,0.0,0.0,0.0,1.5,1.5,0.092,83.75,0.128,2015-11-01T00:00:00,1,CHA,Charlotte,0-3,18,21,37,16,0,0,0,0,0,0,0,0,0,0,92,0.372,0.933,0.378,27,45,11,0021500039,1610612766,CHA,Charlotte,Frank Kaminsky,,,5:59,0.0,0.0,0.0,0.0,2.0,0.0,2.0,10.0,0.0,0.0,0.0,0.0
0021500039,1610612766,CHA,Charlotte,203584,Troy Daniels,,DNP - Coach's Decision                  ,,,,,,,0.0,,,,,,,0.0,,,2015-11-01T00:00:00,1,CHA,Charlotte,0-3,18,21,37,16,0,0,0,0,0,0,0,0,0,0,92,0.372,0.933,0.378,27,45,11,0021500039,1610612766,CHA,Charlotte,Troy Daniels,,DNP - Coach's Decision                  ,,,,,,,,,,,,,
0021500039,1610612766,CHA,Charlotte,201946,Tyler Hansbrough,,DNP - Coach's Decision                  ,,,,,,,0.0,,,,,,,0.0,,,2015-11-01T00:00:00,1,CHA,Charlotte,0-3,18,21,37,16,0,0,0,0,0,0,0,0,0,0,92,0.372,0.933,0.378,27,45,11,0021500039,1610612766,CHA,Charlotte,Tyler Hansbrough,,DNP - Coach's Decision                  ,,,,,,,,,,,,,
0021500039,1610612766,CHA,Charlotte,203148,Brian Roberts,,DNP - Coach's Decision                  ,,,,,,,0.0,,,,,,,0.0,,,2015-11-01T00:00:00,1,CHA,Charlotte,0-3,18,21,37,16,0,0,0,0,0,0,0,0,0,0,92,0.372,0.933,0.378,27,45,11,0021500039,1610612766,CHA,Charlotte,Brian Roberts,,DNP - Coach's Decision                  ,,,,,,,,,,,,,
