GAME_ID_x,TEAM_ID_x,TEAM_ABBREVIATION_x,TEAM_CITY_x,PLAYER_ID,PLAYER_NAME_x,START_POSITION_x,COMMENT_x,MIN_x,OFF_RATING,DEF_RATING,NET_RATING,AST_PCT,AST_TOV,AST_RATIO,OREB_PCT,DREB_PCT,REB_PCT,TM_TOV_PCT,EFG_PCT,TS_PCT,USG_PCT,PACE,PIE,GAME_DATE_EST,GAME_SEQUENCE,TEAM_ID_y,TEAM_ABBREVIATION_y,TEAM_CITY_NAME,TEAM_WINS_LOSSES,PTS_QTR1,PTS_QTR2,PTS_QTR3,PTS_QTR4,PTS_OT1,PTS_OT2,PTS_OT3,PTS_OT4,PTS_OT5,PTS_OT6,PTS_OT7,PTS_OT8,PTS_OT9,PTS_OT10,PTS,FG_PCT,FT_PCT,FG3_PCT,AST,REB,TOV,GAME_ID_y,TEAM_ID,TEAM_ABBREVIATION,TEAM_CITY_y,PLAYER_NAME_y,START_POSITION_y,COMMENT_y,MIN_y,PTS_OFF_TOV,PTS_2ND_CHANCE,PTS_FB,PTS_PAINT,OPP_PTS_OFF_TOV,OPP_PTS_2ND_CHANCE,OPP_PTS_FB,OPP_PTS_PAINT,BLK,BLKA,PF,PFD
0021300932,1610612753,ORL,Orlando,203090,Maurice Harkless,F,,35:52,105.8,117.3,-11.5,0.069,0.0,11.3,0.093,0.188,0.133,0.0,0.321,0.381,0.176,104.31,0.068,2014-03-08T00:00:00,4,1610612753,ORL,Orlando,19-45,27,34,22,29,0,0,0,0,0,0,0,0,0,0,112,0.479,0.765,0.389,24,45,9,0021300932,1610612753,ORL,Orlando,Maurice Harkless,F,,35:52,4.0,5.0,2.0,6.0,6.0,10.0,11.0,38.0,1.0,3.0,3.0,2.0
0021300932,1610612753,ORL,Orlando,203090,Maurice Harkless,F,,35:52,105.8,117.3,-11.5,0.069,0.0,11.3,0.093,0.188,0.133,0.0,0.321,0.381,0.176,104.31,0.068,2014-03-08T00:00:00,4,1610612759,SAS,San Antonio,46-16,31,28,29,33,0,0,0,0,0,0,0,0,0,0,121,0.531,0.743,0.45,26,44,13,0021300932,1610612753,ORL,Orlando,Maurice Harkless,F,,35:52,4.0,5.0,2.0,6.0,6.0,10.0,11.0,38.0,1.0,3.0,3.0,2.0
0021300932,1610612753,ORL,Orlando,203124,Kyle O'Quinn,F,,17:42,93.6,123.9,-30.3,0.111,0.0,10.1,0.095,0.188,0.135,0.0,0.5,0.507,0.209,98.87,0.125,2014-03-08T00:00:00,4,1610612753,ORL,Orlando,19-45,27,34,22,29,0,0,0,0,0,0,0,0,0,0,112,0.479,0.765,0.389,24,45,9,0021300932,1610612753,ORL,Orlando,Kyle O'Quinn,F,,17:42,0.0,4.0,0.0,6.0,2.0,8.0,7.0,12.0,1.0,1.0,1.0,1.0
0021300932,1610612753,ORL,Orlando,203124,Kyle O'Quinn,F,,17:42,93.6,123.9,-30.3,0.111,0.0,10.1,0.095,0.188,0.135,0.0,0.5,0.507,0.209,98.87,0.125,2014-03-08T00:00:00,4,1610612759,SAS,San Antonio,46-16,31,28,29,33,0,0,0,0,0,0,0,0,0,0,121,0.531,0.743,0.45,26,44,13,0021300932,1610612753,ORL,Orlando,Kyle O'Quinn,F,,17:42,0.0,4.0,0.0,6.0,2.0,8.0,7.0,12.0,1.0,1.0,1.0,1.0
0021300932,1610612753,ORL,Orlando,202696,Nikola Vucevic,C,,29:57,100.4,118.8,-18.3,0.167,1.5,13.2,0.088,0.37,0.213,8.8,0.5,0.535,0.272,104.49,0.153,2014-03-08T00:00:00,4,1610612753,ORL,Orlando,19-45,27,34,22,29,0,0,0,0,0,0,0,0,0,0,112,0.479,0.765,0.389,24,45,9,0021300932,1610612753,ORL,Orlando,Nikola Vucevic,C,,29:57,0.0,4.0,0.0,12.0,7.0,12.0,13.0,30.0,0.0,2.0,4.0,2.0
0021300932,1610612753,ORL,Orlando,202696,Nikola Vucevic,C,,29:57,100.4,118.8,-18.3,0.167,1.5,13.2,0.088,0.37,0.213,8.8,0.5,0.535,0.272,104.49,0.153,2014-03-08T00:00:00,4,1610612759,SAS,San Antonio,46-16,31,28,29,33,0,0,0,0,0,0,0,0,0,0,121,0.531,0.743,0.45,26,44,13,0021300932,1610612753,ORL,Orlando,Nikola Vucevic,C,,29:57,0.0,4.0,0.0,12.0,7.0,12.0,13.0,30.0,0.0,2.0,4.0,2.0
0021300932,1610612753,ORL,Orlando,201167,Arron Afflalo,G,,34:56,101.9,121.0,-19.1,0.167,1.33,15.7,0.026,0.063,0.043,11.8,0.444,0.461,0.256,104.74,0.042,2014-03-08T00:00:00,4,1610612753,ORL,Orlando,19-45,27,34,22,29,0,0,0,0,0,0,0,0,0,0,112,0.479,0.765,0.389,24,45,9,0021300932,1610612753,ORL,Orlando,Arron Afflalo,G,,34:56,5.0,0.0,0.0,4.0,7.0,12.0,13.0,36.0,0.0,1.0,3.0,2.0
0021300932,1610612753,ORL,Orlando,201167,Arron Afflalo,G,,34:56,101.9,121.0,-19.1,0.167,1.33,15.7,0.026,0.063,0.043,11.8,0.444,0.461,0.256,104.74,0.042,2014-03-08T00:00:00,4,1610612759,SAS,San Antonio,46-16,31,28,29,33,0,0,0,0,0,0,0,0,0,0,121,0.531,0.743,0.45,26,44,13,0021300932,1610612753,ORL,Orlando,Arron Afflalo,G,,34:56,5.0,0.0,0.0,4.0,7.0,12.0,13.0,36.0,0.0,1.0,3.0,2.0
0021300932,1610612753,ORL,Orlando,2749,Jameer Nelson,G,,29:29,102.2,121.3,-19.1,0.217,2.5,28.0,0.0,0.037,0.017,11.2,0.35,0.414,0.18,105.59,0.03,2014-03-08T00:00:00,4,1610612753,ORL,Orlando,19-45,27,34,22,29,0,0,0,0,0,0,0,0,0,0,112,0.479,0.765,0.389,24,45,9,0021300932,1610612753,ORL,Orlando,Jameer Nelson,G,,29:29,3.0,0.0,0.0,4.0,6.0,10.0,13.0,30.0,0.0,0.0,2.0,2.0
0021300932,1610612753,ORL,Orlando,2749,Jameer Nelson,G,,29:29,102.2,121.3,-19.1,0.217,2.5,28.0,0.0,0.037,0.017,11.2,0.35,0.414,0.18,105.59,0.03,2014-03-08T00:00:00,4,1610612759,SAS,San Antonio,46-16,31,28,29,33,0,0,0,0,0,0,0,0,0,0,121,0.531,0.743,0.45,26,44,13,0021300932,1610612753,ORL,Orlando,Jameer Nelson,G,,29:29,3.0,0.0,0.0,4.0,6.0,10.0,13.0,30.0,0.0,0.0,2.0,2.0
0021300932,1610612753,ORL,Orlando,202699,Tobias Harris,,,32:09,116.0,120.0,-4.0,0.0,0.0,0.0,0.033,0.259,0.14,0.0,0.688,0.681,0.222,103.73,0.177,2014-03-08T00:00:00,4,1610612753,ORL,Orlando,19-45,27,34,22,29,0,0,0,0,0,0,0,0,0,0,112,0.479,0.765,0.389,24,45,9,0021300932,1610612753,ORL,Orlando,Tobias Harris,,,32:09,2.0,2.0,9.0,16.0,9.0,4.0,8.0,44.0,2.0,1.0,1.0,2.0
0021300932,1610612753,ORL,Orlando,202699,Tobias Harris,,,32:09,116.0,120.0,-4.0,0.0,0.0,0.0,0.033,0.259,0.14,0.0,0.688,0.681,0.222,103.73,0.177,2014-03-08T00:00:00,4,1610612759,SAS,San Antonio,46-16,31,28,29,33,0,0,0,0,0,0,0,0,0,0,121,0.531,0.743,0.45,26,44,13,0021300932,1610612753,ORL,Orlando,Tobias Harris,,,32:09,2.0,2.0,9.0,16.0,9.0,4.0,8.0,44.0,2.0,1.0,1.0,2.0
0021300932,1610612753,ORL,Orlando,101179,Ronnie Price,,,17:02,121.0,116.3,4.7,0.118,0.0,50.0,0.0,0.0,0.0,0.0,0.5,0.5,0.051,96.21,0.014,2014-03-08T00:00:00,4,1610612753,ORL,Orlando,19-45,27,34,22,29,0,0,0,0,0,0,0,0,0,0,112,0.479,0.765,0.389,24,45,9,0021300932,1610612753,ORL,Orlando,Ronnie Price,,,17:02,0.0,0.0,0.0,0.0,5.0,2.0,2.0,22.0,0.0,0.0,3.0,2.0
0021300932,1610612753,ORL,Orlando,101179,Ronnie Price,,,17:02,121.0,116.3,4.7,0.118,0.0,50.0,0.0,0.0,0.0,0.0,0.5,0.5,0.051,96.21,0.014,2014-03-08T00:00:00,4,1610612759,SAS,San Antonio,46-16,31,28,29,33,0,0,0,0,0,0,0,0,0,0,121,0.531,0.743,0.45,26,44,13,0021300932,1610612753,ORL,Orlando,Ronnie Price,,,17:02,0.0,0.0,0.0,0.0,5.0,2.0,2.0,22.0,0.0,0.0,3.0,2.0
0021300932,1610612753,ORL,Orlando,203094,Andrew Nicholson,,,9:39,131.6,120.9,10.7,0.0,0.0,0.0,0.0,0.0,0.0,33.3,0.75,0.75,0.316,92.58,-0.041,2014-03-08T00:00:00,4,1610612753,ORL,Orlando,19-45,27,34,22,29,0,0,0,0,0,0,0,0,0,0,112,0.479,0.765,0.389,24,45,9,0021300932,1610612753,ORL,Orlando,Andrew Nicholson,,,9:39,0.0,0.0,0.0,2.0,2.0,0.0,2.0,12.0,0.0,0.0,5.0,1.0
0021300932,1610612753,ORL,Orlando,203094,Andrew Nicholson,,,9:39,131.6,120.9,10.7,0.0,0.0,0.0,0.0,0.0,0.0,33.3,0.75,0.75,0.316,92.58,-0.041,2014-03-08T00:00:00,4,1610612759,SAS,San Antonio,46-16,31,28,29,33,0,0,0,0,0,0,0,0,0,0,121,0.531,0.743,0.45,26,44,13,0021300932,1610612753,ORL,Orlando,Andrew Nicholson,,,9:39,0.0,0.0,0.0,2.0,2.0,0.0,2.0,12.0,0.0,0.0,5.0,1.0
0021300932,1610612753,ORL,Orlando,202734,E'Twaun Moore,,,16:34,127.7,119.6,8.1,0.267,0.0,50.0,0.0,0.333,0.167,0.0,1.0,1.0,0.108,94.9,0.17,2014-03-08T00:00:00,4,1610612753,ORL,Orlando,19-45,27,34,22,29,0,0,0,0,0,0,0,0,0,0,112,0.479,0.765,0.389,24,45,9,0021300932,1610612753,ORL,Orlando,E'Twaun Moore,,,16:34,0.0,0.0,0.0,2.0,7.0,2.0,4.0,20.0,0.0,0.0,2.0,0.0
0021300932,1610612753,ORL,Orlando,202734,E'Twaun Moore,,,16:34,127.7,119.6,8.1,0.267,0.0,50.0,0.0,0.333,0.167,0.0,1.0,1.0,0.108,94.9,0.17,2014-03-08T00:00:00,4,1610612759,SAS,San Antonio,46-16,31,28,29,33,0,0,0,0,0,0,0,0,0,0,121,0.531,0.743,0.45,26,44,13,0021300932,1610612753,ORL,Orlando,E'Twaun Moore,,,16:34,0.0,0.0,0.0,2.0,7.0,2.0,4.0,20.0,0.0,0.0,2.0,0.0
0021300932,1610612753,ORL,Orlando,203117,Doron Lamb,,,13:42,137.6,113.6,24.0,0.2,0.0,43.6,0.1,0.0,0.05,0.0,0.5,0.644,0.126,93.34,0.099,2014-03-08T00:00:00,4,1610612753,ORL,Orlando,19-45,27,34,22,29,0,0,0,0,0,0,0,0,0,0,112,0.479,0.765,0.389,24,45,9,0021300932,1610612753,ORL,Orlando,Doron Lamb,,,13:42,2.0,3.0,0.0,0.0,4.0,0.0,2.0,16.0,0.0,0.0,1.0,1.0
0021300932,1610612753,ORL,Orlando,203117,Doron Lamb,,,13:42,137.6,113.6,24.0,0.2,0.0,43.6,0.1,0.0,0.05,0.0,0.5,0.644,0.126,93.34,0.099,2014-03-08T00:00:00,4,1610612759,SAS,San Antonio,46-16,31,28,29,33,0,0,0,0,0,0,0,0,0,0,121,0.531,0.743,0.45,26,44,13,0021300932,1610612753,ORL,Orlando,Doron Lamb,,,13:42,2.0,3.0,0.0,0.0,4.0,0.0,2.0,16.0,0.0,0.0,1.0,1.0
0021300932,1610612753,ORL,Orlando,203519,Adonis Thomas,,,1:29,166.7,106.4,60.3,0.0,0.0,0.0,0.0,0.0,0.0,0.0,0.0,0.0,0.0,78.96,0.0,2014-03-08T00:00:00,4,1610612753,ORL,Orlando,19-45,27,34,22,29,0,0,0,0,0,0,0,0,0,0,112,0.479,0.765,0.389,24,45,9,0021300932,1610612753,ORL,Orlando,Adonis Thomas,,,1:29,0.0,0.0,0.0,0.0,0.0,0.0,0.0,0.0,0.0,0.0,0.0,0.0
0021300932,1610612753,ORL,Orlando,203519,Adonis Thomas,,,1:29,166.7,106.4,60.3,0.0,0.0,0.0,0.0,0.0,0.0,0.0,0.0,0.0,0.0,78.96,0.0,2014-03-08T00:00:00,4,1610612759,SAS,San Antonio,46-16,31,28,29,33,0,0,0,0,0,0,0,0,0,0,121,0.531,0.743,0.45,26,44,13,0021300932,1610612753,ORL,Orlando,Adonis Thomas,,,1:29,0.0,0.0,0.0,0.0,0.0,0.0,0.0,0.0,0.0,0.0,0.0,0.0
0021300932,1610612753,ORL,Orlando,203473,Dewayne Dedmon,,,1:29,166.7,106.4,60.3,0.0,0.0,0.0,0.0,0.0,0.0,0.0,1.0,1.0,0.333,78.96,0.143,2014-03-08T00:00:00,4,1610612753,ORL,Orlando,19-45,27,34,22,29,0,0,0,0,0,0,0,0,0,0,112,0.479,0.765,0.389,24,45,9,0021300932,1610612753,ORL,Orlando,Dewayne Dedmon,,,1:29,0.0,0.0,2.0,2.0,0.0,0.0,0.0,0.0,0.0,0.0,1.0,0.0
0021300932,1610612753,ORL,Orlando,203473,Dewayne Dedmon,,,1:29,166.7,106.4,60.3,0.0,0.0,0.0,0.0,0.0,0.0,0.0,1.0,1.0,0.333,78.96,0.143,2014-03-08T00:00:00,4,1610612759,SAS,San Antonio,46-16,31,28,29,33,0,0,0,0,0,0,0,0,0,0,121,0.531,0.743,0.45,26,44,13,0021300932,1610612753,ORL,Orlando,Dewayne Dedmon,,,1:29,0.0,0.0,2.0,2.0,0.0,0.0,0.0,0.0,0.0,0.0,1.0,0.0
0021300932,1610612753,ORL,Orlando,101131,Jason Maxiell,,DNP - Coach's Decision,,,,,,,0.0,,,,,,,0.0,,,2014-03-08T00:00:00,4,1610612753,ORL,Orlando,19-45,27,34,22,29,0,0,0,0,0,0,0,0,0,0,112,0.479,0.765,0.389,24,45,9,0021300932,1610612753,ORL,Orlando,Jason Maxiell,,DNP - Coach's Decision,,,,,,,,,,,,,
0021300932,1610612753,ORL,Orlando,101131,Jason Maxiell,,DNP - Coach's Decision,,,,,,,0.0,,,,,,,0.0,,,2014-03-08T00:00:00,4,1610612759,SAS,San Antonio,46-16,31,28,29,33,0,0,0,0,0,0,0,0,0,0,121,0.531,0.743,0.45,26,44,13,0021300932,1610612753,ORL,Orlando,Jason Maxiell,,DNP - Coach's Decision,,,,,,,,,,,,,
0021300932,1610612759,SAS,San Antonio,202695,Kawhi Leonard,F,,37:53,119.6,108.2,11.4,0.143,1.33,24.9,0.0,0.184,0.1,18.7,0.917,0.936,0.14,100.53,0.146,2014-03-08T00:00:00,4,1610612753,ORL,Orlando,19-45,27,34,22,29,0,0,0,0,0,0,0,0,0,0,112,0.479,0.765,0.389,24,45,9,0021300932,1610612759,SAS,San Antonio,Kawhi Leonard,F,,37:53,3.0,0.0,9.0,8.0,12.0,11.0,4.0,40.0,2.0,0.0,1.0,4.0
0021300932,1610612759,SAS,San Antonio,202695,Kawhi Leonard,F,,37:53,119.6,108.2,11.4,0.143,1.33,24.9,0.0,0.184,0.1,18.7,0.917,0.936,0.14,100.53,0.146,2014-03-08T00:00:00,4,1610612759,SAS,San Antonio,46-16,31,28,29,33,0,0,0,0,0,0,0,0,0,0,121,0.531,0.743,0.45,26,44,13,0021300932,1610612759,SAS,San Antonio,Kawhi Leonard,F,,37:53,3.0,0.0,9.0,8.0,12.0,11.0,4.0,40.0,2.0,0.0,1.0,4.0
0021300932,1610612759,SAS,San Antonio,1495,Tim Duncan,F,,28:35,119.3,96.5,22.8,0.083,2.0,11.0,0.038,0.273,0.169,5.5,0.308,0.362,0.242,103.44,0.089,2014-03-08T00:00:00,4,1610612753,ORL,Orlando,19-45,27,34,22,29,0,0,0,0,0,0,0,0,0,0,112,0.479,0.765,0.389,24,45,9,0021300932,1610612759,SAS,San Antonio,Tim Duncan,F,,28:35,2.0,0.0,0.0,8.0,10.0,9.0,7.0,30.0,3.0,1.0,2.0,3.0
0021300932,1610612759,SAS,San Antonio,1495,Tim Duncan,F,,28:35,119.3,96.5,22.8,0.083,2.0,11.0,0.038,0.273,0.169,5.5,0.308,0.362,0.242,103.44,0.089,2014-03-08T00:00:00,4,1610612759,SAS,San Antonio,46-16,31,28,29,33,0,0,0,0,0,0,0,0,0,0,121,0.531,0.743,0.45,26,44,13,0021300932,1610612759,SAS,San Antonio,Tim Duncan,F,,28:35,2.0,0.0,0.0,8.0,10.0,9.0,7.0,30.0,3.0,1.0,2.0,3.0
0021300932,1610612759,SAS,San Antonio,201168,Tiago Splitter,C,,18:00,108.8,88.0,20.9,0.125,0.5,7.0,0.158,0.13,0.143,14.1,0.556,0.625,0.31,101.49,0.171,2014-03-08T00:00:00,4,1610612753,ORL,Orlando,19-45,27,34,22,29,0,0,0,0,0,0,0,0,0,0,112,0.479,0.765,0.389,24,45,9,0021300932,1610612759,SAS,San Antonio,Tiago Splitter,C,,18:00,4.0,2.0,0.0,8.0,9.0,8.0,6.0,20.0,1.0,1.0,2.0,6.0
0021300932,1610612759,SAS,San Antonio,201168,Tiago Splitter,C,,18:00,108.8,88.0,20.9,0.125,0.5,7.0,0.158,0.13,0.143,14.1,0.556,0.625,0.31,101.49,0.171,2014-03-08T00:00:00,4,1610612759,SAS,San Antonio,46-16,31,28,29,33,0,0,0,0,0,0,0,0,0,0,121,0.531,0.743,0.45,26,44,13,0021300932,1610612759,SAS,San Antonio,Tiago Splitter,C,,18:00,4.0,2.0,0.0,8.0,9.0,8.0,6.0,20.0,1.0,1.0,2.0,6.0
0021300932,1610612759,SAS,San Antonio,201980,Danny Green,G,,31:36,127.1,103.9,23.1,0.148,2.0,40.0,0.042,0.139,0.1,20.0,1.5,1.5,0.08,104.02,0.142,2014-03-08T00:00:00,4,1610612753,ORL,Orlando,19-45,27,34,22,29,0,0,0,0,0,0,0,0,0,0,112,0.479,0.765,0.389,24,45,9,0021300932,1610612759,SAS,San Antonio,Danny Green,G,,31:36,0.0,6.0,3.0,0.0,14.0,16.0,11.0,34.0,2.0,0.0,0.0,0.0
0021300932,1610612759,SAS,San Antonio,201980,Danny Green,G,,31:36,127.1,103.9,23.1,0.148,2.0,40.0,0.042,0.139,0.1,20.0,1.5,1.5,0.08,104.02,0.142,2014-03-08T00:00:00,4,1610612759,SAS,San Antonio,46-16,31,28,29,33,0,0,0,0,0,0,0,0,0,0,121,0.531,0.743,0.45,26,44,13,0021300932,1610612759,SAS,San Antonio,Danny Green,G,,31:36,0.0,6.0,3.0,0.0,14.0,16.0,11.0,34.0,2.0,0.0,0.0,0.0
0021300932,1610612759,SAS,San Antonio,2225,Tony Parker,G,,34:00,121.0,99.8,21.2,0.25,2.5,16.9,0.0,0.026,0.015,6.8,0.605,0.666,0.302,104.02,0.154,2014-03-08T00:00:00,4,1610612753,ORL,Orlando,19-45,27,34,22,29,0,0,0,0,0,0,0,0,0,0,112,0.479,0.765,0.389,24,45,9,0021300932,1610612759,SAS,San Antonio,Tony Parker,G,,34:00,2.0,2.0,3.0,12.0,14.0,13.0,7.0,34.0,0.0,2.0,3.0,4.0
0021300932,1610612759,SAS,San Antonio,2225,Tony Parker,G,,34:00,121.0,99.8,21.2,0.25,2.5,16.9,0.0,0.026,0.015,6.8,0.605,0.666,0.302,104.02,0.154,2014-03-08T00:00:00,4,1610612759,SAS,San Antonio,46-16,31,28,29,33,0,0,0,0,0,0,0,0,0,0,121,0.531,0.743,0.45,26,44,13,0021300932,1610612759,SAS,San Antonio,Tony Parker,G,,34:00,2.0,2.0,3.0,12.0,14.0,13.0,7.0,34.0,0.0,2.0,3.0,4.0
0021300932,1610612759,SAS,San Antonio,1938,Manu Ginobili,,,27:13,118.8,111.3,7.5,0.294,5.0,20.6,0.04,0.08,0.06,4.1,0.647,0.655,0.307,102.68,0.185,2014-03-08T00:00:00,4,1610612753,ORL,Orlando,19-45,27,34,22,29,0,0,0,0,0,0,0,0,0,0,112,0.479,0.765,0.389,24,45,9,0021300932,1610612759,SAS,San Antonio,Manu Ginobili,,,27:13,0.0,2.0,0.0,10.0,7.0,7.0,9.0,32.0,0.0,0.0,1.0,5.0
0021300932,1610612759,SAS,San Antonio,1938,Manu Ginobili,,,27:13,118.8,111.3,7.5,0.294,5.0,20.6,0.04,0.08,0.06,4.1,0.647,0.655,0.307,102.68,0.185,2014-03-08T00:00:00,4,1610612759,SAS,San Antonio,46-16,31,28,29,33,0,0,0,0,0,0,0,0,0,0,121,0.531,0.743,0.45,26,44,13,0021300932,1610612759,SAS,San Antonio,Manu Ginobili,,,27:13,0.0,2.0,0.0,10.0,7.0,7.0,9.0,32.0,0.0,0.0,1.0,5.0
0021300932,1610612759,SAS,San Antonio,2564,Boris Diaw,,,21:46,117.3,123.9,-6.6,0.118,0.0,21.7,0.118,0.353,0.235,0.0,0.6,0.556,0.147,100.6,0.096,2014-03-08T00:00:00,4,1610612753,ORL,Orlando,19-45,27,34,22,29,0,0,0,0,0,0,0,0,0,0,112,0.479,0.765,0.389,24,45,9,0021300932,1610612759,SAS,San Antonio,Boris Diaw,,,21:46,0.0,0.0,0.0,6.0,4.0,4.0,3.0,24.0,0.0,0.0,2.0,3.0
0021300932,1610612759,SAS,San Antonio,2564,Boris Diaw,,,21:46,117.3,123.9,-6.6,0.118,0.0,21.7,0.118,0.353,0.235,0.0,0.6,0.556,0.147,100.6,0.096,2014-03-08T00:00:00,4,1610612759,SAS,San Antonio,46-16,31,28,29,33,0,0,0,0,0,0,0,0,0,0,121,0.531,0.743,0.45,26,44,13,0021300932,1610612759,SAS,San Antonio,Boris Diaw,,,21:46,0.0,0.0,0.0,6.0,4.0,4.0,3.0,24.0,0.0,0.0,2.0,3.0
0021300932,1610612759,SAS,San Antonio,201158,Marco Belinelli,,,18:30,112.7,125.9,-13.3,0.133,0.0,50.0,0.0,0.188,0.094,0.0,0.0,0.0,0.049,97.92,0.035,2014-03-08T00:00:00,4,1610612753,ORL,Orlando,19-45,27,34,22,29,0,0,0,0,0,0,0,0,0,0,112,0.479,0.765,0.389,24,45,9,0021300932,1610612759,SAS,San Antonio,Marco Belinelli,,,18:30,0.0,0.0,0.0,0.0,6.0,6.0,6.0,22.0,0.0,0.0,0.0,0.0
0021300932,1610612759,SAS,San Antonio,201158,Marco Belinelli,,,18:30,112.7,125.9,-13.3,0.133,0.0,50.0,0.0,0.188,0.094,0.0,0.0,0.0,0.049,97.92,0.035,2014-03-08T00:00:00,4,1610612759,SAS,San Antonio,46-16,31,28,29,33,0,0,0,0,0,0,0,0,0,0,121,0.531,0.743,0.45,26,44,13,0021300932,1610612759,SAS,San Antonio,Marco Belinelli,,,18:30,0.0,0.0,0.0,0.0,6.0,6.0,6.0,22.0,0.0,0.0,0.0,0.0
0021300932,1610612759,SAS,San Antonio,203382,Aron Baynes,,,4:40,159.9,162.8,-3.0,0.25,1.0,34.7,0.0,0.0,0.0,34.7,0.0,1.136,0.239,89.07,0.038,2014-03-08T00:00:00,4,1610612753,ORL,Orlando,19-45,27,34,22,29,0,0,0,0,0,0,0,0,0,0,112,0.479,0.765,0.389,24,45,9,0021300932,1610612759,SAS,San Antonio,Aron Baynes,,,4:40,0.0,0.0,0.0,0.0,2.0,5.0,2.0,6.0,0.0,0.0,1.0,1.0
0021300932,1610612759,SAS,San Antonio,203382,Aron Baynes,,,4:40,159.9,162.8,-3.0,0.25,1.0,34.7,0.0,0.0,0.0,34.7,0.0,1.136,0.239,89.07,0.038,2014-03-08T00:00:00,4,1610612759,SAS,San Antonio,46-16,31,28,29,33,0,0,0,0,0,0,0,0,0,0,121,0.531,0.743,0.45,26,44,13,0021300932,1610612759,SAS,San Antonio,Aron Baynes,,,4:40,0.0,0.0,0.0,0.0,2.0,5.0,2.0,6.0,0.0,0.0,1.0,1.0
0021300932,1610612759,SAS,San Antonio,201988,Patty Mills,,,14:33,115.2,131.9,-16.7,0.0,0.0,0.0,0.0,0.0,0.0,14.3,0.25,0.25,0.228,97.25,-0.067,2014-03-08T00:00:00,4,1610612753,ORL,Orlando,19-45,27,34,22,29,0,0,0,0,0,0,0,0,0,0,112,0.479,0.765,0.389,24,45,9,0021300932,1610612759,SAS,San Antonio,Patty Mills,,,14:33,0.0,0.0,0.0,0.0,2.0,5.0,6.0,20.0,0.0,0.0,2.0,0.0
0021300932,1610612759,SAS,San Antonio,201988,Patty Mills,,,14:33,115.2,131.9,-16.7,0.0,0.0,0.0,0.0,0.0,0.0,14.3,0.25,0.25,0.228,97.25,-0.067,2014-03-08T00:00:00,4,1610612759,SAS,San Antonio,46-16,31,28,29,33,0,0,0,0,0,0,0,0,0,0,121,0.531,0.743,0.45,26,44,13,0021300932,1610612759,SAS,San Antonio,Patty Mills,,,14:33,0.0,0.0,0.0,0.0,2.0,5.0,6.0,20.0,0.0,0.0,2.0,0.0
0021300932,1610612759,SAS,San Antonio,202709,Cory Joseph,,,1:37,106.4,180.2,-73.8,0.0,0.0,0.0,0.0,0.0,0.0,0.0,0.0,0.0,0.0,93.82,-0.111,2014-03-08T00:00:00,4,1610612753,ORL,Orlando,19-45,27,34,22,29,0,0,0,0,0,0,0,0,0,0,112,0.479,0.765,0.389,24,45,9,0021300932,1610612759,SAS,San Antonio,Cory Joseph,,,1:37,0.0,0.0,0.0,0.0,0.0,3.0,2.0,4.0,0.0,0.0,1.0,0.0
0021300932,1610612759,SAS,San Antonio,202709,Cory Joseph,,,1:37,106.4,180.2,-73.8,0.0,0.0,0.0,0.0,0.0,0.0,0.0,0.0,0.0,0.0,93.82,-0.111,2014-03-08T00:00:00,4,1610612759,SAS,San Antonio,46-16,31,28,29,33,0,0,0,0,0,0,0,0,0,0,121,0.531,0.743,0.45,26,44,13,0021300932,1610612759,SAS,San Antonio,Cory Joseph,,,1:37,0.0,0.0,0.0,0.0,0.0,3.0,2.0,4.0,0.0,0.0,1.0,0.0
0021300932,1610612759,SAS,San Antonio,2588,Matt Bonner,,,1:37,106.4,180.2,-73.8,0.0,0.0,0.0,0.0,0.0,0.0,0.0,0.0,0.0,0.0,93.82,0.0,2014-03-08T00:00:00,4,1610612753,ORL,Orlando,19-45,27,34,22,29,0,0,0,0,0,0,0,0,0,0,112,0.479,0.765,0.389,24,45,9,0021300932,1610612759,SAS,San Antonio,Matt Bonner,,,1:37,0.0,0.0,0.0,0.0,0.0,3.0,2.0,4.0,0.0,0.0,0.0,0.0
0021300932,1610612759,SAS,San Antonio,2588,Matt Bonner,,,1:37,106.4,180.2,-73.8,0.0,0.0,0.0,0.0,0.0,0.0,0.0,0.0,0.0,0.0,93.82,0.0,2014-03-08T00:00:00,4,1610612759,SAS,San Antonio,46-16,31,28,29,33,0,0,0,0,0,0,0,0,0,0,121,0.531,0.743,0.45,26,44,13,0021300932,1610612759,SAS,San Antonio,Matt Bonner,,,1:37,0.0,0.0,0.0,0.0,0.0,3.0,2.0,4.0,0.0,0.0,0.0,0.0
0021300932,1610612759,SAS,San Antonio,201965,Jeff Ayres,,DNP - Coach's Decision,,,,,,,0.0,,,,,,,0.0,,,2014-03-08T00:00:00,4,1610612753,ORL,Orlando,19-45,27,34,22,29,0,0,0,0,0,0,0,0,0,0,112,0.479,0.765,0.389,24,45,9,0021300932,1610612759,SAS,San Antonio,Jeff Ayres,,DNP - Coach's Decision,,,,,,,,,,,,,
0021300932,1610612759,SAS,San Antonio,201965,Jeff Ayres,,DNP - Coach's Decision,,,,,,,0.0,,,,,,,0.0,,,2014-03-08T00:00:00,4,1610612759,SAS,San Antonio,46-16,31,28,29,33,0,0,0,0,0,0,0,0,0,0,121,0.531,0.743,0.45,26,44,13,0021300932,1610612759,SAS,San Antonio,Jeff Ayres,,DNP - Coach's Decision,,,,,,,,,,,,,
