GAME_ID_x,TEAM_ID_x,TEAM_ABBREVIATION_x,TEAM_CITY_x,PLAYER_ID,PLAYER_NAME_x,START_POSITION_x,COMMENT_x,MIN_x,OFF_RATING,DEF_RATING,NET_RATING,AST_PCT,AST_TOV,AST_RATIO,OREB_PCT,DREB_PCT,REB_PCT,TM_TOV_PCT,EFG_PCT,TS_PCT,USG_PCT,PACE,PIE,GAME_DATE_EST,GAME_SEQUENCE,TEAM_ABBREVIATION_y,TEAM_CITY_NAME,TEAM_WINS_LOSSES,PTS_QTR1,PTS_QTR2,PTS_QTR3,PTS_QTR4,PTS_OT1,PTS_OT2,PTS_OT3,PTS_OT4,PTS_OT5,PTS_OT6,PTS_OT7,PTS_OT8,PTS_OT9,PTS_OT10,PTS,FG_PCT,FT_PCT,FG3_PCT,AST,REB,TOV,GAME_ID_y,TEAM_ID_y,TEAM_ABBREVIATION,TEAM_CITY_y,PLAYER_NAME_y,START_POSITION_y,COMMENT_y,MIN_y,PTS_OFF_TOV,PTS_2ND_CHANCE,PTS_FB,PTS_PAINT,OPP_PTS_OFF_TOV,OPP_PTS_2ND_CHANCE,OPP_PTS_FB,OPP_PTS_PAINT,BLK,BLKA,PF,PFD
0021500050,1610612757,POR,Portland,202329,Al-Farouq Aminu,F,,32:24,106.9,85.3,21.6,0.048,0.0,7.2,0.111,0.182,0.15,0.0,0.667,0.66,0.173,101.27,0.153,2015-11-02T00:00:00,5,POR,Portland,2-2,21,32,30,23,0,0,0,0,0,0,0,0,0,0,106,0.461,0.75,0.3,18,46,16,0021500050,1610612757,POR,Portland,Al-Farouq Aminu,F,,32:24,0.0,2.0,4.0,8.0,11.0,4.0,8.0,28.0,1.0,0.0,5.0,2.0
0021500050,1610612757,POR,Portland,203086,Meyers Leonard,F,,23:52,98.0,101.5,-3.5,0.056,1.0,10.1,0.056,0.273,0.175,10.1,0.143,0.254,0.171,99.75,0.025,2015-11-02T00:00:00,5,POR,Portland,2-2,21,32,30,23,0,0,0,0,0,0,0,0,0,0,106,0.461,0.75,0.3,18,46,16,0021500050,1610612757,POR,Portland,Meyers Leonard,F,,23:52,0.0,0.0,0.0,0.0,6.0,4.0,7.0,24.0,1.0,0.0,3.0,2.0
0021500050,1610612757,POR,Portland,203486,Mason Plumlee,C,,27:40,100.5,84.2,16.3,0.105,0.33,14.4,0.045,0.111,0.082,43.2,0.8,0.765,0.181,104.34,0.066,2015-11-02T00:00:00,5,POR,Portland,2-2,21,32,30,23,0,0,0,0,0,0,0,0,0,0,106,0.461,0.75,0.3,18,46,16,0021500050,1610612757,POR,Portland,Mason Plumlee,C,,27:40,0.0,4.0,0.0,8.0,10.0,4.0,9.0,22.0,1.0,1.0,2.0,2.0
0021500050,1610612757,POR,Portland,203468,CJ McCollum,G,,35:56,101.7,80.3,21.4,0.174,1.0,14.9,0.0,0.162,0.088,14.9,0.444,0.477,0.267,102.0,0.106,2015-11-02T00:00:00,5,POR,Portland,2-2,21,32,30,23,0,0,0,0,0,0,0,0,0,0,106,0.461,0.75,0.3,18,46,16,0021500050,1610612757,POR,Portland,CJ McCollum,G,,35:56,5.0,3.0,0.0,2.0,13.0,2.0,13.0,32.0,1.0,0.0,4.0,3.0
0021500050,1610612757,POR,Portland,203081,Damian Lillard,G,,37:57,103.8,101.8,2.0,0.368,3.5,19.8,0.029,0.03,0.029,5.7,0.64,0.646,0.315,103.99,0.205,2015-11-02T00:00:00,5,POR,Portland,2-2,21,32,30,23,0,0,0,0,0,0,0,0,0,0,106,0.461,0.75,0.3,18,46,16,0021500050,1610612757,POR,Portland,Damian Lillard,G,,37:57,4.0,9.0,7.0,12.0,12.0,6.0,11.0,38.0,1.0,3.0,4.0,5.0
0021500050,1610612757,POR,Portland,203090,Maurice Harkless,,,17:15,101.6,126.9,-25.3,0.077,0.0,15.5,0.056,0.3,0.143,0.0,0.4,0.46,0.128,104.96,0.069,2015-11-02T00:00:00,5,POR,Portland,2-2,21,32,30,23,0,0,0,0,0,0,0,0,0,0,106,0.461,0.75,0.3,18,46,16,0021500050,1610612757,POR,Portland,Maurice Harkless,,,17:15,0.0,2.0,0.0,4.0,5.0,4.0,8.0,20.0,0.0,0.0,2.0,1.0
0021500050,1610612757,POR,Portland,203459,Allen Crabbe,,,25:29,91.5,104.8,-13.3,0.059,1.0,8.3,0.0,0.0,0.0,8.3,0.35,0.35,0.175,105.67,0.012,2015-11-02T00:00:00,5,POR,Portland,2-2,21,32,30,23,0,0,0,0,0,0,0,0,0,0,106,0.461,0.75,0.3,18,46,16,0021500050,1610612757,POR,Portland,Allen Crabbe,,,25:29,2.0,0.0,2.0,2.0,9.0,2.0,10.0,28.0,0.0,0.0,0.0,1.0
0021500050,1610612757,POR,Portland,202334,Ed Davis,,,20:20,106.8,117.4,-10.6,0.063,0.0,14.8,0.182,0.438,0.289,0.0,0.5,0.608,0.12,101.13,0.14,2015-11-02T00:00:00,5,POR,Portland,2-2,21,32,30,23,0,0,0,0,0,0,0,0,0,0,106,0.461,0.75,0.3,18,46,16,0021500050,1610612757,POR,Portland,Ed Davis,,,20:20,0.0,4.0,0.0,4.0,6.0,2.0,7.0,26.0,1.0,0.0,4.0,3.0
0021500050,1610612757,POR,Portland,203943,Noah Vonleh,,,19:07,121.5,104.5,17.1,0.0,0.0,0.0,0.0,0.176,0.083,29.6,0.333,0.525,0.141,104.35,0.0,2015-11-02T00:00:00,5,POR,Portland,2-2,21,32,30,23,0,0,0,0,0,0,0,0,0,0,106,0.461,0.75,0.3,18,46,16,0021500050,1610612757,POR,Portland,Noah Vonleh,,,19:07,0.0,0.0,0.0,2.0,8.0,2.0,7.0,22.0,0.0,0.0,3.0,3.0
0021500050,1610612757,POR,Portland,1626192,Pat Connaughton,,DNP - Coach's Decision                  ,,,,,,,0.0,,,,,,,0.0,,,2015-11-02T00:00:00,5,POR,Portland,2-2,21,32,30,23,0,0,0,0,0,0,0,0,0,0,106,0.461,0.75,0.3,18,46,16,0021500050,1610612757,POR,Portland,Pat Connaughton,,DNP - Coach's Decision                  ,,,,,,,,,,,,,
0021500050,1610612757,POR,Portland,204025,Tim Frazier,,DNP - Coach's Decision                  ,,,,,,,0.0,,,,,,,0.0,,,2015-11-02T00:00:00,5,POR,Portland,2-2,21,32,30,23,0,0,0,0,0,0,0,0,0,0,106,0.461,0.75,0.3,18,46,16,0021500050,1610612757,POR,Portland,Tim Frazier,,DNP - Coach's Decision                  ,,,,,,,,,,,,,
0021500050,1610612757,POR,Portland,2549,Chris Kaman,,DNP - Coach's Decision                  ,,,,,,,0.0,,,,,,,0.0,,,2015-11-02T00:00:00,5,POR,Portland,2-2,21,32,30,23,0,0,0,0,0,0,0,0,0,0,106,0.461,0.75,0.3,18,46,16,0021500050,1610612757,POR,Portland,Chris Kaman,,DNP - Coach's Decision                  ,,,,,,,,,,,,,
0021500050,1610612757,POR,Portland,1626242,Luis Montero,,DNP - Coach's Decision                  ,,,,,,,0.0,,,,,,,0.0,,,2015-11-02T00:00:00,5,POR,Portland,2-2,21,32,30,23,0,0,0,0,0,0,0,0,0,0,106,0.461,0.75,0.3,18,46,16,0021500050,1610612757,POR,Portland,Luis Montero,,DNP - Coach's Decision                  ,,,,,,,,,,,,,
0021500050,1610612750,MIN,Minnesota,2419,Tayshaun Prince,F,,20:12,105.9,105.0,1.0,0.0,0.0,0.0,0.0,0.0,0.0,0.0,0.0,0.258,0.087,99.14,0.015,2015-11-02T00:00:00,5,MIN,Minnesota,2-1,34,19,27,21,0,0,0,0,0,0,0,0,0,0,101,0.43,0.769,0.231,22,41,15,0021500050,1610612750,MIN,Minnesota,Tayshaun Prince,F,,20:12,0.0,0.0,0.0,0.0,4.0,8.0,2.0,22.0,0.0,0.0,0.0,1.0
0021500050,1610612750,MIN,Minnesota,708,Kevin Garnett,F,,16:35,69.8,94.7,-24.9,0.125,0.0,20.5,0.0,0.077,0.034,0.0,0.0,0.0,0.108,105.36,-0.053,2015-11-02T00:00:00,5,MIN,Minnesota,2-1,34,19,27,21,0,0,0,0,0,0,0,0,0,0,101,0.43,0.769,0.231,22,41,15,0021500050,1610612750,MIN,Minnesota,Kevin Garnett,F,,16:35,0.0,0.0,0.0,0.0,2.0,8.0,3.0,14.0,0.0,0.0,0.0,1.0
0021500050,1610612750,MIN,Minnesota,1626157,Karl-Anthony Towns,C,,26:56,84.4,98.5,-14.1,0.0,0.0,0.0,0.038,0.182,0.104,30.8,0.611,0.611,0.199,104.51,0.065,2015-11-02T00:00:00,5,MIN,Minnesota,2-1,34,19,27,21,0,0,0,0,0,0,0,0,0,0,101,0.43,0.769,0.231,22,41,15,0021500050,1610612750,MIN,Minnesota,Karl-Anthony Towns,C,,26:56,0.0,0.0,0.0,8.0,6.0,12.0,9.0,24.0,4.0,1.0,5.0,1.0
0021500050,1610612750,MIN,Minnesota,203952,Andrew Wiggins,G,,23:25,80.0,92.6,-12.6,0.333,1.0,11.5,0.12,0.15,0.133,11.5,0.294,0.398,0.402,106.92,0.102,2015-11-02T00:00:00,5,MIN,Minnesota,2-1,34,19,27,21,0,0,0,0,0,0,0,0,0,0,101,0.43,0.769,0.231,22,41,15,0021500050,1610612750,MIN,Minnesota,Andrew Wiggins,G,,23:25,5.0,2.0,2.0,10.0,6.0,8.0,9.0,22.0,0.0,2.0,2.0,5.0
0021500050,1610612750,MIN,Minnesota,201937,Ricky Rubio,G,,31:57,91.1,90.2,0.9,0.529,9.0,41.4,0.0,0.333,0.155,4.6,0.4,0.51,0.167,105.2,0.247,2015-11-02T00:00:00,5,MIN,Minnesota,2-1,34,19,27,21,0,0,0,0,0,0,0,0,0,0,101,0.43,0.769,0.231,22,41,15,0021500050,1610612750,MIN,Minnesota,Ricky Rubio,G,,31:57,4.0,0.0,4.0,2.0,6.0,12.0,9.0,28.0,0.0,1.0,4.0,5.0
0021500050,1610612750,MIN,Minnesota,2755,Kevin Martin,,,35:01,99.2,101.7,-2.5,0.056,0.33,4.8,0.0,0.056,0.029,14.4,0.667,0.713,0.24,104.43,0.114,2015-11-02T00:00:00,5,MIN,Minnesota,2-1,34,19,27,21,0,0,0,0,0,0,0,0,0,0,101,0.43,0.769,0.231,22,41,15,0021500050,1610612750,MIN,Minnesota,Kevin Martin,,,35:01,4.0,2.0,7.0,8.0,7.0,20.0,11.0,26.0,0.0,1.0,3.0,5.0
0021500050,1610612750,MIN,Minnesota,202357,Nemanja Bjelica,,,31:25,112.9,107.8,5.1,0.083,1.0,22.5,0.111,0.194,0.155,22.5,0.5,0.512,0.091,101.72,0.063,2015-11-02T00:00:00,5,MIN,Minnesota,2-1,34,19,27,21,0,0,0,0,0,0,0,0,0,0,101,0.43,0.769,0.231,22,41,15,0021500050,1610612750,MIN,Minnesota,Nemanja Bjelica,,,31:25,0.0,0.0,0.0,2.0,9.0,16.0,10.0,28.0,0.0,0.0,4.0,2.0
0021500050,1610612750,MIN,Minnesota,203476,Gorgui Dieng,,,21:06,117.0,108.8,8.3,0.077,0.0,9.6,0.059,0.174,0.125,0.0,0.667,0.636,0.206,100.86,0.129,2015-11-02T00:00:00,5,MIN,Minnesota,2-1,34,19,27,21,0,0,0,0,0,0,0,0,0,0,101,0.43,0.769,0.231,22,41,15,0021500050,1610612750,MIN,Minnesota,Gorgui Dieng,,,21:06,0.0,2.0,0.0,10.0,5.0,12.0,4.0,18.0,0.0,0.0,2.0,1.0
0021500050,1610612750,MIN,Minnesota,203897,Zach LaVine,,,16:01,113.1,129.1,-16.0,0.5,2.5,31.7,0.0,0.0,0.0,12.7,0.429,0.571,0.309,98.78,0.119,2015-11-02T00:00:00,5,MIN,Minnesota,2-1,34,19,27,21,0,0,0,0,0,0,0,0,0,0,101,0.43,0.769,0.231,22,41,15,0021500050,1610612750,MIN,Minnesota,Zach LaVine,,,16:01,0.0,0.0,2.0,4.0,5.0,12.0,4.0,14.0,0.0,1.0,1.0,3.0
0021500050,1610612750,MIN,Minnesota,203498,Shabazz Muhammad,,,17:22,112.3,118.7,-6.3,0.0,0.0,0.0,0.0,0.222,0.125,0.0,0.4,0.589,0.203,99.22,0.129,2015-11-02T00:00:00,5,MIN,Minnesota,2-1,34,19,27,21,0,0,0,0,0,0,0,0,0,0,101,0.43,0.769,0.231,22,41,15,0021500050,1610612750,MIN,Minnesota,Shabazz Muhammad,,,17:22,3.0,0.0,1.0,4.0,5.0,12.0,4.0,14.0,0.0,0.0,1.0,3.0
0021500050,1610612750,MIN,Minnesota,1889,Andre Miller,,DNP - Coach's Decision                  ,,,,,,,0.0,,,,,,,0.0,,,2015-11-02T00:00:00,5,MIN,Minnesota,2-1,34,19,27,21,0,0,0,0,0,0,0,0,0,0,101,0.43,0.769,0.231,22,41,15,0021500050,1610612750,MIN,Minnesota,Andre Miller,,DNP - Coach's Decision                  ,,,,,,,,,,,,,
0021500050,1610612750,MIN,Minnesota,203940,Adreian Payne,,DNP - Coach's Decision                  ,,,,,,,0.0,,,,,,,0.0,,,2015-11-02T00:00:00,5,MIN,Minnesota,2-1,34,19,27,21,0,0,0,0,0,0,0,0,0,0,101,0.43,0.769,0.231,22,41,15,0021500050,1610612750,MIN,Minnesota,Adreian Payne,,DNP - Coach's Decision                  ,,,,,,,,,,,,,
0021500050,1610612750,MIN,Minnesota,204014,Damjan Rudez,,DNP - Coach's Decision                  ,,,,,,,0.0,,,,,,,0.0,,,2015-11-02T00:00:00,5,MIN,Minnesota,2-1,34,19,27,21,0,0,0,0,0,0,0,0,0,0,101,0.43,0.769,0.231,22,41,15,0021500050,1610612750,MIN,Minnesota,Damjan Rudez,,DNP - Coach's Decision                  ,,,,,,,,,,,,,
