GAME_ID_x,TEAM_ID_x,TEAM_ABBREVIATION_x,TEAM_CITY_x,PLAYER_ID,PLAYER_NAME_x,START_POSITION_x,COMMENT_x,MIN_x,OFF_RATING,DEF_RATING,NET_RATING,AST_PCT,AST_TOV,AST_RATIO,OREB_PCT,DREB_PCT,REB_PCT,TM_TOV_PCT,EFG_PCT,TS_PCT,USG_PCT,PACE,PIE,GAME_DATE_EST,GAME_SEQUENCE,TEAM_ABBREVIATION_y,TEAM_CITY_NAME,TEAM_WINS_LOSSES,PTS_QTR1,PTS_QTR2,PTS_QTR3,PTS_QTR4,PTS_OT1,PTS_OT2,PTS_OT3,PTS_OT4,PTS_OT5,PTS_OT6,PTS_OT7,PTS_OT8,PTS_OT9,PTS_OT10,PTS,FG_PCT,FT_PCT,FG3_PCT,AST,REB,TOV,GAME_ID_y,TEAM_ID_y,TEAM_ABBREVIATION,TEAM_CITY_y,PLAYER_NAME_y,START_POSITION_y,COMMENT_y,MIN_y,PTS_OFF_TOV,PTS_2ND_CHANCE,PTS_FB,PTS_PAINT,OPP_PTS_OFF_TOV,OPP_PTS_2ND_CHANCE,OPP_PTS_FB,OPP_PTS_PAINT,BLK,BLKA,PF,PFD
0021500055,1610612737,ATL,Atlanta,203145,Kent Bazemore,F,,32:27,94.4,105.3,-10.9,0.158,1.5,23.1,0.0,0.167,0.079,15.4,0.625,0.625,0.13,100.73,0.107,2015-11-03T00:00:00,3,ATL,Atlanta,4-1,25,26,28,19,0,0,0,0,0,0,0,0,0,0,98,0.411,0.773,0.333,25,51,15,0021500055,1610612737,ATL,Atlanta,Kent Bazemore,F,,32:27,8.0,0.0,7.0,4.0,14.0,18.0,9.0,42.0,0.0,0.0,1.0,0.0
0021500055,1610612737,ATL,Atlanta,200794,Paul Millsap,F,,35:34,102.2,101.1,1.1,0.125,3.0,15.4,0.108,0.188,0.145,5.1,0.333,0.387,0.194,100.89,0.08,2015-11-03T00:00:00,3,ATL,Atlanta,4-1,25,26,28,19,0,0,0,0,0,0,0,0,0,0,98,0.411,0.773,0.333,25,51,15,0021500055,1610612737,ATL,Atlanta,Paul Millsap,F,,35:34,4.0,1.0,0.0,6.0,12.0,16.0,9.0,42.0,1.0,0.0,3.0,8.0
0021500055,1610612737,ATL,Atlanta,201143,Al Horford,C,,33:44,102.9,92.4,10.5,0.095,2.0,9.8,0.189,0.188,0.188,4.9,0.471,0.487,0.225,96.74,0.159,2015-11-03T00:00:00,3,ATL,Atlanta,4-1,25,26,28,19,0,0,0,0,0,0,0,0,0,0,98,0.411,0.773,0.333,25,51,15,0021500055,1610612737,ATL,Atlanta,Al Horford,C,,33:44,0.0,6.0,0.0,14.0,8.0,12.0,5.0,26.0,0.0,1.0,1.0,1.0
0021500055,1610612737,ATL,Atlanta,2594,Kyle Korver,G,,34:29,105.9,90.5,15.4,0.115,1.0,17.6,0.0,0.086,0.041,17.6,0.409,0.409,0.167,98.51,0.041,2015-11-03T00:00:00,3,ATL,Atlanta,4-1,25,26,28,19,0,0,0,0,0,0,0,0,0,0,98,0.411,0.773,0.333,25,51,15,0021500055,1610612737,ATL,Atlanta,Kyle Korver,G,,34:29,3.0,4.0,0.0,2.0,8.0,13.0,7.0,38.0,0.0,1.0,1.0,0.0
0021500055,1610612737,ATL,Atlanta,201952,Jeff Teague,G,,34:23,111.9,88.4,23.5,0.375,3.0,27.2,0.053,0.114,0.082,9.1,0.556,0.617,0.282,100.11,0.193,2015-11-03T00:00:00,3,ATL,Atlanta,4-1,25,26,28,19,0,0,0,0,0,0,0,0,0,0,98,0.411,0.773,0.333,25,51,15,0021500055,1610612737,ATL,Atlanta,Jeff Teague,G,,34:23,3.0,2.0,0.0,14.0,8.0,12.0,5.0,30.0,0.0,2.0,3.0,6.0
0021500055,1610612737,ATL,Atlanta,201168,Tiago Splitter,,,20:30,92.3,93.5,-1.2,0.091,0.0,12.7,0.083,0.263,0.163,0.0,0.333,0.436,0.14,98.26,0.13,2015-11-03T00:00:00,3,ATL,Atlanta,4-1,25,26,28,19,0,0,0,0,0,0,0,0,0,0,98,0.411,0.773,0.333,25,51,15,0021500055,1610612737,ATL,Atlanta,Tiago Splitter,,,20:30,0.0,2.0,0.0,4.0,6.0,6.0,8.0,26.0,0.0,4.0,2.0,1.0
0021500055,1610612737,ATL,Atlanta,203471,Dennis Schroder,,,16:01,67.1,97.4,-30.3,0.6,0.75,21.6,0.0,0.118,0.061,28.8,0.167,0.291,0.308,97.63,0.0,2015-11-03T00:00:00,3,ATL,Atlanta,4-1,25,26,28,19,0,0,0,0,0,0,0,0,0,0,98,0.411,0.773,0.333,25,51,15,0021500055,1610612737,ATL,Atlanta,Dennis Schroder,,,16:01,0.0,0.0,0.0,2.0,6.0,11.0,7.0,22.0,0.0,1.0,1.0,2.0
0021500055,1610612737,ATL,Atlanta,203934,Lamar Patterson,,,8:01,89.1,94.8,-5.7,0.0,0.0,0.0,0.0,0.0,0.0,0.0,0.0,0.0,0.0,104.3,0.0,2015-11-03T00:00:00,3,ATL,Atlanta,4-1,25,26,28,19,0,0,0,0,0,0,0,0,0,0,98,0.411,0.773,0.333,25,51,15,0021500055,1610612737,ATL,Atlanta,Lamar Patterson,,,8:01,0.0,0.0,0.0,0.0,4.0,4.0,5.0,10.0,0.0,0.0,0.0,0.0
0021500055,1610612737,ATL,Atlanta,203118,Mike Scott,,,12:01,86.9,69.9,17.0,0.0,0.0,0.0,0.067,0.133,0.1,0.0,0.5,0.595,0.194,96.27,0.208,2015-11-03T00:00:00,3,ATL,Atlanta,4-1,25,26,28,19,0,0,0,0,0,0,0,0,0,0,98,0.411,0.773,0.333,25,51,15,0021500055,1610612737,ATL,Atlanta,Mike Scott,,,12:01,2.0,2.0,0.0,2.0,2.0,4.0,3.0,10.0,0.0,0.0,1.0,1.0
0021500055,1610612737,ATL,Atlanta,203200,Justin Holiday,,,12:49,90.8,70.6,20.2,0.143,1.0,11.1,0.0,0.125,0.069,11.1,0.5,0.5,0.272,102.5,0.152,2015-11-03T00:00:00,3,ATL,Atlanta,4-1,25,26,28,19,0,0,0,0,0,0,0,0,0,0,98,0.411,0.773,0.333,25,51,15,0021500055,1610612737,ATL,Atlanta,Justin Holiday,,,12:49,2.0,0.0,4.0,4.0,2.0,4.0,2.0,14.0,0.0,0.0,1.0,2.0
0021500055,1610612737,ATL,Atlanta,203501,Tim Hardaway Jr.,,DNP - Coach's Decision                  ,,,,,,,0.0,,,,,,,0.0,,,2015-11-03T00:00:00,3,ATL,Atlanta,4-1,25,26,28,19,0,0,0,0,0,0,0,0,0,0,98,0.411,0.773,0.333,25,51,15,0021500055,1610612737,ATL,Atlanta,Tim Hardaway Jr.,,DNP - Coach's Decision                  ,,,,,,,,,,,,,
0021500055,1610612737,ATL,Atlanta,202714,Shelvin Mack,,DNP - Coach's Decision                  ,,,,,,,0.0,,,,,,,0.0,,,2015-11-03T00:00:00,3,ATL,Atlanta,4-1,25,26,28,19,0,0,0,0,0,0,0,0,0,0,98,0.411,0.773,0.333,25,51,15,0021500055,1610612737,ATL,Atlanta,Shelvin Mack,,DNP - Coach's Decision                  ,,,,,,,,,,,,,
0021500055,1610612737,ATL,Atlanta,203488,Mike Muscala,,DNP - Coach's Decision                  ,,,,,,,0.0,,,,,,,0.0,,,2015-11-03T00:00:00,3,ATL,Atlanta,4-1,25,26,28,19,0,0,0,0,0,0,0,0,0,0,98,0.411,0.773,0.333,25,51,15,0021500055,1610612737,ATL,Atlanta,Mike Muscala,,DNP - Coach's Decision                  ,,,,,,,,,,,,,
0021500055,1610612748,MIA,Miami,2736,Luol Deng,F,,25:04,105.2,115.4,-10.2,0.053,0.0,10.0,0.0,0.077,0.04,0.0,0.222,0.222,0.157,96.4,-0.005,2015-11-03T00:00:00,3,MIA,Miami,2-2,24,16,25,27,0,0,0,0,0,0,0,0,0,0,92,0.442,0.688,0.179,13,49,18,0021500055,1610612748,MIA,Miami,Luol Deng,F,,25:04,4.0,0.0,2.0,4.0,13.0,11.0,7.0,28.0,1.0,0.0,1.0,0.0
0021500055,1610612748,MIA,Miami,2547,Chris Bosh,F,,39:14,87.4,92.1,-4.8,0.077,0.0,12.5,0.048,0.273,0.163,0.0,0.321,0.321,0.15,100.18,0.119,2015-11-03T00:00:00,3,MIA,Miami,2-2,24,16,25,27,0,0,0,0,0,0,0,0,0,0,92,0.442,0.688,0.179,13,49,18,0021500055,1610612748,MIA,Miami,Chris Bosh,F,,39:14,0.0,4.0,3.0,6.0,15.0,11.0,7.0,38.0,2.0,0.0,4.0,1.0
0021500055,1610612748,MIA,Miami,202355,Hassan Whiteside,C,,31:02,111.1,114.2,-3.1,0.0,0.0,0.0,0.185,0.265,0.23,18.9,0.917,0.893,0.233,94.72,0.245,2015-11-03T00:00:00,3,MIA,Miami,2-2,24,16,25,27,0,0,0,0,0,0,0,0,0,0,92,0.442,0.688,0.179,13,49,18,0021500055,1610612748,MIA,Miami,Hassan Whiteside,C,,31:02,4.0,7.0,0.0,18.0,19.0,13.0,9.0,42.0,4.0,0.0,0.0,2.0
0021500055,1610612748,MIA,Miami,2548,Dwyane Wade,G,,27:09,106.9,116.7,-9.8,0.2,0.75,12.2,0.038,0.0,0.018,16.2,0.567,0.595,0.347,96.46,0.1,2015-11-03T00:00:00,3,MIA,Miami,2-2,24,16,25,27,0,0,0,0,0,0,0,0,0,0,92,0.442,0.688,0.179,13,49,18,0021500055,1610612748,MIA,Miami,Dwyane Wade,G,,27:09,0.0,5.0,3.0,8.0,17.0,13.0,7.0,36.0,1.0,0.0,1.0,5.0
0021500055,1610612748,MIA,Miami,201609,Goran Dragic,G,,32:10,107.1,105.9,1.2,0.087,0.5,10.7,0.069,0.083,0.077,21.3,0.682,0.745,0.223,98.07,0.137,2015-11-03T00:00:00,3,MIA,Miami,2-2,24,16,25,27,0,0,0,0,0,0,0,0,0,0,92,0.442,0.688,0.179,13,49,18,0021500055,1610612748,MIA,Miami,Goran Dragic,G,,32:10,4.0,2.0,2.0,4.0,19.0,13.0,9.0,42.0,1.0,0.0,2.0,2.0
0021500055,1610612748,MIA,Miami,201177,Josh McRoberts,,,10:24,64.0,92.4,-28.4,0.167,0.0,33.3,0.0,0.2,0.083,0.0,0.0,0.0,0.084,100.51,-0.16,2015-11-03T00:00:00,3,MIA,Miami,2-2,24,16,25,27,0,0,0,0,0,0,0,0,0,0,92,0.442,0.688,0.179,13,49,18,0021500055,1610612748,MIA,Miami,Josh McRoberts,,,10:24,0.0,0.0,0.0,0.0,3.0,2.0,4.0,12.0,0.0,0.0,5.0,0.0
0021500055,1610612748,MIA,Miami,201596,Mario Chalmers,,,21:43,86.9,88.5,-1.6,0.167,3.0,23.1,0.0,0.043,0.02,7.7,0.111,0.111,0.185,105.87,-0.082,2015-11-03T00:00:00,3,MIA,Miami,2-2,24,16,25,27,0,0,0,0,0,0,0,0,0,0,92,0.442,0.688,0.179,13,49,18,0021500055,1610612748,MIA,Miami,Mario Chalmers,,,21:43,0.0,0.0,2.0,2.0,7.0,6.0,4.0,22.0,0.0,1.0,4.0,1.0
0021500055,1610612748,MIA,Miami,204020,Tyler Johnson,,,20:36,65.6,79.3,-13.7,0.111,1.0,11.3,0.043,0.048,0.045,11.3,0.5,0.509,0.157,104.39,0.136,2015-11-03T00:00:00,3,MIA,Miami,2-2,24,16,25,27,0,0,0,0,0,0,0,0,0,0,92,0.442,0.688,0.179,13,49,18,0021500055,1610612748,MIA,Miami,Tyler Johnson,,,20:36,2.0,0.0,0.0,4.0,5.0,4.0,4.0,16.0,0.0,0.0,1.0,1.0
0021500055,1610612748,MIA,Miami,1626159,Justise Winslow,,,22:30,75.8,87.1,-11.3,0.0,0.0,0.0,0.045,0.115,0.083,30.0,0.286,0.286,0.194,100.91,-0.044,2015-11-03T00:00:00,3,MIA,Miami,2-2,24,16,25,27,0,0,0,0,0,0,0,0,0,0,92,0.442,0.688,0.179,13,49,18,0021500055,1610612748,MIA,Miami,Justise Winslow,,,22:30,0.0,0.0,0.0,4.0,9.0,10.0,4.0,22.0,0.0,0.0,2.0,0.0
0021500055,1610612748,MIA,Miami,2365,Chris Andersen,,,10:09,91.4,57.8,33.6,0.0,0.0,0.0,0.167,0.273,0.235,51.5,1.0,0.798,0.162,100.82,0.122,2015-11-03T00:00:00,3,MIA,Miami,2-2,24,16,25,27,0,0,0,0,0,0,0,0,0,0,92,0.442,0.688,0.179,13,49,18,0021500055,1610612748,MIA,Miami,Chris Andersen,,,10:09,0.0,2.0,0.0,2.0,3.0,2.0,0.0,2.0,0.0,0.0,1.0,2.0
0021500055,1610612748,MIA,Miami,203516,James Ennis III,,DNP - Coach's Decision                  ,,,,,,,0.0,,,,,,,0.0,,,2015-11-03T00:00:00,3,MIA,Miami,2-2,24,16,25,27,0,0,0,0,0,0,0,0,0,0,92,0.442,0.688,0.179,13,49,18,0021500055,1610612748,MIA,Miami,James Ennis III,,DNP - Coach's Decision                  ,,,,,,,,,,,,,
0021500055,1610612748,MIA,Miami,2617,Udonis Haslem,,DNP - Coach's Decision                  ,,,,,,,0.0,,,,,,,0.0,,,2015-11-03T00:00:00,3,MIA,Miami,2-2,24,16,25,27,0,0,0,0,0,0,0,0,0,0,92,0.442,0.688,0.179,13,49,18,0021500055,1610612748,MIA,Miami,Udonis Haslem,,DNP - Coach's Decision                  ,,,,,,,,,,,,,
0021500055,1610612748,MIA,Miami,1626196,Josh Richardson,,DNP - Coach's Decision                  ,,,,,,,0.0,,,,,,,0.0,,,2015-11-03T00:00:00,3,MIA,Miami,2-2,24,16,25,27,0,0,0,0,0,0,0,0,0,0,92,0.442,0.688,0.179,13,49,18,0021500055,1610612748,MIA,Miami,Josh Richardson,,DNP - Coach's Decision                  ,,,,,,,,,,,,,
