GAME_ID_x,TEAM_ID_x,TEAM_ABBREVIATION_x,TEAM_CITY_x,PLAYER_ID,PLAYER_NAME_x,START_POSITION_x,COMMENT_x,MIN_x,OFF_RATING,DEF_RATING,NET_RATING,AST_PCT,AST_TOV,AST_RATIO,OREB_PCT,DREB_PCT,REB_PCT,TM_TOV_PCT,EFG_PCT,TS_PCT,USG_PCT,PACE,PIE,GAME_DATE_EST,GAME_SEQUENCE,TEAM_ABBREVIATION_y,TEAM_CITY_NAME,TEAM_WINS_LOSSES,PTS_QTR1,PTS_QTR2,PTS_QTR3,PTS_QTR4,PTS_OT1,PTS_OT2,PTS_OT3,PTS_OT4,PTS_OT5,PTS_OT6,PTS_OT7,PTS_OT8,PTS_OT9,PTS_OT10,PTS,FG_PCT,FT_PCT,FG3_PCT,AST,REB,TOV,GAME_ID_y,TEAM_ID_y,TEAM_ABBREVIATION,TEAM_CITY_y,PLAYER_NAME_y,START_POSITION_y,COMMENT_y,MIN_y,PTS_OFF_TOV,PTS_2ND_CHANCE,PTS_FB,PTS_PAINT,OPP_PTS_OFF_TOV,OPP_PTS_2ND_CHANCE,OPP_PTS_FB,OPP_PTS_PAINT,BLK,BLKA,PF,PFD
0021500060,1610612738,BOS,Boston,203109,Jae Crowder,F,,32:55,114.1,113.2,0.9,0.05,0.5,8.7,0.0,0.162,0.09,17.4,0.7,0.704,0.147,94.34,0.104,2015-11-04T00:00:00,1,BOS,Boston,1-3,16,27,29,26,0,0,0,0,0,0,0,0,0,0,98,0.422,0.818,0.37,20,49,19,0021500060,1610612738,BOS,Boston,Jae Crowder,F,,32:55,1.0,3.0,1.0,4.0,13.0,20.0,2.0,18.0,0.0,0.0,1.0,5.0
0021500060,1610612738,BOS,Boston,101161,Amir Johnson,F,,20:36,98.1,101.4,-3.3,0.083,0.5,17.0,0.0,0.133,0.082,34.0,0.0,0.347,0.114,93.31,0.0,2015-11-04T00:00:00,1,BOS,Boston,1-3,16,27,29,26,0,0,0,0,0,0,0,0,0,0,98,0.422,0.818,0.37,20,49,19,0021500060,1610612738,BOS,Boston,Amir Johnson,F,,20:36,0.0,0.0,2.0,0.0,8.0,15.0,2.0,10.0,0.0,0.0,3.0,1.0
0021500060,1610612738,BOS,Boston,203096,Jared Sullinger,C,,27:18,118.1,110.1,8.0,0.118,2.0,14.4,0.222,0.161,0.19,7.2,0.35,0.414,0.191,95.61,0.105,2015-11-04T00:00:00,1,BOS,Boston,1-3,16,27,29,26,0,0,0,0,0,0,0,0,0,0,98,0.422,0.818,0.37,20,49,19,0021500060,1610612738,BOS,Boston,Jared Sullinger,C,,27:18,2.0,4.0,0.0,4.0,9.0,18.0,2.0,16.0,2.0,0.0,3.0,1.0
0021500060,1610612738,BOS,Boston,202340,Avery Bradley,G,,35:26,102.2,111.2,-9.0,0.188,1.5,13.7,0.054,0.079,0.067,9.1,0.594,0.622,0.241,93.9,0.131,2015-11-04T00:00:00,1,BOS,Boston,1-3,16,27,29,26,0,0,0,0,0,0,0,0,0,0,98,0.422,0.818,0.37,20,49,19,0021500060,1610612738,BOS,Boston,Avery Bradley,G,,35:26,2.0,0.0,3.0,2.0,11.0,24.0,2.0,22.0,0.0,0.0,3.0,2.0
0021500060,1610612738,BOS,Boston,202738,Isaiah Thomas,G,,35:46,109.2,109.5,-0.3,0.389,1.4,21.1,0.029,0.0,0.014,15.1,0.579,0.637,0.307,97.52,0.162,2015-11-04T00:00:00,1,BOS,Boston,1-3,16,27,29,26,0,0,0,0,0,0,0,0,0,0,98,0.422,0.818,0.37,20,49,19,0021500060,1610612738,BOS,Boston,Isaiah Thomas,G,,35:46,12.0,3.0,8.0,8.0,21.0,18.0,4.0,20.0,0.0,0.0,1.0,7.0
0021500060,1610612738,BOS,Boston,203482,Kelly Olynyk,,,10:32,67.3,88.3,-20.9,0.0,0.0,0.0,0.071,0.067,0.069,16.7,0.0,0.0,0.216,103.23,-0.237,2015-11-04T00:00:00,1,BOS,Boston,1-3,16,27,29,26,0,0,0,0,0,0,0,0,0,0,98,0.422,0.818,0.37,20,49,19,0021500060,1610612738,BOS,Boston,Kelly Olynyk,,,10:32,0.0,0.0,0.0,0.0,6.0,7.0,0.0,4.0,2.0,1.0,1.0,0.0
0021500060,1610612738,BOS,Boston,1626179,Terry Rozier,,,6:09,50.0,54.9,-4.9,0.0,0.0,0.0,0.111,0.4,0.263,33.3,0.0,0.0,0.353,104.43,-0.833,2015-11-04T00:00:00,1,BOS,Boston,1-3,16,27,29,26,0,0,0,0,0,0,0,0,0,0,98,0.422,0.818,0.37,20,49,19,0021500060,1610612738,BOS,Boston,Terry Rozier,,,6:09,0.0,0.0,0.0,0.0,1.0,2.0,0.0,2.0,0.0,0.0,1.0,1.0
0021500060,1610612738,BOS,Boston,203092,Tyler Zeller,,,3:29,62.5,85.7,-23.2,0.5,0.0,33.3,0.2,0.0,0.1,0.0,0.0,0.0,0.222,103.35,-0.056,2015-11-04T00:00:00,1,BOS,Boston,1-3,16,27,29,26,0,0,0,0,0,0,0,0,0,0,98,0.422,0.818,0.37,20,49,19,0021500060,1610612738,BOS,Boston,Tyler Zeller,,,3:29,0.0,0.0,0.0,0.0,0.0,2.0,0.0,2.0,0.0,0.0,0.0,0.0
0021500060,1610612738,BOS,Boston,202323,Evan Turner,,,21:23,88.2,96.8,-8.6,0.333,4.0,26.7,0.0,0.19,0.091,6.7,0.55,0.55,0.207,97.14,0.266,2015-11-04T00:00:00,1,BOS,Boston,1-3,16,27,29,26,0,0,0,0,0,0,0,0,0,0,98,0.422,0.818,0.37,20,49,19,0021500060,1610612738,BOS,Boston,Evan Turner,,,21:23,3.0,0.0,0.0,2.0,11.0,6.0,2.0,12.0,1.0,0.0,1.0,0.0
0021500060,1610612738,BOS,Boston,201973,Jonas Jerebko,,,15:32,95.8,98.1,-2.3,0.0,0.0,0.0,0.083,0.167,0.133,33.3,1.0,1.0,0.083,97.19,0.125,2015-11-04T00:00:00,1,BOS,Boston,1-3,16,27,29,26,0,0,0,0,0,0,0,0,0,0,98,0.422,0.818,0.37,20,49,19,0021500060,1610612738,BOS,Boston,Jonas Jerebko,,,15:32,0.0,0.0,0.0,2.0,9.0,4.0,2.0,8.0,0.0,0.0,2.0,1.0
0021500060,1610612738,BOS,Boston,101135,David Lee,,,18:12,107.0,98.4,8.6,0.077,1.0,10.7,0.133,0.222,0.182,10.7,0.667,0.683,0.192,98.79,0.179,2015-11-04T00:00:00,1,BOS,Boston,1-3,16,27,29,26,0,0,0,0,0,0,0,0,0,0,98,0.422,0.818,0.37,20,49,19,0021500060,1610612738,BOS,Boston,David Lee,,,18:12,2.0,1.0,0.0,6.0,11.0,2.0,2.0,10.0,0.0,0.0,2.0,2.0
0021500060,1610612738,BOS,Boston,1626154,RJ Hunter,,,12:41,108.2,92.6,15.6,0.0,0.0,0.0,0.0,0.0,0.0,33.3,0.5,0.5,0.095,101.2,-0.111,2015-11-04T00:00:00,1,BOS,Boston,1-3,16,27,29,26,0,0,0,0,0,0,0,0,0,0,98,0.422,0.818,0.37,20,49,19,0021500060,1610612738,BOS,Boston,RJ Hunter,,,12:41,0.0,0.0,0.0,0.0,10.0,2.0,2.0,6.0,0.0,0.0,4.0,0.0
0021500060,1610612754,IND,Indiana,202331,Paul George,F,,31:11,116.3,97.9,18.4,0.188,1.5,11.7,0.091,0.212,0.152,7.8,0.583,0.63,0.298,94.05,0.215,2015-11-04T00:00:00,1,IND,Indiana,2-3,23,26,24,27,0,0,0,0,0,0,0,0,0,0,100,0.385,0.759,0.348,18,53,14,0021500060,1610612754,IND,Indiana,Paul George,F,,31:11,5.0,9.0,0.0,2.0,16.0,5.0,10.0,14.0,0.0,1.0,4.0,4.0
0021500060,1610612754,IND,Indiana,202730,Lavoy Allen,F,,28:38,108.2,110.0,-1.9,0.05,1.0,9.2,0.176,0.172,0.175,9.2,0.375,0.394,0.14,94.51,0.038,2015-11-04T00:00:00,1,IND,Indiana,2-3,23,26,24,27,0,0,0,0,0,0,0,0,0,0,100,0.385,0.759,0.348,18,53,14,0021500060,1610612754,IND,Indiana,Lavoy Allen,F,,28:38,4.0,0.0,0.0,4.0,17.0,7.0,14.0,14.0,0.0,1.0,5.0,2.0
0021500060,1610612754,IND,Indiana,201941,Jordan Hill,C,,29:19,108.1,109.8,-1.7,0.0,0.0,0.0,0.118,0.2,0.156,11.8,0.5,0.538,0.23,94.66,0.143,2015-11-04T00:00:00,1,IND,Indiana,2-3,23,26,24,27,0,0,0,0,0,0,0,0,0,0,100,0.385,0.759,0.348,18,53,14,0021500060,1610612754,IND,Indiana,Jordan Hill,C,,29:19,0.0,8.0,0.0,6.0,17.0,7.0,14.0,14.0,0.0,1.0,2.0,1.0
0021500060,1610612754,IND,Indiana,101145,Monta Ellis,G,,33:28,111.5,97.6,13.9,0.333,2.67,29.8,0.027,0.118,0.07,11.2,0.367,0.409,0.23,93.71,0.1,2015-11-04T00:00:00,1,IND,Indiana,2-3,23,26,24,27,0,0,0,0,0,0,0,0,0,0,100,0.385,0.759,0.348,18,53,14,0021500060,1610612754,IND,Indiana,Monta Ellis,G,,33:28,0.0,3.0,0.0,2.0,12.0,5.0,11.0,14.0,0.0,0.0,2.0,1.0
0021500060,1610612754,IND,Indiana,201588,George Hill,G,,34:03,97.2,99.3,-2.1,0.222,1.33,19.5,0.0,0.063,0.027,14.6,0.25,0.37,0.195,97.5,0.031,2015-11-04T00:00:00,1,IND,Indiana,2-3,23,26,24,27,0,0,0,0,0,0,0,0,0,0,100,0.385,0.759,0.348,18,53,14,0021500060,1610612754,IND,Indiana,George Hill,G,,34:03,3.0,0.0,0.0,0.0,17.0,10.0,11.0,24.0,0.0,1.0,2.0,6.0
0021500060,1610612754,IND,Indiana,201155,Rodney Stuckey,,,27:02,97.3,102.6,-5.3,0.0,0.0,0.0,0.08,0.111,0.096,9.1,0.35,0.35,0.179,98.54,0.0,2015-11-04T00:00:00,1,IND,Indiana,2-3,23,26,24,27,0,0,0,0,0,0,0,0,0,0,100,0.385,0.759,0.348,18,53,14,0021500060,1610612754,IND,Indiana,Rodney Stuckey,,,27:02,5.0,0.0,2.0,2.0,13.0,5.0,6.0,16.0,0.0,0.0,3.0,1.0
0021500060,1610612754,IND,Indiana,1626167,Myles Turner,,,18:29,93.1,89.0,4.1,0.1,0.0,11.4,0.143,0.059,0.105,0.0,0.333,0.451,0.178,99.88,0.114,2015-11-04T00:00:00,1,IND,Indiana,2-3,23,26,24,27,0,0,0,0,0,0,0,0,0,0,100,0.385,0.759,0.348,18,53,14,0021500060,1610612754,IND,Indiana,Myles Turner,,,18:29,0.0,2.0,0.0,2.0,5.0,4.0,0.0,14.0,1.0,1.0,1.0,4.0
0021500060,1610612754,IND,Indiana,201978,Chase Budinger,,,18:38,87.8,92.8,-5.0,0.091,1.0,12.5,0.04,0.176,0.095,12.5,0.333,0.333,0.147,102.64,0.073,2015-11-04T00:00:00,1,IND,Indiana,2-3,23,26,24,27,0,0,0,0,0,0,0,0,0,0,100,0.385,0.759,0.348,18,53,14,0021500060,1610612754,IND,Indiana,Chase Budinger,,,18:38,2.0,0.0,2.0,4.0,3.0,6.0,1.0,14.0,0.0,0.0,1.0,0.0
0021500060,1610612754,IND,Indiana,203922,Glenn Robinson III,,,19:12,99.1,111.0,-11.9,0.0,0.0,0.0,0.043,0.063,0.051,13.9,0.75,0.806,0.146,100.01,0.176,2015-11-04T00:00:00,1,IND,Indiana,2-3,23,26,24,27,0,0,0,0,0,0,0,0,0,0,100,0.385,0.759,0.348,18,53,14,0021500060,1610612754,IND,Indiana,Glenn Robinson III,,,19:12,3.0,2.0,0.0,4.0,10.0,6.0,3.0,16.0,0.0,0.0,0.0,3.0
0021500060,1610612754,IND,Indiana,203524,Solomon Hill,,DNP - Coach's Decision                  ,,,,,,,0.0,,,,,,,0.0,,,2015-11-04T00:00:00,1,IND,Indiana,2-3,23,26,24,27,0,0,0,0,0,0,0,0,0,0,100,0.385,0.759,0.348,18,53,14,0021500060,1610612754,IND,Indiana,Solomon Hill,,DNP - Coach's Decision                  ,,,,,,,,,,,,,
0021500060,1610612754,IND,Indiana,101133,Ian Mahinmi,,DND - Sore Lower Back                   ,,,,,,,0.0,,,,,,,0.0,,,2015-11-04T00:00:00,1,IND,Indiana,2-3,23,26,24,27,0,0,0,0,0,0,0,0,0,0,100,0.385,0.759,0.348,18,53,14,0021500060,1610612754,IND,Indiana,Ian Mahinmi,,DND - Sore Lower Back                   ,,,,,,,,,,,,,
0021500060,1610612754,IND,Indiana,101139,CJ Miles,,DND - Sore Right Ankle                  ,,,,,,,0.0,,,,,,,0.0,,,2015-11-04T00:00:00,1,IND,Indiana,2-3,23,26,24,27,0,0,0,0,0,0,0,0,0,0,100,0.385,0.759,0.348,18,53,14,0021500060,1610612754,IND,Indiana,CJ Miles,,DND - Sore Right Ankle                  ,,,,,,,,,,,,,
0021500060,1610612754,IND,Indiana,1626202,Joe Young,,DNP - Coach's Decision                  ,,,,,,,0.0,,,,,,,0.0,,,2015-11-04T00:00:00,1,IND,Indiana,2-3,23,26,24,27,0,0,0,0,0,0,0,0,0,0,100,0.385,0.759,0.348,18,53,14,0021500060,1610612754,IND,Indiana,Joe Young,,DNP - Coach's Decision                  ,,,,,,,,,,,,,
