GAME_ID_x,TEAM_ID_x,TEAM_ABBREVIATION_x,TEAM_CITY_x,PLAYER_ID,PLAYER_NAME_x,START_POSITION_x,COMMENT_x,MIN_x,OFF_RATING,DEF_RATING,NET_RATING,AST_PCT,AST_TOV,AST_RATIO,OREB_PCT,DREB_PCT,REB_PCT,TM_TOV_PCT,EFG_PCT,TS_PCT,USG_PCT,PACE,PIE,GAME_DATE_EST,GAME_SEQUENCE,TEAM_ABBREVIATION_y,TEAM_CITY_NAME,TEAM_WINS_LOSSES,PTS_QTR1,PTS_QTR2,PTS_QTR3,PTS_QTR4,PTS_OT1,PTS_OT2,PTS_OT3,PTS_OT4,PTS_OT5,PTS_OT6,PTS_OT7,PTS_OT8,PTS_OT9,PTS_OT10,PTS,FG_PCT,FT_PCT,FG3_PCT,AST,REB,TOV,GAME_ID_y,TEAM_ID_y,TEAM_ABBREVIATION,TEAM_CITY_y,PLAYER_NAME_y,START_POSITION_y,COMMENT_y,MIN_y,PTS_OFF_TOV,PTS_2ND_CHANCE,PTS_FB,PTS_PAINT,OPP_PTS_OFF_TOV,OPP_PTS_2ND_CHANCE,OPP_PTS_FB,OPP_PTS_PAINT,BLK,BLKA,PF,PFD
0021500071,1610612748,MIA,Miami,2736,Luol Deng,F,,28:21,99.7,71.4,28.3,0.048,1.0,6.5,0.038,0.103,0.073,6.5,0.333,0.375,0.213,103.92,0.059,2015-11-05T00:00:00,2,MIA,Miami,3-2,22,27,24,23,0,0,0,0,0,0,0,0,0,0,96,0.487,0.72,0.286,14,42,16,0021500071,1610612748,MIA,Miami,Luol Deng,F,,28:21,0.0,2.0,0.0,4.0,8.0,11.0,5.0,16.0,1.0,1.0,2.0,2.0
0021500071,1610612748,MIA,Miami,2547,Chris Bosh,F,,28:05,96.9,82.9,13.9,0.125,2.0,12.0,0.0,0.4,0.222,6.0,0.5,0.587,0.254,98.28,0.277,2015-11-05T00:00:00,2,MIA,Miami,3-2,22,27,24,23,0,0,0,0,0,0,0,0,0,0,96,0.487,0.72,0.286,14,42,16,0021500071,1610612748,MIA,Miami,Chris Bosh,F,,28:05,6.0,3.0,2.0,6.0,6.0,14.0,6.0,20.0,0.0,0.0,1.0,6.0
0021500071,1610612748,MIA,Miami,202355,Hassan Whiteside,C,,29:42,96.4,73.8,22.6,0.0,0.0,0.0,0.04,0.267,0.164,41.5,0.556,0.607,0.244,102.63,0.087,2015-11-05T00:00:00,2,MIA,Miami,3-2,22,27,24,23,0,0,0,0,0,0,0,0,0,0,96,0.487,0.72,0.286,14,42,16,0021500071,1610612748,MIA,Miami,Hassan Whiteside,C,,29:42,2.0,0.0,2.0,10.0,10.0,11.0,7.0,20.0,4.0,3.0,5.0,3.0
0021500071,1610612748,MIA,Miami,2548,Dwyane Wade,G,,31:11,109.2,76.1,33.1,0.095,1.0,7.9,0.038,0.143,0.093,7.9,0.605,0.59,0.318,100.33,0.219,2015-11-05T00:00:00,2,MIA,Miami,3-2,22,27,24,23,0,0,0,0,0,0,0,0,0,0,96,0.487,0.72,0.286,14,42,16,0021500071,1610612748,MIA,Miami,Dwyane Wade,G,,31:11,10.0,0.0,3.0,10.0,10.0,10.0,9.0,20.0,0.0,1.0,1.0,6.0
0021500071,1610612748,MIA,Miami,201609,Goran Dragic,G,,32:33,95.6,66.1,29.5,0.105,1.0,11.3,0.065,0.027,0.044,11.3,0.625,0.654,0.21,104.44,0.176,2015-11-05T00:00:00,2,MIA,Miami,3-2,22,27,24,23,0,0,0,0,0,0,0,0,0,0,96,0.487,0.72,0.286,14,42,16,0021500071,1610612748,MIA,Miami,Goran Dragic,G,,32:33,2.0,0.0,4.0,10.0,6.0,13.0,5.0,22.0,0.0,0.0,1.0,3.0
0021500071,1610612748,MIA,Miami,1626159,Justise Winslow,,,35:44,106.9,87.2,19.6,0.08,2.0,19.2,0.03,0.067,0.048,9.6,0.429,0.47,0.111,97.04,0.077,2015-11-05T00:00:00,2,MIA,Miami,3-2,22,27,24,23,0,0,0,0,0,0,0,0,0,0,96,0.487,0.72,0.286,14,42,16,0021500071,1610612748,MIA,Miami,Justise Winslow,,,35:44,0.0,2.0,3.0,6.0,8.0,11.0,5.0,28.0,1.0,1.0,1.0,1.0
0021500071,1610612748,MIA,Miami,204020,Tyler Johnson,,,25:26,99.2,102.7,-3.5,0.25,3.0,30.7,0.053,0.136,0.098,10.2,0.625,0.694,0.143,92.44,0.083,2015-11-05T00:00:00,2,MIA,Miami,3-2,22,27,24,23,0,0,0,0,0,0,0,0,0,0,96,0.487,0.72,0.286,14,42,16,0021500071,1610612748,MIA,Miami,Tyler Johnson,,,25:26,2.0,0.0,2.0,2.0,8.0,11.0,4.0,24.0,0.0,0.0,5.0,3.0
0021500071,1610612748,MIA,Miami,201177,Josh McRoberts,,,17:10,103.3,94.1,9.2,0.167,0.0,66.7,0.0,0.125,0.065,0.0,0.0,0.0,0.03,93.73,0.039,2015-11-05T00:00:00,2,MIA,Miami,3-2,22,27,24,23,0,0,0,0,0,0,0,0,0,0,96,0.487,0.72,0.286,14,42,16,0021500071,1610612748,MIA,Miami,Josh McRoberts,,,17:10,0.0,0.0,0.0,0.0,2.0,7.0,4.0,16.0,0.0,0.0,1.0,2.0
0021500071,1610612748,MIA,Miami,1626196,Josh Richardson,,,6:50,75.2,141.1,-65.9,0.0,0.0,0.0,0.0,0.0,0.0,50.0,0.0,0.0,0.188,82.19,-0.235,2015-11-05T00:00:00,2,MIA,Miami,3-2,22,27,24,23,0,0,0,0,0,0,0,0,0,0,96,0.487,0.72,0.286,14,42,16,0021500071,1610612748,MIA,Miami,Josh Richardson,,,6:50,0.0,0.0,0.0,0.0,4.0,2.0,0.0,6.0,0.0,0.0,2.0,1.0
0021500071,1610612748,MIA,Miami,2365,Chris Andersen,,,2:29,69.4,175.0,-105.6,0.0,0.0,0.0,0.0,0.0,0.0,0.0,0.0,0.0,0.0,66.49,0.0,2015-11-05T00:00:00,2,MIA,Miami,3-2,22,27,24,23,0,0,0,0,0,0,0,0,0,0,96,0.487,0.72,0.286,14,42,16,0021500071,1610612748,MIA,Miami,Chris Andersen,,,2:29,0.0,0.0,0.0,0.0,4.0,0.0,0.0,4.0,0.0,0.0,0.0,0.0
0021500071,1610612748,MIA,Miami,203516,James Ennis III,,,2:29,69.4,175.0,-105.6,0.0,0.0,0.0,0.0,0.0,0.0,0.0,0.0,0.0,0.0,66.49,0.0,2015-11-05T00:00:00,2,MIA,Miami,3-2,22,27,24,23,0,0,0,0,0,0,0,0,0,0,96,0.487,0.72,0.286,14,42,16,0021500071,1610612748,MIA,Miami,James Ennis III,,,2:29,0.0,0.0,0.0,0.0,4.0,0.0,0.0,4.0,0.0,0.0,0.0,0.0
0021500071,1610612748,MIA,Miami,2617,Udonis Haslem,,DNP - Coach's Decision                  ,,,,,,,0.0,,,,,,,0.0,,,2015-11-05T00:00:00,2,MIA,Miami,3-2,22,27,24,23,0,0,0,0,0,0,0,0,0,0,96,0.487,0.72,0.286,14,42,16,0021500071,1610612748,MIA,Miami,Udonis Haslem,,DNP - Coach's Decision                  ,,,,,,,,,,,,,
0021500071,1610612748,MIA,Miami,2405,Amar'e Stoudemire,,DNP - Coach's Decision                  ,,,,,,,0.0,,,,,,,0.0,,,2015-11-05T00:00:00,2,MIA,Miami,3-2,22,27,24,23,0,0,0,0,0,0,0,0,0,0,96,0.487,0.72,0.286,14,42,16,0021500071,1610612748,MIA,Miami,Amar'e Stoudemire,,DNP - Coach's Decision                  ,,,,,,,,,,,,,
0021500071,1610612750,MIN,Minnesota,2419,Tayshaun Prince,F,,12:58,71.9,81.8,-9.9,0.0,0.0,0.0,0.0,0.111,0.042,0.0,0.333,0.333,0.099,103.8,0.0,2015-11-05T00:00:00,2,MIN,Minnesota,2-2,15,24,22,23,0,0,0,0,0,0,0,0,0,0,84,0.353,0.909,0.333,16,44,16,0021500071,1610612750,MIN,Minnesota,Tayshaun Prince,F,,12:58,2.0,0.0,2.0,2.0,0.0,0.0,4.0,14.0,0.0,0.0,1.0,0.0
0021500071,1610612750,MIN,Minnesota,708,Kevin Garnett,F,,11:16,82.2,69.9,12.3,0.125,0.0,50.0,0.0,0.5,0.19,0.0,0.0,0.0,0.039,100.54,0.066,2015-11-05T00:00:00,2,MIN,Minnesota,2-2,15,24,22,23,0,0,0,0,0,0,0,0,0,0,84,0.353,0.909,0.333,16,44,16,0021500071,1610612750,MIN,Minnesota,Kevin Garnett,F,,11:16,0.0,0.0,0.0,0.0,0.0,0.0,2.0,8.0,0.0,0.0,2.0,0.0
0021500071,1610612750,MIN,Minnesota,1626157,Karl-Anthony Towns,C,,22:10,63.2,105.0,-41.8,0.111,0.0,7.1,0.0,0.2,0.093,0.0,0.231,0.231,0.25,106.75,-0.008,2015-11-05T00:00:00,2,MIN,Minnesota,2-2,15,24,22,23,0,0,0,0,0,0,0,0,0,0,84,0.353,0.909,0.333,16,44,16,0021500071,1610612750,MIN,Minnesota,Karl-Anthony Towns,C,,22:10,2.0,2.0,0.0,2.0,15.0,5.0,9.0,30.0,3.0,1.0,3.0,1.0
0021500071,1610612750,MIN,Minnesota,203952,Andrew Wiggins,G,,31:19,70.3,98.7,-28.4,0.0,0.0,0.0,0.091,0.037,0.067,0.0,0.306,0.318,0.263,102.45,0.006,2015-11-05T00:00:00,2,MIN,Minnesota,2-2,15,24,22,23,0,0,0,0,0,0,0,0,0,0,84,0.353,0.909,0.333,16,44,16,0021500071,1610612750,MIN,Minnesota,Andrew Wiggins,G,,31:19,0.0,2.0,1.0,6.0,11.0,4.0,11.0,36.0,0.0,3.0,1.0,1.0
0021500071,1610612750,MIN,Minnesota,201937,Ricky Rubio,G,,23:50,64.8,97.0,-32.3,0.5,1.67,30.9,0.0,0.048,0.022,18.5,0.333,0.549,0.208,103.2,0.2,2015-11-05T00:00:00,2,MIN,Minnesota,2-2,15,24,22,23,0,0,0,0,0,0,0,0,0,0,84,0.353,0.909,0.333,16,44,16,0021500071,1610612750,MIN,Minnesota,Ricky Rubio,G,,23:50,2.0,3.0,2.0,2.0,7.0,4.0,6.0,32.0,0.0,0.0,0.0,4.0
0021500071,1610612750,MIN,Minnesota,202357,Nemanja Bjelica,,,23:42,79.6,116.2,-36.7,0.273,3.0,27.3,0.045,0.316,0.171,9.1,0.357,0.357,0.15,100.58,0.099,2015-11-05T00:00:00,2,MIN,Minnesota,2-2,15,24,22,23,0,0,0,0,0,0,0,0,0,0,84,0.353,0.909,0.333,16,44,16,0021500071,1610612750,MIN,Minnesota,Nemanja Bjelica,,,23:42,0.0,2.0,0.0,2.0,16.0,3.0,10.0,24.0,0.0,0.0,1.0,2.0
0021500071,1610612750,MIN,Minnesota,2755,Kevin Martin,,,26:36,79.1,109.2,-30.0,0.0,0.0,0.0,0.0,0.107,0.057,13.7,0.4,0.554,0.23,98.92,0.058,2015-11-05T00:00:00,2,MIN,Minnesota,2-2,15,24,22,23,0,0,0,0,0,0,0,0,0,0,84,0.353,0.909,0.333,16,44,16,0021500071,1610612750,MIN,Minnesota,Kevin Martin,,,26:36,0.0,0.0,0.0,4.0,22.0,7.0,9.0,30.0,0.0,0.0,5.0,3.0
0021500071,1610612750,MIN,Minnesota,203897,Zach LaVine,,,20:11,91.0,111.1,-20.0,0.25,1.0,27.3,0.0,0.111,0.054,27.3,0.3,0.3,0.164,96.98,-0.032,2015-11-05T00:00:00,2,MIN,Minnesota,2-2,15,24,22,23,0,0,0,0,0,0,0,0,0,0,84,0.353,0.909,0.333,16,44,16,0021500071,1610612750,MIN,Minnesota,Zach LaVine,,,20:11,0.0,0.0,0.0,0.0,15.0,3.0,10.0,16.0,0.0,1.0,3.0,0.0
0021500071,1610612750,MIN,Minnesota,203476,Gorgui Dieng,,,25:50,102.7,94.7,8.0,0.0,0.0,0.0,0.045,0.238,0.14,25.3,0.5,0.563,0.203,91.12,0.124,2015-11-05T00:00:00,2,MIN,Minnesota,2-2,15,24,22,23,0,0,0,0,0,0,0,0,0,0,84,0.353,0.909,0.333,16,44,16,0021500071,1610612750,MIN,Minnesota,Gorgui Dieng,,,25:50,4.0,4.0,2.0,8.0,7.0,2.0,7.0,18.0,1.0,0.0,3.0,1.0
0021500071,1610612750,MIN,Minnesota,203498,Shabazz Muhammad,,,22:38,107.2,104.0,3.2,0.083,1.0,7.0,0.235,0.111,0.171,7.0,0.5,0.574,0.255,92.34,0.167,2015-11-05T00:00:00,2,MIN,Minnesota,2-2,15,24,22,23,0,0,0,0,0,0,0,0,0,0,84,0.353,0.909,0.333,16,44,16,0021500071,1610612750,MIN,Minnesota,Shabazz Muhammad,,,22:38,0.0,5.0,2.0,8.0,11.0,3.0,8.0,16.0,1.0,1.0,2.0,4.0
0021500071,1610612750,MIN,Minnesota,203940,Adreian Payne,,,13:02,92.0,95.5,-3.5,0.167,0.5,12.7,0.1,0.357,0.25,25.4,0.875,0.922,0.214,92.37,0.421,2015-11-05T00:00:00,2,MIN,Minnesota,2-2,15,24,22,23,0,0,0,0,0,0,0,0,0,0,84,0.353,0.909,0.333,16,44,16,0021500071,1610612750,MIN,Minnesota,Adreian Payne,,,13:02,4.0,0.0,0.0,2.0,6.0,4.0,4.0,16.0,1.0,0.0,5.0,2.0
0021500071,1610612750,MIN,Minnesota,1889,Andre Miller,,,3:59,174.4,52.1,122.3,0.2,0.0,100.0,0.0,0.0,0.0,0.0,0.0,0.0,0.0,76.16,0.267,2015-11-05T00:00:00,2,MIN,Minnesota,2-2,15,24,22,23,0,0,0,0,0,0,0,0,0,0,84,0.353,0.909,0.333,16,44,16,0021500071,1610612750,MIN,Minnesota,Andre Miller,,,3:59,0.0,0.0,0.0,0.0,0.0,0.0,0.0,0.0,0.0,0.0,0.0,1.0
0021500071,1610612750,MIN,Minnesota,204014,Damjan Rudez,,,2:29,175.0,69.4,105.6,0.0,0.0,0.0,0.0,0.0,0.0,100.0,0.0,0.0,0.25,66.49,-0.333,2015-11-05T00:00:00,2,MIN,Minnesota,2-2,15,24,22,23,0,0,0,0,0,0,0,0,0,0,84,0.353,0.909,0.333,16,44,16,0021500071,1610612750,MIN,Minnesota,Damjan Rudez,,,2:29,0.0,0.0,0.0,0.0,0.0,0.0,0.0,0.0,0.0,0.0,1.0,0.0
