GAME_ID_x,TEAM_ID_x,TEAM_ABBREVIATION_x,TEAM_CITY_x,PLAYER_ID,PLAYER_NAME_x,START_POSITION_x,COMMENT_x,MIN_x,OFF_RATING,DEF_RATING,NET_RATING,AST_PCT,AST_TOV,AST_RATIO,OREB_PCT,DREB_PCT,REB_PCT,TM_TOV_PCT,EFG_PCT,TS_PCT,USG_PCT,PACE,PIE,GAME_DATE_EST,GAME_SEQUENCE,TEAM_ABBREVIATION_y,TEAM_CITY_NAME,TEAM_WINS_LOSSES,PTS_QTR1,PTS_QTR2,PTS_QTR3,PTS_QTR4,PTS_OT1,PTS_OT2,PTS_OT3,PTS_OT4,PTS_OT5,PTS_OT6,PTS_OT7,PTS_OT8,PTS_OT9,PTS_OT10,PTS,FG_PCT,FT_PCT,FG3_PCT,AST,REB,TOV,GAME_ID_y,TEAM_ID_y,TEAM_ABBREVIATION,TEAM_CITY_y,PLAYER_NAME_y,START_POSITION_y,COMMENT_y,MIN_y,PTS_OFF_TOV,PTS_2ND_CHANCE,PTS_FB,PTS_PAINT,OPP_PTS_OFF_TOV,OPP_PTS_2ND_CHANCE,OPP_PTS_FB,OPP_PTS_PAINT,BLK,BLKA,PF,PFD
0021500082,1610612765,DET,Detroit,202694,Marcus Morris,F,,39:12,100.4,91.5,9.0,0.091,2.0,10.2,0.029,0.109,0.074,5.1,0.571,0.601,0.206,100.85,0.162,2015-11-06T00:00:00,8,DET,Detroit,4-1,21,21,25,33,0,0,0,0,0,0,0,0,0,0,100,0.5,0.5,0.364,15,47,15,0021500082,1610612765,DET,Detroit,Marcus Morris,F,,39:12,7.0,2.0,5.0,8.0,6.0,17.0,6.0,40.0,0.0,0.0,1.0,5.0
0021500082,1610612765,DET,Detroit,101141,Ersan Ilyasova,F,,21:19,88.5,86.3,2.2,0.0,0.0,0.0,0.043,0.125,0.085,23.7,0.417,0.466,0.168,99.17,0.046,2015-11-06T00:00:00,8,DET,Detroit,4-1,21,21,25,33,0,0,0,0,0,0,0,0,0,0,100,0.5,0.5,0.364,15,47,15,0021500082,1610612765,DET,Detroit,Ersan Ilyasova,F,,21:19,0.0,0.0,0.0,2.0,4.0,2.0,4.0,22.0,1.0,1.0,2.0,4.0
0021500082,1610612765,DET,Detroit,203083,Andre Drummond,C,,36:09,99.6,95.8,3.8,0.0,0.0,0.0,0.129,0.317,0.236,16.9,0.556,0.408,0.218,102.66,0.072,2015-11-06T00:00:00,8,DET,Detroit,4-1,21,21,25,33,0,0,0,0,0,0,0,0,0,0,100,0.5,0.5,0.364,15,47,15,0021500082,1610612765,DET,Detroit,Andre Drummond,C,,36:09,2.0,4.0,0.0,10.0,6.0,11.0,9.0,36.0,1.0,1.0,4.0,8.0
0021500082,1610612765,DET,Detroit,203484,Kentavious Caldwell-Pope,G,,35:56,102.7,94.5,8.2,0.045,1.0,8.0,0.0,0.05,0.027,8.0,0.85,0.862,0.136,105.72,0.162,2015-11-06T00:00:00,8,DET,Detroit,4-1,21,21,25,33,0,0,0,0,0,0,0,0,0,0,100,0.5,0.5,0.364,15,47,15,0021500082,1610612765,DET,Detroit,Kentavious Caldwell-Pope,G,,35:56,5.0,0.0,4.0,8.0,8.0,10.0,9.0,38.0,0.0,0.0,1.0,1.0
0021500082,1610612765,DET,Detroit,202704,Reggie Jackson,G,,30:19,103.0,92.0,11.0,0.389,1.75,21.5,0.0,0.182,0.1,12.3,0.472,0.534,0.359,106.4,0.198,2015-11-06T00:00:00,8,DET,Detroit,4-1,21,21,25,33,0,0,0,0,0,0,0,0,0,0,100,0.5,0.5,0.364,15,47,15,0021500082,1610612765,DET,Detroit,Reggie Jackson,G,,30:19,2.0,0.0,0.0,12.0,8.0,6.0,9.0,32.0,1.0,0.0,3.0,6.0
0021500082,1610612765,DET,Detroit,1626169,Stanley Johnson,,,22:28,100.7,79.2,21.5,0.143,0.67,17.7,0.0,0.227,0.139,26.5,0.4,0.396,0.2,98.96,0.0,2015-11-06T00:00:00,8,DET,Detroit,4-1,21,21,25,33,0,0,0,0,0,0,0,0,0,0,100,0.5,0.5,0.364,15,47,15,0021500082,1610612765,DET,Detroit,Stanley Johnson,,,22:28,2.0,0.0,2.0,4.0,2.0,7.0,3.0,14.0,0.0,1.0,5.0,1.0
0021500082,1610612765,DET,Detroit,201229,Anthony Tolliver,,,25:05,105.7,91.0,14.7,0.0,0.0,0.0,0.0,0.25,0.15,0.0,0.3,0.34,0.115,99.47,0.057,2015-11-06T00:00:00,8,DET,Detroit,4-1,21,21,25,33,0,0,0,0,0,0,0,0,0,0,100,0.5,0.5,0.364,15,47,15,0021500082,1610612765,DET,Detroit,Anthony Tolliver,,,25:05,0.0,0.0,0.0,0.0,4.0,15.0,5.0,24.0,0.0,0.0,2.0,2.0
0021500082,1610612765,DET,Detroit,2581,Steve Blake,,,17:41,94.4,84.9,9.5,0.25,2.0,22.2,0.0,0.053,0.03,11.1,0.667,0.667,0.201,92.51,0.179,2015-11-06T00:00:00,8,DET,Detroit,4-1,21,21,25,33,0,0,0,0,0,0,0,0,0,0,100,0.5,0.5,0.364,15,47,15,0021500082,1610612765,DET,Detroit,Steve Blake,,,17:41,0.0,2.0,0.0,0.0,0.0,11.0,0.0,14.0,0.0,0.0,0.0,0.0
0021500082,1610612765,DET,Detroit,203382,Aron Baynes,,,11:51,102.0,69.6,32.5,0.143,0.0,34.7,0.0,0.0,0.0,0.0,1.0,1.064,0.077,97.08,0.13,2015-11-06T00:00:00,8,DET,Detroit,4-1,21,21,25,33,0,0,0,0,0,0,0,0,0,0,100,0.5,0.5,0.364,15,47,15,0021500082,1610612765,DET,Detroit,Aron Baynes,,,11:51,0.0,0.0,0.0,2.0,2.0,6.0,0.0,10.0,0.0,0.0,3.0,2.0
0021500082,1610612765,DET,Detroit,201202,Joel Anthony,,DNP - Coach's Decision                  ,,,,,,,0.0,,,,,,,0.0,,,2015-11-06T00:00:00,8,DET,Detroit,4-1,21,21,25,33,0,0,0,0,0,0,0,0,0,0,100,0.5,0.5,0.364,15,47,15,0021500082,1610612765,DET,Detroit,Joel Anthony,,DNP - Coach's Decision                  ,,,,,,,,,,,,,
0021500082,1610612765,DET,Detroit,203493,Reggie Bullock,,DNP - Coach's Decision                  ,,,,,,,0.0,,,,,,,0.0,,,2015-11-06T00:00:00,8,DET,Detroit,4-1,21,21,25,33,0,0,0,0,0,0,0,0,0,0,100,0.5,0.5,0.364,15,47,15,0021500082,1610612765,DET,Detroit,Reggie Bullock,,DNP - Coach's Decision                  ,,,,,,,,,,,,,
0021500082,1610612765,DET,Detroit,203915,Spencer Dinwiddie,,DNP - Coach's Decision                  ,,,,,,,0.0,,,,,,,0.0,,,2015-11-06T00:00:00,8,DET,Detroit,4-1,21,21,25,33,0,0,0,0,0,0,0,0,0,0,100,0.5,0.5,0.364,15,47,15,0021500082,1610612765,DET,Detroit,Spencer Dinwiddie,,DNP - Coach's Decision                  ,,,,,,,,,,,,,
0021500082,1610612765,DET,Detroit,1626199,Darrun Hilliard,,DNP - Coach's Decision                  ,,,,,,,0.0,,,,,,,0.0,,,2015-11-06T00:00:00,8,DET,Detroit,4-1,21,21,25,33,0,0,0,0,0,0,0,0,0,0,100,0.5,0.5,0.364,15,47,15,0021500082,1610612765,DET,Detroit,Darrun Hilliard,,DNP - Coach's Decision                  ,,,,,,,,,,,,,
0021500082,1610612756,PHX,Phoenix,200782,PJ Tucker,F,,33:45,98.7,95.3,3.5,0.071,2.0,28.6,0.054,0.242,0.143,14.3,0.625,0.625,0.063,104.11,0.122,2015-11-06T00:00:00,8,PHX,Phoenix,3-3,14,26,23,29,0,0,0,0,0,0,0,0,0,0,92,0.402,0.615,0.333,14,46,16,0021500082,1610612756,PHX,Phoenix,PJ Tucker,F,,33:45,0.0,2.0,0.0,2.0,9.0,4.0,7.0,30.0,0.0,0.0,2.0,1.0
0021500082,1610612756,PHX,Phoenix,202693,Markieff Morris,F,,30:26,103.2,98.4,4.8,0.105,0.67,7.4,0.032,0.107,0.068,11.2,0.429,0.411,0.346,101.6,0.042,2015-11-06T00:00:00,8,PHX,Phoenix,3-3,14,26,23,29,0,0,0,0,0,0,0,0,0,0,92,0.402,0.615,0.333,14,46,16,0021500082,1610612756,PHX,Phoenix,Markieff Morris,F,,30:26,2.0,4.0,0.0,14.0,5.0,4.0,3.0,28.0,0.0,1.0,4.0,5.0
0021500082,1610612756,PHX,Phoenix,2199,Tyson Chandler,C,,34:57,91.4,99.4,-8.1,0.0,0.0,0.0,0.056,0.267,0.152,25.0,0.667,0.667,0.05,103.69,0.071,2015-11-06T00:00:00,8,PHX,Phoenix,3-3,14,26,23,29,0,0,0,0,0,0,0,0,0,0,92,0.402,0.615,0.333,14,46,16,0021500082,1610612756,PHX,Phoenix,Tyson Chandler,C,,34:57,0.0,2.0,0.0,4.0,12.0,6.0,9.0,34.0,0.0,0.0,5.0,3.0
0021500082,1610612756,PHX,Phoenix,202688,Brandon Knight,G,,38:43,99.7,99.8,-0.1,0.12,1.5,11.6,0.0,0.054,0.025,7.8,0.5,0.53,0.244,103.2,0.122,2015-11-06T00:00:00,8,PHX,Phoenix,3-3,14,26,23,29,0,0,0,0,0,0,0,0,0,0,92,0.402,0.615,0.333,14,46,16,0021500082,1610612756,PHX,Phoenix,Brandon Knight,G,,38:43,6.0,5.0,6.0,8.0,12.0,6.0,8.0,40.0,2.0,0.0,1.0,3.0
0021500082,1610612756,PHX,Phoenix,202339,Eric Bledsoe,G,,37:04,89.9,91.9,-2.0,0.19,1.0,12.4,0.0,0.059,0.028,12.4,0.435,0.452,0.333,101.14,0.064,2015-11-06T00:00:00,8,PHX,Phoenix,3-3,14,26,23,29,0,0,0,0,0,0,0,0,0,0,92,0.402,0.615,0.333,14,46,16,0021500082,1610612756,PHX,Phoenix,Eric Bledsoe,G,,37:04,0.0,0.0,2.0,12.0,12.0,4.0,7.0,36.0,0.0,2.0,6.0,4.0
0021500082,1610612756,PHX,Phoenix,203141,Mirza Teletovic,,,8:43,55.6,108.7,-53.1,0.0,0.0,0.0,0.0,0.25,0.071,0.0,0.75,0.75,0.105,102.75,0.113,2015-11-06T00:00:00,8,PHX,Phoenix,3-3,14,26,23,29,0,0,0,0,0,0,0,0,0,0,92,0.402,0.615,0.333,14,46,16,0021500082,1610612756,PHX,Phoenix,Mirza Teletovic,,,8:43,0.0,0.0,0.0,0.0,7.0,2.0,6.0,10.0,0.0,0.0,0.0,0.0
0021500082,1610612756,PHX,Phoenix,201603,Sonny Weems,,,5:42,58.3,82.7,-24.4,0.0,0.0,0.0,0.0,0.667,0.25,33.3,0.0,0.0,0.231,96.34,-0.19,2015-11-06T00:00:00,8,PHX,Phoenix,3-3,14,26,23,29,0,0,0,0,0,0,0,0,0,0,92,0.402,0.615,0.333,14,46,16,0021500082,1610612756,PHX,Phoenix,Sonny Weems,,,5:42,0.0,0.0,0.0,0.0,5.0,2.0,2.0,4.0,0.0,0.0,1.0,0.0
0021500082,1610612756,PHX,Phoenix,203933,TJ Warren,,,16:28,61.4,115.6,-54.2,0.0,0.0,0.0,0.118,0.111,0.115,0.0,0.333,0.363,0.176,93.98,0.0,2015-11-06T00:00:00,8,PHX,Phoenix,3-3,14,26,23,29,0,0,0,0,0,0,0,0,0,0,92,0.402,0.615,0.333,14,46,16,0021500082,1610612756,PHX,Phoenix,TJ Warren,,,16:28,0.0,2.0,1.0,4.0,10.0,4.0,5.0,16.0,0.0,0.0,3.0,3.0
0021500082,1610612756,PHX,Phoenix,101179,Ronnie Price,,,12:18,81.5,129.5,-48.0,0.4,0.0,25.0,0.0,0.143,0.043,0.0,0.5,0.5,0.195,99.98,0.041,2015-11-06T00:00:00,8,PHX,Phoenix,3-3,14,26,23,29,0,0,0,0,0,0,0,0,0,0,92,0.402,0.615,0.333,14,46,16,0021500082,1610612756,PHX,Phoenix,Ronnie Price,,,12:18,0.0,0.0,0.0,0.0,6.0,4.0,4.0,12.0,1.0,0.0,4.0,0.0
0021500082,1610612756,PHX,Phoenix,202720,Jon Leuer,,,13:04,84.6,102.5,-17.9,0.125,0.5,14.3,0.125,0.182,0.148,28.6,0.375,0.375,0.181,94.84,0.035,2015-11-06T00:00:00,8,PHX,Phoenix,3-3,14,26,23,29,0,0,0,0,0,0,0,0,0,0,92,0.402,0.615,0.333,14,46,16,0021500082,1610612756,PHX,Phoenix,Jon Leuer,,,13:04,0.0,0.0,0.0,0.0,6.0,2.0,2.0,12.0,0.0,0.0,1.0,0.0
0021500082,1610612756,PHX,Phoenix,203458,Alex Len,,,8:51,72.7,97.2,-24.5,0.0,0.0,0.0,0.182,0.556,0.35,41.0,0.5,0.694,0.213,98.71,0.278,2015-11-06T00:00:00,8,PHX,Phoenix,3-3,14,26,23,29,0,0,0,0,0,0,0,0,0,0,92,0.402,0.615,0.333,14,46,16,0021500082,1610612756,PHX,Phoenix,Alex Len,,,8:51,0.0,2.0,0.0,2.0,6.0,2.0,2.0,8.0,0.0,0.0,2.0,2.0
0021500082,1610612756,PHX,Phoenix,1626164,Devin Booker,,DNP - Coach's Decision                  ,,,,,,,0.0,,,,,,,0.0,,,2015-11-06T00:00:00,8,PHX,Phoenix,3-3,14,26,23,29,0,0,0,0,0,0,0,0,0,0,92,0.402,0.615,0.333,14,46,16,0021500082,1610612756,PHX,Phoenix,Devin Booker,,DNP - Coach's Decision                  ,,,,,,,,,,,,,
0021500082,1610612756,PHX,Phoenix,203462,Archie Goodwin,,DNP - Coach's Decision                  ,,,,,,,0.0,,,,,,,0.0,,,2015-11-06T00:00:00,8,PHX,Phoenix,3-3,14,26,23,29,0,0,0,0,0,0,0,0,0,0,92,0.402,0.615,0.333,14,46,16,0021500082,1610612756,PHX,Phoenix,Archie Goodwin,,DNP - Coach's Decision                  ,,,,,,,,,,,,,
