GAME_ID_x,TEAM_ID_x,TEAM_ABBREVIATION_x,TEAM_CITY_x,PLAYER_ID,PLAYER_NAME_x,START_POSITION_x,COMMENT_x,MIN_x,OFF_RATING,DEF_RATING,NET_RATING,AST_PCT,AST_TOV,AST_RATIO,OREB_PCT,DREB_PCT,REB_PCT,TM_TOV_PCT,EFG_PCT,TS_PCT,USG_PCT,PACE,PIE,GAME_DATE_EST,GAME_SEQUENCE,TEAM_ABBREVIATION_y,TEAM_CITY_NAME,TEAM_WINS_LOSSES,PTS_QTR1,PTS_QTR2,PTS_QTR3,PTS_QTR4,PTS_OT1,PTS_OT2,PTS_OT3,PTS_OT4,PTS_OT5,PTS_OT6,PTS_OT7,PTS_OT8,PTS_OT9,PTS_OT10,PTS,FG_PCT,FT_PCT,FG3_PCT,AST,REB,TOV,GAME_ID_y,TEAM_ID_y,TEAM_ABBREVIATION,TEAM_CITY_y,PLAYER_NAME_y,START_POSITION_y,COMMENT_y,MIN_y,PTS_OFF_TOV,PTS_2ND_CHANCE,PTS_FB,PTS_PAINT,OPP_PTS_OFF_TOV,OPP_PTS_2ND_CHANCE,OPP_PTS_FB,OPP_PTS_PAINT,BLK,BLKA,PF,PFD
0021500084,1610612745,HOU,Houston,201977,Marcus Thornton,F,,42:14,121.2,96.9,24.2,0.063,2.0,10.5,0.103,0.068,0.084,5.3,0.5,0.5,0.165,102.81,0.047,2015-11-06T00:00:00,10,HOU,Houston,3-3,29,32,24,31,0,0,0,0,0,0,0,0,0,0,116,0.488,0.778,0.417,23,49,21,0021500084,1610612745,HOU,Houston,Marcus Thornton,F,,42:14,0.0,4.0,6.0,4.0,25.0,14.0,21.0,44.0,0.0,0.0,5.0,0.0
0021500084,1610612745,HOU,Houston,2772,Trevor Ariza,F,,37:20,126.9,90.1,36.8,0.037,1.0,6.3,0.034,0.159,0.11,6.3,0.615,0.648,0.175,101.52,0.119,2015-11-06T00:00:00,10,HOU,Houston,3-3,29,32,24,31,0,0,0,0,0,0,0,0,0,0,116,0.488,0.778,0.417,23,49,21,0021500084,1610612745,HOU,Houston,Trevor Ariza,F,,37:20,8.0,5.0,4.0,4.0,19.0,17.0,10.0,38.0,0.0,0.0,4.0,3.0
0021500084,1610612745,HOU,Houston,203991,Clint Capela,C,,26:20,131.2,92.1,39.1,0.111,1.0,15.0,0.087,0.385,0.245,15.0,0.75,0.697,0.19,97.42,0.172,2015-11-06T00:00:00,10,HOU,Houston,3-3,29,32,24,31,0,0,0,0,0,0,0,0,0,0,116,0.488,0.778,0.417,23,49,21,0021500084,1610612745,HOU,Houston,Clint Capela,C,,26:20,2.0,4.0,2.0,12.0,10.0,8.0,10.0,24.0,4.0,0.0,5.0,2.0
0021500084,1610612745,HOU,Houston,201935,James Harden,G,,41:51,124.0,93.2,30.9,0.542,1.86,26.0,0.059,0.089,0.076,14.0,0.652,0.716,0.378,102.72,0.27,2015-11-06T00:00:00,10,HOU,Houston,3-3,29,32,24,31,0,0,0,0,0,0,0,0,0,0,116,0.488,0.778,0.417,23,49,21,0021500084,1610612745,HOU,Houston,James Harden,G,,41:51,7.0,2.0,12.0,14.0,22.0,17.0,16.0,48.0,0.0,0.0,0.0,10.0
0021500084,1610612745,HOU,Houston,201951,Ty Lawson,G,,40:55,121.8,101.0,20.8,0.063,0.67,11.8,0.056,0.073,0.065,17.6,0.542,0.542,0.153,102.86,0.042,2015-11-06T00:00:00,10,HOU,Houston,3-3,29,32,24,31,0,0,0,0,0,0,0,0,0,0,116,0.488,0.778,0.417,23,49,21,0021500084,1610612745,HOU,Houston,Ty Lawson,G,,40:55,2.0,0.0,5.0,4.0,26.0,10.0,21.0,42.0,0.0,1.0,4.0,0.0
0021500084,1610612745,HOU,Houston,1891,Jason Terry,,,13:16,65.5,135.7,-70.2,0.0,0.0,0.0,0.0,0.083,0.036,25.0,0.333,0.333,0.11,115.16,0.0,2015-11-06T00:00:00,10,HOU,Houston,3-3,29,32,24,31,0,0,0,0,0,0,0,0,0,0,116,0.488,0.778,0.417,23,49,21,0021500084,1610612745,HOU,Houston,Jason Terry,,,13:16,0.0,0.0,0.0,0.0,20.0,9.0,15.0,22.0,0.0,0.0,0.0,0.0
0021500084,1610612745,HOU,Houston,101236,Chuck Hayes,,,14:31,98.0,101.8,-3.8,0.182,0.67,25.4,0.0,0.368,0.226,38.1,0.5,0.694,0.17,109.18,0.091,2015-11-06T00:00:00,10,HOU,Houston,3-3,29,32,24,31,0,0,0,0,0,0,0,0,0,0,116,0.488,0.778,0.417,23,49,21,0021500084,1610612745,HOU,Houston,Chuck Hayes,,,14:31,0.0,0.0,0.0,2.0,11.0,10.0,7.0,20.0,0.0,0.0,4.0,1.0
0021500084,1610612745,HOU,Houston,201147,Corey Brewer,,,16:37,66.4,136.9,-70.4,0.125,1.0,25.8,0.056,0.0,0.036,25.8,1.0,1.064,0.065,113.48,0.039,2015-11-06T00:00:00,10,HOU,Houston,3-3,29,32,24,31,0,0,0,0,0,0,0,0,0,0,116,0.488,0.778,0.417,23,49,21,0021500084,1610612745,HOU,Houston,Corey Brewer,,,16:37,0.0,2.0,2.0,2.0,27.0,5.0,21.0,26.0,0.0,0.0,3.0,2.0
0021500084,1610612745,HOU,Houston,1626149,Montrezl Harrell,,,6:36,88.1,134.7,-46.6,0.0,0.0,0.0,0.25,0.0,0.167,29.1,0.25,0.307,0.348,115.81,-0.098,2015-11-06T00:00:00,10,HOU,Houston,3-3,29,32,24,31,0,0,0,0,0,0,0,0,0,0,116,0.488,0.778,0.417,23,49,21,0021500084,1610612745,HOU,Houston,Montrezl Harrell,,,6:36,0.0,0.0,1.0,2.0,10.0,0.0,9.0,12.0,0.0,2.0,1.0,1.0
0021500084,1610612745,HOU,Houston,1626155,Sam Dekker,,,0:10,0.0,208.3,-208.3,0.0,0.0,0.0,0.0,0.0,0.0,0.0,0.0,0.0,0.0,209.45,0.0,2015-11-06T00:00:00,10,HOU,Houston,3-3,29,32,24,31,0,0,0,0,0,0,0,0,0,0,116,0.488,0.778,0.417,23,49,21,0021500084,1610612745,HOU,Houston,Sam Dekker,,,0:10,0.0,0.0,0.0,0.0,0.0,0.0,0.0,2.0,0.0,0.0,0.0,0.0
0021500084,1610612745,HOU,Houston,203909,KJ McDaniels,,,0:10,0.0,208.3,-208.3,0.0,0.0,0.0,0.0,0.0,0.0,0.0,0.0,0.0,0.0,209.45,0.0,2015-11-06T00:00:00,10,HOU,Houston,3-3,29,32,24,31,0,0,0,0,0,0,0,0,0,0,116,0.488,0.778,0.417,23,49,21,0021500084,1610612745,HOU,Houston,KJ McDaniels,,,0:10,0.0,0.0,0.0,0.0,0.0,0.0,0.0,2.0,0.0,0.0,0.0,0.0
0021500084,1610612745,HOU,Houston,2730,Dwight Howard,,DND - Coach's Decision                  ,,,,,,,0.0,,,,,,,0.0,,,2015-11-06T00:00:00,10,HOU,Houston,3-3,29,32,24,31,0,0,0,0,0,0,0,0,0,0,116,0.488,0.778,0.417,23,49,21,0021500084,1610612745,HOU,Houston,Dwight Howard,,DND - Coach's Decision                  ,,,,,,,,,,,,,
0021500084,1610612758,SAC,Sacramento,202341,James Anderson,F,,17:48,67.3,116.3,-49.0,0.0,0.0,0.0,0.037,0.267,0.119,0.0,0.0,0.205,0.102,103.12,0.041,2015-11-06T00:00:00,10,SAC,Sacramento,1-5,23,27,28,32,0,0,0,0,0,0,0,0,0,0,110,0.43,0.724,0.321,26,43,15,0021500084,1610612758,SAC,Sacramento,James Anderson,F,,17:48,0.0,2.0,0.0,0.0,7.0,2.0,12.0,16.0,0.0,0.0,0.0,1.0
0021500084,1610612758,SAC,Sacramento,200752,Rudy Gay,F,,25:39,81.9,128.0,-46.1,0.182,1.0,9.2,0.034,0.182,0.098,9.2,0.367,0.425,0.316,103.0,0.049,2015-11-06T00:00:00,10,SAC,Sacramento,1-5,23,27,28,32,0,0,0,0,0,0,0,0,0,0,110,0.43,0.724,0.321,26,43,15,0021500084,1610612758,SAC,Sacramento,Rudy Gay,F,,25:39,2.0,1.0,0.0,8.0,10.0,9.0,13.0,20.0,0.0,2.0,4.0,3.0
0021500084,1610612758,SAC,Sacramento,201585,Kosta Koufos,C,,25:15,72.9,132.5,-59.6,0.0,0.0,0.0,0.125,0.136,0.13,12.5,0.429,0.429,0.128,101.82,0.048,2015-11-06T00:00:00,10,SAC,Sacramento,1-5,23,27,28,32,0,0,0,0,0,0,0,0,0,0,110,0.43,0.724,0.321,26,43,15,0021500084,1610612758,SAC,Sacramento,Kosta Koufos,C,,25:15,0.0,4.0,0.0,6.0,7.0,8.0,17.0,28.0,1.0,0.0,3.0,0.0
0021500084,1610612758,SAC,Sacramento,201158,Marco Belinelli,G,,23:02,73.8,117.7,-43.9,0.154,0.0,15.5,0.0,0.048,0.02,0.0,0.2,0.23,0.186,107.7,-0.012,2015-11-06T00:00:00,10,SAC,Sacramento,1-5,23,27,28,32,0,0,0,0,0,0,0,0,0,0,110,0.43,0.724,0.321,26,43,15,0021500084,1610612758,SAC,Sacramento,Marco Belinelli,G,,23:02,0.0,2.0,0.0,2.0,9.0,6.0,19.0,28.0,0.0,0.0,0.0,4.0
0021500084,1610612758,SAC,Sacramento,200765,Rajon Rondo,G,,24:24,78.3,116.7,-38.3,0.455,1.25,21.7,0.091,0.278,0.157,17.4,0.429,0.429,0.272,106.66,0.15,2015-11-06T00:00:00,10,SAC,Sacramento,1-5,23,27,28,32,0,0,0,0,0,0,0,0,0,0,110,0.43,0.724,0.321,26,43,15,0021500084,1610612758,SAC,Sacramento,Rajon Rondo,G,,24:24,4.0,2.0,2.0,8.0,9.0,2.0,22.0,22.0,0.0,1.0,1.0,2.0
0021500084,1610612758,SAC,Sacramento,201956,Omri Casspi,,,32:43,129.0,105.4,23.5,0.038,0.5,6.6,0.038,0.1,0.071,13.2,0.9,0.902,0.171,102.32,0.145,2015-11-06T00:00:00,10,SAC,Sacramento,1-5,23,27,28,32,0,0,0,0,0,0,0,0,0,0,110,0.43,0.724,0.321,26,43,15,0021500084,1610612758,SAC,Sacramento,Omri Casspi,,,32:43,5.0,5.0,8.0,12.0,12.0,15.0,20.0,28.0,0.0,0.0,4.0,6.0
0021500084,1610612758,SAC,Sacramento,1626161,Willie Cauley-Stein,,,22:02,130.5,92.7,37.8,0.053,0.0,14.5,0.235,0.238,0.237,0.0,0.6,0.595,0.107,104.79,0.123,2015-11-06T00:00:00,10,SAC,Sacramento,1-5,23,27,28,32,0,0,0,0,0,0,0,0,0,0,110,0.43,0.724,0.321,26,43,15,0021500084,1610612758,SAC,Sacramento,Willie Cauley-Stein,,,22:02,2.0,2.0,3.0,6.0,12.0,9.0,15.0,16.0,2.0,0.0,4.0,1.0
0021500084,1610612758,SAC,Sacramento,201954,Darren Collison,,,31:20,125.7,106.8,18.9,0.391,3.0,29.4,0.0,0.0,0.0,9.8,0.531,0.59,0.281,104.54,0.144,2015-11-06T00:00:00,10,SAC,Sacramento,1-5,23,27,28,32,0,0,0,0,0,0,0,0,0,0,110,0.43,0.724,0.321,26,43,15,0021500084,1610612758,SAC,Sacramento,Darren Collison,,,31:20,9.0,0.0,4.0,8.0,12.0,15.0,17.0,28.0,0.0,1.0,1.0,4.0
0021500084,1610612758,SAC,Sacramento,203463,Ben McLemore,,,22:38,119.0,105.1,13.9,0.2,1.33,22.7,0.0,0.19,0.105,17.0,0.438,0.517,0.237,113.33,0.101,2015-11-06T00:00:00,10,SAC,Sacramento,1-5,23,27,28,32,0,0,0,0,0,0,0,0,0,0,110,0.43,0.724,0.321,26,43,15,0021500084,1610612758,SAC,Sacramento,Ben McLemore,,,22:38,9.0,0.0,6.0,4.0,9.0,8.0,20.0,24.0,0.0,0.0,2.0,4.0
0021500084,1610612758,SAC,Sacramento,203552,Seth Curry,,,15:09,148.0,123.8,24.3,0.154,0.0,33.3,0.0,0.0,0.0,0.0,1.0,1.0,0.116,92.96,0.145,2015-11-06T00:00:00,10,SAC,Sacramento,1-5,23,27,28,32,0,0,0,0,0,0,0,0,0,0,110,0.43,0.724,0.321,26,43,15,0021500084,1610612758,SAC,Sacramento,Seth Curry,,,15:09,3.0,0.0,3.0,2.0,8.0,11.0,5.0,10.0,0.0,0.0,0.0,1.0
0021500084,1610612758,SAC,Sacramento,203112,Quincy Acy,,DNP - Coach's Decision                  ,,,,,,,0.0,,,,,,,0.0,,,2015-11-06T00:00:00,10,SAC,Sacramento,1-5,23,27,28,32,0,0,0,0,0,0,0,0,0,0,110,0.43,0.724,0.321,26,43,15,0021500084,1610612758,SAC,Sacramento,Quincy Acy,,DNP - Coach's Decision                  ,,,,,,,,,,,,,
0021500084,1610612758,SAC,Sacramento,2406,Caron Butler,,DNP - Coach's Decision                  ,,,,,,,0.0,,,,,,,0.0,,,2015-11-06T00:00:00,10,SAC,Sacramento,1-5,23,27,28,32,0,0,0,0,0,0,0,0,0,0,110,0.43,0.724,0.321,26,43,15,0021500084,1610612758,SAC,Sacramento,Caron Butler,,DNP - Coach's Decision                  ,,,,,,,,,,,,,
0021500084,1610612758,SAC,Sacramento,203961,Eric Moreland,,DNP - Coach's Decision                  ,,,,,,,0.0,,,,,,,0.0,,,2015-11-06T00:00:00,10,SAC,Sacramento,1-5,23,27,28,32,0,0,0,0,0,0,0,0,0,0,110,0.43,0.724,0.321,26,43,15,0021500084,1610612758,SAC,Sacramento,Eric Moreland,,DNP - Coach's Decision                  ,,,,,,,,,,,,,
