GAME_ID_x,TEAM_ID_x,TEAM_ABBREVIATION_x,TEAM_CITY_x,PLAYER_ID,PLAYER_NAME_x,START_POSITION_x,COMMENT_x,MIN_x,OFF_RATING,DEF_RATING,NET_RATING,AST_PCT,AST_TOV,AST_RATIO,OREB_PCT,DREB_PCT,REB_PCT,TM_TOV_PCT,EFG_PCT,TS_PCT,USG_PCT,PACE,PIE,GAME_DATE_EST,GAME_SEQUENCE,TEAM_ABBREVIATION_y,TEAM_CITY_NAME,TEAM_WINS_LOSSES,PTS_QTR1,PTS_QTR2,PTS_QTR3,PTS_QTR4,PTS_OT1,PTS_OT2,PTS_OT3,PTS_OT4,PTS_OT5,PTS_OT6,PTS_OT7,PTS_OT8,PTS_OT9,PTS_OT10,PTS,FG_PCT,FT_PCT,FG3_PCT,AST,REB,TOV,GAME_ID_y,TEAM_ID_y,TEAM_ABBREVIATION,TEAM_CITY_y,PLAYER_NAME_y,START_POSITION_y,COMMENT_y,MIN_y,PTS_OFF_TOV,PTS_2ND_CHANCE,PTS_FB,PTS_PAINT,OPP_PTS_OFF_TOV,OPP_PTS_2ND_CHANCE,OPP_PTS_FB,OPP_PTS_PAINT,BLK,BLKA,PF,PFD
0021500094,1610612754,IND,Indiana,202331,Paul George,F,,38:58,107.3,101.8,5.5,0.3,1.5,17.4,0.049,0.237,0.139,11.6,0.595,0.653,0.33,92.49,0.207,2015-11-08T00:00:00,1,IND,Indiana,3-4,22,20,31,24,0,0,0,0,0,0,0,0,0,0,97,0.433,0.684,0.333,22,47,7,0021500094,1610612754,IND,Indiana,Paul George,F,,38:58,2.0,2.0,5.0,10.0,13.0,8.0,11.0,36.0,0.0,1.0,5.0,5.0
0021500094,1610612754,IND,Indiana,201941,Jordan Hill,F,,32:12,98.9,101.8,-2.9,0.136,3.0,15.4,0.194,0.129,0.164,5.1,0.2,0.227,0.223,92.15,0.041,2015-11-08T00:00:00,1,IND,Indiana,3-4,22,20,31,24,0,0,0,0,0,0,0,0,0,0,97,0.433,0.684,0.333,22,47,7,0021500094,1610612754,IND,Indiana,Jordan Hill,F,,32:12,3.0,3.0,0.0,4.0,11.0,6.0,11.0,26.0,0.0,0.0,2.0,2.0
0021500094,1610612754,IND,Indiana,101133,Ian Mahinmi,C,,20:18,103.1,115.4,-12.4,0.083,0.0,17.0,0.0,0.105,0.049,0.0,0.75,0.615,0.111,92.86,0.071,2015-11-08T00:00:00,1,IND,Indiana,3-4,22,20,31,24,0,0,0,0,0,0,0,0,0,0,97,0.433,0.684,0.333,22,47,7,0021500094,1610612754,IND,Indiana,Ian Mahinmi,C,,20:18,0.0,0.0,0.0,4.0,4.0,2.0,2.0,16.0,1.0,1.0,3.0,2.0
0021500094,1610612754,IND,Indiana,101145,Monta Ellis,G,,34:27,100.9,108.5,-7.6,0.2,0.0,13.8,0.0,0.152,0.068,0.0,0.647,0.666,0.243,95.78,0.196,2015-11-08T00:00:00,1,IND,Indiana,3-4,22,20,31,24,0,0,0,0,0,0,0,0,0,0,97,0.433,0.684,0.333,22,47,7,0021500094,1610612754,IND,Indiana,Monta Ellis,G,,34:27,4.0,0.0,2.0,6.0,9.0,6.0,9.0,34.0,0.0,0.0,2.0,3.0
0021500094,1610612754,IND,Indiana,201588,George Hill,G,,39:57,103.0,113.1,-10.1,0.192,0.0,22.9,0.024,0.105,0.063,0.0,0.375,0.415,0.195,90.09,0.077,2015-11-08T00:00:00,1,IND,Indiana,3-4,22,20,31,24,0,0,0,0,0,0,0,0,0,0,97,0.433,0.684,0.333,22,47,7,0021500094,1610612754,IND,Indiana,George Hill,G,,39:57,2.0,4.0,0.0,8.0,8.0,8.0,6.0,38.0,0.0,1.0,2.0,4.0
0021500094,1610612754,IND,Indiana,202730,Lavoy Allen,,,24:46,112.0,102.5,9.5,0.143,0.0,37.5,0.045,0.292,0.174,0.0,0.0,0.0,0.099,88.55,0.041,2015-11-08T00:00:00,1,IND,Indiana,3-4,22,20,31,24,0,0,0,0,0,0,0,0,0,0,97,0.433,0.684,0.333,22,47,7,0021500094,1610612754,IND,Indiana,Lavoy Allen,,,24:46,0.0,0.0,0.0,0.0,4.0,4.0,4.0,26.0,2.0,1.0,3.0,0.0
0021500094,1610612754,IND,Indiana,1626167,Myles Turner,,,18:17,98.3,114.2,-16.0,0.0,0.0,0.0,0.0,0.056,0.029,0.0,0.75,0.75,0.104,97.54,0.064,2015-11-08T00:00:00,1,IND,Indiana,3-4,22,20,31,24,0,0,0,0,0,0,0,0,0,0,97,0.433,0.684,0.333,22,47,7,0021500094,1610612754,IND,Indiana,Myles Turner,,,18:17,2.0,2.0,0.0,0.0,7.0,8.0,9.0,26.0,1.0,0.0,2.0,2.0
0021500094,1610612754,IND,Indiana,201978,Chase Budinger,,,18:00,116.9,114.6,2.3,0.0,0.0,0.0,0.067,0.067,0.067,17.0,0.625,0.512,0.141,100.19,0.006,2015-11-08T00:00:00,1,IND,Indiana,3-4,22,20,31,24,0,0,0,0,0,0,0,0,0,0,97,0.433,0.684,0.333,22,47,7,0021500094,1610612754,IND,Indiana,Chase Budinger,,,18:00,3.0,0.0,2.0,2.0,7.0,4.0,11.0,24.0,0.0,0.0,1.0,1.0
0021500094,1610612754,IND,Indiana,203922,Glenn Robinson III,,,13:05,92.7,114.5,-21.8,0.091,1.0,16.7,0.0,0.143,0.083,16.7,0.25,0.25,0.179,93.92,0.021,2015-11-08T00:00:00,1,IND,Indiana,3-4,22,20,31,24,0,0,0,0,0,0,0,0,0,0,97,0.433,0.684,0.333,22,47,7,0021500094,1610612754,IND,Indiana,Glenn Robinson III,,,13:05,0.0,0.0,0.0,2.0,2.0,4.0,2.0,14.0,0.0,0.0,0.0,1.0
0021500094,1610612754,IND,Indiana,203524,Solomon Hill,,DNP - Coach's Decision                  ,,,,,,,0.0,,,,,,,0.0,,,2015-11-08T00:00:00,1,IND,Indiana,3-4,22,20,31,24,0,0,0,0,0,0,0,0,0,0,97,0.433,0.684,0.333,22,47,7,0021500094,1610612754,IND,Indiana,Solomon Hill,,DNP - Coach's Decision                  ,,,,,,,,,,,,,
0021500094,1610612754,IND,Indiana,1626202,Joe Young,,DNP - Coach's Decision                  ,,,,,,,0.0,,,,,,,0.0,,,2015-11-08T00:00:00,1,IND,Indiana,3-4,22,20,31,24,0,0,0,0,0,0,0,0,0,0,97,0.433,0.684,0.333,22,47,7,0021500094,1610612754,IND,Indiana,Joe Young,,DNP - Coach's Decision                  ,,,,,,,,,,,,,
0021500094,1610612739,CLE,Cleveland,2544,LeBron James,F,,35:01,105.8,103.6,2.2,0.25,2.0,11.4,0.0,0.162,0.082,5.7,0.435,0.497,0.394,94.91,0.16,2015-11-08T00:00:00,1,CLE,Cleveland,6-1,24,23,27,27,0,0,0,0,0,0,0,0,0,0,101,0.458,0.68,0.333,25,48,10,0021500094,1610612739,CLE,Cleveland,LeBron James,F,,35:01,6.0,2.0,2.0,10.0,14.0,7.0,4.0,22.0,0.0,1.0,0.0,7.0
0021500094,1610612739,CLE,Cleveland,201567,Kevin Love,F,,39:03,109.5,94.9,14.6,0.091,1.0,8.7,0.105,0.357,0.238,8.7,0.556,0.583,0.243,91.3,0.207,2015-11-08T00:00:00,1,CLE,Cleveland,6-1,24,23,27,27,0,0,0,0,0,0,0,0,0,0,101,0.458,0.68,0.333,25,48,10,0021500094,1610612739,CLE,Cleveland,Kevin Love,F,,39:03,2.0,4.0,6.0,14.0,9.0,9.0,9.0,30.0,3.0,0.0,3.0,1.0
0021500094,1610612739,CLE,Cleveland,202389,Timofey Mozgov,C,,22:58,98.4,125.8,-27.4,0.0,0.0,0.0,0.074,0.182,0.122,0.0,0.5,0.625,0.139,91.37,0.093,2015-11-08T00:00:00,1,CLE,Cleveland,6-1,24,23,27,27,0,0,0,0,0,0,0,0,0,0,101,0.458,0.68,0.333,25,48,10,0021500094,1610612739,CLE,Cleveland,Timofey Mozgov,C,,22:58,0.0,0.0,0.0,2.0,8.0,5.0,5.0,14.0,1.0,2.0,3.0,7.0
0021500094,1610612739,CLE,Cleveland,2210,Richard Jefferson,G,,30:16,95.3,105.4,-10.1,0.05,1.0,12.5,0.032,0.0,0.015,12.5,0.417,0.417,0.108,95.58,-0.005,2015-11-08T00:00:00,1,CLE,Cleveland,6-1,24,23,27,27,0,0,0,0,0,0,0,0,0,0,101,0.458,0.68,0.333,25,48,10,0021500094,1610612739,CLE,Cleveland,Richard Jefferson,G,,30:16,2.0,0.0,2.0,2.0,11.0,11.0,7.0,30.0,0.0,0.0,4.0,0.0
0021500094,1610612739,CLE,Cleveland,2590,Mo Williams,G,,37:43,109.8,96.3,13.5,0.308,4.0,32.0,0.029,0.093,0.064,8.0,0.333,0.333,0.208,93.23,0.054,2015-11-08T00:00:00,1,CLE,Cleveland,6-1,24,23,27,27,0,0,0,0,0,0,0,0,0,0,101,0.458,0.68,0.333,25,48,10,0021500094,1610612739,CLE,Cleveland,Mo Williams,G,,37:43,0.0,0.0,0.0,2.0,9.0,9.0,9.0,32.0,0.0,1.0,2.0,0.0
0021500094,1610612739,CLE,Cleveland,203521,Matthew Dellavedova,,,32:35,125.7,102.5,23.2,0.321,4.5,64.3,0.0,0.103,0.054,14.3,0.833,0.833,0.072,92.4,0.09,2015-11-08T00:00:00,1,CLE,Cleveland,6-1,24,23,27,27,0,0,0,0,0,0,0,0,0,0,101,0.458,0.68,0.333,25,48,10,0021500094,1610612739,CLE,Cleveland,Matthew Dellavedova,,,32:35,0.0,0.0,0.0,2.0,9.0,6.0,7.0,22.0,0.0,0.0,3.0,1.0
0021500094,1610612739,CLE,Cleveland,202684,Tristan Thompson,,,30:27,111.8,97.7,14.1,0.056,0.0,9.3,0.125,0.161,0.145,0.0,0.875,0.82,0.157,93.44,0.169,2015-11-08T00:00:00,1,CLE,Cleveland,6-1,24,23,27,27,0,0,0,0,0,0,0,0,0,0,101,0.458,0.68,0.333,25,48,10,0021500094,1610612739,CLE,Cleveland,Tristan Thompson,,,30:27,3.0,2.0,3.0,14.0,11.0,6.0,4.0,24.0,0.0,0.0,3.0,3.0
0021500094,1610612739,CLE,Cleveland,2592,James Jones,,,3:05,108.7,87.2,21.5,0.0,0.0,0.0,0.0,0.0,0.0,100.0,0.0,0.0,0.155,103.68,-0.375,2015-11-08T00:00:00,1,CLE,Cleveland,6-1,24,23,27,27,0,0,0,0,0,0,0,0,0,0,101,0.458,0.68,0.333,25,48,10,0021500094,1610612739,CLE,Cleveland,James Jones,,,3:05,0.0,0.0,0.0,0.0,4.0,2.0,0.0,2.0,0.0,0.0,2.0,0.0
0021500094,1610612739,CLE,Cleveland,203099,Jared Cunningham,,,8:52,111.1,149.2,-38.1,0.0,0.0,0.0,0.0,0.0,0.0,0.0,0.5,0.5,0.26,89.22,0.059,2015-11-08T00:00:00,1,CLE,Cleveland,6-1,24,23,27,27,0,0,0,0,0,0,0,0,0,0,101,0.458,0.68,0.333,25,48,10,0021500094,1610612739,CLE,Cleveland,Jared Cunningham,,,8:52,0.0,2.0,0.0,2.0,5.0,0.0,0.0,4.0,0.0,0.0,0.0,1.0
0021500094,1610612739,CLE,Cleveland,203925,Joe Harris,,DNP - Coach's Decision                  ,,,,,,,0.0,,,,,,,0.0,,,2015-11-08T00:00:00,1,CLE,Cleveland,6-1,24,23,27,27,0,0,0,0,0,0,0,0,0,0,101,0.458,0.68,0.333,25,48,10,0021500094,1610612739,CLE,Cleveland,Joe Harris,,DNP - Coach's Decision                  ,,,,,,,,,,,,,
0021500094,1610612739,CLE,Cleveland,201619,Sasha Kaun,,DNP - Coach's Decision                  ,,,,,,,0.0,,,,,,,0.0,,,2015-11-08T00:00:00,1,CLE,Cleveland,6-1,24,23,27,27,0,0,0,0,0,0,0,0,0,0,101,0.458,0.68,0.333,25,48,10,0021500094,1610612739,CLE,Cleveland,Sasha Kaun,,DNP - Coach's Decision                  ,,,,,,,,,,,,,
0021500094,1610612739,CLE,Cleveland,2760,Anderson Varejao,,DNP - Coach's Decision                  ,,,,,,,0.0,,,,,,,0.0,,,2015-11-08T00:00:00,1,CLE,Cleveland,6-1,24,23,27,27,0,0,0,0,0,0,0,0,0,0,101,0.458,0.68,0.333,25,48,10,0021500094,1610612739,CLE,Cleveland,Anderson Varejao,,DNP - Coach's Decision                  ,,,,,,,,,,,,,
