GAME_ID_x,TEAM_ID_x,TEAM_ABBREVIATION_x,TEAM_CITY_x,PLAYER_ID,PLAYER_NAME_x,START_POSITION_x,COMMENT_x,MIN_x,OFF_RATING,DEF_RATING,NET_RATING,AST_PCT,AST_TOV,AST_RATIO,OREB_PCT,DREB_PCT,REB_PCT,TM_TOV_PCT,EFG_PCT,TS_PCT,USG_PCT,PACE,PIE,GAME_DATE_EST,GAME_SEQUENCE,TEAM_ABBREVIATION_y,TEAM_CITY_NAME,TEAM_WINS_LOSSES,PTS_QTR1,PTS_QTR2,PTS_QTR3,PTS_QTR4,PTS_OT1,PTS_OT2,PTS_OT3,PTS_OT4,PTS_OT5,PTS_OT6,PTS_OT7,PTS_OT8,PTS_OT9,PTS_OT10,PTS,FG_PCT,FT_PCT,FG3_PCT,AST,REB,TOV,GAME_ID_y,TEAM_ID_y,TEAM_ABBREVIATION,TEAM_CITY_y,PLAYER_NAME_y,START_POSITION_y,COMMENT_y,MIN_y,PTS_OFF_TOV,PTS_2ND_CHANCE,PTS_FB,PTS_PAINT,OPP_PTS_OFF_TOV,OPP_PTS_2ND_CHANCE,OPP_PTS_FB,OPP_PTS_PAINT,BLK,BLKA,PF,PFD
0021500099,1610612753,ORL,Orlando,203095,Evan Fournier,F,,39:33,78.4,98.6,-20.1,0.063,0.5,5.6,0.0,0.057,0.028,11.3,0.692,0.711,0.194,98.75,0.104,2015-11-09T00:00:00,1,ORL,Orlando,3-5,25,23,23,13,0,0,0,0,0,0,0,0,0,0,84,0.397,0.706,0.303,16,44,21,0021500099,1610612753,ORL,Orlando,Evan Fournier,F,,39:33,12.0,0.0,7.0,4.0,20.0,5.0,6.0,30.0,0.0,0.0,4.0,4.0
0021500099,1610612753,ORL,Orlando,202699,Tobias Harris,F,,28:54,81.4,103.1,-21.7,0.0,0.0,0.0,0.071,0.308,0.185,6.7,0.269,0.288,0.233,98.07,0.053,2015-11-09T00:00:00,1,ORL,Orlando,3-5,25,23,23,13,0,0,0,0,0,0,0,0,0,0,84,0.397,0.706,0.303,16,44,21,0021500099,1610612753,ORL,Orlando,Tobias Harris,F,,28:54,2.0,3.0,0.0,4.0,14.0,5.0,4.0,24.0,0.0,1.0,0.0,2.0
0021500099,1610612753,ORL,Orlando,203473,Dewayne Dedmon,C,,23:10,89.5,81.5,8.0,0.0,0.0,0.0,0.091,0.333,0.209,34.0,0.667,0.644,0.108,102.93,0.141,2015-11-09T00:00:00,1,ORL,Orlando,3-5,25,23,23,13,0,0,0,0,0,0,0,0,0,0,84,0.397,0.706,0.303,16,44,21,0021500099,1610612753,ORL,Orlando,Dewayne Dedmon,C,,23:10,0.0,0.0,0.0,4.0,6.0,0.0,2.0,18.0,0.0,0.0,1.0,2.0
0021500099,1610612753,ORL,Orlando,203506,Victor Oladipo,G,,37:53,83.7,95.2,-11.6,0.105,0.5,8.3,0.0,0.2,0.099,16.7,0.417,0.417,0.249,102.05,0.07,2015-11-09T00:00:00,1,ORL,Orlando,3-5,25,23,23,13,0,0,0,0,0,0,0,0,0,0,84,0.397,0.706,0.303,16,44,21,0021500099,1610612753,ORL,Orlando,Victor Oladipo,G,,37:53,4.0,0.0,4.0,8.0,14.0,5.0,6.0,32.0,2.0,1.0,3.0,0.0
0021500099,1610612753,ORL,Orlando,203901,Elfrid Payton,G,,37:29,81.0,90.1,-9.1,0.35,1.75,33.9,0.0,0.057,0.028,19.4,0.429,0.571,0.162,100.37,0.116,2015-11-09T00:00:00,1,ORL,Orlando,3-5,25,23,23,13,0,0,0,0,0,0,0,0,0,0,84,0.397,0.706,0.303,16,44,21,0021500099,1610612753,ORL,Orlando,Elfrid Payton,G,,37:29,6.0,0.0,3.0,4.0,18.0,2.0,4.0,26.0,0.0,1.0,1.0,4.0
0021500099,1610612753,ORL,Orlando,203932,Aaron Gordon,,,17:22,83.6,92.6,-9.0,0.2,0.67,17.7,0.071,0.067,0.069,26.5,0.2,0.316,0.238,100.47,-0.078,2015-11-09T00:00:00,1,ORL,Orlando,3-5,25,23,23,13,0,0,0,0,0,0,0,0,0,0,84,0.397,0.706,0.303,16,44,21,0021500099,1610612753,ORL,Orlando,Aaron Gordon,,,17:22,0.0,0.0,0.0,2.0,7.0,0.0,4.0,10.0,1.0,0.0,4.0,3.0
0021500099,1610612753,ORL,Orlando,101112,Channing Frye,,,22:39,79.6,116.3,-36.6,0.0,0.0,0.0,0.056,0.368,0.216,16.7,0.7,0.7,0.254,95.28,0.129,2015-11-09T00:00:00,1,ORL,Orlando,3-5,25,23,23,13,0,0,0,0,0,0,0,0,0,0,84,0.397,0.706,0.303,16,44,21,0021500099,1610612753,ORL,Orlando,Channing Frye,,,22:39,6.0,2.0,0.0,2.0,13.0,5.0,6.0,18.0,0.0,0.0,5.0,0.0
0021500099,1610612753,ORL,Orlando,1626209,Mario Hezonja,,,13:56,100.8,105.6,-4.9,0.182,1.0,25.0,0.0,0.154,0.087,25.0,0.25,0.25,0.183,101.9,0.0,2015-11-09T00:00:00,1,ORL,Orlando,3-5,25,23,23,13,0,0,0,0,0,0,0,0,0,0,84,0.397,0.706,0.303,16,44,21,0021500099,1610612753,ORL,Orlando,Mario Hezonja,,,13:56,0.0,2.0,0.0,2.0,3.0,0.0,4.0,10.0,0.0,1.0,1.0,0.0
0021500099,1610612753,ORL,Orlando,201228,C.J. Watson,,,16:52,90.4,115.7,-25.4,0.222,2.0,28.6,0.0,0.0,0.0,14.3,0.5,0.5,0.142,93.97,0.054,2015-11-09T00:00:00,1,ORL,Orlando,3-5,25,23,23,13,0,0,0,0,0,0,0,0,0,0,84,0.397,0.706,0.303,16,44,21,0021500099,1610612753,ORL,Orlando,C.J. Watson,,,16:52,4.0,0.0,2.0,2.0,8.0,3.0,4.0,12.0,0.0,0.0,1.0,1.0
0021500099,1610612753,ORL,Orlando,203894,Shabazz Napier,,,2:11,60.0,102.5,-42.5,0.0,0.0,0.0,0.333,0.333,0.333,0.0,0.0,0.0,0.167,108.6,0.077,2015-11-09T00:00:00,1,ORL,Orlando,3-5,25,23,23,13,0,0,0,0,0,0,0,0,0,0,84,0.397,0.706,0.303,16,44,21,0021500099,1610612753,ORL,Orlando,Shabazz Napier,,,2:11,0.0,0.0,0.0,0.0,2.0,0.0,0.0,0.0,0.0,0.0,0.0,0.0
0021500099,1610612753,ORL,Orlando,203906,Devyn Marble,,DNP - Coach's Decision                  ,,,,,,,0.0,,,,,,,0.0,,,2015-11-09T00:00:00,1,ORL,Orlando,3-5,25,23,23,13,0,0,0,0,0,0,0,0,0,0,84,0.397,0.706,0.303,16,44,21,0021500099,1610612753,ORL,Orlando,Devyn Marble,,DNP - Coach's Decision                  ,,,,,,,,,,,,,
0021500099,1610612753,ORL,Orlando,203094,Andrew Nicholson,,DNP - Coach's Decision                  ,,,,,,,0.0,,,,,,,0.0,,,2015-11-09T00:00:00,1,ORL,Orlando,3-5,25,23,23,13,0,0,0,0,0,0,0,0,0,0,84,0.397,0.706,0.303,16,44,21,0021500099,1610612753,ORL,Orlando,Andrew Nicholson,,DNP - Coach's Decision                  ,,,,,,,,,,,,,
0021500099,1610612753,ORL,Orlando,201160,Jason Smith,,DND - Sore Left Knee                    ,,,,,,,0.0,,,,,,,0.0,,,2015-11-09T00:00:00,1,ORL,Orlando,3-5,25,23,23,13,0,0,0,0,0,0,0,0,0,0,84,0.397,0.706,0.303,16,44,21,0021500099,1610612753,ORL,Orlando,Jason Smith,,DND - Sore Left Knee                    ,,,,,,,,,,,,,
0021500099,1610612754,IND,Indiana,101139,CJ Miles,F,,26:48,102.1,78.9,23.1,0.0,0.0,0.0,0.0,0.08,0.041,18.4,0.5,0.507,0.185,102.22,0.034,2015-11-09T00:00:00,1,IND,Indiana,4-4,25,24,23,25,0,0,0,0,0,0,0,0,0,0,97,0.442,0.818,0.44,25,42,18,0021500099,1610612754,IND,Indiana,CJ Miles,F,,26:48,2.0,0.0,2.0,2.0,17.0,3.0,10.0,16.0,0.0,0.0,2.0,3.0
0021500099,1610612754,IND,Indiana,202331,Paul George,F,,36:20,96.4,84.0,12.4,0.389,1.17,20.1,0.063,0.063,0.063,17.2,0.5,0.618,0.336,101.86,0.172,2015-11-09T00:00:00,1,IND,Indiana,4-4,25,24,23,25,0,0,0,0,0,0,0,0,0,0,97,0.442,0.818,0.44,25,42,18,0021500099,1610612754,IND,Indiana,Paul George,F,,36:20,5.0,2.0,0.0,6.0,29.0,7.0,15.0,28.0,0.0,0.0,2.0,4.0
0021500099,1610612754,IND,Indiana,101133,Ian Mahinmi,C,,28:12,96.1,78.8,17.3,0.067,0.5,11.1,0.08,0.28,0.18,22.2,0.667,0.667,0.128,100.36,0.155,2015-11-09T00:00:00,1,IND,Indiana,4-4,25,24,23,25,0,0,0,0,0,0,0,0,0,0,97,0.442,0.818,0.44,25,42,18,0021500099,1610612754,IND,Indiana,Ian Mahinmi,C,,28:12,2.0,0.0,0.0,8.0,20.0,7.0,9.0,20.0,2.0,0.0,2.0,2.0
0021500099,1610612754,IND,Indiana,101145,Monta Ellis,G,,33:27,80.8,86.8,-6.0,0.211,2.0,26.7,0.0,0.125,0.063,13.3,0.111,0.111,0.15,100.13,0.011,2015-11-09T00:00:00,1,IND,Indiana,4-4,25,24,23,25,0,0,0,0,0,0,0,0,0,0,97,0.442,0.818,0.44,25,42,18,0021500099,1610612754,IND,Indiana,Monta Ellis,G,,33:27,2.0,0.0,0.0,2.0,30.0,7.0,11.0,22.0,0.0,1.0,1.0,3.0
0021500099,1610612754,IND,Indiana,201588,George Hill,G,,35:23,109.2,79.9,29.3,0.105,0.0,11.9,0.0,0.226,0.117,0.0,0.769,0.779,0.193,99.17,0.218,2015-11-09T00:00:00,1,IND,Indiana,4-4,25,24,23,25,0,0,0,0,0,0,0,0,0,0,97,0.442,0.818,0.44,25,42,18,0021500099,1610612754,IND,Indiana,George Hill,G,,35:23,5.0,0.0,4.0,6.0,19.0,3.0,12.0,24.0,1.0,1.0,3.0,3.0
0021500099,1610612754,IND,Indiana,201941,Jordan Hill,,,21:12,93.4,90.0,3.3,0.333,1.0,24.5,0.105,0.278,0.189,24.5,0.286,0.361,0.269,96.25,0.097,2015-11-09T00:00:00,1,IND,Indiana,4-4,25,24,23,25,0,0,0,0,0,0,0,0,0,0,97,0.442,0.818,0.44,25,42,18,0021500099,1610612754,IND,Indiana,Jordan Hill,,,21:12,0.0,3.0,0.0,4.0,17.0,4.0,6.0,16.0,0.0,1.0,1.0,2.0
0021500099,1610612754,IND,Indiana,201155,Rodney Stuckey,,,17:49,92.2,92.1,0.1,0.364,0.0,33.3,0.0,0.125,0.057,0.0,0.375,0.375,0.201,102.32,0.129,2015-11-09T00:00:00,1,IND,Indiana,4-4,25,24,23,25,0,0,0,0,0,0,0,0,0,0,97,0.442,0.818,0.44,25,42,18,0021500099,1610612754,IND,Indiana,Rodney Stuckey,,,17:49,2.0,0.0,2.0,6.0,11.0,4.0,9.0,16.0,1.0,0.0,1.0,0.0
0021500099,1610612754,IND,Indiana,1626167,Myles Turner,,,19:48,101.5,90.6,10.9,0.0,0.0,0.0,0.0,0.222,0.111,22.5,0.667,0.727,0.209,98.47,0.119,2015-11-09T00:00:00,1,IND,Indiana,4-4,25,24,23,25,0,0,0,0,0,0,0,0,0,0,97,0.442,0.818,0.44,25,42,18,0021500099,1610612754,IND,Indiana,Myles Turner,,,19:48,0.0,0.0,0.0,2.0,14.0,0.0,7.0,12.0,0.0,0.0,2.0,2.0
0021500099,1610612754,IND,Indiana,201978,Chase Budinger,,,16:51,127.9,72.6,55.3,0.167,0.0,40.0,0.0,0.214,0.111,0.0,1.0,1.0,0.089,93.89,0.159,2015-11-09T00:00:00,1,IND,Indiana,4-4,25,24,23,25,0,0,0,0,0,0,0,0,0,0,97,0.442,0.818,0.44,25,42,18,0021500099,1610612754,IND,Indiana,Chase Budinger,,,16:51,3.0,0.0,0.0,0.0,8.0,0.0,1.0,6.0,0.0,0.0,2.0,1.0
0021500099,1610612754,IND,Indiana,203922,Glenn Robinson III,,,4:10,76.1,90.2,-14.1,0.5,0.0,100.0,0.0,0.0,0.0,0.0,0.0,0.0,0.0,90.09,0.111,2015-11-09T00:00:00,1,IND,Indiana,4-4,25,24,23,25,0,0,0,0,0,0,0,0,0,0,97,0.442,0.818,0.44,25,42,18,0021500099,1610612754,IND,Indiana,Glenn Robinson III,,,4:10,0.0,0.0,0.0,0.0,5.0,0.0,0.0,0.0,0.0,0.0,0.0,0.0
0021500099,1610612754,IND,Indiana,202730,Lavoy Allen,,DNP - Coach's Decision                  ,,,,,,,0.0,,,,,,,0.0,,,2015-11-09T00:00:00,1,IND,Indiana,4-4,25,24,23,25,0,0,0,0,0,0,0,0,0,0,97,0.442,0.818,0.44,25,42,18,0021500099,1610612754,IND,Indiana,Lavoy Allen,,DNP - Coach's Decision                  ,,,,,,,,,,,,,
0021500099,1610612754,IND,Indiana,203524,Solomon Hill,,DNP - Coach's Decision                  ,,,,,,,0.0,,,,,,,0.0,,,2015-11-09T00:00:00,1,IND,Indiana,4-4,25,24,23,25,0,0,0,0,0,0,0,0,0,0,97,0.442,0.818,0.44,25,42,18,0021500099,1610612754,IND,Indiana,Solomon Hill,,DNP - Coach's Decision                  ,,,,,,,,,,,,,
0021500099,1610612754,IND,Indiana,1626202,Joe Young,,DNP - Coach's Decision                  ,,,,,,,0.0,,,,,,,0.0,,,2015-11-09T00:00:00,1,IND,Indiana,4-4,25,24,23,25,0,0,0,0,0,0,0,0,0,0,97,0.442,0.818,0.44,25,42,18,0021500099,1610612754,IND,Indiana,Joe Young,,DNP - Coach's Decision                  ,,,,,,,,,,,,,
