GAME_ID_x,TEAM_ID_x,TEAM_ABBREVIATION_x,TEAM_CITY_x,PLAYER_ID,PLAYER_NAME_x,START_POSITION_x,COMMENT_x,MIN_x,OFF_RATING,DEF_RATING,NET_RATING,AST_PCT,AST_TOV,AST_RATIO,OREB_PCT,DREB_PCT,REB_PCT,TM_TOV_PCT,EFG_PCT,TS_PCT,USG_PCT,PACE,PIE,GAME_DATE_EST,GAME_SEQUENCE,TEAM_ABBREVIATION_y,TEAM_CITY_NAME,TEAM_WINS_LOSSES,PTS_QTR1,PTS_QTR2,PTS_QTR3,PTS_QTR4,PTS_OT1,PTS_OT2,PTS_OT3,PTS_OT4,PTS_OT5,PTS_OT6,PTS_OT7,PTS_OT8,PTS_OT9,PTS_OT10,PTS,FG_PCT,FT_PCT,FG3_PCT,AST,REB,TOV,GAME_ID_y,TEAM_ID_y,TEAM_ABBREVIATION,TEAM_CITY_y,PLAYER_NAME_y,START_POSITION_y,COMMENT_y,MIN_y,PTS_OFF_TOV,PTS_2ND_CHANCE,PTS_FB,PTS_PAINT,OPP_PTS_OFF_TOV,OPP_PTS_2ND_CHANCE,OPP_PTS_FB,OPP_PTS_PAINT,BLK,BLKA,PF,PFD
0021500109,1610612752,NYK,New York,2546,Carmelo Anthony,F,,33:02,101.8,103.6,-1.8,0.167,1.5,10.2,0.0,0.138,0.061,6.8,0.478,0.514,0.322,101.83,0.159,2015-11-10T00:00:00,4,NYK,New York,4-4,24,36,25,26,0,0,0,0,0,0,0,0,0,0,111,0.442,0.889,0.478,22,44,9,0021500109,1610612752,NYK,New York,Carmelo Anthony,F,,33:02,3.0,2.0,0.0,2.0,9.0,13.0,9.0,38.0,0.0,1.0,2.0,4.0
0021500109,1610612752,NYK,New York,204001,Kristaps Porzingis,F,,20:25,110.9,107.3,3.6,0.059,0.33,6.3,0.13,0.176,0.15,18.9,0.273,0.337,0.285,97.99,-0.006,2015-11-10T00:00:00,4,NYK,New York,4-4,24,36,25,26,0,0,0,0,0,0,0,0,0,0,111,0.442,0.889,0.478,22,44,9,0021500109,1610612752,NYK,New York,Kristaps Porzingis,F,,20:25,2.0,4.0,2.0,4.0,4.0,9.0,4.0,22.0,0.0,1.0,3.0,1.0
0021500109,1610612752,NYK,New York,201577,Robin Lopez,C,,29:01,98.5,105.6,-7.1,0.105,0.0,15.4,0.147,0.115,0.133,0.0,0.545,0.545,0.151,102.19,0.112,2015-11-10T00:00:00,4,NYK,New York,4-4,24,36,25,26,0,0,0,0,0,0,0,0,0,0,111,0.442,0.889,0.478,22,44,9,0021500109,1610612752,NYK,New York,Robin Lopez,C,,29:01,0.0,8.0,0.0,12.0,9.0,12.0,9.0,34.0,4.0,0.0,6.0,1.0
0021500109,1610612752,NYK,New York,2756,Sasha Vujacic,G,,20:35,110.9,104.9,6.0,0.111,0.0,25.0,0.087,0.235,0.15,0.0,0.333,0.333,0.115,98.22,0.067,2015-11-10T00:00:00,4,NYK,New York,4-4,24,36,25,26,0,0,0,0,0,0,0,0,0,0,111,0.442,0.889,0.478,22,44,9,0021500109,1610612752,NYK,New York,Sasha Vujacic,G,,20:35,2.0,2.0,0.0,0.0,4.0,9.0,4.0,22.0,0.0,0.0,3.0,1.0
0021500109,1610612752,NYK,New York,101181,Jose Calderon,G,,29:12,98.6,109.6,-11.0,0.1,0.0,20.0,0.0,0.107,0.048,0.0,0.5,0.5,0.115,99.42,0.057,2015-11-10T00:00:00,4,NYK,New York,4-4,24,36,25,26,0,0,0,0,0,0,0,0,0,0,111,0.442,0.889,0.478,22,44,9,0021500109,1610612752,NYK,New York,Jose Calderon,G,,29:12,0.0,0.0,0.0,0.0,6.0,14.0,5.0,34.0,0.0,1.0,3.0,0.0
0021500109,1610612752,NYK,New York,202498,Lance Thomas,,,22:15,120.4,109.9,10.5,0.0,0.0,0.0,0.048,0.091,0.07,0.0,0.929,0.97,0.179,101.35,0.163,2015-11-10T00:00:00,4,NYK,New York,4-4,24,36,25,26,0,0,0,0,0,0,0,0,0,0,111,0.442,0.889,0.478,22,44,9,0021500109,1610612752,NYK,New York,Lance Thomas,,,22:15,0.0,2.0,0.0,4.0,8.0,8.0,7.0,30.0,0.0,0.0,2.0,2.0
0021500109,1610612752,NYK,New York,204038,Langston Galloway,,,27:49,123.8,106.6,17.2,0.19,4.0,25.2,0.042,0.103,0.075,6.3,0.7,0.689,0.181,104.92,0.109,2015-11-10T00:00:00,4,NYK,New York,4-4,24,36,25,26,0,0,0,0,0,0,0,0,0,0,111,0.442,0.889,0.478,22,44,9,0021500109,1610612752,NYK,New York,Langston Galloway,,,27:49,2.0,0.0,3.0,6.0,11.0,11.0,11.0,36.0,0.0,1.0,3.0,2.0
0021500109,1610612752,NYK,New York,203124,Kyle O'Quinn,,,11:57,115.6,109.8,5.7,0.125,0.0,10.7,0.0,0.462,0.25,0.0,0.286,0.361,0.309,105.1,0.131,2015-11-10T00:00:00,4,NYK,New York,4-4,24,36,25,26,0,0,0,0,0,0,0,0,0,0,111,0.442,0.889,0.478,22,44,9,0021500109,1610612752,NYK,New York,Kyle O'Quinn,,,11:57,0.0,0.0,1.0,2.0,2.0,2.0,5.0,14.0,2.0,1.0,1.0,2.0
0021500109,1610612752,NYK,New York,1626170,Jerian Grant,,,18:24,110.8,121.7,-10.9,0.308,4.0,45.0,0.067,0.063,0.065,11.3,0.333,0.515,0.128,93.08,0.056,2015-11-10T00:00:00,4,NYK,New York,4-4,24,36,25,26,0,0,0,0,0,0,0,0,0,0,111,0.442,0.889,0.478,22,44,9,0021500109,1610612752,NYK,New York,Jerian Grant,,,18:24,0.0,0.0,0.0,2.0,13.0,4.0,8.0,28.0,0.0,0.0,2.0,2.0
0021500109,1610612752,NYK,New York,202682,Derrick Williams,,,7:45,100.8,119.4,-18.6,0.75,0.0,43.6,0.0,0.2,0.125,0.0,0.5,0.644,0.244,95.88,0.273,2015-11-10T00:00:00,4,NYK,New York,4-4,24,36,25,26,0,0,0,0,0,0,0,0,0,0,111,0.442,0.889,0.478,22,44,9,0021500109,1610612752,NYK,New York,Derrick Williams,,,7:45,2.0,0.0,2.0,0.0,6.0,4.0,5.0,10.0,0.0,0.0,0.0,2.0
0021500109,1610612752,NYK,New York,202338,Kevin Seraphin,,,8:29,137.6,137.8,-0.2,0.0,0.0,0.0,0.0,0.0,0.0,40.0,0.333,0.333,0.271,94.49,-0.031,2015-11-10T00:00:00,4,NYK,New York,4-4,24,36,25,26,0,0,0,0,0,0,0,0,0,0,111,0.442,0.889,0.478,22,44,9,0021500109,1610612752,NYK,New York,Kevin Seraphin,,,8:29,0.0,0.0,0.0,0.0,8.0,5.0,0.0,12.0,1.0,1.0,0.0,0.0
0021500109,1610612752,NYK,New York,200811,Lou Amundson,,,5:16,121.5,121.5,0.0,0.0,0.0,0.0,0.0,0.0,0.0,0.0,0.0,0.0,0.0,90.05,-0.041,2015-11-10T00:00:00,4,NYK,New York,4-4,24,36,25,26,0,0,0,0,0,0,0,0,0,0,111,0.442,0.889,0.478,22,44,9,0021500109,1610612752,NYK,New York,Lou Amundson,,,5:16,0.0,0.0,0.0,0.0,5.0,2.0,3.0,10.0,0.0,0.0,2.0,0.0
0021500109,1610612752,NYK,New York,203921,Cleanthony Early,,,5:50,161.9,121.5,40.5,0.0,0.0,0.0,0.0,0.0,0.0,0.0,0.833,0.833,0.276,81.3,0.143,2015-11-10T00:00:00,4,NYK,New York,4-4,24,36,25,26,0,0,0,0,0,0,0,0,0,0,111,0.442,0.889,0.478,22,44,9,0021500109,1610612752,NYK,New York,Cleanthony Early,,,5:50,0.0,0.0,5.0,2.0,0.0,2.0,0.0,10.0,0.0,0.0,0.0,0.0
0021500109,1610612761,TOR,Toronto,201949,James Johnson,F,,29:28,102.5,92.5,9.9,0.158,1.5,28.2,0.038,0.056,0.048,18.8,0.5,0.621,0.117,96.97,0.055,2015-11-10T00:00:00,4,TOR,Toronto,5-3,17,35,33,24,0,0,0,0,0,0,0,0,0,0,109,0.44,0.795,0.235,25,49,11,0021500109,1610612761,TOR,Toronto,James Johnson,F,,29:28,2.0,0.0,0.0,0.0,4.0,16.0,3.0,20.0,3.0,1.0,4.0,3.0
0021500109,1610612761,TOR,Toronto,2449,Luis Scola,F,,21:40,109.7,108.4,1.3,0.067,0.0,7.3,0.105,0.208,0.163,0.0,0.3,0.435,0.241,104.63,0.132,2015-11-10T00:00:00,4,TOR,Toronto,5-3,17,35,33,24,0,0,0,0,0,0,0,0,0,0,109,0.44,0.795,0.235,25,49,11,0021500109,1610612761,TOR,Toronto,Luis Scola,F,,21:40,2.0,3.0,0.0,6.0,7.0,10.0,2.0,14.0,0.0,1.0,0.0,5.0
0021500109,1610612761,TOR,Toronto,202685,Jonas Valanciunas,C,,31:48,103.7,104.8,-1.0,0.0,0.0,0.0,0.133,0.171,0.154,17.0,0.75,0.82,0.152,103.52,0.164,2015-11-10T00:00:00,4,TOR,Toronto,5-3,17,35,33,24,0,0,0,0,0,0,0,0,0,0,109,0.44,0.795,0.235,25,49,11,0021500109,1610612761,TOR,Toronto,Jonas Valanciunas,C,,31:48,2.0,6.0,0.0,12.0,9.0,16.0,6.0,24.0,0.0,0.0,1.0,4.0
0021500109,1610612761,TOR,Toronto,201942,DeMar DeRozan,G,,38:41,98.5,112.0,-13.5,0.125,2.0,6.7,0.0,0.128,0.068,3.3,0.478,0.538,0.31,99.07,0.155,2015-11-10T00:00:00,4,TOR,Toronto,5-3,17,35,33,24,0,0,0,0,0,0,0,0,0,0,109,0.44,0.795,0.235,25,49,11,0021500109,1610612761,TOR,Toronto,DeMar DeRozan,G,,38:41,3.0,4.0,6.0,16.0,11.0,16.0,7.0,30.0,0.0,1.0,1.0,5.0
0021500109,1610612761,TOR,Toronto,200768,Kyle Lowry,G,,36:59,108.1,93.2,14.9,0.5,2.25,26.4,0.029,0.116,0.077,11.7,0.5,0.546,0.292,98.79,0.166,2015-11-10T00:00:00,4,TOR,Toronto,5-3,17,35,33,24,0,0,0,0,0,0,0,0,0,0,109,0.44,0.795,0.235,25,49,11,0021500109,1610612761,TOR,Toronto,Kyle Lowry,G,,36:59,6.0,2.0,8.0,12.0,7.0,18.0,6.0,22.0,1.0,2.0,5.0,4.0
0021500109,1610612761,TOR,Toronto,202335,Patrick Patterson,,,19:25,119.9,125.4,-5.5,0.0,0.0,0.0,0.05,0.333,0.171,14.3,0.333,0.333,0.152,97.8,0.026,2015-11-10T00:00:00,4,TOR,Toronto,5-3,17,35,33,24,0,0,0,0,0,0,0,0,0,0,109,0.44,0.795,0.235,25,49,11,0021500109,1610612761,TOR,Toronto,Patrick Patterson,,,19:25,2.0,0.0,0.0,4.0,4.0,4.0,11.0,16.0,0.0,0.0,2.0,0.0
0021500109,1610612761,TOR,Toronto,202687,Bismack Biyombo,,,16:12,123.7,125.0,-1.3,0.182,0.0,40.0,0.133,0.077,0.107,0.0,0.667,0.667,0.084,91.73,0.079,2015-11-10T00:00:00,4,TOR,Toronto,5-3,17,35,33,24,0,0,0,0,0,0,0,0,0,0,109,0.44,0.795,0.235,25,49,11,0021500109,1610612761,TOR,Toronto,Bismack Biyombo,,,16:12,0.0,4.0,0.0,4.0,2.0,2.0,7.0,10.0,2.0,1.0,2.0,1.0
0021500109,1610612761,TOR,Toronto,203461,Anthony Bennett,,,17:24,123.8,141.9,-18.1,0.0,0.0,0.0,0.059,0.182,0.107,0.0,0.0,0.315,0.117,98.45,0.005,2015-11-10T00:00:00,4,TOR,Toronto,5-3,17,35,33,24,0,0,0,0,0,0,0,0,0,0,109,0.44,0.795,0.235,25,49,11,0021500109,1610612761,TOR,Toronto,Anthony Bennett,,,17:24,0.0,0.0,0.0,0.0,7.0,2.0,10.0,14.0,0.0,0.0,1.0,2.0
0021500109,1610612761,TOR,Toronto,202709,Cory Joseph,,,26:48,119.3,119.7,-0.5,0.421,8.0,41.4,0.077,0.174,0.122,5.2,0.5,0.581,0.167,101.16,0.149,2015-11-10T00:00:00,4,TOR,Toronto,5-3,17,35,33,24,0,0,0,0,0,0,0,0,0,0,109,0.44,0.795,0.235,25,49,11,0021500109,1610612761,TOR,Toronto,Cory Joseph,,,26:48,0.0,0.0,0.0,6.0,4.0,6.0,10.0,18.0,0.0,1.0,1.0,3.0
0021500109,1610612761,TOR,Toronto,1626181,Norman Powell,,,1:35,133.3,202.7,-69.4,0.0,0.0,0.0,0.0,0.0,0.0,0.0,0.0,0.0,0.25,112.77,-0.063,2015-11-10T00:00:00,4,TOR,Toronto,5-3,17,35,33,24,0,0,0,0,0,0,0,0,0,0,109,0.44,0.795,0.235,25,49,11,0021500109,1610612761,TOR,Toronto,Norman Powell,,,1:35,0.0,0.0,0.0,0.0,0.0,0.0,3.0,2.0,0.0,0.0,0.0,0.0
0021500109,1610612761,TOR,Toronto,203998,Bruno Caboclo,,DNP - Coach's Decision                  ,,,,,,,0.0,,,,,,,0.0,,,2015-11-10T00:00:00,4,TOR,Toronto,5-3,17,35,33,24,0,0,0,0,0,0,0,0,0,0,109,0.44,0.795,0.235,25,49,11,0021500109,1610612761,TOR,Toronto,Bruno Caboclo,,DNP - Coach's Decision                  ,,,,,,,,,,,,,
0021500109,1610612761,TOR,Toronto,203512,Lucas Nogueira,,DNP - Coach's Decision                  ,,,,,,,0.0,,,,,,,0.0,,,2015-11-10T00:00:00,4,TOR,Toronto,5-3,17,35,33,24,0,0,0,0,0,0,0,0,0,0,109,0.44,0.795,0.235,25,49,11,0021500109,1610612761,TOR,Toronto,Lucas Nogueira,,DNP - Coach's Decision                  ,,,,,,,,,,,,,
0021500109,1610612761,TOR,Toronto,1626153,Delon Wright,,DNP - Coach's Decision                  ,,,,,,,0.0,,,,,,,0.0,,,2015-11-10T00:00:00,4,TOR,Toronto,5-3,17,35,33,24,0,0,0,0,0,0,0,0,0,0,109,0.44,0.795,0.235,25,49,11,0021500109,1610612761,TOR,Toronto,Delon Wright,,DNP - Coach's Decision                  ,,,,,,,,,,,,,
