GAME_ID_x,TEAM_ID_x,TEAM_ABBREVIATION_x,TEAM_CITY_x,PLAYER_ID,PLAYER_NAME_x,START_POSITION_x,COMMENT_x,MIN_x,OFF_RATING,DEF_RATING,NET_RATING,AST_PCT,AST_TOV,AST_RATIO,OREB_PCT,DREB_PCT,REB_PCT,TM_TOV_PCT,EFG_PCT,TS_PCT,USG_PCT,PACE,PIE,GAME_DATE_EST,GAME_SEQUENCE,TEAM_ABBREVIATION_y,TEAM_CITY_NAME,TEAM_WINS_LOSSES,PTS_QTR1,PTS_QTR2,PTS_QTR3,PTS_QTR4,PTS_OT1,PTS_OT2,PTS_OT3,PTS_OT4,PTS_OT5,PTS_OT6,PTS_OT7,PTS_OT8,PTS_OT9,PTS_OT10,PTS,FG_PCT,FT_PCT,FG3_PCT,AST,REB,TOV,GAME_ID_y,TEAM_ID_y,TEAM_ABBREVIATION,TEAM_CITY_y,PLAYER_NAME_y,START_POSITION_y,COMMENT_y,MIN_y,PTS_OFF_TOV,PTS_2ND_CHANCE,PTS_FB,PTS_PAINT,OPP_PTS_OFF_TOV,OPP_PTS_2ND_CHANCE,OPP_PTS_FB,OPP_PTS_PAINT,BLK,BLKA,PF,PFD
0021500115,1610612761,TOR,Toronto,201949,James Johnson,F,,29:58,121.4,90.2,31.2,0.13,1.5,25.3,0.034,0.125,0.082,16.8,0.5,0.581,0.128,94.76,0.104,2015-11-11T00:00:00,3,TOR,Toronto,6-3,29,34,33,23,0,0,0,0,0,0,0,0,0,0,119,0.483,0.903,0.278,22,56,8,0021500115,1610612761,TOR,Toronto,James Johnson,F,,29:58,0.0,0.0,0.0,6.0,6.0,2.0,7.0,30.0,1.0,0.0,1.0,2.0
0021500115,1610612761,TOR,Toronto,2449,Luis Scola,F,,18:33,138.5,92.3,46.2,0.1,1.0,5.9,0.143,0.176,0.161,5.9,0.7,0.7,0.361,95.76,0.236,2015-11-11T00:00:00,3,TOR,Toronto,6-3,29,34,33,23,0,0,0,0,0,0,0,0,0,0,119,0.483,0.903,0.278,22,56,8,0021500115,1610612761,TOR,Toronto,Luis Scola,F,,18:33,4.0,2.0,4.0,12.0,0.0,2.0,0.0,20.0,1.0,0.0,4.0,0.0
0021500115,1610612761,TOR,Toronto,202685,Jonas Valanciunas,C,,22:40,139.5,92.3,47.3,0.053,0.0,9.3,0.118,0.4,0.286,0.0,0.5,0.564,0.189,94.49,0.181,2015-11-11T00:00:00,3,TOR,Toronto,6-3,29,34,33,23,0,0,0,0,0,0,0,0,0,0,119,0.483,0.903,0.278,22,56,8,0021500115,1610612761,TOR,Toronto,Jonas Valanciunas,C,,22:40,0.0,6.0,0.0,6.0,4.0,2.0,2.0,26.0,1.0,2.0,2.0,2.0
0021500115,1610612761,TOR,Toronto,201942,DeMar DeRozan,G,,27:24,129.6,111.9,17.6,0.095,0.0,14.7,0.083,0.08,0.082,0.0,0.5,0.601,0.18,97.3,0.102,2015-11-11T00:00:00,3,TOR,Toronto,6-3,29,34,33,23,0,0,0,0,0,0,0,0,0,0,119,0.483,0.903,0.278,22,56,8,0021500115,1610612761,TOR,Toronto,DeMar DeRozan,G,,27:24,0.0,0.0,3.0,2.0,6.0,2.0,5.0,34.0,0.0,1.0,1.0,5.0
0021500115,1610612761,TOR,Toronto,200768,Kyle Lowry,G,,28:57,131.0,107.9,23.1,0.364,4.0,30.3,0.0,0.097,0.058,7.6,0.583,0.701,0.275,97.16,0.195,2015-11-11T00:00:00,3,TOR,Toronto,6-3,29,34,33,23,0,0,0,0,0,0,0,0,0,0,119,0.483,0.903,0.278,22,56,8,0021500115,1610612761,TOR,Toronto,Kyle Lowry,G,,28:57,1.0,2.0,7.0,6.0,8.0,2.0,7.0,36.0,0.0,0.0,2.0,6.0
0021500115,1610612761,TOR,Toronto,202687,Bismack Biyombo,,,21:04,117.3,128.7,-11.4,0.0,0.0,0.0,0.238,0.227,0.233,0.0,0.375,0.512,0.204,94.45,0.094,2015-11-11T00:00:00,3,TOR,Toronto,6-3,29,34,33,23,0,0,0,0,0,0,0,0,0,0,119,0.483,0.903,0.278,22,56,8,0021500115,1610612761,TOR,Toronto,Bismack Biyombo,,,21:04,2.0,4.0,2.0,6.0,6.0,2.0,10.0,24.0,3.0,1.0,5.0,3.0
0021500115,1610612761,TOR,Toronto,202335,Patrick Patterson,,,25:30,127.9,121.0,6.9,0.053,0.5,9.1,0.087,0.2,0.146,18.2,0.438,0.438,0.174,93.06,0.078,2015-11-11T00:00:00,3,TOR,Toronto,6-3,29,34,33,23,0,0,0,0,0,0,0,0,0,0,119,0.483,0.903,0.278,22,56,8,0021500115,1610612761,TOR,Toronto,Patrick Patterson,,,25:30,2.0,2.0,3.0,4.0,6.0,2.0,10.0,28.0,0.0,0.0,0.0,0.0
0021500115,1610612761,TOR,Toronto,202709,Cory Joseph,,,30:51,136.8,120.8,16.0,0.2,0.0,32.6,0.0,0.069,0.038,0.0,0.667,0.727,0.149,90.59,0.124,2015-11-11T00:00:00,3,TOR,Toronto,6-3,29,34,33,23,0,0,0,0,0,0,0,0,0,0,119,0.483,0.903,0.278,22,56,8,0021500115,1610612761,TOR,Toronto,Cory Joseph,,,30:51,3.0,0.0,0.0,8.0,8.0,2.0,12.0,32.0,0.0,0.0,1.0,4.0
0021500115,1610612761,TOR,Toronto,1626181,Norman Powell,,,24:37,124.1,107.4,16.7,0.056,1.0,8.3,0.08,0.074,0.077,8.3,0.4,0.4,0.191,92.74,0.039,2015-11-11T00:00:00,3,TOR,Toronto,6-3,29,34,33,23,0,0,0,0,0,0,0,0,0,0,119,0.483,0.903,0.278,22,56,8,0021500115,1610612761,TOR,Toronto,Norman Powell,,,24:37,4.0,2.0,6.0,8.0,6.0,2.0,7.0,24.0,0.0,2.0,2.0,1.0
0021500115,1610612761,TOR,Toronto,203461,Anthony Bennett,,,5:28,102.5,128.7,-26.2,0.0,0.0,0.0,0.0,0.286,0.154,0.0,0.0,0.532,0.175,90.61,0.122,2015-11-11T00:00:00,3,TOR,Toronto,6-3,29,34,33,23,0,0,0,0,0,0,0,0,0,0,119,0.483,0.903,0.278,22,56,8,0021500115,1610612761,TOR,Toronto,Anthony Bennett,,,5:28,0.0,0.0,0.0,0.0,0.0,2.0,0.0,10.0,0.0,0.0,0.0,1.0
0021500115,1610612761,TOR,Toronto,1626153,Delon Wright,,,2:36,69.4,83.3,-13.9,0.0,0.0,0.0,0.2,0.167,0.182,0.0,0.0,0.0,0.296,108.55,-0.059,2015-11-11T00:00:00,3,TOR,Toronto,6-3,29,34,33,23,0,0,0,0,0,0,0,0,0,0,119,0.483,0.903,0.278,22,56,8,0021500115,1610612761,TOR,Toronto,Delon Wright,,,2:36,0.0,0.0,0.0,0.0,0.0,0.0,0.0,2.0,0.0,1.0,0.0,0.0
0021500115,1610612761,TOR,Toronto,203512,Lucas Nogueira,,,1:11,0.0,66.7,-66.7,0.0,0.0,0.0,0.0,0.0,0.0,0.0,0.0,0.0,0.0,101.41,0.2,2015-11-11T00:00:00,3,TOR,Toronto,6-3,29,34,33,23,0,0,0,0,0,0,0,0,0,0,119,0.483,0.903,0.278,22,56,8,0021500115,1610612761,TOR,Toronto,Lucas Nogueira,,,1:11,0.0,0.0,0.0,0.0,0.0,0.0,0.0,2.0,1.0,0.0,0.0,0.0
0021500115,1610612761,TOR,Toronto,203998,Bruno Caboclo,,,1:11,0.0,66.7,-66.7,0.0,0.0,0.0,0.0,0.0,0.0,0.0,0.0,0.0,0.333,101.41,-0.4,2015-11-11T00:00:00,3,TOR,Toronto,6-3,29,34,33,23,0,0,0,0,0,0,0,0,0,0,119,0.483,0.903,0.278,22,56,8,0021500115,1610612761,TOR,Toronto,Bruno Caboclo,,,1:11,0.0,0.0,0.0,0.0,0.0,0.0,0.0,2.0,0.0,0.0,0.0,0.0
0021500115,1610612755,PHI,Philadelphia,203960,JaKarr Sampson,F,,26:56,90.2,134.0,-43.8,0.0,0.0,0.0,0.094,0.115,0.103,0.0,0.4,0.414,0.175,92.29,0.048,2015-11-11T00:00:00,3,PHI,Philadelphia,0-8,34,23,20,26,0,0,0,0,0,0,0,0,0,0,103,0.46,0.647,0.414,28,37,11,0021500115,1610612755,PHI,Philadelphia,JaKarr Sampson,F,,26:56,0.0,2.0,2.0,8.0,13.0,10.0,16.0,26.0,1.0,1.0,2.0,1.0
0021500115,1610612755,PHI,Philadelphia,203924,Jerami Grant,F,,32:21,104.2,133.1,-28.9,0.05,0.0,7.8,0.156,0.161,0.159,0.0,0.5,0.51,0.165,93.95,0.095,2015-11-11T00:00:00,3,PHI,Philadelphia,0-8,34,23,20,26,0,0,0,0,0,0,0,0,0,0,103,0.46,0.647,0.414,28,37,11,0021500115,1610612755,PHI,Philadelphia,Jerami Grant,F,,32:21,2.0,0.0,2.0,10.0,13.0,14.0,17.0,42.0,2.0,1.0,3.0,4.0
0021500115,1610612755,PHI,Philadelphia,1626143,Jahlil Okafor,C,,32:39,101.8,134.2,-32.3,0.071,0.25,3.6,0.061,0.208,0.123,14.3,0.591,0.568,0.369,93.5,0.11,2015-11-11T00:00:00,3,PHI,Philadelphia,0-8,34,23,20,26,0,0,0,0,0,0,0,0,0,0,103,0.46,0.647,0.414,28,37,11,0021500115,1610612755,PHI,Philadelphia,Jahlil Okafor,C,,32:39,4.0,2.0,0.0,24.0,14.0,12.0,21.0,40.0,4.0,2.0,5.0,4.0
0021500115,1610612755,PHI,Philadelphia,203917,Nik Stauskas,G,,29:58,103.8,135.4,-31.6,0.15,3.0,20.0,0.0,0.045,0.02,6.7,0.364,0.364,0.188,92.27,0.016,2015-11-11T00:00:00,3,PHI,Philadelphia,0-8,34,23,20,26,0,0,0,0,0,0,0,0,0,0,103,0.46,0.647,0.414,28,37,11,0021500115,1610612755,PHI,Philadelphia,Nik Stauskas,G,,29:58,2.0,0.0,0.0,2.0,13.0,8.0,15.0,42.0,0.0,1.0,1.0,1.0
0021500115,1610612755,PHI,Philadelphia,204456,T.J. McConnell,G,,30:34,101.9,129.0,-27.1,0.542,6.5,65.0,0.0,0.148,0.067,10.0,0.2,0.2,0.102,92.02,0.083,2015-11-11T00:00:00,3,PHI,Philadelphia,0-8,34,23,20,26,0,0,0,0,0,0,0,0,0,0,103,0.46,0.647,0.414,28,37,11,0021500115,1610612755,PHI,Philadelphia,T.J. McConnell,G,,30:34,0.0,0.0,0.0,2.0,11.0,12.0,16.0,30.0,0.0,0.0,3.0,1.0
0021500115,1610612755,PHI,Philadelphia,1626174,Christian Wood,,,15:36,117.5,117.2,0.3,0.077,0.0,12.5,0.0,0.214,0.097,0.0,0.286,0.286,0.193,102.28,0.027,2015-11-11T00:00:00,3,PHI,Philadelphia,0-8,34,23,20,26,0,0,0,0,0,0,0,0,0,0,103,0.46,0.647,0.414,28,37,11,0021500115,1610612755,PHI,Philadelphia,Christian Wood,,,15:36,2.0,0.0,2.0,4.0,3.0,6.0,7.0,20.0,0.0,2.0,1.0,3.0
0021500115,1610612755,PHI,Philadelphia,203138,Hollis Thompson,,,26:39,125.3,115.6,9.7,0.053,1.0,9.2,0.037,0.107,0.073,9.2,1.063,1.07,0.17,95.64,0.126,2015-11-11T00:00:00,3,PHI,Philadelphia,0-8,34,23,20,26,0,0,0,0,0,0,0,0,0,0,103,0.46,0.647,0.414,28,37,11,0021500115,1610612755,PHI,Philadelphia,Hollis Thompson,,,26:39,0.0,0.0,0.0,2.0,5.0,10.0,12.0,30.0,0.0,0.0,5.0,1.0
0021500115,1610612755,PHI,Philadelphia,203477,Isaiah Canaan,,,28:43,112.8,119.7,-6.9,0.05,0.5,6.5,0.0,0.0,0.0,13.1,0.682,0.731,0.226,97.11,0.072,2015-11-11T00:00:00,3,PHI,Philadelphia,0-8,34,23,20,26,0,0,0,0,0,0,0,0,0,0,103,0.46,0.647,0.414,28,37,11,0021500115,1610612755,PHI,Philadelphia,Isaiah Canaan,,,28:43,0.0,0.0,6.0,0.0,5.0,12.0,14.0,36.0,0.0,0.0,2.0,1.0
0021500115,1610612755,PHI,Philadelphia,203515,Phil Pressey,,,16:34,124.9,114.2,10.7,0.5,7.0,54.9,0.0,0.125,0.063,7.8,0.333,0.525,0.162,96.94,0.121,2015-11-11T00:00:00,3,PHI,Philadelphia,0-8,34,23,20,26,0,0,0,0,0,0,0,0,0,0,103,0.46,0.647,0.414,28,37,11,0021500115,1610612755,PHI,Philadelphia,Phil Pressey,,,16:34,0.0,0.0,0.0,2.0,3.0,6.0,7.0,24.0,0.0,0.0,2.0,2.0
0021500115,1610612755,PHI,Philadelphia,203496,Robert Covington,,DND - Right Knee Sprain                 ,,,,,,,0.0,,,,,,,0.0,,,2015-11-11T00:00:00,3,PHI,Philadelphia,0-8,34,23,20,26,0,0,0,0,0,0,0,0,0,0,103,0.46,0.647,0.414,28,37,11,0021500115,1610612755,PHI,Philadelphia,Robert Covington,,DND - Right Knee Sprain                 ,,,,,,,,,,,,,
0021500115,1610612755,PHI,Philadelphia,1626158,Richaun Holmes,,DND - Right Hamstring Strain            ,,,,,,,0.0,,,,,,,0.0,,,2015-11-11T00:00:00,3,PHI,Philadelphia,0-8,34,23,20,26,0,0,0,0,0,0,0,0,0,0,103,0.46,0.647,0.414,28,37,11,0021500115,1610612755,PHI,Philadelphia,Richaun Holmes,,DND - Right Hamstring Strain            ,,,,,,,,,,,,,
0021500115,1610612755,PHI,Philadelphia,201171,Carl Landry,,DND - Right Wrist Injury                ,,,,,,,0.0,,,,,,,0.0,,,2015-11-11T00:00:00,3,PHI,Philadelphia,0-8,34,23,20,26,0,0,0,0,0,0,0,0,0,0,103,0.46,0.647,0.414,28,37,11,0021500115,1610612755,PHI,Philadelphia,Carl Landry,,DND - Right Wrist Injury                ,,,,,,,,,,,,,
0021500115,1610612755,PHI,Philadelphia,203457,Nerlens Noel,,DND - Left Wrist Soreness               ,,,,,,,0.0,,,,,,,0.0,,,2015-11-11T00:00:00,3,PHI,Philadelphia,0-8,34,23,20,26,0,0,0,0,0,0,0,0,0,0,103,0.46,0.647,0.414,28,37,11,0021500115,1610612755,PHI,Philadelphia,Nerlens Noel,,DND - Left Wrist Soreness               ,,,,,,,,,,,,,
