GAME_ID_x,TEAM_ID_x,TEAM_ABBREVIATION_x,TEAM_CITY_x,PLAYER_ID,PLAYER_NAME_x,START_POSITION_x,COMMENT_x,MIN_x,OFF_RATING,DEF_RATING,NET_RATING,AST_PCT,AST_TOV,AST_RATIO,OREB_PCT,DREB_PCT,REB_PCT,TM_TOV_PCT,EFG_PCT,TS_PCT,USG_PCT,PACE,PIE,GAME_DATE_EST,GAME_SEQUENCE,TEAM_ID_y,TEAM_ABBREVIATION_y,TEAM_CITY_NAME,TEAM_WINS_LOSSES,PTS_QTR1,PTS_QTR2,PTS_QTR3,PTS_QTR4,PTS_OT1,PTS_OT2,PTS_OT3,PTS_OT4,PTS_OT5,PTS_OT6,PTS_OT7,PTS_OT8,PTS_OT9,PTS_OT10,PTS,FG_PCT,FT_PCT,FG3_PCT,AST,REB,TOV,GAME_ID_y,TEAM_ID,TEAM_ABBREVIATION,TEAM_CITY_y,PLAYER_NAME_y,START_POSITION_y,COMMENT_y,MIN_y,PTS_OFF_TOV,PTS_2ND_CHANCE,PTS_FB,PTS_PAINT,OPP_PTS_OFF_TOV,OPP_PTS_2ND_CHANCE,OPP_PTS_FB,OPP_PTS_PAINT,BLK,BLKA,PF,PFD
0021300939,1610612757,POR,Portland,201587,Nicolas Batum,F,,43:26,108.8,111.5,-2.7,0.207,0.86,26.1,0.111,0.179,0.143,30.4,0.4,0.4,0.157,101.81,0.058,2014-03-09T00:00:00,6,1610612757,POR,Portland,42-21,30,24,31,21,7,0,0,0,0,0,0,0,0,0,113,0.406,0.788,0.36,24,56,20,0021300939,1610612757,POR,Portland,Nicolas Batum,F,,43:26,4.0,0.0,6.0,8.0,30.0,15.0,12.0,46.0,2.0,0.0,4.0,1.0
0021300939,1610612757,POR,Portland,201587,Nicolas Batum,F,,43:26,108.8,111.5,-2.7,0.207,0.86,26.1,0.111,0.179,0.143,30.4,0.4,0.4,0.157,101.81,0.058,2014-03-09T00:00:00,6,1610612745,HOU,Houston,44-19,28,19,26,33,12,0,0,0,0,0,0,0,0,0,118,0.427,0.733,0.31,13,48,13,0021300939,1610612757,POR,Portland,Nicolas Batum,F,,43:26,4.0,0.0,6.0,8.0,30.0,15.0,12.0,46.0,2.0,0.0,4.0,1.0
0021300939,1610612757,POR,Portland,200746,LaMarcus Aldridge,F,,42:06,110.8,107.5,3.3,0.0,0.0,0.0,0.095,0.205,0.148,0.0,0.389,0.446,0.309,101.36,0.117,2014-03-09T00:00:00,6,1610612757,POR,Portland,42-21,30,24,31,21,7,0,0,0,0,0,0,0,0,0,113,0.406,0.788,0.36,24,56,20,0021300939,1610612757,POR,Portland,LaMarcus Aldridge,F,,42:06,0.0,7.0,6.0,10.0,25.0,13.0,13.0,46.0,2.0,1.0,3.0,6.0
0021300939,1610612757,POR,Portland,200746,LaMarcus Aldridge,F,,42:06,110.8,107.5,3.3,0.0,0.0,0.0,0.095,0.205,0.148,0.0,0.389,0.446,0.309,101.36,0.117,2014-03-09T00:00:00,6,1610612745,HOU,Houston,44-19,28,19,26,33,12,0,0,0,0,0,0,0,0,0,118,0.427,0.733,0.31,13,48,13,0021300939,1610612757,POR,Portland,LaMarcus Aldridge,F,,42:06,0.0,7.0,6.0,10.0,25.0,13.0,13.0,46.0,2.0,1.0,3.0,6.0
0021300939,1610612757,POR,Portland,201577,Robin Lopez,C,,37:53,110.6,104.6,6.0,0.0,0.0,0.0,0.105,0.189,0.147,10.2,0.571,0.628,0.105,97.11,0.11,2014-03-09T00:00:00,6,1610612757,POR,Portland,42-21,30,24,31,21,7,0,0,0,0,0,0,0,0,0,113,0.406,0.788,0.36,24,56,20,0021300939,1610612757,POR,Portland,Robin Lopez,C,,37:53,2.0,3.0,0.0,6.0,19.0,7.0,12.0,34.0,5.0,0.0,5.0,3.0
0021300939,1610612757,POR,Portland,201577,Robin Lopez,C,,37:53,110.6,104.6,6.0,0.0,0.0,0.0,0.105,0.189,0.147,10.2,0.571,0.628,0.105,97.11,0.11,2014-03-09T00:00:00,6,1610612745,HOU,Houston,44-19,28,19,26,33,12,0,0,0,0,0,0,0,0,0,118,0.427,0.733,0.31,13,48,13,0021300939,1610612757,POR,Portland,Robin Lopez,C,,37:53,2.0,3.0,0.0,6.0,19.0,7.0,12.0,34.0,5.0,0.0,5.0,3.0
0021300939,1610612757,POR,Portland,202083,Wesley Matthews,G,,41:09,100.4,108.2,-7.8,0.095,0.0,8.8,0.044,0.053,0.048,0.0,0.467,0.627,0.202,100.08,0.156,2014-03-09T00:00:00,6,1610612757,POR,Portland,42-21,30,24,31,21,7,0,0,0,0,0,0,0,0,0,113,0.406,0.788,0.36,24,56,20,0021300939,1610612757,POR,Portland,Wesley Matthews,G,,41:09,7.0,0.0,4.0,2.0,26.0,9.0,14.0,42.0,1.0,0.0,5.0,10.0
0021300939,1610612757,POR,Portland,202083,Wesley Matthews,G,,41:09,100.4,108.2,-7.8,0.095,0.0,8.8,0.044,0.053,0.048,0.0,0.467,0.627,0.202,100.08,0.156,2014-03-09T00:00:00,6,1610612745,HOU,Houston,44-19,28,19,26,33,12,0,0,0,0,0,0,0,0,0,118,0.427,0.733,0.31,13,48,13,0021300939,1610612757,POR,Portland,Wesley Matthews,G,,41:09,7.0,0.0,4.0,2.0,26.0,9.0,14.0,42.0,1.0,0.0,5.0,10.0
0021300939,1610612757,POR,Portland,203081,Damian Lillard,G,,33:04,112.4,108.2,4.1,0.222,0.57,15.5,0.0,0.154,0.073,27.2,0.654,0.711,0.271,106.66,0.099,2014-03-09T00:00:00,6,1610612757,POR,Portland,42-21,30,24,31,21,7,0,0,0,0,0,0,0,0,0,113,0.406,0.788,0.36,24,56,20,0021300939,1610612757,POR,Portland,Damian Lillard,G,,33:04,0.0,2.0,0.0,8.0,25.0,10.0,15.0,40.0,0.0,0.0,6.0,2.0
0021300939,1610612757,POR,Portland,203081,Damian Lillard,G,,33:04,112.4,108.2,4.1,0.222,0.57,15.5,0.0,0.154,0.073,27.2,0.654,0.711,0.271,106.66,0.099,2014-03-09T00:00:00,6,1610612745,HOU,Houston,44-19,28,19,26,33,12,0,0,0,0,0,0,0,0,0,118,0.427,0.733,0.31,13,48,13,0021300939,1610612757,POR,Portland,Damian Lillard,G,,33:04,0.0,2.0,0.0,8.0,25.0,10.0,15.0,40.0,0.0,0.0,6.0,2.0
0021300939,1610612757,POR,Portland,203086,Meyers Leonard,,,8:03,77.0,116.1,-39.1,0.0,0.0,0.0,0.091,0.286,0.167,0.0,1.0,1.0,0.046,93.97,0.122,2014-03-09T00:00:00,6,1610612757,POR,Portland,42-21,30,24,31,21,7,0,0,0,0,0,0,0,0,0,113,0.406,0.788,0.36,24,56,20,0021300939,1610612757,POR,Portland,Meyers Leonard,,,8:03,0.0,2.0,0.0,0.0,7.0,2.0,2.0,6.0,0.0,0.0,2.0,1.0
0021300939,1610612757,POR,Portland,203086,Meyers Leonard,,,8:03,77.0,116.1,-39.1,0.0,0.0,0.0,0.091,0.286,0.167,0.0,1.0,1.0,0.046,93.97,0.122,2014-03-09T00:00:00,6,1610612745,HOU,Houston,44-19,28,19,26,33,12,0,0,0,0,0,0,0,0,0,118,0.427,0.733,0.31,13,48,13,0021300939,1610612757,POR,Portland,Meyers Leonard,,,8:03,0.0,2.0,0.0,0.0,7.0,2.0,2.0,6.0,0.0,0.0,2.0,1.0
0021300939,1610612757,POR,Portland,203080,Thomas Robinson,,,11:21,77.7,124.2,-46.5,0.0,0.0,0.0,0.286,0.0,0.174,53.2,0.0,0.0,0.067,85.43,-0.151,2014-03-09T00:00:00,6,1610612757,POR,Portland,42-21,30,24,31,21,7,0,0,0,0,0,0,0,0,0,113,0.406,0.788,0.36,24,56,20,0021300939,1610612757,POR,Portland,Thomas Robinson,,,11:21,0.0,0.0,0.0,0.0,7.0,4.0,5.0,8.0,0.0,0.0,3.0,1.0
0021300939,1610612757,POR,Portland,203080,Thomas Robinson,,,11:21,77.7,124.2,-46.5,0.0,0.0,0.0,0.286,0.0,0.174,53.2,0.0,0.0,0.067,85.43,-0.151,2014-03-09T00:00:00,6,1610612745,HOU,Houston,44-19,28,19,26,33,12,0,0,0,0,0,0,0,0,0,118,0.427,0.733,0.31,13,48,13,0021300939,1610612757,POR,Portland,Thomas Robinson,,,11:21,0.0,0.0,0.0,0.0,7.0,4.0,5.0,8.0,0.0,0.0,3.0,1.0
0021300939,1610612757,POR,Portland,2590,Mo Williams,,,33:12,89.4,114.7,-25.3,0.524,3.67,37.9,0.023,0.038,0.029,10.3,0.333,0.333,0.212,94.49,0.058,2014-03-09T00:00:00,6,1610612757,POR,Portland,42-21,30,24,31,21,7,0,0,0,0,0,0,0,0,0,113,0.406,0.788,0.36,24,56,20,0021300939,1610612757,POR,Portland,Mo Williams,,,33:12,2.0,2.0,0.0,8.0,19.0,9.0,12.0,30.0,0.0,2.0,5.0,3.0
0021300939,1610612757,POR,Portland,2590,Mo Williams,,,33:12,89.4,114.7,-25.3,0.524,3.67,37.9,0.023,0.038,0.029,10.3,0.333,0.333,0.212,94.49,0.058,2014-03-09T00:00:00,6,1610612745,HOU,Houston,44-19,28,19,26,33,12,0,0,0,0,0,0,0,0,0,118,0.427,0.733,0.31,13,48,13,0021300939,1610612757,POR,Portland,Mo Williams,,,33:12,2.0,2.0,0.0,8.0,19.0,9.0,12.0,30.0,0.0,2.0,5.0,3.0
0021300939,1610612757,POR,Portland,203468,CJ McCollum,,,14:46,95.3,81.2,14.1,0.1,1.0,10.0,0.056,0.214,0.125,10.0,0.438,0.438,0.24,89.52,0.141,2014-03-09T00:00:00,6,1610612757,POR,Portland,42-21,30,24,31,21,7,0,0,0,0,0,0,0,0,0,113,0.406,0.788,0.36,24,56,20,0021300939,1610612757,POR,Portland,CJ McCollum,,,14:46,0.0,5.0,0.0,2.0,2.0,6.0,5.0,8.0,0.0,2.0,1.0,0.0
0021300939,1610612757,POR,Portland,203468,CJ McCollum,,,14:46,95.3,81.2,14.1,0.1,1.0,10.0,0.056,0.214,0.125,10.0,0.438,0.438,0.24,89.52,0.141,2014-03-09T00:00:00,6,1610612745,HOU,Houston,44-19,28,19,26,33,12,0,0,0,0,0,0,0,0,0,118,0.427,0.733,0.31,13,48,13,0021300939,1610612757,POR,Portland,CJ McCollum,,,14:46,0.0,5.0,0.0,2.0,2.0,6.0,5.0,8.0,0.0,2.0,1.0,0.0
0021300939,1610612757,POR,Portland,203115,Will Barton,,DNP - Coach's Decision,,,,,,,0.0,,,,,,,0.0,,,2014-03-09T00:00:00,6,1610612757,POR,Portland,42-21,30,24,31,21,7,0,0,0,0,0,0,0,0,0,113,0.406,0.788,0.36,24,56,20,0021300939,1610612757,POR,Portland,Will Barton,,DNP - Coach's Decision,,,,,,,,,,,,,
0021300939,1610612757,POR,Portland,203115,Will Barton,,DNP - Coach's Decision,,,,,,,0.0,,,,,,,0.0,,,2014-03-09T00:00:00,6,1610612745,HOU,Houston,44-19,28,19,26,33,12,0,0,0,0,0,0,0,0,0,118,0.427,0.733,0.31,13,48,13,0021300939,1610612757,POR,Portland,Will Barton,,DNP - Coach's Decision,,,,,,,,,,,,,
0021300939,1610612757,POR,Portland,201964,Victor Claver,,DNP - Coach's Decision,,,,,,,0.0,,,,,,,0.0,,,2014-03-09T00:00:00,6,1610612757,POR,Portland,42-21,30,24,31,21,7,0,0,0,0,0,0,0,0,0,113,0.406,0.788,0.36,24,56,20,0021300939,1610612757,POR,Portland,Victor Claver,,DNP - Coach's Decision,,,,,,,,,,,,,
0021300939,1610612757,POR,Portland,201964,Victor Claver,,DNP - Coach's Decision,,,,,,,0.0,,,,,,,0.0,,,2014-03-09T00:00:00,6,1610612745,HOU,Houston,44-19,28,19,26,33,12,0,0,0,0,0,0,0,0,0,118,0.427,0.733,0.31,13,48,13,0021300939,1610612757,POR,Portland,Victor Claver,,DNP - Coach's Decision,,,,,,,,,,,,,
0021300939,1610612757,POR,Portland,2248,Earl Watson,,DNP - Coach's Decision,,,,,,,0.0,,,,,,,0.0,,,2014-03-09T00:00:00,6,1610612757,POR,Portland,42-21,30,24,31,21,7,0,0,0,0,0,0,0,0,0,113,0.406,0.788,0.36,24,56,20,0021300939,1610612757,POR,Portland,Earl Watson,,DNP - Coach's Decision,,,,,,,,,,,,,
0021300939,1610612757,POR,Portland,2248,Earl Watson,,DNP - Coach's Decision,,,,,,,0.0,,,,,,,0.0,,,2014-03-09T00:00:00,6,1610612745,HOU,Houston,44-19,28,19,26,33,12,0,0,0,0,0,0,0,0,0,118,0.427,0.733,0.31,13,48,13,0021300939,1610612757,POR,Portland,Earl Watson,,DNP - Coach's Decision,,,,,,,,,,,,,
0021300939,1610612757,POR,Portland,2748,Dorell Wright,,DNP - Coach's Decision,,,,,,,0.0,,,,,,,0.0,,,2014-03-09T00:00:00,6,1610612757,POR,Portland,42-21,30,24,31,21,7,0,0,0,0,0,0,0,0,0,113,0.406,0.788,0.36,24,56,20,0021300939,1610612757,POR,Portland,Dorell Wright,,DNP - Coach's Decision,,,,,,,,,,,,,
0021300939,1610612757,POR,Portland,2748,Dorell Wright,,DNP - Coach's Decision,,,,,,,0.0,,,,,,,0.0,,,2014-03-09T00:00:00,6,1610612745,HOU,Houston,44-19,28,19,26,33,12,0,0,0,0,0,0,0,0,0,118,0.427,0.733,0.31,13,48,13,0021300939,1610612757,POR,Portland,Dorell Wright,,DNP - Coach's Decision,,,,,,,,,,,,,
0021300939,1610612745,HOU,Houston,202718,Chandler Parsons,F,,48:59,109.8,104.3,5.5,0.1,3.0,15.1,0.024,0.118,0.075,5.0,0.467,0.504,0.147,99.32,0.09,2014-03-09T00:00:00,6,1610612757,POR,Portland,42-21,30,24,31,21,7,0,0,0,0,0,0,0,0,0,113,0.406,0.788,0.36,24,56,20,0021300939,1610612745,HOU,Houston,Chandler Parsons,F,,48:59,6.0,2.0,0.0,14.0,15.0,19.0,16.0,40.0,1.0,1.0,5.0,2.0
0021300939,1610612745,HOU,Houston,202718,Chandler Parsons,F,,48:59,109.8,104.3,5.5,0.1,3.0,15.1,0.024,0.118,0.075,5.0,0.467,0.504,0.147,99.32,0.09,2014-03-09T00:00:00,6,1610612745,HOU,Houston,44-19,28,19,26,33,12,0,0,0,0,0,0,0,0,0,118,0.427,0.733,0.31,13,48,13,0021300939,1610612745,HOU,Houston,Chandler Parsons,F,,48:59,6.0,2.0,0.0,14.0,15.0,19.0,16.0,40.0,1.0,1.0,5.0,2.0
0021300939,1610612745,HOU,Houston,203093,Terrence Jones,F,,19:40,96.0,137.6,-41.6,0.091,1.0,25.0,0.0,0.25,0.125,25.0,0.5,0.5,0.07,104.08,0.038,2014-03-09T00:00:00,6,1610612757,POR,Portland,42-21,30,24,31,21,7,0,0,0,0,0,0,0,0,0,113,0.406,0.788,0.36,24,56,20,0021300939,1610612745,HOU,Houston,Terrence Jones,F,,19:40,2.0,0.0,2.0,2.0,9.0,9.0,6.0,26.0,0.0,0.0,2.0,1.0
0021300939,1610612745,HOU,Houston,203093,Terrence Jones,F,,19:40,96.0,137.6,-41.6,0.091,1.0,25.0,0.0,0.25,0.125,25.0,0.5,0.5,0.07,104.08,0.038,2014-03-09T00:00:00,6,1610612745,HOU,Houston,44-19,28,19,26,33,12,0,0,0,0,0,0,0,0,0,118,0.427,0.733,0.31,13,48,13,0021300939,1610612745,HOU,Houston,Terrence Jones,F,,19:40,2.0,0.0,2.0,2.0,9.0,9.0,6.0,26.0,0.0,0.0,2.0,1.0
0021300939,1610612745,HOU,Houston,2730,Dwight Howard,C,,38:43,103.3,101.4,1.9,0.05,0.2,4.6,0.118,0.186,0.156,23.0,0.5,0.541,0.237,98.12,0.11,2014-03-09T00:00:00,6,1610612757,POR,Portland,42-21,30,24,31,21,7,0,0,0,0,0,0,0,0,0,113,0.406,0.788,0.36,24,56,20,0021300939,1610612745,HOU,Houston,Dwight Howard,C,,38:43,2.0,1.0,2.0,10.0,15.0,16.0,12.0,32.0,3.0,2.0,3.0,7.0
0021300939,1610612745,HOU,Houston,2730,Dwight Howard,C,,38:43,103.3,101.4,1.9,0.05,0.2,4.6,0.118,0.186,0.156,23.0,0.5,0.541,0.237,98.12,0.11,2014-03-09T00:00:00,6,1610612745,HOU,Houston,44-19,28,19,26,33,12,0,0,0,0,0,0,0,0,0,118,0.427,0.733,0.31,13,48,13,0021300939,1610612745,HOU,Houston,Dwight Howard,C,,38:43,2.0,1.0,2.0,10.0,15.0,16.0,12.0,32.0,3.0,2.0,3.0,7.0
0021300939,1610612745,HOU,Houston,201935,James Harden,G,,47:12,113.4,108.3,5.1,0.261,1.5,14.0,0.051,0.163,0.114,9.3,0.554,0.624,0.338,97.68,0.239,2014-03-09T00:00:00,6,1610612757,POR,Portland,42-21,30,24,31,21,7,0,0,0,0,0,0,0,0,0,113,0.406,0.788,0.36,24,56,20,0021300939,1610612745,HOU,Houston,James Harden,G,,47:12,17.0,6.0,11.0,8.0,13.0,16.0,16.0,38.0,1.0,4.0,5.0,8.0
0021300939,1610612745,HOU,Houston,201935,James Harden,G,,47:12,113.4,108.3,5.1,0.261,1.5,14.0,0.051,0.163,0.114,9.3,0.554,0.624,0.338,97.68,0.239,2014-03-09T00:00:00,6,1610612745,HOU,Houston,44-19,28,19,26,33,12,0,0,0,0,0,0,0,0,0,118,0.427,0.733,0.31,13,48,13,0021300939,1610612745,HOU,Houston,James Harden,G,,47:12,17.0,6.0,11.0,8.0,13.0,16.0,16.0,38.0,1.0,4.0,5.0,8.0
0021300939,1610612745,HOU,Houston,201976,Patrick Beverley,G,,36:27,105.4,111.4,-6.0,0.0,0.0,0.0,0.033,0.03,0.032,0.0,0.5,0.542,0.131,102.69,0.036,2014-03-09T00:00:00,6,1610612757,POR,Portland,42-21,30,24,31,21,7,0,0,0,0,0,0,0,0,0,113,0.406,0.788,0.36,24,56,20,0021300939,1610612745,HOU,Houston,Patrick Beverley,G,,36:27,0.0,2.0,1.0,8.0,13.0,14.0,14.0,34.0,0.0,0.0,6.0,5.0
0021300939,1610612745,HOU,Houston,201976,Patrick Beverley,G,,36:27,105.4,111.4,-6.0,0.0,0.0,0.0,0.033,0.03,0.032,0.0,0.5,0.542,0.131,102.69,0.036,2014-03-09T00:00:00,6,1610612745,HOU,Houston,44-19,28,19,26,33,12,0,0,0,0,0,0,0,0,0,118,0.427,0.733,0.31,13,48,13,0021300939,1610612745,HOU,Houston,Patrick Beverley,G,,36:27,0.0,2.0,1.0,8.0,13.0,14.0,14.0,34.0,0.0,0.0,6.0,5.0
0021300939,1610612745,HOU,Houston,201600,Omer Asik,,,16:12,111.9,108.0,3.9,0.071,0.0,100.0,0.056,0.133,0.091,0.0,0.0,0.0,0.0,99.61,0.026,2014-03-09T00:00:00,6,1610612757,POR,Portland,42-21,30,24,31,21,7,0,0,0,0,0,0,0,0,0,113,0.406,0.788,0.36,24,56,20,0021300939,1610612745,HOU,Houston,Omer Asik,,,16:12,0.0,0.0,0.0,0.0,0.0,5.0,4.0,12.0,0.0,0.0,2.0,3.0
0021300939,1610612745,HOU,Houston,201600,Omer Asik,,,16:12,111.9,108.0,3.9,0.071,0.0,100.0,0.056,0.133,0.091,0.0,0.0,0.0,0.0,99.61,0.026,2014-03-09T00:00:00,6,1610612745,HOU,Houston,44-19,28,19,26,33,12,0,0,0,0,0,0,0,0,0,118,0.427,0.733,0.31,13,48,13,0021300939,1610612745,HOU,Houston,Omer Asik,,,16:12,0.0,0.0,0.0,0.0,0.0,5.0,4.0,12.0,0.0,0.0,2.0,3.0
0021300939,1610612745,HOU,Houston,202700,Donatas Motiejunas,,,8:03,116.1,77.0,39.1,0.0,0.0,0.0,0.0,0.273,0.167,50.0,0.0,0.0,0.12,93.97,0.0,2014-03-09T00:00:00,6,1610612757,POR,Portland,42-21,30,24,31,21,7,0,0,0,0,0,0,0,0,0,113,0.406,0.788,0.36,24,56,20,0021300939,1610612745,HOU,Houston,Donatas Motiejunas,,,8:03,0.0,0.0,0.0,0.0,0.0,5.0,2.0,6.0,0.0,0.0,1.0,0.0
0021300939,1610612745,HOU,Houston,202700,Donatas Motiejunas,,,8:03,116.1,77.0,39.1,0.0,0.0,0.0,0.0,0.273,0.167,50.0,0.0,0.0,0.12,93.97,0.0,2014-03-09T00:00:00,6,1610612745,HOU,Houston,44-19,28,19,26,33,12,0,0,0,0,0,0,0,0,0,118,0.427,0.733,0.31,13,48,13,0021300939,1610612745,HOU,Houston,Donatas Motiejunas,,,8:03,0.0,0.0,0.0,0.0,0.0,5.0,2.0,6.0,0.0,0.0,1.0,0.0
0021300939,1610612745,HOU,Houston,202391,Jeremy Lin,,,34:03,115.7,82.0,33.6,0.056,0.0,4.3,0.033,0.047,0.041,0.0,0.471,0.583,0.28,96.5,0.21,2014-03-09T00:00:00,6,1610612757,POR,Portland,42-21,30,24,31,21,7,0,0,0,0,0,0,0,0,0,113,0.406,0.788,0.36,24,56,20,0021300939,1610612745,HOU,Houston,Jeremy Lin,,,34:03,5.0,2.0,2.0,6.0,8.0,14.0,8.0,20.0,0.0,3.0,2.0,8.0
0021300939,1610612745,HOU,Houston,202391,Jeremy Lin,,,34:03,115.7,82.0,33.6,0.056,0.0,4.3,0.033,0.047,0.041,0.0,0.471,0.583,0.28,96.5,0.21,2014-03-09T00:00:00,6,1610612745,HOU,Houston,44-19,28,19,26,33,12,0,0,0,0,0,0,0,0,0,118,0.427,0.733,0.31,13,48,13,0021300939,1610612745,HOU,Houston,Jeremy Lin,,,34:03,5.0,2.0,2.0,6.0,8.0,14.0,8.0,20.0,0.0,3.0,2.0,8.0
0021300939,1610612745,HOU,Houston,202706,Jordan Hamilton,,,15:41,102.2,78.9,23.2,0.0,0.0,0.0,0.158,0.042,0.093,11.1,0.25,0.25,0.262,94.24,-0.048,2014-03-09T00:00:00,6,1610612757,POR,Portland,42-21,30,24,31,21,7,0,0,0,0,0,0,0,0,0,113,0.406,0.788,0.36,24,56,20,0021300939,1610612745,HOU,Houston,Jordan Hamilton,,,15:41,0.0,2.0,0.0,4.0,2.0,7.0,2.0,12.0,0.0,0.0,1.0,0.0
0021300939,1610612745,HOU,Houston,202706,Jordan Hamilton,,,15:41,102.2,78.9,23.2,0.0,0.0,0.0,0.158,0.042,0.093,11.1,0.25,0.25,0.262,94.24,-0.048,2014-03-09T00:00:00,6,1610612745,HOU,Houston,44-19,28,19,26,33,12,0,0,0,0,0,0,0,0,0,118,0.427,0.733,0.31,13,48,13,0021300939,1610612745,HOU,Houston,Jordan Hamilton,,,15:41,0.0,2.0,0.0,4.0,2.0,7.0,2.0,12.0,0.0,0.0,1.0,0.0
0021300939,1610612745,HOU,Houston,203477,Isaiah Canaan,,DNP - Coach's Decision,,,,,,,0.0,,,,,,,0.0,,,2014-03-09T00:00:00,6,1610612757,POR,Portland,42-21,30,24,31,21,7,0,0,0,0,0,0,0,0,0,113,0.406,0.788,0.36,24,56,20,0021300939,1610612745,HOU,Houston,Isaiah Canaan,,DNP - Coach's Decision,,,,,,,,,,,,,
0021300939,1610612745,HOU,Houston,203477,Isaiah Canaan,,DNP - Coach's Decision,,,,,,,0.0,,,,,,,0.0,,,2014-03-09T00:00:00,6,1610612745,HOU,Houston,44-19,28,19,26,33,12,0,0,0,0,0,0,0,0,0,118,0.427,0.733,0.31,13,48,13,0021300939,1610612745,HOU,Houston,Isaiah Canaan,,DNP - Coach's Decision,,,,,,,,,,,,,
0021300939,1610612745,HOU,Houston,201956,Omri Casspi,,DNP - Coach's Decision,,,,,,,0.0,,,,,,,0.0,,,2014-03-09T00:00:00,6,1610612757,POR,Portland,42-21,30,24,31,21,7,0,0,0,0,0,0,0,0,0,113,0.406,0.788,0.36,24,56,20,0021300939,1610612745,HOU,Houston,Omri Casspi,,DNP - Coach's Decision,,,,,,,,,,,,,
0021300939,1610612745,HOU,Houston,201956,Omri Casspi,,DNP - Coach's Decision,,,,,,,0.0,,,,,,,0.0,,,2014-03-09T00:00:00,6,1610612745,HOU,Houston,44-19,28,19,26,33,12,0,0,0,0,0,0,0,0,0,118,0.427,0.733,0.31,13,48,13,0021300939,1610612745,HOU,Houston,Omri Casspi,,DNP - Coach's Decision,,,,,,,,,,,,,
0021300939,1610612745,HOU,Houston,101128,Francisco Garcia,,DNP - Coach's Decision,,,,,,,0.0,,,,,,,0.0,,,2014-03-09T00:00:00,6,1610612757,POR,Portland,42-21,30,24,31,21,7,0,0,0,0,0,0,0,0,0,113,0.406,0.788,0.36,24,56,20,0021300939,1610612745,HOU,Houston,Francisco Garcia,,DNP - Coach's Decision,,,,,,,,,,,,,
0021300939,1610612745,HOU,Houston,101128,Francisco Garcia,,DNP - Coach's Decision,,,,,,,0.0,,,,,,,0.0,,,2014-03-09T00:00:00,6,1610612745,HOU,Houston,44-19,28,19,26,33,12,0,0,0,0,0,0,0,0,0,118,0.427,0.733,0.31,13,48,13,0021300939,1610612745,HOU,Houston,Francisco Garcia,,DNP - Coach's Decision,,,,,,,,,,,,,
