GAME_ID_x,TEAM_ID_x,TEAM_ABBREVIATION_x,TEAM_CITY_x,PLAYER_ID,PLAYER_NAME_x,START_POSITION_x,COMMENT_x,MIN_x,OFF_RATING,DEF_RATING,NET_RATING,AST_PCT,AST_TOV,AST_RATIO,OREB_PCT,DREB_PCT,REB_PCT,TM_TOV_PCT,EFG_PCT,TS_PCT,USG_PCT,PACE,PIE,GAME_DATE_EST,GAME_SEQUENCE,TEAM_ABBREVIATION_y,TEAM_CITY_NAME,TEAM_WINS_LOSSES,PTS_QTR1,PTS_QTR2,PTS_QTR3,PTS_QTR4,PTS_OT1,PTS_OT2,PTS_OT3,PTS_OT4,PTS_OT5,PTS_OT6,PTS_OT7,PTS_OT8,PTS_OT9,PTS_OT10,PTS,FG_PCT,FT_PCT,FG3_PCT,AST,REB,TOV,GAME_ID_y,TEAM_ID_y,TEAM_ABBREVIATION,TEAM_CITY_y,PLAYER_NAME_y,START_POSITION_y,COMMENT_y,MIN_y,PTS_OFF_TOV,PTS_2ND_CHANCE,PTS_FB,PTS_PAINT,OPP_PTS_OFF_TOV,OPP_PTS_2ND_CHANCE,OPP_PTS_FB,OPP_PTS_PAINT,BLK,BLKA,PF,PFD
0021500132,1610612766,CHA,Charlotte,203798,PJ Hairston,F,,15:12,116.0,101.2,14.8,0.0,0.0,0.0,0.0,0.067,0.031,0.0,0.75,0.75,0.115,106.36,0.028,2015-11-13T00:00:00,6,CHA,Charlotte,4-5,23,23,29,22,0,0,0,0,0,0,0,0,0,0,97,0.379,0.833,0.455,21,45,6,0021500132,1610612766,CHA,Charlotte,PJ Hairston,F,,15:12,0.0,0.0,0.0,0.0,0.0,2.0,4.0,12.0,0.0,0.0,3.0,1.0
0021500132,1610612766,CHA,Charlotte,101107,Marvin Williams,F,,34:55,102.7,112.3,-9.6,0.087,2.0,13.9,0.023,0.138,0.069,6.9,0.591,0.612,0.155,98.42,0.077,2015-11-13T00:00:00,6,CHA,Charlotte,4-5,23,23,29,22,0,0,0,0,0,0,0,0,0,0,97,0.379,0.833,0.455,21,45,6,0021500132,1610612766,CHA,Charlotte,Marvin Williams,F,,34:55,3.0,3.0,0.0,4.0,9.0,5.0,11.0,26.0,1.0,1.0,3.0,2.0
0021500132,1610612766,CHA,Charlotte,2744,Al Jefferson,C,,30:43,118.1,99.8,18.3,0.2,0.0,35.7,0.0,0.185,0.083,0.0,0.333,0.333,0.133,99.06,0.051,2015-11-13T00:00:00,6,CHA,Charlotte,4-5,23,23,29,22,0,0,0,0,0,0,0,0,0,0,97,0.379,0.833,0.455,21,45,6,0021500132,1610612766,CHA,Charlotte,Al Jefferson,C,,30:43,0.0,0.0,0.0,0.0,4.0,4.0,8.0,24.0,0.0,1.0,4.0,2.0
0021500132,1610612766,CHA,Charlotte,201587,Nicolas Batum,G,,34:42,111.7,102.7,9.0,0.1,1.0,9.0,0.077,0.167,0.116,9.0,0.735,0.764,0.259,100.65,0.186,2015-11-13T00:00:00,6,CHA,Charlotte,4-5,23,23,29,22,0,0,0,0,0,0,0,0,0,0,97,0.379,0.833,0.455,21,45,6,0021500132,1610612766,CHA,Charlotte,Nicolas Batum,G,,34:42,0.0,5.0,2.0,4.0,6.0,6.0,9.0,30.0,0.0,0.0,1.0,2.0
0021500132,1610612766,CHA,Charlotte,202689,Kemba Walker,G,,36:48,109.9,96.3,13.7,0.269,3.5,25.1,0.024,0.222,0.115,7.2,0.306,0.344,0.256,99.39,0.111,2015-11-13T00:00:00,6,CHA,Charlotte,4-5,23,23,29,22,0,0,0,0,0,0,0,0,0,0,97,0.379,0.833,0.455,21,45,6,0021500132,1610612766,CHA,Charlotte,Kemba Walker,G,,36:48,0.0,0.0,0.0,2.0,2.0,9.0,8.0,28.0,2.0,2.0,1.0,3.0
0021500132,1610612766,CHA,Charlotte,1626163,Frank Kaminsky,,,19:47,82.6,98.6,-16.0,0.111,0.0,10.0,0.045,0.095,0.07,0.0,0.278,0.278,0.214,94.01,-0.017,2015-11-13T00:00:00,6,CHA,Charlotte,4-5,23,23,29,22,0,0,0,0,0,0,0,0,0,0,97,0.379,0.833,0.455,21,45,6,0021500132,1610612766,CHA,Charlotte,Frank Kaminsky,,,19:47,2.0,0.0,0.0,2.0,3.0,10.0,2.0,14.0,1.0,0.0,3.0,0.0
0021500132,1610612766,CHA,Charlotte,203087,Jeremy Lamb,,,32:00,88.2,107.7,-19.6,0.118,2.0,10.7,0.051,0.226,0.129,5.3,0.429,0.476,0.231,96.51,0.101,2015-11-13T00:00:00,6,CHA,Charlotte,4-5,23,23,29,22,0,0,0,0,0,0,0,0,0,0,97,0.379,0.833,0.455,21,45,6,0021500132,1610612766,CHA,Charlotte,Jeremy Lamb,,,32:00,6.0,3.0,4.0,6.0,9.0,10.0,11.0,24.0,0.0,1.0,2.0,4.0
0021500132,1610612766,CHA,Charlotte,201150,Spencer Hawes,,,17:17,64.5,110.1,-45.5,0.143,0.0,16.7,0.043,0.158,0.095,0.0,0.2,0.2,0.126,97.39,0.01,2015-11-13T00:00:00,6,CHA,Charlotte,4-5,23,23,29,22,0,0,0,0,0,0,0,0,0,0,97,0.379,0.833,0.455,21,45,6,0021500132,1610612766,CHA,Charlotte,Spencer Hawes,,,17:17,0.0,0.0,0.0,2.0,5.0,8.0,5.0,12.0,0.0,0.0,2.0,0.0
0021500132,1610612766,CHA,Charlotte,202391,Jeremy Lin,,,16:33,58.0,104.6,-46.6,0.2,0.0,12.5,0.0,0.05,0.026,0.0,0.286,0.286,0.196,94.67,0.024,2015-11-13T00:00:00,6,CHA,Charlotte,4-5,23,23,29,22,0,0,0,0,0,0,0,0,0,0,97,0.379,0.833,0.455,21,45,6,0021500132,1610612766,CHA,Charlotte,Jeremy Lin,,,16:33,0.0,0.0,0.0,2.0,7.0,6.0,7.0,10.0,0.0,1.0,2.0,1.0
0021500132,1610612766,CHA,Charlotte,203584,Troy Daniels,,,2:03,103.1,77.3,25.8,0.0,0.0,0.0,0.0,0.0,0.0,0.0,1.5,1.064,0.485,90.85,0.75,2015-11-13T00:00:00,6,CHA,Charlotte,4-5,23,23,29,22,0,0,0,0,0,0,0,0,0,0,97,0.379,0.833,0.455,21,45,6,0021500132,1610612766,CHA,Charlotte,Troy Daniels,,,2:03,0.0,0.0,0.0,0.0,0.0,0.0,0.0,0.0,0.0,0.0,0.0,1.0
0021500132,1610612766,CHA,Charlotte,201946,Tyler Hansbrough,,DNP - Coach's Decision                  ,,,,,,,0.0,,,,,,,0.0,,,2015-11-13T00:00:00,6,CHA,Charlotte,4-5,23,23,29,22,0,0,0,0,0,0,0,0,0,0,97,0.379,0.833,0.455,21,45,6,0021500132,1610612766,CHA,Charlotte,Tyler Hansbrough,,DNP - Coach's Decision                  ,,,,,,,,,,,,,
0021500132,1610612766,CHA,Charlotte,1626151,Aaron Harrison,,DNP - Coach's Decision                  ,,,,,,,0.0,,,,,,,0.0,,,2015-11-13T00:00:00,6,CHA,Charlotte,4-5,23,23,29,22,0,0,0,0,0,0,0,0,0,0,97,0.379,0.833,0.455,21,45,6,0021500132,1610612766,CHA,Charlotte,Aaron Harrison,,DNP - Coach's Decision                  ,,,,,,,,,,,,,
0021500132,1610612766,CHA,Charlotte,203148,Brian Roberts,,DNP - Coach's Decision                  ,,,,,,,0.0,,,,,,,0.0,,,2015-11-13T00:00:00,6,CHA,Charlotte,4-5,23,23,29,22,0,0,0,0,0,0,0,0,0,0,97,0.379,0.833,0.455,21,45,6,0021500132,1610612766,CHA,Charlotte,Brian Roberts,,DNP - Coach's Decision                  ,,,,,,,,,,,,,
0021500132,1610612741,CHI,Chicago,203926,Doug McDermott,F,,16:29,95.3,107.6,-12.3,0.0,0.0,0.0,0.0,0.1,0.054,0.0,0.583,0.581,0.182,104.87,0.066,2015-11-13T00:00:00,6,CHI,Chicago,6-3,23,27,23,29,0,0,0,0,0,0,0,0,0,0,102,0.44,0.774,0.25,27,57,11,0021500132,1610612741,CHI,Chicago,Doug McDermott,F,,16:29,0.0,0.0,0.0,2.0,5.0,3.0,2.0,8.0,0.0,0.0,1.0,1.0
0021500132,1610612741,CHI,Chicago,202703,Nikola Mirotic,F,,22:33,90.9,104.6,-13.6,0.188,3.0,34.2,0.043,0.231,0.143,11.4,0.0,0.315,0.114,104.56,0.07,2015-11-13T00:00:00,6,CHI,Chicago,6-3,23,27,23,29,0,0,0,0,0,0,0,0,0,0,102,0.44,0.774,0.25,27,57,11,0021500132,1610612741,CHI,Chicago,Nikola Mirotic,F,,22:33,0.0,2.0,0.0,0.0,7.0,7.0,2.0,10.0,0.0,0.0,2.0,3.0
0021500132,1610612741,CHI,Chicago,2200,Pau Gasol,C,,27:31,102.8,122.9,-20.2,0.2,1.5,14.9,0.0,0.419,0.236,9.9,0.538,0.625,0.28,100.01,0.201,2015-11-13T00:00:00,6,CHI,Chicago,6-3,23,27,23,29,0,0,0,0,0,0,0,0,0,0,102,0.44,0.774,0.25,27,57,11,0021500132,1610612741,CHI,Chicago,Pau Gasol,C,,27:31,0.0,0.0,0.0,4.0,9.0,7.0,4.0,14.0,2.0,0.0,1.0,3.0
0021500132,1610612741,CHI,Chicago,202710,Jimmy Butler,G,,37:45,95.3,104.5,-9.1,0.211,1.0,13.3,0.0,0.119,0.063,13.3,0.5,0.609,0.298,100.61,0.146,2015-11-13T00:00:00,6,CHI,Chicago,6-3,23,27,23,29,0,0,0,0,0,0,0,0,0,0,102,0.44,0.774,0.25,27,57,11,0021500132,1610612741,CHI,Chicago,Jimmy Butler,G,,37:45,2.0,4.0,3.0,8.0,9.0,10.0,4.0,14.0,1.0,0.0,1.0,7.0
0021500132,1610612741,CHI,Chicago,201565,Derrick Rose,G,,34:39,103.0,105.0,-2.1,0.4,2.67,30.9,0.0,0.024,0.014,11.6,0.286,0.336,0.242,98.57,0.039,2015-11-13T00:00:00,6,CHI,Chicago,6-3,23,27,23,29,0,0,0,0,0,0,0,0,0,0,102,0.44,0.774,0.25,27,57,11,0021500132,1610612741,CHI,Chicago,Derrick Rose,G,,34:39,0.0,0.0,4.0,6.0,11.0,8.0,6.0,18.0,1.0,1.0,2.0,2.0
0021500132,1610612741,CHI,Chicago,203503,Tony Snell,,,17:19,116.4,79.8,36.6,0.0,0.0,0.0,0.0,0.048,0.026,12.5,0.214,0.214,0.192,93.86,-0.079,2015-11-13T00:00:00,6,CHI,Chicago,6-3,23,27,23,29,0,0,0,0,0,0,0,0,0,0,102,0.44,0.774,0.25,27,57,11,0021500132,1610612741,CHI,Chicago,Tony Snell,,,17:19,3.0,0.0,0.0,0.0,2.0,4.0,2.0,6.0,1.0,1.0,2.0,0.0
0021500132,1610612741,CHI,Chicago,2550,Kirk Hinrich,,,9:05,86.0,68.9,17.2,0.2,0.0,25.0,0.0,0.0,0.0,0.0,0.833,0.833,0.132,102.13,0.17,2015-11-13T00:00:00,6,CHI,Chicago,6-3,23,27,23,29,0,0,0,0,0,0,0,0,0,0,102,0.44,0.774,0.25,27,57,11,0021500132,1610612741,CHI,Chicago,Kirk Hinrich,,,9:05,0.0,0.0,2.0,0.0,0.0,0.0,0.0,2.0,0.0,0.0,1.0,0.0
0021500132,1610612741,CHI,Chicago,201149,Joakim Noah,,,22:53,115.8,84.9,31.0,0.353,0.0,55.1,0.318,0.379,0.353,0.0,0.25,0.307,0.094,93.48,0.243,2015-11-13T00:00:00,6,CHI,Chicago,6-3,23,27,23,29,0,0,0,0,0,0,0,0,0,0,102,0.44,0.774,0.25,27,57,11,0021500132,1610612741,CHI,Chicago,Joakim Noah,,,22:53,0.0,3.0,0.0,2.0,2.0,4.0,2.0,8.0,1.0,0.0,3.0,2.0
0021500132,1610612741,CHI,Chicago,201959,Taj Gibson,,,23:03,106.0,77.4,28.6,0.083,0.0,9.1,0.0,0.077,0.041,0.0,0.6,0.6,0.188,95.58,0.136,2015-11-13T00:00:00,6,CHI,Chicago,6-3,23,27,23,29,0,0,0,0,0,0,0,0,0,0,102,0.44,0.774,0.25,27,57,11,0021500132,1610612741,CHI,Chicago,Taj Gibson,,,23:03,2.0,0.0,0.0,8.0,4.0,4.0,4.0,12.0,0.0,1.0,1.0,1.0
0021500132,1610612741,CHI,Chicago,202734,E'Twaun Moore,,,22:43,119.7,94.0,25.7,0.0,0.0,0.0,0.0,0.172,0.106,0.0,0.917,0.917,0.127,95.13,0.138,2015-11-13T00:00:00,6,CHI,Chicago,6-3,23,27,23,29,0,0,0,0,0,0,0,0,0,0,102,0.44,0.774,0.25,27,57,11,0021500132,1610612741,CHI,Chicago,E'Twaun Moore,,,22:43,2.0,3.0,4.0,6.0,6.0,5.0,4.0,16.0,0.0,0.0,2.0,0.0
0021500132,1610612741,CHI,Chicago,201166,Aaron Brooks,,,6:00,119.5,119.5,0.0,0.167,0.0,25.8,0.333,0.25,0.3,0.0,0.0,0.174,0.194,87.04,0.04,2015-11-13T00:00:00,6,CHI,Chicago,6-3,23,27,23,29,0,0,0,0,0,0,0,0,0,0,102,0.44,0.774,0.25,27,57,11,0021500132,1610612741,CHI,Chicago,Aaron Brooks,,,6:00,0.0,0.0,0.0,0.0,0.0,3.0,0.0,2.0,0.0,1.0,0.0,2.0
0021500132,1610612741,CHI,Chicago,203946,Cameron Bairstow,,DNP - Coach's Decision                  ,,,,,,,0.0,,,,,,,0.0,,,2015-11-13T00:00:00,6,CHI,Chicago,6-3,23,27,23,29,0,0,0,0,0,0,0,0,0,0,102,0.44,0.774,0.25,27,57,11,0021500132,1610612741,CHI,Chicago,Cameron Bairstow,,DNP - Coach's Decision                  ,,,,,,,,,,,,,
0021500132,1610612741,CHI,Chicago,1626171,Bobby Portis,,DNP - Coach's Decision                  ,,,,,,,0.0,,,,,,,0.0,,,2015-11-13T00:00:00,6,CHI,Chicago,6-3,23,27,23,29,0,0,0,0,0,0,0,0,0,0,102,0.44,0.774,0.25,27,57,11,0021500132,1610612741,CHI,Chicago,Bobby Portis,,DNP - Coach's Decision                  ,,,,,,,,,,,,,
