GAME_ID_x,TEAM_ID_x,TEAM_ABBREVIATION_x,TEAM_CITY_x,PLAYER_ID,PLAYER_NAME_x,START_POSITION_x,COMMENT_x,MIN_x,OFF_RATING,DEF_RATING,NET_RATING,AST_PCT,AST_TOV,AST_RATIO,OREB_PCT,DREB_PCT,REB_PCT,TM_TOV_PCT,EFG_PCT,TS_PCT,USG_PCT,PACE,PIE,GAME_DATE_EST,GAME_SEQUENCE,TEAM_ABBREVIATION_y,TEAM_CITY_NAME,TEAM_WINS_LOSSES,PTS_QTR1,PTS_QTR2,PTS_QTR3,PTS_QTR4,PTS_OT1,PTS_OT2,PTS_OT3,PTS_OT4,PTS_OT5,PTS_OT6,PTS_OT7,PTS_OT8,PTS_OT9,PTS_OT10,PTS,FG_PCT,FT_PCT,FG3_PCT,AST,REB,TOV,GAME_ID_y,TEAM_ID_y,TEAM_ABBREVIATION,TEAM_CITY_y,PLAYER_NAME_y,START_POSITION_y,COMMENT_y,MIN_y,PTS_OFF_TOV,PTS_2ND_CHANCE,PTS_FB,PTS_PAINT,OPP_PTS_OFF_TOV,OPP_PTS_2ND_CHANCE,OPP_PTS_FB,OPP_PTS_PAINT,BLK,BLKA,PF,PFD
0021500131,1610612740,NOP,New Orleans,202087,Alonzo Gee,F,,24:38,76.4,113.6,-37.3,0.133,0.0,40.0,0.053,0.136,0.098,0.0,0.0,0.0,0.057,96.08,0.007,2015-11-13T00:00:00,5,NOP,New Orleans,1-8,21,19,21,20,0,0,0,0,0,0,0,0,0,0,81,0.366,0.7,0.304,15,38,14,0021500131,1610612740,NOP,New Orleans,Alonzo Gee,F,,24:38,0.0,0.0,0.0,0.0,15.0,8.0,5.0,20.0,0.0,1.0,4.0,1.0
0021500131,1610612740,NOP,New Orleans,201583,Ryan Anderson,F,,32:54,82.0,122.1,-40.1,0.1,2.0,15.5,0.0,0.214,0.105,7.8,0.222,0.253,0.144,97.58,0.037,2015-11-13T00:00:00,5,NOP,New Orleans,1-8,21,19,21,20,0,0,0,0,0,0,0,0,0,0,81,0.366,0.7,0.304,15,38,14,0021500131,1610612740,NOP,New Orleans,Ryan Anderson,F,,32:54,0.0,0.0,0.0,2.0,17.0,7.0,7.0,26.0,0.0,1.0,0.0,2.0
0021500131,1610612740,NOP,New Orleans,201600,Omer Asik,C,,24:15,80.4,124.2,-43.8,0.0,0.0,0.0,0.083,0.238,0.156,38.7,0.0,0.21,0.14,91.84,0.014,2015-11-13T00:00:00,5,NOP,New Orleans,1-8,21,19,21,20,0,0,0,0,0,0,0,0,0,0,81,0.366,0.7,0.304,15,38,14,0021500131,1610612740,NOP,New Orleans,Omer Asik,C,,24:15,0.0,0.0,0.0,0.0,12.0,7.0,4.0,20.0,2.0,3.0,1.0,2.0
0021500131,1610612740,NOP,New Orleans,201569,Eric Gordon,G,,36:15,82.8,120.1,-37.3,0.077,0.33,3.5,0.034,0.063,0.049,10.6,0.591,0.62,0.345,95.84,0.149,2015-11-13T00:00:00,5,NOP,New Orleans,1-8,21,19,21,20,0,0,0,0,0,0,0,0,0,0,81,0.366,0.7,0.304,15,38,14,0021500131,1610612740,NOP,New Orleans,Eric Gordon,G,,36:15,11.0,1.0,4.0,14.0,17.0,11.0,7.0,28.0,0.0,0.0,2.0,4.0
0021500131,1610612740,NOP,New Orleans,201950,Jrue Holiday,G,,21:11,89.6,135.8,-46.2,0.429,1.5,15.1,0.0,0.0,0.0,10.1,0.643,0.638,0.363,94.35,0.177,2015-11-13T00:00:00,5,NOP,New Orleans,1-8,21,19,21,20,0,0,0,0,0,0,0,0,0,0,81,0.366,0.7,0.304,15,38,14,0021500131,1610612740,NOP,New Orleans,Jrue Holiday,G,,21:11,0.0,3.0,3.0,10.0,8.0,6.0,0.0,18.0,0.0,0.0,1.0,3.0
0021500131,1610612740,NOP,New Orleans,202397,Ish Smith,,,23:05,77.1,86.0,-8.9,0.364,1.33,22.5,0.077,0.095,0.085,16.9,0.111,0.279,0.268,94.36,0.0,2015-11-13T00:00:00,5,NOP,New Orleans,1-8,21,19,21,20,0,0,0,0,0,0,0,0,0,0,81,0.366,0.7,0.304,15,38,14,0021500131,1610612740,NOP,New Orleans,Ish Smith,,,23:05,0.0,0.0,0.0,2.0,13.0,8.0,9.0,10.0,2.0,0.0,3.0,4.0
0021500131,1610612740,NOP,New Orleans,201582,Alexis Ajinca,,,23:45,88.8,94.5,-5.7,0.0,0.0,0.0,0.095,0.35,0.22,10.0,0.556,0.556,0.199,95.88,0.145,2015-11-13T00:00:00,5,NOP,New Orleans,1-8,21,19,21,20,0,0,0,0,0,0,0,0,0,0,81,0.366,0.7,0.304,15,38,14,0021500131,1610612740,NOP,New Orleans,Alexis Ajinca,,,23:45,2.0,0.0,2.0,2.0,9.0,8.0,5.0,12.0,0.0,0.0,5.0,0.0
0021500131,1610612740,NOP,New Orleans,202337,Luke Babbitt,,,17:09,96.9,76.7,20.2,0.0,0.0,0.0,0.05,0.059,0.054,0.0,0.5,0.602,0.09,88.92,-0.015,2015-11-13T00:00:00,5,NOP,New Orleans,1-8,21,19,21,20,0,0,0,0,0,0,0,0,0,0,81,0.366,0.7,0.304,15,38,14,0021500131,1610612740,NOP,New Orleans,Luke Babbitt,,,17:09,0.0,2.0,0.0,2.0,4.0,7.0,2.0,8.0,0.0,0.0,4.0,1.0
0021500131,1610612740,NOP,New Orleans,201967,Dante Cunningham,,,18:50,97.2,120.2,-23.0,0.182,2.0,33.3,0.056,0.154,0.097,16.7,0.5,0.5,0.098,89.92,0.079,2015-11-13T00:00:00,5,NOP,New Orleans,1-8,21,19,21,20,0,0,0,0,0,0,0,0,0,0,81,0.366,0.7,0.304,15,38,14,0021500131,1610612740,NOP,New Orleans,Dante Cunningham,,,18:50,0.0,0.0,0.0,0.0,6.0,8.0,4.0,10.0,0.0,0.0,0.0,1.0
0021500131,1610612740,NOP,New Orleans,201962,Toney Douglas,,,15:29,93.4,80.1,13.3,0.125,0.0,12.5,0.0,0.0,0.0,0.0,0.143,0.143,0.201,87.67,-0.073,2015-11-13T00:00:00,5,NOP,New Orleans,1-8,21,19,21,20,0,0,0,0,0,0,0,0,0,0,81,0.366,0.7,0.304,15,38,14,0021500131,1610612740,NOP,New Orleans,Toney Douglas,,,15:29,2.0,0.0,2.0,2.0,4.0,5.0,2.0,8.0,0.0,0.0,2.0,1.0
0021500131,1610612740,NOP,New Orleans,202690,Jimmer Fredette,,,2:29,41.0,0.0,41.0,0.0,0.0,0.0,0.0,0.0,0.0,0.0,0.0,0.0,0.205,85.82,1.0,2015-11-13T00:00:00,5,NOP,New Orleans,1-8,21,19,21,20,0,0,0,0,0,0,0,0,0,0,81,0.366,0.7,0.304,15,38,14,0021500131,1610612740,NOP,New Orleans,Jimmer Fredette,,,2:29,0.0,0.0,0.0,0.0,0.0,0.0,0.0,0.0,0.0,0.0,0.0,0.0
0021500131,1610612740,NOP,New Orleans,202708,Norris Cole,,DND - Left Ankle Sprain                 ,,,,,,,0.0,,,,,,,0.0,,,2015-11-13T00:00:00,5,NOP,New Orleans,1-8,21,19,21,20,0,0,0,0,0,0,0,0,0,0,81,0.366,0.7,0.304,15,38,14,0021500131,1610612740,NOP,New Orleans,Norris Cole,,DND - Left Ankle Sprain                 ,,,,,,,,,,,,,
0021500131,1610612740,NOP,New Orleans,203076,Anthony Davis,,DNP - Coach's Decision                  ,,,,,,,0.0,,,,,,,0.0,,,2015-11-13T00:00:00,5,NOP,New Orleans,1-8,21,19,21,20,0,0,0,0,0,0,0,0,0,0,81,0.366,0.7,0.304,15,38,14,0021500131,1610612740,NOP,New Orleans,Anthony Davis,,DNP - Coach's Decision                  ,,,,,,,,,,,,,
0021500131,1610612761,TOR,Toronto,201960,DeMarre Carroll,F,,33:17,111.7,77.9,33.7,0.048,0.5,5.7,0.094,0.067,0.081,11.5,0.393,0.381,0.218,94.6,0.0,2015-11-13T00:00:00,5,TOR,Toronto,7-3,17,23,32,28,0,0,0,0,0,0,0,0,0,0,100,0.442,0.852,0.429,19,48,15,0021500131,1610612761,TOR,Toronto,DeMarre Carroll,F,,33:17,0.0,2.0,0.0,8.0,8.0,6.0,7.0,26.0,1.0,1.0,5.0,3.0
0021500131,1610612761,TOR,Toronto,2449,Luis Scola,F,,21:44,115.2,78.6,36.7,0.0,0.0,0.0,0.056,0.125,0.088,0.0,0.563,0.563,0.165,98.94,0.083,2015-11-13T00:00:00,5,TOR,Toronto,7-3,17,23,32,28,0,0,0,0,0,0,0,0,0,0,100,0.442,0.852,0.429,19,48,15,0021500131,1610612761,TOR,Toronto,Luis Scola,F,,21:44,3.0,2.0,0.0,2.0,6.0,0.0,5.0,16.0,0.0,0.0,2.0,0.0
0021500131,1610612761,TOR,Toronto,202685,Jonas Valanciunas,C,,27:46,115.0,77.4,37.6,0.0,0.0,0.0,0.24,0.16,0.2,22.7,0.727,0.733,0.276,99.85,0.205,2015-11-13T00:00:00,5,TOR,Toronto,7-3,17,23,32,28,0,0,0,0,0,0,0,0,0,0,100,0.442,0.852,0.429,19,48,15,0021500131,1610612761,TOR,Toronto,Jonas Valanciunas,C,,27:46,6.0,5.0,2.0,8.0,10.0,2.0,9.0,24.0,2.0,0.0,3.0,3.0
0021500131,1610612761,TOR,Toronto,201942,DeMar DeRozan,G,,34:54,119.3,84.9,34.3,0.458,5.5,39.8,0.0,0.24,0.109,7.2,0.417,0.512,0.211,96.11,0.196,2015-11-13T00:00:00,5,TOR,Toronto,7-3,17,23,32,28,0,0,0,0,0,0,0,0,0,0,100,0.442,0.852,0.429,19,48,15,0021500131,1610612761,TOR,Toronto,DeMar DeRozan,G,,34:54,3.0,0.0,3.0,8.0,13.0,3.0,9.0,28.0,0.0,0.0,1.0,6.0
0021500131,1610612761,TOR,Toronto,200768,Kyle Lowry,G,,34:38,110.6,94.1,16.5,0.227,2.5,21.3,0.0,0.214,0.103,8.5,0.462,0.605,0.235,95.6,0.211,2015-11-13T00:00:00,5,TOR,Toronto,7-3,17,23,32,28,0,0,0,0,0,0,0,0,0,0,100,0.442,0.852,0.429,19,48,15,0021500131,1610612761,TOR,Toronto,Kyle Lowry,G,,34:38,5.0,0.0,4.0,0.0,15.0,2.0,11.0,28.0,1.0,3.0,1.0,5.0
0021500131,1610612761,TOR,Toronto,202335,Patrick Patterson,,,22:16,113.0,95.6,17.4,0.0,0.0,0.0,0.059,0.0,0.024,11.1,0.625,0.625,0.194,90.88,0.052,2015-11-13T00:00:00,5,TOR,Toronto,7-3,17,23,32,28,0,0,0,0,0,0,0,0,0,0,100,0.442,0.852,0.429,19,48,15,0021500131,1610612761,TOR,Toronto,Patrick Patterson,,,22:16,0.0,2.0,0.0,4.0,9.0,6.0,6.0,16.0,0.0,0.0,2.0,0.0
0021500131,1610612761,TOR,Toronto,202687,Bismack Biyombo,,,20:14,99.8,96.9,2.9,0.0,0.0,0.0,0.063,0.4,0.25,26.6,1.0,1.087,0.092,85.59,0.237,2015-11-13T00:00:00,5,TOR,Toronto,7-3,17,23,32,28,0,0,0,0,0,0,0,0,0,0,100,0.442,0.852,0.429,19,48,15,0021500131,1610612761,TOR,Toronto,Bismack Biyombo,,,20:14,0.0,4.0,0.0,2.0,5.0,4.0,2.0,10.0,0.0,0.0,0.0,3.0
0021500131,1610612761,TOR,Toronto,202709,Cory Joseph,,,29:14,110.6,87.9,22.7,0.133,1.0,16.8,0.042,0.063,0.054,16.8,0.5,0.571,0.161,90.28,0.085,2015-11-13T00:00:00,5,TOR,Toronto,7-3,17,23,32,28,0,0,0,0,0,0,0,0,0,0,100,0.442,0.852,0.429,19,48,15,0021500131,1610612761,TOR,Toronto,Cory Joseph,,,29:14,4.0,0.0,0.0,0.0,7.0,6.0,4.0,18.0,1.0,0.0,2.0,2.0
0021500131,1610612761,TOR,Toronto,1626181,Norman Powell,,,10:59,74.7,74.7,0.0,0.0,0.0,0.0,0.0,0.176,0.115,0.0,0.0,0.0,0.091,87.78,0.0,2015-11-13T00:00:00,5,TOR,Toronto,7-3,17,23,32,28,0,0,0,0,0,0,0,0,0,0,100,0.442,0.852,0.429,19,48,15,0021500131,1610612761,TOR,Toronto,Norman Powell,,,10:59,0.0,0.0,0.0,0.0,2.0,1.0,2.0,4.0,0.0,0.0,2.0,0.0
0021500131,1610612761,TOR,Toronto,1626153,Delon Wright,,,2:29,0.0,41.0,-41.0,0.0,0.0,0.0,0.0,0.25,0.167,0.0,0.0,0.0,0.0,85.82,0.0,2015-11-13T00:00:00,5,TOR,Toronto,7-3,17,23,32,28,0,0,0,0,0,0,0,0,0,0,100,0.442,0.852,0.429,19,48,15,0021500131,1610612761,TOR,Toronto,Delon Wright,,,2:29,0.0,0.0,0.0,0.0,0.0,0.0,0.0,0.0,0.0,0.0,1.0,0.0
0021500131,1610612761,TOR,Toronto,203461,Anthony Bennett,,,2:29,0.0,41.0,-41.0,0.0,0.0,0.0,0.0,0.25,0.167,50.0,0.0,0.0,0.5,85.82,1.0,2015-11-13T00:00:00,5,TOR,Toronto,7-3,17,23,32,28,0,0,0,0,0,0,0,0,0,0,100,0.442,0.852,0.429,19,48,15,0021500131,1610612761,TOR,Toronto,Anthony Bennett,,,2:29,0.0,0.0,0.0,0.0,0.0,0.0,0.0,0.0,0.0,0.0,0.0,0.0
0021500131,1610612761,TOR,Toronto,201949,James Johnson,,DNP - Coach's Decision                  ,,,,,,,0.0,,,,,,,0.0,,,2015-11-13T00:00:00,5,TOR,Toronto,7-3,17,23,32,28,0,0,0,0,0,0,0,0,0,0,100,0.442,0.852,0.429,19,48,15,0021500131,1610612761,TOR,Toronto,James Johnson,,DNP - Coach's Decision                  ,,,,,,,,,,,,,
