GAME_ID_x,TEAM_ID_x,TEAM_ABBREVIATION_x,TEAM_CITY_x,PLAYER_ID,PLAYER_NAME_x,START_POSITION_x,COMMENT_x,MIN_x,OFF_RATING,DEF_RATING,NET_RATING,AST_PCT,AST_TOV,AST_RATIO,OREB_PCT,DREB_PCT,REB_PCT,TM_TOV_PCT,EFG_PCT,TS_PCT,USG_PCT,PACE,PIE,GAME_DATE_EST,GAME_SEQUENCE,TEAM_ABBREVIATION_y,TEAM_CITY_NAME,TEAM_WINS_LOSSES,PTS_QTR1,PTS_QTR2,PTS_QTR3,PTS_QTR4,PTS_OT1,PTS_OT2,PTS_OT3,PTS_OT4,PTS_OT5,PTS_OT6,PTS_OT7,PTS_OT8,PTS_OT9,PTS_OT10,PTS,FG_PCT,FT_PCT,FG3_PCT,AST,REB,TOV,GAME_ID_y,TEAM_ID_y,TEAM_ABBREVIATION,TEAM_CITY_y,PLAYER_NAME_y,START_POSITION_y,COMMENT_y,MIN_y,PTS_OFF_TOV,PTS_2ND_CHANCE,PTS_FB,PTS_PAINT,OPP_PTS_OFF_TOV,OPP_PTS_2ND_CHANCE,OPP_PTS_FB,OPP_PTS_PAINT,BLK,BLKA,PF,PFD
0021500140,1610612742,DAL,Dallas,1626147,Justin Anderson,F,,12:24,110.7,97.4,13.3,0.0,0.0,0.0,0.0,0.091,0.048,33.3,0.375,0.375,0.213,98.4,-0.021,2015-11-14T00:00:00,3,DAL,Dallas,6-4,32,25,25,28,0,0,0,0,0,0,0,0,0,0,110,0.483,0.762,0.286,24,45,11,0021500140,1610612742,DAL,Dallas,Justin Anderson,F,,12:24,0.0,0.0,0.0,0.0,2.0,2.0,1.0,10.0,0.0,0.0,0.0,0.0
0021500140,1610612742,DAL,Dallas,101111,Charlie Villanueva,F,,25:25,108.3,107.9,0.4,0.067,0.5,5.3,0.08,0.15,0.111,10.5,0.594,0.594,0.298,101.34,0.115,2015-11-14T00:00:00,3,DAL,Dallas,6-4,32,25,25,28,0,0,0,0,0,0,0,0,0,0,110,0.483,0.762,0.286,24,45,11,0021500140,1610612742,DAL,Dallas,Charlie Villanueva,F,,25:25,2.0,5.0,0.0,8.0,2.0,2.0,9.0,24.0,3.0,0.0,4.0,1.0
0021500140,1610612742,DAL,Dallas,2585,Zaza Pachulia,C,,30:01,109.1,113.7,-4.6,0.15,0.0,25.8,0.083,0.261,0.17,0.0,0.667,0.579,0.132,96.88,0.127,2015-11-14T00:00:00,3,DAL,Dallas,6-4,32,25,25,28,0,0,0,0,0,0,0,0,0,0,110,0.483,0.762,0.286,24,45,11,0021500140,1610612742,DAL,Dallas,Zaza Pachulia,C,,30:01,2.0,1.0,0.0,8.0,7.0,3.0,9.0,28.0,0.0,1.0,1.0,6.0
0021500140,1610612742,DAL,Dallas,101109,Raymond Felton,G,,33:46,108.8,116.7,-7.9,0.05,0.5,4.6,0.036,0.2,0.113,9.2,0.531,0.617,0.265,99.05,0.133,2015-11-14T00:00:00,3,DAL,Dallas,6-4,32,25,25,28,0,0,0,0,0,0,0,0,0,0,110,0.483,0.762,0.286,24,45,11,0021500140,1610612742,DAL,Dallas,Raymond Felton,G,,33:46,6.0,2.0,0.0,8.0,7.0,3.0,11.0,34.0,0.0,0.0,3.0,7.0
0021500140,1610612742,DAL,Dallas,101114,Deron Williams,G,,34:35,104.3,105.1,-0.8,0.2,5.0,32.6,0.0,0.063,0.033,6.5,0.5,0.59,0.132,100.11,0.085,2015-11-14T00:00:00,3,DAL,Dallas,6-4,32,25,25,28,0,0,0,0,0,0,0,0,0,0,110,0.483,0.762,0.286,24,45,11,0021500140,1610612742,DAL,Dallas,Deron Williams,G,,34:35,0.0,0.0,0.0,2.0,7.0,3.0,11.0,30.0,0.0,1.0,4.0,2.0
0021500140,1610612742,DAL,Dallas,203939,Dwight Powell,,,26:09,111.8,91.0,20.8,0.143,3.0,21.8,0.059,0.258,0.187,7.3,0.625,0.666,0.173,105.84,0.209,2015-11-14T00:00:00,3,DAL,Dallas,6-4,32,25,25,28,0,0,0,0,0,0,0,0,0,0,110,0.483,0.762,0.286,24,45,11,0021500140,1610612742,DAL,Dallas,Dwight Powell,,,26:09,0.0,4.0,0.0,6.0,7.0,1.0,6.0,22.0,2.0,0.0,0.0,3.0
0021500140,1610612742,DAL,Dallas,2734,Devin Harris,,,29:18,108.4,102.2,6.2,0.1,0.0,14.9,0.0,0.129,0.077,0.0,0.636,0.656,0.174,101.08,0.124,2015-11-14T00:00:00,3,DAL,Dallas,6-4,32,25,25,28,0,0,0,0,0,0,0,0,0,0,110,0.483,0.762,0.286,24,45,11,0021500140,1610612742,DAL,Dallas,Devin Harris,,,29:18,5.0,2.0,7.0,12.0,7.0,1.0,10.0,24.0,0.0,0.0,4.0,2.0
0021500140,1610612742,DAL,Dallas,200826,J.J. Barea,,,21:45,113.6,84.1,29.6,0.421,4.0,43.4,0.0,0.115,0.068,10.8,0.375,0.415,0.206,102.65,0.141,2015-11-14T00:00:00,3,DAL,Dallas,6-4,32,25,25,28,0,0,0,0,0,0,0,0,0,0,110,0.483,0.762,0.286,24,45,11,0021500140,1610612742,DAL,Dallas,J.J. Barea,,,21:45,5.0,0.0,2.0,6.0,2.0,1.0,4.0,16.0,1.0,1.0,2.0,1.0
0021500140,1610612742,DAL,Dallas,203098,John Jenkins,,,12:17,105.9,47.0,58.9,0.0,0.0,0.0,0.091,0.045,0.061,11.1,0.313,0.313,0.316,105.65,-0.014,2015-11-14T00:00:00,3,DAL,Dallas,6-4,32,25,25,28,0,0,0,0,0,0,0,0,0,0,110,0.483,0.762,0.286,24,45,11,0021500140,1610612742,DAL,Dallas,John Jenkins,,,12:17,0.0,0.0,0.0,0.0,2.0,2.0,2.0,6.0,0.0,1.0,0.0,0.0
0021500140,1610612742,DAL,Dallas,202379,Jeremy Evans,,,14:20,105.7,62.5,43.2,0.091,0.0,20.0,0.083,0.167,0.139,0.0,0.5,0.5,0.136,96.85,0.123,2015-11-14T00:00:00,3,DAL,Dallas,6-4,32,25,25,28,0,0,0,0,0,0,0,0,0,0,110,0.483,0.762,0.286,24,45,11,0021500140,1610612742,DAL,Dallas,Jeremy Evans,,,14:20,0.0,0.0,0.0,4.0,2.0,2.0,2.0,6.0,1.0,1.0,3.0,1.0
0021500140,1610612742,DAL,Dallas,202083,Wesley Matthews,,DNP - Coach's Decision                  ,,,,,,,0.0,,,,,,,0.0,,,2015-11-14T00:00:00,3,DAL,Dallas,6-4,32,25,25,28,0,0,0,0,0,0,0,0,0,0,110,0.483,0.762,0.286,24,45,11,0021500140,1610612742,DAL,Dallas,Wesley Matthews,,DNP - Coach's Decision                  ,,,,,,,,,,,,,
0021500140,1610612742,DAL,Dallas,1626257,Salah Mejri,,DNP - Coach's Decision                  ,,,,,,,0.0,,,,,,,0.0,,,2015-11-14T00:00:00,3,DAL,Dallas,6-4,32,25,25,28,0,0,0,0,0,0,0,0,0,0,110,0.483,0.762,0.286,24,45,11,0021500140,1610612742,DAL,Dallas,Salah Mejri,,DNP - Coach's Decision                  ,,,,,,,,,,,,,
0021500140,1610612742,DAL,Dallas,1717,Dirk Nowitzki,,DNP - Coach's Decision                  ,,,,,,,0.0,,,,,,,0.0,,,2015-11-14T00:00:00,3,DAL,Dallas,6-4,32,25,25,28,0,0,0,0,0,0,0,0,0,0,110,0.483,0.762,0.286,24,45,11,0021500140,1610612742,DAL,Dallas,Dirk Nowitzki,,DNP - Coach's Decision                  ,,,,,,,,,,,,,
0021500140,1610612745,HOU,Houston,2772,Trevor Ariza,F,,24:37,107.3,108.5,-1.1,0.125,2.0,16.8,0.043,0.263,0.143,8.4,0.188,0.225,0.182,102.1,0.006,2015-11-14T00:00:00,3,HOU,Houston,4-6,20,14,33,31,0,0,0,0,0,0,0,0,0,0,98,0.381,0.781,0.265,22,43,12,0021500140,1610612745,HOU,Houston,Trevor Ariza,F,,24:37,0.0,0.0,1.0,0.0,11.0,8.0,0.0,20.0,0.0,0.0,5.0,1.0
0021500140,1610612745,HOU,Houston,203093,Terrence Jones,F,,41:39,97.0,106.9,-9.9,0.056,0.5,5.1,0.0,0.188,0.081,10.1,0.7,0.686,0.198,100.54,0.127,2015-11-14T00:00:00,3,HOU,Houston,4-6,20,14,33,31,0,0,0,0,0,0,0,0,0,0,98,0.381,0.781,0.265,22,43,12,0021500140,1610612745,HOU,Houston,Terrence Jones,F,,41:39,2.0,2.0,0.0,16.0,15.0,8.0,6.0,44.0,3.0,1.0,4.0,3.0
0021500140,1610612745,HOU,Houston,203991,Clint Capela,C,,23:05,90.3,109.6,-19.3,0.077,0.0,15.1,0.174,0.286,0.227,0.0,0.667,0.621,0.105,97.86,0.149,2015-11-14T00:00:00,3,HOU,Houston,4-6,20,14,33,31,0,0,0,0,0,0,0,0,0,0,98,0.381,0.781,0.265,22,43,12,0021500140,1610612745,HOU,Houston,Clint Capela,C,,23:05,0.0,1.0,0.0,4.0,6.0,11.0,2.0,26.0,0.0,0.0,1.0,3.0
0021500140,1610612745,HOU,Houston,201935,James Harden,G,,41:40,99.6,111.2,-11.6,0.417,1.67,23.2,0.07,0.129,0.095,13.9,0.262,0.46,0.334,103.75,0.103,2015-11-14T00:00:00,3,HOU,Houston,4-6,20,14,33,31,0,0,0,0,0,0,0,0,0,0,98,0.381,0.781,0.265,22,43,12,0021500140,1610612745,HOU,Houston,James Harden,G,,41:40,2.0,0.0,8.0,8.0,18.0,12.0,9.0,46.0,1.0,3.0,4.0,9.0
0021500140,1610612745,HOU,Houston,201951,Ty Lawson,G,,30:22,87.2,111.3,-24.1,0.294,2.5,33.3,0.029,0.077,0.05,13.3,0.438,0.438,0.141,98.1,0.064,2015-11-14T00:00:00,3,HOU,Houston,4-6,20,14,33,31,0,0,0,0,0,0,0,0,0,0,98,0.381,0.781,0.265,22,43,12,0021500140,1610612745,HOU,Houston,Ty Lawson,G,,30:22,0.0,0.0,0.0,0.0,8.0,7.0,6.0,38.0,0.0,1.0,1.0,1.0
0021500140,1610612745,HOU,Houston,201977,Marcus Thornton,,,18:04,90.7,111.2,-20.6,0.0,0.0,0.0,0.0,0.313,0.139,0.0,0.111,0.111,0.212,98.52,-0.016,2015-11-14T00:00:00,3,HOU,Houston,4-6,20,14,33,31,0,0,0,0,0,0,0,0,0,0,98,0.381,0.781,0.265,22,43,12,0021500140,1610612745,HOU,Houston,Marcus Thornton,,,18:04,0.0,0.0,0.0,2.0,7.0,6.0,7.0,26.0,0.0,0.0,0.0,0.0
0021500140,1610612745,HOU,Houston,201147,Corey Brewer,,,23:12,84.2,110.9,-26.7,0.1,0.0,11.3,0.033,0.056,0.042,0.0,0.286,0.381,0.136,106.88,0.018,2015-11-14T00:00:00,3,HOU,Houston,4-6,20,14,33,31,0,0,0,0,0,0,0,0,0,0,98,0.381,0.781,0.265,22,43,12,0021500140,1610612745,HOU,Houston,Corey Brewer,,,23:12,2.0,0.0,4.0,4.0,16.0,3.0,9.0,26.0,0.0,1.0,2.0,1.0
0021500140,1610612745,HOU,Houston,1891,Jason Terry,,,26:18,116.5,100.7,15.7,0.077,1.0,7.8,0.0,0.0,0.0,7.8,0.85,0.873,0.197,98.41,0.124,2015-11-14T00:00:00,3,HOU,Houston,4-6,20,14,33,31,0,0,0,0,0,0,0,0,0,0,98,0.381,0.781,0.265,22,43,12,0021500140,1610612745,HOU,Houston,Jason Terry,,,26:18,3.0,0.0,0.0,2.0,14.0,9.0,3.0,28.0,0.0,0.0,5.0,2.0
0021500140,1610612745,HOU,Houston,1626149,Montrezl Harrell,,,11:03,118.4,105.7,12.7,0.143,0.0,20.5,0.222,0.2,0.211,0.0,0.667,0.644,0.144,94.96,0.197,2015-11-14T00:00:00,3,HOU,Houston,4-6,20,14,33,31,0,0,0,0,0,0,0,0,0,0,98,0.381,0.781,0.265,22,43,12,0021500140,1610612745,HOU,Houston,Montrezl Harrell,,,11:03,0.0,1.0,0.0,4.0,5.0,6.0,3.0,16.0,1.0,1.0,1.0,1.0
0021500140,1610612745,HOU,Houston,1626155,Sam Dekker,,DND - Sore Back                         ,,,,,,,0.0,,,,,,,0.0,,,2015-11-14T00:00:00,3,HOU,Houston,4-6,20,14,33,31,0,0,0,0,0,0,0,0,0,0,98,0.381,0.781,0.265,22,43,12,0021500140,1610612745,HOU,Houston,Sam Dekker,,DND - Sore Back                         ,,,,,,,,,,,,,
0021500140,1610612745,HOU,Houston,2730,Dwight Howard,,DND - Rest                              ,,,,,,,0.0,,,,,,,0.0,,,2015-11-14T00:00:00,3,HOU,Houston,4-6,20,14,33,31,0,0,0,0,0,0,0,0,0,0,98,0.381,0.781,0.265,22,43,12,0021500140,1610612745,HOU,Houston,Dwight Howard,,DND - Rest                              ,,,,,,,,,,,,,
