GAME_ID_x,TEAM_ID_x,TEAM_ABBREVIATION_x,TEAM_CITY_x,PLAYER_ID,PLAYER_NAME_x,START_POSITION_x,COMMENT_x,MIN_x,OFF_RATING,DEF_RATING,NET_RATING,AST_PCT,AST_TOV,AST_RATIO,OREB_PCT,DREB_PCT,REB_PCT,TM_TOV_PCT,EFG_PCT,TS_PCT,USG_PCT,PACE,PIE,GAME_DATE_EST,GAME_SEQUENCE,TEAM_ABBREVIATION_y,TEAM_CITY_NAME,TEAM_WINS_LOSSES,PTS_QTR1,PTS_QTR2,PTS_QTR3,PTS_QTR4,PTS_OT1,PTS_OT2,PTS_OT3,PTS_OT4,PTS_OT5,PTS_OT6,PTS_OT7,PTS_OT8,PTS_OT9,PTS_OT10,PTS,FG_PCT,FT_PCT,FG3_PCT,AST,REB,TOV,GAME_ID_y,TEAM_ID_y,TEAM_ABBREVIATION,TEAM_CITY_y,PLAYER_NAME_y,START_POSITION_y,COMMENT_y,MIN_y,PTS_OFF_TOV,PTS_2ND_CHANCE,PTS_FB,PTS_PAINT,OPP_PTS_OFF_TOV,OPP_PTS_2ND_CHANCE,OPP_PTS_FB,OPP_PTS_PAINT,BLK,BLKA,PF,PFD
0021500141,1610612739,CLE,Cleveland,2544,LeBron James,F,,45:03,90.8,93.1,-2.3,0.357,0.71,11.3,0.091,0.211,0.146,15.8,0.574,0.573,0.389,92.72,0.231,2015-11-14T00:00:00,4,CLE,Cleveland,8-2,23,21,17,27,8,9,0,0,0,0,0,0,0,0,105,0.407,0.63,0.368,21,54,20,0021500141,1610612739,CLE,Cleveland,LeBron James,F,,45:03,11.0,7.0,7.0,16.0,20.0,12.0,2.0,38.0,3.0,3.0,3.0,8.0
0021500141,1610612739,CLE,Cleveland,201567,Kevin Love,F,,44:00,90.2,100.4,-10.1,0.118,1.0,8.1,0.049,0.293,0.171,8.1,0.556,0.581,0.238,88.82,0.227,2015-11-14T00:00:00,4,CLE,Cleveland,8-2,23,21,17,27,8,9,0,0,0,0,0,0,0,0,105,0.407,0.63,0.368,21,54,20,0021500141,1610612739,CLE,Cleveland,Kevin Love,F,,44:00,0.0,6.0,2.0,4.0,20.0,18.0,5.0,42.0,0.0,2.0,2.0,8.0
0021500141,1610612739,CLE,Cleveland,202389,Timofey Mozgov,C,,15:37,82.9,85.8,-2.9,0.0,0.0,0.0,0.182,0.1,0.129,0.0,0.2,0.524,0.224,96.53,0.216,2015-11-14T00:00:00,4,CLE,Cleveland,8-2,23,21,17,27,8,9,0,0,0,0,0,0,0,0,105,0.407,0.63,0.368,21,54,20,0021500141,1610612739,CLE,Cleveland,Timofey Mozgov,C,,15:37,0.0,0.0,4.0,2.0,12.0,12.0,0.0,14.0,3.0,2.0,3.0,3.0
0021500141,1610612739,CLE,Cleveland,2747,JR Smith,G,,50:30,102.0,102.8,-0.7,0.067,0.67,10.5,0.048,0.143,0.099,15.8,0.357,0.357,0.163,87.26,0.043,2015-11-14T00:00:00,4,CLE,Cleveland,8-2,23,21,17,27,8,9,0,0,0,0,0,0,0,0,105,0.407,0.63,0.368,21,54,20,0021500141,1610612739,CLE,Cleveland,JR Smith,G,,50:30,3.0,3.0,0.0,2.0,20.0,16.0,5.0,50.0,2.0,1.0,3.0,0.0
0021500141,1610612739,CLE,Cleveland,2590,Mo Williams,G,,29:22,98.3,102.8,-4.4,0.25,1.33,26.7,0.077,0.125,0.1,20.0,0.25,0.25,0.169,88.62,0.0,2015-11-14T00:00:00,4,CLE,Cleveland,8-2,23,21,17,27,8,9,0,0,0,0,0,0,0,0,105,0.407,0.63,0.368,21,54,20,0021500141,1610612739,CLE,Cleveland,Mo Williams,G,,29:22,0.0,2.0,0.0,4.0,16.0,10.0,5.0,28.0,0.0,0.0,3.0,0.0
0021500141,1610612739,CLE,Cleveland,2210,Richard Jefferson,,,39:04,93.9,96.8,-2.9,0.0,0.0,0.0,0.029,0.056,0.043,8.1,0.65,0.618,0.147,92.13,0.055,2015-11-14T00:00:00,4,CLE,Cleveland,8-2,23,21,17,27,8,9,0,0,0,0,0,0,0,0,105,0.407,0.63,0.368,21,54,20,0021500141,1610612739,CLE,Cleveland,Richard Jefferson,,,39:04,0.0,0.0,6.0,2.0,18.0,8.0,5.0,34.0,0.0,1.0,4.0,4.0
0021500141,1610612739,CLE,Cleveland,203521,Matthew Dellavedova,,,28:38,92.8,94.4,-1.6,0.368,1.75,50.0,0.0,0.065,0.036,28.6,0.0,0.0,0.119,93.14,0.026,2015-11-14T00:00:00,4,CLE,Cleveland,8-2,23,21,17,27,8,9,0,0,0,0,0,0,0,0,105,0.407,0.63,0.368,21,54,20,0021500141,1610612739,CLE,Cleveland,Matthew Dellavedova,,,28:38,0.0,0.0,0.0,0.0,10.0,8.0,0.0,26.0,0.0,0.0,2.0,1.0
0021500141,1610612739,CLE,Cleveland,202684,Tristan Thompson,,,25:30,102.6,113.6,-11.0,0.0,0.0,0.0,0.0,0.16,0.089,0.0,0.75,0.75,0.077,91.33,0.064,2015-11-14T00:00:00,4,CLE,Cleveland,8-2,23,21,17,27,8,9,0,0,0,0,0,0,0,0,105,0.407,0.63,0.368,21,54,20,0021500141,1610612739,CLE,Cleveland,Tristan Thompson,,,25:30,2.0,2.0,0.0,6.0,10.0,6.0,3.0,26.0,0.0,0.0,3.0,0.0
0021500141,1610612739,CLE,Cleveland,2760,Anderson Varejao,,,5:09,130.1,69.9,60.2,0.2,0.0,33.3,0.2,0.0,0.091,0.0,0.5,0.5,0.157,103.46,0.125,2015-11-14T00:00:00,4,CLE,Cleveland,8-2,23,21,17,27,8,9,0,0,0,0,0,0,0,0,105,0.407,0.63,0.368,21,54,20,0021500141,1610612739,CLE,Cleveland,Anderson Varejao,,,5:09,0.0,0.0,0.0,2.0,0.0,0.0,0.0,6.0,0.0,0.0,0.0,0.0
0021500141,1610612739,CLE,Cleveland,2592,James Jones,,,3:44,42.9,87.2,-44.4,0.0,0.0,0.0,0.0,0.0,0.0,0.0,0.0,0.0,0.0,89.23,0.0,2015-11-14T00:00:00,4,CLE,Cleveland,8-2,23,21,17,27,8,9,0,0,0,0,0,0,0,0,105,0.407,0.63,0.368,21,54,20,0021500141,1610612739,CLE,Cleveland,James Jones,,,3:44,0.0,0.0,0.0,0.0,2.0,0.0,0.0,0.0,0.0,0.0,0.0,1.0
0021500141,1610612739,CLE,Cleveland,203099,Jared Cunningham,,,3:23,166.7,119.0,47.6,0.0,0.0,0.0,0.0,0.0,0.0,0.0,0.0,0.0,0.0,84.27,-0.074,2015-11-14T00:00:00,4,CLE,Cleveland,8-2,23,21,17,27,8,9,0,0,0,0,0,0,0,0,105,0.407,0.63,0.368,21,54,20,0021500141,1610612739,CLE,Cleveland,Jared Cunningham,,,3:23,0.0,0.0,0.0,0.0,2.0,0.0,0.0,6.0,0.0,0.0,1.0,0.0
0021500141,1610612739,CLE,Cleveland,201619,Sasha Kaun,,DNP - Coach's Decision                  ,,,,,,,0.0,,,,,,,0.0,,,2015-11-14T00:00:00,4,CLE,Cleveland,8-2,23,21,17,27,8,9,0,0,0,0,0,0,0,0,105,0.407,0.63,0.368,21,54,20,0021500141,1610612739,CLE,Cleveland,Sasha Kaun,,DNP - Coach's Decision                  ,,,,,,,,,,,,,
0021500141,1610612749,MIL,Milwaukee,203507,Giannis Antetokounmpo,F,,44:31,96.5,95.4,1.1,0.034,0.5,4.3,0.095,0.184,0.138,8.6,0.333,0.396,0.229,93.83,0.056,2015-11-14T00:00:00,4,MIL,Milwaukee,5-5,23,27,20,18,8,12,0,0,0,0,0,0,0,0,108,0.422,0.727,0.375,20,51,12,0021500141,1610612749,MIL,Milwaukee,Giannis Antetokounmpo,F,,44:31,8.0,6.0,0.0,8.0,13.0,13.0,16.0,34.0,3.0,3.0,6.0,5.0
0021500141,1610612749,MIL,Milwaukee,203953,Jabari Parker,F,,30:01,109.6,106.0,3.6,0.05,1.0,7.8,0.0,0.103,0.059,7.8,0.5,0.551,0.219,82.39,0.087,2015-11-14T00:00:00,4,MIL,Milwaukee,5-5,23,27,20,18,8,12,0,0,0,0,0,0,0,0,108,0.422,0.727,0.375,20,51,12,0021500141,1610612749,MIL,Milwaukee,Jabari Parker,F,,30:01,4.0,2.0,0.0,8.0,4.0,12.0,10.0,20.0,0.0,2.0,2.0,1.0
0021500141,1610612749,MIL,Milwaukee,202328,Greg Monroe,C,,43:28,102.0,93.1,8.8,0.12,1.5,13.6,0.146,0.289,0.215,9.1,0.471,0.471,0.197,91.68,0.18,2015-11-14T00:00:00,4,MIL,Milwaukee,5-5,23,27,20,18,8,12,0,0,0,0,0,0,0,0,108,0.422,0.727,0.375,20,51,12,0021500141,1610612749,MIL,Milwaukee,Greg Monroe,C,,43:28,0.0,4.0,0.0,14.0,12.0,18.0,15.0,20.0,1.0,1.0,3.0,2.0
0021500141,1610612749,MIL,Milwaukee,203114,Khris Middleton,G,,41:48,92.7,85.5,7.2,0.042,1.0,6.3,0.0,0.108,0.051,6.3,0.346,0.396,0.16,92.78,0.057,2015-11-14T00:00:00,4,MIL,Milwaukee,5-5,23,27,20,18,8,12,0,0,0,0,0,0,0,0,108,0.422,0.727,0.375,20,51,12,0021500141,1610612749,MIL,Milwaukee,Khris Middleton,G,,41:48,4.0,0.0,0.0,2.0,12.0,18.0,15.0,20.0,0.0,0.0,4.0,1.0
0021500141,1610612749,MIL,Milwaukee,203487,Michael Carter-Williams,G,,40:02,96.0,87.7,8.3,0.182,1.33,18.5,0.028,0.108,0.068,13.9,0.5,0.581,0.205,92.75,0.194,2015-11-14T00:00:00,4,MIL,Milwaukee,5-5,23,27,20,18,8,12,0,0,0,0,0,0,0,0,108,0.422,0.727,0.375,20,51,12,0021500141,1610612749,MIL,Milwaukee,Michael Carter-Williams,G,,40:02,6.0,2.0,2.0,8.0,12.0,18.0,15.0,20.0,2.0,1.0,1.0,7.0
0021500141,1610612749,MIL,Milwaukee,203948,Johnny O'Bryant III,,,4:41,100.0,93.4,6.6,0.0,0.0,0.0,0.0,0.0,0.0,0.0,0.0,0.0,0.167,100.65,-0.286,2015-11-14T00:00:00,4,MIL,Milwaukee,5-5,23,27,20,18,8,12,0,0,0,0,0,0,0,0,108,0.422,0.727,0.375,20,51,12,0021500141,1610612749,MIL,Milwaukee,Johnny O'Bryant III,,,4:41,0.0,0.0,0.0,0.0,0.0,0.0,3.0,4.0,0.0,0.0,1.0,0.0
0021500141,1610612749,MIL,Milwaukee,203089,John Henson,,,21:17,92.3,112.3,-20.0,0.077,1.0,12.7,0.167,0.125,0.15,12.7,0.6,0.51,0.143,90.39,0.08,2015-11-14T00:00:00,4,MIL,Milwaukee,5-5,23,27,20,18,8,12,0,0,0,0,0,0,0,0,108,0.422,0.727,0.375,20,51,12,0021500141,1610612749,MIL,Milwaukee,John Henson,,,21:17,2.0,2.0,0.0,6.0,7.0,2.0,7.0,20.0,3.0,0.0,3.0,3.0
0021500141,1610612749,MIL,Milwaukee,201573,Jerryd Bayless,,,38:48,101.5,103.2,-1.7,0.25,5.0,22.7,0.0,0.063,0.03,4.5,0.531,0.531,0.205,88.85,0.094,2015-11-14T00:00:00,4,MIL,Milwaukee,5-5,23,27,20,18,8,12,0,0,0,0,0,0,0,0,108,0.422,0.727,0.375,20,51,12,0021500141,1610612749,MIL,Milwaukee,Jerryd Bayless,,,38:48,0.0,0.0,3.0,6.0,13.0,13.0,10.0,30.0,0.0,1.0,3.0,1.0
0021500141,1610612749,MIL,Milwaukee,203101,Miles Plumlee,,,1:34,45.0,61.5,-16.4,0.0,0.0,0.0,0.0,0.0,0.0,0.0,0.0,0.0,0.225,142.77,-0.5,2015-11-14T00:00:00,4,MIL,Milwaukee,5-5,23,27,20,18,8,12,0,0,0,0,0,0,0,0,108,0.422,0.727,0.375,20,51,12,0021500141,1610612749,MIL,Milwaukee,Miles Plumlee,,,1:34,0.0,0.0,0.0,0.0,0.0,2.0,0.0,2.0,0.0,0.0,0.0,0.0
0021500141,1610612749,MIL,Milwaukee,202349,Greivis Vasquez,,,23:50,103.7,97.2,6.5,0.308,4.0,26.3,0.0,0.158,0.07,6.6,0.625,0.637,0.227,86.2,0.15,2015-11-14T00:00:00,4,MIL,Milwaukee,5-5,23,27,20,18,8,12,0,0,0,0,0,0,0,0,108,0.422,0.727,0.375,20,51,12,0021500141,1610612749,MIL,Milwaukee,Greivis Vasquez,,,23:50,2.0,2.0,0.0,2.0,7.0,4.0,4.0,20.0,0.0,0.0,2.0,4.0
0021500141,1610612749,MIL,Milwaukee,203142,Chris Copeland,,DNP - Coach's Decision                  ,,,,,,,0.0,,,,,,,0.0,,,2015-11-14T00:00:00,4,MIL,Milwaukee,5-5,23,27,20,18,8,12,0,0,0,0,0,0,0,0,108,0.422,0.727,0.375,20,51,12,0021500141,1610612749,MIL,Milwaukee,Chris Copeland,,DNP - Coach's Decision                  ,,,,,,,,,,,,,
0021500141,1610612749,MIL,Milwaukee,203996,Damien Inglis,,DNP - Coach's Decision                  ,,,,,,,0.0,,,,,,,0.0,,,2015-11-14T00:00:00,4,MIL,Milwaukee,5-5,23,27,20,18,8,12,0,0,0,0,0,0,0,0,108,0.422,0.727,0.375,20,51,12,0021500141,1610612749,MIL,Milwaukee,Damien Inglis,,DNP - Coach's Decision                  ,,,,,,,,,,,,,
0021500141,1610612749,MIL,Milwaukee,1626173,Rashad Vaughn,,DNP - Coach's Decision                  ,,,,,,,0.0,,,,,,,0.0,,,2015-11-14T00:00:00,4,MIL,Milwaukee,5-5,23,27,20,18,8,12,0,0,0,0,0,0,0,0,108,0.422,0.727,0.375,20,51,12,0021500141,1610612749,MIL,Milwaukee,Rashad Vaughn,,DNP - Coach's Decision                  ,,,,,,,,,,,,,
