GAME_ID_x,TEAM_ID_x,TEAM_ABBREVIATION_x,TEAM_CITY_x,PLAYER_ID,PLAYER_NAME_x,START_POSITION_x,COMMENT_x,MIN_x,OFF_RATING,DEF_RATING,NET_RATING,AST_PCT,AST_TOV,AST_RATIO,OREB_PCT,DREB_PCT,REB_PCT,TM_TOV_PCT,EFG_PCT,TS_PCT,USG_PCT,PACE,PIE,GAME_DATE_EST,GAME_SEQUENCE,TEAM_ABBREVIATION_y,TEAM_CITY_NAME,TEAM_WINS_LOSSES,PTS_QTR1,PTS_QTR2,PTS_QTR3,PTS_QTR4,PTS_OT1,PTS_OT2,PTS_OT3,PTS_OT4,PTS_OT5,PTS_OT6,PTS_OT7,PTS_OT8,PTS_OT9,PTS_OT10,PTS,FG_PCT,FT_PCT,FG3_PCT,AST,REB,TOV,GAME_ID_y,TEAM_ID_y,TEAM_ABBREVIATION,TEAM_CITY_y,PLAYER_NAME_y,START_POSITION_y,COMMENT_y,MIN_y,PTS_OFF_TOV,PTS_2ND_CHANCE,PTS_FB,PTS_PAINT,OPP_PTS_OFF_TOV,OPP_PTS_2ND_CHANCE,OPP_PTS_FB,OPP_PTS_PAINT,BLK,BLKA,PF,PFD
0021500173,1610612761,TOR,Toronto,201960,DeMarre Carroll,F,,34:42,98.5,105.5,-7.0,0.0,0.0,0.0,0.0,0.286,0.111,10.1,0.375,0.394,0.139,88.83,0.041,2015-11-18T00:00:00,9,TOR,Toronto,7-6,19,26,19,25,0,0,0,0,0,0,0,0,0,0,89,0.425,0.889,0.25,14,37,14,0021500173,1610612761,TOR,Toronto,DeMarre Carroll,F,,34:42,0.0,0.0,0.0,0.0,8.0,3.0,9.0,36.0,1.0,0.0,3.0,3.0
0021500173,1610612761,TOR,Toronto,2449,Luis Scola,F,,29:50,98.0,109.5,-11.4,0.083,0.0,6.3,0.069,0.176,0.109,0.0,0.733,0.733,0.242,89.13,0.172,2015-11-18T00:00:00,9,TOR,Toronto,7-6,19,26,19,25,0,0,0,0,0,0,0,0,0,0,89,0.425,0.889,0.25,14,37,14,0021500173,1610612761,TOR,Toronto,Luis Scola,F,,29:50,4.0,0.0,4.0,6.0,7.0,1.0,6.0,32.0,0.0,0.0,5.0,1.0
0021500173,1610612761,TOR,Toronto,202685,Jonas Valanciunas,C,,32:31,100.1,110.7,-10.6,0.0,0.0,0.0,0.133,0.25,0.18,8.7,0.5,0.527,0.176,86.14,0.121,2015-11-18T00:00:00,9,TOR,Toronto,7-6,19,26,19,25,0,0,0,0,0,0,0,0,0,0,89,0.425,0.889,0.25,14,37,14,0021500173,1610612761,TOR,Toronto,Jonas Valanciunas,C,,32:31,5.0,4.0,0.0,10.0,6.0,7.0,8.0,34.0,2.0,3.0,1.0,1.0
0021500173,1610612761,TOR,Toronto,201942,DeMar DeRozan,G,,34:36,106.4,117.1,-10.7,0.286,3.0,25.1,0.0,0.176,0.062,8.4,0.4,0.441,0.259,88.69,0.08,2015-11-18T00:00:00,9,TOR,Toronto,7-6,19,26,19,25,0,0,0,0,0,0,0,0,0,0,89,0.425,0.889,0.25,14,37,14,0021500173,1610612761,TOR,Toronto,DeMar DeRozan,G,,34:36,2.0,2.0,0.0,10.0,7.0,6.0,8.0,38.0,0.0,0.0,3.0,3.0
0021500173,1610612761,TOR,Toronto,200768,Kyle Lowry,G,,37:13,94.3,94.1,0.3,0.3,1.2,19.3,0.0,0.097,0.045,16.1,0.382,0.498,0.309,94.49,0.128,2015-11-18T00:00:00,9,TOR,Toronto,7-6,19,26,19,25,0,0,0,0,0,0,0,0,0,0,89,0.425,0.889,0.25,14,37,14,0021500173,1610612761,TOR,Toronto,Kyle Lowry,G,,37:13,2.0,3.0,2.0,6.0,6.0,7.0,7.0,36.0,0.0,0.0,2.0,7.0
0021500173,1610612761,TOR,Toronto,202709,Cory Joseph,,,21:49,90.1,90.1,0.0,0.0,0.0,0.0,0.111,0.048,0.077,12.9,0.4,0.592,0.153,102.53,0.126,2015-11-18T00:00:00,9,TOR,Toronto,7-6,19,26,19,25,0,0,0,0,0,0,0,0,0,0,89,0.425,0.889,0.25,14,37,14,0021500173,1610612761,TOR,Toronto,Cory Joseph,,,21:49,2.0,2.0,0.0,2.0,4.0,9.0,7.0,18.0,0.0,0.0,1.0,2.0
0021500173,1610612761,TOR,Toronto,202335,Patrick Patterson,,,16:12,85.4,84.6,0.8,0.0,0.0,0.0,0.077,0.235,0.167,25.0,0.0,0.0,0.111,99.32,0.039,2015-11-18T00:00:00,9,TOR,Toronto,7-6,19,26,19,25,0,0,0,0,0,0,0,0,0,0,89,0.425,0.889,0.25,14,37,14,0021500173,1610612761,TOR,Toronto,Patrick Patterson,,,16:12,0.0,0.0,0.0,0.0,1.0,6.0,3.0,12.0,0.0,0.0,0.0,1.0
0021500173,1610612761,TOR,Toronto,201949,James Johnson,,,14:50,93.9,82.5,11.4,0.111,0.5,20.0,0.0,0.067,0.038,40.0,1.0,1.0,0.118,100.77,0.09,2015-11-18T00:00:00,9,TOR,Toronto,7-6,19,26,19,25,0,0,0,0,0,0,0,0,0,0,89,0.425,0.889,0.25,14,37,14,0021500173,1610612761,TOR,Toronto,James Johnson,,,14:50,0.0,0.0,0.0,4.0,0.0,4.0,4.0,12.0,1.0,0.0,1.0,0.0
0021500173,1610612761,TOR,Toronto,202687,Bismack Biyombo,,,14:55,87.2,79.5,7.7,0.0,0.0,0.0,0.0,0.133,0.074,25.8,0.5,0.521,0.118,98.4,0.03,2015-11-18T00:00:00,9,TOR,Toronto,7-6,19,26,19,25,0,0,0,0,0,0,0,0,0,0,89,0.425,0.889,0.25,14,37,14,0021500173,1610612761,TOR,Toronto,Bismack Biyombo,,,14:55,3.0,0.0,0.0,2.0,1.0,2.0,3.0,10.0,0.0,0.0,1.0,2.0
0021500173,1610612761,TOR,Toronto,1626181,Norman Powell,,,3:22,75.0,116.7,-41.7,0.0,0.0,0.0,0.0,0.0,0.0,0.0,0.0,0.0,0.375,99.8,-0.143,2015-11-18T00:00:00,9,TOR,Toronto,7-6,19,26,19,25,0,0,0,0,0,0,0,0,0,0,89,0.425,0.889,0.25,14,37,14,0021500173,1610612761,TOR,Toronto,Norman Powell,,,3:22,0.0,0.0,0.0,0.0,0.0,0.0,0.0,2.0,0.0,2.0,0.0,0.0
0021500173,1610612761,TOR,Toronto,203461,Anthony Bennett,,DNP - Coach's Decision                  ,,,,,,,0.0,,,,,,,0.0,,,2015-11-18T00:00:00,9,TOR,Toronto,7-6,19,26,19,25,0,0,0,0,0,0,0,0,0,0,89,0.425,0.889,0.25,14,37,14,0021500173,1610612761,TOR,Toronto,Anthony Bennett,,DNP - Coach's Decision                  ,,,,,,,,,,,,,
0021500173,1610612761,TOR,Toronto,203082,Terrence Ross,,DND - Left thumb ligament               ,,,,,,,0.0,,,,,,,0.0,,,2015-11-18T00:00:00,9,TOR,Toronto,7-6,19,26,19,25,0,0,0,0,0,0,0,0,0,0,89,0.425,0.889,0.25,14,37,14,0021500173,1610612761,TOR,Toronto,Terrence Ross,,DND - Left thumb ligament               ,,,,,,,,,,,,,
0021500173,1610612761,TOR,Toronto,1626153,Delon Wright,,DNP - Coach's Decision                  ,,,,,,,0.0,,,,,,,0.0,,,2015-11-18T00:00:00,9,TOR,Toronto,7-6,19,26,19,25,0,0,0,0,0,0,0,0,0,0,89,0.425,0.889,0.25,14,37,14,0021500173,1610612761,TOR,Toronto,Delon Wright,,DNP - Coach's Decision                  ,,,,,,,,,,,,,
0021500173,1610612762,UTA,Utah,202330,Gordon Hayward,F,,35:19,107.7,95.6,12.1,0.048,1.0,5.5,0.042,0.182,0.123,5.5,0.467,0.521,0.241,91.58,0.098,2015-11-18T00:00:00,9,UTA,Utah,6-5,24,18,17,34,0,0,0,0,0,0,0,0,0,0,93,0.486,0.727,0.318,15,41,17,0021500173,1610612762,UTA,Utah,Gordon Hayward,F,,35:19,0.0,2.0,2.0,6.0,11.0,9.0,4.0,30.0,1.0,1.0,4.0,3.0
0021500173,1610612762,UTA,Utah,202324,Derrick Favors,F,,31:34,117.9,91.8,26.2,0.053,0.0,7.6,0.053,0.345,0.229,0.0,0.778,0.745,0.194,89.88,0.249,2015-11-18T00:00:00,9,UTA,Utah,6-5,24,18,17,34,0,0,0,0,0,0,0,0,0,0,93,0.486,0.727,0.318,15,41,17,0021500173,1610612762,UTA,Utah,Derrick Favors,F,,31:34,0.0,1.0,0.0,12.0,9.0,5.0,2.0,20.0,0.0,0.0,0.0,5.0
0021500173,1610612762,UTA,Utah,203497,Rudy Gobert,C,,38:37,109.9,100.4,9.5,0.038,0.33,11.3,0.043,0.114,0.086,33.8,0.75,0.717,0.106,86.85,0.045,2015-11-18T00:00:00,9,UTA,Utah,6-5,24,18,17,34,0,0,0,0,0,0,0,0,0,0,93,0.486,0.727,0.318,15,41,17,0021500173,1610612762,UTA,Utah,Rudy Gobert,C,,38:37,0.0,0.0,0.0,6.0,15.0,11.0,4.0,34.0,2.0,1.0,3.0,3.0
0021500173,1610612762,UTA,Utah,203918,Rodney Hood,G,,34:35,118.7,101.7,17.0,0.167,1.0,20.2,0.059,0.161,0.125,20.2,0.6,0.68,0.239,88.13,0.128,2015-11-18T00:00:00,9,UTA,Utah,6-5,24,18,17,34,0,0,0,0,0,0,0,0,0,0,93,0.486,0.727,0.318,15,41,17,0021500173,1610612762,UTA,Utah,Rodney Hood,G,,34:35,2.0,2.0,0.0,4.0,13.0,9.0,4.0,32.0,0.0,2.0,2.0,3.0
0021500173,1610612762,UTA,Utah,203526,Raul Neto,G,,17:41,117.5,89.1,28.4,0.167,1.0,22.2,0.0,0.0,0.0,22.2,0.6,0.6,0.221,82.74,0.084,2015-11-18T00:00:00,9,UTA,Utah,6-5,24,18,17,34,0,0,0,0,0,0,0,0,0,0,93,0.486,0.727,0.318,15,41,17,0021500173,1610612762,UTA,Utah,Raul Neto,G,,17:41,4.0,0.0,4.0,6.0,7.0,3.0,2.0,12.0,0.0,0.0,1.0,0.0
0021500173,1610612762,UTA,Utah,203504,Trey Burke,,,18:11,87.6,108.8,-21.2,0.286,2.0,17.0,0.0,0.071,0.034,8.5,0.571,0.571,0.248,94.05,0.083,2015-11-18T00:00:00,9,UTA,Utah,6-5,24,18,17,34,0,0,0,0,0,0,0,0,0,0,93,0.486,0.727,0.318,15,41,17,0021500173,1610612762,UTA,Utah,Trey Burke,,,18:11,2.0,0.0,1.0,0.0,3.0,2.0,0.0,14.0,0.0,0.0,4.0,2.0
0021500173,1610612762,UTA,Utah,202692,Alec Burks,,,26:39,79.8,91.7,-11.9,0.182,1.0,11.8,0.038,0.04,0.039,11.8,0.458,0.505,0.243,100.75,0.095,2015-11-18T00:00:00,9,UTA,Utah,6-5,24,18,17,34,0,0,0,0,0,0,0,0,0,0,93,0.486,0.727,0.318,15,41,17,0021500173,1610612762,UTA,Utah,Alec Burks,,,26:39,0.0,2.0,4.0,6.0,11.0,8.0,4.0,26.0,1.0,0.0,3.0,1.0
0021500173,1610612762,UTA,Utah,202344,Trevor Booker,,,15:17,61.8,94.1,-32.3,0.0,0.0,0.0,0.105,0.231,0.156,0.0,0.286,0.286,0.196,100.04,0.116,2015-11-18T00:00:00,9,UTA,Utah,6-5,24,18,17,34,0,0,0,0,0,0,0,0,0,0,93,0.486,0.727,0.318,15,41,17,0021500173,1610612762,UTA,Utah,Trevor Booker,,,15:17,0.0,2.0,0.0,4.0,9.0,4.0,4.0,14.0,0.0,0.0,0.0,0.0
0021500173,1610612762,UTA,Utah,204060,Joe Ingles,,,9:29,76.6,99.6,-23.0,0.286,0.67,28.6,0.0,0.25,0.118,42.9,0.0,0.0,0.219,106.25,-0.035,2015-11-18T00:00:00,9,UTA,Utah,6-5,24,18,17,34,0,0,0,0,0,0,0,0,0,0,93,0.486,0.727,0.318,15,41,17,0021500173,1610612762,UTA,Utah,Joe Ingles,,,9:29,0.0,0.0,0.0,0.0,5.0,2.0,2.0,8.0,0.0,0.0,1.0,0.0
0021500173,1610612762,UTA,Utah,203481,Jeff Withey,,,7:52,61.1,81.9,-20.8,0.0,0.0,0.0,0.0,0.167,0.071,50.0,1.0,1.0,0.1,110.74,0.083,2015-11-18T00:00:00,9,UTA,Utah,6-5,24,18,17,34,0,0,0,0,0,0,0,0,0,0,93,0.486,0.727,0.318,15,41,17,0021500173,1610612762,UTA,Utah,Jeff Withey,,,7:52,0.0,0.0,0.0,2.0,3.0,0.0,2.0,6.0,1.0,0.0,1.0,0.0
0021500173,1610612762,UTA,Utah,203187,Chris Johnson,,,4:46,106.0,73.5,32.5,0.0,0.0,0.0,0.0,0.2,0.091,0.0,0.0,0.0,0.0,111.82,0.0,2015-11-18T00:00:00,9,UTA,Utah,6-5,24,18,17,34,0,0,0,0,0,0,0,0,0,0,93,0.486,0.727,0.318,15,41,17,0021500173,1610612762,UTA,Utah,Chris Johnson,,,4:46,0.0,0.0,0.0,0.0,4.0,2.0,2.0,4.0,0.0,0.0,1.0,0.0
0021500173,1610612762,UTA,Utah,1626168,Trey Lyles,,DNP - Coach's Decision                  ,,,,,,,0.0,,,,,,,0.0,,,2015-11-18T00:00:00,9,UTA,Utah,6-5,24,18,17,34,0,0,0,0,0,0,0,0,0,0,93,0.486,0.727,0.318,15,41,17,0021500173,1610612762,UTA,Utah,Trey Lyles,,DNP - Coach's Decision                  ,,,,,,,,,,,,,
0021500173,1610612762,UTA,Utah,202407,Elijah Millsap,,DNP - Coach's Decision                  ,,,,,,,0.0,,,,,,,0.0,,,2015-11-18T00:00:00,9,UTA,Utah,6-5,24,18,17,34,0,0,0,0,0,0,0,0,0,0,93,0.486,0.727,0.318,15,41,17,0021500173,1610612762,UTA,Utah,Elijah Millsap,,DNP - Coach's Decision                  ,,,,,,,,,,,,,
