GAME_ID_x,TEAM_ID_x,TEAM_ABBREVIATION_x,TEAM_CITY_x,PLAYER_ID,PLAYER_NAME_x,START_POSITION_x,COMMENT_x,MIN_x,OFF_RATING,DEF_RATING,NET_RATING,AST_PCT,AST_TOV,AST_RATIO,OREB_PCT,DREB_PCT,REB_PCT,TM_TOV_PCT,EFG_PCT,TS_PCT,USG_PCT,PACE,PIE,GAME_DATE_EST,GAME_SEQUENCE,TEAM_ABBREVIATION_y,TEAM_CITY_NAME,TEAM_WINS_LOSSES,PTS_QTR1,PTS_QTR2,PTS_QTR3,PTS_QTR4,PTS_OT1,PTS_OT2,PTS_OT3,PTS_OT4,PTS_OT5,PTS_OT6,PTS_OT7,PTS_OT8,PTS_OT9,PTS_OT10,PTS,FG_PCT,FT_PCT,FG3_PCT,AST,REB,TOV,GAME_ID_y,TEAM_ID_y,TEAM_ABBREVIATION,TEAM_CITY_y,PLAYER_NAME_y,START_POSITION_y,COMMENT_y,MIN_y,PTS_OFF_TOV,PTS_2ND_CHANCE,PTS_FB,PTS_PAINT,OPP_PTS_OFF_TOV,OPP_PTS_2ND_CHANCE,OPP_PTS_FB,OPP_PTS_PAINT,BLK,BLKA,PF,PFD
0021500187,1610612741,CHI,Chicago,203503,Tony Snell,F,,28:21,100.3,104.2,-3.9,0.1,0.0,22.2,0.034,0.083,0.057,0.0,0.143,0.143,0.111,93.51,-0.005,2015-11-20T00:00:00,10,CHI,Chicago,8-4,29,18,26,21,0,0,0,0,0,0,0,0,0,0,94,0.398,0.739,0.318,22,43,12,0021500187,1610612741,CHI,Chicago,Tony Snell,F,,28:21,0.0,2.0,0.0,2.0,6.0,9.0,7.0,24.0,0.0,1.0,1.0,0.0
0021500187,1610612741,CHI,Chicago,202703,Nikola Mirotic,F,,35:57,116.1,108.2,7.8,0.2,5.0,19.5,0.081,0.25,0.154,3.9,0.353,0.458,0.248,98.24,0.117,2015-11-20T00:00:00,10,CHI,Chicago,8-4,29,18,26,21,0,0,0,0,0,0,0,0,0,0,94,0.398,0.739,0.318,22,43,12,0021500187,1610612741,CHI,Chicago,Nikola Mirotic,F,,35:57,8.0,2.0,0.0,6.0,6.0,11.0,13.0,28.0,0.0,1.0,3.0,3.0
0021500187,1610612741,CHI,Chicago,2200,Pau Gasol,C,,26:40,100.9,100.9,0.0,0.313,2.5,25.2,0.074,0.333,0.196,10.1,0.5,0.543,0.246,96.35,0.18,2015-11-20T00:00:00,10,CHI,Chicago,8-4,29,18,26,21,0,0,0,0,0,0,0,0,0,0,94,0.398,0.739,0.318,22,43,12,0021500187,1610612741,CHI,Chicago,Pau Gasol,C,,26:40,0.0,2.0,0.0,6.0,6.0,5.0,9.0,24.0,1.0,0.0,3.0,3.0
0021500187,1610612741,CHI,Chicago,202710,Jimmy Butler,G,,38:50,102.6,116.9,-14.3,0.35,7.0,21.8,0.045,0.241,0.123,3.1,0.571,0.581,0.27,97.97,0.207,2015-11-20T00:00:00,10,CHI,Chicago,8-4,29,18,26,21,0,0,0,0,0,0,0,0,0,0,94,0.398,0.739,0.318,22,43,12,0021500187,1610612741,CHI,Chicago,Jimmy Butler,G,,38:50,4.0,3.0,0.0,12.0,9.0,15.0,15.0,36.0,0.0,1.0,1.0,4.0
0021500187,1610612741,CHI,Chicago,2550,Kirk Hinrich,G,,34:25,105.0,104.1,0.8,0.048,0.5,6.7,0.027,0.033,0.03,13.4,0.682,0.715,0.177,96.09,0.065,2015-11-20T00:00:00,10,CHI,Chicago,8-4,29,18,26,21,0,0,0,0,0,0,0,0,0,0,94,0.398,0.739,0.318,22,43,12,0021500187,1610612741,CHI,Chicago,Kirk Hinrich,G,,34:25,2.0,0.0,5.0,4.0,6.0,7.0,13.0,30.0,0.0,0.0,6.0,1.0
0021500187,1610612741,CHI,Chicago,201149,Joakim Noah,,,17:13,86.8,135.3,-48.5,0.0,0.0,0.0,0.227,0.182,0.212,57.1,0.0,0.0,0.169,91.89,-0.058,2015-11-20T00:00:00,10,CHI,Chicago,8-4,29,18,26,21,0,0,0,0,0,0,0,0,0,0,94,0.398,0.739,0.318,22,43,12,0021500187,1610612741,CHI,Chicago,Joakim Noah,,,17:13,0.0,0.0,0.0,0.0,6.0,10.0,5.0,16.0,0.0,1.0,2.0,0.0
0021500187,1610612741,CHI,Chicago,202734,E'Twaun Moore,,,24:16,95.7,117.4,-21.7,0.167,2.0,15.7,0.0,0.0,0.0,7.8,0.438,0.461,0.195,91.22,0.036,2015-11-20T00:00:00,10,CHI,Chicago,8-4,29,18,26,21,0,0,0,0,0,0,0,0,0,0,94,0.398,0.739,0.318,22,43,12,0021500187,1610612741,CHI,Chicago,E'Twaun Moore,,,24:16,0.0,2.0,0.0,2.0,6.0,10.0,9.0,18.0,0.0,0.0,2.0,2.0
0021500187,1610612741,CHI,Chicago,201959,Taj Gibson,,,16:10,66.5,116.6,-50.1,0.0,0.0,0.0,0.05,0.0,0.029,17.0,0.25,0.307,0.168,87.92,-0.025,2015-11-20T00:00:00,10,CHI,Chicago,8-4,29,18,26,21,0,0,0,0,0,0,0,0,0,0,94,0.398,0.739,0.318,22,43,12,0021500187,1610612741,CHI,Chicago,Taj Gibson,,,16:10,0.0,0.0,0.0,2.0,6.0,4.0,13.0,12.0,1.0,1.0,1.0,2.0
0021500187,1610612741,CHI,Chicago,203926,Doug McDermott,,,18:09,80.6,123.0,-42.3,0.0,0.0,0.0,0.0,0.063,0.028,0.0,0.3,0.3,0.122,92.7,0.0,2015-11-20T00:00:00,10,CHI,Chicago,8-4,29,18,26,21,0,0,0,0,0,0,0,0,0,0,94,0.398,0.739,0.318,22,43,12,0021500187,1610612741,CHI,Chicago,Doug McDermott,,,18:09,3.0,0.0,3.0,0.0,9.0,4.0,16.0,12.0,0.0,1.0,0.0,0.0
0021500187,1610612741,CHI,Chicago,203946,Cameron Bairstow,,DNP - Coach's Decision                  ,,,,,,,0.0,,,,,,,0.0,,,2015-11-20T00:00:00,10,CHI,Chicago,8-4,29,18,26,21,0,0,0,0,0,0,0,0,0,0,94,0.398,0.739,0.318,22,43,12,0021500187,1610612741,CHI,Chicago,Cameron Bairstow,,DNP - Coach's Decision                  ,,,,,,,,,,,,,
0021500187,1610612741,CHI,Chicago,201166,Aaron Brooks,,DND - Left Hamstring                    ,,,,,,,0.0,,,,,,,0.0,,,2015-11-20T00:00:00,10,CHI,Chicago,8-4,29,18,26,21,0,0,0,0,0,0,0,0,0,0,94,0.398,0.739,0.318,22,43,12,0021500187,1610612741,CHI,Chicago,Aaron Brooks,,DND - Left Hamstring                    ,,,,,,,,,,,,,
0021500187,1610612741,CHI,Chicago,1626245,Cristiano Felicio,,DNP - Coach's Decision                  ,,,,,,,0.0,,,,,,,0.0,,,2015-11-20T00:00:00,10,CHI,Chicago,8-4,29,18,26,21,0,0,0,0,0,0,0,0,0,0,94,0.398,0.739,0.318,22,43,12,0021500187,1610612741,CHI,Chicago,Cristiano Felicio,,DNP - Coach's Decision                  ,,,,,,,,,,,,,
0021500187,1610612741,CHI,Chicago,1626171,Bobby Portis,,DNP - Coach's Decision                  ,,,,,,,0.0,,,,,,,0.0,,,2015-11-20T00:00:00,10,CHI,Chicago,8-4,29,18,26,21,0,0,0,0,0,0,0,0,0,0,94,0.398,0.739,0.318,22,43,12,0021500187,1610612741,CHI,Chicago,Bobby Portis,,DNP - Coach's Decision                  ,,,,,,,,,,,,,
0021500187,1610612744,GSW,Golden State,203084,Harrison Barnes,F,,31:49,111.1,100.9,10.1,0.056,1.0,6.0,0.042,0.229,0.153,6.0,0.654,0.678,0.229,96.79,0.185,2015-11-20T00:00:00,10,GSW,Golden State,14-0,28,22,27,29,0,0,0,0,0,0,0,0,0,0,106,0.494,0.75,0.345,20,49,15,0021500187,1610612744,GSW,Golden State,Harrison Barnes,F,,31:49,3.0,0.0,0.0,0.0,9.0,9.0,2.0,26.0,0.0,1.0,0.0,2.0
0021500187,1610612744,GSW,Golden State,203110,Draymond Green,F,,35:08,115.4,106.4,9.0,0.185,1.67,28.2,0.037,0.211,0.138,16.9,0.375,0.461,0.158,97.88,0.099,2015-11-20T00:00:00,10,GSW,Golden State,14-0,28,22,27,29,0,0,0,0,0,0,0,0,0,0,106,0.494,0.75,0.345,20,49,15,0021500187,1610612744,GSW,Golden State,Draymond Green,F,,35:08,0.0,2.0,2.0,6.0,11.0,11.0,5.0,30.0,0.0,0.0,0.0,4.0
0021500187,1610612744,GSW,Golden State,101106,Andrew Bogut,C,,18:23,85.7,129.8,-44.1,0.167,2.0,34.0,0.118,0.105,0.111,17.0,0.5,0.521,0.096,100.58,0.044,2015-11-20T00:00:00,10,GSW,Golden State,14-0,28,22,27,29,0,0,0,0,0,0,0,0,0,0,106,0.494,0.75,0.345,20,49,15,0021500187,1610612744,GSW,Golden State,Andrew Bogut,C,,18:23,0.0,2.0,0.0,2.0,9.0,9.0,2.0,22.0,3.0,0.0,4.0,1.0
0021500187,1610612744,GSW,Golden State,202691,Klay Thompson,G,,36:01,114.0,104.0,10.0,0.13,3.0,17.8,0.037,0.048,0.043,5.9,0.583,0.582,0.172,99.02,0.071,2015-11-20T00:00:00,10,GSW,Golden State,14-0,28,22,27,29,0,0,0,0,0,0,0,0,0,0,106,0.494,0.75,0.345,20,49,15,0021500187,1610612744,GSW,Golden State,Klay Thompson,G,,36:01,0.0,3.0,2.0,4.0,14.0,11.0,5.0,28.0,1.0,0.0,3.0,2.0
0021500187,1610612744,GSW,Golden State,201939,Stephen Curry,G,,36:05,116.8,101.9,14.8,0.182,0.67,12.3,0.034,0.098,0.071,18.4,0.525,0.596,0.354,96.71,0.149,2015-11-20T00:00:00,10,GSW,Golden State,14-0,28,22,27,29,0,0,0,0,0,0,0,0,0,0,106,0.494,0.75,0.345,20,49,15,0021500187,1610612744,GSW,Golden State,Stephen Curry,G,,36:05,2.0,3.0,6.0,10.0,11.0,11.0,5.0,28.0,0.0,0.0,2.0,7.0
0021500187,1610612744,GSW,Golden State,2738,Andre Iguodala,,,28:36,129.8,79.9,49.8,0.048,1.0,8.4,0.0,0.147,0.088,8.4,0.611,0.607,0.177,90.16,0.121,2015-11-20T00:00:00,10,GSW,Golden State,14-0,28,22,27,29,0,0,0,0,0,0,0,0,0,0,106,0.494,0.75,0.345,20,49,15,0021500187,1610612744,GSW,Golden State,Andre Iguodala,,,28:36,2.0,2.0,3.0,6.0,13.0,2.0,6.0,12.0,0.0,0.0,1.0,1.0
0021500187,1610612744,GSW,Golden State,203105,Festus Ezeli,,,23:23,115.2,82.3,32.8,0.063,0.0,17.0,0.25,0.16,0.2,0.0,0.75,0.717,0.093,90.32,0.148,2015-11-20T00:00:00,10,GSW,Golden State,14-0,28,22,27,29,0,0,0,0,0,0,0,0,0,0,106,0.494,0.75,0.345,20,49,15,0021500187,1610612744,GSW,Golden State,Festus Ezeli,,,23:23,2.0,3.0,0.0,6.0,6.0,2.0,6.0,12.0,2.0,0.0,3.0,1.0
0021500187,1610612744,GSW,Golden State,2733,Shaun Livingston,,,12:27,101.1,77.4,23.7,0.167,1.0,20.0,0.0,0.231,0.125,20.0,1.0,1.0,0.149,84.28,0.262,2015-11-20T00:00:00,10,GSW,Golden State,14-0,28,22,27,29,0,0,0,0,0,0,0,0,0,0,106,0.494,0.75,0.345,20,49,15,0021500187,1610612744,GSW,Golden State,Shaun Livingston,,,12:27,0.0,0.0,2.0,4.0,3.0,0.0,3.0,6.0,0.0,0.0,1.0,0.0
0021500187,1610612744,GSW,Golden State,2571,Leandro Barbosa,,,8:47,86.7,85.5,1.1,0.2,0.0,12.5,0.0,0.0,0.0,0.0,0.214,0.214,0.389,82.52,-0.077,2015-11-20T00:00:00,10,GSW,Golden State,14-0,28,22,27,29,0,0,0,0,0,0,0,0,0,0,106,0.494,0.75,0.345,20,49,15,0021500187,1610612744,GSW,Golden State,Leandro Barbosa,,,8:47,3.0,0.0,3.0,0.0,3.0,0.0,3.0,2.0,0.0,1.0,0.0,0.0
0021500187,1610612744,GSW,Golden State,203546,Ian Clark,,,2:40,140.0,108.7,31.3,0.333,0.0,100.0,0.0,0.5,0.333,0.0,0.0,0.0,0.0,102.96,0.059,2015-11-20T00:00:00,10,GSW,Golden State,14-0,28,22,27,29,0,0,0,0,0,0,0,0,0,0,106,0.494,0.75,0.345,20,49,15,0021500187,1610612744,GSW,Golden State,Ian Clark,,,2:40,0.0,0.0,0.0,0.0,3.0,0.0,0.0,4.0,0.0,0.0,1.0,0.0
0021500187,1610612744,GSW,Golden State,203949,James Michael McAdoo,,,6:41,93.5,90.9,2.6,0.0,0.0,0.0,0.0,0.125,0.071,34.7,1.0,1.064,0.226,89.63,0.205,2015-11-20T00:00:00,10,GSW,Golden State,14-0,28,22,27,29,0,0,0,0,0,0,0,0,0,0,106,0.494,0.75,0.345,20,49,15,0021500187,1610612744,GSW,Golden State,James Michael McAdoo,,,6:41,0.0,0.0,2.0,2.0,3.0,0.0,3.0,0.0,0.0,0.0,0.0,1.0
0021500187,1610612744,GSW,Golden State,201578,Marreese Speights,,DNP - Coach's Decision                  ,,,,,,,0.0,,,,,,,0.0,,,2015-11-20T00:00:00,10,GSW,Golden State,14-0,28,22,27,29,0,0,0,0,0,0,0,0,0,0,106,0.494,0.75,0.345,20,49,15,0021500187,1610612744,GSW,Golden State,Marreese Speights,,DNP - Coach's Decision                  ,,,,,,,,,,,,,
0021500187,1610612744,GSW,Golden State,201574,Jason Thompson,,DNP - Coach's Decision                  ,,,,,,,0.0,,,,,,,0.0,,,2015-11-20T00:00:00,10,GSW,Golden State,14-0,28,22,27,29,0,0,0,0,0,0,0,0,0,0,106,0.494,0.75,0.345,20,49,15,0021500187,1610612744,GSW,Golden State,Jason Thompson,,DNP - Coach's Decision                  ,,,,,,,,,,,,,
