GAME_ID_x,TEAM_ID_x,TEAM_ABBREVIATION_x,TEAM_CITY_x,PLAYER_ID,PLAYER_NAME_x,START_POSITION_x,COMMENT_x,MIN_x,OFF_RATING,DEF_RATING,NET_RATING,AST_PCT,AST_TOV,AST_RATIO,OREB_PCT,DREB_PCT,REB_PCT,TM_TOV_PCT,EFG_PCT,TS_PCT,USG_PCT,PACE,PIE,GAME_DATE_EST,GAME_SEQUENCE,TEAM_ABBREVIATION_y,TEAM_CITY_NAME,TEAM_WINS_LOSSES,PTS_QTR1,PTS_QTR2,PTS_QTR3,PTS_QTR4,PTS_OT1,PTS_OT2,PTS_OT3,PTS_OT4,PTS_OT5,PTS_OT6,PTS_OT7,PTS_OT8,PTS_OT9,PTS_OT10,PTS,FG_PCT,FT_PCT,FG3_PCT,AST,REB,TOV,GAME_ID_y,TEAM_ID_y,TEAM_ABBREVIATION,TEAM_CITY_y,PLAYER_NAME_y,START_POSITION_y,COMMENT_y,MIN_y,PTS_OFF_TOV,PTS_2ND_CHANCE,PTS_FB,PTS_PAINT,OPP_PTS_OFF_TOV,OPP_PTS_2ND_CHANCE,OPP_PTS_FB,OPP_PTS_PAINT,BLK,BLKA,PF,PFD
0021500179,1610612751,BKN,Brooklyn,2207,Joe Johnson,F,,18:19,75.9,126.0,-50.1,0.111,0.0,16.7,0.0,0.125,0.065,0.0,0.3,0.3,0.118,102.71,0.025,2015-11-20T00:00:00,2,BKN,Brooklyn,2-11,19,23,25,28,0,0,0,0,0,0,0,0,0,0,95,0.393,0.708,0.421,17,44,19,0021500179,1610612751,BKN,Brooklyn,Joe Johnson,F,,18:19,0.0,0.0,0.0,0.0,14.0,0.0,15.0,30.0,0.0,0.0,0.0,0.0
0021500179,1610612751,BKN,Brooklyn,201152,Thaddeus Young,F,,28:48,81.6,118.7,-37.1,0.091,0.0,5.3,0.074,0.32,0.192,0.0,0.412,0.391,0.25,102.6,0.115,2015-11-20T00:00:00,2,BKN,Brooklyn,2-11,19,23,25,28,0,0,0,0,0,0,0,0,0,0,95,0.393,0.708,0.421,17,44,19,0021500179,1610612751,BKN,Brooklyn,Thaddeus Young,F,,28:48,6.0,2.0,4.0,14.0,21.0,0.0,18.0,34.0,0.0,1.0,1.0,1.0
0021500179,1610612751,BKN,Brooklyn,201572,Brook Lopez,C,,26:54,94.8,123.6,-28.8,0.133,1.0,13.6,0.115,0.174,0.143,13.6,0.556,0.651,0.193,102.32,0.118,2015-11-20T00:00:00,2,BKN,Brooklyn,2-11,19,23,25,28,0,0,0,0,0,0,0,0,0,0,95,0.393,0.708,0.421,17,44,19,0021500179,1610612751,BKN,Brooklyn,Brook Lopez,C,,26:54,0.0,4.0,0.0,8.0,15.0,2.0,14.0,38.0,0.0,0.0,1.0,5.0
0021500179,1610612751,BKN,Brooklyn,1626178,Rondae Hollis-Jefferson,G,,31:23,86.0,111.6,-25.6,0.125,0.4,9.8,0.118,0.241,0.175,24.6,0.458,0.488,0.224,104.77,0.098,2015-11-20T00:00:00,2,BKN,Brooklyn,2-11,19,23,25,28,0,0,0,0,0,0,0,0,0,0,95,0.393,0.708,0.421,17,44,19,0021500179,1610612751,BKN,Brooklyn,Rondae Hollis-Jefferson,G,,31:23,3.0,2.0,0.0,6.0,16.0,4.0,17.0,42.0,0.0,0.0,2.0,3.0
0021500179,1610612751,BKN,Brooklyn,101127,Jarrett Jack,G,,23:57,83.7,114.0,-30.3,0.417,0.71,23.0,0.0,0.091,0.044,32.2,0.438,0.564,0.277,104.59,0.051,2015-11-20T00:00:00,2,BKN,Brooklyn,2-11,19,23,25,28,0,0,0,0,0,0,0,0,0,0,95,0.393,0.708,0.421,17,44,19,0021500179,1610612751,BKN,Brooklyn,Jarrett Jack,G,,23:57,0.0,2.0,2.0,2.0,16.0,0.0,15.0,34.0,0.0,0.0,1.0,2.0
0021500179,1610612751,BKN,Brooklyn,203080,Thomas Robinson,,,16:58,73.5,118.0,-44.4,0.0,0.0,0.0,0.158,0.273,0.2,0.0,0.286,0.342,0.199,103.03,0.027,2015-11-20T00:00:00,2,BKN,Brooklyn,2-11,19,23,25,28,0,0,0,0,0,0,0,0,0,0,95,0.393,0.708,0.421,17,44,19,0021500179,1610612751,BKN,Brooklyn,Thomas Robinson,,,16:58,2.0,2.0,2.0,4.0,4.0,4.0,6.0,24.0,0.0,1.0,2.0,2.0
0021500179,1610612751,BKN,Brooklyn,203499,Shane Larkin,,,29:41,98.4,115.4,-17.0,0.143,1.5,21.6,0.03,0.095,0.056,14.4,0.563,0.563,0.141,103.15,0.105,2015-11-20T00:00:00,2,BKN,Brooklyn,2-11,19,23,25,28,0,0,0,0,0,0,0,0,0,0,95,0.393,0.708,0.421,17,44,19,0021500179,1610612751,BKN,Brooklyn,Shane Larkin,,,29:41,4.0,0.0,0.0,2.0,7.0,6.0,5.0,38.0,0.0,0.0,0.0,1.0
0021500179,1610612751,BKN,Brooklyn,203508,Sergey Karasev,,,24:03,96.3,125.4,-29.1,0.056,1.0,16.7,0.0,0.0,0.0,16.7,0.625,0.625,0.085,101.38,0.01,2015-11-20T00:00:00,2,BKN,Brooklyn,2-11,19,23,25,28,0,0,0,0,0,0,0,0,0,0,95,0.393,0.708,0.421,17,44,19,0021500179,1610612751,BKN,Brooklyn,Sergey Karasev,,,24:03,0.0,0.0,0.0,0.0,5.0,6.0,5.0,34.0,0.0,0.0,3.0,1.0
0021500179,1610612751,BKN,Brooklyn,202711,Bojan Bogdanovic,,,16:37,97.9,135.5,-37.7,0.0,0.0,0.0,0.0,0.125,0.045,20.2,0.571,0.571,0.262,99.59,0.026,2015-11-20T00:00:00,2,BKN,Brooklyn,2-11,19,23,25,28,0,0,0,0,0,0,0,0,0,0,95,0.393,0.708,0.421,17,44,19,0021500179,1610612751,BKN,Brooklyn,Bojan Bogdanovic,,,16:37,0.0,0.0,0.0,0.0,5.0,2.0,3.0,26.0,0.0,1.0,1.0,2.0
0021500179,1610612751,BKN,Brooklyn,200745,Andrea Bargnani,,,14:42,105.2,119.4,-14.2,0.091,0.0,10.6,0.077,0.111,0.091,0.0,0.25,0.296,0.246,100.64,0.007,2015-11-20T00:00:00,2,BKN,Brooklyn,2-11,19,23,25,28,0,0,0,0,0,0,0,0,0,0,95,0.393,0.708,0.421,17,44,19,0021500179,1610612751,BKN,Brooklyn,Andrea Bargnani,,,14:42,0.0,2.0,0.0,4.0,2.0,2.0,0.0,24.0,0.0,0.0,1.0,1.0
0021500179,1610612751,BKN,Brooklyn,201961,Wayne Ellington,,,3:07,114.3,114.3,0.0,0.0,0.0,0.0,0.0,0.0,0.0,0.0,1.5,1.5,0.143,107.81,0.188,2015-11-20T00:00:00,2,BKN,Brooklyn,2-11,19,23,25,28,0,0,0,0,0,0,0,0,0,0,95,0.393,0.708,0.421,17,44,19,0021500179,1610612751,BKN,Brooklyn,Wayne Ellington,,,3:07,0.0,0.0,0.0,0.0,0.0,0.0,0.0,8.0,0.0,0.0,0.0,0.0
0021500179,1610612751,BKN,Brooklyn,203900,Markel Brown,,,5:31,106.1,112.5,-6.5,0.2,0.0,20.5,0.0,0.0,0.0,0.0,0.0,0.258,0.24,111.55,-0.042,2015-11-20T00:00:00,2,BKN,Brooklyn,2-11,19,23,25,28,0,0,0,0,0,0,0,0,0,0,95,0.393,0.708,0.421,17,44,19,0021500179,1610612751,BKN,Brooklyn,Markel Brown,,,5:31,2.0,0.0,0.0,0.0,0.0,4.0,2.0,8.0,0.0,1.0,1.0,1.0
0021500179,1610612751,BKN,Brooklyn,202388,Donald Sloan,,DNP - Coach's Decision                  ,,,,,,,0.0,,,,,,,0.0,,,2015-11-20T00:00:00,2,BKN,Brooklyn,2-11,19,23,25,28,0,0,0,0,0,0,0,0,0,0,95,0.393,0.708,0.421,17,44,19,0021500179,1610612751,BKN,Brooklyn,Donald Sloan,,DNP - Coach's Decision                  ,,,,,,,,,,,,,
0021500179,1610612738,BOS,Boston,203109,Jae Crowder,F,,28:14,119.1,83.0,36.2,0.095,2.0,13.3,0.08,0.111,0.096,6.7,0.792,0.792,0.207,102.22,0.194,2015-11-20T00:00:00,2,BOS,Boston,7-5,23,43,25,29,0,0,0,0,0,0,0,0,0,0,120,0.586,0.8,0.345,39,41,16,0021500179,1610612738,BOS,Boston,Jae Crowder,F,,28:14,8.0,0.0,9.0,10.0,7.0,6.0,6.0,24.0,0.0,0.0,1.0,0.0
0021500179,1610612738,BOS,Boston,101161,Amir Johnson,F,,20:28,121.1,81.3,39.8,0.222,4.0,36.4,0.0,0.105,0.051,9.1,0.667,0.667,0.153,103.22,0.128,2015-11-20T00:00:00,2,BOS,Boston,7-5,23,43,25,29,0,0,0,0,0,0,0,0,0,0,120,0.586,0.8,0.345,39,41,16,0021500179,1610612738,BOS,Boston,Amir Johnson,F,,20:28,0.0,0.0,2.0,8.0,3.0,6.0,4.0,16.0,2.0,0.0,1.0,1.0
0021500179,1610612738,BOS,Boston,203096,Jared Sullinger,C,,19:16,135.8,77.8,58.0,0.167,0.0,30.4,0.0,0.25,0.129,0.0,0.5,0.581,0.169,102.34,0.144,2015-11-20T00:00:00,2,BOS,Boston,7-5,23,43,25,29,0,0,0,0,0,0,0,0,0,0,120,0.586,0.8,0.345,39,41,16,0021500179,1610612738,BOS,Boston,Jared Sullinger,C,,19:16,2.0,0.0,0.0,4.0,2.0,4.0,6.0,12.0,0.0,0.0,1.0,1.0
0021500179,1610612738,BOS,Boston,203935,Marcus Smart,G,,21:04,111.9,94.9,17.0,0.222,2.0,33.7,0.0,0.118,0.057,16.8,0.5,0.595,0.176,102.87,0.045,2015-11-20T00:00:00,2,BOS,Boston,7-5,23,43,25,29,0,0,0,0,0,0,0,0,0,0,120,0.586,0.8,0.345,39,41,16,0021500179,1610612738,BOS,Boston,Marcus Smart,G,,21:04,0.0,0.0,0.0,2.0,4.0,4.0,8.0,16.0,0.0,0.0,5.0,2.0
0021500179,1610612738,BOS,Boston,202738,Isaiah Thomas,G,,27:51,124.2,79.6,44.6,0.36,3.0,32.8,0.0,0.042,0.021,10.9,0.6,0.583,0.292,104.69,0.139,2015-11-20T00:00:00,2,BOS,Boston,7-5,23,43,25,29,0,0,0,0,0,0,0,0,0,0,120,0.586,0.8,0.345,39,41,16,0021500179,1610612738,BOS,Boston,Isaiah Thomas,G,,27:51,3.0,2.0,3.0,6.0,3.0,4.0,6.0,16.0,0.0,0.0,0.0,2.0
0021500179,1610612738,BOS,Boston,202340,Avery Bradley,,,25:14,127.3,84.2,43.1,0.0,0.0,0.0,0.0,0.111,0.07,0.0,0.808,0.808,0.24,101.69,0.229,2015-11-20T00:00:00,2,BOS,Boston,7-5,23,43,25,29,0,0,0,0,0,0,0,0,0,0,120,0.586,0.8,0.345,39,41,16,0021500179,1610612738,BOS,Boston,Avery Bradley,,,25:14,4.0,0.0,4.0,10.0,7.0,10.0,2.0,20.0,0.0,0.0,0.0,0.0
0021500179,1610612738,BOS,Boston,203482,Kelly Olynyk,,,20:49,110.9,96.9,13.9,0.25,1.67,38.5,0.125,0.32,0.244,23.1,0.4,0.4,0.163,103.3,0.065,2015-11-20T00:00:00,2,BOS,Boston,7-5,23,43,25,29,0,0,0,0,0,0,0,0,0,0,120,0.586,0.8,0.345,39,41,16,0021500179,1610612738,BOS,Boston,Kelly Olynyk,,,20:49,2.0,0.0,0.0,4.0,11.0,6.0,0.0,24.0,0.0,0.0,6.0,1.0
0021500179,1610612738,BOS,Boston,201973,Jonas Jerebko,,,18:51,119.0,90.3,28.7,0.05,1.0,18.4,0.083,0.05,0.063,18.4,0.0,0.145,0.104,102.76,-0.007,2015-11-20T00:00:00,2,BOS,Boston,7-5,23,43,25,29,0,0,0,0,0,0,0,0,0,0,120,0.586,0.8,0.345,39,41,16,0021500179,1610612738,BOS,Boston,Jonas Jerebko,,,18:51,0.0,0.0,0.0,0.0,12.0,6.0,2.0,18.0,0.0,0.0,1.0,2.0
0021500179,1610612738,BOS,Boston,202323,Evan Turner,,,25:37,110.2,101.3,8.9,0.333,3.5,41.5,0.053,0.133,0.102,11.8,0.714,0.761,0.168,102.05,0.196,2015-11-20T00:00:00,2,BOS,Boston,7-5,23,43,25,29,0,0,0,0,0,0,0,0,0,0,120,0.586,0.8,0.345,39,41,16,0021500179,1610612738,BOS,Boston,Evan Turner,,,25:37,2.0,0.0,2.0,8.0,14.0,10.0,2.0,24.0,1.0,0.0,0.0,3.0
0021500179,1610612738,BOS,Boston,101135,David Lee,,,16:57,131.3,100.1,31.1,0.231,1.0,25.3,0.0,0.2,0.125,25.3,1.0,0.935,0.255,98.72,0.155,2015-11-20T00:00:00,2,BOS,Boston,7-5,23,43,25,29,0,0,0,0,0,0,0,0,0,0,120,0.586,0.8,0.345,39,41,16,0021500179,1610612738,BOS,Boston,David Lee,,,16:57,0.0,0.0,0.0,10.0,6.0,6.0,4.0,14.0,1.0,0.0,3.0,1.0
0021500179,1610612738,BOS,Boston,203092,Tyler Zeller,,,9:26,109.7,103.8,5.9,0.125,0.0,16.7,0.143,0.25,0.211,0.0,0.6,0.6,0.209,109.6,0.213,2015-11-20T00:00:00,2,BOS,Boston,7-5,23,43,25,29,0,0,0,0,0,0,0,0,0,0,120,0.586,0.8,0.345,39,41,16,0021500179,1610612738,BOS,Boston,Tyler Zeller,,,9:26,0.0,4.0,0.0,6.0,8.0,4.0,0.0,8.0,0.0,0.0,0.0,0.0
0021500179,1610612738,BOS,Boston,1626154,RJ Hunter,,,6:13,97.0,119.7,-22.8,0.0,0.0,0.0,0.0,0.0,0.0,0.0,0.5,0.5,0.304,110.57,0.038,2015-11-20T00:00:00,2,BOS,Boston,7-5,23,43,25,29,0,0,0,0,0,0,0,0,0,0,120,0.586,0.8,0.345,39,41,16,0021500179,1610612738,BOS,Boston,RJ Hunter,,,6:13,0.0,0.0,0.0,0.0,8.0,4.0,0.0,8.0,0.0,0.0,1.0,0.0
