GAME_ID_x,TEAM_ID_x,TEAM_ABBREVIATION_x,TEAM_CITY_x,PLAYER_ID,PLAYER_NAME_x,START_POSITION_x,COMMENT_x,MIN_x,OFF_RATING,DEF_RATING,NET_RATING,AST_PCT,AST_TOV,AST_RATIO,OREB_PCT,DREB_PCT,REB_PCT,TM_TOV_PCT,EFG_PCT,TS_PCT,USG_PCT,PACE,PIE,GAME_DATE_EST,GAME_SEQUENCE,TEAM_ABBREVIATION_y,TEAM_CITY_NAME,TEAM_WINS_LOSSES,PTS_QTR1,PTS_QTR2,PTS_QTR3,PTS_QTR4,PTS_OT1,PTS_OT2,PTS_OT3,PTS_OT4,PTS_OT5,PTS_OT6,PTS_OT7,PTS_OT8,PTS_OT9,PTS_OT10,PTS,FG_PCT,FT_PCT,FG3_PCT,AST,REB,TOV,GAME_ID_y,TEAM_ID_y,TEAM_ABBREVIATION,TEAM_CITY_y,PLAYER_NAME_y,START_POSITION_y,COMMENT_y,MIN_y,PTS_OFF_TOV,PTS_2ND_CHANCE,PTS_FB,PTS_PAINT,OPP_PTS_OFF_TOV,OPP_PTS_2ND_CHANCE,OPP_PTS_FB,OPP_PTS_PAINT,BLK,BLKA,PF,PFD
0021500204,1610612752,NYK,New York,2546,Carmelo Anthony,F,,41:21,89.7,101.0,-11.3,0.211,1.0,14.3,0.043,0.133,0.087,14.3,0.375,0.526,0.254,91.96,0.209,2015-11-23T00:00:00,3,NYK,New York,8-7,19,11,26,22,0,0,0,0,0,0,0,0,0,0,78,0.322,0.857,0.167,12,49,11,0021500204,1610612752,NYK,New York,Carmelo Anthony,F,,41:21,2.0,2.0,0.0,2.0,12.0,14.0,4.0,34.0,1.0,0.0,0.0,6.0
0021500204,1610612752,NYK,New York,204001,Kristaps Porzingis,F,,37:26,86.0,104.6,-18.6,0.059,1.0,4.7,0.025,0.325,0.175,4.7,0.472,0.518,0.235,93.22,0.185,2015-11-23T00:00:00,3,NYK,New York,8-7,19,11,26,22,0,0,0,0,0,0,0,0,0,0,78,0.322,0.857,0.167,12,49,11,0021500204,1610612752,NYK,New York,Kristaps Porzingis,F,,37:26,0.0,5.0,0.0,6.0,10.0,11.0,4.0,30.0,2.0,2.0,4.0,3.0
0021500204,1610612752,NYK,New York,201577,Robin Lopez,C,,29:30,93.3,96.9,-3.6,0.071,0.5,6.0,0.222,0.061,0.133,11.9,0.417,0.436,0.251,90.66,0.062,2015-11-23T00:00:00,3,NYK,New York,8-7,19,11,26,22,0,0,0,0,0,0,0,0,0,0,78,0.322,0.857,0.167,12,49,11,0021500204,1610612752,NYK,New York,Robin Lopez,C,,29:30,1.0,6.0,0.0,10.0,12.0,12.0,2.0,28.0,0.0,2.0,2.0,3.0
0021500204,1610612752,NYK,New York,201167,Arron Afflalo,G,,32:52,91.2,107.5,-16.4,0.167,1.5,18.9,0.061,0.031,0.046,12.6,0.45,0.506,0.175,93.44,0.052,2015-11-23T00:00:00,3,NYK,New York,8-7,19,11,26,22,0,0,0,0,0,0,0,0,0,0,78,0.322,0.857,0.167,12,49,11,0021500204,1610612752,NYK,New York,Arron Afflalo,G,,32:52,0.0,0.0,2.0,2.0,10.0,10.0,4.0,28.0,0.0,2.0,3.0,2.0
0021500204,1610612752,NYK,New York,101181,Jose Calderon,G,,31:36,92.8,100.9,-8.1,0.105,0.0,33.3,0.0,0.094,0.048,0.0,0.5,0.5,0.055,93.48,0.076,2015-11-23T00:00:00,3,NYK,New York,8-7,19,11,26,22,0,0,0,0,0,0,0,0,0,0,78,0.322,0.857,0.167,12,49,11,0021500204,1610612752,NYK,New York,Jose Calderon,G,,31:36,2.0,2.0,0.0,0.0,12.0,9.0,2.0,28.0,0.0,0.0,1.0,2.0
0021500204,1610612752,NYK,New York,202498,Lance Thomas,,,5:17,22.2,119.8,-97.6,0.0,0.0,0.0,0.0,0.143,0.077,0.0,0.0,0.0,0.444,97.76,-0.455,2015-11-23T00:00:00,3,NYK,New York,8-7,19,11,26,22,0,0,0,0,0,0,0,0,0,0,78,0.322,0.857,0.167,12,49,11,0021500204,1610612752,NYK,New York,Lance Thomas,,,5:17,0.0,0.0,0.0,0.0,4.0,5.0,2.0,8.0,0.0,0.0,2.0,0.0
0021500204,1610612752,NYK,New York,204038,Langston Galloway,,,23:27,58.9,111.4,-52.5,0.111,0.0,10.0,0.029,0.12,0.068,0.0,0.111,0.111,0.159,94.57,-0.087,2015-11-23T00:00:00,3,NYK,New York,8-7,19,11,26,22,0,0,0,0,0,0,0,0,0,0,78,0.322,0.857,0.167,12,49,11,0021500204,1610612752,NYK,New York,Langston Galloway,,,23:27,0.0,0.0,0.0,0.0,4.0,9.0,4.0,16.0,0.0,1.0,4.0,0.0
0021500204,1610612752,NYK,New York,2756,Sasha Vujacic,,,3:01,0.0,150.6,-150.6,0.0,0.0,0.0,0.0,0.2,0.111,0.0,0.0,0.0,0.0,100.56,0.0,2015-11-23T00:00:00,3,NYK,New York,8-7,19,11,26,22,0,0,0,0,0,0,0,0,0,0,78,0.322,0.857,0.167,12,49,11,0021500204,1610612752,NYK,New York,Sasha Vujacic,,,3:01,0.0,0.0,0.0,0.0,2.0,4.0,2.0,4.0,0.0,0.0,1.0,0.0
0021500204,1610612752,NYK,New York,203124,Kyle O'Quinn,,,4:15,25.0,125.6,-100.6,0.0,0.0,0.0,0.0,0.4,0.182,66.7,0.0,0.0,0.333,94.64,-0.12,2015-11-23T00:00:00,3,NYK,New York,8-7,19,11,26,22,0,0,0,0,0,0,0,0,0,0,78,0.322,0.857,0.167,12,49,11,0021500204,1610612752,NYK,New York,Kyle O'Quinn,,,4:15,0.0,0.0,0.0,0.0,2.0,2.0,2.0,4.0,1.0,0.0,1.0,0.0
0021500204,1610612752,NYK,New York,202682,Derrick Williams,,,4:15,25.0,125.6,-100.6,0.0,0.0,0.0,0.0,0.2,0.091,0.0,0.0,0.0,0.0,94.64,0.08,2015-11-23T00:00:00,3,NYK,New York,8-7,19,11,26,22,0,0,0,0,0,0,0,0,0,0,78,0.322,0.857,0.167,12,49,11,0021500204,1610612752,NYK,New York,Derrick Williams,,,4:15,0.0,0.0,0.0,0.0,2.0,2.0,2.0,4.0,0.0,0.0,0.0,0.0
0021500204,1610612752,NYK,New York,1626170,Jerian Grant,,,11:45,75.1,105.6,-30.5,0.0,0.0,0.0,0.053,0.0,0.033,0.0,0.0,0.0,0.14,88.81,-0.173,2015-11-23T00:00:00,3,NYK,New York,8-7,19,11,26,22,0,0,0,0,0,0,0,0,0,0,78,0.322,0.857,0.167,12,49,11,0021500204,1610612752,NYK,New York,Jerian Grant,,,11:45,0.0,0.0,0.0,0.0,0.0,2.0,2.0,4.0,0.0,0.0,1.0,0.0
0021500204,1610612752,NYK,New York,200811,Lou Amundson,,,9:58,102.3,89.1,13.3,0.0,0.0,0.0,0.077,0.143,0.1,0.0,0.4,0.475,0.258,89.96,0.064,2015-11-23T00:00:00,3,NYK,New York,8-7,19,11,26,22,0,0,0,0,0,0,0,0,0,0,78,0.322,0.857,0.167,12,49,11,0021500204,1610612752,NYK,New York,Lou Amundson,,,9:58,2.0,0.0,0.0,4.0,0.0,0.0,0.0,2.0,0.0,0.0,2.0,3.0
0021500204,1610612752,NYK,New York,202338,Kevin Seraphin,,,5:17,114.1,82.2,31.9,0.0,0.0,0.0,0.111,0.0,0.083,0.0,0.25,0.25,0.293,82.49,-0.417,2015-11-23T00:00:00,3,NYK,New York,8-7,19,11,26,22,0,0,0,0,0,0,0,0,0,0,78,0.322,0.857,0.167,12,49,11,0021500204,1610612752,NYK,New York,Kevin Seraphin,,,5:17,2.0,2.0,0.0,2.0,0.0,0.0,0.0,0.0,0.0,0.0,2.0,0.0
0021500204,1610612748,MIA,Miami,2736,Luol Deng,F,,31:08,94.7,97.4,-2.7,0.0,0.0,0.0,0.029,0.067,0.047,10.0,0.5,0.5,0.145,92.32,0.06,2015-11-23T00:00:00,3,MIA,Miami,9-4,26,26,21,22,0,0,0,0,0,0,0,0,0,0,95,0.383,0.778,0.263,18,56,9,0021500204,1610612748,MIA,Miami,Luol Deng,F,,31:08,4.0,2.0,0.0,6.0,3.0,11.0,2.0,16.0,0.0,0.0,1.0,0.0
0021500204,1610612748,MIA,Miami,2547,Chris Bosh,F,,29:03,99.2,86.4,12.8,0.071,1.0,5.2,0.029,0.139,0.086,5.2,0.208,0.463,0.275,96.34,0.131,2015-11-23T00:00:00,3,MIA,Miami,9-4,26,26,21,22,0,0,0,0,0,0,0,0,0,0,95,0.383,0.778,0.263,18,56,9,0021500204,1610612748,MIA,Miami,Chris Bosh,F,,29:03,0.0,3.0,0.0,0.0,7.0,13.0,2.0,14.0,0.0,0.0,2.0,7.0
0021500204,1610612748,MIA,Miami,202355,Hassan Whiteside,C,,33:50,102.8,91.6,11.2,0.048,1.0,6.9,0.086,0.242,0.162,6.9,0.375,0.444,0.178,92.1,0.116,2015-11-23T00:00:00,3,MIA,Miami,9-4,26,26,21,22,0,0,0,0,0,0,0,0,0,0,95,0.383,0.778,0.263,18,56,9,0021500204,1610612748,MIA,Miami,Hassan Whiteside,C,,33:50,4.0,1.0,0.0,6.0,5.0,11.0,2.0,16.0,5.0,1.0,3.0,5.0
0021500204,1610612748,MIA,Miami,2548,Dwyane Wade,G,,29:48,106.3,92.0,14.3,0.313,2.5,20.2,0.065,0.067,0.066,8.1,0.375,0.45,0.302,93.66,0.097,2015-11-23T00:00:00,3,MIA,Miami,9-4,26,26,21,22,0,0,0,0,0,0,0,0,0,0,95,0.383,0.778,0.263,18,56,9,0021500204,1610612748,MIA,Miami,Dwyane Wade,G,,29:48,0.0,2.0,0.0,6.0,2.0,11.0,2.0,14.0,0.0,1.0,3.0,3.0
0021500204,1610612748,MIA,Miami,201609,Goran Dragic,G,,31:02,97.9,94.2,3.7,0.333,1.67,24.5,0.107,0.182,0.148,14.7,0.542,0.523,0.226,94.23,0.201,2015-11-23T00:00:00,3,MIA,Miami,9-4,26,26,21,22,0,0,0,0,0,0,0,0,0,0,95,0.383,0.778,0.263,18,56,9,0021500204,1610612748,MIA,Miami,Goran Dragic,G,,31:02,4.0,2.0,0.0,6.0,9.0,15.0,2.0,16.0,0.0,0.0,2.0,2.0
0021500204,1610612748,MIA,Miami,1626159,Justise Winslow,,,30:37,122.5,67.4,55.1,0.176,0.0,33.3,0.0,0.158,0.097,0.0,0.583,0.583,0.093,91.82,0.112,2015-11-23T00:00:00,3,MIA,Miami,9-4,26,26,21,22,0,0,0,0,0,0,0,0,0,0,95,0.383,0.778,0.263,18,56,9,0021500204,1610612748,MIA,Miami,Justise Winslow,,,30:37,2.0,0.0,2.0,4.0,6.0,10.0,0.0,20.0,1.0,1.0,5.0,0.0
0021500204,1610612748,MIA,Miami,101123,Gerald Green,,,14:35,108.4,56.1,52.3,0.0,0.0,0.0,0.059,0.222,0.143,0.0,0.4,0.431,0.311,91.11,0.21,2015-11-23T00:00:00,3,MIA,Miami,9-4,26,26,21,22,0,0,0,0,0,0,0,0,0,0,95,0.383,0.778,0.263,18,56,9,0021500204,1610612748,MIA,Miami,Gerald Green,,,14:35,0.0,2.0,2.0,8.0,0.0,2.0,0.0,10.0,0.0,0.0,1.0,1.0
0021500204,1610612748,MIA,Miami,201177,Josh McRoberts,,,19:22,104.4,60.8,43.6,0.2,0.0,34.0,0.13,0.214,0.176,0.0,0.0,0.258,0.086,89.09,0.159,2015-11-23T00:00:00,3,MIA,Miami,9-4,26,26,21,22,0,0,0,0,0,0,0,0,0,0,95,0.383,0.778,0.263,18,56,9,0021500204,1610612748,MIA,Miami,Josh McRoberts,,,19:22,0.0,2.0,0.0,0.0,6.0,6.0,0.0,12.0,0.0,0.0,2.0,2.0
0021500204,1610612748,MIA,Miami,204020,Tyler Johnson,,,20:35,109.5,67.9,41.6,0.125,1.0,10.4,0.083,0.034,0.057,10.4,0.7,0.785,0.186,89.39,0.248,2015-11-23T00:00:00,3,MIA,Miami,9-4,26,26,21,22,0,0,0,0,0,0,0,0,0,0,95,0.383,0.778,0.263,18,56,9,0021500204,1610612748,MIA,Miami,Tyler Johnson,,,20:35,0.0,2.0,2.0,2.0,7.0,6.0,0.0,12.0,1.0,1.0,0.0,3.0
0021500204,1610612748,MIA,Miami,2365,Chris Andersen,,DNP - Coach's Decision                  ,,,,,,,0.0,,,,,,,0.0,,,2015-11-23T00:00:00,3,MIA,Miami,9-4,26,26,21,22,0,0,0,0,0,0,0,0,0,0,95,0.383,0.778,0.263,18,56,9,0021500204,1610612748,MIA,Miami,Chris Andersen,,DNP - Coach's Decision                  ,,,,,,,,,,,,,
0021500204,1610612748,MIA,Miami,2617,Udonis Haslem,,DNP - Coach's Decision                  ,,,,,,,0.0,,,,,,,0.0,,,2015-11-23T00:00:00,3,MIA,Miami,9-4,26,26,21,22,0,0,0,0,0,0,0,0,0,0,95,0.383,0.778,0.263,18,56,9,0021500204,1610612748,MIA,Miami,Udonis Haslem,,DNP - Coach's Decision                  ,,,,,,,,,,,,,
0021500204,1610612748,MIA,Miami,1626196,Josh Richardson,,DNP - Coach's Decision                  ,,,,,,,0.0,,,,,,,0.0,,,2015-11-23T00:00:00,3,MIA,Miami,9-4,26,26,21,22,0,0,0,0,0,0,0,0,0,0,95,0.383,0.778,0.263,18,56,9,0021500204,1610612748,MIA,Miami,Josh Richardson,,DNP - Coach's Decision                  ,,,,,,,,,,,,,
0021500204,1610612748,MIA,Miami,2757,Beno Udrih,,DNP - Coach's Decision                  ,,,,,,,0.0,,,,,,,0.0,,,2015-11-23T00:00:00,3,MIA,Miami,9-4,26,26,21,22,0,0,0,0,0,0,0,0,0,0,95,0.383,0.778,0.263,18,56,9,0021500204,1610612748,MIA,Miami,Beno Udrih,,DNP - Coach's Decision                  ,,,,,,,,,,,,,
