GAME_ID_x,TEAM_ID_x,TEAM_ABBREVIATION_x,TEAM_CITY_x,PLAYER_ID,PLAYER_NAME_x,START_POSITION_x,COMMENT_x,MIN_x,OFF_RATING,DEF_RATING,NET_RATING,AST_PCT,AST_TOV,AST_RATIO,OREB_PCT,DREB_PCT,REB_PCT,TM_TOV_PCT,EFG_PCT,TS_PCT,USG_PCT,PACE,PIE,GAME_DATE_EST,GAME_SEQUENCE,TEAM_ABBREVIATION_y,TEAM_CITY_NAME,TEAM_WINS_LOSSES,PTS_QTR1,PTS_QTR2,PTS_QTR3,PTS_QTR4,PTS_OT1,PTS_OT2,PTS_OT3,PTS_OT4,PTS_OT5,PTS_OT6,PTS_OT7,PTS_OT8,PTS_OT9,PTS_OT10,PTS,FG_PCT,FT_PCT,FG3_PCT,AST,REB,TOV,GAME_ID_y,TEAM_ID_y,TEAM_ABBREVIATION,TEAM_CITY_y,PLAYER_NAME_y,START_POSITION_y,COMMENT_y,MIN_y,PTS_OFF_TOV,PTS_2ND_CHANCE,PTS_FB,PTS_PAINT,OPP_PTS_OFF_TOV,OPP_PTS_2ND_CHANCE,OPP_PTS_FB,OPP_PTS_PAINT,BLK,BLKA,PF,PFD
0021500207,1610612756,PHX,Phoenix,200782,PJ Tucker,F,,29:38,76.9,99.2,-22.3,0.059,0.33,11.1,0.045,0.045,0.045,33.3,0.0,0.0,0.128,97.24,-0.055,2015-11-23T00:00:00,6,PHX,Phoenix,7-7,17,17,26,24,0,0,0,0,0,0,0,0,0,0,84,0.466,0.9,0.368,23,37,28,0021500207,1610612756,PHX,Phoenix,PJ Tucker,F,,29:38,0.0,0.0,0.0,0.0,15.0,11.0,8.0,28.0,0.0,0.0,2.0,3.0
0021500207,1610612756,PHX,Phoenix,202693,Markieff Morris,F,,34:11,98.6,102.1,-3.5,0.267,0.67,15.5,0.038,0.28,0.157,23.2,0.867,0.882,0.284,98.64,0.235,2015-11-23T00:00:00,6,PHX,Phoenix,7-7,17,17,26,24,0,0,0,0,0,0,0,0,0,0,84,0.466,0.9,0.368,23,37,28,0021500207,1610612756,PHX,Phoenix,Markieff Morris,F,,34:11,6.0,2.0,3.0,12.0,17.0,11.0,13.0,34.0,0.0,0.0,3.0,4.0
0021500207,1610612756,PHX,Phoenix,2199,Tyson Chandler,C,,19:38,73.9,105.6,-31.7,0.0,0.0,0.0,0.071,0.333,0.207,34.7,0.0,0.266,0.074,94.91,0.077,2015-11-23T00:00:00,6,PHX,Phoenix,7-7,17,17,26,24,0,0,0,0,0,0,0,0,0,0,84,0.466,0.9,0.368,23,37,28,0021500207,1610612756,PHX,Phoenix,Tyson Chandler,C,,19:38,0.0,1.0,0.0,0.0,11.0,7.0,9.0,18.0,0.0,0.0,0.0,1.0
0021500207,1610612756,PHX,Phoenix,202688,Brandon Knight,G,,38:00,94.5,107.2,-12.7,0.364,1.0,25.1,0.0,0.1,0.049,25.1,0.533,0.567,0.287,95.12,0.091,2015-11-23T00:00:00,6,PHX,Phoenix,7-7,17,17,26,24,0,0,0,0,0,0,0,0,0,0,84,0.466,0.9,0.368,23,37,28,0021500207,1610612756,PHX,Phoenix,Brandon Knight,G,,38:00,2.0,0.0,2.0,10.0,24.0,13.0,16.0,42.0,0.0,1.0,2.0,5.0
0021500207,1610612756,PHX,Phoenix,1626164,Devin Booker,G,,24:26,96.1,112.8,-16.8,0.063,1.0,14.3,0.056,0.12,0.093,14.3,0.4,0.4,0.128,88.35,0.049,2015-11-23T00:00:00,6,PHX,Phoenix,7-7,17,17,26,24,0,0,0,0,0,0,0,0,0,0,84,0.466,0.9,0.368,23,37,28,0021500207,1610612756,PHX,Phoenix,Devin Booker,G,,24:26,0.0,0.0,0.0,2.0,7.0,14.0,5.0,22.0,0.0,1.0,1.0,1.0
0021500207,1610612756,PHX,Phoenix,203933,TJ Warren,,,26:10,77.5,104.9,-27.4,0.182,1.0,10.1,0.15,0.0,0.075,10.1,0.467,0.504,0.29,101.86,0.08,2015-11-23T00:00:00,6,PHX,Phoenix,7-7,17,17,26,24,0,0,0,0,0,0,0,0,0,0,84,0.466,0.9,0.368,23,37,28,0021500207,1610612756,PHX,Phoenix,TJ Warren,,,26:10,10.0,0.0,10.0,12.0,18.0,11.0,14.0,26.0,1.0,0.0,3.0,3.0
0021500207,1610612756,PHX,Phoenix,101179,Ronnie Price,,,20:24,87.1,80.7,6.4,0.267,1.33,36.4,0.0,0.0,0.0,27.3,0.25,0.25,0.141,100.75,-0.018,2015-11-23T00:00:00,6,PHX,Phoenix,7-7,17,17,26,24,0,0,0,0,0,0,0,0,0,0,84,0.466,0.9,0.368,23,37,28,0021500207,1610612756,PHX,Phoenix,Ronnie Price,,,20:24,0.0,0.0,0.0,0.0,12.0,9.0,5.0,16.0,0.0,0.0,3.0,0.0
0021500207,1610612756,PHX,Phoenix,203458,Alex Len,,,6:22,64.8,79.3,-14.4,0.333,1.0,25.0,0.0,0.125,0.083,25.0,0.0,0.0,0.216,104.65,-0.125,2015-11-23T00:00:00,6,PHX,Phoenix,7-7,17,17,26,24,0,0,0,0,0,0,0,0,0,0,84,0.466,0.9,0.368,23,37,28,0021500207,1610612756,PHX,Phoenix,Alex Len,,,6:22,0.0,0.0,0.0,0.0,0.0,5.0,0.0,4.0,0.0,1.0,1.0,0.0
0021500207,1610612756,PHX,Phoenix,203141,Mirza Teletovic,,,22:30,99.3,111.7,-12.4,0.063,1.0,11.1,0.111,0.2,0.158,11.1,0.643,0.643,0.156,95.13,0.144,2015-11-23T00:00:00,6,PHX,Phoenix,7-7,17,17,26,24,0,0,0,0,0,0,0,0,0,0,84,0.466,0.9,0.368,23,37,28,0021500207,1610612756,PHX,Phoenix,Mirza Teletovic,,,22:30,0.0,3.0,0.0,0.0,16.0,11.0,10.0,26.0,1.0,0.0,0.0,2.0
0021500207,1610612756,PHX,Phoenix,202720,Jon Leuer,,,11:51,64.3,96.5,-32.2,0.0,0.0,0.0,0.0,0.4,0.2,34.0,0.667,0.773,0.223,91.3,0.271,2015-11-23T00:00:00,6,PHX,Phoenix,7-7,17,17,26,24,0,0,0,0,0,0,0,0,0,0,84,0.466,0.9,0.368,23,37,28,0021500207,1610612756,PHX,Phoenix,Jon Leuer,,,11:51,0.0,0.0,0.0,2.0,10.0,6.0,0.0,10.0,1.0,0.0,2.0,1.0
0021500207,1610612756,PHX,Phoenix,203462,Archie Goodwin,,,5:22,106.6,92.9,13.7,0.0,0.0,0.0,0.0,0.0,0.0,0.0,0.0,0.0,0.0,94.36,0.0,2015-11-23T00:00:00,6,PHX,Phoenix,7-7,17,17,26,24,0,0,0,0,0,0,0,0,0,0,84,0.466,0.9,0.368,23,37,28,0021500207,1610612756,PHX,Phoenix,Archie Goodwin,,,5:22,0.0,0.0,0.0,0.0,5.0,2.0,0.0,4.0,0.0,0.0,0.0,0.0
0021500207,1610612756,PHX,Phoenix,201603,Sonny Weems,,,1:28,87.2,0.0,87.2,1.0,0.0,50.0,0.0,0.0,0.0,0.0,0.0,0.0,0.291,89.02,1.0,2015-11-23T00:00:00,6,PHX,Phoenix,7-7,17,17,26,24,0,0,0,0,0,0,0,0,0,0,84,0.466,0.9,0.368,23,37,28,0021500207,1610612756,PHX,Phoenix,Sonny Weems,,,1:28,0.0,0.0,0.0,0.0,0.0,0.0,0.0,0.0,0.0,0.0,0.0,0.0
0021500207,1610612756,PHX,Phoenix,203928,Cory Jefferson,,DNP - Coach's Decision                  ,,,,,,,0.0,,,,,,,0.0,,,2015-11-23T00:00:00,6,PHX,Phoenix,7-7,17,17,26,24,0,0,0,0,0,0,0,0,0,0,84,0.466,0.9,0.368,23,37,28,0021500207,1610612756,PHX,Phoenix,Cory Jefferson,,DNP - Coach's Decision                  ,,,,,,,,,,,,,
0021500207,1610612759,SAS,San Antonio,202695,Kawhi Leonard,F,,37:13,98.0,90.7,7.3,0.19,1.33,15.7,0.103,0.345,0.224,11.8,0.639,0.651,0.263,97.69,0.274,2015-11-23T00:00:00,6,SAS,San Antonio,11-3,20,24,23,31,0,0,0,0,0,0,0,0,0,0,98,0.512,0.5,0.45,21,38,20,0021500207,1610612759,SAS,San Antonio,Kawhi Leonard,F,,37:13,8.0,2.0,8.0,16.0,13.0,6.0,12.0,30.0,1.0,1.0,1.0,4.0
0021500207,1610612759,SAS,San Antonio,2561,David West,F,,21:58,103.0,72.0,31.0,0.063,1.0,10.6,0.043,0.118,0.075,10.6,0.286,0.336,0.177,88.1,0.071,2015-11-23T00:00:00,6,SAS,San Antonio,11-3,20,24,23,31,0,0,0,0,0,0,0,0,0,0,98,0.512,0.5,0.45,21,38,20,0021500207,1610612759,SAS,San Antonio,David West,F,,21:58,0.0,2.0,0.0,2.0,3.0,1.0,2.0,6.0,0.0,0.0,1.0,1.0
0021500207,1610612759,SAS,San Antonio,1495,Tim Duncan,C,,31:48,117.8,86.6,31.2,0.033,0.5,9.3,0.15,0.192,0.174,18.6,0.333,0.451,0.14,97.48,0.059,2015-11-23T00:00:00,6,SAS,San Antonio,11-3,20,24,23,31,0,0,0,0,0,0,0,0,0,0,98,0.512,0.5,0.45,21,38,20,0021500207,1610612759,SAS,San Antonio,Tim Duncan,C,,31:48,0.0,2.0,0.0,4.0,8.0,6.0,7.0,26.0,1.0,0.0,3.0,3.0
0021500207,1610612759,SAS,San Antonio,201980,Danny Green,G,,33:54,106.5,96.8,9.8,0.167,4.0,20.0,0.029,0.192,0.1,5.0,0.6,0.6,0.209,92.53,0.136,2015-11-23T00:00:00,6,SAS,San Antonio,11-3,20,24,23,31,0,0,0,0,0,0,0,0,0,0,98,0.512,0.5,0.45,21,38,20,0021500207,1610612759,SAS,San Antonio,Danny Green,G,,33:54,5.0,7.0,0.0,2.0,12.0,4.0,9.0,24.0,0.0,0.0,2.0,0.0
0021500207,1610612759,SAS,San Antonio,2225,Tony Parker,G,,32:13,118.2,84.1,34.1,0.364,2.0,30.9,0.0,0.043,0.021,15.5,0.769,0.72,0.26,91.18,0.169,2015-11-23T00:00:00,6,SAS,San Antonio,11-3,20,24,23,31,0,0,0,0,0,0,0,0,0,0,98,0.512,0.5,0.45,21,38,20,0021500207,1610612759,SAS,San Antonio,Tony Parker,G,,32:13,4.0,2.0,0.0,12.0,5.0,4.0,4.0,20.0,0.0,0.0,4.0,3.0
0021500207,1610612759,SAS,San Antonio,1938,Manu Ginobili,,,19:28,91.3,85.1,6.2,0.154,0.67,15.4,0.067,0.176,0.125,23.1,0.5,0.5,0.236,103.51,0.099,2015-11-23T00:00:00,6,SAS,San Antonio,11-3,20,24,23,31,0,0,0,0,0,0,0,0,0,0,98,0.512,0.5,0.45,21,38,20,0021500207,1610612759,SAS,San Antonio,Manu Ginobili,,,19:28,5.0,5.0,3.0,2.0,10.0,2.0,8.0,22.0,0.0,1.0,1.0,3.0
0021500207,1610612759,SAS,San Antonio,2564,Boris Diaw,,,12:57,74.4,90.7,-16.3,0.0,0.0,0.0,0.077,0.167,0.105,50.0,0.0,0.0,0.122,104.97,-0.122,2015-11-23T00:00:00,6,SAS,San Antonio,11-3,20,24,23,31,0,0,0,0,0,0,0,0,0,0,98,0.512,0.5,0.45,21,38,20,0021500207,1610612759,SAS,San Antonio,Boris Diaw,,,12:57,0.0,0.0,0.0,0.0,11.0,0.0,11.0,8.0,0.0,1.0,2.0,0.0
0021500207,1610612759,SAS,San Antonio,201988,Patty Mills,,,28:18,105.6,92.9,12.7,0.043,0.5,9.1,0.0,0.0,0.0,18.2,0.625,0.625,0.148,100.8,0.06,2015-11-23T00:00:00,6,SAS,San Antonio,11-3,20,24,23,31,0,0,0,0,0,0,0,0,0,0,98,0.512,0.5,0.45,21,38,20,0021500207,1610612759,SAS,San Antonio,Patty Mills,,,28:18,3.0,0.0,3.0,2.0,12.0,5.0,10.0,30.0,0.0,0.0,2.0,2.0
0021500207,1610612759,SAS,San Antonio,1626246,Boban Marjanovic,,,4:55,73.5,82.7,-9.2,0.0,0.0,0.0,0.167,0.0,0.125,34.7,1.0,0.532,0.224,106.22,-0.074,2015-11-23T00:00:00,6,SAS,San Antonio,11-3,20,24,23,31,0,0,0,0,0,0,0,0,0,0,98,0.512,0.5,0.45,21,38,20,0021500207,1610612759,SAS,San Antonio,Boban Marjanovic,,,4:55,0.0,0.0,0.0,2.0,2.0,0.0,0.0,2.0,1.0,0.0,1.0,1.0
0021500207,1610612759,SAS,San Antonio,203613,Jonathon Simmons,,,6:43,78.4,82.6,-4.2,0.0,0.0,0.0,0.0,0.0,0.0,0.0,1.0,1.0,0.078,93.19,-0.087,2015-11-23T00:00:00,6,SAS,San Antonio,11-3,20,24,23,31,0,0,0,0,0,0,0,0,0,0,98,0.512,0.5,0.45,21,38,20,0021500207,1610612759,SAS,San Antonio,Jonathon Simmons,,,6:43,0.0,0.0,0.0,2.0,3.0,2.0,3.0,8.0,0.0,0.0,3.0,0.0
0021500207,1610612759,SAS,San Antonio,203937,Kyle Anderson,,,7:37,86.7,66.9,19.8,0.0,0.0,0.0,0.0,0.0,0.0,25.0,0.333,0.333,0.25,99.07,0.074,2015-11-23T00:00:00,6,SAS,San Antonio,11-3,20,24,23,31,0,0,0,0,0,0,0,0,0,0,98,0.512,0.5,0.45,21,38,20,0021500207,1610612759,SAS,San Antonio,Kyle Anderson,,,7:37,2.0,0.0,2.0,2.0,5.0,0.0,3.0,10.0,0.0,0.0,0.0,0.0
0021500207,1610612759,SAS,San Antonio,203492,Ray McCallum,,,1:28,0.0,87.2,-87.2,0.0,0.0,0.0,0.0,0.0,0.0,0.0,0.0,0.0,0.0,89.02,0.0,2015-11-23T00:00:00,6,SAS,San Antonio,11-3,20,24,23,31,0,0,0,0,0,0,0,0,0,0,98,0.512,0.5,0.45,21,38,20,0021500207,1610612759,SAS,San Antonio,Ray McCallum,,,1:28,0.0,0.0,0.0,0.0,3.0,0.0,3.0,2.0,0.0,0.0,0.0,0.0
0021500207,1610612759,SAS,San Antonio,2446,Rasual Butler,,,1:28,0.0,87.2,-87.2,0.0,0.0,0.0,0.0,0.0,0.0,0.0,0.0,0.0,0.0,89.02,0.0,2015-11-23T00:00:00,6,SAS,San Antonio,11-3,20,24,23,31,0,0,0,0,0,0,0,0,0,0,98,0.512,0.5,0.45,21,38,20,0021500207,1610612759,SAS,San Antonio,Rasual Butler,,,1:28,0.0,0.0,0.0,0.0,3.0,0.0,3.0,2.0,0.0,0.0,0.0,0.0
