GAME_ID_x,TEAM_ID_x,TEAM_ABBREVIATION_x,TEAM_CITY_x,PLAYER_ID,PLAYER_NAME_x,START_POSITION_x,COMMENT_x,MIN_x,OFF_RATING,DEF_RATING,NET_RATING,AST_PCT,AST_TOV,AST_RATIO,OREB_PCT,DREB_PCT,REB_PCT,TM_TOV_PCT,EFG_PCT,TS_PCT,USG_PCT,PACE,PIE,GAME_DATE_EST,GAME_SEQUENCE,TEAM_ABBREVIATION_y,TEAM_CITY_NAME,TEAM_WINS_LOSSES,PTS_QTR1,PTS_QTR2,PTS_QTR3,PTS_QTR4,PTS_OT1,PTS_OT2,PTS_OT3,PTS_OT4,PTS_OT5,PTS_OT6,PTS_OT7,PTS_OT8,PTS_OT9,PTS_OT10,PTS,FG_PCT,FT_PCT,FG3_PCT,AST,REB,TOV,GAME_ID_y,TEAM_ID_y,TEAM_ABBREVIATION,TEAM_CITY_y,PLAYER_NAME_y,START_POSITION_y,COMMENT_y,MIN_y,PTS_OFF_TOV,PTS_2ND_CHANCE,PTS_FB,PTS_PAINT,OPP_PTS_OFF_TOV,OPP_PTS_2ND_CHANCE,OPP_PTS_FB,OPP_PTS_PAINT,BLK,BLKA,PF,PFD
0021500208,1610612760,OKC,Oklahoma City,201142,Kevin Durant,F,,30:10,117.7,89.7,28.0,0.059,0.25,5.1,0.0,0.231,0.13,20.2,0.885,0.915,0.284,102.57,0.269,2015-11-23T00:00:00,7,OKC,Oklahoma City,9-6,23,40,25,23,0,0,0,0,0,0,0,0,0,0,111,0.545,0.889,0.407,22,36,16,0021500208,1610612760,OKC,Oklahoma City,Kevin Durant,F,,30:10,0,0,12,12,15,15,9,30,1,0,2,1
0021500208,1610612760,OKC,Oklahoma City,201586,Serge Ibaka,F,,25:12,110.1,95.2,14.9,0.0,0.0,0.0,0.0,0.174,0.098,28.6,0.55,0.55,0.264,96.61,0.034,2015-11-23T00:00:00,7,OKC,Oklahoma City,9-6,23,40,25,23,0,0,0,0,0,0,0,0,0,0,111,0.545,0.889,0.407,22,36,16,0021500208,1610612760,OKC,Oklahoma City,Serge Ibaka,F,,25:12,3,0,0,0,9,9,7,22,4,0,5,0
0021500208,1610612760,OKC,Oklahoma City,203500,Steven Adams,C,,23:14,112.9,80.3,32.5,0.0,0.0,0.0,0.059,0.1,0.081,0.0,0.6,0.595,0.118,99.98,0.054,2015-11-23T00:00:00,7,OKC,Oklahoma City,9-6,23,40,25,23,0,0,0,0,0,0,0,0,0,0,111,0.545,0.889,0.407,22,36,16,0021500208,1610612760,OKC,Oklahoma City,Steven Adams,C,,23:14,1,0,1,6,11,6,7,20,3,1,4,3
0021500208,1610612760,OKC,Oklahoma City,203460,Andre Roberson,G,,16:28,82.2,82.5,-0.3,0.0,0.0,0.0,0.0,0.2,0.097,0.0,0.25,0.25,0.119,97.36,0.0,2015-11-23T00:00:00,7,OKC,Oklahoma City,9-6,23,40,25,23,0,0,0,0,0,0,0,0,0,0,111,0.545,0.889,0.407,22,36,16,0021500208,1610612760,OKC,Oklahoma City,Andre Roberson,G,,16:28,2,0,0,2,7,2,8,16,0,0,2,0
0021500208,1610612760,OKC,Oklahoma City,201566,Russell Westbrook,G,,27:18,116.7,93.3,23.3,0.45,2.25,32.8,0.111,0.208,0.167,14.6,0.5,0.694,0.308,101.76,0.236,2015-11-23T00:00:00,7,OKC,Oklahoma City,9-6,23,40,25,23,0,0,0,0,0,0,0,0,0,0,111,0.545,0.889,0.407,22,36,16,0021500208,1610612760,OKC,Oklahoma City,Russell Westbrook,G,,27:18,2,4,6,6,15,13,7,28,0,1,3,6
0021500208,1610612760,OKC,Oklahoma City,2555,Nick Collison,,,18:26,131.7,71.7,60.0,0.056,1.0,25.0,0.111,0.0,0.042,25.0,0.5,0.5,0.075,100.25,-0.029,2015-11-23T00:00:00,7,OKC,Oklahoma City,9-6,23,40,25,23,0,0,0,0,0,0,0,0,0,0,111,0.545,0.889,0.407,22,36,16,0021500208,1610612760,OKC,Oklahoma City,Nick Collison,,,18:26,2,0,0,2,6,10,4,14,0,1,4,2
0021500208,1610612760,OKC,Oklahoma City,202683,Enes Kanter,,,21:11,128.0,88.7,39.3,0.056,1.0,12.5,0.091,0.211,0.167,12.5,0.5,0.5,0.156,95.91,0.051,2015-11-23T00:00:00,7,OKC,Oklahoma City,9-6,23,40,25,23,0,0,0,0,0,0,0,0,0,0,111,0.545,0.889,0.407,22,36,16,0021500208,1610612760,OKC,Oklahoma City,Enes Kanter,,,21:11,0,2,2,6,4,13,4,16,0,0,4,1
0021500208,1610612760,OKC,Oklahoma City,203079,Dion Waiters,,,28:31,131.3,78.9,52.5,0.24,3.0,33.6,0.0,0.125,0.077,11.2,0.611,0.607,0.19,96.95,0.189,2015-11-23T00:00:00,7,OKC,Oklahoma City,9-6,23,40,25,23,0,0,0,0,0,0,0,0,0,0,111,0.545,0.889,0.407,22,36,16,0021500208,1610612760,OKC,Oklahoma City,Dion Waiters,,,28:31,5,0,4,6,8,15,4,16,1,0,2,3
0021500208,1610612760,OKC,Oklahoma City,201571,D.J. Augustin,,,20:43,114.4,85.5,28.9,0.143,0.0,22.2,0.0,0.053,0.029,0.0,0.643,0.643,0.166,91.33,0.136,2015-11-23T00:00:00,7,OKC,Oklahoma City,9-6,23,40,25,23,0,0,0,0,0,0,0,0,0,0,111,0.545,0.889,0.407,22,36,16,0021500208,1610612760,OKC,Oklahoma City,D.J. Augustin,,,20:43,6,0,3,0,0,8,5,10,0,0,1,1
0021500208,1610612760,OKC,Oklahoma City,201627,Anthony Morrow,,,18:51,117.4,99.9,17.6,0.1,0.0,11.1,0.0,0.0,0.0,0.0,0.938,0.938,0.212,90.14,0.3,2015-11-23T00:00:00,7,OKC,Oklahoma City,9-6,23,40,25,23,0,0,0,0,0,0,0,0,0,0,111,0.545,0.889,0.407,22,36,16,0021500208,1610612760,OKC,Oklahoma City,Anthony Morrow,,,18:51,0,0,3,4,0,8,3,12,0,0,1,0
0021500208,1610612760,OKC,Oklahoma City,203956,Mitch McGary,,,2:47,120.0,188.0,-68.0,0.0,0.0,0.0,0.25,0.333,0.286,0.0,0.0,0.0,0.0,88.99,0.067,2015-11-23T00:00:00,7,OKC,Oklahoma City,9-6,23,40,25,23,0,0,0,0,0,0,0,0,0,0,111,0.545,0.889,0.407,22,36,16,0021500208,1610612760,OKC,Oklahoma City,Mitch McGary,,,2:47,0,0,0,0,0,2,0,2,1,0,1,0
0021500208,1610612760,OKC,Oklahoma City,202713,Kyle Singler,,,3:35,50.0,169.5,-119.5,0.0,0.0,0.0,0.0,0.25,0.1,0.0,0.0,0.0,0.143,87.61,-0.095,2015-11-23T00:00:00,7,OKC,Oklahoma City,9-6,23,40,25,23,0,0,0,0,0,0,0,0,0,0,111,0.545,0.889,0.407,22,36,16,0021500208,1610612760,OKC,Oklahoma City,Kyle Singler,,,3:35,0,0,0,0,0,2,1,2,0,0,1,1
0021500208,1610612760,OKC,Oklahoma City,1626166,Cameron Payne,,,3:35,50.0,169.5,-119.5,1.0,0.0,33.3,0.0,0.0,0.0,0.0,0.0,0.0,0.286,87.61,-0.19,2015-11-23T00:00:00,7,OKC,Oklahoma City,9-6,23,40,25,23,0,0,0,0,0,0,0,0,0,0,111,0.545,0.889,0.407,22,36,16,0021500208,1610612760,OKC,Oklahoma City,Cameron Payne,,,3:35,0,0,0,0,0,2,1,2,0,0,1,0
0021500208,1610612762,UTA,Utah,202330,Gordon Hayward,F,,30:10,89.7,117.7,-28.0,0.286,2.0,19.1,0.0,0.15,0.065,9.5,0.5,0.635,0.233,102.57,0.155,2015-11-23T00:00:00,7,UTA,Utah,6-7,20,26,22,21,0,0,0,0,0,0,0,0,0,0,89,0.384,0.7,0.263,15,41,21,0021500208,1610612762,UTA,Utah,Gordon Hayward,F,,30:10,6,3,4,6,12,4,28,34,0,1,2,5
0021500208,1610612762,UTA,Utah,202324,Derrick Favors,F,,29:32,88.5,119.5,-30.9,0.143,1.0,12.3,0.042,0.3,0.159,12.3,0.4,0.451,0.212,97.19,0.121,2015-11-23T00:00:00,7,UTA,Utah,6-7,20,26,22,21,0,0,0,0,0,0,0,0,0,0,89,0.384,0.7,0.263,15,41,21,0021500208,1610612762,UTA,Utah,Derrick Favors,F,,29:32,0,2,0,8,10,4,23,36,2,3,1,4
0021500208,1610612762,UTA,Utah,203497,Rudy Gobert,C,,25:22,90.5,124.1,-33.6,0.0,0.0,0.0,0.19,0.059,0.132,42.1,0.667,0.727,0.198,96.72,0.046,2015-11-23T00:00:00,7,UTA,Utah,6-7,20,26,22,21,0,0,0,0,0,0,0,0,0,0,89,0.384,0.7,0.263,15,41,21,0021500208,1610612762,UTA,Utah,Rudy Gobert,C,,25:22,2,8,0,8,13,2,19,22,0,2,3,4
0021500208,1610612762,UTA,Utah,203918,Rodney Hood,G,,20:26,92.3,97.9,-5.6,0.091,0.5,8.9,0.0,0.125,0.065,17.9,0.5,0.549,0.226,96.31,0.098,2015-11-23T00:00:00,7,UTA,Utah,6-7,20,26,22,21,0,0,0,0,0,0,0,0,0,0,89,0.384,0.7,0.263,15,41,21,0021500208,1610612762,UTA,Utah,Rodney Hood,G,,20:26,3,0,3,2,6,0,12,20,0,1,2,3
0021500208,1610612762,UTA,Utah,203526,Raul Neto,G,,22:57,103.0,101.1,2.0,0.143,0.0,21.5,0.048,0.095,0.071,0.0,0.333,0.41,0.137,97.34,0.033,2015-11-23T00:00:00,7,UTA,Utah,6-7,20,26,22,21,0,0,0,0,0,0,0,0,0,0,89,0.384,0.7,0.263,15,41,21,0021500208,1610612762,UTA,Utah,Raul Neto,G,,22:57,2,0,0,4,8,0,17,16,0,1,4,3
0021500208,1610612762,UTA,Utah,202344,Trevor Booker,,,19:41,66.9,121.9,-55.0,0.2,1.0,17.0,0.111,0.1,0.107,17.0,0.333,0.515,0.105,98.19,0.074,2015-11-23T00:00:00,7,UTA,Utah,6-7,20,26,22,21,0,0,0,0,0,0,0,0,0,0,89,0.384,0.7,0.263,15,41,21,0021500208,1610612762,UTA,Utah,Trevor Booker,,,19:41,0,0,0,2,10,2,12,22,0,0,0,1
0021500208,1610612762,UTA,Utah,203504,Trey Burke,,,23:48,73.4,127.4,-54.0,0.0,0.0,0.0,0.091,0.154,0.114,7.7,0.333,0.333,0.232,96.93,0.0,2015-11-23T00:00:00,7,UTA,Utah,6-7,20,26,22,21,0,0,0,0,0,0,0,0,0,0,89,0.384,0.7,0.263,15,41,21,0021500208,1610612762,UTA,Utah,Trey Burke,,,23:48,0,0,2,2,13,6,14,28,0,0,1,0
0021500208,1610612762,UTA,Utah,202692,Alec Burks,,,24:35,91.3,140.9,-49.5,0.25,0.75,16.1,0.0,0.167,0.057,21.5,0.222,0.344,0.268,98.37,-0.011,2015-11-23T00:00:00,7,UTA,Utah,6-7,20,26,22,21,0,0,0,0,0,0,0,0,0,0,89,0.384,0.7,0.263,15,41,21,0021500208,1610612762,UTA,Utah,Alec Burks,,,24:35,2,4,2,4,12,6,16,26,0,1,2,7
0021500208,1610612762,UTA,Utah,204060,Joe Ingles,,,12:40,61.5,124.6,-63.1,0.2,0.33,14.3,0.0,0.286,0.105,42.9,0.0,0.0,0.216,90.27,-0.14,2015-11-23T00:00:00,7,UTA,Utah,6-7,20,26,22,21,0,0,0,0,0,0,0,0,0,0,89,0.384,0.7,0.263,15,41,21,0021500208,1610612762,UTA,Utah,Joe Ingles,,,12:40,0,0,0,0,9,2,0,8,0,0,1,0
0021500208,1610612762,UTA,Utah,203481,Jeff Withey,,,14:14,104.5,97.1,7.4,0.0,0.0,0.0,0.133,0.25,0.185,21.0,0.5,0.532,0.141,98.81,0.105,2015-11-23T00:00:00,7,UTA,Utah,6-7,20,26,22,21,0,0,0,0,0,0,0,0,0,0,89,0.384,0.7,0.263,15,41,21,0021500208,1610612762,UTA,Utah,Jeff Withey,,,14:14,0,2,0,0,6,2,5,6,1,1,1,2
0021500208,1610612762,UTA,Utah,1626168,Trey Lyles,,,7:11,134.9,92.9,42.1,0.0,0.0,0.0,0.125,0.333,0.235,0.0,1.0,1.0,0.062,93.82,0.208,2015-11-23T00:00:00,7,UTA,Utah,6-7,20,26,22,21,0,0,0,0,0,0,0,0,0,0,89,0.384,0.7,0.263,15,41,21,0021500208,1610612762,UTA,Utah,Trey Lyles,,,7:11,0,2,0,2,3,2,3,2,0,0,0,0
0021500208,1610612762,UTA,Utah,203187,Chris Johnson,,,5:49,109.5,81.8,27.7,0.0,0.0,0.0,0.0,0.0,0.0,0.0,1.0,1.0,0.231,90.61,0.435,2015-11-23T00:00:00,7,UTA,Utah,6-7,20,26,22,21,0,0,0,0,0,0,0,0,0,0,89,0.384,0.7,0.263,15,41,21,0021500208,1610612762,UTA,Utah,Chris Johnson,,,5:49,0,0,0,0,3,0,3,0,0,0,0,0
0021500208,1610612762,UTA,Utah,202407,Elijah Millsap,,,3:35,169.5,50.0,119.5,0.333,0.0,26.6,0.0,0.167,0.1,0.0,0.0,0.362,0.342,87.61,0.0,2015-11-23T00:00:00,7,UTA,Utah,6-7,20,26,22,21,0,0,0,0,0,0,0,0,0,0,89,0.384,0.7,0.263,15,41,21,0021500208,1610612762,UTA,Utah,Elijah Millsap,,,3:35,0,0,1,0,0,0,3,0,0,0,1,2
