GAME_ID_x,TEAM_ID_x,TEAM_ABBREVIATION_x,TEAM_CITY_x,PLAYER_ID,PLAYER_NAME_x,START_POSITION_x,COMMENT_x,MIN_x,OFF_RATING,DEF_RATING,NET_RATING,AST_PCT,AST_TOV,AST_RATIO,OREB_PCT,DREB_PCT,REB_PCT,TM_TOV_PCT,EFG_PCT,TS_PCT,USG_PCT,PACE,PIE,GAME_DATE_EST,GAME_SEQUENCE,TEAM_ABBREVIATION_y,TEAM_CITY_NAME,TEAM_WINS_LOSSES,PTS_QTR1,PTS_QTR2,PTS_QTR3,PTS_QTR4,PTS_OT1,PTS_OT2,PTS_OT3,PTS_OT4,PTS_OT5,PTS_OT6,PTS_OT7,PTS_OT8,PTS_OT9,PTS_OT10,PTS,FG_PCT,FT_PCT,FG3_PCT,AST,REB,TOV,GAME_ID_y,TEAM_ID_y,TEAM_ABBREVIATION,TEAM_CITY_y,PLAYER_NAME_y,START_POSITION_y,COMMENT_y,MIN_y,PTS_OFF_TOV,PTS_2ND_CHANCE,PTS_FB,PTS_PAINT,OPP_PTS_OFF_TOV,OPP_PTS_2ND_CHANCE,OPP_PTS_FB,OPP_PTS_PAINT,BLK,BLKA,PF,PFD
0021500226,1610612762,UTA,Utah,202330,Gordon Hayward,F,,40:03,118.6,97.1,21.4,0.08,0.5,6.3,0.034,0.176,0.111,12.7,0.614,0.647,0.331,93.05,0.182,2015-11-25T00:00:00,12,UTA,Utah,7-7,21,24,28,29,0,0,0,0,0,0,0,0,0,0,102,0.506,0.72,0.462,19,39,16,0021500226,1610612762,UTA,Utah,Gordon Hayward,F,,40:03,7.0,6.0,0.0,8.0,7.0,8.0,10.0,28.0,0.0,2.0,2.0,6.0
0021500226,1610612762,UTA,Utah,202324,Derrick Favors,F,,32:45,131.8,107.1,24.7,0.1,2.0,10.6,0.111,0.042,0.071,5.3,0.667,0.693,0.249,85.65,0.169,2015-11-25T00:00:00,12,UTA,Utah,7-7,21,24,28,29,0,0,0,0,0,0,0,0,0,0,102,0.506,0.72,0.462,19,39,16,0021500226,1610612762,UTA,Utah,Derrick Favors,F,,32:45,6.0,4.0,0.0,12.0,4.0,10.0,11.0,26.0,0.0,2.0,3.0,1.0
0021500226,1610612762,UTA,Utah,203497,Rudy Gobert,C,,37:57,109.0,102.2,6.8,0.037,0.25,9.3,0.185,0.2,0.193,37.2,1.0,0.868,0.12,93.37,0.114,2015-11-25T00:00:00,12,UTA,Utah,7-7,21,24,28,29,0,0,0,0,0,0,0,0,0,0,102,0.506,0.72,0.462,19,39,16,0021500226,1610612762,UTA,Utah,Rudy Gobert,C,,37:57,3.0,7.0,0.0,8.0,10.0,8.0,9.0,30.0,2.0,0.0,2.0,5.0
0021500226,1610612762,UTA,Utah,203918,Rodney Hood,G,,30:36,116.5,105.2,11.4,0.238,2.5,32.0,0.0,0.167,0.093,12.8,0.667,0.752,0.173,92.02,0.123,2015-11-25T00:00:00,12,UTA,Utah,7-7,21,24,28,29,0,0,0,0,0,0,0,0,0,0,102,0.506,0.72,0.462,19,39,16,0021500226,1610612762,UTA,Utah,Rodney Hood,G,,30:36,6.0,2.0,2.0,6.0,10.0,11.0,9.0,24.0,0.0,0.0,4.0,3.0
0021500226,1610612762,UTA,Utah,203526,Raul Neto,G,,25:54,125.6,103.9,21.7,0.316,6.0,43.2,0.0,0.043,0.025,7.2,0.75,0.727,0.16,84.88,0.153,2015-11-25T00:00:00,12,UTA,Utah,7-7,21,24,28,29,0,0,0,0,0,0,0,0,0,0,102,0.506,0.72,0.462,19,39,16,0021500226,1610612762,UTA,Utah,Raul Neto,G,,25:54,4.0,0.0,4.0,4.0,2.0,8.0,4.0,26.0,0.0,1.0,3.0,3.0
0021500226,1610612762,UTA,Utah,202692,Alec Burks,,,28:32,91.3,97.7,-6.4,0.059,1.0,6.3,0.0,0.24,0.125,6.3,0.231,0.288,0.222,97.1,0.034,2015-11-25T00:00:00,12,UTA,Utah,7-7,21,24,28,29,0,0,0,0,0,0,0,0,0,0,102,0.506,0.72,0.462,19,39,16,0021500226,1610612762,UTA,Utah,Alec Burks,,,28:32,0.0,0.0,0.0,2.0,8.0,4.0,9.0,20.0,0.0,2.0,1.0,3.0
0021500226,1610612762,UTA,Utah,202344,Trevor Booker,,,18:14,87.3,85.5,1.8,0.083,1.0,12.5,0.2,0.071,0.138,12.5,0.167,0.167,0.164,94.42,-0.031,2015-11-25T00:00:00,12,UTA,Utah,7-7,21,24,28,29,0,0,0,0,0,0,0,0,0,0,102,0.506,0.72,0.462,19,39,16,0021500226,1610612762,UTA,Utah,Trevor Booker,,,18:14,0.0,2.0,0.0,2.0,7.0,3.0,5.0,14.0,0.0,0.0,2.0,0.0
0021500226,1610612762,UTA,Utah,203504,Trey Burke,,,8:18,81.9,88.8,-7.0,0.0,0.0,0.0,0.0,0.0,0.0,50.0,0.0,0.0,0.091,91.51,-0.133,2015-11-25T00:00:00,12,UTA,Utah,7-7,21,24,28,29,0,0,0,0,0,0,0,0,0,0,102,0.506,0.72,0.462,19,39,16,0021500226,1610612762,UTA,Utah,Trey Burke,,,8:18,0.0,0.0,0.0,0.0,6.0,0.0,6.0,8.0,0.0,0.0,1.0,0.0
0021500226,1610612762,UTA,Utah,204060,Joe Ingles,,,7:00,88.8,62.7,26.1,0.0,0.0,0.0,0.0,0.286,0.167,0.0,0.0,0.0,0.0,93.94,0.267,2015-11-25T00:00:00,12,UTA,Utah,7-7,21,24,28,29,0,0,0,0,0,0,0,0,0,0,102,0.506,0.72,0.462,19,39,16,0021500226,1610612762,UTA,Utah,Joe Ingles,,,7:00,0.0,0.0,0.0,0.0,2.0,0.0,2.0,2.0,0.0,0.0,0.0,0.0
0021500226,1610612762,UTA,Utah,203187,Chris Johnson,,,6:55,71.8,120.7,-48.9,0.2,1.0,25.0,0.0,0.167,0.077,25.0,0.0,0.0,0.184,102.01,-0.098,2015-11-25T00:00:00,12,UTA,Utah,7-7,21,24,28,29,0,0,0,0,0,0,0,0,0,0,102,0.506,0.72,0.462,19,39,16,0021500226,1610612762,UTA,Utah,Chris Johnson,,,6:55,0.0,0.0,0.0,0.0,2.0,3.0,0.0,8.0,2.0,0.0,2.0,0.0
0021500226,1610612762,UTA,Utah,203481,Jeff Withey,,,1:15,0.0,200.0,-200.0,0.0,0.0,0.0,0.0,0.0,0.0,0.0,0.0,0.0,0.0,96.0,0.0,2015-11-25T00:00:00,12,UTA,Utah,7-7,21,24,28,29,0,0,0,0,0,0,0,0,0,0,102,0.506,0.72,0.462,19,39,16,0021500226,1610612762,UTA,Utah,Jeff Withey,,,1:15,0.0,0.0,0.0,0.0,0.0,0.0,0.0,2.0,0.0,0.0,0.0,0.0
0021500226,1610612762,UTA,Utah,1626168,Trey Lyles,,,2:31,82.0,121.5,-39.6,0.0,0.0,0.0,0.0,0.0,0.0,0.0,1.0,0.82,0.333,124.57,0.273,2015-11-25T00:00:00,12,UTA,Utah,7-7,21,24,28,29,0,0,0,0,0,0,0,0,0,0,102,0.506,0.72,0.462,19,39,16,0021500226,1610612762,UTA,Utah,Trey Lyles,,,2:31,0.0,2.0,0.0,2.0,2.0,0.0,0.0,2.0,0.0,0.0,0.0,1.0
0021500226,1610612762,UTA,Utah,202407,Elijah Millsap,,DNP - Coach's Decision                  ,,,,,,,0.0,,,,,,,0.0,,,2015-11-25T00:00:00,12,UTA,Utah,7-7,21,24,28,29,0,0,0,0,0,0,0,0,0,0,102,0.506,0.72,0.462,19,39,16,0021500226,1610612762,UTA,Utah,Elijah Millsap,,DNP - Coach's Decision                  ,,,,,,,,,,,,,
0021500226,1610612746,LAC,LA,202325,Wesley Johnson,F,,19:42,113.5,124.7,-11.2,0.0,0.0,0.0,0.0,0.071,0.038,60.0,0.0,0.0,0.119,90.09,-0.084,2015-11-25T00:00:00,12,LAC,LA,7-8,23,22,23,23,0,0,0,0,0,0,0,0,0,0,91,0.507,0.647,0.333,18,35,19,0021500226,1610612746,LAC,LA,Wesley Johnson,F,,19:42,0.0,0.0,0.0,0.0,9.0,8.0,2.0,22.0,0.0,0.0,3.0,0.0
0021500226,1610612746,LAC,LA,201933,Blake Griffin,F,,38:41,114.3,113.0,1.4,0.176,1.0,9.6,0.038,0.407,0.226,9.6,0.783,0.794,0.358,90.09,0.304,2015-11-25T00:00:00,12,LAC,LA,7-8,23,22,23,23,0,0,0,0,0,0,0,0,0,0,91,0.507,0.647,0.333,18,35,19,0021500226,1610612746,LAC,LA,Blake Griffin,F,,38:41,8.0,3.0,6.0,18.0,19.0,14.0,6.0,36.0,2.0,0.0,2.0,6.0
0021500226,1610612746,LAC,LA,201599,DeAndre Jordan,C,,31:50,95.1,108.8,-13.8,0.0,0.0,0.0,0.231,0.227,0.229,25.5,0.429,0.457,0.168,92.31,0.093,2015-11-25T00:00:00,12,LAC,LA,7-8,23,22,23,23,0,0,0,0,0,0,0,0,0,0,91,0.507,0.647,0.333,18,35,19,0021500226,1610612746,LAC,LA,DeAndre Jordan,C,,31:50,0.0,2.0,0.0,6.0,20.0,8.0,6.0,30.0,4.0,2.0,3.0,7.0
0021500226,1610612746,LAC,LA,200755,JJ Redick,G,,21:11,97.7,126.0,-28.2,0.059,0.33,10.0,0.0,0.0,0.0,30.0,0.25,0.25,0.21,90.82,-0.1,2015-11-25T00:00:00,12,LAC,LA,7-8,23,22,23,23,0,0,0,0,0,0,0,0,0,0,91,0.507,0.647,0.333,18,35,19,0021500226,1610612746,LAC,LA,JJ Redick,G,,21:11,0.0,0.0,0.0,0.0,10.0,6.0,4.0,22.0,0.0,0.0,5.0,0.0
0021500226,1610612746,LAC,LA,101108,Chris Paul,G,,34:56,106.3,112.6,-6.3,0.4,4.0,30.9,0.069,0.13,0.096,7.7,0.733,0.756,0.236,91.6,0.235,2015-11-25T00:00:00,12,LAC,LA,7-8,23,22,23,23,0,0,0,0,0,0,0,0,0,0,91,0.507,0.647,0.333,18,35,19,0021500226,1610612746,LAC,LA,Chris Paul,G,,34:56,2.0,5.0,3.0,6.0,19.0,10.0,6.0,34.0,0.0,1.0,3.0,2.0
0021500226,1610612746,LAC,LA,2037,Jamal Crawford,,,30:09,99.0,97.6,1.4,0.095,1.0,14.4,0.0,0.04,0.019,14.4,0.111,0.152,0.184,94.01,-0.068,2015-11-25T00:00:00,12,LAC,LA,7-8,23,22,23,23,0,0,0,0,0,0,0,0,0,0,91,0.507,0.647,0.333,18,35,19,0021500226,1610612746,LAC,LA,Jamal Crawford,,,30:09,0.0,1.0,0.0,0.0,16.0,19.0,2.0,28.0,0.0,0.0,1.0,2.0
0021500226,1610612746,LAC,LA,203085,Austin Rivers,,,25:39,102.7,99.7,3.0,0.167,3.0,38.1,0.053,0.105,0.079,12.7,0.333,0.387,0.093,91.58,0.09,2015-11-25T00:00:00,12,LAC,LA,7-8,23,22,23,23,0,0,0,0,0,0,0,0,0,0,91,0.507,0.647,0.333,18,35,19,0021500226,1610612746,LAC,LA,Austin Rivers,,,25:39,1.0,0.0,1.0,2.0,17.0,17.0,4.0,20.0,0.0,1.0,0.0,1.0
0021500226,1610612746,LAC,LA,2746,Josh Smith,,,16:40,101.5,104.8,-3.3,0.125,0.0,11.3,0.0,0.0,0.0,0.0,0.643,0.635,0.242,93.48,0.129,2015-11-25T00:00:00,12,LAC,LA,7-8,23,22,23,23,0,0,0,0,0,0,0,0,0,0,91,0.507,0.647,0.333,18,35,19,0021500226,1610612746,LAC,LA,Josh Smith,,,16:40,1.0,0.0,3.0,6.0,9.0,13.0,0.0,14.0,1.0,0.0,2.0,2.0
0021500226,1610612746,LAC,LA,1718,Paul Pierce,,,8:54,51.0,95.7,-44.7,0.0,0.0,0.0,0.0,0.0,0.0,33.3,0.0,0.0,0.145,95.46,-0.296,2015-11-25T00:00:00,12,LAC,LA,7-8,23,22,23,23,0,0,0,0,0,0,0,0,0,0,91,0.507,0.647,0.333,18,35,19,0021500226,1610612746,LAC,LA,Paul Pierce,,,8:54,0.0,0.0,0.0,0.0,4.0,9.0,0.0,6.0,0.0,0.0,1.0,0.0
0021500226,1610612746,LAC,LA,202362,Lance Stephenson,,,11:31,68.0,97.9,-29.9,0.0,0.0,0.0,0.071,0.111,0.087,50.0,0.0,0.0,0.075,100.08,-0.024,2015-11-25T00:00:00,12,LAC,LA,7-8,23,22,23,23,0,0,0,0,0,0,0,0,0,0,91,0.507,0.647,0.333,18,35,19,0021500226,1610612746,LAC,LA,Lance Stephenson,,,11:31,0.0,0.0,0.0,0.0,7.0,11.0,0.0,8.0,0.0,0.0,1.0,0.0
0021500226,1610612746,LAC,LA,201601,Luc Mbah a Moute,,,0:47,300.0,0.0,300.0,0.0,0.0,0.0,0.0,0.0,0.0,0.0,0.0,0.0,0.0,91.33,-0.5,2015-11-25T00:00:00,12,LAC,LA,7-8,23,22,23,23,0,0,0,0,0,0,0,0,0,0,91,0.507,0.647,0.333,18,35,19,0021500226,1610612746,LAC,LA,Luc Mbah a Moute,,,0:47,0.0,0.0,0.0,0.0,0.0,0.0,0.0,0.0,0.0,0.0,1.0,0.0
0021500226,1610612746,LAC,LA,202332,Cole Aldrich,,DNP - Coach's Decision                  ,,,,,,,0.0,,,,,,,0.0,,,2015-11-25T00:00:00,12,LAC,LA,7-8,23,22,23,23,0,0,0,0,0,0,0,0,0,0,91,0.507,0.647,0.333,18,35,19,0021500226,1610612746,LAC,LA,Cole Aldrich,,DNP - Coach's Decision                  ,,,,,,,,,,,,,
0021500226,1610612746,LAC,LA,203143,Pablo Prigioni,,DNP - Coach's Decision                  ,,,,,,,0.0,,,,,,,0.0,,,2015-11-25T00:00:00,12,LAC,LA,7-8,23,22,23,23,0,0,0,0,0,0,0,0,0,0,91,0.507,0.647,0.333,18,35,19,0021500226,1610612746,LAC,LA,Pablo Prigioni,,DNP - Coach's Decision                  ,,,,,,,,,,,,,
