GAME_ID_x,TEAM_ID_x,TEAM_ABBREVIATION_x,TEAM_CITY_x,PLAYER_ID,PLAYER_NAME_x,START_POSITION_x,COMMENT_x,MIN_x,OFF_RATING,DEF_RATING,NET_RATING,AST_PCT,AST_TOV,AST_RATIO,OREB_PCT,DREB_PCT,REB_PCT,TM_TOV_PCT,EFG_PCT,TS_PCT,USG_PCT,PACE,PIE,GAME_DATE_EST,GAME_SEQUENCE,TEAM_ABBREVIATION_y,TEAM_CITY_NAME,TEAM_WINS_LOSSES,PTS_QTR1,PTS_QTR2,PTS_QTR3,PTS_QTR4,PTS_OT1,PTS_OT2,PTS_OT3,PTS_OT4,PTS_OT5,PTS_OT6,PTS_OT7,PTS_OT8,PTS_OT9,PTS_OT10,PTS,FG_PCT,FT_PCT,FG3_PCT,AST,REB,TOV,GAME_ID_y,TEAM_ID_y,TEAM_ABBREVIATION,TEAM_CITY_y,PLAYER_NAME_y,START_POSITION_y,COMMENT_y,MIN_y,PTS_OFF_TOV,PTS_2ND_CHANCE,PTS_FB,PTS_PAINT,OPP_PTS_OFF_TOV,OPP_PTS_2ND_CHANCE,OPP_PTS_FB,OPP_PTS_PAINT,BLK,BLKA,PF,PFD
0021500224,1610612742,DAL,Dallas,101109,Raymond Felton,F,,37:11,83.8,91.4,-7.6,0.217,5.0,38.5,0.0,0.105,0.056,7.7,0.357,0.357,0.111,87.73,0.069,2015-11-25T00:00:00,10,DAL,Dallas,9-7,18,21,21,23,0,0,0,0,0,0,0,0,0,0,83,0.41,0.75,0.273,21,46,13,0021500224,1610612742,DAL,Dallas,Raymond Felton,F,,37:11,3.0,0.0,0.0,2.0,9.0,4.0,5.0,16.0,0.0,1.0,1.0,0.0
0021500224,1610612742,DAL,Dallas,1717,Dirk Nowitzki,F,,35:24,99.4,108.3,-8.8,0.087,2.0,16.2,0.057,0.333,0.197,8.1,0.625,0.697,0.139,93.4,0.168,2015-11-25T00:00:00,10,DAL,Dallas,9-7,18,21,21,23,0,0,0,0,0,0,0,0,0,0,83,0.41,0.75,0.273,21,46,13,0021500224,1610612742,DAL,Dallas,Dirk Nowitzki,F,,35:24,0.0,0.0,0.0,4.0,10.0,6.0,6.0,14.0,0.0,0.0,2.0,2.0
0021500224,1610612742,DAL,Dallas,2585,Zaza Pachulia,C,,20:47,87.1,109.6,-22.5,0.0,0.0,0.0,0.0,0.0,0.0,17.0,0.25,0.41,0.155,88.0,-0.049,2015-11-25T00:00:00,10,DAL,Dallas,9-7,18,21,21,23,0,0,0,0,0,0,0,0,0,0,83,0.41,0.75,0.273,21,46,13,0021500224,1610612742,DAL,Dallas,Zaza Pachulia,C,,20:47,0.0,0.0,0.0,2.0,2.0,4.0,5.0,16.0,0.0,1.0,4.0,2.0
0021500224,1610612742,DAL,Dallas,202083,Wesley Matthews,G,,36:04,83.9,102.1,-18.2,0.056,0.33,5.0,0.028,0.086,0.056,15.0,0.469,0.469,0.261,88.74,0.039,2015-11-25T00:00:00,10,DAL,Dallas,9-7,18,21,21,23,0,0,0,0,0,0,0,0,0,0,83,0.41,0.75,0.273,21,46,13,0021500224,1610612742,DAL,Dallas,Wesley Matthews,G,,36:04,6.0,0.0,5.0,4.0,10.0,8.0,7.0,24.0,0.0,0.0,3.0,0.0
0021500224,1610612742,DAL,Dallas,101114,Deron Williams,G,,36:25,86.1,97.4,-11.3,0.45,9.0,34.6,0.0,0.139,0.07,3.8,0.25,0.25,0.235,86.94,0.111,2015-11-25T00:00:00,10,DAL,Dallas,9-7,18,21,21,23,0,0,0,0,0,0,0,0,0,0,83,0.41,0.75,0.273,21,46,13,0021500224,1610612742,DAL,Dallas,Deron Williams,G,,36:25,0.0,0.0,2.0,8.0,9.0,8.0,7.0,24.0,1.0,1.0,0.0,0.0
0021500224,1610612742,DAL,Dallas,203939,Dwight Powell,,,12:03,64.0,63.6,0.3,0.0,0.0,0.0,0.071,0.154,0.111,40.0,0.667,0.667,0.193,87.4,0.185,2015-11-25T00:00:00,10,DAL,Dallas,9-7,18,21,21,23,0,0,0,0,0,0,0,0,0,0,83,0.41,0.75,0.273,21,46,13,0021500224,1610612742,DAL,Dallas,Dwight Powell,,,12:03,2.0,0.0,0.0,2.0,0.0,4.0,4.0,12.0,0.0,0.0,1.0,1.0
0021500224,1610612742,DAL,Dallas,201580,JaVale McGee,,,15:50,103.4,87.7,15.6,0.0,0.0,0.0,0.188,0.167,0.176,10.1,0.5,0.507,0.26,91.86,0.146,2015-11-25T00:00:00,10,DAL,Dallas,9-7,18,21,21,23,0,0,0,0,0,0,0,0,0,0,83,0.41,0.75,0.273,21,46,13,0021500224,1610612742,DAL,Dallas,JaVale McGee,,,15:50,2.0,1.0,0.0,6.0,7.0,2.0,3.0,4.0,0.0,1.0,1.0,2.0
0021500224,1610612742,DAL,Dallas,2734,Devin Harris,,,15:53,106.4,101.8,4.6,0.0,0.0,0.0,0.053,0.111,0.081,24.0,0.9,0.87,0.214,98.76,0.067,2015-11-25T00:00:00,10,DAL,Dallas,9-7,18,21,21,23,0,0,0,0,0,0,0,0,0,0,83,0.41,0.75,0.273,21,46,13,0021500224,1610612742,DAL,Dallas,Devin Harris,,,15:53,0.0,2.0,2.0,6.0,1.0,4.0,3.0,4.0,0.0,0.0,6.0,2.0
0021500224,1610612742,DAL,Dallas,1626147,Justin Anderson,,,5:51,109.3,69.2,40.1,0.2,0.0,25.8,0.0,0.286,0.133,0.0,0.0,0.174,0.173,113.39,0.051,2015-11-25T00:00:00,10,DAL,Dallas,9-7,18,21,21,23,0,0,0,0,0,0,0,0,0,0,83,0.41,0.75,0.273,21,46,13,0021500224,1610612742,DAL,Dallas,Justin Anderson,,,5:51,0.0,0.0,0.0,0.0,0.0,0.0,3.0,0.0,0.0,0.0,0.0,1.0
0021500224,1610612742,DAL,Dallas,200826,J.J. Barea,,,12:36,99.7,97.8,1.9,0.375,0.0,30.0,0.0,0.0,0.0,0.0,0.5,0.5,0.225,108.04,0.135,2015-11-25T00:00:00,10,DAL,Dallas,9-7,18,21,21,23,0,0,0,0,0,0,0,0,0,0,83,0.41,0.75,0.273,21,46,13,0021500224,1610612742,DAL,Dallas,J.J. Barea,,,12:36,0.0,0.0,0.0,4.0,1.0,0.0,5.0,4.0,0.0,0.0,1.0,2.0
0021500224,1610612742,DAL,Dallas,101111,Charlie Villanueva,,,11:56,73.6,82.0,-8.3,0.0,0.0,0.0,0.071,0.308,0.185,12.5,0.429,0.429,0.303,98.21,0.119,2015-11-25T00:00:00,10,DAL,Dallas,9-7,18,21,21,23,0,0,0,0,0,0,0,0,0,0,83,0.41,0.75,0.273,21,46,13,0021500224,1610612742,DAL,Dallas,Charlie Villanueva,,,11:56,4.0,0.0,4.0,4.0,1.0,0.0,2.0,2.0,0.0,0.0,2.0,0.0
0021500224,1610612742,DAL,Dallas,202379,Jeremy Evans,,DNP - Coach's Decision                  ,,,,,,,0.0,,,,,,,0.0,,,2015-11-25T00:00:00,10,DAL,Dallas,9-7,18,21,21,23,0,0,0,0,0,0,0,0,0,0,83,0.41,0.75,0.273,21,46,13,0021500224,1610612742,DAL,Dallas,Jeremy Evans,,DNP - Coach's Decision                  ,,,,,,,,,,,,,
0021500224,1610612742,DAL,Dallas,203098,John Jenkins,,DNP - Coach's Decision                  ,,,,,,,0.0,,,,,,,0.0,,,2015-11-25T00:00:00,10,DAL,Dallas,9-7,18,21,21,23,0,0,0,0,0,0,0,0,0,0,83,0.41,0.75,0.273,21,46,13,0021500224,1610612742,DAL,Dallas,John Jenkins,,DNP - Coach's Decision                  ,,,,,,,,,,,,,
0021500224,1610612759,SAS,San Antonio,202695,Kawhi Leonard,F,,40:26,98.0,90.0,7.9,0.278,2.5,20.2,0.1,0.105,0.103,8.1,0.688,0.732,0.231,88.45,0.233,2015-11-25T00:00:00,10,SAS,San Antonio,12-3,24,22,17,25,0,0,0,0,0,0,0,0,0,0,88,0.407,0.737,0.286,23,52,13,0021500224,1610612759,SAS,San Antonio,Kawhi Leonard,F,,40:26,5.0,2.0,0.0,2.0,15.0,1.0,11.0,36.0,0.0,0.0,0.0,5.0
0021500224,1610612759,SAS,San Antonio,200746,LaMarcus Aldridge,F,,34:39,100.1,88.1,12.0,0.059,1.0,4.9,0.156,0.065,0.111,4.9,0.471,0.491,0.265,86.09,0.104,2015-11-25T00:00:00,10,SAS,San Antonio,12-3,24,22,17,25,0,0,0,0,0,0,0,0,0,0,88,0.407,0.737,0.286,23,52,13,0021500224,1610612759,SAS,San Antonio,LaMarcus Aldridge,F,,34:39,0.0,6.0,0.0,8.0,13.0,0.0,9.0,24.0,1.0,1.0,1.0,3.0
0021500224,1610612759,SAS,San Antonio,1495,Tim Duncan,C,,28:09,107.7,84.6,23.1,0.19,2.0,40.0,0.04,0.308,0.176,20.0,0.25,0.25,0.1,91.26,0.088,2015-11-25T00:00:00,10,SAS,San Antonio,12-3,24,22,17,25,0,0,0,0,0,0,0,0,0,0,88,0.407,0.737,0.286,23,52,13,0021500224,1610612759,SAS,San Antonio,Tim Duncan,C,,28:09,0.0,0.0,0.0,2.0,11.0,1.0,3.0,16.0,2.0,0.0,2.0,0.0
0021500224,1610612759,SAS,San Antonio,201980,Danny Green,G,,25:31,94.2,90.1,4.1,0.067,1.0,9.1,0.0,0.207,0.102,9.1,0.333,0.333,0.179,92.91,0.069,2015-11-25T00:00:00,10,SAS,San Antonio,12-3,24,22,17,25,0,0,0,0,0,0,0,0,0,0,88,0.407,0.737,0.286,23,52,13,0021500224,1610612759,SAS,San Antonio,Danny Green,G,,25:31,0.0,0.0,6.0,0.0,10.0,3.0,4.0,24.0,1.0,0.0,1.0,1.0
0021500224,1610612759,SAS,San Antonio,2225,Tony Parker,G,,35:28,101.9,81.8,20.1,0.421,8.0,38.3,0.0,0.235,0.116,4.8,0.636,0.673,0.17,89.95,0.231,2015-11-25T00:00:00,10,SAS,San Antonio,12-3,24,22,17,25,0,0,0,0,0,0,0,0,0,0,88,0.407,0.737,0.286,23,52,13,0021500224,1610612759,SAS,San Antonio,Tony Parker,G,,35:28,2.0,0.0,4.0,10.0,13.0,1.0,7.0,26.0,0.0,0.0,0.0,2.0
0021500224,1610612759,SAS,San Antonio,1938,Manu Ginobili,,,28:32,97.9,89.3,8.6,0.167,0.75,13.3,0.0,0.161,0.083,17.8,0.167,0.29,0.314,95.25,-0.01,2015-11-25T00:00:00,10,SAS,San Antonio,12-3,24,22,17,25,0,0,0,0,0,0,0,0,0,0,88,0.407,0.737,0.286,23,52,13,0021500224,1610612759,SAS,San Antonio,Manu Ginobili,,,28:32,2.0,0.0,0.0,2.0,7.0,2.0,11.0,24.0,0.0,0.0,2.0,6.0
0021500224,1610612759,SAS,San Antonio,201988,Patty Mills,,,16:52,83.2,103.1,-19.8,0.0,0.0,0.0,0.0,0.1,0.051,0.0,0.214,0.214,0.191,96.19,-0.021,2015-11-25T00:00:00,10,SAS,San Antonio,12-3,24,22,17,25,0,0,0,0,0,0,0,0,0,0,88,0.407,0.737,0.286,23,52,13,0021500224,1610612759,SAS,San Antonio,Patty Mills,,,16:52,0.0,0.0,0.0,0.0,6.0,3.0,8.0,22.0,0.0,0.0,2.0,1.0
0021500224,1610612759,SAS,San Antonio,2564,Boris Diaw,,,10:13,78.9,101.8,-22.9,0.143,0.0,50.0,0.154,0.071,0.111,0.0,0.0,0.0,0.043,90.77,0.033,2015-11-25T00:00:00,10,SAS,San Antonio,12-3,24,22,17,25,0,0,0,0,0,0,0,0,0,0,88,0.407,0.737,0.286,23,52,13,0021500224,1610612759,SAS,San Antonio,Boris Diaw,,,10:13,0.0,0.0,0.0,0.0,2.0,2.0,2.0,10.0,0.0,0.0,1.0,0.0
0021500224,1610612759,SAS,San Antonio,2561,David West,,,11:39,89.3,99.7,-10.4,0.0,0.0,0.0,0.0,0.143,0.074,20.5,1.167,1.031,0.19,104.49,0.158,2015-11-25T00:00:00,10,SAS,San Antonio,12-3,24,22,17,25,0,0,0,0,0,0,0,0,0,0,88,0.407,0.737,0.286,23,52,13,0021500224,1610612759,SAS,San Antonio,David West,,,11:39,1.0,0.0,0.0,0.0,4.0,2.0,4.0,16.0,0.0,0.0,2.0,2.0
0021500224,1610612759,SAS,San Antonio,203937,Kyle Anderson,,,1:56,82.0,40.0,42.0,0.0,0.0,0.0,0.0,0.0,0.0,100.0,0.0,0.0,0.17,122.65,0.8,2015-11-25T00:00:00,10,SAS,San Antonio,12-3,24,22,17,25,0,0,0,0,0,0,0,0,0,0,88,0.407,0.737,0.286,23,52,13,0021500224,1610612759,SAS,San Antonio,Kyle Anderson,,,1:56,0.0,0.0,0.0,0.0,2.0,0.0,0.0,0.0,0.0,0.0,1.0,0.0
0021500224,1610612759,SAS,San Antonio,2446,Rasual Butler,,,6:35,73.3,112.5,-39.2,0.0,0.0,0.0,0.0,0.4,0.182,0.0,0.0,0.0,0.073,95.08,0.056,2015-11-25T00:00:00,10,SAS,San Antonio,12-3,24,22,17,25,0,0,0,0,0,0,0,0,0,0,88,0.407,0.737,0.286,23,52,13,0021500224,1610612759,SAS,San Antonio,Rasual Butler,,,6:35,0.0,0.0,0.0,0.0,2.0,0.0,6.0,12.0,0.0,0.0,0.0,1.0
0021500224,1610612759,SAS,San Antonio,203492,Ray McCallum,,DNP - Coach's Decision                  ,,,,,,,0.0,,,,,,,0.0,,,2015-11-25T00:00:00,10,SAS,San Antonio,12-3,24,22,17,25,0,0,0,0,0,0,0,0,0,0,88,0.407,0.737,0.286,23,52,13,0021500224,1610612759,SAS,San Antonio,Ray McCallum,,DNP - Coach's Decision                  ,,,,,,,,,,,,,
0021500224,1610612759,SAS,San Antonio,203613,Jonathon Simmons,,DNP - Coach's Decision                  ,,,,,,,0.0,,,,,,,0.0,,,2015-11-25T00:00:00,10,SAS,San Antonio,12-3,24,22,17,25,0,0,0,0,0,0,0,0,0,0,88,0.407,0.737,0.286,23,52,13,0021500224,1610612759,SAS,San Antonio,Jonathon Simmons,,DNP - Coach's Decision                  ,,,,,,,,,,,,,
