GAME_ID_x,TEAM_ID_x,TEAM_ABBREVIATION_x,TEAM_CITY_x,PLAYER_ID,PLAYER_NAME_x,START_POSITION_x,COMMENT_x,MIN_x,OFF_RATING,DEF_RATING,NET_RATING,AST_PCT,AST_TOV,AST_RATIO,OREB_PCT,DREB_PCT,REB_PCT,TM_TOV_PCT,EFG_PCT,TS_PCT,USG_PCT,PACE,PIE,GAME_DATE_EST,GAME_SEQUENCE,TEAM_ABBREVIATION_y,TEAM_CITY_NAME,TEAM_WINS_LOSSES,PTS_QTR1,PTS_QTR2,PTS_QTR3,PTS_QTR4,PTS_OT1,PTS_OT2,PTS_OT3,PTS_OT4,PTS_OT5,PTS_OT6,PTS_OT7,PTS_OT8,PTS_OT9,PTS_OT10,PTS,FG_PCT,FT_PCT,FG3_PCT,AST,REB,TOV,GAME_ID_y,TEAM_ID_y,TEAM_ABBREVIATION,TEAM_CITY_y,PLAYER_NAME_y,START_POSITION_y,COMMENT_y,MIN_y,PTS_OFF_TOV,PTS_2ND_CHANCE,PTS_FB,PTS_PAINT,OPP_PTS_OFF_TOV,OPP_PTS_2ND_CHANCE,OPP_PTS_FB,OPP_PTS_PAINT,BLK,BLKA,PF,PFD
0021500221,1610612758,SAC,Sacramento,200752,Rudy Gay,F,,36:05,134.4,112.4,22.0,0.1,0.0,7.4,0.038,0.133,0.089,0.0,0.667,0.721,0.31,99.85,0.171,2015-11-25T00:00:00,7,SAC,Sacramento,6-10,40,29,27,33,0,0,0,0,0,0,0,0,0,0,129,0.571,0.838,0.435,23,42,8,0021500221,1610612758,SAC,Sacramento,Rudy Gay,F,,36:05,8.0,2.0,4.0,12.0,8.0,6.0,25.0,40.0,1.0,1.0,4.0,6.0
0021500221,1610612758,SAC,Sacramento,1626161,Willie Cauley-Stein,F,,23:23,133.0,125.8,7.2,0.0,0.0,0.0,0.063,0.211,0.143,0.0,0.75,0.717,0.097,96.11,0.074,2015-11-25T00:00:00,7,SAC,Sacramento,6-10,40,29,27,33,0,0,0,0,0,0,0,0,0,0,129,0.571,0.838,0.435,23,42,8,0021500221,1610612758,SAC,Sacramento,Willie Cauley-Stein,F,,23:23,0.0,2.0,1.0,6.0,6.0,6.0,11.0,30.0,3.0,1.0,2.0,1.0
0021500221,1610612758,SAC,Sacramento,201585,Kosta Koufos,C,,35:08,138.3,121.0,17.2,0.0,0.0,0.0,0.13,0.182,0.161,0.0,0.625,0.717,0.128,100.2,0.097,2015-11-25T00:00:00,7,SAC,Sacramento,6-10,40,29,27,33,0,0,0,0,0,0,0,0,0,0,129,0.571,0.838,0.435,23,42,8,0021500221,1610612758,SAC,Sacramento,Kosta Koufos,C,,35:08,0.0,4.0,0.0,8.0,11.0,8.0,26.0,38.0,2.0,0.0,2.0,2.0
0021500221,1610612758,SAC,Sacramento,203463,Ben McLemore,G,,27:14,134.2,118.4,15.8,0.042,0.33,9.3,0.0,0.2,0.103,27.9,0.4,0.592,0.169,96.52,0.044,2015-11-25T00:00:00,7,SAC,Sacramento,6-10,40,29,27,33,0,0,0,0,0,0,0,0,0,0,129,0.571,0.838,0.435,23,42,8,0021500221,1610612758,SAC,Sacramento,Ben McLemore,G,,27:14,2.0,0.0,6.0,4.0,8.0,6.0,19.0,30.0,0.0,1.0,4.0,2.0
0021500221,1610612758,SAC,Sacramento,200765,Rajon Rondo,G,,38:32,138.3,115.7,22.6,0.419,3.25,48.1,0.0,0.243,0.145,14.8,0.5,0.5,0.167,98.33,0.11,2015-11-25T00:00:00,7,SAC,Sacramento,6-10,40,29,27,33,0,0,0,0,0,0,0,0,0,0,129,0.571,0.838,0.435,23,42,8,0021500221,1610612758,SAC,Sacramento,Rajon Rondo,G,,38:32,2.0,2.0,0.0,8.0,11.0,8.0,25.0,40.0,1.0,2.0,2.0,2.0
0021500221,1610612758,SAC,Sacramento,201956,Omri Casspi,,,30:34,130.2,103.6,26.6,0.13,0.0,20.5,0.043,0.182,0.125,0.0,0.833,0.816,0.192,96.04,0.17,2015-11-25T00:00:00,7,SAC,Sacramento,6-10,40,29,27,33,0,0,0,0,0,0,0,0,0,0,129,0.571,0.838,0.435,23,42,8,0021500221,1610612758,SAC,Sacramento,Omri Casspi,,,30:34,0.0,0.0,1.0,6.0,5.0,10.0,15.0,28.0,0.0,1.0,3.0,3.0
0021500221,1610612758,SAC,Sacramento,201158,Marco Belinelli,,,23:01,135.5,127.0,8.5,0.067,0.0,7.6,0.0,0.04,0.023,0.0,0.65,0.697,0.248,100.98,0.121,2015-11-25T00:00:00,7,SAC,Sacramento,6-10,40,29,27,33,0,0,0,0,0,0,0,0,0,0,129,0.571,0.838,0.435,23,42,8,0021500221,1610612758,SAC,Sacramento,Marco Belinelli,,,23:01,6.0,0.0,2.0,2.0,3.0,10.0,12.0,28.0,0.0,0.0,0.0,2.0
0021500221,1610612758,SAC,Sacramento,201954,Darren Collison,,,26:04,137.4,116.9,20.4,0.176,3.0,17.6,0.053,0.036,0.043,5.9,0.6,0.688,0.267,95.64,0.105,2015-11-25T00:00:00,7,SAC,Sacramento,6-10,40,29,27,33,0,0,0,0,0,0,0,0,0,0,129,0.571,0.838,0.435,23,42,8,0021500221,1610612758,SAC,Sacramento,Darren Collison,,,26:04,0.0,0.0,2.0,0.0,3.0,6.0,7.0,26.0,0.0,1.0,2.0,4.0
0021500221,1610612758,SAC,Sacramento,203112,Quincy Acy,,DNP - Coach's Decision                  ,,,,,,,0.0,,,,,,,0.0,,,2015-11-25T00:00:00,7,SAC,Sacramento,6-10,40,29,27,33,0,0,0,0,0,0,0,0,0,0,129,0.571,0.838,0.435,23,42,8,0021500221,1610612758,SAC,Sacramento,Quincy Acy,,DNP - Coach's Decision                  ,,,,,,,,,,,,,
0021500221,1610612758,SAC,Sacramento,202341,James Anderson,,DNP - Coach's Decision                  ,,,,,,,0.0,,,,,,,0.0,,,2015-11-25T00:00:00,7,SAC,Sacramento,6-10,40,29,27,33,0,0,0,0,0,0,0,0,0,0,129,0.571,0.838,0.435,23,42,8,0021500221,1610612758,SAC,Sacramento,James Anderson,,DNP - Coach's Decision                  ,,,,,,,,,,,,,
0021500221,1610612758,SAC,Sacramento,202326,DeMarcus Cousins,,DNP - Coach's Decision                  ,,,,,,,0.0,,,,,,,0.0,,,2015-11-25T00:00:00,7,SAC,Sacramento,6-10,40,29,27,33,0,0,0,0,0,0,0,0,0,0,129,0.571,0.838,0.435,23,42,8,0021500221,1610612758,SAC,Sacramento,DeMarcus Cousins,,DNP - Coach's Decision                  ,,,,,,,,,,,,,
0021500221,1610612758,SAC,Sacramento,203552,Seth Curry,,DNP - Coach's Decision                  ,,,,,,,0.0,,,,,,,0.0,,,2015-11-25T00:00:00,7,SAC,Sacramento,6-10,40,29,27,33,0,0,0,0,0,0,0,0,0,0,129,0.571,0.838,0.435,23,42,8,0021500221,1610612758,SAC,Sacramento,Seth Curry,,DNP - Coach's Decision                  ,,,,,,,,,,,,,
0021500221,1610612758,SAC,Sacramento,203961,Eric Moreland,,DNP - Coach's Decision                  ,,,,,,,0.0,,,,,,,0.0,,,2015-11-25T00:00:00,7,SAC,Sacramento,6-10,40,29,27,33,0,0,0,0,0,0,0,0,0,0,129,0.571,0.838,0.435,23,42,8,0021500221,1610612758,SAC,Sacramento,Eric Moreland,,DNP - Coach's Decision                  ,,,,,,,,,,,,,
0021500221,1610612749,MIL,Milwaukee,203507,Giannis Antetokounmpo,F,,30:19,119.6,131.7,-12.0,0.1,0.0,11.1,0.08,0.136,0.106,0.0,0.577,0.653,0.232,98.44,0.103,2015-11-25T00:00:00,7,MIL,Milwaukee,6-9,33,33,26,26,0,0,0,0,0,0,0,0,0,0,118,0.477,0.778,0.419,30,37,11,0021500221,1610612749,MIL,Milwaukee,Giannis Antetokounmpo,F,,30:19,0.0,6.0,2.0,12.0,12.0,10.0,9.0,30.0,2.0,2.0,6.0,5.0
0021500221,1610612749,MIL,Milwaukee,203953,Jabari Parker,F,,21:11,117.9,145.8,-27.9,0.176,3.0,27.9,0.0,0.182,0.071,9.3,0.6,0.74,0.162,97.57,0.112,2015-11-25T00:00:00,7,MIL,Milwaukee,6-9,33,33,26,26,0,0,0,0,0,0,0,0,0,0,118,0.477,0.778,0.419,30,37,11,0021500221,1610612749,MIL,Milwaukee,Jabari Parker,F,,21:11,4.0,0.0,4.0,6.0,8.0,8.0,11.0,32.0,0.0,1.0,0.0,3.0
0021500221,1610612749,MIL,Milwaukee,202328,Greg Monroe,C,,28:43,116.9,132.5,-15.6,0.15,3.0,18.9,0.0,0.35,0.159,6.3,0.455,0.463,0.206,100.69,0.075,2015-11-25T00:00:00,7,MIL,Milwaukee,6-9,33,33,26,26,0,0,0,0,0,0,0,0,0,0,118,0.477,0.778,0.419,30,37,11,0021500221,1610612749,MIL,Milwaukee,Greg Monroe,C,,28:43,0.0,0.0,2.0,10.0,12.0,8.0,11.0,26.0,4.0,2.0,4.0,1.0
0021500221,1610612749,MIL,Milwaukee,203114,Khris Middleton,G,,24:15,122.7,144.4,-21.7,0.4,6.0,26.7,0.042,0.067,0.051,4.5,0.7,0.68,0.276,104.75,0.11,2015-11-25T00:00:00,7,MIL,Milwaukee,6-9,33,33,26,26,0,0,0,0,0,0,0,0,0,0,118,0.477,0.778,0.419,30,37,11,0021500221,1610612749,MIL,Milwaukee,Khris Middleton,G,,24:15,2.0,0.0,8.0,2.0,8.0,6.0,12.0,32.0,0.0,0.0,5.0,2.0
0021500221,1610612749,MIL,Milwaukee,203487,Michael Carter-Williams,G,,27:37,101.8,148.4,-46.6,0.136,0.75,19.0,0.0,0.0,0.0,25.4,0.0,0.228,0.203,95.77,-0.029,2015-11-25T00:00:00,7,MIL,Milwaukee,6-9,33,33,26,26,0,0,0,0,0,0,0,0,0,0,118,0.477,0.778,0.419,30,37,11,0021500221,1610612749,MIL,Milwaukee,Michael Carter-Williams,G,,27:37,2.0,0.0,2.0,0.0,12.0,8.0,14.0,38.0,0.0,0.0,1.0,2.0
0021500221,1610612749,MIL,Milwaukee,203089,John Henson,,,19:17,117.1,140.1,-23.0,0.0,0.0,0.0,0.286,0.357,0.314,8.9,0.75,0.735,0.232,94.19,0.184,2015-11-25T00:00:00,7,MIL,Milwaukee,6-9,33,33,26,26,0,0,0,0,0,0,0,0,0,0,118,0.477,0.778,0.419,30,37,11,0021500221,1610612749,MIL,Milwaukee,John Henson,,,19:17,0.0,6.0,0.0,12.0,6.0,2.0,5.0,20.0,1.0,0.0,1.0,3.0
0021500221,1610612749,MIL,Milwaukee,201564,O.J. Mayo,,,29:22,115.2,131.5,-16.3,0.105,0.0,11.8,0.0,0.125,0.056,0.0,0.4,0.4,0.224,96.83,0.043,2015-11-25T00:00:00,7,MIL,Milwaukee,6-9,33,33,26,26,0,0,0,0,0,0,0,0,0,0,118,0.477,0.778,0.419,30,37,11,0021500221,1610612749,MIL,Milwaukee,O.J. Mayo,,,29:22,0.0,0.0,2.0,4.0,10.0,2.0,6.0,18.0,0.0,1.0,1.0,0.0
0021500221,1610612749,MIL,Milwaukee,201573,Jerryd Bayless,,,35:55,107.9,127.6,-19.6,0.174,0.0,30.0,0.027,0.111,0.063,0.0,0.688,0.697,0.113,96.14,0.114,2015-11-25T00:00:00,7,MIL,Milwaukee,6-9,33,33,26,26,0,0,0,0,0,0,0,0,0,0,118,0.477,0.778,0.419,30,37,11,0021500221,1610612749,MIL,Milwaukee,Jerryd Bayless,,,35:55,3.0,0.0,5.0,2.0,12.0,4.0,8.0,22.0,0.0,1.0,2.0,2.0
0021500221,1610612749,MIL,Milwaukee,202349,Greivis Vasquez,,,15:47,133.2,121.0,12.2,0.583,2.33,48.5,0.0,0.125,0.069,20.8,1.0,1.014,0.205,96.83,0.161,2015-11-25T00:00:00,7,MIL,Milwaukee,6-9,33,33,26,26,0,0,0,0,0,0,0,0,0,0,118,0.477,0.778,0.419,30,37,11,0021500221,1610612749,MIL,Milwaukee,Greivis Vasquez,,,15:47,0.0,0.0,3.0,2.0,6.0,2.0,2.0,8.0,0.0,0.0,1.0,1.0
0021500221,1610612749,MIL,Milwaukee,203142,Chris Copeland,,,7:34,153.2,126.9,26.3,0.0,0.0,0.0,0.0,0.125,0.071,0.0,0.5,0.5,0.109,101.75,0.019,2015-11-25T00:00:00,7,MIL,Milwaukee,6-9,33,33,26,26,0,0,0,0,0,0,0,0,0,0,118,0.477,0.778,0.419,30,37,11,0021500221,1610612749,MIL,Milwaukee,Chris Copeland,,,7:34,0.0,0.0,0.0,2.0,4.0,0.0,2.0,4.0,0.0,0.0,1.0,0.0
0021500221,1610612749,MIL,Milwaukee,203948,Johnny O'Bryant III,,DNP - Coach's Decision                  ,,,,,,,0.0,,,,,,,0.0,,,2015-11-25T00:00:00,7,MIL,Milwaukee,6-9,33,33,26,26,0,0,0,0,0,0,0,0,0,0,118,0.477,0.778,0.419,30,37,11,0021500221,1610612749,MIL,Milwaukee,Johnny O'Bryant III,,DNP - Coach's Decision                  ,,,,,,,,,,,,,
0021500221,1610612749,MIL,Milwaukee,203101,Miles Plumlee,,DNP - Coach's Decision                  ,,,,,,,0.0,,,,,,,0.0,,,2015-11-25T00:00:00,7,MIL,Milwaukee,6-9,33,33,26,26,0,0,0,0,0,0,0,0,0,0,118,0.477,0.778,0.419,30,37,11,0021500221,1610612749,MIL,Milwaukee,Miles Plumlee,,DNP - Coach's Decision                  ,,,,,,,,,,,,,
0021500221,1610612749,MIL,Milwaukee,1626173,Rashad Vaughn,,DNP - Coach's Decision                  ,,,,,,,0.0,,,,,,,0.0,,,2015-11-25T00:00:00,7,MIL,Milwaukee,6-9,33,33,26,26,0,0,0,0,0,0,0,0,0,0,118,0.477,0.778,0.419,30,37,11,0021500221,1610612749,MIL,Milwaukee,Rashad Vaughn,,DNP - Coach's Decision                  ,,,,,,,,,,,,,
