GAME_ID_x,TEAM_ID_x,TEAM_ABBREVIATION_x,TEAM_CITY_x,PLAYER_ID,PLAYER_NAME_x,START_POSITION_x,COMMENT_x,MIN_x,OFF_RATING,DEF_RATING,NET_RATING,AST_PCT,AST_TOV,AST_RATIO,OREB_PCT,DREB_PCT,REB_PCT,TM_TOV_PCT,EFG_PCT,TS_PCT,USG_PCT,PACE,PIE,GAME_DATE_EST,GAME_SEQUENCE,TEAM_ABBREVIATION_y,TEAM_CITY_NAME,TEAM_WINS_LOSSES,PTS_QTR1,PTS_QTR2,PTS_QTR3,PTS_QTR4,PTS_OT1,PTS_OT2,PTS_OT3,PTS_OT4,PTS_OT5,PTS_OT6,PTS_OT7,PTS_OT8,PTS_OT9,PTS_OT10,PTS,FG_PCT,FT_PCT,FG3_PCT,AST,REB,TOV,GAME_ID_y,TEAM_ID_y,TEAM_ABBREVIATION,TEAM_CITY_y,PLAYER_NAME_y,START_POSITION_y,COMMENT_y,MIN_y,PTS_OFF_TOV,PTS_2ND_CHANCE,PTS_FB,PTS_PAINT,OPP_PTS_OFF_TOV,OPP_PTS_2ND_CHANCE,OPP_PTS_FB,OPP_PTS_PAINT,BLK,BLKA,PF,PFD
0021500217,1610612755,PHI,Philadelphia,203496,Robert Covington,F,,35:27,72.7,79.8,-7.1,0.0,0.0,0.0,0.077,0.256,0.171,18.8,0.313,0.318,0.256,104.79,0.077,2015-11-25T00:00:00,3,PHI,Philadelphia,0-16,24,23,15,18,0,0,0,0,0,0,0,0,0,0,80,0.373,0.733,0.259,12,50,18,0021500217,1610612755,PHI,Philadelphia,Robert Covington,F,,35:27,7.0,2.0,3.0,4.0,13.0,14.0,5.0,20.0,2.0,3.0,5.0,1.0
0021500217,1610612755,PHI,Philadelphia,203457,Nerlens Noel,F,,34:04,69.7,92.9,-23.2,0.111,2.0,18.4,0.026,0.206,0.111,9.2,0.143,0.19,0.116,101.83,0.021,2015-11-25T00:00:00,3,PHI,Philadelphia,0-16,24,23,15,18,0,0,0,0,0,0,0,0,0,0,80,0.373,0.733,0.259,12,50,18,0021500217,1610612755,PHI,Philadelphia,Nerlens Noel,F,,34:04,0.0,2.0,1.0,2.0,16.0,12.0,5.0,22.0,1.0,1.0,3.0,2.0
0021500217,1610612755,PHI,Philadelphia,1626143,Jahlil Okafor,C,,35:55,76.4,82.1,-5.7,0.063,0.33,4.3,0.0,0.225,0.117,12.9,0.412,0.495,0.268,106.27,0.139,2015-11-25T00:00:00,3,PHI,Philadelphia,0-16,24,23,15,18,0,0,0,0,0,0,0,0,0,0,80,0.373,0.733,0.259,12,50,18,0021500217,1610612755,PHI,Philadelphia,Jahlil Okafor,C,,35:55,2.0,0.0,2.0,10.0,13.0,13.0,8.0,22.0,4.0,0.0,4.0,4.0
0021500217,1610612755,PHI,Philadelphia,203477,Isaiah Canaan,G,,32:22,87.7,87.3,0.4,0.111,1.0,13.6,0.0,0.135,0.07,13.6,0.444,0.558,0.179,100.89,0.102,2015-11-25T00:00:00,3,PHI,Philadelphia,0-16,24,23,15,18,0,0,0,0,0,0,0,0,0,0,80,0.373,0.733,0.259,12,50,18,0021500217,1610612755,PHI,Philadelphia,Isaiah Canaan,G,,32:22,2.0,0.0,2.0,2.0,13.0,11.0,8.0,24.0,2.0,0.0,2.0,2.0
0021500217,1610612755,PHI,Philadelphia,204456,T.J. McConnell,G,,20:20,77.9,91.2,-13.3,0.1,0.25,11.1,0.04,0.105,0.068,44.4,0.75,0.75,0.168,102.01,0.072,2015-11-25T00:00:00,3,PHI,Philadelphia,0-16,24,23,15,18,0,0,0,0,0,0,0,0,0,0,80,0.373,0.733,0.259,12,50,18,0021500217,1610612755,PHI,Philadelphia,T.J. McConnell,G,,20:20,0.0,0.0,0.0,2.0,6.0,5.0,3.0,14.0,1.0,0.0,1.0,0.0
0021500217,1610612755,PHI,Philadelphia,203138,Hollis Thompson,,,32:57,78.1,71.2,6.9,0.0,0.0,0.0,0.0,0.049,0.027,0.0,0.682,0.656,0.151,105.47,0.138,2015-11-25T00:00:00,3,PHI,Philadelphia,0-16,24,23,15,18,0,0,0,0,0,0,0,0,0,0,80,0.373,0.733,0.259,12,50,18,0021500217,1610612755,PHI,Philadelphia,Hollis Thompson,,,32:57,0.0,0.0,3.0,6.0,12.0,11.0,5.0,14.0,1.0,0.0,2.0,1.0
0021500217,1610612755,PHI,Philadelphia,203924,Jerami Grant,,,21:52,87.9,77.6,10.3,0.167,1.0,18.2,0.095,0.136,0.116,18.2,0.429,0.429,0.195,97.08,0.125,2015-11-25T00:00:00,3,PHI,Philadelphia,0-16,24,23,15,18,0,0,0,0,0,0,0,0,0,0,80,0.373,0.733,0.259,12,50,18,0021500217,1610612755,PHI,Philadelphia,Jerami Grant,,,21:52,0.0,4.0,0.0,4.0,3.0,5.0,3.0,8.0,2.0,0.0,2.0,1.0
0021500217,1610612755,PHI,Philadelphia,203960,JaKarr Sampson,,,9:05,97.3,42.5,54.8,0.0,0.0,0.0,0.0,0.091,0.053,0.0,0.25,0.25,0.217,105.52,-0.042,2015-11-25T00:00:00,3,PHI,Philadelphia,0-16,24,23,15,18,0,0,0,0,0,0,0,0,0,0,80,0.373,0.733,0.259,12,50,18,0021500217,1610612755,PHI,Philadelphia,JaKarr Sampson,,,9:05,0.0,0.0,2.0,2.0,1.0,2.0,0.0,0.0,1.0,1.0,1.0,1.0
0021500217,1610612755,PHI,Philadelphia,203515,Phil Pressey,,,17:59,80.9,69.5,11.4,0.4,2.0,28.6,0.0,0.13,0.077,14.3,0.375,0.375,0.242,104.95,0.203,2015-11-25T00:00:00,3,PHI,Philadelphia,0-16,24,23,15,18,0,0,0,0,0,0,0,0,0,0,80,0.373,0.733,0.259,12,50,18,0021500217,1610612755,PHI,Philadelphia,Phil Pressey,,,17:59,4.0,0.0,4.0,6.0,3.0,7.0,3.0,6.0,0.0,1.0,1.0,0.0
0021500217,1610612755,PHI,Philadelphia,1626158,Richaun Holmes,,DNP - Coach's Decision                  ,,,,,,,0.0,,,,,,,0.0,,,2015-11-25T00:00:00,3,PHI,Philadelphia,0-16,24,23,15,18,0,0,0,0,0,0,0,0,0,0,80,0.373,0.733,0.259,12,50,18,0021500217,1610612755,PHI,Philadelphia,Richaun Holmes,,DNP - Coach's Decision                  ,,,,,,,,,,,,,
0021500217,1610612755,PHI,Philadelphia,201171,Carl Landry,,DND - Right Wrist Injury                ,,,,,,,0.0,,,,,,,0.0,,,2015-11-25T00:00:00,3,PHI,Philadelphia,0-16,24,23,15,18,0,0,0,0,0,0,0,0,0,0,80,0.373,0.733,0.259,12,50,18,0021500217,1610612755,PHI,Philadelphia,Carl Landry,,DND - Right Wrist Injury                ,,,,,,,,,,,,,
0021500217,1610612755,PHI,Philadelphia,203917,Nik Stauskas,,DND - Left Knee Contusion               ,,,,,,,0.0,,,,,,,0.0,,,2015-11-25T00:00:00,3,PHI,Philadelphia,0-16,24,23,15,18,0,0,0,0,0,0,0,0,0,0,80,0.373,0.733,0.259,12,50,18,0021500217,1610612755,PHI,Philadelphia,Nik Stauskas,,DND - Left Knee Contusion               ,,,,,,,,,,,,,
0021500217,1610612755,PHI,Philadelphia,1626174,Christian Wood,,DNP - Coach's Decision                  ,,,,,,,0.0,,,,,,,0.0,,,2015-11-25T00:00:00,3,PHI,Philadelphia,0-16,24,23,15,18,0,0,0,0,0,0,0,0,0,0,80,0.373,0.733,0.259,12,50,18,0021500217,1610612755,PHI,Philadelphia,Christian Wood,,DNP - Coach's Decision                  ,,,,,,,,,,,,,
0021500217,1610612738,BOS,Boston,203109,Jae Crowder,F,,27:27,78.0,80.6,-2.7,0.143,1.0,12.6,0.088,0.172,0.127,12.6,0.364,0.337,0.203,103.66,0.096,2015-11-25T00:00:00,3,BOS,Boston,8-7,26,14,17,27,0,0,0,0,0,0,0,0,0,0,84,0.341,0.722,0.31,18,54,16,0021500217,1610612738,BOS,Boston,Jae Crowder,F,,27:27,3.0,0.0,0.0,2.0,7.0,6.0,11.0,24.0,1.0,3.0,0.0,1.0
0021500217,1610612738,BOS,Boston,101161,Amir Johnson,F,,24:50,96.5,83.3,13.2,0.105,0.67,22.2,0.077,0.222,0.151,33.3,0.75,0.75,0.121,100.78,0.124,2015-11-25T00:00:00,3,BOS,Boston,8-7,26,14,17,27,0,0,0,0,0,0,0,0,0,0,84,0.341,0.722,0.31,18,54,16,0021500217,1610612738,BOS,Boston,Amir Johnson,F,,24:50,0.0,4.0,0.0,6.0,4.0,4.0,3.0,14.0,1.0,0.0,2.0,2.0
0021500217,1610612738,BOS,Boston,203096,Jared Sullinger,C,,32:23,90.6,76.0,14.6,0.143,3.0,18.8,0.097,0.343,0.227,6.3,0.375,0.375,0.174,102.22,0.144,2015-11-25T00:00:00,3,BOS,Boston,8-7,26,14,17,27,0,0,0,0,0,0,0,0,0,0,84,0.341,0.722,0.31,18,54,16,0021500217,1610612738,BOS,Boston,Jared Sullinger,C,,32:23,2.0,2.0,0.0,4.0,9.0,6.0,8.0,22.0,1.0,1.0,3.0,0.0
0021500217,1610612738,BOS,Boston,202340,Avery Bradley,G,,36:58,100.8,81.8,19.0,0.037,1.0,5.9,0.0,0.025,0.013,5.9,0.333,0.333,0.185,100.14,0.0,2015-11-25T00:00:00,3,BOS,Boston,8-7,26,14,17,27,0,0,0,0,0,0,0,0,0,0,84,0.341,0.722,0.31,18,54,16,0021500217,1610612738,BOS,Boston,Avery Bradley,G,,36:58,0.0,0.0,3.0,2.0,7.0,8.0,13.0,24.0,0.0,1.0,2.0,2.0
0021500217,1610612738,BOS,Boston,202738,Isaiah Thomas,G,,38:30,94.8,78.2,16.6,0.316,2.0,18.9,0.0,0.098,0.051,9.4,0.619,0.659,0.289,99.89,0.226,2015-11-25T00:00:00,3,BOS,Boston,8-7,26,14,17,27,0,0,0,0,0,0,0,0,0,0,84,0.341,0.722,0.31,18,54,16,0021500217,1610612738,BOS,Boston,Isaiah Thomas,G,,38:30,10.0,6.0,5.0,6.0,9.0,8.0,10.0,28.0,0.0,3.0,1.0,7.0
0021500217,1610612738,BOS,Boston,202323,Evan Turner,,,35:59,70.7,70.5,0.2,0.214,1.0,11.6,0.0,0.257,0.117,11.6,0.333,0.405,0.258,104.79,0.18,2015-11-25T00:00:00,3,BOS,Boston,8-7,26,14,17,27,0,0,0,0,0,0,0,0,0,0,84,0.341,0.722,0.31,18,54,16,0021500217,1610612738,BOS,Boston,Evan Turner,,,35:59,0.0,2.0,0.0,6.0,10.0,2.0,13.0,26.0,1.0,2.0,0.0,2.0
0021500217,1610612738,BOS,Boston,203482,Kelly Olynyk,,,14:24,58.4,92.1,-33.7,0.2,0.0,12.9,0.095,0.071,0.086,0.0,0.0,0.222,0.175,103.07,0.018,2015-11-25T00:00:00,3,BOS,Boston,8-7,26,14,17,27,0,0,0,0,0,0,0,0,0,0,84,0.341,0.722,0.31,18,54,16,0021500217,1610612738,BOS,Boston,Kelly Olynyk,,,14:24,1.0,2.0,0.0,0.0,6.0,2.0,9.0,14.0,1.0,2.0,0.0,4.0
0021500217,1610612738,BOS,Boston,1626154,RJ Hunter,,,8:44,23.2,73.5,-50.3,0.0,0.0,0.0,0.0,0.25,0.095,33.3,0.0,0.0,0.122,118.94,1.333,2015-11-25T00:00:00,3,BOS,Boston,8-7,26,14,17,27,0,0,0,0,0,0,0,0,0,0,84,0.341,0.722,0.31,18,54,16,0021500217,1610612738,BOS,Boston,RJ Hunter,,,8:44,0.0,0.0,0.0,0.0,8.0,0.0,4.0,12.0,0.0,0.0,1.0,0.0
0021500217,1610612738,BOS,Boston,101135,David Lee,,,4:37,37.6,64.3,-26.7,0.0,0.0,0.0,0.0,0.25,0.1,0.0,0.0,0.0,0.162,119.98,-0.333,2015-11-25T00:00:00,3,BOS,Boston,8-7,26,14,17,27,0,0,0,0,0,0,0,0,0,0,84,0.341,0.722,0.31,18,54,16,0021500217,1610612738,BOS,Boston,David Lee,,,4:37,0.0,0.0,0.0,0.0,6.0,0.0,4.0,8.0,0.0,1.0,0.0,2.0
0021500217,1610612738,BOS,Boston,1626179,Terry Rozier,,,2:22,59.2,62.1,-2.9,0.0,0.0,0.0,0.5,0.0,0.25,66.7,0.0,0.0,0.387,133.86,-2.5,2015-11-25T00:00:00,3,BOS,Boston,8-7,26,14,17,27,0,0,0,0,0,0,0,0,0,0,84,0.341,0.722,0.31,18,54,16,0021500217,1610612738,BOS,Boston,Terry Rozier,,,2:22,0.0,0.0,0.0,0.0,4.0,0.0,2.0,4.0,0.0,1.0,0.0,0.0
0021500217,1610612738,BOS,Boston,201973,Jonas Jerebko,,,7:54,16.0,70.6,-54.6,0.0,0.0,0.0,0.0,0.125,0.043,0.0,0.0,0.0,0.046,108.64,-0.25,2015-11-25T00:00:00,3,BOS,Boston,8-7,26,14,17,27,0,0,0,0,0,0,0,0,0,0,84,0.341,0.722,0.31,18,54,16,0021500217,1610612738,BOS,Boston,Jonas Jerebko,,,7:54,0.0,0.0,0.0,0.0,2.0,0.0,5.0,6.0,0.0,0.0,1.0,0.0
0021500217,1610612738,BOS,Boston,203092,Tyler Zeller,,,5:52,91.9,114.8,-22.8,0.0,0.0,0.0,0.0,0.143,0.091,0.0,0.0,1.136,0.081,94.42,0.071,2015-11-25T00:00:00,3,BOS,Boston,8-7,26,14,17,27,0,0,0,0,0,0,0,0,0,0,84,0.341,0.722,0.31,18,54,16,0021500217,1610612738,BOS,Boston,Tyler Zeller,,,5:52,0.0,0.0,0.0,0.0,3.0,4.0,3.0,8.0,1.0,0.0,2.0,1.0
0021500217,1610612738,BOS,Boston,203923,James Young,,DNP - Coach's Decision                  ,,,,,,,0.0,,,,,,,0.0,,,2015-11-25T00:00:00,3,BOS,Boston,8-7,26,14,17,27,0,0,0,0,0,0,0,0,0,0,84,0.341,0.722,0.31,18,54,16,0021500217,1610612738,BOS,Boston,James Young,,DNP - Coach's Decision                  ,,,,,,,,,,,,,
