GAME_ID_x,TEAM_ID_x,TEAM_ABBREVIATION_x,TEAM_CITY_x,PLAYER_ID,PLAYER_NAME_x,START_POSITION_x,COMMENT_x,MIN_x,OFF_RATING,DEF_RATING,NET_RATING,AST_PCT,AST_TOV,AST_RATIO,OREB_PCT,DREB_PCT,REB_PCT,TM_TOV_PCT,EFG_PCT,TS_PCT,USG_PCT,PACE,PIE,GAME_DATE_EST,GAME_SEQUENCE,TEAM_ABBREVIATION_y,TEAM_CITY_NAME,TEAM_WINS_LOSSES,PTS_QTR1,PTS_QTR2,PTS_QTR3,PTS_QTR4,PTS_OT1,PTS_OT2,PTS_OT3,PTS_OT4,PTS_OT5,PTS_OT6,PTS_OT7,PTS_OT8,PTS_OT9,PTS_OT10,PTS,FG_PCT,FT_PCT,FG3_PCT,AST,REB,TOV,GAME_ID_y,TEAM_ID_y,TEAM_ABBREVIATION,TEAM_CITY_y,PLAYER_NAME_y,START_POSITION_y,COMMENT_y,MIN_y,PTS_OFF_TOV,PTS_2ND_CHANCE,PTS_FB,PTS_PAINT,OPP_PTS_OFF_TOV,OPP_PTS_2ND_CHANCE,OPP_PTS_FB,OPP_PTS_PAINT,BLK,BLKA,PF,PFD
0021500228,1610612749,MIL,Milwaukee,203507,Giannis Antetokounmpo,F,,31:36,94.0,120.2,-26.2,0.25,1.33,21.8,0.0,0.143,0.077,16.4,0.7,0.751,0.196,104.96,0.127,2015-11-27T00:00:00,2,MIL,Milwaukee,6-10,22,21,22,25,0,0,0,0,0,0,0,0,0,0,90,0.419,0.909,0.308,20,38,21,0021500228,1610612749,MIL,Milwaukee,Giannis Antetokounmpo,F,,31:36,7,0,9,14,24,7,13,26,0,0,4,2
0021500228,1610612749,MIL,Milwaukee,203953,Jabari Parker,F,,21:58,90.6,137.9,-47.4,0.1,0.0,10.0,0.059,0.125,0.091,0.0,0.444,0.444,0.188,89.42,0.066,2015-11-27T00:00:00,2,MIL,Milwaukee,6-10,22,21,22,25,0,0,0,0,0,0,0,0,0,0,90,0.419,0.909,0.308,20,38,21,0021500228,1610612749,MIL,Milwaukee,Jabari Parker,F,,21:58,0,0,0,8,15,5,4,12,0,1,1,0
0021500228,1610612749,MIL,Milwaukee,202328,Greg Monroe,C,,19:09,90.1,131.8,-41.7,0.0,0.0,0.0,0.214,0.278,0.25,6.8,0.25,0.327,0.336,101.41,0.045,2015-11-27T00:00:00,2,MIL,Milwaukee,6-10,22,21,22,25,0,0,0,0,0,0,0,0,0,0,90,0.419,0.909,0.308,20,38,21,0021500228,1610612749,MIL,Milwaukee,Greg Monroe,C,,19:09,0,0,2,6,16,7,7,14,0,3,1,4
0021500228,1610612749,MIL,Milwaukee,203114,Khris Middleton,G,,33:52,98.7,118.9,-20.1,0.2,4.0,29.1,0.0,0.103,0.057,7.3,0.786,0.856,0.129,101.54,0.15,2015-11-27T00:00:00,2,MIL,Milwaukee,6-10,22,21,22,25,0,0,0,0,0,0,0,0,0,0,90,0.419,0.909,0.308,20,38,21,0021500228,1610612749,MIL,Milwaukee,Khris Middleton,G,,33:52,3,0,0,0,28,7,15,28,0,0,1,3
0021500228,1610612749,MIL,Milwaukee,203487,Michael Carter-Williams,G,,24:04,100.6,127.8,-27.2,0.176,0.6,25.3,0.063,0.143,0.108,42.1,0.333,0.387,0.162,99.52,0.0,2015-11-27T00:00:00,2,MIL,Milwaukee,6-10,22,21,22,25,0,0,0,0,0,0,0,0,0,0,90,0.419,0.909,0.308,20,38,21,0021500228,1610612749,MIL,Milwaukee,Michael Carter-Williams,G,,24:04,2,0,0,2,23,7,10,20,1,0,2,3
0021500228,1610612749,MIL,Milwaukee,201573,Jerryd Bayless,,,33:01,81.3,98.3,-17.0,0.231,0.75,14.3,0.0,0.167,0.075,19.0,0.607,0.607,0.254,103.28,0.111,2015-11-27T00:00:00,2,MIL,Milwaukee,6-10,22,21,22,25,0,0,0,0,0,0,0,0,0,0,90,0.419,0.909,0.308,20,38,21,0021500228,1610612749,MIL,Milwaukee,Jerryd Bayless,,,33:01,2,0,2,2,23,0,13,32,0,0,2,0
0021500228,1610612749,MIL,Milwaukee,202349,Greivis Vasquez,,,13:16,67.9,101.7,-33.8,0.0,0.0,0.0,0.0,0.091,0.038,0.0,0.2,0.2,0.189,99.57,-0.073,2015-11-27T00:00:00,2,MIL,Milwaukee,6-10,22,21,22,25,0,0,0,0,0,0,0,0,0,0,90,0.419,0.909,0.308,20,38,21,0021500228,1610612749,MIL,Milwaukee,Greivis Vasquez,,,13:16,0,0,0,2,0,0,0,8,0,0,2,0
0021500228,1610612749,MIL,Milwaukee,203089,John Henson,,,19:56,83.9,98.8,-14.9,0.0,0.0,0.0,0.0,0.188,0.086,39.3,0.5,0.862,0.179,101.43,0.099,2015-11-27T00:00:00,2,MIL,Milwaukee,6-10,22,21,22,25,0,0,0,0,0,0,0,0,0,0,90,0.419,0.909,0.308,20,38,21,0021500228,1610612749,MIL,Milwaukee,John Henson,,,19:56,4,0,0,2,8,0,4,14,1,1,2,3
0021500228,1610612749,MIL,Milwaukee,201564,O.J. Mayo,,,25:19,95.1,99.5,-4.3,0.267,2.0,30.0,0.053,0.136,0.098,15.0,0.167,0.342,0.168,103.22,0.017,2015-11-27T00:00:00,2,MIL,Milwaukee,6-10,22,21,22,25,0,0,0,0,0,0,0,0,0,0,90,0.419,0.909,0.308,20,38,21,0021500228,1610612749,MIL,Milwaukee,O.J. Mayo,,,25:19,0,0,0,2,15,2,5,22,0,0,4,2
0021500228,1610612749,MIL,Milwaukee,203948,Johnny O'Bryant III,,,8:55,105.6,93.8,11.8,0.143,0.5,25.0,0.0,0.333,0.167,50.0,1.0,1.0,0.158,100.13,0.086,2015-11-27T00:00:00,2,MIL,Milwaukee,6-10,22,21,22,25,0,0,0,0,0,0,0,0,0,0,90,0.419,0.909,0.308,20,38,21,0021500228,1610612749,MIL,Milwaukee,Johnny O'Bryant III,,,8:55,0,0,0,2,8,0,4,12,0,0,0,0
0021500228,1610612749,MIL,Milwaukee,203142,Chris Copeland,,,2:58,66.7,53.8,12.9,0.0,0.0,0.0,0.0,0.333,0.143,0.0,0.0,0.0,0.167,108.73,0.0,2015-11-27T00:00:00,2,MIL,Milwaukee,6-10,22,21,22,25,0,0,0,0,0,0,0,0,0,0,90,0.419,0.909,0.308,20,38,21,0021500228,1610612749,MIL,Milwaukee,Chris Copeland,,,2:58,0,0,0,0,0,0,0,4,0,0,0,0
0021500228,1610612749,MIL,Milwaukee,203101,Miles Plumlee,,,2:58,66.7,53.8,12.9,0.0,0.0,0.0,0.0,0.0,0.0,0.0,1.0,1.0,0.167,108.73,0.286,2015-11-27T00:00:00,2,MIL,Milwaukee,6-10,22,21,22,25,0,0,0,0,0,0,0,0,0,0,90,0.419,0.909,0.308,20,38,21,0021500228,1610612749,MIL,Milwaukee,Miles Plumlee,,,2:58,0,0,0,2,0,0,0,4,0,0,0,0
0021500228,1610612749,MIL,Milwaukee,1626173,Rashad Vaughn,,,2:58,66.7,53.8,12.9,0.0,0.0,0.0,0.0,0.333,0.143,0.0,0.333,0.333,0.5,108.73,0.0,2015-11-27T00:00:00,2,MIL,Milwaukee,6-10,22,21,22,25,0,0,0,0,0,0,0,0,0,0,90,0.419,0.909,0.308,20,38,21,0021500228,1610612749,MIL,Milwaukee,Rashad Vaughn,,,2:58,0,0,0,2,0,0,0,4,0,0,1,1
0021500228,1610612753,ORL,Orlando,202699,Tobias Harris,F,,29:38,125.8,99.4,26.4,0.13,3.0,19.6,0.045,0.048,0.047,6.5,0.8,0.839,0.175,100.37,0.161,2015-11-27T00:00:00,2,ORL,Orlando,8-8,22,27,37,28,0,0,0,0,0,0,0,0,0,0,114,0.524,0.727,0.444,30,41,18,0021500228,1610612753,ORL,Orlando,Tobias Harris,F,,29:38,2,5,2,4,16,0,11,32,1,0,1,1
0021500228,1610612753,ORL,Orlando,101112,Channing Frye,F,,18:46,143.9,102.9,41.0,0.059,0.0,10.0,0.077,0.214,0.148,0.0,0.5,0.5,0.223,91.31,0.098,2015-11-27T00:00:00,2,ORL,Orlando,8-8,22,27,37,28,0,0,0,0,0,0,0,0,0,0,114,0.524,0.727,0.444,30,41,18,0021500228,1610612753,ORL,Orlando,Channing Frye,F,,18:46,3,0,0,0,10,0,5,20,1,0,2,0
0021500228,1610612753,ORL,Orlando,202696,Nikola Vucevic,C,,21:28,128.0,100.4,27.6,0.063,0.5,8.7,0.188,0.176,0.182,17.5,0.5,0.533,0.217,95.08,0.08,2015-11-27T00:00:00,2,ORL,Orlando,8-8,22,27,37,28,0,0,0,0,0,0,0,0,0,0,114,0.524,0.727,0.444,30,41,18,0021500228,1610612753,ORL,Orlando,Nikola Vucevic,C,,21:28,0,0,0,2,14,0,5,24,1,0,3,2
0021500228,1610612753,ORL,Orlando,203095,Evan Fournier,G,,28:07,130.8,98.5,32.3,0.042,1.0,6.0,0.042,0.2,0.114,6.0,0.542,0.581,0.229,104.21,0.085,2015-11-27T00:00:00,2,ORL,Orlando,8-8,22,27,37,28,0,0,0,0,0,0,0,0,0,0,114,0.524,0.727,0.444,30,41,18,0021500228,1610612753,ORL,Orlando,Evan Fournier,G,,28:07,6,2,4,4,14,0,11,30,0,2,3,4
0021500228,1610612753,ORL,Orlando,203901,Elfrid Payton,G,,30:47,132.2,107.5,24.8,0.455,2.5,37.8,0.048,0.05,0.049,15.1,0.875,0.884,0.234,97.28,0.192,2015-11-27T00:00:00,2,ORL,Orlando,8-8,22,27,37,28,0,0,0,0,0,0,0,0,0,0,114,0.524,0.727,0.444,30,41,18,0021500228,1610612753,ORL,Orlando,Elfrid Payton,G,,30:47,9,0,7,14,14,0,9,30,0,0,3,3
0021500228,1610612753,ORL,Orlando,203894,Shabazz Napier,,,11:51,46.6,60.3,-13.7,0.75,3.0,29.1,0.0,0.143,0.067,9.7,0.2,0.316,0.264,102.56,0.14,2015-11-27T00:00:00,2,ORL,Orlando,8-8,22,27,37,28,0,0,0,0,0,0,0,0,0,0,114,0.524,0.727,0.444,30,41,18,0021500228,1610612753,ORL,Orlando,Shabazz Napier,,,11:51,0,0,0,2,2,0,2,10,0,0,0,1
0021500228,1610612753,ORL,Orlando,203094,Andrew Nicholson,,,25:14,86.3,81.5,4.8,0.059,0.5,10.0,0.043,0.25,0.149,20.0,0.214,0.214,0.156,104.21,0.031,2015-11-27T00:00:00,2,ORL,Orlando,8-8,22,27,37,28,0,0,0,0,0,0,0,0,0,0,114,0.524,0.727,0.444,30,41,18,0021500228,1610612753,ORL,Orlando,Andrew Nicholson,,,25:14,0,0,0,0,8,0,6,20,2,0,1,2
0021500228,1610612753,ORL,Orlando,203506,Victor Oladipo,,,24:18,102.8,75.7,27.1,0.643,4.5,35.7,0.0,0.286,0.146,7.9,0.583,0.599,0.287,106.0,0.308,2015-11-27T00:00:00,2,ORL,Orlando,8-8,22,27,37,28,0,0,0,0,0,0,0,0,0,0,114,0.524,0.727,0.444,30,41,18,0021500228,1610612753,ORL,Orlando,Victor Oladipo,,,24:18,12,0,2,10,6,0,6,16,0,0,0,5
0021500228,1610612753,ORL,Orlando,201160,Jason Smith,,,19:57,110.0,78.9,31.1,0.0,0.0,0.0,0.0,0.063,0.032,20.0,1.0,1.0,0.114,103.22,0.098,2015-11-27T00:00:00,2,ORL,Orlando,8-8,22,27,37,28,0,0,0,0,0,0,0,0,0,0,114,0.524,0.727,0.444,30,41,18,0021500228,1610612753,ORL,Orlando,Jason Smith,,,19:57,0,0,0,0,4,0,4,12,0,0,1,0
0021500228,1610612753,ORL,Orlando,203932,Aaron Gordon,,,18:24,87.0,74.4,12.6,0.077,0.5,20.0,0.0,0.278,0.139,40.0,0.5,0.5,0.1,103.58,0.068,2015-11-27T00:00:00,2,ORL,Orlando,8-8,22,27,37,28,0,0,0,0,0,0,0,0,0,0,114,0.524,0.727,0.444,30,41,18,0021500228,1610612753,ORL,Orlando,Aaron Gordon,,,18:24,0,0,0,2,2,0,2,12,0,0,2,0
0021500228,1610612753,ORL,Orlando,203473,Dewayne Dedmon,,,3:37,87.2,116.0,-28.8,0.0,0.0,0.0,0.0,0.5,0.125,100.0,0.0,0.0,0.088,119.98,-0.083,2015-11-27T00:00:00,2,ORL,Orlando,8-8,22,27,37,28,0,0,0,0,0,0,0,0,0,0,114,0.524,0.727,0.444,30,41,18,0021500228,1610612753,ORL,Orlando,Dewayne Dedmon,,,3:37,0,0,0,0,0,0,4,4,0,0,2,0
0021500228,1610612753,ORL,Orlando,1626209,Mario Hezonja,,,4:55,88.3,100.0,-11.7,0.0,0.0,0.0,0.0,0.0,0.0,0.0,0.0,1.136,0.078,99.19,0.125,2015-11-27T00:00:00,2,ORL,Orlando,8-8,22,27,37,28,0,0,0,0,0,0,0,0,0,0,114,0.524,0.727,0.444,30,41,18,0021500228,1610612753,ORL,Orlando,Mario Hezonja,,,4:55,0,0,0,0,0,0,0,6,0,0,0,1
0021500228,1610612753,ORL,Orlando,203906,Devyn Marble,,,2:58,53.8,66.7,-12.9,0.0,0.0,0.0,0.0,0.0,0.0,41.0,1.0,0.694,0.328,108.73,0.0,2015-11-27T00:00:00,2,ORL,Orlando,8-8,22,27,37,28,0,0,0,0,0,0,0,0,0,0,114,0.524,0.727,0.444,30,41,18,0021500228,1610612753,ORL,Orlando,Devyn Marble,,,2:58,0,0,0,2,0,0,0,4,0,0,0,1
