GAME_ID_x,TEAM_ID_x,TEAM_ABBREVIATION_x,TEAM_CITY_x,PLAYER_ID,PLAYER_NAME_x,START_POSITION_x,COMMENT_x,MIN_x,OFF_RATING,DEF_RATING,NET_RATING,AST_PCT,AST_TOV,AST_RATIO,OREB_PCT,DREB_PCT,REB_PCT,TM_TOV_PCT,EFG_PCT,TS_PCT,USG_PCT,PACE,PIE,GAME_DATE_EST,GAME_SEQUENCE,TEAM_ABBREVIATION_y,TEAM_CITY_NAME,TEAM_WINS_LOSSES,PTS_QTR1,PTS_QTR2,PTS_QTR3,PTS_QTR4,PTS_OT1,PTS_OT2,PTS_OT3,PTS_OT4,PTS_OT5,PTS_OT6,PTS_OT7,PTS_OT8,PTS_OT9,PTS_OT10,PTS,FG_PCT,FT_PCT,FG3_PCT,AST,REB,TOV,GAME_ID_y,TEAM_ID_y,TEAM_ABBREVIATION,TEAM_CITY_y,PLAYER_NAME_y,START_POSITION_y,COMMENT_y,MIN_y,PTS_OFF_TOV,PTS_2ND_CHANCE,PTS_FB,PTS_PAINT,OPP_PTS_OFF_TOV,OPP_PTS_2ND_CHANCE,OPP_PTS_FB,OPP_PTS_PAINT,BLK,BLKA,PF,PFD
0021500241,1610612743,DEN,Denver,201568,Danilo Gallinari,F,,33:42,75.7,102.3,-26.7,0.067,0.33,5.9,0.032,0.32,0.161,17.8,0.417,0.466,0.211,94.62,0.128,2015-11-28T00:00:00,3,DEN,Denver,6-11,25,27,5,24,0,0,0,0,0,0,0,0,0,0,81,0.4,0.765,0.32,17,45,20,0021500241,1610612743,DEN,Denver,Danilo Gallinari,F,,33:42,2.0,8.0,2.0,4.0,14.0,2.0,9.0,26.0,1.0,0.0,0.0,5.0
0021500241,1610612743,DEN,Denver,201589,Darrell Arthur,F,,31:27,84.8,100.3,-15.5,0.077,0.33,5.9,0.107,0.056,0.078,17.6,0.615,0.615,0.23,95.62,0.124,2015-11-28T00:00:00,3,DEN,Denver,6-11,25,27,5,24,0,0,0,0,0,0,0,0,0,0,81,0.4,0.765,0.32,17,45,20,0021500241,1610612743,DEN,Denver,Darrell Arthur,F,,31:27,0.0,4.0,2.0,8.0,17.0,12.0,9.0,26.0,2.0,0.0,3.0,0.0
0021500241,1610612743,DEN,Denver,203999,Nikola Jokic,C,,18:34,82.1,100.1,-18.0,0.0,0.0,0.0,0.125,0.25,0.188,38.7,0.833,0.84,0.192,94.98,0.105,2015-11-28T00:00:00,3,DEN,Denver,6-11,25,27,5,24,0,0,0,0,0,0,0,0,0,0,81,0.4,0.765,0.32,17,45,20,0021500241,1610612743,DEN,Denver,Nikola Jokic,C,,18:34,2.0,2.0,1.0,2.0,8.0,1.0,5.0,14.0,0.0,0.0,3.0,3.0
0021500241,1610612743,DEN,Denver,200751,Randy Foye,G,,36:44,84.7,95.2,-10.5,0.143,3.0,23.1,0.031,0.0,0.014,7.7,0.278,0.278,0.128,91.61,-0.014,2015-11-28T00:00:00,3,DEN,Denver,6-11,25,27,5,24,0,0,0,0,0,0,0,0,0,0,81,0.4,0.765,0.32,17,45,20,0021500241,1610612743,DEN,Denver,Randy Foye,G,,36:44,0.0,0.0,0.0,2.0,17.0,12.0,6.0,30.0,0.0,1.0,2.0,0.0
0021500241,1610612743,DEN,Denver,1626144,Emmanuel Mudiay,G,,34:17,86.6,96.9,-10.3,0.25,2.0,17.6,0.0,0.179,0.081,8.8,0.333,0.358,0.24,93.95,0.04,2015-11-28T00:00:00,3,DEN,Denver,6-11,25,27,5,24,0,0,0,0,0,0,0,0,0,0,81,0.4,0.765,0.32,17,45,20,0021500241,1610612743,DEN,Denver,Emmanuel Mudiay,G,,34:17,0.0,0.0,0.0,4.0,14.0,6.0,9.0,24.0,0.0,2.0,4.0,2.0
0021500241,1610612743,DEN,Denver,203115,Will Barton,,,30:15,90.3,105.7,-15.5,0.2,1.5,15.9,0.036,0.25,0.143,10.6,0.462,0.504,0.245,90.86,0.167,2015-11-28T00:00:00,3,DEN,Denver,6-11,25,27,5,24,0,0,0,0,0,0,0,0,0,0,81,0.4,0.765,0.32,17,45,20,0021500241,1610612743,DEN,Denver,Will Barton,,,30:15,8.0,3.0,0.0,0.0,7.0,11.0,3.0,22.0,1.0,0.0,1.0,1.0
0021500241,1610612743,DEN,Denver,203530,Joffrey Lauvergne,,,8:19,55.9,101.4,-45.5,0.0,0.0,0.0,0.0,0.4,0.154,50.0,0.0,0.0,0.106,99.96,-0.114,2015-11-28T00:00:00,3,DEN,Denver,6-11,25,27,5,24,0,0,0,0,0,0,0,0,0,0,81,0.4,0.765,0.32,17,45,20,0021500241,1610612743,DEN,Denver,Joffrey Lauvergne,,,8:19,0.0,0.0,0.0,0.0,6.0,0.0,4.0,8.0,0.0,0.0,2.0,0.0
0021500241,1610612743,DEN,Denver,2749,Jameer Nelson,,,17:13,84.8,107.2,-22.4,0.3,1.5,33.3,0.0,0.111,0.067,22.2,0.25,0.25,0.166,91.89,0.041,2015-11-28T00:00:00,3,DEN,Denver,6-11,25,27,5,24,0,0,0,0,0,0,0,0,0,0,81,0.4,0.765,0.32,17,45,20,0021500241,1610612743,DEN,Denver,Jameer Nelson,,,17:13,0.0,0.0,0.0,0.0,7.0,6.0,0.0,18.0,0.0,0.0,1.0,0.0
0021500241,1610612743,DEN,Denver,202702,Kenneth Faried,,,14:08,92.6,89.7,2.9,0.0,0.0,0.0,0.167,0.25,0.208,32.2,0.8,0.791,0.3,89.34,0.227,2015-11-28T00:00:00,3,DEN,Denver,6-11,25,27,5,24,0,0,0,0,0,0,0,0,0,0,81,0.4,0.765,0.32,17,45,20,0021500241,1610612743,DEN,Denver,Kenneth Faried,,,14:08,4.0,0.0,6.0,8.0,0.0,2.0,0.0,12.0,1.0,0.0,4.0,2.0
0021500241,1610612743,DEN,Denver,2034,Mike Miller,,,12:55,115.2,122.3,-7.2,0.182,0.0,100.0,0.0,0.143,0.091,0.0,0.0,0.0,0.0,89.11,0.038,2015-11-28T00:00:00,3,DEN,Denver,6-11,25,27,5,24,0,0,0,0,0,0,0,0,0,0,81,0.4,0.765,0.32,17,45,20,0021500241,1610612743,DEN,Denver,Mike Miller,,,12:55,0.0,0.0,0.0,0.0,5.0,8.0,0.0,10.0,0.0,0.0,2.0,0.0
0021500241,1610612743,DEN,Denver,203123,Kostas Papanikolaou,,,2:26,150.9,18.4,132.5,0.0,0.0,0.0,0.0,0.0,0.0,0.0,0.0,1.136,0.19,99.42,1.333,2015-11-28T00:00:00,3,DEN,Denver,6-11,25,27,5,24,0,0,0,0,0,0,0,0,0,0,81,0.4,0.765,0.32,17,45,20,0021500241,1610612743,DEN,Denver,Kostas Papanikolaou,,,2:26,2.0,2.0,0.0,0.0,0.0,0.0,0.0,0.0,0.0,0.0,0.0,1.0
0021500241,1610612743,DEN,Denver,203914,Gary Harris,,DND - Concussion                        ,,,,,,,0.0,,,,,,,0.0,,,2015-11-28T00:00:00,3,DEN,Denver,6-11,25,27,5,24,0,0,0,0,0,0,0,0,0,0,81,0.4,0.765,0.32,17,45,20,0021500241,1610612743,DEN,Denver,Gary Harris,,DND - Concussion                        ,,,,,,,,,,,,,
0021500241,1610612743,DEN,Denver,201581,JJ Hickson,,DNP - Coach's Decision                  ,,,,,,,0.0,,,,,,,0.0,,,2015-11-28T00:00:00,3,DEN,Denver,6-11,25,27,5,24,0,0,0,0,0,0,0,0,0,0,81,0.4,0.765,0.32,17,45,20,0021500241,1610612743,DEN,Denver,JJ Hickson,,DNP - Coach's Decision                  ,,,,,,,,,,,,,
0021500241,1610612742,DAL,Dallas,202718,Chandler Parsons,F,,23:00,97.9,83.8,14.1,0.133,2.0,20.0,0.0,0.059,0.029,10.0,0.286,0.286,0.17,96.5,0.035,2015-11-28T00:00:00,3,DAL,Dallas,10-7,22,26,25,19,0,0,0,0,0,0,0,0,0,0,92,0.429,0.704,0.269,18,42,13,0021500241,1610612742,DAL,Dallas,Chandler Parsons,F,,23:00,2.0,0.0,0.0,2.0,8.0,4.0,6.0,16.0,1.0,1.0,0.0,0.0
0021500241,1610612742,DAL,Dallas,1717,Dirk Nowitzki,F,,30:36,105.4,79.0,26.4,0.111,0.0,15.7,0.0,0.269,0.117,0.0,0.5,0.604,0.168,90.29,0.204,2015-11-28T00:00:00,3,DAL,Dallas,10-7,22,26,25,19,0,0,0,0,0,0,0,0,0,0,92,0.429,0.704,0.269,18,42,13,0021500241,1610612742,DAL,Dallas,Dirk Nowitzki,F,,30:36,5.0,5.0,0.0,2.0,3.0,8.0,2.0,14.0,0.0,0.0,1.0,4.0
0021500241,1610612742,DAL,Dallas,2585,Zaza Pachulia,C,,30:36,98.8,64.4,34.4,0.118,0.4,10.5,0.16,0.286,0.226,26.4,0.625,0.669,0.266,94.31,0.239,2015-11-28T00:00:00,3,DAL,Dallas,10-7,22,26,25,19,0,0,0,0,0,0,0,0,0,0,92,0.429,0.704,0.269,18,42,13,0021500241,1610612742,DAL,Dallas,Zaza Pachulia,C,,30:36,0.0,2.0,0.0,8.0,6.0,2.0,4.0,14.0,1.0,1.0,2.0,6.0
0021500241,1610612742,DAL,Dallas,202083,Wesley Matthews,G,,27:58,106.3,86.0,20.3,0.235,0.0,26.7,0.034,0.0,0.019,0.0,0.318,0.318,0.182,94.5,0.016,2015-11-28T00:00:00,3,DAL,Dallas,10-7,22,26,25,19,0,0,0,0,0,0,0,0,0,0,92,0.429,0.704,0.269,18,42,13,0021500241,1610612742,DAL,Dallas,Wesley Matthews,G,,27:58,4.0,0.0,5.0,4.0,5.0,8.0,4.0,16.0,0.0,0.0,3.0,1.0
0021500241,1610612742,DAL,Dallas,101114,Deron Williams,G,,30:57,100.5,67.3,33.2,0.25,4.0,18.4,0.0,0.133,0.071,4.6,0.6,0.656,0.274,95.47,0.23,2015-11-28T00:00:00,3,DAL,Dallas,10-7,22,26,25,19,0,0,0,0,0,0,0,0,0,0,92,0.429,0.704,0.269,18,42,13,0021500241,1610612742,DAL,Dallas,Deron Williams,G,,30:57,2.0,0.0,4.0,4.0,8.0,4.0,7.0,16.0,0.0,0.0,2.0,3.0
0021500241,1610612742,DAL,Dallas,203939,Dwight Powell,,,20:49,100.4,103.7,-3.4,0.091,1.0,12.5,0.111,0.143,0.125,12.5,0.5,0.5,0.149,92.65,0.114,2015-11-28T00:00:00,3,DAL,Dallas,10-7,22,26,25,19,0,0,0,0,0,0,0,0,0,0,92,0.429,0.704,0.269,18,42,13,0021500241,1610612742,DAL,Dallas,Dwight Powell,,,20:49,4.0,0.0,0.0,4.0,16.0,15.0,6.0,12.0,1.0,0.0,2.0,1.0
0021500241,1610612742,DAL,Dallas,101109,Raymond Felton,,,28:08,111.0,76.1,34.9,0.067,1.0,7.5,0.0,0.111,0.058,7.5,0.55,0.53,0.208,90.9,0.133,2015-11-28T00:00:00,3,DAL,Dallas,10-7,22,26,25,19,0,0,0,0,0,0,0,0,0,0,92,0.429,0.704,0.269,18,42,13,0021500241,1610612742,DAL,Dallas,Raymond Felton,,,28:08,2.0,3.0,0.0,6.0,14.0,17.0,2.0,14.0,0.0,1.0,0.0,2.0
0021500241,1610612742,DAL,Dallas,2734,Devin Harris,,,19:49,115.6,96.4,19.2,0.091,1.0,12.5,0.043,0.056,0.049,12.5,0.5,0.5,0.164,85.89,0.068,2015-11-28T00:00:00,3,DAL,Dallas,10-7,22,26,25,19,0,0,0,0,0,0,0,0,0,0,92,0.429,0.704,0.269,18,42,13,0021500241,1610612742,DAL,Dallas,Devin Harris,,,19:49,0.0,0.0,0.0,6.0,6.0,13.0,1.0,10.0,0.0,2.0,0.0,1.0
0021500241,1610612742,DAL,Dallas,1626147,Justin Anderson,,,9:28,72.1,130.3,-58.1,0.0,0.0,0.0,0.0,0.111,0.056,25.8,0.0,0.0,0.208,92.79,-0.189,2015-11-28T00:00:00,3,DAL,Dallas,10-7,22,26,25,19,0,0,0,0,0,0,0,0,0,0,92,0.429,0.704,0.269,18,42,13,0021500241,1610612742,DAL,Dallas,Justin Anderson,,,9:28,0.0,0.0,0.0,0.0,7.0,9.0,5.0,8.0,0.0,0.0,1.0,2.0
0021500241,1610612742,DAL,Dallas,201580,JaVale McGee,,,5:28,97.8,89.3,8.5,0.0,0.0,0.0,0.167,0.429,0.308,0.0,0.5,0.521,0.282,94.48,0.25,2015-11-28T00:00:00,3,DAL,Dallas,10-7,22,26,25,19,0,0,0,0,0,0,0,0,0,0,92,0.429,0.704,0.269,18,42,13,0021500241,1610612742,DAL,Dallas,JaVale McGee,,,5:28,0.0,0.0,0.0,2.0,2.0,4.0,3.0,6.0,0.0,0.0,1.0,1.0
0021500241,1610612742,DAL,Dallas,101111,Charlie Villanueva,,,6:44,77.5,96.2,-18.7,0.333,0.0,50.0,0.0,0.286,0.154,0.0,0.0,0.0,0.066,98.8,0.083,2015-11-28T00:00:00,3,DAL,Dallas,10-7,22,26,25,19,0,0,0,0,0,0,0,0,0,0,92,0.429,0.704,0.269,18,42,13,0021500241,1610612742,DAL,Dallas,Charlie Villanueva,,,6:44,0.0,0.0,0.0,0.0,4.0,2.0,7.0,6.0,0.0,0.0,1.0,0.0
0021500241,1610612742,DAL,Dallas,202379,Jeremy Evans,,,4:01,60.1,196.8,-136.7,0.0,0.0,0.0,0.25,0.0,0.143,0.0,0.0,1.136,0.085,101.34,0.094,2015-11-28T00:00:00,3,DAL,Dallas,10-7,22,26,25,19,0,0,0,0,0,0,0,0,0,0,92,0.429,0.704,0.269,18,42,13,0021500241,1610612742,DAL,Dallas,Jeremy Evans,,,4:01,0.0,2.0,0.0,0.0,7.0,7.0,4.0,6.0,0.0,0.0,1.0,1.0
0021500241,1610612742,DAL,Dallas,203098,John Jenkins,,,2:26,18.4,150.9,-132.5,0.0,0.0,0.0,0.0,0.0,0.0,82.0,0.0,1.136,0.379,99.42,-0.667,2015-11-28T00:00:00,3,DAL,Dallas,10-7,22,26,25,19,0,0,0,0,0,0,0,0,0,0,92,0.429,0.704,0.269,18,42,13,0021500241,1610612742,DAL,Dallas,John Jenkins,,,2:26,0.0,0.0,0.0,0.0,4.0,2.0,4.0,2.0,0.0,0.0,0.0,0.0
