GAME_ID_x,TEAM_ID_x,TEAM_ABBREVIATION_x,TEAM_CITY_x,PLAYER_ID,PLAYER_NAME_x,START_POSITION_x,COMMENT_x,MIN_x,OFF_RATING,DEF_RATING,NET_RATING,AST_PCT,AST_TOV,AST_RATIO,OREB_PCT,DREB_PCT,REB_PCT,TM_TOV_PCT,EFG_PCT,TS_PCT,USG_PCT,PACE,PIE,GAME_DATE_EST,GAME_SEQUENCE,TEAM_ABBREVIATION_y,TEAM_CITY_NAME,TEAM_WINS_LOSSES,PTS_QTR1,PTS_QTR2,PTS_QTR3,PTS_QTR4,PTS_OT1,PTS_OT2,PTS_OT3,PTS_OT4,PTS_OT5,PTS_OT6,PTS_OT7,PTS_OT8,PTS_OT9,PTS_OT10,PTS,FG_PCT,FT_PCT,FG3_PCT,AST,REB,TOV,GAME_ID_y,TEAM_ID_y,TEAM_ABBREVIATION,TEAM_CITY_y,PLAYER_NAME_y,START_POSITION_y,COMMENT_y,MIN_y,PTS_OFF_TOV,PTS_2ND_CHANCE,PTS_FB,PTS_PAINT,OPP_PTS_OFF_TOV,OPP_PTS_2ND_CHANCE,OPP_PTS_FB,OPP_PTS_PAINT,BLK,BLKA,PF,PFD
0021500242,1610612737,ATL,Atlanta,200757,Thabo Sefolosha,F,,24:42,80.8,133.1,-52.3,0.0,0.0,0.0,0.0,0.235,0.098,25.4,0.7,0.68,0.134,100.12,0.037,2015-11-28T00:00:00,4,ATL,Atlanta,11-8,25,12,22,29,0,0,0,0,0,0,0,0,0,0,88,0.425,0.615,0.231,28,43,18,0021500242,1610612737,ATL,Atlanta,Thabo Sefolosha,F,,24:42,4,3,2,2,12,2,9,26,0,0,4,1
0021500242,1610612737,ATL,Atlanta,200794,Paul Millsap,F,,26:19,73.2,113.3,-40.1,0.167,2.0,14.1,0.138,0.182,0.157,7.0,0.333,0.357,0.199,99.3,0.073,2015-11-28T00:00:00,4,ATL,Atlanta,11-8,25,12,22,29,0,0,0,0,0,0,0,0,0,0,88,0.425,0.615,0.231,28,43,18,0021500242,1610612737,ATL,Atlanta,Paul Millsap,F,,26:19,4,0,4,2,15,4,7,22,1,1,2,3
0021500242,1610612737,ATL,Atlanta,201143,Al Horford,C,,21:55,75.4,127.5,-52.1,0.3,0.0,20.2,0.091,0.1,0.095,0.0,0.364,0.421,0.242,99.17,0.096,2015-11-28T00:00:00,4,ATL,Atlanta,11-8,25,12,22,29,0,0,0,0,0,0,0,0,0,0,88,0.425,0.615,0.231,28,43,18,0021500242,1610612737,ATL,Atlanta,Al Horford,C,,21:55,0,4,2,4,6,2,4,18,0,1,1,1
0021500242,1610612737,ATL,Atlanta,2594,Kyle Korver,G,,25:27,64.6,113.6,-48.9,0.0,0.0,0.0,0.0,0.045,0.02,33.3,0.75,0.75,0.106,97.36,0.065,2015-11-28T00:00:00,4,ATL,Atlanta,11-8,25,12,22,29,0,0,0,0,0,0,0,0,0,0,88,0.425,0.615,0.231,28,43,18,0021500242,1610612737,ATL,Atlanta,Kyle Korver,G,,25:27,2,0,4,2,15,4,7,22,1,0,0,0
0021500242,1610612737,ATL,Atlanta,201952,Jeff Teague,G,,22:30,67.4,113.4,-46.1,0.4,1.0,21.2,0.04,0.091,0.064,21.2,0.25,0.276,0.295,97.32,-0.047,2015-11-28T00:00:00,4,ATL,Atlanta,11-8,25,12,22,29,0,0,0,0,0,0,0,0,0,0,88,0.425,0.615,0.231,28,43,18,0021500242,1610612737,ATL,Atlanta,Jeff Teague,G,,22:30,0,0,0,2,11,2,7,18,0,2,3,2
0021500242,1610612737,ATL,Atlanta,203488,Mike Muscala,,,23:10,93.2,95.0,-1.8,0.063,0.5,9.1,0.042,0.158,0.093,18.2,0.375,0.375,0.192,96.88,0.045,2015-11-28T00:00:00,4,ATL,Atlanta,11-8,25,12,22,29,0,0,0,0,0,0,0,0,0,0,88,0.425,0.615,0.231,28,43,18,0021500242,1610612737,ATL,Atlanta,Mike Muscala,,,23:10,4,2,0,2,9,2,6,16,1,1,1,1
0021500242,1610612737,ATL,Atlanta,203145,Kent Bazemore,,,19:49,90.3,96.7,-6.4,0.0,0.0,0.0,0.0,0.35,0.184,16.1,0.5,0.527,0.275,103.67,0.132,2015-11-28T00:00:00,4,ATL,Atlanta,11-8,25,12,22,29,0,0,0,0,0,0,0,0,0,0,88,0.425,0.615,0.231,28,43,18,0021500242,1610612737,ATL,Atlanta,Kent Bazemore,,,19:49,2,2,2,8,9,2,7,18,1,0,3,3
0021500242,1610612737,ATL,Atlanta,203471,Dennis Schroder,,,17:14,96.9,111.5,-14.6,0.5,6.0,41.6,0.071,0.083,0.077,6.9,0.571,0.605,0.205,105.79,0.207,2015-11-28T00:00:00,4,ATL,Atlanta,11-8,25,12,22,29,0,0,0,0,0,0,0,0,0,0,88,0.425,0.615,0.231,28,43,18,0021500242,1610612737,ATL,Atlanta,Dennis Schroder,,,17:14,2,0,2,6,8,2,4,20,0,1,0,0
0021500242,1610612737,ATL,Atlanta,203934,Lamar Patterson,,,16:13,109.1,88.1,20.9,0.2,1.0,30.0,0.0,0.118,0.059,30.0,0.375,0.375,0.176,98.27,0.0,2015-11-28T00:00:00,4,ATL,Atlanta,11-8,25,12,22,29,0,0,0,0,0,0,0,0,0,0,88,0.425,0.615,0.231,28,43,18,0021500242,1610612737,ATL,Atlanta,Lamar Patterson,,,16:13,0,0,0,0,2,1,2,10,0,0,2,1
0021500242,1610612737,ATL,Atlanta,203118,Mike Scott,,,14:09,115.5,98.9,16.6,0.3,0.0,25.0,0.083,0.067,0.074,0.0,0.667,0.667,0.277,97.97,0.194,2015-11-28T00:00:00,4,ATL,Atlanta,11-8,25,12,22,29,0,0,0,0,0,0,0,0,0,0,88,0.425,0.615,0.231,28,43,18,0021500242,1610612737,ATL,Atlanta,Mike Scott,,,14:09,3,0,0,6,4,1,4,16,1,1,0,1
0021500242,1610612737,ATL,Atlanta,203501,Tim Hardaway Jr.,,,12:00,118.7,120.1,-1.4,0.083,1.0,14.3,0.091,0.182,0.136,14.3,0.2,0.2,0.211,95.52,-0.008,2015-11-28T00:00:00,4,ATL,Atlanta,11-8,25,12,22,29,0,0,0,0,0,0,0,0,0,0,88,0.425,0.615,0.231,28,43,18,0021500242,1610612737,ATL,Atlanta,Tim Hardaway Jr.,,,12:00,0,0,0,2,4,1,7,10,0,1,1,0
0021500242,1610612737,ATL,Atlanta,203200,Justin Holiday,,,8:16,133.3,97.8,35.6,0.0,0.0,0.0,0.0,0.111,0.053,0.0,0.833,0.833,0.158,85.12,0.123,2015-11-28T00:00:00,4,ATL,Atlanta,11-8,25,12,22,29,0,0,0,0,0,0,0,0,0,0,88,0.425,0.615,0.231,28,43,18,0021500242,1610612737,ATL,Atlanta,Justin Holiday,,,8:16,0,0,2,2,0,1,3,2,0,0,0,1
0021500242,1610612737,ATL,Atlanta,202714,Shelvin Mack,,,8:16,133.3,97.8,35.6,0.625,0.0,71.4,0.1,0.111,0.105,0.0,0.5,0.5,0.105,85.12,0.185,2015-11-28T00:00:00,4,ATL,Atlanta,11-8,25,12,22,29,0,0,0,0,0,0,0,0,0,0,88,0.425,0.615,0.231,28,43,18,0021500242,1610612737,ATL,Atlanta,Shelvin Mack,,,8:16,0,0,0,2,0,1,3,2,0,1,0,0
0021500242,1610612759,SAS,San Antonio,202695,Kawhi Leonard,F,,29:14,119.6,71.7,47.9,0.091,1.0,11.1,0.042,0.2,0.13,11.1,0.682,0.781,0.234,100.72,0.223,2015-11-28T00:00:00,4,SAS,San Antonio,14-3,23,31,26,28,0,0,0,0,0,0,0,0,0,0,108,0.471,0.95,0.529,25,49,16,0021500242,1610612759,SAS,San Antonio,Kawhi Leonard,F,,29:14,2,0,2,4,12,9,10,16,1,0,0,4
0021500242,1610612759,SAS,San Antonio,200746,LaMarcus Aldridge,F,,24:35,105.6,80.3,25.3,0.063,0.5,5.4,0.15,0.103,0.122,10.8,0.4,0.421,0.3,99.5,0.119,2015-11-28T00:00:00,4,SAS,San Antonio,14-3,23,31,26,28,0,0,0,0,0,0,0,0,0,0,108,0.471,0.95,0.529,25,49,16,0021500242,1610612759,SAS,San Antonio,LaMarcus Aldridge,F,,24:35,2,4,0,4,14,11,12,14,2,0,1,2
0021500242,1610612759,SAS,San Antonio,1495,Tim Duncan,C,,28:29,110.7,72.5,38.2,0.211,4.0,28.6,0.192,0.406,0.31,7.1,0.556,0.556,0.148,97.1,0.239,2015-11-28T00:00:00,4,SAS,San Antonio,14-3,23,31,26,28,0,0,0,0,0,0,0,0,0,0,108,0.471,0.95,0.529,25,49,16,0021500242,1610612759,SAS,San Antonio,Tim Duncan,C,,28:29,2,0,0,10,15,9,12,14,2,0,3,1
0021500242,1610612759,SAS,San Antonio,201980,Danny Green,G,,28:43,95.6,85.9,9.7,0.15,1.0,25.0,0.071,0.0,0.033,25.0,0.417,0.417,0.137,92.8,0.015,2015-11-28T00:00:00,4,SAS,San Antonio,14-3,23,31,26,28,0,0,0,0,0,0,0,0,0,0,108,0.471,0.95,0.529,25,49,16,0021500242,1610612759,SAS,San Antonio,Danny Green,G,,28:43,3,0,3,0,8,9,12,20,1,1,2,0
0021500242,1610612759,SAS,San Antonio,2225,Tony Parker,G,,22:03,110.7,73.5,37.1,0.4,3.0,34.4,0.0,0.12,0.068,11.5,0.556,0.583,0.224,97.52,0.197,2015-11-28T00:00:00,4,SAS,San Antonio,14-3,23,31,26,28,0,0,0,0,0,0,0,0,0,0,108,0.471,0.95,0.529,25,49,16,0021500242,1610612759,SAS,San Antonio,Tony Parker,G,,22:03,4,0,2,6,8,9,10,10,1,2,0,3
0021500242,1610612759,SAS,San Antonio,1938,Manu Ginobili,,,18:48,118.7,86.0,32.7,0.214,0.75,17.0,0.0,0.067,0.033,22.7,0.375,0.564,0.316,109.12,0.08,2015-11-28T00:00:00,4,SAS,San Antonio,14-3,23,31,26,28,0,0,0,0,0,0,0,0,0,0,108,0.471,0.95,0.529,25,49,16,0021500242,1610612759,SAS,San Antonio,Manu Ginobili,,,18:48,4,0,2,4,13,2,6,16,0,0,2,4
0021500242,1610612759,SAS,San Antonio,201988,Patty Mills,,,19:41,121.3,90.5,30.8,0.083,0.0,14.3,0.0,0.059,0.03,0.0,1.083,1.083,0.132,103.15,0.145,2015-11-28T00:00:00,4,SAS,San Antonio,14-3,23,31,26,28,0,0,0,0,0,0,0,0,0,0,108,0.471,0.95,0.529,25,49,16,0021500242,1610612759,SAS,San Antonio,Patty Mills,,,19:41,2,0,5,4,13,2,6,20,0,0,3,0
0021500242,1610612759,SAS,San Antonio,2564,Boris Diaw,,,16:40,115.5,99.5,16.0,0.273,3.0,30.0,0.0,0.154,0.074,10.0,0.75,0.75,0.185,103.62,0.138,2015-11-28T00:00:00,4,SAS,San Antonio,14-3,23,31,26,28,0,0,0,0,0,0,0,0,0,0,108,0.471,0.95,0.529,25,49,16,0021500242,1610612759,SAS,San Antonio,Boris Diaw,,,16:40,0,0,0,6,11,2,6,20,0,0,2,0
0021500242,1610612759,SAS,San Antonio,203937,Kyle Anderson,,,20:59,112.3,119.5,-7.2,0.063,1.0,17.0,0.0,0.333,0.158,17.0,0.5,0.644,0.108,97.54,0.096,2015-11-28T00:00:00,4,SAS,San Antonio,14-3,23,31,26,28,0,0,0,0,0,0,0,0,0,0,108,0.471,0.95,0.529,25,49,16,0021500242,1610612759,SAS,San Antonio,Kyle Anderson,,,20:59,0,0,0,0,11,2,8,30,0,0,0,1
0021500242,1610612759,SAS,San Antonio,2561,David West,,,8:00,128.0,68.8,59.2,0.0,0.0,0.0,0.0,0.0,0.0,0.0,0.5,0.5,0.115,101.52,0.038,2015-11-28T00:00:00,4,SAS,San Antonio,14-3,23,31,26,28,0,0,0,0,0,0,0,0,0,0,108,0.471,0.95,0.529,25,49,16,0021500242,1610612759,SAS,San Antonio,David West,,,8:00,0,0,0,0,0,0,2,2,0,0,0,0
0021500242,1610612759,SAS,San Antonio,203613,Jonathon Simmons,,,8:16,97.8,133.3,-35.6,0.333,0.0,15.5,0.0,0.0,0.0,0.0,0.4,0.46,0.333,85.12,0.049,2015-11-28T00:00:00,4,SAS,San Antonio,14-3,23,31,26,28,0,0,0,0,0,0,0,0,0,0,108,0.471,0.95,0.529,25,49,16,0021500242,1610612759,SAS,San Antonio,Jonathon Simmons,,,8:16,0,0,0,2,0,0,2,14,0,0,1,1
0021500242,1610612759,SAS,San Antonio,2446,Rasual Butler,,,8:16,97.8,133.3,-35.6,0.0,0.0,0.0,0.0,0.1,0.053,0.0,0.0,0.0,0.184,85.12,-0.025,2015-11-28T00:00:00,4,SAS,San Antonio,14-3,23,31,26,28,0,0,0,0,0,0,0,0,0,0,108,0.471,0.95,0.529,25,49,16,0021500242,1610612759,SAS,San Antonio,Rasual Butler,,,8:16,0,0,0,0,0,0,2,14,2,0,0,0
0021500242,1610612759,SAS,San Antonio,1626246,Boban Marjanovic,,,6:16,70.7,145.5,-74.8,0.0,0.0,0.0,0.125,0.143,0.133,0.0,0.0,0.174,0.216,85.48,-0.018,2015-11-28T00:00:00,4,SAS,San Antonio,14-3,23,31,26,28,0,0,0,0,0,0,0,0,0,0,108,0.471,0.95,0.529,25,49,16,0021500242,1610612759,SAS,San Antonio,Boban Marjanovic,,,6:16,0,1,0,0,0,0,2,10,0,2,0,1
