GAME_ID_x,TEAM_ID_x,TEAM_ABBREVIATION_x,TEAM_CITY_x,PLAYER_ID,PLAYER_NAME_x,START_POSITION_x,COMMENT_x,MIN_x,OFF_RATING,DEF_RATING,NET_RATING,AST_PCT,AST_TOV,AST_RATIO,OREB_PCT,DREB_PCT,REB_PCT,TM_TOV_PCT,EFG_PCT,TS_PCT,USG_PCT,PACE,PIE,GAME_DATE_EST,GAME_SEQUENCE,TEAM_ABBREVIATION_y,TEAM_CITY_NAME,TEAM_WINS_LOSSES,PTS_QTR1,PTS_QTR2,PTS_QTR3,PTS_QTR4,PTS_OT1,PTS_OT2,PTS_OT3,PTS_OT4,PTS_OT5,PTS_OT6,PTS_OT7,PTS_OT8,PTS_OT9,PTS_OT10,PTS,FG_PCT,FT_PCT,FG3_PCT,AST,REB,TOV,GAME_ID_y,TEAM_ID_y,TEAM_ABBREVIATION,TEAM_CITY_y,PLAYER_NAME_y,START_POSITION_y,COMMENT_y,MIN_y,PTS_OFF_TOV,PTS_2ND_CHANCE,PTS_FB,PTS_PAINT,OPP_PTS_OFF_TOV,OPP_PTS_2ND_CHANCE,OPP_PTS_FB,OPP_PTS_PAINT,BLK,BLKA,PF,PFD
0021500246,1610612749,MIL,Milwaukee,203114,Khris Middleton,F,,37:24,97.8,92.2,5.6,0.3,2.0,21.9,0.029,0.133,0.077,10.9,0.5,0.515,0.277,87.07,0.134,2015-11-29T00:00:00,1,MIL,Milwaukee,6-11,28,9,22,23,0,0,0,0,0,0,0,0,0,0,82,0.402,0.571,0.286,25,46,14,0021500246,1610612749,MIL,Milwaukee,Khris Middleton,F,,37:24,11.0,2.0,2.0,6.0,10.0,3.0,0.0,12.0,0.0,0.0,3.0,1.0
0021500246,1610612749,MIL,Milwaukee,203507,Giannis Antetokounmpo,F,,30:58,97.1,87.5,9.6,0.167,0.0,37.5,0.0,0.192,0.089,0.0,0.8,0.8,0.08,84.76,0.167,2015-11-29T00:00:00,1,MIL,Milwaukee,6-11,28,9,22,23,0,0,0,0,0,0,0,0,0,0,82,0.402,0.571,0.286,25,46,14,0021500246,1610612749,MIL,Milwaukee,Giannis Antetokounmpo,F,,30:58,2.0,0.0,2.0,8.0,5.0,3.0,0.0,8.0,1.0,0.0,2.0,1.0
0021500246,1610612749,MIL,Milwaukee,202328,Greg Monroe,C,,30:14,107.6,101.9,5.6,0.158,1.5,13.5,0.12,0.318,0.213,9.0,0.467,0.494,0.307,90.17,0.123,2015-11-29T00:00:00,1,MIL,Milwaukee,6-11,28,9,22,23,0,0,0,0,0,0,0,0,0,0,82,0.402,0.571,0.286,25,46,14,0021500246,1610612749,MIL,Milwaukee,Greg Monroe,C,,30:14,0.0,2.0,0.0,14.0,9.0,3.0,2.0,10.0,0.0,2.0,5.0,6.0
0021500246,1610612749,MIL,Milwaukee,201564,O.J. Mayo,G,,44:16,94.7,99.1,-4.4,0.185,5.0,25.2,0.022,0.081,0.048,5.0,0.462,0.432,0.158,87.27,0.056,2015-11-29T00:00:00,1,MIL,Milwaukee,6-11,28,9,22,23,0,0,0,0,0,0,0,0,0,0,82,0.402,0.571,0.286,25,46,14,0021500246,1610612749,MIL,Milwaukee,O.J. Mayo,G,,44:16,3.0,0.0,3.0,2.0,18.0,8.0,3.0,16.0,0.0,1.0,4.0,2.0
0021500246,1610612749,MIL,Milwaukee,201573,Jerryd Bayless,G,,43:08,92.2,99.5,-7.3,0.24,3.0,26.2,0.043,0.111,0.073,8.7,0.357,0.37,0.185,86.53,0.058,2015-11-29T00:00:00,1,MIL,Milwaukee,6-11,28,9,22,23,0,0,0,0,0,0,0,0,0,0,82,0.402,0.571,0.286,25,46,14,0021500246,1610612749,MIL,Milwaukee,Jerryd Bayless,G,,43:08,3.0,0.0,3.0,4.0,11.0,8.0,3.0,16.0,0.0,1.0,3.0,3.0
0021500246,1610612749,MIL,Milwaukee,203487,Michael Carter-Williams,,,15:36,72.1,118.6,-46.5,0.286,1.0,25.4,0.0,0.25,0.129,25.4,0.333,0.387,0.17,94.95,0.043,2015-11-29T00:00:00,1,MIL,Milwaukee,6-11,28,9,22,23,0,0,0,0,0,0,0,0,0,0,82,0.402,0.571,0.286,25,46,14,0021500246,1610612749,MIL,Milwaukee,Michael Carter-Williams,,,15:36,0.0,2.0,0.0,2.0,13.0,5.0,1.0,10.0,0.0,0.0,2.0,1.0
0021500246,1610612749,MIL,Milwaukee,203953,Jabari Parker,,,17:02,83.5,121.4,-37.8,0.0,0.0,0.0,0.105,0.357,0.212,8.4,0.4,0.46,0.301,93.67,0.109,2015-11-29T00:00:00,1,MIL,Milwaukee,6-11,28,9,22,23,0,0,0,0,0,0,0,0,0,0,82,0.402,0.571,0.286,25,46,14,0021500246,1610612749,MIL,Milwaukee,Jabari Parker,,,17:02,2.0,0.0,2.0,6.0,13.0,5.0,3.0,10.0,0.0,2.0,3.0,1.0
0021500246,1610612749,MIL,Milwaukee,203089,John Henson,,,17:47,63.5,97.5,-34.1,0.0,0.0,0.0,0.167,0.056,0.119,50.0,0.333,0.333,0.152,84.09,-0.047,2015-11-29T00:00:00,1,MIL,Milwaukee,6-11,28,9,22,23,0,0,0,0,0,0,0,0,0,0,82,0.402,0.571,0.286,25,46,14,0021500246,1610612749,MIL,Milwaukee,John Henson,,,17:47,0.0,2.0,0.0,2.0,9.0,5.0,1.0,8.0,1.0,0.0,2.0,1.0
0021500246,1610612749,MIL,Milwaukee,203898,Tyler Ennis,,,3:36,85.7,120.5,-34.8,0.0,0.0,0.0,0.0,0.0,0.0,0.0,0.0,0.0,0.111,90.93,-0.1,2015-11-29T00:00:00,1,MIL,Milwaukee,6-11,28,9,22,23,0,0,0,0,0,0,0,0,0,0,82,0.402,0.571,0.286,25,46,14,0021500246,1610612749,MIL,Milwaukee,Tyler Ennis,,,3:36,0.0,0.0,0.0,0.0,2.0,0.0,2.0,0.0,0.0,0.0,0.0,0.0
0021500246,1610612749,MIL,Milwaukee,203142,Chris Copeland,,DNP - Coach's Decision                  ,,,,,,,0.0,,,,,,,0.0,,,2015-11-29T00:00:00,1,MIL,Milwaukee,6-11,28,9,22,23,0,0,0,0,0,0,0,0,0,0,82,0.402,0.571,0.286,25,46,14,0021500246,1610612749,MIL,Milwaukee,Chris Copeland,,DNP - Coach's Decision                  ,,,,,,,,,,,,,
0021500246,1610612749,MIL,Milwaukee,203948,Johnny O'Bryant III,,DNP - Coach's Decision                  ,,,,,,,0.0,,,,,,,0.0,,,2015-11-29T00:00:00,1,MIL,Milwaukee,6-11,28,9,22,23,0,0,0,0,0,0,0,0,0,0,82,0.402,0.571,0.286,25,46,14,0021500246,1610612749,MIL,Milwaukee,Johnny O'Bryant III,,DNP - Coach's Decision                  ,,,,,,,,,,,,,
0021500246,1610612749,MIL,Milwaukee,203101,Miles Plumlee,,DNP - Coach's Decision                  ,,,,,,,0.0,,,,,,,0.0,,,2015-11-29T00:00:00,1,MIL,Milwaukee,6-11,28,9,22,23,0,0,0,0,0,0,0,0,0,0,82,0.402,0.571,0.286,25,46,14,0021500246,1610612749,MIL,Milwaukee,Miles Plumlee,,DNP - Coach's Decision                  ,,,,,,,,,,,,,
0021500246,1610612749,MIL,Milwaukee,1626173,Rashad Vaughn,,DNP - Coach's Decision                  ,,,,,,,0.0,,,,,,,0.0,,,2015-11-29T00:00:00,1,MIL,Milwaukee,6-11,28,9,22,23,0,0,0,0,0,0,0,0,0,0,82,0.402,0.571,0.286,25,46,14,0021500246,1610612749,MIL,Milwaukee,Rashad Vaughn,,DNP - Coach's Decision                  ,,,,,,,,,,,,,
0021500246,1610612766,CHA,Charlotte,203798,PJ Hairston,F,,14:42,80.3,125.2,-44.9,0.0,0.0,0.0,0.0,0.083,0.043,0.0,0.5,0.5,0.098,93.71,0.034,2015-11-29T00:00:00,1,CHA,Charlotte,10-7,22,23,20,22,0,0,0,0,0,0,0,0,0,0,87,0.386,0.818,0.484,20,43,13,0021500246,1610612766,CHA,Charlotte,PJ Hairston,F,,14:42,0.0,0.0,0.0,0.0,13.0,2.0,10.0,18.0,0.0,0.0,0.0,0.0
0021500246,1610612766,CHA,Charlotte,101107,Marvin Williams,F,,37:13,97.3,95.9,1.4,0.143,0.0,16.1,0.034,0.158,0.104,0.0,0.55,0.575,0.145,85.48,0.13,2015-11-29T00:00:00,1,CHA,Charlotte,10-7,22,23,20,22,0,0,0,0,0,0,0,0,0,0,87,0.386,0.818,0.484,20,43,13,0021500246,1610612766,CHA,Charlotte,Marvin Williams,F,,37:13,0.0,3.0,0.0,2.0,18.0,6.0,12.0,40.0,1.0,0.0,0.0,1.0
0021500246,1610612766,CHA,Charlotte,2744,Al Jefferson,C,,6:51,82.0,124.7,-42.7,0.0,0.0,0.0,0.0,0.167,0.1,0.0,0.0,0.266,0.142,93.34,-0.036,2015-11-29T00:00:00,1,CHA,Charlotte,10-7,22,23,20,22,0,0,0,0,0,0,0,0,0,0,87,0.386,0.818,0.484,20,43,13,0021500246,1610612766,CHA,Charlotte,Al Jefferson,C,,6:51,0.0,0.0,0.0,0.0,7.0,0.0,4.0,12.0,0.0,0.0,1.0,1.0
0021500246,1610612766,CHA,Charlotte,201587,Nicolas Batum,G,,33:40,89.6,100.4,-10.8,0.417,0.56,17.1,0.074,0.094,0.085,30.8,0.423,0.493,0.377,85.49,0.062,2015-11-29T00:00:00,1,CHA,Charlotte,10-7,22,23,20,22,0,0,0,0,0,0,0,0,0,0,87,0.386,0.818,0.484,20,43,13,0021500246,1610612766,CHA,Charlotte,Nicolas Batum,G,,33:40,3.0,0.0,0.0,0.0,21.0,4.0,12.0,34.0,1.0,1.0,1.0,3.0
0021500246,1610612766,CHA,Charlotte,202689,Kemba Walker,G,,39:38,89.1,98.4,-9.3,0.214,1.5,14.5,0.029,0.026,0.027,9.7,0.654,0.703,0.23,87.13,0.177,2015-11-29T00:00:00,1,CHA,Charlotte,10-7,22,23,20,22,0,0,0,0,0,0,0,0,0,0,87,0.386,0.818,0.484,20,43,13,0021500246,1610612766,CHA,Charlotte,Kemba Walker,G,,39:38,7.0,0.0,0.0,8.0,19.0,4.0,10.0,34.0,1.0,0.0,1.0,6.0
0021500246,1610612766,CHA,Charlotte,203087,Jeremy Lamb,,,27:16,121.4,72.5,48.9,0.154,0.0,15.5,0.042,0.258,0.164,0.0,0.65,0.643,0.207,88.9,0.248,2015-11-29T00:00:00,1,CHA,Charlotte,10-7,22,23,20,22,0,0,0,0,0,0,0,0,0,0,87,0.386,0.818,0.484,20,43,13,0021500246,1610612766,CHA,Charlotte,Jeremy Lamb,,,27:16,5.0,0.0,1.0,0.0,5.0,6.0,2.0,24.0,0.0,0.0,0.0,2.0
0021500246,1610612766,CHA,Charlotte,203469,Cody Zeller,,,15:50,126.7,109.5,17.2,0.083,0.0,25.0,0.077,0.0,0.048,0.0,0.333,0.333,0.093,87.19,-0.038,2015-11-29T00:00:00,1,CHA,Charlotte,10-7,22,23,20,22,0,0,0,0,0,0,0,0,0,0,87,0.386,0.818,0.484,20,43,13,0021500246,1610612766,CHA,Charlotte,Cody Zeller,,,15:50,0.0,0.0,0.0,2.0,6.0,2.0,0.0,18.0,0.0,0.0,4.0,2.0
0021500246,1610612766,CHA,Charlotte,1626163,Frank Kaminsky,,,17:11,128.7,69.8,59.0,0.167,0.0,20.0,0.0,0.211,0.118,0.0,0.25,0.25,0.226,94.7,0.095,2015-11-29T00:00:00,1,CHA,Charlotte,10-7,22,23,20,22,0,0,0,0,0,0,0,0,0,0,87,0.386,0.818,0.484,20,43,13,0021500246,1610612766,CHA,Charlotte,Frank Kaminsky,,,17:11,0.0,0.0,0.0,4.0,3.0,4.0,0.0,10.0,1.0,0.0,1.0,0.0
0021500246,1610612766,CHA,Charlotte,202391,Jeremy Lin,,,22:20,106.4,81.7,24.8,0.308,0.0,41.0,0.0,0.12,0.068,0.0,0.375,0.608,0.133,86.83,0.151,2015-11-29T00:00:00,1,CHA,Charlotte,10-7,22,23,20,22,0,0,0,0,0,0,0,0,0,0,87,0.386,0.818,0.484,20,43,13,0021500246,1610612766,CHA,Charlotte,Jeremy Lin,,,22:20,3.0,3.0,2.0,0.0,5.0,6.0,2.0,16.0,0.0,0.0,3.0,7.0
0021500246,1610612766,CHA,Charlotte,201150,Spencer Hawes,,,16:24,79.4,65.8,13.6,0.0,0.0,0.0,0.0,0.32,0.205,29.1,0.375,0.512,0.222,84.64,0.197,2015-11-29T00:00:00,1,CHA,Charlotte,10-7,22,23,20,22,0,0,0,0,0,0,0,0,0,0,87,0.386,0.818,0.484,20,43,13,0021500246,1610612766,CHA,Charlotte,Spencer Hawes,,,16:24,0.0,0.0,0.0,0.0,6.0,2.0,6.0,6.0,0.0,1.0,2.0,2.0
0021500246,1610612766,CHA,Charlotte,201946,Tyler Hansbrough,,,8:55,104.2,79.9,24.3,0.2,0.0,50.0,0.111,0.1,0.105,0.0,1.0,1.0,0.058,91.08,0.143,2015-11-29T00:00:00,1,CHA,Charlotte,10-7,22,23,20,22,0,0,0,0,0,0,0,0,0,0,87,0.386,0.818,0.484,20,43,13,0021500246,1610612766,CHA,Charlotte,Tyler Hansbrough,,,8:55,0.0,2.0,0.0,2.0,2.0,4.0,2.0,8.0,2.0,0.0,3.0,0.0
0021500246,1610612766,CHA,Charlotte,203584,Troy Daniels,,DNP - Coach's Decision                  ,,,,,,,0.0,,,,,,,0.0,,,2015-11-29T00:00:00,1,CHA,Charlotte,10-7,22,23,20,22,0,0,0,0,0,0,0,0,0,0,87,0.386,0.818,0.484,20,43,13,0021500246,1610612766,CHA,Charlotte,Troy Daniels,,DNP - Coach's Decision                  ,,,,,,,,,,,,,
0021500246,1610612766,CHA,Charlotte,203148,Brian Roberts,,DNP - Coach's Decision                  ,,,,,,,0.0,,,,,,,0.0,,,2015-11-29T00:00:00,1,CHA,Charlotte,10-7,22,23,20,22,0,0,0,0,0,0,0,0,0,0,87,0.386,0.818,0.484,20,43,13,0021500246,1610612766,CHA,Charlotte,Brian Roberts,,DNP - Coach's Decision                  ,,,,,,,,,,,,,
