GAME_ID_x,TEAM_ID_x,TEAM_ABBREVIATION_x,TEAM_CITY_x,PLAYER_ID,PLAYER_NAME_x,START_POSITION_x,COMMENT_x,MIN_x,OFF_RATING,DEF_RATING,NET_RATING,AST_PCT,AST_TOV,AST_RATIO,OREB_PCT,DREB_PCT,REB_PCT,TM_TOV_PCT,EFG_PCT,TS_PCT,USG_PCT,PACE,PIE,GAME_DATE_EST,GAME_SEQUENCE,TEAM_ABBREVIATION_y,TEAM_CITY_NAME,TEAM_WINS_LOSSES,PTS_QTR1,PTS_QTR2,PTS_QTR3,PTS_QTR4,PTS_OT1,PTS_OT2,PTS_OT3,PTS_OT4,PTS_OT5,PTS_OT6,PTS_OT7,PTS_OT8,PTS_OT9,PTS_OT10,PTS,FG_PCT,FT_PCT,FG3_PCT,AST,REB,TOV,GAME_ID_y,TEAM_ID_y,TEAM_ABBREVIATION,TEAM_CITY_y,PLAYER_NAME_y,START_POSITION_y,COMMENT_y,MIN_y,PTS_OFF_TOV,PTS_2ND_CHANCE,PTS_FB,PTS_PAINT,OPP_PTS_OFF_TOV,OPP_PTS_2ND_CHANCE,OPP_PTS_FB,OPP_PTS_PAINT,BLK,BLKA,PF,PFD
0021500248,1610612765,DET,Detroit,202694,Marcus Morris,F,,35:26,74.9,89.0,-14.0,0.091,1.0,14.3,0.022,0.074,0.042,14.3,0.35,0.35,0.135,103.55,0.025,2015-11-29T00:00:00,3,DET,Detroit,8-9,22,19,26,16,0,0,0,0,0,0,0,0,0,0,83,0.337,0.429,0.25,19,51,14,0021500248,1610612765,DET,Detroit,Marcus Morris,F,,35:26,0.0,2.0,0.0,4.0,9.0,6.0,10.0,36.0,0.0,0.0,3.0,0.0
0021500248,1610612765,DET,Detroit,101141,Ersan Ilyasova,F,,26:03,90.1,82.4,7.7,0.0,0.0,0.0,0.057,0.143,0.089,10.0,0.444,0.444,0.148,104.62,0.065,2015-11-29T00:00:00,3,DET,Detroit,8-9,22,19,26,16,0,0,0,0,0,0,0,0,0,0,83,0.337,0.429,0.25,19,51,14,0021500248,1610612765,DET,Detroit,Ersan Ilyasova,F,,26:03,4.0,4.0,2.0,4.0,9.0,4.0,9.0,24.0,0.0,1.0,2.0,2.0
0021500248,1610612765,DET,Detroit,203083,Andre Drummond,C,,36:44,89.7,88.8,1.0,0.0,0.0,0.0,0.196,0.267,0.222,11.2,0.474,0.419,0.273,103.2,0.128,2015-11-29T00:00:00,3,DET,Detroit,8-9,22,19,26,16,0,0,0,0,0,0,0,0,0,0,83,0.337,0.429,0.25,19,51,14,0021500248,1610612765,DET,Detroit,Andre Drummond,C,,36:44,5.0,7.0,7.0,18.0,11.0,4.0,13.0,38.0,1.0,1.0,1.0,8.0
0021500248,1610612765,DET,Detroit,203484,Kentavious Caldwell-Pope,G,,33:56,87.6,90.6,-3.1,0.05,0.0,4.5,0.061,0.148,0.092,0.0,0.412,0.491,0.232,103.23,0.158,2015-11-29T00:00:00,3,DET,Detroit,8-9,22,19,26,16,0,0,0,0,0,0,0,0,0,0,83,0.337,0.429,0.25,19,51,14,0021500248,1610612765,DET,Detroit,Kentavious Caldwell-Pope,G,,33:56,5.0,7.0,4.0,2.0,11.0,4.0,13.0,34.0,0.0,2.0,0.0,5.0
0021500248,1610612765,DET,Detroit,202704,Reggie Jackson,G,,30:19,85.4,91.0,-5.6,0.45,3.0,28.1,0.044,0.174,0.088,9.4,0.2,0.2,0.285,103.26,0.0,2015-11-29T00:00:00,3,DET,Detroit,8-9,22,19,26,16,0,0,0,0,0,0,0,0,0,0,83,0.337,0.429,0.25,19,51,14,0021500248,1610612765,DET,Detroit,Reggie Jackson,G,,30:19,2.0,2.0,0.0,6.0,11.0,4.0,11.0,34.0,0.0,4.0,4.0,1.0
0021500248,1610612765,DET,Detroit,201229,Anthony Tolliver,,,21:57,63.9,92.8,-28.9,0.083,0.0,14.3,0.036,0.222,0.109,0.0,0.0,0.0,0.104,101.38,0.01,2015-11-29T00:00:00,3,DET,Detroit,8-9,22,19,26,16,0,0,0,0,0,0,0,0,0,0,83,0.337,0.429,0.25,19,51,14,0021500248,1610612765,DET,Detroit,Anthony Tolliver,,,21:57,0.0,0.0,0.0,0.0,4.0,2.0,7.0,22.0,0.0,0.0,0.0,0.0
0021500248,1610612765,DET,Detroit,1626169,Stanley Johnson,,,26:38,70.6,79.3,-8.8,0.077,1.0,8.3,0.0,0.208,0.089,8.3,0.5,0.5,0.158,102.48,0.119,2015-11-29T00:00:00,3,DET,Detroit,8-9,22,19,26,16,0,0,0,0,0,0,0,0,0,0,83,0.337,0.429,0.25,19,51,14,0021500248,1610612765,DET,Detroit,Stanley Johnson,,,26:38,2.0,0.0,2.0,4.0,6.0,2.0,9.0,22.0,0.0,1.0,3.0,0.0
0021500248,1610612765,DET,Detroit,2581,Steve Blake,,,17:41,66.4,79.5,-13.1,0.571,2.0,36.4,0.0,0.063,0.029,18.2,0.7,0.7,0.157,102.93,0.2,2015-11-29T00:00:00,3,DET,Detroit,8-9,22,19,26,16,0,0,0,0,0,0,0,0,0,0,83,0.337,0.429,0.25,19,51,14,0021500248,1610612765,DET,Detroit,Steve Blake,,,17:41,0.0,2.0,0.0,0.0,2.0,2.0,5.0,12.0,0.0,0.0,1.0,0.0
0021500248,1610612765,DET,Detroit,203382,Aron Baynes,,,11:16,42.3,80.6,-38.3,0.25,0.5,12.5,0.0,0.111,0.048,25.0,0.2,0.2,0.259,102.93,-0.154,2015-11-29T00:00:00,3,DET,Detroit,8-9,22,19,26,16,0,0,0,0,0,0,0,0,0,0,83,0.337,0.429,0.25,19,51,14,0021500248,1610612765,DET,Detroit,Aron Baynes,,,11:16,0.0,0.0,0.0,2.0,2.0,2.0,3.0,8.0,0.0,2.0,1.0,0.0
0021500248,1610612765,DET,Detroit,201202,Joel Anthony,,DNP - Coach's Decision                  ,,,,,,,0.0,,,,,,,0.0,,,2015-11-29T00:00:00,3,DET,Detroit,8-9,22,19,26,16,0,0,0,0,0,0,0,0,0,0,83,0.337,0.429,0.25,19,51,14,0021500248,1610612765,DET,Detroit,Joel Anthony,,DNP - Coach's Decision                  ,,,,,,,,,,,,,
0021500248,1610612765,DET,Detroit,203493,Reggie Bullock,,DNP - Coach's Decision                  ,,,,,,,0.0,,,,,,,0.0,,,2015-11-29T00:00:00,3,DET,Detroit,8-9,22,19,26,16,0,0,0,0,0,0,0,0,0,0,83,0.337,0.429,0.25,19,51,14,0021500248,1610612765,DET,Detroit,Reggie Bullock,,DNP - Coach's Decision                  ,,,,,,,,,,,,,
0021500248,1610612765,DET,Detroit,203915,Spencer Dinwiddie,,DNP - Coach's Decision                  ,,,,,,,0.0,,,,,,,0.0,,,2015-11-29T00:00:00,3,DET,Detroit,8-9,22,19,26,16,0,0,0,0,0,0,0,0,0,0,83,0.337,0.429,0.25,19,51,14,0021500248,1610612765,DET,Detroit,Spencer Dinwiddie,,DNP - Coach's Decision                  ,,,,,,,,,,,,,
0021500248,1610612765,DET,Detroit,1626199,Darrun Hilliard,,DNP - Coach's Decision                  ,,,,,,,0.0,,,,,,,0.0,,,2015-11-29T00:00:00,3,DET,Detroit,8-9,22,19,26,16,0,0,0,0,0,0,0,0,0,0,83,0.337,0.429,0.25,19,51,14,0021500248,1610612765,DET,Detroit,Darrun Hilliard,,DNP - Coach's Decision                  ,,,,,,,,,,,,,
0021500248,1610612751,BKN,Brooklyn,2207,Joe Johnson,F,,38:45,87.8,72.0,15.8,0.042,0.33,6.3,0.0,0.109,0.063,19.0,0.45,0.553,0.174,104.18,0.086,2015-11-29T00:00:00,3,BKN,Brooklyn,4-13,18,17,24,28,0,0,0,0,0,0,0,0,0,0,87,0.432,0.813,0.333,15,51,19,0021500248,1610612751,BKN,Brooklyn,Joe Johnson,F,,38:45,4.0,2.0,5.0,6.0,11.0,11.0,10.0,34.0,0.0,0.0,1.0,3.0
0021500248,1610612751,BKN,Brooklyn,201152,Thaddeus Young,F,,31:01,94.1,88.4,5.7,0.188,1.5,16.8,0.048,0.209,0.156,11.2,0.75,0.738,0.216,100.95,0.25,2015-11-29T00:00:00,3,BKN,Brooklyn,4-13,18,17,24,28,0,0,0,0,0,0,0,0,0,0,87,0.432,0.813,0.333,15,51,19,0021500248,1610612751,BKN,Brooklyn,Thaddeus Young,F,,31:01,4.0,2.0,2.0,14.0,14.0,15.0,15.0,24.0,1.0,0.0,3.0,2.0
0021500248,1610612751,BKN,Brooklyn,201572,Brook Lopez,C,,35:34,81.7,81.4,0.3,0.263,1.67,17.7,0.071,0.152,0.122,10.6,0.333,0.371,0.304,102.55,0.121,2015-11-29T00:00:00,3,BKN,Brooklyn,4-13,18,17,24,28,0,0,0,0,0,0,0,0,0,0,87,0.432,0.813,0.333,15,51,19,0021500248,1610612751,BKN,Brooklyn,Brook Lopez,C,,35:34,3.0,2.0,0.0,12.0,16.0,14.0,13.0,36.0,6.0,0.0,6.0,4.0
0021500248,1610612751,BKN,Brooklyn,1626178,Rondae Hollis-Jefferson,G,,21:20,78.5,91.5,-13.0,0.0,0.0,0.0,0.05,0.097,0.078,0.0,0.0,0.205,0.102,109.37,0.018,2015-11-29T00:00:00,3,BKN,Brooklyn,4-13,18,17,24,28,0,0,0,0,0,0,0,0,0,0,87,0.432,0.813,0.333,15,51,19,0021500248,1610612751,BKN,Brooklyn,Rondae Hollis-Jefferson,G,,21:20,0.0,0.0,2.0,0.0,12.0,15.0,9.0,24.0,1.0,1.0,1.0,2.0
0021500248,1610612751,BKN,Brooklyn,101127,Jarrett Jack,G,,26:42,84.4,81.5,3.0,0.267,0.8,21.2,0.0,0.114,0.076,26.5,0.5,0.557,0.241,104.05,0.151,2015-11-29T00:00:00,3,BKN,Brooklyn,4-13,18,17,24,28,0,0,0,0,0,0,0,0,0,0,87,0.432,0.813,0.333,15,51,19,0021500248,1610612751,BKN,Brooklyn,Jarrett Jack,G,,26:42,0.0,0.0,0.0,0.0,9.0,20.0,9.0,22.0,0.0,0.0,2.0,2.0
0021500248,1610612751,BKN,Brooklyn,200745,Andrea Bargnani,,,2:31,50.0,82.0,-32.0,0.0,0.0,0.0,0.0,0.0,0.0,0.0,0.0,0.0,0.167,84.68,-4.0,2015-11-29T00:00:00,3,BKN,Brooklyn,4-13,18,17,24,28,0,0,0,0,0,0,0,0,0,0,87,0.432,0.813,0.333,15,51,19,0021500248,1610612751,BKN,Brooklyn,Andrea Bargnani,,,2:31,0.0,0.0,0.0,0.0,2.0,4.0,0.0,2.0,0.0,0.0,1.0,0.0
0021500248,1610612751,BKN,Brooklyn,202711,Bojan Bogdanovic,,,21:04,82.9,66.6,16.3,0.0,0.0,0.0,0.0,0.069,0.043,0.0,0.333,0.333,0.127,101.07,0.053,2015-11-29T00:00:00,3,BKN,Brooklyn,4-13,18,17,24,28,0,0,0,0,0,0,0,0,0,0,87,0.432,0.813,0.333,15,51,19,0021500248,1610612751,BKN,Brooklyn,Bojan Bogdanovic,,,21:04,2.0,0.0,2.0,4.0,6.0,14.0,2.0,12.0,0.0,0.0,0.0,0.0
0021500248,1610612751,BKN,Brooklyn,203080,Thomas Robinson,,,12:26,101.4,68.7,32.6,0.0,0.0,0.0,0.273,0.235,0.25,33.3,0.25,0.25,0.196,104.82,0.137,2015-11-29T00:00:00,3,BKN,Brooklyn,4-13,18,17,24,28,0,0,0,0,0,0,0,0,0,0,87,0.432,0.813,0.333,15,51,19,0021500248,1610612751,BKN,Brooklyn,Thomas Robinson,,,12:26,0.0,0.0,2.0,2.0,2.0,10.0,2.0,4.0,2.0,0.0,1.0,0.0
0021500248,1610612751,BKN,Brooklyn,203499,Shane Larkin,,,21:23,88.2,72.4,15.8,0.167,2.0,15.4,0.0,0.105,0.056,7.7,0.45,0.45,0.238,103.81,0.093,2015-11-29T00:00:00,3,BKN,Brooklyn,4-13,18,17,24,28,0,0,0,0,0,0,0,0,0,0,87,0.432,0.813,0.333,15,51,19,0021500248,1610612751,BKN,Brooklyn,Shane Larkin,,,21:23,0.0,0.0,3.0,6.0,9.0,4.0,6.0,18.0,0.0,0.0,1.0,1.0
0021500248,1610612751,BKN,Brooklyn,201961,Wayne Ellington,,,23:32,99.6,67.7,31.8,0.0,0.0,0.0,0.0,0.207,0.133,28.7,0.786,0.806,0.2,99.32,0.223,2015-11-29T00:00:00,3,BKN,Brooklyn,4-13,18,17,24,28,0,0,0,0,0,0,0,0,0,0,87,0.432,0.813,0.333,15,51,19,0021500248,1610612751,BKN,Brooklyn,Wayne Ellington,,,23:32,0.0,0.0,0.0,2.0,7.0,11.0,5.0,14.0,1.0,0.0,0.0,1.0
0021500248,1610612751,BKN,Brooklyn,203508,Sergey Karasev,,,5:42,61.5,100.0,-38.5,0.0,0.0,0.0,0.0,0.2,0.091,0.0,0.0,0.0,0.0,109.47,0.048,2015-11-29T00:00:00,3,BKN,Brooklyn,4-13,18,17,24,28,0,0,0,0,0,0,0,0,0,0,87,0.432,0.813,0.333,15,51,19,0021500248,1610612751,BKN,Brooklyn,Sergey Karasev,,,5:42,0.0,0.0,0.0,0.0,2.0,2.0,4.0,10.0,0.0,0.0,0.0,0.0
0021500248,1610612751,BKN,Brooklyn,203900,Markel Brown,,DNP - Coach's Decision                  ,,,,,,,0.0,,,,,,,0.0,,,2015-11-29T00:00:00,3,BKN,Brooklyn,4-13,18,17,24,28,0,0,0,0,0,0,0,0,0,0,87,0.432,0.813,0.333,15,51,19,0021500248,1610612751,BKN,Brooklyn,Markel Brown,,DNP - Coach's Decision                  ,,,,,,,,,,,,,
0021500248,1610612751,BKN,Brooklyn,202388,Donald Sloan,,DNP - Coach's Decision                  ,,,,,,,0.0,,,,,,,0.0,,,2015-11-29T00:00:00,3,BKN,Brooklyn,4-13,18,17,24,28,0,0,0,0,0,0,0,0,0,0,87,0.432,0.813,0.333,15,51,19,0021500248,1610612751,BKN,Brooklyn,Donald Sloan,,DNP - Coach's Decision                  ,,,,,,,,,,,,,
