GAME_ID_x,TEAM_ID_x,TEAM_ABBREVIATION_x,TEAM_CITY_x,PLAYER_ID,PLAYER_NAME_x,START_POSITION_x,COMMENT_x,MIN_x,OFF_RATING,DEF_RATING,NET_RATING,AST_PCT,AST_TOV,AST_RATIO,OREB_PCT,DREB_PCT,REB_PCT,TM_TOV_PCT,EFG_PCT,TS_PCT,USG_PCT,PACE,PIE,GAME_DATE_EST,GAME_SEQUENCE,TEAM_ABBREVIATION_y,TEAM_CITY_NAME,TEAM_WINS_LOSSES,PTS_QTR1,PTS_QTR2,PTS_QTR3,PTS_QTR4,PTS_OT1,PTS_OT2,PTS_OT3,PTS_OT4,PTS_OT5,PTS_OT6,PTS_OT7,PTS_OT8,PTS_OT9,PTS_OT10,PTS,FG_PCT,FT_PCT,FG3_PCT,AST,REB,TOV,GAME_ID_y,TEAM_ID_y,TEAM_ABBREVIATION,TEAM_CITY_y,PLAYER_NAME_y,START_POSITION_y,COMMENT_y,MIN_y,PTS_OFF_TOV,PTS_2ND_CHANCE,PTS_FB,PTS_PAINT,OPP_PTS_OFF_TOV,OPP_PTS_2ND_CHANCE,OPP_PTS_FB,OPP_PTS_PAINT,BLK,BLKA,PF,PFD
0021500256,1610612760,OKC,Oklahoma City,201142,Kevin Durant,F,,39:39,106.8,107.0,-0.3,0.24,3.0,21.3,0.0,0.146,0.074,7.1,0.556,0.619,0.236,103.07,0.173,2015-11-30T00:00:00,3,OKC,Oklahoma City,11-7,21,31,22,26,0,0,0,0,0,0,0,0,0,0,100,0.398,0.864,0.368,19,48,11,0021500256,1610612760,OKC,Oklahoma City,Kevin Durant,F,,39:39,4.0,0.0,4.0,12.0,12.0,16.0,8.0,42.0,4.0,0.0,0.0,5.0
0021500256,1610612760,OKC,Oklahoma City,201586,Serge Ibaka,F,,35:02,101.6,103.8,-2.3,0.05,0.0,6.1,0.028,0.111,0.069,0.0,0.533,0.551,0.189,103.42,0.114,2015-11-30T00:00:00,3,OKC,Oklahoma City,11-7,21,31,22,26,0,0,0,0,0,0,0,0,0,0,100,0.398,0.864,0.368,19,48,11,0021500256,1610612760,OKC,Oklahoma City,Serge Ibaka,F,,35:02,2.0,0.0,0.0,6.0,7.0,14.0,6.0,36.0,4.0,1.0,2.0,1.0
0021500256,1610612760,OKC,Oklahoma City,203500,Steven Adams,C,,14:05,63.8,108.8,-45.0,0.0,0.0,0.0,0.0,0.182,0.071,0.0,0.0,0.0,0.061,102.38,-0.039,2015-11-30T00:00:00,3,OKC,Oklahoma City,11-7,21,31,22,26,0,0,0,0,0,0,0,0,0,0,100,0.398,0.864,0.368,19,48,11,0021500256,1610612760,OKC,Oklahoma City,Steven Adams,C,,14:05,0.0,0.0,0.0,0.0,0.0,4.0,4.0,18.0,0.0,1.0,1.0,1.0
0021500256,1610612760,OKC,Oklahoma City,203460,Andre Roberson,G,,16:26,66.0,133.0,-67.0,0.0,0.0,0.0,0.0,0.091,0.031,0.0,0.625,0.625,0.113,101.38,0.041,2015-11-30T00:00:00,3,OKC,Oklahoma City,11-7,21,31,22,26,0,0,0,0,0,0,0,0,0,0,100,0.398,0.864,0.368,19,48,11,0021500256,1610612760,OKC,Oklahoma City,Andre Roberson,G,,16:26,0.0,0.0,0.0,2.0,2.0,6.0,4.0,24.0,0.0,1.0,3.0,0.0
0021500256,1610612760,OKC,Oklahoma City,201566,Russell Westbrook,G,,35:57,103.4,105.0,-1.6,0.368,1.17,16.7,0.057,0.237,0.151,14.3,0.479,0.589,0.418,105.08,0.202,2015-11-30T00:00:00,3,OKC,Oklahoma City,11-7,21,31,22,26,0,0,0,0,0,0,0,0,0,0,100,0.398,0.864,0.368,19,48,11,0021500256,1610612760,OKC,Oklahoma City,Russell Westbrook,G,,35:57,4.0,2.0,15.0,12.0,9.0,14.0,8.0,40.0,0.0,1.0,3.0,7.0
0021500256,1610612760,OKC,Oklahoma City,203079,Dion Waiters,,,31:18,112.3,108.5,3.8,0.12,0.0,27.6,0.033,0.152,0.095,0.0,0.0,0.063,0.1,100.01,-0.004,2015-11-30T00:00:00,3,OKC,Oklahoma City,11-7,21,31,22,26,0,0,0,0,0,0,0,0,0,0,100,0.398,0.864,0.368,19,48,11,0021500256,1610612760,OKC,Oklahoma City,Dion Waiters,,,31:18,1.0,0.0,1.0,0.0,14.0,13.0,7.0,28.0,0.0,1.0,4.0,1.0
0021500256,1610612760,OKC,Oklahoma City,202683,Enes Kanter,,,15:44,91.7,114.7,-23.1,0.0,0.0,0.0,0.316,0.235,0.278,0.0,0.429,0.429,0.164,93.48,0.184,2015-11-30T00:00:00,3,OKC,Oklahoma City,11-7,21,31,22,26,0,0,0,0,0,0,0,0,0,0,100,0.398,0.864,0.368,19,48,11,0021500256,1610612760,OKC,Oklahoma City,Enes Kanter,,,15:44,0.0,4.0,0.0,6.0,10.0,8.0,7.0,14.0,0.0,0.0,0.0,0.0
0021500256,1610612760,OKC,Oklahoma City,2555,Nick Collison,,,12:58,85.0,117.7,-32.7,0.125,0.33,14.3,0.143,0.077,0.111,42.9,0.333,0.333,0.177,93.51,-0.098,2015-11-30T00:00:00,3,OKC,Oklahoma City,11-7,21,31,22,26,0,0,0,0,0,0,0,0,0,0,100,0.398,0.864,0.368,19,48,11,0021500256,1610612760,OKC,Oklahoma City,Nick Collison,,,12:58,0.0,0.0,0.0,0.0,7.0,5.0,7.0,12.0,0.0,1.0,4.0,0.0
0021500256,1610612760,OKC,Oklahoma City,201571,D.J. Augustin,,,16:11,81.0,104.9,-23.9,0.091,0.0,33.3,0.056,0.0,0.029,0.0,0.0,0.0,0.048,90.37,-0.036,2015-11-30T00:00:00,3,OKC,Oklahoma City,11-7,21,31,22,26,0,0,0,0,0,0,0,0,0,0,100,0.398,0.864,0.368,19,48,11,0021500256,1610612760,OKC,Oklahoma City,D.J. Augustin,,,16:11,0.0,0.0,0.0,0.0,5.0,7.0,7.0,12.0,0.0,0.0,1.0,0.0
0021500256,1610612760,OKC,Oklahoma City,201627,Anthony Morrow,,,22:40,107.1,84.4,22.7,0.0,0.0,0.0,0.0,0.107,0.062,0.0,0.375,0.402,0.221,101.76,0.037,2015-11-30T00:00:00,3,OKC,Oklahoma City,11-7,21,31,22,26,0,0,0,0,0,0,0,0,0,0,100,0.398,0.864,0.368,19,48,11,0021500256,1610612760,OKC,Oklahoma City,Anthony Morrow,,,22:40,0.0,3.0,3.0,0.0,4.0,8.0,7.0,14.0,0.0,2.0,1.0,0.0
0021500256,1610612760,OKC,Oklahoma City,200779,Steve Novak,,DNP - Coach's Decision                  ,,,,,,,0.0,,,,,,,0.0,,,2015-11-30T00:00:00,3,OKC,Oklahoma City,11-7,21,31,22,26,0,0,0,0,0,0,0,0,0,0,100,0.398,0.864,0.368,19,48,11,0021500256,1610612760,OKC,Oklahoma City,Steve Novak,,DNP - Coach's Decision                  ,,,,,,,,,,,,,
0021500256,1610612760,OKC,Oklahoma City,1626166,Cameron Payne,,DNP - Coach's Decision                  ,,,,,,,0.0,,,,,,,0.0,,,2015-11-30T00:00:00,3,OKC,Oklahoma City,11-7,21,31,22,26,0,0,0,0,0,0,0,0,0,0,100,0.398,0.864,0.368,19,48,11,0021500256,1610612760,OKC,Oklahoma City,Cameron Payne,,DNP - Coach's Decision                  ,,,,,,,,,,,,,
0021500256,1610612760,OKC,Oklahoma City,202713,Kyle Singler,,DNP - Coach's Decision                  ,,,,,,,0.0,,,,,,,0.0,,,2015-11-30T00:00:00,3,OKC,Oklahoma City,11-7,21,31,22,26,0,0,0,0,0,0,0,0,0,0,100,0.398,0.864,0.368,19,48,11,0021500256,1610612760,OKC,Oklahoma City,Kyle Singler,,DNP - Coach's Decision                  ,,,,,,,,,,,,,
0021500256,1610612737,ATL,Atlanta,200757,Thabo Sefolosha,F,,38:32,108.5,102.7,5.9,0.182,6.0,50.0,0.0,0.2,0.101,8.3,0.0,0.0,0.064,101.48,0.057,2015-11-30T00:00:00,3,ATL,Atlanta,12-8,31,22,26,27,0,0,0,0,0,0,0,0,0,0,106,0.433,0.9,0.357,23,51,12,0021500256,1610612737,ATL,Atlanta,Thabo Sefolosha,F,,38:32,0.0,0.0,0.0,0.0,11.0,6.0,17.0,34.0,0.0,1.0,3.0,0.0
0021500256,1610612737,ATL,Atlanta,200794,Paul Millsap,F,,35:10,112.9,104.6,8.3,0.208,1.67,15.9,0.147,0.167,0.157,9.6,0.447,0.556,0.3,104.77,0.164,2015-11-30T00:00:00,3,ATL,Atlanta,12-8,31,22,26,27,0,0,0,0,0,0,0,0,0,0,106,0.433,0.9,0.357,23,51,12,0021500256,1610612737,ATL,Atlanta,Paul Millsap,F,,35:10,5.0,2.0,4.0,12.0,10.0,6.0,18.0,32.0,4.0,3.0,2.0,7.0
0021500256,1610612737,ATL,Atlanta,201143,Al Horford,C,,34:47,101.8,91.6,10.3,0.053,0.0,5.8,0.114,0.257,0.186,0.0,0.6,0.643,0.205,98.59,0.214,2015-11-30T00:00:00,3,ATL,Atlanta,12-8,31,22,26,27,0,0,0,0,0,0,0,0,0,0,106,0.433,0.9,0.357,23,51,12,0021500256,1610612737,ATL,Atlanta,Al Horford,C,,34:47,0.0,5.0,0.0,6.0,7.0,3.0,19.0,26.0,2.0,3.0,2.0,2.0
0021500256,1610612737,ATL,Atlanta,2594,Kyle Korver,G,,34:06,115.0,84.6,30.4,0.038,0.0,7.1,0.028,0.125,0.074,0.0,0.423,0.423,0.161,99.96,0.056,2015-11-30T00:00:00,3,ATL,Atlanta,12-8,31,22,26,27,0,0,0,0,0,0,0,0,0,0,106,0.433,0.9,0.357,23,51,12,0021500256,1610612737,ATL,Atlanta,Kyle Korver,G,,34:06,0.0,3.0,0.0,0.0,6.0,0.0,16.0,24.0,0.0,0.0,0.0,1.0
0021500256,1610612737,ATL,Atlanta,201952,Jeff Teague,G,,31:02,103.9,102.3,1.6,0.278,0.83,17.1,0.031,0.065,0.048,20.5,0.647,0.682,0.303,104.21,0.118,2015-11-30T00:00:00,3,ATL,Atlanta,12-8,31,22,26,27,0,0,0,0,0,0,0,0,0,0,106,0.433,0.9,0.357,23,51,12,0021500256,1610612737,ATL,Atlanta,Jeff Teague,G,,31:02,7.0,3.0,4.0,16.0,10.0,2.0,16.0,24.0,0.0,0.0,4.0,1.0
0021500256,1610612737,ATL,Atlanta,203488,Mike Muscala,,,16:42,105.6,104.3,1.4,0.0,0.0,0.0,0.111,0.211,0.162,16.7,0.6,0.6,0.154,102.7,0.122,2015-11-30T00:00:00,3,ATL,Atlanta,12-8,31,22,26,27,0,0,0,0,0,0,0,0,0,0,106,0.433,0.9,0.357,23,51,12,0021500256,1610612737,ATL,Atlanta,Mike Muscala,,,16:42,0.0,4.0,0.0,6.0,5.0,9.0,5.0,14.0,0.0,0.0,2.0,0.0
0021500256,1610612737,ATL,Atlanta,203145,Kent Bazemore,,,22:15,96.6,105.3,-8.7,0.091,0.0,11.1,0.0,0.074,0.041,0.0,0.438,0.438,0.158,106.63,0.062,2015-11-30T00:00:00,3,ATL,Atlanta,12-8,31,22,26,27,0,0,0,0,0,0,0,0,0,0,106,0.433,0.9,0.357,23,51,12,0021500256,1610612737,ATL,Atlanta,Kent Bazemore,,,22:15,0.0,2.0,0.0,4.0,5.0,9.0,15.0,22.0,2.0,0.0,1.0,2.0
0021500256,1610612737,ATL,Atlanta,203471,Dennis Schroder,,,16:30,111.7,87.3,24.4,0.222,2.0,22.2,0.0,0.056,0.029,11.1,0.417,0.417,0.221,89.95,0.062,2015-11-30T00:00:00,3,ATL,Atlanta,12-8,31,22,26,27,0,0,0,0,0,0,0,0,0,0,106,0.433,0.9,0.357,23,51,12,0021500256,1610612737,ATL,Atlanta,Dennis Schroder,,,16:30,0.0,0.0,0.0,2.0,1.0,7.0,5.0,10.0,0.0,1.0,1.0,4.0
0021500256,1610612737,ATL,Atlanta,203934,Lamar Patterson,,,1:40,166.7,150.0,16.7,0.5,0.0,100.0,0.0,0.0,0.0,0.0,0.0,0.0,0.0,72.0,0.105,2015-11-30T00:00:00,3,ATL,Atlanta,12-8,31,22,26,27,0,0,0,0,0,0,0,0,0,0,106,0.433,0.9,0.357,23,51,12,0021500256,1610612737,ATL,Atlanta,Lamar Patterson,,,1:40,0.0,0.0,0.0,0.0,0.0,3.0,0.0,0.0,0.0,0.0,0.0,0.0
0021500256,1610612737,ATL,Atlanta,203118,Mike Scott,,,9:15,95.2,76.4,18.8,0.25,0.0,21.0,0.091,0.1,0.095,0.0,0.5,0.665,0.212,88.42,0.224,2015-11-30T00:00:00,3,ATL,Atlanta,12-8,31,22,26,27,0,0,0,0,0,0,0,0,0,0,106,0.433,0.9,0.357,23,51,12,0021500256,1610612737,ATL,Atlanta,Mike Scott,,,9:15,2.0,0.0,5.0,2.0,0.0,0.0,4.0,4.0,0.0,0.0,0.0,2.0
0021500256,1610612737,ATL,Atlanta,203200,Justin Holiday,,DNP - Coach's Decision                  ,,,,,,,0.0,,,,,,,0.0,,,2015-11-30T00:00:00,3,ATL,Atlanta,12-8,31,22,26,27,0,0,0,0,0,0,0,0,0,0,106,0.433,0.9,0.357,23,51,12,0021500256,1610612737,ATL,Atlanta,Justin Holiday,,DNP - Coach's Decision                  ,,,,,,,,,,,,,
0021500256,1610612737,ATL,Atlanta,202714,Shelvin Mack,,DNP - Coach's Decision                  ,,,,,,,0.0,,,,,,,0.0,,,2015-11-30T00:00:00,3,ATL,Atlanta,12-8,31,22,26,27,0,0,0,0,0,0,0,0,0,0,106,0.433,0.9,0.357,23,51,12,0021500256,1610612737,ATL,Atlanta,Shelvin Mack,,DNP - Coach's Decision                  ,,,,,,,,,,,,,
0021500256,1610612737,ATL,Atlanta,204002,Edy Tavares,,DNP - Coach's Decision                  ,,,,,,,0.0,,,,,,,0.0,,,2015-11-30T00:00:00,3,ATL,Atlanta,12-8,31,22,26,27,0,0,0,0,0,0,0,0,0,0,106,0.433,0.9,0.357,23,51,12,0021500256,1610612737,ATL,Atlanta,Edy Tavares,,DNP - Coach's Decision                  ,,,,,,,,,,,,,
