GAME_ID_x,TEAM_ID_x,TEAM_ABBREVIATION_x,TEAM_CITY_x,PLAYER_ID,PLAYER_NAME_x,START_POSITION_x,COMMENT_x,MIN_x,OFF_RATING,DEF_RATING,NET_RATING,AST_PCT,AST_TOV,AST_RATIO,OREB_PCT,DREB_PCT,REB_PCT,TM_TOV_PCT,EFG_PCT,TS_PCT,USG_PCT,PACE,PIE,GAME_DATE_EST,GAME_SEQUENCE,TEAM_ABBREVIATION_y,TEAM_CITY_NAME,TEAM_WINS_LOSSES,PTS_QTR1,PTS_QTR2,PTS_QTR3,PTS_QTR4,PTS_OT1,PTS_OT2,PTS_OT3,PTS_OT4,PTS_OT5,PTS_OT6,PTS_OT7,PTS_OT8,PTS_OT9,PTS_OT10,PTS,FG_PCT,FT_PCT,FG3_PCT,AST,REB,TOV,GAME_ID_y,TEAM_ID_y,TEAM_ABBREVIATION,TEAM_CITY_y,PLAYER_NAME_y,START_POSITION_y,COMMENT_y,MIN_y,PTS_OFF_TOV,PTS_2ND_CHANCE,PTS_FB,PTS_PAINT,OPP_PTS_OFF_TOV,OPP_PTS_2ND_CHANCE,OPP_PTS_FB,OPP_PTS_PAINT,BLK,BLKA,PF,PFD
0021500254,1610612745,HOU,Houston,2772,Trevor Ariza,F,,35:54,96.9,113.6,-16.7,0.083,1.0,15.4,0.0,0.121,0.061,15.4,0.111,0.111,0.127,99.24,-0.04,2015-11-30T00:00:00,1,HOU,Houston,7-11,21,20,32,32,0,0,0,0,0,0,0,0,0,0,105,0.398,0.857,0.407,19,45,16,0021500254,1610612745,HOU,Houston,Trevor Ariza,F,,35:54,0.0,0.0,0.0,2.0,19.0,18.0,11.0,38.0,1.0,1.0,3.0,0.0
0021500254,1610612745,HOU,Houston,203991,Clint Capela,F,,22:17,88.6,133.5,-44.9,0.1,0.5,6.7,0.179,0.0,0.109,13.4,0.455,0.463,0.242,95.04,0.084,2015-11-30T00:00:00,1,HOU,Houston,7-11,21,20,32,32,0,0,0,0,0,0,0,0,0,0,105,0.398,0.857,0.407,19,45,16,0021500254,1610612745,HOU,Houston,Clint Capela,F,,22:17,0.0,6.0,2.0,10.0,11.0,14.0,3.0,30.0,0.0,0.0,3.0,1.0
0021500254,1610612745,HOU,Houston,2730,Dwight Howard,C,,31:12,117.4,98.8,18.6,0.095,0.67,16.7,0.167,0.214,0.192,25.0,0.571,0.571,0.141,98.35,0.087,2015-11-30T00:00:00,1,HOU,Houston,7-11,21,20,32,32,0,0,0,0,0,0,0,0,0,0,105,0.398,0.857,0.407,19,45,16,0021500254,1610612745,HOU,Houston,Dwight Howard,C,,31:12,2.0,4.0,0.0,8.0,17.0,14.0,6.0,30.0,4.0,1.0,5.0,2.0
0021500254,1610612745,HOU,Houston,201935,James Harden,G,,42:22,112.5,113.1,-0.7,0.25,1.4,20.3,0.027,0.205,0.118,14.5,0.467,0.645,0.277,99.42,0.169,2015-11-30T00:00:00,1,HOU,Houston,7-11,21,20,32,32,0,0,0,0,0,0,0,0,0,0,105,0.398,0.857,0.407,19,45,16,0021500254,1610612745,HOU,Houston,James Harden,G,,42:22,7.0,0.0,4.0,8.0,21.0,23.0,11.0,42.0,0.0,0.0,4.0,9.0
0021500254,1610612745,HOU,Houston,201976,Patrick Beverley,G,,28:13,117.2,124.8,-7.7,0.167,3.0,18.8,0.0,0.0,0.0,6.3,0.417,0.417,0.202,92.86,0.0,2015-11-30T00:00:00,1,HOU,Houston,7-11,21,20,32,32,0,0,0,0,0,0,0,0,0,0,105,0.398,0.857,0.407,19,45,16,0021500254,1610612745,HOU,Houston,Patrick Beverley,G,,28:13,3.0,0.0,3.0,4.0,15.0,16.0,3.0,28.0,2.0,3.0,6.0,0.0
0021500254,1610612745,HOU,Houston,203093,Terrence Jones,,,15:06,75.8,135.6,-59.8,0.0,0.0,0.0,0.042,0.167,0.083,0.0,0.2,0.255,0.139,106.05,0.008,2015-11-30T00:00:00,1,HOU,Houston,7-11,21,20,32,32,0,0,0,0,0,0,0,0,0,0,105,0.398,0.857,0.407,19,45,16,0021500254,1610612745,HOU,Houston,Terrence Jones,,,15:06,0.0,2.0,0.0,2.0,6.0,10.0,9.0,28.0,0.0,1.0,0.0,1.0
0021500254,1610612745,HOU,Houston,201951,Ty Lawson,,,18:42,95.6,110.0,-14.4,0.333,3.0,25.0,0.077,0.05,0.065,8.3,0.688,0.688,0.184,108.56,0.156,2015-11-30T00:00:00,1,HOU,Houston,7-11,21,20,32,32,0,0,0,0,0,0,0,0,0,0,105,0.398,0.857,0.407,19,45,16,0021500254,1610612745,HOU,Houston,Ty Lawson,,,18:42,2.0,3.0,0.0,2.0,6.0,11.0,6.0,26.0,0.0,1.0,0.0,1.0
0021500254,1610612745,HOU,Houston,201147,Corey Brewer,,,15:53,94.9,124.6,-29.7,0.0,0.0,0.0,0.056,0.111,0.083,0.0,0.5,0.615,0.179,105.15,0.145,2015-11-30T00:00:00,1,HOU,Houston,7-11,21,20,32,32,0,0,0,0,0,0,0,0,0,0,105,0.398,0.857,0.407,19,45,16,0021500254,1610612745,HOU,Houston,Corey Brewer,,,15:53,5.0,0.0,7.0,6.0,4.0,14.0,2.0,20.0,0.0,1.0,0.0,2.0
0021500254,1610612745,HOU,Houston,201977,Marcus Thornton,,,21:45,128.8,131.3,-2.5,0.1,0.5,5.6,0.095,0.25,0.162,11.3,0.538,0.61,0.334,99.22,0.147,2015-11-30T00:00:00,1,HOU,Houston,7-11,21,20,32,32,0,0,0,0,0,0,0,0,0,0,105,0.398,0.857,0.407,19,45,16,0021500254,1610612745,HOU,Houston,Marcus Thornton,,,21:45,0.0,2.0,0.0,0.0,4.0,15.0,2.0,28.0,0.0,0.0,2.0,2.0
0021500254,1610612745,HOU,Houston,1626149,Montrezl Harrell,,,7:50,105.9,81.6,24.3,0.0,0.0,0.0,0.0,0.222,0.125,0.0,1.0,1.0,0.105,104.7,0.14,2015-11-30T00:00:00,1,HOU,Houston,7-11,21,20,32,32,0,0,0,0,0,0,0,0,0,0,105,0.398,0.857,0.407,19,45,16,0021500254,1610612745,HOU,Houston,Montrezl Harrell,,,7:50,0.0,0.0,0.0,4.0,2.0,0.0,0.0,0.0,0.0,0.0,3.0,1.0
0021500254,1610612745,HOU,Houston,203909,KJ McDaniels,,,0:47,0.0,106.4,-106.4,0.0,0.0,0.0,0.0,0.0,0.0,0.0,0.0,0.0,0.0,118.12,0.0,2015-11-30T00:00:00,1,HOU,Houston,7-11,21,20,32,32,0,0,0,0,0,0,0,0,0,0,105,0.398,0.857,0.407,19,45,16,0021500254,1610612745,HOU,Houston,KJ McDaniels,,,0:47,0.0,0.0,0.0,0.0,0.0,0.0,2.0,0.0,0.0,0.0,1.0,0.0
0021500254,1610612745,HOU,Houston,1891,Jason Terry,,DNP - Coach's Decision                  ,,,,,,,0.0,,,,,,,0.0,,,2015-11-30T00:00:00,1,HOU,Houston,7-11,21,20,32,32,0,0,0,0,0,0,0,0,0,0,105,0.398,0.857,0.407,19,45,16,0021500254,1610612745,HOU,Houston,Jason Terry,,DNP - Coach's Decision                  ,,,,,,,,,,,,,
0021500254,1610612765,DET,Detroit,202694,Marcus Morris,F,,33:57,112.9,108.7,4.2,0.25,2.0,28.1,0.034,0.091,0.065,14.1,0.455,0.487,0.194,98.23,0.094,2015-11-30T00:00:00,1,DET,Detroit,9-9,29,35,20,32,0,0,0,0,0,0,0,0,0,0,116,0.529,0.486,0.348,22,46,11,0021500254,1610612765,DET,Detroit,Marcus Morris,F,,33:57,0.0,3.0,3.0,6.0,15.0,15.0,14.0,30.0,0.0,0.0,1.0,2.0
0021500254,1610612765,DET,Detroit,101141,Ersan Ilyasova,F,,24:30,105.0,100.7,4.3,0.0,0.0,0.0,0.042,0.077,0.06,0.0,0.5,0.547,0.218,99.06,0.106,2015-11-30T00:00:00,1,DET,Detroit,9-9,29,35,20,32,0,0,0,0,0,0,0,0,0,0,116,0.529,0.486,0.348,22,46,11,0021500254,1610612765,DET,Detroit,Ersan Ilyasova,F,,24:30,4.0,2.0,2.0,2.0,7.0,12.0,5.0,40.0,1.0,0.0,1.0,2.0
0021500254,1610612765,DET,Detroit,203083,Andre Drummond,C,,27:15,112.1,89.5,22.5,0.154,2.0,7.7,0.167,0.36,0.265,3.9,0.667,0.524,0.378,96.95,0.252,2015-11-30T00:00:00,1,DET,Detroit,9-9,29,35,20,32,0,0,0,0,0,0,0,0,0,0,116,0.529,0.486,0.348,22,46,11,0021500254,1610612765,DET,Detroit,Andre Drummond,C,,27:15,8.0,10.0,0.0,20.0,11.0,7.0,12.0,22.0,3.0,2.0,3.0,11.0
0021500254,1610612765,DET,Detroit,203484,Kentavious Caldwell-Pope,G,,43:47,112.8,109.9,3.0,0.081,1.5,23.1,0.05,0.053,0.051,15.4,0.25,0.25,0.097,99.44,0.013,2015-11-30T00:00:00,1,DET,Detroit,9-9,29,35,20,32,0,0,0,0,0,0,0,0,0,0,116,0.529,0.486,0.348,22,46,11,0021500254,1610612765,DET,Detroit,Kentavious Caldwell-Pope,G,,43:47,0.0,2.0,0.0,0.0,16.0,15.0,13.0,44.0,0.0,1.0,2.0,0.0
0021500254,1610612765,DET,Detroit,202704,Reggie Jackson,G,,36:38,117.1,102.9,14.3,0.364,4.0,25.4,0.0,0.143,0.075,6.3,0.694,0.72,0.277,100.66,0.247,2015-11-30T00:00:00,1,DET,Detroit,9-9,29,35,20,32,0,0,0,0,0,0,0,0,0,0,116,0.529,0.486,0.348,22,46,11,0021500254,1610612765,DET,Detroit,Reggie Jackson,G,,36:38,5.0,1.0,6.0,12.0,14.0,11.0,11.0,34.0,0.0,3.0,3.0,7.0
0021500254,1610612765,DET,Detroit,203382,Aron Baynes,,,20:32,120.7,125.6,-4.9,0.118,2.0,16.8,0.167,0.045,0.1,8.4,0.625,0.619,0.201,102.48,0.081,2015-11-30T00:00:00,1,DET,Detroit,9-9,29,35,20,32,0,0,0,0,0,0,0,0,0,0,116,0.529,0.486,0.348,22,46,11,0021500254,1610612765,DET,Detroit,Aron Baynes,,,20:32,4.0,6.0,0.0,10.0,8.0,10.0,4.0,24.0,1.0,0.0,3.0,1.0
0021500254,1610612765,DET,Detroit,1626169,Stanley Johnson,,,29:42,130.8,105.3,25.5,0.038,1.0,6.8,0.077,0.242,0.169,6.8,0.727,0.745,0.187,102.81,0.154,2015-11-30T00:00:00,1,DET,Detroit,9-9,29,35,20,32,0,0,0,0,0,0,0,0,0,0,116,0.529,0.486,0.348,22,46,11,0021500254,1610612765,DET,Detroit,Stanley Johnson,,,29:42,0.0,3.0,0.0,4.0,14.0,7.0,11.0,18.0,2.0,0.0,5.0,2.0
0021500254,1610612765,DET,Detroit,201229,Anthony Tolliver,,,11:30,138.1,85.8,52.3,0.0,0.0,0.0,0.1,0.143,0.125,0.0,0.5,0.5,0.07,100.34,0.051,2015-11-30T00:00:00,1,DET,Detroit,9-9,29,35,20,32,0,0,0,0,0,0,0,0,0,0,116,0.529,0.486,0.348,22,46,11,0021500254,1610612765,DET,Detroit,Anthony Tolliver,,,11:30,0.0,0.0,0.0,0.0,5.0,2.0,5.0,6.0,0.0,0.0,1.0,0.0
0021500254,1610612765,DET,Detroit,2581,Steve Blake,,,12:09,115.1,101.9,13.3,0.0,0.0,0.0,0.0,0.0,0.0,50.0,0.0,0.0,0.066,98.41,-0.033,2015-11-30T00:00:00,1,DET,Detroit,9-9,29,35,20,32,0,0,0,0,0,0,0,0,0,0,116,0.529,0.486,0.348,22,46,11,0021500254,1610612765,DET,Detroit,Steve Blake,,,12:09,0.0,0.0,0.0,0.0,5.0,6.0,5.0,12.0,1.0,1.0,0.0,2.0
0021500254,1610612765,DET,Detroit,201202,Joel Anthony,,DNP - Coach's Decision                  ,,,,,,,0.0,,,,,,,0.0,,,2015-11-30T00:00:00,1,DET,Detroit,9-9,29,35,20,32,0,0,0,0,0,0,0,0,0,0,116,0.529,0.486,0.348,22,46,11,0021500254,1610612765,DET,Detroit,Joel Anthony,,DNP - Coach's Decision                  ,,,,,,,,,,,,,
0021500254,1610612765,DET,Detroit,203493,Reggie Bullock,,DNP - Coach's Decision                  ,,,,,,,0.0,,,,,,,0.0,,,2015-11-30T00:00:00,1,DET,Detroit,9-9,29,35,20,32,0,0,0,0,0,0,0,0,0,0,116,0.529,0.486,0.348,22,46,11,0021500254,1610612765,DET,Detroit,Reggie Bullock,,DNP - Coach's Decision                  ,,,,,,,,,,,,,
0021500254,1610612765,DET,Detroit,203915,Spencer Dinwiddie,,DNP - Coach's Decision                  ,,,,,,,0.0,,,,,,,0.0,,,2015-11-30T00:00:00,1,DET,Detroit,9-9,29,35,20,32,0,0,0,0,0,0,0,0,0,0,116,0.529,0.486,0.348,22,46,11,0021500254,1610612765,DET,Detroit,Spencer Dinwiddie,,DNP - Coach's Decision                  ,,,,,,,,,,,,,
0021500254,1610612765,DET,Detroit,1626199,Darrun Hilliard,,DNP - Coach's Decision                  ,,,,,,,0.0,,,,,,,0.0,,,2015-11-30T00:00:00,1,DET,Detroit,9-9,29,35,20,32,0,0,0,0,0,0,0,0,0,0,116,0.529,0.486,0.348,22,46,11,0021500254,1610612765,DET,Detroit,Darrun Hilliard,,DNP - Coach's Decision                  ,,,,,,,,,,,,,
