GAME_ID_x,TEAM_ID_x,TEAM_ABBREVIATION_x,TEAM_CITY_x,PLAYER_ID,PLAYER_NAME_x,START_POSITION_x,COMMENT_x,MIN_x,OFF_RATING,DEF_RATING,NET_RATING,AST_PCT,AST_TOV,AST_RATIO,OREB_PCT,DREB_PCT,REB_PCT,TM_TOV_PCT,EFG_PCT,TS_PCT,USG_PCT,PACE,PIE,GAME_DATE_EST,GAME_SEQUENCE,TEAM_ABBREVIATION_y,TEAM_CITY_NAME,TEAM_WINS_LOSSES,PTS_QTR1,PTS_QTR2,PTS_QTR3,PTS_QTR4,PTS_OT1,PTS_OT2,PTS_OT3,PTS_OT4,PTS_OT5,PTS_OT6,PTS_OT7,PTS_OT8,PTS_OT9,PTS_OT10,PTS,FG_PCT,FT_PCT,FG3_PCT,AST,REB,TOV,GAME_ID_y,TEAM_ID_y,TEAM_ABBREVIATION,TEAM_CITY_y,PLAYER_NAME_y,START_POSITION_y,COMMENT_y,MIN_y,PTS_OFF_TOV,PTS_2ND_CHANCE,PTS_FB,PTS_PAINT,OPP_PTS_OFF_TOV,OPP_PTS_2ND_CHANCE,OPP_PTS_FB,OPP_PTS_PAINT,BLK,BLKA,PF,PFD
0021500262,1610612764,WAS,Washington,203490,Otto Porter Jr.,F,,41:48,102.5,79.0,23.5,0.061,2.0,18.2,0.0,0.119,0.066,9.1,0.375,0.375,0.102,98.7,0.027,2015-12-01T00:00:00,1,WAS,Washington,7-8,27,27,26,17,0,0,0,0,0,0,0,0,0,0,97,0.47,0.75,0.25,23,39,12,0021500262,1610612764,WAS,Washington,Otto Porter Jr.,F,,41:48,2.0,0.0,2.0,4.0,8.0,8.0,8.0,20.0,1.0,0.0,4.0,2.0
0021500262,1610612764,WAS,Washington,201162,Jared Dudley,F,,31:38,96.1,80.9,15.2,0.143,1.5,25.0,0.0,0.067,0.034,16.7,0.857,0.857,0.135,98.64,0.111,2015-12-01T00:00:00,1,WAS,Washington,7-8,27,27,26,17,0,0,0,0,0,0,0,0,0,0,97,0.47,0.75,0.25,23,39,12,0021500262,1610612764,WAS,Washington,Jared Dudley,F,,31:38,2.0,3.0,0.0,4.0,6.0,4.0,2.0,8.0,0.0,0.0,2.0,1.0
0021500262,1610612764,WAS,Washington,101162,Marcin Gortat,C,,32:43,92.5,79.6,12.9,0.0,0.0,0.0,0.0,0.306,0.18,21.6,0.7,0.689,0.197,104.08,0.18,2015-12-01T00:00:00,1,WAS,Washington,7-8,27,27,26,17,0,0,0,0,0,0,0,0,0,0,97,0.47,0.75,0.25,23,39,12,0021500262,1610612764,WAS,Washington,Marcin Gortat,C,,32:43,4.0,0.0,0.0,12.0,6.0,4.0,4.0,8.0,4.0,0.0,5.0,2.0
0021500262,1610612764,WAS,Washington,203078,Bradley Beal,G,,41:30,94.1,79.5,14.7,0.214,6.0,20.6,0.028,0.182,0.113,3.4,0.342,0.408,0.256,102.66,0.128,2015-12-01T00:00:00,1,WAS,Washington,7-8,27,27,26,17,0,0,0,0,0,0,0,0,0,0,97,0.47,0.75,0.25,23,39,12,0021500262,1610612764,WAS,Washington,Bradley Beal,G,,41:30,2.0,1.0,0.0,4.0,8.0,6.0,6.0,12.0,0.0,0.0,2.0,4.0
0021500262,1610612764,WAS,Washington,202322,John Wall,G,,40:56,94.3,72.9,21.4,0.556,2.0,24.3,0.0,0.095,0.053,12.1,0.646,0.668,0.359,99.6,0.323,2015-12-01T00:00:00,1,WAS,Washington,7-8,27,27,26,17,0,0,0,0,0,0,0,0,0,0,97,0.47,0.75,0.25,23,39,12,0021500262,1610612764,WAS,Washington,John Wall,G,,40:56,13.0,3.0,6.0,16.0,8.0,6.0,8.0,18.0,0.0,1.0,3.0,5.0
0021500262,1610612764,WAS,Washington,201196,Ramon Sessions,,,14:06,103.1,120.0,-16.9,0.182,0.0,34.0,0.0,0.111,0.059,0.0,0.333,0.515,0.129,103.69,0.079,2015-12-01T00:00:00,1,WAS,Washington,7-8,27,27,26,17,0,0,0,0,0,0,0,0,0,0,97,0.47,0.75,0.25,23,39,12,0021500262,1610612764,WAS,Washington,Ramon Sessions,,,14:06,0.0,0.0,0.0,2.0,4.0,4.0,6.0,14.0,0.0,1.0,1.0,1.0
0021500262,1610612764,WAS,Washington,2743,Kris Humphries,,,9:05,106.3,104.7,1.5,0.0,0.0,0.0,0.0,0.333,0.154,0.0,0.0,0.0,0.139,115.22,-0.097,2015-12-01T00:00:00,1,WAS,Washington,7-8,27,27,26,17,0,0,0,0,0,0,0,0,0,0,97,0.47,0.75,0.25,23,39,12,0021500262,1610612764,WAS,Washington,Kris Humphries,,,9:05,0.0,0.0,0.0,0.0,2.0,4.0,6.0,14.0,0.0,0.0,2.0,0.0
0021500262,1610612764,WAS,Washington,202066,Garrett Temple,,,27:35,91.6,91.2,0.5,0.0,0.0,0.0,0.045,0.16,0.106,0.0,0.389,0.389,0.15,101.89,0.022,2015-12-01T00:00:00,1,WAS,Washington,7-8,27,27,26,17,0,0,0,0,0,0,0,0,0,0,97,0.47,0.75,0.25,23,39,12,0021500262,1610612764,WAS,Washington,Garrett Temple,,,27:35,2.0,0.0,0.0,2.0,8.0,4.0,10.0,16.0,0.0,1.0,4.0,3.0
0021500262,1610612764,WAS,Washington,1626162,Kelly Oubre Jr.,,,0:39,0.0,0.0,0.0,0.0,0.0,0.0,0.0,0.0,0.0,0.0,0.0,0.0,0.0,109.92,0.0,2015-12-01T00:00:00,1,WAS,Washington,7-8,27,27,26,17,0,0,0,0,0,0,0,0,0,0,97,0.47,0.75,0.25,23,39,12,0021500262,1610612764,WAS,Washington,Kelly Oubre Jr.,,,0:39,0.0,0.0,0.0,0.0,0.0,0.0,0.0,0.0,0.0,0.0,0.0,0.0
0021500262,1610612764,WAS,Washington,201971,DeJuan Blair,,DNP - Coach's Decision                  ,,,,,,,0.0,,,,,,,0.0,,,2015-12-01T00:00:00,1,WAS,Washington,7-8,27,27,26,17,0,0,0,0,0,0,0,0,0,0,97,0.47,0.75,0.25,23,39,12,0021500262,1610612764,WAS,Washington,DeJuan Blair,,DNP - Coach's Decision                  ,,,,,,,,,,,,,
0021500262,1610612764,WAS,Washington,2400,Drew Gooden,,DNP - Coach's Decision                  ,,,,,,,0.0,,,,,,,0.0,,,2015-12-01T00:00:00,1,WAS,Washington,7-8,27,27,26,17,0,0,0,0,0,0,0,0,0,0,97,0.47,0.75,0.25,23,39,12,0021500262,1610612764,WAS,Washington,Drew Gooden,,DNP - Coach's Decision                  ,,,,,,,,,,,,,
0021500262,1610612764,WAS,Washington,200797,Ryan Hollins,,DNP - Coach's Decision                  ,,,,,,,0.0,,,,,,,0.0,,,2015-12-01T00:00:00,1,WAS,Washington,7-8,27,27,26,17,0,0,0,0,0,0,0,0,0,0,97,0.47,0.75,0.25,23,39,12,0021500262,1610612764,WAS,Washington,Ryan Hollins,,DNP - Coach's Decision                  ,,,,,,,,,,,,,
0021500262,1610612764,WAS,Washington,202390,Gary Neal,,NWT - Strained Left Groin               ,,,,,,,0.0,,,,,,,0.0,,,2015-12-01T00:00:00,1,WAS,Washington,7-8,27,27,26,17,0,0,0,0,0,0,0,0,0,0,97,0.47,0.75,0.25,23,39,12,0021500262,1610612764,WAS,Washington,Gary Neal,,NWT - Strained Left Groin               ,,,,,,,,,,,,,
0021500262,1610612739,CLE,Cleveland,2544,LeBron James,F,,37:23,79.4,90.6,-11.1,0.333,0.44,11.0,0.105,0.29,0.188,24.6,0.4,0.51,0.382,102.55,0.157,2015-12-01T00:00:00,1,CLE,Cleveland,13-5,24,19,24,18,0,0,0,0,0,0,0,0,0,0,85,0.337,0.87,0.3,15,47,18,0021500262,1610612739,CLE,Cleveland,LeBron James,F,,37:23,6.0,6.0,4.0,16.0,21.0,4.0,6.0,34.0,1.0,1.0,3.0,7.0
0021500262,1610612739,CLE,Cleveland,201567,Kevin Love,F,,32:44,73.0,107.0,-34.1,0.0,0.0,0.0,0.03,0.25,0.131,0.0,0.222,0.372,0.139,99.25,0.098,2015-12-01T00:00:00,1,CLE,Cleveland,13-5,24,19,24,18,0,0,0,0,0,0,0,0,0,0,85,0.337,0.87,0.3,15,47,18,0021500262,1610612739,CLE,Cleveland,Kevin Love,F,,32:44,0.0,0.0,2.0,0.0,23.0,6.0,8.0,38.0,0.0,0.0,0.0,5.0
0021500262,1610612739,CLE,Cleveland,202389,Timofey Mozgov,C,,8:55,66.7,122.6,-56.0,0.0,0.0,0.0,0.143,0.125,0.133,57.1,0.0,0.0,0.318,113.59,-0.19,2015-12-01T00:00:00,1,CLE,Cleveland,13-5,24,19,24,18,0,0,0,0,0,0,0,0,0,0,85,0.337,0.87,0.3,15,47,18,0021500262,1610612739,CLE,Cleveland,Timofey Mozgov,C,,8:55,0.0,0.0,0.0,0.0,12.0,0.0,6.0,18.0,0.0,2.0,2.0,1.0
0021500262,1610612739,CLE,Cleveland,2747,JR Smith,G,,36:12,90.5,96.9,-6.4,0.15,3.0,14.2,0.0,0.133,0.063,4.7,0.3,0.378,0.213,100.53,0.039,2015-12-01T00:00:00,1,CLE,Cleveland,13-5,24,19,24,18,0,0,0,0,0,0,0,0,0,0,85,0.337,0.87,0.3,15,47,18,0021500262,1610612739,CLE,Cleveland,JR Smith,G,,36:12,0.0,0.0,0.0,0.0,18.0,3.0,8.0,34.0,1.0,0.0,4.0,3.0
0021500262,1610612739,CLE,Cleveland,2590,Mo Williams,G,,27:52,72.4,100.1,-27.7,0.3,3.0,21.4,0.0,0.12,0.06,7.1,0.6,0.6,0.168,103.66,0.141,2015-12-01T00:00:00,1,CLE,Cleveland,13-5,24,19,24,18,0,0,0,0,0,0,0,0,0,0,85,0.337,0.87,0.3,15,47,18,0021500262,1610612739,CLE,Cleveland,Mo Williams,G,,27:52,0.0,0.0,0.0,0.0,21.0,7.0,8.0,32.0,0.0,0.0,1.0,1.0
0021500262,1610612739,CLE,Cleveland,202684,Tristan Thompson,,,27:18,93.9,81.3,12.6,0.0,0.0,0.0,0.107,0.381,0.224,20.5,0.333,0.387,0.151,102.36,0.074,2015-12-01T00:00:00,1,CLE,Cleveland,13-5,24,19,24,18,0,0,0,0,0,0,0,0,0,0,85,0.337,0.87,0.3,15,47,18,0021500262,1610612739,CLE,Cleveland,Tristan Thompson,,,27:18,2.0,2.0,2.0,4.0,9.0,4.0,0.0,18.0,0.0,0.0,2.0,2.0
0021500262,1610612739,CLE,Cleveland,2210,Richard Jefferson,,,17:51,82.8,114.0,-31.3,0.273,0.0,33.3,0.053,0.083,0.065,0.0,0.417,0.417,0.133,103.62,0.095,2015-12-01T00:00:00,1,CLE,Cleveland,13-5,24,19,24,18,0,0,0,0,0,0,0,0,0,0,85,0.337,0.87,0.3,15,47,18,0021500262,1610612739,CLE,Cleveland,Richard Jefferson,,,17:51,0.0,0.0,2.0,2.0,6.0,4.0,2.0,14.0,0.0,0.0,1.0,1.0
0021500262,1610612739,CLE,Cleveland,203521,Matthew Dellavedova,,,27:26,90.5,88.0,2.5,0.091,0.0,9.2,0.0,0.095,0.042,0.0,0.722,0.759,0.158,100.97,0.184,2015-12-01T00:00:00,1,CLE,Cleveland,13-5,24,19,24,18,0,0,0,0,0,0,0,0,0,0,85,0.337,0.87,0.3,15,47,18,0021500262,1610612739,CLE,Cleveland,Matthew Dellavedova,,,27:26,2.0,0.0,0.0,0.0,11.0,4.0,0.0,20.0,1.0,2.0,3.0,2.0
0021500262,1610612739,CLE,Cleveland,2592,James Jones,,,13:50,79.9,82.2,-2.3,0.0,0.0,0.0,0.0,0.0,0.0,25.0,0.0,0.0,0.14,94.17,-0.129,2015-12-01T00:00:00,1,CLE,Cleveland,13-5,24,19,24,18,0,0,0,0,0,0,0,0,0,0,85,0.337,0.87,0.3,15,47,18,0021500262,1610612739,CLE,Cleveland,James Jones,,,13:50,0.0,0.0,0.0,0.0,4.0,3.0,2.0,6.0,0.0,0.0,1.0,0.0
0021500262,1610612739,CLE,Cleveland,2760,Anderson Varejao,,,9:20,120.2,98.3,22.0,0.167,0.0,33.3,0.0,0.333,0.133,0.0,0.5,0.5,0.091,98.43,0.1,2015-12-01T00:00:00,1,CLE,Cleveland,13-5,24,19,24,18,0,0,0,0,0,0,0,0,0,0,85,0.337,0.87,0.3,15,47,18,0021500262,1610612739,CLE,Cleveland,Anderson Varejao,,,9:20,0.0,0.0,0.0,0.0,0.0,0.0,0.0,6.0,0.0,0.0,1.0,1.0
0021500262,1610612739,CLE,Cleveland,203099,Jared Cunningham,,,1:09,0.0,0.0,0.0,0.0,0.0,0.0,0.0,0.0,0.0,0.0,0.0,0.0,0.0,104.8,0.0,2015-12-01T00:00:00,1,CLE,Cleveland,13-5,24,19,24,18,0,0,0,0,0,0,0,0,0,0,85,0.337,0.87,0.3,15,47,18,0021500262,1610612739,CLE,Cleveland,Jared Cunningham,,,1:09,0.0,0.0,0.0,0.0,0.0,0.0,0.0,0.0,0.0,0.0,0.0,0.0
0021500262,1610612739,CLE,Cleveland,203925,Joe Harris,,DNP - Coach's Decision                  ,,,,,,,0.0,,,,,,,0.0,,,2015-12-01T00:00:00,1,CLE,Cleveland,13-5,24,19,24,18,0,0,0,0,0,0,0,0,0,0,85,0.337,0.87,0.3,15,47,18,0021500262,1610612739,CLE,Cleveland,Joe Harris,,DNP - Coach's Decision                  ,,,,,,,,,,,,,
0021500262,1610612739,CLE,Cleveland,201619,Sasha Kaun,,DNP - Coach's Decision                  ,,,,,,,0.0,,,,,,,0.0,,,2015-12-01T00:00:00,1,CLE,Cleveland,13-5,24,19,24,18,0,0,0,0,0,0,0,0,0,0,85,0.337,0.87,0.3,15,47,18,0021500262,1610612739,CLE,Cleveland,Sasha Kaun,,DNP - Coach's Decision                  ,,,,,,,,,,,,,
