GAME_ID_x,TEAM_ID_x,TEAM_ABBREVIATION_x,TEAM_CITY_x,PLAYER_ID,PLAYER_NAME_x,START_POSITION_x,COMMENT_x,MIN_x,OFF_RATING,DEF_RATING,NET_RATING,AST_PCT,AST_TOV,AST_RATIO,OREB_PCT,DREB_PCT,REB_PCT,TM_TOV_PCT,EFG_PCT,TS_PCT,USG_PCT,PACE,PIE,GAME_DATE_EST,GAME_SEQUENCE,TEAM_ABBREVIATION_y,TEAM_CITY_NAME,TEAM_WINS_LOSSES,PTS_QTR1,PTS_QTR2,PTS_QTR3,PTS_QTR4,PTS_OT1,PTS_OT2,PTS_OT3,PTS_OT4,PTS_OT5,PTS_OT6,PTS_OT7,PTS_OT8,PTS_OT9,PTS_OT10,PTS,FG_PCT,FT_PCT,FG3_PCT,AST,REB,TOV,GAME_ID_y,TEAM_ID_y,TEAM_ABBREVIATION,TEAM_CITY_y,PLAYER_NAME_y,START_POSITION_y,COMMENT_y,MIN_y,PTS_OFF_TOV,PTS_2ND_CHANCE,PTS_FB,PTS_PAINT,OPP_PTS_OFF_TOV,OPP_PTS_2ND_CHANCE,OPP_PTS_FB,OPP_PTS_PAINT,BLK,BLKA,PF,PFD
0021500266,1610612763,MEM,Memphis,201145,Jeff Green,F,,31:01,94.0,107.5,-13.5,0.045,0.0,8.3,0.0,0.16,0.073,0.0,0.273,0.273,0.163,93.72,0.009,2015-12-01T00:00:00,5,MEM,Memphis,11-8,27,37,27,22,0,0,0,0,0,0,0,0,0,0,113,0.478,0.962,0.2,21,49,6,0021500266,1610612763,MEM,Memphis,Jeff Green,F,,31:01,2.0,0.0,0.0,4.0,6.0,8.0,5.0,36.0,0.0,2.0,3.0,1.0
0021500266,1610612763,MEM,Memphis,2216,Zach Randolph,F,,26:11,106.5,113.4,-6.9,0.0,0.0,0.0,0.16,0.095,0.13,0.0,0.429,0.47,0.242,94.3,0.085,2015-12-01T00:00:00,5,MEM,Memphis,11-8,27,37,27,22,0,0,0,0,0,0,0,0,0,0,113,0.478,0.962,0.2,21,49,6,0021500266,1610612763,MEM,Memphis,Zach Randolph,F,,26:11,0.0,7.0,0.0,10.0,6.0,6.0,7.0,26.0,0.0,3.0,2.0,3.0
0021500266,1610612763,MEM,Memphis,201188,Marc Gasol,C,,42:11,121.8,108.2,13.5,0.222,2.0,15.8,0.0,0.317,0.171,7.9,0.5,0.654,0.348,95.08,0.25,2015-12-01T00:00:00,5,MEM,Memphis,11-8,27,37,27,22,0,0,0,0,0,0,0,0,0,0,113,0.478,0.962,0.2,21,49,6,0021500266,1610612763,MEM,Memphis,Marc Gasol,C,,42:11,2.0,2.0,6.0,6.0,4.0,13.0,8.0,36.0,4.0,2.0,1.0,10.0
0021500266,1610612763,MEM,Memphis,2754,Tony Allen,G,,14:53,104.9,125.5,-20.6,0.2,0.0,36.8,0.154,0.1,0.13,0.0,0.333,0.436,0.102,89.49,0.053,2015-12-01T00:00:00,5,MEM,Memphis,11-8,27,37,27,22,0,0,0,0,0,0,0,0,0,0,113,0.478,0.962,0.2,21,49,6,0021500266,1610612763,MEM,Memphis,Tony Allen,G,,14:53,0.0,0.0,0.0,2.0,4.0,6.0,4.0,18.0,0.0,0.0,3.0,1.0
0021500266,1610612763,MEM,Memphis,201144,Mike Conley,G,,24:23,94.7,120.6,-25.9,0.231,1.5,20.0,0.0,0.111,0.048,13.3,0.55,0.55,0.228,94.1,0.091,2015-12-01T00:00:00,5,MEM,Memphis,11-8,27,37,27,22,0,0,0,0,0,0,0,0,0,0,113,0.478,0.962,0.2,21,49,6,0021500266,1610612763,MEM,Memphis,Mike Conley,G,,24:23,0.0,0.0,0.0,4.0,4.0,4.0,7.0,30.0,0.0,0.0,0.0,0.0
0021500266,1610612763,MEM,Memphis,201584,Courtney Lee,,,33:39,125.7,102.0,23.7,0.038,1.0,6.9,0.071,0.056,0.063,6.9,0.5,0.523,0.182,95.89,0.059,2015-12-01T00:00:00,5,MEM,Memphis,11-8,27,37,27,22,0,0,0,0,0,0,0,0,0,0,113,0.478,0.962,0.2,21,49,6,0021500266,1610612763,MEM,Memphis,Courtney Lee,,,33:39,0.0,0.0,0.0,8.0,2.0,7.0,4.0,24.0,0.0,0.0,3.0,0.0
0021500266,1610612763,MEM,Memphis,2440,Matt Barnes,,,27:11,137.5,107.7,29.8,0.136,0.0,20.2,0.048,0.179,0.122,0.0,0.5,0.547,0.192,95.85,0.112,2015-12-01T00:00:00,5,MEM,Memphis,11-8,27,37,27,22,0,0,0,0,0,0,0,0,0,0,113,0.478,0.962,0.2,21,49,6,0021500266,1610612763,MEM,Memphis,Matt Barnes,,,27:11,2.0,2.0,6.0,8.0,2.0,7.0,4.0,18.0,0.0,4.0,3.0,1.0
0021500266,1610612763,MEM,Memphis,201596,Mario Chalmers,,,23:37,144.9,99.1,45.9,0.19,0.0,41.0,0.059,0.111,0.091,0.0,1.0,0.955,0.105,94.88,0.146,2015-12-01T00:00:00,5,MEM,Memphis,11-8,27,37,27,22,0,0,0,0,0,0,0,0,0,0,113,0.478,0.962,0.2,21,49,6,0021500266,1610612763,MEM,Memphis,Mario Chalmers,,,23:37,2.0,0.0,0.0,6.0,2.0,9.0,1.0,12.0,0.0,0.0,4.0,5.0
0021500266,1610612763,MEM,Memphis,203210,JaMychal Green,,,9:01,168.8,127.1,41.7,0.0,0.0,0.0,0.4,0.222,0.286,0.0,0.5,0.5,0.091,94.53,0.061,2015-12-01T00:00:00,5,MEM,Memphis,11-8,27,37,27,22,0,0,0,0,0,0,0,0,0,0,113,0.478,0.962,0.2,21,49,6,0021500266,1610612763,MEM,Memphis,JaMychal Green,,,9:01,0.0,2.0,0.0,2.0,0.0,2.0,0.0,4.0,0.0,0.0,1.0,0.0
0021500266,1610612763,MEM,Memphis,1713,Vince Carter,,,7:53,131.6,116.0,15.6,0.143,0.0,50.0,0.143,0.2,0.176,0.0,1.0,1.0,0.058,93.5,0.071,2015-12-01T00:00:00,5,MEM,Memphis,11-8,27,37,27,22,0,0,0,0,0,0,0,0,0,0,113,0.478,0.962,0.2,21,49,6,0021500266,1610612763,MEM,Memphis,Vince Carter,,,7:53,0.0,2.0,0.0,2.0,0.0,3.0,0.0,6.0,0.0,0.0,3.0,0.0
0021500266,1610612763,MEM,Memphis,203516,James Ennis III,,DNP - Coach's Decision                  ,,,,,,,0.0,,,,,,,0.0,,,2015-12-01T00:00:00,5,MEM,Memphis,11-8,27,37,27,22,0,0,0,0,0,0,0,0,0,0,113,0.478,0.962,0.2,21,49,6,0021500266,1610612763,MEM,Memphis,James Ennis III,,DNP - Coach's Decision                  ,,,,,,,,,,,,,
0021500266,1610612763,MEM,Memphis,203893,Russ Smith,,DNP - Coach's Decision                  ,,,,,,,0.0,,,,,,,0.0,,,2015-12-01T00:00:00,5,MEM,Memphis,11-8,27,37,27,22,0,0,0,0,0,0,0,0,0,0,113,0.478,0.962,0.2,21,49,6,0021500266,1610612763,MEM,Memphis,Russ Smith,,DNP - Coach's Decision                  ,,,,,,,,,,,,,
0021500266,1610612763,MEM,Memphis,201148,Brandan Wright,,NWT - Right Knee Soreness               ,,,,,,,0.0,,,,,,,0.0,,,2015-12-01T00:00:00,5,MEM,Memphis,11-8,27,37,27,22,0,0,0,0,0,0,0,0,0,0,113,0.478,0.962,0.2,21,49,6,0021500266,1610612763,MEM,Memphis,Brandan Wright,,NWT - Right Knee Soreness               ,,,,,,,,,,,,,
0021500266,1610612740,NOP,New Orleans,202087,Alonzo Gee,F,,28:16,113.1,103.8,9.3,0.0,0.0,0.0,0.0,0.036,0.02,20.0,0.75,0.75,0.081,96.35,0.027,2015-12-01T00:00:00,5,NOP,New Orleans,4-14,38,27,20,19,0,0,0,0,0,0,0,0,0,0,104,0.432,0.758,0.333,25,37,8,0021500266,1610612740,NOP,New Orleans,Alonzo Gee,F,,28:16,2.0,0.0,2.0,6.0,6.0,13.0,6.0,30.0,0.0,0.0,2.0,0.0
0021500266,1610612740,NOP,New Orleans,203076,Anthony Davis,F,,41:06,116.4,116.9,-0.5,0.071,2.0,8.4,0.088,0.324,0.206,4.2,0.3,0.41,0.242,95.61,0.121,2015-12-01T00:00:00,5,NOP,New Orleans,4-14,38,27,20,19,0,0,0,0,0,0,0,0,0,0,104,0.432,0.758,0.333,25,37,8,0021500266,1610612740,NOP,New Orleans,Anthony Davis,F,,41:06,2.0,1.0,0.0,4.0,8.0,13.0,8.0,42.0,9.0,1.0,1.0,9.0
0021500266,1610612740,NOP,New Orleans,201582,Alexis Ajinca,C,,12:37,138.2,101.5,36.7,0.0,0.0,0.0,0.111,0.222,0.167,0.0,0.833,0.833,0.232,90.45,0.14,2015-12-01T00:00:00,5,NOP,New Orleans,4-14,38,27,20,19,0,0,0,0,0,0,0,0,0,0,104,0.432,0.758,0.333,25,37,8,0021500266,1610612740,NOP,New Orleans,Alexis Ajinca,C,,12:37,0.0,4.0,0.0,6.0,0.0,4.0,0.0,2.0,0.0,0.0,4.0,0.0
0021500266,1610612740,NOP,New Orleans,201950,Jrue Holiday,G,,25:59,122.1,113.2,8.9,0.235,2.0,28.8,0.0,0.056,0.024,14.4,0.714,0.761,0.176,89.51,0.124,2015-12-01T00:00:00,5,NOP,New Orleans,4-14,38,27,20,19,0,0,0,0,0,0,0,0,0,0,104,0.432,0.758,0.333,25,37,8,0021500266,1610612740,NOP,New Orleans,Jrue Holiday,G,,25:59,0.0,0.0,2.0,4.0,4.0,6.0,0.0,16.0,0.0,0.0,1.0,1.0
0021500266,1610612740,NOP,New Orleans,201936,Tyreke Evans,G,,31:19,112.5,109.5,2.9,0.588,10.0,40.4,0.071,0.12,0.094,4.0,0.667,0.727,0.213,94.59,0.237,2015-12-01T00:00:00,5,NOP,New Orleans,4-14,38,27,20,19,0,0,0,0,0,0,0,0,0,0,104,0.432,0.758,0.333,25,37,8,0021500266,1610612740,NOP,New Orleans,Tyreke Evans,G,,31:19,0.0,4.0,0.0,10.0,6.0,6.0,2.0,22.0,1.0,0.0,0.0,4.0
0021500266,1610612740,NOP,New Orleans,201583,Ryan Anderson,,,33:27,95.6,116.3,-20.8,0.133,0.0,10.6,0.057,0.182,0.118,0.0,0.438,0.474,0.228,96.89,0.102,2015-12-01T00:00:00,5,NOP,New Orleans,4-14,38,27,20,19,0,0,0,0,0,0,0,0,0,0,104,0.432,0.758,0.333,25,37,8,0021500266,1610612740,NOP,New Orleans,Ryan Anderson,,,33:27,2.0,2.0,0.0,8.0,6.0,9.0,12.0,46.0,0.0,1.0,2.0,2.0
0021500266,1610612740,NOP,New Orleans,201569,Eric Gordon,,,19:30,113.8,157.0,-43.3,0.4,4.0,34.0,0.0,0.067,0.03,8.5,0.4,0.592,0.194,94.03,0.082,2015-12-01T00:00:00,5,NOP,New Orleans,4-14,38,27,20,19,0,0,0,0,0,0,0,0,0,0,104,0.432,0.758,0.333,25,37,8,0021500266,1610612740,NOP,New Orleans,Eric Gordon,,,19:30,0.0,0.0,0.0,2.0,2.0,9.0,10.0,32.0,1.0,0.0,2.0,2.0
0021500266,1610612740,NOP,New Orleans,202708,Norris Cole,,,22:43,93.0,118.2,-25.2,0.222,0.0,12.0,0.0,0.1,0.044,0.0,0.333,0.376,0.297,96.23,-0.012,2015-12-01T00:00:00,5,NOP,New Orleans,4-14,38,27,20,19,0,0,0,0,0,0,0,0,0,0,104,0.432,0.758,0.333,25,37,8,0021500266,1610612740,NOP,New Orleans,Norris Cole,,,22:43,0.0,0.0,4.0,0.0,4.0,4.0,8.0,28.0,0.0,0.0,4.0,4.0
0021500266,1610612740,NOP,New Orleans,201967,Dante Cunningham,,,5:37,128.7,167.3,-38.6,0.0,0.0,0.0,0.167,0.0,0.1,0.0,0.0,0.0,0.168,92.47,-0.106,2015-12-01T00:00:00,5,NOP,New Orleans,4-14,38,27,20,19,0,0,0,0,0,0,0,0,0,0,104,0.432,0.758,0.333,25,37,8,0021500266,1610612740,NOP,New Orleans,Dante Cunningham,,,5:37,0.0,0.0,0.0,0.0,0.0,2.0,4.0,10.0,0.0,1.0,2.0,0.0
0021500266,1610612740,NOP,New Orleans,202397,Ish Smith,,,14:14,91.5,126.2,-34.7,0.143,0.5,17.0,0.0,0.063,0.03,34.0,0.5,0.694,0.161,96.02,0.035,2015-12-01T00:00:00,5,NOP,New Orleans,4-14,38,27,20,19,0,0,0,0,0,0,0,0,0,0,104,0.432,0.758,0.333,25,37,8,0021500266,1610612740,NOP,New Orleans,Ish Smith,,,14:14,0.0,2.0,0.0,2.0,2.0,7.0,10.0,24.0,0.0,1.0,1.0,1.0
0021500266,1610612740,NOP,New Orleans,201600,Omer Asik,,,5:14,92.6,178.6,-86.0,0.0,0.0,0.0,0.0,0.0,0.0,0.0,0.0,0.0,0.0,85.85,-0.098,2015-12-01T00:00:00,5,NOP,New Orleans,4-14,38,27,20,19,0,0,0,0,0,0,0,0,0,0,104,0.432,0.758,0.333,25,37,8,0021500266,1610612740,NOP,New Orleans,Omer Asik,,,5:14,0.0,0.0,0.0,0.0,2.0,2.0,0.0,8.0,0.0,0.0,2.0,0.0
0021500266,1610612740,NOP,New Orleans,202337,Luke Babbitt,,DNP - Coach's Decision                  ,,,,,,,0.0,,,,,,,0.0,,,2015-12-01T00:00:00,5,NOP,New Orleans,4-14,38,27,20,19,0,0,0,0,0,0,0,0,0,0,104,0.432,0.758,0.333,25,37,8,0021500266,1610612740,NOP,New Orleans,Luke Babbitt,,DNP - Coach's Decision                  ,,,,,,,,,,,,,
0021500266,1610612740,NOP,New Orleans,201962,Toney Douglas,,DNP - Coach's Decision                  ,,,,,,,0.0,,,,,,,0.0,,,2015-12-01T00:00:00,5,NOP,New Orleans,4-14,38,27,20,19,0,0,0,0,0,0,0,0,0,0,104,0.432,0.758,0.333,25,37,8,0021500266,1610612740,NOP,New Orleans,Toney Douglas,,DNP - Coach's Decision                  ,,,,,,,,,,,,,
