GAME_ID_x,TEAM_ID_x,TEAM_ABBREVIATION_x,TEAM_CITY_x,PLAYER_ID,PLAYER_NAME_x,START_POSITION_x,COMMENT_x,MIN_x,OFF_RATING,DEF_RATING,NET_RATING,AST_PCT,AST_TOV,AST_RATIO,OREB_PCT,DREB_PCT,REB_PCT,TM_TOV_PCT,EFG_PCT,TS_PCT,USG_PCT,PACE,PIE,GAME_DATE_EST,GAME_SEQUENCE,TEAM_ID_y,TEAM_ABBREVIATION_y,TEAM_CITY_NAME,TEAM_WINS_LOSSES,PTS_QTR1,PTS_QTR2,PTS_QTR3,PTS_QTR4,PTS_OT1,PTS_OT2,PTS_OT3,PTS_OT4,PTS_OT5,PTS_OT6,PTS_OT7,PTS_OT8,PTS_OT9,PTS_OT10,PTS,FG_PCT,FT_PCT,FG3_PCT,AST,REB,TOV,GAME_ID_y,TEAM_ID,TEAM_ABBREVIATION,TEAM_CITY_y,PLAYER_NAME_y,START_POSITION_y,COMMENT_y,MIN_y,PTS_OFF_TOV,PTS_2ND_CHANCE,PTS_FB,PTS_PAINT,OPP_PTS_OFF_TOV,OPP_PTS_2ND_CHANCE,OPP_PTS_FB,OPP_PTS_PAINT,BLK,BLKA,PF,PFD
0021300519,1610612757,POR,Portland,201587,Nicolas Batum,F,,39:13,113.7,110.5,3.2,0.172,1.25,26.8,0.024,0.238,0.131,21.5,0.429,0.571,0.136,103.69,0.095,2014-01-07T00:00:00,12,1610612757,POR,Portland,26-9,35,25,13,46,0,0,0,0,0,0,0,0,0,0,119,0.433,0.861,0.37,24,51,16,0021300519,1610612757,POR,Portland,Nicolas Batum,F,,39:13,0.0,2.0,0.0,2.0,17.0,7.0,14.0,30.0,0.0,0.0,4.0,3.0
0021300519,1610612757,POR,Portland,201587,Nicolas Batum,F,,39:13,113.7,110.5,3.2,0.172,1.25,26.8,0.024,0.238,0.131,21.5,0.429,0.571,0.136,103.69,0.095,2014-01-07T00:00:00,12,1610612758,SAC,Sacramento,11-22,24,31,25,43,0,0,0,0,0,0,0,0,0,0,123,0.471,0.72,0.467,20,48,8,0021300519,1610612757,POR,Portland,Nicolas Batum,F,,39:13,0.0,2.0,0.0,2.0,17.0,7.0,14.0,30.0,0.0,0.0,4.0,3.0
0021300519,1610612757,POR,Portland,200746,LaMarcus Aldridge,F,,39:07,111.2,110.5,0.7,0.208,1.25,15.0,0.073,0.119,0.096,12.0,0.4,0.492,0.286,104.03,0.1,2014-01-07T00:00:00,12,1610612757,POR,Portland,26-9,35,25,13,46,0,0,0,0,0,0,0,0,0,0,119,0.433,0.861,0.37,24,51,16,0021300519,1610612757,POR,Portland,LaMarcus Aldridge,F,,39:07,2.0,5.0,0.0,8.0,17.0,7.0,14.0,30.0,1.0,0.0,4.0,9.0
0021300519,1610612757,POR,Portland,200746,LaMarcus Aldridge,F,,39:07,111.2,110.5,0.7,0.208,1.25,15.0,0.073,0.119,0.096,12.0,0.4,0.492,0.286,104.03,0.1,2014-01-07T00:00:00,12,1610612758,SAC,Sacramento,11-22,24,31,25,43,0,0,0,0,0,0,0,0,0,0,123,0.471,0.72,0.467,20,48,8,0021300519,1610612757,POR,Portland,LaMarcus Aldridge,F,,39:07,2.0,5.0,0.0,8.0,17.0,7.0,14.0,30.0,1.0,0.0,4.0,9.0
0021300519,1610612757,POR,Portland,201577,Robin Lopez,C,,35:41,99.9,115.5,-15.6,0.045,0.0,6.0,0.118,0.077,0.096,0.0,0.538,0.575,0.175,106.39,0.091,2014-01-07T00:00:00,12,1610612757,POR,Portland,26-9,35,25,13,46,0,0,0,0,0,0,0,0,0,0,119,0.433,0.861,0.37,24,51,16,0021300519,1610612757,POR,Portland,Robin Lopez,C,,35:41,2.0,5.0,0.0,14.0,22.0,9.0,14.0,34.0,2.0,1.0,5.0,3.0
0021300519,1610612757,POR,Portland,201577,Robin Lopez,C,,35:41,99.9,115.5,-15.6,0.045,0.0,6.0,0.118,0.077,0.096,0.0,0.538,0.575,0.175,106.39,0.091,2014-01-07T00:00:00,12,1610612758,SAC,Sacramento,11-22,24,31,25,43,0,0,0,0,0,0,0,0,0,0,123,0.471,0.72,0.467,20,48,8,0021300519,1610612757,POR,Portland,Robin Lopez,C,,35:41,2.0,5.0,0.0,14.0,22.0,9.0,14.0,34.0,2.0,1.0,5.0,3.0
0021300519,1610612757,POR,Portland,202083,Wesley Matthews,G,,36:32,111.1,116.8,-5.8,0.1,0.0,18.9,0.0,0.146,0.081,0.0,0.292,0.349,0.136,110.76,0.042,2014-01-07T00:00:00,12,1610612757,POR,Portland,26-9,35,25,13,46,0,0,0,0,0,0,0,0,0,0,119,0.433,0.861,0.37,24,51,16,0021300519,1610612757,POR,Portland,Wesley Matthews,G,,36:32,2.0,0.0,0.0,2.0,22.0,9.0,14.0,38.0,1.0,0.0,5.0,3.0
0021300519,1610612757,POR,Portland,202083,Wesley Matthews,G,,36:32,111.1,116.8,-5.8,0.1,0.0,18.9,0.0,0.146,0.081,0.0,0.292,0.349,0.136,110.76,0.042,2014-01-07T00:00:00,12,1610612758,SAC,Sacramento,11-22,24,31,25,43,0,0,0,0,0,0,0,0,0,0,123,0.471,0.72,0.467,20,48,8,0021300519,1610612757,POR,Portland,Wesley Matthews,G,,36:32,2.0,0.0,0.0,2.0,22.0,9.0,14.0,38.0,1.0,0.0,5.0,3.0
0021300519,1610612757,POR,Portland,203081,Damian Lillard,G,,37:54,108.2,125.3,-17.1,0.222,0.67,10.7,0.0,0.179,0.092,16.0,0.688,0.745,0.339,109.79,0.192,2014-01-07T00:00:00,12,1610612757,POR,Portland,26-9,35,25,13,46,0,0,0,0,0,0,0,0,0,0,119,0.433,0.861,0.37,24,51,16,0021300519,1610612757,POR,Portland,Damian Lillard,G,,37:54,2.0,3.0,8.0,6.0,25.0,9.0,18.0,38.0,1.0,2.0,5.0,4.0
0021300519,1610612757,POR,Portland,203081,Damian Lillard,G,,37:54,108.2,125.3,-17.1,0.222,0.67,10.7,0.0,0.179,0.092,16.0,0.688,0.745,0.339,109.79,0.192,2014-01-07T00:00:00,12,1610612758,SAC,Sacramento,11-22,24,31,25,43,0,0,0,0,0,0,0,0,0,0,123,0.471,0.72,0.467,20,48,8,0021300519,1610612757,POR,Portland,Damian Lillard,G,,37:54,2.0,3.0,8.0,6.0,25.0,9.0,18.0,38.0,1.0,2.0,5.0,4.0
0021300519,1610612757,POR,Portland,2590,Mo Williams,,,22:01,118.6,127.0,-8.4,0.4,6.0,35.5,0.107,0.05,0.083,5.9,0.389,0.455,0.188,103.16,0.073,2014-01-07T00:00:00,12,1610612757,POR,Portland,26-9,35,25,13,46,0,0,0,0,0,0,0,0,0,0,119,0.433,0.861,0.37,24,51,16,0021300519,1610612757,POR,Portland,Mo Williams,,,22:01,0.0,6.0,0.0,4.0,8.0,12.0,5.0,20.0,0.0,0.0,5.0,2.0
0021300519,1610612757,POR,Portland,2590,Mo Williams,,,22:01,118.6,127.0,-8.4,0.4,6.0,35.5,0.107,0.05,0.083,5.9,0.389,0.455,0.188,103.16,0.073,2014-01-07T00:00:00,12,1610612758,SAC,Sacramento,11-22,24,31,25,43,0,0,0,0,0,0,0,0,0,0,123,0.471,0.72,0.467,20,48,8,0021300519,1610612757,POR,Portland,Mo Williams,,,22:01,0.0,6.0,0.0,4.0,8.0,12.0,5.0,20.0,0.0,0.0,5.0,2.0
0021300519,1610612757,POR,Portland,203115,Will Barton,,,8:49,115.0,110.8,4.3,0.0,0.0,0.0,0.0,0.0,0.0,0.0,0.5,0.5,0.146,96.54,0.0,2014-01-07T00:00:00,12,1610612757,POR,Portland,26-9,35,25,13,46,0,0,0,0,0,0,0,0,0,0,119,0.433,0.861,0.37,24,51,16,0021300519,1610612757,POR,Portland,Will Barton,,,8:49,0.0,0.0,0.0,0.0,3.0,5.0,3.0,6.0,0.0,0.0,1.0,0.0
0021300519,1610612757,POR,Portland,203115,Will Barton,,,8:49,115.0,110.8,4.3,0.0,0.0,0.0,0.0,0.0,0.0,0.0,0.5,0.5,0.146,96.54,0.0,2014-01-07T00:00:00,12,1610612758,SAC,Sacramento,11-22,24,31,25,43,0,0,0,0,0,0,0,0,0,0,123,0.471,0.72,0.467,20,48,8,0021300519,1610612757,POR,Portland,Will Barton,,,8:49,0.0,0.0,0.0,0.0,3.0,5.0,3.0,6.0,0.0,0.0,1.0,0.0
0021300519,1610612757,POR,Portland,200777,Joel Freeland,,,9:29,108.4,110.8,-2.3,0.0,0.0,0.0,0.154,0.125,0.143,0.0,1.0,1.0,0.046,92.32,0.13,2014-01-07T00:00:00,12,1610612757,POR,Portland,26-9,35,25,13,46,0,0,0,0,0,0,0,0,0,0,119,0.433,0.861,0.37,24,51,16,0021300519,1610612757,POR,Portland,Joel Freeland,,,9:29,0.0,0.0,2.0,2.0,3.0,5.0,3.0,6.0,1.0,0.0,1.0,0.0
0021300519,1610612757,POR,Portland,200777,Joel Freeland,,,9:29,108.4,110.8,-2.3,0.0,0.0,0.0,0.154,0.125,0.143,0.0,1.0,1.0,0.046,92.32,0.13,2014-01-07T00:00:00,12,1610612758,SAC,Sacramento,11-22,24,31,25,43,0,0,0,0,0,0,0,0,0,0,123,0.471,0.72,0.467,20,48,8,0021300519,1610612757,POR,Portland,Joel Freeland,,,9:29,0.0,0.0,2.0,2.0,3.0,5.0,3.0,6.0,1.0,0.0,1.0,0.0
0021300519,1610612757,POR,Portland,203086,Meyers Leonard,,,7:37,89.5,135.4,-45.9,0.0,0.0,0.0,0.0,0.667,0.286,34.7,0.0,0.532,0.153,116.84,0.0,2014-01-07T00:00:00,12,1610612757,POR,Portland,26-9,35,25,13,46,0,0,0,0,0,0,0,0,0,0,119,0.433,0.861,0.37,24,51,16,0021300519,1610612757,POR,Portland,Meyers Leonard,,,7:37,0.0,2.0,0.0,0.0,5.0,4.0,4.0,12.0,0.0,0.0,4.0,1.0
0021300519,1610612757,POR,Portland,203086,Meyers Leonard,,,7:37,89.5,135.4,-45.9,0.0,0.0,0.0,0.0,0.667,0.286,34.7,0.0,0.532,0.153,116.84,0.0,2014-01-07T00:00:00,12,1610612758,SAC,Sacramento,11-22,24,31,25,43,0,0,0,0,0,0,0,0,0,0,123,0.471,0.72,0.467,20,48,8,0021300519,1610612757,POR,Portland,Meyers Leonard,,,7:37,0.0,2.0,0.0,0.0,5.0,4.0,4.0,12.0,0.0,0.0,4.0,1.0
0021300519,1610612757,POR,Portland,203080,Thomas Robinson,,,3:37,180.4,185.2,-4.8,0.0,0.0,0.0,0.5,0.0,0.25,0.0,0.0,0.0,0.0,108.73,-0.102,2014-01-07T00:00:00,12,1610612757,POR,Portland,26-9,35,25,13,46,0,0,0,0,0,0,0,0,0,0,119,0.433,0.861,0.37,24,51,16,0021300519,1610612757,POR,Portland,Thomas Robinson,,,3:37,0.0,0.0,0.0,0.0,3.0,3.0,1.0,6.0,0.0,0.0,3.0,0.0
0021300519,1610612757,POR,Portland,203080,Thomas Robinson,,,3:37,180.4,185.2,-4.8,0.0,0.0,0.0,0.5,0.0,0.25,0.0,0.0,0.0,0.0,108.73,-0.102,2014-01-07T00:00:00,12,1610612758,SAC,Sacramento,11-22,24,31,25,43,0,0,0,0,0,0,0,0,0,0,123,0.471,0.72,0.467,20,48,8,0021300519,1610612757,POR,Portland,Thomas Robinson,,,3:37,0.0,0.0,0.0,0.0,3.0,3.0,1.0,6.0,0.0,0.0,3.0,0.0
0021300519,1610612757,POR,Portland,203468,CJ McCollum,,DNP - Coach's Decision,,,,,,,0.0,,,,,,,0.0,,,2014-01-07T00:00:00,12,1610612757,POR,Portland,26-9,35,25,13,46,0,0,0,0,0,0,0,0,0,0,119,0.433,0.861,0.37,24,51,16,0021300519,1610612757,POR,Portland,CJ McCollum,,DNP - Coach's Decision,,,,,,,,,,,,,
0021300519,1610612757,POR,Portland,203468,CJ McCollum,,DNP - Coach's Decision,,,,,,,0.0,,,,,,,0.0,,,2014-01-07T00:00:00,12,1610612758,SAC,Sacramento,11-22,24,31,25,43,0,0,0,0,0,0,0,0,0,0,123,0.471,0.72,0.467,20,48,8,0021300519,1610612757,POR,Portland,CJ McCollum,,DNP - Coach's Decision,,,,,,,,,,,,,
0021300519,1610612757,POR,Portland,2248,Earl Watson,,DNP - Coach's Decision,,,,,,,0.0,,,,,,,0.0,,,2014-01-07T00:00:00,12,1610612757,POR,Portland,26-9,35,25,13,46,0,0,0,0,0,0,0,0,0,0,119,0.433,0.861,0.37,24,51,16,0021300519,1610612757,POR,Portland,Earl Watson,,DNP - Coach's Decision,,,,,,,,,,,,,
0021300519,1610612757,POR,Portland,2248,Earl Watson,,DNP - Coach's Decision,,,,,,,0.0,,,,,,,0.0,,,2014-01-07T00:00:00,12,1610612758,SAC,Sacramento,11-22,24,31,25,43,0,0,0,0,0,0,0,0,0,0,123,0.471,0.72,0.467,20,48,8,0021300519,1610612757,POR,Portland,Earl Watson,,DNP - Coach's Decision,,,,,,,,,,,,,
0021300519,1610612757,POR,Portland,2748,Dorell Wright,,DNP - Coach's Decision,,,,,,,0.0,,,,,,,0.0,,,2014-01-07T00:00:00,12,1610612757,POR,Portland,26-9,35,25,13,46,0,0,0,0,0,0,0,0,0,0,119,0.433,0.861,0.37,24,51,16,0021300519,1610612757,POR,Portland,Dorell Wright,,DNP - Coach's Decision,,,,,,,,,,,,,
0021300519,1610612757,POR,Portland,2748,Dorell Wright,,DNP - Coach's Decision,,,,,,,0.0,,,,,,,0.0,,,2014-01-07T00:00:00,12,1610612758,SAC,Sacramento,11-22,24,31,25,43,0,0,0,0,0,0,0,0,0,0,123,0.471,0.72,0.467,20,48,8,0021300519,1610612757,POR,Portland,Dorell Wright,,DNP - Coach's Decision,,,,,,,,,,,,,
0021300519,1610612758,SAC,Sacramento,200752,Rudy Gay,F,,30:39,133.3,105.8,27.6,0.211,4.0,16.0,0.069,0.115,0.091,4.0,0.719,0.802,0.291,101.89,0.226,2014-01-07T00:00:00,12,1610612757,POR,Portland,26-9,35,25,13,46,0,0,0,0,0,0,0,0,0,0,119,0.433,0.861,0.37,24,51,16,0021300519,1610612758,SAC,Sacramento,Rudy Gay,F,,30:39,11.0,5.0,4.0,10.0,4.0,12.0,3.0,28.0,0.0,0.0,6.0,5.0
0021300519,1610612758,SAC,Sacramento,200752,Rudy Gay,F,,30:39,133.3,105.8,27.6,0.211,4.0,16.0,0.069,0.115,0.091,4.0,0.719,0.802,0.291,101.89,0.226,2014-01-07T00:00:00,12,1610612758,SAC,Sacramento,11-22,24,31,25,43,0,0,0,0,0,0,0,0,0,0,123,0.471,0.72,0.467,20,48,8,0021300519,1610612758,SAC,Sacramento,Rudy Gay,F,,30:39,11.0,5.0,4.0,10.0,4.0,12.0,3.0,28.0,0.0,0.0,6.0,5.0
0021300519,1610612758,SAC,Sacramento,201574,Jason Thompson,F,,34:32,105.8,99.1,6.7,0.0,0.0,0.0,0.024,0.135,0.077,17.0,0.75,0.717,0.07,105.93,0.065,2014-01-07T00:00:00,12,1610612757,POR,Portland,26-9,35,25,13,46,0,0,0,0,0,0,0,0,0,0,119,0.433,0.861,0.37,24,51,16,0021300519,1610612758,SAC,Sacramento,Jason Thompson,F,,34:32,1.0,2.0,1.0,2.0,2.0,13.0,8.0,28.0,0.0,0.0,4.0,2.0
0021300519,1610612758,SAC,Sacramento,201574,Jason Thompson,F,,34:32,105.8,99.1,6.7,0.0,0.0,0.0,0.024,0.135,0.077,17.0,0.75,0.717,0.07,105.93,0.065,2014-01-07T00:00:00,12,1610612758,SAC,Sacramento,11-22,24,31,25,43,0,0,0,0,0,0,0,0,0,0,123,0.471,0.72,0.467,20,48,8,0021300519,1610612758,SAC,Sacramento,Jason Thompson,F,,34:32,1.0,2.0,1.0,2.0,2.0,13.0,8.0,28.0,0.0,0.0,4.0,2.0
0021300519,1610612758,SAC,Sacramento,202326,DeMarcus Cousins,C,,42:31,118.0,106.9,11.2,0.095,1.0,5.2,0.133,0.163,0.148,5.2,0.464,0.506,0.36,103.0,0.141,2014-01-07T00:00:00,12,1610612757,POR,Portland,26-9,35,25,13,46,0,0,0,0,0,0,0,0,0,0,119,0.433,0.861,0.37,24,51,16,0021300519,1610612758,SAC,Sacramento,DeMarcus Cousins,C,,42:31,5.0,4.0,0.0,18.0,6.0,16.0,10.0,34.0,2.0,5.0,4.0,10.0
0021300519,1610612758,SAC,Sacramento,202326,DeMarcus Cousins,C,,42:31,118.0,106.9,11.2,0.095,1.0,5.2,0.133,0.163,0.148,5.2,0.464,0.506,0.36,103.0,0.141,2014-01-07T00:00:00,12,1610612758,SAC,Sacramento,11-22,24,31,25,43,0,0,0,0,0,0,0,0,0,0,123,0.471,0.72,0.467,20,48,8,0021300519,1610612758,SAC,Sacramento,DeMarcus Cousins,C,,42:31,5.0,4.0,0.0,18.0,6.0,16.0,10.0,34.0,2.0,5.0,4.0,10.0
0021300519,1610612758,SAC,Sacramento,201977,Marcus Thornton,G,,21:52,112.0,99.2,12.9,0.0,0.0,0.0,0.069,0.231,0.145,16.7,0.3,0.3,0.107,106.02,0.047,2014-01-07T00:00:00,12,1610612757,POR,Portland,26-9,35,25,13,46,0,0,0,0,0,0,0,0,0,0,119,0.433,0.861,0.37,24,51,16,0021300519,1610612758,SAC,Sacramento,Marcus Thornton,G,,21:52,3.0,0.0,3.0,0.0,2.0,7.0,8.0,14.0,1.0,0.0,3.0,1.0
0021300519,1610612758,SAC,Sacramento,201977,Marcus Thornton,G,,21:52,112.0,99.2,12.9,0.0,0.0,0.0,0.069,0.231,0.145,16.7,0.3,0.3,0.107,106.02,0.047,2014-01-07T00:00:00,12,1610612758,SAC,Sacramento,11-22,24,31,25,43,0,0,0,0,0,0,0,0,0,0,123,0.471,0.72,0.467,20,48,8,0021300519,1610612758,SAC,Sacramento,Marcus Thornton,G,,21:52,3.0,0.0,3.0,0.0,2.0,7.0,8.0,14.0,1.0,0.0,3.0,1.0
0021300519,1610612758,SAC,Sacramento,202738,Isaiah Thomas,G,,36:48,107.7,108.3,-0.5,0.4,0.0,29.3,0.024,0.15,0.086,0.0,0.429,0.571,0.222,103.85,0.212,2014-01-07T00:00:00,12,1610612757,POR,Portland,26-9,35,25,13,46,0,0,0,0,0,0,0,0,0,0,119,0.433,0.861,0.37,24,51,16,0021300519,1610612758,SAC,Sacramento,Isaiah Thomas,G,,36:48,2.0,1.0,3.0,2.0,6.0,17.0,10.0,30.0,0.0,0.0,1.0,9.0
0021300519,1610612758,SAC,Sacramento,202738,Isaiah Thomas,G,,36:48,107.7,108.3,-0.5,0.4,0.0,29.3,0.024,0.15,0.086,0.0,0.429,0.571,0.222,103.85,0.212,2014-01-07T00:00:00,12,1610612758,SAC,Sacramento,11-22,24,31,25,43,0,0,0,0,0,0,0,0,0,0,123,0.471,0.72,0.467,20,48,8,0021300519,1610612758,SAC,Sacramento,Isaiah Thomas,G,,36:48,2.0,1.0,3.0,2.0,6.0,17.0,10.0,30.0,0.0,0.0,1.0,9.0
0021300519,1610612758,SAC,Sacramento,203463,Ben McLemore,,,17:53,128.7,134.1,-5.4,0.111,0.0,50.0,0.0,0.063,0.032,0.0,0.5,0.5,0.047,102.16,0.023,2014-01-07T00:00:00,12,1610612757,POR,Portland,26-9,35,25,13,46,0,0,0,0,0,0,0,0,0,0,119,0.433,0.861,0.37,24,51,16,0021300519,1610612758,SAC,Sacramento,Ben McLemore,,,17:53,0.0,0.0,0.0,2.0,4.0,14.0,2.0,14.0,0.0,0.0,2.0,1.0
0021300519,1610612758,SAC,Sacramento,203463,Ben McLemore,,,17:53,128.7,134.1,-5.4,0.111,0.0,50.0,0.0,0.063,0.032,0.0,0.5,0.5,0.047,102.16,0.023,2014-01-07T00:00:00,12,1610612758,SAC,Sacramento,11-22,24,31,25,43,0,0,0,0,0,0,0,0,0,0,123,0.471,0.72,0.467,20,48,8,0021300519,1610612758,SAC,Sacramento,Ben McLemore,,,17:53,0.0,0.0,0.0,2.0,4.0,14.0,2.0,14.0,0.0,0.0,2.0,1.0
0021300519,1610612758,SAC,Sacramento,203112,Quincy Acy,,,8:40,110.1,156.5,-46.5,0.0,0.0,0.0,0.0,0.091,0.059,34.0,0.333,0.387,0.308,113.09,-0.045,2014-01-07T00:00:00,12,1610612757,POR,Portland,26-9,35,25,13,46,0,0,0,0,0,0,0,0,0,0,119,0.433,0.861,0.37,24,51,16,0021300519,1610612758,SAC,Sacramento,Quincy Acy,,,8:40,0.0,0.0,0.0,2.0,6.0,11.0,2.0,6.0,0.0,0.0,2.0,2.0
0021300519,1610612758,SAC,Sacramento,203112,Quincy Acy,,,8:40,110.1,156.5,-46.5,0.0,0.0,0.0,0.0,0.091,0.059,34.0,0.333,0.387,0.308,113.09,-0.045,2014-01-07T00:00:00,12,1610612758,SAC,Sacramento,11-22,24,31,25,43,0,0,0,0,0,0,0,0,0,0,123,0.471,0.72,0.467,20,48,8,0021300519,1610612758,SAC,Sacramento,Quincy Acy,,,8:40,0.0,0.0,0.0,2.0,6.0,11.0,2.0,6.0,0.0,0.0,2.0,2.0
0021300519,1610612758,SAC,Sacramento,202682,Derrick Williams,,,30:47,118.5,115.4,3.1,0.0,0.0,0.0,0.0,0.139,0.078,0.0,0.571,0.614,0.152,112.02,0.088,2014-01-07T00:00:00,12,1610612757,POR,Portland,26-9,35,25,13,46,0,0,0,0,0,0,0,0,0,0,119,0.433,0.861,0.37,24,51,16,0021300519,1610612758,SAC,Sacramento,Derrick Williams,,,30:47,3.0,0.0,4.0,8.0,6.0,15.0,7.0,24.0,0.0,0.0,2.0,6.0
0021300519,1610612758,SAC,Sacramento,202682,Derrick Williams,,,30:47,118.5,115.4,3.1,0.0,0.0,0.0,0.0,0.139,0.078,0.0,0.571,0.614,0.152,112.02,0.088,2014-01-07T00:00:00,12,1610612758,SAC,Sacramento,11-22,24,31,25,43,0,0,0,0,0,0,0,0,0,0,123,0.471,0.72,0.467,20,48,8,0021300519,1610612758,SAC,Sacramento,Derrick Williams,,,30:47,3.0,0.0,4.0,8.0,6.0,15.0,7.0,24.0,0.0,0.0,2.0,6.0
0021300519,1610612758,SAC,Sacramento,202690,Jimmer Fredette,,,11:14,150.9,117.0,33.9,0.231,3.0,33.3,0.0,0.1,0.056,11.1,0.5,0.5,0.201,114.23,0.064,2014-01-07T00:00:00,12,1610612757,POR,Portland,26-9,35,25,13,46,0,0,0,0,0,0,0,0,0,0,119,0.433,0.861,0.37,24,51,16,0021300519,1610612758,SAC,Sacramento,Jimmer Fredette,,,11:14,0.0,2.0,3.0,0.0,2.0,6.0,0.0,8.0,0.0,1.0,1.0,0.0
0021300519,1610612758,SAC,Sacramento,202690,Jimmer Fredette,,,11:14,150.9,117.0,33.9,0.231,3.0,33.3,0.0,0.1,0.056,11.1,0.5,0.5,0.201,114.23,0.064,2014-01-07T00:00:00,12,1610612758,SAC,Sacramento,11-22,24,31,25,43,0,0,0,0,0,0,0,0,0,0,123,0.471,0.72,0.467,20,48,8,0021300519,1610612758,SAC,Sacramento,Jimmer Fredette,,,11:14,0.0,2.0,3.0,0.0,2.0,6.0,0.0,8.0,0.0,1.0,1.0,0.0
0021300519,1610612758,SAC,Sacramento,201189,Aaron Gray,,,5:05,112.5,92.6,19.9,0.167,0.0,50.0,0.0,0.2,0.125,0.0,0.0,0.0,0.08,114.82,0.049,2014-01-07T00:00:00,12,1610612757,POR,Portland,26-9,35,25,13,46,0,0,0,0,0,0,0,0,0,0,119,0.433,0.861,0.37,24,51,16,0021300519,1610612758,SAC,Sacramento,Aaron Gray,,,5:05,0.0,0.0,0.0,0.0,2.0,4.0,0.0,4.0,0.0,0.0,0.0,1.0
0021300519,1610612758,SAC,Sacramento,201189,Aaron Gray,,,5:05,112.5,92.6,19.9,0.167,0.0,50.0,0.0,0.2,0.125,0.0,0.0,0.0,0.08,114.82,0.049,2014-01-07T00:00:00,12,1610612758,SAC,Sacramento,11-22,24,31,25,43,0,0,0,0,0,0,0,0,0,0,123,0.471,0.72,0.467,20,48,8,0021300519,1610612758,SAC,Sacramento,Aaron Gray,,,5:05,0.0,0.0,0.0,0.0,2.0,4.0,0.0,4.0,0.0,0.0,0.0,1.0
0021300519,1610612758,SAC,Sacramento,203492,Ray McCallum,,DNP - Coach's Decision,,,,,,,0.0,,,,,,,0.0,,,2014-01-07T00:00:00,12,1610612757,POR,Portland,26-9,35,25,13,46,0,0,0,0,0,0,0,0,0,0,119,0.433,0.861,0.37,24,51,16,0021300519,1610612758,SAC,Sacramento,Ray McCallum,,DNP - Coach's Decision,,,,,,,,,,,,,
0021300519,1610612758,SAC,Sacramento,203492,Ray McCallum,,DNP - Coach's Decision,,,,,,,0.0,,,,,,,0.0,,,2014-01-07T00:00:00,12,1610612758,SAC,Sacramento,11-22,24,31,25,43,0,0,0,0,0,0,0,0,0,0,123,0.471,0.72,0.467,20,48,8,0021300519,1610612758,SAC,Sacramento,Ray McCallum,,DNP - Coach's Decision,,,,,,,,,,,,,
0021300519,1610612758,SAC,Sacramento,2566,Travis Outlaw,,DNP - Coach's Decision,,,,,,,0.0,,,,,,,0.0,,,2014-01-07T00:00:00,12,1610612757,POR,Portland,26-9,35,25,13,46,0,0,0,0,0,0,0,0,0,0,119,0.433,0.861,0.37,24,51,16,0021300519,1610612758,SAC,Sacramento,Travis Outlaw,,DNP - Coach's Decision,,,,,,,,,,,,,
0021300519,1610612758,SAC,Sacramento,2566,Travis Outlaw,,DNP - Coach's Decision,,,,,,,0.0,,,,,,,0.0,,,2014-01-07T00:00:00,12,1610612758,SAC,Sacramento,11-22,24,31,25,43,0,0,0,0,0,0,0,0,0,0,123,0.471,0.72,0.467,20,48,8,0021300519,1610612758,SAC,Sacramento,Travis Outlaw,,DNP - Coach's Decision,,,,,,,,,,,,,
