GAME_ID_x,TEAM_ID_x,TEAM_ABBREVIATION_x,TEAM_CITY_x,PLAYER_ID,PLAYER_NAME_x,START_POSITION_x,COMMENT_x,MIN_x,OFF_RATING,DEF_RATING,NET_RATING,AST_PCT,AST_TOV,AST_RATIO,OREB_PCT,DREB_PCT,REB_PCT,TM_TOV_PCT,EFG_PCT,TS_PCT,USG_PCT,PACE,PIE,GAME_DATE_EST,GAME_SEQUENCE,TEAM_ABBREVIATION_y,TEAM_CITY_NAME,TEAM_WINS_LOSSES,PTS_QTR1,PTS_QTR2,PTS_QTR3,PTS_QTR4,PTS_OT1,PTS_OT2,PTS_OT3,PTS_OT4,PTS_OT5,PTS_OT6,PTS_OT7,PTS_OT8,PTS_OT9,PTS_OT10,PTS,FG_PCT,FT_PCT,FG3_PCT,AST,REB,TOV,GAME_ID_y,TEAM_ID_y,TEAM_ABBREVIATION,TEAM_CITY_y,PLAYER_NAME_y,START_POSITION_y,COMMENT_y,MIN_y,PTS_OFF_TOV,PTS_2ND_CHANCE,PTS_FB,PTS_PAINT,OPP_PTS_OFF_TOV,OPP_PTS_2ND_CHANCE,OPP_PTS_FB,OPP_PTS_PAINT,BLK,BLKA,PF,PFD
0021500270,1610612756,PHX,Phoenix,200782,PJ Tucker,F,,39:01,108.2,119.2,-11.0,0.156,1.25,38.8,0.059,0.138,0.095,31.1,0.333,0.387,0.092,101.57,0.023,2015-12-02T00:00:00,3,PHX,Phoenix,8-11,26,31,32,23,10,0,0,0,0,0,0,0,0,0,122,0.485,0.933,0.424,28,36,15,0021500270,1610612756,PHX,Phoenix,PJ Tucker,F,,39:01,0.0,0.0,0.0,0.0,23.0,19.0,21.0,48.0,1.0,0.0,4.0,1.0
0021500270,1610612756,PHX,Phoenix,202720,Jon Leuer,F,,38:36,110.4,121.3,-11.0,0.192,0.0,26.5,0.03,0.238,0.111,0.0,0.692,0.72,0.16,98.74,0.171,2015-12-02T00:00:00,3,PHX,Phoenix,8-11,26,31,32,23,10,0,0,0,0,0,0,0,0,0,122,0.485,0.933,0.424,28,36,15,0021500270,1610612756,PHX,Phoenix,Jon Leuer,F,,38:36,4.0,2.0,0.0,12.0,18.0,13.0,17.0,50.0,1.0,0.0,4.0,3.0
0021500270,1610612756,PHX,Phoenix,203458,Alex Len,C,,14:42,88.2,101.1,-12.9,0.0,0.0,0.0,0.267,0.231,0.25,22.2,0.429,0.429,0.288,96.07,0.037,2015-12-02T00:00:00,3,PHX,Phoenix,8-11,26,31,32,23,10,0,0,0,0,0,0,0,0,0,122,0.485,0.933,0.424,28,36,15,0021500270,1610612756,PHX,Phoenix,Alex Len,C,,14:42,0.0,2.0,0.0,4.0,8.0,2.0,5.0,12.0,1.0,1.0,4.0,0.0
0021500270,1610612756,PHX,Phoenix,202688,Brandon Knight,G,,38:01,104.5,122.7,-18.3,0.167,4.0,14.6,0.0,0.077,0.033,3.7,0.452,0.493,0.276,99.34,0.089,2015-12-02T00:00:00,3,PHX,Phoenix,8-11,26,31,32,23,10,0,0,0,0,0,0,0,0,0,122,0.485,0.933,0.424,28,36,15,0021500270,1610612756,PHX,Phoenix,Brandon Knight,G,,38:01,2.0,0.0,2.0,2.0,21.0,16.0,20.0,50.0,0.0,0.0,2.0,4.0
0021500270,1610612756,PHX,Phoenix,202339,Eric Bledsoe,G,,40:50,103.0,122.0,-19.0,0.346,1.5,24.8,0.054,0.065,0.059,16.5,0.45,0.492,0.299,103.32,0.077,2015-12-02T00:00:00,3,PHX,Phoenix,8-11,26,31,32,23,10,0,0,0,0,0,0,0,0,0,122,0.485,0.933,0.424,28,36,15,0021500270,1610612756,PHX,Phoenix,Eric Bledsoe,G,,40:50,4.0,0.0,0.0,10.0,23.0,19.0,22.0,48.0,0.0,0.0,5.0,6.0
0021500270,1610612756,PHX,Phoenix,203141,Mirza Teletovic,,,39:05,115.5,107.0,8.5,0.034,0.5,6.3,0.0,0.125,0.061,12.5,0.692,0.692,0.17,101.63,0.087,2015-12-02T00:00:00,3,PHX,Phoenix,8-11,26,31,32,23,10,0,0,0,0,0,0,0,0,0,122,0.485,0.933,0.424,28,36,15,0021500270,1610612756,PHX,Phoenix,Mirza Teletovic,,,39:05,0.0,0.0,0.0,6.0,14.0,17.0,18.0,42.0,0.0,0.0,3.0,1.0
0021500270,1610612756,PHX,Phoenix,203933,TJ Warren,,,21:28,127.7,89.1,38.6,0.056,0.0,8.3,0.053,0.2,0.118,0.0,0.545,0.545,0.211,104.42,0.119,2015-12-02T00:00:00,3,PHX,Phoenix,8-11,26,31,32,23,10,0,0,0,0,0,0,0,0,0,122,0.485,0.933,0.424,28,36,15,0021500270,1610612756,PHX,Phoenix,TJ Warren,,,21:28,4.0,2.0,2.0,12.0,2.0,3.0,6.0,12.0,0.0,0.0,3.0,2.0
0021500270,1610612756,PHX,Phoenix,1626164,Devin Booker,,,22:50,116.5,107.7,8.8,0.059,0.0,10.9,0.0,0.071,0.029,0.0,1.083,1.098,0.152,101.3,0.155,2015-12-02T00:00:00,3,PHX,Phoenix,8-11,26,31,32,23,10,0,0,0,0,0,0,0,0,0,122,0.485,0.933,0.424,28,36,15,0021500270,1610612756,PHX,Phoenix,Devin Booker,,,22:50,6.0,0.0,0.0,4.0,6.0,3.0,7.0,14.0,0.0,0.0,5.0,3.0
0021500270,1610612756,PHX,Phoenix,101179,Ronnie Price,,,6:48,136.4,42.9,93.5,0.333,0.0,66.7,0.0,0.0,0.0,0.0,0.0,0.0,0.062,96.12,0.0,2015-12-02T00:00:00,3,PHX,Phoenix,8-11,26,31,32,23,10,0,0,0,0,0,0,0,0,0,122,0.485,0.933,0.424,28,36,15,0021500270,1610612756,PHX,Phoenix,Ronnie Price,,,6:48,0.0,0.0,0.0,0.0,0.0,0.0,0.0,2.0,0.0,0.0,1.0,0.0
0021500270,1610612756,PHX,Phoenix,203928,Cory Jefferson,,,3:41,177.7,104.2,73.5,0.0,0.0,0.0,0.0,0.286,0.222,0.0,0.5,0.5,0.254,107.64,0.054,2015-12-02T00:00:00,3,PHX,Phoenix,8-11,26,31,32,23,10,0,0,0,0,0,0,0,0,0,122,0.485,0.933,0.424,28,36,15,0021500270,1610612756,PHX,Phoenix,Cory Jefferson,,,3:41,0.0,0.0,0.0,2.0,0.0,3.0,4.0,2.0,0.0,0.0,2.0,0.0
0021500270,1610612756,PHX,Phoenix,203955,Bryce Cotton,,DNP - Coach's Decision                  ,,,,,,,0.0,,,,,,,0.0,,,2015-12-02T00:00:00,3,PHX,Phoenix,8-11,26,31,32,23,10,0,0,0,0,0,0,0,0,0,122,0.485,0.933,0.424,28,36,15,0021500270,1610612756,PHX,Phoenix,Bryce Cotton,,DNP - Coach's Decision                  ,,,,,,,,,,,,,
0021500270,1610612756,PHX,Phoenix,203462,Archie Goodwin,,DNP - Coach's Decision                  ,,,,,,,0.0,,,,,,,0.0,,,2015-12-02T00:00:00,3,PHX,Phoenix,8-11,26,31,32,23,10,0,0,0,0,0,0,0,0,0,122,0.485,0.933,0.424,28,36,15,0021500270,1610612756,PHX,Phoenix,Archie Goodwin,,DNP - Coach's Decision                  ,,,,,,,,,,,,,
0021500270,1610612756,PHX,Phoenix,201603,Sonny Weems,,DNP - Coach's Decision                  ,,,,,,,0.0,,,,,,,0.0,,,2015-12-02T00:00:00,3,PHX,Phoenix,8-11,26,31,32,23,10,0,0,0,0,0,0,0,0,0,122,0.485,0.933,0.424,28,36,15,0021500270,1610612756,PHX,Phoenix,Sonny Weems,,DNP - Coach's Decision                  ,,,,,,,,,,,,,
0021500270,1610612765,DET,Detroit,202694,Marcus Morris,F,,41:58,121.5,106.5,15.0,0.1,1.5,15.5,0.097,0.297,0.206,10.3,0.85,0.833,0.16,102.73,0.195,2015-12-02T00:00:00,3,DET,Detroit,10-9,31,26,23,32,15,0,0,0,0,0,0,0,0,0,127,0.506,0.614,0.444,24,50,18,0021500270,1610612765,DET,Detroit,Marcus Morris,F,,41:58,5.0,10.0,3.0,6.0,10.0,0.0,4.0,32.0,0.0,0.0,2.0,8.0
0021500270,1610612765,DET,Detroit,101141,Ersan Ilyasova,F,,34:44,122.6,103.8,18.8,0.038,0.25,4.8,0.036,0.097,0.068,19.4,0.731,0.735,0.216,102.51,0.097,2015-12-02T00:00:00,3,DET,Detroit,10-9,31,26,23,32,15,0,0,0,0,0,0,0,0,0,127,0.506,0.614,0.444,24,50,18,0021500270,1610612765,DET,Detroit,Ersan Ilyasova,F,,34:44,4.0,2.0,7.0,10.0,6.0,0.0,4.0,26.0,0.0,0.0,4.0,5.0
0021500270,1610612765,DET,Detroit,203083,Andre Drummond,C,,42:07,123.5,113.3,10.2,0.0,0.0,0.0,0.107,0.257,0.19,7.8,0.5,0.468,0.272,99.22,0.063,2015-12-02T00:00:00,3,DET,Detroit,10-9,31,26,23,32,15,0,0,0,0,0,0,0,0,0,127,0.506,0.614,0.444,24,50,18,0021500270,1610612765,DET,Detroit,Andre Drummond,C,,42:07,6.0,5.0,6.0,16.0,10.0,2.0,4.0,38.0,1.0,0.0,3.0,10.0
0021500270,1610612765,DET,Detroit,203484,Kentavious Caldwell-Pope,G,,46:09,111.5,104.6,7.0,0.057,1.0,12.6,0.059,0.093,0.078,12.6,0.409,0.421,0.127,99.56,0.04,2015-12-02T00:00:00,3,DET,Detroit,10-9,31,26,23,32,15,0,0,0,0,0,0,0,0,0,127,0.506,0.614,0.444,24,50,18,0021500270,1610612765,DET,Detroit,Kentavious Caldwell-Pope,G,,46:09,1.0,0.0,1.0,6.0,14.0,6.0,2.0,42.0,0.0,0.0,4.0,4.0
0021500270,1610612765,DET,Detroit,202704,Reggie Jackson,G,,39:56,126.0,98.3,27.7,0.615,5.33,38.0,0.0,0.079,0.045,7.1,0.675,0.737,0.27,101.04,0.275,2015-12-02T00:00:00,3,DET,Detroit,10-9,31,26,23,32,15,0,0,0,0,0,0,0,0,0,127,0.506,0.614,0.444,24,50,18,0021500270,1610612765,DET,Detroit,Reggie Jackson,G,,39:56,7.0,2.0,7.0,16.0,6.0,2.0,2.0,30.0,0.0,1.0,3.0,3.0
0021500270,1610612765,DET,Detroit,1626169,Stanley Johnson,,,21:12,94.5,130.1,-35.6,0.091,1.0,10.1,0.0,0.111,0.063,10.1,0.357,0.444,0.201,102.43,0.035,2015-12-02T00:00:00,3,DET,Detroit,10-9,31,26,23,32,15,0,0,0,0,0,0,0,0,0,127,0.506,0.614,0.444,24,50,18,0021500270,1610612765,DET,Detroit,Stanley Johnson,,,21:12,0.0,0.0,0.0,2.0,16.0,6.0,2.0,32.0,0.0,2.0,1.0,2.0
0021500270,1610612765,DET,Detroit,2581,Steve Blake,,,13:04,68.7,150.7,-82.0,0.2,0.5,16.7,0.0,0.111,0.053,33.3,0.333,0.333,0.169,100.73,0.0,2015-12-02T00:00:00,3,DET,Detroit,10-9,31,26,23,32,15,0,0,0,0,0,0,0,0,0,127,0.506,0.614,0.444,24,50,18,0021500270,1610612765,DET,Detroit,Steve Blake,,,13:04,0.0,0.0,0.0,0.0,14.0,4.0,2.0,22.0,0.0,0.0,0.0,0.0
0021500270,1610612765,DET,Detroit,201229,Anthony Tolliver,,,15:06,84.9,125.0,-40.1,0.0,0.0,0.0,0.0,0.231,0.13,0.0,1.25,1.25,0.061,98.28,0.194,2015-12-02T00:00:00,3,DET,Detroit,10-9,31,26,23,32,15,0,0,0,0,0,0,0,0,0,127,0.506,0.614,0.444,24,50,18,0021500270,1610612765,DET,Detroit,Anthony Tolliver,,,15:06,0.0,0.0,0.0,0.0,14.0,6.0,0.0,24.0,0.0,0.0,0.0,0.0
0021500270,1610612765,DET,Detroit,203382,Aron Baynes,,,10:44,71.3,113.9,-42.6,0.0,0.0,0.0,0.364,0.091,0.227,28.6,0.0,0.0,0.221,102.8,-0.333,2015-12-02T00:00:00,3,DET,Detroit,10-9,31,26,23,32,15,0,0,0,0,0,0,0,0,0,127,0.506,0.614,0.444,24,50,18,0021500270,1610612765,DET,Detroit,Aron Baynes,,,10:44,0.0,0.0,0.0,0.0,10.0,4.0,0.0,14.0,0.0,0.0,3.0,1.0
0021500270,1610612765,DET,Detroit,201202,Joel Anthony,,DNP - Coach's Decision                  ,,,,,,,0.0,,,,,,,0.0,,,2015-12-02T00:00:00,3,DET,Detroit,10-9,31,26,23,32,15,0,0,0,0,0,0,0,0,0,127,0.506,0.614,0.444,24,50,18,0021500270,1610612765,DET,Detroit,Joel Anthony,,DNP - Coach's Decision                  ,,,,,,,,,,,,,
0021500270,1610612765,DET,Detroit,203493,Reggie Bullock,,DNP - Coach's Decision                  ,,,,,,,0.0,,,,,,,0.0,,,2015-12-02T00:00:00,3,DET,Detroit,10-9,31,26,23,32,15,0,0,0,0,0,0,0,0,0,127,0.506,0.614,0.444,24,50,18,0021500270,1610612765,DET,Detroit,Reggie Bullock,,DNP - Coach's Decision                  ,,,,,,,,,,,,,
0021500270,1610612765,DET,Detroit,203915,Spencer Dinwiddie,,DNP - Coach's Decision                  ,,,,,,,0.0,,,,,,,0.0,,,2015-12-02T00:00:00,3,DET,Detroit,10-9,31,26,23,32,15,0,0,0,0,0,0,0,0,0,127,0.506,0.614,0.444,24,50,18,0021500270,1610612765,DET,Detroit,Spencer Dinwiddie,,DNP - Coach's Decision                  ,,,,,,,,,,,,,
0021500270,1610612765,DET,Detroit,1626199,Darrun Hilliard,,DNP - Coach's Decision                  ,,,,,,,0.0,,,,,,,0.0,,,2015-12-02T00:00:00,3,DET,Detroit,10-9,31,26,23,32,15,0,0,0,0,0,0,0,0,0,127,0.506,0.614,0.444,24,50,18,0021500270,1610612765,DET,Detroit,Darrun Hilliard,,DNP - Coach's Decision                  ,,,,,,,,,,,,,
