GAME_ID_x,TEAM_ID_x,TEAM_ABBREVIATION_x,TEAM_CITY_x,PLAYER_ID,PLAYER_NAME_x,START_POSITION_x,COMMENT_x,MIN_x,OFF_RATING,DEF_RATING,NET_RATING,AST_PCT,AST_TOV,AST_RATIO,OREB_PCT,DREB_PCT,REB_PCT,TM_TOV_PCT,EFG_PCT,TS_PCT,USG_PCT,PACE,PIE,GAME_DATE_EST,GAME_SEQUENCE,TEAM_ABBREVIATION_y,TEAM_CITY_NAME,TEAM_WINS_LOSSES,PTS_QTR1,PTS_QTR2,PTS_QTR3,PTS_QTR4,PTS_OT1,PTS_OT2,PTS_OT3,PTS_OT4,PTS_OT5,PTS_OT6,PTS_OT7,PTS_OT8,PTS_OT9,PTS_OT10,PTS,FG_PCT,FT_PCT,FG3_PCT,AST,REB,TOV,GAME_ID_y,TEAM_ID_y,TEAM_ABBREVIATION,TEAM_CITY_y,PLAYER_NAME_y,START_POSITION_y,COMMENT_y,MIN_y,PTS_OFF_TOV,PTS_2ND_CHANCE,PTS_FB,PTS_PAINT,OPP_PTS_OFF_TOV,OPP_PTS_2ND_CHANCE,OPP_PTS_FB,OPP_PTS_PAINT,BLK,BLKA,PF,PFD
0021500294,1610612757,POR,Portland,202329,Al-Farouq Aminu,F,,27:16,116.2,108.2,8.1,0.056,0.33,7.6,0.0,0.107,0.06,22.7,0.857,0.87,0.193,101.89,0.129,2015-12-05T00:00:00,6,POR,Portland,9-12,22,24,34,29,0,0,0,0,0,0,0,0,0,0,109,0.506,0.7,0.5,23,40,14,0021500294,1610612757,POR,Portland,Al-Farouq Aminu,F,,27:16,2.0,0.0,2.0,6.0,10.0,14.0,4.0,26.0,0.0,1.0,2.0,3.0
0021500294,1610612757,POR,Portland,203943,Noah Vonleh,F,,15:05,129.1,114.2,14.9,0.071,0.5,14.3,0.0,0.333,0.143,28.6,0.5,0.5,0.162,102.95,0.063,2015-12-05T00:00:00,6,POR,Portland,9-12,22,24,34,29,0,0,0,0,0,0,0,0,0,0,109,0.506,0.7,0.5,23,40,14,0021500294,1610612757,POR,Portland,Noah Vonleh,F,,15:05,2.0,0.0,0.0,2.0,4.0,2.0,2.0,12.0,0.0,0.0,0.0,0.0
0021500294,1610612757,POR,Portland,203486,Mason Plumlee,C,,23:51,115.1,118.0,-2.9,0.105,1.0,18.4,0.2,0.313,0.25,18.4,0.333,0.436,0.161,101.09,0.063,2015-12-05T00:00:00,6,POR,Portland,9-12,22,24,34,29,0,0,0,0,0,0,0,0,0,0,109,0.506,0.7,0.5,23,40,14,0021500294,1610612757,POR,Portland,Mason Plumlee,C,,23:51,2.0,4.0,0.0,4.0,10.0,6.0,6.0,18.0,0.0,2.0,2.0,2.0
0021500294,1610612757,POR,Portland,203468,CJ McCollum,G,,35:05,122.4,107.4,15.0,0.231,6.0,25.0,0.0,0.152,0.082,4.2,0.5,0.5,0.225,96.35,0.125,2015-12-05T00:00:00,6,POR,Portland,9-12,22,24,34,29,0,0,0,0,0,0,0,0,0,0,109,0.506,0.7,0.5,23,40,14,0021500294,1610612757,POR,Portland,CJ McCollum,G,,35:05,4.0,0.0,2.0,4.0,6.0,13.0,8.0,30.0,1.0,0.0,2.0,1.0
0021500294,1610612757,POR,Portland,203081,Damian Lillard,G,,37:01,115.1,109.1,6.0,0.292,3.5,26.3,0.0,0.083,0.045,7.5,0.433,0.539,0.238,97.71,0.116,2015-12-05T00:00:00,6,POR,Portland,9-12,22,24,34,29,0,0,0,0,0,0,0,0,0,0,109,0.506,0.7,0.5,23,40,14,0021500294,1610612757,POR,Portland,Damian Lillard,G,,37:01,2.0,2.0,0.0,10.0,13.0,17.0,6.0,28.0,0.0,0.0,3.0,5.0
0021500294,1610612757,POR,Portland,202334,Ed Davis,,,27:22,107.1,101.8,5.2,0.067,0.0,9.9,0.083,0.188,0.143,0.0,0.833,0.716,0.158,90.71,0.204,2015-12-05T00:00:00,6,POR,Portland,9-12,22,24,34,29,0,0,0,0,0,0,0,0,0,0,109,0.506,0.7,0.5,23,40,14,0021500294,1610612757,POR,Portland,Ed Davis,,,27:22,0.0,6.0,0.0,10.0,5.0,15.0,4.0,22.0,2.0,1.0,2.0,5.0
0021500294,1610612757,POR,Portland,203086,Meyers Leonard,,,23:37,109.0,106.4,2.6,0.167,1.0,14.3,0.0,0.0,0.0,14.3,0.7,0.7,0.255,89.62,0.073,2015-12-05T00:00:00,6,POR,Portland,9-12,22,24,34,29,0,0,0,0,0,0,0,0,0,0,109,0.506,0.7,0.5,23,40,14,0021500294,1610612757,POR,Portland,Meyers Leonard,,,23:37,3.0,0.0,0.0,4.0,5.0,11.0,6.0,20.0,0.0,0.0,5.0,0.0
0021500294,1610612757,POR,Portland,203459,Allen Crabbe,,,23:03,104.7,96.3,8.4,0.091,0.0,10.0,0.0,0.143,0.073,0.0,0.611,0.611,0.196,94.38,0.097,2015-12-05T00:00:00,6,POR,Portland,9-12,22,24,34,29,0,0,0,0,0,0,0,0,0,0,109,0.506,0.7,0.5,23,40,14,0021500294,1610612757,POR,Portland,Allen Crabbe,,,23:03,3.0,0.0,7.0,4.0,9.0,6.0,4.0,16.0,0.0,0.0,4.0,1.0
0021500294,1610612757,POR,Portland,203090,Maurice Harkless,,,10:11,70.9,118.4,-47.5,0.0,0.0,0.0,0.091,0.2,0.143,0.0,0.0,0.181,0.133,98.33,-0.016,2015-12-05T00:00:00,6,POR,Portland,9-12,22,24,34,29,0,0,0,0,0,0,0,0,0,0,109,0.506,0.7,0.5,23,40,14,0021500294,1610612757,POR,Portland,Maurice Harkless,,,10:11,0.0,1.0,0.0,0.0,4.0,4.0,6.0,12.0,0.0,0.0,0.0,3.0
0021500294,1610612757,POR,Portland,201945,Gerald Henderson,,,17:22,103.5,103.3,0.3,0.182,1.0,23.1,0.067,0.143,0.103,23.1,0.75,0.862,0.185,89.55,0.142,2015-12-05T00:00:00,6,POR,Portland,9-12,22,24,34,29,0,0,0,0,0,0,0,0,0,0,109,0.506,0.7,0.5,23,40,14,0021500294,1610612757,POR,Portland,Gerald Henderson,,,17:22,4.0,3.0,0.0,0.0,9.0,7.0,4.0,14.0,0.0,0.0,1.0,4.0
0021500294,1610612757,POR,Portland,204025,Tim Frazier,,,0:08,0.0,200.0,-200.0,0.0,0.0,0.0,0.0,0.0,0.0,0.0,0.0,0.0,0.0,378.95,0.0,2015-12-05T00:00:00,6,POR,Portland,9-12,22,24,34,29,0,0,0,0,0,0,0,0,0,0,109,0.506,0.7,0.5,23,40,14,0021500294,1610612757,POR,Portland,Tim Frazier,,,0:08,0.0,0.0,0.0,0.0,0.0,0.0,0.0,2.0,0.0,0.0,0.0,0.0
0021500294,1610612757,POR,Portland,1626192,Pat Connaughton,,DNP - Coach's Decision                  ,,,,,,,0.0,,,,,,,0.0,,,2015-12-05T00:00:00,6,POR,Portland,9-12,22,24,34,29,0,0,0,0,0,0,0,0,0,0,109,0.506,0.7,0.5,23,40,14,0021500294,1610612757,POR,Portland,Pat Connaughton,,DNP - Coach's Decision                  ,,,,,,,,,,,,,
0021500294,1610612757,POR,Portland,2549,Chris Kaman,,DNP - Coach's Decision                  ,,,,,,,0.0,,,,,,,0.0,,,2015-12-05T00:00:00,6,POR,Portland,9-12,22,24,34,29,0,0,0,0,0,0,0,0,0,0,109,0.506,0.7,0.5,23,40,14,0021500294,1610612757,POR,Portland,Chris Kaman,,DNP - Coach's Decision                  ,,,,,,,,,,,,,
0021500294,1610612750,MIN,Minnesota,203952,Andrew Wiggins,F,,40:12,112.2,114.0,-1.9,0.0,0.0,0.0,0.027,0.111,0.068,5.4,0.4,0.482,0.202,96.61,0.05,2015-12-05T00:00:00,6,MIN,Minnesota,8-11,32,27,23,21,0,0,0,0,0,0,0,0,0,0,103,0.458,0.846,0.333,24,45,14,0021500294,1610612750,MIN,Minnesota,Andrew Wiggins,F,,40:12,6.0,2.0,0.0,8.0,15.0,16.0,11.0,40.0,1.0,0.0,3.0,5.0
0021500294,1610612750,MIN,Minnesota,708,Kevin Garnett,F,,15:30,119.0,119.0,0.0,0.182,2.0,25.4,0.0,0.154,0.091,12.7,0.5,0.512,0.187,96.21,0.066,2015-12-05T00:00:00,6,MIN,Minnesota,8-11,32,27,23,21,0,0,0,0,0,0,0,0,0,0,103,0.458,0.846,0.333,24,45,14,0021500294,1610612750,MIN,Minnesota,Kevin Garnett,F,,15:30,0.0,0.0,0.0,0.0,9.0,7.0,5.0,16.0,1.0,0.0,1.0,1.0
0021500294,1610612750,MIN,Minnesota,1626157,Karl-Anthony Towns,C,,31:51,118.1,123.1,-5.0,0.133,0.67,7.7,0.167,0.259,0.211,11.5,0.643,0.643,0.322,97.44,0.176,2015-12-05T00:00:00,6,MIN,Minnesota,8-11,32,27,23,21,0,0,0,0,0,0,0,0,0,0,103,0.458,0.846,0.333,24,45,14,0021500294,1610612750,MIN,Minnesota,Karl-Anthony Towns,C,,31:51,2.0,8.0,0.0,14.0,15.0,15.0,11.0,32.0,2.0,0.0,4.0,1.0
0021500294,1610612750,MIN,Minnesota,2755,Kevin Martin,G,,24:20,124.9,113.1,11.8,0.105,0.0,20.5,0.0,0.043,0.024,0.0,0.583,0.709,0.146,97.96,0.096,2015-12-05T00:00:00,6,MIN,Minnesota,8-11,32,27,23,21,0,0,0,0,0,0,0,0,0,0,103,0.458,0.846,0.333,24,45,14,0021500294,1610612750,MIN,Minnesota,Kevin Martin,G,,24:20,0.0,2.0,0.0,0.0,8.0,13.0,6.0,28.0,0.0,0.0,1.0,2.0
0021500294,1610612750,MIN,Minnesota,201937,Ricky Rubio,G,,33:47,114.1,121.8,-7.7,0.536,5.0,58.5,0.094,0.103,0.098,11.7,0.3,0.589,0.136,97.53,0.125,2015-12-05T00:00:00,6,MIN,Minnesota,8-11,32,27,23,21,0,0,0,0,0,0,0,0,0,0,103,0.458,0.846,0.333,24,45,14,0021500294,1610612750,MIN,Minnesota,Ricky Rubio,G,,33:47,0.0,0.0,4.0,0.0,15.0,15.0,11.0,36.0,0.0,0.0,3.0,5.0
0021500294,1610612750,MIN,Minnesota,203940,Adreian Payne,,,10:33,106.3,107.1,-0.9,0.0,0.0,0.0,0.0,0.417,0.227,0.0,0.5,0.5,0.085,100.19,0.107,2015-12-05T00:00:00,6,MIN,Minnesota,8-11,32,27,23,21,0,0,0,0,0,0,0,0,0,0,103,0.458,0.846,0.333,24,45,14,0021500294,1610612750,MIN,Minnesota,Adreian Payne,,,10:33,0.0,0.0,0.0,2.0,4.0,7.0,4.0,12.0,0.0,0.0,2.0,0.0
0021500294,1610612750,MIN,Minnesota,203897,Zach LaVine,,,22:45,101.6,104.8,-3.2,0.167,2.0,11.2,0.038,0.0,0.023,5.6,0.357,0.403,0.298,91.99,0.008,2015-12-05T00:00:00,6,MIN,Minnesota,8-11,32,27,23,21,0,0,0,0,0,0,0,0,0,0,103,0.458,0.846,0.333,24,45,14,0021500294,1610612750,MIN,Minnesota,Zach LaVine,,,22:45,3.0,0.0,2.0,4.0,9.0,3.0,2.0,14.0,0.0,3.0,4.0,1.0
0021500294,1610612750,MIN,Minnesota,203476,Gorgui Dieng,,,24:23,97.3,102.4,-5.0,0.091,0.25,7.0,0.071,0.158,0.106,27.9,0.75,0.805,0.233,92.72,0.157,2015-12-05T00:00:00,6,MIN,Minnesota,8-11,32,27,23,21,0,0,0,0,0,0,0,0,0,0,103,0.458,0.846,0.333,24,45,14,0021500294,1610612750,MIN,Minnesota,Gorgui Dieng,,,24:23,2.0,7.0,2.0,8.0,9.0,3.0,2.0,16.0,0.0,0.0,4.0,3.0
0021500294,1610612750,MIN,Minnesota,203498,Shabazz Muhammad,,,11:21,78.0,84.4,-6.4,0.0,0.0,0.0,0.0,0.111,0.048,0.0,0.2,0.255,0.244,96.42,-0.056,2015-12-05T00:00:00,6,MIN,Minnesota,8-11,32,27,23,21,0,0,0,0,0,0,0,0,0,0,103,0.458,0.846,0.333,24,45,14,0021500294,1610612750,MIN,Minnesota,Shabazz Muhammad,,,11:21,2.0,0.0,2.0,2.0,7.0,1.0,0.0,6.0,0.0,0.0,1.0,2.0
0021500294,1610612750,MIN,Minnesota,2419,Tayshaun Prince,,,11:54,81.9,118.3,-36.4,0.0,0.0,0.0,0.0,0.333,0.125,0.0,0.0,0.0,0.083,96.27,-0.026,2015-12-05T00:00:00,6,MIN,Minnesota,8-11,32,27,23,21,0,0,0,0,0,0,0,0,0,0,103,0.458,0.846,0.333,24,45,14,0021500294,1610612750,MIN,Minnesota,Tayshaun Prince,,,11:54,0.0,0.0,0.0,0.0,12.0,0.0,3.0,10.0,0.0,0.0,1.0,0.0
0021500294,1610612750,MIN,Minnesota,202357,Nemanja Bjelica,,,13:25,92.6,94.3,-1.7,0.0,0.0,0.0,0.077,0.444,0.227,41.0,1.0,0.694,0.081,97.72,0.122,2015-12-05T00:00:00,6,MIN,Minnesota,8-11,32,27,23,21,0,0,0,0,0,0,0,0,0,0,103,0.458,0.846,0.333,24,45,14,0021500294,1610612750,MIN,Minnesota,Nemanja Bjelica,,,13:25,0.0,0.0,0.0,2.0,7.0,0.0,0.0,10.0,0.0,0.0,0.0,1.0
0021500294,1610612750,MIN,Minnesota,1889,Andre Miller,,DNP - Coach's Decision                  ,,,,,,,0.0,,,,,,,0.0,,,2015-12-05T00:00:00,6,MIN,Minnesota,8-11,32,27,23,21,0,0,0,0,0,0,0,0,0,0,103,0.458,0.846,0.333,24,45,14,0021500294,1610612750,MIN,Minnesota,Andre Miller,,DNP - Coach's Decision                  ,,,,,,,,,,,,,
0021500294,1610612750,MIN,Minnesota,204014,Damjan Rudez,,DNP - Coach's Decision                  ,,,,,,,0.0,,,,,,,0.0,,,2015-12-05T00:00:00,6,MIN,Minnesota,8-11,32,27,23,21,0,0,0,0,0,0,0,0,0,0,103,0.458,0.846,0.333,24,45,14,0021500294,1610612750,MIN,Minnesota,Damjan Rudez,,DNP - Coach's Decision                  ,,,,,,,,,,,,,
