GAME_ID_x,TEAM_ID_x,TEAM_ABBREVIATION_x,TEAM_CITY_x,PLAYER_ID,PLAYER_NAME_x,START_POSITION_x,COMMENT_x,MIN_x,OFF_RATING,DEF_RATING,NET_RATING,AST_PCT,AST_TOV,AST_RATIO,OREB_PCT,DREB_PCT,REB_PCT,TM_TOV_PCT,EFG_PCT,TS_PCT,USG_PCT,PACE,PIE,GAME_DATE_EST,GAME_SEQUENCE,TEAM_ABBREVIATION_y,TEAM_CITY_NAME,TEAM_WINS_LOSSES,PTS_QTR1,PTS_QTR2,PTS_QTR3,PTS_QTR4,PTS_OT1,PTS_OT2,PTS_OT3,PTS_OT4,PTS_OT5,PTS_OT6,PTS_OT7,PTS_OT8,PTS_OT9,PTS_OT10,PTS,FG_PCT,FT_PCT,FG3_PCT,AST,REB,TOV,GAME_ID_y,TEAM_ID_y,TEAM_ABBREVIATION,TEAM_CITY_y,PLAYER_NAME_y,START_POSITION_y,COMMENT_y,MIN_y,PTS_OFF_TOV,PTS_2ND_CHANCE,PTS_FB,PTS_PAINT,OPP_PTS_OFF_TOV,OPP_PTS_2ND_CHANCE,OPP_PTS_FB,OPP_PTS_PAINT,BLK,BLKA,PF,PFD
0021500293,1610612758,SAC,Sacramento,200752,Rudy Gay,F,,30:50,102.0,112.7,-10.7,0.083,2.0,12.6,0.094,0.103,0.098,6.3,0.542,0.582,0.172,105.33,0.082,2015-12-05T00:00:00,5,SAC,Sacramento,7-14,16,34,35,28,0,0,0,0,0,0,0,0,0,0,113,0.469,0.846,0.385,35,47,13,0021500293,1610612758,SAC,Sacramento,Rudy Gay,F,,30:50,2.0,4.0,4.0,8.0,8.0,0.0,4.0,28.0,0.0,0.0,5.0,3.0
0021500293,1610612758,SAC,Sacramento,201956,Omri Casspi,F,,33:01,112.4,114.8,-2.4,0.067,0.67,10.1,0.0,0.094,0.049,15.1,0.464,0.504,0.202,109.47,0.04,2015-12-05T00:00:00,5,SAC,Sacramento,7-14,16,34,35,28,0,0,0,0,0,0,0,0,0,0,113,0.469,0.846,0.385,35,47,13,0021500293,1610612758,SAC,Sacramento,Omri Casspi,F,,33:01,2.0,5.0,2.0,10.0,17.0,9.0,3.0,24.0,2.0,0.0,4.0,2.0
0021500293,1610612758,SAC,Sacramento,202326,DeMarcus Cousins,C,,26:50,99.5,119.9,-20.4,0.167,1.0,12.0,0.05,0.308,0.196,12.0,0.25,0.367,0.355,105.97,0.041,2015-12-05T00:00:00,5,SAC,Sacramento,7-14,16,34,35,28,0,0,0,0,0,0,0,0,0,0,113,0.469,0.846,0.385,35,47,13,0021500293,1610612758,SAC,Sacramento,DeMarcus Cousins,C,,26:50,0.0,4.0,0.0,6.0,15.0,6.0,6.0,22.0,2.0,3.0,6.0,4.0
0021500293,1610612758,SAC,Sacramento,203463,Ben McLemore,G,,41:33,114.3,108.0,6.3,0.057,2.0,11.8,0.051,0.167,0.111,5.9,0.679,0.679,0.142,105.96,0.121,2015-12-05T00:00:00,5,SAC,Sacramento,7-14,16,34,35,28,0,0,0,0,0,0,0,0,0,0,113,0.469,0.846,0.385,35,47,13,0021500293,1610612758,SAC,Sacramento,Ben McLemore,G,,41:33,2.0,2.0,4.0,10.0,17.0,6.0,6.0,28.0,1.0,0.0,3.0,3.0
0021500293,1610612758,SAC,Sacramento,200765,Rajon Rondo,G,,36:03,108.4,126.4,-18.0,0.655,4.75,54.3,0.067,0.031,0.048,11.4,0.542,0.542,0.179,105.05,0.17,2015-12-05T00:00:00,5,SAC,Sacramento,7-14,16,34,35,28,0,0,0,0,0,0,0,0,0,0,113,0.469,0.846,0.385,35,47,13,0021500293,1610612758,SAC,Sacramento,Rajon Rondo,G,,36:03,0.0,0.0,0.0,8.0,17.0,9.0,3.0,26.0,0.0,0.0,0.0,2.0
0021500293,1610612758,SAC,Sacramento,203112,Quincy Acy,,,3:42,57.1,122.0,-64.8,0.0,0.0,0.0,0.25,0.0,0.1,0.0,0.5,0.5,0.25,98.59,-0.125,2015-12-05T00:00:00,5,SAC,Sacramento,7-14,16,34,35,28,0,0,0,0,0,0,0,0,0,0,113,0.469,0.846,0.385,35,47,13,0021500293,1610612758,SAC,Sacramento,Quincy Acy,,,3:42,2.0,0.0,2.0,2.0,5.0,7.0,0.0,4.0,0.0,0.0,2.0,0.0
0021500293,1610612758,SAC,Sacramento,201158,Marco Belinelli,,,15:37,84.9,135.1,-50.2,0.0,0.0,0.0,0.0,0.176,0.1,14.3,0.5,0.5,0.223,90.73,0.047,2015-12-05T00:00:00,5,SAC,Sacramento,7-14,16,34,35,28,0,0,0,0,0,0,0,0,0,0,113,0.469,0.846,0.385,35,47,13,0021500293,1610612758,SAC,Sacramento,Marco Belinelli,,,15:37,0.0,0.0,0.0,0.0,10.0,5.0,3.0,14.0,0.0,0.0,2.0,1.0
0021500293,1610612758,SAC,Sacramento,201585,Kosta Koufos,,,30:44,121.9,119.8,2.2,0.04,0.0,9.2,0.143,0.25,0.2,0.0,0.556,0.557,0.138,95.02,0.122,2015-12-05T00:00:00,5,SAC,Sacramento,7-14,16,34,35,28,0,0,0,0,0,0,0,0,0,0,113,0.469,0.846,0.385,35,47,13,0021500293,1610612758,SAC,Sacramento,Kosta Koufos,,,30:44,0.0,2.0,0.0,8.0,11.0,7.0,2.0,16.0,2.0,0.0,3.0,3.0
0021500293,1610612758,SAC,Sacramento,201954,Darren Collison,,,21:41,110.1,116.8,-6.7,0.429,0.0,31.6,0.0,0.053,0.026,0.0,0.692,0.692,0.253,101.51,0.165,2015-12-05T00:00:00,5,SAC,Sacramento,7-14,16,34,35,28,0,0,0,0,0,0,0,0,0,0,113,0.469,0.846,0.385,35,47,13,0021500293,1610612758,SAC,Sacramento,Darren Collison,,,21:41,5.0,5.0,5.0,4.0,10.0,1.0,3.0,18.0,0.0,2.0,2.0,0.0
0021500293,1610612758,SAC,Sacramento,202341,James Anderson,,DNP - Coach's Decision                  ,,,,,,,0.0,,,,,,,0.0,,,2015-12-05T00:00:00,5,SAC,Sacramento,7-14,16,34,35,28,0,0,0,0,0,0,0,0,0,0,113,0.469,0.846,0.385,35,47,13,0021500293,1610612758,SAC,Sacramento,James Anderson,,DNP - Coach's Decision                  ,,,,,,,,,,,,,
0021500293,1610612758,SAC,Sacramento,2406,Caron Butler,,DNP - Coach's Decision                  ,,,,,,,0.0,,,,,,,0.0,,,2015-12-05T00:00:00,5,SAC,Sacramento,7-14,16,34,35,28,0,0,0,0,0,0,0,0,0,0,113,0.469,0.846,0.385,35,47,13,0021500293,1610612758,SAC,Sacramento,Caron Butler,,DNP - Coach's Decision                  ,,,,,,,,,,,,,
0021500293,1610612758,SAC,Sacramento,203552,Seth Curry,,DNP - Coach's Decision                  ,,,,,,,0.0,,,,,,,0.0,,,2015-12-05T00:00:00,5,SAC,Sacramento,7-14,16,34,35,28,0,0,0,0,0,0,0,0,0,0,113,0.469,0.846,0.385,35,47,13,0021500293,1610612758,SAC,Sacramento,Seth Curry,,DNP - Coach's Decision                  ,,,,,,,,,,,,,
0021500293,1610612758,SAC,Sacramento,203961,Eric Moreland,,DNP - Coach's Decision                  ,,,,,,,0.0,,,,,,,0.0,,,2015-12-05T00:00:00,5,SAC,Sacramento,7-14,16,34,35,28,0,0,0,0,0,0,0,0,0,0,113,0.469,0.846,0.385,35,47,13,0021500293,1610612758,SAC,Sacramento,Eric Moreland,,DNP - Coach's Decision                  ,,,,,,,,,,,,,
0021500293,1610612745,HOU,Houston,2772,Trevor Ariza,F,,36:54,116.8,110.1,6.8,0.115,0.0,16.8,0.059,0.118,0.088,0.0,0.393,0.403,0.168,108.44,0.061,2015-12-05T00:00:00,5,HOU,Houston,10-11,29,23,32,36,0,0,0,0,0,0,0,0,0,0,120,0.462,0.744,0.471,25,43,17,0021500293,1610612745,HOU,Houston,Trevor Ariza,F,,36:54,2.0,0.0,0.0,2.0,11.0,20.0,15.0,50.0,0.0,3.0,1.0,1.0
0021500293,1610612745,HOU,Houston,203991,Clint Capela,F,,20:44,94.6,114.7,-20.1,0.154,0.0,25.0,0.0,0.25,0.097,0.0,0.667,0.667,0.126,107.33,0.122,2015-12-05T00:00:00,5,HOU,Houston,10-11,29,23,32,36,0,0,0,0,0,0,0,0,0,0,120,0.462,0.744,0.471,25,43,17,0021500293,1610612745,HOU,Houston,Clint Capela,F,,20:44,2.0,0.0,0.0,8.0,5.0,9.0,9.0,26.0,0.0,2.0,2.0,1.0
0021500293,1610612745,HOU,Houston,2730,Dwight Howard,C,,36:26,127.0,105.4,21.6,0.0,0.0,0.0,0.135,0.394,0.257,16.5,0.778,0.726,0.208,103.34,0.171,2015-12-05T00:00:00,5,HOU,Houston,10-11,29,23,32,36,0,0,0,0,0,0,0,0,0,0,120,0.462,0.744,0.471,25,43,17,0021500293,1610612745,HOU,Houston,Dwight Howard,C,,36:26,3.0,5.0,3.0,14.0,6.0,15.0,10.0,42.0,2.0,0.0,1.0,10.0
0021500293,1610612745,HOU,Houston,201935,James Harden,G,,35:43,114.2,109.6,4.5,0.45,1.8,25.7,0.0,0.063,0.03,14.3,0.607,0.737,0.299,106.33,0.157,2015-12-05T00:00:00,5,HOU,Houston,10-11,29,23,32,36,0,0,0,0,0,0,0,0,0,0,120,0.462,0.744,0.471,25,43,17,0021500293,1610612745,HOU,Houston,James Harden,G,,35:43,5.0,2.0,0.0,0.0,11.0,17.0,13.0,48.0,1.0,0.0,4.0,8.0
0021500293,1610612745,HOU,Houston,201976,Patrick Beverley,G,,30:15,113.7,108.7,5.0,0.111,0.0,20.5,0.029,0.074,0.049,0.0,0.917,0.902,0.109,107.17,0.097,2015-12-05T00:00:00,5,HOU,Houston,10-11,29,23,32,36,0,0,0,0,0,0,0,0,0,0,120,0.462,0.744,0.471,25,43,17,0021500293,1610612745,HOU,Houston,Patrick Beverley,G,,30:15,2.0,1.0,0.0,2.0,2.0,14.0,8.0,38.0,0.0,0.0,3.0,2.0
0021500293,1610612745,HOU,Houston,203093,Terrence Jones,,,25:40,138.1,109.9,28.3,0.091,0.5,7.5,0.125,0.083,0.104,15.0,0.722,0.775,0.204,99.98,0.121,2015-12-05T00:00:00,5,HOU,Houston,10-11,29,23,32,36,0,0,0,0,0,0,0,0,0,0,120,0.462,0.744,0.471,25,43,17,0021500293,1610612745,HOU,Houston,Terrence Jones,,,25:40,4.0,2.0,2.0,8.0,7.0,11.0,7.0,24.0,1.0,1.0,2.0,2.0
0021500293,1610612745,HOU,Houston,201147,Corey Brewer,,,13:11,126.0,115.1,10.9,0.333,1.0,18.4,0.067,0.154,0.107,18.4,0.417,0.436,0.281,89.06,0.01,2015-12-05T00:00:00,5,HOU,Houston,10-11,29,23,32,36,0,0,0,0,0,0,0,0,0,0,120,0.462,0.744,0.471,25,43,17,0021500293,1610612745,HOU,Houston,Corey Brewer,,,13:11,1.0,0.0,1.0,2.0,6.0,6.0,4.0,12.0,0.0,0.0,3.0,1.0
0021500293,1610612745,HOU,Houston,202700,Donatas Motiejunas,,,6:07,79.3,66.7,12.6,0.0,0.0,0.0,0.167,0.0,0.077,33.3,0.0,0.0,0.355,101.55,-0.65,2015-12-05T00:00:00,5,HOU,Houston,10-11,29,23,32,36,0,0,0,0,0,0,0,0,0,0,120,0.462,0.744,0.471,25,43,17,0021500293,1610612745,HOU,Houston,Donatas Motiejunas,,,6:07,0.0,0.0,0.0,0.0,2.0,2.0,2.0,8.0,0.0,0.0,1.0,1.0
0021500293,1610612745,HOU,Houston,201951,Ty Lawson,,,12:24,126.0,87.5,38.5,0.364,4.0,58.1,0.0,0.0,0.0,14.5,0.0,0.532,0.095,97.23,0.059,2015-12-05T00:00:00,5,HOU,Houston,10-11,29,23,32,36,0,0,0,0,0,0,0,0,0,0,120,0.462,0.744,0.471,25,43,17,0021500293,1610612745,HOU,Houston,Ty Lawson,,,12:24,0.0,0.0,0.0,0.0,6.0,6.0,4.0,12.0,0.0,0.0,1.0,1.0
0021500293,1610612745,HOU,Houston,1891,Jason Terry,,,17:39,126.8,116.6,10.3,0.0,0.0,0.0,0.0,0.0,0.0,33.3,0.75,0.75,0.145,94.91,0.04,2015-12-05T00:00:00,5,HOU,Houston,10-11,29,23,32,36,0,0,0,0,0,0,0,0,0,0,120,0.462,0.744,0.471,25,43,17,0021500293,1610612745,HOU,Houston,Jason Terry,,,17:39,3.0,0.0,0.0,0.0,7.0,7.0,9.0,14.0,1.0,0.0,0.0,0.0
0021500293,1610612745,HOU,Houston,201977,Marcus Thornton,,,4:58,91.9,100.0,-8.1,0.667,0.0,28.6,0.0,0.333,0.167,0.0,0.3,0.3,0.388,105.73,0.111,2015-12-05T00:00:00,5,HOU,Houston,10-11,29,23,32,36,0,0,0,0,0,0,0,0,0,0,120,0.462,0.744,0.471,25,43,17,0021500293,1610612745,HOU,Houston,Marcus Thornton,,,4:58,0.0,0.0,0.0,0.0,2.0,3.0,4.0,6.0,0.0,1.0,0.0,0.0
0021500293,1610612745,HOU,Houston,1626149,Montrezl Harrell,,DNP - Coach's Decision                  ,,,,,,,0.0,,,,,,,0.0,,,2015-12-05T00:00:00,5,HOU,Houston,10-11,29,23,32,36,0,0,0,0,0,0,0,0,0,0,120,0.462,0.744,0.471,25,43,17,0021500293,1610612745,HOU,Houston,Montrezl Harrell,,DNP - Coach's Decision                  ,,,,,,,,,,,,,
