GAME_ID_x,TEAM_ID_x,TEAM_ABBREVIATION_x,TEAM_CITY_x,PLAYER_ID,PLAYER_NAME_x,START_POSITION_x,COMMENT_x,MIN_x,OFF_RATING,DEF_RATING,NET_RATING,AST_PCT,AST_TOV,AST_RATIO,OREB_PCT,DREB_PCT,REB_PCT,TM_TOV_PCT,EFG_PCT,TS_PCT,USG_PCT,PACE,PIE,GAME_DATE_EST,GAME_SEQUENCE,TEAM_ABBREVIATION_y,TEAM_CITY_NAME,TEAM_WINS_LOSSES,PTS_QTR1,PTS_QTR2,PTS_QTR3,PTS_QTR4,PTS_OT1,PTS_OT2,PTS_OT3,PTS_OT4,PTS_OT5,PTS_OT6,PTS_OT7,PTS_OT8,PTS_OT9,PTS_OT10,PTS,FG_PCT,FT_PCT,FG3_PCT,AST,REB,TOV,GAME_ID_y,TEAM_ID_y,TEAM_ABBREVIATION,TEAM_CITY_y,PLAYER_NAME_y,START_POSITION_y,COMMENT_y,MIN_y,PTS_OFF_TOV,PTS_2ND_CHANCE,PTS_FB,PTS_PAINT,OPP_PTS_OFF_TOV,OPP_PTS_2ND_CHANCE,OPP_PTS_FB,OPP_PTS_PAINT,BLK,BLKA,PF,PFD
0021500290,1610612744,GSW,Golden State,201575,Brandon Rush,F,,13:42,123.5,97.6,25.9,0.273,0.0,60.0,0.0,0.313,0.192,0.0,0.75,0.75,0.068,94.88,0.211,2015-12-05T00:00:00,2,GSW,Golden State,21-0,32,27,24,29,0,0,0,0,0,0,0,0,0,0,112,0.479,0.722,0.533,22,43,12,0021500290,1610612744,GSW,Golden State,Brandon Rush,F,,13:42,0.0,0.0,0.0,0.0,7.0,2.0,2.0,6.0,0.0,0.0,0.0,0.0
0021500290,1610612744,GSW,Golden State,203110,Draymond Green,F,,39:18,127.1,107.2,19.9,0.24,6.0,26.1,0.0,0.237,0.132,4.4,0.417,0.501,0.204,96.61,0.108,2015-12-05T00:00:00,2,GSW,Golden State,21-0,32,27,24,29,0,0,0,0,0,0,0,0,0,0,112,0.479,0.722,0.533,22,43,12,0021500290,1610612744,GSW,Golden State,Draymond Green,F,,39:18,2.0,2.0,4.0,10.0,13.0,14.0,9.0,50.0,1.0,0.0,4.0,8.0
0021500290,1610612744,GSW,Golden State,203105,Festus Ezeli,C,,27:06,133.6,98.0,35.5,0.0,0.0,0.0,0.211,0.222,0.217,0.0,0.4,0.469,0.157,91.39,0.061,2015-12-05T00:00:00,2,GSW,Golden State,21-0,32,27,24,29,0,0,0,0,0,0,0,0,0,0,112,0.479,0.722,0.533,22,43,12,0021500290,1610612744,GSW,Golden State,Festus Ezeli,C,,27:06,2.0,1.0,0.0,4.0,11.0,6.0,9.0,20.0,1.0,1.0,4.0,8.0
0021500290,1610612744,GSW,Golden State,202691,Klay Thompson,G,,35:26,132.3,107.3,25.0,0.053,0.5,4.8,0.0,0.105,0.066,9.7,0.667,0.737,0.267,97.59,0.123,2015-12-05T00:00:00,2,GSW,Golden State,21-0,32,27,24,29,0,0,0,0,0,0,0,0,0,0,112,0.479,0.722,0.533,22,43,12,0021500290,1610612744,GSW,Golden State,Klay Thompson,G,,35:26,0.0,3.0,8.0,0.0,13.0,15.0,9.0,42.0,0.0,1.0,4.0,4.0
0021500290,1610612744,GSW,Golden State,201939,Stephen Curry,G,,37:51,130.5,107.5,23.1,0.438,2.33,18.4,0.037,0.029,0.032,7.9,0.771,0.787,0.382,96.6,0.225,2015-12-05T00:00:00,2,GSW,Golden State,21-0,32,27,24,29,0,0,0,0,0,0,0,0,0,0,112,0.479,0.722,0.533,22,43,12,0021500290,1610612744,GSW,Golden State,Stephen Curry,G,,37:51,3.0,9.0,6.0,10.0,11.0,12.0,9.0,48.0,0.0,1.0,4.0,4.0
0021500290,1610612744,GSW,Golden State,2738,Andre Iguodala,,,28:47,117.6,120.6,-3.0,0.111,0.0,50.0,0.043,0.2,0.125,0.0,0.0,0.0,0.033,93.79,0.059,2015-12-05T00:00:00,2,GSW,Golden State,21-0,32,27,24,29,0,0,0,0,0,0,0,0,0,0,112,0.479,0.722,0.533,22,43,12,0021500290,1610612744,GSW,Golden State,Andre Iguodala,,,28:47,0.0,0.0,0.0,0.0,7.0,19.0,4.0,46.0,1.0,0.0,1.0,0.0
0021500290,1610612744,GSW,Golden State,2733,Shaun Livingston,,,26:25,110.2,122.5,-12.3,0.067,1.0,16.7,0.111,0.0,0.048,16.7,0.5,0.5,0.087,100.59,0.015,2015-12-05T00:00:00,2,GSW,Golden State,21-0,32,27,24,29,0,0,0,0,0,0,0,0,0,0,112,0.479,0.722,0.533,22,43,12,0021500290,1610612744,GSW,Golden State,Shaun Livingston,,,26:25,2.0,2.0,0.0,4.0,11.0,19.0,9.0,44.0,1.0,0.0,2.0,0.0
0021500290,1610612744,GSW,Golden State,2571,Leandro Barbosa,,,11:12,80.2,131.3,-51.1,0.0,0.0,0.0,0.0,0.1,0.053,25.0,0.667,0.667,0.172,91.11,0.03,2015-12-05T00:00:00,2,GSW,Golden State,21-0,32,27,24,29,0,0,0,0,0,0,0,0,0,0,112,0.479,0.722,0.533,22,43,12,0021500290,1610612744,GSW,Golden State,Leandro Barbosa,,,11:12,0.0,0.0,0.0,2.0,5.0,9.0,3.0,14.0,0.0,0.0,2.0,0.0
0021500290,1610612744,GSW,Golden State,203546,Ian Clark,,,4:59,133.3,131.6,1.8,0.0,0.0,0.0,0.0,0.0,0.0,0.0,1.0,1.0,0.091,90.81,0.083,2015-12-05T00:00:00,2,GSW,Golden State,21-0,32,27,24,29,0,0,0,0,0,0,0,0,0,0,112,0.479,0.722,0.533,22,43,12,0021500290,1610612744,GSW,Golden State,Ian Clark,,,4:59,0.0,0.0,0.0,2.0,5.0,6.0,2.0,2.0,0.0,0.0,0.0,0.0
0021500290,1610612744,GSW,Golden State,201578,Marreese Speights,,,11:55,86.7,134.4,-47.7,0.333,0.5,17.0,0.0,0.222,0.111,34.0,0.25,0.434,0.394,86.76,-0.014,2015-12-05T00:00:00,2,GSW,Golden State,21-0,32,27,24,29,0,0,0,0,0,0,0,0,0,0,112,0.479,0.722,0.533,22,43,12,0021500290,1610612744,GSW,Golden State,Marreese Speights,,,11:55,0.0,0.0,0.0,0.0,7.0,13.0,3.0,16.0,1.0,0.0,2.0,2.0
0021500290,1610612744,GSW,Golden State,203949,James Michael McAdoo,,,3:19,17.0,102.0,-85.0,0.0,0.0,0.0,0.0,1.0,0.5,0.0,0.0,0.0,0.17,85.1,0.0,2015-12-05T00:00:00,2,GSW,Golden State,21-0,32,27,24,29,0,0,0,0,0,0,0,0,0,0,112,0.479,0.722,0.533,22,43,12,0021500290,1610612744,GSW,Golden State,James Michael McAdoo,,,3:19,0.0,0.0,0.0,0.0,0.0,0.0,1.0,2.0,0.0,0.0,1.0,1.0
0021500290,1610612744,GSW,Golden State,101106,Andrew Bogut,,DND - Lower Back Spasms                 ,,,,,,,0.0,,,,,,,0.0,,,2015-12-05T00:00:00,2,GSW,Golden State,21-0,32,27,24,29,0,0,0,0,0,0,0,0,0,0,112,0.479,0.722,0.533,22,43,12,0021500290,1610612744,GSW,Golden State,Andrew Bogut,,DND - Lower Back Spasms                 ,,,,,,,,,,,,,
0021500290,1610612744,GSW,Golden State,201574,Jason Thompson,,DNP - Coach's Decision                  ,,,,,,,0.0,,,,,,,0.0,,,2015-12-05T00:00:00,2,GSW,Golden State,21-0,32,27,24,29,0,0,0,0,0,0,0,0,0,0,112,0.479,0.722,0.533,22,43,12,0021500290,1610612744,GSW,Golden State,Jason Thompson,,DNP - Coach's Decision                  ,,,,,,,,,,,,,
0021500290,1610612761,TOR,Toronto,201960,DeMarre Carroll,F,,26:00,101.8,129.6,-27.8,0.071,0.0,9.1,0.0,0.286,0.122,0.0,0.45,0.45,0.175,95.74,0.08,2015-12-05T00:00:00,2,TOR,Toronto,12-9,21,28,30,30,0,0,0,0,0,0,0,0,0,0,109,0.44,0.808,0.4,21,38,6,0021500290,1610612761,TOR,Toronto,DeMarre Carroll,F,,26:00,4.0,0.0,4.0,6.0,7.0,8.0,12.0,20.0,0.0,1.0,4.0,0.0
0021500290,1610612761,TOR,Toronto,2449,Luis Scola,F,,20:26,119.4,109.1,10.2,0.133,0.0,14.7,0.095,0.133,0.111,0.0,0.222,0.43,0.239,96.47,0.039,2015-12-05T00:00:00,2,TOR,Toronto,12-9,21,28,30,30,0,0,0,0,0,0,0,0,0,0,109,0.44,0.808,0.4,21,38,6,0021500290,1610612761,TOR,Toronto,Luis Scola,F,,20:26,0.0,2.0,0.0,2.0,5.0,2.0,11.0,10.0,0.0,1.0,5.0,5.0
0021500290,1610612761,TOR,Toronto,202687,Bismack Biyombo,C,,14:24,86.0,131.0,-45.1,0.0,0.0,0.0,0.056,0.364,0.172,100.0,0.0,0.0,0.031,98.08,-0.009,2015-12-05T00:00:00,2,TOR,Toronto,12-9,21,28,30,30,0,0,0,0,0,0,0,0,0,0,109,0.44,0.808,0.4,21,38,6,0021500290,1610612761,TOR,Toronto,Bismack Biyombo,C,,14:24,0.0,0.0,0.0,0.0,5.0,3.0,10.0,8.0,0.0,0.0,4.0,1.0
0021500290,1610612761,TOR,Toronto,201942,DeMar DeRozan,G,,36:47,110.5,129.0,-18.5,0.2,2.5,16.9,0.029,0.069,0.048,6.8,0.263,0.355,0.302,96.04,0.024,2015-12-05T00:00:00,2,TOR,Toronto,12-9,21,28,30,30,0,0,0,0,0,0,0,0,0,0,109,0.44,0.808,0.4,21,38,6,0021500290,1610612761,TOR,Toronto,DeMar DeRozan,G,,36:47,0.0,0.0,2.0,8.0,7.0,15.0,18.0,26.0,0.0,1.0,2.0,3.0
0021500290,1610612761,TOR,Toronto,200768,Kyle Lowry,G,,38:29,117.4,114.2,3.1,0.35,7.0,18.7,0.025,0.08,0.046,2.7,0.654,0.694,0.338,95.82,0.288,2015-12-05T00:00:00,2,TOR,Toronto,12-9,21,28,30,30,0,0,0,0,0,0,0,0,0,0,109,0.44,0.808,0.4,21,38,6,0021500290,1610612761,TOR,Toronto,Kyle Lowry,G,,38:29,7.0,13.0,2.0,14.0,9.0,9.0,15.0,20.0,1.0,1.0,2.0,9.0
0021500290,1610612761,TOR,Toronto,203512,Lucas Nogueira,,,24:50,115.7,120.4,-4.7,0.188,3.0,23.1,0.1,0.105,0.103,7.7,0.778,0.778,0.187,90.93,0.183,2015-12-05T00:00:00,2,TOR,Toronto,12-9,21,28,30,30,0,0,0,0,0,0,0,0,0,0,109,0.44,0.808,0.4,21,38,6,0021500290,1610612761,TOR,Toronto,Lucas Nogueira,,,24:50,0.0,4.0,0.0,14.0,4.0,12.0,4.0,22.0,0.0,1.0,2.0,0.0
0021500290,1610612761,TOR,Toronto,202709,Cory Joseph,,,29:44,117.9,121.5,-3.6,0.043,1.0,7.8,0.0,0.0,0.0,7.8,0.4,0.414,0.172,97.15,-0.013,2015-12-05T00:00:00,2,TOR,Toronto,12-9,21,28,30,30,0,0,0,0,0,0,0,0,0,0,109,0.44,0.808,0.4,21,38,6,0021500290,1610612761,TOR,Toronto,Cory Joseph,,,29:44,0.0,0.0,1.0,8.0,2.0,15.0,11.0,20.0,1.0,0.0,4.0,3.0
0021500290,1610612761,TOR,Toronto,203082,Terrence Ross,,,12:34,117.9,111.5,6.4,0.0,0.0,0.0,0.0,0.25,0.136,0.0,0.833,0.833,0.099,93.11,0.157,2015-12-05T00:00:00,2,TOR,Toronto,12-9,21,28,30,30,0,0,0,0,0,0,0,0,0,0,109,0.44,0.808,0.4,21,38,6,0021500290,1610612761,TOR,Toronto,Terrence Ross,,,12:34,5.0,0.0,2.0,2.0,0.0,7.0,0.0,14.0,0.0,0.0,0.0,0.0
0021500290,1610612761,TOR,Toronto,202335,Patrick Patterson,,,31:17,117.1,123.0,-5.9,0.04,0.0,16.7,0.148,0.316,0.217,0.0,0.4,0.4,0.072,92.76,0.073,2015-12-05T00:00:00,2,TOR,Toronto,12-9,21,28,30,30,0,0,0,0,0,0,0,0,0,0,109,0.44,0.808,0.4,21,38,6,0021500290,1610612761,TOR,Toronto,Patrick Patterson,,,31:17,2.0,4.0,0.0,4.0,4.0,14.0,9.0,18.0,1.0,0.0,3.0,0.0
0021500290,1610612761,TOR,Toronto,201949,James Johnson,,,5:29,73.5,82.7,-9.2,0.333,0.0,53.2,0.0,0.0,0.0,0.0,0.0,0.568,0.081,95.24,0.0,2015-12-05T00:00:00,2,TOR,Toronto,12-9,21,28,30,30,0,0,0,0,0,0,0,0,0,0,109,0.44,0.808,0.4,21,38,6,0021500290,1610612761,TOR,Toronto,James Johnson,,,5:29,0.0,0.0,1.0,0.0,2.0,0.0,0.0,2.0,0.0,0.0,1.0,3.0
0021500290,1610612761,TOR,Toronto,203461,Anthony Bennett,,DNP - Coach's Decision                  ,,,,,,,0.0,,,,,,,0.0,,,2015-12-05T00:00:00,2,TOR,Toronto,12-9,21,28,30,30,0,0,0,0,0,0,0,0,0,0,109,0.44,0.808,0.4,21,38,6,0021500290,1610612761,TOR,Toronto,Anthony Bennett,,DNP - Coach's Decision                  ,,,,,,,,,,,,,
0021500290,1610612761,TOR,Toronto,1626181,Norman Powell,,DNP - Coach's Decision                  ,,,,,,,0.0,,,,,,,0.0,,,2015-12-05T00:00:00,2,TOR,Toronto,12-9,21,28,30,30,0,0,0,0,0,0,0,0,0,0,109,0.44,0.808,0.4,21,38,6,0021500290,1610612761,TOR,Toronto,Norman Powell,,DNP - Coach's Decision                  ,,,,,,,,,,,,,
