GAME_ID_x,TEAM_ID_x,TEAM_ABBREVIATION_x,TEAM_CITY_x,PLAYER_ID,PLAYER_NAME_x,START_POSITION_x,COMMENT_x,MIN_x,OFF_RATING,DEF_RATING,NET_RATING,AST_PCT,AST_TOV,AST_RATIO,OREB_PCT,DREB_PCT,REB_PCT,TM_TOV_PCT,EFG_PCT,TS_PCT,USG_PCT,PACE,PIE,GAME_DATE_EST,GAME_SEQUENCE,TEAM_ABBREVIATION_y,TEAM_CITY_NAME,TEAM_WINS_LOSSES,PTS_QTR1,PTS_QTR2,PTS_QTR3,PTS_QTR4,PTS_OT1,PTS_OT2,PTS_OT3,PTS_OT4,PTS_OT5,PTS_OT6,PTS_OT7,PTS_OT8,PTS_OT9,PTS_OT10,PTS,FG_PCT,FT_PCT,FG3_PCT,AST,REB,TOV,GAME_ID_y,TEAM_ID_y,TEAM_ABBREVIATION,TEAM_CITY_y,PLAYER_NAME_y,START_POSITION_y,COMMENT_y,MIN_y,PTS_OFF_TOV,PTS_2ND_CHANCE,PTS_FB,PTS_PAINT,OPP_PTS_OFF_TOV,OPP_PTS_2ND_CHANCE,OPP_PTS_FB,OPP_PTS_PAINT,BLK,BLKA,PF,PFD
0021500301,1610612747,LAL,Los Angeles,977,Kobe Bryant,F,,25:35,79.5,111.6,-32.1,0.071,0.33,5.3,0.0,0.111,0.055,15.8,0.167,0.167,0.292,109.42,-0.101,2015-12-06T00:00:00,3,LAL,Los Angeles,3-17,19,23,23,26,0,0,0,0,0,0,0,0,0,0,91,0.4,0.759,0.278,12,39,15,0021500301,1610612747,LAL,Los Angeles,Kobe Bryant,F,,25:35,2,0,2,2,18,14,13,40,0,0,2,1
0021500301,1610612747,LAL,Los Angeles,203944,Julius Randle,F,,24:24,87.2,120.5,-33.3,0.0,0.0,0.0,0.083,0.375,0.229,0.0,0.556,0.621,0.217,105.44,0.202,2015-12-06T00:00:00,3,LAL,Los Angeles,3-17,19,23,23,26,0,0,0,0,0,0,0,0,0,0,91,0.4,0.759,0.278,12,39,15,0021500301,1610612747,LAL,Los Angeles,Julius Randle,F,,24:24,3,2,2,10,16,15,14,32,0,0,2,4
0021500301,1610612747,LAL,Los Angeles,201579,Roy Hibbert,C,,24:45,85.6,122.7,-37.2,0.154,1.0,20.2,0.08,0.125,0.102,20.2,0.6,0.68,0.137,103.95,0.102,2015-12-06T00:00:00,3,LAL,Los Angeles,3-17,19,23,23,26,0,0,0,0,0,0,0,0,0,0,91,0.4,0.759,0.278,12,39,15,0021500301,1610612747,LAL,Los Angeles,Roy Hibbert,C,,24:45,2,4,0,4,15,19,11,36,1,0,2,3
0021500301,1610612747,LAL,Los Angeles,203903,Jordan Clarkson,G,,30:02,83.3,106.6,-23.3,0.059,0.33,6.3,0.031,0.057,0.045,18.9,0.273,0.295,0.209,107.5,-0.027,2015-12-06T00:00:00,3,LAL,Los Angeles,3-17,19,23,23,26,0,0,0,0,0,0,0,0,0,0,91,0.4,0.759,0.278,12,39,15,0021500301,1610612747,LAL,Los Angeles,Jordan Clarkson,G,,30:02,0,0,2,2,15,19,14,40,0,0,2,2
0021500301,1610612747,LAL,Los Angeles,1626156,D'Angelo Russell,G,,22:07,84.0,109.8,-25.7,0.333,0.75,17.8,0.043,0.059,0.05,23.7,0.556,0.607,0.259,104.04,0.127,2015-12-06T00:00:00,3,LAL,Los Angeles,3-17,19,23,23,26,0,0,0,0,0,0,0,0,0,0,91,0.4,0.759,0.278,12,39,15,0021500301,1610612747,LAL,Los Angeles,D'Angelo Russell,G,,22:07,2,2,6,8,17,12,12,30,0,0,3,3
0021500301,1610612747,LAL,Los Angeles,101150,Lou Williams,,,31:51,96.9,109.3,-12.4,0.0,0.0,0.0,0.0,0.0,0.0,5.9,0.625,0.658,0.25,99.1,0.078,2015-12-06T00:00:00,3,LAL,Los Angeles,3-17,19,23,23,26,0,0,0,0,0,0,0,0,0,0,91,0.4,0.759,0.278,12,39,15,0021500301,1610612747,LAL,Los Angeles,Lou Williams,,,31:51,1,0,0,6,12,16,10,34,0,0,2,4
0021500301,1610612747,LAL,Los Angeles,101138,Brandon Bass,,,11:15,82.6,87.4,-4.7,0.0,0.0,0.0,0.071,0.308,0.185,0.0,0.75,0.75,0.147,107.78,0.266,2015-12-06T00:00:00,3,LAL,Los Angeles,3-17,19,23,23,26,0,0,0,0,0,0,0,0,0,0,91,0.4,0.759,0.278,12,39,15,0021500301,1610612747,LAL,Los Angeles,Brandon Bass,,,11:15,2,2,0,4,7,2,7,14,0,0,1,0
0021500301,1610612747,LAL,Los Angeles,1897,Metta World Peace,,,13:48,105.8,85.8,20.0,0.0,0.0,0.0,0.0,0.077,0.034,33.3,0.0,0.0,0.099,92.24,-0.104,2015-12-06T00:00:00,3,LAL,Los Angeles,3-17,19,23,23,26,0,0,0,0,0,0,0,0,0,0,91,0.4,0.759,0.278,12,39,15,0021500301,1610612747,LAL,Los Angeles,Metta World Peace,,,13:48,0,0,0,0,2,7,2,8,2,0,3,0
0021500301,1610612747,LAL,Los Angeles,1626204,Larry Nance Jr.,,,12:48,85.5,89.0,-3.6,0.0,0.0,0.0,0.063,0.0,0.033,53.2,0.0,1.136,0.059,107.4,0.041,2015-12-06T00:00:00,3,LAL,Los Angeles,3-17,19,23,23,26,0,0,0,0,0,0,0,0,0,0,91,0.4,0.759,0.278,12,39,15,0021500301,1610612747,LAL,Los Angeles,Larry Nance Jr.,,,12:48,1,0,2,0,6,6,4,20,0,0,0,0
0021500301,1610612747,LAL,Los Angeles,201156,Nick Young,,,7:25,100.9,127.7,-26.8,0.0,0.0,0.0,0.0,0.0,0.0,0.0,0.0,0.0,0.233,89.83,-0.167,2015-12-06T00:00:00,3,LAL,Los Angeles,3-17,19,23,23,26,0,0,0,0,0,0,0,0,0,0,91,0.4,0.759,0.278,12,39,15,0021500301,1610612747,LAL,Los Angeles,Nick Young,,,7:25,0,0,0,0,2,5,3,4,0,0,2,1
0021500301,1610612747,LAL,Los Angeles,203527,Ryan Kelly,,,12:00,113.2,89.3,24.0,0.0,0.0,0.0,0.0,0.364,0.167,0.0,0.5,0.665,0.164,92.96,0.205,2015-12-06T00:00:00,3,LAL,Los Angeles,3-17,19,23,23,26,0,0,0,0,0,0,0,0,0,0,91,0.4,0.759,0.278,12,39,15,0021500301,1610612747,LAL,Los Angeles,Ryan Kelly,,,12:00,0,0,2,2,0,5,0,4,0,0,0,2
0021500301,1610612747,LAL,Los Angeles,1626273,Marcelo Huertas,,,12:00,113.2,89.3,24.0,0.8,0.0,42.4,0.0,0.091,0.042,0.0,0.7,0.735,0.237,92.96,0.282,2015-12-06T00:00:00,3,LAL,Los Angeles,3-17,19,23,23,26,0,0,0,0,0,0,0,0,0,0,91,0.4,0.759,0.278,12,39,15,0021500301,1610612747,LAL,Los Angeles,Marcelo Huertas,,,12:00,3,0,0,4,0,5,0,4,0,1,0,1
0021500301,1610612747,LAL,Los Angeles,203135,Robert Sacre,,,12:00,113.2,89.3,24.0,0.143,0.0,25.0,0.0,0.273,0.125,0.0,0.333,0.333,0.131,92.96,0.09,2015-12-06T00:00:00,3,LAL,Los Angeles,3-17,19,23,23,26,0,0,0,0,0,0,0,0,0,0,91,0.4,0.759,0.278,12,39,15,0021500301,1610612747,LAL,Los Angeles,Robert Sacre,,,12:00,0,0,2,2,0,5,0,4,1,0,2,0
0021500301,1610612765,DET,Detroit,202694,Marcus Morris,F,,30:30,105.9,89.7,16.3,0.136,3.0,16.4,0.0,0.094,0.049,5.5,0.308,0.314,0.199,106.01,0.01,2015-12-06T00:00:00,3,DET,Detroit,12-9,32,33,25,21,0,0,0,0,0,0,0,0,0,0,111,0.441,0.769,0.375,20,61,16,0021500301,1610612765,DET,Detroit,Marcus Morris,F,,30:30,3,0,3,4,10,6,16,30,0,0,2,2
0021500301,1610612765,DET,Detroit,101141,Ersan Ilyasova,F,,12:36,96.3,86.0,10.3,0.0,0.0,0.0,0.091,0.0,0.043,37.5,0.7,0.7,0.235,110.78,-0.046,2015-12-06T00:00:00,3,DET,Detroit,12-9,32,33,25,21,0,0,0,0,0,0,0,0,0,0,111,0.441,0.769,0.375,20,61,16,0021500301,1610612765,DET,Detroit,Ersan Ilyasova,F,,12:36,0,2,0,2,9,4,8,16,0,0,4,0
0021500301,1610612765,DET,Detroit,203083,Andre Drummond,C,,24:11,111.7,81.2,30.5,0.0,0.0,0.0,0.208,0.385,0.3,0.0,0.667,0.634,0.223,105.51,0.289,2015-12-06T00:00:00,3,DET,Detroit,12-9,32,33,25,21,0,0,0,0,0,0,0,0,0,0,111,0.441,0.769,0.375,20,61,16,0021500301,1610612765,DET,Detroit,Andre Drummond,C,,24:11,0,8,0,16,9,6,10,22,0,1,3,3
0021500301,1610612765,DET,Detroit,203484,Kentavious Caldwell-Pope,G,,30:52,109.3,87.0,22.3,0.1,2.0,10.9,0.097,0.031,0.063,5.5,0.679,0.718,0.2,104.25,0.226,2015-12-06T00:00:00,3,DET,Detroit,12-9,32,33,25,21,0,0,0,0,0,0,0,0,0,0,111,0.441,0.769,0.375,20,61,16,0021500301,1610612765,DET,Detroit,Kentavious Caldwell-Pope,G,,30:52,6,6,9,16,12,10,12,30,0,0,3,4
0021500301,1610612765,DET,Detroit,202704,Reggie Jackson,G,,24:52,112.8,84.1,28.8,0.333,3.0,25.4,0.0,0.125,0.058,8.5,0.538,0.639,0.26,107.56,0.288,2015-12-06T00:00:00,3,DET,Detroit,12-9,32,33,25,21,0,0,0,0,0,0,0,0,0,0,111,0.441,0.769,0.375,20,61,16,0021500301,1610612765,DET,Detroit,Reggie Jackson,G,,24:52,6,3,4,6,9,6,12,24,0,0,0,3
0021500301,1610612765,DET,Detroit,201229,Anthony Tolliver,,,33:39,110.4,95.9,14.5,0.0,0.0,0.0,0.054,0.297,0.176,16.8,0.444,0.455,0.139,100.68,0.075,2015-12-06T00:00:00,3,DET,Detroit,12-9,32,33,25,21,0,0,0,0,0,0,0,0,0,0,111,0.441,0.769,0.375,20,61,16,0021500301,1610612765,DET,Detroit,Anthony Tolliver,,,33:39,5,2,0,2,7,6,10,28,0,1,4,2
0021500301,1610612765,DET,Detroit,203382,Aron Baynes,,,21:21,95.5,108.7,-13.2,0.125,1.0,20.0,0.167,0.182,0.174,20.0,0.167,0.167,0.148,101.44,0.013,2015-12-06T00:00:00,3,DET,Detroit,12-9,32,33,25,21,0,0,0,0,0,0,0,0,0,0,111,0.441,0.769,0.375,20,61,16,0021500301,1610612765,DET,Detroit,Aron Baynes,,,21:21,0,0,0,2,7,4,8,22,0,2,2,3
0021500301,1610612765,DET,Detroit,1626169,Stanley Johnson,,,27:13,102.0,92.7,9.3,0.091,2.0,14.4,0.0,0.188,0.098,7.2,0.2,0.276,0.175,99.54,0.055,2015-12-06T00:00:00,3,DET,Detroit,12-9,32,33,25,21,0,0,0,0,0,0,0,0,0,0,111,0.441,0.769,0.375,20,61,16,0021500301,1610612765,DET,Detroit,Stanley Johnson,,,27:13,2,0,2,4,7,4,6,22,0,0,1,1
0021500301,1610612765,DET,Detroit,2581,Steve Blake,,,18:25,95.1,96.9,-1.8,0.417,1.25,34.6,0.067,0.136,0.108,27.7,0.8,0.827,0.215,100.5,0.219,2015-12-06T00:00:00,3,DET,Detroit,12-9,32,33,25,21,0,0,0,0,0,0,0,0,0,0,111,0.441,0.769,0.375,20,61,16,0021500301,1610612765,DET,Detroit,Steve Blake,,,18:25,0,2,0,2,7,4,6,18,0,0,0,1
0021500301,1610612765,DET,Detroit,1626199,Darrun Hilliard,,,6:42,93.5,123.0,-29.4,0.0,0.0,0.0,0.143,0.0,0.071,0.0,0.3,0.425,0.398,85.83,-0.023,2015-12-06T00:00:00,3,DET,Detroit,12-9,32,33,25,21,0,0,0,0,0,0,0,0,0,0,111,0.441,0.769,0.375,20,61,16,0021500301,1610612765,DET,Detroit,Darrun Hilliard,,,6:42,0,3,0,0,3,0,2,6,0,0,2,1
0021500301,1610612765,DET,Detroit,203915,Spencer Dinwiddie,,,4:43,116.0,114.2,1.8,0.0,0.0,0.0,0.0,0.167,0.091,0.0,1.0,1.0,0.102,79.58,0.176,2015-12-06T00:00:00,3,DET,Detroit,12-9,32,33,25,21,0,0,0,0,0,0,0,0,0,0,111,0.441,0.769,0.375,20,61,16,0021500301,1610612765,DET,Detroit,Spencer Dinwiddie,,,4:43,0,0,0,0,0,0,0,2,0,0,0,0
0021500301,1610612765,DET,Detroit,203493,Reggie Bullock,,,2:28,159.6,25.8,133.8,0.0,0.0,0.0,0.0,0.25,0.25,0.0,0.0,1.136,0.234,74.34,0.857,2015-12-06T00:00:00,3,DET,Detroit,12-9,32,33,25,21,0,0,0,0,0,0,0,0,0,0,111,0.441,0.769,0.375,20,61,16,0021500301,1610612765,DET,Detroit,Reggie Bullock,,,2:28,0,0,0,0,0,0,0,0,0,0,0,1
0021500301,1610612765,DET,Detroit,201202,Joel Anthony,,,2:28,159.6,25.8,133.8,0.0,0.0,0.0,0.0,0.25,0.25,0.0,0.0,0.0,0.0,74.34,0.429,2015-12-06T00:00:00,3,DET,Detroit,12-9,32,33,25,21,0,0,0,0,0,0,0,0,0,0,111,0.441,0.769,0.375,20,61,16,0021500301,1610612765,DET,Detroit,Joel Anthony,,,2:28,0,0,0,0,0,0,0,0,1,0,0,0
