GAME_ID_x,TEAM_ID_x,TEAM_ABBREVIATION_x,TEAM_CITY_x,PLAYER_ID,PLAYER_NAME_x,START_POSITION_x,COMMENT_x,MIN_x,OFF_RATING,DEF_RATING,NET_RATING,AST_PCT,AST_TOV,AST_RATIO,OREB_PCT,DREB_PCT,REB_PCT,TM_TOV_PCT,EFG_PCT,TS_PCT,USG_PCT,PACE,PIE,GAME_DATE_EST,GAME_SEQUENCE,TEAM_ABBREVIATION_y,TEAM_CITY_NAME,TEAM_WINS_LOSSES,PTS_QTR1,PTS_QTR2,PTS_QTR3,PTS_QTR4,PTS_OT1,PTS_OT2,PTS_OT3,PTS_OT4,PTS_OT5,PTS_OT6,PTS_OT7,PTS_OT8,PTS_OT9,PTS_OT10,PTS,FG_PCT,FT_PCT,FG3_PCT,AST,REB,TOV,GAME_ID_y,TEAM_ID_y,TEAM_ABBREVIATION,TEAM_CITY_y,PLAYER_NAME_y,START_POSITION_y,COMMENT_y,MIN_y,PTS_OFF_TOV,PTS_2ND_CHANCE,PTS_FB,PTS_PAINT,OPP_PTS_OFF_TOV,OPP_PTS_2ND_CHANCE,OPP_PTS_FB,OPP_PTS_PAINT,BLK,BLKA,PF,PFD
0021500329,1610612755,PHI,Philadelphia,203496,Robert Covington,F,,26:49,87.1,92.4,-5.3,0.0,0.0,0.0,0.0,0.111,0.043,0.0,0.3,0.3,0.151,100.72,-0.032,2015-12-10T00:00:00,1,PHI,Philadelphia,1-22,13,31,30,17,0,0,0,0,0,0,0,0,0,0,91,0.391,0.864,0.129,17,38,10,0021500329,1610612755,PHI,Philadelphia,Robert Covington,F,,26:49,2.0,2.0,0.0,2.0,7.0,11.0,5.0,20.0,1.0,0.0,6.0,2.0
0021500329,1610612755,PHI,Philadelphia,203457,Nerlens Noel,F,,20:57,82.5,93.8,-11.3,0.091,1.0,9.1,0.08,0.2,0.125,9.1,0.333,0.333,0.195,101.12,0.093,2015-12-10T00:00:00,1,PHI,Philadelphia,1-22,13,31,30,17,0,0,0,0,0,0,0,0,0,0,91,0.391,0.864,0.129,17,38,10,0021500329,1610612755,PHI,Philadelphia,Nerlens Noel,F,,20:57,0.0,0.0,2.0,6.0,5.0,9.0,7.0,16.0,0.0,1.0,3.0,0.0
0021500329,1610612755,PHI,Philadelphia,1626143,Jahlil Okafor,C,,31:16,94.4,99.0,-4.6,0.143,0.67,8.5,0.138,0.222,0.179,12.8,0.467,0.594,0.335,90.46,0.207,2015-12-10T00:00:00,1,PHI,Philadelphia,1-22,13,31,30,17,0,0,0,0,0,0,0,0,0,0,91,0.391,0.864,0.129,17,38,10,0021500329,1610612755,PHI,Philadelphia,Jahlil Okafor,C,,31:16,0.0,8.0,2.0,14.0,7.0,12.0,2.0,16.0,2.0,0.0,2.0,5.0
0021500329,1610612755,PHI,Philadelphia,203477,Isaiah Canaan,G,,25:17,84.7,94.6,-9.9,0.2,3.0,21.4,0.033,0.095,0.059,7.1,0.2,0.2,0.192,96.1,0.0,2015-12-10T00:00:00,1,PHI,Philadelphia,1-22,13,31,30,17,0,0,0,0,0,0,0,0,0,0,91,0.391,0.864,0.129,17,38,10,0021500329,1610612755,PHI,Philadelphia,Isaiah Canaan,G,,25:17,0.0,2.0,0.0,4.0,5.0,13.0,7.0,16.0,1.0,0.0,2.0,1.0
0021500329,1610612755,PHI,Philadelphia,203100,Tony Wroten,G,,16:54,101.7,97.2,4.5,0.182,1.0,17.2,0.056,0.214,0.125,17.2,0.6,0.589,0.239,104.35,0.139,2015-12-10T00:00:00,1,PHI,Philadelphia,1-22,13,31,30,17,0,0,0,0,0,0,0,0,0,0,91,0.391,0.864,0.129,17,38,10,0021500329,1610612755,PHI,Philadelphia,Tony Wroten,G,,16:54,4.0,0.0,3.0,6.0,3.0,9.0,7.0,16.0,0.0,0.0,0.0,3.0
0021500329,1610612755,PHI,Philadelphia,204456,T.J. McConnell,,,24:10,103.6,106.4,-2.9,0.091,0.5,7.8,0.0,0.067,0.028,15.5,0.833,0.86,0.219,91.8,0.213,2015-12-10T00:00:00,1,PHI,Philadelphia,1-22,13,31,30,17,0,0,0,0,0,0,0,0,0,0,91,0.391,0.864,0.129,17,38,10,0021500329,1610612755,PHI,Philadelphia,T.J. McConnell,,,24:10,5.0,0.0,0.0,2.0,8.0,5.0,1.0,22.0,0.0,0.0,1.0,2.0
0021500329,1610612755,PHI,Philadelphia,203924,Jerami Grant,,,24:19,88.6,107.0,-18.4,0.0,0.0,0.0,0.154,0.286,0.2,0.0,0.45,0.45,0.18,92.13,0.12,2015-12-10T00:00:00,1,PHI,Philadelphia,1-22,13,31,30,17,0,0,0,0,0,0,0,0,0,0,91,0.391,0.864,0.129,17,38,10,0021500329,1610612755,PHI,Philadelphia,Jerami Grant,,,24:19,2.0,2.0,4.0,6.0,6.0,6.0,3.0,18.0,2.0,0.0,2.0,1.0
0021500329,1610612755,PHI,Philadelphia,1626158,Richaun Holmes,,,16:59,119.6,129.2,-9.6,0.111,1.0,10.2,0.083,0.0,0.045,10.2,0.833,0.902,0.235,98.75,0.173,2015-12-10T00:00:00,1,PHI,Philadelphia,1-22,13,31,30,17,0,0,0,0,0,0,0,0,0,0,91,0.391,0.864,0.129,17,38,10,0021500329,1610612755,PHI,Philadelphia,Richaun Holmes,,,16:59,4.0,4.0,2.0,10.0,6.0,9.0,4.0,24.0,0.0,0.0,3.0,3.0
0021500329,1610612755,PHI,Philadelphia,203917,Nik Stauskas,,,28:10,101.3,113.6,-12.3,0.263,0.0,38.5,0.0,0.111,0.049,0.0,0.125,0.125,0.135,92.07,0.0,2015-12-10T00:00:00,1,PHI,Philadelphia,1-22,13,31,30,17,0,0,0,0,0,0,0,0,0,0,91,0.391,0.864,0.129,17,38,10,0021500329,1610612755,PHI,Philadelphia,Nik Stauskas,,,28:10,0.0,0.0,0.0,2.0,8.0,9.0,1.0,22.0,0.0,0.0,2.0,2.0
0021500329,1610612755,PHI,Philadelphia,203138,Hollis Thompson,,,25:08,105.8,117.9,-12.1,0.118,0.0,25.4,0.0,0.111,0.05,0.0,0.0,0.17,0.112,91.33,0.012,2015-12-10T00:00:00,1,PHI,Philadelphia,1-22,13,31,30,17,0,0,0,0,0,0,0,0,0,0,91,0.391,0.864,0.129,17,38,10,0021500329,1610612755,PHI,Philadelphia,Hollis Thompson,,,25:08,0.0,0.0,0.0,0.0,10.0,7.0,3.0,20.0,0.0,0.0,1.0,1.0
0021500329,1610612755,PHI,Philadelphia,203088,Kendall Marshall,,DND - Right Knee Injury                 ,,,,,,,0.0,,,,,,,0.0,,,2015-12-10T00:00:00,1,PHI,Philadelphia,1-22,13,31,30,17,0,0,0,0,0,0,0,0,0,0,91,0.391,0.864,0.129,17,38,10,0021500329,1610612755,PHI,Philadelphia,Kendall Marshall,,DND - Right Knee Injury                 ,,,,,,,,,,,,,
0021500329,1610612755,PHI,Philadelphia,203960,JaKarr Sampson,,DNP - Coach's Decision                  ,,,,,,,0.0,,,,,,,0.0,,,2015-12-10T00:00:00,1,PHI,Philadelphia,1-22,13,31,30,17,0,0,0,0,0,0,0,0,0,0,91,0.391,0.864,0.129,17,38,10,0021500329,1610612755,PHI,Philadelphia,JaKarr Sampson,,DNP - Coach's Decision                  ,,,,,,,,,,,,,
0021500329,1610612751,BKN,Brooklyn,2207,Joe Johnson,F,,33:13,97.6,101.6,-4.1,0.095,2.0,16.7,0.0,0.0,0.0,8.3,0.389,0.389,0.146,95.75,0.009,2015-12-10T00:00:00,1,BKN,Brooklyn,7-15,24,28,18,30,0,0,0,0,0,0,0,0,0,0,100,0.5,0.741,0.429,22,43,19,0021500329,1610612751,BKN,Brooklyn,Joe Johnson,F,,33:13,0.0,0.0,0.0,2.0,10.0,14.0,9.0,36.0,0.0,0.0,1.0,1.0
0021500329,1610612751,BKN,Brooklyn,201152,Thaddeus Young,F,,32:54,100.5,98.2,2.3,0.0,0.0,0.0,0.091,0.273,0.2,19.1,0.462,0.531,0.305,92.55,0.144,2015-12-10T00:00:00,1,BKN,Brooklyn,7-15,24,28,18,30,0,0,0,0,0,0,0,0,0,0,100,0.5,0.741,0.429,22,43,19,0021500329,1610612751,BKN,Brooklyn,Thaddeus Young,F,,32:54,5.0,2.0,1.0,12.0,11.0,14.0,9.0,34.0,0.0,1.0,2.0,6.0
0021500329,1610612751,BKN,Brooklyn,201572,Brook Lopez,C,,19:03,101.5,69.5,32.0,0.071,0.2,8.9,0.111,0.208,0.167,44.6,0.667,0.673,0.211,98.04,0.035,2015-12-10T00:00:00,1,BKN,Brooklyn,7-15,24,28,18,30,0,0,0,0,0,0,0,0,0,0,100,0.5,0.741,0.429,22,43,19,0021500329,1610612751,BKN,Brooklyn,Brook Lopez,C,,19:03,0.0,3.0,2.0,2.0,5.0,4.0,1.0,16.0,1.0,0.0,5.0,4.0
0021500329,1610612751,BKN,Brooklyn,202711,Bojan Bogdanovic,G,,32:40,100.8,95.4,5.4,0.13,3.0,27.3,0.038,0.061,0.051,9.1,0.714,0.714,0.105,98.83,0.104,2015-12-10T00:00:00,1,BKN,Brooklyn,7-15,24,28,18,30,0,0,0,0,0,0,0,0,0,0,100,0.5,0.741,0.429,22,43,19,0021500329,1610612751,BKN,Brooklyn,Bojan Bogdanovic,G,,32:40,3.0,3.0,0.0,0.0,13.0,12.0,11.0,36.0,0.0,0.0,1.0,0.0
0021500329,1610612751,BKN,Brooklyn,101127,Jarrett Jack,G,,27:05,100.5,103.3,-2.8,0.444,2.67,44.4,0.05,0.208,0.136,16.7,0.357,0.357,0.176,97.37,0.087,2015-12-10T00:00:00,1,BKN,Brooklyn,7-15,24,28,18,30,0,0,0,0,0,0,0,0,0,0,100,0.5,0.741,0.429,22,43,19,0021500329,1610612751,BKN,Brooklyn,Jarrett Jack,G,,27:05,0.0,0.0,0.0,2.0,8.0,12.0,9.0,32.0,0.0,0.0,2.0,0.0
0021500329,1610612751,BKN,Brooklyn,203080,Thomas Robinson,,,6:43,73.9,86.5,-12.5,0.0,0.0,0.0,0.0,0.125,0.071,33.3,0.5,0.5,0.202,102.77,-0.054,2015-12-10T00:00:00,1,BKN,Brooklyn,7-15,24,28,18,30,0,0,0,0,0,0,0,0,0,0,100,0.5,0.741,0.429,22,43,19,0021500329,1610612751,BKN,Brooklyn,Thomas Robinson,,,6:43,0.0,0.0,0.0,0.0,4.0,4.0,6.0,10.0,0.0,0.0,2.0,0.0
0021500329,1610612751,BKN,Brooklyn,203499,Shane Larkin,,,26:43,113.6,88.8,24.8,0.375,3.0,30.4,0.0,0.154,0.089,10.1,0.5,0.595,0.23,90.91,0.231,2015-12-10T00:00:00,1,BKN,Brooklyn,7-15,24,28,18,30,0,0,0,0,0,0,0,0,0,0,100,0.5,0.741,0.429,22,43,19,0021500329,1610612751,BKN,Brooklyn,Shane Larkin,,,26:43,3.0,3.0,5.0,6.0,9.0,6.0,6.0,28.0,0.0,1.0,1.0,4.0
0021500329,1610612751,BKN,Brooklyn,200745,Andrea Bargnani,,,23:15,124.9,103.3,21.6,0.071,0.0,5.0,0.188,0.176,0.182,0.0,0.533,0.607,0.364,96.56,0.21,2015-12-10T00:00:00,1,BKN,Brooklyn,7-15,24,28,18,30,0,0,0,0,0,0,0,0,0,0,100,0.5,0.741,0.429,22,43,19,0021500329,1610612751,BKN,Brooklyn,Andrea Bargnani,,,23:15,0.0,7.0,0.0,8.0,8.0,6.0,6.0,26.0,0.0,4.0,0.0,6.0
0021500329,1610612751,BKN,Brooklyn,201961,Wayne Ellington,,,9:27,106.6,89.5,17.1,0.0,0.0,0.0,0.0,0.2,0.111,0.0,1.5,1.5,0.053,88.28,0.156,2015-12-10T00:00:00,1,BKN,Brooklyn,7-15,24,28,18,30,0,0,0,0,0,0,0,0,0,0,100,0.5,0.741,0.429,22,43,19,0021500329,1610612751,BKN,Brooklyn,Wayne Ellington,,,9:27,0.0,0.0,0.0,0.0,2.0,4.0,4.0,10.0,0.0,0.0,1.0,1.0
0021500329,1610612751,BKN,Brooklyn,203186,Willie Reed,,,12:39,101.1,122.3,-21.3,0.0,0.0,0.0,0.0,0.3,0.188,20.0,0.75,0.75,0.22,89.74,0.13,2015-12-10T00:00:00,1,BKN,Brooklyn,7-15,24,28,18,30,0,0,0,0,0,0,0,0,0,0,100,0.5,0.741,0.429,22,43,19,0021500329,1610612751,BKN,Brooklyn,Willie Reed,,,12:39,2.0,0.0,0.0,6.0,6.0,6.0,4.0,16.0,0.0,0.0,1.0,0.0
0021500329,1610612751,BKN,Brooklyn,203900,Markel Brown,,,16:19,111.6,89.2,22.4,0.091,1.0,20.0,0.0,0.0,0.0,20.0,0.833,0.833,0.108,96.64,0.026,2015-12-10T00:00:00,1,BKN,Brooklyn,7-15,24,28,18,30,0,0,0,0,0,0,0,0,0,0,100,0.5,0.741,0.429,22,43,19,0021500329,1610612751,BKN,Brooklyn,Markel Brown,,,16:19,0.0,0.0,0.0,0.0,9.0,8.0,0.0,16.0,0.0,0.0,4.0,0.0
0021500329,1610612751,BKN,Brooklyn,203508,Sergey Karasev,,DNP - Coach's Decision                  ,,,,,,,0.0,,,,,,,0.0,,,2015-12-10T00:00:00,1,BKN,Brooklyn,7-15,24,28,18,30,0,0,0,0,0,0,0,0,0,0,100,0.5,0.741,0.429,22,43,19,0021500329,1610612751,BKN,Brooklyn,Sergey Karasev,,DNP - Coach's Decision                  ,,,,,,,,,,,,,
0021500329,1610612751,BKN,Brooklyn,202388,Donald Sloan,,DNP - Coach's Decision                  ,,,,,,,0.0,,,,,,,0.0,,,2015-12-10T00:00:00,1,BKN,Brooklyn,7-15,24,28,18,30,0,0,0,0,0,0,0,0,0,0,100,0.5,0.741,0.429,22,43,19,0021500329,1610612751,BKN,Brooklyn,Donald Sloan,,DNP - Coach's Decision                  ,,,,,,,,,,,,,
