GAME_ID_x,TEAM_ID_x,TEAM_ABBREVIATION_x,TEAM_CITY_x,PLAYER_ID,PLAYER_NAME_x,START_POSITION_x,COMMENT_x,MIN_x,OFF_RATING,DEF_RATING,NET_RATING,AST_PCT,AST_TOV,AST_RATIO,OREB_PCT,DREB_PCT,REB_PCT,TM_TOV_PCT,EFG_PCT,TS_PCT,USG_PCT,PACE,PIE,GAME_DATE_EST,GAME_SEQUENCE,TEAM_ABBREVIATION_y,TEAM_CITY_NAME,TEAM_WINS_LOSSES,PTS_QTR1,PTS_QTR2,PTS_QTR3,PTS_QTR4,PTS_OT1,PTS_OT2,PTS_OT3,PTS_OT4,PTS_OT5,PTS_OT6,PTS_OT7,PTS_OT8,PTS_OT9,PTS_OT10,PTS,FG_PCT,FT_PCT,FG3_PCT,AST,REB,TOV,GAME_ID_y,TEAM_ID_y,TEAM_ABBREVIATION,TEAM_CITY_y,PLAYER_NAME_y,START_POSITION_y,COMMENT_y,MIN_y,PTS_OFF_TOV,PTS_2ND_CHANCE,PTS_FB,PTS_PAINT,OPP_PTS_OFF_TOV,OPP_PTS_2ND_CHANCE,OPP_PTS_FB,OPP_PTS_PAINT,BLK,BLKA,PF,PFD
0021500338,1610612766,CHA,Charlotte,203798,PJ Hairston,F,,17:36,111.4,112.7,-1.3,0.2,3.0,37.5,0.071,0.4,0.208,12.5,0.25,0.25,0.139,94.91,0.021,2015-12-11T00:00:00,6,CHA,Charlotte,14-8,29,30,34,30,0,0,0,0,0,0,0,0,0,0,123,0.5,0.9,0.486,23,41,13,0021500338,1610612766,CHA,Charlotte,PJ Hairston,F,,17:36,2.0,0.0,2.0,2.0,6.0,0.0,3.0,22.0,0.0,0.0,4.0,1.0
0021500338,1610612766,CHA,Charlotte,101107,Marvin Williams,F,,30:41,119.0,93.9,25.1,0.0,0.0,0.0,0.0,0.231,0.122,22.2,0.5,0.5,0.134,93.83,0.077,2015-12-11T00:00:00,6,CHA,Charlotte,14-8,29,30,34,30,0,0,0,0,0,0,0,0,0,0,123,0.5,0.9,0.486,23,41,13,0021500338,1610612766,CHA,Charlotte,Marvin Williams,F,,30:41,0.0,5.0,0.0,0.0,13.0,4.0,4.0,28.0,1.0,0.0,1.0,0.0
0021500338,1610612766,CHA,Charlotte,203469,Cody Zeller,C,,21:47,128.6,108.3,20.3,0.158,3.0,33.3,0.0,0.125,0.063,11.1,0.2,0.2,0.134,93.91,0.0,2015-12-11T00:00:00,6,CHA,Charlotte,14-8,29,30,34,30,0,0,0,0,0,0,0,0,0,0,123,0.5,0.9,0.486,23,41,13,0021500338,1610612766,CHA,Charlotte,Cody Zeller,C,,21:47,2.0,0.0,2.0,2.0,9.0,2.0,5.0,24.0,0.0,2.0,5.0,0.0
0021500338,1610612766,CHA,Charlotte,201587,Nicolas Batum,G,,30:16,126.6,101.8,24.7,0.1,0.0,14.9,0.043,0.125,0.085,0.0,0.864,0.874,0.179,96.52,0.167,2015-12-11T00:00:00,6,CHA,Charlotte,14-8,29,30,34,30,0,0,0,0,0,0,0,0,0,0,123,0.5,0.9,0.486,23,41,13,0021500338,1610612766,CHA,Charlotte,Nicolas Batum,G,,30:16,0.0,0.0,0.0,2.0,12.0,2.0,9.0,30.0,0.0,0.0,1.0,0.0
0021500338,1610612766,CHA,Charlotte,202689,Kemba Walker,G,,35:15,127.9,100.7,27.2,0.333,2.0,19.9,0.042,0.121,0.088,9.9,0.763,0.778,0.323,96.98,0.23,2015-12-11T00:00:00,6,CHA,Charlotte,14-8,29,30,34,30,0,0,0,0,0,0,0,0,0,0,123,0.5,0.9,0.486,23,41,13,0021500338,1610612766,CHA,Charlotte,Kemba Walker,G,,35:15,6.0,3.0,3.0,10.0,15.0,5.0,7.0,30.0,0.0,2.0,2.0,5.0
0021500338,1610612766,CHA,Charlotte,1626163,Frank Kaminsky,,,27:09,120.1,100.8,19.3,0.176,0.0,25.8,0.048,0.167,0.118,0.0,0.75,0.868,0.135,101.37,0.199,2015-12-11T00:00:00,6,CHA,Charlotte,14-8,29,30,34,30,0,0,0,0,0,0,0,0,0,0,123,0.5,0.9,0.486,23,41,13,0021500338,1610612766,CHA,Charlotte,Frank Kaminsky,,,27:09,0.0,2.0,2.0,6.0,9.0,7.0,11.0,16.0,0.0,0.0,3.0,3.0
0021500338,1610612766,CHA,Charlotte,201150,Spencer Hawes,,,16:40,117.4,79.9,37.5,0.077,0.33,10.5,0.0,0.111,0.063,31.5,0.0,0.725,0.205,104.43,0.093,2015-12-11T00:00:00,6,CHA,Charlotte,14-8,29,30,34,30,0,0,0,0,0,0,0,0,0,0,123,0.5,0.9,0.486,23,41,13,0021500338,1610612766,CHA,Charlotte,Spencer Hawes,,,16:40,0.0,2.0,0.0,0.0,4.0,3.0,4.0,8.0,0.0,0.0,2.0,5.0
0021500338,1610612766,CHA,Charlotte,202391,Jeremy Lin,,,26:53,125.6,86.0,39.7,0.133,1.0,11.7,0.1,0.065,0.078,11.7,0.5,0.612,0.238,99.99,0.159,2015-12-11T00:00:00,6,CHA,Charlotte,14-8,29,30,34,30,0,0,0,0,0,0,0,0,0,0,123,0.5,0.9,0.486,23,41,13,0021500338,1610612766,CHA,Charlotte,Jeremy Lin,,,26:53,4.0,0.0,0.0,4.0,11.0,7.0,6.0,14.0,3.0,1.0,2.0,6.0
0021500338,1610612766,CHA,Charlotte,203087,Jeremy Lamb,,,16:55,101.7,93.9,7.8,0.0,0.0,0.0,0.071,0.176,0.129,0.0,0.563,0.592,0.195,104.3,0.183,2015-12-11T00:00:00,6,CHA,Charlotte,14-8,29,30,34,30,0,0,0,0,0,0,0,0,0,0,123,0.5,0.9,0.486,23,41,13,0021500338,1610612766,CHA,Charlotte,Jeremy Lamb,,,16:55,3.0,3.0,0.0,4.0,7.0,5.0,2.0,10.0,0.0,0.0,3.0,3.0
0021500338,1610612766,CHA,Charlotte,201946,Tyler Hansbrough,,,6:15,128.8,127.7,1.1,0.25,0.0,25.8,0.0,0.25,0.154,0.0,0.75,0.694,0.218,107.83,0.114,2015-12-11T00:00:00,6,CHA,Charlotte,14-8,29,30,34,30,0,0,0,0,0,0,0,0,0,0,123,0.5,0.9,0.486,23,41,13,0021500338,1610612766,CHA,Charlotte,Tyler Hansbrough,,,6:15,0.0,0.0,0.0,0.0,5.0,0.0,6.0,2.0,1.0,0.0,1.0,1.0
0021500338,1610612766,CHA,Charlotte,203584,Troy Daniels,,,3:31,152.3,162.5,-10.2,0.0,0.0,0.0,0.0,0.0,0.0,33.3,0.75,0.75,0.381,108.38,0.033,2015-12-11T00:00:00,6,CHA,Charlotte,14-8,29,30,34,30,0,0,0,0,0,0,0,0,0,0,123,0.5,0.9,0.486,23,41,13,0021500338,1610612766,CHA,Charlotte,Troy Daniels,,,3:31,0.0,0.0,0.0,0.0,3.0,0.0,6.0,2.0,0.0,0.0,0.0,0.0
0021500338,1610612766,CHA,Charlotte,203148,Brian Roberts,,,3:31,152.3,162.5,-10.2,0.5,0.0,66.7,0.0,0.25,0.167,0.0,0.0,0.0,0.127,108.38,0.066,2015-12-11T00:00:00,6,CHA,Charlotte,14-8,29,30,34,30,0,0,0,0,0,0,0,0,0,0,123,0.5,0.9,0.486,23,41,13,0021500338,1610612766,CHA,Charlotte,Brian Roberts,,,3:31,0.0,0.0,0.0,0.0,3.0,0.0,6.0,2.0,0.0,0.0,0.0,0.0
0021500338,1610612766,CHA,Charlotte,1626151,Aaron Harrison,,,3:31,152.3,162.5,-10.2,0.0,0.0,0.0,0.0,0.0,0.0,0.0,1.5,1.5,0.127,108.38,0.098,2015-12-11T00:00:00,6,CHA,Charlotte,14-8,29,30,34,30,0,0,0,0,0,0,0,0,0,0,123,0.5,0.9,0.486,23,41,13,0021500338,1610612766,CHA,Charlotte,Aaron Harrison,,,3:31,0.0,0.0,0.0,0.0,3.0,0.0,6.0,2.0,0.0,0.0,0.0,0.0
0021500338,1610612763,MEM,Memphis,201145,Jeff Green,F,,25:42,103.0,129.5,-26.5,0.059,0.5,7.8,0.0,0.15,0.079,15.7,0.25,0.307,0.212,95.44,-0.01,2015-12-11T00:00:00,6,MEM,Memphis,13-11,35,19,19,26,0,0,0,0,0,0,0,0,0,0,99,0.4,0.757,0.35,19,40,12,0021500338,1610612763,MEM,Memphis,Jeff Green,F,,25:42,0.0,0.0,0.0,2.0,11.0,12.0,5.0,18.0,0.0,1.0,1.0,3.0
0021500338,1610612763,MEM,Memphis,2216,Zach Randolph,F,,29:10,99.4,117.7,-18.4,0.063,0.0,8.5,0.167,0.125,0.146,0.0,0.556,0.604,0.165,96.24,0.147,2015-12-11T00:00:00,6,MEM,Memphis,13-11,35,19,19,26,0,0,0,0,0,0,0,0,0,0,99,0.4,0.757,0.35,19,40,12,0021500338,1610612763,MEM,Memphis,Zach Randolph,F,,29:10,0.0,4.0,0.0,8.0,10.0,12.0,7.0,16.0,0.0,0.0,0.0,4.0
0021500338,1610612763,MEM,Memphis,201188,Marc Gasol,C,,37:18,99.5,123.2,-23.7,0.278,1.25,21.3,0.0,0.3,0.143,17.0,0.455,0.585,0.219,97.71,0.15,2015-12-11T00:00:00,6,MEM,Memphis,13-11,35,19,19,26,0,0,0,0,0,0,0,0,0,0,99,0.4,0.757,0.35,19,40,12,0021500338,1610612763,MEM,Memphis,Marc Gasol,C,,37:18,2.0,0.0,0.0,8.0,17.0,13.0,7.0,26.0,1.0,0.0,2.0,4.0
0021500338,1610612763,MEM,Memphis,2754,Tony Allen,G,,29:56,112.8,132.8,-20.0,0.053,0.5,7.1,0.043,0.1,0.07,14.3,0.455,0.455,0.204,93.26,0.023,2015-12-11T00:00:00,6,MEM,Memphis,13-11,35,19,19,26,0,0,0,0,0,0,0,0,0,0,99,0.4,0.757,0.35,19,40,12,0021500338,1610612763,MEM,Memphis,Tony Allen,G,,29:56,2.0,0.0,2.0,8.0,8.0,13.0,7.0,14.0,1.0,2.0,4.0,1.0
0021500338,1610612763,MEM,Memphis,201144,Mike Conley,G,,30:26,99.8,130.1,-30.3,0.25,0.0,26.5,0.04,0.083,0.061,0.0,0.625,0.722,0.168,93.47,0.139,2015-12-11T00:00:00,6,MEM,Memphis,13-11,35,19,19,26,0,0,0,0,0,0,0,0,0,0,99,0.4,0.757,0.35,19,40,12,0021500338,1610612763,MEM,Memphis,Mike Conley,G,,30:26,2.0,0.0,2.0,4.0,13.0,13.0,7.0,18.0,2.0,0.0,2.0,4.0
0021500338,1610612763,MEM,Memphis,201584,Courtney Lee,,,25:44,98.7,119.0,-20.3,0.091,0.0,9.2,0.0,0.105,0.041,0.0,0.556,0.607,0.166,103.34,0.097,2015-12-11T00:00:00,6,MEM,Memphis,13-11,35,19,19,26,0,0,0,0,0,0,0,0,0,0,99,0.4,0.757,0.35,19,40,12,0021500338,1610612763,MEM,Memphis,Courtney Lee,,,25:44,5.0,0.0,0.0,0.0,7.0,5.0,2.0,16.0,0.0,0.0,1.0,1.0
0021500338,1610612763,MEM,Memphis,2440,Matt Barnes,,,24:50,98.7,124.1,-25.4,0.1,0.5,5.9,0.103,0.235,0.152,11.8,0.393,0.393,0.282,101.94,0.055,2015-12-11T00:00:00,6,MEM,Memphis,13-11,35,19,19,26,0,0,0,0,0,0,0,0,0,0,99,0.4,0.757,0.35,19,40,12,0021500338,1610612763,MEM,Memphis,Matt Barnes,,,24:50,5.0,0.0,8.0,2.0,9.0,5.0,4.0,18.0,1.0,1.0,2.0,0.0
0021500338,1610612763,MEM,Memphis,201596,Mario Chalmers,,,12:31,100.3,107.9,-7.6,0.333,2.0,21.0,0.0,0.333,0.13,10.5,0.0,0.46,0.243,106.69,0.061,2015-12-11T00:00:00,6,MEM,Memphis,13-11,35,19,19,26,0,0,0,0,0,0,0,0,0,0,99,0.4,0.757,0.35,19,40,12,0021500338,1610612763,MEM,Memphis,Mario Chalmers,,,12:31,2.0,1.0,1.0,0.0,6.0,0.0,2.0,10.0,0.0,0.0,5.0,4.0
0021500338,1610612763,MEM,Memphis,203210,JaMychal Green,,,16:59,102.3,106.4,-4.1,0.0,0.0,0.0,0.1,0.083,0.094,12.9,0.4,0.444,0.189,106.89,-0.054,2015-12-11T00:00:00,6,MEM,Memphis,13-11,35,19,19,26,0,0,0,0,0,0,0,0,0,0,99,0.4,0.757,0.35,19,40,12,0021500338,1610612763,MEM,Memphis,JaMychal Green,,,16:59,2.0,2.0,2.0,4.0,4.0,0.0,2.0,10.0,0.0,0.0,5.0,3.0
0021500338,1610612763,MEM,Memphis,203893,Russ Smith,,,7:24,106.3,128.1,-21.8,0.5,0.0,60.0,0.0,0.0,0.0,0.0,0.5,0.5,0.111,110.24,0.081,2015-12-11T00:00:00,6,MEM,Memphis,13-11,35,19,19,26,0,0,0,0,0,0,0,0,0,0,99,0.4,0.757,0.35,19,40,12,0021500338,1610612763,MEM,Memphis,Russ Smith,,,7:24,0.0,0.0,0.0,2.0,0.0,2.0,2.0,4.0,0.0,1.0,2.0,0.0
0021500338,1610612763,MEM,Memphis,1713,Vince Carter,,DNP - Coach's Decision                  ,,,,,,,0.0,,,,,,,0.0,,,2015-12-11T00:00:00,6,MEM,Memphis,13-11,35,19,19,26,0,0,0,0,0,0,0,0,0,0,99,0.4,0.757,0.35,19,40,12,0021500338,1610612763,MEM,Memphis,Vince Carter,,DNP - Coach's Decision                  ,,,,,,,,,,,,,
0021500338,1610612763,MEM,Memphis,201148,Brandan Wright,,DNP - Coach's Decision                  ,,,,,,,0.0,,,,,,,0.0,,,2015-12-11T00:00:00,6,MEM,Memphis,13-11,35,19,19,26,0,0,0,0,0,0,0,0,0,0,99,0.4,0.757,0.35,19,40,12,0021500338,1610612763,MEM,Memphis,Brandan Wright,,DNP - Coach's Decision                  ,,,,,,,,,,,,,
