GAME_ID_x,TEAM_ID_x,TEAM_ABBREVIATION_x,TEAM_CITY_x,PLAYER_ID,PLAYER_NAME_x,START_POSITION_x,COMMENT_x,MIN_x,OFF_RATING,DEF_RATING,NET_RATING,AST_PCT,AST_TOV,AST_RATIO,OREB_PCT,DREB_PCT,REB_PCT,TM_TOV_PCT,EFG_PCT,TS_PCT,USG_PCT,PACE,PIE,GAME_DATE_EST,GAME_SEQUENCE,TEAM_ID_y,TEAM_ABBREVIATION_y,TEAM_CITY_NAME,TEAM_WINS_LOSSES,PTS_QTR1,PTS_QTR2,PTS_QTR3,PTS_QTR4,PTS_OT1,PTS_OT2,PTS_OT3,PTS_OT4,PTS_OT5,PTS_OT6,PTS_OT7,PTS_OT8,PTS_OT9,PTS_OT10,PTS,FG_PCT,FT_PCT,FG3_PCT,AST,REB,TOV,GAME_ID_y,TEAM_ID,TEAM_ABBREVIATION,TEAM_CITY_y,PLAYER_NAME_y,START_POSITION_y,COMMENT_y,MIN_y,PTS_OFF_TOV,PTS_2ND_CHANCE,PTS_FB,PTS_PAINT,OPP_PTS_OFF_TOV,OPP_PTS_2ND_CHANCE,OPP_PTS_FB,OPP_PTS_PAINT,BLK,BLKA,PF,PFD
0021300964,1610612742,DAL,Dallas,1890,Shawn Marion,F,,34:07,110.8,113.8,-2.9,0.077,2.0,22.2,0.042,0.152,0.105,11.1,0.333,0.333,0.103,91.45,0.027,2014-03-12T00:00:00,8,1610612742,DAL,Dallas,39-27,23,32,25,28,0,0,0,0,0,0,0,0,0,0,108,0.532,0.917,0.619,26,39,13,0021300964,1610612742,DAL,Dallas,Shawn Marion,F,,34:07,0.0,0.0,0.0,2.0,10.0,10.0,9.0,40.0,0.0,0.0,3.0,0.0
0021300964,1610612742,DAL,Dallas,1890,Shawn Marion,F,,34:07,110.8,113.8,-2.9,0.077,2.0,22.2,0.042,0.152,0.105,11.1,0.333,0.333,0.103,91.45,0.027,2014-03-12T00:00:00,8,1610612762,UTA,Utah,22-43,25,28,25,23,0,0,0,0,0,0,0,0,0,0,101,0.471,0.762,0.192,23,40,11,0021300964,1610612742,DAL,Dallas,Shawn Marion,F,,34:07,0.0,0.0,0.0,2.0,10.0,10.0,9.0,40.0,0.0,0.0,3.0,0.0
0021300964,1610612742,DAL,Dallas,1717,Dirk Nowitzki,F,,33:19,137.2,101.8,35.4,0.0,0.0,0.0,0.0,0.242,0.154,11.5,1.0,1.012,0.257,91.65,0.239,2014-03-12T00:00:00,8,1610612742,DAL,Dallas,39-27,23,32,25,28,0,0,0,0,0,0,0,0,0,0,108,0.532,0.917,0.619,26,39,13,0021300964,1610612742,DAL,Dallas,Dirk Nowitzki,F,,33:19,0.0,2.0,0.0,2.0,13.0,13.0,10.0,28.0,0.0,0.0,1.0,3.0
0021300964,1610612742,DAL,Dallas,1717,Dirk Nowitzki,F,,33:19,137.2,101.8,35.4,0.0,0.0,0.0,0.0,0.242,0.154,11.5,1.0,1.012,0.257,91.65,0.239,2014-03-12T00:00:00,8,1610612762,UTA,Utah,22-43,25,28,25,23,0,0,0,0,0,0,0,0,0,0,101,0.471,0.762,0.192,23,40,11,0021300964,1610612742,DAL,Dallas,Dirk Nowitzki,F,,33:19,0.0,2.0,0.0,2.0,13.0,13.0,10.0,28.0,0.0,0.0,1.0,3.0
0021300964,1610612742,DAL,Dallas,2223,Samuel Dalembert,C,,15:29,113.0,113.0,0.0,0.1,0.33,14.3,0.0,0.222,0.154,42.9,0.667,0.667,0.205,91.9,0.008,2014-03-12T00:00:00,8,1610612742,DAL,Dallas,39-27,23,32,25,28,0,0,0,0,0,0,0,0,0,0,108,0.532,0.917,0.619,26,39,13,0021300964,1610612742,DAL,Dallas,Samuel Dalembert,C,,15:29,2.0,0.0,0.0,4.0,5.0,13.0,3.0,14.0,1.0,0.0,5.0,0.0
0021300964,1610612742,DAL,Dallas,2223,Samuel Dalembert,C,,15:29,113.0,113.0,0.0,0.1,0.33,14.3,0.0,0.222,0.154,42.9,0.667,0.667,0.205,91.9,0.008,2014-03-12T00:00:00,8,1610612762,UTA,Utah,22-43,25,28,25,23,0,0,0,0,0,0,0,0,0,0,101,0.471,0.762,0.192,23,40,11,0021300964,1610612742,DAL,Dallas,Samuel Dalembert,C,,15:29,2.0,0.0,0.0,4.0,5.0,13.0,3.0,14.0,1.0,0.0,5.0,0.0
0021300964,1610612742,DAL,Dallas,101145,Monta Ellis,G,,35:48,113.8,106.3,7.5,0.458,2.75,34.6,0.043,0.176,0.123,12.6,0.433,0.477,0.295,95.71,0.141,2014-03-12T00:00:00,8,1610612742,DAL,Dallas,39-27,23,32,25,28,0,0,0,0,0,0,0,0,0,0,108,0.532,0.917,0.619,26,39,13,0021300964,1610612742,DAL,Dallas,Monta Ellis,G,,35:48,2.0,2.0,3.0,4.0,9.0,13.0,11.0,44.0,0.0,2.0,1.0,4.0
0021300964,1610612742,DAL,Dallas,101145,Monta Ellis,G,,35:48,113.8,106.3,7.5,0.458,2.75,34.6,0.043,0.176,0.123,12.6,0.433,0.477,0.295,95.71,0.141,2014-03-12T00:00:00,8,1610612762,UTA,Utah,22-43,25,28,25,23,0,0,0,0,0,0,0,0,0,0,101,0.471,0.762,0.192,23,40,11,0021300964,1610612742,DAL,Dallas,Monta Ellis,G,,35:48,2.0,2.0,3.0,4.0,9.0,13.0,11.0,44.0,0.0,2.0,1.0,4.0
0021300964,1610612742,DAL,Dallas,101181,Jose Calderon,G,,31:50,119.8,114.2,5.6,0.2,0.0,36.0,0.0,0.032,0.02,0.0,0.5,0.563,0.141,92.16,0.081,2014-03-12T00:00:00,8,1610612742,DAL,Dallas,39-27,23,32,25,28,0,0,0,0,0,0,0,0,0,0,108,0.532,0.917,0.619,26,39,13,0021300964,1610612742,DAL,Dallas,Jose Calderon,G,,31:50,0.0,0.0,2.0,0.0,10.0,13.0,7.0,38.0,0.0,0.0,1.0,3.0
0021300964,1610612742,DAL,Dallas,101181,Jose Calderon,G,,31:50,119.8,114.2,5.6,0.2,0.0,36.0,0.0,0.032,0.02,0.0,0.5,0.563,0.141,92.16,0.081,2014-03-12T00:00:00,8,1610612762,UTA,Utah,22-43,25,28,25,23,0,0,0,0,0,0,0,0,0,0,101,0.471,0.762,0.192,23,40,11,0021300964,1610612742,DAL,Dallas,Jose Calderon,G,,31:50,0.0,0.0,2.0,0.0,10.0,13.0,7.0,38.0,0.0,0.0,1.0,3.0
0021300964,1610612742,DAL,Dallas,1713,Vince Carter,,,24:13,91.5,113.4,-21.9,0.2,0.0,25.0,0.042,0.1,0.068,0.0,0.444,0.444,0.184,91.77,0.056,2014-03-12T00:00:00,8,1610612742,DAL,Dallas,39-27,23,32,25,28,0,0,0,0,0,0,0,0,0,0,108,0.532,0.917,0.619,26,39,13,0021300964,1610612742,DAL,Dallas,Vince Carter,,,24:13,0.0,3.0,0.0,2.0,5.0,5.0,11.0,38.0,0.0,0.0,3.0,1.0
0021300964,1610612742,DAL,Dallas,1713,Vince Carter,,,24:13,91.5,113.4,-21.9,0.2,0.0,25.0,0.042,0.1,0.068,0.0,0.444,0.444,0.184,91.77,0.056,2014-03-12T00:00:00,8,1610612762,UTA,Utah,22-43,25,28,25,23,0,0,0,0,0,0,0,0,0,0,101,0.471,0.762,0.192,23,40,11,0021300964,1610612742,DAL,Dallas,Vince Carter,,,24:13,0.0,3.0,0.0,2.0,5.0,5.0,11.0,38.0,0.0,0.0,3.0,1.0
0021300964,1610612742,DAL,Dallas,201971,DeJuan Blair,,,10:08,125.2,124.8,0.5,0.0,0.0,0.0,0.1,0.375,0.222,0.0,0.5,0.694,0.121,100.42,0.121,2014-03-12T00:00:00,8,1610612742,DAL,Dallas,39-27,23,32,25,28,0,0,0,0,0,0,0,0,0,0,108,0.532,0.917,0.619,26,39,13,0021300964,1610612742,DAL,Dallas,DeJuan Blair,,,10:08,0.0,2.0,0.0,2.0,5.0,0.0,6.0,18.0,0.0,0.0,1.0,1.0
0021300964,1610612742,DAL,Dallas,201971,DeJuan Blair,,,10:08,125.2,124.8,0.5,0.0,0.0,0.0,0.1,0.375,0.222,0.0,0.5,0.694,0.121,100.42,0.121,2014-03-12T00:00:00,8,1610612762,UTA,Utah,22-43,25,28,25,23,0,0,0,0,0,0,0,0,0,0,101,0.471,0.762,0.192,23,40,11,0021300964,1610612742,DAL,Dallas,DeJuan Blair,,,10:08,0.0,2.0,0.0,2.0,5.0,0.0,6.0,18.0,0.0,0.0,1.0,1.0
0021300964,1610612742,DAL,Dallas,2734,Devin Harris,,,19:39,125.4,99.8,25.6,0.214,1.0,19.4,0.0,0.188,0.094,19.4,0.611,0.636,0.289,95.46,0.115,2014-03-12T00:00:00,8,1610612742,DAL,Dallas,39-27,23,32,25,28,0,0,0,0,0,0,0,0,0,0,108,0.532,0.917,0.619,26,39,13,0021300964,1610612742,DAL,Dallas,Devin Harris,,,19:39,3.0,0.0,7.0,6.0,8.0,2.0,9.0,22.0,0.0,0.0,2.0,5.0
0021300964,1610612742,DAL,Dallas,2734,Devin Harris,,,19:39,125.4,99.8,25.6,0.214,1.0,19.4,0.0,0.188,0.094,19.4,0.611,0.636,0.289,95.46,0.115,2014-03-12T00:00:00,8,1610612762,UTA,Utah,22-43,25,28,25,23,0,0,0,0,0,0,0,0,0,0,101,0.471,0.762,0.192,23,40,11,0021300964,1610612742,DAL,Dallas,Devin Harris,,,19:39,3.0,0.0,7.0,6.0,8.0,2.0,9.0,22.0,0.0,0.0,2.0,5.0
0021300964,1610612742,DAL,Dallas,201961,Wayne Ellington,,,12:53,117.8,85.4,32.4,0.125,0.0,16.7,0.1,0.083,0.091,0.0,1.1,1.1,0.177,97.01,0.214,2014-03-12T00:00:00,8,1610612742,DAL,Dallas,39-27,23,32,25,28,0,0,0,0,0,0,0,0,0,0,108,0.532,0.917,0.619,26,39,13,0021300964,1610612742,DAL,Dallas,Wayne Ellington,,,12:53,3.0,3.0,2.0,2.0,5.0,2.0,7.0,12.0,0.0,0.0,2.0,0.0
0021300964,1610612742,DAL,Dallas,201961,Wayne Ellington,,,12:53,117.8,85.4,32.4,0.125,0.0,16.7,0.1,0.083,0.091,0.0,1.1,1.1,0.177,97.01,0.214,2014-03-12T00:00:00,8,1610612762,UTA,Utah,22-43,25,28,25,23,0,0,0,0,0,0,0,0,0,0,101,0.471,0.762,0.192,23,40,11,0021300964,1610612742,DAL,Dallas,Wayne Ellington,,,12:53,3.0,3.0,2.0,2.0,5.0,2.0,7.0,12.0,0.0,0.0,2.0,0.0
0021300964,1610612742,DAL,Dallas,201148,Brandan Wright,,,15:07,112.6,92.5,20.1,0.0,0.0,0.0,0.0,0.077,0.04,0.0,0.571,0.571,0.223,92.91,0.098,2014-03-12T00:00:00,8,1610612742,DAL,Dallas,39-27,23,32,25,28,0,0,0,0,0,0,0,0,0,0,108,0.532,0.917,0.619,26,39,13,0021300964,1610612742,DAL,Dallas,Brandan Wright,,,15:07,2.0,0.0,0.0,8.0,5.0,2.0,7.0,16.0,1.0,0.0,2.0,0.0
0021300964,1610612742,DAL,Dallas,201148,Brandan Wright,,,15:07,112.6,92.5,20.1,0.0,0.0,0.0,0.0,0.077,0.04,0.0,0.571,0.571,0.223,92.91,0.098,2014-03-12T00:00:00,8,1610612762,UTA,Utah,22-43,25,28,25,23,0,0,0,0,0,0,0,0,0,0,101,0.471,0.762,0.192,23,40,11,0021300964,1610612742,DAL,Dallas,Brandan Wright,,,15:07,2.0,0.0,0.0,8.0,5.0,2.0,7.0,16.0,1.0,0.0,2.0,0.0
0021300964,1610612742,DAL,Dallas,203108,Bernard James,,,7:27,123.1,104.7,18.3,0.0,0.0,0.0,0.0,0.0,0.0,0.0,0.0,0.0,0.077,88.03,-0.113,2014-03-12T00:00:00,8,1610612742,DAL,Dallas,39-27,23,32,25,28,0,0,0,0,0,0,0,0,0,0,108,0.532,0.917,0.619,26,39,13,0021300964,1610612742,DAL,Dallas,Bernard James,,,7:27,0.0,0.0,0.0,0.0,0.0,2.0,0.0,10.0,0.0,0.0,2.0,1.0
0021300964,1610612742,DAL,Dallas,203108,Bernard James,,,7:27,123.1,104.7,18.3,0.0,0.0,0.0,0.0,0.0,0.0,0.0,0.0,0.0,0.077,88.03,-0.113,2014-03-12T00:00:00,8,1610612762,UTA,Utah,22-43,25,28,25,23,0,0,0,0,0,0,0,0,0,0,101,0.471,0.762,0.192,23,40,11,0021300964,1610612742,DAL,Dallas,Bernard James,,,7:27,0.0,0.0,0.0,0.0,0.0,2.0,0.0,10.0,0.0,0.0,2.0,1.0
0021300964,1610612742,DAL,Dallas,203499,Shane Larkin,,DNP - Coach's Decision,,,,,,,0.0,,,,,,,0.0,,,2014-03-12T00:00:00,8,1610612742,DAL,Dallas,39-27,23,32,25,28,0,0,0,0,0,0,0,0,0,0,108,0.532,0.917,0.619,26,39,13,0021300964,1610612742,DAL,Dallas,Shane Larkin,,DNP - Coach's Decision,,,,,,,,,,,,,
0021300964,1610612742,DAL,Dallas,203499,Shane Larkin,,DNP - Coach's Decision,,,,,,,0.0,,,,,,,0.0,,,2014-03-12T00:00:00,8,1610612762,UTA,Utah,22-43,25,28,25,23,0,0,0,0,0,0,0,0,0,0,101,0.471,0.762,0.192,23,40,11,0021300964,1610612742,DAL,Dallas,Shane Larkin,,DNP - Coach's Decision,,,,,,,,,,,,,
0021300964,1610612742,DAL,Dallas,203539,Gal Mekel,,DNP - Coach's Decision,,,,,,,0.0,,,,,,,0.0,,,2014-03-12T00:00:00,8,1610612742,DAL,Dallas,39-27,23,32,25,28,0,0,0,0,0,0,0,0,0,0,108,0.532,0.917,0.619,26,39,13,0021300964,1610612742,DAL,Dallas,Gal Mekel,,DNP - Coach's Decision,,,,,,,,,,,,,
0021300964,1610612742,DAL,Dallas,203539,Gal Mekel,,DNP - Coach's Decision,,,,,,,0.0,,,,,,,0.0,,,2014-03-12T00:00:00,8,1610612762,UTA,Utah,22-43,25,28,25,23,0,0,0,0,0,0,0,0,0,0,101,0.471,0.762,0.192,23,40,11,0021300964,1610612742,DAL,Dallas,Gal Mekel,,DNP - Coach's Decision,,,,,,,,,,,,,
0021300964,1610612762,UTA,Utah,2210,Richard Jefferson,F,,29:26,101.3,122.2,-20.9,0.056,0.5,6.0,0.0,0.176,0.064,11.9,0.375,0.436,0.249,88.45,0.044,2014-03-12T00:00:00,8,1610612742,DAL,Dallas,39-27,23,32,25,28,0,0,0,0,0,0,0,0,0,0,108,0.532,0.917,0.619,26,39,13,0021300964,1610612762,UTA,Utah,Richard Jefferson,F,,29:26,0.0,1.0,0.0,4.0,2.0,3.0,6.0,20.0,0.0,0.0,0.0,3.0
0021300964,1610612762,UTA,Utah,2210,Richard Jefferson,F,,29:26,101.3,122.2,-20.9,0.056,0.5,6.0,0.0,0.176,0.064,11.9,0.375,0.436,0.249,88.45,0.044,2014-03-12T00:00:00,8,1610612762,UTA,Utah,22-43,25,28,25,23,0,0,0,0,0,0,0,0,0,0,101,0.471,0.762,0.192,23,40,11,0021300964,1610612762,UTA,Utah,Richard Jefferson,F,,29:26,0.0,1.0,0.0,4.0,2.0,3.0,6.0,20.0,0.0,0.0,0.0,3.0
0021300964,1610612762,UTA,Utah,101107,Marvin Williams,F,,21:55,111.9,125.8,-13.9,0.0,0.0,0.0,0.0,0.077,0.033,20.0,0.25,0.25,0.113,89.27,-0.011,2014-03-12T00:00:00,8,1610612742,DAL,Dallas,39-27,23,32,25,28,0,0,0,0,0,0,0,0,0,0,108,0.532,0.917,0.619,26,39,13,0021300964,1610612762,UTA,Utah,Marvin Williams,F,,21:55,0.0,0.0,0.0,0.0,7.0,6.0,0.0,10.0,0.0,0.0,1.0,0.0
0021300964,1610612762,UTA,Utah,101107,Marvin Williams,F,,21:55,111.9,125.8,-13.9,0.0,0.0,0.0,0.0,0.077,0.033,20.0,0.25,0.25,0.113,89.27,-0.011,2014-03-12T00:00:00,8,1610612762,UTA,Utah,22-43,25,28,25,23,0,0,0,0,0,0,0,0,0,0,101,0.471,0.762,0.192,23,40,11,0021300964,1610612762,UTA,Utah,Marvin Williams,F,,21:55,0.0,0.0,0.0,0.0,7.0,6.0,0.0,10.0,0.0,0.0,1.0,0.0
0021300964,1610612762,UTA,Utah,202324,Derrick Favors,C,,27:57,104.0,105.5,-1.5,0.063,1.0,8.5,0.148,0.063,0.116,8.5,0.75,0.768,0.183,91.81,0.128,2014-03-12T00:00:00,8,1610612742,DAL,Dallas,39-27,23,32,25,28,0,0,0,0,0,0,0,0,0,0,108,0.532,0.917,0.619,26,39,13,0021300964,1610612762,UTA,Utah,Derrick Favors,C,,27:57,0.0,4.0,0.0,12.0,4.0,2.0,3.0,14.0,1.0,0.0,4.0,5.0
0021300964,1610612762,UTA,Utah,202324,Derrick Favors,C,,27:57,104.0,105.5,-1.5,0.063,1.0,8.5,0.148,0.063,0.116,8.5,0.75,0.768,0.183,91.81,0.128,2014-03-12T00:00:00,8,1610612762,UTA,Utah,22-43,25,28,25,23,0,0,0,0,0,0,0,0,0,0,101,0.471,0.762,0.192,23,40,11,0021300964,1610612762,UTA,Utah,Derrick Favors,C,,27:57,0.0,4.0,0.0,12.0,4.0,2.0,3.0,14.0,1.0,0.0,4.0,5.0
0021300964,1610612762,UTA,Utah,202330,Gordon Hayward,G,,34:48,109.8,112.4,-2.5,0.214,2.0,35.5,0.0,0.231,0.111,17.8,0.5,0.508,0.146,94.34,0.068,2014-03-12T00:00:00,8,1610612742,DAL,Dallas,39-27,23,32,25,28,0,0,0,0,0,0,0,0,0,0,108,0.532,0.917,0.619,26,39,13,0021300964,1610612762,UTA,Utah,Gordon Hayward,G,,34:48,1.0,0.0,1.0,2.0,12.0,9.0,8.0,20.0,0.0,0.0,3.0,3.0
0021300964,1610612762,UTA,Utah,202330,Gordon Hayward,G,,34:48,109.8,112.4,-2.5,0.214,2.0,35.5,0.0,0.231,0.111,17.8,0.5,0.508,0.146,94.34,0.068,2014-03-12T00:00:00,8,1610612762,UTA,Utah,22-43,25,28,25,23,0,0,0,0,0,0,0,0,0,0,101,0.471,0.762,0.192,23,40,11,0021300964,1610612762,UTA,Utah,Gordon Hayward,G,,34:48,1.0,0.0,1.0,2.0,12.0,9.0,8.0,20.0,0.0,0.0,3.0,3.0
0021300964,1610612762,UTA,Utah,203504,Trey Burke,G,,35:23,113.7,121.0,-7.3,0.261,0.0,24.5,0.0,0.04,0.018,0.0,0.528,0.542,0.247,91.35,0.118,2014-03-12T00:00:00,8,1610612742,DAL,Dallas,39-27,23,32,25,28,0,0,0,0,0,0,0,0,0,0,108,0.532,0.917,0.619,26,39,13,0021300964,1610612762,UTA,Utah,Trey Burke,G,,35:23,5.0,5.0,2.0,6.0,7.0,9.0,5.0,20.0,0.0,0.0,0.0,0.0
0021300964,1610612762,UTA,Utah,203504,Trey Burke,G,,35:23,113.7,121.0,-7.3,0.261,0.0,24.5,0.0,0.04,0.018,0.0,0.528,0.542,0.247,91.35,0.118,2014-03-12T00:00:00,8,1610612762,UTA,Utah,22-43,25,28,25,23,0,0,0,0,0,0,0,0,0,0,101,0.471,0.762,0.192,23,40,11,0021300964,1610612762,UTA,Utah,Trey Burke,G,,35:23,5.0,5.0,2.0,6.0,7.0,9.0,5.0,20.0,0.0,0.0,0.0,0.0
0021300964,1610612762,UTA,Utah,202379,Jeremy Evans,,,18:04,110.3,110.8,-0.5,0.091,1.0,10.6,0.125,0.222,0.176,10.6,0.571,0.605,0.204,94.95,0.113,2014-03-12T00:00:00,8,1610612742,DAL,Dallas,39-27,23,32,25,28,0,0,0,0,0,0,0,0,0,0,108,0.532,0.917,0.619,26,39,13,0021300964,1610612762,UTA,Utah,Jeremy Evans,,,18:04,0.0,0.0,2.0,8.0,5.0,6.0,12.0,18.0,0.0,0.0,3.0,2.0
0021300964,1610612762,UTA,Utah,202379,Jeremy Evans,,,18:04,110.3,110.8,-0.5,0.091,1.0,10.6,0.125,0.222,0.176,10.6,0.571,0.605,0.204,94.95,0.113,2014-03-12T00:00:00,8,1610612762,UTA,Utah,22-43,25,28,25,23,0,0,0,0,0,0,0,0,0,0,101,0.471,0.762,0.192,23,40,11,0021300964,1610612762,UTA,Utah,Jeremy Evans,,,18:04,0.0,0.0,2.0,8.0,5.0,6.0,12.0,18.0,0.0,0.0,3.0,2.0
0021300964,1610612762,UTA,Utah,202692,Alec Burks,,,31:46,109.4,117.8,-8.4,0.348,4.0,32.5,0.0,0.16,0.07,8.1,0.333,0.444,0.228,96.52,0.12,2014-03-12T00:00:00,8,1610612742,DAL,Dallas,39-27,23,32,25,28,0,0,0,0,0,0,0,0,0,0,108,0.532,0.917,0.619,26,39,13,0021300964,1610612762,UTA,Utah,Alec Burks,,,31:46,7.0,0.0,7.0,8.0,10.0,12.0,14.0,24.0,0.0,1.0,2.0,5.0
0021300964,1610612762,UTA,Utah,202692,Alec Burks,,,31:46,109.4,117.8,-8.4,0.348,4.0,32.5,0.0,0.16,0.07,8.1,0.333,0.444,0.228,96.52,0.12,2014-03-12T00:00:00,8,1610612762,UTA,Utah,22-43,25,28,25,23,0,0,0,0,0,0,0,0,0,0,101,0.471,0.762,0.192,23,40,11,0021300964,1610612762,UTA,Utah,Alec Burks,,,31:46,7.0,0.0,7.0,8.0,10.0,12.0,14.0,24.0,0.0,1.0,2.0,5.0
0021300964,1610612762,UTA,Utah,202683,Enes Kanter,,,28:04,104.9,125.5,-20.7,0.0,0.0,0.0,0.167,0.286,0.216,0.0,0.615,0.628,0.216,96.73,0.164,2014-03-12T00:00:00,8,1610612742,DAL,Dallas,39-27,23,32,25,28,0,0,0,0,0,0,0,0,0,0,108,0.532,0.917,0.619,26,39,13,0021300964,1610612762,UTA,Utah,Enes Kanter,,,28:04,0.0,5.0,2.0,12.0,8.0,10.0,13.0,22.0,1.0,1.0,2.0,5.0
0021300964,1610612762,UTA,Utah,202683,Enes Kanter,,,28:04,104.9,125.5,-20.7,0.0,0.0,0.0,0.167,0.286,0.216,0.0,0.615,0.628,0.216,96.73,0.164,2014-03-12T00:00:00,8,1610612762,UTA,Utah,22-43,25,28,25,23,0,0,0,0,0,0,0,0,0,0,101,0.471,0.762,0.192,23,40,11,0021300964,1610612762,UTA,Utah,Enes Kanter,,,28:04,0.0,5.0,2.0,12.0,8.0,10.0,13.0,22.0,1.0,1.0,2.0,5.0
0021300964,1610612762,UTA,Utah,203197,Diante Garrett,,,12:37,90.5,106.6,-16.1,0.0,0.0,0.0,0.0,0.333,0.136,20.0,0.5,0.5,0.164,98.61,0.048,2014-03-12T00:00:00,8,1610612742,DAL,Dallas,39-27,23,32,25,28,0,0,0,0,0,0,0,0,0,0,108,0.532,0.917,0.619,26,39,13,0021300964,1610612762,UTA,Utah,Diante Garrett,,,12:37,2.0,0.0,2.0,4.0,5.0,3.0,9.0,12.0,0.0,0.0,3.0,0.0
0021300964,1610612762,UTA,Utah,203197,Diante Garrett,,,12:37,90.5,106.6,-16.1,0.0,0.0,0.0,0.0,0.333,0.136,20.0,0.5,0.5,0.164,98.61,0.048,2014-03-12T00:00:00,8,1610612762,UTA,Utah,22-43,25,28,25,23,0,0,0,0,0,0,0,0,0,0,101,0.471,0.762,0.192,23,40,11,0021300964,1610612762,UTA,Utah,Diante Garrett,,,12:37,2.0,0.0,2.0,4.0,5.0,3.0,9.0,12.0,0.0,0.0,3.0,0.0
0021300964,1610612762,UTA,Utah,203546,Ian Clark,,DNP - Coach's Decision,,,,,,,0.0,,,,,,,0.0,,,2014-03-12T00:00:00,8,1610612742,DAL,Dallas,39-27,23,32,25,28,0,0,0,0,0,0,0,0,0,0,108,0.532,0.917,0.619,26,39,13,0021300964,1610612762,UTA,Utah,Ian Clark,,DNP - Coach's Decision,,,,,,,,,,,,,
0021300964,1610612762,UTA,Utah,203546,Ian Clark,,DNP - Coach's Decision,,,,,,,0.0,,,,,,,0.0,,,2014-03-12T00:00:00,8,1610612762,UTA,Utah,22-43,25,28,25,23,0,0,0,0,0,0,0,0,0,0,101,0.471,0.762,0.192,23,40,11,0021300964,1610612762,UTA,Utah,Ian Clark,,DNP - Coach's Decision,,,,,,,,,,,,,
0021300964,1610612762,UTA,Utah,203497,Rudy Gobert,,DNP - Coach's Decision,,,,,,,0.0,,,,,,,0.0,,,2014-03-12T00:00:00,8,1610612742,DAL,Dallas,39-27,23,32,25,28,0,0,0,0,0,0,0,0,0,0,108,0.532,0.917,0.619,26,39,13,0021300964,1610612762,UTA,Utah,Rudy Gobert,,DNP - Coach's Decision,,,,,,,,,,,,,
0021300964,1610612762,UTA,Utah,203497,Rudy Gobert,,DNP - Coach's Decision,,,,,,,0.0,,,,,,,0.0,,,2014-03-12T00:00:00,8,1610612762,UTA,Utah,22-43,25,28,25,23,0,0,0,0,0,0,0,0,0,0,101,0.471,0.762,0.192,23,40,11,0021300964,1610612762,UTA,Utah,Rudy Gobert,,DNP - Coach's Decision,,,,,,,,,,,,,
0021300964,1610612762,UTA,Utah,201575,Brandon Rush,,DNP - Coach's Decision,,,,,,,0.0,,,,,,,0.0,,,2014-03-12T00:00:00,8,1610612742,DAL,Dallas,39-27,23,32,25,28,0,0,0,0,0,0,0,0,0,0,108,0.532,0.917,0.619,26,39,13,0021300964,1610612762,UTA,Utah,Brandon Rush,,DNP - Coach's Decision,,,,,,,,,,,,,
0021300964,1610612762,UTA,Utah,201575,Brandon Rush,,DNP - Coach's Decision,,,,,,,0.0,,,,,,,0.0,,,2014-03-12T00:00:00,8,1610612762,UTA,Utah,22-43,25,28,25,23,0,0,0,0,0,0,0,0,0,0,101,0.471,0.762,0.192,23,40,11,0021300964,1610612762,UTA,Utah,Brandon Rush,,DNP - Coach's Decision,,,,,,,,,,,,,
0021300964,1610612762,UTA,Utah,202952,Malcolm Thomas,,DNP - Coach's Decision,,,,,,,0.0,,,,,,,0.0,,,2014-03-12T00:00:00,8,1610612742,DAL,Dallas,39-27,23,32,25,28,0,0,0,0,0,0,0,0,0,0,108,0.532,0.917,0.619,26,39,13,0021300964,1610612762,UTA,Utah,Malcolm Thomas,,DNP - Coach's Decision,,,,,,,,,,,,,
0021300964,1610612762,UTA,Utah,202952,Malcolm Thomas,,DNP - Coach's Decision,,,,,,,0.0,,,,,,,0.0,,,2014-03-12T00:00:00,8,1610612762,UTA,Utah,22-43,25,28,25,23,0,0,0,0,0,0,0,0,0,0,101,0.471,0.762,0.192,23,40,11,0021300964,1610612762,UTA,Utah,Malcolm Thomas,,DNP - Coach's Decision,,,,,,,,,,,,,
