GAME_ID_x,TEAM_ID_x,TEAM_ABBREVIATION_x,TEAM_CITY_x,PLAYER_ID,PLAYER_NAME_x,START_POSITION_x,COMMENT_x,MIN_x,OFF_RATING,DEF_RATING,NET_RATING,AST_PCT,AST_TOV,AST_RATIO,OREB_PCT,DREB_PCT,REB_PCT,TM_TOV_PCT,EFG_PCT,TS_PCT,USG_PCT,PACE,PIE,GAME_DATE_EST,GAME_SEQUENCE,TEAM_ABBREVIATION_y,TEAM_CITY_NAME,TEAM_WINS_LOSSES,PTS_QTR1,PTS_QTR2,PTS_QTR3,PTS_QTR4,PTS_OT1,PTS_OT2,PTS_OT3,PTS_OT4,PTS_OT5,PTS_OT6,PTS_OT7,PTS_OT8,PTS_OT9,PTS_OT10,PTS,FG_PCT,FT_PCT,FG3_PCT,AST,REB,TOV,GAME_ID_y,TEAM_ID_y,TEAM_ABBREVIATION,TEAM_CITY_y,PLAYER_NAME_y,START_POSITION_y,COMMENT_y,MIN_y,PTS_OFF_TOV,PTS_2ND_CHANCE,PTS_FB,PTS_PAINT,OPP_PTS_OFF_TOV,OPP_PTS_2ND_CHANCE,OPP_PTS_FB,OPP_PTS_PAINT,BLK,BLKA,PF,PFD
0021500368,1610612743,DEN,Denver,201568,Danilo Gallinari,F,,28:11,125.6,121.2,4.5,0.25,5.0,28.0,0.045,0.091,0.068,5.6,0.5,0.633,0.214,93.88,0.106,2015-12-15T00:00:00,2,DEN,Denver,11-14,27,36,29,20,0,0,0,0,0,0,0,0,0,0,112,0.562,0.741,0.556,24,39,14,0021500368,1610612743,DEN,Denver,Danilo Gallinari,F,,28:11,0.0,0.0,0.0,0.0,4.0,8.0,2.0,26.0,0.0,1.0,2.0,6.0
0021500368,1610612743,DEN,Denver,202702,Kenneth Faried,F,,28:16,120.2,124.1,-3.9,0.063,0.0,6.1,0.143,0.292,0.222,0.0,0.583,0.612,0.262,91.05,0.157,2015-12-15T00:00:00,2,DEN,Denver,11-14,27,36,29,20,0,0,0,0,0,0,0,0,0,0,112,0.562,0.741,0.556,24,39,14,0021500368,1610612743,DEN,Denver,Kenneth Faried,F,,28:16,0.0,2.0,2.0,10.0,4.0,5.0,2.0,26.0,3.0,1.0,5.0,5.0
0021500368,1610612743,DEN,Denver,203530,Joffrey Lauvergne,C,,16:00,136.7,112.3,24.4,0.083,0.5,11.3,0.111,0.353,0.269,22.5,0.9,0.935,0.241,91.5,0.214,2015-12-15T00:00:00,2,DEN,Denver,11-14,27,36,29,20,0,0,0,0,0,0,0,0,0,0,112,0.562,0.741,0.556,24,39,14,0021500368,1610612743,DEN,Denver,Joffrey Lauvergne,C,,16:00,0.0,2.0,3.0,4.0,0.0,4.0,1.0,12.0,0.0,0.0,2.0,3.0
0021500368,1610612743,DEN,Denver,203914,Gary Harris,G,,23:34,126.6,123.5,3.1,0.0,0.0,0.0,0.053,0.053,0.053,16.7,0.4,0.4,0.122,88.76,0.005,2015-12-15T00:00:00,2,DEN,Denver,11-14,27,36,29,20,0,0,0,0,0,0,0,0,0,0,112,0.562,0.741,0.556,24,39,14,0021500368,1610612743,DEN,Denver,Gary Harris,G,,23:34,2.0,0.0,0.0,2.0,2.0,4.0,2.0,16.0,0.0,1.0,1.0,1.0
0021500368,1610612743,DEN,Denver,2749,Jameer Nelson,G,,22:54,128.8,130.1,-1.3,0.267,2.0,30.8,0.0,0.158,0.088,15.4,0.714,0.714,0.191,92.27,0.101,2015-12-15T00:00:00,2,DEN,Denver,11-14,27,36,29,20,0,0,0,0,0,0,0,0,0,0,112,0.562,0.741,0.556,24,39,14,0021500368,1610612743,DEN,Denver,Jameer Nelson,G,,22:54,2.0,0.0,0.0,2.0,4.0,6.0,2.0,20.0,0.0,1.0,4.0,1.0
0021500368,1610612743,DEN,Denver,201589,Darrell Arthur,,,15:28,111.7,96.2,15.6,0.0,0.0,0.0,0.0,0.0,0.0,14.3,0.5,0.5,0.214,92.86,0.068,2015-12-15T00:00:00,2,DEN,Denver,11-14,27,36,29,20,0,0,0,0,0,0,0,0,0,0,112,0.562,0.741,0.556,24,39,14,0021500368,1610612743,DEN,Denver,Darrell Arthur,,,15:28,2.0,0.0,0.0,2.0,4.0,4.0,3.0,12.0,1.0,0.0,1.0,1.0
0021500368,1610612743,DEN,Denver,200751,Randy Foye,,,25:06,120.5,91.8,28.7,0.133,2.0,16.7,0.0,0.1,0.056,8.3,1.056,1.056,0.19,88.43,0.273,2015-12-15T00:00:00,2,DEN,Denver,11-14,27,36,29,20,0,0,0,0,0,0,0,0,0,0,112,0.562,0.741,0.556,24,39,14,0021500368,1610612743,DEN,Denver,Randy Foye,,,25:06,8.0,0.0,0.0,2.0,6.0,5.0,4.0,20.0,0.0,0.0,1.0,0.0
0021500368,1610612743,DEN,Denver,203115,Will Barton,,,30:31,124.4,106.2,18.1,0.238,1.67,24.1,0.118,0.217,0.175,14.5,0.5,0.549,0.253,90.16,0.113,2015-12-15T00:00:00,2,DEN,Denver,11-14,27,36,29,20,0,0,0,0,0,0,0,0,0,0,112,0.562,0.741,0.556,24,39,14,0021500368,1610612743,DEN,Denver,Will Barton,,,30:31,4.0,4.0,2.0,8.0,10.0,9.0,4.0,28.0,0.0,1.0,3.0,3.0
0021500368,1610612743,DEN,Denver,203999,Nikola Jokic,,,20:33,119.0,88.3,30.8,0.143,1.0,25.0,0.2,0.059,0.111,25.0,0.75,0.75,0.141,90.11,0.112,2015-12-15T00:00:00,2,DEN,Denver,11-14,27,36,29,20,0,0,0,0,0,0,0,0,0,0,112,0.562,0.741,0.556,24,39,14,0021500368,1610612743,DEN,Denver,Nikola Jokic,,,20:33,0.0,0.0,0.0,6.0,8.0,5.0,4.0,14.0,2.0,0.0,3.0,3.0
0021500368,1610612743,DEN,Denver,203123,Kostas Papanikolaou,,,19:49,123.0,92.7,30.3,0.133,2.0,20.2,0.0,0.118,0.077,10.1,0.5,0.581,0.198,85.12,0.085,2015-12-15T00:00:00,2,DEN,Denver,11-14,27,36,29,20,0,0,0,0,0,0,0,0,0,0,112,0.562,0.741,0.556,24,39,14,0021500368,1610612743,DEN,Denver,Kostas Papanikolaou,,,19:49,0.0,0.0,0.0,4.0,6.0,3.0,4.0,14.0,0.0,1.0,3.0,1.0
0021500368,1610612743,DEN,Denver,2034,Mike Miller,,,9:38,145.4,120.2,25.2,0.182,0.0,66.7,0.0,0.0,0.0,0.0,0.0,0.0,0.048,86.0,0.024,2015-12-15T00:00:00,2,DEN,Denver,11-14,27,36,29,20,0,0,0,0,0,0,0,0,0,0,112,0.562,0.741,0.556,24,39,14,0021500368,1610612743,DEN,Denver,Mike Miller,,,9:38,0.0,0.0,0.0,0.0,2.0,2.0,2.0,12.0,0.0,0.0,1.0,0.0
0021500368,1610612743,DEN,Denver,201581,JJ Hickson,,DNP - Coach's Decision                  ,,,,,,,0.0,,,,,,,0.0,,,2015-12-15T00:00:00,2,DEN,Denver,11-14,27,36,29,20,0,0,0,0,0,0,0,0,0,0,112,0.562,0.741,0.556,24,39,14,0021500368,1610612743,DEN,Denver,JJ Hickson,,DNP - Coach's Decision                  ,,,,,,,,,,,,,
0021500368,1610612750,MIN,Minnesota,203952,Andrew Wiggins,F,,33:52,120.3,129.9,-9.6,0.056,0.33,4.3,0.0,0.045,0.02,12.9,0.559,0.599,0.308,90.09,0.079,2015-12-15T00:00:00,2,MIN,Minnesota,9-15,24,25,31,20,0,0,0,0,0,0,0,0,0,0,100,0.468,0.774,0.4,21,31,9,0021500368,1610612750,MIN,Minnesota,Andrew Wiggins,F,,33:52,0.0,0.0,1.0,12.0,11.0,6.0,5.0,28.0,1.0,0.0,3.0,4.0
0021500368,1610612750,MIN,Minnesota,708,Kevin Garnett,F,,12:43,114.8,132.9,-18.1,0.0,0.0,0.0,0.091,0.429,0.222,0.0,0.667,0.773,0.158,89.83,0.136,2015-12-15T00:00:00,2,MIN,Minnesota,9-15,24,25,31,20,0,0,0,0,0,0,0,0,0,0,100,0.468,0.774,0.4,21,31,9,0021500368,1610612750,MIN,Minnesota,Kevin Garnett,F,,12:43,0.0,0.0,0.0,0.0,2.0,2.0,5.0,12.0,0.0,0.0,2.0,2.0
0021500368,1610612750,MIN,Minnesota,1626157,Karl-Anthony Towns,C,,28:03,112.5,131.2,-18.7,0.077,0.0,8.7,0.154,0.133,0.146,0.0,0.714,0.856,0.18,89.77,0.185,2015-12-15T00:00:00,2,MIN,Minnesota,9-15,24,25,31,20,0,0,0,0,0,0,0,0,0,0,100,0.468,0.774,0.4,21,31,9,0021500368,1610612750,MIN,Minnesota,Karl-Anthony Towns,C,,28:03,2.0,6.0,0.0,10.0,7.0,8.0,5.0,28.0,2.0,0.0,4.0,5.0
0021500368,1610612750,MIN,Minnesota,2755,Kevin Martin,G,,22:05,125.8,150.7,-24.9,0.2,0.0,27.3,0.0,0.0,0.0,0.0,0.125,0.125,0.185,85.47,-0.042,2015-12-15T00:00:00,2,MIN,Minnesota,9-15,24,25,31,20,0,0,0,0,0,0,0,0,0,0,100,0.468,0.774,0.4,21,31,9,0021500368,1610612750,MIN,Minnesota,Kevin Martin,G,,22:05,0.0,0.0,0.0,0.0,4.0,6.0,5.0,24.0,0.0,0.0,2.0,0.0
0021500368,1610612750,MIN,Minnesota,201937,Ricky Rubio,G,,29:44,125.3,132.2,-6.9,0.474,9.0,48.3,0.0,0.222,0.091,5.4,0.667,0.752,0.162,87.11,0.17,2015-12-15T00:00:00,2,MIN,Minnesota,9-15,24,25,31,20,0,0,0,0,0,0,0,0,0,0,100,0.468,0.774,0.4,21,31,9,0021500368,1610612750,MIN,Minnesota,Ricky Rubio,G,,29:44,2.0,0.0,0.0,2.0,7.0,6.0,5.0,26.0,0.0,2.0,1.0,5.0
0021500368,1610612750,MIN,Minnesota,202357,Nemanja Bjelica,,,17:00,105.8,108.3,-2.4,0.0,0.0,0.0,0.143,0.0,0.074,0.0,0.333,0.333,0.077,93.68,-0.028,2015-12-15T00:00:00,2,MIN,Minnesota,9-15,24,25,31,20,0,0,0,0,0,0,0,0,0,0,100,0.468,0.774,0.4,21,31,9,0021500368,1610612750,MIN,Minnesota,Nemanja Bjelica,,,17:00,0.0,0.0,0.0,2.0,9.0,0.0,0.0,4.0,1.0,0.0,3.0,2.0
0021500368,1610612750,MIN,Minnesota,203476,Gorgui Dieng,,,23:03,102.5,110.6,-8.1,0.059,1.0,16.7,0.111,0.438,0.265,16.7,0.5,0.5,0.098,92.92,0.11,2015-12-15T00:00:00,2,MIN,Minnesota,9-15,24,25,31,20,0,0,0,0,0,0,0,0,0,0,100,0.468,0.774,0.4,21,31,9,0021500368,1610612750,MIN,Minnesota,Gorgui Dieng,,,23:03,0.0,0.0,0.0,0.0,11.0,2.0,2.0,16.0,1.0,1.0,4.0,1.0
0021500368,1610612750,MIN,Minnesota,203897,Zach LaVine,,,24:35,95.0,113.6,-18.6,0.556,2.5,18.7,0.045,0.2,0.108,7.5,0.472,0.506,0.392,94.7,0.201,2015-12-15T00:00:00,2,MIN,Minnesota,9-15,24,25,31,20,0,0,0,0,0,0,0,0,0,0,100,0.468,0.774,0.4,21,31,9,0021500368,1610612750,MIN,Minnesota,Zach LaVine,,,24:35,6.0,4.0,5.0,8.0,13.0,4.0,2.0,18.0,1.0,2.0,1.0,3.0
0021500368,1610612750,MIN,Minnesota,2419,Tayshaun Prince,,,11:42,94.3,134.0,-39.7,0.0,0.0,0.0,0.0,0.0,0.0,0.0,1.0,1.0,0.043,96.79,0.052,2015-12-15T00:00:00,2,MIN,Minnesota,9-15,24,25,31,20,0,0,0,0,0,0,0,0,0,0,100,0.468,0.774,0.4,21,31,9,0021500368,1610612750,MIN,Minnesota,Tayshaun Prince,,,11:42,0.0,0.0,0.0,2.0,12.0,0.0,2.0,12.0,0.0,0.0,0.0,0.0
0021500368,1610612750,MIN,Minnesota,203498,Shabazz Muhammad,,,14:08,86.3,112.1,-25.8,0.0,0.0,0.0,0.0,0.0,0.0,25.4,0.2,0.255,0.275,90.68,-0.094,2015-12-15T00:00:00,2,MIN,Minnesota,9-15,24,25,31,20,0,0,0,0,0,0,0,0,0,0,100,0.468,0.774,0.4,21,31,9,0021500368,1610612750,MIN,Minnesota,Shabazz Muhammad,,,14:08,0.0,1.0,0.0,0.0,7.0,2.0,2.0,12.0,0.0,0.0,0.0,2.0
0021500368,1610612750,MIN,Minnesota,204014,Damjan Rudez,,,10:36,112.7,127.3,-14.6,0.0,0.0,0.0,0.0,0.0,0.0,0.0,0.0,0.0,0.0,86.67,-0.024,2015-12-15T00:00:00,2,MIN,Minnesota,9-15,24,25,31,20,0,0,0,0,0,0,0,0,0,0,100,0.468,0.774,0.4,21,31,9,0021500368,1610612750,MIN,Minnesota,Damjan Rudez,,,10:36,0.0,0.0,0.0,0.0,5.0,0.0,2.0,12.0,0.0,0.0,1.0,0.0
0021500368,1610612750,MIN,Minnesota,203940,Adreian Payne,,,3:49,192.3,121.5,70.8,0.0,0.0,0.0,0.0,0.25,0.25,0.0,1.0,0.868,0.426,78.8,0.242,2015-12-15T00:00:00,2,MIN,Minnesota,9-15,24,25,31,20,0,0,0,0,0,0,0,0,0,0,100,0.468,0.774,0.4,21,31,9,0021500368,1610612750,MIN,Minnesota,Adreian Payne,,,3:49,0.0,0.0,0.0,2.0,0.0,2.0,0.0,4.0,0.0,0.0,1.0,1.0
0021500368,1610612750,MIN,Minnesota,1889,Andre Miller,,,8:40,79.4,81.3,-1.9,0.2,0.0,20.5,0.0,0.0,0.0,0.0,0.333,0.258,0.188,89.72,-0.375,2015-12-15T00:00:00,2,MIN,Minnesota,9-15,24,25,31,20,0,0,0,0,0,0,0,0,0,0,100,0.468,0.774,0.4,21,31,9,0021500368,1610612750,MIN,Minnesota,Andre Miller,,,8:40,0.0,0.0,0.0,2.0,2.0,2.0,0.0,4.0,0.0,1.0,2.0,1.0
