GAME_ID_x,TEAM_ID_x,TEAM_ABBREVIATION_x,TEAM_CITY_x,PLAYER_ID,PLAYER_NAME_x,START_POSITION_x,COMMENT_x,MIN_x,OFF_RATING,DEF_RATING,NET_RATING,AST_PCT,AST_TOV,AST_RATIO,OREB_PCT,DREB_PCT,REB_PCT,TM_TOV_PCT,EFG_PCT,TS_PCT,USG_PCT,PACE,PIE,GAME_DATE_EST,GAME_SEQUENCE,TEAM_ABBREVIATION_y,TEAM_CITY_NAME,TEAM_WINS_LOSSES,PTS_QTR1,PTS_QTR2,PTS_QTR3,PTS_QTR4,PTS_OT1,PTS_OT2,PTS_OT3,PTS_OT4,PTS_OT5,PTS_OT6,PTS_OT7,PTS_OT8,PTS_OT9,PTS_OT10,PTS,FG_PCT,FT_PCT,FG3_PCT,AST,REB,TOV,GAME_ID_y,TEAM_ID_y,TEAM_ABBREVIATION,TEAM_CITY_y,PLAYER_NAME_y,START_POSITION_y,COMMENT_y,MIN_y,PTS_OFF_TOV,PTS_2ND_CHANCE,PTS_FB,PTS_PAINT,OPP_PTS_OFF_TOV,OPP_PTS_2ND_CHANCE,OPP_PTS_FB,OPP_PTS_PAINT,BLK,BLKA,PF,PFD
0021500420,1610612765,DET,Detroit,202694,Marcus Morris,F,,33:06,91.7,105.8,-14.1,0.15,0.6,17.9,0.0,0.172,0.089,29.8,0.429,0.457,0.193,91.13,0.04,2015-12-22T00:00:00,2,DET,Detroit,17-12,18,36,18,21,0,0,0,0,0,0,0,0,0,0,93,0.449,0.571,0.5,16,43,16,0021500420,1610612765,DET,Detroit,Marcus Morris,F,,33:06,2.0,0.0,0.0,2.0,19.0,6.0,7.0,40.0,0.0,0.0,1.0,2.0
0021500420,1610612765,DET,Detroit,101141,Ersan Ilyasova,F,,24:00,77.4,127.7,-50.3,0.0,0.0,0.0,0.211,0.2,0.205,22.2,0.429,0.429,0.171,91.16,0.096,2015-12-22T00:00:00,2,DET,Detroit,17-12,18,36,18,21,0,0,0,0,0,0,0,0,0,0,93,0.449,0.571,0.5,16,43,16,0021500420,1610612765,DET,Detroit,Ersan Ilyasova,F,,24:00,0.0,4.0,0.0,6.0,19.0,6.0,7.0,34.0,1.0,1.0,0.0,0.0
0021500420,1610612765,DET,Detroit,203083,Andre Drummond,C,,34:16,96.2,94.6,1.7,0.05,1.0,6.0,0.125,0.267,0.194,6.0,0.333,0.376,0.21,88.11,0.086,2015-12-22T00:00:00,2,DET,Detroit,17-12,18,36,18,21,0,0,0,0,0,0,0,0,0,0,93,0.449,0.571,0.5,16,43,16,0021500420,1610612765,DET,Detroit,Andre Drummond,C,,34:16,0.0,4.0,0.0,8.0,15.0,6.0,7.0,36.0,2.0,1.0,3.0,4.0
0021500420,1610612765,DET,Detroit,203484,Kentavious Caldwell-Pope,G,,40:05,106.4,95.4,11.0,0.125,3.0,16.8,0.026,0.0,0.013,5.6,0.462,0.504,0.174,86.56,0.038,2015-12-22T00:00:00,2,DET,Detroit,17-12,18,36,18,21,0,0,0,0,0,0,0,0,0,0,93,0.449,0.571,0.5,16,43,16,0021500420,1610612765,DET,Detroit,Kentavious Caldwell-Pope,G,,40:05,0.0,0.0,3.0,0.0,9.0,11.0,5.0,38.0,0.0,0.0,4.0,1.0
0021500420,1610612765,DET,Detroit,202704,Reggie Jackson,G,,30:50,96.2,95.7,0.4,0.2,1.0,13.6,0.067,0.103,0.085,13.6,0.563,0.563,0.27,90.04,0.171,2015-12-22T00:00:00,2,DET,Detroit,17-12,18,36,18,21,0,0,0,0,0,0,0,0,0,0,93,0.449,0.571,0.5,16,43,16,0021500420,1610612765,DET,Detroit,Reggie Jackson,G,,30:50,5.0,2.0,0.0,10.0,11.0,8.0,5.0,36.0,0.0,3.0,1.0,2.0
0021500420,1610612765,DET,Detroit,203382,Aron Baynes,,,13:44,129.2,132.6,-3.4,0.0,0.0,0.0,0.0,0.083,0.048,20.5,0.0,0.129,0.189,86.75,-0.046,2015-12-22T00:00:00,2,DET,Detroit,17-12,18,36,18,21,0,0,0,0,0,0,0,0,0,0,93,0.449,0.571,0.5,16,43,16,0021500420,1610612765,DET,Detroit,Aron Baynes,,,13:44,0.0,0.0,0.0,0.0,4.0,5.0,2.0,14.0,0.0,1.0,0.0,1.0
0021500420,1610612765,DET,Detroit,1626169,Stanley Johnson,,,22:56,123.0,119.4,3.6,0.231,1.5,20.0,0.0,0.235,0.121,13.3,0.7,0.7,0.269,86.35,0.147,2015-12-22T00:00:00,2,DET,Detroit,17-12,18,36,18,21,0,0,0,0,0,0,0,0,0,0,93,0.449,0.571,0.5,16,43,16,0021500420,1610612765,DET,Detroit,Stanley Johnson,,,22:56,0.0,0.0,0.0,2.0,10.0,5.0,6.0,22.0,0.0,1.0,0.0,0.0
0021500420,1610612765,DET,Detroit,2581,Steve Blake,,,17:10,124.7,123.1,1.6,0.25,2.0,25.0,0.091,0.077,0.083,12.5,1.2,1.2,0.201,83.55,0.163,2015-12-22T00:00:00,2,DET,Detroit,17-12,18,36,18,21,0,0,0,0,0,0,0,0,0,0,93,0.449,0.571,0.5,16,43,16,0021500420,1610612765,DET,Detroit,Steve Blake,,,17:10,0.0,3.0,0.0,0.0,8.0,3.0,4.0,14.0,0.0,0.0,1.0,0.0
0021500420,1610612765,DET,Detroit,201229,Anthony Tolliver,,,23:53,139.8,84.1,55.8,0.056,0.0,16.7,0.0,0.238,0.116,0.0,0.9,0.9,0.107,82.81,0.156,2015-12-22T00:00:00,2,DET,Detroit,17-12,18,36,18,21,0,0,0,0,0,0,0,0,0,0,93,0.449,0.571,0.5,16,43,16,0021500420,1610612765,DET,Detroit,Anthony Tolliver,,,23:53,0.0,3.0,0.0,0.0,0.0,5.0,2.0,16.0,0.0,0.0,1.0,2.0
0021500420,1610612765,DET,Detroit,201202,Joel Anthony,,DNP - Coach's Decision                  ,,,,,,,0.0,,,,,,,0.0,,,2015-12-22T00:00:00,2,DET,Detroit,17-12,18,36,18,21,0,0,0,0,0,0,0,0,0,0,93,0.449,0.571,0.5,16,43,16,0021500420,1610612765,DET,Detroit,Joel Anthony,,DNP - Coach's Decision                  ,,,,,,,,,,,,,
0021500420,1610612765,DET,Detroit,203493,Reggie Bullock,,DNP - Coach's Decision                  ,,,,,,,0.0,,,,,,,0.0,,,2015-12-22T00:00:00,2,DET,Detroit,17-12,18,36,18,21,0,0,0,0,0,0,0,0,0,0,93,0.449,0.571,0.5,16,43,16,0021500420,1610612765,DET,Detroit,Reggie Bullock,,DNP - Coach's Decision                  ,,,,,,,,,,,,,
0021500420,1610612765,DET,Detroit,1626199,Darrun Hilliard,,DNP - Coach's Decision                  ,,,,,,,0.0,,,,,,,0.0,,,2015-12-22T00:00:00,2,DET,Detroit,17-12,18,36,18,21,0,0,0,0,0,0,0,0,0,0,93,0.449,0.571,0.5,16,43,16,0021500420,1610612765,DET,Detroit,Darrun Hilliard,,DNP - Coach's Decision                  ,,,,,,,,,,,,,
0021500420,1610612765,DET,Detroit,201943,Brandon Jennings,,DNP - Coach's Decision                  ,,,,,,,0.0,,,,,,,0.0,,,2015-12-22T00:00:00,2,DET,Detroit,17-12,18,36,18,21,0,0,0,0,0,0,0,0,0,0,93,0.449,0.571,0.5,16,43,16,0021500420,1610612765,DET,Detroit,Brandon Jennings,,DNP - Coach's Decision                  ,,,,,,,,,,,,,
0021500420,1610612748,MIA,Miami,2736,Luol Deng,F,,33:29,108.6,93.3,15.3,0.037,1.0,8.5,0.0,0.138,0.069,8.5,0.375,0.461,0.15,91.6,0.105,2015-12-22T00:00:00,2,MIA,Miami,16-11,34,18,23,17,0,0,0,0,0,0,0,0,0,0,92,0.443,0.833,0.222,13,40,5,0021500420,1610612748,MIA,Miami,Luol Deng,F,,33:29,3.0,0.0,5.0,4.0,7.0,10.0,3.0,28.0,0.0,1.0,1.0,2.0
0021500420,1610612748,MIA,Miami,2547,Chris Bosh,F,,33:35,117.6,104.2,13.4,0.095,2.0,8.3,0.0,0.111,0.057,4.2,0.476,0.476,0.331,85.07,0.076,2015-12-22T00:00:00,2,MIA,Miami,16-11,34,18,23,17,0,0,0,0,0,0,0,0,0,0,92,0.443,0.833,0.222,13,40,5,0021500420,1610612748,MIA,Miami,Chris Bosh,F,,33:35,6.0,0.0,0.0,8.0,2.0,10.0,0.0,12.0,0.0,0.0,3.0,0.0
0021500420,1610612748,MIA,Miami,202355,Hassan Whiteside,C,,35:17,102.8,97.9,4.9,0.0,0.0,0.0,0.188,0.286,0.239,12.6,0.538,0.576,0.22,86.87,0.208,2015-12-22T00:00:00,2,MIA,Miami,16-11,34,18,23,17,0,0,0,0,0,0,0,0,0,0,92,0.443,0.833,0.222,13,40,5,0021500420,1610612748,MIA,Miami,Hassan Whiteside,C,,35:17,2.0,2.0,0.0,14.0,7.0,10.0,3.0,24.0,4.0,1.0,2.0,3.0
0021500420,1610612748,MIA,Miami,2548,Dwyane Wade,G,,28:53,93.6,95.7,-2.0,0.077,0.0,4.2,0.071,0.103,0.088,0.0,0.381,0.417,0.371,90.41,0.145,2015-12-22T00:00:00,2,MIA,Miami,16-11,34,18,23,17,0,0,0,0,0,0,0,0,0,0,92,0.443,0.833,0.222,13,40,5,0021500420,1610612748,MIA,Miami,Dwyane Wade,G,,28:53,0.0,4.0,0.0,14.0,7.0,10.0,3.0,26.0,0.0,1.0,0.0,4.0
0021500420,1610612748,MIA,Miami,2757,Beno Udrih,G,,33:58,108.7,88.8,19.8,0.261,0.0,35.3,0.033,0.067,0.05,0.0,0.636,0.636,0.152,91.65,0.143,2015-12-22T00:00:00,2,MIA,Miami,16-11,34,18,23,17,0,0,0,0,0,0,0,0,0,0,92,0.443,0.833,0.222,13,40,5,0021500420,1610612748,MIA,Miami,Beno Udrih,G,,33:58,6.0,2.0,2.0,8.0,7.0,8.0,3.0,24.0,0.0,0.0,4.0,0.0
0021500420,1610612748,MIA,Miami,1626159,Justise Winslow,,,24:49,109.3,107.4,1.9,0.0,0.0,0.0,0.0,0.059,0.025,33.3,0.5,0.5,0.057,88.39,0.032,2015-12-22T00:00:00,2,MIA,Miami,16-11,34,18,23,17,0,0,0,0,0,0,0,0,0,0,92,0.443,0.833,0.222,13,40,5,0021500420,1610612748,MIA,Miami,Justise Winslow,,,24:49,2.0,0.0,2.0,2.0,2.0,6.0,0.0,10.0,0.0,0.0,1.0,0.0
0021500420,1610612748,MIA,Miami,101123,Gerald Green,,,29:12,102.5,120.3,-17.8,0.05,0.0,14.3,0.042,0.125,0.083,0.0,0.667,0.667,0.106,86.42,0.102,2015-12-22T00:00:00,2,MIA,Miami,16-11,34,18,23,17,0,0,0,0,0,0,0,0,0,0,92,0.443,0.833,0.222,13,40,5,0021500420,1610612748,MIA,Miami,Gerald Green,,,29:12,0.0,3.0,0.0,0.0,3.0,12.0,3.0,12.0,3.0,0.0,0.0,0.0
0021500420,1610612748,MIA,Miami,1626196,Josh Richardson,,,14:02,96.2,153.0,-56.8,0.25,0.0,29.1,0.083,0.1,0.091,0.0,0.25,0.41,0.189,78.29,0.063,2015-12-22T00:00:00,2,MIA,Miami,16-11,34,18,23,17,0,0,0,0,0,0,0,0,0,0,92,0.443,0.833,0.222,13,40,5,0021500420,1610612748,MIA,Miami,Josh Richardson,,,14:02,0.0,0.0,0.0,0.0,0.0,8.0,0.0,4.0,0.0,0.0,1.0,1.0
0021500420,1610612748,MIA,Miami,2617,Udonis Haslem,,,6:46,90.9,202.2,-111.3,0.0,0.0,0.0,0.0,0.5,0.2,0.0,0.0,0.0,0.167,77.6,0.0,2015-12-22T00:00:00,2,MIA,Miami,16-11,34,18,23,17,0,0,0,0,0,0,0,0,0,0,92,0.443,0.833,0.222,13,40,5,0021500420,1610612748,MIA,Miami,Udonis Haslem,,,6:46,0.0,0.0,0.0,0.0,0.0,6.0,0.0,0.0,0.0,0.0,0.0,1.0
0021500420,1610612748,MIA,Miami,2365,Chris Andersen,,DNP - Coach's Decision                  ,,,,,,,0.0,,,,,,,0.0,,,2015-12-22T00:00:00,2,MIA,Miami,16-11,34,18,23,17,0,0,0,0,0,0,0,0,0,0,92,0.443,0.833,0.222,13,40,5,0021500420,1610612748,MIA,Miami,Chris Andersen,,DNP - Coach's Decision                  ,,,,,,,,,,,,,
0021500420,1610612748,MIA,Miami,203950,Jarnell Stokes,,DNP - Coach's Decision                  ,,,,,,,0.0,,,,,,,0.0,,,2015-12-22T00:00:00,2,MIA,Miami,16-11,34,18,23,17,0,0,0,0,0,0,0,0,0,0,92,0.443,0.833,0.222,13,40,5,0021500420,1610612748,MIA,Miami,Jarnell Stokes,,DNP - Coach's Decision                  ,,,,,,,,,,,,,
0021500420,1610612748,MIA,Miami,2405,Amar'e Stoudemire,,DNP - Coach's Decision                  ,,,,,,,0.0,,,,,,,0.0,,,2015-12-22T00:00:00,2,MIA,Miami,16-11,34,18,23,17,0,0,0,0,0,0,0,0,0,0,92,0.443,0.833,0.222,13,40,5,0021500420,1610612748,MIA,Miami,Amar'e Stoudemire,,DNP - Coach's Decision                  ,,,,,,,,,,,,,
