GAME_ID_x,TEAM_ID_x,TEAM_ABBREVIATION_x,TEAM_CITY_x,PLAYER_ID,PLAYER_NAME_x,START_POSITION_x,COMMENT_x,MIN_x,OFF_RATING,DEF_RATING,NET_RATING,AST_PCT,AST_TOV,AST_RATIO,OREB_PCT,DREB_PCT,REB_PCT,TM_TOV_PCT,EFG_PCT,TS_PCT,USG_PCT,PACE,PIE,GAME_DATE_EST,GAME_SEQUENCE,TEAM_ABBREVIATION_y,TEAM_CITY_NAME,TEAM_WINS_LOSSES,PTS_QTR1,PTS_QTR2,PTS_QTR3,PTS_QTR4,PTS_OT1,PTS_OT2,PTS_OT3,PTS_OT4,PTS_OT5,PTS_OT6,PTS_OT7,PTS_OT8,PTS_OT9,PTS_OT10,PTS,FG_PCT,FT_PCT,FG3_PCT,AST,REB,TOV,GAME_ID_y,TEAM_ID_y,TEAM_ABBREVIATION,TEAM_CITY_y,PLAYER_NAME_y,START_POSITION_y,COMMENT_y,MIN_y,PTS_OFF_TOV,PTS_2ND_CHANCE,PTS_FB,PTS_PAINT,OPP_PTS_OFF_TOV,OPP_PTS_2ND_CHANCE,OPP_PTS_FB,OPP_PTS_PAINT,BLK,BLKA,PF,PFD
0021500425,1610612758,SAC,Sacramento,201956,Omri Casspi,F,,41:18,102.0,105.7,-3.7,0.0,0.0,0.0,0.0,0.25,0.139,7.8,0.636,0.631,0.133,103.55,0.09,2015-12-23T00:00:00,3,SAC,Sacramento,12-17,30,34,20,24,0,0,0,0,0,0,0,0,0,0,108,0.517,0.75,0.174,28,49,16,0021500425,1610612758,SAC,Sacramento,Omri Casspi,F,,41:18,5.0,3.0,5.0,8.0,24.0,8.0,10.0,38.0,0.0,1.0,4.0,1.0
0021500425,1610612758,SAC,Sacramento,200752,Rudy Gay,F,,34:30,95.3,107.9,-12.6,0.087,0.0,10.6,0.038,0.056,0.048,0.0,0.563,0.563,0.204,108.27,0.11,2015-12-23T00:00:00,3,SAC,Sacramento,12-17,30,34,20,24,0,0,0,0,0,0,0,0,0,0,108,0.517,0.75,0.174,28,49,16,0021500425,1610612758,SAC,Sacramento,Rudy Gay,F,,34:30,2.0,2.0,2.0,12.0,26.0,4.0,10.0,28.0,1.0,0.0,1.0,3.0
0021500425,1610612758,SAC,Sacramento,202326,DeMarcus Cousins,C,,35:06,97.2,110.3,-13.1,0.043,0.2,3.4,0.094,0.351,0.232,17.0,0.421,0.534,0.342,105.52,0.152,2015-12-23T00:00:00,3,SAC,Sacramento,12-17,30,34,20,24,0,0,0,0,0,0,0,0,0,0,108,0.517,0.75,0.174,28,49,16,0021500425,1610612758,SAC,Sacramento,DeMarcus Cousins,C,,35:06,2.0,6.0,2.0,16.0,24.0,6.0,10.0,32.0,3.0,1.0,2.0,9.0
0021500425,1610612758,SAC,Sacramento,203463,Ben McLemore,G,,12:48,80.0,129.2,-49.2,0.0,0.0,0.0,0.0,0.154,0.074,0.0,0.25,0.25,0.109,117.0,0.0,2015-12-23T00:00:00,3,SAC,Sacramento,12-17,30,34,20,24,0,0,0,0,0,0,0,0,0,0,108,0.517,0.75,0.174,28,49,16,0021500425,1610612758,SAC,Sacramento,Ben McLemore,G,,12:48,0.0,0.0,2.0,2.0,13.0,4.0,9.0,8.0,0.0,0.0,1.0,0.0
0021500425,1610612758,SAC,Sacramento,200765,Rajon Rondo,G,,37:06,94.4,106.3,-11.9,0.607,1.89,46.1,0.036,0.184,0.121,24.4,0.6,0.597,0.227,106.51,0.139,2015-12-23T00:00:00,3,SAC,Sacramento,12-17,30,34,20,24,0,0,0,0,0,0,0,0,0,0,108,0.517,0.75,0.174,28,49,16,0021500425,1610612758,SAC,Sacramento,Rajon Rondo,G,,37:06,0.0,2.0,3.0,10.0,26.0,6.0,10.0,28.0,0.0,1.0,3.0,2.0
0021500425,1610612758,SAC,Sacramento,201954,Darren Collison,,,35:12,112.1,93.0,19.0,0.217,5.0,21.7,0.0,0.111,0.067,4.3,0.706,0.706,0.239,99.85,0.175,2015-12-23T00:00:00,3,SAC,Sacramento,12-17,30,34,20,24,0,0,0,0,0,0,0,0,0,0,108,0.517,0.75,0.174,28,49,16,0021500425,1610612758,SAC,Sacramento,Darren Collison,,,35:12,2.0,0.0,7.0,12.0,13.0,4.0,1.0,36.0,0.0,1.0,1.0,1.0
0021500425,1610612758,SAC,Sacramento,201158,Marco Belinelli,,,20:50,115.7,94.2,21.5,0.158,0.0,33.3,0.0,0.111,0.061,0.0,0.5,0.5,0.133,99.9,0.076,2015-12-23T00:00:00,3,SAC,Sacramento,12-17,30,34,20,24,0,0,0,0,0,0,0,0,0,0,108,0.517,0.75,0.174,28,49,16,0021500425,1610612758,SAC,Sacramento,Marco Belinelli,,,20:50,0.0,0.0,0.0,0.0,2.0,4.0,0.0,22.0,0.0,0.0,1.0,0.0
0021500425,1610612758,SAC,Sacramento,201585,Kosta Koufos,,,18:35,114.4,85.0,29.4,0.0,0.0,0.0,0.077,0.111,0.097,0.0,0.4,0.4,0.116,100.53,0.02,2015-12-23T00:00:00,3,SAC,Sacramento,12-17,30,34,20,24,0,0,0,0,0,0,0,0,0,0,108,0.517,0.75,0.174,28,49,16,0021500425,1610612758,SAC,Sacramento,Kosta Koufos,,,18:35,2.0,0.0,0.0,4.0,2.0,4.0,0.0,22.0,0.0,0.0,3.0,0.0
0021500425,1610612758,SAC,Sacramento,203552,Seth Curry,,,4:35,144.4,66.7,77.8,0.0,0.0,0.0,0.0,0.0,0.0,0.0,0.0,0.0,0.111,94.25,0.0,2015-12-23T00:00:00,3,SAC,Sacramento,12-17,30,34,20,24,0,0,0,0,0,0,0,0,0,0,108,0.517,0.75,0.174,28,49,16,0021500425,1610612758,SAC,Sacramento,Seth Curry,,,4:35,0.0,0.0,0.0,0.0,0.0,0.0,0.0,6.0,0.0,0.0,0.0,0.0
0021500425,1610612758,SAC,Sacramento,203112,Quincy Acy,,DNP - Coach's Decision                  ,,,,,,,0.0,,,,,,,0.0,,,2015-12-23T00:00:00,3,SAC,Sacramento,12-17,30,34,20,24,0,0,0,0,0,0,0,0,0,0,108,0.517,0.75,0.174,28,49,16,0021500425,1610612758,SAC,Sacramento,Quincy Acy,,DNP - Coach's Decision                  ,,,,,,,,,,,,,
0021500425,1610612758,SAC,Sacramento,202341,James Anderson,,DNP - Coach's Decision                  ,,,,,,,0.0,,,,,,,0.0,,,2015-12-23T00:00:00,3,SAC,Sacramento,12-17,30,34,20,24,0,0,0,0,0,0,0,0,0,0,108,0.517,0.75,0.174,28,49,16,0021500425,1610612758,SAC,Sacramento,James Anderson,,DNP - Coach's Decision                  ,,,,,,,,,,,,,
0021500425,1610612758,SAC,Sacramento,2406,Caron Butler,,DNP - Coach's Decision                  ,,,,,,,0.0,,,,,,,0.0,,,2015-12-23T00:00:00,3,SAC,Sacramento,12-17,30,34,20,24,0,0,0,0,0,0,0,0,0,0,108,0.517,0.75,0.174,28,49,16,0021500425,1610612758,SAC,Sacramento,Caron Butler,,DNP - Coach's Decision                  ,,,,,,,,,,,,,
0021500425,1610612754,IND,Indiana,101139,CJ Miles,F,,30:52,108.8,91.6,17.1,0.15,0.0,15.2,0.03,0.074,0.05,0.0,0.6,0.597,0.236,107.21,0.127,2015-12-23T00:00:00,3,IND,Indiana,16-12,27,22,33,24,0,0,0,0,0,0,0,0,0,0,106,0.461,0.6,0.375,20,38,11,0021500425,1610612754,IND,Indiana,CJ Miles,F,,30:52,5.0,0.0,0.0,6.0,4.0,9.0,11.0,44.0,1.0,1.0,1.0,3.0
0021500425,1610612754,IND,Indiana,202331,Paul George,F,,40:16,109.2,98.1,11.1,0.156,1.67,17.4,0.0,0.313,0.133,10.4,0.289,0.289,0.256,105.28,0.046,2015-12-23T00:00:00,3,IND,Indiana,16-12,27,22,33,24,0,0,0,0,0,0,0,0,0,0,106,0.461,0.6,0.375,20,38,11,0021500425,1610612754,IND,Indiana,Paul George,F,,40:16,0.0,0.0,0.0,2.0,4.0,9.0,15.0,54.0,0.0,1.0,3.0,2.0
0021500425,1610612754,IND,Indiana,101133,Ian Mahinmi,C,,27:45,114.2,92.5,21.7,0.0,0.0,0.0,0.033,0.208,0.111,14.8,0.75,0.781,0.107,109.08,0.064,2015-12-23T00:00:00,3,IND,Indiana,16-12,27,22,33,24,0,0,0,0,0,0,0,0,0,0,106,0.461,0.6,0.375,20,38,11,0021500425,1610612754,IND,Indiana,Ian Mahinmi,C,,27:45,2.0,2.0,0.0,6.0,2.0,9.0,9.0,40.0,1.0,0.0,5.0,4.0
0021500425,1610612754,IND,Indiana,101145,Monta Ellis,G,,37:18,108.5,92.0,16.6,0.231,6.0,27.6,0.026,0.033,0.029,4.6,0.731,0.711,0.179,107.22,0.138,2015-12-23T00:00:00,3,IND,Indiana,16-12,27,22,33,24,0,0,0,0,0,0,0,0,0,0,106,0.461,0.6,0.375,20,38,11,0021500425,1610612754,IND,Indiana,Monta Ellis,G,,37:18,9.0,2.0,5.0,8.0,8.0,9.0,14.0,52.0,0.0,1.0,2.0,4.0
0021500425,1610612754,IND,Indiana,201588,George Hill,G,,38:51,109.7,102.2,7.5,0.185,0.0,25.2,0.0,0.121,0.055,0.0,0.643,0.672,0.171,103.29,0.135,2015-12-23T00:00:00,3,IND,Indiana,16-12,27,22,33,24,0,0,0,0,0,0,0,0,0,0,106,0.461,0.6,0.375,20,38,11,0021500425,1610612754,IND,Indiana,George Hill,G,,38:51,8.0,0.0,5.0,4.0,7.0,11.0,16.0,48.0,0.0,0.0,2.0,1.0
0021500425,1610612754,IND,Indiana,201155,Rodney Stuckey,,,19:51,78.7,120.4,-41.6,0.0,0.0,0.0,0.0,0.308,0.125,25.3,0.125,0.225,0.279,101.37,-0.036,2015-12-23T00:00:00,3,IND,Indiana,16-12,27,22,33,24,0,0,0,0,0,0,0,0,0,0,106,0.461,0.6,0.375,20,38,11,0021500425,1610612754,IND,Indiana,Rodney Stuckey,,,19:51,0.0,2.0,0.0,2.0,11.0,6.0,12.0,28.0,0.0,0.0,1.0,1.0
0021500425,1610612754,IND,Indiana,202730,Lavoy Allen,,,10:51,86.8,111.6,-24.7,0.0,0.0,0.0,0.273,0.125,0.211,14.3,0.5,0.5,0.281,101.93,0.111,2015-12-23T00:00:00,3,IND,Indiana,16-12,27,22,33,24,0,0,0,0,0,0,0,0,0,0,106,0.461,0.6,0.375,20,38,11,0021500425,1610612754,IND,Indiana,Lavoy Allen,,,10:51,0.0,2.0,0.0,6.0,7.0,4.0,8.0,12.0,1.0,1.0,1.0,1.0
0021500425,1610612754,IND,Indiana,201941,Jordan Hill,,,20:15,86.7,116.5,-29.8,0.0,0.0,0.0,0.0,0.357,0.152,18.2,0.778,0.778,0.242,98.04,0.18,2015-12-23T00:00:00,3,IND,Indiana,16-12,27,22,33,24,0,0,0,0,0,0,0,0,0,0,106,0.461,0.6,0.375,20,38,11,0021500425,1610612754,IND,Indiana,Jordan Hill,,,20:15,2.0,0.0,0.0,10.0,11.0,4.0,12.0,24.0,1.0,0.0,1.0,0.0
0021500425,1610612754,IND,Indiana,201978,Chase Budinger,,,14:01,82.9,129.6,-46.8,0.1,0.0,50.0,0.0,0.0,0.0,0.0,0.0,0.0,0.035,97.74,0.016,2015-12-23T00:00:00,3,IND,Indiana,16-12,27,22,33,24,0,0,0,0,0,0,0,0,0,0,106,0.461,0.6,0.375,20,38,11,0021500425,1610612754,IND,Indiana,Chase Budinger,,,14:01,0.0,0.0,0.0,0.0,11.0,4.0,8.0,18.0,0.0,0.0,0.0,0.0
0021500425,1610612754,IND,Indiana,203524,Solomon Hill,,DNP - Coach's Decision                  ,,,,,,,0.0,,,,,,,0.0,,,2015-12-23T00:00:00,3,IND,Indiana,16-12,27,22,33,24,0,0,0,0,0,0,0,0,0,0,106,0.461,0.6,0.375,20,38,11,0021500425,1610612754,IND,Indiana,Solomon Hill,,DNP - Coach's Decision                  ,,,,,,,,,,,,,
0021500425,1610612754,IND,Indiana,203922,Glenn Robinson III,,DNP - Coach's Decision                  ,,,,,,,0.0,,,,,,,0.0,,,2015-12-23T00:00:00,3,IND,Indiana,16-12,27,22,33,24,0,0,0,0,0,0,0,0,0,0,106,0.461,0.6,0.375,20,38,11,0021500425,1610612754,IND,Indiana,Glenn Robinson III,,DNP - Coach's Decision                  ,,,,,,,,,,,,,
0021500425,1610612754,IND,Indiana,1626167,Myles Turner,,"DND - Chip Fracture, Left Thumb         ",,,,,,,0.0,,,,,,,0.0,,,2015-12-23T00:00:00,3,IND,Indiana,16-12,27,22,33,24,0,0,0,0,0,0,0,0,0,0,106,0.461,0.6,0.375,20,38,11,0021500425,1610612754,IND,Indiana,Myles Turner,,"DND - Chip Fracture, Left Thumb         ",,,,,,,,,,,,,
0021500425,1610612754,IND,Indiana,1626202,Joe Young,,DNP - Coach's Decision                  ,,,,,,,0.0,,,,,,,0.0,,,2015-12-23T00:00:00,3,IND,Indiana,16-12,27,22,33,24,0,0,0,0,0,0,0,0,0,0,106,0.461,0.6,0.375,20,38,11,0021500425,1610612754,IND,Indiana,Joe Young,,DNP - Coach's Decision                  ,,,,,,,,,,,,,
