GAME_ID_x,TEAM_ID_x,TEAM_ABBREVIATION_x,TEAM_CITY_x,PLAYER_ID,PLAYER_NAME_x,START_POSITION_x,COMMENT_x,MIN_x,OFF_RATING,DEF_RATING,NET_RATING,AST_PCT,AST_TOV,AST_RATIO,OREB_PCT,DREB_PCT,REB_PCT,TM_TOV_PCT,EFG_PCT,TS_PCT,USG_PCT,PACE,PIE,GAME_DATE_EST,GAME_SEQUENCE,TEAM_ABBREVIATION_y,TEAM_CITY_NAME,TEAM_WINS_LOSSES,PTS_QTR1,PTS_QTR2,PTS_QTR3,PTS_QTR4,PTS_OT1,PTS_OT2,PTS_OT3,PTS_OT4,PTS_OT5,PTS_OT6,PTS_OT7,PTS_OT8,PTS_OT9,PTS_OT10,PTS,FG_PCT,FT_PCT,FG3_PCT,AST,REB,TOV,GAME_ID_y,TEAM_ID_y,TEAM_ABBREVIATION,TEAM_CITY_y,PLAYER_NAME_y,START_POSITION_y,COMMENT_y,MIN_y,PTS_OFF_TOV,PTS_2ND_CHANCE,PTS_FB,PTS_PAINT,OPP_PTS_OFF_TOV,OPP_PTS_2ND_CHANCE,OPP_PTS_FB,OPP_PTS_PAINT,BLK,BLKA,PF,PFD
0021500435,1610612760,OKC,Oklahoma City,201142,Kevin Durant,F,,27:40,136.5,68.1,68.4,0.192,1.67,25.5,0.0,0.206,0.135,15.3,0.833,0.902,0.22,100.52,0.262,2015-12-23T00:00:00,13,OKC,Oklahoma City,20-9,27,30,35,28,0,0,0,0,0,0,0,0,0,0,120,0.537,0.765,0.263,23,61,15,0021500435,1610612760,OKC,Oklahoma City,Kevin Durant,F,,27:40,3.0,0.0,8.0,8.0,7.0,12.0,2.0,12.0,3.0,0.0,4.0,4.0
0021500435,1610612760,OKC,Oklahoma City,201586,Serge Ibaka,F,,26:10,142.2,72.8,69.4,0.0,0.0,0.0,0.063,0.182,0.143,14.9,0.727,0.743,0.216,98.84,0.181,2015-12-23T00:00:00,13,OKC,Oklahoma City,20-9,27,30,35,28,0,0,0,0,0,0,0,0,0,0,120,0.537,0.765,0.263,23,61,15,0021500435,1610612760,OKC,Oklahoma City,Serge Ibaka,F,,26:10,4.0,3.0,5.0,8.0,5.0,12.0,0.0,8.0,2.0,0.0,2.0,2.0
0021500435,1610612760,OKC,Oklahoma City,203500,Steven Adams,C,,24:36,142.3,69.3,73.0,0.036,0.5,11.8,0.133,0.161,0.152,23.7,0.6,0.551,0.125,102.13,0.088,2015-12-23T00:00:00,13,OKC,Oklahoma City,20-9,27,30,35,28,0,0,0,0,0,0,0,0,0,0,120,0.537,0.765,0.263,23,61,15,0021500435,1610612760,OKC,Oklahoma City,Steven Adams,C,,24:36,0.0,0.0,0.0,6.0,5.0,12.0,0.0,8.0,2.0,1.0,2.0,4.0
0021500435,1610612760,OKC,Oklahoma City,203460,Andre Roberson,G,,26:30,140.7,62.3,78.4,0.115,3.0,21.6,0.182,0.081,0.119,7.2,0.778,0.759,0.16,100.31,0.247,2015-12-23T00:00:00,13,OKC,Oklahoma City,20-9,27,30,35,28,0,0,0,0,0,0,0,0,0,0,120,0.537,0.765,0.263,23,61,15,0021500435,1610612760,OKC,Oklahoma City,Andre Roberson,G,,26:30,0.0,5.0,4.0,14.0,2.0,9.0,3.0,12.0,4.0,1.0,1.0,1.0
0021500435,1610612760,OKC,Oklahoma City,201566,Russell Westbrook,G,,29:33,134.2,80.9,53.3,0.32,4.0,25.6,0.13,0.139,0.136,6.4,0.526,0.542,0.315,102.04,0.219,2015-12-23T00:00:00,13,OKC,Oklahoma City,20-9,27,30,35,28,0,0,0,0,0,0,0,0,0,0,120,0.537,0.765,0.263,23,61,15,0021500435,1610612760,OKC,Oklahoma City,Russell Westbrook,G,,29:33,5.0,4.0,6.0,16.0,7.0,12.0,5.0,16.0,0.0,1.0,2.0,4.0
0021500435,1610612760,OKC,Oklahoma City,2555,Nick Collison,,,17:48,86.0,98.0,-12.0,0.0,0.0,0.0,0.087,0.316,0.19,20.0,0.5,0.5,0.108,99.67,0.122,2015-12-23T00:00:00,13,OKC,Oklahoma City,20-9,27,30,35,28,0,0,0,0,0,0,0,0,0,0,120,0.537,0.765,0.263,23,61,15,0021500435,1610612760,OKC,Oklahoma City,Nick Collison,,,17:48,2.0,2.0,0.0,4.0,6.0,2.0,5.0,14.0,0.0,0.0,1.0,0.0
0021500435,1610612760,OKC,Oklahoma City,203079,Dion Waiters,,,16:23,78.7,97.3,-18.6,0.091,0.5,9.1,0.0,0.059,0.026,18.2,0.125,0.125,0.236,101.49,-0.132,2015-12-23T00:00:00,13,OKC,Oklahoma City,20-9,27,30,35,28,0,0,0,0,0,0,0,0,0,0,120,0.537,0.765,0.263,23,61,15,0021500435,1610612760,OKC,Oklahoma City,Dion Waiters,,,16:23,2.0,0.0,0.0,2.0,6.0,2.0,5.0,14.0,0.0,0.0,2.0,0.0
0021500435,1610612760,OKC,Oklahoma City,202683,Enes Kanter,,,21:40,89.1,104.4,-15.2,0.0,0.0,0.0,0.231,0.238,0.234,14.3,0.667,0.667,0.251,98.54,0.217,2015-12-23T00:00:00,13,OKC,Oklahoma City,20-9,27,30,35,28,0,0,0,0,0,0,0,0,0,0,120,0.537,0.765,0.263,23,61,15,0021500435,1610612760,OKC,Oklahoma City,Enes Kanter,,,21:40,0.0,8.0,2.0,12.0,8.0,2.0,7.0,24.0,2.0,1.0,2.0,1.0
0021500435,1610612760,OKC,Oklahoma City,201571,D.J. Augustin,,,10:10,80.5,84.7,-4.2,0.571,0.0,68.0,0.0,0.0,0.0,0.0,0.0,0.532,0.09,94.33,0.2,2015-12-23T00:00:00,13,OKC,Oklahoma City,20-9,27,30,35,28,0,0,0,0,0,0,0,0,0,0,120,0.537,0.765,0.263,23,61,15,0021500435,1610612760,OKC,Oklahoma City,D.J. Augustin,,,10:10,0.0,0.0,0.0,0.0,1.0,2.0,0.0,4.0,0.0,0.0,0.0,2.0
0021500435,1610612760,OKC,Oklahoma City,201627,Anthony Morrow,,,19:24,95.3,123.4,-28.1,0.0,0.0,0.0,0.0,0.125,0.059,0.0,0.313,0.313,0.171,96.45,0.0,2015-12-23T00:00:00,13,OKC,Oklahoma City,20-9,27,30,35,28,0,0,0,0,0,0,0,0,0,0,120,0.537,0.765,0.263,23,61,15,0021500435,1610612760,OKC,Oklahoma City,Anthony Morrow,,,19:24,0.0,0.0,0.0,2.0,9.0,5.0,2.0,16.0,0.0,0.0,1.0,0.0
0021500435,1610612760,OKC,Oklahoma City,1626166,Cameron Payne,,,8:34,111.1,117.6,-6.5,0.143,0.0,16.7,0.0,0.2,0.063,0.0,0.5,0.5,0.2,98.05,0.16,2015-12-23T00:00:00,13,OKC,Oklahoma City,20-9,27,30,35,28,0,0,0,0,0,0,0,0,0,0,120,0.537,0.765,0.263,23,61,15,0021500435,1610612760,OKC,Oklahoma City,Cameron Payne,,,8:34,0.0,0.0,0.0,2.0,5.0,0.0,2.0,12.0,0.0,0.0,0.0,0.0
0021500435,1610612760,OKC,Oklahoma City,202713,Kyle Singler,,,5:46,133.3,118.2,15.2,0.0,0.0,0.0,0.25,0.25,0.25,0.0,0.333,0.333,0.2,95.72,0.055,2015-12-23T00:00:00,13,OKC,Oklahoma City,20-9,27,30,35,28,0,0,0,0,0,0,0,0,0,0,120,0.537,0.765,0.263,23,61,15,0021500435,1610612760,OKC,Oklahoma City,Kyle Singler,,,5:46,2.0,0.0,2.0,2.0,2.0,0.0,2.0,10.0,0.0,1.0,0.0,0.0
0021500435,1610612760,OKC,Oklahoma City,200779,Steve Novak,,,5:46,133.3,118.2,15.2,0.0,0.0,0.0,0.0,0.0,0.0,0.0,1.0,1.0,0.067,95.72,0.073,2015-12-23T00:00:00,13,OKC,Oklahoma City,20-9,27,30,35,28,0,0,0,0,0,0,0,0,0,0,120,0.537,0.765,0.263,23,61,15,0021500435,1610612760,OKC,Oklahoma City,Steve Novak,,,5:46,0.0,0.0,0.0,0.0,2.0,0.0,2.0,10.0,0.0,0.0,0.0,0.0
0021500435,1610612747,LAL,Los Angeles,977,Kobe Bryant,F,,27:56,77.9,139.9,-62.0,0.333,1.5,10.6,0.029,0.0,0.019,7.1,0.364,0.407,0.378,101.07,0.034,2015-12-23T00:00:00,13,LAL,Los Angeles,5-24,17,29,15,24,0,0,0,0,0,0,0,0,0,0,85,0.36,0.636,0.28,19,35,10,0021500435,1610612747,LAL,Los Angeles,Kobe Bryant,F,,27:56,7.0,6.0,2.0,6.0,12.0,12.0,23.0,52.0,0.0,3.0,3.0,4.0
0021500435,1610612747,LAL,Los Angeles,1626204,Larry Nance Jr.,F,,19:44,46.8,155.0,-108.3,0.2,0.5,12.5,0.08,0.214,0.128,25.0,0.4,0.4,0.157,99.63,0.014,2015-12-23T00:00:00,13,LAL,Los Angeles,5-24,17,29,15,24,0,0,0,0,0,0,0,0,0,0,85,0.36,0.636,0.28,19,35,10,0021500435,1610612747,LAL,Los Angeles,Larry Nance Jr.,F,,19:44,0.0,4.0,0.0,2.0,9.0,7.0,20.0,40.0,0.0,2.0,3.0,0.0
0021500435,1610612747,LAL,Los Angeles,201579,Roy Hibbert,C,,21:30,81.7,141.5,-59.8,0.091,0.5,12.7,0.0,0.1,0.029,25.4,0.25,0.41,0.138,97.52,-0.032,2015-12-23T00:00:00,13,LAL,Los Angeles,5-24,17,29,15,24,0,0,0,0,0,0,0,0,0,0,85,0.36,0.636,0.28,19,35,10,0021500435,1610612747,LAL,Los Angeles,Roy Hibbert,C,,21:30,0.0,0.0,0.0,0.0,6.0,6.0,18.0,40.0,1.0,1.0,4.0,1.0
0021500435,1610612747,LAL,Los Angeles,101150,Lou Williams,G,,25:07,49.6,133.4,-83.8,0.2,0.0,18.8,0.029,0.0,0.019,0.0,0.0,0.116,0.143,102.36,-0.084,2015-12-23T00:00:00,13,LAL,Los Angeles,5-24,17,29,15,24,0,0,0,0,0,0,0,0,0,0,85,0.36,0.636,0.28,19,35,10,0021500435,1610612747,LAL,Los Angeles,Lou Williams,G,,25:07,1.0,0.0,0.0,0.0,14.0,9.0,23.0,48.0,0.0,1.0,2.0,3.0
0021500435,1610612747,LAL,Los Angeles,203903,Jordan Clarkson,G,,30:39,85.7,130.9,-45.3,0.133,2.0,12.6,0.054,0.16,0.097,6.3,0.333,0.388,0.19,99.6,0.088,2015-12-23T00:00:00,13,LAL,Los Angeles,5-24,17,29,15,24,0,0,0,0,0,0,0,0,0,0,85,0.36,0.636,0.28,19,35,10,0021500435,1610612747,LAL,Los Angeles,Jordan Clarkson,G,,30:39,0.0,2.0,0.0,4.0,9.0,14.0,22.0,52.0,0.0,1.0,0.0,2.0
0021500435,1610612747,LAL,Los Angeles,203135,Robert Sacre,,,26:30,89.5,101.9,-12.3,0.0,0.0,0.0,0.103,0.094,0.098,11.4,0.667,0.644,0.144,101.25,0.095,2015-12-23T00:00:00,13,LAL,Los Angeles,5-24,17,29,15,24,0,0,0,0,0,0,0,0,0,0,85,0.36,0.636,0.28,19,35,10,0021500435,1610612747,LAL,Los Angeles,Robert Sacre,,,26:30,2.0,2.0,0.0,6.0,12.0,16.0,9.0,36.0,1.0,0.0,2.0,2.0
0021500435,1610612747,LAL,Los Angeles,1626156,D'Angelo Russell,,,28:14,109.7,94.7,15.0,0.105,0.0,10.4,0.037,0.069,0.054,0.0,0.5,0.52,0.266,100.51,0.091,2015-12-23T00:00:00,13,LAL,Los Angeles,5-24,17,29,15,24,0,0,0,0,0,0,0,0,0,0,85,0.36,0.636,0.28,19,35,10,0021500435,1610612747,LAL,Los Angeles,D'Angelo Russell,,,28:14,0.0,0.0,3.0,2.0,9.0,13.0,7.0,34.0,0.0,4.0,2.0,4.0
0021500435,1610612747,LAL,Los Angeles,101138,Brandon Bass,,,16:16,115.8,79.5,36.2,0.077,0.0,20.0,0.1,0.267,0.171,0.0,0.5,0.5,0.092,105.46,0.151,2015-12-23T00:00:00,13,LAL,Los Angeles,5-24,17,29,15,24,0,0,0,0,0,0,0,0,0,0,85,0.36,0.636,0.28,19,35,10,0021500435,1610612747,LAL,Los Angeles,Brandon Bass,,,16:16,0.0,0.0,0.0,2.0,5.0,7.0,5.0,18.0,2.0,0.0,1.0,0.0
0021500435,1610612747,LAL,Los Angeles,1626148,Anthony Brown,,,20:04,98.4,90.7,7.7,0.2,3.0,30.0,0.0,0.125,0.068,10.0,0.167,0.167,0.16,97.5,0.044,2015-12-23T00:00:00,13,LAL,Los Angeles,5-24,17,29,15,24,0,0,0,0,0,0,0,0,0,0,85,0.36,0.636,0.28,19,35,10,0021500435,1610612747,LAL,Los Angeles,Anthony Brown,,,20:04,0.0,0.0,2.0,2.0,6.0,10.0,4.0,24.0,0.0,1.0,0.0,0.0
0021500435,1610612747,LAL,Los Angeles,203527,Ryan Kelly,,,12:00,110.3,116.7,-6.4,0.0,0.0,0.0,0.0,0.231,0.136,0.0,0.786,0.761,0.346,91.52,0.248,2015-12-23T00:00:00,13,LAL,Los Angeles,5-24,17,29,15,24,0,0,0,0,0,0,0,0,0,0,85,0.36,0.636,0.28,19,35,10,0021500435,1610612747,LAL,Los Angeles,Ryan Kelly,,,12:00,3.0,0.0,0.0,8.0,4.0,8.0,2.0,18.0,1.0,0.0,0.0,1.0
0021500435,1610612747,LAL,Los Angeles,1626273,Marcelo Huertas,,,12:00,110.3,116.7,-6.4,0.4,4.0,66.7,0.0,0.0,0.0,16.7,0.0,0.0,0.088,91.52,0.02,2015-12-23T00:00:00,13,LAL,Los Angeles,5-24,17,29,15,24,0,0,0,0,0,0,0,0,0,0,85,0.36,0.636,0.28,19,35,10,0021500435,1610612747,LAL,Los Angeles,Marcelo Huertas,,,12:00,0.0,0.0,0.0,0.0,4.0,8.0,2.0,18.0,0.0,0.0,1.0,0.0
0021500435,1610612747,LAL,Los Angeles,203944,Julius Randle,,DND - Sprained Left Ankle               ,,,,,,,0.0,,,,,,,0.0,,,2015-12-23T00:00:00,13,LAL,Los Angeles,5-24,17,29,15,24,0,0,0,0,0,0,0,0,0,0,85,0.36,0.636,0.28,19,35,10,0021500435,1610612747,LAL,Los Angeles,Julius Randle,,DND - Sprained Left Ankle               ,,,,,,,,,,,,,
0021500435,1610612747,LAL,Los Angeles,1897,Metta World Peace,,DNP - Coach's Decision                  ,,,,,,,0.0,,,,,,,0.0,,,2015-12-23T00:00:00,13,LAL,Los Angeles,5-24,17,29,15,24,0,0,0,0,0,0,0,0,0,0,85,0.36,0.636,0.28,19,35,10,0021500435,1610612747,LAL,Los Angeles,Metta World Peace,,DNP - Coach's Decision                  ,,,,,,,,,,,,,
