GAME_ID_x,TEAM_ID_x,TEAM_ABBREVIATION_x,TEAM_CITY_x,PLAYER_ID,PLAYER_NAME_x,START_POSITION_x,COMMENT_x,MIN_x,OFF_RATING,DEF_RATING,NET_RATING,AST_PCT,AST_TOV,AST_RATIO,OREB_PCT,DREB_PCT,REB_PCT,TM_TOV_PCT,EFG_PCT,TS_PCT,USG_PCT,PACE,PIE,GAME_DATE_EST,GAME_SEQUENCE,TEAM_ABBREVIATION_y,TEAM_CITY_NAME,TEAM_WINS_LOSSES,PTS_QTR1,PTS_QTR2,PTS_QTR3,PTS_QTR4,PTS_OT1,PTS_OT2,PTS_OT3,PTS_OT4,PTS_OT5,PTS_OT6,PTS_OT7,PTS_OT8,PTS_OT9,PTS_OT10,PTS,FG_PCT,FT_PCT,FG3_PCT,AST,REB,TOV,GAME_ID_y,TEAM_ID_y,TEAM_ABBREVIATION,TEAM_CITY_y,PLAYER_NAME_y,START_POSITION_y,COMMENT_y,MIN_y,PTS_OFF_TOV,PTS_2ND_CHANCE,PTS_FB,PTS_PAINT,OPP_PTS_OFF_TOV,OPP_PTS_2ND_CHANCE,OPP_PTS_FB,OPP_PTS_PAINT,BLK,BLKA,PF,PFD
0021500437,1610612741,CHI,Chicago,201959,Taj Gibson,F,,34:20,101.5,85.6,15.9,0.1,2.0,17.5,0.1,0.159,0.135,8.7,0.75,0.77,0.12,99.4,0.197,2015-12-25T00:00:00,2,CHI,Chicago,16-11,32,22,32,19,0,0,0,0,0,0,0,0,0,0,105,0.435,0.9,0.389,22,53,16,0021500437,1610612741,CHI,Chicago,Taj Gibson,F,,34:20,2.0,2.0,2.0,10.0,19.0,9.0,12.0,34.0,1.0,0.0,2.0,2.0
0021500437,1610612741,CHI,Chicago,202703,Nikola Mirotic,F,,15:56,141.6,71.1,70.5,0.118,2.0,21.5,0.0,0.368,0.241,10.7,0.3,0.475,0.197,97.67,0.169,2015-12-25T00:00:00,2,CHI,Chicago,16-11,32,22,32,19,0,0,0,0,0,0,0,0,0,0,105,0.435,0.9,0.389,22,53,16,0021500437,1610612741,CHI,Chicago,Nikola Mirotic,F,,15:56,0.0,0.0,0.0,0.0,11.0,5.0,3.0,12.0,2.0,0.0,2.0,1.0
0021500437,1610612741,CHI,Chicago,2200,Pau Gasol,C,,37:32,105.3,98.4,6.9,0.273,1.5,20.9,0.179,0.133,0.155,14.0,0.5,0.563,0.246,99.85,0.173,2015-12-25T00:00:00,2,CHI,Chicago,16-11,32,22,32,19,0,0,0,0,0,0,0,0,0,0,105,0.435,0.9,0.389,22,53,16,0021500437,1610612741,CHI,Chicago,Pau Gasol,C,,37:32,4.0,6.0,0.0,10.0,20.0,12.0,14.0,36.0,2.0,0.0,2.0,5.0
0021500437,1610612741,CHI,Chicago,202710,Jimmy Butler,G,,42:58,106.8,99.9,7.0,0.148,1.33,13.9,0.071,0.06,0.065,10.4,0.475,0.528,0.236,100.57,0.126,2015-12-25T00:00:00,2,CHI,Chicago,16-11,32,22,32,19,0,0,0,0,0,0,0,0,0,0,105,0.435,0.9,0.389,22,53,16,0021500437,1610612741,CHI,Chicago,Jimmy Butler,G,,42:58,4.0,2.0,5.0,16.0,23.0,14.0,17.0,46.0,0.0,0.0,2.0,2.0
0021500437,1610612741,CHI,Chicago,201565,Derrick Rose,G,,30:04,110.5,87.1,23.4,0.053,0.25,3.9,0.038,0.086,0.066,15.6,0.389,0.46,0.353,99.01,0.016,2015-12-25T00:00:00,2,CHI,Chicago,16-11,32,22,32,19,0,0,0,0,0,0,0,0,0,0,105,0.435,0.9,0.389,22,53,16,0021500437,1610612741,CHI,Chicago,Derrick Rose,G,,30:04,4.0,2.0,2.0,12.0,20.0,7.0,10.0,30.0,0.0,2.0,6.0,5.0
0021500437,1610612741,CHI,Chicago,203503,Tony Snell,,,9:12,66.0,133.2,-67.2,0.0,0.0,0.0,0.0,0.071,0.038,20.0,0.375,0.375,0.207,106.23,0.0,2015-12-25T00:00:00,2,CHI,Chicago,16-11,32,22,32,19,0,0,0,0,0,0,0,0,0,0,105,0.435,0.9,0.389,22,53,16,0021500437,1610612741,CHI,Chicago,Tony Snell,,,9:12,0.0,3.0,0.0,0.0,7.0,4.0,8.0,16.0,0.0,1.0,0.0,0.0
0021500437,1610612741,CHI,Chicago,2550,Kirk Hinrich,,,17:17,95.6,98.3,-2.7,0.154,0.0,50.0,0.0,0.0,0.0,0.0,0.5,0.5,0.046,104.59,0.014,2015-12-25T00:00:00,2,CHI,Chicago,16-11,32,22,32,19,0,0,0,0,0,0,0,0,0,0,105,0.435,0.9,0.389,22,53,16,0021500437,1610612741,CHI,Chicago,Kirk Hinrich,,,17:17,2.0,2.0,0.0,2.0,9.0,5.0,7.0,16.0,0.0,0.0,2.0,0.0
0021500437,1610612741,CHI,Chicago,201166,Aaron Brooks,,,9:43,102.9,94.3,8.6,0.143,0.0,20.0,0.0,0.364,0.19,0.0,0.75,0.75,0.158,109.96,0.213,2015-12-25T00:00:00,2,CHI,Chicago,16-11,32,22,32,19,0,0,0,0,0,0,0,0,0,0,105,0.435,0.9,0.389,22,53,16,0021500437,1610612741,CHI,Chicago,Aaron Brooks,,,9:43,0.0,0.0,0.0,0.0,3.0,4.0,2.0,12.0,1.0,0.0,1.0,0.0
0021500437,1610612741,CHI,Chicago,1626171,Bobby Portis,,,19:53,100.5,98.4,2.2,0.188,3.0,25.0,0.048,0.211,0.125,8.3,0.438,0.438,0.171,108.01,0.095,2015-12-25T00:00:00,2,CHI,Chicago,16-11,32,22,32,19,0,0,0,0,0,0,0,0,0,0,105,0.435,0.9,0.389,22,53,16,0021500437,1610612741,CHI,Chicago,Bobby Portis,,,19:53,0.0,0.0,2.0,4.0,9.0,5.0,6.0,20.0,0.0,0.0,2.0,0.0
0021500437,1610612741,CHI,Chicago,203926,Doug McDermott,,,23:06,96.9,90.1,6.8,0.063,1.0,11.1,0.043,0.091,0.067,11.1,0.357,0.357,0.144,101.15,0.048,2015-12-25T00:00:00,2,CHI,Chicago,16-11,32,22,32,19,0,0,0,0,0,0,0,0,0,0,105,0.435,0.9,0.389,22,53,16,0021500437,1610612741,CHI,Chicago,Doug McDermott,,,23:06,0.0,3.0,2.0,2.0,9.0,5.0,6.0,18.0,0.0,0.0,0.0,0.0
0021500437,1610612741,CHI,Chicago,203946,Cameron Bairstow,,DNP - Coach's Decision                  ,,,,,,,0.0,,,,,,,0.0,,,2015-12-25T00:00:00,2,CHI,Chicago,16-11,32,22,32,19,0,0,0,0,0,0,0,0,0,0,105,0.435,0.9,0.389,22,53,16,0021500437,1610612741,CHI,Chicago,Cameron Bairstow,,DNP - Coach's Decision                  ,,,,,,,,,,,,,
0021500437,1610612741,CHI,Chicago,1626245,Cristiano Felicio,,DNP - Coach's Decision                  ,,,,,,,0.0,,,,,,,0.0,,,2015-12-25T00:00:00,2,CHI,Chicago,16-11,32,22,32,19,0,0,0,0,0,0,0,0,0,0,105,0.435,0.9,0.389,22,53,16,0021500437,1610612741,CHI,Chicago,Cristiano Felicio,,DNP - Coach's Decision                  ,,,,,,,,,,,,,
0021500437,1610612741,CHI,Chicago,202734,E'Twaun Moore,,DNP - Coach's Decision                  ,,,,,,,0.0,,,,,,,0.0,,,2015-12-25T00:00:00,2,CHI,Chicago,16-11,32,22,32,19,0,0,0,0,0,0,0,0,0,0,105,0.435,0.9,0.389,22,53,16,0021500437,1610612741,CHI,Chicago,E'Twaun Moore,,DNP - Coach's Decision                  ,,,,,,,,,,,,,
0021500437,1610612760,OKC,Oklahoma City,201142,Kevin Durant,F,,42:18,101.0,108.1,-7.1,0.292,3.5,21.4,0.04,0.175,0.1,6.1,0.548,0.613,0.237,101.02,0.21,2015-12-25T00:00:00,2,OKC,Oklahoma City,20-10,26,26,16,28,0,0,0,0,0,0,0,0,0,0,96,0.385,0.696,0.25,20,48,13,0021500437,1610612760,OKC,Oklahoma City,Kevin Durant,F,,42:18,7.0,0.0,7.0,14.0,12.0,18.0,13.0,52.0,1.0,0.0,1.0,4.0
0021500437,1610612760,OKC,Oklahoma City,201586,Serge Ibaka,F,,34:48,90.7,103.4,-12.6,0.0,0.0,0.0,0.056,0.147,0.1,14.3,0.25,0.25,0.167,100.28,0.0,2015-12-25T00:00:00,2,OKC,Oklahoma City,20-10,26,26,16,28,0,0,0,0,0,0,0,0,0,0,96,0.385,0.696,0.25,20,48,13,0021500437,1610612760,OKC,Oklahoma City,Serge Ibaka,F,,34:48,4.0,2.0,0.0,2.0,10.0,18.0,4.0,42.0,2.0,0.0,4.0,0.0
0021500437,1610612760,OKC,Oklahoma City,203500,Steven Adams,C,,12:45,35.1,128.1,-93.0,0.0,0.0,0.0,0.059,0.214,0.129,0.0,0.25,0.307,0.165,96.75,0.018,2015-12-25T00:00:00,2,OKC,Oklahoma City,20-10,26,26,16,28,0,0,0,0,0,0,0,0,0,0,96,0.385,0.696,0.25,20,48,13,0021500437,1610612760,OKC,Oklahoma City,Steven Adams,C,,12:45,0.0,1.0,0.0,2.0,6.0,8.0,0.0,20.0,0.0,2.0,2.0,1.0
0021500437,1610612760,OKC,Oklahoma City,203460,Andre Roberson,G,,20:13,81.0,114.4,-33.4,0.067,0.0,14.3,0.136,0.059,0.103,0.0,0.167,0.167,0.117,100.05,-0.021,2015-12-25T00:00:00,2,OKC,Oklahoma City,20-10,26,26,16,28,0,0,0,0,0,0,0,0,0,0,96,0.385,0.696,0.25,20,48,13,0021500437,1610612760,OKC,Oklahoma City,Andre Roberson,G,,20:13,2.0,0.0,0.0,2.0,8.0,9.0,4.0,28.0,0.0,0.0,2.0,0.0
0021500437,1610612760,OKC,Oklahoma City,201566,Russell Westbrook,G,,39:57,96.0,104.3,-8.3,0.348,1.33,18.7,0.023,0.162,0.086,14.0,0.413,0.453,0.353,99.63,0.128,2015-12-25T00:00:00,2,OKC,Oklahoma City,20-10,26,26,16,28,0,0,0,0,0,0,0,0,0,0,96,0.385,0.696,0.25,20,48,13,0021500437,1610612760,OKC,Oklahoma City,Russell Westbrook,G,,39:57,5.0,1.0,8.0,12.0,12.0,18.0,6.0,48.0,0.0,1.0,3.0,10.0
0021500437,1610612760,OKC,Oklahoma City,202683,Enes Kanter,,,25:53,107.8,98.1,9.7,0.063,0.0,7.2,0.226,0.24,0.232,0.0,0.5,0.543,0.193,101.77,0.196,2015-12-25T00:00:00,2,OKC,Oklahoma City,20-10,26,26,16,28,0,0,0,0,0,0,0,0,0,0,96,0.385,0.696,0.25,20,48,13,0021500437,1610612760,OKC,Oklahoma City,Enes Kanter,,,25:53,2.0,8.0,0.0,12.0,8.0,9.0,9.0,24.0,0.0,2.0,1.0,1.0
0021500437,1610612760,OKC,Oklahoma City,203079,Dion Waiters,,,18:50,112.7,90.3,22.4,0.125,2.0,22.2,0.0,0.0,0.0,11.1,0.167,0.167,0.136,109.34,-0.013,2015-12-25T00:00:00,2,OKC,Oklahoma City,20-10,26,26,16,28,0,0,0,0,0,0,0,0,0,0,96,0.385,0.696,0.25,20,48,13,0021500437,1610612760,OKC,Oklahoma City,Dion Waiters,,,18:50,0.0,0.0,2.0,2.0,8.0,7.0,9.0,16.0,0.0,0.0,0.0,0.0
0021500437,1610612760,OKC,Oklahoma City,2555,Nick Collison,,,11:18,116.0,94.8,21.2,0.0,0.0,0.0,0.118,0.0,0.071,0.0,0.5,0.5,0.064,98.78,0.027,2015-12-25T00:00:00,2,OKC,Oklahoma City,20-10,26,26,16,28,0,0,0,0,0,0,0,0,0,0,96,0.385,0.696,0.25,20,48,13,0021500437,1610612760,OKC,Oklahoma City,Nick Collison,,,11:18,0.0,2.0,0.0,2.0,2.0,2.0,5.0,8.0,0.0,0.0,1.0,0.0
0021500437,1610612760,OKC,Oklahoma City,201571,D.J. Augustin,,,13:11,73.0,112.6,-39.6,0.143,0.5,14.3,0.0,0.077,0.034,28.6,0.375,0.375,0.183,107.34,0.0,2015-12-25T00:00:00,2,OKC,Oklahoma City,20-10,26,26,16,28,0,0,0,0,0,0,0,0,0,0,96,0.385,0.696,0.25,20,48,13,0021500437,1610612760,OKC,Oklahoma City,D.J. Augustin,,,13:11,3.0,0.0,0.0,0.0,6.0,4.0,9.0,18.0,0.0,1.0,1.0,3.0
0021500437,1610612760,OKC,Oklahoma City,201627,Anthony Morrow,,,20:47,95.3,94.3,0.9,0.0,0.0,0.0,0.0,0.053,0.026,0.0,0.75,0.75,0.127,102.31,0.11,2015-12-25T00:00:00,2,OKC,Oklahoma City,20-10,26,26,16,28,0,0,0,0,0,0,0,0,0,0,96,0.385,0.696,0.25,20,48,13,0021500437,1610612760,OKC,Oklahoma City,Anthony Morrow,,,20:47,3.0,0.0,0.0,0.0,8.0,7.0,6.0,24.0,0.0,0.0,0.0,0.0
0021500437,1610612760,OKC,Oklahoma City,200779,Steve Novak,,DNP - Coach's Decision                  ,,,,,,,0.0,,,,,,,0.0,,,2015-12-25T00:00:00,2,OKC,Oklahoma City,20-10,26,26,16,28,0,0,0,0,0,0,0,0,0,0,96,0.385,0.696,0.25,20,48,13,0021500437,1610612760,OKC,Oklahoma City,Steve Novak,,DNP - Coach's Decision                  ,,,,,,,,,,,,,
0021500437,1610612760,OKC,Oklahoma City,1626166,Cameron Payne,,DNP - Coach's Decision                  ,,,,,,,0.0,,,,,,,0.0,,,2015-12-25T00:00:00,2,OKC,Oklahoma City,20-10,26,26,16,28,0,0,0,0,0,0,0,0,0,0,96,0.385,0.696,0.25,20,48,13,0021500437,1610612760,OKC,Oklahoma City,Cameron Payne,,DNP - Coach's Decision                  ,,,,,,,,,,,,,
0021500437,1610612760,OKC,Oklahoma City,202713,Kyle Singler,,DNP - Coach's Decision                  ,,,,,,,0.0,,,,,,,0.0,,,2015-12-25T00:00:00,2,OKC,Oklahoma City,20-10,26,26,16,28,0,0,0,0,0,0,0,0,0,0,96,0.385,0.696,0.25,20,48,13,0021500437,1610612760,OKC,Oklahoma City,Kyle Singler,,DNP - Coach's Decision                  ,,,,,,,,,,,,,
