GAME_ID_x,TEAM_ID_x,TEAM_ABBREVIATION_x,TEAM_CITY_x,PLAYER_ID,PLAYER_NAME_x,START_POSITION_x,COMMENT_x,MIN_x,OFF_RATING,DEF_RATING,NET_RATING,AST_PCT,AST_TOV,AST_RATIO,OREB_PCT,DREB_PCT,REB_PCT,TM_TOV_PCT,EFG_PCT,TS_PCT,USG_PCT,PACE,PIE,GAME_DATE_EST,GAME_SEQUENCE,TEAM_ABBREVIATION_y,TEAM_CITY_NAME,TEAM_WINS_LOSSES,PTS_QTR1,PTS_QTR2,PTS_QTR3,PTS_QTR4,PTS_OT1,PTS_OT2,PTS_OT3,PTS_OT4,PTS_OT5,PTS_OT6,PTS_OT7,PTS_OT8,PTS_OT9,PTS_OT10,PTS,FG_PCT,FT_PCT,FG3_PCT,AST,REB,TOV,GAME_ID_y,TEAM_ID_y,TEAM_ABBREVIATION,TEAM_CITY_y,PLAYER_NAME_y,START_POSITION_y,COMMENT_y,MIN_y,PTS_OFF_TOV,PTS_2ND_CHANCE,PTS_FB,PTS_PAINT,OPP_PTS_OFF_TOV,OPP_PTS_2ND_CHANCE,OPP_PTS_FB,OPP_PTS_PAINT,BLK,BLKA,PF,PFD
0021500446,1610612738,BOS,Boston,203109,Jae Crowder,F,,35:43,109.2,94.1,15.2,0.08,1.0,12.6,0.059,0.125,0.095,12.6,0.455,0.463,0.165,98.51,0.075,2015-12-26T00:00:00,7,BOS,Boston,17-13,25,26,25,23,0,0,0,0,0,0,0,0,0,0,99,0.464,0.739,0.174,20,47,14,0021500446,1610612738,BOS,Boston,Jae Crowder,F,,35:43,2.0,0.0,4.0,8.0,11.0,19.0,7.0,32.0,0.0,0.0,3.0,3.0
0021500446,1610612738,BOS,Boston,203096,Jared Sullinger,F,,21:08,115.6,99.8,15.8,0.133,0.0,18.2,0.1,0.3,0.2,0.0,0.556,0.556,0.179,92.53,0.185,2015-12-26T00:00:00,7,BOS,Boston,17-13,25,26,25,23,0,0,0,0,0,0,0,0,0,0,99,0.464,0.739,0.174,20,47,14,0021500446,1610612738,BOS,Boston,Jared Sullinger,F,,21:08,2.0,4.0,0.0,10.0,2.0,9.0,2.0,24.0,0.0,0.0,3.0,1.0
0021500446,1610612738,BOS,Boston,101161,Amir Johnson,C,,28:14,104.7,90.1,14.6,0.0,0.0,0.0,0.143,0.138,0.14,12.5,0.857,0.857,0.124,96.8,0.165,2015-12-26T00:00:00,7,BOS,Boston,17-13,25,26,25,23,0,0,0,0,0,0,0,0,0,0,99,0.464,0.739,0.174,20,47,14,0021500446,1610612738,BOS,Boston,Amir Johnson,C,,28:14,2.0,4.0,0.0,12.0,7.0,11.0,7.0,26.0,0.0,1.0,3.0,2.0
0021500446,1610612738,BOS,Boston,202340,Avery Bradley,G,,31:27,112.1,92.0,20.0,0.045,0.0,6.1,0.036,0.086,0.063,0.0,0.536,0.587,0.207,102.47,0.162,2015-12-26T00:00:00,7,BOS,Boston,17-13,25,26,25,23,0,0,0,0,0,0,0,0,0,0,99,0.464,0.739,0.174,20,47,14,0021500446,1610612738,BOS,Boston,Avery Bradley,G,,31:27,3.0,0.0,0.0,0.0,11.0,16.0,7.0,28.0,0.0,0.0,2.0,1.0
0021500446,1610612738,BOS,Boston,202738,Isaiah Thomas,G,,33:01,112.8,101.8,11.0,0.36,2.25,28.7,0.0,0.028,0.015,12.7,0.286,0.462,0.29,98.16,0.09,2015-12-26T00:00:00,7,BOS,Boston,17-13,25,26,25,23,0,0,0,0,0,0,0,0,0,0,99,0.464,0.739,0.174,20,47,14,0021500446,1610612738,BOS,Boston,Isaiah Thomas,G,,33:01,6.0,1.0,0.0,8.0,11.0,20.0,7.0,34.0,0.0,0.0,3.0,7.0
0021500446,1610612738,BOS,Boston,203482,Kelly Olynyk,,,24:19,78.1,89.3,-11.2,0.077,0.0,10.1,0.048,0.2,0.137,0.0,0.563,0.507,0.169,97.77,0.133,2015-12-26T00:00:00,7,BOS,Boston,17-13,25,26,25,23,0,0,0,0,0,0,0,0,0,0,99,0.464,0.739,0.174,20,47,14,0021500446,1610612738,BOS,Boston,Kelly Olynyk,,,24:19,0.0,2.0,0.0,6.0,12.0,13.0,2.0,24.0,0.0,0.0,3.0,1.0
0021500446,1610612738,BOS,Boston,201973,Jonas Jerebko,,,10:21,82.3,105.1,-22.8,0.0,0.0,0.0,0.0,0.083,0.05,0.0,0.5,0.5,0.091,112.55,0.029,2015-12-26T00:00:00,7,BOS,Boston,17-13,25,26,25,23,0,0,0,0,0,0,0,0,0,0,99,0.464,0.739,0.174,20,47,14,0021500446,1610612738,BOS,Boston,Jonas Jerebko,,,10:21,0.0,0.0,0.0,0.0,9.0,9.0,2.0,12.0,0.0,0.0,1.0,2.0
0021500446,1610612738,BOS,Boston,1626154,RJ Hunter,,,17:38,78.7,88.0,-9.3,0.154,0.0,66.7,0.0,0.1,0.054,0.0,0.0,0.0,0.027,97.78,0.044,2015-12-26T00:00:00,7,BOS,Boston,17-13,25,26,25,23,0,0,0,0,0,0,0,0,0,0,99,0.464,0.739,0.174,20,47,14,0021500446,1610612738,BOS,Boston,RJ Hunter,,,17:38,0.0,0.0,0.0,0.0,6.0,9.0,2.0,20.0,0.0,0.0,3.0,2.0
0021500446,1610612738,BOS,Boston,202323,Evan Turner,,,23:23,88.0,95.6,-7.6,0.3,0.6,14.5,0.0,0.172,0.1,24.1,0.455,0.509,0.351,98.29,0.149,2015-12-26T00:00:00,7,BOS,Boston,17-13,25,26,25,23,0,0,0,0,0,0,0,0,0,0,99,0.464,0.739,0.174,20,47,14,0021500446,1610612738,BOS,Boston,Evan Turner,,,23:23,0.0,0.0,0.0,6.0,10.0,14.0,5.0,18.0,1.0,0.0,1.0,2.0
0021500446,1610612738,BOS,Boston,203092,Tyler Zeller,,,14:46,96.5,69.5,27.0,0.0,0.0,0.0,0.077,0.158,0.125,20.2,0.429,0.444,0.299,104.24,0.036,2015-12-26T00:00:00,7,BOS,Boston,17-13,25,26,25,23,0,0,0,0,0,0,0,0,0,0,99,0.464,0.739,0.174,20,47,14,0021500446,1610612738,BOS,Boston,Tyler Zeller,,,14:46,1.0,0.0,0.0,0.0,6.0,5.0,4.0,12.0,0.0,1.0,2.0,3.0
0021500446,1610612738,BOS,Boston,1626175,Jordan Mickey,,DNP - Coach's Decision                  ,,,,,,,0.0,,,,,,,0.0,,,2015-12-26T00:00:00,7,BOS,Boston,17-13,25,26,25,23,0,0,0,0,0,0,0,0,0,0,99,0.464,0.739,0.174,20,47,14,0021500446,1610612738,BOS,Boston,Jordan Mickey,,DNP - Coach's Decision                  ,,,,,,,,,,,,,
0021500446,1610612738,BOS,Boston,1626179,Terry Rozier,,DNP - Coach's Decision                  ,,,,,,,0.0,,,,,,,0.0,,,2015-12-26T00:00:00,7,BOS,Boston,17-13,25,26,25,23,0,0,0,0,0,0,0,0,0,0,99,0.464,0.739,0.174,20,47,14,0021500446,1610612738,BOS,Boston,Terry Rozier,,DNP - Coach's Decision                  ,,,,,,,,,,,,,
0021500446,1610612738,BOS,Boston,203923,James Young,,DNP - Coach's Decision                  ,,,,,,,0.0,,,,,,,0.0,,,2015-12-26T00:00:00,7,BOS,Boston,17-13,25,26,25,23,0,0,0,0,0,0,0,0,0,0,99,0.464,0.739,0.174,20,47,14,0021500446,1610612738,BOS,Boston,James Young,,DNP - Coach's Decision                  ,,,,,,,,,,,,,
0021500446,1610612765,DET,Detroit,202694,Marcus Morris,F,,37:01,98.2,98.6,-0.4,0.045,0.33,5.1,0.049,0.091,0.068,15.2,0.5,0.508,0.205,99.47,0.056,2015-12-26T00:00:00,7,DET,Detroit,17-14,24,22,15,32,0,0,0,0,0,0,0,0,0,0,93,0.385,0.68,0.24,16,51,15,0021500446,1610612765,DET,Detroit,Marcus Morris,F,,37:01,2.0,3.0,0.0,6.0,13.0,7.0,4.0,42.0,0.0,1.0,4.0,3.0
0021500446,1610612765,DET,Detroit,101141,Ersan Ilyasova,F,,28:34,79.4,103.6,-24.2,0.133,0.0,16.8,0.1,0.138,0.119,0.0,0.389,0.455,0.147,102.38,0.119,2015-12-26T00:00:00,7,DET,Detroit,17-14,24,22,15,32,0,0,0,0,0,0,0,0,0,0,93,0.385,0.68,0.24,16,51,15,0021500446,1610612765,DET,Detroit,Ersan Ilyasova,F,,28:34,5.0,2.0,2.0,4.0,15.0,8.0,4.0,32.0,0.0,0.0,3.0,1.0
0021500446,1610612765,DET,Detroit,203083,Andre Drummond,C,,35:55,87.1,100.8,-13.8,0.059,0.5,3.5,0.179,0.441,0.301,7.0,0.429,0.433,0.316,101.68,0.239,2015-12-26T00:00:00,7,DET,Detroit,17-14,24,22,15,32,0,0,0,0,0,0,0,0,0,0,93,0.385,0.68,0.24,16,51,15,0021500446,1610612765,DET,Detroit,Andre Drummond,C,,35:55,5.0,8.0,0.0,18.0,13.0,9.0,4.0,40.0,2.0,0.0,1.0,7.0
0021500446,1610612765,DET,Detroit,203484,Kentavious Caldwell-Pope,G,,35:23,89.4,105.5,-16.1,0.087,0.4,10.0,0.0,0.114,0.055,25.0,0.231,0.231,0.202,99.68,-0.051,2015-12-26T00:00:00,7,DET,Detroit,17-14,24,22,15,32,0,0,0,0,0,0,0,0,0,0,93,0.385,0.68,0.24,16,51,15,0021500446,1610612765,DET,Detroit,Kentavious Caldwell-Pope,G,,35:23,0.0,0.0,0.0,4.0,16.0,9.0,4.0,38.0,0.0,0.0,3.0,1.0
0021500446,1610612765,DET,Detroit,202704,Reggie Jackson,G,,27:18,101.5,108.7,-7.2,0.118,0.67,9.4,0.033,0.074,0.053,14.2,0.429,0.525,0.286,97.09,0.055,2015-12-26T00:00:00,7,DET,Detroit,17-14,24,22,15,32,0,0,0,0,0,0,0,0,0,0,93,0.385,0.68,0.24,16,51,15,0021500446,1610612765,DET,Detroit,Reggie Jackson,G,,27:18,3.0,4.0,3.0,6.0,11.0,9.0,4.0,34.0,0.0,0.0,5.0,7.0
0021500446,1610612765,DET,Detroit,2581,Steve Blake,,,21:20,93.4,93.7,-0.2,0.429,6.0,55.1,0.0,0.118,0.048,9.2,0.333,0.515,0.087,104.65,0.155,2015-12-26T00:00:00,7,DET,Detroit,17-14,24,22,15,32,0,0,0,0,0,0,0,0,0,0,93,0.385,0.68,0.24,16,51,15,0021500446,1610612765,DET,Detroit,Steve Blake,,,21:20,0.0,0.0,2.0,2.0,5.0,2.0,0.0,16.0,0.0,0.0,1.0,2.0
0021500446,1610612765,DET,Detroit,1626169,Stanley Johnson,,,25:33,103.8,101.2,2.6,0.077,1.0,7.7,0.065,0.045,0.057,7.7,0.545,0.545,0.19,96.21,0.068,2015-12-26T00:00:00,7,DET,Detroit,17-14,24,22,15,32,0,0,0,0,0,0,0,0,0,0,93,0.385,0.68,0.24,16,51,15,0021500446,1610612765,DET,Detroit,Stanley Johnson,,,25:33,2.0,5.0,2.0,4.0,5.0,5.0,0.0,20.0,0.0,0.0,4.0,1.0
0021500446,1610612765,DET,Detroit,203382,Aron Baynes,,,11:30,86.2,90.5,-4.3,0.0,0.0,0.0,0.214,0.1,0.167,0.0,1.0,1.0,0.037,85.06,0.22,2015-12-26T00:00:00,7,DET,Detroit,17-14,24,22,15,32,0,0,0,0,0,0,0,0,0,0,93,0.385,0.68,0.24,16,51,15,0021500446,1610612765,DET,Detroit,Aron Baynes,,,11:30,0.0,0.0,0.0,2.0,1.0,2.0,0.0,10.0,0.0,0.0,0.0,1.0
0021500446,1610612765,DET,Detroit,201229,Anthony Tolliver,,,16:08,92.2,90.4,1.7,0.083,0.0,14.5,0.0,0.083,0.031,0.0,0.3,0.425,0.148,92.83,0.048,2015-12-26T00:00:00,7,DET,Detroit,17-14,24,22,15,32,0,0,0,0,0,0,0,0,0,0,93,0.385,0.68,0.24,16,51,15,0021500446,1610612765,DET,Detroit,Anthony Tolliver,,,16:08,0.0,3.0,0.0,0.0,1.0,2.0,0.0,16.0,0.0,0.0,2.0,1.0
0021500446,1610612765,DET,Detroit,203493,Reggie Bullock,,,1:19,173.6,115.7,57.9,0.0,0.0,0.0,0.0,0.0,0.0,0.0,0.0,0.0,0.0,131.24,-0.118,2015-12-26T00:00:00,7,DET,Detroit,17-14,24,22,15,32,0,0,0,0,0,0,0,0,0,0,93,0.385,0.68,0.24,16,51,15,0021500446,1610612765,DET,Detroit,Reggie Bullock,,,1:19,0.0,0.0,0.0,0.0,0.0,2.0,0.0,2.0,0.0,0.0,1.0,0.0
0021500446,1610612765,DET,Detroit,201202,Joel Anthony,,DNP - Coach's Decision                  ,,,,,,,0.0,,,,,,,0.0,,,2015-12-26T00:00:00,7,DET,Detroit,17-14,24,22,15,32,0,0,0,0,0,0,0,0,0,0,93,0.385,0.68,0.24,16,51,15,0021500446,1610612765,DET,Detroit,Joel Anthony,,DNP - Coach's Decision                  ,,,,,,,,,,,,,
0021500446,1610612765,DET,Detroit,1626199,Darrun Hilliard,,DNP - Coach's Decision                  ,,,,,,,0.0,,,,,,,0.0,,,2015-12-26T00:00:00,7,DET,Detroit,17-14,24,22,15,32,0,0,0,0,0,0,0,0,0,0,93,0.385,0.68,0.24,16,51,15,0021500446,1610612765,DET,Detroit,Darrun Hilliard,,DNP - Coach's Decision                  ,,,,,,,,,,,,,
0021500446,1610612765,DET,Detroit,201943,Brandon Jennings,,DNP - Coach's Decision                  ,,,,,,,0.0,,,,,,,0.0,,,2015-12-26T00:00:00,7,DET,Detroit,17-14,24,22,15,32,0,0,0,0,0,0,0,0,0,0,93,0.385,0.68,0.24,16,51,15,0021500446,1610612765,DET,Detroit,Brandon Jennings,,DNP - Coach's Decision                  ,,,,,,,,,,,,,
