GAME_ID_x,TEAM_ID_x,TEAM_ABBREVIATION_x,TEAM_CITY_x,PLAYER_ID,PLAYER_NAME_x,START_POSITION_x,COMMENT_x,MIN_x,OFF_RATING,DEF_RATING,NET_RATING,AST_PCT,AST_TOV,AST_RATIO,OREB_PCT,DREB_PCT,REB_PCT,TM_TOV_PCT,EFG_PCT,TS_PCT,USG_PCT,PACE,PIE,GAME_DATE_EST,GAME_SEQUENCE,TEAM_ABBREVIATION_y,TEAM_CITY_NAME,TEAM_WINS_LOSSES,PTS_QTR1,PTS_QTR2,PTS_QTR3,PTS_QTR4,PTS_OT1,PTS_OT2,PTS_OT3,PTS_OT4,PTS_OT5,PTS_OT6,PTS_OT7,PTS_OT8,PTS_OT9,PTS_OT10,PTS,FG_PCT,FT_PCT,FG3_PCT,AST,REB,TOV,GAME_ID_y,TEAM_ID_y,TEAM_ABBREVIATION,TEAM_CITY_y,PLAYER_NAME_y,START_POSITION_y,COMMENT_y,MIN_y,PTS_OFF_TOV,PTS_2ND_CHANCE,PTS_FB,PTS_PAINT,OPP_PTS_OFF_TOV,OPP_PTS_2ND_CHANCE,OPP_PTS_FB,OPP_PTS_PAINT,BLK,BLKA,PF,PFD
0021500480,1610612744,GSW,Golden State,201575,Brandon Rush,F,,35:26,88.3,130.1,-41.8,0.136,3.0,27.3,0.0,0.207,0.09,9.1,0.214,0.214,0.102,95.94,0.035,2015-12-30T00:00:00,7,GSW,Golden State,29-2,21,21,26,23,0,0,0,0,0,0,0,0,0,0,91,0.407,0.75,0.368,20,37,12,0021500480,1610612744,GSW,Golden State,Brandon Rush,F,,35:26,0.0,0.0,3.0,0.0,13.0,16.0,17.0,34.0,0.0,0.0,1.0,0.0
0021500480,1610612744,GSW,Golden State,203110,Draymond Green,F,,30:57,98.8,115.6,-16.8,0.211,2.0,17.6,0.069,0.25,0.158,8.8,0.3,0.328,0.285,94.7,0.058,2015-12-30T00:00:00,7,GSW,Golden State,29-2,21,21,26,23,0,0,0,0,0,0,0,0,0,0,91,0.407,0.75,0.368,20,37,12,0021500480,1610612744,GSW,Golden State,Draymond Green,F,,30:57,0.0,3.0,4.0,4.0,14.0,17.0,16.0,28.0,0.0,0.0,3.0,3.0
0021500480,1610612744,GSW,Golden State,101106,Andrew Bogut,C,,23:30,102.3,126.5,-24.2,0.077,1.0,15.5,0.091,0.364,0.227,15.5,1.0,1.014,0.111,93.55,0.162,2015-12-30T00:00:00,7,GSW,Golden State,29-2,21,21,26,23,0,0,0,0,0,0,0,0,0,0,91,0.407,0.75,0.368,20,37,12,0021500480,1610612744,GSW,Golden State,Andrew Bogut,C,,23:30,0.0,2.0,0.0,6.0,10.0,17.0,14.0,22.0,0.0,0.0,3.0,2.0
0021500480,1610612744,GSW,Golden State,202691,Klay Thompson,G,,33:57,99.9,117.2,-17.3,0.095,1.0,10.1,0.0,0.033,0.016,10.1,0.3,0.315,0.245,95.75,-0.015,2015-12-30T00:00:00,7,GSW,Golden State,29-2,21,21,26,23,0,0,0,0,0,0,0,0,0,0,91,0.407,0.75,0.368,20,37,12,0021500480,1610612744,GSW,Golden State,Klay Thompson,G,,33:57,5.0,0.0,4.0,4.0,14.0,19.0,16.0,34.0,0.0,0.0,1.0,2.0
0021500480,1610612744,GSW,Golden State,2733,Shaun Livingston,G,,20:40,98.3,125.5,-27.2,0.364,0.0,33.7,0.043,0.0,0.023,0.0,0.429,0.508,0.185,90.91,0.081,2015-12-30T00:00:00,7,GSW,Golden State,29-2,21,21,26,23,0,0,0,0,0,0,0,0,0,0,91,0.407,0.75,0.368,20,37,12,0021500480,1610612744,GSW,Golden State,Shaun Livingston,G,,20:40,0.0,0.0,0.0,0.0,5.0,17.0,12.0,20.0,0.0,0.0,2.0,1.0
0021500480,1610612744,GSW,Golden State,2738,Andre Iguodala,,,24:29,104.9,130.5,-25.5,0.214,0.0,26.5,0.0,0.059,0.028,0.0,0.643,0.721,0.161,94.22,0.15,2015-12-30T00:00:00,7,GSW,Golden State,29-2,21,21,26,23,0,0,0,0,0,0,0,0,0,0,91,0.407,0.75,0.368,20,37,12,0021500480,1610612744,GSW,Golden State,Andre Iguodala,,,24:29,5.0,0.0,5.0,4.0,16.0,12.0,6.0,28.0,0.0,0.0,0.0,3.0
0021500480,1610612744,GSW,Golden State,203546,Ian Clark,,,23:46,88.5,112.7,-24.2,0.0,0.0,0.0,0.0,0.0,0.0,13.4,0.792,0.815,0.283,95.69,0.179,2015-12-30T00:00:00,7,GSW,Golden State,29-2,21,21,26,23,0,0,0,0,0,0,0,0,0,0,91,0.407,0.75,0.368,20,37,12,0021500480,1610612744,GSW,Golden State,Ian Clark,,,23:46,6.0,5.0,2.0,4.0,13.0,6.0,9.0,24.0,0.0,0.0,3.0,1.0
0021500480,1610612744,GSW,Golden State,201578,Marreese Speights,,,21:11,89.0,104.6,-15.6,0.0,0.0,0.0,0.087,0.167,0.122,18.9,0.417,0.466,0.332,95.17,0.098,2015-12-30T00:00:00,7,GSW,Golden State,29-2,21,21,26,23,0,0,0,0,0,0,0,0,0,0,91,0.407,0.75,0.368,20,37,12,0021500480,1610612744,GSW,Golden State,Marreese Speights,,,21:11,2.0,4.0,0.0,4.0,8.0,3.0,7.0,20.0,0.0,2.0,1.0,3.0
0021500480,1610612744,GSW,Golden State,203949,James Michael McAdoo,,,15:56,86.4,128.3,-41.9,0.222,2.0,51.5,0.0,0.0,0.0,25.8,0.0,0.568,0.053,94.59,0.0,2015-12-30T00:00:00,7,GSW,Golden State,29-2,21,21,26,23,0,0,0,0,0,0,0,0,0,0,91,0.407,0.75,0.368,20,37,12,0021500480,1610612744,GSW,Golden State,James Michael McAdoo,,,15:56,0.0,0.0,0.0,0.0,7.0,4.0,5.0,16.0,0.0,0.0,2.0,1.0
0021500480,1610612744,GSW,Golden State,201574,Jason Thompson,,,10:08,92.6,128.1,-35.5,0.167,0.0,17.7,0.1,0.375,0.222,0.0,0.0,0.431,0.216,94.83,0.081,2015-12-30T00:00:00,7,GSW,Golden State,29-2,21,21,26,23,0,0,0,0,0,0,0,0,0,0,91,0.407,0.75,0.368,20,37,12,0021500480,1610612744,GSW,Golden State,Jason Thompson,,,10:08,0.0,0.0,0.0,0.0,5.0,4.0,3.0,4.0,0.0,2.0,2.0,3.0
0021500480,1610612744,GSW,Golden State,2571,Leandro Barbosa,,NWT - Left Shoulder Sprain              ,,,,,,,0.0,,,,,,,0.0,,,2015-12-30T00:00:00,7,GSW,Golden State,29-2,21,21,26,23,0,0,0,0,0,0,0,0,0,0,91,0.407,0.75,0.368,20,37,12,0021500480,1610612744,GSW,Golden State,Leandro Barbosa,,NWT - Left Shoulder Sprain              ,,,,,,,,,,,,,
0021500480,1610612744,GSW,Golden State,201939,Stephen Curry,,DND - Bruised Left Lower Leg            ,,,,,,,0.0,,,,,,,0.0,,,2015-12-30T00:00:00,7,GSW,Golden State,29-2,21,21,26,23,0,0,0,0,0,0,0,0,0,0,91,0.407,0.75,0.368,20,37,12,0021500480,1610612744,GSW,Golden State,Stephen Curry,,DND - Bruised Left Lower Leg            ,,,,,,,,,,,,,
0021500480,1610612744,GSW,Golden State,203105,Festus Ezeli,,DND - Sore Left Toe                     ,,,,,,,0.0,,,,,,,0.0,,,2015-12-30T00:00:00,7,GSW,Golden State,29-2,21,21,26,23,0,0,0,0,0,0,0,0,0,0,91,0.407,0.75,0.368,20,37,12,0021500480,1610612744,GSW,Golden State,Festus Ezeli,,DND - Sore Left Toe                     ,,,,,,,,,,,,,
0021500480,1610612742,DAL,Dallas,202718,Chandler Parsons,F,,31:05,129.9,88.1,41.8,0.185,2.5,41.7,0.0,0.188,0.105,16.7,0.5,0.5,0.107,90.77,0.071,2015-12-30T00:00:00,7,DAL,Dallas,19-13,27,33,27,27,0,0,0,0,0,0,0,0,0,0,114,0.512,0.8,0.519,20,52,15,0021500480,1610612742,DAL,Dallas,Chandler Parsons,F,,31:05,0.0,0.0,0.0,2.0,9.0,9.0,12.0,20.0,0.0,0.0,3.0,0.0
0021500480,1610612742,DAL,Dallas,1717,Dirk Nowitzki,F,,28:19,132.7,88.2,44.4,0.095,1.0,9.6,0.0,0.267,0.151,9.6,0.467,0.537,0.31,90.52,0.157,2015-12-30T00:00:00,7,DAL,Dallas,19-13,27,33,27,27,0,0,0,0,0,0,0,0,0,0,114,0.512,0.8,0.519,20,52,15,0021500480,1610612742,DAL,Dallas,Dirk Nowitzki,F,,28:19,2.0,0.0,3.0,8.0,7.0,9.0,12.0,18.0,1.0,0.0,2.0,2.0
0021500480,1610612742,DAL,Dallas,2585,Zaza Pachulia,C,,24:28,129.5,102.2,27.3,0.105,1.0,14.5,0.348,0.318,0.333,14.5,0.625,0.717,0.208,93.78,0.181,2015-12-30T00:00:00,7,DAL,Dallas,19-13,27,33,27,27,0,0,0,0,0,0,0,0,0,0,114,0.512,0.8,0.519,20,52,15,0021500480,1610612742,DAL,Dallas,Zaza Pachulia,C,,24:28,2.0,8.0,2.0,10.0,9.0,5.0,12.0,14.0,0.0,0.0,3.0,5.0
0021500480,1610612742,DAL,Dallas,202083,Wesley Matthews,G,,25:35,121.7,100.3,21.4,0.0,0.0,0.0,0.0,0.125,0.067,0.0,0.722,0.722,0.156,97.19,0.122,2015-12-30T00:00:00,7,DAL,Dallas,19-13,27,33,27,27,0,0,0,0,0,0,0,0,0,0,114,0.512,0.8,0.519,20,52,15,0021500480,1610612742,DAL,Dallas,Wesley Matthews,G,,25:35,0.0,2.0,3.0,2.0,11.0,5.0,14.0,16.0,0.0,0.0,0.0,1.0
0021500480,1610612742,DAL,Dallas,200826,J.J. Barea,G,,31:13,132.2,96.3,35.8,0.286,2.0,28.6,0.0,0.097,0.052,14.3,0.958,0.958,0.216,92.01,0.22,2015-12-30T00:00:00,7,DAL,Dallas,19-13,27,33,27,27,0,0,0,0,0,0,0,0,0,0,114,0.512,0.8,0.519,20,52,15,0021500480,1610612742,DAL,Dallas,J.J. Barea,G,,31:13,8.0,9.0,2.0,6.0,10.0,9.0,13.0,18.0,0.0,0.0,0.0,2.0
0021500480,1610612742,DAL,Dallas,2734,Devin Harris,,,20:16,118.4,100.1,18.3,0.077,1.0,11.3,0.0,0.063,0.029,11.3,0.917,0.945,0.166,96.35,0.132,2015-12-30T00:00:00,7,DAL,Dallas,19-13,27,33,27,27,0,0,0,0,0,0,0,0,0,0,114,0.512,0.8,0.519,20,52,15,0021500480,1610612742,DAL,Dallas,Devin Harris,,,20:16,3.0,0.0,6.0,6.0,8.0,0.0,8.0,10.0,0.0,0.0,3.0,1.0
0021500480,1610612742,DAL,Dallas,203939,Dwight Powell,,,25:26,120.9,103.8,17.0,0.053,1.0,9.1,0.063,0.15,0.111,9.1,0.556,0.556,0.19,95.01,0.052,2015-12-30T00:00:00,7,DAL,Dallas,19-13,27,33,27,27,0,0,0,0,0,0,0,0,0,0,114,0.512,0.8,0.519,20,52,15,0021500480,1610612742,DAL,Dallas,Dwight Powell,,,25:26,2.0,0.0,2.0,8.0,14.0,4.0,9.0,16.0,0.0,0.0,4.0,1.0
0021500480,1610612742,DAL,Dallas,101109,Raymond Felton,,,21:26,123.4,97.2,26.1,0.176,1.5,27.6,0.077,0.1,0.091,18.4,0.5,0.51,0.185,92.58,0.07,2015-12-30T00:00:00,7,DAL,Dallas,19-13,27,33,27,27,0,0,0,0,0,0,0,0,0,0,114,0.512,0.8,0.519,20,52,15,0021500480,1610612742,DAL,Dallas,Raymond Felton,,,21:26,2.0,3.0,0.0,2.0,10.0,4.0,7.0,14.0,0.0,0.0,0.0,1.0
0021500480,1610612742,DAL,Dallas,101111,Charlie Villanueva,,,12:24,98.9,84.9,14.0,0.0,0.0,0.0,0.0,0.25,0.133,0.0,0.357,0.357,0.239,101.34,0.116,2015-12-30T00:00:00,7,DAL,Dallas,19-13,27,33,27,27,0,0,0,0,0,0,0,0,0,0,114,0.512,0.8,0.519,20,52,15,0021500480,1610612742,DAL,Dallas,Charlie Villanueva,,,12:24,0.0,0.0,0.0,2.0,4.0,5.0,3.0,4.0,2.0,0.0,2.0,0.0
0021500480,1610612742,DAL,Dallas,203098,John Jenkins,,,5:23,85.6,86.2,-0.7,0.0,0.0,0.0,0.0,0.125,0.071,0.0,0.333,0.333,0.24,103.79,0.0,2015-12-30T00:00:00,7,DAL,Dallas,19-13,27,33,27,27,0,0,0,0,0,0,0,0,0,0,114,0.512,0.8,0.519,20,52,15,0021500480,1610612742,DAL,Dallas,John Jenkins,,,5:23,0.0,0.0,0.0,0.0,2.0,5.0,0.0,0.0,0.0,0.0,1.0,1.0
0021500480,1610612742,DAL,Dallas,202379,Jeremy Evans,,,5:23,85.6,86.2,-0.7,0.0,0.0,0.0,0.0,0.25,0.143,0.0,0.0,0.543,0.22,103.79,0.353,2015-12-30T00:00:00,7,DAL,Dallas,19-13,27,33,27,27,0,0,0,0,0,0,0,0,0,0,114,0.512,0.8,0.519,20,52,15,0021500480,1610612742,DAL,Dallas,Jeremy Evans,,,5:23,2.0,0.0,2.0,0.0,2.0,5.0,0.0,0.0,0.0,0.0,0.0,2.0
0021500480,1610612742,DAL,Dallas,1626147,Justin Anderson,,,5:11,85.6,84.2,1.4,0.0,0.0,0.0,0.0,0.0,0.0,34.7,0.0,0.266,0.23,103.72,-0.263,2015-12-30T00:00:00,7,DAL,Dallas,19-13,27,33,27,27,0,0,0,0,0,0,0,0,0,0,114,0.512,0.8,0.519,20,52,15,0021500480,1610612742,DAL,Dallas,Justin Anderson,,,5:11,0.0,0.0,1.0,0.0,2.0,5.0,0.0,0.0,1.0,0.0,1.0,1.0
0021500480,1610612742,DAL,Dallas,201580,JaVale McGee,,,3:51,78.5,101.2,-22.7,0.0,0.0,0.0,0.333,0.0,0.182,34.7,0.0,0.266,0.299,109.22,-0.105,2015-12-30T00:00:00,7,DAL,Dallas,19-13,27,33,27,27,0,0,0,0,0,0,0,0,0,0,114,0.512,0.8,0.519,20,52,15,0021500480,1610612742,DAL,Dallas,JaVale McGee,,,3:51,0.0,1.0,0.0,0.0,2.0,5.0,0.0,0.0,0.0,0.0,0.0,1.0
