GAME_ID_x,TEAM_ID_x,TEAM_ABBREVIATION_x,TEAM_CITY_x,PLAYER_ID,PLAYER_NAME_x,START_POSITION_x,COMMENT_x,MIN_x,OFF_RATING,DEF_RATING,NET_RATING,AST_PCT,AST_TOV,AST_RATIO,OREB_PCT,DREB_PCT,REB_PCT,TM_TOV_PCT,EFG_PCT,TS_PCT,USG_PCT,PACE,PIE,GAME_DATE_EST,GAME_SEQUENCE,TEAM_ABBREVIATION_y,TEAM_CITY_NAME,TEAM_WINS_LOSSES,PTS_QTR1,PTS_QTR2,PTS_QTR3,PTS_QTR4,PTS_OT1,PTS_OT2,PTS_OT3,PTS_OT4,PTS_OT5,PTS_OT6,PTS_OT7,PTS_OT8,PTS_OT9,PTS_OT10,PTS,FG_PCT,FT_PCT,FG3_PCT,AST,REB,TOV,GAME_ID_y,TEAM_ID_y,TEAM_ABBREVIATION,TEAM_CITY_y,PLAYER_NAME_y,START_POSITION_y,COMMENT_y,MIN_y,PTS_OFF_TOV,PTS_2ND_CHANCE,PTS_FB,PTS_PAINT,OPP_PTS_OFF_TOV,OPP_PTS_2ND_CHANCE,OPP_PTS_FB,OPP_PTS_PAINT,BLK,BLKA,PF,PFD
0021500489,1610612757,POR,Portland,202329,Al-Farouq Aminu,F,,25:39,94.8,123.2,-28.4,0.077,1.0,11.1,0.042,0.2,0.122,11.1,0.357,0.357,0.153,85.93,0.051,2015-12-31T00:00:00,6,POR,Portland,14-21,25,14,32,25,0,0,0,0,0,0,0,0,0,0,96,0.449,0.714,0.444,19,39,10,0021500489,1610612757,POR,Portland,Al-Farouq Aminu,F,,25:39,0.0,0.0,0.0,0.0,16.0,7.0,3.0,18.0,0.0,0.0,1.0,1.0
0021500489,1610612757,POR,Portland,203943,Noah Vonleh,F,,18:44,112.3,105.0,7.3,0.167,0.0,42.0,0.0,0.2,0.111,0.0,1.0,1.087,0.077,86.04,0.195,2015-12-31T00:00:00,6,POR,Portland,14-21,25,14,32,25,0,0,0,0,0,0,0,0,0,0,96,0.449,0.714,0.444,19,39,10,0021500489,1610612757,POR,Portland,Noah Vonleh,F,,18:44,2.0,2.0,0.0,2.0,3.0,6.0,3.0,10.0,0.0,0.0,1.0,3.0
0021500489,1610612757,POR,Portland,203486,Mason Plumlee,C,,20:09,82.9,123.5,-40.6,0.222,1.0,20.2,0.19,0.25,0.22,20.2,0.2,0.255,0.186,90.85,0.075,2015-12-31T00:00:00,6,POR,Portland,14-21,25,14,32,25,0,0,0,0,0,0,0,0,0,0,96,0.449,0.714,0.444,19,39,10,0021500489,1610612757,POR,Portland,Mason Plumlee,C,,20:09,0.0,0.0,0.0,2.0,16.0,7.0,6.0,18.0,0.0,2.0,0.0,4.0
0021500489,1610612757,POR,Portland,203459,Allen Crabbe,G,,33:19,106.0,126.6,-20.7,0.111,2.0,13.1,0.0,0.097,0.05,6.5,0.591,0.609,0.195,90.94,0.061,2015-12-31T00:00:00,6,POR,Portland,14-21,25,14,32,25,0,0,0,0,0,0,0,0,0,0,96,0.449,0.714,0.444,19,39,10,0021500489,1610612757,POR,Portland,Allen Crabbe,G,,33:19,0.0,0.0,6.0,2.0,16.0,11.0,6.0,30.0,0.0,0.0,4.0,3.0
0021500489,1610612757,POR,Portland,203468,CJ McCollum,G,,40:13,114.8,125.7,-10.9,0.353,6.0,17.7,0.0,0.189,0.101,3.0,0.615,0.595,0.352,87.8,0.164,2015-12-31T00:00:00,6,POR,Portland,14-21,25,14,32,25,0,0,0,0,0,0,0,0,0,0,96,0.449,0.714,0.444,19,39,10,0021500489,1610612757,POR,Portland,CJ McCollum,G,,40:13,0.0,4.0,2.0,12.0,19.0,14.0,6.0,30.0,0.0,1.0,3.0,2.0
0021500489,1610612757,POR,Portland,201945,Gerald Henderson,,,8:07,108.1,159.9,-51.9,0.0,0.0,0.0,0.0,0.2,0.111,33.3,0.5,0.5,0.202,76.17,0.0,2015-12-31T00:00:00,6,POR,Portland,14-21,25,14,32,25,0,0,0,0,0,0,0,0,0,0,96,0.449,0.714,0.444,19,39,10,0021500489,1610612757,POR,Portland,Gerald Henderson,,,8:07,0.0,0.0,0.0,0.0,8.0,3.0,0.0,0.0,0.0,0.0,1.0,0.0
0021500489,1610612757,POR,Portland,203086,Meyers Leonard,,,33:10,118.8,125.5,-6.7,0.095,1.0,16.7,0.038,0.069,0.055,16.7,1.063,1.063,0.15,83.01,0.133,2015-12-31T00:00:00,6,POR,Portland,14-21,25,14,32,25,0,0,0,0,0,0,0,0,0,0,96,0.449,0.714,0.444,19,39,10,0021500489,1610612757,POR,Portland,Meyers Leonard,,,33:10,3.0,3.0,0.0,0.0,13.0,9.0,0.0,16.0,0.0,1.0,1.0,1.0
0021500489,1610612757,POR,Portland,202334,Ed Davis,,,9:35,86.0,168.0,-82.0,0.0,0.0,0.0,0.0,0.167,0.077,29.1,0.5,0.615,0.177,80.94,0.028,2015-12-31T00:00:00,6,POR,Portland,14-21,25,14,32,25,0,0,0,0,0,0,0,0,0,0,96,0.449,0.714,0.444,19,39,10,0021500489,1610612757,POR,Portland,Ed Davis,,,9:35,0.0,0.0,0.0,2.0,8.0,3.0,0.0,2.0,0.0,0.0,1.0,1.0
0021500489,1610612757,POR,Portland,203090,Maurice Harkless,,,21:48,119.5,156.9,-37.4,0.067,0.0,9.2,0.091,0.125,0.111,0.0,0.333,0.405,0.245,86.8,0.053,2015-12-31T00:00:00,6,POR,Portland,14-21,25,14,32,25,0,0,0,0,0,0,0,0,0,0,96,0.449,0.714,0.444,19,39,10,0021500489,1610612757,POR,Portland,Maurice Harkless,,,21:48,2.0,0.0,2.0,6.0,16.0,6.0,3.0,20.0,0.0,0.0,1.0,1.0
0021500489,1610612757,POR,Portland,204025,Tim Frazier,,,23:12,130.0,134.5,-4.6,0.143,3.0,42.9,0.071,0.0,0.029,14.3,0.0,0.0,0.09,84.54,-0.036,2015-12-31T00:00:00,6,POR,Portland,14-21,25,14,32,25,0,0,0,0,0,0,0,0,0,0,96,0.449,0.714,0.444,19,39,10,0021500489,1610612757,POR,Portland,Tim Frazier,,,23:12,0.0,0.0,0.0,0.0,5.0,4.0,3.0,16.0,0.0,1.0,3.0,2.0
0021500489,1610612757,POR,Portland,1626242,Luis Montero,,,3:02,140.0,50.0,90.0,0.0,0.0,0.0,0.0,0.333,0.167,0.0,0.5,0.5,0.333,71.21,0.4,2015-12-31T00:00:00,6,POR,Portland,14-21,25,14,32,25,0,0,0,0,0,0,0,0,0,0,96,0.449,0.714,0.444,19,39,10,0021500489,1610612757,POR,Portland,Luis Montero,,,3:02,2.0,0.0,0.0,0.0,0.0,0.0,0.0,0.0,0.0,0.0,0.0,0.0
0021500489,1610612757,POR,Portland,1626192,Pat Connaughton,,,3:02,140.0,50.0,90.0,0.0,0.0,0.0,0.0,0.0,0.0,0.0,0.75,0.75,0.333,71.21,0.4,2015-12-31T00:00:00,6,POR,Portland,14-21,25,14,32,25,0,0,0,0,0,0,0,0,0,0,96,0.449,0.714,0.444,19,39,10,0021500489,1610612757,POR,Portland,Pat Connaughton,,,3:02,0.0,0.0,0.0,0.0,0.0,0.0,0.0,0.0,0.0,0.0,0.0,0.0
0021500489,1610612757,POR,Portland,2549,Chris Kaman,,DNP - Coach's Decision                  ,,,,,,,0.0,,,,,,,0.0,,,2015-12-31T00:00:00,6,POR,Portland,14-21,25,14,32,25,0,0,0,0,0,0,0,0,0,0,96,0.449,0.714,0.444,19,39,10,0021500489,1610612757,POR,Portland,Chris Kaman,,DNP - Coach's Decision                  ,,,,,,,,,,,,,
0021500489,1610612762,UTA,Utah,202330,Gordon Hayward,F,,33:24,122.3,110.8,11.4,0.048,0.0,4.7,0.0,0.345,0.164,0.0,0.526,0.566,0.297,88.87,0.179,2015-12-31T00:00:00,6,UTA,Utah,14-17,25,32,29,23,0,0,0,0,0,0,0,0,0,0,109,0.5,0.727,0.455,19,42,5,0021500489,1610612762,UTA,Utah,Gordon Hayward,F,,33:24,6.0,6.0,3.0,4.0,4.0,7.0,10.0,20.0,0.0,0.0,2.0,5.0
0021500489,1610612762,UTA,Utah,1626168,Trey Lyles,F,,31:53,125.3,99.3,26.0,0.16,4.0,33.3,0.067,0.214,0.138,8.3,0.357,0.357,0.129,83.91,0.075,2015-12-31T00:00:00,6,UTA,Utah,14-17,25,32,29,23,0,0,0,0,0,0,0,0,0,0,109,0.5,0.727,0.455,19,42,5,0021500489,1610612762,UTA,Utah,Trey Lyles,F,,31:53,3.0,2.0,0.0,2.0,4.0,9.0,6.0,20.0,0.0,0.0,3.0,1.0
0021500489,1610612762,UTA,Utah,203481,Jeff Withey,C,,34:51,134.5,101.6,32.9,0.033,1.0,9.7,0.071,0.036,0.054,9.7,0.571,0.601,0.135,88.27,0.057,2015-12-31T00:00:00,6,UTA,Utah,14-17,25,32,29,23,0,0,0,0,0,0,0,0,0,0,109,0.5,0.727,0.455,19,42,5,0021500489,1610612762,UTA,Utah,Jeff Withey,C,,34:51,0.0,0.0,0.0,8.0,5.0,5.0,10.0,18.0,4.0,0.0,3.0,4.0
0021500489,1610612762,UTA,Utah,203918,Rodney Hood,G,,29:19,141.0,86.9,54.2,0.273,0.0,27.3,0.083,0.192,0.14,0.0,0.563,0.563,0.272,85.73,0.19,2015-12-31T00:00:00,6,UTA,Utah,14-17,25,32,29,23,0,0,0,0,0,0,0,0,0,0,109,0.5,0.727,0.455,19,42,5,0021500489,1610612762,UTA,Utah,Rodney Hood,G,,29:19,8.0,2.0,0.0,6.0,5.0,2.0,4.0,14.0,1.0,0.0,2.0,0.0
0021500489,1610612762,UTA,Utah,203526,Raul Neto,G,,18:38,112.2,105.8,6.3,0.083,0.0,16.7,0.105,0.105,0.105,0.0,0.7,0.7,0.132,88.67,0.127,2015-12-31T00:00:00,6,UTA,Utah,14-17,25,32,29,23,0,0,0,0,0,0,0,0,0,0,109,0.5,0.727,0.455,19,42,5,0021500489,1610612762,UTA,Utah,Raul Neto,G,,18:38,0.0,0.0,0.0,2.0,4.0,2.0,4.0,10.0,0.0,0.0,1.0,2.0
0021500489,1610612762,UTA,Utah,202344,Trevor Booker,,,25:42,125.6,115.0,10.5,0.095,2.0,25.4,0.08,0.105,0.091,12.7,0.25,0.307,0.108,85.43,0.032,2015-12-31T00:00:00,6,UTA,Utah,14-17,25,32,29,23,0,0,0,0,0,0,0,0,0,0,109,0.5,0.727,0.455,19,42,5,0021500489,1610612762,UTA,Utah,Trevor Booker,,,25:42,0.0,1.0,0.0,2.0,5.0,2.0,4.0,12.0,0.0,0.0,1.0,1.0
0021500489,1610612762,UTA,Utah,203504,Trey Burke,,,29:22,139.3,113.0,26.3,0.188,0.0,13.1,0.0,0.053,0.023,0.0,0.684,0.679,0.337,84.31,0.204,2015-12-31T00:00:00,6,UTA,Utah,14-17,25,32,29,23,0,0,0,0,0,0,0,0,0,0,109,0.5,0.727,0.455,19,42,5,0021500489,1610612762,UTA,Utah,Trey Burke,,,29:22,4.0,3.0,0.0,6.0,5.0,7.0,6.0,16.0,0.0,0.0,0.0,2.0
0021500489,1610612762,UTA,Utah,203187,Chris Johnson,,,15:17,103.4,149.5,-46.1,0.125,1.0,15.5,0.0,0.182,0.071,15.5,0.75,0.788,0.175,87.69,0.114,2015-12-31T00:00:00,6,UTA,Utah,14-17,25,32,29,23,0,0,0,0,0,0,0,0,0,0,109,0.5,0.727,0.455,19,42,5,0021500489,1610612762,UTA,Utah,Chris Johnson,,,15:17,0.0,0.0,3.0,2.0,4.0,4.0,4.0,8.0,0.0,0.0,2.0,1.0
0021500489,1610612762,UTA,Utah,204060,Joe Ingles,,,17:28,151.7,118.7,33.0,0.0,0.0,0.0,0.167,0.111,0.143,0.0,1.125,1.125,0.113,83.32,0.091,2015-12-31T00:00:00,6,UTA,Utah,14-17,25,32,29,23,0,0,0,0,0,0,0,0,0,0,109,0.5,0.727,0.455,19,42,5,0021500489,1610612762,UTA,Utah,Joe Ingles,,,17:28,3.0,0.0,0.0,0.0,5.0,3.0,2.0,8.0,0.0,0.0,3.0,0.0
0021500489,1610612762,UTA,Utah,202407,Elijah Millsap,,,2:03,66.7,233.3,-166.7,0.0,0.0,0.0,0.0,0.0,0.0,0.0,0.0,0.0,0.0,70.24,0.0,2015-12-31T00:00:00,6,UTA,Utah,14-17,25,32,29,23,0,0,0,0,0,0,0,0,0,0,109,0.5,0.727,0.455,19,42,5,0021500489,1610612762,UTA,Utah,Elijah Millsap,,,2:03,0.0,0.0,0.0,0.0,2.0,2.0,0.0,2.0,0.0,0.0,0.0,0.0
0021500489,1610612762,UTA,Utah,202353,Tibor Pleiss,,,2:03,66.7,233.3,-166.7,0.0,0.0,0.0,0.0,0.0,0.0,50.0,0.0,0.0,0.5,70.24,-0.5,2015-12-31T00:00:00,6,UTA,Utah,14-17,25,32,29,23,0,0,0,0,0,0,0,0,0,0,109,0.5,0.727,0.455,19,42,5,0021500489,1610612762,UTA,Utah,Tibor Pleiss,,,2:03,0.0,0.0,0.0,0.0,2.0,2.0,0.0,2.0,0.0,0.0,1.0,0.0
0021500489,1610612762,UTA,Utah,202324,Derrick Favors,,DND - Back spasms                       ,,,,,,,0.0,,,,,,,0.0,,,2015-12-31T00:00:00,6,UTA,Utah,14-17,25,32,29,23,0,0,0,0,0,0,0,0,0,0,109,0.5,0.727,0.455,19,42,5,0021500489,1610612762,UTA,Utah,Derrick Favors,,DND - Back spasms                       ,,,,,,,,,,,,,
