GAME_ID_x,TEAM_ID_x,TEAM_ABBREVIATION_x,TEAM_CITY_x,PLAYER_ID,PLAYER_NAME_x,START_POSITION_x,COMMENT_x,MIN_x,OFF_RATING,DEF_RATING,NET_RATING,AST_PCT,AST_TOV,AST_RATIO,OREB_PCT,DREB_PCT,REB_PCT,TM_TOV_PCT,EFG_PCT,TS_PCT,USG_PCT,PACE,PIE,GAME_DATE_EST,GAME_SEQUENCE,TEAM_ABBREVIATION_y,TEAM_CITY_NAME,TEAM_WINS_LOSSES,PTS_QTR1,PTS_QTR2,PTS_QTR3,PTS_QTR4,PTS_OT1,PTS_OT2,PTS_OT3,PTS_OT4,PTS_OT5,PTS_OT6,PTS_OT7,PTS_OT8,PTS_OT9,PTS_OT10,PTS,FG_PCT,FT_PCT,FG3_PCT,AST,REB,TOV,GAME_ID_y,TEAM_ID_y,TEAM_ABBREVIATION,TEAM_CITY_y,PLAYER_NAME_y,START_POSITION_y,COMMENT_y,MIN_y,PTS_OFF_TOV,PTS_2ND_CHANCE,PTS_FB,PTS_PAINT,OPP_PTS_OFF_TOV,OPP_PTS_2ND_CHANCE,OPP_PTS_FB,OPP_PTS_PAINT,BLK,BLKA,PF,PFD
0021500486,1610612750,MIN,Minnesota,2419,Tayshaun Prince,F,,24:39,83.5,105.1,-21.6,0.0,0.0,0.0,0.0,0.0,0.0,0.0,0.0,0.0,0.051,105.5,-0.024,2015-12-31T00:00:00,2,MIN,Minnesota,12-21,22,15,33,20,0,0,0,0,0,0,0,0,0,0,90,0.407,0.789,0.357,22,36,15,0021500486,1610612750,MIN,Minnesota,Tayshaun Prince,F,,24:39,0.0,0.0,0.0,0.0,5.0,12.0,10.0,22.0,0.0,0.0,1.0,0.0
0021500486,1610612750,MIN,Minnesota,203476,Gorgui Dieng,F,,21:59,113.4,107.9,5.5,0.111,1.0,22.2,0.071,0.118,0.097,22.2,0.6,0.6,0.146,98.65,0.068,2015-12-31T00:00:00,2,MIN,Minnesota,12-21,22,15,33,20,0,0,0,0,0,0,0,0,0,0,90,0.407,0.789,0.357,22,36,15,0021500486,1610612750,MIN,Minnesota,Gorgui Dieng,F,,21:59,2.0,2.0,0.0,4.0,3.0,11.0,3.0,20.0,2.0,1.0,3.0,1.0
0021500486,1610612750,MIN,Minnesota,1626157,Karl-Anthony Towns,C,,35:03,84.3,126.0,-41.6,0.2,1.5,13.1,0.057,0.241,0.141,8.7,0.588,0.615,0.249,101.18,0.162,2015-12-31T00:00:00,2,MIN,Minnesota,12-21,22,15,33,20,0,0,0,0,0,0,0,0,0,0,90,0.407,0.789,0.357,22,36,15,0021500486,1610612750,MIN,Minnesota,Karl-Anthony Towns,C,,35:03,4.0,2.0,2.0,8.0,9.0,14.0,15.0,34.0,1.0,0.0,2.0,2.0
0021500486,1610612750,MIN,Minnesota,203952,Andrew Wiggins,G,,34:51,88.6,121.2,-32.6,0.053,0.5,4.2,0.0,0.097,0.046,8.4,0.447,0.506,0.282,104.35,0.09,2015-12-31T00:00:00,2,MIN,Minnesota,12-21,22,15,33,20,0,0,0,0,0,0,0,0,0,0,90,0.407,0.789,0.357,22,36,15,0021500486,1610612750,MIN,Minnesota,Andrew Wiggins,G,,34:51,0.0,0.0,2.0,8.0,7.0,15.0,14.0,36.0,0.0,0.0,2.0,4.0
0021500486,1610612750,MIN,Minnesota,201937,Ricky Rubio,G,,27:46,80.5,120.5,-39.9,0.444,1.6,31.6,0.033,0.2,0.109,19.7,0.273,0.365,0.258,106.04,0.095,2015-12-31T00:00:00,2,MIN,Minnesota,12-21,22,15,33,20,0,0,0,0,0,0,0,0,0,0,90,0.407,0.789,0.357,22,36,15,0021500486,1610612750,MIN,Minnesota,Ricky Rubio,G,,27:46,2.0,0.0,0.0,6.0,7.0,12.0,12.0,30.0,0.0,0.0,1.0,1.0
0021500486,1610612750,MIN,Minnesota,202357,Nemanja Bjelica,,,25:37,83.4,95.7,-12.3,0.0,0.0,0.0,0.042,0.083,0.062,0.0,0.417,0.417,0.101,102.61,-0.008,2015-12-31T00:00:00,2,MIN,Minnesota,12-21,22,15,33,20,0,0,0,0,0,0,0,0,0,0,90,0.407,0.789,0.357,22,36,15,0021500486,1610612750,MIN,Minnesota,Nemanja Bjelica,,,25:37,0.0,3.0,0.0,2.0,8.0,9.0,13.0,20.0,0.0,0.0,4.0,1.0
0021500486,1610612750,MIN,Minnesota,203498,Shabazz Muhammad,,,22:49,99.7,106.3,-6.6,0.083,0.0,9.4,0.056,0.105,0.081,0.0,0.786,0.778,0.192,102.11,0.186,2015-12-31T00:00:00,2,MIN,Minnesota,12-21,22,15,33,20,0,0,0,0,0,0,0,0,0,0,90,0.407,0.789,0.357,22,36,15,0021500486,1610612750,MIN,Minnesota,Shabazz Muhammad,,,22:49,5.0,1.0,4.0,8.0,6.0,9.0,13.0,20.0,0.0,0.0,2.0,3.0
0021500486,1610612750,MIN,Minnesota,1626145,Tyus Jones,,,13:09,80.0,83.9,-4.0,0.667,4.0,40.0,0.0,0.455,0.217,10.0,0.5,0.5,0.202,102.5,0.391,2015-12-31T00:00:00,2,MIN,Minnesota,12-21,22,15,33,20,0,0,0,0,0,0,0,0,0,0,90,0.407,0.789,0.357,22,36,15,0021500486,1610612750,MIN,Minnesota,Tyus Jones,,,13:09,0.0,0.0,0.0,2.0,4.0,4.0,9.0,8.0,0.0,0.0,1.0,2.0
0021500486,1610612750,MIN,Minnesota,203897,Zach LaVine,,,24:48,76.2,116.1,-39.9,0.143,1.0,14.5,0.0,0.19,0.089,14.5,0.125,0.205,0.214,104.63,-0.066,2015-12-31T00:00:00,2,MIN,Minnesota,12-21,22,15,33,20,0,0,0,0,0,0,0,0,0,0,90,0.407,0.789,0.357,22,36,15,0021500486,1610612750,MIN,Minnesota,Zach LaVine,,,24:48,0.0,0.0,2.0,2.0,4.0,5.0,16.0,20.0,0.0,0.0,5.0,2.0
0021500486,1610612750,MIN,Minnesota,204014,Damjan Rudez,,,9:19,64.0,98.3,-34.3,0.2,1.0,14.3,0.0,0.0,0.0,14.3,0.3,0.3,0.256,120.66,-0.127,2015-12-31T00:00:00,2,MIN,Minnesota,12-21,22,15,33,20,0,0,0,0,0,0,0,0,0,0,90,0.407,0.789,0.357,22,36,15,0021500486,1610612750,MIN,Minnesota,Damjan Rudez,,,9:19,3.0,0.0,0.0,0.0,2.0,4.0,10.0,10.0,0.0,2.0,3.0,0.0
0021500486,1610612750,MIN,Minnesota,2755,Kevin Martin,,DNP - Coach's Decision                  ,,,,,,,0.0,,,,,,,0.0,,,2015-12-31T00:00:00,2,MIN,Minnesota,12-21,22,15,33,20,0,0,0,0,0,0,0,0,0,0,90,0.407,0.789,0.357,22,36,15,0021500486,1610612750,MIN,Minnesota,Kevin Martin,,DNP - Coach's Decision                  ,,,,,,,,,,,,,
0021500486,1610612750,MIN,Minnesota,1889,Andre Miller,,DNP - Coach's Decision                  ,,,,,,,0.0,,,,,,,0.0,,,2015-12-31T00:00:00,2,MIN,Minnesota,12-21,22,15,33,20,0,0,0,0,0,0,0,0,0,0,90,0.407,0.789,0.357,22,36,15,0021500486,1610612750,MIN,Minnesota,Andre Miller,,DNP - Coach's Decision                  ,,,,,,,,,,,,,
0021500486,1610612750,MIN,Minnesota,203940,Adreian Payne,,DNP - Coach's Decision                  ,,,,,,,0.0,,,,,,,0.0,,,2015-12-31T00:00:00,2,MIN,Minnesota,12-21,22,15,33,20,0,0,0,0,0,0,0,0,0,0,90,0.407,0.789,0.357,22,36,15,0021500486,1610612750,MIN,Minnesota,Adreian Payne,,DNP - Coach's Decision                  ,,,,,,,,,,,,,
0021500486,1610612765,DET,Detroit,202694,Marcus Morris,F,,34:14,113.8,90.6,23.2,0.1,0.75,20.5,0.0,0.063,0.032,27.3,0.2,0.524,0.136,106.37,0.04,2015-12-31T00:00:00,2,DET,Detroit,18-15,15,30,33,37,0,0,0,0,0,0,0,0,0,0,115,0.477,0.679,0.4,24,52,16,0021500486,1610612765,DET,Detroit,Marcus Morris,F,,34:14,0.0,4.0,0.0,0.0,11.0,8.0,8.0,30.0,0.0,0.0,1.0,4.0
0021500486,1610612765,DET,Detroit,101141,Ersan Ilyasova,F,,28:32,103.6,103.0,0.7,0.0,0.0,0.0,0.0,0.2,0.096,12.7,0.75,0.727,0.111,103.42,0.092,2015-12-31T00:00:00,2,DET,Detroit,18-15,15,30,33,37,0,0,0,0,0,0,0,0,0,0,115,0.477,0.679,0.4,24,52,16,0021500486,1610612765,DET,Detroit,Ersan Ilyasova,F,,28:32,0.0,0.0,0.0,0.0,11.0,5.0,6.0,28.0,2.0,0.0,3.0,3.0
0021500486,1610612765,DET,Detroit,203083,Andre Drummond,C,,30:44,120.0,93.7,26.2,0.056,0.25,4.5,0.28,0.379,0.333,18.1,0.786,0.673,0.275,105.39,0.207,2015-12-31T00:00:00,2,DET,Detroit,18-15,15,30,33,37,0,0,0,0,0,0,0,0,0,0,115,0.477,0.679,0.4,24,52,16,0021500486,1610612765,DET,Detroit,Andre Drummond,C,,30:44,4.0,8.0,6.0,22.0,11.0,8.0,6.0,28.0,0.0,0.0,1.0,5.0
0021500486,1610612765,DET,Detroit,203484,Kentavious Caldwell-Pope,G,,37:01,125.2,85.3,39.9,0.103,0.0,13.0,0.033,0.083,0.061,0.0,0.471,0.548,0.23,101.92,0.126,2015-12-31T00:00:00,2,DET,Detroit,18-15,15,30,33,37,0,0,0,0,0,0,0,0,0,0,115,0.477,0.679,0.4,24,52,16,0021500486,1610612765,DET,Detroit,Kentavious Caldwell-Pope,G,,37:01,3.0,0.0,3.0,6.0,10.0,7.0,8.0,32.0,0.0,1.0,2.0,5.0
0021500486,1610612765,DET,Detroit,202704,Reggie Jackson,G,,27:07,128.7,90.9,37.8,0.45,3.0,34.0,0.043,0.08,0.062,11.3,0.643,0.658,0.256,105.82,0.156,2015-12-31T00:00:00,2,DET,Detroit,18-15,15,30,33,37,0,0,0,0,0,0,0,0,0,0,115,0.477,0.679,0.4,24,52,16,0021500486,1610612765,DET,Detroit,Reggie Jackson,G,,27:07,0.0,5.0,0.0,8.0,8.0,7.0,6.0,24.0,0.0,1.0,3.0,1.0
0021500486,1610612765,DET,Detroit,1626169,Stanley Johnson,,,21:32,95.0,82.5,12.4,0.333,0.0,30.8,0.05,0.15,0.1,0.0,0.278,0.278,0.183,100.44,0.08,2015-12-31T00:00:00,2,DET,Detroit,18-15,15,30,33,37,0,0,0,0,0,0,0,0,0,0,115,0.477,0.679,0.4,24,52,16,0021500486,1610612765,DET,Detroit,Stanley Johnson,,,21:32,0.0,0.0,2.0,2.0,8.0,1.0,4.0,18.0,0.0,0.0,1.0,0.0
0021500486,1610612765,DET,Detroit,201943,Brandon Jennings,,,20:53,88.1,79.8,8.2,0.3,1.0,19.4,0.0,0.286,0.15,19.4,0.389,0.371,0.263,101.27,0.103,2015-12-31T00:00:00,2,DET,Detroit,18-15,15,30,33,37,0,0,0,0,0,0,0,0,0,0,115,0.477,0.679,0.4,24,52,16,0021500486,1610612765,DET,Detroit,Brandon Jennings,,,20:53,0.0,0.0,5.0,4.0,8.0,1.0,4.0,16.0,0.0,0.0,1.0,2.0
0021500486,1610612765,DET,Detroit,201229,Anthony Tolliver,,,16:05,138.1,60.2,77.8,0.083,0.0,12.5,0.0,0.294,0.179,0.0,1.071,1.071,0.198,99.26,0.315,2015-12-31T00:00:00,2,DET,Detroit,18-15,15,30,33,37,0,0,0,0,0,0,0,0,0,0,115,0.477,0.679,0.4,24,52,16,0021500486,1610612765,DET,Detroit,Anthony Tolliver,,,16:05,0.0,0.0,3.0,0.0,2.0,3.0,4.0,12.0,0.0,0.0,0.0,1.0
0021500486,1610612765,DET,Detroit,203382,Aron Baynes,,,13:53,105.7,73.9,31.8,0.0,0.0,0.0,0.154,0.231,0.192,20.0,0.25,0.25,0.17,94.25,-0.023,2015-12-31T00:00:00,2,DET,Detroit,18-15,15,30,33,37,0,0,0,0,0,0,0,0,0,0,115,0.477,0.679,0.4,24,52,16,0021500486,1610612765,DET,Detroit,Aron Baynes,,,13:53,2.0,2.0,0.0,2.0,2.0,0.0,4.0,12.0,0.0,1.0,3.0,1.0
0021500486,1610612765,DET,Detroit,1626199,Darrun Hilliard,,,3:23,65.2,66.7,-1.4,0.0,0.0,0.0,0.0,0.0,0.0,0.0,0.0,0.725,0.3,129.1,0.727,2015-12-31T00:00:00,2,DET,Detroit,18-15,15,30,33,37,0,0,0,0,0,0,0,0,0,0,115,0.477,0.679,0.4,24,52,16,0021500486,1610612765,DET,Detroit,Darrun Hilliard,,,3:23,2.0,0.0,4.0,0.0,3.0,0.0,0.0,0.0,0.0,0.0,0.0,2.0
0021500486,1610612765,DET,Detroit,201202,Joel Anthony,,,3:23,65.2,66.7,-1.4,0.0,0.0,0.0,0.0,0.0,0.0,0.0,0.0,0.0,0.0,129.1,-0.091,2015-12-31T00:00:00,2,DET,Detroit,18-15,15,30,33,37,0,0,0,0,0,0,0,0,0,0,115,0.477,0.679,0.4,24,52,16,0021500486,1610612765,DET,Detroit,Joel Anthony,,,3:23,0.0,0.0,0.0,0.0,3.0,0.0,0.0,0.0,1.0,0.0,1.0,0.0
0021500486,1610612765,DET,Detroit,203493,Reggie Bullock,,,3:13,48.1,75.0,-26.9,0.0,0.0,0.0,0.0,0.0,0.0,0.0,0.0,0.0,0.0,121.77,0.0,2015-12-31T00:00:00,2,DET,Detroit,18-15,15,30,33,37,0,0,0,0,0,0,0,0,0,0,115,0.477,0.679,0.4,24,52,16,0021500486,1610612765,DET,Detroit,Reggie Bullock,,,3:13,0.0,0.0,0.0,0.0,3.0,0.0,0.0,0.0,0.0,0.0,0.0,0.0
0021500486,1610612765,DET,Detroit,2581,Steve Blake,,DNP - Coach's Decision                  ,,,,,,,0.0,,,,,,,0.0,,,2015-12-31T00:00:00,2,DET,Detroit,18-15,15,30,33,37,0,0,0,0,0,0,0,0,0,0,115,0.477,0.679,0.4,24,52,16,0021500486,1610612765,DET,Detroit,Steve Blake,,DNP - Coach's Decision                  ,,,,,,,,,,,,,
