GAME_ID_x,TEAM_ID_x,TEAM_ABBREVIATION_x,TEAM_CITY_x,PLAYER_ID,PLAYER_NAME_x,START_POSITION_x,COMMENT_x,MIN_x,OFF_RATING,DEF_RATING,NET_RATING,AST_PCT,AST_TOV,AST_RATIO,OREB_PCT,DREB_PCT,REB_PCT,TM_TOV_PCT,EFG_PCT,TS_PCT,USG_PCT,PACE,PIE,GAME_DATE_EST,GAME_SEQUENCE,TEAM_ID_y,TEAM_ABBREVIATION_y,TEAM_CITY_NAME,TEAM_WINS_LOSSES,PTS_QTR1,PTS_QTR2,PTS_QTR3,PTS_QTR4,PTS_OT1,PTS_OT2,PTS_OT3,PTS_OT4,PTS_OT5,PTS_OT6,PTS_OT7,PTS_OT8,PTS_OT9,PTS_OT10,PTS,FG_PCT,FT_PCT,FG3_PCT,AST,REB,TOV,GAME_ID_y,TEAM_ID,TEAM_ABBREVIATION,TEAM_CITY_y,PLAYER_NAME_y,START_POSITION_y,COMMENT_y,MIN_y,PTS_OFF_TOV,PTS_2ND_CHANCE,PTS_FB,PTS_PAINT,OPP_PTS_OFF_TOV,OPP_PTS_2ND_CHANCE,OPP_PTS_FB,OPP_PTS_PAINT,BLK,BLKA,PF,PFD
0021300980,1610612739,CLE,Cleveland,2736,Luol Deng,F,,33:16,101.9,111.7,-9.7,0.0,0.0,0.0,0.0,0.214,0.102,0.0,0.7,0.68,0.169,95.87,0.126,2014-03-14T00:00:00,10,1610612739,CLE,Cleveland,26-40,16,36,32,19,0,0,0,0,0,0,0,0,0,0,103,0.488,0.722,0.455,19,41,11,0021300980,1610612739,CLE,Cleveland,Luol Deng,F,,33:16,1.0,0.0,3.0,0.0,9.0,9.0,13.0,28.0,0.0,1.0,1.0,2.0
0021300980,1610612739,CLE,Cleveland,2736,Luol Deng,F,,33:16,101.9,111.7,-9.7,0.0,0.0,0.0,0.0,0.214,0.102,0.0,0.7,0.68,0.169,95.87,0.126,2014-03-14T00:00:00,10,1610612744,GSW,Golden State,41-26,32,21,18,23,0,0,0,0,0,0,0,0,0,0,94,0.455,0.684,0.379,23,42,17,0021300980,1610612739,CLE,Cleveland,Luol Deng,F,,33:16,1.0,0.0,3.0,0.0,9.0,9.0,13.0,28.0,0.0,1.0,1.0,2.0
0021300980,1610612739,CLE,Cleveland,202684,Tristan Thompson,F,,26:01,100.9,115.0,-14.1,0.05,0.5,9.2,0.043,0.182,0.111,18.4,0.143,0.254,0.178,96.57,-0.005,2014-03-14T00:00:00,10,1610612739,CLE,Cleveland,26-40,16,36,32,19,0,0,0,0,0,0,0,0,0,0,103,0.488,0.722,0.455,19,41,11,0021300980,1610612739,CLE,Cleveland,Tristan Thompson,F,,26:01,2.0,2.0,0.0,2.0,9.0,9.0,8.0,26.0,2.0,1.0,4.0,2.0
0021300980,1610612739,CLE,Cleveland,202684,Tristan Thompson,F,,26:01,100.9,115.0,-14.1,0.05,0.5,9.2,0.043,0.182,0.111,18.4,0.143,0.254,0.178,96.57,-0.005,2014-03-14T00:00:00,10,1610612744,GSW,Golden State,41-26,32,21,18,23,0,0,0,0,0,0,0,0,0,0,94,0.455,0.684,0.379,23,42,17,0021300980,1610612739,CLE,Cleveland,Tristan Thompson,F,,26:01,2.0,2.0,0.0,2.0,9.0,9.0,8.0,26.0,2.0,1.0,4.0,2.0
0021300980,1610612739,CLE,Cleveland,201150,Spencer Hawes,C,,36:19,98.4,106.8,-8.4,0.1,0.0,8.8,0.094,0.313,0.203,0.0,0.472,0.533,0.267,96.62,0.165,2014-03-14T00:00:00,10,1610612739,CLE,Cleveland,26-40,16,36,32,19,0,0,0,0,0,0,0,0,0,0,103,0.488,0.722,0.455,19,41,11,0021300980,1610612739,CLE,Cleveland,Spencer Hawes,C,,36:19,2.0,2.0,4.0,12.0,11.0,9.0,15.0,32.0,1.0,0.0,4.0,3.0
0021300980,1610612739,CLE,Cleveland,201150,Spencer Hawes,C,,36:19,98.4,106.8,-8.4,0.1,0.0,8.8,0.094,0.313,0.203,0.0,0.472,0.533,0.267,96.62,0.165,2014-03-14T00:00:00,10,1610612744,GSW,Golden State,41-26,32,21,18,23,0,0,0,0,0,0,0,0,0,0,94,0.455,0.684,0.379,23,42,17,0021300980,1610612739,CLE,Cleveland,Spencer Hawes,C,,36:19,2.0,2.0,4.0,12.0,11.0,9.0,15.0,32.0,1.0,0.0,4.0,3.0
0021300980,1610612739,CLE,Cleveland,101127,Jarrett Jack,G,,27:46,113.2,86.6,26.6,0.19,4.0,38.3,0.0,0.107,0.058,9.6,0.8,0.827,0.107,99.5,0.094,2014-03-14T00:00:00,10,1610612739,CLE,Cleveland,26-40,16,36,32,19,0,0,0,0,0,0,0,0,0,0,103,0.488,0.722,0.455,19,41,11,0021300980,1610612739,CLE,Cleveland,Jarrett Jack,G,,27:46,2.0,0.0,0.0,2.0,9.0,7.0,4.0,24.0,0.0,0.0,5.0,2.0
0021300980,1610612739,CLE,Cleveland,101127,Jarrett Jack,G,,27:46,113.2,86.6,26.6,0.19,4.0,38.3,0.0,0.107,0.058,9.6,0.8,0.827,0.107,99.5,0.094,2014-03-14T00:00:00,10,1610612744,GSW,Golden State,41-26,32,21,18,23,0,0,0,0,0,0,0,0,0,0,94,0.455,0.684,0.379,23,42,17,0021300980,1610612739,CLE,Cleveland,Jarrett Jack,G,,27:46,2.0,0.0,0.0,2.0,9.0,7.0,4.0,24.0,0.0,0.0,5.0,2.0
0021300980,1610612739,CLE,Cleveland,202681,Kyrie Irving,G,,37:20,98.5,99.9,-1.5,0.174,0.8,18.3,0.0,0.065,0.032,22.9,0.625,0.621,0.226,95.27,0.102,2014-03-14T00:00:00,10,1610612739,CLE,Cleveland,26-40,16,36,32,19,0,0,0,0,0,0,0,0,0,0,103,0.488,0.722,0.455,19,41,11,0021300980,1610612739,CLE,Cleveland,Kyrie Irving,G,,37:20,5.0,0.0,3.0,2.0,11.0,9.0,15.0,32.0,1.0,0.0,2.0,2.0
0021300980,1610612739,CLE,Cleveland,202681,Kyrie Irving,G,,37:20,98.5,99.9,-1.5,0.174,0.8,18.3,0.0,0.065,0.032,22.9,0.625,0.621,0.226,95.27,0.102,2014-03-14T00:00:00,10,1610612744,GSW,Golden State,41-26,32,21,18,23,0,0,0,0,0,0,0,0,0,0,94,0.455,0.684,0.379,23,42,17,0021300980,1610612739,CLE,Cleveland,Kyrie Irving,G,,37:20,5.0,0.0,3.0,2.0,11.0,9.0,15.0,32.0,1.0,0.0,2.0,2.0
0021300980,1610612739,CLE,Cleveland,203079,Dion Waiters,,,31:02,102.0,90.5,11.4,0.235,2.0,17.4,0.0,0.038,0.019,8.7,0.529,0.529,0.289,98.74,0.114,2014-03-14T00:00:00,10,1610612739,CLE,Cleveland,26-40,16,36,32,19,0,0,0,0,0,0,0,0,0,0,103,0.488,0.722,0.455,19,41,11,0021300980,1610612739,CLE,Cleveland,Dion Waiters,,,31:02,2.0,0.0,3.0,8.0,6.0,2.0,11.0,20.0,0.0,2.0,0.0,0.0
0021300980,1610612739,CLE,Cleveland,203079,Dion Waiters,,,31:02,102.0,90.5,11.4,0.235,2.0,17.4,0.0,0.038,0.019,8.7,0.529,0.529,0.289,98.74,0.114,2014-03-14T00:00:00,10,1610612744,GSW,Golden State,41-26,32,21,18,23,0,0,0,0,0,0,0,0,0,0,94,0.455,0.684,0.379,23,42,17,0021300980,1610612739,CLE,Cleveland,Dion Waiters,,,31:02,2.0,0.0,3.0,8.0,6.0,2.0,11.0,20.0,0.0,2.0,0.0,0.0
0021300980,1610612739,CLE,Cleveland,203521,Matthew Dellavedova,,,15:51,112.9,81.3,31.6,0.231,0.0,42.9,0.0,0.0,0.0,0.0,0.75,0.75,0.122,99.88,0.104,2014-03-14T00:00:00,10,1610612739,CLE,Cleveland,26-40,16,36,32,19,0,0,0,0,0,0,0,0,0,0,103,0.488,0.722,0.455,19,41,11,0021300980,1610612739,CLE,Cleveland,Matthew Dellavedova,,,15:51,3.0,0.0,0.0,0.0,4.0,0.0,2.0,10.0,0.0,0.0,0.0,0.0
0021300980,1610612739,CLE,Cleveland,203521,Matthew Dellavedova,,,15:51,112.9,81.3,31.6,0.231,0.0,42.9,0.0,0.0,0.0,0.0,0.75,0.75,0.122,99.88,0.104,2014-03-14T00:00:00,10,1610612744,GSW,Golden State,41-26,32,21,18,23,0,0,0,0,0,0,0,0,0,0,94,0.455,0.684,0.379,23,42,17,0021300980,1610612739,CLE,Cleveland,Matthew Dellavedova,,,15:51,3.0,0.0,0.0,0.0,4.0,0.0,2.0,10.0,0.0,0.0,0.0,0.0
0021300980,1610612739,CLE,Cleveland,2760,Anderson Varejao,,,20:01,117.9,72.8,45.1,0.059,1.0,14.5,0.0,0.333,0.182,14.5,0.5,0.512,0.135,100.23,0.083,2014-03-14T00:00:00,10,1610612739,CLE,Cleveland,26-40,16,36,32,19,0,0,0,0,0,0,0,0,0,0,103,0.488,0.722,0.455,19,41,11,0021300980,1610612739,CLE,Cleveland,Anderson Varejao,,,20:01,2.0,2.0,0.0,0.0,4.0,0.0,7.0,10.0,0.0,1.0,3.0,3.0
0021300980,1610612739,CLE,Cleveland,2760,Anderson Varejao,,,20:01,117.9,72.8,45.1,0.059,1.0,14.5,0.0,0.333,0.182,14.5,0.5,0.512,0.135,100.23,0.083,2014-03-14T00:00:00,10,1610612744,GSW,Golden State,41-26,32,21,18,23,0,0,0,0,0,0,0,0,0,0,94,0.455,0.684,0.379,23,42,17,0021300980,1610612739,CLE,Cleveland,Anderson Varejao,,,20:01,2.0,2.0,0.0,0.0,4.0,0.0,7.0,10.0,0.0,1.0,3.0,3.0
0021300980,1610612739,CLE,Cleveland,203092,Tyler Zeller,,,12:24,120.3,76.0,44.4,0.0,0.0,0.0,0.0,0.5,0.25,0.0,0.6,0.643,0.211,100.8,0.196,2014-03-14T00:00:00,10,1610612739,CLE,Cleveland,26-40,16,36,32,19,0,0,0,0,0,0,0,0,0,0,103,0.488,0.722,0.455,19,41,11,0021300980,1610612739,CLE,Cleveland,Tyler Zeller,,,12:24,5.0,0.0,5.0,4.0,2.0,0.0,0.0,8.0,0.0,1.0,1.0,2.0
0021300980,1610612739,CLE,Cleveland,203092,Tyler Zeller,,,12:24,120.3,76.0,44.4,0.0,0.0,0.0,0.0,0.5,0.25,0.0,0.6,0.643,0.211,100.8,0.196,2014-03-14T00:00:00,10,1610612744,GSW,Golden State,41-26,32,21,18,23,0,0,0,0,0,0,0,0,0,0,94,0.455,0.684,0.379,23,42,17,0021300980,1610612739,CLE,Cleveland,Tyler Zeller,,,12:24,5.0,0.0,5.0,4.0,2.0,0.0,0.0,8.0,0.0,1.0,1.0,2.0
0021300980,1610612739,CLE,Cleveland,203461,Anthony Bennett,,DND - Left Patellar Tendon Strain,,,,,,,0.0,,,,,,,0.0,,,2014-03-14T00:00:00,10,1610612739,CLE,Cleveland,26-40,16,36,32,19,0,0,0,0,0,0,0,0,0,0,103,0.488,0.722,0.455,19,41,11,0021300980,1610612739,CLE,Cleveland,Anthony Bennett,,DND - Left Patellar Tendon Strain,,,,,,,,,,,,,
0021300980,1610612739,CLE,Cleveland,203461,Anthony Bennett,,DND - Left Patellar Tendon Strain,,,,,,,0.0,,,,,,,0.0,,,2014-03-14T00:00:00,10,1610612744,GSW,Golden State,41-26,32,21,18,23,0,0,0,0,0,0,0,0,0,0,94,0.455,0.684,0.379,23,42,17,0021300980,1610612739,CLE,Cleveland,Anthony Bennett,,DND - Left Patellar Tendon Strain,,,,,,,,,,,,,
0021300980,1610612739,CLE,Cleveland,202197,Shane Edwards,,DNP - Coach's Decision,,,,,,,0.0,,,,,,,0.0,,,2014-03-14T00:00:00,10,1610612739,CLE,Cleveland,26-40,16,36,32,19,0,0,0,0,0,0,0,0,0,0,103,0.488,0.722,0.455,19,41,11,0021300980,1610612739,CLE,Cleveland,Shane Edwards,,DNP - Coach's Decision,,,,,,,,,,,,,
0021300980,1610612739,CLE,Cleveland,202197,Shane Edwards,,DNP - Coach's Decision,,,,,,,0.0,,,,,,,0.0,,,2014-03-14T00:00:00,10,1610612744,GSW,Golden State,41-26,32,21,18,23,0,0,0,0,0,0,0,0,0,0,94,0.455,0.684,0.379,23,42,17,0021300980,1610612739,CLE,Cleveland,Shane Edwards,,DNP - Coach's Decision,,,,,,,,,,,,,
0021300980,1610612739,CLE,Cleveland,202087,Alonzo Gee,,DNP - Coach's Decision,,,,,,,0.0,,,,,,,0.0,,,2014-03-14T00:00:00,10,1610612739,CLE,Cleveland,26-40,16,36,32,19,0,0,0,0,0,0,0,0,0,0,103,0.488,0.722,0.455,19,41,11,0021300980,1610612739,CLE,Cleveland,Alonzo Gee,,DNP - Coach's Decision,,,,,,,,,,,,,
0021300980,1610612739,CLE,Cleveland,202087,Alonzo Gee,,DNP - Coach's Decision,,,,,,,0.0,,,,,,,0.0,,,2014-03-14T00:00:00,10,1610612744,GSW,Golden State,41-26,32,21,18,23,0,0,0,0,0,0,0,0,0,0,94,0.455,0.684,0.379,23,42,17,0021300980,1610612739,CLE,Cleveland,Alonzo Gee,,DNP - Coach's Decision,,,,,,,,,,,,,
0021300980,1610612744,GSW,Golden State,2738,Andre Iguodala,F,,30:47,105.0,82.7,22.2,0.158,3.0,27.6,0.0,0.077,0.039,9.2,0.75,0.799,0.123,97.27,0.138,2014-03-14T00:00:00,10,1610612739,CLE,Cleveland,26-40,16,36,32,19,0,0,0,0,0,0,0,0,0,0,103,0.488,0.722,0.455,19,41,11,0021300980,1610612744,GSW,Golden State,Andre Iguodala,F,,30:47,0.0,0.0,2.0,0.0,10.0,6.0,4.0,18.0,0.0,0.0,1.0,1.0
0021300980,1610612744,GSW,Golden State,2738,Andre Iguodala,F,,30:47,105.0,82.7,22.2,0.158,3.0,27.6,0.0,0.077,0.039,9.2,0.75,0.799,0.123,97.27,0.138,2014-03-14T00:00:00,10,1610612744,GSW,Golden State,41-26,32,21,18,23,0,0,0,0,0,0,0,0,0,0,94,0.455,0.684,0.379,23,42,17,0021300980,1610612744,GSW,Golden State,Andre Iguodala,F,,30:47,0.0,0.0,2.0,0.0,10.0,6.0,4.0,18.0,0.0,0.0,1.0,1.0
0021300980,1610612744,GSW,Golden State,101135,David Lee,F,,35:14,88.1,99.8,-11.7,0.167,1.0,13.1,0.0,0.167,0.076,13.1,0.438,0.474,0.267,99.15,0.068,2014-03-14T00:00:00,10,1610612739,CLE,Cleveland,26-40,16,36,32,19,0,0,0,0,0,0,0,0,0,0,103,0.488,0.722,0.455,19,41,11,0021300980,1610612744,GSW,Golden State,David Lee,F,,35:14,4.0,3.0,4.0,14.0,22.0,4.0,16.0,20.0,0.0,3.0,3.0,3.0
0021300980,1610612744,GSW,Golden State,101135,David Lee,F,,35:14,88.1,99.8,-11.7,0.167,1.0,13.1,0.0,0.167,0.076,13.1,0.438,0.474,0.267,99.15,0.068,2014-03-14T00:00:00,10,1610612744,GSW,Golden State,41-26,32,21,18,23,0,0,0,0,0,0,0,0,0,0,94,0.455,0.684,0.379,23,42,17,0021300980,1610612744,GSW,Golden State,David Lee,F,,35:14,4.0,3.0,4.0,14.0,22.0,4.0,16.0,20.0,0.0,3.0,3.0,3.0
0021300980,1610612744,GSW,Golden State,101106,Andrew Bogut,C,,27:54,115.6,95.1,20.5,0.12,3.0,37.5,0.12,0.36,0.24,12.5,0.5,0.5,0.079,99.61,0.092,2014-03-14T00:00:00,10,1610612739,CLE,Cleveland,26-40,16,36,32,19,0,0,0,0,0,0,0,0,0,0,103,0.488,0.722,0.455,19,41,11,0021300980,1610612744,GSW,Golden State,Andrew Bogut,C,,27:54,2.0,2.0,0.0,4.0,11.0,2.0,12.0,16.0,3.0,0.0,5.0,4.0
0021300980,1610612744,GSW,Golden State,101106,Andrew Bogut,C,,27:54,115.6,95.1,20.5,0.12,3.0,37.5,0.12,0.36,0.24,12.5,0.5,0.5,0.079,99.61,0.092,2014-03-14T00:00:00,10,1610612744,GSW,Golden State,41-26,32,21,18,23,0,0,0,0,0,0,0,0,0,0,94,0.455,0.684,0.379,23,42,17,0021300980,1610612744,GSW,Golden State,Andrew Bogut,C,,27:54,2.0,2.0,0.0,4.0,11.0,2.0,12.0,16.0,3.0,0.0,5.0,4.0
0021300980,1610612744,GSW,Golden State,203084,Harrison Barnes,G,,41:05,104.1,95.7,8.4,0.067,1.0,14.5,0.0,0.143,0.07,14.5,0.375,0.307,0.133,97.67,0.016,2014-03-14T00:00:00,10,1610612739,CLE,Cleveland,26-40,16,36,32,19,0,0,0,0,0,0,0,0,0,0,103,0.488,0.722,0.455,19,41,11,0021300980,1610612744,GSW,Golden State,Harrison Barnes,G,,41:05,0.0,0.0,0.0,4.0,16.0,6.0,15.0,26.0,1.0,0.0,1.0,3.0
0021300980,1610612744,GSW,Golden State,203084,Harrison Barnes,G,,41:05,104.1,95.7,8.4,0.067,1.0,14.5,0.0,0.143,0.07,14.5,0.375,0.307,0.133,97.67,0.016,2014-03-14T00:00:00,10,1610612744,GSW,Golden State,41-26,32,21,18,23,0,0,0,0,0,0,0,0,0,0,94,0.455,0.684,0.379,23,42,17,0021300980,1610612744,GSW,Golden State,Harrison Barnes,G,,41:05,0.0,0.0,0.0,4.0,16.0,6.0,15.0,26.0,1.0,0.0,1.0,3.0
0021300980,1610612744,GSW,Golden State,201939,Stephen Curry,G,,36:01,101.9,99.0,2.9,0.4,2.0,24.9,0.0,0.129,0.062,12.5,0.618,0.672,0.306,97.5,0.197,2014-03-14T00:00:00,10,1610612739,CLE,Cleveland,26-40,16,36,32,19,0,0,0,0,0,0,0,0,0,0,103,0.488,0.722,0.455,19,41,11,0021300980,1610612744,GSW,Golden State,Stephen Curry,G,,36:01,5.0,0.0,7.0,4.0,14.0,2.0,13.0,20.0,0.0,1.0,1.0,3.0
0021300980,1610612744,GSW,Golden State,201939,Stephen Curry,G,,36:01,101.9,99.0,2.9,0.4,2.0,24.9,0.0,0.129,0.062,12.5,0.618,0.672,0.306,97.5,0.197,2014-03-14T00:00:00,10,1610612744,GSW,Golden State,41-26,32,21,18,23,0,0,0,0,0,0,0,0,0,0,94,0.455,0.684,0.379,23,42,17,0021300980,1610612744,GSW,Golden State,Stephen Curry,G,,36:01,5.0,0.0,7.0,4.0,14.0,2.0,13.0,20.0,0.0,1.0,1.0,3.0
0021300980,1610612744,GSW,Golden State,2581,Steve Blake,,,17:54,66.3,138.6,-72.3,0.375,0.0,42.9,0.0,0.071,0.033,0.0,0.25,0.25,0.108,98.84,0.042,2014-03-14T00:00:00,10,1610612739,CLE,Cleveland,26-40,16,36,32,19,0,0,0,0,0,0,0,0,0,0,103,0.488,0.722,0.455,19,41,11,0021300980,1610612744,GSW,Golden State,Steve Blake,,,17:54,0.0,0.0,0.0,0.0,15.0,4.0,9.0,14.0,0.0,0.0,0.0,0.0
0021300980,1610612744,GSW,Golden State,2581,Steve Blake,,,17:54,66.3,138.6,-72.3,0.375,0.0,42.9,0.0,0.071,0.033,0.0,0.25,0.25,0.108,98.84,0.042,2014-03-14T00:00:00,10,1610612744,GSW,Golden State,41-26,32,21,18,23,0,0,0,0,0,0,0,0,0,0,94,0.455,0.684,0.379,23,42,17,0021300980,1610612744,GSW,Golden State,Steve Blake,,,17:54,0.0,0.0,0.0,0.0,15.0,4.0,9.0,14.0,0.0,0.0,0.0,0.0
0021300980,1610612744,GSW,Golden State,203110,Draymond Green,,,28:02,99.5,125.0,-25.5,0.077,1.0,6.7,0.091,0.292,0.196,6.7,0.667,0.699,0.234,94.76,0.171,2014-03-14T00:00:00,10,1610612739,CLE,Cleveland,26-40,16,36,32,19,0,0,0,0,0,0,0,0,0,0,103,0.488,0.722,0.455,19,41,11,0021300980,1610612744,GSW,Golden State,Draymond Green,,,28:02,0.0,4.0,2.0,8.0,14.0,2.0,11.0,20.0,0.0,0.0,2.0,2.0
0021300980,1610612744,GSW,Golden State,203110,Draymond Green,,,28:02,99.5,125.0,-25.5,0.077,1.0,6.7,0.091,0.292,0.196,6.7,0.667,0.699,0.234,94.76,0.171,2014-03-14T00:00:00,10,1610612744,GSW,Golden State,41-26,32,21,18,23,0,0,0,0,0,0,0,0,0,0,94,0.455,0.684,0.379,23,42,17,0021300980,1610612744,GSW,Golden State,Draymond Green,,,28:02,0.0,4.0,2.0,8.0,14.0,2.0,11.0,20.0,0.0,0.0,2.0,2.0
0021300980,1610612744,GSW,Golden State,979,Jermaine O'Neal,,,13:26,81.2,122.1,-40.9,0.0,0.0,0.0,0.0,0.182,0.1,57.1,0.667,0.667,0.258,95.2,-0.023,2014-03-14T00:00:00,10,1610612739,CLE,Cleveland,26-40,16,36,32,19,0,0,0,0,0,0,0,0,0,0,103,0.488,0.722,0.455,19,41,11,0021300980,1610612744,GSW,Golden State,Jermaine O'Neal,,,13:26,2.0,0.0,0.0,4.0,10.0,2.0,5.0,8.0,2.0,0.0,3.0,3.0
0021300980,1610612744,GSW,Golden State,979,Jermaine O'Neal,,,13:26,81.2,122.1,-40.9,0.0,0.0,0.0,0.0,0.182,0.1,57.1,0.667,0.667,0.258,95.2,-0.023,2014-03-14T00:00:00,10,1610612744,GSW,Golden State,41-26,32,21,18,23,0,0,0,0,0,0,0,0,0,0,94,0.455,0.684,0.379,23,42,17,0021300980,1610612744,GSW,Golden State,Jermaine O'Neal,,,13:26,2.0,0.0,0.0,4.0,10.0,2.0,5.0,8.0,2.0,0.0,3.0,3.0
0021300980,1610612744,GSW,Golden State,202348,Jordan Crawford,,,7:11,64.3,132.7,-68.4,0.0,0.0,0.0,0.0,0.167,0.083,14.3,0.417,0.417,0.5,94.62,0.036,2014-03-14T00:00:00,10,1610612739,CLE,Cleveland,26-40,16,36,32,19,0,0,0,0,0,0,0,0,0,0,103,0.488,0.722,0.455,19,41,11,0021300980,1610612744,GSW,Golden State,Jordan Crawford,,,7:11,0.0,0.0,0.0,0.0,6.0,0.0,5.0,6.0,0.0,0.0,0.0,0.0
0021300980,1610612744,GSW,Golden State,202348,Jordan Crawford,,,7:11,64.3,132.7,-68.4,0.0,0.0,0.0,0.0,0.167,0.083,14.3,0.417,0.417,0.5,94.62,0.036,2014-03-14T00:00:00,10,1610612744,GSW,Golden State,41-26,32,21,18,23,0,0,0,0,0,0,0,0,0,0,94,0.455,0.684,0.379,23,42,17,0021300980,1610612744,GSW,Golden State,Jordan Crawford,,,7:11,0.0,0.0,0.0,0.0,6.0,0.0,5.0,6.0,0.0,0.0,0.0,0.0
0021300980,1610612744,GSW,Golden State,201578,Marreese Speights,,,2:26,52.1,200.0,-147.9,0.0,0.0,0.0,0.0,0.333,0.25,0.0,0.0,0.266,0.326,106.13,0.0,2014-03-14T00:00:00,10,1610612739,CLE,Cleveland,26-40,16,36,32,19,0,0,0,0,0,0,0,0,0,0,103,0.488,0.722,0.455,19,41,11,0021300980,1610612744,GSW,Golden State,Marreese Speights,,,2:26,0.0,0.0,0.0,0.0,2.0,2.0,0.0,2.0,0.0,0.0,0.0,1.0
0021300980,1610612744,GSW,Golden State,201578,Marreese Speights,,,2:26,52.1,200.0,-147.9,0.0,0.0,0.0,0.0,0.333,0.25,0.0,0.0,0.266,0.326,106.13,0.0,2014-03-14T00:00:00,10,1610612744,GSW,Golden State,41-26,32,21,18,23,0,0,0,0,0,0,0,0,0,0,94,0.455,0.684,0.379,23,42,17,0021300980,1610612744,GSW,Golden State,Marreese Speights,,,2:26,0.0,0.0,0.0,0.0,2.0,2.0,0.0,2.0,0.0,0.0,0.0,1.0
0021300980,1610612744,GSW,Golden State,202691,Klay Thompson,,NWT - Personal,,,,,,,0.0,,,,,,,0.0,,,2014-03-14T00:00:00,10,1610612739,CLE,Cleveland,26-40,16,36,32,19,0,0,0,0,0,0,0,0,0,0,103,0.488,0.722,0.455,19,41,11,0021300980,1610612744,GSW,Golden State,Klay Thompson,,NWT - Personal,,,,,,,,,,,,,
0021300980,1610612744,GSW,Golden State,202691,Klay Thompson,,NWT - Personal,,,,,,,0.0,,,,,,,0.0,,,2014-03-14T00:00:00,10,1610612744,GSW,Golden State,41-26,32,21,18,23,0,0,0,0,0,0,0,0,0,0,94,0.455,0.684,0.379,23,42,17,0021300980,1610612744,GSW,Golden State,Klay Thompson,,NWT - Personal,,,,,,,,,,,,,
