GAME_ID_x,TEAM_ID_x,TEAM_ABBREVIATION_x,TEAM_CITY_x,PLAYER_ID,PLAYER_NAME_x,START_POSITION_x,COMMENT_x,MIN_x,OFF_RATING,DEF_RATING,NET_RATING,AST_PCT,AST_TOV,AST_RATIO,OREB_PCT,DREB_PCT,REB_PCT,TM_TOV_PCT,EFG_PCT,TS_PCT,USG_PCT,PACE,PIE,GAME_DATE_EST,GAME_SEQUENCE,TEAM_ABBREVIATION_y,TEAM_CITY_NAME,TEAM_WINS_LOSSES,PTS_QTR1,PTS_QTR2,PTS_QTR3,PTS_QTR4,PTS_OT1,PTS_OT2,PTS_OT3,PTS_OT4,PTS_OT5,PTS_OT6,PTS_OT7,PTS_OT8,PTS_OT9,PTS_OT10,PTS,FG_PCT,FT_PCT,FG3_PCT,AST,REB,TOV,GAME_ID_y,TEAM_ID_y,TEAM_ABBREVIATION,TEAM_CITY_y,PLAYER_NAME_y,START_POSITION_y,COMMENT_y,MIN_y,PTS_OFF_TOV,PTS_2ND_CHANCE,PTS_FB,PTS_PAINT,OPP_PTS_OFF_TOV,OPP_PTS_2ND_CHANCE,OPP_PTS_FB,OPP_PTS_PAINT,BLK,BLKA,PF,PFD
0021500510,1610612756,PHX,Phoenix,200782,PJ Tucker,F,,32:19,59.8,105.8,-45.9,0.0,0.0,0.0,0.075,0.185,0.119,0.0,0.357,0.357,0.097,98.98,0.057,2016-01-03T00:00:00,5,PHX,Phoenix,12-25,10,12,29,26,0,0,0,0,0,0,0,0,0,0,77,0.36,0.778,0.222,16,45,14,0021500510,1610612756,PHX,Phoenix,PJ Tucker,F,,32:19,2.0,2.0,0.0,2.0,14.0,10.0,7.0,26.0,0.0,1.0,2.0,0.0
0021500510,1610612756,PHX,Phoenix,202720,Jon Leuer,F,,14:43,61.9,92.6,-30.7,0.143,1.0,14.3,0.0,0.143,0.063,14.3,0.4,0.4,0.17,103.8,0.042,2016-01-03T00:00:00,5,PHX,Phoenix,12-25,10,12,29,26,0,0,0,0,0,0,0,0,0,0,77,0.36,0.778,0.222,16,45,14,0021500510,1610612756,PHX,Phoenix,Jon Leuer,F,,14:43,0.0,0.0,2.0,4.0,6.0,0.0,6.0,14.0,0.0,0.0,1.0,0.0
0021500510,1610612756,PHX,Phoenix,2199,Tyson Chandler,C,,20:07,53.2,118.8,-65.6,0.0,0.0,0.0,0.045,0.235,0.128,14.3,0.167,0.167,0.162,101.5,-0.007,2016-01-03T00:00:00,5,PHX,Phoenix,12-25,10,12,29,26,0,0,0,0,0,0,0,0,0,0,77,0.36,0.778,0.222,16,45,14,0021500510,1610612756,PHX,Phoenix,Tyson Chandler,C,,20:07,0.0,0.0,0.0,2.0,12.0,4.0,7.0,20.0,0.0,0.0,1.0,1.0
0021500510,1610612756,PHX,Phoenix,1626164,Devin Booker,G,,22:07,57.4,125.4,-68.1,0.143,0.5,6.1,0.0,0.211,0.091,12.2,0.385,0.372,0.333,97.62,0.024,2016-01-03T00:00:00,5,PHX,Phoenix,12-25,10,12,29,26,0,0,0,0,0,0,0,0,0,0,77,0.36,0.778,0.222,16,45,14,0021500510,1610612756,PHX,Phoenix,Devin Booker,G,,22:07,0.0,0.0,0.0,4.0,7.0,7.0,7.0,20.0,0.0,2.0,3.0,2.0
0021500510,1610612756,PHX,Phoenix,202688,Brandon Knight,G,,44:10,84.3,96.7,-12.4,0.429,4.5,23.8,0.0,0.075,0.034,5.3,0.42,0.467,0.297,96.68,0.139,2016-01-03T00:00:00,5,PHX,Phoenix,12-25,10,12,29,26,0,0,0,0,0,0,0,0,0,0,77,0.36,0.778,0.222,16,45,14,0021500510,1610612756,PHX,Phoenix,Brandon Knight,G,,44:10,10.0,0.0,6.0,14.0,14.0,14.0,7.0,32.0,0.0,1.0,0.0,7.0
0021500510,1610612756,PHX,Phoenix,203933,TJ Warren,,,21:04,105.4,101.5,3.8,0.0,0.0,0.0,0.0,0.0,0.0,25.0,0.0,0.0,0.087,92.46,-0.046,2016-01-03T00:00:00,5,PHX,Phoenix,12-25,10,12,29,26,0,0,0,0,0,0,0,0,0,0,77,0.36,0.778,0.222,16,45,14,0021500510,1610612756,PHX,Phoenix,TJ Warren,,,21:04,0.0,0.0,0.0,0.0,6.0,6.0,6.0,12.0,1.0,0.0,0.0,1.0
0021500510,1610612756,PHX,Phoenix,203458,Alex Len,,,26:59,102.4,111.0,-8.6,0.105,1.0,20.0,0.0,0.36,0.173,20.0,0.5,0.5,0.143,93.31,0.112,2016-01-03T00:00:00,5,PHX,Phoenix,12-25,10,12,29,26,0,0,0,0,0,0,0,0,0,0,77,0.36,0.778,0.222,16,45,14,0021500510,1610612756,PHX,Phoenix,Alex Len,,,26:59,0.0,0.0,0.0,6.0,9.0,14.0,8.0,18.0,3.0,0.0,3.0,0.0
0021500510,1610612756,PHX,Phoenix,101179,Ronnie Price,,,27:05,90.0,65.8,24.2,0.111,2.0,22.2,0.063,0.1,0.081,11.1,0.417,0.417,0.108,101.34,0.07,2016-01-03T00:00:00,5,PHX,Phoenix,12-25,10,12,29,26,0,0,0,0,0,0,0,0,0,0,77,0.36,0.778,0.222,16,45,14,0021500510,1610612756,PHX,Phoenix,Ronnie Price,,,27:05,0.0,3.0,2.0,2.0,9.0,11.0,7.0,14.0,0.0,0.0,6.0,2.0
0021500510,1610612756,PHX,Phoenix,201603,Sonny Weems,,,3:50,22.2,115.5,-93.3,0.0,0.0,0.0,0.0,0.0,0.0,100.0,0.0,0.0,0.1,115.95,-0.118,2016-01-03T00:00:00,5,PHX,Phoenix,12-25,10,12,29,26,0,0,0,0,0,0,0,0,0,0,77,0.36,0.778,0.222,16,45,14,0021500510,1610612756,PHX,Phoenix,Sonny Weems,,,3:50,0.0,0.0,0.0,0.0,4.0,2.0,6.0,2.0,0.0,0.0,0.0,0.0
0021500510,1610612756,PHX,Phoenix,203141,Mirza Teletovic,,,23:12,100.7,64.0,36.7,0.077,0.5,5.6,0.074,0.222,0.148,11.2,0.536,0.538,0.309,98.78,0.188,2016-01-03T00:00:00,5,PHX,Phoenix,12-25,10,12,29,26,0,0,0,0,0,0,0,0,0,0,77,0.36,0.778,0.222,16,45,14,0021500510,1610612756,PHX,Phoenix,Mirza Teletovic,,,23:12,2.0,5.0,0.0,6.0,4.0,12.0,4.0,10.0,0.0,1.0,2.0,2.0
0021500510,1610612756,PHX,Phoenix,203462,Archie Goodwin,,,4:24,45.0,133.3,-88.3,0.0,0.0,0.0,0.2,0.0,0.143,17.0,0.25,0.41,0.595,97.53,-0.033,2016-01-03T00:00:00,5,PHX,Phoenix,12-25,10,12,29,26,0,0,0,0,0,0,0,0,0,0,77,0.36,0.778,0.222,16,45,14,0021500510,1610612756,PHX,Phoenix,Archie Goodwin,,,4:24,2.0,2.0,0.0,2.0,5.0,0.0,0.0,2.0,0.0,2.0,2.0,1.0
0021500510,1610612756,PHX,Phoenix,203955,Bryce Cotton,,DNP - Coach's Decision                  ,,,,,,,0.0,,,,,,,0.0,,,2016-01-03T00:00:00,5,PHX,Phoenix,12-25,10,12,29,26,0,0,0,0,0,0,0,0,0,0,77,0.36,0.778,0.222,16,45,14,0021500510,1610612756,PHX,Phoenix,Bryce Cotton,,DNP - Coach's Decision                  ,,,,,,,,,,,,,
0021500510,1610612756,PHX,Phoenix,202693,Markieff Morris,,DNP - Coach's Decision                  ,,,,,,,0.0,,,,,,,0.0,,,2016-01-03T00:00:00,5,PHX,Phoenix,12-25,10,12,29,26,0,0,0,0,0,0,0,0,0,0,77,0.36,0.778,0.222,16,45,14,0021500510,1610612756,PHX,Phoenix,Markieff Morris,,DNP - Coach's Decision                  ,,,,,,,,,,,,,
0021500510,1610612747,LAL,Los Angeles,1626148,Anthony Brown,F,,30:04,114.0,77.2,36.8,0.074,0.67,16.7,0.0,0.086,0.049,25.0,0.357,0.357,0.151,98.66,0.03,2016-01-03T00:00:00,5,LAL,Los Angeles,8-27,25,18,38,16,0,0,0,0,0,0,0,0,0,0,97,0.452,0.765,0.364,26,54,15,0021500510,1610612747,LAL,Los Angeles,Anthony Brown,F,,30:04,0.0,3.0,0.0,0.0,10.0,2.0,6.0,30.0,1.0,1.0,0.0,1.0
0021500510,1610612747,LAL,Los Angeles,1626204,Larry Nance Jr.,F,,32:03,102.3,76.7,25.6,0.0,0.0,0.0,0.148,0.27,0.219,15.5,0.7,0.689,0.185,97.14,0.188,2016-01-03T00:00:00,5,LAL,Los Angeles,8-27,25,18,38,16,0,0,0,0,0,0,0,0,0,0,97,0.452,0.765,0.364,26,54,15,0021500510,1610612747,LAL,Los Angeles,Larry Nance Jr.,F,,32:03,4.0,0.0,4.0,8.0,12.0,2.0,6.0,32.0,0.0,0.0,2.0,3.0
0021500510,1610612747,LAL,Los Angeles,201579,Roy Hibbert,C,,28:47,100.6,70.9,29.7,0.15,0.0,20.8,0.0,0.171,0.098,0.0,0.545,0.568,0.183,98.26,0.188,2016-01-03T00:00:00,5,LAL,Los Angeles,8-27,25,18,38,16,0,0,0,0,0,0,0,0,0,0,97,0.452,0.765,0.364,26,54,15,0021500510,1610612747,LAL,Los Angeles,Roy Hibbert,C,,28:47,0.0,0.0,0.0,4.0,8.0,2.0,6.0,24.0,3.0,0.0,1.0,2.0
0021500510,1610612747,LAL,Los Angeles,101150,Lou Williams,G,,33:53,107.8,71.3,36.4,0.19,2.0,16.4,0.0,0.175,0.104,8.2,0.824,0.819,0.269,99.59,0.291,2016-01-03T00:00:00,5,LAL,Los Angeles,8-27,25,18,38,16,0,0,0,0,0,0,0,0,0,0,97,0.452,0.765,0.364,26,54,15,0021500510,1610612747,LAL,Los Angeles,Lou Williams,G,,33:53,8.0,4.0,2.0,4.0,14.0,2.0,6.0,30.0,0.0,0.0,1.0,3.0
0021500510,1610612747,LAL,Los Angeles,203903,Jordan Clarkson,G,,34:17,107.5,78.0,29.5,0.28,3.5,33.5,0.032,0.1,0.07,9.6,0.455,0.505,0.177,98.57,0.123,2016-01-03T00:00:00,5,LAL,Los Angeles,8-27,25,18,38,16,0,0,0,0,0,0,0,0,0,0,97,0.452,0.765,0.364,26,54,15,0021500510,1610612747,LAL,Los Angeles,Jordan Clarkson,G,,34:17,4.0,0.0,4.0,10.0,12.0,6.0,6.0,38.0,1.0,0.0,4.0,4.0
0021500510,1610612747,LAL,Los Angeles,1626156,D'Angelo Russell,,,21:43,82.1,69.3,12.9,0.4,2.0,25.4,0.0,0.125,0.062,12.7,0.25,0.359,0.241,97.92,0.063,2016-01-03T00:00:00,5,LAL,Los Angeles,8-27,25,18,38,16,0,0,0,0,0,0,0,0,0,0,97,0.452,0.765,0.364,26,54,15,0021500510,1610612747,LAL,Los Angeles,D'Angelo Russell,,,21:43,0.0,2.0,3.0,2.0,4.0,10.0,4.0,12.0,0.0,1.0,3.0,2.0
0021500510,1610612747,LAL,Los Angeles,101138,Brandon Bass,,,19:13,95.4,90.3,5.1,0.222,2.0,19.4,0.053,0.053,0.053,9.7,0.5,0.546,0.186,98.16,0.109,2016-01-03T00:00:00,5,LAL,Los Angeles,8-27,25,18,38,16,0,0,0,0,0,0,0,0,0,0,97,0.452,0.765,0.364,26,54,15,0021500510,1610612747,LAL,Los Angeles,Brandon Bass,,,19:13,2.0,3.0,0.0,4.0,8.0,10.0,4.0,18.0,2.0,0.0,1.0,3.0
0021500510,1610612747,LAL,Los Angeles,203944,Julius Randle,,,15:57,91.3,82.4,8.9,0.3,1.5,30.4,0.111,0.588,0.343,20.2,0.0,0.205,0.181,100.39,0.152,2016-01-03T00:00:00,5,LAL,Los Angeles,8-27,25,18,38,16,0,0,0,0,0,0,0,0,0,0,97,0.452,0.765,0.364,26,54,15,0021500510,1610612747,LAL,Los Angeles,Julius Randle,,,15:57,0.0,2.0,0.0,0.0,4.0,10.0,4.0,10.0,0.0,1.0,3.0,2.0
0021500510,1610612747,LAL,Los Angeles,201156,Nick Young,,,17:56,72.8,81.1,-8.3,0.0,0.0,0.0,0.0,0.053,0.026,0.0,0.214,0.214,0.17,97.48,-0.082,2016-01-03T00:00:00,5,LAL,Los Angeles,8-27,25,18,38,16,0,0,0,0,0,0,0,0,0,0,97,0.452,0.765,0.364,26,54,15,0021500510,1610612747,LAL,Los Angeles,Nick Young,,,17:56,0.0,0.0,0.0,0.0,6.0,10.0,4.0,12.0,0.0,1.0,1.0,0.0
0021500510,1610612747,LAL,Los Angeles,1626273,Marcelo Huertas,,,6:07,45.5,159.9,-114.5,1.0,1.0,20.0,0.125,0.0,0.083,20.0,0.333,0.333,0.333,89.77,0.023,2016-01-03T00:00:00,5,LAL,Los Angeles,8-27,25,18,38,16,0,0,0,0,0,0,0,0,0,0,97,0.452,0.765,0.364,26,54,15,0021500510,1610612747,LAL,Los Angeles,Marcelo Huertas,,,6:07,0.0,2.0,0.0,2.0,2.0,6.0,4.0,4.0,0.0,0.0,0.0,0.0
0021500510,1610612747,LAL,Los Angeles,204028,Tarik Black,,DNP - Coach's Decision                  ,,,,,,,0.0,,,,,,,0.0,,,2016-01-03T00:00:00,5,LAL,Los Angeles,8-27,25,18,38,16,0,0,0,0,0,0,0,0,0,0,97,0.452,0.765,0.364,26,54,15,0021500510,1610612747,LAL,Los Angeles,Tarik Black,,DNP - Coach's Decision                  ,,,,,,,,,,,,,
0021500510,1610612747,LAL,Los Angeles,203527,Ryan Kelly,,DNP - Coach's Decision                  ,,,,,,,0.0,,,,,,,0.0,,,2016-01-03T00:00:00,5,LAL,Los Angeles,8-27,25,18,38,16,0,0,0,0,0,0,0,0,0,0,97,0.452,0.765,0.364,26,54,15,0021500510,1610612747,LAL,Los Angeles,Ryan Kelly,,DNP - Coach's Decision                  ,,,,,,,,,,,,,
0021500510,1610612747,LAL,Los Angeles,1897,Metta World Peace,,DNP - Coach's Decision                  ,,,,,,,0.0,,,,,,,0.0,,,2016-01-03T00:00:00,5,LAL,Los Angeles,8-27,25,18,38,16,0,0,0,0,0,0,0,0,0,0,97,0.452,0.765,0.364,26,54,15,0021500510,1610612747,LAL,Los Angeles,Metta World Peace,,DNP - Coach's Decision                  ,,,,,,,,,,,,,
