GAME_ID_x,TEAM_ID_x,TEAM_ABBREVIATION_x,TEAM_CITY_x,PLAYER_ID,PLAYER_NAME_x,START_POSITION_x,COMMENT_x,MIN_x,OFF_RATING,DEF_RATING,NET_RATING,AST_PCT,AST_TOV,AST_RATIO,OREB_PCT,DREB_PCT,REB_PCT,TM_TOV_PCT,EFG_PCT,TS_PCT,USG_PCT,PACE,PIE,GAME_DATE_EST,GAME_SEQUENCE,TEAM_ABBREVIATION_y,TEAM_CITY_NAME,TEAM_WINS_LOSSES,PTS_QTR1,PTS_QTR2,PTS_QTR3,PTS_QTR4,PTS_OT1,PTS_OT2,PTS_OT3,PTS_OT4,PTS_OT5,PTS_OT6,PTS_OT7,PTS_OT8,PTS_OT9,PTS_OT10,PTS,FG_PCT,FT_PCT,FG3_PCT,AST,REB,TOV,GAME_ID_y,TEAM_ID_y,TEAM_ABBREVIATION,TEAM_CITY_y,PLAYER_NAME_y,START_POSITION_y,COMMENT_y,MIN_y,PTS_OFF_TOV,PTS_2ND_CHANCE,PTS_FB,PTS_PAINT,OPP_PTS_OFF_TOV,OPP_PTS_2ND_CHANCE,OPP_PTS_FB,OPP_PTS_PAINT,BLK,BLKA,PF,PFD
0021500516,1610612759,SAS,San Antonio,202695,Kawhi Leonard,F,,30:50,130.4,108.6,21.8,0.04,0.25,5.5,0.0,0.083,0.042,21.8,0.875,0.901,0.236,98.14,0.156,2016-01-04T00:00:00,6,SAS,San Antonio,30-6,29,31,30,33,0,0,0,0,0,0,0,0,0,0,123,0.544,0.8,0.45,32,44,13,0021500516,1610612759,SAS,San Antonio,Kawhi Leonard,F,,30:50,6,0,3,4,11,11,2,32,1,0,1,4
0021500516,1610612759,SAS,San Antonio,200746,LaMarcus Aldridge,F,,29:50,121.8,106.8,14.9,0.045,1.0,5.5,0.222,0.192,0.208,5.5,0.429,0.494,0.24,97.76,0.11,2016-01-04T00:00:00,6,SAS,San Antonio,30-6,29,31,30,33,0,0,0,0,0,0,0,0,0,0,123,0.544,0.8,0.45,32,44,13,0021500516,1610612759,SAS,San Antonio,LaMarcus Aldridge,F,,29:50,0,10,0,10,11,9,2,34,1,1,2,3
0021500516,1610612759,SAS,San Antonio,1495,Tim Duncan,C,,27:19,128.9,105.5,23.5,0.182,4.0,24.3,0.095,0.333,0.222,6.1,0.636,0.612,0.192,99.03,0.177,2016-01-04T00:00:00,6,SAS,San Antonio,30-6,29,31,30,33,0,0,0,0,0,0,0,0,0,0,123,0.544,0.8,0.45,32,44,13,0021500516,1610612759,SAS,San Antonio,Tim Duncan,C,,27:19,8,2,0,12,10,13,3,28,1,0,5,1
0021500516,1610612759,SAS,San Antonio,201980,Danny Green,G,,14:16,119.0,125.6,-6.5,0.083,1.0,11.1,0.118,0.0,0.074,11.1,0.214,0.214,0.229,90.77,-0.027,2016-01-04T00:00:00,6,SAS,San Antonio,30-6,29,31,30,33,0,0,0,0,0,0,0,0,0,0,123,0.544,0.8,0.45,32,44,13,0021500516,1610612759,SAS,San Antonio,Danny Green,G,,14:16,0,0,0,0,4,7,1,18,1,0,1,0
0021500516,1610612759,SAS,San Antonio,201988,Patty Mills,G,,28:04,134.0,98.8,35.2,0.192,5.0,36.0,0.0,0.045,0.023,7.2,0.643,0.635,0.135,96.97,0.063,2016-01-04T00:00:00,6,SAS,San Antonio,30-6,29,31,30,33,0,0,0,0,0,0,0,0,0,0,123,0.544,0.8,0.45,32,44,13,0021500516,1610612759,SAS,San Antonio,Patty Mills,G,,28:04,3,0,0,0,6,11,2,24,0,0,3,2
0021500516,1610612759,SAS,San Antonio,203492,Ray McCallum,,,17:12,109.1,99.4,9.7,0.25,0.0,66.7,0.0,0.067,0.034,0.0,0.5,0.5,0.052,96.22,0.074,2016-01-04T00:00:00,6,SAS,San Antonio,30-6,29,31,30,33,0,0,0,0,0,0,0,0,0,0,123,0.544,0.8,0.45,32,44,13,0021500516,1610612759,SAS,San Antonio,Ray McCallum,,,17:12,0,0,0,0,2,3,1,12,0,0,0,0
0021500516,1610612759,SAS,San Antonio,1938,Manu Ginobili,,,21:38,120.9,100.4,20.5,0.389,3.5,41.2,0.063,0.136,0.105,11.8,0.5,0.5,0.195,102.06,0.128,2016-01-04T00:00:00,6,SAS,San Antonio,30-6,29,31,30,33,0,0,0,0,0,0,0,0,0,0,123,0.544,0.8,0.45,32,44,13,0021500516,1610612759,SAS,San Antonio,Manu Ginobili,,,21:38,2,2,0,0,7,7,1,22,0,2,1,0
0021500516,1610612759,SAS,San Antonio,2564,Boris Diaw,,,19:14,120.6,83.1,37.6,0.154,2.0,16.8,0.071,0.158,0.121,8.4,0.75,0.788,0.218,100.82,0.191,2016-01-04T00:00:00,6,SAS,San Antonio,30-6,29,31,30,33,0,0,0,0,0,0,0,0,0,0,123,0.544,0.8,0.45,32,44,13,0021500516,1610612759,SAS,San Antonio,Boris Diaw,,,19:14,2,2,0,12,1,5,1,14,0,0,2,2
0021500516,1610612759,SAS,San Antonio,2561,David West,,,14:31,124.7,110.4,14.3,0.273,0.0,25.0,0.0,0.1,0.048,0.0,0.556,0.556,0.282,94.17,0.154,2016-01-04T00:00:00,6,SAS,San Antonio,30-6,29,31,30,33,0,0,0,0,0,0,0,0,0,0,123,0.544,0.8,0.45,32,44,13,0021500516,1610612759,SAS,San Antonio,David West,,,14:31,2,2,0,8,2,5,0,6,1,1,0,0
0021500516,1610612759,SAS,San Antonio,203937,Kyle Anderson,,,8:58,113.4,110.3,3.1,0.286,2.0,40.0,0.0,0.222,0.118,20.0,0.5,0.5,0.168,86.19,0.047,2016-01-04T00:00:00,6,SAS,San Antonio,30-6,29,31,30,33,0,0,0,0,0,0,0,0,0,0,123,0.544,0.8,0.45,32,44,13,0021500516,1610612759,SAS,San Antonio,Kyle Anderson,,,8:58,0,0,0,2,0,3,0,2,0,0,2,1
0021500516,1610612759,SAS,San Antonio,203613,Jonathon Simmons,,,20:13,127.8,82.2,45.6,0.0,0.0,0.0,0.0,0.15,0.1,9.0,0.857,0.893,0.233,104.94,0.207,2016-01-04T00:00:00,6,SAS,San Antonio,30-6,29,31,30,33,0,0,0,0,0,0,0,0,0,0,123,0.544,0.8,0.45,32,44,13,0021500516,1610612759,SAS,San Antonio,Jonathon Simmons,,,20:13,5,0,10,10,6,6,2,14,0,1,3,4
0021500516,1610612759,SAS,San Antonio,1626246,Boban Marjanovic,,,5:06,133.3,100.0,33.3,0.4,0.0,50.0,0.333,0.667,0.5,0.0,0.5,0.5,0.2,84.71,0.245,2016-01-04T00:00:00,6,SAS,San Antonio,30-6,29,31,30,33,0,0,0,0,0,0,0,0,0,0,123,0.544,0.8,0.45,32,44,13,0021500516,1610612759,SAS,San Antonio,Boban Marjanovic,,,5:06,0,0,0,2,0,0,0,2,0,0,0,1
0021500516,1610612759,SAS,San Antonio,2588,Matt Bonner,,,2:49,120.0,100.0,20.0,0.0,0.0,0.0,0.0,0.0,0.0,0.0,0.0,0.0,0.167,85.21,0.0,2016-01-04T00:00:00,6,SAS,San Antonio,30-6,29,31,30,33,0,0,0,0,0,0,0,0,0,0,123,0.544,0.8,0.45,32,44,13,0021500516,1610612759,SAS,San Antonio,Matt Bonner,,,2:49,0,0,0,0,0,0,0,2,0,0,0,0
0021500516,1610612749,MIL,Milwaukee,203507,Giannis Antetokounmpo,F,,29:35,108.3,118.8,-10.5,0.095,1.0,14.4,0.074,0.069,0.071,14.4,0.556,0.557,0.168,98.61,0.074,2016-01-04T00:00:00,6,MIL,Milwaukee,14-22,30,19,26,23,0,0,0,0,0,0,0,0,0,0,98,0.481,0.7,0.25,23,35,15,0021500516,1610612749,MIL,Milwaukee,Giannis Antetokounmpo,F,,29:35,0,2,0,8,16,18,8,32,1,0,2,1
0021500516,1610612749,MIL,Milwaukee,203953,Jabari Parker,F,,31:45,111.0,123.9,-12.9,0.143,0.0,16.0,0.154,0.167,0.16,0.0,0.357,0.444,0.216,98.46,0.1,2016-01-04T00:00:00,6,MIL,Milwaukee,14-22,30,19,26,23,0,0,0,0,0,0,0,0,0,0,98,0.481,0.7,0.25,23,35,15,0021500516,1610612749,MIL,Milwaukee,Jabari Parker,F,,31:45,2,4,0,8,19,10,10,40,1,1,1,2
0021500516,1610612749,MIL,Milwaukee,202328,Greg Monroe,C,,27:56,105.5,124.5,-19.0,0.133,1.0,12.1,0.077,0.261,0.163,12.1,0.556,0.599,0.224,98.57,0.152,2016-01-04T00:00:00,6,MIL,Milwaukee,14-22,30,19,26,23,0,0,0,0,0,0,0,0,0,0,98,0.481,0.7,0.25,23,35,15,0021500516,1610612749,MIL,Milwaukee,Greg Monroe,C,,27:56,4,7,1,10,14,10,8,36,1,2,1,5
0021500516,1610612749,MIL,Milwaukee,203114,Khris Middleton,G,,33:45,114.4,128.5,-14.1,0.182,1.33,17.3,0.038,0.071,0.056,13.0,0.462,0.591,0.26,96.51,0.09,2016-01-04T00:00:00,6,MIL,Milwaukee,14-22,30,19,26,23,0,0,0,0,0,0,0,0,0,0,98,0.481,0.7,0.25,23,35,15,0021500516,1610612749,MIL,Milwaukee,Khris Middleton,G,,33:45,4,0,0,2,17,14,8,42,0,1,2,4
0021500516,1610612749,MIL,Milwaukee,203487,Michael Carter-Williams,G,,31:26,112.5,125.1,-12.6,0.3,0.0,32.2,0.0,0.16,0.082,0.0,0.65,0.633,0.173,98.35,0.131,2016-01-04T00:00:00,6,MIL,Milwaukee,14-22,30,19,26,23,0,0,0,0,0,0,0,0,0,0,98,0.481,0.7,0.25,23,35,15,0021500516,1610612749,MIL,Milwaukee,Michael Carter-Williams,G,,31:26,1,0,1,8,21,10,10,44,1,0,3,5
0021500516,1610612749,MIL,Milwaukee,201564,O.J. Mayo,,,24:03,85.4,127.4,-41.9,0.063,0.5,14.3,0.0,0.0,0.0,28.6,0.0,0.0,0.115,101.55,-0.048,2016-01-04T00:00:00,6,MIL,Milwaukee,14-22,30,19,26,23,0,0,0,0,0,0,0,0,0,0,98,0.481,0.7,0.25,23,35,15,0021500516,1610612749,MIL,Milwaukee,O.J. Mayo,,,24:03,0,0,0,0,17,8,8,26,0,0,1,0
0021500516,1610612749,MIL,Milwaukee,203089,John Henson,,,14:03,94.9,123.5,-28.6,0.111,1.0,13.4,0.0,0.364,0.182,13.4,0.8,0.735,0.212,99.76,0.115,2016-01-04T00:00:00,6,MIL,Milwaukee,14-22,30,19,26,23,0,0,0,0,0,0,0,0,0,0,98,0.481,0.7,0.25,23,35,15,0021500516,1610612749,MIL,Milwaukee,John Henson,,,14:03,0,0,0,4,12,8,5,12,1,0,3,2
0021500516,1610612749,MIL,Milwaukee,201573,Jerryd Bayless,,,7:17,65.3,102.0,-36.8,0.0,0.0,0.0,0.111,0.0,0.063,20.0,0.375,0.375,0.289,108.71,-0.065,2016-01-04T00:00:00,6,MIL,Milwaukee,14-22,30,19,26,23,0,0,0,0,0,0,0,0,0,0,98,0.481,0.7,0.25,23,35,15,0021500516,1610612749,MIL,Milwaukee,Jerryd Bayless,,,7:17,0,3,0,0,5,6,3,4,0,0,1,1
0021500516,1610612749,MIL,Milwaukee,1626173,Rashad Vaughn,,,16:23,74.3,120.2,-45.9,0.222,0.67,25.0,0.0,0.143,0.067,37.5,0.333,0.333,0.175,96.1,0.0,2016-01-04T00:00:00,6,MIL,Milwaukee,14-22,30,19,26,23,0,0,0,0,0,0,0,0,0,0,98,0.481,0.7,0.25,23,35,15,0021500516,1610612749,MIL,Milwaukee,Rashad Vaughn,,,16:23,0,0,0,0,11,6,5,18,0,1,1,0
0021500516,1610612749,MIL,Milwaukee,203948,Johnny O'Bryant III,,,7:37,85.4,145.4,-60.0,0.0,0.0,0.0,0.0,0.25,0.091,0.0,0.667,0.667,0.233,86.08,0.074,2016-01-04T00:00:00,6,MIL,Milwaukee,14-22,30,19,26,23,0,0,0,0,0,0,0,0,0,0,98,0.481,0.7,0.25,23,35,15,0021500516,1610612749,MIL,Milwaukee,Johnny O'Bryant III,,,7:37,0,0,0,0,2,0,0,14,0,0,2,0
0021500516,1610612749,MIL,Milwaukee,203101,Miles Plumlee,,,6:01,101.1,127.3,-26.2,0.0,0.0,0.0,0.0,0.0,0.0,50.0,1.0,1.0,0.184,87.28,0.033,2016-01-04T00:00:00,6,MIL,Milwaukee,14-22,30,19,26,23,0,0,0,0,0,0,0,0,0,0,98,0.481,0.7,0.25,23,35,15,0021500516,1610612749,MIL,Milwaukee,Miles Plumlee,,,6:01,0,0,0,2,2,0,0,12,0,0,0,0
0021500516,1610612749,MIL,Milwaukee,203898,Tyler Ennis,,,5:06,100.0,133.3,-33.3,0.5,0.0,66.7,0.0,0.0,0.0,0.0,0.0,0.0,0.111,84.71,0.0,2016-01-04T00:00:00,6,MIL,Milwaukee,14-22,30,19,26,23,0,0,0,0,0,0,0,0,0,0,98,0.481,0.7,0.25,23,35,15,0021500516,1610612749,MIL,Milwaukee,Tyler Ennis,,,5:06,0,0,0,0,2,0,0,10,0,0,1,0
0021500516,1610612749,MIL,Milwaukee,203142,Chris Copeland,,,5:03,100.0,133.3,-33.3,0.0,0.0,0.0,0.0,0.0,0.0,0.0,1.5,1.5,0.111,85.54,0.109,2016-01-04T00:00:00,6,MIL,Milwaukee,14-22,30,19,26,23,0,0,0,0,0,0,0,0,0,0,98,0.481,0.7,0.25,23,35,15,0021500516,1610612749,MIL,Milwaukee,Chris Copeland,,,5:03,0,0,0,0,2,0,0,10,0,0,0,0
