GAME_ID_x,TEAM_ID_x,TEAM_ABBREVIATION_x,TEAM_CITY_x,PLAYER_ID,PLAYER_NAME_x,START_POSITION_x,COMMENT_x,MIN_x,OFF_RATING,DEF_RATING,NET_RATING,AST_PCT,AST_TOV,AST_RATIO,OREB_PCT,DREB_PCT,REB_PCT,TM_TOV_PCT,EFG_PCT,TS_PCT,USG_PCT,PACE,PIE,GAME_DATE_EST,GAME_SEQUENCE,TEAM_ABBREVIATION_y,TEAM_CITY_NAME,TEAM_WINS_LOSSES,PTS_QTR1,PTS_QTR2,PTS_QTR3,PTS_QTR4,PTS_OT1,PTS_OT2,PTS_OT3,PTS_OT4,PTS_OT5,PTS_OT6,PTS_OT7,PTS_OT8,PTS_OT9,PTS_OT10,PTS,FG_PCT,FT_PCT,FG3_PCT,AST,REB,TOV,GAME_ID_y,TEAM_ID_y,TEAM_ABBREVIATION,TEAM_CITY_y,PLAYER_NAME_y,START_POSITION_y,COMMENT_y,MIN_y,PTS_OFF_TOV,PTS_2ND_CHANCE,PTS_FB,PTS_PAINT,OPP_PTS_OFF_TOV,OPP_PTS_2ND_CHANCE,OPP_PTS_FB,OPP_PTS_PAINT,BLK,BLKA,PF,PFD
0021500521,1610612752,NYK,New York,2546,Carmelo Anthony,F,,40:24,117.4,104.3,13.1,0.259,2.33,19.7,0.061,0.209,0.145,8.4,0.364,0.451,0.319,93.24,0.137,2016-01-05T00:00:00,1,NYK,New York,17-19,29,25,30,23,0,0,0,0,0,0,0,0,0,0,107,0.476,0.917,0.278,20,46,9,0021500521,1610612752,NYK,New York,Carmelo Anthony,F,,40:24,4.0,4.0,0.0,12.0,11.0,15.0,8.0,30.0,2.0,2.0,4.0,9.0
0021500521,1610612752,NYK,New York,204001,Kristaps Porzingis,F,,31:31,119.3,117.7,1.5,0.043,1.0,6.5,0.174,0.226,0.204,6.5,0.583,0.638,0.215,89.93,0.152,2016-01-05T00:00:00,1,NYK,New York,17-19,29,25,30,23,0,0,0,0,0,0,0,0,0,0,107,0.476,0.917,0.278,20,46,9,0021500521,1610612752,NYK,New York,Kristaps Porzingis,F,,31:31,2.0,8.0,0.0,8.0,8.0,11.0,6.0,30.0,1.0,0.0,3.0,3.0
0021500521,1610612752,NYK,New York,201577,Robin Lopez,C,,34:47,112.4,100.9,11.6,0.04,1.0,7.4,0.118,0.114,0.116,7.4,0.364,0.393,0.157,93.77,0.062,2016-01-05T00:00:00,1,NYK,New York,17-19,29,25,30,23,0,0,0,0,0,0,0,0,0,0,107,0.476,0.917,0.278,20,46,9,0021500521,1610612752,NYK,New York,Robin Lopez,C,,34:47,0.0,2.0,0.0,8.0,2.0,14.0,8.0,22.0,2.0,1.0,2.0,4.0
0021500521,1610612752,NYK,New York,201167,Arron Afflalo,G,,36:59,115.9,96.0,19.9,0.174,4.0,17.6,0.0,0.179,0.1,4.4,0.625,0.648,0.233,93.01,0.174,2016-01-05T00:00:00,1,NYK,New York,17-19,29,25,30,23,0,0,0,0,0,0,0,0,0,0,107,0.476,0.917,0.278,20,46,9,0021500521,1610612752,NYK,New York,Arron Afflalo,G,,36:59,5.0,0.0,4.0,8.0,4.0,15.0,8.0,30.0,0.0,1.0,4.0,2.0
0021500521,1610612752,NYK,New York,101181,Jose Calderon,G,,35:39,117.8,108.6,9.2,0.207,6.0,42.9,0.0,0.079,0.043,7.1,0.5,0.5,0.099,92.75,0.068,2016-01-05T00:00:00,1,NYK,New York,17-19,29,25,30,23,0,0,0,0,0,0,0,0,0,0,107,0.476,0.917,0.278,20,46,9,0021500521,1610612752,NYK,New York,Jose Calderon,G,,35:39,0.0,0.0,0.0,2.0,8.0,15.0,8.0,30.0,0.0,0.0,3.0,1.0
0021500521,1610612752,NYK,New York,202498,Lance Thomas,,,19:13,117.9,110.5,7.4,0.0,0.0,0.0,0.0,0.05,0.03,16.7,0.7,0.7,0.148,96.42,0.083,2016-01-05T00:00:00,1,NYK,New York,17-19,29,25,30,23,0,0,0,0,0,0,0,0,0,0,107,0.476,0.917,0.278,20,46,9,0021500521,1610612752,NYK,New York,Lance Thomas,,,19:13,0.0,3.0,2.0,2.0,7.0,10.0,2.0,8.0,0.0,0.0,1.0,1.0
0021500521,1610612752,NYK,New York,204038,Langston Galloway,,,15:38,124.3,131.3,-7.0,0.0,0.0,0.0,0.0,0.083,0.053,0.0,0.6,0.6,0.167,95.93,0.08,2016-01-05T00:00:00,1,NYK,New York,17-19,29,25,30,23,0,0,0,0,0,0,0,0,0,0,107,0.476,0.917,0.278,20,46,9,0021500521,1610612752,NYK,New York,Langston Galloway,,,15:38,2.0,0.0,0.0,2.0,7.0,6.0,0.0,8.0,1.0,0.0,2.0,0.0
0021500521,1610612752,NYK,New York,1626170,Jerian Grant,,,10:10,99.6,106.0,-6.4,0.0,0.0,0.0,0.0,0.0,0.0,100.0,0.0,0.0,0.052,94.03,-0.071,2016-01-05T00:00:00,1,NYK,New York,17-19,29,25,30,23,0,0,0,0,0,0,0,0,0,0,107,0.476,0.917,0.278,20,46,9,0021500521,1610612752,NYK,New York,Jerian Grant,,,10:10,0.0,0.0,0.0,0.0,3.0,6.0,0.0,6.0,0.0,0.0,1.0,0.0
0021500521,1610612752,NYK,New York,202682,Derrick Williams,,,15:39,103.9,99.4,4.5,0.143,0.0,9.5,0.083,0.176,0.138,0.0,0.583,0.788,0.299,96.66,0.402,2016-01-05T00:00:00,1,NYK,New York,17-19,29,25,30,23,0,0,0,0,0,0,0,0,0,0,107,0.476,0.917,0.278,20,46,9,0021500521,1610612752,NYK,New York,Derrick Williams,,,15:39,2.0,4.0,0.0,4.0,5.0,13.0,0.0,16.0,0.0,0.0,0.0,4.0
0021500521,1610612752,NYK,New York,200811,Lou Amundson,,DNP - Coach's Decision                  ,,,,,,,0.0,,,,,,,0.0,,,2016-01-05T00:00:00,1,NYK,New York,17-19,29,25,30,23,0,0,0,0,0,0,0,0,0,0,107,0.476,0.917,0.278,20,46,9,0021500521,1610612752,NYK,New York,Lou Amundson,,DNP - Coach's Decision                  ,,,,,,,,,,,,,
0021500521,1610612752,NYK,New York,203124,Kyle O'Quinn,,DNP - Coach's Decision                  ,,,,,,,0.0,,,,,,,0.0,,,2016-01-05T00:00:00,1,NYK,New York,17-19,29,25,30,23,0,0,0,0,0,0,0,0,0,0,107,0.476,0.917,0.278,20,46,9,0021500521,1610612752,NYK,New York,Kyle O'Quinn,,DNP - Coach's Decision                  ,,,,,,,,,,,,,
0021500521,1610612752,NYK,New York,202338,Kevin Seraphin,,DNP - Coach's Decision                  ,,,,,,,0.0,,,,,,,0.0,,,2016-01-05T00:00:00,1,NYK,New York,17-19,29,25,30,23,0,0,0,0,0,0,0,0,0,0,107,0.476,0.917,0.278,20,46,9,0021500521,1610612752,NYK,New York,Kevin Seraphin,,DNP - Coach's Decision                  ,,,,,,,,,,,,,
0021500521,1610612752,NYK,New York,2756,Sasha Vujacic,,DNP - Coach's Decision                  ,,,,,,,0.0,,,,,,,0.0,,,2016-01-05T00:00:00,1,NYK,New York,17-19,29,25,30,23,0,0,0,0,0,0,0,0,0,0,107,0.476,0.917,0.278,20,46,9,0021500521,1610612752,NYK,New York,Sasha Vujacic,,DNP - Coach's Decision                  ,,,,,,,,,,,,,
0021500521,1610612737,ATL,Atlanta,203145,Kent Bazemore,F,,28:30,111.9,130.5,-18.6,0.059,1.0,7.7,0.0,0.25,0.104,7.7,0.682,0.682,0.184,93.86,0.104,2016-01-05T00:00:00,1,ATL,Atlanta,21-15,20,29,22,30,0,0,0,0,0,0,0,0,0,0,101,0.425,0.632,0.385,22,41,13,0021500521,1610612737,ATL,Atlanta,Kent Bazemore,F,,28:30,4.0,0.0,2.0,6.0,10.0,17.0,6.0,30.0,0.0,1.0,4.0,3.0
0021500521,1610612737,ATL,Atlanta,200794,Paul Millsap,F,,36:12,111.2,117.9,-6.7,0.087,0.5,7.9,0.105,0.094,0.1,15.9,0.412,0.495,0.279,92.08,0.059,2016-01-05T00:00:00,1,ATL,Atlanta,21-15,20,29,22,30,0,0,0,0,0,0,0,0,0,0,101,0.425,0.632,0.385,22,41,13,0021500521,1610612737,ATL,Atlanta,Paul Millsap,F,,36:12,4.0,7.0,0.0,8.0,12.0,17.0,4.0,34.0,0.0,1.0,4.0,6.0
0021500521,1610612737,ATL,Atlanta,201143,Al Horford,C,,33:15,103.6,119.7,-16.2,0.4,0.0,36.6,0.158,0.16,0.159,0.0,0.5,0.468,0.177,93.4,0.146,2016-01-05T00:00:00,1,ATL,Atlanta,21-15,20,29,22,30,0,0,0,0,0,0,0,0,0,0,101,0.425,0.632,0.385,22,41,13,0021500521,1610612737,ATL,Atlanta,Al Horford,C,,33:15,0.0,4.0,0.0,10.0,7.0,14.0,0.0,26.0,2.0,1.0,3.0,1.0
0021500521,1610612737,ATL,Atlanta,2594,Kyle Korver,G,,33:05,98.7,108.8,-10.2,0.053,1.0,5.8,0.028,0.074,0.048,5.8,0.357,0.392,0.215,91.64,0.005,2016-01-05T00:00:00,1,ATL,Atlanta,21-15,20,29,22,30,0,0,0,0,0,0,0,0,0,0,101,0.425,0.632,0.385,22,41,13,0021500521,1610612737,ATL,Atlanta,Kyle Korver,G,,33:05,0.0,6.0,2.0,0.0,7.0,14.0,0.0,28.0,0.0,0.0,3.0,1.0
0021500521,1610612737,ATL,Atlanta,201952,Jeff Teague,G,,22:49,100.1,122.1,-22.0,0.0,0.0,0.0,0.0,0.045,0.023,27.9,0.722,0.775,0.265,95.05,0.12,2016-01-05T00:00:00,1,ATL,Atlanta,21-15,20,29,22,30,0,0,0,0,0,0,0,0,0,0,101,0.425,0.632,0.385,22,41,13,0021500521,1610612737,ATL,Atlanta,Jeff Teague,G,,22:49,0.0,0.0,2.0,4.0,10.0,13.0,2.0,24.0,0.0,1.0,0.0,2.0
0021500521,1610612737,ATL,Atlanta,200757,Thabo Sefolosha,,,22:22,104.6,122.2,-17.5,0.067,0.0,15.5,0.045,0.235,0.128,0.0,0.5,0.46,0.116,96.34,0.038,2016-01-05T00:00:00,1,ATL,Atlanta,21-15,20,29,22,30,0,0,0,0,0,0,0,0,0,0,101,0.425,0.632,0.385,22,41,13,0021500521,1610612737,ATL,Atlanta,Thabo Sefolosha,,,22:22,0.0,0.0,2.0,2.0,10.0,9.0,6.0,30.0,0.0,1.0,3.0,1.0
0021500521,1610612737,ATL,Atlanta,204002,Edy Tavares,,,12:57,105.2,111.7,-6.5,0.0,0.0,0.0,0.091,0.182,0.136,0.0,0.667,0.644,0.145,95.48,0.101,2016-01-05T00:00:00,1,ATL,Atlanta,21-15,20,29,22,30,0,0,0,0,0,0,0,0,0,0,101,0.425,0.632,0.385,22,41,13,0021500521,1610612737,ATL,Atlanta,Edy Tavares,,,12:57,0.0,4.0,0.0,4.0,6.0,7.0,6.0,18.0,2.0,0.0,2.0,1.0
0021500521,1610612737,ATL,Atlanta,203471,Dennis Schroder,,,25:11,113.9,109.8,4.1,0.471,2.67,39.4,0.0,0.25,0.093,14.8,0.375,0.376,0.226,92.02,0.092,2016-01-05T00:00:00,1,ATL,Atlanta,21-15,20,29,22,30,0,0,0,0,0,0,0,0,0,0,101,0.425,0.632,0.385,22,41,13,0021500521,1610612737,ATL,Atlanta,Dennis Schroder,,,25:11,0.0,0.0,0.0,2.0,5.0,8.0,4.0,22.0,0.0,1.0,1.0,4.0
0021500521,1610612737,ATL,Atlanta,203118,Mike Scott,,,13:36,106.6,104.3,2.3,0.0,0.0,0.0,0.0,0.25,0.105,0.0,0.75,0.75,0.142,95.36,0.069,2016-01-05T00:00:00,1,ATL,Atlanta,21-15,20,29,22,30,0,0,0,0,0,0,0,0,0,0,101,0.425,0.632,0.385,22,41,13,0021500521,1610612737,ATL,Atlanta,Mike Scott,,,13:36,3.0,0.0,0.0,0.0,5.0,4.0,2.0,14.0,0.0,0.0,3.0,0.0
0021500521,1610612737,ATL,Atlanta,203501,Tim Hardaway Jr.,,,12:03,121.8,83.2,38.6,0.1,0.0,25.0,0.083,0.0,0.042,0.0,0.5,0.5,0.105,92.18,0.041,2016-01-05T00:00:00,1,ATL,Atlanta,21-15,20,29,22,30,0,0,0,0,0,0,0,0,0,0,101,0.425,0.632,0.385,22,41,13,0021500521,1610612737,ATL,Atlanta,Tim Hardaway Jr.,,,12:03,0.0,0.0,0.0,0.0,3.0,2.0,0.0,4.0,0.0,0.0,1.0,1.0
0021500521,1610612737,ATL,Atlanta,202714,Shelvin Mack,,DNP - Coach's Decision                  ,,,,,,,0.0,,,,,,,0.0,,,2016-01-05T00:00:00,1,ATL,Atlanta,21-15,20,29,22,30,0,0,0,0,0,0,0,0,0,0,101,0.425,0.632,0.385,22,41,13,0021500521,1610612737,ATL,Atlanta,Shelvin Mack,,DNP - Coach's Decision                  ,,,,,,,,,,,,,
0021500521,1610612737,ATL,Atlanta,203488,Mike Muscala,,DNP - Coach's Decision                  ,,,,,,,0.0,,,,,,,0.0,,,2016-01-05T00:00:00,1,ATL,Atlanta,21-15,20,29,22,30,0,0,0,0,0,0,0,0,0,0,101,0.425,0.632,0.385,22,41,13,0021500521,1610612737,ATL,Atlanta,Mike Muscala,,DNP - Coach's Decision                  ,,,,,,,,,,,,,
0021500521,1610612737,ATL,Atlanta,203934,Lamar Patterson,,DNP - Coach's Decision                  ,,,,,,,0.0,,,,,,,0.0,,,2016-01-05T00:00:00,1,ATL,Atlanta,21-15,20,29,22,30,0,0,0,0,0,0,0,0,0,0,101,0.425,0.632,0.385,22,41,13,0021500521,1610612737,ATL,Atlanta,Lamar Patterson,,DNP - Coach's Decision                  ,,,,,,,,,,,,,
