GAME_ID_x,TEAM_ID_x,TEAM_ABBREVIATION_x,TEAM_CITY_x,PLAYER_ID,PLAYER_NAME_x,START_POSITION_x,COMMENT_x,MIN_x,OFF_RATING,DEF_RATING,NET_RATING,AST_PCT,AST_TOV,AST_RATIO,OREB_PCT,DREB_PCT,REB_PCT,TM_TOV_PCT,EFG_PCT,TS_PCT,USG_PCT,PACE,PIE,GAME_DATE_EST,GAME_SEQUENCE,TEAM_ABBREVIATION_y,TEAM_CITY_NAME,TEAM_WINS_LOSSES,PTS_QTR1,PTS_QTR2,PTS_QTR3,PTS_QTR4,PTS_OT1,PTS_OT2,PTS_OT3,PTS_OT4,PTS_OT5,PTS_OT6,PTS_OT7,PTS_OT8,PTS_OT9,PTS_OT10,PTS,FG_PCT,FT_PCT,FG3_PCT,AST,REB,TOV,GAME_ID_y,TEAM_ID_y,TEAM_ABBREVIATION,TEAM_CITY_y,PLAYER_NAME_y,START_POSITION_y,COMMENT_y,MIN_y,PTS_OFF_TOV,PTS_2ND_CHANCE,PTS_FB,PTS_PAINT,OPP_PTS_OFF_TOV,OPP_PTS_2ND_CHANCE,OPP_PTS_FB,OPP_PTS_PAINT,BLK,BLKA,PF,PFD
0021500523,1610612758,SAC,Sacramento,203112,Quincy Acy,F,,16:05,106.8,118.9,-12.1,0.0,0.0,0.0,0.25,0.2,0.222,0.0,1.125,1.128,0.149,99.08,0.196,2016-01-05T00:00:00,3,SAC,Sacramento,14-21,24,19,27,28,6,12,0,0,0,0,0,0,0,0,116,0.475,0.714,0.375,27,49,19,0021500523,1610612758,SAC,Sacramento,Quincy Acy,F,,16:05,2.0,0.0,2.0,6.0,9.0,8.0,9.0,14.0,0.0,0.0,3.0,3.0
0021500523,1610612758,SAC,Sacramento,200752,Rudy Gay,F,,47:48,98.5,96.2,2.4,0.04,0.5,4.2,0.0,0.106,0.057,8.4,0.725,0.742,0.221,94.89,0.171,2016-01-05T00:00:00,3,SAC,Sacramento,14-21,24,19,27,28,6,12,0,0,0,0,0,0,0,0,116,0.475,0.714,0.375,27,49,19,0021500523,1610612758,SAC,Sacramento,Rudy Gay,F,,47:48,9.0,0.0,14.0,14.0,16.0,15.0,15.0,40.0,0.0,1.0,1.0,2.0
0021500523,1610612758,SAC,Sacramento,202326,DeMarcus Cousins,C,,48:43,106.9,108.1,-1.2,0.143,0.4,8.6,0.075,0.326,0.205,21.4,0.533,0.536,0.402,95.34,0.146,2016-01-05T00:00:00,3,SAC,Sacramento,14-21,24,19,27,28,6,12,0,0,0,0,0,0,0,0,116,0.475,0.714,0.375,27,49,19,0021500523,1610612758,SAC,Sacramento,DeMarcus Cousins,C,,48:43,4.0,4.0,1.0,20.0,12.0,12.0,17.0,44.0,1.0,0.0,5.0,9.0
0021500523,1610612758,SAC,Sacramento,203463,Ben McLemore,G,,18:58,103.2,116.0,-12.8,0.188,3.0,33.3,0.0,0.059,0.031,11.1,0.4,0.4,0.144,95.97,0.038,2016-01-05T00:00:00,3,SAC,Sacramento,14-21,24,19,27,28,6,12,0,0,0,0,0,0,0,0,116,0.475,0.714,0.375,27,49,19,0021500523,1610612758,SAC,Sacramento,Ben McLemore,G,,18:58,2.0,2.0,2.0,4.0,9.0,10.0,9.0,16.0,0.0,0.0,2.0,0.0
0021500523,1610612758,SAC,Sacramento,201954,Darren Collison,G,,47:01,105.1,116.4,-11.3,0.343,4.0,39.6,0.0,0.1,0.049,9.9,0.429,0.457,0.178,94.19,0.097,2016-01-05T00:00:00,3,SAC,Sacramento,14-21,24,19,27,28,6,12,0,0,0,0,0,0,0,0,116,0.475,0.714,0.375,27,49,19,0021500523,1610612758,SAC,Sacramento,Darren Collison,G,,47:01,2.0,2.0,2.0,6.0,12.0,12.0,17.0,46.0,0.0,0.0,1.0,2.0
0021500523,1610612758,SAC,Sacramento,201158,Marco Belinelli,,,43:25,99.7,99.6,0.1,0.103,0.0,15.0,0.026,0.205,0.115,0.0,0.412,0.412,0.182,92.68,0.105,2016-01-05T00:00:00,3,SAC,Sacramento,14-21,24,19,27,28,6,12,0,0,0,0,0,0,0,0,116,0.475,0.714,0.375,27,49,19,0021500523,1610612758,SAC,Sacramento,Marco Belinelli,,,43:25,3.0,6.0,0.0,0.0,7.0,8.0,8.0,30.0,0.0,0.0,1.0,1.0
0021500523,1610612758,SAC,Sacramento,201585,Kosta Koufos,,,17:13,77.8,84.3,-6.6,0.1,0.5,33.3,0.056,0.176,0.114,66.7,0.0,0.0,0.056,94.58,0.012,2016-01-05T00:00:00,3,SAC,Sacramento,14-21,24,19,27,28,6,12,0,0,0,0,0,0,0,0,116,0.475,0.714,0.375,27,49,19,0021500523,1610612758,SAC,Sacramento,Kosta Koufos,,,17:13,0.0,0.0,0.0,0.0,4.0,5.0,0.0,6.0,0.0,0.0,2.0,1.0
0021500523,1610612758,SAC,Sacramento,203552,Seth Curry,,,36:21,103.6,97.0,6.6,0.074,2.0,20.0,0.029,0.063,0.045,10.0,0.429,0.429,0.102,92.74,0.012,2016-01-05T00:00:00,3,SAC,Sacramento,14-21,24,19,27,28,6,12,0,0,0,0,0,0,0,0,116,0.475,0.714,0.375,27,49,19,0021500523,1610612758,SAC,Sacramento,Seth Curry,,,36:21,0.0,0.0,0.0,0.0,4.0,6.0,5.0,30.0,0.0,0.0,5.0,0.0
0021500523,1610612758,SAC,Sacramento,202341,James Anderson,,,14:27,64.3,104.2,-39.9,0.143,0.0,33.3,0.0,0.0,0.0,0.0,0.0,0.0,0.07,93.39,-0.045,2016-01-05T00:00:00,3,SAC,Sacramento,14-21,24,19,27,28,6,12,0,0,0,0,0,0,0,0,116,0.475,0.714,0.375,27,49,19,0021500523,1610612758,SAC,Sacramento,James Anderson,,,14:27,0.0,0.0,0.0,0.0,7.0,4.0,5.0,14.0,0.0,1.0,1.0,0.0
0021500523,1610612758,SAC,Sacramento,2406,Caron Butler,,DNP - Coach's Decision                  ,,,,,,,0.0,,,,,,,0.0,,,2016-01-05T00:00:00,3,SAC,Sacramento,14-21,24,19,27,28,6,12,0,0,0,0,0,0,0,0,116,0.475,0.714,0.375,27,49,19,0021500523,1610612758,SAC,Sacramento,Caron Butler,,DNP - Coach's Decision                  ,,,,,,,,,,,,,
0021500523,1610612758,SAC,Sacramento,201956,Omri Casspi,,DND - Upper Back Soreness               ,,,,,,,0.0,,,,,,,0.0,,,2016-01-05T00:00:00,3,SAC,Sacramento,14-21,24,19,27,28,6,12,0,0,0,0,0,0,0,0,116,0.475,0.714,0.375,27,49,19,0021500523,1610612758,SAC,Sacramento,Omri Casspi,,DND - Upper Back Soreness               ,,,,,,,,,,,,,
0021500523,1610612758,SAC,Sacramento,1626161,Willie Cauley-Stein,,DND - Right Middle Finger Laceration    ,,,,,,,0.0,,,,,,,0.0,,,2016-01-05T00:00:00,3,SAC,Sacramento,14-21,24,19,27,28,6,12,0,0,0,0,0,0,0,0,116,0.475,0.714,0.375,27,49,19,0021500523,1610612758,SAC,Sacramento,Willie Cauley-Stein,,DND - Right Middle Finger Laceration    ,,,,,,,,,,,,,
0021500523,1610612758,SAC,Sacramento,200765,Rajon Rondo,,DNP - Coach's Decision                  ,,,,,,,0.0,,,,,,,0.0,,,2016-01-05T00:00:00,3,SAC,Sacramento,14-21,24,19,27,28,6,12,0,0,0,0,0,0,0,0,116,0.475,0.714,0.375,27,49,19,0021500523,1610612758,SAC,Sacramento,Rajon Rondo,,DNP - Coach's Decision                  ,,,,,,,,,,,,,
0021500523,1610612742,DAL,Dallas,202718,Chandler Parsons,F,,28:37,93.5,100.8,-7.3,0.25,2.0,22.5,0.036,0.2,0.113,11.3,0.4,0.425,0.21,95.71,0.066,2016-01-05T00:00:00,3,DAL,Dallas,20-15,27,22,29,20,6,13,0,0,0,0,0,0,0,0,117,0.459,0.652,0.414,22,55,17,0021500523,1610612742,DAL,Dallas,Chandler Parsons,F,,28:37,2.0,0.0,2.0,2.0,15.0,2.0,17.0,32.0,0.0,0.0,2.0,3.0
0021500523,1610612742,DAL,Dallas,1717,Dirk Nowitzki,F,,42:55,105.8,97.0,8.8,0.111,3.0,11.7,0.0,0.132,0.066,3.9,0.474,0.531,0.243,94.83,0.096,2016-01-05T00:00:00,3,DAL,Dallas,20-15,27,22,29,20,6,13,0,0,0,0,0,0,0,0,117,0.459,0.652,0.414,22,55,17,0021500523,1610612742,DAL,Dallas,Dirk Nowitzki,F,,42:55,1.0,2.0,3.0,4.0,16.0,9.0,18.0,34.0,0.0,0.0,3.0,6.0
0021500523,1610612742,DAL,Dallas,2585,Zaza Pachulia,C,,40:20,109.3,109.2,0.1,0.0,0.0,0.0,0.182,0.367,0.27,20.2,0.364,0.379,0.179,93.15,0.082,2016-01-05T00:00:00,3,DAL,Dallas,20-15,27,22,29,20,6,13,0,0,0,0,0,0,0,0,117,0.459,0.652,0.414,22,55,17,0021500523,1610612742,DAL,Dallas,Zaza Pachulia,C,,40:20,2.0,7.0,2.0,8.0,20.0,9.0,17.0,38.0,0.0,1.0,4.0,3.0
0021500523,1610612742,DAL,Dallas,202083,Wesley Matthews,G,,42:36,116.8,108.8,7.9,0.138,0.0,20.8,0.0,0.083,0.041,0.0,0.615,0.658,0.168,95.01,0.121,2016-01-05T00:00:00,3,DAL,Dallas,20-15,27,22,29,20,6,13,0,0,0,0,0,0,0,0,117,0.459,0.652,0.414,22,55,17,0021500523,1610612742,DAL,Dallas,Wesley Matthews,G,,42:36,3.0,1.0,6.0,6.0,13.0,11.0,15.0,42.0,0.0,0.0,0.0,4.0
0021500523,1610612742,DAL,Dallas,101114,Deron Williams,G,,43:25,109.1,111.1,-2.0,0.167,0.8,13.9,0.027,0.03,0.029,17.4,0.639,0.633,0.271,93.84,0.083,2016-01-05T00:00:00,3,DAL,Dallas,20-15,27,22,29,20,6,13,0,0,0,0,0,0,0,0,117,0.459,0.652,0.414,22,55,17,0021500523,1610612742,DAL,Dallas,Deron Williams,G,,43:25,5.0,2.0,2.0,14.0,22.0,11.0,19.0,42.0,0.0,0.0,3.0,2.0
0021500523,1610612742,DAL,Dallas,101109,Raymond Felton,,,34:58,103.3,93.7,9.7,0.077,0.67,20.0,0.0,0.219,0.108,30.0,0.5,0.5,0.107,94.79,0.055,2016-01-05T00:00:00,3,DAL,Dallas,20-15,27,22,29,20,6,13,0,0,0,0,0,0,0,0,117,0.459,0.652,0.414,22,55,17,0021500523,1610612742,DAL,Dallas,Raymond Felton,,,34:58,0.0,0.0,0.0,2.0,6.0,10.0,7.0,24.0,0.0,0.0,2.0,0.0
0021500523,1610612742,DAL,Dallas,201580,JaVale McGee,,,17:18,88.0,77.9,10.1,0.0,0.0,0.0,0.211,0.333,0.275,0.0,0.75,0.732,0.227,95.33,0.404,2016-01-05T00:00:00,3,DAL,Dallas,20-15,27,22,29,20,6,13,0,0,0,0,0,0,0,0,117,0.459,0.652,0.414,22,55,17,0021500523,1610612742,DAL,Dallas,JaVale McGee,,,17:18,3.0,2.0,2.0,12.0,2.0,5.0,4.0,12.0,2.0,0.0,3.0,1.0
0021500523,1610612742,DAL,Dallas,2734,Devin Harris,,,16:53,101.0,84.5,16.6,0.167,0.0,33.3,0.059,0.111,0.086,0.0,0.625,0.625,0.104,103.05,0.123,2016-01-05T00:00:00,3,DAL,Dallas,20-15,27,22,29,20,6,13,0,0,0,0,0,0,0,0,117,0.459,0.652,0.414,22,55,17,0021500523,1610612742,DAL,Dallas,Devin Harris,,,16:53,0.0,0.0,0.0,0.0,5.0,6.0,2.0,12.0,0.0,0.0,1.0,1.0
0021500523,1610612742,DAL,Dallas,200826,J.J. Barea,,,22:57,91.5,85.9,5.6,0.231,1.0,18.8,0.0,0.045,0.023,18.8,0.35,0.35,0.262,87.19,0.017,2016-01-05T00:00:00,3,DAL,Dallas,20-15,27,22,29,20,6,13,0,0,0,0,0,0,0,0,117,0.459,0.652,0.414,22,55,17,0021500523,1610612742,DAL,Dallas,J.J. Barea,,,22:57,0.0,2.0,0.0,0.0,11.0,7.0,6.0,14.0,0.0,0.0,0.0,1.0
0021500523,1610612742,DAL,Dallas,202379,Jeremy Evans,,DNP - Coach's Decision                  ,,,,,,,0.0,,,,,,,0.0,,,2016-01-05T00:00:00,3,DAL,Dallas,20-15,27,22,29,20,6,13,0,0,0,0,0,0,0,0,117,0.459,0.652,0.414,22,55,17,0021500523,1610612742,DAL,Dallas,Jeremy Evans,,DNP - Coach's Decision                  ,,,,,,,,,,,,,
0021500523,1610612742,DAL,Dallas,203098,John Jenkins,,DNP - Coach's Decision                  ,,,,,,,0.0,,,,,,,0.0,,,2016-01-05T00:00:00,3,DAL,Dallas,20-15,27,22,29,20,6,13,0,0,0,0,0,0,0,0,117,0.459,0.652,0.414,22,55,17,0021500523,1610612742,DAL,Dallas,John Jenkins,,DNP - Coach's Decision                  ,,,,,,,,,,,,,
0021500523,1610612742,DAL,Dallas,203939,Dwight Powell,,DNP - Coach's Decision                  ,,,,,,,0.0,,,,,,,0.0,,,2016-01-05T00:00:00,3,DAL,Dallas,20-15,27,22,29,20,6,13,0,0,0,0,0,0,0,0,117,0.459,0.652,0.414,22,55,17,0021500523,1610612742,DAL,Dallas,Dwight Powell,,DNP - Coach's Decision                  ,,,,,,,,,,,,,
0021500523,1610612742,DAL,Dallas,101111,Charlie Villanueva,,DNP - Coach's Decision                  ,,,,,,,0.0,,,,,,,0.0,,,2016-01-05T00:00:00,3,DAL,Dallas,20-15,27,22,29,20,6,13,0,0,0,0,0,0,0,0,117,0.459,0.652,0.414,22,55,17,0021500523,1610612742,DAL,Dallas,Charlie Villanueva,,DNP - Coach's Decision                  ,,,,,,,,,,,,,
