GAME_ID_x,TEAM_ID_x,TEAM_ABBREVIATION_x,TEAM_CITY_x,PLAYER_ID,PLAYER_NAME_x,START_POSITION_x,COMMENT_x,MIN_x,OFF_RATING,DEF_RATING,NET_RATING,AST_PCT,AST_TOV,AST_RATIO,OREB_PCT,DREB_PCT,REB_PCT,TM_TOV_PCT,EFG_PCT,TS_PCT,USG_PCT,PACE,PIE,GAME_DATE_EST,GAME_SEQUENCE,TEAM_ABBREVIATION_y,TEAM_CITY_NAME,TEAM_WINS_LOSSES,PTS_QTR1,PTS_QTR2,PTS_QTR3,PTS_QTR4,PTS_OT1,PTS_OT2,PTS_OT3,PTS_OT4,PTS_OT5,PTS_OT6,PTS_OT7,PTS_OT8,PTS_OT9,PTS_OT10,PTS,FG_PCT,FT_PCT,FG3_PCT,AST,REB,TOV,GAME_ID_y,TEAM_ID_y,TEAM_ABBREVIATION,TEAM_CITY_y,PLAYER_NAME_y,START_POSITION_y,COMMENT_y,MIN_y,PTS_OFF_TOV,PTS_2ND_CHANCE,PTS_FB,PTS_PAINT,OPP_PTS_OFF_TOV,OPP_PTS_2ND_CHANCE,OPP_PTS_FB,OPP_PTS_PAINT,BLK,BLKA,PF,PFD
0021500532,1610612762,UTA,Utah,202330,Gordon Hayward,F,,28:45,93.4,140.8,-47.5,0.286,1.33,16.2,0.04,0.176,0.095,12.1,0.438,0.507,0.325,96.3,0.086,2016-01-06T00:00:00,8,UTA,Utah,15-19,22,29,23,24,0,0,0,0,0,0,0,0,0,0,98,0.468,0.944,0.389,21,34,18,0021500532,1610612762,UTA,Utah,Gordon Hayward,F,,28:45,2.0,0.0,0.0,6.0,16.0,8.0,5.0,46.0,0.0,0.0,2.0,5.0
0021500532,1610612762,UTA,Utah,1626168,Trey Lyles,F,,29:52,110.6,145.8,-35.3,0.1,0.0,25.0,0.0,0.211,0.089,0.0,0.5,0.5,0.087,95.51,0.053,2016-01-06T00:00:00,8,UTA,Utah,15-19,22,29,23,24,0,0,0,0,0,0,0,0,0,0,98,0.468,0.944,0.389,21,34,18,0021500532,1610612762,UTA,Utah,Trey Lyles,F,,29:52,0.0,0.0,0.0,2.0,19.0,12.0,5.0,48.0,0.0,0.0,1.0,0.0
0021500532,1610612762,UTA,Utah,203481,Jeff Withey,C,,23:44,102.3,149.4,-47.1,0.143,0.0,21.5,0.19,0.231,0.206,0.0,0.667,0.683,0.133,99.14,0.12,2016-01-06T00:00:00,8,UTA,Utah,15-19,22,29,23,24,0,0,0,0,0,0,0,0,0,0,98,0.468,0.944,0.389,21,34,18,0021500532,1610612762,UTA,Utah,Jeff Withey,C,,23:44,0.0,5.0,0.0,8.0,14.0,6.0,5.0,42.0,1.0,0.0,0.0,2.0
0021500532,1610612762,UTA,Utah,203918,Rodney Hood,G,,20:40,98.7,152.1,-53.4,0.077,0.25,8.5,0.0,0.125,0.04,34.0,0.5,0.666,0.242,95.54,0.03,2016-01-06T00:00:00,8,UTA,Utah,15-19,22,29,23,24,0,0,0,0,0,0,0,0,0,0,98,0.468,0.944,0.389,21,34,18,0021500532,1610612762,UTA,Utah,Rodney Hood,G,,20:40,2.0,0.0,2.0,0.0,11.0,6.0,5.0,32.0,0.0,0.0,1.0,5.0
0021500532,1610612762,UTA,Utah,203526,Raul Neto,G,,23:42,99.7,143.0,-43.3,0.154,1.0,15.5,0.05,0.059,0.054,15.5,0.313,0.394,0.205,98.35,0.004,2016-01-06T00:00:00,8,UTA,Utah,15-19,22,29,23,24,0,0,0,0,0,0,0,0,0,0,98,0.468,0.944,0.389,21,34,18,0021500532,1610612762,UTA,Utah,Raul Neto,G,,23:42,0.0,0.0,2.0,2.0,19.0,12.0,5.0,40.0,0.0,0.0,2.0,2.0
0021500532,1610612762,UTA,Utah,202353,Tibor Pleiss,,,24:05,99.8,105.1,-5.3,0.067,0.0,11.3,0.111,0.0,0.054,0.0,0.429,0.508,0.161,93.3,0.038,2016-01-06T00:00:00,8,UTA,Utah,15-19,22,29,23,24,0,0,0,0,0,0,0,0,0,0,98,0.468,0.944,0.389,21,34,18,0021500532,1610612762,UTA,Utah,Tibor Pleiss,,,24:05,0.0,2.0,0.0,4.0,10.0,8.0,0.0,26.0,0.0,2.0,4.0,1.0
0021500532,1610612762,UTA,Utah,203504,Trey Burke,,,24:18,104.7,111.0,-6.3,0.333,0.0,19.0,0.0,0.067,0.029,0.0,0.618,0.618,0.322,94.34,0.193,2016-01-06T00:00:00,8,UTA,Utah,15-19,22,29,23,24,0,0,0,0,0,0,0,0,0,0,98,0.468,0.944,0.389,21,34,18,0021500532,1610612762,UTA,Utah,Trey Burke,,,24:18,7.0,0.0,3.0,4.0,5.0,2.0,0.0,28.0,0.0,0.0,1.0,1.0
0021500532,1610612762,UTA,Utah,202344,Trevor Booker,,,18:19,90.9,98.9,-8.0,0.154,0.67,25.0,0.133,0.385,0.25,37.5,0.667,0.667,0.153,97.96,0.136,2016-01-06T00:00:00,8,UTA,Utah,15-19,22,29,23,24,0,0,0,0,0,0,0,0,0,0,98,0.468,0.944,0.389,21,34,18,0021500532,1610612762,UTA,Utah,Trevor Booker,,,18:19,2.0,4.0,0.0,4.0,5.0,2.0,0.0,20.0,0.0,0.0,1.0,1.0
0021500532,1610612762,UTA,Utah,203187,Chris Johnson,,,24:46,108.3,110.0,-1.7,0.056,0.33,10.1,0.0,0.1,0.051,30.4,0.5,0.595,0.174,93.18,0.062,2016-01-06T00:00:00,8,UTA,Utah,15-19,22,29,23,24,0,0,0,0,0,0,0,0,0,0,98,0.468,0.944,0.389,21,34,18,0021500532,1610612762,UTA,Utah,Chris Johnson,,,24:46,0.0,0.0,0.0,2.0,11.0,6.0,0.0,28.0,2.0,0.0,2.0,1.0
0021500532,1610612762,UTA,Utah,204060,Joe Ingles,,,21:49,110.1,106.3,3.8,0.125,0.67,17.5,0.0,0.211,0.105,26.2,0.583,0.621,0.18,100.65,0.07,2016-01-06T00:00:00,8,UTA,Utah,15-19,22,29,23,24,0,0,0,0,0,0,0,0,0,0,98,0.468,0.944,0.389,21,34,18,0021500532,1610612762,UTA,Utah,Joe Ingles,,,21:49,6.0,0.0,5.0,4.0,10.0,8.0,0.0,30.0,0.0,0.0,3.0,3.0
0021500532,1610612762,UTA,Utah,202324,Derrick Favors,,NWT - back spasms                       ,,,,,,,0.0,,,,,,,0.0,,,2016-01-06T00:00:00,8,UTA,Utah,15-19,22,29,23,24,0,0,0,0,0,0,0,0,0,0,98,0.468,0.944,0.389,21,34,18,0021500532,1610612762,UTA,Utah,Derrick Favors,,NWT - back spasms                       ,,,,,,,,,,,,,
0021500532,1610612759,SAS,San Antonio,202695,Kawhi Leonard,F,,23:12,132.9,99.3,33.6,0.167,1.5,18.2,0.0,0.211,0.125,12.2,0.636,0.656,0.282,90.99,0.155,2016-01-06T00:00:00,8,SAS,San Antonio,31-6,32,36,27,28,0,0,0,0,0,0,0,0,0,0,123,0.605,0.769,0.429,34,38,13,0021500532,1610612759,SAS,San Antonio,Kawhi Leonard,F,,23:12,7.0,2.0,2.0,6.0,12.0,4.0,5.0,14.0,0.0,0.0,0.0,1.0
0021500532,1610612759,SAS,San Antonio,1495,Tim Duncan,F,,25:53,144.4,94.5,49.9,0.24,0.0,30.2,0.167,0.24,0.216,0.0,0.615,0.648,0.245,96.88,0.191,2016-01-06T00:00:00,8,SAS,San Antonio,31-6,32,36,27,28,0,0,0,0,0,0,0,0,0,0,123,0.605,0.769,0.429,34,38,13,0021500532,1610612759,SAS,San Antonio,Tim Duncan,F,,25:53,2.0,0.0,0.0,14.0,6.0,7.0,2.0,16.0,0.0,1.0,3.0,1.0
0021500532,1610612759,SAS,San Antonio,2561,David West,C,,25:00,145.4,102.3,43.1,0.167,4.0,30.8,0.154,0.5,0.371,7.7,0.875,0.875,0.165,96.35,0.203,2016-01-06T00:00:00,8,SAS,San Antonio,31-6,32,36,27,28,0,0,0,0,0,0,0,0,0,0,123,0.605,0.769,0.429,34,38,13,0021500532,1610612759,SAS,San Antonio,David West,C,,25:00,0.0,4.0,0.0,8.0,6.0,7.0,2.0,18.0,0.0,0.0,3.0,2.0
0021500532,1610612759,SAS,San Antonio,201980,Danny Green,G,,11:01,151.7,105.5,46.1,0.167,0.0,40.0,0.0,0.0,0.0,0.0,1.0,1.0,0.121,101.08,0.079,2016-01-06T00:00:00,8,SAS,San Antonio,31-6,32,36,27,28,0,0,0,0,0,0,0,0,0,0,123,0.605,0.769,0.429,34,38,13,0021500532,1610612759,SAS,San Antonio,Danny Green,G,,11:01,3.0,0.0,3.0,0.0,2.0,2.0,2.0,10.0,0.0,0.0,2.0,0.0
0021500532,1610612759,SAS,San Antonio,201988,Patty Mills,G,,23:05,129.8,98.4,31.5,0.077,0.0,33.3,0.0,0.0,0.0,0.0,0.0,0.0,0.081,95.86,-0.01,2016-01-06T00:00:00,8,SAS,San Antonio,31-6,32,36,27,28,0,0,0,0,0,0,0,0,0,0,123,0.605,0.769,0.429,34,38,13,0021500532,1610612759,SAS,San Antonio,Patty Mills,G,,23:05,0.0,0.0,0.0,0.0,14.0,4.0,6.0,18.0,0.0,0.0,0.0,1.0
0021500532,1610612759,SAS,San Antonio,203492,Ray McCallum,,,24:55,124.8,105.8,19.0,0.136,3.0,25.3,0.0,0.0,0.0,8.4,0.571,0.635,0.161,96.74,0.078,2016-01-06T00:00:00,8,SAS,San Antonio,31-6,32,36,27,28,0,0,0,0,0,0,0,0,0,0,123,0.605,0.769,0.429,34,38,13,0021500532,1610612759,SAS,San Antonio,Ray McCallum,,,24:55,0.0,0.0,0.0,4.0,5.0,7.0,6.0,18.0,1.0,1.0,3.0,1.0
0021500532,1610612759,SAS,San Antonio,1938,Manu Ginobili,,,22:48,116.9,102.8,14.1,0.313,1.25,26.3,0.0,0.1,0.061,21.1,0.7,0.7,0.29,95.75,0.119,2016-01-06T00:00:00,8,SAS,San Antonio,31-6,32,36,27,28,0,0,0,0,0,0,0,0,0,0,123,0.605,0.769,0.429,34,38,13,0021500532,1610612759,SAS,San Antonio,Manu Ginobili,,,22:48,0.0,0.0,0.0,8.0,15.0,5.0,6.0,18.0,0.0,0.0,3.0,0.0
0021500532,1610612759,SAS,San Antonio,2564,Boris Diaw,,,16:25,106.4,101.7,4.8,0.462,6.0,66.7,0.0,0.091,0.045,11.1,0.5,0.5,0.089,96.96,0.119,2016-01-06T00:00:00,8,SAS,San Antonio,31-6,32,36,27,28,0,0,0,0,0,0,0,0,0,0,123,0.605,0.769,0.429,34,38,13,0021500532,1610612759,SAS,San Antonio,Boris Diaw,,,16:25,0.0,0.0,0.0,2.0,13.0,2.0,6.0,14.0,0.0,0.0,0.0,2.0
0021500532,1610612759,SAS,San Antonio,203613,Jonathon Simmons,,,17:15,117.9,97.0,20.9,0.071,0.33,8.7,0.0,0.0,0.0,26.2,0.857,0.874,0.253,102.12,0.097,2016-01-06T00:00:00,8,SAS,San Antonio,31-6,32,36,27,28,0,0,0,0,0,0,0,0,0,0,123,0.605,0.769,0.429,34,38,13,0021500532,1610612759,SAS,San Antonio,Jonathon Simmons,,,17:15,2.0,0.0,0.0,6.0,7.0,4.0,7.0,14.0,0.0,0.0,4.0,3.0
0021500532,1610612759,SAS,San Antonio,1626246,Boban Marjanovic,,,19:03,107.9,112.2,-4.3,0.0,0.0,0.0,0.176,0.333,0.241,0.0,0.714,0.674,0.241,94.99,0.187,2016-01-06T00:00:00,8,SAS,San Antonio,31-6,32,36,27,28,0,0,0,0,0,0,0,0,0,0,123,0.605,0.769,0.429,34,38,13,0021500532,1610612759,SAS,San Antonio,Boban Marjanovic,,,19:03,4.0,4.0,0.0,10.0,13.0,2.0,8.0,18.0,1.0,1.0,0.0,4.0
0021500532,1610612759,SAS,San Antonio,203937,Kyle Anderson,,,19:07,126.1,112.7,13.5,0.125,2.0,16.1,0.071,0.111,0.094,8.0,0.667,0.689,0.245,97.67,0.149,2016-01-06T00:00:00,8,SAS,San Antonio,31-6,32,36,27,28,0,0,0,0,0,0,0,0,0,0,123,0.605,0.769,0.429,34,38,13,0021500532,1610612759,SAS,San Antonio,Kyle Anderson,,,19:07,6.0,4.0,0.0,8.0,2.0,7.0,4.0,16.0,0.0,0.0,2.0,2.0
0021500532,1610612759,SAS,San Antonio,2588,Matt Bonner,,,6:35,111.7,103.1,8.6,0.0,0.0,0.0,0.0,0.0,0.0,0.0,0.5,0.5,0.184,94.64,0.0,2016-01-06T00:00:00,8,SAS,San Antonio,31-6,32,36,27,28,0,0,0,0,0,0,0,0,0,0,123,0.605,0.769,0.429,34,38,13,0021500532,1610612759,SAS,San Antonio,Matt Bonner,,,6:35,0.0,0.0,0.0,0.0,0.0,2.0,4.0,4.0,0.0,0.0,1.0,0.0
0021500532,1610612759,SAS,San Antonio,2446,Rasual Butler,,,5:41,117.8,83.0,34.9,0.0,0.0,0.0,0.0,0.0,0.0,0.0,0.5,0.5,0.155,90.88,0.063,2016-01-06T00:00:00,8,SAS,San Antonio,31-6,32,36,27,28,0,0,0,0,0,0,0,0,0,0,123,0.605,0.769,0.429,34,38,13,0021500532,1610612759,SAS,San Antonio,Rasual Butler,,,5:41,0.0,0.0,0.0,2.0,0.0,2.0,2.0,2.0,0.0,0.0,0.0,0.0
