GAME_ID_x,TEAM_ID_x,TEAM_ABBREVIATION_x,TEAM_CITY_x,PLAYER_ID,PLAYER_NAME_x,START_POSITION_x,COMMENT_x,MIN_x,OFF_RATING,DEF_RATING,NET_RATING,AST_PCT,AST_TOV,AST_RATIO,OREB_PCT,DREB_PCT,REB_PCT,TM_TOV_PCT,EFG_PCT,TS_PCT,USG_PCT,PACE,PIE,GAME_DATE_EST,GAME_SEQUENCE,TEAM_ABBREVIATION_y,TEAM_CITY_NAME,TEAM_WINS_LOSSES,PTS_QTR1,PTS_QTR2,PTS_QTR3,PTS_QTR4,PTS_OT1,PTS_OT2,PTS_OT3,PTS_OT4,PTS_OT5,PTS_OT6,PTS_OT7,PTS_OT8,PTS_OT9,PTS_OT10,PTS,FG_PCT,FT_PCT,FG3_PCT,AST,REB,TOV,GAME_ID_y,TEAM_ID_y,TEAM_ABBREVIATION,TEAM_CITY_y,PLAYER_NAME_y,START_POSITION_y,COMMENT_y,MIN_y,PTS_OFF_TOV,PTS_2ND_CHANCE,PTS_FB,PTS_PAINT,OPP_PTS_OFF_TOV,OPP_PTS_2ND_CHANCE,OPP_PTS_FB,OPP_PTS_PAINT,BLK,BLKA,PF,PFD
0021500538,1610612762,UTA,Utah,202330,Gordon Hayward,F,,37:52,97.6,108.4,-10.7,0.2,1.0,20.2,0.0,0.031,0.016,20.2,0.5,0.508,0.239,97.3,0.059,2016-01-07T00:00:00,3,UTA,Utah,15-20,25,19,22,28,0,0,0,0,0,0,0,0,0,0,94,0.487,0.647,0.25,25,35,19,0021500538,1610612762,UTA,Utah,Gordon Hayward,F,,37:52,3.0,2.0,0.0,2.0,15.0,9.0,16.0,42.0,0.0,1.0,0.0,4.0
0021500538,1610612762,UTA,Utah,1626168,Trey Lyles,F,,33:42,96.6,123.6,-27.0,0.13,0.75,15.2,0.034,0.364,0.176,20.2,0.364,0.353,0.226,92.73,0.042,2016-01-07T00:00:00,3,UTA,Utah,15-20,25,19,22,28,0,0,0,0,0,0,0,0,0,0,94,0.487,0.647,0.25,25,35,19,0021500538,1610612762,UTA,Utah,Trey Lyles,F,,33:42,2.0,0.0,0.0,6.0,9.0,5.0,12.0,38.0,2.0,0.0,4.0,3.0
0021500538,1610612762,UTA,Utah,203481,Jeff Withey,C,,17:10,92.7,107.1,-14.3,0.125,0.0,17.0,0.091,0.188,0.148,0.0,0.75,0.82,0.152,86.62,0.243,2016-01-07T00:00:00,3,UTA,Utah,15-20,25,19,22,28,0,0,0,0,0,0,0,0,0,0,94,0.487,0.647,0.25,25,35,19,0021500538,1610612762,UTA,Utah,Jeff Withey,C,,17:10,2.0,2.0,0.0,6.0,6.0,6.0,7.0,24.0,2.0,0.0,0.0,2.0
0021500538,1610612762,UTA,Utah,203918,Rodney Hood,G,,22:25,99.0,90.3,8.7,0.167,2.0,16.4,0.0,0.1,0.054,8.2,0.357,0.543,0.235,83.68,0.137,2016-01-07T00:00:00,3,UTA,Utah,15-20,25,19,22,28,0,0,0,0,0,0,0,0,0,0,94,0.487,0.647,0.25,25,35,19,0021500538,1610612762,UTA,Utah,Rodney Hood,G,,22:25,2.0,0.0,0.0,2.0,2.0,4.0,5.0,22.0,1.0,0.0,1.0,3.0
0021500538,1610612762,UTA,Utah,203526,Raul Neto,G,,23:59,120.7,121.2,-0.5,0.35,2.33,53.8,0.0,0.125,0.061,23.1,0.833,0.833,0.119,93.5,0.114,2016-01-07T00:00:00,3,UTA,Utah,15-20,25,19,22,28,0,0,0,0,0,0,0,0,0,0,94,0.487,0.647,0.25,25,35,19,0021500538,1610612762,UTA,Utah,Raul Neto,G,,23:59,2.0,0.0,2.0,2.0,8.0,7.0,9.0,28.0,0.0,0.0,1.0,3.0
0021500538,1610612762,UTA,Utah,203497,Rudy Gobert,,,15:04,127.8,109.2,18.6,0.0,0.0,0.0,0.083,0.25,0.15,0.0,0.75,0.75,0.119,93.85,0.095,2016-01-07T00:00:00,3,UTA,Utah,15-20,25,19,22,28,0,0,0,0,0,0,0,0,0,0,94,0.487,0.647,0.25,25,35,19,0021500538,1610612762,UTA,Utah,Rudy Gobert,,,15:04,0.0,2.0,0.0,6.0,3.0,1.0,5.0,8.0,0.0,0.0,2.0,0.0
0021500538,1610612762,UTA,Utah,202344,Trevor Booker,,,25:19,96.0,112.4,-16.4,0.0,0.0,0.0,0.182,0.313,0.237,10.0,0.667,0.667,0.172,94.93,0.167,2016-01-07T00:00:00,3,UTA,Utah,15-20,25,19,22,28,0,0,0,0,0,0,0,0,0,0,94,0.487,0.647,0.25,25,35,19,0021500538,1610612762,UTA,Utah,Trevor Booker,,,25:19,2.0,2.0,0.0,12.0,10.0,2.0,10.0,22.0,0.0,0.0,1.0,0.0
0021500538,1610612762,UTA,Utah,203504,Trey Burke,,,24:26,75.9,103.7,-27.8,0.25,1.0,15.9,0.042,0.05,0.045,15.9,0.375,0.388,0.283,94.64,0.021,2016-01-07T00:00:00,3,UTA,Utah,15-20,25,19,22,28,0,0,0,0,0,0,0,0,0,0,94,0.487,0.647,0.25,25,35,19,0021500538,1610612762,UTA,Utah,Trey Burke,,,24:26,2.0,2.0,0.0,2.0,10.0,2.0,8.0,20.0,0.0,1.0,1.0,1.0
0021500538,1610612762,UTA,Utah,203187,Chris Johnson,,,18:39,111.2,130.4,-19.2,0.154,0.0,20.0,0.0,0.0,0.0,0.0,0.688,0.688,0.187,94.98,0.078,2016-01-07T00:00:00,3,UTA,Utah,15-20,25,19,22,28,0,0,0,0,0,0,0,0,0,0,94,0.487,0.647,0.25,25,35,19,0021500538,1610612762,UTA,Utah,Chris Johnson,,,18:39,0.0,0.0,0.0,2.0,10.0,4.0,7.0,20.0,0.0,1.0,6.0,0.0
0021500538,1610612762,UTA,Utah,204060,Joe Ingles,,,21:24,90.8,116.3,-25.5,0.167,1.0,18.2,0.08,0.05,0.067,18.2,0.571,0.571,0.184,93.19,0.071,2016-01-07T00:00:00,3,UTA,Utah,15-20,25,19,22,28,0,0,0,0,0,0,0,0,0,0,94,0.487,0.647,0.25,25,35,19,0021500538,1610612762,UTA,Utah,Joe Ingles,,,21:24,0.0,0.0,0.0,2.0,7.0,5.0,6.0,16.0,0.0,0.0,1.0,0.0
0021500538,1610612762,UTA,Utah,202324,Derrick Favors,,NWT - Back spasms                       ,,,,,,,0.0,,,,,,,0.0,,,2016-01-07T00:00:00,3,UTA,Utah,15-20,25,19,22,28,0,0,0,0,0,0,0,0,0,0,94,0.487,0.647,0.25,25,35,19,0021500538,1610612762,UTA,Utah,Derrick Favors,,NWT - Back spasms                       ,,,,,,,,,,,,,
0021500538,1610612762,UTA,Utah,202353,Tibor Pleiss,,DNP - Coach's Decision                  ,,,,,,,0.0,,,,,,,0.0,,,2016-01-07T00:00:00,3,UTA,Utah,15-20,25,19,22,28,0,0,0,0,0,0,0,0,0,0,94,0.487,0.647,0.25,25,35,19,0021500538,1610612762,UTA,Utah,Tibor Pleiss,,DNP - Coach's Decision                  ,,,,,,,,,,,,,
0021500538,1610612745,HOU,Houston,2772,Trevor Ariza,F,,32:24,114.9,111.4,3.5,0.042,1.0,8.3,0.036,0.143,0.089,8.3,0.3,0.3,0.153,92.97,0.017,2016-01-07T00:00:00,3,HOU,Houston,18-19,22,17,33,31,0,0,0,0,0,0,0,0,0,0,103,0.52,0.692,0.304,15,41,16,0021500538,1610612745,HOU,Houston,Trevor Ariza,F,,32:24,0.0,0.0,0.0,0.0,9.0,8.0,2.0,32.0,1.0,0.0,2.0,0.0
0021500538,1610612745,HOU,Houston,203093,Terrence Jones,F,,32:07,121.8,105.4,16.5,0.091,0.0,15.5,0.056,0.259,0.178,0.0,0.6,0.643,0.169,87.52,0.155,2016-01-07T00:00:00,3,HOU,Houston,18-19,22,17,33,31,0,0,0,0,0,0,0,0,0,0,103,0.52,0.692,0.304,15,41,16,0021500538,1610612745,HOU,Houston,Terrence Jones,F,,32:07,2.0,2.0,0.0,10.0,6.0,8.0,0.0,28.0,0.0,1.0,0.0,1.0
0021500538,1610612745,HOU,Houston,203991,Clint Capela,C,,30:20,104.5,98.8,5.8,0.0,0.0,0.0,0.231,0.2,0.217,10.4,0.333,0.405,0.145,91.08,0.064,2016-01-07T00:00:00,3,HOU,Houston,18-19,22,17,33,31,0,0,0,0,0,0,0,0,0,0,103,0.52,0.692,0.304,15,41,16,0021500538,1610612745,HOU,Houston,Clint Capela,C,,30:20,0.0,3.0,0.0,4.0,11.0,4.0,2.0,26.0,0.0,3.0,3.0,4.0
0021500538,1610612745,HOU,Houston,201935,James Harden,G,,34:07,108.2,103.2,4.9,0.231,0.75,8.2,0.069,0.214,0.14,11.0,0.52,0.561,0.436,93.83,0.224,2016-01-07T00:00:00,3,HOU,Houston,18-19,22,17,33,31,0,0,0,0,0,0,0,0,0,0,103,0.52,0.692,0.304,15,41,16,0021500538,1610612745,HOU,Houston,James Harden,G,,34:07,5.0,2.0,7.0,18.0,9.0,8.0,0.0,28.0,1.0,1.0,1.0,6.0
0021500538,1610612745,HOU,Houston,201976,Patrick Beverley,G,,27:13,113.1,86.4,26.7,0.2,0.0,50.0,0.05,0.0,0.024,0.0,1.125,1.125,0.07,91.14,0.135,2016-01-07T00:00:00,3,HOU,Houston,18-19,22,17,33,31,0,0,0,0,0,0,0,0,0,0,103,0.52,0.692,0.304,15,41,16,0021500538,1610612745,HOU,Houston,Patrick Beverley,G,,27:13,0.0,2.0,0.0,4.0,7.0,4.0,0.0,18.0,0.0,0.0,4.0,1.0
0021500538,1610612745,HOU,Houston,1626149,Montrezl Harrell,,,27:06,115.5,99.1,16.4,0.05,0.33,14.8,0.0,0.038,0.024,44.4,1.0,0.906,0.105,98.6,0.005,2016-01-07T00:00:00,3,HOU,Houston,18-19,22,17,33,31,0,0,0,0,0,0,0,0,0,0,103,0.52,0.692,0.304,15,41,16,0021500538,1610612745,HOU,Houston,Montrezl Harrell,,,27:06,2.0,0.0,4.0,2.0,13.0,6.0,2.0,26.0,1.0,0.0,4.0,2.0
0021500538,1610612745,HOU,Houston,1891,Jason Terry,,,20:17,114.5,116.3,-1.8,0.2,0.67,15.4,0.0,0.118,0.065,23.1,0.75,0.75,0.244,95.34,0.11,2016-01-07T00:00:00,3,HOU,Houston,18-19,22,17,33,31,0,0,0,0,0,0,0,0,0,0,103,0.52,0.692,0.304,15,41,16,0021500538,1610612745,HOU,Houston,Jason Terry,,,20:17,0.0,0.0,3.0,6.0,8.0,4.0,2.0,22.0,0.0,0.0,1.0,0.0
0021500538,1610612745,HOU,Houston,201147,Corey Brewer,,,18:22,113.4,90.3,23.0,0.154,0.0,50.0,0.0,0.214,0.115,0.0,1.25,1.25,0.055,94.14,0.137,2016-01-07T00:00:00,3,HOU,Houston,18-19,22,17,33,31,0,0,0,0,0,0,0,0,0,0,103,0.52,0.692,0.304,15,41,16,0021500538,1610612745,HOU,Houston,Corey Brewer,,,18:22,0.0,0.0,0.0,0.0,6.0,4.0,0.0,14.0,0.0,0.0,1.0,1.0
0021500538,1610612745,HOU,Houston,201977,Marcus Thornton,,,18:04,107.2,73.7,33.5,0.0,0.0,0.0,0.0,0.158,0.083,27.1,0.5,0.558,0.373,94.53,0.132,2016-01-07T00:00:00,3,HOU,Houston,18-19,22,17,33,31,0,0,0,0,0,0,0,0,0,0,103,0.52,0.692,0.304,15,41,16,0021500538,1610612745,HOU,Houston,Marcus Thornton,,,18:04,7.0,0.0,3.0,4.0,6.0,4.0,2.0,16.0,0.0,0.0,0.0,2.0
0021500538,1610612745,HOU,Houston,2730,Dwight Howard,,DND - Lower back tightness              ,,,,,,,0.0,,,,,,,0.0,,,2016-01-07T00:00:00,3,HOU,Houston,18-19,22,17,33,31,0,0,0,0,0,0,0,0,0,0,103,0.52,0.692,0.304,15,41,16,0021500538,1610612745,HOU,Houston,Dwight Howard,,DND - Lower back tightness              ,,,,,,,,,,,,,
0021500538,1610612745,HOU,Houston,201951,Ty Lawson,,DND - Suspended                         ,,,,,,,0.0,,,,,,,0.0,,,2016-01-07T00:00:00,3,HOU,Houston,18-19,22,17,33,31,0,0,0,0,0,0,0,0,0,0,103,0.52,0.692,0.304,15,41,16,0021500538,1610612745,HOU,Houston,Ty Lawson,,DND - Suspended                         ,,,,,,,,,,,,,
