GAME_ID_x,TEAM_ID_x,TEAM_ABBREVIATION_x,TEAM_CITY_x,PLAYER_ID,PLAYER_NAME_x,START_POSITION_x,COMMENT_x,MIN_x,OFF_RATING,DEF_RATING,NET_RATING,AST_PCT,AST_TOV,AST_RATIO,OREB_PCT,DREB_PCT,REB_PCT,TM_TOV_PCT,EFG_PCT,TS_PCT,USG_PCT,PACE,PIE,GAME_DATE_EST,GAME_SEQUENCE,TEAM_ABBREVIATION_y,TEAM_CITY_NAME,TEAM_WINS_LOSSES,PTS_QTR1,PTS_QTR2,PTS_QTR3,PTS_QTR4,PTS_OT1,PTS_OT2,PTS_OT3,PTS_OT4,PTS_OT5,PTS_OT6,PTS_OT7,PTS_OT8,PTS_OT9,PTS_OT10,PTS,FG_PCT,FT_PCT,FG3_PCT,AST,REB,TOV,GAME_ID_y,TEAM_ID_y,TEAM_ABBREVIATION,TEAM_CITY_y,PLAYER_NAME_y,START_POSITION_y,COMMENT_y,MIN_y,PTS_OFF_TOV,PTS_2ND_CHANCE,PTS_FB,PTS_PAINT,OPP_PTS_OFF_TOV,OPP_PTS_2ND_CHANCE,OPP_PTS_FB,OPP_PTS_PAINT,BLK,BLKA,PF,PFD
0021500539,1610612747,LAL,Los Angeles,977,Kobe Bryant,F,,30:56,113.0,130.8,-17.8,0.188,1.0,10.5,0.045,0.038,0.042,10.5,0.579,0.622,0.374,105.55,0.11,2016-01-07T00:00:00,4,LAL,Los Angeles,8-29,21,27,38,29,0,0,0,0,0,0,0,0,0,0,115,0.539,0.862,0.333,20,33,18,0021500539,1610612747,LAL,Los Angeles,Kobe Bryant,F,,30:56,2.0,0.0,0.0,8.0,16.0,12.0,17.0,50.0,1.0,2.0,2.0,4.0
0021500539,1610612747,LAL,Los Angeles,1626204,Larry Nance Jr.,F,,18:06,104.3,145.5,-41.3,0.0,0.0,0.0,0.0,0.308,0.138,13.7,0.6,0.712,0.182,109.9,0.088,2016-01-07T00:00:00,4,LAL,Los Angeles,8-29,21,27,38,29,0,0,0,0,0,0,0,0,0,0,115,0.539,0.862,0.333,20,33,18,0021500539,1610612747,LAL,Los Angeles,Larry Nance Jr.,F,,18:06,3.0,0.0,0.0,4.0,10.0,6.0,15.0,36.0,0.0,1.0,2.0,2.0
0021500539,1610612747,LAL,Los Angeles,201579,Roy Hibbert,C,,11:53,99.7,168.1,-68.4,0.111,1.0,33.3,0.0,0.222,0.095,33.3,0.0,0.0,0.071,111.16,-0.052,2016-01-07T00:00:00,4,LAL,Los Angeles,8-29,21,27,38,29,0,0,0,0,0,0,0,0,0,0,115,0.539,0.862,0.333,20,33,18,0021500539,1610612747,LAL,Los Angeles,Roy Hibbert,C,,11:53,0.0,0.0,0.0,0.0,7.0,4.0,15.0,24.0,0.0,0.0,5.0,1.0
0021500539,1610612747,LAL,Los Angeles,101150,Lou Williams,G,,32:04,110.5,134.6,-24.2,0.158,0.0,16.9,0.0,0.0,0.0,0.0,0.654,0.678,0.208,104.3,0.092,2016-01-07T00:00:00,4,LAL,Los Angeles,8-29,21,27,38,29,0,0,0,0,0,0,0,0,0,0,115,0.539,0.862,0.333,20,33,18,0021500539,1610612747,LAL,Los Angeles,Lou Williams,G,,32:04,0.0,0.0,2.0,4.0,16.0,12.0,15.0,50.0,1.0,1.0,2.0,2.0
0021500539,1610612747,LAL,Los Angeles,203903,Jordan Clarkson,G,,35:14,102.5,122.2,-19.7,0.19,1.0,17.2,0.071,0.12,0.094,17.2,0.429,0.49,0.241,103.02,0.055,2016-01-07T00:00:00,4,LAL,Los Angeles,8-29,21,27,38,29,0,0,0,0,0,0,0,0,0,0,115,0.539,0.862,0.333,20,33,18,0021500539,1610612747,LAL,Los Angeles,Jordan Clarkson,G,,35:14,2.0,2.0,0.0,8.0,18.0,8.0,19.0,52.0,0.0,1.0,4.0,2.0
0021500539,1610612747,LAL,Los Angeles,1626156,D'Angelo Russell,,,28:42,133.7,84.1,49.6,0.222,1.33,16.4,0.0,0.083,0.053,12.3,0.781,0.779,0.325,95.9,0.233,2016-01-07T00:00:00,4,LAL,Los Angeles,8-29,21,27,38,29,0,0,0,0,0,0,0,0,0,0,115,0.539,0.862,0.333,20,33,18,0021500539,1610612747,LAL,Los Angeles,D'Angelo Russell,,,28:42,13.0,0.0,11.0,14.0,10.0,8.0,4.0,26.0,0.0,1.0,1.0,2.0
0021500539,1610612747,LAL,Los Angeles,203944,Julius Randle,,,29:54,120.7,94.5,26.2,0.038,0.2,8.5,0.059,0.375,0.244,42.5,0.25,0.521,0.162,96.13,0.054,2016-01-07T00:00:00,4,LAL,Los Angeles,8-29,21,27,38,29,0,0,0,0,0,0,0,0,0,0,115,0.539,0.862,0.333,20,33,18,0021500539,1610612747,LAL,Los Angeles,Julius Randle,,,29:54,0.0,4.0,0.0,0.0,12.0,8.0,4.0,28.0,0.0,0.0,4.0,4.0
0021500539,1610612747,LAL,Los Angeles,101138,Brandon Bass,,,36:07,119.4,96.0,23.4,0.138,0.0,45.7,0.048,0.179,0.122,0.0,1.0,1.05,0.06,98.08,0.167,2016-01-07T00:00:00,4,LAL,Los Angeles,8-29,21,27,38,29,0,0,0,0,0,0,0,0,0,0,115,0.539,0.862,0.333,20,33,18,0021500539,1610612747,LAL,Los Angeles,Brandon Bass,,,36:07,0.0,2.0,0.0,6.0,15.0,10.0,4.0,40.0,2.0,0.0,4.0,3.0
0021500539,1610612747,LAL,Los Angeles,1626148,Anthony Brown,,,17:04,116.3,84.6,31.7,0.0,0.0,0.0,0.091,0.091,0.091,50.0,0.0,0.0,0.052,93.66,-0.05,2016-01-07T00:00:00,4,LAL,Los Angeles,8-29,21,27,38,29,0,0,0,0,0,0,0,0,0,0,115,0.539,0.862,0.333,20,33,18,0021500539,1610612747,LAL,Los Angeles,Anthony Brown,,,17:04,0.0,0.0,0.0,0.0,6.0,2.0,2.0,14.0,0.0,0.0,2.0,0.0
0021500539,1610612747,LAL,Los Angeles,204028,Tarik Black,,DNP - Coach's Decision                  ,,,,,,,0.0,,,,,,,0.0,,,2016-01-07T00:00:00,4,LAL,Los Angeles,8-29,21,27,38,29,0,0,0,0,0,0,0,0,0,0,115,0.539,0.862,0.333,20,33,18,0021500539,1610612747,LAL,Los Angeles,Tarik Black,,DNP - Coach's Decision                  ,,,,,,,,,,,,,
0021500539,1610612747,LAL,Los Angeles,1626273,Marcelo Huertas,,DNP - Coach's Decision                  ,,,,,,,0.0,,,,,,,0.0,,,2016-01-07T00:00:00,4,LAL,Los Angeles,8-29,21,27,38,29,0,0,0,0,0,0,0,0,0,0,115,0.539,0.862,0.333,20,33,18,0021500539,1610612747,LAL,Los Angeles,Marcelo Huertas,,DNP - Coach's Decision                  ,,,,,,,,,,,,,
0021500539,1610612747,LAL,Los Angeles,203527,Ryan Kelly,,DNP - Coach's Decision                  ,,,,,,,0.0,,,,,,,0.0,,,2016-01-07T00:00:00,4,LAL,Los Angeles,8-29,21,27,38,29,0,0,0,0,0,0,0,0,0,0,115,0.539,0.862,0.333,20,33,18,0021500539,1610612747,LAL,Los Angeles,Ryan Kelly,,DNP - Coach's Decision                  ,,,,,,,,,,,,,
0021500539,1610612747,LAL,Los Angeles,201156,Nick Young,,DNP - Coach's Decision                  ,,,,,,,0.0,,,,,,,0.0,,,2016-01-07T00:00:00,4,LAL,Los Angeles,8-29,21,27,38,29,0,0,0,0,0,0,0,0,0,0,115,0.539,0.862,0.333,20,33,18,0021500539,1610612747,LAL,Los Angeles,Nick Young,,DNP - Coach's Decision                  ,,,,,,,,,,,,,
0021500539,1610612758,SAC,Sacramento,200752,Rudy Gay,F,,35:33,118.0,106.9,11.1,0.222,0.0,25.7,0.0,0.179,0.093,0.0,0.531,0.52,0.211,103.83,0.103,2016-01-07T00:00:00,4,SAC,Sacramento,15-21,38,31,33,16,0,0,0,0,0,0,0,0,0,0,118,0.553,0.667,0.286,32,37,15,0021500539,1610612758,SAC,Sacramento,Rudy Gay,F,,35:33,6.0,2.0,4.0,8.0,16.0,8.0,9.0,36.0,1.0,0.0,4.0,4.0
0021500539,1610612758,SAC,Sacramento,203112,Quincy Acy,F,,24:59,129.5,105.1,24.4,0.0,0.0,0.0,0.091,0.111,0.1,0.0,0.889,0.872,0.157,109.59,0.165,2016-01-07T00:00:00,4,SAC,Sacramento,15-21,38,31,33,16,0,0,0,0,0,0,0,0,0,0,118,0.553,0.667,0.286,32,37,15,0021500539,1610612758,SAC,Sacramento,Quincy Acy,F,,24:59,4.0,2.0,3.0,14.0,9.0,2.0,4.0,18.0,2.0,0.0,1.0,2.0
0021500539,1610612758,SAC,Sacramento,202326,DeMarcus Cousins,C,,32:11,125.9,105.4,20.5,0.259,2.33,25.3,0.042,0.346,0.2,10.8,0.75,0.818,0.267,102.94,0.234,2016-01-07T00:00:00,4,SAC,Sacramento,15-21,38,31,33,16,0,0,0,0,0,0,0,0,0,0,118,0.553,0.667,0.286,32,37,15,0021500539,1610612758,SAC,Sacramento,DeMarcus Cousins,C,,32:11,7.0,0.0,6.0,10.0,14.0,4.0,7.0,26.0,1.0,0.0,5.0,13.0
0021500539,1610612758,SAC,Sacramento,203463,Ben McLemore,G,,24:51,117.9,105.8,12.1,0.053,0.33,4.9,0.095,0.091,0.093,14.8,0.5,0.49,0.326,103.53,0.064,2016-01-07T00:00:00,4,SAC,Sacramento,15-21,38,31,33,16,0,0,0,0,0,0,0,0,0,0,118,0.553,0.667,0.286,32,37,15,0021500539,1610612758,SAC,Sacramento,Ben McLemore,G,,24:51,3.0,2.0,4.0,10.0,12.0,2.0,7.0,18.0,0.0,1.0,1.0,2.0
0021500539,1610612758,SAC,Sacramento,200765,Rajon Rondo,G,,35:32,121.2,113.1,8.1,0.364,4.0,46.4,0.074,0.143,0.109,11.6,0.4,0.414,0.164,101.93,0.12,2016-01-07T00:00:00,4,SAC,Sacramento,15-21,38,31,33,16,0,0,0,0,0,0,0,0,0,0,118,0.553,0.667,0.286,32,37,15,0021500539,1610612758,SAC,Sacramento,Rajon Rondo,G,,35:32,0.0,4.0,0.0,8.0,16.0,4.0,9.0,30.0,1.0,1.0,0.0,2.0
0021500539,1610612758,SAC,Sacramento,202341,James Anderson,,,12:48,101.0,134.7,-33.7,0.091,1.0,50.0,0.083,0.2,0.118,50.0,0.0,0.0,0.034,90.98,0.009,2016-01-07T00:00:00,4,SAC,Sacramento,15-21,38,31,33,16,0,0,0,0,0,0,0,0,0,0,118,0.553,0.667,0.286,32,37,15,0021500539,1610612758,SAC,Sacramento,James Anderson,,,12:48,0.0,0.0,0.0,0.0,2.0,0.0,4.0,8.0,0.0,0.0,1.0,0.0
0021500539,1610612758,SAC,Sacramento,201585,Kosta Koufos,,,19:34,99.5,131.2,-31.7,0.0,0.0,0.0,0.143,0.0,0.087,0.0,0.778,0.778,0.218,95.17,0.116,2016-01-07T00:00:00,4,SAC,Sacramento,15-21,38,31,33,16,0,0,0,0,0,0,0,0,0,0,118,0.553,0.667,0.286,32,37,15,0021500539,1610612758,SAC,Sacramento,Kosta Koufos,,,19:34,0.0,4.0,0.0,12.0,8.0,4.0,8.0,22.0,1.0,2.0,4.0,0.0
0021500539,1610612758,SAC,Sacramento,201158,Marco Belinelli,,,26:38,104.5,122.9,-18.4,0.167,3.0,20.9,0.0,0.143,0.061,7.0,0.5,0.533,0.193,96.71,0.09,2016-01-07T00:00:00,4,SAC,Sacramento,15-21,38,31,33,16,0,0,0,0,0,0,0,0,0,0,118,0.553,0.667,0.286,32,37,15,0021500539,1610612758,SAC,Sacramento,Marco Belinelli,,,26:38,2.0,0.0,2.0,2.0,11.0,8.0,9.0,28.0,0.0,0.0,2.0,2.0
0021500539,1610612758,SAC,Sacramento,201954,Darren Collison,,,17:53,108.6,114.7,-6.2,0.143,0.67,25.0,0.0,0.222,0.087,37.5,0.5,0.5,0.147,99.75,0.033,2016-01-07T00:00:00,4,SAC,Sacramento,15-21,38,31,33,16,0,0,0,0,0,0,0,0,0,0,118,0.553,0.667,0.286,32,37,15,0021500539,1610612758,SAC,Sacramento,Darren Collison,,,17:53,0.0,0.0,0.0,0.0,6.0,4.0,4.0,18.0,0.0,0.0,0.0,1.0
0021500539,1610612758,SAC,Sacramento,203552,Seth Curry,,,10:01,97.7,136.6,-38.9,0.0,0.0,0.0,0.0,0.0,0.0,33.3,0.0,0.0,0.154,99.19,-0.115,2016-01-07T00:00:00,4,SAC,Sacramento,15-21,38,31,33,16,0,0,0,0,0,0,0,0,0,0,118,0.553,0.667,0.286,32,37,15,0021500539,1610612758,SAC,Sacramento,Seth Curry,,,10:01,0.0,0.0,0.0,0.0,6.0,4.0,4.0,16.0,0.0,0.0,2.0,0.0
0021500539,1610612758,SAC,Sacramento,2406,Caron Butler,,DNP - Coach's Decision                  ,,,,,,,0.0,,,,,,,0.0,,,2016-01-07T00:00:00,4,SAC,Sacramento,15-21,38,31,33,16,0,0,0,0,0,0,0,0,0,0,118,0.553,0.667,0.286,32,37,15,0021500539,1610612758,SAC,Sacramento,Caron Butler,,DNP - Coach's Decision                  ,,,,,,,,,,,,,
0021500539,1610612758,SAC,Sacramento,201956,Omri Casspi,,DND - upper back soreness               ,,,,,,,0.0,,,,,,,0.0,,,2016-01-07T00:00:00,4,SAC,Sacramento,15-21,38,31,33,16,0,0,0,0,0,0,0,0,0,0,118,0.553,0.667,0.286,32,37,15,0021500539,1610612758,SAC,Sacramento,Omri Casspi,,DND - upper back soreness               ,,,,,,,,,,,,,
0021500539,1610612758,SAC,Sacramento,1626161,Willie Cauley-Stein,,DND - right middle finger laceration    ,,,,,,,0.0,,,,,,,0.0,,,2016-01-07T00:00:00,4,SAC,Sacramento,15-21,38,31,33,16,0,0,0,0,0,0,0,0,0,0,118,0.553,0.667,0.286,32,37,15,0021500539,1610612758,SAC,Sacramento,Willie Cauley-Stein,,DND - right middle finger laceration    ,,,,,,,,,,,,,
