GAME_ID_x,TEAM_ID_x,TEAM_ABBREVIATION_x,TEAM_CITY_x,PLAYER_ID,PLAYER_NAME_x,START_POSITION_x,COMMENT_x,MIN_x,OFF_RATING,DEF_RATING,NET_RATING,AST_PCT,AST_TOV,AST_RATIO,OREB_PCT,DREB_PCT,REB_PCT,TM_TOV_PCT,EFG_PCT,TS_PCT,USG_PCT,PACE,PIE,GAME_DATE_EST,GAME_SEQUENCE,TEAM_ABBREVIATION_y,TEAM_CITY_NAME,TEAM_WINS_LOSSES,PTS_QTR1,PTS_QTR2,PTS_QTR3,PTS_QTR4,PTS_OT1,PTS_OT2,PTS_OT3,PTS_OT4,PTS_OT5,PTS_OT6,PTS_OT7,PTS_OT8,PTS_OT9,PTS_OT10,PTS,FG_PCT,FT_PCT,FG3_PCT,AST,REB,TOV,GAME_ID_y,TEAM_ID_y,TEAM_ABBREVIATION,TEAM_CITY_y,PLAYER_NAME_y,START_POSITION_y,COMMENT_y,MIN_y,PTS_OFF_TOV,PTS_2ND_CHANCE,PTS_FB,PTS_PAINT,OPP_PTS_OFF_TOV,OPP_PTS_2ND_CHANCE,OPP_PTS_FB,OPP_PTS_PAINT,BLK,BLKA,PF,PFD
0021500556,1610612744,GSW,Golden State,201575,Brandon Rush,F,,19:16,137.0,106.3,30.7,0.056,1.0,12.5,0.0,0.105,0.063,12.5,0.917,0.917,0.152,109.92,0.117,2016-01-09T00:00:00,7,GSW,Golden State,35-2,26,34,36,32,0,0,0,0,0,0,0,0,0,0,128,0.563,0.733,0.514,35,48,18,0021500556,1610612744,GSW,Golden State,Brandon Rush,F,,19:16,3.0,0.0,2.0,2.0,4.0,2.0,11.0,18.0,1.0,0.0,1.0,1.0
0021500556,1610612744,GSW,Golden State,203110,Draymond Green,F,,34:02,119.9,103.8,16.1,0.16,1.0,17.7,0.0,0.257,0.138,17.7,0.875,0.854,0.229,106.8,0.174,2016-01-09T00:00:00,7,GSW,Golden State,35-2,26,34,36,32,0,0,0,0,0,0,0,0,0,0,128,0.563,0.733,0.514,35,48,18,0021500556,1610612744,GSW,Golden State,Draymond Green,F,,34:02,0.0,0.0,4.0,6.0,14.0,8.0,18.0,34.0,2.0,1.0,3.0,7.0
0021500556,1610612744,GSW,Golden State,101106,Andrew Bogut,C,,22:34,116.8,128.5,-11.7,0.158,0.0,37.5,0.286,0.278,0.282,0.0,0.2,0.2,0.091,106.5,0.037,2016-01-09T00:00:00,7,GSW,Golden State,35-2,26,34,36,32,0,0,0,0,0,0,0,0,0,0,128,0.563,0.733,0.514,35,48,18,0021500556,1610612744,GSW,Golden State,Andrew Bogut,C,,22:34,0.0,2.0,0.0,2.0,11.0,4.0,18.0,30.0,0.0,1.0,5.0,1.0
0021500556,1610612744,GSW,Golden State,202691,Klay Thompson,G,,34:37,124.2,100.2,23.9,0.2,3.0,24.0,0.0,0.105,0.061,8.0,0.441,0.441,0.225,107.0,0.073,2016-01-09T00:00:00,7,GSW,Golden State,35-2,26,34,36,32,0,0,0,0,0,0,0,0,0,0,128,0.563,0.733,0.514,35,48,18,0021500556,1610612744,GSW,Golden State,Klay Thompson,G,,34:37,0.0,4.0,4.0,12.0,14.0,8.0,18.0,34.0,1.0,0.0,1.0,3.0
0021500556,1610612744,GSW,Golden State,201939,Stephen Curry,G,,37:54,132.8,110.9,21.9,0.379,2.75,28.1,0.034,0.143,0.094,10.2,0.762,0.789,0.31,107.21,0.199,2016-01-09T00:00:00,7,GSW,Golden State,35-2,26,34,36,32,0,0,0,0,0,0,0,0,0,0,128,0.563,0.733,0.514,35,48,18,0021500556,1610612744,GSW,Golden State,Stephen Curry,G,,37:54,0.0,3.0,3.0,6.0,14.0,6.0,24.0,40.0,1.0,0.0,3.0,7.0
0021500556,1610612744,GSW,Golden State,2738,Andre Iguodala,,,28:30,121.6,108.3,13.4,0.182,2.0,24.3,0.0,0.077,0.044,12.2,0.65,0.623,0.198,104.14,0.076,2016-01-09T00:00:00,7,GSW,Golden State,35-2,26,34,36,32,0,0,0,0,0,0,0,0,0,0,128,0.563,0.733,0.514,35,48,18,0021500556,1610612744,GSW,Golden State,Andre Iguodala,,,28:30,2.0,0.0,2.0,8.0,12.0,6.0,17.0,34.0,1.0,0.0,3.0,1.0
0021500556,1610612744,GSW,Golden State,203105,Festus Ezeli,,,15:59,118.6,83.0,35.7,0.077,0.0,16.7,0.111,0.278,0.222,0.0,0.8,0.8,0.143,101.89,0.188,2016-01-09T00:00:00,7,GSW,Golden State,35-2,26,34,36,32,0,0,0,0,0,0,0,0,0,0,128,0.563,0.733,0.514,35,48,18,0021500556,1610612744,GSW,Golden State,Festus Ezeli,,,15:59,0.0,0.0,0.0,8.0,5.0,4.0,5.0,18.0,1.0,1.0,4.0,1.0
0021500556,1610612744,GSW,Golden State,2733,Shaun Livingston,,,15:41,119.2,116.2,3.0,0.308,4.0,50.0,0.0,0.2,0.111,12.5,1.0,1.0,0.106,102.77,0.141,2016-01-09T00:00:00,7,GSW,Golden State,35-2,26,34,36,32,0,0,0,0,0,0,0,0,0,0,128,0.563,0.733,0.514,35,48,18,0021500556,1610612744,GSW,Golden State,Shaun Livingston,,,15:41,0.0,0.0,0.0,0.0,8.0,2.0,11.0,18.0,1.0,0.0,2.0,0.0
0021500556,1610612744,GSW,Golden State,203546,Ian Clark,,,7:16,71.4,112.7,-41.3,0.0,0.0,0.0,0.0,0.167,0.1,66.7,0.0,0.0,0.2,96.04,-0.194,2016-01-09T00:00:00,7,GSW,Golden State,35-2,26,34,36,32,0,0,0,0,0,0,0,0,0,0,128,0.563,0.733,0.514,35,48,18,0021500556,1610612744,GSW,Golden State,Ian Clark,,,7:16,0.0,0.0,0.0,0.0,5.0,0.0,3.0,6.0,0.0,0.0,1.0,0.0
0021500556,1610612744,GSW,Golden State,203084,Harrison Barnes,,,24:12,130.0,108.1,21.9,0.045,0.5,9.6,0.067,0.15,0.114,19.2,0.643,0.672,0.172,104.77,0.066,2016-01-09T00:00:00,7,GSW,Golden State,35-2,26,34,36,32,0,0,0,0,0,0,0,0,0,0,128,0.563,0.733,0.514,35,48,18,0021500556,1610612744,GSW,Golden State,Harrison Barnes,,,24:12,2.0,0.0,3.0,4.0,8.0,0.0,10.0,18.0,0.0,0.0,2.0,1.0
0021500556,1610612744,GSW,Golden State,203949,James Michael McAdoo,,DNP - Coach's Decision                  ,,,,,,,0.0,,,,,,,0.0,,,2016-01-09T00:00:00,7,GSW,Golden State,35-2,26,34,36,32,0,0,0,0,0,0,0,0,0,0,128,0.563,0.733,0.514,35,48,18,0021500556,1610612744,GSW,Golden State,James Michael McAdoo,,DNP - Coach's Decision                  ,,,,,,,,,,,,,
0021500556,1610612744,GSW,Golden State,201578,Marreese Speights,,DNP - Coach's Decision                  ,,,,,,,0.0,,,,,,,0.0,,,2016-01-09T00:00:00,7,GSW,Golden State,35-2,26,34,36,32,0,0,0,0,0,0,0,0,0,0,128,0.563,0.733,0.514,35,48,18,0021500556,1610612744,GSW,Golden State,Marreese Speights,,DNP - Coach's Decision                  ,,,,,,,,,,,,,
0021500556,1610612744,GSW,Golden State,201574,Jason Thompson,,DNP - Coach's Decision                  ,,,,,,,0.0,,,,,,,0.0,,,2016-01-09T00:00:00,7,GSW,Golden State,35-2,26,34,36,32,0,0,0,0,0,0,0,0,0,0,128,0.563,0.733,0.514,35,48,18,0021500556,1610612744,GSW,Golden State,Jason Thompson,,DNP - Coach's Decision                  ,,,,,,,,,,,,,
0021500556,1610612758,SAC,Sacramento,200752,Rudy Gay,F,,38:54,109.8,126.6,-16.8,0.036,0.0,5.2,0.05,0.226,0.127,0.0,0.625,0.632,0.191,107.66,0.13,2016-01-09T00:00:00,7,SAC,Sacramento,15-22,27,31,26,32,0,0,0,0,0,0,0,0,0,0,116,0.467,0.759,0.348,27,34,10,0021500556,1610612758,SAC,Sacramento,Rudy Gay,F,,38:54,2.0,4.0,2.0,10.0,5.0,9.0,18.0,42.0,1.0,0.0,0.0,3.0
0021500556,1610612758,SAC,Sacramento,203112,Quincy Acy,F,,21:52,102.4,118.2,-15.8,0.0,0.0,0.0,0.056,0.133,0.091,0.0,0.75,0.846,0.105,107.51,0.081,2016-01-09T00:00:00,7,SAC,Sacramento,15-22,27,31,26,32,0,0,0,0,0,0,0,0,0,0,116,0.467,0.759,0.348,27,34,10,0021500556,1610612758,SAC,Sacramento,Quincy Acy,F,,21:52,0.0,0.0,0.0,4.0,5.0,4.0,9.0,20.0,0.0,0.0,3.0,3.0
0021500556,1610612758,SAC,Sacramento,202326,DeMarcus Cousins,C,,30:21,109.2,120.8,-11.6,0.056,0.5,2.9,0.032,0.375,0.182,5.9,0.481,0.533,0.436,106.76,0.166,2016-01-09T00:00:00,7,SAC,Sacramento,15-22,27,31,26,32,0,0,0,0,0,0,0,0,0,0,116,0.467,0.759,0.348,27,34,10,0021500556,1610612758,SAC,Sacramento,DeMarcus Cousins,C,,30:21,6.0,2.0,7.0,14.0,2.0,3.0,11.0,28.0,0.0,1.0,4.0,7.0
0021500556,1610612758,SAC,Sacramento,203463,Ben McLemore,G,,27:16,111.0,125.3,-14.3,0.16,2.0,35.3,0.0,0.118,0.056,17.7,0.5,0.564,0.116,104.44,0.043,2016-01-09T00:00:00,7,SAC,Sacramento,15-22,27,31,26,32,0,0,0,0,0,0,0,0,0,0,116,0.467,0.759,0.348,27,34,10,0021500556,1610612758,SAC,Sacramento,Ben McLemore,G,,27:16,6.0,0.0,4.0,4.0,5.0,4.0,9.0,24.0,0.0,1.0,3.0,3.0
0021500556,1610612758,SAC,Sacramento,200765,Rajon Rondo,G,,29:17,112.1,132.0,-19.9,0.48,3.0,50.0,0.033,0.087,0.057,16.7,0.25,0.25,0.171,106.92,0.023,2016-01-09T00:00:00,7,SAC,Sacramento,15-22,27,31,26,32,0,0,0,0,0,0,0,0,0,0,116,0.467,0.759,0.348,27,34,10,0021500556,1610612758,SAC,Sacramento,Rajon Rondo,G,,29:17,0.0,0.0,0.0,2.0,5.0,7.0,18.0,32.0,0.0,2.0,5.0,1.0
0021500556,1610612758,SAC,Sacramento,201954,Darren Collison,,,31:29,113.2,121.4,-8.3,0.261,6.0,31.3,0.0,0.087,0.038,5.2,0.55,0.656,0.176,104.68,0.117,2016-01-09T00:00:00,7,SAC,Sacramento,15-22,27,31,26,32,0,0,0,0,0,0,0,0,0,0,116,0.467,0.759,0.348,27,34,10,0021500556,1610612758,SAC,Sacramento,Darren Collison,,,31:29,0.0,0.0,7.0,6.0,4.0,5.0,9.0,32.0,0.0,2.0,1.0,4.0
0021500556,1610612758,SAC,Sacramento,201158,Marco Belinelli,,,31:54,104.5,120.0,-15.4,0.05,0.0,6.7,0.0,0.115,0.05,0.0,0.464,0.464,0.185,104.07,0.034,2016-01-09T00:00:00,7,SAC,Sacramento,15-22,27,31,26,32,0,0,0,0,0,0,0,0,0,0,116,0.467,0.759,0.348,27,34,10,0021500556,1610612758,SAC,Sacramento,Marco Belinelli,,,31:54,3.0,0.0,3.0,0.0,4.0,7.0,9.0,34.0,0.0,0.0,3.0,2.0
0021500556,1610612758,SAC,Sacramento,201585,Kosta Koufos,,,12:02,76.0,98.3,-22.4,0.167,1.0,20.0,0.063,0.0,0.036,20.0,0.333,0.333,0.131,107.91,0.036,2016-01-09T00:00:00,7,SAC,Sacramento,15-22,27,31,26,32,0,0,0,0,0,0,0,0,0,0,116,0.467,0.759,0.348,27,34,10,0021500556,1610612758,SAC,Sacramento,Kosta Koufos,,,12:02,0.0,2.0,0.0,2.0,3.0,4.0,4.0,14.0,2.0,1.0,1.0,0.0
0021500556,1610612758,SAC,Sacramento,1626161,Willie Cauley-Stein,,,9:19,107.2,128.7,-21.5,0.0,0.0,0.0,0.125,0.0,0.071,0.0,0.667,0.644,0.361,104.93,0.105,2016-01-09T00:00:00,7,SAC,Sacramento,15-22,27,31,26,32,0,0,0,0,0,0,0,0,0,0,116,0.467,0.759,0.348,27,34,10,0021500556,1610612758,SAC,Sacramento,Willie Cauley-Stein,,,9:19,2.0,0.0,4.0,8.0,0.0,2.0,3.0,8.0,0.0,1.0,2.0,2.0
0021500556,1610612758,SAC,Sacramento,203552,Seth Curry,,,7:37,119.0,158.5,-39.5,0.167,0.0,100.0,0.0,0.0,0.0,0.0,0.0,0.0,0.0,93.96,0.029,2016-01-09T00:00:00,7,SAC,Sacramento,15-22,27,31,26,32,0,0,0,0,0,0,0,0,0,0,116,0.467,0.759,0.348,27,34,10,0021500556,1610612758,SAC,Sacramento,Seth Curry,,,7:37,0.0,0.0,0.0,0.0,2.0,0.0,0.0,6.0,0.0,0.0,0.0,0.0
0021500556,1610612758,SAC,Sacramento,202341,James Anderson,,DND - left hamstring strain             ,,,,,,,0.0,,,,,,,0.0,,,2016-01-09T00:00:00,7,SAC,Sacramento,15-22,27,31,26,32,0,0,0,0,0,0,0,0,0,0,116,0.467,0.759,0.348,27,34,10,0021500556,1610612758,SAC,Sacramento,James Anderson,,DND - left hamstring strain             ,,,,,,,,,,,,,
0021500556,1610612758,SAC,Sacramento,201956,Omri Casspi,,DND - upper back soreness               ,,,,,,,0.0,,,,,,,0.0,,,2016-01-09T00:00:00,7,SAC,Sacramento,15-22,27,31,26,32,0,0,0,0,0,0,0,0,0,0,116,0.467,0.759,0.348,27,34,10,0021500556,1610612758,SAC,Sacramento,Omri Casspi,,DND - upper back soreness               ,,,,,,,,,,,,,
