GAME_ID_x,TEAM_ID_x,TEAM_ABBREVIATION_x,TEAM_CITY_x,PLAYER_ID,PLAYER_NAME_x,START_POSITION_x,COMMENT_x,MIN_x,OFF_RATING,DEF_RATING,NET_RATING,AST_PCT,AST_TOV,AST_RATIO,OREB_PCT,DREB_PCT,REB_PCT,TM_TOV_PCT,EFG_PCT,TS_PCT,USG_PCT,PACE,PIE,GAME_DATE_EST,GAME_SEQUENCE,TEAM_ABBREVIATION_y,TEAM_CITY_NAME,TEAM_WINS_LOSSES,PTS_QTR1,PTS_QTR2,PTS_QTR3,PTS_QTR4,PTS_OT1,PTS_OT2,PTS_OT3,PTS_OT4,PTS_OT5,PTS_OT6,PTS_OT7,PTS_OT8,PTS_OT9,PTS_OT10,PTS,FG_PCT,FT_PCT,FG3_PCT,AST,REB,TOV,GAME_ID_y,TEAM_ID_y,TEAM_ABBREVIATION,TEAM_CITY_y,PLAYER_NAME_y,START_POSITION_y,COMMENT_y,MIN_y,PTS_OFF_TOV,PTS_2ND_CHANCE,PTS_FB,PTS_PAINT,OPP_PTS_OFF_TOV,OPP_PTS_2ND_CHANCE,OPP_PTS_FB,OPP_PTS_PAINT,BLK,BLKA,PF,PFD
0021500555,1610612748,MIA,Miami,2736,Luol Deng,F,,32:42,96.2,104.6,-8.4,0.13,3.0,28.7,0.083,0.053,0.07,9.6,0.333,0.388,0.109,93.53,0.045,2016-01-09T00:00:00,6,MIA,Miami,22-15,29,20,19,15,0,0,0,0,0,0,0,0,0,0,83,0.415,0.529,0.316,14,39,17,0021500555,1610612748,MIA,Miami,Luol Deng,F,,32:42,0.0,0.0,0.0,4.0,16.0,12.0,0.0,28.0,1.0,0.0,1.0,1.0
0021500555,1610612748,MIA,Miami,2547,Chris Bosh,F,,35:08,87.0,110.0,-23.0,0.143,2.0,10.3,0.057,0.238,0.125,5.1,0.75,0.73,0.221,92.3,0.219,2016-01-09T00:00:00,6,MIA,Miami,22-15,29,20,19,15,0,0,0,0,0,0,0,0,0,0,83,0.415,0.529,0.316,14,39,17,0021500555,1610612748,MIA,Miami,Chris Bosh,F,,35:08,2.0,2.0,0.0,12.0,12.0,6.0,2.0,26.0,0.0,0.0,2.0,1.0
0021500555,1610612748,MIA,Miami,202355,Hassan Whiteside,C,,30:47,96.0,103.0,-6.9,0.0,0.0,0.0,0.161,0.316,0.22,8.6,0.5,0.47,0.168,90.09,0.109,2016-01-09T00:00:00,6,MIA,Miami,22-15,29,20,19,15,0,0,0,0,0,0,0,0,0,0,83,0.415,0.529,0.316,14,39,17,0021500555,1610612748,MIA,Miami,Hassan Whiteside,C,,30:47,0.0,5.0,0.0,8.0,14.0,10.0,2.0,28.0,4.0,1.0,3.0,6.0
0021500555,1610612748,MIA,Miami,2548,Dwyane Wade,G,,32:36,90.6,111.2,-20.6,0.211,1.0,14.7,0.088,0.091,0.089,14.7,0.176,0.208,0.315,90.38,-0.047,2016-01-09T00:00:00,6,MIA,Miami,22-15,29,20,19,15,0,0,0,0,0,0,0,0,0,0,83,0.415,0.529,0.316,14,39,17,0021500555,1610612748,MIA,Miami,Dwyane Wade,G,,32:36,0.0,0.0,0.0,6.0,14.0,8.0,2.0,28.0,0.0,1.0,0.0,2.0
0021500555,1610612748,MIA,Miami,201609,Goran Dragic,G,,27:56,87.7,105.6,-17.8,0.0,0.0,0.0,0.0,0.048,0.02,25.2,0.636,0.673,0.238,90.97,0.079,2016-01-09T00:00:00,6,MIA,Miami,22-15,29,20,19,15,0,0,0,0,0,0,0,0,0,0,83,0.415,0.529,0.316,14,39,17,0021500555,1610612748,MIA,Miami,Goran Dragic,G,,27:56,8.0,0.0,9.0,4.0,9.0,6.0,2.0,24.0,1.0,2.0,4.0,2.0
0021500555,1610612748,MIA,Miami,101123,Gerald Green,,,34:11,86.5,107.5,-21.0,0.059,0.5,6.3,0.051,0.182,0.098,12.5,0.5,0.5,0.193,90.5,0.078,2016-01-09T00:00:00,6,MIA,Miami,22-15,29,20,19,15,0,0,0,0,0,0,0,0,0,0,83,0.415,0.529,0.316,14,39,17,0021500555,1610612748,MIA,Miami,Gerald Green,,,34:11,4.0,4.0,0.0,4.0,6.0,12.0,2.0,26.0,1.0,1.0,5.0,2.0
0021500555,1610612748,MIA,Miami,1626159,Justise Winslow,,,20:21,93.2,105.7,-12.6,0.0,0.0,0.0,0.0,0.0,0.0,33.3,0.0,0.0,0.137,89.07,-0.087,2016-01-09T00:00:00,6,MIA,Miami,22-15,29,20,19,15,0,0,0,0,0,0,0,0,0,0,83,0.415,0.529,0.316,14,39,17,0021500555,1610612748,MIA,Miami,Justise Winslow,,,20:21,0.0,0.0,0.0,0.0,2.0,6.0,0.0,12.0,1.0,1.0,0.0,0.0
0021500555,1610612748,MIA,Miami,2757,Beno Udrih,,,19:59,95.2,113.5,-18.3,0.333,2.0,33.3,0.0,0.5,0.154,16.7,0.417,0.417,0.201,90.7,0.094,2016-01-09T00:00:00,6,MIA,Miami,22-15,29,20,19,15,0,0,0,0,0,0,0,0,0,0,83,0.415,0.529,0.316,14,39,17,0021500555,1610612748,MIA,Miami,Beno Udrih,,,19:59,0.0,3.0,0.0,2.0,7.0,8.0,0.0,14.0,0.0,0.0,1.0,1.0
0021500555,1610612748,MIA,Miami,2405,Amar'e Stoudemire,,,6:20,75.1,116.7,-41.6,0.0,0.0,0.0,0.167,0.333,0.222,0.0,0.0,0.532,0.131,95.95,0.116,2016-01-09T00:00:00,6,MIA,Miami,22-15,29,20,19,15,0,0,0,0,0,0,0,0,0,0,83,0.415,0.529,0.316,14,39,17,0021500555,1610612748,MIA,Miami,Amar'e Stoudemire,,,6:20,0.0,2.0,0.0,0.0,0.0,2.0,0.0,4.0,0.0,1.0,0.0,1.0
0021500555,1610612748,MIA,Miami,2365,Chris Andersen,,DNP - Coach's Decision                  ,,,,,,,0.0,,,,,,,0.0,,,2016-01-09T00:00:00,6,MIA,Miami,22-15,29,20,19,15,0,0,0,0,0,0,0,0,0,0,83,0.415,0.529,0.316,14,39,17,0021500555,1610612748,MIA,Miami,Chris Andersen,,DNP - Coach's Decision                  ,,,,,,,,,,,,,
0021500555,1610612748,MIA,Miami,2617,Udonis Haslem,,DNP - Coach's Decision                  ,,,,,,,0.0,,,,,,,0.0,,,2016-01-09T00:00:00,6,MIA,Miami,22-15,29,20,19,15,0,0,0,0,0,0,0,0,0,0,83,0.415,0.529,0.316,14,39,17,0021500555,1610612748,MIA,Miami,Udonis Haslem,,DNP - Coach's Decision                  ,,,,,,,,,,,,,
0021500555,1610612748,MIA,Miami,204020,Tyler Johnson,,DNP - Coach's Decision                  ,,,,,,,0.0,,,,,,,0.0,,,2016-01-09T00:00:00,6,MIA,Miami,22-15,29,20,19,15,0,0,0,0,0,0,0,0,0,0,83,0.415,0.529,0.316,14,39,17,0021500555,1610612748,MIA,Miami,Tyler Johnson,,DNP - Coach's Decision                  ,,,,,,,,,,,,,
0021500555,1610612762,UTA,Utah,202330,Gordon Hayward,F,,37:13,99.9,89.9,10.0,0.067,0.13,2.8,0.043,0.086,0.069,22.6,0.682,0.644,0.447,93.07,0.146,2016-01-09T00:00:00,6,UTA,Utah,16-20,19,26,27,26,0,0,0,0,0,0,0,0,0,0,98,0.549,0.611,0.45,19,37,16,0021500555,1610612762,UTA,Utah,Gordon Hayward,F,,37:13,10.0,4.0,2.0,16.0,14.0,11.0,9.0,30.0,0.0,1.0,2.0,6.0
0021500555,1610612762,UTA,Utah,1626168,Trey Lyles,F,,32:29,109.7,81.2,28.5,0.0,0.0,0.0,0.0,0.286,0.172,16.7,0.3,0.3,0.09,93.8,0.116,2016-01-09T00:00:00,6,UTA,Utah,16-20,19,26,27,26,0,0,0,0,0,0,0,0,0,0,98,0.549,0.611,0.45,19,37,16,0021500555,1610612762,UTA,Utah,Trey Lyles,F,,32:29,0.0,0.0,0.0,0.0,8.0,14.0,7.0,24.0,0.0,2.0,1.0,2.0
0021500555,1610612762,UTA,Utah,203497,Rudy Gobert,C,,28:29,110.3,91.3,19.0,0.2,4.0,41.0,0.158,0.069,0.104,10.2,1.0,0.945,0.099,93.63,0.178,2016-01-09T00:00:00,6,UTA,Utah,16-20,19,26,27,26,0,0,0,0,0,0,0,0,0,0,98,0.549,0.611,0.45,19,37,16,0021500555,1610612762,UTA,Utah,Rudy Gobert,C,,28:29,0.0,4.0,0.0,6.0,6.0,15.0,2.0,24.0,4.0,0.0,2.0,4.0
0021500555,1610612762,UTA,Utah,203187,Chris Johnson,G,,31:02,114.5,80.8,33.6,0.143,1.5,21.4,0.0,0.118,0.077,14.3,0.778,0.778,0.174,93.24,0.145,2016-01-09T00:00:00,6,UTA,Utah,16-20,19,26,27,26,0,0,0,0,0,0,0,0,0,0,98,0.549,0.611,0.45,19,37,16,0021500555,1610612762,UTA,Utah,Chris Johnson,G,,31:02,2.0,2.0,0.0,6.0,8.0,16.0,4.0,20.0,2.0,1.0,5.0,0.0
0021500555,1610612762,UTA,Utah,203526,Raul Neto,G,,33:09,109.4,88.2,21.1,0.227,2.5,28.0,0.0,0.061,0.036,11.2,0.55,0.597,0.187,93.77,0.147,2016-01-09T00:00:00,6,UTA,Utah,16-20,19,26,27,26,0,0,0,0,0,0,0,0,0,0,98,0.549,0.611,0.45,19,37,16,0021500555,1610612762,UTA,Utah,Raul Neto,G,,33:09,4.0,0.0,0.0,6.0,10.0,12.0,9.0,28.0,0.0,1.0,2.0,3.0
0021500555,1610612762,UTA,Utah,203481,Jeff Withey,,,19:31,103.8,89.8,14.0,0.083,1.0,14.3,0.1,0.111,0.107,14.3,0.8,0.8,0.159,87.65,0.159,2016-01-09T00:00:00,6,UTA,Utah,16-20,19,26,27,26,0,0,0,0,0,0,0,0,0,0,98,0.549,0.611,0.45,19,37,16,0021500555,1610612762,UTA,Utah,Jeff Withey,,,19:31,0.0,4.0,0.0,4.0,8.0,1.0,7.0,16.0,1.0,0.0,1.0,0.0
0021500555,1610612762,UTA,Utah,204060,Joe Ingles,,,23:59,112.5,98.8,13.7,0.056,0.0,12.5,0.0,0.174,0.108,0.0,0.429,0.429,0.156,85.34,0.078,2016-01-09T00:00:00,6,UTA,Utah,16-20,19,26,27,26,0,0,0,0,0,0,0,0,0,0,98,0.549,0.611,0.45,19,37,16,0021500555,1610612762,UTA,Utah,Joe Ingles,,,23:59,0.0,0.0,0.0,0.0,6.0,5.0,5.0,24.0,0.0,2.0,1.0,0.0
0021500555,1610612762,UTA,Utah,202344,Trevor Booker,,,15:31,103.6,113.0,-9.4,0.077,0.0,33.3,0.0,0.333,0.222,0.0,0.0,0.0,0.069,85.75,0.035,2016-01-09T00:00:00,6,UTA,Utah,16-20,19,26,27,26,0,0,0,0,0,0,0,0,0,0,98,0.549,0.611,0.45,19,37,16,0021500555,1610612762,UTA,Utah,Trevor Booker,,,15:31,0.0,0.0,0.0,0.0,6.0,2.0,2.0,16.0,0.0,0.0,1.0,0.0
0021500555,1610612762,UTA,Utah,203504,Trey Burke,,,18:37,103.4,103.9,-0.5,0.3,3.0,23.3,0.0,0.063,0.038,7.8,0.563,0.619,0.292,87.04,0.143,2016-01-09T00:00:00,6,UTA,Utah,16-20,19,26,27,26,0,0,0,0,0,0,0,0,0,0,98,0.549,0.611,0.45,19,37,16,0021500555,1610612762,UTA,Utah,Trey Burke,,,18:37,0.0,0.0,0.0,0.0,4.0,4.0,0.0,18.0,0.0,1.0,1.0,1.0
0021500555,1610612762,UTA,Utah,202324,Derrick Favors,,DND - back spasms                       ,,,,,,,0.0,,,,,,,0.0,,,2016-01-09T00:00:00,6,UTA,Utah,16-20,19,26,27,26,0,0,0,0,0,0,0,0,0,0,98,0.549,0.611,0.45,19,37,16,0021500555,1610612762,UTA,Utah,Derrick Favors,,DND - back spasms                       ,,,,,,,,,,,,,
0021500555,1610612762,UTA,Utah,203918,Rodney Hood,,DND - sore right ankle                  ,,,,,,,0.0,,,,,,,0.0,,,2016-01-09T00:00:00,6,UTA,Utah,16-20,19,26,27,26,0,0,0,0,0,0,0,0,0,0,98,0.549,0.611,0.45,19,37,16,0021500555,1610612762,UTA,Utah,Rodney Hood,,DND - sore right ankle                  ,,,,,,,,,,,,,
0021500555,1610612762,UTA,Utah,202353,Tibor Pleiss,,DNP - Coach's Decision                  ,,,,,,,0.0,,,,,,,0.0,,,2016-01-09T00:00:00,6,UTA,Utah,16-20,19,26,27,26,0,0,0,0,0,0,0,0,0,0,98,0.549,0.611,0.45,19,37,16,0021500555,1610612762,UTA,Utah,Tibor Pleiss,,DNP - Coach's Decision                  ,,,,,,,,,,,,,
