GAME_ID_x,TEAM_ID_x,TEAM_ABBREVIATION_x,TEAM_CITY_x,PLAYER_ID,PLAYER_NAME_x,START_POSITION_x,COMMENT_x,MIN_x,OFF_RATING,DEF_RATING,NET_RATING,AST_PCT,AST_TOV,AST_RATIO,OREB_PCT,DREB_PCT,REB_PCT,TM_TOV_PCT,EFG_PCT,TS_PCT,USG_PCT,PACE,PIE,GAME_DATE_EST,GAME_SEQUENCE,TEAM_ABBREVIATION_y,TEAM_CITY_NAME,TEAM_WINS_LOSSES,PTS_QTR1,PTS_QTR2,PTS_QTR3,PTS_QTR4,PTS_OT1,PTS_OT2,PTS_OT3,PTS_OT4,PTS_OT5,PTS_OT6,PTS_OT7,PTS_OT8,PTS_OT9,PTS_OT10,PTS,FG_PCT,FT_PCT,FG3_PCT,AST,REB,TOV,GAME_ID_y,TEAM_ID_y,TEAM_ABBREVIATION,TEAM_CITY_y,PLAYER_NAME_y,START_POSITION_y,COMMENT_y,MIN_y,PTS_OFF_TOV,PTS_2ND_CHANCE,PTS_FB,PTS_PAINT,OPP_PTS_OFF_TOV,OPP_PTS_2ND_CHANCE,OPP_PTS_FB,OPP_PTS_PAINT,BLK,BLKA,PF,PFD
0021500561,1610612754,IND,Indiana,202331,Paul George,F,,40:27,95.7,92.9,2.9,0.16,1.0,15.2,0.0,0.188,0.094,15.2,0.5,0.546,0.258,100.08,0.17,2016-01-10T00:00:00,5,IND,Indiana,21-16,24,26,27,16,10,0,0,0,0,0,0,0,0,0,103,0.478,0.8,0.29,33,39,18,0021500561,1610612754,IND,Indiana,Paul George,F,,40:27,9.0,5.0,2.0,8.0,15.0,10.0,14.0,30.0,2.0,1.0,1.0,6.0
0021500561,1610612754,IND,Indiana,202730,Lavoy Allen,F,,18:02,101.9,91.1,10.8,0.083,1.0,14.3,0.077,0.056,0.065,14.3,0.6,0.6,0.161,99.6,0.057,2016-01-10T00:00:00,5,IND,Indiana,21-16,24,26,27,16,10,0,0,0,0,0,0,0,0,0,103,0.478,0.8,0.29,33,39,18,0021500561,1610612754,IND,Indiana,Lavoy Allen,F,,18:02,2.0,0.0,0.0,4.0,6.0,5.0,10.0,14.0,0.0,0.0,2.0,1.0
0021500561,1610612754,IND,Indiana,101133,Ian Mahinmi,C,,28:34,99.4,99.5,-0.1,0.056,1.0,9.6,0.048,0.273,0.163,9.6,0.75,0.77,0.162,98.8,0.146,2016-01-10T00:00:00,5,IND,Indiana,21-16,24,26,27,16,10,0,0,0,0,0,0,0,0,0,103,0.478,0.8,0.29,33,39,18,0021500561,1610612754,IND,Indiana,Ian Mahinmi,C,,28:34,4.0,0.0,0.0,12.0,11.0,8.0,12.0,18.0,1.0,0.0,4.0,2.0
0021500561,1610612754,IND,Indiana,101145,Monta Ellis,G,,38:48,101.1,102.2,-1.1,0.464,3.25,46.4,0.0,0.069,0.035,14.3,0.5,0.5,0.194,96.77,0.111,2016-01-10T00:00:00,5,IND,Indiana,21-16,24,26,27,16,10,0,0,0,0,0,0,0,0,0,103,0.478,0.8,0.29,33,39,18,0021500561,1610612754,IND,Indiana,Monta Ellis,G,,38:48,0.0,0.0,0.0,6.0,11.0,10.0,15.0,26.0,0.0,0.0,2.0,2.0
0021500561,1610612754,IND,Indiana,201588,George Hill,G,,38:45,96.5,93.6,2.9,0.2,2.5,27.8,0.0,0.161,0.081,11.1,0.591,0.591,0.163,97.11,0.096,2016-01-10T00:00:00,5,IND,Indiana,21-16,24,26,27,16,10,0,0,0,0,0,0,0,0,0,103,0.478,0.8,0.29,33,39,18,0021500561,1610612754,IND,Indiana,George Hill,G,,38:45,8.0,0.0,0.0,4.0,13.0,10.0,12.0,26.0,0.0,0.0,3.0,5.0
0021500561,1610612754,IND,Indiana,201155,Rodney Stuckey,,,29:38,93.2,98.8,-5.6,0.111,1.0,13.9,0.0,0.167,0.085,13.9,0.6,0.623,0.197,97.83,0.124,2016-01-10T00:00:00,5,IND,Indiana,21-16,24,26,27,16,10,0,0,0,0,0,0,0,0,0,103,0.478,0.8,0.29,33,39,18,0021500561,1610612754,IND,Indiana,Rodney Stuckey,,,29:38,7.0,0.0,4.0,12.0,9.0,7.0,9.0,26.0,0.0,0.0,2.0,1.0
0021500561,1610612754,IND,Indiana,1626167,Myles Turner,,,12:47,86.1,92.7,-6.6,0.125,0.0,25.0,0.077,0.067,0.071,0.0,0.667,0.667,0.096,113.4,0.093,2016-01-10T00:00:00,5,IND,Indiana,21-16,24,26,27,16,10,0,0,0,0,0,0,0,0,0,103,0.478,0.8,0.29,33,39,18,0021500561,1610612754,IND,Indiana,Myles Turner,,,12:47,2.0,0.0,0.0,0.0,2.0,4.0,6.0,20.0,1.0,0.0,1.0,0.0
0021500561,1610612754,IND,Indiana,101139,CJ Miles,,,26:59,91.3,89.7,1.5,0.105,2.0,13.4,0.0,0.174,0.078,6.7,0.273,0.295,0.211,102.22,-0.005,2016-01-10T00:00:00,5,IND,Indiana,21-16,24,26,27,16,10,0,0,0,0,0,0,0,0,0,103,0.478,0.8,0.29,33,39,18,0021500561,1610612754,IND,Indiana,CJ Miles,,,26:59,3.0,0.0,0.0,0.0,4.0,4.0,11.0,28.0,1.0,1.0,4.0,2.0
0021500561,1610612754,IND,Indiana,1626202,Joe Young,,,6:48,83.9,88.9,-5.0,0.4,2.0,31.1,0.0,0.0,0.0,15.5,0.333,0.436,0.235,122.68,0.06,2016-01-10T00:00:00,5,IND,Indiana,21-16,24,26,27,16,10,0,0,0,0,0,0,0,0,0,103,0.478,0.8,0.29,33,39,18,0021500561,1610612754,IND,Indiana,Joe Young,,,6:48,3.0,0.0,3.0,2.0,2.0,0.0,6.0,12.0,0.0,0.0,0.0,1.0
0021500561,1610612754,IND,Indiana,203922,Glenn Robinson III,,,12:33,96.5,104.0,-7.5,0.222,0.0,40.0,0.0,0.25,0.125,0.0,0.667,0.667,0.116,97.22,0.141,2016-01-10T00:00:00,5,IND,Indiana,21-16,24,26,27,16,10,0,0,0,0,0,0,0,0,0,103,0.478,0.8,0.29,33,39,18,0021500561,1610612754,IND,Indiana,Glenn Robinson III,,,12:33,0.0,0.0,0.0,4.0,0.0,2.0,7.0,14.0,0.0,0.0,1.0,0.0
0021500561,1610612754,IND,Indiana,201941,Jordan Hill,,,11:39,100.6,87.2,13.4,0.0,0.0,0.0,0.2,0.286,0.235,18.4,0.5,0.507,0.476,85.53,0.14,2016-01-10T00:00:00,5,IND,Indiana,21-16,24,26,27,16,10,0,0,0,0,0,0,0,0,0,103,0.478,0.8,0.29,33,39,18,0021500561,1610612754,IND,Indiana,Jordan Hill,,,11:39,0.0,2.0,0.0,4.0,2.0,0.0,3.0,6.0,0.0,1.0,1.0,1.0
0021500561,1610612754,IND,Indiana,201978,Chase Budinger,,DNP - Coach's Decision                  ,,,,,,,0.0,,,,,,,0.0,,,2016-01-10T00:00:00,5,IND,Indiana,21-16,24,26,27,16,10,0,0,0,0,0,0,0,0,0,103,0.478,0.8,0.29,33,39,18,0021500561,1610612754,IND,Indiana,Chase Budinger,,DNP - Coach's Decision                  ,,,,,,,,,,,,,
0021500561,1610612754,IND,Indiana,203524,Solomon Hill,,DNP - Coach's Decision                  ,,,,,,,0.0,,,,,,,0.0,,,2016-01-10T00:00:00,5,IND,Indiana,21-16,24,26,27,16,10,0,0,0,0,0,0,0,0,0,103,0.478,0.8,0.29,33,39,18,0021500561,1610612754,IND,Indiana,Solomon Hill,,DNP - Coach's Decision                  ,,,,,,,,,,,,,
0021500561,1610612745,HOU,Houston,2772,Trevor Ariza,F,,41:38,97.0,99.4,-2.4,0.0,0.0,0.0,0.029,0.125,0.076,16.0,0.75,0.761,0.207,94.54,0.111,2016-01-10T00:00:00,5,HOU,Houston,19-19,28,20,16,29,14,0,0,0,0,0,0,0,0,0,107,0.438,0.652,0.368,24,49,22,0021500561,1610612745,HOU,Houston,Trevor Ariza,F,,41:38,5.0,2.0,9.0,6.0,30.0,5.0,2.0,46.0,0.0,1.0,3.0,3.0
0021500561,1610612745,HOU,Houston,203991,Clint Capela,F,,19:47,90.8,103.1,-12.3,0.143,0.4,22.2,0.125,0.25,0.188,55.6,0.5,0.5,0.153,102.39,0.053,2016-01-10T00:00:00,5,HOU,Houston,19-19,28,20,16,29,14,0,0,0,0,0,0,0,0,0,107,0.438,0.652,0.368,24,49,22,0021500561,1610612745,HOU,Houston,Clint Capela,F,,19:47,0.0,0.0,0.0,2.0,22.0,5.0,3.0,22.0,2.0,0.0,3.0,0.0
0021500561,1610612745,HOU,Houston,2730,Dwight Howard,C,,42:44,103.1,92.7,10.4,0.125,1.0,12.2,0.111,0.371,0.239,12.2,0.6,0.567,0.219,97.34,0.16,2016-01-10T00:00:00,5,HOU,Houston,19-19,28,20,16,29,14,0,0,0,0,0,0,0,0,0,107,0.438,0.652,0.368,24,49,22,0021500561,1610612745,HOU,Houston,Dwight Howard,C,,42:44,4.0,3.0,0.0,18.0,21.0,4.0,6.0,44.0,0.0,1.0,3.0,7.0
0021500561,1610612745,HOU,Houston,201935,James Harden,G,,42:34,90.9,96.8,-6.0,0.474,1.8,25.2,0.0,0.265,0.132,14.0,0.45,0.483,0.279,96.17,0.129,2016-01-10T00:00:00,5,HOU,Houston,19-19,28,20,16,29,14,0,0,0,0,0,0,0,0,0,107,0.438,0.652,0.368,24,49,22,0021500561,1610612745,HOU,Houston,James Harden,G,,42:34,4.0,2.0,0.0,6.0,30.0,5.0,4.0,46.0,0.0,1.0,5.0,4.0
0021500561,1610612745,HOU,Houston,201976,Patrick Beverley,G,,38:46,97.8,94.5,3.3,0.261,2.0,27.6,0.033,0.121,0.079,13.8,0.545,0.627,0.179,97.2,0.117,2016-01-10T00:00:00,5,HOU,Houston,19-19,28,20,16,29,14,0,0,0,0,0,0,0,0,0,107,0.438,0.652,0.368,24,49,22,0021500561,1610612745,HOU,Houston,Patrick Beverley,G,,38:46,0.0,3.0,6.0,0.0,23.0,4.0,4.0,42.0,0.0,1.0,3.0,4.0
0021500561,1610612745,HOU,Houston,203093,Terrence Jones,,,18:36,71.9,95.4,-23.5,0.091,1.0,12.5,0.056,0.111,0.083,12.5,0.333,0.333,0.147,110.19,0.046,2016-01-10T00:00:00,5,HOU,Houston,19-19,28,20,16,29,14,0,0,0,0,0,0,0,0,0,107,0.438,0.652,0.368,24,49,22,0021500561,1610612745,HOU,Houston,Terrence Jones,,,18:36,0.0,2.0,0.0,4.0,12.0,2.0,7.0,22.0,1.0,1.0,1.0,1.0
0021500561,1610612745,HOU,Houston,1891,Jason Terry,,,19:44,77.7,97.2,-19.5,0.091,0.0,12.5,0.0,0.0,0.0,0.0,0.357,0.357,0.158,101.43,0.034,2016-01-10T00:00:00,5,HOU,Houston,19-19,28,20,16,29,14,0,0,0,0,0,0,0,0,0,107,0.438,0.652,0.368,24,49,22,0021500561,1610612745,HOU,Houston,Jason Terry,,,19:44,0.0,0.0,0.0,2.0,21.0,3.0,5.0,18.0,0.0,0.0,0.0,0.0
0021500561,1610612745,HOU,Houston,201147,Corey Brewer,,,18:27,122.3,90.5,31.7,0.063,0.5,9.2,0.0,0.059,0.032,18.4,0.714,0.761,0.235,103.86,0.081,2016-01-10T00:00:00,5,HOU,Houston,19-19,28,20,16,29,14,0,0,0,0,0,0,0,0,0,107,0.438,0.652,0.368,24,49,22,0021500561,1610612745,HOU,Houston,Corey Brewer,,,18:27,2.0,0.0,4.0,4.0,11.0,2.0,5.0,16.0,0.0,0.0,2.0,1.0
0021500561,1610612745,HOU,Houston,201977,Marcus Thornton,,,22:44,100.7,93.3,7.4,0.056,0.0,11.8,0.05,0.111,0.079,0.0,0.143,0.134,0.127,105.22,-0.018,2016-01-10T00:00:00,5,HOU,Houston,19-19,28,20,16,29,14,0,0,0,0,0,0,0,0,0,107,0.438,0.652,0.368,24,49,22,0021500561,1610612745,HOU,Houston,Marcus Thornton,,,22:44,0.0,0.0,2.0,2.0,20.0,5.0,9.0,24.0,0.0,0.0,1.0,1.0
0021500561,1610612745,HOU,Houston,1626149,Montrezl Harrell,,DNP - Coach's Decision                  ,,,,,,,0.0,,,,,,,0.0,,,2016-01-10T00:00:00,5,HOU,Houston,19-19,28,20,16,29,14,0,0,0,0,0,0,0,0,0,107,0.438,0.652,0.368,24,49,22,0021500561,1610612745,HOU,Houston,Montrezl Harrell,,DNP - Coach's Decision                  ,,,,,,,,,,,,,
0021500561,1610612745,HOU,Houston,201951,Ty Lawson,,DND - Suspended                         ,,,,,,,0.0,,,,,,,0.0,,,2016-01-10T00:00:00,5,HOU,Houston,19-19,28,20,16,29,14,0,0,0,0,0,0,0,0,0,107,0.438,0.652,0.368,24,49,22,0021500561,1610612745,HOU,Houston,Ty Lawson,,DND - Suspended                         ,,,,,,,,,,,,,
