GAME_ID_x,TEAM_ID_x,TEAM_ABBREVIATION_x,TEAM_CITY_x,PLAYER_ID,PLAYER_NAME_x,START_POSITION_x,COMMENT_x,MIN_x,OFF_RATING,DEF_RATING,NET_RATING,AST_PCT,AST_TOV,AST_RATIO,OREB_PCT,DREB_PCT,REB_PCT,TM_TOV_PCT,EFG_PCT,TS_PCT,USG_PCT,PACE,PIE,GAME_DATE_EST,GAME_SEQUENCE,TEAM_ID_y,TEAM_ABBREVIATION_y,TEAM_CITY_NAME,TEAM_WINS_LOSSES,PTS_QTR1,PTS_QTR2,PTS_QTR3,PTS_QTR4,PTS_OT1,PTS_OT2,PTS_OT3,PTS_OT4,PTS_OT5,PTS_OT6,PTS_OT7,PTS_OT8,PTS_OT9,PTS_OT10,PTS,FG_PCT,FT_PCT,FG3_PCT,AST,REB,TOV,GAME_ID_y,TEAM_ID,TEAM_ABBREVIATION,TEAM_CITY_y,PLAYER_NAME_y,START_POSITION_y,COMMENT_y,MIN_y,PTS_OFF_TOV,PTS_2ND_CHANCE,PTS_FB,PTS_PAINT,OPP_PTS_OFF_TOV,OPP_PTS_2ND_CHANCE,OPP_PTS_FB,OPP_PTS_PAINT,BLK,BLKA,PF,PFD
0021300986,1610612758,SAC,Sacramento,200752,Rudy Gay,F,,30:47,92.0,109.0,-17.0,0.167,3.0,16.9,0.067,0.111,0.088,5.6,0.417,0.472,0.188,101.14,0.087,2014-03-15T00:00:00,6,1610612758,SAC,Sacramento,23-43,23,20,20,24,0,0,0,0,0,0,0,0,0,0,87,0.365,0.622,0.143,12,55,16,0021300986,1610612758,SAC,Sacramento,Rudy Gay,F,,30:47,2.0,3.0,0.0,4.0,9.0,4.0,15.0,26.0,2.0,1.0,4.0,3.0
0021300986,1610612758,SAC,Sacramento,200752,Rudy Gay,F,,30:47,92.0,109.0,-17.0,0.167,3.0,16.9,0.067,0.111,0.088,5.6,0.417,0.472,0.188,101.14,0.087,2014-03-15T00:00:00,6,1610612741,CHI,Chicago,37-29,23,25,16,30,0,0,0,0,0,0,0,0,0,0,94,0.397,0.788,0.3,21,40,11,0021300986,1610612758,SAC,Sacramento,Rudy Gay,F,,30:47,2.0,3.0,0.0,4.0,9.0,4.0,15.0,26.0,2.0,1.0,4.0,3.0
0021300986,1610612758,SAC,Sacramento,2501,Reggie Evans,F,,24:17,96.2,112.8,-16.7,0.059,0.0,17.0,0.174,0.222,0.195,0.0,0.5,0.512,0.086,92.82,0.083,2014-03-15T00:00:00,6,1610612758,SAC,Sacramento,23-43,23,20,20,24,0,0,0,0,0,0,0,0,0,0,87,0.365,0.622,0.143,12,55,16,0021300986,1610612758,SAC,Sacramento,Reggie Evans,F,,24:17,0.0,1.0,0.0,4.0,6.0,4.0,12.0,22.0,0.0,0.0,2.0,1.0
0021300986,1610612758,SAC,Sacramento,2501,Reggie Evans,F,,24:17,96.2,112.8,-16.7,0.059,0.0,17.0,0.174,0.222,0.195,0.0,0.5,0.512,0.086,92.82,0.083,2014-03-15T00:00:00,6,1610612741,CHI,Chicago,37-29,23,25,16,30,0,0,0,0,0,0,0,0,0,0,94,0.397,0.788,0.3,21,40,11,0021300986,1610612758,SAC,Sacramento,Reggie Evans,F,,24:17,0.0,1.0,0.0,4.0,6.0,4.0,12.0,22.0,0.0,0.0,2.0,1.0
0021300986,1610612758,SAC,Sacramento,202326,DeMarcus Cousins,C,,37:54,88.8,100.6,-11.8,0.111,0.4,6.4,0.098,0.294,0.187,16.1,0.476,0.519,0.293,101.83,0.183,2014-03-15T00:00:00,6,1610612758,SAC,Sacramento,23-43,23,20,20,24,0,0,0,0,0,0,0,0,0,0,87,0.365,0.622,0.143,12,55,16,0021300986,1610612758,SAC,Sacramento,DeMarcus Cousins,C,,37:54,1.0,7.0,0.0,14.0,11.0,6.0,17.0,30.0,1.0,4.0,5.0,5.0
0021300986,1610612758,SAC,Sacramento,202326,DeMarcus Cousins,C,,37:54,88.8,100.6,-11.8,0.111,0.4,6.4,0.098,0.294,0.187,16.1,0.476,0.519,0.293,101.83,0.183,2014-03-15T00:00:00,6,1610612741,CHI,Chicago,37-29,23,25,16,30,0,0,0,0,0,0,0,0,0,0,94,0.397,0.788,0.3,21,40,11,0021300986,1610612758,SAC,Sacramento,DeMarcus Cousins,C,,37:54,1.0,7.0,0.0,14.0,11.0,6.0,17.0,30.0,1.0,4.0,5.0,5.0
0021300986,1610612758,SAC,Sacramento,203463,Ben McLemore,G,,35:36,93.1,102.4,-9.3,0.042,0.5,6.7,0.027,0.167,0.09,13.3,0.25,0.25,0.155,100.08,0.005,2014-03-15T00:00:00,6,1610612758,SAC,Sacramento,23-43,23,20,20,24,0,0,0,0,0,0,0,0,0,0,87,0.365,0.622,0.143,12,55,16,0021300986,1610612758,SAC,Sacramento,Ben McLemore,G,,35:36,2.0,0.0,6.0,4.0,8.0,6.0,17.0,28.0,0.0,0.0,2.0,1.0
0021300986,1610612758,SAC,Sacramento,203463,Ben McLemore,G,,35:36,93.1,102.4,-9.3,0.042,0.5,6.7,0.027,0.167,0.09,13.3,0.25,0.25,0.155,100.08,0.005,2014-03-15T00:00:00,6,1610612741,CHI,Chicago,37-29,23,25,16,30,0,0,0,0,0,0,0,0,0,0,94,0.397,0.788,0.3,21,40,11,0021300986,1610612758,SAC,Sacramento,Ben McLemore,G,,35:36,2.0,0.0,6.0,4.0,8.0,6.0,17.0,28.0,0.0,0.0,2.0,1.0
0021300986,1610612758,SAC,Sacramento,202738,Isaiah Thomas,G,,42:16,88.7,96.0,-7.3,0.227,1.25,15.3,0.022,0.054,0.037,12.2,0.444,0.548,0.259,99.73,0.112,2014-03-15T00:00:00,6,1610612758,SAC,Sacramento,23-43,23,20,20,24,0,0,0,0,0,0,0,0,0,0,87,0.365,0.622,0.143,12,55,16,0021300986,1610612758,SAC,Sacramento,Isaiah Thomas,G,,42:16,4.0,7.0,5.0,2.0,10.0,8.0,17.0,28.0,0.0,0.0,3.0,8.0
0021300986,1610612758,SAC,Sacramento,202738,Isaiah Thomas,G,,42:16,88.7,96.0,-7.3,0.227,1.25,15.3,0.022,0.054,0.037,12.2,0.444,0.548,0.259,99.73,0.112,2014-03-15T00:00:00,6,1610612741,CHI,Chicago,37-29,23,25,16,30,0,0,0,0,0,0,0,0,0,0,94,0.397,0.788,0.3,21,40,11,0021300986,1610612758,SAC,Sacramento,Isaiah Thomas,G,,42:16,4.0,7.0,5.0,2.0,10.0,8.0,17.0,28.0,0.0,0.0,3.0,8.0
0021300986,1610612758,SAC,Sacramento,201574,Jason Thompson,,,23:22,81.3,80.7,0.6,0.0,0.0,0.0,0.154,0.16,0.157,9.3,0.25,0.256,0.181,102.7,-0.032,2014-03-15T00:00:00,6,1610612758,SAC,Sacramento,23-43,23,20,20,24,0,0,0,0,0,0,0,0,0,0,87,0.365,0.622,0.143,12,55,16,0021300986,1610612758,SAC,Sacramento,Jason Thompson,,,23:22,0.0,0.0,0.0,2.0,7.0,6.0,8.0,10.0,2.0,2.0,3.0,3.0
0021300986,1610612758,SAC,Sacramento,201574,Jason Thompson,,,23:22,81.3,80.7,0.6,0.0,0.0,0.0,0.154,0.16,0.157,9.3,0.25,0.256,0.181,102.7,-0.032,2014-03-15T00:00:00,6,1610612741,CHI,Chicago,37-29,23,25,16,30,0,0,0,0,0,0,0,0,0,0,94,0.397,0.788,0.3,21,40,11,0021300986,1610612758,SAC,Sacramento,Jason Thompson,,,23:22,0.0,0.0,0.0,2.0,7.0,6.0,8.0,10.0,2.0,2.0,3.0,3.0
0021300986,1610612758,SAC,Sacramento,202682,Derrick Williams,,,18:19,75.4,79.2,-3.8,0.0,0.0,0.0,0.045,0.235,0.128,18.8,0.333,0.347,0.121,94.86,0.1,2014-03-15T00:00:00,6,1610612758,SAC,Sacramento,23-43,23,20,20,24,0,0,0,0,0,0,0,0,0,0,87,0.365,0.622,0.143,12,55,16,0021300986,1610612758,SAC,Sacramento,Derrick Williams,,,18:19,0.0,0.0,1.0,2.0,7.0,6.0,5.0,8.0,0.0,0.0,1.0,2.0
0021300986,1610612758,SAC,Sacramento,202682,Derrick Williams,,,18:19,75.4,79.2,-3.8,0.0,0.0,0.0,0.045,0.235,0.128,18.8,0.333,0.347,0.121,94.86,0.1,2014-03-15T00:00:00,6,1610612741,CHI,Chicago,37-29,23,25,16,30,0,0,0,0,0,0,0,0,0,0,94,0.397,0.788,0.3,21,40,11,0021300986,1610612758,SAC,Sacramento,Derrick Williams,,,18:19,0.0,0.0,1.0,2.0,7.0,6.0,5.0,8.0,0.0,0.0,1.0,2.0
0021300986,1610612758,SAC,Sacramento,2566,Travis Outlaw,,,6:36,49.7,81.4,-31.6,0.0,0.0,0.0,0.077,0.143,0.1,0.0,0.0,0.0,0.166,100.47,0.0,2014-03-15T00:00:00,6,1610612758,SAC,Sacramento,23-43,23,20,20,24,0,0,0,0,0,0,0,0,0,0,87,0.365,0.622,0.143,12,55,16,0021300986,1610612758,SAC,Sacramento,Travis Outlaw,,,6:36,0.0,0.0,0.0,0.0,0.0,2.0,3.0,2.0,0.0,0.0,0.0,0.0
0021300986,1610612758,SAC,Sacramento,2566,Travis Outlaw,,,6:36,49.7,81.4,-31.6,0.0,0.0,0.0,0.077,0.143,0.1,0.0,0.0,0.0,0.166,100.47,0.0,2014-03-15T00:00:00,6,1610612741,CHI,Chicago,37-29,23,25,16,30,0,0,0,0,0,0,0,0,0,0,94,0.397,0.788,0.3,21,40,11,0021300986,1610612758,SAC,Sacramento,Travis Outlaw,,,6:36,0.0,0.0,0.0,0.0,0.0,2.0,3.0,2.0,0.0,0.0,0.0,0.0
0021300986,1610612758,SAC,Sacramento,203492,Ray McCallum,,,10:47,73.1,98.6,-25.6,0.0,0.0,0.0,0.0,0.0,0.0,25.8,0.0,0.174,0.168,87.78,-0.294,2014-03-15T00:00:00,6,1610612758,SAC,Sacramento,23-43,23,20,20,24,0,0,0,0,0,0,0,0,0,0,87,0.365,0.622,0.143,12,55,16,0021300986,1610612758,SAC,Sacramento,Ray McCallum,,,10:47,0.0,0.0,0.0,0.0,5.0,4.0,3.0,4.0,1.0,0.0,0.0,2.0
0021300986,1610612758,SAC,Sacramento,203492,Ray McCallum,,,10:47,73.1,98.6,-25.6,0.0,0.0,0.0,0.0,0.0,0.0,25.8,0.0,0.174,0.168,87.78,-0.294,2014-03-15T00:00:00,6,1610612741,CHI,Chicago,37-29,23,25,16,30,0,0,0,0,0,0,0,0,0,0,94,0.397,0.788,0.3,21,40,11,0021300986,1610612758,SAC,Sacramento,Ray McCallum,,,10:47,0.0,0.0,0.0,0.0,5.0,4.0,3.0,4.0,1.0,0.0,0.0,2.0
0021300986,1610612758,SAC,Sacramento,203112,Quincy Acy,,,10:06,77.6,83.5,-5.9,0.0,0.0,0.0,0.091,0.333,0.2,25.8,0.5,0.521,0.194,85.54,0.375,2014-03-15T00:00:00,6,1610612758,SAC,Sacramento,23-43,23,20,20,24,0,0,0,0,0,0,0,0,0,0,87,0.365,0.622,0.143,12,55,16,0021300986,1610612758,SAC,Sacramento,Quincy Acy,,,10:06,0.0,2.0,0.0,2.0,2.0,4.0,3.0,2.0,0.0,1.0,2.0,1.0
0021300986,1610612758,SAC,Sacramento,203112,Quincy Acy,,,10:06,77.6,83.5,-5.9,0.0,0.0,0.0,0.091,0.333,0.2,25.8,0.5,0.521,0.194,85.54,0.375,2014-03-15T00:00:00,6,1610612741,CHI,Chicago,37-29,23,25,16,30,0,0,0,0,0,0,0,0,0,0,94,0.397,0.788,0.3,21,40,11,0021300986,1610612758,SAC,Sacramento,Quincy Acy,,,10:06,0.0,2.0,0.0,2.0,2.0,4.0,3.0,2.0,0.0,1.0,2.0,1.0
0021300986,1610612758,SAC,Sacramento,201189,Aaron Gray,,DNP - Coach's Decision,,,,,,,0.0,,,,,,,0.0,,,2014-03-15T00:00:00,6,1610612758,SAC,Sacramento,23-43,23,20,20,24,0,0,0,0,0,0,0,0,0,0,87,0.365,0.622,0.143,12,55,16,0021300986,1610612758,SAC,Sacramento,Aaron Gray,,DNP - Coach's Decision,,,,,,,,,,,,,
0021300986,1610612758,SAC,Sacramento,201189,Aaron Gray,,DNP - Coach's Decision,,,,,,,0.0,,,,,,,0.0,,,2014-03-15T00:00:00,6,1610612741,CHI,Chicago,37-29,23,25,16,30,0,0,0,0,0,0,0,0,0,0,94,0.397,0.788,0.3,21,40,11,0021300986,1610612758,SAC,Sacramento,Aaron Gray,,DNP - Coach's Decision,,,,,,,,,,,,,
0021300986,1610612758,SAC,Sacramento,203111,Orlando Johnson,,DNP - Coach's Decision,,,,,,,0.0,,,,,,,0.0,,,2014-03-15T00:00:00,6,1610612758,SAC,Sacramento,23-43,23,20,20,24,0,0,0,0,0,0,0,0,0,0,87,0.365,0.622,0.143,12,55,16,0021300986,1610612758,SAC,Sacramento,Orlando Johnson,,DNP - Coach's Decision,,,,,,,,,,,,,
0021300986,1610612758,SAC,Sacramento,203111,Orlando Johnson,,DNP - Coach's Decision,,,,,,,0.0,,,,,,,0.0,,,2014-03-15T00:00:00,6,1610612741,CHI,Chicago,37-29,23,25,16,30,0,0,0,0,0,0,0,0,0,0,94,0.397,0.788,0.3,21,40,11,0021300986,1610612758,SAC,Sacramento,Orlando Johnson,,DNP - Coach's Decision,,,,,,,,,,,,,
0021300986,1610612741,CHI,Chicago,2399,Mike Dunleavy,F,,40:59,92.5,85.3,7.2,0.1,0.67,11.0,0.0,0.136,0.073,16.5,0.5,0.606,0.184,98.94,0.118,2014-03-15T00:00:00,6,1610612758,SAC,Sacramento,23-43,23,20,20,24,0,0,0,0,0,0,0,0,0,0,87,0.365,0.622,0.143,12,55,16,0021300986,1610612741,CHI,Chicago,Mike Dunleavy,F,,40:59,0.0,2.0,3.0,2.0,6.0,17.0,10.0,30.0,0.0,0.0,3.0,2.0
0021300986,1610612741,CHI,Chicago,2399,Mike Dunleavy,F,,40:59,92.5,85.3,7.2,0.1,0.67,11.0,0.0,0.136,0.073,16.5,0.5,0.606,0.184,98.94,0.118,2014-03-15T00:00:00,6,1610612741,CHI,Chicago,37-29,23,25,16,30,0,0,0,0,0,0,0,0,0,0,94,0.397,0.788,0.3,21,40,11,0021300986,1610612741,CHI,Chicago,Mike Dunleavy,F,,40:59,0.0,2.0,3.0,2.0,6.0,17.0,10.0,30.0,0.0,0.0,3.0,2.0
0021300986,1610612741,CHI,Chicago,2430,Carlos Boozer,F,,24:00,82.6,86.3,-3.6,0.333,4.0,25.2,0.05,0.174,0.116,6.3,0.4,0.414,0.246,97.04,0.145,2014-03-15T00:00:00,6,1610612758,SAC,Sacramento,23-43,23,20,20,24,0,0,0,0,0,0,0,0,0,0,87,0.365,0.622,0.143,12,55,16,0021300986,1610612741,CHI,Chicago,Carlos Boozer,F,,24:00,0.0,0.0,0.0,4.0,6.0,9.0,6.0,18.0,0.0,0.0,1.0,1.0
0021300986,1610612741,CHI,Chicago,2430,Carlos Boozer,F,,24:00,82.6,86.3,-3.6,0.333,4.0,25.2,0.05,0.174,0.116,6.3,0.4,0.414,0.246,97.04,0.145,2014-03-15T00:00:00,6,1610612741,CHI,Chicago,37-29,23,25,16,30,0,0,0,0,0,0,0,0,0,0,94,0.397,0.788,0.3,21,40,11,0021300986,1610612741,CHI,Chicago,Carlos Boozer,F,,24:00,0.0,0.0,0.0,4.0,6.0,9.0,6.0,18.0,0.0,0.0,1.0,1.0
0021300986,1610612741,CHI,Chicago,201149,Joakim Noah,C,,40:50,103.8,89.3,14.5,0.4,4.0,28.9,0.028,0.244,0.143,7.2,0.6,0.652,0.223,99.44,0.3,2014-03-15T00:00:00,6,1610612758,SAC,Sacramento,23-43,23,20,20,24,0,0,0,0,0,0,0,0,0,0,87,0.365,0.622,0.143,12,55,16,0021300986,1610612741,CHI,Chicago,Joakim Noah,C,,40:50,11.0,0.0,8.0,12.0,7.0,18.0,11.0,30.0,5.0,1.0,3.0,5.0
0021300986,1610612741,CHI,Chicago,201149,Joakim Noah,C,,40:50,103.8,89.3,14.5,0.4,4.0,28.9,0.028,0.244,0.143,7.2,0.6,0.652,0.223,99.44,0.3,2014-03-15T00:00:00,6,1610612741,CHI,Chicago,37-29,23,25,16,30,0,0,0,0,0,0,0,0,0,0,94,0.397,0.788,0.3,21,40,11,0021300986,1610612741,CHI,Chicago,Joakim Noah,C,,40:50,11.0,0.0,8.0,12.0,7.0,18.0,11.0,30.0,5.0,1.0,3.0,5.0
0021300986,1610612741,CHI,Chicago,202710,Jimmy Butler,G,,38:10,99.3,88.9,10.4,0.077,2.0,12.7,0.0,0.119,0.067,6.3,0.091,0.196,0.165,101.67,-0.027,2014-03-15T00:00:00,6,1610612758,SAC,Sacramento,23-43,23,20,20,24,0,0,0,0,0,0,0,0,0,0,87,0.365,0.622,0.143,12,55,16,0021300986,1610612741,CHI,Chicago,Jimmy Butler,G,,38:10,0.0,0.0,0.0,2.0,9.0,18.0,11.0,28.0,0.0,2.0,4.0,2.0
0021300986,1610612741,CHI,Chicago,202710,Jimmy Butler,G,,38:10,99.3,88.9,10.4,0.077,2.0,12.7,0.0,0.119,0.067,6.3,0.091,0.196,0.165,101.67,-0.027,2014-03-15T00:00:00,6,1610612741,CHI,Chicago,37-29,23,25,16,30,0,0,0,0,0,0,0,0,0,0,94,0.397,0.788,0.3,21,40,11,0021300986,1610612741,CHI,Chicago,Jimmy Butler,G,,38:10,0.0,0.0,0.0,2.0,9.0,18.0,11.0,28.0,0.0,2.0,4.0,2.0
0021300986,1610612741,CHI,Chicago,2550,Kirk Hinrich,G,,31:25,105.5,97.7,7.8,0.167,0.0,20.2,0.0,0.069,0.036,0.0,0.409,0.421,0.176,98.64,0.032,2014-03-15T00:00:00,6,1610612758,SAC,Sacramento,23-43,23,20,20,24,0,0,0,0,0,0,0,0,0,0,87,0.365,0.622,0.143,12,55,16,0021300986,1610612741,CHI,Chicago,Kirk Hinrich,G,,31:25,2.0,0.0,2.0,2.0,7.0,15.0,7.0,28.0,0.0,0.0,4.0,2.0
0021300986,1610612741,CHI,Chicago,2550,Kirk Hinrich,G,,31:25,105.5,97.7,7.8,0.167,0.0,20.2,0.0,0.069,0.036,0.0,0.409,0.421,0.176,98.64,0.032,2014-03-15T00:00:00,6,1610612741,CHI,Chicago,37-29,23,25,16,30,0,0,0,0,0,0,0,0,0,0,94,0.397,0.788,0.3,21,40,11,0021300986,1610612741,CHI,Chicago,Kirk Hinrich,G,,31:25,2.0,0.0,2.0,2.0,7.0,15.0,7.0,28.0,0.0,0.0,4.0,2.0
0021300986,1610612741,CHI,Chicago,201571,D.J. Augustin,,,27:58,90.5,75.9,14.6,0.143,2.0,13.2,0.0,0.0,0.0,6.6,0.4,0.492,0.223,93.96,0.0,2014-03-15T00:00:00,6,1610612758,SAC,Sacramento,23-43,23,20,20,24,0,0,0,0,0,0,0,0,0,0,87,0.365,0.622,0.143,12,55,16,0021300986,1610612741,CHI,Chicago,D.J. Augustin,,,27:58,0.0,2.0,2.0,0.0,5.0,10.0,7.0,12.0,0.0,1.0,5.0,5.0
0021300986,1610612741,CHI,Chicago,201571,D.J. Augustin,,,27:58,90.5,75.9,14.6,0.143,2.0,13.2,0.0,0.0,0.0,6.6,0.4,0.492,0.223,93.96,0.0,2014-03-15T00:00:00,6,1610612741,CHI,Chicago,37-29,23,25,16,30,0,0,0,0,0,0,0,0,0,0,94,0.397,0.788,0.3,21,40,11,0021300986,1610612741,CHI,Chicago,D.J. Augustin,,,27:58,0.0,2.0,2.0,0.0,5.0,10.0,7.0,12.0,0.0,1.0,5.0,5.0
0021300986,1610612741,CHI,Chicago,201959,Taj Gibson,,,26:50,99.4,83.2,16.3,0.0,0.0,0.0,0.2,0.114,0.15,13.4,0.667,0.733,0.244,98.98,0.391,2014-03-15T00:00:00,6,1610612758,SAC,Sacramento,23-43,23,20,20,24,0,0,0,0,0,0,0,0,0,0,87,0.365,0.622,0.143,12,55,16,0021300986,1610612741,CHI,Chicago,Taj Gibson,,,26:50,0.0,6.0,5.0,10.0,5.0,13.0,6.0,16.0,3.0,2.0,3.0,5.0
0021300986,1610612741,CHI,Chicago,201959,Taj Gibson,,,26:50,99.4,83.2,16.3,0.0,0.0,0.0,0.2,0.114,0.15,13.4,0.667,0.733,0.244,98.98,0.391,2014-03-15T00:00:00,6,1610612741,CHI,Chicago,37-29,23,25,16,30,0,0,0,0,0,0,0,0,0,0,94,0.397,0.788,0.3,21,40,11,0021300986,1610612741,CHI,Chicago,Taj Gibson,,,26:50,0.0,6.0,5.0,10.0,5.0,13.0,6.0,16.0,3.0,2.0,3.0,5.0
0021300986,1610612741,CHI,Chicago,203503,Tony Snell,,,5:28,108.3,69.4,38.9,0.0,0.0,0.0,0.0,0.0,0.0,50.0,0.0,0.0,0.166,92.9,-0.889,2014-03-15T00:00:00,6,1610612758,SAC,Sacramento,23-43,23,20,20,24,0,0,0,0,0,0,0,0,0,0,87,0.365,0.622,0.143,12,55,16,0021300986,1610612741,CHI,Chicago,Tony Snell,,,5:28,0.0,0.0,0.0,0.0,0.0,0.0,1.0,4.0,0.0,0.0,2.0,0.0
0021300986,1610612741,CHI,Chicago,203503,Tony Snell,,,5:28,108.3,69.4,38.9,0.0,0.0,0.0,0.0,0.0,0.0,50.0,0.0,0.0,0.166,92.9,-0.889,2014-03-15T00:00:00,6,1610612741,CHI,Chicago,37-29,23,25,16,30,0,0,0,0,0,0,0,0,0,0,94,0.397,0.788,0.3,21,40,11,0021300986,1610612741,CHI,Chicago,Tony Snell,,,5:28,0.0,0.0,0.0,0.0,0.0,0.0,1.0,4.0,0.0,0.0,2.0,0.0
0021300986,1610612741,CHI,Chicago,1737,Nazr Mohammed,,,4:20,104.2,86.6,17.5,0.0,0.0,0.0,0.0,0.4,0.2,0.0,0.0,0.0,0.0,92.6,0.25,2014-03-15T00:00:00,6,1610612758,SAC,Sacramento,23-43,23,20,20,24,0,0,0,0,0,0,0,0,0,0,87,0.365,0.622,0.143,12,55,16,0021300986,1610612741,CHI,Chicago,Nazr Mohammed,,,4:20,0.0,0.0,0.0,0.0,0.0,0.0,1.0,4.0,0.0,0.0,1.0,0.0
0021300986,1610612741,CHI,Chicago,1737,Nazr Mohammed,,,4:20,104.2,86.6,17.5,0.0,0.0,0.0,0.0,0.4,0.2,0.0,0.0,0.0,0.0,92.6,0.25,2014-03-15T00:00:00,6,1610612741,CHI,Chicago,37-29,23,25,16,30,0,0,0,0,0,0,0,0,0,0,94,0.397,0.788,0.3,21,40,11,0021300986,1610612741,CHI,Chicago,Nazr Mohammed,,,4:20,0.0,0.0,0.0,0.0,0.0,0.0,1.0,4.0,0.0,0.0,1.0,0.0
0021300986,1610612741,CHI,Chicago,202690,Jimmer Fredette,,DNP - Coach's Decision,,,,,,,0.0,,,,,,,0.0,,,2014-03-15T00:00:00,6,1610612758,SAC,Sacramento,23-43,23,20,20,24,0,0,0,0,0,0,0,0,0,0,87,0.365,0.622,0.143,12,55,16,0021300986,1610612741,CHI,Chicago,Jimmer Fredette,,DNP - Coach's Decision,,,,,,,,,,,,,
0021300986,1610612741,CHI,Chicago,202690,Jimmer Fredette,,DNP - Coach's Decision,,,,,,,0.0,,,,,,,0.0,,,2014-03-15T00:00:00,6,1610612741,CHI,Chicago,37-29,23,25,16,30,0,0,0,0,0,0,0,0,0,0,94,0.397,0.788,0.3,21,40,11,0021300986,1610612741,CHI,Chicago,Jimmer Fredette,,DNP - Coach's Decision,,,,,,,,,,,,,
0021300986,1610612741,CHI,Chicago,203513,Erik Murphy,,DNP - Coach's Decision,,,,,,,0.0,,,,,,,0.0,,,2014-03-15T00:00:00,6,1610612758,SAC,Sacramento,23-43,23,20,20,24,0,0,0,0,0,0,0,0,0,0,87,0.365,0.622,0.143,12,55,16,0021300986,1610612741,CHI,Chicago,Erik Murphy,,DNP - Coach's Decision,,,,,,,,,,,,,
0021300986,1610612741,CHI,Chicago,203513,Erik Murphy,,DNP - Coach's Decision,,,,,,,0.0,,,,,,,0.0,,,2014-03-15T00:00:00,6,1610612741,CHI,Chicago,37-29,23,25,16,30,0,0,0,0,0,0,0,0,0,0,94,0.397,0.788,0.3,21,40,11,0021300986,1610612741,CHI,Chicago,Erik Murphy,,DNP - Coach's Decision,,,,,,,,,,,,,
0021300986,1610612741,CHI,Chicago,203129,Tornike Shengelia,,DNP - Coach's Decision,,,,,,,0.0,,,,,,,0.0,,,2014-03-15T00:00:00,6,1610612758,SAC,Sacramento,23-43,23,20,20,24,0,0,0,0,0,0,0,0,0,0,87,0.365,0.622,0.143,12,55,16,0021300986,1610612741,CHI,Chicago,Tornike Shengelia,,DNP - Coach's Decision,,,,,,,,,,,,,
0021300986,1610612741,CHI,Chicago,203129,Tornike Shengelia,,DNP - Coach's Decision,,,,,,,0.0,,,,,,,0.0,,,2014-03-15T00:00:00,6,1610612741,CHI,Chicago,37-29,23,25,16,30,0,0,0,0,0,0,0,0,0,0,94,0.397,0.788,0.3,21,40,11,0021300986,1610612741,CHI,Chicago,Tornike Shengelia,,DNP - Coach's Decision,,,,,,,,,,,,,
