GAME_ID_x,TEAM_ID_x,TEAM_ABBREVIATION_x,TEAM_CITY_x,PLAYER_ID,PLAYER_NAME_x,START_POSITION_x,COMMENT_x,MIN_x,OFF_RATING,DEF_RATING,NET_RATING,AST_PCT,AST_TOV,AST_RATIO,OREB_PCT,DREB_PCT,REB_PCT,TM_TOV_PCT,EFG_PCT,TS_PCT,USG_PCT,PACE,PIE,GAME_DATE_EST,GAME_SEQUENCE,TEAM_ABBREVIATION_y,TEAM_CITY_NAME,TEAM_WINS_LOSSES,PTS_QTR1,PTS_QTR2,PTS_QTR3,PTS_QTR4,PTS_OT1,PTS_OT2,PTS_OT3,PTS_OT4,PTS_OT5,PTS_OT6,PTS_OT7,PTS_OT8,PTS_OT9,PTS_OT10,PTS,FG_PCT,FT_PCT,FG3_PCT,AST,REB,TOV,GAME_ID_y,TEAM_ID_y,TEAM_ABBREVIATION,TEAM_CITY_y,PLAYER_NAME_y,START_POSITION_y,COMMENT_y,MIN_y,PTS_OFF_TOV,PTS_2ND_CHANCE,PTS_FB,PTS_PAINT,OPP_PTS_OFF_TOV,OPP_PTS_2ND_CHANCE,OPP_PTS_FB,OPP_PTS_PAINT,BLK,BLKA,PF,PFD
0021500566,1610612759,SAS,San Antonio,202695,Kawhi Leonard,F,,29:33,115.7,87.8,27.9,0.0,0.0,0.0,0.08,0.3,0.178,6.1,0.5,0.555,0.25,88.22,0.149,2016-01-11T00:00:00,1,SAS,San Antonio,33-6,22,23,32,29,0,0,0,0,0,0,0,0,0,0,106,0.537,0.737,0.308,27,40,12,0021500566,1610612759,SAS,San Antonio,Kawhi Leonard,F,,29:33,5,2,0,6,10,0,11,24,0,0,1,3
0021500566,1610612759,SAS,San Antonio,200746,LaMarcus Aldridge,F,,27:59,112.3,83.1,29.2,0.133,0.0,10.3,0.16,0.389,0.256,0.0,0.706,0.717,0.272,91.44,0.305,2016-01-11T00:00:00,1,SAS,San Antonio,33-6,22,23,32,29,0,0,0,0,0,0,0,0,0,0,106,0.537,0.737,0.308,27,40,12,0021500566,1610612759,SAS,San Antonio,LaMarcus Aldridge,F,,27:59,11,6,2,12,8,0,11,22,0,1,2,3
0021500566,1610612759,SAS,San Antonio,1495,Tim Duncan,C,,21:39,106.6,84.2,22.5,0.125,2.0,20.0,0.053,0.188,0.114,10.0,0.571,0.571,0.159,91.57,0.143,2016-01-11T00:00:00,1,SAS,San Antonio,33-6,22,23,32,29,0,0,0,0,0,0,0,0,0,0,106,0.537,0.737,0.308,27,40,12,0021500566,1610612759,SAS,San Antonio,Tim Duncan,C,,21:39,0,2,0,6,10,0,11,12,2,1,2,2
0021500566,1610612759,SAS,San Antonio,201980,Danny Green,G,,19:46,118.1,70.9,47.2,0.15,3.0,37.5,0.0,0.063,0.033,12.5,0.0,0.0,0.111,93.54,-0.018,2016-01-11T00:00:00,1,SAS,San Antonio,33-6,22,23,32,29,0,0,0,0,0,0,0,0,0,0,106,0.537,0.737,0.308,27,40,12,0021500566,1610612759,SAS,San Antonio,Danny Green,G,,19:46,0,0,0,0,6,2,2,12,0,0,1,0
0021500566,1610612759,SAS,San Antonio,2225,Tony Parker,G,,24:40,123.4,81.1,42.3,0.174,2.0,28.8,0.0,0.059,0.029,14.4,0.286,0.381,0.182,88.16,0.063,2016-01-11T00:00:00,1,SAS,San Antonio,33-6,22,23,32,29,0,0,0,0,0,0,0,0,0,0,106,0.537,0.737,0.308,27,40,12,0021500566,1610612759,SAS,San Antonio,Tony Parker,G,,24:40,0,0,2,2,10,0,11,14,0,0,0,2
0021500566,1610612759,SAS,San Antonio,2564,Boris Diaw,,,18:25,113.4,83.6,29.8,0.364,0.0,31.3,0.077,0.182,0.125,0.0,0.643,0.628,0.247,91.59,0.229,2016-01-11T00:00:00,1,SAS,San Antonio,33-6,22,23,32,29,0,0,0,0,0,0,0,0,0,0,106,0.537,0.737,0.308,27,40,12,0021500566,1610612759,SAS,San Antonio,Boris Diaw,,,18:25,3,0,0,6,0,4,0,24,0,0,1,2
0021500566,1610612759,SAS,San Antonio,1938,Manu Ginobili,,,18:11,98.7,88.9,9.8,0.455,2.5,41.7,0.0,0.083,0.037,16.7,0.9,0.9,0.173,96.88,0.213,2016-01-11T00:00:00,1,SAS,San Antonio,33-6,22,23,32,29,0,0,0,0,0,0,0,0,0,0,106,0.537,0.737,0.308,27,40,12,0021500566,1610612759,SAS,San Antonio,Manu Ginobili,,,18:11,5,2,0,0,4,2,7,22,0,0,1,1
0021500566,1610612759,SAS,San Antonio,201988,Patty Mills,,,15:59,95.5,87.8,7.6,0.182,2.0,28.6,0.0,0.0,0.0,14.3,0.25,0.25,0.145,98.19,0.0,2016-01-11T00:00:00,1,SAS,San Antonio,33-6,22,23,32,29,0,0,0,0,0,0,0,0,0,0,106,0.537,0.737,0.308,27,40,12,0021500566,1610612759,SAS,San Antonio,Patty Mills,,,15:59,0,0,0,2,0,4,0,22,0,0,0,0
0021500566,1610612759,SAS,San Antonio,2561,David West,,,14:33,112.6,82.5,30.2,0.111,0.5,12.5,0.0,0.143,0.095,25.0,0.8,0.8,0.244,93.92,0.188,2016-01-11T00:00:00,1,SAS,San Antonio,33-6,22,23,32,29,0,0,0,0,0,0,0,0,0,0,106,0.537,0.737,0.308,27,40,12,0021500566,1610612759,SAS,San Antonio,David West,,,14:33,4,0,2,6,4,6,0,16,0,0,1,0
0021500566,1610612759,SAS,San Antonio,203937,Kyle Anderson,,,17:14,124.0,87.5,36.5,0.2,3.0,38.7,0.0,0.308,0.19,12.9,0.5,0.665,0.15,92.0,0.139,2016-01-11T00:00:00,1,SAS,San Antonio,33-6,22,23,32,29,0,0,0,0,0,0,0,0,0,0,106,0.537,0.737,0.308,27,40,12,0021500566,1610612759,SAS,San Antonio,Kyle Anderson,,,17:14,2,0,2,2,2,8,0,22,0,0,1,2
0021500566,1610612759,SAS,San Antonio,203613,Jonathon Simmons,,,11:16,111.6,93.3,18.3,0.0,0.0,0.0,0.125,0.111,0.118,0.0,0.5,0.5,0.082,100.2,0.014,2016-01-11T00:00:00,1,SAS,San Antonio,33-6,22,23,32,29,0,0,0,0,0,0,0,0,0,0,106,0.537,0.737,0.308,27,40,12,0021500566,1610612759,SAS,San Antonio,Jonathon Simmons,,,11:16,0,0,0,2,2,4,2,12,0,0,2,0
0021500566,1610612759,SAS,San Antonio,1626246,Boban Marjanovic,,,13:24,127.7,95.3,32.4,0.125,1.0,8.9,0.167,0.182,0.176,8.9,0.714,0.707,0.359,99.8,0.178,2016-01-11T00:00:00,1,SAS,San Antonio,33-6,22,23,32,29,0,0,0,0,0,0,0,0,0,0,106,0.537,0.737,0.308,27,40,12,0021500566,1610612759,SAS,San Antonio,Boban Marjanovic,,,13:24,0,3,0,10,2,6,0,18,2,1,3,3
0021500566,1610612759,SAS,San Antonio,2588,Matt Bonner,,,7:21,124.6,91.2,33.4,0.0,0.0,0.0,0.0,0.0,0.0,0.0,0.0,0.0,0.068,98.22,-0.035,2016-01-11T00:00:00,1,SAS,San Antonio,33-6,22,23,32,29,0,0,0,0,0,0,0,0,0,0,106,0.537,0.737,0.308,27,40,12,0021500566,1610612759,SAS,San Antonio,Matt Bonner,,,7:21,0,0,0,0,2,4,0,10,0,0,0,0
0021500566,1610612751,BKN,Brooklyn,2207,Joe Johnson,F,,28:01,87.8,117.0,-29.2,0.0,0.0,0.0,0.0,0.15,0.079,0.0,1.0,1.015,0.15,91.01,0.17,2016-01-11T00:00:00,1,BKN,Brooklyn,10-28,20,18,18,23,0,0,0,0,0,0,0,0,0,0,79,0.452,0.846,0.167,15,30,15,0021500566,1610612751,BKN,Brooklyn,Joe Johnson,F,,28:01,2,2,5,8,15,11,4,28,0,0,2,1
0021500566,1610612751,BKN,Brooklyn,201152,Thaddeus Young,F,,28:03,87.6,114.6,-27.0,0.063,0.25,6.3,0.0,0.409,0.225,25.2,0.4,0.414,0.272,92.94,0.059,2016-01-11T00:00:00,1,BKN,Brooklyn,10-28,20,18,18,23,0,0,0,0,0,0,0,0,0,0,79,0.452,0.846,0.167,15,30,15,0021500566,1610612751,BKN,Brooklyn,Thaddeus Young,F,,28:03,0,0,2,6,13,11,4,28,0,0,2,2
0021500566,1610612751,BKN,Brooklyn,201572,Brook Lopez,C,,31:53,86.7,111.8,-25.1,0.154,2.0,9.6,0.048,0.16,0.109,4.8,0.471,0.503,0.298,92.68,0.124,2016-01-11T00:00:00,1,BKN,Brooklyn,10-28,20,18,18,23,0,0,0,0,0,0,0,0,0,0,79,0.452,0.846,0.167,15,30,15,0021500566,1610612751,BKN,Brooklyn,Brook Lopez,C,,31:53,4,0,0,10,20,11,6,30,2,2,3,2
0021500566,1610612751,BKN,Brooklyn,201961,Wayne Ellington,G,,29:25,90.2,108.5,-18.2,0.0,0.0,0.0,0.0,0.125,0.073,25.3,0.375,0.45,0.207,93.5,0.052,2016-01-11T00:00:00,1,BKN,Brooklyn,10-28,20,18,18,23,0,0,0,0,0,0,0,0,0,0,79,0.452,0.846,0.167,15,30,15,0021500566,1610612751,BKN,Brooklyn,Wayne Ellington,G,,29:25,2,0,2,4,15,13,4,34,0,0,0,2
0021500566,1610612751,BKN,Brooklyn,202388,Donald Sloan,G,,24:05,87.9,114.4,-26.5,0.313,5.0,50.0,0.0,0.0,0.0,10.0,0.25,0.25,0.107,94.39,0.029,2016-01-11T00:00:00,1,BKN,Brooklyn,10-28,20,18,18,23,0,0,0,0,0,0,0,0,0,0,79,0.452,0.846,0.167,15,30,15,0021500566,1610612751,BKN,Brooklyn,Donald Sloan,G,,24:05,2,0,0,2,11,11,4,24,1,0,1,0
0021500566,1610612751,BKN,Brooklyn,202711,Bojan Bogdanovic,,,21:15,76.2,110.8,-34.7,0.0,0.0,0.0,0.0,0.067,0.029,16.7,0.0,0.0,0.124,96.81,-0.106,2016-01-11T00:00:00,1,BKN,Brooklyn,10-28,20,18,18,23,0,0,0,0,0,0,0,0,0,0,79,0.452,0.846,0.167,15,30,15,0021500566,1610612751,BKN,Brooklyn,Bojan Bogdanovic,,,21:15,0,0,0,0,17,4,4,26,0,1,3,0
0021500566,1610612751,BKN,Brooklyn,203186,Willie Reed,,,7:43,76.9,106.3,-29.3,0.0,0.0,0.0,0.2,0.0,0.083,50.0,0.5,0.5,0.286,96.02,-0.02,2016-01-11T00:00:00,1,BKN,Brooklyn,10-28,20,18,18,23,0,0,0,0,0,0,0,0,0,0,79,0.452,0.846,0.167,15,30,15,0021500566,1610612751,BKN,Brooklyn,Willie Reed,,,7:43,0,2,0,2,6,2,0,10,0,0,0,2
0021500566,1610612751,BKN,Brooklyn,203499,Shane Larkin,,,23:55,82.5,112.6,-30.2,0.429,3.0,50.5,0.048,0.063,0.054,16.8,0.667,0.644,0.115,91.68,0.122,2016-01-11T00:00:00,1,BKN,Brooklyn,10-28,20,18,18,23,0,0,0,0,0,0,0,0,0,0,79,0.452,0.846,0.167,15,30,15,0021500566,1610612751,BKN,Brooklyn,Shane Larkin,,,23:55,0,0,0,4,19,4,4,30,0,0,1,1
0021500566,1610612751,BKN,Brooklyn,200745,Andrea Bargnani,,,15:16,79.8,111.7,-31.9,0.0,0.0,0.0,0.067,0.143,0.091,0.0,0.5,0.543,0.182,94.23,0.057,2016-01-11T00:00:00,1,BKN,Brooklyn,10-28,20,18,18,23,0,0,0,0,0,0,0,0,0,0,79,0.452,0.846,0.167,15,30,15,0021500566,1610612751,BKN,Brooklyn,Andrea Bargnani,,,15:16,0,0,0,2,11,4,4,22,0,0,3,2
0021500566,1610612751,BKN,Brooklyn,203900,Markel Brown,,,12:38,85.9,114.8,-28.9,0.1,1.0,20.0,0.0,0.167,0.053,20.0,0.0,0.0,0.141,89.44,-0.099,2016-01-11T00:00:00,1,BKN,Brooklyn,10-28,20,18,18,23,0,0,0,0,0,0,0,0,0,0,79,0.452,0.846,0.167,15,30,15,0021500566,1610612751,BKN,Brooklyn,Markel Brown,,,12:38,0,0,0,0,7,2,4,16,0,0,2,1
0021500566,1610612751,BKN,Brooklyn,203080,Thomas Robinson,,,13:05,87.3,123.0,-35.6,0.0,0.0,0.0,0.091,0.111,0.1,0.0,0.571,0.635,0.279,90.99,0.207,2016-01-11T00:00:00,1,BKN,Brooklyn,10-28,20,18,18,23,0,0,0,0,0,0,0,0,0,0,79,0.452,0.846,0.167,15,30,15,0021500566,1610612751,BKN,Brooklyn,Thomas Robinson,,,13:05,2,4,2,8,10,2,2,18,0,1,1,2
0021500566,1610612751,BKN,Brooklyn,203508,Sergey Karasev,,,4:41,79.9,133.2,-53.3,0.0,0.0,0.0,0.0,0.2,0.125,0.0,1.0,1.0,0.114,94.91,0.2,2016-01-11T00:00:00,1,BKN,Brooklyn,10-28,20,18,18,23,0,0,0,0,0,0,0,0,0,0,79,0.452,0.846,0.167,15,30,15,0021500566,1610612751,BKN,Brooklyn,Sergey Karasev,,,4:41,0,0,0,0,6,0,0,4,0,0,0,0
