GAME_ID_x,TEAM_ID_x,TEAM_ABBREVIATION_x,TEAM_CITY_x,PLAYER_ID,PLAYER_NAME_x,START_POSITION_x,COMMENT_x,MIN_x,OFF_RATING,DEF_RATING,NET_RATING,AST_PCT,AST_TOV,AST_RATIO,OREB_PCT,DREB_PCT,REB_PCT,TM_TOV_PCT,EFG_PCT,TS_PCT,USG_PCT,PACE,PIE,GAME_DATE_EST,GAME_SEQUENCE,TEAM_ABBREVIATION_y,TEAM_CITY_NAME,TEAM_WINS_LOSSES,PTS_QTR1,PTS_QTR2,PTS_QTR3,PTS_QTR4,PTS_OT1,PTS_OT2,PTS_OT3,PTS_OT4,PTS_OT5,PTS_OT6,PTS_OT7,PTS_OT8,PTS_OT9,PTS_OT10,PTS,FG_PCT,FT_PCT,FG3_PCT,AST,REB,TOV,GAME_ID_y,TEAM_ID_y,TEAM_ABBREVIATION,TEAM_CITY_y,PLAYER_NAME_y,START_POSITION_y,COMMENT_y,MIN_y,PTS_OFF_TOV,PTS_2ND_CHANCE,PTS_FB,PTS_PAINT,OPP_PTS_OFF_TOV,OPP_PTS_2ND_CHANCE,OPP_PTS_FB,OPP_PTS_PAINT,BLK,BLKA,PF,PFD
0021500568,1610612748,MIA,Miami,2736,Luol Deng,F,,32:44,96.4,103.3,-6.9,0.1,1.0,12.5,0.054,0.25,0.145,12.5,0.583,0.583,0.186,97.66,0.129,2016-01-11T00:00:00,3,MIA,Miami,22-16,25,29,23,26,0,0,0,0,0,0,0,0,0,0,103,0.451,0.875,0.368,31,47,10,0021500568,1610612748,MIA,Miami,Luol Deng,F,,32:44,2.0,2.0,0.0,6.0,12.0,3.0,13.0,26.0,0.0,0.0,1.0,1.0
0021500568,1610612748,MIA,Miami,1626159,Justise Winslow,F,,25:33,97.1,109.5,-12.4,0.053,0.0,11.1,0.0,0.115,0.06,0.0,0.438,0.438,0.141,104.6,0.039,2016-01-11T00:00:00,3,MIA,Miami,22-16,25,29,23,26,0,0,0,0,0,0,0,0,0,0,103,0.451,0.875,0.368,31,47,10,0021500568,1610612748,MIA,Miami,Justise Winslow,F,,25:33,0.0,0.0,0.0,2.0,8.0,9.0,15.0,30.0,1.0,0.0,3.0,0.0
0021500568,1610612748,MIA,Miami,2547,Chris Bosh,C,,36:18,107.4,109.8,-2.4,0.148,1.0,16.2,0.053,0.278,0.162,16.2,0.4,0.447,0.243,101.05,0.098,2016-01-11T00:00:00,3,MIA,Miami,22-16,25,29,23,26,0,0,0,0,0,0,0,0,0,0,103,0.451,0.875,0.368,31,47,10,0021500568,1610612748,MIA,Miami,Chris Bosh,C,,36:18,0.0,0.0,0.0,4.0,12.0,7.0,21.0,36.0,2.0,0.0,1.0,3.0
0021500568,1610612748,MIA,Miami,2548,Dwyane Wade,G,,32:38,111.0,107.8,3.1,0.44,0.0,31.9,0.118,0.091,0.104,0.0,0.3,0.425,0.304,102.2,0.139,2016-01-11T00:00:00,3,MIA,Miami,22-16,25,29,23,26,0,0,0,0,0,0,0,0,0,0,103,0.451,0.875,0.368,31,47,10,0021500568,1610612748,MIA,Miami,Dwyane Wade,G,,32:38,2.0,8.0,2.0,12.0,12.0,5.0,21.0,30.0,1.0,0.0,2.0,5.0
0021500568,1610612748,MIA,Miami,201609,Goran Dragic,G,,35:49,91.2,110.9,-19.7,0.238,1.67,26.5,0.0,0.143,0.067,15.9,0.6,0.597,0.171,95.66,0.091,2016-01-11T00:00:00,3,MIA,Miami,22-16,25,29,23,26,0,0,0,0,0,0,0,0,0,0,103,0.451,0.875,0.368,31,47,10,0021500568,1610612748,MIA,Miami,Goran Dragic,G,,35:49,0.0,0.0,0.0,4.0,13.0,9.0,14.0,34.0,0.0,1.0,2.0,2.0
0021500568,1610612748,MIA,Miami,101123,Gerald Green,,,33:34,105.5,120.2,-14.7,0.087,0.0,13.0,0.0,0.059,0.031,0.0,0.538,0.558,0.184,100.13,0.054,2016-01-11T00:00:00,3,MIA,Miami,22-16,25,29,23,26,0,0,0,0,0,0,0,0,0,0,103,0.451,0.875,0.368,31,47,10,0021500568,1610612748,MIA,Miami,Gerald Green,,,33:34,0.0,0.0,3.0,4.0,12.0,12.0,18.0,40.0,0.0,0.0,5.0,1.0
0021500568,1610612748,MIA,Miami,204020,Tyler Johnson,,,27:52,127.0,119.7,7.3,0.208,5.0,37.2,0.0,0.12,0.058,7.4,0.857,0.874,0.129,100.55,0.114,2016-01-11T00:00:00,3,MIA,Miami,22-16,25,29,23,26,0,0,0,0,0,0,0,0,0,0,103,0.451,0.875,0.368,31,47,10,0021500568,1610612748,MIA,Miami,Tyler Johnson,,,27:52,4.0,0.0,0.0,8.0,5.0,10.0,11.0,38.0,0.0,0.0,3.0,5.0
0021500568,1610612748,MIA,Miami,1626196,Josh Richardson,,,3:50,29.1,114.3,-85.2,0.0,0.0,0.0,0.0,0.0,0.0,0.0,0.0,0.0,0.145,86.9,-0.125,2016-01-11T00:00:00,3,MIA,Miami,22-16,25,29,23,26,0,0,0,0,0,0,0,0,0,0,103,0.451,0.875,0.368,31,47,10,0021500568,1610612748,MIA,Miami,Josh Richardson,,,3:50,0.0,0.0,0.0,0.0,2.0,0.0,0.0,2.0,0.0,0.0,0.0,1.0
0021500568,1610612748,MIA,Miami,2617,Udonis Haslem,,,6:58,87.4,114.2,-26.9,0.2,0.0,50.0,0.0,0.375,0.214,0.0,0.0,0.0,0.067,102.52,0.078,2016-01-11T00:00:00,3,MIA,Miami,22-16,25,29,23,26,0,0,0,0,0,0,0,0,0,0,103,0.451,0.875,0.368,31,47,10,0021500568,1610612748,MIA,Miami,Udonis Haslem,,,6:58,0.0,0.0,0.0,0.0,4.0,5.0,2.0,8.0,0.0,0.0,1.0,0.0
0021500568,1610612748,MIA,Miami,2405,Amar'e Stoudemire,,,4:44,88.8,125.6,-36.7,0.0,0.0,0.0,0.2,0.333,0.25,0.0,0.75,0.75,0.45,84.37,0.333,2016-01-11T00:00:00,3,MIA,Miami,22-16,25,29,23,26,0,0,0,0,0,0,0,0,0,0,103,0.451,0.875,0.368,31,47,10,0021500568,1610612748,MIA,Miami,Amar'e Stoudemire,,,4:44,0.0,0.0,0.0,4.0,0.0,0.0,0.0,6.0,0.0,0.0,1.0,0.0
0021500568,1610612748,MIA,Miami,2365,Chris Andersen,,DNP - Coach's Decision                  ,,,,,,,0.0,,,,,,,0.0,,,2016-01-11T00:00:00,3,MIA,Miami,22-16,25,29,23,26,0,0,0,0,0,0,0,0,0,0,103,0.451,0.875,0.368,31,47,10,0021500568,1610612748,MIA,Miami,Chris Andersen,,DNP - Coach's Decision                  ,,,,,,,,,,,,,
0021500568,1610612748,MIA,Miami,2757,Beno Udrih,,DNP - Coach's Decision                  ,,,,,,,0.0,,,,,,,0.0,,,2016-01-11T00:00:00,3,MIA,Miami,22-16,25,29,23,26,0,0,0,0,0,0,0,0,0,0,103,0.451,0.875,0.368,31,47,10,0021500568,1610612748,MIA,Miami,Beno Udrih,,DNP - Coach's Decision                  ,,,,,,,,,,,,,
0021500568,1610612748,MIA,Miami,202355,Hassan Whiteside,,DND - Right Knee Tendinitis             ,,,,,,,0.0,,,,,,,0.0,,,2016-01-11T00:00:00,3,MIA,Miami,22-16,25,29,23,26,0,0,0,0,0,0,0,0,0,0,103,0.451,0.875,0.368,31,47,10,0021500568,1610612748,MIA,Miami,Hassan Whiteside,,DND - Right Knee Tendinitis             ,,,,,,,,,,,,,
0021500568,1610612744,GSW,Golden State,201575,Brandon Rush,F,,16:21,84.0,93.3,-9.3,0.0,0.0,0.0,0.0,0.063,0.029,0.0,0.0,0.266,0.048,114.04,0.0,2016-01-11T00:00:00,3,GSW,Golden State,36-2,27,29,24,31,0,0,0,0,0,0,0,0,0,0,111,0.477,0.733,0.304,25,49,9,0021500568,1610612744,GSW,Golden State,Brandon Rush,F,,16:21,1.0,0.0,1.0,0.0,2.0,2.0,2.0,16.0,0.0,0.0,0.0,1.0
0021500568,1610612744,GSW,Golden State,203110,Draymond Green,F,,35:37,107.4,112.4,-5.0,0.3,3.0,22.4,0.077,0.243,0.158,7.5,0.571,0.584,0.25,103.58,0.148,2016-01-11T00:00:00,3,GSW,Golden State,36-2,27,29,24,31,0,0,0,0,0,0,0,0,0,0,111,0.477,0.733,0.304,25,49,9,0021500568,1610612744,GSW,Golden State,Draymond Green,F,,35:37,0.0,2.0,8.0,16.0,6.0,10.0,5.0,36.0,0.0,1.0,2.0,6.0
0021500568,1610612744,GSW,Golden State,101106,Andrew Bogut,C,,21:02,82.9,98.6,-15.7,0.091,1.0,14.3,0.043,0.364,0.2,14.3,0.8,0.8,0.129,104.15,0.155,2016-01-11T00:00:00,3,GSW,Golden State,36-2,27,29,24,31,0,0,0,0,0,0,0,0,0,0,111,0.477,0.733,0.304,25,49,9,0021500568,1610612744,GSW,Golden State,Andrew Bogut,C,,21:02,0.0,0.0,2.0,8.0,4.0,4.0,3.0,20.0,1.0,0.0,3.0,1.0
0021500568,1610612744,GSW,Golden State,202691,Klay Thompson,G,,34:32,108.9,110.3,-1.3,0.095,0.67,9.4,0.028,0.162,0.096,14.1,0.467,0.521,0.243,103.38,0.085,2016-01-11T00:00:00,3,GSW,Golden State,36-2,27,29,24,31,0,0,0,0,0,0,0,0,0,0,111,0.477,0.733,0.304,25,49,9,0021500568,1610612744,GSW,Golden State,Klay Thompson,G,,34:32,2.0,3.0,3.0,6.0,6.0,10.0,5.0,36.0,0.0,0.0,2.0,2.0
0021500568,1610612744,GSW,Golden State,201939,Stephen Curry,G,,37:34,107.0,108.3,-1.3,0.316,6.0,16.4,0.0,0.051,0.025,2.7,0.481,0.523,0.35,102.68,0.119,2016-01-11T00:00:00,3,GSW,Golden State,36-2,27,29,24,31,0,0,0,0,0,0,0,0,0,0,111,0.477,0.733,0.304,25,49,9,0021500568,1610612744,GSW,Golden State,Stephen Curry,G,,37:34,9.0,3.0,9.0,8.0,6.0,10.0,5.0,36.0,0.0,2.0,2.0,4.0
0021500568,1610612744,GSW,Golden State,2738,Andre Iguodala,,,30:12,132.2,111.1,21.1,0.038,0.0,17.0,0.0,0.156,0.088,0.0,0.875,0.922,0.076,94.19,0.096,2016-01-11T00:00:00,3,GSW,Golden State,36-2,27,29,24,31,0,0,0,0,0,0,0,0,0,0,111,0.477,0.733,0.304,25,49,9,0021500568,1610612744,GSW,Golden State,Andre Iguodala,,,30:12,2.0,0.0,0.0,4.0,6.0,8.0,5.0,30.0,0.0,0.0,1.0,1.0
0021500568,1610612744,GSW,Golden State,203084,Harrison Barnes,,,26:54,131.8,99.2,32.5,0.05,1.0,7.3,0.042,0.172,0.113,7.3,0.4,0.51,0.212,94.14,0.099,2016-01-11T00:00:00,3,GSW,Golden State,36-2,27,29,24,31,0,0,0,0,0,0,0,0,0,0,111,0.477,0.733,0.304,25,49,9,0021500568,1610612744,GSW,Golden State,Harrison Barnes,,,26:54,2.0,2.0,0.0,2.0,4.0,6.0,0.0,20.0,0.0,1.0,2.0,3.0
0021500568,1610612744,GSW,Golden State,2733,Shaun Livingston,,,17:05,123.2,90.7,32.5,0.375,6.0,60.0,0.133,0.143,0.138,10.0,0.333,0.333,0.102,89.69,0.078,2016-01-11T00:00:00,3,GSW,Golden State,36-2,27,29,24,31,0,0,0,0,0,0,0,0,0,0,111,0.477,0.733,0.304,25,49,9,0021500568,1610612744,GSW,Golden State,Shaun Livingston,,,17:05,0.0,0.0,0.0,2.0,2.0,0.0,0.0,12.0,0.0,0.0,3.0,0.0
0021500568,1610612744,GSW,Golden State,203105,Festus Ezeli,,,5:28,120.8,66.7,54.2,0.0,0.0,0.0,0.0,0.4,0.222,0.0,0.0,0.568,0.082,86.75,0.105,2016-01-11T00:00:00,3,GSW,Golden State,36-2,27,29,24,31,0,0,0,0,0,0,0,0,0,0,111,0.477,0.733,0.304,25,49,9,0021500568,1610612744,GSW,Golden State,Festus Ezeli,,,5:28,0.0,0.0,0.0,0.0,0.0,0.0,0.0,4.0,0.0,0.0,0.0,1.0
0021500568,1610612744,GSW,Golden State,203546,Ian Clark,,,9:33,129.5,77.6,51.9,0.222,0.0,40.0,0.0,0.0,0.0,0.0,0.333,0.333,0.16,86.75,0.0,2016-01-11T00:00:00,3,GSW,Golden State,36-2,27,29,24,31,0,0,0,0,0,0,0,0,0,0,111,0.477,0.733,0.304,25,49,9,0021500568,1610612744,GSW,Golden State,Ian Clark,,,9:33,0.0,0.0,0.0,2.0,2.0,0.0,0.0,6.0,0.0,0.0,2.0,0.0
0021500568,1610612744,GSW,Golden State,201578,Marreese Speights,,,5:42,136.4,73.5,62.8,0.0,0.0,0.0,0.333,0.0,0.125,0.0,0.75,0.75,0.333,92.13,0.225,2016-01-11T00:00:00,3,GSW,Golden State,36-2,27,29,24,31,0,0,0,0,0,0,0,0,0,0,111,0.477,0.733,0.304,25,49,9,0021500568,1610612744,GSW,Golden State,Marreese Speights,,,5:42,0.0,2.0,0.0,2.0,2.0,0.0,0.0,4.0,0.0,0.0,1.0,0.0
0021500568,1610612744,GSW,Golden State,2571,Leandro Barbosa,,DNP - Coach's Decision                  ,,,,,,,0.0,,,,,,,0.0,,,2016-01-11T00:00:00,3,GSW,Golden State,36-2,27,29,24,31,0,0,0,0,0,0,0,0,0,0,111,0.477,0.733,0.304,25,49,9,0021500568,1610612744,GSW,Golden State,Leandro Barbosa,,DNP - Coach's Decision                  ,,,,,,,,,,,,,
0021500568,1610612744,GSW,Golden State,201574,Jason Thompson,,DNP - Coach's Decision                  ,,,,,,,0.0,,,,,,,0.0,,,2016-01-11T00:00:00,3,GSW,Golden State,36-2,27,29,24,31,0,0,0,0,0,0,0,0,0,0,111,0.477,0.733,0.304,25,49,9,0021500568,1610612744,GSW,Golden State,Jason Thompson,,DNP - Coach's Decision                  ,,,,,,,,,,,,,
