GAME_ID_x,TEAM_ID_x,TEAM_ABBREVIATION_x,TEAM_CITY_x,PLAYER_ID,PLAYER_NAME_x,START_POSITION_x,COMMENT_x,MIN_x,OFF_RATING,DEF_RATING,NET_RATING,AST_PCT,AST_TOV,AST_RATIO,OREB_PCT,DREB_PCT,REB_PCT,TM_TOV_PCT,EFG_PCT,TS_PCT,USG_PCT,PACE,PIE,GAME_DATE_EST,GAME_SEQUENCE,TEAM_ABBREVIATION_y,TEAM_CITY_NAME,TEAM_WINS_LOSSES,PTS_QTR1,PTS_QTR2,PTS_QTR3,PTS_QTR4,PTS_OT1,PTS_OT2,PTS_OT3,PTS_OT4,PTS_OT5,PTS_OT6,PTS_OT7,PTS_OT8,PTS_OT9,PTS_OT10,PTS,FG_PCT,FT_PCT,FG3_PCT,AST,REB,TOV,GAME_ID_y,TEAM_ID_y,TEAM_ABBREVIATION,TEAM_CITY_y,PLAYER_NAME_y,START_POSITION_y,COMMENT_y,MIN_y,PTS_OFF_TOV,PTS_2ND_CHANCE,PTS_FB,PTS_PAINT,OPP_PTS_OFF_TOV,OPP_PTS_2ND_CHANCE,OPP_PTS_FB,OPP_PTS_PAINT,BLK,BLKA,PF,PFD
0021500569,1610612756,PHX,Phoenix,200782,PJ Tucker,F,,34:35,79.7,115.7,-36.1,0.227,0.0,34.9,0.125,0.172,0.145,0.0,0.125,0.268,0.105,99.35,0.054,2016-01-12T00:00:00,1,PHX,Phoenix,13-27,19,23,34,21,0,0,0,0,0,0,0,0,0,0,97,0.404,0.63,0.32,24,45,18,0021500569,1610612756,PHX,Phoenix,PJ Tucker,F,,34:35,0.0,2.0,0.0,2.0,21.0,8.0,18.0,28.0,0.0,1.0,6.0,4.0
0021500569,1610612756,PHX,Phoenix,202720,Jon Leuer,F,,17:12,80.7,114.8,-34.1,0.0,0.0,0.0,0.059,0.333,0.172,27.6,0.286,0.381,0.244,103.92,0.025,2016-01-12T00:00:00,1,PHX,Phoenix,13-27,19,23,34,21,0,0,0,0,0,0,0,0,0,0,97,0.404,0.63,0.32,24,45,18,0021500569,1610612756,PHX,Phoenix,Jon Leuer,F,,17:12,4.0,0.0,0.0,2.0,12.0,2.0,7.0,10.0,0.0,1.0,1.0,1.0
0021500569,1610612756,PHX,Phoenix,2199,Tyson Chandler,C,,16:55,68.7,118.9,-50.2,0.222,0.0,34.0,0.105,0.308,0.188,0.0,0.0,0.129,0.089,96.98,0.094,2016-01-12T00:00:00,1,PHX,Phoenix,13-27,19,23,34,21,0,0,0,0,0,0,0,0,0,0,97,0.404,0.63,0.32,24,45,18,0021500569,1610612756,PHX,Phoenix,Tyson Chandler,C,,16:55,0.0,0.0,0.0,0.0,16.0,2.0,14.0,12.0,0.0,0.0,1.0,1.0
0021500569,1610612756,PHX,Phoenix,1626164,Devin Booker,G,,29:03,90.0,111.2,-21.3,0.154,0.5,10.4,0.032,0.045,0.038,20.7,0.708,0.713,0.236,102.11,0.1,2016-01-12T00:00:00,1,PHX,Phoenix,13-27,19,23,34,21,0,0,0,0,0,0,0,0,0,0,97,0.404,0.63,0.32,24,45,18,0021500569,1610612756,PHX,Phoenix,Devin Booker,G,,29:03,3.0,0.0,3.0,4.0,16.0,6.0,17.0,20.0,1.0,0.0,5.0,2.0
0021500569,1610612756,PHX,Phoenix,203462,Archie Goodwin,G,,31:28,92.5,126.5,-34.1,0.158,3.0,18.3,0.0,0.1,0.037,6.1,0.5,0.484,0.167,101.38,0.054,2016-01-12T00:00:00,1,PHX,Phoenix,13-27,19,23,34,21,0,0,0,0,0,0,0,0,0,0,97,0.404,0.63,0.32,24,45,18,0021500569,1610612756,PHX,Phoenix,Archie Goodwin,G,,31:28,1.0,2.0,0.0,8.0,20.0,10.0,17.0,30.0,2.0,1.0,2.0,7.0
0021500569,1610612756,PHX,Phoenix,202693,Markieff Morris,,,26:40,94.8,114.7,-19.9,0.077,0.33,4.3,0.08,0.304,0.187,12.9,0.389,0.414,0.373,97.99,0.068,2016-01-12T00:00:00,1,PHX,Phoenix,13-27,19,23,34,21,0,0,0,0,0,0,0,0,0,0,97,0.404,0.63,0.32,24,45,18,0021500569,1610612756,PHX,Phoenix,Markieff Morris,,,26:40,3.0,2.0,3.0,8.0,8.0,8.0,10.0,22.0,0.0,2.0,4.0,4.0
0021500569,1610612756,PHX,Phoenix,203933,TJ Warren,,,32:05,102.4,124.8,-22.5,0.182,0.0,21.2,0.133,0.0,0.077,0.0,0.321,0.336,0.19,101.02,0.038,2016-01-12T00:00:00,1,PHX,Phoenix,13-27,19,23,34,21,0,0,0,0,0,0,0,0,0,0,97,0.404,0.63,0.32,24,45,18,0021500569,1610612756,PHX,Phoenix,TJ Warren,,,32:05,1.0,4.0,1.0,2.0,15.0,6.0,17.0,30.0,0.0,0.0,1.0,1.0
0021500569,1610612756,PHX,Phoenix,203485,Lorenzo Brown,,,20:02,101.1,120.5,-19.4,0.357,1.0,31.5,0.0,0.111,0.056,31.5,0.5,0.595,0.224,99.87,0.069,2016-01-12T00:00:00,1,PHX,Phoenix,13-27,19,23,34,21,0,0,0,0,0,0,0,0,0,0,97,0.404,0.63,0.32,24,45,18,0021500569,1610612756,PHX,Phoenix,Lorenzo Brown,,,20:02,0.0,2.0,0.0,0.0,11.0,2.0,12.0,16.0,0.0,0.0,1.0,1.0
0021500569,1610612756,PHX,Phoenix,203141,Mirza Teletovic,,,29:33,111.9,113.3,-1.4,0.1,1.0,11.8,0.034,0.154,0.091,11.8,0.731,0.731,0.199,103.19,0.117,2016-01-12T00:00:00,1,PHX,Phoenix,13-27,19,23,34,21,0,0,0,0,0,0,0,0,0,0,97,0.404,0.63,0.32,24,45,18,0021500569,1610612756,PHX,Phoenix,Mirza Teletovic,,,29:33,3.0,0.0,2.0,2.0,14.0,6.0,21.0,28.0,0.0,0.0,4.0,0.0
0021500569,1610612756,PHX,Phoenix,201603,Sonny Weems,,,2:27,173.6,200.0,-26.4,0.0,0.0,0.0,0.0,0.0,0.0,0.0,1.0,1.0,0.148,105.4,0.089,2016-01-12T00:00:00,1,PHX,Phoenix,13-27,19,23,34,21,0,0,0,0,0,0,0,0,0,0,97,0.404,0.63,0.32,24,45,18,0021500569,1610612756,PHX,Phoenix,Sonny Weems,,,2:27,0.0,0.0,2.0,0.0,2.0,0.0,2.0,4.0,0.0,0.0,0.0,0.0
0021500569,1610612756,PHX,Phoenix,202688,Brandon Knight,,DND - Food Poisioning                   ,,,,,,,0.0,,,,,,,0.0,,,2016-01-12T00:00:00,1,PHX,Phoenix,13-27,19,23,34,21,0,0,0,0,0,0,0,0,0,0,97,0.404,0.63,0.32,24,45,18,0021500569,1610612756,PHX,Phoenix,Brandon Knight,,DND - Food Poisioning                   ,,,,,,,,,,,,,
0021500569,1610612756,PHX,Phoenix,203458,Alex Len,,DND - Sprained Lf Hand                  ,,,,,,,0.0,,,,,,,0.0,,,2016-01-12T00:00:00,1,PHX,Phoenix,13-27,19,23,34,21,0,0,0,0,0,0,0,0,0,0,97,0.404,0.63,0.32,24,45,18,0021500569,1610612756,PHX,Phoenix,Alex Len,,DND - Sprained Lf Hand                  ,,,,,,,,,,,,,
0021500569,1610612756,PHX,Phoenix,101179,Ronnie Price,,DND - Sprained Rt Great Toe             ,,,,,,,0.0,,,,,,,0.0,,,2016-01-12T00:00:00,1,PHX,Phoenix,13-27,19,23,34,21,0,0,0,0,0,0,0,0,0,0,97,0.404,0.63,0.32,24,45,18,0021500569,1610612756,PHX,Phoenix,Ronnie Price,,DND - Sprained Rt Great Toe             ,,,,,,,,,,,,,
0021500569,1610612754,IND,Indiana,202730,Lavoy Allen,F,,22:22,120.0,76.9,43.1,0.067,1.0,14.3,0.176,0.174,0.175,14.3,0.8,0.8,0.125,100.39,0.172,2016-01-12T00:00:00,1,IND,Indiana,22-16,25,27,28,36,0,0,0,0,0,0,0,0,0,0,116,0.519,0.774,0.417,25,41,13,0021500569,1610612754,IND,Indiana,Lavoy Allen,F,,22:22,2.0,2.0,2.0,6.0,4.0,7.0,3.0,14.0,1.0,0.0,3.0,0.0
0021500569,1610612754,IND,Indiana,202331,Paul George,F,,26:45,106.6,73.2,33.4,0.077,0.33,5.1,0.0,0.194,0.121,15.4,0.542,0.677,0.317,98.26,0.314,2016-01-12T00:00:00,1,IND,Indiana,22-16,25,27,28,36,0,0,0,0,0,0,0,0,0,0,116,0.519,0.774,0.417,25,41,13,0021500569,1610612754,IND,Indiana,Paul George,F,,26:45,10.0,0.0,5.0,8.0,8.0,8.0,3.0,14.0,2.0,0.0,4.0,9.0
0021500569,1610612754,IND,Indiana,101133,Ian Mahinmi,C,,24:44,120.7,79.6,41.1,0.118,2.0,19.8,0.059,0.143,0.111,9.9,0.75,0.706,0.155,100.26,0.128,2016-01-12T00:00:00,1,IND,Indiana,22-16,25,27,28,36,0,0,0,0,0,0,0,0,0,0,116,0.519,0.774,0.417,25,41,13,0021500569,1610612754,IND,Indiana,Ian Mahinmi,C,,24:44,4.0,2.0,0.0,6.0,7.0,8.0,3.0,14.0,0.0,0.0,5.0,3.0
0021500569,1610612754,IND,Indiana,101145,Monta Ellis,G,,34:13,122.0,86.4,35.6,0.304,3.5,29.3,0.0,0.0,0.0,8.4,0.464,0.47,0.223,102.43,0.11,2016-01-12T00:00:00,1,IND,Indiana,22-16,25,27,28,36,0,0,0,0,0,0,0,0,0,0,116,0.519,0.774,0.417,25,41,13,0021500569,1610612754,IND,Indiana,Monta Ellis,G,,34:13,0.0,0.0,3.0,10.0,11.0,10.0,8.0,24.0,0.0,3.0,1.0,2.0
0021500569,1610612754,IND,Indiana,201588,George Hill,G,,37:08,117.5,79.6,38.0,0.227,2.5,25.0,0.0,0.068,0.041,10.0,0.769,0.769,0.185,98.76,0.193,2016-01-12T00:00:00,1,IND,Indiana,22-16,25,27,28,36,0,0,0,0,0,0,0,0,0,0,116,0.519,0.774,0.417,25,41,13,0021500569,1610612754,IND,Indiana,George Hill,G,,37:08,7.0,2.0,10.0,4.0,8.0,8.0,4.0,18.0,0.0,0.0,0.0,2.0
0021500569,1610612754,IND,Indiana,201155,Rodney Stuckey,,,4:26,90.1,112.6,-22.5,0.0,0.0,0.0,0.0,0.333,0.125,0.0,0.0,0.0,0.101,96.11,0.0,2016-01-12T00:00:00,1,IND,Indiana,22-16,25,27,28,36,0,0,0,0,0,0,0,0,0,0,116,0.519,0.774,0.417,25,41,13,0021500569,1610612754,IND,Indiana,Rodney Stuckey,,,4:26,0.0,0.0,0.0,0.0,4.0,0.0,0.0,4.0,0.0,0.0,0.0,0.0
0021500569,1610612754,IND,Indiana,201941,Jordan Hill,,,19:57,105.5,102.5,3.0,0.214,0.0,26.0,0.1,0.167,0.132,0.0,0.2,0.469,0.186,100.67,0.083,2016-01-12T00:00:00,1,IND,Indiana,22-16,25,27,28,36,0,0,0,0,0,0,0,0,0,0,116,0.519,0.774,0.417,25,41,13,0021500569,1610612754,IND,Indiana,Jordan Hill,,,19:57,0.0,0.0,0.0,2.0,8.0,2.0,6.0,12.0,0.0,0.0,3.0,4.0
0021500569,1610612754,IND,Indiana,101139,CJ Miles,,,30:32,126.7,94.4,32.3,0.095,2.0,11.3,0.0,0.276,0.154,5.6,0.615,0.644,0.231,100.39,0.17,2016-01-12T00:00:00,1,IND,Indiana,22-16,25,27,28,36,0,0,0,0,0,0,0,0,0,0,116,0.519,0.774,0.417,25,41,13,0021500569,1610612754,IND,Indiana,CJ Miles,,,30:32,0.0,0.0,3.0,0.0,11.0,5.0,6.0,14.0,1.0,0.0,1.0,4.0
0021500569,1610612754,IND,Indiana,203922,Glenn Robinson III,,,18:37,113.3,125.5,-12.2,0.063,0.5,14.3,0.118,0.133,0.125,28.6,0.25,0.25,0.14,101.43,0.005,2016-01-12T00:00:00,1,IND,Indiana,22-16,25,27,28,36,0,0,0,0,0,0,0,0,0,0,116,0.519,0.774,0.417,25,41,13,0021500569,1610612754,IND,Indiana,Glenn Robinson III,,,18:37,2.0,2.0,0.0,0.0,7.0,2.0,8.0,12.0,1.0,0.0,1.0,0.0
0021500569,1610612754,IND,Indiana,201978,Chase Budinger,,,13:03,105.4,129.2,-23.8,0.125,1.0,14.3,0.0,0.125,0.059,14.3,0.6,0.6,0.21,107.55,0.095,2016-01-12T00:00:00,1,IND,Indiana,22-16,25,27,28,36,0,0,0,0,0,0,0,0,0,0,116,0.519,0.774,0.417,25,41,13,0021500569,1610612754,IND,Indiana,Chase Budinger,,,13:03,2.0,0.0,4.0,4.0,7.0,4.0,8.0,8.0,0.0,0.0,0.0,0.0
0021500569,1610612754,IND,Indiana,203524,Solomon Hill,,,3:19,177.7,150.6,27.1,0.0,0.0,0.0,0.0,0.0,0.0,0.0,0.0,1.136,0.112,105.07,0.044,2016-01-12T00:00:00,1,IND,Indiana,22-16,25,27,28,36,0,0,0,0,0,0,0,0,0,0,116,0.519,0.774,0.417,25,41,13,0021500569,1610612754,IND,Indiana,Solomon Hill,,,3:19,0.0,2.0,0.0,0.0,0.0,2.0,2.0,2.0,0.0,0.0,1.0,1.0
0021500569,1610612754,IND,Indiana,1626167,Myles Turner,,,2:27,200.0,173.6,26.4,0.0,0.0,0.0,0.0,0.0,0.0,0.0,1.0,1.0,0.4,105.4,0.133,2016-01-12T00:00:00,1,IND,Indiana,22-16,25,27,28,36,0,0,0,0,0,0,0,0,0,0,116,0.519,0.774,0.417,25,41,13,0021500569,1610612754,IND,Indiana,Myles Turner,,,2:27,0.0,0.0,0.0,0.0,0.0,2.0,2.0,2.0,0.0,0.0,1.0,0.0
0021500569,1610612754,IND,Indiana,1626202,Joe Young,,,2:27,200.0,173.6,26.4,0.5,0.0,66.7,0.0,0.0,0.0,0.0,1.0,1.0,0.2,105.4,0.178,2016-01-12T00:00:00,1,IND,Indiana,22-16,25,27,28,36,0,0,0,0,0,0,0,0,0,0,116,0.519,0.774,0.417,25,41,13,0021500569,1610612754,IND,Indiana,Joe Young,,,2:27,0.0,0.0,0.0,0.0,0.0,2.0,2.0,2.0,0.0,0.0,1.0,0.0
