GAME_ID_x,TEAM_ID_x,TEAM_ABBREVIATION_x,TEAM_CITY_x,PLAYER_ID,PLAYER_NAME_x,START_POSITION_x,COMMENT_x,MIN_x,OFF_RATING,DEF_RATING,NET_RATING,AST_PCT,AST_TOV,AST_RATIO,OREB_PCT,DREB_PCT,REB_PCT,TM_TOV_PCT,EFG_PCT,TS_PCT,USG_PCT,PACE,PIE,GAME_DATE_EST,GAME_SEQUENCE,TEAM_ABBREVIATION_y,TEAM_CITY_NAME,TEAM_WINS_LOSSES,PTS_QTR1,PTS_QTR2,PTS_QTR3,PTS_QTR4,PTS_OT1,PTS_OT2,PTS_OT3,PTS_OT4,PTS_OT5,PTS_OT6,PTS_OT7,PTS_OT8,PTS_OT9,PTS_OT10,PTS,FG_PCT,FT_PCT,FG3_PCT,AST,REB,TOV,GAME_ID_y,TEAM_ID_y,TEAM_ABBREVIATION,TEAM_CITY_y,PLAYER_NAME_y,START_POSITION_y,COMMENT_y,MIN_y,PTS_OFF_TOV,PTS_2ND_CHANCE,PTS_FB,PTS_PAINT,OPP_PTS_OFF_TOV,OPP_PTS_2ND_CHANCE,OPP_PTS_FB,OPP_PTS_PAINT,BLK,BLKA,PF,PFD
0021500586,1610612748,MIA,Miami,2736,Luol Deng,F,,32:16,76.2,97.2,-21.0,0.143,2.0,20.0,0.115,0.105,0.109,10.0,0.5,0.5,0.109,100.47,0.091,2016-01-13T00:00:00,10,MIA,Miami,22-17,25,27,17,21,0,0,0,0,0,0,0,0,0,0,90,0.443,0.655,0.375,26,49,23,0021500586,1610612748,MIA,Miami,Luol Deng,F,,32:16,2.0,0.0,2.0,4.0,17.0,6.0,0.0,22.0,1.0,0.0,2.0,3.0
0021500586,1610612748,MIA,Miami,1626159,Justise Winslow,F,,18:50,106.6,112.2,-5.6,0.077,1.0,12.5,0.0,0.167,0.091,12.5,0.333,0.333,0.177,96.65,0.032,2016-01-13T00:00:00,10,MIA,Miami,22-17,25,27,17,21,0,0,0,0,0,0,0,0,0,0,90,0.443,0.655,0.375,26,49,23,0021500586,1610612748,MIA,Miami,Justise Winslow,F,,18:50,0.0,0.0,0.0,2.0,5.0,4.0,2.0,18.0,0.0,0.0,0.0,0.0
0021500586,1610612748,MIA,Miami,2547,Chris Bosh,C,,32:52,80.5,121.8,-41.4,0.467,7.0,31.7,0.0,0.353,0.19,4.5,0.273,0.391,0.214,97.27,0.143,2016-01-13T00:00:00,10,MIA,Miami,22-17,25,27,17,21,0,0,0,0,0,0,0,0,0,0,90,0.443,0.655,0.375,26,49,23,0021500586,1610612748,MIA,Miami,Chris Bosh,C,,32:52,0.0,0.0,4.0,4.0,16.0,12.0,3.0,32.0,0.0,2.0,1.0,7.0
0021500586,1610612748,MIA,Miami,2548,Dwyane Wade,G,,30:22,80.9,98.6,-17.7,0.364,0.57,16.0,0.071,0.171,0.127,28.0,0.6,0.573,0.303,99.65,0.101,2016-01-13T00:00:00,10,MIA,Miami,22-17,25,27,17,21,0,0,0,0,0,0,0,0,0,0,90,0.443,0.655,0.375,26,49,23,0021500586,1610612748,MIA,Miami,Dwyane Wade,G,,30:22,1.0,3.0,2.0,10.0,10.0,8.0,1.0,24.0,0.0,0.0,1.0,5.0
0021500586,1610612748,MIA,Miami,2757,Beno Udrih,G,,28:26,80.8,130.7,-50.0,0.2,1.5,25.0,0.0,0.0,0.0,16.7,0.571,0.571,0.15,95.2,0.025,2016-01-13T00:00:00,10,MIA,Miami,22-17,25,27,17,21,0,0,0,0,0,0,0,0,0,0,90,0.443,0.655,0.375,26,49,23,0021500586,1610612748,MIA,Miami,Beno Udrih,G,,28:26,3.0,0.0,0.0,0.0,14.0,10.0,3.0,28.0,0.0,0.0,2.0,0.0
0021500586,1610612748,MIA,Miami,101123,Gerald Green,,,32:42,87.3,99.6,-12.3,0.071,1.0,5.9,0.0,0.05,0.03,5.9,0.643,0.638,0.208,106.24,0.102,2016-01-13T00:00:00,10,MIA,Miami,22-17,25,27,17,21,0,0,0,0,0,0,0,0,0,0,90,0.443,0.655,0.375,26,49,23,0021500586,1610612748,MIA,Miami,Gerald Green,,,32:42,1.0,0.0,3.0,2.0,13.0,10.0,3.0,30.0,0.0,0.0,2.0,1.0
0021500586,1610612748,MIA,Miami,204020,Tyler Johnson,,,29:09,96.6,88.8,7.9,0.222,1.0,24.5,0.0,0.108,0.071,24.5,0.357,0.481,0.186,102.98,0.055,2016-01-13T00:00:00,10,MIA,Miami,22-17,25,27,17,21,0,0,0,0,0,0,0,0,0,0,90,0.443,0.655,0.375,26,49,23,0021500586,1610612748,MIA,Miami,Tyler Johnson,,,29:09,0.0,0.0,0.0,2.0,16.0,12.0,4.0,26.0,1.0,2.0,4.0,3.0
0021500586,1610612748,MIA,Miami,202355,Hassan Whiteside,,,26:47,95.1,99.5,-4.4,0.059,0.2,7.3,0.0,0.355,0.224,36.7,0.6,0.654,0.215,100.35,0.117,2016-01-13T00:00:00,10,MIA,Miami,22-17,25,27,17,21,0,0,0,0,0,0,0,0,0,0,90,0.443,0.655,0.375,26,49,23,0021500586,1610612748,MIA,Miami,Hassan Whiteside,,,26:47,2.0,0.0,1.0,6.0,14.0,8.0,3.0,24.0,3.0,1.0,4.0,5.0
0021500586,1610612748,MIA,Miami,1626196,Josh Richardson,,,3:18,136.6,114.3,22.3,0.667,2.0,51.5,0.0,0.0,0.0,25.8,0.0,1.136,0.257,104.15,0.175,2016-01-13T00:00:00,10,MIA,Miami,22-17,25,27,17,21,0,0,0,0,0,0,0,0,0,0,90,0.443,0.655,0.375,26,49,23,0021500586,1610612748,MIA,Miami,Josh Richardson,,,3:18,0.0,0.0,0.0,0.0,0.0,0.0,2.0,2.0,1.0,0.0,0.0,1.0
0021500586,1610612748,MIA,Miami,2365,Chris Andersen,,,2:39,124.2,83.3,40.9,0.5,0.0,50.0,0.0,0.333,0.25,0.0,1.5,1.5,0.155,112.66,0.367,2016-01-13T00:00:00,10,MIA,Miami,22-17,25,27,17,21,0,0,0,0,0,0,0,0,0,0,90,0.443,0.655,0.375,26,49,23,0021500586,1610612748,MIA,Miami,Chris Andersen,,,2:39,0.0,0.0,0.0,0.0,0.0,0.0,2.0,2.0,1.0,0.0,0.0,0.0
0021500586,1610612748,MIA,Miami,2617,Udonis Haslem,,,2:39,124.2,83.3,40.9,0.0,0.0,0.0,0.0,0.333,0.25,0.0,0.5,0.5,0.311,112.66,0.133,2016-01-13T00:00:00,10,MIA,Miami,22-17,25,27,17,21,0,0,0,0,0,0,0,0,0,0,90,0.443,0.655,0.375,26,49,23,0021500586,1610612748,MIA,Miami,Udonis Haslem,,,2:39,2.0,0.0,0.0,2.0,0.0,0.0,2.0,2.0,0.0,0.0,0.0,0.0
0021500586,1610612748,MIA,Miami,2405,Amar'e Stoudemire,,DNP - Coach's Decision                  ,,,,,,,0.0,,,,,,,0.0,,,2016-01-13T00:00:00,10,MIA,Miami,22-17,25,27,17,21,0,0,0,0,0,0,0,0,0,0,90,0.443,0.655,0.375,26,49,23,0021500586,1610612748,MIA,Miami,Amar'e Stoudemire,,DNP - Coach's Decision                  ,,,,,,,,,,,,,
0021500586,1610612746,LAC,LA,201601,Luc Mbah a Moute,F,,23:31,126.4,89.4,37.0,0.045,0.0,33.3,0.0,0.227,0.109,0.0,0.5,0.5,0.039,93.93,0.057,2016-01-13T00:00:00,10,LAC,LA,26-13,17,28,34,25,0,0,0,0,0,0,0,0,0,0,104,0.426,0.813,0.44,26,43,7,0021500586,1610612746,LAC,LA,Luc Mbah a Moute,F,,23:31,0.0,0.0,0.0,2.0,3.0,0.0,5.0,14.0,2.0,1.0,2.0,0.0
0021500586,1610612746,LAC,LA,1718,Paul Pierce,F,,21:31,126.0,90.5,35.4,0.0,0.0,0.0,0.045,0.4,0.214,0.0,0.75,0.75,0.212,95.0,0.16,2016-01-13T00:00:00,10,LAC,LA,26-13,17,28,34,25,0,0,0,0,0,0,0,0,0,0,104,0.426,0.813,0.44,26,43,7,0021500586,1610612746,LAC,LA,Paul Pierce,F,,21:31,0.0,0.0,0.0,4.0,3.0,0.0,5.0,14.0,0.0,0.0,4.0,0.0
0021500586,1610612746,LAC,LA,202332,Cole Aldrich,C,,24:12,128.7,103.4,25.3,0.2,1.5,13.6,0.174,0.136,0.156,9.1,0.5,0.556,0.375,92.47,0.145,2016-01-13T00:00:00,10,LAC,LA,26-13,17,28,34,25,0,0,0,0,0,0,0,0,0,0,104,0.426,0.813,0.44,26,43,7,0021500586,1610612746,LAC,LA,Cole Aldrich,C,,24:12,0.0,6.0,1.0,14.0,4.0,0.0,3.0,16.0,0.0,2.0,1.0,4.0
0021500586,1610612746,LAC,LA,200755,JJ Redick,G,,25:14,130.4,92.1,38.3,0.095,0.0,16.7,0.0,0.042,0.02,0.0,0.6,0.6,0.178,94.2,0.078,2016-01-13T00:00:00,10,LAC,LA,26-13,17,28,34,25,0,0,0,0,0,0,0,0,0,0,104,0.426,0.813,0.44,26,43,7,0021500586,1610612746,LAC,LA,JJ Redick,G,,25:14,0.0,0.0,0.0,0.0,3.0,0.0,5.0,16.0,0.0,0.0,1.0,1.0
0021500586,1610612746,LAC,LA,101108,Chris Paul,G,,30:28,122.4,94.7,27.7,0.545,12.0,38.9,0.065,0.143,0.102,3.2,0.412,0.419,0.282,94.59,0.177,2016-01-13T00:00:00,10,LAC,LA,26-13,17,28,34,25,0,0,0,0,0,0,0,0,0,0,104,0.426,0.813,0.44,26,43,7,0021500586,1610612746,LAC,LA,Chris Paul,G,,30:28,7.0,4.0,0.0,4.0,4.0,0.0,5.0,18.0,1.0,1.0,1.0,4.0
0021500586,1610612746,LAC,LA,2037,Jamal Crawford,,,26:16,91.3,84.0,7.3,0.063,0.0,5.5,0.0,0.211,0.077,0.0,0.333,0.436,0.269,104.21,0.087,2016-01-13T00:00:00,10,LAC,LA,26-13,17,28,34,25,0,0,0,0,0,0,0,0,0,0,104,0.426,0.813,0.44,26,43,7,0021500586,1610612746,LAC,LA,Jamal Crawford,,,26:16,10.0,2.0,0.0,4.0,6.0,3.0,8.0,18.0,0.0,0.0,2.0,3.0
0021500586,1610612746,LAC,LA,203085,Austin Rivers,,,23:05,80.8,81.8,-1.0,0.25,0.0,30.4,0.0,0.071,0.023,0.0,0.5,0.581,0.125,109.98,0.077,2016-01-13T00:00:00,10,LAC,LA,26-13,17,28,34,25,0,0,0,0,0,0,0,0,0,0,104,0.426,0.813,0.44,26,43,7,0021500586,1610612746,LAC,LA,Austin Rivers,,,23:05,2.0,0.0,2.0,6.0,8.0,3.0,7.0,16.0,0.0,1.0,4.0,2.0
0021500586,1610612746,LAC,LA,2746,Josh Smith,,,19:51,83.7,76.8,7.0,0.1,1.0,7.7,0.0,0.231,0.081,7.7,0.409,0.409,0.26,108.6,0.059,2016-01-13T00:00:00,10,LAC,LA,26-13,17,28,34,25,0,0,0,0,0,0,0,0,0,0,104,0.426,0.813,0.44,26,43,7,0021500586,1610612746,LAC,LA,Josh Smith,,,19:51,2.0,0.0,2.0,6.0,7.0,3.0,7.0,12.0,1.0,0.0,5.0,0.0
0021500586,1610612746,LAC,LA,202325,Wesley Johnson,,,22:12,81.7,81.6,0.1,0.0,0.0,0.0,0.071,0.143,0.095,28.6,0.5,0.5,0.132,107.22,0.025,2016-01-13T00:00:00,10,LAC,LA,26-13,17,28,34,25,0,0,0,0,0,0,0,0,0,0,104,0.426,0.813,0.44,26,43,7,0021500586,1610612746,LAC,LA,Wesley Johnson,,,22:12,0.0,0.0,0.0,0.0,8.0,3.0,8.0,14.0,1.0,0.0,4.0,0.0
0021500586,1610612746,LAC,LA,203143,Pablo Prigioni,,,14:53,78.9,70.4,8.5,0.222,2.0,50.0,0.0,0.222,0.069,25.0,1.0,1.0,0.055,110.1,0.312,2016-01-13T00:00:00,10,LAC,LA,26-13,17,28,34,25,0,0,0,0,0,0,0,0,0,0,104,0.426,0.813,0.44,26,43,7,0021500586,1610612746,LAC,LA,Pablo Prigioni,,,14:53,0.0,0.0,0.0,0.0,5.0,3.0,7.0,10.0,0.0,0.0,1.0,2.0
0021500586,1610612746,LAC,LA,202362,Lance Stephenson,,,6:08,100.0,124.2,-24.2,0.0,0.0,0.0,0.143,0.0,0.091,0.0,1.0,1.0,0.077,97.36,0.086,2016-01-13T00:00:00,10,LAC,LA,26-13,17,28,34,25,0,0,0,0,0,0,0,0,0,0,104,0.426,0.813,0.44,26,43,7,0021500586,1610612746,LAC,LA,Lance Stephenson,,,6:08,0.0,2.0,0.0,2.0,2.0,0.0,0.0,8.0,0.0,0.0,0.0,0.0
0021500586,1610612746,LAC,LA,203912,CJ Wilcox,,,2:39,83.3,124.2,-40.9,0.5,0.0,33.3,0.0,0.0,0.0,0.0,0.0,0.0,0.333,112.66,-0.067,2016-01-13T00:00:00,10,LAC,LA,26-13,17,28,34,25,0,0,0,0,0,0,0,0,0,0,104,0.426,0.813,0.44,26,43,7,0021500586,1610612746,LAC,LA,CJ Wilcox,,,2:39,0.0,0.0,0.0,0.0,2.0,0.0,0.0,4.0,0.0,2.0,0.0,0.0
0021500586,1610612746,LAC,LA,201599,DeAndre Jordan,,NWT - Illness                           ,,,,,,,0.0,,,,,,,0.0,,,2016-01-13T00:00:00,10,LAC,LA,26-13,17,28,34,25,0,0,0,0,0,0,0,0,0,0,104,0.426,0.813,0.44,26,43,7,0021500586,1610612746,LAC,LA,DeAndre Jordan,,NWT - Illness                           ,,,,,,,,,,,,,
