GAME_ID_x,TEAM_ID_x,TEAM_ABBREVIATION_x,TEAM_CITY_x,PLAYER_ID,PLAYER_NAME_x,START_POSITION_x,COMMENT_x,MIN_x,OFF_RATING,DEF_RATING,NET_RATING,AST_PCT,AST_TOV,AST_RATIO,OREB_PCT,DREB_PCT,REB_PCT,TM_TOV_PCT,EFG_PCT,TS_PCT,USG_PCT,PACE,PIE,GAME_DATE_EST,GAME_SEQUENCE,TEAM_ABBREVIATION_y,TEAM_CITY_NAME,TEAM_WINS_LOSSES,PTS_QTR1,PTS_QTR2,PTS_QTR3,PTS_QTR4,PTS_OT1,PTS_OT2,PTS_OT3,PTS_OT4,PTS_OT5,PTS_OT6,PTS_OT7,PTS_OT8,PTS_OT9,PTS_OT10,PTS,FG_PCT,FT_PCT,FG3_PCT,AST,REB,TOV,GAME_ID_y,TEAM_ID_y,TEAM_ABBREVIATION,TEAM_CITY_y,PLAYER_NAME_y,START_POSITION_y,COMMENT_y,MIN_y,PTS_OFF_TOV,PTS_2ND_CHANCE,PTS_FB,PTS_PAINT,OPP_PTS_OFF_TOV,OPP_PTS_2ND_CHANCE,OPP_PTS_FB,OPP_PTS_PAINT,BLK,BLKA,PF,PFD
0021500580,1610612754,IND,Indiana,202730,Lavoy Allen,F,,17:48,89.8,118.8,-29.0,0.0,0.0,0.0,0.214,0.056,0.125,40.0,0.0,0.0,0.111,102.85,-0.038,2016-01-13T00:00:00,4,IND,Indiana,22-17,24,25,27,18,0,0,0,0,0,0,0,0,0,0,94,0.407,0.75,0.167,18,48,17,0021500580,1610612754,IND,Indiana,Lavoy Allen,F,,17:48,0.0,0.0,0.0,0.0,20.0,8.0,8.0,20.0,0.0,0.0,0.0,0.0
0021500580,1610612754,IND,Indiana,202331,Paul George,F,,37:03,87.1,100.3,-13.2,0.182,0.8,12.3,0.0,0.216,0.108,15.4,0.425,0.489,0.297,107.3,0.12,2016-01-13T00:00:00,4,IND,Indiana,22-17,24,25,27,18,0,0,0,0,0,0,0,0,0,0,94,0.407,0.75,0.167,18,48,17,0021500580,1610612754,IND,Indiana,Paul George,F,,37:03,4.0,3.0,3.0,4.0,28.0,12.0,21.0,44.0,0.0,1.0,2.0,6.0
0021500580,1610612754,IND,Indiana,101133,Ian Mahinmi,C,,22:09,83.9,123.4,-39.5,0.167,1.0,20.0,0.2,0.316,0.256,20.0,0.833,0.833,0.138,101.65,0.196,2016-01-13T00:00:00,4,IND,Indiana,22-17,24,25,27,18,0,0,0,0,0,0,0,0,0,0,94,0.407,0.75,0.167,18,48,17,0021500580,1610612754,IND,Indiana,Ian Mahinmi,C,,22:09,4.0,2.0,0.0,10.0,28.0,8.0,16.0,28.0,0.0,0.0,4.0,1.0
0021500580,1610612754,IND,Indiana,101145,Monta Ellis,G,,34:40,87.6,107.0,-19.4,0.238,1.0,19.2,0.0,0.031,0.015,19.2,0.375,0.375,0.234,107.75,0.017,2016-01-13T00:00:00,4,IND,Indiana,22-17,24,25,27,18,0,0,0,0,0,0,0,0,0,0,94,0.407,0.75,0.167,18,48,17,0021500580,1610612754,IND,Indiana,Monta Ellis,G,,34:40,0.0,0.0,2.0,8.0,28.0,12.0,21.0,44.0,0.0,0.0,2.0,0.0
0021500580,1610612754,IND,Indiana,201588,George Hill,G,,39:18,84.9,109.2,-24.4,0.08,0.0,14.1,0.053,0.026,0.039,0.0,0.45,0.533,0.126,101.56,0.06,2016-01-13T00:00:00,4,IND,Indiana,22-17,24,25,27,18,0,0,0,0,0,0,0,0,0,0,94,0.407,0.75,0.167,18,48,17,0021500580,1610612754,IND,Indiana,George Hill,G,,39:18,4.0,3.0,0.0,6.0,36.0,12.0,18.0,42.0,0.0,0.0,3.0,5.0
0021500580,1610612754,IND,Indiana,101139,CJ Miles,,,30:17,85.6,89.8,-4.2,0.105,1.0,11.1,0.0,0.063,0.03,11.1,0.286,0.286,0.211,108.36,-0.023,2016-01-13T00:00:00,4,IND,Indiana,22-17,24,25,27,18,0,0,0,0,0,0,0,0,0,0,94,0.407,0.75,0.167,18,48,17,0021500580,1610612754,IND,Indiana,CJ Miles,,,30:17,4.0,0.0,2.0,6.0,16.0,8.0,15.0,34.0,2.0,0.0,5.0,0.0
0021500580,1610612754,IND,Indiana,201978,Chase Budinger,,,19:35,98.0,79.3,18.7,0.0,0.0,0.0,0.095,0.095,0.095,0.0,0.4,0.4,0.109,108.19,0.093,2016-01-13T00:00:00,4,IND,Indiana,22-17,24,25,27,18,0,0,0,0,0,0,0,0,0,0,94,0.407,0.75,0.167,18,48,17,0021500580,1610612754,IND,Indiana,Chase Budinger,,,19:35,0.0,2.0,0.0,4.0,8.0,8.0,7.0,18.0,0.0,1.0,1.0,0.0
0021500580,1610612754,IND,Indiana,1626167,Myles Turner,,,10:22,88.1,75.6,12.5,0.0,0.0,0.0,0.0,0.455,0.217,0.0,0.6,0.625,0.277,122.05,0.321,2016-01-13T00:00:00,4,IND,Indiana,22-17,24,25,27,18,0,0,0,0,0,0,0,0,0,0,94,0.407,0.75,0.167,18,48,17,0021500580,1610612754,IND,Indiana,Myles Turner,,,10:22,4.0,0.0,2.0,4.0,5.0,4.0,7.0,12.0,0.0,0.0,1.0,4.0
0021500580,1610612754,IND,Indiana,203922,Glenn Robinson III,,,13:20,89.3,78.3,10.9,0.25,0.0,33.3,0.0,0.176,0.097,0.0,0.625,0.625,0.134,98.93,0.25,2016-01-13T00:00:00,4,IND,Indiana,22-17,24,25,27,18,0,0,0,0,0,0,0,0,0,0,94,0.407,0.75,0.167,18,48,17,0021500580,1610612754,IND,Indiana,Glenn Robinson III,,,13:20,2.0,0.0,0.0,2.0,8.0,4.0,2.0,8.0,0.0,0.0,1.0,0.0
0021500580,1610612754,IND,Indiana,201941,Jordan Hill,,,15:28,94.5,84.3,10.2,0.125,1.0,9.2,0.125,0.316,0.229,9.2,0.5,0.563,0.276,97.19,0.301,2016-01-13T00:00:00,4,IND,Indiana,22-17,24,25,27,18,0,0,0,0,0,0,0,0,0,0,94,0.407,0.75,0.167,18,48,17,0021500580,1610612754,IND,Indiana,Jordan Hill,,,15:28,0.0,0.0,0.0,4.0,3.0,4.0,0.0,10.0,1.0,0.0,1.0,2.0
0021500580,1610612754,IND,Indiana,203524,Solomon Hill,,DNP - Coach's Decision                  ,,,,,,,0.0,,,,,,,0.0,,,2016-01-13T00:00:00,4,IND,Indiana,22-17,24,25,27,18,0,0,0,0,0,0,0,0,0,0,94,0.407,0.75,0.167,18,48,17,0021500580,1610612754,IND,Indiana,Solomon Hill,,DNP - Coach's Decision                  ,,,,,,,,,,,,,
0021500580,1610612754,IND,Indiana,201155,Rodney Stuckey,,NWT - Sore Right Foot                   ,,,,,,,0.0,,,,,,,0.0,,,2016-01-13T00:00:00,4,IND,Indiana,22-17,24,25,27,18,0,0,0,0,0,0,0,0,0,0,94,0.407,0.75,0.167,18,48,17,0021500580,1610612754,IND,Indiana,Rodney Stuckey,,NWT - Sore Right Foot                   ,,,,,,,,,,,,,
0021500580,1610612754,IND,Indiana,1626202,Joe Young,,DNP - Coach's Decision                  ,,,,,,,0.0,,,,,,,0.0,,,2016-01-13T00:00:00,4,IND,Indiana,22-17,24,25,27,18,0,0,0,0,0,0,0,0,0,0,94,0.407,0.75,0.167,18,48,17,0021500580,1610612754,IND,Indiana,Joe Young,,DNP - Coach's Decision                  ,,,,,,,,,,,,,
0021500580,1610612738,BOS,Boston,203109,Jae Crowder,F,,36:02,105.4,85.3,20.0,0.0,0.0,0.0,0.0,0.057,0.029,16.7,0.833,0.833,0.198,107.74,0.15,2016-01-13T00:00:00,4,BOS,Boston,20-19,28,29,21,25,0,0,0,0,0,0,0,0,0,0,103,0.444,0.7,0.346,24,49,19,0021500580,1610612738,BOS,Boston,Jae Crowder,F,,36:02,12.0,3.0,6.0,12.0,16.0,8.0,7.0,38.0,0.0,0.0,4.0,0.0
0021500580,1610612738,BOS,Boston,101161,Amir Johnson,F,,28:47,118.0,84.3,33.7,0.25,6.0,30.4,0.32,0.4,0.36,5.1,0.545,0.549,0.192,108.66,0.24,2016-01-13T00:00:00,4,BOS,Boston,20-19,28,29,21,25,0,0,0,0,0,0,0,0,0,0,103,0.444,0.7,0.346,24,49,19,0021500580,1610612738,BOS,Boston,Amir Johnson,F,,28:47,6.0,8.0,2.0,12.0,14.0,6.0,5.0,26.0,0.0,0.0,3.0,3.0
0021500580,1610612738,BOS,Boston,203096,Jared Sullinger,C,,19:56,120.9,86.8,34.1,0.111,2.0,25.0,0.0,0.158,0.077,12.5,0.4,0.4,0.128,98.15,0.055,2016-01-13T00:00:00,4,BOS,Boston,20-19,28,29,21,25,0,0,0,0,0,0,0,0,0,0,103,0.444,0.7,0.346,24,49,19,0021500580,1610612738,BOS,Boston,Jared Sullinger,C,,19:56,0.0,0.0,0.0,2.0,10.0,6.0,1.0,18.0,0.0,0.0,1.0,1.0
0021500580,1610612738,BOS,Boston,202340,Avery Bradley,G,,41:16,108.3,82.7,25.6,0.194,2.0,22.3,0.075,0.0,0.037,11.2,0.294,0.308,0.211,103.24,0.026,2016-01-13T00:00:00,4,BOS,Boston,20-19,28,29,21,25,0,0,0,0,0,0,0,0,0,0,103,0.444,0.7,0.346,24,49,19,0021500580,1610612738,BOS,Boston,Avery Bradley,G,,41:16,2.0,2.0,4.0,6.0,16.0,8.0,3.0,36.0,0.0,0.0,1.0,1.0
0021500580,1610612738,BOS,Boston,202738,Isaiah Thomas,G,,34:40,107.0,87.6,19.4,0.125,0.75,10.7,0.0,0.118,0.061,14.2,0.611,0.664,0.293,107.75,0.159,2016-01-13T00:00:00,4,BOS,Boston,20-19,28,29,21,25,0,0,0,0,0,0,0,0,0,0,103,0.444,0.7,0.346,24,49,19,0021500580,1610612738,BOS,Boston,Isaiah Thomas,G,,34:40,6.0,0.0,7.0,10.0,16.0,10.0,7.0,38.0,1.0,1.0,3.0,6.0
0021500580,1610612738,BOS,Boston,203935,Marcus Smart,,,30:53,91.5,85.3,6.2,0.048,0.33,7.4,0.033,0.171,0.108,22.3,0.222,0.265,0.164,108.08,0.023,2016-01-13T00:00:00,4,BOS,Boston,20-19,28,29,21,25,0,0,0,0,0,0,0,0,0,0,103,0.444,0.7,0.346,24,49,19,0021500580,1610612738,BOS,Boston,Marcus Smart,,,30:53,2.0,0.0,2.0,4.0,14.0,6.0,8.0,32.0,1.0,1.0,2.0,6.0
0021500580,1610612738,BOS,Boston,202323,Evan Turner,,,20:04,68.8,100.1,-31.3,0.364,0.0,44.4,0.0,0.19,0.085,0.0,0.0,0.0,0.098,105.3,0.036,2016-01-13T00:00:00,4,BOS,Boston,20-19,28,29,21,25,0,0,0,0,0,0,0,0,0,0,103,0.444,0.7,0.346,24,49,19,0021500580,1610612738,BOS,Boston,Evan Turner,,,20:04,0.0,0.0,0.0,0.0,12.0,2.0,8.0,22.0,0.0,0.0,1.0,0.0
0021500580,1610612738,BOS,Boston,203482,Kelly Olynyk,,,15:16,55.8,96.3,-40.5,0.0,0.0,0.0,0.095,0.118,0.105,30.4,0.833,0.799,0.259,104.2,0.212,2016-01-13T00:00:00,4,BOS,Boston,20-19,28,29,21,25,0,0,0,0,0,0,0,0,0,0,103,0.444,0.7,0.346,24,49,19,0021500580,1610612738,BOS,Boston,Kelly Olynyk,,,15:16,6.0,2.0,0.0,4.0,6.0,2.0,4.0,18.0,0.0,1.0,1.0,1.0
0021500580,1610612738,BOS,Boston,201973,Jonas Jerebko,,,13:06,80.5,104.6,-24.1,0.333,2.0,22.8,0.0,0.308,0.138,11.4,0.25,0.434,0.225,96.81,0.101,2016-01-13T00:00:00,4,BOS,Boston,20-19,28,29,21,25,0,0,0,0,0,0,0,0,0,0,103,0.444,0.7,0.346,24,49,19,0021500580,1610612738,BOS,Boston,Jonas Jerebko,,,13:06,2.0,1.0,2.0,2.0,6.0,2.0,2.0,12.0,0.0,0.0,2.0,2.0
0021500580,1610612738,BOS,Boston,1626154,RJ Hunter,,DNP - Coach's Decision                  ,,,,,,,0.0,,,,,,,0.0,,,2016-01-13T00:00:00,4,BOS,Boston,20-19,28,29,21,25,0,0,0,0,0,0,0,0,0,0,103,0.444,0.7,0.346,24,49,19,0021500580,1610612738,BOS,Boston,RJ Hunter,,DNP - Coach's Decision                  ,,,,,,,,,,,,,
0021500580,1610612738,BOS,Boston,101135,David Lee,,DNP - Coach's Decision                  ,,,,,,,0.0,,,,,,,0.0,,,2016-01-13T00:00:00,4,BOS,Boston,20-19,28,29,21,25,0,0,0,0,0,0,0,0,0,0,103,0.444,0.7,0.346,24,49,19,0021500580,1610612738,BOS,Boston,David Lee,,DNP - Coach's Decision                  ,,,,,,,,,,,,,
0021500580,1610612738,BOS,Boston,203923,James Young,,DNP - Coach's Decision                  ,,,,,,,0.0,,,,,,,0.0,,,2016-01-13T00:00:00,4,BOS,Boston,20-19,28,29,21,25,0,0,0,0,0,0,0,0,0,0,103,0.444,0.7,0.346,24,49,19,0021500580,1610612738,BOS,Boston,James Young,,DNP - Coach's Decision                  ,,,,,,,,,,,,,
0021500580,1610612738,BOS,Boston,203092,Tyler Zeller,,DNP - Coach's Decision                  ,,,,,,,0.0,,,,,,,0.0,,,2016-01-13T00:00:00,4,BOS,Boston,20-19,28,29,21,25,0,0,0,0,0,0,0,0,0,0,103,0.444,0.7,0.346,24,49,19,0021500580,1610612738,BOS,Boston,Tyler Zeller,,DNP - Coach's Decision                  ,,,,,,,,,,,,,
