GAME_ID_x,TEAM_ID_x,TEAM_ABBREVIATION_x,TEAM_CITY_x,PLAYER_ID,PLAYER_NAME_x,START_POSITION_x,COMMENT_x,MIN_x,OFF_RATING,DEF_RATING,NET_RATING,AST_PCT,AST_TOV,AST_RATIO,OREB_PCT,DREB_PCT,REB_PCT,TM_TOV_PCT,EFG_PCT,TS_PCT,USG_PCT,PACE,PIE,GAME_DATE_EST,GAME_SEQUENCE,TEAM_ABBREVIATION_y,TEAM_CITY_NAME,TEAM_WINS_LOSSES,PTS_QTR1,PTS_QTR2,PTS_QTR3,PTS_QTR4,PTS_OT1,PTS_OT2,PTS_OT3,PTS_OT4,PTS_OT5,PTS_OT6,PTS_OT7,PTS_OT8,PTS_OT9,PTS_OT10,PTS,FG_PCT,FT_PCT,FG3_PCT,AST,REB,TOV,GAME_ID_y,TEAM_ID_y,TEAM_ABBREVIATION,TEAM_CITY_y,PLAYER_NAME_y,START_POSITION_y,COMMENT_y,MIN_y,PTS_OFF_TOV,PTS_2ND_CHANCE,PTS_FB,PTS_PAINT,OPP_PTS_OFF_TOV,OPP_PTS_2ND_CHANCE,OPP_PTS_FB,OPP_PTS_PAINT,BLK,BLKA,PF,PFD
0021500593,1610612764,WAS,Washington,1626162,Kelly Oubre Jr.,F,,17:59,105.0,112.3,-7.3,0.0,0.0,0.0,0.091,0.182,0.121,0.0,0.417,0.451,0.168,100.71,0.046,2016-01-15T00:00:00,1,WAS,Washington,19-19,24,35,29,30,0,0,0,0,0,0,0,0,0,0,118,0.52,0.5,0.44,26,54,15,0021500593,1610612764,WAS,Washington,Kelly Oubre Jr.,F,,17:59,3.0,0.0,2.0,2.0,4.0,2.0,13.0,24.0,0.0,1.0,3.0,3.0
0021500593,1610612764,WAS,Washington,201162,Jared Dudley,F,,30:04,116.5,96.3,20.2,0.033,0.0,25.0,0.036,0.222,0.127,0.0,0.5,0.5,0.04,101.98,0.057,2016-01-15T00:00:00,1,WAS,Washington,19-19,24,35,29,30,0,0,0,0,0,0,0,0,0,0,118,0.52,0.5,0.44,26,54,15,0021500593,1610612764,WAS,Washington,Jared Dudley,F,,30:04,0.0,0.0,0.0,0.0,14.0,4.0,3.0,32.0,0.0,0.0,2.0,0.0
0021500593,1610612764,WAS,Washington,2403,Nene,C,,21:02,109.6,77.3,32.3,0.143,0.5,13.3,0.25,0.105,0.186,26.7,0.444,0.444,0.245,95.12,0.045,2016-01-15T00:00:00,1,WAS,Washington,19-19,24,35,29,30,0,0,0,0,0,0,0,0,0,0,118,0.52,0.5,0.44,26,54,15,0021500593,1610612764,WAS,Washington,Nene,C,,21:02,2.0,6.0,2.0,8.0,7.0,2.0,3.0,16.0,1.0,0.0,5.0,1.0
0021500593,1610612764,WAS,Washington,202066,Garrett Temple,G,,28:14,117.5,93.3,24.3,0.185,5.0,35.7,0.033,0.179,0.103,7.1,0.313,0.313,0.126,102.38,0.047,2016-01-15T00:00:00,1,WAS,Washington,19-19,24,35,29,30,0,0,0,0,0,0,0,0,0,0,118,0.52,0.5,0.44,26,54,15,0021500593,1610612764,WAS,Washington,Garrett Temple,G,,28:14,0.0,0.0,0.0,2.0,8.0,6.0,3.0,30.0,1.0,2.0,4.0,2.0
0021500593,1610612764,WAS,Washington,202322,John Wall,G,,31:23,111.1,105.2,5.9,0.4,2.67,23.4,0.063,0.208,0.125,8.8,0.595,0.603,0.33,102.44,0.241,2016-01-15T00:00:00,1,WAS,Washington,19-19,24,35,29,30,0,0,0,0,0,0,0,0,0,0,118,0.52,0.5,0.44,26,54,15,0021500593,1610612764,WAS,Washington,John Wall,G,,31:23,2.0,4.0,5.0,14.0,9.0,6.0,8.0,38.0,0.0,0.0,1.0,4.0
0021500593,1610612764,WAS,Washington,2400,Drew Gooden,,,17:14,114.3,114.8,-0.5,0.0,0.0,0.0,0.0,0.25,0.121,18.2,0.444,0.444,0.268,98.49,0.026,2016-01-15T00:00:00,1,WAS,Washington,19-19,24,35,29,30,0,0,0,0,0,0,0,0,0,0,118,0.52,0.5,0.44,26,54,15,0021500593,1610612764,WAS,Washington,Drew Gooden,,,17:14,0.0,2.0,0.0,0.0,6.0,6.0,5.0,26.0,0.0,0.0,3.0,0.0
0021500593,1610612764,WAS,Washington,203078,Bradley Beal,,,21:58,129.2,103.5,25.7,0.056,0.5,5.4,0.118,0.136,0.128,10.8,0.733,0.712,0.326,102.5,0.156,2016-01-15T00:00:00,1,WAS,Washington,19-19,24,35,29,30,0,0,0,0,0,0,0,0,0,0,118,0.52,0.5,0.44,26,54,15,0021500593,1610612764,WAS,Washington,Bradley Beal,,,21:58,0.0,0.0,0.0,4.0,5.0,6.0,3.0,30.0,0.0,0.0,3.0,1.0
0021500593,1610612764,WAS,Washington,202390,Gary Neal,,,23:35,114.9,105.8,9.1,0.15,3.0,21.4,0.0,0.174,0.089,7.1,0.6,0.6,0.2,100.69,0.107,2016-01-15T00:00:00,1,WAS,Washington,19-19,24,35,29,30,0,0,0,0,0,0,0,0,0,0,118,0.52,0.5,0.44,26,54,15,0021500593,1610612764,WAS,Washington,Gary Neal,,,23:35,0.0,0.0,2.0,0.0,11.0,6.0,12.0,34.0,0.0,0.0,2.0,1.0
0021500593,1610612764,WAS,Washington,201971,DeJuan Blair,,,22:49,130.1,114.5,15.6,0.043,1.0,10.0,0.167,0.143,0.154,10.0,0.75,0.75,0.165,102.41,0.111,2016-01-15T00:00:00,1,WAS,Washington,19-19,24,35,29,30,0,0,0,0,0,0,0,0,0,0,118,0.52,0.5,0.44,26,54,15,0021500593,1610612764,WAS,Washington,DeJuan Blair,,,22:49,0.0,2.0,0.0,8.0,5.0,6.0,9.0,34.0,0.0,0.0,4.0,0.0
0021500593,1610612764,WAS,Washington,201196,Ramon Sessions,,,23:02,126.7,99.4,27.3,0.238,5.0,38.5,0.0,0.125,0.071,7.7,0.714,0.714,0.154,96.14,0.147,2016-01-15T00:00:00,1,WAS,Washington,19-19,24,35,29,30,0,0,0,0,0,0,0,0,0,0,118,0.52,0.5,0.44,26,54,15,0021500593,1610612764,WAS,Washington,Ramon Sessions,,,23:02,2.0,0.0,6.0,8.0,9.0,6.0,9.0,28.0,0.0,0.0,2.0,0.0
0021500593,1610612764,WAS,Washington,204067,Jarell Eddie,,,2:40,116.7,177.6,-60.9,0.0,0.0,0.0,0.0,0.0,0.0,0.0,0.75,0.75,0.333,119.88,0.095,2016-01-15T00:00:00,1,WAS,Washington,19-19,24,35,29,30,0,0,0,0,0,0,0,0,0,0,118,0.52,0.5,0.44,26,54,15,0021500593,1610612764,WAS,Washington,Jarell Eddie,,,2:40,0.0,0.0,0.0,0.0,2.0,0.0,7.0,8.0,0.0,0.0,0.0,0.0
0021500593,1610612764,WAS,Washington,203490,Otto Porter Jr.,,DND - Sore Right Hip                    ,,,,,,,0.0,,,,,,,0.0,,,2016-01-15T00:00:00,1,WAS,Washington,19-19,24,35,29,30,0,0,0,0,0,0,0,0,0,0,118,0.52,0.5,0.44,26,54,15,0021500593,1610612764,WAS,Washington,Otto Porter Jr.,,DND - Sore Right Hip                    ,,,,,,,,,,,,,
0021500593,1610612754,IND,Indiana,101139,CJ Miles,F,,26:35,108.9,130.5,-21.6,0.045,0.0,20.5,0.045,0.043,0.044,0.0,0.333,0.515,0.067,98.0,0.026,2016-01-15T00:00:00,1,IND,Indiana,22-18,27,19,26,32,0,0,0,0,0,0,0,0,0,0,104,0.475,0.781,0.176,19,35,13,0021500593,1610612754,IND,Indiana,CJ Miles,F,,26:35,0.0,0.0,0.0,0.0,5.0,8.0,9.0,30.0,1.0,0.0,3.0,2.0
0021500593,1610612754,IND,Indiana,202331,Paul George,F,,33:49,103.0,113.4,-10.4,0.368,1.4,20.3,0.034,0.111,0.077,14.5,0.342,0.466,0.372,100.27,0.124,2016-01-15T00:00:00,1,IND,Indiana,22-18,27,19,26,32,0,0,0,0,0,0,0,0,0,0,104,0.475,0.781,0.176,19,35,13,0021500593,1610612754,IND,Indiana,Paul George,F,,33:49,2.0,2.0,0.0,10.0,5.0,12.0,9.0,34.0,1.0,0.0,3.0,6.0
0021500593,1610612754,IND,Indiana,101133,Ian Mahinmi,C,,20:30,104.0,115.2,-11.3,0.0,0.0,0.0,0.0,0.2,0.114,33.8,0.6,0.595,0.209,97.08,0.056,2016-01-15T00:00:00,1,IND,Indiana,22-18,27,19,26,32,0,0,0,0,0,0,0,0,0,0,104,0.475,0.781,0.176,19,35,13,0021500593,1610612754,IND,Indiana,Ian Mahinmi,C,,20:30,2.0,0.0,0.0,6.0,5.0,6.0,7.0,20.0,0.0,1.0,2.0,2.0
0021500593,1610612754,IND,Indiana,101145,Monta Ellis,G,,37:16,106.8,113.5,-6.7,0.136,0.0,15.6,0.0,0.079,0.043,0.0,0.5,0.525,0.198,99.92,0.103,2016-01-15T00:00:00,1,IND,Indiana,22-18,27,19,26,32,0,0,0,0,0,0,0,0,0,0,104,0.475,0.781,0.176,19,35,13,0021500593,1610612754,IND,Indiana,Monta Ellis,G,,37:16,0.0,0.0,5.0,12.0,7.0,12.0,11.0,38.0,1.0,0.0,1.0,4.0
0021500593,1610612754,IND,Indiana,201588,George Hill,G,,33:39,91.8,129.5,-37.6,0.063,0.5,5.6,0.091,0.172,0.129,11.2,0.643,0.638,0.233,98.5,0.124,2016-01-15T00:00:00,1,IND,Indiana,22-18,27,19,26,32,0,0,0,0,0,0,0,0,0,0,104,0.475,0.781,0.176,19,35,13,0021500593,1610612754,IND,Indiana,George Hill,G,,33:39,5.0,4.0,2.0,10.0,5.0,12.0,15.0,40.0,0.0,0.0,2.0,4.0
0021500593,1610612754,IND,Indiana,201978,Chase Budinger,,,19:47,107.2,112.2,-5.0,0.167,1.5,29.1,0.0,0.2,0.105,19.4,0.25,0.376,0.156,104.02,0.063,2016-01-15T00:00:00,1,IND,Indiana,22-18,27,19,26,32,0,0,0,0,0,0,0,0,0,0,104,0.475,0.781,0.176,19,35,13,0021500593,1610612754,IND,Indiana,Chase Budinger,,,19:47,0.0,0.0,4.0,2.0,6.0,4.0,10.0,16.0,0.0,0.0,0.0,3.0
0021500593,1610612754,IND,Indiana,202730,Lavoy Allen,,,20:26,89.9,97.7,-7.7,0.143,0.0,9.3,0.0,0.136,0.067,0.0,0.75,0.768,0.206,102.76,0.237,2016-01-15T00:00:00,1,IND,Indiana,22-18,27,19,26,32,0,0,0,0,0,0,0,0,0,0,104,0.475,0.781,0.176,19,35,13,0021500593,1610612754,IND,Indiana,Lavoy Allen,,,20:26,3.0,2.0,0.0,10.0,2.0,6.0,8.0,14.0,0.0,0.0,0.0,4.0
0021500593,1610612754,IND,Indiana,1626167,Myles Turner,,,18:15,107.7,100.0,7.7,0.1,1.0,9.2,0.063,0.1,0.083,9.2,0.5,0.563,0.236,102.47,0.108,2016-01-15T00:00:00,1,IND,Indiana,22-18,27,19,26,32,0,0,0,0,0,0,0,0,0,0,104,0.475,0.781,0.176,19,35,13,0021500593,1610612754,IND,Indiana,Myles Turner,,,18:15,2.0,2.0,2.0,6.0,4.0,4.0,4.0,10.0,0.0,0.0,1.0,1.0
0021500593,1610612754,IND,Indiana,203922,Glenn Robinson III,,,10:44,90.5,131.8,-41.4,0.0,0.0,0.0,0.0,0.0,0.0,0.0,0.0,0.0,0.039,103.57,0.0,2016-01-15T00:00:00,1,IND,Indiana,22-18,27,19,26,32,0,0,0,0,0,0,0,0,0,0,104,0.475,0.781,0.176,19,35,13,0021500593,1610612754,IND,Indiana,Glenn Robinson III,,,10:44,0.0,0.0,0.0,0.0,2.0,2.0,6.0,8.0,0.0,0.0,0.0,1.0
0021500593,1610612754,IND,Indiana,201941,Jordan Hill,,,8:12,101.3,162.2,-60.9,0.25,0.0,41.0,0.0,0.4,0.125,0.0,0.0,0.174,0.139,107.22,0.038,2016-01-15T00:00:00,1,IND,Indiana,22-18,27,19,26,32,0,0,0,0,0,0,0,0,0,0,104,0.475,0.781,0.176,19,35,13,0021500593,1610612754,IND,Indiana,Jordan Hill,,,8:12,0.0,0.0,0.0,0.0,0.0,2.0,6.0,14.0,0.0,1.0,0.0,1.0
0021500593,1610612754,IND,Indiana,203524,Solomon Hill,,,7:34,106.1,100.0,6.1,0.0,0.0,0.0,0.0,0.143,0.083,0.0,0.0,0.0,0.0,104.54,0.036,2016-01-15T00:00:00,1,IND,Indiana,22-18,27,19,26,32,0,0,0,0,0,0,0,0,0,0,104,0.475,0.781,0.176,19,35,13,0021500593,1610612754,IND,Indiana,Solomon Hill,,,7:34,0.0,0.0,0.0,0.0,2.0,2.0,0.0,4.0,0.0,0.0,0.0,0.0
0021500593,1610612754,IND,Indiana,1626202,Joe Young,,,3:13,177.6,128.6,49.0,0.0,0.0,0.0,0.0,0.0,0.0,0.0,1.0,1.042,0.393,106.84,0.261,2016-01-15T00:00:00,1,IND,Indiana,22-18,27,19,26,32,0,0,0,0,0,0,0,0,0,0,104,0.475,0.781,0.176,19,35,13,0021500593,1610612754,IND,Indiana,Joe Young,,,3:13,2.0,0.0,2.0,4.0,2.0,0.0,0.0,2.0,0.0,0.0,0.0,1.0
0021500593,1610612754,IND,Indiana,201155,Rodney Stuckey,,DND - Right Foot Sprain                 ,,,,,,,0.0,,,,,,,0.0,,,2016-01-15T00:00:00,1,IND,Indiana,22-18,27,19,26,32,0,0,0,0,0,0,0,0,0,0,104,0.475,0.781,0.176,19,35,13,0021500593,1610612754,IND,Indiana,Rodney Stuckey,,DND - Right Foot Sprain                 ,,,,,,,,,,,,,
