GAME_ID_x,TEAM_ID_x,TEAM_ABBREVIATION_x,TEAM_CITY_x,PLAYER_ID,PLAYER_NAME_x,START_POSITION_x,COMMENT_x,MIN_x,OFF_RATING,DEF_RATING,NET_RATING,AST_PCT,AST_TOV,AST_RATIO,OREB_PCT,DREB_PCT,REB_PCT,TM_TOV_PCT,EFG_PCT,TS_PCT,USG_PCT,PACE,PIE,GAME_DATE_EST,GAME_SEQUENCE,TEAM_ABBREVIATION_y,TEAM_CITY_NAME,TEAM_WINS_LOSSES,PTS_QTR1,PTS_QTR2,PTS_QTR3,PTS_QTR4,PTS_OT1,PTS_OT2,PTS_OT3,PTS_OT4,PTS_OT5,PTS_OT6,PTS_OT7,PTS_OT8,PTS_OT9,PTS_OT10,PTS,FG_PCT,FT_PCT,FG3_PCT,AST,REB,TOV,GAME_ID_y,TEAM_ID_y,TEAM_ABBREVIATION,TEAM_CITY_y,PLAYER_NAME_y,START_POSITION_y,COMMENT_y,MIN_y,PTS_OFF_TOV,PTS_2ND_CHANCE,PTS_FB,PTS_PAINT,OPP_PTS_OFF_TOV,OPP_PTS_2ND_CHANCE,OPP_PTS_FB,OPP_PTS_PAINT,BLK,BLKA,PF,PFD
0021500594,1610612750,MIN,Minnesota,2419,Tayshaun Prince,F,,14:20,74.7,116.6,-41.9,0.0,0.0,0.0,0.0,0.222,0.074,0.0,1.0,1.0,0.066,84.26,0.112,2016-01-15T00:00:00,2,MIN,Minnesota,12-29,17,26,22,28,0,0,0,0,0,0,0,0,0,0,93,0.4,0.87,0.417,15,45,12,0021500594,1610612750,MIN,Minnesota,Tayshaun Prince,F,,14:20,0.0,0.0,0.0,0.0,2.0,5.0,0.0,20.0,0.0,0.0,1.0,1.0
0021500594,1610612750,MIN,Minnesota,708,Kevin Garnett,F,,9:34,63.1,100.0,-36.9,0.25,0.0,16.7,0.0,0.143,0.048,0.0,0.2,0.2,0.233,83.89,0.0,2016-01-15T00:00:00,2,MIN,Minnesota,12-29,17,26,22,28,0,0,0,0,0,0,0,0,0,0,93,0.4,0.87,0.417,15,45,12,0021500594,1610612750,MIN,Minnesota,Kevin Garnett,F,,9:34,0.0,0.0,0.0,0.0,0.0,2.0,0.0,14.0,0.0,0.0,0.0,1.0
0021500594,1610612750,MIN,Minnesota,1626157,Karl-Anthony Towns,C,,29:37,82.3,118.9,-36.5,0.063,0.5,6.1,0.229,0.154,0.197,12.2,0.308,0.335,0.22,93.29,0.022,2016-01-15T00:00:00,2,MIN,Minnesota,12-29,17,26,22,28,0,0,0,0,0,0,0,0,0,0,93,0.4,0.87,0.417,15,45,12,0021500594,1610612750,MIN,Minnesota,Karl-Anthony Towns,C,,29:37,0.0,7.0,0.0,6.0,8.0,8.0,9.0,42.0,0.0,2.0,5.0,2.0
0021500594,1610612750,MIN,Minnesota,203952,Andrew Wiggins,G,,39:35,97.5,125.0,-27.5,0.167,1.0,9.9,0.054,0.03,0.043,9.9,0.455,0.517,0.302,93.2,0.087,2016-01-15T00:00:00,2,MIN,Minnesota,12-29,17,26,22,28,0,0,0,0,0,0,0,0,0,0,93,0.4,0.87,0.417,15,45,12,0021500594,1610612750,MIN,Minnesota,Andrew Wiggins,G,,39:35,4.0,6.0,5.0,14.0,10.0,11.0,15.0,56.0,0.0,1.0,3.0,6.0
0021500594,1610612750,MIN,Minnesota,201937,Ricky Rubio,G,,23:40,82.3,125.5,-43.2,0.143,0.0,25.0,0.0,0.222,0.091,0.0,0.5,0.5,0.111,91.31,0.081,2016-01-15T00:00:00,2,MIN,Minnesota,12-29,17,26,22,28,0,0,0,0,0,0,0,0,0,0,93,0.4,0.87,0.417,15,45,12,0021500594,1610612750,MIN,Minnesota,Ricky Rubio,G,,23:40,0.0,0.0,0.0,0.0,6.0,5.0,10.0,30.0,0.0,0.0,2.0,0.0
0021500594,1610612750,MIN,Minnesota,203476,Gorgui Dieng,,,15:33,118.0,151.3,-33.3,0.2,2.0,33.3,0.167,0.273,0.217,16.7,0.333,0.333,0.125,86.0,0.065,2016-01-15T00:00:00,2,MIN,Minnesota,12-29,17,26,22,28,0,0,0,0,0,0,0,0,0,0,93,0.4,0.87,0.417,15,45,12,0021500594,1610612750,MIN,Minnesota,Gorgui Dieng,,,15:33,0.0,0.0,0.0,2.0,4.0,9.0,10.0,30.0,0.0,0.0,0.0,0.0
0021500594,1610612750,MIN,Minnesota,201593,Nikola Pekovic,,,17:33,113.1,119.6,-6.5,0.111,0.0,15.1,0.111,0.125,0.12,0.0,0.667,0.887,0.158,95.12,0.148,2016-01-15T00:00:00,2,MIN,Minnesota,12-29,17,26,22,28,0,0,0,0,0,0,0,0,0,0,93,0.4,0.87,0.417,15,45,12,0021500594,1610612750,MIN,Minnesota,Nikola Pekovic,,,17:33,0.0,2.0,0.0,4.0,5.0,9.0,10.0,28.0,0.0,0.0,2.0,3.0
0021500594,1610612750,MIN,Minnesota,203498,Shabazz Muhammad,,,33:40,111.0,123.9,-12.9,0.0,0.0,0.0,0.038,0.094,0.069,17.9,0.458,0.545,0.216,95.87,0.049,2016-01-15T00:00:00,2,MIN,Minnesota,12-29,17,26,22,28,0,0,0,0,0,0,0,0,0,0,93,0.4,0.87,0.417,15,45,12,0021500594,1610612750,MIN,Minnesota,Shabazz Muhammad,,,33:40,3.0,3.0,3.0,8.0,10.0,12.0,19.0,52.0,0.0,2.0,2.0,3.0
0021500594,1610612750,MIN,Minnesota,203897,Zach LaVine,,,24:20,119.8,118.8,1.0,0.0,0.0,0.0,0.056,0.217,0.146,16.2,0.611,0.63,0.228,93.46,0.104,2016-01-15T00:00:00,2,MIN,Minnesota,12-29,17,26,22,28,0,0,0,0,0,0,0,0,0,0,93,0.4,0.87,0.417,15,45,12,0021500594,1610612750,MIN,Minnesota,Zach LaVine,,,24:20,0.0,5.0,0.0,6.0,6.0,12.0,9.0,42.0,0.0,1.0,2.0,2.0
0021500594,1610612750,MIN,Minnesota,1889,Andre Miller,,,6:14,92.9,107.7,-14.8,0.333,0.0,50.0,0.0,0.0,0.0,0.0,0.0,0.0,0.078,91.48,0.0,2016-01-15T00:00:00,2,MIN,Minnesota,12-29,17,26,22,28,0,0,0,0,0,0,0,0,0,0,93,0.4,0.87,0.417,15,45,12,0021500594,1610612750,MIN,Minnesota,Andre Miller,,,6:14,0.0,0.0,0.0,0.0,2.0,6.0,4.0,14.0,0.0,1.0,0.0,0.0
0021500594,1610612750,MIN,Minnesota,202357,Nemanja Bjelica,,,23:43,118.4,117.6,0.7,0.2,4.0,27.1,0.056,0.182,0.125,6.8,0.188,0.256,0.188,96.9,0.038,2016-01-15T00:00:00,2,MIN,Minnesota,12-29,17,26,22,28,0,0,0,0,0,0,0,0,0,0,93,0.4,0.87,0.417,15,45,12,0021500594,1610612750,MIN,Minnesota,Nemanja Bjelica,,,23:43,0.0,0.0,0.0,0.0,7.0,6.0,9.0,30.0,2.0,0.0,2.0,3.0
0021500594,1610612750,MIN,Minnesota,204014,Damjan Rudez,,,2:11,180.2,104.2,76.0,0.0,0.0,0.0,0.0,0.0,0.0,0.0,1.0,1.0,0.184,80.46,0.211,2016-01-15T00:00:00,2,MIN,Minnesota,12-29,17,26,22,28,0,0,0,0,0,0,0,0,0,0,93,0.4,0.87,0.417,15,45,12,0021500594,1610612750,MIN,Minnesota,Damjan Rudez,,,2:11,0.0,0.0,0.0,2.0,0.0,0.0,0.0,2.0,0.0,0.0,0.0,0.0
0021500594,1610612750,MIN,Minnesota,203940,Adreian Payne,,DNP - Coach's Decision                  ,,,,,,,0.0,,,,,,,0.0,,,2016-01-15T00:00:00,2,MIN,Minnesota,12-29,17,26,22,28,0,0,0,0,0,0,0,0,0,0,93,0.4,0.87,0.417,15,45,12,0021500594,1610612750,MIN,Minnesota,Adreian Payne,,DNP - Coach's Decision                  ,,,,,,,,,,,,,
0021500594,1610612760,OKC,Oklahoma City,201142,Kevin Durant,F,,29:58,121.3,92.8,28.5,0.318,7.0,27.9,0.0,0.214,0.115,4.0,0.536,0.615,0.279,93.7,0.226,2016-01-15T00:00:00,2,OKC,Oklahoma City,29-12,31,26,25,31,0,0,0,0,0,0,0,0,0,0,113,0.528,0.636,0.217,31,40,6,0021500594,1610612760,OKC,Oklahoma City,Kevin Durant,F,,29:58,2.0,2.0,6.0,12.0,5.0,12.0,6.0,24.0,0.0,0.0,1.0,5.0
0021500594,1610612760,OKC,Oklahoma City,201586,Serge Ibaka,F,,32:30,109.1,90.1,19.0,0.174,4.0,22.2,0.074,0.091,0.083,5.6,0.5,0.5,0.2,94.11,0.129,2016-01-15T00:00:00,2,OKC,Oklahoma City,29-12,31,26,25,31,0,0,0,0,0,0,0,0,0,0,113,0.528,0.636,0.217,31,40,6,0021500594,1610612760,OKC,Oklahoma City,Serge Ibaka,F,,32:30,0.0,2.0,0.0,4.0,7.0,14.0,8.0,26.0,3.0,0.0,2.0,0.0
0021500594,1610612760,OKC,Oklahoma City,203500,Steven Adams,C,,24:37,114.6,73.5,41.1,0.0,0.0,0.0,0.045,0.097,0.075,0.0,0.571,0.622,0.179,96.21,0.105,2016-01-15T00:00:00,2,OKC,Oklahoma City,29-12,31,26,25,31,0,0,0,0,0,0,0,0,0,0,113,0.528,0.636,0.217,31,40,6,0021500594,1610612760,OKC,Oklahoma City,Steven Adams,C,,24:37,2.0,0.0,2.0,8.0,4.0,7.0,2.0,16.0,1.0,1.0,4.0,5.0
0021500594,1610612760,OKC,Oklahoma City,203460,Andre Roberson,G,,16:36,118.5,61.9,56.6,0.077,0.0,17.0,0.083,0.087,0.086,0.0,1.0,0.82,0.143,93.11,0.187,2016-01-15T00:00:00,2,OKC,Oklahoma City,29-12,31,26,25,31,0,0,0,0,0,0,0,0,0,0,113,0.528,0.636,0.217,31,40,6,0021500594,1610612760,OKC,Oklahoma City,Andre Roberson,G,,16:36,0.0,2.0,2.0,8.0,2.0,5.0,0.0,8.0,1.0,0.0,0.0,1.0
0021500594,1610612760,OKC,Oklahoma City,201566,Russell Westbrook,G,,27:12,120.7,81.4,39.4,0.476,5.0,45.5,0.136,0.258,0.208,9.1,0.6,0.6,0.204,95.22,0.235,2016-01-15T00:00:00,2,OKC,Oklahoma City,29-12,31,26,25,31,0,0,0,0,0,0,0,0,0,0,113,0.528,0.636,0.217,31,40,6,0021500594,1610612760,OKC,Oklahoma City,Russell Westbrook,G,,27:12,0.0,0.0,4.0,10.0,5.0,12.0,3.0,20.0,0.0,0.0,4.0,1.0
0021500594,1610612760,OKC,Oklahoma City,202683,Enes Kanter,,,24:59,136.7,111.6,25.1,0.042,0.0,10.1,0.143,0.111,0.128,0.0,0.375,0.394,0.161,91.15,0.014,2016-01-15T00:00:00,2,OKC,Oklahoma City,29-12,31,26,25,31,0,0,0,0,0,0,0,0,0,0,113,0.528,0.636,0.217,31,40,6,0021500594,1610612760,OKC,Oklahoma City,Enes Kanter,,,24:59,1.0,4.0,0.0,6.0,0.0,14.0,3.0,22.0,0.0,0.0,4.0,3.0
0021500594,1610612760,OKC,Oklahoma City,203079,Dion Waiters,,,28:23,129.8,130.7,-0.8,0.056,1.0,5.6,0.0,0.063,0.024,5.6,0.643,0.635,0.272,88.28,0.114,2016-01-15T00:00:00,2,OKC,Oklahoma City,29-12,31,26,25,31,0,0,0,0,0,0,0,0,0,0,113,0.528,0.636,0.217,31,40,6,0021500594,1610612760,OKC,Oklahoma City,Dion Waiters,,,28:23,5.0,5.0,1.0,10.0,5.0,16.0,8.0,32.0,0.0,1.0,1.0,2.0
0021500594,1610612760,OKC,Oklahoma City,2555,Nick Collison,,,7:05,141.7,137.5,4.2,0.286,0.0,66.7,0.286,0.0,0.2,0.0,1.0,1.0,0.059,80.1,0.103,2016-01-15T00:00:00,2,OKC,Oklahoma City,29-12,31,26,25,31,0,0,0,0,0,0,0,0,0,0,113,0.528,0.636,0.217,31,40,6,0021500594,1610612760,OKC,Oklahoma City,Nick Collison,,,7:05,0.0,2.0,0.0,2.0,0.0,2.0,0.0,8.0,0.0,0.0,2.0,0.0
0021500594,1610612760,OKC,Oklahoma City,1626166,Cameron Payne,,,23:49,117.1,117.7,-0.6,0.278,5.0,28.7,0.0,0.111,0.049,5.7,0.591,0.612,0.227,93.59,0.211,2016-01-15T00:00:00,2,OKC,Oklahoma City,29-12,31,26,25,31,0,0,0,0,0,0,0,0,0,0,113,0.528,0.636,0.217,31,40,6,0021500594,1610612760,OKC,Oklahoma City,Cameron Payne,,,23:49,0.0,0.0,2.0,8.0,2.0,13.0,5.0,24.0,1.0,0.0,1.0,1.0
0021500594,1610612760,OKC,Oklahoma City,201627,Anthony Morrow,,,10:30,96.0,133.6,-37.6,0.0,0.0,0.0,0.0,0.0,0.0,0.0,0.0,0.0,0.121,97.92,-0.054,2016-01-15T00:00:00,2,OKC,Oklahoma City,29-12,31,26,25,31,0,0,0,0,0,0,0,0,0,0,113,0.528,0.636,0.217,31,40,6,0021500594,1610612760,OKC,Oklahoma City,Anthony Morrow,,,10:30,0.0,0.0,0.0,0.0,5.0,4.0,5.0,12.0,1.0,0.0,0.0,0.0
0021500594,1610612760,OKC,Oklahoma City,202713,Kyle Singler,,,9:49,153.3,115.5,37.8,0.0,0.0,0.0,0.0,0.1,0.056,0.0,0.667,0.667,0.15,83.81,0.113,2016-01-15T00:00:00,2,OKC,Oklahoma City,29-12,31,26,25,31,0,0,0,0,0,0,0,0,0,0,113,0.528,0.636,0.217,31,40,6,0021500594,1610612760,OKC,Oklahoma City,Kyle Singler,,,9:49,2.0,0.0,2.0,4.0,0.0,9.0,0.0,10.0,0.0,0.0,0.0,1.0
0021500594,1610612760,OKC,Oklahoma City,203956,Mitch McGary,,,4:32,163.9,180.3,-16.4,0.0,0.0,0.0,0.0,0.0,0.0,0.0,0.0,0.0,0.12,82.8,-0.13,2016-01-15T00:00:00,2,OKC,Oklahoma City,29-12,31,26,25,31,0,0,0,0,0,0,0,0,0,0,113,0.528,0.636,0.217,31,40,6,0021500594,1610612760,OKC,Oklahoma City,Mitch McGary,,,4:32,0.0,0.0,0.0,0.0,0.0,7.0,0.0,8.0,0.0,0.0,2.0,0.0
0021500594,1610612760,OKC,Oklahoma City,201571,D.J. Augustin,,DNP - Coach's Decision                  ,,,,,,,0.0,,,,,,,0.0,,,2016-01-15T00:00:00,2,OKC,Oklahoma City,29-12,31,26,25,31,0,0,0,0,0,0,0,0,0,0,113,0.528,0.636,0.217,31,40,6,0021500594,1610612760,OKC,Oklahoma City,D.J. Augustin,,DNP - Coach's Decision                  ,,,,,,,,,,,,,
