GAME_ID_x,TEAM_ID_x,TEAM_ABBREVIATION_x,TEAM_CITY_x,PLAYER_ID,PLAYER_NAME_x,START_POSITION_x,COMMENT_x,MIN_x,OFF_RATING,DEF_RATING,NET_RATING,AST_PCT,AST_TOV,AST_RATIO,OREB_PCT,DREB_PCT,REB_PCT,TM_TOV_PCT,EFG_PCT,TS_PCT,USG_PCT,PACE,PIE,GAME_DATE_EST,GAME_SEQUENCE,TEAM_ABBREVIATION_y,TEAM_CITY_NAME,TEAM_WINS_LOSSES,PTS_QTR1,PTS_QTR2,PTS_QTR3,PTS_QTR4,PTS_OT1,PTS_OT2,PTS_OT3,PTS_OT4,PTS_OT5,PTS_OT6,PTS_OT7,PTS_OT8,PTS_OT9,PTS_OT10,PTS,FG_PCT,FT_PCT,FG3_PCT,AST,REB,TOV,GAME_ID_y,TEAM_ID_y,TEAM_ABBREVIATION,TEAM_CITY_y,PLAYER_NAME_y,START_POSITION_y,COMMENT_y,MIN_y,PTS_OFF_TOV,PTS_2ND_CHANCE,PTS_FB,PTS_PAINT,OPP_PTS_OFF_TOV,OPP_PTS_2ND_CHANCE,OPP_PTS_FB,OPP_PTS_PAINT,BLK,BLKA,PF,PFD
0021500609,1610612758,SAC,Sacramento,200752,Rudy Gay,F,,34:03,118.3,109.8,8.5,0.043,0.5,5.7,0.037,0.154,0.106,11.4,0.5,0.62,0.212,100.12,0.089,2016-01-16T00:00:00,8,SAC,Sacramento,17-23,30,34,18,28,0,0,0,0,0,0,0,0,0,0,110,0.474,0.758,0.52,28,52,17,0021500609,1610612758,SAC,Sacramento,Rudy Gay,F,,34:03,2.0,0.0,4.0,4.0,15.0,9.0,2.0,28.0,2.0,0.0,5.0,5.0
0021500609,1610612758,SAC,Sacramento,202326,DeMarcus Cousins,F,,33:20,118.4,105.4,13.0,0.273,1.2,21.4,0.111,0.27,0.203,17.8,0.464,0.556,0.29,101.08,0.126,2016-01-16T00:00:00,8,SAC,Sacramento,17-23,30,34,18,28,0,0,0,0,0,0,0,0,0,0,110,0.474,0.758,0.52,28,52,17,0021500609,1610612758,SAC,Sacramento,DeMarcus Cousins,F,,33:20,2.0,0.0,0.0,8.0,12.0,7.0,4.0,28.0,2.0,3.0,5.0,6.0
0021500609,1610612758,SAC,Sacramento,1626161,Willie Cauley-Stein,C,,12:32,104.0,116.9,-12.9,0.1,0.0,17.4,0.0,0.267,0.154,0.0,0.0,0.21,0.16,110.93,0.056,2016-01-16T00:00:00,8,SAC,Sacramento,17-23,30,34,18,28,0,0,0,0,0,0,0,0,0,0,110,0.474,0.758,0.52,28,52,17,0021500609,1610612758,SAC,Sacramento,Willie Cauley-Stein,C,,12:32,0.0,0.0,0.0,0.0,5.0,3.0,2.0,12.0,3.0,0.0,0.0,3.0
0021500609,1610612758,SAC,Sacramento,203463,Ben McLemore,G,,27:35,121.4,95.2,26.2,0.053,0.5,7.8,0.05,0.029,0.037,15.7,0.75,0.768,0.191,102.08,0.079,2016-01-16T00:00:00,8,SAC,Sacramento,17-23,30,34,18,28,0,0,0,0,0,0,0,0,0,0,110,0.474,0.758,0.52,28,52,17,0021500609,1610612758,SAC,Sacramento,Ben McLemore,G,,27:35,2.0,3.0,4.0,6.0,10.0,3.0,2.0,22.0,0.0,0.0,3.0,3.0
0021500609,1610612758,SAC,Sacramento,200765,Rajon Rondo,G,,33:49,105.7,99.8,5.9,0.526,2.5,38.6,0.063,0.116,0.093,15.5,0.5,0.547,0.204,104.36,0.153,2016-01-16T00:00:00,8,SAC,Sacramento,17-23,30,34,18,28,0,0,0,0,0,0,0,0,0,0,110,0.474,0.758,0.52,28,52,17,0021500609,1610612758,SAC,Sacramento,Rajon Rondo,G,,33:49,4.0,0.0,0.0,4.0,12.0,7.0,4.0,30.0,0.0,0.0,1.0,2.0
0021500609,1610612758,SAC,Sacramento,201956,Omri Casspi,,,29:56,107.0,90.9,16.2,0.0,0.0,0.0,0.0,0.118,0.067,10.0,0.944,0.944,0.154,97.6,0.189,2016-01-16T00:00:00,8,SAC,Sacramento,17-23,30,34,18,28,0,0,0,0,0,0,0,0,0,0,110,0.474,0.758,0.52,28,52,17,0021500609,1610612758,SAC,Sacramento,Omri Casspi,,,29:56,6.0,0.0,0.0,2.0,11.0,6.0,2.0,26.0,0.0,0.0,0.0,0.0
0021500609,1610612758,SAC,Sacramento,201158,Marco Belinelli,,,23:17,106.2,95.4,10.8,0.308,4.0,30.8,0.0,0.143,0.083,7.7,0.438,0.438,0.179,94.08,0.113,2016-01-16T00:00:00,8,SAC,Sacramento,17-23,30,34,18,28,0,0,0,0,0,0,0,0,0,0,110,0.474,0.758,0.52,28,52,17,0021500609,1610612758,SAC,Sacramento,Marco Belinelli,,,23:17,0.0,2.0,0.0,4.0,9.0,2.0,2.0,20.0,1.0,0.0,1.0,0.0
0021500609,1610612758,SAC,Sacramento,201954,Darren Collison,,,31:00,115.3,105.6,9.7,0.294,5.0,28.3,0.0,0.111,0.063,5.7,0.667,0.73,0.182,97.52,0.148,2016-01-16T00:00:00,8,SAC,Sacramento,17-23,30,34,18,28,0,0,0,0,0,0,0,0,0,0,110,0.474,0.758,0.52,28,52,17,0021500609,1610612758,SAC,Sacramento,Darren Collison,,,31:00,0.0,0.0,3.0,4.0,14.0,6.0,2.0,30.0,0.0,1.0,3.0,4.0
0021500609,1610612758,SAC,Sacramento,201585,Kosta Koufos,,,14:28,90.8,99.3,-8.4,0.0,0.0,0.0,0.143,0.263,0.212,20.5,0.333,0.258,0.165,92.44,0.051,2016-01-16T00:00:00,8,SAC,Sacramento,17-23,30,34,18,28,0,0,0,0,0,0,0,0,0,0,110,0.474,0.758,0.52,28,52,17,0021500609,1610612758,SAC,Sacramento,Kosta Koufos,,,14:28,0.0,0.0,0.0,2.0,7.0,2.0,0.0,14.0,0.0,0.0,1.0,1.0
0021500609,1610612758,SAC,Sacramento,203112,Quincy Acy,,DNP - Coach's Decision                  ,,,,,,,0.0,,,,,,,0.0,,,2016-01-16T00:00:00,8,SAC,Sacramento,17-23,30,34,18,28,0,0,0,0,0,0,0,0,0,0,110,0.474,0.758,0.52,28,52,17,0021500609,1610612758,SAC,Sacramento,Quincy Acy,,DNP - Coach's Decision                  ,,,,,,,,,,,,,
0021500609,1610612758,SAC,Sacramento,202341,James Anderson,,DNP - Coach's Decision                  ,,,,,,,0.0,,,,,,,0.0,,,2016-01-16T00:00:00,8,SAC,Sacramento,17-23,30,34,18,28,0,0,0,0,0,0,0,0,0,0,110,0.474,0.758,0.52,28,52,17,0021500609,1610612758,SAC,Sacramento,James Anderson,,DNP - Coach's Decision                  ,,,,,,,,,,,,,
0021500609,1610612758,SAC,Sacramento,2406,Caron Butler,,DNP - Coach's Decision                  ,,,,,,,0.0,,,,,,,0.0,,,2016-01-16T00:00:00,8,SAC,Sacramento,17-23,30,34,18,28,0,0,0,0,0,0,0,0,0,0,110,0.474,0.758,0.52,28,52,17,0021500609,1610612758,SAC,Sacramento,Caron Butler,,DNP - Coach's Decision                  ,,,,,,,,,,,,,
0021500609,1610612758,SAC,Sacramento,203552,Seth Curry,,DNP - Coach's Decision                  ,,,,,,,0.0,,,,,,,0.0,,,2016-01-16T00:00:00,8,SAC,Sacramento,17-23,30,34,18,28,0,0,0,0,0,0,0,0,0,0,110,0.474,0.758,0.52,28,52,17,0021500609,1610612758,SAC,Sacramento,Seth Curry,,DNP - Coach's Decision                  ,,,,,,,,,,,,,
0021500609,1610612746,LAC,LA,201601,Luc Mbah a Moute,F,,21:02,101.1,129.4,-28.3,0.133,0.0,25.0,0.143,0.176,0.156,0.0,0.167,0.167,0.116,103.69,0.02,2016-01-16T00:00:00,8,LAC,LA,26-14,30,30,19,24,0,0,0,0,0,0,0,0,0,0,103,0.396,0.737,0.333,24,46,11,0021500609,1610612746,LAC,LA,Luc Mbah a Moute,F,,21:02,2.0,2.0,0.0,2.0,4.0,3.0,9.0,20.0,0.0,3.0,2.0,0.0
0021500609,1610612746,LAC,LA,1718,Paul Pierce,F,,20:19,112.0,122.0,-10.0,0.214,1.5,21.4,0.0,0.063,0.026,14.3,0.389,0.389,0.229,96.98,0.034,2016-01-16T00:00:00,8,LAC,LA,26-14,30,30,19,24,0,0,0,0,0,0,0,0,0,0,103,0.396,0.737,0.333,24,46,11,0021500609,1610612746,LAC,LA,Paul Pierce,F,,20:19,0.0,0.0,2.0,2.0,4.0,3.0,7.0,12.0,0.0,0.0,1.0,1.0
0021500609,1610612746,LAC,LA,202332,Cole Aldrich,C,,28:37,107.1,116.2,-9.2,0.133,1.0,9.7,0.121,0.261,0.179,9.7,0.571,0.571,0.279,99.13,0.146,2016-01-16T00:00:00,8,LAC,LA,26-14,30,30,19,24,0,0,0,0,0,0,0,0,0,0,103,0.396,0.737,0.333,24,46,11,0021500609,1610612746,LAC,LA,Cole Aldrich,C,,28:37,5.0,3.0,0.0,16.0,11.0,5.0,11.0,26.0,3.0,4.0,4.0,6.0
0021500609,1610612746,LAC,LA,200755,JJ Redick,G,,31:20,103.5,121.4,-17.9,0.105,0.0,11.6,0.0,0.115,0.048,0.0,0.654,0.724,0.198,103.01,0.14,2016-01-16T00:00:00,8,LAC,LA,26-14,30,30,19,24,0,0,0,0,0,0,0,0,0,0,103,0.396,0.737,0.333,24,46,11,0021500609,1610612746,LAC,LA,JJ Redick,G,,31:20,5.0,0.0,0.0,2.0,13.0,3.0,11.0,24.0,0.0,0.0,2.0,2.0
0021500609,1610612746,LAC,LA,101108,Chris Paul,G,,27:12,102.8,103.1,-0.3,0.389,1.75,29.5,0.0,0.174,0.074,16.8,0.5,0.588,0.26,100.3,0.113,2016-01-16T00:00:00,8,LAC,LA,26-14,30,30,19,24,0,0,0,0,0,0,0,0,0,0,103,0.396,0.737,0.333,24,46,11,0021500609,1610612746,LAC,LA,Chris Paul,G,,27:12,0.0,0.0,0.0,2.0,8.0,3.0,8.0,22.0,0.0,0.0,5.0,3.0
0021500609,1610612746,LAC,LA,202325,Wesley Johnson,,,23:14,92.5,100.3,-7.8,0.0,0.0,0.0,0.074,0.263,0.152,0.0,0.286,0.286,0.128,99.66,0.026,2016-01-16T00:00:00,8,LAC,LA,26-14,30,30,19,24,0,0,0,0,0,0,0,0,0,0,103,0.396,0.737,0.333,24,46,11,0021500609,1610612746,LAC,LA,Wesley Johnson,,,23:14,2.0,2.0,2.0,4.0,12.0,2.0,4.0,18.0,0.0,0.0,3.0,1.0
0021500609,1610612746,LAC,LA,203085,Austin Rivers,,,22:17,95.9,106.3,-10.4,0.125,0.0,22.2,0.0,0.05,0.021,0.0,0.143,0.143,0.127,104.34,-0.038,2016-01-16T00:00:00,8,LAC,LA,26-14,30,30,19,24,0,0,0,0,0,0,0,0,0,0,103,0.396,0.737,0.333,24,46,11,0021500609,1610612746,LAC,LA,Austin Rivers,,,22:17,0.0,0.0,0.0,0.0,10.0,2.0,3.0,12.0,0.0,1.0,2.0,2.0
0021500609,1610612746,LAC,LA,2037,Jamal Crawford,,,30:37,99.6,102.0,-2.4,0.0,0.0,0.0,0.0,0.071,0.031,0.0,0.559,0.559,0.244,97.28,0.093,2016-01-16T00:00:00,8,LAC,LA,26-14,30,30,19,24,0,0,0,0,0,0,0,0,0,0,103,0.396,0.737,0.333,24,46,11,0021500609,1610612746,LAC,LA,Jamal Crawford,,,30:37,3.0,2.0,0.0,6.0,12.0,2.0,2.0,18.0,1.0,0.0,3.0,3.0
0021500609,1610612746,LAC,LA,203143,Pablo Prigioni,,,16:11,102.7,114.2,-11.5,0.364,4.0,44.4,0.1,0.133,0.114,11.1,0.625,0.625,0.125,95.98,0.134,2016-01-16T00:00:00,8,LAC,LA,26-14,30,30,19,24,0,0,0,0,0,0,0,0,0,0,103,0.396,0.737,0.333,24,46,11,0021500609,1610612746,LAC,LA,Pablo Prigioni,,,16:11,0.0,0.0,0.0,2.0,3.0,2.0,0.0,10.0,0.0,0.0,0.0,0.0
0021500609,1610612746,LAC,LA,2746,Josh Smith,,,19:11,98.7,101.6,-2.9,0.167,1.0,15.5,0.087,0.278,0.171,15.5,0.375,0.394,0.234,97.48,0.09,2016-01-16T00:00:00,8,LAC,LA,26-14,30,30,19,24,0,0,0,0,0,0,0,0,0,0,103,0.396,0.737,0.333,24,46,11,0021500609,1610612746,LAC,LA,Josh Smith,,,19:11,2.0,0.0,0.0,6.0,3.0,0.0,0.0,8.0,0.0,0.0,2.0,1.0
0021500609,1610612746,LAC,LA,201599,DeAndre Jordan,,NWT - Illness.                          ,,,,,,,0.0,,,,,,,0.0,,,2016-01-16T00:00:00,8,LAC,LA,26-14,30,30,19,24,0,0,0,0,0,0,0,0,0,0,103,0.396,0.737,0.333,24,46,11,0021500609,1610612746,LAC,LA,DeAndre Jordan,,NWT - Illness.                          ,,,,,,,,,,,,,
0021500609,1610612746,LAC,LA,202362,Lance Stephenson,,DNP - Coach's Decision                  ,,,,,,,0.0,,,,,,,0.0,,,2016-01-16T00:00:00,8,LAC,LA,26-14,30,30,19,24,0,0,0,0,0,0,0,0,0,0,103,0.396,0.737,0.333,24,46,11,0021500609,1610612746,LAC,LA,Lance Stephenson,,DNP - Coach's Decision                  ,,,,,,,,,,,,,
0021500609,1610612746,LAC,LA,203912,CJ Wilcox,,DNP - Coach's Decision                  ,,,,,,,0.0,,,,,,,0.0,,,2016-01-16T00:00:00,8,LAC,LA,26-14,30,30,19,24,0,0,0,0,0,0,0,0,0,0,103,0.396,0.737,0.333,24,46,11,0021500609,1610612746,LAC,LA,CJ Wilcox,,DNP - Coach's Decision                  ,,,,,,,,,,,,,
