GAME_ID_x,TEAM_ID_x,TEAM_ABBREVIATION_x,TEAM_CITY_x,PLAYER_ID,PLAYER_NAME_x,START_POSITION_x,COMMENT_x,MIN_x,OFF_RATING,DEF_RATING,NET_RATING,AST_PCT,AST_TOV,AST_RATIO,OREB_PCT,DREB_PCT,REB_PCT,TM_TOV_PCT,EFG_PCT,TS_PCT,USG_PCT,PACE,PIE,GAME_DATE_EST,GAME_SEQUENCE,TEAM_ABBREVIATION_y,TEAM_CITY_NAME,TEAM_WINS_LOSSES,PTS_QTR1,PTS_QTR2,PTS_QTR3,PTS_QTR4,PTS_OT1,PTS_OT2,PTS_OT3,PTS_OT4,PTS_OT5,PTS_OT6,PTS_OT7,PTS_OT8,PTS_OT9,PTS_OT10,PTS,FG_PCT,FT_PCT,FG3_PCT,AST,REB,TOV,GAME_ID_y,TEAM_ID_y,TEAM_ABBREVIATION,TEAM_CITY_y,PLAYER_NAME_y,START_POSITION_y,COMMENT_y,MIN_y,PTS_OFF_TOV,PTS_2ND_CHANCE,PTS_FB,PTS_PAINT,OPP_PTS_OFF_TOV,OPP_PTS_2ND_CHANCE,OPP_PTS_FB,OPP_PTS_PAINT,BLK,BLKA,PF,PFD
0021500628,1610612754,IND,Indiana,202331,Paul George,F,,32:32,107.0,103.6,3.3,0.19,2.0,18.2,0.0,0.242,0.127,9.1,0.458,0.595,0.246,103.7,0.179,2016-01-19T00:00:00,4,IND,Indiana,23-19,25,19,27,26,0,0,0,0,0,0,0,0,0,0,97,0.41,0.735,0.2,14,46,14,0021500628,1610612754,IND,Indiana,Paul George,F,,32:32,8.0,2.0,8.0,6.0,12.0,14.0,14.0,18.0,0.0,0.0,4.0,7.0
0021500628,1610612754,IND,Indiana,202730,Lavoy Allen,F,,28:43,103.9,113.3,-9.4,0.0,0.0,0.0,0.074,0.185,0.13,28.6,0.4,0.4,0.112,101.54,0.046,2016-01-19T00:00:00,4,IND,Indiana,23-19,25,19,27,26,0,0,0,0,0,0,0,0,0,0,97,0.41,0.735,0.2,14,46,14,0021500628,1610612754,IND,Indiana,Lavoy Allen,F,,28:43,0.0,2.0,0.0,4.0,10.0,12.0,17.0,16.0,0.0,1.0,2.0,0.0
0021500628,1610612754,IND,Indiana,101133,Ian Mahinmi,C,,11:18,83.5,89.3,-5.8,0.0,0.0,0.0,0.091,0.125,0.105,100.0,0.0,0.0,0.042,100.66,0.0,2016-01-19T00:00:00,4,IND,Indiana,23-19,25,19,27,26,0,0,0,0,0,0,0,0,0,0,97,0.41,0.735,0.2,14,46,14,0021500628,1610612754,IND,Indiana,Ian Mahinmi,C,,11:18,0.0,0.0,0.0,0.0,7.0,0.0,7.0,6.0,1.0,0.0,1.0,1.0
0021500628,1610612754,IND,Indiana,203922,Glenn Robinson III,G,,18:11,108.6,92.8,15.8,0.182,0.0,25.8,0.0,0.056,0.03,0.0,0.875,0.868,0.148,98.41,0.165,2016-01-19T00:00:00,4,IND,Indiana,23-19,25,19,27,26,0,0,0,0,0,0,0,0,0,0,97,0.41,0.735,0.2,14,46,14,0021500628,1610612754,IND,Indiana,Glenn Robinson III,G,,18:11,8.0,0.0,8.0,4.0,6.0,6.0,7.0,6.0,0.0,0.0,2.0,2.0
0021500628,1610612754,IND,Indiana,101145,Monta Ellis,G,,30:58,103.3,103.7,-0.4,0.176,1.0,10.9,0.0,0.091,0.048,10.9,0.368,0.462,0.348,104.04,0.112,2016-01-19T00:00:00,4,IND,Indiana,23-19,25,19,27,26,0,0,0,0,0,0,0,0,0,0,97,0.41,0.735,0.2,14,46,14,0021500628,1610612754,IND,Indiana,Monta Ellis,G,,30:58,0.0,0.0,2.0,4.0,12.0,14.0,14.0,18.0,0.0,1.0,1.0,3.0
0021500628,1610612754,IND,Indiana,101139,CJ Miles,,,28:10,82.1,86.0,-3.9,0.0,0.0,0.0,0.029,0.138,0.079,7.0,0.318,0.341,0.214,99.37,0.033,2016-01-19T00:00:00,4,IND,Indiana,23-19,25,19,27,26,0,0,0,0,0,0,0,0,0,0,97,0.41,0.735,0.2,14,46,14,0021500628,1610612754,IND,Indiana,CJ Miles,,,28:10,0.0,2.0,0.0,4.0,8.0,8.0,12.0,18.0,1.0,0.0,4.0,4.0
0021500628,1610612754,IND,Indiana,1626202,Joe Young,,,19:04,79.2,61.6,17.5,0.714,2.5,27.3,0.0,0.158,0.071,10.9,0.45,0.486,0.289,96.27,0.393,2016-01-19T00:00:00,4,IND,Indiana,23-19,25,19,27,26,0,0,0,0,0,0,0,0,0,0,97,0.41,0.735,0.2,14,46,14,0021500628,1610612754,IND,Indiana,Joe Young,,,19:04,2.0,0.0,2.0,2.0,5.0,2.0,7.0,10.0,0.0,0.0,1.0,2.0
0021500628,1610612754,IND,Indiana,1626167,Myles Turner,,,30:50,102.7,88.1,14.6,0.0,0.0,0.0,0.031,0.083,0.059,8.0,0.636,0.656,0.172,104.58,0.131,2016-01-19T00:00:00,4,IND,Indiana,23-19,25,19,27,26,0,0,0,0,0,0,0,0,0,0,97,0.41,0.735,0.2,14,46,14,0021500628,1610612754,IND,Indiana,Myles Turner,,,30:50,4.0,2.0,3.0,6.0,8.0,14.0,9.0,14.0,4.0,0.0,4.0,1.0
0021500628,1610612754,IND,Indiana,201941,Jordan Hill,,,20:09,81.5,63.3,18.2,0.0,0.0,0.0,0.12,0.182,0.149,11.3,0.429,0.444,0.174,101.53,0.169,2016-01-19T00:00:00,4,IND,Indiana,23-19,25,19,27,26,0,0,0,0,0,0,0,0,0,0,97,0.41,0.735,0.2,14,46,14,0021500628,1610612754,IND,Indiana,Jordan Hill,,,20:09,4.0,4.0,0.0,6.0,5.0,2.0,7.0,12.0,0.0,0.0,2.0,1.0
0021500628,1610612754,IND,Indiana,201978,Chase Budinger,,,14:28,75.4,73.4,1.9,0.0,0.0,0.0,0.118,0.286,0.194,17.4,0.0,0.21,0.156,104.77,0.0,2016-01-19T00:00:00,4,IND,Indiana,23-19,25,19,27,26,0,0,0,0,0,0,0,0,0,0,97,0.41,0.735,0.2,14,46,14,0021500628,1610612754,IND,Indiana,Chase Budinger,,,14:28,1.0,2.0,1.0,0.0,5.0,2.0,7.0,12.0,0.0,0.0,1.0,2.0
0021500628,1610612754,IND,Indiana,203524,Solomon Hill,,,5:37,95.1,115.2,-20.1,0.0,0.0,0.0,0.0,0.0,0.0,0.0,0.0,0.0,0.056,125.97,-0.125,2016-01-19T00:00:00,4,IND,Indiana,23-19,25,19,27,26,0,0,0,0,0,0,0,0,0,0,97,0.41,0.735,0.2,14,46,14,0021500628,1610612754,IND,Indiana,Solomon Hill,,,5:37,0.0,0.0,0.0,0.0,7.0,6.0,4.0,10.0,0.0,0.0,1.0,0.0
0021500628,1610612754,IND,Indiana,201588,George Hill,,NWT - Personal Reasons                  ,,,,,,,0.0,,,,,,,0.0,,,2016-01-19T00:00:00,4,IND,Indiana,23-19,25,19,27,26,0,0,0,0,0,0,0,0,0,0,97,0.41,0.735,0.2,14,46,14,0021500628,1610612754,IND,Indiana,George Hill,,NWT - Personal Reasons                  ,,,,,,,,,,,,,
0021500628,1610612754,IND,Indiana,201155,Rodney Stuckey,,DND - Right Ankle Sprain And Bruise     ,,,,,,,0.0,,,,,,,0.0,,,2016-01-19T00:00:00,4,IND,Indiana,23-19,25,19,27,26,0,0,0,0,0,0,0,0,0,0,97,0.41,0.735,0.2,14,46,14,0021500628,1610612754,IND,Indiana,Rodney Stuckey,,DND - Right Ankle Sprain And Bruise     ,,,,,,,,,,,,,
0021500628,1610612756,PHX,Phoenix,200782,PJ Tucker,F,,44:54,99.2,101.0,-1.8,0.2,5.0,29.8,0.045,0.186,0.115,6.0,0.444,0.558,0.109,101.47,0.107,2016-01-19T00:00:00,4,PHX,Phoenix,13-30,17,18,26,33,0,0,0,0,0,0,0,0,0,0,94,0.346,0.931,0.314,15,53,22,0021500628,1610612756,PHX,Phoenix,PJ Tucker,F,,44:54,0.0,2.0,2.0,2.0,26.0,13.0,23.0,36.0,0.0,0.0,4.0,3.0
0021500628,1610612756,PHX,Phoenix,202693,Markieff Morris,F,,11:32,76.2,99.7,-23.5,0.2,0.0,20.0,0.0,0.3,0.15,0.0,0.25,0.25,0.179,94.49,0.083,2016-01-19T00:00:00,4,PHX,Phoenix,13-30,17,18,26,33,0,0,0,0,0,0,0,0,0,0,94,0.346,0.931,0.314,15,53,22,0021500628,1610612756,PHX,Phoenix,Markieff Morris,F,,11:32,0.0,0.0,0.0,0.0,6.0,2.0,8.0,6.0,0.0,0.0,0.0,0.0
0021500628,1610612756,PHX,Phoenix,2199,Tyson Chandler,C,,26:37,78.6,93.5,-15.0,0.0,0.0,0.0,0.138,0.385,0.255,17.4,0.0,0.315,0.092,98.5,0.15,2016-01-19T00:00:00,4,PHX,Phoenix,13-30,17,18,26,33,0,0,0,0,0,0,0,0,0,0,94,0.346,0.931,0.314,15,53,22,0021500628,1610612756,PHX,Phoenix,Tyson Chandler,C,,26:37,2.0,2.0,0.0,0.0,18.0,6.0,17.0,26.0,1.0,1.0,1.0,3.0
0021500628,1610612756,PHX,Phoenix,1626164,Devin Booker,G,,39:31,94.7,107.1,-12.3,0.143,0.5,7.8,0.0,0.0,0.0,15.7,0.75,0.82,0.244,101.77,0.155,2016-01-19T00:00:00,4,PHX,Phoenix,13-30,17,18,26,33,0,0,0,0,0,0,0,0,0,0,94,0.346,0.931,0.314,15,53,22,0021500628,1610612756,PHX,Phoenix,Devin Booker,G,,39:31,5.0,6.0,7.0,4.0,24.0,8.0,23.0,34.0,0.0,0.0,3.0,5.0
0021500628,1610612756,PHX,Phoenix,202688,Brandon Knight,G,,40:44,93.6,89.8,3.8,0.222,0.5,11.3,0.049,0.133,0.093,22.7,0.409,0.45,0.311,103.44,0.06,2016-01-19T00:00:00,4,PHX,Phoenix,13-30,17,18,26,33,0,0,0,0,0,0,0,0,0,0,94,0.346,0.931,0.314,15,53,22,0021500628,1610612756,PHX,Phoenix,Brandon Knight,G,,40:44,3.0,2.0,5.0,12.0,23.0,14.0,20.0,32.0,0.0,2.0,4.0,4.0
0021500628,1610612756,PHX,Phoenix,203458,Alex Len,,,21:23,106.2,97.0,9.2,0.077,1.0,11.3,0.2,0.333,0.273,11.3,0.333,0.436,0.149,107.16,0.105,2016-01-19T00:00:00,4,PHX,Phoenix,13-30,17,18,26,33,0,0,0,0,0,0,0,0,0,0,94,0.346,0.931,0.314,15,53,22,0021500628,1610612756,PHX,Phoenix,Alex Len,,,21:23,2.0,4.0,0.0,4.0,9.0,8.0,7.0,10.0,0.0,0.0,5.0,1.0
0021500628,1610612756,PHX,Phoenix,203485,Lorenzo Brown,,,5:04,47.9,118.0,-70.1,0.0,0.0,0.0,0.0,0.0,0.0,0.0,0.25,0.338,0.425,93.6,0.0,2016-01-19T00:00:00,4,PHX,Phoenix,13-30,17,18,26,33,0,0,0,0,0,0,0,0,0,0,94,0.346,0.931,0.314,15,53,22,0021500628,1610612756,PHX,Phoenix,Lorenzo Brown,,,5:04,3.0,0.0,3.0,2.0,2.0,0.0,2.0,4.0,0.0,0.0,1.0,1.0
0021500628,1610612756,PHX,Phoenix,203933,TJ Warren,,,3:20,0.0,38.7,-38.7,0.0,0.0,0.0,0.0,0.0,0.0,50.0,0.0,0.0,0.222,120.67,1.2,2016-01-19T00:00:00,4,PHX,Phoenix,13-30,17,18,26,33,0,0,0,0,0,0,0,0,0,0,94,0.346,0.931,0.314,15,53,22,0021500628,1610612756,PHX,Phoenix,TJ Warren,,,3:20,0.0,0.0,0.0,0.0,3.0,1.0,3.0,0.0,0.0,0.0,1.0,0.0
0021500628,1610612756,PHX,Phoenix,203462,Archie Goodwin,,,20:16,108.0,81.0,27.0,0.0,0.0,0.0,0.0,0.069,0.039,25.5,0.286,0.457,0.225,107.81,0.01,2016-01-19T00:00:00,4,PHX,Phoenix,13-30,17,18,26,33,0,0,0,0,0,0,0,0,0,0,94,0.346,0.931,0.314,15,53,22,0021500628,1610612756,PHX,Phoenix,Archie Goodwin,,,20:16,0.0,0.0,2.0,4.0,7.0,8.0,3.0,12.0,1.0,2.0,3.0,4.0
0021500628,1610612756,PHX,Phoenix,203141,Mirza Teletovic,,,16:38,63.5,85.2,-21.7,0.0,0.0,0.0,0.053,0.188,0.114,26.5,0.357,0.421,0.275,103.02,0.014,2016-01-19T00:00:00,4,PHX,Phoenix,13-30,17,18,26,33,0,0,0,0,0,0,0,0,0,0,94,0.346,0.931,0.314,15,53,22,0021500628,1610612756,PHX,Phoenix,Mirza Teletovic,,,16:38,2.0,0.0,2.0,0.0,13.0,3.0,12.0,16.0,0.0,1.0,1.0,2.0
0021500628,1610612756,PHX,Phoenix,201603,Sonny Weems,,,10:01,126.0,96.7,29.3,0.333,0.0,50.0,0.0,0.0,0.0,0.0,0.0,0.0,0.088,99.58,0.0,2016-01-19T00:00:00,4,PHX,Phoenix,13-30,17,18,26,33,0,0,0,0,0,0,0,0,0,0,94,0.346,0.931,0.314,15,53,22,0021500628,1610612756,PHX,Phoenix,Sonny Weems,,,10:01,0.0,0.0,0.0,0.0,4.0,7.0,2.0,4.0,0.0,0.0,0.0,0.0
0021500628,1610612756,PHX,Phoenix,202720,Jon Leuer,,DNP - Coach's Decision                  ,,,,,,,0.0,,,,,,,0.0,,,2016-01-19T00:00:00,4,PHX,Phoenix,13-30,17,18,26,33,0,0,0,0,0,0,0,0,0,0,94,0.346,0.931,0.314,15,53,22,0021500628,1610612756,PHX,Phoenix,Jon Leuer,,DNP - Coach's Decision                  ,,,,,,,,,,,,,
