GAME_ID_x,TEAM_ID_x,TEAM_ABBREVIATION_x,TEAM_CITY_x,PLAYER_ID,PLAYER_NAME_x,START_POSITION_x,COMMENT_x,MIN_x,OFF_RATING,DEF_RATING,NET_RATING,AST_PCT,AST_TOV,AST_RATIO,OREB_PCT,DREB_PCT,REB_PCT,TM_TOV_PCT,EFG_PCT,TS_PCT,USG_PCT,PACE,PIE,GAME_DATE_EST,GAME_SEQUENCE,TEAM_ABBREVIATION_y,TEAM_CITY_NAME,TEAM_WINS_LOSSES,PTS_QTR1,PTS_QTR2,PTS_QTR3,PTS_QTR4,PTS_OT1,PTS_OT2,PTS_OT3,PTS_OT4,PTS_OT5,PTS_OT6,PTS_OT7,PTS_OT8,PTS_OT9,PTS_OT10,PTS,FG_PCT,FT_PCT,FG3_PCT,AST,REB,TOV,GAME_ID_y,TEAM_ID_y,TEAM_ABBREVIATION,TEAM_CITY_y,PLAYER_NAME_y,START_POSITION_y,COMMENT_y,MIN_y,PTS_OFF_TOV,PTS_2ND_CHANCE,PTS_FB,PTS_PAINT,OPP_PTS_OFF_TOV,OPP_PTS_2ND_CHANCE,OPP_PTS_FB,OPP_PTS_PAINT,BLK,BLKA,PF,PFD
0021500637,1610612750,MIN,Minnesota,2419,Tayshaun Prince,F,,29:05,90.8,93.0,-2.2,0.048,0.0,33.3,0.0,0.185,0.085,0.0,0.0,0.0,0.032,96.03,0.037,2016-01-20T00:00:00,9,MIN,Minnesota,13-31,33,16,18,22,5,0,0,0,0,0,0,0,0,0,94,0.44,0.818,0.217,26,52,17,0021500637,1610612750,MIN,Minnesota,Tayshaun Prince,F,,29:05,0.0,0.0,0.0,0.0,9.0,4.0,11.0,28.0,1.0,0.0,2.0,1.0
0021500637,1610612750,MIN,Minnesota,1626157,Karl-Anthony Towns,F,,36:48,88.1,99.1,-11.0,0.214,1.0,11.4,0.086,0.424,0.25,11.4,0.658,0.664,0.301,96.59,0.284,2016-01-20T00:00:00,9,MIN,Minnesota,13-31,33,16,18,22,5,0,0,0,0,0,0,0,0,0,94,0.44,0.818,0.217,26,52,17,0021500637,1610612750,MIN,Minnesota,Karl-Anthony Towns,F,,36:48,2.0,7.0,2.0,14.0,14.0,9.0,14.0,38.0,6.0,0.0,3.0,2.0
0021500637,1610612750,MIN,Minnesota,201593,Nikola Pekovic,C,,14:19,88.5,95.9,-7.4,0.111,1.0,14.3,0.0,0.071,0.036,14.3,0.4,0.4,0.214,92.5,0.0,2016-01-20T00:00:00,9,MIN,Minnesota,13-31,33,16,18,22,5,0,0,0,0,0,0,0,0,0,94,0.44,0.818,0.217,26,52,17,0021500637,1610612750,MIN,Minnesota,Nikola Pekovic,C,,14:19,0.0,0.0,0.0,4.0,4.0,5.0,5.0,12.0,0.0,0.0,2.0,0.0
0021500637,1610612750,MIN,Minnesota,203952,Andrew Wiggins,G,,40:26,95.5,94.4,1.1,0.13,1.5,12.4,0.056,0.125,0.092,8.3,0.559,0.599,0.248,95.7,0.125,2016-01-20T00:00:00,9,MIN,Minnesota,13-31,33,16,18,22,5,0,0,0,0,0,0,0,0,0,94,0.44,0.818,0.217,26,52,17,0021500637,1610612750,MIN,Minnesota,Andrew Wiggins,G,,40:26,2.0,0.0,8.0,8.0,14.0,9.0,14.0,42.0,1.0,0.0,4.0,6.0
0021500637,1610612750,MIN,Minnesota,201937,Ricky Rubio,G,,35:39,82.0,97.7,-15.7,0.5,2.2,44.0,0.0,0.061,0.029,20.0,0.111,0.111,0.189,95.45,-0.009,2016-01-20T00:00:00,9,MIN,Minnesota,13-31,33,16,18,22,5,0,0,0,0,0,0,0,0,0,94,0.44,0.818,0.217,26,52,17,0021500637,1610612750,MIN,Minnesota,Ricky Rubio,G,,35:39,0.0,0.0,0.0,2.0,12.0,5.0,14.0,36.0,0.0,0.0,3.0,1.0
0021500637,1610612750,MIN,Minnesota,202357,Nemanja Bjelica,,,17:16,109.7,84.6,25.1,0.0,0.0,0.0,0.0,0.0,0.0,25.0,0.833,0.833,0.106,94.16,0.037,2016-01-20T00:00:00,9,MIN,Minnesota,13-31,33,16,18,22,5,0,0,0,0,0,0,0,0,0,94,0.44,0.818,0.217,26,52,17,0021500637,1610612750,MIN,Minnesota,Nemanja Bjelica,,,17:16,0.0,0.0,0.0,0.0,2.0,2.0,2.0,22.0,0.0,0.0,1.0,2.0
0021500637,1610612750,MIN,Minnesota,203498,Shabazz Muhammad,,,35:04,81.7,102.0,-20.2,0.059,0.5,5.3,0.097,0.118,0.108,10.5,0.438,0.438,0.242,95.9,0.085,2016-01-20T00:00:00,9,MIN,Minnesota,13-31,33,16,18,22,5,0,0,0,0,0,0,0,0,0,94,0.44,0.818,0.217,26,52,17,0021500637,1610612750,MIN,Minnesota,Shabazz Muhammad,,,35:04,0.0,7.0,2.0,8.0,12.0,6.0,13.0,42.0,1.0,0.0,0.0,0.0
0021500637,1610612750,MIN,Minnesota,203476,Gorgui Dieng,,,16:12,98.6,90.7,7.9,0.091,1.0,11.1,0.167,0.5,0.367,11.1,0.429,0.429,0.226,95.44,0.22,2016-01-20T00:00:00,9,MIN,Minnesota,13-31,33,16,18,22,5,0,0,0,0,0,0,0,0,0,94,0.44,0.818,0.217,26,52,17,0021500637,1610612750,MIN,Minnesota,Gorgui Dieng,,,16:12,2.0,2.0,4.0,4.0,2.0,2.0,4.0,20.0,0.0,2.0,3.0,1.0
0021500637,1610612750,MIN,Minnesota,203897,Zach LaVine,,,17:21,109.1,94.4,14.7,0.267,2.0,40.0,0.0,0.056,0.033,20.0,0.5,0.5,0.155,97.85,0.063,2016-01-20T00:00:00,9,MIN,Minnesota,13-31,33,16,18,22,5,0,0,0,0,0,0,0,0,0,94,0.44,0.818,0.217,26,52,17,0021500637,1610612750,MIN,Minnesota,Zach LaVine,,,17:21,0.0,0.0,0.0,2.0,4.0,6.0,4.0,22.0,0.0,0.0,1.0,0.0
0021500637,1610612750,MIN,Minnesota,2755,Kevin Martin,,,14:16,84.7,113.5,-28.7,0.143,0.0,12.0,0.0,0.083,0.043,0.0,0.5,0.615,0.241,98.04,0.126,2016-01-20T00:00:00,9,MIN,Minnesota,13-31,33,16,18,22,5,0,0,0,0,0,0,0,0,0,94,0.44,0.818,0.217,26,52,17,0021500637,1610612750,MIN,Minnesota,Kevin Martin,,,14:16,2.0,0.0,2.0,4.0,2.0,5.0,4.0,18.0,0.0,0.0,2.0,2.0
0021500637,1610612750,MIN,Minnesota,204014,Damjan Rudez,,,8:34,92.2,94.1,-1.9,0.0,0.0,0.0,0.0,0.0,0.0,0.0,0.0,0.0,0.154,108.27,-0.1,2016-01-20T00:00:00,9,MIN,Minnesota,13-31,33,16,18,22,5,0,0,0,0,0,0,0,0,0,94,0.44,0.818,0.217,26,52,17,0021500637,1610612750,MIN,Minnesota,Damjan Rudez,,,8:34,0.0,0.0,0.0,0.0,5.0,2.0,5.0,10.0,0.0,0.0,0.0,0.0
0021500637,1610612750,MIN,Minnesota,1889,Andre Miller,,DNP - Coach's Decision                  ,,,,,,,0.0,,,,,,,0.0,,,2016-01-20T00:00:00,9,MIN,Minnesota,13-31,33,16,18,22,5,0,0,0,0,0,0,0,0,0,94,0.44,0.818,0.217,26,52,17,0021500637,1610612750,MIN,Minnesota,Andre Miller,,DNP - Coach's Decision                  ,,,,,,,,,,,,,
0021500637,1610612750,MIN,Minnesota,203940,Adreian Payne,,DNP - Coach's Decision                  ,,,,,,,0.0,,,,,,,0.0,,,2016-01-20T00:00:00,9,MIN,Minnesota,13-31,33,16,18,22,5,0,0,0,0,0,0,0,0,0,94,0.44,0.818,0.217,26,52,17,0021500637,1610612750,MIN,Minnesota,Adreian Payne,,DNP - Coach's Decision                  ,,,,,,,,,,,,,
0021500637,1610612742,DAL,Dallas,202718,Chandler Parsons,F,,45:58,99.2,92.0,7.2,0.083,2.0,8.2,0.0,0.19,0.098,4.1,0.725,0.704,0.221,95.47,0.187,2016-01-20T00:00:00,9,DAL,Dallas,25-19,23,26,15,25,17,0,0,0,0,0,0,0,0,0,106,0.433,0.773,0.2,18,46,11,0021500637,1610612742,DAL,Dallas,Chandler Parsons,F,,45:58,3.0,0.0,6.0,18.0,8.0,16.0,16.0,46.0,0.0,1.0,2.0,3.0
0021500637,1610612742,DAL,Dallas,101111,Charlie Villanueva,F,,27:54,90.1,105.9,-15.9,0.063,1.0,5.6,0.031,0.227,0.111,5.6,0.357,0.444,0.258,99.36,0.104,2016-01-20T00:00:00,9,DAL,Dallas,25-19,23,26,15,25,17,0,0,0,0,0,0,0,0,0,106,0.433,0.773,0.2,18,46,11,0021500637,1610612742,DAL,Dallas,Charlie Villanueva,F,,27:54,2.0,0.0,4.0,8.0,8.0,4.0,13.0,32.0,1.0,0.0,1.0,2.0
0021500637,1610612742,DAL,Dallas,2585,Zaza Pachulia,C,,33:53,101.8,85.1,16.7,0.04,0.25,7.3,0.071,0.063,0.067,29.1,0.571,0.685,0.173,96.57,0.072,2016-01-20T00:00:00,9,DAL,Dallas,25-19,23,26,15,25,17,0,0,0,0,0,0,0,0,0,106,0.433,0.773,0.2,18,46,11,0021500637,1610612742,DAL,Dallas,Zaza Pachulia,C,,33:53,2.0,4.0,0.0,6.0,6.0,9.0,8.0,32.0,0.0,1.0,4.0,4.0
0021500637,1610612742,DAL,Dallas,202083,Wesley Matthews,G,,40:10,97.0,84.3,12.7,0.148,4.0,18.7,0.0,0.15,0.077,4.7,0.438,0.456,0.195,96.52,0.1,2016-01-20T00:00:00,9,DAL,Dallas,25-19,23,26,15,25,17,0,0,0,0,0,0,0,0,0,106,0.433,0.773,0.2,18,46,11,0021500637,1610612742,DAL,Dallas,Wesley Matthews,G,,40:10,3.0,3.0,3.0,8.0,4.0,12.0,10.0,32.0,0.0,2.0,3.0,2.0
0021500637,1610612742,DAL,Dallas,101114,Deron Williams,G,,39:27,94.4,88.7,5.7,0.16,4.0,21.1,0.0,0.179,0.093,5.3,0.429,0.429,0.175,94.89,0.098,2016-01-20T00:00:00,9,DAL,Dallas,25-19,23,26,15,25,17,0,0,0,0,0,0,0,0,0,106,0.433,0.773,0.2,18,46,11,0021500637,1610612742,DAL,Dallas,Deron Williams,G,,39:27,0.0,0.0,0.0,6.0,4.0,14.0,7.0,30.0,0.0,1.0,3.0,3.0
0021500637,1610612742,DAL,Dallas,2734,Devin Harris,,,32:47,97.5,80.8,16.6,0.19,4.0,22.7,0.0,0.138,0.067,5.7,0.5,0.593,0.18,96.47,0.157,2016-01-20T00:00:00,9,DAL,Dallas,25-19,23,26,15,25,17,0,0,0,0,0,0,0,0,0,106,0.433,0.773,0.2,18,46,11,0021500637,1610612742,DAL,Dallas,Devin Harris,,,32:47,4.0,2.0,3.0,6.0,4.0,12.0,13.0,20.0,0.0,2.0,2.0,4.0
0021500637,1610612742,DAL,Dallas,203939,Dwight Powell,,,2:58,33.3,153.1,-119.7,0.0,0.0,0.0,0.167,0.0,0.143,0.0,0.0,0.0,0.125,96.32,-0.063,2016-01-20T00:00:00,9,DAL,Dallas,25-19,23,26,15,25,17,0,0,0,0,0,0,0,0,0,106,0.433,0.773,0.2,18,46,11,0021500637,1610612742,DAL,Dallas,Dwight Powell,,,2:58,0.0,0.0,0.0,0.0,0.0,0.0,2.0,0.0,0.0,0.0,0.0,1.0
0021500637,1610612742,DAL,Dallas,200826,J.J. Barea,,,18:06,97.3,103.2,-5.9,0.143,1.0,22.2,0.0,0.182,0.063,22.2,0.0,0.0,0.163,99.11,-0.015,2016-01-20T00:00:00,9,DAL,Dallas,25-19,23,26,15,25,17,0,0,0,0,0,0,0,0,0,106,0.433,0.773,0.2,18,46,11,0021500637,1610612742,DAL,Dallas,J.J. Barea,,,18:06,0.0,0.0,0.0,0.0,4.0,4.0,11.0,18.0,0.0,1.0,0.0,0.0
0021500637,1610612742,DAL,Dallas,201580,JaVale McGee,,,16:16,97.0,92.8,4.2,0.0,0.0,0.0,0.294,0.214,0.258,0.0,0.333,0.304,0.267,94.88,0.072,2016-01-20T00:00:00,9,DAL,Dallas,25-19,23,26,15,25,17,0,0,0,0,0,0,0,0,0,106,0.433,0.773,0.2,18,46,11,0021500637,1610612742,DAL,Dallas,JaVale McGee,,,16:16,0.0,2.0,0.0,6.0,2.0,7.0,8.0,14.0,1.0,1.0,0.0,1.0
0021500637,1610612742,DAL,Dallas,1626147,Justin Anderson,,,7:31,113.6,97.0,16.7,0.0,0.0,0.0,0.0,0.0,0.0,0.0,0.0,0.532,0.124,88.33,0.04,2016-01-20T00:00:00,9,DAL,Dallas,25-19,23,26,15,25,17,0,0,0,0,0,0,0,0,0,106,0.433,0.773,0.2,18,46,11,0021500637,1610612742,DAL,Dallas,Justin Anderson,,,7:31,2.0,0.0,2.0,0.0,0.0,2.0,2.0,6.0,0.0,0.0,0.0,1.0
0021500637,1610612742,DAL,Dallas,202379,Jeremy Evans,,DNP - Coach's Decision                  ,,,,,,,0.0,,,,,,,0.0,,,2016-01-20T00:00:00,9,DAL,Dallas,25-19,23,26,15,25,17,0,0,0,0,0,0,0,0,0,106,0.433,0.773,0.2,18,46,11,0021500637,1610612742,DAL,Dallas,Jeremy Evans,,DNP - Coach's Decision                  ,,,,,,,,,,,,,
0021500637,1610612742,DAL,Dallas,203098,John Jenkins,,DNP - Coach's Decision                  ,,,,,,,0.0,,,,,,,0.0,,,2016-01-20T00:00:00,9,DAL,Dallas,25-19,23,26,15,25,17,0,0,0,0,0,0,0,0,0,106,0.433,0.773,0.2,18,46,11,0021500637,1610612742,DAL,Dallas,John Jenkins,,DNP - Coach's Decision                  ,,,,,,,,,,,,,
0021500637,1610612742,DAL,Dallas,1626257,Salah Mejri,,DNP - Coach's Decision                  ,,,,,,,0.0,,,,,,,0.0,,,2016-01-20T00:00:00,9,DAL,Dallas,25-19,23,26,15,25,17,0,0,0,0,0,0,0,0,0,106,0.433,0.773,0.2,18,46,11,0021500637,1610612742,DAL,Dallas,Salah Mejri,,DNP - Coach's Decision                  ,,,,,,,,,,,,,
