GAME_ID_x,TEAM_ID_x,TEAM_ABBREVIATION_x,TEAM_CITY_x,PLAYER_ID,PLAYER_NAME_x,START_POSITION_x,COMMENT_x,MIN_x,OFF_RATING,DEF_RATING,NET_RATING,AST_PCT,AST_TOV,AST_RATIO,OREB_PCT,DREB_PCT,REB_PCT,TM_TOV_PCT,EFG_PCT,TS_PCT,USG_PCT,PACE,PIE,GAME_DATE_EST,GAME_SEQUENCE,TEAM_ABBREVIATION_y,TEAM_CITY_NAME,TEAM_WINS_LOSSES,PTS_QTR1,PTS_QTR2,PTS_QTR3,PTS_QTR4,PTS_OT1,PTS_OT2,PTS_OT3,PTS_OT4,PTS_OT5,PTS_OT6,PTS_OT7,PTS_OT8,PTS_OT9,PTS_OT10,PTS,FG_PCT,FT_PCT,FG3_PCT,AST,REB,TOV,GAME_ID_y,TEAM_ID_y,TEAM_ABBREVIATION,TEAM_CITY_y,PLAYER_NAME_y,START_POSITION_y,COMMENT_y,MIN_y,PTS_OFF_TOV,PTS_2ND_CHANCE,PTS_FB,PTS_PAINT,OPP_PTS_OFF_TOV,OPP_PTS_2ND_CHANCE,OPP_PTS_FB,OPP_PTS_PAINT,BLK,BLKA,PF,PFD
0021500638,1610612758,SAC,Sacramento,200752,Rudy Gay,F,,33:01,118.9,88.3,30.6,0.115,1.5,19.0,0.0,0.143,0.085,12.7,0.778,0.743,0.16,101.8,0.156,2016-01-20T00:00:00,10,SAC,Sacramento,18-23,28,29,29,26,0,0,0,0,0,0,0,0,0,0,112,0.483,0.714,0.3,28,59,14,0021500638,1610612758,SAC,Sacramento,Rudy Gay,F,,33:01,0.0,2.0,4.0,6.0,4.0,5.0,7.0,28.0,6.0,0.0,4.0,4.0
0021500638,1610612758,SAC,Sacramento,202326,DeMarcus Cousins,F,,35:01,126.8,90.7,36.2,0.13,1.5,9.3,0.207,0.227,0.219,6.2,0.591,0.66,0.348,102.2,0.254,2016-01-20T00:00:00,10,SAC,Sacramento,18-23,28,29,29,26,0,0,0,0,0,0,0,0,0,0,112,0.483,0.714,0.3,28,59,14,0021500638,1610612758,SAC,Sacramento,DeMarcus Cousins,F,,35:01,6.0,12.0,2.0,20.0,4.0,7.0,7.0,30.0,1.0,2.0,5.0,8.0
0021500638,1610612758,SAC,Sacramento,1626161,Willie Cauley-Stein,C,,29:25,95.3,100.1,-4.8,0.059,0.0,9.3,0.138,0.188,0.164,0.0,0.625,0.615,0.138,99.4,0.162,2016-01-20T00:00:00,10,SAC,Sacramento,18-23,28,29,29,26,0,0,0,0,0,0,0,0,0,0,112,0.483,0.714,0.3,28,59,14,0021500638,1610612758,SAC,Sacramento,Willie Cauley-Stein,C,,29:25,2.0,4.0,5.0,8.0,10.0,2.0,4.0,26.0,2.0,0.0,4.0,3.0
0021500638,1610612758,SAC,Sacramento,203463,Ben McLemore,G,,18:26,106.2,101.4,4.9,0.0,0.0,0.0,0.0,0.091,0.05,14.3,0.5,0.5,0.164,100.36,-0.017,2016-01-20T00:00:00,10,SAC,Sacramento,18-23,28,29,29,26,0,0,0,0,0,0,0,0,0,0,112,0.483,0.714,0.3,28,59,14,0021500638,1610612758,SAC,Sacramento,Ben McLemore,G,,18:26,0.0,0.0,2.0,4.0,0.0,2.0,2.0,10.0,0.0,0.0,5.0,1.0
0021500638,1610612758,SAC,Sacramento,200765,Rajon Rondo,G,,34:05,124.6,80.3,44.3,0.567,5.67,55.8,0.071,0.064,0.067,9.9,0.5,0.527,0.163,101.74,0.194,2016-01-20T00:00:00,10,SAC,Sacramento,18-23,28,29,29,26,0,0,0,0,0,0,0,0,0,0,112,0.483,0.714,0.3,28,59,14,0021500638,1610612758,SAC,Sacramento,Rajon Rondo,G,,34:05,0.0,2.0,5.0,6.0,4.0,7.0,7.0,24.0,0.0,0.0,0.0,2.0
0021500638,1610612758,SAC,Sacramento,201158,Marco Belinelli,,,19:24,99.0,103.8,-4.7,0.231,0.0,23.1,0.0,0.05,0.027,0.0,0.3,0.3,0.22,103.67,0.039,2016-01-20T00:00:00,10,SAC,Sacramento,18-23,28,29,29,26,0,0,0,0,0,0,0,0,0,0,112,0.483,0.714,0.3,28,59,14,0021500638,1610612758,SAC,Sacramento,Marco Belinelli,,,19:24,3.0,0.0,6.0,0.0,8.0,2.0,2.0,26.0,0.0,0.0,0.0,0.0
0021500638,1610612758,SAC,Sacramento,201956,Omri Casspi,,,30:21,116.1,84.6,31.5,0.0,0.0,0.0,0.0,0.25,0.143,19.6,0.318,0.365,0.203,102.52,0.049,2016-01-20T00:00:00,10,SAC,Sacramento,18-23,28,29,29,26,0,0,0,0,0,0,0,0,0,0,112,0.483,0.714,0.3,28,59,14,0021500638,1610612758,SAC,Sacramento,Omri Casspi,,,30:21,0.0,0.0,0.0,4.0,8.0,5.0,3.0,30.0,1.0,1.0,1.0,2.0
0021500638,1610612758,SAC,Sacramento,201585,Kosta Koufos,,,12:55,93.8,95.7,-1.9,0.0,0.0,0.0,0.167,0.333,0.259,33.3,0.5,0.5,0.196,101.91,0.092,2016-01-20T00:00:00,10,SAC,Sacramento,18-23,28,29,29,26,0,0,0,0,0,0,0,0,0,0,112,0.483,0.714,0.3,28,59,14,0021500638,1610612758,SAC,Sacramento,Kosta Koufos,,,12:55,0.0,2.0,0.0,4.0,6.0,2.0,0.0,14.0,2.0,1.0,3.0,0.0
0021500638,1610612758,SAC,Sacramento,201954,Darren Collison,,,21:16,106.3,97.2,9.1,0.0,0.0,0.0,0.0,0.105,0.049,12.9,0.7,0.74,0.146,101.07,0.097,2016-01-20T00:00:00,10,SAC,Sacramento,18-23,28,29,29,26,0,0,0,0,0,0,0,0,0,0,112,0.483,0.714,0.3,28,59,14,0021500638,1610612758,SAC,Sacramento,Darren Collison,,,21:16,2.0,0.0,2.0,4.0,6.0,3.0,3.0,22.0,0.0,1.0,1.0,2.0
0021500638,1610612758,SAC,Sacramento,202341,James Anderson,,,2:05,66.7,79.8,-13.1,1.0,0.0,100.0,0.333,0.0,0.25,0.0,0.0,0.0,0.0,77.88,0.6,2016-01-20T00:00:00,10,SAC,Sacramento,18-23,28,29,29,26,0,0,0,0,0,0,0,0,0,0,112,0.483,0.714,0.3,28,59,14,0021500638,1610612758,SAC,Sacramento,James Anderson,,,2:05,0.0,0.0,0.0,0.0,0.0,0.0,0.0,0.0,0.0,0.0,0.0,0.0
0021500638,1610612758,SAC,Sacramento,203552,Seth Curry,,,2:05,66.7,79.8,-13.1,0.0,0.0,0.0,0.0,0.0,0.0,0.0,0.0,0.0,0.5,77.88,-0.8,2016-01-20T00:00:00,10,SAC,Sacramento,18-23,28,29,29,26,0,0,0,0,0,0,0,0,0,0,112,0.483,0.714,0.3,28,59,14,0021500638,1610612758,SAC,Sacramento,Seth Curry,,,2:05,0.0,0.0,0.0,0.0,0.0,0.0,0.0,0.0,0.0,0.0,0.0,0.0
0021500638,1610612758,SAC,Sacramento,203112,Quincy Acy,,,1:56,66.7,34.7,31.9,0.0,0.0,0.0,0.0,0.0,0.0,0.0,0.5,0.5,0.5,72.99,0.667,2016-01-20T00:00:00,10,SAC,Sacramento,18-23,28,29,29,26,0,0,0,0,0,0,0,0,0,0,112,0.483,0.714,0.3,28,59,14,0021500638,1610612758,SAC,Sacramento,Quincy Acy,,,1:56,0.0,0.0,0.0,2.0,0.0,0.0,0.0,0.0,0.0,0.0,0.0,0.0
0021500638,1610612758,SAC,Sacramento,2406,Caron Butler,,DNP - Coach's Decision                  ,,,,,,,0.0,,,,,,,0.0,,,2016-01-20T00:00:00,10,SAC,Sacramento,18-23,28,29,29,26,0,0,0,0,0,0,0,0,0,0,112,0.483,0.714,0.3,28,59,14,0021500638,1610612758,SAC,Sacramento,Caron Butler,,DNP - Coach's Decision                  ,,,,,,,,,,,,,
0021500638,1610612747,LAL,Los Angeles,977,Kobe Bryant,F,,31:12,99.8,117.0,-17.2,0.167,1.5,14.9,0.054,0.067,0.06,9.9,0.385,0.493,0.232,101.38,0.06,2016-01-20T00:00:00,10,LAL,Los Angeles,9-35,18,34,25,16,0,0,0,0,0,0,0,0,0,0,93,0.356,0.806,0.16,17,41,9,0021500638,1610612747,LAL,Los Angeles,Kobe Bryant,F,,31:12,0.0,0.0,3.0,2.0,11.0,20.0,18.0,38.0,0.0,1.0,4.0,3.0
0021500638,1610612747,LAL,Los Angeles,203944,Julius Randle,F,,30:40,97.6,122.9,-25.3,0.105,2.0,12.7,0.103,0.286,0.179,6.3,0.182,0.235,0.182,100.99,0.045,2016-01-20T00:00:00,10,LAL,Los Angeles,9-35,18,34,25,16,0,0,0,0,0,0,0,0,0,0,93,0.356,0.806,0.16,17,41,9,0021500638,1610612747,LAL,Los Angeles,Julius Randle,F,,30:40,0.0,1.0,0.0,4.0,9.0,16.0,20.0,34.0,1.0,4.0,1.0,3.0
0021500638,1610612747,LAL,Los Angeles,201579,Roy Hibbert,C,,16:15,103.0,112.0,-9.0,0.0,0.0,0.0,0.056,0.067,0.061,16.7,0.6,0.6,0.158,105.68,0.047,2016-01-20T00:00:00,10,LAL,Los Angeles,9-35,18,34,25,16,0,0,0,0,0,0,0,0,0,0,93,0.356,0.806,0.16,17,41,9,0021500638,1610612747,LAL,Los Angeles,Roy Hibbert,C,,16:15,0.0,0.0,0.0,0.0,2.0,8.0,11.0,22.0,1.0,0.0,5.0,0.0
0021500638,1610612747,LAL,Los Angeles,101150,Lou Williams,G,,32:48,88.3,110.7,-22.5,0.176,0.0,18.2,0.0,0.069,0.027,0.0,0.4,0.555,0.169,103.43,0.106,2016-01-20T00:00:00,10,LAL,Los Angeles,9-35,18,34,25,16,0,0,0,0,0,0,0,0,0,0,93,0.356,0.806,0.16,17,41,9,0021500638,1610612747,LAL,Los Angeles,Lou Williams,G,,32:48,0.0,4.0,0.0,8.0,5.0,12.0,22.0,42.0,0.0,0.0,2.0,6.0
0021500638,1610612747,LAL,Los Angeles,203903,Jordan Clarkson,G,,35:01,95.5,114.6,-19.1,0.056,0.5,4.8,0.026,0.121,0.069,9.7,0.333,0.397,0.233,98.78,0.045,2016-01-20T00:00:00,10,LAL,Los Angeles,9-35,18,34,25,16,0,0,0,0,0,0,0,0,0,0,93,0.356,0.806,0.16,17,41,9,0021500638,1610612747,LAL,Los Angeles,Jordan Clarkson,G,,35:01,0.0,0.0,2.0,6.0,10.0,18.0,16.0,40.0,0.0,2.0,1.0,4.0
0021500638,1610612747,LAL,Los Angeles,1626156,D'Angelo Russell,,,26:06,90.9,111.5,-20.6,0.333,5.0,22.9,0.0,0.087,0.041,4.6,0.4,0.441,0.286,102.69,0.079,2016-01-20T00:00:00,10,LAL,Los Angeles,9-35,18,34,25,16,0,0,0,0,0,0,0,0,0,0,93,0.356,0.806,0.16,17,41,9,0021500638,1610612747,LAL,Los Angeles,D'Angelo Russell,,,26:06,4.0,0.0,0.0,6.0,11.0,14.0,14.0,32.0,0.0,2.0,2.0,2.0
0021500638,1610612747,LAL,Los Angeles,203527,Ryan Kelly,,,17:20,80.4,92.3,-11.9,0.1,0.0,16.7,0.0,0.188,0.091,0.0,0.2,0.2,0.131,100.97,0.0,2016-01-20T00:00:00,10,LAL,Los Angeles,9-35,18,34,25,16,0,0,0,0,0,0,0,0,0,0,93,0.356,0.806,0.16,17,41,9,0021500638,1610612747,LAL,Los Angeles,Ryan Kelly,,,17:20,2.0,0.0,2.0,2.0,4.0,6.0,6.0,24.0,0.0,0.0,2.0,1.0
0021500638,1610612747,LAL,Los Angeles,101138,Brandon Bass,,,29:40,85.8,113.6,-27.8,0.167,2.0,11.9,0.108,0.115,0.111,6.0,0.583,0.654,0.205,100.03,0.169,2016-01-20T00:00:00,10,LAL,Los Angeles,9-35,18,34,25,16,0,0,0,0,0,0,0,0,0,0,93,0.356,0.806,0.16,17,41,9,0021500638,1610612747,LAL,Los Angeles,Brandon Bass,,,29:40,4.0,2.0,0.0,12.0,11.0,14.0,15.0,34.0,3.0,3.0,3.0,3.0
0021500638,1610612747,LAL,Los Angeles,1626148,Anthony Brown,,,16:48,76.7,101.1,-24.4,0.0,0.0,0.0,0.0,0.214,0.091,0.0,0.25,0.307,0.123,100.23,0.0,2016-01-20T00:00:00,10,LAL,Los Angeles,9-35,18,34,25,16,0,0,0,0,0,0,0,0,0,0,93,0.356,0.806,0.16,17,41,9,0021500638,1610612747,LAL,Los Angeles,Anthony Brown,,,16:48,0.0,0.0,0.0,2.0,2.0,2.0,8.0,20.0,0.0,0.0,2.0,1.0
0021500638,1610612747,LAL,Los Angeles,203135,Robert Sacre,,,2:05,79.8,66.7,13.1,0.0,0.0,0.0,0.0,0.333,0.25,0.0,0.0,0.0,0.0,77.88,0.4,2016-01-20T00:00:00,10,LAL,Los Angeles,9-35,18,34,25,16,0,0,0,0,0,0,0,0,0,0,93,0.356,0.806,0.16,17,41,9,0021500638,1610612747,LAL,Los Angeles,Robert Sacre,,,2:05,0.0,0.0,0.0,0.0,0.0,0.0,0.0,2.0,0.0,0.0,0.0,0.0
0021500638,1610612747,LAL,Los Angeles,1626273,Marcelo Huertas,,,2:05,79.8,66.7,13.1,0.0,0.0,0.0,0.0,0.0,0.0,100.0,0.0,0.0,0.266,77.88,-0.4,2016-01-20T00:00:00,10,LAL,Los Angeles,9-35,18,34,25,16,0,0,0,0,0,0,0,0,0,0,93,0.356,0.806,0.16,17,41,9,0021500638,1610612747,LAL,Los Angeles,Marcelo Huertas,,,2:05,0.0,0.0,0.0,0.0,0.0,0.0,0.0,2.0,0.0,0.0,0.0,0.0
0021500638,1610612747,LAL,Los Angeles,204028,Tarik Black,,DNP - Coach's Decision                  ,,,,,,,0.0,,,,,,,0.0,,,2016-01-20T00:00:00,10,LAL,Los Angeles,9-35,18,34,25,16,0,0,0,0,0,0,0,0,0,0,93,0.356,0.806,0.16,17,41,9,0021500638,1610612747,LAL,Los Angeles,Tarik Black,,DNP - Coach's Decision                  ,,,,,,,,,,,,,
0021500638,1610612747,LAL,Los Angeles,201156,Nick Young,,DNP - Coach's Decision                  ,,,,,,,0.0,,,,,,,0.0,,,2016-01-20T00:00:00,10,LAL,Los Angeles,9-35,18,34,25,16,0,0,0,0,0,0,0,0,0,0,93,0.356,0.806,0.16,17,41,9,0021500638,1610612747,LAL,Los Angeles,Nick Young,,DNP - Coach's Decision                  ,,,,,,,,,,,,,
