GAME_ID_x,TEAM_ID_x,TEAM_ABBREVIATION_x,TEAM_CITY_x,PLAYER_ID,PLAYER_NAME_x,START_POSITION_x,COMMENT_x,MIN_x,OFF_RATING,DEF_RATING,NET_RATING,AST_PCT,AST_TOV,AST_RATIO,OREB_PCT,DREB_PCT,REB_PCT,TM_TOV_PCT,EFG_PCT,TS_PCT,USG_PCT,PACE,PIE,GAME_DATE_EST,GAME_SEQUENCE,TEAM_ABBREVIATION_y,TEAM_CITY_NAME,TEAM_WINS_LOSSES,PTS_QTR1,PTS_QTR2,PTS_QTR3,PTS_QTR4,PTS_OT1,PTS_OT2,PTS_OT3,PTS_OT4,PTS_OT5,PTS_OT6,PTS_OT7,PTS_OT8,PTS_OT9,PTS_OT10,PTS,FG_PCT,FT_PCT,FG3_PCT,AST,REB,TOV,GAME_ID_y,TEAM_ID_y,TEAM_ABBREVIATION,TEAM_CITY_y,PLAYER_NAME_y,START_POSITION_y,COMMENT_y,MIN_y,PTS_OFF_TOV,PTS_2ND_CHANCE,PTS_FB,PTS_PAINT,OPP_PTS_OFF_TOV,OPP_PTS_2ND_CHANCE,OPP_PTS_FB,OPP_PTS_PAINT,BLK,BLKA,PF,PFD
0021500652,1610612754,IND,Indiana,202331,Paul George,F,,31:11,91.1,120.7,-29.6,0.05,0.5,5.3,0.0,0.069,0.031,10.6,0.367,0.378,0.232,102.95,0.0,2016-01-22T00:00:00,8,IND,Indiana,23-20,18,33,24,35,0,0,0,0,0,0,0,0,0,0,110,0.463,0.704,0.176,22,44,13,0021500652,1610612754,IND,Indiana,Paul George,F,,31:11,4.0,2.0,2.0,8.0,14.0,17.0,21.0,32.0,0.0,1.0,5.0,4.0
0021500652,1610612754,IND,Indiana,203524,Solomon Hill,F,,21:19,99.2,128.0,-28.9,0.125,0.0,22.5,0.042,0.174,0.106,0.0,0.5,0.581,0.131,105.25,0.116,2016-01-22T00:00:00,8,IND,Indiana,23-20,18,33,24,35,0,0,0,0,0,0,0,0,0,0,110,0.463,0.704,0.176,22,44,13,0021500652,1610612754,IND,Indiana,Solomon Hill,F,,21:19,0.0,2.0,2.0,6.0,10.0,12.0,17.0,20.0,0.0,0.0,0.0,2.0
0021500652,1610612754,IND,Indiana,201941,Jordan Hill,C,,15:50,88.5,125.7,-37.2,0.0,0.0,0.0,0.0,0.222,0.111,10.0,0.444,0.444,0.271,101.98,0.067,2016-01-22T00:00:00,8,IND,Indiana,23-20,18,33,24,35,0,0,0,0,0,0,0,0,0,0,110,0.463,0.704,0.176,22,44,13,0021500652,1610612754,IND,Indiana,Jordan Hill,C,,15:50,0.0,0.0,0.0,8.0,9.0,12.0,14.0,16.0,1.0,1.0,2.0,1.0
0021500652,1610612754,IND,Indiana,203922,Glenn Robinson III,G,,30:43,99.6,125.3,-25.7,0.077,2.0,16.8,0.03,0.107,0.066,8.4,0.125,0.225,0.131,106.36,0.022,2016-01-22T00:00:00,8,IND,Indiana,23-20,18,33,24,35,0,0,0,0,0,0,0,0,0,0,110,0.463,0.704,0.176,22,44,13,0021500652,1610612754,IND,Indiana,Glenn Robinson III,G,,30:43,0.0,0.0,0.0,2.0,17.0,12.0,24.0,40.0,0.0,0.0,0.0,1.0
0021500652,1610612754,IND,Indiana,101145,Monta Ellis,G,,24:48,91.2,121.9,-30.7,0.25,1.5,15.1,0.037,0.08,0.058,10.1,0.607,0.605,0.282,105.48,0.128,2016-01-22T00:00:00,8,IND,Indiana,23-20,18,33,24,35,0,0,0,0,0,0,0,0,0,0,110,0.463,0.704,0.176,22,44,13,0021500652,1610612754,IND,Indiana,Monta Ellis,G,,24:48,4.0,2.0,4.0,2.0,13.0,16.0,21.0,32.0,1.0,0.0,3.0,3.0
0021500652,1610612754,IND,Indiana,1626202,Joe Young,,,28:22,119.3,115.8,3.5,0.348,2.67,32.3,0.038,0.095,0.064,12.1,0.542,0.581,0.238,101.49,0.117,2016-01-22T00:00:00,8,IND,Indiana,23-20,18,33,24,35,0,0,0,0,0,0,0,0,0,0,110,0.463,0.704,0.176,22,44,13,0021500652,1610612754,IND,Indiana,Joe Young,,,28:22,2.0,3.0,2.0,6.0,11.0,14.0,11.0,36.0,0.0,0.0,3.0,2.0
0021500652,1610612754,IND,Indiana,101139,CJ Miles,,,24:04,115.9,99.7,16.1,0.043,0.5,9.2,0.12,0.143,0.13,18.4,0.143,0.19,0.151,112.09,0.005,2016-01-22T00:00:00,8,IND,Indiana,23-20,18,33,24,35,0,0,0,0,0,0,0,0,0,0,110,0.463,0.704,0.176,22,44,13,0021500652,1610612754,IND,Indiana,CJ Miles,,,24:04,1.0,2.0,0.0,2.0,13.0,9.0,11.0,28.0,0.0,1.0,0.0,2.0
0021500652,1610612754,IND,Indiana,1626167,Myles Turner,,,27:40,114.8,114.3,0.5,0.0,0.0,0.0,0.111,0.25,0.17,4.6,0.706,0.74,0.317,102.22,0.256,2016-01-22T00:00:00,8,IND,Indiana,23-20,18,33,24,35,0,0,0,0,0,0,0,0,0,0,110,0.463,0.704,0.176,22,44,13,0021500652,1610612754,IND,Indiana,Myles Turner,,,27:40,6.0,4.0,4.0,18.0,7.0,14.0,9.0,36.0,2.0,1.0,3.0,6.0
0021500652,1610612754,IND,Indiana,202730,Lavoy Allen,,,22:11,109.2,110.3,-1.0,0.105,2.0,22.5,0.174,0.118,0.15,11.3,0.4,0.425,0.122,102.52,0.065,2016-01-22T00:00:00,8,IND,Indiana,23-20,18,33,24,35,0,0,0,0,0,0,0,0,0,0,110,0.463,0.704,0.176,22,44,13,0021500652,1610612754,IND,Indiana,Lavoy Allen,,,22:11,3.0,2.0,1.0,2.0,7.0,14.0,9.0,28.0,0.0,0.0,2.0,2.0
0021500652,1610612754,IND,Indiana,201978,Chase Budinger,,,13:52,126.8,111.5,15.3,0.231,0.0,51.0,0.063,0.154,0.103,0.0,1.0,0.868,0.079,103.5,0.13,2016-01-22T00:00:00,8,IND,Indiana,23-20,18,33,24,35,0,0,0,0,0,0,0,0,0,0,110,0.463,0.704,0.176,22,44,13,0021500652,1610612754,IND,Indiana,Chase Budinger,,,13:52,3.0,2.0,3.0,4.0,4.0,10.0,3.0,12.0,0.0,0.0,2.0,1.0
0021500652,1610612754,IND,Indiana,201588,George Hill,,DNP - Coach's Decision                  ,,,,,,,0.0,,,,,,,0.0,,,2016-01-22T00:00:00,8,IND,Indiana,23-20,18,33,24,35,0,0,0,0,0,0,0,0,0,0,110,0.463,0.704,0.176,22,44,13,0021500652,1610612754,IND,Indiana,George Hill,,DNP - Coach's Decision                  ,,,,,,,,,,,,,
0021500652,1610612754,IND,Indiana,101133,Ian Mahinmi,,DNP - Coach's Decision                  ,,,,,,,0.0,,,,,,,0.0,,,2016-01-22T00:00:00,8,IND,Indiana,23-20,18,33,24,35,0,0,0,0,0,0,0,0,0,0,110,0.463,0.704,0.176,22,44,13,0021500652,1610612754,IND,Indiana,Ian Mahinmi,,DNP - Coach's Decision                  ,,,,,,,,,,,,,
0021500652,1610612754,IND,Indiana,201155,Rodney Stuckey,,DNP - Coach's Decision                  ,,,,,,,0.0,,,,,,,0.0,,,2016-01-22T00:00:00,8,IND,Indiana,23-20,18,33,24,35,0,0,0,0,0,0,0,0,0,0,110,0.463,0.704,0.176,22,44,13,0021500652,1610612754,IND,Indiana,Rodney Stuckey,,DNP - Coach's Decision                  ,,,,,,,,,,,,,
0021500652,1610612744,GSW,Golden State,203084,Harrison Barnes,F,,35:20,115.0,105.5,9.5,0.156,5.0,28.9,0.114,0.179,0.149,5.8,0.2,0.265,0.137,105.94,0.031,2016-01-22T00:00:00,8,GSW,Golden State,40-4,32,32,24,34,0,0,0,0,0,0,0,0,0,0,122,0.478,0.88,0.424,31,50,17,0021500652,1610612744,GSW,Golden State,Harrison Barnes,F,,35:20,0.0,6.0,0.0,4.0,18.0,14.0,13.0,48.0,0.0,2.0,5.0,3.0
0021500652,1610612744,GSW,Golden State,203110,Draymond Green,F,,35:48,128.7,102.4,26.4,0.08,0.67,9.6,0.091,0.211,0.155,14.4,0.667,0.693,0.21,103.96,0.149,2016-01-22T00:00:00,8,GSW,Golden State,40-4,32,32,24,34,0,0,0,0,0,0,0,0,0,0,122,0.478,0.88,0.424,31,50,17,0021500652,1610612744,GSW,Golden State,Draymond Green,F,,35:48,4.0,2.0,9.0,20.0,15.0,11.0,15.0,44.0,0.0,0.0,4.0,3.0
0021500652,1610612744,GSW,Golden State,101106,Andrew Bogut,C,,19:13,141.0,97.0,44.0,0.059,0.0,14.3,0.136,0.136,0.136,0.0,0.167,0.167,0.121,99.81,0.033,2016-01-22T00:00:00,8,GSW,Golden State,40-4,32,32,24,34,0,0,0,0,0,0,0,0,0,0,122,0.478,0.88,0.424,31,50,17,0021500652,1610612744,GSW,Golden State,Andrew Bogut,C,,19:13,0.0,2.0,0.0,2.0,4.0,7.0,4.0,18.0,3.0,1.0,1.0,0.0
0021500652,1610612744,GSW,Golden State,202691,Klay Thompson,G,,34:52,133.7,109.1,24.6,0.172,1.67,20.1,0.029,0.057,0.043,12.1,0.5,0.533,0.228,102.07,0.072,2016-01-22T00:00:00,8,GSW,Golden State,40-4,32,32,24,34,0,0,0,0,0,0,0,0,0,0,122,0.478,0.88,0.424,31,50,17,0021500652,1610612744,GSW,Golden State,Klay Thompson,G,,34:52,2.0,6.0,0.0,4.0,13.0,11.0,12.0,40.0,0.0,0.0,0.0,2.0
0021500652,1610612744,GSW,Golden State,201939,Stephen Curry,G,,36:49,124.3,95.6,28.7,0.48,6.0,32.5,0.061,0.19,0.133,5.4,0.789,0.849,0.27,105.66,0.296,2016-01-22T00:00:00,8,GSW,Golden State,40-4,32,32,24,34,0,0,0,0,0,0,0,0,0,0,122,0.478,0.88,0.424,31,50,17,0021500652,1610612744,GSW,Golden State,Stephen Curry,G,,36:49,9.0,6.0,11.0,6.0,17.0,15.0,17.0,42.0,0.0,0.0,1.0,6.0
0021500652,1610612744,GSW,Golden State,2738,Andre Iguodala,,,28:42,95.8,98.8,-2.9,0.059,0.25,7.2,0.045,0.094,0.074,28.8,0.563,0.563,0.193,107.37,0.038,2016-01-22T00:00:00,8,GSW,Golden State,40-4,32,32,24,34,0,0,0,0,0,0,0,0,0,0,122,0.478,0.88,0.424,31,50,17,0021500652,1610612744,GSW,Golden State,Andre Iguodala,,,28:42,2.0,2.0,4.0,6.0,19.0,15.0,16.0,34.0,0.0,0.0,3.0,1.0
0021500652,1610612744,GSW,Golden State,203105,Festus Ezeli,,,11:06,83.7,93.4,-9.7,0.125,0.0,34.7,0.0,0.143,0.1,0.0,0.0,0.266,0.072,112.09,0.02,2016-01-22T00:00:00,8,GSW,Golden State,40-4,32,32,24,34,0,0,0,0,0,0,0,0,0,0,122,0.478,0.88,0.424,31,50,17,0021500652,1610612744,GSW,Golden State,Festus Ezeli,,,11:06,0.0,0.0,0.0,0.0,9.0,8.0,5.0,16.0,1.0,0.0,3.0,1.0
0021500652,1610612744,GSW,Golden State,2571,Leandro Barbosa,,,14:24,78.5,95.0,-16.5,0.0,0.0,0.0,0.0,0.059,0.038,26.5,0.714,0.781,0.345,107.47,0.25,2016-01-22T00:00:00,8,GSW,Golden State,40-4,32,32,24,34,0,0,0,0,0,0,0,0,0,0,122,0.478,0.88,0.424,31,50,17,0021500652,1610612744,GSW,Golden State,Leandro Barbosa,,,14:24,4.0,2.0,4.0,8.0,12.0,8.0,6.0,20.0,0.0,0.0,2.0,2.0
0021500652,1610612744,GSW,Golden State,201578,Marreese Speights,,,5:35,69.9,121.5,-51.7,1.0,0.0,40.0,0.0,0.25,0.1,0.0,0.5,0.5,0.233,104.88,0.051,2016-01-22T00:00:00,8,GSW,Golden State,40-4,32,32,24,34,0,0,0,0,0,0,0,0,0,0,122,0.478,0.88,0.424,31,50,17,0021500652,1610612744,GSW,Golden State,Marreese Speights,,,5:35,0.0,0.0,0.0,0.0,2.0,0.0,1.0,4.0,0.0,0.0,3.0,0.0
0021500652,1610612744,GSW,Golden State,2733,Shaun Livingston,,,15:35,127.9,141.2,-13.3,0.182,2.0,25.4,0.0,0.083,0.04,12.7,0.5,0.615,0.162,96.16,0.088,2016-01-22T00:00:00,8,GSW,Golden State,40-4,32,32,24,34,0,0,0,0,0,0,0,0,0,0,122,0.478,0.88,0.424,31,50,17,0021500652,1610612744,GSW,Golden State,Shaun Livingston,,,15:35,0.0,0.0,0.0,4.0,6.0,6.0,1.0,20.0,0.0,1.0,1.0,2.0
0021500652,1610612744,GSW,Golden State,203546,Ian Clark,,,1:18,166.7,217.4,-50.7,0.0,0.0,0.0,0.0,0.0,0.0,0.0,1.0,1.0,0.333,106.34,0.083,2016-01-22T00:00:00,8,GSW,Golden State,40-4,32,32,24,34,0,0,0,0,0,0,0,0,0,0,122,0.478,0.88,0.424,31,50,17,0021500652,1610612744,GSW,Golden State,Ian Clark,,,1:18,0.0,0.0,0.0,2.0,0.0,0.0,0.0,2.0,0.0,0.0,1.0,0.0
0021500652,1610612744,GSW,Golden State,201575,Brandon Rush,,,1:18,166.7,217.4,-50.7,0.0,0.0,0.0,0.0,0.0,0.0,0.0,0.0,0.0,0.0,106.34,0.0,2016-01-22T00:00:00,8,GSW,Golden State,40-4,32,32,24,34,0,0,0,0,0,0,0,0,0,0,122,0.478,0.88,0.424,31,50,17,0021500652,1610612744,GSW,Golden State,Brandon Rush,,,1:18,0.0,0.0,0.0,0.0,0.0,0.0,0.0,2.0,0.0,0.0,0.0,0.0
0021500652,1610612744,GSW,Golden State,201574,Jason Thompson,,DNP - Coach's Decision                  ,,,,,,,0.0,,,,,,,0.0,,,2016-01-22T00:00:00,8,GSW,Golden State,40-4,32,32,24,34,0,0,0,0,0,0,0,0,0,0,122,0.478,0.88,0.424,31,50,17,0021500652,1610612744,GSW,Golden State,Jason Thompson,,DNP - Coach's Decision                  ,,,,,,,,,,,,,
