GAME_ID_x,TEAM_ID_x,TEAM_ABBREVIATION_x,TEAM_CITY_x,PLAYER_ID,PLAYER_NAME_x,START_POSITION_x,COMMENT_x,MIN_x,OFF_RATING,DEF_RATING,NET_RATING,AST_PCT,AST_TOV,AST_RATIO,OREB_PCT,DREB_PCT,REB_PCT,TM_TOV_PCT,EFG_PCT,TS_PCT,USG_PCT,PACE,PIE,GAME_DATE_EST,GAME_SEQUENCE,TEAM_ABBREVIATION_y,TEAM_CITY_NAME,TEAM_WINS_LOSSES,PTS_QTR1,PTS_QTR2,PTS_QTR3,PTS_QTR4,PTS_OT1,PTS_OT2,PTS_OT3,PTS_OT4,PTS_OT5,PTS_OT6,PTS_OT7,PTS_OT8,PTS_OT9,PTS_OT10,PTS,FG_PCT,FT_PCT,FG3_PCT,AST,REB,TOV,GAME_ID_y,TEAM_ID_y,TEAM_ABBREVIATION,TEAM_CITY_y,PLAYER_NAME_y,START_POSITION_y,COMMENT_y,MIN_y,PTS_OFF_TOV,PTS_2ND_CHANCE,PTS_FB,PTS_PAINT,OPP_PTS_OFF_TOV,OPP_PTS_2ND_CHANCE,OPP_PTS_FB,OPP_PTS_PAINT,BLK,BLKA,PF,PFD
0021500648,1610612746,LAC,LA,201601,Luc Mbah a Moute,F,,21:46,139.5,78.3,61.2,0.053,1.0,25.0,0.0,0.074,0.051,25.0,1.0,1.0,0.071,94.47,0.053,2016-01-22T00:00:00,4,LAC,LA,28-15,31,24,31,30,0,0,0,0,0,0,0,0,0,0,116,0.566,0.708,0.565,27,36,9,0021500648,1610612746,LAC,LA,Luc Mbah a Moute,F,,21:46,0.0,0.0,2.0,2.0,5.0,4.0,3.0,10.0,0.0,0.0,3.0,0.0
0021500648,1610612746,LAC,LA,1718,Paul Pierce,F,,18:45,106.1,76.7,29.4,0.083,1.0,8.3,0.0,0.174,0.108,8.3,0.65,0.65,0.299,93.8,0.214,2016-01-22T00:00:00,4,LAC,LA,28-15,31,24,31,30,0,0,0,0,0,0,0,0,0,0,116,0.566,0.708,0.565,27,36,9,0021500648,1610612746,LAC,LA,Paul Pierce,F,,18:45,2.0,0.0,3.0,2.0,7.0,4.0,3.0,12.0,0.0,0.0,2.0,0.0
0021500648,1610612746,LAC,LA,201599,DeAndre Jordan,C,,29:47,130.7,87.9,42.8,0.091,2.0,13.1,0.053,0.212,0.154,6.5,1.0,0.814,0.224,94.54,0.2,2016-01-22T00:00:00,4,LAC,LA,28-15,31,24,31,30,0,0,0,0,0,0,0,0,0,0,116,0.566,0.708,0.565,27,36,9,0021500648,1610612746,LAC,LA,DeAndre Jordan,C,,29:47,4.0,2.0,2.0,14.0,9.0,6.0,3.0,16.0,0.0,0.0,1.0,10.0
0021500648,1610612746,LAC,LA,101108,Chris Paul,G,,27:40,127.4,90.6,36.8,0.65,6.5,42.1,0.0,0.188,0.12,6.5,0.467,0.504,0.324,94.82,0.223,2016-01-22T00:00:00,4,LAC,LA,28-15,31,24,31,30,0,0,0,0,0,0,0,0,0,0,116,0.566,0.708,0.565,27,36,9,0021500648,1610612746,LAC,LA,Chris Paul,G,,27:40,2.0,0.0,2.0,2.0,9.0,6.0,3.0,16.0,0.0,0.0,3.0,4.0
0021500648,1610612746,LAC,LA,200755,JJ Redick,G,,24:23,124.0,85.7,38.3,0.0,0.0,0.0,0.0,0.071,0.045,14.3,0.583,0.583,0.142,94.73,0.059,2016-01-22T00:00:00,4,LAC,LA,28-15,31,24,31,30,0,0,0,0,0,0,0,0,0,0,116,0.566,0.708,0.565,27,36,9,0021500648,1610612746,LAC,LA,JJ Redick,G,,24:23,0.0,0.0,0.0,0.0,9.0,4.0,3.0,12.0,0.0,1.0,0.0,1.0
0021500648,1610612746,LAC,LA,202325,Wesley Johnson,,,23:21,137.6,101.3,36.3,0.067,0.0,16.7,0.0,0.158,0.086,0.0,1.4,1.4,0.105,95.79,0.181,2016-01-22T00:00:00,4,LAC,LA,28-15,31,24,31,30,0,0,0,0,0,0,0,0,0,0,116,0.566,0.708,0.565,27,36,9,0021500648,1610612746,LAC,LA,Wesley Johnson,,,23:21,3.0,0.0,3.0,0.0,6.0,2.0,2.0,18.0,2.0,0.0,2.0,0.0
0021500648,1610612746,LAC,LA,2037,Jamal Crawford,,,23:11,125.9,99.6,26.3,0.063,0.5,7.3,0.0,0.0,0.0,14.5,0.5,0.604,0.27,94.7,0.067,2016-01-22T00:00:00,4,LAC,LA,28-15,31,24,31,30,0,0,0,0,0,0,0,0,0,0,116,0.566,0.708,0.565,27,36,9,0021500648,1610612746,LAC,LA,Jamal Crawford,,,23:11,5.0,0.0,0.0,4.0,8.0,2.0,2.0,22.0,0.0,0.0,0.0,2.0
0021500648,1610612746,LAC,LA,203085,Austin Rivers,,,21:43,110.8,88.1,22.7,0.2,0.0,25.3,0.0,0.067,0.031,0.0,0.313,0.338,0.2,98.27,0.0,2016-01-22T00:00:00,4,LAC,LA,28-15,31,24,31,30,0,0,0,0,0,0,0,0,0,0,116,0.566,0.708,0.565,27,36,9,0021500648,1610612746,LAC,LA,Austin Rivers,,,21:43,0.0,0.0,0.0,2.0,6.0,2.0,5.0,24.0,0.0,1.0,3.0,1.0
0021500648,1610612746,LAC,LA,202332,Cole Aldrich,,,17:58,113.0,90.8,22.2,0.0,0.0,0.0,0.077,0.333,0.2,11.4,0.667,0.773,0.234,100.23,0.174,2016-01-22T00:00:00,4,LAC,LA,28-15,31,24,31,30,0,0,0,0,0,0,0,0,0,0,116,0.566,0.708,0.565,27,36,9,0021500648,1610612746,LAC,LA,Cole Aldrich,,,17:58,2.0,0.0,0.0,8.0,6.0,0.0,5.0,22.0,1.0,0.0,2.0,2.0
0021500648,1610612746,LAC,LA,203143,Pablo Prigioni,,,19:06,109.4,88.6,20.8,0.333,0.0,50.0,0.067,0.273,0.154,0.0,0.875,0.875,0.099,99.33,0.235,2016-01-22T00:00:00,4,LAC,LA,28-15,31,24,31,30,0,0,0,0,0,0,0,0,0,0,116,0.566,0.708,0.565,27,36,9,0021500648,1610612746,LAC,LA,Pablo Prigioni,,,19:06,5.0,2.0,2.0,4.0,6.0,0.0,5.0,22.0,0.0,0.0,0.0,2.0
0021500648,1610612746,LAC,LA,202362,Lance Stephenson,,,6:10,108.7,88.8,19.9,0.167,0.0,33.3,0.0,0.2,0.111,0.0,0.0,0.0,0.144,111.46,-0.04,2016-01-22T00:00:00,4,LAC,LA,28-15,31,24,31,30,0,0,0,0,0,0,0,0,0,0,116,0.566,0.708,0.565,27,36,9,0021500648,1610612746,LAC,LA,Lance Stephenson,,,6:10,0.0,0.0,0.0,0.0,2.0,0.0,3.0,8.0,0.0,0.0,1.0,0.0
0021500648,1610612746,LAC,LA,203912,CJ Wilcox,,,6:10,108.7,88.8,19.9,0.0,0.0,0.0,0.0,0.0,0.0,0.0,1.0,1.0,0.144,111.46,0.16,2016-01-22T00:00:00,4,LAC,LA,28-15,31,24,31,30,0,0,0,0,0,0,0,0,0,0,116,0.566,0.708,0.565,27,36,9,0021500648,1610612746,LAC,LA,CJ Wilcox,,,6:10,2.0,0.0,0.0,0.0,2.0,0.0,3.0,8.0,0.0,0.0,0.0,0.0
0021500648,1610612752,NYK,New York,2546,Carmelo Anthony,F,,30:52,93.3,123.9,-30.6,0.353,3.0,25.5,0.0,0.19,0.073,8.5,0.375,0.515,0.243,96.66,0.139,2016-01-22T00:00:00,4,NYK,New York,22-23,24,21,19,24,0,0,0,0,0,0,0,0,0,0,88,0.388,0.9,0.222,24,42,17,0021500648,1610612752,NYK,New York,Carmelo Anthony,F,,30:52,0.0,0.0,3.0,2.0,14.0,2.0,12.0,20.0,1.0,0.0,0.0,5.0
0021500648,1610612752,NYK,New York,204001,Kristaps Porzingis,F,,27:32,94.1,116.3,-22.3,0.0,0.0,0.0,0.094,0.278,0.16,9.6,0.294,0.346,0.318,95.41,0.016,2016-01-22T00:00:00,4,NYK,New York,22-23,24,21,19,24,0,0,0,0,0,0,0,0,0,0,88,0.388,0.9,0.222,24,42,17,0021500648,1610612752,NYK,New York,Kristaps Porzingis,F,,27:32,2.0,4.0,0.0,2.0,8.0,2.0,9.0,20.0,0.0,0.0,2.0,3.0
0021500648,1610612752,NYK,New York,201577,Robin Lopez,C,,17:21,73.4,121.2,-47.9,0.0,0.0,0.0,0.25,0.167,0.219,8.3,0.273,0.273,0.292,92.79,0.009,2016-01-22T00:00:00,4,NYK,New York,22-23,24,21,19,24,0,0,0,0,0,0,0,0,0,0,88,0.388,0.9,0.222,24,42,17,0021500648,1610612752,NYK,New York,Robin Lopez,C,,17:21,0.0,2.0,0.0,6.0,12.0,0.0,7.0,12.0,0.0,0.0,2.0,0.0
0021500648,1610612752,NYK,New York,201167,Arron Afflalo,G,,30:09,77.6,124.9,-47.3,0.143,2.0,21.5,0.0,0.045,0.02,10.7,0.2,0.396,0.111,91.03,0.01,2016-01-22T00:00:00,4,NYK,New York,22-23,24,21,19,24,0,0,0,0,0,0,0,0,0,0,88,0.388,0.9,0.222,24,42,17,0021500648,1610612752,NYK,New York,Arron Afflalo,G,,30:09,0.0,0.0,0.0,2.0,14.0,2.0,8.0,22.0,0.0,1.0,3.0,1.0
0021500648,1610612752,NYK,New York,101181,Jose Calderon,G,,22:40,85.3,125.1,-39.9,0.364,0.0,44.4,0.04,0.333,0.15,0.0,0.4,0.4,0.097,93.35,0.104,2016-01-22T00:00:00,4,NYK,New York,22-23,24,21,19,24,0,0,0,0,0,0,0,0,0,0,88,0.388,0.9,0.222,24,42,17,0021500648,1610612752,NYK,New York,Jose Calderon,G,,22:40,2.0,0.0,0.0,2.0,9.0,2.0,10.0,18.0,0.0,0.0,2.0,1.0
0021500648,1610612752,NYK,New York,202682,Derrick Williams,,,28:56,94.7,134.6,-40.0,0.0,0.0,0.0,0.045,0.3,0.167,17.5,0.444,0.477,0.178,97.75,0.052,2016-01-22T00:00:00,4,NYK,New York,22-23,24,21,19,24,0,0,0,0,0,0,0,0,0,0,88,0.388,0.9,0.222,24,42,17,0021500648,1610612752,NYK,New York,Derrick Williams,,,28:56,7.0,0.0,2.0,6.0,17.0,2.0,10.0,22.0,0.0,1.0,3.0,2.0
0021500648,1610612752,NYK,New York,204038,Langston Galloway,,,24:10,96.2,112.2,-16.0,0.059,0.5,10.0,0.0,0.105,0.053,20.0,0.714,0.714,0.155,103.28,0.05,2016-01-22T00:00:00,4,NYK,New York,22-23,24,21,19,24,0,0,0,0,0,0,0,0,0,0,88,0.388,0.9,0.222,24,42,17,0021500648,1610612752,NYK,New York,Langston Galloway,,,24:10,2.0,0.0,0.0,2.0,16.0,2.0,6.0,20.0,0.0,0.0,4.0,0.0
0021500648,1610612752,NYK,New York,1626170,Jerian Grant,,,24:24,91.8,119.2,-27.5,0.533,4.0,45.0,0.0,0.059,0.027,11.3,0.75,0.838,0.17,99.54,0.149,2016-01-22T00:00:00,4,NYK,New York,22-23,24,21,19,24,0,0,0,0,0,0,0,0,0,0,88,0.388,0.9,0.222,24,42,17,0021500648,1610612752,NYK,New York,Jerian Grant,,,24:24,0.0,0.0,3.0,6.0,13.0,2.0,4.0,20.0,0.0,0.0,4.0,3.0
0021500648,1610612752,NYK,New York,203124,Kyle O'Quinn,,,5:08,60.0,90.0,-30.0,0.0,0.0,0.0,0.333,0.333,0.333,40.0,0.667,0.667,0.455,93.51,0.25,2016-01-22T00:00:00,4,NYK,New York,22-23,24,21,19,24,0,0,0,0,0,0,0,0,0,0,88,0.388,0.9,0.222,24,42,17,0021500648,1610612752,NYK,New York,Kyle O'Quinn,,,5:08,2.0,0.0,0.0,4.0,2.0,0.0,0.0,4.0,0.0,1.0,0.0,0.0
0021500648,1610612752,NYK,New York,202338,Kevin Seraphin,,,12:33,90.8,141.0,-50.2,0.286,0.67,16.7,0.111,0.333,0.2,25.0,0.429,0.429,0.337,99.48,0.053,2016-01-22T00:00:00,4,NYK,New York,22-23,24,21,19,24,0,0,0,0,0,0,0,0,0,0,88,0.388,0.9,0.222,24,42,17,0021500648,1610612752,NYK,New York,Kevin Seraphin,,,12:33,0.0,0.0,0.0,4.0,9.0,2.0,2.0,14.0,1.0,0.0,1.0,1.0
0021500648,1610612752,NYK,New York,2756,Sasha Vujacic,,,12:00,90.1,133.9,-43.8,0.0,0.0,0.0,0.0,0.0,0.0,0.0,0.0,0.0,0.0,98.08,0.0,2016-01-22T00:00:00,4,NYK,New York,22-23,24,21,19,24,0,0,0,0,0,0,0,0,0,0,88,0.388,0.9,0.222,24,42,17,0021500648,1610612752,NYK,New York,Sasha Vujacic,,,12:00,0.0,0.0,0.0,0.0,9.0,2.0,2.0,14.0,0.0,0.0,1.0,0.0
0021500648,1610612752,NYK,New York,200811,Lou Amundson,,,4:15,105.4,90.1,15.3,0.25,0.0,25.0,0.0,0.0,0.0,0.0,0.333,0.333,0.287,109.1,0.059,2016-01-22T00:00:00,4,NYK,New York,22-23,24,21,19,24,0,0,0,0,0,0,0,0,0,0,88,0.388,0.9,0.222,24,42,17,0021500648,1610612752,NYK,New York,Lou Amundson,,,4:15,0.0,0.0,0.0,2.0,2.0,2.0,0.0,4.0,0.0,0.0,0.0,1.0
0021500648,1610612752,NYK,New York,202498,Lance Thomas,,DND - Sore Left Knee                    ,,,,,,,0.0,,,,,,,0.0,,,2016-01-22T00:00:00,4,NYK,New York,22-23,24,21,19,24,0,0,0,0,0,0,0,0,0,0,88,0.388,0.9,0.222,24,42,17,0021500648,1610612752,NYK,New York,Lance Thomas,,DND - Sore Left Knee                    ,,,,,,,,,,,,,
