GAME_ID_x,TEAM_ID_x,TEAM_ABBREVIATION_x,TEAM_CITY_x,PLAYER_ID,PLAYER_NAME_x,START_POSITION_x,COMMENT_x,MIN_x,OFF_RATING,DEF_RATING,NET_RATING,AST_PCT,AST_TOV,AST_RATIO,OREB_PCT,DREB_PCT,REB_PCT,TM_TOV_PCT,EFG_PCT,TS_PCT,USG_PCT,PACE,PIE,GAME_DATE_EST,GAME_SEQUENCE,TEAM_ABBREVIATION_y,TEAM_CITY_NAME,TEAM_WINS_LOSSES,PTS_QTR1,PTS_QTR2,PTS_QTR3,PTS_QTR4,PTS_OT1,PTS_OT2,PTS_OT3,PTS_OT4,PTS_OT5,PTS_OT6,PTS_OT7,PTS_OT8,PTS_OT9,PTS_OT10,PTS,FG_PCT,FT_PCT,FG3_PCT,AST,REB,TOV,GAME_ID_y,TEAM_ID_y,TEAM_ABBREVIATION,TEAM_CITY_y,PLAYER_NAME_y,START_POSITION_y,COMMENT_y,MIN_y,PTS_OFF_TOV,PTS_2ND_CHANCE,PTS_FB,PTS_PAINT,OPP_PTS_OFF_TOV,OPP_PTS_2ND_CHANCE,OPP_PTS_FB,OPP_PTS_PAINT,BLK,BLKA,PF,PFD
0021500650,1610612749,MIL,Milwaukee,203507,Giannis Antetokounmpo,F,,33:30,100.1,108.4,-8.3,0.095,1.0,11.3,0.036,0.147,0.097,11.3,0.583,0.654,0.202,99.64,0.127,2016-01-22T00:00:00,6,MIL,Milwaukee,19-26,28,17,21,32,0,0,0,0,0,0,0,0,0,0,98,0.459,0.773,0.214,30,48,15,0021500650,1610612749,MIL,Milwaukee,Giannis Antetokounmpo,F,,33:30,6.0,4.0,4.0,12.0,6.0,11.0,14.0,26.0,1.0,3.0,3.0,3.0
0021500650,1610612749,MIL,Milwaukee,203953,Jabari Parker,F,,39:53,109.5,97.9,11.6,0.148,4.0,26.9,0.088,0.175,0.135,6.7,0.556,0.557,0.121,94.06,0.129,2016-01-22T00:00:00,6,MIL,Milwaukee,19-26,28,17,21,32,0,0,0,0,0,0,0,0,0,0,98,0.459,0.773,0.214,30,48,15,0021500650,1610612749,MIL,Milwaukee,Jabari Parker,F,,39:53,1.0,2.0,2.0,8.0,11.0,16.0,12.0,32.0,2.0,0.0,1.0,2.0
0021500650,1610612749,MIL,Milwaukee,202328,Greg Monroe,C,,29:46,109.5,111.7,-2.2,0.2,3.0,13.4,0.074,0.25,0.164,4.5,0.588,0.573,0.286,91.12,0.182,2016-01-22T00:00:00,6,MIL,Milwaukee,19-26,28,17,21,32,0,0,0,0,0,0,0,0,0,0,98,0.459,0.773,0.214,30,48,15,0021500650,1610612749,MIL,Milwaukee,Greg Monroe,C,,29:46,3.0,6.0,0.0,20.0,7.0,12.0,10.0,24.0,4.0,3.0,3.0,3.0
0021500650,1610612749,MIL,Milwaukee,203114,Khris Middleton,G,,42:43,108.5,103.2,5.3,0.241,1.75,20.7,0.0,0.023,0.013,11.8,0.405,0.461,0.28,97.67,0.075,2016-01-22T00:00:00,6,MIL,Milwaukee,19-26,28,17,21,32,0,0,0,0,0,0,0,0,0,0,98,0.459,0.773,0.214,30,48,15,0021500650,1610612749,MIL,Milwaukee,Khris Middleton,G,,42:43,5.0,3.0,2.0,6.0,11.0,20.0,14.0,36.0,1.0,1.0,1.0,2.0
0021500650,1610612749,MIL,Milwaukee,203487,Michael Carter-Williams,G,,34:45,106.8,111.0,-4.2,0.2,1.25,22.5,0.125,0.229,0.179,18.0,0.364,0.417,0.209,97.04,0.082,2016-01-22T00:00:00,6,MIL,Milwaukee,19-26,28,17,21,32,0,0,0,0,0,0,0,0,0,0,98,0.459,0.773,0.214,30,48,15,0021500650,1610612749,MIL,Milwaukee,Michael Carter-Williams,G,,34:45,2.0,0.0,8.0,6.0,9.0,12.0,12.0,26.0,0.0,2.0,3.0,5.0
0021500650,1610612749,MIL,Milwaukee,201573,Jerryd Bayless,,,20:17,107.8,106.4,1.3,0.333,3.0,42.9,0.071,0.0,0.028,14.3,0.25,0.25,0.175,99.48,0.019,2016-01-22T00:00:00,6,MIL,Milwaukee,19-26,28,17,21,32,0,0,0,0,0,0,0,0,0,0,98,0.459,0.773,0.214,30,48,15,0021500650,1610612749,MIL,Milwaukee,Jerryd Bayless,,,20:17,0.0,0.0,0.0,0.0,7.0,13.0,8.0,22.0,0.0,0.0,2.0,2.0
0021500650,1610612749,MIL,Milwaukee,203089,John Henson,,,18:14,92.1,93.7,-1.5,0.167,2.0,22.8,0.143,0.19,0.171,11.4,0.5,0.694,0.161,106.23,0.149,2016-01-22T00:00:00,6,MIL,Milwaukee,19-26,28,17,21,32,0,0,0,0,0,0,0,0,0,0,98,0.459,0.773,0.214,30,48,15,0021500650,1610612749,MIL,Milwaukee,John Henson,,,18:14,0.0,2.0,2.0,4.0,6.0,8.0,8.0,18.0,2.0,1.0,3.0,2.0
0021500650,1610612749,MIL,Milwaukee,203948,Johnny O'Bryant III,,,15:35,70.3,91.6,-21.3,0.125,0.0,20.0,0.067,0.125,0.097,0.0,0.25,0.25,0.12,94.25,0.041,2016-01-22T00:00:00,6,MIL,Milwaukee,19-26,28,17,21,32,0,0,0,0,0,0,0,0,0,0,98,0.459,0.773,0.214,30,48,15,0021500650,1610612749,MIL,Milwaukee,Johnny O'Bryant III,,,15:35,0.0,0.0,0.0,2.0,6.0,8.0,8.0,20.0,0.0,0.0,1.0,2.0
0021500650,1610612749,MIL,Milwaukee,1626173,Rashad Vaughn,,,5:17,50.0,111.3,-61.3,0.0,0.0,0.0,0.0,0.0,0.0,0.0,1.5,1.5,0.071,90.31,0.2,2016-01-22T00:00:00,6,MIL,Milwaukee,19-26,28,17,21,32,0,0,0,0,0,0,0,0,0,0,98,0.459,0.773,0.214,30,48,15,0021500650,1610612749,MIL,Milwaukee,Rashad Vaughn,,,5:17,3.0,0.0,3.0,0.0,2.0,0.0,4.0,6.0,0.0,0.0,0.0,0.0
0021500650,1610612749,MIL,Milwaukee,203142,Chris Copeland,,DNP - Coach's Decision                  ,,,,,,,0.0,,,,,,,0.0,,,2016-01-22T00:00:00,6,MIL,Milwaukee,19-26,28,17,21,32,0,0,0,0,0,0,0,0,0,0,98,0.459,0.773,0.214,30,48,15,0021500650,1610612749,MIL,Milwaukee,Chris Copeland,,DNP - Coach's Decision                  ,,,,,,,,,,,,,
0021500650,1610612749,MIL,Milwaukee,203898,Tyler Ennis,,DNP - Coach's Decision                  ,,,,,,,0.0,,,,,,,0.0,,,2016-01-22T00:00:00,6,MIL,Milwaukee,19-26,28,17,21,32,0,0,0,0,0,0,0,0,0,0,98,0.459,0.773,0.214,30,48,15,0021500650,1610612749,MIL,Milwaukee,Tyler Ennis,,DNP - Coach's Decision                  ,,,,,,,,,,,,,
0021500650,1610612749,MIL,Milwaukee,201564,O.J. Mayo,,NWT - Sore left hamstring               ,,,,,,,0.0,,,,,,,0.0,,,2016-01-22T00:00:00,6,MIL,Milwaukee,19-26,28,17,21,32,0,0,0,0,0,0,0,0,0,0,98,0.459,0.773,0.214,30,48,15,0021500650,1610612749,MIL,Milwaukee,O.J. Mayo,,NWT - Sore left hamstring               ,,,,,,,,,,,,,
0021500650,1610612749,MIL,Milwaukee,203101,Miles Plumlee,,DNP - Coach's Decision                  ,,,,,,,0.0,,,,,,,0.0,,,2016-01-22T00:00:00,6,MIL,Milwaukee,19-26,28,17,21,32,0,0,0,0,0,0,0,0,0,0,98,0.459,0.773,0.214,30,48,15,0021500650,1610612749,MIL,Milwaukee,Miles Plumlee,,DNP - Coach's Decision                  ,,,,,,,,,,,,,
0021500650,1610612745,HOU,Houston,2772,Trevor Ariza,F,,36:50,109.0,90.8,18.2,0.083,2.0,10.6,0.027,0.111,0.068,5.3,0.567,0.598,0.198,98.44,0.115,2016-01-22T00:00:00,6,HOU,Houston,23-22,31,26,22,23,0,0,0,0,0,0,0,0,0,0,102,0.404,0.688,0.341,27,42,11,0021500650,1610612745,HOU,Houston,Trevor Ariza,F,,36:50,0.0,0.0,0.0,2.0,10.0,13.0,18.0,44.0,1.0,1.0,0.0,1.0
0021500650,1610612745,HOU,Houston,201147,Corey Brewer,F,,31:51,99.6,115.6,-16.0,0.174,2.0,31.1,0.091,0.087,0.089,15.5,0.167,0.291,0.118,97.43,0.045,2016-01-22T00:00:00,6,HOU,Houston,23-22,31,26,22,23,0,0,0,0,0,0,0,0,0,0,102,0.404,0.688,0.341,27,42,11,0021500650,1610612745,HOU,Houston,Corey Brewer,F,,31:51,0.0,0.0,2.0,2.0,18.0,13.0,11.0,42.0,0.0,2.0,1.0,4.0
0021500650,1610612745,HOU,Houston,203991,Clint Capela,C,,23:50,124.1,98.0,26.1,0.118,2.0,29.1,0.154,0.238,0.191,14.5,1.0,0.773,0.093,91.11,0.082,2016-01-22T00:00:00,6,HOU,Houston,23-22,31,26,22,23,0,0,0,0,0,0,0,0,0,0,102,0.404,0.688,0.341,27,42,11,0021500650,1610612745,HOU,Houston,Clint Capela,C,,23:50,2.0,4.0,0.0,6.0,5.0,6.0,12.0,38.0,2.0,0.0,6.0,1.0
0021500650,1610612745,HOU,Houston,201935,James Harden,G,,34:06,111.0,100.1,10.9,0.421,4.0,28.1,0.0,0.161,0.076,7.0,0.767,0.81,0.256,99.29,0.241,2016-01-22T00:00:00,6,HOU,Houston,23-22,31,26,22,23,0,0,0,0,0,0,0,0,0,0,102,0.404,0.688,0.341,27,42,11,0021500650,1610612745,HOU,Houston,James Harden,G,,34:06,2.0,5.0,8.0,8.0,12.0,13.0,18.0,44.0,0.0,1.0,2.0,5.0
0021500650,1610612745,HOU,Houston,1891,Jason Terry,G,,18:40,106.6,94.2,12.4,0.167,0.0,18.2,0.0,0.071,0.03,0.0,0.333,0.333,0.212,97.05,0.053,2016-01-22T00:00:00,6,HOU,Houston,23-22,31,26,22,23,0,0,0,0,0,0,0,0,0,0,102,0.404,0.688,0.341,27,42,11,0021500650,1610612745,HOU,Houston,Jason Terry,G,,18:40,0.0,0.0,0.0,0.0,3.0,4.0,10.0,26.0,0.0,0.0,1.0,1.0
0021500650,1610612745,HOU,Houston,201951,Ty Lawson,,,27:41,102.4,107.1,-4.7,0.111,1.0,14.3,0.069,0.08,0.074,14.3,0.55,0.55,0.175,94.44,0.059,2016-01-22T00:00:00,6,HOU,Houston,23-22,31,26,22,23,0,0,0,0,0,0,0,0,0,0,102,0.404,0.688,0.341,27,42,11,0021500650,1610612745,HOU,Houston,Ty Lawson,,,27:41,2.0,2.0,2.0,4.0,14.0,10.0,11.0,28.0,0.0,1.0,3.0,1.0
0021500650,1610612745,HOU,Houston,203093,Terrence Jones,,,31:57,96.5,102.8,-6.3,0.056,1.0,6.3,0.063,0.207,0.131,6.3,0.5,0.5,0.196,101.08,0.103,2016-01-22T00:00:00,6,HOU,Houston,23-22,31,26,22,23,0,0,0,0,0,0,0,0,0,0,102,0.404,0.688,0.341,27,42,11,0021500650,1610612745,HOU,Houston,Terrence Jones,,,31:57,2.0,2.0,6.0,14.0,15.0,11.0,15.0,36.0,4.0,3.0,3.0,2.0
0021500650,1610612745,HOU,Houston,2746,Josh Smith,,,21:11,93.5,108.8,-15.3,0.4,3.0,31.8,0.15,0.125,0.139,10.6,0.1,0.092,0.249,96.35,-0.029,2016-01-22T00:00:00,6,HOU,Houston,23-22,31,26,22,23,0,0,0,0,0,0,0,0,0,0,102,0.404,0.688,0.341,27,42,11,0021500650,1610612745,HOU,Houston,Josh Smith,,,21:11,0.0,0.0,0.0,2.0,15.0,11.0,7.0,18.0,3.0,1.0,4.0,2.0
0021500650,1610612745,HOU,Houston,201977,Marcus Thornton,,,13:54,85.6,108.7,-23.1,0.0,0.0,0.0,0.0,0.0,0.0,0.0,0.417,0.417,0.365,90.89,0.024,2016-01-22T00:00:00,6,HOU,Houston,23-22,31,26,22,23,0,0,0,0,0,0,0,0,0,0,102,0.404,0.688,0.341,27,42,11,0021500650,1610612745,HOU,Houston,Marcus Thornton,,,13:54,5.0,7.0,0.0,4.0,8.0,4.0,3.0,14.0,0.0,1.0,1.0,0.0
0021500650,1610612745,HOU,Houston,201976,Patrick Beverley,,DND - Left ankle sprain                 ,,,,,,,0.0,,,,,,,0.0,,,2016-01-22T00:00:00,6,HOU,Houston,23-22,31,26,22,23,0,0,0,0,0,0,0,0,0,0,102,0.404,0.688,0.341,27,42,11,0021500650,1610612745,HOU,Houston,Patrick Beverley,,DND - Left ankle sprain                 ,,,,,,,,,,,,,
0021500650,1610612745,HOU,Houston,1626149,Montrezl Harrell,,DNP - Coach's Decision                  ,,,,,,,0.0,,,,,,,0.0,,,2016-01-22T00:00:00,6,HOU,Houston,23-22,31,26,22,23,0,0,0,0,0,0,0,0,0,0,102,0.404,0.688,0.341,27,42,11,0021500650,1610612745,HOU,Houston,Montrezl Harrell,,DNP - Coach's Decision                  ,,,,,,,,,,,,,
0021500650,1610612745,HOU,Houston,2730,Dwight Howard,,DND - Left ankle sprain                 ,,,,,,,0.0,,,,,,,0.0,,,2016-01-22T00:00:00,6,HOU,Houston,23-22,31,26,22,23,0,0,0,0,0,0,0,0,0,0,102,0.404,0.688,0.341,27,42,11,0021500650,1610612745,HOU,Houston,Dwight Howard,,DND - Left ankle sprain                 ,,,,,,,,,,,,,
0021500650,1610612745,HOU,Houston,203909,KJ McDaniels,,DNP - Coach's Decision                  ,,,,,,,0.0,,,,,,,0.0,,,2016-01-22T00:00:00,6,HOU,Houston,23-22,31,26,22,23,0,0,0,0,0,0,0,0,0,0,102,0.404,0.688,0.341,27,42,11,0021500650,1610612745,HOU,Houston,KJ McDaniels,,DNP - Coach's Decision                  ,,,,,,,,,,,,,
