GAME_ID_x,TEAM_ID_x,TEAM_ABBREVIATION_x,TEAM_CITY_x,PLAYER_ID,PLAYER_NAME_x,START_POSITION_x,COMMENT_x,MIN_x,OFF_RATING,DEF_RATING,NET_RATING,AST_PCT,AST_TOV,AST_RATIO,OREB_PCT,DREB_PCT,REB_PCT,TM_TOV_PCT,EFG_PCT,TS_PCT,USG_PCT,PACE,PIE,GAME_DATE_EST,GAME_SEQUENCE,TEAM_ABBREVIATION_y,TEAM_CITY_NAME,TEAM_WINS_LOSSES,PTS_QTR1,PTS_QTR2,PTS_QTR3,PTS_QTR4,PTS_OT1,PTS_OT2,PTS_OT3,PTS_OT4,PTS_OT5,PTS_OT6,PTS_OT7,PTS_OT8,PTS_OT9,PTS_OT10,PTS,FG_PCT,FT_PCT,FG3_PCT,AST,REB,TOV,GAME_ID_y,TEAM_ID_y,TEAM_ABBREVIATION,TEAM_CITY_y,PLAYER_NAME_y,START_POSITION_y,COMMENT_y,MIN_y,PTS_OFF_TOV,PTS_2ND_CHANCE,PTS_FB,PTS_PAINT,OPP_PTS_OFF_TOV,OPP_PTS_2ND_CHANCE,OPP_PTS_FB,OPP_PTS_PAINT,BLK,BLKA,PF,PFD
0021500662,1610612747,LAL,Los Angeles,977,Kobe Bryant,F,,24:33,101.0,140.8,-39.8,0.077,0.2,6.7,0.0,0.118,0.061,33.3,0.556,0.556,0.252,99.91,0.027,2016-01-23T00:00:00,8,LAL,Los Angeles,9-37,22,30,24,27,0,0,0,0,0,0,0,0,0,0,103,0.493,0.875,0.412,14,30,18,0021500662,1610612747,LAL,Los Angeles,Kobe Bryant,F,,24:33,0.0,0.0,0.0,0.0,21.0,5.0,3.0,22.0,0.0,0.0,1.0,0.0
0021500662,1610612747,LAL,Los Angeles,203944,Julius Randle,F,,24:26,96.9,135.0,-38.1,0.0,0.0,0.0,0.118,0.389,0.257,9.8,0.571,0.598,0.183,102.35,0.103,2016-01-23T00:00:00,8,LAL,Los Angeles,9-37,22,30,24,27,0,0,0,0,0,0,0,0,0,0,103,0.493,0.875,0.412,14,30,18,0021500662,1610612747,LAL,Los Angeles,Julius Randle,F,,24:26,0.0,2.0,0.0,6.0,23.0,10.0,3.0,22.0,1.0,0.0,3.0,3.0
0021500662,1610612747,LAL,Los Angeles,201579,Roy Hibbert,C,,23:40,93.1,144.8,-51.7,0.083,0.5,12.0,0.063,0.125,0.094,24.0,0.75,0.846,0.139,101.61,0.079,2016-01-23T00:00:00,8,LAL,Los Angeles,9-37,22,30,24,27,0,0,0,0,0,0,0,0,0,0,103,0.493,0.875,0.412,14,30,18,0021500662,1610612747,LAL,Los Angeles,Roy Hibbert,C,,23:40,0.0,2.0,0.0,4.0,21.0,7.0,3.0,24.0,2.0,0.0,2.0,2.0
0021500662,1610612747,LAL,Los Angeles,101150,Lou Williams,G,,29:09,101.0,133.4,-32.4,0.176,1.0,16.1,0.0,0.043,0.023,16.1,0.5,0.633,0.236,101.96,0.091,2016-01-23T00:00:00,8,LAL,Los Angeles,9-37,22,30,24,27,0,0,0,0,0,0,0,0,0,0,103,0.493,0.875,0.412,14,30,18,0021500662,1610612747,LAL,Los Angeles,Lou Williams,G,,29:09,3.0,5.0,0.0,2.0,23.0,14.0,3.0,24.0,1.0,0.0,2.0,4.0
0021500662,1610612747,LAL,Los Angeles,203903,Jordan Clarkson,G,,24:49,97.0,143.0,-46.0,0.2,3.0,21.1,0.0,0.063,0.03,7.0,0.313,0.49,0.205,102.28,0.025,2016-01-23T00:00:00,8,LAL,Los Angeles,9-37,22,30,24,27,0,0,0,0,0,0,0,0,0,0,103,0.493,0.875,0.412,14,30,18,0021500662,1610612747,LAL,Los Angeles,Jordan Clarkson,G,,24:49,3.0,2.0,0.0,2.0,21.0,7.0,3.0,28.0,0.0,0.0,4.0,3.0
0021500662,1610612747,LAL,Los Angeles,203527,Ryan Kelly,,,23:34,114.0,110.9,3.1,0.067,1.0,10.1,0.0,0.136,0.081,10.1,0.357,0.381,0.191,93.24,-0.012,2016-01-23T00:00:00,8,LAL,Los Angeles,9-37,22,30,24,27,0,0,0,0,0,0,0,0,0,0,103,0.493,0.875,0.412,14,30,18,0021500662,1610612747,LAL,Los Angeles,Ryan Kelly,,,23:34,2.0,0.0,2.0,2.0,4.0,11.0,2.0,18.0,0.0,0.0,4.0,2.0
0021500662,1610612747,LAL,Los Angeles,1626156,D'Angelo Russell,,,22:35,119.4,117.6,1.8,0.2,1.0,11.0,0.0,0.158,0.091,11.0,0.708,0.739,0.362,93.31,0.247,2016-01-23T00:00:00,8,LAL,Los Angeles,9-37,22,30,24,27,0,0,0,0,0,0,0,0,0,0,103,0.493,0.875,0.412,14,30,18,0021500662,1610612747,LAL,Los Angeles,D'Angelo Russell,,,22:35,4.0,0.0,0.0,12.0,4.0,15.0,2.0,18.0,0.0,0.0,0.0,5.0
0021500662,1610612747,LAL,Los Angeles,1626148,Anthony Brown,,,23:27,109.6,106.3,3.3,0.0,0.0,0.0,0.0,0.043,0.026,29.1,1.0,1.025,0.148,95.75,0.08,2016-01-23T00:00:00,8,LAL,Los Angeles,9-37,22,30,24,27,0,0,0,0,0,0,0,0,0,0,103,0.493,0.875,0.412,14,30,18,0021500662,1610612747,LAL,Los Angeles,Anthony Brown,,,23:27,5.0,2.0,0.0,2.0,6.0,16.0,2.0,18.0,0.0,0.0,2.0,1.0
0021500662,1610612747,LAL,Los Angeles,101138,Brandon Bass,,,20:37,115.1,102.2,12.8,0.133,0.0,34.0,0.071,0.238,0.171,0.0,0.333,0.515,0.091,95.36,0.153,2016-01-23T00:00:00,8,LAL,Los Angeles,9-37,22,30,24,27,0,0,0,0,0,0,0,0,0,0,103,0.493,0.875,0.412,14,30,18,0021500662,1610612747,LAL,Los Angeles,Brandon Bass,,,20:37,0.0,0.0,0.0,2.0,6.0,13.0,2.0,16.0,1.0,1.0,1.0,1.0
0021500662,1610612747,LAL,Los Angeles,1626273,Marcelo Huertas,,,12:00,113.3,91.9,21.3,0.143,1.0,20.5,0.0,0.0,0.0,20.5,0.5,0.694,0.163,91.2,0.096,2016-01-23T00:00:00,8,LAL,Los Angeles,9-37,22,30,24,27,0,0,0,0,0,0,0,0,0,0,103,0.493,0.875,0.412,14,30,18,0021500662,1610612747,LAL,Los Angeles,Marcelo Huertas,,,12:00,0.0,0.0,0.0,2.0,4.0,5.0,2.0,6.0,1.0,0.0,1.0,1.0
0021500662,1610612747,LAL,Los Angeles,201156,Nick Young,,,7:27,95.6,79.3,16.4,0.0,0.0,0.0,0.0,0.0,0.0,0.0,0.0,0.0,0.137,91.88,-0.093,2016-01-23T00:00:00,8,LAL,Los Angeles,9-37,22,30,24,27,0,0,0,0,0,0,0,0,0,0,103,0.493,0.875,0.412,14,30,18,0021500662,1610612747,LAL,Los Angeles,Nick Young,,,7:27,0.0,0.0,0.0,0.0,2.0,1.0,0.0,4.0,0.0,0.0,0.0,0.0
0021500662,1610612747,LAL,Los Angeles,203135,Robert Sacre,,,3:43,133.1,101.7,31.4,0.0,0.0,0.0,0.0,0.333,0.2,0.0,1.0,1.0,0.148,88.08,0.231,2016-01-23T00:00:00,8,LAL,Los Angeles,9-37,22,30,24,27,0,0,0,0,0,0,0,0,0,0,103,0.493,0.875,0.412,14,30,18,0021500662,1610612747,LAL,Los Angeles,Robert Sacre,,,3:43,0.0,0.0,0.0,0.0,0.0,1.0,0.0,0.0,0.0,0.0,0.0,0.0
0021500662,1610612747,LAL,Los Angeles,204028,Tarik Black,,DNP - Coach's Decision                  ,,,,,,,0.0,,,,,,,0.0,,,2016-01-23T00:00:00,8,LAL,Los Angeles,9-37,22,30,24,27,0,0,0,0,0,0,0,0,0,0,103,0.493,0.875,0.412,14,30,18,0021500662,1610612747,LAL,Los Angeles,Tarik Black,,DNP - Coach's Decision                  ,,,,,,,,,,,,,
0021500662,1610612757,POR,Portland,202329,Al-Farouq Aminu,F,,21:29,137.8,103.0,34.8,0.048,0.0,20.0,0.0,0.133,0.069,0.0,0.625,0.625,0.084,103.13,0.063,2016-01-23T00:00:00,8,POR,Portland,20-26,37,25,39,20,0,0,0,0,0,0,0,0,0,0,121,0.505,0.773,0.323,26,42,8,0021500662,1610612757,POR,Portland,Al-Farouq Aminu,F,,21:29,5.0,0.0,0.0,0.0,6.0,9.0,0.0,16.0,0.0,0.0,1.0,1.0
0021500662,1610612757,POR,Portland,203943,Noah Vonleh,F,,25:27,142.6,101.2,41.4,0.043,1.0,11.3,0.118,0.235,0.176,11.3,0.833,0.799,0.139,100.87,0.101,2016-01-23T00:00:00,8,POR,Portland,20-26,37,25,39,20,0,0,0,0,0,0,0,0,0,0,121,0.505,0.773,0.323,26,42,8,0021500662,1610612757,POR,Portland,Noah Vonleh,F,,25:27,2.0,2.0,1.0,8.0,8.0,4.0,2.0,18.0,0.0,0.0,5.0,1.0
0021500662,1610612757,POR,Portland,203486,Mason Plumlee,C,,25:15,140.4,104.7,35.7,0.24,3.0,33.2,0.063,0.389,0.235,11.1,0.429,0.645,0.221,100.94,0.184,2016-01-23T00:00:00,8,POR,Portland,20-26,37,25,39,20,0,0,0,0,0,0,0,0,0,0,121,0.505,0.773,0.323,26,42,8,0021500662,1610612757,POR,Portland,Mason Plumlee,C,,25:15,5.0,0.0,2.0,6.0,6.0,9.0,0.0,20.0,0.0,0.0,2.0,5.0
0021500662,1610612757,POR,Portland,203468,CJ McCollum,G,,33:25,126.6,104.2,22.4,0.15,1.5,11.5,0.0,0.143,0.064,7.7,0.667,0.667,0.307,99.77,0.16,2016-01-23T00:00:00,8,POR,Portland,20-26,37,25,39,20,0,0,0,0,0,0,0,0,0,0,121,0.505,0.773,0.323,26,42,8,0021500662,1610612757,POR,Portland,CJ McCollum,G,,33:25,2.0,3.0,0.0,8.0,12.0,10.0,0.0,20.0,0.0,3.0,3.0,1.0
0021500662,1610612757,POR,Portland,203081,Damian Lillard,G,,29:29,139.0,97.6,41.4,0.263,0.0,19.4,0.0,0.045,0.022,0.0,0.868,0.867,0.298,101.0,0.278,2016-01-23T00:00:00,8,POR,Portland,20-26,37,25,39,20,0,0,0,0,0,0,0,0,0,0,121,0.505,0.773,0.323,26,42,8,0021500662,1610612757,POR,Portland,Damian Lillard,G,,29:29,9.0,3.0,0.0,8.0,6.0,9.0,0.0,22.0,0.0,0.0,0.0,4.0
0021500662,1610612757,POR,Portland,201945,Gerald Henderson,,,22:48,113.1,102.9,10.3,0.118,0.0,14.4,0.087,0.2,0.132,0.0,0.364,0.421,0.216,94.53,0.115,2016-01-23T00:00:00,8,POR,Portland,20-26,37,25,39,20,0,0,0,0,0,0,0,0,0,0,121,0.505,0.773,0.323,26,42,8,0021500662,1610612757,POR,Portland,Gerald Henderson,,,22:48,0.0,4.0,0.0,2.0,9.0,4.0,0.0,14.0,0.0,1.0,0.0,3.0
0021500662,1610612757,POR,Portland,203459,Allen Crabbe,,,27:27,109.1,107.5,1.6,0.045,1.0,7.1,0.038,0.056,0.045,7.1,0.25,0.25,0.203,93.66,-0.059,2016-01-23T00:00:00,8,POR,Portland,20-26,37,25,39,20,0,0,0,0,0,0,0,0,0,0,121,0.505,0.773,0.323,26,42,8,0021500662,1610612757,POR,Portland,Allen Crabbe,,,27:27,2.0,2.0,0.0,4.0,12.0,7.0,0.0,20.0,0.0,0.0,5.0,1.0
0021500662,1610612757,POR,Portland,202334,Ed Davis,,,20:29,104.8,105.6,-0.8,0.063,0.0,17.4,0.182,0.308,0.229,0.0,0.333,0.525,0.095,94.67,0.139,2016-01-23T00:00:00,8,POR,Portland,20-26,37,25,39,20,0,0,0,0,0,0,0,0,0,0,121,0.505,0.773,0.323,26,42,8,0021500662,1610612757,POR,Portland,Ed Davis,,,20:29,0.0,4.0,0.0,2.0,9.0,6.0,0.0,14.0,1.0,2.0,4.0,2.0
0021500662,1610612757,POR,Portland,203086,Meyers Leonard,,,21:06,102.1,105.3,-3.2,0.176,3.0,28.7,0.136,0.143,0.139,9.6,0.167,0.155,0.14,95.45,0.008,2016-01-23T00:00:00,8,POR,Portland,20-26,37,25,39,20,0,0,0,0,0,0,0,0,0,0,121,0.505,0.773,0.323,26,42,8,0021500662,1610612757,POR,Portland,Meyers Leonard,,,21:06,2.0,2.0,2.0,2.0,9.0,7.0,0.0,12.0,0.0,0.0,1.0,0.0
0021500662,1610612757,POR,Portland,2549,Chris Kaman,,,3:43,101.7,133.1,-31.4,0.5,0.0,33.3,0.0,0.0,0.0,0.0,0.5,0.5,0.225,88.08,0.154,2016-01-23T00:00:00,8,POR,Portland,20-26,37,25,39,20,0,0,0,0,0,0,0,0,0,0,121,0.505,0.773,0.323,26,42,8,0021500662,1610612757,POR,Portland,Chris Kaman,,,3:43,0.0,0.0,0.0,0.0,2.0,0.0,2.0,4.0,0.0,0.0,0.0,0.0
0021500662,1610612757,POR,Portland,204025,Tim Frazier,,,3:43,101.7,133.1,-31.4,0.333,0.0,34.7,0.333,0.0,0.2,0.0,0.0,0.266,0.212,88.08,0.038,2016-01-23T00:00:00,8,POR,Portland,20-26,37,25,39,20,0,0,0,0,0,0,0,0,0,0,121,0.505,0.773,0.323,26,42,8,0021500662,1610612757,POR,Portland,Tim Frazier,,,3:43,0.0,1.0,0.0,0.0,2.0,0.0,2.0,4.0,0.0,0.0,0.0,2.0
0021500662,1610612757,POR,Portland,1626192,Pat Connaughton,,,3:43,101.7,133.1,-31.4,0.5,0.0,50.0,0.0,0.0,0.0,0.0,1.0,1.0,0.113,88.08,0.154,2016-01-23T00:00:00,8,POR,Portland,20-26,37,25,39,20,0,0,0,0,0,0,0,0,0,0,121,0.505,0.773,0.323,26,42,8,0021500662,1610612757,POR,Portland,Pat Connaughton,,,3:43,0.0,0.0,0.0,0.0,2.0,0.0,2.0,4.0,0.0,0.0,1.0,0.0
0021500662,1610612757,POR,Portland,203090,Maurice Harkless,,,1:56,77.3,154.6,-77.3,0.0,0.0,0.0,0.0,1.0,0.333,100.0,0.0,0.0,0.17,96.33,0.0,2016-01-23T00:00:00,8,POR,Portland,20-26,37,25,39,20,0,0,0,0,0,0,0,0,0,0,121,0.505,0.773,0.323,26,42,8,0021500662,1610612757,POR,Portland,Maurice Harkless,,,1:56,0.0,0.0,0.0,0.0,2.0,0.0,2.0,2.0,0.0,0.0,0.0,0.0
