GAME_ID_x,TEAM_ID_x,TEAM_ABBREVIATION_x,TEAM_CITY_x,PLAYER_ID,PLAYER_NAME_x,START_POSITION_x,COMMENT_x,MIN_x,OFF_RATING,DEF_RATING,NET_RATING,AST_PCT,AST_TOV,AST_RATIO,OREB_PCT,DREB_PCT,REB_PCT,TM_TOV_PCT,EFG_PCT,TS_PCT,USG_PCT,PACE,PIE,GAME_DATE_EST,GAME_SEQUENCE,TEAM_ABBREVIATION_y,TEAM_CITY_NAME,TEAM_WINS_LOSSES,PTS_QTR1,PTS_QTR2,PTS_QTR3,PTS_QTR4,PTS_OT1,PTS_OT2,PTS_OT3,PTS_OT4,PTS_OT5,PTS_OT6,PTS_OT7,PTS_OT8,PTS_OT9,PTS_OT10,PTS,FG_PCT,FT_PCT,FG3_PCT,AST,REB,TOV,GAME_ID_y,TEAM_ID_y,TEAM_ABBREVIATION,TEAM_CITY_y,PLAYER_NAME_y,START_POSITION_y,COMMENT_y,MIN_y,PTS_OFF_TOV,PTS_2ND_CHANCE,PTS_FB,PTS_PAINT,OPP_PTS_OFF_TOV,OPP_PTS_2ND_CHANCE,OPP_PTS_FB,OPP_PTS_PAINT,BLK,BLKA,PF,PFD
0021500664,1610612760,OKC,Oklahoma City,201142,Kevin Durant,F,,40:58,102.9,118.9,-16.1,0.28,1.4,18.2,0.0,0.217,0.118,13.0,0.545,0.606,0.316,100.01,0.183,2016-01-24T00:00:00,4,OKC,Oklahoma City,33-13,28,24,25,29,0,0,0,0,0,0,0,0,0,0,106,0.462,0.632,0.308,20,46,14,0021500664,1610612760,OKC,Oklahoma City,Kevin Durant,F,,40:58,3.0,6.0,9.0,14.0,17.0,25.0,7.0,52.0,1.0,1.0,3.0,7.0
0021500664,1610612760,OKC,Oklahoma City,201586,Serge Ibaka,F,,31:14,100.2,117.7,-17.5,0.045,0.5,7.7,0.121,0.167,0.143,15.4,0.5,0.5,0.154,96.82,0.101,2016-01-24T00:00:00,4,OKC,Oklahoma City,33-13,28,24,25,29,0,0,0,0,0,0,0,0,0,0,106,0.462,0.632,0.308,20,46,14,0021500664,1610612760,OKC,Oklahoma City,Serge Ibaka,F,,31:14,0.0,6.0,0.0,8.0,14.0,17.0,3.0,40.0,1.0,0.0,1.0,1.0
0021500664,1610612760,OKC,Oklahoma City,2555,Nick Collison,C,,11:31,114.2,137.9,-23.7,0.1,0.0,34.7,0.429,0.091,0.222,0.0,1.0,0.798,0.07,95.78,0.038,2016-01-24T00:00:00,4,OKC,Oklahoma City,33-13,28,24,25,29,0,0,0,0,0,0,0,0,0,0,106,0.462,0.632,0.308,20,46,14,0021500664,1610612760,OKC,Oklahoma City,Nick Collison,C,,11:31,1.0,1.0,0.0,0.0,4.0,11.0,0.0,18.0,1.0,0.0,4.0,1.0
0021500664,1610612760,OKC,Oklahoma City,203460,Andre Roberson,G,,15:26,110.3,129.1,-18.8,0.067,1.0,50.0,0.0,0.0,0.0,50.0,0.0,0.0,0.029,102.57,0.0,2016-01-24T00:00:00,4,OKC,Oklahoma City,33-13,28,24,25,29,0,0,0,0,0,0,0,0,0,0,106,0.462,0.632,0.308,20,46,14,0021500664,1610612760,OKC,Oklahoma City,Andre Roberson,G,,15:26,0.0,0.0,0.0,0.0,6.0,14.0,2.0,26.0,0.0,0.0,0.0,0.0
0021500664,1610612760,OKC,Oklahoma City,201566,Russell Westbrook,G,,39:41,99.3,123.7,-24.4,0.304,2.33,17.9,0.051,0.209,0.134,7.7,0.463,0.462,0.337,98.48,0.148,2016-01-24T00:00:00,4,OKC,Oklahoma City,33-13,28,24,25,29,0,0,0,0,0,0,0,0,0,0,106,0.462,0.632,0.308,20,46,14,0021500664,1610612760,OKC,Oklahoma City,Russell Westbrook,G,,39:41,0.0,0.0,6.0,20.0,15.0,20.0,7.0,48.0,0.0,3.0,1.0,5.0
0021500664,1610612760,OKC,Oklahoma City,203079,Dion Waiters,,,32:45,101.7,107.8,-6.1,0.037,1.0,7.8,0.0,0.0,0.0,7.8,0.4,0.414,0.151,100.13,0.008,2016-01-24T00:00:00,4,OKC,Oklahoma City,33-13,28,24,25,29,0,0,0,0,0,0,0,0,0,0,106,0.462,0.632,0.308,20,46,14,0021500664,1610612760,OKC,Oklahoma City,Dion Waiters,,,32:45,3.0,0.0,2.0,2.0,15.0,11.0,6.0,36.0,0.0,0.0,2.0,1.0
0021500664,1610612760,OKC,Oklahoma City,202683,Enes Kanter,,,30:27,112.8,119.7,-6.9,0.0,0.0,0.0,0.097,0.207,0.15,14.3,0.333,0.333,0.188,100.41,0.011,2016-01-24T00:00:00,4,OKC,Oklahoma City,33-13,28,24,25,29,0,0,0,0,0,0,0,0,0,0,106,0.462,0.632,0.308,20,46,14,0021500664,1610612760,OKC,Oklahoma City,Enes Kanter,,,30:27,0.0,0.0,0.0,8.0,13.0,10.0,10.0,30.0,0.0,3.0,4.0,1.0
0021500664,1610612760,OKC,Oklahoma City,1626166,Cameron Payne,,,12:43,127.1,112.6,14.4,0.222,0.0,28.6,0.0,0.0,0.0,0.0,1.0,1.0,0.168,102.44,0.185,2016-01-24T00:00:00,4,OKC,Oklahoma City,33-13,28,24,25,29,0,0,0,0,0,0,0,0,0,0,106,0.462,0.632,0.308,20,46,14,0021500664,1610612760,OKC,Oklahoma City,Cameron Payne,,,12:43,2.0,0.0,2.0,4.0,11.0,5.0,5.0,12.0,1.0,0.0,1.0,1.0
0021500664,1610612760,OKC,Oklahoma City,202713,Kyle Singler,,,20:30,92.0,116.4,-24.5,0.0,0.0,0.0,0.095,0.0,0.051,0.0,0.583,0.583,0.124,98.9,0.05,2016-01-24T00:00:00,4,OKC,Oklahoma City,33-13,28,24,25,29,0,0,0,0,0,0,0,0,0,0,106,0.462,0.632,0.308,20,46,14,0021500664,1610612760,OKC,Oklahoma City,Kyle Singler,,,20:30,2.0,4.0,0.0,4.0,8.0,7.0,5.0,24.0,1.0,0.0,2.0,0.0
0021500664,1610612760,OKC,Oklahoma City,201627,Anthony Morrow,,,4:45,110.3,85.9,24.4,0.0,0.0,0.0,0.0,0.111,0.077,0.0,0.0,0.0,0.0,113.79,0.0,2016-01-24T00:00:00,4,OKC,Oklahoma City,33-13,28,24,25,29,0,0,0,0,0,0,0,0,0,0,106,0.462,0.632,0.308,20,46,14,0021500664,1610612760,OKC,Oklahoma City,Anthony Morrow,,,4:45,0.0,0.0,0.0,0.0,2.0,5.0,5.0,4.0,0.0,0.0,1.0,0.0
0021500664,1610612760,OKC,Oklahoma City,203500,Steven Adams,,DND - Right Elbow Sprain                ,,,,,,,0.0,,,,,,,0.0,,,2016-01-24T00:00:00,4,OKC,Oklahoma City,33-13,28,24,25,29,0,0,0,0,0,0,0,0,0,0,106,0.462,0.632,0.308,20,46,14,0021500664,1610612760,OKC,Oklahoma City,Steven Adams,,DND - Right Elbow Sprain                ,,,,,,,,,,,,,
0021500664,1610612760,OKC,Oklahoma City,201571,D.J. Augustin,,DNP - Coach's Decision                  ,,,,,,,0.0,,,,,,,0.0,,,2016-01-24T00:00:00,4,OKC,Oklahoma City,33-13,28,24,25,29,0,0,0,0,0,0,0,0,0,0,106,0.462,0.632,0.308,20,46,14,0021500664,1610612760,OKC,Oklahoma City,D.J. Augustin,,DNP - Coach's Decision                  ,,,,,,,,,,,,,
0021500664,1610612760,OKC,Oklahoma City,200779,Steve Novak,,DNP - Coach's Decision                  ,,,,,,,0.0,,,,,,,0.0,,,2016-01-24T00:00:00,4,OKC,Oklahoma City,33-13,28,24,25,29,0,0,0,0,0,0,0,0,0,0,106,0.462,0.632,0.308,20,46,14,0021500664,1610612760,OKC,Oklahoma City,Steve Novak,,DNP - Coach's Decision                  ,,,,,,,,,,,,,
0021500664,1610612751,BKN,Brooklyn,2207,Joe Johnson,F,,35:16,120.5,107.2,13.3,0.222,3.0,26.2,0.0,0.0,0.0,8.7,0.393,0.437,0.202,99.33,0.041,2016-01-24T00:00:00,4,BKN,Brooklyn,12-33,30,30,25,31,0,0,0,0,0,0,0,0,0,0,116,0.479,0.72,0.471,24,49,11,0021500664,1610612751,BKN,Brooklyn,Joe Johnson,F,,35:16,2.0,0.0,0.0,8.0,6.0,13.0,15.0,48.0,0.0,0.0,4.0,3.0
0021500664,1610612751,BKN,Brooklyn,201152,Thaddeus Young,F,,39:01,116.3,106.5,9.7,0.107,3.0,14.3,0.156,0.206,0.177,4.8,0.412,0.412,0.187,98.32,0.118,2016-01-24T00:00:00,4,BKN,Brooklyn,12-33,30,30,25,31,0,0,0,0,0,0,0,0,0,0,116,0.479,0.72,0.471,24,49,11,0021500664,1610612751,BKN,Brooklyn,Thaddeus Young,F,,39:01,4.0,6.0,0.0,12.0,6.0,15.0,17.0,50.0,1.0,1.0,0.0,0.0
0021500664,1610612751,BKN,Brooklyn,201572,Brook Lopez,C,,32:28,132.5,103.7,28.8,0.095,2.0,7.6,0.167,0.167,0.167,3.8,0.579,0.662,0.317,96.48,0.21,2016-01-24T00:00:00,4,BKN,Brooklyn,12-33,30,30,25,31,0,0,0,0,0,0,0,0,0,0,116,0.479,0.72,0.471,24,49,11,0021500664,1610612751,BKN,Brooklyn,Brook Lopez,C,,32:28,4.0,6.0,0.0,20.0,3.0,9.0,10.0,44.0,3.0,1.0,4.0,8.0
0021500664,1610612751,BKN,Brooklyn,201961,Wayne Ellington,G,,27:20,117.3,92.3,24.9,0.182,0.0,26.7,0.03,0.238,0.111,0.0,0.409,0.409,0.159,99.82,0.099,2016-01-24T00:00:00,4,BKN,Brooklyn,12-33,30,30,25,31,0,0,0,0,0,0,0,0,0,0,116,0.479,0.72,0.471,24,49,11,0021500664,1610612751,BKN,Brooklyn,Wayne Ellington,G,,27:20,2.0,4.0,0.0,2.0,1.0,7.0,8.0,32.0,0.0,0.0,2.0,1.0
0021500664,1610612751,BKN,Brooklyn,202388,Donald Sloan,G,,27:28,118.4,100.5,17.9,0.091,2.0,14.9,0.033,0.179,0.103,7.5,0.5,0.529,0.176,98.42,0.087,2016-01-24T00:00:00,4,BKN,Brooklyn,12-33,30,30,25,31,0,0,0,0,0,0,0,0,0,0,116,0.479,0.72,0.471,24,49,11,0021500664,1610612751,BKN,Brooklyn,Donald Sloan,G,,27:28,0.0,4.0,3.0,0.0,3.0,9.0,14.0,40.0,0.0,1.0,2.0,5.0
0021500664,1610612751,BKN,Brooklyn,203186,Willie Reed,,,15:11,90.7,109.3,-18.6,0.0,0.0,0.0,0.105,0.333,0.194,17.0,0.5,0.512,0.15,107.23,0.074,2016-01-24T00:00:00,4,BKN,Brooklyn,12-33,30,30,25,31,0,0,0,0,0,0,0,0,0,0,116,0.479,0.72,0.471,24,49,11,0021500664,1610612751,BKN,Brooklyn,Willie Reed,,,15:11,0.0,2.0,1.0,4.0,8.0,8.0,9.0,16.0,1.0,0.0,2.0,1.0
0021500664,1610612751,BKN,Brooklyn,202711,Bojan Bogdanovic,,,28:44,123.7,113.4,10.3,0.15,1.5,17.6,0.069,0.036,0.053,11.8,0.75,0.75,0.207,98.07,0.12,2016-01-24T00:00:00,4,BKN,Brooklyn,12-33,30,30,25,31,0,0,0,0,0,0,0,0,0,0,116,0.479,0.72,0.471,24,49,11,0021500664,1610612751,BKN,Brooklyn,Bojan Bogdanovic,,,28:44,5.0,3.0,2.0,4.0,10.0,12.0,13.0,34.0,0.0,1.0,1.0,0.0
0021500664,1610612751,BKN,Brooklyn,203499,Shane Larkin,,,20:54,116.0,107.5,8.5,0.235,0.0,35.0,0.0,0.15,0.073,0.0,0.571,0.605,0.143,101.77,0.194,2016-01-24T00:00:00,4,BKN,Brooklyn,12-33,30,30,25,31,0,0,0,0,0,0,0,0,0,0,116,0.479,0.72,0.471,24,49,11,0021500664,1610612751,BKN,Brooklyn,Shane Larkin,,,20:54,2.0,0.0,2.0,6.0,8.0,8.0,5.0,20.0,2.0,1.0,0.0,1.0
0021500664,1610612751,BKN,Brooklyn,203508,Sergey Karasev,,,5:41,100.9,93.2,7.8,0.0,0.0,0.0,0.0,0.125,0.1,33.3,0.5,0.5,0.233,108.78,0.05,2016-01-24T00:00:00,4,BKN,Brooklyn,12-33,30,30,25,31,0,0,0,0,0,0,0,0,0,0,116,0.479,0.72,0.471,24,49,11,0021500664,1610612751,BKN,Brooklyn,Sergey Karasev,,,5:41,0.0,0.0,0.0,2.0,5.0,2.0,2.0,8.0,0.0,0.0,0.0,0.0
0021500664,1610612751,BKN,Brooklyn,200745,Andrea Bargnani,,,7:57,124.4,102.0,22.4,0.0,0.0,0.0,0.0,0.0,0.0,50.0,1.0,1.0,0.224,104.21,0.0,2016-01-24T00:00:00,4,BKN,Brooklyn,12-33,30,30,25,31,0,0,0,0,0,0,0,0,0,0,116,0.479,0.72,0.471,24,49,11,0021500664,1610612751,BKN,Brooklyn,Andrea Bargnani,,,7:57,2.0,0.0,2.0,0.0,5.0,2.0,2.0,8.0,0.0,0.0,2.0,0.0
0021500664,1610612751,BKN,Brooklyn,203900,Markel Brown,,DNP - Coach's Decision                  ,,,,,,,0.0,,,,,,,0.0,,,2016-01-24T00:00:00,4,BKN,Brooklyn,12-33,30,30,25,31,0,0,0,0,0,0,0,0,0,0,116,0.479,0.72,0.471,24,49,11,0021500664,1610612751,BKN,Brooklyn,Markel Brown,,DNP - Coach's Decision                  ,,,,,,,,,,,,,
0021500664,1610612751,BKN,Brooklyn,203080,Thomas Robinson,,DNP - Coach's Decision                  ,,,,,,,0.0,,,,,,,0.0,,,2016-01-24T00:00:00,4,BKN,Brooklyn,12-33,30,30,25,31,0,0,0,0,0,0,0,0,0,0,116,0.479,0.72,0.471,24,49,11,0021500664,1610612751,BKN,Brooklyn,Thomas Robinson,,DNP - Coach's Decision                  ,,,,,,,,,,,,,
