GAME_ID_x,TEAM_ID_x,TEAM_ABBREVIATION_x,TEAM_CITY_x,PLAYER_ID,PLAYER_NAME_x,START_POSITION_x,COMMENT_x,MIN_x,OFF_RATING,DEF_RATING,NET_RATING,AST_PCT,AST_TOV,AST_RATIO,OREB_PCT,DREB_PCT,REB_PCT,TM_TOV_PCT,EFG_PCT,TS_PCT,USG_PCT,PACE,PIE,GAME_DATE_EST,GAME_SEQUENCE,TEAM_ABBREVIATION_y,TEAM_CITY_NAME,TEAM_WINS_LOSSES,PTS_QTR1,PTS_QTR2,PTS_QTR3,PTS_QTR4,PTS_OT1,PTS_OT2,PTS_OT3,PTS_OT4,PTS_OT5,PTS_OT6,PTS_OT7,PTS_OT8,PTS_OT9,PTS_OT10,PTS,FG_PCT,FT_PCT,FG3_PCT,AST,REB,TOV,GAME_ID_y,TEAM_ID_y,TEAM_ABBREVIATION,TEAM_CITY_y,PLAYER_NAME_y,START_POSITION_y,COMMENT_y,MIN_y,PTS_OFF_TOV,PTS_2ND_CHANCE,PTS_FB,PTS_PAINT,OPP_PTS_OFF_TOV,OPP_PTS_2ND_CHANCE,OPP_PTS_FB,OPP_PTS_PAINT,BLK,BLKA,PF,PFD
0021500669,1610612748,MIA,Miami,2736,Luol Deng,F,,31:13,84.4,90.1,-5.6,0.0,0.0,0.0,0.03,0.097,0.063,9.1,0.45,0.45,0.168,95.09,0.06,2016-01-25T00:00:00,3,MIA,Miami,24-21,18,31,12,28,0,0,0,0,0,0,0,0,0,0,89,0.457,0.706,0.214,21,46,11,0021500669,1610612748,MIA,Miami,Luol Deng,F,,31:13,0.0,4.0,2.0,6.0,13.0,2.0,6.0,24.0,1.0,0.0,1.0,2.0
0021500669,1610612748,MIA,Miami,2547,Chris Bosh,F,,35:51,89.5,94.4,-4.9,0.167,0.0,14.5,0.029,0.15,0.095,0.0,0.531,0.507,0.239,93.88,0.123,2016-01-25T00:00:00,3,MIA,Miami,24-21,18,31,12,28,0,0,0,0,0,0,0,0,0,0,89,0.457,0.706,0.214,21,46,11,0021500669,1610612748,MIA,Miami,Chris Bosh,F,,35:51,2.0,0.0,2.0,6.0,8.0,8.0,4.0,30.0,0.0,0.0,3.0,3.0
0021500669,1610612748,MIA,Miami,2405,Amar'e Stoudemire,C,,25:36,85.9,90.7,-4.8,0.133,2.0,18.4,0.071,0.348,0.196,9.2,0.429,0.508,0.158,93.49,0.201,2016-01-25T00:00:00,3,MIA,Miami,24-21,18,31,12,28,0,0,0,0,0,0,0,0,0,0,89,0.457,0.706,0.214,21,46,11,0021500669,1610612748,MIA,Miami,Amar'e Stoudemire,C,,25:36,0.0,2.0,0.0,2.0,13.0,2.0,4.0,18.0,1.0,2.0,1.0,3.0
0021500669,1610612748,MIA,Miami,2548,Dwyane Wade,G,,34:01,92.0,73.7,18.3,0.357,5.0,16.4,0.029,0.154,0.096,3.3,0.524,0.571,0.347,95.27,0.301,2016-01-25T00:00:00,3,MIA,Miami,24-21,18,31,12,28,0,0,0,0,0,0,0,0,0,0,89,0.457,0.706,0.214,21,46,11,0021500669,1610612748,MIA,Miami,Dwyane Wade,G,,34:01,5.0,2.0,2.0,16.0,11.0,6.0,6.0,22.0,1.0,0.0,2.0,6.0
0021500669,1610612748,MIA,Miami,2757,Beno Udrih,G,,20:36,69.7,107.3,-37.6,0.1,0.33,10.0,0.0,0.125,0.048,30.0,0.25,0.25,0.206,91.85,-0.031,2016-01-25T00:00:00,3,MIA,Miami,24-21,18,31,12,28,0,0,0,0,0,0,0,0,0,0,89,0.457,0.706,0.214,21,46,11,0021500669,1610612748,MIA,Miami,Beno Udrih,G,,20:36,0.0,0.0,0.0,0.0,8.0,0.0,4.0,20.0,0.0,0.0,2.0,0.0
0021500669,1610612748,MIA,Miami,101123,Gerald Green,,,24:56,101.8,97.8,4.0,0.111,2.0,13.0,0.0,0.103,0.065,6.5,0.333,0.362,0.263,95.45,0.047,2016-01-25T00:00:00,3,MIA,Miami,24-21,18,31,12,28,0,0,0,0,0,0,0,0,0,0,89,0.457,0.706,0.214,21,46,11,0021500669,1610612748,MIA,Miami,Gerald Green,,,24:56,3.0,0.0,5.0,2.0,6.0,10.0,8.0,30.0,0.0,1.0,1.0,1.0
0021500669,1610612748,MIA,Miami,204020,Tyler Johnson,,,27:24,111.3,75.6,35.6,0.13,1.0,27.3,0.0,0.083,0.057,27.3,0.6,0.6,0.141,96.28,0.071,2016-01-25T00:00:00,3,MIA,Miami,24-21,18,31,12,28,0,0,0,0,0,0,0,0,0,0,89,0.457,0.706,0.214,21,46,11,0021500669,1610612748,MIA,Miami,Tyler Johnson,,,27:24,2.0,0.0,0.0,4.0,7.0,10.0,4.0,20.0,0.0,0.0,1.0,1.0
0021500669,1610612748,MIA,Miami,2617,Udonis Haslem,,,5:39,108.3,127.3,-18.9,0.167,0.0,100.0,0.0,0.167,0.111,0.0,0.0,0.0,0.0,97.7,0.068,2016-01-25T00:00:00,3,MIA,Miami,24-21,18,31,12,28,0,0,0,0,0,0,0,0,0,0,89,0.457,0.706,0.214,21,46,11,0021500669,1610612748,MIA,Miami,Udonis Haslem,,,5:39,0.0,0.0,0.0,0.0,0.0,2.0,0.0,8.0,0.0,0.0,0.0,1.0
0021500669,1610612748,MIA,Miami,1626159,Justise Winslow,,,34:44,108.0,84.0,24.0,0.148,4.0,40.5,0.043,0.2,0.143,10.1,0.75,0.82,0.084,92.74,0.146,2016-01-25T00:00:00,3,MIA,Miami,24-21,18,31,12,28,0,0,0,0,0,0,0,0,0,0,89,0.457,0.706,0.214,21,46,11,0021500669,1610612748,MIA,Miami,Justise Winslow,,,34:44,2.0,0.0,2.0,4.0,9.0,10.0,4.0,28.0,0.0,0.0,4.0,1.0
0021500669,1610612748,MIA,Miami,201609,Goran Dragic,,DNP - Coach's Decision                  ,,,,,,,0.0,,,,,,,0.0,,,2016-01-25T00:00:00,3,MIA,Miami,24-21,18,31,12,28,0,0,0,0,0,0,0,0,0,0,89,0.457,0.706,0.214,21,46,11,0021500669,1610612748,MIA,Miami,Goran Dragic,,DNP - Coach's Decision                  ,,,,,,,,,,,,,
0021500669,1610612748,MIA,Miami,1626196,Josh Richardson,,DNP - Coach's Decision                  ,,,,,,,0.0,,,,,,,0.0,,,2016-01-25T00:00:00,3,MIA,Miami,24-21,18,31,12,28,0,0,0,0,0,0,0,0,0,0,89,0.457,0.706,0.214,21,46,11,0021500669,1610612748,MIA,Miami,Josh Richardson,,DNP - Coach's Decision                  ,,,,,,,,,,,,,
0021500669,1610612748,MIA,Miami,203950,Jarnell Stokes,,DNP - Coach's Decision                  ,,,,,,,0.0,,,,,,,0.0,,,2016-01-25T00:00:00,3,MIA,Miami,24-21,18,31,12,28,0,0,0,0,0,0,0,0,0,0,89,0.457,0.706,0.214,21,46,11,0021500669,1610612748,MIA,Miami,Jarnell Stokes,,DNP - Coach's Decision                  ,,,,,,,,,,,,,
0021500669,1610612741,CHI,Chicago,203503,Tony Snell,F,,28:19,87.4,84.6,2.8,0.111,2.0,13.4,0.0,0.138,0.062,6.7,0.182,0.253,0.198,93.64,-0.013,2016-01-25T00:00:00,3,CHI,Chicago,25-19,23,24,21,16,0,0,0,0,0,0,0,0,0,0,84,0.398,0.75,0.278,18,49,13,0021500669,1610612741,CHI,Chicago,Tony Snell,F,,28:19,0.0,0.0,0.0,0.0,2.0,4.0,2.0,26.0,0.0,0.0,3.0,1.0
0021500669,1610612741,CHI,Chicago,201959,Taj Gibson,F,,29:57,82.6,93.0,-10.4,0.0,0.0,0.0,0.057,0.172,0.109,43.6,0.667,0.644,0.106,92.21,0.043,2016-01-25T00:00:00,3,CHI,Chicago,25-19,23,24,21,16,0,0,0,0,0,0,0,0,0,0,84,0.398,0.75,0.278,18,49,13,0021500669,1610612741,CHI,Chicago,Taj Gibson,F,,29:57,0.0,0.0,0.0,4.0,9.0,6.0,7.0,22.0,0.0,0.0,3.0,2.0
0021500669,1610612741,CHI,Chicago,2200,Pau Gasol,C,,37:08,91.4,80.5,10.9,0.105,1.0,8.7,0.108,0.351,0.23,8.7,0.5,0.503,0.26,94.72,0.214,2016-01-25T00:00:00,3,CHI,Chicago,25-19,23,24,21,16,0,0,0,0,0,0,0,0,0,0,84,0.398,0.75,0.278,18,49,13,0021500669,1610612741,CHI,Chicago,Pau Gasol,C,,37:08,4.0,2.0,0.0,10.0,7.0,6.0,8.0,20.0,2.0,1.0,1.0,3.0
0021500669,1610612741,CHI,Chicago,202710,Jimmy Butler,G,,40:05,85.6,85.4,0.2,0.174,2.0,18.3,0.024,0.128,0.075,9.1,0.367,0.409,0.207,94.53,0.083,2016-01-25T00:00:00,3,CHI,Chicago,25-19,23,24,21,16,0,0,0,0,0,0,0,0,0,0,84,0.398,0.75,0.278,18,49,13,0021500669,1610612741,CHI,Chicago,Jimmy Butler,G,,40:05,5.0,2.0,0.0,4.0,12.0,8.0,13.0,26.0,0.0,1.0,1.0,4.0
0021500669,1610612741,CHI,Chicago,201565,Derrick Rose,G,,13:01,85.0,93.6,-8.6,0.125,0.0,14.3,0.0,0.0,0.0,0.0,0.333,0.333,0.201,94.99,0.023,2016-01-25T00:00:00,3,CHI,Chicago,25-19,23,24,21,16,0,0,0,0,0,0,0,0,0,0,84,0.398,0.75,0.278,18,49,13,0021500669,1610612741,CHI,Chicago,Derrick Rose,G,,13:01,0.0,0.0,4.0,4.0,4.0,2.0,4.0,12.0,0.0,0.0,0.0,0.0
0021500669,1610612741,CHI,Chicago,202703,Nikola Mirotic,,,21:54,92.6,100.1,-7.5,0.182,1.0,12.3,0.12,0.313,0.195,12.3,0.591,0.609,0.274,96.65,0.258,2016-01-25T00:00:00,3,CHI,Chicago,25-19,23,24,21,16,0,0,0,0,0,0,0,0,0,0,84,0.398,0.75,0.278,18,49,13,0021500669,1610612741,CHI,Chicago,Nikola Mirotic,,,21:54,2.0,4.0,2.0,10.0,8.0,2.0,9.0,26.0,1.0,0.0,0.0,2.0
0021500669,1610612741,CHI,Chicago,203926,Doug McDermott,,,30:05,98.2,107.0,-8.8,0.048,0.5,7.7,0.036,0.095,0.061,15.4,0.35,0.35,0.179,94.87,-0.005,2016-01-25T00:00:00,3,CHI,Chicago,25-19,23,24,21,16,0,0,0,0,0,0,0,0,0,0,84,0.398,0.75,0.278,18,49,13,0021500669,1610612741,CHI,Chicago,Doug McDermott,,,30:05,2.0,0.0,2.0,2.0,14.0,4.0,11.0,28.0,0.0,0.0,2.0,0.0
0021500669,1610612741,CHI,Chicago,201166,Aaron Brooks,,,32:30,88.2,101.6,-13.5,0.333,6.0,30.9,0.0,0.08,0.033,5.1,0.5,0.523,0.191,94.14,0.11,2016-01-25T00:00:00,3,CHI,Chicago,25-19,23,24,21,16,0,0,0,0,0,0,0,0,0,0,84,0.398,0.75,0.278,18,49,13,0021500669,1610612741,CHI,Chicago,Aaron Brooks,,,32:30,0.0,0.0,0.0,4.0,10.0,6.0,9.0,28.0,0.0,1.0,4.0,3.0
0021500669,1610612741,CHI,Chicago,1626171,Bobby Portis,,,7:02,92.9,152.6,-59.8,0.0,0.0,0.0,0.143,0.25,0.182,0.0,0.5,0.5,0.133,94.73,-0.052,2016-01-25T00:00:00,3,CHI,Chicago,25-19,23,24,21,16,0,0,0,0,0,0,0,0,0,0,84,0.398,0.75,0.278,18,49,13,0021500669,1610612741,CHI,Chicago,Bobby Portis,,,7:02,2.0,2.0,0.0,2.0,4.0,2.0,2.0,12.0,0.0,0.0,4.0,0.0
0021500669,1610612741,CHI,Chicago,203946,Cameron Bairstow,,DNP - Coach's Decision                  ,,,,,,,0.0,,,,,,,0.0,,,2016-01-25T00:00:00,3,CHI,Chicago,25-19,23,24,21,16,0,0,0,0,0,0,0,0,0,0,84,0.398,0.75,0.278,18,49,13,0021500669,1610612741,CHI,Chicago,Cameron Bairstow,,DNP - Coach's Decision                  ,,,,,,,,,,,,,
0021500669,1610612741,CHI,Chicago,1626245,Cristiano Felicio,,DNP - Coach's Decision                  ,,,,,,,0.0,,,,,,,0.0,,,2016-01-25T00:00:00,3,CHI,Chicago,25-19,23,24,21,16,0,0,0,0,0,0,0,0,0,0,84,0.398,0.75,0.278,18,49,13,0021500669,1610612741,CHI,Chicago,Cristiano Felicio,,DNP - Coach's Decision                  ,,,,,,,,,,,,,
0021500669,1610612741,CHI,Chicago,2550,Kirk Hinrich,,DNP - Coach's Decision                  ,,,,,,,0.0,,,,,,,0.0,,,2016-01-25T00:00:00,3,CHI,Chicago,25-19,23,24,21,16,0,0,0,0,0,0,0,0,0,0,84,0.398,0.75,0.278,18,49,13,0021500669,1610612741,CHI,Chicago,Kirk Hinrich,,DNP - Coach's Decision                  ,,,,,,,,,,,,,
0021500669,1610612741,CHI,Chicago,202734,E'Twaun Moore,,DNP - Coach's Decision                  ,,,,,,,0.0,,,,,,,0.0,,,2016-01-25T00:00:00,3,CHI,Chicago,25-19,23,24,21,16,0,0,0,0,0,0,0,0,0,0,84,0.398,0.75,0.278,18,49,13,0021500669,1610612741,CHI,Chicago,E'Twaun Moore,,DNP - Coach's Decision                  ,,,,,,,,,,,,,
