GAME_ID_x,TEAM_ID_x,TEAM_ABBREVIATION_x,TEAM_CITY_x,PLAYER_ID,PLAYER_NAME_x,START_POSITION_x,COMMENT_x,MIN_x,OFF_RATING,DEF_RATING,NET_RATING,AST_PCT,AST_TOV,AST_RATIO,OREB_PCT,DREB_PCT,REB_PCT,TM_TOV_PCT,EFG_PCT,TS_PCT,USG_PCT,PACE,PIE,GAME_DATE_EST,GAME_SEQUENCE,TEAM_ABBREVIATION_y,TEAM_CITY_NAME,TEAM_WINS_LOSSES,PTS_QTR1,PTS_QTR2,PTS_QTR3,PTS_QTR4,PTS_OT1,PTS_OT2,PTS_OT3,PTS_OT4,PTS_OT5,PTS_OT6,PTS_OT7,PTS_OT8,PTS_OT9,PTS_OT10,PTS,FG_PCT,FT_PCT,FG3_PCT,AST,REB,TOV,GAME_ID_y,TEAM_ID_y,TEAM_ABBREVIATION,TEAM_CITY_y,PLAYER_NAME_y,START_POSITION_y,COMMENT_y,MIN_y,PTS_OFF_TOV,PTS_2ND_CHANCE,PTS_FB,PTS_PAINT,OPP_PTS_OFF_TOV,OPP_PTS_2ND_CHANCE,OPP_PTS_FB,OPP_PTS_PAINT,BLK,BLKA,PF,PFD
0021500692,1610612737,ATL,Atlanta,203145,Kent Bazemore,F,,30:09,97.3,101.0,-3.7,0.0,0.0,0.0,0.0,0.31,0.161,13.4,0.375,0.427,0.223,101.16,0.06,2016-01-28T00:00:00,1,ATL,Atlanta,27-21,24,20,31,17,0,0,0,0,0,0,0,0,0,0,92,0.398,0.905,0.25,20,32,14,0021500692,1610612737,ATL,Atlanta,Kent Bazemore,F,,30:09,2,0,2,6,14,9,9,14,0,1,5,3
0021500692,1610612737,ATL,Atlanta,200794,Paul Millsap,F,,13:17,107.4,97.5,9.9,0.0,0.0,0.0,0.0,0.455,0.238,29.1,0.25,0.41,0.254,93.45,0.093,2016-01-28T00:00:00,1,ATL,Atlanta,27-21,24,20,31,17,0,0,0,0,0,0,0,0,0,0,92,0.398,0.905,0.25,20,32,14,0021500692,1610612737,ATL,Atlanta,Paul Millsap,F,,13:17,0,0,0,2,3,4,5,10,0,1,0,2
0021500692,1610612737,ATL,Atlanta,201143,Al Horford,C,,34:13,94.1,114.4,-20.3,0.2,4.0,22.4,0.031,0.103,0.066,5.6,0.5,0.543,0.187,101.0,0.107,2016-01-28T00:00:00,1,ATL,Atlanta,27-21,24,20,31,17,0,0,0,0,0,0,0,0,0,0,92,0.398,0.905,0.25,20,32,14,0021500692,1610612737,ATL,Atlanta,Al Horford,C,,34:13,0,2,0,8,13,6,11,20,3,0,3,1
0021500692,1610612737,ATL,Atlanta,2594,Kyle Korver,G,,29:40,97.1,114.3,-17.2,0.143,3.0,21.6,0.0,0.087,0.042,7.2,0.278,0.304,0.173,99.66,0.0,2016-01-28T00:00:00,1,ATL,Atlanta,27-21,24,20,31,17,0,0,0,0,0,0,0,0,0,0,92,0.398,0.905,0.25,20,32,14,0021500692,1610612737,ATL,Atlanta,Kyle Korver,G,,29:40,0,2,0,2,12,6,12,16,0,0,3,1
0021500692,1610612737,ATL,Atlanta,201952,Jeff Teague,G,,30:49,99.1,105.3,-6.2,0.313,1.67,23.0,0.0,0.042,0.021,13.8,0.667,0.727,0.255,99.13,0.127,2016-01-28T00:00:00,1,ATL,Atlanta,27-21,24,20,31,17,0,0,0,0,0,0,0,0,0,0,92,0.398,0.905,0.25,20,32,14,0021500692,1610612737,ATL,Atlanta,Jeff Teague,G,,30:49,6,0,4,10,14,5,12,14,0,2,5,4
0021500692,1610612737,ATL,Atlanta,200757,Thabo Sefolosha,,,27:14,87.2,107.4,-20.2,0.091,1.0,8.9,0.0,0.15,0.07,8.9,0.643,0.707,0.166,100.64,0.165,2016-01-28T00:00:00,1,ATL,Atlanta,27-21,24,20,31,17,0,0,0,0,0,0,0,0,0,0,92,0.398,0.905,0.25,20,32,14,0021500692,1610612737,ATL,Atlanta,Thabo Sefolosha,,,27:14,2,1,0,4,15,9,8,14,1,1,1,3
0021500692,1610612737,ATL,Atlanta,201168,Tiago Splitter,,,20:00,100.4,108.4,-8.0,0.3,3.0,33.8,0.188,0.091,0.148,11.3,0.75,0.82,0.137,95.3,0.169,2016-01-28T00:00:00,1,ATL,Atlanta,27-21,24,20,31,17,0,0,0,0,0,0,0,0,0,0,92,0.398,0.905,0.25,20,32,14,0021500692,1610612737,ATL,Atlanta,Tiago Splitter,,,20:00,0,0,0,6,6,9,5,8,0,1,3,1
0021500692,1610612737,ATL,Atlanta,203501,Tim Hardaway Jr.,,,17:21,76.4,126.0,-49.5,0.222,2.0,28.6,0.0,0.083,0.031,14.3,0.375,0.375,0.123,101.2,0.03,2016-01-28T00:00:00,1,ATL,Atlanta,27-21,24,20,31,17,0,0,0,0,0,0,0,0,0,0,92,0.398,0.905,0.25,20,32,14,0021500692,1610612737,ATL,Atlanta,Tim Hardaway Jr.,,,17:21,0,0,0,0,9,7,3,16,0,0,0,0
0021500692,1610612737,ATL,Atlanta,203471,Dennis Schroder,,,13:54,87.7,124.5,-36.8,0.286,0.0,19.2,0.0,0.091,0.034,0.0,0.25,0.296,0.259,103.94,0.0,2016-01-28T00:00:00,1,ATL,Atlanta,27-21,24,20,31,17,0,0,0,0,0,0,0,0,0,0,92,0.398,0.905,0.25,20,32,14,0021500692,1610612737,ATL,Atlanta,Dennis Schroder,,,13:54,0,0,0,4,2,5,3,12,0,2,2,1
0021500692,1610612737,ATL,Atlanta,203118,Mike Scott,,,17:24,80.6,123.6,-43.0,0.0,0.0,0.0,0.05,0.083,0.063,0.0,0.318,0.35,0.253,111.78,0.019,2016-01-28T00:00:00,1,ATL,Atlanta,27-21,24,20,31,17,0,0,0,0,0,0,0,0,0,0,92,0.398,0.905,0.25,20,32,14,0021500692,1610612737,ATL,Atlanta,Mike Scott,,,17:24,0,2,3,2,11,5,7,14,0,0,0,1
0021500692,1610612737,ATL,Atlanta,202714,Shelvin Mack,,,2:00,0.0,133.3,-133.3,0.0,0.0,0.0,0.0,0.0,0.0,100.0,0.0,0.0,0.25,84.0,-0.2,2016-01-28T00:00:00,1,ATL,Atlanta,27-21,24,20,31,17,0,0,0,0,0,0,0,0,0,0,92,0.398,0.905,0.25,20,32,14,0021500692,1610612737,ATL,Atlanta,Shelvin Mack,,,2:00,0,0,0,0,2,0,0,4,0,0,0,0
0021500692,1610612737,ATL,Atlanta,203488,Mike Muscala,,,2:00,0.0,133.3,-133.3,0.0,0.0,0.0,0.0,0.0,0.0,100.0,0.0,0.0,0.25,84.0,-0.2,2016-01-28T00:00:00,1,ATL,Atlanta,27-21,24,20,31,17,0,0,0,0,0,0,0,0,0,0,92,0.398,0.905,0.25,20,32,14,0021500692,1610612737,ATL,Atlanta,Mike Muscala,,,2:00,0,0,0,0,2,0,0,4,0,0,0,0
0021500692,1610612737,ATL,Atlanta,203934,Lamar Patterson,,,2:00,0.0,133.3,-133.3,0.0,0.0,0.0,0.0,0.0,0.0,0.0,0.0,0.0,0.0,84.0,0.0,2016-01-28T00:00:00,1,ATL,Atlanta,27-21,24,20,31,17,0,0,0,0,0,0,0,0,0,0,92,0.398,0.905,0.25,20,32,14,0021500692,1610612737,ATL,Atlanta,Lamar Patterson,,,2:00,0,0,0,0,2,0,0,4,0,0,0,0
0021500692,1610612754,IND,Indiana,202331,Paul George,F,,30:33,114.9,95.9,19.0,0.143,1.5,15.7,0.043,0.074,0.06,10.5,0.182,0.391,0.238,100.9,0.021,2016-01-28T00:00:00,1,IND,Indiana,24-22,27,24,31,29,0,0,0,0,0,0,0,0,0,0,111,0.487,0.867,0.6,20,49,16,0021500692,1610612754,IND,Indiana,Paul George,F,,30:33,0,0,4,0,6,5,4,30,0,1,4,4
0021500692,1610612754,IND,Indiana,1626167,Myles Turner,F,,26:28,120.5,98.1,22.5,0.077,0.5,4.7,0.0,0.3,0.171,9.4,0.529,0.546,0.357,99.75,0.123,2016-01-28T00:00:00,1,IND,Indiana,24-22,27,24,31,29,0,0,0,0,0,0,0,0,0,0,111,0.487,0.867,0.6,20,49,16,0021500692,1610612754,IND,Indiana,Myles Turner,F,,26:28,2,2,1,8,6,4,4,30,1,2,3,5
0021500692,1610612754,IND,Indiana,101133,Ian Mahinmi,C,,29:35,108.8,92.5,16.3,0.105,1.0,18.8,0.111,0.154,0.136,18.8,0.25,0.602,0.136,100.14,0.098,2016-01-28T00:00:00,1,IND,Indiana,24-22,27,24,31,29,0,0,0,0,0,0,0,0,0,0,111,0.487,0.867,0.6,20,49,16,0021500692,1610612754,IND,Indiana,Ian Mahinmi,C,,29:35,0,2,4,2,6,5,4,28,2,0,1,3
0021500692,1610612754,IND,Indiana,101145,Monta Ellis,G,,34:43,111.6,92.5,19.1,0.333,3.0,27.7,0.045,0.121,0.091,9.2,0.864,0.916,0.204,101.76,0.279,2016-01-28T00:00:00,1,IND,Indiana,24-22,27,24,31,29,0,0,0,0,0,0,0,0,0,0,111,0.487,0.867,0.6,20,49,16,0021500692,1610612754,IND,Indiana,Monta Ellis,G,,34:43,12,5,3,0,6,7,4,34,1,0,0,5
0021500692,1610612754,IND,Indiana,201588,George Hill,G,,37:10,111.2,94.8,16.4,0.136,1.0,18.9,0.0,0.258,0.138,18.9,0.944,0.911,0.158,98.56,0.162,2016-01-28T00:00:00,1,IND,Indiana,24-22,27,24,31,29,0,0,0,0,0,0,0,0,0,0,111,0.487,0.867,0.6,20,49,16,0021500692,1610612754,IND,Indiana,George Hill,G,,37:10,3,0,3,4,10,4,6,34,0,0,1,1
0021500692,1610612754,IND,Indiana,202730,Lavoy Allen,,,20:09,99.3,87.8,11.6,0.0,0.0,0.0,0.238,0.304,0.273,14.8,0.25,0.347,0.137,100.57,0.143,2016-01-28T00:00:00,1,IND,Indiana,24-22,27,24,31,29,0,0,0,0,0,0,0,0,0,0,111,0.487,0.867,0.6,20,49,16,0021500692,1610612754,IND,Indiana,Lavoy Allen,,,20:09,2,4,0,2,4,3,5,14,2,0,1,2
0021500692,1610612754,IND,Indiana,1626202,Joe Young,,,7:32,114.2,73.5,40.7,0.167,1.0,17.0,0.0,0.125,0.063,17.0,0.0,0.258,0.236,105.12,0.0,2016-01-28T00:00:00,1,IND,Indiana,24-22,27,24,31,29,0,0,0,0,0,0,0,0,0,0,111,0.487,0.867,0.6,20,49,16,0021500692,1610612754,IND,Indiana,Joe Young,,,7:32,0,0,0,0,0,3,3,8,0,1,1,2
0021500692,1610612754,IND,Indiana,101139,CJ Miles,,,23:13,101.5,90.8,10.7,0.143,2.0,16.7,0.0,0.13,0.067,8.3,0.5,0.5,0.181,97.75,0.041,2016-01-28T00:00:00,1,IND,Indiana,24-22,27,24,31,29,0,0,0,0,0,0,0,0,0,0,111,0.487,0.867,0.6,20,49,16,0021500692,1610612754,IND,Indiana,CJ Miles,,,23:13,0,0,0,4,4,2,5,20,0,0,5,0
0021500692,1610612754,IND,Indiana,201941,Jordan Hill,,,17:32,112.3,93.1,19.2,0.083,0.5,11.1,0.053,0.111,0.081,22.2,0.667,0.667,0.184,99.98,0.111,2016-01-28T00:00:00,1,IND,Indiana,24-22,27,24,31,29,0,0,0,0,0,0,0,0,0,0,111,0.487,0.867,0.6,20,49,16,0021500692,1610612754,IND,Indiana,Jordan Hill,,,17:32,0,0,0,6,4,2,5,16,2,0,1,0
0021500692,1610612754,IND,Indiana,203922,Glenn Robinson III,,,9:58,120.7,78.1,42.6,0.111,0.0,25.0,0.0,0.1,0.053,0.0,0.667,0.667,0.126,100.35,0.125,2016-01-28T00:00:00,1,IND,Indiana,24-22,27,24,31,29,0,0,0,0,0,0,0,0,0,0,111,0.487,0.867,0.6,20,49,16,0021500692,1610612754,IND,Indiana,Glenn Robinson III,,,9:58,2,0,0,2,4,0,5,6,0,0,0,0
0021500692,1610612754,IND,Indiana,203963,Shayne Whittington,,,1:23,133.3,0.0,133.3,0.0,0.0,0.0,0.0,1.0,0.5,0.0,1.0,1.0,0.333,104.1,0.8,2016-01-28T00:00:00,1,IND,Indiana,24-22,27,24,31,29,0,0,0,0,0,0,0,0,0,0,111,0.487,0.867,0.6,20,49,16,0021500692,1610612754,IND,Indiana,Shayne Whittington,,,1:23,0,0,0,2,0,0,0,0,0,0,0,0
0021500692,1610612754,IND,Indiana,201978,Chase Budinger,,,0:54,200.0,0.0,200.0,0.0,0.0,0.0,0.0,0.0,0.0,0.0,0.0,0.0,0.0,107.66,0.2,2016-01-28T00:00:00,1,IND,Indiana,24-22,27,24,31,29,0,0,0,0,0,0,0,0,0,0,111,0.487,0.867,0.6,20,49,16,0021500692,1610612754,IND,Indiana,Chase Budinger,,,0:54,0,0,0,0,0,0,0,0,0,0,0,0
0021500692,1610612754,IND,Indiana,203524,Solomon Hill,,,0:54,200.0,0.0,200.0,0.0,0.0,0.0,0.0,0.0,0.0,0.0,0.0,0.0,0.0,107.66,0.0,2016-01-28T00:00:00,1,IND,Indiana,24-22,27,24,31,29,0,0,0,0,0,0,0,0,0,0,111,0.487,0.867,0.6,20,49,16,0021500692,1610612754,IND,Indiana,Solomon Hill,,,0:54,0,0,0,0,0,0,0,0,0,0,0,0
