GAME_ID_x,TEAM_ID_x,TEAM_ABBREVIATION_x,TEAM_CITY_x,PLAYER_ID,PLAYER_NAME_x,START_POSITION_x,COMMENT_x,MIN_x,OFF_RATING,DEF_RATING,NET_RATING,AST_PCT,AST_TOV,AST_RATIO,OREB_PCT,DREB_PCT,REB_PCT,TM_TOV_PCT,EFG_PCT,TS_PCT,USG_PCT,PACE,PIE,GAME_DATE_EST,GAME_SEQUENCE,TEAM_ABBREVIATION_y,TEAM_CITY_NAME,TEAM_WINS_LOSSES,PTS_QTR1,PTS_QTR2,PTS_QTR3,PTS_QTR4,PTS_OT1,PTS_OT2,PTS_OT3,PTS_OT4,PTS_OT5,PTS_OT6,PTS_OT7,PTS_OT8,PTS_OT9,PTS_OT10,PTS,FG_PCT,FT_PCT,FG3_PCT,AST,REB,TOV,GAME_ID_y,TEAM_ID_y,TEAM_ABBREVIATION,TEAM_CITY_y,PLAYER_NAME_y,START_POSITION_y,COMMENT_y,MIN_y,PTS_OFF_TOV,PTS_2ND_CHANCE,PTS_FB,PTS_PAINT,OPP_PTS_OFF_TOV,OPP_PTS_2ND_CHANCE,OPP_PTS_FB,OPP_PTS_PAINT,BLK,BLKA,PF,PFD
0021500708,1610612765,DET,Detroit,202694,Marcus Morris,F,,34:22,93.7,105.8,-12.1,0.111,1.0,11.8,0.033,0.067,0.05,11.8,0.5,0.5,0.191,98.85,0.122,2016-01-30T00:00:00,2,DET,Detroit,25-23,17,30,25,35,0,0,0,0,0,0,0,0,0,0,107,0.448,0.588,0.31,9,39,11,0021500708,1610612765,DET,Detroit,Marcus Morris,F,,34:22,2.0,0.0,0.0,6.0,16.0,10.0,9.0,34.0,1.0,0.0,0.0,1.0
0021500708,1610612765,DET,Detroit,201229,Anthony Tolliver,F,,35:18,117.3,111.9,5.5,0.0,0.0,0.0,0.032,0.033,0.033,14.3,0.417,0.417,0.083,101.44,-0.012,2016-01-30T00:00:00,2,DET,Detroit,25-23,17,30,25,35,0,0,0,0,0,0,0,0,0,0,107,0.448,0.588,0.31,9,39,11,0021500708,1610612765,DET,Detroit,Anthony Tolliver,F,,35:18,0.0,2.0,0.0,2.0,10.0,15.0,8.0,40.0,0.0,0.0,3.0,0.0
0021500708,1610612765,DET,Detroit,203083,Andre Drummond,C,,27:43,91.0,123.5,-32.5,0.071,1.0,6.7,0.125,0.391,0.255,6.7,0.556,0.424,0.233,95.21,0.054,2016-01-30T00:00:00,2,DET,Detroit,25-23,17,30,25,35,0,0,0,0,0,0,0,0,0,0,107,0.448,0.588,0.31,9,39,11,0021500708,1610612765,DET,Detroit,Andre Drummond,C,,27:43,0.0,4.0,0.0,10.0,12.0,8.0,6.0,34.0,2.0,0.0,6.0,6.0
0021500708,1610612765,DET,Detroit,203484,Kentavious Caldwell-Pope,G,,34:29,99.6,115.2,-15.7,0.05,0.33,5.8,0.036,0.103,0.07,17.4,0.5,0.568,0.204,97.35,0.095,2016-01-30T00:00:00,2,DET,Detroit,25-23,17,30,25,35,0,0,0,0,0,0,0,0,0,0,107,0.448,0.588,0.31,9,39,11,0021500708,1610612765,DET,Detroit,Kentavious Caldwell-Pope,G,,34:29,4.0,2.0,6.0,2.0,18.0,10.0,10.0,38.0,0.0,0.0,2.0,2.0
0021500708,1610612765,DET,Detroit,202704,Reggie Jackson,G,,27:59,84.3,125.6,-41.2,0.071,1.0,6.6,0.037,0.0,0.02,6.6,0.455,0.492,0.226,94.58,0.046,2016-01-30T00:00:00,2,DET,Detroit,25-23,17,30,25,35,0,0,0,0,0,0,0,0,0,0,107,0.448,0.588,0.31,9,39,11,0021500708,1610612765,DET,Detroit,Reggie Jackson,G,,27:59,0.0,0.0,2.0,6.0,12.0,8.0,7.0,32.0,0.0,0.0,3.0,4.0
0021500708,1610612765,DET,Detroit,1626169,Stanley Johnson,,,28:04,93.2,112.4,-19.2,0.056,1.0,6.0,0.0,0.154,0.078,6.0,0.308,0.407,0.227,109.04,0.039,2016-01-30T00:00:00,2,DET,Detroit,25-23,17,30,25,35,0,0,0,0,0,0,0,0,0,0,107,0.448,0.588,0.31,9,39,11,0021500708,1610612765,DET,Detroit,Stanley Johnson,,,28:04,2.0,0.0,6.0,2.0,10.0,5.0,9.0,20.0,0.0,1.0,5.0,2.0
0021500708,1610612765,DET,Detroit,201943,Brandon Jennings,,,21:46,115.6,92.4,23.2,0.0,0.0,0.0,0.0,0.2,0.103,0.0,0.679,0.679,0.294,113.57,0.258,2016-01-30T00:00:00,2,DET,Detroit,25-23,17,30,25,35,0,0,0,0,0,0,0,0,0,0,107,0.448,0.588,0.31,9,39,11,0021500708,1610612765,DET,Detroit,Brandon Jennings,,,21:46,8.0,0.0,2.0,2.0,6.0,7.0,9.0,14.0,1.0,1.0,3.0,2.0
0021500708,1610612765,DET,Detroit,1626199,Darrun Hilliard,,,10:02,138.0,86.9,51.1,0.091,1.0,20.0,0.0,0.2,0.111,20.0,0.833,0.833,0.15,122.28,0.108,2016-01-30T00:00:00,2,DET,Detroit,25-23,17,30,25,35,0,0,0,0,0,0,0,0,0,0,107,0.448,0.588,0.31,9,39,11,0021500708,1610612765,DET,Detroit,Darrun Hilliard,,,10:02,2.0,0.0,0.0,2.0,0.0,5.0,0.0,6.0,0.0,0.0,3.0,0.0
0021500708,1610612765,DET,Detroit,203382,Aron Baynes,,,20:17,116.2,92.2,24.0,0.118,2.0,15.8,0.167,0.211,0.189,7.9,0.429,0.571,0.197,113.21,0.179,2016-01-30T00:00:00,2,DET,Detroit,25-23,17,30,25,35,0,0,0,0,0,0,0,0,0,0,107,0.448,0.588,0.31,9,39,11,0021500708,1610612765,DET,Detroit,Aron Baynes,,,20:17,2.0,7.0,0.0,4.0,6.0,7.0,7.0,12.0,2.0,1.0,4.0,3.0
0021500708,1610612765,DET,Detroit,201202,Joel Anthony,,DNP - Coach's Decision                  ,,,,,,,0.0,,,,,,,0.0,,,2016-01-30T00:00:00,2,DET,Detroit,25-23,17,30,25,35,0,0,0,0,0,0,0,0,0,0,107,0.448,0.588,0.31,9,39,11,0021500708,1610612765,DET,Detroit,Joel Anthony,,DNP - Coach's Decision                  ,,,,,,,,,,,,,
0021500708,1610612765,DET,Detroit,2581,Steve Blake,,DNP - Coach's Decision                  ,,,,,,,0.0,,,,,,,0.0,,,2016-01-30T00:00:00,2,DET,Detroit,25-23,17,30,25,35,0,0,0,0,0,0,0,0,0,0,107,0.448,0.588,0.31,9,39,11,0021500708,1610612765,DET,Detroit,Steve Blake,,DNP - Coach's Decision                  ,,,,,,,,,,,,,
0021500708,1610612765,DET,Detroit,203493,Reggie Bullock,,DNP - Coach's Decision                  ,,,,,,,0.0,,,,,,,0.0,,,2016-01-30T00:00:00,2,DET,Detroit,25-23,17,30,25,35,0,0,0,0,0,0,0,0,0,0,107,0.448,0.588,0.31,9,39,11,0021500708,1610612765,DET,Detroit,Reggie Bullock,,DNP - Coach's Decision                  ,,,,,,,,,,,,,
0021500708,1610612765,DET,Detroit,101141,Ersan Ilyasova,,DNP - Coach's Decision                  ,,,,,,,0.0,,,,,,,0.0,,,2016-01-30T00:00:00,2,DET,Detroit,25-23,17,30,25,35,0,0,0,0,0,0,0,0,0,0,107,0.448,0.588,0.31,9,39,11,0021500708,1610612765,DET,Detroit,Ersan Ilyasova,,DNP - Coach's Decision                  ,,,,,,,,,,,,,
0021500708,1610612761,TOR,Toronto,201949,James Johnson,F,,21:23,118.2,110.3,7.8,0.0,0.0,0.0,0.111,0.294,0.2,0.0,0.9,0.935,0.12,96.25,0.215,2016-01-30T00:00:00,2,TOR,Toronto,32-15,26,29,26,30,0,0,0,0,0,0,0,0,0,0,111,0.462,0.745,0.286,12,45,13,0021500708,1610612761,TOR,Toronto,James Johnson,F,,21:23,3.0,4.0,0.0,6.0,9.0,2.0,8.0,16.0,0.0,0.0,2.0,1.0
0021500708,1610612761,TOR,Toronto,2449,Luis Scola,F,,22:42,112.7,130.5,-17.8,0.143,0.67,13.4,0.053,0.0,0.028,20.2,0.5,0.506,0.227,105.15,0.038,2016-01-30T00:00:00,2,TOR,Toronto,32-15,26,29,26,30,0,0,0,0,0,0,0,0,0,0,111,0.462,0.745,0.286,12,45,13,0021500708,1610612761,TOR,Toronto,Luis Scola,F,,22:42,2.0,2.0,2.0,6.0,16.0,3.0,12.0,20.0,0.0,1.0,2.0,1.0
0021500708,1610612761,TOR,Toronto,202685,Jonas Valanciunas,C,,26:50,98.6,120.5,-21.9,0.0,0.0,0.0,0.13,0.3,0.209,21.0,0.5,0.532,0.138,108.08,0.051,2016-01-30T00:00:00,2,TOR,Toronto,32-15,26,29,26,30,0,0,0,0,0,0,0,0,0,0,111,0.462,0.745,0.286,12,45,13,0021500708,1610612761,TOR,Toronto,Jonas Valanciunas,C,,26:50,1.0,1.0,0.0,2.0,16.0,5.0,12.0,26.0,0.0,0.0,3.0,6.0
0021500708,1610612761,TOR,Toronto,201942,DeMar DeRozan,G,,33:38,109.6,116.0,-6.4,0.25,1.0,12.0,0.071,0.038,0.056,12.0,0.476,0.571,0.371,102.5,0.148,2016-01-30T00:00:00,2,TOR,Toronto,32-15,26,29,26,30,0,0,0,0,0,0,0,0,0,0,111,0.462,0.745,0.286,12,45,13,0021500708,1610612761,TOR,Toronto,DeMar DeRozan,G,,33:38,6.0,6.0,4.0,14.0,18.0,9.0,14.0,26.0,0.0,1.0,4.0,5.0
0021500708,1610612761,TOR,Toronto,200768,Kyle Lowry,G,,39:35,102.4,109.3,-6.8,0.0,0.0,0.0,0.028,0.2,0.113,9.0,0.3,0.444,0.23,103.7,0.072,2016-01-30T00:00:00,2,TOR,Toronto,32-15,26,29,26,30,0,0,0,0,0,0,0,0,0,0,111,0.462,0.745,0.286,12,45,13,0021500708,1610612761,TOR,Toronto,Kyle Lowry,G,,39:35,2.0,2.0,5.0,4.0,18.0,13.0,14.0,36.0,0.0,1.0,4.0,7.0
0021500708,1610612761,TOR,Toronto,202687,Bismack Biyombo,,,21:11,125.6,79.9,45.7,0.0,0.0,0.0,0.158,0.455,0.317,0.0,0.5,0.63,0.208,96.16,0.34,2016-01-30T00:00:00,2,TOR,Toronto,32-15,26,29,26,30,0,0,0,0,0,0,0,0,0,0,111,0.462,0.745,0.286,12,45,13,0021500708,1610612761,TOR,Toronto,Bismack Biyombo,,,21:11,2.0,0.0,2.0,2.0,4.0,10.0,4.0,10.0,3.0,2.0,2.0,6.0
0021500708,1610612761,TOR,Toronto,202335,Patrick Patterson,,,25:12,105.8,75.2,30.5,0.118,2.0,33.3,0.043,0.042,0.043,16.7,0.333,0.333,0.069,100.15,0.032,2016-01-30T00:00:00,2,TOR,Toronto,32-15,26,29,26,30,0,0,0,0,0,0,0,0,0,0,111,0.462,0.745,0.286,12,45,13,0021500708,1610612761,TOR,Toronto,Patrick Patterson,,,25:12,0.0,0.0,0.0,2.0,4.0,10.0,4.0,16.0,0.0,0.0,1.0,0.0
0021500708,1610612761,TOR,Toronto,203082,Terrence Ross,,,21:45,106.2,80.4,25.8,0.0,0.0,0.0,0.0,0.0,0.0,0.0,0.625,0.625,0.081,102.35,0.071,2016-01-30T00:00:00,2,TOR,Toronto,32-15,26,29,26,30,0,0,0,0,0,0,0,0,0,0,111,0.462,0.745,0.286,12,45,13,0021500708,1610612761,TOR,Toronto,Terrence Ross,,,21:45,0.0,0.0,0.0,0.0,7.0,12.0,2.0,14.0,0.0,0.0,0.0,0.0
0021500708,1610612761,TOR,Toronto,202709,Cory Joseph,,,27:45,114.0,93.4,20.6,0.267,4.0,22.0,0.0,0.074,0.038,5.5,0.545,0.606,0.204,107.9,0.169,2016-01-30T00:00:00,2,TOR,Toronto,32-15,26,29,26,30,0,0,0,0,0,0,0,0,0,0,111,0.462,0.745,0.286,12,45,13,0021500708,1610612761,TOR,Toronto,Cory Joseph,,,27:45,2.0,0.0,0.0,10.0,8.0,11.0,10.0,16.0,0.0,1.0,2.0,3.0
0021500708,1610612761,TOR,Toronto,203512,Lucas Nogueira,,DNP - Coach's Decision                  ,,,,,,,0.0,,,,,,,0.0,,,2016-01-30T00:00:00,2,TOR,Toronto,32-15,26,29,26,30,0,0,0,0,0,0,0,0,0,0,111,0.462,0.745,0.286,12,45,13,0021500708,1610612761,TOR,Toronto,Lucas Nogueira,,DNP - Coach's Decision                  ,,,,,,,,,,,,,
0021500708,1610612761,TOR,Toronto,1626181,Norman Powell,,DNP - Coach's Decision                  ,,,,,,,0.0,,,,,,,0.0,,,2016-01-30T00:00:00,2,TOR,Toronto,32-15,26,29,26,30,0,0,0,0,0,0,0,0,0,0,111,0.462,0.745,0.286,12,45,13,0021500708,1610612761,TOR,Toronto,Norman Powell,,DNP - Coach's Decision                  ,,,,,,,,,,,,,
0021500708,1610612761,TOR,Toronto,1626153,Delon Wright,,DNP - Coach's Decision                  ,,,,,,,0.0,,,,,,,0.0,,,2016-01-30T00:00:00,2,TOR,Toronto,32-15,26,29,26,30,0,0,0,0,0,0,0,0,0,0,111,0.462,0.745,0.286,12,45,13,0021500708,1610612761,TOR,Toronto,Delon Wright,,DNP - Coach's Decision                  ,,,,,,,,,,,,,
