GAME_ID_x,TEAM_ID_x,TEAM_ABBREVIATION_x,TEAM_CITY_x,PLAYER_ID,PLAYER_NAME_x,START_POSITION_x,COMMENT_x,MIN_x,OFF_RATING,DEF_RATING,NET_RATING,AST_PCT,AST_TOV,AST_RATIO,OREB_PCT,DREB_PCT,REB_PCT,TM_TOV_PCT,EFG_PCT,TS_PCT,USG_PCT,PACE,PIE,GAME_DATE_EST,GAME_SEQUENCE,TEAM_ABBREVIATION_y,TEAM_CITY_NAME,TEAM_WINS_LOSSES,PTS_QTR1,PTS_QTR2,PTS_QTR3,PTS_QTR4,PTS_OT1,PTS_OT2,PTS_OT3,PTS_OT4,PTS_OT5,PTS_OT6,PTS_OT7,PTS_OT8,PTS_OT9,PTS_OT10,PTS,FG_PCT,FT_PCT,FG3_PCT,AST,REB,TOV,GAME_ID_y,TEAM_ID_y,TEAM_ABBREVIATION,TEAM_CITY_y,PLAYER_NAME_y,START_POSITION_y,COMMENT_y,MIN_y,PTS_OFF_TOV,PTS_2ND_CHANCE,PTS_FB,PTS_PAINT,OPP_PTS_OFF_TOV,OPP_PTS_2ND_CHANCE,OPP_PTS_FB,OPP_PTS_PAINT,BLK,BLKA,PF,PFD
0021500714,1610612741,CHI,Chicago,202734,E'Twaun Moore,F,,30:28,114.2,123.0,-8.8,0.192,0.0,40.2,0.0,0.043,0.02,0.0,0.643,0.672,0.112,94.91,0.063,2016-01-31T00:00:00,1,CHI,Chicago,26-20,22,25,26,20,0,0,0,0,0,0,0,0,0,0,93,0.43,0.727,0.333,19,42,9,0021500714,1610612741,CHI,Chicago,E'Twaun Moore,F,,30:28,2.0,2.0,0.0,2.0,4.0,14.0,9.0,28.0,1.0,0.0,5.0,1.0
0021500714,1610612741,CHI,Chicago,201959,Taj Gibson,F,,29:35,105.9,108.5,-2.5,0.042,0.0,10.1,0.185,0.24,0.212,0.0,0.375,0.394,0.136,94.59,0.057,2016-01-31T00:00:00,1,CHI,Chicago,26-20,22,25,26,20,0,0,0,0,0,0,0,0,0,0,93,0.43,0.727,0.333,19,42,9,0021500714,1610612741,CHI,Chicago,Taj Gibson,F,,29:35,0.0,2.0,0.0,6.0,2.0,12.0,7.0,20.0,2.0,2.0,5.0,3.0
0021500714,1610612741,CHI,Chicago,2200,Pau Gasol,C,,29:10,104.2,116.0,-11.9,0.263,1.25,25.7,0.107,0.379,0.246,20.6,0.7,0.718,0.217,97.19,0.204,2016-01-31T00:00:00,1,CHI,Chicago,26-20,22,25,26,20,0,0,0,0,0,0,0,0,0,0,93,0.43,0.727,0.333,19,42,9,0021500714,1610612741,CHI,Chicago,Pau Gasol,C,,29:10,0.0,2.0,2.0,12.0,7.0,12.0,10.0,24.0,0.0,1.0,1.0,3.0
0021500714,1610612741,CHI,Chicago,202710,Jimmy Butler,G,,36:47,105.6,116.6,-11.0,0.0,0.0,0.0,0.029,0.0,0.015,0.0,0.409,0.459,0.306,96.85,0.056,2016-01-31T00:00:00,1,CHI,Chicago,26-20,22,25,26,20,0,0,0,0,0,0,0,0,0,0,93,0.43,0.727,0.333,19,42,9,0021500714,1610612741,CHI,Chicago,Jimmy Butler,G,,36:47,6.0,0.0,5.0,8.0,9.0,14.0,12.0,32.0,0.0,1.0,0.0,5.0
0021500714,1610612741,CHI,Chicago,201565,Derrick Rose,G,,33:03,105.2,122.7,-17.4,0.19,1.33,16.7,0.0,0.185,0.089,12.5,0.588,0.588,0.272,98.03,0.122,2016-01-31T00:00:00,1,CHI,Chicago,26-20,22,25,26,20,0,0,0,0,0,0,0,0,0,0,93,0.43,0.727,0.333,19,42,9,0021500714,1610612741,CHI,Chicago,Derrick Rose,G,,33:03,2.0,0.0,4.0,18.0,7.0,14.0,10.0,28.0,0.0,0.0,2.0,0.0
0021500714,1610612741,CHI,Chicago,1626171,Bobby Portis,,,18:25,83.1,148.9,-65.8,0.111,0.0,10.0,0.087,0.308,0.167,0.0,0.444,0.444,0.218,98.52,0.111,2016-01-31T00:00:00,1,CHI,Chicago,26-20,22,25,26,20,0,0,0,0,0,0,0,0,0,0,93,0.43,0.727,0.333,19,42,9,0021500714,1610612741,CHI,Chicago,Bobby Portis,,,18:25,0.0,4.0,0.0,6.0,7.0,5.0,6.0,16.0,0.0,0.0,0.0,0.0
0021500714,1610612741,CHI,Chicago,203926,Doug McDermott,,,20:51,88.3,134.9,-46.6,0.0,0.0,0.0,0.0,0.091,0.028,12.5,0.429,0.429,0.175,93.84,0.0,2016-01-31T00:00:00,1,CHI,Chicago,26-20,22,25,26,20,0,0,0,0,0,0,0,0,0,0,93,0.43,0.727,0.333,19,42,9,0021500714,1610612741,CHI,Chicago,Doug McDermott,,,20:51,0.0,0.0,0.0,0.0,2.0,5.0,3.0,12.0,0.0,0.0,1.0,0.0
0021500714,1610612741,CHI,Chicago,201166,Aaron Brooks,,,16:54,83.5,143.5,-59.9,0.3,3.0,33.3,0.0,0.0,0.0,11.1,0.2,0.2,0.165,92.42,-0.014,2016-01-31T00:00:00,1,CHI,Chicago,26-20,22,25,26,20,0,0,0,0,0,0,0,0,0,0,93,0.43,0.727,0.333,19,42,9,0021500714,1610612741,CHI,Chicago,Aaron Brooks,,,16:54,0.0,0.0,0.0,2.0,2.0,3.0,3.0,10.0,0.0,1.0,2.0,2.0
0021500714,1610612741,CHI,Chicago,2550,Kirk Hinrich,,,10:53,87.4,119.7,-32.2,0.0,0.0,0.0,0.0,0.125,0.05,0.0,0.0,0.0,0.077,102.07,-0.108,2016-01-31T00:00:00,1,CHI,Chicago,26-20,22,25,26,20,0,0,0,0,0,0,0,0,0,0,93,0.43,0.727,0.333,19,42,9,0021500714,1610612741,CHI,Chicago,Kirk Hinrich,,,10:53,0.0,0.0,0.0,0.0,5.0,0.0,4.0,6.0,0.0,0.0,3.0,0.0
0021500714,1610612741,CHI,Chicago,203503,Tony Snell,,,10:05,55.0,132.4,-77.4,0.0,0.0,0.0,0.0,0.0,0.0,0.0,0.2,0.2,0.217,92.54,-0.081,2016-01-31T00:00:00,1,CHI,Chicago,26-20,22,25,26,20,0,0,0,0,0,0,0,0,0,0,93,0.43,0.727,0.333,19,42,9,0021500714,1610612741,CHI,Chicago,Tony Snell,,,10:05,2.0,0.0,0.0,2.0,0.0,3.0,1.0,2.0,1.0,1.0,1.0,1.0
0021500714,1610612741,CHI,Chicago,203946,Cameron Bairstow,,,3:49,0.0,157.1,-157.1,0.0,0.0,0.0,0.0,0.5,0.182,0.0,0.0,0.0,0.125,94.32,0.083,2016-01-31T00:00:00,1,CHI,Chicago,26-20,22,25,26,20,0,0,0,0,0,0,0,0,0,0,93,0.43,0.727,0.333,19,42,9,0021500714,1610612741,CHI,Chicago,Cameron Bairstow,,,3:49,0.0,0.0,0.0,0.0,0.0,3.0,0.0,2.0,0.0,0.0,0.0,0.0
0021500714,1610612741,CHI,Chicago,1626245,Cristiano Felicio,,DNP - Coach's Decision                  ,,,,,,,0.0,,,,,,,0.0,,,2016-01-31T00:00:00,1,CHI,Chicago,26-20,22,25,26,20,0,0,0,0,0,0,0,0,0,0,93,0.43,0.727,0.333,19,42,9,0021500714,1610612741,CHI,Chicago,Cristiano Felicio,,DNP - Coach's Decision                  ,,,,,,,,,,,,,
0021500714,1610612741,CHI,Chicago,202703,Nikola Mirotic,,NWT - Appendectomy                      ,,,,,,,0.0,,,,,,,0.0,,,2016-01-31T00:00:00,1,CHI,Chicago,26-20,22,25,26,20,0,0,0,0,0,0,0,0,0,0,93,0.43,0.727,0.333,19,42,9,0021500714,1610612741,CHI,Chicago,Nikola Mirotic,,NWT - Appendectomy                      ,,,,,,,,,,,,,
0021500714,1610612746,LAC,LA,201601,Luc Mbah a Moute,F,,25:19,131.5,97.0,34.4,0.083,2.0,22.2,0.043,0.043,0.043,11.1,0.417,0.417,0.121,97.87,0.023,2016-01-31T00:00:00,1,LAC,LA,32-16,24,27,33,36,0,0,0,0,0,0,0,0,0,0,120,0.536,0.684,0.531,26,46,11,0021500714,1610612746,LAC,LA,Luc Mbah a Moute,F,,25:19,0.0,0.0,0.0,2.0,2.0,2.0,5.0,30.0,0.0,2.0,3.0,1.0
0021500714,1610612746,LAC,LA,1718,Paul Pierce,F,,15:54,107.5,118.6,-11.1,0.154,2.0,22.2,0.0,0.077,0.037,11.1,0.0,0.0,0.202,94.85,-0.077,2016-01-31T00:00:00,1,LAC,LA,32-16,24,27,33,36,0,0,0,0,0,0,0,0,0,0,120,0.536,0.684,0.531,26,46,11,0021500714,1610612746,LAC,LA,Paul Pierce,F,,15:54,0.0,0.0,0.0,0.0,4.0,2.0,6.0,26.0,0.0,0.0,1.0,2.0
0021500714,1610612746,LAC,LA,201599,DeAndre Jordan,C,,35:32,124.3,100.2,24.1,0.143,4.0,25.8,0.161,0.429,0.303,6.4,0.857,0.808,0.147,96.21,0.241,2016-01-31T00:00:00,1,LAC,LA,32-16,24,27,33,36,0,0,0,0,0,0,0,0,0,0,120,0.536,0.684,0.531,26,46,11,0021500714,1610612746,LAC,LA,DeAndre Jordan,C,,35:32,2.0,6.0,0.0,12.0,8.0,6.0,11.0,44.0,4.0,0.0,1.0,7.0
0021500714,1610612746,LAC,LA,200755,JJ Redick,G,,27:29,125.9,99.1,26.8,0.053,0.0,7.3,0.0,0.154,0.077,0.0,0.818,0.823,0.204,97.04,0.179,2016-01-31T00:00:00,1,LAC,LA,32-16,24,27,33,36,0,0,0,0,0,0,0,0,0,0,120,0.536,0.684,0.531,26,46,11,0021500714,1610612746,LAC,LA,JJ Redick,G,,27:29,3.0,0.0,6.0,2.0,6.0,2.0,8.0,36.0,0.0,1.0,2.0,4.0
0021500714,1610612746,LAC,LA,101108,Chris Paul,G,,32:33,123.8,97.0,26.8,0.318,7.0,28.1,0.0,0.031,0.016,4.0,0.531,0.563,0.25,96.26,0.154,2016-01-31T00:00:00,1,LAC,LA,32-16,24,27,33,36,0,0,0,0,0,0,0,0,0,0,120,0.536,0.684,0.531,26,46,11,0021500714,1610612746,LAC,LA,Chris Paul,G,,32:33,2.0,0.0,4.0,8.0,8.0,6.0,8.0,42.0,0.0,0.0,0.0,1.0
0021500714,1610612746,LAC,LA,202325,Wesley Johnson,,,20:10,129.1,106.5,22.6,0.063,0.0,10.6,0.0,0.111,0.065,0.0,0.688,0.652,0.193,98.97,0.077,2016-01-31T00:00:00,1,LAC,LA,32-16,24,27,33,36,0,0,0,0,0,0,0,0,0,0,120,0.536,0.684,0.531,26,46,11,0021500714,1610612746,LAC,LA,Wesley Johnson,,,20:10,0.0,5.0,0.0,2.0,8.0,6.0,5.0,24.0,0.0,0.0,2.0,1.0
0021500714,1610612746,LAC,LA,203085,Austin Rivers,,,20:31,122.7,94.2,28.4,0.071,0.33,8.4,0.0,0.042,0.028,25.3,1.071,1.015,0.267,94.85,0.13,2016-01-31T00:00:00,1,LAC,LA,32-16,24,27,33,36,0,0,0,0,0,0,0,0,0,0,120,0.536,0.684,0.531,26,46,11,0021500714,1610612746,LAC,LA,Austin Rivers,,,20:31,0.0,3.0,1.0,0.0,6.0,8.0,3.0,20.0,0.0,1.0,1.0,2.0
0021500714,1610612746,LAC,LA,2037,Jamal Crawford,,,25:56,128.4,107.0,21.3,0.214,3.0,15.1,0.0,0.034,0.023,5.0,0.8,0.819,0.321,92.69,0.229,2016-01-31T00:00:00,1,LAC,LA,32-16,24,27,33,36,0,0,0,0,0,0,0,0,0,0,120,0.536,0.684,0.531,26,46,11,0021500714,1610612746,LAC,LA,Jamal Crawford,,,25:56,2.0,3.0,2.0,10.0,10.0,8.0,9.0,30.0,1.0,0.0,1.0,2.0
0021500714,1610612746,LAC,LA,203143,Pablo Prigioni,,,12:28,128.1,91.7,36.4,0.0,0.0,0.0,0.0,0.2,0.143,0.0,1.5,1.5,0.039,95.81,0.099,2016-01-31T00:00:00,1,LAC,LA,32-16,24,27,33,36,0,0,0,0,0,0,0,0,0,0,120,0.536,0.684,0.531,26,46,11,0021500714,1610612746,LAC,LA,Pablo Prigioni,,,12:28,0.0,0.0,0.0,0.0,4.0,4.0,0.0,12.0,0.0,0.0,1.0,0.0
0021500714,1610612746,LAC,LA,202332,Cole Aldrich,,,9:51,126.5,115.8,10.7,0.333,1.5,50.0,0.0,0.4,0.286,33.3,0.0,0.0,0.152,94.44,0.071,2016-01-31T00:00:00,1,LAC,LA,32-16,24,27,33,36,0,0,0,0,0,0,0,0,0,0,120,0.536,0.684,0.531,26,46,11,0021500714,1610612746,LAC,LA,Cole Aldrich,,,9:51,0.0,0.0,0.0,0.0,4.0,4.0,0.0,12.0,0.0,0.0,1.0,0.0
0021500714,1610612746,LAC,LA,202362,Lance Stephenson,,,9:03,111.9,50.0,61.9,0.167,1.0,20.0,0.1,0.333,0.24,20.0,0.333,0.333,0.212,95.15,0.18,2016-01-31T00:00:00,1,LAC,LA,32-16,24,27,33,36,0,0,0,0,0,0,0,0,0,0,120,0.536,0.684,0.531,26,46,11,0021500714,1610612746,LAC,LA,Lance Stephenson,,,9:03,0.0,0.0,0.0,0.0,0.0,2.0,0.0,4.0,0.0,0.0,2.0,0.0
0021500714,1610612746,LAC,LA,203912,CJ Wilcox,,,2:37,120.0,0.0,120.0,0.0,0.0,0.0,0.0,0.0,0.0,0.0,0.0,0.0,0.6,100.89,-0.462,2016-01-31T00:00:00,1,LAC,LA,32-16,24,27,33,36,0,0,0,0,0,0,0,0,0,0,120,0.536,0.684,0.531,26,46,11,0021500714,1610612746,LAC,LA,CJ Wilcox,,,2:37,0.0,0.0,0.0,0.0,0.0,0.0,0.0,0.0,0.0,0.0,0.0,0.0
0021500714,1610612746,LAC,LA,201965,Jeff Ayres,,,2:37,120.0,0.0,120.0,0.5,0.0,100.0,0.0,0.2,0.125,0.0,0.0,0.0,0.0,100.89,0.385,2016-01-31T00:00:00,1,LAC,LA,32-16,24,27,33,36,0,0,0,0,0,0,0,0,0,0,120,0.536,0.684,0.531,26,46,11,0021500714,1610612746,LAC,LA,Jeff Ayres,,,2:37,0.0,0.0,0.0,0.0,0.0,0.0,0.0,0.0,1.0,0.0,0.0,0.0
