GAME_ID_x,TEAM_ID_x,TEAM_ABBREVIATION_x,TEAM_CITY_x,PLAYER_ID,PLAYER_NAME_x,START_POSITION_x,COMMENT_x,MIN_x,OFF_RATING,DEF_RATING,NET_RATING,AST_PCT,AST_TOV,AST_RATIO,OREB_PCT,DREB_PCT,REB_PCT,TM_TOV_PCT,EFG_PCT,TS_PCT,USG_PCT,PACE,PIE,GAME_DATE_EST,GAME_SEQUENCE,TEAM_ABBREVIATION_y,TEAM_CITY_NAME,TEAM_WINS_LOSSES,PTS_QTR1,PTS_QTR2,PTS_QTR3,PTS_QTR4,PTS_OT1,PTS_OT2,PTS_OT3,PTS_OT4,PTS_OT5,PTS_OT6,PTS_OT7,PTS_OT8,PTS_OT9,PTS_OT10,PTS,FG_PCT,FT_PCT,FG3_PCT,AST,REB,TOV,GAME_ID_y,TEAM_ID_y,TEAM_ABBREVIATION,TEAM_CITY_y,PLAYER_NAME_y,START_POSITION_y,COMMENT_y,MIN_y,PTS_OFF_TOV,PTS_2ND_CHANCE,PTS_FB,PTS_PAINT,OPP_PTS_OFF_TOV,OPP_PTS_2ND_CHANCE,OPP_PTS_FB,OPP_PTS_PAINT,BLK,BLKA,PF,PFD
0021500734,1610612750,MIN,Minnesota,2419,Tayshaun Prince,F,,18:14,133.9,129.2,4.7,0.167,3.0,37.5,0.0,0.071,0.038,12.5,0.75,0.75,0.132,97.09,0.069,2016-02-02T00:00:00,5,MIN,Minnesota,14-36,26,26,29,34,0,0,0,0,0,0,0,0,0,0,115,0.575,0.76,0.235,36,33,15,0021500734,1610612750,MIN,Minnesota,Tayshaun Prince,F,,18:14,0.0,0.0,0.0,2.0,2.0,10.0,2.0,20.0,0.0,0.0,2.0,1.0
0021500734,1610612750,MIN,Minnesota,203476,Gorgui Dieng,F,,36:48,126.9,126.3,0.6,0.156,2.5,25.1,0.042,0.208,0.125,10.0,0.667,0.733,0.197,94.82,0.117,2016-02-02T00:00:00,5,MIN,Minnesota,14-36,26,26,29,34,0,0,0,0,0,0,0,0,0,0,115,0.575,0.76,0.235,36,33,15,0021500734,1610612750,MIN,Minnesota,Gorgui Dieng,F,,36:48,0.0,2.0,2.0,12.0,9.0,14.0,7.0,38.0,0.0,0.0,3.0,9.0
0021500734,1610612750,MIN,Minnesota,1626157,Karl-Anthony Towns,C,,31:58,123.7,125.8,-2.1,0.074,2.0,15.5,0.091,0.333,0.217,7.8,0.722,0.709,0.154,98.73,0.119,2016-02-02T00:00:00,5,MIN,Minnesota,14-36,26,26,29,34,0,0,0,0,0,0,0,0,0,0,115,0.575,0.76,0.235,36,33,15,0021500734,1610612750,MIN,Minnesota,Karl-Anthony Towns,C,,31:58,0.0,2.0,0.0,6.0,6.0,12.0,10.0,24.0,2.0,0.0,3.0,3.0
0021500734,1610612750,MIN,Minnesota,203952,Andrew Wiggins,G,,41:10,123.3,122.6,0.7,0.037,1.0,4.1,0.107,0.036,0.071,4.1,0.675,0.663,0.271,96.28,0.095,2016-02-02T00:00:00,5,MIN,Minnesota,14-36,26,26,29,34,0,0,0,0,0,0,0,0,0,0,115,0.575,0.76,0.235,36,33,15,0021500734,1610612750,MIN,Minnesota,Andrew Wiggins,G,,41:10,2.0,4.0,4.0,18.0,9.0,16.0,12.0,38.0,2.0,1.0,6.0,3.0
0021500734,1610612750,MIN,Minnesota,201937,Ricky Rubio,G,,29:01,129.3,141.1,-11.9,0.577,7.5,53.8,0.0,0.105,0.049,7.2,0.4,0.46,0.202,98.46,0.122,2016-02-02T00:00:00,5,MIN,Minnesota,14-36,26,26,29,34,0,0,0,0,0,0,0,0,0,0,115,0.575,0.76,0.235,36,33,15,0021500734,1610612750,MIN,Minnesota,Ricky Rubio,G,,29:01,0.0,0.0,4.0,6.0,4.0,12.0,10.0,28.0,0.0,0.0,1.0,1.0
0021500734,1610612750,MIN,Minnesota,203498,Shabazz Muhammad,,,23:29,105.0,106.3,-1.3,0.059,1.0,7.8,0.0,0.188,0.1,7.8,0.444,0.558,0.216,98.72,0.127,2016-02-02T00:00:00,5,MIN,Minnesota,14-36,26,26,29,34,0,0,0,0,0,0,0,0,0,0,115,0.575,0.76,0.235,36,33,15,0021500734,1610612750,MIN,Minnesota,Shabazz Muhammad,,,23:29,4.0,0.0,4.0,6.0,12.0,6.0,10.0,24.0,0.0,0.0,1.0,4.0
0021500734,1610612750,MIN,Minnesota,203940,Adreian Payne,,,6:31,66.7,134.3,-67.7,0.333,1.0,33.3,0.0,0.333,0.167,33.3,1.0,1.0,0.167,93.54,0.162,2016-02-02T00:00:00,5,MIN,Minnesota,14-36,26,26,29,34,0,0,0,0,0,0,0,0,0,0,115,0.575,0.76,0.235,36,33,15,0021500734,1610612750,MIN,Minnesota,Adreian Payne,,,6:31,0.0,0.0,0.0,2.0,3.0,4.0,3.0,12.0,0.0,0.0,0.0,1.0
0021500734,1610612750,MIN,Minnesota,203897,Zach LaVine,,,26:27,105.7,108.8,-3.1,0.438,1.75,30.4,0.0,0.063,0.032,17.4,0.583,0.583,0.267,99.88,0.086,2016-02-02T00:00:00,5,MIN,Minnesota,14-36,26,26,29,34,0,0,0,0,0,0,0,0,0,0,115,0.575,0.76,0.235,36,33,15,0021500734,1610612750,MIN,Minnesota,Zach LaVine,,,26:27,2.0,0.0,4.0,6.0,16.0,4.0,8.0,22.0,0.0,0.0,4.0,0.0
0021500734,1610612750,MIN,Minnesota,1889,Andre Miller,,,5:40,77.6,93.5,-15.9,0.0,0.0,0.0,0.0,0.667,0.25,50.0,0.5,0.5,0.269,104.36,0.087,2016-02-02T00:00:00,5,MIN,Minnesota,14-36,26,26,29,34,0,0,0,0,0,0,0,0,0,0,115,0.575,0.76,0.235,36,33,15,0021500734,1610612750,MIN,Minnesota,Andre Miller,,,5:40,0.0,0.0,2.0,2.0,5.0,0.0,3.0,6.0,0.0,1.0,0.0,0.0
0021500734,1610612750,MIN,Minnesota,202357,Nemanja Bjelica,,,6:22,89.5,86.5,3.1,0.25,0.0,100.0,0.0,0.25,0.091,0.0,0.0,0.0,0.0,111.19,0.2,2016-02-02T00:00:00,5,MIN,Minnesota,14-36,26,26,29,34,0,0,0,0,0,0,0,0,0,0,115,0.575,0.76,0.235,36,33,15,0021500734,1610612750,MIN,Minnesota,Nemanja Bjelica,,,6:22,0.0,0.0,0.0,0.0,5.0,0.0,3.0,6.0,0.0,0.0,0.0,1.0
0021500734,1610612750,MIN,Minnesota,204014,Damjan Rudez,,,14:22,115.8,106.6,9.2,0.0,0.0,0.0,0.25,0.0,0.118,0.0,0.5,0.615,0.14,102.03,0.068,2016-02-02T00:00:00,5,MIN,Minnesota,14-36,26,26,29,34,0,0,0,0,0,0,0,0,0,0,115,0.575,0.76,0.235,36,33,15,0021500734,1610612750,MIN,Minnesota,Damjan Rudez,,,14:22,2.0,2.0,2.0,4.0,9.0,2.0,7.0,12.0,0.0,0.0,1.0,1.0
0021500734,1610612750,MIN,Minnesota,1626145,Tyus Jones,,DNP - Coach's Decision                  ,,,,,,,0.0,,,,,,,0.0,,,2016-02-02T00:00:00,5,MIN,Minnesota,14-36,26,26,29,34,0,0,0,0,0,0,0,0,0,0,115,0.575,0.76,0.235,36,33,15,0021500734,1610612750,MIN,Minnesota,Tyus Jones,,DNP - Coach's Decision                  ,,,,,,,,,,,,,
0021500734,1610612750,MIN,Minnesota,2755,Kevin Martin,,DNP - Coach's Decision                  ,,,,,,,0.0,,,,,,,0.0,,,2016-02-02T00:00:00,5,MIN,Minnesota,14-36,26,26,29,34,0,0,0,0,0,0,0,0,0,0,115,0.575,0.76,0.235,36,33,15,0021500734,1610612750,MIN,Minnesota,Kevin Martin,,DNP - Coach's Decision                  ,,,,,,,,,,,,,
0021500734,1610612747,LAL,Los Angeles,977,Kobe Bryant,F,,33:01,130.9,123.2,7.7,0.263,2.5,15.0,0.087,0.13,0.109,6.0,0.643,0.723,0.377,98.41,0.198,2016-02-02T00:00:00,5,LAL,Los Angeles,10-41,27,39,26,27,0,0,0,0,0,0,0,0,0,0,119,0.5,0.771,0.462,23,31,9,0021500734,1610612747,LAL,Los Angeles,Kobe Bryant,F,,33:01,2.0,7.0,6.0,2.0,6.0,6.0,14.0,46.0,0.0,1.0,3.0,7.0
0021500734,1610612747,LAL,Los Angeles,203944,Julius Randle,F,,32:23,132.8,120.8,12.1,0.091,2.0,11.2,0.13,0.375,0.255,5.6,0.5,0.504,0.215,98.73,0.099,2016-02-02T00:00:00,5,LAL,Los Angeles,10-41,27,39,26,27,0,0,0,0,0,0,0,0,0,0,119,0.5,0.771,0.462,23,31,9,0021500734,1610612747,LAL,Los Angeles,Julius Randle,F,,32:23,4.0,5.0,2.0,14.0,6.0,8.0,12.0,44.0,0.0,1.0,3.0,1.0
0021500734,1610612747,LAL,Los Angeles,201579,Roy Hibbert,C,,16:10,107.9,131.7,-23.9,0.091,0.0,50.0,0.067,0.0,0.038,0.0,1.0,1.0,0.028,95.25,-0.007,2016-02-02T00:00:00,5,LAL,Los Angeles,10-41,27,39,26,27,0,0,0,0,0,0,0,0,0,0,119,0.5,0.771,0.462,23,31,9,0021500734,1610612747,LAL,Los Angeles,Roy Hibbert,C,,16:10,0.0,0.0,0.0,0.0,2.0,4.0,10.0,28.0,0.0,0.0,4.0,1.0
0021500734,1610612747,LAL,Los Angeles,101150,Lou Williams,G,,34:06,125.4,120.1,5.3,0.16,0.0,21.7,0.0,0.0,0.0,0.0,0.55,0.694,0.189,99.8,0.108,2016-02-02T00:00:00,5,LAL,Los Angeles,10-41,27,39,26,27,0,0,0,0,0,0,0,0,0,0,119,0.5,0.771,0.462,23,31,9,0021500734,1610612747,LAL,Los Angeles,Lou Williams,G,,34:06,0.0,0.0,0.0,2.0,8.0,10.0,14.0,46.0,0.0,1.0,1.0,5.0
0021500734,1610612747,LAL,Los Angeles,203903,Jordan Clarkson,G,,34:55,124.7,127.4,-2.7,0.091,2.0,11.8,0.0,0.136,0.064,5.9,0.615,0.576,0.19,99.28,0.085,2016-02-02T00:00:00,5,LAL,Los Angeles,10-41,27,39,26,27,0,0,0,0,0,0,0,0,0,0,119,0.5,0.771,0.462,23,31,9,0021500734,1610612747,LAL,Los Angeles,Jordan Clarkson,G,,34:55,2.0,2.0,0.0,14.0,6.0,8.0,16.0,54.0,0.0,0.0,1.0,1.0
0021500734,1610612747,LAL,Los Angeles,1626156,D'Angelo Russell,,,27:42,111.5,103.9,7.6,0.188,1.5,15.3,0.0,0.167,0.081,10.2,0.583,0.615,0.284,95.67,0.126,2016-02-02T00:00:00,5,LAL,Los Angeles,10-41,27,39,26,27,0,0,0,0,0,0,0,0,0,0,119,0.5,0.771,0.462,23,31,9,0021500734,1610612747,LAL,Los Angeles,D'Angelo Russell,,,27:42,6.0,0.0,7.0,8.0,6.0,4.0,16.0,30.0,0.0,1.0,2.0,3.0
0021500734,1610612747,LAL,Los Angeles,101138,Brandon Bass,,,27:27,117.1,111.3,5.7,0.182,4.0,42.9,0.059,0.125,0.091,10.7,0.667,0.694,0.088,99.53,0.071,2016-02-02T00:00:00,5,LAL,Los Angeles,10-41,27,39,26,27,0,0,0,0,0,0,0,0,0,0,119,0.5,0.771,0.462,23,31,9,0021500734,1610612747,LAL,Los Angeles,Brandon Bass,,,27:27,0.0,0.0,0.0,4.0,6.0,6.0,10.0,32.0,0.0,0.0,3.0,3.0
0021500734,1610612747,LAL,Los Angeles,204028,Tarik Black,,,19:60,117.0,108.6,8.4,0.143,2.0,40.0,0.0,0.308,0.182,20.0,0.5,0.5,0.073,97.9,0.037,2016-02-02T00:00:00,5,LAL,Los Angeles,10-41,27,39,26,27,0,0,0,0,0,0,0,0,0,0,119,0.5,0.771,0.462,23,31,9,0021500734,1610612747,LAL,Los Angeles,Tarik Black,,,19:60,0.0,2.0,0.0,2.0,6.0,2.0,12.0,24.0,2.0,0.0,5.0,0.0
0021500734,1610612747,LAL,Los Angeles,201156,Nick Young,,,14:16,95.1,97.4,-2.3,0.0,0.0,0.0,0.0,0.0,0.0,20.0,0.25,0.25,0.176,96.16,-0.073,2016-02-02T00:00:00,5,LAL,Los Angeles,10-41,27,39,26,27,0,0,0,0,0,0,0,0,0,0,119,0.5,0.771,0.462,23,31,9,0021500734,1610612747,LAL,Los Angeles,Nick Young,,,14:16,2.0,0.0,0.0,0.0,4.0,2.0,6.0,16.0,0.0,0.0,2.0,0.0
0021500734,1610612747,LAL,Los Angeles,1626148,Anthony Brown,,DNP - Coach's Decision                  ,,,,,,,0.0,,,,,,,0.0,,,2016-02-02T00:00:00,5,LAL,Los Angeles,10-41,27,39,26,27,0,0,0,0,0,0,0,0,0,0,119,0.5,0.771,0.462,23,31,9,0021500734,1610612747,LAL,Los Angeles,Anthony Brown,,DNP - Coach's Decision                  ,,,,,,,,,,,,,
0021500734,1610612747,LAL,Los Angeles,1626273,Marcelo Huertas,,DNP - Coach's Decision                  ,,,,,,,0.0,,,,,,,0.0,,,2016-02-02T00:00:00,5,LAL,Los Angeles,10-41,27,39,26,27,0,0,0,0,0,0,0,0,0,0,119,0.5,0.771,0.462,23,31,9,0021500734,1610612747,LAL,Los Angeles,Marcelo Huertas,,DNP - Coach's Decision                  ,,,,,,,,,,,,,
0021500734,1610612747,LAL,Los Angeles,203527,Ryan Kelly,,DNP - Coach's Decision                  ,,,,,,,0.0,,,,,,,0.0,,,2016-02-02T00:00:00,5,LAL,Los Angeles,10-41,27,39,26,27,0,0,0,0,0,0,0,0,0,0,119,0.5,0.771,0.462,23,31,9,0021500734,1610612747,LAL,Los Angeles,Ryan Kelly,,DNP - Coach's Decision                  ,,,,,,,,,,,,,
0021500734,1610612747,LAL,Los Angeles,203135,Robert Sacre,,DNP - Coach's Decision                  ,,,,,,,0.0,,,,,,,0.0,,,2016-02-02T00:00:00,5,LAL,Los Angeles,10-41,27,39,26,27,0,0,0,0,0,0,0,0,0,0,119,0.5,0.771,0.462,23,31,9,0021500734,1610612747,LAL,Los Angeles,Robert Sacre,,DNP - Coach's Decision                  ,,,,,,,,,,,,,
