GAME_ID_x,TEAM_ID_x,TEAM_ABBREVIATION_x,TEAM_CITY_x,PLAYER_ID,PLAYER_NAME_x,START_POSITION_x,COMMENT_x,MIN_x,OFF_RATING,DEF_RATING,NET_RATING,AST_PCT,AST_TOV,AST_RATIO,OREB_PCT,DREB_PCT,REB_PCT,TM_TOV_PCT,EFG_PCT,TS_PCT,USG_PCT,PACE,PIE,GAME_DATE_EST,GAME_SEQUENCE,TEAM_ABBREVIATION_y,TEAM_CITY_NAME,TEAM_WINS_LOSSES,PTS_QTR1,PTS_QTR2,PTS_QTR3,PTS_QTR4,PTS_OT1,PTS_OT2,PTS_OT3,PTS_OT4,PTS_OT5,PTS_OT6,PTS_OT7,PTS_OT8,PTS_OT9,PTS_OT10,PTS,FG_PCT,FT_PCT,FG3_PCT,AST,REB,TOV,GAME_ID_y,TEAM_ID_y,TEAM_ABBREVIATION,TEAM_CITY_y,PLAYER_NAME_y,START_POSITION_y,COMMENT_y,MIN_y,PTS_OFF_TOV,PTS_2ND_CHANCE,PTS_FB,PTS_PAINT,OPP_PTS_OFF_TOV,OPP_PTS_2ND_CHANCE,OPP_PTS_FB,OPP_PTS_PAINT,BLK,BLKA,PF,PFD
0021500740,1610612753,ORL,Orlando,202699,Tobias Harris,F,,34:23,119.3,105.7,13.6,0.107,0.0,16.8,0.061,0.167,0.111,0.0,0.536,0.504,0.19,99.37,0.095,2016-02-03T00:00:00,6,ORL,Orlando,21-27,32,33,29,20,0,0,0,0,0,0,0,0,0,0,114,0.495,0.833,0.435,25,39,9,0021500740,1610612753,ORL,Orlando,Tobias Harris,F,,34:23,2.0,2.0,2.0,10.0,2.0,5.0,12.0,34.0,0.0,3.0,1.0,2.0
0021500740,1610612753,ORL,Orlando,203932,Aaron Gordon,F,,25:34,117.5,117.8,-0.3,0.037,0.0,9.1,0.12,0.136,0.128,0.0,0.1,0.1,0.167,101.29,-0.012,2016-02-03T00:00:00,6,ORL,Orlando,21-27,32,33,29,20,0,0,0,0,0,0,0,0,0,0,114,0.495,0.833,0.435,25,39,9,0021500740,1610612753,ORL,Orlando,Aaron Gordon,F,,25:34,0.0,2.0,0.0,2.0,2.0,2.0,12.0,28.0,0.0,0.0,0.0,0.0
0021500740,1610612753,ORL,Orlando,202696,Nikola Vucevic,C,,36:21,107.5,115.2,-7.7,0.12,1.5,14.3,0.029,0.053,0.041,9.5,0.5,0.5,0.218,99.54,0.06,2016-02-03T00:00:00,6,ORL,Orlando,21-27,32,33,29,20,0,0,0,0,0,0,0,0,0,0,114,0.495,0.833,0.435,25,39,9,0021500740,1610612753,ORL,Orlando,Nikola Vucevic,C,,36:21,0.0,0.0,0.0,6.0,4.0,7.0,14.0,36.0,2.0,2.0,3.0,4.0
0021500740,1610612753,ORL,Orlando,203506,Victor Oladipo,G,,40:48,120.6,119.3,1.4,0.148,0.0,14.5,0.027,0.146,0.09,0.0,0.725,0.787,0.26,97.11,0.208,2016-02-03T00:00:00,6,ORL,Orlando,21-27,32,33,29,20,0,0,0,0,0,0,0,0,0,0,114,0.495,0.833,0.435,25,39,9,0021500740,1610612753,ORL,Orlando,Victor Oladipo,G,,40:48,5.0,4.0,2.0,10.0,6.0,13.0,13.0,40.0,1.0,1.0,4.0,8.0
0021500740,1610612753,ORL,Orlando,203901,Elfrid Payton,G,,29:09,89.0,97.2,-8.1,0.316,6.0,33.3,0.031,0.114,0.075,5.6,0.273,0.273,0.178,99.0,0.036,2016-02-03T00:00:00,6,ORL,Orlando,21-27,32,33,29,20,0,0,0,0,0,0,0,0,0,0,114,0.495,0.833,0.435,25,39,9,0021500740,1610612753,ORL,Orlando,Elfrid Payton,G,,29:09,0.0,0.0,0.0,4.0,6.0,2.0,15.0,24.0,0.0,3.0,4.0,1.0
0021500740,1610612753,ORL,Orlando,1626209,Mario Hezonja,,,19:48,149.7,151.0,-1.4,0.211,2.0,25.0,0.083,0.0,0.042,12.5,0.8,0.8,0.262,94.39,0.119,2016-02-03T00:00:00,6,ORL,Orlando,21-27,32,33,29,20,0,0,0,0,0,0,0,0,0,0,114,0.495,0.833,0.435,25,39,9,0021500740,1610612753,ORL,Orlando,Mario Hezonja,,,19:48,3.0,0.0,3.0,2.0,6.0,8.0,4.0,26.0,0.0,1.0,1.0,0.0
0021500740,1610612753,ORL,Orlando,203095,Evan Fournier,,,18:53,119.2,143.2,-24.0,0.125,0.67,20.2,0.0,0.05,0.029,30.4,0.625,0.717,0.184,95.93,0.045,2016-02-03T00:00:00,6,ORL,Orlando,21-27,32,33,29,20,0,0,0,0,0,0,0,0,0,0,114,0.495,0.833,0.435,25,39,9,0021500740,1610612753,ORL,Orlando,Evan Fournier,,,18:53,2.0,3.0,0.0,2.0,10.0,11.0,7.0,20.0,0.0,0.0,1.0,1.0
0021500740,1610612753,ORL,Orlando,101112,Channing Frye,,,17:11,128.3,136.4,-8.1,0.118,0.0,40.0,0.077,0.313,0.207,0.0,0.333,0.333,0.072,98.29,0.068,2016-02-03T00:00:00,6,ORL,Orlando,21-27,32,33,29,20,0,0,0,0,0,0,0,0,0,0,114,0.495,0.833,0.435,25,39,9,0021500740,1610612753,ORL,Orlando,Channing Frye,,,17:11,0.0,0.0,0.0,2.0,8.0,11.0,5.0,18.0,0.0,0.0,2.0,1.0
0021500740,1610612753,ORL,Orlando,201160,Jason Smith,,,17:54,121.4,122.5,-1.1,0.0,0.0,0.0,0.143,0.063,0.1,12.5,0.929,0.929,0.212,89.03,0.211,2016-02-03T00:00:00,6,ORL,Orlando,21-27,32,33,29,20,0,0,0,0,0,0,0,0,0,0,114,0.495,0.833,0.435,25,39,9,0021500740,1610612753,ORL,Orlando,Jason Smith,,,17:54,0.0,2.0,0.0,4.0,6.0,6.0,3.0,14.0,2.0,0.0,2.0,0.0
0021500740,1610612753,ORL,Orlando,203951,Keith Appling,,DNP - Coach's Decision                  ,,,,,,,0.0,,,,,,,0.0,,,2016-02-03T00:00:00,6,ORL,Orlando,21-27,32,33,29,20,0,0,0,0,0,0,0,0,0,0,114,0.495,0.833,0.435,25,39,9,0021500740,1610612753,ORL,Orlando,Keith Appling,,DNP - Coach's Decision                  ,,,,,,,,,,,,,
0021500740,1610612753,ORL,Orlando,203906,Devyn Marble,,DNP - Coach's Decision                  ,,,,,,,0.0,,,,,,,0.0,,,2016-02-03T00:00:00,6,ORL,Orlando,21-27,32,33,29,20,0,0,0,0,0,0,0,0,0,0,114,0.495,0.833,0.435,25,39,9,0021500740,1610612753,ORL,Orlando,Devyn Marble,,DNP - Coach's Decision                  ,,,,,,,,,,,,,
0021500740,1610612753,ORL,Orlando,203894,Shabazz Napier,,DNP - Coach's Decision                  ,,,,,,,0.0,,,,,,,0.0,,,2016-02-03T00:00:00,6,ORL,Orlando,21-27,32,33,29,20,0,0,0,0,0,0,0,0,0,0,114,0.495,0.833,0.435,25,39,9,0021500740,1610612753,ORL,Orlando,Shabazz Napier,,DNP - Coach's Decision                  ,,,,,,,,,,,,,
0021500740,1610612753,ORL,Orlando,203094,Andrew Nicholson,,DNP - Coach's Decision                  ,,,,,,,0.0,,,,,,,0.0,,,2016-02-03T00:00:00,6,ORL,Orlando,21-27,32,33,29,20,0,0,0,0,0,0,0,0,0,0,114,0.495,0.833,0.435,25,39,9,0021500740,1610612753,ORL,Orlando,Andrew Nicholson,,DNP - Coach's Decision                  ,,,,,,,,,,,,,
0021500740,1610612760,OKC,Oklahoma City,201142,Kevin Durant,F,,37:19,115.9,112.2,3.7,0.238,1.25,13.3,0.0,0.139,0.07,10.7,0.6,0.649,0.362,99.25,0.193,2016-02-03T00:00:00,6,OKC,Oklahoma City,38-13,32,34,30,21,0,0,0,0,0,0,0,0,0,0,117,0.473,0.8,0.333,25,50,13,0021500740,1610612760,OKC,Oklahoma City,Kevin Durant,F,,37:19,4.0,2.0,7.0,8.0,10.0,10.0,7.0,34.0,3.0,1.0,1.0,4.0
0021500740,1610612760,OKC,Oklahoma City,201586,Serge Ibaka,F,,36:19,111.2,107.5,3.6,0.034,1.0,7.4,0.103,0.083,0.093,7.4,0.364,0.393,0.135,100.31,0.045,2016-02-03T00:00:00,6,OKC,Oklahoma City,38-13,32,34,30,21,0,0,0,0,0,0,0,0,0,0,117,0.473,0.8,0.333,25,50,13,0021500740,1610612760,OKC,Oklahoma City,Serge Ibaka,F,,36:19,0.0,3.0,0.0,6.0,7.0,8.0,4.0,32.0,6.0,0.0,3.0,1.0
0021500740,1610612760,OKC,Oklahoma City,203500,Steven Adams,C,,36:01,122.2,105.0,17.2,0.0,0.0,0.0,0.081,0.162,0.122,27.6,0.429,0.444,0.123,97.87,0.016,2016-02-03T00:00:00,6,OKC,Oklahoma City,38-13,32,34,30,21,0,0,0,0,0,0,0,0,0,0,117,0.473,0.8,0.333,25,50,13,0021500740,1610612760,OKC,Oklahoma City,Steven Adams,C,,36:01,0.0,2.0,1.0,6.0,7.0,11.0,4.0,30.0,0.0,0.0,4.0,2.0
0021500740,1610612760,OKC,Oklahoma City,203079,Dion Waiters,G,,34:07,111.3,116.1,-4.8,0.071,2.0,17.2,0.0,0.061,0.031,8.6,0.333,0.463,0.115,101.55,0.026,2016-02-03T00:00:00,6,OKC,Oklahoma City,38-13,32,34,30,21,0,0,0,0,0,0,0,0,0,0,117,0.473,0.8,0.333,25,50,13,0021500740,1610612760,OKC,Oklahoma City,Dion Waiters,G,,34:07,0.0,0.0,3.0,4.0,10.0,10.0,7.0,34.0,0.0,1.0,2.0,3.0
0021500740,1610612760,OKC,Oklahoma City,201566,Russell Westbrook,G,,37:41,112.0,102.1,9.9,0.56,7.0,39.1,0.175,0.316,0.244,5.6,0.556,0.607,0.23,99.91,0.286,2016-02-03T00:00:00,6,OKC,Oklahoma City,38-13,32,34,30,21,0,0,0,0,0,0,0,0,0,0,117,0.473,0.8,0.333,25,50,13,0021500740,1610612760,OKC,Oklahoma City,Russell Westbrook,G,,37:41,0.0,0.0,6.0,12.0,7.0,8.0,4.0,34.0,0.0,1.0,1.0,5.0
0021500740,1610612760,OKC,Oklahoma City,202713,Kyle Singler,,,13:33,142.5,153.9,-11.4,0.0,0.0,0.0,0.0,0.0,0.0,0.0,0.625,0.625,0.121,93.13,0.044,2016-02-03T00:00:00,6,OKC,Oklahoma City,38-13,32,34,30,21,0,0,0,0,0,0,0,0,0,0,117,0.473,0.8,0.333,25,50,13,0021500740,1610612760,OKC,Oklahoma City,Kyle Singler,,,13:33,0.0,0.0,0.0,2.0,5.0,5.0,3.0,12.0,0.0,0.0,2.0,0.0
0021500740,1610612760,OKC,Oklahoma City,1626166,Cameron Payne,,,14:10,142.7,145.1,-2.3,0.333,0.0,30.7,0.0,0.125,0.056,0.0,0.6,0.666,0.221,87.08,0.143,2016-02-03T00:00:00,6,OKC,Oklahoma City,38-13,32,34,30,21,0,0,0,0,0,0,0,0,0,0,117,0.473,0.8,0.333,25,50,13,0021500740,1610612760,OKC,Oklahoma City,Cameron Payne,,,14:10,2.0,0.0,0.0,0.0,5.0,5.0,3.0,10.0,0.0,0.0,1.0,2.0
0021500740,1610612760,OKC,Oklahoma City,202683,Enes Kanter,,,16:26,131.1,149.0,-18.0,0.0,0.0,0.0,0.455,0.222,0.35,11.1,0.813,0.813,0.246,92.57,0.163,2016-02-03T00:00:00,6,OKC,Oklahoma City,38-13,32,34,30,21,0,0,0,0,0,0,0,0,0,0,117,0.473,0.8,0.333,25,50,13,0021500740,1610612760,OKC,Oklahoma City,Enes Kanter,,,16:26,4.0,4.0,0.0,10.0,7.0,5.0,3.0,16.0,1.0,1.0,2.0,1.0
0021500740,1610612760,OKC,Oklahoma City,201627,Anthony Morrow,,,9:38,135.4,140.8,-5.3,0.0,0.0,0.0,0.0,0.0,0.0,0.0,0.313,0.313,0.317,92.08,-0.022,2016-02-03T00:00:00,6,OKC,Oklahoma City,38-13,32,34,30,21,0,0,0,0,0,0,0,0,0,0,117,0.473,0.8,0.333,25,50,13,0021500740,1610612760,OKC,Oklahoma City,Anthony Morrow,,,9:38,0.0,2.0,0.0,0.0,2.0,3.0,0.0,6.0,0.0,0.0,0.0,0.0
0021500740,1610612760,OKC,Oklahoma City,2555,Nick Collison,,,4:47,123.9,122.2,1.7,0.0,0.0,0.0,0.0,0.0,0.0,50.0,0.0,0.0,0.184,89.87,-0.182,2016-02-03T00:00:00,6,OKC,Oklahoma City,38-13,32,34,30,21,0,0,0,0,0,0,0,0,0,0,117,0.473,0.8,0.333,25,50,13,0021500740,1610612760,OKC,Oklahoma City,Nick Collison,,,4:47,0.0,0.0,0.0,0.0,0.0,0.0,0.0,2.0,0.0,1.0,1.0,0.0
0021500740,1610612760,OKC,Oklahoma City,201571,D.J. Augustin,,DNP - Coach's Decision                  ,,,,,,,0.0,,,,,,,0.0,,,2016-02-03T00:00:00,6,OKC,Oklahoma City,38-13,32,34,30,21,0,0,0,0,0,0,0,0,0,0,117,0.473,0.8,0.333,25,50,13,0021500740,1610612760,OKC,Oklahoma City,D.J. Augustin,,DNP - Coach's Decision                  ,,,,,,,,,,,,,
0021500740,1610612760,OKC,Oklahoma City,203956,Mitch McGary,,DNP - Coach's Decision                  ,,,,,,,0.0,,,,,,,0.0,,,2016-02-03T00:00:00,6,OKC,Oklahoma City,38-13,32,34,30,21,0,0,0,0,0,0,0,0,0,0,117,0.473,0.8,0.333,25,50,13,0021500740,1610612760,OKC,Oklahoma City,Mitch McGary,,DNP - Coach's Decision                  ,,,,,,,,,,,,,
0021500740,1610612760,OKC,Oklahoma City,200779,Steve Novak,,DNP - Coach's Decision                  ,,,,,,,0.0,,,,,,,0.0,,,2016-02-03T00:00:00,6,OKC,Oklahoma City,38-13,32,34,30,21,0,0,0,0,0,0,0,0,0,0,117,0.473,0.8,0.333,25,50,13,0021500740,1610612760,OKC,Oklahoma City,Steve Novak,,DNP - Coach's Decision                  ,,,,,,,,,,,,,
