GAME_ID_x,TEAM_ID_x,TEAM_ABBREVIATION_x,TEAM_CITY_x,PLAYER_ID,PLAYER_NAME_x,START_POSITION_x,COMMENT_x,MIN_x,OFF_RATING,DEF_RATING,NET_RATING,AST_PCT,AST_TOV,AST_RATIO,OREB_PCT,DREB_PCT,REB_PCT,TM_TOV_PCT,EFG_PCT,TS_PCT,USG_PCT,PACE,PIE,GAME_DATE_EST,GAME_SEQUENCE,TEAM_ABBREVIATION_y,TEAM_CITY_NAME,TEAM_WINS_LOSSES,PTS_QTR1,PTS_QTR2,PTS_QTR3,PTS_QTR4,PTS_OT1,PTS_OT2,PTS_OT3,PTS_OT4,PTS_OT5,PTS_OT6,PTS_OT7,PTS_OT8,PTS_OT9,PTS_OT10,PTS,FG_PCT,FT_PCT,FG3_PCT,AST,REB,TOV,GAME_ID_y,TEAM_ID_y,TEAM_ABBREVIATION,TEAM_CITY_y,PLAYER_NAME_y,START_POSITION_y,COMMENT_y,MIN_y,PTS_OFF_TOV,PTS_2ND_CHANCE,PTS_FB,PTS_PAINT,OPP_PTS_OFF_TOV,OPP_PTS_2ND_CHANCE,OPP_PTS_FB,OPP_PTS_PAINT,BLK,BLKA,PF,PFD
0021500746,1610612752,NYK,New York,2546,Carmelo Anthony,F,,39:60,103.9,104.6,-0.6,0.32,2.67,22.8,0.0,0.306,0.157,8.5,0.25,0.393,0.306,100.73,0.112,2016-02-04T00:00:00,1,NYK,New York,23-29,15,21,35,34,0,0,0,0,0,0,0,0,0,0,105,0.429,0.794,0.273,20,43,9,0021500746,1610612752,NYK,New York,Carmelo Anthony,F,,39:60,4.0,0.0,1.0,2.0,6.0,7.0,13.0,34.0,0.0,2.0,2.0,9.0
0021500746,1610612752,NYK,New York,204001,Kristaps Porzingis,F,,24:12,87.0,98.1,-11.1,0.0,0.0,0.0,0.0,0.222,0.087,0.0,0.278,0.278,0.155,107.22,0.026,2016-02-04T00:00:00,1,NYK,New York,23-29,15,21,35,34,0,0,0,0,0,0,0,0,0,0,105,0.429,0.794,0.273,20,43,9,0021500746,1610612752,NYK,New York,Kristaps Porzingis,F,,24:12,0.0,0.0,0.0,2.0,0.0,0.0,7.0,12.0,0.0,0.0,0.0,1.0
0021500746,1610612752,NYK,New York,201577,Robin Lopez,C,,35:15,118.9,107.3,11.6,0.111,1.0,10.1,0.214,0.323,0.271,10.1,0.786,0.825,0.221,98.73,0.241,2016-02-04T00:00:00,1,NYK,New York,23-29,15,21,35,34,0,0,0,0,0,0,0,0,0,0,105,0.429,0.794,0.273,20,43,9,0021500746,1610612752,NYK,New York,Robin Lopez,C,,35:15,2.0,10.0,0.0,22.0,6.0,7.0,6.0,30.0,0.0,0.0,4.0,3.0
0021500746,1610612752,NYK,New York,201167,Arron Afflalo,G,,43:18,108.7,106.7,2.0,0.115,1.5,12.8,0.0,0.081,0.04,8.5,0.567,0.648,0.207,101.42,0.118,2016-02-04T00:00:00,1,NYK,New York,23-29,15,21,35,34,0,0,0,0,0,0,0,0,0,0,105,0.429,0.794,0.273,20,43,9,0021500746,1610612752,NYK,New York,Arron Afflalo,G,,43:18,0.0,0.0,0.0,8.0,6.0,7.0,13.0,36.0,0.0,1.0,3.0,4.0
0021500746,1610612752,NYK,New York,101181,Jose Calderon,G,,12:39,54.3,109.1,-54.9,0.6,3.0,42.9,0.0,0.0,0.0,14.3,0.0,0.0,0.14,108.12,-0.022,2016-02-04T00:00:00,1,NYK,New York,23-29,15,21,35,34,0,0,0,0,0,0,0,0,0,0,105,0.429,0.794,0.273,20,43,9,0021500746,1610612752,NYK,New York,Jose Calderon,G,,12:39,0.0,0.0,0.0,0.0,0.0,0.0,8.0,10.0,0.0,0.0,1.0,0.0
0021500746,1610612752,NYK,New York,202498,Lance Thomas,,,30:38,122.8,110.5,12.4,0.04,0.0,11.4,0.0,0.038,0.019,0.0,0.417,0.58,0.113,97.32,0.027,2016-02-04T00:00:00,1,NYK,New York,23-29,15,21,35,34,0,0,0,0,0,0,0,0,0,0,105,0.429,0.794,0.273,20,43,9,0021500746,1610612752,NYK,New York,Lance Thomas,,,30:38,0.0,0.0,0.0,2.0,6.0,7.0,5.0,26.0,0.0,0.0,4.0,3.0
0021500746,1610612752,NYK,New York,204038,Langston Galloway,,,35:33,119.3,106.2,13.0,0.091,2.0,15.5,0.033,0.138,0.085,7.8,0.889,0.86,0.144,95.85,0.118,2016-02-04T00:00:00,1,NYK,New York,23-29,15,21,35,34,0,0,0,0,0,0,0,0,0,0,105,0.429,0.794,0.273,20,43,9,0021500746,1610612752,NYK,New York,Langston Galloway,,,35:33,2.0,2.0,3.0,8.0,6.0,7.0,5.0,28.0,0.0,0.0,6.0,1.0
0021500746,1610612752,NYK,New York,2756,Sasha Vujacic,,,10:34,87.7,133.4,-45.7,0.143,0.0,14.3,0.059,0.25,0.095,0.0,0.167,0.167,0.222,114.85,-0.115,2016-02-04T00:00:00,1,NYK,New York,23-29,15,21,35,34,0,0,0,0,0,0,0,0,0,0,105,0.429,0.794,0.273,20,43,9,0021500746,1610612752,NYK,New York,Sasha Vujacic,,,10:34,0.0,2.0,0.0,2.0,0.0,0.0,7.0,6.0,0.0,0.0,5.0,0.0
0021500746,1610612752,NYK,New York,202682,Derrick Williams,,,5:39,70.5,117.6,-47.0,0.0,0.0,0.0,0.0,0.333,0.091,0.0,0.333,0.387,0.304,108.31,0.063,2016-02-04T00:00:00,1,NYK,New York,23-29,15,21,35,34,0,0,0,0,0,0,0,0,0,0,105,0.429,0.794,0.273,20,43,9,0021500746,1610612752,NYK,New York,Derrick Williams,,,5:39,0.0,0.0,1.0,0.0,0.0,0.0,4.0,4.0,0.0,0.0,0.0,1.0
0021500746,1610612752,NYK,New York,203124,Kyle O'Quinn,,,2:06,0.0,126.6,-126.6,0.0,0.0,0.0,0.0,0.0,0.0,0.0,0.0,0.0,0.2,129.37,-0.182,2016-02-04T00:00:00,1,NYK,New York,23-29,15,21,35,34,0,0,0,0,0,0,0,0,0,0,105,0.429,0.794,0.273,20,43,9,0021500746,1610612752,NYK,New York,Kyle O'Quinn,,,2:06,0.0,0.0,0.0,0.0,0.0,0.0,5.0,2.0,0.0,0.0,0.0,0.0
0021500746,1610612752,NYK,New York,1626170,Jerian Grant,,,0:06,0.0,212.8,-212.8,0.0,0.0,0.0,0.0,0.0,0.0,0.0,0.0,0.0,0.0,658.29,0.0,2016-02-04T00:00:00,1,NYK,New York,23-29,15,21,35,34,0,0,0,0,0,0,0,0,0,0,105,0.429,0.794,0.273,20,43,9,0021500746,1610612752,NYK,New York,Jerian Grant,,,0:06,0.0,0.0,0.0,0.0,0.0,0.0,2.0,2.0,0.0,0.0,0.0,0.0
0021500746,1610612752,NYK,New York,200811,Lou Amundson,,DNP - Coach's Decision                  ,,,,,,,0.0,,,,,,,0.0,,,2016-02-04T00:00:00,1,NYK,New York,23-29,15,21,35,34,0,0,0,0,0,0,0,0,0,0,105,0.429,0.794,0.273,20,43,9,0021500746,1610612752,NYK,New York,Lou Amundson,,DNP - Coach's Decision                  ,,,,,,,,,,,,,
0021500746,1610612752,NYK,New York,202338,Kevin Seraphin,,DNP - Coach's Decision                  ,,,,,,,0.0,,,,,,,0.0,,,2016-02-04T00:00:00,1,NYK,New York,23-29,15,21,35,34,0,0,0,0,0,0,0,0,0,0,105,0.429,0.794,0.273,20,43,9,0021500746,1610612752,NYK,New York,Kevin Seraphin,,DNP - Coach's Decision                  ,,,,,,,,,,,,,
0021500746,1610612765,DET,Detroit,202694,Marcus Morris,F,,39:06,100.8,110.2,-9.4,0.16,0.0,23.7,0.0,0.118,0.057,0.0,0.458,0.505,0.148,101.25,0.096,2016-02-04T00:00:00,1,DET,Detroit,27-24,27,33,18,33,0,0,0,0,0,0,0,0,0,0,111,0.506,0.667,0.529,17,42,13,0021500746,1610612765,DET,Detroit,Marcus Morris,F,,39:06,0.0,0.0,3.0,2.0,8.0,14.0,5.0,38.0,0.0,0.0,2.0,5.0
0021500746,1610612765,DET,Detroit,101141,Ersan Ilyasova,F,,30:54,98.9,109.5,-10.7,0.05,0.33,7.2,0.0,0.2,0.098,21.6,0.556,0.607,0.196,97.65,0.083,2016-02-04T00:00:00,1,DET,Detroit,27-24,27,33,18,33,0,0,0,0,0,0,0,0,0,0,111,0.506,0.667,0.529,17,42,13,0021500746,1610612765,DET,Detroit,Ersan Ilyasova,F,,30:54,0.0,0.0,0.0,0.0,6.0,6.0,3.0,30.0,0.0,0.0,2.0,2.0
0021500746,1610612765,DET,Detroit,203083,Andre Drummond,C,,31:38,91.4,101.7,-10.3,0.0,0.0,0.0,0.107,0.385,0.241,20.0,0.583,0.533,0.286,98.33,0.122,2016-02-04T00:00:00,1,DET,Detroit,27-24,27,33,18,33,0,0,0,0,0,0,0,0,0,0,111,0.506,0.667,0.529,17,42,13,0021500746,1610612765,DET,Detroit,Andre Drummond,C,,31:38,2.0,4.0,3.0,14.0,8.0,8.0,4.0,32.0,1.0,0.0,4.0,6.0
0021500746,1610612765,DET,Detroit,1626169,Stanley Johnson,G,,44:01,112.9,103.0,9.9,0.156,2.5,22.2,0.0,0.22,0.118,8.9,0.625,0.709,0.177,102.48,0.166,2016-02-04T00:00:00,1,DET,Detroit,27-24,27,33,18,33,0,0,0,0,0,0,0,0,0,0,111,0.506,0.667,0.529,17,42,13,0021500746,1610612765,DET,Detroit,Stanley Johnson,G,,44:01,2.0,0.0,3.0,10.0,8.0,14.0,4.0,46.0,1.0,0.0,3.0,5.0
0021500746,1610612765,DET,Detroit,202704,Reggie Jackson,G,,31:45,106.5,119.3,-12.8,0.263,5.0,18.9,0.0,0.042,0.019,3.8,0.469,0.515,0.303,99.22,0.098,2016-02-04T00:00:00,1,DET,Detroit,27-24,27,33,18,33,0,0,0,0,0,0,0,0,0,0,111,0.506,0.667,0.529,17,42,13,0021500746,1610612765,DET,Detroit,Reggie Jackson,G,,31:45,2.0,0.0,0.0,4.0,8.0,14.0,3.0,36.0,0.0,0.0,2.0,5.0
0021500746,1610612765,DET,Detroit,1626199,Darrun Hilliard,,,14:58,106.8,84.1,22.6,0.0,0.0,0.0,0.0,0.048,0.033,20.0,0.75,0.75,0.157,104.45,0.07,2016-02-04T00:00:00,1,DET,Detroit,27-24,27,33,18,33,0,0,0,0,0,0,0,0,0,0,111,0.506,0.667,0.529,17,42,13,0021500746,1610612765,DET,Detroit,Darrun Hilliard,,,14:58,0.0,0.0,2.0,2.0,0.0,2.0,1.0,8.0,0.0,0.0,2.0,0.0
0021500746,1610612765,DET,Detroit,201943,Brandon Jennings,,,16:21,117.0,76.9,40.1,0.182,1.0,18.4,0.0,0.136,0.094,18.4,0.75,0.799,0.236,108.63,0.229,2016-02-04T00:00:00,1,DET,Detroit,27-24,27,33,18,33,0,0,0,0,0,0,0,0,0,0,111,0.506,0.667,0.529,17,42,13,0021500746,1610612765,DET,Detroit,Brandon Jennings,,,16:21,0.0,0.0,4.0,2.0,0.0,0.0,2.0,10.0,0.0,0.0,0.0,2.0
0021500746,1610612765,DET,Detroit,203382,Aron Baynes,,,16:19,138.4,105.1,33.3,0.0,0.0,0.0,0.0,0.053,0.033,0.0,0.429,0.429,0.19,107.35,0.018,2016-02-04T00:00:00,1,DET,Detroit,27-24,27,33,18,33,0,0,0,0,0,0,0,0,0,0,111,0.506,0.667,0.529,17,42,13,0021500746,1610612765,DET,Detroit,Aron Baynes,,,16:19,0.0,0.0,0.0,4.0,0.0,4.0,1.0,14.0,1.0,0.0,2.0,0.0
0021500746,1610612765,DET,Detroit,201229,Anthony Tolliver,,,14:58,126.7,104.2,22.5,0.0,0.0,0.0,0.091,0.222,0.172,0.0,1.5,1.5,0.029,105.47,0.039,2016-02-04T00:00:00,1,DET,Detroit,27-24,27,33,18,33,0,0,0,0,0,0,0,0,0,0,111,0.506,0.667,0.529,17,42,13,0021500746,1610612765,DET,Detroit,Anthony Tolliver,,,14:58,0.0,3.0,0.0,0.0,2.0,8.0,2.0,16.0,0.0,0.0,5.0,0.0
0021500746,1610612765,DET,Detroit,201202,Joel Anthony,,DNP - Coach's Decision                  ,,,,,,,0.0,,,,,,,0.0,,,2016-02-04T00:00:00,1,DET,Detroit,27-24,27,33,18,33,0,0,0,0,0,0,0,0,0,0,111,0.506,0.667,0.529,17,42,13,0021500746,1610612765,DET,Detroit,Joel Anthony,,DNP - Coach's Decision                  ,,,,,,,,,,,,,
0021500746,1610612765,DET,Detroit,2581,Steve Blake,,DNP - Coach's Decision                  ,,,,,,,0.0,,,,,,,0.0,,,2016-02-04T00:00:00,1,DET,Detroit,27-24,27,33,18,33,0,0,0,0,0,0,0,0,0,0,111,0.506,0.667,0.529,17,42,13,0021500746,1610612765,DET,Detroit,Steve Blake,,DNP - Coach's Decision                  ,,,,,,,,,,,,,
0021500746,1610612765,DET,Detroit,203493,Reggie Bullock,,DNP - Coach's Decision                  ,,,,,,,0.0,,,,,,,0.0,,,2016-02-04T00:00:00,1,DET,Detroit,27-24,27,33,18,33,0,0,0,0,0,0,0,0,0,0,111,0.506,0.667,0.529,17,42,13,0021500746,1610612765,DET,Detroit,Reggie Bullock,,DNP - Coach's Decision                  ,,,,,,,,,,,,,
0021500746,1610612765,DET,Detroit,203484,Kentavious Caldwell-Pope,,DNP - Coach's Decision                  ,,,,,,,0.0,,,,,,,0.0,,,2016-02-04T00:00:00,1,DET,Detroit,27-24,27,33,18,33,0,0,0,0,0,0,0,0,0,0,111,0.506,0.667,0.529,17,42,13,0021500746,1610612765,DET,Detroit,Kentavious Caldwell-Pope,,DNP - Coach's Decision                  ,,,,,,,,,,,,,
