GAME_ID_x,TEAM_ID_x,TEAM_ABBREVIATION_x,TEAM_CITY_x,PLAYER_ID,PLAYER_NAME_x,START_POSITION_x,COMMENT_x,MIN_x,OFF_RATING,DEF_RATING,NET_RATING,AST_PCT,AST_TOV,AST_RATIO,OREB_PCT,DREB_PCT,REB_PCT,TM_TOV_PCT,EFG_PCT,TS_PCT,USG_PCT,PACE,PIE,GAME_DATE_EST,GAME_SEQUENCE,TEAM_ABBREVIATION_y,TEAM_CITY_NAME,TEAM_WINS_LOSSES,PTS_QTR1,PTS_QTR2,PTS_QTR3,PTS_QTR4,PTS_OT1,PTS_OT2,PTS_OT3,PTS_OT4,PTS_OT5,PTS_OT6,PTS_OT7,PTS_OT8,PTS_OT9,PTS_OT10,PTS,FG_PCT,FT_PCT,FG3_PCT,AST,REB,TOV,GAME_ID_y,TEAM_ID_y,TEAM_ABBREVIATION,TEAM_CITY_y,PLAYER_NAME_y,START_POSITION_y,COMMENT_y,MIN_y,PTS_OFF_TOV,PTS_2ND_CHANCE,PTS_FB,PTS_PAINT,OPP_PTS_OFF_TOV,OPP_PTS_2ND_CHANCE,OPP_PTS_FB,OPP_PTS_PAINT,BLK,BLKA,PF,PFD
0021500761,1610612764,WAS,Washington,203490,Otto Porter Jr.,F,,39:01,108.0,101.5,6.5,0.0,0.0,0.0,0.057,0.171,0.114,5.7,0.571,0.601,0.206,98.1,0.142,2016-02-06T00:00:00,2,WAS,Washington,22-27,25,33,17,29,0,0,0,0,0,0,0,0,0,0,104,0.442,0.792,0.36,22,44,11,0021500761,1610612764,WAS,Washington,Otto Porter Jr.,F,,39:01,7.0,3.0,8.0,10.0,13.0,8.0,5.0,26.0,1.0,1.0,1.0,5.0
0021500761,1610612764,WAS,Washington,201162,Jared Dudley,F,,26:28,88.6,122.0,-33.4,0.071,0.5,9.1,0.0,0.0,0.0,18.2,0.625,0.625,0.169,99.15,0.069,2016-02-06T00:00:00,2,WAS,Washington,22-27,25,33,17,29,0,0,0,0,0,0,0,0,0,0,104,0.442,0.792,0.36,22,44,11,0021500761,1610612764,WAS,Washington,Jared Dudley,F,,26:28,0.0,0.0,6.0,0.0,11.0,4.0,12.0,22.0,1.0,0.0,0.0,0.0
0021500761,1610612764,WAS,Washington,101162,Marcin Gortat,C,,35:03,97.8,116.9,-19.1,0.087,0.0,15.7,0.03,0.414,0.21,0.0,0.444,0.511,0.139,100.21,0.117,2016-02-06T00:00:00,2,WAS,Washington,22-27,25,33,17,29,0,0,0,0,0,0,0,0,0,0,104,0.442,0.792,0.36,22,44,11,0021500761,1610612764,WAS,Washington,Marcin Gortat,C,,35:03,2.0,0.0,0.0,4.0,13.0,6.0,12.0,28.0,1.0,0.0,2.0,3.0
0021500761,1610612764,WAS,Washington,202066,Garrett Temple,G,,24:44,90.6,108.0,-17.3,0.056,0.5,14.3,0.042,0.091,0.065,28.6,0.25,0.25,0.107,103.49,-0.036,2016-02-06T00:00:00,2,WAS,Washington,22-27,25,33,17,29,0,0,0,0,0,0,0,0,0,0,104,0.442,0.792,0.36,22,44,11,0021500761,1610612764,WAS,Washington,Garrett Temple,G,,24:44,2.0,0.0,2.0,2.0,10.0,4.0,9.0,24.0,0.0,0.0,5.0,1.0
0021500761,1610612764,WAS,Washington,202322,John Wall,G,,39:38,99.9,118.4,-18.5,0.455,5.0,30.8,0.0,0.182,0.086,6.2,0.471,0.56,0.256,99.87,0.156,2016-02-06T00:00:00,2,WAS,Washington,22-27,25,33,17,29,0,0,0,0,0,0,0,0,0,0,104,0.442,0.792,0.36,22,44,11,0021500761,1610612764,WAS,Washington,John Wall,G,,39:38,7.0,3.0,5.0,4.0,15.0,10.0,13.0,34.0,0.0,1.0,3.0,7.0
0021500761,1610612764,WAS,Washington,202390,Gary Neal,,,15:23,111.3,95.0,16.3,0.0,0.0,0.0,0.0,0.0,0.0,0.0,0.143,0.143,0.203,99.97,-0.063,2016-02-06T00:00:00,2,WAS,Washington,22-27,25,33,17,29,0,0,0,0,0,0,0,0,0,0,104,0.442,0.792,0.36,22,44,11,0021500761,1610612764,WAS,Washington,Gary Neal,,,15:23,0.0,0.0,0.0,0.0,6.0,2.0,8.0,12.0,0.0,0.0,0.0,0.0
0021500761,1610612764,WAS,Washington,201196,Ramon Sessions,,,22:36,120.6,105.5,15.1,0.167,1.5,18.9,0.053,0.19,0.125,12.6,0.3,0.368,0.256,100.55,0.058,2016-02-06T00:00:00,2,WAS,Washington,22-27,25,33,17,29,0,0,0,0,0,0,0,0,0,0,104,0.442,0.792,0.36,22,44,11,0021500761,1610612764,WAS,Washington,Ramon Sessions,,,22:36,0.0,0.0,2.0,4.0,5.0,2.0,4.0,12.0,1.0,3.0,1.0,3.0
0021500761,1610612764,WAS,Washington,2400,Drew Gooden,,,12:58,123.3,81.3,41.9,0.25,0.0,33.3,0.273,0.286,0.28,0.0,0.75,0.75,0.134,100.46,0.239,2016-02-06T00:00:00,2,WAS,Washington,22-27,25,33,17,29,0,0,0,0,0,0,0,0,0,0,104,0.442,0.792,0.36,22,44,11,0021500761,1610612764,WAS,Washington,Drew Gooden,,,12:58,0.0,4.0,0.0,6.0,4.0,4.0,1.0,8.0,1.0,0.0,5.0,0.0
0021500761,1610612764,WAS,Washington,203078,Bradley Beal,,,20:09,121.7,86.8,34.9,0.3,3.0,16.0,0.0,0.087,0.051,5.3,0.731,0.745,0.337,104.42,0.239,2016-02-06T00:00:00,2,WAS,Washington,22-27,25,33,17,29,0,0,0,0,0,0,0,0,0,0,104,0.442,0.792,0.36,22,44,11,0021500761,1610612764,WAS,Washington,Bradley Beal,,,20:09,2.0,0.0,3.0,2.0,6.0,6.0,1.0,12.0,0.0,0.0,4.0,2.0
0021500761,1610612764,WAS,Washington,1626162,Kelly Oubre Jr.,,,4:01,103.1,104.7,-1.6,0.0,0.0,0.0,0.0,0.0,0.0,100.0,0.0,0.0,0.102,92.09,-0.25,2016-02-06T00:00:00,2,WAS,Washington,22-27,25,33,17,29,0,0,0,0,0,0,0,0,0,0,104,0.442,0.792,0.36,22,44,11,0021500761,1610612764,WAS,Washington,Kelly Oubre Jr.,,,4:01,0.0,0.0,0.0,0.0,2.0,4.0,0.0,2.0,0.0,0.0,0.0,0.0
0021500761,1610612764,WAS,Washington,201971,DeJuan Blair,,DNP - Coach's Decision                  ,,,,,,,0.0,,,,,,,0.0,,,2016-02-06T00:00:00,2,WAS,Washington,22-27,25,33,17,29,0,0,0,0,0,0,0,0,0,0,104,0.442,0.792,0.36,22,44,11,0021500761,1610612764,WAS,Washington,DeJuan Blair,,DNP - Coach's Decision                  ,,,,,,,,,,,,,
0021500761,1610612764,WAS,Washington,204067,Jarell Eddie,,DNP - Coach's Decision                  ,,,,,,,0.0,,,,,,,0.0,,,2016-02-06T00:00:00,2,WAS,Washington,22-27,25,33,17,29,0,0,0,0,0,0,0,0,0,0,104,0.442,0.792,0.36,22,44,11,0021500761,1610612764,WAS,Washington,Jarell Eddie,,DNP - Coach's Decision                  ,,,,,,,,,,,,,
0021500761,1610612764,WAS,Washington,2403,Nene,,DND - Left Calf Tightness               ,,,,,,,0.0,,,,,,,0.0,,,2016-02-06T00:00:00,2,WAS,Washington,22-27,25,33,17,29,0,0,0,0,0,0,0,0,0,0,104,0.442,0.792,0.36,22,44,11,0021500761,1610612764,WAS,Washington,Nene,,DND - Left Calf Tightness               ,,,,,,,,,,,,,
0021500761,1610612766,CHA,Charlotte,203077,Michael Kidd-Gilchrist,F,,27:13,110.9,97.3,13.6,0.1,1.0,15.7,0.0,0.0,0.0,15.7,0.429,0.514,0.177,103.45,0.018,2016-02-06T00:00:00,2,CHA,Charlotte,25-26,25,23,30,30,0,0,0,0,0,0,0,0,0,0,108,0.469,0.8,0.444,23,43,15,0021500761,1610612766,CHA,Charlotte,Michael Kidd-Gilchrist,F,,27:13,2.0,2.0,2.0,2.0,5.0,0.0,16.0,14.0,0.0,1.0,3.0,2.0
0021500761,1610612766,CHA,Charlotte,101107,Marvin Williams,F,,28:30,99.0,102.3,-3.2,0.059,0.0,12.7,0.074,0.308,0.189,0.0,1.0,0.945,0.103,104.59,0.168,2016-02-06T00:00:00,2,CHA,Charlotte,25-26,25,23,30,30,0,0,0,0,0,0,0,0,0,0,108,0.469,0.8,0.444,23,43,15,0021500761,1610612766,CHA,Charlotte,Marvin Williams,F,,28:30,2.0,0.0,0.0,6.0,9.0,0.0,18.0,18.0,0.0,0.0,2.0,2.0
0021500761,1610612766,CHA,Charlotte,203469,Cody Zeller,C,,29:48,116.1,84.5,31.6,0.04,1.0,11.3,0.077,0.233,0.161,11.3,0.5,0.581,0.115,101.82,0.111,2016-02-06T00:00:00,2,CHA,Charlotte,25-26,25,23,30,30,0,0,0,0,0,0,0,0,0,0,108,0.469,0.8,0.444,23,43,15,0021500761,1610612766,CHA,Charlotte,Cody Zeller,C,,29:48,2.0,0.0,2.0,4.0,8.0,0.0,15.0,18.0,0.0,0.0,3.0,2.0
0021500761,1610612766,CHA,Charlotte,201587,Nicolas Batum,G,,43:47,107.0,107.8,-0.8,0.36,1.5,23.9,0.026,0.244,0.138,15.9,0.525,0.574,0.291,100.51,0.153,2016-02-06T00:00:00,2,CHA,Charlotte,25-26,25,23,30,30,0,0,0,0,0,0,0,0,0,0,108,0.469,0.8,0.444,23,43,15,0021500761,1610612766,CHA,Charlotte,Nicolas Batum,G,,43:47,7.0,2.0,5.0,8.0,20.0,10.0,26.0,32.0,1.0,0.0,2.0,4.0
0021500761,1610612766,CHA,Charlotte,202689,Kemba Walker,G,,35:22,110.5,97.7,12.8,0.217,5.0,18.0,0.0,0.152,0.077,3.6,0.5,0.528,0.281,101.63,0.123,2016-02-06T00:00:00,2,CHA,Charlotte,25-26,25,23,30,30,0,0,0,0,0,0,0,0,0,0,108,0.469,0.8,0.444,23,43,15,0021500761,1610612766,CHA,Charlotte,Kemba Walker,G,,35:22,0.0,0.0,4.0,6.0,11.0,3.0,17.0,22.0,0.0,1.0,2.0,2.0
0021500761,1610612766,CHA,Charlotte,202391,Jeremy Lin,,,23:18,111.8,109.6,2.2,0.063,0.5,12.5,0.0,0.0,0.0,25.0,0.7,0.7,0.134,96.7,0.011,2016-02-06T00:00:00,2,CHA,Charlotte,25-26,25,23,30,30,0,0,0,0,0,0,0,0,0,0,108,0.469,0.8,0.444,23,43,15,0021500761,1610612766,CHA,Charlotte,Jeremy Lin,,,23:18,2.0,2.0,0.0,4.0,16.0,10.0,11.0,18.0,0.0,1.0,3.0,1.0
0021500761,1610612766,CHA,Charlotte,203087,Jeremy Lamb,,,14:20,81.6,118.0,-36.4,0.5,0.0,31.8,0.0,0.083,0.037,0.0,0.167,0.233,0.205,96.04,0.051,2016-02-06T00:00:00,2,CHA,Charlotte,25-26,25,23,30,30,0,0,0,0,0,0,0,0,0,0,108,0.469,0.8,0.444,23,43,15,0021500761,1610612766,CHA,Charlotte,Jeremy Lamb,,,14:20,0.0,0.0,0.0,2.0,8.0,7.0,8.0,10.0,0.0,0.0,1.0,2.0
0021500761,1610612766,CHA,Charlotte,201150,Spencer Hawes,,,18:12,91.2,138.4,-47.2,0.0,0.0,0.0,0.118,0.143,0.129,10.4,0.75,0.81,0.245,97.76,0.156,2016-02-06T00:00:00,2,CHA,Charlotte,25-26,25,23,30,30,0,0,0,0,0,0,0,0,0,0,108,0.469,0.8,0.444,23,43,15,0021500761,1610612766,CHA,Charlotte,Spencer Hawes,,,18:12,2.0,4.0,0.0,2.0,12.0,10.0,11.0,14.0,2.0,0.0,3.0,6.0
0021500761,1610612766,CHA,Charlotte,1626163,Frank Kaminsky,,,19:30,119.8,108.0,11.8,0.071,0.5,12.5,0.0,0.167,0.088,25.0,0.5,0.5,0.169,93.98,0.04,2016-02-06T00:00:00,2,CHA,Charlotte,25-26,25,23,30,30,0,0,0,0,0,0,0,0,0,0,108,0.469,0.8,0.444,23,43,15,0021500761,1610612766,CHA,Charlotte,Frank Kaminsky,,,19:30,0.0,0.0,0.0,2.0,11.0,10.0,8.0,14.0,2.0,2.0,2.0,0.0
0021500761,1610612766,CHA,Charlotte,203584,Troy Daniels,,DNP - Coach's Decision                  ,,,,,,,0.0,,,,,,,0.0,,,2016-02-06T00:00:00,2,CHA,Charlotte,25-26,25,23,30,30,0,0,0,0,0,0,0,0,0,0,108,0.469,0.8,0.444,23,43,15,0021500761,1610612766,CHA,Charlotte,Troy Daniels,,DNP - Coach's Decision                  ,,,,,,,,,,,,,
0021500761,1610612766,CHA,Charlotte,203798,PJ Hairston,,DNP - Coach's Decision                  ,,,,,,,0.0,,,,,,,0.0,,,2016-02-06T00:00:00,2,CHA,Charlotte,25-26,25,23,30,30,0,0,0,0,0,0,0,0,0,0,108,0.469,0.8,0.444,23,43,15,0021500761,1610612766,CHA,Charlotte,PJ Hairston,,DNP - Coach's Decision                  ,,,,,,,,,,,,,
0021500761,1610612766,CHA,Charlotte,201946,Tyler Hansbrough,,DNP - Coach's Decision                  ,,,,,,,0.0,,,,,,,0.0,,,2016-02-06T00:00:00,2,CHA,Charlotte,25-26,25,23,30,30,0,0,0,0,0,0,0,0,0,0,108,0.469,0.8,0.444,23,43,15,0021500761,1610612766,CHA,Charlotte,Tyler Hansbrough,,DNP - Coach's Decision                  ,,,,,,,,,,,,,
0021500761,1610612766,CHA,Charlotte,203148,Brian Roberts,,DNP - Coach's Decision                  ,,,,,,,0.0,,,,,,,0.0,,,2016-02-06T00:00:00,2,CHA,Charlotte,25-26,25,23,30,30,0,0,0,0,0,0,0,0,0,0,108,0.469,0.8,0.444,23,43,15,0021500761,1610612766,CHA,Charlotte,Brian Roberts,,DNP - Coach's Decision                  ,,,,,,,,,,,,,
