GAME_ID_x,TEAM_ID_x,TEAM_ABBREVIATION_x,TEAM_CITY_x,PLAYER_ID,PLAYER_NAME_x,START_POSITION_x,COMMENT_x,MIN_x,OFF_RATING,DEF_RATING,NET_RATING,AST_PCT,AST_TOV,AST_RATIO,OREB_PCT,DREB_PCT,REB_PCT,TM_TOV_PCT,EFG_PCT,TS_PCT,USG_PCT,PACE,PIE,GAME_DATE_EST,GAME_SEQUENCE,TEAM_ABBREVIATION_y,TEAM_CITY_NAME,TEAM_WINS_LOSSES,PTS_QTR1,PTS_QTR2,PTS_QTR3,PTS_QTR4,PTS_OT1,PTS_OT2,PTS_OT3,PTS_OT4,PTS_OT5,PTS_OT6,PTS_OT7,PTS_OT8,PTS_OT9,PTS_OT10,PTS,FG_PCT,FT_PCT,FG3_PCT,AST,REB,TOV,GAME_ID_y,TEAM_ID_y,TEAM_ABBREVIATION,TEAM_CITY_y,PLAYER_NAME_y,START_POSITION_y,COMMENT_y,MIN_y,PTS_OFF_TOV,PTS_2ND_CHANCE,PTS_FB,PTS_PAINT,OPP_PTS_OFF_TOV,OPP_PTS_2ND_CHANCE,OPP_PTS_FB,OPP_PTS_PAINT,BLK,BLKA,PF,PFD
0021500760,1610612757,POR,Portland,202329,Al-Farouq Aminu,F,,30:22,99.1,67.0,32.1,0.105,1.0,11.2,0.094,0.121,0.108,11.2,0.423,0.396,0.207,105.34,0.112,2016-02-06T00:00:00,1,POR,Portland,25-27,29,26,19,22,0,0,0,0,0,0,0,0,0,0,96,0.402,0.652,0.314,21,54,21,0021500760,1610612757,POR,Portland,Al-Farouq Aminu,F,,30:22,3.0,2.0,0.0,2.0,8.0,16.0,6.0,18.0,1.0,0.0,1.0,1.0
0021500760,1610612757,POR,Portland,203090,Maurice Harkless,F,,30:21,90.5,83.6,6.9,0.063,0.0,6.7,0.125,0.069,0.098,0.0,0.538,0.504,0.184,107.24,0.084,2016-02-06T00:00:00,1,POR,Portland,25-27,29,26,19,22,0,0,0,0,0,0,0,0,0,0,96,0.402,0.652,0.314,21,54,21,0021500760,1610612757,POR,Portland,Maurice Harkless,F,,30:21,5.0,4.0,0.0,8.0,13.0,13.0,11.0,22.0,1.0,1.0,5.0,1.0
0021500760,1610612757,POR,Portland,203486,Mason Plumlee,C,,23:52,97.5,77.1,20.3,0.077,0.25,7.2,0.042,0.304,0.17,28.8,0.5,0.563,0.221,104.02,0.142,2016-02-06T00:00:00,1,POR,Portland,25-27,29,26,19,22,0,0,0,0,0,0,0,0,0,0,96,0.402,0.652,0.314,21,54,21,0021500760,1610612757,POR,Portland,Mason Plumlee,C,,23:52,6.0,0.0,0.0,8.0,8.0,9.0,6.0,16.0,2.0,0.0,3.0,1.0
0021500760,1610612757,POR,Portland,203468,CJ McCollum,G,,39:51,100.9,71.7,29.2,0.08,0.4,9.4,0.048,0.132,0.088,23.5,0.538,0.559,0.187,102.6,0.133,2016-02-06T00:00:00,1,POR,Portland,25-27,29,26,19,22,0,0,0,0,0,0,0,0,0,0,96,0.402,0.652,0.314,21,54,21,0021500760,1610612757,POR,Portland,CJ McCollum,G,,39:51,5.0,3.0,5.0,6.0,11.0,14.0,9.0,22.0,1.0,0.0,2.0,3.0
0021500760,1610612757,POR,Portland,203081,Damian Lillard,G,,36:15,93.4,80.2,13.2,0.5,2.5,28.0,0.024,0.091,0.054,11.2,0.425,0.483,0.283,105.39,0.171,2016-02-06T00:00:00,1,POR,Portland,25-27,29,26,19,22,0,0,0,0,0,0,0,0,0,0,96,0.402,0.652,0.314,21,54,21,0021500760,1610612757,POR,Portland,Damian Lillard,G,,36:15,4.0,3.0,4.0,6.0,13.0,17.0,13.0,22.0,0.0,1.0,2.0,5.0
0021500760,1610612757,POR,Portland,203086,Meyers Leonard,,,14:39,99.7,83.0,16.8,0.3,0.75,25.3,0.25,0.231,0.241,33.7,0.25,0.307,0.233,92.72,0.031,2016-02-06T00:00:00,1,POR,Portland,25-27,29,26,19,22,0,0,0,0,0,0,0,0,0,0,96,0.402,0.652,0.314,21,54,21,0021500760,1610612757,POR,Portland,Meyers Leonard,,,14:39,1.0,1.0,0.0,0.0,6.0,5.0,5.0,6.0,0.0,0.0,3.0,2.0
0021500760,1610612757,POR,Portland,202334,Ed Davis,,,22:06,96.8,81.5,15.3,0.0,0.0,0.0,0.125,0.3,0.205,0.0,0.167,0.233,0.121,95.09,0.099,2016-02-06T00:00:00,1,POR,Portland,25-27,29,26,19,22,0,0,0,0,0,0,0,0,0,0,96,0.402,0.652,0.314,21,54,21,0021500760,1610612757,POR,Portland,Ed Davis,,,22:06,0.0,3.0,0.0,2.0,8.0,10.0,8.0,12.0,0.0,2.0,2.0,2.0
0021500760,1610612757,POR,Portland,201945,Gerald Henderson,,,27:06,90.5,90.1,0.4,0.083,1.0,8.2,0.034,0.115,0.073,8.2,0.688,0.784,0.179,89.23,0.333,2016-02-06T00:00:00,1,POR,Portland,25-27,29,26,19,22,0,0,0,0,0,0,0,0,0,0,96,0.402,0.652,0.314,21,54,21,0021500760,1610612757,POR,Portland,Gerald Henderson,,,27:06,6.0,2.0,2.0,0.0,10.0,14.0,9.0,16.0,1.0,0.0,2.0,4.0
0021500760,1610612757,POR,Portland,204025,Tim Frazier,,,15:28,111.4,74.2,37.2,0.1,1.0,20.5,0.067,0.067,0.067,20.5,0.5,0.347,0.105,85.03,-0.019,2016-02-06T00:00:00,1,POR,Portland,25-27,29,26,19,22,0,0,0,0,0,0,0,0,0,0,96,0.402,0.652,0.314,21,54,21,0021500760,1610612757,POR,Portland,Tim Frazier,,,15:28,0.0,0.0,0.0,0.0,3.0,7.0,3.0,6.0,0.0,0.0,1.0,2.0
0021500760,1610612757,POR,Portland,1626146,Cliff Alexander,,DNP - Coach's Decision                  ,,,,,,,0.0,,,,,,,0.0,,,2016-02-06T00:00:00,1,POR,Portland,25-27,29,26,19,22,0,0,0,0,0,0,0,0,0,0,96,0.402,0.652,0.314,21,54,21,0021500760,1610612757,POR,Portland,Cliff Alexander,,DNP - Coach's Decision                  ,,,,,,,,,,,,,
0021500760,1610612757,POR,Portland,1626192,Pat Connaughton,,DNP - Coach's Decision                  ,,,,,,,0.0,,,,,,,0.0,,,2016-02-06T00:00:00,1,POR,Portland,25-27,29,26,19,22,0,0,0,0,0,0,0,0,0,0,96,0.402,0.652,0.314,21,54,21,0021500760,1610612757,POR,Portland,Pat Connaughton,,DNP - Coach's Decision                  ,,,,,,,,,,,,,
0021500760,1610612757,POR,Portland,2549,Chris Kaman,,DNP - Coach's Decision                  ,,,,,,,0.0,,,,,,,0.0,,,2016-02-06T00:00:00,1,POR,Portland,25-27,29,26,19,22,0,0,0,0,0,0,0,0,0,0,96,0.402,0.652,0.314,21,54,21,0021500760,1610612757,POR,Portland,Chris Kaman,,DNP - Coach's Decision                  ,,,,,,,,,,,,,
0021500760,1610612757,POR,Portland,1626242,Luis Montero,,DNP - Coach's Decision                  ,,,,,,,0.0,,,,,,,0.0,,,2016-02-06T00:00:00,1,POR,Portland,25-27,29,26,19,22,0,0,0,0,0,0,0,0,0,0,96,0.402,0.652,0.314,21,54,21,0021500760,1610612757,POR,Portland,Luis Montero,,DNP - Coach's Decision                  ,,,,,,,,,,,,,
0021500760,1610612745,HOU,Houston,201147,Corey Brewer,F,,27:50,79.7,112.1,-32.4,0.385,2.5,27.1,0.0,0.037,0.019,10.8,0.318,0.35,0.199,102.99,0.023,2016-02-06T00:00:00,1,HOU,Houston,27-26,23,13,17,26,0,0,0,0,0,0,0,0,0,0,79,0.325,0.733,0.194,13,43,23,0021500760,1610612745,HOU,Houston,Corey Brewer,F,,27:50,0.0,0.0,3.0,2.0,22.0,8.0,4.0,26.0,0.0,0.0,2.0,3.0
0021500760,1610612745,HOU,Houston,2772,Trevor Ariza,F,,33:31,77.8,102.3,-24.5,0.0,0.0,0.0,0.083,0.057,0.07,20.0,0.313,0.313,0.119,103.53,0.028,2016-02-06T00:00:00,1,HOU,Houston,27-26,23,13,17,26,0,0,0,0,0,0,0,0,0,0,79,0.325,0.733,0.194,13,43,23,0021500760,1610612745,HOU,Houston,Trevor Ariza,F,,33:31,2.0,3.0,0.0,2.0,22.0,13.0,9.0,28.0,0.0,1.0,2.0,1.0
0021500760,1610612745,HOU,Houston,2730,Dwight Howard,C,,40:46,77.4,99.7,-22.4,0.133,1.0,11.4,0.081,0.268,0.179,11.4,0.6,0.629,0.161,100.41,0.242,2016-02-06T00:00:00,1,HOU,Houston,27-26,23,13,17,26,0,0,0,0,0,0,0,0,0,0,79,0.325,0.733,0.194,13,43,23,0021500760,1610612745,HOU,Houston,Dwight Howard,C,,40:46,4.0,9.0,2.0,10.0,29.0,17.0,11.0,30.0,0.0,1.0,3.0,6.0
0021500760,1610612745,HOU,Houston,201935,James Harden,G,,35:33,72.6,94.8,-22.2,0.3,0.3,7.7,0.0,0.211,0.11,25.7,0.5,0.637,0.417,102.64,0.253,2016-02-06T00:00:00,1,HOU,Houston,27-26,23,13,17,26,0,0,0,0,0,0,0,0,0,0,79,0.325,0.733,0.194,13,43,23,0021500760,1610612745,HOU,Houston,James Harden,G,,35:33,6.0,3.0,6.0,4.0,25.0,13.0,8.0,24.0,1.0,0.0,2.0,8.0
0021500760,1610612745,HOU,Houston,201976,Patrick Beverley,G,,27:54,70.2,96.6,-26.4,0.0,0.0,0.0,0.0,0.036,0.019,16.1,0.2,0.192,0.18,104.33,-0.133,2016-02-06T00:00:00,1,HOU,Houston,27-26,23,13,17,26,0,0,0,0,0,0,0,0,0,0,79,0.325,0.733,0.194,13,43,23,0021500760,1610612745,HOU,Houston,Patrick Beverley,G,,27:54,2.0,0.0,0.0,2.0,24.0,12.0,8.0,22.0,1.0,1.0,3.0,1.0
0021500760,1610612745,HOU,Houston,2746,Josh Smith,,,9:25,63.6,69.7,-6.2,0.25,1.0,16.7,0.083,0.077,0.08,16.7,0.0,0.0,0.219,99.35,-0.259,2016-02-06T00:00:00,1,HOU,Houston,27-26,23,13,17,26,0,0,0,0,0,0,0,0,0,0,79,0.325,0.733,0.194,13,43,23,0021500760,1610612745,HOU,Houston,Josh Smith,,,9:25,0.0,0.0,0.0,0.0,3.0,4.0,2.0,2.0,0.0,0.0,1.0,0.0
0021500760,1610612745,HOU,Houston,203991,Clint Capela,,,14:11,79.4,75.6,3.8,0.0,0.0,0.0,0.143,0.25,0.2,0.0,0.0,0.0,0.0,95.98,0.105,2016-02-06T00:00:00,1,HOU,Houston,27-26,23,13,17,26,0,0,0,0,0,0,0,0,0,0,79,0.325,0.733,0.194,13,43,23,0021500760,1610612745,HOU,Houston,Clint Capela,,,14:11,0.0,0.0,0.0,0.0,5.0,3.0,2.0,4.0,2.0,0.0,3.0,0.0
0021500760,1610612745,HOU,Houston,201951,Ty Lawson,,,16:50,87.3,102.9,-15.6,0.0,0.0,0.0,0.0,0.0,0.0,33.3,0.25,0.25,0.171,91.48,-0.076,2016-02-06T00:00:00,1,HOU,Houston,27-26,23,13,17,26,0,0,0,0,0,0,0,0,0,0,79,0.325,0.733,0.194,13,43,23,0021500760,1610612745,HOU,Houston,Ty Lawson,,,16:50,2.0,0.0,2.0,2.0,6.0,6.0,3.0,8.0,0.0,1.0,1.0,0.0
0021500760,1610612745,HOU,Houston,1891,Jason Terry,,,3:42,40.0,177.6,-137.6,1.0,0.0,50.0,0.0,0.0,0.0,0.0,0.0,0.0,0.2,79.91,-0.182,2016-02-06T00:00:00,1,HOU,Houston,27-26,23,13,17,26,0,0,0,0,0,0,0,0,0,0,79,0.325,0.733,0.194,13,43,23,0021500760,1610612745,HOU,Houston,Jason Terry,,,3:42,0.0,0.0,0.0,0.0,2.0,3.0,3.0,4.0,0.0,0.0,2.0,1.0
0021500760,1610612745,HOU,Houston,201977,Marcus Thornton,,,15:16,90.2,78.3,11.8,0.0,0.0,0.0,0.0,0.056,0.034,0.0,0.357,0.357,0.227,89.48,0.08,2016-02-06T00:00:00,1,HOU,Houston,27-26,23,13,17,26,0,0,0,0,0,0,0,0,0,0,79,0.325,0.733,0.194,13,43,23,0021500760,1610612745,HOU,Houston,Marcus Thornton,,,15:16,0.0,2.0,0.0,2.0,7.0,6.0,5.0,6.0,0.0,1.0,0.0,0.0
0021500760,1610612745,HOU,Houston,1626149,Montrezl Harrell,,,15:02,97.5,81.3,16.2,0.125,0.5,12.7,0.188,0.105,0.143,25.4,0.5,0.512,0.182,103.13,0.063,2016-02-06T00:00:00,1,HOU,Houston,27-26,23,13,17,26,0,0,0,0,0,0,0,0,0,0,79,0.325,0.733,0.194,13,43,23,0021500760,1610612745,HOU,Houston,Montrezl Harrell,,,15:02,0.0,4.0,1.0,4.0,5.0,5.0,0.0,6.0,0.0,1.0,2.0,1.0
0021500760,1610612745,HOU,Houston,1626155,Sam Dekker,,DND - Low Back Pain                     ,,,,,,,0.0,,,,,,,0.0,,,2016-02-06T00:00:00,1,HOU,Houston,27-26,23,13,17,26,0,0,0,0,0,0,0,0,0,0,79,0.325,0.733,0.194,13,43,23,0021500760,1610612745,HOU,Houston,Sam Dekker,,DND - Low Back Pain                     ,,,,,,,,,,,,,
