GAME_ID_x,TEAM_ID_x,TEAM_ABBREVIATION_x,TEAM_CITY_x,PLAYER_ID,PLAYER_NAME_x,START_POSITION_x,COMMENT_x,MIN_x,OFF_RATING,DEF_RATING,NET_RATING,AST_PCT,AST_TOV,AST_RATIO,OREB_PCT,DREB_PCT,REB_PCT,TM_TOV_PCT,EFG_PCT,TS_PCT,USG_PCT,PACE,PIE,GAME_DATE_EST,GAME_SEQUENCE,TEAM_ABBREVIATION_y,TEAM_CITY_NAME,TEAM_WINS_LOSSES,PTS_QTR1,PTS_QTR2,PTS_QTR3,PTS_QTR4,PTS_OT1,PTS_OT2,PTS_OT3,PTS_OT4,PTS_OT5,PTS_OT6,PTS_OT7,PTS_OT8,PTS_OT9,PTS_OT10,PTS,FG_PCT,FT_PCT,FG3_PCT,AST,REB,TOV,GAME_ID_y,TEAM_ID_y,TEAM_ABBREVIATION,TEAM_CITY_y,PLAYER_NAME_y,START_POSITION_y,COMMENT_y,MIN_y,PTS_OFF_TOV,PTS_2ND_CHANCE,PTS_FB,PTS_PAINT,OPP_PTS_OFF_TOV,OPP_PTS_2ND_CHANCE,OPP_PTS_FB,OPP_PTS_PAINT,BLK,BLKA,PF,PFD
0021500777,1610612746,LAC,LA,202325,Wesley Johnson,F,,41:48,95.6,77.8,17.9,0.074,2.0,12.5,0.043,0.179,0.106,6.3,0.269,0.269,0.139,101.99,0.041,2016-02-08T00:00:00,4,LAC,LA,35-17,22,27,16,23,10,0,0,0,0,0,0,0,0,0,98,0.368,0.742,0.227,21,52,12,0021500777,1610612746,LAC,LA,Wesley Johnson,F,,41:48,0.0,0.0,2.0,2.0,6.0,10.0,16.0,38.0,1.0,0.0,4.0,0.0
0021500777,1610612746,LAC,LA,201601,Luc Mbah a Moute,F,,23:03,78.3,85.5,-7.1,0.083,0.0,25.0,0.043,0.095,0.068,0.0,0.333,0.333,0.062,95.13,0.105,2016-02-08T00:00:00,4,LAC,LA,35-17,22,27,16,23,10,0,0,0,0,0,0,0,0,0,98,0.368,0.742,0.227,21,52,12,0021500777,1610612746,LAC,LA,Luc Mbah a Moute,F,,23:03,0.0,0.0,0.0,2.0,9.0,3.0,8.0,18.0,0.0,1.0,1.0,0.0
0021500777,1610612746,LAC,LA,201599,DeAndre Jordan,C,,42:42,90.0,74.0,16.1,0.045,0.5,6.2,0.167,0.317,0.236,12.4,0.5,0.459,0.153,100.25,0.161,2016-02-08T00:00:00,4,LAC,LA,35-17,22,27,16,23,10,0,0,0,0,0,0,0,0,0,98,0.368,0.742,0.227,21,52,12,0021500777,1610612746,LAC,LA,DeAndre Jordan,C,,42:42,2.0,3.0,0.0,10.0,6.0,10.0,18.0,40.0,3.0,0.0,4.0,6.0
0021500777,1610612746,LAC,LA,200755,JJ Redick,G,,38:53,94.3,86.7,7.6,0.111,0.67,7.7,0.0,0.059,0.027,11.5,0.472,0.546,0.275,98.36,0.082,2016-02-08T00:00:00,4,LAC,LA,35-17,22,27,16,23,10,0,0,0,0,0,0,0,0,0,98,0.368,0.742,0.227,21,52,12,0021500777,1610612746,LAC,LA,JJ Redick,G,,38:53,4.0,0.0,6.0,4.0,10.0,12.0,18.0,38.0,0.0,0.0,4.0,5.0
0021500777,1610612746,LAC,LA,101108,Chris Paul,G,,39:39,97.1,80.1,17.1,0.318,2.33,21.6,0.024,0.135,0.077,9.3,0.278,0.424,0.278,101.38,0.147,2016-02-08T00:00:00,4,LAC,LA,35-17,22,27,16,23,10,0,0,0,0,0,0,0,0,0,98,0.368,0.742,0.227,21,52,12,0021500777,1610612746,LAC,LA,Chris Paul,G,,39:39,4.0,4.0,2.0,2.0,9.0,10.0,18.0,36.0,0.0,2.0,3.0,12.0
0021500777,1610612746,LAC,LA,2037,Jamal Crawford,,,39:06,98.7,84.6,14.1,0.167,3.0,11.0,0.0,0.081,0.037,3.7,0.452,0.496,0.272,95.8,0.153,2016-02-08T00:00:00,4,LAC,LA,35-17,22,27,16,23,10,0,0,0,0,0,0,0,0,0,98,0.368,0.742,0.227,21,52,12,0021500777,1610612746,LAC,LA,Jamal Crawford,,,39:06,9.0,0.0,5.0,8.0,7.0,11.0,12.0,30.0,0.0,1.0,1.0,5.0
0021500777,1610612746,LAC,LA,202362,Lance Stephenson,,,16:11,77.6,93.3,-15.7,0.111,0.5,12.5,0.0,0.188,0.088,25.0,0.2,0.2,0.193,93.84,-0.024,2016-02-08T00:00:00,4,LAC,LA,35-17,22,27,16,23,10,0,0,0,0,0,0,0,0,0,98,0.368,0.742,0.227,21,52,12,0021500777,1610612746,LAC,LA,Lance Stephenson,,,16:11,2.0,0.0,0.0,2.0,7.0,3.0,0.0,8.0,0.0,1.0,1.0,0.0
0021500777,1610612746,LAC,LA,203143,Pablo Prigioni,,,13:21,75.0,99.7,-24.6,0.5,0.0,66.7,0.0,0.167,0.071,0.0,0.0,0.0,0.068,87.01,0.034,2016-02-08T00:00:00,4,LAC,LA,35-17,22,27,16,23,10,0,0,0,0,0,0,0,0,0,98,0.368,0.742,0.227,21,52,12,0021500777,1610612746,LAC,LA,Pablo Prigioni,,,13:21,0.0,0.0,0.0,0.0,4.0,3.0,0.0,8.0,0.0,0.0,3.0,1.0
0021500777,1610612746,LAC,LA,202332,Cole Aldrich,,,10:18,100.6,134.1,-33.5,0.0,0.0,0.0,0.222,0.125,0.176,0.0,0.8,0.85,0.269,87.43,0.286,2016-02-08T00:00:00,4,LAC,LA,35-17,22,27,16,23,10,0,0,0,0,0,0,0,0,0,98,0.368,0.742,0.227,21,52,12,0021500777,1610612746,LAC,LA,Cole Aldrich,,,10:18,2.0,2.0,2.0,8.0,7.0,3.0,0.0,4.0,0.0,0.0,1.0,2.0
0021500777,1610612746,LAC,LA,201965,Jeff Ayres,,DNP - Coach's Decision                  ,,,,,,,0.0,,,,,,,0.0,,,2016-02-08T00:00:00,4,LAC,LA,35-17,22,27,16,23,10,0,0,0,0,0,0,0,0,0,98,0.368,0.742,0.227,21,52,12,0021500777,1610612746,LAC,LA,Jeff Ayres,,DNP - Coach's Decision                  ,,,,,,,,,,,,,
0021500777,1610612746,LAC,LA,1626183,Branden Dawson,,DNP - Coach's Decision                  ,,,,,,,0.0,,,,,,,0.0,,,2016-02-08T00:00:00,4,LAC,LA,35-17,22,27,16,23,10,0,0,0,0,0,0,0,0,0,98,0.368,0.742,0.227,21,52,12,0021500777,1610612746,LAC,LA,Branden Dawson,,DNP - Coach's Decision                  ,,,,,,,,,,,,,
0021500777,1610612746,LAC,LA,1718,Paul Pierce,,DND - Rest                              ,,,,,,,0.0,,,,,,,0.0,,,2016-02-08T00:00:00,4,LAC,LA,35-17,22,27,16,23,10,0,0,0,0,0,0,0,0,0,98,0.368,0.742,0.227,21,52,12,0021500777,1610612746,LAC,LA,Paul Pierce,,DND - Rest                              ,,,,,,,,,,,,,
0021500777,1610612746,LAC,LA,203912,CJ Wilcox,,DNP - Coach's Decision                  ,,,,,,,0.0,,,,,,,0.0,,,2016-02-08T00:00:00,4,LAC,LA,35-17,22,27,16,23,10,0,0,0,0,0,0,0,0,0,98,0.368,0.742,0.227,21,52,12,0021500777,1610612746,LAC,LA,CJ Wilcox,,DNP - Coach's Decision                  ,,,,,,,,,,,,,
0021500777,1610612755,PHI,Philadelphia,203496,Robert Covington,F,,34:02,87.6,92.8,-5.2,0.05,0.33,6.6,0.031,0.162,0.101,19.7,0.333,0.491,0.18,99.38,0.063,2016-02-08T00:00:00,4,PHI,Philadelphia,8-44,25,34,14,15,4,0,0,0,0,0,0,0,0,0,92,0.378,0.857,0.24,20,54,20,0021500777,1610612755,PHI,Philadelphia,Robert Covington,F,,34:02,2.0,2.0,4.0,6.0,8.0,7.0,12.0,20.0,0.0,0.0,4.0,2.0
0021500777,1610612755,PHI,Philadelphia,203457,Nerlens Noel,F,,34:17,86.6,80.2,6.4,0.2,1.33,31.3,0.032,0.222,0.134,23.5,0.5,0.694,0.118,93.12,0.206,2016-02-08T00:00:00,4,PHI,Philadelphia,8-44,25,34,14,15,4,0,0,0,0,0,0,0,0,0,92,0.378,0.857,0.24,20,54,20,0021500777,1610612755,PHI,Philadelphia,Nerlens Noel,F,,34:17,2.0,2.0,0.0,4.0,9.0,7.0,3.0,26.0,1.0,0.0,3.0,3.0
0021500777,1610612755,PHI,Philadelphia,1626143,Jahlil Okafor,C,,29:50,78.4,100.5,-22.1,0.071,0.33,4.5,0.115,0.2,0.161,13.6,0.389,0.389,0.295,104.42,0.095,2016-02-08T00:00:00,4,PHI,Philadelphia,8-44,25,34,14,15,4,0,0,0,0,0,0,0,0,0,92,0.378,0.857,0.24,20,54,20,0021500777,1610612755,PHI,Philadelphia,Jahlil Okafor,C,,29:50,2.0,4.0,4.0,12.0,19.0,4.0,15.0,20.0,3.0,1.0,3.0,2.0
0021500777,1610612755,PHI,Philadelphia,203917,Nik Stauskas,G,,20:36,101.7,67.1,34.6,0.0,0.0,0.0,0.0,0.042,0.026,0.0,0.625,0.625,0.086,98.42,0.0,2016-02-08T00:00:00,4,PHI,Philadelphia,8-44,25,34,14,15,4,0,0,0,0,0,0,0,0,0,92,0.378,0.857,0.24,20,54,20,0021500777,1610612755,PHI,Philadelphia,Nik Stauskas,G,,20:36,2.0,0.0,5.0,2.0,5.0,2.0,1.0,10.0,0.0,0.0,4.0,1.0
0021500777,1610612755,PHI,Philadelphia,202397,Ish Smith,G,,33:25,91.4,85.9,5.5,0.313,2.5,15.9,0.036,0.25,0.15,6.4,0.313,0.327,0.343,96.3,0.104,2016-02-08T00:00:00,4,PHI,Philadelphia,8-44,25,34,14,15,4,0,0,0,0,0,0,0,0,0,92,0.378,0.857,0.24,20,54,20,0021500777,1610612755,PHI,Philadelphia,Ish Smith,G,,33:25,0.0,0.0,5.0,8.0,12.0,7.0,4.0,18.0,0.0,1.0,4.0,2.0
0021500777,1610612755,PHI,Philadelphia,203477,Isaiah Canaan,,,24:50,75.4,100.2,-24.8,0.133,1.0,18.4,0.0,0.138,0.073,18.4,0.0,0.073,0.15,100.48,-0.109,2016-02-08T00:00:00,4,PHI,Philadelphia,8-44,25,34,14,15,4,0,0,0,0,0,0,0,0,0,92,0.378,0.857,0.24,20,54,20,0021500777,1610612755,PHI,Philadelphia,Isaiah Canaan,,,24:50,0.0,0.0,0.0,0.0,15.0,6.0,7.0,18.0,0.0,1.0,5.0,1.0
0021500777,1610612755,PHI,Philadelphia,204456,T.J. McConnell,,,19:44,71.4,105.5,-34.1,0.444,1.33,25.0,0.048,0.08,0.065,18.8,0.222,0.222,0.278,100.71,-0.026,2016-02-08T00:00:00,4,PHI,Philadelphia,8-44,25,34,14,15,4,0,0,0,0,0,0,0,0,0,92,0.378,0.857,0.24,20,54,20,0021500777,1610612755,PHI,Philadelphia,T.J. McConnell,,,19:44,0.0,0.0,0.0,2.0,11.0,2.0,13.0,20.0,0.0,1.0,2.0,2.0
0021500777,1610612755,PHI,Philadelphia,203924,Jerami Grant,,,33:23,84.8,94.8,-10.0,0.154,2.0,15.3,0.125,0.2,0.164,7.6,0.857,0.843,0.152,95.3,0.22,2016-02-08T00:00:00,4,PHI,Philadelphia,8-44,25,34,14,15,4,0,0,0,0,0,0,0,0,0,92,0.378,0.857,0.24,20,54,20,0021500777,1610612755,PHI,Philadelphia,Jerami Grant,,,33:23,2.0,5.0,0.0,10.0,16.0,3.0,14.0,28.0,1.0,0.0,5.0,6.0
0021500777,1610612755,PHI,Philadelphia,203138,Hollis Thompson,,,34:54,79.7,97.7,-18.0,0.063,0.33,7.2,0.0,0.027,0.014,21.6,0.778,0.81,0.165,94.79,0.121,2016-02-08T00:00:00,4,PHI,Philadelphia,8-44,25,34,14,15,4,0,0,0,0,0,0,0,0,0,92,0.378,0.857,0.24,20,54,20,0021500777,1610612755,PHI,Philadelphia,Hollis Thompson,,,34:54,3.0,0.0,0.0,0.0,20.0,7.0,16.0,30.0,0.0,0.0,1.0,3.0
0021500777,1610612755,PHI,Philadelphia,1626158,Richaun Holmes,,DNP - Coach's Decision                  ,,,,,,,0.0,,,,,,,0.0,,,2016-02-08T00:00:00,4,PHI,Philadelphia,8-44,25,34,14,15,4,0,0,0,0,0,0,0,0,0,92,0.378,0.857,0.24,20,54,20,0021500777,1610612755,PHI,Philadelphia,Richaun Holmes,,DNP - Coach's Decision                  ,,,,,,,,,,,,,
0021500777,1610612755,PHI,Philadelphia,201171,Carl Landry,,DNP - Coach's Decision                  ,,,,,,,0.0,,,,,,,0.0,,,2016-02-08T00:00:00,4,PHI,Philadelphia,8-44,25,34,14,15,4,0,0,0,0,0,0,0,0,0,92,0.378,0.857,0.24,20,54,20,0021500777,1610612755,PHI,Philadelphia,Carl Landry,,DNP - Coach's Decision                  ,,,,,,,,,,,,,
0021500777,1610612755,PHI,Philadelphia,203088,Kendall Marshall,,DNP - Coach's Decision                  ,,,,,,,0.0,,,,,,,0.0,,,2016-02-08T00:00:00,4,PHI,Philadelphia,8-44,25,34,14,15,4,0,0,0,0,0,0,0,0,0,92,0.378,0.857,0.24,20,54,20,0021500777,1610612755,PHI,Philadelphia,Kendall Marshall,,DNP - Coach's Decision                  ,,,,,,,,,,,,,
0021500777,1610612755,PHI,Philadelphia,203960,JaKarr Sampson,,DNP - Coach's Decision                  ,,,,,,,0.0,,,,,,,0.0,,,2016-02-08T00:00:00,4,PHI,Philadelphia,8-44,25,34,14,15,4,0,0,0,0,0,0,0,0,0,92,0.378,0.857,0.24,20,54,20,0021500777,1610612755,PHI,Philadelphia,JaKarr Sampson,,DNP - Coach's Decision                  ,,,,,,,,,,,,,
