GAME_ID_x,TEAM_ID_x,TEAM_ABBREVIATION_x,TEAM_CITY_x,PLAYER_ID,PLAYER_NAME_x,START_POSITION_x,COMMENT_x,MIN_x,OFF_RATING,DEF_RATING,NET_RATING,AST_PCT,AST_TOV,AST_RATIO,OREB_PCT,DREB_PCT,REB_PCT,TM_TOV_PCT,EFG_PCT,TS_PCT,USG_PCT,PACE,PIE,GAME_DATE_EST,GAME_SEQUENCE,TEAM_ABBREVIATION_y,TEAM_CITY_NAME,TEAM_WINS_LOSSES,PTS_QTR1,PTS_QTR2,PTS_QTR3,PTS_QTR4,PTS_OT1,PTS_OT2,PTS_OT3,PTS_OT4,PTS_OT5,PTS_OT6,PTS_OT7,PTS_OT8,PTS_OT9,PTS_OT10,PTS,FG_PCT,FT_PCT,FG3_PCT,AST,REB,TOV,GAME_ID_y,TEAM_ID_y,TEAM_ABBREVIATION,TEAM_CITY_y,PLAYER_NAME_y,START_POSITION_y,COMMENT_y,MIN_y,PTS_OFF_TOV,PTS_2ND_CHANCE,PTS_FB,PTS_PAINT,OPP_PTS_OFF_TOV,OPP_PTS_2ND_CHANCE,OPP_PTS_FB,OPP_PTS_PAINT,BLK,BLKA,PF,PFD
0021500794,1610612743,DEN,Denver,201568,Danilo Gallinari,F,,38:49,105.6,87.7,17.8,0.148,2.0,16.7,0.027,0.158,0.093,8.3,0.25,0.418,0.228,97.81,0.084,2016-02-10T00:00:00,6,DEN,Denver,22-32,20,32,23,28,0,0,0,0,0,0,0,0,0,0,103,0.47,0.792,0.316,25,47,12,0021500794,1610612743,DEN,Denver,Danilo Gallinari,F,,38:49,0.0,1.0,3.0,4.0,6.0,6.0,8.0,40.0,0.0,2.0,2.0,6.0
0021500794,1610612743,DEN,Denver,202702,Kenneth Faried,F,,18:23,78.2,80.5,-2.3,0.143,0.5,8.0,0.095,0.211,0.15,16.1,0.667,0.636,0.268,103.66,0.131,2016-02-10T00:00:00,6,DEN,Denver,22-32,20,32,23,28,0,0,0,0,0,0,0,0,0,0,103,0.47,0.792,0.316,25,47,12,0021500794,1610612743,DEN,Denver,Kenneth Faried,F,,18:23,4.0,2.0,4.0,12.0,4.0,2.0,2.0,18.0,0.0,1.0,4.0,1.0
0021500794,1610612743,DEN,Denver,203999,Nikola Jokic,C,,24:55,91.9,85.3,6.6,0.111,2.0,19.2,0.0,0.273,0.13,9.6,0.286,0.336,0.145,103.22,0.091,2016-02-10T00:00:00,6,DEN,Denver,22-32,20,32,23,28,0,0,0,0,0,0,0,0,0,0,103,0.47,0.792,0.316,25,47,12,0021500794,1610612743,DEN,Denver,Nikola Jokic,C,,24:55,0.0,0.0,0.0,4.0,6.0,2.0,4.0,26.0,0.0,2.0,0.0,2.0
0021500794,1610612743,DEN,Denver,203914,Gary Harris,G,,36:24,95.5,94.5,1.0,0.154,4.0,23.7,0.0,0.057,0.029,5.9,0.409,0.463,0.16,99.96,0.07,2016-02-10T00:00:00,6,DEN,Denver,22-32,20,32,23,28,0,0,0,0,0,0,0,0,0,0,103,0.47,0.792,0.316,25,47,12,0021500794,1610612743,DEN,Denver,Gary Harris,G,,36:24,0.0,0.0,2.0,6.0,11.0,4.0,6.0,36.0,0.0,1.0,1.0,1.0
0021500794,1610612743,DEN,Denver,1626144,Emmanuel Mudiay,G,,33:59,106.1,86.0,20.1,0.286,3.0,28.1,0.0,0.118,0.06,9.4,0.542,0.526,0.197,99.18,0.129,2016-02-10T00:00:00,6,DEN,Denver,22-32,20,32,23,28,0,0,0,0,0,0,0,0,0,0,103,0.47,0.792,0.316,25,47,12,0021500794,1610612743,DEN,Denver,Emmanuel Mudiay,G,,33:59,4.0,4.0,0.0,8.0,4.0,6.0,6.0,32.0,1.0,0.0,1.0,2.0
0021500794,1610612743,DEN,Denver,203994,Jusuf Nurkic,,,24:14,114.8,105.5,9.3,0.182,0.67,11.8,0.15,0.32,0.244,17.6,0.667,0.667,0.299,93.57,0.188,2016-02-10T00:00:00,6,DEN,Denver,22-32,20,32,23,28,0,0,0,0,0,0,0,0,0,0,103,0.47,0.792,0.316,25,47,12,0021500794,1610612743,DEN,Denver,Jusuf Nurkic,,,24:14,4.0,4.0,0.0,16.0,7.0,4.0,6.0,24.0,1.0,1.0,3.0,0.0
0021500794,1610612743,DEN,Denver,203530,Joffrey Lauvergne,,,20:55,125.6,111.3,14.3,0.105,0.0,41.0,0.063,0.176,0.121,0.0,0.5,0.694,0.065,94.91,0.088,2016-02-10T00:00:00,6,DEN,Denver,22-32,20,32,23,28,0,0,0,0,0,0,0,0,0,0,103,0.47,0.792,0.316,25,47,12,0021500794,1610612743,DEN,Denver,Joffrey Lauvergne,,,20:55,2.0,0.0,4.0,2.0,5.0,2.0,4.0,20.0,0.0,1.0,0.0,2.0
0021500794,1610612743,DEN,Denver,203115,Will Barton,,,21:38,121.5,101.6,19.9,0.182,2.0,11.3,0.059,0.2,0.135,5.7,0.625,0.683,0.354,92.61,0.242,2016-02-10T00:00:00,6,DEN,Denver,22-32,20,32,23,28,0,0,0,0,0,0,0,0,0,0,103,0.47,0.792,0.316,25,47,12,0021500794,1610612743,DEN,Denver,Will Barton,,,21:38,4.0,2.0,4.0,10.0,5.0,2.0,2.0,16.0,1.0,0.0,0.0,3.0
0021500794,1610612743,DEN,Denver,200751,Randy Foye,,,20:43,121.8,101.6,20.2,0.125,0.0,33.3,0.0,0.1,0.059,0.0,0.75,0.75,0.094,93.52,0.068,2016-02-10T00:00:00,6,DEN,Denver,22-32,20,32,23,28,0,0,0,0,0,0,0,0,0,0,103,0.47,0.792,0.316,25,47,12,0021500794,1610612743,DEN,Denver,Randy Foye,,,20:43,0.0,0.0,0.0,0.0,7.0,2.0,2.0,18.0,0.0,0.0,2.0,2.0
0021500794,1610612743,DEN,Denver,201589,Darrell Arthur,,DNP - Coach's Decision                  ,,,,,,,0.0,,,,,,,0.0,,,2016-02-10T00:00:00,6,DEN,Denver,22-32,20,32,23,28,0,0,0,0,0,0,0,0,0,0,103,0.47,0.792,0.316,25,47,12,0021500794,1610612743,DEN,Denver,Darrell Arthur,,DNP - Coach's Decision                  ,,,,,,,,,,,,,
0021500794,1610612743,DEN,Denver,201581,JJ Hickson,,DNP - Coach's Decision                  ,,,,,,,0.0,,,,,,,0.0,,,2016-02-10T00:00:00,6,DEN,Denver,22-32,20,32,23,28,0,0,0,0,0,0,0,0,0,0,103,0.47,0.792,0.316,25,47,12,0021500794,1610612743,DEN,Denver,JJ Hickson,,DNP - Coach's Decision                  ,,,,,,,,,,,,,
0021500794,1610612743,DEN,Denver,2034,Mike Miller,,DNP - Coach's Decision                  ,,,,,,,0.0,,,,,,,0.0,,,2016-02-10T00:00:00,6,DEN,Denver,22-32,20,32,23,28,0,0,0,0,0,0,0,0,0,0,103,0.47,0.792,0.316,25,47,12,0021500794,1610612743,DEN,Denver,Mike Miller,,DNP - Coach's Decision                  ,,,,,,,,,,,,,
0021500794,1610612765,DET,Detroit,202694,Marcus Morris,F,,34:48,93.7,105.8,-12.1,0.286,3.0,25.1,0.0,0.067,0.031,8.4,0.567,0.598,0.222,100.99,0.121,2016-02-10T00:00:00,6,DET,Detroit,27-27,22,31,18,21,0,0,0,0,0,0,0,0,0,0,92,0.432,0.857,0.37,21,42,14,0021500794,1610612765,DET,Detroit,Marcus Morris,F,,34:48,4.0,0.0,2.0,8.0,16.0,11.0,15.0,44.0,0.0,1.0,2.0,3.0
0021500794,1610612765,DET,Detroit,201229,Anthony Tolliver,F,,35:16,87.8,105.6,-17.8,0.043,1.0,11.1,0.031,0.176,0.106,11.1,0.429,0.429,0.107,97.7,0.063,2016-02-10T00:00:00,6,DET,Detroit,27-27,22,31,18,21,0,0,0,0,0,0,0,0,0,0,92,0.432,0.857,0.37,21,42,14,0021500794,1610612765,DET,Detroit,Anthony Tolliver,F,,35:16,0.0,0.0,0.0,0.0,14.0,11.0,12.0,50.0,1.0,0.0,2.0,2.0
0021500794,1610612765,DET,Detroit,203083,Andre Drummond,C,,39:27,92.4,103.9,-11.5,0.083,2.0,7.9,0.128,0.364,0.236,3.9,0.318,0.334,0.266,98.02,0.122,2016-02-10T00:00:00,6,DET,Detroit,27-27,22,31,18,21,0,0,0,0,0,0,0,0,0,0,92,0.432,0.857,0.37,21,42,14,0021500794,1610612765,DET,Detroit,Andre Drummond,C,,39:27,0.0,4.0,2.0,14.0,16.0,11.0,17.0,52.0,5.0,1.0,3.0,1.0
0021500794,1610612765,DET,Detroit,1626169,Stanley Johnson,G,,36:48,83.4,103.5,-20.0,0.25,1.25,19.7,0.027,0.118,0.07,15.7,0.313,0.335,0.261,98.28,0.004,2016-02-10T00:00:00,6,DET,Detroit,27-27,22,31,18,21,0,0,0,0,0,0,0,0,0,0,92,0.432,0.857,0.37,21,42,14,0021500794,1610612765,DET,Detroit,Stanley Johnson,G,,36:48,2.0,2.0,0.0,8.0,14.0,11.0,14.0,52.0,0.0,1.0,5.0,1.0
0021500794,1610612765,DET,Detroit,201943,Brandon Jennings,G,,29:19,87.6,106.3,-18.7,0.063,0.5,6.7,0.0,0.111,0.054,13.3,0.667,0.667,0.204,100.53,0.093,2016-02-10T00:00:00,6,DET,Detroit,27-27,22,31,18,21,0,0,0,0,0,0,0,0,0,0,92,0.432,0.857,0.37,21,42,14,0021500794,1610612765,DET,Detroit,Brandon Jennings,G,,29:19,0.0,0.0,2.0,4.0,12.0,9.0,13.0,40.0,0.0,0.0,2.0,1.0
0021500794,1610612765,DET,Detroit,1626199,Darrun Hilliard,,,26:37,110.9,114.4,-3.5,0.286,3.0,39.2,0.0,0.043,0.021,13.1,0.583,0.615,0.166,93.69,0.076,2016-02-10T00:00:00,6,DET,Detroit,27-27,22,31,18,21,0,0,0,0,0,0,0,0,0,0,92,0.432,0.857,0.37,21,42,14,0021500794,1610612765,DET,Detroit,Darrun Hilliard,,,26:37,0.0,0.0,0.0,4.0,6.0,6.0,7.0,30.0,0.0,0.0,1.0,2.0
0021500794,1610612765,DET,Detroit,203382,Aron Baynes,,,19:04,104.3,101.3,3.0,0.0,0.0,0.0,0.0,0.389,0.194,12.5,0.714,0.714,0.189,96.72,0.173,2016-02-10T00:00:00,6,DET,Detroit,27-27,22,31,18,21,0,0,0,0,0,0,0,0,0,0,92,0.432,0.857,0.37,21,42,14,0021500794,1610612765,DET,Detroit,Aron Baynes,,,19:04,2.0,0.0,2.0,8.0,6.0,2.0,3.0,20.0,2.0,0.0,1.0,1.0
0021500794,1610612765,DET,Detroit,2581,Steve Blake,,,18:41,104.3,104.4,-0.1,0.0,0.0,0.0,0.0,0.0,0.0,25.0,1.0,1.0,0.11,93.57,0.013,2016-02-10T00:00:00,6,DET,Detroit,27-27,22,31,18,21,0,0,0,0,0,0,0,0,0,0,92,0.432,0.857,0.37,21,42,14,0021500794,1610612765,DET,Detroit,Steve Blake,,,18:41,3.0,0.0,0.0,0.0,6.0,4.0,4.0,22.0,0.0,0.0,3.0,2.0
0021500794,1610612765,DET,Detroit,201202,Joel Anthony,,DNP - Coach's Decision                  ,,,,,,,0.0,,,,,,,0.0,,,2016-02-10T00:00:00,6,DET,Detroit,27-27,22,31,18,21,0,0,0,0,0,0,0,0,0,0,92,0.432,0.857,0.37,21,42,14,0021500794,1610612765,DET,Detroit,Joel Anthony,,DNP - Coach's Decision                  ,,,,,,,,,,,,,
0021500794,1610612765,DET,Detroit,203493,Reggie Bullock,,DND - BROKEN NOSE - SURGERY             ,,,,,,,0.0,,,,,,,0.0,,,2016-02-10T00:00:00,6,DET,Detroit,27-27,22,31,18,21,0,0,0,0,0,0,0,0,0,0,92,0.432,0.857,0.37,21,42,14,0021500794,1610612765,DET,Detroit,Reggie Bullock,,DND - BROKEN NOSE - SURGERY             ,,,,,,,,,,,,,
0021500794,1610612765,DET,Detroit,203484,Kentavious Caldwell-Pope,,DND - CORE MUSCLE STRAIN                ,,,,,,,0.0,,,,,,,0.0,,,2016-02-10T00:00:00,6,DET,Detroit,27-27,22,31,18,21,0,0,0,0,0,0,0,0,0,0,92,0.432,0.857,0.37,21,42,14,0021500794,1610612765,DET,Detroit,Kentavious Caldwell-Pope,,DND - CORE MUSCLE STRAIN                ,,,,,,,,,,,,,
0021500794,1610612765,DET,Detroit,101141,Ersan Ilyasova,,DND - ILLNESS                           ,,,,,,,0.0,,,,,,,0.0,,,2016-02-10T00:00:00,6,DET,Detroit,27-27,22,31,18,21,0,0,0,0,0,0,0,0,0,0,92,0.432,0.857,0.37,21,42,14,0021500794,1610612765,DET,Detroit,Ersan Ilyasova,,DND - ILLNESS                           ,,,,,,,,,,,,,
0021500794,1610612765,DET,Detroit,202704,Reggie Jackson,,DND - ILLNESS                           ,,,,,,,0.0,,,,,,,0.0,,,2016-02-10T00:00:00,6,DET,Detroit,27-27,22,31,18,21,0,0,0,0,0,0,0,0,0,0,92,0.432,0.857,0.37,21,42,14,0021500794,1610612765,DET,Detroit,Reggie Jackson,,DND - ILLNESS                           ,,,,,,,,,,,,,
