GAME_ID_x,TEAM_ID_x,TEAM_ABBREVIATION_x,TEAM_CITY_x,PLAYER_ID,PLAYER_NAME_x,START_POSITION_x,COMMENT_x,MIN_x,OFF_RATING,DEF_RATING,NET_RATING,AST_PCT,AST_TOV,AST_RATIO,OREB_PCT,DREB_PCT,REB_PCT,TM_TOV_PCT,EFG_PCT,TS_PCT,USG_PCT,PACE,PIE,GAME_DATE_EST,GAME_SEQUENCE,TEAM_ABBREVIATION_y,TEAM_CITY_NAME,TEAM_WINS_LOSSES,PTS_QTR1,PTS_QTR2,PTS_QTR3,PTS_QTR4,PTS_OT1,PTS_OT2,PTS_OT3,PTS_OT4,PTS_OT5,PTS_OT6,PTS_OT7,PTS_OT8,PTS_OT9,PTS_OT10,PTS,FG_PCT,FT_PCT,FG3_PCT,AST,REB,TOV,GAME_ID_y,TEAM_ID_y,TEAM_ABBREVIATION,TEAM_CITY_y,PLAYER_NAME_y,START_POSITION_y,COMMENT_y,MIN_y,PTS_OFF_TOV,PTS_2ND_CHANCE,PTS_FB,PTS_PAINT,OPP_PTS_OFF_TOV,OPP_PTS_2ND_CHANCE,OPP_PTS_FB,OPP_PTS_PAINT,BLK,BLKA,PF,PFD
0021500812,1610612754,IND,Indiana,202331,Paul George,F,,34:15,108.1,91.4,16.7,0.417,5.0,33.4,0.0,0.185,0.081,6.7,0.5,0.612,0.244,106.9,0.154,2016-02-19T00:00:00,8,IND,Indiana,29-25,24,20,23,34,0,0,0,0,0,0,0,0,0,0,101,0.443,0.636,0.409,27,45,11,0021500812,1610612754,IND,Indiana,Paul George,F,,34:15,2.0,3.0,3.0,4.0,4.0,4.0,10.0,32.0,0.0,0.0,4.0,7.0
0021500812,1610612754,IND,Indiana,1626167,Myles Turner,F,,35:34,101.2,92.5,8.7,0.045,0.5,6.1,0.0,0.161,0.075,12.3,0.625,0.601,0.182,106.7,0.092,2016-02-19T00:00:00,8,IND,Indiana,29-25,24,20,23,34,0,0,0,0,0,0,0,0,0,0,101,0.443,0.636,0.409,27,45,11,0021500812,1610612754,IND,Indiana,Myles Turner,F,,35:34,0.0,2.0,2.0,8.0,7.0,8.0,14.0,28.0,6.0,0.0,2.0,2.0
0021500812,1610612754,IND,Indiana,101133,Ian Mahinmi,C,,35:28,110.6,89.3,21.3,0.13,1.0,12.3,0.118,0.226,0.169,12.3,0.5,0.515,0.261,104.58,0.131,2016-02-19T00:00:00,8,IND,Indiana,29-25,24,20,23,34,0,0,0,0,0,0,0,0,0,0,101,0.443,0.636,0.409,27,45,11,0021500812,1610612754,IND,Indiana,Ian Mahinmi,C,,35:28,4.0,0.0,2.0,18.0,4.0,4.0,12.0,32.0,2.0,3.0,2.0,1.0
0021500812,1610612754,IND,Indiana,101145,Monta Ellis,G,,38:26,106.4,91.4,15.0,0.13,1.5,12.5,0.0,0.054,0.027,8.3,0.719,0.708,0.232,105.58,0.142,2016-02-19T00:00:00,8,IND,Indiana,29-25,24,20,23,34,0,0,0,0,0,0,0,0,0,0,101,0.443,0.636,0.409,27,45,11,0021500812,1610612754,IND,Indiana,Monta Ellis,G,,38:26,4.0,3.0,8.0,6.0,7.0,7.0,10.0,28.0,0.0,0.0,2.0,5.0
0021500812,1610612754,IND,Indiana,201588,George Hill,G,,37:59,105.0,95.8,9.2,0.31,9.0,42.9,0.079,0.242,0.155,4.8,0.409,0.409,0.135,104.53,0.113,2016-02-19T00:00:00,8,IND,Indiana,29-25,24,20,23,34,0,0,0,0,0,0,0,0,0,0,101,0.443,0.636,0.409,27,45,11,0021500812,1610612754,IND,Indiana,George Hill,G,,37:59,3.0,0.0,0.0,0.0,7.0,10.0,14.0,34.0,0.0,1.0,1.0,2.0
0021500812,1610612754,IND,Indiana,202730,Lavoy Allen,,,12:26,97.3,98.6,-1.3,0.0,0.0,0.0,0.077,0.154,0.115,0.0,1.0,0.532,0.071,90.65,0.046,2016-02-19T00:00:00,8,IND,Indiana,29-25,24,20,23,34,0,0,0,0,0,0,0,0,0,0,101,0.443,0.636,0.409,27,45,11,0021500812,1610612754,IND,Indiana,Lavoy Allen,,,12:26,0.0,0.0,0.0,2.0,0.0,2.0,0.0,10.0,0.0,0.0,1.0,2.0
0021500812,1610612754,IND,Indiana,201941,Jordan Hill,,,12:26,64.6,113.1,-48.4,0.167,0.0,14.3,0.133,0.154,0.143,0.0,0.167,0.167,0.216,93.89,0.031,2016-02-19T00:00:00,8,IND,Indiana,29-25,24,20,23,34,0,0,0,0,0,0,0,0,0,0,101,0.443,0.636,0.409,27,45,11,0021500812,1610612754,IND,Indiana,Jordan Hill,,,12:26,0.0,2.0,0.0,2.0,3.0,6.0,2.0,6.0,0.0,0.0,0.0,2.0
0021500812,1610612754,IND,Indiana,1626202,Joe Young,,,10:01,81.0,85.5,-4.5,0.0,0.0,0.0,0.0,0.182,0.091,0.0,0.333,0.333,0.276,94.98,0.14,2016-02-19T00:00:00,8,IND,Indiana,29-25,24,20,23,34,0,0,0,0,0,0,0,0,0,0,101,0.443,0.636,0.409,27,45,11,0021500812,1610612754,IND,Indiana,Joe Young,,,10:01,2.0,0.0,2.0,4.0,0.0,0.0,0.0,4.0,0.0,0.0,0.0,0.0
0021500812,1610612754,IND,Indiana,203524,Solomon Hill,,,13:26,70.2,100.9,-30.7,0.0,0.0,0.0,0.0,0.071,0.031,0.0,0.0,0.0,0.07,95.43,-0.085,2016-02-19T00:00:00,8,IND,Indiana,29-25,24,20,23,34,0,0,0,0,0,0,0,0,0,0,101,0.443,0.636,0.409,27,45,11,0021500812,1610612754,IND,Indiana,Solomon Hill,,,13:26,0.0,0.0,0.0,0.0,0.0,3.0,6.0,10.0,0.0,0.0,2.0,0.0
0021500812,1610612754,IND,Indiana,201978,Chase Budinger,,,9:59,89.5,100.0,-10.5,0.0,0.0,0.0,0.0,0.1,0.053,33.3,0.0,0.0,0.143,88.95,-0.068,2016-02-19T00:00:00,8,IND,Indiana,29-25,24,20,23,34,0,0,0,0,0,0,0,0,0,0,101,0.443,0.636,0.409,27,45,11,0021500812,1610612754,IND,Indiana,Chase Budinger,,,9:59,0.0,0.0,0.0,0.0,3.0,6.0,2.0,6.0,0.0,0.0,0.0,0.0
0021500812,1610612754,IND,Indiana,101139,CJ Miles,,DNP - Coach's Decision                  ,,,,,,,0.0,,,,,,,0.0,,,2016-02-19T00:00:00,8,IND,Indiana,29-25,24,20,23,34,0,0,0,0,0,0,0,0,0,0,101,0.443,0.636,0.409,27,45,11,0021500812,1610612754,IND,Indiana,CJ Miles,,DNP - Coach's Decision                  ,,,,,,,,,,,,,
0021500812,1610612754,IND,Indiana,203922,Glenn Robinson III,,DNP - Coach's Decision                  ,,,,,,,0.0,,,,,,,0.0,,,2016-02-19T00:00:00,8,IND,Indiana,29-25,24,20,23,34,0,0,0,0,0,0,0,0,0,0,101,0.443,0.636,0.409,27,45,11,0021500812,1610612754,IND,Indiana,Glenn Robinson III,,DNP - Coach's Decision                  ,,,,,,,,,,,,,
0021500812,1610612760,OKC,Oklahoma City,201142,Kevin Durant,F,,38:21,91.5,105.2,-13.7,0.143,0.6,8.5,0.0,0.2,0.108,14.2,0.538,0.567,0.346,106.44,0.131,2016-02-19T00:00:00,8,OKC,Oklahoma City,40-15,24,27,25,22,0,0,0,0,0,0,0,0,0,0,98,0.438,0.9,0.192,28,48,13,0021500812,1610612760,OKC,Oklahoma City,Kevin Durant,F,,38:21,0.0,2.0,6.0,12.0,13.0,6.0,13.0,36.0,1.0,1.0,4.0,4.0
0021500812,1610612760,OKC,Oklahoma City,201586,Serge Ibaka,F,,34:57,94.2,101.9,-7.7,0.037,0.5,6.1,0.1,0.235,0.172,12.2,0.462,0.446,0.182,105.92,0.063,2016-02-19T00:00:00,8,OKC,Oklahoma City,40-15,24,27,25,22,0,0,0,0,0,0,0,0,0,0,98,0.438,0.9,0.192,28,48,13,0021500812,1610612760,OKC,Oklahoma City,Serge Ibaka,F,,34:57,0.0,2.0,0.0,4.0,13.0,8.0,11.0,28.0,0.0,1.0,3.0,1.0
0021500812,1610612760,OKC,Oklahoma City,203500,Steven Adams,C,,32:12,91.0,107.8,-16.8,0.04,0.5,14.5,0.0,0.233,0.127,29.1,0.667,0.773,0.081,102.05,0.07,2016-02-19T00:00:00,8,OKC,Oklahoma City,40-15,24,27,25,22,0,0,0,0,0,0,0,0,0,0,98,0.438,0.9,0.192,28,48,13,0021500812,1610612760,OKC,Oklahoma City,Steven Adams,C,,32:12,2.0,0.0,0.0,4.0,13.0,10.0,9.0,26.0,2.0,0.0,3.0,2.0
0021500812,1610612760,OKC,Oklahoma City,203079,Dion Waiters,G,,31:34,86.9,108.8,-21.9,0.074,0.0,25.0,0.0,0.065,0.034,0.0,0.0,0.0,0.078,106.87,-0.015,2016-02-19T00:00:00,8,OKC,Oklahoma City,40-15,24,27,25,22,0,0,0,0,0,0,0,0,0,0,98,0.438,0.9,0.192,28,48,13,0021500812,1610612760,OKC,Oklahoma City,Dion Waiters,G,,31:34,0.0,0.0,0.0,0.0,13.0,6.0,11.0,28.0,0.0,1.0,2.0,1.0
0021500812,1610612760,OKC,Oklahoma City,201566,Russell Westbrook,G,,37:09,95.7,105.0,-9.3,0.75,9.0,47.5,0.0,0.079,0.043,5.3,0.618,0.643,0.225,104.37,0.219,2016-02-19T00:00:00,8,OKC,Oklahoma City,40-15,24,27,25,22,0,0,0,0,0,0,0,0,0,0,98,0.438,0.9,0.192,28,48,13,0021500812,1610612760,OKC,Oklahoma City,Russell Westbrook,G,,37:09,2.0,3.0,4.0,8.0,13.0,8.0,11.0,32.0,1.0,1.0,2.0,3.0
0021500812,1610612760,OKC,Oklahoma City,202683,Enes Kanter,,,20:09,87.7,92.8,-5.1,0.0,0.0,0.0,0.167,0.261,0.213,0.0,0.367,0.409,0.329,99.05,0.171,2016-02-19T00:00:00,8,OKC,Oklahoma City,40-15,24,27,25,22,0,0,0,0,0,0,0,0,0,0,98,0.438,0.9,0.192,28,48,13,0021500812,1610612760,OKC,Oklahoma City,Enes Kanter,,,20:09,0.0,0.0,2.0,6.0,2.0,2.0,10.0,24.0,0.0,4.0,0.0,1.0
0021500812,1610612760,OKC,Oklahoma City,2555,Nick Collison,,,8:42,118.2,83.0,35.3,0.125,1.0,50.0,0.111,0.182,0.15,50.0,0.0,0.0,0.046,98.87,0.019,2016-02-19T00:00:00,8,OKC,Oklahoma City,40-15,24,27,25,22,0,0,0,0,0,0,0,0,0,0,98,0.438,0.9,0.192,28,48,13,0021500812,1610612760,OKC,Oklahoma City,Nick Collison,,,8:42,0.0,0.0,0.0,0.0,2.0,0.0,4.0,10.0,0.0,0.0,2.0,1.0
0021500812,1610612760,OKC,Oklahoma City,1626166,Cameron Payne,,,11:36,91.8,88.3,3.4,0.0,0.0,0.0,0.0,0.0,0.0,14.3,0.5,0.5,0.27,94.18,0.0,2016-02-19T00:00:00,8,OKC,Oklahoma City,40-15,24,27,25,22,0,0,0,0,0,0,0,0,0,0,98,0.438,0.9,0.192,28,48,13,0021500812,1610612760,OKC,Oklahoma City,Cameron Payne,,,11:36,0.0,0.0,0.0,0.0,2.0,4.0,6.0,12.0,0.0,0.0,3.0,0.0
0021500812,1610612760,OKC,Oklahoma City,202713,Kyle Singler,,,13:16,112.1,67.6,44.5,0.182,0.0,33.3,0.071,0.2,0.138,0.0,0.25,0.25,0.13,95.01,0.136,2016-02-19T00:00:00,8,OKC,Oklahoma City,40-15,24,27,25,22,0,0,0,0,0,0,0,0,0,0,98,0.438,0.9,0.192,28,48,13,0021500812,1610612760,OKC,Oklahoma City,Kyle Singler,,,13:16,0.0,0.0,2.0,2.0,2.0,2.0,6.0,12.0,0.0,0.0,1.0,0.0
0021500812,1610612760,OKC,Oklahoma City,201627,Anthony Morrow,,,12:04,100.0,91.3,8.7,0.0,0.0,0.0,0.0,0.0,0.0,0.0,0.417,0.417,0.24,89.5,0.0,2016-02-19T00:00:00,8,OKC,Oklahoma City,40-15,24,27,25,22,0,0,0,0,0,0,0,0,0,0,98,0.438,0.9,0.192,28,48,13,0021500812,1610612760,OKC,Oklahoma City,Anthony Morrow,,,12:04,3.0,3.0,0.0,2.0,2.0,4.0,4.0,12.0,0.0,0.0,1.0,1.0
0021500812,1610612760,OKC,Oklahoma City,200751,Randy Foye,,DNP - Coach's Decision                  ,,,,,,,0.0,,,,,,,0.0,,,2016-02-19T00:00:00,8,OKC,Oklahoma City,40-15,24,27,25,22,0,0,0,0,0,0,0,0,0,0,98,0.438,0.9,0.192,28,48,13,0021500812,1610612760,OKC,Oklahoma City,Randy Foye,,DNP - Coach's Decision                  ,,,,,,,,,,,,,
0021500812,1610612760,OKC,Oklahoma City,203962,Josh Huestis,,DNP - Coach's Decision                  ,,,,,,,0.0,,,,,,,0.0,,,2016-02-19T00:00:00,8,OKC,Oklahoma City,40-15,24,27,25,22,0,0,0,0,0,0,0,0,0,0,98,0.438,0.9,0.192,28,48,13,0021500812,1610612760,OKC,Oklahoma City,Josh Huestis,,DNP - Coach's Decision                  ,,,,,,,,,,,,,
