GAME_ID_x,TEAM_ID_x,TEAM_ABBREVIATION_x,TEAM_CITY_x,PLAYER_ID,PLAYER_NAME_x,START_POSITION_x,COMMENT_x,MIN_x,OFF_RATING,DEF_RATING,NET_RATING,AST_PCT,AST_TOV,AST_RATIO,OREB_PCT,DREB_PCT,REB_PCT,TM_TOV_PCT,EFG_PCT,TS_PCT,USG_PCT,PACE,PIE,GAME_DATE_EST,GAME_SEQUENCE,TEAM_ABBREVIATION_y,TEAM_CITY_NAME,TEAM_WINS_LOSSES,PTS_QTR1,PTS_QTR2,PTS_QTR3,PTS_QTR4,PTS_OT1,PTS_OT2,PTS_OT3,PTS_OT4,PTS_OT5,PTS_OT6,PTS_OT7,PTS_OT8,PTS_OT9,PTS_OT10,PTS,FG_PCT,FT_PCT,FG3_PCT,AST,REB,TOV,GAME_ID_y,TEAM_ID_y,TEAM_ABBREVIATION,TEAM_CITY_y,PLAYER_NAME_y,START_POSITION_y,COMMENT_y,MIN_y,PTS_OFF_TOV,PTS_2ND_CHANCE,PTS_FB,PTS_PAINT,OPP_PTS_OFF_TOV,OPP_PTS_2ND_CHANCE,OPP_PTS_FB,OPP_PTS_PAINT,BLK,BLKA,PF,PFD
0021500830,1610612755,PHI,Philadelphia,203496,Robert Covington,F,,25:03,115.6,133.9,-18.2,0.0,0.0,0.0,0.0,0.238,0.116,0.0,0.778,0.778,0.163,96.73,0.124,2016-02-21T00:00:00,8,PHI,Philadelphia,8-47,30,24,26,23,0,0,0,0,0,0,0,0,0,0,103,0.481,0.63,0.429,19,35,15,0021500830,1610612755,PHI,Philadelphia,Robert Covington,F,,25:03,0,2,0,2,12,11,10,16,0,0,3,1
0021500830,1610612755,PHI,Philadelphia,203457,Nerlens Noel,F,,18:41,119.2,128.3,-9.1,0.143,2.0,28.6,0.059,0.2,0.135,14.3,0.5,0.5,0.128,91.41,0.048,2016-02-21T00:00:00,8,PHI,Philadelphia,8-47,30,24,26,23,0,0,0,0,0,0,0,0,0,0,103,0.481,0.63,0.429,19,35,15,0021500830,1610612755,PHI,Philadelphia,Nerlens Noel,F,,18:41,0,0,0,4,5,10,5,6,1,0,5,1
0021500830,1610612755,PHI,Philadelphia,1626143,Jahlil Okafor,C,,31:42,100.1,149.9,-49.8,0.091,0.2,3.4,0.129,0.16,0.143,17.0,0.632,0.662,0.406,94.09,0.152,2016-02-21T00:00:00,8,PHI,Philadelphia,8-47,30,24,26,23,0,0,0,0,0,0,0,0,0,0,103,0.481,0.63,0.429,19,35,15,0021500830,1610612755,PHI,Philadelphia,Jahlil Okafor,C,,31:42,5,7,3,22,18,12,12,28,1,0,4,6
0021500830,1610612755,PHI,Philadelphia,203917,Nik Stauskas,G,,20:13,114.7,137.8,-23.1,0.125,0.0,29.1,0.0,0.118,0.053,0.0,0.75,0.82,0.109,97.76,0.114,2016-02-21T00:00:00,8,PHI,Philadelphia,8-47,30,24,26,23,0,0,0,0,0,0,0,0,0,0,103,0.481,0.63,0.429,19,35,15,0021500830,1610612755,PHI,Philadelphia,Nik Stauskas,G,,20:13,3,0,0,0,7,7,11,16,0,0,0,1
0021500830,1610612755,PHI,Philadelphia,202397,Ish Smith,G,,25:39,99.7,129.6,-29.9,0.167,1.0,21.6,0.0,0.04,0.02,21.6,0.143,0.19,0.187,96.45,-0.054,2016-02-21T00:00:00,8,PHI,Philadelphia,8-47,30,24,26,23,0,0,0,0,0,0,0,0,0,0,103,0.481,0.63,0.429,19,35,15,0021500830,1610612755,PHI,Philadelphia,Ish Smith,G,,25:39,0,0,1,2,16,13,11,22,0,1,2,1
0021500830,1610612755,PHI,Philadelphia,203924,Jerami Grant,,,28:48,95.5,136.6,-41.0,0.053,0.5,13.1,0.083,0.13,0.106,26.2,0.0,0.431,0.11,93.81,0.024,2016-02-21T00:00:00,8,PHI,Philadelphia,8-47,30,24,26,23,0,0,0,0,0,0,0,0,0,0,103,0.481,0.63,0.429,19,35,15,0021500830,1610612755,PHI,Philadelphia,Jerami Grant,,,28:48,0,0,3,0,17,11,11,22,1,1,2,4
0021500830,1610612755,PHI,Philadelphia,203138,Hollis Thompson,,,22:09,97.4,125.9,-28.5,0.0,0.0,0.0,0.0,0.19,0.105,0.0,0.429,0.481,0.173,97.99,0.037,2016-02-21T00:00:00,8,PHI,Philadelphia,8-47,30,24,26,23,0,0,0,0,0,0,0,0,0,0,103,0.481,0.63,0.429,19,35,15,0021500830,1610612755,PHI,Philadelphia,Hollis Thompson,,,22:09,2,0,2,0,14,11,6,20,0,0,4,2
0021500830,1610612755,PHI,Philadelphia,203477,Isaiah Canaan,,,26:48,100.7,128.1,-27.4,0.077,0.5,6.7,0.0,0.05,0.024,13.3,0.625,0.625,0.235,100.84,0.05,2016-02-21T00:00:00,8,PHI,Philadelphia,8-47,30,24,26,23,0,0,0,0,0,0,0,0,0,0,103,0.481,0.63,0.429,19,35,15,0021500830,1610612755,PHI,Philadelphia,Isaiah Canaan,,,26:48,4,0,5,6,19,10,11,28,0,1,4,0
0021500830,1610612755,PHI,Philadelphia,204456,T.J. McConnell,,,16:04,114.7,142.5,-27.8,0.6,0.0,55.1,0.0,0.1,0.043,0.0,0.75,0.615,0.15,93.81,0.123,2016-02-21T00:00:00,8,PHI,Philadelphia,8-47,30,24,26,23,0,0,0,0,0,0,0,0,0,0,103,0.481,0.63,0.429,19,35,15,0021500830,1610612755,PHI,Philadelphia,T.J. McConnell,,,16:04,2,0,0,2,6,3,5,8,0,0,3,1
0021500830,1610612755,PHI,Philadelphia,1626158,Richaun Holmes,,,12:19,118.7,101.0,17.7,0.125,1.0,12.5,0.1,0.091,0.095,12.5,0.5,0.5,0.25,108.5,0.052,2016-02-21T00:00:00,8,PHI,Philadelphia,8-47,30,24,26,23,0,0,0,0,0,0,0,0,0,0,103,0.481,0.63,0.429,19,35,15,0021500830,1610612755,PHI,Philadelphia,Richaun Holmes,,,12:19,0,2,0,6,2,4,4,8,0,0,2,1
0021500830,1610612755,PHI,Philadelphia,201171,Carl Landry,,,6:17,112.7,116.1,-3.4,0.0,0.0,0.0,0.0,0.0,0.0,0.0,0.0,0.266,0.132,110.16,-0.019,2016-02-21T00:00:00,8,PHI,Philadelphia,8-47,30,24,26,23,0,0,0,0,0,0,0,0,0,0,103,0.481,0.63,0.429,19,35,15,0021500830,1610612755,PHI,Philadelphia,Carl Landry,,,6:17,0,0,0,0,2,4,2,8,1,0,0,1
0021500830,1610612755,PHI,Philadelphia,203088,Kendall Marshall,,,6:17,112.7,116.1,-3.4,0.5,2.0,40.0,0.0,0.167,0.091,20.0,0.75,0.75,0.211,110.16,0.113,2016-02-21T00:00:00,8,PHI,Philadelphia,8-47,30,24,26,23,0,0,0,0,0,0,0,0,0,0,103,0.481,0.63,0.429,19,35,15,0021500830,1610612755,PHI,Philadelphia,Kendall Marshall,,,6:17,0,0,0,0,2,4,2,8,0,0,2,0
0021500830,1610612742,DAL,Dallas,202718,Chandler Parsons,F,,27:15,145.8,98.1,47.7,0.095,1.0,11.7,0.048,0.115,0.085,11.7,0.4,0.573,0.245,97.41,0.123,2016-02-21T00:00:00,8,DAL,Dallas,30-27,28,38,29,34,0,0,0,0,0,0,0,0,0,0,129,0.482,0.944,0.382,23,48,10,0021500830,1610612742,DAL,Dallas,Chandler Parsons,F,,27:15,2,4,4,8,8,11,8,30,1,0,1,5
0021500830,1610612742,DAL,Dallas,1717,Dirk Nowitzki,F,,26:51,136.3,115.7,20.6,0.105,0.0,11.8,0.0,0.304,0.159,0.0,0.607,0.605,0.24,96.32,0.127,2016-02-21T00:00:00,8,DAL,Dallas,30-27,28,38,29,34,0,0,0,0,0,0,0,0,0,0,129,0.482,0.944,0.382,23,48,10,0021500830,1610612742,DAL,Dallas,Dirk Nowitzki,F,,26:51,3,3,3,0,11,5,8,24,0,0,3,2
0021500830,1610612742,DAL,Dallas,2585,Zaza Pachulia,C,,19:14,120.7,115.5,5.2,0.083,0.5,9.8,0.222,0.353,0.286,19.6,0.4,0.625,0.206,100.38,0.143,2016-02-21T00:00:00,8,DAL,Dallas,30-27,28,38,29,34,0,0,0,0,0,0,0,0,0,0,129,0.482,0.944,0.382,23,48,10,0021500830,1610612742,DAL,Dallas,Zaza Pachulia,C,,19:14,0,2,0,4,10,4,9,24,0,1,3,7
0021500830,1610612742,DAL,Dallas,202083,Wesley Matthews,G,,27:15,145.8,98.1,47.7,0.118,0.0,13.4,0.0,0.115,0.064,0.0,0.792,0.815,0.209,97.41,0.198,2016-02-21T00:00:00,8,DAL,Dallas,30-27,28,38,29,34,0,0,0,0,0,0,0,0,0,0,129,0.482,0.944,0.382,23,48,10,0021500830,1610612742,DAL,Dallas,Wesley Matthews,G,,27:15,11,3,0,0,8,11,8,30,0,0,1,2
0021500830,1610612742,DAL,Dallas,101114,Deron Williams,G,,27:27,145.8,98.4,47.4,0.381,8.0,40.7,0.0,0.115,0.064,5.1,0.563,0.705,0.189,97.47,0.181,2016-02-21T00:00:00,8,DAL,Dallas,30-27,28,38,29,34,0,0,0,0,0,0,0,0,0,0,129,0.482,0.944,0.382,23,48,10,0021500830,1610612742,DAL,Dallas,Deron Williams,G,,27:27,2,0,4,6,8,11,8,30,0,0,2,4
0021500830,1610612742,DAL,Dallas,101109,Raymond Felton,,,28:46,124.6,102.5,22.2,0.05,0.5,7.8,0.077,0.087,0.082,15.7,0.375,0.512,0.18,93.41,0.083,2016-02-21T00:00:00,8,DAL,Dallas,30-27,28,38,29,34,0,0,0,0,0,0,0,0,0,0,129,0.482,0.944,0.382,23,48,10,0021500830,1610612742,DAL,Dallas,Raymond Felton,,,28:46,2,4,4,4,9,7,5,24,1,0,2,2
0021500830,1610612742,DAL,Dallas,1626257,Salah Mejri,,,14:28,150.2,85.3,64.8,0.0,0.0,0.0,0.308,0.182,0.25,0.0,0.5,0.5,0.119,88.92,0.088,2016-02-21T00:00:00,8,DAL,Dallas,30-27,28,38,29,34,0,0,0,0,0,0,0,0,0,0,129,0.482,0.944,0.382,23,48,10,0021500830,1610612742,DAL,Dallas,Salah Mejri,,,14:28,0,0,0,4,0,2,1,8,1,2,3,0
0021500830,1610612742,DAL,Dallas,2734,Devin Harris,,,17:21,110.2,114.8,-4.7,0.182,2.0,20.5,0.056,0.154,0.097,10.2,0.5,0.592,0.179,95.94,0.096,2016-02-21T00:00:00,8,DAL,Dallas,30-27,28,38,29,34,0,0,0,0,0,0,0,0,0,0,129,0.482,0.944,0.382,23,48,10,0021500830,1610612742,DAL,Dallas,Devin Harris,,,17:21,2,0,1,2,8,0,6,14,0,0,1,3
0021500830,1610612742,DAL,Dallas,200826,J.J. Barea,,,24:22,126.5,114.9,11.6,0.357,5.0,33.3,0.0,0.095,0.048,6.7,0.667,0.667,0.173,97.04,0.137,2016-02-21T00:00:00,8,DAL,Dallas,30-27,28,38,29,34,0,0,0,0,0,0,0,0,0,0,129,0.482,0.944,0.382,23,48,10,0021500830,1610612742,DAL,Dallas,J.J. Barea,,,24:22,0,0,0,2,8,2,9,18,0,0,1,1
0021500830,1610612742,DAL,Dallas,203939,Dwight Powell,,,9:47,111.5,132.1,-20.6,0.0,0.0,0.0,0.143,0.125,0.133,26.6,1.0,1.087,0.16,104.8,0.117,2016-02-21T00:00:00,8,DAL,Dallas,30-27,28,38,29,34,0,0,0,0,0,0,0,0,0,0,129,0.482,0.944,0.382,23,48,10,0021500830,1610612742,DAL,Dallas,Dwight Powell,,,9:47,2,2,0,2,6,2,4,10,0,0,1,4
0021500830,1610612742,DAL,Dallas,101111,Charlie Villanueva,,,7:45,102.2,93.0,9.1,0.0,0.0,0.0,0.1,0.125,0.111,0.0,0.333,0.333,0.291,104.79,0.059,2016-02-21T00:00:00,8,DAL,Dallas,30-27,28,38,29,34,0,0,0,0,0,0,0,0,0,0,129,0.482,0.944,0.382,23,48,10,0021500830,1610612742,DAL,Dallas,Charlie Villanueva,,,7:45,0,2,0,4,2,0,2,4,0,1,0,0
0021500830,1610612742,DAL,Dallas,1626147,Justin Anderson,,,6:17,116.1,112.7,3.4,0.0,0.0,0.0,0.0,0.4,0.182,0.0,0.5,0.694,0.173,110.16,0.151,2016-02-21T00:00:00,8,DAL,Dallas,30-27,28,38,29,34,0,0,0,0,0,0,0,0,0,0,129,0.482,0.944,0.382,23,48,10,0021500830,1610612742,DAL,Dallas,Justin Anderson,,,6:17,0,0,2,2,2,0,2,4,0,0,1,1
0021500830,1610612742,DAL,Dallas,202379,Jeremy Evans,,,3:12,130.8,128.6,2.2,0.0,0.0,0.0,0.0,0.0,0.0,0.0,1.5,1.5,0.145,104.1,0.154,2016-02-21T00:00:00,8,DAL,Dallas,30-27,28,38,29,34,0,0,0,0,0,0,0,0,0,0,129,0.482,0.944,0.382,23,48,10,0021500830,1610612742,DAL,Dallas,Jeremy Evans,,,3:12,0,0,0,0,0,0,0,0,0,0,0,0
