GAME_ID_x,TEAM_ID_x,TEAM_ABBREVIATION_x,TEAM_CITY_x,PLAYER_ID,PLAYER_NAME_x,START_POSITION_x,COMMENT_x,MIN_x,OFF_RATING,DEF_RATING,NET_RATING,AST_PCT,AST_TOV,AST_RATIO,OREB_PCT,DREB_PCT,REB_PCT,TM_TOV_PCT,EFG_PCT,TS_PCT,USG_PCT,PACE,PIE,GAME_DATE_EST,GAME_SEQUENCE,TEAM_ABBREVIATION_y,TEAM_CITY_NAME,TEAM_WINS_LOSSES,PTS_QTR1,PTS_QTR2,PTS_QTR3,PTS_QTR4,PTS_OT1,PTS_OT2,PTS_OT3,PTS_OT4,PTS_OT5,PTS_OT6,PTS_OT7,PTS_OT8,PTS_OT9,PTS_OT10,PTS,FG_PCT,FT_PCT,FG3_PCT,AST,REB,TOV,GAME_ID_y,TEAM_ID_y,TEAM_ABBREVIATION,TEAM_CITY_y,PLAYER_NAME_y,START_POSITION_y,COMMENT_y,MIN_y,PTS_OFF_TOV,PTS_2ND_CHANCE,PTS_FB,PTS_PAINT,OPP_PTS_OFF_TOV,OPP_PTS_2ND_CHANCE,OPP_PTS_FB,OPP_PTS_PAINT,BLK,BLKA,PF,PFD
0021500836,1610612744,GSW,Golden State,203084,Harrison Barnes,F,,29:37,107.7,89.7,17.9,0.048,1.0,9.2,0.0,0.125,0.07,9.2,0.813,0.788,0.15,102.52,0.102,2016-02-22T00:00:00,4,GSW,Golden State,50-5,30,28,18,26,0,0,0,0,0,0,0,0,0,0,102,0.438,0.833,0.311,30,43,13,0021500836,1610612744,GSW,Golden State,Harrison Barnes,F,,29:37,3.0,0.0,3.0,2.0,10.0,10.0,0.0,26.0,0.0,0.0,2.0,1.0
0021500836,1610612744,GSW,Golden State,203110,Draymond Green,F,,38:16,103.3,83.3,20.0,0.3,2.25,37.7,0.028,0.351,0.192,16.8,0.2,0.276,0.17,104.31,0.119,2016-02-22T00:00:00,4,GSW,Golden State,50-5,30,28,18,26,0,0,0,0,0,0,0,0,0,0,102,0.438,0.833,0.311,30,43,13,0021500836,1610612744,GSW,Golden State,Draymond Green,F,,38:16,0.0,0.0,2.0,4.0,8.0,9.0,8.0,24.0,1.0,3.0,2.0,1.0
0021500836,1610612744,GSW,Golden State,101106,Andrew Bogut,C,,29:16,108.3,76.2,32.1,0.167,4.0,40.5,0.12,0.276,0.204,10.1,0.25,0.307,0.089,99.55,0.12,2016-02-22T00:00:00,4,GSW,Golden State,50-5,30,28,18,26,0,0,0,0,0,0,0,0,0,0,102,0.438,0.833,0.311,30,43,13,0021500836,1610612744,GSW,Golden State,Andrew Bogut,C,,29:16,2.0,0.0,0.0,2.0,5.0,6.0,3.0,14.0,5.0,0.0,3.0,2.0
0021500836,1610612744,GSW,Golden State,202691,Klay Thompson,G,,36:51,107.5,83.4,24.1,0.15,3.0,10.8,0.0,0.053,0.029,3.6,0.543,0.565,0.31,101.24,0.136,2016-02-22T00:00:00,4,GSW,Golden State,50-5,30,28,18,26,0,0,0,0,0,0,0,0,0,0,102,0.438,0.833,0.311,30,43,13,0021500836,1610612744,GSW,Golden State,Klay Thompson,G,,36:51,6.0,3.0,7.0,10.0,10.0,10.0,0.0,26.0,0.0,2.0,3.0,1.0
0021500836,1610612744,GSW,Golden State,201939,Stephen Curry,G,,35:48,106.2,86.0,20.2,0.5,4.0,24.0,0.029,0.152,0.09,6.0,0.75,0.772,0.312,104.13,0.299,2016-02-22T00:00:00,4,GSW,Golden State,50-5,30,28,18,26,0,0,0,0,0,0,0,0,0,0,102,0.438,0.833,0.311,30,43,13,0021500836,1610612744,GSW,Golden State,Stephen Curry,G,,35:48,14.0,2.0,9.0,14.0,8.0,9.0,8.0,24.0,0.0,1.0,2.0,7.0
0021500836,1610612744,GSW,Golden State,2738,Andre Iguodala,,,24:31,85.8,108.5,-22.7,0.125,0.0,13.9,0.0,0.158,0.064,0.0,0.25,0.281,0.224,102.75,0.039,2016-02-22T00:00:00,4,GSW,Golden State,50-5,30,28,18,26,0,0,0,0,0,0,0,0,0,0,102,0.438,0.833,0.311,30,43,13,0021500836,1610612744,GSW,Golden State,Andre Iguodala,,,24:31,2.0,2.0,0.0,4.0,7.0,7.0,8.0,18.0,0.0,0.0,1.0,2.0
0021500836,1610612744,GSW,Golden State,2571,Leandro Barbosa,,,11:09,80.0,108.9,-28.9,0.25,0.0,40.0,0.067,0.0,0.045,0.0,0.5,0.5,0.111,105.21,0.085,2016-02-22T00:00:00,4,GSW,Golden State,50-5,30,28,18,26,0,0,0,0,0,0,0,0,0,0,102,0.438,0.833,0.311,30,43,13,0021500836,1610612744,GSW,Golden State,Leandro Barbosa,,,11:09,0.0,0.0,0.0,0.0,1.0,3.0,8.0,8.0,0.0,0.0,1.0,0.0
0021500836,1610612744,GSW,Golden State,201575,Brandon Rush,,,6:22,69.2,121.4,-52.2,0.0,0.0,0.0,0.0,0.0,0.0,0.0,0.0,0.0,0.071,101.78,-0.033,2016-02-22T00:00:00,4,GSW,Golden State,50-5,30,28,18,26,0,0,0,0,0,0,0,0,0,0,102,0.438,0.833,0.311,30,43,13,0021500836,1610612744,GSW,Golden State,Brandon Rush,,,6:22,0.0,0.0,0.0,0.0,0.0,3.0,5.0,6.0,0.0,0.0,0.0,0.0
0021500836,1610612744,GSW,Golden State,201578,Marreese Speights,,,7:52,80.0,117.6,-37.6,0.0,0.0,0.0,0.0,0.143,0.071,33.3,0.25,0.25,0.4,97.63,-0.083,2016-02-22T00:00:00,4,GSW,Golden State,50-5,30,28,18,26,0,0,0,0,0,0,0,0,0,0,102,0.438,0.833,0.311,30,43,13,0021500836,1610612744,GSW,Golden State,Marreese Speights,,,7:52,0.0,0.0,0.0,2.0,3.0,4.0,0.0,10.0,0.0,1.0,1.0,1.0
0021500836,1610612744,GSW,Golden State,2733,Shaun Livingston,,,20:19,99.8,79.5,20.3,0.077,0.5,20.0,0.0,0.053,0.029,40.0,1.0,1.0,0.091,99.04,0.045,2016-02-22T00:00:00,4,GSW,Golden State,50-5,30,28,18,26,0,0,0,0,0,0,0,0,0,0,102,0.438,0.833,0.311,30,43,13,0021500836,1610612744,GSW,Golden State,Shaun Livingston,,,20:19,0.0,0.0,2.0,2.0,3.0,4.0,0.0,14.0,2.0,0.0,2.0,2.0
0021500836,1610612744,GSW,Golden State,203546,Ian Clark,,DNP - Coach's Decision                  ,,,,,,,0.0,,,,,,,0.0,,,2016-02-22T00:00:00,4,GSW,Golden State,50-5,30,28,18,26,0,0,0,0,0,0,0,0,0,0,102,0.438,0.833,0.311,30,43,13,0021500836,1610612744,GSW,Golden State,Ian Clark,,DNP - Coach's Decision                  ,,,,,,,,,,,,,
0021500836,1610612744,GSW,Golden State,1626172,Kevon Looney,,DNP - Coach's Decision                  ,,,,,,,0.0,,,,,,,0.0,,,2016-02-22T00:00:00,4,GSW,Golden State,50-5,30,28,18,26,0,0,0,0,0,0,0,0,0,0,102,0.438,0.833,0.311,30,43,13,0021500836,1610612744,GSW,Golden State,Kevon Looney,,DNP - Coach's Decision                  ,,,,,,,,,,,,,
0021500836,1610612744,GSW,Golden State,2760,Anderson Varejao,,DNP - Coach's Decision                  ,,,,,,,0.0,,,,,,,0.0,,,2016-02-22T00:00:00,4,GSW,Golden State,50-5,30,28,18,26,0,0,0,0,0,0,0,0,0,0,102,0.438,0.833,0.311,30,43,13,0021500836,1610612744,GSW,Golden State,Anderson Varejao,,DNP - Coach's Decision                  ,,,,,,,,,,,,,
0021500836,1610612737,ATL,Atlanta,203145,Kent Bazemore,F,,15:56,66.4,123.5,-57.1,0.143,0.5,9.2,0.0,0.143,0.057,18.4,0.143,0.254,0.27,97.66,-0.017,2016-02-22T00:00:00,4,ATL,Atlanta,31-27,15,24,36,17,0,0,0,0,0,0,0,0,0,0,92,0.419,0.625,0.294,23,47,17,0021500836,1610612737,ATL,Atlanta,Kent Bazemore,F,,15:56,0.0,0.0,0.0,2.0,9.0,3.0,13.0,12.0,0.0,1.0,0.0,1.0
0021500836,1610612737,ATL,Atlanta,200794,Paul Millsap,F,,33:19,73.6,110.8,-37.3,0.067,0.33,5.3,0.057,0.167,0.108,16.0,0.346,0.373,0.231,103.25,0.022,2016-02-22T00:00:00,4,ATL,Atlanta,31-27,15,24,36,17,0,0,0,0,0,0,0,0,0,0,92,0.419,0.625,0.294,23,47,17,0021500836,1610612737,ATL,Atlanta,Paul Millsap,F,,33:19,1.0,0.0,0.0,6.0,23.0,7.0,19.0,30.0,1.0,2.0,3.0,4.0
0021500836,1610612737,ATL,Atlanta,201143,Al Horford,C,,39:26,92.8,101.4,-8.6,0.3,6.0,21.5,0.108,0.353,0.225,3.6,0.525,0.551,0.238,101.57,0.238,2016-02-22T00:00:00,4,ATL,Atlanta,31-27,15,24,36,17,0,0,0,0,0,0,0,0,0,0,92,0.419,0.625,0.294,23,47,17,0021500836,1610612737,ATL,Atlanta,Al Horford,C,,39:26,4.0,8.0,0.0,14.0,19.0,5.0,21.0,36.0,5.0,1.0,1.0,3.0
0021500836,1610612737,ATL,Atlanta,2594,Kyle Korver,G,,30:09,82.8,107.8,-25.0,0.048,0.5,14.3,0.0,0.037,0.018,28.6,0.25,0.25,0.083,105.27,-0.008,2016-02-22T00:00:00,4,ATL,Atlanta,31-27,15,24,36,17,0,0,0,0,0,0,0,0,0,0,92,0.419,0.625,0.294,23,47,17,0021500836,1610612737,ATL,Atlanta,Kyle Korver,G,,30:09,0.0,0.0,0.0,0.0,18.0,0.0,17.0,28.0,0.0,0.0,1.0,0.0
0021500836,1610612737,ATL,Atlanta,201952,Jeff Teague,G,,29:43,80.7,105.4,-24.6,0.429,2.0,24.5,0.0,0.0,0.0,12.2,0.5,0.515,0.264,101.6,0.06,2016-02-22T00:00:00,4,ATL,Atlanta,31-27,15,24,36,17,0,0,0,0,0,0,0,0,0,0,92,0.419,0.625,0.294,23,47,17,0021500836,1610612737,ATL,Atlanta,Jeff Teague,G,,29:43,3.0,0.0,0.0,0.0,15.0,3.0,17.0,22.0,1.0,2.0,3.0,6.0
0021500836,1610612737,ATL,Atlanta,203488,Mike Muscala,,,2:35,80.0,80.0,0.0,0.0,0.0,0.0,0.0,0.333,0.25,0.0,0.0,0.0,0.0,92.9,0.0,2016-02-22T00:00:00,4,ATL,Atlanta,31-27,15,24,36,17,0,0,0,0,0,0,0,0,0,0,92,0.419,0.625,0.294,23,47,17,0021500836,1610612737,ATL,Atlanta,Mike Muscala,,,2:35,0.0,0.0,0.0,0.0,2.0,2.0,0.0,2.0,0.0,0.0,1.0,0.0
0021500836,1610612737,ATL,Atlanta,200757,Thabo Sefolosha,,,24:16,94.8,94.7,0.1,0.0,0.0,0.0,0.0,0.167,0.085,28.6,0.6,0.6,0.133,101.31,0.052,2016-02-22T00:00:00,4,ATL,Atlanta,31-27,15,24,36,17,0,0,0,0,0,0,0,0,0,0,92,0.419,0.625,0.294,23,47,17,0021500836,1610612737,ATL,Atlanta,Thabo Sefolosha,,,24:16,3.0,3.0,0.0,0.0,12.0,7.0,8.0,18.0,0.0,1.0,0.0,0.0
0021500836,1610612737,ATL,Atlanta,203471,Dennis Schroder,,,18:04,105.5,90.0,15.4,0.667,3.0,30.0,0.0,0.158,0.103,10.0,0.75,0.75,0.351,101.85,0.225,2016-02-22T00:00:00,4,ATL,Atlanta,31-27,15,24,36,17,0,0,0,0,0,0,0,0,0,0,92,0.419,0.625,0.294,23,47,17,0021500836,1610612737,ATL,Atlanta,Dennis Schroder,,,18:04,0.0,2.0,5.0,8.0,12.0,4.0,6.0,18.0,0.0,0.0,4.0,1.0
0021500836,1610612737,ATL,Atlanta,203501,Tim Hardaway Jr.,,,25:40,104.5,83.1,21.5,0.056,0.5,8.3,0.0,0.08,0.048,16.7,0.667,0.667,0.182,102.1,0.063,2016-02-22T00:00:00,4,ATL,Atlanta,31-27,15,24,36,17,0,0,0,0,0,0,0,0,0,0,92,0.419,0.625,0.294,23,47,17,0021500836,1610612737,ATL,Atlanta,Tim Hardaway Jr.,,,25:40,0.0,0.0,3.0,4.0,15.0,4.0,8.0,22.0,0.0,1.0,4.0,2.0
0021500836,1610612737,ATL,Atlanta,203118,Mike Scott,,,20:54,106.5,88.0,18.5,0.048,0.0,20.0,0.111,0.391,0.268,0.0,0.0,0.0,0.082,103.76,0.073,2016-02-22T00:00:00,4,ATL,Atlanta,31-27,15,24,36,17,0,0,0,0,0,0,0,0,0,0,92,0.419,0.625,0.294,23,47,17,0021500836,1610612737,ATL,Atlanta,Mike Scott,,,20:54,0.0,0.0,0.0,0.0,10.0,0.0,6.0,12.0,0.0,0.0,0.0,0.0
0021500836,1610612737,ATL,Atlanta,2550,Kirk Hinrich,,DNP - Coach's Decision                  ,,,,,,,0.0,,,,,,,0.0,,,2016-02-22T00:00:00,4,ATL,Atlanta,31-27,15,24,36,17,0,0,0,0,0,0,0,0,0,0,92,0.419,0.625,0.294,23,47,17,0021500836,1610612737,ATL,Atlanta,Kirk Hinrich,,DNP - Coach's Decision                  ,,,,,,,,,,,,,
0021500836,1610612737,ATL,Atlanta,203934,Lamar Patterson,,DNP - Coach's Decision                  ,,,,,,,0.0,,,,,,,0.0,,,2016-02-22T00:00:00,4,ATL,Atlanta,31-27,15,24,36,17,0,0,0,0,0,0,0,0,0,0,92,0.419,0.625,0.294,23,47,17,0021500836,1610612737,ATL,Atlanta,Lamar Patterson,,DNP - Coach's Decision                  ,,,,,,,,,,,,,
0021500836,1610612737,ATL,Atlanta,204002,Edy Tavares,,DNP - Coach's Decision                  ,,,,,,,0.0,,,,,,,0.0,,,2016-02-22T00:00:00,4,ATL,Atlanta,31-27,15,24,36,17,0,0,0,0,0,0,0,0,0,0,92,0.419,0.625,0.294,23,47,17,0021500836,1610612737,ATL,Atlanta,Edy Tavares,,DNP - Coach's Decision                  ,,,,,,,,,,,,,
