GAME_ID_x,TEAM_ID_x,TEAM_ABBREVIATION_x,TEAM_CITY_x,PLAYER_ID,PLAYER_NAME_x,START_POSITION_x,COMMENT_x,MIN_x,OFF_RATING,DEF_RATING,NET_RATING,AST_PCT,AST_TOV,AST_RATIO,OREB_PCT,DREB_PCT,REB_PCT,TM_TOV_PCT,EFG_PCT,TS_PCT,USG_PCT,PACE,PIE,GAME_DATE_EST,GAME_SEQUENCE,TEAM_ABBREVIATION_y,TEAM_CITY_NAME,TEAM_WINS_LOSSES,PTS_QTR1,PTS_QTR2,PTS_QTR3,PTS_QTR4,PTS_OT1,PTS_OT2,PTS_OT3,PTS_OT4,PTS_OT5,PTS_OT6,PTS_OT7,PTS_OT8,PTS_OT9,PTS_OT10,PTS,FG_PCT,FT_PCT,FG3_PCT,AST,REB,TOV,GAME_ID_y,TEAM_ID_y,TEAM_ABBREVIATION,TEAM_CITY_y,PLAYER_NAME_y,START_POSITION_y,COMMENT_y,MIN_y,PTS_OFF_TOV,PTS_2ND_CHANCE,PTS_FB,PTS_PAINT,OPP_PTS_OFF_TOV,OPP_PTS_2ND_CHANCE,OPP_PTS_FB,OPP_PTS_PAINT,BLK,BLKA,PF,PFD
0021500893,1610612757,POR,Portland,202329,Al-Farouq Aminu,F,,20:36,99.8,100.9,-1.1,0.083,1.0,10.0,0.0,0.19,0.087,10.0,0.25,0.25,0.195,94.04,0.029,2016-03-01T00:00:00,3,POR,Portland,33-28,27,31,27,19,0,0,0,0,0,0,0,0,0,0,104,0.42,0.9,0.4,17,55,7,0021500893,1610612757,POR,Portland,Al-Farouq Aminu,F,,20:36,2.0,0.0,2.0,2.0,7.0,4.0,0.0,20.0,2.0,0.0,2.0,0.0
0021500893,1610612757,POR,Portland,203943,Noah Vonleh,F,,15:11,78.0,96.5,-18.5,0.0,0.0,0.0,0.158,0.071,0.121,0.0,0.25,0.25,0.203,101.8,-0.07,2016-03-01T00:00:00,3,POR,Portland,33-28,27,31,27,19,0,0,0,0,0,0,0,0,0,0,104,0.42,0.9,0.4,17,55,7,0021500893,1610612757,POR,Portland,Noah Vonleh,F,,15:11,0.0,4.0,0.0,4.0,8.0,4.0,0.0,16.0,0.0,1.0,3.0,1.0
0021500893,1610612757,POR,Portland,203486,Mason Plumlee,C,,26:55,116.1,106.6,9.5,0.136,0.0,43.6,0.034,0.24,0.13,0.0,0.0,0.258,0.064,95.32,0.09,2016-03-01T00:00:00,3,POR,Portland,33-28,27,31,27,19,0,0,0,0,0,0,0,0,0,0,104,0.42,0.9,0.4,17,55,7,0021500893,1610612757,POR,Portland,Mason Plumlee,C,,26:55,0.0,0.0,0.0,0.0,10.0,4.0,3.0,24.0,2.0,0.0,2.0,2.0
0021500893,1610612757,POR,Portland,203081,Damian Lillard,G,,32:28,113.0,94.0,19.0,0.353,6.0,20.4,0.0,0.114,0.061,3.4,0.556,0.67,0.331,94.95,0.246,2016-03-01T00:00:00,3,POR,Portland,33-28,27,31,27,19,0,0,0,0,0,0,0,0,0,0,104,0.42,0.9,0.4,17,55,7,0021500893,1610612757,POR,Portland,Damian Lillard,G,,32:28,2.0,0.0,7.0,6.0,10.0,6.0,3.0,30.0,0.0,1.0,1.0,5.0
0021500893,1610612757,POR,Portland,203468,CJ McCollum,G,,33:08,90.4,88.0,2.4,0.167,1.0,8.2,0.027,0.059,0.042,8.2,0.579,0.615,0.305,93.38,0.19,2016-03-01T00:00:00,3,POR,Portland,33-28,27,31,27,19,0,0,0,0,0,0,0,0,0,0,104,0.42,0.9,0.4,17,55,7,0021500893,1610612757,POR,Portland,CJ McCollum,G,,33:08,0.0,0.0,0.0,8.0,4.0,8.0,0.0,24.0,0.0,0.0,1.0,2.0
0021500893,1610612757,POR,Portland,203086,Meyers Leonard,,,25:08,107.5,71.8,35.7,0.071,0.0,11.1,0.091,0.333,0.241,0.0,0.688,0.688,0.15,96.77,0.228,2016-03-01T00:00:00,3,POR,Portland,33-28,27,31,27,19,0,0,0,0,0,0,0,0,0,0,104,0.42,0.9,0.4,17,55,7,0021500893,1610612757,POR,Portland,Meyers Leonard,,,25:08,0.0,2.0,0.0,2.0,7.0,4.0,0.0,12.0,1.0,1.0,5.0,0.0
0021500893,1610612757,POR,Portland,203459,Allen Crabbe,,,21:59,114.5,82.1,32.5,0.063,1.0,11.1,0.0,0.107,0.061,11.1,0.429,0.429,0.169,98.78,0.049,2016-03-01T00:00:00,3,POR,Portland,33-28,27,31,27,19,0,0,0,0,0,0,0,0,0,0,104,0.42,0.9,0.4,17,55,7,0021500893,1610612757,POR,Portland,Allen Crabbe,,,21:59,0.0,0.0,0.0,0.0,3.0,6.0,0.0,10.0,0.0,0.0,0.0,0.0
0021500893,1610612757,POR,Portland,201945,Gerald Henderson,,,22:37,115.9,79.4,36.5,0.0,0.0,0.0,0.0,0.179,0.114,0.0,0.25,0.338,0.194,95.3,0.09,2016-03-01T00:00:00,3,POR,Portland,33-28,27,31,27,19,0,0,0,0,0,0,0,0,0,0,104,0.42,0.9,0.4,17,55,7,0021500893,1610612757,POR,Portland,Gerald Henderson,,,22:37,0.0,0.0,0.0,2.0,3.0,6.0,3.0,14.0,0.0,1.0,0.0,1.0
0021500893,1610612757,POR,Portland,202334,Ed Davis,,,23:59,127.6,78.4,49.2,0.059,0.5,12.0,0.118,0.241,0.196,24.0,1.0,0.846,0.145,95.87,0.137,2016-03-01T00:00:00,3,POR,Portland,33-28,27,31,27,19,0,0,0,0,0,0,0,0,0,0,104,0.42,0.9,0.4,17,55,7,0021500893,1610612757,POR,Portland,Ed Davis,,,23:59,0.0,4.0,0.0,8.0,3.0,6.0,3.0,14.0,2.0,0.0,3.0,6.0
0021500893,1610612757,POR,Portland,203090,Maurice Harkless,,,12:57,109.5,99.7,9.8,0.2,0.0,40.0,0.0,0.0,0.0,0.0,0.833,0.833,0.096,102.67,0.115,2016-03-01T00:00:00,3,POR,Portland,33-28,27,31,27,19,0,0,0,0,0,0,0,0,0,0,104,0.42,0.9,0.4,17,55,7,0021500893,1610612757,POR,Portland,Maurice Harkless,,,12:57,2.0,0.0,2.0,2.0,7.0,2.0,3.0,6.0,0.0,0.0,0.0,0.0
0021500893,1610612757,POR,Portland,203148,Brian Roberts,,,2:31,57.1,64.5,-7.4,0.0,0.0,0.0,0.0,0.0,0.0,0.0,1.0,1.0,0.125,125.88,0.667,2016-03-01T00:00:00,3,POR,Portland,33-28,27,31,27,19,0,0,0,0,0,0,0,0,0,0,104,0.42,0.9,0.4,17,55,7,0021500893,1610612757,POR,Portland,Brian Roberts,,,2:31,0.0,0.0,0.0,0.0,4.0,0.0,0.0,0.0,0.0,0.0,1.0,0.0
0021500893,1610612757,POR,Portland,1626192,Pat Connaughton,,,2:31,57.1,64.5,-7.4,0.0,0.0,0.0,0.0,0.5,0.286,0.0,0.0,0.0,0.125,125.88,0.667,2016-03-01T00:00:00,3,POR,Portland,33-28,27,31,27,19,0,0,0,0,0,0,0,0,0,0,104,0.42,0.9,0.4,17,55,7,0021500893,1610612757,POR,Portland,Pat Connaughton,,,2:31,0.0,0.0,0.0,0.0,4.0,0.0,0.0,0.0,0.0,0.0,0.0,0.0
0021500893,1610612757,POR,Portland,2549,Chris Kaman,,DNP - Coach's Decision                  ,,,,,,,0.0,,,,,,,0.0,,,2016-03-01T00:00:00,3,POR,Portland,33-28,27,31,27,19,0,0,0,0,0,0,0,0,0,0,104,0.42,0.9,0.4,17,55,7,0021500893,1610612757,POR,Portland,Chris Kaman,,DNP - Coach's Decision                  ,,,,,,,,,,,,,
0021500893,1610612752,NYK,New York,2546,Carmelo Anthony,F,,34:27,98.6,110.6,-12.0,0.222,4.0,15.2,0.056,0.235,0.143,3.8,0.5,0.539,0.298,96.53,0.2,2016-03-01T00:00:00,3,NYK,New York,25-37,25,25,22,13,0,0,0,0,0,0,0,0,0,0,85,0.375,0.722,0.286,11,46,8,0021500893,1610612752,NYK,New York,Carmelo Anthony,F,,34:27,2.0,4.0,0.0,12.0,4.0,8.0,9.0,24.0,1.0,2.0,2.0,4.0
0021500893,1610612752,NYK,New York,204001,Kristaps Porzingis,F,,24:48,100.7,112.9,-12.1,0.059,1.0,7.5,0.0,0.28,0.146,7.5,0.45,0.486,0.234,98.63,0.096,2016-03-01T00:00:00,3,NYK,New York,25-37,25,25,22,13,0,0,0,0,0,0,0,0,0,0,85,0.375,0.722,0.286,11,46,8,0021500893,1610612752,NYK,New York,Kristaps Porzingis,F,,24:48,3.0,0.0,0.0,2.0,4.0,8.0,9.0,18.0,3.0,1.0,5.0,3.0
0021500893,1610612752,NYK,New York,201577,Robin Lopez,C,,19:19,114.1,124.8,-10.7,0.063,1.0,14.3,0.133,0.0,0.057,14.3,0.8,0.8,0.136,100.99,0.06,2016-03-01T00:00:00,3,NYK,New York,25-37,25,25,22,13,0,0,0,0,0,0,0,0,0,0,85,0.375,0.722,0.286,11,46,8,0021500893,1610612752,NYK,New York,Robin Lopez,C,,19:19,0.0,4.0,0.0,8.0,4.0,8.0,7.0,20.0,0.0,0.0,3.0,0.0
0021500893,1610612752,NYK,New York,201167,Arron Afflalo,G,,36:05,93.8,99.4,-5.5,0.045,0.0,10.0,0.029,0.128,0.081,0.0,0.722,0.722,0.119,97.03,0.138,2016-03-01T00:00:00,3,NYK,New York,25-37,25,25,22,13,0,0,0,0,0,0,0,0,0,0,85,0.375,0.722,0.286,11,46,8,0021500893,1610612752,NYK,New York,Arron Afflalo,G,,36:05,5.0,0.0,3.0,8.0,6.0,8.0,11.0,20.0,0.0,0.0,0.0,1.0
0021500893,1610612752,NYK,New York,101181,Jose Calderon,G,,25:22,103.4,116.1,-12.6,0.095,0.67,15.4,0.0,0.077,0.043,23.1,0.313,0.313,0.199,97.49,-0.021,2016-03-01T00:00:00,3,NYK,New York,25-37,25,25,22,13,0,0,0,0,0,0,0,0,0,0,85,0.375,0.722,0.286,11,46,8,0021500893,1610612752,NYK,New York,Jose Calderon,G,,25:22,0.0,0.0,0.0,0.0,6.0,8.0,11.0,22.0,0.0,0.0,2.0,1.0
0021500893,1610612752,NYK,New York,202682,Derrick Williams,,,17:15,62.1,109.8,-47.7,0.2,0.0,10.7,0.08,0.214,0.128,0.0,0.286,0.3,0.211,98.67,0.082,2016-03-01T00:00:00,3,NYK,New York,25-37,25,25,22,13,0,0,0,0,0,0,0,0,0,0,85,0.375,0.722,0.286,11,46,8,0021500893,1610612752,NYK,New York,Derrick Williams,,,17:15,0.0,2.0,0.0,4.0,2.0,2.0,2.0,16.0,0.0,2.0,0.0,2.0
0021500893,1610612752,NYK,New York,204038,Langston Galloway,,,20:50,73.2,101.4,-28.2,0.0,0.0,0.0,0.0,0.105,0.042,0.0,0.0,0.0,0.156,96.03,-0.127,2016-03-01T00:00:00,3,NYK,New York,25-37,25,25,22,13,0,0,0,0,0,0,0,0,0,0,85,0.375,0.722,0.286,11,46,8,0021500893,1610612752,NYK,New York,Langston Galloway,,,20:50,0.0,0.0,0.0,0.0,0.0,0.0,0.0,14.0,0.0,0.0,3.0,0.0
0021500893,1610612752,NYK,New York,1626170,Jerian Grant,,,7:54,66.3,113.4,-47.0,0.0,0.0,0.0,0.0,0.167,0.053,0.0,0.0,0.0,0.055,94.06,0.054,2016-03-01T00:00:00,3,NYK,New York,25-37,25,25,22,13,0,0,0,0,0,0,0,0,0,0,85,0.375,0.722,0.286,11,46,8,0021500893,1610612752,NYK,New York,Jerian Grant,,,7:54,0.0,0.0,0.0,0.0,0.0,2.0,0.0,8.0,0.0,0.0,0.0,0.0
0021500893,1610612752,NYK,New York,203124,Kyle O'Quinn,,,25:22,73.9,100.1,-26.2,0.111,0.5,6.8,0.029,0.348,0.158,13.6,0.4,0.468,0.256,93.36,0.113,2016-03-01T00:00:00,3,NYK,New York,25-37,25,25,22,13,0,0,0,0,0,0,0,0,0,0,85,0.375,0.722,0.286,11,46,8,0021500893,1610612752,NYK,New York,Kyle O'Quinn,,,25:22,0.0,0.0,0.0,0.0,2.0,2.0,2.0,14.0,0.0,2.0,2.0,4.0
0021500893,1610612752,NYK,New York,202498,Lance Thomas,,,22:35,73.0,82.3,-9.3,0.0,0.0,0.0,0.0,0.083,0.038,0.0,0.25,0.25,0.213,94.37,-0.018,2016-03-01T00:00:00,3,NYK,New York,25-37,25,25,22,13,0,0,0,0,0,0,0,0,0,0,85,0.375,0.722,0.286,11,46,8,0021500893,1610612752,NYK,New York,Lance Thomas,,,22:35,0.0,0.0,0.0,0.0,2.0,2.0,4.0,10.0,0.0,0.0,0.0,1.0
0021500893,1610612752,NYK,New York,2756,Sasha Vujacic,,,2:50,100.0,140.0,-40.0,0.0,0.0,0.0,0.0,0.0,0.0,0.0,0.0,0.0,0.167,84.71,-0.071,2016-03-01T00:00:00,3,NYK,New York,25-37,25,25,22,13,0,0,0,0,0,0,0,0,0,0,85,0.375,0.722,0.286,11,46,8,0021500893,1610612752,NYK,New York,Sasha Vujacic,,,2:50,0.0,0.0,0.0,0.0,0.0,0.0,0.0,2.0,0.0,0.0,0.0,0.0
0021500893,1610612752,NYK,New York,202690,Jimmer Fredette,,,3:13,55.6,87.5,-31.9,0.0,0.0,0.0,0.0,0.0,0.0,0.0,0.0,0.909,0.268,113.41,0.667,2016-03-01T00:00:00,3,NYK,New York,25-37,25,25,22,13,0,0,0,0,0,0,0,0,0,0,85,0.375,0.722,0.286,11,46,8,0021500893,1610612752,NYK,New York,Jimmer Fredette,,,3:13,4.0,0.0,0.0,0.0,0.0,2.0,0.0,2.0,0.0,0.0,0.0,2.0
0021500893,1610612752,NYK,New York,202338,Kevin Seraphin,,DNP - Coach's Decision                  ,,,,,,,0.0,,,,,,,0.0,,,2016-03-01T00:00:00,3,NYK,New York,25-37,25,25,22,13,0,0,0,0,0,0,0,0,0,0,85,0.375,0.722,0.286,11,46,8,0021500893,1610612752,NYK,New York,Kevin Seraphin,,DNP - Coach's Decision                  ,,,,,,,,,,,,,
