GAME_ID_x,TEAM_ID_x,TEAM_ABBREVIATION_x,TEAM_CITY_x,PLAYER_ID,PLAYER_NAME_x,START_POSITION_x,COMMENT_x,MIN_x,OFF_RATING,DEF_RATING,NET_RATING,AST_PCT,AST_TOV,AST_RATIO,OREB_PCT,DREB_PCT,REB_PCT,TM_TOV_PCT,EFG_PCT,TS_PCT,USG_PCT,PACE,PIE,GAME_DATE_EST,GAME_SEQUENCE,TEAM_ABBREVIATION_y,TEAM_CITY_NAME,TEAM_WINS_LOSSES,PTS_QTR1,PTS_QTR2,PTS_QTR3,PTS_QTR4,PTS_OT1,PTS_OT2,PTS_OT3,PTS_OT4,PTS_OT5,PTS_OT6,PTS_OT7,PTS_OT8,PTS_OT9,PTS_OT10,PTS,FG_PCT,FT_PCT,FG3_PCT,AST,REB,TOV,GAME_ID_y,TEAM_ID_y,TEAM_ABBREVIATION,TEAM_CITY_y,PLAYER_NAME_y,START_POSITION_y,COMMENT_y,MIN_y,PTS_OFF_TOV,PTS_2ND_CHANCE,PTS_FB,PTS_PAINT,OPP_PTS_OFF_TOV,OPP_PTS_2ND_CHANCE,OPP_PTS_FB,OPP_PTS_PAINT,BLK,BLKA,PF,PFD
0021500897,1610612741,CHI,Chicago,2399,Mike Dunleavy,F,,21:28,89.4,110.0,-20.6,0.067,1.0,9.1,0.083,0.222,0.143,9.1,0.444,0.444,0.192,107.87,0.077,2016-03-02T00:00:00,1,CHI,Chicago,30-30,23,27,17,22,0,0,0,0,0,0,0,0,0,0,89,0.384,0.636,0.316,24,48,7,0021500897,1610612741,CHI,Chicago,Mike Dunleavy,F,,21:28,3.0,2.0,3.0,2.0,10.0,2.0,11.0,14.0,0.0,0.0,1.0,0.0
0021500897,1610612741,CHI,Chicago,203946,Cameron Bairstow,F,,10:08,69.6,96.0,-26.4,0.0,0.0,0.0,0.0,0.222,0.1,0.0,0.8,0.8,0.205,109.71,0.182,2016-03-02T00:00:00,1,CHI,Chicago,30-30,23,27,17,22,0,0,0,0,0,0,0,0,0,0,89,0.384,0.636,0.316,24,48,7,0021500897,1610612741,CHI,Chicago,Cameron Bairstow,F,,10:08,2.0,0.0,0.0,4.0,5.0,0.0,4.0,2.0,0.0,0.0,2.0,0.0
0021500897,1610612741,CHI,Chicago,2200,Pau Gasol,C,,27:45,86.6,113.2,-26.6,0.059,1.0,6.3,0.0,0.208,0.089,6.3,0.385,0.432,0.232,107.17,0.063,2016-03-02T00:00:00,1,CHI,Chicago,30-30,23,27,17,22,0,0,0,0,0,0,0,0,0,0,89,0.384,0.636,0.316,24,48,7,0021500897,1610612741,CHI,Chicago,Pau Gasol,C,,27:45,0.0,0.0,0.0,0.0,10.0,2.0,17.0,22.0,2.0,0.0,2.0,1.0
0021500897,1610612741,CHI,Chicago,202734,E'Twaun Moore,G,,28:07,81.7,112.0,-30.3,0.176,3.0,22.3,0.031,0.08,0.053,7.4,0.444,0.477,0.165,107.11,0.058,2016-03-02T00:00:00,1,CHI,Chicago,30-30,23,27,17,22,0,0,0,0,0,0,0,0,0,0,89,0.384,0.636,0.316,24,48,7,0021500897,1610612741,CHI,Chicago,E'Twaun Moore,G,,28:07,2.0,0.0,0.0,6.0,10.0,1.0,15.0,24.0,0.0,1.0,1.0,1.0
0021500897,1610612741,CHI,Chicago,201565,Derrick Rose,G,,24:51,89.0,116.0,-27.1,0.429,3.0,26.2,0.0,0.182,0.08,8.7,0.5,0.538,0.285,107.55,0.163,2016-03-02T00:00:00,1,CHI,Chicago,30-30,23,27,17,22,0,0,0,0,0,0,0,0,0,0,89,0.384,0.636,0.316,24,48,7,0021500897,1610612741,CHI,Chicago,Derrick Rose,G,,24:51,2.0,0.0,0.0,8.0,10.0,4.0,15.0,20.0,0.0,1.0,0.0,1.0
0021500897,1610612741,CHI,Chicago,1626171,Bobby Portis,,,26:15,84.4,100.3,-15.9,0.313,5.0,28.0,0.0,0.2,0.103,5.6,0.364,0.379,0.224,100.9,0.089,2016-03-02T00:00:00,1,CHI,Chicago,30-30,23,27,17,22,0,0,0,0,0,0,0,0,0,0,89,0.384,0.636,0.316,24,48,7,0021500897,1610612741,CHI,Chicago,Bobby Portis,,,26:15,0.0,0.0,2.0,4.0,4.0,7.0,4.0,26.0,0.0,0.0,3.0,2.0
0021500897,1610612741,CHI,Chicago,201166,Aaron Brooks,,,16:38,75.1,81.4,-6.3,0.25,0.0,16.7,0.0,0.2,0.098,0.0,0.35,0.35,0.273,104.93,0.138,2016-03-02T00:00:00,1,CHI,Chicago,30-30,23,27,17,22,0,0,0,0,0,0,0,0,0,0,89,0.384,0.636,0.316,24,48,7,0021500897,1610612741,CHI,Chicago,Aaron Brooks,,,16:38,0.0,0.0,3.0,4.0,0.0,5.0,2.0,16.0,0.0,1.0,1.0,2.0
0021500897,1610612741,CHI,Chicago,203926,Doug McDermott,,,32:45,84.2,79.1,5.1,0.0,0.0,0.0,0.049,0.05,0.049,0.0,0.367,0.346,0.205,110.51,0.0,2016-03-02T00:00:00,1,CHI,Chicago,30-30,23,27,17,22,0,0,0,0,0,0,0,0,0,0,89,0.384,0.636,0.316,24,48,7,0021500897,1610612741,CHI,Chicago,Doug McDermott,,,32:45,2.0,2.0,0.0,8.0,5.0,8.0,13.0,34.0,0.0,2.0,2.0,3.0
0021500897,1610612741,CHI,Chicago,203200,Justin Holiday,,,27:57,86.6,76.1,10.5,0.19,0.0,26.9,0.0,0.114,0.058,0.0,0.25,0.276,0.164,112.11,0.066,2016-03-02T00:00:00,1,CHI,Chicago,30-30,23,27,17,22,0,0,0,0,0,0,0,0,0,0,89,0.384,0.636,0.316,24,48,7,0021500897,1610612741,CHI,Chicago,Justin Holiday,,,27:57,0.0,0.0,1.0,0.0,4.0,9.0,12.0,30.0,0.0,1.0,2.0,3.0
0021500897,1610612741,CHI,Chicago,203503,Tony Snell,,,19:03,75.0,67.5,7.5,0.077,0.0,25.0,0.0,0.2,0.104,0.0,0.5,0.5,0.067,107.84,0.093,2016-03-02T00:00:00,1,CHI,Chicago,30-30,23,27,17,22,0,0,0,0,0,0,0,0,0,0,89,0.384,0.636,0.316,24,48,7,0021500897,1610612741,CHI,Chicago,Tony Snell,,,19:03,0.0,0.0,3.0,0.0,2.0,7.0,2.0,20.0,0.0,0.0,3.0,1.0
0021500897,1610612741,CHI,Chicago,1626245,Cristiano Felicio,,,5:03,76.9,18.2,58.7,0.2,1.0,50.0,0.0,0.714,0.385,50.0,0.0,0.0,0.077,114.06,0.345,2016-03-02T00:00:00,1,CHI,Chicago,30-30,23,27,17,22,0,0,0,0,0,0,0,0,0,0,89,0.384,0.636,0.316,24,48,7,0021500897,1610612741,CHI,Chicago,Cristiano Felicio,,,5:03,0.0,0.0,0.0,0.0,0.0,0.0,0.0,2.0,0.0,0.0,0.0,0.0
0021500897,1610612741,CHI,Chicago,202710,Jimmy Butler,,NWT - Left Knee Strain                  ,,,,,,,0.0,,,,,,,0.0,,,2016-03-02T00:00:00,1,CHI,Chicago,30-30,23,27,17,22,0,0,0,0,0,0,0,0,0,0,89,0.384,0.636,0.316,24,48,7,0021500897,1610612741,CHI,Chicago,Jimmy Butler,,NWT - Left Knee Strain                  ,,,,,,,,,,,,,
0021500897,1610612741,CHI,Chicago,201959,Taj Gibson,,DND - Right Hamstring                   ,,,,,,,0.0,,,,,,,0.0,,,2016-03-02T00:00:00,1,CHI,Chicago,30-30,23,27,17,22,0,0,0,0,0,0,0,0,0,0,89,0.384,0.636,0.316,24,48,7,0021500897,1610612741,CHI,Chicago,Taj Gibson,,DND - Right Hamstring                   ,,,,,,,,,,,,,
0021500897,1610612753,ORL,Orlando,1626209,Mario Hezonja,F,,37:09,106.5,83.2,23.4,0.077,0.0,10.5,0.0,0.116,0.063,0.0,0.618,0.618,0.186,109.38,0.125,2016-03-02T00:00:00,1,ORL,Orlando,27-33,33,27,24,18,0,0,0,0,0,0,0,0,0,0,102,0.402,0.773,0.333,25,59,10,0021500897,1610612753,ORL,Orlando,Mario Hezonja,F,,37:09,2.0,0.0,2.0,8.0,9.0,4.0,9.0,30.0,1.0,0.0,2.0,1.0
0021500897,1610612753,ORL,Orlando,203932,Aaron Gordon,F,,33:12,108.7,88.1,20.6,0.103,0.0,22.4,0.063,0.342,0.214,0.0,0.417,0.625,0.128,110.2,0.138,2016-03-02T00:00:00,1,ORL,Orlando,27-33,33,27,24,18,0,0,0,0,0,0,0,0,0,0,102,0.402,0.773,0.333,25,59,10,0021500897,1610612753,ORL,Orlando,Aaron Gordon,F,,33:12,2.0,2.0,4.0,2.0,9.0,4.0,11.0,28.0,0.0,0.0,4.0,6.0
0021500897,1610612753,ORL,Orlando,202696,Nikola Vucevic,C,,32:31,110.2,87.4,22.8,0.2,4.0,13.2,0.065,0.139,0.104,3.3,0.438,0.474,0.335,107.44,0.143,2016-03-02T00:00:00,1,ORL,Orlando,27-33,33,27,24,18,0,0,0,0,0,0,0,0,0,0,102,0.402,0.773,0.333,25,59,10,0021500897,1610612753,ORL,Orlando,Nikola Vucevic,C,,32:31,2.0,2.0,0.0,12.0,9.0,4.0,9.0,26.0,0.0,1.0,0.0,3.0
0021500897,1610612753,ORL,Orlando,203506,Victor Oladipo,G,,35:35,115.5,85.6,29.9,0.036,0.33,5.4,0.032,0.154,0.1,16.1,0.5,0.581,0.208,104.55,0.1,2016-03-02T00:00:00,1,ORL,Orlando,27-33,33,27,24,18,0,0,0,0,0,0,0,0,0,0,102,0.402,0.773,0.333,25,59,10,0021500897,1610612753,ORL,Orlando,Victor Oladipo,G,,35:35,1.0,0.0,7.0,4.0,9.0,4.0,9.0,28.0,1.0,0.0,1.0,2.0
0021500897,1610612753,ORL,Orlando,203901,Elfrid Payton,G,,33:29,113.1,84.9,28.2,0.414,4.0,50.0,0.0,0.105,0.059,12.5,0.5,0.5,0.148,107.69,0.109,2016-03-02T00:00:00,1,ORL,Orlando,27-33,33,27,24,18,0,0,0,0,0,0,0,0,0,0,102,0.402,0.773,0.333,25,59,10,0021500897,1610612753,ORL,Orlando,Elfrid Payton,G,,33:29,5.0,0.0,2.0,6.0,9.0,4.0,6.0,30.0,1.0,1.0,2.0,0.0
0021500897,1610612753,ORL,Orlando,101141,Ersan Ilyasova,,,12:03,72.2,70.3,1.9,0.0,0.0,0.0,0.071,0.429,0.25,0.0,0.438,0.429,0.318,97.75,0.3,2016-03-02T00:00:00,1,ORL,Orlando,27-33,33,27,24,18,0,0,0,0,0,0,0,0,0,0,102,0.402,0.773,0.333,25,59,10,0021500897,1610612753,ORL,Orlando,Ersan Ilyasova,,,12:03,0.0,5.0,0.0,4.0,0.0,0.0,1.0,6.0,0.0,0.0,1.0,4.0
0021500897,1610612753,ORL,Orlando,201160,Jason Smith,,,12:44,71.9,74.7,-2.8,0.0,0.0,0.0,0.133,0.313,0.226,12.5,0.571,0.571,0.248,105.47,0.35,2016-03-02T00:00:00,1,ORL,Orlando,27-33,33,27,24,18,0,0,0,0,0,0,0,0,0,0,102,0.402,0.773,0.333,25,59,10,0021500897,1610612753,ORL,Orlando,Jason Smith,,,12:44,0.0,0.0,4.0,6.0,0.0,0.0,3.0,8.0,1.0,0.0,0.0,1.0
0021500897,1610612753,ORL,Orlando,201228,C.J. Watson,,,17:15,45.4,80.7,-35.3,0.0,0.0,0.0,0.0,0.048,0.022,0.0,0.0,0.0,0.141,110.3,-0.153,2016-03-02T00:00:00,1,ORL,Orlando,27-33,33,27,24,18,0,0,0,0,0,0,0,0,0,0,102,0.402,0.773,0.333,25,59,10,0021500897,1610612753,ORL,Orlando,C.J. Watson,,,17:15,0.0,0.0,0.0,0.0,2.0,0.0,6.0,12.0,1.0,0.0,1.0,0.0
0021500897,1610612753,ORL,Orlando,201943,Brandon Jennings,,,11:46,60.1,81.2,-21.1,0.6,0.0,37.5,0.0,0.143,0.067,0.0,0.2,0.2,0.169,104.59,0.053,2016-03-02T00:00:00,1,ORL,Orlando,27-33,33,27,24,18,0,0,0,0,0,0,0,0,0,0,102,0.402,0.773,0.333,25,59,10,0021500897,1610612753,ORL,Orlando,Brandon Jennings,,,11:46,0.0,0.0,0.0,0.0,0.0,0.0,6.0,4.0,0.0,0.0,2.0,0.0
0021500897,1610612753,ORL,Orlando,203906,Devyn Marble,,,6:01,29.8,78.6,-48.8,0.0,0.0,0.0,0.0,0.0,0.0,50.0,0.0,0.0,0.139,109.46,-0.214,2016-03-02T00:00:00,1,ORL,Orlando,27-33,33,27,24,18,0,0,0,0,0,0,0,0,0,0,102,0.402,0.773,0.333,25,59,10,0021500897,1610612753,ORL,Orlando,Devyn Marble,,,6:01,0.0,0.0,0.0,0.0,2.0,0.0,0.0,2.0,0.0,0.0,1.0,0.0
0021500897,1610612753,ORL,Orlando,203473,Dewayne Dedmon,,,2:45,0.0,75.0,-75.0,0.0,0.0,0.0,0.0,0.25,0.111,0.0,0.0,0.0,0.0,122.18,0.176,2016-03-02T00:00:00,1,ORL,Orlando,27-33,33,27,24,18,0,0,0,0,0,0,0,0,0,0,102,0.402,0.773,0.333,25,59,10,0021500897,1610612753,ORL,Orlando,Dewayne Dedmon,,,2:45,0.0,0.0,0.0,0.0,2.0,0.0,0.0,2.0,1.0,0.0,0.0,0.0
0021500897,1610612753,ORL,Orlando,203894,Shabazz Napier,,,2:45,0.0,75.0,-75.0,0.0,0.0,0.0,0.0,0.25,0.111,50.0,0.0,0.0,0.333,122.18,-0.118,2016-03-02T00:00:00,1,ORL,Orlando,27-33,33,27,24,18,0,0,0,0,0,0,0,0,0,0,102,0.402,0.773,0.333,25,59,10,0021500897,1610612753,ORL,Orlando,Shabazz Napier,,,2:45,0.0,0.0,0.0,0.0,2.0,0.0,0.0,2.0,0.0,0.0,0.0,0.0
0021500897,1610612753,ORL,Orlando,203094,Andrew Nicholson,,,2:45,0.0,75.0,-75.0,0.0,0.0,0.0,0.0,0.5,0.222,0.0,0.0,0.0,0.167,122.18,0.118,2016-03-02T00:00:00,1,ORL,Orlando,27-33,33,27,24,18,0,0,0,0,0,0,0,0,0,0,102,0.402,0.773,0.333,25,59,10,0021500897,1610612753,ORL,Orlando,Andrew Nicholson,,,2:45,0.0,0.0,0.0,0.0,2.0,0.0,0.0,2.0,0.0,0.0,0.0,0.0
