GAME_ID_x,TEAM_ID_x,TEAM_ABBREVIATION_x,TEAM_CITY_x,PLAYER_ID,PLAYER_NAME_x,START_POSITION_x,COMMENT_x,MIN_x,OFF_RATING,DEF_RATING,NET_RATING,AST_PCT,AST_TOV,AST_RATIO,OREB_PCT,DREB_PCT,REB_PCT,TM_TOV_PCT,EFG_PCT,TS_PCT,USG_PCT,PACE,PIE,GAME_DATE_EST,GAME_SEQUENCE,TEAM_ABBREVIATION_y,TEAM_CITY_NAME,TEAM_WINS_LOSSES,PTS_QTR1,PTS_QTR2,PTS_QTR3,PTS_QTR4,PTS_OT1,PTS_OT2,PTS_OT3,PTS_OT4,PTS_OT5,PTS_OT6,PTS_OT7,PTS_OT8,PTS_OT9,PTS_OT10,PTS,FG_PCT,FT_PCT,FG3_PCT,AST,REB,TOV,GAME_ID_y,TEAM_ID_y,TEAM_ABBREVIATION,TEAM_CITY_y,PLAYER_NAME_y,START_POSITION_y,COMMENT_y,MIN_y,PTS_OFF_TOV,PTS_2ND_CHANCE,PTS_FB,PTS_PAINT,OPP_PTS_OFF_TOV,OPP_PTS_2ND_CHANCE,OPP_PTS_FB,OPP_PTS_PAINT,BLK,BLKA,PF,PFD
0021500906,1610612747,LAL,Los Angeles,977,Kobe Bryant,F,,10:50,124.8,114.8,9.9,0.111,0.0,23.1,0.1,0.167,0.125,0.0,0.75,0.753,0.135,98.1,0.103,2016-03-02T00:00:00,10,LAL,Los Angeles,12-50,29,31,22,25,0,0,0,0,0,0,0,0,0,0,107,0.443,0.813,0.355,19,31,6,0021500906,1610612747,LAL,Los Angeles,Kobe Bryant,F,,10:50,0.0,0.0,0.0,0.0,7.0,4.0,5.0,6.0,0.0,0.0,1.0,1.0
0021500906,1610612747,LAL,Los Angeles,203944,Julius Randle,F,,31:10,110.9,144.6,-33.6,0.059,0.0,6.4,0.037,0.353,0.159,0.0,0.455,0.585,0.214,98.29,0.114,2016-03-02T00:00:00,10,LAL,Los Angeles,12-50,29,31,22,25,0,0,0,0,0,0,0,0,0,0,107,0.443,0.813,0.355,19,31,6,0021500906,1610612747,LAL,Los Angeles,Julius Randle,F,,31:10,0.0,0.0,0.0,10.0,11.0,10.0,23.0,30.0,0.0,1.0,2.0,4.0
0021500906,1610612747,LAL,Los Angeles,201579,Roy Hibbert,C,,17:44,91.9,134.1,-42.1,0.0,0.0,0.0,0.053,0.083,0.065,12.7,0.5,0.581,0.215,97.14,0.03,2016-03-02T00:00:00,10,LAL,Los Angeles,12-50,29,31,22,25,0,0,0,0,0,0,0,0,0,0,107,0.443,0.813,0.355,19,31,6,0021500906,1610612747,LAL,Los Angeles,Roy Hibbert,C,,17:44,2.0,0.0,0.0,2.0,7.0,6.0,12.0,20.0,1.0,0.0,4.0,3.0
0021500906,1610612747,LAL,Los Angeles,203903,Jordan Clarkson,G,,22:30,117.2,122.1,-4.9,0.0,0.0,0.0,0.091,0.067,0.081,6.7,0.423,0.468,0.301,95.36,0.058,2016-03-02T00:00:00,10,LAL,Los Angeles,12-50,29,31,22,25,0,0,0,0,0,0,0,0,0,0,107,0.443,0.813,0.355,19,31,6,0021500906,1610612747,LAL,Los Angeles,Jordan Clarkson,G,,22:30,2.0,2.0,2.0,2.0,7.0,6.0,11.0,20.0,0.0,2.0,1.0,1.0
0021500906,1610612747,LAL,Los Angeles,1626156,D'Angelo Russell,G,,35:59,107.3,127.1,-19.8,0.333,6.0,19.9,0.0,0.043,0.018,3.3,0.5,0.517,0.316,97.81,0.102,2016-03-02T00:00:00,10,LAL,Los Angeles,12-50,29,31,22,25,0,0,0,0,0,0,0,0,0,0,107,0.443,0.813,0.355,19,31,6,0021500906,1610612747,LAL,Los Angeles,D'Angelo Russell,G,,35:59,1.0,0.0,2.0,6.0,9.0,12.0,21.0,34.0,1.0,2.0,3.0,3.0
0021500906,1610612747,LAL,Los Angeles,101138,Brandon Bass,,,28:54,116.0,105.4,10.6,0.05,1.0,8.9,0.0,0.05,0.024,8.9,0.571,0.598,0.163,98.21,0.052,2016-03-02T00:00:00,10,LAL,Los Angeles,12-50,29,31,22,25,0,0,0,0,0,0,0,0,0,0,107,0.443,0.813,0.355,19,31,6,0021500906,1610612747,LAL,Los Angeles,Brandon Bass,,,28:54,2.0,0.0,3.0,8.0,6.0,11.0,15.0,16.0,1.0,1.0,4.0,4.0
0021500906,1610612747,LAL,Los Angeles,1626273,Marcelo Huertas,,,30:42,115.5,110.3,5.1,0.381,8.0,57.6,0.0,0.048,0.022,7.2,0.875,0.922,0.09,98.35,0.104,2016-03-02T00:00:00,10,LAL,Los Angeles,12-50,29,31,22,25,0,0,0,0,0,0,0,0,0,0,107,0.443,0.813,0.355,19,31,6,0021500906,1610612747,LAL,Los Angeles,Marcelo Huertas,,,30:42,0.0,0.0,0.0,2.0,6.0,11.0,17.0,18.0,0.0,0.0,5.0,2.0
0021500906,1610612747,LAL,Los Angeles,204028,Tarik Black,,,18:12,123.0,78.5,44.5,0.077,0.0,17.0,0.071,0.4,0.241,0.0,0.5,0.615,0.132,94.84,0.191,2016-03-02T00:00:00,10,LAL,Los Angeles,12-50,29,31,22,25,0,0,0,0,0,0,0,0,0,0,107,0.443,0.813,0.355,19,31,6,0021500906,1610612747,LAL,Los Angeles,Tarik Black,,,18:12,0.0,0.0,0.0,4.0,2.0,7.0,4.0,10.0,1.0,0.0,2.0,1.0
0021500906,1610612747,LAL,Los Angeles,1626148,Anthony Brown,,,31:16,108.5,127.3,-18.8,0.053,1.0,12.5,0.0,0.182,0.08,12.5,0.5,0.5,0.107,98.16,0.04,2016-03-02T00:00:00,10,LAL,Los Angeles,12-50,29,31,22,25,0,0,0,0,0,0,0,0,0,0,107,0.443,0.813,0.355,19,31,6,0021500906,1610612747,LAL,Los Angeles,Anthony Brown,,,31:16,0.0,0.0,0.0,0.0,6.0,13.0,22.0,32.0,0.0,0.0,2.0,0.0
0021500906,1610612747,LAL,Los Angeles,201156,Nick Young,,,12:43,97.9,88.9,9.0,0.0,0.0,0.0,0.0,0.333,0.188,0.0,0.5,0.633,0.258,95.12,0.197,2016-03-02T00:00:00,10,LAL,Los Angeles,12-50,29,31,22,25,0,0,0,0,0,0,0,0,0,0,107,0.443,0.813,0.355,19,31,6,0021500906,1610612747,LAL,Los Angeles,Nick Young,,,12:43,2.0,0.0,3.0,0.0,4.0,5.0,5.0,4.0,0.0,0.0,1.0,1.0
0021500906,1610612747,LAL,Los Angeles,203527,Ryan Kelly,,DNP - Coach's Decision                  ,,,,,,,0.0,,,,,,,0.0,,,2016-03-02T00:00:00,10,LAL,Los Angeles,12-50,29,31,22,25,0,0,0,0,0,0,0,0,0,0,107,0.443,0.813,0.355,19,31,6,0021500906,1610612747,LAL,Los Angeles,Ryan Kelly,,DNP - Coach's Decision                  ,,,,,,,,,,,,,
0021500906,1610612747,LAL,Los Angeles,203135,Robert Sacre,,DNP - Coach's Decision                  ,,,,,,,0.0,,,,,,,0.0,,,2016-03-02T00:00:00,10,LAL,Los Angeles,12-50,29,31,22,25,0,0,0,0,0,0,0,0,0,0,107,0.443,0.813,0.355,19,31,6,0021500906,1610612747,LAL,Los Angeles,Robert Sacre,,DNP - Coach's Decision                  ,,,,,,,,,,,,,
0021500906,1610612747,LAL,Los Angeles,1897,Metta World Peace,,DNP - Coach's Decision                  ,,,,,,,0.0,,,,,,,0.0,,,2016-03-02T00:00:00,10,LAL,Los Angeles,12-50,29,31,22,25,0,0,0,0,0,0,0,0,0,0,107,0.443,0.813,0.355,19,31,6,0021500906,1610612747,LAL,Los Angeles,Metta World Peace,,DNP - Coach's Decision                  ,,,,,,,,,,,,,
0021500906,1610612743,DEN,Denver,203960,JaKarr Sampson,F,,22:56,147.9,100.6,47.3,0.0,0.0,0.0,0.0,0.211,0.118,0.0,0.75,0.798,0.079,91.37,0.073,2016-03-02T00:00:00,10,DEN,Denver,24-37,27,30,26,34,0,0,0,0,0,0,0,0,0,0,117,0.487,0.763,0.522,22,42,11,0021500906,1610612743,DEN,Denver,JaKarr Sampson,F,,22:56,0.0,0.0,3.0,0.0,1.0,0.0,0.0,14.0,0.0,0.0,1.0,3.0
0021500906,1610612743,DEN,Denver,202702,Kenneth Faried,F,,17:57,134.1,123.8,10.2,0.077,0.0,14.5,0.0,0.176,0.12,0.0,0.8,0.85,0.151,97.28,0.113,2016-03-02T00:00:00,10,DEN,Denver,24-37,27,30,26,34,0,0,0,0,0,0,0,0,0,0,117,0.487,0.763,0.522,22,42,11,0021500906,1610612743,DEN,Denver,Kenneth Faried,F,,17:57,0.0,0.0,6.0,8.0,3.0,2.0,0.0,10.0,0.0,0.0,4.0,1.0
0021500906,1610612743,DEN,Denver,203999,Nikola Jokic,C,,28:23,135.1,105.6,29.5,0.143,3.0,19.3,0.056,0.217,0.146,6.4,0.438,0.608,0.205,96.23,0.1,2016-03-02T00:00:00,10,DEN,Denver,24-37,27,30,26,34,0,0,0,0,0,0,0,0,0,0,117,0.487,0.763,0.522,22,42,11,0021500906,1610612743,DEN,Denver,Nikola Jokic,C,,28:23,2.0,4.0,0.0,2.0,3.0,2.0,2.0,20.0,2.0,1.0,5.0,5.0
0021500906,1610612743,DEN,Denver,203914,Gary Harris,G,,40:12,113.4,113.5,0.0,0.08,0.67,11.2,0.074,0.029,0.048,16.8,0.583,0.621,0.174,98.94,0.067,2016-03-02T00:00:00,10,DEN,Denver,24-37,27,30,26,34,0,0,0,0,0,0,0,0,0,0,117,0.487,0.763,0.522,22,42,11,0021500906,1610612743,DEN,Denver,Gary Harris,G,,40:12,2.0,0.0,2.0,4.0,9.0,2.0,10.0,28.0,0.0,0.0,2.0,1.0
0021500906,1610612743,DEN,Denver,1626144,Emmanuel Mudiay,G,,33:37,139.3,105.7,33.6,0.333,3.5,23.4,0.091,0.071,0.08,6.7,0.55,0.527,0.302,98.35,0.116,2016-03-02T00:00:00,10,DEN,Denver,24-37,27,30,26,34,0,0,0,0,0,0,0,0,0,0,117,0.487,0.763,0.522,22,42,11,0021500906,1610612743,DEN,Denver,Emmanuel Mudiay,G,,33:37,7.0,6.0,4.0,12.0,3.0,2.0,2.0,22.0,1.0,1.0,2.0,1.0
0021500906,1610612743,DEN,Denver,201589,Darrell Arthur,,,24:05,100.6,103.7,-3.1,0.0,0.0,0.0,0.048,0.105,0.075,0.0,0.5,0.5,0.093,93.67,0.046,2016-03-02T00:00:00,10,DEN,Denver,24-37,27,30,26,34,0,0,0,0,0,0,0,0,0,0,117,0.487,0.763,0.522,22,42,11,0021500906,1610612743,DEN,Denver,Darrell Arthur,,,24:05,0.0,2.0,2.0,2.0,6.0,0.0,8.0,14.0,2.0,1.0,3.0,0.0
0021500906,1610612743,DEN,Denver,203115,Will Barton,,,24:03,84.9,125.1,-40.2,0.273,0.75,15.8,0.0,0.318,0.179,21.1,0.375,0.46,0.316,96.44,0.096,2016-03-02T00:00:00,10,DEN,Denver,24-37,27,30,26,34,0,0,0,0,0,0,0,0,0,0,117,0.487,0.763,0.522,22,42,11,0021500906,1610612743,DEN,Denver,Will Barton,,,24:03,0.0,0.0,0.0,0.0,8.0,2.0,8.0,16.0,1.0,1.0,0.0,5.0
0021500906,1610612743,DEN,Denver,201571,D.J. Augustin,,,23:12,106.3,112.4,-6.1,0.5,0.0,25.1,0.0,0.105,0.059,0.0,0.773,0.869,0.288,100.3,0.349,2016-03-02T00:00:00,10,DEN,Denver,24-37,27,30,26,34,0,0,0,0,0,0,0,0,0,0,117,0.487,0.763,0.522,22,42,11,0021500906,1610612743,DEN,Denver,D.J. Augustin,,,23:12,2.0,5.0,10.0,6.0,6.0,0.0,10.0,22.0,0.0,0.0,1.0,7.0
0021500906,1610612743,DEN,Denver,203530,Joffrey Lauvergne,,,25:35,106.1,115.9,-9.8,0.063,1.0,10.1,0.059,0.391,0.25,10.1,0.429,0.444,0.154,102.29,0.102,2016-03-02T00:00:00,10,DEN,Denver,24-37,27,30,26,34,0,0,0,0,0,0,0,0,0,0,117,0.487,0.763,0.522,22,42,11,0021500906,1610612743,DEN,Denver,Joffrey Lauvergne,,,25:35,0.0,0.0,0.0,4.0,6.0,0.0,10.0,24.0,0.0,0.0,2.0,2.0
0021500906,1610612743,DEN,Denver,2034,Mike Miller,,DNP - Coach's Decision                  ,,,,,,,0.0,,,,,,,0.0,,,2016-03-02T00:00:00,10,DEN,Denver,24-37,27,30,26,34,0,0,0,0,0,0,0,0,0,0,117,0.487,0.763,0.522,22,42,11,0021500906,1610612743,DEN,Denver,Mike Miller,,DNP - Coach's Decision                  ,,,,,,,,,,,,,
0021500906,1610612743,DEN,Denver,2749,Jameer Nelson,,DNP - Coach's Decision                  ,,,,,,,0.0,,,,,,,0.0,,,2016-03-02T00:00:00,10,DEN,Denver,24-37,27,30,26,34,0,0,0,0,0,0,0,0,0,0,117,0.487,0.763,0.522,22,42,11,0021500906,1610612743,DEN,Denver,Jameer Nelson,,DNP - Coach's Decision                  ,,,,,,,,,,,,,
0021500906,1610612743,DEN,Denver,203994,Jusuf Nurkic,,DNP - Coach's Decision                  ,,,,,,,0.0,,,,,,,0.0,,,2016-03-02T00:00:00,10,DEN,Denver,24-37,27,30,26,34,0,0,0,0,0,0,0,0,0,0,117,0.487,0.763,0.522,22,42,11,0021500906,1610612743,DEN,Denver,Jusuf Nurkic,,DNP - Coach's Decision                  ,,,,,,,,,,,,,
