GAME_ID_x,TEAM_ID_x,TEAM_ABBREVIATION_x,TEAM_CITY_x,PLAYER_ID,PLAYER_NAME_x,START_POSITION_x,COMMENT_x,MIN_x,OFF_RATING,DEF_RATING,NET_RATING,AST_PCT,AST_TOV,AST_RATIO,OREB_PCT,DREB_PCT,REB_PCT,TM_TOV_PCT,EFG_PCT,TS_PCT,USG_PCT,PACE,PIE,GAME_DATE_EST,GAME_SEQUENCE,TEAM_ABBREVIATION_y,TEAM_CITY_NAME,TEAM_WINS_LOSSES,PTS_QTR1,PTS_QTR2,PTS_QTR3,PTS_QTR4,PTS_OT1,PTS_OT2,PTS_OT3,PTS_OT4,PTS_OT5,PTS_OT6,PTS_OT7,PTS_OT8,PTS_OT9,PTS_OT10,PTS,FG_PCT,FT_PCT,FG3_PCT,AST,REB,TOV,GAME_ID_y,TEAM_ID_y,TEAM_ABBREVIATION,TEAM_CITY_y,PLAYER_NAME_y,START_POSITION_y,COMMENT_y,MIN_y,PTS_OFF_TOV,PTS_2ND_CHANCE,PTS_FB,PTS_PAINT,OPP_PTS_OFF_TOV,OPP_PTS_2ND_CHANCE,OPP_PTS_FB,OPP_PTS_PAINT,BLK,BLKA,PF,PFD
0021500898,1610612766,CHA,Charlotte,201587,Nicolas Batum,F,,36:36,111.8,98.7,13.2,0.292,3.5,30.4,0.0,0.114,0.061,8.7,0.429,0.429,0.197,100.43,0.088,2016-03-02T00:00:00,2,CHA,Charlotte,32-28,32,26,25,36,0,0,0,0,0,0,0,0,0,0,119,0.494,0.829,0.4,20,50,12,0021500898,1610612766,CHA,Charlotte,Nicolas Batum,F,,36:36,0.0,0.0,0.0,0.0,8.0,6.0,17.0,24.0,0.0,0.0,1.0,0.0
0021500898,1610612766,CHA,Charlotte,101107,Marvin Williams,F,,29:50,120.9,98.7,22.3,0.0,0.0,0.0,0.111,0.207,0.161,8.3,0.636,0.636,0.177,101.78,0.124,2016-03-02T00:00:00,2,CHA,Charlotte,32-28,32,26,25,36,0,0,0,0,0,0,0,0,0,0,119,0.494,0.829,0.4,20,50,12,0021500898,1610612766,CHA,Charlotte,Marvin Williams,F,,29:50,2.0,2.0,0.0,8.0,8.0,6.0,14.0,18.0,2.0,1.0,1.0,2.0
0021500898,1610612766,CHA,Charlotte,203469,Cody Zeller,C,,27:43,113.1,97.9,15.1,0.1,2.0,14.9,0.08,0.148,0.115,7.5,0.5,0.721,0.18,103.7,0.135,2016-03-02T00:00:00,2,CHA,Charlotte,32-28,32,26,25,36,0,0,0,0,0,0,0,0,0,0,119,0.494,0.829,0.4,20,50,12,0021500898,1610612766,CHA,Charlotte,Cody Zeller,C,,27:43,2.0,4.0,0.0,4.0,6.0,6.0,15.0,20.0,4.0,0.0,3.0,6.0
0021500898,1610612766,CHA,Charlotte,201584,Courtney Lee,G,,28:30,116.8,97.3,19.5,0.136,1.5,25.5,0.0,0.12,0.058,17.0,0.5,0.666,0.133,101.39,0.06,2016-03-02T00:00:00,2,CHA,Charlotte,32-28,32,26,25,36,0,0,0,0,0,0,0,0,0,0,119,0.494,0.829,0.4,20,50,12,0021500898,1610612766,CHA,Charlotte,Courtney Lee,G,,28:30,0.0,0.0,2.0,2.0,8.0,6.0,14.0,20.0,0.0,1.0,4.0,2.0
0021500898,1610612766,CHA,Charlotte,202689,Kemba Walker,G,,37:33,115.5,95.3,20.2,0.1,2.0,6.8,0.0,0.179,0.099,3.4,0.524,0.571,0.326,101.19,0.167,2016-03-02T00:00:00,2,CHA,Charlotte,32-28,32,26,25,36,0,0,0,0,0,0,0,0,0,0,119,0.494,0.829,0.4,20,50,12,0021500898,1610612766,CHA,Charlotte,Kemba Walker,G,,37:33,9.0,0.0,7.0,12.0,10.0,7.0,14.0,20.0,0.0,3.0,1.0,7.0
0021500898,1610612766,CHA,Charlotte,2744,Al Jefferson,,,18:59,117.3,92.8,24.5,0.077,1.0,13.7,0.0,0.3,0.182,13.7,0.5,0.564,0.151,99.42,0.124,2016-03-02T00:00:00,2,CHA,Charlotte,32-28,32,26,25,36,0,0,0,0,0,0,0,0,0,0,119,0.494,0.829,0.4,20,50,12,0021500898,1610612766,CHA,Charlotte,Al Jefferson,,,18:59,0.0,0.0,0.0,4.0,4.0,1.0,2.0,6.0,1.0,0.0,3.0,3.0
0021500898,1610612766,CHA,Charlotte,202391,Jeremy Lin,,,19:47,124.0,83.6,40.5,0.154,0.67,14.7,0.071,0.13,0.108,22.0,0.667,0.81,0.253,104.57,0.154,2016-03-02T00:00:00,2,CHA,Charlotte,32-28,32,26,25,36,0,0,0,0,0,0,0,0,0,0,119,0.494,0.829,0.4,20,50,12,0021500898,1610612766,CHA,Charlotte,Jeremy Lin,,,19:47,4.0,0.0,0.0,4.0,2.0,1.0,3.0,8.0,0.0,0.0,4.0,4.0
0021500898,1610612766,CHA,Charlotte,203087,Jeremy Lamb,,,16:19,115.2,87.9,27.3,0.0,0.0,0.0,0.0,0.105,0.069,14.3,0.5,0.5,0.191,104.61,0.073,2016-03-02T00:00:00,2,CHA,Charlotte,32-28,32,26,25,36,0,0,0,0,0,0,0,0,0,0,119,0.494,0.829,0.4,20,50,12,0021500898,1610612766,CHA,Charlotte,Jeremy Lamb,,,16:19,2.0,0.0,0.0,2.0,2.0,1.0,3.0,6.0,0.0,0.0,1.0,0.0
0021500898,1610612766,CHA,Charlotte,1626163,Frank Kaminsky,,,17:43,117.6,85.9,31.7,0.273,0.0,37.5,0.083,0.35,0.25,0.0,0.7,0.7,0.126,102.03,0.279,2016-03-02T00:00:00,2,CHA,Charlotte,32-28,32,26,25,36,0,0,0,0,0,0,0,0,0,0,119,0.494,0.829,0.4,20,50,12,0021500898,1610612766,CHA,Charlotte,Frank Kaminsky,,,17:43,0.0,5.0,0.0,4.0,2.0,1.0,3.0,10.0,0.0,0.0,2.0,0.0
0021500898,1610612766,CHA,Charlotte,1626151,Aaron Harrison,,,1:45,200.0,135.1,64.9,0.0,0.0,0.0,1.0,0.0,0.333,0.0,1.5,1.5,0.25,102.03,0.238,2016-03-02T00:00:00,2,CHA,Charlotte,32-28,32,26,25,36,0,0,0,0,0,0,0,0,0,0,119,0.494,0.829,0.4,20,50,12,0021500898,1610612766,CHA,Charlotte,Aaron Harrison,,,1:45,0.0,3.0,0.0,0.0,0.0,0.0,0.0,2.0,0.0,0.0,1.0,0.0
0021500898,1610612766,CHA,Charlotte,203584,Troy Daniels,,,1:45,200.0,135.1,64.9,0.0,0.0,0.0,0.0,0.0,0.0,0.0,0.75,0.75,0.5,102.03,0.19,2016-03-02T00:00:00,2,CHA,Charlotte,32-28,32,26,25,36,0,0,0,0,0,0,0,0,0,0,119,0.494,0.829,0.4,20,50,12,0021500898,1610612766,CHA,Charlotte,Troy Daniels,,,1:45,0.0,0.0,0.0,0.0,0.0,0.0,0.0,2.0,0.0,0.0,0.0,0.0
0021500898,1610612766,CHA,Charlotte,201946,Tyler Hansbrough,,,1:45,200.0,135.1,64.9,0.0,0.0,0.0,0.0,0.0,0.0,0.0,0.0,0.0,0.0,102.03,0.0,2016-03-02T00:00:00,2,CHA,Charlotte,32-28,32,26,25,36,0,0,0,0,0,0,0,0,0,0,119,0.494,0.829,0.4,20,50,12,0021500898,1610612766,CHA,Charlotte,Tyler Hansbrough,,,1:45,0.0,0.0,0.0,0.0,0.0,0.0,0.0,2.0,0.0,0.0,0.0,0.0
0021500898,1610612766,CHA,Charlotte,203268,Jorge Gutierrez,,,1:45,200.0,135.1,64.9,0.0,0.0,0.0,0.0,0.0,0.0,0.0,0.0,0.0,0.0,102.03,0.0,2016-03-02T00:00:00,2,CHA,Charlotte,32-28,32,26,25,36,0,0,0,0,0,0,0,0,0,0,119,0.494,0.829,0.4,20,50,12,0021500898,1610612766,CHA,Charlotte,Jorge Gutierrez,,,1:45,0.0,0.0,0.0,0.0,0.0,0.0,0.0,2.0,0.0,0.0,0.0,0.0
0021500898,1610612755,PHI,Philadelphia,203496,Robert Covington,F,,31:58,95.4,119.5,-24.0,0.176,0.75,14.4,0.069,0.233,0.153,19.2,0.615,0.612,0.244,101.57,0.098,2016-03-02T00:00:00,2,PHI,Philadelphia,8-53,29,21,24,25,0,0,0,0,0,0,0,0,0,0,99,0.4,0.692,0.394,23,38,14,0021500898,1610612755,PHI,Philadelphia,Robert Covington,F,,31:58,2.0,0.0,8.0,4.0,17.0,11.0,9.0,28.0,2.0,2.0,5.0,2.0
0021500898,1610612755,PHI,Philadelphia,203924,Jerami Grant,F,,30:13,98.7,119.0,-20.4,0.056,1.0,12.5,0.0,0.214,0.103,12.5,0.583,0.583,0.105,101.28,0.048,2016-03-02T00:00:00,2,PHI,Philadelphia,8-53,29,21,24,25,0,0,0,0,0,0,0,0,0,0,99,0.4,0.692,0.394,23,38,14,0021500898,1610612755,PHI,Philadelphia,Jerami Grant,F,,30:13,0.0,0.0,2.0,2.0,15.0,4.0,9.0,28.0,1.0,1.0,4.0,0.0
0021500898,1610612755,PHI,Philadelphia,203457,Nerlens Noel,C,,27:18,103.0,116.9,-13.9,0.267,1.33,19.4,0.042,0.095,0.067,14.5,0.545,0.623,0.276,99.24,0.107,2016-03-02T00:00:00,2,PHI,Philadelphia,8-53,29,21,24,25,0,0,0,0,0,0,0,0,0,0,99,0.4,0.692,0.394,23,38,14,0021500898,1610612755,PHI,Philadelphia,Nerlens Noel,C,,27:18,0.0,6.0,0.0,8.0,10.0,9.0,5.0,26.0,0.0,0.0,4.0,5.0
0021500898,1610612755,PHI,Philadelphia,203477,Isaiah Canaan,G,,32:12,99.1,110.0,-10.9,0.0,0.0,0.0,0.0,0.0,0.0,10.9,0.467,0.521,0.252,101.34,0.039,2016-03-02T00:00:00,2,PHI,Philadelphia,8-53,29,21,24,25,0,0,0,0,0,0,0,0,0,0,99,0.4,0.692,0.394,23,38,14,0021500898,1610612755,PHI,Philadelphia,Isaiah Canaan,G,,32:12,2.0,0.0,2.0,2.0,10.0,11.0,9.0,26.0,0.0,1.0,2.0,1.0
0021500898,1610612755,PHI,Philadelphia,202397,Ish Smith,G,,32:20,96.9,113.4,-16.5,0.421,4.0,32.9,0.0,0.172,0.085,8.2,0.423,0.419,0.22,101.81,0.11,2016-03-02T00:00:00,2,PHI,Philadelphia,8-53,29,21,24,25,0,0,0,0,0,0,0,0,0,0,99,0.4,0.692,0.394,23,38,14,0021500898,1610612755,PHI,Philadelphia,Ish Smith,G,,32:20,4.0,0.0,5.0,6.0,14.0,9.0,9.0,26.0,1.0,2.0,0.0,2.0
0021500898,1610612755,PHI,Philadelphia,1626158,Richaun Holmes,,,18:28,87.5,112.1,-24.6,0.091,1.0,14.3,0.13,0.188,0.154,14.3,0.0,0.0,0.133,105.69,-0.05,2016-03-02T00:00:00,2,PHI,Philadelphia,8-53,29,21,24,25,0,0,0,0,0,0,0,0,0,0,99,0.4,0.692,0.394,23,38,14,0021500898,1610612755,PHI,Philadelphia,Richaun Holmes,,,18:28,0.0,0.0,0.0,0.0,7.0,3.0,4.0,14.0,1.0,1.0,3.0,2.0
0021500898,1610612755,PHI,Philadelphia,203917,Nik Stauskas,,,16:45,99.2,137.6,-38.4,0.0,0.0,0.0,0.0,0.111,0.034,0.0,0.417,0.466,0.16,100.93,0.046,2016-03-02T00:00:00,2,PHI,Philadelphia,8-53,29,21,24,25,0,0,0,0,0,0,0,0,0,0,99,0.4,0.692,0.394,23,38,14,0021500898,1610612755,PHI,Philadelphia,Nik Stauskas,,,16:45,0.0,0.0,0.0,2.0,4.0,6.0,0.0,14.0,0.0,0.0,1.0,2.0
0021500898,1610612755,PHI,Philadelphia,204456,T.J. McConnell,,,15:42,93.1,128.7,-35.6,0.556,5.0,56.3,0.053,0.182,0.1,11.3,0.5,0.694,0.107,101.93,0.114,2016-03-02T00:00:00,2,PHI,Philadelphia,8-53,29,21,24,25,0,0,0,0,0,0,0,0,0,0,99,0.4,0.692,0.394,23,38,14,0021500898,1610612755,PHI,Philadelphia,T.J. McConnell,,,15:42,2.0,0.0,0.0,0.0,5.0,5.0,0.0,14.0,0.0,0.0,3.0,2.0
0021500898,1610612755,PHI,Philadelphia,203138,Hollis Thompson,,,21:24,84.7,135.0,-50.3,0.083,0.0,8.9,0.0,0.154,0.056,0.0,0.5,0.49,0.194,107.98,0.053,2016-03-02T00:00:00,2,PHI,Philadelphia,8-53,29,21,24,25,0,0,0,0,0,0,0,0,0,0,99,0.4,0.692,0.394,23,38,14,0021500898,1610612755,PHI,Philadelphia,Hollis Thompson,,,21:24,0.0,0.0,0.0,2.0,11.0,10.0,0.0,16.0,0.0,0.0,1.0,3.0
0021500898,1610612755,PHI,Philadelphia,201171,Carl Landry,,,13:40,93.4,97.0,-3.6,0.0,0.0,0.0,0.0,0.333,0.12,0.0,0.5,0.58,0.252,97.78,0.222,2016-03-02T00:00:00,2,PHI,Philadelphia,8-53,29,21,24,25,0,0,0,0,0,0,0,0,0,0,99,0.4,0.692,0.394,23,38,14,0021500898,1610612755,PHI,Philadelphia,Carl Landry,,,13:40,0.0,1.0,0.0,2.0,2.0,2.0,0.0,8.0,0.0,0.0,1.0,2.0
0021500898,1610612755,PHI,Philadelphia,1882,Elton Brand,,DND - Gastroenteritis                   ,,,,,,,0.0,,,,,,,0.0,,,2016-03-02T00:00:00,2,PHI,Philadelphia,8-53,29,21,24,25,0,0,0,0,0,0,0,0,0,0,99,0.4,0.692,0.394,23,38,14,0021500898,1610612755,PHI,Philadelphia,Elton Brand,,DND - Gastroenteritis                   ,,,,,,,,,,,,,
0021500898,1610612755,PHI,Philadelphia,203088,Kendall Marshall,,DNP - Coach's Decision                  ,,,,,,,0.0,,,,,,,0.0,,,2016-03-02T00:00:00,2,PHI,Philadelphia,8-53,29,21,24,25,0,0,0,0,0,0,0,0,0,0,99,0.4,0.692,0.394,23,38,14,0021500898,1610612755,PHI,Philadelphia,Kendall Marshall,,DNP - Coach's Decision                  ,,,,,,,,,,,,,
0021500898,1610612755,PHI,Philadelphia,1626143,Jahlil Okafor,,DND - Right Shin Contusion              ,,,,,,,0.0,,,,,,,0.0,,,2016-03-02T00:00:00,2,PHI,Philadelphia,8-53,29,21,24,25,0,0,0,0,0,0,0,0,0,0,99,0.4,0.692,0.394,23,38,14,0021500898,1610612755,PHI,Philadelphia,Jahlil Okafor,,DND - Right Shin Contusion              ,,,,,,,,,,,,,
