GAME_ID_x,TEAM_ID_x,TEAM_ABBREVIATION_x,TEAM_CITY_x,PLAYER_ID,PLAYER_NAME_x,START_POSITION_x,COMMENT_x,MIN_x,OFF_RATING,DEF_RATING,NET_RATING,AST_PCT,AST_TOV,AST_RATIO,OREB_PCT,DREB_PCT,REB_PCT,TM_TOV_PCT,EFG_PCT,TS_PCT,USG_PCT,PACE,PIE,GAME_DATE_EST,GAME_SEQUENCE,TEAM_ABBREVIATION_y,TEAM_CITY_NAME,TEAM_WINS_LOSSES,PTS_QTR1,PTS_QTR2,PTS_QTR3,PTS_QTR4,PTS_OT1,PTS_OT2,PTS_OT3,PTS_OT4,PTS_OT5,PTS_OT6,PTS_OT7,PTS_OT8,PTS_OT9,PTS_OT10,PTS,FG_PCT,FT_PCT,FG3_PCT,AST,REB,TOV,GAME_ID_y,TEAM_ID_y,TEAM_ABBREVIATION,TEAM_CITY_y,PLAYER_NAME_y,START_POSITION_y,COMMENT_y,MIN_y,PTS_OFF_TOV,PTS_2ND_CHANCE,PTS_FB,PTS_PAINT,OPP_PTS_OFF_TOV,OPP_PTS_2ND_CHANCE,OPP_PTS_FB,OPP_PTS_PAINT,BLK,BLKA,PF,PFD
0021500912,1610612754,IND,Indiana,202331,Paul George,F,,36:24,115.4,120.0,-4.5,0.35,7.0,19.8,0.061,0.161,0.109,2.8,0.565,0.639,0.341,98.06,0.226,2016-03-04T00:00:00,1,IND,Indiana,32-30,30,20,32,19,0,0,0,0,0,0,0,0,0,0,101,0.411,0.857,0.321,23,46,10,0021500912,1610612754,IND,Indiana,Paul George,F,,36:24,2.0,4.0,5.0,8.0,12.0,6.0,7.0,34.0,1.0,3.0,4.0,8.0
0021500912,1610612754,IND,Indiana,203524,Solomon Hill,F,,30:07,117.2,114.7,2.5,0.042,0.0,20.0,0.037,0.077,0.057,0.0,1.0,1.0,0.057,97.57,0.074,2016-03-04T00:00:00,1,IND,Indiana,32-30,30,20,32,19,0,0,0,0,0,0,0,0,0,0,101,0.411,0.857,0.321,23,46,10,0021500912,1610612754,IND,Indiana,Solomon Hill,F,,30:07,0.0,2.0,0.0,2.0,7.0,6.0,3.0,26.0,0.0,0.0,2.0,1.0
0021500912,1610612754,IND,Indiana,101133,Ian Mahinmi,C,,32:24,110.2,114.3,-4.1,0.136,1.0,18.2,0.063,0.429,0.233,18.2,0.5,0.479,0.174,98.34,0.113,2016-03-04T00:00:00,1,IND,Indiana,32-30,30,20,32,19,0,0,0,0,0,0,0,0,0,0,101,0.411,0.857,0.321,23,46,10,0021500912,1610612754,IND,Indiana,Ian Mahinmi,C,,32:24,6.0,2.0,0.0,10.0,10.0,6.0,3.0,28.0,2.0,2.0,3.0,2.0
0021500912,1610612754,IND,Indiana,101145,Monta Ellis,G,,36:55,111.2,120.0,-8.8,0.154,2.0,17.2,0.028,0.063,0.044,8.6,0.367,0.436,0.222,97.99,0.042,2016-03-04T00:00:00,1,IND,Indiana,32-30,30,20,32,19,0,0,0,0,0,0,0,0,0,0,101,0.411,0.857,0.321,23,46,10,0021500912,1610612754,IND,Indiana,Monta Ellis,G,,36:55,3.0,0.0,3.0,4.0,12.0,8.0,9.0,34.0,0.0,1.0,4.0,4.0
0021500912,1610612754,IND,Indiana,201588,George Hill,G,,39:42,103.0,109.2,-6.2,0.077,2.0,10.5,0.108,0.083,0.096,5.3,0.375,0.375,0.19,94.69,0.027,2016-03-04T00:00:00,1,IND,Indiana,32-30,30,20,32,19,0,0,0,0,0,0,0,0,0,0,101,0.411,0.857,0.321,23,46,10,0021500912,1610612754,IND,Indiana,George Hill,G,,39:42,2.0,0.0,0.0,4.0,9.0,8.0,5.0,32.0,0.0,1.0,4.0,1.0
0021500912,1610612754,IND,Indiana,201155,Rodney Stuckey,,,19:23,90.4,122.1,-31.8,0.333,1.5,22.3,0.0,0.143,0.061,14.9,0.375,0.415,0.246,90.83,0.06,2016-03-04T00:00:00,1,IND,Indiana,32-30,30,20,32,19,0,0,0,0,0,0,0,0,0,0,101,0.411,0.857,0.321,23,46,10,0021500912,1610612754,IND,Indiana,Rodney Stuckey,,,19:23,0.0,0.0,0.0,0.0,7.0,0.0,4.0,18.0,0.0,1.0,1.0,1.0
0021500912,1610612754,IND,Indiana,1626167,Myles Turner,,,18:27,77.0,120.6,-43.6,0.1,1.0,12.9,0.0,0.133,0.059,12.9,0.0,0.347,0.169,90.95,-0.009,2016-03-04T00:00:00,1,IND,Indiana,32-30,30,20,32,19,0,0,0,0,0,0,0,0,0,0,101,0.411,0.857,0.321,23,46,10,0021500912,1610612754,IND,Indiana,Myles Turner,,,18:27,0.0,0.0,0.0,0.0,7.0,2.0,6.0,18.0,1.0,0.0,3.0,2.0
0021500912,1610612754,IND,Indiana,201941,Jordan Hill,,,15:02,92.2,116.8,-24.6,0.167,0.0,12.5,0.143,0.308,0.222,0.0,0.571,0.571,0.224,88.76,0.194,2016-03-04T00:00:00,1,IND,Indiana,32-30,30,20,32,19,0,0,0,0,0,0,0,0,0,0,101,0.411,0.857,0.321,23,46,10,0021500912,1610612754,IND,Indiana,Jordan Hill,,,15:02,0.0,2.0,0.0,6.0,4.0,2.0,6.0,12.0,0.0,1.0,1.0,0.0
0021500912,1610612754,IND,Indiana,201978,Chase Budinger,,,11:36,64.0,101.2,-37.2,0.2,0.0,25.0,0.0,0.2,0.087,0.0,0.333,0.333,0.116,86.15,0.071,2016-03-04T00:00:00,1,IND,Indiana,32-30,30,20,32,19,0,0,0,0,0,0,0,0,0,0,101,0.411,0.857,0.321,23,46,10,0021500912,1610612754,IND,Indiana,Chase Budinger,,,11:36,0.0,0.0,0.0,2.0,2.0,2.0,2.0,8.0,0.0,0.0,2.0,0.0
0021500912,1610612754,IND,Indiana,202730,Lavoy Allen,,DNP - Coach's Decision                  ,,,,,,,0.0,,,,,,,0.0,,,2016-03-04T00:00:00,1,IND,Indiana,32-30,30,20,32,19,0,0,0,0,0,0,0,0,0,0,101,0.411,0.857,0.321,23,46,10,0021500912,1610612754,IND,Indiana,Lavoy Allen,,DNP - Coach's Decision                  ,,,,,,,,,,,,,
0021500912,1610612754,IND,Indiana,101139,CJ Miles,,NWT - Strained left calf                ,,,,,,,0.0,,,,,,,0.0,,,2016-03-04T00:00:00,1,IND,Indiana,32-30,30,20,32,19,0,0,0,0,0,0,0,0,0,0,101,0.411,0.857,0.321,23,46,10,0021500912,1610612754,IND,Indiana,CJ Miles,,NWT - Strained left calf                ,,,,,,,,,,,,,
0021500912,1610612754,IND,Indiana,203922,Glenn Robinson III,,DNP - Coach's Decision                  ,,,,,,,0.0,,,,,,,0.0,,,2016-03-04T00:00:00,1,IND,Indiana,32-30,30,20,32,19,0,0,0,0,0,0,0,0,0,0,101,0.411,0.857,0.321,23,46,10,0021500912,1610612754,IND,Indiana,Glenn Robinson III,,DNP - Coach's Decision                  ,,,,,,,,,,,,,
0021500912,1610612754,IND,Indiana,1626202,Joe Young,,DNP - Coach's Decision                  ,,,,,,,0.0,,,,,,,0.0,,,2016-03-04T00:00:00,1,IND,Indiana,32-30,30,20,32,19,0,0,0,0,0,0,0,0,0,0,101,0.411,0.857,0.321,23,46,10,0021500912,1610612754,IND,Indiana,Joe Young,,DNP - Coach's Decision                  ,,,,,,,,,,,,,
0021500912,1610612766,CHA,Charlotte,201587,Nicolas Batum,F,,38:42,116.4,112.8,3.6,0.211,1.33,13.0,0.086,0.118,0.101,9.8,0.636,0.652,0.324,95.83,0.146,2016-03-04T00:00:00,1,CHA,Charlotte,33-28,31,24,25,28,0,0,0,0,0,0,0,0,0,0,108,0.481,0.826,0.419,20,41,11,0021500912,1610612766,CHA,Charlotte,Nicolas Batum,F,,38:42,0.0,2.0,2.0,16.0,10.0,10.0,5.0,32.0,2.0,1.0,4.0,5.0
0021500912,1610612766,CHA,Charlotte,101107,Marvin Williams,F,,27:20,110.5,119.0,-8.4,0.0,0.0,0.0,0.042,0.192,0.12,20.0,0.625,0.625,0.086,97.85,0.039,2016-03-04T00:00:00,1,CHA,Charlotte,33-28,31,24,25,28,0,0,0,0,0,0,0,0,0,0,108,0.481,0.826,0.419,20,41,11,0021500912,1610612766,CHA,Charlotte,Marvin Williams,F,,27:20,0.0,0.0,0.0,2.0,10.0,8.0,5.0,26.0,0.0,0.0,3.0,0.0
0021500912,1610612766,CHA,Charlotte,203469,Cody Zeller,C,,27:14,114.2,103.9,10.4,0.1,2.0,20.0,0.08,0.321,0.208,10.0,0.286,0.286,0.137,96.27,0.073,2016-03-04T00:00:00,1,CHA,Charlotte,33-28,31,24,25,28,0,0,0,0,0,0,0,0,0,0,108,0.481,0.826,0.419,20,41,11,0021500912,1610612766,CHA,Charlotte,Cody Zeller,C,,27:14,0.0,0.0,0.0,4.0,8.0,8.0,0.0,20.0,2.0,1.0,3.0,1.0
0021500912,1610612766,CHA,Charlotte,201584,Courtney Lee,G,,34:22,113.8,108.6,5.1,0.04,1.0,14.5,0.0,0.054,0.031,14.5,0.375,0.41,0.084,94.25,0.011,2016-03-04T00:00:00,1,CHA,Charlotte,33-28,31,24,25,28,0,0,0,0,0,0,0,0,0,0,108,0.481,0.826,0.419,20,41,11,0021500912,1610612766,CHA,Charlotte,Courtney Lee,G,,34:22,0.0,0.0,0.0,0.0,11.0,8.0,8.0,32.0,1.0,1.0,1.0,1.0
0021500912,1610612766,CHA,Charlotte,202689,Kemba Walker,G,,36:42,115.8,108.7,7.1,0.5,5.0,29.6,0.0,0.056,0.029,5.9,0.647,0.755,0.301,98.49,0.235,2016-03-04T00:00:00,1,CHA,Charlotte,33-28,31,24,25,28,0,0,0,0,0,0,0,0,0,0,108,0.481,0.826,0.419,20,41,11,0021500912,1610612766,CHA,Charlotte,Kemba Walker,G,,36:42,8.0,4.0,5.0,8.0,13.0,8.0,8.0,28.0,0.0,0.0,0.0,8.0
0021500912,1610612766,CHA,Charlotte,2744,Al Jefferson,,,20:46,118.3,103.9,14.5,0.1,0.0,8.4,0.0,0.222,0.118,0.0,0.6,0.597,0.261,93.75,0.158,2016-03-04T00:00:00,1,CHA,Charlotte,33-28,31,24,25,28,0,0,0,0,0,0,0,0,0,0,108,0.481,0.826,0.419,20,41,11,0021500912,1610612766,CHA,Charlotte,Al Jefferson,,,20:46,0.0,0.0,0.0,8.0,5.0,2.0,8.0,16.0,2.0,0.0,4.0,1.0
0021500912,1610612766,CHA,Charlotte,202391,Jeremy Lin,,,22:47,125.5,88.1,37.4,0.0,0.0,0.0,0.0,0.095,0.05,18.2,0.389,0.389,0.23,94.01,-0.019,2016-03-04T00:00:00,1,CHA,Charlotte,33-28,31,24,25,28,0,0,0,0,0,0,0,0,0,0,108,0.481,0.826,0.419,20,41,11,0021500912,1610612766,CHA,Charlotte,Jeremy Lin,,,22:47,2.0,0.0,2.0,2.0,5.0,2.0,3.0,10.0,1.0,1.0,3.0,6.0
0021500912,1610612766,CHA,Charlotte,1626163,Frank Kaminsky,,,20:40,123.6,82.3,41.2,0.133,0.0,29.1,0.059,0.2,0.135,0.0,0.75,0.82,0.117,91.65,0.204,2016-03-04T00:00:00,1,CHA,Charlotte,33-28,31,24,25,28,0,0,0,0,0,0,0,0,0,0,108,0.481,0.826,0.419,20,41,11,0021500912,1610612766,CHA,Charlotte,Frank Kaminsky,,,20:40,2.0,0.0,0.0,0.0,3.0,2.0,3.0,10.0,1.0,0.0,0.0,1.0
0021500912,1610612766,CHA,Charlotte,203087,Jeremy Lamb,,,11:27,101.2,72.7,28.5,0.0,0.0,0.0,0.0,0.2,0.105,25.8,0.5,0.521,0.187,87.53,0.067,2016-03-04T00:00:00,1,CHA,Charlotte,33-28,31,24,25,28,0,0,0,0,0,0,0,0,0,0,108,0.481,0.826,0.419,20,41,11,0021500912,1610612766,CHA,Charlotte,Jeremy Lamb,,,11:27,2.0,2.0,0.0,2.0,0.0,2.0,0.0,6.0,0.0,0.0,1.0,1.0
0021500912,1610612766,CHA,Charlotte,203584,Troy Daniels,,DNP - Coach's Decision                  ,,,,,,,0.0,,,,,,,0.0,,,2016-03-04T00:00:00,1,CHA,Charlotte,33-28,31,24,25,28,0,0,0,0,0,0,0,0,0,0,108,0.481,0.826,0.419,20,41,11,0021500912,1610612766,CHA,Charlotte,Troy Daniels,,DNP - Coach's Decision                  ,,,,,,,,,,,,,
0021500912,1610612766,CHA,Charlotte,203268,Jorge Gutierrez,,DNP - Coach's Decision                  ,,,,,,,0.0,,,,,,,0.0,,,2016-03-04T00:00:00,1,CHA,Charlotte,33-28,31,24,25,28,0,0,0,0,0,0,0,0,0,0,108,0.481,0.826,0.419,20,41,11,0021500912,1610612766,CHA,Charlotte,Jorge Gutierrez,,DNP - Coach's Decision                  ,,,,,,,,,,,,,
0021500912,1610612766,CHA,Charlotte,201946,Tyler Hansbrough,,DNP - Coach's Decision                  ,,,,,,,0.0,,,,,,,0.0,,,2016-03-04T00:00:00,1,CHA,Charlotte,33-28,31,24,25,28,0,0,0,0,0,0,0,0,0,0,108,0.481,0.826,0.419,20,41,11,0021500912,1610612766,CHA,Charlotte,Tyler Hansbrough,,DNP - Coach's Decision                  ,,,,,,,,,,,,,
0021500912,1610612766,CHA,Charlotte,1626151,Aaron Harrison,,DNP - Coach's Decision                  ,,,,,,,0.0,,,,,,,0.0,,,2016-03-04T00:00:00,1,CHA,Charlotte,33-28,31,24,25,28,0,0,0,0,0,0,0,0,0,0,108,0.481,0.826,0.419,20,41,11,0021500912,1610612766,CHA,Charlotte,Aaron Harrison,,DNP - Coach's Decision                  ,,,,,,,,,,,,,
