GAME_ID_x,TEAM_ID_x,TEAM_ABBREVIATION_x,TEAM_CITY_x,PLAYER_ID,PLAYER_NAME_x,START_POSITION_x,COMMENT_x,MIN_x,OFF_RATING,DEF_RATING,NET_RATING,AST_PCT,AST_TOV,AST_RATIO,OREB_PCT,DREB_PCT,REB_PCT,TM_TOV_PCT,EFG_PCT,TS_PCT,USG_PCT,PACE,PIE,GAME_DATE_EST,GAME_SEQUENCE,TEAM_ABBREVIATION_y,TEAM_CITY_NAME,TEAM_WINS_LOSSES,PTS_QTR1,PTS_QTR2,PTS_QTR3,PTS_QTR4,PTS_OT1,PTS_OT2,PTS_OT3,PTS_OT4,PTS_OT5,PTS_OT6,PTS_OT7,PTS_OT8,PTS_OT9,PTS_OT10,PTS,FG_PCT,FT_PCT,FG3_PCT,AST,REB,TOV,GAME_ID_y,TEAM_ID_y,TEAM_ABBREVIATION,TEAM_CITY_y,PLAYER_NAME_y,START_POSITION_y,COMMENT_y,MIN_y,PTS_OFF_TOV,PTS_2ND_CHANCE,PTS_FB,PTS_PAINT,OPP_PTS_OFF_TOV,OPP_PTS_2ND_CHANCE,OPP_PTS_FB,OPP_PTS_PAINT,BLK,BLKA,PF,PFD
0021500929,1610612737,ATL,Atlanta,203145,Kent Bazemore,F,,30:55,113.2,93.7,19.5,0.087,0.67,11.0,0.0,0.161,0.083,16.5,0.545,0.644,0.21,106.66,0.118,2016-03-05T00:00:00,8,ATL,Atlanta,35-28,25,25,30,27,0,0,0,0,0,0,0,0,0,0,107,0.449,0.85,0.37,26,53,18,0021500929,1610612737,ATL,Atlanta,Kent Bazemore,F,,30:55,3.0,8.0,5.0,4.0,11.0,7.0,12.0,26.0,2.0,1.0,3.0,6.0
0021500929,1610612737,ATL,Atlanta,200794,Paul Millsap,F,,37:14,110.9,98.9,12.0,0.185,1.67,21.0,0.152,0.351,0.257,12.6,0.607,0.635,0.204,105.68,0.21,2016-03-05T00:00:00,8,ATL,Atlanta,35-28,25,25,30,27,0,0,0,0,0,0,0,0,0,0,107,0.449,0.85,0.37,26,53,18,0021500929,1610612737,ATL,Atlanta,Paul Millsap,F,,37:14,2.0,8.0,3.0,14.0,14.0,7.0,12.0,30.0,0.0,3.0,3.0,6.0
0021500929,1610612737,ATL,Atlanta,201143,Al Horford,C,,31:36,100.6,88.5,12.1,0.048,1.0,7.2,0.1,0.3,0.2,7.2,0.409,0.463,0.173,101.1,0.129,2016-03-05T00:00:00,8,ATL,Atlanta,35-28,25,25,30,27,0,0,0,0,0,0,0,0,0,0,107,0.449,0.85,0.37,26,53,18,0021500929,1610612737,ATL,Atlanta,Al Horford,C,,31:36,0.0,2.0,0.0,6.0,12.0,6.0,6.0,28.0,0.0,0.0,1.0,1.0
0021500929,1610612737,ATL,Atlanta,2594,Kyle Korver,G,,27:44,112.6,87.8,24.7,0.125,0.75,21.4,0.0,0.032,0.017,28.6,0.714,0.714,0.153,108.54,0.036,2016-03-05T00:00:00,8,ATL,Atlanta,35-28,25,25,30,27,0,0,0,0,0,0,0,0,0,0,107,0.449,0.85,0.37,26,53,18,0021500929,1610612737,ATL,Atlanta,Kyle Korver,G,,27:44,0.0,0.0,3.0,2.0,9.0,4.0,7.0,18.0,0.0,0.0,5.0,0.0
0021500929,1610612737,ATL,Atlanta,201952,Jeff Teague,G,,28:51,113.2,89.2,24.0,0.333,3.5,27.6,0.037,0.172,0.107,7.9,0.633,0.674,0.247,109.22,0.192,2016-03-05T00:00:00,8,ATL,Atlanta,35-28,25,25,30,27,0,0,0,0,0,0,0,0,0,0,107,0.449,0.85,0.37,26,53,18,0021500929,1610612737,ATL,Atlanta,Jeff Teague,G,,28:51,6.0,0.0,0.0,8.0,8.0,5.0,9.0,24.0,0.0,3.0,5.0,2.0
0021500929,1610612737,ATL,Atlanta,2743,Kris Humphries,,,13:29,118.5,106.5,11.9,0.091,0.0,14.3,0.0,0.067,0.038,0.0,0.333,0.333,0.181,117.29,-0.066,2016-03-05T00:00:00,8,ATL,Atlanta,35-28,25,25,30,27,0,0,0,0,0,0,0,0,0,0,107,0.449,0.85,0.37,26,53,18,0021500929,1610612737,ATL,Atlanta,Kris Humphries,,,13:29,0.0,0.0,0.0,2.0,4.0,1.0,7.0,10.0,0.0,1.0,6.0,0.0
0021500929,1610612737,ATL,Atlanta,200757,Thabo Sefolosha,,,29:33,88.1,87.6,0.5,0.1,2.0,22.5,0.037,0.233,0.14,11.3,0.3,0.255,0.102,103.55,0.047,2016-03-05T00:00:00,8,ATL,Atlanta,35-28,25,25,30,27,0,0,0,0,0,0,0,0,0,0,107,0.449,0.85,0.37,26,53,18,0021500929,1610612737,ATL,Atlanta,Thabo Sefolosha,,,29:33,0.0,0.0,0.0,0.0,8.0,3.0,7.0,20.0,1.0,0.0,3.0,1.0
0021500929,1610612737,ATL,Atlanta,203501,Tim Hardaway Jr.,,,7:57,63.0,133.3,-70.4,0.333,0.0,25.0,0.0,0.0,0.0,0.0,0.333,0.333,0.189,93.22,0.031,2016-03-05T00:00:00,8,ATL,Atlanta,35-28,25,25,30,27,0,0,0,0,0,0,0,0,0,0,107,0.449,0.85,0.37,26,53,18,0021500929,1610612737,ATL,Atlanta,Tim Hardaway Jr.,,,7:57,0.0,0.0,0.0,0.0,4.0,0.0,2.0,8.0,0.0,1.0,0.0,1.0
0021500929,1610612737,ATL,Atlanta,203471,Dennis Schroder,,,19:09,81.0,99.3,-18.3,0.6,1.0,16.9,0.0,0.05,0.026,16.9,0.6,0.68,0.355,98.78,0.215,2016-03-05T00:00:00,8,ATL,Atlanta,35-28,25,25,30,27,0,0,0,0,0,0,0,0,0,0,107,0.449,0.85,0.37,26,53,18,0021500929,1610612737,ATL,Atlanta,Dennis Schroder,,,19:09,2.0,2.0,2.0,10.0,8.0,2.0,5.0,12.0,0.0,1.0,0.0,3.0
0021500929,1610612737,ATL,Atlanta,203118,Mike Scott,,,13:32,51.9,69.2,-17.3,0.2,1.0,11.1,0.0,0.063,0.031,11.1,0.143,0.143,0.259,99.85,-0.063,2016-03-05T00:00:00,8,ATL,Atlanta,35-28,25,25,30,27,0,0,0,0,0,0,0,0,0,0,107,0.449,0.85,0.37,26,53,18,0021500929,1610612737,ATL,Atlanta,Mike Scott,,,13:32,0.0,0.0,0.0,2.0,2.0,0.0,3.0,4.0,0.0,0.0,0.0,0.0
0021500929,1610612737,ATL,Atlanta,2550,Kirk Hinrich,,DNP - Coach's Decision                  ,,,,,,,0.0,,,,,,,0.0,,,2016-03-05T00:00:00,8,ATL,Atlanta,35-28,25,25,30,27,0,0,0,0,0,0,0,0,0,0,107,0.449,0.85,0.37,26,53,18,0021500929,1610612737,ATL,Atlanta,Kirk Hinrich,,DNP - Coach's Decision                  ,,,,,,,,,,,,,
0021500929,1610612737,ATL,Atlanta,203488,Mike Muscala,,DNP - Coach's Decision                  ,,,,,,,0.0,,,,,,,0.0,,,2016-03-05T00:00:00,8,ATL,Atlanta,35-28,25,25,30,27,0,0,0,0,0,0,0,0,0,0,107,0.449,0.85,0.37,26,53,18,0021500929,1610612737,ATL,Atlanta,Mike Muscala,,DNP - Coach's Decision                  ,,,,,,,,,,,,,
0021500929,1610612737,ATL,Atlanta,204002,Edy Tavares,,DNP - Coach's Decision                  ,,,,,,,0.0,,,,,,,0.0,,,2016-03-05T00:00:00,8,ATL,Atlanta,35-28,25,25,30,27,0,0,0,0,0,0,0,0,0,0,107,0.449,0.85,0.37,26,53,18,0021500929,1610612737,ATL,Atlanta,Edy Tavares,,DNP - Coach's Decision                  ,,,,,,,,,,,,,
0021500929,1610612746,LAC,LA,201145,Jeff Green,F,,37:37,91.9,103.5,-11.5,0.095,0.0,17.5,0.027,0.114,0.069,0.0,0.778,0.742,0.112,103.77,0.108,2016-03-05T00:00:00,8,LAC,LA,40-21,37,18,24,18,0,0,0,0,0,0,0,0,0,0,97,0.43,0.607,0.375,22,41,18,0021500929,1610612746,LAC,LA,Jeff Green,F,,37:37,0.0,2.0,2.0,8.0,9.0,20.0,8.0,40.0,2.0,0.0,4.0,2.0
0021500929,1610612746,LAC,LA,1718,Paul Pierce,F,,14:14,108.1,130.5,-22.4,0.0,0.0,0.0,0.0,0.0,0.0,12.0,0.667,0.751,0.264,103.09,0.079,2016-03-05T00:00:00,8,LAC,LA,40-21,37,18,24,18,0,0,0,0,0,0,0,0,0,0,97,0.43,0.607,0.375,22,41,18,0021500929,1610612746,LAC,LA,Paul Pierce,F,,14:14,0.0,0.0,2.0,2.0,6.0,11.0,5.0,16.0,0.0,0.0,2.0,2.0
0021500929,1610612746,LAC,LA,201599,DeAndre Jordan,C,,33:16,98.7,111.1,-12.4,0.095,0.67,10.3,0.057,0.321,0.175,15.4,0.714,0.587,0.221,109.37,0.133,2016-03-05T00:00:00,8,LAC,LA,40-21,37,18,24,18,0,0,0,0,0,0,0,0,0,0,97,0.43,0.607,0.375,22,41,18,0021500929,1610612746,LAC,LA,DeAndre Jordan,C,,33:16,4.0,5.0,0.0,10.0,11.0,18.0,8.0,36.0,5.0,0.0,2.0,13.0
0021500929,1610612746,LAC,LA,200755,JJ Redick,G,,29:59,95.1,114.9,-19.8,0.053,0.33,5.9,0.0,0.069,0.034,17.6,0.385,0.385,0.224,108.38,-0.008,2016-03-05T00:00:00,8,LAC,LA,40-21,37,18,24,18,0,0,0,0,0,0,0,0,0,0,97,0.43,0.607,0.375,22,41,18,0021500929,1610612746,LAC,LA,JJ Redick,G,,29:59,0.0,0.0,0.0,0.0,9.0,20.0,8.0,34.0,0.0,2.0,2.0,0.0
0021500929,1610612746,LAC,LA,101108,Chris Paul,G,,37:01,93.1,104.7,-11.6,0.524,2.75,34.0,0.0,0.171,0.081,12.4,0.438,0.491,0.243,111.39,0.133,2016-03-05T00:00:00,8,LAC,LA,40-21,37,18,24,18,0,0,0,0,0,0,0,0,0,0,97,0.43,0.607,0.375,22,41,18,0021500929,1610612746,LAC,LA,Chris Paul,G,,37:01,5.0,0.0,5.0,6.0,11.0,20.0,8.0,42.0,0.0,0.0,2.0,5.0
0021500929,1610612746,LAC,LA,202325,Wesley Johnson,,,17:22,108.5,89.8,18.6,0.077,0.5,10.1,0.0,0.353,0.176,20.2,0.167,0.291,0.218,107.37,0.007,2016-03-05T00:00:00,8,LAC,LA,40-21,37,18,24,18,0,0,0,0,0,0,0,0,0,0,97,0.43,0.607,0.375,22,41,18,0021500929,1610612746,LAC,LA,Wesley Johnson,,,17:22,0.0,0.0,2.0,0.0,4.0,2.0,5.0,18.0,1.0,0.0,4.0,1.0
0021500929,1610612746,LAC,LA,2037,Jamal Crawford,,,28:36,85.8,90.4,-4.6,0.063,0.5,9.6,0.0,0.115,0.053,19.2,0.286,0.336,0.141,105.72,0.023,2016-03-05T00:00:00,8,LAC,LA,40-21,37,18,24,18,0,0,0,0,0,0,0,0,0,0,97,0.43,0.607,0.375,22,41,18,0021500929,1610612746,LAC,LA,Jamal Crawford,,,28:36,5.0,0.0,3.0,4.0,7.0,6.0,8.0,26.0,0.0,1.0,1.0,1.0
0021500929,1610612746,LAC,LA,203085,Austin Rivers,,,18:42,71.9,79.0,-7.2,0.6,3.0,20.8,0.0,0.111,0.05,6.9,0.5,0.527,0.273,103.58,0.218,2016-03-05T00:00:00,8,LAC,LA,40-21,37,18,24,18,0,0,0,0,0,0,0,0,0,0,97,0.43,0.607,0.375,22,41,18,0021500929,1610612746,LAC,LA,Austin Rivers,,,18:42,0.0,0.0,0.0,4.0,4.0,3.0,5.0,16.0,0.0,0.0,0.0,2.0
0021500929,1610612746,LAC,LA,203143,Pablo Prigioni,,,10:59,92.6,84.7,7.8,0.2,1.0,20.0,0.0,0.0,0.0,20.0,1.0,1.0,0.178,83.73,0.133,2016-03-05T00:00:00,8,LAC,LA,40-21,37,18,24,18,0,0,0,0,0,0,0,0,0,0,97,0.43,0.607,0.375,22,41,18,0021500929,1610612746,LAC,LA,Pablo Prigioni,,,10:59,0.0,0.0,0.0,0.0,2.0,0.0,5.0,6.0,0.0,0.0,1.0,0.0
0021500929,1610612746,LAC,LA,202332,Cole Aldrich,,,12:14,80.2,69.9,10.3,0.0,0.0,0.0,0.25,0.231,0.24,33.3,0.5,0.5,0.118,88.91,0.155,2016-03-05T00:00:00,8,LAC,LA,40-21,37,18,24,18,0,0,0,0,0,0,0,0,0,0,97,0.43,0.607,0.375,22,41,18,0021500929,1610612746,LAC,LA,Cole Aldrich,,,12:14,2.0,0.0,0.0,2.0,2.0,0.0,5.0,6.0,2.0,0.0,2.0,0.0
0021500929,1610612746,LAC,LA,201601,Luc Mbah a Moute,,DND - Left Eye Lid Laceration           ,,,,,,,0.0,,,,,,,0.0,,,2016-03-05T00:00:00,8,LAC,LA,40-21,37,18,24,18,0,0,0,0,0,0,0,0,0,0,97,0.43,0.607,0.375,22,41,18,0021500929,1610612746,LAC,LA,Luc Mbah a Moute,,DND - Left Eye Lid Laceration           ,,,,,,,,,,,,,
0021500929,1610612746,LAC,LA,1627293,Alex Stepheson,,DNP - Coach's Decision                  ,,,,,,,0.0,,,,,,,0.0,,,2016-03-05T00:00:00,8,LAC,LA,40-21,37,18,24,18,0,0,0,0,0,0,0,0,0,0,97,0.43,0.607,0.375,22,41,18,0021500929,1610612746,LAC,LA,Alex Stepheson,,DNP - Coach's Decision                  ,,,,,,,,,,,,,
0021500929,1610612746,LAC,LA,203912,CJ Wilcox,,DNP - Coach's Decision                  ,,,,,,,0.0,,,,,,,0.0,,,2016-03-05T00:00:00,8,LAC,LA,40-21,37,18,24,18,0,0,0,0,0,0,0,0,0,0,97,0.43,0.607,0.375,22,41,18,0021500929,1610612746,LAC,LA,CJ Wilcox,,DNP - Coach's Decision                  ,,,,,,,,,,,,,
