GAME_ID_x,TEAM_ID_x,TEAM_ABBREVIATION_x,TEAM_CITY_x,PLAYER_ID,PLAYER_NAME_x,START_POSITION_x,COMMENT_x,MIN_x,OFF_RATING,DEF_RATING,NET_RATING,AST_PCT,AST_TOV,AST_RATIO,OREB_PCT,DREB_PCT,REB_PCT,TM_TOV_PCT,EFG_PCT,TS_PCT,USG_PCT,PACE,PIE,GAME_DATE_EST,GAME_SEQUENCE,TEAM_ABBREVIATION_y,TEAM_CITY_NAME,TEAM_WINS_LOSSES,PTS_QTR1,PTS_QTR2,PTS_QTR3,PTS_QTR4,PTS_OT1,PTS_OT2,PTS_OT3,PTS_OT4,PTS_OT5,PTS_OT6,PTS_OT7,PTS_OT8,PTS_OT9,PTS_OT10,PTS,FG_PCT,FT_PCT,FG3_PCT,AST,REB,TOV,GAME_ID_y,TEAM_ID_y,TEAM_ABBREVIATION,TEAM_CITY_y,PLAYER_NAME_y,START_POSITION_y,COMMENT_y,MIN_y,PTS_OFF_TOV,PTS_2ND_CHANCE,PTS_FB,PTS_PAINT,OPP_PTS_OFF_TOV,OPP_PTS_2ND_CHANCE,OPP_PTS_FB,OPP_PTS_PAINT,BLK,BLKA,PF,PFD
0021500941,1610612758,SAC,Sacramento,200752,Rudy Gay,F,,40:53,102.9,93.8,9.1,0.067,0.5,9.6,0.0,0.233,0.137,19.3,0.577,0.61,0.187,112.24,0.114,2016-03-07T00:00:00,5,SAC,Sacramento,25-37,31,32,26,23,0,0,0,0,0,0,0,0,0,0,112,0.494,0.852,0.28,27,44,22,0021500941,1610612758,SAC,Sacramento,Rudy Gay,F,,40:53,3.0,0.0,6.0,10.0,16.0,5.0,10.0,44.0,0.0,0.0,2.0,3.0
0021500941,1610612758,SAC,Sacramento,203112,Quincy Acy,F,,19:31,105.2,101.3,3.9,0.125,0.0,50.0,0.111,0.316,0.216,0.0,0.5,0.5,0.04,115.55,0.087,2016-03-07T00:00:00,5,SAC,Sacramento,25-37,31,32,26,23,0,0,0,0,0,0,0,0,0,0,112,0.494,0.852,0.28,27,44,22,0021500941,1610612758,SAC,Sacramento,Quincy Acy,F,,19:31,2.0,0.0,2.0,2.0,7.0,0.0,2.0,18.0,0.0,0.0,3.0,0.0
0021500941,1610612758,SAC,Sacramento,202326,DeMarcus Cousins,C,,41:08,103.0,95.0,8.0,0.19,0.8,9.5,0.065,0.326,0.216,11.9,0.552,0.607,0.375,112.58,0.243,2016-03-07T00:00:00,5,SAC,Sacramento,25-37,31,32,26,23,0,0,0,0,0,0,0,0,0,0,112,0.494,0.852,0.28,27,44,22,0021500941,1610612758,SAC,Sacramento,DeMarcus Cousins,C,,41:08,7.0,3.0,0.0,22.0,16.0,5.0,10.0,44.0,1.0,3.0,4.0,9.0
0021500941,1610612758,SAC,Sacramento,203463,Ben McLemore,G,,13:11,99.8,97.6,2.1,0.083,1.0,25.8,0.0,0.0,0.0,25.8,0.0,0.532,0.085,116.22,-0.018,2016-03-07T00:00:00,5,SAC,Sacramento,25-37,31,32,26,23,0,0,0,0,0,0,0,0,0,0,112,0.494,0.852,0.28,27,44,22,0021500941,1610612758,SAC,Sacramento,Ben McLemore,G,,13:11,0.0,0.0,0.0,0.0,5.0,0.0,0.0,12.0,0.0,1.0,3.0,1.0
0021500941,1610612758,SAC,Sacramento,200765,Rajon Rondo,G,,39:11,106.3,107.7,-1.4,0.345,2.0,34.6,0.0,0.027,0.014,17.3,0.654,0.648,0.194,111.62,0.08,2016-03-07T00:00:00,5,SAC,Sacramento,25-37,31,32,26,23,0,0,0,0,0,0,0,0,0,0,112,0.494,0.852,0.28,27,44,22,0021500941,1610612758,SAC,Sacramento,Rajon Rondo,G,,39:11,2.0,0.0,0.0,4.0,15.0,8.0,10.0,44.0,0.0,0.0,5.0,2.0
0021500941,1610612758,SAC,Sacramento,201954,Darren Collison,,,34:49,99.0,104.1,-5.1,0.222,1.0,26.7,0.0,0.057,0.032,26.7,0.2,0.239,0.194,111.31,-0.014,2016-03-07T00:00:00,5,SAC,Sacramento,25-37,31,32,26,23,0,0,0,0,0,0,0,0,0,0,112,0.494,0.852,0.28,27,44,22,0021500941,1610612758,SAC,Sacramento,Darren Collison,,,34:49,0.0,0.0,0.0,2.0,17.0,8.0,12.0,44.0,0.0,2.0,2.0,1.0
0021500941,1610612758,SAC,Sacramento,1626161,Willie Cauley-Stein,,,5:30,62.1,153.6,-91.5,0.0,0.0,0.0,0.0,0.0,0.0,0.0,0.0,0.0,0.134,118.69,-0.105,2016-03-07T00:00:00,5,SAC,Sacramento,25-37,31,32,26,23,0,0,0,0,0,0,0,0,0,0,112,0.494,0.852,0.28,27,44,22,0021500941,1610612758,SAC,Sacramento,Willie Cauley-Stein,,,5:30,0.0,0.0,0.0,0.0,6.0,3.0,7.0,12.0,0.0,0.0,1.0,0.0
0021500941,1610612758,SAC,Sacramento,201956,Omri Casspi,,,18:09,85.1,109.1,-24.0,0.111,1.0,9.0,0.133,0.294,0.219,9.0,0.75,0.826,0.228,111.66,0.269,2016-03-07T00:00:00,5,SAC,Sacramento,25-37,31,32,26,23,0,0,0,0,0,0,0,0,0,0,112,0.494,0.852,0.28,27,44,22,0021500941,1610612758,SAC,Sacramento,Omri Casspi,,,18:09,2.0,4.0,2.0,6.0,10.0,3.0,2.0,22.0,0.0,0.0,1.0,4.0
0021500941,1610612758,SAC,Sacramento,201585,Kosta Koufos,,,6:52,76.1,144.2,-68.1,0.0,0.0,0.0,0.0,0.0,0.0,0.0,0.0,0.0,0.056,113.13,-0.095,2016-03-07T00:00:00,5,SAC,Sacramento,25-37,31,32,26,23,0,0,0,0,0,0,0,0,0,0,112,0.494,0.852,0.28,27,44,22,0021500941,1610612758,SAC,Sacramento,Kosta Koufos,,,6:52,0.0,0.0,0.0,0.0,6.0,3.0,2.0,12.0,0.0,0.0,3.0,0.0
0021500941,1610612758,SAC,Sacramento,201158,Marco Belinelli,,,20:46,95.1,88.4,6.8,0.077,0.0,12.7,0.0,0.0,0.0,0.0,0.833,0.872,0.137,112.01,0.127,2016-03-07T00:00:00,5,SAC,Sacramento,25-37,31,32,26,23,0,0,0,0,0,0,0,0,0,0,112,0.494,0.852,0.28,27,44,22,0021500941,1610612758,SAC,Sacramento,Marco Belinelli,,,20:46,2.0,0.0,2.0,2.0,12.0,5.0,5.0,28.0,0.0,0.0,1.0,1.0
0021500941,1610612758,SAC,Sacramento,202341,James Anderson,,DNP - Coach's Decision                  ,,,,,,,0.0,,,,,,,0.0,,,2016-03-07T00:00:00,5,SAC,Sacramento,25-37,31,32,26,23,0,0,0,0,0,0,0,0,0,0,112,0.494,0.852,0.28,27,44,22,0021500941,1610612758,SAC,Sacramento,James Anderson,,DNP - Coach's Decision                  ,,,,,,,,,,,,,
0021500941,1610612758,SAC,Sacramento,2406,Caron Butler,,DNP - Coach's Decision                  ,,,,,,,0.0,,,,,,,0.0,,,2016-03-07T00:00:00,5,SAC,Sacramento,25-37,31,32,26,23,0,0,0,0,0,0,0,0,0,0,112,0.494,0.852,0.28,27,44,22,0021500941,1610612758,SAC,Sacramento,Caron Butler,,DNP - Coach's Decision                  ,,,,,,,,,,,,,
0021500941,1610612758,SAC,Sacramento,203552,Seth Curry,,DNP - Coach's Decision                  ,,,,,,,0.0,,,,,,,0.0,,,2016-03-07T00:00:00,5,SAC,Sacramento,25-37,31,32,26,23,0,0,0,0,0,0,0,0,0,0,112,0.494,0.852,0.28,27,44,22,0021500941,1610612758,SAC,Sacramento,Seth Curry,,DNP - Coach's Decision                  ,,,,,,,,,,,,,
0021500941,1610612740,NOP,New Orleans,201967,Dante Cunningham,F,,28:36,93.0,104.0,-11.0,0.0,0.0,0.0,0.0,0.095,0.042,0.0,0.7,0.7,0.069,110.74,0.088,2016-03-07T00:00:00,5,NOP,New Orleans,24-38,33,17,33,32,0,0,0,0,0,0,0,0,0,0,115,0.479,0.692,0.28,23,43,17,0021500941,1610612740,NOP,New Orleans,Dante Cunningham,F,,28:36,2.0,0.0,2.0,4.0,14.0,3.0,10.0,32.0,1.0,0.0,2.0,0.0
0021500941,1610612740,NOP,New Orleans,203076,Anthony Davis,F,,37:49,97.8,105.7,-7.9,0.05,0.2,3.2,0.027,0.29,0.147,16.1,0.643,0.621,0.312,113.52,0.147,2016-03-07T00:00:00,5,NOP,New Orleans,24-38,33,17,33,32,0,0,0,0,0,0,0,0,0,0,115,0.479,0.692,0.28,23,43,17,0021500941,1610612740,NOP,New Orleans,Anthony Davis,F,,37:49,6.0,2.0,2.0,20.0,14.0,7.0,10.0,38.0,1.0,0.0,5.0,10.0
0021500941,1610612740,NOP,New Orleans,201600,Omer Asik,C,,13:32,84.5,109.0,-24.4,0.0,0.0,0.0,0.167,0.1,0.136,50.0,0.0,0.0,0.118,109.88,-0.109,2016-03-07T00:00:00,5,NOP,New Orleans,24-38,33,17,33,32,0,0,0,0,0,0,0,0,0,0,115,0.479,0.692,0.28,23,43,17,0021500941,1610612740,NOP,New Orleans,Omer Asik,C,,13:32,0.0,0.0,0.0,0.0,8.0,0.0,4.0,18.0,0.0,0.0,4.0,0.0
0021500941,1610612740,NOP,New Orleans,202708,Norris Cole,G,,39:44,106.9,101.5,5.3,0.2,6.0,20.6,0.029,0.182,0.103,3.4,0.447,0.521,0.227,113.03,0.133,2016-03-07T00:00:00,5,NOP,New Orleans,24-38,33,17,33,32,0,0,0,0,0,0,0,0,0,0,115,0.479,0.692,0.28,23,43,17,0021500941,1610612740,NOP,New Orleans,Norris Cole,G,,39:44,3.0,0.0,4.0,6.0,16.0,7.0,10.0,42.0,0.0,0.0,3.0,5.0
0021500941,1610612740,NOP,New Orleans,201950,Jrue Holiday,G,,35:39,95.9,99.0,-3.2,0.435,3.33,31.8,0.0,0.143,0.06,9.5,0.528,0.542,0.237,110.5,0.178,2016-03-07T00:00:00,5,NOP,New Orleans,24-38,33,17,33,32,0,0,0,0,0,0,0,0,0,0,115,0.479,0.692,0.28,23,43,17,0021500941,1610612740,NOP,New Orleans,Jrue Holiday,G,,35:39,5.0,0.0,2.0,10.0,15.0,3.0,11.0,38.0,1.0,0.0,2.0,3.0
0021500941,1610612740,NOP,New Orleans,2570,Kendrick Perkins,,,17:07,86.5,87.9,-1.4,0.067,0.5,33.3,0.0,0.118,0.057,66.7,0.0,0.0,0.047,115.68,0.03,2016-03-07T00:00:00,5,NOP,New Orleans,24-38,33,17,33,32,0,0,0,0,0,0,0,0,0,0,115,0.479,0.692,0.28,23,43,17,0021500941,1610612740,NOP,New Orleans,Kendrick Perkins,,,17:07,0.0,0.0,0.0,0.0,6.0,1.0,6.0,12.0,2.0,0.0,1.0,1.0
0021500941,1610612740,NOP,New Orleans,201962,Toney Douglas,,,20:37,104.1,95.1,8.9,0.167,1.0,20.0,0.0,0.118,0.051,20.0,0.333,0.333,0.227,115.67,0.017,2016-03-07T00:00:00,5,NOP,New Orleans,24-38,33,17,33,32,0,0,0,0,0,0,0,0,0,0,115,0.479,0.692,0.28,23,43,17,0021500941,1610612740,NOP,New Orleans,Toney Douglas,,,20:37,3.0,0.0,0.0,0.0,5.0,4.0,3.0,16.0,1.0,0.0,1.0,1.0
0021500941,1610612740,NOP,New Orleans,202087,Alonzo Gee,,,19:37,117.4,92.7,24.6,0.0,0.0,0.0,0.143,0.222,0.179,0.0,0.667,0.699,0.127,117.76,0.113,2016-03-07T00:00:00,5,NOP,New Orleans,24-38,33,17,33,32,0,0,0,0,0,0,0,0,0,0,115,0.479,0.692,0.28,23,43,17,0021500941,1610612740,NOP,New Orleans,Alonzo Gee,,,19:37,0.0,3.0,0.0,8.0,4.0,4.0,2.0,18.0,0.0,0.0,2.0,1.0
0021500941,1610612740,NOP,New Orleans,201583,Ryan Anderson,,,27:19,125.4,92.4,33.0,0.083,2.0,9.7,0.103,0.15,0.122,4.9,0.464,0.542,0.258,109.3,0.118,2016-03-07T00:00:00,5,NOP,New Orleans,24-38,33,17,33,32,0,0,0,0,0,0,0,0,0,0,115,0.479,0.692,0.28,23,43,17,0021500941,1610612740,NOP,New Orleans,Ryan Anderson,,,27:19,3.0,3.0,2.0,8.0,8.0,6.0,4.0,26.0,0.0,1.0,1.0,4.0
0021500941,1610612740,NOP,New Orleans,201582,Alexis Ajinca,,DND - Fractured Sternum                 ,,,,,,,0.0,,,,,,,0.0,,,2016-03-07T00:00:00,5,NOP,New Orleans,24-38,33,17,33,32,0,0,0,0,0,0,0,0,0,0,115,0.479,0.692,0.28,23,43,17,0021500941,1610612740,NOP,New Orleans,Alexis Ajinca,,DND - Fractured Sternum                 ,,,,,,,,,,,,,
0021500941,1610612740,NOP,New Orleans,202337,Luke Babbitt,,DND - Left Shin Contusion               ,,,,,,,0.0,,,,,,,0.0,,,2016-03-07T00:00:00,5,NOP,New Orleans,24-38,33,17,33,32,0,0,0,0,0,0,0,0,0,0,115,0.479,0.692,0.28,23,43,17,0021500941,1610612740,NOP,New Orleans,Luke Babbitt,,DND - Left Shin Contusion               ,,,,,,,,,,,,,
0021500941,1610612740,NOP,New Orleans,1626214,Bryce Dejean-Jones,,DND - Right Wrist Fracture              ,,,,,,,0.0,,,,,,,0.0,,,2016-03-07T00:00:00,5,NOP,New Orleans,24-38,33,17,33,32,0,0,0,0,0,0,0,0,0,0,115,0.479,0.692,0.28,23,43,17,0021500941,1610612740,NOP,New Orleans,Bryce Dejean-Jones,,DND - Right Wrist Fracture              ,,,,,,,,,,,,,
0021500941,1610612740,NOP,New Orleans,201569,Eric Gordon,,NWT - Fractured Right Ring Finger       ,,,,,,,0.0,,,,,,,0.0,,,2016-03-07T00:00:00,5,NOP,New Orleans,24-38,33,17,33,32,0,0,0,0,0,0,0,0,0,0,115,0.479,0.692,0.28,23,43,17,0021500941,1610612740,NOP,New Orleans,Eric Gordon,,NWT - Fractured Right Ring Finger       ,,,,,,,,,,,,,
