GAME_ID_x,TEAM_ID_x,TEAM_ABBREVIATION_x,TEAM_CITY_x,PLAYER_ID,PLAYER_NAME_x,START_POSITION_x,COMMENT_x,MIN_x,OFF_RATING,DEF_RATING,NET_RATING,AST_PCT,AST_TOV,AST_RATIO,OREB_PCT,DREB_PCT,REB_PCT,TM_TOV_PCT,EFG_PCT,TS_PCT,USG_PCT,PACE,PIE,GAME_DATE_EST,GAME_SEQUENCE,TEAM_ID_y,TEAM_ABBREVIATION_y,TEAM_CITY_NAME,TEAM_WINS_LOSSES,PTS_QTR1,PTS_QTR2,PTS_QTR3,PTS_QTR4,PTS_OT1,PTS_OT2,PTS_OT3,PTS_OT4,PTS_OT5,PTS_OT6,PTS_OT7,PTS_OT8,PTS_OT9,PTS_OT10,PTS,FG_PCT,FT_PCT,FG3_PCT,AST,REB,TOV,GAME_ID_y,TEAM_ID,TEAM_ABBREVIATION,TEAM_CITY_y,PLAYER_NAME_y,START_POSITION_y,COMMENT_y,MIN_y,PTS_OFF_TOV,PTS_2ND_CHANCE,PTS_FB,PTS_PAINT,OPP_PTS_OFF_TOV,OPP_PTS_2ND_CHANCE,OPP_PTS_FB,OPP_PTS_PAINT,BLK,BLKA,PF,PFD
0021301026,1610612738,BOS,Boston,201145,Jeff Green,F,,32:00,100.7,138.0,-37.3,0.133,0.0,10.9,0.0,0.125,0.042,0.0,0.433,0.49,0.228,90.57,0.093,2014-03-21T00:00:00,5,1610612738,BOS,Boston,23-47,28,26,22,22,0,0,0,0,0,0,0,0,0,0,98,0.422,0.826,0.333,20,37,11,0021301026,1610612738,BOS,Boston,Jeff Green,F,,32:00,0,0,0,8,9,16,9,42,0,1,1,2
0021301026,1610612738,BOS,Boston,201145,Jeff Green,F,,32:00,100.7,138.0,-37.3,0.133,0.0,10.9,0.0,0.125,0.042,0.0,0.433,0.49,0.228,90.57,0.093,2014-03-21T00:00:00,5,1610612751,BKN,Brooklyn,36-31,34,30,28,22,0,0,0,0,0,0,0,0,0,0,114,0.564,0.708,0.529,30,39,11,0021301026,1610612738,BOS,Boston,Jeff Green,F,,32:00,0,0,0,8,9,16,9,42,0,1,1,2
0021301026,1610612738,BOS,Boston,101138,Brandon Bass,F,,25:05,105.9,132.2,-26.3,0.0,0.0,0.0,0.167,0.0,0.111,25.3,0.5,0.507,0.215,91.31,0.03,2014-03-21T00:00:00,5,1610612738,BOS,Boston,23-47,28,26,22,22,0,0,0,0,0,0,0,0,0,0,98,0.422,0.826,0.333,20,37,11,0021301026,1610612738,BOS,Boston,Brandon Bass,F,,25:05,2,3,0,6,11,14,7,28,0,0,0,2
0021301026,1610612738,BOS,Boston,101138,Brandon Bass,F,,25:05,105.9,132.2,-26.3,0.0,0.0,0.0,0.167,0.0,0.111,25.3,0.5,0.507,0.215,91.31,0.03,2014-03-21T00:00:00,5,1610612751,BKN,Brooklyn,36-31,34,30,28,22,0,0,0,0,0,0,0,0,0,0,114,0.564,0.708,0.529,30,39,11,0021301026,1610612738,BOS,Boston,Brandon Bass,F,,25:05,2,3,0,6,11,14,7,28,0,0,0,2
0021301026,1610612738,BOS,Boston,2743,Kris Humphries,C,,24:04,109.4,148.6,-39.2,0.0,0.0,0.0,0.208,0.25,0.222,13.6,0.364,0.47,0.265,91.41,0.083,2014-03-21T00:00:00,5,1610612738,BOS,Boston,23-47,28,26,22,22,0,0,0,0,0,0,0,0,0,0,98,0.422,0.826,0.333,20,37,11,0021301026,1610612738,BOS,Boston,Kris Humphries,C,,24:04,2,6,0,2,11,16,9,36,1,0,1,5
0021301026,1610612738,BOS,Boston,2743,Kris Humphries,C,,24:04,109.4,148.6,-39.2,0.0,0.0,0.0,0.208,0.25,0.222,13.6,0.364,0.47,0.265,91.41,0.083,2014-03-21T00:00:00,5,1610612751,BKN,Brooklyn,36-31,34,30,28,22,0,0,0,0,0,0,0,0,0,0,114,0.564,0.708,0.529,30,39,11,0021301026,1610612738,BOS,Boston,Kris Humphries,C,,24:04,2,6,0,2,11,16,9,36,1,0,1,5
0021301026,1610612738,BOS,Boston,202340,Avery Bradley,G,,34:51,100.9,113.6,-12.6,0.077,1.0,4.8,0.0,0.182,0.073,4.8,0.737,0.737,0.259,93.87,0.173,2014-03-21T00:00:00,5,1610612738,BOS,Boston,23-47,28,26,22,22,0,0,0,0,0,0,0,0,0,0,98,0.422,0.826,0.333,20,37,11,0021301026,1610612738,BOS,Boston,Avery Bradley,G,,34:51,0,3,0,8,10,5,6,42,1,1,4,1
0021301026,1610612738,BOS,Boston,202340,Avery Bradley,G,,34:51,100.9,113.6,-12.6,0.077,1.0,4.8,0.0,0.182,0.073,4.8,0.737,0.737,0.259,93.87,0.173,2014-03-21T00:00:00,5,1610612751,BKN,Brooklyn,36-31,34,30,28,22,0,0,0,0,0,0,0,0,0,0,114,0.564,0.708,0.529,30,39,11,0021301026,1610612738,BOS,Boston,Avery Bradley,G,,34:51,0,3,0,8,10,5,6,42,1,1,4,1
0021301026,1610612738,BOS,Boston,200765,Rajon Rondo,G,,36:15,95.2,120.1,-25.0,0.632,0.0,48.7,0.026,0.136,0.067,0.0,0.35,0.475,0.157,92.23,0.14,2014-03-21T00:00:00,5,1610612738,BOS,Boston,23-47,28,26,22,22,0,0,0,0,0,0,0,0,0,0,98,0.422,0.826,0.333,20,37,11,0021301026,1610612738,BOS,Boston,Rajon Rondo,G,,36:15,3,0,2,2,11,14,9,38,0,1,1,3
0021301026,1610612738,BOS,Boston,200765,Rajon Rondo,G,,36:15,95.2,120.1,-25.0,0.632,0.0,48.7,0.026,0.136,0.067,0.0,0.35,0.475,0.157,92.23,0.14,2014-03-21T00:00:00,5,1610612751,BKN,Brooklyn,36-31,34,30,28,22,0,0,0,0,0,0,0,0,0,0,114,0.564,0.708,0.529,30,39,11,0021301026,1610612738,BOS,Boston,Rajon Rondo,G,,36:15,3,0,2,2,11,14,9,38,0,1,1,3
0021301026,1610612738,BOS,Boston,201573,Jerryd Bayless,,,23:14,114.9,114.5,0.4,0.118,1.0,25.0,0.048,0.0,0.024,25.0,0.75,0.75,0.124,92.76,0.035,2014-03-21T00:00:00,5,1610612738,BOS,Boston,23-47,28,26,22,22,0,0,0,0,0,0,0,0,0,0,98,0.422,0.826,0.333,20,37,11,0021301026,1610612738,BOS,Boston,Jerryd Bayless,,,23:14,0,0,0,0,6,9,7,32,0,0,2,0
0021301026,1610612738,BOS,Boston,201573,Jerryd Bayless,,,23:14,114.9,114.5,0.4,0.118,1.0,25.0,0.048,0.0,0.024,25.0,0.75,0.75,0.124,92.76,0.035,2014-03-21T00:00:00,5,1610612751,BKN,Brooklyn,36-31,34,30,28,22,0,0,0,0,0,0,0,0,0,0,114,0.564,0.708,0.529,30,39,11,0021301026,1610612738,BOS,Boston,Jerryd Bayless,,,23:14,0,0,0,0,6,9,7,32,0,0,2,0
0021301026,1610612738,BOS,Boston,203096,Jared Sullinger,,,22:51,109.3,112.9,-3.6,0.118,1.0,15.8,0.0,0.2,0.1,15.8,0.333,0.463,0.222,92.66,0.042,2014-03-21T00:00:00,5,1610612738,BOS,Boston,23-47,28,26,22,22,0,0,0,0,0,0,0,0,0,0,98,0.422,0.826,0.333,20,37,11,0021301026,1610612738,BOS,Boston,Jared Sullinger,,,22:51,0,0,3,2,4,4,4,34,0,0,3,3
0021301026,1610612738,BOS,Boston,203096,Jared Sullinger,,,22:51,109.3,112.9,-3.6,0.118,1.0,15.8,0.0,0.2,0.1,15.8,0.333,0.463,0.222,92.66,0.042,2014-03-21T00:00:00,5,1610612751,BKN,Brooklyn,36-31,34,30,28,22,0,0,0,0,0,0,0,0,0,0,114,0.564,0.708,0.529,30,39,11,0021301026,1610612738,BOS,Boston,Jared Sullinger,,,22:51,0,0,3,2,4,4,4,34,0,0,3,3
0021301026,1610612738,BOS,Boston,203482,Kelly Olynyk,,,16:03,100.4,114.6,-14.2,0.0,0.0,0.0,0.083,0.273,0.174,14.5,0.2,0.34,0.203,97.24,-0.056,2014-03-21T00:00:00,5,1610612738,BOS,Boston,23-47,28,26,22,22,0,0,0,0,0,0,0,0,0,0,98,0.422,0.826,0.333,20,37,11,0021301026,1610612738,BOS,Boston,Kelly Olynyk,,,16:03,4,0,4,2,4,2,2,20,0,0,6,1
0021301026,1610612738,BOS,Boston,203482,Kelly Olynyk,,,16:03,100.4,114.6,-14.2,0.0,0.0,0.0,0.083,0.273,0.174,14.5,0.2,0.34,0.203,97.24,-0.056,2014-03-21T00:00:00,5,1610612751,BKN,Brooklyn,36-31,34,30,28,22,0,0,0,0,0,0,0,0,0,0,114,0.564,0.708,0.529,30,39,11,0021301026,1610612738,BOS,Boston,Kelly Olynyk,,,16:03,4,0,4,2,4,2,2,20,0,0,6,1
0021301026,1610612738,BOS,Boston,203187,Chris Johnson,,,10:05,137.7,117.9,19.8,0.0,0.0,0.0,0.0,0.1,0.071,0.0,0.0,0.0,0.106,95.48,0.0,2014-03-21T00:00:00,5,1610612738,BOS,Boston,23-47,28,26,22,22,0,0,0,0,0,0,0,0,0,0,98,0.422,0.826,0.333,20,37,11,0021301026,1610612738,BOS,Boston,Chris Johnson,,,10:05,0,0,0,0,7,8,0,14,0,0,0,0
0021301026,1610612738,BOS,Boston,203187,Chris Johnson,,,10:05,137.7,117.9,19.8,0.0,0.0,0.0,0.0,0.1,0.071,0.0,0.0,0.0,0.106,95.48,0.0,2014-03-21T00:00:00,5,1610612751,BKN,Brooklyn,36-31,34,30,28,22,0,0,0,0,0,0,0,0,0,0,114,0.564,0.708,0.529,30,39,11,0021301026,1610612738,BOS,Boston,Chris Johnson,,,10:05,0,0,0,0,7,8,0,14,0,0,0,0
0021301026,1610612738,BOS,Boston,203515,Phil Pressey,,,6:03,127.6,158.0,-30.4,0.2,0.0,50.0,0.0,0.0,0.0,0.0,0.0,0.0,0.078,89.26,0.0,2014-03-21T00:00:00,5,1610612738,BOS,Boston,23-47,28,26,22,22,0,0,0,0,0,0,0,0,0,0,98,0.422,0.826,0.333,20,37,11,0021301026,1610612738,BOS,Boston,Phil Pressey,,,6:03,0,0,0,0,2,2,2,14,0,0,0,0
0021301026,1610612738,BOS,Boston,203515,Phil Pressey,,,6:03,127.6,158.0,-30.4,0.2,0.0,50.0,0.0,0.0,0.0,0.0,0.0,0.0,0.078,89.26,0.0,2014-03-21T00:00:00,5,1610612751,BKN,Brooklyn,36-31,34,30,28,22,0,0,0,0,0,0,0,0,0,0,114,0.564,0.708,0.529,30,39,11,0021301026,1610612738,BOS,Boston,Phil Pressey,,,6:03,0,0,0,0,2,2,2,14,0,0,0,0
0021301026,1610612738,BOS,Boston,201202,Joel Anthony,,,7:56,102.5,62.8,39.6,0.0,0.0,0.0,0.0,0.556,0.294,0.0,0.0,0.0,0.064,87.61,0.205,2014-03-21T00:00:00,5,1610612738,BOS,Boston,23-47,28,26,22,22,0,0,0,0,0,0,0,0,0,0,98,0.422,0.826,0.333,20,37,11,0021301026,1610612738,BOS,Boston,Joel Anthony,,,7:56,0,0,0,0,0,0,0,6,1,0,0,0
0021301026,1610612738,BOS,Boston,201202,Joel Anthony,,,7:56,102.5,62.8,39.6,0.0,0.0,0.0,0.0,0.556,0.294,0.0,0.0,0.0,0.064,87.61,0.205,2014-03-21T00:00:00,5,1610612751,BKN,Brooklyn,36-31,34,30,28,22,0,0,0,0,0,0,0,0,0,0,114,0.564,0.708,0.529,30,39,11,0021301026,1610612738,BOS,Boston,Joel Anthony,,,7:56,0,0,0,0,0,0,0,6,1,0,0,0
0021301026,1610612738,BOS,Boston,203569,Chris Babb,,,1:33,208.3,163.9,44.4,0.0,0.0,0.0,0.0,0.0,0.0,0.0,1.5,1.5,0.347,82.37,0.3,2014-03-21T00:00:00,5,1610612738,BOS,Boston,23-47,28,26,22,22,0,0,0,0,0,0,0,0,0,0,98,0.422,0.826,0.333,20,37,11,0021301026,1610612738,BOS,Boston,Chris Babb,,,1:33,0,0,0,0,0,0,0,4,0,0,0,0
0021301026,1610612738,BOS,Boston,203569,Chris Babb,,,1:33,208.3,163.9,44.4,0.0,0.0,0.0,0.0,0.0,0.0,0.0,1.5,1.5,0.347,82.37,0.3,2014-03-21T00:00:00,5,1610612751,BKN,Brooklyn,36-31,34,30,28,22,0,0,0,0,0,0,0,0,0,0,114,0.564,0.708,0.529,30,39,11,0021301026,1610612738,BOS,Boston,Chris Babb,,,1:33,0,0,0,0,0,0,0,4,0,0,0,0
0021301026,1610612751,BKN,Brooklyn,2207,Joe Johnson,F,,30:18,133.8,100.7,33.1,0.211,0.0,19.6,0.0,0.065,0.043,0.0,0.813,0.821,0.261,93.18,0.205,2014-03-21T00:00:00,5,1610612738,BOS,Boston,23-47,28,26,22,22,0,0,0,0,0,0,0,0,0,0,98,0.422,0.826,0.333,20,37,11,0021301026,1610612751,BKN,Brooklyn,Joe Johnson,F,,30:18,0,3,3,8,9,12,4,18,0,0,2,1
0021301026,1610612751,BKN,Brooklyn,2207,Joe Johnson,F,,30:18,133.8,100.7,33.1,0.211,0.0,19.6,0.0,0.065,0.043,0.0,0.813,0.821,0.261,93.18,0.205,2014-03-21T00:00:00,5,1610612751,BKN,Brooklyn,36-31,34,30,28,22,0,0,0,0,0,0,0,0,0,0,114,0.564,0.708,0.529,30,39,11,0021301026,1610612751,BKN,Brooklyn,Joe Johnson,F,,30:18,0,3,3,8,9,12,4,18,0,0,2,1
0021301026,1610612751,BKN,Brooklyn,1718,Paul Pierce,F,,18:59,143.4,120.2,23.2,0.0,0.0,0.0,0.0,0.15,0.107,8.7,0.65,0.67,0.279,93.0,0.115,2014-03-21T00:00:00,5,1610612738,BOS,Boston,23-47,28,26,22,22,0,0,0,0,0,0,0,0,0,0,98,0.422,0.826,0.333,20,37,11,0021301026,1610612751,BKN,Brooklyn,Paul Pierce,F,,18:59,0,3,0,6,7,10,4,6,0,1,2,1
0021301026,1610612751,BKN,Brooklyn,1718,Paul Pierce,F,,18:59,143.4,120.2,23.2,0.0,0.0,0.0,0.0,0.15,0.107,8.7,0.65,0.67,0.279,93.0,0.115,2014-03-21T00:00:00,5,1610612751,BKN,Brooklyn,36-31,34,30,28,22,0,0,0,0,0,0,0,0,0,0,114,0.564,0.708,0.529,30,39,11,0021301026,1610612751,BKN,Brooklyn,Paul Pierce,F,,18:59,0,3,0,6,7,10,4,6,0,1,2,1
0021301026,1610612751,BKN,Brooklyn,203486,Mason Plumlee,C,,20:54,141.1,106.9,34.2,0.2,1.5,20.5,0.333,0.111,0.185,13.7,0.857,0.934,0.268,91.5,0.251,2014-03-21T00:00:00,5,1610612738,BOS,Boston,23-47,28,26,22,22,0,0,0,0,0,0,0,0,0,0,98,0.422,0.826,0.333,20,37,11,0021301026,1610612751,BKN,Brooklyn,Mason Plumlee,C,,20:54,8,2,2,12,4,8,4,4,0,0,2,3
0021301026,1610612751,BKN,Brooklyn,203486,Mason Plumlee,C,,20:54,141.1,106.9,34.2,0.2,1.5,20.5,0.333,0.111,0.185,13.7,0.857,0.934,0.268,91.5,0.251,2014-03-21T00:00:00,5,1610612751,BKN,Brooklyn,36-31,34,30,28,22,0,0,0,0,0,0,0,0,0,0,114,0.564,0.708,0.529,30,39,11,0021301026,1610612751,BKN,Brooklyn,Mason Plumlee,C,,20:54,8,2,2,12,4,8,4,4,0,0,2,3
0021301026,1610612751,BKN,Brooklyn,2733,Shaun Livingston,G,,21:26,128.4,131.8,-3.4,0.316,0.0,76.1,0.077,0.273,0.2,0.0,1.0,1.064,0.041,92.94,0.151,2014-03-21T00:00:00,5,1610612738,BOS,Boston,23-47,28,26,22,22,0,0,0,0,0,0,0,0,0,0,98,0.422,0.826,0.333,20,37,11,0021301026,1610612751,BKN,Brooklyn,Shaun Livingston,G,,21:26,0,0,0,2,9,10,4,16,1,0,2,4
0021301026,1610612751,BKN,Brooklyn,2733,Shaun Livingston,G,,21:26,128.4,131.8,-3.4,0.316,0.0,76.1,0.077,0.273,0.2,0.0,1.0,1.064,0.041,92.94,0.151,2014-03-21T00:00:00,5,1610612751,BKN,Brooklyn,36-31,34,30,28,22,0,0,0,0,0,0,0,0,0,0,114,0.564,0.708,0.529,30,39,11,0021301026,1610612751,BKN,Brooklyn,Shaun Livingston,G,,21:26,0,0,0,2,9,10,4,16,1,0,2,4
0021301026,1610612751,BKN,Brooklyn,101114,Deron Williams,G,,25:11,139.2,102.9,36.3,0.25,3.0,46.6,0.0,0.038,0.026,15.5,0.625,0.615,0.13,92.86,0.065,2014-03-21T00:00:00,5,1610612738,BOS,Boston,23-47,28,26,22,22,0,0,0,0,0,0,0,0,0,0,98,0.422,0.826,0.333,20,37,11,0021301026,1610612751,BKN,Brooklyn,Deron Williams,G,,25:11,3,3,0,2,7,10,4,12,0,0,2,1
0021301026,1610612751,BKN,Brooklyn,101114,Deron Williams,G,,25:11,139.2,102.9,36.3,0.25,3.0,46.6,0.0,0.038,0.026,15.5,0.625,0.615,0.13,92.86,0.065,2014-03-21T00:00:00,5,1610612751,BKN,Brooklyn,36-31,34,30,28,22,0,0,0,0,0,0,0,0,0,0,114,0.564,0.708,0.529,30,39,11,0021301026,1610612751,BKN,Brooklyn,Deron Williams,G,,25:11,3,3,0,2,7,10,4,12,0,0,2,1
0021301026,1610612751,BKN,Brooklyn,101154,Andray Blatche,,,21:35,112.0,104.6,7.4,0.067,0.5,7.0,0.111,0.091,0.1,14.0,0.4,0.442,0.284,96.52,0.047,2014-03-21T00:00:00,5,1610612738,BOS,Boston,23-47,28,26,22,22,0,0,0,0,0,0,0,0,0,0,98,0.422,0.826,0.333,20,37,11,0021301026,1610612751,BKN,Brooklyn,Andray Blatche,,,21:35,0,0,2,8,7,4,5,22,0,1,1,2
0021301026,1610612751,BKN,Brooklyn,101154,Andray Blatche,,,21:35,112.0,104.6,7.4,0.067,0.5,7.0,0.111,0.091,0.1,14.0,0.4,0.442,0.284,96.52,0.047,2014-03-21T00:00:00,5,1610612751,BKN,Brooklyn,36-31,34,30,28,22,0,0,0,0,0,0,0,0,0,0,114,0.564,0.708,0.529,30,39,11,0021301026,1610612751,BKN,Brooklyn,Andray Blatche,,,21:35,0,0,2,8,7,4,5,22,0,1,1,2
0021301026,1610612751,BKN,Brooklyn,1905,Andrei Kirilenko,,,17:14,124.7,106.3,18.4,0.071,1.0,14.5,0.0,0.154,0.077,14.5,0.75,0.615,0.168,89.24,0.068,2014-03-21T00:00:00,5,1610612738,BOS,Boston,23-47,28,26,22,22,0,0,0,0,0,0,0,0,0,0,98,0.422,0.826,0.333,20,37,11,0021301026,1610612751,BKN,Brooklyn,Andrei Kirilenko,,,17:14,0,2,0,6,4,2,2,20,0,0,0,1
0021301026,1610612751,BKN,Brooklyn,1905,Andrei Kirilenko,,,17:14,124.7,106.3,18.4,0.071,1.0,14.5,0.0,0.154,0.077,14.5,0.75,0.615,0.168,89.24,0.068,2014-03-21T00:00:00,5,1610612751,BKN,Brooklyn,36-31,34,30,28,22,0,0,0,0,0,0,0,0,0,0,114,0.564,0.708,0.529,30,39,11,0021301026,1610612751,BKN,Brooklyn,Andrei Kirilenko,,,17:14,0,2,0,6,4,2,2,20,0,0,0,1
0021301026,1610612751,BKN,Brooklyn,203141,Mirza Teletovic,,,20:50,104.1,98.7,5.3,0.143,0.0,21.5,0.0,0.056,0.027,0.0,0.5,0.478,0.165,96.54,0.042,2014-03-21T00:00:00,5,1610612738,BOS,Boston,23-47,28,26,22,22,0,0,0,0,0,0,0,0,0,0,98,0.422,0.826,0.333,20,37,11,0021301026,1610612751,BKN,Brooklyn,Mirza Teletovic,,,20:50,0,0,0,6,2,0,5,14,1,0,2,2
0021301026,1610612751,BKN,Brooklyn,203141,Mirza Teletovic,,,20:50,104.1,98.7,5.3,0.143,0.0,21.5,0.0,0.056,0.027,0.0,0.5,0.478,0.165,96.54,0.042,2014-03-21T00:00:00,5,1610612751,BKN,Brooklyn,36-31,34,30,28,22,0,0,0,0,0,0,0,0,0,0,114,0.564,0.708,0.529,30,39,11,0021301026,1610612751,BKN,Brooklyn,Mirza Teletovic,,,20:50,0,0,0,6,2,0,5,14,1,0,2,2
0021301026,1610612751,BKN,Brooklyn,201977,Marcus Thornton,,,18:21,102.5,104.1,-1.5,0.25,3.0,21.6,0.0,0.462,0.207,7.2,0.389,0.455,0.278,94.95,0.173,2014-03-21T00:00:00,5,1610612738,BOS,Boston,23-47,28,26,22,22,0,0,0,0,0,0,0,0,0,0,98,0.422,0.826,0.333,20,37,11,0021301026,1610612751,BKN,Brooklyn,Marcus Thornton,,,18:21,2,3,2,4,4,0,7,8,0,0,1,1
0021301026,1610612751,BKN,Brooklyn,201977,Marcus Thornton,,,18:21,102.5,104.1,-1.5,0.25,3.0,21.6,0.0,0.462,0.207,7.2,0.389,0.455,0.278,94.95,0.173,2014-03-21T00:00:00,5,1610612751,BKN,Brooklyn,36-31,34,30,28,22,0,0,0,0,0,0,0,0,0,0,114,0.564,0.708,0.529,30,39,11,0021301026,1610612751,BKN,Brooklyn,Marcus Thornton,,,18:21,2,3,2,4,4,0,7,8,0,0,1,1
0021301026,1610612751,BKN,Brooklyn,203268,Jorge Gutierrez,,,18:16,107.8,98.4,9.3,0.111,1.0,12.5,0.071,0.133,0.103,12.5,0.833,0.833,0.203,87.92,0.169,2014-03-21T00:00:00,5,1610612738,BOS,Boston,23-47,28,26,22,22,0,0,0,0,0,0,0,0,0,0,98,0.422,0.826,0.333,20,37,11,0021301026,1610612751,BKN,Brooklyn,Jorge Gutierrez,,,18:16,2,2,2,6,0,2,3,10,1,0,2,0
0021301026,1610612751,BKN,Brooklyn,203268,Jorge Gutierrez,,,18:16,107.8,98.4,9.3,0.111,1.0,12.5,0.071,0.133,0.103,12.5,0.833,0.833,0.203,87.92,0.169,2014-03-21T00:00:00,5,1610612751,BKN,Brooklyn,36-31,34,30,28,22,0,0,0,0,0,0,0,0,0,0,114,0.564,0.708,0.529,30,39,11,0021301026,1610612751,BKN,Brooklyn,Jorge Gutierrez,,,18:16,2,2,2,6,0,2,3,10,1,0,2,0
0021301026,1610612751,BKN,Brooklyn,101187,Alan Anderson,,,17:05,112.3,86.1,26.2,0.071,1.0,25.0,0.0,0.25,0.129,25.0,0.0,0.0,0.086,91.99,0.018,2014-03-21T00:00:00,5,1610612738,BOS,Boston,23-47,28,26,22,22,0,0,0,0,0,0,0,0,0,0,98,0.422,0.826,0.333,20,37,11,0021301026,1610612751,BKN,Brooklyn,Alan Anderson,,,17:05,0,0,0,0,2,2,3,12,0,1,1,1
0021301026,1610612751,BKN,Brooklyn,101187,Alan Anderson,,,17:05,112.3,86.1,26.2,0.071,1.0,25.0,0.0,0.25,0.129,25.0,0.0,0.0,0.086,91.99,0.018,2014-03-21T00:00:00,5,1610612751,BKN,Brooklyn,36-31,34,30,28,22,0,0,0,0,0,0,0,0,0,0,114,0.564,0.708,0.529,30,39,11,0021301026,1610612751,BKN,Brooklyn,Alan Anderson,,,17:05,0,0,0,0,2,2,3,12,0,1,1,1
0021301026,1610612751,BKN,Brooklyn,2215,Jason Collins,,,5:31,96.6,112.6,-16.0,0.667,0.0,66.7,0.0,0.0,0.0,0.0,1.0,1.0,0.107,79.18,0.195,2014-03-21T00:00:00,5,1610612738,BOS,Boston,23-47,28,26,22,22,0,0,0,0,0,0,0,0,0,0,98,0.422,0.826,0.333,20,37,11,0021301026,1610612751,BKN,Brooklyn,Jason Collins,,,5:31,0,0,0,2,0,0,0,4,0,0,0,0
0021301026,1610612751,BKN,Brooklyn,2215,Jason Collins,,,5:31,96.6,112.6,-16.0,0.667,0.0,66.7,0.0,0.0,0.0,0.0,1.0,1.0,0.107,79.18,0.195,2014-03-21T00:00:00,5,1610612751,BKN,Brooklyn,36-31,34,30,28,22,0,0,0,0,0,0,0,0,0,0,114,0.564,0.708,0.529,30,39,11,0021301026,1610612751,BKN,Brooklyn,Jason Collins,,,5:31,0,0,0,2,0,0,0,4,0,0,0,0
0021301026,1610612751,BKN,Brooklyn,203104,Marquis Teague,,,4:20,123.0,145.3,-22.4,0.0,0.0,0.0,0.0,0.5,0.2,0.0,0.0,0.174,0.393,78.65,-0.048,2014-03-21T00:00:00,5,1610612738,BOS,Boston,23-47,28,26,22,22,0,0,0,0,0,0,0,0,0,0,98,0.422,0.826,0.333,20,37,11,0021301026,1610612751,BKN,Brooklyn,Marquis Teague,,,4:20,0,0,0,0,0,0,0,4,0,0,0,1
0021301026,1610612751,BKN,Brooklyn,203104,Marquis Teague,,,4:20,123.0,145.3,-22.4,0.0,0.0,0.0,0.0,0.5,0.2,0.0,0.0,0.174,0.393,78.65,-0.048,2014-03-21T00:00:00,5,1610612751,BKN,Brooklyn,36-31,34,30,28,22,0,0,0,0,0,0,0,0,0,0,114,0.564,0.708,0.529,30,39,11,0021301026,1610612751,BKN,Brooklyn,Marquis Teague,,,4:20,0,0,0,0,0,0,0,4,0,0,0,1
