GAME_ID_x,TEAM_ID_x,TEAM_ABBREVIATION_x,TEAM_CITY_x,PLAYER_ID,PLAYER_NAME_x,START_POSITION_x,COMMENT_x,MIN_x,OFF_RATING,DEF_RATING,NET_RATING,AST_PCT,AST_TOV,AST_RATIO,OREB_PCT,DREB_PCT,REB_PCT,TM_TOV_PCT,EFG_PCT,TS_PCT,USG_PCT,PACE,PIE,GAME_DATE_EST,GAME_SEQUENCE,TEAM_ID_y,TEAM_ABBREVIATION_y,TEAM_CITY_NAME,TEAM_WINS_LOSSES,PTS_QTR1,PTS_QTR2,PTS_QTR3,PTS_QTR4,PTS_OT1,PTS_OT2,PTS_OT3,PTS_OT4,PTS_OT5,PTS_OT6,PTS_OT7,PTS_OT8,PTS_OT9,PTS_OT10,PTS,FG_PCT,FT_PCT,FG3_PCT,AST,REB,TOV,GAME_ID_y,TEAM_ID,TEAM_ABBREVIATION,TEAM_CITY_y,PLAYER_NAME_y,START_POSITION_y,COMMENT_y,MIN_y,PTS_OFF_TOV,PTS_2ND_CHANCE,PTS_FB,PTS_PAINT,OPP_PTS_OFF_TOV,OPP_PTS_2ND_CHANCE,OPP_PTS_FB,OPP_PTS_PAINT,BLK,BLKA,PF,PFD
0021301022,1610612741,CHI,Chicago,2399,Mike Dunleavy,F,,37:56,84.2,104.4,-20.2,0.1,0.67,13.1,0.0,0.12,0.048,19.6,0.333,0.436,0.163,96.42,0.036,2014-03-21T00:00:00,1,1610612741,CHI,Chicago,38-31,23,20,19,17,0,0,0,0,0,0,0,0,0,0,79,0.364,0.75,0.455,17,36,13,0021301022,1610612741,CHI,Chicago,Mike Dunleavy,F,,37:56,2.0,0.0,2.0,4.0,10.0,12.0,7.0,28.0,5.0,1.0,4.0,0.0
0021301022,1610612741,CHI,Chicago,2399,Mike Dunleavy,F,,37:56,84.2,104.4,-20.2,0.1,0.67,13.1,0.0,0.12,0.048,19.6,0.333,0.436,0.163,96.42,0.036,2014-03-21T00:00:00,1,1610612754,IND,Indiana,51-18,19,25,31,16,0,0,0,0,0,0,0,0,0,0,91,0.43,0.84,0.182,27,51,16,0021301022,1610612741,CHI,Chicago,Mike Dunleavy,F,,37:56,2.0,0.0,2.0,4.0,10.0,12.0,7.0,28.0,5.0,1.0,4.0,0.0
0021301022,1610612741,CHI,Chicago,2430,Carlos Boozer,F,,31:07,89.5,105.0,-15.5,0.071,0.5,5.6,0.069,0.136,0.098,11.2,0.357,0.336,0.282,87.13,-0.017,2014-03-21T00:00:00,1,1610612741,CHI,Chicago,38-31,23,20,19,17,0,0,0,0,0,0,0,0,0,0,79,0.364,0.75,0.455,17,36,13,0021301022,1610612741,CHI,Chicago,Carlos Boozer,F,,31:07,6.0,0.0,0.0,4.0,8.0,8.0,7.0,22.0,1.0,2.0,4.0,2.0
0021301022,1610612741,CHI,Chicago,2430,Carlos Boozer,F,,31:07,89.5,105.0,-15.5,0.071,0.5,5.6,0.069,0.136,0.098,11.2,0.357,0.336,0.282,87.13,-0.017,2014-03-21T00:00:00,1,1610612754,IND,Indiana,51-18,19,25,31,16,0,0,0,0,0,0,0,0,0,0,91,0.43,0.84,0.182,27,51,16,0021301022,1610612741,CHI,Chicago,Carlos Boozer,F,,31:07,6.0,0.0,0.0,4.0,8.0,8.0,7.0,22.0,1.0,2.0,4.0,2.0
0021301022,1610612741,CHI,Chicago,201149,Joakim Noah,C,,38:08,85.5,95.3,-9.8,0.333,2.0,24.1,0.105,0.265,0.181,12.1,0.333,0.378,0.245,89.07,0.142,2014-03-21T00:00:00,1,1610612741,CHI,Chicago,38-31,23,20,19,17,0,0,0,0,0,0,0,0,0,0,79,0.364,0.75,0.455,17,36,13,0021301022,1610612741,CHI,Chicago,Joakim Noah,C,,38:08,2.0,2.0,0.0,10.0,8.0,12.0,7.0,26.0,0.0,0.0,4.0,3.0
0021301022,1610612741,CHI,Chicago,201149,Joakim Noah,C,,38:08,85.5,95.3,-9.8,0.333,2.0,24.1,0.105,0.265,0.181,12.1,0.333,0.378,0.245,89.07,0.142,2014-03-21T00:00:00,1,1610612754,IND,Indiana,51-18,19,25,31,16,0,0,0,0,0,0,0,0,0,0,91,0.43,0.84,0.182,27,51,16,0021301022,1610612741,CHI,Chicago,Joakim Noah,C,,38:08,2.0,2.0,0.0,10.0,8.0,12.0,7.0,26.0,0.0,0.0,4.0,3.0
0021301022,1610612741,CHI,Chicago,202710,Jimmy Butler,G,,45:21,93.4,94.3,-0.9,0.043,1.0,6.8,0.023,0.028,0.025,6.8,0.636,0.666,0.149,91.32,0.1,2014-03-21T00:00:00,1,1610612741,CHI,Chicago,38-31,23,20,19,17,0,0,0,0,0,0,0,0,0,0,79,0.364,0.75,0.455,17,36,13,0021301022,1610612741,CHI,Chicago,Jimmy Butler,G,,45:21,3.0,3.0,3.0,2.0,8.0,12.0,7.0,30.0,0.0,2.0,3.0,3.0
0021301022,1610612741,CHI,Chicago,202710,Jimmy Butler,G,,45:21,93.4,94.3,-0.9,0.043,1.0,6.8,0.023,0.028,0.025,6.8,0.636,0.666,0.149,91.32,0.1,2014-03-21T00:00:00,1,1610612754,IND,Indiana,51-18,19,25,31,16,0,0,0,0,0,0,0,0,0,0,91,0.43,0.84,0.182,27,51,16,0021301022,1610612741,CHI,Chicago,Jimmy Butler,G,,45:21,3.0,3.0,3.0,2.0,8.0,12.0,7.0,30.0,0.0,2.0,3.0,3.0
0021301022,1610612741,CHI,Chicago,2550,Kirk Hinrich,G,,28:28,86.3,97.3,-11.0,0.214,3.0,30.0,0.0,0.08,0.038,10.0,0.583,0.583,0.123,85.42,0.101,2014-03-21T00:00:00,1,1610612741,CHI,Chicago,38-31,23,20,19,17,0,0,0,0,0,0,0,0,0,0,79,0.364,0.75,0.455,17,36,13,0021301022,1610612741,CHI,Chicago,Kirk Hinrich,G,,28:28,5.0,0.0,5.0,2.0,8.0,8.0,7.0,20.0,1.0,0.0,2.0,3.0
0021301022,1610612741,CHI,Chicago,2550,Kirk Hinrich,G,,28:28,86.3,97.3,-11.0,0.214,3.0,30.0,0.0,0.08,0.038,10.0,0.583,0.583,0.123,85.42,0.101,2014-03-21T00:00:00,1,1610612754,IND,Indiana,51-18,19,25,31,16,0,0,0,0,0,0,0,0,0,0,91,0.43,0.84,0.182,27,51,16,0021301022,1610612741,CHI,Chicago,Kirk Hinrich,G,,28:28,5.0,0.0,5.0,2.0,8.0,8.0,7.0,20.0,1.0,0.0,2.0,3.0
0021301022,1610612741,CHI,Chicago,201959,Taj Gibson,,,22:14,96.7,90.1,6.6,0.077,0.5,8.6,0.091,0.167,0.125,17.2,0.167,0.405,0.211,98.39,-0.022,2014-03-21T00:00:00,1,1610612741,CHI,Chicago,38-31,23,20,19,17,0,0,0,0,0,0,0,0,0,0,79,0.364,0.75,0.455,17,36,13,0021301022,1610612741,CHI,Chicago,Taj Gibson,,,22:14,2.0,2.0,2.0,2.0,4.0,6.0,0.0,12.0,1.0,0.0,6.0,4.0
0021301022,1610612741,CHI,Chicago,201959,Taj Gibson,,,22:14,96.7,90.1,6.6,0.077,0.5,8.6,0.091,0.167,0.125,17.2,0.167,0.405,0.211,98.39,-0.022,2014-03-21T00:00:00,1,1610612754,IND,Indiana,51-18,19,25,31,16,0,0,0,0,0,0,0,0,0,0,91,0.43,0.84,0.182,27,51,16,0021301022,1610612741,CHI,Chicago,Taj Gibson,,,22:14,2.0,2.0,2.0,2.0,4.0,6.0,0.0,12.0,1.0,0.0,6.0,4.0
0021301022,1610612741,CHI,Chicago,201571,D.J. Augustin,,,29:36,92.1,89.6,2.5,0.3,3.0,14.2,0.0,0.143,0.069,4.7,0.429,0.498,0.29,91.95,0.162,2014-03-21T00:00:00,1,1610612741,CHI,Chicago,38-31,23,20,19,17,0,0,0,0,0,0,0,0,0,0,79,0.364,0.75,0.455,17,36,13,0021301022,1610612741,CHI,Chicago,D.J. Augustin,,,29:36,0.0,2.0,1.0,6.0,6.0,8.0,0.0,16.0,1.0,3.0,2.0,3.0
0021301022,1610612741,CHI,Chicago,201571,D.J. Augustin,,,29:36,92.1,89.6,2.5,0.3,3.0,14.2,0.0,0.143,0.069,4.7,0.429,0.498,0.29,91.95,0.162,2014-03-21T00:00:00,1,1610612754,IND,Indiana,51-18,19,25,31,16,0,0,0,0,0,0,0,0,0,0,91,0.43,0.84,0.182,27,51,16,0021301022,1610612741,CHI,Chicago,D.J. Augustin,,,29:36,0.0,2.0,1.0,6.0,6.0,8.0,0.0,16.0,1.0,3.0,2.0,3.0
0021301022,1610612741,CHI,Chicago,1737,Nazr Mohammed,,,4:31,47.0,110.3,-63.3,0.0,0.0,0.0,0.0,0.25,0.091,0.0,0.0,0.0,0.0,114.18,0.214,2014-03-21T00:00:00,1,1610612741,CHI,Chicago,38-31,23,20,19,17,0,0,0,0,0,0,0,0,0,0,79,0.364,0.75,0.455,17,36,13,0021301022,1610612741,CHI,Chicago,Nazr Mohammed,,,4:31,0.0,0.0,0.0,0.0,4.0,2.0,0.0,4.0,1.0,0.0,0.0,0.0
0021301022,1610612741,CHI,Chicago,1737,Nazr Mohammed,,,4:31,47.0,110.3,-63.3,0.0,0.0,0.0,0.0,0.25,0.091,0.0,0.0,0.0,0.0,114.18,0.214,2014-03-21T00:00:00,1,1610612754,IND,Indiana,51-18,19,25,31,16,0,0,0,0,0,0,0,0,0,0,91,0.43,0.84,0.182,27,51,16,0021301022,1610612741,CHI,Chicago,Nazr Mohammed,,,4:31,0.0,0.0,0.0,0.0,4.0,2.0,0.0,4.0,1.0,0.0,0.0,0.0
0021301022,1610612741,CHI,Chicago,203503,Tony Snell,,,2:39,0.0,160.0,-160.0,0.0,0.0,0.0,0.2,0.0,0.125,0.0,0.0,0.0,0.25,99.62,-0.333,2014-03-21T00:00:00,1,1610612741,CHI,Chicago,38-31,23,20,19,17,0,0,0,0,0,0,0,0,0,0,79,0.364,0.75,0.455,17,36,13,0021301022,1610612741,CHI,Chicago,Tony Snell,,,2:39,0.0,0.0,0.0,0.0,4.0,2.0,0.0,2.0,0.0,1.0,0.0,0.0
0021301022,1610612741,CHI,Chicago,203503,Tony Snell,,,2:39,0.0,160.0,-160.0,0.0,0.0,0.0,0.2,0.0,0.125,0.0,0.0,0.0,0.25,99.62,-0.333,2014-03-21T00:00:00,1,1610612754,IND,Indiana,51-18,19,25,31,16,0,0,0,0,0,0,0,0,0,0,91,0.43,0.84,0.182,27,51,16,0021301022,1610612741,CHI,Chicago,Tony Snell,,,2:39,0.0,0.0,0.0,0.0,4.0,2.0,0.0,2.0,0.0,1.0,0.0,0.0
0021301022,1610612741,CHI,Chicago,202690,Jimmer Fredette,,DNP - Coach's Decision,,,,,,,0.0,,,,,,,0.0,,,2014-03-21T00:00:00,1,1610612741,CHI,Chicago,38-31,23,20,19,17,0,0,0,0,0,0,0,0,0,0,79,0.364,0.75,0.455,17,36,13,0021301022,1610612741,CHI,Chicago,Jimmer Fredette,,DNP - Coach's Decision,,,,,,,,,,,,,
0021301022,1610612741,CHI,Chicago,202690,Jimmer Fredette,,DNP - Coach's Decision,,,,,,,0.0,,,,,,,0.0,,,2014-03-21T00:00:00,1,1610612754,IND,Indiana,51-18,19,25,31,16,0,0,0,0,0,0,0,0,0,0,91,0.43,0.84,0.182,27,51,16,0021301022,1610612741,CHI,Chicago,Jimmer Fredette,,DNP - Coach's Decision,,,,,,,,,,,,,
0021301022,1610612741,CHI,Chicago,203513,Erik Murphy,,DNP - Coach's Decision,,,,,,,0.0,,,,,,,0.0,,,2014-03-21T00:00:00,1,1610612741,CHI,Chicago,38-31,23,20,19,17,0,0,0,0,0,0,0,0,0,0,79,0.364,0.75,0.455,17,36,13,0021301022,1610612741,CHI,Chicago,Erik Murphy,,DNP - Coach's Decision,,,,,,,,,,,,,
0021301022,1610612741,CHI,Chicago,203513,Erik Murphy,,DNP - Coach's Decision,,,,,,,0.0,,,,,,,0.0,,,2014-03-21T00:00:00,1,1610612754,IND,Indiana,51-18,19,25,31,16,0,0,0,0,0,0,0,0,0,0,91,0.43,0.84,0.182,27,51,16,0021301022,1610612741,CHI,Chicago,Erik Murphy,,DNP - Coach's Decision,,,,,,,,,,,,,
0021301022,1610612741,CHI,Chicago,203129,Tornike Shengelia,,DNP - Coach's Decision,,,,,,,0.0,,,,,,,0.0,,,2014-03-21T00:00:00,1,1610612741,CHI,Chicago,38-31,23,20,19,17,0,0,0,0,0,0,0,0,0,0,79,0.364,0.75,0.455,17,36,13,0021301022,1610612741,CHI,Chicago,Tornike Shengelia,,DNP - Coach's Decision,,,,,,,,,,,,,
0021301022,1610612741,CHI,Chicago,203129,Tornike Shengelia,,DNP - Coach's Decision,,,,,,,0.0,,,,,,,0.0,,,2014-03-21T00:00:00,1,1610612754,IND,Indiana,51-18,19,25,31,16,0,0,0,0,0,0,0,0,0,0,91,0.43,0.84,0.182,27,51,16,0021301022,1610612741,CHI,Chicago,Tornike Shengelia,,DNP - Coach's Decision,,,,,,,,,,,,,
0021301022,1610612754,IND,Indiana,202331,Paul George,F,,36:34,95.3,89.2,6.1,0.476,3.33,36.0,0.091,0.273,0.182,10.8,0.269,0.339,0.224,88.13,0.161,2014-03-21T00:00:00,1,1610612741,CHI,Chicago,38-31,23,20,19,17,0,0,0,0,0,0,0,0,0,0,79,0.364,0.75,0.455,17,36,13,0021301022,1610612754,IND,Indiana,Paul George,F,,36:34,2.0,1.0,2.0,2.0,9.0,5.0,8.0,24.0,0.0,1.0,1.0,4.0
0021301022,1610612754,IND,Indiana,202331,Paul George,F,,36:34,95.3,89.2,6.1,0.476,3.33,36.0,0.091,0.273,0.182,10.8,0.269,0.339,0.224,88.13,0.161,2014-03-21T00:00:00,1,1610612754,IND,Indiana,51-18,19,25,31,16,0,0,0,0,0,0,0,0,0,0,91,0.43,0.84,0.182,27,51,16,0021301022,1610612754,IND,Indiana,Paul George,F,,36:34,2.0,1.0,2.0,2.0,9.0,5.0,8.0,24.0,0.0,1.0,1.0,4.0
0021301022,1610612754,IND,Indiana,2561,David West,F,,27:16,111.0,91.9,19.1,0.133,0.0,16.8,0.056,0.217,0.146,0.0,0.444,0.506,0.172,88.3,0.126,2014-03-21T00:00:00,1,1610612741,CHI,Chicago,38-31,23,20,19,17,0,0,0,0,0,0,0,0,0,0,79,0.364,0.75,0.455,17,36,13,0021301022,1610612754,IND,Indiana,David West,F,,27:16,4.0,0.0,0.0,0.0,12.0,3.0,6.0,20.0,1.0,1.0,2.0,1.0
0021301022,1610612754,IND,Indiana,2561,David West,F,,27:16,111.0,91.9,19.1,0.133,0.0,16.8,0.056,0.217,0.146,0.0,0.444,0.506,0.172,88.3,0.126,2014-03-21T00:00:00,1,1610612754,IND,Indiana,51-18,19,25,31,16,0,0,0,0,0,0,0,0,0,0,91,0.43,0.84,0.182,27,51,16,0021301022,1610612754,IND,Indiana,David West,F,,27:16,4.0,0.0,0.0,0.0,12.0,3.0,6.0,20.0,1.0,1.0,2.0,1.0
0021301022,1610612754,IND,Indiana,201579,Roy Hibbert,C,,31:57,101.3,80.8,20.5,0.111,2.0,12.8,0.172,0.188,0.18,6.4,0.3,0.475,0.197,86.54,0.178,2014-03-21T00:00:00,1,1610612741,CHI,Chicago,38-31,23,20,19,17,0,0,0,0,0,0,0,0,0,0,79,0.364,0.75,0.455,17,36,13,0021301022,1610612754,IND,Indiana,Roy Hibbert,C,,31:57,0.0,2.0,0.0,2.0,13.0,5.0,9.0,20.0,4.0,1.0,1.0,5.0
0021301022,1610612754,IND,Indiana,201579,Roy Hibbert,C,,31:57,101.3,80.8,20.5,0.111,2.0,12.8,0.172,0.188,0.18,6.4,0.3,0.475,0.197,86.54,0.178,2014-03-21T00:00:00,1,1610612754,IND,Indiana,51-18,19,25,31,16,0,0,0,0,0,0,0,0,0,0,91,0.43,0.84,0.182,27,51,16,0021301022,1610612754,IND,Indiana,Roy Hibbert,C,,31:57,0.0,2.0,0.0,2.0,13.0,5.0,9.0,20.0,4.0,1.0,1.0,5.0
0021301022,1610612754,IND,Indiana,202362,Lance Stephenson,G,,28:26,99.5,90.5,9.1,0.0,0.0,0.0,0.0,0.115,0.06,25.9,0.636,0.656,0.248,88.8,0.111,2014-03-21T00:00:00,1,1610612741,CHI,Chicago,38-31,23,20,19,17,0,0,0,0,0,0,0,0,0,0,79,0.364,0.75,0.455,17,36,13,0021301022,1610612754,IND,Indiana,Lance Stephenson,G,,28:26,0.0,4.0,5.0,12.0,14.0,5.0,8.0,24.0,0.0,1.0,2.0,2.0
0021301022,1610612754,IND,Indiana,202362,Lance Stephenson,G,,28:26,99.5,90.5,9.1,0.0,0.0,0.0,0.0,0.115,0.06,25.9,0.636,0.656,0.248,88.8,0.111,2014-03-21T00:00:00,1,1610612754,IND,Indiana,51-18,19,25,31,16,0,0,0,0,0,0,0,0,0,0,91,0.43,0.84,0.182,27,51,16,0021301022,1610612754,IND,Indiana,Lance Stephenson,G,,28:26,0.0,4.0,5.0,12.0,14.0,5.0,8.0,24.0,0.0,1.0,2.0,2.0
0021301022,1610612754,IND,Indiana,201588,George Hill,G,,35:47,96.9,91.2,5.7,0.15,3.0,19.0,0.032,0.065,0.048,6.3,0.3,0.425,0.163,89.1,0.044,2014-03-21T00:00:00,1,1610612741,CHI,Chicago,38-31,23,20,19,17,0,0,0,0,0,0,0,0,0,0,79,0.364,0.75,0.455,17,36,13,0021301022,1610612754,IND,Indiana,George Hill,G,,35:47,2.0,0.0,0.0,6.0,14.0,5.0,8.0,26.0,0.0,1.0,4.0,4.0
0021301022,1610612754,IND,Indiana,201588,George Hill,G,,35:47,96.9,91.2,5.7,0.15,3.0,19.0,0.032,0.065,0.048,6.3,0.3,0.425,0.163,89.1,0.044,2014-03-21T00:00:00,1,1610612754,IND,Indiana,51-18,19,25,31,16,0,0,0,0,0,0,0,0,0,0,91,0.43,0.84,0.182,27,51,16,0021301022,1610612754,IND,Indiana,George Hill,G,,35:47,2.0,0.0,0.0,6.0,14.0,5.0,8.0,26.0,0.0,1.0,4.0,4.0
0021301022,1610612754,IND,Indiana,101133,Ian Mahinmi,,,16:03,92.1,98.2,-6.2,0.0,0.0,0.0,0.1,0.0,0.038,0.0,0.0,0.532,0.102,102.22,0.01,2014-03-21T00:00:00,1,1610612741,CHI,Chicago,38-31,23,20,19,17,0,0,0,0,0,0,0,0,0,0,79,0.364,0.75,0.455,17,36,13,0021301022,1610612754,IND,Indiana,Ian Mahinmi,,,16:03,0.0,0.0,0.0,0.0,7.0,4.0,4.0,10.0,0.0,1.0,2.0,3.0
0021301022,1610612754,IND,Indiana,101133,Ian Mahinmi,,,16:03,92.1,98.2,-6.2,0.0,0.0,0.0,0.1,0.0,0.038,0.0,0.0,0.532,0.102,102.22,0.01,2014-03-21T00:00:00,1,1610612754,IND,Indiana,51-18,19,25,31,16,0,0,0,0,0,0,0,0,0,0,91,0.43,0.84,0.182,27,51,16,0021301022,1610612754,IND,Indiana,Ian Mahinmi,,,16:03,0.0,0.0,0.0,0.0,7.0,4.0,4.0,10.0,0.0,1.0,2.0,3.0
0021301022,1610612754,IND,Indiana,202323,Evan Turner,,,20:34,91.7,84.4,7.3,0.5,2.33,37.1,0.067,0.043,0.053,15.9,0.375,0.338,0.249,99.33,0.078,2014-03-21T00:00:00,1,1610612741,CHI,Chicago,38-31,23,20,19,17,0,0,0,0,0,0,0,0,0,0,79,0.364,0.75,0.455,17,36,13,0021301022,1610612754,IND,Indiana,Evan Turner,,,20:34,0.0,2.0,0.0,2.0,9.0,4.0,4.0,10.0,0.0,3.0,1.0,2.0
0021301022,1610612754,IND,Indiana,202323,Evan Turner,,,20:34,91.7,84.4,7.3,0.5,2.33,37.1,0.067,0.043,0.053,15.9,0.375,0.338,0.249,99.33,0.078,2014-03-21T00:00:00,1,1610612754,IND,Indiana,51-18,19,25,31,16,0,0,0,0,0,0,0,0,0,0,91,0.43,0.84,0.182,27,51,16,0021301022,1610612754,IND,Indiana,Evan Turner,,,20:34,0.0,2.0,0.0,2.0,9.0,4.0,4.0,10.0,0.0,3.0,1.0,2.0
0021301022,1610612754,IND,Indiana,203142,Chris Copeland,,,9:40,115.7,72.7,43.0,0.125,1.0,20.0,0.0,0.231,0.15,20.0,0.833,0.833,0.175,100.53,0.215,2014-03-21T00:00:00,1,1610612741,CHI,Chicago,38-31,23,20,19,17,0,0,0,0,0,0,0,0,0,0,79,0.364,0.75,0.455,17,36,13,0021301022,1610612754,IND,Indiana,Chris Copeland,,,9:40,0.0,0.0,0.0,2.0,5.0,4.0,3.0,2.0,2.0,0.0,1.0,0.0
0021301022,1610612754,IND,Indiana,203142,Chris Copeland,,,9:40,115.7,72.7,43.0,0.125,1.0,20.0,0.0,0.231,0.15,20.0,0.833,0.833,0.175,100.53,0.215,2014-03-21T00:00:00,1,1610612754,IND,Indiana,51-18,19,25,31,16,0,0,0,0,0,0,0,0,0,0,91,0.43,0.84,0.182,27,51,16,0021301022,1610612754,IND,Indiana,Chris Copeland,,,9:40,0.0,0.0,0.0,2.0,5.0,4.0,3.0,2.0,2.0,0.0,1.0,0.0
0021301022,1610612754,IND,Indiana,2449,Luis Scola,,,20:29,83.7,81.7,1.9,0.0,0.0,0.0,0.05,0.2,0.133,7.2,0.75,0.738,0.291,96.39,0.327,2014-03-21T00:00:00,1,1610612741,CHI,Chicago,38-31,23,20,19,17,0,0,0,0,0,0,0,0,0,0,79,0.364,0.75,0.455,17,36,13,0021301022,1610612754,IND,Indiana,Luis Scola,,,20:29,4.0,5.0,0.0,6.0,8.0,6.0,7.0,10.0,1.0,1.0,3.0,3.0
0021301022,1610612754,IND,Indiana,2449,Luis Scola,,,20:29,83.7,81.7,1.9,0.0,0.0,0.0,0.05,0.2,0.133,7.2,0.75,0.738,0.291,96.39,0.327,2014-03-21T00:00:00,1,1610612754,IND,Indiana,51-18,19,25,31,16,0,0,0,0,0,0,0,0,0,0,91,0.43,0.84,0.182,27,51,16,0021301022,1610612754,IND,Indiana,Luis Scola,,,20:29,4.0,5.0,0.0,6.0,8.0,6.0,7.0,10.0,1.0,1.0,3.0,3.0
0021301022,1610612754,IND,Indiana,202388,Donald Sloan,,,12:13,100.5,77.4,23.1,0.182,2.0,50.0,0.0,0.235,0.16,25.0,0.0,0.0,0.072,99.61,0.093,2014-03-21T00:00:00,1,1610612741,CHI,Chicago,38-31,23,20,19,17,0,0,0,0,0,0,0,0,0,0,79,0.364,0.75,0.455,17,36,13,0021301022,1610612754,IND,Indiana,Donald Sloan,,,12:13,0.0,0.0,0.0,0.0,6.0,4.0,5.0,4.0,1.0,0.0,1.0,1.0
0021301022,1610612754,IND,Indiana,202388,Donald Sloan,,,12:13,100.5,77.4,23.1,0.182,2.0,50.0,0.0,0.235,0.16,25.0,0.0,0.0,0.072,99.61,0.093,2014-03-21T00:00:00,1,1610612754,IND,Indiana,51-18,19,25,31,16,0,0,0,0,0,0,0,0,0,0,91,0.43,0.84,0.182,27,51,16,0021301022,1610612754,IND,Indiana,Donald Sloan,,,12:13,0.0,0.0,0.0,0.0,6.0,4.0,5.0,4.0,1.0,0.0,1.0,1.0
0021301022,1610612754,IND,Indiana,2446,Rasual Butler,,,1:01,0.0,150.0,-150.0,0.0,0.0,0.0,0.0,0.0,0.0,100.0,0.0,0.0,1.0,70.82,-0.25,2014-03-21T00:00:00,1,1610612741,CHI,Chicago,38-31,23,20,19,17,0,0,0,0,0,0,0,0,0,0,79,0.364,0.75,0.455,17,36,13,0021301022,1610612754,IND,Indiana,Rasual Butler,,,1:01,0.0,0.0,0.0,0.0,3.0,0.0,3.0,0.0,0.0,0.0,0.0,0.0
0021301022,1610612754,IND,Indiana,2446,Rasual Butler,,,1:01,0.0,150.0,-150.0,0.0,0.0,0.0,0.0,0.0,0.0,100.0,0.0,0.0,1.0,70.82,-0.25,2014-03-21T00:00:00,1,1610612754,IND,Indiana,51-18,19,25,31,16,0,0,0,0,0,0,0,0,0,0,91,0.43,0.84,0.182,27,51,16,0021301022,1610612754,IND,Indiana,Rasual Butler,,,1:01,0.0,0.0,0.0,0.0,3.0,0.0,3.0,0.0,0.0,0.0,0.0,0.0
0021301022,1610612754,IND,Indiana,202730,Lavoy Allen,,DNP - Coach's Decision,,,,,,,0.0,,,,,,,0.0,,,2014-03-21T00:00:00,1,1610612741,CHI,Chicago,38-31,23,20,19,17,0,0,0,0,0,0,0,0,0,0,79,0.364,0.75,0.455,17,36,13,0021301022,1610612754,IND,Indiana,Lavoy Allen,,DNP - Coach's Decision,,,,,,,,,,,,,
0021301022,1610612754,IND,Indiana,202730,Lavoy Allen,,DNP - Coach's Decision,,,,,,,0.0,,,,,,,0.0,,,2014-03-21T00:00:00,1,1610612754,IND,Indiana,51-18,19,25,31,16,0,0,0,0,0,0,0,0,0,0,91,0.43,0.84,0.182,27,51,16,0021301022,1610612754,IND,Indiana,Lavoy Allen,,DNP - Coach's Decision,,,,,,,,,,,,,
0021301022,1610612754,IND,Indiana,203524,Solomon Hill,,DNP - Coach's Decision,,,,,,,0.0,,,,,,,0.0,,,2014-03-21T00:00:00,1,1610612741,CHI,Chicago,38-31,23,20,19,17,0,0,0,0,0,0,0,0,0,0,79,0.364,0.75,0.455,17,36,13,0021301022,1610612754,IND,Indiana,Solomon Hill,,DNP - Coach's Decision,,,,,,,,,,,,,
0021301022,1610612754,IND,Indiana,203524,Solomon Hill,,DNP - Coach's Decision,,,,,,,0.0,,,,,,,0.0,,,2014-03-21T00:00:00,1,1610612754,IND,Indiana,51-18,19,25,31,16,0,0,0,0,0,0,0,0,0,0,91,0.43,0.84,0.182,27,51,16,0021301022,1610612754,IND,Indiana,Solomon Hill,,DNP - Coach's Decision,,,,,,,,,,,,,
