GAME_ID_x,TEAM_ID_x,TEAM_ABBREVIATION_x,TEAM_CITY_x,PLAYER_ID,PLAYER_NAME_x,START_POSITION_x,COMMENT_x,MIN_x,OFF_RATING,DEF_RATING,NET_RATING,AST_PCT,AST_TOV,AST_RATIO,OREB_PCT,DREB_PCT,REB_PCT,TM_TOV_PCT,EFG_PCT,TS_PCT,USG_PCT,PACE,PIE,GAME_DATE_EST,GAME_SEQUENCE,TEAM_ID_y,TEAM_ABBREVIATION_y,TEAM_CITY_NAME,TEAM_WINS_LOSSES,PTS_QTR1,PTS_QTR2,PTS_QTR3,PTS_QTR4,PTS_OT1,PTS_OT2,PTS_OT3,PTS_OT4,PTS_OT5,PTS_OT6,PTS_OT7,PTS_OT8,PTS_OT9,PTS_OT10,PTS,FG_PCT,FT_PCT,FG3_PCT,AST,REB,TOV,GAME_ID_y,TEAM_ID,TEAM_ABBREVIATION,TEAM_CITY_y,PLAYER_NAME_y,START_POSITION_y,COMMENT_y,MIN_y,PTS_OFF_TOV,PTS_2ND_CHANCE,PTS_FB,PTS_PAINT,OPP_PTS_OFF_TOV,OPP_PTS_2ND_CHANCE,OPP_PTS_FB,OPP_PTS_PAINT,BLK,BLKA,PF,PFD
0021300527,1610612753,ORL,Orlando,201167,Arron Afflalo,F,,39:16,97.4,122.9,-25.5,0.235,2.0,17.0,0.026,0.114,0.068,8.5,0.571,0.628,0.23,94.28,0.106,2014-01-08T00:00:00,8,1610612753,ORL,Orlando,10-25,24,27,24,19,0,0,0,0,0,0,0,0,0,0,94,0.398,0.778,0.35,21,42,9,0021300527,1610612753,ORL,Orlando,Arron Afflalo,F,,39:16,0.0,4.0,0.0,0.0,12.0,13.0,14.0,38.0,0.0,2.0,2.0,4.0
0021300527,1610612753,ORL,Orlando,201167,Arron Afflalo,F,,39:16,97.4,122.9,-25.5,0.235,2.0,17.0,0.026,0.114,0.068,8.5,0.571,0.628,0.23,94.28,0.106,2014-01-08T00:00:00,8,1610612757,POR,Portland,27-9,24,21,26,39,0,0,0,0,0,0,0,0,0,0,110,0.474,0.846,0.3,27,47,7,0021300527,1610612753,ORL,Orlando,Arron Afflalo,F,,39:16,0.0,4.0,0.0,0.0,12.0,13.0,14.0,38.0,0.0,2.0,2.0,4.0
0021300527,1610612753,ORL,Orlando,202699,Tobias Harris,F,,36:49,98.7,122.4,-23.7,0.05,1.0,6.9,0.026,0.219,0.114,6.9,0.458,0.442,0.172,94.29,0.063,2014-01-08T00:00:00,8,1610612753,ORL,Orlando,10-25,24,27,24,19,0,0,0,0,0,0,0,0,0,0,94,0.398,0.778,0.35,21,42,9,0021300527,1610612753,ORL,Orlando,Tobias Harris,F,,36:49,2.0,0.0,0.0,6.0,6.0,14.0,14.0,30.0,1.0,1.0,2.0,1.0
0021300527,1610612753,ORL,Orlando,202699,Tobias Harris,F,,36:49,98.7,122.4,-23.7,0.05,1.0,6.9,0.026,0.219,0.114,6.9,0.458,0.442,0.172,94.29,0.063,2014-01-08T00:00:00,8,1610612757,POR,Portland,27-9,24,21,26,39,0,0,0,0,0,0,0,0,0,0,110,0.474,0.846,0.3,27,47,7,0021300527,1610612753,ORL,Orlando,Tobias Harris,F,,36:49,2.0,0.0,0.0,6.0,6.0,14.0,14.0,30.0,1.0,1.0,2.0,1.0
0021300527,1610612753,ORL,Orlando,201175,Glen Davis,C,,36:07,101.5,122.4,-20.9,0.111,0.0,9.6,0.081,0.097,0.088,0.0,0.389,0.424,0.245,95.45,0.053,2014-01-08T00:00:00,8,1610612753,ORL,Orlando,10-25,24,27,24,19,0,0,0,0,0,0,0,0,0,0,94,0.398,0.778,0.35,21,42,9,0021300527,1610612753,ORL,Orlando,Glen Davis,C,,36:07,0.0,2.0,4.0,6.0,6.0,14.0,14.0,30.0,0.0,2.0,3.0,2.0
0021300527,1610612753,ORL,Orlando,201175,Glen Davis,C,,36:07,101.5,122.4,-20.9,0.111,0.0,9.6,0.081,0.097,0.088,0.0,0.389,0.424,0.245,95.45,0.053,2014-01-08T00:00:00,8,1610612757,POR,Portland,27-9,24,21,26,39,0,0,0,0,0,0,0,0,0,0,110,0.474,0.846,0.3,27,47,7,0021300527,1610612753,ORL,Orlando,Glen Davis,C,,36:07,0.0,2.0,4.0,6.0,6.0,14.0,14.0,30.0,0.0,2.0,3.0,2.0
0021300527,1610612753,ORL,Orlando,203506,Victor Oladipo,G,,38:37,94.8,113.2,-18.3,0.087,0.67,12.1,0.0,0.114,0.055,18.2,0.438,0.608,0.173,97.15,0.073,2014-01-08T00:00:00,8,1610612753,ORL,Orlando,10-25,24,27,24,19,0,0,0,0,0,0,0,0,0,0,94,0.398,0.778,0.35,21,42,9,0021300527,1610612753,ORL,Orlando,Victor Oladipo,G,,38:37,2.0,2.0,3.0,4.0,12.0,18.0,14.0,28.0,1.0,0.0,2.0,4.0
0021300527,1610612753,ORL,Orlando,203506,Victor Oladipo,G,,38:37,94.8,113.2,-18.3,0.087,0.67,12.1,0.0,0.114,0.055,18.2,0.438,0.608,0.173,97.15,0.073,2014-01-08T00:00:00,8,1610612757,POR,Portland,27-9,24,21,26,39,0,0,0,0,0,0,0,0,0,0,110,0.474,0.846,0.3,27,47,7,0021300527,1610612753,ORL,Orlando,Victor Oladipo,G,,38:37,2.0,2.0,3.0,4.0,12.0,18.0,14.0,28.0,1.0,0.0,2.0,4.0
0021300527,1610612753,ORL,Orlando,2749,Jameer Nelson,G,,39:58,107.5,120.7,-13.2,0.435,10.0,33.5,0.027,0.118,0.07,3.3,0.417,0.45,0.236,94.2,0.102,2014-01-08T00:00:00,8,1610612753,ORL,Orlando,10-25,24,27,24,19,0,0,0,0,0,0,0,0,0,0,94,0.398,0.778,0.35,21,42,9,0021300527,1610612753,ORL,Orlando,Jameer Nelson,G,,39:58,4.0,3.0,2.0,4.0,8.0,14.0,16.0,34.0,0.0,2.0,1.0,1.0
0021300527,1610612753,ORL,Orlando,2749,Jameer Nelson,G,,39:58,107.5,120.7,-13.2,0.435,10.0,33.5,0.027,0.118,0.07,3.3,0.417,0.45,0.236,94.2,0.102,2014-01-08T00:00:00,8,1610612757,POR,Portland,27-9,24,21,26,39,0,0,0,0,0,0,0,0,0,0,110,0.474,0.846,0.3,27,47,7,0021300527,1610612753,ORL,Orlando,Jameer Nelson,G,,39:58,4.0,3.0,2.0,4.0,8.0,14.0,16.0,34.0,0.0,2.0,1.0,1.0
0021300527,1610612753,ORL,Orlando,203117,Doron Lamb,,,9:26,100.6,73.4,27.3,0.125,1.0,16.7,0.0,0.111,0.056,16.7,0.25,0.25,0.229,100.04,0.037,2014-01-08T00:00:00,8,1610612753,ORL,Orlando,10-25,24,27,24,19,0,0,0,0,0,0,0,0,0,0,94,0.398,0.778,0.35,21,42,9,0021300527,1610612753,ORL,Orlando,Doron Lamb,,,9:26,0.0,0.0,0.0,0.0,2.0,7.0,2.0,4.0,0.0,0.0,0.0,0.0
0021300527,1610612753,ORL,Orlando,203117,Doron Lamb,,,9:26,100.6,73.4,27.3,0.125,1.0,16.7,0.0,0.111,0.056,16.7,0.25,0.25,0.229,100.04,0.037,2014-01-08T00:00:00,8,1610612757,POR,Portland,27-9,24,21,26,39,0,0,0,0,0,0,0,0,0,0,110,0.474,0.846,0.3,27,47,7,0021300527,1610612753,ORL,Orlando,Doron Lamb,,,9:26,0.0,0.0,0.0,0.0,2.0,7.0,2.0,4.0,0.0,0.0,0.0,0.0
0021300527,1610612753,ORL,Orlando,203090,Maurice Harkless,,,15:30,91.1,105.5,-14.5,0.0,0.0,0.0,0.071,0.143,0.107,0.0,0.5,0.615,0.132,96.26,0.138,2014-01-08T00:00:00,8,1610612753,ORL,Orlando,10-25,24,27,24,19,0,0,0,0,0,0,0,0,0,0,94,0.398,0.778,0.35,21,42,9,0021300527,1610612753,ORL,Orlando,Maurice Harkless,,,15:30,2.0,4.0,2.0,4.0,8.0,8.0,2.0,20.0,0.0,2.0,0.0,1.0
0021300527,1610612753,ORL,Orlando,203090,Maurice Harkless,,,15:30,91.1,105.5,-14.5,0.0,0.0,0.0,0.071,0.143,0.107,0.0,0.5,0.615,0.132,96.26,0.138,2014-01-08T00:00:00,8,1610612757,POR,Portland,27-9,24,21,26,39,0,0,0,0,0,0,0,0,0,0,110,0.474,0.846,0.3,27,47,7,0021300527,1610612753,ORL,Orlando,Maurice Harkless,,,15:30,2.0,4.0,2.0,4.0,8.0,8.0,2.0,20.0,0.0,2.0,0.0,1.0
0021300527,1610612753,ORL,Orlando,203094,Andrew Nicholson,,,11:11,100.2,87.5,12.7,0.167,0.0,17.0,0.125,0.364,0.263,0.0,0.5,0.512,0.181,100.78,0.191,2014-01-08T00:00:00,8,1610612753,ORL,Orlando,10-25,24,27,24,19,0,0,0,0,0,0,0,0,0,0,94,0.398,0.778,0.35,21,42,9,0021300527,1610612753,ORL,Orlando,Andrew Nicholson,,,11:11,0.0,0.0,1.0,0.0,8.0,6.0,2.0,12.0,0.0,0.0,1.0,2.0
0021300527,1610612753,ORL,Orlando,203094,Andrew Nicholson,,,11:11,100.2,87.5,12.7,0.167,0.0,17.0,0.125,0.364,0.263,0.0,0.5,0.512,0.181,100.78,0.191,2014-01-08T00:00:00,8,1610612757,POR,Portland,27-9,24,21,26,39,0,0,0,0,0,0,0,0,0,0,110,0.474,0.846,0.3,27,47,7,0021300527,1610612753,ORL,Orlando,Andrew Nicholson,,,11:11,0.0,0.0,1.0,0.0,8.0,6.0,2.0,12.0,0.0,0.0,1.0,2.0
0021300527,1610612753,ORL,Orlando,101131,Jason Maxiell,,,10:40,90.1,90.5,-0.3,0.0,0.0,0.0,0.25,0.2,0.222,100.0,0.0,0.0,0.04,94.68,0.034,2014-01-08T00:00:00,8,1610612753,ORL,Orlando,10-25,24,27,24,19,0,0,0,0,0,0,0,0,0,0,94,0.398,0.778,0.35,21,42,9,0021300527,1610612753,ORL,Orlando,Jason Maxiell,,,10:40,0.0,0.0,0.0,0.0,8.0,6.0,2.0,10.0,0.0,0.0,1.0,0.0
0021300527,1610612753,ORL,Orlando,101131,Jason Maxiell,,,10:40,90.1,90.5,-0.3,0.0,0.0,0.0,0.25,0.2,0.222,100.0,0.0,0.0,0.04,94.68,0.034,2014-01-08T00:00:00,8,1610612757,POR,Portland,27-9,24,21,26,39,0,0,0,0,0,0,0,0,0,0,110,0.474,0.846,0.3,27,47,7,0021300527,1610612753,ORL,Orlando,Jason Maxiell,,,10:40,0.0,0.0,0.0,0.0,8.0,6.0,2.0,10.0,0.0,0.0,1.0,0.0
0021300527,1610612753,ORL,Orlando,202734,E'Twaun Moore,,,1:13,104.2,66.7,37.5,0.0,0.0,0.0,0.0,0.0,0.0,0.0,0.0,0.568,0.306,115.99,0.0,2014-01-08T00:00:00,8,1610612753,ORL,Orlando,10-25,24,27,24,19,0,0,0,0,0,0,0,0,0,0,94,0.398,0.778,0.35,21,42,9,0021300527,1610612753,ORL,Orlando,E'Twaun Moore,,,1:13,0.0,0.0,0.0,0.0,0.0,0.0,0.0,2.0,0.0,0.0,0.0,1.0
0021300527,1610612753,ORL,Orlando,202734,E'Twaun Moore,,,1:13,104.2,66.7,37.5,0.0,0.0,0.0,0.0,0.0,0.0,0.0,0.0,0.568,0.306,115.99,0.0,2014-01-08T00:00:00,8,1610612757,POR,Portland,27-9,24,21,26,39,0,0,0,0,0,0,0,0,0,0,110,0.474,0.846,0.3,27,47,7,0021300527,1610612753,ORL,Orlando,E'Twaun Moore,,,1:13,0.0,0.0,0.0,0.0,0.0,0.0,0.0,2.0,0.0,0.0,0.0,1.0
0021300527,1610612753,ORL,Orlando,203124,Kyle O'Quinn,,,1:13,104.2,66.7,37.5,0.0,0.0,0.0,0.0,0.5,0.333,0.0,0.0,0.0,0.347,115.99,0.0,2014-01-08T00:00:00,8,1610612753,ORL,Orlando,10-25,24,27,24,19,0,0,0,0,0,0,0,0,0,0,94,0.398,0.778,0.35,21,42,9,0021300527,1610612753,ORL,Orlando,Kyle O'Quinn,,,1:13,0.0,0.0,0.0,0.0,0.0,0.0,0.0,2.0,0.0,0.0,0.0,0.0
0021300527,1610612753,ORL,Orlando,203124,Kyle O'Quinn,,,1:13,104.2,66.7,37.5,0.0,0.0,0.0,0.0,0.5,0.333,0.0,0.0,0.0,0.347,115.99,0.0,2014-01-08T00:00:00,8,1610612757,POR,Portland,27-9,24,21,26,39,0,0,0,0,0,0,0,0,0,0,110,0.474,0.846,0.3,27,47,7,0021300527,1610612753,ORL,Orlando,Kyle O'Quinn,,,1:13,0.0,0.0,0.0,0.0,0.0,0.0,0.0,2.0,0.0,0.0,0.0,0.0
0021300527,1610612753,ORL,Orlando,101179,Ronnie Price,,NWT - sinus infection,,,,,,,0.0,,,,,,,0.0,,,2014-01-08T00:00:00,8,1610612753,ORL,Orlando,10-25,24,27,24,19,0,0,0,0,0,0,0,0,0,0,94,0.398,0.778,0.35,21,42,9,0021300527,1610612753,ORL,Orlando,Ronnie Price,,NWT - sinus infection,,,,,,,,,,,,,
0021300527,1610612753,ORL,Orlando,101179,Ronnie Price,,NWT - sinus infection,,,,,,,0.0,,,,,,,0.0,,,2014-01-08T00:00:00,8,1610612757,POR,Portland,27-9,24,21,26,39,0,0,0,0,0,0,0,0,0,0,110,0.474,0.846,0.3,27,47,7,0021300527,1610612753,ORL,Orlando,Ronnie Price,,NWT - sinus infection,,,,,,,,,,,,,
0021300527,1610612753,ORL,Orlando,202696,Nikola Vucevic,,NWT - concussion,,,,,,,0.0,,,,,,,0.0,,,2014-01-08T00:00:00,8,1610612753,ORL,Orlando,10-25,24,27,24,19,0,0,0,0,0,0,0,0,0,0,94,0.398,0.778,0.35,21,42,9,0021300527,1610612753,ORL,Orlando,Nikola Vucevic,,NWT - concussion,,,,,,,,,,,,,
0021300527,1610612753,ORL,Orlando,202696,Nikola Vucevic,,NWT - concussion,,,,,,,0.0,,,,,,,0.0,,,2014-01-08T00:00:00,8,1610612757,POR,Portland,27-9,24,21,26,39,0,0,0,0,0,0,0,0,0,0,110,0.474,0.846,0.3,27,47,7,0021300527,1610612753,ORL,Orlando,Nikola Vucevic,,NWT - concussion,,,,,,,,,,,,,
0021300527,1610612757,POR,Portland,201587,Nicolas Batum,F,,33:59,119.2,91.7,27.5,0.519,7.0,46.7,0.037,0.25,0.159,6.7,0.5,0.5,0.211,95.74,0.184,2014-01-08T00:00:00,8,1610612753,ORL,Orlando,10-25,24,27,24,19,0,0,0,0,0,0,0,0,0,0,94,0.398,0.778,0.35,21,42,9,0021300527,1610612757,POR,Portland,Nicolas Batum,F,,33:59,2.0,3.0,5.0,2.0,10.0,10.0,4.0,18.0,1.0,0.0,3.0,1.0
0021300527,1610612757,POR,Portland,201587,Nicolas Batum,F,,33:59,119.2,91.7,27.5,0.519,7.0,46.7,0.037,0.25,0.159,6.7,0.5,0.5,0.211,95.74,0.184,2014-01-08T00:00:00,8,1610612757,POR,Portland,27-9,24,21,26,39,0,0,0,0,0,0,0,0,0,0,110,0.474,0.846,0.3,27,47,7,0021300527,1610612757,POR,Portland,Nicolas Batum,F,,33:59,2.0,3.0,5.0,2.0,10.0,10.0,4.0,18.0,1.0,0.0,3.0,1.0
0021300527,1610612757,POR,Portland,200746,LaMarcus Aldridge,F,,34:54,116.7,99.8,16.9,0.067,0.0,3.6,0.0,0.243,0.132,0.0,0.64,0.673,0.349,93.44,0.267,2014-01-08T00:00:00,8,1610612753,ORL,Orlando,10-25,24,27,24,19,0,0,0,0,0,0,0,0,0,0,94,0.398,0.778,0.35,21,42,9,0021300527,1610612757,POR,Portland,LaMarcus Aldridge,F,,34:54,4.0,4.0,7.0,16.0,8.0,11.0,8.0,20.0,3.0,0.0,1.0,3.0
0021300527,1610612757,POR,Portland,200746,LaMarcus Aldridge,F,,34:54,116.7,99.8,16.9,0.067,0.0,3.6,0.0,0.243,0.132,0.0,0.64,0.673,0.349,93.44,0.267,2014-01-08T00:00:00,8,1610612757,POR,Portland,27-9,24,21,26,39,0,0,0,0,0,0,0,0,0,0,110,0.474,0.846,0.3,27,47,7,0021300527,1610612757,POR,Portland,LaMarcus Aldridge,F,,34:54,4.0,4.0,7.0,16.0,8.0,11.0,8.0,20.0,3.0,0.0,1.0,3.0
0021300527,1610612757,POR,Portland,201577,Robin Lopez,C,,25:01,99.0,91.4,7.6,0.0,0.0,0.0,0.154,0.107,0.13,0.0,0.667,0.735,0.086,99.89,0.108,2014-01-08T00:00:00,8,1610612753,ORL,Orlando,10-25,24,27,24,19,0,0,0,0,0,0,0,0,0,0,94,0.398,0.778,0.35,21,42,9,0021300527,1610612757,POR,Portland,Robin Lopez,C,,25:01,0.0,2.0,0.0,4.0,4.0,10.0,5.0,12.0,2.0,0.0,1.0,2.0
0021300527,1610612757,POR,Portland,201577,Robin Lopez,C,,25:01,99.0,91.4,7.6,0.0,0.0,0.0,0.154,0.107,0.13,0.0,0.667,0.735,0.086,99.89,0.108,2014-01-08T00:00:00,8,1610612757,POR,Portland,27-9,24,21,26,39,0,0,0,0,0,0,0,0,0,0,110,0.474,0.846,0.3,27,47,7,0021300527,1610612757,POR,Portland,Robin Lopez,C,,25:01,0.0,2.0,0.0,4.0,4.0,10.0,5.0,12.0,2.0,0.0,1.0,2.0
0021300527,1610612757,POR,Portland,202083,Wesley Matthews,G,,30:07,114.2,95.4,18.8,0.19,4.0,17.5,0.063,0.097,0.079,4.4,0.441,0.475,0.269,97.29,0.078,2014-01-08T00:00:00,8,1610612753,ORL,Orlando,10-25,24,27,24,19,0,0,0,0,0,0,0,0,0,0,94,0.398,0.778,0.35,21,42,9,0021300527,1610612757,POR,Portland,Wesley Matthews,G,,30:07,4.0,4.0,2.0,6.0,2.0,11.0,8.0,10.0,0.0,1.0,4.0,1.0
0021300527,1610612757,POR,Portland,202083,Wesley Matthews,G,,30:07,114.2,95.4,18.8,0.19,4.0,17.5,0.063,0.097,0.079,4.4,0.441,0.475,0.269,97.29,0.078,2014-01-08T00:00:00,8,1610612757,POR,Portland,27-9,24,21,26,39,0,0,0,0,0,0,0,0,0,0,110,0.474,0.846,0.3,27,47,7,0021300527,1610612757,POR,Portland,Wesley Matthews,G,,30:07,4.0,4.0,2.0,6.0,2.0,11.0,8.0,10.0,0.0,1.0,4.0,1.0
0021300527,1610612757,POR,Portland,203081,Damian Lillard,G,,33:38,125.6,103.3,22.3,0.071,2.0,13.3,0.0,0.2,0.108,6.7,0.458,0.458,0.18,94.25,0.075,2014-01-08T00:00:00,8,1610612753,ORL,Orlando,10-25,24,27,24,19,0,0,0,0,0,0,0,0,0,0,94,0.398,0.778,0.35,21,42,9,0021300527,1610612757,POR,Portland,Damian Lillard,G,,33:38,0.0,0.0,0.0,2.0,4.0,11.0,9.0,10.0,1.0,1.0,0.0,1.0
0021300527,1610612757,POR,Portland,203081,Damian Lillard,G,,33:38,125.6,103.3,22.3,0.071,2.0,13.3,0.0,0.2,0.108,6.7,0.458,0.458,0.18,94.25,0.075,2014-01-08T00:00:00,8,1610612757,POR,Portland,27-9,24,21,26,39,0,0,0,0,0,0,0,0,0,0,110,0.474,0.846,0.3,27,47,7,0021300527,1610612757,POR,Portland,Damian Lillard,G,,33:38,0.0,0.0,0.0,2.0,4.0,11.0,9.0,10.0,1.0,1.0,0.0,1.0
0021300527,1610612757,POR,Portland,2590,Mo Williams,,,29:55,113.2,109.6,3.6,0.167,4.0,25.9,0.0,0.042,0.021,6.5,0.55,0.575,0.178,93.6,0.071,2014-01-08T00:00:00,8,1610612753,ORL,Orlando,10-25,24,27,24,19,0,0,0,0,0,0,0,0,0,0,94,0.398,0.778,0.35,21,42,9,0021300527,1610612757,POR,Portland,Mo Williams,,,29:55,2.0,3.0,2.0,4.0,8.0,9.0,12.0,20.0,0.0,0.0,4.0,1.0
0021300527,1610612757,POR,Portland,2590,Mo Williams,,,29:55,113.2,109.6,3.6,0.167,4.0,25.9,0.0,0.042,0.021,6.5,0.55,0.575,0.178,93.6,0.071,2014-01-08T00:00:00,8,1610612757,POR,Portland,27-9,24,21,26,39,0,0,0,0,0,0,0,0,0,0,110,0.474,0.846,0.3,27,47,7,0021300527,1610612757,POR,Portland,Mo Williams,,,29:55,2.0,3.0,2.0,4.0,8.0,9.0,12.0,20.0,0.0,0.0,4.0,1.0
0021300527,1610612757,POR,Portland,200777,Joel Freeland,,,18:00,112.9,111.1,1.8,0.063,1.0,17.0,0.2,0.0,0.103,17.0,0.333,0.387,0.116,92.8,0.044,2014-01-08T00:00:00,8,1610612753,ORL,Orlando,10-25,24,27,24,19,0,0,0,0,0,0,0,0,0,0,94,0.398,0.778,0.35,21,42,9,0021300527,1610612757,POR,Portland,Joel Freeland,,,18:00,0.0,0.0,0.0,0.0,6.0,5.0,7.0,12.0,1.0,0.0,0.0,2.0
0021300527,1610612757,POR,Portland,200777,Joel Freeland,,,18:00,112.9,111.1,1.8,0.063,1.0,17.0,0.2,0.0,0.103,17.0,0.333,0.387,0.116,92.8,0.044,2014-01-08T00:00:00,8,1610612757,POR,Portland,27-9,24,21,26,39,0,0,0,0,0,0,0,0,0,0,110,0.474,0.846,0.3,27,47,7,0021300527,1610612757,POR,Portland,Joel Freeland,,,18:00,0.0,0.0,0.0,0.0,6.0,5.0,7.0,12.0,1.0,0.0,0.0,2.0
0021300527,1610612757,POR,Portland,203468,CJ McCollum,,,14:22,89.1,89.0,0.0,0.0,0.0,0.0,0.0,0.182,0.083,16.7,0.4,0.4,0.169,99.43,0.074,2014-01-08T00:00:00,8,1610612753,ORL,Orlando,10-25,24,27,24,19,0,0,0,0,0,0,0,0,0,0,94,0.398,0.778,0.35,21,42,9,0021300527,1610612757,POR,Portland,CJ McCollum,,,14:22,2.0,2.0,0.0,2.0,6.0,4.0,3.0,14.0,0.0,0.0,0.0,0.0
0021300527,1610612757,POR,Portland,203468,CJ McCollum,,,14:22,89.1,89.0,0.0,0.0,0.0,0.0,0.0,0.182,0.083,16.7,0.4,0.4,0.169,99.43,0.074,2014-01-08T00:00:00,8,1610612757,POR,Portland,27-9,24,21,26,39,0,0,0,0,0,0,0,0,0,0,110,0.474,0.846,0.3,27,47,7,0021300527,1610612757,POR,Portland,CJ McCollum,,,14:22,2.0,2.0,0.0,2.0,6.0,4.0,3.0,14.0,0.0,0.0,0.0,0.0
0021300527,1610612757,POR,Portland,203086,Meyers Leonard,,,6:51,66.7,126.8,-60.1,0.0,0.0,0.0,0.0,0.0,0.0,0.0,0.0,0.0,0.133,102.28,-0.111,2014-01-08T00:00:00,8,1610612753,ORL,Orlando,10-25,24,27,24,19,0,0,0,0,0,0,0,0,0,0,94,0.398,0.778,0.35,21,42,9,0021300527,1610612757,POR,Portland,Meyers Leonard,,,6:51,0.0,0.0,0.0,0.0,2.0,4.0,3.0,4.0,0.0,0.0,1.0,0.0
0021300527,1610612757,POR,Portland,203086,Meyers Leonard,,,6:51,66.7,126.8,-60.1,0.0,0.0,0.0,0.0,0.0,0.0,0.0,0.0,0.0,0.133,102.28,-0.111,2014-01-08T00:00:00,8,1610612757,POR,Portland,27-9,24,21,26,39,0,0,0,0,0,0,0,0,0,0,110,0.474,0.846,0.3,27,47,7,0021300527,1610612757,POR,Portland,Meyers Leonard,,,6:51,0.0,0.0,0.0,0.0,2.0,4.0,3.0,4.0,0.0,0.0,1.0,0.0
0021300527,1610612757,POR,Portland,203080,Thomas Robinson,,,11:14,169.6,79.4,90.1,0.071,0.0,25.0,0.143,0.222,0.188,0.0,1.0,1.0,0.115,94.87,0.142,2014-01-08T00:00:00,8,1610612753,ORL,Orlando,10-25,24,27,24,19,0,0,0,0,0,0,0,0,0,0,94,0.398,0.778,0.35,21,42,9,0021300527,1610612757,POR,Portland,Thomas Robinson,,,11:14,0.0,2.0,0.0,6.0,0.0,0.0,1.0,0.0,1.0,0.0,2.0,1.0
0021300527,1610612757,POR,Portland,203080,Thomas Robinson,,,11:14,169.6,79.4,90.1,0.071,0.0,25.0,0.143,0.222,0.188,0.0,1.0,1.0,0.115,94.87,0.142,2014-01-08T00:00:00,8,1610612757,POR,Portland,27-9,24,21,26,39,0,0,0,0,0,0,0,0,0,0,110,0.474,0.846,0.3,27,47,7,0021300527,1610612757,POR,Portland,Thomas Robinson,,,11:14,0.0,2.0,0.0,6.0,0.0,0.0,1.0,0.0,1.0,0.0,2.0,1.0
0021300527,1610612757,POR,Portland,203115,Will Barton,,,1:13,66.7,104.2,-37.5,0.0,0.0,0.0,0.0,0.0,0.0,0.0,0.0,0.0,0.333,115.99,-0.333,2014-01-08T00:00:00,8,1610612753,ORL,Orlando,10-25,24,27,24,19,0,0,0,0,0,0,0,0,0,0,94,0.398,0.778,0.35,21,42,9,0021300527,1610612757,POR,Portland,Will Barton,,,1:13,0.0,0.0,0.0,0.0,0.0,0.0,0.0,0.0,0.0,0.0,0.0,0.0
0021300527,1610612757,POR,Portland,203115,Will Barton,,,1:13,66.7,104.2,-37.5,0.0,0.0,0.0,0.0,0.0,0.0,0.0,0.0,0.0,0.333,115.99,-0.333,2014-01-08T00:00:00,8,1610612757,POR,Portland,27-9,24,21,26,39,0,0,0,0,0,0,0,0,0,0,110,0.474,0.846,0.3,27,47,7,0021300527,1610612757,POR,Portland,Will Barton,,,1:13,0.0,0.0,0.0,0.0,0.0,0.0,0.0,0.0,0.0,0.0,0.0,0.0
0021300527,1610612757,POR,Portland,2248,Earl Watson,,,0:46,0.0,200.0,-200.0,0.0,0.0,0.0,0.0,0.0,0.0,0.0,0.0,0.0,0.0,93.71,0.0,2014-01-08T00:00:00,8,1610612753,ORL,Orlando,10-25,24,27,24,19,0,0,0,0,0,0,0,0,0,0,94,0.398,0.778,0.35,21,42,9,0021300527,1610612757,POR,Portland,Earl Watson,,,0:46,0.0,0.0,0.0,0.0,0.0,0.0,0.0,0.0,0.0,0.0,0.0,0.0
0021300527,1610612757,POR,Portland,2248,Earl Watson,,,0:46,0.0,200.0,-200.0,0.0,0.0,0.0,0.0,0.0,0.0,0.0,0.0,0.0,0.0,93.71,0.0,2014-01-08T00:00:00,8,1610612757,POR,Portland,27-9,24,21,26,39,0,0,0,0,0,0,0,0,0,0,110,0.474,0.846,0.3,27,47,7,0021300527,1610612757,POR,Portland,Earl Watson,,,0:46,0.0,0.0,0.0,0.0,0.0,0.0,0.0,0.0,0.0,0.0,0.0,0.0
0021300527,1610612757,POR,Portland,2748,Dorell Wright,,DNP - Coach's Decision,,,,,,,0.0,,,,,,,0.0,,,2014-01-08T00:00:00,8,1610612753,ORL,Orlando,10-25,24,27,24,19,0,0,0,0,0,0,0,0,0,0,94,0.398,0.778,0.35,21,42,9,0021300527,1610612757,POR,Portland,Dorell Wright,,DNP - Coach's Decision,,,,,,,,,,,,,
0021300527,1610612757,POR,Portland,2748,Dorell Wright,,DNP - Coach's Decision,,,,,,,0.0,,,,,,,0.0,,,2014-01-08T00:00:00,8,1610612757,POR,Portland,27-9,24,21,26,39,0,0,0,0,0,0,0,0,0,0,110,0.474,0.846,0.3,27,47,7,0021300527,1610612757,POR,Portland,Dorell Wright,,DNP - Coach's Decision,,,,,,,,,,,,,
