GAME_ID_x,TEAM_ID_x,TEAM_ABBREVIATION_x,TEAM_CITY_x,PLAYER_ID,PLAYER_NAME_x,START_POSITION_x,COMMENT_x,MIN_x,OFF_RATING,DEF_RATING,NET_RATING,AST_PCT,AST_TOV,AST_RATIO,OREB_PCT,DREB_PCT,REB_PCT,TM_TOV_PCT,EFG_PCT,TS_PCT,USG_PCT,PACE,PIE,GAME_DATE_EST,GAME_SEQUENCE,TEAM_ABBREVIATION_y,TEAM_CITY_NAME,TEAM_WINS_LOSSES,PTS_QTR1,PTS_QTR2,PTS_QTR3,PTS_QTR4,PTS_OT1,PTS_OT2,PTS_OT3,PTS_OT4,PTS_OT5,PTS_OT6,PTS_OT7,PTS_OT8,PTS_OT9,PTS_OT10,PTS,FG_PCT,FT_PCT,FG3_PCT,AST,REB,TOV,GAME_ID_y,TEAM_ID_y,TEAM_ABBREVIATION,TEAM_CITY_y,PLAYER_NAME_y,START_POSITION_y,COMMENT_y,MIN_y,PTS_OFF_TOV,PTS_2ND_CHANCE,PTS_FB,PTS_PAINT,OPP_PTS_OFF_TOV,OPP_PTS_2ND_CHANCE,OPP_PTS_FB,OPP_PTS_PAINT,BLK,BLKA,PF,PFD
0021500983,1610612739,CLE,Cleveland,2544,LeBron James,F,,30:43,118.7,97.4,21.4,0.278,2.5,19.9,0.045,0.185,0.122,8.0,0.7,0.747,0.304,96.7,0.236,2016-03-13T00:00:00,1,CLE,Cleveland,47-18,21,37,33,23,0,0,0,0,0,0,0,0,0,0,114,0.488,0.7,0.486,23,49,8,0021500983,1610612739,CLE,Cleveland,LeBron James,F,,30:43,2.0,3.0,4.0,12.0,8.0,0.0,15.0,14.0,0.0,1.0,2.0,6.0
0021500983,1610612739,CLE,Cleveland,201567,Kevin Love,F,,24:32,104.6,106.6,-2.0,0.071,0.0,7.3,0.0,0.429,0.237,0.0,0.455,0.47,0.252,95.44,0.154,2016-03-13T00:00:00,1,CLE,Cleveland,47-18,21,37,33,23,0,0,0,0,0,0,0,0,0,0,114,0.488,0.7,0.486,23,49,8,0021500983,1610612739,CLE,Cleveland,Kevin Love,F,,24:32,1.0,0.0,1.0,8.0,8.0,0.0,15.0,14.0,0.0,0.0,0.0,4.0
0021500983,1610612739,CLE,Cleveland,202389,Timofey Mozgov,C,,14:18,71.7,115.8,-44.0,0.143,1.0,16.7,0.0,0.273,0.136,16.7,0.25,0.25,0.179,93.18,0.041,2016-03-13T00:00:00,1,CLE,Cleveland,47-18,21,37,33,23,0,0,0,0,0,0,0,0,0,0,114,0.488,0.7,0.486,23,49,8,0021500983,1610612739,CLE,Cleveland,Timofey Mozgov,C,,14:18,0.0,0.0,0.0,2.0,5.0,0.0,15.0,10.0,0.0,0.0,1.0,0.0
0021500983,1610612739,CLE,Cleveland,2747,JR Smith,G,,23:19,121.5,100.9,20.7,0.071,0.0,10.0,0.0,0.045,0.028,0.0,0.944,0.944,0.189,97.08,0.138,2016-03-13T00:00:00,1,CLE,Cleveland,47-18,21,37,33,23,0,0,0,0,0,0,0,0,0,0,114,0.488,0.7,0.486,23,49,8,0021500983,1610612739,CLE,Cleveland,JR Smith,G,,23:19,3.0,0.0,0.0,0.0,8.0,0.0,15.0,12.0,0.0,0.0,3.0,1.0
0021500983,1610612739,CLE,Cleveland,202681,Kyrie Irving,G,,31:11,110.2,96.9,13.3,0.278,2.5,20.5,0.0,0.071,0.037,8.2,0.471,0.487,0.283,94.23,0.093,2016-03-13T00:00:00,1,CLE,Cleveland,47-18,21,37,33,23,0,0,0,0,0,0,0,0,0,0,114,0.488,0.7,0.486,23,49,8,0021500983,1610612739,CLE,Cleveland,Kyrie Irving,G,,31:11,0.0,5.0,0.0,8.0,8.0,0.0,17.0,18.0,0.0,2.0,3.0,4.0
0021500983,1610612739,CLE,Cleveland,202684,Tristan Thompson,,,26:20,144.3,100.3,44.0,0.087,0.0,18.8,0.273,0.208,0.239,0.0,0.5,0.579,0.146,93.07,0.143,2016-03-13T00:00:00,1,CLE,Cleveland,47-18,21,37,33,23,0,0,0,0,0,0,0,0,0,0,114,0.488,0.7,0.486,23,49,8,0021500983,1610612739,CLE,Cleveland,Tristan Thompson,,,26:20,1.0,4.0,1.0,6.0,3.0,0.0,5.0,12.0,2.0,0.0,1.0,5.0
0021500983,1610612739,CLE,Cleveland,202697,Iman Shumpert,,,26:30,124.3,88.6,35.6,0.048,0.0,20.0,0.04,0.222,0.135,0.0,0.5,0.5,0.069,89.41,0.097,2016-03-13T00:00:00,1,CLE,Cleveland,47-18,21,37,33,23,0,0,0,0,0,0,0,0,0,0,114,0.488,0.7,0.486,23,49,8,0021500983,1610612739,CLE,Cleveland,Iman Shumpert,,,26:30,0.0,0.0,0.0,2.0,0.0,0.0,5.0,16.0,0.0,0.0,1.0,1.0
0021500983,1610612739,CLE,Cleveland,203521,Matthew Dellavedova,,,22:46,139.6,87.8,51.8,0.19,4.0,36.8,0.0,0.087,0.051,9.2,0.6,0.595,0.138,95.13,0.059,2016-03-13T00:00:00,1,CLE,Cleveland,47-18,21,37,33,23,0,0,0,0,0,0,0,0,0,0,114,0.488,0.7,0.486,23,49,8,0021500983,1610612739,CLE,Cleveland,Matthew Dellavedova,,,22:46,0.0,0.0,0.0,0.0,0.0,0.0,3.0,10.0,0.0,0.0,3.0,1.0
0021500983,1610612739,CLE,Cleveland,101112,Channing Frye,,,20:11,145.9,88.6,57.3,0.133,2.0,18.2,0.0,0.25,0.132,9.1,0.938,0.938,0.195,93.46,0.196,2016-03-13T00:00:00,1,CLE,Cleveland,47-18,21,37,33,23,0,0,0,0,0,0,0,0,0,0,114,0.488,0.7,0.486,23,49,8,0021500983,1610612739,CLE,Cleveland,Channing Frye,,,20:11,6.0,3.0,0.0,0.0,0.0,0.0,5.0,10.0,0.0,0.0,3.0,0.0
0021500983,1610612739,CLE,Cleveland,2210,Richard Jefferson,,,11:28,137.5,105.4,32.1,0.0,0.0,0.0,0.0,0.0,0.0,0.0,0.0,0.0,0.085,84.81,-0.056,2016-03-13T00:00:00,1,CLE,Cleveland,47-18,21,37,33,23,0,0,0,0,0,0,0,0,0,0,114,0.488,0.7,0.486,23,49,8,0021500983,1610612739,CLE,Cleveland,Richard Jefferson,,,11:28,0.0,0.0,0.0,0.0,0.0,0.0,5.0,12.0,1.0,0.0,1.0,1.0
0021500983,1610612739,CLE,Cleveland,203895,Jordan McRae,,,3:17,100.0,80.0,20.0,0.5,0.0,50.0,0.0,0.25,0.143,0.0,0.0,0.0,0.167,73.1,0.053,2016-03-13T00:00:00,1,CLE,Cleveland,47-18,21,37,33,23,0,0,0,0,0,0,0,0,0,0,114,0.488,0.7,0.486,23,49,8,0021500983,1610612739,CLE,Cleveland,Jordan McRae,,,3:17,0.0,0.0,0.0,0.0,0.0,0.0,0.0,4.0,1.0,0.0,1.0,0.0
0021500983,1610612739,CLE,Cleveland,2592,James Jones,,,3:17,100.0,80.0,20.0,0.0,0.0,0.0,0.0,0.0,0.0,0.0,1.5,1.5,0.167,73.1,0.316,2016-03-13T00:00:00,1,CLE,Cleveland,47-18,21,37,33,23,0,0,0,0,0,0,0,0,0,0,114,0.488,0.7,0.486,23,49,8,0021500983,1610612739,CLE,Cleveland,James Jones,,,3:17,0.0,0.0,0.0,0.0,0.0,0.0,0.0,4.0,0.0,0.0,0.0,0.0
0021500983,1610612739,CLE,Cleveland,201619,Sasha Kaun,,,2:08,100.0,100.0,0.0,0.0,0.0,0.0,0.5,0.333,0.4,50.0,0.0,0.0,0.5,78.75,-0.059,2016-03-13T00:00:00,1,CLE,Cleveland,47-18,21,37,33,23,0,0,0,0,0,0,0,0,0,0,114,0.488,0.7,0.486,23,49,8,0021500983,1610612739,CLE,Cleveland,Sasha Kaun,,,2:08,0.0,0.0,0.0,0.0,0.0,0.0,0.0,4.0,0.0,1.0,0.0,0.0
0021500983,1610612746,LAC,LA,201601,Luc Mbah a Moute,F,,21:58,78.4,94.1,-15.7,0.0,0.0,0.0,0.0,0.05,0.023,0.0,0.2,0.2,0.107,101.04,0.008,2016-03-13T00:00:00,1,LAC,LA,42-23,19,22,27,22,0,0,0,0,0,0,0,0,0,0,90,0.405,0.842,0.313,23,34,10,0021500983,1610612746,LAC,LA,Luc Mbah a Moute,F,,21:58,0.0,0.0,0.0,0.0,6.0,5.0,6.0,20.0,1.0,1.0,1.0,1.0
0021500983,1610612746,LAC,LA,201145,Jeff Green,F,,27:20,117.6,100.3,17.3,0.25,0.0,29.1,0.043,0.1,0.07,0.0,0.2,0.287,0.215,90.93,0.005,2016-03-13T00:00:00,1,LAC,LA,42-23,19,22,27,22,0,0,0,0,0,0,0,0,0,0,90,0.405,0.842,0.313,23,34,10,0021500983,1610612746,LAC,LA,Jeff Green,F,,27:20,3.0,0.0,6.0,4.0,3.0,0.0,1.0,16.0,0.0,0.0,4.0,3.0
0021500983,1610612746,LAC,LA,201599,DeAndre Jordan,C,,32:19,100.6,117.9,-17.3,0.056,1.0,12.9,0.071,0.36,0.208,12.9,1.0,0.955,0.102,96.37,0.14,2016-03-13T00:00:00,1,LAC,LA,42-23,19,22,27,22,0,0,0,0,0,0,0,0,0,0,90,0.405,0.842,0.313,23,34,10,0021500983,1610612746,LAC,LA,DeAndre Jordan,C,,32:19,0.0,0.0,2.0,8.0,12.0,8.0,6.0,26.0,1.0,0.0,3.0,3.0
0021500983,1610612746,LAC,LA,200755,JJ Redick,G,,23:41,111.3,111.3,0.0,0.091,1.0,7.0,0.0,0.2,0.086,7.0,0.727,0.771,0.278,93.8,0.17,2016-03-13T00:00:00,1,LAC,LA,42-23,19,22,27,22,0,0,0,0,0,0,0,0,0,0,90,0.405,0.842,0.313,23,34,10,0021500983,1610612746,LAC,LA,JJ Redick,G,,23:41,3.0,0.0,3.0,2.0,6.0,0.0,6.0,22.0,0.0,0.0,3.0,2.0
0021500983,1610612746,LAC,LA,101108,Chris Paul,G,,29:48,105.8,117.2,-11.4,0.625,2.5,37.4,0.0,0.238,0.109,14.9,0.591,0.666,0.272,95.29,0.184,2016-03-13T00:00:00,1,LAC,LA,42-23,19,22,27,22,0,0,0,0,0,0,0,0,0,0,90,0.405,0.842,0.313,23,34,10,0021500983,1610612746,LAC,LA,Chris Paul,G,,29:48,2.0,0.0,9.0,4.0,12.0,3.0,6.0,22.0,0.0,0.0,2.0,3.0
0021500983,1610612746,LAC,LA,2037,Jamal Crawford,,,25:20,84.7,138.5,-53.8,0.091,0.5,7.1,0.0,0.045,0.021,14.3,0.364,0.364,0.258,92.35,-0.022,2016-03-13T00:00:00,1,LAC,LA,42-23,19,22,27,22,0,0,0,0,0,0,0,0,0,0,90,0.405,0.842,0.313,23,34,10,0021500983,1610612746,LAC,LA,Jamal Crawford,,,25:20,0.0,0.0,0.0,0.0,7.0,15.0,2.0,22.0,0.0,0.0,2.0,2.0
0021500983,1610612746,LAC,LA,202325,Wesley Johnson,,,28:21,98.6,146.1,-47.4,0.0,0.0,0.0,0.0,0.227,0.104,6.9,0.385,0.409,0.259,89.84,0.027,2016-03-13T00:00:00,1,LAC,LA,42-23,19,22,27,22,0,0,0,0,0,0,0,0,0,0,90,0.405,0.842,0.313,23,34,10,0021500983,1610612746,LAC,LA,Wesley Johnson,,,28:21,0.0,0.0,0.0,2.0,10.0,15.0,0.0,20.0,0.0,1.0,3.0,2.0
0021500983,1610612746,LAC,LA,203085,Austin Rivers,,,23:49,87.6,137.0,-49.3,0.091,0.0,11.3,0.0,0.0,0.0,0.0,0.643,0.698,0.165,93.07,0.09,2016-03-13T00:00:00,1,LAC,LA,42-23,19,22,27,22,0,0,0,0,0,0,0,0,0,0,90,0.405,0.842,0.313,23,34,10,0021500983,1610612746,LAC,LA,Austin Rivers,,,23:49,0.0,0.0,0.0,4.0,7.0,15.0,3.0,20.0,0.0,0.0,1.0,1.0
0021500983,1610612746,LAC,LA,203143,Pablo Prigioni,,,15:41,90.4,130.2,-39.8,0.3,0.0,50.0,0.0,0.0,0.0,0.0,0.0,0.0,0.098,86.31,-0.019,2016-03-13T00:00:00,1,LAC,LA,42-23,19,22,27,22,0,0,0,0,0,0,0,0,0,0,90,0.405,0.842,0.313,23,34,10,0021500983,1610612746,LAC,LA,Pablo Prigioni,,,15:41,0.0,0.0,0.0,0.0,1.0,7.0,0.0,12.0,0.0,1.0,1.0,2.0
0021500983,1610612746,LAC,LA,202332,Cole Aldrich,,,11:43,81.4,134.1,-52.7,0.2,1.0,16.7,0.154,0.3,0.217,16.7,0.5,0.5,0.219,85.54,0.108,2016-03-13T00:00:00,1,LAC,LA,42-23,19,22,27,22,0,0,0,0,0,0,0,0,0,0,90,0.405,0.842,0.313,23,34,10,0021500983,1610612746,LAC,LA,Cole Aldrich,,,11:43,0.0,0.0,0.0,4.0,1.0,7.0,0.0,10.0,2.0,1.0,3.0,0.0
0021500983,1610612746,LAC,LA,1718,Paul Pierce,,DND - Sore right big toe                ,,,,,,,0.0,,,,,,,0.0,,,2016-03-13T00:00:00,1,LAC,LA,42-23,19,22,27,22,0,0,0,0,0,0,0,0,0,0,90,0.405,0.842,0.313,23,34,10,0021500983,1610612746,LAC,LA,Paul Pierce,,DND - Sore right big toe                ,,,,,,,,,,,,,
