GAME_ID_x,TEAM_ID_x,TEAM_ABBREVIATION_x,TEAM_CITY_x,PLAYER_ID,PLAYER_NAME_x,START_POSITION_x,COMMENT_x,MIN_x,OFF_RATING,DEF_RATING,NET_RATING,AST_PCT,AST_TOV,AST_RATIO,OREB_PCT,DREB_PCT,REB_PCT,TM_TOV_PCT,EFG_PCT,TS_PCT,USG_PCT,PACE,PIE,GAME_DATE_EST,GAME_SEQUENCE,TEAM_ABBREVIATION_y,TEAM_CITY_NAME,TEAM_WINS_LOSSES,PTS_QTR1,PTS_QTR2,PTS_QTR3,PTS_QTR4,PTS_OT1,PTS_OT2,PTS_OT3,PTS_OT4,PTS_OT5,PTS_OT6,PTS_OT7,PTS_OT8,PTS_OT9,PTS_OT10,PTS,FG_PCT,FT_PCT,FG3_PCT,AST,REB,TOV,GAME_ID_y,TEAM_ID_y,TEAM_ABBREVIATION,TEAM_CITY_y,PLAYER_NAME_y,START_POSITION_y,COMMENT_y,MIN_y,PTS_OFF_TOV,PTS_2ND_CHANCE,PTS_FB,PTS_PAINT,OPP_PTS_OFF_TOV,OPP_PTS_2ND_CHANCE,OPP_PTS_FB,OPP_PTS_PAINT,BLK,BLKA,PF,PFD
0021500994,1610612739,CLE,Cleveland,2544,LeBron James,F,,36:53,102.2,96.5,5.7,0.167,1.0,11.2,0.171,0.194,0.182,11.2,0.55,0.551,0.308,86.41,0.203,2016-03-14T00:00:00,8,CLE,Cleveland,47-19,26,18,22,19,0,0,0,0,0,0,0,0,0,0,85,0.398,0.625,0.233,18,39,8,0021500994,1610612739,CLE,Cleveland,LeBron James,F,,36:53,2.0,2.0,6.0,12.0,6.0,10.0,0.0,26.0,0.0,1.0,0.0,4.0
0021500994,1610612739,CLE,Cleveland,201567,Kevin Love,F,,34:15,102.4,111.8,-9.4,0.091,0.67,11.8,0.031,0.348,0.164,17.8,0.455,0.505,0.202,86.44,0.093,2016-03-14T00:00:00,8,CLE,Cleveland,47-19,26,18,22,19,0,0,0,0,0,0,0,0,0,0,85,0.398,0.625,0.233,18,39,8,0021500994,1610612739,CLE,Cleveland,Kevin Love,F,,34:15,2.0,0.0,0.0,2.0,8.0,8.0,0.0,26.0,0.0,1.0,2.0,4.0
0021500994,1610612739,CLE,Cleveland,202389,Timofey Mozgov,C,,16:08,97.4,111.7,-14.3,0.0,0.0,0.0,0.231,0.0,0.125,20.5,1.0,0.902,0.145,90.86,0.094,2016-03-14T00:00:00,8,CLE,Cleveland,47-19,26,18,22,19,0,0,0,0,0,0,0,0,0,0,85,0.398,0.625,0.233,18,39,8,0021500994,1610612739,CLE,Cleveland,Timofey Mozgov,C,,16:08,1.0,5.0,0.0,6.0,6.0,3.0,0.0,14.0,0.0,0.0,2.0,1.0
0021500994,1610612739,CLE,Cleveland,2747,JR Smith,G,,29:28,100.7,117.3,-16.7,0.05,1.0,7.1,0.0,0.056,0.022,7.1,0.208,0.208,0.204,85.91,-0.052,2016-03-14T00:00:00,8,CLE,Cleveland,47-19,26,18,22,19,0,0,0,0,0,0,0,0,0,0,85,0.398,0.625,0.233,18,39,8,0021500994,1610612739,CLE,Cleveland,JR Smith,G,,29:28,3.0,3.0,0.0,2.0,8.0,8.0,0.0,20.0,0.0,1.0,2.0,1.0
0021500994,1610612739,CLE,Cleveland,202681,Kyrie Irving,G,,33:41,87.4,122.0,-34.6,0.2,0.0,11.5,0.061,0.111,0.078,0.0,0.326,0.326,0.321,84.11,0.057,2016-03-14T00:00:00,8,CLE,Cleveland,47-19,26,18,22,19,0,0,0,0,0,0,0,0,0,0,85,0.398,0.625,0.233,18,39,8,0021500994,1610612739,CLE,Cleveland,Kyrie Irving,G,,33:41,6.0,4.0,0.0,6.0,5.0,5.0,0.0,24.0,1.0,0.0,2.0,0.0
0021500994,1610612739,CLE,Cleveland,2210,Richard Jefferson,,,8:56,120.0,168.0,-48.0,0.0,0.0,0.0,0.0,0.0,0.0,0.0,0.833,0.833,0.167,80.27,0.069,2016-03-14T00:00:00,8,CLE,Cleveland,47-19,26,18,22,19,0,0,0,0,0,0,0,0,0,0,85,0.398,0.625,0.233,18,39,8,0021500994,1610612739,CLE,Cleveland,Richard Jefferson,,,8:56,0.0,5.0,0.0,2.0,2.0,0.0,0.0,12.0,0.0,0.0,1.0,0.0
0021500994,1610612739,CLE,Cleveland,202684,Tristan Thompson,,,19:50,80.0,129.6,-49.6,0.0,0.0,0.0,0.048,0.154,0.088,0.0,1.0,1.0,0.025,77.83,0.029,2016-03-14T00:00:00,8,CLE,Cleveland,47-19,26,18,22,19,0,0,0,0,0,0,0,0,0,0,85,0.398,0.625,0.233,18,39,8,0021500994,1610612739,CLE,Cleveland,Tristan Thompson,,,19:50,0.0,0.0,0.0,2.0,2.0,4.0,0.0,16.0,0.0,0.0,3.0,2.0
0021500994,1610612739,CLE,Cleveland,202697,Iman Shumpert,,,18:32,94.5,109.1,-14.7,0.167,0.0,40.0,0.0,0.063,0.03,0.0,0.5,0.5,0.084,81.84,0.088,2016-03-14T00:00:00,8,CLE,Cleveland,47-19,26,18,22,19,0,0,0,0,0,0,0,0,0,0,85,0.398,0.625,0.233,18,39,8,0021500994,1610612739,CLE,Cleveland,Iman Shumpert,,,18:32,0.0,0.0,0.0,0.0,0.0,2.0,0.0,16.0,0.0,0.0,0.0,1.0
0021500994,1610612739,CLE,Cleveland,203521,Matthew Dellavedova,,,23:22,109.8,117.6,-7.8,0.294,0.0,45.5,0.0,0.095,0.049,0.0,0.417,0.417,0.128,81.43,0.088,2016-03-14T00:00:00,8,CLE,Cleveland,47-19,26,18,22,19,0,0,0,0,0,0,0,0,0,0,85,0.398,0.625,0.233,18,39,8,0021500994,1610612739,CLE,Cleveland,Matthew Dellavedova,,,23:22,0.0,0.0,0.0,2.0,3.0,5.0,0.0,14.0,0.0,0.0,1.0,0.0
0021500994,1610612739,CLE,Cleveland,101112,Channing Frye,,,18:55,97.3,100.8,-3.4,0.2,0.0,25.0,0.0,0.25,0.121,0.0,0.583,0.583,0.167,82.01,0.144,2016-03-14T00:00:00,8,CLE,Cleveland,47-19,26,18,22,19,0,0,0,0,0,0,0,0,0,0,85,0.398,0.625,0.233,18,39,8,0021500994,1610612739,CLE,Cleveland,Channing Frye,,,18:55,2.0,3.0,0.0,4.0,0.0,5.0,0.0,12.0,2.0,1.0,3.0,2.0
0021500994,1610612739,CLE,Cleveland,201619,Sasha Kaun,,,0:00,113.6,227.3,-113.6,0.0,0.0,0.0,0.0,0.0,0.0,0.0,0.0,0.568,1.0,0.0,0.0,2016-03-14T00:00:00,8,CLE,Cleveland,47-19,26,18,22,19,0,0,0,0,0,0,0,0,0,0,85,0.398,0.625,0.233,18,39,8,0021500994,1610612739,CLE,Cleveland,Sasha Kaun,,,0:00,1.0,0.0,0.0,0.0,0.0,0.0,0.0,0.0,0.0,0.0,0.0,0.0
0021500994,1610612739,CLE,Cleveland,2592,James Jones,,DNP - Coach's Decision                  ,,,,,,,0.0,,,,,,,0.0,,,2016-03-14T00:00:00,8,CLE,Cleveland,47-19,26,18,22,19,0,0,0,0,0,0,0,0,0,0,85,0.398,0.625,0.233,18,39,8,0021500994,1610612739,CLE,Cleveland,James Jones,,DNP - Coach's Decision                  ,,,,,,,,,,,,,
0021500994,1610612739,CLE,Cleveland,203895,Jordan McRae,,DNP - Coach's Decision                  ,,,,,,,0.0,,,,,,,0.0,,,2016-03-14T00:00:00,8,CLE,Cleveland,47-19,26,18,22,19,0,0,0,0,0,0,0,0,0,0,85,0.398,0.625,0.233,18,39,8,0021500994,1610612739,CLE,Cleveland,Jordan McRae,,DNP - Coach's Decision                  ,,,,,,,,,,,,,
0021500994,1610612762,UTA,Utah,204060,Joe Ingles,F,,37:09,111.4,93.2,18.2,0.167,4.0,36.4,0.0,0.135,0.078,9.1,0.5,0.5,0.099,84.94,0.083,2016-03-14T00:00:00,8,UTA,Utah,32-35,28,20,18,28,0,0,0,0,0,0,0,0,0,0,94,0.493,0.857,0.444,20,40,12,0021500994,1610612762,UTA,Utah,Joe Ingles,F,,37:09,0.0,0.0,0.0,0.0,15.0,22.0,5.0,26.0,0.0,0.0,1.0,1.0
0021500994,1610612762,UTA,Utah,202324,Derrick Favors,F,,31:58,99.5,100.6,-1.1,0.0,0.0,0.0,0.074,0.1,0.088,14.2,0.467,0.525,0.333,86.28,0.119,2016-03-14T00:00:00,8,UTA,Utah,32-35,28,20,18,28,0,0,0,0,0,0,0,0,0,0,94,0.493,0.857,0.444,20,40,12,0021500994,1610612762,UTA,Utah,Derrick Favors,F,,31:58,0.0,2.0,0.0,12.0,14.0,15.0,6.0,26.0,3.0,2.0,1.0,3.0
0021500994,1610612762,UTA,Utah,203497,Rudy Gobert,C,,32:10,127.6,95.4,32.2,0.077,2.0,26.9,0.111,0.321,0.239,13.4,0.5,0.563,0.089,85.68,0.106,2016-03-14T00:00:00,8,UTA,Utah,32-35,28,20,18,28,0,0,0,0,0,0,0,0,0,0,94,0.493,0.857,0.444,20,40,12,0021500994,1610612762,UTA,Utah,Rudy Gobert,C,,32:10,0.0,0.0,0.0,4.0,8.0,14.0,2.0,28.0,0.0,0.0,2.0,4.0
0021500994,1610612762,UTA,Utah,203918,Rodney Hood,G,,33:51,116.7,100.8,15.9,0.059,0.5,4.6,0.045,0.033,0.038,9.2,0.688,0.751,0.313,85.34,0.179,2016-03-14T00:00:00,8,UTA,Utah,32-35,28,20,18,28,0,0,0,0,0,0,0,0,0,0,94,0.493,0.857,0.444,20,40,12,0021500994,1610612762,UTA,Utah,Rodney Hood,G,,33:51,5.0,6.0,0.0,8.0,13.0,12.0,3.0,32.0,0.0,0.0,2.0,5.0
0021500994,1610612762,UTA,Utah,202714,Shelvin Mack,G,,37:11,118.3,85.5,32.8,0.476,3.33,37.0,0.0,0.184,0.117,11.1,0.607,0.607,0.245,83.93,0.218,2016-03-14T00:00:00,8,UTA,Utah,32-35,28,20,18,28,0,0,0,0,0,0,0,0,0,0,94,0.493,0.857,0.444,20,40,12,0021500994,1610612762,UTA,Utah,Shelvin Mack,G,,37:11,3.0,0.0,0.0,8.0,15.0,19.0,2.0,28.0,0.0,1.0,2.0,0.0
0021500994,1610612762,UTA,Utah,202344,Trevor Booker,,,19:03,98.8,121.0,-22.2,0.0,0.0,0.0,0.111,0.2,0.158,100.0,0.0,0.0,0.028,83.5,0.053,2016-03-14T00:00:00,8,UTA,Utah,32-35,28,20,18,28,0,0,0,0,0,0,0,0,0,0,94,0.493,0.857,0.444,20,40,12,0021500994,1610612762,UTA,Utah,Trevor Booker,,,19:03,0.0,0.0,0.0,0.0,9.0,8.0,4.0,16.0,1.0,0.0,1.0,1.0
0021500994,1610612762,UTA,Utah,203187,Chris Johnson,,,15:58,108.5,128.1,-19.6,0.0,0.0,0.0,0.0,0.077,0.037,0.0,0.0,0.0,0.135,84.96,-0.074,2016-03-14T00:00:00,8,UTA,Utah,32-35,28,20,18,28,0,0,0,0,0,0,0,0,0,0,94,0.493,0.857,0.444,20,40,12,0021500994,1610612762,UTA,Utah,Chris Johnson,,,15:58,0.0,0.0,0.0,0.0,4.0,6.0,4.0,14.0,0.0,0.0,2.0,0.0
0021500994,1610612762,UTA,Utah,203526,Raul Neto,,,16:52,127.1,113.3,13.7,0.3,0.0,42.9,0.0,0.182,0.08,0.0,0.875,0.875,0.139,82.02,0.156,2016-03-14T00:00:00,8,UTA,Utah,32-35,28,20,18,28,0,0,0,0,0,0,0,0,0,0,94,0.493,0.857,0.444,20,40,12,0021500994,1610612762,UTA,Utah,Raul Neto,,,16:52,0.0,0.0,0.0,2.0,2.0,7.0,4.0,12.0,0.0,0.0,1.0,2.0
0021500994,1610612762,UTA,Utah,203504,Trey Burke,,,2:59,40.0,40.0,0.0,0.0,0.0,0.0,0.0,0.0,0.0,0.0,0.0,0.0,0.0,80.45,0.0,2016-03-14T00:00:00,8,UTA,Utah,32-35,28,20,18,28,0,0,0,0,0,0,0,0,0,0,94,0.493,0.857,0.444,20,40,12,0021500994,1610612762,UTA,Utah,Trey Burke,,,2:59,0.0,0.0,0.0,0.0,2.0,0.0,0.0,2.0,0.0,0.0,0.0,0.0
0021500994,1610612762,UTA,Utah,1626168,Trey Lyles,,,12:49,146.4,65.6,80.9,0.0,0.0,0.0,0.2,0.0,0.059,11.1,0.75,0.75,0.44,77.37,0.236,2016-03-14T00:00:00,8,UTA,Utah,32-35,28,20,18,28,0,0,0,0,0,0,0,0,0,0,94,0.493,0.857,0.444,20,40,12,0021500994,1610612762,UTA,Utah,Trey Lyles,,,12:49,0.0,2.0,0.0,2.0,3.0,7.0,0.0,6.0,0.0,0.0,3.0,0.0
0021500994,1610612762,UTA,Utah,202330,Gordon Hayward,,"DND - Plantar faciitis, right foot      ",,,,,,,0.0,,,,,,,0.0,,,2016-03-14T00:00:00,8,UTA,Utah,32-35,28,20,18,28,0,0,0,0,0,0,0,0,0,0,94,0.493,0.857,0.444,20,40,12,0021500994,1610612762,UTA,Utah,Gordon Hayward,,"DND - Plantar faciitis, right foot      ",,,,,,,,,,,,,
0021500994,1610612762,UTA,Utah,203481,Jeff Withey,,DNP - Coach's Decision                  ,,,,,,,0.0,,,,,,,0.0,,,2016-03-14T00:00:00,8,UTA,Utah,32-35,28,20,18,28,0,0,0,0,0,0,0,0,0,0,94,0.493,0.857,0.444,20,40,12,0021500994,1610612762,UTA,Utah,Jeff Withey,,DNP - Coach's Decision                  ,,,,,,,,,,,,,
