GAME_ID_x,TEAM_ID_x,TEAM_ABBREVIATION_x,TEAM_CITY_x,PLAYER_ID,PLAYER_NAME_x,START_POSITION_x,COMMENT_x,MIN_x,OFF_RATING,DEF_RATING,NET_RATING,AST_PCT,AST_TOV,AST_RATIO,OREB_PCT,DREB_PCT,REB_PCT,TM_TOV_PCT,EFG_PCT,TS_PCT,USG_PCT,PACE,PIE,GAME_DATE_EST,GAME_SEQUENCE,TEAM_ABBREVIATION_y,TEAM_CITY_NAME,TEAM_WINS_LOSSES,PTS_QTR1,PTS_QTR2,PTS_QTR3,PTS_QTR4,PTS_OT1,PTS_OT2,PTS_OT3,PTS_OT4,PTS_OT5,PTS_OT6,PTS_OT7,PTS_OT8,PTS_OT9,PTS_OT10,PTS,FG_PCT,FT_PCT,FG3_PCT,AST,REB,TOV,GAME_ID_y,TEAM_ID_y,TEAM_ABBREVIATION,TEAM_CITY_y,PLAYER_NAME_y,START_POSITION_y,COMMENT_y,MIN_y,PTS_OFF_TOV,PTS_2ND_CHANCE,PTS_FB,PTS_PAINT,OPP_PTS_OFF_TOV,OPP_PTS_2ND_CHANCE,OPP_PTS_FB,OPP_PTS_PAINT,BLK,BLKA,PF,PFD
0021500996,1610612740,NOP,New Orleans,202087,Alonzo Gee,F,,31:15,100.1,110.9,-10.8,0.05,1.0,10.2,0.114,0.038,0.082,10.2,0.5,0.644,0.117,101.87,0.091,2016-03-14T00:00:00,9,NOP,New Orleans,24-42,24,26,19,38,0,0,0,0,0,0,0,0,0,0,107,0.376,0.882,0.28,18,40,8,0021500996,1610612740,NOP,New Orleans,Alonzo Gee,F,,31:15,2.0,4.0,4.0,6.0,7.0,9.0,13.0,38.0,0.0,0.0,2.0,2.0
0021500996,1610612740,NOP,New Orleans,201967,Dante Cunningham,F,,20:47,86.3,101.4,-15.1,0.0,0.0,0.0,0.077,0.083,0.079,0.0,0.167,0.167,0.126,99.45,-0.064,2016-03-14T00:00:00,9,NOP,New Orleans,24-42,24,26,19,38,0,0,0,0,0,0,0,0,0,0,107,0.376,0.882,0.28,18,40,8,0021500996,1610612740,NOP,New Orleans,Dante Cunningham,F,,20:47,0.0,0.0,0.0,2.0,6.0,2.0,5.0,18.0,1.0,1.0,4.0,0.0
0021500996,1610612740,NOP,New Orleans,203076,Anthony Davis,C,,29:07,78.3,123.9,-45.6,0.111,0.5,3.6,0.132,0.333,0.203,7.2,0.3,0.443,0.389,100.75,0.135,2016-03-14T00:00:00,9,NOP,New Orleans,24-42,24,26,19,38,0,0,0,0,0,0,0,0,0,0,107,0.376,0.882,0.28,18,40,8,0021500996,1610612740,NOP,New Orleans,Anthony Davis,C,,29:07,2.0,6.0,0.0,6.0,8.0,4.0,14.0,34.0,2.0,4.0,3.0,7.0
0021500996,1610612740,NOP,New Orleans,201962,Toney Douglas,G,,37:34,113.2,114.7,-1.5,0.348,2.0,27.9,0.026,0.16,0.078,14.0,0.571,0.661,0.23,99.24,0.138,2016-03-14T00:00:00,9,NOP,New Orleans,24-42,24,26,19,38,0,0,0,0,0,0,0,0,0,0,107,0.376,0.882,0.28,18,40,8,0021500996,1610612740,NOP,New Orleans,Toney Douglas,G,,37:34,2.0,5.0,0.0,4.0,11.0,9.0,12.0,34.0,0.0,0.0,3.0,3.0
0021500996,1610612740,NOP,New Orleans,201950,Jrue Holiday,G,,28:08,79.4,124.4,-45.0,0.364,4.0,18.3,0.0,0.211,0.07,4.6,0.344,0.385,0.262,101.91,0.091,2016-03-14T00:00:00,9,NOP,New Orleans,24-42,24,26,19,38,0,0,0,0,0,0,0,0,0,0,107,0.376,0.882,0.28,18,40,8,0021500996,1610612740,NOP,New Orleans,Jrue Holiday,G,,28:08,0.0,2.0,0.0,6.0,8.0,2.0,14.0,34.0,0.0,1.0,1.0,3.0
0021500996,1610612740,NOP,New Orleans,202337,Luke Babbitt,,,34:34,123.5,135.2,-11.7,0.04,0.0,7.8,0.028,0.19,0.088,0.0,0.5,0.505,0.138,100.92,0.06,2016-03-14T00:00:00,9,NOP,New Orleans,24-42,24,26,19,38,0,0,0,0,0,0,0,0,0,0,107,0.376,0.882,0.28,18,40,8,0021500996,1610612740,NOP,New Orleans,Luke Babbitt,,,34:34,4.0,0.0,0.0,8.0,9.0,9.0,18.0,40.0,0.0,0.0,2.0,2.0
0021500996,1610612740,NOP,New Orleans,203111,Orlando Johnson,,,22:19,124.3,140.9,-16.6,0.056,0.0,16.7,0.042,0.0,0.028,0.0,0.5,0.5,0.087,101.43,0.032,2016-03-14T00:00:00,9,NOP,New Orleans,24-42,24,26,19,38,0,0,0,0,0,0,0,0,0,0,107,0.376,0.882,0.28,18,40,8,0021500996,1610612740,NOP,New Orleans,Orlando Johnson,,,22:19,0.0,0.0,0.0,0.0,7.0,3.0,11.0,26.0,0.0,0.0,1.0,0.0
0021500996,1610612740,NOP,New Orleans,201583,Ryan Anderson,,,30:39,125.1,132.6,-7.5,0.111,0.0,10.5,0.061,0.118,0.08,0.0,0.462,0.56,0.221,100.31,0.083,2016-03-14T00:00:00,9,NOP,New Orleans,24-42,24,26,19,38,0,0,0,0,0,0,0,0,0,0,107,0.376,0.882,0.28,18,40,8,0021500996,1610612740,NOP,New Orleans,Ryan Anderson,,,30:39,4.0,4.0,2.0,10.0,9.0,7.0,10.0,24.0,0.0,0.0,3.0,5.0
0021500996,1610612740,NOP,New Orleans,2570,Kendrick Perkins,,,5:37,200.7,147.1,53.7,0.0,0.0,0.0,0.167,0.0,0.125,0.0,0.5,0.5,0.134,93.27,0.064,2016-03-14T00:00:00,9,NOP,New Orleans,24-42,24,26,19,38,0,0,0,0,0,0,0,0,0,0,107,0.376,0.882,0.28,18,40,8,0021500996,1610612740,NOP,New Orleans,Kendrick Perkins,,,5:37,0.0,0.0,0.0,2.0,0.0,0.0,3.0,2.0,0.0,0.0,0.0,0.0
0021500996,1610612740,NOP,New Orleans,201582,Alexis Ajinca,,DND - Fractured Sternum                 ,,,,,,,0.0,,,,,,,0.0,,,2016-03-14T00:00:00,9,NOP,New Orleans,24-42,24,26,19,38,0,0,0,0,0,0,0,0,0,0,107,0.376,0.882,0.28,18,40,8,0021500996,1610612740,NOP,New Orleans,Alexis Ajinca,,DND - Fractured Sternum                 ,,,,,,,,,,,,,
0021500996,1610612740,NOP,New Orleans,201600,Omer Asik,,DNP - Coach's Decision                  ,,,,,,,0.0,,,,,,,0.0,,,2016-03-14T00:00:00,9,NOP,New Orleans,24-42,24,26,19,38,0,0,0,0,0,0,0,0,0,0,107,0.376,0.882,0.28,18,40,8,0021500996,1610612740,NOP,New Orleans,Omer Asik,,DNP - Coach's Decision                  ,,,,,,,,,,,,,
0021500996,1610612740,NOP,New Orleans,202708,Norris Cole,,DND - Lower Back                        ,,,,,,,0.0,,,,,,,0.0,,,2016-03-14T00:00:00,9,NOP,New Orleans,24-42,24,26,19,38,0,0,0,0,0,0,0,0,0,0,107,0.376,0.882,0.28,18,40,8,0021500996,1610612740,NOP,New Orleans,Norris Cole,,DND - Lower Back                        ,,,,,,,,,,,,,
0021500996,1610612740,NOP,New Orleans,201569,Eric Gordon,,NWT - Fractured Right Ring Finger       ,,,,,,,0.0,,,,,,,0.0,,,2016-03-14T00:00:00,9,NOP,New Orleans,24-42,24,26,19,38,0,0,0,0,0,0,0,0,0,0,107,0.376,0.882,0.28,18,40,8,0021500996,1610612740,NOP,New Orleans,Eric Gordon,,NWT - Fractured Right Ring Finger       ,,,,,,,,,,,,,
0021500996,1610612744,GSW,Golden State,203084,Harrison Barnes,F,,31:51,123.9,93.6,30.3,0.133,0.0,40.5,0.0,0.083,0.058,0.0,0.4,0.51,0.088,99.77,0.078,2016-03-14T00:00:00,9,GSW,Golden State,60-6,28,31,35,31,0,0,0,0,0,0,0,0,0,0,125,0.58,0.826,0.48,30,46,18,0021500996,1610612744,GSW,Golden State,Harrison Barnes,F,,31:51,0.0,0.0,0.0,2.0,6.0,8.0,4.0,30.0,1.0,0.0,2.0,2.0
0021500996,1610612744,GSW,Golden State,203110,Draymond Green,F,,31:18,123.9,84.7,39.2,0.154,1.0,20.7,0.043,0.262,0.185,20.7,0.55,0.618,0.212,100.51,0.176,2016-03-14T00:00:00,9,GSW,Golden State,60-6,28,31,35,31,0,0,0,0,0,0,0,0,0,0,125,0.58,0.826,0.48,30,46,18,0021500996,1610612744,GSW,Golden State,Draymond Green,F,,31:18,0.0,0.0,2.0,8.0,6.0,14.0,2.0,20.0,3.0,1.0,1.0,5.0
0021500996,1610612744,GSW,Golden State,101106,Andrew Bogut,C,,15:28,112.6,77.2,35.4,0.273,1.5,35.5,0.0,0.19,0.138,23.7,0.833,0.727,0.17,97.82,0.097,2016-03-14T00:00:00,9,GSW,Golden State,60-6,28,31,35,31,0,0,0,0,0,0,0,0,0,0,125,0.58,0.826,0.48,30,46,18,0021500996,1610612744,GSW,Golden State,Andrew Bogut,C,,15:28,2.0,0.0,2.0,2.0,0.0,8.0,2.0,10.0,1.0,0.0,4.0,2.0
0021500996,1610612744,GSW,Golden State,202691,Klay Thompson,G,,26:07,116.7,88.5,28.1,0.0,0.0,0.0,0.0,0.059,0.038,25.2,0.727,0.758,0.27,102.08,0.123,2016-03-14T00:00:00,9,GSW,Golden State,60-6,28,31,35,31,0,0,0,0,0,0,0,0,0,0,125,0.58,0.826,0.48,30,46,18,0021500996,1610612744,GSW,Golden State,Klay Thompson,G,,26:07,2.0,2.0,2.0,6.0,8.0,10.0,4.0,24.0,1.0,0.0,0.0,1.0
0021500996,1610612744,GSW,Golden State,201939,Stephen Curry,G,,31:18,123.9,84.7,39.2,0.238,5.0,21.0,0.043,0.095,0.077,4.2,0.75,0.76,0.26,100.51,0.248,2016-03-14T00:00:00,9,GSW,Golden State,60-6,28,31,35,31,0,0,0,0,0,0,0,0,0,0,125,0.58,0.826,0.48,30,46,18,0021500996,1610612744,GSW,Golden State,Stephen Curry,G,,31:18,0.0,0.0,4.0,12.0,6.0,14.0,2.0,20.0,0.0,0.0,1.0,2.0
0021500996,1610612744,GSW,Golden State,201578,Marreese Speights,,,18:23,127.9,119.8,8.1,0.214,1.0,16.0,0.273,0.25,0.259,16.0,0.5,0.549,0.371,99.12,0.102,2016-03-14T00:00:00,9,GSW,Golden State,60-6,28,31,35,31,0,0,0,0,0,0,0,0,0,0,125,0.58,0.826,0.48,30,46,18,0021500996,1610612744,GSW,Golden State,Marreese Speights,,,18:23,0.0,0.0,1.0,0.0,6.0,5.0,2.0,16.0,0.0,1.0,4.0,3.0
0021500996,1610612744,GSW,Golden State,2571,Leandro Barbosa,,,21:53,132.2,130.0,2.1,0.053,1.0,12.5,0.0,0.143,0.088,12.5,0.75,0.75,0.139,98.71,0.074,2016-03-14T00:00:00,9,GSW,Golden State,60-6,28,31,35,31,0,0,0,0,0,0,0,0,0,0,125,0.58,0.826,0.48,30,46,18,0021500996,1610612744,GSW,Golden State,Leandro Barbosa,,,21:53,4.0,0.0,2.0,2.0,6.0,11.0,2.0,20.0,0.0,0.0,2.0,0.0
0021500996,1610612744,GSW,Golden State,2733,Shaun Livingston,,,15:49,140.2,125.3,14.9,0.235,4.0,48.1,0.0,0.05,0.037,12.0,0.5,0.602,0.118,100.51,0.025,2016-03-14T00:00:00,9,GSW,Golden State,60-6,28,31,35,31,0,0,0,0,0,0,0,0,0,0,125,0.58,0.826,0.48,30,46,18,0021500996,1610612744,GSW,Golden State,Shaun Livingston,,,15:49,0.0,0.0,2.0,2.0,4.0,6.0,2.0,16.0,0.0,0.0,4.0,1.0
0021500996,1610612744,GSW,Golden State,201575,Brandon Rush,,,18:25,118.9,148.1,-29.2,0.154,0.0,25.0,0.0,0.067,0.038,0.0,0.667,0.667,0.143,98.57,0.086,2016-03-14T00:00:00,9,GSW,Golden State,60-6,28,31,35,31,0,0,0,0,0,0,0,0,0,0,125,0.58,0.826,0.48,30,46,18,0021500996,1610612744,GSW,Golden State,Brandon Rush,,,18:25,0.0,0.0,3.0,2.0,12.0,9.0,4.0,24.0,0.0,0.0,0.0,0.0
0021500996,1610612744,GSW,Golden State,2760,Anderson Varejao,,,7:01,132.7,159.7,-27.0,0.0,0.0,0.0,0.0,0.333,0.214,0.0,1.0,1.054,0.203,98.23,0.232,2016-03-14T00:00:00,9,GSW,Golden State,60-6,28,31,35,31,0,0,0,0,0,0,0,0,0,0,125,0.58,0.826,0.48,30,46,18,0021500996,1610612744,GSW,Golden State,Anderson Varejao,,,7:01,0.0,2.0,0.0,4.0,8.0,6.0,2.0,12.0,0.0,0.0,2.0,2.0
0021500996,1610612744,GSW,Golden State,203949,James Michael McAdoo,,,13:16,117.5,123.0,-5.5,0.111,0.5,10.6,0.231,0.167,0.2,21.2,0.833,0.854,0.251,108.4,0.15,2016-03-14T00:00:00,9,GSW,Golden State,60-6,28,31,35,31,0,0,0,0,0,0,0,0,0,0,125,0.58,0.826,0.48,30,46,18,0021500996,1610612744,GSW,Golden State,James Michael McAdoo,,,13:16,5.0,5.0,2.0,10.0,4.0,7.0,2.0,14.0,0.0,0.0,2.0,1.0
0021500996,1610612744,GSW,Golden State,203546,Ian Clark,,,9:11,113.9,149.4,-35.5,0.429,0.0,50.0,0.0,0.0,0.0,0.0,0.333,0.333,0.135,105.27,0.078,2016-03-14T00:00:00,9,GSW,Golden State,60-6,28,31,35,31,0,0,0,0,0,0,0,0,0,0,125,0.58,0.826,0.48,30,46,18,0021500996,1610612744,GSW,Golden State,Ian Clark,,,9:11,0.0,0.0,0.0,0.0,4.0,7.0,2.0,14.0,0.0,1.0,0.0,0.0
0021500996,1610612744,GSW,Golden State,1626172,Kevon Looney,,DND - Right Hip                         ,,,,,,,0.0,,,,,,,0.0,,,2016-03-14T00:00:00,9,GSW,Golden State,60-6,28,31,35,31,0,0,0,0,0,0,0,0,0,0,125,0.58,0.826,0.48,30,46,18,0021500996,1610612744,GSW,Golden State,Kevon Looney,,DND - Right Hip                         ,,,,,,,,,,,,,
