GAME_ID_x,TEAM_ID_x,TEAM_ABBREVIATION_x,TEAM_CITY_x,PLAYER_ID,PLAYER_NAME_x,START_POSITION_x,COMMENT_x,MIN_x,OFF_RATING,DEF_RATING,NET_RATING,AST_PCT,AST_TOV,AST_RATIO,OREB_PCT,DREB_PCT,REB_PCT,TM_TOV_PCT,EFG_PCT,TS_PCT,USG_PCT,PACE,PIE,GAME_DATE_EST,GAME_SEQUENCE,TEAM_ABBREVIATION_y,TEAM_CITY_NAME,TEAM_WINS_LOSSES,PTS_QTR1,PTS_QTR2,PTS_QTR3,PTS_QTR4,PTS_OT1,PTS_OT2,PTS_OT3,PTS_OT4,PTS_OT5,PTS_OT6,PTS_OT7,PTS_OT8,PTS_OT9,PTS_OT10,PTS,FG_PCT,FT_PCT,FG3_PCT,AST,REB,TOV,GAME_ID_y,TEAM_ID_y,TEAM_ABBREVIATION,TEAM_CITY_y,PLAYER_NAME_y,START_POSITION_y,COMMENT_y,MIN_y,PTS_OFF_TOV,PTS_2ND_CHANCE,PTS_FB,PTS_PAINT,OPP_PTS_OFF_TOV,OPP_PTS_2ND_CHANCE,OPP_PTS_FB,OPP_PTS_PAINT,BLK,BLKA,PF,PFD
0021501000,1610612761,TOR,Toronto,201949,James Johnson,F,,23:59,110.6,112.7,-2.1,0.154,0.0,16.7,0.105,0.0,0.045,0.0,0.55,0.55,0.211,85.18,0.067,2016-03-15T00:00:00,4,TOR,Toronto,45-21,22,30,29,26,0,0,0,0,0,0,0,0,0,0,107,0.47,0.882,0.467,27,48,9,0021501000,1610612761,TOR,Toronto,James Johnson,F,,23:59,2.0,2.0,0.0,6.0,7.0,6.0,7.0,26.0,0.0,1.0,3.0,1.0
0021501000,1610612761,TOR,Toronto,2449,Luis Scola,F,,24:32,127.8,101.1,26.6,0.111,2.0,20.0,0.045,0.222,0.143,10.0,0.5,0.5,0.156,88.9,0.079,2016-03-15T00:00:00,4,TOR,Toronto,45-21,22,30,29,26,0,0,0,0,0,0,0,0,0,0,107,0.47,0.882,0.467,27,48,9,0021501000,1610612761,TOR,Toronto,Luis Scola,F,,24:32,0.0,0.0,2.0,4.0,7.0,6.0,8.0,24.0,0.0,0.0,3.0,1.0
0021501000,1610612761,TOR,Toronto,202687,Bismack Biyombo,C,,24:54,122.8,98.7,24.2,0.067,0.0,12.5,0.105,0.393,0.277,0.0,0.857,0.857,0.139,87.71,0.25,2016-03-15T00:00:00,4,TOR,Toronto,45-21,22,30,29,26,0,0,0,0,0,0,0,0,0,0,107,0.47,0.882,0.467,27,48,9,0021501000,1610612761,TOR,Toronto,Bismack Biyombo,C,,24:54,0.0,2.0,0.0,10.0,7.0,6.0,8.0,24.0,2.0,0.0,2.0,1.0
0021501000,1610612761,TOR,Toronto,1626181,Norman Powell,G,,34:30,120.7,101.9,18.8,0.095,0.0,11.2,0.0,0.086,0.047,0.0,0.5,0.535,0.223,87.62,0.097,2016-03-15T00:00:00,4,TOR,Toronto,45-21,22,30,29,26,0,0,0,0,0,0,0,0,0,0,107,0.47,0.882,0.467,27,48,9,0021501000,1610612761,TOR,Toronto,Norman Powell,G,,34:30,2.0,0.0,2.0,6.0,9.0,10.0,10.0,38.0,2.0,2.0,3.0,2.0
0021501000,1610612761,TOR,Toronto,200768,Kyle Lowry,G,,28:11,143.9,101.0,42.9,0.524,5.5,39.7,0.048,0.1,0.078,7.2,0.778,0.849,0.29,87.03,0.261,2016-03-15T00:00:00,4,TOR,Toronto,45-21,22,30,29,26,0,0,0,0,0,0,0,0,0,0,107,0.47,0.882,0.467,27,48,9,0021501000,1610612761,TOR,Toronto,Kyle Lowry,G,,28:11,3.0,5.0,2.0,0.0,7.0,6.0,8.0,30.0,0.0,0.0,1.0,8.0
0021501000,1610612761,TOR,Toronto,203082,Terrence Ross,,,29:43,119.8,108.7,11.1,0.048,1.0,7.1,0.04,0.087,0.062,7.1,0.458,0.458,0.2,85.35,0.035,2016-03-15T00:00:00,4,TOR,Toronto,45-21,22,30,29,26,0,0,0,0,0,0,0,0,0,0,107,0.47,0.882,0.467,27,48,9,0021501000,1610612761,TOR,Toronto,Terrence Ross,,,29:43,3.0,0.0,0.0,0.0,6.0,4.0,6.0,28.0,1.0,0.0,2.0,0.0
0021501000,1610612761,TOR,Toronto,202335,Patrick Patterson,,,19:57,127.8,114.8,13.0,0.182,2.0,14.3,0.118,0.267,0.188,7.1,0.636,0.636,0.284,83.2,0.17,2016-03-15T00:00:00,4,TOR,Toronto,45-21,22,30,29,26,0,0,0,0,0,0,0,0,0,0,107,0.47,0.882,0.467,27,48,9,0021501000,1610612761,TOR,Toronto,Patrick Patterson,,,19:57,2.0,7.0,0.0,6.0,4.0,2.0,4.0,22.0,2.0,0.0,3.0,0.0
0021501000,1610612761,TOR,Toronto,202709,Cory Joseph,,,24:49,121.7,105.2,16.5,0.353,6.0,40.0,0.077,0.053,0.067,6.7,0.375,0.375,0.166,85.99,0.084,2016-03-15T00:00:00,4,TOR,Toronto,45-21,22,30,29,26,0,0,0,0,0,0,0,0,0,0,107,0.47,0.882,0.467,27,48,9,0021501000,1610612761,TOR,Toronto,Cory Joseph,,,24:49,0.0,0.0,0.0,6.0,4.0,2.0,5.0,26.0,0.0,0.0,1.0,2.0
0021501000,1610612761,TOR,Toronto,201574,Jason Thompson,,,23:06,121.7,110.2,11.5,0.0,0.0,0.0,0.095,0.235,0.158,25.0,0.333,0.333,0.08,85.11,0.006,2016-03-15T00:00:00,4,TOR,Toronto,45-21,22,30,29,26,0,0,0,0,0,0,0,0,0,0,107,0.47,0.882,0.467,27,48,9,0021501000,1610612761,TOR,Toronto,Jason Thompson,,,23:06,0.0,2.0,0.0,2.0,4.0,4.0,4.0,26.0,1.0,0.0,5.0,0.0
0021501000,1610612761,TOR,Toronto,203512,Lucas Nogueira,,,3:31,58.1,66.7,-8.5,0.0,0.0,0.0,0.0,0.0,0.0,100.0,0.0,0.0,0.145,87.9,-0.333,2016-03-15T00:00:00,4,TOR,Toronto,45-21,22,30,29,26,0,0,0,0,0,0,0,0,0,0,107,0.47,0.882,0.467,27,48,9,0021501000,1610612761,TOR,Toronto,Lucas Nogueira,,,3:31,0.0,0.0,0.0,0.0,0.0,2.0,0.0,4.0,0.0,0.0,0.0,0.0
0021501000,1610612761,TOR,Toronto,1626153,Delon Wright,,,2:48,68.0,40.0,28.0,0.0,0.0,0.0,0.0,0.333,0.333,34.7,0.0,0.532,0.49,93.26,1.0,2016-03-15T00:00:00,4,TOR,Toronto,45-21,22,30,29,26,0,0,0,0,0,0,0,0,0,0,107,0.47,0.882,0.467,27,48,9,0021501000,1610612761,TOR,Toronto,Delon Wright,,,2:48,0.0,0.0,0.0,0.0,0.0,2.0,0.0,2.0,0.0,0.0,0.0,1.0
0021501000,1610612761,TOR,Toronto,201942,DeMar DeRozan,,DNP - Coach's Decision                  ,,,,,,,0.0,,,,,,,0.0,,,2016-03-15T00:00:00,4,TOR,Toronto,45-21,22,30,29,26,0,0,0,0,0,0,0,0,0,0,107,0.47,0.882,0.467,27,48,9,0021501000,1610612761,TOR,Toronto,DeMar DeRozan,,DNP - Coach's Decision                  ,,,,,,,,,,,,,
0021501000,1610612761,TOR,Toronto,202685,Jonas Valanciunas,,DND - Left Hand Contusion               ,,,,,,,0.0,,,,,,,0.0,,,2016-03-15T00:00:00,4,TOR,Toronto,45-21,22,30,29,26,0,0,0,0,0,0,0,0,0,0,107,0.47,0.882,0.467,27,48,9,0021501000,1610612761,TOR,Toronto,Jonas Valanciunas,,DND - Left Hand Contusion               ,,,,,,,,,,,,,
0021501000,1610612749,MIL,Milwaukee,203507,Giannis Antetokounmpo,F,,35:07,111.5,118.2,-6.7,0.429,9.0,33.5,0.061,0.303,0.182,3.7,0.5,0.534,0.249,87.45,0.171,2016-03-15T00:00:00,4,MIL,Milwaukee,29-39,28,21,17,23,0,0,0,0,0,0,0,0,0,0,89,0.442,0.731,0.154,18,37,7,0021501000,1610612749,MIL,Milwaukee,Giannis Antetokounmpo,F,,35:07,0.0,2.0,3.0,12.0,10.0,15.0,6.0,28.0,3.0,1.0,4.0,7.0
0021501000,1610612749,MIL,Milwaukee,203953,Jabari Parker,F,,37:15,103.4,133.6,-30.2,0.1,0.0,10.4,0.0,0.121,0.059,0.0,0.469,0.52,0.232,89.09,0.085,2016-03-15T00:00:00,4,MIL,Milwaukee,29-39,28,21,17,23,0,0,0,0,0,0,0,0,0,0,89,0.442,0.731,0.154,18,37,7,0021501000,1610612749,MIL,Milwaukee,Jabari Parker,F,,37:15,2.0,2.0,0.0,6.0,12.0,16.0,6.0,30.0,0.0,2.0,2.0,3.0
0021501000,1610612749,MIL,Milwaukee,202328,Greg Monroe,C,,28:35,105.1,124.5,-19.4,0.0,0.0,0.0,0.065,0.292,0.164,0.0,0.5,0.474,0.145,86.3,0.091,2016-03-15T00:00:00,4,MIL,Milwaukee,29-39,28,21,17,23,0,0,0,0,0,0,0,0,0,0,89,0.442,0.731,0.154,18,37,7,0021501000,1610612749,MIL,Milwaukee,Greg Monroe,C,,28:35,0.0,2.0,0.0,8.0,5.0,9.0,6.0,26.0,0.0,2.0,1.0,2.0
0021501000,1610612749,MIL,Milwaukee,203114,Khris Middleton,G,,30:33,108.7,114.0,-5.3,0.176,3.0,20.2,0.031,0.0,0.018,6.7,0.5,0.551,0.191,84.66,0.094,2016-03-15T00:00:00,4,MIL,Milwaukee,29-39,28,21,17,23,0,0,0,0,0,0,0,0,0,0,89,0.442,0.731,0.154,18,37,7,0021501000,1610612749,MIL,Milwaukee,Khris Middleton,G,,30:33,2.0,0.0,2.0,6.0,5.0,11.0,6.0,30.0,0.0,1.0,2.0,3.0
0021501000,1610612749,MIL,Milwaukee,201573,Jerryd Bayless,G,,28:24,109.1,124.0,-14.9,0.0,0.0,0.0,0.0,0.0,0.0,0.0,0.389,0.511,0.194,86.1,0.018,2016-03-15T00:00:00,4,MIL,Milwaukee,29-39,28,21,17,23,0,0,0,0,0,0,0,0,0,0,89,0.442,0.731,0.154,18,37,7,0021501000,1610612749,MIL,Milwaukee,Jerryd Bayless,G,,28:24,5.0,0.0,5.0,4.0,0.0,7.0,6.0,26.0,0.0,1.0,4.0,3.0
0021501000,1610612749,MIL,Milwaukee,203101,Miles Plumlee,,,13:40,99.2,138.2,-39.1,0.0,0.0,0.0,0.2,0.083,0.136,14.5,0.4,0.51,0.263,86.93,0.066,2016-03-15T00:00:00,4,MIL,Milwaukee,29-39,28,21,17,23,0,0,0,0,0,0,0,0,0,0,89,0.442,0.731,0.154,18,37,7,0021501000,1610612749,MIL,Milwaukee,Miles Plumlee,,,13:40,2.0,0.0,2.0,4.0,5.0,9.0,0.0,12.0,0.0,1.0,0.0,2.0
0021501000,1610612749,MIL,Milwaukee,203898,Tyler Ennis,,,28:21,100.6,127.8,-27.2,0.2,3.0,22.5,0.042,0.12,0.082,7.5,0.5,0.536,0.182,85.33,0.082,2016-03-15T00:00:00,4,MIL,Milwaukee,29-39,28,21,17,23,0,0,0,0,0,0,0,0,0,0,89,0.442,0.731,0.154,18,37,7,0021501000,1610612749,MIL,Milwaukee,Tyler Ennis,,,28:21,0.0,2.0,0.0,6.0,12.0,14.0,0.0,24.0,0.0,0.0,2.0,2.0
0021501000,1610612749,MIL,Milwaukee,203948,Johnny O'Bryant III,,,15:29,93.6,121.3,-27.7,0.0,0.0,0.0,0.067,0.091,0.077,0.0,0.333,0.333,0.101,81.9,0.05,2016-03-15T00:00:00,4,MIL,Milwaukee,29-39,28,21,17,23,0,0,0,0,0,0,0,0,0,0,89,0.442,0.731,0.154,18,37,7,0021501000,1610612749,MIL,Milwaukee,Johnny O'Bryant III,,,15:29,0.0,0.0,0.0,0.0,2.0,5.0,0.0,14.0,0.0,0.0,0.0,1.0
0021501000,1610612749,MIL,Milwaukee,1626173,Rashad Vaughn,,,13:20,95.0,123.6,-28.6,0.111,1.0,25.0,0.0,0.1,0.053,25.0,0.0,0.0,0.119,88.7,-0.021,2016-03-15T00:00:00,4,MIL,Milwaukee,29-39,28,21,17,23,0,0,0,0,0,0,0,0,0,0,89,0.442,0.731,0.154,18,37,7,0021501000,1610612749,MIL,Milwaukee,Rashad Vaughn,,,13:20,0.0,0.0,0.0,0.0,7.0,4.0,0.0,8.0,0.0,0.0,1.0,0.0
0021501000,1610612749,MIL,Milwaukee,203089,John Henson,,,5:45,111.3,74.3,37.0,0.0,0.0,0.0,0.25,0.0,0.125,25.0,0.667,0.667,0.368,86.15,0.35,2016-03-15T00:00:00,4,MIL,Milwaukee,29-39,28,21,17,23,0,0,0,0,0,0,0,0,0,0,89,0.442,0.731,0.154,18,37,7,0021501000,1610612749,MIL,Milwaukee,John Henson,,,5:45,0.0,2.0,0.0,4.0,2.0,0.0,0.0,2.0,0.0,0.0,0.0,0.0
0021501000,1610612749,MIL,Milwaukee,203996,Damien Inglis,,,3:31,66.7,58.1,8.5,0.0,0.0,0.0,0.0,0.0,0.0,50.0,0.0,0.0,0.333,87.9,-0.333,2016-03-15T00:00:00,4,MIL,Milwaukee,29-39,28,21,17,23,0,0,0,0,0,0,0,0,0,0,89,0.442,0.731,0.154,18,37,7,0021501000,1610612749,MIL,Milwaukee,Damien Inglis,,,3:31,0.0,0.0,0.0,0.0,0.0,0.0,0.0,0.0,0.0,0.0,0.0,0.0
0021501000,1610612749,MIL,Milwaukee,203487,Michael Carter-Williams,,NWT - Left Hip Surgery                  ,,,,,,,0.0,,,,,,,0.0,,,2016-03-15T00:00:00,4,MIL,Milwaukee,29-39,28,21,17,23,0,0,0,0,0,0,0,0,0,0,89,0.442,0.731,0.154,18,37,7,0021501000,1610612749,MIL,Milwaukee,Michael Carter-Williams,,NWT - Left Hip Surgery                  ,,,,,,,,,,,,,
