GAME_ID_x,TEAM_ID_x,TEAM_ABBREVIATION_x,TEAM_CITY_x,PLAYER_ID,PLAYER_NAME_x,START_POSITION_x,COMMENT_x,MIN_x,OFF_RATING,DEF_RATING,NET_RATING,AST_PCT,AST_TOV,AST_RATIO,OREB_PCT,DREB_PCT,REB_PCT,TM_TOV_PCT,EFG_PCT,TS_PCT,USG_PCT,PACE,PIE,GAME_DATE_EST,GAME_SEQUENCE,TEAM_ABBREVIATION_y,TEAM_CITY_NAME,TEAM_WINS_LOSSES,PTS_QTR1,PTS_QTR2,PTS_QTR3,PTS_QTR4,PTS_OT1,PTS_OT2,PTS_OT3,PTS_OT4,PTS_OT5,PTS_OT6,PTS_OT7,PTS_OT8,PTS_OT9,PTS_OT10,PTS,FG_PCT,FT_PCT,FG3_PCT,AST,REB,TOV,GAME_ID_y,TEAM_ID_y,TEAM_ABBREVIATION,TEAM_CITY_y,PLAYER_NAME_y,START_POSITION_y,COMMENT_y,MIN_y,PTS_OFF_TOV,PTS_2ND_CHANCE,PTS_FB,PTS_PAINT,OPP_PTS_OFF_TOV,OPP_PTS_2ND_CHANCE,OPP_PTS_FB,OPP_PTS_PAINT,BLK,BLKA,PF,PFD
0021501005,1610612742,DAL,Dallas,202083,Wesley Matthews,F,,23:07,107.0,111.8,-4.8,0.059,1.0,13.7,0.0,0.167,0.083,13.7,0.25,0.47,0.13,100.54,0.04,2016-03-16T00:00:00,3,DAL,Dallas,34-34,28,23,17,30,0,0,0,0,0,0,0,0,0,0,98,0.468,0.895,0.318,24,32,10,0021501005,1610612742,DAL,Dallas,Wesley Matthews,F,,23:07,0.0,0.0,0.0,0.0,9.0,15.0,11.0,26.0,0.0,0.0,1.0,1.0
0021501005,1610612742,DAL,Dallas,202718,Chandler Parsons,F,,35:44,103.4,105.9,-2.5,0.4,3.33,45.5,0.038,0.148,0.094,13.6,0.333,0.333,0.163,95.0,0.087,2016-03-16T00:00:00,3,DAL,Dallas,34-34,28,23,17,30,0,0,0,0,0,0,0,0,0,0,98,0.468,0.895,0.318,24,32,10,0021501005,1610612742,DAL,Dallas,Chandler Parsons,F,,35:44,2.0,0.0,0.0,2.0,11.0,20.0,11.0,32.0,0.0,0.0,2.0,2.0
0021501005,1610612742,DAL,Dallas,1717,Dirk Nowitzki,C,,34:47,104.5,97.0,7.5,0.167,3.0,12.7,0.0,0.118,0.063,4.2,0.441,0.509,0.291,95.2,0.124,2016-03-16T00:00:00,3,DAL,Dallas,34-34,28,23,17,30,0,0,0,0,0,0,0,0,0,0,98,0.468,0.895,0.318,24,32,10,0021501005,1610612742,DAL,Dallas,Dirk Nowitzki,C,,34:47,7.0,2.0,0.0,8.0,10.0,16.0,7.0,20.0,3.0,0.0,1.0,6.0
0021501005,1610612742,DAL,Dallas,101114,Deron Williams,G,,24:48,106.7,108.8,-2.1,0.278,2.5,38.8,0.0,0.059,0.026,15.5,0.3,0.34,0.152,95.17,0.025,2016-03-16T00:00:00,3,DAL,Dallas,34-34,28,23,17,30,0,0,0,0,0,0,0,0,0,0,98,0.468,0.895,0.318,24,32,10,0021501005,1610612742,DAL,Dallas,Deron Williams,G,,24:48,0.0,0.0,0.0,0.0,7.0,16.0,9.0,20.0,1.0,1.0,2.0,1.0
0021501005,1610612742,DAL,Dallas,101109,Raymond Felton,G,,17:12,92.3,132.2,-39.9,0.0,0.0,0.0,0.063,0.0,0.037,0.0,0.5,0.5,0.18,86.62,0.038,2016-03-16T00:00:00,3,DAL,Dallas,34-34,28,23,17,30,0,0,0,0,0,0,0,0,0,0,98,0.468,0.895,0.318,24,32,10,0021501005,1610612742,DAL,Dallas,Raymond Felton,G,,17:12,0.0,0.0,0.0,6.0,5.0,18.0,5.0,12.0,0.0,0.0,1.0,1.0
0021501005,1610612742,DAL,Dallas,101135,David Lee,,,21:33,109.4,102.3,7.1,0.111,0.0,7.3,0.063,0.143,0.1,0.0,0.727,0.784,0.268,105.19,0.196,2016-03-16T00:00:00,3,DAL,Dallas,34-34,28,23,17,30,0,0,0,0,0,0,0,0,0,0,98,0.468,0.895,0.318,24,32,10,0021501005,1610612742,DAL,Dallas,David Lee,,,21:33,4.0,0.0,2.0,14.0,9.0,2.0,8.0,26.0,0.0,1.0,2.0,4.0
0021501005,1610612742,DAL,Dallas,2734,Devin Harris,,,28:07,98.8,97.3,1.5,0.0,0.0,0.0,0.0,0.231,0.122,14.3,0.5,0.5,0.124,94.9,0.066,2016-03-16T00:00:00,3,DAL,Dallas,34-34,28,23,17,30,0,0,0,0,0,0,0,0,0,0,98,0.468,0.895,0.318,24,32,10,0021501005,1610612742,DAL,Dallas,Devin Harris,,,28:07,0.0,0.0,0.0,0.0,7.0,9.0,2.0,24.0,2.0,0.0,3.0,1.0
0021501005,1610612742,DAL,Dallas,200826,J.J. Barea,,,23:14,105.1,95.6,9.5,0.333,2.0,25.0,0.0,0.125,0.071,12.5,0.85,0.85,0.252,96.81,0.203,2016-03-16T00:00:00,3,DAL,Dallas,34-34,28,23,17,30,0,0,0,0,0,0,0,0,0,0,98,0.468,0.895,0.318,24,32,10,0021501005,1610612742,DAL,Dallas,J.J. Barea,,,23:14,0.0,0.0,0.0,6.0,7.0,6.0,2.0,20.0,0.0,1.0,3.0,0.0
0021501005,1610612742,DAL,Dallas,1626147,Justin Anderson,,,15:28,107.5,91.0,16.5,0.0,0.0,0.0,0.067,0.056,0.061,0.0,0.25,0.41,0.159,93.91,0.078,2016-03-16T00:00:00,3,DAL,Dallas,34-34,28,23,17,30,0,0,0,0,0,0,0,0,0,0,98,0.468,0.895,0.318,24,32,10,0021501005,1610612742,DAL,Dallas,Justin Anderson,,,15:28,2.0,2.0,0.0,2.0,3.0,2.0,0.0,10.0,1.0,0.0,0.0,1.0
0021501005,1610612742,DAL,Dallas,203939,Dwight Powell,,,2:34,50.0,131.6,-81.6,0.0,0.0,0.0,0.0,0.0,0.0,0.0,1.0,1.0,0.2,87.15,0.0,2016-03-16T00:00:00,3,DAL,Dallas,34-34,28,23,17,30,0,0,0,0,0,0,0,0,0,0,98,0.468,0.895,0.318,24,32,10,0021501005,1610612742,DAL,Dallas,Dwight Powell,,,2:34,0.0,0.0,0.0,2.0,0.0,4.0,0.0,4.0,0.0,0.0,2.0,0.0
0021501005,1610612742,DAL,Dallas,2585,Zaza Pachulia,,,13:26,108.5,69.0,39.5,0.0,0.0,0.0,0.0,0.267,0.16,0.0,0.5,0.581,0.266,88.51,0.273,2016-03-16T00:00:00,3,DAL,Dallas,34-34,28,23,17,30,0,0,0,0,0,0,0,0,0,0,98,0.468,0.895,0.318,24,32,10,0021501005,1610612742,DAL,Dallas,Zaza Pachulia,,,13:26,4.0,0.0,2.0,6.0,2.0,2.0,0.0,6.0,0.0,1.0,1.0,2.0
0021501005,1610612742,DAL,Dallas,1626257,Salah Mejri,,DNP - Coach's Decision                  ,,,,,,,0.0,,,,,,,0.0,,,2016-03-16T00:00:00,3,DAL,Dallas,34-34,28,23,17,30,0,0,0,0,0,0,0,0,0,0,98,0.468,0.895,0.318,24,32,10,0021501005,1610612742,DAL,Dallas,Salah Mejri,,DNP - Coach's Decision                  ,,,,,,,,,,,,,
0021501005,1610612742,DAL,Dallas,101111,Charlie Villanueva,,DNP - Coach's Decision                  ,,,,,,,0.0,,,,,,,0.0,,,2016-03-16T00:00:00,3,DAL,Dallas,34-34,28,23,17,30,0,0,0,0,0,0,0,0,0,0,98,0.468,0.895,0.318,24,32,10,0021501005,1610612742,DAL,Dallas,Charlie Villanueva,,DNP - Coach's Decision                  ,,,,,,,,,,,,,
0021501005,1610612739,CLE,Cleveland,202697,Iman Shumpert,F,,31:40,102.4,106.8,-4.4,0.2,2.5,55.6,0.077,0.091,0.083,22.2,0.5,0.5,0.057,96.35,0.06,2016-03-16T00:00:00,3,CLE,Cleveland,48-19,31,26,27,15,0,0,0,0,0,0,0,0,0,0,99,0.443,0.846,0.27,21,48,16,0021501005,1610612739,CLE,Cleveland,Iman Shumpert,F,,31:40,0.0,0.0,0.0,2.0,13.0,2.0,2.0,32.0,1.0,1.0,3.0,0.0
0021501005,1610612739,CLE,Cleveland,201567,Kevin Love,F,,33:37,111.3,93.3,18.0,0.048,0.5,4.1,0.167,0.467,0.333,8.1,0.474,0.531,0.314,94.65,0.207,2016-03-16T00:00:00,3,CLE,Cleveland,48-19,31,26,27,15,0,0,0,0,0,0,0,0,0,0,99,0.443,0.846,0.27,21,48,16,0021501005,1610612739,CLE,Cleveland,Kevin Love,F,,33:37,0.0,7.0,0.0,8.0,15.0,2.0,4.0,30.0,2.0,2.0,3.0,5.0
0021501005,1610612739,CLE,Cleveland,202684,Tristan Thompson,C,,37:25,91.7,114.5,-22.8,0.077,2.0,40.0,0.114,0.154,0.131,20.0,0.0,0.0,0.036,92.65,0.0,2016-03-16T00:00:00,3,CLE,Cleveland,48-19,31,26,27,15,0,0,0,0,0,0,0,0,0,0,99,0.443,0.846,0.27,21,48,16,0021501005,1610612739,CLE,Cleveland,Tristan Thompson,C,,37:25,0.0,0.0,0.0,0.0,19.0,4.0,4.0,42.0,0.0,1.0,5.0,2.0
0021501005,1610612739,CLE,Cleveland,2747,JR Smith,G,,39:51,97.2,119.7,-22.5,0.16,4.0,18.2,0.03,0.115,0.068,4.5,0.382,0.382,0.195,96.75,0.056,2016-03-16T00:00:00,3,CLE,Cleveland,48-19,31,26,27,15,0,0,0,0,0,0,0,0,0,0,99,0.443,0.846,0.27,21,48,16,0021501005,1610612739,CLE,Cleveland,JR Smith,G,,39:51,2.0,5.0,2.0,6.0,19.0,4.0,4.0,46.0,0.0,1.0,3.0,0.0
0021501005,1610612739,CLE,Cleveland,202681,Kyrie Irving,G,,38:31,102.9,96.9,6.0,0.063,0.25,2.9,0.03,0.118,0.075,11.5,0.518,0.554,0.403,91.67,0.144,2016-03-16T00:00:00,3,CLE,Cleveland,48-19,31,26,27,15,0,0,0,0,0,0,0,0,0,0,99,0.443,0.846,0.27,21,48,16,0021501005,1610612739,CLE,Cleveland,Kyrie Irving,G,,38:31,9.0,5.0,7.0,12.0,12.0,4.0,4.0,38.0,1.0,2.0,2.0,5.0
0021501005,1610612739,CLE,Cleveland,2210,Richard Jefferson,,,18:08,124.5,85.6,38.8,0.059,0.5,11.8,0.0,0.294,0.156,23.7,0.5,0.551,0.17,97.89,0.084,2016-03-16T00:00:00,3,CLE,Cleveland,48-19,31,26,27,15,0,0,0,0,0,0,0,0,0,0,99,0.443,0.846,0.27,21,48,16,0021501005,1610612739,CLE,Cleveland,Richard Jefferson,,,18:08,0.0,3.0,0.0,2.0,4.0,0.0,0.0,14.0,0.0,0.0,1.0,2.0
0021501005,1610612739,CLE,Cleveland,203521,Matthew Dellavedova,,,22:44,101.8,102.0,-0.2,0.438,2.33,38.0,0.0,0.045,0.024,16.3,0.5,0.474,0.204,100.5,0.108,2016-03-16T00:00:00,3,CLE,Cleveland,48-19,31,26,27,15,0,0,0,0,0,0,0,0,0,0,99,0.443,0.846,0.27,21,48,16,0021501005,1610612739,CLE,Cleveland,Matthew Dellavedova,,,22:44,0.0,2.0,2.0,6.0,11.0,2.0,2.0,18.0,0.0,0.0,0.0,2.0
0021501005,1610612739,CLE,Cleveland,101112,Channing Frye,,,18:05,95.0,95.8,-0.8,0.0,0.0,0.0,0.05,0.111,0.079,11.8,0.929,0.941,0.192,98.74,0.202,2016-03-16T00:00:00,3,CLE,Cleveland,48-19,31,26,27,15,0,0,0,0,0,0,0,0,0,0,99,0.443,0.846,0.27,21,48,16,0021501005,1610612739,CLE,Cleveland,Channing Frye,,,18:05,3.0,0.0,0.0,4.0,2.0,2.0,0.0,10.0,0.0,0.0,2.0,2.0
0021501005,1610612739,CLE,Cleveland,2544,LeBron James,,DNP - Coach's Decision                  ,,,,,,,0.0,,,,,,,0.0,,,2016-03-16T00:00:00,3,CLE,Cleveland,48-19,31,26,27,15,0,0,0,0,0,0,0,0,0,0,99,0.443,0.846,0.27,21,48,16,0021501005,1610612739,CLE,Cleveland,LeBron James,,DNP - Coach's Decision                  ,,,,,,,,,,,,,
0021501005,1610612739,CLE,Cleveland,2592,James Jones,,DNP - Coach's Decision                  ,,,,,,,0.0,,,,,,,0.0,,,2016-03-16T00:00:00,3,CLE,Cleveland,48-19,31,26,27,15,0,0,0,0,0,0,0,0,0,0,99,0.443,0.846,0.27,21,48,16,0021501005,1610612739,CLE,Cleveland,James Jones,,DNP - Coach's Decision                  ,,,,,,,,,,,,,
0021501005,1610612739,CLE,Cleveland,201619,Sasha Kaun,,DNP - Coach's Decision                  ,,,,,,,0.0,,,,,,,0.0,,,2016-03-16T00:00:00,3,CLE,Cleveland,48-19,31,26,27,15,0,0,0,0,0,0,0,0,0,0,99,0.443,0.846,0.27,21,48,16,0021501005,1610612739,CLE,Cleveland,Sasha Kaun,,DNP - Coach's Decision                  ,,,,,,,,,,,,,
0021501005,1610612739,CLE,Cleveland,203895,Jordan McRae,,DNP - Coach's Decision                  ,,,,,,,0.0,,,,,,,0.0,,,2016-03-16T00:00:00,3,CLE,Cleveland,48-19,31,26,27,15,0,0,0,0,0,0,0,0,0,0,99,0.443,0.846,0.27,21,48,16,0021501005,1610612739,CLE,Cleveland,Jordan McRae,,DNP - Coach's Decision                  ,,,,,,,,,,,,,
0021501005,1610612739,CLE,Cleveland,202389,Timofey Mozgov,,DNP - Coach's Decision                  ,,,,,,,0.0,,,,,,,0.0,,,2016-03-16T00:00:00,3,CLE,Cleveland,48-19,31,26,27,15,0,0,0,0,0,0,0,0,0,0,99,0.443,0.846,0.27,21,48,16,0021501005,1610612739,CLE,Cleveland,Timofey Mozgov,,DNP - Coach's Decision                  ,,,,,,,,,,,,,
