GAME_ID_x,TEAM_ID_x,TEAM_ABBREVIATION_x,TEAM_CITY_x,PLAYER_ID,PLAYER_NAME_x,START_POSITION_x,COMMENT_x,MIN_x,OFF_RATING,DEF_RATING,NET_RATING,AST_PCT,AST_TOV,AST_RATIO,OREB_PCT,DREB_PCT,REB_PCT,TM_TOV_PCT,EFG_PCT,TS_PCT,USG_PCT,PACE,PIE,GAME_DATE_EST,GAME_SEQUENCE,TEAM_ABBREVIATION_y,TEAM_CITY_NAME,TEAM_WINS_LOSSES,PTS_QTR1,PTS_QTR2,PTS_QTR3,PTS_QTR4,PTS_OT1,PTS_OT2,PTS_OT3,PTS_OT4,PTS_OT5,PTS_OT6,PTS_OT7,PTS_OT8,PTS_OT9,PTS_OT10,PTS,FG_PCT,FT_PCT,FG3_PCT,AST,REB,TOV,GAME_ID_y,TEAM_ID_y,TEAM_ABBREVIATION,TEAM_CITY_y,PLAYER_NAME_y,START_POSITION_y,COMMENT_y,MIN_y,PTS_OFF_TOV,PTS_2ND_CHANCE,PTS_FB,PTS_PAINT,OPP_PTS_OFF_TOV,OPP_PTS_2ND_CHANCE,OPP_PTS_FB,OPP_PTS_PAINT,BLK,BLKA,PF,PFD
0021501016,1610612751,BKN,Brooklyn,202711,Bojan Bogdanovic,F,,28:44,126.0,114.9,11.1,0.278,5.0,20.2,0.043,0.08,0.062,4.0,0.647,0.693,0.335,89.43,0.166,2016-03-17T00:00:00,5,BKN,Brooklyn,19-49,14,23,37,28,0,0,0,0,0,0,0,0,0,0,102,0.465,0.8,0.286,22,39,9,0021501016,1610612751,BKN,Brooklyn,Bojan Bogdanovic,F,,28:44,2.0,2.0,2.0,10.0,0.0,8.0,9.0,26.0,0.0,4.0,4.0,3.0
0021501016,1610612751,BKN,Brooklyn,201152,Thaddeus Young,F,,30:54,122.6,108.7,13.9,0.048,0.0,7.8,0.148,0.345,0.25,0.0,0.636,0.673,0.184,90.63,0.19,2016-03-17T00:00:00,5,BKN,Brooklyn,19-49,14,23,37,28,0,0,0,0,0,0,0,0,0,0,102,0.465,0.8,0.286,22,39,9,0021501016,1610612751,BKN,Brooklyn,Thaddeus Young,F,,30:54,2.0,4.0,0.0,12.0,0.0,6.0,11.0,28.0,2.0,1.0,2.0,1.0
0021501016,1610612751,BKN,Brooklyn,201572,Brook Lopez,C,,31:09,120.1,110.1,9.9,0.08,2.0,17.5,0.038,0.074,0.057,8.7,0.5,0.533,0.143,90.27,0.046,2016-03-17T00:00:00,5,BKN,Brooklyn,19-49,14,23,37,28,0,0,0,0,0,0,0,0,0,0,102,0.465,0.8,0.286,22,39,9,0021501016,1610612751,BKN,Brooklyn,Brook Lopez,C,,31:09,0.0,0.0,0.0,6.0,0.0,8.0,9.0,30.0,0.0,1.0,2.0,2.0
0021501016,1610612751,BKN,Brooklyn,203508,Sergey Karasev,G,,31:50,123.8,118.1,5.7,0.192,5.0,28.0,0.0,0.185,0.089,5.6,0.409,0.463,0.192,90.41,0.073,2016-03-17T00:00:00,5,BKN,Brooklyn,19-49,14,23,37,28,0,0,0,0,0,0,0,0,0,0,102,0.465,0.8,0.286,22,39,9,0021501016,1610612751,BKN,Brooklyn,Sergey Karasev,G,,31:50,3.0,2.0,2.0,2.0,0.0,8.0,9.0,34.0,0.0,0.0,2.0,1.0
0021501016,1610612751,BKN,Brooklyn,202388,Donald Sloan,G,,29:52,124.4,107.0,17.4,0.125,1.5,20.0,0.0,0.0,0.0,13.3,0.65,0.65,0.184,92.44,0.059,2016-03-17T00:00:00,5,BKN,Brooklyn,19-49,14,23,37,28,0,0,0,0,0,0,0,0,0,0,102,0.465,0.8,0.286,22,39,9,0021501016,1610612751,BKN,Brooklyn,Donald Sloan,G,,29:52,5.0,0.0,4.0,8.0,0.0,6.0,9.0,30.0,0.0,0.0,4.0,0.0
0021501016,1610612751,BKN,Brooklyn,1626191,Chris McCullough,,,15:13,85.1,145.4,-60.3,0.125,0.0,20.0,0.118,0.071,0.097,0.0,0.625,0.625,0.117,94.42,0.087,2016-03-17T00:00:00,5,BKN,Brooklyn,19-49,14,23,37,28,0,0,0,0,0,0,0,0,0,0,102,0.465,0.8,0.286,22,39,9,0021501016,1610612751,BKN,Brooklyn,Chris McCullough,,,15:13,0.0,2.0,0.0,0.0,9.0,10.0,4.0,18.0,0.0,0.0,2.0,1.0
0021501016,1610612751,BKN,Brooklyn,203499,Shane Larkin,,,18:08,89.3,157.1,-67.8,0.444,0.0,42.4,0.0,0.118,0.056,0.0,0.2,0.184,0.14,93.12,0.039,2016-03-17T00:00:00,5,BKN,Brooklyn,19-49,14,23,37,28,0,0,0,0,0,0,0,0,0,0,102,0.465,0.8,0.286,22,39,9,0021501016,1610612751,BKN,Brooklyn,Shane Larkin,,,18:08,0.0,0.0,2.0,2.0,9.0,12.0,6.0,20.0,0.0,1.0,0.0,2.0
0021501016,1610612751,BKN,Brooklyn,203930,Sean Kilpatrick,,,20:49,95.9,144.8,-48.9,0.091,0.0,9.4,0.0,0.056,0.024,0.0,0.5,0.622,0.198,98.31,0.099,2016-03-17T00:00:00,5,BKN,Brooklyn,19-49,14,23,37,28,0,0,0,0,0,0,0,0,0,0,102,0.465,0.8,0.286,22,39,9,0021501016,1610612751,BKN,Brooklyn,Sean Kilpatrick,,,20:49,2.0,0.0,2.0,4.0,9.0,12.0,6.0,26.0,0.0,0.0,1.0,4.0
0021501016,1610612751,BKN,Brooklyn,203900,Markel Brown,,,16:20,81.9,145.7,-63.7,0.0,0.0,0.0,0.056,0.063,0.059,12.5,0.143,0.143,0.216,97.88,-0.072,2016-03-17T00:00:00,5,BKN,Brooklyn,19-49,14,23,37,28,0,0,0,0,0,0,0,0,0,0,102,0.465,0.8,0.286,22,39,9,0021501016,1610612751,BKN,Brooklyn,Markel Brown,,,16:20,0.0,2.0,0.0,2.0,9.0,10.0,6.0,18.0,0.0,1.0,1.0,0.0
0021501016,1610612751,BKN,Brooklyn,203080,Thomas Robinson,,,17:03,97.8,151.1,-53.3,0.0,0.0,0.0,0.15,0.188,0.167,27.9,0.333,0.387,0.278,97.34,0.028,2016-03-17T00:00:00,5,BKN,Brooklyn,19-49,14,23,37,28,0,0,0,0,0,0,0,0,0,0,102,0.465,0.8,0.286,22,39,9,0021501016,1610612751,BKN,Brooklyn,Thomas Robinson,,,17:03,0.0,2.0,0.0,4.0,9.0,10.0,6.0,20.0,1.0,0.0,0.0,2.0
0021501016,1610612751,BKN,Brooklyn,201961,Wayne Ellington,,DNP - Coach's Decision                  ,,,,,,,0.0,,,,,,,0.0,,,2016-03-17T00:00:00,5,BKN,Brooklyn,19-49,14,23,37,28,0,0,0,0,0,0,0,0,0,0,102,0.465,0.8,0.286,22,39,9,0021501016,1610612751,BKN,Brooklyn,Wayne Ellington,,DNP - Coach's Decision                  ,,,,,,,,,,,,,
0021501016,1610612751,BKN,Brooklyn,203186,Willie Reed,,DNP - Coach's Decision                  ,,,,,,,0.0,,,,,,,0.0,,,2016-03-17T00:00:00,5,BKN,Brooklyn,19-49,14,23,37,28,0,0,0,0,0,0,0,0,0,0,102,0.465,0.8,0.286,22,39,9,0021501016,1610612751,BKN,Brooklyn,Willie Reed,,DNP - Coach's Decision                  ,,,,,,,,,,,,,
0021501016,1610612751,BKN,Brooklyn,203156,Henry Sims,,DNP - Coach's Decision                  ,,,,,,,0.0,,,,,,,0.0,,,2016-03-17T00:00:00,5,BKN,Brooklyn,19-49,14,23,37,28,0,0,0,0,0,0,0,0,0,0,102,0.465,0.8,0.286,22,39,9,0021501016,1610612751,BKN,Brooklyn,Henry Sims,,DNP - Coach's Decision                  ,,,,,,,,,,,,,
0021501016,1610612741,CHI,Chicago,2399,Mike Dunleavy,F,,19:51,105.9,123.7,-17.7,0.125,2.0,28.6,0.0,0.211,0.114,14.3,0.375,0.375,0.125,88.36,0.061,2016-03-17T00:00:00,5,CHI,Chicago,34-33,24,31,24,39,0,0,0,0,0,0,0,0,0,0,118,0.489,1.0,0.458,26,50,9,0021501016,1610612741,CHI,Chicago,Mike Dunleavy,F,,19:51,0.0,0.0,0.0,0.0,10.0,6.0,2.0,30.0,1.0,0.0,1.0,0.0
0021501016,1610612741,CHI,Chicago,202703,Nikola Mirotic,F,,20:20,114.3,123.2,-8.9,0.0,0.0,0.0,0.0,0.143,0.083,25.0,0.75,0.75,0.196,89.35,0.064,2016-03-17T00:00:00,5,CHI,Chicago,34-33,24,31,24,39,0,0,0,0,0,0,0,0,0,0,118,0.489,1.0,0.458,26,50,9,0021501016,1610612741,CHI,Chicago,Nikola Mirotic,F,,20:20,0.0,2.0,3.0,0.0,10.0,6.0,2.0,30.0,2.0,0.0,3.0,2.0
0021501016,1610612741,CHI,Chicago,201959,Taj Gibson,C,,27:08,119.9,123.6,-3.7,0.105,1.0,14.3,0.174,0.083,0.128,14.3,0.6,0.6,0.21,88.62,0.095,2016-03-17T00:00:00,5,CHI,Chicago,34-33,24,31,24,39,0,0,0,0,0,0,0,0,0,0,118,0.489,1.0,0.458,26,50,9,0021501016,1610612741,CHI,Chicago,Taj Gibson,C,,27:08,0.0,2.0,2.0,10.0,12.0,6.0,6.0,36.0,2.0,1.0,2.0,1.0
0021501016,1610612741,CHI,Chicago,202710,Jimmy Butler,G,,31:39,133.1,114.1,19.0,0.304,7.0,29.8,0.0,0.097,0.055,4.3,0.583,0.709,0.255,89.72,0.176,2016-03-17T00:00:00,5,CHI,Chicago,34-33,24,31,24,39,0,0,0,0,0,0,0,0,0,0,118,0.489,1.0,0.458,26,50,9,0021501016,1610612741,CHI,Chicago,Jimmy Butler,G,,31:39,0.0,4.0,2.0,10.0,8.0,10.0,6.0,32.0,0.0,1.0,1.0,8.0
0021501016,1610612741,CHI,Chicago,201565,Derrick Rose,G,,29:07,118.3,120.0,-1.6,0.238,5.0,27.1,0.0,0.12,0.06,5.4,0.458,0.482,0.216,90.6,0.088,2016-03-17T00:00:00,5,CHI,Chicago,34-33,24,31,24,39,0,0,0,0,0,0,0,0,0,0,118,0.489,1.0,0.458,26,50,9,0021501016,1610612741,CHI,Chicago,Derrick Rose,G,,29:07,0.0,0.0,0.0,6.0,12.0,6.0,6.0,36.0,0.0,0.0,1.0,2.0
0021501016,1610612741,CHI,Chicago,203200,Justin Holiday,,,16:21,114.7,105.4,9.3,0.143,0.0,20.0,0.0,0.2,0.088,0.0,0.313,0.313,0.179,98.48,0.047,2016-03-17T00:00:00,5,CHI,Chicago,34-33,24,31,24,39,0,0,0,0,0,0,0,0,0,0,118,0.489,1.0,0.458,26,50,9,0021501016,1610612741,CHI,Chicago,Justin Holiday,,,16:21,0.0,0.0,2.0,2.0,6.0,4.0,6.0,18.0,0.0,0.0,1.0,1.0
0021501016,1610612741,CHI,Chicago,203926,Doug McDermott,,,28:30,136.2,102.6,33.7,0.048,0.0,5.3,0.0,0.111,0.055,0.0,0.656,0.704,0.251,95.45,0.165,2016-03-17T00:00:00,5,CHI,Chicago,34-33,24,31,24,39,0,0,0,0,0,0,0,0,0,0,118,0.489,1.0,0.458,26,50,9,0021501016,1610612741,CHI,Chicago,Doug McDermott,,,28:30,7.0,8.0,0.0,4.0,4.0,8.0,10.0,20.0,0.0,0.0,1.0,2.0
0021501016,1610612741,CHI,Chicago,202734,E'Twaun Moore,,,2:28,123.0,0.0,123.0,0.0,0.0,0.0,0.0,0.5,0.333,0.0,0.0,0.0,0.0,86.28,0.0,2016-03-17T00:00:00,5,CHI,Chicago,34-33,24,31,24,39,0,0,0,0,0,0,0,0,0,0,118,0.489,1.0,0.458,26,50,9,0021501016,1610612741,CHI,Chicago,E'Twaun Moore,,,2:28,0.0,0.0,0.0,0.0,0.0,0.0,0.0,0.0,0.0,0.0,1.0,0.0
0021501016,1610612741,CHI,Chicago,1626171,Bobby Portis,,,27:40,133.7,102.2,31.5,0.045,1.0,5.6,0.286,0.24,0.264,5.6,0.375,0.375,0.247,95.17,0.089,2016-03-17T00:00:00,5,CHI,Chicago,34-33,24,31,24,39,0,0,0,0,0,0,0,0,0,0,118,0.489,1.0,0.458,26,50,9,0021501016,1610612741,CHI,Chicago,Bobby Portis,,,27:40,2.0,2.0,4.0,10.0,4.0,8.0,10.0,20.0,1.0,1.0,2.0,1.0
0021501016,1610612741,CHI,Chicago,1626245,Cristiano Felicio,,,20:32,135.9,95.5,40.5,0.158,0.0,43.6,0.211,0.273,0.244,0.0,0.667,0.773,0.075,98.47,0.2,2016-03-17T00:00:00,5,CHI,Chicago,34-33,24,31,24,39,0,0,0,0,0,0,0,0,0,0,118,0.489,1.0,0.458,26,50,9,0021501016,1610612741,CHI,Chicago,Cristiano Felicio,,,20:32,0.0,0.0,2.0,2.0,2.0,8.0,6.0,14.0,2.0,0.0,1.0,1.0
0021501016,1610612741,CHI,Chicago,201166,Aaron Brooks,,,16:25,138.6,109.5,29.1,0.231,3.0,27.3,0.0,0.0,0.0,9.1,0.857,0.857,0.188,97.39,0.151,2016-03-17T00:00:00,5,CHI,Chicago,34-33,24,31,24,39,0,0,0,0,0,0,0,0,0,0,118,0.489,1.0,0.458,26,50,9,0021501016,1610612741,CHI,Chicago,Aaron Brooks,,,16:25,0.0,0.0,0.0,6.0,2.0,8.0,6.0,14.0,0.0,0.0,2.0,0.0
0021501016,1610612741,CHI,Chicago,203946,Cameron Bairstow,,DNP - Coach's Decision                  ,,,,,,,0.0,,,,,,,0.0,,,2016-03-17T00:00:00,5,CHI,Chicago,34-33,24,31,24,39,0,0,0,0,0,0,0,0,0,0,118,0.489,1.0,0.458,26,50,9,0021501016,1610612741,CHI,Chicago,Cameron Bairstow,,DNP - Coach's Decision                  ,,,,,,,,,,,,,
0021501016,1610612741,CHI,Chicago,203503,Tony Snell,,DNP - Coach's Decision                  ,,,,,,,0.0,,,,,,,0.0,,,2016-03-17T00:00:00,5,CHI,Chicago,34-33,24,31,24,39,0,0,0,0,0,0,0,0,0,0,118,0.489,1.0,0.458,26,50,9,0021501016,1610612741,CHI,Chicago,Tony Snell,,DNP - Coach's Decision                  ,,,,,,,,,,,,,
