GAME_ID_x,TEAM_ID_x,TEAM_ABBREVIATION_x,TEAM_CITY_x,PLAYER_ID,PLAYER_NAME_x,START_POSITION_x,COMMENT_x,MIN_x,OFF_RATING,DEF_RATING,NET_RATING,AST_PCT,AST_TOV,AST_RATIO,OREB_PCT,DREB_PCT,REB_PCT,TM_TOV_PCT,EFG_PCT,TS_PCT,USG_PCT,PACE,PIE,GAME_DATE_EST,GAME_SEQUENCE,TEAM_ABBREVIATION_y,TEAM_CITY_NAME,TEAM_WINS_LOSSES,PTS_QTR1,PTS_QTR2,PTS_QTR3,PTS_QTR4,PTS_OT1,PTS_OT2,PTS_OT3,PTS_OT4,PTS_OT5,PTS_OT6,PTS_OT7,PTS_OT8,PTS_OT9,PTS_OT10,PTS,FG_PCT,FT_PCT,FG3_PCT,AST,REB,TOV,GAME_ID_y,TEAM_ID_y,TEAM_ABBREVIATION,TEAM_CITY_y,PLAYER_NAME_y,START_POSITION_y,COMMENT_y,MIN_y,PTS_OFF_TOV,PTS_2ND_CHANCE,PTS_FB,PTS_PAINT,OPP_PTS_OFF_TOV,OPP_PTS_2ND_CHANCE,OPP_PTS_FB,OPP_PTS_PAINT,BLK,BLKA,PF,PFD
0021501019,1610612756,PHX,Phoenix,200782,PJ Tucker,F,,33:15,68.5,104.2,-35.7,0.125,2.0,22.2,0.029,0.065,0.046,11.1,0.583,0.583,0.094,100.13,0.062,2016-03-17T00:00:00,8,PHX,Phoenix,18-50,21,17,16,15,0,0,0,0,0,0,0,0,0,0,69,0.341,0.5,0.231,14,43,21,0021501019,1610612756,PHX,Phoenix,PJ Tucker,F,,33:15,2.0,3.0,0.0,2.0,15.0,7.0,8.0,38.0,0.0,0.0,3.0,0.0
0021501019,1610612756,PHX,Phoenix,203458,Alex Len,F,,30:24,74.4,110.3,-36.0,0.133,0.67,9.4,0.067,0.357,0.207,14.1,0.267,0.306,0.279,98.56,0.067,2016-03-17T00:00:00,8,PHX,Phoenix,18-50,21,17,16,15,0,0,0,0,0,0,0,0,0,0,69,0.341,0.5,0.231,14,43,21,0021501019,1610612756,PHX,Phoenix,Alex Len,F,,30:24,0.0,0.0,0.0,6.0,13.0,9.0,8.0,36.0,0.0,1.0,1.0,3.0
0021501019,1610612756,PHX,Phoenix,2199,Tyson Chandler,C,,23:26,55.1,122.0,-66.8,0.1,0.25,12.5,0.083,0.0,0.045,50.0,0.667,0.667,0.13,100.57,-0.025,2016-03-17T00:00:00,8,PHX,Phoenix,18-50,21,17,16,15,0,0,0,0,0,0,0,0,0,0,69,0.341,0.5,0.231,14,43,21,0021501019,1610612756,PHX,Phoenix,Tyson Chandler,C,,23:26,2.0,2.0,0.0,4.0,15.0,7.0,8.0,26.0,0.0,0.0,4.0,0.0
0021501019,1610612756,PHX,Phoenix,1626164,Devin Booker,G,,31:38,51.2,111.1,-59.9,0.25,1.0,15.0,0.027,0.077,0.048,15.0,0.25,0.25,0.231,101.63,-0.016,2016-03-17T00:00:00,8,PHX,Phoenix,18-50,21,17,16,15,0,0,0,0,0,0,0,0,0,0,69,0.341,0.5,0.231,14,43,21,0021501019,1610612756,PHX,Phoenix,Devin Booker,G,,31:38,0.0,5.0,0.0,2.0,19.0,8.0,10.0,34.0,0.0,2.0,2.0,3.0
0021501019,1610612756,PHX,Phoenix,202688,Brandon Knight,G,,32:39,72.9,109.7,-36.8,0.143,0.33,8.0,0.031,0.233,0.129,24.1,0.469,0.504,0.313,98.29,0.1,2016-03-17T00:00:00,8,PHX,Phoenix,18-50,21,17,16,15,0,0,0,0,0,0,0,0,0,0,69,0.341,0.5,0.231,14,43,21,0021501019,1610612756,PHX,Phoenix,Brandon Knight,G,,32:39,6.0,0.0,2.0,2.0,15.0,9.0,10.0,36.0,1.0,1.0,0.0,4.0
0021501019,1610612756,PHX,Phoenix,101179,Ronnie Price,,,23:54,81.4,86.4,-5.0,0.071,1.0,11.4,0.0,0.136,0.062,11.4,0.2,0.222,0.143,99.33,-0.098,2016-03-17T00:00:00,8,PHX,Phoenix,18-50,21,17,16,15,0,0,0,0,0,0,0,0,0,0,69,0.341,0.5,0.231,14,43,21,0021501019,1610612756,PHX,Phoenix,Ronnie Price,,,23:54,2.0,0.0,0.0,2.0,15.0,11.0,6.0,20.0,0.0,0.0,5.0,3.0
0021501019,1610612756,PHX,Phoenix,203141,Mirza Teletovic,,,22:22,85.6,87.1,-1.5,0.143,0.0,22.2,0.0,0.095,0.043,0.0,0.143,0.143,0.142,95.67,-0.02,2016-03-17T00:00:00,8,PHX,Phoenix,18-50,21,17,16,15,0,0,0,0,0,0,0,0,0,0,69,0.341,0.5,0.231,14,43,21,0021501019,1610612756,PHX,Phoenix,Mirza Teletovic,,,22:22,0.0,0.0,0.0,0.0,9.0,8.0,4.0,20.0,0.0,0.0,1.0,1.0
0021501019,1610612756,PHX,Phoenix,202720,Jon Leuer,,,17:36,61.2,93.8,-32.6,0.0,0.0,0.0,0.091,0.429,0.222,9.7,0.813,0.751,0.258,99.93,0.571,2016-03-17T00:00:00,8,PHX,Phoenix,18-50,21,17,16,15,0,0,0,0,0,0,0,0,0,0,69,0.341,0.5,0.231,14,43,21,0021501019,1610612756,PHX,Phoenix,Jon Leuer,,,17:36,2.0,5.0,0.0,8.0,13.0,6.0,4.0,12.0,0.0,0.0,0.0,3.0
0021501019,1610612756,PHX,Phoenix,203462,Archie Goodwin,,,7:48,73.3,113.3,-40.0,0.0,0.0,0.0,0.111,0.0,0.071,33.3,0.0,0.0,0.176,92.31,-0.111,2016-03-17T00:00:00,8,PHX,Phoenix,18-50,21,17,16,15,0,0,0,0,0,0,0,0,0,0,69,0.341,0.5,0.231,14,43,21,0021501019,1610612756,PHX,Phoenix,Archie Goodwin,,,7:48,0.0,0.0,0.0,0.0,4.0,6.0,2.0,4.0,0.0,1.0,0.0,0.0
0021501019,1610612756,PHX,Phoenix,201978,Chase Budinger,,,7:23,83.8,100.0,-16.2,0.25,0.0,33.3,0.0,0.167,0.067,0.0,0.5,0.5,0.114,95.96,0.207,2016-03-17T00:00:00,8,PHX,Phoenix,18-50,21,17,16,15,0,0,0,0,0,0,0,0,0,0,69,0.341,0.5,0.231,14,43,21,0021501019,1610612756,PHX,Phoenix,Chase Budinger,,,7:23,0.0,0.0,2.0,0.0,5.0,2.0,0.0,6.0,0.0,0.0,0.0,0.0
0021501019,1610612756,PHX,Phoenix,203098,John Jenkins,,,7:23,83.8,100.0,-16.2,0.0,0.0,0.0,0.0,0.0,0.0,20.0,0.25,0.25,0.285,95.96,-0.138,2016-03-17T00:00:00,8,PHX,Phoenix,18-50,21,17,16,15,0,0,0,0,0,0,0,0,0,0,69,0.341,0.5,0.231,14,43,21,0021501019,1610612756,PHX,Phoenix,John Jenkins,,,7:23,0.0,0.0,0.0,0.0,5.0,2.0,0.0,6.0,0.0,0.0,0.0,0.0
0021501019,1610612756,PHX,Phoenix,1626210,Alan Williams,,,2:12,69.4,80.0,-10.6,0.0,0.0,0.0,0.0,0.0,0.0,0.0,0.0,0.568,0.153,117.38,0.2,2016-03-17T00:00:00,8,PHX,Phoenix,18-50,21,17,16,15,0,0,0,0,0,0,0,0,0,0,69,0.341,0.5,0.231,14,43,21,0021501019,1610612756,PHX,Phoenix,Alan Williams,,,2:12,0.0,1.0,0.0,0.0,2.0,0.0,0.0,2.0,0.0,0.0,0.0,1.0
0021501019,1610612762,UTA,Utah,204060,Joe Ingles,F,,27:16,103.3,66.3,37.0,0.111,1.0,16.7,0.0,0.138,0.074,16.7,0.938,0.938,0.166,95.52,0.293,2016-03-17T00:00:00,8,UTA,Utah,33-35,24,22,25,32,0,0,0,0,0,0,0,0,0,0,103,0.489,0.667,0.44,20,51,16,0021501019,1610612762,UTA,Utah,Joe Ingles,F,,27:16,4.0,3.0,2.0,2.0,10.0,8.0,0.0,12.0,0.0,0.0,1.0,0.0
0021501019,1610612762,UTA,Utah,202324,Derrick Favors,F,,26:33,101.9,65.8,36.0,0.0,0.0,0.0,0.04,0.143,0.094,7.8,0.455,0.505,0.208,101.37,0.113,2016-03-17T00:00:00,8,UTA,Utah,33-35,24,22,25,32,0,0,0,0,0,0,0,0,0,0,103,0.489,0.667,0.44,20,51,16,0021501019,1610612762,UTA,Utah,Derrick Favors,F,,26:33,4.0,0.0,0.0,6.0,7.0,11.0,2.0,16.0,1.0,0.0,3.0,1.0
0021501019,1610612762,UTA,Utah,203497,Rudy Gobert,C,,30:12,113.2,69.0,44.2,0.0,0.0,0.0,0.2,0.324,0.271,22.5,0.667,0.654,0.134,94.29,0.193,2016-03-17T00:00:00,8,UTA,Utah,33-35,24,22,25,32,0,0,0,0,0,0,0,0,0,0,103,0.489,0.667,0.44,20,51,16,0021501019,1610612762,UTA,Utah,Rudy Gobert,C,,30:12,1.0,6.0,2.0,8.0,10.0,8.0,0.0,12.0,3.0,0.0,1.0,2.0
0021501019,1610612762,UTA,Utah,203918,Rodney Hood,G,,29:35,97.6,71.8,25.7,0.0,0.0,0.0,0.0,0.103,0.05,13.0,0.308,0.298,0.229,101.54,0.0,2016-03-17T00:00:00,8,UTA,Utah,33-35,24,22,25,32,0,0,0,0,0,0,0,0,0,0,103,0.489,0.667,0.44,20,51,16,0021501019,1610612762,UTA,Utah,Rodney Hood,G,,29:35,2.0,0.0,2.0,8.0,10.0,11.0,2.0,18.0,0.0,0.0,0.0,2.0
0021501019,1610612762,UTA,Utah,202714,Shelvin Mack,G,,29:00,114.5,56.9,57.6,0.5,5.0,40.0,0.043,0.206,0.14,8.0,0.577,0.577,0.229,95.7,0.28,2016-03-17T00:00:00,8,UTA,Utah,33-35,24,22,25,32,0,0,0,0,0,0,0,0,0,0,103,0.489,0.667,0.44,20,51,16,0021501019,1610612762,UTA,Utah,Shelvin Mack,G,,29:00,2.0,0.0,0.0,8.0,7.0,8.0,0.0,10.0,0.0,1.0,2.0,2.0
0021501019,1610612762,UTA,Utah,202344,Trevor Booker,,,14:48,100.4,78.3,22.0,0.182,0.0,22.2,0.067,0.273,0.154,0.0,0.571,0.571,0.19,104.63,0.241,2016-03-17T00:00:00,8,UTA,Utah,33-35,24,22,25,32,0,0,0,0,0,0,0,0,0,0,103,0.489,0.667,0.44,20,51,16,0021501019,1610612762,UTA,Utah,Trevor Booker,,,14:48,6.0,0.0,4.0,8.0,5.0,3.0,2.0,8.0,0.0,0.0,1.0,0.0
0021501019,1610612762,UTA,Utah,203526,Raul Neto,,,25:44,104.0,73.9,30.2,0.053,0.33,8.4,0.0,0.0,0.0,25.3,0.857,0.825,0.185,102.52,0.07,2016-03-17T00:00:00,8,UTA,Utah,33-35,24,22,25,32,0,0,0,0,0,0,0,0,0,0,103,0.489,0.667,0.44,20,51,16,0021501019,1610612762,UTA,Utah,Raul Neto,,,25:44,2.0,3.0,0.0,4.0,9.0,8.0,4.0,18.0,0.0,0.0,4.0,4.0
0021501019,1610612762,UTA,Utah,203187,Chris Johnson,,,20:48,107.1,73.0,34.1,0.053,1.0,14.3,0.059,0.115,0.093,14.3,0.3,0.3,0.125,101.22,0.052,2016-03-17T00:00:00,8,UTA,Utah,33-35,24,22,25,32,0,0,0,0,0,0,0,0,0,0,103,0.489,0.667,0.44,20,51,16,0021501019,1610612762,UTA,Utah,Chris Johnson,,,20:48,0.0,3.0,0.0,0.0,2.0,8.0,4.0,10.0,1.0,0.0,1.0,1.0
0021501019,1610612762,UTA,Utah,1626168,Trey Lyles,,,19:17,108.2,69.1,39.1,0.1,0.5,7.2,0.0,0.08,0.051,14.4,0.75,0.781,0.323,97.58,0.278,2016-03-17T00:00:00,8,UTA,Utah,33-35,24,22,25,32,0,0,0,0,0,0,0,0,0,0,103,0.489,0.667,0.44,20,51,16,0021501019,1610612762,UTA,Utah,Trey Lyles,,,19:17,2.0,0.0,2.0,4.0,4.0,7.0,2.0,12.0,0.0,0.0,1.0,3.0
0021501019,1610612762,UTA,Utah,203504,Trey Burke,,,11:37,91.8,85.6,6.1,0.286,2.0,22.2,0.0,0.154,0.095,11.1,0.25,0.25,0.293,97.93,-0.068,2016-03-17T00:00:00,8,UTA,Utah,33-35,24,22,25,32,0,0,0,0,0,0,0,0,0,0,103,0.489,0.667,0.44,20,51,16,0021501019,1610612762,UTA,Utah,Trey Burke,,,11:37,3.0,0.0,0.0,0.0,4.0,5.0,2.0,10.0,0.0,0.0,3.0,0.0
0021501019,1610612762,UTA,Utah,203481,Jeff Withey,,,5:10,63.6,69.4,-5.8,0.333,0.0,33.3,0.0,0.5,0.273,0.0,0.0,0.0,0.182,104.61,0.4,2016-03-17T00:00:00,8,UTA,Utah,33-35,24,22,25,32,0,0,0,0,0,0,0,0,0,0,103,0.489,0.667,0.44,20,51,16,0021501019,1610612762,UTA,Utah,Jeff Withey,,,5:10,0.0,0.0,0.0,0.0,2.0,3.0,2.0,4.0,0.0,0.0,1.0,1.0
0021501019,1610612762,UTA,Utah,202330,Gordon Hayward,,"DND - Plantar faciitis, right foot      ",,,,,,,0.0,,,,,,,0.0,,,2016-03-17T00:00:00,8,UTA,Utah,33-35,24,22,25,32,0,0,0,0,0,0,0,0,0,0,103,0.489,0.667,0.44,20,51,16,0021501019,1610612762,UTA,Utah,Gordon Hayward,,"DND - Plantar faciitis, right foot      ",,,,,,,,,,,,,
