GAME_ID_x,TEAM_ID_x,TEAM_ABBREVIATION_x,TEAM_CITY_x,PLAYER_ID,PLAYER_NAME_x,START_POSITION_x,COMMENT_x,MIN_x,OFF_RATING,DEF_RATING,NET_RATING,AST_PCT,AST_TOV,AST_RATIO,OREB_PCT,DREB_PCT,REB_PCT,TM_TOV_PCT,EFG_PCT,TS_PCT,USG_PCT,PACE,PIE,GAME_DATE_EST,GAME_SEQUENCE,TEAM_ABBREVIATION_y,TEAM_CITY_NAME,TEAM_WINS_LOSSES,PTS_QTR1,PTS_QTR2,PTS_QTR3,PTS_QTR4,PTS_OT1,PTS_OT2,PTS_OT3,PTS_OT4,PTS_OT5,PTS_OT6,PTS_OT7,PTS_OT8,PTS_OT9,PTS_OT10,PTS,FG_PCT,FT_PCT,FG3_PCT,AST,REB,TOV,GAME_ID_y,TEAM_ID_y,TEAM_ABBREVIATION,TEAM_CITY_y,PLAYER_NAME_y,START_POSITION_y,COMMENT_y,MIN_y,PTS_OFF_TOV,PTS_2ND_CHANCE,PTS_FB,PTS_PAINT,OPP_PTS_OFF_TOV,OPP_PTS_2ND_CHANCE,OPP_PTS_FB,OPP_PTS_PAINT,BLK,BLKA,PF,PFD
0021501027,1610612756,PHX,Phoenix,200782,PJ Tucker,F,,33:16,94.2,98.2,-3.9,0.0,0.0,0.0,0.0,0.188,0.08,7.8,0.545,0.547,0.151,99.04,0.091,2016-03-18T00:00:00,8,PHX,Phoenix,19-50,26,21,21,27,0,0,0,0,0,0,0,0,0,0,95,0.36,0.885,0.267,19,57,11,0021501027,1610612756,PHX,Phoenix,PJ Tucker,F,,33:16,4.0,3.0,3.0,6.0,10.0,7.0,13.0,20.0,1.0,1.0,3.0,1.0
0021501027,1610612756,PHX,Phoenix,203458,Alex Len,F,,28:10,84.0,92.0,-8.0,0.059,0.33,7.7,0.057,0.179,0.111,23.1,0.111,0.111,0.179,94.0,-0.081,2016-03-18T00:00:00,8,PHX,Phoenix,19-50,26,21,21,27,0,0,0,0,0,0,0,0,0,0,95,0.36,0.885,0.267,19,57,11,0021501027,1610612756,PHX,Phoenix,Alex Len,F,,28:10,0.0,0.0,0.0,2.0,7.0,5.0,8.0,14.0,0.0,0.0,4.0,1.0
0021501027,1610612756,PHX,Phoenix,2199,Tyson Chandler,C,,33:16,94.2,98.2,-3.9,0.059,0.33,6.9,0.209,0.25,0.227,20.8,0.6,0.575,0.158,99.04,0.178,2016-03-18T00:00:00,8,PHX,Phoenix,19-50,26,21,21,27,0,0,0,0,0,0,0,0,0,0,95,0.36,0.885,0.267,19,57,11,0021501027,1610612756,PHX,Phoenix,Tyson Chandler,C,,33:16,0.0,6.0,2.0,12.0,10.0,7.0,13.0,20.0,2.0,1.0,2.0,2.0
0021501027,1610612756,PHX,Phoenix,1626164,Devin Booker,G,,35:50,96.9,81.3,15.6,0.389,3.5,22.3,0.024,0.093,0.059,6.4,0.306,0.469,0.29,97.14,0.164,2016-03-18T00:00:00,8,PHX,Phoenix,19-50,26,21,21,27,0,0,0,0,0,0,0,0,0,0,95,0.36,0.885,0.267,19,57,11,0021501027,1610612756,PHX,Phoenix,Devin Booker,G,,35:50,6.0,2.0,2.0,6.0,10.0,6.0,11.0,22.0,0.0,1.0,4.0,6.0
0021501027,1610612756,PHX,Phoenix,202688,Brandon Knight,G,,33:16,94.2,98.2,-3.9,0.188,0.0,11.9,0.07,0.094,0.08,0.0,0.425,0.495,0.261,99.04,0.144,2016-03-18T00:00:00,8,PHX,Phoenix,19-50,26,21,21,27,0,0,0,0,0,0,0,0,0,0,95,0.36,0.885,0.267,19,57,11,0021501027,1610612756,PHX,Phoenix,Brandon Knight,G,,33:16,5.0,2.0,6.0,6.0,10.0,7.0,13.0,20.0,1.0,2.0,3.0,4.0
0021501027,1610612756,PHX,Phoenix,203141,Mirza Teletovic,,,19:35,119.2,92.5,26.7,0.25,1.5,25.0,0.0,0.318,0.167,16.7,0.357,0.357,0.202,97.67,0.071,2016-03-18T00:00:00,8,PHX,Phoenix,19-50,26,21,21,27,0,0,0,0,0,0,0,0,0,0,95,0.36,0.885,0.267,19,57,11,0021501027,1610612756,PHX,Phoenix,Mirza Teletovic,,,19:35,0.0,0.0,0.0,2.0,5.0,2.0,12.0,20.0,0.0,1.0,3.0,2.0
0021501027,1610612756,PHX,Phoenix,101179,Ronnie Price,,,21:36,110.4,89.4,21.1,0.154,0.0,20.0,0.0,0.16,0.089,0.0,0.25,0.25,0.178,91.51,0.026,2016-03-18T00:00:00,8,PHX,Phoenix,19-50,26,21,21,27,0,0,0,0,0,0,0,0,0,0,95,0.36,0.885,0.267,19,57,11,0021501027,1610612756,PHX,Phoenix,Ronnie Price,,,21:36,0.0,0.0,0.0,2.0,2.0,5.0,9.0,20.0,0.0,0.0,2.0,1.0
0021501027,1610612756,PHX,Phoenix,202720,Jon Leuer,,,14:44,114.2,79.5,34.7,0.25,0.0,34.7,0.083,0.1,0.094,0.0,0.5,0.665,0.137,90.57,0.195,2016-03-18T00:00:00,8,PHX,Phoenix,19-50,26,21,21,27,0,0,0,0,0,0,0,0,0,0,95,0.36,0.885,0.267,19,57,11,0021501027,1610612756,PHX,Phoenix,Jon Leuer,,,14:44,0.0,1.0,1.0,2.0,2.0,2.0,7.0,16.0,2.0,0.0,0.0,2.0
0021501027,1610612756,PHX,Phoenix,201978,Chase Budinger,,,14:59,118.0,80.7,37.2,0.0,0.0,0.0,0.083,0.045,0.059,0.0,0.5,0.5,0.071,93.65,0.053,2016-03-18T00:00:00,8,PHX,Phoenix,19-50,26,21,21,27,0,0,0,0,0,0,0,0,0,0,95,0.36,0.885,0.267,19,57,11,0021501027,1610612756,PHX,Phoenix,Chase Budinger,,,14:59,0.0,0.0,0.0,2.0,2.0,4.0,7.0,18.0,0.0,0.0,0.0,0.0
0021501027,1610612756,PHX,Phoenix,203098,John Jenkins,,,5:18,112.7,141.3,-28.6,0.0,0.0,0.0,0.0,0.0,0.0,0.0,1.25,1.197,0.349,95.46,0.333,2016-03-18T00:00:00,8,PHX,Phoenix,19-50,26,21,21,27,0,0,0,0,0,0,0,0,0,0,95,0.36,0.885,0.267,19,57,11,0021501027,1610612756,PHX,Phoenix,John Jenkins,,,5:18,0.0,3.0,2.0,2.0,2.0,0.0,7.0,10.0,0.0,0.0,0.0,2.0
0021501027,1610612756,PHX,Phoenix,203462,Archie Goodwin,,DNP - Coach's Decision                  ,,,,,,,0.0,,,,,,,0.0,,,2016-03-18T00:00:00,8,PHX,Phoenix,19-50,26,21,21,27,0,0,0,0,0,0,0,0,0,0,95,0.36,0.885,0.267,19,57,11,0021501027,1610612756,PHX,Phoenix,Archie Goodwin,,DNP - Coach's Decision                  ,,,,,,,,,,,,,
0021501027,1610612756,PHX,Phoenix,1626210,Alan Williams,,DNP - Coach's Decision                  ,,,,,,,0.0,,,,,,,0.0,,,2016-03-18T00:00:00,8,PHX,Phoenix,19-50,26,21,21,27,0,0,0,0,0,0,0,0,0,0,95,0.36,0.885,0.267,19,57,11,0021501027,1610612756,PHX,Phoenix,Alan Williams,,DNP - Coach's Decision                  ,,,,,,,,,,,,,
0021501027,1610612747,LAL,Los Angeles,1897,Metta World Peace,F,,21:56,72.2,81.2,-9.0,0.2,1.0,11.3,0.0,0.111,0.058,11.3,0.417,0.436,0.178,91.08,0.07,2016-03-18T00:00:00,8,LAL,Los Angeles,14-55,22,10,22,36,0,0,0,0,0,0,0,0,0,0,90,0.36,0.846,0.261,21,50,12,0021501027,1610612747,LAL,Los Angeles,Metta World Peace,F,,21:56,0.0,3.0,0.0,0.0,8.0,7.0,9.0,22.0,0.0,0.0,2.0,1.0
0021501027,1610612747,LAL,Los Angeles,203944,Julius Randle,F,,25:37,78.0,92.1,-14.1,0.0,0.0,0.0,0.0,0.29,0.148,10.0,0.111,0.111,0.186,92.45,0.015,2016-03-18T00:00:00,8,LAL,Los Angeles,14-55,22,10,22,36,0,0,0,0,0,0,0,0,0,0,90,0.36,0.846,0.261,21,50,12,0021501027,1610612747,LAL,Los Angeles,Julius Randle,F,,25:37,0.0,0.0,0.0,2.0,8.0,10.0,11.0,26.0,0.0,1.0,1.0,1.0
0021501027,1610612747,LAL,Los Angeles,201579,Roy Hibbert,C,,18:25,81.4,88.7,-7.3,0.0,0.0,0.0,0.05,0.292,0.182,0.0,1.0,1.042,0.072,96.49,0.253,2016-03-18T00:00:00,8,LAL,Los Angeles,14-55,22,10,22,36,0,0,0,0,0,0,0,0,0,0,90,0.36,0.846,0.261,21,50,12,0021501027,1610612747,LAL,Los Angeles,Roy Hibbert,C,,18:25,0.0,0.0,2.0,2.0,8.0,6.0,10.0,22.0,1.0,0.0,3.0,1.0
0021501027,1610612747,LAL,Los Angeles,203903,Jordan Clarkson,G,,24:55,60.8,87.8,-27.1,0.333,2.0,11.5,0.03,0.0,0.016,5.8,0.192,0.279,0.28,93.14,-0.032,2016-03-18T00:00:00,8,LAL,Los Angeles,14-55,22,10,22,36,0,0,0,0,0,0,0,0,0,0,90,0.36,0.846,0.261,21,50,12,0021501027,1610612747,LAL,Los Angeles,Jordan Clarkson,G,,24:55,3.0,0.0,0.0,2.0,8.0,8.0,8.0,26.0,0.0,4.0,0.0,3.0
0021501027,1610612747,LAL,Los Angeles,1626156,D'Angelo Russell,G,,21:12,75.3,89.6,-14.3,0.571,2.0,21.5,0.038,0.083,0.06,10.7,0.2,0.356,0.334,90.61,0.064,2016-03-18T00:00:00,8,LAL,Los Angeles,14-55,22,10,22,36,0,0,0,0,0,0,0,0,0,0,90,0.36,0.846,0.261,21,50,12,0021501027,1610612747,LAL,Los Angeles,D'Angelo Russell,G,,21:12,0.0,0.0,0.0,2.0,6.0,7.0,10.0,22.0,0.0,0.0,1.0,4.0
0021501027,1610612747,LAL,Los Angeles,1626204,Larry Nance Jr.,,,27:39,108.8,112.2,-3.4,0.0,0.0,0.0,0.103,0.069,0.086,20.0,0.375,0.375,0.146,99.78,0.0,2016-03-18T00:00:00,8,LAL,Los Angeles,14-55,22,10,22,36,0,0,0,0,0,0,0,0,0,0,90,0.36,0.846,0.261,21,50,12,0021501027,1610612747,LAL,Los Angeles,Larry Nance Jr.,,,27:39,2.0,2.0,4.0,4.0,7.0,10.0,9.0,20.0,3.0,0.0,4.0,1.0
0021501027,1610612747,LAL,Los Angeles,101150,Lou Williams,,,29:19,110.2,106.2,4.0,0.188,3.0,12.7,0.037,0.057,0.048,4.2,0.706,0.764,0.292,100.55,0.198,2016-03-18T00:00:00,8,LAL,Los Angeles,14-55,22,10,22,36,0,0,0,0,0,0,0,0,0,0,90,0.36,0.846,0.261,21,50,12,0021501027,1610612747,LAL,Los Angeles,Lou Williams,,,29:19,3.0,0.0,8.0,12.0,9.0,12.0,9.0,22.0,1.0,1.0,6.0,3.0
0021501027,1610612747,LAL,Los Angeles,1626273,Marcelo Huertas,,,20:34,116.3,113.3,3.0,0.588,3.33,54.2,0.056,0.095,0.077,16.3,0.4,0.46,0.17,100.59,0.152,2016-03-18T00:00:00,8,LAL,Los Angeles,14-55,22,10,22,36,0,0,0,0,0,0,0,0,0,0,90,0.36,0.846,0.261,21,50,12,0021501027,1610612747,LAL,Los Angeles,Marcelo Huertas,,,20:34,4.0,0.0,2.0,2.0,7.0,7.0,5.0,14.0,0.0,0.0,1.0,1.0
0021501027,1610612747,LAL,Los Angeles,101138,Brandon Bass,,,24:09,106.2,111.4,-5.2,0.0,0.0,0.0,0.16,0.08,0.12,0.0,0.455,0.455,0.181,101.45,0.082,2016-03-18T00:00:00,8,LAL,Los Angeles,14-55,22,10,22,36,0,0,0,0,0,0,0,0,0,0,90,0.36,0.846,0.261,21,50,12,0021501027,1610612747,LAL,Los Angeles,Brandon Bass,,,24:09,0.0,4.0,2.0,8.0,7.0,8.0,6.0,18.0,1.0,0.0,1.0,1.0
0021501027,1610612747,LAL,Los Angeles,203527,Ryan Kelly,,,20:48,103.7,110.3,-6.6,0.0,0.0,0.0,0.0,0.391,0.209,11.6,0.4,0.524,0.165,102.55,0.13,2016-03-18T00:00:00,8,LAL,Los Angeles,14-55,22,10,22,36,0,0,0,0,0,0,0,0,0,0,90,0.36,0.846,0.261,21,50,12,0021501027,1610612747,LAL,Los Angeles,Ryan Kelly,,,20:48,0.0,0.0,2.0,2.0,7.0,7.0,3.0,16.0,0.0,0.0,1.0,5.0
0021501027,1610612747,LAL,Los Angeles,204028,Tarik Black,,,5:26,50.8,78.8,-28.1,1.0,0.0,100.0,0.0,0.0,0.0,0.0,0.0,0.0,0.0,74.03,0.0,2016-03-18T00:00:00,8,LAL,Los Angeles,14-55,22,10,22,36,0,0,0,0,0,0,0,0,0,0,90,0.36,0.846,0.261,21,50,12,0021501027,1610612747,LAL,Los Angeles,Tarik Black,,,5:26,0.0,0.0,0.0,0.0,0.0,3.0,0.0,2.0,0.0,0.0,1.0,0.0
0021501027,1610612747,LAL,Los Angeles,203135,Robert Sacre,,DNP - Coach's Decision                  ,,,,,,,0.0,,,,,,,0.0,,,2016-03-18T00:00:00,8,LAL,Los Angeles,14-55,22,10,22,36,0,0,0,0,0,0,0,0,0,0,90,0.36,0.846,0.261,21,50,12,0021501027,1610612747,LAL,Los Angeles,Robert Sacre,,DNP - Coach's Decision                  ,,,,,,,,,,,,,
0021501027,1610612747,LAL,Los Angeles,201156,Nick Young,,DNP - Coach's Decision                  ,,,,,,,0.0,,,,,,,0.0,,,2016-03-18T00:00:00,8,LAL,Los Angeles,14-55,22,10,22,36,0,0,0,0,0,0,0,0,0,0,90,0.36,0.846,0.261,21,50,12,0021501027,1610612747,LAL,Los Angeles,Nick Young,,DNP - Coach's Decision                  ,,,,,,,,,,,,,
