GAME_ID_x,TEAM_ID_x,TEAM_ABBREVIATION_x,TEAM_CITY_x,PLAYER_ID,PLAYER_NAME_x,START_POSITION_x,COMMENT_x,MIN_x,OFF_RATING,DEF_RATING,NET_RATING,AST_PCT,AST_TOV,AST_RATIO,OREB_PCT,DREB_PCT,REB_PCT,TM_TOV_PCT,EFG_PCT,TS_PCT,USG_PCT,PACE,PIE,GAME_DATE_EST,GAME_SEQUENCE,TEAM_ABBREVIATION_y,TEAM_CITY_NAME,TEAM_WINS_LOSSES,PTS_QTR1,PTS_QTR2,PTS_QTR3,PTS_QTR4,PTS_OT1,PTS_OT2,PTS_OT3,PTS_OT4,PTS_OT5,PTS_OT6,PTS_OT7,PTS_OT8,PTS_OT9,PTS_OT10,PTS,FG_PCT,FT_PCT,FG3_PCT,AST,REB,TOV,GAME_ID_y,TEAM_ID_y,TEAM_ABBREVIATION,TEAM_CITY_y,PLAYER_NAME_y,START_POSITION_y,COMMENT_y,MIN_y,PTS_OFF_TOV,PTS_2ND_CHANCE,PTS_FB,PTS_PAINT,OPP_PTS_OFF_TOV,OPP_PTS_2ND_CHANCE,OPP_PTS_FB,OPP_PTS_PAINT,BLK,BLKA,PF,PFD
0021501024,1610612750,MIN,Minnesota,203952,Andrew Wiggins,F,,36:24,117.4,126.4,-9.0,0.208,1.25,22.0,0.033,0.034,0.034,17.6,0.708,0.763,0.219,97.85,0.119,2016-03-18T00:00:00,5,MIN,Minnesota,22-47,23,29,26,33,0,0,0,0,0,0,0,0,0,0,111,0.506,0.792,0.375,30,35,12,0021501024,1610612750,MIN,Minnesota,Andrew Wiggins,F,,36:24,4.0,0.0,4.0,12.0,17.0,8.0,20.0,46.0,0.0,1.0,1.0,3.0
0021501024,1610612750,MIN,Minnesota,203476,Gorgui Dieng,F,,35:46,118.7,129.6,-11.0,0.167,5.0,24.4,0.103,0.24,0.167,4.9,0.273,0.448,0.193,97.81,0.074,2016-03-18T00:00:00,5,MIN,Minnesota,22-47,23,29,26,33,0,0,0,0,0,0,0,0,0,0,111,0.506,0.792,0.375,30,35,12,0021501024,1610612750,MIN,Minnesota,Gorgui Dieng,F,,35:46,2.0,1.0,2.0,6.0,17.0,6.0,18.0,44.0,1.0,1.0,4.0,4.0
0021501024,1610612750,MIN,Minnesota,1626157,Karl-Anthony Towns,C,,40:01,114.9,128.3,-13.4,0.043,1.0,3.7,0.118,0.212,0.164,3.7,0.591,0.638,0.287,97.21,0.157,2016-03-18T00:00:00,5,MIN,Minnesota,22-47,23,29,26,33,0,0,0,0,0,0,0,0,0,0,111,0.506,0.792,0.375,30,35,12,0021501024,1610612750,MIN,Minnesota,Karl-Anthony Towns,C,,40:01,2.0,8.0,0.0,18.0,15.0,8.0,22.0,48.0,1.0,2.0,2.0,5.0
0021501024,1610612750,MIN,Minnesota,203897,Zach LaVine,G,,35:20,110.4,126.9,-16.5,0.12,0.0,16.7,0.03,0.034,0.032,0.0,0.5,0.5,0.18,98.49,0.066,2016-03-18T00:00:00,5,MIN,Minnesota,22-47,23,29,26,33,0,0,0,0,0,0,0,0,0,0,111,0.506,0.792,0.375,30,35,12,0021501024,1610612750,MIN,Minnesota,Zach LaVine,G,,35:20,4.0,2.0,4.0,6.0,17.0,6.0,20.0,40.0,1.0,2.0,3.0,0.0
0021501024,1610612750,MIN,Minnesota,201937,Ricky Rubio,G,,32:22,119.1,133.5,-14.4,0.261,1.2,29.4,0.0,0.12,0.059,24.5,0.722,0.742,0.197,98.53,0.082,2016-03-18T00:00:00,5,MIN,Minnesota,22-47,23,29,26,33,0,0,0,0,0,0,0,0,0,0,111,0.506,0.792,0.375,30,35,12,0021501024,1610612750,MIN,Minnesota,Ricky Rubio,G,,32:22,9.0,0.0,9.0,8.0,17.0,6.0,20.0,42.0,1.0,0.0,1.0,2.0
0021501024,1610612750,MIN,Minnesota,202962,Greg Smith,,,7:33,118.7,78.6,40.1,0.0,0.0,0.0,0.0,0.2,0.167,53.2,0.0,0.0,0.131,90.02,-0.075,2016-03-18T00:00:00,5,MIN,Minnesota,22-47,23,29,26,33,0,0,0,0,0,0,0,0,0,0,111,0.506,0.792,0.375,30,35,12,0021501024,1610612750,MIN,Minnesota,Greg Smith,,,7:33,0.0,0.0,0.0,0.0,4.0,0.0,2.0,6.0,0.0,0.0,2.0,1.0
0021501024,1610612750,MIN,Minnesota,1626145,Tyus Jones,,,15:38,106.2,93.7,12.5,0.308,0.0,50.0,0.0,0.167,0.077,0.0,0.25,0.25,0.117,90.33,0.074,2016-03-18T00:00:00,5,MIN,Minnesota,22-47,23,29,26,33,0,0,0,0,0,0,0,0,0,0,111,0.506,0.792,0.375,30,35,12,0021501024,1610612750,MIN,Minnesota,Tyus Jones,,,15:38,2.0,0.0,2.0,2.0,2.0,2.0,2.0,14.0,0.0,0.0,1.0,1.0
0021501024,1610612750,MIN,Minnesota,203498,Shabazz Muhammad,,,17:46,117.3,107.5,9.8,0.182,0.0,20.2,0.071,0.0,0.038,0.0,0.786,0.761,0.208,89.97,0.177,2016-03-18T00:00:00,5,MIN,Minnesota,22-47,23,29,26,33,0,0,0,0,0,0,0,0,0,0,111,0.506,0.792,0.375,30,35,12,0021501024,1610612750,MIN,Minnesota,Shabazz Muhammad,,,17:46,2.0,0.0,3.0,6.0,2.0,2.0,4.0,20.0,0.0,1.0,0.0,1.0
0021501024,1610612750,MIN,Minnesota,2419,Tayshaun Prince,,,12:47,107.1,101.1,6.1,0.2,0.0,40.0,0.0,0.143,0.053,0.0,0.333,0.333,0.106,90.04,0.086,2016-03-18T00:00:00,5,MIN,Minnesota,22-47,23,29,26,33,0,0,0,0,0,0,0,0,0,0,111,0.506,0.792,0.375,30,35,12,0021501024,1610612750,MIN,Minnesota,Tayshaun Prince,,,12:47,0.0,0.0,0.0,0.0,2.0,2.0,2.0,14.0,0.0,0.0,0.0,1.0
0021501024,1610612750,MIN,Minnesota,203940,Adreian Payne,,,6:23,110.5,100.0,10.5,0.4,0.0,50.0,0.167,0.333,0.222,0.0,0.0,0.0,0.145,85.57,0.056,2016-03-18T00:00:00,5,MIN,Minnesota,22-47,23,29,26,33,0,0,0,0,0,0,0,0,0,0,111,0.506,0.792,0.375,30,35,12,0021501024,1610612750,MIN,Minnesota,Adreian Payne,,,6:23,0.0,0.0,0.0,0.0,2.0,0.0,0.0,6.0,0.0,0.0,0.0,1.0
0021501024,1610612750,MIN,Minnesota,202357,Nemanja Bjelica,,DNP - Coach's Decision                  ,,,,,,,0.0,,,,,,,0.0,,,2016-03-18T00:00:00,5,MIN,Minnesota,22-47,23,29,26,33,0,0,0,0,0,0,0,0,0,0,111,0.506,0.792,0.375,30,35,12,0021501024,1610612750,MIN,Minnesota,Nemanja Bjelica,,DNP - Coach's Decision                  ,,,,,,,,,,,,,
0021501024,1610612750,MIN,Minnesota,204014,Damjan Rudez,,DNP - Coach's Decision                  ,,,,,,,0.0,,,,,,,0.0,,,2016-03-18T00:00:00,5,MIN,Minnesota,22-47,23,29,26,33,0,0,0,0,0,0,0,0,0,0,111,0.506,0.792,0.375,30,35,12,0021501024,1610612750,MIN,Minnesota,Damjan Rudez,,DNP - Coach's Decision                  ,,,,,,,,,,,,,
0021501024,1610612745,HOU,Houston,2772,Trevor Ariza,F,,34:46,130.5,119.2,11.3,0.121,0.0,24.0,0.0,0.069,0.038,0.0,0.55,0.593,0.157,97.86,0.07,2016-03-18T00:00:00,5,HOU,Houston,35-34,31,23,34,28,0,0,0,0,0,0,0,0,0,0,116,0.565,0.643,0.379,31,42,17,0021501024,1610612745,HOU,Houston,Trevor Ariza,F,,34:46,2.0,0.0,6.0,6.0,23.0,7.0,20.0,48.0,0.0,0.0,2.0,3.0
0021501024,1610612745,HOU,Houston,202700,Donatas Motiejunas,F,,26:12,120.4,104.5,16.0,0.05,1.0,7.1,0.143,0.273,0.209,7.1,0.708,0.708,0.208,101.83,0.148,2016-03-18T00:00:00,5,HOU,Houston,35-34,31,23,34,28,0,0,0,0,0,0,0,0,0,0,116,0.565,0.643,0.379,31,42,17,0021501024,1610612745,HOU,Houston,Donatas Motiejunas,F,,26:12,2.0,2.0,2.0,10.0,17.0,2.0,18.0,34.0,2.0,1.0,3.0,1.0
0021501024,1610612745,HOU,Houston,2730,Dwight Howard,C,,29:24,140.8,117.5,23.3,0.038,0.5,9.2,0.278,0.261,0.268,18.4,0.714,0.635,0.153,91.07,0.081,2016-03-18T00:00:00,5,HOU,Houston,35-34,31,23,34,28,0,0,0,0,0,0,0,0,0,0,116,0.565,0.643,0.379,31,42,17,0021501024,1610612745,HOU,Houston,Dwight Howard,C,,29:24,2.0,0.0,0.0,8.0,17.0,4.0,10.0,34.0,1.0,2.0,3.0,4.0
0021501024,1610612745,HOU,Houston,201935,James Harden,G,,38:28,123.6,112.3,11.3,0.483,1.56,31.3,0.0,0.147,0.077,20.1,0.625,0.666,0.345,98.35,0.163,2016-03-18T00:00:00,5,HOU,Houston,35-34,31,23,34,28,0,0,0,0,0,0,0,0,0,0,116,0.565,0.643,0.379,31,42,17,0021501024,1610612745,HOU,Houston,James Harden,G,,38:28,6.0,2.0,5.0,10.0,19.0,9.0,18.0,48.0,0.0,1.0,2.0,4.0
0021501024,1610612745,HOU,Houston,201976,Patrick Beverley,G,,35:31,139.8,120.1,19.7,0.294,3.33,41.9,0.083,0.097,0.091,12.6,0.85,0.827,0.173,94.74,0.107,2016-03-18T00:00:00,5,HOU,Houston,35-34,31,23,34,28,0,0,0,0,0,0,0,0,0,0,116,0.565,0.643,0.379,31,42,17,0021501024,1610612745,HOU,Houston,Patrick Beverley,G,,35:31,3.0,2.0,3.0,2.0,17.0,9.0,16.0,42.0,1.0,0.0,5.0,1.0
0021501024,1610612745,HOU,Houston,201563,Michael Beasley,,,26:03,116.8,131.6,-14.8,0.0,0.0,0.0,0.045,0.25,0.143,0.0,0.607,0.607,0.239,93.46,0.109,2016-03-18T00:00:00,5,HOU,Houston,35-34,31,23,34,28,0,0,0,0,0,0,0,0,0,0,116,0.565,0.643,0.379,31,42,17,0021501024,1610612745,HOU,Houston,Michael Beasley,,,26:03,4.0,0.0,4.0,10.0,10.0,9.0,11.0,28.0,1.0,0.0,3.0,0.0
0021501024,1610612745,HOU,Houston,203991,Clint Capela,,,14:21,97.4,101.6,-4.2,0.0,0.0,0.0,0.077,0.133,0.107,0.0,0.8,0.8,0.163,99.14,0.212,2016-03-18T00:00:00,5,HOU,Houston,35-34,31,23,34,28,0,0,0,0,0,0,0,0,0,0,116,0.565,0.643,0.379,31,42,17,0021501024,1610612745,HOU,Houston,Clint Capela,,,14:21,0.0,2.0,2.0,8.0,6.0,7.0,9.0,20.0,1.0,0.0,0.0,1.0
0021501024,1610612745,HOU,Houston,201147,Corey Brewer,,,7:33,78.6,118.7,-40.1,0.0,0.0,0.0,0.0,0.0,0.0,100.0,0.0,0.0,0.063,90.02,-0.019,2016-03-18T00:00:00,5,HOU,Houston,35-34,31,23,34,28,0,0,0,0,0,0,0,0,0,0,116,0.565,0.643,0.379,31,42,17,0021501024,1610612745,HOU,Houston,Corey Brewer,,,7:33,0.0,0.0,0.0,0.0,2.0,0.0,4.0,8.0,1.0,0.0,0.0,0.0
0021501024,1610612745,HOU,Houston,1891,Jason Terry,,,22:01,88.9,111.5,-22.6,0.067,0.0,14.3,0.0,0.0,0.0,0.0,0.167,0.167,0.129,93.31,-0.025,2016-03-18T00:00:00,5,HOU,Houston,35-34,31,23,34,28,0,0,0,0,0,0,0,0,0,0,116,0.565,0.643,0.379,31,42,17,0021501024,1610612745,HOU,Houston,Jason Terry,,,22:01,0.0,0.0,0.0,2.0,14.0,4.0,14.0,26.0,0.0,0.0,1.0,0.0
0021501024,1610612745,HOU,Houston,203909,KJ McDaniels,,,5:41,121.5,85.0,36.4,0.0,0.0,0.0,0.333,0.0,0.083,50.0,0.0,0.0,0.168,91.38,-0.081,2016-03-18T00:00:00,5,HOU,Houston,35-34,31,23,34,28,0,0,0,0,0,0,0,0,0,0,116,0.565,0.643,0.379,31,42,17,0021501024,1610612745,HOU,Houston,KJ McDaniels,,,5:41,0.0,0.0,0.0,0.0,0.0,4.0,0.0,2.0,0.0,0.0,0.0,0.0
0021501024,1610612745,HOU,Houston,1626149,Montrezl Harrell,,DNP - Coach's Decision                  ,,,,,,,0.0,,,,,,,0.0,,,2016-03-18T00:00:00,5,HOU,Houston,35-34,31,23,34,28,0,0,0,0,0,0,0,0,0,0,116,0.565,0.643,0.379,31,42,17,0021501024,1610612745,HOU,Houston,Montrezl Harrell,,DNP - Coach's Decision                  ,,,,,,,,,,,,,
0021501024,1610612745,HOU,Houston,203093,Terrence Jones,,DNP - Coach's Decision                  ,,,,,,,0.0,,,,,,,0.0,,,2016-03-18T00:00:00,5,HOU,Houston,35-34,31,23,34,28,0,0,0,0,0,0,0,0,0,0,116,0.565,0.643,0.379,31,42,17,0021501024,1610612745,HOU,Houston,Terrence Jones,,DNP - Coach's Decision                  ,,,,,,,,,,,,,
0021501024,1610612745,HOU,Houston,2746,Josh Smith,,DNP - Coach's Decision                  ,,,,,,,0.0,,,,,,,0.0,,,2016-03-18T00:00:00,5,HOU,Houston,35-34,31,23,34,28,0,0,0,0,0,0,0,0,0,0,116,0.565,0.643,0.379,31,42,17,0021501024,1610612745,HOU,Houston,Josh Smith,,DNP - Coach's Decision                  ,,,,,,,,,,,,,
