GAME_ID_x,TEAM_ID_x,TEAM_ABBREVIATION_x,TEAM_CITY_x,PLAYER_ID,PLAYER_NAME_x,START_POSITION_x,COMMENT_x,MIN_x,OFF_RATING,DEF_RATING,NET_RATING,AST_PCT,AST_TOV,AST_RATIO,OREB_PCT,DREB_PCT,REB_PCT,TM_TOV_PCT,EFG_PCT,TS_PCT,USG_PCT,PACE,PIE,GAME_DATE_EST,GAME_SEQUENCE,TEAM_ABBREVIATION_y,TEAM_CITY_NAME,TEAM_WINS_LOSSES,PTS_QTR1,PTS_QTR2,PTS_QTR3,PTS_QTR4,PTS_OT1,PTS_OT2,PTS_OT3,PTS_OT4,PTS_OT5,PTS_OT6,PTS_OT7,PTS_OT8,PTS_OT9,PTS_OT10,PTS,FG_PCT,FT_PCT,FG3_PCT,AST,REB,TOV,GAME_ID_y,TEAM_ID_y,TEAM_ABBREVIATION,TEAM_CITY_y,PLAYER_NAME_y,START_POSITION_y,COMMENT_y,MIN_y,PTS_OFF_TOV,PTS_2ND_CHANCE,PTS_FB,PTS_PAINT,OPP_PTS_OFF_TOV,OPP_PTS_2ND_CHANCE,OPP_PTS_FB,OPP_PTS_PAINT,BLK,BLKA,PF,PFD
0021501047,1610612749,MIL,Milwaukee,203507,Giannis Antetokounmpo,F,,36:46,117.6,99.6,18.0,0.192,0.0,22.7,0.038,0.306,0.194,0.0,0.618,0.618,0.238,89.17,0.204,2016-03-21T00:00:00,5,MIL,Milwaukee,30-41,30,18,26,17,0,0,0,0,0,0,0,0,0,0,91,0.539,0.571,0.556,23,40,13,0021501047,1610612749,MIL,Milwaukee,Giannis Antetokounmpo,F,,36:46,0.0,4.0,6.0,16.0,9.0,15.0,6.0,30.0,2.0,0.0,1.0,1.0
0021501047,1610612749,MIL,Milwaukee,203953,Jabari Parker,F,,34:39,118.7,102.7,16.1,0.063,1.0,18.2,0.08,0.125,0.105,18.2,0.357,0.357,0.134,87.68,0.014,2016-03-21T00:00:00,5,MIL,Milwaukee,30-41,30,18,26,17,0,0,0,0,0,0,0,0,0,0,91,0.539,0.571,0.556,23,40,13,0021501047,1610612749,MIL,Milwaukee,Jabari Parker,F,,34:39,3.0,0.0,0.0,2.0,9.0,13.0,6.0,26.0,2.0,0.0,4.0,0.0
0021501047,1610612749,MIL,Milwaukee,202328,Greg Monroe,C,,33:34,117.4,86.4,31.1,0.042,0.5,5.6,0.083,0.235,0.172,11.1,0.6,0.6,0.26,90.23,0.172,2016-03-21T00:00:00,5,MIL,Milwaukee,30-41,30,18,26,17,0,0,0,0,0,0,0,0,0,0,91,0.539,0.571,0.556,23,40,13,0021501047,1610612749,MIL,Milwaukee,Greg Monroe,C,,33:34,2.0,4.0,2.0,14.0,9.0,11.0,6.0,26.0,2.0,1.0,1.0,1.0
0021501047,1610612749,MIL,Milwaukee,203114,Khris Middleton,G,,31:56,115.1,81.9,33.2,0.211,1.33,16.4,0.0,0.029,0.017,12.3,0.75,0.779,0.327,88.71,0.185,2016-03-21T00:00:00,5,MIL,Milwaukee,30-41,30,18,26,17,0,0,0,0,0,0,0,0,0,0,91,0.539,0.571,0.556,23,40,13,0021501047,1610612749,MIL,Milwaukee,Khris Middleton,G,,31:56,0.0,2.0,2.0,6.0,7.0,10.0,4.0,24.0,0.0,0.0,5.0,2.0
0021501047,1610612749,MIL,Milwaukee,201573,Jerryd Bayless,G,,36:53,116.3,107.7,8.6,0.182,6.0,46.6,0.0,0.086,0.048,7.8,0.5,0.425,0.097,87.78,0.046,2016-03-21T00:00:00,5,MIL,Milwaukee,30-41,30,18,26,17,0,0,0,0,0,0,0,0,0,0,91,0.539,0.571,0.556,23,40,13,0021501047,1610612749,MIL,Milwaukee,Jerryd Bayless,G,,36:53,0.0,0.0,0.0,2.0,12.0,16.0,6.0,28.0,0.0,0.0,1.0,2.0
0021501047,1610612749,MIL,Milwaukee,203996,Damien Inglis,,,13:21,68.7,86.1,-17.4,0.167,0.0,25.0,0.0,0.231,0.136,0.0,0.333,0.333,0.121,98.83,0.158,2016-03-21T00:00:00,5,MIL,Milwaukee,30-41,30,18,26,17,0,0,0,0,0,0,0,0,0,0,91,0.539,0.571,0.556,23,40,13,0021501047,1610612749,MIL,Milwaukee,Damien Inglis,,,13:21,0.0,0.0,0.0,2.0,11.0,7.0,2.0,12.0,0.0,1.0,1.0,0.0
0021501047,1610612749,MIL,Milwaukee,203898,Tyler Ennis,,,11:07,67.0,69.9,-2.8,0.25,1.0,14.3,0.0,0.1,0.059,14.3,0.4,0.4,0.287,100.72,0.105,2016-03-21T00:00:00,5,MIL,Milwaukee,30-41,30,18,26,17,0,0,0,0,0,0,0,0,0,0,91,0.539,0.571,0.556,23,40,13,0021501047,1610612749,MIL,Milwaukee,Tyler Ennis,,,11:07,2.0,0.0,2.0,4.0,8.0,4.0,2.0,10.0,0.0,1.0,2.0,1.0
0021501047,1610612749,MIL,Milwaukee,203089,John Henson,,,14:27,73.8,121.5,-47.7,0.429,3.0,43.6,0.0,0.091,0.048,14.5,0.5,0.521,0.145,92.07,0.077,2016-03-21T00:00:00,5,MIL,Milwaukee,30-41,30,18,26,17,0,0,0,0,0,0,0,0,0,0,91,0.539,0.571,0.556,23,40,13,0021501047,1610612749,MIL,Milwaukee,John Henson,,,14:27,0.0,0.0,0.0,2.0,11.0,9.0,2.0,12.0,1.0,0.0,2.0,2.0
0021501047,1610612749,MIL,Milwaukee,203101,Miles Plumlee,,,13:43,80.0,110.3,-30.3,0.0,0.0,0.0,0.0,0.2,0.105,25.0,0.667,0.667,0.162,89.16,0.071,2016-03-21T00:00:00,5,MIL,Milwaukee,30-41,30,18,26,17,0,0,0,0,0,0,0,0,0,0,91,0.539,0.571,0.556,23,40,13,0021501047,1610612749,MIL,Milwaukee,Miles Plumlee,,,13:43,0.0,0.0,0.0,4.0,11.0,7.0,2.0,10.0,0.0,0.0,2.0,1.0
0021501047,1610612749,MIL,Milwaukee,203099,Jared Cunningham,,,13:35,69.6,110.6,-41.1,0.0,0.0,0.0,0.0,0.111,0.053,40.0,0.333,0.333,0.193,101.63,-0.028,2016-03-21T00:00:00,5,MIL,Milwaukee,30-41,30,18,26,17,0,0,0,0,0,0,0,0,0,0,91,0.539,0.571,0.556,23,40,13,0021501047,1610612749,MIL,Milwaukee,Jared Cunningham,,,13:35,0.0,0.0,0.0,2.0,13.0,8.0,4.0,12.0,0.0,0.0,1.0,4.0
0021501047,1610612749,MIL,Milwaukee,203487,Michael Carter-Williams,,NWT - LEFT HIP SURGERY                  ,,,,,,,0.0,,,,,,,0.0,,,2016-03-21T00:00:00,5,MIL,Milwaukee,30-41,30,18,26,17,0,0,0,0,0,0,0,0,0,0,91,0.539,0.571,0.556,23,40,13,0021501047,1610612749,MIL,Milwaukee,Michael Carter-Williams,,NWT - LEFT HIP SURGERY                  ,,,,,,,,,,,,,
0021501047,1610612749,MIL,Milwaukee,200779,Steve Novak,,NWT - LEFT KNEE (MCL) SPRAIN            ,,,,,,,0.0,,,,,,,0.0,,,2016-03-21T00:00:00,5,MIL,Milwaukee,30-41,30,18,26,17,0,0,0,0,0,0,0,0,0,0,91,0.539,0.571,0.556,23,40,13,0021501047,1610612749,MIL,Milwaukee,Steve Novak,,NWT - LEFT KNEE (MCL) SPRAIN            ,,,,,,,,,,,,,
0021501047,1610612749,MIL,Milwaukee,203948,Johnny O'Bryant III,,DNP - Coach's Decision                  ,,,,,,,0.0,,,,,,,0.0,,,2016-03-21T00:00:00,5,MIL,Milwaukee,30-41,30,18,26,17,0,0,0,0,0,0,0,0,0,0,91,0.539,0.571,0.556,23,40,13,0021501047,1610612749,MIL,Milwaukee,Johnny O'Bryant III,,DNP - Coach's Decision                  ,,,,,,,,,,,,,
0021501047,1610612765,DET,Detroit,202699,Tobias Harris,F,,36:33,94.4,107.0,-12.6,0.095,0.0,12.3,0.057,0.143,0.095,0.0,0.333,0.458,0.175,91.51,0.078,2016-03-21T00:00:00,5,DET,Detroit,37-34,17,28,20,27,0,0,0,0,0,0,0,0,0,0,92,0.412,0.765,0.273,18,39,12,0021501047,1610612765,DET,Detroit,Tobias Harris,F,,36:33,7.0,5.0,2.0,6.0,7.0,10.0,6.0,42.0,0.0,0.0,2.0,3.0
0021501047,1610612765,DET,Detroit,202694,Marcus Morris,F,,37:05,106.1,114.8,-8.7,0.2,4.0,26.1,0.0,0.115,0.052,6.5,1.111,1.017,0.149,89.18,0.171,2016-03-21T00:00:00,5,DET,Detroit,37-34,17,28,20,27,0,0,0,0,0,0,0,0,0,0,92,0.412,0.765,0.273,18,39,12,0021501047,1610612765,DET,Detroit,Marcus Morris,F,,37:05,0.0,0.0,0.0,0.0,5.0,10.0,10.0,42.0,1.0,0.0,1.0,4.0
0021501047,1610612765,DET,Detroit,203083,Andre Drummond,C,,33:07,101.5,112.5,-11.0,0.0,0.0,0.0,0.194,0.4,0.286,0.0,0.438,0.426,0.222,91.57,0.143,2016-03-21T00:00:00,5,DET,Detroit,37-34,17,28,20,27,0,0,0,0,0,0,0,0,0,0,92,0.412,0.765,0.273,18,39,12,0021501047,1610612765,DET,Detroit,Andre Drummond,C,,33:07,2.0,10.0,0.0,14.0,7.0,10.0,6.0,42.0,0.0,5.0,0.0,1.0
0021501047,1610612765,DET,Detroit,203484,Kentavious Caldwell-Pope,G,,38:14,101.7,114.2,-12.4,0.13,3.0,13.1,0.051,0.036,0.045,4.4,0.389,0.397,0.24,89.16,0.046,2016-03-21T00:00:00,5,DET,Detroit,37-34,17,28,20,27,0,0,0,0,0,0,0,0,0,0,92,0.412,0.765,0.273,18,39,12,0021501047,1610612765,DET,Detroit,Kentavious Caldwell-Pope,G,,38:14,0.0,5.0,2.0,6.0,5.0,10.0,8.0,44.0,0.0,0.0,0.0,3.0
0021501047,1610612765,DET,Detroit,202704,Reggie Jackson,G,,28:25,97.7,116.3,-18.6,0.294,1.67,28.9,0.0,0.238,0.104,17.3,0.375,0.483,0.208,91.72,0.087,2016-03-21T00:00:00,5,DET,Detroit,37-34,17,28,20,27,0,0,0,0,0,0,0,0,0,0,92,0.412,0.765,0.273,18,39,12,0021501047,1610612765,DET,Detroit,Reggie Jackson,G,,28:25,0.0,0.0,2.0,4.0,5.0,8.0,8.0,32.0,0.0,0.0,2.0,2.0
0021501047,1610612765,DET,Detroit,2581,Steve Blake,,,19:35,96.9,85.9,11.0,0.286,0.0,53.8,0.0,0.0,0.0,0.0,0.333,0.436,0.076,89.41,0.088,2016-03-21T00:00:00,5,DET,Detroit,37-34,17,28,20,27,0,0,0,0,0,0,0,0,0,0,92,0.412,0.765,0.273,18,39,12,0021501047,1610612765,DET,Detroit,Steve Blake,,,19:35,3.0,0.0,0.0,2.0,2.0,2.0,4.0,22.0,0.0,0.0,1.0,2.0
0021501047,1610612765,DET,Detroit,1626169,Stanley Johnson,,,15:43,76.3,80.0,-3.7,0.0,0.0,0.0,0.0,0.0,0.0,42.1,0.167,0.291,0.332,93.94,-0.32,2016-03-21T00:00:00,5,DET,Detroit,37-34,17,28,20,27,0,0,0,0,0,0,0,0,0,0,92,0.412,0.765,0.273,18,39,12,0021501047,1610612765,DET,Detroit,Stanley Johnson,,,15:43,2.0,0.0,2.0,2.0,2.0,0.0,4.0,18.0,0.0,1.0,4.0,1.0
0021501047,1610612765,DET,Detroit,201229,Anthony Tolliver,,,16:25,96.5,77.3,19.2,0.0,0.0,0.0,0.0,0.1,0.04,10.0,0.611,0.611,0.262,93.5,0.076,2016-03-21T00:00:00,5,DET,Detroit,37-34,17,28,20,27,0,0,0,0,0,0,0,0,0,0,92,0.412,0.765,0.273,18,39,12,0021501047,1610612765,DET,Detroit,Anthony Tolliver,,,16:25,6.0,0.0,0.0,2.0,2.0,0.0,8.0,16.0,1.0,0.0,4.0,3.0
0021501047,1610612765,DET,Detroit,203382,Aron Baynes,,,14:53,88.3,85.4,2.9,0.0,0.0,0.0,0.0,0.556,0.217,20.0,0.25,0.25,0.164,89.01,0.101,2016-03-21T00:00:00,5,DET,Detroit,37-34,17,28,20,27,0,0,0,0,0,0,0,0,0,0,92,0.412,0.765,0.273,18,39,12,0021501047,1610612765,DET,Detroit,Aron Baynes,,,14:53,0.0,0.0,0.0,2.0,0.0,0.0,6.0,12.0,1.0,1.0,0.0,1.0
0021501047,1610612765,DET,Detroit,201202,Joel Anthony,,DNP - Coach's Decision                  ,,,,,,,0.0,,,,,,,0.0,,,2016-03-21T00:00:00,5,DET,Detroit,37-34,17,28,20,27,0,0,0,0,0,0,0,0,0,0,92,0.412,0.765,0.273,18,39,12,0021501047,1610612765,DET,Detroit,Joel Anthony,,DNP - Coach's Decision                  ,,,,,,,,,,,,,
0021501047,1610612765,DET,Detroit,203485,Lorenzo Brown,,DNP - Coach's Decision                  ,,,,,,,0.0,,,,,,,0.0,,,2016-03-21T00:00:00,5,DET,Detroit,37-34,17,28,20,27,0,0,0,0,0,0,0,0,0,0,92,0.412,0.765,0.273,18,39,12,0021501047,1610612765,DET,Detroit,Lorenzo Brown,,DNP - Coach's Decision                  ,,,,,,,,,,,,,
0021501047,1610612765,DET,Detroit,203493,Reggie Bullock,,DNP - Coach's Decision                  ,,,,,,,0.0,,,,,,,0.0,,,2016-03-21T00:00:00,5,DET,Detroit,37-34,17,28,20,27,0,0,0,0,0,0,0,0,0,0,92,0.412,0.765,0.273,18,39,12,0021501047,1610612765,DET,Detroit,Reggie Bullock,,DNP - Coach's Decision                  ,,,,,,,,,,,,,
0021501047,1610612765,DET,Detroit,1626199,Darrun Hilliard,,DNP - Coach's Decision                  ,,,,,,,0.0,,,,,,,0.0,,,2016-03-21T00:00:00,5,DET,Detroit,37-34,17,28,20,27,0,0,0,0,0,0,0,0,0,0,92,0.412,0.765,0.273,18,39,12,0021501047,1610612765,DET,Detroit,Darrun Hilliard,,DNP - Coach's Decision                  ,,,,,,,,,,,,,
