GAME_ID_x,TEAM_ID_x,TEAM_ABBREVIATION_x,TEAM_CITY_x,PLAYER_ID,PLAYER_NAME_x,START_POSITION_x,COMMENT_x,MIN_x,OFF_RATING,DEF_RATING,NET_RATING,AST_PCT,AST_TOV,AST_RATIO,OREB_PCT,DREB_PCT,REB_PCT,TM_TOV_PCT,EFG_PCT,TS_PCT,USG_PCT,PACE,PIE,GAME_DATE_EST,GAME_SEQUENCE,TEAM_ABBREVIATION_y,TEAM_CITY_NAME,TEAM_WINS_LOSSES,PTS_QTR1,PTS_QTR2,PTS_QTR3,PTS_QTR4,PTS_OT1,PTS_OT2,PTS_OT3,PTS_OT4,PTS_OT5,PTS_OT6,PTS_OT7,PTS_OT8,PTS_OT9,PTS_OT10,PTS,FG_PCT,FT_PCT,FG3_PCT,AST,REB,TOV,GAME_ID_y,TEAM_ID_y,TEAM_ABBREVIATION,TEAM_CITY_y,PLAYER_NAME_y,START_POSITION_y,COMMENT_y,MIN_y,PTS_OFF_TOV,PTS_2ND_CHANCE,PTS_FB,PTS_PAINT,OPP_PTS_OFF_TOV,OPP_PTS_2ND_CHANCE,OPP_PTS_FB,OPP_PTS_PAINT,BLK,BLKA,PF,PFD
0021501058,1610612753,ORL,Orlando,203095,Evan Fournier,F,,29:24,101.6,122.9,-21.3,0.059,0.0,7.8,0.0,0.05,0.019,0.0,0.55,0.595,0.166,102.82,0.071,2016-03-23T00:00:00,4,ORL,Orlando,29-42,21,36,30,15,0,0,0,0,0,0,0,0,0,0,102,0.398,0.842,0.32,24,44,6,0021501058,1610612753,ORL,Orlando,Evan Fournier,F,,29:24,8.0,0.0,6.0,8.0,3.0,6.0,5.0,34.0,0.0,0.0,2.0,2.0
0021501058,1610612753,ORL,Orlando,203932,Aaron Gordon,F,,28:32,99.9,128.7,-28.8,0.2,0.0,15.2,0.176,0.263,0.208,0.0,0.367,0.447,0.236,97.64,0.136,2016-03-23T00:00:00,4,ORL,Orlando,29-42,21,36,30,15,0,0,0,0,0,0,0,0,0,0,102,0.398,0.842,0.32,24,44,6,0021501058,1610612753,ORL,Orlando,Aaron Gordon,F,,28:32,2.0,8.0,0.0,8.0,3.0,6.0,4.0,34.0,0.0,1.0,0.0,3.0
0021501058,1610612753,ORL,Orlando,203473,Dewayne Dedmon,C,,15:48,92.3,98.2,-6.0,0.0,0.0,0.0,0.105,0.333,0.194,34.7,0.0,0.532,0.075,103.53,0.072,2016-03-23T00:00:00,4,ORL,Orlando,29-42,21,36,30,15,0,0,0,0,0,0,0,0,0,0,102,0.398,0.842,0.32,24,44,6,0021501058,1610612753,ORL,Orlando,Dewayne Dedmon,C,,15:48,0.0,0.0,2.0,0.0,3.0,2.0,0.0,22.0,2.0,0.0,3.0,1.0
0021501058,1610612753,ORL,Orlando,203506,Victor Oladipo,G,,41:01,112.9,125.5,-12.6,0.167,5.0,19.7,0.023,0.077,0.043,3.9,0.306,0.362,0.209,97.15,0.043,2016-03-23T00:00:00,4,ORL,Orlando,29-42,21,36,30,15,0,0,0,0,0,0,0,0,0,0,102,0.398,0.842,0.32,24,44,6,0021501058,1610612753,ORL,Orlando,Victor Oladipo,G,,41:01,0.0,3.0,4.0,8.0,3.0,8.0,4.0,50.0,1.0,0.0,3.0,4.0
0021501058,1610612753,ORL,Orlando,201943,Brandon Jennings,G,,10:59,88.3,109.2,-20.9,0.0,0.0,0.0,0.0,0.167,0.056,17.0,0.5,0.615,0.213,105.5,0.107,2016-03-23T00:00:00,4,ORL,Orlando,29-42,21,36,30,15,0,0,0,0,0,0,0,0,0,0,102,0.398,0.842,0.32,24,44,6,0021501058,1610612753,ORL,Orlando,Brandon Jennings,G,,10:59,4.0,0.0,2.0,2.0,3.0,2.0,0.0,16.0,0.0,0.0,1.0,1.0
0021501058,1610612753,ORL,Orlando,203901,Elfrid Payton,,,34:29,119.3,128.7,-9.4,0.435,10.0,29.6,0.139,0.192,0.161,3.0,0.429,0.439,0.298,95.41,0.12,2016-03-23T00:00:00,4,ORL,Orlando,29-42,21,36,30,15,0,0,0,0,0,0,0,0,0,0,102,0.398,0.842,0.32,24,44,6,0021501058,1610612753,ORL,Orlando,Elfrid Payton,,,34:29,8.0,4.0,2.0,18.0,0.0,8.0,7.0,40.0,0.0,3.0,3.0,2.0
0021501058,1610612753,ORL,Orlando,201160,Jason Smith,,,22:56,110.3,138.5,-28.2,0.25,0.0,23.5,0.045,0.105,0.073,0.0,0.462,0.462,0.264,95.02,0.071,2016-03-23T00:00:00,4,ORL,Orlando,29-42,21,36,30,15,0,0,0,0,0,0,0,0,0,0,102,0.398,0.842,0.32,24,44,6,0021501058,1610612753,ORL,Orlando,Jason Smith,,,22:56,0.0,2.0,0.0,0.0,0.0,6.0,5.0,26.0,0.0,1.0,3.0,0.0
0021501058,1610612753,ORL,Orlando,1626209,Mario Hezonja,,,23:03,112.8,113.2,-0.4,0.0,0.0,0.0,0.0,0.091,0.043,12.5,0.571,0.571,0.156,90.29,0.038,2016-03-23T00:00:00,4,ORL,Orlando,29-42,21,36,30,15,0,0,0,0,0,0,0,0,0,0,102,0.398,0.842,0.32,24,44,6,0021501058,1610612753,ORL,Orlando,Mario Hezonja,,,23:03,0.0,3.0,0.0,0.0,0.0,8.0,5.0,30.0,0.0,0.0,3.0,0.0
0021501058,1610612753,ORL,Orlando,101141,Ersan Ilyasova,,,24:21,130.7,118.8,12.0,0.045,0.0,20.0,0.045,0.125,0.079,0.0,1.0,1.0,0.073,96.39,0.078,2016-03-23T00:00:00,4,ORL,Orlando,29-42,21,36,30,15,0,0,0,0,0,0,0,0,0,0,102,0.398,0.842,0.32,24,44,6,0021501058,1610612753,ORL,Orlando,Ersan Ilyasova,,,24:21,0.0,2.0,0.0,2.0,0.0,6.0,5.0,30.0,0.0,0.0,1.0,1.0
0021501058,1610612753,ORL,Orlando,203094,Andrew Nicholson,,,4:23,43.6,57.1,-13.5,0.0,0.0,0.0,0.111,0.167,0.133,33.3,0.75,0.75,0.276,76.0,2.5,2016-03-23T00:00:00,4,ORL,Orlando,29-42,21,36,30,15,0,0,0,0,0,0,0,0,0,0,102,0.398,0.842,0.32,24,44,6,0021501058,1610612753,ORL,Orlando,Andrew Nicholson,,,4:23,0.0,0.0,0.0,0.0,0.0,4.0,0.0,4.0,0.0,0.0,0.0,0.0
0021501058,1610612753,ORL,Orlando,203894,Shabazz Napier,,,2:32,0.0,50.0,-50.0,0.0,0.0,0.0,0.0,0.5,0.222,0.0,0.0,0.0,0.2,75.79,-1.0,2016-03-23T00:00:00,4,ORL,Orlando,29-42,21,36,30,15,0,0,0,0,0,0,0,0,0,0,102,0.398,0.842,0.32,24,44,6,0021501058,1610612753,ORL,Orlando,Shabazz Napier,,,2:32,0.0,0.0,0.0,0.0,0.0,2.0,0.0,2.0,0.0,0.0,0.0,0.0
0021501058,1610612753,ORL,Orlando,203906,Devyn Marble,,,2:32,0.0,50.0,-50.0,0.0,0.0,0.0,0.0,0.0,0.0,0.0,0.0,0.0,0.4,75.79,2.0,2016-03-23T00:00:00,4,ORL,Orlando,29-42,21,36,30,15,0,0,0,0,0,0,0,0,0,0,102,0.398,0.842,0.32,24,44,6,0021501058,1610612753,ORL,Orlando,Devyn Marble,,,2:32,0.0,0.0,0.0,0.0,0.0,2.0,0.0,2.0,0.0,0.0,0.0,1.0
0021501058,1610612753,ORL,Orlando,201228,C.J. Watson,,DNP - Coach's Decision                  ,,,,,,,0.0,,,,,,,0.0,,,2016-03-23T00:00:00,4,ORL,Orlando,29-42,21,36,30,15,0,0,0,0,0,0,0,0,0,0,102,0.398,0.842,0.32,24,44,6,0021501058,1610612753,ORL,Orlando,C.J. Watson,,DNP - Coach's Decision                  ,,,,,,,,,,,,,
0021501058,1610612765,DET,Detroit,202699,Tobias Harris,F,,33:29,110.5,98.6,11.9,0.136,0.0,16.4,0.034,0.075,0.058,0.0,0.536,0.587,0.19,99.21,0.146,2016-03-23T00:00:00,4,DET,Detroit,38-34,32,34,30,22,0,0,0,0,0,0,0,0,0,0,118,0.538,0.84,0.458,30,45,15,0021501058,1610612765,DET,Detroit,Tobias Harris,F,,33:29,0.0,2.0,0.0,8.0,18.0,17.0,14.0,30.0,2.0,0.0,1.0,4.0
0021501058,1610612765,DET,Detroit,202694,Marcus Morris,F,,37:56,130.4,111.4,19.0,0.133,4.0,24.3,0.0,0.122,0.075,6.1,0.636,0.656,0.152,95.16,0.096,2016-03-23T00:00:00,4,DET,Detroit,38-34,32,34,30,22,0,0,0,0,0,0,0,0,0,0,118,0.538,0.84,0.458,30,45,15,0021501058,1610612765,DET,Detroit,Marcus Morris,F,,37:56,0.0,0.0,0.0,6.0,16.0,17.0,12.0,36.0,0.0,0.0,3.0,1.0
0021501058,1610612765,DET,Detroit,203083,Andre Drummond,C,,35:21,111.6,104.5,7.2,0.063,1.0,4.3,0.172,0.22,0.2,4.3,0.7,0.704,0.274,97.29,0.235,2016-03-23T00:00:00,4,DET,Detroit,38-34,32,34,30,22,0,0,0,0,0,0,0,0,0,0,118,0.538,0.84,0.458,30,45,15,0021501058,1610612765,DET,Detroit,Andre Drummond,C,,35:21,0.0,10.0,0.0,28.0,16.0,19.0,12.0,30.0,2.0,2.0,4.0,2.0
0021501058,1610612765,DET,Detroit,1626199,Darrun Hilliard,G,,28:51,116.8,103.3,13.5,0.125,3.0,26.0,0.0,0.182,0.113,8.7,0.75,0.731,0.128,101.08,0.112,2016-03-23T00:00:00,4,DET,Detroit,38-34,32,34,30,22,0,0,0,0,0,0,0,0,0,0,118,0.538,0.84,0.458,30,45,15,0021501058,1610612765,DET,Detroit,Darrun Hilliard,G,,28:51,3.0,0.0,2.0,0.0,18.0,17.0,14.0,28.0,0.0,0.0,2.0,5.0
0021501058,1610612765,DET,Detroit,202704,Reggie Jackson,G,,32:21,116.3,99.9,16.4,0.391,1.5,29.7,0.038,0.026,0.031,19.8,0.464,0.522,0.288,97.17,0.076,2016-03-23T00:00:00,4,DET,Detroit,38-34,32,34,30,22,0,0,0,0,0,0,0,0,0,0,118,0.538,0.84,0.458,30,45,15,0021501058,1610612765,DET,Detroit,Reggie Jackson,G,,32:21,0.0,0.0,0.0,4.0,14.0,14.0,12.0,28.0,0.0,0.0,2.0,3.0
0021501058,1610612765,DET,Detroit,1626169,Stanley Johnson,,,29:13,111.1,104.9,6.2,0.1,0.4,11.8,0.038,0.219,0.138,29.6,0.611,0.658,0.227,94.3,0.086,2016-03-23T00:00:00,4,DET,Detroit,38-34,32,34,30,22,0,0,0,0,0,0,0,0,0,0,118,0.538,0.84,0.458,30,45,15,0021501058,1610612765,DET,Detroit,Stanley Johnson,,,29:13,0.0,0.0,2.0,2.0,10.0,10.0,6.0,28.0,0.0,1.0,3.0,1.0
0021501058,1610612765,DET,Detroit,2581,Steve Blake,,,15:39,129.7,120.7,9.0,0.5,0.0,77.8,0.0,0.067,0.04,0.0,0.5,0.5,0.06,95.67,0.108,2016-03-23T00:00:00,4,DET,Detroit,38-34,32,34,30,22,0,0,0,0,0,0,0,0,0,0,118,0.538,0.84,0.458,30,45,15,0021501058,1610612765,DET,Detroit,Steve Blake,,,15:39,0.0,0.0,0.0,2.0,8.0,8.0,4.0,18.0,0.0,0.0,0.0,0.0
0021501058,1610612765,DET,Detroit,203382,Aron Baynes,,,12:39,148.1,113.5,34.6,0.0,0.0,0.0,0.143,0.083,0.105,12.2,0.8,0.903,0.32,94.99,0.176,2016-03-23T00:00:00,4,DET,Detroit,38-34,32,34,30,22,0,0,0,0,0,0,0,0,0,0,118,0.538,0.84,0.458,30,45,15,0021501058,1610612765,DET,Detroit,Aron Baynes,,,12:39,0.0,0.0,3.0,8.0,6.0,3.0,4.0,16.0,1.0,0.0,0.0,3.0
0021501058,1610612765,DET,Detroit,201229,Anthony Tolliver,,,14:31,147.1,126.6,20.5,0.071,0.0,50.0,0.0,0.231,0.15,0.0,0.0,0.0,0.038,90.84,0.034,2016-03-23T00:00:00,4,DET,Detroit,38-34,32,34,30,22,0,0,0,0,0,0,0,0,0,0,118,0.538,0.84,0.458,30,45,15,0021501058,1610612765,DET,Detroit,Anthony Tolliver,,,14:31,0.0,0.0,0.0,0.0,4.0,5.0,2.0,16.0,0.0,0.0,0.0,0.0
0021501058,1610612765,DET,Detroit,201202,Joel Anthony,,DNP - Coach's Decision                  ,,,,,,,0.0,,,,,,,0.0,,,2016-03-23T00:00:00,4,DET,Detroit,38-34,32,34,30,22,0,0,0,0,0,0,0,0,0,0,118,0.538,0.84,0.458,30,45,15,0021501058,1610612765,DET,Detroit,Joel Anthony,,DNP - Coach's Decision                  ,,,,,,,,,,,,,
0021501058,1610612765,DET,Detroit,203485,Lorenzo Brown,,DNP - Coach's Decision                  ,,,,,,,0.0,,,,,,,0.0,,,2016-03-23T00:00:00,4,DET,Detroit,38-34,32,34,30,22,0,0,0,0,0,0,0,0,0,0,118,0.538,0.84,0.458,30,45,15,0021501058,1610612765,DET,Detroit,Lorenzo Brown,,DNP - Coach's Decision                  ,,,,,,,,,,,,,
0021501058,1610612765,DET,Detroit,203915,Spencer Dinwiddie,,DNP - Coach's Decision                  ,,,,,,,0.0,,,,,,,0.0,,,2016-03-23T00:00:00,4,DET,Detroit,38-34,32,34,30,22,0,0,0,0,0,0,0,0,0,0,118,0.538,0.84,0.458,30,45,15,0021501058,1610612765,DET,Detroit,Spencer Dinwiddie,,DNP - Coach's Decision                  ,,,,,,,,,,,,,
0021501058,1610612765,DET,Detroit,201975,Jodie Meeks,,DNP - Coach's Decision                  ,,,,,,,0.0,,,,,,,0.0,,,2016-03-23T00:00:00,4,DET,Detroit,38-34,32,34,30,22,0,0,0,0,0,0,0,0,0,0,118,0.538,0.84,0.458,30,45,15,0021501058,1610612765,DET,Detroit,Jodie Meeks,,DNP - Coach's Decision                  ,,,,,,,,,,,,,
