GAME_ID_x,TEAM_ID_x,TEAM_ABBREVIATION_x,TEAM_CITY_x,PLAYER_ID,PLAYER_NAME_x,START_POSITION_x,COMMENT_x,MIN_x,OFF_RATING,DEF_RATING,NET_RATING,AST_PCT,AST_TOV,AST_RATIO,OREB_PCT,DREB_PCT,REB_PCT,TM_TOV_PCT,EFG_PCT,TS_PCT,USG_PCT,PACE,PIE,GAME_DATE_EST,GAME_SEQUENCE,TEAM_ABBREVIATION_y,TEAM_CITY_NAME,TEAM_WINS_LOSSES,PTS_QTR1,PTS_QTR2,PTS_QTR3,PTS_QTR4,PTS_OT1,PTS_OT2,PTS_OT3,PTS_OT4,PTS_OT5,PTS_OT6,PTS_OT7,PTS_OT8,PTS_OT9,PTS_OT10,PTS,FG_PCT,FT_PCT,FG3_PCT,AST,REB,TOV,GAME_ID_y,TEAM_ID_y,TEAM_ABBREVIATION,TEAM_CITY_y,PLAYER_NAME_y,START_POSITION_y,COMMENT_y,MIN_y,PTS_OFF_TOV,PTS_2ND_CHANCE,PTS_FB,PTS_PAINT,OPP_PTS_OFF_TOV,OPP_PTS_2ND_CHANCE,OPP_PTS_FB,OPP_PTS_PAINT,BLK,BLKA,PF,PFD
0021501057,1610612761,TOR,Toronto,1626181,Norman Powell,F,,12:14,104.7,109.0,-4.4,0.333,3.0,42.9,0.0,0.167,0.087,14.3,0.333,0.333,0.155,95.42,0.061,2016-03-23T00:00:00,3,TOR,Toronto,48-22,25,21,16,17,0,0,0,0,0,0,0,0,0,0,79,0.348,0.55,0.273,13,52,11,0021501057,1610612761,TOR,Toronto,Norman Powell,F,,12:14,0.0,0.0,0.0,0.0,0.0,2.0,8.0,16.0,1.0,0.0,1.0,1.0
0021501057,1610612761,TOR,Toronto,2449,Luis Scola,F,,23:58,95.5,112.2,-16.6,0.063,0.33,11.1,0.0,0.105,0.049,33.3,0.9,0.9,0.148,98.38,0.052,2016-03-23T00:00:00,3,TOR,Toronto,48-22,25,21,16,17,0,0,0,0,0,0,0,0,0,0,79,0.348,0.55,0.273,13,52,11,0021501057,1610612761,TOR,Toronto,Luis Scola,F,,23:58,0.0,0.0,0.0,0.0,7.0,6.0,14.0,32.0,1.0,0.0,3.0,1.0
0021501057,1610612761,TOR,Toronto,202685,Jonas Valanciunas,C,,20:42,99.2,99.3,-0.1,0.0,0.0,0.0,0.167,0.222,0.194,16.1,0.5,0.479,0.269,98.09,0.116,2016-03-23T00:00:00,3,TOR,Toronto,48-22,25,21,16,17,0,0,0,0,0,0,0,0,0,0,79,0.348,0.55,0.273,13,52,11,0021501057,1610612761,TOR,Toronto,Jonas Valanciunas,C,,20:42,0.0,2.0,0.0,8.0,4.0,4.0,12.0,24.0,2.0,1.0,1.0,2.0
0021501057,1610612761,TOR,Toronto,201942,DeMar DeRozan,G,,36:16,85.0,105.7,-20.8,0.111,1.0,8.3,0.0,0.0,0.0,8.3,0.406,0.526,0.267,94.76,0.099,2016-03-23T00:00:00,3,TOR,Toronto,48-22,25,21,16,17,0,0,0,0,0,0,0,0,0,0,79,0.348,0.55,0.273,13,52,11,0021501057,1610612761,TOR,Toronto,DeMar DeRozan,G,,36:16,5.0,2.0,3.0,4.0,7.0,6.0,16.0,42.0,0.0,1.0,0.0,6.0
0021501057,1610612761,TOR,Toronto,202709,Cory Joseph,G,,31:56,82.6,118.8,-36.2,0.235,0.0,19.2,0.053,0.167,0.097,0.0,0.25,0.267,0.23,94.7,0.028,2016-03-23T00:00:00,3,TOR,Toronto,48-22,25,21,16,17,0,0,0,0,0,0,0,0,0,0,79,0.348,0.55,0.273,13,52,11,0021501057,1610612761,TOR,Toronto,Cory Joseph,G,,31:56,0.0,0.0,2.0,6.0,5.0,4.0,16.0,40.0,0.0,0.0,2.0,1.0
0021501057,1610612761,TOR,Toronto,202687,Bismack Biyombo,,,27:18,70.5,102.2,-31.7,0.077,0.0,20.5,0.132,0.308,0.203,0.0,0.0,0.0,0.061,88.3,0.063,2016-03-23T00:00:00,3,TOR,Toronto,48-22,25,21,16,17,0,0,0,0,0,0,0,0,0,0,79,0.348,0.55,0.273,13,52,11,0021501057,1610612761,TOR,Toronto,Bismack Biyombo,,,27:18,0.0,0.0,0.0,0.0,3.0,2.0,4.0,24.0,1.0,1.0,3.0,4.0
0021501057,1610612761,TOR,Toronto,203082,Terrence Ross,,,35:46,76.1,97.7,-21.6,0.0,0.0,0.0,0.0,0.094,0.039,0.0,0.306,0.336,0.23,91.53,0.0,2016-03-23T00:00:00,3,TOR,Toronto,48-22,25,21,16,17,0,0,0,0,0,0,0,0,0,0,79,0.348,0.55,0.273,13,52,11,0021501057,1610612761,TOR,Toronto,Terrence Ross,,,35:46,4.0,2.0,3.0,6.0,7.0,4.0,8.0,32.0,0.0,1.0,3.0,1.0
0021501057,1610612761,TOR,Toronto,201574,Jason Thompson,,,24:02,70.2,87.4,-17.2,0.111,1.0,13.4,0.088,0.28,0.169,13.4,0.6,0.551,0.116,86.68,0.2,2016-03-23T00:00:00,3,TOR,Toronto,48-22,25,21,16,17,0,0,0,0,0,0,0,0,0,0,79,0.348,0.55,0.273,13,52,11,0021501057,1610612761,TOR,Toronto,Jason Thompson,,,24:02,0.0,4.0,0.0,6.0,0.0,0.0,2.0,16.0,1.0,0.0,2.0,1.0
0021501057,1610612761,TOR,Toronto,1626153,Delon Wright,,,20:25,80.7,71.4,9.4,0.0,0.0,0.0,0.04,0.292,0.163,16.7,0.3,0.3,0.253,89.62,0.118,2016-03-23T00:00:00,3,TOR,Toronto,48-22,25,21,16,17,0,0,0,0,0,0,0,0,0,0,79,0.348,0.55,0.273,13,52,11,0021501057,1610612761,TOR,Toronto,Delon Wright,,,20:25,0.0,2.0,0.0,6.0,2.0,2.0,0.0,10.0,0.0,1.0,0.0,0.0
0021501057,1610612761,TOR,Toronto,201949,James Johnson,,,7:23,85.9,76.9,9.0,0.333,0.0,20.5,0.091,0.0,0.048,0.0,0.5,0.387,0.233,80.09,0.057,2016-03-23T00:00:00,3,TOR,Toronto,48-22,25,21,16,17,0,0,0,0,0,0,0,0,0,0,79,0.348,0.55,0.273,13,52,11,0021501057,1610612761,TOR,Toronto,James Johnson,,,7:23,0.0,0.0,0.0,0.0,0.0,0.0,0.0,4.0,1.0,0.0,0.0,1.0
0021501057,1610612761,TOR,Toronto,203998,Bruno Caboclo,,DNP - Coach's Decision                  ,,,,,,,0.0,,,,,,,0.0,,,2016-03-23T00:00:00,3,TOR,Toronto,48-22,25,21,16,17,0,0,0,0,0,0,0,0,0,0,79,0.348,0.55,0.273,13,52,11,0021501057,1610612761,TOR,Toronto,Bruno Caboclo,,DNP - Coach's Decision                  ,,,,,,,,,,,,,
0021501057,1610612761,TOR,Toronto,200768,Kyle Lowry,,DNP - Coach's Decision                  ,,,,,,,0.0,,,,,,,0.0,,,2016-03-23T00:00:00,3,TOR,Toronto,48-22,25,21,16,17,0,0,0,0,0,0,0,0,0,0,79,0.348,0.55,0.273,13,52,11,0021501057,1610612761,TOR,Toronto,Kyle Lowry,,DNP - Coach's Decision                  ,,,,,,,,,,,,,
0021501057,1610612761,TOR,Toronto,203512,Lucas Nogueira,,DNP - Coach's Decision                  ,,,,,,,0.0,,,,,,,0.0,,,2016-03-23T00:00:00,3,TOR,Toronto,48-22,25,21,16,17,0,0,0,0,0,0,0,0,0,0,79,0.348,0.55,0.273,13,52,11,0021501057,1610612761,TOR,Toronto,Lucas Nogueira,,DNP - Coach's Decision                  ,,,,,,,,,,,,,
0021501057,1610612738,BOS,Boston,202323,Evan Turner,F,,33:28,104.4,82.5,21.9,0.35,7.0,32.0,0.034,0.083,0.062,4.6,0.577,0.612,0.212,94.66,0.232,2016-03-23T00:00:00,3,BOS,Boston,42-30,25,21,23,22,0,0,0,0,0,0,0,0,0,0,91,0.438,0.619,0.4,24,48,8,0021501057,1610612738,BOS,Boston,Evan Turner,F,,33:28,3.0,0.0,6.0,12.0,7.0,4.0,5.0,18.0,2.0,1.0,0.0,2.0
0021501057,1610612738,BOS,Boston,101161,Amir Johnson,F,,33:38,115.6,84.5,31.1,0.208,2.5,33.9,0.069,0.3,0.203,13.6,0.833,0.709,0.139,92.37,0.187,2016-03-23T00:00:00,3,BOS,Boston,42-30,25,21,23,22,0,0,0,0,0,0,0,0,0,0,91,0.438,0.619,0.4,24,48,8,0021501057,1610612738,BOS,Boston,Amir Johnson,F,,33:38,0.0,2.0,0.0,10.0,5.0,8.0,5.0,22.0,2.0,0.0,4.0,3.0
0021501057,1610612738,BOS,Boston,203096,Jared Sullinger,C,,27:15,107.1,85.7,21.4,0.167,3.0,17.8,0.077,0.29,0.193,5.9,0.292,0.349,0.234,92.3,0.087,2016-03-23T00:00:00,3,BOS,Boston,42-30,25,21,23,22,0,0,0,0,0,0,0,0,0,0,91,0.438,0.619,0.4,24,48,8,0021501057,1610612738,BOS,Boston,Jared Sullinger,C,,27:15,2.0,2.0,0.0,0.0,5.0,8.0,5.0,26.0,0.0,3.0,4.0,1.0
0021501057,1610612738,BOS,Boston,202340,Avery Bradley,G,,36:31,99.3,83.0,16.3,0.105,2.0,11.8,0.029,0.159,0.101,5.9,0.571,0.571,0.194,93.83,0.151,2016-03-23T00:00:00,3,BOS,Boston,42-30,25,21,23,22,0,0,0,0,0,0,0,0,0,0,91,0.438,0.619,0.4,24,48,8,0021501057,1610612738,BOS,Boston,Avery Bradley,G,,36:31,0.0,0.0,6.0,10.0,7.0,10.0,8.0,34.0,0.0,0.0,1.0,0.0
0021501057,1610612738,BOS,Boston,202738,Isaiah Thomas,G,,35:34,119.0,86.6,32.4,0.167,4.0,16.2,0.0,0.051,0.029,4.1,0.559,0.586,0.275,92.66,0.129,2016-03-23T00:00:00,3,BOS,Boston,42-30,25,21,23,22,0,0,0,0,0,0,0,0,0,0,91,0.438,0.619,0.4,24,48,8,0021501057,1610612738,BOS,Boston,Isaiah Thomas,G,,35:34,2.0,2.0,4.0,10.0,5.0,8.0,5.0,26.0,0.0,2.0,3.0,5.0
0021501057,1610612738,BOS,Boston,203935,Marcus Smart,,,25:16,95.5,82.5,13.0,0.067,0.0,11.1,0.042,0.031,0.036,0.0,0.125,0.125,0.178,87.81,-0.109,2016-03-23T00:00:00,3,BOS,Boston,42-30,25,21,23,22,0,0,0,0,0,0,0,0,0,0,91,0.438,0.619,0.4,24,48,8,0021501057,1610612738,BOS,Boston,Marcus Smart,,,25:16,0.0,0.0,0.0,2.0,4.0,10.0,3.0,18.0,0.0,1.0,4.0,0.0
0021501057,1610612738,BOS,Boston,203482,Kelly Olynyk,,,18:08,92.3,85.0,7.2,0.091,0.0,17.0,0.0,0.087,0.051,0.0,0.25,0.307,0.15,89.74,0.0,2016-03-23T00:00:00,3,BOS,Boston,42-30,25,21,23,22,0,0,0,0,0,0,0,0,0,0,91,0.438,0.619,0.4,24,48,8,0021501057,1610612738,BOS,Boston,Kelly Olynyk,,,18:08,0.0,0.0,0.0,0.0,2.0,6.0,1.0,6.0,0.0,0.0,2.0,1.0
0021501057,1610612738,BOS,Boston,1626179,Terry Rozier,,,13:11,54.0,79.2,-25.2,0.5,1.0,15.5,0.0,0.176,0.094,15.5,0.625,0.563,0.226,92.12,0.294,2016-03-23T00:00:00,3,BOS,Boston,42-30,25,21,23,22,0,0,0,0,0,0,0,0,0,0,91,0.438,0.619,0.4,24,48,8,0021501057,1610612738,BOS,Boston,Terry Rozier,,,13:11,0.0,0.0,0.0,2.0,4.0,4.0,3.0,12.0,0.0,0.0,0.0,1.0
0021501057,1610612738,BOS,Boston,203092,Tyler Zeller,,,6:31,65.6,62.3,3.2,0.0,0.0,0.0,0.0,0.2,0.118,0.0,0.0,1.136,0.072,98.11,0.4,2016-03-23T00:00:00,3,BOS,Boston,42-30,25,21,23,22,0,0,0,0,0,0,0,0,0,0,91,0.438,0.619,0.4,24,48,8,0021501057,1610612738,BOS,Boston,Tyler Zeller,,,6:31,0.0,0.0,0.0,0.0,2.0,2.0,2.0,8.0,0.0,0.0,0.0,1.0
0021501057,1610612738,BOS,Boston,201973,Jonas Jerebko,,,10:28,73.8,85.4,-11.6,0.0,0.0,0.0,0.0,0.0,0.0,25.8,0.5,0.521,0.191,94.93,0.026,2016-03-23T00:00:00,3,BOS,Boston,42-30,25,21,23,22,0,0,0,0,0,0,0,0,0,0,91,0.438,0.619,0.4,24,48,8,0021501057,1610612738,BOS,Boston,Jonas Jerebko,,,10:28,0.0,0.0,0.0,2.0,4.0,0.0,3.0,10.0,1.0,0.0,0.0,1.0
0021501057,1610612738,BOS,Boston,1626154,RJ Hunter,,DNP - Coach's Decision                  ,,,,,,,0.0,,,,,,,0.0,,,2016-03-23T00:00:00,3,BOS,Boston,42-30,25,21,23,22,0,0,0,0,0,0,0,0,0,0,91,0.438,0.619,0.4,24,48,8,0021501057,1610612738,BOS,Boston,RJ Hunter,,DNP - Coach's Decision                  ,,,,,,,,,,,,,
0021501057,1610612738,BOS,Boston,1626175,Jordan Mickey,,DNP - Coach's Decision                  ,,,,,,,0.0,,,,,,,0.0,,,2016-03-23T00:00:00,3,BOS,Boston,42-30,25,21,23,22,0,0,0,0,0,0,0,0,0,0,91,0.438,0.619,0.4,24,48,8,0021501057,1610612738,BOS,Boston,Jordan Mickey,,DNP - Coach's Decision                  ,,,,,,,,,,,,,
