GAME_ID_x,TEAM_ID_x,TEAM_ABBREVIATION_x,TEAM_CITY_x,PLAYER_ID,PLAYER_NAME_x,START_POSITION_x,COMMENT_x,MIN_x,OFF_RATING,DEF_RATING,NET_RATING,AST_PCT,AST_TOV,AST_RATIO,OREB_PCT,DREB_PCT,REB_PCT,TM_TOV_PCT,EFG_PCT,TS_PCT,USG_PCT,PACE,PIE,GAME_DATE_EST,GAME_SEQUENCE,TEAM_ABBREVIATION_y,TEAM_CITY_NAME,TEAM_WINS_LOSSES,PTS_QTR1,PTS_QTR2,PTS_QTR3,PTS_QTR4,PTS_OT1,PTS_OT2,PTS_OT3,PTS_OT4,PTS_OT5,PTS_OT6,PTS_OT7,PTS_OT8,PTS_OT9,PTS_OT10,PTS,FG_PCT,FT_PCT,FG3_PCT,AST,REB,TOV,GAME_ID_y,TEAM_ID_y,TEAM_ABBREVIATION,TEAM_CITY_y,PLAYER_NAME_y,START_POSITION_y,COMMENT_y,MIN_y,PTS_OFF_TOV,PTS_2ND_CHANCE,PTS_FB,PTS_PAINT,OPP_PTS_OFF_TOV,OPP_PTS_2ND_CHANCE,OPP_PTS_FB,OPP_PTS_PAINT,BLK,BLKA,PF,PFD
0021501070,1610612741,CHI,Chicago,2399,Mike Dunleavy,F,,28:44,101.2,113.2,-12.0,0.1,2.0,15.4,0.0,0.25,0.098,7.7,0.45,0.45,0.18,96.72,0.062,2016-03-24T00:00:00,3,CHI,Chicago,36-35,27,18,20,29,0,0,0,0,0,0,0,0,0,0,94,0.416,0.778,0.24,15,34,8,0021501070,1610612741,CHI,Chicago,Mike Dunleavy,F,,28:44,0.0,0.0,3.0,0.0,4.0,4.0,4.0,14.0,0.0,1.0,1.0,0.0
0021501070,1610612741,CHI,Chicago,201959,Taj Gibson,F,,25:56,104.9,118.1,-13.2,0.056,0.0,10.1,0.048,0.357,0.171,0.0,0.5,0.563,0.16,98.02,0.086,2016-03-24T00:00:00,3,CHI,Chicago,36-35,27,18,20,29,0,0,0,0,0,0,0,0,0,0,94,0.416,0.778,0.24,15,34,8,0021501070,1610612741,CHI,Chicago,Taj Gibson,F,,25:56,0.0,0.0,0.0,8.0,7.0,2.0,7.0,12.0,0.0,3.0,4.0,1.0
0021501070,1610612741,CHI,Chicago,1626245,Cristiano Felicio,C,,21:06,87.0,128.7,-41.8,0.0,0.0,0.0,0.0,0.083,0.033,0.0,0.6,0.6,0.118,93.04,0.068,2016-03-24T00:00:00,3,CHI,Chicago,36-35,27,18,20,29,0,0,0,0,0,0,0,0,0,0,94,0.416,0.778,0.24,15,34,8,0021501070,1610612741,CHI,Chicago,Cristiano Felicio,C,,21:06,2.0,0.0,0.0,2.0,4.0,5.0,4.0,10.0,1.0,1.0,0.0,0.0
0021501070,1610612741,CHI,Chicago,202710,Jimmy Butler,G,,38:59,102.5,119.1,-16.6,0.125,0.75,12.2,0.03,0.083,0.053,16.2,0.5,0.539,0.267,95.08,0.069,2016-03-24T00:00:00,3,CHI,Chicago,36-35,27,18,20,29,0,0,0,0,0,0,0,0,0,0,94,0.416,0.778,0.24,15,34,8,0021501070,1610612741,CHI,Chicago,Jimmy Butler,G,,38:59,2.0,0.0,0.0,6.0,7.0,11.0,9.0,20.0,1.0,0.0,3.0,3.0
0021501070,1610612741,CHI,Chicago,201565,Derrick Rose,G,,38:58,97.1,105.3,-8.2,0.167,3.0,10.1,0.0,0.08,0.033,3.4,0.563,0.582,0.321,97.39,0.157,2016-03-24T00:00:00,3,CHI,Chicago,36-35,27,18,20,29,0,0,0,0,0,0,0,0,0,0,94,0.416,0.778,0.24,15,34,8,0021501070,1610612741,CHI,Chicago,Derrick Rose,G,,38:58,13.0,0.0,4.0,12.0,7.0,4.0,12.0,20.0,0.0,2.0,1.0,2.0
0021501070,1610612741,CHI,Chicago,203926,Doug McDermott,,,13:59,90.4,110.8,-20.3,0.0,0.0,0.0,0.0,0.0,0.0,0.0,0.0,0.129,0.123,93.94,-0.068,2016-03-24T00:00:00,3,CHI,Chicago,36-35,27,18,20,29,0,0,0,0,0,0,0,0,0,0,94,0.416,0.778,0.24,15,34,8,0021501070,1610612741,CHI,Chicago,Doug McDermott,,,13:59,1.0,0.0,1.0,0.0,3.0,7.0,3.0,4.0,0.0,0.0,0.0,1.0
0021501070,1610612741,CHI,Chicago,202703,Nikola Mirotic,,,24:19,89.3,99.0,-9.7,0.188,3.0,20.3,0.071,0.2,0.125,6.8,0.222,0.372,0.212,99.61,0.062,2016-03-24T00:00:00,3,CHI,Chicago,36-35,27,18,20,29,0,0,0,0,0,0,0,0,0,0,94,0.416,0.778,0.24,15,34,8,0021501070,1610612741,CHI,Chicago,Nikola Mirotic,,,24:19,0.0,4.0,0.0,4.0,3.0,9.0,8.0,12.0,0.0,1.0,3.0,2.0
0021501070,1610612741,CHI,Chicago,1626171,Bobby Portis,,,17:12,89.2,89.8,-0.6,0.077,1.0,16.7,0.095,0.143,0.114,16.7,0.0,0.0,0.126,98.23,-0.038,2016-03-24T00:00:00,3,CHI,Chicago,36-35,27,18,20,29,0,0,0,0,0,0,0,0,0,0,94,0.416,0.778,0.24,15,34,8,0021501070,1610612741,CHI,Chicago,Bobby Portis,,,17:12,0.0,0.0,0.0,0.0,0.0,4.0,5.0,6.0,0.0,0.0,1.0,1.0
0021501070,1610612741,CHI,Chicago,201166,Aaron Brooks,,,17:31,84.9,112.6,-27.7,0.111,0.0,12.5,0.045,0.167,0.088,0.0,0.429,0.429,0.169,97.5,0.109,2016-03-24T00:00:00,3,CHI,Chicago,36-35,27,18,20,29,0,0,0,0,0,0,0,0,0,0,94,0.416,0.778,0.24,15,34,8,0021501070,1610612741,CHI,Chicago,Aaron Brooks,,,17:31,0.0,0.0,0.0,4.0,0.0,7.0,5.0,6.0,0.0,1.0,0.0,2.0
0021501070,1610612741,CHI,Chicago,203200,Justin Holiday,,,13:16,100.4,97.7,2.7,0.1,0.0,20.0,0.0,0.455,0.185,0.0,0.625,0.625,0.122,102.22,0.182,2016-03-24T00:00:00,3,CHI,Chicago,36-35,27,18,20,29,0,0,0,0,0,0,0,0,0,0,94,0.416,0.778,0.24,15,34,8,0021501070,1610612741,CHI,Chicago,Justin Holiday,,,13:16,2.0,0.0,2.0,2.0,0.0,2.0,3.0,6.0,0.0,0.0,1.0,0.0
0021501070,1610612741,CHI,Chicago,2200,Pau Gasol,,DND - Rest/Right Knee Swelling          ,,,,,,,0.0,,,,,,,0.0,,,2016-03-24T00:00:00,3,CHI,Chicago,36-35,27,18,20,29,0,0,0,0,0,0,0,0,0,0,94,0.416,0.778,0.24,15,34,8,0021501070,1610612741,CHI,Chicago,Pau Gasol,,DND - Rest/Right Knee Swelling          ,,,,,,,,,,,,,
0021501070,1610612741,CHI,Chicago,202734,E'Twaun Moore,,NWT - Left Hamstring                    ,,,,,,,0.0,,,,,,,0.0,,,2016-03-24T00:00:00,3,CHI,Chicago,36-35,27,18,20,29,0,0,0,0,0,0,0,0,0,0,94,0.416,0.778,0.24,15,34,8,0021501070,1610612741,CHI,Chicago,E'Twaun Moore,,NWT - Left Hamstring                    ,,,,,,,,,,,,,
0021501070,1610612741,CHI,Chicago,203503,Tony Snell,,DNP - Coach's Decision                  ,,,,,,,0.0,,,,,,,0.0,,,2016-03-24T00:00:00,3,CHI,Chicago,36-35,27,18,20,29,0,0,0,0,0,0,0,0,0,0,94,0.416,0.778,0.24,15,34,8,0021501070,1610612741,CHI,Chicago,Tony Snell,,DNP - Coach's Decision                  ,,,,,,,,,,,,,
0021501070,1610612752,NYK,New York,2546,Carmelo Anthony,F,,35:29,125.4,101.4,24.0,0.167,2.0,15.9,0.095,0.172,0.14,7.9,0.618,0.677,0.285,93.63,0.17,2016-03-24T00:00:00,3,NYK,New York,30-43,31,22,27,26,0,0,0,0,0,0,0,0,0,0,106,0.513,0.938,0.433,19,45,17,0021501070,1610612752,NYK,New York,Carmelo Anthony,F,,35:29,3.0,2.0,3.0,2.0,15.0,2.0,8.0,26.0,0.0,1.0,2.0,2.0
0021501070,1610612752,NYK,New York,204001,Kristaps Porzingis,F,,35:20,122.5,102.7,19.8,0.0,0.0,0.0,0.045,0.3,0.192,5.8,0.533,0.582,0.233,94.12,0.129,2016-03-24T00:00:00,3,NYK,New York,30-43,31,22,27,26,0,0,0,0,0,0,0,0,0,0,106,0.513,0.938,0.433,19,45,17,0021501070,1610612752,NYK,New York,Kristaps Porzingis,F,,35:20,0.0,2.0,0.0,4.0,12.0,2.0,7.0,26.0,3.0,0.0,2.0,4.0
0021501070,1610612752,NYK,New York,201577,Robin Lopez,C,,33:59,112.0,88.5,23.5,0.038,0.25,11.1,0.0,0.219,0.13,44.4,0.5,0.5,0.113,98.79,0.044,2016-03-24T00:00:00,3,NYK,New York,30-43,31,22,27,26,0,0,0,0,0,0,0,0,0,0,106,0.513,0.938,0.433,19,45,17,0021501070,1610612752,NYK,New York,Robin Lopez,C,,33:59,0.0,0.0,0.0,2.0,15.0,2.0,4.0,28.0,3.0,0.0,2.0,1.0
0021501070,1610612752,NYK,New York,101181,Jose Calderon,G,,32:59,128.9,99.8,29.1,0.259,3.5,37.1,0.053,0.214,0.149,10.6,0.611,0.607,0.176,95.01,0.108,2016-03-24T00:00:00,3,NYK,New York,30-43,31,22,27,26,0,0,0,0,0,0,0,0,0,0,106,0.513,0.938,0.433,19,45,17,0021501070,1610612752,NYK,New York,Jose Calderon,G,,32:59,1.0,3.0,1.0,2.0,15.0,0.0,7.0,26.0,0.0,0.0,3.0,3.0
0021501070,1610612752,NYK,New York,2756,Sasha Vujacic,G,,18:53,116.4,99.0,17.4,0.231,1.5,30.0,0.0,0.067,0.04,20.0,0.9,0.9,0.173,99.03,0.131,2016-03-24T00:00:00,3,NYK,New York,30-43,31,22,27,26,0,0,0,0,0,0,0,0,0,0,106,0.513,0.938,0.433,19,45,17,0021501070,1610612752,NYK,New York,Sasha Vujacic,G,,18:53,3.0,0.0,3.0,0.0,12.0,0.0,4.0,14.0,0.0,0.0,1.0,0.0
0021501070,1610612752,NYK,New York,202338,Kevin Seraphin,,,9:48,83.7,106.6,-22.9,0.2,1.0,20.0,0.125,0.182,0.158,20.0,0.333,0.333,0.179,95.71,0.117,2016-03-24T00:00:00,3,NYK,New York,30-43,31,22,27,26,0,0,0,0,0,0,0,0,0,0,106,0.513,0.938,0.433,19,45,17,0021501070,1610612752,NYK,New York,Kevin Seraphin,,,9:48,0.0,2.0,0.0,0.0,5.0,2.0,3.0,8.0,2.0,0.0,0.0,0.0
0021501070,1610612752,NYK,New York,204038,Langston Galloway,,,15:47,70.5,95.3,-24.8,0.143,0.0,21.0,0.0,0.2,0.121,0.0,0.5,0.798,0.109,102.31,0.241,2016-03-24T00:00:00,3,NYK,New York,30-43,31,22,27,26,0,0,0,0,0,0,0,0,0,0,106,0.513,0.938,0.433,19,45,17,0021501070,1610612752,NYK,New York,Langston Galloway,,,15:47,0.0,0.0,3.0,2.0,8.0,4.0,3.0,14.0,1.0,0.0,1.0,2.0
0021501070,1610612752,NYK,New York,201167,Arron Afflalo,,,29:07,106.2,94.1,12.1,0.111,1.0,15.4,0.0,0.094,0.056,15.4,0.611,0.611,0.182,95.65,0.097,2016-03-24T00:00:00,3,NYK,New York,30-43,31,22,27,26,0,0,0,0,0,0,0,0,0,0,106,0.513,0.938,0.433,19,45,17,0021501070,1610612752,NYK,New York,Arron Afflalo,,,29:07,0.0,0.0,0.0,2.0,8.0,4.0,6.0,24.0,0.0,1.0,0.0,0.0
0021501070,1610612752,NYK,New York,202682,Derrick Williams,,,16:53,98.1,92.5,5.6,0.0,0.0,0.0,0.0,0.143,0.091,18.4,0.688,0.732,0.314,100.08,0.177,2016-03-24T00:00:00,3,NYK,New York,30-43,31,22,27,26,0,0,0,0,0,0,0,0,0,0,106,0.513,0.938,0.433,19,45,17,0021501070,1610612752,NYK,New York,Derrick Williams,,,16:53,0.0,2.0,2.0,6.0,8.0,2.0,6.0,14.0,0.0,0.0,1.0,1.0
0021501070,1610612752,NYK,New York,1626170,Jerian Grant,,,11:45,74.1,73.1,1.0,0.0,0.0,0.0,0.0,0.0,0.0,20.0,0.5,0.5,0.195,105.48,0.034,2016-03-24T00:00:00,3,NYK,New York,30-43,31,22,27,26,0,0,0,0,0,0,0,0,0,0,106,0.513,0.938,0.433,19,45,17,0021501070,1610612752,NYK,New York,Jerian Grant,,,11:45,0.0,0.0,0.0,2.0,2.0,2.0,2.0,10.0,0.0,0.0,0.0,1.0
0021501070,1610612752,NYK,New York,200811,Lou Amundson,,DNP - Coach's Decision                  ,,,,,,,0.0,,,,,,,0.0,,,2016-03-24T00:00:00,3,NYK,New York,30-43,31,22,27,26,0,0,0,0,0,0,0,0,0,0,106,0.513,0.938,0.433,19,45,17,0021501070,1610612752,NYK,New York,Lou Amundson,,DNP - Coach's Decision                  ,,,,,,,,,,,,,
0021501070,1610612752,NYK,New York,203124,Kyle O'Quinn,,DNP - Coach's Decision                  ,,,,,,,0.0,,,,,,,0.0,,,2016-03-24T00:00:00,3,NYK,New York,30-43,31,22,27,26,0,0,0,0,0,0,0,0,0,0,106,0.513,0.938,0.433,19,45,17,0021501070,1610612752,NYK,New York,Kyle O'Quinn,,DNP - Coach's Decision                  ,,,,,,,,,,,,,
