GAME_ID_x,TEAM_ID_x,TEAM_ABBREVIATION_x,TEAM_CITY_x,PLAYER_ID,PLAYER_NAME_x,START_POSITION_x,COMMENT_x,MIN_x,OFF_RATING,DEF_RATING,NET_RATING,AST_PCT,AST_TOV,AST_RATIO,OREB_PCT,DREB_PCT,REB_PCT,TM_TOV_PCT,EFG_PCT,TS_PCT,USG_PCT,PACE,PIE,GAME_DATE_EST,GAME_SEQUENCE,TEAM_ABBREVIATION_y,TEAM_CITY_NAME,TEAM_WINS_LOSSES,PTS_QTR1,PTS_QTR2,PTS_QTR3,PTS_QTR4,PTS_OT1,PTS_OT2,PTS_OT3,PTS_OT4,PTS_OT5,PTS_OT6,PTS_OT7,PTS_OT8,PTS_OT9,PTS_OT10,PTS,FG_PCT,FT_PCT,FG3_PCT,AST,REB,TOV,GAME_ID_y,TEAM_ID_y,TEAM_ABBREVIATION,TEAM_CITY_y,PLAYER_NAME_y,START_POSITION_y,COMMENT_y,MIN_y,PTS_OFF_TOV,PTS_2ND_CHANCE,PTS_FB,PTS_PAINT,OPP_PTS_OFF_TOV,OPP_PTS_2ND_CHANCE,OPP_PTS_FB,OPP_PTS_PAINT,BLK,BLKA,PF,PFD
0021501088,1610612759,SAS,San Antonio,203937,Kyle Anderson,F,,30:25,103.7,110.1,-6.4,0.13,1.5,25.0,0.034,0.222,0.106,16.7,0.5,0.5,0.131,93.74,0.092,2016-03-26T00:00:00,7,SAS,San Antonio,61-12,26,18,19,29,0,0,0,0,0,0,0,0,0,0,92,0.43,0.824,0.267,14,34,12,0021501088,1610612759,SAS,San Antonio,Kyle Anderson,F,,30:25,0.0,0.0,0.0,4.0,9.0,13.0,8.0,30.0,0.0,1.0,2.0,3.0
0021501088,1610612759,SAS,San Antonio,2564,Boris Diaw,F,,26:42,88.3,122.7,-34.4,0.077,1.0,11.3,0.033,0.15,0.08,11.3,0.667,0.727,0.136,95.6,0.094,2016-03-26T00:00:00,7,SAS,San Antonio,61-12,26,18,19,29,0,0,0,0,0,0,0,0,0,0,92,0.43,0.824,0.267,14,34,12,0021501088,1610612759,SAS,San Antonio,Boris Diaw,F,,26:42,2.0,2.0,0.0,6.0,13.0,2.0,14.0,30.0,0.0,0.0,2.0,1.0
0021501088,1610612759,SAS,San Antonio,1626246,Boban Marjanovic,C,,27:07,80.5,124.0,-43.5,0.091,0.5,6.0,0.097,0.15,0.118,11.9,0.417,0.472,0.265,95.8,0.114,2016-03-26T00:00:00,7,SAS,San Antonio,61-12,26,18,19,29,0,0,0,0,0,0,0,0,0,0,92,0.43,0.824,0.267,14,34,12,0021501088,1610612759,SAS,San Antonio,Boban Marjanovic,C,,27:07,4.0,4.0,0.0,6.0,11.0,5.0,16.0,30.0,1.0,1.0,0.0,4.0
0021501088,1610612759,SAS,San Antonio,201980,Danny Green,G,,22:16,71.8,127.0,-55.2,0.182,0.0,25.0,0.04,0.083,0.054,0.0,0.167,0.167,0.122,92.39,-0.008,2016-03-26T00:00:00,7,SAS,San Antonio,61-12,26,18,19,29,0,0,0,0,0,0,0,0,0,0,92,0.43,0.824,0.267,14,34,12,0021501088,1610612759,SAS,San Antonio,Danny Green,G,,22:16,2.0,0.0,2.0,2.0,7.0,6.0,4.0,16.0,0.0,0.0,2.0,0.0
0021501088,1610612759,SAS,San Antonio,201988,Patty Mills,G,,31:06,91.6,128.2,-36.6,0.0,0.0,0.0,0.032,0.048,0.038,9.1,0.5,0.5,0.164,92.45,0.013,2016-03-26T00:00:00,7,SAS,San Antonio,61-12,26,18,19,29,0,0,0,0,0,0,0,0,0,0,92,0.43,0.824,0.267,14,34,12,0021501088,1610612759,SAS,San Antonio,Patty Mills,G,,31:06,0.0,0.0,0.0,2.0,11.0,10.0,8.0,28.0,0.0,0.0,3.0,1.0
0021501088,1610612759,SAS,San Antonio,2561,David West,,,24:14,111.8,114.7,-2.9,0.2,3.0,14.1,0.2,0.118,0.162,4.7,0.438,0.491,0.331,94.44,0.145,2016-03-26T00:00:00,7,SAS,San Antonio,61-12,26,18,19,29,0,0,0,0,0,0,0,0,0,0,92,0.43,0.824,0.267,14,34,12,0021501088,1610612759,SAS,San Antonio,David West,,,24:14,0.0,6.0,0.0,8.0,7.0,11.0,4.0,20.0,1.0,1.0,2.0,3.0
0021501088,1610612759,SAS,San Antonio,2755,Kevin Martin,,,18:03,113.0,108.0,5.0,0.0,0.0,0.0,0.0,0.0,0.0,9.6,0.111,0.159,0.253,98.71,-0.069,2016-03-26T00:00:00,7,SAS,San Antonio,61-12,26,18,19,29,0,0,0,0,0,0,0,0,0,0,92,0.43,0.824,0.267,14,34,12,0021501088,1610612759,SAS,San Antonio,Kevin Martin,,,18:03,0.0,0.0,0.0,0.0,7.0,3.0,10.0,18.0,1.0,1.0,0.0,0.0
0021501088,1610612759,SAS,San Antonio,2588,Matt Bonner,,,12:01,106.1,105.0,1.1,0.091,1.0,25.0,0.0,0.0,0.0,25.0,0.5,0.5,0.113,100.26,0.0,2016-03-26T00:00:00,7,SAS,San Antonio,61-12,26,18,19,29,0,0,0,0,0,0,0,0,0,0,92,0.43,0.824,0.267,14,34,12,0021501088,1610612759,SAS,San Antonio,Matt Bonner,,,12:01,0.0,0.0,0.0,2.0,5.0,7.0,2.0,10.0,0.0,0.0,1.0,0.0
0021501088,1610612759,SAS,San Antonio,1889,Andre Miller,,,18:55,116.8,92.3,24.5,0.133,0.67,15.0,0.125,0.375,0.25,22.5,0.571,0.661,0.26,99.72,0.2,2016-03-26T00:00:00,7,SAS,San Antonio,61-12,26,18,19,29,0,0,0,0,0,0,0,0,0,0,92,0.43,0.824,0.267,14,34,12,0021501088,1610612759,SAS,San Antonio,Andre Miller,,,18:55,2.0,2.0,0.0,8.0,7.0,3.0,10.0,18.0,0.0,0.0,3.0,2.0
0021501088,1610612759,SAS,San Antonio,203613,Jonathon Simmons,,,29:11,101.0,102.9,-1.8,0.056,0.0,7.3,0.0,0.043,0.019,0.0,0.682,0.666,0.187,98.42,0.133,2016-03-26T00:00:00,7,SAS,San Antonio,61-12,26,18,19,29,0,0,0,0,0,0,0,0,0,0,92,0.43,0.824,0.267,14,34,12,0021501088,1610612759,SAS,San Antonio,Jonathon Simmons,,,29:11,4.0,5.0,8.0,10.0,13.0,5.0,14.0,30.0,0.0,1.0,2.0,4.0
0021501088,1610612759,SAS,San Antonio,200746,LaMarcus Aldridge,,NWT - Rest                              ,,,,,,,0.0,,,,,,,0.0,,,2016-03-26T00:00:00,7,SAS,San Antonio,61-12,26,18,19,29,0,0,0,0,0,0,0,0,0,0,92,0.43,0.824,0.267,14,34,12,0021501088,1610612759,SAS,San Antonio,LaMarcus Aldridge,,NWT - Rest                              ,,,,,,,,,,,,,
0021501088,1610612759,SAS,San Antonio,202695,Kawhi Leonard,,NWT - Right Quad Contusion              ,,,,,,,0.0,,,,,,,0.0,,,2016-03-26T00:00:00,7,SAS,San Antonio,61-12,26,18,19,29,0,0,0,0,0,0,0,0,0,0,92,0.43,0.824,0.267,14,34,12,0021501088,1610612759,SAS,San Antonio,Kawhi Leonard,,NWT - Right Quad Contusion              ,,,,,,,,,,,,,
0021501088,1610612759,SAS,San Antonio,2225,Tony Parker,,NWT - Rest                              ,,,,,,,0.0,,,,,,,0.0,,,2016-03-26T00:00:00,7,SAS,San Antonio,61-12,26,18,19,29,0,0,0,0,0,0,0,0,0,0,92,0.43,0.824,0.267,14,34,12,0021501088,1610612759,SAS,San Antonio,Tony Parker,,NWT - Rest                              ,,,,,,,,,,,,,
0021501088,1610612760,OKC,Oklahoma City,201142,Kevin Durant,F,,31:42,117.4,99.7,17.7,0.214,0.6,10.7,0.05,0.281,0.192,17.9,0.775,0.775,0.356,94.12,0.277,2016-03-26T00:00:00,7,OKC,Oklahoma City,51-22,24,24,35,28,0,0,0,0,0,0,0,0,0,0,111,0.518,0.889,0.35,19,47,17,0021501088,1610612760,OKC,Oklahoma City,Kevin Durant,F,,31:42,0.0,2.0,3.0,4.0,8.0,17.0,8.0,36.0,0.0,0.0,3.0,1.0
0021501088,1610612760,OKC,Oklahoma City,201586,Serge Ibaka,F,,34:32,125.6,85.7,39.9,0.036,1.0,7.1,0.0,0.229,0.138,7.1,0.625,0.625,0.168,94.38,0.163,2016-03-26T00:00:00,7,OKC,Oklahoma City,51-22,24,24,35,28,0,0,0,0,0,0,0,0,0,0,111,0.518,0.889,0.35,19,47,17,0021501088,1610612760,OKC,Oklahoma City,Serge Ibaka,F,,34:32,3.0,3.0,2.0,6.0,6.0,11.0,4.0,30.0,4.0,0.0,0.0,0.0
0021501088,1610612760,OKC,Oklahoma City,203500,Steven Adams,C,,26:41,130.0,72.3,57.8,0.043,0.33,10.1,0.176,0.1,0.128,30.4,0.8,0.765,0.154,92.39,0.088,2016-03-26T00:00:00,7,OKC,Oklahoma City,51-22,24,24,35,28,0,0,0,0,0,0,0,0,0,0,111,0.518,0.889,0.35,19,47,17,0021501088,1610612760,OKC,Oklahoma City,Steven Adams,C,,26:41,0.0,5.0,0.0,8.0,4.0,9.0,2.0,20.0,0.0,0.0,3.0,2.0
0021501088,1610612760,OKC,Oklahoma City,203460,Andre Roberson,G,,31:11,122.9,84.6,38.3,0.069,0.0,50.0,0.056,0.1,0.083,0.0,1.25,1.25,0.028,97.68,0.12,2016-03-26T00:00:00,7,OKC,Oklahoma City,51-22,24,24,35,28,0,0,0,0,0,0,0,0,0,0,111,0.518,0.889,0.35,19,47,17,0021501088,1610612760,OKC,Oklahoma City,Andre Roberson,G,,31:11,2.0,0.0,2.0,2.0,10.0,8.0,4.0,30.0,0.0,0.0,0.0,1.0
0021501088,1610612760,OKC,Oklahoma City,201566,Russell Westbrook,G,,34:25,128.5,87.5,40.9,0.308,4.0,25.0,0.087,0.114,0.103,6.3,0.556,0.66,0.31,95.31,0.254,2016-03-26T00:00:00,7,OKC,Oklahoma City,51-22,24,24,35,28,0,0,0,0,0,0,0,0,0,0,111,0.518,0.889,0.35,19,47,17,0021501088,1610612760,OKC,Oklahoma City,Russell Westbrook,G,,34:25,6.0,0.0,4.0,10.0,6.0,11.0,6.0,30.0,0.0,1.0,1.0,7.0
0021501088,1610612760,OKC,Oklahoma City,202713,Kyle Singler,,,7:23,85.7,152.6,-66.9,0.0,0.0,0.0,0.0,0.0,0.0,0.0,0.0,0.0,0.063,90.28,-0.182,2016-03-26T00:00:00,7,OKC,Oklahoma City,51-22,24,24,35,28,0,0,0,0,0,0,0,0,0,0,111,0.518,0.889,0.35,19,47,17,0021501088,1610612760,OKC,Oklahoma City,Kyle Singler,,,7:23,0.0,0.0,0.0,0.0,4.0,4.0,0.0,6.0,0.0,0.0,3.0,1.0
0021501088,1610612760,OKC,Oklahoma City,202683,Enes Kanter,,,21:19,96.9,127.1,-30.2,0.0,0.0,0.0,0.353,0.235,0.294,11.7,0.583,0.663,0.326,99.84,0.243,2016-03-26T00:00:00,7,OKC,Oklahoma City,51-22,24,24,35,28,0,0,0,0,0,0,0,0,0,0,111,0.518,0.889,0.35,19,47,17,0021501088,1610612760,OKC,Oklahoma City,Enes Kanter,,,21:19,7.0,3.0,7.0,14.0,10.0,10.0,8.0,28.0,1.0,1.0,2.0,5.0
0021501088,1610612760,OKC,Oklahoma City,203079,Dion Waiters,,,17:35,100.1,113.0,-12.9,0.0,0.0,0.0,0.0,0.0,0.0,33.3,0.0,0.0,0.136,99.97,-0.129,2016-03-26T00:00:00,7,OKC,Oklahoma City,51-22,24,24,35,28,0,0,0,0,0,0,0,0,0,0,111,0.518,0.889,0.35,19,47,17,0021501088,1610612760,OKC,Oklahoma City,Dion Waiters,,,17:35,0.0,0.0,0.0,0.0,4.0,8.0,6.0,20.0,0.0,1.0,2.0,0.0
0021501088,1610612760,OKC,Oklahoma City,1626166,Cameron Payne,,,13:35,79.6,121.9,-42.3,0.375,3.0,33.3,0.0,0.167,0.087,11.1,0.0,0.0,0.184,96.68,-0.086,2016-03-26T00:00:00,7,OKC,Oklahoma City,51-22,24,24,35,28,0,0,0,0,0,0,0,0,0,0,111,0.518,0.889,0.35,19,47,17,0021501088,1610612760,OKC,Oklahoma City,Cameron Payne,,,13:35,0.0,0.0,0.0,0.0,8.0,8.0,4.0,18.0,0.0,0.0,3.0,0.0
0021501088,1610612760,OKC,Oklahoma City,200751,Randy Foye,,,21:37,102.1,99.8,2.3,0.056,1.0,12.5,0.0,0.045,0.025,12.5,0.167,0.167,0.137,95.64,-0.043,2016-03-26T00:00:00,7,OKC,Oklahoma City,51-22,24,24,35,28,0,0,0,0,0,0,0,0,0,0,111,0.518,0.889,0.35,19,47,17,0021501088,1610612760,OKC,Oklahoma City,Randy Foye,,,21:37,0.0,0.0,0.0,2.0,10.0,9.0,8.0,22.0,0.0,0.0,1.0,0.0
0021501088,1610612760,OKC,Oklahoma City,2555,Nick Collison,,DNP - Coach's Decision                  ,,,,,,,0.0,,,,,,,0.0,,,2016-03-26T00:00:00,7,OKC,Oklahoma City,51-22,24,24,35,28,0,0,0,0,0,0,0,0,0,0,111,0.518,0.889,0.35,19,47,17,0021501088,1610612760,OKC,Oklahoma City,Nick Collison,,DNP - Coach's Decision                  ,,,,,,,,,,,,,
0021501088,1610612760,OKC,Oklahoma City,1737,Nazr Mohammed,,DNP - Coach's Decision                  ,,,,,,,0.0,,,,,,,0.0,,,2016-03-26T00:00:00,7,OKC,Oklahoma City,51-22,24,24,35,28,0,0,0,0,0,0,0,0,0,0,111,0.518,0.889,0.35,19,47,17,0021501088,1610612760,OKC,Oklahoma City,Nazr Mohammed,,DNP - Coach's Decision                  ,,,,,,,,,,,,,
0021501088,1610612760,OKC,Oklahoma City,201627,Anthony Morrow,,DNP - Coach's Decision                  ,,,,,,,0.0,,,,,,,0.0,,,2016-03-26T00:00:00,7,OKC,Oklahoma City,51-22,24,24,35,28,0,0,0,0,0,0,0,0,0,0,111,0.518,0.889,0.35,19,47,17,0021501088,1610612760,OKC,Oklahoma City,Anthony Morrow,,DNP - Coach's Decision                  ,,,,,,,,,,,,,
