GAME_ID_x,TEAM_ID_x,TEAM_ABBREVIATION_x,TEAM_CITY_x,PLAYER_ID,PLAYER_NAME_x,START_POSITION_x,COMMENT_x,MIN_x,OFF_RATING,DEF_RATING,NET_RATING,AST_PCT,AST_TOV,AST_RATIO,OREB_PCT,DREB_PCT,REB_PCT,TM_TOV_PCT,EFG_PCT,TS_PCT,USG_PCT,PACE,PIE,GAME_DATE_EST,GAME_SEQUENCE,TEAM_ABBREVIATION_y,TEAM_CITY_NAME,TEAM_WINS_LOSSES,PTS_QTR1,PTS_QTR2,PTS_QTR3,PTS_QTR4,PTS_OT1,PTS_OT2,PTS_OT3,PTS_OT4,PTS_OT5,PTS_OT6,PTS_OT7,PTS_OT8,PTS_OT9,PTS_OT10,PTS,FG_PCT,FT_PCT,FG3_PCT,AST,REB,TOV,GAME_ID_y,TEAM_ID_y,TEAM_ABBREVIATION,TEAM_CITY_y,PLAYER_NAME_y,START_POSITION_y,COMMENT_y,MIN_y,PTS_OFF_TOV,PTS_2ND_CHANCE,PTS_FB,PTS_PAINT,OPP_PTS_OFF_TOV,OPP_PTS_2ND_CHANCE,OPP_PTS_FB,OPP_PTS_PAINT,BLK,BLKA,PF,PFD
0021501085,1610612737,ATL,Atlanta,203145,Kent Bazemore,F,,33:25,113.4,107.4,6.1,0.083,2.0,16.7,0.0,0.118,0.065,8.3,0.944,0.944,0.136,101.4,0.141,2016-03-26T00:00:00,4,ATL,Atlanta,44-30,27,29,27,29,0,0,0,0,0,0,0,0,0,0,112,0.453,0.929,0.382,34,39,4,0021501085,1610612737,ATL,Atlanta,Kent Bazemore,F,,33:25,0.0,0.0,2.0,6.0,4.0,11.0,2.0,28.0,1.0,0.0,0.0,1.0
0021501085,1610612737,ATL,Atlanta,200794,Paul Millsap,F,,28:49,111.8,103.2,8.6,0.294,0.0,24.8,0.0,0.31,0.164,0.0,0.731,0.757,0.238,99.11,0.27,2016-03-26T00:00:00,4,ATL,Atlanta,44-30,27,29,27,29,0,0,0,0,0,0,0,0,0,0,112,0.453,0.929,0.382,34,39,4,0021501085,1610612737,ATL,Atlanta,Paul Millsap,F,,28:49,4.0,0.0,7.0,6.0,4.0,7.0,2.0,22.0,4.0,1.0,3.0,4.0
0021501085,1610612737,ATL,Atlanta,201143,Al Horford,C,,29:58,116.5,84.0,32.5,0.208,0.0,25.0,0.033,0.129,0.082,0.0,0.433,0.433,0.217,102.54,0.1,2016-03-26T00:00:00,4,ATL,Atlanta,44-30,27,29,27,29,0,0,0,0,0,0,0,0,0,0,112,0.453,0.929,0.382,34,39,4,0021501085,1610612737,ATL,Atlanta,Al Horford,C,,29:58,0.0,0.0,0.0,6.0,0.0,11.0,2.0,20.0,2.0,0.0,3.0,0.0
0021501085,1610612737,ATL,Atlanta,2594,Kyle Korver,G,,29:01,112.6,82.2,30.3,0.0,0.0,0.0,0.0,0.097,0.049,0.0,0.55,0.575,0.164,98.79,0.065,2016-03-26T00:00:00,4,ATL,Atlanta,44-30,27,29,27,29,0,0,0,0,0,0,0,0,0,0,112,0.453,0.929,0.382,34,39,4,0021501085,1610612737,ATL,Atlanta,Kyle Korver,G,,29:01,0.0,2.0,0.0,2.0,0.0,7.0,2.0,18.0,0.0,0.0,3.0,2.0
0021501085,1610612737,ATL,Atlanta,201952,Jeff Teague,G,,32:43,115.7,98.4,17.3,0.444,0.0,44.8,0.034,0.083,0.062,0.0,0.308,0.407,0.204,97.79,0.1,2016-03-26T00:00:00,4,ATL,Atlanta,44-30,27,29,27,29,0,0,0,0,0,0,0,0,0,0,112,0.453,0.929,0.382,34,39,4,0021501085,1610612737,ATL,Atlanta,Jeff Teague,G,,32:43,0.0,3.0,2.0,2.0,2.0,9.0,2.0,22.0,0.0,1.0,3.0,3.0
0021501085,1610612737,ATL,Atlanta,203471,Dennis Schroder,,,24:03,104.7,101.5,3.2,0.467,2.33,29.2,0.0,0.143,0.075,12.5,0.393,0.393,0.318,99.61,0.066,2016-03-26T00:00:00,4,ATL,Atlanta,44-30,27,29,27,29,0,0,0,0,0,0,0,0,0,0,112,0.453,0.929,0.382,34,39,4,0021501085,1610612737,ATL,Atlanta,Dennis Schroder,,,24:03,2.0,0.0,2.0,4.0,4.0,8.0,4.0,20.0,0.0,0.0,3.0,1.0
0021501085,1610612737,ATL,Atlanta,2743,Kris Humphries,,,21:13,112.6,118.7,-6.1,0.0,0.0,0.0,0.133,0.136,0.135,0.0,0.625,0.652,0.185,95.96,0.109,2016-03-26T00:00:00,4,ATL,Atlanta,44-30,27,29,27,29,0,0,0,0,0,0,0,0,0,0,112,0.453,0.929,0.382,34,39,4,0021501085,1610612737,ATL,Atlanta,Kris Humphries,,,21:13,0.0,2.0,3.0,8.0,4.0,8.0,2.0,18.0,0.0,1.0,2.0,2.0
0021501085,1610612737,ATL,Atlanta,203501,Tim Hardaway Jr.,,,23:16,106.6,98.1,8.6,0.05,0.0,10.6,0.0,0.0,0.0,0.0,0.125,0.178,0.16,99.74,-0.057,2016-03-26T00:00:00,4,ATL,Atlanta,44-30,27,29,27,29,0,0,0,0,0,0,0,0,0,0,112,0.453,0.929,0.382,34,39,4,0021501085,1610612737,ATL,Atlanta,Tim Hardaway Jr.,,,23:16,0.0,0.0,2.0,2.0,2.0,10.0,2.0,18.0,0.0,1.0,2.0,0.0
0021501085,1610612737,ATL,Atlanta,203118,Mike Scott,,,16:01,94.1,87.1,7.0,0.222,0.0,25.4,0.059,0.286,0.161,0.0,0.8,0.85,0.174,97.64,0.255,2016-03-26T00:00:00,4,ATL,Atlanta,44-30,27,29,27,29,0,0,0,0,0,0,0,0,0,0,112,0.453,0.929,0.382,34,39,4,0021501085,1610612737,ATL,Atlanta,Mike Scott,,,16:01,0.0,0.0,2.0,2.0,0.0,4.0,2.0,12.0,0.0,0.0,2.0,1.0
0021501085,1610612737,ATL,Atlanta,203488,Mike Muscala,,,1:32,66.7,100.0,-33.3,0.0,0.0,0.0,0.0,1.0,0.333,0.0,0.0,0.0,0.0,78.26,0.2,2016-03-26T00:00:00,4,ATL,Atlanta,44-30,27,29,27,29,0,0,0,0,0,0,0,0,0,0,112,0.453,0.929,0.382,34,39,4,0021501085,1610612737,ATL,Atlanta,Mike Muscala,,,1:32,0.0,0.0,0.0,0.0,0.0,0.0,0.0,2.0,0.0,0.0,0.0,0.0
0021501085,1610612737,ATL,Atlanta,2550,Kirk Hinrich,,DNP - Coach's Decision                  ,,,,,,,0.0,,,,,,,0.0,,,2016-03-26T00:00:00,4,ATL,Atlanta,44-30,27,29,27,29,0,0,0,0,0,0,0,0,0,0,112,0.453,0.929,0.382,34,39,4,0021501085,1610612737,ATL,Atlanta,Kirk Hinrich,,DNP - Coach's Decision                  ,,,,,,,,,,,,,
0021501085,1610612737,ATL,Atlanta,200757,Thabo Sefolosha,,DNP - Coach's Decision                  ,,,,,,,0.0,,,,,,,0.0,,,2016-03-26T00:00:00,4,ATL,Atlanta,44-30,27,29,27,29,0,0,0,0,0,0,0,0,0,0,112,0.453,0.929,0.382,34,39,4,0021501085,1610612737,ATL,Atlanta,Thabo Sefolosha,,DNP - Coach's Decision                  ,,,,,,,,,,,,,
0021501085,1610612765,DET,Detroit,202699,Tobias Harris,F,,34:21,104.3,110.9,-6.6,0.294,2.5,18.5,0.056,0.286,0.156,7.4,0.525,0.525,0.262,101.84,0.135,2016-03-26T00:00:00,4,DET,Detroit,39-35,15,27,32,21,0,0,0,0,0,0,0,0,0,0,95,0.386,0.714,0.241,25,53,11,0021501085,1610612765,DET,Detroit,Tobias Harris,F,,34:21,4.0,2.0,2.0,12.0,6.0,5.0,13.0,26.0,1.0,1.0,3.0,0.0
0021501085,1610612765,DET,Detroit,202694,Marcus Morris,F,,38:57,96.8,114.7,-17.9,0.208,1.67,22.1,0.0,0.143,0.065,13.3,0.333,0.444,0.193,100.61,0.062,2016-03-26T00:00:00,4,DET,Detroit,39-35,15,27,32,21,0,0,0,0,0,0,0,0,0,0,95,0.386,0.714,0.241,25,53,11,0021501085,1610612765,DET,Detroit,Marcus Morris,F,,38:57,0.0,0.0,0.0,0.0,6.0,5.0,20.0,28.0,1.0,0.0,0.0,3.0
0021501085,1610612765,DET,Detroit,203083,Andre Drummond,C,,31:27,104.7,107.9,-3.2,0.0,0.0,0.0,0.2,0.355,0.279,6.3,0.636,0.635,0.225,99.0,0.18,2016-03-26T00:00:00,4,DET,Detroit,39-35,15,27,32,21,0,0,0,0,0,0,0,0,0,0,95,0.386,0.714,0.241,25,53,11,0021501085,1610612765,DET,Detroit,Andre Drummond,C,,31:27,0.0,5.0,0.0,14.0,6.0,4.0,9.0,22.0,2.0,2.0,1.0,8.0
0021501085,1610612765,DET,Detroit,203484,Kentavious Caldwell-Pope,G,,31:56,106.0,120.0,-14.0,0.045,1.0,6.3,0.0,0.04,0.018,6.3,0.308,0.324,0.195,97.7,-0.021,2016-03-26T00:00:00,4,DET,Detroit,39-35,15,27,32,21,0,0,0,0,0,0,0,0,0,0,95,0.386,0.714,0.241,25,53,11,0021501085,1610612765,DET,Detroit,Kentavious Caldwell-Pope,G,,31:56,0.0,0.0,0.0,2.0,4.0,7.0,11.0,28.0,0.0,1.0,3.0,1.0
0021501085,1610612765,DET,Detroit,202704,Reggie Jackson,G,,30:10,91.6,116.1,-24.6,0.313,0.0,28.7,0.0,0.036,0.016,0.0,0.417,0.442,0.177,99.35,0.039,2016-03-26T00:00:00,4,DET,Detroit,39-35,15,27,32,21,0,0,0,0,0,0,0,0,0,0,95,0.386,0.714,0.241,25,53,11,0021501085,1610612765,DET,Detroit,Reggie Jackson,G,,30:10,0.0,0.0,0.0,2.0,6.0,4.0,12.0,22.0,0.0,1.0,4.0,2.0
0021501085,1610612765,DET,Detroit,201229,Anthony Tolliver,,,13:39,79.5,110.2,-30.6,0.286,2.0,28.6,0.0,0.25,0.143,14.3,0.0,0.0,0.182,92.69,0.0,2016-03-26T00:00:00,4,DET,Detroit,39-35,15,27,32,21,0,0,0,0,0,0,0,0,0,0,95,0.386,0.714,0.241,25,53,11,0021501085,1610612765,DET,Detroit,Anthony Tolliver,,,13:39,0.0,0.0,0.0,0.0,0.0,2.0,7.0,12.0,0.0,2.0,1.0,0.0
0021501085,1610612765,DET,Detroit,1626169,Stanley Johnson,,,23:35,87.9,94.5,-6.6,0.071,0.5,11.3,0.095,0.115,0.106,22.5,0.2,0.34,0.149,100.42,0.04,2016-03-26T00:00:00,4,DET,Detroit,39-35,15,27,32,21,0,0,0,0,0,0,0,0,0,0,95,0.386,0.714,0.241,25,53,11,0021501085,1610612765,DET,Detroit,Stanley Johnson,,,23:35,0.0,2.0,2.0,0.0,2.0,2.0,9.0,18.0,0.0,0.0,0.0,2.0
0021501085,1610612765,DET,Detroit,2581,Steve Blake,,,17:50,107.9,101.5,6.4,0.462,6.0,50.5,0.067,0.125,0.097,8.4,0.25,0.307,0.143,99.05,0.096,2016-03-26T00:00:00,4,DET,Detroit,39-35,15,27,32,21,0,0,0,0,0,0,0,0,0,0,95,0.386,0.714,0.241,25,53,11,0021501085,1610612765,DET,Detroit,Steve Blake,,,17:50,0.0,2.0,0.0,0.0,0.0,3.0,8.0,16.0,0.0,0.0,1.0,1.0
0021501085,1610612765,DET,Detroit,203382,Aron Baynes,,,16:33,84.6,116.1,-31.5,0.0,0.0,0.0,0.167,0.308,0.226,0.0,0.833,0.868,0.214,99.69,0.28,2016-03-26T00:00:00,4,DET,Detroit,39-35,15,27,32,21,0,0,0,0,0,0,0,0,0,0,95,0.386,0.714,0.241,25,53,11,0021501085,1610612765,DET,Detroit,Aron Baynes,,,16:33,0.0,4.0,0.0,6.0,0.0,3.0,11.0,16.0,0.0,0.0,1.0,4.0
0021501085,1610612765,DET,Detroit,1626199,Darrun Hilliard,,,1:32,100.0,66.7,33.3,0.0,0.0,0.0,0.0,0.0,0.0,0.0,0.0,0.0,0.5,78.26,-0.2,2016-03-26T00:00:00,4,DET,Detroit,39-35,15,27,32,21,0,0,0,0,0,0,0,0,0,0,95,0.386,0.714,0.241,25,53,11,0021501085,1610612765,DET,Detroit,Darrun Hilliard,,,1:32,0.0,0.0,0.0,0.0,0.0,0.0,0.0,2.0,0.0,0.0,0.0,0.0
0021501085,1610612765,DET,Detroit,201202,Joel Anthony,,DNP - Coach's Decision                  ,,,,,,,0.0,,,,,,,0.0,,,2016-03-26T00:00:00,4,DET,Detroit,39-35,15,27,32,21,0,0,0,0,0,0,0,0,0,0,95,0.386,0.714,0.241,25,53,11,0021501085,1610612765,DET,Detroit,Joel Anthony,,DNP - Coach's Decision                  ,,,,,,,,,,,,,
0021501085,1610612765,DET,Detroit,203493,Reggie Bullock,,DNP - Coach's Decision                  ,,,,,,,0.0,,,,,,,0.0,,,2016-03-26T00:00:00,4,DET,Detroit,39-35,15,27,32,21,0,0,0,0,0,0,0,0,0,0,95,0.386,0.714,0.241,25,53,11,0021501085,1610612765,DET,Detroit,Reggie Bullock,,DNP - Coach's Decision                  ,,,,,,,,,,,,,
0021501085,1610612765,DET,Detroit,203915,Spencer Dinwiddie,,DNP - Coach's Decision                  ,,,,,,,0.0,,,,,,,0.0,,,2016-03-26T00:00:00,4,DET,Detroit,39-35,15,27,32,21,0,0,0,0,0,0,0,0,0,0,95,0.386,0.714,0.241,25,53,11,0021501085,1610612765,DET,Detroit,Spencer Dinwiddie,,DNP - Coach's Decision                  ,,,,,,,,,,,,,
