GAME_ID_x,TEAM_ID_x,TEAM_ABBREVIATION_x,TEAM_CITY_x,PLAYER_ID,PLAYER_NAME_x,START_POSITION_x,COMMENT_x,MIN_x,OFF_RATING,DEF_RATING,NET_RATING,AST_PCT,AST_TOV,AST_RATIO,OREB_PCT,DREB_PCT,REB_PCT,TM_TOV_PCT,EFG_PCT,TS_PCT,USG_PCT,PACE,PIE,GAME_DATE_EST,GAME_SEQUENCE,TEAM_ABBREVIATION_y,TEAM_CITY_NAME,TEAM_WINS_LOSSES,PTS_QTR1,PTS_QTR2,PTS_QTR3,PTS_QTR4,PTS_OT1,PTS_OT2,PTS_OT3,PTS_OT4,PTS_OT5,PTS_OT6,PTS_OT7,PTS_OT8,PTS_OT9,PTS_OT10,PTS,FG_PCT,FT_PCT,FG3_PCT,AST,REB,TOV,GAME_ID_y,TEAM_ID_y,TEAM_ABBREVIATION,TEAM_CITY_y,PLAYER_NAME_y,START_POSITION_y,COMMENT_y,MIN_y,PTS_OFF_TOV,PTS_2ND_CHANCE,PTS_FB,PTS_PAINT,OPP_PTS_OFF_TOV,OPP_PTS_2ND_CHANCE,OPP_PTS_FB,OPP_PTS_PAINT,BLK,BLKA,PF,PFD
0021501097,1610612751,BKN,Brooklyn,202711,Bojan Bogdanovic,F,,23:56,95.1,105.4,-10.3,0.0,0.0,0.0,0.0,0.067,0.031,16.7,0.45,0.45,0.229,98.99,0.021,2016-03-28T00:00:00,1,BKN,Brooklyn,21-52,27,25,23,24,0,0,0,0,0,0,0,0,0,0,99,0.532,0.778,0.273,20,36,20,0021501097,1610612751,BKN,Brooklyn,Bojan Bogdanovic,F,,23:56,2.0,0.0,4.0,4.0,10.0,3.0,10.0,30.0,0.0,2.0,0.0,0.0
0021501097,1610612751,BKN,Brooklyn,201152,Thaddeus Young,F,,30:55,101.0,106.0,-5.0,0.176,3.0,18.8,0.053,0.381,0.225,6.3,0.833,0.833,0.196,96.04,0.247,2016-03-28T00:00:00,1,BKN,Brooklyn,21-52,27,25,23,24,0,0,0,0,0,0,0,0,0,0,99,0.532,0.778,0.273,20,36,20,0021501097,1610612751,BKN,Brooklyn,Thaddeus Young,F,,30:55,4.0,0.0,0.0,16.0,15.0,7.0,10.0,40.0,1.0,0.0,1.0,1.0
0021501097,1610612751,BKN,Brooklyn,201572,Brook Lopez,C,,34:46,102.5,105.7,-3.2,0.0,0.0,0.0,0.125,0.038,0.08,16.1,0.6,0.623,0.33,94.2,0.119,2016-03-28T00:00:00,1,BKN,Brooklyn,21-52,27,25,23,24,0,0,0,0,0,0,0,0,0,0,99,0.532,0.778,0.273,20,36,20,0021501097,1610612751,BKN,Brooklyn,Brook Lopez,C,,34:46,0.0,6.0,0.0,20.0,15.0,10.0,10.0,42.0,1.0,0.0,1.0,4.0
0021501097,1610612751,BKN,Brooklyn,203508,Sergey Karasev,G,,18:17,101.3,96.6,4.7,0.133,2.0,34.0,0.0,0.167,0.091,17.0,0.5,0.521,0.101,99.55,0.041,2016-03-28T00:00:00,1,BKN,Brooklyn,21-52,27,25,23,24,0,0,0,0,0,0,0,0,0,0,99,0.532,0.778,0.273,20,36,20,0021501097,1610612751,BKN,Brooklyn,Sergey Karasev,G,,18:17,0.0,0.0,0.0,0.0,8.0,3.0,4.0,22.0,0.0,0.0,1.0,1.0
0021501097,1610612751,BKN,Brooklyn,203499,Shane Larkin,G,,29:09,104.4,112.7,-8.4,0.32,2.0,40.7,0.0,0.167,0.083,20.4,0.2,0.458,0.187,98.57,0.091,2016-03-28T00:00:00,1,BKN,Brooklyn,21-52,27,25,23,24,0,0,0,0,0,0,0,0,0,0,99,0.532,0.778,0.273,20,36,20,0021501097,1610612751,BKN,Brooklyn,Shane Larkin,G,,29:09,4.0,0.0,2.0,0.0,13.0,5.0,10.0,40.0,0.0,2.0,0.0,3.0
0021501097,1610612751,BKN,Brooklyn,203930,Sean Kilpatrick,,,21:28,117.3,141.2,-23.9,0.0,0.0,0.0,0.063,0.154,0.103,13.6,0.455,0.549,0.31,93.6,0.068,2016-03-28T00:00:00,1,BKN,Brooklyn,21-52,27,25,23,24,0,0,0,0,0,0,0,0,0,0,99,0.532,0.778,0.273,20,36,20,0021501097,1610612751,BKN,Brooklyn,Sean Kilpatrick,,,21:28,0.0,4.0,0.0,6.0,9.0,5.0,6.0,38.0,0.0,0.0,1.0,2.0
0021501097,1610612751,BKN,Brooklyn,1626178,Rondae Hollis-Jefferson,,,20:14,103.7,103.5,0.2,0.188,3.0,51.0,0.0,0.167,0.086,17.0,0.0,0.532,0.068,89.29,0.062,2016-03-28T00:00:00,1,BKN,Brooklyn,21-52,27,25,23,24,0,0,0,0,0,0,0,0,0,0,99,0.532,0.778,0.273,20,36,20,0021501097,1610612751,BKN,Brooklyn,Rondae Hollis-Jefferson,,,20:14,0.0,0.0,0.0,0.0,9.0,9.0,2.0,28.0,0.0,0.0,3.0,2.0
0021501097,1610612751,BKN,Brooklyn,1626191,Chris McCullough,,,17:05,110.7,132.5,-21.8,0.0,0.0,0.0,0.063,0.167,0.107,25.0,0.417,0.417,0.208,93.4,0.034,2016-03-28T00:00:00,1,BKN,Brooklyn,21-52,27,25,23,24,0,0,0,0,0,0,0,0,0,0,99,0.532,0.778,0.273,20,36,20,0021501097,1610612751,BKN,Brooklyn,Chris McCullough,,,17:05,5.0,0.0,0.0,0.0,8.0,5.0,2.0,32.0,0.0,0.0,0.0,0.0
0021501097,1610612751,BKN,Brooklyn,202388,Donald Sloan,,,18:51,104.2,120.1,-16.0,0.214,3.0,38.1,0.0,0.067,0.031,12.7,0.333,0.258,0.115,89.74,0.015,2016-03-28T00:00:00,1,BKN,Brooklyn,21-52,27,25,23,24,0,0,0,0,0,0,0,0,0,0,99,0.532,0.778,0.273,20,36,20,0021501097,1610612751,BKN,Brooklyn,Donald Sloan,,,18:51,0.0,0.0,0.0,2.0,10.0,7.0,2.0,32.0,0.0,0.0,0.0,1.0
0021501097,1610612751,BKN,Brooklyn,203156,Henry Sims,,,13:14,109.2,138.9,-29.7,0.111,1.0,20.0,0.273,0.429,0.333,20.0,0.667,0.667,0.135,97.46,0.085,2016-03-28T00:00:00,1,BKN,Brooklyn,21-52,27,25,23,24,0,0,0,0,0,0,0,0,0,0,99,0.532,0.778,0.273,20,36,20,0021501097,1610612751,BKN,Brooklyn,Henry Sims,,,13:14,0.0,0.0,0.0,4.0,8.0,2.0,2.0,30.0,0.0,0.0,2.0,0.0
0021501097,1610612751,BKN,Brooklyn,203900,Markel Brown,,,12:05,105.8,142.2,-36.5,0.0,0.0,0.0,0.1,0.0,0.056,20.0,0.875,0.875,0.175,93.03,0.083,2016-03-28T00:00:00,1,BKN,Brooklyn,21-52,27,25,23,24,0,0,0,0,0,0,0,0,0,0,99,0.532,0.778,0.273,20,36,20,0021501097,1610612751,BKN,Brooklyn,Markel Brown,,,12:05,0.0,0.0,0.0,2.0,10.0,4.0,2.0,26.0,0.0,0.0,1.0,0.0
0021501097,1610612751,BKN,Brooklyn,201961,Wayne Ellington,,DNP - Coach's Decision                  ,,,,,,,0.0,,,,,,,0.0,,,2016-03-28T00:00:00,1,BKN,Brooklyn,21-52,27,25,23,24,0,0,0,0,0,0,0,0,0,0,99,0.532,0.778,0.273,20,36,20,0021501097,1610612751,BKN,Brooklyn,Wayne Ellington,,DNP - Coach's Decision                  ,,,,,,,,,,,,,
0021501097,1610612751,BKN,Brooklyn,203080,Thomas Robinson,,DNP - Coach's Decision                  ,,,,,,,0.0,,,,,,,0.0,,,2016-03-28T00:00:00,1,BKN,Brooklyn,21-52,27,25,23,24,0,0,0,0,0,0,0,0,0,0,99,0.532,0.778,0.273,20,36,20,0021501097,1610612751,BKN,Brooklyn,Thomas Robinson,,DNP - Coach's Decision                  ,,,,,,,,,,,,,
0021501097,1610612748,MIA,Miami,2207,Joe Johnson,F,,34:55,107.3,110.1,-2.8,0.219,1.75,36.8,0.0,0.148,0.074,21.1,0.125,0.125,0.158,94.85,0.0,2016-03-28T00:00:00,1,MIA,Miami,43-30,27,30,25,28,0,0,0,0,0,0,0,0,0,0,110,0.571,0.75,0.313,25,32,12,0021501097,1610612748,MIA,Miami,Joe Johnson,F,,34:55,0.0,0.0,0.0,2.0,11.0,10.0,6.0,40.0,0.0,1.0,2.0,1.0
0021501097,1610612748,MIA,Miami,2736,Luol Deng,F,,30:52,113.9,105.8,8.2,0.036,1.0,7.7,0.048,0.19,0.119,7.7,0.409,0.409,0.179,97.64,0.061,2016-03-28T00:00:00,1,MIA,Miami,43-30,27,30,25,28,0,0,0,0,0,0,0,0,0,0,110,0.571,0.75,0.313,25,32,12,0021501097,1610612748,MIA,Miami,Luol Deng,F,,30:52,0.0,0.0,0.0,6.0,10.0,8.0,6.0,40.0,0.0,0.0,0.0,0.0
0021501097,1610612748,MIA,Miami,2405,Amar'e Stoudemire,C,,16:58,93.0,104.3,-11.3,0.0,0.0,0.0,0.091,0.182,0.136,20.5,1.0,0.902,0.142,95.96,0.168,2016-03-28T00:00:00,1,MIA,Miami,43-30,27,30,25,28,0,0,0,0,0,0,0,0,0,0,110,0.571,0.75,0.313,25,32,12,0021501097,1610612748,MIA,Miami,Amar'e Stoudemire,C,,16:58,2.0,0.0,0.0,4.0,8.0,4.0,6.0,20.0,0.0,0.0,0.0,2.0
0021501097,1610612748,MIA,Miami,2548,Dwyane Wade,G,,31:32,119.1,102.6,16.5,0.45,2.25,27.4,0.0,0.1,0.054,12.2,0.737,0.755,0.364,99.64,0.221,2016-03-28T00:00:00,1,MIA,Miami,43-30,27,30,25,28,0,0,0,0,0,0,0,0,0,0,110,0.571,0.75,0.313,25,32,12,0021501097,1610612748,MIA,Miami,Dwyane Wade,G,,31:32,8.0,3.0,6.0,22.0,10.0,8.0,6.0,38.0,2.0,0.0,3.0,2.0
0021501097,1610612748,MIA,Miami,1626196,Josh Richardson,G,,38:14,116.3,98.5,17.8,0.091,3.0,21.6,0.038,0.143,0.093,7.2,0.833,0.81,0.133,96.47,0.122,2016-03-28T00:00:00,1,MIA,Miami,43-30,27,30,25,28,0,0,0,0,0,0,0,0,0,0,110,0.571,0.75,0.313,25,32,12,0021501097,1610612748,MIA,Miami,Josh Richardson,G,,38:14,0.0,3.0,0.0,2.0,12.0,6.0,6.0,44.0,1.0,0.0,2.0,1.0
0021501097,1610612748,MIA,Miami,1626159,Justise Winslow,,,31:40,121.6,101.0,20.6,0.0,0.0,0.0,0.0,0.115,0.061,0.0,0.55,0.597,0.163,91.13,0.082,2016-03-28T00:00:00,1,MIA,Miami,43-30,27,30,25,28,0,0,0,0,0,0,0,0,0,0,110,0.571,0.75,0.313,25,32,12,0021501097,1610612748,MIA,Miami,Justise Winslow,,,31:40,5.0,0.0,6.0,8.0,9.0,6.0,0.0,34.0,0.0,0.0,1.0,1.0
0021501097,1610612748,MIA,Miami,202355,Hassan Whiteside,,,31:02,127.5,104.3,23.2,0.045,1.0,5.1,0.136,0.208,0.174,5.1,0.75,0.76,0.276,94.63,0.19,2016-03-28T00:00:00,1,MIA,Miami,43-30,27,30,25,28,0,0,0,0,0,0,0,0,0,0,110,0.571,0.75,0.313,25,32,12,0021501097,1610612748,MIA,Miami,Hassan Whiteside,,,31:02,8.0,4.0,0.0,22.0,7.0,6.0,0.0,34.0,1.0,0.0,4.0,3.0
0021501097,1610612748,MIA,Miami,101123,Gerald Green,,,7:39,107.5,132.0,-24.5,0.0,0.0,0.0,0.167,0.0,0.1,0.0,0.333,0.333,0.178,87.09,0.015,2016-03-28T00:00:00,1,MIA,Miami,43-30,27,30,25,28,0,0,0,0,0,0,0,0,0,0,110,0.571,0.75,0.313,25,32,12,0021501097,1610612748,MIA,Miami,Gerald Green,,,7:39,0.0,2.0,0.0,2.0,3.0,0.0,0.0,6.0,0.0,1.0,0.0,0.0
0021501097,1610612748,MIA,Miami,201177,Josh McRoberts,,,17:08,118.5,101.5,17.0,0.286,0.0,44.4,0.0,0.071,0.038,0.0,0.4,0.4,0.143,90.52,0.083,2016-03-28T00:00:00,1,MIA,Miami,43-30,27,30,25,28,0,0,0,0,0,0,0,0,0,0,110,0.571,0.75,0.313,25,32,12,0021501097,1610612748,MIA,Miami,Josh McRoberts,,,17:08,0.0,0.0,0.0,4.0,5.0,2.0,0.0,14.0,0.0,0.0,2.0,0.0
0021501097,1610612748,MIA,Miami,201609,Goran Dragic,,NWT - Cold                              ,,,,,,,0.0,,,,,,,0.0,,,2016-03-28T00:00:00,1,MIA,Miami,43-30,27,30,25,28,0,0,0,0,0,0,0,0,0,0,110,0.571,0.75,0.313,25,32,12,0021501097,1610612748,MIA,Miami,Goran Dragic,,NWT - Cold                              ,,,,,,,,,,,,,
0021501097,1610612748,MIA,Miami,2617,Udonis Haslem,,DNP - Coach's Decision                  ,,,,,,,0.0,,,,,,,0.0,,,2016-03-28T00:00:00,1,MIA,Miami,43-30,27,30,25,28,0,0,0,0,0,0,0,0,0,0,110,0.571,0.75,0.313,25,32,12,0021501097,1610612748,MIA,Miami,Udonis Haslem,,DNP - Coach's Decision                  ,,,,,,,,,,,,,
0021501097,1610612748,MIA,Miami,204020,Tyler Johnson,,DND - Left Shoulder Surgery             ,,,,,,,0.0,,,,,,,0.0,,,2016-03-28T00:00:00,1,MIA,Miami,43-30,27,30,25,28,0,0,0,0,0,0,0,0,0,0,110,0.571,0.75,0.313,25,32,12,0021501097,1610612748,MIA,Miami,Tyler Johnson,,DND - Left Shoulder Surgery             ,,,,,,,,,,,,,
