GAME_ID_x,TEAM_ID_x,TEAM_ABBREVIATION_x,TEAM_CITY_x,PLAYER_ID,PLAYER_NAME_x,START_POSITION_x,COMMENT_x,MIN_x,OFF_RATING,DEF_RATING,NET_RATING,AST_PCT,AST_TOV,AST_RATIO,OREB_PCT,DREB_PCT,REB_PCT,TM_TOV_PCT,EFG_PCT,TS_PCT,USG_PCT,PACE,PIE,GAME_DATE_EST,GAME_SEQUENCE,TEAM_ABBREVIATION_y,TEAM_CITY_NAME,TEAM_WINS_LOSSES,PTS_QTR1,PTS_QTR2,PTS_QTR3,PTS_QTR4,PTS_OT1,PTS_OT2,PTS_OT3,PTS_OT4,PTS_OT5,PTS_OT6,PTS_OT7,PTS_OT8,PTS_OT9,PTS_OT10,PTS,FG_PCT,FT_PCT,FG3_PCT,AST,REB,TOV,GAME_ID_y,TEAM_ID_y,TEAM_ABBREVIATION,TEAM_CITY_y,PLAYER_NAME_y,START_POSITION_y,COMMENT_y,MIN_y,PTS_OFF_TOV,PTS_2ND_CHANCE,PTS_FB,PTS_PAINT,OPP_PTS_OFF_TOV,OPP_PTS_2ND_CHANCE,OPP_PTS_FB,OPP_PTS_PAINT,BLK,BLKA,PF,PFD
0021501103,1610612742,DAL,Dallas,1626147,Justin Anderson,F,,23:55,101.0,94.5,6.5,0.167,0.0,20.0,0.071,0.133,0.093,0.0,0.688,0.688,0.152,97.61,0.183,2016-03-28T00:00:00,7,DAL,Dallas,36-38,28,22,22,25,0,0,0,0,0,0,0,0,0,0,97,0.409,0.933,0.344,23,34,3,0021501103,1610612742,DAL,Dallas,Justin Anderson,F,,23:55,7.0,4.0,4.0,8.0,2.0,11.0,14.0,20.0,2.0,0.0,1.0,0.0
0021501103,1610612742,DAL,Dallas,1717,Dirk Nowitzki,F,,33:00,106.2,94.6,11.6,0.0,0.0,0.0,0.029,0.136,0.071,0.0,0.235,0.28,0.262,92.08,0.019,2016-03-28T00:00:00,7,DAL,Dallas,36-38,28,22,22,25,0,0,0,0,0,0,0,0,0,0,97,0.409,0.933,0.344,23,34,3,0021501103,1610612742,DAL,Dallas,Dirk Nowitzki,F,,33:00,0.0,0.0,0.0,4.0,2.0,11.0,16.0,24.0,1.0,0.0,3.0,5.0
0021501103,1610612742,DAL,Dallas,203939,Dwight Powell,C,,29:51,107.1,100.5,6.6,0.0,0.0,0.0,0.071,0.25,0.146,0.0,0.615,0.615,0.216,92.32,0.14,2016-03-28T00:00:00,7,DAL,Dallas,36-38,28,22,22,25,0,0,0,0,0,0,0,0,0,0,97,0.409,0.933,0.344,23,34,3,0021501103,1610612742,DAL,Dallas,Dwight Powell,C,,29:51,4.0,4.0,0.0,12.0,4.0,8.0,8.0,22.0,1.0,0.0,4.0,2.0
0021501103,1610612742,DAL,Dallas,202083,Wesley Matthews,G,,34:09,104.7,93.7,11.0,0.095,2.0,11.8,0.0,0.125,0.053,5.9,0.5,0.5,0.224,90.12,0.072,2016-03-28T00:00:00,7,DAL,Dallas,36-38,28,22,22,25,0,0,0,0,0,0,0,0,0,0,97,0.409,0.933,0.344,23,34,3,0021501103,1610612742,DAL,Dallas,Wesley Matthews,G,,34:09,0.0,3.0,0.0,2.0,2.0,8.0,8.0,24.0,1.0,0.0,2.0,1.0
0021501103,1610612742,DAL,Dallas,101109,Raymond Felton,G,,31:32,85.0,91.8,-6.8,0.313,5.0,31.7,0.057,0.143,0.089,6.3,0.438,0.564,0.172,91.94,0.123,2016-03-28T00:00:00,7,DAL,Dallas,36-38,28,22,22,25,0,0,0,0,0,0,0,0,0,0,97,0.409,0.933,0.344,23,34,3,0021501103,1610612742,DAL,Dallas,Raymond Felton,G,,31:32,2.0,0.0,0.0,4.0,4.0,10.0,8.0,20.0,0.0,1.0,4.0,4.0
0021501103,1610612742,DAL,Dallas,2734,Devin Harris,,,28:35,119.3,90.4,28.9,0.15,0.0,20.3,0.04,0.105,0.068,0.0,0.4,0.51,0.206,88.18,0.14,2016-03-28T00:00:00,7,DAL,Dallas,36-38,28,22,22,25,0,0,0,0,0,0,0,0,0,0,97,0.409,0.933,0.344,23,34,3,0021501103,1610612742,DAL,Dallas,Devin Harris,,,28:35,5.0,2.0,0.0,0.0,0.0,3.0,12.0,18.0,1.0,0.0,0.0,2.0
0021501103,1610612742,DAL,Dallas,2585,Zaza Pachulia,,,28:40,118.3,91.7,26.6,0.0,0.0,0.0,0.036,0.25,0.114,0.0,0.2,0.396,0.102,91.66,0.015,2016-03-28T00:00:00,7,DAL,Dallas,36-38,28,22,22,25,0,0,0,0,0,0,0,0,0,0,97,0.409,0.933,0.344,23,34,3,0021501103,1610612742,DAL,Dallas,Zaza Pachulia,,,28:40,2.0,0.0,0.0,2.0,2.0,5.0,12.0,20.0,0.0,2.0,4.0,2.0
0021501103,1610612742,DAL,Dallas,200826,J.J. Barea,,,26:26,132.4,100.1,32.3,0.688,11.0,42.5,0.0,0.067,0.029,3.9,0.654,0.648,0.258,90.39,0.221,2016-03-28T00:00:00,7,DAL,Dallas,36-38,28,22,22,25,0,0,0,0,0,0,0,0,0,0,97,0.409,0.933,0.344,23,34,3,0021501103,1610612742,DAL,Dallas,J.J. Barea,,,26:26,9.0,2.0,2.0,6.0,4.0,7.0,12.0,20.0,0.0,1.0,2.0,4.0
0021501103,1610612742,DAL,Dallas,101135,David Lee,,,3:52,66.7,71.4,-4.8,0.0,0.0,0.0,0.0,0.667,0.286,0.0,0.0,0.0,0.0,80.69,0.308,2016-03-28T00:00:00,7,DAL,Dallas,36-38,28,22,22,25,0,0,0,0,0,0,0,0,0,0,97,0.409,0.933,0.344,23,34,3,0021501103,1610612742,DAL,Dallas,David Lee,,,3:52,0.0,0.0,0.0,0.0,0.0,2.0,0.0,2.0,0.0,0.0,0.0,0.0
0021501103,1610612742,DAL,Dallas,201580,JaVale McGee,,DNP - Coach's Decision                  ,,,,,,,0.0,,,,,,,0.0,,,2016-03-28T00:00:00,7,DAL,Dallas,36-38,28,22,22,25,0,0,0,0,0,0,0,0,0,0,97,0.409,0.933,0.344,23,34,3,0021501103,1610612742,DAL,Dallas,JaVale McGee,,DNP - Coach's Decision                  ,,,,,,,,,,,,,
0021501103,1610612742,DAL,Dallas,1626257,Salah Mejri,,DNP - Coach's Decision                  ,,,,,,,0.0,,,,,,,0.0,,,2016-03-28T00:00:00,7,DAL,Dallas,36-38,28,22,22,25,0,0,0,0,0,0,0,0,0,0,97,0.409,0.933,0.344,23,34,3,0021501103,1610612742,DAL,Dallas,Salah Mejri,,DNP - Coach's Decision                  ,,,,,,,,,,,,,
0021501103,1610612742,DAL,Dallas,101111,Charlie Villanueva,,DNP - Coach's Decision                  ,,,,,,,0.0,,,,,,,0.0,,,2016-03-28T00:00:00,7,DAL,Dallas,36-38,28,22,22,25,0,0,0,0,0,0,0,0,0,0,97,0.409,0.933,0.344,23,34,3,0021501103,1610612742,DAL,Dallas,Charlie Villanueva,,DNP - Coach's Decision                  ,,,,,,,,,,,,,
0021501103,1610612742,DAL,Dallas,101114,Deron Williams,,NWT - Left Abdominal Strain             ,,,,,,,0.0,,,,,,,0.0,,,2016-03-28T00:00:00,7,DAL,Dallas,36-38,28,22,22,25,0,0,0,0,0,0,0,0,0,0,97,0.409,0.933,0.344,23,34,3,0021501103,1610612742,DAL,Dallas,Deron Williams,,NWT - Left Abdominal Strain             ,,,,,,,,,,,,,
0021501103,1610612743,DEN,Denver,203960,JaKarr Sampson,F,,17:49,87.6,83.7,3.9,0.182,2.0,28.6,0.0,0.13,0.083,14.3,0.25,0.25,0.13,95.86,0.048,2016-03-28T00:00:00,7,DEN,Denver,31-44,24,22,20,22,0,0,0,0,0,0,0,0,0,0,88,0.443,0.895,0.375,20,44,21,0021501103,1610612743,DEN,Denver,JaKarr Sampson,F,,17:49,0.0,0.0,0.0,2.0,8.0,5.0,4.0,10.0,1.0,1.0,1.0,0.0
0021501103,1610612743,DEN,Denver,202702,Kenneth Faried,F,,22:22,81.3,105.5,-24.2,0.0,0.0,0.0,0.25,0.28,0.268,31.3,0.429,0.514,0.259,93.27,0.109,2016-03-28T00:00:00,7,DEN,Denver,31-44,24,22,20,22,0,0,0,0,0,0,0,0,0,0,88,0.443,0.895,0.375,20,44,21,0021501103,1610612743,DEN,Denver,Kenneth Faried,F,,22:22,0.0,5.0,2.0,6.0,14.0,8.0,6.0,18.0,2.0,0.0,3.0,5.0
0021501103,1610612743,DEN,Denver,203999,Nikola Jokic,C,,23:55,79.3,67.4,11.9,0.182,0.67,16.7,0.0,0.286,0.174,25.0,0.143,0.143,0.195,92.48,0.061,2016-03-28T00:00:00,7,DEN,Denver,31-44,24,22,20,22,0,0,0,0,0,0,0,0,0,0,88,0.443,0.895,0.375,20,44,21,0021501103,1610612743,DEN,Denver,Nikola Jokic,C,,23:55,0.0,0.0,2.0,2.0,6.0,5.0,4.0,12.0,0.0,1.0,2.0,2.0
0021501103,1610612743,DEN,Denver,203914,Gary Harris,G,,30:03,94.7,89.7,5.0,0.071,1.0,8.7,0.0,0.0,0.0,8.7,0.667,0.689,0.168,90.89,0.09,2016-03-28T00:00:00,7,DEN,Denver,31-44,24,22,20,22,0,0,0,0,0,0,0,0,0,0,88,0.443,0.895,0.375,20,44,21,0021501103,1610612743,DEN,Denver,Gary Harris,G,,30:03,0.0,5.0,0.0,4.0,10.0,7.0,4.0,22.0,0.0,1.0,1.0,2.0
0021501103,1610612743,DEN,Denver,1626144,Emmanuel Mudiay,G,,35:27,93.8,98.6,-4.7,0.389,1.75,28.4,0.0,0.154,0.098,16.2,0.5,0.587,0.234,94.4,0.141,2016-03-28T00:00:00,7,DEN,Denver,31-44,24,22,20,22,0,0,0,0,0,0,0,0,0,0,88,0.443,0.895,0.375,20,44,21,0021501103,1610612743,DEN,Denver,Emmanuel Mudiay,G,,35:27,2.0,0.0,7.0,6.0,18.0,11.0,4.0,30.0,0.0,2.0,3.0,4.0
0021501103,1610612743,DEN,Denver,201589,Darrell Arthur,,,25:38,105.9,110.7,-4.8,0.067,0.33,9.1,0.0,0.045,0.027,27.3,0.643,0.643,0.2,89.92,0.021,2016-03-28T00:00:00,7,DEN,Denver,31-44,24,22,20,22,0,0,0,0,0,0,0,0,0,0,88,0.443,0.895,0.375,20,44,21,0021501103,1610612743,DEN,Denver,Darrell Arthur,,,25:38,0.0,0.0,2.0,4.0,15.0,7.0,0.0,20.0,0.0,0.0,3.0,1.0
0021501103,1610612743,DEN,Denver,203530,Joffrey Lauvergne,,,22:36,111.7,146.6,-35.0,0.143,2.0,20.0,0.083,0.111,0.1,10.0,0.571,0.571,0.177,89.37,0.065,2016-03-28T00:00:00,7,DEN,Denver,31-44,24,22,20,22,0,0,0,0,0,0,0,0,0,0,88,0.443,0.895,0.375,20,44,21,0021501103,1610612743,DEN,Denver,Joffrey Lauvergne,,,22:36,0.0,0.0,0.0,6.0,21.0,10.0,2.0,26.0,1.0,0.0,2.0,2.0
0021501103,1610612743,DEN,Denver,203115,Will Barton,,,31:40,98.6,124.6,-26.0,0.154,2.0,10.7,0.0,0.32,0.182,5.3,0.679,0.73,0.263,89.77,0.211,2016-03-28T00:00:00,7,DEN,Denver,31-44,24,22,20,22,0,0,0,0,0,0,0,0,0,0,88,0.443,0.895,0.375,20,44,21,0021501103,1610612743,DEN,Denver,Will Barton,,,31:40,2.0,3.0,3.0,4.0,23.0,10.0,2.0,28.0,0.0,1.0,1.0,2.0
0021501103,1610612743,DEN,Denver,201571,D.J. Augustin,,,16:35,95.9,147.4,-51.6,0.3,1.0,30.7,0.111,0.167,0.143,30.7,0.0,0.532,0.21,86.43,0.053,2016-03-28T00:00:00,7,DEN,Denver,31-44,24,22,20,22,0,0,0,0,0,0,0,0,0,0,88,0.443,0.895,0.375,20,44,21,0021501103,1610612743,DEN,Denver,D.J. Augustin,,,16:35,0.0,0.0,2.0,0.0,21.0,8.0,2.0,14.0,0.0,0.0,1.0,2.0
0021501103,1610612743,DEN,Denver,1626253,Axel Toupane,,,6:48,77.6,126.6,-48.9,0.0,0.0,0.0,0.0,0.0,0.0,0.0,1.0,1.0,0.078,90.07,0.0,2016-03-28T00:00:00,7,DEN,Denver,31-44,24,22,20,22,0,0,0,0,0,0,0,0,0,0,88,0.443,0.895,0.375,20,44,21,0021501103,1610612743,DEN,Denver,Axel Toupane,,,6:48,0.0,0.0,0.0,0.0,4.0,4.0,0.0,4.0,0.0,0.0,2.0,0.0
0021501103,1610612743,DEN,Denver,2749,Jameer Nelson,,,7:07,107.7,124.7,-17.0,0.0,0.0,0.0,0.0,0.2,0.091,0.0,0.0,0.0,0.063,92.54,-0.029,2016-03-28T00:00:00,7,DEN,Denver,31-44,24,22,20,22,0,0,0,0,0,0,0,0,0,0,88,0.443,0.895,0.375,20,44,21,0021501103,1610612743,DEN,Denver,Jameer Nelson,,,7:07,0.0,0.0,0.0,0.0,5.0,0.0,2.0,6.0,0.0,0.0,1.0,0.0
0021501103,1610612743,DEN,Denver,2034,Mike Miller,,DNP - Coach's Decision                  ,,,,,,,0.0,,,,,,,0.0,,,2016-03-28T00:00:00,7,DEN,Denver,31-44,24,22,20,22,0,0,0,0,0,0,0,0,0,0,88,0.443,0.895,0.375,20,44,21,0021501103,1610612743,DEN,Denver,Mike Miller,,DNP - Coach's Decision                  ,,,,,,,,,,,,,
