GAME_ID_x,TEAM_ID_x,TEAM_ABBREVIATION_x,TEAM_CITY_x,PLAYER_ID,PLAYER_NAME_x,START_POSITION_x,COMMENT_x,MIN_x,OFF_RATING,DEF_RATING,NET_RATING,AST_PCT,AST_TOV,AST_RATIO,OREB_PCT,DREB_PCT,REB_PCT,TM_TOV_PCT,EFG_PCT,TS_PCT,USG_PCT,PACE,PIE,GAME_DATE_EST,GAME_SEQUENCE,TEAM_ABBREVIATION_y,TEAM_CITY_NAME,TEAM_WINS_LOSSES,PTS_QTR1,PTS_QTR2,PTS_QTR3,PTS_QTR4,PTS_OT1,PTS_OT2,PTS_OT3,PTS_OT4,PTS_OT5,PTS_OT6,PTS_OT7,PTS_OT8,PTS_OT9,PTS_OT10,PTS,FG_PCT,FT_PCT,FG3_PCT,AST,REB,TOV,GAME_ID_y,TEAM_ID_y,TEAM_ABBREVIATION,TEAM_CITY_y,PLAYER_NAME_y,START_POSITION_y,COMMENT_y,MIN_y,PTS_OFF_TOV,PTS_2ND_CHANCE,PTS_FB,PTS_PAINT,OPP_PTS_OFF_TOV,OPP_PTS_2ND_CHANCE,OPP_PTS_FB,OPP_PTS_PAINT,BLK,BLKA,PF,PFD
0021501109,1610612766,CHA,Charlotte,201587,Nicolas Batum,F,,37:35,104.2,82.7,21.5,0.5,4.0,37.6,0.063,0.18,0.134,9.4,0.531,0.563,0.235,99.7,0.201,2016-03-29T00:00:00,3,CHA,Charlotte,43-31,23,29,25,23,0,0,0,0,0,0,0,0,0,0,100,0.437,0.944,0.28,26,64,15,0021501109,1610612766,CHA,Charlotte,Nicolas Batum,F,,37:35,4.0,6.0,0.0,8.0,9.0,13.0,5.0,14.0,0.0,1.0,2.0,3.0
0021501109,1610612766,CHA,Charlotte,101107,Marvin Williams,F,,30:54,106.4,74.4,32.0,0.087,0.0,15.5,0.156,0.089,0.117,0.0,0.3,0.368,0.148,101.93,0.083,2016-03-29T00:00:00,3,CHA,Charlotte,43-31,23,29,25,23,0,0,0,0,0,0,0,0,0,0,100,0.437,0.944,0.28,26,64,15,0021501109,1610612766,CHA,Charlotte,Marvin Williams,F,,30:54,0.0,6.0,2.0,6.0,4.0,11.0,4.0,10.0,0.0,1.0,0.0,3.0
0021501109,1610612766,CHA,Charlotte,203469,Cody Zeller,C,,25:42,104.9,90.2,14.7,0.0,0.0,0.0,0.0,0.333,0.204,17.0,0.875,0.922,0.205,101.3,0.235,2016-03-29T00:00:00,3,CHA,Charlotte,43-31,23,29,25,23,0,0,0,0,0,0,0,0,0,0,100,0.437,0.944,0.28,26,64,15,0021501109,1610612766,CHA,Charlotte,Cody Zeller,C,,25:42,2.0,2.0,2.0,12.0,8.0,8.0,4.0,10.0,2.0,0.0,2.0,3.0
0021501109,1610612766,CHA,Charlotte,201584,Courtney Lee,G,,36:57,99.3,85.5,13.7,0.13,1.0,18.2,0.0,0.122,0.069,18.2,0.7,0.718,0.153,104.0,0.128,2016-03-29T00:00:00,3,CHA,Charlotte,43-31,23,29,25,23,0,0,0,0,0,0,0,0,0,0,100,0.437,0.944,0.28,26,64,15,0021501109,1610612766,CHA,Charlotte,Courtney Lee,G,,36:57,5.0,0.0,3.0,6.0,12.0,13.0,4.0,20.0,1.0,0.0,1.0,1.0
0021501109,1610612766,CHA,Charlotte,202689,Kemba Walker,G,,35:41,100.5,83.4,17.1,0.087,1.0,8.4,0.0,0.104,0.059,8.4,0.368,0.402,0.259,102.99,0.066,2016-03-29T00:00:00,3,CHA,Charlotte,43-31,23,29,25,23,0,0,0,0,0,0,0,0,0,0,100,0.437,0.944,0.28,26,64,15,0021501109,1610612766,CHA,Charlotte,Kemba Walker,G,,35:41,2.0,3.0,2.0,2.0,12.0,13.0,4.0,18.0,0.0,2.0,0.0,2.0
0021501109,1610612766,CHA,Charlotte,2744,Al Jefferson,,,21:02,91.7,72.4,19.3,0.0,0.0,0.0,0.043,0.267,0.17,9.6,0.333,0.371,0.206,100.23,0.14,2016-03-29T00:00:00,3,CHA,Charlotte,43-31,23,29,25,23,0,0,0,0,0,0,0,0,0,0,100,0.437,0.944,0.28,26,64,15,0021501109,1610612766,CHA,Charlotte,Al Jefferson,,,21:02,2.0,0.0,0.0,4.0,5.0,7.0,1.0,10.0,2.0,0.0,1.0,1.0
0021501109,1610612766,CHA,Charlotte,203087,Jeremy Lamb,,,20:12,86.7,78.8,7.9,0.333,2.0,27.1,0.0,0.25,0.149,13.6,0.286,0.4,0.231,99.09,0.139,2016-03-29T00:00:00,3,CHA,Charlotte,43-31,23,29,25,23,0,0,0,0,0,0,0,0,0,0,100,0.437,0.944,0.28,26,64,15,0021501109,1610612766,CHA,Charlotte,Jeremy Lamb,,,20:12,2.0,0.0,2.0,4.0,5.0,4.0,1.0,8.0,1.0,0.0,1.0,2.0
0021501109,1610612766,CHA,Charlotte,1626163,Frank Kaminsky,,,17:06,82.4,100.3,-17.9,0.0,0.0,0.0,0.077,0.158,0.125,0.0,0.4,0.51,0.158,101.16,0.096,2016-03-29T00:00:00,3,CHA,Charlotte,43-31,23,29,25,23,0,0,0,0,0,0,0,0,0,0,100,0.437,0.944,0.28,26,64,15,0021501109,1610612766,CHA,Charlotte,Frank Kaminsky,,,17:06,0.0,2.0,0.0,4.0,9.0,4.0,1.0,12.0,0.0,1.0,0.0,2.0
0021501109,1610612766,CHA,Charlotte,203268,Jorge Gutierrez,,,12:19,90.5,85.0,5.5,0.333,1.5,50.0,0.0,0.063,0.042,33.3,1.0,1.0,0.114,97.82,0.086,2016-03-29T00:00:00,3,CHA,Charlotte,43-31,23,29,25,23,0,0,0,0,0,0,0,0,0,0,100,0.437,0.944,0.28,26,64,15,0021501109,1610612766,CHA,Charlotte,Jorge Gutierrez,,,12:19,0.0,0.0,0.0,2.0,1.0,2.0,1.0,4.0,0.0,0.0,0.0,1.0
0021501109,1610612766,CHA,Charlotte,203584,Troy Daniels,,,1:16,66.7,125.0,-58.3,0.0,0.0,0.0,0.0,0.0,0.0,0.0,1.0,1.0,0.333,132.63,0.25,2016-03-29T00:00:00,3,CHA,Charlotte,43-31,23,29,25,23,0,0,0,0,0,0,0,0,0,0,100,0.437,0.944,0.28,26,64,15,0021501109,1610612766,CHA,Charlotte,Troy Daniels,,,1:16,0.0,0.0,0.0,0.0,0.0,0.0,0.0,2.0,0.0,0.0,0.0,0.0
0021501109,1610612766,CHA,Charlotte,201946,Tyler Hansbrough,,,1:16,66.7,125.0,-58.3,0.0,0.0,0.0,0.0,1.0,0.5,0.0,0.0,0.0,0.333,132.63,0.0,2016-03-29T00:00:00,3,CHA,Charlotte,43-31,23,29,25,23,0,0,0,0,0,0,0,0,0,0,100,0.437,0.944,0.28,26,64,15,0021501109,1610612766,CHA,Charlotte,Tyler Hansbrough,,,1:16,0.0,0.0,0.0,0.0,0.0,0.0,0.0,2.0,0.0,0.0,0.0,0.0
0021501109,1610612766,CHA,Charlotte,201150,Spencer Hawes,,DNP - Coach's Decision                  ,,,,,,,0.0,,,,,,,0.0,,,2016-03-29T00:00:00,3,CHA,Charlotte,43-31,23,29,25,23,0,0,0,0,0,0,0,0,0,0,100,0.437,0.944,0.28,26,64,15,0021501109,1610612766,CHA,Charlotte,Spencer Hawes,,DNP - Coach's Decision                  ,,,,,,,,,,,,,
0021501109,1610612766,CHA,Charlotte,202391,Jeremy Lin,,DNP - Coach's Decision                  ,,,,,,,0.0,,,,,,,0.0,,,2016-03-29T00:00:00,3,CHA,Charlotte,43-31,23,29,25,23,0,0,0,0,0,0,0,0,0,0,100,0.437,0.944,0.28,26,64,15,0021501109,1610612766,CHA,Charlotte,Jeremy Lin,,DNP - Coach's Decision                  ,,,,,,,,,,,,,
0021501109,1610612755,PHI,Philadelphia,203138,Hollis Thompson,F,,29:21,89.4,100.8,-11.4,0.188,1.5,17.8,0.073,0.259,0.147,11.8,0.273,0.337,0.203,102.21,0.061,2016-03-29T00:00:00,3,PHI,Philadelphia,9-66,19,17,26,23,0,0,0,0,0,0,0,0,0,0,85,0.313,0.9,0.364,20,45,10,0021501109,1610612755,PHI,Philadelphia,Hollis Thompson,F,,29:21,2.0,3.0,2.0,0.0,11.0,8.0,7.0,28.0,1.0,0.0,3.0,1.0
0021501109,1610612755,PHI,Philadelphia,203496,Robert Covington,F,,30:09,95.9,106.8,-11.0,0.133,0.0,11.1,0.026,0.24,0.111,0.0,0.563,0.563,0.23,100.59,0.109,2016-03-29T00:00:00,3,PHI,Philadelphia,9-66,19,17,26,23,0,0,0,0,0,0,0,0,0,0,85,0.313,0.9,0.364,20,45,10,0021501109,1610612755,PHI,Philadelphia,Robert Covington,F,,30:09,0.0,0.0,0.0,0.0,6.0,8.0,4.0,30.0,0.0,0.0,5.0,0.0
0021501109,1610612755,PHI,Philadelphia,201171,Carl Landry,C,,22:08,90.3,128.1,-37.8,0.273,3.0,23.3,0.04,0.118,0.071,7.8,0.375,0.45,0.209,97.16,0.075,2016-03-29T00:00:00,3,PHI,Philadelphia,9-66,19,17,26,23,0,0,0,0,0,0,0,0,0,0,85,0.313,0.9,0.364,20,45,10,0021501109,1610612755,PHI,Philadelphia,Carl Landry,C,,22:08,2.0,2.0,0.0,6.0,8.0,10.0,4.0,22.0,0.0,1.0,0.0,1.0
0021501109,1610612755,PHI,Philadelphia,203477,Isaiah Canaan,G,,27:14,79.7,115.5,-35.8,0.083,1.0,8.0,0.0,0.125,0.051,8.0,0.45,0.479,0.19,98.24,0.038,2016-03-29T00:00:00,3,PHI,Philadelphia,9-66,19,17,26,23,0,0,0,0,0,0,0,0,0,0,85,0.313,0.9,0.364,20,45,10,0021501109,1610612755,PHI,Philadelphia,Isaiah Canaan,G,,27:14,0.0,0.0,0.0,0.0,10.0,17.0,6.0,32.0,0.0,0.0,3.0,1.0
0021501109,1610612755,PHI,Philadelphia,202397,Ish Smith,G,,40:42,85.4,102.2,-16.9,0.316,2.0,23.1,0.0,0.079,0.032,11.5,0.441,0.441,0.214,102.34,0.065,2016-03-29T00:00:00,3,PHI,Philadelphia,9-66,19,17,26,23,0,0,0,0,0,0,0,0,0,0,85,0.313,0.9,0.364,20,45,10,0021501109,1610612755,PHI,Philadelphia,Ish Smith,G,,40:42,2.0,3.0,0.0,4.0,15.0,15.0,11.0,42.0,3.0,0.0,1.0,0.0
0021501109,1610612755,PHI,Philadelphia,203917,Nik Stauskas,,,32:31,71.3,86.5,-15.2,0.071,0.5,6.3,0.021,0.059,0.037,12.7,0.455,0.509,0.194,103.77,0.043,2016-03-29T00:00:00,3,PHI,Philadelphia,9-66,19,17,26,23,0,0,0,0,0,0,0,0,0,0,85,0.313,0.9,0.364,20,45,10,0021501109,1610612755,PHI,Philadelphia,Nik Stauskas,,,32:31,3.0,0.0,3.0,4.0,13.0,15.0,9.0,30.0,0.0,2.0,2.0,2.0
0021501109,1610612755,PHI,Philadelphia,204456,T.J. McConnell,,,20:12,82.3,79.5,2.8,0.154,0.0,22.2,0.0,0.182,0.083,0.0,0.143,0.143,0.15,102.8,0.028,2016-03-29T00:00:00,3,PHI,Philadelphia,9-66,19,17,26,23,0,0,0,0,0,0,0,0,0,0,85,0.313,0.9,0.364,20,45,10,0021501109,1610612755,PHI,Philadelphia,T.J. McConnell,,,20:12,0.0,2.0,0.0,2.0,9.0,9.0,7.0,20.0,0.0,0.0,1.0,0.0
0021501109,1610612755,PHI,Philadelphia,1882,Elton Brand,,,19:00,85.2,73.6,11.6,0.0,0.0,0.0,0.111,0.273,0.184,0.0,0.3,0.335,0.232,103.38,0.104,2016-03-29T00:00:00,3,PHI,Philadelphia,9-66,19,17,26,23,0,0,0,0,0,0,0,0,0,0,85,0.313,0.9,0.364,20,45,10,0021501109,1610612755,PHI,Philadelphia,Elton Brand,,,19:00,4.0,5.0,0.0,4.0,7.0,5.0,7.0,18.0,0.0,2.0,2.0,1.0
0021501109,1610612755,PHI,Philadelphia,203088,Kendall Marshall,,,11:51,81.1,79.6,1.6,0.25,2.0,40.0,0.0,0.2,0.087,20.0,0.5,0.5,0.112,100.78,0.11,2016-03-29T00:00:00,3,PHI,Philadelphia,9-66,19,17,26,23,0,0,0,0,0,0,0,0,0,0,85,0.313,0.9,0.364,20,45,10,0021501109,1610612755,PHI,Philadelphia,Kendall Marshall,,,11:51,0.0,0.0,0.0,0.0,4.0,4.0,0.0,10.0,1.0,0.0,1.0,1.0
0021501109,1610612755,PHI,Philadelphia,1626174,Christian Wood,,,6:52,62.5,75.6,-13.1,0.0,0.0,0.0,0.0,0.167,0.056,0.0,0.25,0.25,0.222,111.43,0.0,2016-03-29T00:00:00,3,PHI,Philadelphia,9-66,19,17,26,23,0,0,0,0,0,0,0,0,0,0,85,0.313,0.9,0.364,20,45,10,0021501109,1610612755,PHI,Philadelphia,Christian Wood,,,6:52,0.0,0.0,0.0,2.0,2.0,4.0,0.0,8.0,0.0,1.0,0.0,0.0
0021501109,1610612755,PHI,Philadelphia,203924,Jerami Grant,,DND - Right Knee & Quad Contusion       ,,,,,,,0.0,,,,,,,0.0,,,2016-03-29T00:00:00,3,PHI,Philadelphia,9-66,19,17,26,23,0,0,0,0,0,0,0,0,0,0,85,0.313,0.9,0.364,20,45,10,0021501109,1610612755,PHI,Philadelphia,Jerami Grant,,DND - Right Knee & Quad Contusion       ,,,,,,,,,,,,,
0021501109,1610612755,PHI,Philadelphia,1626158,Richaun Holmes,,DND - Right Achilles Strain             ,,,,,,,0.0,,,,,,,0.0,,,2016-03-29T00:00:00,3,PHI,Philadelphia,9-66,19,17,26,23,0,0,0,0,0,0,0,0,0,0,85,0.313,0.9,0.364,20,45,10,0021501109,1610612755,PHI,Philadelphia,Richaun Holmes,,DND - Right Achilles Strain             ,,,,,,,,,,,,,
0021501109,1610612755,PHI,Philadelphia,203457,Nerlens Noel,,DND - Right Knee Contusion              ,,,,,,,0.0,,,,,,,0.0,,,2016-03-29T00:00:00,3,PHI,Philadelphia,9-66,19,17,26,23,0,0,0,0,0,0,0,0,0,0,85,0.313,0.9,0.364,20,45,10,0021501109,1610612755,PHI,Philadelphia,Nerlens Noel,,DND - Right Knee Contusion              ,,,,,,,,,,,,,
