GAME_ID_x,TEAM_ID_x,TEAM_ABBREVIATION_x,TEAM_CITY_x,PLAYER_ID,PLAYER_NAME_x,START_POSITION_x,COMMENT_x,MIN_x,OFF_RATING,DEF_RATING,NET_RATING,AST_PCT,AST_TOV,AST_RATIO,OREB_PCT,DREB_PCT,REB_PCT,TM_TOV_PCT,EFG_PCT,TS_PCT,USG_PCT,PACE,PIE,GAME_DATE_EST,GAME_SEQUENCE,TEAM_ABBREVIATION_y,TEAM_CITY_NAME,TEAM_WINS_LOSSES,PTS_QTR1,PTS_QTR2,PTS_QTR3,PTS_QTR4,PTS_OT1,PTS_OT2,PTS_OT3,PTS_OT4,PTS_OT5,PTS_OT6,PTS_OT7,PTS_OT8,PTS_OT9,PTS_OT10,PTS,FG_PCT,FT_PCT,FG3_PCT,AST,REB,TOV,GAME_ID_y,TEAM_ID_y,TEAM_ABBREVIATION,TEAM_CITY_y,PLAYER_NAME_y,START_POSITION_y,COMMENT_y,MIN_y,PTS_OFF_TOV,PTS_2ND_CHANCE,PTS_FB,PTS_PAINT,OPP_PTS_OFF_TOV,OPP_PTS_2ND_CHANCE,OPP_PTS_FB,OPP_PTS_PAINT,BLK,BLKA,PF,PFD
0021501113,1610612737,ATL,Atlanta,203145,Kent Bazemore,F,,24:50,95.3,116.6,-21.3,0.176,3.0,20.2,0.037,0.111,0.067,6.7,0.45,0.414,0.211,96.54,0.026,2016-03-30T00:00:00,1,ATL,Atlanta,45-31,20,21,26,30,0,0,0,0,0,0,0,0,0,0,97,0.446,0.692,0.424,24,44,18,0021501113,1610612737,ATL,Atlanta,Kent Bazemore,F,,24:50,0.0,2.0,0.0,6.0,12.0,5.0,5.0,22.0,0.0,0.0,4.0,1.0
0021501113,1610612737,ATL,Atlanta,200794,Paul Millsap,F,,23:52,99.1,114.9,-15.9,0.059,0.25,7.7,0.083,0.368,0.209,30.8,0.438,0.438,0.225,95.69,0.077,2016-03-30T00:00:00,1,ATL,Atlanta,45-31,20,21,26,30,0,0,0,0,0,0,0,0,0,0,97,0.446,0.692,0.424,24,44,18,0021501113,1610612737,ATL,Atlanta,Paul Millsap,F,,23:52,5.0,2.0,2.0,4.0,12.0,5.0,7.0,20.0,3.0,0.0,3.0,3.0
0021501113,1610612737,ATL,Atlanta,201143,Al Horford,C,,22:53,95.7,108.4,-12.7,0.2,3.0,23.1,0.08,0.238,0.152,7.7,0.389,0.389,0.193,92.46,0.084,2016-03-30T00:00:00,1,ATL,Atlanta,45-31,20,21,26,30,0,0,0,0,0,0,0,0,0,0,97,0.446,0.692,0.424,24,44,18,0021501113,1610612737,ATL,Atlanta,Al Horford,C,,22:53,0.0,0.0,0.0,2.0,12.0,2.0,9.0,16.0,1.0,1.0,2.0,0.0
0021501113,1610612737,ATL,Atlanta,2594,Kyle Korver,G,,23:33,95.1,116.9,-21.8,0.056,0.0,13.4,0.083,0.15,0.114,0.0,0.167,0.233,0.116,96.18,0.02,2016-03-30T00:00:00,1,ATL,Atlanta,45-31,20,21,26,30,0,0,0,0,0,0,0,0,0,0,97,0.446,0.692,0.424,24,44,18,0021501113,1610612737,ATL,Atlanta,Kyle Korver,G,,23:33,0.0,0.0,0.0,0.0,18.0,2.0,10.0,16.0,0.0,0.0,1.0,1.0
0021501113,1610612737,ATL,Atlanta,201952,Jeff Teague,G,,22:23,101.3,111.2,-9.9,0.273,1.5,16.3,0.045,0.053,0.049,10.8,0.654,0.67,0.312,93.71,0.168,2016-03-30T00:00:00,1,ATL,Atlanta,45-31,20,21,26,30,0,0,0,0,0,0,0,0,0,0,97,0.446,0.692,0.424,24,44,18,0021501113,1610612737,ATL,Atlanta,Jeff Teague,G,,22:23,2.0,0.0,0.0,10.0,9.0,5.0,6.0,20.0,0.0,1.0,0.0,2.0
0021501113,1610612737,ATL,Atlanta,203501,Tim Hardaway Jr.,,,24:42,97.6,111.2,-13.6,0.25,1.5,20.8,0.0,0.136,0.068,13.9,0.778,0.794,0.207,100.7,0.151,2016-03-30T00:00:00,1,ATL,Atlanta,45-31,20,21,26,30,0,0,0,0,0,0,0,0,0,0,97,0.446,0.692,0.424,24,44,18,0021501113,1610612737,ATL,Atlanta,Tim Hardaway Jr.,,,24:42,3.0,3.0,0.0,2.0,18.0,7.0,7.0,22.0,0.0,0.0,1.0,2.0
0021501113,1610612737,ATL,Atlanta,2743,Kris Humphries,,,14:27,99.4,138.0,-38.6,0.091,0.33,13.4,0.0,0.25,0.105,40.3,0.5,0.581,0.188,106.9,-0.031,2016-03-30T00:00:00,1,ATL,Atlanta,45-31,20,21,26,30,0,0,0,0,0,0,0,0,0,0,97,0.446,0.692,0.424,24,44,18,0021501113,1610612737,ATL,Atlanta,Kris Humphries,,,14:27,0.0,0.0,0.0,0.0,11.0,8.0,4.0,10.0,0.0,0.0,4.0,1.0
0021501113,1610612737,ATL,Atlanta,200757,Thabo Sefolosha,,,12:02,93.6,135.4,-41.8,0.125,0.0,100.0,0.0,0.0,0.0,0.0,0.0,0.0,0.0,91.9,-0.02,2016-03-30T00:00:00,1,ATL,Atlanta,45-31,20,21,26,30,0,0,0,0,0,0,0,0,0,0,97,0.446,0.692,0.424,24,44,18,0021501113,1610612737,ATL,Atlanta,Thabo Sefolosha,,,12:02,0.0,0.0,0.0,0.0,2.0,8.0,4.0,10.0,0.0,0.0,2.0,1.0
0021501113,1610612737,ATL,Atlanta,203471,Dennis Schroder,,,23:22,95.3,101.1,-5.8,0.182,0.5,9.4,0.043,0.095,0.068,18.9,0.346,0.428,0.367,97.36,0.033,2016-03-30T00:00:00,1,ATL,Atlanta,45-31,20,21,26,30,0,0,0,0,0,0,0,0,0,0,97,0.446,0.692,0.424,24,44,18,0021501113,1610612737,ATL,Atlanta,Dennis Schroder,,,23:22,2.0,0.0,0.0,4.0,14.0,7.0,7.0,14.0,0.0,2.0,1.0,4.0
0021501113,1610612737,ATL,Atlanta,203118,Mike Scott,,,24:08,103.5,105.2,-1.7,0.167,2.0,18.2,0.087,0.273,0.178,9.1,0.75,0.75,0.169,95.35,0.181,2016-03-30T00:00:00,1,ATL,Atlanta,45-31,20,21,26,30,0,0,0,0,0,0,0,0,0,0,97,0.446,0.692,0.424,24,44,18,0021501113,1610612737,ATL,Atlanta,Mike Scott,,,24:08,0.0,2.0,0.0,4.0,13.0,7.0,6.0,18.0,0.0,0.0,1.0,0.0
0021501113,1610612737,ATL,Atlanta,2550,Kirk Hinrich,,,11:48,137.6,67.0,70.5,0.25,0.0,66.7,0.0,0.154,0.083,0.0,1.5,1.5,0.043,85.32,0.179,2016-03-30T00:00:00,1,ATL,Atlanta,45-31,20,21,26,30,0,0,0,0,0,0,0,0,0,0,97,0.446,0.692,0.424,24,44,18,0021501113,1610612737,ATL,Atlanta,Kirk Hinrich,,,11:48,0.0,0.0,3.0,0.0,2.0,2.0,0.0,10.0,0.0,0.0,0.0,1.0
0021501113,1610612737,ATL,Atlanta,203488,Mike Muscala,,,12:00,138.6,73.1,65.5,0.25,0.0,34.0,0.0,0.0,0.0,0.0,0.833,0.773,0.164,87.04,0.174,2016-03-30T00:00:00,1,ATL,Atlanta,45-31,20,21,26,30,0,0,0,0,0,0,0,0,0,0,97,0.446,0.692,0.424,24,44,18,0021501113,1610612737,ATL,Atlanta,Mike Muscala,,,12:00,0.0,0.0,3.0,2.0,2.0,2.0,0.0,12.0,3.0,0.0,0.0,3.0
0021501113,1610612761,TOR,Toronto,1626181,Norman Powell,F,,25:02,105.3,97.3,7.9,0.111,2.0,20.2,0.0,0.174,0.091,10.1,0.667,0.727,0.148,94.65,0.126,2016-03-30T00:00:00,1,TOR,Toronto,50-24,25,29,35,16,0,0,0,0,0,0,0,0,0,0,105,0.45,0.786,0.478,26,44,11,0021501113,1610612761,TOR,Toronto,Norman Powell,F,,25:02,6.0,0.0,2.0,2.0,10.0,5.0,5.0,16.0,0.0,1.0,2.0,1.0
0021501113,1610612761,TOR,Toronto,201574,Jason Thompson,F,,15:13,114.2,82.1,32.1,0.0,0.0,0.0,0.071,0.154,0.111,0.0,0.333,0.333,0.089,96.34,0.0,2016-03-30T00:00:00,1,TOR,Toronto,50-24,25,29,35,16,0,0,0,0,0,0,0,0,0,0,105,0.45,0.786,0.478,26,44,11,0021501113,1610612761,TOR,Toronto,Jason Thompson,F,,15:13,0.0,2.0,0.0,2.0,5.0,0.0,0.0,10.0,1.0,0.0,3.0,1.0
0021501113,1610612761,TOR,Toronto,202685,Jonas Valanciunas,C,,30:58,106.2,90.9,15.3,0.0,0.0,0.0,0.037,0.258,0.155,17.8,0.692,0.684,0.255,91.92,0.138,2016-03-30T00:00:00,1,TOR,Toronto,50-24,25,29,35,16,0,0,0,0,0,0,0,0,0,0,105,0.45,0.786,0.478,26,44,11,0021501113,1610612761,TOR,Toronto,Jonas Valanciunas,C,,30:58,4.0,0.0,3.0,16.0,10.0,4.0,4.0,20.0,1.0,2.0,6.0,1.0
0021501113,1610612761,TOR,Toronto,201942,DeMar DeRozan,G,,37:01,120.8,97.8,23.0,0.273,6.0,23.4,0.071,0.088,0.081,3.9,0.656,0.697,0.243,96.16,0.187,2016-03-30T00:00:00,1,TOR,Toronto,50-24,25,29,35,16,0,0,0,0,0,0,0,0,0,0,105,0.45,0.786,0.478,26,44,11,0021501113,1610612761,TOR,Toronto,DeMar DeRozan,G,,37:01,7.0,0.0,2.0,4.0,10.0,7.0,5.0,26.0,0.0,1.0,2.0,5.0
0021501113,1610612761,TOR,Toronto,200768,Kyle Lowry,G,,40:02,107.9,104.7,3.2,0.407,2.2,28.6,0.0,0.143,0.079,13.0,0.263,0.377,0.328,93.63,0.088,2016-03-30T00:00:00,1,TOR,Toronto,50-24,25,29,35,16,0,0,0,0,0,0,0,0,0,0,105,0.45,0.786,0.478,26,44,11,0021501113,1610612761,TOR,Toronto,Kyle Lowry,G,,40:02,3.0,5.0,3.0,4.0,12.0,9.0,8.0,30.0,0.0,3.0,1.0,4.0
0021501113,1610612761,TOR,Toronto,202335,Patrick Patterson,,,32:47,108.2,110.3,-2.1,0.158,3.0,25.3,0.074,0.147,0.115,8.4,0.571,0.571,0.127,95.14,0.093,2016-03-30T00:00:00,1,TOR,Toronto,50-24,25,29,35,16,0,0,0,0,0,0,0,0,0,0,105,0.45,0.786,0.478,26,44,11,0021501113,1610612761,TOR,Toronto,Patrick Patterson,,,32:47,0.0,3.0,0.0,2.0,7.0,9.0,8.0,24.0,0.0,0.0,1.0,2.0
0021501113,1610612761,TOR,Toronto,202709,Cory Joseph,,,18:57,94.3,101.5,-7.2,0.444,0.0,44.4,0.0,0.056,0.026,0.0,0.2,0.2,0.119,98.26,0.024,2016-03-30T00:00:00,1,TOR,Toronto,50-24,25,29,35,16,0,0,0,0,0,0,0,0,0,0,105,0.45,0.786,0.478,26,44,11,0021501113,1610612761,TOR,Toronto,Cory Joseph,,,18:57,0.0,0.0,2.0,2.0,2.0,2.0,3.0,12.0,1.0,0.0,2.0,1.0
0021501113,1610612761,TOR,Toronto,202687,Bismack Biyombo,,,17:02,117.0,117.6,-0.6,0.0,0.0,0.0,0.143,0.25,0.2,0.0,1.0,0.962,0.098,102.07,0.162,2016-03-30T00:00:00,1,TOR,Toronto,50-24,25,29,35,16,0,0,0,0,0,0,0,0,0,0,105,0.45,0.786,0.478,26,44,11,0021501113,1610612761,TOR,Toronto,Bismack Biyombo,,,17:02,2.0,2.0,0.0,2.0,2.0,5.0,4.0,14.0,1.0,0.0,1.0,3.0
0021501113,1610612761,TOR,Toronto,203082,Terrence Ross,,,22:58,115.4,105.6,9.8,0.0,0.0,0.0,0.0,0.125,0.068,0.0,0.6,0.597,0.218,96.47,0.132,2016-03-30T00:00:00,1,TOR,Toronto,50-24,25,29,35,16,0,0,0,0,0,0,0,0,0,0,105,0.45,0.786,0.478,26,44,11,0021501113,1610612761,TOR,Toronto,Terrence Ross,,,22:58,3.0,0.0,1.0,4.0,2.0,4.0,3.0,18.0,0.0,0.0,1.0,1.0
0021501113,1610612761,TOR,Toronto,201949,James Johnson,,DNP - Coach's Decision                  ,,,,,,,0.0,,,,,,,0.0,,,2016-03-30T00:00:00,1,TOR,Toronto,50-24,25,29,35,16,0,0,0,0,0,0,0,0,0,0,105,0.45,0.786,0.478,26,44,11,0021501113,1610612761,TOR,Toronto,James Johnson,,DNP - Coach's Decision                  ,,,,,,,,,,,,,
0021501113,1610612761,TOR,Toronto,203512,Lucas Nogueira,,DNP - Coach's Decision                  ,,,,,,,0.0,,,,,,,0.0,,,2016-03-30T00:00:00,1,TOR,Toronto,50-24,25,29,35,16,0,0,0,0,0,0,0,0,0,0,105,0.45,0.786,0.478,26,44,11,0021501113,1610612761,TOR,Toronto,Lucas Nogueira,,DNP - Coach's Decision                  ,,,,,,,,,,,,,
0021501113,1610612761,TOR,Toronto,2449,Luis Scola,,DNP - Coach's Decision                  ,,,,,,,0.0,,,,,,,0.0,,,2016-03-30T00:00:00,1,TOR,Toronto,50-24,25,29,35,16,0,0,0,0,0,0,0,0,0,0,105,0.45,0.786,0.478,26,44,11,0021501113,1610612761,TOR,Toronto,Luis Scola,,DNP - Coach's Decision                  ,,,,,,,,,,,,,
0021501113,1610612761,TOR,Toronto,1626153,Delon Wright,,DNP - Coach's Decision                  ,,,,,,,0.0,,,,,,,0.0,,,2016-03-30T00:00:00,1,TOR,Toronto,50-24,25,29,35,16,0,0,0,0,0,0,0,0,0,0,105,0.45,0.786,0.478,26,44,11,0021501113,1610612761,TOR,Toronto,Delon Wright,,DNP - Coach's Decision                  ,,,,,,,,,,,,,
