GAME_ID_x,TEAM_ID_x,TEAM_ABBREVIATION_x,TEAM_CITY_x,PLAYER_ID,PLAYER_NAME_x,START_POSITION_x,COMMENT_x,MIN_x,OFF_RATING,DEF_RATING,NET_RATING,AST_PCT,AST_TOV,AST_RATIO,OREB_PCT,DREB_PCT,REB_PCT,TM_TOV_PCT,EFG_PCT,TS_PCT,USG_PCT,PACE,PIE,GAME_DATE_EST,GAME_SEQUENCE,TEAM_ABBREVIATION_y,TEAM_CITY_NAME,TEAM_WINS_LOSSES,PTS_QTR1,PTS_QTR2,PTS_QTR3,PTS_QTR4,PTS_OT1,PTS_OT2,PTS_OT3,PTS_OT4,PTS_OT5,PTS_OT6,PTS_OT7,PTS_OT8,PTS_OT9,PTS_OT10,PTS,FG_PCT,FT_PCT,FG3_PCT,AST,REB,TOV,GAME_ID_y,TEAM_ID_y,TEAM_ABBREVIATION,TEAM_CITY_y,PLAYER_NAME_y,START_POSITION_y,COMMENT_y,MIN_y,PTS_OFF_TOV,PTS_2ND_CHANCE,PTS_FB,PTS_PAINT,OPP_PTS_OFF_TOV,OPP_PTS_2ND_CHANCE,OPP_PTS_FB,OPP_PTS_PAINT,BLK,BLKA,PF,PFD
0021501146,1610612742,DAL,Dallas,1626147,Justin Anderson,F,,23:37,108.5,87.6,20.9,0.067,0.0,18.4,0.125,0.438,0.25,0.0,1.0,1.014,0.087,96.74,0.233,2016-04-03T00:00:00,4,DAL,Dallas,39-38,22,19,27,20,0,0,0,0,0,0,0,0,0,0,88,0.386,0.588,0.35,19,44,10,0021501146,1610612742,DAL,Dallas,Justin Anderson,F,,23:37,5.0,2.0,2.0,8.0,7.0,0.0,7.0,16.0,1.0,0.0,1.0,1.0
0021501146,1610612742,DAL,Dallas,1717,Dirk Nowitzki,F,,33:03,90.6,78.5,12.1,0.063,1.0,4.6,0.0,0.154,0.063,4.6,0.278,0.329,0.285,91.27,0.0,2016-04-03T00:00:00,4,DAL,Dallas,39-38,22,19,27,20,0,0,0,0,0,0,0,0,0,0,88,0.386,0.588,0.35,19,44,10,0021501146,1610612742,DAL,Dallas,Dirk Nowitzki,F,,33:03,5.0,2.0,0.0,0.0,6.0,0.0,7.0,20.0,0.0,0.0,2.0,5.0
0021501146,1610612742,DAL,Dallas,2585,Zaza Pachulia,C,,22:33,98.4,83.2,15.2,0.067,0.33,14.3,0.25,0.25,0.25,42.9,0.333,0.333,0.129,86.97,0.008,2016-04-03T00:00:00,4,DAL,Dallas,39-38,22,19,27,20,0,0,0,0,0,0,0,0,0,0,88,0.386,0.588,0.35,19,44,10,0021501146,1610612742,DAL,Dallas,Zaza Pachulia,C,,22:33,0.0,2.0,0.0,2.0,7.0,0.0,3.0,12.0,0.0,1.0,5.0,2.0
0021501146,1610612742,DAL,Dallas,202083,Wesley Matthews,G,,36:25,97.6,97.8,-0.2,0.063,1.0,5.9,0.026,0.043,0.033,5.9,0.643,0.638,0.207,87.7,0.117,2016-04-03T00:00:00,4,DAL,Dallas,39-38,22,19,27,20,0,0,0,0,0,0,0,0,0,0,88,0.386,0.588,0.35,19,44,10,0021501146,1610612742,DAL,Dallas,Wesley Matthews,G,,36:25,3.0,6.0,0.0,0.0,6.0,2.0,8.0,28.0,0.0,0.0,1.0,3.0
0021501146,1610612742,DAL,Dallas,200826,J.J. Barea,G,,34:41,92.6,78.9,13.6,0.429,6.0,21.6,0.0,0.107,0.045,3.6,0.5,0.506,0.287,91.42,0.194,2016-04-03T00:00:00,4,DAL,Dallas,39-38,22,19,27,20,0,0,0,0,0,0,0,0,0,0,88,0.386,0.588,0.35,19,44,10,0021501146,1610612742,DAL,Dallas,J.J. Barea,G,,34:41,0.0,5.0,0.0,8.0,6.0,0.0,7.0,22.0,0.0,2.0,1.0,3.0
0021501146,1610612742,DAL,Dallas,1626257,Salah Mejri,,,19:22,91.2,86.9,4.3,0.0,0.0,0.0,0.115,0.154,0.128,0.0,0.0,0.0,0.023,90.51,0.032,2016-04-03T00:00:00,4,DAL,Dallas,39-38,22,19,27,20,0,0,0,0,0,0,0,0,0,0,88,0.386,0.588,0.35,19,44,10,0021501146,1610612742,DAL,Dallas,Salah Mejri,,,19:22,0.0,0.0,0.0,0.0,2.0,0.0,5.0,14.0,2.0,0.0,2.0,0.0
0021501146,1610612742,DAL,Dallas,2734,Devin Harris,,,31:15,106.9,75.1,31.8,0.188,0.0,16.9,0.0,0.083,0.036,0.0,0.5,0.542,0.223,84.67,0.17,2016-04-03T00:00:00,4,DAL,Dallas,39-38,22,19,27,20,0,0,0,0,0,0,0,0,0,0,88,0.386,0.588,0.35,19,44,10,0021501146,1610612742,DAL,Dallas,Devin Harris,,,31:15,3.0,3.0,2.0,4.0,9.0,2.0,5.0,18.0,0.0,1.0,1.0,3.0
0021501146,1610612742,DAL,Dallas,101135,David Lee,,,17:23,126.4,97.0,29.4,0.273,3.0,33.8,0.2,0.25,0.222,11.3,0.75,0.615,0.17,87.81,0.096,2016-04-03T00:00:00,4,DAL,Dallas,39-38,22,19,27,20,0,0,0,0,0,0,0,0,0,0,88,0.386,0.588,0.35,19,44,10,0021501146,1610612742,DAL,Dallas,David Lee,,,17:23,4.0,0.0,2.0,6.0,7.0,2.0,5.0,14.0,0.0,0.0,3.0,1.0
0021501146,1610612742,DAL,Dallas,101109,Raymond Felton,,,18:03,110.9,91.1,19.8,0.273,1.0,25.0,0.0,0.214,0.094,25.0,0.167,0.167,0.259,81.94,-0.009,2016-04-03T00:00:00,4,DAL,Dallas,39-38,22,19,27,20,0,0,0,0,0,0,0,0,0,0,88,0.386,0.588,0.35,19,44,10,0021501146,1610612742,DAL,Dallas,Raymond Felton,,,18:03,0.0,0.0,2.0,2.0,5.0,2.0,3.0,12.0,1.0,0.0,1.0,0.0
0021501146,1610612742,DAL,Dallas,203939,Dwight Powell,,,3:39,170.1,123.0,47.1,0.0,0.0,0.0,0.0,0.0,0.0,0.0,0.0,0.0,0.17,70.75,-0.069,2016-04-03T00:00:00,4,DAL,Dallas,39-38,22,19,27,20,0,0,0,0,0,0,0,0,0,0,88,0.386,0.588,0.35,19,44,10,0021501146,1610612742,DAL,Dallas,Dwight Powell,,,3:39,0.0,0.0,0.0,0.0,0.0,2.0,0.0,4.0,0.0,0.0,0.0,0.0
0021501146,1610612742,DAL,Dallas,201580,JaVale McGee,,DNP - Coach's Decision                  ,,,,,,,0.0,,,,,,,0.0,,,2016-04-03T00:00:00,4,DAL,Dallas,39-38,22,19,27,20,0,0,0,0,0,0,0,0,0,0,88,0.386,0.588,0.35,19,44,10,0021501146,1610612742,DAL,Dallas,JaVale McGee,,DNP - Coach's Decision                  ,,,,,,,,,,,,,
0021501146,1610612742,DAL,Dallas,101111,Charlie Villanueva,,DNP - Coach's Decision                  ,,,,,,,0.0,,,,,,,0.0,,,2016-04-03T00:00:00,4,DAL,Dallas,39-38,22,19,27,20,0,0,0,0,0,0,0,0,0,0,88,0.386,0.588,0.35,19,44,10,0021501146,1610612742,DAL,Dallas,Charlie Villanueva,,DNP - Coach's Decision                  ,,,,,,,,,,,,,
0021501146,1610612742,DAL,Dallas,101114,Deron Williams,,DND - Left Abdominal Strain             ,,,,,,,0.0,,,,,,,0.0,,,2016-04-03T00:00:00,4,DAL,Dallas,39-38,22,19,27,20,0,0,0,0,0,0,0,0,0,0,88,0.386,0.588,0.35,19,44,10,0021501146,1610612742,DAL,Dallas,Deron Williams,,DND - Left Abdominal Strain             ,,,,,,,,,,,,,
0021501146,1610612750,MIN,Minnesota,203952,Andrew Wiggins,F,,41:04,92.5,95.7,-3.2,0.133,1.0,7.4,0.0,0.095,0.056,7.4,0.595,0.647,0.3,88.88,0.233,2016-04-03T00:00:00,4,MIN,Minnesota,25-52,27,13,23,15,0,0,0,0,0,0,0,0,0,0,78,0.408,0.889,0.19,20,41,16,0021501146,1610612750,MIN,Minnesota,Andrew Wiggins,F,,41:04,9.0,0.0,2.0,14.0,13.0,16.0,6.0,22.0,0.0,0.0,0.0,5.0
0021501146,1610612750,MIN,Minnesota,203476,Gorgui Dieng,F,,23:09,91.7,86.1,5.6,0.083,1.0,10.1,0.067,0.074,0.071,10.1,0.429,0.508,0.187,86.21,0.116,2016-04-03T00:00:00,4,MIN,Minnesota,25-52,27,13,23,15,0,0,0,0,0,0,0,0,0,0,78,0.408,0.889,0.19,20,41,16,0021501146,1610612750,MIN,Minnesota,Gorgui Dieng,F,,23:09,0.0,0.0,4.0,4.0,7.0,13.0,2.0,10.0,0.0,1.0,1.0,1.0
0021501146,1610612750,MIN,Minnesota,1626157,Karl-Anthony Towns,C,,44:24,85.1,96.9,-11.8,0.409,1.5,31.6,0.091,0.391,0.266,21.1,0.385,0.409,0.211,90.49,0.215,2016-04-03T00:00:00,4,MIN,Minnesota,25-52,27,13,23,15,0,0,0,0,0,0,0,0,0,0,78,0.408,0.889,0.19,20,41,16,0021501146,1610612750,MIN,Minnesota,Karl-Anthony Towns,C,,44:24,0.0,0.0,3.0,6.0,18.0,15.0,6.0,28.0,3.0,2.0,3.0,2.0
0021501146,1610612750,MIN,Minnesota,203897,Zach LaVine,G,,30:16,88.8,102.1,-13.3,0.063,0.33,6.5,0.0,0.1,0.06,19.4,0.455,0.481,0.244,87.26,0.011,2016-04-03T00:00:00,4,MIN,Minnesota,25-52,27,13,23,15,0,0,0,0,0,0,0,0,0,0,78,0.408,0.889,0.19,20,41,16,0021501146,1610612750,MIN,Minnesota,Zach LaVine,G,,30:16,0.0,0.0,0.0,2.0,15.0,11.0,6.0,24.0,0.0,0.0,5.0,2.0
0021501146,1610612750,MIN,Minnesota,201937,Ricky Rubio,G,,34:04,96.7,94.7,2.0,0.238,2.5,31.7,0.0,0.061,0.036,12.7,0.357,0.514,0.153,87.58,0.077,2016-04-03T00:00:00,4,MIN,Minnesota,25-52,27,13,23,15,0,0,0,0,0,0,0,0,0,0,78,0.408,0.889,0.19,20,41,16,0021501146,1610612750,MIN,Minnesota,Ricky Rubio,G,,34:04,0.0,0.0,0.0,0.0,13.0,11.0,4.0,20.0,0.0,1.0,3.0,3.0
0021501146,1610612750,MIN,Minnesota,202357,Nemanja Bjelica,,,14:12,62.8,139.7,-76.9,0.2,0.0,22.5,0.0,0.0,0.0,0.0,0.333,0.436,0.123,91.74,-0.023,2016-04-03T00:00:00,4,MIN,Minnesota,25-52,27,13,23,15,0,0,0,0,0,0,0,0,0,0,78,0.408,0.889,0.19,20,41,16,0021501146,1610612750,MIN,Minnesota,Nemanja Bjelica,,,14:12,0.0,0.0,0.0,2.0,10.0,10.0,4.0,10.0,0.0,0.0,3.0,1.0
0021501146,1610612750,MIN,Minnesota,203498,Shabazz Muhammad,,,16:23,55.5,119.2,-63.7,0.167,0.0,17.0,0.067,0.095,0.083,0.0,0.0,0.102,0.145,89.12,0.012,2016-04-03T00:00:00,4,MIN,Minnesota,25-52,27,13,23,15,0,0,0,0,0,0,0,0,0,0,78,0.408,0.889,0.19,20,41,16,0021501146,1610612750,MIN,Minnesota,Shabazz Muhammad,,,16:23,0.0,0.0,0.0,0.0,9.0,7.0,4.0,10.0,0.0,0.0,0.0,1.0
0021501146,1610612750,MIN,Minnesota,1626145,Tyus Jones,,,13:56,58.2,117.1,-58.9,0.0,0.0,0.0,0.0,0.059,0.033,0.0,0.0,0.266,0.07,91.43,-0.025,2016-04-03T00:00:00,4,MIN,Minnesota,25-52,27,13,23,15,0,0,0,0,0,0,0,0,0,0,78,0.408,0.889,0.19,20,41,16,0021501146,1610612750,MIN,Minnesota,Tyus Jones,,,13:56,0.0,0.0,1.0,0.0,7.0,9.0,4.0,10.0,0.0,0.0,1.0,2.0
0021501146,1610612750,MIN,Minnesota,203940,Adreian Payne,,,14:15,102.7,101.5,1.2,0.0,0.0,0.0,0.091,0.167,0.13,20.0,0.5,0.5,0.19,84.14,0.043,2016-04-03T00:00:00,4,MIN,Minnesota,25-52,27,13,23,15,0,0,0,0,0,0,0,0,0,0,78,0.408,0.889,0.19,20,41,16,0021501146,1610612750,MIN,Minnesota,Adreian Payne,,,14:15,2.0,2.0,0.0,4.0,5.0,2.0,4.0,12.0,1.0,0.0,2.0,0.0
0021501146,1610612750,MIN,Minnesota,2419,Tayshaun Prince,,,8:17,99.5,94.9,4.7,0.0,0.0,0.0,0.0,0.143,0.083,100.0,0.0,0.0,0.059,92.25,0.054,2016-04-03T00:00:00,4,MIN,Minnesota,25-52,27,13,23,15,0,0,0,0,0,0,0,0,0,0,78,0.408,0.889,0.19,20,41,16,0021501146,1610612750,MIN,Minnesota,Tayshaun Prince,,,8:17,0.0,0.0,0.0,0.0,3.0,6.0,0.0,4.0,0.0,0.0,0.0,0.0
0021501146,1610612750,MIN,Minnesota,204014,Damjan Rudez,,DNP - Coach's Decision                  ,,,,,,,0.0,,,,,,,0.0,,,2016-04-03T00:00:00,4,MIN,Minnesota,25-52,27,13,23,15,0,0,0,0,0,0,0,0,0,0,78,0.408,0.889,0.19,20,41,16,0021501146,1610612750,MIN,Minnesota,Damjan Rudez,,DNP - Coach's Decision                  ,,,,,,,,,,,,,
0021501146,1610612750,MIN,Minnesota,202962,Greg Smith,,DNP - Coach's Decision                  ,,,,,,,0.0,,,,,,,0.0,,,2016-04-03T00:00:00,4,MIN,Minnesota,25-52,27,13,23,15,0,0,0,0,0,0,0,0,0,0,78,0.408,0.889,0.19,20,41,16,0021501146,1610612750,MIN,Minnesota,Greg Smith,,DNP - Coach's Decision                  ,,,,,,,,,,,,,
