GAME_ID_x,TEAM_ID_x,TEAM_ABBREVIATION_x,TEAM_CITY_x,PLAYER_ID,PLAYER_NAME_x,START_POSITION_x,COMMENT_x,MIN_x,OFF_RATING,DEF_RATING,NET_RATING,AST_PCT,AST_TOV,AST_RATIO,OREB_PCT,DREB_PCT,REB_PCT,TM_TOV_PCT,EFG_PCT,TS_PCT,USG_PCT,PACE,PIE,GAME_DATE_EST,GAME_SEQUENCE,TEAM_ABBREVIATION_y,TEAM_CITY_NAME,TEAM_WINS_LOSSES,PTS_QTR1,PTS_QTR2,PTS_QTR3,PTS_QTR4,PTS_OT1,PTS_OT2,PTS_OT3,PTS_OT4,PTS_OT5,PTS_OT6,PTS_OT7,PTS_OT8,PTS_OT9,PTS_OT10,PTS,FG_PCT,FT_PCT,FG3_PCT,AST,REB,TOV,GAME_ID_y,TEAM_ID_y,TEAM_ABBREVIATION,TEAM_CITY_y,PLAYER_NAME_y,START_POSITION_y,COMMENT_y,MIN_y,PTS_OFF_TOV,PTS_2ND_CHANCE,PTS_FB,PTS_PAINT,OPP_PTS_OFF_TOV,OPP_PTS_2ND_CHANCE,OPP_PTS_FB,OPP_PTS_PAINT,BLK,BLKA,PF,PFD
0021501177,1610612759,SAS,San Antonio,202695,Kawhi Leonard,F,,34:50,97.0,121.4,-24.4,0.111,1.0,10.2,0.031,0.095,0.057,10.2,0.75,0.741,0.24,94.09,0.134,2016-04-07T00:00:00,5,SAS,San Antonio,65-13,15,25,29,32,0,0,0,0,0,0,0,0,0,0,101,0.488,0.696,0.438,28,32,12,0021501177,1610612759,SAS,San Antonio,Kawhi Leonard,F,,34:50,6.0,2.0,0.0,12.0,9.0,7.0,21.0,32.0,0.0,0.0,0.0,5.0
0021501177,1610612759,SAS,San Antonio,200746,LaMarcus Aldridge,F,,29:16,100.7,125.8,-25.1,0.125,1.0,9.8,0.077,0.063,0.071,9.8,0.313,0.335,0.304,92.04,0.016,2016-04-07T00:00:00,5,SAS,San Antonio,65-13,15,25,29,32,0,0,0,0,0,0,0,0,0,0,101,0.488,0.696,0.438,28,32,12,0021501177,1610612759,SAS,San Antonio,LaMarcus Aldridge,F,,29:16,4.0,2.0,0.0,6.0,9.0,7.0,16.0,30.0,0.0,1.0,2.0,3.0
0021501177,1610612759,SAS,San Antonio,1495,Tim Duncan,C,,19:11,71.4,100.3,-28.9,0.1,0.5,11.1,0.05,0.125,0.083,22.2,0.333,0.333,0.19,100.19,0.025,2016-04-07T00:00:00,5,SAS,San Antonio,65-13,15,25,29,32,0,0,0,0,0,0,0,0,0,0,101,0.488,0.696,0.438,28,32,12,0021501177,1610612759,SAS,San Antonio,Tim Duncan,C,,19:11,0.0,2.0,0.0,4.0,4.0,4.0,8.0,20.0,0.0,1.0,0.0,0.0
0021501177,1610612759,SAS,San Antonio,201980,Danny Green,G,,28:36,90.4,100.4,-10.0,0.059,0.0,12.5,0.037,0.167,0.098,0.0,0.643,0.643,0.116,94.86,0.138,2016-04-07T00:00:00,5,SAS,San Antonio,65-13,15,25,29,32,0,0,0,0,0,0,0,0,0,0,101,0.488,0.696,0.438,28,32,12,0021501177,1610612759,SAS,San Antonio,Danny Green,G,,28:36,6.0,0.0,6.0,0.0,6.0,7.0,11.0,22.0,2.0,0.0,2.0,0.0
0021501177,1610612759,SAS,San Antonio,2225,Tony Parker,G,,27:21,92.0,114.0,-22.0,0.2,1.5,17.9,0.0,0.111,0.047,11.9,0.4,0.425,0.24,92.17,0.039,2016-04-07T00:00:00,5,SAS,San Antonio,65-13,15,25,29,32,0,0,0,0,0,0,0,0,0,0,101,0.488,0.696,0.438,28,32,12,0021501177,1610612759,SAS,San Antonio,Tony Parker,G,,27:21,2.0,0.0,0.0,2.0,9.0,7.0,11.0,24.0,0.0,0.0,1.0,4.0
0021501177,1610612759,SAS,San Antonio,201988,Patty Mills,,,17:35,117.3,124.8,-7.5,0.214,3.0,25.0,0.0,0.0,0.0,8.3,0.438,0.438,0.24,105.92,0.039,2016-04-07T00:00:00,5,SAS,San Antonio,65-13,15,25,29,32,0,0,0,0,0,0,0,0,0,0,101,0.488,0.696,0.438,28,32,12,0021501177,1610612759,SAS,San Antonio,Patty Mills,,,17:35,0.0,0.0,3.0,4.0,4.0,0.0,12.0,28.0,0.0,0.0,1.0,2.0
0021501177,1610612759,SAS,San Antonio,1938,Manu Ginobili,,,19:35,114.7,116.1,-1.4,0.133,0.67,18.2,0.0,0.056,0.03,27.3,0.5,0.5,0.206,104.07,0.019,2016-04-07T00:00:00,5,SAS,San Antonio,65-13,15,25,29,32,0,0,0,0,0,0,0,0,0,0,101,0.488,0.696,0.438,28,32,12,0021501177,1610612759,SAS,San Antonio,Manu Ginobili,,,19:35,0.0,0.0,0.0,4.0,7.0,0.0,7.0,28.0,0.0,0.0,1.0,1.0
0021501177,1610612759,SAS,San Antonio,2561,David West,,,23:34,114.6,112.1,2.6,0.389,0.0,50.9,0.0,0.0,0.0,0.0,0.8,0.814,0.133,100.62,0.139,2016-04-07T00:00:00,5,SAS,San Antonio,65-13,15,25,29,32,0,0,0,0,0,0,0,0,0,0,101,0.488,0.696,0.438,28,32,12,0021501177,1610612759,SAS,San Antonio,David West,,,23:34,0.0,0.0,2.0,4.0,4.0,0.0,12.0,30.0,0.0,0.0,0.0,3.0
0021501177,1610612759,SAS,San Antonio,203937,Kyle Anderson,,,19:46,112.1,119.6,-7.5,0.231,0.0,36.1,0.0,0.733,0.355,0.0,0.75,0.752,0.129,94.46,0.202,2016-04-07T00:00:00,5,SAS,San Antonio,65-13,15,25,29,32,0,0,0,0,0,0,0,0,0,0,101,0.488,0.696,0.438,28,32,12,0021501177,1610612759,SAS,San Antonio,Kyle Anderson,,,19:46,2.0,0.0,2.0,6.0,5.0,3.0,13.0,14.0,0.0,0.0,2.0,2.0
0021501177,1610612759,SAS,San Antonio,2755,Kevin Martin,,,14:49,136.3,119.4,16.9,0.308,0.0,38.8,0.0,0.5,0.2,0.0,0.7,0.791,0.197,96.22,0.194,2016-04-07T00:00:00,5,SAS,San Antonio,65-13,15,25,29,32,0,0,0,0,0,0,0,0,0,0,101,0.488,0.696,0.438,28,32,12,0021501177,1610612759,SAS,San Antonio,Kevin Martin,,,14:49,6.0,0.0,6.0,4.0,4.0,0.0,2.0,20.0,0.0,0.0,0.0,2.0
0021501177,1610612759,SAS,San Antonio,2588,Matt Bonner,,,5:27,150.0,129.9,20.1,0.0,0.0,0.0,0.0,0.0,0.0,0.0,1.0,1.0,0.083,107.1,0.022,2016-04-07T00:00:00,5,SAS,San Antonio,65-13,15,25,29,32,0,0,0,0,0,0,0,0,0,0,101,0.488,0.696,0.438,28,32,12,0021501177,1610612759,SAS,San Antonio,Matt Bonner,,,5:27,0.0,0.0,2.0,0.0,4.0,0.0,2.0,12.0,0.0,0.0,2.0,0.0
0021501177,1610612759,SAS,San Antonio,1889,Andre Miller,,DNP - Coach's Decision                  ,,,,,,,0.0,,,,,,,0.0,,,2016-04-07T00:00:00,5,SAS,San Antonio,65-13,15,25,29,32,0,0,0,0,0,0,0,0,0,0,101,0.488,0.696,0.438,28,32,12,0021501177,1610612759,SAS,San Antonio,Andre Miller,,DNP - Coach's Decision                  ,,,,,,,,,,,,,
0021501177,1610612759,SAS,San Antonio,203613,Jonathon Simmons,,DNP - Coach's Decision                  ,,,,,,,0.0,,,,,,,0.0,,,2016-04-07T00:00:00,5,SAS,San Antonio,65-13,15,25,29,32,0,0,0,0,0,0,0,0,0,0,101,0.488,0.696,0.438,28,32,12,0021501177,1610612759,SAS,San Antonio,Jonathon Simmons,,DNP - Coach's Decision                  ,,,,,,,,,,,,,
0021501177,1610612744,GSW,Golden State,203084,Harrison Barnes,F,,32:40,116.8,98.2,18.6,0.05,0.33,5.6,0.043,0.25,0.157,16.8,0.731,0.756,0.25,93.07,0.14,2016-04-07T00:00:00,5,GSW,Golden State,70-9,20,32,35,25,0,0,0,0,0,0,0,0,0,0,112,0.542,0.909,0.48,33,43,15,0021501177,1610612744,GSW,Golden State,Harrison Barnes,F,,32:40,2.0,0.0,2.0,4.0,18.0,6.0,11.0,26.0,0.0,0.0,3.0,3.0
0021501177,1610612744,GSW,Golden State,203110,Draymond Green,F,,33:48,116.8,95.8,21.0,0.259,1.75,29.3,0.0,0.194,0.111,16.8,0.667,0.699,0.222,99.4,0.145,2016-04-07T00:00:00,5,GSW,Golden State,70-9,20,32,35,25,0,0,0,0,0,0,0,0,0,0,112,0.542,0.909,0.48,33,43,15,0021501177,1610612744,GSW,Golden State,Draymond Green,F,,33:48,3.0,0.0,9.0,10.0,18.0,4.0,7.0,30.0,0.0,0.0,2.0,1.0
0021501177,1610612744,GSW,Golden State,101106,Andrew Bogut,C,,21:32,117.4,93.2,24.2,0.167,3.0,42.9,0.154,0.45,0.333,14.3,1.0,1.0,0.089,92.2,0.199,2016-04-07T00:00:00,5,GSW,Golden State,70-9,20,32,35,25,0,0,0,0,0,0,0,0,0,0,112,0.542,0.909,0.48,33,43,15,0021501177,1610612744,GSW,Golden State,Andrew Bogut,C,,21:32,0.0,2.0,0.0,6.0,13.0,4.0,6.0,16.0,2.0,0.0,4.0,1.0
0021501177,1610612744,GSW,Golden State,202691,Klay Thompson,G,,35:06,120.3,100.1,20.2,0.231,6.0,28.7,0.091,0.032,0.057,4.8,0.462,0.504,0.208,93.29,0.07,2016-04-07T00:00:00,5,GSW,Golden State,70-9,20,32,35,25,0,0,0,0,0,0,0,0,0,0,112,0.542,0.909,0.48,33,43,15,0021501177,1610612744,GSW,Golden State,Klay Thompson,G,,35:06,2.0,5.0,0.0,4.0,20.0,6.0,8.0,30.0,0.0,0.0,4.0,1.0
0021501177,1610612744,GSW,Golden State,201939,Stephen Curry,G,,36:17,111.9,95.8,16.1,0.375,3.0,28.2,0.0,0.161,0.085,9.4,0.658,0.679,0.282,96.73,0.198,2016-04-07T00:00:00,5,GSW,Golden State,70-9,20,32,35,25,0,0,0,0,0,0,0,0,0,0,112,0.542,0.909,0.48,33,43,15,0021501177,1610612744,GSW,Golden State,Stephen Curry,G,,36:17,2.0,0.0,7.0,14.0,23.0,6.0,13.0,30.0,0.0,1.0,2.0,2.0
0021501177,1610612744,GSW,Golden State,2738,Andre Iguodala,,,20:50,110.8,103.5,7.3,0.053,1.0,16.7,0.0,0.125,0.063,16.7,0.5,0.5,0.108,98.89,0.059,2016-04-07T00:00:00,5,GSW,Golden State,70-9,20,32,35,25,0,0,0,0,0,0,0,0,0,0,112,0.542,0.909,0.48,33,43,15,0021501177,1610612744,GSW,Golden State,Andre Iguodala,,,20:50,2.0,0.0,2.0,4.0,12.0,4.0,11.0,22.0,0.0,1.0,0.0,0.0
0021501177,1610612744,GSW,Golden State,2571,Leandro Barbosa,,,14:46,111.4,125.5,-14.0,0.0,0.0,0.0,0.077,0.0,0.043,20.0,0.375,0.375,0.142,104.47,-0.041,2016-04-07T00:00:00,5,GSW,Golden State,70-9,20,32,35,25,0,0,0,0,0,0,0,0,0,0,112,0.542,0.909,0.48,33,43,15,0021501177,1610612744,GSW,Golden State,Leandro Barbosa,,,14:46,0.0,0.0,0.0,0.0,6.0,0.0,13.0,18.0,0.0,0.0,3.0,0.0
0021501177,1610612744,GSW,Golden State,203105,Festus Ezeli,,,7:52,97.8,76.5,21.4,0.0,0.0,0.0,0.111,0.286,0.188,0.0,0.4,0.368,0.242,114.22,0.067,2016-04-07T00:00:00,5,GSW,Golden State,70-9,20,32,35,25,0,0,0,0,0,0,0,0,0,0,112,0.542,0.909,0.48,33,43,15,0021501177,1610612744,GSW,Golden State,Festus Ezeli,,,7:52,0.0,0.0,0.0,4.0,3.0,0.0,5.0,6.0,0.0,0.0,0.0,1.0
0021501177,1610612744,GSW,Golden State,201575,Brandon Rush,,,6:31,129.7,119.7,10.0,0.0,0.0,0.0,0.0,0.125,0.091,0.0,1.5,1.5,0.072,103.41,0.028,2016-04-07T00:00:00,5,GSW,Golden State,70-9,20,32,35,25,0,0,0,0,0,0,0,0,0,0,112,0.542,0.909,0.48,33,43,15,0021501177,1610612744,GSW,Golden State,Brandon Rush,,,6:31,0.0,0.0,3.0,0.0,3.0,0.0,5.0,10.0,0.0,0.0,3.0,0.0
0021501177,1610612744,GSW,Golden State,2733,Shaun Livingston,,,19:15,122.6,121.8,0.8,0.385,0.0,50.0,0.0,0.071,0.036,0.0,0.6,0.6,0.127,95.9,0.101,2016-04-07T00:00:00,5,GSW,Golden State,70-9,20,32,35,25,0,0,0,0,0,0,0,0,0,0,112,0.542,0.909,0.48,33,43,15,0021501177,1610612744,GSW,Golden State,Shaun Livingston,,,19:15,0.0,0.0,0.0,6.0,8.0,0.0,13.0,22.0,0.0,0.0,1.0,1.0
0021501177,1610612744,GSW,Golden State,201578,Marreese Speights,,,10:09,128.8,144.9,-16.2,0.167,1.0,14.5,0.0,0.143,0.083,14.5,0.5,0.615,0.315,96.28,0.085,2016-04-07T00:00:00,5,GSW,Golden State,70-9,20,32,35,25,0,0,0,0,0,0,0,0,0,0,112,0.542,0.909,0.48,33,43,15,0021501177,1610612744,GSW,Golden State,Marreese Speights,,,10:09,2.0,0.0,0.0,0.0,3.0,0.0,8.0,16.0,0.0,0.0,0.0,1.0
0021501177,1610612744,GSW,Golden State,203546,Ian Clark,,,1:14,0.0,204.9,-204.9,0.0,0.0,0.0,0.0,0.5,0.333,0.0,0.0,0.0,0.0,86.4,0.182,2016-04-07T00:00:00,5,GSW,Golden State,70-9,20,32,35,25,0,0,0,0,0,0,0,0,0,0,112,0.542,0.909,0.48,33,43,15,0021501177,1610612744,GSW,Golden State,Ian Clark,,,1:14,0.0,0.0,0.0,0.0,3.0,0.0,5.0,4.0,0.0,0.0,0.0,0.0
0021501177,1610612744,GSW,Golden State,2760,Anderson Varejao,,DNP - Coach's Decision                  ,,,,,,,0.0,,,,,,,0.0,,,2016-04-07T00:00:00,5,GSW,Golden State,70-9,20,32,35,25,0,0,0,0,0,0,0,0,0,0,112,0.542,0.909,0.48,33,43,15,0021501177,1610612744,GSW,Golden State,Anderson Varejao,,DNP - Coach's Decision                  ,,,,,,,,,,,,,
