GAME_ID_x,TEAM_ID_x,TEAM_ABBREVIATION_x,TEAM_CITY_x,PLAYER_ID,PLAYER_NAME_x,START_POSITION_x,COMMENT_x,MIN_x,OFF_RATING,DEF_RATING,NET_RATING,AST_PCT,AST_TOV,AST_RATIO,OREB_PCT,DREB_PCT,REB_PCT,TM_TOV_PCT,EFG_PCT,TS_PCT,USG_PCT,PACE,PIE,GAME_DATE_EST,GAME_SEQUENCE,TEAM_ABBREVIATION_y,TEAM_CITY_NAME,TEAM_WINS_LOSSES,PTS_QTR1,PTS_QTR2,PTS_QTR3,PTS_QTR4,PTS_OT1,PTS_OT2,PTS_OT3,PTS_OT4,PTS_OT5,PTS_OT6,PTS_OT7,PTS_OT8,PTS_OT9,PTS_OT10,PTS,FG_PCT,FT_PCT,FG3_PCT,AST,REB,TOV,GAME_ID_y,TEAM_ID_y,TEAM_ABBREVIATION,TEAM_CITY_y,PLAYER_NAME_y,START_POSITION_y,COMMENT_y,MIN_y,PTS_OFF_TOV,PTS_2ND_CHANCE,PTS_FB,PTS_PAINT,OPP_PTS_OFF_TOV,OPP_PTS_2ND_CHANCE,OPP_PTS_FB,OPP_PTS_PAINT,BLK,BLKA,PF,PFD
0021501181,1610612749,MIL,Milwaukee,203953,Jabari Parker,F,,28:41,98.8,120.8,-22.0,0.063,1.0,4.7,0.087,0.136,0.111,4.7,0.444,0.466,0.283,109.91,0.064,2016-04-08T00:00:00,4,MIL,Milwaukee,32-47,35,23,22,29,0,0,0,0,0,0,0,0,0,0,109,0.488,0.69,0.412,30,38,19,0021501181,1610612749,MIL,Milwaukee,Jabari Parker,F,,28:41,2.0,2.0,4.0,12.0,18.0,6.0,20.0,38.0,0.0,2.0,3.0,3.0
0021501181,1610612749,MIL,Milwaukee,203507,Giannis Antetokounmpo,F,,26:35,113.1,129.3,-16.2,0.412,1.4,25.4,0.0,0.35,0.167,18.2,0.833,0.87,0.314,105.77,0.217,2016-04-08T00:00:00,4,MIL,Milwaukee,32-47,35,23,22,29,0,0,0,0,0,0,0,0,0,0,109,0.488,0.69,0.412,30,38,19,0021501181,1610612749,MIL,Milwaukee,Giannis Antetokounmpo,F,,26:35,3.0,0.0,5.0,6.0,18.0,6.0,16.0,36.0,1.0,1.0,5.0,6.0
0021501181,1610612749,MIL,Milwaukee,202328,Greg Monroe,C,,28:01,109.5,125.2,-15.8,0.182,1.33,27.1,0.095,0.333,0.205,20.3,0.667,0.644,0.156,105.98,0.086,2016-04-08T00:00:00,4,MIL,Milwaukee,32-47,35,23,22,29,0,0,0,0,0,0,0,0,0,0,109,0.488,0.69,0.412,30,38,19,0021501181,1610612749,MIL,Milwaukee,Greg Monroe,C,,28:01,2.0,2.0,0.0,6.0,16.0,6.0,18.0,36.0,0.0,1.0,3.0,5.0
0021501181,1610612749,MIL,Milwaukee,1626173,Rashad Vaughn,G,,40:22,98.5,115.2,-16.7,0.097,3.0,18.8,0.0,0.067,0.034,6.3,0.5,0.5,0.13,107.61,0.05,2016-04-08T00:00:00,4,MIL,Milwaukee,32-47,35,23,22,29,0,0,0,0,0,0,0,0,0,0,109,0.488,0.69,0.412,30,38,19,0021501181,1610612749,MIL,Milwaukee,Rashad Vaughn,G,,40:22,3.0,2.0,0.0,4.0,27.0,6.0,29.0,54.0,1.0,1.0,3.0,0.0
0021501181,1610612749,MIL,Milwaukee,203898,Tyler Ennis,G,,37:33,112.1,119.2,-7.1,0.333,3.67,41.1,0.071,0.16,0.113,11.2,0.273,0.353,0.169,108.43,0.062,2016-04-08T00:00:00,4,MIL,Milwaukee,32-47,35,23,22,29,0,0,0,0,0,0,0,0,0,0,109,0.488,0.69,0.412,30,38,19,0021501181,1610612749,MIL,Milwaukee,Tyler Ennis,G,,37:33,3.0,2.0,2.0,6.0,20.0,6.0,20.0,52.0,0.0,3.0,4.0,2.0
0021501181,1610612749,MIL,Milwaukee,203996,Damien Inglis,,,14:54,95.2,100.5,-5.3,0.083,1.0,20.0,0.0,0.083,0.043,20.0,0.0,0.0,0.112,108.82,-0.07,2016-04-08T00:00:00,4,MIL,Milwaukee,32-47,35,23,22,29,0,0,0,0,0,0,0,0,0,0,109,0.488,0.69,0.412,30,38,19,0021501181,1610612749,MIL,Milwaukee,Damien Inglis,,,14:54,0.0,0.0,0.0,0.0,9.0,0.0,3.0,22.0,0.0,0.0,3.0,0.0
0021501181,1610612749,MIL,Milwaukee,203101,Miles Plumlee,,,19:59,83.8,106.6,-22.7,0.111,0.5,7.3,0.063,0.235,0.152,14.7,0.75,0.752,0.259,111.4,0.22,2016-04-08T00:00:00,4,MIL,Milwaukee,32-47,35,23,22,29,0,0,0,0,0,0,0,0,0,0,109,0.488,0.69,0.412,30,38,19,0021501181,1610612749,MIL,Milwaukee,Miles Plumlee,,,19:59,2.0,2.0,3.0,10.0,16.0,0.0,11.0,34.0,0.0,1.0,1.0,3.0
0021501181,1610612749,MIL,Milwaukee,202349,Greivis Vasquez,,,15:11,69.5,118.2,-48.7,0.143,0.5,15.5,0.0,0.0,0.0,31.1,0.833,0.727,0.16,105.78,0.0,2016-04-08T00:00:00,4,MIL,Milwaukee,32-47,35,23,22,29,0,0,0,0,0,0,0,0,0,0,109,0.488,0.69,0.412,30,38,19,0021501181,1610612749,MIL,Milwaukee,Greivis Vasquez,,,15:11,0.0,0.0,0.0,2.0,12.0,0.0,9.0,30.0,0.0,0.0,2.0,1.0
0021501181,1610612749,MIL,Milwaukee,203089,John Henson,,,17:22,87.3,101.9,-14.6,0.083,1.0,11.3,0.0,0.286,0.143,11.3,0.333,0.363,0.192,108.3,0.062,2016-04-08T00:00:00,4,MIL,Milwaukee,32-47,35,23,22,29,0,0,0,0,0,0,0,0,0,0,109,0.488,0.69,0.412,30,38,19,0021501181,1610612749,MIL,Milwaukee,John Henson,,,17:22,0.0,0.0,0.0,4.0,11.0,0.0,11.0,30.0,3.0,0.0,2.0,2.0
0021501181,1610612749,MIL,Milwaukee,203948,Johnny O'Bryant III,,,11:22,78.0,124.4,-46.4,0.0,0.0,0.0,0.0,0.0,0.0,0.0,0.6,0.643,0.186,113.85,0.104,2016-04-08T00:00:00,4,MIL,Milwaukee,32-47,35,23,22,29,0,0,0,0,0,0,0,0,0,0,109,0.488,0.69,0.412,30,38,19,0021501181,1610612749,MIL,Milwaukee,Johnny O'Bryant III,,,11:22,0.0,0.0,0.0,4.0,13.0,0.0,8.0,18.0,0.0,0.0,1.0,1.0
0021501181,1610612749,MIL,Milwaukee,201573,Jerryd Bayless,,NWT - Hyperextended Right Knee          ,,,,,,,0.0,,,,,,,0.0,,,2016-04-08T00:00:00,4,MIL,Milwaukee,32-47,35,23,22,29,0,0,0,0,0,0,0,0,0,0,109,0.488,0.69,0.412,30,38,19,0021501181,1610612749,MIL,Milwaukee,Jerryd Bayless,,NWT - Hyperextended Right Knee          ,,,,,,,,,,,,,
0021501181,1610612749,MIL,Milwaukee,203114,Khris Middleton,,DNP - Coach's Decision                  ,,,,,,,0.0,,,,,,,0.0,,,2016-04-08T00:00:00,4,MIL,Milwaukee,32-47,35,23,22,29,0,0,0,0,0,0,0,0,0,0,109,0.488,0.69,0.412,30,38,19,0021501181,1610612749,MIL,Milwaukee,Khris Middleton,,DNP - Coach's Decision                  ,,,,,,,,,,,,,
0021501181,1610612738,BOS,Boston,203109,Jae Crowder,F,,14:15,130.2,118.9,11.3,0.0,0.0,0.0,0.0,0.167,0.083,0.0,0.357,0.489,0.297,101.46,0.03,2016-04-08T00:00:00,4,BOS,Boston,47-32,30,35,36,23,0,0,0,0,0,0,0,0,0,0,124,0.564,0.789,0.429,35,34,14,0021501181,1610612738,BOS,Boston,Jae Crowder,F,,14:15,0.0,0.0,2.0,2.0,0.0,4.0,4.0,16.0,0.0,0.0,3.0,3.0
0021501181,1610612738,BOS,Boston,101161,Amir Johnson,F,,15:13,122.0,128.4,-6.3,0.25,3.0,42.9,0.0,0.083,0.045,14.3,0.667,0.667,0.121,102.03,0.028,2016-04-08T00:00:00,4,BOS,Boston,47-32,30,35,36,23,0,0,0,0,0,0,0,0,0,0,124,0.564,0.789,0.429,35,34,14,0021501181,1610612738,BOS,Boston,Amir Johnson,F,,15:13,2.0,0.0,0.0,4.0,6.0,4.0,7.0,18.0,0.0,0.0,4.0,1.0
0021501181,1610612738,BOS,Boston,203096,Jared Sullinger,C,,19:23,134.3,122.2,12.1,0.25,0.0,18.9,0.0,0.333,0.179,0.0,0.625,0.582,0.316,96.58,0.148,2016-04-08T00:00:00,4,BOS,Boston,47-32,30,35,36,23,0,0,0,0,0,0,0,0,0,0,124,0.564,0.789,0.429,35,34,14,0021501181,1610612738,BOS,Boston,Jared Sullinger,C,,19:23,3.0,2.0,0.0,10.0,4.0,8.0,5.0,20.0,0.0,0.0,3.0,1.0
0021501181,1610612738,BOS,Boston,202340,Avery Bradley,G,,25:08,127.5,110.1,17.4,0.1,2.0,13.6,0.05,0.048,0.049,6.8,0.7,0.68,0.224,103.63,0.095,2016-04-08T00:00:00,4,BOS,Boston,47-32,30,35,36,23,0,0,0,0,0,0,0,0,0,0,124,0.564,0.789,0.429,35,34,14,0021501181,1610612738,BOS,Boston,Avery Bradley,G,,25:08,6.0,2.0,5.0,8.0,4.0,8.0,5.0,26.0,0.0,1.0,1.0,2.0
0021501181,1610612738,BOS,Boston,202738,Isaiah Thomas,G,,24:54,128.8,123.7,5.0,0.167,1.5,18.5,0.0,0.105,0.057,12.3,0.833,0.893,0.234,102.25,0.167,2016-04-08T00:00:00,4,BOS,Boston,47-32,30,35,36,23,0,0,0,0,0,0,0,0,0,0,124,0.564,0.789,0.429,35,34,14,0021501181,1610612738,BOS,Boston,Isaiah Thomas,G,,24:54,2.0,0.0,6.0,10.0,10.0,8.0,9.0,30.0,2.0,1.0,1.0,4.0
0021501181,1610612738,BOS,Boston,201973,Jonas Jerebko,,,21:32,104.6,88.6,16.0,0.214,3.0,33.8,0.125,0.294,0.212,11.3,0.5,0.615,0.116,112.39,0.146,2016-04-08T00:00:00,4,BOS,Boston,47-32,30,35,36,23,0,0,0,0,0,0,0,0,0,0,124,0.564,0.789,0.429,35,34,14,0021501181,1610612738,BOS,Boston,Jonas Jerebko,,,21:32,2.0,0.0,2.0,4.0,8.0,0.0,11.0,24.0,1.0,0.0,2.0,1.0
0021501181,1610612738,BOS,Boston,202323,Evan Turner,,,31:32,122.4,84.4,38.0,0.3,3.0,50.0,0.0,0.148,0.082,16.7,0.333,0.333,0.122,110.65,0.068,2016-04-08T00:00:00,4,BOS,Boston,47-32,30,35,36,23,0,0,0,0,0,0,0,0,0,0,124,0.564,0.789,0.429,35,34,14,0021501181,1610612738,BOS,Boston,Evan Turner,,,31:32,0.0,2.0,2.0,2.0,8.0,4.0,5.0,34.0,1.0,0.0,2.0,0.0
0021501181,1610612738,BOS,Boston,203935,Marcus Smart,,,27:05,118.4,76.1,42.3,0.346,4.5,61.0,0.0,0.048,0.026,13.6,0.0,0.532,0.092,114.07,0.12,2016-04-08T00:00:00,4,BOS,Boston,47-32,30,35,36,23,0,0,0,0,0,0,0,0,0,0,124,0.564,0.789,0.429,35,34,14,0021501181,1610612738,BOS,Boston,Marcus Smart,,,27:05,2.0,0.0,0.0,0.0,11.0,8.0,5.0,30.0,1.0,0.0,0.0,3.0
0021501181,1610612738,BOS,Boston,203482,Kelly Olynyk,,,22:36,117.0,72.0,45.0,0.063,1.0,9.9,0.0,0.368,0.2,9.9,1.1,0.99,0.171,112.86,0.25,2016-04-08T00:00:00,4,BOS,Boston,47-32,30,35,36,23,0,0,0,0,0,0,0,0,0,0,124,0.564,0.789,0.429,35,34,14,0021501181,1610612738,BOS,Boston,Kelly Olynyk,,,22:36,9.0,0.0,5.0,8.0,5.0,2.0,3.0,22.0,0.0,0.0,2.0,4.0
0021501181,1610612738,BOS,Boston,203092,Tyler Zeller,,,25:05,105.0,84.4,20.6,0.167,0.0,9.5,0.056,0.105,0.081,0.0,0.6,0.686,0.331,110.62,0.227,2016-04-08T00:00:00,4,BOS,Boston,47-32,30,35,36,23,0,0,0,0,0,0,0,0,0,0,124,0.564,0.789,0.429,35,34,14,0021501181,1610612738,BOS,Boston,Tyler Zeller,,,25:05,6.0,0.0,7.0,18.0,7.0,4.0,4.0,28.0,4.0,1.0,3.0,8.0
0021501181,1610612738,BOS,Boston,1626179,Terry Rozier,,,6:21,84.5,122.5,-38.0,0.0,0.0,0.0,0.0,0.0,0.0,40.0,0.667,0.667,0.329,115.35,0.0,2016-04-08T00:00:00,4,BOS,Boston,47-32,30,35,36,23,0,0,0,0,0,0,0,0,0,0,124,0.564,0.789,0.429,35,34,14,0021501181,1610612738,BOS,Boston,Terry Rozier,,,6:21,0.0,0.0,0.0,4.0,4.0,0.0,4.0,10.0,0.0,0.0,1.0,0.0
0021501181,1610612738,BOS,Boston,1626154,RJ Hunter,,,3:28,50.8,119.5,-68.7,0.0,0.0,0.0,0.0,0.0,0.0,100.0,0.0,0.0,0.113,129.88,-0.069,2016-04-08T00:00:00,4,BOS,Boston,47-32,30,35,36,23,0,0,0,0,0,0,0,0,0,0,124,0.564,0.789,0.429,35,34,14,0021501181,1610612738,BOS,Boston,RJ Hunter,,,3:28,0.0,0.0,0.0,0.0,4.0,0.0,4.0,6.0,0.0,0.0,0.0,0.0
0021501181,1610612738,BOS,Boston,1626175,Jordan Mickey,,,3:28,50.8,119.5,-68.7,0.0,0.0,0.0,0.0,0.0,0.0,0.0,0.0,0.0,0.225,129.88,-0.207,2016-04-08T00:00:00,4,BOS,Boston,47-32,30,35,36,23,0,0,0,0,0,0,0,0,0,0,124,0.564,0.789,0.429,35,34,14,0021501181,1610612738,BOS,Boston,Jordan Mickey,,,3:28,0.0,0.0,0.0,0.0,4.0,0.0,4.0,6.0,0.0,2.0,1.0,0.0
