GAME_ID_x,TEAM_ID_x,TEAM_ABBREVIATION_x,TEAM_CITY_x,PLAYER_ID,PLAYER_NAME_x,START_POSITION_x,COMMENT_x,MIN_x,OFF_RATING,DEF_RATING,NET_RATING,AST_PCT,AST_TOV,AST_RATIO,OREB_PCT,DREB_PCT,REB_PCT,TM_TOV_PCT,EFG_PCT,TS_PCT,USG_PCT,PACE,PIE,GAME_DATE_EST,GAME_SEQUENCE,TEAM_ABBREVIATION_y,TEAM_CITY_NAME,TEAM_WINS_LOSSES,PTS_QTR1,PTS_QTR2,PTS_QTR3,PTS_QTR4,PTS_OT1,PTS_OT2,PTS_OT3,PTS_OT4,PTS_OT5,PTS_OT6,PTS_OT7,PTS_OT8,PTS_OT9,PTS_OT10,PTS,FG_PCT,FT_PCT,FG3_PCT,AST,REB,TOV,GAME_ID_y,TEAM_ID_y,TEAM_ABBREVIATION,TEAM_CITY_y,PLAYER_NAME_y,START_POSITION_y,COMMENT_y,MIN_y,PTS_OFF_TOV,PTS_2ND_CHANCE,PTS_FB,PTS_PAINT,OPP_PTS_OFF_TOV,OPP_PTS_2ND_CHANCE,OPP_PTS_FB,OPP_PTS_PAINT,BLK,BLKA,PF,PFD
0021501179,1610612748,MIA,Miami,2207,Joe Johnson,F,,26:48,109.0,117.1,-8.1,0.053,0.5,6.3,0.032,0.0,0.021,12.5,0.5,0.5,0.214,100.57,0.034,2016-04-08T00:00:00,2,MIA,Miami,46-33,27,28,25,29,0,0,0,0,0,0,0,0,0,0,109,0.45,0.524,0.364,18,53,12,0021501179,1610612748,MIA,Miami,Joe Johnson,F,,26:48,2.0,4.0,3.0,10.0,10.0,3.0,14.0,38.0,0.0,0.0,2.0,1.0
0021501179,1610612748,MIA,Miami,2736,Luol Deng,F,,32:10,96.9,118.5,-21.6,0.042,1.0,11.1,0.091,0.292,0.175,11.1,0.714,0.714,0.101,99.05,0.123,2016-04-08T00:00:00,2,MIA,Miami,46-33,27,28,25,29,0,0,0,0,0,0,0,0,0,0,109,0.45,0.524,0.364,18,53,12,0021501179,1610612748,MIA,Miami,Luol Deng,F,,32:10,2.0,7.0,0.0,4.0,12.0,8.0,16.0,42.0,0.0,0.0,2.0,1.0
0021501179,1610612748,MIA,Miami,2405,Amar'e Stoudemire,C,,10:53,90.5,104.4,-13.8,0.0,0.0,0.0,0.154,0.25,0.19,25.0,0.667,0.667,0.155,90.33,0.071,2016-04-08T00:00:00,2,MIA,Miami,46-33,27,28,25,29,0,0,0,0,0,0,0,0,0,0,109,0.45,0.524,0.364,18,53,12,0021501179,1610612748,MIA,Miami,Amar'e Stoudemire,C,,10:53,2.0,0.0,0.0,4.0,4.0,0.0,9.0,14.0,0.0,1.0,3.0,0.0
0021501179,1610612748,MIA,Miami,2548,Dwyane Wade,G,,31:27,111.0,120.3,-9.2,0.217,1.67,17.4,0.031,0.0,0.019,10.4,0.368,0.409,0.298,99.6,0.055,2016-04-08T00:00:00,2,MIA,Miami,46-33,27,28,25,29,0,0,0,0,0,0,0,0,0,0,109,0.45,0.524,0.364,18,53,12,0021501179,1610612748,MIA,Miami,Dwyane Wade,G,,31:27,6.0,4.0,4.0,8.0,10.0,8.0,16.0,44.0,0.0,1.0,1.0,4.0
0021501179,1610612748,MIA,Miami,201609,Goran Dragic,G,,30:22,116.6,120.5,-3.9,0.25,1.5,22.3,0.128,0.167,0.14,14.9,0.406,0.444,0.259,99.38,0.095,2016-04-08T00:00:00,2,MIA,Miami,46-33,27,28,25,29,0,0,0,0,0,0,0,0,0,0,109,0.45,0.524,0.364,18,53,12,0021501179,1610612748,MIA,Miami,Goran Dragic,G,,30:22,0.0,6.0,0.0,6.0,8.0,3.0,15.0,38.0,0.0,3.0,2.0,3.0
0021501179,1610612748,MIA,Miami,1626196,Josh Richardson,,,32:42,108.1,106.4,1.7,0.154,4.0,22.5,0.111,0.036,0.078,5.6,0.455,0.509,0.163,99.87,0.099,2016-04-08T00:00:00,2,MIA,Miami,46-33,27,28,25,29,0,0,0,0,0,0,0,0,0,0,109,0.45,0.524,0.364,18,53,12,0021501179,1610612748,MIA,Miami,Josh Richardson,,,32:42,1.0,3.0,0.0,0.0,8.0,5.0,9.0,36.0,1.0,1.0,1.0,2.0
0021501179,1610612748,MIA,Miami,202355,Hassan Whiteside,,,28:08,118.6,107.8,10.8,0.0,0.0,0.0,0.2,0.375,0.271,0.0,0.5,0.431,0.206,101.04,0.108,2016-04-08T00:00:00,2,MIA,Miami,46-33,27,28,25,29,0,0,0,0,0,0,0,0,0,0,109,0.45,0.524,0.364,18,53,12,0021501179,1610612748,MIA,Miami,Hassan Whiteside,,,28:08,2.0,6.0,3.0,10.0,9.0,5.0,11.0,38.0,4.0,1.0,3.0,6.0
0021501179,1610612748,MIA,Miami,101123,Gerald Green,,,15:23,119.5,96.6,22.9,0.091,0.0,9.6,0.0,0.083,0.033,0.0,0.556,0.583,0.242,98.35,0.07,2016-04-08T00:00:00,2,MIA,Miami,46-33,27,28,25,29,0,0,0,0,0,0,0,0,0,0,109,0.45,0.524,0.364,18,53,12,0021501179,1610612748,MIA,Miami,Gerald Green,,,15:23,0.0,0.0,0.0,0.0,4.0,0.0,4.0,16.0,0.0,1.0,4.0,0.0
0021501179,1610612748,MIA,Miami,1626159,Justise Winslow,,,23:14,109.8,99.2,10.6,0.0,0.0,0.0,0.0,0.174,0.08,0.0,0.5,0.5,0.103,99.87,0.086,2016-04-08T00:00:00,2,MIA,Miami,46-33,27,28,25,29,0,0,0,0,0,0,0,0,0,0,109,0.45,0.524,0.364,18,53,12,0021501179,1610612748,MIA,Miami,Justise Winslow,,,23:14,0.0,0.0,2.0,6.0,5.0,5.0,6.0,26.0,0.0,1.0,3.0,0.0
0021501179,1610612748,MIA,Miami,2617,Udonis Haslem,,,8:53,114.6,140.5,-25.9,0.0,0.0,0.0,0.0,0.75,0.3,0.0,0.75,0.658,0.251,98.0,0.141,2016-04-08T00:00:00,2,MIA,Miami,46-33,27,28,25,29,0,0,0,0,0,0,0,0,0,0,109,0.45,0.524,0.364,18,53,12,0021501179,1610612748,MIA,Miami,Udonis Haslem,,,8:53,1.0,1.0,0.0,6.0,0.0,3.0,0.0,8.0,0.0,0.0,2.0,2.0
0021501179,1610612748,MIA,Miami,204020,Tyler Johnson,,DND - Left Shoulder Surgery             ,,,,,,,0.0,,,,,,,0.0,,,2016-04-08T00:00:00,2,MIA,Miami,46-33,27,28,25,29,0,0,0,0,0,0,0,0,0,0,109,0.45,0.524,0.364,18,53,12,0021501179,1610612748,MIA,Miami,Tyler Johnson,,DND - Left Shoulder Surgery             ,,,,,,,,,,,,,
0021501179,1610612748,MIA,Miami,201177,Josh McRoberts,,DNP - Coach's Decision                  ,,,,,,,0.0,,,,,,,0.0,,,2016-04-08T00:00:00,2,MIA,Miami,46-33,27,28,25,29,0,0,0,0,0,0,0,0,0,0,109,0.45,0.524,0.364,18,53,12,0021501179,1610612748,MIA,Miami,Josh McRoberts,,DNP - Coach's Decision                  ,,,,,,,,,,,,,
0021501179,1610612753,ORL,Orlando,203095,Evan Fournier,F,,46:13,114.2,106.0,8.2,0.2,2.33,24.5,0.029,0.111,0.08,10.5,0.667,0.753,0.211,99.48,0.16,2016-04-08T00:00:00,2,ORL,Orlando,34-45,19,34,26,33,0,0,0,0,0,0,0,0,0,0,112,0.524,0.75,0.455,23,37,10,0021501179,1610612753,ORL,Orlando,Evan Fournier,F,,46:13,5.0,3.0,7.0,6.0,16.0,31.0,12.0,52.0,0.0,1.0,5.0,8.0
0021501179,1610612753,ORL,Orlando,101141,Ersan Ilyasova,F,,24:00,91.9,108.4,-16.5,0.0,0.0,0.0,0.043,0.192,0.122,0.0,0.4,0.4,0.093,96.92,0.069,2016-04-08T00:00:00,2,ORL,Orlando,34-45,19,34,26,33,0,0,0,0,0,0,0,0,0,0,112,0.524,0.75,0.455,23,37,10,0021501179,1610612753,ORL,Orlando,Ersan Ilyasova,F,,24:00,0.0,0.0,2.0,4.0,10.0,15.0,9.0,24.0,0.0,0.0,1.0,1.0
0021501179,1610612753,ORL,Orlando,202696,Nikola Vucevic,C,,35:07,115.6,116.6,-1.1,0.05,1.0,4.1,0.12,0.081,0.097,4.1,0.6,0.64,0.304,98.32,0.171,2016-04-08T00:00:00,2,ORL,Orlando,34-45,19,34,26,33,0,0,0,0,0,0,0,0,0,0,112,0.524,0.75,0.455,23,37,10,0021501179,1610612753,ORL,Orlando,Nikola Vucevic,C,,35:07,4.0,2.0,0.0,20.0,15.0,26.0,12.0,46.0,2.0,1.0,3.0,5.0
0021501179,1610612753,ORL,Orlando,203506,Victor Oladipo,G,,28:09,108.5,107.4,1.1,0.053,1.0,7.1,0.045,0.107,0.08,7.1,0.542,0.542,0.206,99.48,0.094,2016-04-08T00:00:00,2,ORL,Orlando,34-45,19,34,26,33,0,0,0,0,0,0,0,0,0,0,112,0.524,0.75,0.455,23,37,10,0021501179,1610612753,ORL,Orlando,Victor Oladipo,G,,28:09,0.0,3.0,4.0,8.0,11.0,16.0,7.0,36.0,2.0,1.0,2.0,0.0
0021501179,1610612753,ORL,Orlando,203901,Elfrid Payton,G,,37:03,108.8,106.6,2.1,0.385,3.33,35.6,0.0,0.067,0.041,10.7,0.5,0.531,0.22,99.86,0.124,2016-04-08T00:00:00,2,ORL,Orlando,34-45,19,34,26,33,0,0,0,0,0,0,0,0,0,0,112,0.524,0.75,0.455,23,37,10,0021501179,1610612753,ORL,Orlando,Elfrid Payton,G,,37:03,5.0,0.0,7.0,12.0,16.0,29.0,12.0,40.0,0.0,2.0,2.0,5.0
0021501179,1610612753,ORL,Orlando,1626209,Mario Hezonja,,,22:57,131.2,120.7,10.5,0.167,3.0,27.3,0.0,0.182,0.111,9.1,0.643,0.643,0.168,97.13,0.11,2016-04-08T00:00:00,2,ORL,Orlando,34-45,19,34,26,33,0,0,0,0,0,0,0,0,0,0,112,0.524,0.75,0.455,23,37,10,0021501179,1610612753,ORL,Orlando,Mario Hezonja,,,22:57,0.0,0.0,0.0,2.0,3.0,11.0,3.0,24.0,0.0,0.0,1.0,1.0
0021501179,1610612753,ORL,Orlando,201160,Jason Smith,,,12:48,105.1,99.7,5.4,0.0,0.0,0.0,0.0,0.176,0.107,0.0,0.375,0.375,0.289,98.85,0.122,2016-04-08T00:00:00,2,ORL,Orlando,34-45,19,34,26,33,0,0,0,0,0,0,0,0,0,0,112,0.524,0.75,0.455,23,37,10,0021501179,1610612753,ORL,Orlando,Jason Smith,,,12:48,0.0,0.0,0.0,4.0,1.0,5.0,0.0,8.0,4.0,0.0,1.0,2.0
0021501179,1610612753,ORL,Orlando,201228,C.J. Watson,,,29:00,122.5,121.6,0.8,0.042,1.0,14.3,0.0,0.061,0.039,14.3,0.7,0.7,0.096,102.39,0.044,2016-04-08T00:00:00,2,ORL,Orlando,34-45,19,34,26,33,0,0,0,0,0,0,0,0,0,0,112,0.524,0.75,0.455,23,37,10,0021501179,1610612753,ORL,Orlando,C.J. Watson,,,29:00,0.0,0.0,0.0,4.0,8.0,20.0,5.0,36.0,1.0,0.0,2.0,1.0
0021501179,1610612753,ORL,Orlando,203906,Devyn Marble,,,4:43,111.1,53.0,58.1,0.0,0.0,0.0,0.0,0.25,0.167,0.0,0.0,0.0,0.1,103.25,0.0,2016-04-08T00:00:00,2,ORL,Orlando,34-45,19,34,26,33,0,0,0,0,0,0,0,0,0,0,112,0.524,0.75,0.455,23,37,10,0021501179,1610612753,ORL,Orlando,Devyn Marble,,,4:43,0.0,0.0,0.0,0.0,0.0,2.0,0.0,4.0,0.0,0.0,2.0,0.0
0021501179,1610612753,ORL,Orlando,203473,Dewayne Dedmon,,DNP - Coach's Decision                  ,,,,,,,0.0,,,,,,,0.0,,,2016-04-08T00:00:00,2,ORL,Orlando,34-45,19,34,26,33,0,0,0,0,0,0,0,0,0,0,112,0.524,0.75,0.455,23,37,10,0021501179,1610612753,ORL,Orlando,Dewayne Dedmon,,DNP - Coach's Decision                  ,,,,,,,,,,,,,
0021501179,1610612753,ORL,Orlando,201943,Brandon Jennings,,DNP - Coach's Decision                  ,,,,,,,0.0,,,,,,,0.0,,,2016-04-08T00:00:00,2,ORL,Orlando,34-45,19,34,26,33,0,0,0,0,0,0,0,0,0,0,112,0.524,0.75,0.455,23,37,10,0021501179,1610612753,ORL,Orlando,Brandon Jennings,,DNP - Coach's Decision                  ,,,,,,,,,,,,,
0021501179,1610612753,ORL,Orlando,203894,Shabazz Napier,,DNP - Coach's Decision                  ,,,,,,,0.0,,,,,,,0.0,,,2016-04-08T00:00:00,2,ORL,Orlando,34-45,19,34,26,33,0,0,0,0,0,0,0,0,0,0,112,0.524,0.75,0.455,23,37,10,0021501179,1610612753,ORL,Orlando,Shabazz Napier,,DNP - Coach's Decision                  ,,,,,,,,,,,,,
0021501179,1610612753,ORL,Orlando,203094,Andrew Nicholson,,DNP - Coach's Decision                  ,,,,,,,0.0,,,,,,,0.0,,,2016-04-08T00:00:00,2,ORL,Orlando,34-45,19,34,26,33,0,0,0,0,0,0,0,0,0,0,112,0.524,0.75,0.455,23,37,10,0021501179,1610612753,ORL,Orlando,Andrew Nicholson,,DNP - Coach's Decision                  ,,,,,,,,,,,,,
