GAME_ID_x,TEAM_ID_x,TEAM_ABBREVIATION_x,TEAM_CITY_x,PLAYER_ID,PLAYER_NAME_x,START_POSITION_x,COMMENT_x,MIN_x,OFF_RATING,DEF_RATING,NET_RATING,AST_PCT,AST_TOV,AST_RATIO,OREB_PCT,DREB_PCT,REB_PCT,TM_TOV_PCT,EFG_PCT,TS_PCT,USG_PCT,PACE,PIE,GAME_DATE_EST,GAME_SEQUENCE,TEAM_ABBREVIATION_y,TEAM_CITY_NAME,TEAM_WINS_LOSSES,PTS_QTR1,PTS_QTR2,PTS_QTR3,PTS_QTR4,PTS_OT1,PTS_OT2,PTS_OT3,PTS_OT4,PTS_OT5,PTS_OT6,PTS_OT7,PTS_OT8,PTS_OT9,PTS_OT10,PTS,FG_PCT,FT_PCT,FG3_PCT,AST,REB,TOV,GAME_ID_y,TEAM_ID_y,TEAM_ABBREVIATION,TEAM_CITY_y,PLAYER_NAME_y,START_POSITION_y,COMMENT_y,MIN_y,PTS_OFF_TOV,PTS_2ND_CHANCE,PTS_FB,PTS_PAINT,OPP_PTS_OFF_TOV,OPP_PTS_2ND_CHANCE,OPP_PTS_FB,OPP_PTS_PAINT,BLK,BLKA,PF,PFD
0021501199,1610612751,BKN,Brooklyn,202711,Bojan Bogdanovic,F,,28:54,98.2,127.5,-29.3,0.063,1.0,5.2,0.0,0.087,0.034,5.2,0.167,0.291,0.26,101.08,-0.008,2016-04-10T00:00:00,6,BKN,Brooklyn,21-59,19,22,31,33,0,0,0,0,0,0,0,0,0,0,105,0.385,0.808,0.378,24,36,15,0021501199,1610612751,BKN,Brooklyn,Bojan Bogdanovic,F,,28:54,3.0,0.0,0.0,2.0,11.0,4.0,11.0,42.0,0.0,1.0,1.0,2.0
0021501199,1610612751,BKN,Brooklyn,1626191,Chris McCullough,F,,12:43,66.0,159.1,-93.1,0.25,1.0,14.5,0.167,0.125,0.15,14.5,0.75,0.615,0.204,94.89,0.099,2016-04-10T00:00:00,6,BKN,Brooklyn,21-59,19,22,31,33,0,0,0,0,0,0,0,0,0,0,105,0.385,0.808,0.378,24,36,15,0021501199,1610612751,BKN,Brooklyn,Chris McCullough,F,,12:43,0.0,0.0,0.0,0.0,13.0,4.0,6.0,20.0,0.0,1.0,0.0,2.0
0021501199,1610612751,BKN,Brooklyn,203080,Thomas Robinson,C,,9:20,47.6,145.3,-97.7,0.0,0.0,0.0,0.083,0.2,0.118,50.0,0.5,0.5,0.182,107.07,-0.012,2016-04-10T00:00:00,6,BKN,Brooklyn,21-59,19,22,31,33,0,0,0,0,0,0,0,0,0,0,105,0.385,0.808,0.378,24,36,15,0021501199,1610612751,BKN,Brooklyn,Thomas Robinson,C,,9:20,0.0,2.0,2.0,2.0,6.0,0.0,4.0,14.0,0.0,0.0,1.0,0.0
0021501199,1610612751,BKN,Brooklyn,201961,Wayne Ellington,G,,24:44,96.7,130.9,-34.1,0.059,0.25,9.1,0.0,0.143,0.06,36.4,0.0,0.0,0.17,101.58,-0.047,2016-04-10T00:00:00,6,BKN,Brooklyn,21-59,19,22,31,33,0,0,0,0,0,0,0,0,0,0,105,0.385,0.808,0.378,24,36,15,0021501199,1610612751,BKN,Brooklyn,Wayne Ellington,G,,24:44,0.0,0.0,0.0,0.0,11.0,6.0,9.0,38.0,1.0,0.0,1.0,0.0
0021501199,1610612751,BKN,Brooklyn,203499,Shane Larkin,G,,35:15,107.4,125.3,-17.9,0.348,8.0,35.8,0.024,0.103,0.057,4.5,0.5,0.563,0.16,106.54,0.112,2016-04-10T00:00:00,6,BKN,Brooklyn,21-59,19,22,31,33,0,0,0,0,0,0,0,0,0,0,105,0.385,0.808,0.378,24,36,15,0021501199,1610612751,BKN,Brooklyn,Shane Larkin,G,,35:15,6.0,0.0,8.0,6.0,16.0,11.0,9.0,48.0,0.0,0.0,1.0,4.0
0021501199,1610612751,BKN,Brooklyn,203900,Markel Brown,,,33:56,109.4,115.0,-5.6,0.19,1.33,18.3,0.086,0.267,0.169,13.7,0.607,0.605,0.216,106.6,0.144,2016-04-10T00:00:00,6,BKN,Brooklyn,21-59,19,22,31,33,0,0,0,0,0,0,0,0,0,0,105,0.385,0.808,0.378,24,36,15,0021501199,1610612751,BKN,Brooklyn,Markel Brown,,,33:56,3.0,1.0,2.0,8.0,9.0,8.0,6.0,44.0,3.0,0.0,5.0,3.0
0021501199,1610612751,BKN,Brooklyn,203930,Sean Kilpatrick,,,28:23,99.8,107.9,-8.1,0.154,2.0,9.0,0.031,0.038,0.034,4.5,0.639,0.673,0.286,108.4,0.148,2016-04-10T00:00:00,6,BKN,Brooklyn,21-59,19,22,31,33,0,0,0,0,0,0,0,0,0,0,105,0.385,0.808,0.378,24,36,15,0021501199,1610612751,BKN,Brooklyn,Sean Kilpatrick,,,28:23,2.0,7.0,6.0,12.0,7.0,8.0,6.0,32.0,0.0,2.0,3.0,2.0
0021501199,1610612751,BKN,Brooklyn,203156,Henry Sims,,,18:53,102.3,142.0,-39.8,0.077,1.0,14.5,0.1,0.091,0.097,14.5,0.25,0.41,0.133,100.15,0.011,2016-04-10T00:00:00,6,BKN,Brooklyn,21-59,19,22,31,33,0,0,0,0,0,0,0,0,0,0,105,0.385,0.808,0.378,24,36,15,0021501199,1610612751,BKN,Brooklyn,Henry Sims,,,18:53,0.0,0.0,0.0,2.0,8.0,10.0,3.0,20.0,0.0,0.0,4.0,2.0
0021501199,1610612751,BKN,Brooklyn,202388,Donald Sloan,,,34:35,102.8,122.9,-20.1,0.238,0.0,24.2,0.0,0.107,0.044,0.0,0.577,0.607,0.184,107.76,0.101,2016-04-10T00:00:00,6,BKN,Brooklyn,21-59,19,22,31,33,0,0,0,0,0,0,0,0,0,0,105,0.385,0.808,0.378,24,36,15,0021501199,1610612751,BKN,Brooklyn,Donald Sloan,,,34:35,2.0,0.0,5.0,6.0,7.0,9.0,9.0,48.0,0.0,0.0,1.0,3.0
0021501199,1610612751,BKN,Brooklyn,203508,Sergey Karasev,,,13:17,98.4,99.1,-0.8,0.111,1.0,15.8,0.053,0.143,0.091,15.8,0.333,0.579,0.15,115.27,0.028,2016-04-10T00:00:00,6,BKN,Brooklyn,21-59,19,22,31,33,0,0,0,0,0,0,0,0,0,0,105,0.385,0.808,0.378,24,36,15,0021501199,1610612751,BKN,Brooklyn,Sergey Karasev,,,13:17,0.0,0.0,0.0,0.0,2.0,0.0,2.0,14.0,0.0,0.0,4.0,4.0
0021501199,1610612751,BKN,Brooklyn,1626178,Rondae Hollis-Jefferson,,DNP - Coach's Decision                  ,,,,,,,0.0,,,,,,,0.0,,,2016-04-10T00:00:00,6,BKN,Brooklyn,21-59,19,22,31,33,0,0,0,0,0,0,0,0,0,0,105,0.385,0.808,0.378,24,36,15,0021501199,1610612751,BKN,Brooklyn,Rondae Hollis-Jefferson,,DNP - Coach's Decision                  ,,,,,,,,,,,,,
0021501199,1610612751,BKN,Brooklyn,201572,Brook Lopez,,NWT - Rest                              ,,,,,,,0.0,,,,,,,0.0,,,2016-04-10T00:00:00,6,BKN,Brooklyn,21-59,19,22,31,33,0,0,0,0,0,0,0,0,0,0,105,0.385,0.808,0.378,24,36,15,0021501199,1610612751,BKN,Brooklyn,Brook Lopez,,NWT - Rest                              ,,,,,,,,,,,,,
0021501199,1610612754,IND,Indiana,202331,Paul George,F,,22:28,150.2,105.3,44.8,0.3,1.2,27.6,0.167,0.087,0.122,23.0,0.611,0.697,0.296,98.07,0.117,2016-04-10T00:00:00,6,IND,Indiana,43-37,39,30,35,25,0,0,0,0,0,0,0,0,0,0,129,0.558,0.815,0.407,34,58,20,0021501199,1610612754,IND,Indiana,Paul George,F,,22:28,5.0,3.0,2.0,4.0,7.0,5.0,10.0,14.0,0.0,0.0,3.0,4.0
0021501199,1610612754,IND,Indiana,202730,Lavoy Allen,F,,14:03,175.2,81.9,93.3,0.0,0.0,0.0,0.143,0.313,0.261,0.0,1.0,1.064,0.06,96.89,0.109,2016-04-10T00:00:00,6,IND,Indiana,43-37,39,30,35,25,0,0,0,0,0,0,0,0,0,0,129,0.558,0.815,0.407,34,58,20,0021501199,1610612754,IND,Indiana,Lavoy Allen,F,,14:03,0.0,0.0,0.0,2.0,3.0,5.0,2.0,6.0,0.0,0.0,2.0,1.0
0021501199,1610612754,IND,Indiana,101133,Ian Mahinmi,C,,21:36,146.4,98.6,47.8,0.071,1.0,7.3,0.133,0.174,0.158,7.3,0.7,0.68,0.255,98.53,0.162,2016-04-10T00:00:00,6,IND,Indiana,43-37,39,30,35,25,0,0,0,0,0,0,0,0,0,0,129,0.558,0.815,0.407,34,58,20,0021501199,1610612754,IND,Indiana,Ian Mahinmi,C,,21:36,4.0,5.0,0.0,14.0,10.0,5.0,12.0,12.0,0.0,0.0,1.0,2.0
0021501199,1610612754,IND,Indiana,101145,Monta Ellis,G,,21:41,147.9,109.4,38.4,0.143,0.0,37.5,0.059,0.0,0.026,0.0,0.6,0.6,0.098,100.5,0.049,2016-04-10T00:00:00,6,IND,Indiana,43-37,39,30,35,25,0,0,0,0,0,0,0,0,0,0,129,0.558,0.815,0.407,34,58,20,0021501199,1610612754,IND,Indiana,Monta Ellis,G,,21:41,0.0,0.0,0.0,0.0,10.0,5.0,12.0,14.0,0.0,0.0,3.0,2.0
0021501199,1610612754,IND,Indiana,201588,George Hill,G,,21:04,145.2,105.3,39.8,0.235,0.0,26.9,0.0,0.238,0.135,0.0,0.8,0.827,0.22,102.44,0.218,2016-04-10T00:00:00,6,IND,Indiana,43-37,39,30,35,25,0,0,0,0,0,0,0,0,0,0,129,0.558,0.815,0.407,34,58,20,0021501199,1610612754,IND,Indiana,George Hill,G,,21:04,4.0,0.0,4.0,4.0,7.0,5.0,12.0,14.0,0.0,1.0,0.0,1.0
0021501199,1610612754,IND,Indiana,201155,Rodney Stuckey,,,14:56,119.6,70.0,49.6,0.154,1.0,20.5,0.0,0.136,0.083,20.5,0.5,0.694,0.203,107.87,0.151,2016-04-10T00:00:00,6,IND,Indiana,43-37,39,30,35,25,0,0,0,0,0,0,0,0,0,0,129,0.558,0.815,0.407,34,58,20,0021501199,1610612754,IND,Indiana,Rodney Stuckey,,,14:56,0.0,0.0,0.0,4.0,3.0,3.0,4.0,8.0,0.0,0.0,2.0,2.0
0021501199,1610612754,IND,Indiana,101139,CJ Miles,,,15:51,115.0,82.9,32.1,0.083,0.0,12.5,0.0,0.091,0.054,0.0,0.786,0.786,0.173,115.08,0.145,2016-04-10T00:00:00,6,IND,Indiana,43-37,39,30,35,25,0,0,0,0,0,0,0,0,0,0,129,0.558,0.815,0.407,34,58,20,0021501199,1610612754,IND,Indiana,CJ Miles,,,15:51,0.0,0.0,0.0,0.0,3.0,3.0,8.0,10.0,1.0,0.0,2.0,0.0
0021501199,1610612754,IND,Indiana,203524,Solomon Hill,,,31:38,103.5,100.9,2.6,0.136,0.75,17.8,0.069,0.27,0.182,23.7,0.667,0.658,0.172,108.37,0.161,2016-04-10T00:00:00,6,IND,Indiana,43-37,39,30,35,25,0,0,0,0,0,0,0,0,0,0,129,0.558,0.815,0.407,34,58,20,0021501199,1610612754,IND,Indiana,Solomon Hill,,,31:38,0.0,2.0,2.0,12.0,13.0,5.0,19.0,30.0,0.0,1.0,0.0,1.0
0021501199,1610612754,IND,Indiana,201951,Ty Lawson,,,26:19,107.3,90.0,17.3,0.409,9.0,53.3,0.136,0.091,0.109,5.9,0.5,0.509,0.118,109.0,0.128,2016-04-10T00:00:00,6,IND,Indiana,43-37,39,30,35,25,0,0,0,0,0,0,0,0,0,0,129,0.558,0.815,0.407,34,58,20,0021501199,1610612754,IND,Indiana,Ty Lawson,,,26:19,2.0,0.0,0.0,6.0,6.0,5.0,11.0,24.0,0.0,0.0,3.0,3.0
0021501199,1610612754,IND,Indiana,1626167,Myles Turner,,,26:24,108.5,98.7,9.8,0.063,0.25,4.0,0.042,0.281,0.179,15.9,0.647,0.697,0.355,110.58,0.224,2016-04-10T00:00:00,6,IND,Indiana,43-37,39,30,35,25,0,0,0,0,0,0,0,0,0,0,129,0.558,0.815,0.407,34,58,20,0021501199,1610612754,IND,Indiana,Myles Turner,,,26:24,3.0,2.0,5.0,18.0,6.0,5.0,11.0,26.0,2.0,0.0,3.0,4.0
0021501199,1610612754,IND,Indiana,203922,Glenn Robinson III,,,12:00,95.4,121.9,-26.4,0.111,0.5,14.3,0.111,0.0,0.048,28.6,0.375,0.375,0.199,106.56,-0.055,2016-04-10T00:00:00,6,IND,Indiana,43-37,39,30,35,25,0,0,0,0,0,0,0,0,0,0,129,0.558,0.815,0.407,34,58,20,0021501199,1610612754,IND,Indiana,Glenn Robinson III,,,12:00,0.0,0.0,0.0,0.0,6.0,2.0,7.0,16.0,1.0,1.0,3.0,1.0
0021501199,1610612754,IND,Indiana,1626202,Joe Young,,,12:00,95.4,121.9,-26.4,0.3,3.0,37.5,0.0,0.083,0.048,12.5,0.0,0.0,0.166,106.56,-0.018,2016-04-10T00:00:00,6,IND,Indiana,43-37,39,30,35,25,0,0,0,0,0,0,0,0,0,0,129,0.558,0.815,0.407,34,58,20,0021501199,1610612754,IND,Indiana,Joe Young,,,12:00,0.0,0.0,0.0,0.0,6.0,2.0,7.0,16.0,0.0,1.0,0.0,0.0
0021501199,1610612754,IND,Indiana,201941,Jordan Hill,,DNP - Coach's Decision                  ,,,,,,,0.0,,,,,,,0.0,,,2016-04-10T00:00:00,6,IND,Indiana,43-37,39,30,35,25,0,0,0,0,0,0,0,0,0,0,129,0.558,0.815,0.407,34,58,20,0021501199,1610612754,IND,Indiana,Jordan Hill,,DNP - Coach's Decision                  ,,,,,,,,,,,,,
