GAME_ID_x,TEAM_ID_x,TEAM_ABBREVIATION_x,TEAM_CITY_x,PLAYER_ID,PLAYER_NAME_x,START_POSITION_x,COMMENT_x,MIN_x,OFF_RATING,DEF_RATING,NET_RATING,AST_PCT,AST_TOV,AST_RATIO,OREB_PCT,DREB_PCT,REB_PCT,TM_TOV_PCT,EFG_PCT,TS_PCT,USG_PCT,PACE,PIE,GAME_DATE_EST,GAME_SEQUENCE,TEAM_ABBREVIATION_y,TEAM_CITY_NAME,TEAM_WINS_LOSSES,PTS_QTR1,PTS_QTR2,PTS_QTR3,PTS_QTR4,PTS_OT1,PTS_OT2,PTS_OT3,PTS_OT4,PTS_OT5,PTS_OT6,PTS_OT7,PTS_OT8,PTS_OT9,PTS_OT10,PTS,FG_PCT,FT_PCT,FG3_PCT,AST,REB,TOV,GAME_ID_y,TEAM_ID_y,TEAM_ABBREVIATION,TEAM_CITY_y,PLAYER_NAME_y,START_POSITION_y,COMMENT_y,MIN_y,PTS_OFF_TOV,PTS_2ND_CHANCE,PTS_FB,PTS_PAINT,OPP_PTS_OFF_TOV,OPP_PTS_2ND_CHANCE,OPP_PTS_FB,OPP_PTS_PAINT,BLK,BLKA,PF,PFD
0021501202,1610612761,TOR,Toronto,1626181,Norman Powell,F,,20:43,108.7,98.7,10.0,0.063,0.0,14.3,0.0,0.063,0.029,0.0,0.167,0.167,0.154,87.35,-0.015,2016-04-10T00:00:00,9,TOR,Toronto,54-26,20,34,21,18,0,0,0,0,0,0,0,0,0,0,93,0.474,0.632,0.35,19,38,6,0021501202,1610612761,TOR,Toronto,Norman Powell,F,,20:43,0.0,0.0,0.0,2.0,0.0,8.0,2.0,16.0,0.0,1.0,1.0,1.0
0021501202,1610612761,TOR,Toronto,201574,Jason Thompson,F,,19:03,116.1,94.5,21.5,0.0,0.0,0.0,0.067,0.4,0.233,0.0,0.75,0.75,0.115,88.14,0.136,2016-04-10T00:00:00,9,TOR,Toronto,54-26,20,34,21,18,0,0,0,0,0,0,0,0,0,0,93,0.474,0.632,0.35,19,38,6,0021501202,1610612761,TOR,Toronto,Jason Thompson,F,,19:03,0.0,0.0,0.0,6.0,0.0,8.0,0.0,18.0,0.0,0.0,3.0,0.0
0021501202,1610612761,TOR,Toronto,202685,Jonas Valanciunas,C,,27:51,114.8,95.9,18.9,0.111,2.0,12.3,0.087,0.208,0.149,6.2,0.545,0.53,0.256,91.92,0.126,2016-04-10T00:00:00,9,TOR,Toronto,54-26,20,34,21,18,0,0,0,0,0,0,0,0,0,0,93,0.474,0.632,0.35,19,38,6,0021501202,1610612761,TOR,Toronto,Jonas Valanciunas,C,,27:51,0.0,5.0,0.0,12.0,2.0,10.0,5.0,30.0,3.0,1.0,3.0,4.0
0021501202,1610612761,TOR,Toronto,201942,DeMar DeRozan,G,,35:00,110.6,102.8,7.8,0.235,2.0,16.4,0.032,0.069,0.05,8.2,0.706,0.737,0.293,90.73,0.228,2016-04-10T00:00:00,9,TOR,Toronto,54-26,20,34,21,18,0,0,0,0,0,0,0,0,0,0,93,0.474,0.632,0.35,19,38,6,0021501202,1610612761,TOR,Toronto,DeMar DeRozan,G,,35:00,5.0,2.0,0.0,20.0,2.0,13.0,5.0,34.0,0.0,0.0,1.0,3.0
0021501202,1610612761,TOR,Toronto,200768,Kyle Lowry,G,,31:56,109.8,104.4,5.4,0.333,0.0,30.6,0.0,0.0,0.0,0.0,0.467,0.472,0.251,92.02,0.107,2016-04-10T00:00:00,9,TOR,Toronto,54-26,20,34,21,18,0,0,0,0,0,0,0,0,0,0,93,0.474,0.632,0.35,19,38,6,0021501202,1610612761,TOR,Toronto,Kyle Lowry,G,,31:56,3.0,0.0,0.0,0.0,2.0,11.0,5.0,34.0,1.0,0.0,2.0,2.0
0021501202,1610612761,TOR,Toronto,202335,Patrick Patterson,,,28:57,102.8,94.4,8.4,0.105,2.0,28.6,0.038,0.069,0.055,14.3,0.625,0.625,0.085,91.72,0.073,2016-04-10T00:00:00,9,TOR,Toronto,54-26,20,34,21,18,0,0,0,0,0,0,0,0,0,0,93,0.474,0.632,0.35,19,38,6,0021501202,1610612761,TOR,Toronto,Patrick Patterson,,,28:57,2.0,0.0,0.0,2.0,4.0,7.0,5.0,22.0,1.0,0.0,1.0,0.0
0021501202,1610612761,TOR,Toronto,202687,Bismack Biyombo,,,20:09,97.3,92.4,4.9,0.083,1.0,25.8,0.056,0.35,0.211,25.8,1.0,0.532,0.076,88.07,0.084,2016-04-10T00:00:00,9,TOR,Toronto,54-26,20,34,21,18,0,0,0,0,0,0,0,0,0,0,93,0.474,0.632,0.35,19,38,6,0021501202,1610612761,TOR,Toronto,Bismack Biyombo,,,20:09,0.0,0.0,0.0,0.0,2.0,5.0,0.0,10.0,0.0,0.0,3.0,1.0
0021501202,1610612761,TOR,Toronto,201960,DeMarre Carroll,,,17:21,103.1,77.6,25.5,0.091,0.0,17.0,0.0,0.263,0.156,0.0,0.375,0.512,0.152,87.98,0.172,2016-04-10T00:00:00,9,TOR,Toronto,54-26,20,34,21,18,0,0,0,0,0,0,0,0,0,0,93,0.474,0.632,0.35,19,38,6,0021501202,1610612761,TOR,Toronto,DeMarre Carroll,,,17:21,0.0,0.0,0.0,0.0,2.0,4.0,0.0,10.0,1.0,1.0,2.0,1.0
0021501202,1610612761,TOR,Toronto,202709,Cory Joseph,,,18:21,94.2,71.4,22.9,0.1,1.0,12.7,0.059,0.095,0.079,12.7,0.2,0.34,0.197,91.18,0.046,2016-04-10T00:00:00,9,TOR,Toronto,54-26,20,34,21,18,0,0,0,0,0,0,0,0,0,0,93,0.474,0.632,0.35,19,38,6,0021501202,1610612761,TOR,Toronto,Cory Joseph,,,18:21,0.0,2.0,0.0,0.0,2.0,5.0,0.0,8.0,0.0,0.0,1.0,2.0
0021501202,1610612761,TOR,Toronto,203082,Terrence Ross,,,20:40,113.3,95.8,17.5,0.0,0.0,0.0,0.0,0.048,0.028,0.0,0.5,0.528,0.295,91.04,0.069,2016-04-10T00:00:00,9,TOR,Toronto,54-26,20,34,21,18,0,0,0,0,0,0,0,0,0,0,93,0.474,0.632,0.35,19,38,6,0021501202,1610612761,TOR,Toronto,Terrence Ross,,,20:40,0.0,0.0,0.0,2.0,4.0,4.0,3.0,18.0,0.0,0.0,2.0,1.0
0021501202,1610612761,TOR,Toronto,203998,Bruno Caboclo,,DNP - Coach's Decision                  ,,,,,,,0.0,,,,,,,0.0,,,2016-04-10T00:00:00,9,TOR,Toronto,54-26,20,34,21,18,0,0,0,0,0,0,0,0,0,0,93,0.474,0.632,0.35,19,38,6,0021501202,1610612761,TOR,Toronto,Bruno Caboclo,,DNP - Coach's Decision                  ,,,,,,,,,,,,,
0021501202,1610612761,TOR,Toronto,201949,James Johnson,,DND - Rest                              ,,,,,,,0.0,,,,,,,0.0,,,2016-04-10T00:00:00,9,TOR,Toronto,54-26,20,34,21,18,0,0,0,0,0,0,0,0,0,0,93,0.474,0.632,0.35,19,38,6,0021501202,1610612761,TOR,Toronto,James Johnson,,DND - Rest                              ,,,,,,,,,,,,,
0021501202,1610612761,TOR,Toronto,203512,Lucas Nogueira,,DNP - Coach's Decision                  ,,,,,,,0.0,,,,,,,0.0,,,2016-04-10T00:00:00,9,TOR,Toronto,54-26,20,34,21,18,0,0,0,0,0,0,0,0,0,0,93,0.474,0.632,0.35,19,38,6,0021501202,1610612761,TOR,Toronto,Lucas Nogueira,,DNP - Coach's Decision                  ,,,,,,,,,,,,,
0021501202,1610612752,NYK,New York,2546,Carmelo Anthony,F,,24:41,104.3,115.4,-11.1,0.25,1.5,12.7,0.053,0.25,0.154,8.5,0.469,0.563,0.39,87.78,0.178,2016-04-10T00:00:00,9,NYK,New York,32-49,25,26,18,20,0,0,0,0,0,0,0,0,0,0,89,0.36,0.857,0.35,14,47,8,0021501202,1610612752,NYK,New York,Carmelo Anthony,F,,24:41,0.0,4.0,0.0,8.0,4.0,3.0,0.0,32.0,1.0,1.0,3.0,4.0
0021501202,1610612752,NYK,New York,202682,Derrick Williams,F,,22:42,97.8,105.3,-7.5,0.0,0.0,0.0,0.063,0.15,0.111,10.1,0.375,0.45,0.202,88.64,0.081,2016-04-10T00:00:00,9,NYK,New York,32-49,25,26,18,20,0,0,0,0,0,0,0,0,0,0,89,0.36,0.857,0.35,14,47,8,0021501202,1610612752,NYK,New York,Derrick Williams,F,,22:42,0.0,2.0,0.0,4.0,4.0,5.0,0.0,28.0,0.0,0.0,0.0,2.0
0021501202,1610612752,NYK,New York,201577,Robin Lopez,C,,27:54,105.9,115.6,-9.7,0.056,1.0,7.8,0.136,0.087,0.111,7.8,0.4,0.46,0.199,88.74,0.075,2016-04-10T00:00:00,9,NYK,New York,32-49,25,26,18,20,0,0,0,0,0,0,0,0,0,0,89,0.36,0.857,0.35,14,47,8,0021501202,1610612752,NYK,New York,Robin Lopez,C,,27:54,0.0,4.0,2.0,8.0,4.0,3.0,0.0,34.0,1.0,1.0,0.0,1.0
0021501202,1610612752,NYK,New York,1626170,Jerian Grant,G,,38:23,97.7,112.4,-14.8,0.05,1.0,4.8,0.03,0.061,0.045,4.8,0.469,0.51,0.224,91.96,0.101,2016-04-10T00:00:00,9,NYK,New York,32-49,25,26,18,20,0,0,0,0,0,0,0,0,0,0,89,0.36,0.857,0.35,14,47,8,0021501202,1610612752,NYK,New York,Jerian Grant,G,,38:23,2.0,2.0,3.0,12.0,8.0,7.0,0.0,42.0,0.0,1.0,1.0,5.0
0021501202,1610612752,NYK,New York,2756,Sasha Vujacic,G,,35:10,94.0,100.1,-6.2,0.059,0.0,7.8,0.0,0.25,0.125,0.0,0.5,0.547,0.154,88.69,0.142,2016-04-10T00:00:00,9,NYK,New York,32-49,25,26,18,20,0,0,0,0,0,0,0,0,0,0,89,0.36,0.857,0.35,14,47,8,0021501202,1610612752,NYK,New York,Sasha Vujacic,G,,35:10,0.0,0.0,0.0,0.0,8.0,9.0,0.0,30.0,1.0,1.0,3.0,2.0
0021501202,1610612752,NYK,New York,203124,Kyle O'Quinn,,,20:06,79.2,97.2,-18.0,0.429,3.0,18.4,0.227,0.278,0.25,6.1,0.273,0.325,0.281,92.47,0.143,2016-04-10T00:00:00,9,NYK,New York,32-49,25,26,18,20,0,0,0,0,0,0,0,0,0,0,89,0.36,0.857,0.35,14,47,8,0021501202,1610612752,NYK,New York,Kyle O'Quinn,,,20:06,2.0,1.0,0.0,6.0,6.0,6.0,0.0,10.0,0.0,1.0,3.0,3.0
0021501202,1610612752,NYK,New York,201167,Arron Afflalo,,,22:57,95.3,116.4,-21.1,0.071,0.0,50.0,0.0,0.176,0.075,0.0,0.0,0.0,0.021,85.21,0.039,2016-04-10T00:00:00,9,NYK,New York,32-49,25,26,18,20,0,0,0,0,0,0,0,0,0,0,89,0.36,0.857,0.35,14,47,8,0021501202,1610612752,NYK,New York,Arron Afflalo,,,22:57,0.0,0.0,0.0,0.0,2.0,4.0,0.0,16.0,0.0,0.0,0.0,0.0
0021501202,1610612752,NYK,New York,203921,Cleanthony Early,,,20:54,82.9,94.8,-11.8,0.0,0.0,0.0,0.042,0.2,0.114,14.3,0.25,0.25,0.142,94.67,0.01,2016-04-10T00:00:00,9,NYK,New York,32-49,25,26,18,20,0,0,0,0,0,0,0,0,0,0,89,0.36,0.857,0.35,14,47,8,0021501202,1610612752,NYK,New York,Cleanthony Early,,,20:54,0.0,0.0,0.0,0.0,6.0,4.0,0.0,8.0,0.0,1.0,2.0,2.0
0021501202,1610612752,NYK,New York,204038,Langston Galloway,,,27:13,88.0,109.0,-21.0,0.25,4.0,26.7,0.034,0.091,0.059,6.7,0.35,0.35,0.17,94.64,0.03,2016-04-10T00:00:00,9,NYK,New York,32-49,25,26,18,20,0,0,0,0,0,0,0,0,0,0,89,0.36,0.857,0.35,14,47,8,0021501202,1610612752,NYK,New York,Langston Galloway,,,27:13,0.0,2.0,0.0,2.0,8.0,4.0,0.0,20.0,0.0,0.0,3.0,0.0
0021501202,1610612752,NYK,New York,200811,Lou Amundson,,DNP - Coach's Decision                  ,,,,,,,0.0,,,,,,,0.0,,,2016-04-10T00:00:00,9,NYK,New York,32-49,25,26,18,20,0,0,0,0,0,0,0,0,0,0,89,0.36,0.857,0.35,14,47,8,0021501202,1610612752,NYK,New York,Lou Amundson,,DNP - Coach's Decision                  ,,,,,,,,,,,,,
0021501202,1610612752,NYK,New York,204001,Kristaps Porzingis,,DND - Strained Right Shoulder           ,,,,,,,0.0,,,,,,,0.0,,,2016-04-10T00:00:00,9,NYK,New York,32-49,25,26,18,20,0,0,0,0,0,0,0,0,0,0,89,0.36,0.857,0.35,14,47,8,0021501202,1610612752,NYK,New York,Kristaps Porzingis,,DND - Strained Right Shoulder           ,,,,,,,,,,,,,
0021501202,1610612752,NYK,New York,202338,Kevin Seraphin,,DNP - Coach's Decision                  ,,,,,,,0.0,,,,,,,0.0,,,2016-04-10T00:00:00,9,NYK,New York,32-49,25,26,18,20,0,0,0,0,0,0,0,0,0,0,89,0.36,0.857,0.35,14,47,8,0021501202,1610612752,NYK,New York,Kevin Seraphin,,DNP - Coach's Decision                  ,,,,,,,,,,,,,
