GAME_ID_x,TEAM_ID_x,TEAM_ABBREVIATION_x,TEAM_CITY_x,PLAYER_ID,PLAYER_NAME_x,START_POSITION_x,COMMENT_x,MIN_x,OFF_RATING,DEF_RATING,NET_RATING,AST_PCT,AST_TOV,AST_RATIO,OREB_PCT,DREB_PCT,REB_PCT,TM_TOV_PCT,EFG_PCT,TS_PCT,USG_PCT,PACE,PIE,GAME_DATE_EST,GAME_SEQUENCE,TEAM_ID_y,TEAM_ABBREVIATION_y,TEAM_CITY_NAME,TEAM_WINS_LOSSES,PTS_QTR1,PTS_QTR2,PTS_QTR3,PTS_QTR4,PTS_OT1,PTS_OT2,PTS_OT3,PTS_OT4,PTS_OT5,PTS_OT6,PTS_OT7,PTS_OT8,PTS_OT9,PTS_OT10,PTS,FG_PCT,FT_PCT,FG3_PCT,AST,REB,TOV,GAME_ID_y,TEAM_ID,TEAM_ABBREVIATION,TEAM_CITY_y,PLAYER_NAME_y,START_POSITION_y,COMMENT_y,MIN_y,PTS_OFF_TOV,PTS_2ND_CHANCE,PTS_FB,PTS_PAINT,OPP_PTS_OFF_TOV,OPP_PTS_2ND_CHANCE,OPP_PTS_FB,OPP_PTS_PAINT,BLK,BLKA,PF,PFD
0021301060,1610612752,NYK,New York,2546,Carmelo Anthony,F,,38:15,106.2,123.6,-17.4,0.143,1.0,9.8,0.0,0.321,0.15,9.8,0.5,0.591,0.331,98.21,0.151,2014-03-25T00:00:00,4,1610612752,NYK,New York,29-42,22,20,31,23,0,0,0,0,0,0,0,0,0,0,96,0.486,0.741,0.267,23,32,15,0021301060,1610612752,NYK,New York,Carmelo Anthony,F,,38:15,2.0,2.0,0.0,4.0,12.0,11.0,8.0,34.0,1.0,0.0,3.0,6.0
0021301060,1610612752,NYK,New York,2546,Carmelo Anthony,F,,38:15,106.2,123.6,-17.4,0.143,1.0,9.8,0.0,0.321,0.15,9.8,0.5,0.591,0.331,98.21,0.151,2014-03-25T00:00:00,4,1610612747,LAL,Los Angeles,24-46,14,36,51,26,0,0,0,0,0,0,0,0,0,0,127,0.578,0.867,0.643,32,38,16,0021301060,1610612752,NYK,New York,Carmelo Anthony,F,,38:15,2.0,2.0,0.0,4.0,12.0,11.0,8.0,34.0,1.0,0.0,3.0,6.0
0021301060,1610612752,NYK,New York,2405,Amar'e Stoudemire,F,,27:24,93.5,143.6,-50.1,0.0,0.0,0.0,0.087,0.0,0.049,6.3,0.5,0.538,0.271,97.16,0.058,2014-03-25T00:00:00,4,1610612752,NYK,New York,29-42,22,20,31,23,0,0,0,0,0,0,0,0,0,0,96,0.486,0.741,0.267,23,32,15,0021301060,1610612752,NYK,New York,Amar'e Stoudemire,F,,27:24,2.0,0.0,0.0,12.0,13.0,8.0,4.0,28.0,1.0,1.0,2.0,4.0
0021301060,1610612752,NYK,New York,2405,Amar'e Stoudemire,F,,27:24,93.5,143.6,-50.1,0.0,0.0,0.0,0.087,0.0,0.049,6.3,0.5,0.538,0.271,97.16,0.058,2014-03-25T00:00:00,4,1610612747,LAL,Los Angeles,24-46,14,36,51,26,0,0,0,0,0,0,0,0,0,0,127,0.578,0.867,0.643,32,38,16,0021301060,1610612752,NYK,New York,Amar'e Stoudemire,F,,27:24,2.0,0.0,0.0,12.0,13.0,8.0,4.0,28.0,1.0,1.0,2.0,4.0
0021301060,1610612752,NYK,New York,2199,Tyson Chandler,C,,28:43,95.5,103.1,-7.6,0.143,0.67,15.5,0.037,0.167,0.098,23.3,0.714,0.761,0.177,95.01,0.125,2014-03-25T00:00:00,4,1610612752,NYK,New York,29-42,22,20,31,23,0,0,0,0,0,0,0,0,0,0,96,0.486,0.741,0.267,23,32,15,0021301060,1610612752,NYK,New York,Tyson Chandler,C,,28:43,2.0,6.0,2.0,8.0,10.0,8.0,6.0,24.0,1.0,0.0,2.0,2.0
0021301060,1610612752,NYK,New York,2199,Tyson Chandler,C,,28:43,95.5,103.1,-7.6,0.143,0.67,15.5,0.037,0.167,0.098,23.3,0.714,0.761,0.177,95.01,0.125,2014-03-25T00:00:00,4,1610612747,LAL,Los Angeles,24-46,14,36,51,26,0,0,0,0,0,0,0,0,0,0,127,0.578,0.867,0.643,32,38,16,0021301060,1610612752,NYK,New York,Tyson Chandler,C,,28:43,2.0,6.0,2.0,8.0,10.0,8.0,6.0,24.0,1.0,0.0,2.0,2.0
0021301060,1610612752,NYK,New York,2747,JR Smith,G,,29:01,101.2,121.6,-20.4,0.15,1.5,23.5,0.08,0.105,0.091,15.7,0.75,0.773,0.154,97.17,0.105,2014-03-25T00:00:00,4,1610612752,NYK,New York,29-42,22,20,31,23,0,0,0,0,0,0,0,0,0,0,96,0.486,0.741,0.267,23,32,15,0021301060,1610612752,NYK,New York,JR Smith,G,,29:01,0.0,3.0,1.0,4.0,10.0,7.0,6.0,28.0,1.0,0.0,0.0,2.0
0021301060,1610612752,NYK,New York,2747,JR Smith,G,,29:01,101.2,121.6,-20.4,0.15,1.5,23.5,0.08,0.105,0.091,15.7,0.75,0.773,0.154,97.17,0.105,2014-03-25T00:00:00,4,1610612747,LAL,Los Angeles,24-46,14,36,51,26,0,0,0,0,0,0,0,0,0,0,127,0.578,0.867,0.643,32,38,16,0021301060,1610612752,NYK,New York,JR Smith,G,,29:01,0.0,3.0,1.0,4.0,10.0,7.0,6.0,28.0,1.0,0.0,0.0,2.0
0021301060,1610612752,NYK,New York,101109,Raymond Felton,G,,20:13,83.2,96.9,-13.6,0.545,6.0,40.3,0.053,0.188,0.114,6.7,0.429,0.381,0.203,97.3,0.121,2014-03-25T00:00:00,4,1610612752,NYK,New York,29-42,22,20,31,23,0,0,0,0,0,0,0,0,0,0,96,0.486,0.741,0.267,23,32,15,0021301060,1610612752,NYK,New York,Raymond Felton,G,,20:13,2.0,0.0,4.0,4.0,10.0,5.0,4.0,18.0,0.0,0.0,2.0,1.0
0021301060,1610612752,NYK,New York,101109,Raymond Felton,G,,20:13,83.2,96.9,-13.6,0.545,6.0,40.3,0.053,0.188,0.114,6.7,0.429,0.381,0.203,97.3,0.121,2014-03-25T00:00:00,4,1610612747,LAL,Los Angeles,24-46,14,36,51,26,0,0,0,0,0,0,0,0,0,0,127,0.578,0.867,0.643,32,38,16,0021301060,1610612752,NYK,New York,Raymond Felton,G,,20:13,2.0,0.0,4.0,4.0,10.0,5.0,4.0,18.0,0.0,0.0,2.0,1.0
0021301060,1610612752,NYK,New York,202697,Iman Shumpert,,,19:26,111.7,135.5,-23.8,0.0,0.0,0.0,0.056,0.077,0.065,14.3,0.0,0.0,0.168,98.4,-0.038,2014-03-25T00:00:00,4,1610612752,NYK,New York,29-42,22,20,31,23,0,0,0,0,0,0,0,0,0,0,96,0.486,0.741,0.267,23,32,15,0021301060,1610612752,NYK,New York,Iman Shumpert,,,19:26,0.0,0.0,0.0,0.0,7.0,6.0,6.0,16.0,0.0,1.0,0.0,1.0
0021301060,1610612752,NYK,New York,202697,Iman Shumpert,,,19:26,111.7,135.5,-23.8,0.0,0.0,0.0,0.056,0.077,0.065,14.3,0.0,0.0,0.168,98.4,-0.038,2014-03-25T00:00:00,4,1610612747,LAL,Los Angeles,24-46,14,36,51,26,0,0,0,0,0,0,0,0,0,0,127,0.578,0.867,0.643,32,38,16,0021301060,1610612752,NYK,New York,Iman Shumpert,,,19:26,0.0,0.0,0.0,0.0,7.0,6.0,6.0,16.0,0.0,1.0,0.0,1.0
0021301060,1610612752,NYK,New York,203143,Pablo Prigioni,,,21:30,121.6,157.0,-35.4,0.263,0.0,83.3,0.0,0.077,0.033,0.0,0.0,0.0,0.021,97.74,0.052,2014-03-25T00:00:00,4,1610612752,NYK,New York,29-42,22,20,31,23,0,0,0,0,0,0,0,0,0,0,96,0.486,0.741,0.267,23,32,15,0021301060,1610612752,NYK,New York,Pablo Prigioni,,,21:30,0.0,0.0,0.0,0.0,5.0,6.0,4.0,18.0,0.0,0.0,0.0,1.0
0021301060,1610612752,NYK,New York,203143,Pablo Prigioni,,,21:30,121.6,157.0,-35.4,0.263,0.0,83.3,0.0,0.077,0.033,0.0,0.0,0.0,0.021,97.74,0.052,2014-03-25T00:00:00,4,1610612747,LAL,Los Angeles,24-46,14,36,51,26,0,0,0,0,0,0,0,0,0,0,127,0.578,0.867,0.643,32,38,16,0021301060,1610612752,NYK,New York,Pablo Prigioni,,,21:30,0.0,0.0,0.0,0.0,5.0,6.0,4.0,18.0,0.0,0.0,0.0,1.0
0021301060,1610612752,NYK,New York,203501,Tim Hardaway Jr.,,,24:04,119.6,150.2,-30.5,0.188,3.0,21.3,0.0,0.071,0.036,7.1,0.857,0.843,0.215,97.49,0.1,2014-03-25T00:00:00,4,1610612752,NYK,New York,29-42,22,20,31,23,0,0,0,0,0,0,0,0,0,0,96,0.486,0.741,0.267,23,32,15,0021301060,1610612752,NYK,New York,Tim Hardaway Jr.,,,24:04,5.0,0.0,2.0,4.0,12.0,8.0,2.0,16.0,0.0,0.0,5.0,5.0
0021301060,1610612752,NYK,New York,203501,Tim Hardaway Jr.,,,24:04,119.6,150.2,-30.5,0.188,3.0,21.3,0.0,0.071,0.036,7.1,0.857,0.843,0.215,97.49,0.1,2014-03-25T00:00:00,4,1610612747,LAL,Los Angeles,24-46,14,36,51,26,0,0,0,0,0,0,0,0,0,0,127,0.578,0.867,0.643,32,38,16,0021301060,1610612752,NYK,New York,Tim Hardaway Jr.,,,24:04,5.0,0.0,2.0,4.0,12.0,8.0,2.0,16.0,0.0,0.0,5.0,5.0
0021301060,1610612752,NYK,New York,202332,Cole Aldrich,,,10:55,91.2,143.4,-52.2,0.0,0.0,0.0,0.143,0.2,0.167,33.3,0.5,0.5,0.145,90.05,0.032,2014-03-25T00:00:00,4,1610612752,NYK,New York,29-42,22,20,31,23,0,0,0,0,0,0,0,0,0,0,96,0.486,0.741,0.267,23,32,15,0021301060,1610612752,NYK,New York,Cole Aldrich,,,10:55,0.0,2.0,0.0,2.0,10.0,4.0,0.0,6.0,0.0,0.0,1.0,0.0
0021301060,1610612752,NYK,New York,202332,Cole Aldrich,,,10:55,91.2,143.4,-52.2,0.0,0.0,0.0,0.143,0.2,0.167,33.3,0.5,0.5,0.145,90.05,0.032,2014-03-25T00:00:00,4,1610612747,LAL,Los Angeles,24-46,14,36,51,26,0,0,0,0,0,0,0,0,0,0,127,0.578,0.867,0.643,32,38,16,0021301060,1610612752,NYK,New York,Cole Aldrich,,,10:55,0.0,2.0,0.0,2.0,10.0,4.0,0.0,6.0,0.0,0.0,1.0,0.0
0021301060,1610612752,NYK,New York,202719,Jeremy Tyler,,,7:19,88.0,118.7,-30.7,0.25,0.5,25.8,0.0,0.5,0.286,51.5,0.0,0.0,0.197,91.71,-0.095,2014-03-25T00:00:00,4,1610612752,NYK,New York,29-42,22,20,31,23,0,0,0,0,0,0,0,0,0,0,96,0.486,0.741,0.267,23,32,15,0021301060,1610612752,NYK,New York,Jeremy Tyler,,,7:19,0.0,0.0,0.0,0.0,7.0,4.0,0.0,4.0,0.0,0.0,1.0,1.0
0021301060,1610612752,NYK,New York,202719,Jeremy Tyler,,,7:19,88.0,118.7,-30.7,0.25,0.5,25.8,0.0,0.5,0.286,51.5,0.0,0.0,0.197,91.71,-0.095,2014-03-25T00:00:00,4,1610612747,LAL,Los Angeles,24-46,14,36,51,26,0,0,0,0,0,0,0,0,0,0,127,0.578,0.867,0.643,32,38,16,0021301060,1610612752,NYK,New York,Jeremy Tyler,,,7:19,0.0,0.0,0.0,0.0,7.0,4.0,0.0,4.0,0.0,0.0,1.0,1.0
0021301060,1610612752,NYK,New York,200769,Shannon Brown,,,6:53,85.9,127.6,-41.7,0.0,0.0,0.0,0.0,0.0,0.0,0.0,1.0,1.0,0.079,87.03,0.1,2014-03-25T00:00:00,4,1610612752,NYK,New York,29-42,22,20,31,23,0,0,0,0,0,0,0,0,0,0,96,0.486,0.741,0.267,23,32,15,0021301060,1610612752,NYK,New York,Shannon Brown,,,6:53,0.0,0.0,0.0,0.0,7.0,4.0,0.0,4.0,0.0,0.0,0.0,0.0
0021301060,1610612752,NYK,New York,200769,Shannon Brown,,,6:53,85.9,127.6,-41.7,0.0,0.0,0.0,0.0,0.0,0.0,0.0,1.0,1.0,0.079,87.03,0.1,2014-03-25T00:00:00,4,1610612747,LAL,Los Angeles,24-46,14,36,51,26,0,0,0,0,0,0,0,0,0,0,127,0.578,0.867,0.643,32,38,16,0021301060,1610612752,NYK,New York,Shannon Brown,,,6:53,0.0,0.0,0.0,0.0,7.0,4.0,0.0,4.0,0.0,0.0,0.0,0.0
0021301060,1610612752,NYK,New York,203315,Toure' Murry,,,6:17,94.0,138.0,-44.0,0.0,0.0,0.0,0.0,0.0,0.0,0.0,0.0,0.0,0.172,87.7,-0.091,2014-03-25T00:00:00,4,1610612752,NYK,New York,29-42,22,20,31,23,0,0,0,0,0,0,0,0,0,0,96,0.486,0.741,0.267,23,32,15,0021301060,1610612752,NYK,New York,Toure' Murry,,,6:17,0.0,0.0,0.0,0.0,7.0,4.0,0.0,4.0,0.0,0.0,0.0,0.0
0021301060,1610612752,NYK,New York,203315,Toure' Murry,,,6:17,94.0,138.0,-44.0,0.0,0.0,0.0,0.0,0.0,0.0,0.0,0.0,0.0,0.172,87.7,-0.091,2014-03-25T00:00:00,4,1610612747,LAL,Los Angeles,24-46,14,36,51,26,0,0,0,0,0,0,0,0,0,0,127,0.578,0.867,0.643,32,38,16,0021301060,1610612752,NYK,New York,Toure' Murry,,,6:17,0.0,0.0,0.0,0.0,7.0,4.0,0.0,4.0,0.0,0.0,0.0,0.0
0021301060,1610612747,LAL,Los Angeles,202325,Wesley Johnson,F,,15:14,125.9,102.6,23.3,0.0,0.0,0.0,0.0,0.118,0.069,0.0,0.333,0.333,0.084,97.62,0.0,2014-03-25T00:00:00,4,1610612752,NYK,New York,29-42,22,20,31,23,0,0,0,0,0,0,0,0,0,0,96,0.486,0.741,0.267,23,32,15,0021301060,1610612747,LAL,Los Angeles,Wesley Johnson,F,,15:14,0.0,0.0,0.0,2.0,3.0,5.0,3.0,8.0,0.0,0.0,2.0,0.0
0021301060,1610612747,LAL,Los Angeles,202325,Wesley Johnson,F,,15:14,125.9,102.6,23.3,0.0,0.0,0.0,0.0,0.118,0.069,0.0,0.333,0.333,0.084,97.62,0.0,2014-03-25T00:00:00,4,1610612747,LAL,Los Angeles,24-46,14,36,51,26,0,0,0,0,0,0,0,0,0,0,127,0.578,0.867,0.643,32,38,16,0021301060,1610612747,LAL,Los Angeles,Wesley Johnson,F,,15:14,0.0,0.0,0.0,2.0,3.0,5.0,3.0,8.0,0.0,0.0,2.0,0.0
0021301060,1610612747,LAL,Los Angeles,201941,Jordan Hill,F,,14:02,106.4,78.5,27.9,0.0,0.0,0.0,0.077,0.235,0.167,18.4,1.0,1.014,0.179,90.78,0.189,2014-03-25T00:00:00,4,1610612752,NYK,New York,29-42,22,20,31,23,0,0,0,0,0,0,0,0,0,0,96,0.486,0.741,0.267,23,32,15,0021301060,1610612747,LAL,Los Angeles,Jordan Hill,F,,14:02,0.0,5.0,2.0,8.0,0.0,5.0,2.0,6.0,0.0,0.0,4.0,1.0
0021301060,1610612747,LAL,Los Angeles,201941,Jordan Hill,F,,14:02,106.4,78.5,27.9,0.0,0.0,0.0,0.077,0.235,0.167,18.4,1.0,1.014,0.179,90.78,0.189,2014-03-25T00:00:00,4,1610612747,LAL,Los Angeles,24-46,14,36,51,26,0,0,0,0,0,0,0,0,0,0,127,0.578,0.867,0.643,32,38,16,0021301060,1610612747,LAL,Los Angeles,Jordan Hill,F,,14:02,0.0,5.0,2.0,8.0,0.0,5.0,2.0,6.0,0.0,0.0,4.0,1.0
0021301060,1610612747,LAL,Los Angeles,2549,Chris Kaman,C,,22:40,115.5,104.8,10.7,0.176,1.5,18.4,0.235,0.217,0.225,12.3,0.5,0.574,0.257,96.99,0.137,2014-03-25T00:00:00,4,1610612752,NYK,New York,29-42,22,20,31,23,0,0,0,0,0,0,0,0,0,0,96,0.486,0.741,0.267,23,32,15,0021301060,1610612747,LAL,Los Angeles,Chris Kaman,C,,22:40,2.0,2.0,0.0,6.0,7.0,7.0,7.0,16.0,1.0,1.0,3.0,2.0
0021301060,1610612747,LAL,Los Angeles,2549,Chris Kaman,C,,22:40,115.5,104.8,10.7,0.176,1.5,18.4,0.235,0.217,0.225,12.3,0.5,0.574,0.257,96.99,0.137,2014-03-25T00:00:00,4,1610612747,LAL,Los Angeles,24-46,14,36,51,26,0,0,0,0,0,0,0,0,0,0,127,0.578,0.867,0.643,32,38,16,0021301060,1610612747,LAL,Los Angeles,Chris Kaman,C,,22:40,2.0,2.0,0.0,6.0,7.0,7.0,7.0,16.0,1.0,1.0,3.0,2.0
0021301060,1610612747,LAL,Los Angeles,201975,Jodie Meeks,G,,25:06,119.3,96.6,22.7,0.15,1.0,17.6,0.0,0.091,0.053,17.6,0.636,0.636,0.243,99.79,0.12,2014-03-25T00:00:00,4,1610612752,NYK,New York,29-42,22,20,31,23,0,0,0,0,0,0,0,0,0,0,96,0.486,0.741,0.267,23,32,15,0021301060,1610612747,LAL,Los Angeles,Jodie Meeks,G,,25:06,0.0,0.0,2.0,2.0,7.0,7.0,7.0,14.0,0.0,1.0,1.0,0.0
0021301060,1610612747,LAL,Los Angeles,201975,Jodie Meeks,G,,25:06,119.3,96.6,22.7,0.15,1.0,17.6,0.0,0.091,0.053,17.6,0.636,0.636,0.243,99.79,0.12,2014-03-25T00:00:00,4,1610612747,LAL,Los Angeles,24-46,14,36,51,26,0,0,0,0,0,0,0,0,0,0,127,0.578,0.867,0.643,32,38,16,0021301060,1610612747,LAL,Los Angeles,Jodie Meeks,G,,25:06,0.0,0.0,2.0,2.0,7.0,7.0,7.0,14.0,0.0,1.0,1.0,0.0
0021301060,1610612747,LAL,Los Angeles,203088,Kendall Marshall,G,,23:22,120.8,100.1,20.7,0.45,9.0,52.9,0.0,0.091,0.051,5.9,0.5,0.5,0.15,92.6,0.135,2014-03-25T00:00:00,4,1610612752,NYK,New York,29-42,22,20,31,23,0,0,0,0,0,0,0,0,0,0,96,0.486,0.741,0.267,23,32,15,0021301060,1610612747,LAL,Los Angeles,Kendall Marshall,G,,23:22,2.0,0.0,0.0,0.0,5.0,7.0,5.0,14.0,0.0,1.0,0.0,1.0
0021301060,1610612747,LAL,Los Angeles,203088,Kendall Marshall,G,,23:22,120.8,100.1,20.7,0.45,9.0,52.9,0.0,0.091,0.051,5.9,0.5,0.5,0.15,92.6,0.135,2014-03-25T00:00:00,4,1610612747,LAL,Los Angeles,24-46,14,36,51,26,0,0,0,0,0,0,0,0,0,0,127,0.578,0.867,0.643,32,38,16,0021301060,1610612747,LAL,Los Angeles,Kendall Marshall,G,,23:22,2.0,0.0,0.0,0.0,5.0,7.0,5.0,14.0,0.0,1.0,0.0,1.0
0021301060,1610612747,LAL,Los Angeles,201156,Nick Young,,,18:37,147.9,107.1,40.7,0.0,0.0,0.0,0.0,0.286,0.143,20.9,0.85,0.883,0.362,94.01,0.161,2014-03-25T00:00:00,4,1610612752,NYK,New York,29-42,22,20,31,23,0,0,0,0,0,0,0,0,0,0,96,0.486,0.741,0.267,23,32,15,0021301060,1610612747,LAL,Los Angeles,Nick Young,,,18:37,0.0,0.0,0.0,2.0,4.0,4.0,0.0,20.0,0.0,1.0,3.0,2.0
0021301060,1610612747,LAL,Los Angeles,201156,Nick Young,,,18:37,147.9,107.1,40.7,0.0,0.0,0.0,0.0,0.286,0.143,20.9,0.85,0.883,0.362,94.01,0.161,2014-03-25T00:00:00,4,1610612747,LAL,Los Angeles,24-46,14,36,51,26,0,0,0,0,0,0,0,0,0,0,127,0.578,0.867,0.643,32,38,16,0021301060,1610612747,LAL,Los Angeles,Nick Young,,,18:37,0.0,0.0,0.0,2.0,4.0,4.0,0.0,20.0,0.0,1.0,3.0,2.0
0021301060,1610612747,LAL,Los Angeles,203145,Kent Bazemore,,,32:46,130.2,102.1,28.1,0.2,2.5,22.9,0.0,0.095,0.049,9.1,0.571,0.605,0.238,95.6,0.103,2014-03-25T00:00:00,4,1610612752,NYK,New York,29-42,22,20,31,23,0,0,0,0,0,0,0,0,0,0,96,0.486,0.741,0.267,23,32,15,0021301060,1610612747,LAL,Los Angeles,Kent Bazemore,,,32:46,6.0,2.0,2.0,4.0,10.0,8.0,6.0,30.0,0.0,0.0,3.0,3.0
0021301060,1610612747,LAL,Los Angeles,203145,Kent Bazemore,,,32:46,130.2,102.1,28.1,0.2,2.5,22.9,0.0,0.095,0.049,9.1,0.571,0.605,0.238,95.6,0.103,2014-03-25T00:00:00,4,1610612747,LAL,Los Angeles,24-46,14,36,51,26,0,0,0,0,0,0,0,0,0,0,127,0.578,0.867,0.643,32,38,16,0021301060,1610612747,LAL,Los Angeles,Kent Bazemore,,,32:46,6.0,2.0,2.0,4.0,10.0,8.0,6.0,30.0,0.0,0.0,3.0,3.0
0021301060,1610612747,LAL,Los Angeles,203527,Ryan Kelly,,,33:58,137.0,111.7,25.2,0.235,8.0,53.3,0.0,0.19,0.1,6.7,0.75,0.75,0.092,98.5,0.098,2014-03-25T00:00:00,4,1610612752,NYK,New York,29-42,22,20,31,23,0,0,0,0,0,0,0,0,0,0,96,0.486,0.741,0.267,23,32,15,0021301060,1610612747,LAL,Los Angeles,Ryan Kelly,,,33:58,3.0,0.0,0.0,0.0,13.0,8.0,7.0,32.0,0.0,0.0,3.0,2.0
0021301060,1610612747,LAL,Los Angeles,203527,Ryan Kelly,,,33:58,137.0,111.7,25.2,0.235,8.0,53.3,0.0,0.19,0.1,6.7,0.75,0.75,0.092,98.5,0.098,2014-03-25T00:00:00,4,1610612747,LAL,Los Angeles,24-46,14,36,51,26,0,0,0,0,0,0,0,0,0,0,127,0.578,0.867,0.643,32,38,16,0021301060,1610612747,LAL,Los Angeles,Ryan Kelly,,,33:58,3.0,0.0,0.0,0.0,13.0,8.0,7.0,32.0,0.0,0.0,3.0,2.0
0021301060,1610612747,LAL,Los Angeles,202333,Xavier Henry,,,23:20,135.6,106.2,29.5,0.0,0.0,0.0,0.071,0.125,0.1,13.2,0.864,0.833,0.296,100.22,0.177,2014-03-25T00:00:00,4,1610612752,NYK,New York,29-42,22,20,31,23,0,0,0,0,0,0,0,0,0,0,96,0.486,0.741,0.267,23,32,15,0021301060,1610612747,LAL,Los Angeles,Xavier Henry,,,23:20,5.0,4.0,2.0,6.0,8.0,6.0,4.0,24.0,1.0,0.0,1.0,4.0
0021301060,1610612747,LAL,Los Angeles,202333,Xavier Henry,,,23:20,135.6,106.2,29.5,0.0,0.0,0.0,0.071,0.125,0.1,13.2,0.864,0.833,0.296,100.22,0.177,2014-03-25T00:00:00,4,1610612747,LAL,Los Angeles,24-46,14,36,51,26,0,0,0,0,0,0,0,0,0,0,127,0.578,0.867,0.643,32,38,16,0021301060,1610612747,LAL,Los Angeles,Xavier Henry,,,23:20,5.0,4.0,2.0,6.0,8.0,6.0,4.0,24.0,1.0,0.0,1.0,4.0
0021301060,1610612747,LAL,Los Angeles,203135,Robert Sacre,,,25:20,140.8,99.9,40.9,0.182,0.0,50.0,0.133,0.2,0.167,0.0,1.0,1.0,0.073,95.57,0.119,2014-03-25T00:00:00,4,1610612752,NYK,New York,29-42,22,20,31,23,0,0,0,0,0,0,0,0,0,0,96,0.486,0.741,0.267,23,32,15,0021301060,1610612747,LAL,Los Angeles,Robert Sacre,,,25:20,2.0,2.0,0.0,6.0,6.0,6.0,2.0,22.0,0.0,0.0,3.0,0.0
0021301060,1610612747,LAL,Los Angeles,203135,Robert Sacre,,,25:20,140.8,99.9,40.9,0.182,0.0,50.0,0.133,0.2,0.167,0.0,1.0,1.0,0.073,95.57,0.119,2014-03-25T00:00:00,4,1610612747,LAL,Los Angeles,24-46,14,36,51,26,0,0,0,0,0,0,0,0,0,0,127,0.578,0.867,0.643,32,38,16,0021301060,1610612747,LAL,Los Angeles,Robert Sacre,,,25:20,2.0,2.0,0.0,6.0,6.0,6.0,2.0,22.0,0.0,0.0,3.0,0.0
0021301060,1610612747,LAL,Los Angeles,202705,MarShon Brooks,,,5:35,114.9,103.7,11.2,0.0,0.0,0.0,0.0,0.0,0.0,22.5,0.667,0.727,0.388,86.31,0.235,2014-03-25T00:00:00,4,1610612752,NYK,New York,29-42,22,20,31,23,0,0,0,0,0,0,0,0,0,0,96,0.486,0.741,0.267,23,32,15,0021301060,1610612747,LAL,Los Angeles,MarShon Brooks,,,5:35,2.0,0.0,0.0,4.0,2.0,2.0,2.0,4.0,0.0,0.0,0.0,1.0
0021301060,1610612747,LAL,Los Angeles,202705,MarShon Brooks,,,5:35,114.9,103.7,11.2,0.0,0.0,0.0,0.0,0.0,0.0,22.5,0.667,0.727,0.388,86.31,0.235,2014-03-25T00:00:00,4,1610612747,LAL,Los Angeles,24-46,14,36,51,26,0,0,0,0,0,0,0,0,0,0,127,0.578,0.867,0.643,32,38,16,0021301060,1610612747,LAL,Los Angeles,MarShon Brooks,,,5:35,2.0,0.0,0.0,4.0,2.0,2.0,2.0,4.0,0.0,0.0,0.0,1.0
0021301060,1610612747,LAL,Los Angeles,2200,Pau Gasol,,NWT - Vertigo.,,,,,,,0.0,,,,,,,0.0,,,2014-03-25T00:00:00,4,1610612752,NYK,New York,29-42,22,20,31,23,0,0,0,0,0,0,0,0,0,0,96,0.486,0.741,0.267,23,32,15,0021301060,1610612747,LAL,Los Angeles,Pau Gasol,,NWT - Vertigo.,,,,,,,,,,,,,
0021301060,1610612747,LAL,Los Angeles,2200,Pau Gasol,,NWT - Vertigo.,,,,,,,0.0,,,,,,,0.0,,,2014-03-25T00:00:00,4,1610612747,LAL,Los Angeles,24-46,14,36,51,26,0,0,0,0,0,0,0,0,0,0,127,0.578,0.867,0.643,32,38,16,0021301060,1610612747,LAL,Los Angeles,Pau Gasol,,NWT - Vertigo.,,,,,,,,,,,,,
0021301060,1610612747,LAL,Los Angeles,959,Steve Nash,,DND - Nerve root irritation.,,,,,,,0.0,,,,,,,0.0,,,2014-03-25T00:00:00,4,1610612752,NYK,New York,29-42,22,20,31,23,0,0,0,0,0,0,0,0,0,0,96,0.486,0.741,0.267,23,32,15,0021301060,1610612747,LAL,Los Angeles,Steve Nash,,DND - Nerve root irritation.,,,,,,,,,,,,,
0021301060,1610612747,LAL,Los Angeles,959,Steve Nash,,DND - Nerve root irritation.,,,,,,,0.0,,,,,,,0.0,,,2014-03-25T00:00:00,4,1610612747,LAL,Los Angeles,24-46,14,36,51,26,0,0,0,0,0,0,0,0,0,0,127,0.578,0.867,0.643,32,38,16,0021301060,1610612747,LAL,Los Angeles,Steve Nash,,DND - Nerve root irritation.,,,,,,,,,,,,,
