GAME_ID_x,TEAM_ID_x,TEAM_ABBREVIATION_x,TEAM_CITY_x,PLAYER_ID,PLAYER_NAME_x,START_POSITION_x,COMMENT_x,MIN_x,OFF_RATING,DEF_RATING,NET_RATING,AST_PCT,AST_TOV,AST_RATIO,OREB_PCT,DREB_PCT,REB_PCT,TM_TOV_PCT,EFG_PCT,TS_PCT,USG_PCT,PACE,PIE,GAME_DATE_EST,GAME_SEQUENCE,TEAM_ABBREVIATION_y,TEAM_CITY_NAME,TEAM_WINS_LOSSES,PTS_QTR1,PTS_QTR2,PTS_QTR3,PTS_QTR4,PTS_OT1,PTS_OT2,PTS_OT3,PTS_OT4,PTS_OT5,PTS_OT6,PTS_OT7,PTS_OT8,PTS_OT9,PTS_OT10,PTS,FG_PCT,FT_PCT,FG3_PCT,AST,REB,TOV,GAME_ID_y,TEAM_ID_y,TEAM_ABBREVIATION,TEAM_CITY_y,PLAYER_NAME_y,START_POSITION_y,COMMENT_y,MIN_y,PTS_OFF_TOV,PTS_2ND_CHANCE,PTS_FB,PTS_PAINT,OPP_PTS_OFF_TOV,OPP_PTS_2ND_CHANCE,OPP_PTS_FB,OPP_PTS_PAINT,BLK,BLKA,PF,PFD
0041500114,1610612761,TOR,Toronto,201960,DeMarre Carroll,F,,32:23,87.8,105.2,-17.4,0.0,0.0,0.0,0.04,0.156,0.105,0.0,0.667,0.667,0.128,95.42,0.1,2016-04-23T00:00:00,1,TOR,Toronto,2-2,16,26,16,25,0,0,0,0,0,0,0,0,0,0,83,0.365,0.7,0.267,12,40,17,0041500114,1610612761,TOR,Toronto,DeMarre Carroll,F,,32:23,0,3,0,0,14,13,4,26,0,0,3,0
0041500114,1610612761,TOR,Toronto,2449,Luis Scola,F,,14:23,79.6,100.4,-20.8,0.0,0.0,0.0,0.0,0.154,0.077,14.5,0.0,0.085,0.223,94.71,-0.091,2016-04-23T00:00:00,1,TOR,Toronto,2-2,16,26,16,25,0,0,0,0,0,0,0,0,0,0,83,0.365,0.7,0.267,12,40,17,0041500114,1610612761,TOR,Toronto,Luis Scola,F,,14:23,0,0,0,0,4,0,2,16,0,1,0,1
0041500114,1610612761,TOR,Toronto,202685,Jonas Valanciunas,C,,27:31,89.9,122.1,-32.3,0.0,0.0,0.0,0.095,0.167,0.133,10.2,0.857,0.913,0.164,93.25,0.169,2016-04-23T00:00:00,1,TOR,Toronto,2-2,16,26,16,25,0,0,0,0,0,0,0,0,0,0,83,0.365,0.7,0.267,12,40,17,0041500114,1610612761,TOR,Toronto,Jonas Valanciunas,C,,27:31,2,6,0,10,16,8,4,28,1,0,3,3
0041500114,1610612761,TOR,Toronto,201942,DeMar DeRozan,G,,33:03,90.2,117.8,-27.5,0.25,0.67,16.0,0.0,0.207,0.113,24.0,0.267,0.267,0.308,89.64,-0.01,2016-04-23T00:00:00,1,TOR,Toronto,2-2,16,26,16,25,0,0,0,0,0,0,0,0,0,0,83,0.365,0.7,0.267,12,40,17,0041500114,1610612761,TOR,Toronto,DeMar DeRozan,G,,33:03,2,0,0,2,16,14,4,32,0,2,3,2
0041500114,1610612761,TOR,Toronto,200768,Kyle Lowry,G,,36:09,93.2,109.3,-16.1,0.263,1.67,22.1,0.032,0.061,0.047,13.3,0.333,0.41,0.221,91.96,0.014,2016-04-23T00:00:00,1,TOR,Toronto,2-2,16,26,16,25,0,0,0,0,0,0,0,0,0,0,83,0.365,0.7,0.267,12,40,17,0041500114,1610612761,TOR,Toronto,Kyle Lowry,G,,36:09,0,0,2,4,15,11,8,40,0,0,6,4
0041500114,1610612761,TOR,Toronto,202709,Cory Joseph,,,14:08,56.3,119.4,-63.1,0.0,0.0,0.0,0.0,0.083,0.048,60.0,0.0,0.0,0.159,95.16,-0.073,2016-04-23T00:00:00,1,TOR,Toronto,2-2,16,26,16,25,0,0,0,0,0,0,0,0,0,0,83,0.365,0.7,0.267,12,40,17,0041500114,1610612761,TOR,Toronto,Cory Joseph,,,14:08,0,0,0,0,15,7,2,12,0,0,1,0
0041500114,1610612761,TOR,Toronto,202335,Patrick Patterson,,,26:34,71.6,118.4,-46.8,0.25,0.0,22.8,0.05,0.0,0.022,0.0,0.5,0.592,0.117,91.71,0.104,2016-04-23T00:00:00,1,TOR,Toronto,2-2,16,26,16,25,0,0,0,0,0,0,0,0,0,0,83,0.365,0.7,0.267,12,40,17,0041500114,1610612761,TOR,Toronto,Patrick Patterson,,,26:34,0,0,0,2,21,18,6,26,1,0,1,2
0041500114,1610612761,TOR,Toronto,202687,Bismack Biyombo,,,12:51,61.2,87.2,-26.0,0.0,0.0,0.0,0.3,0.5,0.409,39.9,1.0,0.553,0.249,93.85,0.5,2016-04-23T00:00:00,1,TOR,Toronto,2-2,16,26,16,25,0,0,0,0,0,0,0,0,0,0,83,0.365,0.7,0.267,12,40,17,0041500114,1610612761,TOR,Toronto,Bismack Biyombo,,,12:51,0,2,0,2,9,4,2,12,1,0,1,5
0041500114,1610612761,TOR,Toronto,203082,Terrence Ross,,,19:28,82.5,95.5,-13.0,0.0,0.0,0.0,0.0,0.053,0.027,0.0,0.278,0.354,0.221,93.01,0.056,2016-04-23T00:00:00,1,TOR,Toronto,2-2,16,26,16,25,0,0,0,0,0,0,0,0,0,0,83,0.365,0.7,0.267,12,40,17,0041500114,1610612761,TOR,Toronto,Terrence Ross,,,19:28,4,3,2,2,9,15,4,22,0,2,0,3
0041500114,1610612761,TOR,Toronto,1626181,Norman Powell,,,13:33,124.6,107.4,17.3,0.0,0.0,0.0,0.083,0.167,0.125,0.0,0.8,0.85,0.182,94.52,0.225,2016-04-23T00:00:00,1,TOR,Toronto,2-2,16,26,16,25,0,0,0,0,0,0,0,0,0,0,83,0.365,0.7,0.267,12,40,17,0041500114,1610612761,TOR,Toronto,Norman Powell,,,13:33,5,2,2,2,6,10,4,18,0,0,1,1
0041500114,1610612761,TOR,Toronto,201949,James Johnson,,,3:19,133.1,108.7,24.4,0.5,0.0,53.2,0.0,0.0,0.0,0.0,0.0,1.136,0.1,95.52,0.24,2016-04-23T00:00:00,1,TOR,Toronto,2-2,16,26,16,25,0,0,0,0,0,0,0,0,0,0,83,0.365,0.7,0.267,12,40,17,0041500114,1610612761,TOR,Toronto,James Johnson,,,3:19,0,0,0,0,0,5,0,6,0,0,0,1
0041500114,1610612761,TOR,Toronto,201574,Jason Thompson,,,3:19,133.1,108.7,24.4,0.0,0.0,0.0,0.25,0.0,0.143,0.0,1.0,1.0,0.114,95.52,0.2,2016-04-23T00:00:00,1,TOR,Toronto,2-2,16,26,16,25,0,0,0,0,0,0,0,0,0,0,83,0.365,0.7,0.267,12,40,17,0041500114,1610612761,TOR,Toronto,Jason Thompson,,,3:19,0,2,0,2,0,5,0,6,0,0,0,0
0041500114,1610612761,TOR,Toronto,1626153,Delon Wright,,,3:19,133.1,108.7,24.4,0.0,0.0,0.0,0.25,0.0,0.143,0.0,0.0,0.0,0.342,95.52,-0.28,2016-04-23T00:00:00,1,TOR,Toronto,2-2,16,26,16,25,0,0,0,0,0,0,0,0,0,0,83,0.365,0.7,0.267,12,40,17,0041500114,1610612761,TOR,Toronto,Delon Wright,,,3:19,0,0,0,0,0,5,0,6,0,0,1,0
0041500114,1610612754,IND,Indiana,202331,Paul George,F,,35:06,111.2,86.0,25.2,0.091,2.0,9.1,0.0,0.16,0.071,4.5,0.406,0.498,0.265,92.74,0.103,2016-04-23T00:00:00,1,IND,Indiana,2-2,28,29,16,27,0,0,0,0,0,0,0,0,0,0,100,0.471,0.778,0.375,24,43,12,0041500114,1610612754,IND,Indiana,Paul George,F,,35:06,4,4,2,10,8,11,2,20,0,1,4,9
0041500114,1610612754,IND,Indiana,1626167,Myles Turner,F,,26:51,99.2,90.4,8.8,0.059,1.0,6.7,0.115,0.19,0.149,6.7,0.154,0.154,0.244,94.45,-0.006,2016-04-23T00:00:00,1,IND,Indiana,2-2,28,29,16,27,0,0,0,0,0,0,0,0,0,0,100,0.471,0.778,0.375,24,43,12,0041500114,1610612754,IND,Indiana,Myles Turner,F,,26:51,2,0,0,0,8,9,2,18,2,1,1,1
0041500114,1610612754,IND,Indiana,101133,Ian Mahinmi,C,,33:13,115.9,81.8,34.2,0.217,2.5,21.6,0.179,0.179,0.179,8.6,0.643,0.679,0.253,92.33,0.272,2016-04-23T00:00:00,1,IND,Indiana,2-2,28,29,16,27,0,0,0,0,0,0,0,0,0,0,100,0.471,0.778,0.375,24,43,12,0041500114,1610612754,IND,Indiana,Ian Mahinmi,C,,33:13,4,5,0,18,6,11,4,18,1,0,4,3
0041500114,1610612754,IND,Indiana,101145,Monta Ellis,G,,29:58,111.0,91.4,19.6,0.143,1.0,23.1,0.036,0.13,0.078,23.1,0.5,0.5,0.154,92.9,0.07,2016-04-23T00:00:00,1,IND,Indiana,2-2,28,29,16,27,0,0,0,0,0,0,0,0,0,0,100,0.471,0.778,0.375,24,43,12,0041500114,1610612754,IND,Indiana,Monta Ellis,G,,29:58,3,0,0,2,8,11,2,18,0,0,3,1
0041500114,1610612754,IND,Indiana,201588,George Hill,G,,31:14,121.1,93.2,27.9,0.158,0.0,20.2,0.037,0.125,0.078,0.0,0.909,0.926,0.177,90.76,0.245,2016-04-23T00:00:00,1,IND,Indiana,2-2,28,29,16,27,0,0,0,0,0,0,0,0,0,0,100,0.471,0.778,0.375,24,43,12,0041500114,1610612754,IND,Indiana,George Hill,G,,31:14,2,7,2,8,6,11,2,18,0,0,1,2
0041500114,1610612754,IND,Indiana,203524,Solomon Hill,,,28:23,112.6,81.0,31.6,0.143,1.5,30.4,0.071,0.042,0.058,20.2,0.75,0.717,0.105,92.05,0.079,2016-04-23T00:00:00,1,IND,Indiana,2-2,28,29,16,27,0,0,0,0,0,0,0,0,0,0,100,0.471,0.778,0.375,24,43,12,0041500114,1610612754,IND,Indiana,Solomon Hill,,,28:23,4,0,0,0,7,14,4,12,0,0,3,2
0041500114,1610612754,IND,Indiana,201951,Ty Lawson,,,14:09,112.2,74.6,37.6,0.273,0.0,42.9,0.0,0.083,0.042,0.0,0.5,0.5,0.131,94.64,0.226,2016-04-23T00:00:00,1,IND,Indiana,2-2,28,29,16,27,0,0,0,0,0,0,0,0,0,0,100,0.471,0.778,0.375,24,43,12,0041500114,1610612754,IND,Indiana,Ty Lawson,,,14:09,4,0,2,2,2,7,4,6,0,1,1,0
0041500114,1610612754,IND,Indiana,201155,Rodney Stuckey,,,15:37,91.7,73.8,17.9,0.125,0.5,9.1,0.0,0.231,0.107,18.2,0.375,0.375,0.29,94.79,0.098,2016-04-23T00:00:00,1,IND,Indiana,2-2,28,29,16,27,0,0,0,0,0,0,0,0,0,0,100,0.471,0.778,0.375,24,43,12,0041500114,1610612754,IND,Indiana,Rodney Stuckey,,,15:37,0,0,2,4,4,7,4,10,0,0,1,1
0041500114,1610612754,IND,Indiana,101139,CJ Miles,,,15:26,114.7,102.5,12.2,0.083,0.0,22.5,0.077,0.154,0.115,0.0,0.667,0.581,0.106,93.03,0.06,2016-04-23T00:00:00,1,IND,Indiana,2-2,28,29,16,27,0,0,0,0,0,0,0,0,0,0,100,0.471,0.778,0.375,24,43,12,0041500114,1610612754,IND,Indiana,CJ Miles,,,15:26,2,2,0,2,4,9,6,10,1,0,3,0
0041500114,1610612754,IND,Indiana,202730,Lavoy Allen,,,2:31,91.9,102.5,-10.5,0.0,0.0,0.0,0.0,0.0,0.0,0.0,0.0,0.0,0.0,98.42,0.0,2016-04-23T00:00:00,1,IND,Indiana,2-2,28,29,16,27,0,0,0,0,0,0,0,0,0,0,100,0.471,0.778,0.375,24,43,12,0041500114,1610612754,IND,Indiana,Lavoy Allen,,,2:31,0,0,0,0,3,0,0,0,0,0,0,0
0041500114,1610612754,IND,Indiana,201941,Jordan Hill,,,2:31,91.9,102.5,-10.5,1.0,0.0,66.7,0.667,0.667,0.667,0.0,0.0,0.0,0.134,98.42,0.5,2016-04-23T00:00:00,1,IND,Indiana,2-2,28,29,16,27,0,0,0,0,0,0,0,0,0,0,100,0.471,0.778,0.375,24,43,12,0041500114,1610612754,IND,Indiana,Jordan Hill,,,2:31,0,0,0,0,3,0,0,0,0,0,0,0
0041500114,1610612754,IND,Indiana,203922,Glenn Robinson III,,,2:31,91.9,102.5,-10.5,0.0,0.0,0.0,0.0,0.0,0.0,0.0,1.0,1.025,0.328,98.42,0.688,2016-04-23T00:00:00,1,IND,Indiana,2-2,28,29,16,27,0,0,0,0,0,0,0,0,0,0,100,0.471,0.778,0.375,24,43,12,0041500114,1610612754,IND,Indiana,Glenn Robinson III,,,2:31,0,5,0,4,3,0,0,0,1,0,0,1
0041500114,1610612754,IND,Indiana,1626202,Joe Young,,,2:31,91.9,102.5,-10.5,0.0,0.0,0.0,0.0,0.0,0.0,33.3,0.0,0.0,0.403,98.42,-0.5,2016-04-23T00:00:00,1,IND,Indiana,2-2,28,29,16,27,0,0,0,0,0,0,0,0,0,0,100,0.471,0.778,0.375,24,43,12,0041500114,1610612754,IND,Indiana,Joe Young,,,2:31,0,0,0,0,3,0,0,0,0,0,1,0
