GAME_ID_x,TEAM_ID_x,TEAM_ABBREVIATION_x,TEAM_CITY_x,PLAYER_ID,PLAYER_NAME_x,START_POSITION_x,COMMENT_x,MIN_x,OFF_RATING,DEF_RATING,NET_RATING,AST_PCT,AST_TOV,AST_RATIO,OREB_PCT,DREB_PCT,REB_PCT,TM_TOV_PCT,EFG_PCT,TS_PCT,USG_PCT,PACE,PIE,GAME_DATE_EST,GAME_SEQUENCE,TEAM_ABBREVIATION_y,TEAM_CITY_NAME,TEAM_WINS_LOSSES,PTS_QTR1,PTS_QTR2,PTS_QTR3,PTS_QTR4,PTS_OT1,PTS_OT2,PTS_OT3,PTS_OT4,PTS_OT5,PTS_OT6,PTS_OT7,PTS_OT8,PTS_OT9,PTS_OT10,PTS,FG_PCT,FT_PCT,FG3_PCT,AST,REB,TOV,GAME_ID_y,TEAM_ID_y,TEAM_ABBREVIATION,TEAM_CITY_y,PLAYER_NAME_y,START_POSITION_y,COMMENT_y,MIN_y,PTS_OFF_TOV,PTS_2ND_CHANCE,PTS_FB,PTS_PAINT,OPP_PTS_OFF_TOV,OPP_PTS_2ND_CHANCE,OPP_PTS_FB,OPP_PTS_PAINT,BLK,BLKA,PF,PFD
0041500173,1610612746,LAC,LA,201601,Luc Mbah a Moute,F,,15:10,58.6,86.0,-27.3,0.0,0.0,0.0,0.0,0.053,0.027,0.0,1.0,1.0,0.063,91.96,0.12,2016-04-23T00:00:00,4,LAC,LA,2-1,19,21,27,21,0,0,0,0,0,0,0,0,0,0,88,0.409,0.565,0.167,15,44,10,0041500173,1610612746,LAC,LA,Luc Mbah a Moute,F,,15:10,0.0,0.0,0.0,4.0,4.0,6.0,3.0,8.0,0.0,0.0,2.0,1.0
0041500173,1610612746,LAC,LA,201933,Blake Griffin,F,,34:04,94.8,102.1,-7.2,0.19,1.33,16.8,0.0,0.206,0.101,12.6,0.313,0.355,0.263,95.15,0.101,2016-04-23T00:00:00,4,LAC,LA,2-1,19,21,27,21,0,0,0,0,0,0,0,0,0,0,88,0.409,0.565,0.167,15,44,10,0041500173,1610612746,LAC,LA,Blake Griffin,F,,34:04,4.0,2.0,0.0,6.0,5.0,16.0,4.0,26.0,0.0,0.0,1.0,2.0
0041500173,1610612746,LAC,LA,201599,DeAndre Jordan,C,,32:17,97.3,94.1,3.2,0.0,0.0,0.0,0.2,0.273,0.235,0.0,0.571,0.482,0.157,93.25,0.166,2016-04-23T00:00:00,4,LAC,LA,2-1,19,21,27,21,0,0,0,0,0,0,0,0,0,0,88,0.409,0.565,0.167,15,44,10,0041500173,1610612746,LAC,LA,DeAndre Jordan,C,,32:17,0.0,5.0,2.0,8.0,5.0,10.0,4.0,18.0,2.0,0.0,1.0,6.0
0041500173,1610612746,LAC,LA,200755,JJ Redick,G,,24:33,90.3,94.9,-4.6,0.056,1.0,8.3,0.042,0.038,0.04,8.3,0.25,0.25,0.197,97.21,-0.033,2016-04-23T00:00:00,4,LAC,LA,2-1,19,21,27,21,0,0,0,0,0,0,0,0,0,0,88,0.409,0.565,0.167,15,44,10,0041500173,1610612746,LAC,LA,JJ Redick,G,,24:33,0.0,3.0,0.0,2.0,5.0,10.0,2.0,12.0,1.0,2.0,2.0,2.0
0041500173,1610612746,LAC,LA,101108,Chris Paul,G,,37:37,98.0,99.3,-1.3,0.45,4.5,26.7,0.025,0.053,0.038,5.9,0.524,0.571,0.293,94.39,0.213,2016-04-23T00:00:00,4,LAC,LA,2-1,19,21,27,21,0,0,0,0,0,0,0,0,0,0,88,0.409,0.565,0.167,15,44,10,0041500173,1610612746,LAC,LA,Chris Paul,G,,37:37,6.0,2.0,0.0,2.0,5.0,16.0,4.0,26.0,0.0,1.0,4.0,6.0
0041500173,1610612746,LAC,LA,2037,Jamal Crawford,,,29:52,93.1,109.4,-16.3,0.077,0.0,5.1,0.031,0.077,0.052,0.0,0.5,0.515,0.274,99.19,0.143,2016-04-23T00:00:00,4,LAC,LA,2-1,19,21,27,21,0,0,0,0,0,0,0,0,0,0,88,0.409,0.565,0.167,15,44,10,0041500173,1610612746,LAC,LA,Jamal Crawford,,,29:52,6.0,0.0,2.0,2.0,3.0,10.0,6.0,26.0,0.0,0.0,0.0,2.0
0041500173,1610612746,LAC,LA,202325,Wesley Johnson,,,12:52,105.3,90.1,15.2,0.0,0.0,0.0,0.0,0.077,0.036,33.3,0.0,0.0,0.098,95.48,-0.042,2016-04-23T00:00:00,4,LAC,LA,2-1,19,21,27,21,0,0,0,0,0,0,0,0,0,0,88,0.409,0.565,0.167,15,44,10,0041500173,1610612746,LAC,LA,Wesley Johnson,,,12:52,0.0,0.0,0.0,0.0,0.0,0.0,3.0,4.0,1.0,0.0,0.0,0.0
0041500173,1610612746,LAC,LA,201145,Jeff Green,,,22:31,99.7,92.2,7.5,0.0,0.0,0.0,0.0,0.083,0.042,14.5,0.2,0.255,0.134,98.91,0.0,2016-04-23T00:00:00,4,LAC,LA,2-1,19,21,27,21,0,0,0,0,0,0,0,0,0,0,88,0.409,0.565,0.167,15,44,10,0041500173,1610612746,LAC,LA,Jeff Green,,,22:31,2.0,0.0,2.0,2.0,2.0,10.0,3.0,22.0,0.0,0.0,1.0,2.0
0041500173,1610612746,LAC,LA,203085,Austin Rivers,,,13:33,77.6,108.6,-31.0,0.0,0.0,0.0,0.0,0.071,0.037,40.0,0.667,0.667,0.163,106.3,-0.024,2016-04-23T00:00:00,4,LAC,LA,2-1,19,21,27,21,0,0,0,0,0,0,0,0,0,0,88,0.409,0.565,0.167,15,44,10,0041500173,1610612746,LAC,LA,Austin Rivers,,,13:33,2.0,0.0,2.0,4.0,2.0,6.0,3.0,12.0,0.0,0.0,3.0,0.0
0041500173,1610612746,LAC,LA,202332,Cole Aldrich,,,12:33,69.3,97.7,-28.3,0.0,0.0,0.0,0.071,0.462,0.259,0.0,0.5,0.521,0.101,105.33,0.259,2016-04-23T00:00:00,4,LAC,LA,2-1,19,21,27,21,0,0,0,0,0,0,0,0,0,0,88,0.409,0.565,0.167,15,44,10,0041500173,1610612746,LAC,LA,Cole Aldrich,,,12:33,0.0,2.0,0.0,2.0,2.0,4.0,3.0,12.0,0.0,0.0,2.0,2.0
0041500173,1610612746,LAC,LA,1718,Paul Pierce,,,4:59,64.3,117.8,-53.5,0.0,0.0,0.0,0.0,0.2,0.1,0.0,0.0,0.174,0.242,109.61,-0.133,2016-04-23T00:00:00,4,LAC,LA,2-1,19,21,27,21,0,0,0,0,0,0,0,0,0,0,88,0.409,0.565,0.167,15,44,10,0041500173,1610612746,LAC,LA,Paul Pierce,,,4:59,0.0,0.0,0.0,0.0,2.0,2.0,0.0,4.0,0.0,0.0,1.0,1.0
0041500173,1610612746,LAC,LA,201965,Jeff Ayres,,DNP - Coach's Decision                  ,,,,,,,0.0,,,,,,,0.0,,,2016-04-23T00:00:00,4,LAC,LA,2-1,19,21,27,21,0,0,0,0,0,0,0,0,0,0,88,0.409,0.565,0.167,15,44,10,0041500173,1610612746,LAC,LA,Jeff Ayres,,DNP - Coach's Decision                  ,,,,,,,,,,,,,
0041500173,1610612746,LAC,LA,203143,Pablo Prigioni,,DNP - Coach's Decision                  ,,,,,,,0.0,,,,,,,0.0,,,2016-04-23T00:00:00,4,LAC,LA,2-1,19,21,27,21,0,0,0,0,0,0,0,0,0,0,88,0.409,0.565,0.167,15,44,10,0041500173,1610612746,LAC,LA,Pablo Prigioni,,DNP - Coach's Decision                  ,,,,,,,,,,,,,
0041500173,1610612757,POR,Portland,202329,Al-Farouq Aminu,F,,35:07,95.2,89.2,5.9,0.0,0.0,0.0,0.056,0.147,0.1,0.0,0.375,0.375,0.146,96.44,0.06,2016-04-23T00:00:00,4,POR,Portland,1-2,22,27,21,26,0,0,0,0,0,0,0,0,0,0,96,0.425,0.696,0.24,15,56,16,0041500173,1610612757,POR,Portland,Al-Farouq Aminu,F,,35:07,0.0,2.0,0.0,4.0,14.0,11.0,8.0,24.0,1.0,1.0,3.0,0.0
0041500173,1610612757,POR,Portland,203090,Maurice Harkless,F,,31:25,112.0,88.2,23.8,0.048,0.2,6.3,0.172,0.056,0.108,31.5,0.556,0.506,0.197,96.21,0.011,2016-04-23T00:00:00,4,POR,Portland,1-2,22,27,21,26,0,0,0,0,0,0,0,0,0,0,96,0.425,0.696,0.24,15,56,16,0041500173,1610612757,POR,Portland,Maurice Harkless,F,,31:25,0.0,4.0,0.0,10.0,14.0,10.0,8.0,20.0,1.0,0.0,4.0,3.0
0041500173,1610612757,POR,Portland,203486,Mason Plumlee,C,,33:08,102.1,90.3,11.9,0.375,4.5,50.7,0.088,0.5,0.3,11.3,0.4,0.444,0.11,95.65,0.265,2016-04-23T00:00:00,4,POR,Portland,1-2,22,27,21,26,0,0,0,0,0,0,0,0,0,0,96,0.425,0.696,0.24,15,56,16,0041500173,1610612757,POR,Portland,Mason Plumlee,C,,33:08,0.0,2.0,1.0,4.0,12.0,12.0,2.0,20.0,0.0,0.0,4.0,3.0
0041500173,1610612757,POR,Portland,203468,CJ McCollum,G,,41:50,100.9,86.0,14.9,0.095,1.0,7.2,0.048,0.075,0.061,7.2,0.545,0.568,0.26,96.36,0.145,2016-04-23T00:00:00,4,POR,Portland,1-2,22,27,21,26,0,0,0,0,0,0,0,0,0,0,96,0.425,0.696,0.24,15,56,16,0041500173,1610612757,POR,Portland,CJ McCollum,G,,41:50,5.0,2.0,4.0,6.0,18.0,13.0,8.0,30.0,1.0,1.0,4.0,3.0
0041500173,1610612757,POR,Portland,203081,Damian Lillard,G,,37:03,102.3,95.4,6.8,0.111,0.4,6.5,0.054,0.073,0.064,16.1,0.575,0.668,0.335,94.39,0.189,2016-04-23T00:00:00,4,POR,Portland,1-2,22,27,21,26,0,0,0,0,0,0,0,0,0,0,96,0.425,0.696,0.24,15,56,16,0041500173,1610612757,POR,Portland,Damian Lillard,G,,37:03,2.0,4.0,2.0,6.0,18.0,10.0,8.0,24.0,0.0,0.0,3.0,6.0
0041500173,1610612757,POR,Portland,203459,Allen Crabbe,,,19:13,89.1,94.5,-5.4,0.067,0.0,20.0,0.0,0.087,0.045,0.0,0.0,0.0,0.088,103.37,-0.034,2016-04-23T00:00:00,4,POR,Portland,1-2,22,27,21,26,0,0,0,0,0,0,0,0,0,0,96,0.425,0.696,0.24,15,56,16,0041500173,1610612757,POR,Portland,Allen Crabbe,,,19:13,0.0,0.0,0.0,0.0,6.0,5.0,2.0,14.0,0.0,0.0,1.0,0.0
0041500173,1610612757,POR,Portland,201945,Gerald Henderson,,,15:44,80.3,85.8,-5.5,0.0,0.0,0.0,0.0,0.25,0.118,0.0,0.143,0.143,0.196,101.08,0.0,2016-04-23T00:00:00,4,POR,Portland,1-2,22,27,21,26,0,0,0,0,0,0,0,0,0,0,96,0.425,0.696,0.24,15,56,16,0041500173,1610612757,POR,Portland,Gerald Henderson,,,15:44,0.0,0.0,0.0,0.0,4.0,4.0,0.0,10.0,0.0,2.0,0.0,0.0
0041500173,1610612757,POR,Portland,2549,Chris Kaman,,,8:54,101.2,84.5,16.8,0.0,0.0,0.0,0.0,0.0,0.0,28.6,0.4,0.4,0.337,101.14,-0.04,2016-04-23T00:00:00,4,POR,Portland,1-2,22,27,21,26,0,0,0,0,0,0,0,0,0,0,96,0.425,0.696,0.24,15,56,16,0041500173,1610612757,POR,Portland,Chris Kaman,,,8:54,0.0,0.0,0.0,0.0,4.0,2.0,0.0,6.0,0.0,0.0,1.0,0.0
0041500173,1610612757,POR,Portland,202334,Ed Davis,,,17:35,92.8,102.4,-9.6,0.0,0.0,0.0,0.111,0.158,0.135,0.0,0.667,0.63,0.117,98.0,0.075,2016-04-23T00:00:00,4,POR,Portland,1-2,22,27,21,26,0,0,0,0,0,0,0,0,0,0,96,0.425,0.696,0.24,15,56,16,0041500173,1610612757,POR,Portland,Ed Davis,,,17:35,0.0,4.0,0.0,4.0,10.0,3.0,4.0,12.0,0.0,0.0,4.0,2.0
0041500173,1610612757,POR,Portland,1626192,Pat Connaughton,,DNP - Coach's Decision                  ,,,,,,,0.0,,,,,,,0.0,,,2016-04-23T00:00:00,4,POR,Portland,1-2,22,27,21,26,0,0,0,0,0,0,0,0,0,0,96,0.425,0.696,0.24,15,56,16,0041500173,1610612757,POR,Portland,Pat Connaughton,,DNP - Coach's Decision                  ,,,,,,,,,,,,,
0041500173,1610612757,POR,Portland,1626242,Luis Montero,,DNP - Coach's Decision                  ,,,,,,,0.0,,,,,,,0.0,,,2016-04-23T00:00:00,4,POR,Portland,1-2,22,27,21,26,0,0,0,0,0,0,0,0,0,0,96,0.425,0.696,0.24,15,56,16,0041500173,1610612757,POR,Portland,Luis Montero,,DNP - Coach's Decision                  ,,,,,,,,,,,,,
0041500173,1610612757,POR,Portland,203148,Brian Roberts,,DNP - Coach's Decision                  ,,,,,,,0.0,,,,,,,0.0,,,2016-04-23T00:00:00,4,POR,Portland,1-2,22,27,21,26,0,0,0,0,0,0,0,0,0,0,96,0.425,0.696,0.24,15,56,16,0041500173,1610612757,POR,Portland,Brian Roberts,,DNP - Coach's Decision                  ,,,,,,,,,,,,,
0041500173,1610612757,POR,Portland,203943,Noah Vonleh,,DNP - Coach's Decision                  ,,,,,,,0.0,,,,,,,0.0,,,2016-04-23T00:00:00,4,POR,Portland,1-2,22,27,21,26,0,0,0,0,0,0,0,0,0,0,96,0.425,0.696,0.24,15,56,16,0041500173,1610612757,POR,Portland,Noah Vonleh,,DNP - Coach's Decision                  ,,,,,,,,,,,,,
