GAME_ID_x,TEAM_ID_x,TEAM_ABBREVIATION_x,TEAM_CITY_x,PLAYER_ID,PLAYER_NAME_x,START_POSITION_x,COMMENT_x,MIN_x,OFF_RATING,DEF_RATING,NET_RATING,AST_PCT,AST_TOV,AST_RATIO,OREB_PCT,DREB_PCT,REB_PCT,TM_TOV_PCT,EFG_PCT,TS_PCT,USG_PCT,PACE,PIE,GAME_DATE_EST,GAME_SEQUENCE,TEAM_ABBREVIATION_y,TEAM_CITY_NAME,TEAM_WINS_LOSSES,PTS_QTR1,PTS_QTR2,PTS_QTR3,PTS_QTR4,PTS_OT1,PTS_OT2,PTS_OT3,PTS_OT4,PTS_OT5,PTS_OT6,PTS_OT7,PTS_OT8,PTS_OT9,PTS_OT10,PTS,FG_PCT,FT_PCT,FG3_PCT,AST,REB,TOV,GAME_ID_y,TEAM_ID_y,TEAM_ABBREVIATION,TEAM_CITY_y,PLAYER_NAME_y,START_POSITION_y,COMMENT_y,MIN_y,PTS_OFF_TOV,PTS_2ND_CHANCE,PTS_FB,PTS_PAINT,OPP_PTS_OFF_TOV,OPP_PTS_2ND_CHANCE,OPP_PTS_FB,OPP_PTS_PAINT,BLK,BLKA,PF,PFD
0041500104,1610612739,CLE,Cleveland,2544,LeBron James,F,,41:27,109.4,103.3,6.1,0.273,3.0,21.2,0.051,0.273,0.153,7.1,0.5,0.541,0.269,87.62,0.168,2016-04-24T00:00:00,4,CLE,Cleveland,4-0,25,28,28,19,0,0,0,0,0,0,0,0,0,0,100,0.419,0.882,0.361,16,41,5,0041500104,1610612739,CLE,Cleveland,LeBron James,F,,41:27,6.0,6.0,6.0,14.0,8.0,5.0,4.0,36.0,0.0,0.0,4.0,4.0
0041500104,1610612739,CLE,Cleveland,201567,Kevin Love,F,,34:36,112.6,123.4,-10.8,0.083,0.0,10.7,0.129,0.346,0.228,0.0,0.233,0.328,0.224,88.3,0.079,2016-04-24T00:00:00,4,CLE,Cleveland,4-0,25,28,28,19,0,0,0,0,0,0,0,0,0,0,100,0.419,0.882,0.361,16,41,5,0041500104,1610612739,CLE,Cleveland,Kevin Love,F,,34:36,0.0,2.0,0.0,2.0,7.0,7.0,4.0,30.0,0.0,0.0,3.0,3.0
0041500104,1610612739,CLE,Cleveland,202684,Tristan Thompson,C,,38:22,114.3,117.6,-3.2,0.0,0.0,0.0,0.086,0.069,0.078,14.5,0.4,0.425,0.085,89.57,0.014,2016-04-24T00:00:00,4,CLE,Cleveland,4-0,25,28,28,19,0,0,0,0,0,0,0,0,0,0,100,0.419,0.882,0.361,16,41,5,0041500104,1610612739,CLE,Cleveland,Tristan Thompson,C,,38:22,2.0,0.0,1.0,4.0,10.0,7.0,4.0,36.0,1.0,2.0,3.0,3.0
0041500104,1610612739,CLE,Cleveland,2747,JR Smith,G,,35:23,110.5,113.0,-2.5,0.0,0.0,0.0,0.0,0.038,0.018,0.0,0.938,0.938,0.111,88.04,0.084,2016-04-24T00:00:00,4,CLE,Cleveland,4-0,25,28,28,19,0,0,0,0,0,0,0,0,0,0,100,0.419,0.882,0.361,16,41,5,0041500104,1610612739,CLE,Cleveland,JR Smith,G,,35:23,0.0,0.0,0.0,0.0,8.0,4.0,4.0,28.0,0.0,0.0,2.0,0.0
0041500104,1610612739,CLE,Cleveland,202681,Kyrie Irving,G,,40:25,112.3,119.8,-7.5,0.263,2.5,14.8,0.0,0.1,0.045,5.9,0.56,0.579,0.34,89.13,0.15,2016-04-24T00:00:00,4,CLE,Cleveland,4-0,25,28,28,19,0,0,0,0,0,0,0,0,0,0,100,0.419,0.882,0.361,16,41,5,0041500104,1610612739,CLE,Cleveland,Kyrie Irving,G,,40:25,5.0,0.0,5.0,8.0,10.0,8.0,4.0,38.0,0.0,0.0,2.0,4.0
0041500104,1610612739,CLE,Cleveland,2210,Richard Jefferson,,,16:36,114.2,104.8,9.3,0.1,0.0,14.3,0.0,0.267,0.125,0.0,0.417,0.417,0.165,90.97,0.074,2016-04-24T00:00:00,4,CLE,Cleveland,4-0,25,28,28,19,0,0,0,0,0,0,0,0,0,0,100,0.419,0.882,0.361,16,41,5,0041500104,1610612739,CLE,Cleveland,Richard Jefferson,,,16:36,0.0,0.0,0.0,2.0,2.0,5.0,0.0,14.0,0.0,1.0,2.0,1.0
0041500104,1610612739,CLE,Cleveland,202697,Iman Shumpert,,,9:24,120.6,91.2,29.4,0.167,0.0,33.3,0.1,0.2,0.15,0.0,0.0,0.0,0.113,87.89,0.016,2016-04-24T00:00:00,4,CLE,Cleveland,4-0,25,28,28,19,0,0,0,0,0,0,0,0,0,0,100,0.419,0.882,0.361,16,41,5,0041500104,1610612739,CLE,Cleveland,Iman Shumpert,,,9:24,0.0,0.0,0.0,0.0,0.0,2.0,0.0,8.0,0.0,1.0,1.0,0.0
0041500104,1610612739,CLE,Cleveland,101112,Channing Frye,,,8:57,114.2,90.1,24.1,0.0,0.0,0.0,0.0,0.111,0.053,0.0,0.0,0.0,0.059,84.55,-0.069,2016-04-24T00:00:00,4,CLE,Cleveland,4-0,25,28,28,19,0,0,0,0,0,0,0,0,0,0,100,0.419,0.882,0.361,16,41,5,0041500104,1610612739,CLE,Cleveland,Channing Frye,,,8:57,0.0,0.0,0.0,0.0,0.0,2.0,0.0,6.0,0.0,0.0,3.0,0.0
0041500104,1610612739,CLE,Cleveland,203521,Matthew Dellavedova,,,14:50,101.7,113.6,-11.9,0.2,0.0,12.9,0.0,0.0,0.0,0.0,0.7,0.814,0.214,85.8,0.193,2016-04-24T00:00:00,4,CLE,Cleveland,4-0,25,28,28,19,0,0,0,0,0,0,0,0,0,0,100,0.419,0.882,0.361,16,41,5,0041500104,1610612739,CLE,Cleveland,Matthew Dellavedova,,,14:50,0.0,2.0,0.0,4.0,5.0,5.0,0.0,14.0,0.0,0.0,2.0,3.0
0041500104,1610612739,CLE,Cleveland,2563,Dahntay Jones,,DNP - Coach's Decision                  ,,,,,,,0.0,,,,,,,0.0,,,2016-04-24T00:00:00,4,CLE,Cleveland,4-0,25,28,28,19,0,0,0,0,0,0,0,0,0,0,100,0.419,0.882,0.361,16,41,5,0041500104,1610612739,CLE,Cleveland,Dahntay Jones,,DNP - Coach's Decision                  ,,,,,,,,,,,,,
0041500104,1610612739,CLE,Cleveland,2592,James Jones,,DNP - Coach's Decision                  ,,,,,,,0.0,,,,,,,0.0,,,2016-04-24T00:00:00,4,CLE,Cleveland,4-0,25,28,28,19,0,0,0,0,0,0,0,0,0,0,100,0.419,0.882,0.361,16,41,5,0041500104,1610612739,CLE,Cleveland,James Jones,,DNP - Coach's Decision                  ,,,,,,,,,,,,,
0041500104,1610612739,CLE,Cleveland,202389,Timofey Mozgov,,DNP - Coach's Decision                  ,,,,,,,0.0,,,,,,,0.0,,,2016-04-24T00:00:00,4,CLE,Cleveland,4-0,25,28,28,19,0,0,0,0,0,0,0,0,0,0,100,0.419,0.882,0.361,16,41,5,0041500104,1610612739,CLE,Cleveland,Timofey Mozgov,,DNP - Coach's Decision                  ,,,,,,,,,,,,,
0041500104,1610612739,CLE,Cleveland,2590,Mo Williams,,DNP - Coach's Decision                  ,,,,,,,0.0,,,,,,,0.0,,,2016-04-24T00:00:00,4,CLE,Cleveland,4-0,25,28,28,19,0,0,0,0,0,0,0,0,0,0,100,0.419,0.882,0.361,16,41,5,0041500104,1610612739,CLE,Cleveland,Mo Williams,,DNP - Coach's Decision                  ,,,,,,,,,,,,,
0041500104,1610612765,DET,Detroit,202699,Tobias Harris,F,,41:17,121.9,109.4,12.5,0.074,2.0,10.4,0.067,0.275,0.186,5.2,0.643,0.71,0.211,89.57,0.202,2016-04-24T00:00:00,4,DET,Detroit,0-4,28,24,26,20,0,0,0,0,0,0,0,0,0,0,98,0.487,0.667,0.417,22,42,9,0041500104,1610612765,DET,Detroit,Tobias Harris,F,,41:17,2.0,0.0,2.0,10.0,9.0,10.0,8.0,28.0,0.0,0.0,0.0,5.0
0041500104,1610612765,DET,Detroit,202694,Marcus Morris,F,,31:08,104.8,124.2,-19.4,0.0,0.0,0.0,0.0,0.045,0.023,6.6,0.875,0.845,0.261,88.07,0.116,2016-04-24T00:00:00,4,DET,Detroit,0-4,28,24,26,20,0,0,0,0,0,0,0,0,0,0,98,0.487,0.667,0.417,22,42,9,0041500104,1610612765,DET,Detroit,Marcus Morris,F,,31:08,3.0,1.0,0.0,6.0,13.0,6.0,7.0,24.0,0.0,0.0,5.0,4.0
0041500104,1610612765,DET,Detroit,203083,Andre Drummond,C,,31:18,106.1,109.5,-3.4,0.0,0.0,0.0,0.04,0.333,0.2,5.4,0.462,0.489,0.294,88.18,0.127,2016-04-24T00:00:00,4,DET,Detroit,0-4,28,24,26,20,0,0,0,0,0,0,0,0,0,0,98,0.487,0.667,0.417,22,42,9,0041500104,1610612765,DET,Detroit,Andre Drummond,C,,31:18,0.0,3.0,2.0,12.0,13.0,4.0,8.0,22.0,2.0,0.0,2.0,7.0
0041500104,1610612765,DET,Detroit,203484,Kentavious Caldwell-Pope,G,,42:48,118.7,112.9,5.8,0.156,0.0,33.3,0.063,0.05,0.056,0.0,0.45,0.45,0.12,88.64,0.065,2016-04-24T00:00:00,4,DET,Detroit,0-4,28,24,26,20,0,0,0,0,0,0,0,0,0,0,98,0.487,0.667,0.417,22,42,9,0041500104,1610612765,DET,Detroit,Kentavious Caldwell-Pope,G,,42:48,3.0,0.0,0.0,0.0,9.0,10.0,8.0,30.0,0.0,0.0,2.0,1.0
0041500104,1610612765,DET,Detroit,202704,Reggie Jackson,G,,37:26,110.0,103.1,6.9,0.522,2.4,39.4,0.0,0.081,0.045,16.4,0.462,0.484,0.249,87.84,0.116,2016-04-24T00:00:00,4,DET,Detroit,0-4,28,24,26,20,0,0,0,0,0,0,0,0,0,0,98,0.487,0.667,0.417,22,42,9,0041500104,1610612765,DET,Detroit,Reggie Jackson,G,,37:26,2.0,3.0,0.0,12.0,11.0,8.0,7.0,22.0,1.0,0.0,2.0,3.0
0041500104,1610612765,DET,Detroit,203382,Aron Baynes,,,10:13,110.8,132.1,-21.3,0.143,0.0,25.0,0.091,0.222,0.15,0.0,0.333,0.333,0.132,100.39,0.036,2016-04-24T00:00:00,4,DET,Detroit,0-4,28,24,26,20,0,0,0,0,0,0,0,0,0,0,98,0.487,0.667,0.417,22,42,9,0041500104,1610612765,DET,Detroit,Aron Baynes,,,10:13,0.0,2.0,0.0,2.0,0.0,4.0,4.0,10.0,0.0,1.0,2.0,2.0
0041500104,1610612765,DET,Detroit,1626169,Stanley Johnson,,,29:35,112.4,97.3,15.1,0.0,0.0,0.0,0.0,0.156,0.086,11.1,0.313,0.313,0.159,82.85,0.023,2016-04-24T00:00:00,4,DET,Detroit,0-4,28,24,26,20,0,0,0,0,0,0,0,0,0,0,98,0.487,0.667,0.417,22,42,9,0041500104,1610612765,DET,Detroit,Stanley Johnson,,,29:35,0.0,0.0,0.0,0.0,4.0,6.0,9.0,18.0,0.0,0.0,2.0,0.0
0041500104,1610612765,DET,Detroit,2581,Steve Blake,,,10:34,120.5,140.5,-20.0,0.286,0.0,50.0,0.0,0.125,0.059,0.0,0.75,0.75,0.1,90.22,0.045,2016-04-24T00:00:00,4,DET,Detroit,0-4,28,24,26,20,0,0,0,0,0,0,0,0,0,0,98,0.487,0.667,0.417,22,42,9,0041500104,1610612765,DET,Detroit,Steve Blake,,,10:34,0.0,0.0,0.0,0.0,2.0,2.0,5.0,12.0,0.0,0.0,3.0,0.0
0041500104,1610612765,DET,Detroit,201229,Anthony Tolliver,,,5:41,74.3,91.1,-16.7,0.0,0.0,0.0,0.167,0.0,0.077,0.0,1.0,1.0,0.085,87.11,0.176,2016-04-24T00:00:00,4,DET,Detroit,0-4,28,24,26,20,0,0,0,0,0,0,0,0,0,0,98,0.487,0.667,0.417,22,42,9,0041500104,1610612765,DET,Detroit,Anthony Tolliver,,,5:41,0.0,0.0,0.0,0.0,4.0,0.0,4.0,4.0,1.0,0.0,0.0,0.0
0041500104,1610612765,DET,Detroit,201202,Joel Anthony,,DNP - Coach's Decision                  ,,,,,,,0.0,,,,,,,0.0,,,2016-04-24T00:00:00,4,DET,Detroit,0-4,28,24,26,20,0,0,0,0,0,0,0,0,0,0,98,0.487,0.667,0.417,22,42,9,0041500104,1610612765,DET,Detroit,Joel Anthony,,DNP - Coach's Decision                  ,,,,,,,,,,,,,
0041500104,1610612765,DET,Detroit,203915,Spencer Dinwiddie,,DNP - Coach's Decision                  ,,,,,,,0.0,,,,,,,0.0,,,2016-04-24T00:00:00,4,DET,Detroit,0-4,28,24,26,20,0,0,0,0,0,0,0,0,0,0,98,0.487,0.667,0.417,22,42,9,0041500104,1610612765,DET,Detroit,Spencer Dinwiddie,,DNP - Coach's Decision                  ,,,,,,,,,,,,,
0041500104,1610612765,DET,Detroit,1626199,Darrun Hilliard,,DNP - Coach's Decision                  ,,,,,,,0.0,,,,,,,0.0,,,2016-04-24T00:00:00,4,DET,Detroit,0-4,28,24,26,20,0,0,0,0,0,0,0,0,0,0,98,0.487,0.667,0.417,22,42,9,0041500104,1610612765,DET,Detroit,Darrun Hilliard,,DNP - Coach's Decision                  ,,,,,,,,,,,,,
0041500104,1610612765,DET,Detroit,201975,Jodie Meeks,,DNP - Coach's Decision                  ,,,,,,,0.0,,,,,,,0.0,,,2016-04-24T00:00:00,4,DET,Detroit,0-4,28,24,26,20,0,0,0,0,0,0,0,0,0,0,98,0.487,0.667,0.417,22,42,9,0041500104,1610612765,DET,Detroit,Jodie Meeks,,DNP - Coach's Decision                  ,,,,,,,,,,,,,
