GAME_ID_x,TEAM_ID_x,TEAM_ABBREVIATION_x,TEAM_CITY_x,PLAYER_ID,PLAYER_NAME_x,START_POSITION_x,COMMENT_x,MIN_x,OFF_RATING,DEF_RATING,NET_RATING,AST_PCT,AST_TOV,AST_RATIO,OREB_PCT,DREB_PCT,REB_PCT,TM_TOV_PCT,EFG_PCT,TS_PCT,USG_PCT,PACE,PIE,GAME_DATE_EST,GAME_SEQUENCE,TEAM_ID_y,TEAM_ABBREVIATION_y,TEAM_CITY_NAME,TEAM_WINS_LOSSES,PTS_QTR1,PTS_QTR2,PTS_QTR3,PTS_QTR4,PTS_OT1,PTS_OT2,PTS_OT3,PTS_OT4,PTS_OT5,PTS_OT6,PTS_OT7,PTS_OT8,PTS_OT9,PTS_OT10,PTS,FG_PCT,FT_PCT,FG3_PCT,AST,REB,TOV,GAME_ID_y,TEAM_ID,TEAM_ABBREVIATION,TEAM_CITY_y,PLAYER_NAME_y,START_POSITION_y,COMMENT_y,MIN_y,PTS_OFF_TOV,PTS_2ND_CHANCE,PTS_FB,PTS_PAINT,OPP_PTS_OFF_TOV,OPP_PTS_2ND_CHANCE,OPP_PTS_FB,OPP_PTS_PAINT,BLK,BLKA,PF,PFD
0021301064,1610612739,CLE,Cleveland,2736,Luol Deng,F,,34:07,98.6,105.2,-6.6,0.174,2.0,19.6,0.05,0.129,0.085,9.8,0.214,0.242,0.208,93.24,0.025,2014-03-26T00:00:00,4,1610612739,CLE,Cleveland,29-44,24,26,16,31,0,0,0,0,0,0,0,0,0,0,97,0.435,0.583,0.346,18,45,10,0021301064,1610612739,CLE,Cleveland,Luol Deng,F,,34:07,0.0,2.0,3.0,4.0,9.0,4.0,5.0,26.0,0.0,1.0,0.0,2.0
0021301064,1610612739,CLE,Cleveland,2736,Luol Deng,F,,34:07,98.6,105.2,-6.6,0.174,2.0,19.6,0.05,0.129,0.085,9.8,0.214,0.242,0.208,93.24,0.025,2014-03-26T00:00:00,4,1610612765,DET,Detroit,26-45,33,18,31,14,0,0,0,0,0,0,0,0,0,0,96,0.464,0.538,0.423,27,48,11,0021301064,1610612739,CLE,Cleveland,Luol Deng,F,,34:07,0.0,2.0,3.0,4.0,9.0,4.0,5.0,26.0,0.0,1.0,0.0,2.0
0021301064,1610612739,CLE,Cleveland,202684,Tristan Thompson,F,,21:42,87.3,130.4,-43.1,0.0,0.0,0.0,0.136,0.188,0.158,21.3,0.0,0.405,0.194,91.84,0.019,2014-03-26T00:00:00,4,1610612739,CLE,Cleveland,29-44,24,26,16,31,0,0,0,0,0,0,0,0,0,0,97,0.435,0.583,0.346,18,45,10,0021301064,1610612739,CLE,Cleveland,Tristan Thompson,F,,21:42,4.0,2.0,1.0,0.0,7.0,2.0,3.0,20.0,0.0,2.0,0.0,5.0
0021301064,1610612739,CLE,Cleveland,202684,Tristan Thompson,F,,21:42,87.3,130.4,-43.1,0.0,0.0,0.0,0.136,0.188,0.158,21.3,0.0,0.405,0.194,91.84,0.019,2014-03-26T00:00:00,4,1610612765,DET,Detroit,26-45,33,18,31,14,0,0,0,0,0,0,0,0,0,0,96,0.464,0.538,0.423,27,48,11,0021301064,1610612739,CLE,Cleveland,Tristan Thompson,F,,21:42,4.0,2.0,1.0,0.0,7.0,2.0,3.0,20.0,0.0,2.0,0.0,5.0
0021301064,1610612739,CLE,Cleveland,201150,Spencer Hawes,C,,23:52,93.8,131.6,-37.8,0.133,1.0,23.7,0.04,0.278,0.14,23.7,0.5,0.45,0.119,98.23,0.071,2014-03-26T00:00:00,4,1610612739,CLE,Cleveland,29-44,24,26,16,31,0,0,0,0,0,0,0,0,0,0,97,0.435,0.583,0.346,18,45,10,0021301064,1610612739,CLE,Cleveland,Spencer Hawes,C,,23:52,0.0,0.0,0.0,4.0,7.0,5.0,3.0,16.0,1.0,0.0,1.0,1.0
0021301064,1610612739,CLE,Cleveland,201150,Spencer Hawes,C,,23:52,93.8,131.6,-37.8,0.133,1.0,23.7,0.04,0.278,0.14,23.7,0.5,0.45,0.119,98.23,0.071,2014-03-26T00:00:00,4,1610612765,DET,Detroit,26-45,33,18,31,14,0,0,0,0,0,0,0,0,0,0,96,0.464,0.538,0.423,27,48,11,0021301064,1610612739,CLE,Cleveland,Spencer Hawes,C,,23:52,0.0,0.0,0.0,4.0,7.0,5.0,3.0,16.0,1.0,0.0,1.0,1.0
0021301064,1610612739,CLE,Cleveland,203079,Dion Waiters,G,,38:32,104.2,100.9,3.4,0.2,0.0,15.8,0.0,0.118,0.053,0.0,0.4,0.422,0.257,86.85,0.084,2014-03-26T00:00:00,4,1610612739,CLE,Cleveland,29-44,24,26,16,31,0,0,0,0,0,0,0,0,0,0,97,0.435,0.583,0.346,18,45,10,0021301064,1610612739,CLE,Cleveland,Dion Waiters,G,,38:32,4.0,0.0,0.0,6.0,9.0,5.0,5.0,26.0,1.0,2.0,3.0,4.0
0021301064,1610612739,CLE,Cleveland,203079,Dion Waiters,G,,38:32,104.2,100.9,3.4,0.2,0.0,15.8,0.0,0.118,0.053,0.0,0.4,0.422,0.257,86.85,0.084,2014-03-26T00:00:00,4,1610612765,DET,Detroit,26-45,33,18,31,14,0,0,0,0,0,0,0,0,0,0,96,0.464,0.538,0.423,27,48,11,0021301064,1610612739,CLE,Cleveland,Dion Waiters,G,,38:32,4.0,0.0,0.0,6.0,9.0,5.0,5.0,26.0,1.0,2.0,3.0,4.0
0021301064,1610612739,CLE,Cleveland,101127,Jarrett Jack,G,,28:30,95.1,118.8,-23.7,0.067,0.5,5.4,0.0,0.091,0.038,10.8,0.533,0.551,0.265,99.36,0.088,2014-03-26T00:00:00,4,1610612739,CLE,Cleveland,29-44,24,26,16,31,0,0,0,0,0,0,0,0,0,0,97,0.435,0.583,0.346,18,45,10,0021301064,1610612739,CLE,Cleveland,Jarrett Jack,G,,28:30,5.0,2.0,0.0,4.0,9.0,2.0,7.0,24.0,0.0,0.0,0.0,1.0
0021301064,1610612739,CLE,Cleveland,101127,Jarrett Jack,G,,28:30,95.1,118.8,-23.7,0.067,0.5,5.4,0.0,0.091,0.038,10.8,0.533,0.551,0.265,99.36,0.088,2014-03-26T00:00:00,4,1610612765,DET,Detroit,26-45,33,18,31,14,0,0,0,0,0,0,0,0,0,0,96,0.464,0.538,0.423,27,48,11,0021301064,1610612739,CLE,Cleveland,Jarrett Jack,G,,28:30,5.0,2.0,0.0,4.0,9.0,2.0,7.0,24.0,0.0,0.0,0.0,1.0
0021301064,1610612739,CLE,Cleveland,203521,Matthew Dellavedova,,,35:34,120.8,85.1,35.7,0.25,3.0,32.0,0.0,0.081,0.043,10.7,1.056,0.976,0.17,90.42,0.197,2014-03-26T00:00:00,4,1610612739,CLE,Cleveland,29-44,24,26,16,31,0,0,0,0,0,0,0,0,0,0,97,0.435,0.583,0.346,18,45,10,0021301064,1610612739,CLE,Cleveland,Matthew Dellavedova,,,35:34,1.0,0.0,0.0,4.0,4.0,7.0,6.0,22.0,0.0,0.0,2.0,2.0
0021301064,1610612739,CLE,Cleveland,203521,Matthew Dellavedova,,,35:34,120.8,85.1,35.7,0.25,3.0,32.0,0.0,0.081,0.043,10.7,1.056,0.976,0.17,90.42,0.197,2014-03-26T00:00:00,4,1610612765,DET,Detroit,26-45,33,18,31,14,0,0,0,0,0,0,0,0,0,0,96,0.464,0.538,0.423,27,48,11,0021301064,1610612739,CLE,Cleveland,Matthew Dellavedova,,,35:34,1.0,0.0,0.0,4.0,4.0,7.0,6.0,22.0,0.0,0.0,2.0,2.0
0021301064,1610612739,CLE,Cleveland,2760,Anderson Varejao,,,31:19,122.0,80.9,41.0,0.0,0.0,0.0,0.226,0.281,0.254,0.0,0.556,0.558,0.161,89.76,0.151,2014-03-26T00:00:00,4,1610612739,CLE,Cleveland,29-44,24,26,16,31,0,0,0,0,0,0,0,0,0,0,97,0.435,0.583,0.346,18,45,10,0021301064,1610612739,CLE,Cleveland,Anderson Varejao,,,31:19,2.0,6.0,2.0,8.0,4.0,5.0,6.0,20.0,0.0,0.0,4.0,3.0
0021301064,1610612739,CLE,Cleveland,2760,Anderson Varejao,,,31:19,122.0,80.9,41.0,0.0,0.0,0.0,0.226,0.281,0.254,0.0,0.556,0.558,0.161,89.76,0.151,2014-03-26T00:00:00,4,1610612765,DET,Detroit,26-45,33,18,31,14,0,0,0,0,0,0,0,0,0,0,96,0.464,0.538,0.423,27,48,11,0021301064,1610612739,CLE,Cleveland,Anderson Varejao,,,31:19,2.0,6.0,2.0,8.0,4.0,5.0,6.0,20.0,0.0,0.0,4.0,3.0
0021301064,1610612739,CLE,Cleveland,203092,Tyler Zeller,,,9:42,95.7,104.0,-8.2,0.0,0.0,0.0,0.0,0.0,0.0,0.0,0.4,0.4,0.22,93.92,0.0,2014-03-26T00:00:00,4,1610612739,CLE,Cleveland,29-44,24,26,16,31,0,0,0,0,0,0,0,0,0,0,97,0.435,0.583,0.346,18,45,10,0021301064,1610612739,CLE,Cleveland,Tyler Zeller,,,9:42,0.0,0.0,0.0,2.0,4.0,2.0,4.0,14.0,0.0,0.0,1.0,0.0
0021301064,1610612739,CLE,Cleveland,203092,Tyler Zeller,,,9:42,95.7,104.0,-8.2,0.0,0.0,0.0,0.0,0.0,0.0,0.0,0.4,0.4,0.22,93.92,0.0,2014-03-26T00:00:00,4,1610612765,DET,Detroit,26-45,33,18,31,14,0,0,0,0,0,0,0,0,0,0,96,0.464,0.538,0.423,27,48,11,0021301064,1610612739,CLE,Cleveland,Tyler Zeller,,,9:42,0.0,0.0,0.0,2.0,4.0,2.0,4.0,14.0,0.0,0.0,1.0,0.0
0021301064,1610612739,CLE,Cleveland,202087,Alonzo Gee,,,16:42,118.1,97.0,21.1,0.1,0.0,14.3,0.0,0.125,0.069,0.0,0.667,0.667,0.184,88.55,0.113,2014-03-26T00:00:00,4,1610612739,CLE,Cleveland,29-44,24,26,16,31,0,0,0,0,0,0,0,0,0,0,97,0.435,0.583,0.346,18,45,10,0021301064,1610612739,CLE,Cleveland,Alonzo Gee,,,16:42,3.0,0.0,0.0,2.0,2.0,3.0,6.0,12.0,0.0,0.0,2.0,0.0
0021301064,1610612739,CLE,Cleveland,202087,Alonzo Gee,,,16:42,118.1,97.0,21.1,0.1,0.0,14.3,0.0,0.125,0.069,0.0,0.667,0.667,0.184,88.55,0.113,2014-03-26T00:00:00,4,1610612765,DET,Detroit,26-45,33,18,31,14,0,0,0,0,0,0,0,0,0,0,96,0.464,0.538,0.423,27,48,11,0021301064,1610612739,CLE,Cleveland,Alonzo Gee,,,16:42,3.0,0.0,0.0,2.0,2.0,3.0,6.0,12.0,0.0,0.0,2.0,0.0
0021301064,1610612739,CLE,Cleveland,203461,Anthony Bennett,,DND - LEFT PATELLAR TENDON STRAIN,,,,,,,0.0,,,,,,,0.0,,,2014-03-26T00:00:00,4,1610612739,CLE,Cleveland,29-44,24,26,16,31,0,0,0,0,0,0,0,0,0,0,97,0.435,0.583,0.346,18,45,10,0021301064,1610612739,CLE,Cleveland,Anthony Bennett,,DND - LEFT PATELLAR TENDON STRAIN,,,,,,,,,,,,,
0021301064,1610612739,CLE,Cleveland,203461,Anthony Bennett,,DND - LEFT PATELLAR TENDON STRAIN,,,,,,,0.0,,,,,,,0.0,,,2014-03-26T00:00:00,4,1610612765,DET,Detroit,26-45,33,18,31,14,0,0,0,0,0,0,0,0,0,0,96,0.464,0.538,0.423,27,48,11,0021301064,1610612739,CLE,Cleveland,Anthony Bennett,,DND - LEFT PATELLAR TENDON STRAIN,,,,,,,,,,,,,
0021301064,1610612739,CLE,Cleveland,203552,Seth Curry,,DNP - Coach's Decision,,,,,,,0.0,,,,,,,0.0,,,2014-03-26T00:00:00,4,1610612739,CLE,Cleveland,29-44,24,26,16,31,0,0,0,0,0,0,0,0,0,0,97,0.435,0.583,0.346,18,45,10,0021301064,1610612739,CLE,Cleveland,Seth Curry,,DNP - Coach's Decision,,,,,,,,,,,,,
0021301064,1610612739,CLE,Cleveland,203552,Seth Curry,,DNP - Coach's Decision,,,,,,,0.0,,,,,,,0.0,,,2014-03-26T00:00:00,4,1610612765,DET,Detroit,26-45,33,18,31,14,0,0,0,0,0,0,0,0,0,0,96,0.464,0.538,0.423,27,48,11,0021301064,1610612739,CLE,Cleveland,Seth Curry,,DNP - Coach's Decision,,,,,,,,,,,,,
0021301064,1610612739,CLE,Cleveland,203508,Sergey Karasev,,DND - RIGHT KNEE PATELLAR TENDINITIS,,,,,,,0.0,,,,,,,0.0,,,2014-03-26T00:00:00,4,1610612739,CLE,Cleveland,29-44,24,26,16,31,0,0,0,0,0,0,0,0,0,0,97,0.435,0.583,0.346,18,45,10,0021301064,1610612739,CLE,Cleveland,Sergey Karasev,,DND - RIGHT KNEE PATELLAR TENDINITIS,,,,,,,,,,,,,
0021301064,1610612739,CLE,Cleveland,203508,Sergey Karasev,,DND - RIGHT KNEE PATELLAR TENDINITIS,,,,,,,0.0,,,,,,,0.0,,,2014-03-26T00:00:00,4,1610612765,DET,Detroit,26-45,33,18,31,14,0,0,0,0,0,0,0,0,0,0,96,0.464,0.538,0.423,27,48,11,0021301064,1610612739,CLE,Cleveland,Sergey Karasev,,DND - RIGHT KNEE PATELLAR TENDINITIS,,,,,,,,,,,,,
0021301064,1610612739,CLE,Cleveland,101139,CJ Miles,,DND - LEFT ANKLE SPRAIN,,,,,,,0.0,,,,,,,0.0,,,2014-03-26T00:00:00,4,1610612739,CLE,Cleveland,29-44,24,26,16,31,0,0,0,0,0,0,0,0,0,0,97,0.435,0.583,0.346,18,45,10,0021301064,1610612739,CLE,Cleveland,CJ Miles,,DND - LEFT ANKLE SPRAIN,,,,,,,,,,,,,
0021301064,1610612739,CLE,Cleveland,101139,CJ Miles,,DND - LEFT ANKLE SPRAIN,,,,,,,0.0,,,,,,,0.0,,,2014-03-26T00:00:00,4,1610612765,DET,Detroit,26-45,33,18,31,14,0,0,0,0,0,0,0,0,0,0,96,0.464,0.538,0.423,27,48,11,0021301064,1610612739,CLE,Cleveland,CJ Miles,,DND - LEFT ANKLE SPRAIN,,,,,,,,,,,,,
0021301064,1610612765,DET,Detroit,2746,Josh Smith,F,,43:52,112.1,102.7,9.4,0.222,3.0,18.6,0.027,0.152,0.096,6.2,0.5,0.493,0.287,92.75,0.13,2014-03-26T00:00:00,4,1610612739,CLE,Cleveland,29-44,24,26,16,31,0,0,0,0,0,0,0,0,0,0,97,0.435,0.583,0.346,18,45,10,0021301064,1610612765,DET,Detroit,Josh Smith,F,,43:52,2.0,3.0,2.0,10.0,15.0,12.0,6.0,32.0,3.0,0.0,2.0,2.0
0021301064,1610612765,DET,Detroit,2746,Josh Smith,F,,43:52,112.1,102.7,9.4,0.222,3.0,18.6,0.027,0.152,0.096,6.2,0.5,0.493,0.287,92.75,0.13,2014-03-26T00:00:00,4,1610612765,DET,Detroit,26-45,33,18,31,14,0,0,0,0,0,0,0,0,0,0,96,0.464,0.538,0.423,27,48,11,0021301064,1610612765,DET,Detroit,Josh Smith,F,,43:52,2.0,3.0,2.0,10.0,15.0,12.0,6.0,32.0,3.0,0.0,2.0,2.0
0021301064,1610612765,DET,Detroit,202328,Greg Monroe,F,,27:40,137.1,92.0,45.1,0.042,0.5,7.8,0.111,0.207,0.17,15.5,0.667,0.709,0.198,96.76,0.142,2014-03-26T00:00:00,4,1610612739,CLE,Cleveland,29-44,24,26,16,31,0,0,0,0,0,0,0,0,0,0,97,0.435,0.583,0.346,18,45,10,0021301064,1610612765,DET,Detroit,Greg Monroe,F,,27:40,2.0,2.0,0.0,10.0,8.0,6.0,3.0,16.0,1.0,1.0,3.0,1.0
0021301064,1610612765,DET,Detroit,202328,Greg Monroe,F,,27:40,137.1,92.0,45.1,0.042,0.5,7.8,0.111,0.207,0.17,15.5,0.667,0.709,0.198,96.76,0.142,2014-03-26T00:00:00,4,1610612765,DET,Detroit,26-45,33,18,31,14,0,0,0,0,0,0,0,0,0,0,96,0.464,0.538,0.423,27,48,11,0021301064,1610612765,DET,Detroit,Greg Monroe,F,,27:40,2.0,2.0,0.0,10.0,8.0,6.0,3.0,16.0,1.0,1.0,3.0,1.0
0021301064,1610612765,DET,Detroit,203083,Andre Drummond,C,,26:14,86.1,93.6,-7.5,0.067,0.5,9.3,0.042,0.345,0.208,18.6,0.5,0.387,0.178,90.69,0.077,2014-03-26T00:00:00,4,1610612739,CLE,Cleveland,29-44,24,26,16,31,0,0,0,0,0,0,0,0,0,0,97,0.435,0.583,0.346,18,45,10,0021301064,1610612765,DET,Detroit,Andre Drummond,C,,26:14,0.0,0.0,0.0,6.0,11.0,4.0,1.0,12.0,0.0,0.0,3.0,3.0
0021301064,1610612765,DET,Detroit,203083,Andre Drummond,C,,26:14,86.1,93.6,-7.5,0.067,0.5,9.3,0.042,0.345,0.208,18.6,0.5,0.387,0.178,90.69,0.077,2014-03-26T00:00:00,4,1610612765,DET,Detroit,26-45,33,18,31,14,0,0,0,0,0,0,0,0,0,0,96,0.464,0.538,0.423,27,48,11,0021301064,1610612765,DET,Detroit,Andre Drummond,C,,26:14,0.0,0.0,0.0,6.0,11.0,4.0,1.0,12.0,0.0,0.0,3.0,3.0
0021301064,1610612765,DET,Detroit,202713,Kyle Singler,G,,29:54,104.9,98.5,6.5,0.111,0.0,15.4,0.04,0.063,0.053,0.0,0.818,0.818,0.174,96.32,0.151,2014-03-26T00:00:00,4,1610612739,CLE,Cleveland,29-44,24,26,16,31,0,0,0,0,0,0,0,0,0,0,97,0.435,0.583,0.346,18,45,10,0021301064,1610612765,DET,Detroit,Kyle Singler,G,,29:54,0.0,0.0,3.0,0.0,12.0,6.0,4.0,22.0,1.0,0.0,4.0,1.0
0021301064,1610612765,DET,Detroit,202713,Kyle Singler,G,,29:54,104.9,98.5,6.5,0.111,0.0,15.4,0.04,0.063,0.053,0.0,0.818,0.818,0.174,96.32,0.151,2014-03-26T00:00:00,4,1610612765,DET,Detroit,26-45,33,18,31,14,0,0,0,0,0,0,0,0,0,0,96,0.464,0.538,0.423,27,48,11,0021301064,1610612765,DET,Detroit,Kyle Singler,G,,29:54,0.0,0.0,3.0,0.0,12.0,6.0,4.0,22.0,1.0,0.0,4.0,1.0
0021301064,1610612765,DET,Detroit,201943,Brandon Jennings,G,,41:14,114.0,104.1,9.9,0.419,6.5,44.8,0.0,0.111,0.063,6.9,0.607,0.607,0.186,92.92,0.165,2014-03-26T00:00:00,4,1610612739,CLE,Cleveland,29-44,24,26,16,31,0,0,0,0,0,0,0,0,0,0,97,0.435,0.583,0.346,18,45,10,0021301064,1610612765,DET,Detroit,Brandon Jennings,G,,41:14,3.0,0.0,0.0,0.0,15.0,12.0,6.0,28.0,0.0,0.0,1.0,1.0
0021301064,1610612765,DET,Detroit,201943,Brandon Jennings,G,,41:14,114.0,104.1,9.9,0.419,6.5,44.8,0.0,0.111,0.063,6.9,0.607,0.607,0.186,92.92,0.165,2014-03-26T00:00:00,4,1610612765,DET,Detroit,26-45,33,18,31,14,0,0,0,0,0,0,0,0,0,0,96,0.464,0.538,0.423,27,48,11,0021301064,1610612765,DET,Detroit,Brandon Jennings,G,,41:14,3.0,0.0,0.0,0.0,15.0,12.0,6.0,28.0,0.0,0.0,1.0,1.0
0021301064,1610612765,DET,Detroit,201155,Rodney Stuckey,,,32:07,105.8,119.7,-13.8,0.087,1.0,13.4,0.033,0.032,0.033,13.4,0.2,0.276,0.188,89.43,-0.013,2014-03-26T00:00:00,4,1610612739,CLE,Cleveland,29-44,24,26,16,31,0,0,0,0,0,0,0,0,0,0,97,0.435,0.583,0.346,18,45,10,0021301064,1610612765,DET,Detroit,Rodney Stuckey,,,32:07,2.0,2.0,0.0,4.0,15.0,10.0,5.0,24.0,0.0,0.0,1.0,3.0
0021301064,1610612765,DET,Detroit,201155,Rodney Stuckey,,,32:07,105.8,119.7,-13.8,0.087,1.0,13.4,0.033,0.032,0.033,13.4,0.2,0.276,0.188,89.43,-0.013,2014-03-26T00:00:00,4,1610612765,DET,Detroit,26-45,33,18,31,14,0,0,0,0,0,0,0,0,0,0,96,0.464,0.538,0.423,27,48,11,0021301064,1610612765,DET,Detroit,Rodney Stuckey,,,32:07,2.0,2.0,0.0,4.0,15.0,10.0,5.0,24.0,0.0,0.0,1.0,3.0
0021301064,1610612765,DET,Detroit,201973,Jonas Jerebko,,,19:02,86.7,129.6,-42.9,0.0,0.0,0.0,0.091,0.316,0.195,0.0,0.333,0.333,0.14,87.91,0.079,2014-03-26T00:00:00,4,1610612739,CLE,Cleveland,29-44,24,26,16,31,0,0,0,0,0,0,0,0,0,0,97,0.435,0.583,0.346,18,45,10,0021301064,1610612765,DET,Detroit,Jonas Jerebko,,,19:02,0.0,0.0,4.0,4.0,9.0,6.0,5.0,16.0,0.0,0.0,2.0,0.0
0021301064,1610612765,DET,Detroit,201973,Jonas Jerebko,,,19:02,86.7,129.6,-42.9,0.0,0.0,0.0,0.091,0.316,0.195,0.0,0.333,0.333,0.14,87.91,0.079,2014-03-26T00:00:00,4,1610612765,DET,Detroit,26-45,33,18,31,14,0,0,0,0,0,0,0,0,0,0,96,0.464,0.538,0.423,27,48,11,0021301064,1610612765,DET,Detroit,Jonas Jerebko,,,19:02,0.0,0.0,4.0,4.0,9.0,6.0,5.0,16.0,0.0,0.0,2.0,0.0
0021301064,1610612765,DET,Detroit,203484,Kentavious Caldwell-Pope,,,13:11,68.7,109.8,-41.2,0.0,0.0,0.0,0.125,0.0,0.067,0.0,0.625,0.625,0.134,86.51,0.065,2014-03-26T00:00:00,4,1610612739,CLE,Cleveland,29-44,24,26,16,31,0,0,0,0,0,0,0,0,0,0,97,0.435,0.583,0.346,18,45,10,0021301064,1610612765,DET,Detroit,Kentavious Caldwell-Pope,,,13:11,2.0,0.0,0.0,2.0,6.0,4.0,0.0,14.0,0.0,1.0,2.0,0.0
0021301064,1610612765,DET,Detroit,203484,Kentavious Caldwell-Pope,,,13:11,68.7,109.8,-41.2,0.0,0.0,0.0,0.125,0.0,0.067,0.0,0.625,0.625,0.134,86.51,0.065,2014-03-26T00:00:00,4,1610612765,DET,Detroit,26-45,33,18,31,14,0,0,0,0,0,0,0,0,0,0,96,0.464,0.538,0.423,27,48,11,0021301064,1610612765,DET,Detroit,Kentavious Caldwell-Pope,,,13:11,2.0,0.0,0.0,2.0,6.0,4.0,0.0,14.0,0.0,1.0,2.0,0.0
0021301064,1610612765,DET,Detroit,101198,Will Bynum,,,6:46,47.0,109.4,-62.4,1.0,2.0,41.0,0.111,0.0,0.071,20.5,0.0,0.532,0.172,87.39,0.25,2014-03-26T00:00:00,4,1610612739,CLE,Cleveland,29-44,24,26,16,31,0,0,0,0,0,0,0,0,0,0,97,0.435,0.583,0.346,18,45,10,0021301064,1610612765,DET,Detroit,Will Bynum,,,6:46,0.0,0.0,0.0,0.0,4.0,0.0,0.0,6.0,0.0,0.0,0.0,2.0
0021301064,1610612765,DET,Detroit,101198,Will Bynum,,,6:46,47.0,109.4,-62.4,1.0,2.0,41.0,0.111,0.0,0.071,20.5,0.0,0.532,0.172,87.39,0.25,2014-03-26T00:00:00,4,1610612765,DET,Detroit,26-45,33,18,31,14,0,0,0,0,0,0,0,0,0,0,96,0.464,0.538,0.423,27,48,11,0021301064,1610612765,DET,Detroit,Will Bynum,,,6:46,0.0,0.0,0.0,0.0,4.0,0.0,0.0,6.0,0.0,0.0,0.0,2.0
0021301064,1610612765,DET,Detroit,203540,Gigi Datome,,DNP - Coach's Decision,,,,,,,0.0,,,,,,,0.0,,,2014-03-26T00:00:00,4,1610612739,CLE,Cleveland,29-44,24,26,16,31,0,0,0,0,0,0,0,0,0,0,97,0.435,0.583,0.346,18,45,10,0021301064,1610612765,DET,Detroit,Gigi Datome,,DNP - Coach's Decision,,,,,,,,,,,,,
0021301064,1610612765,DET,Detroit,203540,Gigi Datome,,DNP - Coach's Decision,,,,,,,0.0,,,,,,,0.0,,,2014-03-26T00:00:00,4,1610612765,DET,Detroit,26-45,33,18,31,14,0,0,0,0,0,0,0,0,0,0,96,0.464,0.538,0.423,27,48,11,0021301064,1610612765,DET,Detroit,Gigi Datome,,DNP - Coach's Decision,,,,,,,,,,,,,
0021301064,1610612765,DET,Detroit,203502,Tony Mitchell,,DNP - Coach's Decision,,,,,,,0.0,,,,,,,0.0,,,2014-03-26T00:00:00,4,1610612739,CLE,Cleveland,29-44,24,26,16,31,0,0,0,0,0,0,0,0,0,0,97,0.435,0.583,0.346,18,45,10,0021301064,1610612765,DET,Detroit,Tony Mitchell,,DNP - Coach's Decision,,,,,,,,,,,,,
0021301064,1610612765,DET,Detroit,203502,Tony Mitchell,,DNP - Coach's Decision,,,,,,,0.0,,,,,,,0.0,,,2014-03-26T00:00:00,4,1610612765,DET,Detroit,26-45,33,18,31,14,0,0,0,0,0,0,0,0,0,0,96,0.464,0.538,0.423,27,48,11,0021301064,1610612765,DET,Detroit,Tony Mitchell,,DNP - Coach's Decision,,,,,,,,,,,,,
0021301064,1610612765,DET,Detroit,203491,Peyton Siva,,DNP - Coach's Decision,,,,,,,0.0,,,,,,,0.0,,,2014-03-26T00:00:00,4,1610612739,CLE,Cleveland,29-44,24,26,16,31,0,0,0,0,0,0,0,0,0,0,97,0.435,0.583,0.346,18,45,10,0021301064,1610612765,DET,Detroit,Peyton Siva,,DNP - Coach's Decision,,,,,,,,,,,,,
0021301064,1610612765,DET,Detroit,203491,Peyton Siva,,DNP - Coach's Decision,,,,,,,0.0,,,,,,,0.0,,,2014-03-26T00:00:00,4,1610612765,DET,Detroit,26-45,33,18,31,14,0,0,0,0,0,0,0,0,0,0,96,0.464,0.538,0.423,27,48,11,0021301064,1610612765,DET,Detroit,Peyton Siva,,DNP - Coach's Decision,,,,,,,,,,,,,
0021301064,1610612765,DET,Detroit,101111,Charlie Villanueva,,DNP - Coach's Decision,,,,,,,0.0,,,,,,,0.0,,,2014-03-26T00:00:00,4,1610612739,CLE,Cleveland,29-44,24,26,16,31,0,0,0,0,0,0,0,0,0,0,97,0.435,0.583,0.346,18,45,10,0021301064,1610612765,DET,Detroit,Charlie Villanueva,,DNP - Coach's Decision,,,,,,,,,,,,,
0021301064,1610612765,DET,Detroit,101111,Charlie Villanueva,,DNP - Coach's Decision,,,,,,,0.0,,,,,,,0.0,,,2014-03-26T00:00:00,4,1610612765,DET,Detroit,26-45,33,18,31,14,0,0,0,0,0,0,0,0,0,0,96,0.464,0.538,0.423,27,48,11,0021301064,1610612765,DET,Detroit,Charlie Villanueva,,DNP - Coach's Decision,,,,,,,,,,,,,
