GAME_ID_x,TEAM_ID_x,TEAM_ABBREVIATION_x,TEAM_CITY_x,PLAYER_ID,PLAYER_NAME_x,START_POSITION_x,COMMENT_x,MIN_x,OFF_RATING,DEF_RATING,NET_RATING,AST_PCT,AST_TOV,AST_RATIO,OREB_PCT,DREB_PCT,REB_PCT,TM_TOV_PCT,EFG_PCT,TS_PCT,USG_PCT,PACE,PIE,GAME_DATE_EST,GAME_SEQUENCE,TEAM_ABBREVIATION_y,TEAM_CITY_NAME,TEAM_WINS_LOSSES,PTS_QTR1,PTS_QTR2,PTS_QTR3,PTS_QTR4,PTS_OT1,PTS_OT2,PTS_OT3,PTS_OT4,PTS_OT5,PTS_OT6,PTS_OT7,PTS_OT8,PTS_OT9,PTS_OT10,PTS,FG_PCT,FT_PCT,FG3_PCT,AST,REB,TOV,GAME_ID_y,TEAM_ID_y,TEAM_ABBREVIATION,TEAM_CITY_y,PLAYER_NAME_y,START_POSITION_y,COMMENT_y,MIN_y,PTS_OFF_TOV,PTS_2ND_CHANCE,PTS_FB,PTS_PAINT,OPP_PTS_OFF_TOV,OPP_PTS_2ND_CHANCE,OPP_PTS_FB,OPP_PTS_PAINT,BLK,BLKA,PF,PFD
0041500117,1610612754,IND,Indiana,202331,Paul George,F,,46:01,100.6,105.3,-4.8,0.038,0.14,3.5,0.03,0.234,0.15,24.4,0.556,0.63,0.316,86.66,0.138,2016-05-01T00:00:00,5,IND,Indiana,3-4,23,21,20,20,0,0,0,0,0,0,0,0,0,0,84,0.466,0.875,0.474,12,38,13,0041500117,1610612754,IND,Indiana,Paul George,F,,46:01,2.0,0.0,4.0,6.0,18.0,15.0,12.0,38.0,0.0,2.0,4.0,7.0
0041500117,1610612754,IND,Indiana,1626167,Myles Turner,F,,28:44,81.3,104.7,-23.4,0.0,0.0,0.0,0.0,0.207,0.109,0.0,0.182,0.182,0.193,88.06,0.012,2016-05-01T00:00:00,5,IND,Indiana,3-4,23,21,20,20,0,0,0,0,0,0,0,0,0,0,84,0.466,0.875,0.474,12,38,13,0041500117,1610612754,IND,Indiana,Myles Turner,F,,28:44,0.0,0.0,0.0,2.0,16.0,17.0,4.0,26.0,4.0,1.0,2.0,2.0
0041500117,1610612754,IND,Indiana,101133,Ian Mahinmi,C,,28:06,100.7,104.4,-3.7,0.059,0.5,12.5,0.053,0.097,0.08,25.0,0.6,0.6,0.133,87.45,0.043,2016-05-01T00:00:00,5,IND,Indiana,3-4,23,21,20,20,0,0,0,0,0,0,0,0,0,0,84,0.466,0.875,0.474,12,38,13,0041500117,1610612754,IND,Indiana,Ian Mahinmi,C,,28:06,0.0,0.0,0.0,6.0,12.0,3.0,12.0,20.0,1.0,1.0,3.0,0.0
0041500117,1610612754,IND,Indiana,101145,Monta Ellis,G,,37:16,100.5,107.5,-7.0,0.318,2.33,29.2,0.038,0.079,0.063,12.5,0.536,0.536,0.237,90.96,0.112,2016-05-01T00:00:00,5,IND,Indiana,3-4,23,21,20,20,0,0,0,0,0,0,0,0,0,0,84,0.466,0.875,0.474,12,38,13,0041500117,1610612754,IND,Indiana,Monta Ellis,G,,37:16,5.0,0.0,2.0,10.0,18.0,17.0,9.0,34.0,0.0,1.0,1.0,0.0
0041500117,1610612754,IND,Indiana,201588,George Hill,G,,39:46,101.9,103.2,-1.3,0.091,2.0,14.3,0.034,0.0,0.014,7.1,0.864,0.864,0.159,86.52,0.12,2016-05-01T00:00:00,5,IND,Indiana,3-4,23,21,20,20,0,0,0,0,0,0,0,0,0,0,84,0.466,0.875,0.474,12,38,13,0041500117,1610612754,IND,Indiana,George Hill,G,,39:46,2.0,3.0,0.0,8.0,17.0,16.0,9.0,32.0,0.0,0.0,3.0,0.0
0041500117,1610612754,IND,Indiana,203524,Solomon Hill,,,34:28,105.5,92.4,13.0,0.0,0.0,0.0,0.0,0.143,0.083,0.0,0.4,0.4,0.076,87.37,0.03,2016-05-01T00:00:00,5,IND,Indiana,3-4,23,21,20,20,0,0,0,0,0,0,0,0,0,0,84,0.466,0.875,0.474,12,38,13,0041500117,1610612754,IND,Indiana,Solomon Hill,,,34:28,0.0,0.0,2.0,4.0,8.0,14.0,5.0,28.0,0.0,1.0,3.0,1.0
0041500117,1610612754,IND,Indiana,201155,Rodney Stuckey,,,14:40,67.0,74.1,-7.1,0.0,0.0,0.0,0.0,0.111,0.063,0.0,0.75,0.75,0.223,81.08,0.526,2016-05-01T00:00:00,5,IND,Indiana,3-4,23,21,20,20,0,0,0,0,0,0,0,0,0,0,84,0.466,0.875,0.474,12,38,13,0041500117,1610612754,IND,Indiana,Rodney Stuckey,,,14:40,0.0,0.0,0.0,4.0,1.0,3.0,3.0,8.0,0.0,0.0,0.0,1.0
0041500117,1610612754,IND,Indiana,201951,Ty Lawson,,,5:16,101.4,112.6,-11.3,0.333,0.0,34.7,0.25,0.0,0.091,0.0,0.0,0.266,0.19,80.93,0.03,2016-05-01T00:00:00,5,IND,Indiana,3-4,23,21,20,20,0,0,0,0,0,0,0,0,0,0,84,0.466,0.875,0.474,12,38,13,0041500117,1610612754,IND,Indiana,Ty Lawson,,,5:16,0.0,0.0,0.0,0.0,0.0,0.0,3.0,2.0,0.0,0.0,0.0,1.0
0041500117,1610612754,IND,Indiana,101139,CJ Miles,,,5:45,91.1,112.6,-21.5,0.0,0.0,0.0,0.0,0.333,0.231,0.0,0.0,0.0,0.184,78.3,0.0,2016-05-01T00:00:00,5,IND,Indiana,3-4,23,21,20,20,0,0,0,0,0,0,0,0,0,0,84,0.466,0.875,0.474,12,38,13,0041500117,1610612754,IND,Indiana,CJ Miles,,,5:45,0.0,0.0,0.0,0.0,0.0,0.0,3.0,2.0,0.0,1.0,1.0,0.0
0041500117,1610612754,IND,Indiana,202730,Lavoy Allen,,DNP - Coach's Decision                  ,,,,,,,0.0,,,,,,,0.0,,,2016-05-01T00:00:00,5,IND,Indiana,3-4,23,21,20,20,0,0,0,0,0,0,0,0,0,0,84,0.466,0.875,0.474,12,38,13,0041500117,1610612754,IND,Indiana,Lavoy Allen,,DNP - Coach's Decision                  ,,,,,,,,,,,,,
0041500117,1610612754,IND,Indiana,201941,Jordan Hill,,DNP - Coach's Decision                  ,,,,,,,0.0,,,,,,,0.0,,,2016-05-01T00:00:00,5,IND,Indiana,3-4,23,21,20,20,0,0,0,0,0,0,0,0,0,0,84,0.466,0.875,0.474,12,38,13,0041500117,1610612754,IND,Indiana,Jordan Hill,,DNP - Coach's Decision                  ,,,,,,,,,,,,,
0041500117,1610612754,IND,Indiana,203922,Glenn Robinson III,,DNP - Coach's Decision                  ,,,,,,,0.0,,,,,,,0.0,,,2016-05-01T00:00:00,5,IND,Indiana,3-4,23,21,20,20,0,0,0,0,0,0,0,0,0,0,84,0.466,0.875,0.474,12,38,13,0041500117,1610612754,IND,Indiana,Glenn Robinson III,,DNP - Coach's Decision                  ,,,,,,,,,,,,,
0041500117,1610612754,IND,Indiana,1626202,Joe Young,,DNP - Coach's Decision                  ,,,,,,,0.0,,,,,,,0.0,,,2016-05-01T00:00:00,5,IND,Indiana,3-4,23,21,20,20,0,0,0,0,0,0,0,0,0,0,84,0.466,0.875,0.474,12,38,13,0041500117,1610612754,IND,Indiana,Joe Young,,DNP - Coach's Decision                  ,,,,,,,,,,,,,
0041500117,1610612761,TOR,Toronto,201960,DeMarre Carroll,F,,36:44,100.6,93.2,7.4,0.04,1.0,12.5,0.051,0.065,0.057,12.5,0.25,0.25,0.085,91.05,0.034,2016-05-01T00:00:00,5,TOR,Toronto,4-3,28,22,28,11,0,0,0,0,0,0,0,0,0,0,89,0.382,0.765,0.333,21,49,8,0041500117,1610612761,TOR,Toronto,DeMarre Carroll,F,,36:44,3.0,0.0,0.0,0.0,9.0,3.0,8.0,32.0,2.0,0.0,0.0,1.0
0041500117,1610612761,TOR,Toronto,202335,Patrick Patterson,F,,22:47,130.4,105.2,25.1,0.176,0.0,25.0,0.095,0.118,0.105,0.0,0.611,0.611,0.18,90.3,0.122,2016-05-01T00:00:00,5,TOR,Toronto,4-3,28,22,28,11,0,0,0,0,0,0,0,0,0,0,89,0.382,0.765,0.333,21,49,8,0041500117,1610612761,TOR,Toronto,Patrick Patterson,F,,22:47,3.0,5.0,0.0,2.0,2.0,0.0,2.0,22.0,0.0,1.0,0.0,0.0
0041500117,1610612761,TOR,Toronto,202685,Jonas Valanciunas,C,,28:15,101.9,112.3,-10.4,0.059,1.0,7.8,0.194,0.5,0.306,7.8,0.4,0.46,0.183,88.96,0.13,2016-05-01T00:00:00,5,TOR,Toronto,4-3,28,22,28,11,0,0,0,0,0,0,0,0,0,0,89,0.382,0.765,0.333,21,49,8,0041500117,1610612761,TOR,Toronto,Jonas Valanciunas,C,,28:15,0.0,4.0,0.0,8.0,9.0,0.0,8.0,32.0,1.0,0.0,3.0,2.0
0041500117,1610612761,TOR,Toronto,201942,DeMar DeRozan,G,,39:54,97.9,93.5,4.3,0.111,2.0,5.1,0.0,0.147,0.067,2.6,0.328,0.417,0.417,89.84,0.127,2016-05-01T00:00:00,5,TOR,Toronto,4-3,28,22,28,11,0,0,0,0,0,0,0,0,0,0,89,0.382,0.765,0.333,21,49,8,0041500117,1610612761,TOR,Toronto,DeMar DeRozan,G,,39:54,4.0,0.0,7.0,12.0,9.0,3.0,8.0,36.0,2.0,3.0,2.0,6.0
0041500117,1610612761,TOR,Toronto,200768,Kyle Lowry,G,,37:26,107.7,106.6,1.1,0.391,3.0,33.5,0.05,0.087,0.063,11.2,0.357,0.37,0.218,86.16,0.07,2016-05-01T00:00:00,5,TOR,Toronto,4-3,28,22,28,11,0,0,0,0,0,0,0,0,0,0,89,0.382,0.765,0.333,21,49,8,0041500117,1610612761,TOR,Toronto,Kyle Lowry,G,,37:26,2.0,0.0,2.0,10.0,9.0,0.0,8.0,36.0,0.0,1.0,2.0,5.0
0041500117,1610612761,TOR,Toronto,202687,Bismack Biyombo,,,19:45,101.4,75.5,25.9,0.0,0.0,0.0,0.2,0.389,0.289,0.0,0.333,0.315,0.117,84.2,0.091,2016-05-01T00:00:00,5,TOR,Toronto,4-3,28,22,28,11,0,0,0,0,0,0,0,0,0,0,89,0.382,0.765,0.333,21,49,8,0041500117,1610612761,TOR,Toronto,Bismack Biyombo,,,19:45,1.0,1.0,0.0,2.0,0.0,3.0,0.0,8.0,0.0,0.0,3.0,3.0
0041500117,1610612761,TOR,Toronto,202709,Cory Joseph,,,26:51,84.4,85.8,-1.4,0.364,2.0,28.6,0.032,0.1,0.059,14.3,0.5,0.5,0.168,84.08,0.154,2016-05-01T00:00:00,5,TOR,Toronto,4-3,28,22,28,11,0,0,0,0,0,0,0,0,0,0,89,0.382,0.765,0.333,21,49,8,0041500117,1610612761,TOR,Toronto,Cory Joseph,,,26:51,2.0,2.0,0.0,2.0,5.0,3.0,6.0,16.0,1.0,0.0,1.0,0.0
0041500117,1610612761,TOR,Toronto,1626181,Norman Powell,,,23:13,85.8,90.0,-4.3,0.111,0.0,14.3,0.04,0.118,0.071,0.0,1.083,1.083,0.123,80.01,0.32,2016-05-01T00:00:00,5,TOR,Toronto,4-3,28,22,28,11,0,0,0,0,0,0,0,0,0,0,89,0.382,0.765,0.333,21,49,8,0041500117,1610612761,TOR,Toronto,Norman Powell,,,23:13,3.0,5.0,3.0,2.0,2.0,3.0,0.0,16.0,1.0,0.0,1.0,0.0
0041500117,1610612761,TOR,Toronto,203082,Terrence Ross,,,5:06,126.9,139.6,-12.7,0.0,0.0,0.0,0.0,0.0,0.0,0.0,0.0,0.0,0.092,74.16,-0.053,2016-05-01T00:00:00,5,TOR,Toronto,4-3,28,22,28,11,0,0,0,0,0,0,0,0,0,0,89,0.382,0.765,0.333,21,49,8,0041500117,1610612761,TOR,Toronto,Terrence Ross,,,5:06,0.0,0.0,0.0,0.0,0.0,0.0,0.0,2.0,0.0,0.0,0.0,0.0
0041500117,1610612761,TOR,Toronto,201949,James Johnson,,DNP - Coach's Decision                  ,,,,,,,0.0,,,,,,,0.0,,,2016-05-01T00:00:00,5,TOR,Toronto,4-3,28,22,28,11,0,0,0,0,0,0,0,0,0,0,89,0.382,0.765,0.333,21,49,8,0041500117,1610612761,TOR,Toronto,James Johnson,,DNP - Coach's Decision                  ,,,,,,,,,,,,,
0041500117,1610612761,TOR,Toronto,2449,Luis Scola,,DNP - Coach's Decision                  ,,,,,,,0.0,,,,,,,0.0,,,2016-05-01T00:00:00,5,TOR,Toronto,4-3,28,22,28,11,0,0,0,0,0,0,0,0,0,0,89,0.382,0.765,0.333,21,49,8,0041500117,1610612761,TOR,Toronto,Luis Scola,,DNP - Coach's Decision                  ,,,,,,,,,,,,,
0041500117,1610612761,TOR,Toronto,201574,Jason Thompson,,DNP - Coach's Decision                  ,,,,,,,0.0,,,,,,,0.0,,,2016-05-01T00:00:00,5,TOR,Toronto,4-3,28,22,28,11,0,0,0,0,0,0,0,0,0,0,89,0.382,0.765,0.333,21,49,8,0041500117,1610612761,TOR,Toronto,Jason Thompson,,DNP - Coach's Decision                  ,,,,,,,,,,,,,
0041500117,1610612761,TOR,Toronto,1626153,Delon Wright,,DNP - Coach's Decision                  ,,,,,,,0.0,,,,,,,0.0,,,2016-05-01T00:00:00,5,TOR,Toronto,4-3,28,22,28,11,0,0,0,0,0,0,0,0,0,0,89,0.382,0.765,0.333,21,49,8,0041500117,1610612761,TOR,Toronto,Delon Wright,,DNP - Coach's Decision                  ,,,,,,,,,,,,,
