GAME_ID_x,TEAM_ID_x,TEAM_ABBREVIATION_x,TEAM_CITY_x,PLAYER_ID,PLAYER_NAME_x,START_POSITION_x,COMMENT_x,MIN_x,OFF_RATING,DEF_RATING,NET_RATING,AST_PCT,AST_TOV,AST_RATIO,OREB_PCT,DREB_PCT,REB_PCT,TM_TOV_PCT,EFG_PCT,TS_PCT,USG_PCT,PACE,PIE,GAME_DATE_EST,GAME_SEQUENCE,TEAM_ABBREVIATION_y,TEAM_CITY_NAME,TEAM_WINS_LOSSES,PTS_QTR1,PTS_QTR2,PTS_QTR3,PTS_QTR4,PTS_OT1,PTS_OT2,PTS_OT3,PTS_OT4,PTS_OT5,PTS_OT6,PTS_OT7,PTS_OT8,PTS_OT9,PTS_OT10,PTS,FG_PCT,FT_PCT,FG3_PCT,AST,REB,TOV,GAME_ID_y,TEAM_ID_y,TEAM_ABBREVIATION,TEAM_CITY_y,PLAYER_NAME_y,START_POSITION_y,COMMENT_y,MIN_y,PTS_OFF_TOV,PTS_2ND_CHANCE,PTS_FB,PTS_PAINT,OPP_PTS_OFF_TOV,OPP_PTS_2ND_CHANCE,OPP_PTS_FB,OPP_PTS_PAINT,BLK,BLKA,PF,PFD
0041500203,1610612739,CLE,Cleveland,2544,LeBron James,F,,38:58,121.9,106.2,15.6,0.296,1.6,24.3,0.061,0.297,0.186,15.2,0.531,0.601,0.255,99.77,0.181,2016-05-06T00:00:00,1,CLE,Cleveland,3-0,31,24,30,36,0,0,0,0,0,0,0,0,0,0,121,0.494,0.593,0.538,26,55,18,0041500203,1610612739,CLE,Cleveland,LeBron James,F,,38:58,4.0,2.0,3.0,12.0,25.0,4.0,7.0,36.0,0.0,1.0,2.0,6.0
0041500203,1610612739,CLE,Cleveland,201567,Kevin Love,F,,29:14,127.8,109.2,18.6,0.176,1.0,12.6,0.148,0.355,0.259,12.6,0.559,0.587,0.299,96.41,0.163,2016-05-06T00:00:00,1,CLE,Cleveland,3-0,31,24,30,36,0,0,0,0,0,0,0,0,0,0,121,0.494,0.593,0.538,26,55,18,0041500203,1610612739,CLE,Cleveland,Kevin Love,F,,29:14,3.0,7.0,0.0,4.0,12.0,9.0,10.0,28.0,1.0,0.0,4.0,1.0
0041500203,1610612739,CLE,Cleveland,202684,Tristan Thompson,C,,27:46,101.1,124.9,-23.8,0.111,0.5,11.6,0.346,0.16,0.255,23.1,0.167,0.31,0.214,99.4,0.005,2016-05-06T00:00:00,1,CLE,Cleveland,3-0,31,24,30,36,0,0,0,0,0,0,0,0,0,0,121,0.494,0.593,0.538,26,55,18,0041500203,1610612739,CLE,Cleveland,Tristan Thompson,C,,27:46,0.0,1.0,0.0,0.0,24.0,7.0,4.0,32.0,0.0,1.0,1.0,8.0
0041500203,1610612739,CLE,Cleveland,2747,JR Smith,G,,35:37,116.2,110.5,5.7,0.115,3.0,37.5,0.031,0.057,0.045,12.5,0.75,0.75,0.056,99.24,0.053,2016-05-06T00:00:00,1,CLE,Cleveland,3-0,31,24,30,36,0,0,0,0,0,0,0,0,0,0,121,0.494,0.593,0.538,26,55,18,0041500203,1610612739,CLE,Cleveland,JR Smith,G,,35:37,0.0,0.0,0.0,0.0,24.0,9.0,7.0,34.0,0.0,0.0,2.0,2.0
0041500203,1610612739,CLE,Cleveland,202681,Kyrie Irving,G,,40:04,124.9,112.4,12.5,0.115,1.5,12.1,0.0,0.026,0.014,8.0,0.579,0.604,0.226,96.91,0.078,2016-05-06T00:00:00,1,CLE,Cleveland,3-0,31,24,30,36,0,0,0,0,0,0,0,0,0,0,121,0.494,0.593,0.538,26,55,18,0041500203,1610612739,CLE,Cleveland,Kyrie Irving,G,,40:04,2.0,3.0,5.0,4.0,19.0,6.0,10.0,42.0,0.0,2.0,5.0,1.0
0041500203,1610612739,CLE,Cleveland,202697,Iman Shumpert,,,17:10,133.8,110.8,23.0,0.286,0.0,50.8,0.071,0.071,0.071,0.0,0.833,0.644,0.1,96.2,0.116,2016-05-06T00:00:00,1,CLE,Cleveland,3-0,31,24,30,36,0,0,0,0,0,0,0,0,0,0,121,0.494,0.593,0.538,26,55,18,0041500203,1610612739,CLE,Cleveland,Iman Shumpert,,,17:10,2.0,2.0,0.0,2.0,3.0,7.0,5.0,16.0,0.0,1.0,0.0,2.0
0041500203,1610612739,CLE,Cleveland,203521,Matthew Dellavedova,,,12:25,133.6,114.5,19.1,0.167,2.0,28.6,0.0,0.125,0.071,14.3,0.375,0.375,0.171,101.28,-0.019,2016-05-06T00:00:00,1,CLE,Cleveland,3-0,31,24,30,36,0,0,0,0,0,0,0,0,0,0,121,0.494,0.593,0.538,26,55,18,0041500203,1610612739,CLE,Cleveland,Matthew Dellavedova,,,12:25,0.0,0.0,0.0,0.0,8.0,3.0,3.0,10.0,0.0,1.0,3.0,0.0
0041500203,1610612739,CLE,Cleveland,101112,Channing Frye,,,28:08,141.1,97.3,43.7,0.0,0.0,0.0,0.053,0.261,0.167,13.3,1.038,1.038,0.228,98.41,0.209,2016-05-06T00:00:00,1,CLE,Cleveland,3-0,31,24,30,36,0,0,0,0,0,0,0,0,0,0,121,0.494,0.593,0.538,26,55,18,0041500203,1610612739,CLE,Cleveland,Channing Frye,,,28:08,11.0,3.0,2.0,4.0,13.0,0.0,4.0,22.0,0.0,1.0,3.0,0.0
0041500203,1610612739,CLE,Cleveland,2210,Richard Jefferson,,,9:38,105.6,127.1,-21.5,0.143,0.0,25.0,0.0,0.0,0.0,0.0,0.667,0.667,0.131,96.53,0.101,2016-05-06T00:00:00,1,CLE,Cleveland,3-0,31,24,30,36,0,0,0,0,0,0,0,0,0,0,121,0.494,0.593,0.538,26,55,18,0041500203,1610612739,CLE,Cleveland,Richard Jefferson,,,9:38,0.0,0.0,0.0,4.0,7.0,0.0,0.0,10.0,0.0,0.0,1.0,1.0
0041500203,1610612739,CLE,Cleveland,2563,Dahntay Jones,,,0:30,0.0,0.0,0.0,0.0,0.0,0.0,0.0,0.0,0.0,0.0,0.0,0.0,0.0,48.0,0.0,2016-05-06T00:00:00,1,CLE,Cleveland,3-0,31,24,30,36,0,0,0,0,0,0,0,0,0,0,121,0.494,0.593,0.538,26,55,18,0041500203,1610612739,CLE,Cleveland,Dahntay Jones,,,0:30,0.0,0.0,0.0,0.0,0.0,0.0,0.0,0.0,0.0,0.0,0.0,0.0
0041500203,1610612739,CLE,Cleveland,2590,Mo Williams,,,0:30,0.0,0.0,0.0,0.0,0.0,0.0,0.0,0.0,0.0,0.0,0.0,0.0,0.0,48.0,0.0,2016-05-06T00:00:00,1,CLE,Cleveland,3-0,31,24,30,36,0,0,0,0,0,0,0,0,0,0,121,0.494,0.593,0.538,26,55,18,0041500203,1610612739,CLE,Cleveland,Mo Williams,,,0:30,0.0,0.0,0.0,0.0,0.0,0.0,0.0,0.0,0.0,0.0,0.0,0.0
0041500203,1610612739,CLE,Cleveland,2592,James Jones,,DNP - Coach's Decision                  ,,,,,,,0.0,,,,,,,0.0,,,2016-05-06T00:00:00,1,CLE,Cleveland,3-0,31,24,30,36,0,0,0,0,0,0,0,0,0,0,121,0.494,0.593,0.538,26,55,18,0041500203,1610612739,CLE,Cleveland,James Jones,,DNP - Coach's Decision                  ,,,,,,,,,,,,,
0041500203,1610612739,CLE,Cleveland,202389,Timofey Mozgov,,DNP - Coach's Decision                  ,,,,,,,0.0,,,,,,,0.0,,,2016-05-06T00:00:00,1,CLE,Cleveland,3-0,31,24,30,36,0,0,0,0,0,0,0,0,0,0,121,0.494,0.593,0.538,26,55,18,0041500203,1610612739,CLE,Cleveland,Timofey Mozgov,,DNP - Coach's Decision                  ,,,,,,,,,,,,,
0041500203,1610612737,ATL,Atlanta,200757,Thabo Sefolosha,F,,29:17,116.8,117.9,-1.1,0.083,0.0,28.6,0.037,0.136,0.082,0.0,0.8,0.8,0.079,97.07,0.084,2016-05-06T00:00:00,1,ATL,Atlanta,0-3,28,35,28,17,0,0,0,0,0,0,0,0,0,0,108,0.488,0.833,0.471,29,28,14,0041500203,1610612737,ATL,Atlanta,Thabo Sefolosha,F,,29:17,2.0,0.0,2.0,2.0,10.0,11.0,7.0,16.0,0.0,0.0,2.0,0.0
0041500203,1610612737,ATL,Atlanta,200794,Paul Millsap,F,,39:10,107.0,115.2,-8.2,0.154,1.0,15.2,0.083,0.143,0.113,15.2,0.441,0.464,0.264,97.06,0.09,2016-05-06T00:00:00,1,ATL,Atlanta,0-3,28,35,28,17,0,0,0,0,0,0,0,0,0,0,108,0.488,0.833,0.471,29,28,14,0041500203,1610612737,ATL,Atlanta,Paul Millsap,F,,39:10,3.0,2.0,2.0,12.0,20.0,18.0,8.0,24.0,1.0,0.0,2.0,4.0
0041500203,1610612737,ATL,Atlanta,201143,Al Horford,C,,31:26,95.8,137.3,-41.5,0.2,1.0,14.3,0.0,0.05,0.02,14.3,0.8,0.8,0.258,99.71,0.152,2016-05-06T00:00:00,1,ATL,Atlanta,0-3,28,35,28,17,0,0,0,0,0,0,0,0,0,0,108,0.488,0.833,0.471,29,28,14,0041500203,1610612737,ATL,Atlanta,Al Horford,C,,31:26,6.0,2.0,0.0,16.0,22.0,13.0,7.0,22.0,3.0,0.0,3.0,4.0
0041500203,1610612737,ATL,Atlanta,203145,Kent Bazemore,G,,30:58,102.7,133.3,-30.6,0.038,0.5,12.5,0.034,0.12,0.074,25.0,0.3,0.3,0.102,100.26,0.004,2016-05-06T00:00:00,1,ATL,Atlanta,0-3,28,35,28,17,0,0,0,0,0,0,0,0,0,0,108,0.488,0.833,0.471,29,28,14,0041500203,1610612737,ATL,Atlanta,Kent Bazemore,G,,30:58,3.0,0.0,0.0,0.0,17.0,18.0,5.0,22.0,0.0,0.0,3.0,2.0
0041500203,1610612737,ATL,Atlanta,201952,Jeff Teague,G,,36:09,112.0,124.2,-12.2,0.538,14.0,41.5,0.0,0.034,0.016,3.0,0.471,0.506,0.25,99.43,0.118,2016-05-06T00:00:00,1,ATL,Atlanta,0-3,28,35,28,17,0,0,0,0,0,0,0,0,0,0,108,0.488,0.833,0.471,29,28,14,0041500203,1610612737,ATL,Atlanta,Jeff Teague,G,,36:09,5.0,0.0,1.0,10.0,18.0,13.0,8.0,22.0,0.0,1.0,3.0,5.0
0041500203,1610612737,ATL,Atlanta,2743,Kris Humphries,,,19:42,130.8,109.6,21.2,0.071,1.0,9.1,0.056,0.13,0.098,9.1,0.5,0.5,0.235,94.92,0.074,2016-05-06T00:00:00,1,ATL,Atlanta,0-3,28,35,28,17,0,0,0,0,0,0,0,0,0,0,108,0.488,0.833,0.471,29,28,14,0041500203,1610612737,ATL,Atlanta,Kris Humphries,,,19:42,5.0,2.0,2.0,6.0,2.0,4.0,5.0,10.0,2.0,0.0,3.0,1.0
0041500203,1610612737,ATL,Atlanta,2594,Kyle Korver,,,32:22,112.2,116.3,-4.1,0.0,0.0,0.0,0.0,0.091,0.049,8.0,0.773,0.787,0.18,97.37,0.111,2016-05-06T00:00:00,1,ATL,Atlanta,0-3,28,35,28,17,0,0,0,0,0,0,0,0,0,0,108,0.488,0.833,0.471,29,28,14,0041500203,1610612737,ATL,Atlanta,Kyle Korver,,,32:22,3.0,0.0,3.0,0.0,17.0,7.0,8.0,20.0,1.0,0.0,1.0,1.0
0041500203,1610612737,ATL,Atlanta,203471,Dennis Schroder,,,11:51,107.8,116.4,-8.6,0.667,2.0,33.7,0.0,0.182,0.105,16.8,0.6,0.68,0.326,93.97,0.173,2016-05-06T00:00:00,1,ATL,Atlanta,0-3,28,35,28,17,0,0,0,0,0,0,0,0,0,0,108,0.488,0.833,0.471,29,28,14,0041500203,1610612737,ATL,Atlanta,Dennis Schroder,,,11:51,0.0,3.0,0.0,0.0,4.0,5.0,2.0,8.0,0.0,0.0,2.0,2.0
0041500203,1610612737,ATL,Atlanta,203501,Tim Hardaway Jr.,,,2:53,129.0,133.3,-4.3,0.0,0.0,0.0,0.0,0.0,0.0,0.0,0.0,1.136,0.142,101.55,0.182,2016-05-06T00:00:00,1,ATL,Atlanta,0-3,28,35,28,17,0,0,0,0,0,0,0,0,0,0,108,0.488,0.833,0.471,29,28,14,0041500203,1610612737,ATL,Atlanta,Tim Hardaway Jr.,,,2:53,0.0,0.0,0.0,0.0,0.0,0.0,0.0,2.0,0.0,0.0,0.0,1.0
0041500203,1610612737,ATL,Atlanta,203488,Mike Muscala,,,1:05,227.3,66.7,160.6,0.0,0.0,0.0,0.0,0.0,0.0,0.0,0.0,0.0,0.0,86.09,0.0,2016-05-06T00:00:00,1,ATL,Atlanta,0-3,28,35,28,17,0,0,0,0,0,0,0,0,0,0,108,0.488,0.833,0.471,29,28,14,0041500203,1610612737,ATL,Atlanta,Mike Muscala,,,1:05,0.0,0.0,0.0,0.0,0.0,0.0,0.0,2.0,0.0,0.0,0.0,0.0
0041500203,1610612737,ATL,Atlanta,203118,Mike Scott,,,5:07,157.7,132.0,25.7,0.0,0.0,0.0,0.0,0.5,0.2,0.0,0.0,0.0,0.0,105.7,-0.038,2016-05-06T00:00:00,1,ATL,Atlanta,0-3,28,35,28,17,0,0,0,0,0,0,0,0,0,0,108,0.488,0.833,0.471,29,28,14,0041500203,1610612737,ATL,Atlanta,Mike Scott,,,5:07,0.0,0.0,0.0,0.0,0.0,1.0,0.0,2.0,0.0,0.0,2.0,1.0
0041500203,1610612737,ATL,Atlanta,2550,Kirk Hinrich,,DNP - Coach's Decision                  ,,,,,,,0.0,,,,,,,0.0,,,2016-05-06T00:00:00,1,ATL,Atlanta,0-3,28,35,28,17,0,0,0,0,0,0,0,0,0,0,108,0.488,0.833,0.471,29,28,14,0041500203,1610612737,ATL,Atlanta,Kirk Hinrich,,DNP - Coach's Decision                  ,,,,,,,,,,,,,
0041500203,1610612737,ATL,Atlanta,203934,Lamar Patterson,,DNP - Coach's Decision                  ,,,,,,,0.0,,,,,,,0.0,,,2016-05-06T00:00:00,1,ATL,Atlanta,0-3,28,35,28,17,0,0,0,0,0,0,0,0,0,0,108,0.488,0.833,0.471,29,28,14,0041500203,1610612737,ATL,Atlanta,Lamar Patterson,,DNP - Coach's Decision                  ,,,,,,,,,,,,,
