GAME_ID_x,TEAM_ID_x,TEAM_ABBREVIATION_x,TEAM_CITY_x,PLAYER_ID,PLAYER_NAME_x,START_POSITION_x,COMMENT_x,MIN_x,OFF_RATING,DEF_RATING,NET_RATING,AST_PCT,AST_TOV,AST_RATIO,OREB_PCT,DREB_PCT,REB_PCT,TM_TOV_PCT,EFG_PCT,TS_PCT,USG_PCT,PACE,PIE,GAME_DATE_EST,GAME_SEQUENCE,TEAM_ABBREVIATION_y,TEAM_CITY_NAME,TEAM_WINS_LOSSES,PTS_QTR1,PTS_QTR2,PTS_QTR3,PTS_QTR4,PTS_OT1,PTS_OT2,PTS_OT3,PTS_OT4,PTS_OT5,PTS_OT6,PTS_OT7,PTS_OT8,PTS_OT9,PTS_OT10,PTS,FG_PCT,FT_PCT,FG3_PCT,AST,REB,TOV,GAME_ID_y,TEAM_ID_y,TEAM_ABBREVIATION,TEAM_CITY_y,PLAYER_NAME_y,START_POSITION_y,COMMENT_y,MIN_y,PTS_OFF_TOV,PTS_2ND_CHANCE,PTS_FB,PTS_PAINT,OPP_PTS_OFF_TOV,OPP_PTS_2ND_CHANCE,OPP_PTS_FB,OPP_PTS_PAINT,BLK,BLKA,PF,PFD
0041500204,1610612739,CLE,Cleveland,2544,LeBron James,F,,37:52,101.4,102.3,-1.0,0.45,1.5,22.9,0.119,0.156,0.135,15.3,0.457,0.432,0.341,94.59,0.118,2016-05-08T00:00:00,1,CLE,Cleveland,4-0,27,29,25,19,0,0,0,0,0,0,0,0,0,0,100,0.432,0.615,0.432,23,41,15,0041500204,1610612739,CLE,Cleveland,LeBron James,F,,37:52,5.0,2.0,4.0,12.0,9.0,14.0,3.0,38.0,1.0,4.0,2.0,3.0
0041500204,1610612739,CLE,Cleveland,201567,Kevin Love,F,,37:16,114.1,99.6,14.4,0.174,2.0,12.7,0.081,0.333,0.194,6.4,0.52,0.531,0.307,95.1,0.169,2016-05-08T00:00:00,1,CLE,Cleveland,4-0,27,29,25,19,0,0,0,0,0,0,0,0,0,0,100,0.432,0.615,0.432,23,41,15,0041500204,1610612739,CLE,Cleveland,Kevin Love,F,,37:16,2.0,4.0,0.0,0.0,9.0,14.0,3.0,38.0,0.0,1.0,1.0,2.0
0041500204,1610612739,CLE,Cleveland,202684,Tristan Thompson,C,,29:23,111.7,92.3,19.3,0.0,0.0,0.0,0.154,0.273,0.208,20.5,0.667,0.644,0.078,92.25,0.09,2016-05-08T00:00:00,1,CLE,Cleveland,4-0,27,29,25,19,0,0,0,0,0,0,0,0,0,0,100,0.432,0.615,0.432,23,41,15,0041500204,1610612739,CLE,Cleveland,Tristan Thompson,C,,29:23,1.0,2.0,0.0,4.0,9.0,7.0,3.0,24.0,2.0,0.0,3.0,1.0
0041500204,1610612739,CLE,Cleveland,2747,JR Smith,G,,35:31,103.4,106.7,-3.3,0.0,0.0,0.0,0.0,0.065,0.029,33.3,0.375,0.375,0.07,97.17,0.0,2016-05-08T00:00:00,1,CLE,Cleveland,4-0,27,29,25,19,0,0,0,0,0,0,0,0,0,0,100,0.432,0.615,0.432,23,41,15,0041500204,1610612739,CLE,Cleveland,JR Smith,G,,35:31,0.0,0.0,0.0,0.0,11.0,12.0,3.0,40.0,2.0,0.0,2.0,1.0
0041500204,1610612739,CLE,Cleveland,202681,Kyrie Irving,G,,42:20,111.4,105.6,5.8,0.286,4.0,28.4,0.0,0.059,0.028,7.1,0.531,0.577,0.207,94.56,0.122,2016-05-08T00:00:00,1,CLE,Cleveland,4-0,27,29,25,19,0,0,0,0,0,0,0,0,0,0,100,0.432,0.615,0.432,23,41,15,0041500204,1610612739,CLE,Cleveland,Kyrie Irving,G,,42:20,4.0,2.0,3.0,6.0,13.0,12.0,5.0,46.0,1.0,1.0,0.0,5.0
0041500204,1610612739,CLE,Cleveland,101112,Channing Frye,,,19:38,84.2,129.0,-44.8,0.1,1.0,12.5,0.0,0.091,0.031,12.5,0.667,0.667,0.158,95.3,0.056,2016-05-08T00:00:00,1,CLE,Cleveland,4-0,27,29,25,19,0,0,0,0,0,0,0,0,0,0,100,0.432,0.615,0.432,23,41,15,0041500204,1610612739,CLE,Cleveland,Channing Frye,,,19:38,0.0,0.0,0.0,2.0,6.0,3.0,4.0,24.0,1.0,0.0,2.0,0.0
0041500204,1610612739,CLE,Cleveland,2210,Richard Jefferson,,,4:03,72.1,190.4,-118.2,0.0,0.0,0.0,0.0,0.0,0.0,0.0,0.5,0.5,0.361,96.0,0.0,2016-05-08T00:00:00,1,CLE,Cleveland,4-0,27,29,25,19,0,0,0,0,0,0,0,0,0,0,100,0.432,0.615,0.432,23,41,15,0041500204,1610612739,CLE,Cleveland,Richard Jefferson,,,4:03,0.0,0.0,0.0,0.0,2.0,0.0,0.0,6.0,0.0,1.0,1.0,0.0
0041500204,1610612739,CLE,Cleveland,203521,Matthew Dellavedova,,,15:28,99.3,118.2,-18.9,0.1,0.0,33.3,0.0,0.0,0.0,0.0,0.5,0.5,0.066,88.37,0.036,2016-05-08T00:00:00,1,CLE,Cleveland,4-0,27,29,25,19,0,0,0,0,0,0,0,0,0,0,100,0.432,0.615,0.432,23,41,15,0041500204,1610612739,CLE,Cleveland,Matthew Dellavedova,,,15:28,0.0,0.0,0.0,2.0,2.0,2.0,2.0,16.0,0.0,0.0,0.0,2.0
0041500204,1610612739,CLE,Cleveland,202697,Iman Shumpert,,,18:29,114.9,97.8,17.1,0.0,0.0,0.0,0.143,0.083,0.115,12.7,0.667,0.727,0.213,88.09,0.131,2016-05-08T00:00:00,1,CLE,Cleveland,4-0,27,29,25,19,0,0,0,0,0,0,0,0,0,0,100,0.432,0.615,0.432,23,41,15,0041500204,1610612739,CLE,Cleveland,Iman Shumpert,,,18:29,5.0,6.0,2.0,0.0,4.0,6.0,2.0,18.0,0.0,0.0,3.0,2.0
0041500204,1610612739,CLE,Cleveland,2563,Dahntay Jones,,DNP - Coach's Decision                  ,,,,,,,0.0,,,,,,,0.0,,,2016-05-08T00:00:00,1,CLE,Cleveland,4-0,27,29,25,19,0,0,0,0,0,0,0,0,0,0,100,0.432,0.615,0.432,23,41,15,0041500204,1610612739,CLE,Cleveland,Dahntay Jones,,DNP - Coach's Decision                  ,,,,,,,,,,,,,
0041500204,1610612739,CLE,Cleveland,2592,James Jones,,DNP - Coach's Decision                  ,,,,,,,0.0,,,,,,,0.0,,,2016-05-08T00:00:00,1,CLE,Cleveland,4-0,27,29,25,19,0,0,0,0,0,0,0,0,0,0,100,0.432,0.615,0.432,23,41,15,0041500204,1610612739,CLE,Cleveland,James Jones,,DNP - Coach's Decision                  ,,,,,,,,,,,,,
0041500204,1610612739,CLE,Cleveland,202389,Timofey Mozgov,,DNP - Coach's Decision                  ,,,,,,,0.0,,,,,,,0.0,,,2016-05-08T00:00:00,1,CLE,Cleveland,4-0,27,29,25,19,0,0,0,0,0,0,0,0,0,0,100,0.432,0.615,0.432,23,41,15,0041500204,1610612739,CLE,Cleveland,Timofey Mozgov,,DNP - Coach's Decision                  ,,,,,,,,,,,,,
0041500204,1610612739,CLE,Cleveland,2590,Mo Williams,,DNP - Coach's Decision                  ,,,,,,,0.0,,,,,,,0.0,,,2016-05-08T00:00:00,1,CLE,Cleveland,4-0,27,29,25,19,0,0,0,0,0,0,0,0,0,0,100,0.432,0.615,0.432,23,41,15,0041500204,1610612739,CLE,Cleveland,Mo Williams,,DNP - Coach's Decision                  ,,,,,,,,,,,,,
0041500204,1610612737,ATL,Atlanta,200757,Thabo Sefolosha,F,,32:28,102.8,103.0,-0.2,0.176,1.5,16.8,0.103,0.081,0.091,11.2,0.667,0.621,0.218,95.53,0.122,2016-05-08T00:00:00,1,ATL,Atlanta,0-4,36,22,19,22,0,0,0,0,0,0,0,0,0,0,99,0.482,0.714,0.29,22,42,12,0041500204,1610612737,ATL,Atlanta,Thabo Sefolosha,F,,32:28,0.0,12.0,0.0,8.0,13.0,11.0,6.0,18.0,1.0,0.0,3.0,1.0
0041500204,1610612737,ATL,Atlanta,200794,Paul Millsap,F,,41:29,108.4,101.4,7.0,0.1,1.0,13.4,0.061,0.171,0.122,13.4,0.458,0.579,0.217,94.36,0.11,2016-05-08T00:00:00,1,ATL,Atlanta,0-4,36,22,19,22,0,0,0,0,0,0,0,0,0,0,99,0.482,0.714,0.29,22,42,12,0041500204,1610612737,ATL,Atlanta,Paul Millsap,F,,41:29,4.0,0.0,3.0,6.0,14.0,13.0,9.0,22.0,1.0,1.0,3.0,8.0
0041500204,1610612737,ATL,Atlanta,201143,Al Horford,C,,39:10,95.8,107.1,-11.3,0.174,2.0,20.0,0.0,0.111,0.061,10.0,0.536,0.536,0.192,93.7,0.089,2016-05-08T00:00:00,1,ATL,Atlanta,0-4,36,22,19,22,0,0,0,0,0,0,0,0,0,0,99,0.482,0.714,0.29,22,42,12,0041500204,1610612737,ATL,Atlanta,Al Horford,C,,39:10,0.0,0.0,0.0,10.0,15.0,12.0,5.0,20.0,1.0,0.0,2.0,1.0
0041500204,1610612737,ATL,Atlanta,203145,Kent Bazemore,G,,38:56,98.1,111.1,-12.9,0.077,0.0,14.3,0.0,0.2,0.111,0.0,0.458,0.458,0.147,93.65,0.108,2016-05-08T00:00:00,1,ATL,Atlanta,0-4,36,22,19,22,0,0,0,0,0,0,0,0,0,0,99,0.482,0.714,0.29,22,42,12,0041500204,1610612737,ATL,Atlanta,Kent Bazemore,G,,38:56,0.0,0.0,0.0,4.0,17.0,12.0,7.0,22.0,0.0,1.0,0.0,1.0
0041500204,1610612737,ATL,Atlanta,201952,Jeff Teague,G,,22:00,92.5,116.5,-24.0,0.143,0.67,20.0,0.0,0.1,0.051,30.0,0.5,0.5,0.162,98.23,0.024,2016-05-08T00:00:00,1,ATL,Atlanta,0-4,36,22,19,22,0,0,0,0,0,0,0,0,0,0,99,0.482,0.714,0.29,22,42,12,0041500204,1610612737,ATL,Atlanta,Jeff Teague,G,,22:00,5.0,0.0,0.0,2.0,15.0,5.0,6.0,10.0,0.0,0.0,2.0,0.0
0041500204,1610612737,ATL,Atlanta,2743,Kris Humphries,,,12:16,127.4,100.2,27.3,0.111,0.0,14.5,0.222,0.333,0.292,0.0,0.6,0.68,0.228,95.3,0.242,2016-05-08T00:00:00,1,ATL,Atlanta,0-4,36,22,19,22,0,0,0,0,0,0,0,0,0,0,99,0.482,0.714,0.29,22,42,12,0041500204,1610612737,ATL,Atlanta,Kris Humphries,,,12:16,0.0,2.0,0.0,0.0,5.0,4.0,4.0,8.0,3.0,0.0,2.0,1.0
0041500204,1610612737,ATL,Atlanta,2594,Kyle Korver,,,24:36,122.9,100.1,22.8,0.042,0.0,20.0,0.067,0.136,0.108,0.0,0.25,0.25,0.073,92.31,0.026,2016-05-08T00:00:00,1,ATL,Atlanta,0-4,36,22,19,22,0,0,0,0,0,0,0,0,0,0,99,0.482,0.714,0.29,22,42,12,0041500204,1610612737,ATL,Atlanta,Kyle Korver,,,24:36,0.0,0.0,0.0,2.0,4.0,9.0,5.0,12.0,0.0,2.0,2.0,2.0
0041500204,1610612737,ATL,Atlanta,203471,Dennis Schroder,,,25:46,119.3,93.7,25.6,0.429,3.0,23.1,0.059,0.074,0.068,7.7,0.583,0.583,0.379,90.22,0.216,2016-05-08T00:00:00,1,ATL,Atlanta,0-4,36,22,19,22,0,0,0,0,0,0,0,0,0,0,99,0.482,0.714,0.29,22,42,12,0041500204,1610612737,ATL,Atlanta,Dennis Schroder,,,25:46,4.0,0.0,2.0,16.0,2.0,11.0,3.0,16.0,1.0,3.0,2.0,0.0
0041500204,1610612737,ATL,Atlanta,203118,Mike Scott,,,3:19,133.3,183.3,-50.0,0.0,0.0,0.0,0.0,0.0,0.0,0.0,1.0,1.0,0.167,86.83,0.1,2016-05-08T00:00:00,1,ATL,Atlanta,0-4,36,22,19,22,0,0,0,0,0,0,0,0,0,0,99,0.482,0.714,0.29,22,42,12,0041500204,1610612737,ATL,Atlanta,Mike Scott,,,3:19,0.0,0.0,0.0,2.0,0.0,3.0,0.0,2.0,0.0,0.0,0.0,0.0
0041500204,1610612737,ATL,Atlanta,203501,Tim Hardaway Jr.,,DNP - Coach's Decision                  ,,,,,,,0.0,,,,,,,0.0,,,2016-05-08T00:00:00,1,ATL,Atlanta,0-4,36,22,19,22,0,0,0,0,0,0,0,0,0,0,99,0.482,0.714,0.29,22,42,12,0041500204,1610612737,ATL,Atlanta,Tim Hardaway Jr.,,DNP - Coach's Decision                  ,,,,,,,,,,,,,
0041500204,1610612737,ATL,Atlanta,2550,Kirk Hinrich,,DNP - Coach's Decision                  ,,,,,,,0.0,,,,,,,0.0,,,2016-05-08T00:00:00,1,ATL,Atlanta,0-4,36,22,19,22,0,0,0,0,0,0,0,0,0,0,99,0.482,0.714,0.29,22,42,12,0041500204,1610612737,ATL,Atlanta,Kirk Hinrich,,DNP - Coach's Decision                  ,,,,,,,,,,,,,
0041500204,1610612737,ATL,Atlanta,203488,Mike Muscala,,DNP - Coach's Decision                  ,,,,,,,0.0,,,,,,,0.0,,,2016-05-08T00:00:00,1,ATL,Atlanta,0-4,36,22,19,22,0,0,0,0,0,0,0,0,0,0,99,0.482,0.714,0.29,22,42,12,0041500204,1610612737,ATL,Atlanta,Mike Muscala,,DNP - Coach's Decision                  ,,,,,,,,,,,,,
0041500204,1610612737,ATL,Atlanta,203934,Lamar Patterson,,DNP - Coach's Decision                  ,,,,,,,0.0,,,,,,,0.0,,,2016-05-08T00:00:00,1,ATL,Atlanta,0-4,36,22,19,22,0,0,0,0,0,0,0,0,0,0,99,0.482,0.714,0.29,22,42,12,0041500204,1610612737,ATL,Atlanta,Lamar Patterson,,DNP - Coach's Decision                  ,,,,,,,,,,,,,
