GAME_ID_x,TEAM_ID_x,TEAM_ABBREVIATION_x,TEAM_CITY_x,PLAYER_ID,PLAYER_NAME_x,START_POSITION_x,COMMENT_x,MIN_x,OFF_RATING,DEF_RATING,NET_RATING,AST_PCT,AST_TOV,AST_RATIO,OREB_PCT,DREB_PCT,REB_PCT,TM_TOV_PCT,EFG_PCT,TS_PCT,USG_PCT,PACE,PIE,GAME_DATE_EST,GAME_SEQUENCE,TEAM_ID_y,TEAM_ABBREVIATION_y,TEAM_CITY_NAME,TEAM_WINS_LOSSES,PTS_QTR1,PTS_QTR2,PTS_QTR3,PTS_QTR4,PTS_OT1,PTS_OT2,PTS_OT3,PTS_OT4,PTS_OT5,PTS_OT6,PTS_OT7,PTS_OT8,PTS_OT9,PTS_OT10,PTS,FG_PCT,FT_PCT,FG3_PCT,AST,REB,TOV,GAME_ID_y,TEAM_ID,TEAM_ABBREVIATION,TEAM_CITY_y,PLAYER_NAME_y,START_POSITION_y,COMMENT_y,MIN_y,PTS_OFF_TOV,PTS_2ND_CHANCE,PTS_FB,PTS_PAINT,OPP_PTS_OFF_TOV,OPP_PTS_2ND_CHANCE,OPP_PTS_FB,OPP_PTS_PAINT,BLK,BLKA,PF,PFD
0021301072,1610612755,PHI,Philadelphia,203138,Hollis Thompson,F,,20:15,95.4,106.3,-10.9,0.071,0.5,14.3,0.048,0.211,0.125,28.6,0.75,0.75,0.115,109.18,0.032,2014-03-27T00:00:00,2,1610612755,PHI,Philadelphia,15-57,28,21,31,18,0,0,0,0,0,0,0,0,0,0,98,0.389,0.636,0.389,23,39,21,0021301072,1610612755,PHI,Philadelphia,Hollis Thompson,F,,20:15,0.0,0.0,0.0,0.0,10.0,7.0,11.0,24.0,0.0,0.0,5.0,0.0
0021301072,1610612755,PHI,Philadelphia,203138,Hollis Thompson,F,,20:15,95.4,106.3,-10.9,0.071,0.5,14.3,0.048,0.211,0.125,28.6,0.75,0.75,0.115,109.18,0.032,2014-03-27T00:00:00,2,1610612745,HOU,Houston,49-22,35,28,37,20,0,0,0,0,0,0,0,0,0,0,120,0.489,0.676,0.346,27,57,20,0021301072,1610612755,PHI,Philadelphia,Hollis Thompson,F,,20:15,0.0,0.0,0.0,0.0,10.0,7.0,11.0,24.0,0.0,0.0,5.0,0.0
0021301072,1610612755,PHI,Philadelphia,201152,Thaddeus Young,F,,33:25,86.3,120.0,-33.6,0.0,0.0,0.0,0.088,0.214,0.145,26.2,0.438,0.444,0.276,107.47,0.041,2014-03-27T00:00:00,2,1610612755,PHI,Philadelphia,15-57,28,21,31,18,0,0,0,0,0,0,0,0,0,0,98,0.389,0.636,0.389,23,39,21,0021301072,1610612755,PHI,Philadelphia,Thaddeus Young,F,,33:25,5.0,4.0,5.0,8.0,24.0,18.0,23.0,54.0,1.0,1.0,2.0,2.0
0021301072,1610612755,PHI,Philadelphia,201152,Thaddeus Young,F,,33:25,86.3,120.0,-33.6,0.0,0.0,0.0,0.088,0.214,0.145,26.2,0.438,0.444,0.276,107.47,0.041,2014-03-27T00:00:00,2,1610612745,HOU,Houston,49-22,35,28,37,20,0,0,0,0,0,0,0,0,0,0,120,0.489,0.676,0.346,27,57,20,0021301072,1610612755,PHI,Philadelphia,Thaddeus Young,F,,33:25,5.0,4.0,5.0,8.0,24.0,18.0,23.0,54.0,1.0,1.0,2.0,2.0
0021301072,1610612755,PHI,Philadelphia,203156,Henry Sims,C,,26:21,94.3,109.6,-15.3,0.154,1.0,10.8,0.148,0.087,0.12,10.8,0.545,0.62,0.257,107.04,0.129,2014-03-27T00:00:00,2,1610612755,PHI,Philadelphia,15-57,28,21,31,18,0,0,0,0,0,0,0,0,0,0,98,0.389,0.636,0.389,23,39,21,0021301072,1610612755,PHI,Philadelphia,Henry Sims,C,,26:21,0.0,3.0,3.0,8.0,11.0,10.0,18.0,34.0,1.0,1.0,5.0,5.0
0021301072,1610612755,PHI,Philadelphia,203156,Henry Sims,C,,26:21,94.3,109.6,-15.3,0.154,1.0,10.8,0.148,0.087,0.12,10.8,0.545,0.62,0.257,107.04,0.129,2014-03-27T00:00:00,2,1610612745,HOU,Houston,49-22,35,28,37,20,0,0,0,0,0,0,0,0,0,0,120,0.489,0.676,0.346,27,57,20,0021301072,1610612755,PHI,Philadelphia,Henry Sims,C,,26:21,0.0,3.0,3.0,8.0,11.0,10.0,18.0,34.0,1.0,1.0,5.0,5.0
0021301072,1610612755,PHI,Philadelphia,202341,James Anderson,G,,28:54,98.5,117.9,-19.3,0.154,1.0,8.7,0.0,0.115,0.052,8.7,0.778,0.794,0.275,111.13,0.192,2014-03-27T00:00:00,2,1610612755,PHI,Philadelphia,15-57,28,21,31,18,0,0,0,0,0,0,0,0,0,0,98,0.389,0.636,0.389,23,39,21,0021301072,1610612755,PHI,Philadelphia,James Anderson,G,,28:54,4.0,6.0,4.0,8.0,16.0,13.0,24.0,38.0,0.0,1.0,2.0,1.0
0021301072,1610612755,PHI,Philadelphia,202341,James Anderson,G,,28:54,98.5,117.9,-19.3,0.154,1.0,8.7,0.0,0.115,0.052,8.7,0.778,0.794,0.275,111.13,0.192,2014-03-27T00:00:00,2,1610612745,HOU,Houston,49-22,35,28,37,20,0,0,0,0,0,0,0,0,0,0,120,0.489,0.676,0.346,27,57,20,0021301072,1610612755,PHI,Philadelphia,James Anderson,G,,28:54,4.0,6.0,4.0,8.0,16.0,13.0,24.0,38.0,0.0,1.0,2.0,1.0
0021301072,1610612755,PHI,Philadelphia,203487,Michael Carter-Williams,G,,27:43,87.7,115.8,-28.1,0.5,3.33,41.7,0.031,0.0,0.018,12.5,0.182,0.182,0.187,111.56,0.015,2014-03-27T00:00:00,2,1610612755,PHI,Philadelphia,15-57,28,21,31,18,0,0,0,0,0,0,0,0,0,0,98,0.389,0.636,0.389,23,39,21,0021301072,1610612755,PHI,Philadelphia,Michael Carter-Williams,G,,27:43,0.0,2.0,0.0,4.0,16.0,14.0,21.0,34.0,0.0,1.0,3.0,7.0
0021301072,1610612755,PHI,Philadelphia,203487,Michael Carter-Williams,G,,27:43,87.7,115.8,-28.1,0.5,3.33,41.7,0.031,0.0,0.018,12.5,0.182,0.182,0.187,111.56,0.015,2014-03-27T00:00:00,2,1610612745,HOU,Houston,49-22,35,28,37,20,0,0,0,0,0,0,0,0,0,0,120,0.489,0.676,0.346,27,57,20,0021301072,1610612755,PHI,Philadelphia,Michael Carter-Williams,G,,27:43,0.0,2.0,0.0,4.0,16.0,14.0,21.0,34.0,0.0,1.0,3.0,7.0
0021301072,1610612755,PHI,Philadelphia,202363,Jarvis Varnado,,,21:59,96.9,102.0,-5.0,0.125,1.0,29.1,0.069,0.087,0.077,29.1,1.0,0.868,0.086,107.57,0.074,2014-03-27T00:00:00,2,1610612755,PHI,Philadelphia,15-57,28,21,31,18,0,0,0,0,0,0,0,0,0,0,98,0.389,0.636,0.389,23,39,21,0021301072,1610612755,PHI,Philadelphia,Jarvis Varnado,,,21:59,1.0,0.0,1.0,4.0,11.0,15.0,16.0,22.0,2.0,0.0,3.0,1.0
0021301072,1610612755,PHI,Philadelphia,202363,Jarvis Varnado,,,21:59,96.9,102.0,-5.0,0.125,1.0,29.1,0.069,0.087,0.077,29.1,1.0,0.868,0.086,107.57,0.074,2014-03-27T00:00:00,2,1610612745,HOU,Houston,49-22,35,28,37,20,0,0,0,0,0,0,0,0,0,0,120,0.489,0.676,0.346,27,57,20,0021301072,1610612755,PHI,Philadelphia,Jarvis Varnado,,,21:59,1.0,0.0,1.0,4.0,11.0,15.0,16.0,22.0,2.0,0.0,3.0,1.0
0021301072,1610612755,PHI,Philadelphia,202343,Elliot Williams,,,26:40,88.9,113.7,-24.8,0.133,1.0,14.4,0.0,0.05,0.02,14.4,0.389,0.405,0.178,105.88,0.042,2014-03-27T00:00:00,2,1610612755,PHI,Philadelphia,15-57,28,21,31,18,0,0,0,0,0,0,0,0,0,0,98,0.389,0.636,0.389,23,39,21,0021301072,1610612755,PHI,Philadelphia,Elliot Williams,,,26:40,3.0,3.0,2.0,4.0,16.0,13.0,21.0,38.0,1.0,1.0,0.0,1.0
0021301072,1610612755,PHI,Philadelphia,202343,Elliot Williams,,,26:40,88.9,113.7,-24.8,0.133,1.0,14.4,0.0,0.05,0.02,14.4,0.389,0.405,0.178,105.88,0.042,2014-03-27T00:00:00,2,1610612745,HOU,Houston,49-22,35,28,37,20,0,0,0,0,0,0,0,0,0,0,120,0.489,0.676,0.346,27,57,20,0021301072,1610612755,PHI,Philadelphia,Elliot Williams,,,26:40,3.0,3.0,2.0,4.0,16.0,13.0,21.0,38.0,1.0,1.0,0.0,1.0
0021301072,1610612755,PHI,Philadelphia,203263,James Nunnally,,,17:52,87.5,98.3,-10.8,0.1,0.0,16.7,0.0,0.167,0.077,0.0,0.3,0.3,0.12,101.23,0.045,2014-03-27T00:00:00,2,1610612755,PHI,Philadelphia,15-57,28,21,31,18,0,0,0,0,0,0,0,0,0,0,98,0.389,0.636,0.389,23,39,21,0021301072,1610612755,PHI,Philadelphia,James Nunnally,,,17:52,0.0,0.0,0.0,0.0,8.0,12.0,12.0,20.0,0.0,0.0,2.0,0.0
0021301072,1610612755,PHI,Philadelphia,203263,James Nunnally,,,17:52,87.5,98.3,-10.8,0.1,0.0,16.7,0.0,0.167,0.077,0.0,0.3,0.3,0.12,101.23,0.045,2014-03-27T00:00:00,2,1610612745,HOU,Houston,49-22,35,28,37,20,0,0,0,0,0,0,0,0,0,0,120,0.489,0.676,0.346,27,57,20,0021301072,1610612755,PHI,Philadelphia,James Nunnally,,,17:52,0.0,0.0,0.0,0.0,8.0,12.0,12.0,20.0,0.0,0.0,2.0,0.0
0021301072,1610612755,PHI,Philadelphia,203810,Casper Ware,,,22:36,86.5,107.3,-20.8,0.167,2.0,14.4,0.0,0.056,0.023,7.2,0.3,0.322,0.221,105.28,0.0,2014-03-27T00:00:00,2,1610612755,PHI,Philadelphia,15-57,28,21,31,18,0,0,0,0,0,0,0,0,0,0,98,0.389,0.636,0.389,23,39,21,0021301072,1610612755,PHI,Philadelphia,Casper Ware,,,22:36,4.0,0.0,0.0,0.0,12.0,13.0,13.0,32.0,0.0,1.0,2.0,3.0
0021301072,1610612755,PHI,Philadelphia,203810,Casper Ware,,,22:36,86.5,107.3,-20.8,0.167,2.0,14.4,0.0,0.056,0.023,7.2,0.3,0.322,0.221,105.28,0.0,2014-03-27T00:00:00,2,1610612745,HOU,Houston,49-22,35,28,37,20,0,0,0,0,0,0,0,0,0,0,120,0.489,0.676,0.346,27,57,20,0021301072,1610612755,PHI,Philadelphia,Casper Ware,,,22:36,4.0,0.0,0.0,0.0,12.0,13.0,13.0,32.0,0.0,1.0,2.0,3.0
0021301072,1610612755,PHI,Philadelphia,201957,Byron Mullens,,,3:05,134.1,128.7,5.5,0.333,0.0,50.0,0.0,0.0,0.0,0.0,0.0,0.0,0.109,106.4,0.0,2014-03-27T00:00:00,2,1610612755,PHI,Philadelphia,15-57,28,21,31,18,0,0,0,0,0,0,0,0,0,0,98,0.389,0.636,0.389,23,39,21,0021301072,1610612755,PHI,Philadelphia,Byron Mullens,,,3:05,0.0,0.0,0.0,0.0,0.0,0.0,3.0,4.0,0.0,0.0,0.0,0.0
0021301072,1610612755,PHI,Philadelphia,201957,Byron Mullens,,,3:05,134.1,128.7,5.5,0.333,0.0,50.0,0.0,0.0,0.0,0.0,0.0,0.0,0.109,106.4,0.0,2014-03-27T00:00:00,2,1610612745,HOU,Houston,49-22,35,28,37,20,0,0,0,0,0,0,0,0,0,0,120,0.489,0.676,0.346,27,57,20,0021301072,1610612755,PHI,Philadelphia,Byron Mullens,,,3:05,0.0,0.0,0.0,0.0,0.0,0.0,3.0,4.0,0.0,0.0,0.0,0.0
0021301072,1610612755,PHI,Philadelphia,203561,Brandon Davies,,,11:10,73.0,102.0,-29.0,0.0,0.0,0.0,0.188,0.333,0.24,17.4,0.0,0.21,0.189,111.59,-0.048,2014-03-27T00:00:00,2,1610612755,PHI,Philadelphia,15-57,28,21,31,18,0,0,0,0,0,0,0,0,0,0,98,0.389,0.636,0.389,23,39,21,0021301072,1610612755,PHI,Philadelphia,Brandon Davies,,,11:10,0.0,0.0,0.0,0.0,6.0,5.0,8.0,10.0,0.0,0.0,2.0,2.0
0021301072,1610612755,PHI,Philadelphia,203561,Brandon Davies,,,11:10,73.0,102.0,-29.0,0.0,0.0,0.0,0.188,0.333,0.24,17.4,0.0,0.21,0.189,111.59,-0.048,2014-03-27T00:00:00,2,1610612745,HOU,Houston,49-22,35,28,37,20,0,0,0,0,0,0,0,0,0,0,120,0.489,0.676,0.346,27,57,20,0021301072,1610612755,PHI,Philadelphia,Brandon Davies,,,11:10,0.0,0.0,0.0,0.0,6.0,5.0,8.0,10.0,0.0,0.0,2.0,2.0
0021301072,1610612755,PHI,Philadelphia,203100,Tony Wroten,,NWT - Right ankle sprain,,,,,,,0.0,,,,,,,0.0,,,2014-03-27T00:00:00,2,1610612755,PHI,Philadelphia,15-57,28,21,31,18,0,0,0,0,0,0,0,0,0,0,98,0.389,0.636,0.389,23,39,21,0021301072,1610612755,PHI,Philadelphia,Tony Wroten,,NWT - Right ankle sprain,,,,,,,,,,,,,
0021301072,1610612755,PHI,Philadelphia,203100,Tony Wroten,,NWT - Right ankle sprain,,,,,,,0.0,,,,,,,0.0,,,2014-03-27T00:00:00,2,1610612745,HOU,Houston,49-22,35,28,37,20,0,0,0,0,0,0,0,0,0,0,120,0.489,0.676,0.346,27,57,20,0021301072,1610612755,PHI,Philadelphia,Tony Wroten,,NWT - Right ankle sprain,,,,,,,,,,,,,
0021301072,1610612745,HOU,Houston,202718,Chandler Parsons,F,,39:10,125.1,90.8,34.4,0.2,3.5,30.4,0.0,0.125,0.071,8.7,0.571,0.571,0.156,107.33,0.121,2014-03-27T00:00:00,2,1610612755,PHI,Philadelphia,15-57,28,21,31,18,0,0,0,0,0,0,0,0,0,0,98,0.389,0.636,0.389,23,39,21,0021301072,1610612745,HOU,Houston,Chandler Parsons,F,,39:10,5.0,0.0,2.0,10.0,12.0,14.0,14.0,32.0,0.0,0.0,2.0,0.0
0021301072,1610612745,HOU,Houston,202718,Chandler Parsons,F,,39:10,125.1,90.8,34.4,0.2,3.5,30.4,0.0,0.125,0.071,8.7,0.571,0.571,0.156,107.33,0.121,2014-03-27T00:00:00,2,1610612745,HOU,Houston,49-22,35,28,37,20,0,0,0,0,0,0,0,0,0,0,120,0.489,0.676,0.346,27,57,20,0021301072,1610612745,HOU,Houston,Chandler Parsons,F,,39:10,5.0,0.0,2.0,10.0,12.0,14.0,14.0,32.0,0.0,0.0,2.0,0.0
0021301072,1610612745,HOU,Houston,203093,Terrence Jones,F,,29:36,131.0,91.1,39.9,0.0,0.0,0.0,0.087,0.152,0.125,5.4,0.533,0.567,0.23,112.77,0.153,2014-03-27T00:00:00,2,1610612755,PHI,Philadelphia,15-57,28,21,31,18,0,0,0,0,0,0,0,0,0,0,98,0.389,0.636,0.389,23,39,21,0021301072,1610612745,HOU,Houston,Terrence Jones,F,,29:36,2.0,6.0,6.0,16.0,12.0,12.0,14.0,28.0,2.0,1.0,0.0,4.0
0021301072,1610612745,HOU,Houston,203093,Terrence Jones,F,,29:36,131.0,91.1,39.9,0.0,0.0,0.0,0.087,0.152,0.125,5.4,0.533,0.567,0.23,112.77,0.153,2014-03-27T00:00:00,2,1610612745,HOU,Houston,49-22,35,28,37,20,0,0,0,0,0,0,0,0,0,0,120,0.489,0.676,0.346,27,57,20,0021301072,1610612745,HOU,Houston,Terrence Jones,F,,29:36,2.0,6.0,6.0,16.0,12.0,12.0,14.0,28.0,2.0,1.0,0.0,4.0
0021301072,1610612745,HOU,Houston,2730,Dwight Howard,C,,26:10,140.1,88.2,51.9,0.0,0.0,0.0,0.167,0.345,0.277,23.1,1.0,0.853,0.183,112.71,0.171,2014-03-27T00:00:00,2,1610612755,PHI,Philadelphia,15-57,28,21,31,18,0,0,0,0,0,0,0,0,0,0,98,0.389,0.636,0.389,23,39,21,0021301072,1610612745,HOU,Houston,Dwight Howard,C,,26:10,2.0,3.0,4.0,12.0,7.0,9.0,12.0,20.0,3.0,0.0,3.0,7.0
0021301072,1610612745,HOU,Houston,2730,Dwight Howard,C,,26:10,140.1,88.2,51.9,0.0,0.0,0.0,0.167,0.345,0.277,23.1,1.0,0.853,0.183,112.71,0.171,2014-03-27T00:00:00,2,1610612745,HOU,Houston,49-22,35,28,37,20,0,0,0,0,0,0,0,0,0,0,120,0.489,0.676,0.346,27,57,20,0021301072,1610612745,HOU,Houston,Dwight Howard,C,,26:10,2.0,3.0,4.0,12.0,7.0,9.0,12.0,20.0,3.0,0.0,3.0,7.0
0021301072,1610612745,HOU,Houston,201935,James Harden,G,,31:29,128.4,93.0,35.3,0.385,2.0,28.9,0.174,0.158,0.164,14.4,0.618,0.662,0.297,112.94,0.218,2014-03-27T00:00:00,2,1610612755,PHI,Philadelphia,15-57,28,21,31,18,0,0,0,0,0,0,0,0,0,0,98,0.389,0.636,0.389,23,39,21,0021301072,1610612745,HOU,Houston,James Harden,G,,31:29,6.0,2.0,16.0,10.0,14.0,13.0,14.0,26.0,0.0,0.0,0.0,3.0
0021301072,1610612745,HOU,Houston,201935,James Harden,G,,31:29,128.4,93.0,35.3,0.385,2.0,28.9,0.174,0.158,0.164,14.4,0.618,0.662,0.297,112.94,0.218,2014-03-27T00:00:00,2,1610612745,HOU,Houston,49-22,35,28,37,20,0,0,0,0,0,0,0,0,0,0,120,0.489,0.676,0.346,27,57,20,0021301072,1610612745,HOU,Houston,James Harden,G,,31:29,6.0,2.0,16.0,10.0,14.0,13.0,14.0,26.0,0.0,0.0,0.0,3.0
0021301072,1610612745,HOU,Houston,201976,Patrick Beverley,G,,7:33,127.9,105.9,22.0,0.2,0.0,25.8,0.0,0.0,0.0,0.0,0.75,0.868,0.173,103.76,0.103,2014-03-27T00:00:00,2,1610612755,PHI,Philadelphia,15-57,28,21,31,18,0,0,0,0,0,0,0,0,0,0,98,0.389,0.636,0.389,23,39,21,0021301072,1610612745,HOU,Houston,Patrick Beverley,G,,7:33,3.0,0.0,0.0,0.0,2.0,6.0,4.0,4.0,0.0,0.0,1.0,1.0
0021301072,1610612745,HOU,Houston,201976,Patrick Beverley,G,,7:33,127.9,105.9,22.0,0.2,0.0,25.8,0.0,0.0,0.0,0.0,0.75,0.868,0.173,103.76,0.103,2014-03-27T00:00:00,2,1610612745,HOU,Houston,49-22,35,28,37,20,0,0,0,0,0,0,0,0,0,0,120,0.489,0.676,0.346,27,57,20,0021301072,1610612745,HOU,Houston,Patrick Beverley,G,,7:33,3.0,0.0,0.0,0.0,2.0,6.0,4.0,4.0,0.0,0.0,1.0,1.0
0021301072,1610612745,HOU,Houston,202391,Jeremy Lin,,,27:06,118.1,102.9,15.2,0.28,3.5,35.4,0.0,0.042,0.02,10.1,0.5,0.604,0.171,108.72,0.092,2014-03-27T00:00:00,2,1610612755,PHI,Philadelphia,15-57,28,21,31,18,0,0,0,0,0,0,0,0,0,0,98,0.389,0.636,0.389,23,39,21,0021301072,1610612745,HOU,Houston,Jeremy Lin,,,27:06,2.0,0.0,2.0,4.0,10.0,10.0,8.0,24.0,0.0,0.0,4.0,5.0
0021301072,1610612745,HOU,Houston,202391,Jeremy Lin,,,27:06,118.1,102.9,15.2,0.28,3.5,35.4,0.0,0.042,0.02,10.1,0.5,0.604,0.171,108.72,0.092,2014-03-27T00:00:00,2,1610612745,HOU,Houston,49-22,35,28,37,20,0,0,0,0,0,0,0,0,0,0,120,0.489,0.676,0.346,27,57,20,0021301072,1610612745,HOU,Houston,Jeremy Lin,,,27:06,2.0,0.0,2.0,4.0,10.0,10.0,8.0,24.0,0.0,0.0,4.0,5.0
0021301072,1610612745,HOU,Houston,202700,Donatas Motiejunas,,,18:24,73.1,90.9,-17.9,0.0,0.0,0.0,0.105,0.095,0.1,22.2,0.429,0.429,0.205,99.86,0.0,2014-03-27T00:00:00,2,1610612755,PHI,Philadelphia,15-57,28,21,31,18,0,0,0,0,0,0,0,0,0,0,98,0.389,0.636,0.389,23,39,21,0021301072,1610612745,HOU,Houston,Donatas Motiejunas,,,18:24,2.0,4.0,0.0,4.0,5.0,6.0,1.0,8.0,0.0,1.0,5.0,0.0
0021301072,1610612745,HOU,Houston,202700,Donatas Motiejunas,,,18:24,73.1,90.9,-17.9,0.0,0.0,0.0,0.105,0.095,0.1,22.2,0.429,0.429,0.205,99.86,0.0,2014-03-27T00:00:00,2,1610612745,HOU,Houston,49-22,35,28,37,20,0,0,0,0,0,0,0,0,0,0,120,0.489,0.676,0.346,27,57,20,0021301072,1610612745,HOU,Houston,Donatas Motiejunas,,,18:24,2.0,4.0,0.0,4.0,5.0,6.0,1.0,8.0,0.0,1.0,5.0,0.0
0021301072,1610612745,HOU,Houston,201600,Omer Asik,,,21:50,70.9,94.5,-23.7,0.0,0.0,0.0,0.125,0.16,0.143,0.0,0.5,0.45,0.082,101.97,0.12,2014-03-27T00:00:00,2,1610612755,PHI,Philadelphia,15-57,28,21,31,18,0,0,0,0,0,0,0,0,0,0,98,0.389,0.636,0.389,23,39,21,0021301072,1610612745,HOU,Houston,Omer Asik,,,21:50,2.0,4.0,0.0,2.0,10.0,9.0,3.0,16.0,0.0,2.0,3.0,2.0
0021301072,1610612745,HOU,Houston,201600,Omer Asik,,,21:50,70.9,94.5,-23.7,0.0,0.0,0.0,0.125,0.16,0.143,0.0,0.5,0.45,0.082,101.97,0.12,2014-03-27T00:00:00,2,1610612745,HOU,Houston,49-22,35,28,37,20,0,0,0,0,0,0,0,0,0,0,120,0.489,0.676,0.346,27,57,20,0021301072,1610612745,HOU,Houston,Omer Asik,,,21:50,2.0,4.0,0.0,2.0,10.0,9.0,3.0,16.0,0.0,2.0,3.0,2.0
0021301072,1610612745,HOU,Houston,202706,Jordan Hamilton,,,11:50,47.8,93.6,-45.8,0.0,0.0,0.0,0.063,0.308,0.172,28.6,0.3,0.3,0.225,109.36,-0.045,2014-03-27T00:00:00,2,1610612755,PHI,Philadelphia,15-57,28,21,31,18,0,0,0,0,0,0,0,0,0,0,98,0.389,0.636,0.389,23,39,21,0021301072,1610612745,HOU,Houston,Jordan Hamilton,,,11:50,0.0,3.0,0.0,0.0,6.0,4.0,1.0,8.0,0.0,0.0,2.0,0.0
0021301072,1610612745,HOU,Houston,202706,Jordan Hamilton,,,11:50,47.8,93.6,-45.8,0.0,0.0,0.0,0.063,0.308,0.172,28.6,0.3,0.3,0.225,109.36,-0.045,2014-03-27T00:00:00,2,1610612745,HOU,Houston,49-22,35,28,37,20,0,0,0,0,0,0,0,0,0,0,120,0.489,0.676,0.346,27,57,20,0021301072,1610612745,HOU,Houston,Jordan Hamilton,,,11:50,0.0,3.0,0.0,0.0,6.0,4.0,1.0,8.0,0.0,0.0,2.0,0.0
0021301072,1610612745,HOU,Houston,203477,Isaiah Canaan,,,13:49,86.7,67.9,18.8,0.0,0.0,0.0,0.0,0.056,0.034,33.3,0.417,0.417,0.266,106.38,-0.07,2014-03-27T00:00:00,2,1610612755,PHI,Philadelphia,15-57,28,21,31,18,0,0,0,0,0,0,0,0,0,0,98,0.389,0.636,0.389,23,39,21,0021301072,1610612745,HOU,Houston,Isaiah Canaan,,,13:49,2.0,0.0,2.0,2.0,5.0,5.0,3.0,8.0,1.0,0.0,2.0,0.0
0021301072,1610612745,HOU,Houston,203477,Isaiah Canaan,,,13:49,86.7,67.9,18.8,0.0,0.0,0.0,0.0,0.056,0.034,33.3,0.417,0.417,0.266,106.38,-0.07,2014-03-27T00:00:00,2,1610612745,HOU,Houston,49-22,35,28,37,20,0,0,0,0,0,0,0,0,0,0,120,0.489,0.676,0.346,27,57,20,0021301072,1610612745,HOU,Houston,Isaiah Canaan,,,13:49,2.0,0.0,2.0,2.0,5.0,5.0,3.0,8.0,1.0,0.0,2.0,0.0
0021301072,1610612745,HOU,Houston,201956,Omri Casspi,,,13:03,75.4,75.4,0.0,0.333,0.0,20.7,0.133,0.125,0.129,0.0,0.2,0.327,0.228,97.54,0.162,2014-03-27T00:00:00,2,1610612755,PHI,Philadelphia,15-57,28,21,31,18,0,0,0,0,0,0,0,0,0,0,98,0.389,0.636,0.389,23,39,21,0021301072,1610612745,HOU,Houston,Omri Casspi,,,13:03,0.0,2.0,2.0,2.0,2.0,2.0,1.0,6.0,0.0,1.0,0.0,4.0
0021301072,1610612745,HOU,Houston,201956,Omri Casspi,,,13:03,75.4,75.4,0.0,0.333,0.0,20.7,0.133,0.125,0.129,0.0,0.2,0.327,0.228,97.54,0.162,2014-03-27T00:00:00,2,1610612745,HOU,Houston,49-22,35,28,37,20,0,0,0,0,0,0,0,0,0,0,120,0.489,0.676,0.346,27,57,20,0021301072,1610612745,HOU,Houston,Omri Casspi,,,13:03,0.0,2.0,2.0,2.0,2.0,2.0,1.0,6.0,0.0,1.0,0.0,4.0
0021301072,1610612745,HOU,Houston,101128,Francisco Garcia,,DNP - Coach's Decision,,,,,,,0.0,,,,,,,0.0,,,2014-03-27T00:00:00,2,1610612755,PHI,Philadelphia,15-57,28,21,31,18,0,0,0,0,0,0,0,0,0,0,98,0.389,0.636,0.389,23,39,21,0021301072,1610612745,HOU,Houston,Francisco Garcia,,DNP - Coach's Decision,,,,,,,,,,,,,
0021301072,1610612745,HOU,Houston,101128,Francisco Garcia,,DNP - Coach's Decision,,,,,,,0.0,,,,,,,0.0,,,2014-03-27T00:00:00,2,1610612745,HOU,Houston,49-22,35,28,37,20,0,0,0,0,0,0,0,0,0,0,120,0.489,0.676,0.346,27,57,20,0021301072,1610612745,HOU,Houston,Francisco Garcia,,DNP - Coach's Decision,,,,,,,,,,,,,
0021301072,1610612745,HOU,Houston,202962,Greg Smith,,DND - Right Knee Surgery,,,,,,,0.0,,,,,,,0.0,,,2014-03-27T00:00:00,2,1610612755,PHI,Philadelphia,15-57,28,21,31,18,0,0,0,0,0,0,0,0,0,0,98,0.389,0.636,0.389,23,39,21,0021301072,1610612745,HOU,Houston,Greg Smith,,DND - Right Knee Surgery,,,,,,,,,,,,,
0021301072,1610612745,HOU,Houston,202962,Greg Smith,,DND - Right Knee Surgery,,,,,,,0.0,,,,,,,0.0,,,2014-03-27T00:00:00,2,1610612745,HOU,Houston,49-22,35,28,37,20,0,0,0,0,0,0,0,0,0,0,120,0.489,0.676,0.346,27,57,20,0021301072,1610612745,HOU,Houston,Greg Smith,,DND - Right Knee Surgery,,,,,,,,,,,,,
