GAME_ID_x,TEAM_ID_x,TEAM_ABBREVIATION_x,TEAM_CITY_x,PLAYER_ID,PLAYER_NAME_x,START_POSITION_x,COMMENT_x,MIN_x,OFF_RATING,DEF_RATING,NET_RATING,AST_PCT,AST_TOV,AST_RATIO,OREB_PCT,DREB_PCT,REB_PCT,TM_TOV_PCT,EFG_PCT,TS_PCT,USG_PCT,PACE,PIE,GAME_DATE_EST,GAME_SEQUENCE,TEAM_ABBREVIATION_y,TEAM_CITY_NAME,TEAM_WINS_LOSSES,PTS_QTR1,PTS_QTR2,PTS_QTR3,PTS_QTR4,PTS_OT1,PTS_OT2,PTS_OT3,PTS_OT4,PTS_OT5,PTS_OT6,PTS_OT7,PTS_OT8,PTS_OT9,PTS_OT10,PTS,FG_PCT,FT_PCT,FG3_PCT,AST,REB,TOV,GAME_ID_y,TEAM_ID_y,TEAM_ABBREVIATION,TEAM_CITY_y,PLAYER_NAME_y,START_POSITION_y,COMMENT_y,MIN_y,PTS_OFF_TOV,PTS_2ND_CHANCE,PTS_FB,PTS_PAINT,OPP_PTS_OFF_TOV,OPP_PTS_2ND_CHANCE,OPP_PTS_FB,OPP_PTS_PAINT,BLK,BLKA,PF,PFD
0041500225,1610612757,POR,Portland,202329,Al-Farouq Aminu,F,,36:21,120.4,129.1,-8.7,0.077,0.0,14.5,0.053,0.206,0.125,0.0,0.65,0.68,0.129,102.71,0.112,2016-05-11T00:00:00,2,POR,Portland,1-4,30,33,28,30,0,0,0,0,0,0,0,0,0,0,121,0.413,0.744,0.444,20,47,10,0041500225,1610612757,POR,Portland,Al-Farouq Aminu,F,,36:21,3.0,3.0,0.0,2.0,7.0,8.0,12.0,30.0,0.0,0.0,3.0,3.0
0041500225,1610612757,POR,Portland,203090,Maurice Harkless,F,,19:49,113.5,123.5,-10.0,0.0,0.0,0.0,0.05,0.087,0.07,8.3,0.591,0.591,0.239,104.2,0.066,2016-05-11T00:00:00,2,POR,Portland,1-4,30,33,28,30,0,0,0,0,0,0,0,0,0,0,121,0.413,0.744,0.444,20,47,10,0041500225,1610612757,POR,Portland,Maurice Harkless,F,,19:49,0.0,3.0,0.0,4.0,2.0,8.0,6.0,22.0,0.0,0.0,5.0,0.0
0041500225,1610612757,POR,Portland,203486,Mason Plumlee,C,,23:36,116.0,145.3,-29.4,0.211,4.0,36.8,0.13,0.143,0.136,9.2,0.4,0.425,0.114,102.49,0.052,2016-05-11T00:00:00,2,POR,Portland,1-4,30,33,28,30,0,0,0,0,0,0,0,0,0,0,121,0.413,0.744,0.444,20,47,10,0041500225,1610612757,POR,Portland,Mason Plumlee,C,,23:36,2.0,0.0,2.0,4.0,7.0,8.0,8.0,26.0,1.0,1.0,3.0,3.0
0041500225,1610612757,POR,Portland,203468,CJ McCollum,G,,41:37,115.8,125.1,-9.3,0.217,5.0,16.0,0.07,0.128,0.098,3.2,0.543,0.536,0.253,103.01,0.099,2016-05-11T00:00:00,2,POR,Portland,1-4,30,33,28,30,0,0,0,0,0,0,0,0,0,0,121,0.413,0.744,0.444,20,47,10,0041500225,1610612757,POR,Portland,CJ McCollum,G,,41:37,2.0,10.0,5.0,6.0,7.0,8.0,12.0,38.0,0.0,0.0,5.0,4.0
0041500225,1610612757,POR,Portland,203081,Damian Lillard,G,,38:59,117.7,123.7,-6.0,0.28,1.4,17.0,0.025,0.171,0.093,12.1,0.333,0.478,0.341,104.63,0.12,2016-05-11T00:00:00,2,POR,Portland,1-4,30,33,28,30,0,0,0,0,0,0,0,0,0,0,121,0.413,0.744,0.444,20,47,10,0041500225,1610612757,POR,Portland,Damian Lillard,G,,38:59,4.0,0.0,10.0,8.0,9.0,8.0,16.0,34.0,0.0,1.0,1.0,5.0
0041500225,1610612757,POR,Portland,201945,Gerald Henderson,,,15:36,91.0,105.7,-14.7,0.0,0.0,0.0,0.0,0.25,0.115,0.0,0.0,0.129,0.104,111.14,-0.018,2016-05-11T00:00:00,2,POR,Portland,1-4,30,33,28,30,0,0,0,0,0,0,0,0,0,0,121,0.413,0.744,0.444,20,47,10,0041500225,1610612757,POR,Portland,Gerald Henderson,,,15:36,0.0,0.0,0.0,0.0,2.0,0.0,8.0,14.0,0.0,1.0,1.0,1.0
0041500225,1610612757,POR,Portland,203459,Allen Crabbe,,,32:31,109.8,120.2,-10.4,0.0,0.0,0.0,0.032,0.083,0.055,9.2,1.056,1.012,0.138,107.85,0.127,2016-05-11T00:00:00,2,POR,Portland,1-4,30,33,28,30,0,0,0,0,0,0,0,0,0,0,121,0.413,0.744,0.444,20,47,10,0041500225,1610612757,POR,Portland,Allen Crabbe,,,32:31,2.0,2.0,9.0,4.0,7.0,0.0,14.0,26.0,0.0,0.0,2.0,3.0
0041500225,1610612757,POR,Portland,202334,Ed Davis,,,23:15,109.5,92.6,16.9,0.125,2.0,21.0,0.045,0.3,0.167,10.5,0.0,0.46,0.139,105.35,0.094,2016-05-11T00:00:00,2,POR,Portland,1-4,30,33,28,30,0,0,0,0,0,0,0,0,0,0,121,0.413,0.744,0.444,20,47,10,0041500225,1610612757,POR,Portland,Ed Davis,,,23:15,3.0,1.0,0.0,0.0,2.0,0.0,6.0,16.0,3.0,1.0,2.0,4.0
0041500225,1610612757,POR,Portland,203148,Brian Roberts,,,8:16,101.2,87.7,13.5,0.0,0.0,0.0,0.111,0.0,0.063,0.0,0.25,0.434,0.233,125.48,0.019,2016-05-11T00:00:00,2,POR,Portland,1-4,30,33,28,30,0,0,0,0,0,0,0,0,0,0,121,0.413,0.744,0.444,20,47,10,0041500225,1610612757,POR,Portland,Brian Roberts,,,8:16,0.0,0.0,0.0,2.0,2.0,0.0,8.0,4.0,0.0,0.0,1.0,2.0
0041500225,1610612757,POR,Portland,1626192,Pat Connaughton,,DNP - Coach's Decision                  ,,,,,,,0.0,,,,,,,0.0,,,2016-05-11T00:00:00,2,POR,Portland,1-4,30,33,28,30,0,0,0,0,0,0,0,0,0,0,121,0.413,0.744,0.444,20,47,10,0041500225,1610612757,POR,Portland,Pat Connaughton,,DNP - Coach's Decision                  ,,,,,,,,,,,,,
0041500225,1610612757,POR,Portland,2549,Chris Kaman,,DNP - Coach's Decision                  ,,,,,,,0.0,,,,,,,0.0,,,2016-05-11T00:00:00,2,POR,Portland,1-4,30,33,28,30,0,0,0,0,0,0,0,0,0,0,121,0.413,0.744,0.444,20,47,10,0041500225,1610612757,POR,Portland,Chris Kaman,,DNP - Coach's Decision                  ,,,,,,,,,,,,,
0041500225,1610612757,POR,Portland,1626242,Luis Montero,,DNP - Coach's Decision                  ,,,,,,,0.0,,,,,,,0.0,,,2016-05-11T00:00:00,2,POR,Portland,1-4,30,33,28,30,0,0,0,0,0,0,0,0,0,0,121,0.413,0.744,0.444,20,47,10,0041500225,1610612757,POR,Portland,Luis Montero,,DNP - Coach's Decision                  ,,,,,,,,,,,,,
0041500225,1610612757,POR,Portland,203943,Noah Vonleh,,DNP - Coach's Decision                  ,,,,,,,0.0,,,,,,,0.0,,,2016-05-11T00:00:00,2,POR,Portland,1-4,30,33,28,30,0,0,0,0,0,0,0,0,0,0,121,0.413,0.744,0.444,20,47,10,0041500225,1610612757,POR,Portland,Noah Vonleh,,DNP - Coach's Decision                  ,,,,,,,,,,,,,
0041500225,1610612744,GSW,Golden State,203084,Harrison Barnes,F,,36:02,111.5,119.2,-7.7,0.037,0.0,9.7,0.083,0.125,0.103,0.0,0.375,0.429,0.113,101.6,0.038,2016-05-11T00:00:00,2,GSW,Golden State,4-1,27,31,35,32,0,0,0,0,0,0,0,0,0,0,125,0.512,0.862,0.438,28,44,16,0041500225,1610612744,GSW,Golden State,Harrison Barnes,F,,36:02,2.0,2.0,2.0,6.0,12.0,17.0,17.0,22.0,0.0,0.0,3.0,3.0
0041500225,1610612744,GSW,Golden State,203110,Draymond Green,F,,35:51,121.7,115.0,6.7,0.194,1.5,28.0,0.029,0.263,0.153,18.7,0.357,0.57,0.179,106.46,0.101,2016-05-11T00:00:00,2,GSW,Golden State,4-1,27,31,35,32,0,0,0,0,0,0,0,0,0,0,125,0.512,0.862,0.438,28,44,16,0041500225,1610612744,GSW,Golden State,Draymond Green,F,,35:51,0.0,3.0,2.0,2.0,12.0,19.0,26.0,22.0,1.0,1.0,5.0,6.0
0041500225,1610612744,GSW,Golden State,101106,Andrew Bogut,C,,8:55,138.2,118.0,20.2,0.5,0.0,37.5,0.2,0.2,0.2,0.0,0.4,0.4,0.242,94.96,0.133,2016-05-11T00:00:00,2,GSW,Golden State,4-1,27,31,35,32,0,0,0,0,0,0,0,0,0,0,125,0.512,0.862,0.438,28,44,16,0041500225,1610612744,GSW,Golden State,Andrew Bogut,C,,8:55,0.0,0.0,0.0,4.0,0.0,6.0,8.0,6.0,0.0,0.0,2.0,0.0
0041500225,1610612744,GSW,Golden State,202691,Klay Thompson,G,,34:37,123.6,118.7,4.9,0.053,1.0,5.1,0.0,0.063,0.033,5.1,0.941,0.946,0.23,106.44,0.17,2016-05-11T00:00:00,2,GSW,Golden State,4-1,27,31,35,32,0,0,0,0,0,0,0,0,0,0,125,0.512,0.862,0.438,28,44,16,0041500225,1610612744,GSW,Golden State,Klay Thompson,G,,34:37,2.0,0.0,0.0,8.0,14.0,19.0,17.0,24.0,1.0,0.0,4.0,2.0
0041500225,1610612744,GSW,Golden State,201939,Stephen Curry,G,,36:30,131.1,113.7,17.4,0.44,2.75,29.9,0.0,0.128,0.07,10.9,0.625,0.666,0.294,105.42,0.179,2016-05-11T00:00:00,2,GSW,Golden State,4-1,27,31,35,32,0,0,0,0,0,0,0,0,0,0,125,0.512,0.862,0.438,28,44,16,0041500225,1610612744,GSW,Golden State,Stephen Curry,G,,36:30,3.0,3.0,6.0,6.0,10.0,19.0,21.0,22.0,0.0,0.0,2.0,3.0
0041500225,1610612744,GSW,Golden State,2571,Leandro Barbosa,,,12:03,105.6,100.1,5.4,0.0,0.0,0.0,0.071,0.0,0.036,0.0,0.667,0.84,0.156,106.58,0.131,2016-05-11T00:00:00,2,GSW,Golden State,4-1,27,31,35,32,0,0,0,0,0,0,0,0,0,0,125,0.512,0.862,0.438,28,44,16,0041500225,1610612744,GSW,Golden State,Leandro Barbosa,,,12:03,2.0,0.0,6.0,4.0,2.0,0.0,9.0,6.0,0.0,0.0,2.0,3.0
0041500225,1610612744,GSW,Golden State,2738,Andre Iguodala,,,29:30,125.5,107.0,18.5,0.115,3.0,33.8,0.045,0.097,0.075,11.3,0.375,0.512,0.086,106.41,0.07,2016-05-11T00:00:00,2,GSW,Golden State,4-1,27,31,35,32,0,0,0,0,0,0,0,0,0,0,125,0.512,0.862,0.438,28,44,16,0041500225,1610612744,GSW,Golden State,Andre Iguodala,,,29:30,0.0,0.0,2.0,0.0,11.0,6.0,13.0,18.0,1.0,0.0,0.0,2.0
0041500225,1610612744,GSW,Golden State,203105,Festus Ezeli,,,14:16,124.2,112.3,11.9,0.0,0.0,0.0,0.0,0.286,0.148,24.4,0.5,0.645,0.238,108.27,0.115,2016-05-11T00:00:00,2,GSW,Golden State,4-1,27,31,35,32,0,0,0,0,0,0,0,0,0,0,125,0.512,0.862,0.438,28,44,16,0041500225,1610612744,GSW,Golden State,Festus Ezeli,,,14:16,0.0,0.0,0.0,4.0,4.0,4.0,8.0,8.0,1.0,1.0,0.0,3.0
0041500225,1610612744,GSW,Golden State,2733,Shaun Livingston,,,18:01,107.9,103.9,4.0,0.1,0.25,7.7,0.063,0.056,0.059,30.8,0.625,0.625,0.281,112.0,0.063,2016-05-11T00:00:00,2,GSW,Golden State,4-1,27,31,35,32,0,0,0,0,0,0,0,0,0,0,125,0.512,0.862,0.438,28,44,16,0041500225,1610612744,GSW,Golden State,Shaun Livingston,,,18:01,0.0,0.0,0.0,4.0,9.0,5.0,7.0,10.0,0.0,0.0,2.0,0.0
0041500225,1610612744,GSW,Golden State,201578,Marreese Speights,,,9:13,95.6,102.5,-6.9,0.0,0.0,0.0,0.0,0.444,0.25,0.0,0.357,0.357,0.352,102.6,0.0,2016-05-11T00:00:00,2,GSW,Golden State,4-1,27,31,35,32,0,0,0,0,0,0,0,0,0,0,125,0.512,0.862,0.438,28,44,16,0041500225,1610612744,GSW,Golden State,Marreese Speights,,,9:13,0.0,0.0,0.0,2.0,2.0,0.0,0.0,6.0,0.0,2.0,4.0,0.0
0041500225,1610612744,GSW,Golden State,2760,Anderson Varejao,,,5:02,137.9,119.5,18.4,0.5,0.0,66.7,0.0,0.0,0.0,0.0,1.0,1.0,0.092,103.72,0.109,2016-05-11T00:00:00,2,GSW,Golden State,4-1,27,31,35,32,0,0,0,0,0,0,0,0,0,0,125,0.512,0.862,0.438,28,44,16,0041500225,1610612744,GSW,Golden State,Anderson Varejao,,,5:02,0.0,0.0,0.0,2.0,4.0,0.0,4.0,6.0,0.0,0.0,1.0,1.0
0041500225,1610612744,GSW,Golden State,203546,Ian Clark,,DNP - Coach's Decision                  ,,,,,,,0.0,,,,,,,0.0,,,2016-05-11T00:00:00,2,GSW,Golden State,4-1,27,31,35,32,0,0,0,0,0,0,0,0,0,0,125,0.512,0.862,0.438,28,44,16,0041500225,1610612744,GSW,Golden State,Ian Clark,,DNP - Coach's Decision                  ,,,,,,,,,,,,,
0041500225,1610612744,GSW,Golden State,201575,Brandon Rush,,DNP - Coach's Decision                  ,,,,,,,0.0,,,,,,,0.0,,,2016-05-11T00:00:00,2,GSW,Golden State,4-1,27,31,35,32,0,0,0,0,0,0,0,0,0,0,125,0.512,0.862,0.438,28,44,16,0041500225,1610612744,GSW,Golden State,Brandon Rush,,DNP - Coach's Decision                  ,,,,,,,,,,,,,
