GAME_ID_x,TEAM_ID_x,TEAM_ABBREVIATION_x,TEAM_CITY_x,PLAYER_ID,PLAYER_NAME_x,START_POSITION_x,COMMENT_x,MIN_x,OFF_RATING,DEF_RATING,NET_RATING,AST_PCT,AST_TOV,AST_RATIO,OREB_PCT,DREB_PCT,REB_PCT,TM_TOV_PCT,EFG_PCT,TS_PCT,USG_PCT,PACE,PIE,GAME_DATE_EST,GAME_SEQUENCE,TEAM_ABBREVIATION_y,TEAM_CITY_NAME,TEAM_WINS_LOSSES,PTS_QTR1,PTS_QTR2,PTS_QTR3,PTS_QTR4,PTS_OT1,PTS_OT2,PTS_OT3,PTS_OT4,PTS_OT5,PTS_OT6,PTS_OT7,PTS_OT8,PTS_OT9,PTS_OT10,PTS,FG_PCT,FT_PCT,FG3_PCT,AST,REB,TOV,GAME_ID_y,TEAM_ID_y,TEAM_ABBREVIATION,TEAM_CITY_y,PLAYER_NAME_y,START_POSITION_y,COMMENT_y,MIN_y,PTS_OFF_TOV,PTS_2ND_CHANCE,PTS_FB,PTS_PAINT,OPP_PTS_OFF_TOV,OPP_PTS_2ND_CHANCE,OPP_PTS_FB,OPP_PTS_PAINT,BLK,BLKA,PF,PFD
0041500311,1610612760,OKC,Oklahoma City,201142,Kevin Durant,F,,45:35,101.9,94.5,7.4,0.115,0.6,7.3,0.022,0.184,0.106,12.2,0.35,0.393,0.346,105.07,0.081,2016-05-16T00:00:00,2,OKC,Oklahoma City,1-0,21,26,38,23,0,0,0,0,0,0,0,0,0,0,108,0.438,0.688,0.471,22,52,11,0041500311,1610612760,OKC,Oklahoma City,Kevin Durant,F,,45:35,7.0,0.0,5.0,6.0,12.0,2.0,20.0,44.0,1.0,2.0,1.0,4.0
0041500311,1610612760,OKC,Oklahoma City,201586,Serge Ibaka,F,,35:32,94.0,97.5,-3.5,0.043,1.0,7.7,0.108,0.189,0.149,7.7,0.5,0.5,0.137,105.88,0.102,2016-05-16T00:00:00,2,OKC,Oklahoma City,1-0,21,26,38,23,0,0,0,0,0,0,0,0,0,0,108,0.438,0.688,0.471,22,52,11,0041500311,1610612760,OKC,Oklahoma City,Serge Ibaka,F,,35:32,4.0,2.0,2.0,6.0,15.0,0.0,18.0,30.0,1.0,0.0,0.0,0.0
0041500311,1610612760,OKC,Oklahoma City,203500,Steven Adams,C,,36:35,107.1,86.0,21.1,0.0,0.0,0.0,0.061,0.263,0.169,7.7,0.625,0.669,0.145,105.12,0.146,2016-05-16T00:00:00,2,OKC,Oklahoma City,1-0,21,26,38,23,0,0,0,0,0,0,0,0,0,0,108,0.438,0.688,0.471,22,52,11,0041500311,1610612760,OKC,Oklahoma City,Steven Adams,C,,36:35,0.0,4.0,2.0,10.0,8.0,2.0,17.0,38.0,2.0,1.0,2.0,8.0
0041500311,1610612760,OKC,Oklahoma City,203460,Andre Roberson,G,,20:34,101.7,110.5,-8.8,0.083,0.0,25.0,0.0,0.238,0.119,0.0,1.167,1.167,0.062,105.44,0.134,2016-05-16T00:00:00,2,OKC,Oklahoma City,1-0,21,26,38,23,0,0,0,0,0,0,0,0,0,0,108,0.438,0.688,0.471,22,52,11,0041500311,1610612760,OKC,Oklahoma City,Andre Roberson,G,,20:34,0.0,0.0,0.0,4.0,8.0,0.0,10.0,18.0,1.0,0.0,2.0,0.0
0041500311,1610612760,OKC,Oklahoma City,201566,Russell Westbrook,G,,40:11,103.1,94.7,8.4,0.462,4.0,28.5,0.026,0.116,0.073,7.1,0.381,0.497,0.304,107.46,0.184,2016-05-16T00:00:00,2,OKC,Oklahoma City,1-0,21,26,38,23,0,0,0,0,0,0,0,0,0,0,108,0.438,0.688,0.471,22,52,11,0041500311,1610612760,OKC,Oklahoma City,Russell Westbrook,G,,40:11,4.0,2.0,10.0,6.0,15.0,0.0,19.0,32.0,0.0,1.0,2.0,8.0
0041500311,1610612760,OKC,Oklahoma City,203079,Dion Waiters,,,29:39,97.5,94.7,2.8,0.19,0.0,36.8,0.0,0.031,0.017,0.0,0.833,0.727,0.099,104.41,0.072,2016-05-16T00:00:00,2,OKC,Oklahoma City,1-0,21,26,38,23,0,0,0,0,0,0,0,0,0,0,108,0.438,0.688,0.471,22,52,11,0041500311,1610612760,OKC,Oklahoma City,Dion Waiters,,,29:39,5.0,2.0,0.0,2.0,13.0,2.0,15.0,30.0,0.0,0.0,3.0,2.0
0041500311,1610612760,OKC,Oklahoma City,202683,Enes Kanter,,,18:03,121.1,113.3,7.8,0.0,0.0,0.0,0.125,0.222,0.176,11.1,0.5,0.5,0.219,99.89,0.099,2016-05-16T00:00:00,2,OKC,Oklahoma City,1-0,21,26,38,23,0,0,0,0,0,0,0,0,0,0,108,0.438,0.688,0.471,22,52,11,0041500311,1610612760,OKC,Oklahoma City,Enes Kanter,,,18:03,0.0,2.0,2.0,6.0,7.0,2.0,6.0,18.0,1.0,0.0,2.0,0.0
0041500311,1610612760,OKC,Oklahoma City,200751,Randy Foye,,,13:51,106.6,115.3,-8.7,0.091,0.0,33.3,0.0,0.083,0.042,0.0,0.75,0.75,0.066,98.5,0.016,2016-05-16T00:00:00,2,OKC,Oklahoma City,1-0,21,26,38,23,0,0,0,0,0,0,0,0,0,0,108,0.438,0.688,0.471,22,52,11,0041500311,1610612760,OKC,Oklahoma City,Randy Foye,,,13:51,0.0,3.0,0.0,0.0,7.0,2.0,10.0,20.0,0.0,0.0,3.0,0.0
0041500311,1610612760,OKC,Oklahoma City,2555,Nick Collison,,DNP - Coach's Decision                  ,,,,,,,0.0,,,,,,,0.0,,,2016-05-16T00:00:00,2,OKC,Oklahoma City,1-0,21,26,38,23,0,0,0,0,0,0,0,0,0,0,108,0.438,0.688,0.471,22,52,11,0041500311,1610612760,OKC,Oklahoma City,Nick Collison,,DNP - Coach's Decision                  ,,,,,,,,,,,,,
0041500311,1610612760,OKC,Oklahoma City,1737,Nazr Mohammed,,DNP - Coach's Decision                  ,,,,,,,0.0,,,,,,,0.0,,,2016-05-16T00:00:00,2,OKC,Oklahoma City,1-0,21,26,38,23,0,0,0,0,0,0,0,0,0,0,108,0.438,0.688,0.471,22,52,11,0041500311,1610612760,OKC,Oklahoma City,Nazr Mohammed,,DNP - Coach's Decision                  ,,,,,,,,,,,,,
0041500311,1610612760,OKC,Oklahoma City,201627,Anthony Morrow,,DNP - Coach's Decision                  ,,,,,,,0.0,,,,,,,0.0,,,2016-05-16T00:00:00,2,OKC,Oklahoma City,1-0,21,26,38,23,0,0,0,0,0,0,0,0,0,0,108,0.438,0.688,0.471,22,52,11,0041500311,1610612760,OKC,Oklahoma City,Anthony Morrow,,DNP - Coach's Decision                  ,,,,,,,,,,,,,
0041500311,1610612760,OKC,Oklahoma City,1626166,Cameron Payne,,DNP - Coach's Decision                  ,,,,,,,0.0,,,,,,,0.0,,,2016-05-16T00:00:00,2,OKC,Oklahoma City,1-0,21,26,38,23,0,0,0,0,0,0,0,0,0,0,108,0.438,0.688,0.471,22,52,11,0041500311,1610612760,OKC,Oklahoma City,Cameron Payne,,DNP - Coach's Decision                  ,,,,,,,,,,,,,
0041500311,1610612760,OKC,Oklahoma City,202713,Kyle Singler,,DNP - Coach's Decision                  ,,,,,,,0.0,,,,,,,0.0,,,2016-05-16T00:00:00,2,OKC,Oklahoma City,1-0,21,26,38,23,0,0,0,0,0,0,0,0,0,0,108,0.438,0.688,0.471,22,52,11,0041500311,1610612760,OKC,Oklahoma City,Kyle Singler,,DNP - Coach's Decision                  ,,,,,,,,,,,,,
0041500311,1610612744,GSW,Golden State,203084,Harrison Barnes,F,,32:44,103.1,99.4,3.7,0.091,2.0,18.2,0.0,0.139,0.07,9.1,0.75,0.75,0.12,101.36,0.101,2016-05-16T00:00:00,2,GSW,Golden State,0-1,27,33,28,14,0,0,0,0,0,0,0,0,0,0,102,0.44,0.647,0.367,26,44,14,0041500311,1610612744,GSW,Golden State,Harrison Barnes,F,,32:44,3.0,0.0,5.0,4.0,13.0,11.0,10.0,30.0,0.0,0.0,1.0,0.0
0041500311,1610612744,GSW,Golden State,203110,Draymond Green,F,,40:05,95.9,97.6,-1.8,0.16,2.0,13.4,0.023,0.1,0.06,6.7,0.45,0.48,0.271,106.44,0.089,2016-05-16T00:00:00,2,GSW,Golden State,0-1,27,33,28,14,0,0,0,0,0,0,0,0,0,0,102,0.44,0.647,0.367,26,44,14,0041500311,1610612744,GSW,Golden State,Draymond Green,F,,40:05,0.0,2.0,3.0,14.0,16.0,12.0,19.0,32.0,2.0,0.0,3.0,6.0
0041500311,1610612744,GSW,Golden State,101106,Andrew Bogut,C,,17:27,85.3,92.1,-6.8,0.231,0.0,100.0,0.0,0.167,0.086,0.0,0.0,0.0,0.0,108.38,0.083,2016-05-16T00:00:00,2,GSW,Golden State,0-1,27,33,28,14,0,0,0,0,0,0,0,0,0,0,102,0.44,0.647,0.367,26,44,14,0041500311,1610612744,GSW,Golden State,Andrew Bogut,C,,17:27,0.0,0.0,0.0,0.0,5.0,6.0,5.0,14.0,2.0,0.0,3.0,0.0
0041500311,1610612744,GSW,Golden State,202691,Klay Thompson,G,,39:35,90.6,93.2,-2.5,0.2,2.0,12.9,0.023,0.205,0.11,6.5,0.5,0.5,0.301,102.23,0.123,2016-05-16T00:00:00,2,GSW,Golden State,0-1,27,33,28,14,0,0,0,0,0,0,0,0,0,0,102,0.44,0.647,0.367,26,44,14,0041500311,1610612744,GSW,Golden State,Klay Thompson,G,,39:35,4.0,0.0,6.0,12.0,14.0,10.0,11.0,30.0,0.0,3.0,4.0,2.0
0041500311,1610612744,GSW,Golden State,201939,Stephen Curry,G,,39:40,94.7,102.0,-7.3,0.292,1.0,19.0,0.023,0.231,0.122,19.0,0.545,0.568,0.312,108.25,0.142,2016-05-16T00:00:00,2,GSW,Golden State,0-1,27,33,28,14,0,0,0,0,0,0,0,0,0,0,102,0.44,0.647,0.367,26,44,14,0041500311,1610612744,GSW,Golden State,Stephen Curry,G,,39:40,8.0,0.0,4.0,4.0,18.0,12.0,21.0,34.0,0.0,1.0,3.0,2.0
0041500311,1610612744,GSW,Golden State,2738,Andre Iguodala,,,32:32,108.8,107.8,1.0,0.143,4.0,40.5,0.034,0.167,0.094,10.1,0.5,0.615,0.08,102.84,0.1,2016-05-16T00:00:00,2,GSW,Golden State,0-1,27,33,28,14,0,0,0,0,0,0,0,0,0,0,102,0.44,0.647,0.367,26,44,14,0041500311,1610612744,GSW,Golden State,Andre Iguodala,,,32:32,2.0,0.0,4.0,4.0,15.0,9.0,16.0,22.0,0.0,0.0,1.0,2.0
0041500311,1610612744,GSW,Golden State,203105,Festus Ezeli,,,7:52,107.3,126.4,-19.1,0.0,0.0,0.0,0.25,0.143,0.2,0.0,0.5,0.521,0.133,109.98,-0.028,2016-05-16T00:00:00,2,GSW,Golden State,0-1,27,33,28,14,0,0,0,0,0,0,0,0,0,0,102,0.44,0.647,0.367,26,44,14,0041500311,1610612744,GSW,Golden State,Festus Ezeli,,,7:52,0.0,0.0,1.0,2.0,6.0,3.0,10.0,8.0,0.0,1.0,4.0,1.0
0041500311,1610612744,GSW,Golden State,2733,Shaun Livingston,,,20:32,96.7,113.5,-16.9,0.067,1.0,11.1,0.043,0.1,0.07,11.1,0.286,0.286,0.155,106.77,0.006,2016-05-16T00:00:00,2,GSW,Golden State,0-1,27,33,28,14,0,0,0,0,0,0,0,0,0,0,102,0.44,0.647,0.367,26,44,14,0041500311,1610612744,GSW,Golden State,Shaun Livingston,,,20:32,0.0,0.0,0.0,4.0,9.0,7.0,11.0,20.0,0.0,1.0,1.0,1.0
0041500311,1610612744,GSW,Golden State,2571,Leandro Barbosa,,,3:60,146.4,133.3,13.1,0.25,0.0,33.3,0.333,0.0,0.143,0.0,0.5,0.5,0.202,107.46,0.085,2016-05-16T00:00:00,2,GSW,Golden State,0-1,27,33,28,14,0,0,0,0,0,0,0,0,0,0,102,0.44,0.647,0.367,26,44,14,0041500311,1610612744,GSW,Golden State,Leandro Barbosa,,,3:60,0.0,0.0,0.0,2.0,2.0,3.0,2.0,4.0,0.0,0.0,0.0,0.0
0041500311,1610612744,GSW,Golden State,201578,Marreese Speights,,,5:33,70.9,147.1,-76.2,0.0,0.0,0.0,0.0,0.0,0.0,0.0,0.0,0.266,0.173,89.77,-0.167,2016-05-16T00:00:00,2,GSW,Golden State,0-1,27,33,28,14,0,0,0,0,0,0,0,0,0,0,102,0.44,0.647,0.367,26,44,14,0041500311,1610612744,GSW,Golden State,Marreese Speights,,,5:33,0.0,0.0,0.0,0.0,2.0,2.0,0.0,6.0,0.0,0.0,2.0,1.0
0041500311,1610612744,GSW,Golden State,203546,Ian Clark,,DNP - Coach's Decision                  ,,,,,,,0.0,,,,,,,0.0,,,2016-05-16T00:00:00,2,GSW,Golden State,0-1,27,33,28,14,0,0,0,0,0,0,0,0,0,0,102,0.44,0.647,0.367,26,44,14,0041500311,1610612744,GSW,Golden State,Ian Clark,,DNP - Coach's Decision                  ,,,,,,,,,,,,,
0041500311,1610612744,GSW,Golden State,201575,Brandon Rush,,DNP - Coach's Decision                  ,,,,,,,0.0,,,,,,,0.0,,,2016-05-16T00:00:00,2,GSW,Golden State,0-1,27,33,28,14,0,0,0,0,0,0,0,0,0,0,102,0.44,0.647,0.367,26,44,14,0041500311,1610612744,GSW,Golden State,Brandon Rush,,DNP - Coach's Decision                  ,,,,,,,,,,,,,
0041500311,1610612744,GSW,Golden State,2760,Anderson Varejao,,DNP - Coach's Decision                  ,,,,,,,0.0,,,,,,,0.0,,,2016-05-16T00:00:00,2,GSW,Golden State,0-1,27,33,28,14,0,0,0,0,0,0,0,0,0,0,102,0.44,0.647,0.367,26,44,14,0041500311,1610612744,GSW,Golden State,Anderson Varejao,,DNP - Coach's Decision                  ,,,,,,,,,,,,,
