GAME_ID_x,TEAM_ID_x,TEAM_ABBREVIATION_x,TEAM_CITY_x,PLAYER_ID,PLAYER_NAME_x,START_POSITION_x,COMMENT_x,MIN_x,OFF_RATING,DEF_RATING,NET_RATING,AST_PCT,AST_TOV,AST_RATIO,OREB_PCT,DREB_PCT,REB_PCT,TM_TOV_PCT,EFG_PCT,TS_PCT,USG_PCT,PACE,PIE,GAME_DATE_EST,GAME_SEQUENCE,TEAM_ID_y,TEAM_ABBREVIATION_y,TEAM_CITY_NAME,TEAM_WINS_LOSSES,PTS_QTR1,PTS_QTR2,PTS_QTR3,PTS_QTR4,PTS_OT1,PTS_OT2,PTS_OT3,PTS_OT4,PTS_OT5,PTS_OT6,PTS_OT7,PTS_OT8,PTS_OT9,PTS_OT10,PTS,FG_PCT,FT_PCT,FG3_PCT,AST,REB,TOV,GAME_ID_y,TEAM_ID,TEAM_ABBREVIATION,TEAM_CITY_y,PLAYER_NAME_y,START_POSITION_y,COMMENT_y,MIN_y,PTS_OFF_TOV,PTS_2ND_CHANCE,PTS_FB,PTS_PAINT,OPP_PTS_OFF_TOV,OPP_PTS_2ND_CHANCE,OPP_PTS_FB,OPP_PTS_PAINT,BLK,BLKA,PF,PFD
0021301082,1610612762,UTA,Utah,2210,Richard Jefferson,F,,41:25,99.9,113.8,-14.0,0.16,0.0,30.0,0.0,0.194,0.1,0.0,0.438,0.483,0.108,91.83,0.081,2014-03-28T00:00:00,8,1610612762,UTA,Utah,23-50,22,16,28,29,0,0,0,0,0,0,0,0,0,0,95,0.485,0.815,0.333,26,31,18,0021301082,1610612762,UTA,Utah,Richard Jefferson,F,,41:25,0.0,0.0,2.0,4.0,28.0,4.0,17.0,34.0,0.0,1.0,3.0,3.0
0021301082,1610612762,UTA,Utah,2210,Richard Jefferson,F,,41:25,99.9,113.8,-14.0,0.16,0.0,30.0,0.0,0.194,0.1,0.0,0.438,0.483,0.108,91.83,0.081,2014-03-28T00:00:00,8,1610612740,NOP,New Orleans,32-40,20,23,29,30,0,0,0,0,0,0,0,0,0,0,102,0.507,0.75,0.429,26,37,13,0021301082,1610612762,UTA,Utah,Richard Jefferson,F,,41:25,0.0,0.0,2.0,4.0,28.0,4.0,17.0,34.0,0.0,1.0,3.0,3.0
0021301082,1610612762,UTA,Utah,202324,Derrick Favors,F,,31:27,110.1,126.9,-16.8,0.118,2.0,12.5,0.15,0.308,0.239,6.3,0.667,0.694,0.207,94.21,0.191,2014-03-28T00:00:00,8,1610612762,UTA,Utah,23-50,22,16,28,29,0,0,0,0,0,0,0,0,0,0,95,0.485,0.815,0.333,26,31,18,0021301082,1610612762,UTA,Utah,Derrick Favors,F,,31:27,3.0,3.0,0.0,12.0,23.0,5.0,14.0,26.0,4.0,0.0,3.0,6.0
0021301082,1610612762,UTA,Utah,202324,Derrick Favors,F,,31:27,110.1,126.9,-16.8,0.118,2.0,12.5,0.15,0.308,0.239,6.3,0.667,0.694,0.207,94.21,0.191,2014-03-28T00:00:00,8,1610612740,NOP,New Orleans,32-40,20,23,29,30,0,0,0,0,0,0,0,0,0,0,102,0.507,0.75,0.429,26,37,13,0021301082,1610612762,UTA,Utah,Derrick Favors,F,,31:27,3.0,3.0,0.0,12.0,23.0,5.0,14.0,26.0,4.0,0.0,3.0,6.0
0021301082,1610612762,UTA,Utah,202683,Enes Kanter,C,,26:28,101.0,122.5,-21.5,0.214,0.5,18.8,0.059,0.125,0.091,37.5,0.571,0.571,0.257,84.39,0.015,2014-03-28T00:00:00,8,1610612762,UTA,Utah,23-50,22,16,28,29,0,0,0,0,0,0,0,0,0,0,95,0.485,0.815,0.333,26,31,18,0021301082,1610612762,UTA,Utah,Enes Kanter,C,,26:28,0.0,0.0,0.0,8.0,22.0,0.0,14.0,18.0,0.0,2.0,3.0,0.0
0021301082,1610612762,UTA,Utah,202683,Enes Kanter,C,,26:28,101.0,122.5,-21.5,0.214,0.5,18.8,0.059,0.125,0.091,37.5,0.571,0.571,0.257,84.39,0.015,2014-03-28T00:00:00,8,1610612740,NOP,New Orleans,32-40,20,23,29,30,0,0,0,0,0,0,0,0,0,0,102,0.507,0.75,0.429,26,37,13,0021301082,1610612762,UTA,Utah,Enes Kanter,C,,26:28,0.0,0.0,0.0,8.0,22.0,0.0,14.0,18.0,0.0,2.0,3.0,0.0
0021301082,1610612762,UTA,Utah,202330,Gordon Hayward,G,,36:20,102.0,116.4,-14.4,0.368,2.33,26.4,0.0,0.036,0.019,11.3,0.5,0.636,0.255,92.09,0.131,2014-03-28T00:00:00,8,1610612762,UTA,Utah,23-50,22,16,28,29,0,0,0,0,0,0,0,0,0,0,95,0.485,0.815,0.333,26,31,18,0021301082,1610612762,UTA,Utah,Gordon Hayward,G,,36:20,2.0,2.0,8.0,4.0,24.0,4.0,14.0,26.0,1.0,3.0,4.0,9.0
0021301082,1610612762,UTA,Utah,202330,Gordon Hayward,G,,36:20,102.0,116.4,-14.4,0.368,2.33,26.4,0.0,0.036,0.019,11.3,0.5,0.636,0.255,92.09,0.131,2014-03-28T00:00:00,8,1610612740,NOP,New Orleans,32-40,20,23,29,30,0,0,0,0,0,0,0,0,0,0,102,0.507,0.75,0.429,26,37,13,0021301082,1610612762,UTA,Utah,Gordon Hayward,G,,36:20,2.0,2.0,8.0,4.0,24.0,4.0,14.0,26.0,1.0,3.0,4.0,9.0
0021301082,1610612762,UTA,Utah,203504,Trey Burke,G,,38:30,113.3,120.3,-7.0,0.231,3.0,33.0,0.0,0.067,0.034,11.0,0.438,0.588,0.151,91.84,0.075,2014-03-28T00:00:00,8,1610612762,UTA,Utah,23-50,22,16,28,29,0,0,0,0,0,0,0,0,0,0,95,0.485,0.815,0.333,26,31,18,0021301082,1610612762,UTA,Utah,Trey Burke,G,,38:30,2.0,2.0,4.0,4.0,19.0,5.0,15.0,28.0,0.0,0.0,5.0,3.0
0021301082,1610612762,UTA,Utah,203504,Trey Burke,G,,38:30,113.3,120.3,-7.0,0.231,3.0,33.0,0.0,0.067,0.034,11.0,0.438,0.588,0.151,91.84,0.075,2014-03-28T00:00:00,8,1610612740,NOP,New Orleans,32-40,20,23,29,30,0,0,0,0,0,0,0,0,0,0,102,0.507,0.75,0.429,26,37,13,0021301082,1610612762,UTA,Utah,Trey Burke,G,,38:30,2.0,2.0,4.0,4.0,19.0,5.0,15.0,28.0,0.0,0.0,5.0,3.0
0021301082,1610612762,UTA,Utah,101107,Marvin Williams,,,28:50,105.8,102.6,3.2,0.067,0.0,7.2,0.048,0.13,0.091,0.0,0.458,0.466,0.209,91.01,0.029,2014-03-28T00:00:00,8,1610612762,UTA,Utah,23-50,22,16,28,29,0,0,0,0,0,0,0,0,0,0,95,0.485,0.815,0.333,26,31,18,0021301082,1610612762,UTA,Utah,Marvin Williams,,,28:50,0.0,3.0,0.0,6.0,15.0,3.0,3.0,24.0,0.0,1.0,6.0,4.0
0021301082,1610612762,UTA,Utah,101107,Marvin Williams,,,28:50,105.8,102.6,3.2,0.067,0.0,7.2,0.048,0.13,0.091,0.0,0.458,0.466,0.209,91.01,0.029,2014-03-28T00:00:00,8,1610612740,NOP,New Orleans,32-40,20,23,29,30,0,0,0,0,0,0,0,0,0,0,102,0.507,0.75,0.429,26,37,13,0021301082,1610612762,UTA,Utah,Marvin Williams,,,28:50,0.0,3.0,0.0,6.0,15.0,3.0,3.0,24.0,0.0,1.0,6.0,4.0
0021301082,1610612762,UTA,Utah,203197,Diante Garrett,,,19:10,89.8,102.8,-13.0,0.111,0.25,9.1,0.1,0.0,0.043,36.4,0.667,0.667,0.273,86.05,0.026,2014-03-28T00:00:00,8,1610612762,UTA,Utah,23-50,22,16,28,29,0,0,0,0,0,0,0,0,0,0,95,0.485,0.815,0.333,26,31,18,0021301082,1610612762,UTA,Utah,Diante Garrett,,,19:10,3.0,0.0,0.0,2.0,19.0,1.0,5.0,24.0,0.0,0.0,1.0,0.0
0021301082,1610612762,UTA,Utah,203197,Diante Garrett,,,19:10,89.8,102.8,-13.0,0.111,0.25,9.1,0.1,0.0,0.043,36.4,0.667,0.667,0.273,86.05,0.026,2014-03-28T00:00:00,8,1610612740,NOP,New Orleans,32-40,20,23,29,30,0,0,0,0,0,0,0,0,0,0,102,0.507,0.75,0.429,26,37,13,0021301082,1610612762,UTA,Utah,Diante Garrett,,,19:10,3.0,0.0,0.0,2.0,19.0,1.0,5.0,24.0,0.0,0.0,1.0,0.0
0021301082,1610612762,UTA,Utah,202379,Jeremy Evans,,,9:06,70.6,87.9,-17.3,0.25,1.0,20.0,0.0,0.5,0.25,20.0,0.333,0.333,0.235,92.78,0.105,2014-03-28T00:00:00,8,1610612762,UTA,Utah,23-50,22,16,28,29,0,0,0,0,0,0,0,0,0,0,95,0.485,0.815,0.333,26,31,18,0021301082,1610612762,UTA,Utah,Jeremy Evans,,,9:06,0.0,0.0,0.0,2.0,6.0,0.0,3.0,12.0,0.0,1.0,2.0,0.0
0021301082,1610612762,UTA,Utah,202379,Jeremy Evans,,,9:06,70.6,87.9,-17.3,0.25,1.0,20.0,0.0,0.5,0.25,20.0,0.333,0.333,0.235,92.78,0.105,2014-03-28T00:00:00,8,1610612740,NOP,New Orleans,32-40,20,23,29,30,0,0,0,0,0,0,0,0,0,0,102,0.507,0.75,0.429,26,37,13,0021301082,1610612762,UTA,Utah,Jeremy Evans,,,9:06,0.0,0.0,0.0,2.0,6.0,0.0,3.0,12.0,0.0,1.0,2.0,0.0
0021301082,1610612762,UTA,Utah,203546,Ian Clark,,,8:44,85.8,147.9,-62.1,0.333,1.0,25.0,0.0,0.0,0.0,25.0,1.25,1.25,0.173,81.99,0.157,2014-03-28T00:00:00,8,1610612762,UTA,Utah,23-50,22,16,28,29,0,0,0,0,0,0,0,0,0,0,95,0.485,0.815,0.333,26,31,18,0021301082,1610612762,UTA,Utah,Ian Clark,,,8:44,0.0,0.0,0.0,2.0,9.0,3.0,0.0,8.0,0.0,0.0,1.0,0.0
0021301082,1610612762,UTA,Utah,203546,Ian Clark,,,8:44,85.8,147.9,-62.1,0.333,1.0,25.0,0.0,0.0,0.0,25.0,1.25,1.25,0.173,81.99,0.157,2014-03-28T00:00:00,8,1610612740,NOP,New Orleans,32-40,20,23,29,30,0,0,0,0,0,0,0,0,0,0,102,0.507,0.75,0.429,26,37,13,0021301082,1610612762,UTA,Utah,Ian Clark,,,8:44,0.0,0.0,0.0,2.0,9.0,3.0,0.0,8.0,0.0,0.0,1.0,0.0
0021301082,1610612762,UTA,Utah,203497,Rudy Gobert,,DNP - Coach's Decision,,,,,,,0.0,,,,,,,0.0,,,2014-03-28T00:00:00,8,1610612762,UTA,Utah,23-50,22,16,28,29,0,0,0,0,0,0,0,0,0,0,95,0.485,0.815,0.333,26,31,18,0021301082,1610612762,UTA,Utah,Rudy Gobert,,DNP - Coach's Decision,,,,,,,,,,,,,
0021301082,1610612762,UTA,Utah,203497,Rudy Gobert,,DNP - Coach's Decision,,,,,,,0.0,,,,,,,0.0,,,2014-03-28T00:00:00,8,1610612740,NOP,New Orleans,32-40,20,23,29,30,0,0,0,0,0,0,0,0,0,0,102,0.507,0.75,0.429,26,37,13,0021301082,1610612762,UTA,Utah,Rudy Gobert,,DNP - Coach's Decision,,,,,,,,,,,,,
0021301082,1610612762,UTA,Utah,101249,John Lucas III,,DNP - Coach's Decision,,,,,,,0.0,,,,,,,0.0,,,2014-03-28T00:00:00,8,1610612762,UTA,Utah,23-50,22,16,28,29,0,0,0,0,0,0,0,0,0,0,95,0.485,0.815,0.333,26,31,18,0021301082,1610612762,UTA,Utah,John Lucas III,,DNP - Coach's Decision,,,,,,,,,,,,,
0021301082,1610612762,UTA,Utah,101249,John Lucas III,,DNP - Coach's Decision,,,,,,,0.0,,,,,,,0.0,,,2014-03-28T00:00:00,8,1610612740,NOP,New Orleans,32-40,20,23,29,30,0,0,0,0,0,0,0,0,0,0,102,0.507,0.75,0.429,26,37,13,0021301082,1610612762,UTA,Utah,John Lucas III,,DNP - Coach's Decision,,,,,,,,,,,,,
0021301082,1610612762,UTA,Utah,201575,Brandon Rush,,DNP - Coach's Decision,,,,,,,0.0,,,,,,,0.0,,,2014-03-28T00:00:00,8,1610612762,UTA,Utah,23-50,22,16,28,29,0,0,0,0,0,0,0,0,0,0,95,0.485,0.815,0.333,26,31,18,0021301082,1610612762,UTA,Utah,Brandon Rush,,DNP - Coach's Decision,,,,,,,,,,,,,
0021301082,1610612762,UTA,Utah,201575,Brandon Rush,,DNP - Coach's Decision,,,,,,,0.0,,,,,,,0.0,,,2014-03-28T00:00:00,8,1610612740,NOP,New Orleans,32-40,20,23,29,30,0,0,0,0,0,0,0,0,0,0,102,0.507,0.75,0.429,26,37,13,0021301082,1610612762,UTA,Utah,Brandon Rush,,DNP - Coach's Decision,,,,,,,,,,,,,
0021301082,1610612762,UTA,Utah,202952,Malcolm Thomas,,DNP - Coach's Decision,,,,,,,0.0,,,,,,,0.0,,,2014-03-28T00:00:00,8,1610612762,UTA,Utah,23-50,22,16,28,29,0,0,0,0,0,0,0,0,0,0,95,0.485,0.815,0.333,26,31,18,0021301082,1610612762,UTA,Utah,Malcolm Thomas,,DNP - Coach's Decision,,,,,,,,,,,,,
0021301082,1610612762,UTA,Utah,202952,Malcolm Thomas,,DNP - Coach's Decision,,,,,,,0.0,,,,,,,0.0,,,2014-03-28T00:00:00,8,1610612740,NOP,New Orleans,32-40,20,23,29,30,0,0,0,0,0,0,0,0,0,0,102,0.507,0.75,0.429,26,37,13,0021301082,1610612762,UTA,Utah,Malcolm Thomas,,DNP - Coach's Decision,,,,,,,,,,,,,
0021301082,1610612740,NOP,New Orleans,202329,Al-Farouq Aminu,F,,33:09,115.7,109.8,5.8,0.048,1.0,7.3,0.111,0.2,0.154,7.3,0.5,0.553,0.175,93.16,0.095,2014-03-28T00:00:00,8,1610612762,UTA,Utah,23-50,22,16,28,29,0,0,0,0,0,0,0,0,0,0,95,0.485,0.815,0.333,26,31,18,0021301082,1610612740,NOP,New Orleans,Al-Farouq Aminu,F,,33:09,7.0,0.0,7.0,6.0,7.0,8.0,14.0,32.0,0.0,0.0,2.0,4.0
0021301082,1610612740,NOP,New Orleans,202329,Al-Farouq Aminu,F,,33:09,115.7,109.8,5.8,0.048,1.0,7.3,0.111,0.2,0.154,7.3,0.5,0.553,0.175,93.16,0.095,2014-03-28T00:00:00,8,1610612740,NOP,New Orleans,32-40,20,23,29,30,0,0,0,0,0,0,0,0,0,0,102,0.507,0.75,0.429,26,37,13,0021301082,1610612740,NOP,New Orleans,Al-Farouq Aminu,F,,33:09,7.0,0.0,7.0,6.0,7.0,8.0,14.0,32.0,0.0,0.0,2.0,4.0
0021301082,1610612740,NOP,New Orleans,203076,Anthony Davis,F,,3:43,170.1,100.0,70.1,0.0,0.0,0.0,0.0,0.0,0.0,0.0,0.0,0.0,0.17,83.17,-0.056,2014-03-28T00:00:00,8,1610612762,UTA,Utah,23-50,22,16,28,29,0,0,0,0,0,0,0,0,0,0,95,0.485,0.815,0.333,26,31,18,0021301082,1610612740,NOP,New Orleans,Anthony Davis,F,,3:43,0.0,0.0,0.0,0.0,0.0,0.0,0.0,4.0,0.0,0.0,0.0,0.0
0021301082,1610612740,NOP,New Orleans,203076,Anthony Davis,F,,3:43,170.1,100.0,70.1,0.0,0.0,0.0,0.0,0.0,0.0,0.0,0.0,0.0,0.17,83.17,-0.056,2014-03-28T00:00:00,8,1610612740,NOP,New Orleans,32-40,20,23,29,30,0,0,0,0,0,0,0,0,0,0,102,0.507,0.75,0.429,26,37,13,0021301082,1610612740,NOP,New Orleans,Anthony Davis,F,,3:43,0.0,0.0,0.0,0.0,0.0,0.0,0.0,4.0,0.0,0.0,0.0,0.0
0021301082,1610612740,NOP,New Orleans,201880,Greg Stiemsma,C,,19:13,131.9,107.6,24.2,0.059,0.5,25.0,0.0,0.25,0.125,50.0,1.0,1.0,0.072,91.85,0.0,2014-03-28T00:00:00,8,1610612762,UTA,Utah,23-50,22,16,28,29,0,0,0,0,0,0,0,0,0,0,95,0.485,0.815,0.333,26,31,18,0021301082,1610612740,NOP,New Orleans,Greg Stiemsma,C,,19:13,2.0,0.0,0.0,2.0,6.0,5.0,8.0,18.0,2.0,0.0,6.0,0.0
0021301082,1610612740,NOP,New Orleans,201880,Greg Stiemsma,C,,19:13,131.9,107.6,24.2,0.059,0.5,25.0,0.0,0.25,0.125,50.0,1.0,1.0,0.072,91.85,0.0,2014-03-28T00:00:00,8,1610612740,NOP,New Orleans,32-40,20,23,29,30,0,0,0,0,0,0,0,0,0,0,102,0.507,0.75,0.429,26,37,13,0021301082,1610612740,NOP,New Orleans,Greg Stiemsma,C,,19:13,2.0,0.0,0.0,2.0,6.0,5.0,8.0,18.0,2.0,0.0,6.0,0.0
0021301082,1610612740,NOP,New Orleans,201627,Anthony Morrow,G,,33:44,113.9,97.4,16.5,0.0,0.0,0.0,0.0,0.0,0.0,13.6,0.773,0.784,0.212,86.22,0.092,2014-03-28T00:00:00,8,1610612762,UTA,Utah,23-50,22,16,28,29,0,0,0,0,0,0,0,0,0,0,95,0.485,0.815,0.333,26,31,18,0021301082,1610612740,NOP,New Orleans,Anthony Morrow,G,,33:44,2.0,0.0,5.0,2.0,6.0,10.0,10.0,28.0,0.0,1.0,3.0,3.0
0021301082,1610612740,NOP,New Orleans,201627,Anthony Morrow,G,,33:44,113.9,97.4,16.5,0.0,0.0,0.0,0.0,0.0,0.0,13.6,0.773,0.784,0.212,86.22,0.092,2014-03-28T00:00:00,8,1610612740,NOP,New Orleans,32-40,20,23,29,30,0,0,0,0,0,0,0,0,0,0,102,0.507,0.75,0.429,26,37,13,0021301082,1610612740,NOP,New Orleans,Anthony Morrow,G,,33:44,2.0,0.0,5.0,2.0,6.0,10.0,10.0,28.0,0.0,1.0,3.0,3.0
0021301082,1610612740,NOP,New Orleans,201936,Tyreke Evans,G,,37:32,121.9,103.1,18.7,0.714,3.75,35.6,0.103,0.083,0.094,9.5,0.45,0.477,0.329,93.28,0.188,2014-03-28T00:00:00,8,1610612762,UTA,Utah,23-50,22,16,28,29,0,0,0,0,0,0,0,0,0,0,95,0.485,0.815,0.333,26,31,18,0021301082,1610612740,NOP,New Orleans,Tyreke Evans,G,,37:32,8.0,2.0,5.0,16.0,10.0,8.0,14.0,34.0,1.0,2.0,0.0,7.0
0021301082,1610612740,NOP,New Orleans,201936,Tyreke Evans,G,,37:32,121.9,103.1,18.7,0.714,3.75,35.6,0.103,0.083,0.094,9.5,0.45,0.477,0.329,93.28,0.188,2014-03-28T00:00:00,8,1610612740,NOP,New Orleans,32-40,20,23,29,30,0,0,0,0,0,0,0,0,0,0,102,0.507,0.75,0.429,26,37,13,0021301082,1610612740,NOP,New Orleans,Tyreke Evans,G,,37:32,8.0,2.0,5.0,16.0,10.0,8.0,14.0,34.0,1.0,2.0,0.0,7.0
0021301082,1610612740,NOP,New Orleans,201582,Alexis Ajinca,,,28:02,96.5,110.3,-13.7,0.167,1.0,22.5,0.12,0.318,0.213,22.5,0.5,0.615,0.167,90.26,0.115,2014-03-28T00:00:00,8,1610612762,UTA,Utah,23-50,22,16,28,29,0,0,0,0,0,0,0,0,0,0,95,0.485,0.815,0.333,26,31,18,0021301082,1610612740,NOP,New Orleans,Alexis Ajinca,,,28:02,2.0,0.0,0.0,4.0,9.0,8.0,10.0,26.0,3.0,1.0,6.0,5.0
0021301082,1610612740,NOP,New Orleans,201582,Alexis Ajinca,,,28:02,96.5,110.3,-13.7,0.167,1.0,22.5,0.12,0.318,0.213,22.5,0.5,0.615,0.167,90.26,0.115,2014-03-28T00:00:00,8,1610612740,NOP,New Orleans,32-40,20,23,29,30,0,0,0,0,0,0,0,0,0,0,102,0.507,0.75,0.429,26,37,13,0021301082,1610612740,NOP,New Orleans,Alexis Ajinca,,,28:02,2.0,0.0,0.0,4.0,9.0,8.0,10.0,26.0,3.0,1.0,6.0,5.0
0021301082,1610612740,NOP,New Orleans,202337,Luke Babbitt,,,24:39,112.7,88.8,23.8,0.143,0.0,22.5,0.053,0.143,0.091,0.0,0.583,0.654,0.147,86.67,0.138,2014-03-28T00:00:00,8,1610612762,UTA,Utah,23-50,22,16,28,29,0,0,0,0,0,0,0,0,0,0,95,0.485,0.815,0.333,26,31,18,0021301082,1610612740,NOP,New Orleans,Luke Babbitt,,,24:39,3.0,2.0,0.0,2.0,4.0,2.0,2.0,20.0,1.0,0.0,3.0,2.0
0021301082,1610612740,NOP,New Orleans,202337,Luke Babbitt,,,24:39,112.7,88.8,23.8,0.143,0.0,22.5,0.053,0.143,0.091,0.0,0.583,0.654,0.147,86.67,0.138,2014-03-28T00:00:00,8,1610612740,NOP,New Orleans,32-40,20,23,29,30,0,0,0,0,0,0,0,0,0,0,102,0.507,0.75,0.429,26,37,13,0021301082,1610612740,NOP,New Orleans,Luke Babbitt,,,24:39,3.0,2.0,0.0,2.0,4.0,2.0,2.0,20.0,1.0,0.0,3.0,2.0
0021301082,1610612740,NOP,New Orleans,203085,Austin Rivers,,,22:07,106.9,104.3,2.6,0.25,2.0,15.5,0.0,0.214,0.103,7.8,0.611,0.607,0.263,91.61,0.171,2014-03-28T00:00:00,8,1610612762,UTA,Utah,23-50,22,16,28,29,0,0,0,0,0,0,0,0,0,0,95,0.485,0.815,0.333,26,31,18,0021301082,1610612740,NOP,New Orleans,Austin Rivers,,,22:07,7.0,0.0,0.0,8.0,4.0,2.0,4.0,22.0,0.0,1.0,1.0,1.0
0021301082,1610612740,NOP,New Orleans,203085,Austin Rivers,,,22:07,106.9,104.3,2.6,0.25,2.0,15.5,0.0,0.214,0.103,7.8,0.611,0.607,0.263,91.61,0.171,2014-03-28T00:00:00,8,1610612740,NOP,New Orleans,32-40,20,23,29,30,0,0,0,0,0,0,0,0,0,0,102,0.507,0.75,0.429,26,37,13,0021301082,1610612740,NOP,New Orleans,Austin Rivers,,,22:07,7.0,0.0,0.0,8.0,4.0,2.0,4.0,22.0,0.0,1.0,1.0,1.0
0021301082,1610612740,NOP,New Orleans,203121,Darius Miller,,,24:26,122.7,103.7,19.0,0.071,0.0,9.4,0.0,0.059,0.03,0.0,0.5,0.622,0.195,93.9,0.092,2014-03-28T00:00:00,8,1610612762,UTA,Utah,23-50,22,16,28,29,0,0,0,0,0,0,0,0,0,0,95,0.485,0.815,0.333,26,31,18,0021301082,1610612740,NOP,New Orleans,Darius Miller,,,24:26,0.0,1.0,0.0,0.0,3.0,7.0,8.0,24.0,1.0,0.0,3.0,4.0
0021301082,1610612740,NOP,New Orleans,203121,Darius Miller,,,24:26,122.7,103.7,19.0,0.071,0.0,9.4,0.0,0.059,0.03,0.0,0.5,0.622,0.195,93.9,0.092,2014-03-28T00:00:00,8,1610612740,NOP,New Orleans,32-40,20,23,29,30,0,0,0,0,0,0,0,0,0,0,102,0.507,0.75,0.429,26,37,13,0021301082,1610612740,NOP,New Orleans,Darius Miller,,,24:26,0.0,1.0,0.0,0.0,3.0,7.0,8.0,24.0,1.0,0.0,3.0,4.0
0021301082,1610612740,NOP,New Orleans,203481,Jeff Withey,,,13:25,113.8,86.9,26.9,0.125,0.0,36.2,0.125,0.5,0.286,0.0,0.0,0.852,0.074,86.12,0.138,2014-03-28T00:00:00,8,1610612762,UTA,Utah,23-50,22,16,28,29,0,0,0,0,0,0,0,0,0,0,95,0.485,0.815,0.333,26,31,18,0021301082,1610612740,NOP,New Orleans,Jeff Withey,,,13:25,2.0,0.0,0.0,0.0,1.0,0.0,0.0,12.0,0.0,0.0,1.0,2.0
0021301082,1610612740,NOP,New Orleans,203481,Jeff Withey,,,13:25,113.8,86.9,26.9,0.125,0.0,36.2,0.125,0.5,0.286,0.0,0.0,0.852,0.074,86.12,0.138,2014-03-28T00:00:00,8,1610612740,NOP,New Orleans,32-40,20,23,29,30,0,0,0,0,0,0,0,0,0,0,102,0.507,0.75,0.429,26,37,13,0021301082,1610612740,NOP,New Orleans,Jeff Withey,,,13:25,2.0,0.0,0.0,0.0,1.0,0.0,0.0,12.0,0.0,0.0,1.0,2.0
0021301082,1610612740,NOP,New Orleans,201569,Eric Gordon,,DND - Left Knee Tendonitis,,,,,,,0.0,,,,,,,0.0,,,2014-03-28T00:00:00,8,1610612762,UTA,Utah,23-50,22,16,28,29,0,0,0,0,0,0,0,0,0,0,95,0.485,0.815,0.333,26,31,18,0021301082,1610612740,NOP,New Orleans,Eric Gordon,,DND - Left Knee Tendonitis,,,,,,,,,,,,,
0021301082,1610612740,NOP,New Orleans,201569,Eric Gordon,,DND - Left Knee Tendonitis,,,,,,,0.0,,,,,,,0.0,,,2014-03-28T00:00:00,8,1610612740,NOP,New Orleans,32-40,20,23,29,30,0,0,0,0,0,0,0,0,0,0,102,0.507,0.75,0.429,26,37,13,0021301082,1610612740,NOP,New Orleans,Eric Gordon,,DND - Left Knee Tendonitis,,,,,,,,,,,,,
0021301082,1610612740,NOP,New Orleans,203148,Brian Roberts,,DND - Left Knee Bone Bruise,,,,,,,0.0,,,,,,,0.0,,,2014-03-28T00:00:00,8,1610612762,UTA,Utah,23-50,22,16,28,29,0,0,0,0,0,0,0,0,0,0,95,0.485,0.815,0.333,26,31,18,0021301082,1610612740,NOP,New Orleans,Brian Roberts,,DND - Left Knee Bone Bruise,,,,,,,,,,,,,
0021301082,1610612740,NOP,New Orleans,203148,Brian Roberts,,DND - Left Knee Bone Bruise,,,,,,,0.0,,,,,,,0.0,,,2014-03-28T00:00:00,8,1610612740,NOP,New Orleans,32-40,20,23,29,30,0,0,0,0,0,0,0,0,0,0,102,0.507,0.75,0.429,26,37,13,0021301082,1610612740,NOP,New Orleans,Brian Roberts,,DND - Left Knee Bone Bruise,,,,,,,,,,,,,
0021301082,1610612740,NOP,New Orleans,201160,Jason Smith,,DND - Right Knee Cartilage,,,,,,,0.0,,,,,,,0.0,,,2014-03-28T00:00:00,8,1610612762,UTA,Utah,23-50,22,16,28,29,0,0,0,0,0,0,0,0,0,0,95,0.485,0.815,0.333,26,31,18,0021301082,1610612740,NOP,New Orleans,Jason Smith,,DND - Right Knee Cartilage,,,,,,,,,,,,,
0021301082,1610612740,NOP,New Orleans,201160,Jason Smith,,DND - Right Knee Cartilage,,,,,,,0.0,,,,,,,0.0,,,2014-03-28T00:00:00,8,1610612740,NOP,New Orleans,32-40,20,23,29,30,0,0,0,0,0,0,0,0,0,0,102,0.507,0.75,0.429,26,37,13,0021301082,1610612740,NOP,New Orleans,Jason Smith,,DND - Right Knee Cartilage,,,,,,,,,,,,,
