GAME_ID_x,TEAM_ID_x,TEAM_ABBREVIATION_x,TEAM_CITY_x,PLAYER_ID,PLAYER_NAME_x,START_POSITION_x,COMMENT_x,MIN_x,OFF_RATING,DEF_RATING,NET_RATING,AST_PCT,AST_TOV,AST_RATIO,OREB_PCT,DREB_PCT,REB_PCT,TM_TOV_PCT,EFG_PCT,TS_PCT,USG_PCT,PACE,PIE,GAME_DATE_EST,GAME_SEQUENCE,TEAM_ID_y,TEAM_ABBREVIATION_y,TEAM_CITY_NAME,TEAM_WINS_LOSSES,PTS_QTR1,PTS_QTR2,PTS_QTR3,PTS_QTR4,PTS_OT1,PTS_OT2,PTS_OT3,PTS_OT4,PTS_OT5,PTS_OT6,PTS_OT7,PTS_OT8,PTS_OT9,PTS_OT10,PTS,FG_PCT,FT_PCT,FG3_PCT,AST,REB,TOV,GAME_ID_y,TEAM_ID,TEAM_ABBREVIATION,TEAM_CITY_y,PLAYER_NAME_y,START_POSITION_y,COMMENT_y,MIN_y,PTS_OFF_TOV,PTS_2ND_CHANCE,PTS_FB,PTS_PAINT,OPP_PTS_OFF_TOV,OPP_PTS_2ND_CHANCE,OPP_PTS_FB,OPP_PTS_PAINT,BLK,BLKA,PF,PFD
0021301079,1610612748,MIA,Miami,2544,LeBron James,F,,29:46,137.5,83.2,54.3,0.522,12.0,44.6,0.095,0.25,0.189,3.7,0.577,0.612,0.237,90.3,0.263,2014-03-28T00:00:00,5,1610612748,MIA,Miami,49-22,28,29,35,18,0,0,0,0,0,0,0,0,0,0,110,0.544,0.727,0.421,31,47,8,0021301079,1610612748,MIA,Miami,LeBron James,F,,29:46,2.0,3.0,2.0,8.0,3.0,5.0,5.0,28.0,0.0,0.0,0.0,2.0
0021301079,1610612748,MIA,Miami,2544,LeBron James,F,,29:46,137.5,83.2,54.3,0.522,12.0,44.6,0.095,0.25,0.189,3.7,0.577,0.612,0.237,90.3,0.263,2014-03-28T00:00:00,5,1610612765,DET,Detroit,26-46,23,19,18,18,0,0,0,0,0,0,0,0,0,0,78,0.38,0.714,0.125,20,36,11,0021301079,1610612748,MIA,Miami,LeBron James,F,,29:46,2.0,3.0,2.0,8.0,3.0,5.0,5.0,28.0,0.0,0.0,0.0,2.0
0021301079,1610612748,MIA,Miami,2547,Chris Bosh,F,,26:04,138.4,79.6,58.9,0.143,0.0,22.3,0.056,0.276,0.191,0.0,0.7,0.718,0.187,92.18,0.188,2014-03-28T00:00:00,5,1610612748,MIA,Miami,49-22,28,29,35,18,0,0,0,0,0,0,0,0,0,0,110,0.544,0.727,0.421,31,47,8,0021301079,1610612748,MIA,Miami,Chris Bosh,F,,26:04,0.0,2.0,0.0,6.0,3.0,3.0,5.0,22.0,2.0,0.0,4.0,1.0
0021301079,1610612748,MIA,Miami,2547,Chris Bosh,F,,26:04,138.4,79.6,58.9,0.143,0.0,22.3,0.056,0.276,0.191,0.0,0.7,0.718,0.187,92.18,0.188,2014-03-28T00:00:00,5,1610612765,DET,Detroit,26-46,23,19,18,18,0,0,0,0,0,0,0,0,0,0,78,0.38,0.714,0.125,20,36,11,0021301079,1610612748,MIA,Miami,Chris Bosh,F,,26:04,0.0,2.0,0.0,6.0,3.0,3.0,5.0,22.0,2.0,0.0,4.0,1.0
0021301079,1610612748,MIA,Miami,2617,Udonis Haslem,C,,21:17,142.6,88.3,54.4,0.0,0.0,0.0,0.0,0.217,0.135,0.0,0.727,0.715,0.27,88.5,0.213,2014-03-28T00:00:00,5,1610612748,MIA,Miami,49-22,28,29,35,18,0,0,0,0,0,0,0,0,0,0,110,0.544,0.727,0.421,31,47,8,0021301079,1610612748,MIA,Miami,Udonis Haslem,C,,21:17,0.0,0.0,4.0,4.0,3.0,2.0,5.0,18.0,1.0,1.0,0.0,3.0
0021301079,1610612748,MIA,Miami,2617,Udonis Haslem,C,,21:17,142.6,88.3,54.4,0.0,0.0,0.0,0.0,0.217,0.135,0.0,0.727,0.715,0.27,88.5,0.213,2014-03-28T00:00:00,5,1610612765,DET,Detroit,26-46,23,19,18,18,0,0,0,0,0,0,0,0,0,0,78,0.38,0.714,0.125,20,36,11,0021301079,1610612748,MIA,Miami,Udonis Haslem,C,,21:17,0.0,0.0,4.0,4.0,3.0,2.0,5.0,18.0,1.0,1.0,0.0,3.0
0021301079,1610612748,MIA,Miami,2592,James Jones,G,,27:16,135.6,92.8,42.7,0.13,0.0,25.3,0.0,0.033,0.021,0.0,0.563,0.563,0.164,85.87,0.07,2014-03-28T00:00:00,5,1610612748,MIA,Miami,49-22,28,29,35,18,0,0,0,0,0,0,0,0,0,0,110,0.544,0.727,0.421,31,47,8,0021301079,1610612748,MIA,Miami,James Jones,G,,27:16,3.0,3.0,0.0,0.0,3.0,5.0,5.0,24.0,1.0,0.0,1.0,1.0
0021301079,1610612748,MIA,Miami,2592,James Jones,G,,27:16,135.6,92.8,42.7,0.13,0.0,25.3,0.0,0.033,0.021,0.0,0.563,0.563,0.164,85.87,0.07,2014-03-28T00:00:00,5,1610612765,DET,Detroit,26-46,23,19,18,18,0,0,0,0,0,0,0,0,0,0,78,0.38,0.714,0.125,20,36,11,0021301079,1610612748,MIA,Miami,James Jones,G,,27:16,3.0,3.0,0.0,0.0,3.0,5.0,5.0,24.0,1.0,0.0,1.0,1.0
0021301079,1610612748,MIA,Miami,201962,Toney Douglas,G,,29:47,138.8,108.1,30.7,0.2,0.0,36.3,0.167,0.074,0.111,0.0,0.429,0.514,0.152,84.87,0.085,2014-03-28T00:00:00,5,1610612748,MIA,Miami,49-22,28,29,35,18,0,0,0,0,0,0,0,0,0,0,110,0.544,0.727,0.421,31,47,8,0021301079,1610612748,MIA,Miami,Toney Douglas,G,,29:47,1.0,2.0,3.0,6.0,7.0,4.0,8.0,28.0,0.0,1.0,3.0,6.0
0021301079,1610612748,MIA,Miami,201962,Toney Douglas,G,,29:47,138.8,108.1,30.7,0.2,0.0,36.3,0.167,0.074,0.111,0.0,0.429,0.514,0.152,84.87,0.085,2014-03-28T00:00:00,5,1610612765,DET,Detroit,26-46,23,19,18,18,0,0,0,0,0,0,0,0,0,0,78,0.38,0.714,0.125,20,36,11,0021301079,1610612748,MIA,Miami,Toney Douglas,G,,29:47,1.0,2.0,3.0,6.0,7.0,4.0,8.0,28.0,0.0,1.0,3.0,6.0
0021301079,1610612748,MIA,Miami,202708,Norris Cole,,,31:43,110.9,82.1,28.8,0.318,3.5,34.7,0.042,0.121,0.088,9.9,0.5,0.536,0.204,87.93,0.128,2014-03-28T00:00:00,5,1610612748,MIA,Miami,49-22,28,29,35,18,0,0,0,0,0,0,0,0,0,0,110,0.544,0.727,0.421,31,47,8,0021301079,1610612748,MIA,Miami,Norris Cole,,,31:43,6.0,2.0,1.0,6.0,8.0,5.0,7.0,26.0,0.0,1.0,3.0,4.0
0021301079,1610612748,MIA,Miami,202708,Norris Cole,,,31:43,110.9,82.1,28.8,0.318,3.5,34.7,0.042,0.121,0.088,9.9,0.5,0.536,0.204,87.93,0.128,2014-03-28T00:00:00,5,1610612765,DET,Detroit,26-46,23,19,18,18,0,0,0,0,0,0,0,0,0,0,78,0.38,0.714,0.125,20,36,11,0021301079,1610612748,MIA,Miami,Norris Cole,,,31:43,6.0,2.0,1.0,6.0,8.0,5.0,7.0,26.0,0.0,1.0,3.0,4.0
0021301079,1610612748,MIA,Miami,1740,Rashard Lewis,,,18:40,114.2,113.0,1.2,0.1,1.0,12.5,0.0,0.067,0.034,12.5,0.75,0.75,0.197,80.34,0.137,2014-03-28T00:00:00,5,1610612748,MIA,Miami,49-22,28,29,35,18,0,0,0,0,0,0,0,0,0,0,110,0.544,0.727,0.421,31,47,8,0021301079,1610612748,MIA,Miami,Rashard Lewis,,,18:40,4.0,0.0,0.0,2.0,7.0,4.0,6.0,20.0,0.0,0.0,0.0,0.0
0021301079,1610612748,MIA,Miami,1740,Rashard Lewis,,,18:40,114.2,113.0,1.2,0.1,1.0,12.5,0.0,0.067,0.034,12.5,0.75,0.75,0.197,80.34,0.137,2014-03-28T00:00:00,5,1610612765,DET,Detroit,26-46,23,19,18,18,0,0,0,0,0,0,0,0,0,0,78,0.38,0.714,0.125,20,36,11,0021301079,1610612748,MIA,Miami,Rashard Lewis,,,18:40,4.0,0.0,0.0,2.0,7.0,4.0,6.0,20.0,0.0,0.0,0.0,0.0
0021301079,1610612748,MIA,Miami,2365,Chris Andersen,,,21:59,121.8,95.8,26.1,0.0,0.0,0.0,0.067,0.25,0.171,10.4,0.667,0.752,0.222,87.47,0.176,2014-03-28T00:00:00,5,1610612748,MIA,Miami,49-22,28,29,35,18,0,0,0,0,0,0,0,0,0,0,110,0.544,0.727,0.421,31,47,8,0021301079,1610612748,MIA,Miami,Chris Andersen,,,21:59,0.0,2.0,2.0,8.0,5.0,5.0,4.0,22.0,0.0,1.0,1.0,3.0
0021301079,1610612748,MIA,Miami,2365,Chris Andersen,,,21:59,121.8,95.8,26.1,0.0,0.0,0.0,0.067,0.25,0.171,10.4,0.667,0.752,0.222,87.47,0.176,2014-03-28T00:00:00,5,1610612765,DET,Detroit,26-46,23,19,18,18,0,0,0,0,0,0,0,0,0,0,78,0.38,0.714,0.125,20,36,11,0021301079,1610612748,MIA,Miami,Chris Andersen,,,21:59,0.0,2.0,2.0,8.0,5.0,5.0,4.0,22.0,0.0,1.0,1.0,3.0
0021301079,1610612748,MIA,Miami,2203,Shane Battier,,,24:00,107.2,80.7,26.5,0.0,0.0,0.0,0.0,0.083,0.048,0.0,0.5,0.5,0.12,89.68,0.042,2014-03-28T00:00:00,5,1610612748,MIA,Miami,49-22,28,29,35,18,0,0,0,0,0,0,0,0,0,0,110,0.544,0.727,0.421,31,47,8,0021301079,1610612748,MIA,Miami,Shane Battier,,,24:00,0.0,0.0,0.0,6.0,7.0,2.0,6.0,18.0,0.0,0.0,2.0,0.0
0021301079,1610612748,MIA,Miami,2203,Shane Battier,,,24:00,107.2,80.7,26.5,0.0,0.0,0.0,0.0,0.083,0.048,0.0,0.5,0.5,0.12,89.68,0.042,2014-03-28T00:00:00,5,1610612765,DET,Detroit,26-46,23,19,18,18,0,0,0,0,0,0,0,0,0,0,78,0.38,0.714,0.125,20,36,11,0021301079,1610612748,MIA,Miami,Shane Battier,,,24:00,0.0,0.0,0.0,6.0,7.0,2.0,6.0,18.0,0.0,0.0,2.0,0.0
0021301079,1610612748,MIA,Miami,203120,Justin Hamilton,,,4:44,60.1,62.5,-2.4,0.0,0.0,0.0,0.2,0.0,0.091,50.0,0.0,0.0,0.194,82.75,-0.111,2014-03-28T00:00:00,5,1610612748,MIA,Miami,49-22,28,29,35,18,0,0,0,0,0,0,0,0,0,0,110,0.544,0.727,0.421,31,47,8,0021301079,1610612748,MIA,Miami,Justin Hamilton,,,4:44,0.0,0.0,0.0,0.0,2.0,0.0,2.0,2.0,0.0,0.0,0.0,2.0
0021301079,1610612748,MIA,Miami,203120,Justin Hamilton,,,4:44,60.1,62.5,-2.4,0.0,0.0,0.0,0.2,0.0,0.091,50.0,0.0,0.0,0.194,82.75,-0.111,2014-03-28T00:00:00,5,1610612765,DET,Detroit,26-46,23,19,18,18,0,0,0,0,0,0,0,0,0,0,78,0.38,0.714,0.125,20,36,11,0021301079,1610612748,MIA,Miami,Justin Hamilton,,,4:44,0.0,0.0,0.0,0.0,2.0,0.0,2.0,2.0,0.0,0.0,0.0,2.0
0021301079,1610612748,MIA,Miami,201563,Michael Beasley,,,4:44,60.1,62.5,-2.4,0.0,0.0,0.0,0.2,0.167,0.182,50.0,0.5,0.5,0.388,82.75,0.111,2014-03-28T00:00:00,5,1610612748,MIA,Miami,49-22,28,29,35,18,0,0,0,0,0,0,0,0,0,0,110,0.544,0.727,0.421,31,47,8,0021301079,1610612748,MIA,Miami,Michael Beasley,,,4:44,0.0,0.0,0.0,0.0,2.0,0.0,2.0,2.0,0.0,0.0,0.0,0.0
0021301079,1610612748,MIA,Miami,201563,Michael Beasley,,,4:44,60.1,62.5,-2.4,0.0,0.0,0.0,0.2,0.167,0.182,50.0,0.5,0.5,0.388,82.75,0.111,2014-03-28T00:00:00,5,1610612765,DET,Detroit,26-46,23,19,18,18,0,0,0,0,0,0,0,0,0,0,78,0.38,0.714,0.125,20,36,11,0021301079,1610612748,MIA,Miami,Michael Beasley,,,4:44,0.0,0.0,0.0,0.0,2.0,0.0,2.0,2.0,0.0,0.0,0.0,0.0
0021301079,1610612748,MIA,Miami,201596,Mario Chalmers,,DND - BRUISED RIGHT QUAD,,,,,,,0.0,,,,,,,0.0,,,2014-03-28T00:00:00,5,1610612748,MIA,Miami,49-22,28,29,35,18,0,0,0,0,0,0,0,0,0,0,110,0.544,0.727,0.421,31,47,8,0021301079,1610612748,MIA,Miami,Mario Chalmers,,DND - BRUISED RIGHT QUAD,,,,,,,,,,,,,
0021301079,1610612748,MIA,Miami,201596,Mario Chalmers,,DND - BRUISED RIGHT QUAD,,,,,,,0.0,,,,,,,0.0,,,2014-03-28T00:00:00,5,1610612765,DET,Detroit,26-46,23,19,18,18,0,0,0,0,0,0,0,0,0,0,78,0.38,0.714,0.125,20,36,11,0021301079,1610612748,MIA,Miami,Mario Chalmers,,DND - BRUISED RIGHT QUAD,,,,,,,,,,,,,
0021301079,1610612748,MIA,Miami,2548,Dwyane Wade,,DND - STRAINED LEFT HAMSTRING,,,,,,,0.0,,,,,,,0.0,,,2014-03-28T00:00:00,5,1610612748,MIA,Miami,49-22,28,29,35,18,0,0,0,0,0,0,0,0,0,0,110,0.544,0.727,0.421,31,47,8,0021301079,1610612748,MIA,Miami,Dwyane Wade,,DND - STRAINED LEFT HAMSTRING,,,,,,,,,,,,,
0021301079,1610612748,MIA,Miami,2548,Dwyane Wade,,DND - STRAINED LEFT HAMSTRING,,,,,,,0.0,,,,,,,0.0,,,2014-03-28T00:00:00,5,1610612765,DET,Detroit,26-46,23,19,18,18,0,0,0,0,0,0,0,0,0,0,78,0.38,0.714,0.125,20,36,11,0021301079,1610612748,MIA,Miami,Dwyane Wade,,DND - STRAINED LEFT HAMSTRING,,,,,,,,,,,,,
0021301079,1610612765,DET,Detroit,2746,Josh Smith,F,,26:58,78.6,137.3,-58.7,0.231,1.0,15.0,0.0,0.105,0.043,15.0,0.321,0.321,0.306,90.21,-0.014,2014-03-28T00:00:00,5,1610612748,MIA,Miami,49-22,28,29,35,18,0,0,0,0,0,0,0,0,0,0,110,0.544,0.727,0.421,31,47,8,0021301079,1610612765,DET,Detroit,Josh Smith,F,,26:58,0.0,0.0,2.0,4.0,10.0,8.0,6.0,18.0,1.0,1.0,4.0,0.0
0021301079,1610612765,DET,Detroit,2746,Josh Smith,F,,26:58,78.6,137.3,-58.7,0.231,1.0,15.0,0.0,0.105,0.043,15.0,0.321,0.321,0.306,90.21,-0.014,2014-03-28T00:00:00,5,1610612765,DET,Detroit,26-46,23,19,18,18,0,0,0,0,0,0,0,0,0,0,78,0.38,0.714,0.125,20,36,11,0021301079,1610612765,DET,Detroit,Josh Smith,F,,26:58,0.0,0.0,2.0,4.0,10.0,8.0,6.0,18.0,1.0,1.0,4.0,0.0
0021301079,1610612765,DET,Detroit,202328,Greg Monroe,F,,29:14,78.2,134.6,-56.4,0.077,1.0,5.6,0.125,0.19,0.151,5.6,0.357,0.381,0.265,91.95,0.044,2014-03-28T00:00:00,5,1610612748,MIA,Miami,49-22,28,29,35,18,0,0,0,0,0,0,0,0,0,0,110,0.544,0.727,0.421,31,47,8,0021301079,1610612765,DET,Detroit,Greg Monroe,F,,29:14,2.0,3.0,0.0,8.0,10.0,10.0,10.0,26.0,2.0,3.0,3.0,3.0
0021301079,1610612765,DET,Detroit,202328,Greg Monroe,F,,29:14,78.2,134.6,-56.4,0.077,1.0,5.6,0.125,0.19,0.151,5.6,0.357,0.381,0.265,91.95,0.044,2014-03-28T00:00:00,5,1610612765,DET,Detroit,26-46,23,19,18,18,0,0,0,0,0,0,0,0,0,0,78,0.38,0.714,0.125,20,36,11,0021301079,1610612765,DET,Detroit,Greg Monroe,F,,29:14,2.0,3.0,0.0,8.0,10.0,10.0,10.0,26.0,2.0,3.0,3.0,3.0
0021301079,1610612765,DET,Detroit,203083,Andre Drummond,C,,34:58,94.1,133.1,-39.1,0.0,0.0,0.0,0.176,0.333,0.241,11.3,0.571,0.571,0.124,87.39,0.094,2014-03-28T00:00:00,5,1610612748,MIA,Miami,49-22,28,29,35,18,0,0,0,0,0,0,0,0,0,0,110,0.544,0.727,0.421,31,47,8,0021301079,1610612765,DET,Detroit,Andre Drummond,C,,34:58,0.0,4.0,0.0,8.0,13.0,10.0,5.0,30.0,0.0,0.0,3.0,1.0
0021301079,1610612765,DET,Detroit,203083,Andre Drummond,C,,34:58,94.1,133.1,-39.1,0.0,0.0,0.0,0.176,0.333,0.241,11.3,0.571,0.571,0.124,87.39,0.094,2014-03-28T00:00:00,5,1610612765,DET,Detroit,26-46,23,19,18,18,0,0,0,0,0,0,0,0,0,0,78,0.38,0.714,0.125,20,36,11,0021301079,1610612765,DET,Detroit,Andre Drummond,C,,34:58,0.0,4.0,0.0,8.0,13.0,10.0,5.0,30.0,0.0,0.0,3.0,1.0
0021301079,1610612765,DET,Detroit,202713,Kyle Singler,G,,25:24,80.5,131.7,-51.2,0.182,2.0,15.0,0.031,0.0,0.021,7.5,0.444,0.533,0.193,92.18,0.059,2014-03-28T00:00:00,5,1610612748,MIA,Miami,49-22,28,29,35,18,0,0,0,0,0,0,0,0,0,0,110,0.544,0.727,0.421,31,47,8,0021301079,1610612765,DET,Detroit,Kyle Singler,G,,25:24,3.0,0.0,0.0,6.0,10.0,7.0,9.0,24.0,0.0,0.0,2.0,3.0
0021301079,1610612765,DET,Detroit,202713,Kyle Singler,G,,25:24,80.5,131.7,-51.2,0.182,2.0,15.0,0.031,0.0,0.021,7.5,0.444,0.533,0.193,92.18,0.059,2014-03-28T00:00:00,5,1610612765,DET,Detroit,26-46,23,19,18,18,0,0,0,0,0,0,0,0,0,0,78,0.38,0.714,0.125,20,36,11,0021301079,1610612765,DET,Detroit,Kyle Singler,G,,25:24,3.0,0.0,0.0,6.0,10.0,7.0,9.0,24.0,0.0,0.0,2.0,3.0
0021301079,1610612765,DET,Detroit,201943,Brandon Jennings,G,,28:16,85.9,135.2,-49.4,0.412,7.0,37.6,0.0,0.0,0.0,5.4,0.25,0.376,0.193,90.95,0.051,2014-03-28T00:00:00,5,1610612748,MIA,Miami,49-22,28,29,35,18,0,0,0,0,0,0,0,0,0,0,110,0.544,0.727,0.421,31,47,8,0021301079,1610612765,DET,Detroit,Brandon Jennings,G,,28:16,1.0,0.0,1.0,2.0,12.0,10.0,8.0,20.0,0.0,0.0,1.0,3.0
0021301079,1610612765,DET,Detroit,201943,Brandon Jennings,G,,28:16,85.9,135.2,-49.4,0.412,7.0,37.6,0.0,0.0,0.0,5.4,0.25,0.376,0.193,90.95,0.051,2014-03-28T00:00:00,5,1610612765,DET,Detroit,26-46,23,19,18,18,0,0,0,0,0,0,0,0,0,0,78,0.38,0.714,0.125,20,36,11,0021301079,1610612765,DET,Detroit,Brandon Jennings,G,,28:16,1.0,0.0,1.0,2.0,12.0,10.0,8.0,20.0,0.0,0.0,1.0,3.0
0021301079,1610612765,DET,Detroit,201155,Rodney Stuckey,,,23:07,112.7,131.2,-18.5,0.083,1.0,11.1,0.0,0.063,0.029,11.1,0.571,0.571,0.186,82.48,0.062,2014-03-28T00:00:00,5,1610612748,MIA,Miami,49-22,28,29,35,18,0,0,0,0,0,0,0,0,0,0,110,0.544,0.727,0.421,31,47,8,0021301079,1610612765,DET,Detroit,Rodney Stuckey,,,23:07,0.0,0.0,2.0,6.0,7.0,7.0,4.0,28.0,0.0,0.0,0.0,0.0
0021301079,1610612765,DET,Detroit,201155,Rodney Stuckey,,,23:07,112.7,131.2,-18.5,0.083,1.0,11.1,0.0,0.063,0.029,11.1,0.571,0.571,0.186,82.48,0.062,2014-03-28T00:00:00,5,1610612765,DET,Detroit,26-46,23,19,18,18,0,0,0,0,0,0,0,0,0,0,78,0.38,0.714,0.125,20,36,11,0021301079,1610612765,DET,Detroit,Rodney Stuckey,,,23:07,0.0,0.0,2.0,6.0,7.0,7.0,4.0,28.0,0.0,0.0,0.0,0.0
0021301079,1610612765,DET,Detroit,201973,Jonas Jerebko,,,23:50,105.9,112.6,-6.7,0.167,0.0,22.2,0.0,0.375,0.15,0.0,0.429,0.429,0.147,82.01,0.09,2014-03-28T00:00:00,5,1610612748,MIA,Miami,49-22,28,29,35,18,0,0,0,0,0,0,0,0,0,0,110,0.544,0.727,0.421,31,47,8,0021301079,1610612765,DET,Detroit,Jonas Jerebko,,,23:50,2.0,0.0,4.0,6.0,8.0,6.0,6.0,28.0,0.0,0.0,3.0,0.0
0021301079,1610612765,DET,Detroit,201973,Jonas Jerebko,,,23:50,105.9,112.6,-6.7,0.167,0.0,22.2,0.0,0.375,0.15,0.0,0.429,0.429,0.147,82.01,0.09,2014-03-28T00:00:00,5,1610612765,DET,Detroit,26-46,23,19,18,18,0,0,0,0,0,0,0,0,0,0,78,0.38,0.714,0.125,20,36,11,0021301079,1610612765,DET,Detroit,Jonas Jerebko,,,23:50,2.0,0.0,4.0,6.0,8.0,6.0,6.0,28.0,0.0,0.0,3.0,0.0
0021301079,1610612765,DET,Detroit,101198,Will Bynum,,,15:00,104.3,125.8,-21.5,0.333,2.0,18.8,0.0,0.125,0.05,9.4,0.7,0.785,0.29,82.37,0.229,2014-03-28T00:00:00,5,1610612748,MIA,Miami,49-22,28,29,35,18,0,0,0,0,0,0,0,0,0,0,110,0.544,0.727,0.421,31,47,8,0021301079,1610612765,DET,Detroit,Will Bynum,,,15:00,2.0,0.0,2.0,2.0,3.0,2.0,3.0,24.0,0.0,0.0,0.0,3.0
0021301079,1610612765,DET,Detroit,101198,Will Bynum,,,15:00,104.3,125.8,-21.5,0.333,2.0,18.8,0.0,0.125,0.05,9.4,0.7,0.785,0.29,82.37,0.229,2014-03-28T00:00:00,5,1610612765,DET,Detroit,26-46,23,19,18,18,0,0,0,0,0,0,0,0,0,0,78,0.38,0.714,0.125,20,36,11,0021301079,1610612765,DET,Detroit,Will Bynum,,,15:00,2.0,0.0,2.0,2.0,3.0,2.0,3.0,24.0,0.0,0.0,0.0,3.0
0021301079,1610612765,DET,Detroit,203484,Kentavious Caldwell-Pope,,,19:01,94.4,109.2,-14.8,0.091,1.0,16.7,0.0,0.071,0.032,16.7,0.375,0.375,0.128,85.72,-0.059,2014-03-28T00:00:00,5,1610612748,MIA,Miami,49-22,28,29,35,18,0,0,0,0,0,0,0,0,0,0,110,0.544,0.727,0.421,31,47,8,0021301079,1610612765,DET,Detroit,Kentavious Caldwell-Pope,,,19:01,0.0,0.0,0.0,0.0,4.0,4.0,6.0,26.0,1.0,0.0,5.0,0.0
0021301079,1610612765,DET,Detroit,203484,Kentavious Caldwell-Pope,,,19:01,94.4,109.2,-14.8,0.091,1.0,16.7,0.0,0.071,0.032,16.7,0.375,0.375,0.128,85.72,-0.059,2014-03-28T00:00:00,5,1610612765,DET,Detroit,26-46,23,19,18,18,0,0,0,0,0,0,0,0,0,0,78,0.38,0.714,0.125,20,36,11,0021301079,1610612765,DET,Detroit,Kentavious Caldwell-Pope,,,19:01,0.0,0.0,0.0,0.0,4.0,4.0,6.0,26.0,1.0,0.0,5.0,0.0
0021301079,1610612765,DET,Detroit,203491,Peyton Siva,,,4:44,62.5,60.1,2.4,0.5,1.0,25.0,0.0,0.2,0.091,25.0,0.0,0.0,0.333,82.75,0.0,2014-03-28T00:00:00,5,1610612748,MIA,Miami,49-22,28,29,35,18,0,0,0,0,0,0,0,0,0,0,110,0.544,0.727,0.421,31,47,8,0021301079,1610612765,DET,Detroit,Peyton Siva,,,4:44,0.0,0.0,0.0,0.0,1.0,2.0,1.0,2.0,0.0,0.0,0.0,1.0
0021301079,1610612765,DET,Detroit,203491,Peyton Siva,,,4:44,62.5,60.1,2.4,0.5,1.0,25.0,0.0,0.2,0.091,25.0,0.0,0.0,0.333,82.75,0.0,2014-03-28T00:00:00,5,1610612765,DET,Detroit,26-46,23,19,18,18,0,0,0,0,0,0,0,0,0,0,78,0.38,0.714,0.125,20,36,11,0021301079,1610612765,DET,Detroit,Peyton Siva,,,4:44,0.0,0.0,0.0,0.0,1.0,2.0,1.0,2.0,0.0,0.0,0.0,1.0
0021301079,1610612765,DET,Detroit,203540,Gigi Datome,,,4:44,62.5,60.1,2.4,0.0,0.0,0.0,0.167,0.0,0.091,0.0,0.0,0.0,0.222,82.75,-0.333,2014-03-28T00:00:00,5,1610612748,MIA,Miami,49-22,28,29,35,18,0,0,0,0,0,0,0,0,0,0,110,0.544,0.727,0.421,31,47,8,0021301079,1610612765,DET,Detroit,Gigi Datome,,,4:44,0.0,0.0,0.0,0.0,1.0,2.0,1.0,2.0,0.0,0.0,0.0,0.0
0021301079,1610612765,DET,Detroit,203540,Gigi Datome,,,4:44,62.5,60.1,2.4,0.0,0.0,0.0,0.167,0.0,0.091,0.0,0.0,0.0,0.222,82.75,-0.333,2014-03-28T00:00:00,5,1610612765,DET,Detroit,26-46,23,19,18,18,0,0,0,0,0,0,0,0,0,0,78,0.38,0.714,0.125,20,36,11,0021301079,1610612765,DET,Detroit,Gigi Datome,,,4:44,0.0,0.0,0.0,0.0,1.0,2.0,1.0,2.0,0.0,0.0,0.0,0.0
0021301079,1610612765,DET,Detroit,203502,Tony Mitchell,,,4:44,62.5,60.1,2.4,0.0,0.0,0.0,0.0,0.0,0.0,0.0,0.0,0.0,0.0,82.75,0.0,2014-03-28T00:00:00,5,1610612748,MIA,Miami,49-22,28,29,35,18,0,0,0,0,0,0,0,0,0,0,110,0.544,0.727,0.421,31,47,8,0021301079,1610612765,DET,Detroit,Tony Mitchell,,,4:44,0.0,0.0,0.0,0.0,1.0,2.0,1.0,2.0,0.0,0.0,1.0,0.0
0021301079,1610612765,DET,Detroit,203502,Tony Mitchell,,,4:44,62.5,60.1,2.4,0.0,0.0,0.0,0.0,0.0,0.0,0.0,0.0,0.0,0.0,82.75,0.0,2014-03-28T00:00:00,5,1610612765,DET,Detroit,26-46,23,19,18,18,0,0,0,0,0,0,0,0,0,0,78,0.38,0.714,0.125,20,36,11,0021301079,1610612765,DET,Detroit,Tony Mitchell,,,4:44,0.0,0.0,0.0,0.0,1.0,2.0,1.0,2.0,0.0,0.0,1.0,0.0
0021301079,1610612765,DET,Detroit,101111,Charlie Villanueva,,DND - SORE BACK,,,,,,,0.0,,,,,,,0.0,,,2014-03-28T00:00:00,5,1610612748,MIA,Miami,49-22,28,29,35,18,0,0,0,0,0,0,0,0,0,0,110,0.544,0.727,0.421,31,47,8,0021301079,1610612765,DET,Detroit,Charlie Villanueva,,DND - SORE BACK,,,,,,,,,,,,,
0021301079,1610612765,DET,Detroit,101111,Charlie Villanueva,,DND - SORE BACK,,,,,,,0.0,,,,,,,0.0,,,2014-03-28T00:00:00,5,1610612765,DET,Detroit,26-46,23,19,18,18,0,0,0,0,0,0,0,0,0,0,78,0.38,0.714,0.125,20,36,11,0021301079,1610612765,DET,Detroit,Charlie Villanueva,,DND - SORE BACK,,,,,,,,,,,,,
