GAME_ID_x,TEAM_ID_x,TEAM_ABBREVIATION_x,TEAM_CITY_x,PLAYER_ID,PLAYER_NAME_x,START_POSITION_x,COMMENT_x,MIN_x,OFF_RATING,DEF_RATING,NET_RATING,AST_PCT,AST_TOV,AST_RATIO,OREB_PCT,DREB_PCT,REB_PCT,TM_TOV_PCT,EFG_PCT,TS_PCT,USG_PCT,PACE,PIE,GAME_DATE_EST,GAME_SEQUENCE,TEAM_ABBREVIATION_y,TEAM_CITY_NAME,TEAM_WINS_LOSSES,PTS_QTR1,PTS_QTR2,PTS_QTR3,PTS_QTR4,PTS_OT1,PTS_OT2,PTS_OT3,PTS_OT4,PTS_OT5,PTS_OT6,PTS_OT7,PTS_OT8,PTS_OT9,PTS_OT10,PTS,FG_PCT,FT_PCT,FG3_PCT,AST,REB,TOV,GAME_ID_y,TEAM_ID_y,TEAM_ABBREVIATION,TEAM_CITY_y,PLAYER_NAME_y,START_POSITION_y,COMMENT_y,MIN_y,PTS_OFF_TOV,PTS_2ND_CHANCE,PTS_FB,PTS_PAINT,OPP_PTS_OFF_TOV,OPP_PTS_2ND_CHANCE,OPP_PTS_FB,OPP_PTS_PAINT,BLK,BLKA,PF,PFD
0041500316,1610612744,GSW,Golden State,203084,Harrison Barnes,F,,28:03,119.1,94.2,24.9,0.053,0.5,10.6,0.042,0.0,0.02,21.2,0.667,0.699,0.128,101.3,0.065,2016-05-28T00:00:00,1,GSW,Golden State,3-3,20,28,27,33,0,0,0,0,0,0,0,0,0,0,108,0.409,0.625,0.467,23,44,14,0041500316,1610612744,GSW,Golden State,Harrison Barnes,F,,28:03,0.0,0.0,0.0,2.0,9.0,20.0,4.0,32.0,0.0,1.0,2.0,1.0
0041500316,1610612744,GSW,Golden State,203110,Draymond Green,F,,42:40,112.9,93.3,19.6,0.2,2.0,28.9,0.081,0.22,0.154,14.5,0.5,0.51,0.147,102.69,0.114,2016-05-28T00:00:00,1,GSW,Golden State,3-3,20,28,27,33,0,0,0,0,0,0,0,0,0,0,108,0.409,0.625,0.467,23,44,14,0041500316,1610612744,GSW,Golden State,Draymond Green,F,,42:40,2.0,5.0,4.0,4.0,15.0,21.0,12.0,40.0,1.0,2.0,5.0,4.0
0041500316,1610612744,GSW,Golden State,101106,Andrew Bogut,C,,27:16,107.4,104.5,2.9,0.211,4.0,37.2,0.077,0.138,0.109,9.3,0.5,0.434,0.104,102.17,0.057,2016-05-28T00:00:00,1,GSW,Golden State,3-3,20,28,27,33,0,0,0,0,0,0,0,0,0,0,108,0.409,0.625,0.467,23,44,14,0041500316,1610612744,GSW,Golden State,Andrew Bogut,C,,27:16,0.0,2.0,0.0,4.0,11.0,11.0,13.0,32.0,2.0,1.0,3.0,3.0
0041500316,1610612744,GSW,Golden State,202691,Klay Thompson,G,,39:35,116.7,95.5,21.2,0.0,0.0,0.0,0.028,0.075,0.053,3.0,0.629,0.643,0.347,104.09,0.175,2016-05-28T00:00:00,1,GSW,Golden State,3-3,20,28,27,33,0,0,0,0,0,0,0,0,0,0,108,0.409,0.625,0.467,23,44,14,0041500316,1610612744,GSW,Golden State,Klay Thompson,G,,39:35,8.0,6.0,8.0,6.0,11.0,20.0,13.0,42.0,1.0,5.0,4.0,2.0
0041500316,1610612744,GSW,Golden State,201939,Stephen Curry,G,,41:01,112.9,97.3,15.6,0.375,3.0,23.7,0.051,0.195,0.125,7.9,0.545,0.597,0.296,103.64,0.219,2016-05-28T00:00:00,1,GSW,Golden State,3-3,20,28,27,33,0,0,0,0,0,0,0,0,0,0,108,0.409,0.625,0.467,23,44,14,0041500316,1610612744,GSW,Golden State,Stephen Curry,G,,41:01,9.0,6.0,0.0,4.0,12.0,25.0,13.0,44.0,0.0,1.0,3.0,9.0
0041500316,1610612744,GSW,Golden State,2738,Andre Iguodala,,,38:10,99.6,100.1,-0.6,0.042,1.0,10.2,0.073,0.111,0.091,10.2,0.5,0.515,0.096,102.01,0.074,2016-05-28T00:00:00,1,GSW,Golden State,3-3,20,28,27,33,0,0,0,0,0,0,0,0,0,0,108,0.409,0.625,0.467,23,44,14,0041500316,1610612744,GSW,Golden State,Andre Iguodala,,,38:10,0.0,0.0,2.0,6.0,11.0,19.0,14.0,38.0,0.0,0.0,3.0,3.0
0041500316,1610612744,GSW,Golden State,2733,Shaun Livingston,,,13:47,70.2,93.4,-23.2,0.333,2.0,28.6,0.0,0.071,0.036,14.3,0.0,0.0,0.163,93.14,-0.109,2016-05-28T00:00:00,1,GSW,Golden State,3-3,20,28,27,33,0,0,0,0,0,0,0,0,0,0,108,0.409,0.625,0.467,23,44,14,0041500316,1610612744,GSW,Golden State,Shaun Livingston,,,13:47,0.0,0.0,0.0,0.0,9.0,5.0,4.0,12.0,0.0,0.0,1.0,0.0
0041500316,1610612744,GSW,Golden State,201578,Marreese Speights,,,5:32,33.3,101.2,-67.9,0.0,0.0,0.0,0.125,0.25,0.167,20.0,0.0,0.0,0.417,81.91,-0.917,2016-05-28T00:00:00,1,GSW,Golden State,3-3,20,28,27,33,0,0,0,0,0,0,0,0,0,0,108,0.409,0.625,0.467,23,44,14,0041500316,1610612744,GSW,Golden State,Marreese Speights,,,5:32,0.0,0.0,0.0,0.0,2.0,2.0,0.0,8.0,0.0,0.0,2.0,0.0
0041500316,1610612744,GSW,Golden State,2571,Leandro Barbosa,,,1:44,0.0,200.0,-200.0,0.0,0.0,0.0,0.0,0.0,0.0,0.0,0.0,0.0,0.0,83.08,0.0,2016-05-28T00:00:00,1,GSW,Golden State,3-3,20,28,27,33,0,0,0,0,0,0,0,0,0,0,108,0.409,0.625,0.467,23,44,14,0041500316,1610612744,GSW,Golden State,Leandro Barbosa,,,1:44,0.0,0.0,0.0,0.0,0.0,0.0,0.0,6.0,0.0,0.0,0.0,0.0
0041500316,1610612744,GSW,Golden State,2760,Anderson Varejao,,,1:07,180.7,133.3,47.4,0.0,0.0,0.0,0.0,0.333,0.25,0.0,0.0,0.0,0.0,135.83,0.133,2016-05-28T00:00:00,1,GSW,Golden State,3-3,20,28,27,33,0,0,0,0,0,0,0,0,0,0,108,0.409,0.625,0.467,23,44,14,0041500316,1610612744,GSW,Golden State,Anderson Varejao,,,1:07,0.0,0.0,0.0,0.0,0.0,2.0,2.0,4.0,0.0,0.0,0.0,0.0
0041500316,1610612744,GSW,Golden State,203105,Festus Ezeli,,,1:05,66.7,123.0,-56.3,0.0,0.0,0.0,0.0,0.0,0.0,50.0,1.0,1.0,0.667,120.52,-0.4,2016-05-28T00:00:00,1,GSW,Golden State,3-3,20,28,27,33,0,0,0,0,0,0,0,0,0,0,108,0.409,0.625,0.467,23,44,14,0041500316,1610612744,GSW,Golden State,Festus Ezeli,,,1:05,0.0,0.0,0.0,2.0,0.0,0.0,0.0,2.0,0.0,0.0,2.0,0.0
0041500316,1610612744,GSW,Golden State,203546,Ian Clark,,DNP - Coach's Decision                  ,,,,,,,0.0,,,,,,,0.0,,,2016-05-28T00:00:00,1,GSW,Golden State,3-3,20,28,27,33,0,0,0,0,0,0,0,0,0,0,108,0.409,0.625,0.467,23,44,14,0041500316,1610612744,GSW,Golden State,Ian Clark,,DNP - Coach's Decision                  ,,,,,,,,,,,,,
0041500316,1610612744,GSW,Golden State,203949,James Michael McAdoo,,DNP - Coach's Decision                  ,,,,,,,0.0,,,,,,,0.0,,,2016-05-28T00:00:00,1,GSW,Golden State,3-3,20,28,27,33,0,0,0,0,0,0,0,0,0,0,108,0.409,0.625,0.467,23,44,14,0041500316,1610612744,GSW,Golden State,James Michael McAdoo,,DNP - Coach's Decision                  ,,,,,,,,,,,,,
0041500316,1610612760,OKC,Oklahoma City,201142,Kevin Durant,F,,44:48,99.9,108.9,-9.0,0.115,1.0,7.2,0.045,0.122,0.082,7.2,0.339,0.41,0.343,102.66,0.078,2016-05-28T00:00:00,1,OKC,Oklahoma City,3-3,23,30,30,18,0,0,0,0,0,0,0,0,0,0,101,0.422,0.688,0.13,16,49,15,0041500316,1610612760,OKC,Oklahoma City,Kevin Durant,F,,44:48,7.0,4.0,5.0,12.0,19.0,19.0,14.0,26.0,3.0,1.0,4.0,7.0
0041500316,1610612760,OKC,Oklahoma City,201586,Serge Ibaka,F,,35:50,100.9,108.7,-7.8,0.0,0.0,0.0,0.029,0.229,0.13,0.0,0.55,0.533,0.131,106.1,0.096,2016-05-28T00:00:00,1,OKC,Oklahoma City,3-3,23,30,30,18,0,0,0,0,0,0,0,0,0,0,101,0.422,0.688,0.13,16,49,15,0041500316,1610612760,OKC,Oklahoma City,Serge Ibaka,F,,35:50,1.0,5.0,1.0,6.0,19.0,16.0,14.0,22.0,3.0,1.0,4.0,4.0
0041500316,1610612760,OKC,Oklahoma City,203500,Steven Adams,C,,28:05,101.3,124.6,-23.3,0.056,0.5,8.9,0.207,0.125,0.17,17.9,0.5,0.549,0.147,98.44,0.057,2016-05-28T00:00:00,1,OKC,Oklahoma City,3-3,23,30,30,18,0,0,0,0,0,0,0,0,0,0,101,0.422,0.688,0.13,16,49,15,0041500316,1610612760,OKC,Oklahoma City,Steven Adams,C,,28:05,0.0,3.0,0.0,6.0,8.0,18.0,8.0,14.0,0.0,1.0,4.0,5.0
0041500316,1610612760,OKC,Oklahoma City,203460,Andre Roberson,G,,29:03,92.7,98.2,-5.6,0.0,0.0,0.0,0.1,0.172,0.136,33.8,1.0,0.935,0.124,105.53,0.122,2016-05-28T00:00:00,1,OKC,Oklahoma City,3-3,23,30,30,18,0,0,0,0,0,0,0,0,0,0,101,0.422,0.688,0.13,16,49,15,0041500316,1610612760,OKC,Oklahoma City,Andre Roberson,G,,29:03,2.0,4.0,2.0,10.0,12.0,12.0,12.0,20.0,3.0,0.0,5.0,1.0
0041500316,1610612760,OKC,Oklahoma City,201566,Russell Westbrook,G,,43:49,96.7,112.2,-15.5,0.44,2.2,23.2,0.067,0.146,0.105,10.5,0.37,0.446,0.324,103.45,0.165,2016-05-28T00:00:00,1,OKC,Oklahoma City,3-3,23,30,30,18,0,0,0,0,0,0,0,0,0,0,101,0.422,0.688,0.13,16,49,15,0041500316,1610612760,OKC,Oklahoma City,Russell Westbrook,G,,43:49,3.0,4.0,7.0,12.0,19.0,18.0,14.0,28.0,0.0,1.0,2.0,6.0
0041500316,1610612760,OKC,Oklahoma City,202683,Enes Kanter,,,10:38,110.4,45.3,65.1,0.0,0.0,0.0,0.1,0.133,0.12,16.7,0.8,0.8,0.254,101.0,0.25,2016-05-28T00:00:00,1,OKC,Oklahoma City,3-3,23,30,30,18,0,0,0,0,0,0,0,0,0,0,101,0.422,0.688,0.13,16,49,15,0041500316,1610612760,OKC,Oklahoma City,Enes Kanter,,,10:38,0.0,2.0,0.0,6.0,0.0,1.0,2.0,6.0,1.0,0.0,3.0,1.0
0041500316,1610612760,OKC,Oklahoma City,203079,Dion Waiters,,,36:00,97.0,110.2,-13.1,0.037,0.0,16.7,0.0,0.118,0.062,0.0,0.3,0.3,0.057,97.36,0.048,2016-05-28T00:00:00,1,OKC,Oklahoma City,3-3,23,30,30,18,0,0,0,0,0,0,0,0,0,0,101,0.422,0.688,0.13,16,49,15,0041500316,1610612760,OKC,Oklahoma City,Dion Waiters,,,36:00,3.0,3.0,0.0,0.0,14.0,11.0,6.0,18.0,0.0,0.0,0.0,0.0
0041500316,1610612760,OKC,Oklahoma City,200751,Randy Foye,,,7:08,79.9,100.0,-20.1,0.0,0.0,0.0,0.0,0.0,0.0,100.0,0.0,0.0,0.068,93.4,-0.051,2016-05-28T00:00:00,1,OKC,Oklahoma City,3-3,23,30,30,18,0,0,0,0,0,0,0,0,0,0,101,0.422,0.688,0.13,16,49,15,0041500316,1610612760,OKC,Oklahoma City,Randy Foye,,,7:08,0.0,0.0,0.0,0.0,0.0,0.0,0.0,2.0,0.0,0.0,0.0,0.0
0041500316,1610612760,OKC,Oklahoma City,201627,Anthony Morrow,,,4:39,87.2,134.4,-47.2,0.0,0.0,0.0,0.0,0.0,0.0,0.0,0.0,0.0,0.088,91.8,-0.069,2016-05-28T00:00:00,1,OKC,Oklahoma City,3-3,23,30,30,18,0,0,0,0,0,0,0,0,0,0,101,0.422,0.688,0.13,16,49,15,0041500316,1610612760,OKC,Oklahoma City,Anthony Morrow,,,4:39,0.0,0.0,0.0,0.0,4.0,0.0,0.0,4.0,0.0,0.0,0.0,1.0
0041500316,1610612760,OKC,Oklahoma City,2555,Nick Collison,,DNP - Coach's Decision                  ,,,,,,,0.0,,,,,,,0.0,,,2016-05-28T00:00:00,1,OKC,Oklahoma City,3-3,23,30,30,18,0,0,0,0,0,0,0,0,0,0,101,0.422,0.688,0.13,16,49,15,0041500316,1610612760,OKC,Oklahoma City,Nick Collison,,DNP - Coach's Decision                  ,,,,,,,,,,,,,
0041500316,1610612760,OKC,Oklahoma City,1737,Nazr Mohammed,,DNP - Coach's Decision                  ,,,,,,,0.0,,,,,,,0.0,,,2016-05-28T00:00:00,1,OKC,Oklahoma City,3-3,23,30,30,18,0,0,0,0,0,0,0,0,0,0,101,0.422,0.688,0.13,16,49,15,0041500316,1610612760,OKC,Oklahoma City,Nazr Mohammed,,DNP - Coach's Decision                  ,,,,,,,,,,,,,
0041500316,1610612760,OKC,Oklahoma City,1626166,Cameron Payne,,DNP - Coach's Decision                  ,,,,,,,0.0,,,,,,,0.0,,,2016-05-28T00:00:00,1,OKC,Oklahoma City,3-3,23,30,30,18,0,0,0,0,0,0,0,0,0,0,101,0.422,0.688,0.13,16,49,15,0041500316,1610612760,OKC,Oklahoma City,Cameron Payne,,DNP - Coach's Decision                  ,,,,,,,,,,,,,
0041500316,1610612760,OKC,Oklahoma City,202713,Kyle Singler,,DNP - Coach's Decision                  ,,,,,,,0.0,,,,,,,0.0,,,2016-05-28T00:00:00,1,OKC,Oklahoma City,3-3,23,30,30,18,0,0,0,0,0,0,0,0,0,0,101,0.422,0.688,0.13,16,49,15,0041500316,1610612760,OKC,Oklahoma City,Kyle Singler,,DNP - Coach's Decision                  ,,,,,,,,,,,,,
