GAME_ID_x,TEAM_ID_x,TEAM_ABBREVIATION_x,TEAM_CITY_x,PLAYER_ID,PLAYER_NAME_x,START_POSITION_x,COMMENT_x,MIN_x,OFF_RATING,DEF_RATING,NET_RATING,AST_PCT,AST_TOV,AST_RATIO,OREB_PCT,DREB_PCT,REB_PCT,TM_TOV_PCT,EFG_PCT,TS_PCT,USG_PCT,PACE,PIE,GAME_DATE_EST,GAME_SEQUENCE,TEAM_ID_y,TEAM_ABBREVIATION_y,TEAM_CITY_NAME,TEAM_WINS_LOSSES,PTS_QTR1,PTS_QTR2,PTS_QTR3,PTS_QTR4,PTS_OT1,PTS_OT2,PTS_OT3,PTS_OT4,PTS_OT5,PTS_OT6,PTS_OT7,PTS_OT8,PTS_OT9,PTS_OT10,PTS,FG_PCT,FT_PCT,FG3_PCT,AST,REB,TOV,GAME_ID_y,TEAM_ID,TEAM_ABBREVIATION,TEAM_CITY_y,PLAYER_NAME_y,START_POSITION_y,COMMENT_y,MIN_y,PTS_OFF_TOV,PTS_2ND_CHANCE,PTS_FB,PTS_PAINT,OPP_PTS_OFF_TOV,OPP_PTS_2ND_CHANCE,OPP_PTS_FB,OPP_PTS_PAINT,BLK,BLKA,PF,PFD
0021301092,1610612740,NOP,New Orleans,202329,Al-Farouq Aminu,F,,33:46,85.1,100.9,-15.8,0.05,0.0,13.7,0.031,0.321,0.167,0.0,0.6,0.633,0.089,93.99,0.164,2014-03-29T00:00:00,6,1610612740,NOP,New Orleans,32-41,15,20,24,21,0,0,0,0,0,0,0,0,0,0,80,0.395,0.813,0.25,16,41,11,0021301092,1610612740,NOP,New Orleans,Al-Farouq Aminu,F,,33:46,0.0,0.0,0.0,2.0,12.0,8.0,13.0,40.0,0.0,0.0,0.0,3.0
0021301092,1610612740,NOP,New Orleans,202329,Al-Farouq Aminu,F,,33:46,85.1,100.9,-15.8,0.05,0.0,13.7,0.031,0.321,0.167,0.0,0.6,0.633,0.089,93.99,0.164,2014-03-29T00:00:00,6,1610612759,SAS,San Antonio,57-16,28,24,18,26,0,0,0,0,0,0,0,0,0,0,96,0.474,0.65,0.429,24,46,13,0021301092,1610612740,NOP,New Orleans,Al-Farouq Aminu,F,,33:46,0.0,0.0,0.0,2.0,12.0,8.0,13.0,40.0,0.0,0.0,0.0,3.0
0021301092,1610612740,NOP,New Orleans,201582,Alexis Ajinca,F,,27:09,92.2,95.1,-2.9,0.059,0.0,14.3,0.083,0.263,0.163,0.0,0.167,0.167,0.111,90.59,-0.012,2014-03-29T00:00:00,6,1610612740,NOP,New Orleans,32-41,15,20,24,21,0,0,0,0,0,0,0,0,0,0,80,0.395,0.813,0.25,16,41,11,0021301092,1610612740,NOP,New Orleans,Alexis Ajinca,F,,27:09,0.0,0.0,0.0,0.0,4.0,5.0,8.0,34.0,0.0,1.0,5.0,0.0
0021301092,1610612740,NOP,New Orleans,201582,Alexis Ajinca,F,,27:09,92.2,95.1,-2.9,0.059,0.0,14.3,0.083,0.263,0.163,0.0,0.167,0.167,0.111,90.59,-0.012,2014-03-29T00:00:00,6,1610612759,SAS,San Antonio,57-16,28,24,18,26,0,0,0,0,0,0,0,0,0,0,96,0.474,0.65,0.429,24,46,13,0021301092,1610612740,NOP,New Orleans,Alexis Ajinca,F,,27:09,0.0,0.0,0.0,0.0,4.0,5.0,8.0,34.0,0.0,1.0,5.0,0.0
0021301092,1610612740,NOP,New Orleans,201880,Greg Stiemsma,C,,18:47,53.4,125.7,-72.3,0.125,1.0,20.0,0.0,0.267,0.118,20.0,0.333,0.333,0.088,99.41,0.05,2014-03-29T00:00:00,6,1610612740,NOP,New Orleans,32-41,15,20,24,21,0,0,0,0,0,0,0,0,0,0,80,0.395,0.813,0.25,16,41,11,0021301092,1610612740,NOP,New Orleans,Greg Stiemsma,C,,18:47,0.0,0.0,0.0,2.0,14.0,2.0,16.0,20.0,1.0,0.0,3.0,0.0
0021301092,1610612740,NOP,New Orleans,201880,Greg Stiemsma,C,,18:47,53.4,125.7,-72.3,0.125,1.0,20.0,0.0,0.267,0.118,20.0,0.333,0.333,0.088,99.41,0.05,2014-03-29T00:00:00,6,1610612759,SAS,San Antonio,57-16,28,24,18,26,0,0,0,0,0,0,0,0,0,0,96,0.474,0.65,0.429,24,46,13,0021301092,1610612740,NOP,New Orleans,Greg Stiemsma,C,,18:47,0.0,0.0,0.0,2.0,14.0,2.0,16.0,20.0,1.0,0.0,3.0,0.0
0021301092,1610612740,NOP,New Orleans,201627,Anthony Morrow,G,,17:45,67.4,107.7,-40.3,0.0,0.0,0.0,0.0,0.0,0.0,12.7,0.333,0.436,0.197,99.08,0.016,2014-03-29T00:00:00,6,1610612740,NOP,New Orleans,32-41,15,20,24,21,0,0,0,0,0,0,0,0,0,0,80,0.395,0.813,0.25,16,41,11,0021301092,1610612740,NOP,New Orleans,Anthony Morrow,G,,17:45,0.0,0.0,0.0,2.0,6.0,0.0,10.0,26.0,0.0,0.0,0.0,1.0
0021301092,1610612740,NOP,New Orleans,201627,Anthony Morrow,G,,17:45,67.4,107.7,-40.3,0.0,0.0,0.0,0.0,0.0,0.0,12.7,0.333,0.436,0.197,99.08,0.016,2014-03-29T00:00:00,6,1610612759,SAS,San Antonio,57-16,28,24,18,26,0,0,0,0,0,0,0,0,0,0,96,0.474,0.65,0.429,24,46,13,0021301092,1610612740,NOP,New Orleans,Anthony Morrow,G,,17:45,0.0,0.0,0.0,2.0,6.0,0.0,10.0,26.0,0.0,0.0,0.0,1.0
0021301092,1610612740,NOP,New Orleans,201936,Tyreke Evans,G,,28:39,67.9,110.4,-42.5,0.364,0.8,16.8,0.071,0.1,0.083,21.0,0.308,0.373,0.327,96.64,0.011,2014-03-29T00:00:00,6,1610612740,NOP,New Orleans,32-41,15,20,24,21,0,0,0,0,0,0,0,0,0,0,80,0.395,0.813,0.25,16,41,11,0021301092,1610612740,NOP,New Orleans,Tyreke Evans,G,,28:39,3.0,0.0,3.0,8.0,16.0,3.0,17.0,34.0,0.0,2.0,2.0,3.0
0021301092,1610612740,NOP,New Orleans,201936,Tyreke Evans,G,,28:39,67.9,110.4,-42.5,0.364,0.8,16.8,0.071,0.1,0.083,21.0,0.308,0.373,0.327,96.64,0.011,2014-03-29T00:00:00,6,1610612759,SAS,San Antonio,57-16,28,24,18,26,0,0,0,0,0,0,0,0,0,0,96,0.474,0.65,0.429,24,46,13,0021301092,1610612740,NOP,New Orleans,Tyreke Evans,G,,28:39,3.0,0.0,3.0,8.0,16.0,3.0,17.0,34.0,0.0,2.0,2.0,3.0
0021301092,1610612740,NOP,New Orleans,202337,Luke Babbitt,,,19:22,92.2,106.2,-14.0,0.0,0.0,0.0,0.0,0.105,0.057,0.0,0.571,0.571,0.176,86.55,0.106,2014-03-29T00:00:00,6,1610612740,NOP,New Orleans,32-41,15,20,24,21,0,0,0,0,0,0,0,0,0,0,80,0.395,0.813,0.25,16,41,11,0021301092,1610612740,NOP,New Orleans,Luke Babbitt,,,19:22,5.0,3.0,3.0,0.0,6.0,11.0,2.0,14.0,1.0,1.0,1.0,2.0
0021301092,1610612740,NOP,New Orleans,202337,Luke Babbitt,,,19:22,92.2,106.2,-14.0,0.0,0.0,0.0,0.0,0.105,0.057,0.0,0.571,0.571,0.176,86.55,0.106,2014-03-29T00:00:00,6,1610612759,SAS,San Antonio,57-16,28,24,18,26,0,0,0,0,0,0,0,0,0,0,96,0.474,0.65,0.429,24,46,13,0021301092,1610612740,NOP,New Orleans,Luke Babbitt,,,19:22,5.0,3.0,3.0,0.0,6.0,11.0,2.0,14.0,1.0,1.0,1.0,2.0
0021301092,1610612740,NOP,New Orleans,203085,Austin Rivers,,,30:15,96.6,104.4,-7.8,0.214,3.0,13.6,0.077,0.133,0.107,4.5,0.444,0.444,0.307,88.51,0.144,2014-03-29T00:00:00,6,1610612740,NOP,New Orleans,32-41,15,20,24,21,0,0,0,0,0,0,0,0,0,0,80,0.395,0.813,0.25,16,41,11,0021301092,1610612740,NOP,New Orleans,Austin Rivers,,,30:15,0.0,2.0,2.0,14.0,10.0,14.0,8.0,22.0,0.0,3.0,2.0,2.0
0021301092,1610612740,NOP,New Orleans,203085,Austin Rivers,,,30:15,96.6,104.4,-7.8,0.214,3.0,13.6,0.077,0.133,0.107,4.5,0.444,0.444,0.307,88.51,0.144,2014-03-29T00:00:00,6,1610612759,SAS,San Antonio,57-16,28,24,18,26,0,0,0,0,0,0,0,0,0,0,96,0.474,0.65,0.429,24,46,13,0021301092,1610612740,NOP,New Orleans,Austin Rivers,,,30:15,0.0,2.0,2.0,14.0,10.0,14.0,8.0,22.0,0.0,3.0,2.0,2.0
0021301092,1610612740,NOP,New Orleans,203148,Brian Roberts,,,28:41,102.9,96.9,6.0,0.333,0.0,22.4,0.0,0.103,0.056,0.0,0.469,0.52,0.292,88.69,0.179,2014-03-29T00:00:00,6,1610612740,NOP,New Orleans,32-41,15,20,24,21,0,0,0,0,0,0,0,0,0,0,80,0.395,0.813,0.25,16,41,11,0021301092,1610612740,NOP,New Orleans,Brian Roberts,,,28:41,0.0,0.0,0.0,6.0,4.0,11.0,6.0,24.0,0.0,3.0,2.0,3.0
0021301092,1610612740,NOP,New Orleans,203148,Brian Roberts,,,28:41,102.9,96.9,6.0,0.333,0.0,22.4,0.0,0.103,0.056,0.0,0.469,0.52,0.292,88.69,0.179,2014-03-29T00:00:00,6,1610612759,SAS,San Antonio,57-16,28,24,18,26,0,0,0,0,0,0,0,0,0,0,96,0.474,0.65,0.429,24,46,13,0021301092,1610612740,NOP,New Orleans,Brian Roberts,,,28:41,0.0,0.0,0.0,6.0,4.0,11.0,6.0,24.0,0.0,3.0,2.0,3.0
0021301092,1610612740,NOP,New Orleans,203121,Darius Miller,,,24:51,92.3,108.0,-15.7,0.059,0.5,12.5,0.0,0.08,0.04,25.0,0.2,0.2,0.123,92.83,-0.059,2014-03-29T00:00:00,6,1610612740,NOP,New Orleans,32-41,15,20,24,21,0,0,0,0,0,0,0,0,0,0,80,0.395,0.813,0.25,16,41,11,0021301092,1610612740,NOP,New Orleans,Darius Miller,,,24:51,0.0,0.0,0.0,0.0,6.0,9.0,8.0,18.0,0.0,1.0,4.0,0.0
0021301092,1610612740,NOP,New Orleans,203121,Darius Miller,,,24:51,92.3,108.0,-15.7,0.059,0.5,12.5,0.0,0.08,0.04,25.0,0.2,0.2,0.123,92.83,-0.059,2014-03-29T00:00:00,6,1610612759,SAS,San Antonio,57-16,28,24,18,26,0,0,0,0,0,0,0,0,0,0,96,0.474,0.65,0.429,24,46,13,0021301092,1610612740,NOP,New Orleans,Darius Miller,,,24:51,0.0,0.0,0.0,0.0,6.0,9.0,8.0,18.0,0.0,1.0,4.0,0.0
0021301092,1610612740,NOP,New Orleans,203481,Jeff Withey,,,10:45,101.8,115.7,-13.9,0.0,0.0,0.0,0.091,0.154,0.125,21.0,1.0,0.931,0.22,88.23,0.169,2014-03-29T00:00:00,6,1610612740,NOP,New Orleans,32-41,15,20,24,21,0,0,0,0,0,0,0,0,0,0,80,0.395,0.813,0.25,16,41,11,0021301092,1610612740,NOP,New Orleans,Jeff Withey,,,10:45,0.0,0.0,0.0,2.0,2.0,7.0,2.0,8.0,0.0,0.0,0.0,2.0
0021301092,1610612740,NOP,New Orleans,203481,Jeff Withey,,,10:45,101.8,115.7,-13.9,0.0,0.0,0.0,0.091,0.154,0.125,21.0,1.0,0.931,0.22,88.23,0.169,2014-03-29T00:00:00,6,1610612759,SAS,San Antonio,57-16,28,24,18,26,0,0,0,0,0,0,0,0,0,0,96,0.474,0.65,0.429,24,46,13,0021301092,1610612740,NOP,New Orleans,Jeff Withey,,,10:45,0.0,0.0,0.0,2.0,2.0,7.0,2.0,8.0,0.0,0.0,0.0,2.0
0021301092,1610612740,NOP,New Orleans,203076,Anthony Davis,,DNP - Coach's Decision,,,,,,,0.0,,,,,,,0.0,,,2014-03-29T00:00:00,6,1610612740,NOP,New Orleans,32-41,15,20,24,21,0,0,0,0,0,0,0,0,0,0,80,0.395,0.813,0.25,16,41,11,0021301092,1610612740,NOP,New Orleans,Anthony Davis,,DNP - Coach's Decision,,,,,,,,,,,,,
0021301092,1610612740,NOP,New Orleans,203076,Anthony Davis,,DNP - Coach's Decision,,,,,,,0.0,,,,,,,0.0,,,2014-03-29T00:00:00,6,1610612759,SAS,San Antonio,57-16,28,24,18,26,0,0,0,0,0,0,0,0,0,0,96,0.474,0.65,0.429,24,46,13,0021301092,1610612740,NOP,New Orleans,Anthony Davis,,DNP - Coach's Decision,,,,,,,,,,,,,
0021301092,1610612740,NOP,New Orleans,201569,Eric Gordon,,DND - Left knee tendonitis,,,,,,,0.0,,,,,,,0.0,,,2014-03-29T00:00:00,6,1610612740,NOP,New Orleans,32-41,15,20,24,21,0,0,0,0,0,0,0,0,0,0,80,0.395,0.813,0.25,16,41,11,0021301092,1610612740,NOP,New Orleans,Eric Gordon,,DND - Left knee tendonitis,,,,,,,,,,,,,
0021301092,1610612740,NOP,New Orleans,201569,Eric Gordon,,DND - Left knee tendonitis,,,,,,,0.0,,,,,,,0.0,,,2014-03-29T00:00:00,6,1610612759,SAS,San Antonio,57-16,28,24,18,26,0,0,0,0,0,0,0,0,0,0,96,0.474,0.65,0.429,24,46,13,0021301092,1610612740,NOP,New Orleans,Eric Gordon,,DND - Left knee tendonitis,,,,,,,,,,,,,
0021301092,1610612740,NOP,New Orleans,201160,Jason Smith,,DND - Right knee cartilage,,,,,,,0.0,,,,,,,0.0,,,2014-03-29T00:00:00,6,1610612740,NOP,New Orleans,32-41,15,20,24,21,0,0,0,0,0,0,0,0,0,0,80,0.395,0.813,0.25,16,41,11,0021301092,1610612740,NOP,New Orleans,Jason Smith,,DND - Right knee cartilage,,,,,,,,,,,,,
0021301092,1610612740,NOP,New Orleans,201160,Jason Smith,,DND - Right knee cartilage,,,,,,,0.0,,,,,,,0.0,,,2014-03-29T00:00:00,6,1610612759,SAS,San Antonio,57-16,28,24,18,26,0,0,0,0,0,0,0,0,0,0,96,0.474,0.65,0.429,24,46,13,0021301092,1610612740,NOP,New Orleans,Jason Smith,,DND - Right knee cartilage,,,,,,,,,,,,,
0021301092,1610612759,SAS,San Antonio,202695,Kawhi Leonard,F,,22:36,106.9,78.6,28.3,0.133,0.0,14.7,0.0,0.2,0.111,0.0,0.556,0.644,0.248,93.96,0.216,2014-03-29T00:00:00,6,1610612740,NOP,New Orleans,32-41,15,20,24,21,0,0,0,0,0,0,0,0,0,0,80,0.395,0.813,0.25,16,41,11,0021301092,1610612759,SAS,San Antonio,Kawhi Leonard,F,,22:36,2.0,2.0,4.0,4.0,3.0,5.0,3.0,16.0,1.0,0.0,1.0,3.0
0021301092,1610612759,SAS,San Antonio,202695,Kawhi Leonard,F,,22:36,106.9,78.6,28.3,0.133,0.0,14.7,0.0,0.2,0.111,0.0,0.556,0.644,0.248,93.96,0.216,2014-03-29T00:00:00,6,1610612759,SAS,San Antonio,57-16,28,24,18,26,0,0,0,0,0,0,0,0,0,0,96,0.474,0.65,0.429,24,46,13,0021301092,1610612759,SAS,San Antonio,Kawhi Leonard,F,,22:36,2.0,2.0,4.0,4.0,3.0,5.0,3.0,16.0,1.0,0.0,1.0,3.0
0021301092,1610612759,SAS,San Antonio,1495,Tim Duncan,F,,25:28,111.9,57.1,54.7,0.333,2.0,29.7,0.1,0.231,0.174,14.9,0.556,0.536,0.263,97.52,0.221,2014-03-29T00:00:00,6,1610612740,NOP,New Orleans,32-41,15,20,24,21,0,0,0,0,0,0,0,0,0,0,80,0.395,0.813,0.25,16,41,11,0021301092,1610612759,SAS,San Antonio,Tim Duncan,F,,25:28,1.0,2.0,4.0,10.0,1.0,0.0,3.0,16.0,4.0,0.0,0.0,3.0
0021301092,1610612759,SAS,San Antonio,1495,Tim Duncan,F,,25:28,111.9,57.1,54.7,0.333,2.0,29.7,0.1,0.231,0.174,14.9,0.556,0.536,0.263,97.52,0.221,2014-03-29T00:00:00,6,1610612759,SAS,San Antonio,57-16,28,24,18,26,0,0,0,0,0,0,0,0,0,0,96,0.474,0.65,0.429,24,46,13,0021301092,1610612759,SAS,San Antonio,Tim Duncan,F,,25:28,1.0,2.0,4.0,10.0,1.0,0.0,3.0,16.0,4.0,0.0,0.0,3.0
0021301092,1610612759,SAS,San Antonio,2564,Boris Diaw,C,,24:14,108.7,72.4,36.3,0.0,0.0,0.0,0.059,0.111,0.091,27.3,0.375,0.375,0.221,97.99,0.006,2014-03-29T00:00:00,6,1610612740,NOP,New Orleans,32-41,15,20,24,21,0,0,0,0,0,0,0,0,0,0,80,0.395,0.813,0.25,16,41,11,0021301092,1610612759,SAS,San Antonio,Boris Diaw,C,,24:14,2.0,0.0,0.0,4.0,1.0,0.0,1.0,22.0,2.0,0.0,2.0,0.0
0021301092,1610612759,SAS,San Antonio,2564,Boris Diaw,C,,24:14,108.7,72.4,36.3,0.0,0.0,0.0,0.059,0.111,0.091,27.3,0.375,0.375,0.221,97.99,0.006,2014-03-29T00:00:00,6,1610612759,SAS,San Antonio,57-16,28,24,18,26,0,0,0,0,0,0,0,0,0,0,96,0.474,0.65,0.429,24,46,13,0021301092,1610612759,SAS,San Antonio,Boris Diaw,C,,24:14,2.0,0.0,0.0,4.0,1.0,0.0,1.0,22.0,2.0,0.0,2.0,0.0
0021301092,1610612759,SAS,San Antonio,201158,Marco Belinelli,G,,32:09,108.4,73.5,34.9,0.211,4.0,25.0,0.0,0.061,0.035,6.3,0.818,0.818,0.18,96.57,0.182,2014-03-29T00:00:00,6,1610612740,NOP,New Orleans,32-41,15,20,24,21,0,0,0,0,0,0,0,0,0,0,80,0.395,0.813,0.25,16,41,11,0021301092,1610612759,SAS,San Antonio,Marco Belinelli,G,,32:09,9.0,2.0,3.0,4.0,6.0,2.0,6.0,24.0,1.0,0.0,2.0,1.0
0021301092,1610612759,SAS,San Antonio,201158,Marco Belinelli,G,,32:09,108.4,73.5,34.9,0.211,4.0,25.0,0.0,0.061,0.035,6.3,0.818,0.818,0.18,96.57,0.182,2014-03-29T00:00:00,6,1610612759,SAS,San Antonio,57-16,28,24,18,26,0,0,0,0,0,0,0,0,0,0,96,0.474,0.65,0.429,24,46,13,0021301092,1610612759,SAS,San Antonio,Marco Belinelli,G,,32:09,9.0,2.0,3.0,4.0,6.0,2.0,6.0,24.0,1.0,0.0,2.0,1.0
0021301092,1610612759,SAS,San Antonio,2225,Tony Parker,G,,23:05,108.1,71.6,36.4,0.143,0.0,37.5,0.0,0.227,0.135,0.0,0.2,0.2,0.104,96.98,0.065,2014-03-29T00:00:00,6,1610612740,NOP,New Orleans,32-41,15,20,24,21,0,0,0,0,0,0,0,0,0,0,80,0.395,0.813,0.25,16,41,11,0021301092,1610612759,SAS,San Antonio,Tony Parker,G,,23:05,2.0,0.0,2.0,2.0,1.0,0.0,3.0,18.0,0.0,0.0,2.0,3.0
0021301092,1610612759,SAS,San Antonio,2225,Tony Parker,G,,23:05,108.1,71.6,36.4,0.143,0.0,37.5,0.0,0.227,0.135,0.0,0.2,0.2,0.104,96.98,0.065,2014-03-29T00:00:00,6,1610612759,SAS,San Antonio,57-16,28,24,18,26,0,0,0,0,0,0,0,0,0,0,96,0.474,0.65,0.429,24,46,13,0021301092,1610612759,SAS,San Antonio,Tony Parker,G,,23:05,2.0,0.0,2.0,2.0,1.0,0.0,3.0,18.0,0.0,0.0,2.0,3.0
0021301092,1610612759,SAS,San Antonio,1938,Manu Ginobili,,,20:54,98.5,64.2,34.3,0.4,2.0,24.3,0.0,0.294,0.152,12.2,0.7,0.718,0.285,97.93,0.446,2014-03-29T00:00:00,6,1610612740,NOP,New Orleans,32-41,15,20,24,21,0,0,0,0,0,0,0,0,0,0,80,0.395,0.813,0.25,16,41,11,0021301092,1610612759,SAS,San Antonio,Manu Ginobili,,,20:54,0.0,2.0,4.0,14.0,3.0,0.0,5.0,12.0,1.0,1.0,0.0,2.0
0021301092,1610612759,SAS,San Antonio,1938,Manu Ginobili,,,20:54,98.5,64.2,34.3,0.4,2.0,24.3,0.0,0.294,0.152,12.2,0.7,0.718,0.285,97.93,0.446,2014-03-29T00:00:00,6,1610612759,SAS,San Antonio,57-16,28,24,18,26,0,0,0,0,0,0,0,0,0,0,96,0.474,0.65,0.429,24,46,13,0021301092,1610612759,SAS,San Antonio,Manu Ginobili,,,20:54,0.0,2.0,4.0,14.0,3.0,0.0,5.0,12.0,1.0,1.0,0.0,2.0
0021301092,1610612759,SAS,San Antonio,201965,Jeff Ayres,,,17:05,109.1,126.2,-17.1,0.222,2.0,20.2,0.133,0.091,0.115,10.1,0.667,0.654,0.23,81.26,0.111,2014-03-29T00:00:00,6,1610612740,NOP,New Orleans,32-41,15,20,24,21,0,0,0,0,0,0,0,0,0,0,80,0.395,0.813,0.25,16,41,11,0021301092,1610612759,SAS,San Antonio,Jeff Ayres,,,17:05,0.0,3.0,0.0,6.0,7.0,3.0,5.0,12.0,1.0,1.0,3.0,1.0
0021301092,1610612759,SAS,San Antonio,201965,Jeff Ayres,,,17:05,109.1,126.2,-17.1,0.222,2.0,20.2,0.133,0.091,0.115,10.1,0.667,0.654,0.23,81.26,0.111,2014-03-29T00:00:00,6,1610612759,SAS,San Antonio,57-16,28,24,18,26,0,0,0,0,0,0,0,0,0,0,96,0.474,0.65,0.429,24,46,13,0021301092,1610612759,SAS,San Antonio,Jeff Ayres,,,17:05,0.0,3.0,0.0,6.0,7.0,3.0,5.0,12.0,1.0,1.0,3.0,1.0
0021301092,1610612759,SAS,San Antonio,201948,Austin Daye,,,17:19,102.6,135.7,-33.1,0.0,0.0,0.0,0.0,0.167,0.067,33.3,0.0,0.0,0.081,78.62,-0.017,2014-03-29T00:00:00,6,1610612740,NOP,New Orleans,32-41,15,20,24,21,0,0,0,0,0,0,0,0,0,0,80,0.395,0.813,0.25,16,41,11,0021301092,1610612759,SAS,San Antonio,Austin Daye,,,17:19,0.0,0.0,0.0,0.0,7.0,3.0,5.0,10.0,0.0,0.0,0.0,0.0
0021301092,1610612759,SAS,San Antonio,201948,Austin Daye,,,17:19,102.6,135.7,-33.1,0.0,0.0,0.0,0.0,0.167,0.067,33.3,0.0,0.0,0.081,78.62,-0.017,2014-03-29T00:00:00,6,1610612759,SAS,San Antonio,57-16,28,24,18,26,0,0,0,0,0,0,0,0,0,0,96,0.474,0.65,0.429,24,46,13,0021301092,1610612759,SAS,San Antonio,Austin Daye,,,17:19,0.0,0.0,0.0,0.0,7.0,3.0,5.0,10.0,0.0,0.0,0.0,0.0
0021301092,1610612759,SAS,San Antonio,201988,Patty Mills,,,24:55,103.2,98.0,5.2,0.0,0.0,0.0,0.074,0.0,0.04,7.8,0.5,0.547,0.25,88.19,0.039,2014-03-29T00:00:00,6,1610612740,NOP,New Orleans,32-41,15,20,24,21,0,0,0,0,0,0,0,0,0,0,80,0.395,0.813,0.25,16,41,11,0021301092,1610612759,SAS,San Antonio,Patty Mills,,,24:55,0.0,3.0,0.0,0.0,7.0,5.0,5.0,18.0,0.0,0.0,4.0,4.0
0021301092,1610612759,SAS,San Antonio,201988,Patty Mills,,,24:55,103.2,98.0,5.2,0.0,0.0,0.0,0.074,0.0,0.04,7.8,0.5,0.547,0.25,88.19,0.039,2014-03-29T00:00:00,6,1610612759,SAS,San Antonio,57-16,28,24,18,26,0,0,0,0,0,0,0,0,0,0,96,0.474,0.65,0.429,24,46,13,0021301092,1610612759,SAS,San Antonio,Patty Mills,,,24:55,0.0,3.0,0.0,0.0,7.0,5.0,5.0,18.0,0.0,0.0,4.0,4.0
0021301092,1610612759,SAS,San Antonio,202709,Cory Joseph,,,23:22,109.6,102.3,7.2,0.2,0.0,34.2,0.038,0.2,0.109,0.0,0.0,0.174,0.12,87.42,0.032,2014-03-29T00:00:00,6,1610612740,NOP,New Orleans,32-41,15,20,24,21,0,0,0,0,0,0,0,0,0,0,80,0.395,0.813,0.25,16,41,11,0021301092,1610612759,SAS,San Antonio,Cory Joseph,,,23:22,0.0,0.0,1.0,0.0,4.0,5.0,2.0,20.0,0.0,0.0,1.0,2.0
0021301092,1610612759,SAS,San Antonio,202709,Cory Joseph,,,23:22,109.6,102.3,7.2,0.2,0.0,34.2,0.038,0.2,0.109,0.0,0.0,0.174,0.12,87.42,0.032,2014-03-29T00:00:00,6,1610612759,SAS,San Antonio,57-16,28,24,18,26,0,0,0,0,0,0,0,0,0,0,96,0.474,0.65,0.429,24,46,13,0021301092,1610612759,SAS,San Antonio,Cory Joseph,,,23:22,0.0,0.0,1.0,0.0,4.0,5.0,2.0,20.0,0.0,0.0,1.0,2.0
0021301092,1610612759,SAS,San Antonio,203382,Aron Baynes,,,8:53,73.2,129.5,-56.3,0.0,0.0,0.0,0.083,0.444,0.238,25.0,0.667,0.667,0.217,92.24,0.19,2014-03-29T00:00:00,6,1610612740,NOP,New Orleans,32-41,15,20,24,21,0,0,0,0,0,0,0,0,0,0,80,0.395,0.813,0.25,16,41,11,0021301092,1610612759,SAS,San Antonio,Aron Baynes,,,8:53,0.0,0.0,0.0,4.0,0.0,2.0,2.0,12.0,1.0,0.0,1.0,0.0
0021301092,1610612759,SAS,San Antonio,203382,Aron Baynes,,,8:53,73.2,129.5,-56.3,0.0,0.0,0.0,0.083,0.444,0.238,25.0,0.667,0.667,0.217,92.24,0.19,2014-03-29T00:00:00,6,1610612759,SAS,San Antonio,57-16,28,24,18,26,0,0,0,0,0,0,0,0,0,0,96,0.474,0.65,0.429,24,46,13,0021301092,1610612759,SAS,San Antonio,Aron Baynes,,,8:53,0.0,0.0,0.0,4.0,0.0,2.0,2.0,12.0,1.0,0.0,1.0,0.0
0021301092,1610612759,SAS,San Antonio,201980,Danny Green,,DND - Right foot inflammation,,,,,,,0.0,,,,,,,0.0,,,2014-03-29T00:00:00,6,1610612740,NOP,New Orleans,32-41,15,20,24,21,0,0,0,0,0,0,0,0,0,0,80,0.395,0.813,0.25,16,41,11,0021301092,1610612759,SAS,San Antonio,Danny Green,,DND - Right foot inflammation,,,,,,,,,,,,,
0021301092,1610612759,SAS,San Antonio,201980,Danny Green,,DND - Right foot inflammation,,,,,,,0.0,,,,,,,0.0,,,2014-03-29T00:00:00,6,1610612759,SAS,San Antonio,57-16,28,24,18,26,0,0,0,0,0,0,0,0,0,0,96,0.474,0.65,0.429,24,46,13,0021301092,1610612759,SAS,San Antonio,Danny Green,,DND - Right foot inflammation,,,,,,,,,,,,,
0021301092,1610612759,SAS,San Antonio,201168,Tiago Splitter,,DNP - Coach's Decision,,,,,,,0.0,,,,,,,0.0,,,2014-03-29T00:00:00,6,1610612740,NOP,New Orleans,32-41,15,20,24,21,0,0,0,0,0,0,0,0,0,0,80,0.395,0.813,0.25,16,41,11,0021301092,1610612759,SAS,San Antonio,Tiago Splitter,,DNP - Coach's Decision,,,,,,,,,,,,,
0021301092,1610612759,SAS,San Antonio,201168,Tiago Splitter,,DNP - Coach's Decision,,,,,,,0.0,,,,,,,0.0,,,2014-03-29T00:00:00,6,1610612759,SAS,San Antonio,57-16,28,24,18,26,0,0,0,0,0,0,0,0,0,0,96,0.474,0.65,0.429,24,46,13,0021301092,1610612759,SAS,San Antonio,Tiago Splitter,,DNP - Coach's Decision,,,,,,,,,,,,,
