GAME_ID_x,TEAM_ID_x,TEAM_ABBREVIATION_x,TEAM_CITY_x,PLAYER_ID,PLAYER_NAME_x,START_POSITION_x,COMMENT_x,MIN_x,OFF_RATING,DEF_RATING,NET_RATING,AST_PCT,AST_TOV,AST_RATIO,OREB_PCT,DREB_PCT,REB_PCT,TM_TOV_PCT,EFG_PCT,TS_PCT,USG_PCT,PACE,PIE,GAME_DATE_EST,GAME_SEQUENCE,TEAM_ABBREVIATION_y,TEAM_CITY_NAME,TEAM_WINS_LOSSES,PTS_QTR1,PTS_QTR2,PTS_QTR3,PTS_QTR4,PTS_OT1,PTS_OT2,PTS_OT3,PTS_OT4,PTS_OT5,PTS_OT6,PTS_OT7,PTS_OT8,PTS_OT9,PTS_OT10,PTS,FG_PCT,FT_PCT,FG3_PCT,AST,REB,TOV,GAME_ID_y,TEAM_ID_y,TEAM_ABBREVIATION,TEAM_CITY_y,PLAYER_NAME_y,START_POSITION_y,COMMENT_y,MIN_y,PTS_OFF_TOV,PTS_2ND_CHANCE,PTS_FB,PTS_PAINT,OPP_PTS_OFF_TOV,OPP_PTS_2ND_CHANCE,OPP_PTS_FB,OPP_PTS_PAINT,BLK,BLKA,PF,PFD
0041500407,1610612739,CLE,Cleveland,2544,LeBron James,F,,46:49,96.5,96.8,-0.3,0.458,2.2,24.8,0.026,0.222,0.133,11.3,0.396,0.475,0.333,93.33,0.19,2016-06-19T00:00:00,1,CLE,Cleveland,4-3,23,19,33,18,0,0,0,0,0,0,0,0,0,0,93,0.402,0.84,0.24,17,48,11,0041500407,1610612739,CLE,Cleveland,LeBron James,F,,46:49,5.0,1.0,4.0,14.0,10.0,6.0,7.0,26.0,3.0,2.0,1.0,7.0
0041500407,1610612739,CLE,Cleveland,201567,Kevin Love,F,,30:02,111.0,83.5,27.5,0.15,3.0,20.3,0.167,0.333,0.259,6.8,0.333,0.418,0.174,92.51,0.18,2016-06-19T00:00:00,1,CLE,Cleveland,4-3,23,19,33,18,0,0,0,0,0,0,0,0,0,0,93,0.402,0.84,0.24,17,48,11,0041500407,1610612739,CLE,Cleveland,Kevin Love,F,,30:02,0.0,7.0,0.0,6.0,5.0,2.0,5.0,14.0,0.0,0.0,2.0,4.0
0041500407,1610612739,CLE,Cleveland,202684,Tristan Thompson,C,,31:49,97.9,94.9,3.1,0.0,0.0,0.0,0.0,0.1,0.054,0.0,1.0,0.945,0.072,93.92,0.073,2016-06-19T00:00:00,1,CLE,Cleveland,4-3,23,19,33,18,0,0,0,0,0,0,0,0,0,0,93,0.402,0.84,0.24,17,48,11,0041500407,1610612739,CLE,Cleveland,Tristan Thompson,C,,31:49,0.0,1.0,0.0,6.0,2.0,6.0,7.0,18.0,2.0,0.0,4.0,2.0
0041500407,1610612739,CLE,Cleveland,2747,JR Smith,G,,38:55,105.1,101.4,3.7,0.087,1.0,11.8,0.0,0.105,0.057,11.8,0.462,0.462,0.174,94.95,0.043,2016-06-19T00:00:00,1,CLE,Cleveland,4-3,23,19,33,18,0,0,0,0,0,0,0,0,0,0,93,0.402,0.84,0.24,17,48,11,0041500407,1610612739,CLE,Cleveland,JR Smith,G,,38:55,0.0,2.0,2.0,4.0,8.0,4.0,7.0,22.0,0.0,1.0,3.0,0.0
0041500407,1610612739,CLE,Cleveland,202681,Kyrie Irving,G,,43:00,101.2,94.2,6.9,0.05,0.5,3.6,0.086,0.071,0.078,7.2,0.478,0.525,0.285,93.61,0.109,2016-06-19T00:00:00,1,CLE,Cleveland,4-3,23,19,33,18,0,0,0,0,0,0,0,0,0,0,93,0.402,0.84,0.24,17,48,11,0041500407,1610612739,CLE,Cleveland,Kyrie Irving,G,,43:00,7.0,2.0,8.0,14.0,10.0,4.0,7.0,26.0,1.0,1.0,3.0,6.0
0041500407,1610612739,CLE,Cleveland,2210,Richard Jefferson,,,25:30,87.9,112.8,-24.9,0.0,0.0,0.0,0.042,0.364,0.196,0.0,0.25,0.25,0.073,90.44,0.091,2016-06-19T00:00:00,1,CLE,Cleveland,4-3,23,19,33,18,0,0,0,0,0,0,0,0,0,0,93,0.402,0.84,0.24,17,48,11,0041500407,1610612739,CLE,Cleveland,Richard Jefferson,,,25:30,2.0,0.0,2.0,2.0,10.0,4.0,2.0,18.0,0.0,1.0,1.0,1.0
0041500407,1610612739,CLE,Cleveland,202697,Iman Shumpert,,,19:10,81.2,101.2,-20.1,0.0,0.0,0.0,0.0,0.053,0.026,0.0,0.5,0.694,0.103,94.53,0.103,2016-06-19T00:00:00,1,CLE,Cleveland,4-3,23,19,33,18,0,0,0,0,0,0,0,0,0,0,93,0.402,0.84,0.24,17,48,11,0041500407,1610612739,CLE,Cleveland,Iman Shumpert,,,19:10,0.0,4.0,0.0,0.0,5.0,2.0,0.0,12.0,0.0,0.0,0.0,3.0
0041500407,1610612739,CLE,Cleveland,2590,Mo Williams,,,4:45,50.0,90.0,-40.0,0.0,0.0,0.0,0.0,0.0,0.0,25.0,0.333,0.333,0.444,90.95,-0.235,2016-06-19T00:00:00,1,CLE,Cleveland,4-3,23,19,33,18,0,0,0,0,0,0,0,0,0,0,93,0.402,0.84,0.24,17,48,11,0041500407,1610612739,CLE,Cleveland,Mo Williams,,,4:45,2.0,0.0,2.0,2.0,0.0,2.0,0.0,4.0,0.0,0.0,1.0,0.0
0041500407,1610612739,CLE,Cleveland,203521,Matthew Dellavedova,,DNP - Coach's Decision                  ,,,,,,,0.0,,,,,,,0.0,,,2016-06-19T00:00:00,1,CLE,Cleveland,4-3,23,19,33,18,0,0,0,0,0,0,0,0,0,0,93,0.402,0.84,0.24,17,48,11,0041500407,1610612739,CLE,Cleveland,Matthew Dellavedova,,DNP - Coach's Decision                  ,,,,,,,,,,,,,
0041500407,1610612739,CLE,Cleveland,101112,Channing Frye,,DNP - Coach's Decision                  ,,,,,,,0.0,,,,,,,0.0,,,2016-06-19T00:00:00,1,CLE,Cleveland,4-3,23,19,33,18,0,0,0,0,0,0,0,0,0,0,93,0.402,0.84,0.24,17,48,11,0041500407,1610612739,CLE,Cleveland,Channing Frye,,DNP - Coach's Decision                  ,,,,,,,,,,,,,
0041500407,1610612739,CLE,Cleveland,2563,Dahntay Jones,,DNP - Coach's Decision                  ,,,,,,,0.0,,,,,,,0.0,,,2016-06-19T00:00:00,1,CLE,Cleveland,4-3,23,19,33,18,0,0,0,0,0,0,0,0,0,0,93,0.402,0.84,0.24,17,48,11,0041500407,1610612739,CLE,Cleveland,Dahntay Jones,,DNP - Coach's Decision                  ,,,,,,,,,,,,,
0041500407,1610612739,CLE,Cleveland,2592,James Jones,,DNP - Coach's Decision                  ,,,,,,,0.0,,,,,,,0.0,,,2016-06-19T00:00:00,1,CLE,Cleveland,4-3,23,19,33,18,0,0,0,0,0,0,0,0,0,0,93,0.402,0.84,0.24,17,48,11,0041500407,1610612739,CLE,Cleveland,James Jones,,DNP - Coach's Decision                  ,,,,,,,,,,,,,
0041500407,1610612739,CLE,Cleveland,202389,Timofey Mozgov,,DNP - Coach's Decision                  ,,,,,,,0.0,,,,,,,0.0,,,2016-06-19T00:00:00,1,CLE,Cleveland,4-3,23,19,33,18,0,0,0,0,0,0,0,0,0,0,93,0.402,0.84,0.24,17,48,11,0041500407,1610612739,CLE,Cleveland,Timofey Mozgov,,DNP - Coach's Decision                  ,,,,,,,,,,,,,
0041500407,1610612744,GSW,Golden State,203084,Harrison Barnes,F,,29:24,101.4,105.6,-4.2,0.067,0.0,8.4,0.0,0.08,0.038,0.0,0.4,0.46,0.197,89.89,0.028,2016-06-19T00:00:00,1,GSW,Golden State,3-4,22,27,27,13,0,0,0,0,0,0,0,0,0,0,89,0.386,0.769,0.366,22,39,10,0041500407,1610612744,GSW,Golden State,Harrison Barnes,F,,29:24,0.0,0.0,0.0,2.0,6.0,16.0,8.0,32.0,0.0,0.0,4.0,1.0
0041500407,1610612744,GSW,Golden State,203110,Draymond Green,F,,46:54,98.0,95.5,2.5,0.429,4.5,32.4,0.023,0.359,0.181,7.2,0.933,0.955,0.194,93.69,0.321,2016-06-19T00:00:00,1,GSW,Golden State,3-4,22,27,27,13,0,0,0,0,0,0,0,0,0,0,89,0.386,0.769,0.366,22,39,10,0041500407,1610612744,GSW,Golden State,Draymond Green,F,,46:54,0.0,4.0,0.0,10.0,16.0,15.0,18.0,48.0,0.0,0.0,3.0,3.0
0041500407,1610612744,GSW,Golden State,203105,Festus Ezeli,C,,10:45,89.5,122.0,-32.5,0.143,0.0,20.0,0.0,0.111,0.05,0.0,0.0,0.0,0.19,90.02,-0.093,2016-06-19T00:00:00,1,GSW,Golden State,3-4,22,27,27,13,0,0,0,0,0,0,0,0,0,0,89,0.386,0.769,0.366,22,39,10,0041500407,1610612744,GSW,Golden State,Festus Ezeli,C,,10:45,0.0,0.0,0.0,0.0,5.0,2.0,2.0,12.0,0.0,2.0,2.0,1.0
0041500407,1610612744,GSW,Golden State,202691,Klay Thompson,G,,42:17,85.9,97.0,-11.2,0.1,0.67,9.1,0.024,0.029,0.026,13.6,0.412,0.412,0.229,93.64,0.02,2016-06-19T00:00:00,1,GSW,Golden State,3-4,22,27,27,13,0,0,0,0,0,0,0,0,0,0,89,0.386,0.769,0.366,22,39,10,0041500407,1610612744,GSW,Golden State,Klay Thompson,G,,42:17,2.0,0.0,3.0,4.0,16.0,13.0,18.0,46.0,0.0,0.0,2.0,0.0
0041500407,1610612744,GSW,Golden State,201939,Stephen Curry,G,,39:16,101.5,102.4,-0.9,0.091,0.5,7.9,0.0,0.152,0.071,15.7,0.421,0.437,0.286,95.32,0.033,2016-06-19T00:00:00,1,GSW,Golden State,3-4,22,27,27,13,0,0,0,0,0,0,0,0,0,0,89,0.386,0.769,0.366,22,39,10,0041500407,1610612744,GSW,Golden State,Stephen Curry,G,,39:16,3.0,0.0,2.0,4.0,14.0,13.0,16.0,38.0,1.0,1.0,4.0,3.0
0041500407,1610612744,GSW,Golden State,2738,Andre Iguodala,,,37:53,96.8,91.1,5.8,0.174,0.0,36.8,0.056,0.219,0.132,0.0,0.333,0.291,0.088,92.39,0.091,2016-06-19T00:00:00,1,GSW,Golden State,3-4,22,27,27,13,0,0,0,0,0,0,0,0,0,0,89,0.386,0.769,0.366,22,39,10,0041500407,1610612744,GSW,Golden State,Andre Iguodala,,,37:53,0.0,0.0,0.0,4.0,12.0,11.0,14.0,34.0,2.0,1.0,3.0,3.0
0041500407,1610612744,GSW,Golden State,2760,Anderson Varejao,,,8:29,78.3,125.8,-47.5,0.2,0.0,34.7,0.0,0.0,0.0,0.0,0.0,0.266,0.1,102.38,-0.118,2016-06-19T00:00:00,1,GSW,Golden State,3-4,22,27,27,13,0,0,0,0,0,0,0,0,0,0,89,0.386,0.769,0.366,22,39,10,0041500407,1610612744,GSW,Golden State,Anderson Varejao,,,8:29,0.0,0.0,0.0,0.0,5.0,3.0,8.0,10.0,0.0,1.0,3.0,2.0
0041500407,1610612744,GSW,Golden State,2733,Shaun Livingston,,,16:04,122.0,87.6,34.3,0.222,2.0,18.4,0.077,0.0,0.034,9.2,0.429,0.508,0.273,91.88,0.088,2016-06-19T00:00:00,1,GSW,Golden State,3-4,22,27,27,13,0,0,0,0,0,0,0,0,0,0,89,0.386,0.769,0.366,22,39,10,0041500407,1610612744,GSW,Golden State,Shaun Livingston,,,16:04,2.0,2.0,2.0,4.0,4.0,12.0,4.0,14.0,0.0,0.0,1.0,1.0
0041500407,1610612744,GSW,Golden State,2571,Leandro Barbosa,,,4:24,130.3,65.2,65.1,0.0,0.0,0.0,0.0,0.0,0.0,0.0,0.75,0.75,0.237,96.15,0.065,2016-06-19T00:00:00,1,GSW,Golden State,3-4,22,27,27,13,0,0,0,0,0,0,0,0,0,0,89,0.386,0.769,0.366,22,39,10,0041500407,1610612744,GSW,Golden State,Leandro Barbosa,,,4:24,3.0,0.0,0.0,0.0,0.0,0.0,0.0,2.0,0.0,1.0,1.0,0.0
0041500407,1610612744,GSW,Golden State,201578,Marreese Speights,,,4:34,70.0,50.0,20.0,0.0,0.0,0.0,0.4,0.333,0.364,0.0,0.0,0.0,0.154,94.6,0.5,2016-06-19T00:00:00,1,GSW,Golden State,3-4,22,27,27,13,0,0,0,0,0,0,0,0,0,0,89,0.386,0.769,0.366,22,39,10,0041500407,1610612744,GSW,Golden State,Marreese Speights,,,4:34,0.0,0.0,0.0,0.0,2.0,0.0,2.0,4.0,2.0,0.0,0.0,1.0
0041500407,1610612744,GSW,Golden State,203546,Ian Clark,,DNP - Coach's Decision                  ,,,,,,,0.0,,,,,,,0.0,,,2016-06-19T00:00:00,1,GSW,Golden State,3-4,22,27,27,13,0,0,0,0,0,0,0,0,0,0,89,0.386,0.769,0.366,22,39,10,0041500407,1610612744,GSW,Golden State,Ian Clark,,DNP - Coach's Decision                  ,,,,,,,,,,,,,
0041500407,1610612744,GSW,Golden State,203949,James Michael McAdoo,,DNP - Coach's Decision                  ,,,,,,,0.0,,,,,,,0.0,,,2016-06-19T00:00:00,1,GSW,Golden State,3-4,22,27,27,13,0,0,0,0,0,0,0,0,0,0,89,0.386,0.769,0.366,22,39,10,0041500407,1610612744,GSW,Golden State,James Michael McAdoo,,DNP - Coach's Decision                  ,,,,,,,,,,,,,
0041500407,1610612744,GSW,Golden State,201575,Brandon Rush,,DNP - Coach's Decision                  ,,,,,,,0.0,,,,,,,0.0,,,2016-06-19T00:00:00,1,GSW,Golden State,3-4,22,27,27,13,0,0,0,0,0,0,0,0,0,0,89,0.386,0.769,0.366,22,39,10,0041500407,1610612744,GSW,Golden State,Brandon Rush,,DNP - Coach's Decision                  ,,,,,,,,,,,,,
