GAME_ID_x,TEAM_ID_x,TEAM_ABBREVIATION_x,TEAM_CITY_x,PLAYER_ID,PLAYER_NAME_x,START_POSITION_x,COMMENT_x,MIN_x,OFF_RATING,DEF_RATING,NET_RATING,AST_PCT,AST_TOV,AST_RATIO,OREB_PCT,DREB_PCT,REB_PCT,TM_TOV_PCT,EFG_PCT,TS_PCT,USG_PCT,PACE,PIE,GAME_DATE_EST,GAME_SEQUENCE,TEAM_ID_y,TEAM_ABBREVIATION_y,TEAM_CITY_NAME,TEAM_WINS_LOSSES,PTS_QTR1,PTS_QTR2,PTS_QTR3,PTS_QTR4,PTS_OT1,PTS_OT2,PTS_OT3,PTS_OT4,PTS_OT5,PTS_OT6,PTS_OT7,PTS_OT8,PTS_OT9,PTS_OT10,PTS,FG_PCT,FT_PCT,FG3_PCT,AST,REB,TOV,GAME_ID_y,TEAM_ID,TEAM_ABBREVIATION,TEAM_CITY_y,PLAYER_NAME_y,START_POSITION_y,COMMENT_y,MIN_y,PTS_OFF_TOV,PTS_2ND_CHANCE,PTS_FB,PTS_PAINT,OPP_PTS_OFF_TOV,OPP_PTS_2ND_CHANCE,OPP_PTS_FB,OPP_PTS_PAINT,BLK,BLKA,PF,PFD
0021301127,1610612759,SAS,San Antonio,202695,Kawhi Leonard,F,,28:41,102.6,102.5,0.1,0.188,1.5,15.0,0.0,0.095,0.043,10.0,0.567,0.567,0.256,101.15,0.124,2014-04-03T00:00:00,1,1610612759,SAS,San Antonio,59-17,24,27,20,23,0,0,0,0,0,0,0,0,0,0,94,0.432,0.75,0.409,18,42,18,0021301127,1610612759,SAS,San Antonio,Kawhi Leonard,F,,28:41,4.0,0.0,4.0,8.0,19.0,7.0,17.0,28.0,0.0,1.0,4.0,0.0
0021301127,1610612759,SAS,San Antonio,202695,Kawhi Leonard,F,,28:41,102.6,102.5,0.1,0.188,1.5,15.0,0.0,0.095,0.043,10.0,0.567,0.567,0.256,101.15,0.124,2014-04-03T00:00:00,1,1610612760,OKC,Oklahoma City,55-19,22,26,32,26,0,0,0,0,0,0,0,0,0,0,106,0.494,0.87,0.333,18,39,13,0021301127,1610612759,SAS,San Antonio,Kawhi Leonard,F,,28:41,4.0,0.0,4.0,8.0,19.0,7.0,17.0,28.0,0.0,1.0,4.0,0.0
0021301127,1610612759,SAS,San Antonio,1495,Tim Duncan,F,,28:16,89.7,107.4,-17.7,0.067,0.0,5.1,0.069,0.261,0.154,0.0,0.333,0.459,0.277,95.67,0.149,2014-04-03T00:00:00,1,1610612759,SAS,San Antonio,59-17,24,27,20,23,0,0,0,0,0,0,0,0,0,0,94,0.432,0.75,0.409,18,42,18,0021301127,1610612759,SAS,San Antonio,Tim Duncan,F,,28:16,2.0,0.0,0.0,8.0,14.0,9.0,17.0,20.0,2.0,1.0,2.0,6.0
0021301127,1610612759,SAS,San Antonio,1495,Tim Duncan,F,,28:16,89.7,107.4,-17.7,0.067,0.0,5.1,0.069,0.261,0.154,0.0,0.333,0.459,0.277,95.67,0.149,2014-04-03T00:00:00,1,1610612760,OKC,Oklahoma City,55-19,22,26,32,26,0,0,0,0,0,0,0,0,0,0,106,0.494,0.87,0.333,18,39,13,0021301127,1610612759,SAS,San Antonio,Tim Duncan,F,,28:16,2.0,0.0,0.0,8.0,14.0,9.0,17.0,20.0,2.0,1.0,2.0,6.0
0021301127,1610612759,SAS,San Antonio,201168,Tiago Splitter,C,,19:20,93.2,98.3,-5.2,0.154,1.0,22.2,0.188,0.0,0.091,22.2,0.2,0.2,0.168,95.93,0.016,2014-04-03T00:00:00,1,1610612759,SAS,San Antonio,59-17,24,27,20,23,0,0,0,0,0,0,0,0,0,0,94,0.432,0.75,0.409,18,42,18,0021301127,1610612759,SAS,San Antonio,Tiago Splitter,C,,19:20,0.0,0.0,0.0,2.0,11.0,6.0,12.0,18.0,1.0,2.0,0.0,1.0
0021301127,1610612759,SAS,San Antonio,201168,Tiago Splitter,C,,19:20,93.2,98.3,-5.2,0.154,1.0,22.2,0.188,0.0,0.091,22.2,0.2,0.2,0.168,95.93,0.016,2014-04-03T00:00:00,1,1610612760,OKC,Oklahoma City,55-19,22,26,32,26,0,0,0,0,0,0,0,0,0,0,106,0.494,0.87,0.333,18,39,13,0021301127,1610612759,SAS,San Antonio,Tiago Splitter,C,,19:20,0.0,0.0,0.0,2.0,11.0,6.0,12.0,18.0,1.0,2.0,0.0,1.0
0021301127,1610612759,SAS,San Antonio,201980,Danny Green,G,,36:25,94.7,105.1,-10.4,0.08,2.0,15.5,0.029,0.138,0.079,7.8,0.556,0.557,0.128,97.03,0.068,2014-04-03T00:00:00,1,1610612759,SAS,San Antonio,59-17,24,27,20,23,0,0,0,0,0,0,0,0,0,0,94,0.432,0.75,0.409,18,42,18,0021301127,1610612759,SAS,San Antonio,Danny Green,G,,36:25,0.0,5.0,0.0,2.0,19.0,7.0,25.0,32.0,0.0,0.0,2.0,3.0
0021301127,1610612759,SAS,San Antonio,201980,Danny Green,G,,36:25,94.7,105.1,-10.4,0.08,2.0,15.5,0.029,0.138,0.079,7.8,0.556,0.557,0.128,97.03,0.068,2014-04-03T00:00:00,1,1610612760,OKC,Oklahoma City,55-19,22,26,32,26,0,0,0,0,0,0,0,0,0,0,106,0.494,0.87,0.333,18,39,13,0021301127,1610612759,SAS,San Antonio,Danny Green,G,,36:25,0.0,5.0,0.0,2.0,19.0,7.0,25.0,32.0,0.0,0.0,2.0,3.0
0021301127,1610612759,SAS,San Antonio,2225,Tony Parker,G,,25:34,94.5,102.0,-7.5,0.188,1.0,18.2,0.071,0.087,0.078,18.2,0.3,0.287,0.217,97.44,-0.012,2014-04-03T00:00:00,1,1610612759,SAS,San Antonio,59-17,24,27,20,23,0,0,0,0,0,0,0,0,0,0,94,0.432,0.75,0.409,18,42,18,0021301127,1610612759,SAS,San Antonio,Tony Parker,G,,25:34,0.0,0.0,0.0,4.0,11.0,9.0,17.0,18.0,0.0,1.0,2.0,2.0
0021301127,1610612759,SAS,San Antonio,2225,Tony Parker,G,,25:34,94.5,102.0,-7.5,0.188,1.0,18.2,0.071,0.087,0.078,18.2,0.3,0.287,0.217,97.44,-0.012,2014-04-03T00:00:00,1,1610612760,OKC,Oklahoma City,55-19,22,26,32,26,0,0,0,0,0,0,0,0,0,0,106,0.494,0.87,0.333,18,39,13,0021301127,1610612759,SAS,San Antonio,Tony Parker,G,,25:34,0.0,0.0,0.0,4.0,11.0,9.0,17.0,18.0,0.0,1.0,2.0,2.0
0021301127,1610612759,SAS,San Antonio,2564,Boris Diaw,,,24:58,94.5,130.8,-36.4,0.133,0.5,16.7,0.048,0.111,0.077,33.3,0.667,0.667,0.173,94.13,0.036,2014-04-03T00:00:00,1,1610612759,SAS,San Antonio,59-17,24,27,20,23,0,0,0,0,0,0,0,0,0,0,94,0.432,0.75,0.409,18,42,18,0021301127,1610612759,SAS,San Antonio,Boris Diaw,,,24:58,0.0,0.0,2.0,8.0,17.0,6.0,15.0,24.0,0.0,0.0,3.0,0.0
0021301127,1610612759,SAS,San Antonio,2564,Boris Diaw,,,24:58,94.5,130.8,-36.4,0.133,0.5,16.7,0.048,0.111,0.077,33.3,0.667,0.667,0.173,94.13,0.036,2014-04-03T00:00:00,1,1610612760,OKC,Oklahoma City,55-19,22,26,32,26,0,0,0,0,0,0,0,0,0,0,106,0.494,0.87,0.333,18,39,13,0021301127,1610612759,SAS,San Antonio,Boris Diaw,,,24:58,0.0,0.0,2.0,8.0,17.0,6.0,15.0,24.0,0.0,0.0,3.0,0.0
0021301127,1610612759,SAS,San Antonio,201158,Marco Belinelli,,,30:22,96.3,126.5,-30.2,0.048,0.25,6.5,0.0,0.3,0.14,25.9,0.35,0.383,0.218,93.8,0.026,2014-04-03T00:00:00,1,1610612759,SAS,San Antonio,59-17,24,27,20,23,0,0,0,0,0,0,0,0,0,0,94,0.432,0.75,0.409,18,42,18,0021301127,1610612759,SAS,San Antonio,Marco Belinelli,,,30:22,3.0,3.0,0.0,4.0,22.0,6.0,13.0,30.0,0.0,0.0,1.0,1.0
0021301127,1610612759,SAS,San Antonio,201158,Marco Belinelli,,,30:22,96.3,126.5,-30.2,0.048,0.25,6.5,0.0,0.3,0.14,25.9,0.35,0.383,0.218,93.8,0.026,2014-04-03T00:00:00,1,1610612760,OKC,Oklahoma City,55-19,22,26,32,26,0,0,0,0,0,0,0,0,0,0,106,0.494,0.87,0.333,18,39,13,0021301127,1610612759,SAS,San Antonio,Marco Belinelli,,,30:22,3.0,3.0,0.0,4.0,22.0,6.0,13.0,30.0,0.0,0.0,1.0,1.0
0021301127,1610612759,SAS,San Antonio,201988,Patty Mills,,,23:49,82.7,115.2,-32.6,0.091,0.5,6.3,0.087,0.25,0.154,12.5,0.808,0.808,0.244,103.83,0.244,2014-04-03T00:00:00,1,1610612759,SAS,San Antonio,59-17,24,27,20,23,0,0,0,0,0,0,0,0,0,0,94,0.432,0.75,0.409,18,42,18,0021301127,1610612759,SAS,San Antonio,Patty Mills,,,23:49,5.0,0.0,7.0,2.0,20.0,3.0,19.0,28.0,0.0,0.0,1.0,1.0
0021301127,1610612759,SAS,San Antonio,201988,Patty Mills,,,23:49,82.7,115.2,-32.6,0.091,0.5,6.3,0.087,0.25,0.154,12.5,0.808,0.808,0.244,103.83,0.244,2014-04-03T00:00:00,1,1610612760,OKC,Oklahoma City,55-19,22,26,32,26,0,0,0,0,0,0,0,0,0,0,106,0.494,0.87,0.333,18,39,13,0021301127,1610612759,SAS,San Antonio,Patty Mills,,,23:49,5.0,0.0,7.0,2.0,20.0,3.0,19.0,28.0,0.0,0.0,1.0,1.0
0021301127,1610612759,SAS,San Antonio,201965,Jeff Ayres,,,13:29,98.5,109.0,-10.5,0.182,0.0,50.0,0.167,0.1,0.136,0.0,0.5,0.5,0.062,101.39,0.061,2014-04-03T00:00:00,1,1610612759,SAS,San Antonio,59-17,24,27,20,23,0,0,0,0,0,0,0,0,0,0,94,0.432,0.75,0.409,18,42,18,0021301127,1610612759,SAS,San Antonio,Jeff Ayres,,,13:29,0.0,0.0,0.0,2.0,11.0,2.0,9.0,18.0,0.0,0.0,2.0,1.0
0021301127,1610612759,SAS,San Antonio,201965,Jeff Ayres,,,13:29,98.5,109.0,-10.5,0.182,0.0,50.0,0.167,0.1,0.136,0.0,0.5,0.5,0.062,101.39,0.061,2014-04-03T00:00:00,1,1610612760,OKC,Oklahoma City,55-19,22,26,32,26,0,0,0,0,0,0,0,0,0,0,106,0.494,0.87,0.333,18,39,13,0021301127,1610612759,SAS,San Antonio,Jeff Ayres,,,13:29,0.0,0.0,0.0,2.0,11.0,2.0,9.0,18.0,0.0,0.0,2.0,1.0
0021301127,1610612759,SAS,San Antonio,202345,Damion James,,,4:56,105.4,96.6,8.8,0.0,0.0,0.0,0.0,0.5,0.2,0.0,0.0,0.0,0.08,96.13,0.069,2014-04-03T00:00:00,1,1610612759,SAS,San Antonio,59-17,24,27,20,23,0,0,0,0,0,0,0,0,0,0,94,0.432,0.75,0.409,18,42,18,0021301127,1610612759,SAS,San Antonio,Damion James,,,4:56,0.0,0.0,0.0,0.0,3.0,0.0,3.0,2.0,0.0,0.0,0.0,0.0
0021301127,1610612759,SAS,San Antonio,202345,Damion James,,,4:56,105.4,96.6,8.8,0.0,0.0,0.0,0.0,0.5,0.2,0.0,0.0,0.0,0.08,96.13,0.069,2014-04-03T00:00:00,1,1610612760,OKC,Oklahoma City,55-19,22,26,32,26,0,0,0,0,0,0,0,0,0,0,106,0.494,0.87,0.333,18,39,13,0021301127,1610612759,SAS,San Antonio,Damion James,,,4:56,0.0,0.0,0.0,0.0,3.0,0.0,3.0,2.0,0.0,0.0,0.0,0.0
0021301127,1610612759,SAS,San Antonio,202709,Cory Joseph,,,4:10,116.5,96.6,20.0,0.25,0.0,33.3,0.0,0.0,0.0,0.0,0.5,0.5,0.212,108.06,0.061,2014-04-03T00:00:00,1,1610612759,SAS,San Antonio,59-17,24,27,20,23,0,0,0,0,0,0,0,0,0,0,94,0.432,0.75,0.409,18,42,18,0021301127,1610612759,SAS,San Antonio,Cory Joseph,,,4:10,0.0,0.0,0.0,2.0,3.0,0.0,3.0,2.0,0.0,0.0,1.0,1.0
0021301127,1610612759,SAS,San Antonio,202709,Cory Joseph,,,4:10,116.5,96.6,20.0,0.25,0.0,33.3,0.0,0.0,0.0,0.0,0.5,0.5,0.212,108.06,0.061,2014-04-03T00:00:00,1,1610612760,OKC,Oklahoma City,55-19,22,26,32,26,0,0,0,0,0,0,0,0,0,0,106,0.494,0.87,0.333,18,39,13,0021301127,1610612759,SAS,San Antonio,Cory Joseph,,,4:10,0.0,0.0,0.0,2.0,3.0,0.0,3.0,2.0,0.0,0.0,1.0,1.0
0021301127,1610612759,SAS,San Antonio,201948,Austin Daye,,DND - Mild Left Lat Strain,,,,,,,0.0,,,,,,,0.0,,,2014-04-03T00:00:00,1,1610612759,SAS,San Antonio,59-17,24,27,20,23,0,0,0,0,0,0,0,0,0,0,94,0.432,0.75,0.409,18,42,18,0021301127,1610612759,SAS,San Antonio,Austin Daye,,DND - Mild Left Lat Strain,,,,,,,,,,,,,
0021301127,1610612759,SAS,San Antonio,201948,Austin Daye,,DND - Mild Left Lat Strain,,,,,,,0.0,,,,,,,0.0,,,2014-04-03T00:00:00,1,1610612760,OKC,Oklahoma City,55-19,22,26,32,26,0,0,0,0,0,0,0,0,0,0,106,0.494,0.87,0.333,18,39,13,0021301127,1610612759,SAS,San Antonio,Austin Daye,,DND - Mild Left Lat Strain,,,,,,,,,,,,,
0021301127,1610612759,SAS,San Antonio,1938,Manu Ginobili,,DND - Rest,,,,,,,0.0,,,,,,,0.0,,,2014-04-03T00:00:00,1,1610612759,SAS,San Antonio,59-17,24,27,20,23,0,0,0,0,0,0,0,0,0,0,94,0.432,0.75,0.409,18,42,18,0021301127,1610612759,SAS,San Antonio,Manu Ginobili,,DND - Rest,,,,,,,,,,,,,
0021301127,1610612759,SAS,San Antonio,1938,Manu Ginobili,,DND - Rest,,,,,,,0.0,,,,,,,0.0,,,2014-04-03T00:00:00,1,1610612760,OKC,Oklahoma City,55-19,22,26,32,26,0,0,0,0,0,0,0,0,0,0,106,0.494,0.87,0.333,18,39,13,0021301127,1610612759,SAS,San Antonio,Manu Ginobili,,DND - Rest,,,,,,,,,,,,,
0021301127,1610612760,OKC,Oklahoma City,201142,Kevin Durant,F,,39:18,113.2,97.2,16.1,0.13,0.75,8.4,0.0,0.179,0.103,11.2,0.423,0.489,0.374,98.08,0.13,2014-04-03T00:00:00,1,1610612759,SAS,San Antonio,59-17,24,27,20,23,0,0,0,0,0,0,0,0,0,0,94,0.432,0.75,0.409,18,42,18,0021301127,1610612760,OKC,Oklahoma City,Kevin Durant,F,,39:18,4.0,0.0,6.0,12.0,14.0,6.0,10.0,32.0,1.0,1.0,1.0,6.0
0021301127,1610612760,OKC,Oklahoma City,201142,Kevin Durant,F,,39:18,113.2,97.2,16.1,0.13,0.75,8.4,0.0,0.179,0.103,11.2,0.423,0.489,0.374,98.08,0.13,2014-04-03T00:00:00,1,1610612760,OKC,Oklahoma City,55-19,22,26,32,26,0,0,0,0,0,0,0,0,0,0,106,0.494,0.87,0.333,18,39,13,0021301127,1610612760,OKC,Oklahoma City,Kevin Durant,F,,39:18,4.0,0.0,6.0,12.0,14.0,6.0,10.0,32.0,1.0,1.0,1.0,6.0
0021301127,1610612760,OKC,Oklahoma City,201586,Serge Ibaka,F,,39:50,101.3,93.6,7.7,0.0,0.0,0.0,0.061,0.244,0.162,14.4,0.455,0.463,0.156,100.19,0.117,2014-04-03T00:00:00,1,1610612759,SAS,San Antonio,59-17,24,27,20,23,0,0,0,0,0,0,0,0,0,0,94,0.432,0.75,0.409,18,42,18,0021301127,1610612760,OKC,Oklahoma City,Serge Ibaka,F,,39:50,0.0,3.0,0.0,6.0,14.0,8.0,13.0,36.0,3.0,1.0,0.0,3.0
0021301127,1610612760,OKC,Oklahoma City,201586,Serge Ibaka,F,,39:50,101.3,93.6,7.7,0.0,0.0,0.0,0.061,0.244,0.162,14.4,0.455,0.463,0.156,100.19,0.117,2014-04-03T00:00:00,1,1610612760,OKC,Oklahoma City,55-19,22,26,32,26,0,0,0,0,0,0,0,0,0,0,106,0.494,0.87,0.333,18,39,13,0021301127,1610612760,OKC,Oklahoma City,Serge Ibaka,F,,39:50,0.0,3.0,0.0,6.0,14.0,8.0,13.0,36.0,3.0,1.0,0.0,3.0
0021301127,1610612760,OKC,Oklahoma City,2570,Kendrick Perkins,C,,11:59,105.1,97.0,8.1,0.1,1.0,50.0,0.0,0.063,0.038,50.0,0.0,0.0,0.04,87.16,-0.039,2014-04-03T00:00:00,1,1610612759,SAS,San Antonio,59-17,24,27,20,23,0,0,0,0,0,0,0,0,0,0,94,0.432,0.75,0.409,18,42,18,0021301127,1610612760,OKC,Oklahoma City,Kendrick Perkins,C,,11:59,0.0,0.0,0.0,0.0,2.0,0.0,2.0,8.0,1.0,0.0,3.0,0.0
0021301127,1610612760,OKC,Oklahoma City,2570,Kendrick Perkins,C,,11:59,105.1,97.0,8.1,0.1,1.0,50.0,0.0,0.063,0.038,50.0,0.0,0.0,0.04,87.16,-0.039,2014-04-03T00:00:00,1,1610612760,OKC,Oklahoma City,55-19,22,26,32,26,0,0,0,0,0,0,0,0,0,0,106,0.494,0.87,0.333,18,39,13,0021301127,1610612760,OKC,Oklahoma City,Kendrick Perkins,C,,11:59,0.0,0.0,0.0,0.0,2.0,0.0,2.0,8.0,1.0,0.0,3.0,0.0
0021301127,1610612760,OKC,Oklahoma City,203460,Andre Roberson,G,,14:45,107.9,101.7,6.1,0.0,0.0,0.0,0.2,0.176,0.185,33.3,1.25,1.25,0.1,88.56,0.126,2014-04-03T00:00:00,1,1610612759,SAS,San Antonio,59-17,24,27,20,23,0,0,0,0,0,0,0,0,0,0,94,0.432,0.75,0.409,18,42,18,0021301127,1610612760,OKC,Oklahoma City,Andre Roberson,G,,14:45,0.0,2.0,0.0,2.0,4.0,0.0,2.0,10.0,0.0,0.0,2.0,0.0
0021301127,1610612760,OKC,Oklahoma City,203460,Andre Roberson,G,,14:45,107.9,101.7,6.1,0.0,0.0,0.0,0.2,0.176,0.185,33.3,1.25,1.25,0.1,88.56,0.126,2014-04-03T00:00:00,1,1610612760,OKC,Oklahoma City,55-19,22,26,32,26,0,0,0,0,0,0,0,0,0,0,106,0.494,0.87,0.333,18,39,13,0021301127,1610612760,OKC,Oklahoma City,Andre Roberson,G,,14:45,0.0,2.0,0.0,2.0,4.0,0.0,2.0,10.0,0.0,0.0,2.0,0.0
0021301127,1610612760,OKC,Oklahoma City,201566,Russell Westbrook,G,,30:38,99.7,96.4,3.3,0.429,3.0,19.6,0.0,0.029,0.016,6.5,0.525,0.596,0.351,99.06,0.263,2014-04-03T00:00:00,1,1610612759,SAS,San Antonio,59-17,24,27,20,23,0,0,0,0,0,0,0,0,0,0,94,0.432,0.75,0.409,18,42,18,0021301127,1610612760,OKC,Oklahoma City,Russell Westbrook,G,,30:38,11.0,3.0,18.0,12.0,11.0,3.0,10.0,28.0,0.0,0.0,1.0,5.0
0021301127,1610612760,OKC,Oklahoma City,201566,Russell Westbrook,G,,30:38,99.7,96.4,3.3,0.429,3.0,19.6,0.0,0.029,0.016,6.5,0.525,0.596,0.351,99.06,0.263,2014-04-03T00:00:00,1,1610612760,OKC,Oklahoma City,55-19,22,26,32,26,0,0,0,0,0,0,0,0,0,0,106,0.494,0.87,0.333,18,39,13,0021301127,1610612760,OKC,Oklahoma City,Russell Westbrook,G,,30:38,11.0,3.0,18.0,12.0,11.0,3.0,10.0,28.0,0.0,0.0,1.0,5.0
0021301127,1610612760,OKC,Oklahoma City,2406,Caron Butler,,,30:18,110.5,91.9,18.6,0.083,0.0,25.4,0.0,0.08,0.04,0.0,0.3,0.34,0.086,101.9,0.064,2014-04-03T00:00:00,1,1610612759,SAS,San Antonio,59-17,24,27,20,23,0,0,0,0,0,0,0,0,0,0,94,0.432,0.75,0.409,18,42,18,0021301127,1610612760,OKC,Oklahoma City,Caron Butler,,,30:18,4.0,0.0,0.0,0.0,10.0,8.0,11.0,28.0,0.0,0.0,1.0,1.0
0021301127,1610612760,OKC,Oklahoma City,2406,Caron Butler,,,30:18,110.5,91.9,18.6,0.083,0.0,25.4,0.0,0.08,0.04,0.0,0.3,0.34,0.086,101.9,0.064,2014-04-03T00:00:00,1,1610612760,OKC,Oklahoma City,55-19,22,26,32,26,0,0,0,0,0,0,0,0,0,0,106,0.494,0.87,0.333,18,39,13,0021301127,1610612760,OKC,Oklahoma City,Caron Butler,,,30:18,4.0,0.0,0.0,0.0,10.0,8.0,11.0,28.0,0.0,0.0,1.0,1.0
0021301127,1610612760,OKC,Oklahoma City,203500,Steven Adams,,,12:14,116.4,91.8,24.6,0.0,0.0,0.0,0.273,0.333,0.294,17.0,0.5,0.512,0.224,90.35,0.059,2014-04-03T00:00:00,1,1610612759,SAS,San Antonio,59-17,24,27,20,23,0,0,0,0,0,0,0,0,0,0,94,0.432,0.75,0.409,18,42,18,0021301127,1610612760,OKC,Oklahoma City,Steven Adams,,,12:14,2.0,3.0,0.0,4.0,0.0,0.0,0.0,12.0,0.0,0.0,3.0,1.0
0021301127,1610612760,OKC,Oklahoma City,203500,Steven Adams,,,12:14,116.4,91.8,24.6,0.0,0.0,0.0,0.273,0.333,0.294,17.0,0.5,0.512,0.224,90.35,0.059,2014-04-03T00:00:00,1,1610612760,OKC,Oklahoma City,55-19,22,26,32,26,0,0,0,0,0,0,0,0,0,0,106,0.494,0.87,0.333,18,39,13,0021301127,1610612760,OKC,Oklahoma City,Steven Adams,,,12:14,2.0,3.0,0.0,4.0,0.0,0.0,0.0,12.0,0.0,0.0,3.0,1.0
0021301127,1610612760,OKC,Oklahoma City,2555,Nick Collison,,,13:23,127.1,93.4,33.7,0.182,2.0,41.0,0.0,0.0,0.0,20.5,1.0,1.064,0.107,94.54,0.087,2014-04-03T00:00:00,1,1610612759,SAS,San Antonio,59-17,24,27,20,23,0,0,0,0,0,0,0,0,0,0,94,0.432,0.75,0.409,18,42,18,0021301127,1610612760,OKC,Oklahoma City,Nick Collison,,,13:23,0.0,0.0,0.0,2.0,2.0,2.0,3.0,10.0,0.0,0.0,2.0,1.0
0021301127,1610612760,OKC,Oklahoma City,2555,Nick Collison,,,13:23,127.1,93.4,33.7,0.182,2.0,41.0,0.0,0.0,0.0,20.5,1.0,1.064,0.107,94.54,0.087,2014-04-03T00:00:00,1,1610612760,OKC,Oklahoma City,55-19,22,26,32,26,0,0,0,0,0,0,0,0,0,0,106,0.494,0.87,0.333,18,39,13,0021301127,1610612760,OKC,Oklahoma City,Nick Collison,,,13:23,0.0,0.0,0.0,2.0,2.0,2.0,3.0,10.0,0.0,0.0,2.0,1.0
0021301127,1610612760,OKC,Oklahoma City,202704,Reggie Jackson,,,30:23,117.9,89.7,28.2,0.2,4.0,30.8,0.045,0.12,0.085,7.7,0.875,0.875,0.139,101.74,0.172,2014-04-03T00:00:00,1,1610612759,SAS,San Antonio,59-17,24,27,20,23,0,0,0,0,0,0,0,0,0,0,94,0.432,0.75,0.409,18,42,18,0021301127,1610612760,OKC,Oklahoma City,Reggie Jackson,,,30:23,9.0,0.0,6.0,6.0,10.0,8.0,11.0,28.0,0.0,1.0,0.0,0.0
0021301127,1610612760,OKC,Oklahoma City,202704,Reggie Jackson,,,30:23,117.9,89.7,28.2,0.2,4.0,30.8,0.045,0.12,0.085,7.7,0.875,0.875,0.139,101.74,0.172,2014-04-03T00:00:00,1,1610612760,OKC,Oklahoma City,55-19,22,26,32,26,0,0,0,0,0,0,0,0,0,0,106,0.494,0.87,0.333,18,39,13,0021301127,1610612760,OKC,Oklahoma City,Reggie Jackson,,,30:23,9.0,0.0,6.0,6.0,10.0,8.0,11.0,28.0,0.0,1.0,0.0,0.0
0021301127,1610612760,OKC,Oklahoma City,965,Derek Fisher,,,15:24,113.5,98.7,14.8,0.0,0.0,0.0,0.0,0.111,0.05,0.0,0.5,0.694,0.14,98.78,0.051,2014-04-03T00:00:00,1,1610612759,SAS,San Antonio,59-17,24,27,20,23,0,0,0,0,0,0,0,0,0,0,94,0.432,0.75,0.409,18,42,18,0021301127,1610612760,OKC,Oklahoma City,Derek Fisher,,,15:24,0.0,0.0,0.0,0.0,3.0,5.0,3.0,14.0,0.0,0.0,3.0,1.0
0021301127,1610612760,OKC,Oklahoma City,965,Derek Fisher,,,15:24,113.5,98.7,14.8,0.0,0.0,0.0,0.0,0.111,0.05,0.0,0.5,0.694,0.14,98.78,0.051,2014-04-03T00:00:00,1,1610612760,OKC,Oklahoma City,55-19,22,26,32,26,0,0,0,0,0,0,0,0,0,0,106,0.494,0.87,0.333,18,39,13,0021301127,1610612760,OKC,Oklahoma City,Derek Fisher,,,15:24,0.0,0.0,0.0,0.0,3.0,5.0,3.0,14.0,0.0,0.0,3.0,1.0
0021301127,1610612760,OKC,Oklahoma City,203087,Jeremy Lamb,,,0:55,200.0,100.0,100.0,0.0,0.0,0.0,0.0,1.0,1.0,0.0,1.0,1.0,1.0,79.12,1.0,2014-04-03T00:00:00,1,1610612759,SAS,San Antonio,59-17,24,27,20,23,0,0,0,0,0,0,0,0,0,0,94,0.432,0.75,0.409,18,42,18,0021301127,1610612760,OKC,Oklahoma City,Jeremy Lamb,,,0:55,0.0,0.0,0.0,0.0,0.0,0.0,0.0,2.0,0.0,0.0,0.0,0.0
0021301127,1610612760,OKC,Oklahoma City,203087,Jeremy Lamb,,,0:55,200.0,100.0,100.0,0.0,0.0,0.0,0.0,1.0,1.0,0.0,1.0,1.0,1.0,79.12,1.0,2014-04-03T00:00:00,1,1610612760,OKC,Oklahoma City,55-19,22,26,32,26,0,0,0,0,0,0,0,0,0,0,106,0.494,0.87,0.333,18,39,13,0021301127,1610612760,OKC,Oklahoma City,Jeremy Lamb,,,0:55,0.0,0.0,0.0,0.0,0.0,0.0,0.0,2.0,0.0,0.0,0.0,0.0
0021301127,1610612760,OKC,Oklahoma City,203103,Perry Jones III,,,0:52,200.0,100.0,100.0,0.0,0.0,0.0,0.0,0.0,0.0,0.0,0.0,0.0,0.0,83.08,0.0,2014-04-03T00:00:00,1,1610612759,SAS,San Antonio,59-17,24,27,20,23,0,0,0,0,0,0,0,0,0,0,94,0.432,0.75,0.409,18,42,18,0021301127,1610612760,OKC,Oklahoma City,Perry Jones III,,,0:52,0.0,0.0,0.0,0.0,0.0,0.0,0.0,2.0,0.0,0.0,0.0,0.0
0021301127,1610612760,OKC,Oklahoma City,203103,Perry Jones III,,,0:52,200.0,100.0,100.0,0.0,0.0,0.0,0.0,0.0,0.0,0.0,0.0,0.0,0.0,83.08,0.0,2014-04-03T00:00:00,1,1610612760,OKC,Oklahoma City,55-19,22,26,32,26,0,0,0,0,0,0,0,0,0,0,106,0.494,0.87,0.333,18,39,13,0021301127,1610612760,OKC,Oklahoma City,Perry Jones III,,,0:52,0.0,0.0,0.0,0.0,0.0,0.0,0.0,2.0,0.0,0.0,0.0,0.0
0021301127,1610612760,OKC,Oklahoma City,201934,Hasheem Thabeet,,DNP - Coach's Decision,,,,,,,0.0,,,,,,,0.0,,,2014-04-03T00:00:00,1,1610612759,SAS,San Antonio,59-17,24,27,20,23,0,0,0,0,0,0,0,0,0,0,94,0.432,0.75,0.409,18,42,18,0021301127,1610612760,OKC,Oklahoma City,Hasheem Thabeet,,DNP - Coach's Decision,,,,,,,,,,,,,
0021301127,1610612760,OKC,Oklahoma City,201934,Hasheem Thabeet,,DNP - Coach's Decision,,,,,,,0.0,,,,,,,0.0,,,2014-04-03T00:00:00,1,1610612760,OKC,Oklahoma City,55-19,22,26,32,26,0,0,0,0,0,0,0,0,0,0,106,0.494,0.87,0.333,18,39,13,0021301127,1610612760,OKC,Oklahoma City,Hasheem Thabeet,,DNP - Coach's Decision,,,,,,,,,,,,,
