GAME_ID_x,TEAM_ID_x,TEAM_ABBREVIATION_x,TEAM_CITY_x,PLAYER_ID,PLAYER_NAME_x,START_POSITION_x,COMMENT_x,MIN_x,OFF_RATING,DEF_RATING,NET_RATING,AST_PCT,AST_TOV,AST_RATIO,OREB_PCT,DREB_PCT,REB_PCT,TM_TOV_PCT,EFG_PCT,TS_PCT,USG_PCT,PACE,PIE,GAME_DATE_EST,GAME_SEQUENCE,TEAM_ID_y,TEAM_ABBREVIATION_y,TEAM_CITY_NAME,TEAM_WINS_LOSSES,PTS_QTR1,PTS_QTR2,PTS_QTR3,PTS_QTR4,PTS_OT1,PTS_OT2,PTS_OT3,PTS_OT4,PTS_OT5,PTS_OT6,PTS_OT7,PTS_OT8,PTS_OT9,PTS_OT10,PTS,FG_PCT,FT_PCT,FG3_PCT,AST,REB,TOV,GAME_ID_y,TEAM_ID,TEAM_ABBREVIATION,TEAM_CITY_y,PLAYER_NAME_y,START_POSITION_y,COMMENT_y,MIN_y,PTS_OFF_TOV,PTS_2ND_CHANCE,PTS_FB,PTS_PAINT,OPP_PTS_OFF_TOV,OPP_PTS_2ND_CHANCE,OPP_PTS_FB,OPP_PTS_PAINT,BLK,BLKA,PF,PFD
0021301159,1610612742,DAL,Dallas,1890,Shawn Marion,F,,33:16,121.0,109.2,11.8,0.04,1.0,10.0,0.056,0.132,0.107,10.0,0.625,0.625,0.152,80.2,0.106,2014-04-08T00:00:00,4,1610612742,DAL,Dallas,48-31,39,22,20,14,0,0,0,0,0,0,0,0,0,0,95,0.556,0.545,0.391,24,36,9,0021301159,1610612742,DAL,Dallas,Shawn Marion,F,,33:16,0.0,0.0,0.0,4.0,13.0,12.0,8.0,34.0,1.0,0.0,0.0,0.0
0021301159,1610612742,DAL,Dallas,1890,Shawn Marion,F,,33:16,121.0,109.2,11.8,0.04,1.0,10.0,0.056,0.132,0.107,10.0,0.625,0.625,0.152,80.2,0.106,2014-04-08T00:00:00,4,1610612762,UTA,Utah,24-54,25,21,19,18,0,0,0,0,0,0,0,0,0,0,83,0.414,0.538,0.167,16,47,9,0021301159,1610612742,DAL,Dallas,Shawn Marion,F,,33:16,0.0,0.0,0.0,4.0,13.0,12.0,8.0,34.0,1.0,0.0,0.0,0.0
0021301159,1610612742,DAL,Dallas,1717,Dirk Nowitzki,F,,32:52,114.1,113.0,1.1,0.158,0.0,20.8,0.0,0.171,0.113,0.0,0.909,0.918,0.19,80.35,0.252,2014-04-08T00:00:00,4,1610612742,DAL,Dallas,48-31,39,22,20,14,0,0,0,0,0,0,0,0,0,0,95,0.556,0.545,0.391,24,36,9,0021301159,1610612742,DAL,Dallas,Dirk Nowitzki,F,,32:52,0.0,3.0,2.0,4.0,15.0,18.0,8.0,42.0,0.0,0.0,0.0,3.0
0021301159,1610612742,DAL,Dallas,1717,Dirk Nowitzki,F,,32:52,114.1,113.0,1.1,0.158,0.0,20.8,0.0,0.171,0.113,0.0,0.909,0.918,0.19,80.35,0.252,2014-04-08T00:00:00,4,1610612762,UTA,Utah,24-54,25,21,19,18,0,0,0,0,0,0,0,0,0,0,83,0.414,0.538,0.167,16,47,9,0021301159,1610612742,DAL,Dallas,Dirk Nowitzki,F,,32:52,0.0,3.0,2.0,4.0,15.0,18.0,8.0,42.0,0.0,0.0,0.0,3.0
0021301159,1610612742,DAL,Dallas,2223,Samuel Dalembert,C,,27:15,125.0,106.6,18.4,0.095,0.0,25.0,0.077,0.167,0.14,0.0,0.833,0.833,0.12,82.06,0.152,2014-04-08T00:00:00,4,1610612742,DAL,Dallas,48-31,39,22,20,14,0,0,0,0,0,0,0,0,0,0,95,0.556,0.545,0.391,24,36,9,0021301159,1610612742,DAL,Dallas,Samuel Dalembert,C,,27:15,0.0,2.0,0.0,8.0,13.0,10.0,8.0,32.0,2.0,0.0,2.0,0.0
0021301159,1610612742,DAL,Dallas,2223,Samuel Dalembert,C,,27:15,125.0,106.6,18.4,0.095,0.0,25.0,0.077,0.167,0.14,0.0,0.833,0.833,0.12,82.06,0.152,2014-04-08T00:00:00,4,1610612762,UTA,Utah,24-54,25,21,19,18,0,0,0,0,0,0,0,0,0,0,83,0.414,0.538,0.167,16,47,9,0021301159,1610612742,DAL,Dallas,Samuel Dalembert,C,,27:15,0.0,2.0,0.0,8.0,13.0,10.0,8.0,32.0,2.0,0.0,2.0,0.0
0021301159,1610612742,DAL,Dallas,101145,Monta Ellis,G,,38:25,118.4,108.2,10.2,0.192,2.5,20.1,0.048,0.068,0.062,8.0,0.441,0.447,0.291,79.37,0.086,2014-04-08T00:00:00,4,1610612742,DAL,Dallas,48-31,39,22,20,14,0,0,0,0,0,0,0,0,0,0,95,0.556,0.545,0.391,24,36,9,0021301159,1610612742,DAL,Dallas,Monta Ellis,G,,38:25,2.0,0.0,0.0,8.0,15.0,16.0,8.0,40.0,0.0,1.0,0.0,3.0
0021301159,1610612742,DAL,Dallas,101145,Monta Ellis,G,,38:25,118.4,108.2,10.2,0.192,2.5,20.1,0.048,0.068,0.062,8.0,0.441,0.447,0.291,79.37,0.086,2014-04-08T00:00:00,4,1610612762,UTA,Utah,24-54,25,21,19,18,0,0,0,0,0,0,0,0,0,0,83,0.414,0.538,0.167,16,47,9,0021301159,1610612742,DAL,Dallas,Monta Ellis,G,,38:25,2.0,0.0,0.0,8.0,15.0,16.0,8.0,40.0,0.0,1.0,0.0,3.0
0021301159,1610612742,DAL,Dallas,101181,Jose Calderon,G,,30:42,121.0,110.3,10.7,0.174,2.0,29.1,0.0,0.088,0.057,14.5,0.667,0.644,0.174,78.98,0.084,2014-04-08T00:00:00,4,1610612742,DAL,Dallas,48-31,39,22,20,14,0,0,0,0,0,0,0,0,0,0,95,0.556,0.545,0.391,24,36,9,0021301159,1610612742,DAL,Dallas,Jose Calderon,G,,30:42,2.0,2.0,2.0,2.0,13.0,12.0,8.0,34.0,1.0,0.0,2.0,4.0
0021301159,1610612742,DAL,Dallas,101181,Jose Calderon,G,,30:42,121.0,110.3,10.7,0.174,2.0,29.1,0.0,0.088,0.057,14.5,0.667,0.644,0.174,78.98,0.084,2014-04-08T00:00:00,4,1610612762,UTA,Utah,24-54,25,21,19,18,0,0,0,0,0,0,0,0,0,0,83,0.414,0.538,0.167,16,47,9,0021301159,1610612742,DAL,Dallas,Jose Calderon,G,,30:42,2.0,2.0,2.0,2.0,13.0,12.0,8.0,34.0,1.0,0.0,2.0,4.0
0021301159,1610612742,DAL,Dallas,1713,Vince Carter,,,22:16,127.5,89.2,38.3,0.231,3.0,20.0,0.0,0.071,0.047,6.7,0.591,0.591,0.307,75.18,0.105,2014-04-08T00:00:00,4,1610612742,DAL,Dallas,48-31,39,22,20,14,0,0,0,0,0,0,0,0,0,0,95,0.556,0.545,0.391,24,36,9,0021301159,1610612742,DAL,Dallas,Vince Carter,,,22:16,0.0,0.0,0.0,0.0,0.0,12.0,4.0,18.0,0.0,0.0,4.0,0.0
0021301159,1610612742,DAL,Dallas,1713,Vince Carter,,,22:16,127.5,89.2,38.3,0.231,3.0,20.0,0.0,0.071,0.047,6.7,0.591,0.591,0.307,75.18,0.105,2014-04-08T00:00:00,4,1610612762,UTA,Utah,24-54,25,21,19,18,0,0,0,0,0,0,0,0,0,0,83,0.414,0.538,0.167,16,47,9,0021301159,1610612742,DAL,Dallas,Vince Carter,,,22:16,0.0,0.0,0.0,0.0,0.0,12.0,4.0,18.0,0.0,0.0,4.0,0.0
0021301159,1610612742,DAL,Dallas,201971,DeJuan Blair,,,10:09,147.4,101.4,46.0,0.0,0.0,0.0,0.0,0.154,0.111,0.0,0.667,0.667,0.17,81.3,0.096,2014-04-08T00:00:00,4,1610612742,DAL,Dallas,48-31,39,22,20,14,0,0,0,0,0,0,0,0,0,0,95,0.556,0.545,0.391,24,36,9,0021301159,1610612742,DAL,Dallas,DeJuan Blair,,,10:09,2.0,0.0,0.0,4.0,0.0,4.0,0.0,8.0,1.0,0.0,2.0,2.0
0021301159,1610612742,DAL,Dallas,201971,DeJuan Blair,,,10:09,147.4,101.4,46.0,0.0,0.0,0.0,0.0,0.154,0.111,0.0,0.667,0.667,0.17,81.3,0.096,2014-04-08T00:00:00,4,1610612762,UTA,Utah,24-54,25,21,19,18,0,0,0,0,0,0,0,0,0,0,83,0.414,0.538,0.167,16,47,9,0021301159,1610612742,DAL,Dallas,DeJuan Blair,,,10:09,2.0,0.0,0.0,4.0,0.0,4.0,0.0,8.0,1.0,0.0,2.0,2.0
0021301159,1610612742,DAL,Dallas,2734,Devin Harris,,,17:21,111.3,97.4,13.9,0.6,3.0,40.7,0.0,0.053,0.032,13.6,0.7,0.666,0.277,82.17,0.253,2014-04-08T00:00:00,4,1610612742,DAL,Dallas,48-31,39,22,20,14,0,0,0,0,0,0,0,0,0,0,95,0.556,0.545,0.391,24,36,9,0021301159,1610612742,DAL,Dallas,Devin Harris,,,17:21,2.0,0.0,5.0,4.0,2.0,10.0,2.0,18.0,0.0,0.0,0.0,2.0
0021301159,1610612742,DAL,Dallas,2734,Devin Harris,,,17:21,111.3,97.4,13.9,0.6,3.0,40.7,0.0,0.053,0.032,13.6,0.7,0.666,0.277,82.17,0.253,2014-04-08T00:00:00,4,1610612762,UTA,Utah,24-54,25,21,19,18,0,0,0,0,0,0,0,0,0,0,83,0.414,0.538,0.167,16,47,9,0021301159,1610612742,DAL,Dallas,Devin Harris,,,17:21,2.0,0.0,5.0,4.0,2.0,10.0,2.0,18.0,0.0,0.0,0.0,2.0
0021301159,1610612742,DAL,Dallas,203109,Jae Crowder,,,10:47,91.6,95.1,-3.4,0.0,0.0,0.0,0.0,0.143,0.063,0.0,0.0,0.0,0.046,83.51,-0.042,2014-04-08T00:00:00,4,1610612742,DAL,Dallas,48-31,39,22,20,14,0,0,0,0,0,0,0,0,0,0,95,0.556,0.545,0.391,24,36,9,0021301159,1610612742,DAL,Dallas,Jae Crowder,,,10:47,0.0,0.0,0.0,0.0,2.0,4.0,0.0,12.0,0.0,1.0,1.0,0.0
0021301159,1610612742,DAL,Dallas,203109,Jae Crowder,,,10:47,91.6,95.1,-3.4,0.0,0.0,0.0,0.0,0.143,0.063,0.0,0.0,0.0,0.046,83.51,-0.042,2014-04-08T00:00:00,4,1610612762,UTA,Utah,24-54,25,21,19,18,0,0,0,0,0,0,0,0,0,0,83,0.414,0.538,0.167,16,47,9,0021301159,1610612742,DAL,Dallas,Jae Crowder,,,10:47,0.0,0.0,0.0,0.0,2.0,4.0,0.0,12.0,0.0,1.0,1.0,0.0
0021301159,1610612742,DAL,Dallas,201961,Wayne Ellington,,,6:07,127.1,109.4,17.7,0.0,0.0,0.0,0.125,0.167,0.143,0.0,1.0,1.0,0.087,83.77,0.106,2014-04-08T00:00:00,4,1610612742,DAL,Dallas,48-31,39,22,20,14,0,0,0,0,0,0,0,0,0,0,95,0.556,0.545,0.391,24,36,9,0021301159,1610612742,DAL,Dallas,Wayne Ellington,,,6:07,0.0,0.0,0.0,0.0,0.0,4.0,2.0,10.0,0.0,0.0,1.0,0.0
0021301159,1610612742,DAL,Dallas,201961,Wayne Ellington,,,6:07,127.1,109.4,17.7,0.0,0.0,0.0,0.125,0.167,0.143,0.0,1.0,1.0,0.087,83.77,0.106,2014-04-08T00:00:00,4,1610612762,UTA,Utah,24-54,25,21,19,18,0,0,0,0,0,0,0,0,0,0,83,0.414,0.538,0.167,16,47,9,0021301159,1610612742,DAL,Dallas,Wayne Ellington,,,6:07,0.0,0.0,0.0,0.0,0.0,4.0,2.0,10.0,0.0,0.0,1.0,0.0
0021301159,1610612742,DAL,Dallas,201148,Brandan Wright,,,10:36,62.5,106.3,-43.8,0.0,0.0,0.0,0.167,0.1,0.136,25.0,0.0,0.0,0.211,72.45,-0.091,2014-04-08T00:00:00,4,1610612742,DAL,Dallas,48-31,39,22,20,14,0,0,0,0,0,0,0,0,0,0,95,0.556,0.545,0.391,24,36,9,0021301159,1610612742,DAL,Dallas,Brandan Wright,,,10:36,0.0,0.0,0.0,0.0,2.0,8.0,2.0,12.0,0.0,1.0,0.0,1.0
0021301159,1610612742,DAL,Dallas,201148,Brandan Wright,,,10:36,62.5,106.3,-43.8,0.0,0.0,0.0,0.167,0.1,0.136,25.0,0.0,0.0,0.211,72.45,-0.091,2014-04-08T00:00:00,4,1610612762,UTA,Utah,24-54,25,21,19,18,0,0,0,0,0,0,0,0,0,0,83,0.414,0.538,0.167,16,47,9,0021301159,1610612742,DAL,Dallas,Brandan Wright,,,10:36,0.0,0.0,0.0,0.0,2.0,8.0,2.0,12.0,0.0,1.0,0.0,1.0
0021301159,1610612742,DAL,Dallas,203499,Shane Larkin,,,0:15,0.0,0.0,0.0,0.0,0.0,0.0,0.0,0.0,0.0,0.0,0.0,0.0,0.0,97.3,0.0,2014-04-08T00:00:00,4,1610612742,DAL,Dallas,48-31,39,22,20,14,0,0,0,0,0,0,0,0,0,0,95,0.556,0.545,0.391,24,36,9,0021301159,1610612742,DAL,Dallas,Shane Larkin,,,0:15,0.0,0.0,0.0,0.0,0.0,0.0,0.0,0.0,0.0,0.0,0.0,0.0
0021301159,1610612742,DAL,Dallas,203499,Shane Larkin,,,0:15,0.0,0.0,0.0,0.0,0.0,0.0,0.0,0.0,0.0,0.0,0.0,0.0,0.0,97.3,0.0,2014-04-08T00:00:00,4,1610612762,UTA,Utah,24-54,25,21,19,18,0,0,0,0,0,0,0,0,0,0,83,0.414,0.538,0.167,16,47,9,0021301159,1610612742,DAL,Dallas,Shane Larkin,,,0:15,0.0,0.0,0.0,0.0,0.0,0.0,0.0,0.0,0.0,0.0,0.0,0.0
0021301159,1610612742,DAL,Dallas,203108,Bernard James,,DNP - Coach's Decision,,,,,,,0.0,,,,,,,0.0,,,2014-04-08T00:00:00,4,1610612742,DAL,Dallas,48-31,39,22,20,14,0,0,0,0,0,0,0,0,0,0,95,0.556,0.545,0.391,24,36,9,0021301159,1610612742,DAL,Dallas,Bernard James,,DNP - Coach's Decision,,,,,,,,,,,,,
0021301159,1610612742,DAL,Dallas,203108,Bernard James,,DNP - Coach's Decision,,,,,,,0.0,,,,,,,0.0,,,2014-04-08T00:00:00,4,1610612762,UTA,Utah,24-54,25,21,19,18,0,0,0,0,0,0,0,0,0,0,83,0.414,0.538,0.167,16,47,9,0021301159,1610612742,DAL,Dallas,Bernard James,,DNP - Coach's Decision,,,,,,,,,,,,,
0021301159,1610612762,UTA,Utah,2210,Richard Jefferson,F,,26:17,112.0,116.2,-4.2,0.071,1.0,4.9,0.0,0.077,0.024,4.9,0.412,0.409,0.351,77.58,0.022,2014-04-08T00:00:00,4,1610612742,DAL,Dallas,48-31,39,22,20,14,0,0,0,0,0,0,0,0,0,0,95,0.556,0.545,0.391,24,36,9,0021301159,1610612762,UTA,Utah,Richard Jefferson,F,,26:17,2.0,2.0,0.0,8.0,2.0,2.0,5.0,16.0,0.0,1.0,1.0,1.0
0021301159,1610612762,UTA,Utah,2210,Richard Jefferson,F,,26:17,112.0,116.2,-4.2,0.071,1.0,4.9,0.0,0.077,0.024,4.9,0.412,0.409,0.351,77.58,0.022,2014-04-08T00:00:00,4,1610612762,UTA,Utah,24-54,25,21,19,18,0,0,0,0,0,0,0,0,0,0,83,0.414,0.538,0.167,16,47,9,0021301159,1610612762,UTA,Utah,Richard Jefferson,F,,26:17,2.0,2.0,0.0,8.0,2.0,2.0,5.0,16.0,0.0,1.0,1.0,1.0
0021301159,1610612762,UTA,Utah,101107,Marvin Williams,F,,7:57,125.0,153.3,-28.3,0.0,0.0,0.0,0.0,0.0,0.0,0.0,0.0,0.0,0.123,91.17,-0.043,2014-04-08T00:00:00,4,1610612742,DAL,Dallas,48-31,39,22,20,14,0,0,0,0,0,0,0,0,0,0,95,0.556,0.545,0.391,24,36,9,0021301159,1610612762,UTA,Utah,Marvin Williams,F,,7:57,0.0,0.0,0.0,0.0,0.0,0.0,2.0,8.0,0.0,0.0,0.0,0.0
0021301159,1610612762,UTA,Utah,101107,Marvin Williams,F,,7:57,125.0,153.3,-28.3,0.0,0.0,0.0,0.0,0.0,0.0,0.0,0.0,0.0,0.123,91.17,-0.043,2014-04-08T00:00:00,4,1610612762,UTA,Utah,24-54,25,21,19,18,0,0,0,0,0,0,0,0,0,0,83,0.414,0.538,0.167,16,47,9,0021301159,1610612762,UTA,Utah,Marvin Williams,F,,7:57,0.0,0.0,0.0,0.0,0.0,0.0,2.0,8.0,0.0,0.0,0.0,0.0
0021301159,1610612762,UTA,Utah,202324,Derrick Favors,C,,27:03,111.3,112.6,-1.3,0.0,0.0,0.0,0.133,0.231,0.163,6.5,0.615,0.663,0.274,82.44,0.168,2014-04-08T00:00:00,4,1610612742,DAL,Dallas,48-31,39,22,20,14,0,0,0,0,0,0,0,0,0,0,95,0.556,0.545,0.391,24,36,9,0021301159,1610612762,UTA,Utah,Derrick Favors,C,,27:03,4.0,4.0,4.0,16.0,6.0,5.0,4.0,24.0,0.0,0.0,3.0,2.0
0021301159,1610612762,UTA,Utah,202324,Derrick Favors,C,,27:03,111.3,112.6,-1.3,0.0,0.0,0.0,0.133,0.231,0.163,6.5,0.615,0.663,0.274,82.44,0.168,2014-04-08T00:00:00,4,1610612762,UTA,Utah,24-54,25,21,19,18,0,0,0,0,0,0,0,0,0,0,83,0.414,0.538,0.167,16,47,9,0021301159,1610612762,UTA,Utah,Derrick Favors,C,,27:03,4.0,4.0,4.0,16.0,6.0,5.0,4.0,24.0,0.0,0.0,3.0,2.0
0021301159,1610612762,UTA,Utah,202330,Gordon Hayward,G,,41:16,106.6,112.9,-6.3,0.185,5.0,23.9,0.047,0.071,0.056,4.8,0.393,0.37,0.188,79.96,0.051,2014-04-08T00:00:00,4,1610612742,DAL,Dallas,48-31,39,22,20,14,0,0,0,0,0,0,0,0,0,0,95,0.556,0.545,0.391,24,36,9,0021301159,1610612762,UTA,Utah,Gordon Hayward,G,,41:16,5.0,4.0,0.0,6.0,6.0,7.0,6.0,30.0,0.0,0.0,2.0,2.0
0021301159,1610612762,UTA,Utah,202330,Gordon Hayward,G,,41:16,106.6,112.9,-6.3,0.185,5.0,23.9,0.047,0.071,0.056,4.8,0.393,0.37,0.188,79.96,0.051,2014-04-08T00:00:00,4,1610612762,UTA,Utah,24-54,25,21,19,18,0,0,0,0,0,0,0,0,0,0,83,0.414,0.538,0.167,16,47,9,0021301159,1610612762,UTA,Utah,Gordon Hayward,G,,41:16,5.0,4.0,0.0,6.0,6.0,7.0,6.0,30.0,0.0,0.0,2.0,2.0
0021301159,1610612762,UTA,Utah,203504,Trey Burke,G,,31:14,103.9,128.2,-24.2,0.227,0.0,38.5,0.027,0.067,0.038,0.0,0.25,0.25,0.116,84.71,0.021,2014-04-08T00:00:00,4,1610612742,DAL,Dallas,48-31,39,22,20,14,0,0,0,0,0,0,0,0,0,0,95,0.556,0.545,0.391,24,36,9,0021301159,1610612762,UTA,Utah,Trey Burke,G,,31:14,2.0,2.0,2.0,2.0,8.0,5.0,7.0,26.0,0.0,0.0,2.0,0.0
0021301159,1610612762,UTA,Utah,203504,Trey Burke,G,,31:14,103.9,128.2,-24.2,0.227,0.0,38.5,0.027,0.067,0.038,0.0,0.25,0.25,0.116,84.71,0.021,2014-04-08T00:00:00,4,1610612762,UTA,Utah,24-54,25,21,19,18,0,0,0,0,0,0,0,0,0,0,83,0.414,0.538,0.167,16,47,9,0021301159,1610612762,UTA,Utah,Trey Burke,G,,31:14,2.0,2.0,2.0,2.0,8.0,5.0,7.0,26.0,0.0,0.0,2.0,0.0
0021301159,1610612762,UTA,Utah,202692,Alec Burks,,,29:26,98.3,120.4,-22.0,0.125,2.0,14.9,0.028,0.0,0.018,7.4,0.5,0.479,0.174,82.09,0.049,2014-04-08T00:00:00,4,1610612742,DAL,Dallas,48-31,39,22,20,14,0,0,0,0,0,0,0,0,0,0,95,0.556,0.545,0.391,24,36,9,0021301159,1610612762,UTA,Utah,Alec Burks,,,29:26,0.0,0.0,4.0,8.0,8.0,5.0,7.0,22.0,0.0,1.0,3.0,3.0
0021301159,1610612762,UTA,Utah,202692,Alec Burks,,,29:26,98.3,120.4,-22.0,0.125,2.0,14.9,0.028,0.0,0.018,7.4,0.5,0.479,0.174,82.09,0.049,2014-04-08T00:00:00,4,1610612762,UTA,Utah,24-54,25,21,19,18,0,0,0,0,0,0,0,0,0,0,83,0.414,0.538,0.167,16,47,9,0021301159,1610612762,UTA,Utah,Alec Burks,,,29:26,0.0,0.0,4.0,8.0,8.0,5.0,7.0,22.0,0.0,1.0,3.0,3.0
0021301159,1610612762,UTA,Utah,202379,Jeremy Evans,,,32:17,95.5,120.6,-25.1,0.0,0.0,0.0,0.162,0.227,0.186,18.2,0.333,0.333,0.159,77.61,0.056,2014-04-08T00:00:00,4,1610612742,DAL,Dallas,48-31,39,22,20,14,0,0,0,0,0,0,0,0,0,0,95,0.556,0.545,0.391,24,36,9,0021301159,1610612762,UTA,Utah,Jeremy Evans,,,32:17,2.0,2.0,0.0,6.0,6.0,5.0,7.0,20.0,1.0,2.0,2.0,1.0
0021301159,1610612762,UTA,Utah,202379,Jeremy Evans,,,32:17,95.5,120.6,-25.1,0.0,0.0,0.0,0.162,0.227,0.186,18.2,0.333,0.333,0.159,77.61,0.056,2014-04-08T00:00:00,4,1610612762,UTA,Utah,24-54,25,21,19,18,0,0,0,0,0,0,0,0,0,0,83,0.414,0.538,0.167,16,47,9,0021301159,1610612762,UTA,Utah,Jeremy Evans,,,32:17,2.0,2.0,0.0,6.0,6.0,5.0,7.0,20.0,1.0,2.0,2.0,1.0
0021301159,1610612762,UTA,Utah,202683,Enes Kanter,,,27:44,104.5,112.3,-7.9,0.077,1.0,6.3,0.29,0.435,0.352,6.3,0.5,0.545,0.246,75.81,0.28,2014-04-08T00:00:00,4,1610612742,DAL,Dallas,48-31,39,22,20,14,0,0,0,0,0,0,0,0,0,0,95,0.556,0.545,0.391,24,36,9,0021301159,1610612762,UTA,Utah,Enes Kanter,,,27:44,0.0,8.0,0.0,6.0,4.0,4.0,5.0,16.0,2.0,1.0,1.0,3.0
0021301159,1610612762,UTA,Utah,202683,Enes Kanter,,,27:44,104.5,112.3,-7.9,0.077,1.0,6.3,0.29,0.435,0.352,6.3,0.5,0.545,0.246,75.81,0.28,2014-04-08T00:00:00,4,1610612762,UTA,Utah,24-54,25,21,19,18,0,0,0,0,0,0,0,0,0,0,83,0.414,0.538,0.167,16,47,9,0021301159,1610612762,UTA,Utah,Enes Kanter,,,27:44,0.0,8.0,0.0,6.0,4.0,4.0,5.0,16.0,2.0,1.0,1.0,3.0
0021301159,1610612762,UTA,Utah,203197,Diante Garrett,,,16:46,108.9,94.3,14.5,0.182,1.0,33.3,0.0,0.133,0.065,33.3,0.75,0.75,0.122,70.6,0.098,2014-04-08T00:00:00,4,1610612742,DAL,Dallas,48-31,39,22,20,14,0,0,0,0,0,0,0,0,0,0,95,0.556,0.545,0.391,24,36,9,0021301159,1610612762,UTA,Utah,Diante Garrett,,,16:46,0.0,0.0,0.0,0.0,0.0,2.0,2.0,8.0,0.0,0.0,1.0,0.0
0021301159,1610612762,UTA,Utah,203197,Diante Garrett,,,16:46,108.9,94.3,14.5,0.182,1.0,33.3,0.0,0.133,0.065,33.3,0.75,0.75,0.122,70.6,0.098,2014-04-08T00:00:00,4,1610612762,UTA,Utah,24-54,25,21,19,18,0,0,0,0,0,0,0,0,0,0,83,0.414,0.538,0.167,16,47,9,0021301159,1610612762,UTA,Utah,Diante Garrett,,,16:46,0.0,0.0,0.0,0.0,0.0,2.0,2.0,8.0,0.0,0.0,1.0,0.0
0021301159,1610612762,UTA,Utah,203546,Ian Clark,,DNP - Coach's Decision,,,,,,,0.0,,,,,,,0.0,,,2014-04-08T00:00:00,4,1610612742,DAL,Dallas,48-31,39,22,20,14,0,0,0,0,0,0,0,0,0,0,95,0.556,0.545,0.391,24,36,9,0021301159,1610612762,UTA,Utah,Ian Clark,,DNP - Coach's Decision,,,,,,,,,,,,,
0021301159,1610612762,UTA,Utah,203546,Ian Clark,,DNP - Coach's Decision,,,,,,,0.0,,,,,,,0.0,,,2014-04-08T00:00:00,4,1610612762,UTA,Utah,24-54,25,21,19,18,0,0,0,0,0,0,0,0,0,0,83,0.414,0.538,0.167,16,47,9,0021301159,1610612762,UTA,Utah,Ian Clark,,DNP - Coach's Decision,,,,,,,,,,,,,
0021301159,1610612762,UTA,Utah,203497,Rudy Gobert,,DNP - Coach's Decision,,,,,,,0.0,,,,,,,0.0,,,2014-04-08T00:00:00,4,1610612742,DAL,Dallas,48-31,39,22,20,14,0,0,0,0,0,0,0,0,0,0,95,0.556,0.545,0.391,24,36,9,0021301159,1610612762,UTA,Utah,Rudy Gobert,,DNP - Coach's Decision,,,,,,,,,,,,,
0021301159,1610612762,UTA,Utah,203497,Rudy Gobert,,DNP - Coach's Decision,,,,,,,0.0,,,,,,,0.0,,,2014-04-08T00:00:00,4,1610612762,UTA,Utah,24-54,25,21,19,18,0,0,0,0,0,0,0,0,0,0,83,0.414,0.538,0.167,16,47,9,0021301159,1610612762,UTA,Utah,Rudy Gobert,,DNP - Coach's Decision,,,,,,,,,,,,,
0021301159,1610612762,UTA,Utah,101249,John Lucas III,,DNP - Coach's Decision,,,,,,,0.0,,,,,,,0.0,,,2014-04-08T00:00:00,4,1610612742,DAL,Dallas,48-31,39,22,20,14,0,0,0,0,0,0,0,0,0,0,95,0.556,0.545,0.391,24,36,9,0021301159,1610612762,UTA,Utah,John Lucas III,,DNP - Coach's Decision,,,,,,,,,,,,,
0021301159,1610612762,UTA,Utah,101249,John Lucas III,,DNP - Coach's Decision,,,,,,,0.0,,,,,,,0.0,,,2014-04-08T00:00:00,4,1610612762,UTA,Utah,24-54,25,21,19,18,0,0,0,0,0,0,0,0,0,0,83,0.414,0.538,0.167,16,47,9,0021301159,1610612762,UTA,Utah,John Lucas III,,DNP - Coach's Decision,,,,,,,,,,,,,
0021301159,1610612762,UTA,Utah,201575,Brandon Rush,,DNP - Coach's Decision,,,,,,,0.0,,,,,,,0.0,,,2014-04-08T00:00:00,4,1610612742,DAL,Dallas,48-31,39,22,20,14,0,0,0,0,0,0,0,0,0,0,95,0.556,0.545,0.391,24,36,9,0021301159,1610612762,UTA,Utah,Brandon Rush,,DNP - Coach's Decision,,,,,,,,,,,,,
0021301159,1610612762,UTA,Utah,201575,Brandon Rush,,DNP - Coach's Decision,,,,,,,0.0,,,,,,,0.0,,,2014-04-08T00:00:00,4,1610612762,UTA,Utah,24-54,25,21,19,18,0,0,0,0,0,0,0,0,0,0,83,0.414,0.538,0.167,16,47,9,0021301159,1610612762,UTA,Utah,Brandon Rush,,DNP - Coach's Decision,,,,,,,,,,,,,
