GAME_ID_x,TEAM_ID_x,TEAM_ABBREVIATION_x,TEAM_CITY_x,PLAYER_ID,PLAYER_NAME_x,START_POSITION_x,COMMENT_x,MIN_x,OFF_RATING,DEF_RATING,NET_RATING,AST_PCT,AST_TOV,AST_RATIO,OREB_PCT,DREB_PCT,REB_PCT,TM_TOV_PCT,EFG_PCT,TS_PCT,USG_PCT,PACE,PIE,GAME_DATE_EST,GAME_SEQUENCE,TEAM_ID_y,TEAM_ABBREVIATION_y,TEAM_CITY_NAME,TEAM_WINS_LOSSES,PTS_QTR1,PTS_QTR2,PTS_QTR3,PTS_QTR4,PTS_OT1,PTS_OT2,PTS_OT3,PTS_OT4,PTS_OT5,PTS_OT6,PTS_OT7,PTS_OT8,PTS_OT9,PTS_OT10,PTS,FG_PCT,FT_PCT,FG3_PCT,AST,REB,TOV,GAME_ID_y,TEAM_ID,TEAM_ABBREVIATION,TEAM_CITY_y,PLAYER_NAME_y,START_POSITION_y,COMMENT_y,MIN_y,PTS_OFF_TOV,PTS_2ND_CHANCE,PTS_FB,PTS_PAINT,OPP_PTS_OFF_TOV,OPP_PTS_2ND_CHANCE,OPP_PTS_FB,OPP_PTS_PAINT,BLK,BLKA,PF,PFD
0021301161,1610612745,HOU,Houston,202718,Chandler Parsons,F,,31:34,142.3,103.7,38.6,0.276,8.0,35.0,0.045,0.065,0.057,4.4,0.692,0.684,0.197,111.72,0.125,2014-04-08T00:00:00,6,1610612745,HOU,Houston,52-25,35,31,49,30,0,0,0,0,0,0,0,0,0,0,145,0.577,0.786,0.423,33,58,14,0021301161,1610612745,HOU,Houston,Chandler Parsons,F,,31:34,2.0,2.0,5.0,12.0,4.0,5.0,20.0,30.0,1.0,0.0,2.0,2.0
0021301161,1610612745,HOU,Houston,202718,Chandler Parsons,F,,31:34,142.3,103.7,38.6,0.276,8.0,35.0,0.045,0.065,0.057,4.4,0.692,0.684,0.197,111.72,0.125,2014-04-08T00:00:00,6,1610612747,LAL,Los Angeles,25-53,26,35,29,40,0,0,0,0,0,0,0,0,0,0,130,0.463,0.8,0.438,38,33,11,0021301161,1610612745,HOU,Houston,Chandler Parsons,F,,31:34,2.0,2.0,5.0,12.0,4.0,5.0,20.0,30.0,1.0,0.0,2.0,2.0
0021301161,1610612745,HOU,Houston,203093,Terrence Jones,F,,32:35,141.8,106.2,35.5,0.077,0.0,8.5,0.083,0.152,0.123,0.0,0.75,0.767,0.268,111.56,0.172,2014-04-08T00:00:00,6,1610612745,HOU,Houston,52-25,35,31,49,30,0,0,0,0,0,0,0,0,0,0,145,0.577,0.786,0.423,33,58,14,0021301161,1610612745,HOU,Houston,Terrence Jones,F,,32:35,0.0,4.0,7.0,22.0,6.0,7.0,20.0,32.0,1.0,2.0,3.0,5.0
0021301161,1610612745,HOU,Houston,203093,Terrence Jones,F,,32:35,141.8,106.2,35.5,0.077,0.0,8.5,0.083,0.152,0.123,0.0,0.75,0.767,0.268,111.56,0.172,2014-04-08T00:00:00,6,1610612747,LAL,Los Angeles,25-53,26,35,29,40,0,0,0,0,0,0,0,0,0,0,130,0.463,0.8,0.438,38,33,11,0021301161,1610612745,HOU,Houston,Terrence Jones,F,,32:35,0.0,4.0,7.0,22.0,6.0,7.0,20.0,32.0,1.0,2.0,3.0,5.0
0021301161,1610612745,HOU,Houston,201600,Omer Asik,C,,24:25,141.3,94.9,46.5,0.0,0.0,0.0,0.0,0.536,0.333,27.6,0.571,0.635,0.183,113.67,0.135,2014-04-08T00:00:00,6,1610612745,HOU,Houston,52-25,35,31,49,30,0,0,0,0,0,0,0,0,0,0,145,0.577,0.786,0.423,33,58,14,0021301161,1610612745,HOU,Houston,Omer Asik,C,,24:25,0.0,0.0,2.0,8.0,4.0,4.0,13.0,24.0,2.0,0.0,2.0,2.0
0021301161,1610612745,HOU,Houston,201600,Omer Asik,C,,24:25,141.3,94.9,46.5,0.0,0.0,0.0,0.0,0.536,0.333,27.6,0.571,0.635,0.183,113.67,0.135,2014-04-08T00:00:00,6,1610612747,LAL,Los Angeles,25-53,26,35,29,40,0,0,0,0,0,0,0,0,0,0,130,0.463,0.8,0.438,38,33,11,0021301161,1610612745,HOU,Houston,Omer Asik,C,,24:25,0.0,0.0,2.0,8.0,4.0,4.0,13.0,24.0,2.0,0.0,2.0,2.0
0021301161,1610612745,HOU,Houston,201935,James Harden,G,,31:46,141.2,102.6,38.6,0.4,12.0,36.5,0.042,0.061,0.053,3.0,0.767,0.832,0.259,114.35,0.2,2014-04-08T00:00:00,6,1610612745,HOU,Houston,52-25,35,31,49,30,0,0,0,0,0,0,0,0,0,0,145,0.577,0.786,0.423,33,58,14,0021301161,1610612745,HOU,Houston,James Harden,G,,31:46,2.0,0.0,6.0,8.0,6.0,7.0,18.0,30.0,1.0,1.0,3.0,7.0
0021301161,1610612745,HOU,Houston,201935,James Harden,G,,31:46,141.2,102.6,38.6,0.4,12.0,36.5,0.042,0.061,0.053,3.0,0.767,0.832,0.259,114.35,0.2,2014-04-08T00:00:00,6,1610612747,LAL,Los Angeles,25-53,26,35,29,40,0,0,0,0,0,0,0,0,0,0,130,0.463,0.8,0.438,38,33,11,0021301161,1610612745,HOU,Houston,James Harden,G,,31:46,2.0,0.0,6.0,8.0,6.0,7.0,18.0,30.0,1.0,1.0,3.0,7.0
0021301161,1610612745,HOU,Houston,202391,Jeremy Lin,G,,26:15,134.7,109.6,25.0,0.214,2.0,35.3,0.105,0.077,0.089,17.6,0.563,0.563,0.171,112.68,0.064,2014-04-08T00:00:00,6,1610612745,HOU,Houston,52-25,35,31,49,30,0,0,0,0,0,0,0,0,0,0,145,0.577,0.786,0.423,33,58,14,0021301161,1610612745,HOU,Houston,Jeremy Lin,G,,26:15,4.0,0.0,4.0,4.0,8.0,8.0,20.0,32.0,1.0,1.0,4.0,0.0
0021301161,1610612745,HOU,Houston,202391,Jeremy Lin,G,,26:15,134.7,109.6,25.0,0.214,2.0,35.3,0.105,0.077,0.089,17.6,0.563,0.563,0.171,112.68,0.064,2014-04-08T00:00:00,6,1610612747,LAL,Los Angeles,25-53,26,35,29,40,0,0,0,0,0,0,0,0,0,0,130,0.463,0.8,0.438,38,33,11,0021301161,1610612745,HOU,Houston,Jeremy Lin,G,,26:15,4.0,0.0,4.0,4.0,8.0,8.0,20.0,32.0,1.0,1.0,4.0,0.0
0021301161,1610612745,HOU,Houston,202700,Donatas Motiejunas,,,23:30,110.8,124.5,-13.7,0.0,0.0,0.0,0.16,0.458,0.306,7.0,0.455,0.492,0.225,113.57,0.127,2014-04-08T00:00:00,6,1610612745,HOU,Houston,52-25,35,31,49,30,0,0,0,0,0,0,0,0,0,0,145,0.577,0.786,0.423,33,58,14,0021301161,1610612745,HOU,Houston,Donatas Motiejunas,,,23:30,0.0,3.0,0.0,10.0,13.0,6.0,25.0,20.0,1.0,0.0,1.0,3.0
0021301161,1610612745,HOU,Houston,202700,Donatas Motiejunas,,,23:30,110.8,124.5,-13.7,0.0,0.0,0.0,0.16,0.458,0.306,7.0,0.455,0.492,0.225,113.57,0.127,2014-04-08T00:00:00,6,1610612747,LAL,Los Angeles,25-53,26,35,29,40,0,0,0,0,0,0,0,0,0,0,130,0.463,0.8,0.438,38,33,11,0021301161,1610612745,HOU,Houston,Donatas Motiejunas,,,23:30,0.0,3.0,0.0,10.0,13.0,6.0,25.0,20.0,1.0,0.0,1.0,3.0
0021301161,1610612745,HOU,Houston,203477,Isaiah Canaan,,,26:52,124.0,120.2,3.7,0.042,0.5,9.1,0.0,0.032,0.018,18.2,0.938,0.938,0.141,114.16,0.078,2014-04-08T00:00:00,6,1610612745,HOU,Houston,52-25,35,31,49,30,0,0,0,0,0,0,0,0,0,0,145,0.577,0.786,0.423,33,58,14,0021301161,1610612745,HOU,Houston,Isaiah Canaan,,,26:52,3.0,2.0,3.0,6.0,13.0,5.0,24.0,22.0,0.0,1.0,1.0,0.0
0021301161,1610612745,HOU,Houston,203477,Isaiah Canaan,,,26:52,124.0,120.2,3.7,0.042,0.5,9.1,0.0,0.032,0.018,18.2,0.938,0.938,0.141,114.16,0.078,2014-04-08T00:00:00,6,1610612747,LAL,Los Angeles,25-53,26,35,29,40,0,0,0,0,0,0,0,0,0,0,130,0.463,0.8,0.438,38,33,11,0021301161,1610612745,HOU,Houston,Isaiah Canaan,,,26:52,3.0,2.0,3.0,6.0,13.0,5.0,24.0,22.0,0.0,1.0,1.0,0.0
0021301161,1610612745,HOU,Houston,101128,Francisco Garcia,,,22:59,118.8,124.2,-5.4,0.125,1.5,21.4,0.043,0.08,0.062,14.3,0.278,0.278,0.173,115.99,-0.019,2014-04-08T00:00:00,6,1610612745,HOU,Houston,52-25,35,31,49,30,0,0,0,0,0,0,0,0,0,0,145,0.577,0.786,0.423,33,58,14,0021301161,1610612745,HOU,Houston,Francisco Garcia,,,22:59,0.0,0.0,2.0,2.0,13.0,5.0,23.0,20.0,2.0,2.0,5.0,0.0
0021301161,1610612745,HOU,Houston,101128,Francisco Garcia,,,22:59,118.8,124.2,-5.4,0.125,1.5,21.4,0.043,0.08,0.062,14.3,0.278,0.278,0.173,115.99,-0.019,2014-04-08T00:00:00,6,1610612747,LAL,Los Angeles,25-53,26,35,29,40,0,0,0,0,0,0,0,0,0,0,130,0.463,0.8,0.438,38,33,11,0021301161,1610612745,HOU,Houston,Francisco Garcia,,,22:59,0.0,0.0,2.0,2.0,13.0,5.0,23.0,20.0,2.0,2.0,5.0,0.0
0021301161,1610612745,HOU,Houston,201956,Omri Casspi,,,13:11,105.6,128.7,-23.2,0.083,1.0,16.7,0.077,0.25,0.172,16.7,0.75,0.75,0.134,119.42,0.13,2014-04-08T00:00:00,6,1610612745,HOU,Houston,52-25,35,31,49,30,0,0,0,0,0,0,0,0,0,0,145,0.577,0.786,0.423,33,58,14,0021301161,1610612745,HOU,Houston,Omri Casspi,,,13:11,2.0,2.0,0.0,6.0,11.0,3.0,18.0,14.0,0.0,0.0,0.0,1.0
0021301161,1610612745,HOU,Houston,201956,Omri Casspi,,,13:11,105.6,128.7,-23.2,0.083,1.0,16.7,0.077,0.25,0.172,16.7,0.75,0.75,0.134,119.42,0.13,2014-04-08T00:00:00,6,1610612747,LAL,Los Angeles,25-53,26,35,29,40,0,0,0,0,0,0,0,0,0,0,130,0.463,0.8,0.438,38,33,11,0021301161,1610612745,HOU,Houston,Omri Casspi,,,13:11,2.0,2.0,0.0,6.0,11.0,3.0,18.0,14.0,0.0,0.0,0.0,1.0
0021301161,1610612745,HOU,Houston,202706,Jordan Hamilton,,,6:53,98.8,128.8,-30.0,0.0,0.0,0.0,0.0,0.25,0.125,0.0,0.25,0.25,0.189,119.52,0.0,2014-04-08T00:00:00,6,1610612745,HOU,Houston,52-25,35,31,49,30,0,0,0,0,0,0,0,0,0,0,145,0.577,0.786,0.423,33,58,14,0021301161,1610612745,HOU,Houston,Jordan Hamilton,,,6:53,0.0,0.0,0.0,2.0,7.0,0.0,9.0,6.0,0.0,0.0,1.0,0.0
0021301161,1610612745,HOU,Houston,202706,Jordan Hamilton,,,6:53,98.8,128.8,-30.0,0.0,0.0,0.0,0.0,0.25,0.125,0.0,0.25,0.25,0.189,119.52,0.0,2014-04-08T00:00:00,6,1610612747,LAL,Los Angeles,25-53,26,35,29,40,0,0,0,0,0,0,0,0,0,0,130,0.463,0.8,0.438,38,33,11,0021301161,1610612745,HOU,Houston,Jordan Hamilton,,,6:53,0.0,0.0,0.0,2.0,7.0,0.0,9.0,6.0,0.0,0.0,1.0,0.0
0021301161,1610612745,HOU,Houston,201976,Patrick Beverley,,DND - Right knee sprian.,,,,,,,0.0,,,,,,,0.0,,,2014-04-08T00:00:00,6,1610612745,HOU,Houston,52-25,35,31,49,30,0,0,0,0,0,0,0,0,0,0,145,0.577,0.786,0.423,33,58,14,0021301161,1610612745,HOU,Houston,Patrick Beverley,,DND - Right knee sprian.,,,,,,,,,,,,,
0021301161,1610612745,HOU,Houston,201976,Patrick Beverley,,DND - Right knee sprian.,,,,,,,0.0,,,,,,,0.0,,,2014-04-08T00:00:00,6,1610612747,LAL,Los Angeles,25-53,26,35,29,40,0,0,0,0,0,0,0,0,0,0,130,0.463,0.8,0.438,38,33,11,0021301161,1610612745,HOU,Houston,Patrick Beverley,,DND - Right knee sprian.,,,,,,,,,,,,,
0021301161,1610612745,HOU,Houston,2730,Dwight Howard,,DND - Left ankle sprain.,,,,,,,0.0,,,,,,,0.0,,,2014-04-08T00:00:00,6,1610612745,HOU,Houston,52-25,35,31,49,30,0,0,0,0,0,0,0,0,0,0,145,0.577,0.786,0.423,33,58,14,0021301161,1610612745,HOU,Houston,Dwight Howard,,DND - Left ankle sprain.,,,,,,,,,,,,,
0021301161,1610612745,HOU,Houston,2730,Dwight Howard,,DND - Left ankle sprain.,,,,,,,0.0,,,,,,,0.0,,,2014-04-08T00:00:00,6,1610612747,LAL,Los Angeles,25-53,26,35,29,40,0,0,0,0,0,0,0,0,0,0,130,0.463,0.8,0.438,38,33,11,0021301161,1610612745,HOU,Houston,Dwight Howard,,DND - Left ankle sprain.,,,,,,,,,,,,,
0021301161,1610612745,HOU,Houston,202962,Greg Smith,,NWT - Arthroscopic right knee procedure.,,,,,,,0.0,,,,,,,0.0,,,2014-04-08T00:00:00,6,1610612745,HOU,Houston,52-25,35,31,49,30,0,0,0,0,0,0,0,0,0,0,145,0.577,0.786,0.423,33,58,14,0021301161,1610612745,HOU,Houston,Greg Smith,,NWT - Arthroscopic right knee procedure.,,,,,,,,,,,,,
0021301161,1610612745,HOU,Houston,202962,Greg Smith,,NWT - Arthroscopic right knee procedure.,,,,,,,0.0,,,,,,,0.0,,,2014-04-08T00:00:00,6,1610612747,LAL,Los Angeles,25-53,26,35,29,40,0,0,0,0,0,0,0,0,0,0,130,0.463,0.8,0.438,38,33,11,0021301161,1610612745,HOU,Houston,Greg Smith,,NWT - Arthroscopic right knee procedure.,,,,,,,,,,,,,
0021301161,1610612747,LAL,Los Angeles,202325,Wesley Johnson,F,,38:42,104.3,138.5,-34.2,0.167,2.5,26.5,0.023,0.103,0.056,10.6,0.409,0.463,0.144,110.69,0.042,2014-04-08T00:00:00,6,1610612745,HOU,Houston,52-25,35,31,49,30,0,0,0,0,0,0,0,0,0,0,145,0.577,0.786,0.423,33,58,14,0021301161,1610612747,LAL,Los Angeles,Wesley Johnson,F,,38:42,3.0,0.0,0.0,0.0,11.0,10.0,24.0,64.0,0.0,2.0,1.0,1.0
0021301161,1610612747,LAL,Los Angeles,202325,Wesley Johnson,F,,38:42,104.3,138.5,-34.2,0.167,2.5,26.5,0.023,0.103,0.056,10.6,0.409,0.463,0.144,110.69,0.042,2014-04-08T00:00:00,6,1610612747,LAL,Los Angeles,25-53,26,35,29,40,0,0,0,0,0,0,0,0,0,0,130,0.463,0.8,0.438,38,33,11,0021301161,1610612747,LAL,Los Angeles,Wesley Johnson,F,,38:42,3.0,0.0,0.0,0.0,11.0,10.0,24.0,64.0,0.0,2.0,1.0,1.0
0021301161,1610612747,LAL,Los Angeles,203527,Ryan Kelly,F,,31:53,104.5,139.1,-34.6,0.111,0.0,11.2,0.0,0.107,0.048,0.0,0.455,0.568,0.207,111.92,0.062,2014-04-08T00:00:00,6,1610612745,HOU,Houston,52-25,35,31,49,30,0,0,0,0,0,0,0,0,0,0,145,0.577,0.786,0.423,33,58,14,0021301161,1610612747,LAL,Los Angeles,Ryan Kelly,F,,31:53,0.0,0.0,2.0,8.0,8.0,10.0,20.0,58.0,1.0,1.0,4.0,6.0
0021301161,1610612747,LAL,Los Angeles,203527,Ryan Kelly,F,,31:53,104.5,139.1,-34.6,0.111,0.0,11.2,0.0,0.107,0.048,0.0,0.455,0.568,0.207,111.92,0.062,2014-04-08T00:00:00,6,1610612747,LAL,Los Angeles,25-53,26,35,29,40,0,0,0,0,0,0,0,0,0,0,130,0.463,0.8,0.438,38,33,11,0021301161,1610612747,LAL,Los Angeles,Ryan Kelly,F,,31:53,0.0,0.0,2.0,8.0,8.0,10.0,20.0,58.0,1.0,1.0,4.0,6.0
0021301161,1610612747,LAL,Los Angeles,201941,Jordan Hill,C,,23:41,113.1,144.3,-31.3,0.158,3.0,21.6,0.042,0.267,0.128,7.2,0.556,0.607,0.188,111.23,0.088,2014-04-08T00:00:00,6,1610612745,HOU,Houston,52-25,35,31,49,30,0,0,0,0,0,0,0,0,0,0,145,0.577,0.786,0.423,33,58,14,0021301161,1610612747,LAL,Los Angeles,Jordan Hill,C,,23:41,2.0,2.0,0.0,2.0,6.0,7.0,18.0,44.0,3.0,0.0,4.0,1.0
0021301161,1610612747,LAL,Los Angeles,201941,Jordan Hill,C,,23:41,113.1,144.3,-31.3,0.158,3.0,21.6,0.042,0.267,0.128,7.2,0.556,0.607,0.188,111.23,0.088,2014-04-08T00:00:00,6,1610612747,LAL,Los Angeles,25-53,26,35,29,40,0,0,0,0,0,0,0,0,0,0,130,0.463,0.8,0.438,38,33,11,0021301161,1610612747,LAL,Los Angeles,Jordan Hill,C,,23:41,2.0,2.0,0.0,2.0,6.0,7.0,18.0,44.0,3.0,0.0,4.0,1.0
0021301161,1610612747,LAL,Los Angeles,201975,Jodie Meeks,G,,38:09,106.9,123.9,-17.0,0.24,6.0,19.9,0.023,0.094,0.053,3.3,0.619,0.647,0.241,115.9,0.134,2014-04-08T00:00:00,6,1610612745,HOU,Houston,52-25,35,31,49,30,0,0,0,0,0,0,0,0,0,0,145,0.577,0.786,0.423,33,58,14,0021301161,1610612747,LAL,Los Angeles,Jodie Meeks,G,,38:09,6.0,5.0,15.0,20.0,10.0,9.0,26.0,64.0,0.0,1.0,0.0,3.0
0021301161,1610612747,LAL,Los Angeles,201975,Jodie Meeks,G,,38:09,106.9,123.9,-17.0,0.24,6.0,19.9,0.023,0.094,0.053,3.3,0.619,0.647,0.241,115.9,0.134,2014-04-08T00:00:00,6,1610612747,LAL,Los Angeles,25-53,26,35,29,40,0,0,0,0,0,0,0,0,0,0,130,0.463,0.8,0.438,38,33,11,0021301161,1610612747,LAL,Los Angeles,Jodie Meeks,G,,38:09,6.0,5.0,15.0,20.0,10.0,9.0,26.0,64.0,0.0,1.0,0.0,3.0
0021301161,1610612747,LAL,Los Angeles,203088,Kendall Marshall,G,,19:02,99.6,136.5,-36.8,0.25,4.0,44.4,0.0,0.0,0.0,11.1,0.0,0.0,0.108,112.38,-0.01,2014-04-08T00:00:00,6,1610612745,HOU,Houston,52-25,35,31,49,30,0,0,0,0,0,0,0,0,0,0,145,0.577,0.786,0.423,33,58,14,0021301161,1610612747,LAL,Los Angeles,Kendall Marshall,G,,19:02,0.0,0.0,0.0,0.0,4.0,9.0,11.0,38.0,0.0,1.0,1.0,0.0
0021301161,1610612747,LAL,Los Angeles,203088,Kendall Marshall,G,,19:02,99.6,136.5,-36.8,0.25,4.0,44.4,0.0,0.0,0.0,11.1,0.0,0.0,0.108,112.38,-0.01,2014-04-08T00:00:00,6,1610612747,LAL,Los Angeles,25-53,26,35,29,40,0,0,0,0,0,0,0,0,0,0,130,0.463,0.8,0.438,38,33,11,0021301161,1610612747,LAL,Los Angeles,Kendall Marshall,G,,19:02,0.0,0.0,0.0,0.0,4.0,9.0,11.0,38.0,0.0,1.0,1.0,0.0
0021301161,1610612747,LAL,Los Angeles,200770,Jordan Farmar,,,26:33,123.6,121.6,1.9,0.364,2.0,34.3,0.0,0.2,0.1,17.2,0.6,0.663,0.221,116.47,0.141,2014-04-08T00:00:00,6,1610612745,HOU,Houston,52-25,35,31,49,30,0,0,0,0,0,0,0,0,0,0,145,0.577,0.786,0.423,33,58,14,0021301161,1610612747,LAL,Los Angeles,Jordan Farmar,,,26:33,2.0,0.0,3.0,4.0,9.0,4.0,18.0,40.0,2.0,0.0,0.0,3.0
0021301161,1610612747,LAL,Los Angeles,200770,Jordan Farmar,,,26:33,123.6,121.6,1.9,0.364,2.0,34.3,0.0,0.2,0.1,17.2,0.6,0.663,0.221,116.47,0.141,2014-04-08T00:00:00,6,1610612747,LAL,Los Angeles,25-53,26,35,29,40,0,0,0,0,0,0,0,0,0,0,130,0.463,0.8,0.438,38,33,11,0021301161,1610612747,LAL,Los Angeles,Jordan Farmar,,,26:33,2.0,0.0,3.0,4.0,9.0,4.0,18.0,40.0,2.0,0.0,0.0,3.0
0021301161,1610612747,LAL,Los Angeles,201156,Nick Young,,,22:56,126.7,131.2,-4.5,0.214,0.0,12.2,0.0,0.056,0.024,0.0,0.737,0.739,0.363,120.89,0.141,2014-04-08T00:00:00,6,1610612745,HOU,Houston,52-25,35,31,49,30,0,0,0,0,0,0,0,0,0,0,145,0.577,0.786,0.423,33,58,14,0021301161,1610612747,LAL,Los Angeles,Nick Young,,,22:56,2.0,3.0,16.0,10.0,9.0,7.0,14.0,42.0,0.0,2.0,4.0,3.0
0021301161,1610612747,LAL,Los Angeles,201156,Nick Young,,,22:56,126.7,131.2,-4.5,0.214,0.0,12.2,0.0,0.056,0.024,0.0,0.737,0.739,0.363,120.89,0.141,2014-04-08T00:00:00,6,1610612747,LAL,Los Angeles,25-53,26,35,29,40,0,0,0,0,0,0,0,0,0,0,130,0.463,0.8,0.438,38,33,11,0021301161,1610612747,LAL,Los Angeles,Nick Young,,,22:56,2.0,3.0,16.0,10.0,9.0,7.0,14.0,42.0,0.0,2.0,4.0,3.0
0021301161,1610612747,LAL,Los Angeles,203135,Robert Sacre,,,19:34,114.2,118.5,-4.3,0.0,0.0,0.0,0.05,0.278,0.158,12.7,0.333,0.436,0.151,115.0,0.01,2014-04-08T00:00:00,6,1610612745,HOU,Houston,52-25,35,31,49,30,0,0,0,0,0,0,0,0,0,0,145,0.577,0.786,0.423,33,58,14,0021301161,1610612747,LAL,Los Angeles,Robert Sacre,,,19:34,0.0,0.0,0.0,2.0,5.0,2.0,9.0,24.0,1.0,2.0,6.0,2.0
0021301161,1610612747,LAL,Los Angeles,203135,Robert Sacre,,,19:34,114.2,118.5,-4.3,0.0,0.0,0.0,0.05,0.278,0.158,12.7,0.333,0.436,0.151,115.0,0.01,2014-04-08T00:00:00,6,1610612747,LAL,Los Angeles,25-53,26,35,29,40,0,0,0,0,0,0,0,0,0,0,130,0.463,0.8,0.438,38,33,11,0021301161,1610612747,LAL,Los Angeles,Robert Sacre,,,19:34,0.0,0.0,0.0,2.0,5.0,2.0,9.0,24.0,1.0,2.0,6.0,2.0
0021301161,1610612747,LAL,Los Angeles,959,Steve Nash,,,13:10,116.7,121.6,-4.9,0.5,5.0,62.5,0.077,0.154,0.115,12.5,0.75,0.75,0.091,107.18,0.132,2014-04-08T00:00:00,6,1610612745,HOU,Houston,52-25,35,31,49,30,0,0,0,0,0,0,0,0,0,0,145,0.577,0.786,0.423,33,58,14,0021301161,1610612747,LAL,Los Angeles,Steve Nash,,,13:10,0.0,0.0,0.0,0.0,3.0,2.0,5.0,14.0,0.0,0.0,0.0,1.0
0021301161,1610612747,LAL,Los Angeles,959,Steve Nash,,,13:10,116.7,121.6,-4.9,0.5,5.0,62.5,0.077,0.154,0.115,12.5,0.75,0.75,0.091,107.18,0.132,2014-04-08T00:00:00,6,1610612747,LAL,Los Angeles,25-53,26,35,29,40,0,0,0,0,0,0,0,0,0,0,130,0.463,0.8,0.438,38,33,11,0021301161,1610612747,LAL,Los Angeles,Steve Nash,,,13:10,0.0,0.0,0.0,0.0,3.0,2.0,5.0,14.0,0.0,0.0,0.0,1.0
0021301161,1610612747,LAL,Los Angeles,202705,MarShon Brooks,,,6:20,124.4,91.4,33.0,0.333,0.0,34.7,0.0,0.25,0.125,0.0,0.0,0.399,0.234,118.99,0.136,2014-04-08T00:00:00,6,1610612745,HOU,Houston,52-25,35,31,49,30,0,0,0,0,0,0,0,0,0,0,145,0.577,0.786,0.423,33,58,14,0021301161,1610612747,LAL,Los Angeles,MarShon Brooks,,,6:20,2.0,0.0,2.0,0.0,0.0,5.0,0.0,12.0,0.0,0.0,0.0,2.0
0021301161,1610612747,LAL,Los Angeles,202705,MarShon Brooks,,,6:20,124.4,91.4,33.0,0.333,0.0,34.7,0.0,0.25,0.125,0.0,0.0,0.399,0.234,118.99,0.136,2014-04-08T00:00:00,6,1610612747,LAL,Los Angeles,25-53,26,35,29,40,0,0,0,0,0,0,0,0,0,0,130,0.463,0.8,0.438,38,33,11,0021301161,1610612747,LAL,Los Angeles,MarShon Brooks,,,6:20,2.0,0.0,2.0,0.0,0.0,5.0,0.0,12.0,0.0,0.0,0.0,2.0
0021301161,1610612747,LAL,Los Angeles,203145,Kent Bazemore,,"DND - Torn tendon, right foot.",,,,,,,0.0,,,,,,,0.0,,,2014-04-08T00:00:00,6,1610612745,HOU,Houston,52-25,35,31,49,30,0,0,0,0,0,0,0,0,0,0,145,0.577,0.786,0.423,33,58,14,0021301161,1610612747,LAL,Los Angeles,Kent Bazemore,,"DND - Torn tendon, right foot.",,,,,,,,,,,,,
0021301161,1610612747,LAL,Los Angeles,203145,Kent Bazemore,,"DND - Torn tendon, right foot.",,,,,,,0.0,,,,,,,0.0,,,2014-04-08T00:00:00,6,1610612747,LAL,Los Angeles,25-53,26,35,29,40,0,0,0,0,0,0,0,0,0,0,130,0.463,0.8,0.438,38,33,11,0021301161,1610612747,LAL,Los Angeles,Kent Bazemore,,"DND - Torn tendon, right foot.",,,,,,,,,,,,,
0021301161,1610612747,LAL,Los Angeles,2200,Pau Gasol,,DND - Vertigo.,,,,,,,0.0,,,,,,,0.0,,,2014-04-08T00:00:00,6,1610612745,HOU,Houston,52-25,35,31,49,30,0,0,0,0,0,0,0,0,0,0,145,0.577,0.786,0.423,33,58,14,0021301161,1610612747,LAL,Los Angeles,Pau Gasol,,DND - Vertigo.,,,,,,,,,,,,,
0021301161,1610612747,LAL,Los Angeles,2200,Pau Gasol,,DND - Vertigo.,,,,,,,0.0,,,,,,,0.0,,,2014-04-08T00:00:00,6,1610612747,LAL,Los Angeles,25-53,26,35,29,40,0,0,0,0,0,0,0,0,0,0,130,0.463,0.8,0.438,38,33,11,0021301161,1610612747,LAL,Los Angeles,Pau Gasol,,DND - Vertigo.,,,,,,,,,,,,,
0021301161,1610612747,LAL,Los Angeles,2549,Chris Kaman,,DND - Strained right calf.,,,,,,,0.0,,,,,,,0.0,,,2014-04-08T00:00:00,6,1610612745,HOU,Houston,52-25,35,31,49,30,0,0,0,0,0,0,0,0,0,0,145,0.577,0.786,0.423,33,58,14,0021301161,1610612747,LAL,Los Angeles,Chris Kaman,,DND - Strained right calf.,,,,,,,,,,,,,
0021301161,1610612747,LAL,Los Angeles,2549,Chris Kaman,,DND - Strained right calf.,,,,,,,0.0,,,,,,,0.0,,,2014-04-08T00:00:00,6,1610612747,LAL,Los Angeles,25-53,26,35,29,40,0,0,0,0,0,0,0,0,0,0,130,0.463,0.8,0.438,38,33,11,0021301161,1610612747,LAL,Los Angeles,Chris Kaman,,DND - Strained right calf.,,,,,,,,,,,,,
