GAME_ID_x,TEAM_ID_x,TEAM_ABBREVIATION_x,TEAM_CITY_x,PLAYER_ID,PLAYER_NAME_x,START_POSITION_x,COMMENT_x,MIN_x,OFF_RATING,DEF_RATING,NET_RATING,AST_PCT,AST_TOV,AST_RATIO,OREB_PCT,DREB_PCT,REB_PCT,TM_TOV_PCT,EFG_PCT,TS_PCT,USG_PCT,PACE,PIE,GAME_DATE_EST,GAME_SEQUENCE,TEAM_ID_y,TEAM_ABBREVIATION_y,TEAM_CITY_NAME,TEAM_WINS_LOSSES,PTS_QTR1,PTS_QTR2,PTS_QTR3,PTS_QTR4,PTS_OT1,PTS_OT2,PTS_OT3,PTS_OT4,PTS_OT5,PTS_OT6,PTS_OT7,PTS_OT8,PTS_OT9,PTS_OT10,PTS,FG_PCT,FT_PCT,FG3_PCT,AST,REB,TOV,GAME_ID_y,TEAM_ID,TEAM_ABBREVIATION,TEAM_CITY_y,PLAYER_NAME_y,START_POSITION_y,COMMENT_y,MIN_y,PTS_OFF_TOV,PTS_2ND_CHANCE,PTS_FB,PTS_PAINT,OPP_PTS_OFF_TOV,OPP_PTS_2ND_CHANCE,OPP_PTS_FB,OPP_PTS_PAINT,BLK,BLKA,PF,PFD
0021301173,1610612760,OKC,Oklahoma City,201142,Kevin Durant,F,,41:07,109.3,101.2,8.1,0.154,2.0,10.9,0.025,0.048,0.037,5.4,0.327,0.438,0.342,101.54,0.083,2014-04-09T00:00:00,12,1610612760,OKC,Oklahoma City,57-21,29,30,26,22,0,0,0,0,0,0,0,0,0,0,107,0.422,0.813,0.238,18,44,8,0021301173,1610612760,OKC,Oklahoma City,Kevin Durant,F,,41:07,4.0,4.0,6.0,6.0,7.0,15.0,21.0,38.0,0.0,1.0,3.0,5.0
0021301173,1610612760,OKC,Oklahoma City,201142,Kevin Durant,F,,41:07,109.3,101.2,8.1,0.154,2.0,10.9,0.025,0.048,0.037,5.4,0.327,0.438,0.342,101.54,0.083,2014-04-09T00:00:00,12,1610612746,LAC,Los Angeles,55-24,22,32,19,28,0,0,0,0,0,0,0,0,0,0,101,0.419,0.618,0.296,23,52,16,0021301173,1610612760,OKC,Oklahoma City,Kevin Durant,F,,41:07,4.0,4.0,6.0,6.0,7.0,15.0,21.0,38.0,0.0,1.0,3.0,5.0
0021301173,1610612760,OKC,Oklahoma City,201586,Serge Ibaka,F,,29:41,110.2,89.3,20.9,0.056,1.0,6.3,0.032,0.207,0.117,6.3,0.458,0.545,0.215,102.36,0.126,2014-04-09T00:00:00,12,1610612760,OKC,Oklahoma City,57-21,29,30,26,22,0,0,0,0,0,0,0,0,0,0,107,0.422,0.813,0.238,18,44,8,0021301173,1610612760,OKC,Oklahoma City,Serge Ibaka,F,,29:41,4.0,2.0,2.0,6.0,4.0,11.0,15.0,30.0,4.0,0.0,4.0,2.0
0021301173,1610612760,OKC,Oklahoma City,201586,Serge Ibaka,F,,29:41,110.2,89.3,20.9,0.056,1.0,6.3,0.032,0.207,0.117,6.3,0.458,0.545,0.215,102.36,0.126,2014-04-09T00:00:00,12,1610612746,LAC,Los Angeles,55-24,22,32,19,28,0,0,0,0,0,0,0,0,0,0,101,0.419,0.618,0.296,23,52,16,0021301173,1610612760,OKC,Oklahoma City,Serge Ibaka,F,,29:41,4.0,2.0,2.0,6.0,4.0,11.0,15.0,30.0,4.0,0.0,4.0,2.0
0021301173,1610612760,OKC,Oklahoma City,2570,Kendrick Perkins,C,,21:47,114.0,91.6,22.4,0.0,0.0,0.0,0.043,0.15,0.093,0.0,1.0,1.0,0.06,100.93,0.115,2014-04-09T00:00:00,12,1610612760,OKC,Oklahoma City,57-21,29,30,26,22,0,0,0,0,0,0,0,0,0,0,107,0.422,0.813,0.238,18,44,8,0021301173,1610612760,OKC,Oklahoma City,Kendrick Perkins,C,,21:47,0.0,2.0,0.0,6.0,2.0,11.0,9.0,24.0,1.0,0.0,2.0,0.0
0021301173,1610612760,OKC,Oklahoma City,2570,Kendrick Perkins,C,,21:47,114.0,91.6,22.4,0.0,0.0,0.0,0.043,0.15,0.093,0.0,1.0,1.0,0.06,100.93,0.115,2014-04-09T00:00:00,12,1610612746,LAC,Los Angeles,55-24,22,32,19,28,0,0,0,0,0,0,0,0,0,0,101,0.419,0.618,0.296,23,52,16,0021301173,1610612760,OKC,Oklahoma City,Kendrick Perkins,C,,21:47,0.0,2.0,0.0,6.0,2.0,11.0,9.0,24.0,1.0,0.0,2.0,0.0
0021301173,1610612760,OKC,Oklahoma City,200757,Thabo Sefolosha,G,,23:38,121.8,89.2,32.6,0.1,0.0,40.0,0.0,0.042,0.022,0.0,0.5,0.5,0.058,99.56,0.029,2014-04-09T00:00:00,12,1610612760,OKC,Oklahoma City,57-21,29,30,26,22,0,0,0,0,0,0,0,0,0,0,107,0.422,0.813,0.238,18,44,8,0021301173,1610612760,OKC,Oklahoma City,Thabo Sefolosha,G,,23:38,3.0,0.0,0.0,0.0,3.0,11.0,10.0,16.0,0.0,0.0,4.0,0.0
0021301173,1610612760,OKC,Oklahoma City,200757,Thabo Sefolosha,G,,23:38,121.8,89.2,32.6,0.1,0.0,40.0,0.0,0.042,0.022,0.0,0.5,0.5,0.058,99.56,0.029,2014-04-09T00:00:00,12,1610612746,LAC,Los Angeles,55-24,22,32,19,28,0,0,0,0,0,0,0,0,0,0,101,0.419,0.618,0.296,23,52,16,0021301173,1610612760,OKC,Oklahoma City,Thabo Sefolosha,G,,23:38,3.0,0.0,0.0,0.0,3.0,11.0,10.0,16.0,0.0,0.0,4.0,0.0
0021301173,1610612760,OKC,Oklahoma City,201566,Russell Westbrook,G,,33:08,116.7,94.4,22.3,0.333,6.0,17.4,0.091,0.222,0.159,2.9,0.5,0.545,0.356,103.67,0.258,2014-04-09T00:00:00,12,1610612760,OKC,Oklahoma City,57-21,29,30,26,22,0,0,0,0,0,0,0,0,0,0,107,0.422,0.813,0.238,18,44,8,0021301173,1610612760,OKC,Oklahoma City,Russell Westbrook,G,,33:08,9.0,3.0,6.0,14.0,7.0,13.0,20.0,30.0,0.0,3.0,2.0,6.0
0021301173,1610612760,OKC,Oklahoma City,201566,Russell Westbrook,G,,33:08,116.7,94.4,22.3,0.333,6.0,17.4,0.091,0.222,0.159,2.9,0.5,0.545,0.356,103.67,0.258,2014-04-09T00:00:00,12,1610612746,LAC,Los Angeles,55-24,22,32,19,28,0,0,0,0,0,0,0,0,0,0,101,0.419,0.618,0.296,23,52,16,0021301173,1610612760,OKC,Oklahoma City,Russell Westbrook,G,,33:08,9.0,3.0,6.0,14.0,7.0,13.0,20.0,30.0,0.0,3.0,2.0,6.0
0021301173,1610612760,OKC,Oklahoma City,2555,Nick Collison,,,12:15,113.1,94.3,18.9,0.091,1.0,33.3,0.2,0.125,0.154,33.3,1.0,1.0,0.07,99.76,0.071,2014-04-09T00:00:00,12,1610612760,OKC,Oklahoma City,57-21,29,30,26,22,0,0,0,0,0,0,0,0,0,0,107,0.422,0.813,0.238,18,44,8,0021301173,1610612760,OKC,Oklahoma City,Nick Collison,,,12:15,0.0,0.0,0.0,2.0,5.0,4.0,8.0,6.0,0.0,0.0,2.0,2.0
0021301173,1610612760,OKC,Oklahoma City,2555,Nick Collison,,,12:15,113.1,94.3,18.9,0.091,1.0,33.3,0.2,0.125,0.154,33.3,1.0,1.0,0.07,99.76,0.071,2014-04-09T00:00:00,12,1610612746,LAC,Los Angeles,55-24,22,32,19,28,0,0,0,0,0,0,0,0,0,0,101,0.419,0.618,0.296,23,52,16,0021301173,1610612760,OKC,Oklahoma City,Nick Collison,,,12:15,0.0,0.0,0.0,2.0,5.0,4.0,8.0,6.0,0.0,0.0,2.0,2.0
0021301173,1610612760,OKC,Oklahoma City,203500,Steven Adams,,,19:34,104.3,99.3,4.9,0.0,0.0,0.0,0.105,0.25,0.179,0.0,1.0,0.833,0.089,103.57,0.132,2014-04-09T00:00:00,12,1610612760,OKC,Oklahoma City,57-21,29,30,26,22,0,0,0,0,0,0,0,0,0,0,107,0.422,0.813,0.238,18,44,8,0021301173,1610612760,OKC,Oklahoma City,Steven Adams,,,19:34,0.0,2.0,0.0,4.0,5.0,2.0,7.0,14.0,1.0,0.0,3.0,3.0
0021301173,1610612760,OKC,Oklahoma City,203500,Steven Adams,,,19:34,104.3,99.3,4.9,0.0,0.0,0.0,0.105,0.25,0.179,0.0,1.0,0.833,0.089,103.57,0.132,2014-04-09T00:00:00,12,1610612746,LAC,Los Angeles,55-24,22,32,19,28,0,0,0,0,0,0,0,0,0,0,101,0.419,0.618,0.296,23,52,16,0021301173,1610612760,OKC,Oklahoma City,Steven Adams,,,19:34,0.0,2.0,0.0,4.0,5.0,2.0,7.0,14.0,1.0,0.0,3.0,3.0
0021301173,1610612760,OKC,Oklahoma City,202704,Reggie Jackson,,,23:47,91.1,99.2,-8.1,0.154,2.0,16.8,0.0,0.12,0.061,8.4,0.5,0.507,0.175,102.84,0.095,2014-04-09T00:00:00,12,1610612760,OKC,Oklahoma City,57-21,29,30,26,22,0,0,0,0,0,0,0,0,0,0,107,0.422,0.813,0.238,18,44,8,0021301173,1610612760,OKC,Oklahoma City,Reggie Jackson,,,23:47,0.0,0.0,0.0,2.0,6.0,2.0,11.0,22.0,1.0,1.0,0.0,1.0
0021301173,1610612760,OKC,Oklahoma City,202704,Reggie Jackson,,,23:47,91.1,99.2,-8.1,0.154,2.0,16.8,0.0,0.12,0.061,8.4,0.5,0.507,0.175,102.84,0.095,2014-04-09T00:00:00,12,1610612746,LAC,Los Angeles,55-24,22,32,19,28,0,0,0,0,0,0,0,0,0,0,101,0.419,0.618,0.296,23,52,16,0021301173,1610612760,OKC,Oklahoma City,Reggie Jackson,,,23:47,0.0,0.0,0.0,2.0,6.0,2.0,11.0,22.0,1.0,1.0,0.0,1.0
0021301173,1610612760,OKC,Oklahoma City,2406,Caron Butler,,,19:53,78.8,119.7,-40.9,0.111,1.0,14.3,0.048,0.125,0.081,14.3,0.4,0.4,0.127,105.54,0.015,2014-04-09T00:00:00,12,1610612760,OKC,Oklahoma City,57-21,29,30,26,22,0,0,0,0,0,0,0,0,0,0,107,0.422,0.813,0.238,18,44,8,0021301173,1610612760,OKC,Oklahoma City,Caron Butler,,,19:53,2.0,2.0,0.0,2.0,4.0,4.0,11.0,22.0,1.0,0.0,3.0,1.0
0021301173,1610612760,OKC,Oklahoma City,2406,Caron Butler,,,19:53,78.8,119.7,-40.9,0.111,1.0,14.3,0.048,0.125,0.081,14.3,0.4,0.4,0.127,105.54,0.015,2014-04-09T00:00:00,12,1610612746,LAC,Los Angeles,55-24,22,32,19,28,0,0,0,0,0,0,0,0,0,0,101,0.419,0.618,0.296,23,52,16,0021301173,1610612760,OKC,Oklahoma City,Caron Butler,,,19:53,2.0,2.0,0.0,2.0,4.0,4.0,11.0,22.0,1.0,0.0,3.0,1.0
0021301173,1610612760,OKC,Oklahoma City,965,Derek Fisher,,,15:10,84.0,109.0,-25.0,0.125,1.0,11.3,0.0,0.083,0.034,11.3,0.167,0.291,0.225,98.36,0.0,2014-04-09T00:00:00,12,1610612760,OKC,Oklahoma City,57-21,29,30,26,22,0,0,0,0,0,0,0,0,0,0,107,0.422,0.813,0.238,18,44,8,0021301173,1610612760,OKC,Oklahoma City,Derek Fisher,,,15:10,0.0,2.0,0.0,0.0,2.0,2.0,3.0,18.0,0.0,0.0,1.0,2.0
0021301173,1610612760,OKC,Oklahoma City,965,Derek Fisher,,,15:10,84.0,109.0,-25.0,0.125,1.0,11.3,0.0,0.083,0.034,11.3,0.167,0.291,0.225,98.36,0.0,2014-04-09T00:00:00,12,1610612746,LAC,Los Angeles,55-24,22,32,19,28,0,0,0,0,0,0,0,0,0,0,101,0.419,0.618,0.296,23,52,16,0021301173,1610612760,OKC,Oklahoma City,Derek Fisher,,,15:10,0.0,2.0,0.0,0.0,2.0,2.0,3.0,18.0,0.0,0.0,1.0,2.0
0021301173,1610612760,OKC,Oklahoma City,203103,Perry Jones III,,DNP - Coach's Decision,,,,,,,0.0,,,,,,,0.0,,,2014-04-09T00:00:00,12,1610612760,OKC,Oklahoma City,57-21,29,30,26,22,0,0,0,0,0,0,0,0,0,0,107,0.422,0.813,0.238,18,44,8,0021301173,1610612760,OKC,Oklahoma City,Perry Jones III,,DNP - Coach's Decision,,,,,,,,,,,,,
0021301173,1610612760,OKC,Oklahoma City,203103,Perry Jones III,,DNP - Coach's Decision,,,,,,,0.0,,,,,,,0.0,,,2014-04-09T00:00:00,12,1610612746,LAC,Los Angeles,55-24,22,32,19,28,0,0,0,0,0,0,0,0,0,0,101,0.419,0.618,0.296,23,52,16,0021301173,1610612760,OKC,Oklahoma City,Perry Jones III,,DNP - Coach's Decision,,,,,,,,,,,,,
0021301173,1610612760,OKC,Oklahoma City,203087,Jeremy Lamb,,DNP - Coach's Decision,,,,,,,0.0,,,,,,,0.0,,,2014-04-09T00:00:00,12,1610612760,OKC,Oklahoma City,57-21,29,30,26,22,0,0,0,0,0,0,0,0,0,0,107,0.422,0.813,0.238,18,44,8,0021301173,1610612760,OKC,Oklahoma City,Jeremy Lamb,,DNP - Coach's Decision,,,,,,,,,,,,,
0021301173,1610612760,OKC,Oklahoma City,203087,Jeremy Lamb,,DNP - Coach's Decision,,,,,,,0.0,,,,,,,0.0,,,2014-04-09T00:00:00,12,1610612746,LAC,Los Angeles,55-24,22,32,19,28,0,0,0,0,0,0,0,0,0,0,101,0.419,0.618,0.296,23,52,16,0021301173,1610612760,OKC,Oklahoma City,Jeremy Lamb,,DNP - Coach's Decision,,,,,,,,,,,,,
0021301173,1610612760,OKC,Oklahoma City,201934,Hasheem Thabeet,,DNP - Coach's Decision,,,,,,,0.0,,,,,,,0.0,,,2014-04-09T00:00:00,12,1610612760,OKC,Oklahoma City,57-21,29,30,26,22,0,0,0,0,0,0,0,0,0,0,107,0.422,0.813,0.238,18,44,8,0021301173,1610612760,OKC,Oklahoma City,Hasheem Thabeet,,DNP - Coach's Decision,,,,,,,,,,,,,
0021301173,1610612760,OKC,Oklahoma City,201934,Hasheem Thabeet,,DNP - Coach's Decision,,,,,,,0.0,,,,,,,0.0,,,2014-04-09T00:00:00,12,1610612746,LAC,Los Angeles,55-24,22,32,19,28,0,0,0,0,0,0,0,0,0,0,101,0.419,0.618,0.296,23,52,16,0021301173,1610612760,OKC,Oklahoma City,Hasheem Thabeet,,DNP - Coach's Decision,,,,,,,,,,,,,
0021301173,1610612746,LAC,Los Angeles,2440,Matt Barnes,F,,29:09,103.3,113.3,-10.0,0.136,1.5,21.4,0.074,0.156,0.119,14.3,0.389,0.389,0.151,102.69,0.054,2014-04-09T00:00:00,12,1610612760,OKC,Oklahoma City,57-21,29,30,26,22,0,0,0,0,0,0,0,0,0,0,107,0.422,0.813,0.238,18,44,8,0021301173,1610612746,LAC,Los Angeles,Matt Barnes,F,,29:09,0.0,2.0,2.0,4.0,18.0,15.0,10.0,28.0,2.0,2.0,3.0,1.0
0021301173,1610612746,LAC,Los Angeles,2440,Matt Barnes,F,,29:09,103.3,113.3,-10.0,0.136,1.5,21.4,0.074,0.156,0.119,14.3,0.389,0.389,0.151,102.69,0.054,2014-04-09T00:00:00,12,1610612746,LAC,Los Angeles,55-24,22,32,19,28,0,0,0,0,0,0,0,0,0,0,101,0.419,0.618,0.296,23,52,16,0021301173,1610612746,LAC,Los Angeles,Matt Barnes,F,,29:09,0.0,2.0,2.0,4.0,18.0,15.0,10.0,28.0,2.0,2.0,3.0,1.0
0021301173,1610612746,LAC,Los Angeles,201933,Blake Griffin,F,,39:11,97.6,105.9,-8.3,0.063,0.33,3.1,0.125,0.189,0.156,9.4,0.478,0.539,0.318,101.11,0.15,2014-04-09T00:00:00,12,1610612760,OKC,Oklahoma City,57-21,29,30,26,22,0,0,0,0,0,0,0,0,0,0,107,0.422,0.813,0.238,18,44,8,0021301173,1610612746,LAC,Los Angeles,Blake Griffin,F,,39:11,7.0,4.0,15.0,16.0,20.0,13.0,12.0,34.0,0.0,2.0,4.0,9.0
0021301173,1610612746,LAC,Los Angeles,201933,Blake Griffin,F,,39:11,97.6,105.9,-8.3,0.063,0.33,3.1,0.125,0.189,0.156,9.4,0.478,0.539,0.318,101.11,0.15,2014-04-09T00:00:00,12,1610612746,LAC,Los Angeles,55-24,22,32,19,28,0,0,0,0,0,0,0,0,0,0,101,0.419,0.618,0.296,23,52,16,0021301173,1610612746,LAC,Los Angeles,Blake Griffin,F,,39:11,7.0,4.0,15.0,16.0,20.0,13.0,12.0,34.0,0.0,2.0,4.0,9.0
0021301173,1610612746,LAC,Los Angeles,201599,DeAndre Jordan,C,,32:43,99.8,113.2,-13.4,0.0,0.0,0.0,0.152,0.206,0.179,9.5,0.667,0.525,0.13,101.93,0.092,2014-04-09T00:00:00,12,1610612760,OKC,Oklahoma City,57-21,29,30,26,22,0,0,0,0,0,0,0,0,0,0,107,0.422,0.813,0.238,18,44,8,0021301173,1610612746,LAC,Los Angeles,DeAndre Jordan,C,,32:43,0.0,5.0,0.0,8.0,20.0,15.0,12.0,34.0,3.0,0.0,2.0,4.0
0021301173,1610612746,LAC,Los Angeles,201599,DeAndre Jordan,C,,32:43,99.8,113.2,-13.4,0.0,0.0,0.0,0.152,0.206,0.179,9.5,0.667,0.525,0.13,101.93,0.092,2014-04-09T00:00:00,12,1610612746,LAC,Los Angeles,55-24,22,32,19,28,0,0,0,0,0,0,0,0,0,0,101,0.419,0.618,0.296,23,52,16,0021301173,1610612746,LAC,Los Angeles,DeAndre Jordan,C,,32:43,0.0,5.0,0.0,8.0,20.0,15.0,12.0,34.0,3.0,0.0,2.0,4.0
0021301173,1610612746,LAC,Los Angeles,200755,JJ Redick,G,,27:20,95.4,117.7,-22.3,0.364,2.67,43.4,0.0,0.111,0.059,16.3,0.214,0.269,0.149,108.38,0.053,2014-04-09T00:00:00,12,1610612760,OKC,Oklahoma City,57-21,29,30,26,22,0,0,0,0,0,0,0,0,0,0,107,0.422,0.813,0.238,18,44,8,0021301173,1610612746,LAC,Los Angeles,JJ Redick,G,,27:20,0.0,0.0,0.0,0.0,15.0,12.0,10.0,32.0,0.0,1.0,1.0,0.0
0021301173,1610612746,LAC,Los Angeles,200755,JJ Redick,G,,27:20,95.4,117.7,-22.3,0.364,2.67,43.4,0.0,0.111,0.059,16.3,0.214,0.269,0.149,108.38,0.053,2014-04-09T00:00:00,12,1610612746,LAC,Los Angeles,55-24,22,32,19,28,0,0,0,0,0,0,0,0,0,0,101,0.419,0.618,0.296,23,52,16,0021301173,1610612746,LAC,Los Angeles,JJ Redick,G,,27:20,0.0,0.0,0.0,0.0,15.0,12.0,10.0,32.0,0.0,1.0,1.0,0.0
0021301173,1610612746,LAC,Los Angeles,101108,Chris Paul,G,,39:57,95.9,104.9,-9.0,0.4,2.0,24.3,0.023,0.098,0.06,12.1,0.559,0.596,0.248,102.37,0.157,2014-04-09T00:00:00,12,1610612760,OKC,Oklahoma City,57-21,29,30,26,22,0,0,0,0,0,0,0,0,0,0,107,0.422,0.813,0.238,18,44,8,0021301173,1610612746,LAC,Los Angeles,Chris Paul,G,,39:57,0.0,2.0,4.0,6.0,20.0,15.0,12.0,36.0,0.0,1.0,4.0,7.0
0021301173,1610612746,LAC,Los Angeles,101108,Chris Paul,G,,39:57,95.9,104.9,-9.0,0.4,2.0,24.3,0.023,0.098,0.06,12.1,0.559,0.596,0.248,102.37,0.157,2014-04-09T00:00:00,12,1610612746,LAC,Los Angeles,55-24,22,32,19,28,0,0,0,0,0,0,0,0,0,0,101,0.419,0.618,0.296,23,52,16,0021301173,1610612746,LAC,Los Angeles,Chris Paul,G,,39:57,0.0,2.0,4.0,6.0,20.0,15.0,12.0,36.0,0.0,1.0,4.0,7.0
0021301173,1610612746,LAC,Los Angeles,203493,Reggie Bullock,,,11:48,92.0,93.8,-1.8,0.0,0.0,0.0,0.0,0.111,0.05,0.0,0.0,0.0,0.0,105.11,-0.034,2014-04-09T00:00:00,12,1610612760,OKC,Oklahoma City,57-21,29,30,26,22,0,0,0,0,0,0,0,0,0,0,107,0.422,0.813,0.238,18,44,8,0021301173,1610612746,LAC,Los Angeles,Reggie Bullock,,,11:48,0.0,0.0,0.0,0.0,2.0,0.0,4.0,6.0,0.0,0.0,2.0,0.0
0021301173,1610612746,LAC,Los Angeles,203493,Reggie Bullock,,,11:48,92.0,93.8,-1.8,0.0,0.0,0.0,0.0,0.111,0.05,0.0,0.0,0.0,0.0,105.11,-0.034,2014-04-09T00:00:00,12,1610612746,LAC,Los Angeles,55-24,22,32,19,28,0,0,0,0,0,0,0,0,0,0,101,0.419,0.618,0.296,23,52,16,0021301173,1610612746,LAC,Los Angeles,Reggie Bullock,,,11:48,0.0,0.0,0.0,0.0,2.0,0.0,4.0,6.0,0.0,0.0,2.0,0.0
0021301173,1610612746,LAC,Los Angeles,201954,Darren Collison,,,29:07,101.1,97.1,3.9,0.176,1.5,17.3,0.0,0.107,0.051,11.5,0.409,0.487,0.209,97.3,0.093,2014-04-09T00:00:00,12,1610612760,OKC,Oklahoma City,57-21,29,30,26,22,0,0,0,0,0,0,0,0,0,0,107,0.422,0.813,0.238,18,44,8,0021301173,1610612746,LAC,Los Angeles,Darren Collison,,,29:07,2.0,0.0,2.0,6.0,9.0,7.0,6.0,16.0,0.0,1.0,1.0,2.0
0021301173,1610612746,LAC,Los Angeles,201954,Darren Collison,,,29:07,101.1,97.1,3.9,0.176,1.5,17.3,0.0,0.107,0.051,11.5,0.409,0.487,0.209,97.3,0.093,2014-04-09T00:00:00,12,1610612746,LAC,Los Angeles,55-24,22,32,19,28,0,0,0,0,0,0,0,0,0,0,101,0.419,0.618,0.296,23,52,16,0021301173,1610612746,LAC,Los Angeles,Darren Collison,,,29:07,2.0,0.0,2.0,6.0,9.0,7.0,6.0,16.0,0.0,1.0,1.0,2.0
0021301173,1610612746,LAC,Los Angeles,201162,Jared Dudley,,,7:03,85.4,94.9,-9.4,0.0,0.0,0.0,0.0,0.0,0.0,0.0,0.0,0.0,0.118,94.09,-0.049,2014-04-09T00:00:00,12,1610612760,OKC,Oklahoma City,57-21,29,30,26,22,0,0,0,0,0,0,0,0,0,0,107,0.422,0.813,0.238,18,44,8,0021301173,1610612746,LAC,Los Angeles,Jared Dudley,,,7:03,0.0,0.0,0.0,0.0,2.0,2.0,0.0,8.0,0.0,0.0,0.0,0.0
0021301173,1610612746,LAC,Los Angeles,201162,Jared Dudley,,,7:03,85.4,94.9,-9.4,0.0,0.0,0.0,0.0,0.0,0.0,0.0,0.0,0.0,0.118,94.09,-0.049,2014-04-09T00:00:00,12,1610612746,LAC,Los Angeles,55-24,22,32,19,28,0,0,0,0,0,0,0,0,0,0,101,0.419,0.618,0.296,23,52,16,0021301173,1610612746,LAC,Los Angeles,Jared Dudley,,,7:03,0.0,0.0,0.0,0.0,2.0,2.0,0.0,8.0,0.0,0.0,0.0,0.0
0021301173,1610612746,LAC,Los Angeles,201175,Glen Davis,,,11:52,90.5,93.5,-3.1,0.0,0.0,0.0,0.182,0.333,0.261,20.0,0.5,0.5,0.183,96.76,0.135,2014-04-09T00:00:00,12,1610612760,OKC,Oklahoma City,57-21,29,30,26,22,0,0,0,0,0,0,0,0,0,0,107,0.422,0.813,0.238,18,44,8,0021301173,1610612746,LAC,Los Angeles,Glen Davis,,,11:52,0.0,2.0,0.0,4.0,2.0,2.0,2.0,8.0,0.0,0.0,2.0,0.0
0021301173,1610612746,LAC,Los Angeles,201175,Glen Davis,,,11:52,90.5,93.5,-3.1,0.0,0.0,0.0,0.182,0.333,0.261,20.0,0.5,0.5,0.183,96.76,0.135,2014-04-09T00:00:00,12,1610612746,LAC,Los Angeles,55-24,22,32,19,28,0,0,0,0,0,0,0,0,0,0,101,0.419,0.618,0.296,23,52,16,0021301173,1610612746,LAC,Los Angeles,Glen Davis,,,11:52,0.0,2.0,0.0,4.0,2.0,2.0,2.0,8.0,0.0,0.0,2.0,0.0
0021301173,1610612746,LAC,Los Angeles,2045,Hedo Turkoglu,,,11:51,108.9,92.9,16.0,0.0,0.0,0.0,0.0,0.231,0.13,0.0,0.571,0.571,0.285,106.29,0.118,2014-04-09T00:00:00,12,1610612760,OKC,Oklahoma City,57-21,29,30,26,22,0,0,0,0,0,0,0,0,0,0,107,0.422,0.813,0.238,18,44,8,0021301173,1610612746,LAC,Los Angeles,Hedo Turkoglu,,,11:51,0.0,0.0,0.0,0.0,2.0,4.0,2.0,8.0,0.0,1.0,3.0,1.0
0021301173,1610612746,LAC,Los Angeles,2045,Hedo Turkoglu,,,11:51,108.9,92.9,16.0,0.0,0.0,0.0,0.0,0.231,0.13,0.0,0.571,0.571,0.285,106.29,0.118,2014-04-09T00:00:00,12,1610612746,LAC,Los Angeles,55-24,22,32,19,28,0,0,0,0,0,0,0,0,0,0,101,0.419,0.618,0.296,23,52,16,0021301173,1610612746,LAC,Los Angeles,Hedo Turkoglu,,,11:51,0.0,0.0,0.0,0.0,2.0,4.0,2.0,8.0,0.0,1.0,3.0,1.0
0021301173,1610612746,LAC,Los Angeles,2037,Jamal Crawford,,DNP - Coach's Decision,,,,,,,0.0,,,,,,,0.0,,,2014-04-09T00:00:00,12,1610612760,OKC,Oklahoma City,57-21,29,30,26,22,0,0,0,0,0,0,0,0,0,0,107,0.422,0.813,0.238,18,44,8,0021301173,1610612746,LAC,Los Angeles,Jamal Crawford,,DNP - Coach's Decision,,,,,,,,,,,,,
0021301173,1610612746,LAC,Los Angeles,2037,Jamal Crawford,,DNP - Coach's Decision,,,,,,,0.0,,,,,,,0.0,,,2014-04-09T00:00:00,12,1610612746,LAC,Los Angeles,55-24,22,32,19,28,0,0,0,0,0,0,0,0,0,0,101,0.419,0.618,0.296,23,52,16,0021301173,1610612746,LAC,Los Angeles,Jamal Crawford,,DNP - Coach's Decision,,,,,,,,,,,,,
0021301173,1610612746,LAC,Los Angeles,2584,Willie Green,,DNP - Coach's Decision,,,,,,,0.0,,,,,,,0.0,,,2014-04-09T00:00:00,12,1610612760,OKC,Oklahoma City,57-21,29,30,26,22,0,0,0,0,0,0,0,0,0,0,107,0.422,0.813,0.238,18,44,8,0021301173,1610612746,LAC,Los Angeles,Willie Green,,DNP - Coach's Decision,,,,,,,,,,,,,
0021301173,1610612746,LAC,Los Angeles,2584,Willie Green,,DNP - Coach's Decision,,,,,,,0.0,,,,,,,0.0,,,2014-04-09T00:00:00,12,1610612746,LAC,Los Angeles,55-24,22,32,19,28,0,0,0,0,0,0,0,0,0,0,101,0.419,0.618,0.296,23,52,16,0021301173,1610612746,LAC,Los Angeles,Willie Green,,DNP - Coach's Decision,,,,,,,,,,,,,
0021301173,1610612746,LAC,Los Angeles,200797,Ryan Hollins,,DNP - Coach's Decision,,,,,,,0.0,,,,,,,0.0,,,2014-04-09T00:00:00,12,1610612760,OKC,Oklahoma City,57-21,29,30,26,22,0,0,0,0,0,0,0,0,0,0,107,0.422,0.813,0.238,18,44,8,0021301173,1610612746,LAC,Los Angeles,Ryan Hollins,,DNP - Coach's Decision,,,,,,,,,,,,,
0021301173,1610612746,LAC,Los Angeles,200797,Ryan Hollins,,DNP - Coach's Decision,,,,,,,0.0,,,,,,,0.0,,,2014-04-09T00:00:00,12,1610612746,LAC,Los Angeles,55-24,22,32,19,28,0,0,0,0,0,0,0,0,0,0,101,0.419,0.618,0.296,23,52,16,0021301173,1610612746,LAC,Los Angeles,Ryan Hollins,,DNP - Coach's Decision,,,,,,,,,,,,,
