GAME_ID_x,TEAM_ID_x,TEAM_ABBREVIATION_x,TEAM_CITY_x,PLAYER_ID,PLAYER_NAME_x,START_POSITION_x,COMMENT_x,MIN_x,OFF_RATING,DEF_RATING,NET_RATING,AST_PCT,AST_TOV,AST_RATIO,OREB_PCT,DREB_PCT,REB_PCT,TM_TOV_PCT,EFG_PCT,TS_PCT,USG_PCT,PACE,PIE,GAME_DATE_EST,GAME_SEQUENCE,TEAM_ID_y,TEAM_ABBREVIATION_y,TEAM_CITY_NAME,TEAM_WINS_LOSSES,PTS_QTR1,PTS_QTR2,PTS_QTR3,PTS_QTR4,PTS_OT1,PTS_OT2,PTS_OT3,PTS_OT4,PTS_OT5,PTS_OT6,PTS_OT7,PTS_OT8,PTS_OT9,PTS_OT10,PTS,FG_PCT,FT_PCT,FG3_PCT,AST,REB,TOV,GAME_ID_y,TEAM_ID,TEAM_ABBREVIATION,TEAM_CITY_y,PLAYER_NAME_y,START_POSITION_y,COMMENT_y,MIN_y,PTS_OFF_TOV,PTS_2ND_CHANCE,PTS_FB,PTS_PAINT,OPP_PTS_OFF_TOV,OPP_PTS_2ND_CHANCE,OPP_PTS_FB,OPP_PTS_PAINT,BLK,BLKA,PF,PFD
0021301167,1610612748,MIA,Miami,2544,LeBron James,F,,41:22,113.7,121.8,-8.1,0.25,1.0,13.9,0.032,0.2,0.107,13.9,0.674,0.709,0.373,90.62,0.19,2014-04-09T00:00:00,6,1610612748,MIA,Miami,53-25,32,26,22,22,0,0,0,0,0,0,0,0,0,0,102,0.521,0.917,0.6,24,27,15,0021301167,1610612748,MIA,Miami,LeBron James,F,,41:22,7.0,4.0,7.0,14.0,27.0,6.0,21.0,50.0,0.0,1.0,1.0,8.0
0021301167,1610612748,MIA,Miami,2544,LeBron James,F,,41:22,113.7,121.8,-8.1,0.25,1.0,13.9,0.032,0.2,0.107,13.9,0.674,0.709,0.373,90.62,0.19,2014-04-09T00:00:00,6,1610612763,MEM,Memphis,46-32,31,23,26,27,0,0,0,0,0,0,0,0,0,0,107,0.551,0.667,0.35,23,41,14,0021301167,1610612748,MIA,Miami,LeBron James,F,,41:22,7.0,4.0,7.0,14.0,27.0,6.0,21.0,50.0,0.0,1.0,1.0,8.0
0021301167,1610612748,MIA,Miami,2203,Shane Battier,F,,23:39,120.0,112.6,7.4,0.056,0.0,14.3,0.045,0.154,0.086,0.0,0.75,0.75,0.122,89.89,0.099,2014-04-09T00:00:00,6,1610612748,MIA,Miami,53-25,32,26,22,22,0,0,0,0,0,0,0,0,0,0,102,0.521,0.917,0.6,24,27,15,0021301167,1610612748,MIA,Miami,Shane Battier,F,,23:39,3.0,0.0,3.0,0.0,10.0,4.0,7.0,26.0,0.0,0.0,2.0,0.0
0021301167,1610612748,MIA,Miami,2203,Shane Battier,F,,23:39,120.0,112.6,7.4,0.056,0.0,14.3,0.045,0.154,0.086,0.0,0.75,0.75,0.122,89.89,0.099,2014-04-09T00:00:00,6,1610612763,MEM,Memphis,46-32,31,23,26,27,0,0,0,0,0,0,0,0,0,0,107,0.551,0.667,0.35,23,41,14,0021301167,1610612748,MIA,Miami,Shane Battier,F,,23:39,3.0,0.0,3.0,0.0,10.0,4.0,7.0,26.0,0.0,0.0,2.0,0.0
0021301167,1610612748,MIA,Miami,2547,Chris Bosh,C,,35:19,114.7,111.2,3.4,0.0,0.0,0.0,0.036,0.2,0.113,22.2,0.464,0.464,0.252,88.43,0.033,2014-04-09T00:00:00,6,1610612748,MIA,Miami,53-25,32,26,22,22,0,0,0,0,0,0,0,0,0,0,102,0.521,0.917,0.6,24,27,15,0021301167,1610612748,MIA,Miami,Chris Bosh,C,,35:19,3.0,3.0,0.0,4.0,19.0,6.0,16.0,38.0,2.0,1.0,5.0,2.0
0021301167,1610612748,MIA,Miami,2547,Chris Bosh,C,,35:19,114.7,111.2,3.4,0.0,0.0,0.0,0.036,0.2,0.113,22.2,0.464,0.464,0.252,88.43,0.033,2014-04-09T00:00:00,6,1610612763,MEM,Memphis,46-32,31,23,26,27,0,0,0,0,0,0,0,0,0,0,107,0.551,0.667,0.35,23,41,14,0021301167,1610612748,MIA,Miami,Chris Bosh,C,,35:19,3.0,3.0,0.0,4.0,19.0,6.0,16.0,38.0,2.0,1.0,5.0,2.0
0021301167,1610612748,MIA,Miami,201962,Toney Douglas,G,,16:58,131.4,112.1,19.3,0.313,5.0,62.5,0.077,0.0,0.042,12.5,0.0,0.0,0.087,85.95,0.047,2014-04-09T00:00:00,6,1610612748,MIA,Miami,53-25,32,26,22,22,0,0,0,0,0,0,0,0,0,0,102,0.521,0.917,0.6,24,27,15,0021301167,1610612748,MIA,Miami,Toney Douglas,G,,16:58,0.0,0.0,0.0,0.0,5.0,4.0,2.0,16.0,0.0,1.0,0.0,1.0
0021301167,1610612748,MIA,Miami,201962,Toney Douglas,G,,16:58,131.4,112.1,19.3,0.313,5.0,62.5,0.077,0.0,0.042,12.5,0.0,0.0,0.087,85.95,0.047,2014-04-09T00:00:00,6,1610612763,MEM,Memphis,46-32,31,23,26,27,0,0,0,0,0,0,0,0,0,0,107,0.551,0.667,0.35,23,41,14,0021301167,1610612748,MIA,Miami,Toney Douglas,G,,16:58,0.0,0.0,0.0,0.0,5.0,4.0,2.0,16.0,0.0,1.0,0.0,1.0
0021301167,1610612748,MIA,Miami,201596,Mario Chalmers,G,,35:50,126.0,114.1,11.9,0.13,3.0,20.2,0.071,0.08,0.075,6.7,0.5,0.551,0.169,87.07,0.063,2014-04-09T00:00:00,6,1610612748,MIA,Miami,53-25,32,26,22,22,0,0,0,0,0,0,0,0,0,0,102,0.521,0.917,0.6,24,27,15,0021301167,1610612748,MIA,Miami,Mario Chalmers,G,,35:50,0.0,2.0,2.0,8.0,20.0,8.0,18.0,40.0,0.0,2.0,4.0,2.0
0021301167,1610612748,MIA,Miami,201596,Mario Chalmers,G,,35:50,126.0,114.1,11.9,0.13,3.0,20.2,0.071,0.08,0.075,6.7,0.5,0.551,0.169,87.07,0.063,2014-04-09T00:00:00,6,1610612763,MEM,Memphis,46-32,31,23,26,27,0,0,0,0,0,0,0,0,0,0,107,0.551,0.667,0.35,23,41,14,0021301167,1610612748,MIA,Miami,Mario Chalmers,G,,35:50,0.0,2.0,2.0,8.0,20.0,8.0,18.0,40.0,0.0,2.0,4.0,2.0
0021301167,1610612748,MIA,Miami,1740,Rashard Lewis,,,24:01,116.4,130.4,-14.0,0.25,0.0,24.4,0.0,0.15,0.094,0.0,0.875,0.912,0.217,85.86,0.186,2014-04-09T00:00:00,6,1610612748,MIA,Miami,53-25,32,26,22,22,0,0,0,0,0,0,0,0,0,0,102,0.521,0.917,0.6,24,27,15,0021301167,1610612748,MIA,Miami,Rashard Lewis,,,24:01,3.0,0.0,2.0,2.0,19.0,6.0,16.0,34.0,0.0,0.0,1.0,2.0
0021301167,1610612748,MIA,Miami,1740,Rashard Lewis,,,24:01,116.4,130.4,-14.0,0.25,0.0,24.4,0.0,0.15,0.094,0.0,0.875,0.912,0.217,85.86,0.186,2014-04-09T00:00:00,6,1610612763,MEM,Memphis,46-32,31,23,26,27,0,0,0,0,0,0,0,0,0,0,107,0.551,0.667,0.35,23,41,14,0021301167,1610612748,MIA,Miami,Rashard Lewis,,,24:01,3.0,0.0,2.0,2.0,19.0,6.0,16.0,34.0,0.0,0.0,1.0,2.0
0021301167,1610612748,MIA,Miami,951,Ray Allen,,,25:28,109.3,116.3,-6.9,0.118,2.0,28.6,0.0,0.0,0.0,14.3,0.75,0.75,0.107,89.36,0.063,2014-04-09T00:00:00,6,1610612748,MIA,Miami,53-25,32,26,22,22,0,0,0,0,0,0,0,0,0,0,102,0.521,0.917,0.6,24,27,15,0021301167,1610612748,MIA,Miami,Ray Allen,,,25:28,0.0,0.0,0.0,0.0,19.0,6.0,15.0,36.0,0.0,0.0,1.0,1.0
0021301167,1610612748,MIA,Miami,951,Ray Allen,,,25:28,109.3,116.3,-6.9,0.118,2.0,28.6,0.0,0.0,0.0,14.3,0.75,0.75,0.107,89.36,0.063,2014-04-09T00:00:00,6,1610612763,MEM,Memphis,46-32,31,23,26,27,0,0,0,0,0,0,0,0,0,0,107,0.551,0.667,0.35,23,41,14,0021301167,1610612748,MIA,Miami,Ray Allen,,,25:28,0.0,0.0,0.0,0.0,19.0,6.0,15.0,36.0,0.0,0.0,1.0,1.0
0021301167,1610612748,MIA,Miami,202708,Norris Cole,,,24:42,104.4,131.2,-26.9,0.313,1.67,41.7,0.0,0.211,0.105,25.0,0.375,0.375,0.152,87.26,0.06,2014-04-09T00:00:00,6,1610612748,MIA,Miami,53-25,32,26,22,22,0,0,0,0,0,0,0,0,0,0,102,0.521,0.917,0.6,24,27,15,0021301167,1610612748,MIA,Miami,Norris Cole,,,24:42,0.0,0.0,0.0,0.0,16.0,6.0,13.0,38.0,0.0,1.0,0.0,2.0
0021301167,1610612748,MIA,Miami,202708,Norris Cole,,,24:42,104.4,131.2,-26.9,0.313,1.67,41.7,0.0,0.211,0.105,25.0,0.375,0.375,0.152,87.26,0.06,2014-04-09T00:00:00,6,1610612763,MEM,Memphis,46-32,31,23,26,27,0,0,0,0,0,0,0,0,0,0,107,0.551,0.667,0.35,23,41,14,0021301167,1610612748,MIA,Miami,Norris Cole,,,24:42,0.0,0.0,0.0,0.0,16.0,6.0,13.0,38.0,0.0,1.0,0.0,2.0
0021301167,1610612748,MIA,Miami,203120,Justin Hamilton,,,12:41,123.4,142.7,-19.3,0.0,0.0,0.0,0.0,0.0,0.0,0.0,1.25,1.25,0.091,87.8,0.05,2014-04-09T00:00:00,6,1610612748,MIA,Miami,53-25,32,26,22,22,0,0,0,0,0,0,0,0,0,0,102,0.521,0.917,0.6,24,27,15,0021301167,1610612748,MIA,Miami,Justin Hamilton,,,12:41,0.0,0.0,0.0,2.0,10.0,4.0,7.0,22.0,0.0,0.0,3.0,1.0
0021301167,1610612748,MIA,Miami,203120,Justin Hamilton,,,12:41,123.4,142.7,-19.3,0.0,0.0,0.0,0.0,0.0,0.0,0.0,1.25,1.25,0.091,87.8,0.05,2014-04-09T00:00:00,6,1610612763,MEM,Memphis,46-32,31,23,26,27,0,0,0,0,0,0,0,0,0,0,107,0.551,0.667,0.35,23,41,14,0021301167,1610612748,MIA,Miami,Justin Hamilton,,,12:41,0.0,0.0,0.0,2.0,10.0,4.0,7.0,22.0,0.0,0.0,3.0,1.0
0021301167,1610612748,MIA,Miami,2365,Chris Andersen,,DND - Bruised Right Knee,,,,,,,0.0,,,,,,,0.0,,,2014-04-09T00:00:00,6,1610612748,MIA,Miami,53-25,32,26,22,22,0,0,0,0,0,0,0,0,0,0,102,0.521,0.917,0.6,24,27,15,0021301167,1610612748,MIA,Miami,Chris Andersen,,DND - Bruised Right Knee,,,,,,,,,,,,,
0021301167,1610612748,MIA,Miami,2365,Chris Andersen,,DND - Bruised Right Knee,,,,,,,0.0,,,,,,,0.0,,,2014-04-09T00:00:00,6,1610612763,MEM,Memphis,46-32,31,23,26,27,0,0,0,0,0,0,0,0,0,0,107,0.551,0.667,0.35,23,41,14,0021301167,1610612748,MIA,Miami,Chris Andersen,,DND - Bruised Right Knee,,,,,,,,,,,,,
0021301167,1610612748,MIA,Miami,201563,Michael Beasley,,DNP - Coach's Decision,,,,,,,0.0,,,,,,,0.0,,,2014-04-09T00:00:00,6,1610612748,MIA,Miami,53-25,32,26,22,22,0,0,0,0,0,0,0,0,0,0,102,0.521,0.917,0.6,24,27,15,0021301167,1610612748,MIA,Miami,Michael Beasley,,DNP - Coach's Decision,,,,,,,,,,,,,
0021301167,1610612748,MIA,Miami,201563,Michael Beasley,,DNP - Coach's Decision,,,,,,,0.0,,,,,,,0.0,,,2014-04-09T00:00:00,6,1610612763,MEM,Memphis,46-32,31,23,26,27,0,0,0,0,0,0,0,0,0,0,107,0.551,0.667,0.35,23,41,14,0021301167,1610612748,MIA,Miami,Michael Beasley,,DNP - Coach's Decision,,,,,,,,,,,,,
0021301167,1610612748,MIA,Miami,2617,Udonis Haslem,,NWT - Stomach Virus,,,,,,,0.0,,,,,,,0.0,,,2014-04-09T00:00:00,6,1610612748,MIA,Miami,53-25,32,26,22,22,0,0,0,0,0,0,0,0,0,0,102,0.521,0.917,0.6,24,27,15,0021301167,1610612748,MIA,Miami,Udonis Haslem,,NWT - Stomach Virus,,,,,,,,,,,,,
0021301167,1610612748,MIA,Miami,2617,Udonis Haslem,,NWT - Stomach Virus,,,,,,,0.0,,,,,,,0.0,,,2014-04-09T00:00:00,6,1610612763,MEM,Memphis,46-32,31,23,26,27,0,0,0,0,0,0,0,0,0,0,107,0.551,0.667,0.35,23,41,14,0021301167,1610612748,MIA,Miami,Udonis Haslem,,NWT - Stomach Virus,,,,,,,,,,,,,
0021301167,1610612748,MIA,Miami,2592,James Jones,,DNP - Coach's Decision,,,,,,,0.0,,,,,,,0.0,,,2014-04-09T00:00:00,6,1610612748,MIA,Miami,53-25,32,26,22,22,0,0,0,0,0,0,0,0,0,0,102,0.521,0.917,0.6,24,27,15,0021301167,1610612748,MIA,Miami,James Jones,,DNP - Coach's Decision,,,,,,,,,,,,,
0021301167,1610612748,MIA,Miami,2592,James Jones,,DNP - Coach's Decision,,,,,,,0.0,,,,,,,0.0,,,2014-04-09T00:00:00,6,1610612763,MEM,Memphis,46-32,31,23,26,27,0,0,0,0,0,0,0,0,0,0,107,0.551,0.667,0.35,23,41,14,0021301167,1610612748,MIA,Miami,James Jones,,DNP - Coach's Decision,,,,,,,,,,,,,
0021301167,1610612763,MEM,Memphis,201949,James Johnson,F,,24:17,101.1,121.8,-20.7,0.176,1.5,25.5,0.059,0.12,0.095,17.0,0.2,0.37,0.184,85.83,0.054,2014-04-09T00:00:00,6,1610612748,MIA,Miami,53-25,32,26,22,22,0,0,0,0,0,0,0,0,0,0,102,0.521,0.917,0.6,24,27,15,0021301167,1610612763,MEM,Memphis,James Johnson,F,,24:17,0.0,0.0,1.0,2.0,11.0,9.0,8.0,16.0,3.0,0.0,2.0,2.0
0021301167,1610612763,MEM,Memphis,201949,James Johnson,F,,24:17,101.1,121.8,-20.7,0.176,1.5,25.5,0.059,0.12,0.095,17.0,0.2,0.37,0.184,85.83,0.054,2014-04-09T00:00:00,6,1610612763,MEM,Memphis,46-32,31,23,26,27,0,0,0,0,0,0,0,0,0,0,107,0.551,0.667,0.35,23,41,14,0021301167,1610612763,MEM,Memphis,James Johnson,F,,24:17,0.0,0.0,1.0,2.0,11.0,9.0,8.0,16.0,3.0,0.0,2.0,2.0
0021301167,1610612763,MEM,Memphis,2216,Zach Randolph,F,,42:04,122.9,116.5,6.4,0.074,0.67,9.8,0.115,0.258,0.193,14.7,0.833,0.81,0.207,89.1,0.163,2014-04-09T00:00:00,6,1610612748,MIA,Miami,53-25,32,26,22,22,0,0,0,0,0,0,0,0,0,0,102,0.521,0.917,0.6,24,27,15,0021301167,1610612763,MEM,Memphis,Zach Randolph,F,,42:04,7.0,6.0,0.0,18.0,16.0,9.0,14.0,24.0,1.0,0.0,2.0,2.0
0021301167,1610612763,MEM,Memphis,2216,Zach Randolph,F,,42:04,122.9,116.5,6.4,0.074,0.67,9.8,0.115,0.258,0.193,14.7,0.833,0.81,0.207,89.1,0.163,2014-04-09T00:00:00,6,1610612763,MEM,Memphis,46-32,31,23,26,27,0,0,0,0,0,0,0,0,0,0,107,0.551,0.667,0.35,23,41,14,0021301167,1610612763,MEM,Memphis,Zach Randolph,F,,42:04,7.0,6.0,0.0,18.0,16.0,9.0,14.0,24.0,1.0,0.0,2.0,2.0
0021301167,1610612763,MEM,Memphis,201188,Marc Gasol,C,,44:34,118.8,113.0,5.7,0.094,1.5,12.5,0.097,0.324,0.215,8.3,0.5,0.524,0.223,88.73,0.117,2014-04-09T00:00:00,6,1610612748,MIA,Miami,53-25,32,26,22,22,0,0,0,0,0,0,0,0,0,0,102,0.521,0.917,0.6,24,27,15,0021301167,1610612763,MEM,Memphis,Marc Gasol,C,,44:34,2.0,0.0,3.0,16.0,16.0,9.0,12.0,28.0,1.0,1.0,4.0,6.0
0021301167,1610612763,MEM,Memphis,201188,Marc Gasol,C,,44:34,118.8,113.0,5.7,0.094,1.5,12.5,0.097,0.324,0.215,8.3,0.5,0.524,0.223,88.73,0.117,2014-04-09T00:00:00,6,1610612763,MEM,Memphis,46-32,31,23,26,27,0,0,0,0,0,0,0,0,0,0,107,0.551,0.667,0.35,23,41,14,0021301167,1610612763,MEM,Memphis,Marc Gasol,C,,44:34,2.0,0.0,3.0,16.0,16.0,9.0,12.0,28.0,1.0,1.0,4.0,6.0
0021301167,1610612763,MEM,Memphis,201584,Courtney Lee,G,,36:50,119.4,112.4,7.0,0.107,0.75,16.3,0.0,0.033,0.019,21.7,0.773,0.787,0.191,91.01,0.082,2014-04-09T00:00:00,6,1610612748,MIA,Miami,53-25,32,26,22,22,0,0,0,0,0,0,0,0,0,0,102,0.521,0.917,0.6,24,27,15,0021301167,1610612763,MEM,Memphis,Courtney Lee,G,,36:50,6.0,0.0,3.0,2.0,15.0,7.0,11.0,22.0,1.0,0.0,2.0,2.0
0021301167,1610612763,MEM,Memphis,201584,Courtney Lee,G,,36:50,119.4,112.4,7.0,0.107,0.75,16.3,0.0,0.033,0.019,21.7,0.773,0.787,0.191,91.01,0.082,2014-04-09T00:00:00,6,1610612763,MEM,Memphis,46-32,31,23,26,27,0,0,0,0,0,0,0,0,0,0,107,0.551,0.667,0.35,23,41,14,0021301167,1610612763,MEM,Memphis,Courtney Lee,G,,36:50,6.0,0.0,3.0,2.0,15.0,7.0,11.0,22.0,1.0,0.0,2.0,2.0
0021301167,1610612763,MEM,Memphis,201144,Mike Conley,G,,41:21,118.1,109.3,8.8,0.222,2.0,20.9,0.036,0.061,0.049,10.4,0.639,0.658,0.259,89.31,0.136,2014-04-09T00:00:00,6,1610612748,MIA,Miami,53-25,32,26,22,22,0,0,0,0,0,0,0,0,0,0,102,0.521,0.917,0.6,24,27,15,0021301167,1610612763,MEM,Memphis,Mike Conley,G,,41:21,10.0,2.0,10.0,12.0,16.0,9.0,12.0,28.0,0.0,0.0,2.0,3.0
0021301167,1610612763,MEM,Memphis,201144,Mike Conley,G,,41:21,118.1,109.3,8.8,0.222,2.0,20.9,0.036,0.061,0.049,10.4,0.639,0.658,0.259,89.31,0.136,2014-04-09T00:00:00,6,1610612763,MEM,Memphis,46-32,31,23,26,27,0,0,0,0,0,0,0,0,0,0,107,0.551,0.667,0.35,23,41,14,0021301167,1610612763,MEM,Memphis,Mike Conley,G,,41:21,10.0,2.0,10.0,12.0,16.0,9.0,12.0,28.0,0.0,0.0,2.0,3.0
0021301167,1610612763,MEM,Memphis,2754,Tony Allen,,,24:03,134.1,109.2,24.9,0.091,0.0,22.2,0.063,0.091,0.074,0.0,0.429,0.429,0.128,91.51,0.043,2014-04-09T00:00:00,6,1610612748,MIA,Miami,53-25,32,26,22,22,0,0,0,0,0,0,0,0,0,0,102,0.521,0.917,0.6,24,27,15,0021301167,1610612763,MEM,Memphis,Tony Allen,,,24:03,2.0,0.0,4.0,6.0,5.0,0.0,6.0,14.0,0.0,1.0,4.0,0.0
0021301167,1610612763,MEM,Memphis,2754,Tony Allen,,,24:03,134.1,109.2,24.9,0.091,0.0,22.2,0.063,0.091,0.074,0.0,0.429,0.429,0.128,91.51,0.043,2014-04-09T00:00:00,6,1610612763,MEM,Memphis,46-32,31,23,26,27,0,0,0,0,0,0,0,0,0,0,107,0.551,0.667,0.35,23,41,14,0021301167,1610612763,MEM,Memphis,Tony Allen,,,24:03,2.0,0.0,4.0,6.0,5.0,0.0,6.0,14.0,0.0,1.0,4.0,0.0
0021301167,1610612763,MEM,Memphis,201585,Kosta Koufos,,,3:26,136.1,170.1,-34.0,0.0,0.0,0.0,0.0,0.0,0.0,0.0,0.0,0.532,0.273,82.21,0.057,2014-04-09T00:00:00,6,1610612748,MIA,Miami,53-25,32,26,22,22,0,0,0,0,0,0,0,0,0,0,102,0.521,0.917,0.6,24,27,15,0021301167,1610612763,MEM,Memphis,Kosta Koufos,,,3:26,0.0,0.0,0.0,0.0,0.0,0.0,2.0,2.0,0.0,0.0,0.0,1.0
0021301167,1610612763,MEM,Memphis,201585,Kosta Koufos,,,3:26,136.1,170.1,-34.0,0.0,0.0,0.0,0.0,0.0,0.0,0.0,0.0,0.532,0.273,82.21,0.057,2014-04-09T00:00:00,6,1610612763,MEM,Memphis,46-32,31,23,26,27,0,0,0,0,0,0,0,0,0,0,107,0.551,0.667,0.35,23,41,14,0021301167,1610612763,MEM,Memphis,Kosta Koufos,,,3:26,0.0,0.0,0.0,0.0,0.0,0.0,2.0,2.0,0.0,0.0,0.0,1.0
0021301167,1610612763,MEM,Memphis,201979,Nick Calathes,,,8:28,157.7,147.9,9.8,0.286,0.0,66.7,0.167,0.0,0.125,0.0,1.0,1.0,0.061,78.01,0.086,2014-04-09T00:00:00,6,1610612748,MIA,Miami,53-25,32,26,22,22,0,0,0,0,0,0,0,0,0,0,102,0.521,0.917,0.6,24,27,15,0021301167,1610612763,MEM,Memphis,Nick Calathes,,,8:28,2.0,0.0,2.0,2.0,0.0,0.0,2.0,2.0,0.0,0.0,2.0,0.0
0021301167,1610612763,MEM,Memphis,201979,Nick Calathes,,,8:28,157.7,147.9,9.8,0.286,0.0,66.7,0.167,0.0,0.125,0.0,1.0,1.0,0.061,78.01,0.086,2014-04-09T00:00:00,6,1610612763,MEM,Memphis,46-32,31,23,26,27,0,0,0,0,0,0,0,0,0,0,107,0.551,0.667,0.35,23,41,14,0021301167,1610612763,MEM,Memphis,Nick Calathes,,,8:28,2.0,0.0,2.0,2.0,0.0,0.0,2.0,2.0,0.0,0.0,2.0,0.0
0021301167,1610612763,MEM,Memphis,2034,Mike Miller,,,9:21,98.7,143.2,-44.5,0.333,0.0,50.0,0.0,0.4,0.133,0.0,0.0,0.0,0.116,82.04,0.055,2014-04-09T00:00:00,6,1610612748,MIA,Miami,53-25,32,26,22,22,0,0,0,0,0,0,0,0,0,0,102,0.521,0.917,0.6,24,27,15,0021301167,1610612763,MEM,Memphis,Mike Miller,,,9:21,0.0,0.0,0.0,0.0,1.0,2.0,3.0,8.0,0.0,0.0,0.0,0.0
0021301167,1610612763,MEM,Memphis,2034,Mike Miller,,,9:21,98.7,143.2,-44.5,0.333,0.0,50.0,0.0,0.4,0.133,0.0,0.0,0.0,0.116,82.04,0.055,2014-04-09T00:00:00,6,1610612763,MEM,Memphis,46-32,31,23,26,27,0,0,0,0,0,0,0,0,0,0,107,0.551,0.667,0.35,23,41,14,0021301167,1610612763,MEM,Memphis,Mike Miller,,,9:21,0.0,0.0,0.0,0.0,1.0,2.0,3.0,8.0,0.0,0.0,0.0,0.0
0021301167,1610612763,MEM,Memphis,202334,Ed Davis,,,5:36,107.3,133.3,-26.0,0.0,0.0,0.0,0.286,0.333,0.3,0.0,0.5,0.521,0.254,78.51,0.098,2014-04-09T00:00:00,6,1610612748,MIA,Miami,53-25,32,26,22,22,0,0,0,0,0,0,0,0,0,0,102,0.521,0.917,0.6,24,27,15,0021301167,1610612763,MEM,Memphis,Ed Davis,,,5:36,0.0,2.0,0.0,2.0,0.0,0.0,0.0,6.0,0.0,0.0,1.0,1.0
0021301167,1610612763,MEM,Memphis,202334,Ed Davis,,,5:36,107.3,133.3,-26.0,0.0,0.0,0.0,0.286,0.333,0.3,0.0,0.5,0.521,0.254,78.51,0.098,2014-04-09T00:00:00,6,1610612763,MEM,Memphis,46-32,31,23,26,27,0,0,0,0,0,0,0,0,0,0,107,0.551,0.667,0.35,23,41,14,0021301167,1610612763,MEM,Memphis,Ed Davis,,,5:36,0.0,2.0,0.0,2.0,0.0,0.0,0.0,6.0,0.0,0.0,1.0,1.0
0021301167,1610612763,MEM,Memphis,203479,Jamaal Franklin,,DNP - Coach's Decision,,,,,,,0.0,,,,,,,0.0,,,2014-04-09T00:00:00,6,1610612748,MIA,Miami,53-25,32,26,22,22,0,0,0,0,0,0,0,0,0,0,102,0.521,0.917,0.6,24,27,15,0021301167,1610612763,MEM,Memphis,Jamaal Franklin,,DNP - Coach's Decision,,,,,,,,,,,,,
0021301167,1610612763,MEM,Memphis,203479,Jamaal Franklin,,DNP - Coach's Decision,,,,,,,0.0,,,,,,,0.0,,,2014-04-09T00:00:00,6,1610612763,MEM,Memphis,46-32,31,23,26,27,0,0,0,0,0,0,0,0,0,0,107,0.551,0.667,0.35,23,41,14,0021301167,1610612763,MEM,Memphis,Jamaal Franklin,,DNP - Coach's Decision,,,,,,,,,,,,,
0021301167,1610612763,MEM,Memphis,202720,Jon Leuer,,DNP - Coach's Decision,,,,,,,0.0,,,,,,,0.0,,,2014-04-09T00:00:00,6,1610612748,MIA,Miami,53-25,32,26,22,22,0,0,0,0,0,0,0,0,0,0,102,0.521,0.917,0.6,24,27,15,0021301167,1610612763,MEM,Memphis,Jon Leuer,,DNP - Coach's Decision,,,,,,,,,,,,,
0021301167,1610612763,MEM,Memphis,202720,Jon Leuer,,DNP - Coach's Decision,,,,,,,0.0,,,,,,,0.0,,,2014-04-09T00:00:00,6,1610612763,MEM,Memphis,46-32,31,23,26,27,0,0,0,0,0,0,0,0,0,0,107,0.551,0.667,0.35,23,41,14,0021301167,1610612763,MEM,Memphis,Jon Leuer,,DNP - Coach's Decision,,,,,,,,,,,,,
0021301167,1610612763,MEM,Memphis,2757,Beno Udrih,,DNP - Coach's Decision,,,,,,,0.0,,,,,,,0.0,,,2014-04-09T00:00:00,6,1610612748,MIA,Miami,53-25,32,26,22,22,0,0,0,0,0,0,0,0,0,0,102,0.521,0.917,0.6,24,27,15,0021301167,1610612763,MEM,Memphis,Beno Udrih,,DNP - Coach's Decision,,,,,,,,,,,,,
0021301167,1610612763,MEM,Memphis,2757,Beno Udrih,,DNP - Coach's Decision,,,,,,,0.0,,,,,,,0.0,,,2014-04-09T00:00:00,6,1610612763,MEM,Memphis,46-32,31,23,26,27,0,0,0,0,0,0,0,0,0,0,107,0.551,0.667,0.35,23,41,14,0021301167,1610612763,MEM,Memphis,Beno Udrih,,DNP - Coach's Decision,,,,,,,,,,,,,
