GAME_ID_x,TEAM_ID_x,TEAM_ABBREVIATION_x,TEAM_CITY_x,PLAYER_ID,PLAYER_NAME_x,START_POSITION_x,COMMENT_x,MIN_x,OFF_RATING,DEF_RATING,NET_RATING,AST_PCT,AST_TOV,AST_RATIO,OREB_PCT,DREB_PCT,REB_PCT,TM_TOV_PCT,EFG_PCT,TS_PCT,USG_PCT,PACE,PIE,GAME_DATE_EST,GAME_SEQUENCE,TEAM_ID_y,TEAM_ABBREVIATION_y,TEAM_CITY_NAME,TEAM_WINS_LOSSES,PTS_QTR1,PTS_QTR2,PTS_QTR3,PTS_QTR4,PTS_OT1,PTS_OT2,PTS_OT3,PTS_OT4,PTS_OT5,PTS_OT6,PTS_OT7,PTS_OT8,PTS_OT9,PTS_OT10,PTS,FG_PCT,FT_PCT,FG3_PCT,AST,REB,TOV,GAME_ID_y,TEAM_ID,TEAM_ABBREVIATION,TEAM_CITY_y,PLAYER_NAME_y,START_POSITION_y,COMMENT_y,MIN_y,PTS_OFF_TOV,PTS_2ND_CHANCE,PTS_FB,PTS_PAINT,OPP_PTS_OFF_TOV,OPP_PTS_2ND_CHANCE,OPP_PTS_FB,OPP_PTS_PAINT,BLK,BLKA,PF,PFD
0021301174,1610612759,SAS,San Antonio,202695,Kawhi Leonard,F,,36:57,121.5,110.3,11.1,0.185,2.5,21.6,0.15,0.303,0.219,8.6,0.429,0.494,0.211,94.12,0.145,2014-04-10T00:00:00,1,1610612759,SAS,San Antonio,61-18,30,19,34,26,0,0,0,0,0,0,0,0,0,0,109,0.432,0.773,0.471,22,48,12,0021301174,1610612759,SAS,San Antonio,Kawhi Leonard,F,,36:57,2.0,3.0,9.0,4.0,9.0,9.0,12.0,32.0,0.0,0.0,2.0,3.0
0021301174,1610612759,SAS,San Antonio,202695,Kawhi Leonard,F,,36:57,121.5,110.3,11.1,0.185,2.5,21.6,0.15,0.303,0.219,8.6,0.429,0.494,0.211,94.12,0.145,2014-04-10T00:00:00,1,1610612742,DAL,Dallas,48-32,22,29,21,28,0,0,0,0,0,0,0,0,0,0,100,0.47,0.81,0.417,16,42,10,0021301174,1610612759,SAS,San Antonio,Kawhi Leonard,F,,36:57,2.0,3.0,9.0,4.0,9.0,9.0,12.0,32.0,0.0,0.0,2.0,3.0
0021301174,1610612759,SAS,San Antonio,1495,Tim Duncan,F,,39:17,104.4,109.5,-5.1,0.091,0.67,9.5,0.103,0.333,0.208,14.3,0.583,0.627,0.216,93.68,0.157,2014-04-10T00:00:00,1,1610612759,SAS,San Antonio,61-18,30,19,34,26,0,0,0,0,0,0,0,0,0,0,109,0.432,0.773,0.471,22,48,12,0021301174,1610612759,SAS,San Antonio,Tim Duncan,F,,39:17,2.0,4.0,0.0,10.0,20.0,7.0,16.0,36.0,1.0,1.0,3.0,7.0
0021301174,1610612759,SAS,San Antonio,1495,Tim Duncan,F,,39:17,104.4,109.5,-5.1,0.091,0.67,9.5,0.103,0.333,0.208,14.3,0.583,0.627,0.216,93.68,0.157,2014-04-10T00:00:00,1,1610612742,DAL,Dallas,48-32,22,29,21,28,0,0,0,0,0,0,0,0,0,0,100,0.47,0.81,0.417,16,42,10,0021301174,1610612759,SAS,San Antonio,Tim Duncan,F,,39:17,2.0,4.0,0.0,10.0,20.0,7.0,16.0,36.0,1.0,1.0,3.0,7.0
0021301174,1610612759,SAS,San Antonio,201168,Tiago Splitter,C,,28:06,144.6,82.1,62.6,0.038,1.0,8.3,0.071,0.032,0.051,8.3,0.6,0.6,0.162,96.44,0.059,2014-04-10T00:00:00,1,1610612759,SAS,San Antonio,61-18,30,19,34,26,0,0,0,0,0,0,0,0,0,0,109,0.432,0.773,0.471,22,48,12,0021301174,1610612759,SAS,San Antonio,Tiago Splitter,C,,28:06,0.0,2.0,0.0,12.0,4.0,7.0,8.0,18.0,0.0,0.0,3.0,0.0
0021301174,1610612759,SAS,San Antonio,201168,Tiago Splitter,C,,28:06,144.6,82.1,62.6,0.038,1.0,8.3,0.071,0.032,0.051,8.3,0.6,0.6,0.162,96.44,0.059,2014-04-10T00:00:00,1,1610612742,DAL,Dallas,48-32,22,29,21,28,0,0,0,0,0,0,0,0,0,0,100,0.47,0.81,0.417,16,42,10,0021301174,1610612759,SAS,San Antonio,Tiago Splitter,C,,28:06,0.0,2.0,0.0,12.0,4.0,7.0,8.0,18.0,0.0,0.0,3.0,0.0
0021301174,1610612759,SAS,San Antonio,201980,Danny Green,G,,22:23,126.8,101.4,25.4,0.067,0.0,10.0,0.0,0.238,0.116,0.0,0.833,0.833,0.18,94.73,0.184,2014-04-10T00:00:00,1,1610612759,SAS,San Antonio,61-18,30,19,34,26,0,0,0,0,0,0,0,0,0,0,109,0.432,0.773,0.471,22,48,12,0021301174,1610612759,SAS,San Antonio,Danny Green,G,,22:23,0.0,0.0,9.0,0.0,2.0,6.0,7.0,20.0,0.0,0.0,1.0,0.0
0021301174,1610612759,SAS,San Antonio,201980,Danny Green,G,,22:23,126.8,101.4,25.4,0.067,0.0,10.0,0.0,0.238,0.116,0.0,0.833,0.833,0.18,94.73,0.184,2014-04-10T00:00:00,1,1610612742,DAL,Dallas,48-32,22,29,21,28,0,0,0,0,0,0,0,0,0,0,100,0.47,0.81,0.417,16,42,10,0021301174,1610612759,SAS,San Antonio,Danny Green,G,,22:23,0.0,0.0,9.0,0.0,2.0,6.0,7.0,20.0,0.0,0.0,1.0,0.0
0021301174,1610612759,SAS,San Antonio,201988,Patty Mills,G,,35:39,127.9,99.4,28.5,0.24,0.0,18.8,0.0,0.063,0.029,0.0,0.48,0.502,0.293,96.72,0.117,2014-04-10T00:00:00,1,1610612759,SAS,San Antonio,61-18,30,19,34,26,0,0,0,0,0,0,0,0,0,0,109,0.432,0.773,0.471,22,48,12,0021301174,1610612759,SAS,San Antonio,Patty Mills,G,,35:39,8.0,6.0,14.0,4.0,14.0,5.0,12.0,28.0,0.0,2.0,2.0,2.0
0021301174,1610612759,SAS,San Antonio,201988,Patty Mills,G,,35:39,127.9,99.4,28.5,0.24,0.0,18.8,0.0,0.063,0.029,0.0,0.48,0.502,0.293,96.72,0.117,2014-04-10T00:00:00,1,1610612742,DAL,Dallas,48-32,22,29,21,28,0,0,0,0,0,0,0,0,0,0,100,0.47,0.81,0.417,16,42,10,0021301174,1610612759,SAS,San Antonio,Patty Mills,G,,35:39,8.0,6.0,14.0,4.0,14.0,5.0,12.0,28.0,0.0,2.0,2.0,2.0
0021301174,1610612759,SAS,San Antonio,2564,Boris Diaw,,,19:32,83.7,119.4,-35.7,0.0,0.0,0.0,0.091,0.083,0.088,25.0,0.0,0.0,0.088,100.32,-0.067,2014-04-10T00:00:00,1,1610612759,SAS,San Antonio,61-18,30,19,34,26,0,0,0,0,0,0,0,0,0,0,109,0.432,0.773,0.471,22,48,12,0021301174,1610612759,SAS,San Antonio,Boris Diaw,,,19:32,0.0,0.0,0.0,0.0,13.0,2.0,10.0,16.0,0.0,1.0,3.0,1.0
0021301174,1610612759,SAS,San Antonio,2564,Boris Diaw,,,19:32,83.7,119.4,-35.7,0.0,0.0,0.0,0.091,0.083,0.088,25.0,0.0,0.0,0.088,100.32,-0.067,2014-04-10T00:00:00,1,1610612742,DAL,Dallas,48-32,22,29,21,28,0,0,0,0,0,0,0,0,0,0,100,0.47,0.81,0.417,16,42,10,0021301174,1610612759,SAS,San Antonio,Boris Diaw,,,19:32,0.0,0.0,0.0,0.0,13.0,2.0,10.0,16.0,0.0,1.0,3.0,1.0
0021301174,1610612759,SAS,San Antonio,1938,Manu Ginobili,,,28:37,98.9,109.3,-10.4,0.467,1.4,35.0,0.0,0.091,0.038,25.0,0.625,0.625,0.192,95.07,0.112,2014-04-10T00:00:00,1,1610612759,SAS,San Antonio,61-18,30,19,34,26,0,0,0,0,0,0,0,0,0,0,109,0.432,0.773,0.471,22,48,12,0021301174,1610612759,SAS,San Antonio,Manu Ginobili,,,28:37,0.0,3.0,0.0,2.0,18.0,3.0,12.0,22.0,0.0,1.0,2.0,0.0
0021301174,1610612759,SAS,San Antonio,1938,Manu Ginobili,,,28:37,98.9,109.3,-10.4,0.467,1.4,35.0,0.0,0.091,0.038,25.0,0.625,0.625,0.192,95.07,0.112,2014-04-10T00:00:00,1,1610612742,DAL,Dallas,48-32,22,29,21,28,0,0,0,0,0,0,0,0,0,0,100,0.47,0.81,0.417,16,42,10,0021301174,1610612759,SAS,San Antonio,Manu Ginobili,,,28:37,0.0,3.0,0.0,2.0,18.0,3.0,12.0,22.0,0.0,1.0,2.0,0.0
0021301174,1610612759,SAS,San Antonio,202709,Cory Joseph,,,8:16,59.2,142.0,-82.8,0.0,0.0,0.0,0.0,0.333,0.125,0.0,0.0,0.852,0.13,86.25,0.054,2014-04-10T00:00:00,1,1610612759,SAS,San Antonio,61-18,30,19,34,26,0,0,0,0,0,0,0,0,0,0,109,0.432,0.773,0.471,22,48,12,0021301174,1610612759,SAS,San Antonio,Cory Joseph,,,8:16,0.0,0.0,0.0,0.0,6.0,2.0,4.0,8.0,0.0,0.0,2.0,3.0
0021301174,1610612759,SAS,San Antonio,202709,Cory Joseph,,,8:16,59.2,142.0,-82.8,0.0,0.0,0.0,0.0,0.333,0.125,0.0,0.0,0.852,0.13,86.25,0.054,2014-04-10T00:00:00,1,1610612742,DAL,Dallas,48-32,22,29,21,28,0,0,0,0,0,0,0,0,0,0,100,0.47,0.81,0.417,16,42,10,0021301174,1610612759,SAS,San Antonio,Cory Joseph,,,8:16,0.0,0.0,0.0,0.0,6.0,2.0,4.0,8.0,0.0,0.0,2.0,3.0
0021301174,1610612759,SAS,San Antonio,201158,Marco Belinelli,,,20:09,98.1,104.4,-6.2,0.0,0.0,0.0,0.05,0.0,0.026,0.0,0.357,0.444,0.176,92.89,-0.028,2014-04-10T00:00:00,1,1610612759,SAS,San Antonio,61-18,30,19,34,26,0,0,0,0,0,0,0,0,0,0,109,0.432,0.773,0.471,22,48,12,0021301174,1610612759,SAS,San Antonio,Marco Belinelli,,,20:09,0.0,0.0,3.0,0.0,14.0,4.0,14.0,16.0,0.0,0.0,4.0,1.0
0021301174,1610612759,SAS,San Antonio,201158,Marco Belinelli,,,20:09,98.1,104.4,-6.2,0.0,0.0,0.0,0.05,0.0,0.026,0.0,0.357,0.444,0.176,92.89,-0.028,2014-04-10T00:00:00,1,1610612742,DAL,Dallas,48-32,22,29,21,28,0,0,0,0,0,0,0,0,0,0,100,0.47,0.81,0.417,16,42,10,0021301174,1610612759,SAS,San Antonio,Marco Belinelli,,,20:09,0.0,0.0,3.0,0.0,14.0,4.0,14.0,16.0,0.0,0.0,4.0,1.0
0021301174,1610612759,SAS,San Antonio,201948,Austin Daye,,,0:32,227.3,200.0,27.3,0.0,0.0,0.0,0.0,0.0,0.0,0.0,0.0,0.0,0.0,84.07,0.0,2014-04-10T00:00:00,1,1610612759,SAS,San Antonio,61-18,30,19,34,26,0,0,0,0,0,0,0,0,0,0,109,0.432,0.773,0.471,22,48,12,0021301174,1610612759,SAS,San Antonio,Austin Daye,,,0:32,0.0,0.0,0.0,0.0,0.0,0.0,0.0,2.0,0.0,0.0,0.0,0.0
0021301174,1610612759,SAS,San Antonio,201948,Austin Daye,,,0:32,227.3,200.0,27.3,0.0,0.0,0.0,0.0,0.0,0.0,0.0,0.0,0.0,0.0,84.07,0.0,2014-04-10T00:00:00,1,1610612742,DAL,Dallas,48-32,22,29,21,28,0,0,0,0,0,0,0,0,0,0,100,0.47,0.81,0.417,16,42,10,0021301174,1610612759,SAS,San Antonio,Austin Daye,,,0:32,0.0,0.0,0.0,0.0,0.0,0.0,0.0,2.0,0.0,0.0,0.0,0.0
0021301174,1610612759,SAS,San Antonio,201965,Jeff Ayres,,,0:32,227.3,200.0,27.3,0.0,0.0,0.0,0.0,0.0,0.0,0.0,0.0,0.0,0.0,84.07,0.0,2014-04-10T00:00:00,1,1610612759,SAS,San Antonio,61-18,30,19,34,26,0,0,0,0,0,0,0,0,0,0,109,0.432,0.773,0.471,22,48,12,0021301174,1610612759,SAS,San Antonio,Jeff Ayres,,,0:32,0.0,0.0,0.0,0.0,0.0,0.0,0.0,2.0,0.0,0.0,0.0,0.0
0021301174,1610612759,SAS,San Antonio,201965,Jeff Ayres,,,0:32,227.3,200.0,27.3,0.0,0.0,0.0,0.0,0.0,0.0,0.0,0.0,0.0,0.0,84.07,0.0,2014-04-10T00:00:00,1,1610612742,DAL,Dallas,48-32,22,29,21,28,0,0,0,0,0,0,0,0,0,0,100,0.47,0.81,0.417,16,42,10,0021301174,1610612759,SAS,San Antonio,Jeff Ayres,,,0:32,0.0,0.0,0.0,0.0,0.0,0.0,0.0,2.0,0.0,0.0,0.0,0.0
0021301174,1610612759,SAS,San Antonio,203382,Aron Baynes,,DNP - Coach's Decision,,,,,,,0.0,,,,,,,0.0,,,2014-04-10T00:00:00,1,1610612759,SAS,San Antonio,61-18,30,19,34,26,0,0,0,0,0,0,0,0,0,0,109,0.432,0.773,0.471,22,48,12,0021301174,1610612759,SAS,San Antonio,Aron Baynes,,DNP - Coach's Decision,,,,,,,,,,,,,
0021301174,1610612759,SAS,San Antonio,203382,Aron Baynes,,DNP - Coach's Decision,,,,,,,0.0,,,,,,,0.0,,,2014-04-10T00:00:00,1,1610612742,DAL,Dallas,48-32,22,29,21,28,0,0,0,0,0,0,0,0,0,0,100,0.47,0.81,0.417,16,42,10,0021301174,1610612759,SAS,San Antonio,Aron Baynes,,DNP - Coach's Decision,,,,,,,,,,,,,
0021301174,1610612759,SAS,San Antonio,2588,Matt Bonner,,DNP - Coach's Decision,,,,,,,0.0,,,,,,,0.0,,,2014-04-10T00:00:00,1,1610612759,SAS,San Antonio,61-18,30,19,34,26,0,0,0,0,0,0,0,0,0,0,109,0.432,0.773,0.471,22,48,12,0021301174,1610612759,SAS,San Antonio,Matt Bonner,,DNP - Coach's Decision,,,,,,,,,,,,,
0021301174,1610612759,SAS,San Antonio,2588,Matt Bonner,,DNP - Coach's Decision,,,,,,,0.0,,,,,,,0.0,,,2014-04-10T00:00:00,1,1610612742,DAL,Dallas,48-32,22,29,21,28,0,0,0,0,0,0,0,0,0,0,100,0.47,0.81,0.417,16,42,10,0021301174,1610612759,SAS,San Antonio,Matt Bonner,,DNP - Coach's Decision,,,,,,,,,,,,,
0021301174,1610612742,DAL,Dallas,1890,Shawn Marion,F,,29:27,100.1,117.4,-17.3,0.056,0.5,10.0,0.0,0.097,0.052,20.0,0.857,0.857,0.143,97.8,0.092,2014-04-10T00:00:00,1,1610612759,SAS,San Antonio,61-18,30,19,34,26,0,0,0,0,0,0,0,0,0,0,109,0.432,0.773,0.471,22,48,12,0021301174,1610612742,DAL,Dallas,Shawn Marion,F,,29:27,0.0,2.0,0.0,6.0,9.0,13.0,26.0,22.0,2.0,0.0,2.0,0.0
0021301174,1610612742,DAL,Dallas,1890,Shawn Marion,F,,29:27,100.1,117.4,-17.3,0.056,0.5,10.0,0.0,0.097,0.052,20.0,0.857,0.857,0.143,97.8,0.092,2014-04-10T00:00:00,1,1610612742,DAL,Dallas,48-32,22,29,21,28,0,0,0,0,0,0,0,0,0,0,100,0.47,0.81,0.417,16,42,10,0021301174,1610612742,DAL,Dallas,Shawn Marion,F,,29:27,0.0,2.0,0.0,6.0,9.0,13.0,26.0,22.0,2.0,0.0,2.0,0.0
0021301174,1610612742,DAL,Dallas,1717,Dirk Nowitzki,F,,34:11,100.6,119.0,-18.4,0.053,0.0,5.8,0.0,0.194,0.097,0.0,0.571,0.586,0.22,94.79,0.138,2014-04-10T00:00:00,1,1610612759,SAS,San Antonio,61-18,30,19,34,26,0,0,0,0,0,0,0,0,0,0,109,0.432,0.773,0.471,22,48,12,0021301174,1610612742,DAL,Dallas,Dirk Nowitzki,F,,34:11,2.0,2.0,0.0,2.0,10.0,10.0,27.0,24.0,0.0,0.0,1.0,3.0
0021301174,1610612742,DAL,Dallas,1717,Dirk Nowitzki,F,,34:11,100.6,119.0,-18.4,0.053,0.0,5.8,0.0,0.194,0.097,0.0,0.571,0.586,0.22,94.79,0.138,2014-04-10T00:00:00,1,1610612742,DAL,Dallas,48-32,22,29,21,28,0,0,0,0,0,0,0,0,0,0,100,0.47,0.81,0.417,16,42,10,0021301174,1610612742,DAL,Dallas,Dirk Nowitzki,F,,34:11,2.0,2.0,0.0,2.0,10.0,10.0,27.0,24.0,0.0,0.0,1.0,3.0
0021301174,1610612742,DAL,Dallas,2223,Samuel Dalembert,C,,19:58,89.3,143.8,-54.5,0.083,0.0,16.7,0.211,0.304,0.262,0.0,0.2,0.2,0.119,93.4,0.072,2014-04-10T00:00:00,1,1610612759,SAS,San Antonio,61-18,30,19,34,26,0,0,0,0,0,0,0,0,0,0,109,0.432,0.773,0.471,22,48,12,0021301174,1610612742,DAL,Dallas,Samuel Dalembert,C,,19:58,0.0,2.0,0.0,2.0,9.0,15.0,20.0,18.0,1.0,1.0,2.0,0.0
0021301174,1610612742,DAL,Dallas,2223,Samuel Dalembert,C,,19:58,89.3,143.8,-54.5,0.083,0.0,16.7,0.211,0.304,0.262,0.0,0.2,0.2,0.119,93.4,0.072,2014-04-10T00:00:00,1,1610612742,DAL,Dallas,48-32,22,29,21,28,0,0,0,0,0,0,0,0,0,0,100,0.47,0.81,0.417,16,42,10,0021301174,1610612742,DAL,Dallas,Samuel Dalembert,C,,19:58,0.0,2.0,0.0,2.0,9.0,15.0,20.0,18.0,1.0,1.0,2.0,0.0
0021301174,1610612742,DAL,Dallas,101145,Monta Ellis,G,,37:49,112.1,119.9,-7.9,0.182,2.0,13.4,0.0,0.098,0.055,6.7,0.455,0.505,0.321,94.07,0.102,2014-04-10T00:00:00,1,1610612759,SAS,San Antonio,61-18,30,19,34,26,0,0,0,0,0,0,0,0,0,0,109,0.432,0.773,0.471,22,48,12,0021301174,1610612742,DAL,Dallas,Monta Ellis,G,,37:49,7.0,0.0,10.0,12.0,12.0,18.0,32.0,26.0,0.0,0.0,3.0,4.0
0021301174,1610612742,DAL,Dallas,101145,Monta Ellis,G,,37:49,112.1,119.9,-7.9,0.182,2.0,13.4,0.0,0.098,0.055,6.7,0.455,0.505,0.321,94.07,0.102,2014-04-10T00:00:00,1,1610612742,DAL,Dallas,48-32,22,29,21,28,0,0,0,0,0,0,0,0,0,0,100,0.47,0.81,0.417,16,42,10,0021301174,1610612742,DAL,Dallas,Monta Ellis,G,,37:49,7.0,0.0,10.0,12.0,12.0,18.0,32.0,26.0,0.0,0.0,3.0,4.0
0021301174,1610612742,DAL,Dallas,101181,Jose Calderon,G,,27:54,101.1,139.0,-37.8,0.063,0.5,6.7,0.0,0.103,0.056,13.4,0.545,0.589,0.246,91.51,0.084,2014-04-10T00:00:00,1,1610612759,SAS,San Antonio,61-18,30,19,34,26,0,0,0,0,0,0,0,0,0,0,109,0.432,0.773,0.471,22,48,12,0021301174,1610612742,DAL,Dallas,Jose Calderon,G,,27:54,3.0,0.0,2.0,2.0,6.0,13.0,29.0,22.0,0.0,0.0,0.0,1.0
0021301174,1610612742,DAL,Dallas,101181,Jose Calderon,G,,27:54,101.1,139.0,-37.8,0.063,0.5,6.7,0.0,0.103,0.056,13.4,0.545,0.589,0.246,91.51,0.084,2014-04-10T00:00:00,1,1610612742,DAL,Dallas,48-32,22,29,21,28,0,0,0,0,0,0,0,0,0,0,100,0.47,0.81,0.417,16,42,10,0021301174,1610612742,DAL,Dallas,Jose Calderon,G,,27:54,3.0,0.0,2.0,2.0,6.0,13.0,29.0,22.0,0.0,0.0,0.0,1.0
0021301174,1610612742,DAL,Dallas,1713,Vince Carter,,,27:07,106.9,103.2,3.7,0.095,0.0,25.4,0.0,0.125,0.073,0.0,0.4,0.51,0.101,96.09,0.073,2014-04-10T00:00:00,1,1610612759,SAS,San Antonio,61-18,30,19,34,26,0,0,0,0,0,0,0,0,0,0,109,0.432,0.773,0.471,22,48,12,0021301174,1610612742,DAL,Dallas,Vince Carter,,,27:07,2.0,0.0,0.0,2.0,5.0,8.0,17.0,18.0,1.0,0.0,3.0,6.0
0021301174,1610612742,DAL,Dallas,1713,Vince Carter,,,27:07,106.9,103.2,3.7,0.095,0.0,25.4,0.0,0.125,0.073,0.0,0.4,0.51,0.101,96.09,0.073,2014-04-10T00:00:00,1,1610612742,DAL,Dallas,48-32,22,29,21,28,0,0,0,0,0,0,0,0,0,0,100,0.47,0.81,0.417,16,42,10,0021301174,1610612742,DAL,Dallas,Vince Carter,,,27:07,2.0,0.0,0.0,2.0,5.0,8.0,17.0,18.0,1.0,0.0,3.0,6.0
0021301174,1610612742,DAL,Dallas,2734,Devin Harris,,,27:10,121.0,83.8,37.3,0.174,2.0,24.0,0.0,0.067,0.04,12.0,0.188,0.376,0.209,96.38,0.093,2014-04-10T00:00:00,1,1610612759,SAS,San Antonio,61-18,30,19,34,26,0,0,0,0,0,0,0,0,0,0,109,0.432,0.773,0.471,22,48,12,0021301174,1610612742,DAL,Dallas,Devin Harris,,,27:10,0.0,0.0,3.0,0.0,6.0,10.0,9.0,12.0,1.0,0.0,0.0,5.0
0021301174,1610612742,DAL,Dallas,2734,Devin Harris,,,27:10,121.0,83.8,37.3,0.174,2.0,24.0,0.0,0.067,0.04,12.0,0.188,0.376,0.209,96.38,0.093,2014-04-10T00:00:00,1,1610612742,DAL,Dallas,48-32,22,29,21,28,0,0,0,0,0,0,0,0,0,0,100,0.47,0.81,0.417,16,42,10,0021301174,1610612742,DAL,Dallas,Devin Harris,,,27:10,0.0,0.0,3.0,0.0,6.0,10.0,9.0,12.0,1.0,0.0,0.0,5.0
0021301174,1610612742,DAL,Dallas,201971,DeJuan Blair,,,8:26,125.3,81.5,43.8,0.167,1.0,17.0,0.4,0.4,0.4,17.0,0.667,0.644,0.26,93.08,0.091,2014-04-10T00:00:00,1,1610612759,SAS,San Antonio,61-18,30,19,34,26,0,0,0,0,0,0,0,0,0,0,109,0.432,0.773,0.471,22,48,12,0021301174,1610612742,DAL,Dallas,DeJuan Blair,,,8:26,0.0,1.0,0.0,4.0,0.0,0.0,0.0,6.0,0.0,0.0,4.0,3.0
0021301174,1610612742,DAL,Dallas,201971,DeJuan Blair,,,8:26,125.3,81.5,43.8,0.167,1.0,17.0,0.4,0.4,0.4,17.0,0.667,0.644,0.26,93.08,0.091,2014-04-10T00:00:00,1,1610612742,DAL,Dallas,48-32,22,29,21,28,0,0,0,0,0,0,0,0,0,0,100,0.47,0.81,0.417,16,42,10,0021301174,1610612742,DAL,Dallas,DeJuan Blair,,,8:26,0.0,1.0,0.0,4.0,0.0,0.0,0.0,6.0,0.0,0.0,4.0,3.0
0021301174,1610612742,DAL,Dallas,203109,Jae Crowder,,,9:14,93.0,84.1,8.9,0.167,0.0,50.0,0.0,0.4,0.167,0.0,0.0,0.0,0.055,88.02,0.125,2014-04-10T00:00:00,1,1610612759,SAS,San Antonio,61-18,30,19,34,26,0,0,0,0,0,0,0,0,0,0,109,0.432,0.773,0.471,22,48,12,0021301174,1610612742,DAL,Dallas,Jae Crowder,,,9:14,0.0,0.0,0.0,0.0,0.0,0.0,0.0,4.0,0.0,0.0,0.0,0.0
0021301174,1610612742,DAL,Dallas,203109,Jae Crowder,,,9:14,93.0,84.1,8.9,0.167,0.0,50.0,0.0,0.4,0.167,0.0,0.0,0.0,0.055,88.02,0.125,2014-04-10T00:00:00,1,1610612742,DAL,Dallas,48-32,22,29,21,28,0,0,0,0,0,0,0,0,0,0,100,0.47,0.81,0.417,16,42,10,0021301174,1610612742,DAL,Dallas,Jae Crowder,,,9:14,0.0,0.0,0.0,0.0,0.0,0.0,0.0,4.0,0.0,0.0,0.0,0.0
0021301174,1610612742,DAL,Dallas,201148,Brandan Wright,,,17:09,104.5,97.1,7.4,0.0,0.0,0.0,0.125,0.056,0.088,14.3,0.667,0.667,0.187,101.46,0.11,2014-04-10T00:00:00,1,1610612759,SAS,San Antonio,61-18,30,19,34,26,0,0,0,0,0,0,0,0,0,0,109,0.432,0.773,0.471,22,48,12,0021301174,1610612742,DAL,Dallas,Brandan Wright,,,17:09,6.0,2.0,4.0,8.0,3.0,3.0,15.0,8.0,0.0,0.0,1.0,0.0
0021301174,1610612742,DAL,Dallas,201148,Brandan Wright,,,17:09,104.5,97.1,7.4,0.0,0.0,0.0,0.125,0.056,0.088,14.3,0.667,0.667,0.187,101.46,0.11,2014-04-10T00:00:00,1,1610612742,DAL,Dallas,48-32,22,29,21,28,0,0,0,0,0,0,0,0,0,0,100,0.47,0.81,0.417,16,42,10,0021301174,1610612742,DAL,Dallas,Brandan Wright,,,17:09,6.0,2.0,4.0,8.0,3.0,3.0,15.0,8.0,0.0,0.0,1.0,0.0
0021301174,1610612742,DAL,Dallas,203499,Shane Larkin,,,0:32,200.0,227.3,-27.3,0.0,0.0,0.0,0.0,0.0,0.0,0.0,1.0,1.0,1.0,84.07,0.333,2014-04-10T00:00:00,1,1610612759,SAS,San Antonio,61-18,30,19,34,26,0,0,0,0,0,0,0,0,0,0,109,0.432,0.773,0.471,22,48,12,0021301174,1610612742,DAL,Dallas,Shane Larkin,,,0:32,0.0,0.0,0.0,2.0,0.0,0.0,0.0,0.0,0.0,0.0,1.0,0.0
0021301174,1610612742,DAL,Dallas,203499,Shane Larkin,,,0:32,200.0,227.3,-27.3,0.0,0.0,0.0,0.0,0.0,0.0,0.0,1.0,1.0,1.0,84.07,0.333,2014-04-10T00:00:00,1,1610612742,DAL,Dallas,48-32,22,29,21,28,0,0,0,0,0,0,0,0,0,0,100,0.47,0.81,0.417,16,42,10,0021301174,1610612742,DAL,Dallas,Shane Larkin,,,0:32,0.0,0.0,0.0,2.0,0.0,0.0,0.0,0.0,0.0,0.0,1.0,0.0
0021301174,1610612742,DAL,Dallas,203108,Bernard James,,,0:32,200.0,227.3,-27.3,0.0,0.0,0.0,0.0,0.0,0.0,0.0,0.0,0.0,0.0,84.07,0.0,2014-04-10T00:00:00,1,1610612759,SAS,San Antonio,61-18,30,19,34,26,0,0,0,0,0,0,0,0,0,0,109,0.432,0.773,0.471,22,48,12,0021301174,1610612742,DAL,Dallas,Bernard James,,,0:32,0.0,0.0,0.0,0.0,0.0,0.0,0.0,0.0,0.0,0.0,0.0,0.0
0021301174,1610612742,DAL,Dallas,203108,Bernard James,,,0:32,200.0,227.3,-27.3,0.0,0.0,0.0,0.0,0.0,0.0,0.0,0.0,0.0,0.0,84.07,0.0,2014-04-10T00:00:00,1,1610612742,DAL,Dallas,48-32,22,29,21,28,0,0,0,0,0,0,0,0,0,0,100,0.47,0.81,0.417,16,42,10,0021301174,1610612742,DAL,Dallas,Bernard James,,,0:32,0.0,0.0,0.0,0.0,0.0,0.0,0.0,0.0,0.0,0.0,0.0,0.0
0021301174,1610612742,DAL,Dallas,201961,Wayne Ellington,,,0:32,200.0,227.3,-27.3,0.0,0.0,0.0,0.0,0.0,0.0,0.0,0.0,0.0,0.0,84.07,0.0,2014-04-10T00:00:00,1,1610612759,SAS,San Antonio,61-18,30,19,34,26,0,0,0,0,0,0,0,0,0,0,109,0.432,0.773,0.471,22,48,12,0021301174,1610612742,DAL,Dallas,Wayne Ellington,,,0:32,0.0,0.0,0.0,0.0,0.0,0.0,0.0,0.0,0.0,0.0,0.0,0.0
0021301174,1610612742,DAL,Dallas,201961,Wayne Ellington,,,0:32,200.0,227.3,-27.3,0.0,0.0,0.0,0.0,0.0,0.0,0.0,0.0,0.0,0.0,84.07,0.0,2014-04-10T00:00:00,1,1610612742,DAL,Dallas,48-32,22,29,21,28,0,0,0,0,0,0,0,0,0,0,100,0.47,0.81,0.417,16,42,10,0021301174,1610612742,DAL,Dallas,Wayne Ellington,,,0:32,0.0,0.0,0.0,0.0,0.0,0.0,0.0,0.0,0.0,0.0,0.0,0.0
