GAME_ID_x,TEAM_ID_x,TEAM_ABBREVIATION_x,TEAM_CITY_x,PLAYER_ID,PLAYER_NAME_x,START_POSITION_x,COMMENT_x,MIN_x,OFF_RATING,DEF_RATING,NET_RATING,AST_PCT,AST_TOV,AST_RATIO,OREB_PCT,DREB_PCT,REB_PCT,TM_TOV_PCT,EFG_PCT,TS_PCT,USG_PCT,PACE,PIE,GAME_DATE_EST,GAME_SEQUENCE,TEAM_ID_y,TEAM_ABBREVIATION_y,TEAM_CITY_NAME,TEAM_WINS_LOSSES,PTS_QTR1,PTS_QTR2,PTS_QTR3,PTS_QTR4,PTS_OT1,PTS_OT2,PTS_OT3,PTS_OT4,PTS_OT5,PTS_OT6,PTS_OT7,PTS_OT8,PTS_OT9,PTS_OT10,PTS,FG_PCT,FT_PCT,FG3_PCT,AST,REB,TOV,GAME_ID_y,TEAM_ID,TEAM_ABBREVIATION,TEAM_CITY_y,PLAYER_NAME_y,START_POSITION_y,COMMENT_y,MIN_y,PTS_OFF_TOV,PTS_2ND_CHANCE,PTS_FB,PTS_PAINT,OPP_PTS_OFF_TOV,OPP_PTS_2ND_CHANCE,OPP_PTS_FB,OPP_PTS_PAINT,BLK,BLKA,PF,PFD
0021301175,1610612743,DEN,Denver,203113,Quincy Miller,F,,24:20,87.6,115.1,-27.5,0.056,1.0,12.5,0.0,0.095,0.038,12.5,0.5,0.5,0.103,101.75,0.023,2014-04-10T00:00:00,2,1610612743,DEN,Denver,35-44,15,28,30,27,0,0,0,0,0,0,0,0,0,0,100,0.375,0.632,0.294,23,63,16,0021301175,1610612743,DEN,Denver,Quincy Miller,F,,24:20,0.0,0.0,3.0,0.0,12.0,2.0,15.0,30.0,0.0,0.0,3.0,0.0
0021301175,1610612743,DEN,Denver,203113,Quincy Miller,F,,24:20,87.6,115.1,-27.5,0.056,1.0,12.5,0.0,0.095,0.038,12.5,0.5,0.5,0.103,101.75,0.023,2014-04-10T00:00:00,2,1610612744,GSW,Golden State,48-30,28,25,22,24,0,0,0,0,0,0,0,0,0,0,99,0.455,0.867,0.261,19,38,13,0021301175,1610612743,DEN,Denver,Quincy Miller,F,,24:20,0.0,0.0,3.0,0.0,12.0,2.0,15.0,30.0,0.0,0.0,3.0,0.0
0021301175,1610612743,DEN,Denver,202702,Kenneth Faried,F,,32:54,90.8,98.0,-7.3,0.056,0.17,3.6,0.2,0.265,0.23,21.4,0.444,0.427,0.299,104.4,0.112,2014-04-10T00:00:00,2,1610612743,DEN,Denver,35-44,15,28,30,27,0,0,0,0,0,0,0,0,0,0,100,0.375,0.632,0.294,23,63,16,0021301175,1610612743,DEN,Denver,Kenneth Faried,F,,32:54,5.0,10.0,4.0,16.0,14.0,4.0,19.0,34.0,0.0,1.0,0.0,5.0
0021301175,1610612743,DEN,Denver,202702,Kenneth Faried,F,,32:54,90.8,98.0,-7.3,0.056,0.17,3.6,0.2,0.265,0.23,21.4,0.444,0.427,0.299,104.4,0.112,2014-04-10T00:00:00,2,1610612744,GSW,Golden State,48-30,28,25,22,24,0,0,0,0,0,0,0,0,0,0,99,0.455,0.867,0.261,19,38,13,0021301175,1610612743,DEN,Denver,Kenneth Faried,F,,32:54,5.0,10.0,4.0,16.0,14.0,4.0,19.0,34.0,0.0,1.0,0.0,5.0
0021301175,1610612743,DEN,Denver,202389,Timofey Mozgov,C,,42:45,95.1,98.0,-2.9,0.125,1.5,13.8,0.167,0.476,0.302,9.2,0.667,0.686,0.162,102.36,0.289,2014-04-10T00:00:00,2,1610612743,DEN,Denver,35-44,15,28,30,27,0,0,0,0,0,0,0,0,0,0,100,0.375,0.632,0.294,23,63,16,0021301175,1610612743,DEN,Denver,Timofey Mozgov,C,,42:45,4.0,11.0,4.0,16.0,16.0,4.0,19.0,46.0,3.0,1.0,3.0,5.0
0021301175,1610612743,DEN,Denver,202389,Timofey Mozgov,C,,42:45,95.1,98.0,-2.9,0.125,1.5,13.8,0.167,0.476,0.302,9.2,0.667,0.686,0.162,102.36,0.289,2014-04-10T00:00:00,2,1610612744,GSW,Golden State,48-30,28,25,22,24,0,0,0,0,0,0,0,0,0,0,99,0.455,0.867,0.261,19,38,13,0021301175,1610612743,DEN,Denver,Timofey Mozgov,C,,42:45,4.0,11.0,4.0,16.0,16.0,4.0,19.0,46.0,3.0,1.0,3.0,5.0
0021301175,1610612743,DEN,Denver,200751,Randy Foye,G,,38:56,89.0,98.3,-9.3,0.318,3.5,21.3,0.061,0.1,0.079,6.1,0.391,0.419,0.236,104.1,0.11,2014-04-10T00:00:00,2,1610612743,DEN,Denver,35-44,15,28,30,27,0,0,0,0,0,0,0,0,0,0,100,0.375,0.632,0.294,23,63,16,0021301175,1610612743,DEN,Denver,Randy Foye,G,,38:56,3.0,3.0,3.0,6.0,16.0,4.0,19.0,38.0,1.0,1.0,2.0,1.0
0021301175,1610612743,DEN,Denver,200751,Randy Foye,G,,38:56,89.0,98.3,-9.3,0.318,3.5,21.3,0.061,0.1,0.079,6.1,0.391,0.419,0.236,104.1,0.11,2014-04-10T00:00:00,2,1610612744,GSW,Golden State,48-30,28,25,22,24,0,0,0,0,0,0,0,0,0,0,99,0.455,0.867,0.261,19,38,13,0021301175,1610612743,DEN,Denver,Randy Foye,G,,38:56,3.0,3.0,3.0,6.0,16.0,4.0,19.0,38.0,1.0,1.0,2.0,1.0
0021301175,1610612743,DEN,Denver,201166,Aaron Brooks,G,,39:28,95.3,102.8,-7.5,0.233,3.5,29.3,0.021,0.029,0.025,8.4,0.214,0.269,0.161,103.77,0.032,2014-04-10T00:00:00,2,1610612743,DEN,Denver,35-44,15,28,30,27,0,0,0,0,0,0,0,0,0,0,100,0.375,0.632,0.294,23,63,16,0021301175,1610612743,DEN,Denver,Aaron Brooks,G,,39:28,4.0,0.0,2.0,2.0,18.0,4.0,19.0,46.0,0.0,0.0,0.0,2.0
0021301175,1610612743,DEN,Denver,201166,Aaron Brooks,G,,39:28,95.3,102.8,-7.5,0.233,3.5,29.3,0.021,0.029,0.025,8.4,0.214,0.269,0.161,103.77,0.032,2014-04-10T00:00:00,2,1610612744,GSW,Golden State,48-30,28,25,22,24,0,0,0,0,0,0,0,0,0,0,99,0.455,0.867,0.261,19,38,13,0021301175,1610612743,DEN,Denver,Aaron Brooks,G,,39:28,4.0,0.0,2.0,2.0,18.0,4.0,19.0,46.0,0.0,0.0,0.0,2.0
0021301175,1610612743,DEN,Denver,203095,Evan Fournier,,,28:19,100.5,85.3,15.2,0.2,1.33,21.2,0.032,0.04,0.036,15.9,0.364,0.379,0.205,103.13,0.028,2014-04-10T00:00:00,2,1610612743,DEN,Denver,35-44,15,28,30,27,0,0,0,0,0,0,0,0,0,0,100,0.375,0.632,0.294,23,63,16,0021301175,1610612743,DEN,Denver,Evan Fournier,,,28:19,1.0,3.0,1.0,2.0,10.0,2.0,4.0,28.0,0.0,1.0,2.0,2.0
0021301175,1610612743,DEN,Denver,203095,Evan Fournier,,,28:19,100.5,85.3,15.2,0.2,1.33,21.2,0.032,0.04,0.036,15.9,0.364,0.379,0.205,103.13,0.028,2014-04-10T00:00:00,2,1610612744,GSW,Golden State,48-30,28,25,22,24,0,0,0,0,0,0,0,0,0,0,99,0.455,0.867,0.261,19,38,13,0021301175,1610612743,DEN,Denver,Evan Fournier,,,28:19,1.0,3.0,1.0,2.0,10.0,2.0,4.0,28.0,0.0,1.0,2.0,2.0
0021301175,1610612743,DEN,Denver,201589,Darrell Arthur,,,20:14,104.4,88.2,16.1,0.0,0.0,0.0,0.05,0.0,0.028,0.0,0.333,0.333,0.283,103.39,-0.022,2014-04-10T00:00:00,2,1610612743,DEN,Denver,35-44,15,28,30,27,0,0,0,0,0,0,0,0,0,0,100,0.375,0.632,0.294,23,63,16,0021301175,1610612743,DEN,Denver,Darrell Arthur,,,20:14,0.0,0.0,0.0,0.0,10.0,0.0,0.0,18.0,0.0,0.0,2.0,0.0
0021301175,1610612743,DEN,Denver,201589,Darrell Arthur,,,20:14,104.4,88.2,16.1,0.0,0.0,0.0,0.05,0.0,0.028,0.0,0.333,0.333,0.283,103.39,-0.022,2014-04-10T00:00:00,2,1610612744,GSW,Golden State,48-30,28,25,22,24,0,0,0,0,0,0,0,0,0,0,99,0.455,0.867,0.261,19,38,13,0021301175,1610612743,DEN,Denver,Darrell Arthur,,,20:14,0.0,0.0,0.0,0.0,10.0,0.0,0.0,18.0,0.0,0.0,2.0,0.0
0021301175,1610612743,DEN,Denver,202686,Jan Vesely,,,13:04,127.6,84.0,43.7,0.0,0.0,0.0,0.167,0.125,0.15,0.0,1.0,1.042,0.088,97.05,0.075,2014-04-10T00:00:00,2,1610612743,DEN,Denver,35-44,15,28,30,27,0,0,0,0,0,0,0,0,0,0,100,0.375,0.632,0.294,23,63,16,0021301175,1610612743,DEN,Denver,Jan Vesely,,,13:04,2.0,0.0,4.0,4.0,4.0,0.0,0.0,10.0,1.0,0.0,6.0,2.0
0021301175,1610612743,DEN,Denver,202686,Jan Vesely,,,13:04,127.6,84.0,43.7,0.0,0.0,0.0,0.167,0.125,0.15,0.0,1.0,1.042,0.088,97.05,0.075,2014-04-10T00:00:00,2,1610612744,GSW,Golden State,48-30,28,25,22,24,0,0,0,0,0,0,0,0,0,0,99,0.455,0.867,0.261,19,38,13,0021301175,1610612743,DEN,Denver,Jan Vesely,,,13:04,2.0,0.0,4.0,4.0,4.0,0.0,0.0,10.0,1.0,0.0,6.0,2.0
0021301175,1610612743,DEN,Denver,201163,Wilson Chandler,,NWT - Left Groin Strain,,,,,,,0.0,,,,,,,0.0,,,2014-04-10T00:00:00,2,1610612743,DEN,Denver,35-44,15,28,30,27,0,0,0,0,0,0,0,0,0,0,100,0.375,0.632,0.294,23,63,16,0021301175,1610612743,DEN,Denver,Wilson Chandler,,NWT - Left Groin Strain,,,,,,,,,,,,,
0021301175,1610612743,DEN,Denver,201163,Wilson Chandler,,NWT - Left Groin Strain,,,,,,,0.0,,,,,,,0.0,,,2014-04-10T00:00:00,2,1610612744,GSW,Golden State,48-30,28,25,22,24,0,0,0,0,0,0,0,0,0,0,99,0.455,0.867,0.261,19,38,13,0021301175,1610612743,DEN,Denver,Wilson Chandler,,NWT - Left Groin Strain,,,,,,,,,,,,,
0021301175,1610612743,DEN,Denver,201581,JJ Hickson,,NWT - Right ACL Tear,,,,,,,0.0,,,,,,,0.0,,,2014-04-10T00:00:00,2,1610612743,DEN,Denver,35-44,15,28,30,27,0,0,0,0,0,0,0,0,0,0,100,0.375,0.632,0.294,23,63,16,0021301175,1610612743,DEN,Denver,JJ Hickson,,NWT - Right ACL Tear,,,,,,,,,,,,,
0021301175,1610612743,DEN,Denver,201581,JJ Hickson,,NWT - Right ACL Tear,,,,,,,0.0,,,,,,,0.0,,,2014-04-10T00:00:00,2,1610612744,GSW,Golden State,48-30,28,25,22,24,0,0,0,0,0,0,0,0,0,0,99,0.455,0.867,0.261,19,38,13,0021301175,1610612743,DEN,Denver,JJ Hickson,,NWT - Right ACL Tear,,,,,,,,,,,,,
0021301175,1610612743,DEN,Denver,201951,Ty Lawson,,NWT - Left Ankle Sprain,,,,,,,0.0,,,,,,,0.0,,,2014-04-10T00:00:00,2,1610612743,DEN,Denver,35-44,15,28,30,27,0,0,0,0,0,0,0,0,0,0,100,0.375,0.632,0.294,23,63,16,0021301175,1610612743,DEN,Denver,Ty Lawson,,NWT - Left Ankle Sprain,,,,,,,,,,,,,
0021301175,1610612743,DEN,Denver,201951,Ty Lawson,,NWT - Left Ankle Sprain,,,,,,,0.0,,,,,,,0.0,,,2014-04-10T00:00:00,2,1610612744,GSW,Golden State,48-30,28,25,22,24,0,0,0,0,0,0,0,0,0,0,99,0.455,0.867,0.261,19,38,13,0021301175,1610612743,DEN,Denver,Ty Lawson,,NWT - Left Ankle Sprain,,,,,,,,,,,,,
0021301175,1610612743,DEN,Denver,201576,Anthony Randolph,,DNP - Coach's Decision,,,,,,,0.0,,,,,,,0.0,,,2014-04-10T00:00:00,2,1610612743,DEN,Denver,35-44,15,28,30,27,0,0,0,0,0,0,0,0,0,0,100,0.375,0.632,0.294,23,63,16,0021301175,1610612743,DEN,Denver,Anthony Randolph,,DNP - Coach's Decision,,,,,,,,,,,,,
0021301175,1610612743,DEN,Denver,201576,Anthony Randolph,,DNP - Coach's Decision,,,,,,,0.0,,,,,,,0.0,,,2014-04-10T00:00:00,2,1610612744,GSW,Golden State,48-30,28,25,22,24,0,0,0,0,0,0,0,0,0,0,99,0.455,0.867,0.261,19,38,13,0021301175,1610612743,DEN,Denver,Anthony Randolph,,DNP - Coach's Decision,,,,,,,,,,,,,
0021301175,1610612743,DEN,Denver,101126,Nate Robinson,,NWT - Left ACL Sprain,,,,,,,0.0,,,,,,,0.0,,,2014-04-10T00:00:00,2,1610612743,DEN,Denver,35-44,15,28,30,27,0,0,0,0,0,0,0,0,0,0,100,0.375,0.632,0.294,23,63,16,0021301175,1610612743,DEN,Denver,Nate Robinson,,NWT - Left ACL Sprain,,,,,,,,,,,,,
0021301175,1610612743,DEN,Denver,101126,Nate Robinson,,NWT - Left ACL Sprain,,,,,,,0.0,,,,,,,0.0,,,2014-04-10T00:00:00,2,1610612744,GSW,Golden State,48-30,28,25,22,24,0,0,0,0,0,0,0,0,0,0,99,0.455,0.867,0.261,19,38,13,0021301175,1610612743,DEN,Denver,Nate Robinson,,NWT - Left ACL Sprain,,,,,,,,,,,,,
0021301175,1610612744,GSW,Golden State,2738,Andre Iguodala,F,,26:56,105.9,107.6,-1.7,0.136,0.0,30.4,0.038,0.091,0.068,0.0,0.333,0.436,0.107,103.47,0.079,2014-04-10T00:00:00,2,1610612743,DEN,Denver,35-44,15,28,30,27,0,0,0,0,0,0,0,0,0,0,100,0.375,0.632,0.294,23,63,16,0021301175,1610612744,GSW,Golden State,Andre Iguodala,F,,26:56,2.0,0.0,2.0,4.0,15.0,16.0,11.0,32.0,0.0,0.0,2.0,1.0
0021301175,1610612744,GSW,Golden State,2738,Andre Iguodala,F,,26:56,105.9,107.6,-1.7,0.136,0.0,30.4,0.038,0.091,0.068,0.0,0.333,0.436,0.107,103.47,0.079,2014-04-10T00:00:00,2,1610612744,GSW,Golden State,48-30,28,25,22,24,0,0,0,0,0,0,0,0,0,0,99,0.455,0.867,0.261,19,38,13,0021301175,1610612744,GSW,Golden State,Andre Iguodala,F,,26:56,2.0,0.0,2.0,4.0,15.0,16.0,11.0,32.0,0.0,0.0,2.0,1.0
0021301175,1610612744,GSW,Golden State,203110,Draymond Green,F,,24:12,108.4,109.4,-1.0,0.1,0.67,20.0,0.0,0.069,0.041,30.0,0.4,0.4,0.146,105.6,0.0,2014-04-10T00:00:00,2,1610612743,DEN,Denver,35-44,15,28,30,27,0,0,0,0,0,0,0,0,0,0,100,0.375,0.632,0.294,23,63,16,0021301175,1610612744,GSW,Golden State,Draymond Green,F,,24:12,0.0,0.0,0.0,4.0,12.0,16.0,10.0,28.0,0.0,1.0,3.0,0.0
0021301175,1610612744,GSW,Golden State,203110,Draymond Green,F,,24:12,108.4,109.4,-1.0,0.1,0.67,20.0,0.0,0.069,0.041,30.0,0.4,0.4,0.146,105.6,0.0,2014-04-10T00:00:00,2,1610612744,GSW,Golden State,48-30,28,25,22,24,0,0,0,0,0,0,0,0,0,0,99,0.455,0.867,0.261,19,38,13,0021301175,1610612744,GSW,Golden State,Draymond Green,F,,24:12,0.0,0.0,0.0,4.0,12.0,16.0,10.0,28.0,0.0,1.0,3.0,0.0
0021301175,1610612744,GSW,Golden State,101106,Andrew Bogut,C,,26:41,106.3,98.8,7.5,0.048,1.0,16.7,0.115,0.161,0.14,16.7,0.5,0.5,0.08,103.55,0.067,2014-04-10T00:00:00,2,1610612743,DEN,Denver,35-44,15,28,30,27,0,0,0,0,0,0,0,0,0,0,100,0.375,0.632,0.294,23,63,16,0021301175,1610612744,GSW,Golden State,Andrew Bogut,C,,26:41,2.0,0.0,0.0,4.0,14.0,14.0,10.0,28.0,2.0,0.0,3.0,3.0
0021301175,1610612744,GSW,Golden State,101106,Andrew Bogut,C,,26:41,106.3,98.8,7.5,0.048,1.0,16.7,0.115,0.161,0.14,16.7,0.5,0.5,0.08,103.55,0.067,2014-04-10T00:00:00,2,1610612744,GSW,Golden State,48-30,28,25,22,24,0,0,0,0,0,0,0,0,0,0,99,0.455,0.867,0.261,19,38,13,0021301175,1610612744,GSW,Golden State,Andrew Bogut,C,,26:41,2.0,0.0,0.0,4.0,14.0,14.0,10.0,28.0,2.0,0.0,3.0,3.0
0021301175,1610612744,GSW,Golden State,202691,Klay Thompson,G,,30:14,99.6,102.8,-3.2,0.067,0.5,4.4,0.034,0.026,0.03,8.7,0.5,0.528,0.325,101.99,0.08,2014-04-10T00:00:00,2,1610612743,DEN,Denver,35-44,15,28,30,27,0,0,0,0,0,0,0,0,0,0,100,0.375,0.632,0.294,23,63,16,0021301175,1610612744,GSW,Golden State,Klay Thompson,G,,30:14,2.0,2.0,8.0,6.0,15.0,18.0,13.0,34.0,0.0,1.0,2.0,1.0
0021301175,1610612744,GSW,Golden State,202691,Klay Thompson,G,,30:14,99.6,102.8,-3.2,0.067,0.5,4.4,0.034,0.026,0.03,8.7,0.5,0.528,0.325,101.99,0.08,2014-04-10T00:00:00,2,1610612744,GSW,Golden State,48-30,28,25,22,24,0,0,0,0,0,0,0,0,0,0,99,0.455,0.867,0.261,19,38,13,0021301175,1610612744,GSW,Golden State,Klay Thompson,G,,30:14,2.0,2.0,8.0,6.0,15.0,18.0,13.0,34.0,0.0,1.0,2.0,1.0
0021301175,1610612744,GSW,Golden State,201939,Stephen Curry,G,,33:36,95.4,95.2,0.2,0.333,3.0,20.2,0.0,0.167,0.092,6.7,0.474,0.555,0.306,104.2,0.24,2014-04-10T00:00:00,2,1610612743,DEN,Denver,35-44,15,28,30,27,0,0,0,0,0,0,0,0,0,0,100,0.375,0.632,0.294,23,63,16,0021301175,1610612744,GSW,Golden State,Stephen Curry,G,,33:36,4.0,0.0,9.0,10.0,15.0,18.0,13.0,36.0,0.0,0.0,1.0,5.0
0021301175,1610612744,GSW,Golden State,201939,Stephen Curry,G,,33:36,95.4,95.2,0.2,0.333,3.0,20.2,0.0,0.167,0.092,6.7,0.474,0.555,0.306,104.2,0.24,2014-04-10T00:00:00,2,1610612744,GSW,Golden State,48-30,28,25,22,24,0,0,0,0,0,0,0,0,0,0,99,0.455,0.867,0.261,19,38,13,0021301175,1610612744,GSW,Golden State,Stephen Curry,G,,33:36,4.0,0.0,9.0,10.0,15.0,18.0,13.0,36.0,0.0,0.0,1.0,5.0
0021301175,1610612744,GSW,Golden State,979,Jermaine O'Neal,,,21:32,84.9,77.7,7.2,0.091,0.33,7.8,0.0,0.185,0.106,23.3,0.625,0.676,0.248,104.36,0.206,2014-04-10T00:00:00,2,1610612743,DEN,Denver,35-44,15,28,30,27,0,0,0,0,0,0,0,0,0,0,100,0.375,0.632,0.294,23,63,16,0021301175,1610612744,GSW,Golden State,Jermaine O'Neal,,,21:32,2.0,0.0,0.0,6.0,4.0,13.0,10.0,16.0,1.0,0.0,2.0,2.0
0021301175,1610612744,GSW,Golden State,979,Jermaine O'Neal,,,21:32,84.9,77.7,7.2,0.091,0.33,7.8,0.0,0.185,0.106,23.3,0.625,0.676,0.248,104.36,0.206,2014-04-10T00:00:00,2,1610612744,GSW,Golden State,48-30,28,25,22,24,0,0,0,0,0,0,0,0,0,0,99,0.455,0.867,0.261,19,38,13,0021301175,1610612744,GSW,Golden State,Jermaine O'Neal,,,21:32,2.0,0.0,0.0,6.0,4.0,13.0,10.0,16.0,1.0,0.0,2.0,2.0
0021301175,1610612744,GSW,Golden State,203084,Harrison Barnes,,,29:30,80.5,90.5,-10.0,0.111,0.0,22.2,0.0,0.161,0.085,0.0,0.643,0.643,0.109,101.73,0.166,2014-04-10T00:00:00,2,1610612743,DEN,Denver,35-44,15,28,30,27,0,0,0,0,0,0,0,0,0,0,100,0.375,0.632,0.294,23,63,16,0021301175,1610612744,GSW,Golden State,Harrison Barnes,,,29:30,2.0,0.0,0.0,2.0,8.0,13.0,14.0,22.0,1.0,0.0,1.0,1.0
0021301175,1610612744,GSW,Golden State,203084,Harrison Barnes,,,29:30,80.5,90.5,-10.0,0.111,0.0,22.2,0.0,0.161,0.085,0.0,0.643,0.643,0.109,101.73,0.166,2014-04-10T00:00:00,2,1610612744,GSW,Golden State,48-30,28,25,22,24,0,0,0,0,0,0,0,0,0,0,99,0.455,0.867,0.261,19,38,13,0021301175,1610612744,GSW,Golden State,Harrison Barnes,,,29:30,2.0,0.0,0.0,2.0,8.0,13.0,14.0,22.0,1.0,0.0,1.0,1.0
0021301175,1610612744,GSW,Golden State,201578,Marreese Speights,,,15:37,90.1,85.5,4.6,0.0,0.0,0.0,0.0,0.1,0.061,0.0,0.444,0.436,0.32,99.83,0.045,2014-04-10T00:00:00,2,1610612743,DEN,Denver,35-44,15,28,30,27,0,0,0,0,0,0,0,0,0,0,100,0.375,0.632,0.294,23,63,16,0021301175,1610612744,GSW,Golden State,Marreese Speights,,,15:37,2.0,0.0,0.0,8.0,4.0,9.0,8.0,12.0,0.0,1.0,2.0,3.0
0021301175,1610612744,GSW,Golden State,201578,Marreese Speights,,,15:37,90.1,85.5,4.6,0.0,0.0,0.0,0.0,0.1,0.061,0.0,0.444,0.436,0.32,99.83,0.045,2014-04-10T00:00:00,2,1610612744,GSW,Golden State,48-30,28,25,22,24,0,0,0,0,0,0,0,0,0,0,99,0.455,0.867,0.261,19,38,13,0021301175,1610612744,GSW,Golden State,Marreese Speights,,,15:37,2.0,0.0,0.0,8.0,4.0,9.0,8.0,12.0,0.0,1.0,2.0,3.0
0021301175,1610612744,GSW,Golden State,2581,Steve Blake,,,16:06,99.0,91.8,7.2,0.133,1.0,40.0,0.0,0.056,0.033,40.0,0.0,0.0,0.09,100.0,0.0,2014-04-10T00:00:00,2,1610612743,DEN,Denver,35-44,15,28,30,27,0,0,0,0,0,0,0,0,0,0,100,0.375,0.632,0.294,23,63,16,0021301175,1610612744,GSW,Golden State,Steve Blake,,,16:06,0.0,0.0,0.0,0.0,4.0,9.0,8.0,12.0,0.0,0.0,0.0,1.0
0021301175,1610612744,GSW,Golden State,2581,Steve Blake,,,16:06,99.0,91.8,7.2,0.133,1.0,40.0,0.0,0.056,0.033,40.0,0.0,0.0,0.09,100.0,0.0,2014-04-10T00:00:00,2,1610612744,GSW,Golden State,48-30,28,25,22,24,0,0,0,0,0,0,0,0,0,0,99,0.455,0.867,0.261,19,38,13,0021301175,1610612744,GSW,Golden State,Steve Blake,,,16:06,0.0,0.0,0.0,0.0,4.0,9.0,8.0,12.0,0.0,0.0,0.0,1.0
0021301175,1610612744,GSW,Golden State,202348,Jordan Crawford,,,15:37,105.0,85.9,19.1,0.091,0.0,9.1,0.083,0.063,0.071,0.0,0.5,0.5,0.291,103.09,0.142,2014-04-10T00:00:00,2,1610612743,DEN,Denver,35-44,15,28,30,27,0,0,0,0,0,0,0,0,0,0,100,0.375,0.632,0.294,23,63,16,0021301175,1610612744,GSW,Golden State,Jordan Crawford,,,15:37,4.0,2.0,0.0,6.0,4.0,9.0,8.0,10.0,0.0,2.0,1.0,1.0
0021301175,1610612744,GSW,Golden State,202348,Jordan Crawford,,,15:37,105.0,85.9,19.1,0.091,0.0,9.1,0.083,0.063,0.071,0.0,0.5,0.5,0.291,103.09,0.142,2014-04-10T00:00:00,2,1610612744,GSW,Golden State,48-30,28,25,22,24,0,0,0,0,0,0,0,0,0,0,99,0.455,0.867,0.261,19,38,13,0021301175,1610612744,GSW,Golden State,Jordan Crawford,,,15:37,4.0,2.0,0.0,6.0,4.0,9.0,8.0,10.0,0.0,2.0,1.0,1.0
0021301175,1610612744,GSW,Golden State,200756,Hilton Armstrong,,DNP - Coach's Decision,,,,,,,0.0,,,,,,,0.0,,,2014-04-10T00:00:00,2,1610612743,DEN,Denver,35-44,15,28,30,27,0,0,0,0,0,0,0,0,0,0,100,0.375,0.632,0.294,23,63,16,0021301175,1610612744,GSW,Golden State,Hilton Armstrong,,DNP - Coach's Decision,,,,,,,,,,,,,
0021301175,1610612744,GSW,Golden State,200756,Hilton Armstrong,,DNP - Coach's Decision,,,,,,,0.0,,,,,,,0.0,,,2014-04-10T00:00:00,2,1610612744,GSW,Golden State,48-30,28,25,22,24,0,0,0,0,0,0,0,0,0,0,99,0.455,0.867,0.261,19,38,13,0021301175,1610612744,GSW,Golden State,Hilton Armstrong,,DNP - Coach's Decision,,,,,,,,,,,,,
0021301175,1610612744,GSW,Golden State,101135,David Lee,,"DND - Nerve Inflammation, Right Leg",,,,,,,0.0,,,,,,,0.0,,,2014-04-10T00:00:00,2,1610612743,DEN,Denver,35-44,15,28,30,27,0,0,0,0,0,0,0,0,0,0,100,0.375,0.632,0.294,23,63,16,0021301175,1610612744,GSW,Golden State,David Lee,,"DND - Nerve Inflammation, Right Leg",,,,,,,,,,,,,
0021301175,1610612744,GSW,Golden State,101135,David Lee,,"DND - Nerve Inflammation, Right Leg",,,,,,,0.0,,,,,,,0.0,,,2014-04-10T00:00:00,2,1610612744,GSW,Golden State,48-30,28,25,22,24,0,0,0,0,0,0,0,0,0,0,99,0.455,0.867,0.261,19,38,13,0021301175,1610612744,GSW,Golden State,David Lee,,"DND - Nerve Inflammation, Right Leg",,,,,,,,,,,,,
