,cluster,PLAYER_ID,PLAYER_NAME
203946,0,203946,Cameron Bairstow
203543,0,203543,Vitor Faverani
201880,0,201880,Greg Stiemsma
203940,0,203940,Adreian Payne
203948,0,203948,Johnny O'Bryant III
203939,0,203939,Dwight Powell
203486,0,203486,Mason Plumlee
203156,0,203156,Henry Sims
203946,0,203946,Cameron Bairstow
203488,0,203488,Mike Muscala
203961,0,203961,Eric Moreland
203944,0,203944,Julius Randle
101138,0,101138,Brandon Bass
101131,0,101131,Jason Maxiell
203094,0,203094,Andrew Nicholson
201171,0,201171,Carl Landry
203128,0,203128,Furkan Aldemir
204028,0,204028,Tarik Black
2734,1,2734,Devin Harris
201565,1,201565,Derrick Rose
2550,1,2550,Kirk Hinrich
2225,1,2225,Tony Parker
202708,1,202708,Norris Cole
201144,1,201144,Mike Conley
201588,1,201588,George Hill
201609,1,201609,Goran Dragic
201166,1,201166,Aaron Brooks
200765,1,200765,Rajon Rondo
201147,1,201147,Corey Brewer
101108,1,101108,Chris Paul
201937,1,201937,Ricky Rubio
202340,1,202340,Avery Bradley
201988,1,201988,Patty Mills
201976,1,201976,Patrick Beverley
2749,1,2749,Jameer Nelson
201954,1,201954,Darren Collison
201952,1,201952,Jeff Teague
101145,1,101145,Monta Ellis
201943,1,201943,Brandon Jennings
202689,1,202689,Kemba Walker
200755,1,200755,JJ Redick
201939,1,201939,Stephen Curry
101150,1,101150,Lou Williams
202738,1,202738,Isaiah Thomas
200777,2,200777,Joel Freeland
203569,2,203569,Chris Babb
2592,2,2592,James Jones
201568,2,201568,Danilo Gallinari
203133,2,203133,Robbie Hummel
203511,2,203511,Grant Jerrett
101122,2,101122,Danny Granger
203106,2,203106,Jeffery Taylor
101111,2,101111,Charlie Villanueva
203503,2,203503,Tony Snell
204060,2,204060,Joe Ingles
201576,2,201576,Anthony Randolph
204037,2,204037,Travis Wear
201973,2,201973,Jonas Jerebko
204014,2,204014,Damjan Rudez
202363,2,202363,Jarvis Varnado
203960,2,203960,JaKarr Sampson
201956,2,201956,Omri Casspi
201948,2,201948,Austin Daye
2045,2,2045,Hedo Turkoglu
201575,2,201575,Brandon Rush
201858,2,201858,Cartier Martin
203933,2,203933,TJ Warren
203926,2,203926,Doug McDermott
202698,2,202698,Chris Singleton
203923,2,203923,James Young
202720,2,202720,Jon Leuer
202706,2,202706,Jordan Hamilton
203925,2,203925,Joe Harris
203498,2,203498,Shabazz Muhammad
201601,2,201601,Luc Mbah a Moute
203922,2,203922,Glenn Robinson III
202691,3,202691,Klay Thompson
202697,3,202697,Iman Shumpert
203480,3,203480,James Southerland
201942,3,201942,DeMar DeRozan
201162,3,201162,Jared Dudley
202695,3,202695,Kawhi Leonard
203110,3,203110,Draymond Green
202718,3,202718,Chandler Parsons
202345,3,202345,Damion James
201980,3,201980,Danny Green
202083,3,202083,Wesley Matthews
203084,3,203084,Harrison Barnes
201935,3,201935,James Harden
200757,3,200757,Thabo Sefolosha
200756,3,200756,Hilton Armstrong
203935,3,203935,Marcus Smart
2563,3,2563,Dahntay Jones
2203,3,2203,Shane Battier
2440,3,2440,Matt Barnes
203949,3,203949,James Michael McAdoo
2738,3,2738,Andre Iguodala
1713,3,1713,Vince Carter
2549,4,2549,Chris Kaman
202389,4,202389,Timofey Mozgov
201572,4,201572,Brook Lopez
201585,4,201585,Kosta Koufos
203994,4,203994,Jusuf Nurkic
101115,4,101115,Andrew Bynum
203135,4,203135,Robert Sacre
201957,4,201957,Byron Mullens
201579,4,201579,Roy Hibbert
203512,5,203512,Lucas Nogueira
204025,5,204025,Tim Frazier
203517,5,203517,Nemanja Nedovic
203585,5,203585,Rodney McGruder
204022,6,204022,Jack Cooley
201567,7,201567,Kevin Love
203076,7,203076,Anthony Davis
203101,7,203101,Miles Plumlee
2561,7,2561,David West
2564,7,2564,Boris Diaw
201933,7,201933,Blake Griffin
2430,7,2430,Carlos Boozer
201599,7,201599,DeAndre Jordan
201143,7,201143,Al Horford
202693,7,202693,Markieff Morris
2216,7,2216,Zach Randolph
203953,7,203953,Jabari Parker
203956,7,203956,Mitch McGary
1495,7,1495,Tim Duncan
202328,7,202328,Greg Monroe
202324,7,202324,Derrick Favors
2544,7,2544,LeBron James
201142,7,201142,Kevin Durant
202326,7,202326,DeMarcus Cousins
101135,7,101135,David Lee
200782,7,200782,PJ Tucker
200794,7,200794,Paul Millsap
101112,7,101112,Channing Frye
2730,7,2730,Dwight Howard
200746,7,200746,LaMarcus Aldridge
203477,8,203477,Isaiah Canaan
203924,8,203924,Jerami Grant
2754,8,2754,Tony Allen
202918,8,202918,Xavier Silas
2732,8,2732,Ben Gordon
202407,8,202407,Elijah Millsap
203459,8,203459,Allen Crabbe
201627,8,201627,Anthony Morrow
2748,8,2748,Dorell Wright
203516,8,203516,James Ennis III
203484,8,203484,Kentavious Caldwell-Pope
204054,8,204054,Zoran Dragic
203521,8,203521,Matthew Dellavedova
1889,8,1889,Andre Miller
202714,8,202714,Shelvin Mack
203910,8,203910,Nick Johnson
203460,8,203460,Andre Roberson
203914,8,203914,Gary Harris
202705,8,202705,MarShon Brooks
201785,8,201785,Othyus Jeffers
203917,8,203917,Nik Stauskas
203909,8,203909,KJ McDaniels
203918,8,203918,Rodney Hood
201978,8,201978,Chase Budinger
2586,8,2586,Keith Bogans
203117,8,203117,Doron Lamb
2584,8,2584,Willie Green
203113,8,203113,Quincy Miller
2566,8,2566,Travis Outlaw
2757,8,2757,Beno Udrih
203495,8,203495,Ricky Ledo
201986,8,201986,Nando De Colo
201979,8,201979,Nick Calathes
965,8,965,Derek Fisher
203508,8,203508,Sergey Karasev
203505,8,203505,Vander Blue
201961,8,201961,Wayne Ellington
202379,8,202379,Jeremy Evans
203501,8,203501,Tim Hardaway Jr.
202388,8,202388,Donald Sloan
203490,8,203490,Otto Porter Jr.
201148,8,201148,Brandan Wright
203496,8,203496,Robert Covington
959,9,959,Steve Nash
203957,9,203957,Dante Exum
203487,9,203487,Michael Carter-Williams
202348,9,202348,Jordan Crawford
203955,9,203955,Bryce Cotton
202412,9,202412,Manny Harris
1891,9,1891,Jason Terry
202397,9,202397,Ish Smith
101179,9,101179,Ronnie Price
200826,9,200826,J.J. Barea
203468,9,203468,CJ McCollum
203471,9,203471,Dennis Schroder
203552,9,203552,Seth Curry
203197,9,203197,Diante Garrett
203148,9,203148,Brian Roberts
203143,9,203143,Pablo Prigioni
203810,9,203810,Casper Ware
203894,9,203894,Shabazz Napier
2581,9,2581,Steve Blake
2571,9,2571,Leandro Barbosa
203897,9,203897,Zach LaVine
203900,9,203900,Markel Brown
201196,9,201196,Ramon Sessions
203087,9,203087,Jeremy Lamb
201228,9,201228,C.J. Watson
203200,9,203200,Justin Holiday
201571,9,201571,D.J. Augustin
203499,9,203499,Shane Larkin
101198,9,101198,Will Bynum
202709,9,202709,Cory Joseph
2733,9,2733,Shaun Livingston
202734,9,202734,E'Twaun Moore
203901,9,203901,Elfrid Payton
203903,9,203903,Jordan Clarkson
202685,10,202685,Jonas Valanciunas
202696,10,202696,Nikola Vucevic
201577,10,201577,Robin Lopez
1717,10,1717,Dirk Nowitzki
2200,10,2200,Pau Gasol
2199,10,2199,Tyson Chandler
201600,10,201600,Omer Asik
203500,10,203500,Steven Adams
201188,10,201188,Marc Gasol
201178,11,201178,Kyrylo Fesenko
203544,12,203544,Pero Antic
203382,12,203382,Aron Baynes
202332,12,202332,Cole Aldrich
202334,12,202334,Ed Davis
203186,12,203186,Willie Reed
202687,12,202687,Bismack Biyombo
203124,12,203124,Kyle O'Quinn
202719,12,202719,Jeremy Tyler
202962,12,202962,Greg Smith
202730,12,202730,Lavoy Allen
203105,12,203105,Festus Ezeli
203943,12,203943,Noah Vonleh
202970,12,202970,Gustavo Ayon
202327,12,202327,Ekpe Udoh
1737,12,1737,Nazr Mohammed
2408,12,2408,Melvin Ely
201574,12,201574,Jason Thompson
101133,12,101133,Ian Mahinmi
2403,12,2403,Nene
2400,12,2400,Drew Gooden
1733,12,1733,Al Harrington
201965,12,201965,Jeff Ayres
201274,12,201274,Ivan Johnson
201168,12,201168,Tiago Splitter
1882,12,1882,Elton Brand
101154,12,101154,Andray Blatche
201949,12,201949,James Johnson
201591,12,201591,DJ White
2555,12,2555,Nick Collison
979,12,979,Jermaine O'Neal
201202,12,201202,Joel Anthony
201578,12,201578,Marreese Speights
201946,12,201946,Tyler Hansbrough
202683,13,202683,Enes Kanter
201581,13,201581,JJ Hickson
201941,13,201941,Jordan Hill
101107,13,101107,Marvin Williams
202682,13,202682,Derrick Williams
203112,13,203112,Quincy Acy
2743,13,2743,Kris Humphries
203114,13,203114,Khris Middleton
2405,13,2405,Amar'e Stoudemire
203141,13,203141,Mirza Teletovic
203476,13,203476,Gorgui Dieng
101141,13,101141,Ersan Ilyasova
203080,13,203080,Thomas Robinson
203089,13,203089,John Henson
200758,13,200758,Ronnie Brewer
203457,13,203457,Nerlens Noel
201563,13,201563,Michael Beasley
2617,13,2617,Udonis Haslem
202498,13,202498,Lance Thomas
202699,13,202699,Tobias Harris
2501,13,2501,Reggie Evans
203102,13,203102,Arnett Moultrie
203103,13,203103,Perry Jones III
201145,13,201145,Jeff Green
201589,13,201589,Darrell Arthur
201947,13,201947,Earl Clark
2756,14,2756,Sasha Vujacic
201189,15,201189,Aaron Gray
201580,15,201580,JaVale McGee
201934,15,201934,Hasheem Thabeet
202355,15,202355,Hassan Whiteside
203458,15,203458,Alex Len
203120,15,203120,Justin Hamilton
201141,15,201141,Greg Oden
202366,15,202366,Jerome Jordan
203136,15,203136,Ognjen Kuzmic
203086,15,203086,Meyers Leonard
2215,15,2215,Jason Collins
2217,15,2217,Brendan Haywood
2229,16,2229,Mike James
203479,16,203479,Jamaal Franklin
204020,16,204020,Tyler Johnson
203816,16,203816,Scotty Hopson
203122,16,203122,Kevin Murphy
203491,16,203491,Peyton Siva
203540,16,203540,Gigi Datome
204038,16,204038,Langston Galloway
2567,17,2567,Brian Cook
203210,17,203210,JaMychal Green
203991,17,203991,Clint Capela
203798,18,203798,PJ Hairston
101161,18,101161,Amir Johnson
101162,18,101162,Marcin Gortat
2588,18,2588,Matt Bonner
203527,18,203527,Ryan Kelly
200761,18,200761,Shawne Williams
203108,18,203108,Bernard James
201177,18,201177,Josh McRoberts
101139,18,101139,CJ Miles
203109,18,203109,Jae Crowder
201149,18,201149,Joakim Noah
101110,18,101110,Martell Webster
200752,18,200752,Rudy Gay
2694,18,2694,Josh Powell
708,18,708,Kevin Garnett
2207,18,2207,Joe Johnson
202362,18,202362,Lance Stephenson
1890,18,1890,Shawn Marion
202684,18,202684,Tristan Thompson
201967,18,201967,Dante Cunningham
201229,18,201229,Anthony Tolliver
202347,18,202347,Quincy Pondexter
2210,18,2210,Richard Jefferson
202694,18,202694,Marcus Morris
203937,18,203937,Kyle Anderson
202344,18,202344,Trevor Booker
202702,18,202702,Kenneth Faried
1740,18,1740,Rashard Lewis
2399,18,2399,Mike Dunleavy
202703,18,202703,Nikola Mirotic
201583,18,201583,Ryan Anderson
2547,18,2547,Chris Bosh
203077,18,203077,Michael Kidd-Gilchrist
2546,18,2546,Carmelo Anthony
201586,18,201586,Serge Ibaka
202335,18,202335,Patrick Patterson
201959,18,201959,Taj Gibson
2406,18,2406,Caron Butler
202710,18,202710,Jimmy Butler
1718,18,1718,Paul Pierce
202337,18,202337,Luke Babbitt
203462,19,203462,Archie Goodwin
202066,19,202066,Garrett Temple
203998,19,203998,Bruno Caboclo
202091,19,202091,Dionte Christmas
1497,19,1497,Chauncey Billups
202361,19,202361,Landry Fields
200811,19,200811,Lou Amundson
203467,19,203467,Carrick Felix
203906,19,203906,Devyn Marble
203145,19,203145,Kent Bazemore
203913,19,203913,Jabari Brown
203584,19,203584,Troy Daniels
202933,19,202933,Julyan Stone
203921,19,203921,Cleanthony Early
202721,19,202721,Darius Morris
2248,19,2248,Earl Watson
201173,19,201173,Marcus Williams
203513,19,203513,Erik Murphy
203493,19,203493,Reggie Bullock
202419,19,202419,Chris Johnson
203919,19,203919,Jordan Adams
202732,20,202732,DeAndre Liggins
203963,21,203963,Shayne Whittington
203502,21,203502,Tony Mitchell
1897,21,1897,Metta World Peace
203519,21,203519,Adonis Thomas
203158,21,203158,Kevin Jones
202323,22,202323,Evan Turner
201960,22,201960,DeMarre Carroll
2772,22,2772,Trevor Ariza
203506,22,203506,Victor Oladipo
203507,22,203507,Giannis Antetokounmpo
201936,22,201936,Tyreke Evans
201945,22,201945,Gerald Henderson
2747,22,2747,JR Smith
201163,22,201163,Wilson Chandler
2746,22,2746,Josh Smith
202713,22,202713,Kyle Singler
203090,22,203090,Maurice Harkless
201167,22,201167,Arron Afflalo
203524,22,203524,Solomon Hill
2034,22,2034,Mike Miller
2736,22,2736,Luol Deng
201975,22,201975,Jodie Meeks
203100,22,203100,Tony Wroten
202692,22,202692,Alec Burks
202341,22,202341,James Anderson
101187,22,101187,Alan Anderson
201569,22,201569,Eric Gordon
2419,22,2419,Tayshaun Prince
201564,22,201564,O.J. Mayo
200751,22,200751,Randy Foye
202329,22,202329,Al-Farouq Aminu
203932,22,203932,Aaron Gordon
201156,22,201156,Nick Young
977,22,977,Kobe Bryant
202325,22,202325,Wesley Johnson
202331,22,202331,Paul George
203079,22,203079,Dion Waiters
2548,22,2548,Dwyane Wade
202700,22,202700,Donatas Motiejunas
2222,22,2222,Gerald Wallace
201152,22,201152,Thaddeus Young
202330,22,202330,Gordon Hayward
2594,22,2594,Kyle Korver
203473,23,203473,Dewayne Dedmon
203092,23,203092,Tyler Zeller
201582,23,201582,Alexis Ajinca
202686,23,202686,Jan Vesely
203469,23,203469,Cody Zeller
203481,23,203481,Jeff Withey
203482,23,203482,Kelly Olynyk
201160,23,201160,Jason Smith
2788,23,2788,DJ Mbenga
2853,23,2853,Earl Barron
203497,23,203497,Rudy Gobert
201150,23,201150,Spencer Hawes
1938,24,1938,Manu Ginobili
201584,24,201584,Courtney Lee
201587,24,201587,Nicolas Batum
951,24,951,Ray Allen
202339,24,202339,Eric Bledsoe
202704,24,202704,Reggie Jackson
203952,24,203952,Andrew Wiggins
202688,24,202688,Brandon Knight
201951,24,201951,Ty Lawson
2037,24,2037,Jamal Crawford
201950,24,201950,Jrue Holiday
202681,24,202681,Kyrie Irving
202322,24,202322,John Wall
202391,24,202391,Jeremy Lin
101181,24,101181,Jose Calderon
201573,24,201573,Jerryd Bayless
101114,24,101114,Deron Williams
101109,24,101109,Raymond Felton
201158,24,201158,Marco Belinelli
203504,24,203504,Trey Burke
2755,24,2755,Kevin Martin
200768,24,200768,Kyle Lowry
203095,24,203095,Evan Fournier
2590,24,2590,Mo Williams
203085,24,203085,Austin Rivers
203088,24,203088,Kendall Marshall
101123,24,101123,Gerald Green
201566,24,201566,Russell Westbrook
203078,24,203078,Bradley Beal
203463,24,203463,Ben McLemore
203081,24,203081,Damian Lillard
203082,24,203082,Terrence Ross
2744,25,2744,Al Jefferson
2570,25,2570,Kendrick Perkins
2585,25,2585,Zaza Pachulia
202725,25,202725,Josh Harrellson
201595,25,201595,Joey Dorsey
202338,25,202338,Kevin Seraphin
203083,25,203083,Andre Drummond
201175,25,201175,Glen Davis
201593,25,201593,Nikola Pekovic
203268,26,203268,Jorge Gutierrez
203485,26,203485,Lorenzo Brown
203104,26,203104,Marquis Teague
203115,26,203115,Will Barton
203546,26,203546,Ian Clark
2557,26,2557,Luke Ridnour
203915,26,203915,Spencer Dinwiddie
203144,26,203144,Alexey Shved
203898,26,203898,Tyler Ennis
