,cluster,PLAYER_ID,PLAYER_NAME
101133,0,101133,Ian Mahinmi
2400,0,2400,Drew Gooden
201171,0,201171,Carl Landry
203944,0,203944,Julius Randle
203946,0,203946,Cameron Bairstow
203946,0,203946,Cameron Bairstow
203486,0,203486,Mason Plumlee
203124,0,203124,Kyle O'Quinn
203948,0,203948,Johnny O'Bryant III
101131,0,101131,Jason Maxiell
2430,0,2430,Carlos Boozer
203094,0,203094,Andrew Nicholson
201880,0,201880,Greg Stiemsma
203543,0,203543,Vitor Faverani
201274,0,201274,Ivan Johnson
101138,0,101138,Brandon Bass
203156,0,203156,Henry Sims
202730,0,202730,Lavoy Allen
201578,0,201578,Marreese Speights
1882,0,1882,Elton Brand
979,0,979,Jermaine O'Neal
204028,0,204028,Tarik Black
203901,1,203901,Elfrid Payton
201939,1,201939,Stephen Curry
2749,1,2749,Jameer Nelson
201937,1,201937,Ricky Rubio
202708,1,202708,Norris Cole
201565,1,201565,Derrick Rose
201571,1,201571,D.J. Augustin
2550,1,2550,Kirk Hinrich
202738,1,202738,Isaiah Thomas
201609,1,201609,Goran Dragic
2734,1,2734,Devin Harris
202689,1,202689,Kemba Walker
201588,1,201588,George Hill
201943,1,201943,Brandon Jennings
2225,1,2225,Tony Parker
200765,1,200765,Rajon Rondo
201988,1,201988,Patty Mills
201144,1,201144,Mike Conley
101150,1,101150,Lou Williams
201976,1,201976,Patrick Beverley
101145,1,101145,Monta Ellis
201147,1,201147,Corey Brewer
202340,1,202340,Avery Bradley
200755,1,200755,JJ Redick
201954,1,201954,Darren Collison
201952,1,201952,Jeff Teague
201166,1,201166,Aaron Brooks
101108,1,101108,Chris Paul
201563,2,201563,Michael Beasley
203513,2,203513,Erik Murphy
203106,2,203106,Jeffery Taylor
201575,2,201575,Brandon Rush
202698,2,202698,Chris Singleton
201576,2,201576,Anthony Randolph
200811,2,200811,Lou Amundson
203511,2,203511,Grant Jerrett
203128,2,203128,Furkan Aldemir
203133,2,203133,Robbie Hummel
204060,2,204060,Joe Ingles
202363,2,202363,Jarvis Varnado
203922,2,203922,Glenn Robinson III
203933,2,203933,TJ Warren
203940,2,203940,Adreian Payne
201948,2,201948,Austin Daye
203913,2,203913,Jabari Brown
201858,2,201858,Cartier Martin
203925,2,203925,Joe Harris
201601,2,201601,Luc Mbah a Moute
203923,2,203923,James Young
203960,2,203960,JaKarr Sampson
203961,2,203961,Eric Moreland
204037,2,204037,Travis Wear
2045,2,2045,Hedo Turkoglu
203480,3,203480,James Southerland
203949,3,203949,James Michael McAdoo
202345,3,202345,Damion James
203110,3,203110,Draymond Green
201980,3,201980,Danny Green
202695,3,202695,Kawhi Leonard
202083,3,202083,Wesley Matthews
203084,3,203084,Harrison Barnes
203935,3,203935,Marcus Smart
200756,3,200756,Hilton Armstrong
201942,3,201942,DeMar DeRozan
202718,3,202718,Chandler Parsons
201935,3,201935,James Harden
2440,3,2440,Matt Barnes
2563,3,2563,Dahntay Jones
202691,3,202691,Klay Thompson
2738,3,2738,Andre Iguodala
201572,4,201572,Brook Lopez
101115,4,101115,Andrew Bynum
2549,4,2549,Chris Kaman
201585,4,201585,Kosta Koufos
202389,4,202389,Timofey Mozgov
203135,4,203135,Robert Sacre
201579,4,201579,Roy Hibbert
201957,4,201957,Byron Mullens
203994,4,203994,Jusuf Nurkic
204025,5,204025,Tim Frazier
203512,5,203512,Lucas Nogueira
203517,5,203517,Nemanja Nedovic
203585,5,203585,Rodney McGruder
204022,6,204022,Jack Cooley
201599,7,201599,DeAndre Jordan
201574,7,201574,Jason Thompson
201567,7,201567,Kevin Love
203101,7,203101,Miles Plumlee
201143,7,201143,Al Horford
201142,7,201142,Kevin Durant
201933,7,201933,Blake Griffin
200794,7,200794,Paul Millsap
200782,7,200782,PJ Tucker
202326,7,202326,DeMarcus Cousins
203076,7,203076,Anthony Davis
202693,7,202693,Markieff Morris
202328,7,202328,Greg Monroe
202324,7,202324,Derrick Favors
203956,7,203956,Mitch McGary
2561,7,2561,David West
200746,7,200746,LaMarcus Aldridge
2216,7,2216,Zach Randolph
2730,7,2730,Dwight Howard
1495,7,1495,Tim Duncan
203953,7,203953,Jabari Parker
101135,7,101135,David Lee
2564,7,2564,Boris Diaw
101112,7,101112,Channing Frye
2403,7,2403,Nene
2544,7,2544,LeBron James
101154,7,101154,Andray Blatche
203521,8,203521,Matthew Dellavedova
2586,8,2586,Keith Bogans
202918,8,202918,Xavier Silas
203508,8,203508,Sergey Karasev
2757,8,2757,Beno Udrih
203924,8,203924,Jerami Grant
203516,8,203516,James Ennis III
2748,8,2748,Dorell Wright
203918,8,203918,Rodney Hood
203917,8,203917,Nik Stauskas
203914,8,203914,Gary Harris
2592,8,2592,James Jones
203910,8,203910,Nick Johnson
201785,8,201785,Othyus Jeffers
201627,8,201627,Anthony Morrow
202714,8,202714,Shelvin Mack
203909,8,203909,KJ McDaniels
202705,8,202705,MarShon Brooks
2584,8,2584,Willie Green
2732,8,2732,Ben Gordon
202407,8,202407,Elijah Millsap
202388,8,202388,Donald Sloan
203505,8,203505,Vander Blue
965,8,965,Derek Fisher
201986,8,201986,Nando De Colo
201979,8,201979,Nick Calathes
203459,8,203459,Allen Crabbe
201978,8,201978,Chase Budinger
204054,8,204054,Zoran Dragic
203460,8,203460,Andre Roberson
201961,8,201961,Wayne Ellington
1889,8,1889,Andre Miller
203477,8,203477,Isaiah Canaan
203484,8,203484,Kentavious Caldwell-Pope
201148,8,201148,Brandan Wright
203113,8,203113,Quincy Miller
202379,8,202379,Jeremy Evans
203503,8,203503,Tony Snell
203501,8,203501,Tim Hardaway Jr.
203117,8,203117,Doron Lamb
2566,8,2566,Travis Outlaw
203495,8,203495,Ricky Ledo
203490,8,203490,Otto Porter Jr.
1891,9,1891,Jason Terry
202348,9,202348,Jordan Crawford
203903,9,203903,Jordan Clarkson
202412,9,202412,Manny Harris
202397,9,202397,Ish Smith
2557,9,2557,Luke Ridnour
959,9,959,Steve Nash
203957,9,203957,Dante Exum
203955,9,203955,Bryce Cotton
203268,9,203268,Jorge Gutierrez
2571,9,2571,Leandro Barbosa
203499,9,203499,Shane Larkin
203115,9,203115,Will Barton
203900,9,203900,Markel Brown
203471,9,203471,Dennis Schroder
201196,9,201196,Ramon Sessions
203468,9,203468,CJ McCollum
201228,9,201228,C.J. Watson
101179,9,101179,Ronnie Price
202734,9,202734,E'Twaun Moore
203143,9,203143,Pablo Prigioni
203546,9,203546,Ian Clark
200826,9,200826,J.J. Barea
203552,9,203552,Seth Curry
203144,9,203144,Alexey Shved
203810,9,203810,Casper Ware
203894,9,203894,Shabazz Napier
203197,9,203197,Diante Garrett
202709,9,202709,Cory Joseph
203897,9,203897,Zach LaVine
203148,9,203148,Brian Roberts
2581,9,2581,Steve Blake
203200,9,203200,Justin Holiday
101198,9,101198,Will Bynum
203087,9,203087,Jeremy Lamb
203500,10,203500,Steven Adams
1717,10,1717,Dirk Nowitzki
2200,10,2200,Pau Gasol
202696,10,202696,Nikola Vucevic
201188,10,201188,Marc Gasol
201600,10,201600,Omer Asik
201577,10,201577,Robin Lopez
202685,10,202685,Jonas Valanciunas
2199,10,2199,Tyson Chandler
201178,11,201178,Kyrylo Fesenko
202687,12,202687,Bismack Biyombo
203382,12,203382,Aron Baynes
203544,12,203544,Pero Antic
202962,12,202962,Greg Smith
202332,12,202332,Cole Aldrich
202334,12,202334,Ed Davis
202970,12,202970,Gustavo Ayon
203943,12,203943,Noah Vonleh
203105,12,203105,Festus Ezeli
202719,12,202719,Jeremy Tyler
203186,12,203186,Willie Reed
202327,12,202327,Ekpe Udoh
201965,12,201965,Jeff Ayres
2408,12,2408,Melvin Ely
201949,12,201949,James Johnson
2555,12,2555,Nick Collison
1737,12,1737,Nazr Mohammed
1733,12,1733,Al Harrington
201946,12,201946,Tyler Hansbrough
201168,12,201168,Tiago Splitter
201202,12,201202,Joel Anthony
201591,12,201591,DJ White
201941,13,201941,Jordan Hill
203939,13,203939,Dwight Powell
203112,13,203112,Quincy Acy
202498,13,202498,Lance Thomas
203102,13,203102,Arnett Moultrie
203103,13,203103,Perry Jones III
202682,13,202682,Derrick Williams
201947,13,201947,Earl Clark
202683,13,202683,Enes Kanter
201589,13,201589,Darrell Arthur
203476,13,203476,Gorgui Dieng
200758,13,200758,Ronnie Brewer
203488,13,203488,Mike Muscala
2501,13,2501,Reggie Evans
2617,13,2617,Udonis Haslem
203080,13,203080,Thomas Robinson
2743,13,2743,Kris Humphries
201973,13,201973,Jonas Jerebko
203457,13,203457,Nerlens Noel
202720,13,202720,Jon Leuer
202699,13,202699,Tobias Harris
2405,13,2405,Amar'e Stoudemire
203141,13,203141,Mirza Teletovic
101107,13,101107,Marvin Williams
201145,13,201145,Jeff Green
203089,13,203089,John Henson
101111,13,101111,Charlie Villanueva
101141,13,101141,Ersan Ilyasova
201581,13,201581,JJ Hickson
2756,14,2756,Sasha Vujacic
203086,15,203086,Meyers Leonard
201580,15,201580,JaVale McGee
201189,15,201189,Aaron Gray
203136,15,203136,Ognjen Kuzmic
203458,15,203458,Alex Len
201141,15,201141,Greg Oden
2217,15,2217,Brendan Haywood
2215,15,2215,Jason Collins
202366,15,202366,Jerome Jordan
201934,15,201934,Hasheem Thabeet
202355,15,202355,Hassan Whiteside
203120,15,203120,Justin Hamilton
203816,16,203816,Scotty Hopson
203491,16,203491,Peyton Siva
204020,16,204020,Tyler Johnson
203122,16,203122,Kevin Murphy
204038,16,204038,Langston Galloway
2229,16,2229,Mike James
203479,16,203479,Jamaal Franklin
203540,16,203540,Gigi Datome
203991,17,203991,Clint Capela
2567,17,2567,Brian Cook
203210,17,203210,JaMychal Green
200761,18,200761,Shawne Williams
2694,18,2694,Josh Powell
203077,18,203077,Michael Kidd-Gilchrist
203527,18,203527,Ryan Kelly
203108,18,203108,Bernard James
201149,18,201149,Joakim Noah
201177,18,201177,Josh McRoberts
101110,18,101110,Martell Webster
101162,18,101162,Marcin Gortat
203114,18,203114,Khris Middleton
101161,18,101161,Amir Johnson
201162,18,201162,Jared Dudley
101139,18,101139,CJ Miles
200777,18,200777,Joel Freeland
203109,18,203109,Jae Crowder
708,18,708,Kevin Garnett
203569,18,203569,Chris Babb
202684,18,202684,Tristan Thompson
203937,18,203937,Kyle Anderson
2210,18,2210,Richard Jefferson
202362,18,202362,Lance Stephenson
2207,18,2207,Joe Johnson
201956,18,201956,Omri Casspi
202347,18,202347,Quincy Pondexter
201229,18,201229,Anthony Tolliver
201959,18,201959,Taj Gibson
1890,18,1890,Shawn Marion
1740,18,1740,Rashard Lewis
202337,18,202337,Luke Babbitt
202335,18,202335,Patrick Patterson
201967,18,201967,Dante Cunningham
1718,18,1718,Paul Pierce
204014,18,204014,Damjan Rudez
202344,18,202344,Trevor Booker
2406,18,2406,Caron Butler
2399,18,2399,Mike Dunleavy
202713,18,202713,Kyle Singler
201583,18,201583,Ryan Anderson
2588,18,2588,Matt Bonner
2547,18,2547,Chris Bosh
203798,18,203798,PJ Hairston
201568,18,201568,Danilo Gallinari
202710,18,202710,Jimmy Butler
2546,18,2546,Carmelo Anthony
202702,18,202702,Kenneth Faried
201586,18,201586,Serge Ibaka
202694,18,202694,Marcus Morris
202703,18,202703,Nikola Mirotic
200752,18,200752,Rudy Gay
203998,19,203998,Bruno Caboclo
203584,19,203584,Troy Daniels
1497,19,1497,Chauncey Billups
203898,19,203898,Tyler Ennis
203921,19,203921,Cleanthony Early
203919,19,203919,Jordan Adams
203462,19,203462,Archie Goodwin
203467,19,203467,Carrick Felix
203485,19,203485,Lorenzo Brown
2248,19,2248,Earl Watson
203915,19,203915,Spencer Dinwiddie
203906,19,203906,Devyn Marble
203493,19,203493,Reggie Bullock
203145,19,203145,Kent Bazemore
201173,19,201173,Marcus Williams
202091,19,202091,Dionte Christmas
202419,19,202419,Chris Johnson
202361,19,202361,Landry Fields
203104,19,203104,Marquis Teague
202066,19,202066,Garrett Temple
202721,19,202721,Darius Morris
202933,19,202933,Julyan Stone
202732,20,202732,DeAndre Liggins
203963,21,203963,Shayne Whittington
1897,21,1897,Metta World Peace
203519,21,203519,Adonis Thomas
203502,21,203502,Tony Mitchell
203158,21,203158,Kevin Jones
200757,22,200757,Thabo Sefolosha
2594,22,2594,Kyle Korver
2419,22,2419,Tayshaun Prince
201569,22,201569,Eric Gordon
2736,22,2736,Luol Deng
203079,22,203079,Dion Waiters
203524,22,203524,Solomon Hill
202706,22,202706,Jordan Hamilton
2548,22,2548,Dwyane Wade
202700,22,202700,Donatas Motiejunas
202697,22,202697,Iman Shumpert
203932,22,203932,Aaron Gordon
201936,22,201936,Tyreke Evans
977,22,977,Kobe Bryant
202325,22,202325,Wesley Johnson
1713,22,1713,Vince Carter
201975,22,201975,Jodie Meeks
202329,22,202329,Al-Farouq Aminu
202330,22,202330,Gordon Hayward
202331,22,202331,Paul George
201960,22,201960,DeMarre Carroll
202341,22,202341,James Anderson
2034,22,2034,Mike Miller
2203,22,2203,Shane Battier
201945,22,201945,Gerald Henderson
2222,22,2222,Gerald Wallace
2746,22,2746,Josh Smith
203926,22,203926,Doug McDermott
202692,22,202692,Alec Burks
2747,22,2747,JR Smith
201564,22,201564,O.J. Mayo
202323,22,202323,Evan Turner
203496,22,203496,Robert Covington
203498,22,203498,Shabazz Muhammad
201158,22,201158,Marco Belinelli
201156,22,201156,Nick Young
201152,22,201152,Thaddeus Young
203090,22,203090,Maurice Harkless
203100,22,203100,Tony Wroten
201167,22,201167,Arron Afflalo
2772,22,2772,Trevor Ariza
101187,22,101187,Alan Anderson
203506,22,203506,Victor Oladipo
200751,22,200751,Randy Foye
203507,22,203507,Giannis Antetokounmpo
101122,22,101122,Danny Granger
2754,22,2754,Tony Allen
201163,22,201163,Wilson Chandler
201582,23,201582,Alexis Ajinca
203092,23,203092,Tyler Zeller
203473,23,203473,Dewayne Dedmon
202686,23,202686,Jan Vesely
203497,23,203497,Rudy Gobert
203481,23,203481,Jeff Withey
201150,23,201150,Spencer Hawes
203469,23,203469,Cody Zeller
2788,23,2788,DJ Mbenga
2853,23,2853,Earl Barron
203482,23,203482,Kelly Olynyk
201160,23,201160,Jason Smith
2037,24,2037,Jamal Crawford
203952,24,203952,Andrew Wiggins
1938,24,1938,Manu Ginobili
202339,24,202339,Eric Bledsoe
201951,24,201951,Ty Lawson
201950,24,201950,Jrue Holiday
202322,24,202322,John Wall
951,24,951,Ray Allen
202391,24,202391,Jeremy Lin
101123,24,101123,Gerald Green
200768,24,200768,Kyle Lowry
203463,24,203463,Ben McLemore
101181,24,101181,Jose Calderon
2755,24,2755,Kevin Martin
203095,24,203095,Evan Fournier
203082,24,203082,Terrence Ross
203081,24,203081,Damian Lillard
203504,24,203504,Trey Burke
2733,24,2733,Shaun Livingston
203078,24,203078,Bradley Beal
201566,24,201566,Russell Westbrook
203085,24,203085,Austin Rivers
101109,24,101109,Raymond Felton
2590,24,2590,Mo Williams
202681,24,202681,Kyrie Irving
202688,24,202688,Brandon Knight
201573,24,201573,Jerryd Bayless
201584,24,201584,Courtney Lee
202704,24,202704,Reggie Jackson
203088,24,203088,Kendall Marshall
201587,24,201587,Nicolas Batum
203487,24,203487,Michael Carter-Williams
101114,24,101114,Deron Williams
2585,25,2585,Zaza Pachulia
202338,25,202338,Kevin Seraphin
201175,25,201175,Glen Davis
201593,25,201593,Nikola Pekovic
201595,25,201595,Joey Dorsey
2744,25,2744,Al Jefferson
203083,25,203083,Andre Drummond
2570,25,2570,Kendrick Perkins
202725,25,202725,Josh Harrellson
